{"message":"","today":"2020-06-15","seleList":[{"poweroffId":2020031813000689,"sgpoweroffId":null,"subsName":"","lineName":"新柳村线523","pubTranName":"新柳综合39,西柳工业区综合,新柳村南新增综合,边渡口村东66综合变压器,西柳村东新增综合,边渡口村北新增综合,西柳村里综合,新柳东南综合38,边渡口村北综合56,姜齐庄综合11,西柳村西综合61,西柳村东综合18,边渡口校边综合,西柳村综合12,","scope":"【影响街道/乡镇】庞口镇 【高危重要客户】无 【影响客户】新柳村、西柳村、姜齐庄村、边渡口村北、边渡口村东、边渡口村东北","startTime":"2020-03-18 19:53:11","stopDate":"2020-03-19 02:00:00","orgNo":"1340613","typeCode":"电网故障停限电","poweroffArea":"【全线路停电】停边渡口村东66综合变压器,西柳村东综合18,高阳县鑫泽巾被厂变压器,张伯超,北柳庄村东47#农业【纯农排变】,西柳村东50#农业【纯农排变】,边渡口村北新增综合,高阳县润丰粮食收购站变压器,边渡口东南33#农业【纯农排变】,西柳村东新增综合,西柳小白河23#农业【纯农排变】,边渡口村北5#农业【纯农排变】,文记果园,边渡口中学,新柳东南综合38,西柳村51#农业【纯农排变】,西柳面厂1#,西柳村西（南）62#农业【纯农排变】,新柳东南19#农业【纯农排变】,边渡口57#农业【纯农排变】,小冯村,西柳村西综合61,恒康纺织有限公司,边渡口校边综合,西柳工业区综合,西柳村西(北）63#农业【纯农排变】,新柳东方农场21#农业【纯农排变】,边渡口村北综合56,边渡口,文计果园,姜齐庄综合11,西柳村里综合,新柳村南新增综合,边渡口58#农业【纯农排变】,北柳庄28#农业【纯农排变】,新柳东方农场22#农业【纯农排变】,西柳村西北9#农业【纯农排变】,新柳西南37#农业【纯农排变】,齐敬增,边渡口乡35#农业【纯农排变】,张克强水洗厂,西演化工厂,西柳村东8#农业【纯农排变】,天丰农场,西演砖厂,中国移动通信集团河北有限公司高阳分公司变压器,新型建筑材料厂,边渡口后增60#农业【纯农排变】,北柳庄村西48#农业【纯农排变】,新柳小白河,新柳西40#农业【纯农排变】,姜齐庄10#农业【纯农排变】,西柳砖厂(子),边渡口东北34#农业【纯农排变】,张克强水洗厂(子),西柳村东远46#农业【纯农排变】,西柳村综合12,西柳村北16#农业【纯农排变】,小冯村新增5号农业【纯农排变】,西柳面厂2#,西柳村,北柳庄,新柳20#农业【纯农排变】,新柳新增1#（64）农业【纯农排变】,西柳村17#农业【纯农排变】,新柳新增2#（65）农业【纯农排变】,边渡口村北远6#农业【纯农排变】,西柳砖厂,新柳综合39","poweroffReason":"【停电原因】由于风刮异物导致１１０ＫＶ西演变电站新柳村５２３线路全线停电【变更送电】因抢修进度加快原因，送电时间由１０：００变更为０２：００【发布渠道】通过９５５９８发布","powerTime":"2020-03-19 01:32:51","powerComm":"已送电","subsNo":"","lineNo":"","tgNo":"","tgName":null,"infoStatus":"1","orgName":"国网高阳县供电公司","typeName":null,"infoStatusName":null,"dateDay":null,"orgNos":null,"nowTime":null,"countyName":null,"streetName":null,"villageName":null,"roadName":null,"communityName":null,"tranName":null,"sdLineName":null,"cityCode":"1340613","cityName":"国网高阳县供电公司","provinceCode":null,"stopTime":"2020-03-19 02:00:00","powerType":"全部","powerOffArea":"【全线路停电】停边渡口村东66综合变压器,西柳村东综合18,高阳县鑫泽巾被厂变压器,张伯超,北柳庄村东47#农业【纯农排变】,西柳村东50#农业【纯农排变】,边渡口村北新增综合,高阳县润丰粮食收购站变压器,边渡口东南33#农业【纯农排变】,西柳村东新增综合,西柳小白河23#农业【纯农排变】,边渡口村北5#农业【纯农排变】,文记果园,边渡口中学,新柳东南综合38,西柳村51#农业【纯农排变】,西柳面厂1#,西柳村西（南）62#农业【纯农排变】,新柳东南19#农业【纯农排变】,边渡口57#农业【纯农排变】,小冯村,西柳村西综合61,恒康纺织有限公司,边渡口校边综合,西柳工业区综合,西柳村西(北）63#农业【纯农排变】,新柳东方农场21#农业【纯农排变】,边渡口村北综合56,边渡口,文计果园,姜齐庄综合11,西柳村里综合,新柳村南新增综合,边渡口58#农业【纯农排变】,北柳庄28#农业【纯农排变】,新柳东方农场22#农业【纯农排变】,西柳村西北9#农业【纯农排变】,新柳西南37#农业【纯农排变】,齐敬增,边渡口乡35#农业【纯农排变】,张克强水洗厂,西演化工厂,西柳村东8#农业【纯农排变】,天丰农场,西演砖厂,中国移动通信集团河北有限公司高阳分公司变压器,新型建筑材料厂,边渡口后增60#农业【纯农排变】,北柳庄村西48#农业【纯农排变】,新柳小白河,新柳西40#农业【纯农排变】,姜齐庄10#农业【纯农排变】,西柳砖厂(子),边渡口东北34#农业【纯农排变】,张克强水洗厂(子),西柳村东远46#农业【纯农排变】,西柳村综合12,西柳村北16#农业【纯农排变】,小冯村新增5号农业【纯农排变】,西柳面厂2#,西柳村,北柳庄,新柳20#农业【纯农排变】,新柳新增1#（64）农业【纯农排变】,西柳村17#农业【纯农排变】,新柳新增2#（65）农业【纯农排变】,边渡口村北远6#农业【纯农排变】,西柳砖厂,新柳综合39","powerOffReason":"【停电原因】由于风刮异物导致１１０ＫＶ西演变电站新柳村５２３线路全线停电【变更送电】因抢修进度加快原因，送电时间由１０：００变更为０２：００【发布渠道】通过９５５９８发布","powerOffId":"2020031813000689"},{"poweroffId":2020031813000687,"sgpoweroffId":null,"subsName":"","lineName":"角羊523","pubTranName":"八里店(002):照明1台区,南角羊公用照明4台区,小陈村公用照明2台区,八里店公用照明13台区,客户投资_南角羊(004):照明1台区,南角羊(004):照明2台区,八里店公用照明10台区,北角羊(024):照明1台区,仝家庄(021):照明1台区,八里店公用照明7台区,大洼里公用照明3台区,北角羊公用照明2台区,仝家庄公用照明5台区,小涨(020):照明1台区,八里店公用照明9台区,南角羊公用照明8台区,北角羊公用照明6台区变压器,南角羊公用照明6台区,八里店公用照明5台区,南角羊公用照明9台区,仝家庄公用照明2台区,大洼里公用照明7台区变压器,南角羊照明3台区,南角羊公用照明10台区,八里店公用照明14台区,八里店公用照明4台区,八里店照明3台区,仝家庄公用照明6台区,南角羊公用照明7台区,东关(001)：照明5台区,北角羊公用照明3台区,八里店公用照明8台区,小陈村公用照明1台区,仝家庄公用照明3台区,大洼里(003):照明1台区,南角羊公用照明5台区,八里店公用照明15台区519,大洼里(003):公用照明4台区,北角羊公用照明5台区,小涨村公用照明2台区,八里店公用照明6台区,北角羊公用照明4台区,八里店公用照明11台区,仝家庄公用照明4台区,大洼里照明2台区,大洼里公用照明6台区,八里店(002):照明2台区,小涨村公用照明3台区,大洼里公用照明8台区变压器,八里店公用照明12台区,大洼里公用照明5台区,","scope":"【影响街道/乡镇】北城区、南城区、杨家庄乡【高危重要客户】无 【影响客户】仝家庄、八里店、小涨村、南角羊、北角羊、大洼里、小陈村、天德环保","startTime":"2020-03-18 19:56:59","stopDate":"2020-03-19 00:30:00","orgNo":"1340610","typeCode":"电网故障停限电","poweroffArea":"【全线路停电】停小涨(020):照明1台区,仝家庄公用照明4台区,大洼里照明2台区,大洼里公用照明6台区,八里店(002):照明2台区,小涨村公用照明3台区,大洼里公用照明8台区变压器,八里店公用照明12台区,大洼里公用照明5台区,大洼里公用照明3台区,北角羊公用照明2台区,八里店公用照明9台区,南角羊公用照明8台区,北角羊公用照明6台区变压器,南角羊公用照明6台区,八里店公用照明5台区,南角羊公用照明9台区,仝家庄公用照明2台区,大洼里公用照明7台区变压器,南角羊照明3台区,南角羊公用照明10台区,仝家庄公用照明5台区,八里店公用照明14台区,八里店公用照明4台区,八里店照明3台区,仝家庄公用照明6台区,南角羊公用照明7台区,东关(001)：照明5台区,北角羊公用照明3台区,八里店公用照明8台区,小陈村公用照明1台区,仝家庄公用照明3台区,大洼里(003):照明1台区,南角羊公用照明5台区,八里店公用照明15台区519,大洼里(003):公用照明4台区,北角羊公用照明5台区,小涨村公用照明2台区,八里店公用照明6台区,北角羊公用照明4台区,八里店公用照明11台区,八里店(002):照明1台区,南角羊公用照明4台区,小陈村公用照明2台区,八里店公用照明13台区,客户投资_南角羊(004):照明1台区,南角羊(004):照明2台区,八里店公用照明10台区,北角羊(024):照明1台区,仝家庄(021):照明1台区,八里店公用照明7台区","poweroffReason":"【停电原因】由于杨家庄乡政府０１号杆断杆导致３５ＫＶ东北郊变电站１０ＫＶ５２３角羊线路全线停电 【变更送电】因抢修进度加快原因，送电时间由１９日０８：００变更为１９日００：３０ 【发布渠道】９５５９８","powerTime":"2020-03-19 00:03:44","powerComm":"已送电","subsNo":"","lineNo":"","tgNo":"","tgName":null,"infoStatus":"1","orgName":"国网定州市供电公司","typeName":null,"infoStatusName":null,"dateDay":null,"orgNos":null,"nowTime":null,"countyName":null,"streetName":null,"villageName":null,"roadName":null,"communityName":null,"tranName":null,"sdLineName":null,"cityCode":"1340610","cityName":"国网定州市供电公司","provinceCode":null,"stopTime":"2020-03-19 00:30:00","powerType":"全部","powerOffArea":"【全线路停电】停小涨(020):照明1台区,仝家庄公用照明4台区,大洼里照明2台区,大洼里公用照明6台区,八里店(002):照明2台区,小涨村公用照明3台区,大洼里公用照明8台区变压器,八里店公用照明12台区,大洼里公用照明5台区,大洼里公用照明3台区,北角羊公用照明2台区,八里店公用照明9台区,南角羊公用照明8台区,北角羊公用照明6台区变压器,南角羊公用照明6台区,八里店公用照明5台区,南角羊公用照明9台区,仝家庄公用照明2台区,大洼里公用照明7台区变压器,南角羊照明3台区,南角羊公用照明10台区,仝家庄公用照明5台区,八里店公用照明14台区,八里店公用照明4台区,八里店照明3台区,仝家庄公用照明6台区,南角羊公用照明7台区,东关(001)：照明5台区,北角羊公用照明3台区,八里店公用照明8台区,小陈村公用照明1台区,仝家庄公用照明3台区,大洼里(003):照明1台区,南角羊公用照明5台区,八里店公用照明15台区519,大洼里(003):公用照明4台区,北角羊公用照明5台区,小涨村公用照明2台区,八里店公用照明6台区,北角羊公用照明4台区,八里店公用照明11台区,八里店(002):照明1台区,南角羊公用照明4台区,小陈村公用照明2台区,八里店公用照明13台区,客户投资_南角羊(004):照明1台区,南角羊(004):照明2台区,八里店公用照明10台区,北角羊(024):照明1台区,仝家庄(021):照明1台区,八里店公用照明7台区","powerOffReason":"【停电原因】由于杨家庄乡政府０１号杆断杆导致３５ＫＶ东北郊变电站１０ＫＶ５２３角羊线路全线停电 【变更送电】因抢修进度加快原因，送电时间由１９日０８：００变更为１９日００：３０ 【发布渠道】９５５９８","powerOffId":"2020031813000687"},{"poweroffId":2020031813000684,"sgpoweroffId":null,"subsName":"","lineName":"10kV薛留营站535线路","pubTranName":"10kVD053.D054箱式变电站配电变压器间隔配电变压器,B616柱上变压器,10kVB680.B681配电室B680配电变压器,10kV薛留营535线路D054箱式变压器配电变压器,B132柱上变压器,B1562柱上变压器,B225柱上变压器,B614柱上变压器,10kVB680.B681配电室B681配电变压器,B131柱上变压器,","scope":"【影响街道/乡镇】北市区、莲池北大街、琅瑚街、五四东路、新北街、双胜街、五四中路 【高危重要客户】无 【影响客户】东元宝小区、厚福盈、新建胡同、大纪家、紫河套小区、水泥制品厂、四职中宿舍、西院建行宿舍、省招待所","startTime":"2020-03-18 19:30:00","stopDate":"2020-03-18 22:30:00","orgNo":"13406","typeCode":"电网故障停限电","poweroffArea":"【全线路停电】停0356218832-河北省省直机关事务管理局保定招待处-1-配电室-变压器,B616柱上变压器,0356213677-法医医院-专变,10kVB680.B681配电室B680配电变压器,0357505555-河北省省直机关事务管理局保定管理处-1-配电室变压器,0356277167-北京军区房地产管理局保定办事处-专变,10kVB680.B681配电室B681配电变压器,0599127212-中国人民解放军66393部队-2#专变,变压器,0373064454-华北电力大学(保定)-专变,0356341127-市政维护处路灯-专变,10kV薛留营535线路D054箱式变压器配电变压器,0356341101-市政维护处路灯-专变,0599127212-中国人民解放军66393部队-1#专变,B132柱上变压器,B1562柱上变压器,0356330400-军分区-2#专变,B225柱上变压器,B614柱上变压器,B131柱上变压器,0356268840-保定市睿童幼儿园-1-配电室变压器,0356545200-保定市青少年宫-1-配电室变压器,10kVD053.D054箱式变电站配电变压器间隔配电变压器,0356289614-中国人民解放军66393部队-2#专变","poweroffReason":"【停电原因】由于分支开关短路导致１０ＫＶ薛留营变电站５３５线路全线停电【变更送电】因抢修进度加快，原定２３:３０送电现计划２２:３０送电【发布渠道】通过９５５９８发布","powerTime":"2020-03-18 21:53:57","powerComm":"已送电","subsNo":"","lineNo":"","tgNo":"","tgName":null,"infoStatus":"1","orgName":"保定供电公司","typeName":null,"infoStatusName":null,"dateDay":null,"orgNos":null,"nowTime":null,"countyName":null,"streetName":null,"villageName":null,"roadName":null,"communityName":null,"tranName":null,"sdLineName":null,"cityCode":"13406","cityName":"保定供电公司","provinceCode":null,"stopTime":"2020-03-18 22:30:00","powerType":"全部","powerOffArea":"【全线路停电】停0356218832-河北省省直机关事务管理局保定招待处-1-配电室-变压器,B616柱上变压器,0356213677-法医医院-专变,10kVB680.B681配电室B680配电变压器,0357505555-河北省省直机关事务管理局保定管理处-1-配电室变压器,0356277167-北京军区房地产管理局保定办事处-专变,10kVB680.B681配电室B681配电变压器,0599127212-中国人民解放军66393部队-2#专变,变压器,0373064454-华北电力大学(保定)-专变,0356341127-市政维护处路灯-专变,10kV薛留营535线路D054箱式变压器配电变压器,0356341101-市政维护处路灯-专变,0599127212-中国人民解放军66393部队-1#专变,B132柱上变压器,B1562柱上变压器,0356330400-军分区-2#专变,B225柱上变压器,B614柱上变压器,B131柱上变压器,0356268840-保定市睿童幼儿园-1-配电室变压器,0356545200-保定市青少年宫-1-配电室变压器,10kVD053.D054箱式变电站配电变压器间隔配电变压器,0356289614-中国人民解放军66393部队-2#专变","powerOffReason":"【停电原因】由于分支开关短路导致１０ＫＶ薛留营变电站５３５线路全线停电【变更送电】因抢修进度加快，原定２３:３０送电现计划２２:３０送电【发布渠道】通过９５５９８发布","powerOffId":"2020031813000684"},{"poweroffId":2020031813000679,"sgpoweroffId":null,"subsName":"","lineName":"10kV570四鲍墟线","pubTranName":"北鲍墟综合6台区,南鲍墟综合5台区,南鲍墟综合8台区,东鲍墟综合5台区,东保去综合2台区,北鲍墟综合9台区,北鲍墟综合10台区【冬季供暖设施】,东保去综合3台区,南保去综合2台区,西保去综合2台区,西保去综合5台区,南鲍墟综合6台区,西鲍墟综合9台区【冬季供暖设施】,北鲍墟综合4台区,西保去综合4台区,西保去综合3台区,北保去综合1台区,东鲍墟综合7台区,南鲍墟综合7台区,东保去综合4台区,西鲍墟综合7台区,北鲍墟综合8台区,客户投资_北保去综合3台区,南鲍墟农排8台区,北鲍墟综合5台区,西保去综合1台区,北鲍墟综合7台区,南保去综合3台区,南鲍墟综合9台区,东保去综合1台区,南鲍墟综合10台区,东鲍墟综合6台区,南保去综合1台区,南鲍墟综合4台区,北保去综合2台区,西鲍墟综合8台区,西鲍墟综合6台区,","scope":"【影响街道/乡镇】鲍墟乡【高危重要客户】无【影响客户】东鲍墟村、西鲍墟村、南鲍墟村、北鲍墟村","startTime":"2020-03-18 19:54:00","stopDate":"2020-03-19 03:30:00","orgNo":"1340616","typeCode":"电网故障停限电","poweroffArea":"【全线路停电】停进托,东鲍墟综合7台区,南鲍墟综合7台区,东保去综合4台区,西鲍墟综合7台区,北鲍墟综合8台区,南保去综合1台区,西鲍墟综合6台区,西鲍墟综合8台区,北鲍墟综合9台区,北鲍墟综合10台区【冬季供暖设施】,东保去综合3台区,西保去综合1台区,瑞兴宏景变压器500,南保去综合2台区,西保去综合2台区,西保去综合5台区,南鲍墟综合6台区,西鲍墟综合9台区【冬季供暖设施】,北鲍墟综合4台区,蠡县亿帮洁日化有限公司,北鲍墟综合6台区,南鲍墟综合5台区,南鲍墟综合8台区,东鲍墟综合5台区,东保去综合2台区,客户投资_北保去综合3台区,南鲍墟农排8台区,北鲍墟综合5台区,保去社办厂,北鲍墟综合7台区,保定江雄商品混凝土有限公司变压器,南保去综合3台区,南鲍墟综合9台区,东保去综合1台区,南保红亮,保去中学变压器,南鲍墟综合10台区,瑞兴宏景变压器315,种子站,东鲍墟综合6台区,文瑞,南鲍墟综合4台区,北保去综合2台区,西保去综合4台区,西保去综合3台区,北保去综合1台区","poweroffReason":"【停电原因】由于站内开关掉闸导致１１０ＫＶ南庄变电站１０ＫＶ四鲍墟５７０线路全线停电【变更送电】因抢修进度加快原因，送电时间由１９日０９：００变更为１９日００：３０【发布渠道】通过９５５９８发布","powerTime":"2020-03-19 02:55:00","powerComm":"已送电","subsNo":"","lineNo":"","tgNo":"","tgName":null,"infoStatus":"1","orgName":"国网蠡县供电公司","typeName":null,"infoStatusName":null,"dateDay":null,"orgNos":null,"nowTime":null,"countyName":null,"streetName":null,"villageName":null,"roadName":null,"communityName":null,"tranName":null,"sdLineName":null,"cityCode":"1340616","cityName":"国网蠡县供电公司","provinceCode":null,"stopTime":"2020-03-19 03:30:00","powerType":"全部","powerOffArea":"【全线路停电】停进托,东鲍墟综合7台区,南鲍墟综合7台区,东保去综合4台区,西鲍墟综合7台区,北鲍墟综合8台区,南保去综合1台区,西鲍墟综合6台区,西鲍墟综合8台区,北鲍墟综合9台区,北鲍墟综合10台区【冬季供暖设施】,东保去综合3台区,西保去综合1台区,瑞兴宏景变压器500,南保去综合2台区,西保去综合2台区,西保去综合5台区,南鲍墟综合6台区,西鲍墟综合9台区【冬季供暖设施】,北鲍墟综合4台区,蠡县亿帮洁日化有限公司,北鲍墟综合6台区,南鲍墟综合5台区,南鲍墟综合8台区,东鲍墟综合5台区,东保去综合2台区,客户投资_北保去综合3台区,南鲍墟农排8台区,北鲍墟综合5台区,保去社办厂,北鲍墟综合7台区,保定江雄商品混凝土有限公司变压器,南保去综合3台区,南鲍墟综合9台区,东保去综合1台区,南保红亮,保去中学变压器,南鲍墟综合10台区,瑞兴宏景变压器315,种子站,东鲍墟综合6台区,文瑞,南鲍墟综合4台区,北保去综合2台区,西保去综合4台区,西保去综合3台区,北保去综合1台区","powerOffReason":"【停电原因】由于站内开关掉闸导致１１０ＫＶ南庄变电站１０ＫＶ四鲍墟５７０线路全线停电【变更送电】因抢修进度加快原因，送电时间由１９日０９：００变更为１９日００：３０【发布渠道】通过９５５９８发布","powerOffId":"2020031813000679"},{"poweroffId":2020031813000678,"sgpoweroffId":null,"subsName":"","lineName":"10kV平安北街线523","pubTranName":"涿州市远方名流房地产开发有限公司A配电变压器,小沙坎村东新增台区,槐林商业街东台区,涿州市强舜铭城小区A,涿州市远方名流房地产开发有限公司B配电变压器,园林苗圃厂,清凉寺供电所塔西村(政府新址）,小沙坎0485,小沙坎0500【纯农排变】,强舜铭城小区D,涿州市远方名流房地产开发有限公司C配电变压器,涿州市远方名流房地产开发有限公司D配电变压器,","scope":"【影响街道/乡镇】清凉寺城区平安北街、燕邑东路 【高危重要客户】无 【影响客户】华泰豪庭小区、强舜铭城小区、银都小区 、名流五期小区、名流嘉和小区、名流丽苑别墅、名流涿郡东区、名流翡翠滨江小区、小沙坎村","startTime":"2020-03-18 19:56:34","stopDate":"2020-03-19 01:00:00","orgNo":"1340626","typeCode":"电网故障停限电","poweroffArea":"【全线路停电】停涿州市远方名流房地产开发有限公司C配电变压器,小沙坎村东新增台区,0387556695-涿州市名流物业服务有限公司-专变-45356652-涿州远方名流房地产,大沙坎村西【纯农排变】,涿州市远方名流房地产开发有限公司小沙坎村1,涿州市强舜铭城小区A,涿州市远方名流房地产开发有限公司B配电变压器,大沙坎村西浇地【纯农排变】,0387556259-涿州市名流物业服务有限公司-专变-45356613-名流丽苑别墅,涿州市远方名流房地产开发有限公司D配电变压器,小沙坎0500【纯农排变】,涿州市远方名流房地产开发有限公司A配电变压器,河北省涿州市远方名流房地产开发有限公司,大沙坎浇地公用变压器（清凉寺供电所）,小沙坎0485,0387557034-涿州市名流物业服务有限公司-专变-45356487-涿州远方名流房地产,强舜铭城小区D,企业局家属院,涿州市静升电力工程有限公司,槐林商业街东台区,涿州市京热热力有限责任公司,涿州市天运义诚房地产开发有限公司,涿州市城市管理综合执法局2,涿州市涵冰幼儿园,涿州市城市管理综合执法局3,汽贸城,涿州市城市管理综合执法局1,涿州市中医医院清凉寺小沙坎村,0618452938-涿州市华泰房地产开发有限公司-专变-128794692-涿州市华泰房地产开发有限公司,园林苗圃厂,清凉寺供电所塔西村(政府新址）","poweroffReason":"【停电原因】由于大风外力破坏导致１１０ＫＶ塔上变电站１０ＫＶ平安北街５２３线路全线停电 【变更送电】因抢修进度加快原因，送电时间由１２：００变更为０１：００ 【发布渠道】通过９５５９８发布","powerTime":"2020-03-19 00:41:46","powerComm":"恢复送电","subsNo":"","lineNo":"","tgNo":"","tgName":null,"infoStatus":"1","orgName":"国网涿州市供电公司","typeName":null,"infoStatusName":null,"dateDay":null,"orgNos":null,"nowTime":null,"countyName":null,"streetName":null,"villageName":null,"roadName":null,"communityName":null,"tranName":null,"sdLineName":null,"cityCode":"1340626","cityName":"国网涿州市供电公司","provinceCode":null,"stopTime":"2020-03-19 01:00:00","powerType":"全部","powerOffArea":"【全线路停电】停涿州市远方名流房地产开发有限公司C配电变压器,小沙坎村东新增台区,0387556695-涿州市名流物业服务有限公司-专变-45356652-涿州远方名流房地产,大沙坎村西【纯农排变】,涿州市远方名流房地产开发有限公司小沙坎村1,涿州市强舜铭城小区A,涿州市远方名流房地产开发有限公司B配电变压器,大沙坎村西浇地【纯农排变】,0387556259-涿州市名流物业服务有限公司-专变-45356613-名流丽苑别墅,涿州市远方名流房地产开发有限公司D配电变压器,小沙坎0500【纯农排变】,涿州市远方名流房地产开发有限公司A配电变压器,河北省涿州市远方名流房地产开发有限公司,大沙坎浇地公用变压器（清凉寺供电所）,小沙坎0485,0387557034-涿州市名流物业服务有限公司-专变-45356487-涿州远方名流房地产,强舜铭城小区D,企业局家属院,涿州市静升电力工程有限公司,槐林商业街东台区,涿州市京热热力有限责任公司,涿州市天运义诚房地产开发有限公司,涿州市城市管理综合执法局2,涿州市涵冰幼儿园,涿州市城市管理综合执法局3,汽贸城,涿州市城市管理综合执法局1,涿州市中医医院清凉寺小沙坎村,0618452938-涿州市华泰房地产开发有限公司-专变-128794692-涿州市华泰房地产开发有限公司,园林苗圃厂,清凉寺供电所塔西村(政府新址）","powerOffReason":"【停电原因】由于大风外力破坏导致１１０ＫＶ塔上变电站１０ＫＶ平安北街５２３线路全线停电 【变更送电】因抢修进度加快原因，送电时间由１２：００变更为０１：００ 【发布渠道】通过９５５９８发布","powerOffId":"2020031813000678"},{"poweroffId":2020031813000676,"sgpoweroffId":null,"subsName":"","lineName":"微波站517线","pubTranName":"供电所2078,李家庄6059,李家庄2323,大寺城涧1740变压器,东都亭3189变压器,李家庄2727【纯农排变】,东都亭村东6064,杨城涧0325,李家庄3159变压器,大寺城涧0324,李家庄1417,东都亭2615,东都亭6520变压器,东都亭130变压器,李家庄2725【纯农排变】,大寺城涧2694,李家庄4064,东都亭4636变压器,东都亭128变压器,大寺城涧2687,大寺城涧3158,李城涧0133,东都亭村北6063,东都亭6669变压器,李城涧4714,李家庄0316,李城涧4079,","scope":"【影响街道/乡镇】仁厚镇、都亭乡【高危重要客户】无【影响客户】唐县中央公馆、大寺城涧、李家庄、杨城涧、李城涧、东都亭、兴和大酒店、瑞利牧业、酒厂","startTime":"2020-03-18 19:50:54","stopDate":"2020-03-18 23:00:00","orgNo":"1340622","typeCode":"电网故障停限电","poweroffArea":"【全线路停电】停唐县永耀混凝土搅拌有限公司,李家庄6059,东都亭2615,利群食品有限公司0317,河北焕歌物流有限公司10KV配变,大寺城涧3158,李家庄0316,李家庄2725【纯农排变】,东都亭6669变压器,河北香江房地产3#箱变,李家庄4064,东都亭130变压器,东都亭6520变压器,大寺城涧0324,电视台0120,保定兴华建筑有限公司,南环医院1812,大寺城涧2694,0387521772-河北帝尧鸿酒业有限公司-专变-210340460-河北帝尧鸿酒业有限公司,李家庄1417,微波站,河北香江房地产2#箱变,李城涧4079,东都亭村东6064,惠琳公司0321,唐县恒天气体有限责任公司,东都亭3189变压器,大寺城涧1740变压器,唐县永耀混凝土搅拌有限公司配变,唐县南环医院4659,供电所2078,李城涧0133,东都亭128变压器,李家庄3159变压器,李家庄2727【纯农排变】,李城涧4714,河北香江房地产1#箱变,杨城涧0325,西环加油站1827,唐县强茂有机肥生产有限公司,东都亭4636变压器,兴和大酒店1970,大寺城涧2687,李家庄2323,唐县恒兴饲料厂2790,木器厂家属0122,冰冰冷冻1828,东都亭村北6063","poweroffReason":"【停电原因】由于大风恶劣天气导致１１０ＫＶ唐县变电站微波站５１７线路全线停电【变更送电】因抢修进度加快原因，送电时间由１９日的１０：００变更为２３：００【发布渠道】通过９５５９８发布","powerTime":"2020-03-18 22:15:37","powerComm":"已送电","subsNo":"","lineNo":"","tgNo":"","tgName":null,"infoStatus":"1","orgName":"国网唐县供电公司","typeName":null,"infoStatusName":null,"dateDay":null,"orgNos":null,"nowTime":null,"countyName":null,"streetName":null,"villageName":null,"roadName":null,"communityName":null,"tranName":null,"sdLineName":null,"cityCode":"1340622","cityName":"国网唐县供电公司","provinceCode":null,"stopTime":"2020-03-18 23:00:00","powerType":"全部","powerOffArea":"【全线路停电】停唐县永耀混凝土搅拌有限公司,李家庄6059,东都亭2615,利群食品有限公司0317,河北焕歌物流有限公司10KV配变,大寺城涧3158,李家庄0316,李家庄2725【纯农排变】,东都亭6669变压器,河北香江房地产3#箱变,李家庄4064,东都亭130变压器,东都亭6520变压器,大寺城涧0324,电视台0120,保定兴华建筑有限公司,南环医院1812,大寺城涧2694,0387521772-河北帝尧鸿酒业有限公司-专变-210340460-河北帝尧鸿酒业有限公司,李家庄1417,微波站,河北香江房地产2#箱变,李城涧4079,东都亭村东6064,惠琳公司0321,唐县恒天气体有限责任公司,东都亭3189变压器,大寺城涧1740变压器,唐县永耀混凝土搅拌有限公司配变,唐县南环医院4659,供电所2078,李城涧0133,东都亭128变压器,李家庄3159变压器,李家庄2727【纯农排变】,李城涧4714,河北香江房地产1#箱变,杨城涧0325,西环加油站1827,唐县强茂有机肥生产有限公司,东都亭4636变压器,兴和大酒店1970,大寺城涧2687,李家庄2323,唐县恒兴饲料厂2790,木器厂家属0122,冰冰冷冻1828,东都亭村北6063","powerOffReason":"【停电原因】由于大风恶劣天气导致１１０ＫＶ唐县变电站微波站５１７线路全线停电【变更送电】因抢修进度加快原因，送电时间由１９日的１０：００变更为２３：００【发布渠道】通过９５５９８发布","powerOffId":"2020031813000676"},{"poweroffId":2020031813000669,"sgpoweroffId":null,"subsName":"","lineName":"10kV薛留营站534线路","pubTranName":"0696328916-保定市发投热力有限公司-专变-1,0696328916-保定市发投热力有限公司-专变-2,","scope":"【影响街道/乡镇】三丰路 【高危重要客户】无 【影响客户】保定市发投热力有限公司、五金宿舍","startTime":"2020-03-18 19:53:34","stopDate":"2020-03-18 23:00:00","orgNo":"13406","typeCode":"电网故障停限电","poweroffArea":"【全线路停电】停0696328916-保定市发投热力有限公司-专变-1,0696328916-保定市发投热力有限公司-专变-2","poweroffReason":"【停电原因】由于分支开关短路导致１０ＫＶ薛留营变电站５３４线路全线停电【变更送电】无【发布渠道】通过９５５９８发布","powerTime":"2020-03-18 22:05:43","powerComm":"已送电","subsNo":"","lineNo":"","tgNo":"","tgName":null,"infoStatus":"1","orgName":"保定供电公司","typeName":null,"infoStatusName":null,"dateDay":null,"orgNos":null,"nowTime":null,"countyName":null,"streetName":null,"villageName":null,"roadName":null,"communityName":null,"tranName":null,"sdLineName":null,"cityCode":"13406","cityName":"保定供电公司","provinceCode":null,"stopTime":"2020-03-18 23:00:00","powerType":"全部","powerOffArea":"【全线路停电】停0696328916-保定市发投热力有限公司-专变-1,0696328916-保定市发投热力有限公司-专变-2","powerOffReason":"【停电原因】由于分支开关短路导致１０ＫＶ薛留营变电站５３４线路全线停电【变更送电】无【发布渠道】通过９５５９８发布","powerOffId":"2020031813000669"},{"poweroffId":2020031813000668,"sgpoweroffId":null,"subsName":"","lineName":"湘连口线511","pubTranName":"北辛庄皮制品厂,高阳县贾务面粉厂变压器,都曹口31#农业【纯农排变】,都曹口33综合,贾务东,高阳县宝发纺织机械制造有限公司变压器,都曹口121#农业【纯农排变】,保定京阳线缆有限公司,南辛庄综合（116）,京阳电揽厂,贾务村东北农业【纯农排变】,保定京阳立津线缆制造有限公司变压器,都曹口62#农业【纯农排变】,都曹口新增综合,南梁庄村东新增综合,祥丰毛巾厂,河北保沧高速公路公司,庞佐96#农业【纯农排变】,北柳庄村西49#农业【纯农排变】,都曹口34#农业【纯农排变】,史文清变压器,北辛庄综合36,边家务52#农业【纯农排变】,庞佐村西北新增综合,田佐2#农业【纯农排变】,北柳庄综合3,边家务村西新增综合　,任佐新增农业【纯农排变】,贾务村东农业【纯农排变】,边家务51#农业【纯农排变】,北辛庄54综合,南梁庄7#农业【纯农排变】,田佐53#农业【纯农排变】,都曹口32#农业【纯农排变】,田佐村东新增农业【纯农排变】,北柳庄综合55,都曹口电镀厂,冀中电缆厂,南辛庄77#农业【纯农排变】,北柳庄村东北综合,京阳电缆厂,边家务利达养殖厂,中国石油天然气股份有限公司华北油田分公司变压器,南辛庄53综合,田佐1#农业【纯农排变】,北辛庄1号综合,北辛庄东南农业（124）【纯农排变】,河北华恩纺织品制造有限公司变压器,北柳庄村北新增农业【纯农排变】,都曹口村里新增综合,边家务新增106#农业【纯农排变】,田佐新增综合,贾务村东新增综合,","scope":"【影响街道/乡镇】西演镇、庞佐乡 【高危重要客户】无 【影响客户】田佐、北辛庄、南辛庄、边家务、贾务、庞佐、都曹口、南梁庄","startTime":"2020-03-18 19:50:48","stopDate":"2020-03-19 02:00:00","orgNo":"1340613","typeCode":"电网故障停限电","poweroffArea":"【全线路停电】停边家务利达养殖厂,田佐2#农业【纯农排变】,南梁庄村东新增综合,边家务新增106#农业【纯农排变】,田佐新增综合,贾务村东农业【纯农排变】,都曹口33综合,贾务村东新增综合,南辛庄77#农业【纯农排变】,南辛庄综合（116）,北柳庄村西49#农业【纯农排变】,保定京阳立津线缆制造有限公司变压器,都曹口电镀厂,田佐1#农业【纯农排变】,边家务村西新增综合　,河北华恩纺织品制造有限公司变压器,京阳电揽厂,北辛庄1号综合,史文清变压器,高阳县宝发纺织机械制造有限公司变压器,都曹口新增综合,北辛庄皮制品厂,都曹口121#农业【纯农排变】,中国石油天然气股份有限公司华北油田分公司变压器,北辛庄54综合,庞佐村西北新增综合,北柳庄村东北综合,北柳庄综合55,都曹口村里新增综合,田佐村东新增农业【纯农排变】,都曹口62#农业【纯农排变】,保定京阳线缆有限公司,贾务村东北农业【纯农排变】,河北保沧高速公路公司,边家务52#农业【纯农排变】,冀中电缆厂,北柳庄综合3,贾务东,北辛庄东南农业（124）【纯农排变】,高阳县贾务面粉厂变压器,都曹口32#农业【纯农排变】,南辛庄53综合,都曹口31#农业【纯农排变】,南梁庄7#农业【纯农排变】,京阳电缆厂,北柳庄村北新增农业【纯农排变】,边家务51#农业【纯农排变】,祥丰毛巾厂,庞佐96#农业【纯农排变】,都曹口34#农业【纯农排变】,北辛庄综合36,任佐新增农业【纯农排变】,田佐53#农业【纯农排变】","poweroffReason":"【停电原因】由于风刮异物导致１１０ＫＶ西演变电站湘连口５１１线路全线停电【变更送电】因抢修进度加快原因，送电时间由１０：００变更为０２：００【发布渠道】通过９５５９８发布","powerTime":"2020-03-19 01:32:37","powerComm":"已送电","subsNo":"","lineNo":"","tgNo":"","tgName":null,"infoStatus":"1","orgName":"国网高阳县供电公司","typeName":null,"infoStatusName":null,"dateDay":null,"orgNos":null,"nowTime":null,"countyName":null,"streetName":null,"villageName":null,"roadName":null,"communityName":null,"tranName":null,"sdLineName":null,"cityCode":"1340613","cityName":"国网高阳县供电公司","provinceCode":null,"stopTime":"2020-03-19 02:00:00","powerType":"全部","powerOffArea":"【全线路停电】停边家务利达养殖厂,田佐2#农业【纯农排变】,南梁庄村东新增综合,边家务新增106#农业【纯农排变】,田佐新增综合,贾务村东农业【纯农排变】,都曹口33综合,贾务村东新增综合,南辛庄77#农业【纯农排变】,南辛庄综合（116）,北柳庄村西49#农业【纯农排变】,保定京阳立津线缆制造有限公司变压器,都曹口电镀厂,田佐1#农业【纯农排变】,边家务村西新增综合　,河北华恩纺织品制造有限公司变压器,京阳电揽厂,北辛庄1号综合,史文清变压器,高阳县宝发纺织机械制造有限公司变压器,都曹口新增综合,北辛庄皮制品厂,都曹口121#农业【纯农排变】,中国石油天然气股份有限公司华北油田分公司变压器,北辛庄54综合,庞佐村西北新增综合,北柳庄村东北综合,北柳庄综合55,都曹口村里新增综合,田佐村东新增农业【纯农排变】,都曹口62#农业【纯农排变】,保定京阳线缆有限公司,贾务村东北农业【纯农排变】,河北保沧高速公路公司,边家务52#农业【纯农排变】,冀中电缆厂,北柳庄综合3,贾务东,北辛庄东南农业（124）【纯农排变】,高阳县贾务面粉厂变压器,都曹口32#农业【纯农排变】,南辛庄53综合,都曹口31#农业【纯农排变】,南梁庄7#农业【纯农排变】,京阳电缆厂,北柳庄村北新增农业【纯农排变】,边家务51#农业【纯农排变】,祥丰毛巾厂,庞佐96#农业【纯农排变】,都曹口34#农业【纯农排变】,北辛庄综合36,任佐新增农业【纯农排变】,田佐53#农业【纯农排变】","powerOffReason":"【停电原因】由于风刮异物导致１１０ＫＶ西演变电站湘连口５１１线路全线停电【变更送电】因抢修进度加快原因，送电时间由１０：００变更为０２：００【发布渠道】通过９５５９８发布","powerOffId":"2020031813000668"},{"poweroffId":2020031813000666,"sgpoweroffId":null,"subsName":"","lineName":"10KV大沙坎515","pubTranName":"0646880295-涿州瑞和房地产开发有限公司-专变-185593519-涿州瑞和房地产开发有限公司11,","scope":"【影响街道/乡镇】清凉寺城区 【高危重要客户】无 【影响客户】香邑溪谷小区","startTime":"2020-03-18 19:50:08","stopDate":"2020-03-19 01:00:00","orgNo":"1340626","typeCode":"电网故障停限电","poweroffArea":"【全线路停电】停0646880295-涿州瑞和房地产开发有限公司-专变-171425161-涿州瑞和房地产开发有限公司8,0646880295-涿州瑞和房地产开发有限公司-专变-171424911-涿州瑞和房地产开发有限公司4,0646880295-涿州瑞和房地产开发有限公司-专变-171424928-涿州瑞和房地产开发有限公司6,0646880295-涿州瑞和房地产开发有限公司-专变-171423946-涿州瑞和房地产开发有限公司3,0646880295-涿州瑞和房地产开发有限公司-专变-171423781-涿州瑞和房地产开发有限公司1,0646880295-涿州瑞和房地产开发有限公司-专变-185593519-涿州瑞和房地产开发有限公司11,0646880295-涿州瑞和房地产开发有限公司-专变-171427049-涿州瑞和房地产开发有限公司7,0646880295-涿州瑞和房地产开发有限公司-专变-171424041-涿州瑞和房地产开发有限公司5,0646880295-涿州瑞和房地产开发有限公司-专变-171423788-涿州瑞和房地产开发有限公司2","poweroffReason":"【停电原因】由于大风外力破坏导致１１０ＫＶ塔上变电站１０ＫＶ大沙坎５１５线路全线停电 【变更送电】因抢修进度加快原因，送电时间由１２：００变更为０１：００ 【发布渠道】通过９５５９８发布","powerTime":"2020-03-19 00:40:53","powerComm":"恢复送电","subsNo":"","lineNo":"","tgNo":"","tgName":null,"infoStatus":"1","orgName":"国网涿州市供电公司","typeName":null,"infoStatusName":null,"dateDay":null,"orgNos":null,"nowTime":null,"countyName":null,"streetName":null,"villageName":null,"roadName":null,"communityName":null,"tranName":null,"sdLineName":null,"cityCode":"1340626","cityName":"国网涿州市供电公司","provinceCode":null,"stopTime":"2020-03-19 01:00:00","powerType":"全部","powerOffArea":"【全线路停电】停0646880295-涿州瑞和房地产开发有限公司-专变-171425161-涿州瑞和房地产开发有限公司8,0646880295-涿州瑞和房地产开发有限公司-专变-171424911-涿州瑞和房地产开发有限公司4,0646880295-涿州瑞和房地产开发有限公司-专变-171424928-涿州瑞和房地产开发有限公司6,0646880295-涿州瑞和房地产开发有限公司-专变-171423946-涿州瑞和房地产开发有限公司3,0646880295-涿州瑞和房地产开发有限公司-专变-171423781-涿州瑞和房地产开发有限公司1,0646880295-涿州瑞和房地产开发有限公司-专变-185593519-涿州瑞和房地产开发有限公司11,0646880295-涿州瑞和房地产开发有限公司-专变-171427049-涿州瑞和房地产开发有限公司7,0646880295-涿州瑞和房地产开发有限公司-专变-171424041-涿州瑞和房地产开发有限公司5,0646880295-涿州瑞和房地产开发有限公司-专变-171423788-涿州瑞和房地产开发有限公司2","powerOffReason":"【停电原因】由于大风外力破坏导致１１０ＫＶ塔上变电站１０ＫＶ大沙坎５１５线路全线停电 【变更送电】因抢修进度加快原因，送电时间由１２：００变更为０１：００ 【发布渠道】通过９５５９８发布","powerOffId":"2020031813000666"},{"poweroffId":2020031813000665,"sgpoweroffId":null,"subsName":"","lineName":"10kV512辛兴线","pubTranName":"辛兴综合23台区,辛兴综合17台区,辛兴综合22台区,辛兴综合2台区,辛兴综合19台区,辛兴综合18台区,辛兴综合11台区,辛兴综合20台区,辛兴综合21台区,辛兴综合7台区,辛兴综合5台区,辛兴综合9台区,辛兴综合24台区,辛兴综合8台区,辛兴综合10台区,辛兴综合4台区,辛兴综合30台区,辛兴综合1台区,辛兴综合3台区,辛兴综合6台区,","scope":"【影响街道/乡镇】辛兴镇【高危重要客户】无【影响客户】辛兴村、辛兴工业区、辛兴中学以西","startTime":"2020-03-18 19:51:00","stopDate":"2020-03-18 23:00:00","orgNo":"1340616","typeCode":"电网故障停限电","poweroffArea":"【全线路停电】停辛兴综合4台区,辛兴农排9台区【纯农排变】,光宇,蠡县腾达工贸有限公司,通达,河北超洋毛纺有限公司变压器,兴达毛纺厂变压器,张志学,超洋,甄中朴变压器,崔旭学,辛兴小学,辛兴综合2台区,李小路,辛兴综合24台区,辛兴农排2台区【纯农排变】,红天纺织有限公司,辛兴农排5台区【纯农排变】,万达毛纺厂,0694522970-蠡县连存物业服务有限公司-专变-237552682-蠡县连存物业服务有限公司,祝小闷,建华冷库,丙青,高新,辛兴综合30台区,辛兴综合18台区,百川毛纺厂,新兴中学,辛兴综合22台区,齐军车床,辛兴农排1台区【纯农排变】,美思皮草,辛兴综合19台区,辛兴综合11台区,紫微,龙利达,辛兴大队,李朋,油田,0694522970-蠡县连存物业服务有限公司-专变-237552678-蠡县连存物业服务有限公司,辛兴农排16台区（石盼芹纸箱厂）【纯农排变】,辛兴农排3台区【纯农排变】,辛兴农排8台区【纯农排变】,雄天,石金乐,0693335393-蠡县新兴化纤有限公司-专变-237512435-蠡县新兴化纤有限公司变压器,祥云毛纺3721,辛兴综合10台区,东兰纺织厂,河北凯森化纤制品有限公司,孙志强,辛兴农排14台区【纯农排变】,旭光毛纺,辛兴综合6台区,变压器,杜树中,辛兴综合21台区,0469116830-河北蠡州北银农村商业银行股份有限公司辛兴东支行-专变-46722372-阎晓军,汉哲毯业,澳新,利新毛纺厂,中石油28加油站,辛兴综合23台区,辛兴农排12台区【纯农排变】,移动,长雪,太阳山,国良,辛兴综合1台区,养殖场,辛兴农排13台区【纯农排变】,张新国,网通,辛兴综合7台区,14512084|祥云,石会来,辛兴综合17台区,辛兴综合3台区,辛兴农排4台区【纯农排变】,辛兴农排6台区【纯农排变】,崔景增,宏鑫毛纺,辛兴综合9台区,辛兴综合20台区,辛兴综合5台区,祥云,石盼芹纸箱厂,新市区北,智业助剂,脑血管医院,龙华纺织,学校（新）,保定圣天变压器,辛兴综合8台区,辛兴农排15台区【纯农排变】","poweroffReason":"【停电原因】由于线路接地导致１１０ＫＶ辛兴变电站１０ＫＶ辛兴５１２线路全线停电【变更送电】因抢修进度加快原因，送电时间由１９日０９：００变更为１８日２３：００【发布渠道】通过９５５９８发布","powerTime":"2020-03-18 22:02:57","powerComm":"已送电","subsNo":"","lineNo":"","tgNo":"","tgName":null,"infoStatus":"1","orgName":"国网蠡县供电公司","typeName":null,"infoStatusName":null,"dateDay":null,"orgNos":null,"nowTime":null,"countyName":null,"streetName":null,"villageName":null,"roadName":null,"communityName":null,"tranName":null,"sdLineName":null,"cityCode":"1340616","cityName":"国网蠡县供电公司","provinceCode":null,"stopTime":"2020-03-18 23:00:00","powerType":"全部","powerOffArea":"【全线路停电】停辛兴综合4台区,辛兴农排9台区【纯农排变】,光宇,蠡县腾达工贸有限公司,通达,河北超洋毛纺有限公司变压器,兴达毛纺厂变压器,张志学,超洋,甄中朴变压器,崔旭学,辛兴小学,辛兴综合2台区,李小路,辛兴综合24台区,辛兴农排2台区【纯农排变】,红天纺织有限公司,辛兴农排5台区【纯农排变】,万达毛纺厂,0694522970-蠡县连存物业服务有限公司-专变-237552682-蠡县连存物业服务有限公司,祝小闷,建华冷库,丙青,高新,辛兴综合30台区,辛兴综合18台区,百川毛纺厂,新兴中学,辛兴综合22台区,齐军车床,辛兴农排1台区【纯农排变】,美思皮草,辛兴综合19台区,辛兴综合11台区,紫微,龙利达,辛兴大队,李朋,油田,0694522970-蠡县连存物业服务有限公司-专变-237552678-蠡县连存物业服务有限公司,辛兴农排16台区（石盼芹纸箱厂）【纯农排变】,辛兴农排3台区【纯农排变】,辛兴农排8台区【纯农排变】,雄天,石金乐,0693335393-蠡县新兴化纤有限公司-专变-237512435-蠡县新兴化纤有限公司变压器,祥云毛纺3721,辛兴综合10台区,东兰纺织厂,河北凯森化纤制品有限公司,孙志强,辛兴农排14台区【纯农排变】,旭光毛纺,辛兴综合6台区,变压器,杜树中,辛兴综合21台区,0469116830-河北蠡州北银农村商业银行股份有限公司辛兴东支行-专变-46722372-阎晓军,汉哲毯业,澳新,利新毛纺厂,中石油28加油站,辛兴综合23台区,辛兴农排12台区【纯农排变】,移动,长雪,太阳山,国良,辛兴综合1台区,养殖场,辛兴农排13台区【纯农排变】,张新国,网通,辛兴综合7台区,14512084|祥云,石会来,辛兴综合17台区,辛兴综合3台区,辛兴农排4台区【纯农排变】,辛兴农排6台区【纯农排变】,崔景增,宏鑫毛纺,辛兴综合9台区,辛兴综合20台区,辛兴综合5台区,祥云,石盼芹纸箱厂,新市区北,智业助剂,脑血管医院,龙华纺织,学校（新）,保定圣天变压器,辛兴综合8台区,辛兴农排15台区【纯农排变】","powerOffReason":"【停电原因】由于线路接地导致１１０ＫＶ辛兴变电站１０ＫＶ辛兴５１２线路全线停电【变更送电】因抢修进度加快原因，送电时间由１９日０９：００变更为１８日２３：００【发布渠道】通过９５５９８发布","powerOffId":"2020031813000665"}],"pageModel":{"pageNow":251,"totalCount":10973,"totalPage":1098,"tableRows":0,"pageCount":10,"beginCount":2500},"isExperi":"1"}