{"message":"","today":"2020-06-15","seleList":[{"poweroffId":2020031813000573,"sgpoweroffId":null,"subsName":"","lineName":"10kV518桑园工业线","pubTranName":"杨北农排6台区【纯农排变】,保定美雅,保定双兴包装制品有限公司,杨北针织厂,保定美雅纺织有限公司,杨北地毯纱厂,","scope":"【影响街道/乡镇】桑元镇【高危重要客户】无【影响客户】桑元工业区","startTime":"2020-03-18 19:31:00","stopDate":"2020-03-19 05:00:00","orgNo":"1340616","typeCode":"电网故障停限电","poweroffArea":"【全线路停电】停保定美雅纺织有限公司,杨北地毯纱厂,保定美雅,杨北针织厂,保定双兴包装制品有限公司,杨北农排6台区【纯农排变】","poweroffReason":"【停电原因】由于线路接地导致３５ＫＶ桑园变电站１０ＫＶ桑园工业５１８线路全线停电【变更送电】因抢修进度加快原因，送电时间由１９日０９：００变更为１９日０５：００【发布渠道】通过９５５９８发布","powerTime":"2020-03-19 04:29:23","powerComm":"已送电","subsNo":"","lineNo":"","tgNo":"","tgName":null,"infoStatus":"1","orgName":"国网蠡县供电公司","typeName":null,"infoStatusName":null,"dateDay":null,"orgNos":null,"nowTime":null,"countyName":null,"streetName":null,"villageName":null,"roadName":null,"communityName":null,"tranName":null,"sdLineName":null,"cityCode":"1340616","cityName":"国网蠡县供电公司","provinceCode":null,"stopTime":"2020-03-19 05:00:00","powerType":"全部","powerOffArea":"【全线路停电】停保定美雅纺织有限公司,杨北地毯纱厂,保定美雅,杨北针织厂,保定双兴包装制品有限公司,杨北农排6台区【纯农排变】","powerOffReason":"【停电原因】由于线路接地导致３５ＫＶ桑园变电站１０ＫＶ桑园工业５１８线路全线停电【变更送电】因抢修进度加快原因，送电时间由１９日０９：００变更为１９日０５：００【发布渠道】通过９５５９８发布","powerOffId":"2020031813000573"},{"poweroffId":2020031813000572,"sgpoweroffId":null,"subsName":"","lineName":"10kV西开区线584","pubTranName":"1东城内9,1西城内5,1东城内12,1西城内4,1东城内10,1东城内7,东城内5号,辛庄内3,辛庄内1,西城村内2号,1东城内11,东城内1号,辛庄内2,东城内4号,1东城内8,1西城内3,2东城外8【纯农排变】,2东城外20【纯农排变】,东壁阳城小学,客户投资_1中冉内11,2东城外21【纯农排变】,东城内3,西城村内1号,1东城内13,东城内6,东城内2,1东城内14,西壁阳城幼儿园,","scope":"【影响街道/乡镇】白团乡 【高危重要客户】无 【影响客户】辛庄、东城（东壁阳城）、西城（西壁阳城）、中冉","startTime":"2020-03-18 19:27:51","stopDate":"2020-03-19 00:30:00","orgNo":"1340618","typeCode":"电网故障停限电","poweroffArea":"【全线路停电】停1东城内9,1西城内5,保定锐志恒远模板有限公司,2东城外13【纯农排变】,保定市清苑区住房和城乡建设局,1东城内12,2东城外16【纯农排变】,辛庄外2【纯农排变】,保定市清苑区兰生门窗加工厂,2东城外9【纯农排变】,0550170097-保定长城再生资源利用有限公司-专变-97974836-保定市长城再生资源利用有限公司,2西城外4【纯农排变】,1西城内4,1东城内10,2东城外19【纯农排变】,1东城内7,李运良01,东城内5号,2中冉外9【纯农排变】,2西城外6【纯农排变】,2中冉外8【纯农排变】,清苑县洪海水电结构施工队,保定飓风蓄电池有限公司01,辛庄内3,2西城外3【纯农排变】,0387483045-东城张兰国-专变-45311096-变压器,0387482459-花木公司-专变-45311093-变压器,辛庄内1,2西城外7【纯农排变】,2西城外9【纯农排变】,2中冉外18【纯农排变】,清苑县信义电器设备厂,西城村内2号,1东城内11,保定市城市管理综合行政执法局,辛庄外5【纯农排变】,2东城外6【纯农排变】,东城内1号,保定惠生内饰材料制造有限公司01,保定鑫宇电子材料有限公司,辛庄内2,辛庄外3【纯农排变】,保定飓风蓄电池有限公司,辛庄外6【纯农排变】,河北中尊园区开发有限公司,2西城外5【纯农排变】,辛庄外7【纯农排变】,0632327894-河北京石高速公路开发有限公司-专变-144770542-河北省高速公路京石改扩建筹建处,2中冉外14【纯农排变】,东壁阳城小学,客户投资_1中冉内11,2东城外18【纯农排变】,保定市亿鑫节能建材制造有限公司,2东城外21【纯农排变】,2东城外17【纯农排变】,西城砖厂南台,2东城外7【纯农排变】,保定阿尔法精密制造技术有限公司,东城砖厂小,东城内3,2东城外12【纯农排变】,西城村内1号,清苑县魏村镇诚信自然园养殖场,西城油化厂,保定市全利粮食贸易有限公司,西城化工厂,1东城内13,2东城外10【纯农排变】,四通养殖场,东城内6,2东城外14【纯农排变】,河北建设集团有限公司,保定市清苑区住房和城乡建设局01,东城内2,1东城内14,2西城外8【纯农排变】,0600412845-保定巨威电器有限公司-专变-126631957-保定巨威电器有限公司,李运良,中国移动通讯集团河北有限公司清苑分公司,保定飓风蓄电池有限公司02,0387482518-保定飓风蓄电池有限公司-专变-208449420-保定飓风蓄电池有限公司,2东城外11【纯农排变】,西壁阳城幼儿园,2西城外10【纯农排变】,2中冉外32【纯农排变】,2东城外15【纯农排变】,西城黄满江,东城内4号,清苑县恒利机械厂,2中冉外19【纯农排变】,1东城内8,1西城内3,保定惠生内饰材料制造有限公司,2东城外8【纯农排变】,2东城外20【纯农排变】","poweroffReason":"【停电原因】由于线路接地导致１１０ＫＶ赵庄变电站１０ＫＶ西开区线５８４线路全线停电 【变更送电】因抢修进度加快原因，送电时间由１９日０６：００变更为１９日００：３０ 【发布渠道】通过９５５９８发布","powerTime":"2020-03-18 23:57:16","powerComm":"胡惠娟通知已送电","subsNo":"","lineNo":"","tgNo":"","tgName":null,"infoStatus":"1","orgName":"国网清苑县供电公司","typeName":null,"infoStatusName":null,"dateDay":null,"orgNos":null,"nowTime":null,"countyName":null,"streetName":null,"villageName":null,"roadName":null,"communityName":null,"tranName":null,"sdLineName":null,"cityCode":"1340618","cityName":"国网清苑县供电公司","provinceCode":null,"stopTime":"2020-03-19 00:30:00","powerType":"全部","powerOffArea":"【全线路停电】停1东城内9,1西城内5,保定锐志恒远模板有限公司,2东城外13【纯农排变】,保定市清苑区住房和城乡建设局,1东城内12,2东城外16【纯农排变】,辛庄外2【纯农排变】,保定市清苑区兰生门窗加工厂,2东城外9【纯农排变】,0550170097-保定长城再生资源利用有限公司-专变-97974836-保定市长城再生资源利用有限公司,2西城外4【纯农排变】,1西城内4,1东城内10,2东城外19【纯农排变】,1东城内7,李运良01,东城内5号,2中冉外9【纯农排变】,2西城外6【纯农排变】,2中冉外8【纯农排变】,清苑县洪海水电结构施工队,保定飓风蓄电池有限公司01,辛庄内3,2西城外3【纯农排变】,0387483045-东城张兰国-专变-45311096-变压器,0387482459-花木公司-专变-45311093-变压器,辛庄内1,2西城外7【纯农排变】,2西城外9【纯农排变】,2中冉外18【纯农排变】,清苑县信义电器设备厂,西城村内2号,1东城内11,保定市城市管理综合行政执法局,辛庄外5【纯农排变】,2东城外6【纯农排变】,东城内1号,保定惠生内饰材料制造有限公司01,保定鑫宇电子材料有限公司,辛庄内2,辛庄外3【纯农排变】,保定飓风蓄电池有限公司,辛庄外6【纯农排变】,河北中尊园区开发有限公司,2西城外5【纯农排变】,辛庄外7【纯农排变】,0632327894-河北京石高速公路开发有限公司-专变-144770542-河北省高速公路京石改扩建筹建处,2中冉外14【纯农排变】,东壁阳城小学,客户投资_1中冉内11,2东城外18【纯农排变】,保定市亿鑫节能建材制造有限公司,2东城外21【纯农排变】,2东城外17【纯农排变】,西城砖厂南台,2东城外7【纯农排变】,保定阿尔法精密制造技术有限公司,东城砖厂小,东城内3,2东城外12【纯农排变】,西城村内1号,清苑县魏村镇诚信自然园养殖场,西城油化厂,保定市全利粮食贸易有限公司,西城化工厂,1东城内13,2东城外10【纯农排变】,四通养殖场,东城内6,2东城外14【纯农排变】,河北建设集团有限公司,保定市清苑区住房和城乡建设局01,东城内2,1东城内14,2西城外8【纯农排变】,0600412845-保定巨威电器有限公司-专变-126631957-保定巨威电器有限公司,李运良,中国移动通讯集团河北有限公司清苑分公司,保定飓风蓄电池有限公司02,0387482518-保定飓风蓄电池有限公司-专变-208449420-保定飓风蓄电池有限公司,2东城外11【纯农排变】,西壁阳城幼儿园,2西城外10【纯农排变】,2中冉外32【纯农排变】,2东城外15【纯农排变】,西城黄满江,东城内4号,清苑县恒利机械厂,2中冉外19【纯农排变】,1东城内8,1西城内3,保定惠生内饰材料制造有限公司,2东城外8【纯农排变】,2东城外20【纯农排变】","powerOffReason":"【停电原因】由于线路接地导致１１０ＫＶ赵庄变电站１０ＫＶ西开区线５８４线路全线停电 【变更送电】因抢修进度加快原因，送电时间由１９日０６：００变更为１９日００：３０ 【发布渠道】通过９５５９８发布","powerOffId":"2020031813000572"},{"poweroffId":2020031813000571,"sgpoweroffId":null,"subsName":"","lineName":"10kV512子位线","pubTranName":"子位一村公用照明1台区,寨里公用照明10台区,寨里公用照明5台区,子位二村公用照明9台区,子位三村公用照明10台区,子位三村公用照明5台区,客户投资_西丁庄公用照明1台区,子位一村公用照明8台区,子位三村公用照明4台区,子位一村小庄公用照明2台区,子位三村公用照明1台区,子位一村公用照明6台区,子位一村小庄公用照明1台区,子位三村公用照明9台区,子位三村公用照明6台区,寨里公用照明3台区,子位二村公用照明12台区,子位一村公用照明9台区,子位一村公用照明4台区,西丁庄公用照明2台区,寨里公用照明7台区,子位三村公用照明3台区,寨里公用照明1台区,子位二村公用照明6台区,子位二村公用照明10台区,子位一村公用照明5台区,子位二村公用照明1台区,子位二村公用照明7台区,子位一村公用照明7台区,西丁庄公用照明3台区,子位二村公用照明5台区,子位二村公用照明8台区,子位二村公用照明3台区,子位二村公用照明15台区,寨里公用照明4台区,寨里公用照明2台区,寨里公用照明9台区,子位二村公用照明14台区,寨里公用照明6台区,子位二村公用照明11台区,子位一村公用照明2台区,子位二村公用照明13台区,子位二村公用照明2台区,子位一村公用照明3台区,子位二村公用照明4台区,子位三村公用照明7台区,寨里公用照明8台区,子位三村公用照明2台区,","scope":"【影响街道/乡镇】子位镇【高危重要客户】无【影响客户】西丁庄村、子位一村、子位二村、子位三村、寨里村","startTime":"2020-03-18 19:29:25","stopDate":"2020-03-18 23:55:00","orgNo":"1340610","typeCode":"电网故障停限电","poweroffArea":"【全线路停电】停子位三村公用照明5台区,客户投资_西丁庄公用照明1台区,子位三村公用照明6台区,子位二村公用照明10台区,子位二村公用照明12台区,寨里公用照明7台区,西丁庄公用照明2台区,子位三村公用照明3台区,子位二村公用照明13台区,子位二村公用照明2台区,子位二村公用照明1台区,子位一村公用照明3台区,子位二村公用照明4台区,子位二村公用照明3台区,子位三村公用照明4台区,子位一村公用照明1台区,寨里公用照明10台区,子位一村公用照明8台区,寨里公用照明2台区,寨里公用照明9台区,子位二村公用照明14台区,子位二村公用照明16台区,寨里公用照明6台区,子位一村公用照明9台区,子位一村小庄公用照明2台区,子位三村公用照明1台区,子位一村公用照明6台区,寨里公用照明1台区,子位二村公用照明6台区,寨里公用照明5台区,子位二村公用照明9台区,子位三村公用照明7台区,子位一村小庄公用照明1台区,子位三村公用照明9台区,寨里公用照明8台区,子位三村公用照明2台区,寨里公用照明3台区,子位三村公用照明11台区0,子位一村公用照明4台区,子位二村公用照明15台区,寨里公用照明4台区,子位三村公用照明10台区,子位二村公用照明11台区,子位一村公用照明2台区,子位二村公用照明7台区,子位一村公用照明5台区,子位一村公用照明7台区,西丁庄公用照明3台区,子位二村公用照明5台区,子位二村公用照明8台区","poweroffReason":"【停电原因】由于寨里七分支０６号杆Ｂ相导线脱落搭担导致３５ＫＶ丁村变电站１０ＫＶ５１２子位线路全线停电 【变更送电】因抢修进度加快原因，送电时间由１９日０８：００变更为１８日２３：５５ 【发布渠道】９５５９８","powerTime":"2020-03-18 23:42:52","powerComm":"已送电","subsNo":"","lineNo":"","tgNo":"","tgName":null,"infoStatus":"1","orgName":"国网定州市供电公司","typeName":null,"infoStatusName":null,"dateDay":null,"orgNos":null,"nowTime":null,"countyName":null,"streetName":null,"villageName":null,"roadName":null,"communityName":null,"tranName":null,"sdLineName":null,"cityCode":"1340610","cityName":"国网定州市供电公司","provinceCode":null,"stopTime":"2020-03-18 23:55:00","powerType":"全部","powerOffArea":"【全线路停电】停子位三村公用照明5台区,客户投资_西丁庄公用照明1台区,子位三村公用照明6台区,子位二村公用照明10台区,子位二村公用照明12台区,寨里公用照明7台区,西丁庄公用照明2台区,子位三村公用照明3台区,子位二村公用照明13台区,子位二村公用照明2台区,子位二村公用照明1台区,子位一村公用照明3台区,子位二村公用照明4台区,子位二村公用照明3台区,子位三村公用照明4台区,子位一村公用照明1台区,寨里公用照明10台区,子位一村公用照明8台区,寨里公用照明2台区,寨里公用照明9台区,子位二村公用照明14台区,子位二村公用照明16台区,寨里公用照明6台区,子位一村公用照明9台区,子位一村小庄公用照明2台区,子位三村公用照明1台区,子位一村公用照明6台区,寨里公用照明1台区,子位二村公用照明6台区,寨里公用照明5台区,子位二村公用照明9台区,子位三村公用照明7台区,子位一村小庄公用照明1台区,子位三村公用照明9台区,寨里公用照明8台区,子位三村公用照明2台区,寨里公用照明3台区,子位三村公用照明11台区0,子位一村公用照明4台区,子位二村公用照明15台区,寨里公用照明4台区,子位三村公用照明10台区,子位二村公用照明11台区,子位一村公用照明2台区,子位二村公用照明7台区,子位一村公用照明5台区,子位一村公用照明7台区,西丁庄公用照明3台区,子位二村公用照明5台区,子位二村公用照明8台区","powerOffReason":"【停电原因】由于寨里七分支０６号杆Ｂ相导线脱落搭担导致３５ＫＶ丁村变电站１０ＫＶ５１２子位线路全线停电 【变更送电】因抢修进度加快原因，送电时间由１９日０８：００变更为１８日２３：５５ 【发布渠道】９５５９８","powerOffId":"2020031813000571"},{"poweroffId":2020031813000566,"sgpoweroffId":null,"subsName":"","lineName":"10kV512杨东线","pubTranName":"杨东综合10台区,杨东综合4台区,杨东综合8台区,杨东综合1台区,杨东综合2台区,杨东综合5台区,杨东综合9台区,杨东农排1台区【纯农排变】,杨东综合6台区,杨东综合7台区,杨东综合3台区,","scope":"【影响街道/乡镇】桑元镇【高危重要客户】无【影响客户】杨东村","startTime":"2020-03-18 19:29:00","stopDate":"2020-03-19 05:00:00","orgNo":"1340616","typeCode":"电网故障停限电","poweroffArea":"【全线路停电】停通达针织厂,老宽鸡厂,杨东综合10台区,杨东综合4台区,杨东综合3台区,杨东综合8台区,杨东综合7台区,杨东综合6台区,杨东综合5台区,杨东综合1台区,鑫辉毛纺厂,杨东农排1台区【纯农排变】,杨东综合9台区,杨东综合2台区","poweroffReason":"【停电原因】由于站内关掉闸导致３５ＫＶ桑园变电站１０ＫＶ杨东５１２线路全线停电【变更送电】因抢修进度加快原因，送电时间由１９日０９：００变更为１９日０５：００【发布渠道】通过９５５９８发布","powerTime":"2020-03-19 04:30:00","powerComm":"已送电","subsNo":"","lineNo":"","tgNo":"","tgName":null,"infoStatus":"1","orgName":"国网蠡县供电公司","typeName":null,"infoStatusName":null,"dateDay":null,"orgNos":null,"nowTime":null,"countyName":null,"streetName":null,"villageName":null,"roadName":null,"communityName":null,"tranName":null,"sdLineName":null,"cityCode":"1340616","cityName":"国网蠡县供电公司","provinceCode":null,"stopTime":"2020-03-19 05:00:00","powerType":"全部","powerOffArea":"【全线路停电】停通达针织厂,老宽鸡厂,杨东综合10台区,杨东综合4台区,杨东综合3台区,杨东综合8台区,杨东综合7台区,杨东综合6台区,杨东综合5台区,杨东综合1台区,鑫辉毛纺厂,杨东农排1台区【纯农排变】,杨东综合9台区,杨东综合2台区","powerOffReason":"【停电原因】由于站内关掉闸导致３５ＫＶ桑园变电站１０ＫＶ杨东５１２线路全线停电【变更送电】因抢修进度加快原因，送电时间由１９日０９：００变更为１９日０５：００【发布渠道】通过９５５９８发布","powerOffId":"2020031813000566"},{"poweroffId":2020031813000563,"sgpoweroffId":null,"subsName":"","lineName":"10KV富民屯561","pubTranName":"泗海庄南,富民屯村委会【纯农排变】,林屯小学取暖,南庄新增四号煤【纯农排变】,涿州市北三店幼儿园煤柱上变压器,林屯乡政府（煤）柱上变压器,南三店村,富民屯4001,泥洼铺1588,林屯乡北三店村委会【纯农排变】,北三店水4831【纯农排变】,泗海庄新增三号变煤,富民屯村北,北三店1620,泗海庄新增一号变煤,北三店村北,赵官屯1636,南庄新增三号煤【纯农排变】,林屯商业街4213,商业街1582,南三店1635,岭上1625,岭上1593,泥洼铺1487增【纯农排变】,南庄1629煤增,富民屯村,赵官屯1589增【纯农排变】,永兴庄1605,泗海庄新增四号变煤,北庄1598,涿州市林屯卫生院煤柱上变压器,泗海庄1592a,岭上村东南3165【纯农排变】,南庄5819煤增,泗海庄水4829【纯农排变】,岭上水4826【纯农排变】,南三店村西北,永兴庄3079,泗海庄水4828【纯农排变】,南三店4903,林屯村内西,南庄新增二号煤【纯农排变】,林屯村南【纯农排变】,富民屯4814【纯农排变】,商业街内,泥洼铺村东【纯农排变】,泗海庄新增五号变煤,北三店1596,富民屯1597,南庄1600煤增,北三店1637,南庄4289煤增,泥洼铺1487,岭上村内4877,商业街3661,林屯乡南庄村委会【纯农排变】,林屯村西,泗海庄新增二号变煤,泗海庄1592,林屯村内5818,富民屯水4813【纯农排变】,永兴庄水【纯农排变】,林屯村4152【纯农排变】,北三店村4069【纯农排变】,南庄新增一号煤【纯农排变】,南三店村南【纯农排变】,赵官屯村东南水【纯农排变】,北庄4812【纯农排变】,","scope":"【影响街道/乡镇】林屯乡商业街 【高危重要客户】无 【影响客户】北三店、北庄、富民屯、林屯、岭上、南三店、南庄、泥洼铺、泗海庄、赵官屯、永兴庄","startTime":"2020-03-18 19:29:04","stopDate":"2020-03-18 22:30:00","orgNo":"1340626","typeCode":"电网故障停限电","poweroffArea":"【全线路停电】停泗海庄新增二号变煤,涿州市昊达机械有限公司,泗海庄南,北庄4812【纯农排变】,泥洼铺1487增【纯农排变】,涿州市林屯兴达模具厂,泥洼铺村东【纯农排变】,南三店村东南【纯农排变】,0682661605-涿州市鑫鑫源工贸有限公司-专变-221738629-涿州市鑫鑫源工贸有限公司1,商业街1582,南三店4903,林屯村4152【纯农排变】,北庄1598,赵官屯1589增【纯农排变】,富民屯水4813【纯农排变】,涿州市林屯卫生院煤柱上变压器,永兴庄3079,岭上村东南3165【纯农排变】,赵官屯1589【纯农排变】,泗海庄1592a,南三店1635,南庄5819煤增,0682661605-涿州市鑫鑫源工贸有限公司-专变-226912699-涿州市鑫鑫源工贸有限公司2,昊达机械5646变台2,涿州市鑫鑫源工贸有限公司,泥洼铺1588,富民屯村委会【纯农排变】,林屯村内西,南庄新增二号煤【纯农排变】,林屯村南【纯农排变】,赵官屯4254【纯农排变】,泗海庄新增四号变煤,富民屯1597,富民屯4814【纯农排变】,泥洼铺1487,林屯乡北三店村委会【纯农排变】,商业街内,富民屯村,泗海庄水4829【纯农排变】,北三店水4831【纯农排变】,岭上1593,永兴庄1605,南庄1600煤增,昊达机械5646变台1,岭上1625,泗海庄新增五号变煤,林屯村内5818,泗海庄新增三号变煤,泗海庄水4828【纯农排变】,北三店1637,南庄新增三号煤【纯农排变】,富民屯村北,南庄水4810【纯农排变】,涿州市北三店幼儿园煤柱上变压器,北三店1620,南三店水4809【纯农排变】,南庄4289煤增,泗海庄新增一号变煤,岭上村内4877,富民屯4001,北三店村北,北三店1596,商业街3661,南三店水4825【纯农排变】,南三店1595,赵官屯1636,林屯乡政府（煤）柱上变压器,林屯乡南庄村委会【纯农排变】,南三店村,泗海庄1592,林屯1584,林屯1585,涿州市供电有限责任公司林屯供电所,林屯村西,林屯小学取暖,林屯商业街4213,林屯村1630,涿州市公安局看守所,林屯乡南三店村委会【纯农排变】,永兴庄水【纯农排变】,北三店村4069【纯农排变】,南庄1629煤增,岭上水4826【纯农排变】,南庄新增四号煤【纯农排变】,南三店1634,南三店村南【纯农排变】,南庄新增一号煤【纯农排变】,南庄水4811【纯农排变】,南三店村西北,赵官屯村东南水【纯农排变】,林屯综合厂","poweroffReason":"【停电原因】由于大风外力破坏导致１１０ＫＶ松林店变电站１０ＫＶ富民屯５６１线路全线停电 【变更送电】因抢修进度加快原因，送电时间由１９日１２：００变更为１８日２２：３０ 【发布渠道】通过９５５９８发布","powerTime":"2020-03-18 21:54:34","powerComm":"恢复送电","subsNo":"","lineNo":"","tgNo":"","tgName":null,"infoStatus":"1","orgName":"国网涿州市供电公司","typeName":null,"infoStatusName":null,"dateDay":null,"orgNos":null,"nowTime":null,"countyName":null,"streetName":null,"villageName":null,"roadName":null,"communityName":null,"tranName":null,"sdLineName":null,"cityCode":"1340626","cityName":"国网涿州市供电公司","provinceCode":null,"stopTime":"2020-03-18 22:30:00","powerType":"全部","powerOffArea":"【全线路停电】停泗海庄新增二号变煤,涿州市昊达机械有限公司,泗海庄南,北庄4812【纯农排变】,泥洼铺1487增【纯农排变】,涿州市林屯兴达模具厂,泥洼铺村东【纯农排变】,南三店村东南【纯农排变】,0682661605-涿州市鑫鑫源工贸有限公司-专变-221738629-涿州市鑫鑫源工贸有限公司1,商业街1582,南三店4903,林屯村4152【纯农排变】,北庄1598,赵官屯1589增【纯农排变】,富民屯水4813【纯农排变】,涿州市林屯卫生院煤柱上变压器,永兴庄3079,岭上村东南3165【纯农排变】,赵官屯1589【纯农排变】,泗海庄1592a,南三店1635,南庄5819煤增,0682661605-涿州市鑫鑫源工贸有限公司-专变-226912699-涿州市鑫鑫源工贸有限公司2,昊达机械5646变台2,涿州市鑫鑫源工贸有限公司,泥洼铺1588,富民屯村委会【纯农排变】,林屯村内西,南庄新增二号煤【纯农排变】,林屯村南【纯农排变】,赵官屯4254【纯农排变】,泗海庄新增四号变煤,富民屯1597,富民屯4814【纯农排变】,泥洼铺1487,林屯乡北三店村委会【纯农排变】,商业街内,富民屯村,泗海庄水4829【纯农排变】,北三店水4831【纯农排变】,岭上1593,永兴庄1605,南庄1600煤增,昊达机械5646变台1,岭上1625,泗海庄新增五号变煤,林屯村内5818,泗海庄新增三号变煤,泗海庄水4828【纯农排变】,北三店1637,南庄新增三号煤【纯农排变】,富民屯村北,南庄水4810【纯农排变】,涿州市北三店幼儿园煤柱上变压器,北三店1620,南三店水4809【纯农排变】,南庄4289煤增,泗海庄新增一号变煤,岭上村内4877,富民屯4001,北三店村北,北三店1596,商业街3661,南三店水4825【纯农排变】,南三店1595,赵官屯1636,林屯乡政府（煤）柱上变压器,林屯乡南庄村委会【纯农排变】,南三店村,泗海庄1592,林屯1584,林屯1585,涿州市供电有限责任公司林屯供电所,林屯村西,林屯小学取暖,林屯商业街4213,林屯村1630,涿州市公安局看守所,林屯乡南三店村委会【纯农排变】,永兴庄水【纯农排变】,北三店村4069【纯农排变】,南庄1629煤增,岭上水4826【纯农排变】,南庄新增四号煤【纯农排变】,南三店1634,南三店村南【纯农排变】,南庄新增一号煤【纯农排变】,南庄水4811【纯农排变】,南三店村西北,赵官屯村东南水【纯农排变】,林屯综合厂","powerOffReason":"【停电原因】由于大风外力破坏导致１１０ＫＶ松林店变电站１０ＫＶ富民屯５６１线路全线停电 【变更送电】因抢修进度加快原因，送电时间由１９日１２：００变更为１８日２２：３０ 【发布渠道】通过９５５９８发布","powerOffId":"2020031813000563"},{"poweroffId":2020031813000561,"sgpoweroffId":null,"subsName":"","lineName":"10kV516南郭丹线","pubTranName":"南丹综合2台区,蠡县鹤彩纺织品有限公司,东丹综合9台区,南丹综合7台区,大洋农排8台区【纯农排变】,东丹综合5台区,东丹综合1台区,东丹第二毛纺织厂200变压器,南丹综合5台区,东丹综合6台区,西丹浇地2,客户投资_西丹综合6台区,东丹综合8台区,蠡县杰欣毛纺厂,东丹农排1台区【纯农排变】,南丹综合6台区,蠡县绿源科技养殖有限公司,客户投资_南丹综合10台区,东丹第二毛纺厂,东丹浇地2,客户投资_南丹综合8台区,蠡县东丹第二纺织厂变压器,南丹农排6台区【纯农排变】,蠡县东丹第二毛纺厂,西丹农排5台区【纯农排变】,建秋厂,西丹综合3台区,西丹浇地,保定金若兰皮具有限公司,东丹第一毛纺厂,客户投资_西丹综合7台区,客户投资_东丹综合3台区,东丹史大通,东丹农排2台区【纯农排变】,客户投资_南丹综合11台区,东丹综合13台区,？县旭日毛呢纺织厂,客户投资_东丹综合2台区,西丹农排1台区【纯农排变】,西丹综合1台区,西丹综合2台区,中国移动通信集团河北有限公司蠡县分公司,蠡县春晟纺纱厂变压器,东丹综合11台区,南丹综合3台区,东丹综合7台区,南丹综合1台区,南丹综合4台区,西丹综合4台区,西丹综合5台区,东丹综合4台区,蠡县朝庆纤维加工厂,","scope":"【影响街道/乡镇】北郭丹镇【高危重要客户】无【影响客户】东郭丹村（东丹）、南郭丹村（南丹）、西郭丹村（西丹）","startTime":"2020-03-18 19:27:01","stopDate":"2020-03-19 17:00:00","orgNo":"1340616","typeCode":"电网故障停限电","poweroffArea":"【全线路停电】停建秋厂,蠡县东丹第二毛纺厂,西丹农排1台区【纯农排变】,客户投资_南丹综合10台区,西丹综合1台区,中国移动通信集团河北有限公司蠡县分公司,南丹综合4台区,蠡县东丹第二纺织厂变压器,大洋农排8台区【纯农排变】,客户投资_东丹综合3台区,西丹综合4台区,蠡县春晟纺纱厂变压器,东丹综合11台区,东丹综合1台区,南丹综合3台区,西丹综合5台区,客户投资_南丹综合11台区,东丹综合6台区,东丹史大通,东丹综合7台区,？县旭日毛呢纺织厂,西丹浇地2,蠡县鹤彩纺织品有限公司,东丹综合8台区,东丹综合4台区,南丹综合1台区,东丹综合9台区,蠡县杰欣毛纺厂,东丹第二毛纺织厂200变压器,东丹综合5台区,南丹综合5台区,蠡县朝庆纤维加工厂,南丹综合2台区,东丹农排1台区【纯农排变】,南丹综合6台区,客户投资_西丹综合7台区,西丹综合2台区,蠡县绿源科技养殖有限公司,东丹农排2台区【纯农排变】,西丹浇地,东丹第二毛纺厂,东丹综合13台区,客户投资_南丹综合8台区,东丹第一毛纺厂,东丹浇地2,客户投资_东丹综合2台区,保定金若兰皮具有限公司,西丹综合3台区,西丹农排5台区【纯农排变】,客户投资_西丹综合6台区,南丹农排6台区【纯农排变】,南丹综合7台区","poweroffReason":"【停电原因】由于站内开关掉闸导致３５ＫＶ郭丹变电站１０ＫＶ南郭丹５１６线路全线停电【变更送电】因抢修进度加快原因，送电时间由２０日０８：００变更为１９日１７：００【发布渠道】通过９５５９８发布","powerTime":"2020-03-19 16:30:48","powerComm":"已送电","subsNo":"","lineNo":"","tgNo":"","tgName":null,"infoStatus":"1","orgName":"国网蠡县供电公司","typeName":null,"infoStatusName":null,"dateDay":null,"orgNos":null,"nowTime":null,"countyName":null,"streetName":null,"villageName":null,"roadName":null,"communityName":null,"tranName":null,"sdLineName":null,"cityCode":"1340616","cityName":"国网蠡县供电公司","provinceCode":null,"stopTime":"2020-03-19 17:00:00","powerType":"全部","powerOffArea":"【全线路停电】停建秋厂,蠡县东丹第二毛纺厂,西丹农排1台区【纯农排变】,客户投资_南丹综合10台区,西丹综合1台区,中国移动通信集团河北有限公司蠡县分公司,南丹综合4台区,蠡县东丹第二纺织厂变压器,大洋农排8台区【纯农排变】,客户投资_东丹综合3台区,西丹综合4台区,蠡县春晟纺纱厂变压器,东丹综合11台区,东丹综合1台区,南丹综合3台区,西丹综合5台区,客户投资_南丹综合11台区,东丹综合6台区,东丹史大通,东丹综合7台区,？县旭日毛呢纺织厂,西丹浇地2,蠡县鹤彩纺织品有限公司,东丹综合8台区,东丹综合4台区,南丹综合1台区,东丹综合9台区,蠡县杰欣毛纺厂,东丹第二毛纺织厂200变压器,东丹综合5台区,南丹综合5台区,蠡县朝庆纤维加工厂,南丹综合2台区,东丹农排1台区【纯农排变】,南丹综合6台区,客户投资_西丹综合7台区,西丹综合2台区,蠡县绿源科技养殖有限公司,东丹农排2台区【纯农排变】,西丹浇地,东丹第二毛纺厂,东丹综合13台区,客户投资_南丹综合8台区,东丹第一毛纺厂,东丹浇地2,客户投资_东丹综合2台区,保定金若兰皮具有限公司,西丹综合3台区,西丹农排5台区【纯农排变】,客户投资_西丹综合6台区,南丹农排6台区【纯农排变】,南丹综合7台区","powerOffReason":"【停电原因】由于站内开关掉闸导致３５ＫＶ郭丹变电站１０ＫＶ南郭丹５１６线路全线停电【变更送电】因抢修进度加快原因，送电时间由２０日０８：００变更为１９日１７：００【发布渠道】通过９５５９８发布","powerOffId":"2020031813000561"},{"poweroffId":2020031813000559,"sgpoweroffId":null,"subsName":"","lineName":"10kV522商场线","pubTranName":"（26）文庙街公用照明1台区,文庙街公用照明4台区,（184）劳改大队公用照明2台区,（44）北门街公用照明台区,北门街公用照明2台区,（167）齿轮厂北院公用照明台区,（106）土地大众院公用照明台区,（84）物资局院公用照明台区,南大北公用照明2台区,（185）劳改大队公用照明1台区,（82）新立街公用照明2台区,（42）南大街北公用照明台区,（60）东大街东公用照明台区,（23）南大街中公用照明台区,（2）南大街南公用照明台区,（194）土地局院公用照明台区,文庙街公用照明3台区,（96）水汶大队公用照明1台区,（81）新立街公用照明1台区,（177）文庙街公用照明2台区,","scope":"【影响街道/乡镇】北门街、北大街、新立街、文庙街、南大街、马道街、东大街、兴定路、中心街、中山东路、城里南街、都府营街、仓门口街、崇文街、开元寺大街【高危重要客户】８６４０部队、定州市博物馆【影响客户】考棚、水汶大队院、文博园、福源商场、土地局、土地局家属院、铭都花园、屈家胡同、物资局家属院、熙尚园小区、大众家属院、网通家属院、监狱家属院、东方城市花园小区、金地花园小区","startTime":"2020-03-18 19:25:49","stopDate":"2020-03-18 20:40:00","orgNo":"1340610","typeCode":"电网故障停限电","poweroffArea":"【全线路停电】停文庙街公用照明4台区,（185）劳改大队公用照明1台区,（44）北门街公用照明台区,北门街公用照明2台区,（167）齿轮厂北院公用照明台区,（60）东大街东公用照明台区,（106）土地大众院公用照明台区,（184）劳改大队公用照明2台区,南大北公用照明2台区,（23）南大街中公用照明台区,（42）南大街北公用照明台区,（2）南大街南公用照明台区,（96）水汶大队公用照明1台区,（84）物资局院公用照明台区,（194）土地局院公用照明台区,（26）文庙街公用照明1台区,（177）文庙街公用照明2台区,文庙街公用照明3台区,（82）新立街公用照明2台区,（81）新立街公用照明1台区","poweroffReason":"【停电原因】由于冶金分支０１号杆彩钢板砸跌落保险导致１１０ＫＶ总司屯变电站１０ＫＶ５２２商场线路全线停电 【变更送电】因抢修进度加快原因，送电时间由１９日０８：００变更为１８日２０：４０ 【发布渠道】９５５９８","powerTime":"2020-03-18 20:22:49","powerComm":"已送电","subsNo":"","lineNo":"","tgNo":"","tgName":null,"infoStatus":"1","orgName":"国网定州市供电公司","typeName":null,"infoStatusName":null,"dateDay":null,"orgNos":null,"nowTime":null,"countyName":null,"streetName":null,"villageName":null,"roadName":null,"communityName":null,"tranName":null,"sdLineName":null,"cityCode":"1340610","cityName":"国网定州市供电公司","provinceCode":null,"stopTime":"2020-03-18 20:40:00","powerType":"全部","powerOffArea":"【全线路停电】停文庙街公用照明4台区,（185）劳改大队公用照明1台区,（44）北门街公用照明台区,北门街公用照明2台区,（167）齿轮厂北院公用照明台区,（60）东大街东公用照明台区,（106）土地大众院公用照明台区,（184）劳改大队公用照明2台区,南大北公用照明2台区,（23）南大街中公用照明台区,（42）南大街北公用照明台区,（2）南大街南公用照明台区,（96）水汶大队公用照明1台区,（84）物资局院公用照明台区,（194）土地局院公用照明台区,（26）文庙街公用照明1台区,（177）文庙街公用照明2台区,文庙街公用照明3台区,（82）新立街公用照明2台区,（81）新立街公用照明1台区","powerOffReason":"【停电原因】由于冶金分支０１号杆彩钢板砸跌落保险导致１１０ＫＶ总司屯变电站１０ＫＶ５２２商场线路全线停电 【变更送电】因抢修进度加快原因，送电时间由１９日０８：００变更为１８日２０：４０ 【发布渠道】９５５９８","powerOffId":"2020031813000559"},{"poweroffId":2020031813000555,"sgpoweroffId":null,"subsName":"","lineName":"10kV511杨南线","pubTranName":"杨南综合8台区,杨南综合1台区,杨南综合2台区,杨南农排8台区【纯农排变】,杨西农排7台区【纯农排变】,杨南综合3台区,杨南农排3台区【纯农排变】,杨西综合2台区,杨西综合7台区,杨南综合6台区,杨南农排4台区【纯农排变】,杨南农排1台区【纯农排变】,杨南农排2台区【纯农排变】,杨南综合9台区,杨南综合4台区,杨南综合5台区,杨南综合12台区,杨西农排1台区【纯农排变】,杨南综合10台区,杨南综合7台区,杨南综合11台区,元南农排7台区【纯农排变】,","scope":"【影响街道/乡镇】桑元镇【高危重要客户】无【影响客户】杨南村、杨东村、元南村、杨西村、大杨庄村","startTime":"2020-03-18 19:26:00","stopDate":"2020-03-19 05:00:00","orgNo":"1340616","typeCode":"电网故障停限电","poweroffArea":"【全线路停电】停杨南养猪场,杨南面粉厂,元南农排7台区【纯农排变】,杨南综合2台区,杨西农排1台区【纯农排变】,占文东,杨南综合9台区,杨南综合1台区,杨南农排8台区【纯农排变】,杨南综合7台区,杨南综合5台区,杨南综合6台区,蠡县光辉纺织厂,泉润纺织新增160KVA变压器,树子,杨西农排7台区【纯农排变】,蠡县泉润纺织有限公司,杨南综合3台区,杨南综合10台区,杨南农排2台区【纯农排变】,杨南综合8台区,杨南农排4台区【纯农排变】,杨西综合2台区,杨南农排1台区【纯农排变】,杨南综合12台区,杨西综合7台区,杨南农排3台区【纯农排变】,杨南综合4台区,杨南综合11台区,宏业丝棉厂","poweroffReason":"【停电原因】由于站内开关掉闸导致３５ＫＶ桑园变电站１０ＫＶ杨南５１１线路全线停电【变更送电】因抢修进度加快原因，送电时间由１９日０９：００变更为１９日０５：００【发布渠道】通过９５５９８发布","powerTime":"2020-03-19 04:34:39","powerComm":"已送电","subsNo":"","lineNo":"","tgNo":"","tgName":null,"infoStatus":"1","orgName":"国网蠡县供电公司","typeName":null,"infoStatusName":null,"dateDay":null,"orgNos":null,"nowTime":null,"countyName":null,"streetName":null,"villageName":null,"roadName":null,"communityName":null,"tranName":null,"sdLineName":null,"cityCode":"1340616","cityName":"国网蠡县供电公司","provinceCode":null,"stopTime":"2020-03-19 05:00:00","powerType":"全部","powerOffArea":"【全线路停电】停杨南养猪场,杨南面粉厂,元南农排7台区【纯农排变】,杨南综合2台区,杨西农排1台区【纯农排变】,占文东,杨南综合9台区,杨南综合1台区,杨南农排8台区【纯农排变】,杨南综合7台区,杨南综合5台区,杨南综合6台区,蠡县光辉纺织厂,泉润纺织新增160KVA变压器,树子,杨西农排7台区【纯农排变】,蠡县泉润纺织有限公司,杨南综合3台区,杨南综合10台区,杨南农排2台区【纯农排变】,杨南综合8台区,杨南农排4台区【纯农排变】,杨西综合2台区,杨南农排1台区【纯农排变】,杨南综合12台区,杨西综合7台区,杨南农排3台区【纯农排变】,杨南综合4台区,杨南综合11台区,宏业丝棉厂","powerOffReason":"【停电原因】由于站内开关掉闸导致３５ＫＶ桑园变电站１０ＫＶ杨南５１１线路全线停电【变更送电】因抢修进度加快原因，送电时间由１９日０９：００变更为１９日０５：００【发布渠道】通过９５５９８发布","powerOffId":"2020031813000555"},{"poweroffId":2020031813000554,"sgpoweroffId":null,"subsName":"","lineName":"北庄头线513","pubTranName":"久安庄光1,北庄头光5,北庄头光2,北庄头光3,北庄头光13变压器【2018年重过载】,北庄头光6,久安庄光11变压器【2018年重过载】,北店光25,北庄头光11,久安庄光6,久安庄光10,久安庄光2,北庄头光9,北庄头光12【灾后重建】,久安庄光7,北庄头光7,久安庄光9,新北庄头光1,久安庄光3,久安庄光4,久安庄光5,久安庄光8,北庄头光10,","scope":"【影响街道/乡镇】固城镇 【高危重要客户】无 【影响客户】久安庄、北庄头、北店部分用户、河北荣达畜禽有限公司、闫台中学、鑫雷彩印厂","startTime":"2020-03-18 19:26:33","stopDate":"2020-03-18 22:30:00","orgNo":"1340609","typeCode":"电网故障停限电","poweroffArea":"【全线路停电】停0680344470-定兴县天玺印刷有限公司-专变-219708543-天玺印刷-200,久安庄光7,北庄头农5【纯农排变】,0011676991荣达畜禽有限公司,久安庄光9,北庄头光8,新北庄头光1,北店排5【纯农排变】,北庄头光5,北店排13【纯农排变】,北店排14【纯农排变】,定兴县第二中学,荣达畜禽五号变-800,久安庄光11变压器【2018年重过载】,0011677018*河北荣达畜禽有限公司,久安庄光3,久安庄农4【纯农排变】,久安庄光4,定兴县鑫雷彩印厂,北庄头农8【纯农排变】,久安庄光5,北庄头农4【纯农排变】,北庄头农6【纯农排变】,北庄头光7,北庄头农2【纯农排变】,久安庄农3【纯农排变】,久安庄光8,北庄头光10,北庄头光12【灾后重建】,北庄头农7【纯农排变】,北店光25,北庄头光11,荣达畜禽四号变-800,久安庄光6,久安庄光1,0617301024-河北建顺混凝土制造有限公司-专变-128608857-建顺250变压器,北庄头光2,北店排17【纯农排变】,久安庄农2【纯农排变】,北庄头光3,北庄头光13变压器【2018年重过载】,北庄头光6,新奥燃气-80,久安庄农1【纯农排变】,北店排4【纯农排变】,0694617296-定兴县第二中学闫台分校-专变-237547930-闫台二中分校一号便,北庄头光9,久安庄光10,北庄头农3【纯农排变】,久安庄光2,北店排3【纯农排变】,北店排18【纯农排变】,250,北庄头农1【纯农排变】","poweroffReason":"【停电原因】由于北庄头排４配变风刮异物导致３５ＫＶ闫台变电站北庄头线５１３线路全线停电 【变更送电】因抢修进度加快原因，送电时间由１９日０６：００变更为１８日２２：３０ 【发布渠道】通过９５５９８发布","powerTime":"2020-03-18 21:46:22","powerComm":"已送电","subsNo":"","lineNo":"","tgNo":"","tgName":null,"infoStatus":"1","orgName":"国网定兴县供电公司","typeName":null,"infoStatusName":null,"dateDay":null,"orgNos":null,"nowTime":null,"countyName":null,"streetName":null,"villageName":null,"roadName":null,"communityName":null,"tranName":null,"sdLineName":null,"cityCode":"1340609","cityName":"国网定兴县供电公司","provinceCode":null,"stopTime":"2020-03-18 22:30:00","powerType":"全部","powerOffArea":"【全线路停电】停0680344470-定兴县天玺印刷有限公司-专变-219708543-天玺印刷-200,久安庄光7,北庄头农5【纯农排变】,0011676991荣达畜禽有限公司,久安庄光9,北庄头光8,新北庄头光1,北店排5【纯农排变】,北庄头光5,北店排13【纯农排变】,北店排14【纯农排变】,定兴县第二中学,荣达畜禽五号变-800,久安庄光11变压器【2018年重过载】,0011677018*河北荣达畜禽有限公司,久安庄光3,久安庄农4【纯农排变】,久安庄光4,定兴县鑫雷彩印厂,北庄头农8【纯农排变】,久安庄光5,北庄头农4【纯农排变】,北庄头农6【纯农排变】,北庄头光7,北庄头农2【纯农排变】,久安庄农3【纯农排变】,久安庄光8,北庄头光10,北庄头光12【灾后重建】,北庄头农7【纯农排变】,北店光25,北庄头光11,荣达畜禽四号变-800,久安庄光6,久安庄光1,0617301024-河北建顺混凝土制造有限公司-专变-128608857-建顺250变压器,北庄头光2,北店排17【纯农排变】,久安庄农2【纯农排变】,北庄头光3,北庄头光13变压器【2018年重过载】,北庄头光6,新奥燃气-80,久安庄农1【纯农排变】,北店排4【纯农排变】,0694617296-定兴县第二中学闫台分校-专变-237547930-闫台二中分校一号便,北庄头光9,久安庄光10,北庄头农3【纯农排变】,久安庄光2,北店排3【纯农排变】,北店排18【纯农排变】,250,北庄头农1【纯农排变】","powerOffReason":"【停电原因】由于北庄头排４配变风刮异物导致３５ＫＶ闫台变电站北庄头线５１３线路全线停电 【变更送电】因抢修进度加快原因，送电时间由１９日０６：００变更为１８日２２：３０ 【发布渠道】通过９５５９８发布","powerOffId":"2020031813000554"},{"poweroffId":2020031813000550,"sgpoweroffId":null,"subsName":"","lineName":"10KV茨村534","pubTranName":"塔照小学柱变,西茨大堤井柱变【纯农排变】,北茨村村南,5402西茨,西茨村南井柱变【纯农排变】,塔照1300,涿州市白沟河管理所柱上变压器,涿州市小营小学柱上变压器,涿州市刁窝派出所柱上变压器,涿州市农村供水公司刁窝供水站柱上变压器,东冯村西南井柱变,万全庄村北内,东冯村村西井柱变【纯农排变】,1306东冯村【纯农排变】,塔照村北内,西茨公墓变压器【纯农排变】,塔照西南内变压器,塔照村西内,塔照4935,刁沃供电所万全庄村,南尧村井,东冯村村西,涿州市刁窝交警支队柱上变压器,南尧中科后头变,北茨1343,东冯村东南地,南尧新增一号变,1289南尧村,南尧村内增,西茨辛庄道井柱变【纯农排变】,东冯村村东北（新增）,1306东冯村增【纯农排变】,南尧新增二号变,1367小营,1367小营增【纯农排变】,小营村东井变压器【纯农排变】,南尧新增四号变,西茨村村北内,小营村大堤井柱变【纯农排变】,西茨村西井柱变【纯农排变】,博亮配变新建茨村534西茨村西北,万全庄村东南,1307东冯村,东冯村村东井柱变【纯农排变】,南尧新增三号变,西茨路南井柱变【纯农排变】,西茨北堤井柱变【纯农排变】,","scope":"【影响街道/乡镇】刁窝乡 【高危重要客户】无 【影响客户】东冯村、南尧、塔照、小营村、北茨村、西茨村、万全庄","startTime":"2020-03-18 19:22:57","stopDate":"2020-03-18 22:10:00","orgNo":"1340626","typeCode":"电网故障停限电","poweroffArea":"【全线路停电】停塔照4935,刁沃供电所万全庄村,1366小营村北【纯农排变】,明城恒盛投资控股集团有限公司,南尧村井,东冯村村西,涿州思麦德啤酒有限责任公司111,小营村【纯农排变】,涿州市刁窝交警支队柱上变压器,涿州市交通运输局公路设施维护站,南尧中科后头变,北茨1343,涿州市金锐机械厂,潘各庄供电所,刁沃供电所（西茨西地）,东冯村东南地,刁窝供电所（东冯村北）,010001340|刁窝供电所,保定中建华通房地产开发有限公司,涿州市东方金属加工厂250,小营村大堤井柱变【纯农排变】,西茨村西井柱变【纯农排变】,万全庄村东南, 东冯村村东井柱变【纯农排变】,南尧新增三号变,西茨路南井柱变【纯农排变】,西茨村南井柱变【纯农排变】,1289南尧村,南尧村内增,涿州市交通局公路管理站,西茨辛庄道井柱变【纯农排变】,涿州市泉鑫建材水泥制品厂,0387563756-塔照利民面粉厂内-专变-45358673-塔照利民面粉厂内(北),东冯村南市场,塔照利民面粉厂内（南）,小营村西内,东冯村村东北（新增）,塔照西南内变压器,南尧新增一号变,1367小营增【纯农排变】,小营村东井变压器【纯农排变】,南尧新增四号变,涿州市东方面粉厂,西茨村村北内,涿州思麦德啤酒有限责任公司,博亮配变新建茨村534西茨村西北,涿州市水利局白沟河管理所,涿州市博方房地产开发有限公司,海明木材经销站,涿州市刁窝镇塔照村村民委员会,鑫丰木厂,涿州市学朝木板经销部,涿州市乾达亿通商贸有限公司,西茨村（村西）,1307东冯村,东兴石膏板厂,西茨北堤井柱变【纯农排变】,涿州靖雅中学,涿州鑫宇园林绿化工程有限公司,涿州宝路德技术开发有限公司250,万全庄村北内,小营(村西),西茨村,小营海民木厂,东冯村村西井柱变【纯农排变】,西茨(西南),北茨村西【纯农排变】,涿州市清翠煤炭经销部,1306东冯村【纯农排变】,小营(东南),涿州市子月装饰材料厂,塔照小学柱变,西茨大堤井柱变【纯农排变】,涿州市东方面粉厂新增,东方金属加工厂(东),刁沃兴顺面粉厂,塔照村（西南地）,西茨村(村南),北茨村村南,涿州市白沟河管理所柱上变压器,5402西茨,涿州市忠科建材有限公司,刁窝塔照村南【纯农排变】,涿州市建联华泰机械制造有限公司,北茨村西北井台区柱上变压器【纯农排变】,0551705036-涿州市农村供水有限公司-专变-171545292-涿州市农村供水有限公司,涿州市顺联水泥制品厂,河北省涿州开发区管理委员会2,塔照1300,涿州市小营小学柱上变压器,塔照村东井【纯农排变】,涿州市刁窝派出所柱上变压器,涿州市农村供水公司刁窝供水站柱上变压器,东冯村西南井柱变,小营村西南5681变台,1306东冯村增【纯农排变】,塔照地(村南),南尧新增二号变,1367小营,塔照村北内,西茨公墓变压器【纯农排变】,塔照村西内","poweroffReason":"【停电原因】由于大风外力破坏导致１１０ＫＶ刁窝变电站１０ＫＶ茨村５３４线路全线停电 【变更送电】因抢修进度加快原因，送电时间由１９日１２：００变更为１８日２２：１０ 【发布渠道】通过９５５９８发布","powerTime":"2020-03-18 21:41:03","powerComm":"恢复送电","subsNo":"","lineNo":"","tgNo":"","tgName":null,"infoStatus":"1","orgName":"国网涿州市供电公司","typeName":null,"infoStatusName":null,"dateDay":null,"orgNos":null,"nowTime":null,"countyName":null,"streetName":null,"villageName":null,"roadName":null,"communityName":null,"tranName":null,"sdLineName":null,"cityCode":"1340626","cityName":"国网涿州市供电公司","provinceCode":null,"stopTime":"2020-03-18 22:10:00","powerType":"全部","powerOffArea":"【全线路停电】停塔照4935,刁沃供电所万全庄村,1366小营村北【纯农排变】,明城恒盛投资控股集团有限公司,南尧村井,东冯村村西,涿州思麦德啤酒有限责任公司111,小营村【纯农排变】,涿州市刁窝交警支队柱上变压器,涿州市交通运输局公路设施维护站,南尧中科后头变,北茨1343,涿州市金锐机械厂,潘各庄供电所,刁沃供电所（西茨西地）,东冯村东南地,刁窝供电所（东冯村北）,010001340|刁窝供电所,保定中建华通房地产开发有限公司,涿州市东方金属加工厂250,小营村大堤井柱变【纯农排变】,西茨村西井柱变【纯农排变】,万全庄村东南, 东冯村村东井柱变【纯农排变】,南尧新增三号变,西茨路南井柱变【纯农排变】,西茨村南井柱变【纯农排变】,1289南尧村,南尧村内增,涿州市交通局公路管理站,西茨辛庄道井柱变【纯农排变】,涿州市泉鑫建材水泥制品厂,0387563756-塔照利民面粉厂内-专变-45358673-塔照利民面粉厂内(北),东冯村南市场,塔照利民面粉厂内（南）,小营村西内,东冯村村东北（新增）,塔照西南内变压器,南尧新增一号变,1367小营增【纯农排变】,小营村东井变压器【纯农排变】,南尧新增四号变,涿州市东方面粉厂,西茨村村北内,涿州思麦德啤酒有限责任公司,博亮配变新建茨村534西茨村西北,涿州市水利局白沟河管理所,涿州市博方房地产开发有限公司,海明木材经销站,涿州市刁窝镇塔照村村民委员会,鑫丰木厂,涿州市学朝木板经销部,涿州市乾达亿通商贸有限公司,西茨村（村西）,1307东冯村,东兴石膏板厂,西茨北堤井柱变【纯农排变】,涿州靖雅中学,涿州鑫宇园林绿化工程有限公司,涿州宝路德技术开发有限公司250,万全庄村北内,小营(村西),西茨村,小营海民木厂,东冯村村西井柱变【纯农排变】,西茨(西南),北茨村西【纯农排变】,涿州市清翠煤炭经销部,1306东冯村【纯农排变】,小营(东南),涿州市子月装饰材料厂,塔照小学柱变,西茨大堤井柱变【纯农排变】,涿州市东方面粉厂新增,东方金属加工厂(东),刁沃兴顺面粉厂,塔照村（西南地）,西茨村(村南),北茨村村南,涿州市白沟河管理所柱上变压器,5402西茨,涿州市忠科建材有限公司,刁窝塔照村南【纯农排变】,涿州市建联华泰机械制造有限公司,北茨村西北井台区柱上变压器【纯农排变】,0551705036-涿州市农村供水有限公司-专变-171545292-涿州市农村供水有限公司,涿州市顺联水泥制品厂,河北省涿州开发区管理委员会2,塔照1300,涿州市小营小学柱上变压器,塔照村东井【纯农排变】,涿州市刁窝派出所柱上变压器,涿州市农村供水公司刁窝供水站柱上变压器,东冯村西南井柱变,小营村西南5681变台,1306东冯村增【纯农排变】,塔照地(村南),南尧新增二号变,1367小营,塔照村北内,西茨公墓变压器【纯农排变】,塔照村西内","powerOffReason":"【停电原因】由于大风外力破坏导致１１０ＫＶ刁窝变电站１０ＫＶ茨村５３４线路全线停电 【变更送电】因抢修进度加快原因，送电时间由１９日１２：００变更为１８日２２：１０ 【发布渠道】通过９５５９８发布","powerOffId":"2020031813000550"}],"pageModel":{"pageNow":254,"totalCount":10973,"totalPage":1098,"tableRows":0,"pageCount":10,"beginCount":2530},"isExperi":"1"}