{"message":"","today":"2020-06-15","seleList":[{"poweroffId":2020031813000178,"sgpoweroffId":null,"subsName":"","lineName":"安庄线513","pubTranName":"户木供电所7号,辛庄6号变压器,安庄3号,户木4号,新庄1号,H杨庄13号变压器,幸福村4台区,徐庄16号,户木9号,徐庄17号,雁门5号,户木供电所8号,","scope":"【影响街道/乡镇】户木乡 【高危重要客户】无 【影响客户】幸福村、孙村营、崔庄、安庄、杨庄、徐庄、新庄、雁门、户木","startTime":"2020-03-18 13:54:23","stopDate":"2020-03-18 15:30:00","orgNo":"1340605","typeCode":"电网故障停限电","poweroffArea":"【全线路停电】停崔庄5号,孙村营5号,崔庄6号HM,崔庄11hm,孙村营1号,安庄13号,安庄16号,崔庄2号HM,安庄17号,崔庄3号HM【纯农排变】,崔庄9号【纯农排变】,雁门2号,新庄4号,徐庄3号HM,雁门3号【纯农排变】,徐庄4号HM【纯农排变】,徐庄2号HM,幸福村3号【纯农排变】,安庄10号,安庄7号,孙村营6号,安庄15号,安庄1号,安庄12号,安庄8号【纯农排变】,崔庄4号HM,崔庄1号,孙村营7号,崔庄8号HM,安庄14号,徐庄9号【纯农排变】,雁门1号,徐庄1号HM,徐庄12号,孙村营4号,杨庄1号HM,雁门4号【纯农排变】,新庄5号,客户投资_安庄11号,辛庄6号变压器,徐庄11号【纯农排变】,神龙,徐庄15号,孙村营3号,安庄4号,杨庄8号HM,H杨庄13号变压器,徐庄6号HM,幸福村4台区,杨庄12号,徐庄16号,杨庄3号HM【纯农排变】,幸福村2号【纯农排变】,幸福村5号,中国联合网络通信有限公司徐水县分公司户木,杨庄11号HM,户木9号,杨庄10号HM,幸福村6号,永康饲料厂,徐庄7号配变,户木19号,徐庄17号,崔庄13号,雁门5号,徐庄5号HM【纯农排变】,孙村营2号【纯农排变】,安庄2号,徐庄14号【纯农排变】,崔庄10号HM,杨庄7号HM【纯农排变】,新庄3号HM【纯农排变】,杨庄5号HM【纯农排变】,杨庄9号HM【纯农排变】,幸福村1号,杨庄2号HM,安庄6号【纯农排变】,安庄5号【纯农排变】,户木供电所8号,户木供电所7号,户木11号【纯农排变】,徐庄8号,辛庄2号【纯农排变】,安庄3号,徐庄10号,安庄18号【纯农排变】,崔庄12号,崔庄7号,徐庄13号【纯农排变】,户木4号,雁门6号,杨庄4号HM【纯农排变】,安庄9号【纯农排变】,户木供电所6号,新庄1号,户木12号变台【纯农排变】,0550734019-保定市富润滋饲料有限公司-专变-49034061-变压器,保定市徐水区户木乡徐庄小学,杨庄6号HM【纯农排变】,雁门7号【纯农排变】","poweroffReason":"【停电原因】由于Ｂ相接地导致３５ＫＶ户木变电站安庄线５１３线路全线停电 【变更送电】因抢修进度加快原因，送电时间由２１:００变更为１５:３０ 【发布渠道】通过９５５９８发布","powerTime":"2020-03-18 14:50:18","powerComm":"已送电","subsNo":"","lineNo":"","tgNo":"","tgName":null,"infoStatus":"1","orgName":"国网徐水县供电公司","typeName":null,"infoStatusName":null,"dateDay":null,"orgNos":null,"nowTime":null,"countyName":null,"streetName":null,"villageName":null,"roadName":null,"communityName":null,"tranName":null,"sdLineName":null,"cityCode":"1340605","cityName":"国网徐水县供电公司","provinceCode":null,"stopTime":"2020-03-18 15:30:00","powerType":"全部","powerOffArea":"【全线路停电】停崔庄5号,孙村营5号,崔庄6号HM,崔庄11hm,孙村营1号,安庄13号,安庄16号,崔庄2号HM,安庄17号,崔庄3号HM【纯农排变】,崔庄9号【纯农排变】,雁门2号,新庄4号,徐庄3号HM,雁门3号【纯农排变】,徐庄4号HM【纯农排变】,徐庄2号HM,幸福村3号【纯农排变】,安庄10号,安庄7号,孙村营6号,安庄15号,安庄1号,安庄12号,安庄8号【纯农排变】,崔庄4号HM,崔庄1号,孙村营7号,崔庄8号HM,安庄14号,徐庄9号【纯农排变】,雁门1号,徐庄1号HM,徐庄12号,孙村营4号,杨庄1号HM,雁门4号【纯农排变】,新庄5号,客户投资_安庄11号,辛庄6号变压器,徐庄11号【纯农排变】,神龙,徐庄15号,孙村营3号,安庄4号,杨庄8号HM,H杨庄13号变压器,徐庄6号HM,幸福村4台区,杨庄12号,徐庄16号,杨庄3号HM【纯农排变】,幸福村2号【纯农排变】,幸福村5号,中国联合网络通信有限公司徐水县分公司户木,杨庄11号HM,户木9号,杨庄10号HM,幸福村6号,永康饲料厂,徐庄7号配变,户木19号,徐庄17号,崔庄13号,雁门5号,徐庄5号HM【纯农排变】,孙村营2号【纯农排变】,安庄2号,徐庄14号【纯农排变】,崔庄10号HM,杨庄7号HM【纯农排变】,新庄3号HM【纯农排变】,杨庄5号HM【纯农排变】,杨庄9号HM【纯农排变】,幸福村1号,杨庄2号HM,安庄6号【纯农排变】,安庄5号【纯农排变】,户木供电所8号,户木供电所7号,户木11号【纯农排变】,徐庄8号,辛庄2号【纯农排变】,安庄3号,徐庄10号,安庄18号【纯农排变】,崔庄12号,崔庄7号,徐庄13号【纯农排变】,户木4号,雁门6号,杨庄4号HM【纯农排变】,安庄9号【纯农排变】,户木供电所6号,新庄1号,户木12号变台【纯农排变】,0550734019-保定市富润滋饲料有限公司-专变-49034061-变压器,保定市徐水区户木乡徐庄小学,杨庄6号HM【纯农排变】,雁门7号【纯农排变】","powerOffReason":"【停电原因】由于Ｂ相接地导致３５ＫＶ户木变电站安庄线５１３线路全线停电 【变更送电】因抢修进度加快原因，送电时间由２１:００变更为１５:３０ 【发布渠道】通过９５５９８发布","powerOffId":"2020031813000178"},{"poweroffId":2020031813000163,"sgpoweroffId":null,"subsName":"","lineName":"10KV龙安544","pubTranName":"悟空寺西坡台区,龙安北五台区变压器,王各庄北台区,沈家庵北三台区,一渡镇政府变压器,东庄二台区2,宋各庄村内,","scope":"【影响街道/乡镇】一渡镇 【高危重要客户】无 【影响客户】龙安村、东庄村、悟空寺村、宋各庄村、郭各庄村、王各庄村、沈家庵村","startTime":"2020-03-28 07:00:00","stopDate":"2020-03-28 18:00:00","orgNo":"1340614","typeCode":"计划停电","poweroffArea":"【全线路停电】停悟空寺西坡台区,龙安北五台区变压器,王各庄北台区,沈家庵北三台区,一渡镇政府变压器,东庄二台区2,宋各庄村内,三皇山花园,宋各庄信用社","poweroffReason":"【停电原因】由于更换导线导致３５ＫＶ宋各庄变电站１０ＫＶ龙安５４４线路全线停电 【变更送电】无 【发布渠道】保定市涞水电视台（０３月１９日０８时至０３月２８日１７时之间）屏幕上方滚动","powerTime":"2020-03-28 17:39:59","powerComm":"已送电","subsNo":"","lineNo":"","tgNo":"","tgName":null,"infoStatus":"1","orgName":"国网涞水县供电公司","typeName":null,"infoStatusName":null,"dateDay":null,"orgNos":null,"nowTime":null,"countyName":null,"streetName":null,"villageName":null,"roadName":null,"communityName":null,"tranName":null,"sdLineName":null,"cityCode":"1340614","cityName":"国网涞水县供电公司","provinceCode":null,"stopTime":"2020-03-28 18:00:00","powerType":"全部","powerOffArea":"【全线路停电】停悟空寺西坡台区,龙安北五台区变压器,王各庄北台区,沈家庵北三台区,一渡镇政府变压器,东庄二台区2,宋各庄村内,三皇山花园,宋各庄信用社","powerOffReason":"【停电原因】由于更换导线导致３５ＫＶ宋各庄变电站１０ＫＶ龙安５４４线路全线停电 【变更送电】无 【发布渠道】保定市涞水电视台（０３月１９日０８时至０３月２８日１７时之间）屏幕上方滚动","powerOffId":"2020031813000163"},{"poweroffId":2020031813000100,"sgpoweroffId":null,"subsName":"","lineName":"10kV512辛兴线","pubTranName":"辛兴综合17台区,辛兴综合22台区,辛兴综合2台区,辛兴综合19台区,辛兴综合18台区,辛兴综合11台区,辛兴综合20台区,辛兴综合21台区,辛兴综合7台区,辛兴综合5台区,辛兴综合9台区,辛兴综合24台区,辛兴综合8台区,辛兴综合10台区,辛兴综合4台区,辛兴综合30台区,辛兴综合1台区,辛兴综合3台区,辛兴综合6台区,辛兴综合23台区,","scope":"【影响街道/乡镇】辛兴镇【高危重要客户】无【影响客户】辛兴村、辛兴工业区、辛兴中学以西","startTime":"2020-03-18 11:18:42","stopDate":"2020-03-18 14:00:00","orgNo":"1340616","typeCode":"电网故障停限电","poweroffArea":"【全线路停电】停辛兴综合4台区,辛兴农排9台区【纯农排变】,光宇,蠡县腾达工贸有限公司,通达,河北超洋毛纺有限公司变压器,兴达毛纺厂变压器,张志学,超洋,甄中朴变压器,崔旭学,辛兴小学,辛兴综合2台区,李小路,辛兴综合24台区,辛兴农排2台区【纯农排变】,红天纺织有限公司,辛兴农排5台区【纯农排变】,万达毛纺厂,0694522970-蠡县连存物业服务有限公司-专变-237552682-蠡县连存物业服务有限公司,祝小闷,建华冷库,丙青,高新,辛兴综合30台区,辛兴综合18台区,百川毛纺厂,新兴中学,辛兴综合22台区,齐军车床,辛兴农排1台区【纯农排变】,美思皮草,辛兴综合19台区,辛兴综合11台区,紫微,龙利达,辛兴大队,李朋,油田,0694522970-蠡县连存物业服务有限公司-专变-237552678-蠡县连存物业服务有限公司,辛兴农排16台区（石盼芹纸箱厂）【纯农排变】,辛兴农排3台区【纯农排变】,辛兴农排8台区【纯农排变】,雄天,石金乐,0693335393-蠡县新兴化纤有限公司-专变-237512435-蠡县新兴化纤有限公司变压器,祥云毛纺3721,辛兴综合10台区,东兰纺织厂,河北凯森化纤制品有限公司,孙志强,辛兴农排14台区【纯农排变】,旭光毛纺,辛兴综合6台区,变压器,杜树中,辛兴综合21台区,0469116830-河北蠡州北银农村商业银行股份有限公司辛兴东支行-专变-46722372-阎晓军,汉哲毯业,澳新,利新毛纺厂,中石油28加油站,辛兴综合23台区,辛兴农排12台区【纯农排变】,移动,长雪,太阳山,国良,辛兴综合1台区,养殖场,辛兴农排13台区【纯农排变】,张新国,网通,辛兴综合7台区,14512084|祥云,石会来,辛兴综合17台区,辛兴综合3台区,辛兴农排4台区【纯农排变】,辛兴农排6台区【纯农排变】,崔景增,宏鑫毛纺,辛兴综合9台区,辛兴综合20台区,辛兴综合5台区,祥云,石盼芹纸箱厂,新市区北,智业助剂,脑血管医院,龙华纺织,学校（新）,保定圣天变压器,辛兴综合8台区,辛兴农排15台区【纯农排变】","poweroffReason":"【停电原因】由于线路接地导致１１０ＫＶ辛兴变电站１０ＫＶ辛兴５１２线路全线停电【变更送电】因抢修进度加快原因，送电时间由１５：３０变更为１４：００【发布渠道】通过９５５９８发布","powerTime":"2020-03-18 13:20:29","powerComm":"已送电","subsNo":"","lineNo":"","tgNo":"","tgName":null,"infoStatus":"1","orgName":"国网蠡县供电公司","typeName":null,"infoStatusName":null,"dateDay":null,"orgNos":null,"nowTime":null,"countyName":null,"streetName":null,"villageName":null,"roadName":null,"communityName":null,"tranName":null,"sdLineName":null,"cityCode":"1340616","cityName":"国网蠡县供电公司","provinceCode":null,"stopTime":"2020-03-18 14:00:00","powerType":"全部","powerOffArea":"【全线路停电】停辛兴综合4台区,辛兴农排9台区【纯农排变】,光宇,蠡县腾达工贸有限公司,通达,河北超洋毛纺有限公司变压器,兴达毛纺厂变压器,张志学,超洋,甄中朴变压器,崔旭学,辛兴小学,辛兴综合2台区,李小路,辛兴综合24台区,辛兴农排2台区【纯农排变】,红天纺织有限公司,辛兴农排5台区【纯农排变】,万达毛纺厂,0694522970-蠡县连存物业服务有限公司-专变-237552682-蠡县连存物业服务有限公司,祝小闷,建华冷库,丙青,高新,辛兴综合30台区,辛兴综合18台区,百川毛纺厂,新兴中学,辛兴综合22台区,齐军车床,辛兴农排1台区【纯农排变】,美思皮草,辛兴综合19台区,辛兴综合11台区,紫微,龙利达,辛兴大队,李朋,油田,0694522970-蠡县连存物业服务有限公司-专变-237552678-蠡县连存物业服务有限公司,辛兴农排16台区（石盼芹纸箱厂）【纯农排变】,辛兴农排3台区【纯农排变】,辛兴农排8台区【纯农排变】,雄天,石金乐,0693335393-蠡县新兴化纤有限公司-专变-237512435-蠡县新兴化纤有限公司变压器,祥云毛纺3721,辛兴综合10台区,东兰纺织厂,河北凯森化纤制品有限公司,孙志强,辛兴农排14台区【纯农排变】,旭光毛纺,辛兴综合6台区,变压器,杜树中,辛兴综合21台区,0469116830-河北蠡州北银农村商业银行股份有限公司辛兴东支行-专变-46722372-阎晓军,汉哲毯业,澳新,利新毛纺厂,中石油28加油站,辛兴综合23台区,辛兴农排12台区【纯农排变】,移动,长雪,太阳山,国良,辛兴综合1台区,养殖场,辛兴农排13台区【纯农排变】,张新国,网通,辛兴综合7台区,14512084|祥云,石会来,辛兴综合17台区,辛兴综合3台区,辛兴农排4台区【纯农排变】,辛兴农排6台区【纯农排变】,崔景增,宏鑫毛纺,辛兴综合9台区,辛兴综合20台区,辛兴综合5台区,祥云,石盼芹纸箱厂,新市区北,智业助剂,脑血管医院,龙华纺织,学校（新）,保定圣天变压器,辛兴综合8台区,辛兴农排15台区【纯农排变】","powerOffReason":"【停电原因】由于线路接地导致１１０ＫＶ辛兴变电站１０ＫＶ辛兴５１２线路全线停电【变更送电】因抢修进度加快原因，送电时间由１５：３０变更为１４：００【发布渠道】通过９５５９８发布","powerOffId":"2020031813000100"},{"poweroffId":2020031813000072,"sgpoweroffId":null,"subsName":"","lineName":"10kV515齐营线","pubTranName":"正南庄综合9台区,西南庄农排4台区【纯农排变】,刘佃庄综合7台区,齐营综合8台区,正南庄综合7台区,齐营农排10台区【纯农排变】,齐营综合12台区,齐营综合7台区,刘佃庄农排3台区【纯农排变】,齐营综合3台区,齐营农排11台区【纯农排变】,齐营综合9台区,刘佃庄综合4台区,刘佃庄农排8台区【纯农排变】,刘佃庄综合六台区,刘佃庄综合10台区,齐营农排4台区【纯农排变】,正南庄农排4台区【纯农排变】,南口农排4台区【纯农排变】,正南庄综合3台区,齐营综合10台区,齐营综合5台区,西南庄综合7台区,刘佃庄综合9台区,刘佃庄综合8台区,西南庄综合3台区,正南庄综合4台区,齐营综合11台区,刘佃庄综合5台区,齐营农排3台区【纯农排变】,刘佃庄农排6台区【纯农排变】,正南庄综合8台区,正南庄农排2台区【纯农排变】,正南庄农排3台区【纯农排变】,西南庄农排1台区【纯农排变】,刘佃庄综合1台区,齐营综合6台区,正南庄综合6台区,齐营综合1台区,东口农排4台区【纯农排变】,刘佃庄综合2台区,正南庄综合1台区,齐营综合2台区,正南庄综合5台区,东口综合20台区,","scope":"【影响街道/乡镇】鲍墟乡【高危重要客户】无【影响客户】齐营村、东口村、刘佃庄村、西南庄村、正南庄村、南口村、西口村","startTime":"2020-03-18 10:17:06","stopDate":"2020-03-18 11:30:00","orgNo":"1340616","typeCode":"电网故障停限电","poweroffArea":"【全线路停电】停正南庄农排1台区【纯农排变】,齐营农排6台区【纯农排变】,刘佃庄综合六台区,正南庄农排4台区【纯农排变】,东口农排5台区【纯农排变】,刘佃庄综合4台区,东口农排8台区【纯农排变】,齐营综合12台区,刘佃庄综合5台区,正南庄农排2台区【纯农排变】,齐营综合9台区,刘佃庄农排4台区【纯农排变】,齐营综合1台区,正南庄综合2台区,刘佃庄农排1台区【纯农排变】,冷冻厂,刘佃庄农排6台区【纯农排变】,刘佃庄农排10台区【纯农排变】,紫玉养殖厂,齐营农排5台区【纯农排变】,齐营综合7台区,齐营综合10台区,齐营综合11台区,西南庄综合3台区,东口综合20台区,齐营综合8台区,西南庄农排1台区【纯农排变】,齐营农排4台区【纯农排变】,正南庄综合9台区,中口农排2台区【纯农排变】,齐营农排3台区【纯农排变】,正南庄农排3台区【纯农排变】,蠡县东口利兆特种养殖厂变压器,刘佃庄农排5台区【纯农排变】,蠡县东口绿丹蓝养殖场变压器,东口农排4台区【纯农排变】,正南庄综合6台区,齐营农排1台区【纯农排变】,正南庄综合1台区,正南庄综合4台区,东口农排10台区【纯农排变】,正南庄综合7台区,正南庄综合8台区,西南庄农排2台区【纯农排变】,正南庄综合5台区,齐营农排10台区【纯农排变】,齐营综合5台区,中国移动通信集团河北有限公司蠡县分公司刘佃庄村变压器,齐营农排2台区【纯农排变】,齐营农排11台区【纯农排变】,东口农排6台区【纯农排变】,刘佃庄综合9台区,东口农排9台区【纯农排变】,齐营农排12台区【纯农排变】,刘佃庄综合1台区,刘佃庄农排3台区【纯农排变】,东口农排7台区【纯农排变】,刘佃庄农排9台区【纯农排变】,刘佃庄农排2台区【纯农排变】,东口地,齐营农排13台区【纯农排变】,蠡县东口第二饲养厂变压器,西南庄农排4台区【纯农排变】,刘佃庄综合8台区,刘佃庄农排8台区【纯农排变】,南口农排4台区【纯农排变】,齐营综合4台区,刘佃庄综合2台区,中口农排3台区【纯农排变】,齐营综合6台区,刘佃庄农排7台区【纯农排变】,刘佃庄综合7台区,正南庄综合3台区,刘佃庄综合10台区,蠡县东口第一养殖厂变压器,南口农排5台区【纯农排变】,南口农排2台区【纯农排变】,齐营农排8台区【纯农排变】,西南庄农排3台区【纯农排变】,齐营农排9台区【纯农排变】,齐营综合2台区,齐营农排7台区【纯农排变】,中国石油天然气股份有限公司华北油田分公司,西南庄综合7台区,齐营综合3台区,东口农排2台区【纯农排变】,南口农排3台区【纯农排变】,东口农排3台区【纯农排变】","poweroffReason":"【停电原因】由于站内开关掉闸导致３５ＫＶ鲍墟变电站１０ＫＶ齐营５１５线路全线停电【变更送电】因抢修进度加快原因，送电时间由１５：００变更为１１：３０【发布渠道】通过９５５９８发布","powerTime":"2020-03-18 11:02:05","powerComm":"已送电","subsNo":"","lineNo":"","tgNo":"","tgName":null,"infoStatus":"1","orgName":"国网蠡县供电公司","typeName":null,"infoStatusName":null,"dateDay":null,"orgNos":null,"nowTime":null,"countyName":null,"streetName":null,"villageName":null,"roadName":null,"communityName":null,"tranName":null,"sdLineName":null,"cityCode":"1340616","cityName":"国网蠡县供电公司","provinceCode":null,"stopTime":"2020-03-18 11:30:00","powerType":"全部","powerOffArea":"【全线路停电】停正南庄农排1台区【纯农排变】,齐营农排6台区【纯农排变】,刘佃庄综合六台区,正南庄农排4台区【纯农排变】,东口农排5台区【纯农排变】,刘佃庄综合4台区,东口农排8台区【纯农排变】,齐营综合12台区,刘佃庄综合5台区,正南庄农排2台区【纯农排变】,齐营综合9台区,刘佃庄农排4台区【纯农排变】,齐营综合1台区,正南庄综合2台区,刘佃庄农排1台区【纯农排变】,冷冻厂,刘佃庄农排6台区【纯农排变】,刘佃庄农排10台区【纯农排变】,紫玉养殖厂,齐营农排5台区【纯农排变】,齐营综合7台区,齐营综合10台区,齐营综合11台区,西南庄综合3台区,东口综合20台区,齐营综合8台区,西南庄农排1台区【纯农排变】,齐营农排4台区【纯农排变】,正南庄综合9台区,中口农排2台区【纯农排变】,齐营农排3台区【纯农排变】,正南庄农排3台区【纯农排变】,蠡县东口利兆特种养殖厂变压器,刘佃庄农排5台区【纯农排变】,蠡县东口绿丹蓝养殖场变压器,东口农排4台区【纯农排变】,正南庄综合6台区,齐营农排1台区【纯农排变】,正南庄综合1台区,正南庄综合4台区,东口农排10台区【纯农排变】,正南庄综合7台区,正南庄综合8台区,西南庄农排2台区【纯农排变】,正南庄综合5台区,齐营农排10台区【纯农排变】,齐营综合5台区,中国移动通信集团河北有限公司蠡县分公司刘佃庄村变压器,齐营农排2台区【纯农排变】,齐营农排11台区【纯农排变】,东口农排6台区【纯农排变】,刘佃庄综合9台区,东口农排9台区【纯农排变】,齐营农排12台区【纯农排变】,刘佃庄综合1台区,刘佃庄农排3台区【纯农排变】,东口农排7台区【纯农排变】,刘佃庄农排9台区【纯农排变】,刘佃庄农排2台区【纯农排变】,东口地,齐营农排13台区【纯农排变】,蠡县东口第二饲养厂变压器,西南庄农排4台区【纯农排变】,刘佃庄综合8台区,刘佃庄农排8台区【纯农排变】,南口农排4台区【纯农排变】,齐营综合4台区,刘佃庄综合2台区,中口农排3台区【纯农排变】,齐营综合6台区,刘佃庄农排7台区【纯农排变】,刘佃庄综合7台区,正南庄综合3台区,刘佃庄综合10台区,蠡县东口第一养殖厂变压器,南口农排5台区【纯农排变】,南口农排2台区【纯农排变】,齐营农排8台区【纯农排变】,西南庄农排3台区【纯农排变】,齐营农排9台区【纯农排变】,齐营综合2台区,齐营农排7台区【纯农排变】,中国石油天然气股份有限公司华北油田分公司,西南庄综合7台区,齐营综合3台区,东口农排2台区【纯农排变】,南口农排3台区【纯农排变】,东口农排3台区【纯农排变】","powerOffReason":"【停电原因】由于站内开关掉闸导致３５ＫＶ鲍墟变电站１０ＫＶ齐营５１５线路全线停电【变更送电】因抢修进度加快原因，送电时间由１５：００变更为１１：３０【发布渠道】通过９５５９８发布","powerOffId":"2020031813000072"},{"poweroffId":2020031813000056,"sgpoweroffId":null,"subsName":"","lineName":"10kV515石子厂线","pubTranName":"中下邑村北新增综合5506,南下邑1720|25001720,北下邑村内综合7845,北下邑村北1820|25001820,北下邑村南2060|25002060,中下邑村东1830|25001830,南下邑村南综合7846,中下邑1760|25001760,南下邑东3310|25003310,南下邑红生综合,南下邑村内新增综合,中下邑村西新增综合5507,","scope":"【影响街道/乡镇】河口乡【高危重要客户】无【影响客户】南下邑、中下邑、北下邑","startTime":"2020-03-29 07:00:00","stopDate":"2020-03-29 18:00:00","orgNo":"1340621","typeCode":"计划停电","poweroffArea":"【全线路停电】停中下邑村西新增综合5507,中下邑村北新增综合5506,南下邑1720|25001720,北下邑村内综合7845,北下邑村北1820|25001820,北下邑村南2060|25002060,中下邑村东1830|25001830,南下邑村南综合7846,中下邑1760|25001760,南下邑东3310|25003310,南下邑红生综合,南下邑村内新增综合","poweroffReason":"【停电原因】由于线路清扫导致３５ＫＶ河口变电站１０ＫＶ５１５石子厂线路全线停电【变更送电】无【发布渠道】保定市顺平县电视台（３月１９日至２８日２０时至２１时之间）屏幕上方滚动字幕","powerTime":"2020-03-29 17:07:17","powerComm":"已送电","subsNo":"","lineNo":"","tgNo":"","tgName":null,"infoStatus":"1","orgName":"国网顺平县电力局","typeName":null,"infoStatusName":null,"dateDay":null,"orgNos":null,"nowTime":null,"countyName":null,"streetName":null,"villageName":null,"roadName":null,"communityName":null,"tranName":null,"sdLineName":null,"cityCode":"1340621","cityName":"国网顺平县电力局","provinceCode":null,"stopTime":"2020-03-29 18:00:00","powerType":"全部","powerOffArea":"【全线路停电】停中下邑村西新增综合5507,中下邑村北新增综合5506,南下邑1720|25001720,北下邑村内综合7845,北下邑村北1820|25001820,北下邑村南2060|25002060,中下邑村东1830|25001830,南下邑村南综合7846,中下邑1760|25001760,南下邑东3310|25003310,南下邑红生综合,南下邑村内新增综合","powerOffReason":"【停电原因】由于线路清扫导致３５ＫＶ河口变电站１０ＫＶ５１５石子厂线路全线停电【变更送电】无【发布渠道】保定市顺平县电视台（３月１９日至２８日２０时至２１时之间）屏幕上方滚动字幕","powerOffId":"2020031813000056"},{"poweroffId":2020031813000050,"sgpoweroffId":null,"subsName":"","lineName":"10kV516台鱼线","pubTranName":"南台鱼村南新增综合,宅子村内1370|24001370,宅子市场综合8337,台鱼西综合7838,宅子红领综合7834,宅子桥东1620|24001620,宅子村西综合8336,宅子南1号,东峪南综合,宅子东南新增综合2944,宅子南综合2800,东峪2630|24002630,东峪2340|24002340,东峪1440|24001440,西柏山1750|24001750,龙堂1520|24001520,龙堂西综合8345,南台鱼西1350|24001350,宅子村北综合8332,龙堂北综合,","scope":"【影响街道/乡镇】台鱼乡【高危重要客户】无【影响客户】南台鱼、宅子、东峪、西柏山、龙堂","startTime":"2020-03-29 07:30:00","stopDate":"2020-03-29 18:00:00","orgNo":"1340621","typeCode":"计划停电","poweroffArea":"【分支停电】停宅子桥东1620|24001620,宅子村内1370|24001370,宅子市场综合8337,宅子村西综合8336,东峪南综合,南台鱼村南新增综合,台鱼西综合7838,宅子红领综合7834,宅子南1号,台鱼界河北混用2630,宅子东南新增综合2944,宅子南综合2800,东峪2630|24002630,东峪2340|24002340,东峪1440|24001440,西柏山1750|24001750,龙堂1520|24001520,龙堂西综合8345,南台鱼西1350|24001350,宅子村北综合8332,龙堂北综合","poweroffReason":"【停电原因】由于线路清扫导致３５ＫＶ安阳变电站１０ＫＶ５１６台鱼线路９８号杆断路器以下线路停电【变更送电】无【发布渠道】保定市顺平县电视台（３月１９日至２８日２０时至２１时之间）屏幕上方滚动字幕","powerTime":"2020-03-29 17:05:07","powerComm":"已送电","subsNo":"","lineNo":"","tgNo":"","tgName":null,"infoStatus":"1","orgName":"国网顺平县电力局","typeName":null,"infoStatusName":null,"dateDay":null,"orgNos":null,"nowTime":null,"countyName":null,"streetName":null,"villageName":null,"roadName":null,"communityName":null,"tranName":null,"sdLineName":null,"cityCode":"1340621","cityName":"国网顺平县电力局","provinceCode":null,"stopTime":"2020-03-29 18:00:00","powerType":"全部","powerOffArea":"【分支停电】停宅子桥东1620|24001620,宅子村内1370|24001370,宅子市场综合8337,宅子村西综合8336,东峪南综合,南台鱼村南新增综合,台鱼西综合7838,宅子红领综合7834,宅子南1号,台鱼界河北混用2630,宅子东南新增综合2944,宅子南综合2800,东峪2630|24002630,东峪2340|24002340,东峪1440|24001440,西柏山1750|24001750,龙堂1520|24001520,龙堂西综合8345,南台鱼西1350|24001350,宅子村北综合8332,龙堂北综合","powerOffReason":"【停电原因】由于线路清扫导致３５ＫＶ安阳变电站１０ＫＶ５１６台鱼线路９８号杆断路器以下线路停电【变更送电】无【发布渠道】保定市顺平县电视台（３月１９日至２８日２０时至２１时之间）屏幕上方滚动字幕","powerOffId":"2020031813000050"},{"poweroffId":2020031813000030,"sgpoweroffId":null,"subsName":"","lineName":"10kV511清醒线","pubTranName":"南清醒（万里）|26000090,宁家庄3混用|26000190,北清醒26002060,南清醒（万里）|26000090,北清醒武军混用|26001650,王家庄混用|26000250,南清醒|26000100,解放新建综合2号6983,解放混用|26000020,宁家庄2|26000180,王家庄混用|26000250,北清醒1|26000110,宁家庄村西2号综合7381,北清醒1|26000110,北清醒2|26001730,北清醒2|26001730,隘门口2混用|26000200,宁家庄|26000330,庞玉保混用|26000360,北清醒武军混用|26001650,隘门口2混用|26000200,宁家庄|26000330,隘门口1混用|26000220,北清醒26002060,南清醒村南新增综合2753,南清醒村南新增综合2753,解放2混用|26000040,刘家庄混用|26000080,宁家庄村西2号综合7381,解放新建综合2号6983,解放混用|26000020,解放2混用|26000040,隘门口1混用|26000220,宁家庄2|26000180,庞玉保混用|26000360,刘家庄混用|26000080,宁家庄3混用|26000190,南清醒|26000100,","scope":"【影响街道/乡镇】大悲乡【高危重要客户】无【影响客户】解放、天井沟、刘家庄、南清醒、北清醒、宁家庄、隘门口、王家庄、顺平县南华能源环保矿业有限公司","startTime":"2020-03-28 07:30:00","stopDate":"2020-03-28 18:00:00","orgNo":"1340621","typeCode":"计划停电","poweroffArea":"【全线路停电】停南清醒（万里）|26000090,宁家庄3混用|26000190,北清醒26002060,南清醒（万里）|26000090,北清醒武军混用|26001650,王家庄混用|26000250,南清醒|26000100,解放新建综合2号6983,解放混用|26000020,宁家庄2|26000180,王家庄混用|26000250,北清醒1|26000110,北清醒2|26001730,隘门口2混用|26000200,宁家庄|26000330,庞玉保混用|26000360,北清醒武军混用|26001650,隘门口2混用|26000200,宁家庄|26000330,隘门口1混用|26000220,北清醒26002060,南清醒村南新增综合2753,南清醒村南新增综合2753,解放2混用|26000040,刘家庄混用|26000080,宁家庄村西2号综合7381,解放新建综合2号6983,解放混用|26000020,解放2混用|26000040,隘门口1混用|26000220,宁家庄2|26000180,庞玉保混用|26000360,刘家庄混用|26000080,宁家庄3混用|26000190,南清醒|26000100,宁家庄村西2号综合7381,北清醒1|26000110,北清醒2|26001730","poweroffReason":"【停电原因】由于线路清扫导致３５ＫＶ大悲变电站１０ＫＶ５１１清醒线路全线停电【变更送电】无【发布渠道】保定市顺平县电视台（３月１９日至２７日２０时至２１时之间）屏幕上方滚动字幕","powerTime":"2020-03-28 17:49:59","powerComm":"已送电","subsNo":"","lineNo":"","tgNo":"","tgName":null,"infoStatus":"1","orgName":"国网顺平县电力局","typeName":null,"infoStatusName":null,"dateDay":null,"orgNos":null,"nowTime":null,"countyName":null,"streetName":null,"villageName":null,"roadName":null,"communityName":null,"tranName":null,"sdLineName":null,"cityCode":"1340621","cityName":"国网顺平县电力局","provinceCode":null,"stopTime":"2020-03-28 18:00:00","powerType":"全部","powerOffArea":"【全线路停电】停南清醒（万里）|26000090,宁家庄3混用|26000190,北清醒26002060,南清醒（万里）|26000090,北清醒武军混用|26001650,王家庄混用|26000250,南清醒|26000100,解放新建综合2号6983,解放混用|26000020,宁家庄2|26000180,王家庄混用|26000250,北清醒1|26000110,北清醒2|26001730,隘门口2混用|26000200,宁家庄|26000330,庞玉保混用|26000360,北清醒武军混用|26001650,隘门口2混用|26000200,宁家庄|26000330,隘门口1混用|26000220,北清醒26002060,南清醒村南新增综合2753,南清醒村南新增综合2753,解放2混用|26000040,刘家庄混用|26000080,宁家庄村西2号综合7381,解放新建综合2号6983,解放混用|26000020,解放2混用|26000040,隘门口1混用|26000220,宁家庄2|26000180,庞玉保混用|26000360,刘家庄混用|26000080,宁家庄3混用|26000190,南清醒|26000100,宁家庄村西2号综合7381,北清醒1|26000110,北清醒2|26001730","powerOffReason":"【停电原因】由于线路清扫导致３５ＫＶ大悲变电站１０ＫＶ５１１清醒线路全线停电【变更送电】无【发布渠道】保定市顺平县电视台（３月１９日至２７日２０时至２１时之间）屏幕上方滚动字幕","powerOffId":"2020031813000030"},{"poweroffId":2020031713000213,"sgpoweroffId":null,"subsName":"","lineName":"10kV570四鲍墟线","pubTranName":"北鲍墟综合4台区,蠡县亿帮洁日化有限公司,北鲍墟综合6台区,南鲍墟综合5台区,南鲍墟综合8台区,北鲍墟综合10台区【冬季供暖设施】,东鲍墟综合5台区,进托,东保去综合2台区,客户投资_北保去综合3台区,东保去综合3台区,西保去综合1台区,南鲍墟农排8台区,北鲍墟综合5台区,保去社办厂,北鲍墟综合7台区,保定江雄商品混凝土有限公司变压器,南保去综合3台区,南鲍墟综合9台区,东保去综合1台区,瑞兴宏景变压器500,南保红亮,保去中学变压器,南鲍墟综合10台区,种子站,南保去综合2台区,西保去综合2台区,西保去综合5台区,南鲍墟综合6台区,西鲍墟综合9台区【冬季供暖设施】,东鲍墟综合6台区,文瑞,北保去综合2台区,瑞兴宏景变压器315,西保去综合4台区,西保去综合3台区,北保去综合1台区,东鲍墟综合7台区,南鲍墟综合7台区,东保去综合4台区,西鲍墟综合7台区,北鲍墟综合8台区,南保去综合1台区,西鲍墟综合6台区,西鲍墟综合8台区,北鲍墟综合9台区,南鲍墟综合4台区,","scope":"【影响街道/乡镇】鲍墟乡【高危重要客户】无【影响客户】东鲍墟村、西鲍墟村、南鲍墟村、北鲍墟村","startTime":"2020-03-17 21:06:00","stopDate":"2020-03-17 23:00:00","orgNo":"1340616","typeCode":"电网故障停限电","poweroffArea":"【全线路停电】停进托,东鲍墟综合7台区,南鲍墟综合7台区,东保去综合4台区,西鲍墟综合7台区,北鲍墟综合8台区,南保去综合1台区,西鲍墟综合6台区,西鲍墟综合8台区,北鲍墟综合9台区,北鲍墟综合10台区【冬季供暖设施】,东保去综合3台区,西保去综合1台区,瑞兴宏景变压器500,南保去综合2台区,西保去综合2台区,西保去综合5台区,南鲍墟综合6台区,西鲍墟综合9台区【冬季供暖设施】,北鲍墟综合4台区,蠡县亿帮洁日化有限公司,北鲍墟综合6台区,南鲍墟综合5台区,南鲍墟综合8台区,东鲍墟综合5台区,东保去综合2台区,客户投资_北保去综合3台区,南鲍墟农排8台区,北鲍墟综合5台区,保去社办厂,北鲍墟综合7台区,保定江雄商品混凝土有限公司变压器,南保去综合3台区,南鲍墟综合9台区,东保去综合1台区,南保红亮,保去中学变压器,南鲍墟综合10台区,瑞兴宏景变压器315,种子站,东鲍墟综合6台区,文瑞,南鲍墟综合4台区,北保去综合2台区,西保去综合4台区,西保去综合3台区,北保去综合1台区","poweroffReason":"【停电原因】由于站内开关掉闸导致１１０ＫＶ南庄变电站１０ＫＶ四鲍墟５７０线路全线停电【变更送电】无【发布渠道】通过９５５９８发布","powerTime":"2020-03-17 22:44:17","powerComm":"已送电","subsNo":"","lineNo":"","tgNo":"","tgName":null,"infoStatus":"1","orgName":"国网蠡县供电公司","typeName":null,"infoStatusName":null,"dateDay":null,"orgNos":null,"nowTime":null,"countyName":null,"streetName":null,"villageName":null,"roadName":null,"communityName":null,"tranName":null,"sdLineName":null,"cityCode":"1340616","cityName":"国网蠡县供电公司","provinceCode":null,"stopTime":"2020-03-17 23:00:00","powerType":"全部","powerOffArea":"【全线路停电】停进托,东鲍墟综合7台区,南鲍墟综合7台区,东保去综合4台区,西鲍墟综合7台区,北鲍墟综合8台区,南保去综合1台区,西鲍墟综合6台区,西鲍墟综合8台区,北鲍墟综合9台区,北鲍墟综合10台区【冬季供暖设施】,东保去综合3台区,西保去综合1台区,瑞兴宏景变压器500,南保去综合2台区,西保去综合2台区,西保去综合5台区,南鲍墟综合6台区,西鲍墟综合9台区【冬季供暖设施】,北鲍墟综合4台区,蠡县亿帮洁日化有限公司,北鲍墟综合6台区,南鲍墟综合5台区,南鲍墟综合8台区,东鲍墟综合5台区,东保去综合2台区,客户投资_北保去综合3台区,南鲍墟农排8台区,北鲍墟综合5台区,保去社办厂,北鲍墟综合7台区,保定江雄商品混凝土有限公司变压器,南保去综合3台区,南鲍墟综合9台区,东保去综合1台区,南保红亮,保去中学变压器,南鲍墟综合10台区,瑞兴宏景变压器315,种子站,东鲍墟综合6台区,文瑞,南鲍墟综合4台区,北保去综合2台区,西保去综合4台区,西保去综合3台区,北保去综合1台区","powerOffReason":"【停电原因】由于站内开关掉闸导致１１０ＫＶ南庄变电站１０ＫＶ四鲍墟５７０线路全线停电【变更送电】无【发布渠道】通过９５５９８发布","powerOffId":"2020031713000213"},{"poweroffId":2020031713000198,"sgpoweroffId":null,"subsName":"","lineName":"10kV567三孟尝线","pubTranName":"中孟农排6台区【纯农排变】,永兴庄农排4台区【纯农排变】,中孟农排4台区【纯农排变】,西孟农排6台区【纯农排变】,中孟尝综合8台区,中孟综合4台区,西孟综合6台区,东孟农排6台区【纯农排变】,东孟综合3台区,东孟农排5台区【纯农排变】,中孟农排1台区【纯农排变】,东孟农排3台区【纯农排变】,中孟农排11台区【纯农排变】,永兴庄农排2台区【纯农排变】,联通,西孟综合5台区,东孟综合2台区,东孟尝综合5台区,东孟农排4台区【纯农排变】,西孟农排3台区【纯农排变】,中孟尝综合9台区,中孟尝综合7台区,中国移动通信河北有限公司蠡县分公司变压器,西孟农排2台区【纯农排变】,中孟农排7台区【纯农排变】,中孟农排10台区【纯农排变】,西孟农排5台区【纯农排变】,中孟农排2台区【纯农排变】,中孟农排3台区【纯农排变】,永兴庄农排1台区【纯农排变】,中孟农排5台区【纯农排变】,中孟综合5台区,东孟农排2台区【纯农排变】,西孟综合1台区,西孟综合4台区,东孟尝综合4台区,种子站,西孟尝农排8台区【纯农排变】,中孟综合3台区,中孟综合2台区,中孟尝小学,东孟综合1台区,中孟综合6台区,南陈农排1台区【纯农排变】,西孟综合2台区,西孟农排4台区【纯农排变】,中孟农排12台区【纯农排变】,西孟农排7台区【纯农排变】,中孟农排8台区【纯农排变】,东孟农排7台区【纯农排变】,中孟综合1台区,西孟农排1台区【纯农排变】,中孟农排14台区【纯农排变】,中孟尝农排13台区【纯农排变】,中孟面粉厂,东孟农排1台区【纯农排变】,中孟农排9台区【纯农排变】,西孟综合3台区,","scope":"【影响街道/乡镇】鲍墟乡、南庄镇【高危重要客户】无【影响客户】西孟尝村、中孟尝村、东孟尝村、","startTime":"2020-03-17 19:23:00","stopDate":"2020-03-17 23:00:00","orgNo":"1340616","typeCode":"电网故障停限电","poweroffArea":"【全线路停电】停南陈农排1台区【纯农排变】,西孟农排4台区【纯农排变】,中孟农排9台区【纯农排变】,中孟尝综合7台区,东孟综合1台区,中孟农排1台区【纯农排变】,中孟农排4台区【纯农排变】,中孟综合1台区,东孟综合3台区,永兴庄农排4台区【纯农排变】,中孟尝综合8台区,东孟尝综合5台区,西孟尝农排8台区【纯农排变】,西孟农排5台区【纯农排变】,东孟农排4台区【纯农排变】,西孟农排2台区【纯农排变】,中孟农排10台区【纯农排变】,中孟尝小学,中孟尝农排13台区【纯农排变】,东孟农排2台区【纯农排变】,西孟农排1台区【纯农排变】,西孟农排7台区【纯农排变】,中孟综合5台区,中孟农排11台区【纯农排变】,东孟尝综合4台区,西孟综合4台区,中国移动通信河北有限公司蠡县分公司变压器,西孟综合3台区,东孟农排3台区【纯农排变】,联通,中孟农排5台区【纯农排变】,中孟综合4台区,中孟综合3台区,西孟农排6台区【纯农排变】,西孟综合6台区,东孟农排7台区【纯农排变】,永兴庄农排1台区【纯农排变】,中孟面粉厂,东孟农排1台区【纯农排变】,中孟农排12台区【纯农排变】,东孟综合2台区,中孟农排14台区【纯农排变】,种子站,中孟农排3台区【纯农排变】,西孟农排3台区【纯农排变】,西孟综合5台区,东孟农排6台区【纯农排变】,中孟综合6台区,东孟农排5台区【纯农排变】,中孟综合2台区,中孟尝综合9台区,中孟农排2台区【纯农排变】,中孟农排7台区【纯农排变】,永兴庄农排2台区【纯农排变】,中孟农排6台区【纯农排变】,中孟农排8台区【纯农排变】,西孟综合1台区,西孟综合2台区","poweroffReason":"【停电原因】由于站外开关掉闸导致１１０ＫＶ南庄变电站１０ＫＶ三孟尝５６７线路全线停电【变更送电】无【发布渠道】通过９５５９８发布","powerTime":"2020-03-17 22:44:45","powerComm":"已送电","subsNo":"","lineNo":"","tgNo":"","tgName":null,"infoStatus":"1","orgName":"国网蠡县供电公司","typeName":null,"infoStatusName":null,"dateDay":null,"orgNos":null,"nowTime":null,"countyName":null,"streetName":null,"villageName":null,"roadName":null,"communityName":null,"tranName":null,"sdLineName":null,"cityCode":"1340616","cityName":"国网蠡县供电公司","provinceCode":null,"stopTime":"2020-03-17 23:00:00","powerType":"全部","powerOffArea":"【全线路停电】停南陈农排1台区【纯农排变】,西孟农排4台区【纯农排变】,中孟农排9台区【纯农排变】,中孟尝综合7台区,东孟综合1台区,中孟农排1台区【纯农排变】,中孟农排4台区【纯农排变】,中孟综合1台区,东孟综合3台区,永兴庄农排4台区【纯农排变】,中孟尝综合8台区,东孟尝综合5台区,西孟尝农排8台区【纯农排变】,西孟农排5台区【纯农排变】,东孟农排4台区【纯农排变】,西孟农排2台区【纯农排变】,中孟农排10台区【纯农排变】,中孟尝小学,中孟尝农排13台区【纯农排变】,东孟农排2台区【纯农排变】,西孟农排1台区【纯农排变】,西孟农排7台区【纯农排变】,中孟综合5台区,中孟农排11台区【纯农排变】,东孟尝综合4台区,西孟综合4台区,中国移动通信河北有限公司蠡县分公司变压器,西孟综合3台区,东孟农排3台区【纯农排变】,联通,中孟农排5台区【纯农排变】,中孟综合4台区,中孟综合3台区,西孟农排6台区【纯农排变】,西孟综合6台区,东孟农排7台区【纯农排变】,永兴庄农排1台区【纯农排变】,中孟面粉厂,东孟农排1台区【纯农排变】,中孟农排12台区【纯农排变】,东孟综合2台区,中孟农排14台区【纯农排变】,种子站,中孟农排3台区【纯农排变】,西孟农排3台区【纯农排变】,西孟综合5台区,东孟农排6台区【纯农排变】,中孟综合6台区,东孟农排5台区【纯农排变】,中孟综合2台区,中孟尝综合9台区,中孟农排2台区【纯农排变】,中孟农排7台区【纯农排变】,永兴庄农排2台区【纯农排变】,中孟农排6台区【纯农排变】,中孟农排8台区【纯农排变】,西孟综合1台区,西孟综合2台区","powerOffReason":"【停电原因】由于站外开关掉闸导致１１０ＫＶ南庄变电站１０ＫＶ三孟尝５６７线路全线停电【变更送电】无【发布渠道】通过９５５９８发布","powerOffId":"2020031713000198"},{"poweroffId":2020031713000163,"sgpoweroffId":null,"subsName":"","lineName":"十里铺线513","pubTranName":"田东混用变压器,曲桥变压器,郝庄北变压器,武家村变压器,田西南变压器,田西北变压器,田东南变压器,十里铺中变压器,东马营李庄,田西排灌变压器,前孟变压器,大屯南变压器,宇航织带变压器,十里铺北变压器,曲桥南变压器,大屯北地变压器【纯农排变】,田西混用柱上变压器,梁庄南变压器,大屯内变压器,大王庄东变压器,田东北变压器,后孟西变压器,武家村南变压器,大王庄西变压器,田宜屯东村变压器,大屯西地变压器,梁庄变压器,朱庄东变压器,郝庄变压器,十里铺公变,十里铺东变压器,田西中变压器,大王庄新架变压器,前孟东变压器,田东东变压器,曲桥东变压器,大屯村东变压器,东马营李庄西变压器,朱庄西变压器,李庄东变压器,后孟变压器,曲辛庄西变压器,胡街地西变压器【纯农排变】,十里铺西变压器,保定营排灌变压器,客户投资_曲辛庄变压器,东马营小陈庄,大王庄北变压器,","scope":"【影响街道/乡镇】新城镇、东马营镇 【高危重要客户】无 【影响客户】良庄村、大屯村、武家村、朱庄村、十里铺村、曲桥村、曲辛庄村、前孟村、后孟村、小陈庄村、李庄村、大王庄村、郝庄村、田宜屯东村、田宜屯西村、大屯垃圾场、大屯小学、河北艾莫森通用机场、水办处、大屯扬水机站、平建军搅拌站、宇建尚砼、东马营村、马文武箱包加工厂、大屯煤场、东马营镇春顺养猪场、十里铺收费站、硕康食品调料有限公司、诚真海绵纸厂、保定德意隆箱包制造有限公司、王海彬、恒海压铸厂、孙凤田、中国移动高碑店分公司郝庄基站","startTime":"2020-03-17 16:39:48","stopDate":"2020-03-17 19:00:00","orgNo":"1340612","typeCode":"电网故障停限电","poweroffArea":"【全线路停电】停郝庄北变压器,大屯排灌8变压器,曲辛庄地北变压器【纯农排变】,曲桥排灌3变压器【纯农排变】,孙凤田变压器,线庄排灌变压器【纯农排变】,高碑店市东马营马文武箱包加工厂变压器,曲桥排灌2变压器【纯农排变】,朱庄地东变压器【纯农排变】,平建军搅拌站变压器,大屯排灌变压器,梁庄南变压器,大屯内变压器,十里铺中变压器,平泽华面粉厂,大屯垃圾场,高碑店市水利局变压器,郭街砖厂2,大王庄地北变压器【纯农排变】,十里铺排灌3变压器【纯农排变】,中国移动通信集体河北有限公司高碑店分公司,田西排灌变压器,前孟变压器,李庄南变压器,大屯西南地（磁卡）变压器,朱庄排灌1变压器【纯农排变】,田东南变压器,丰元庄排灌变压器,田东排灌1变压器【纯农排变】,曲桥变压器,武家村排灌变压器【纯农排变】,永固水泥制品变压器,大王庄东变压器,田东北变压器,后孟西变压器,武家村南变压器,许立强变压器,东马营李庄,高碑店市栎荧餐厨废弃物回收有限公司,大王庄地南变压器【纯农排变】,高碑店市丰民农业服务农民专业合作社变压器,田东东变压器,十里铺地中变压器,十里铺西地1变压器【纯农排变】,郭街北排灌变压器【纯农排变】,大屯南排灌变压器【纯农排变】,大屯南变压器,大王庄北变压器,张秀生,孙建华变压器,朱庄变压器,大王庄西变压器,前孟东变压器,大屯南地,曲桥东变压器,保定德意隆箱包制造有限公司,田东地南2变压器【纯农排变】,大屯村东变压器,大屯东排灌变压器【纯农排变】,朱庄西变压器,高碑店市东马营春顺养猪场,后孟浇地,高碑店市东马营诚真海绵纸厂变压器,河北艾莫森通用航空有限公司,武家村南排灌变压器【纯农排变】,李庄东变压器,保定锐麒金属制品有限公司,武家村变压器,田西北变压器,梁庄西地变压器【纯农排变】,大屯北变压器,宇航织带变压器,王海彬变压器,变压器,郭街砖厂,田西地北变压器【纯农排变】,曲辛庄地南变压器【纯农排变】,河北永固水泥制品有限公司高碑店分公司,十里铺北变压器,田东混用变压器,郝庄排灌变压器【纯农排变】,十里铺公变,曲辛庄西变压器,保定营排灌变压器,客户投资_曲辛庄变压器,朱庄东变压器,十里铺东变压器,田西中变压器,十里铺南变压器,大屯北地变压器【纯农排变】,田东排灌2变压器【纯农排变】,徐建变压器,田宜屯东村变压器,大屯西地变压器,王宾,梁庄变压器,郝庄变压器,朱庄排灌2变压器【纯农排变】,郝庄地变压器【纯农排变】,李庄排灌1变压器【纯农排变】,东马营李庄西变压器,大屯面,李庄果园变压器【纯农排变】,田西南变压器,田东地南1变压器【纯农排变】,曲桥地变压器,高碑店市鑫树山建材销售处变压器,大王庄新架变压器,曲桥南变压器,十里铺西地2变压器【纯农排变】,西张庄地变压器【纯农排变】,收费站,田西地南变压器【纯农排变】,田东地北变压器【纯农排变】,高碑店市东马营恒海压铸厂,高碑店市新城镇大屯中心小学,保定铭信商砼有限公司,李庄排灌2变压器【纯农排变】,高碑店市铭信建筑材料销售有限公司,梁庄东地2变压器【纯农排变】,后孟变压器,梁庄东地1变压器【纯农排变】,胡街地西变压器【纯农排变】,十里铺排灌5变压器【纯农排变】,十里铺西变压器,十里铺地东变压器【纯农排变】,东五地北变压器【纯农排变】,东马营小陈庄,曲桥排灌1变压器【纯农排变】,十里铺排灌4变压器【纯农排变】,高碑店市水利局河防办事处,田西混用柱上变压器,高碑店市宏明远土地整理工程有限公司变压器","poweroffReason":"【停电原因】由于田西北分支有吊车装卸货物碰到高压线导致１１０ＫＶ太平庄变电站１０ＫＶ十里铺５１３线路全线停电 【变更送电】因抢修进度加快原因，送电时间由２２：００变更为１９：００ 【发布渠道】通过９５５９８发布","powerTime":"2020-03-17 18:18:36","powerComm":"已送电","subsNo":"","lineNo":"","tgNo":"","tgName":null,"infoStatus":"1","orgName":"国网高碑店市供电公司","typeName":null,"infoStatusName":null,"dateDay":null,"orgNos":null,"nowTime":null,"countyName":null,"streetName":null,"villageName":null,"roadName":null,"communityName":null,"tranName":null,"sdLineName":null,"cityCode":"1340612","cityName":"国网高碑店市供电公司","provinceCode":null,"stopTime":"2020-03-17 19:00:00","powerType":"全部","powerOffArea":"【全线路停电】停郝庄北变压器,大屯排灌8变压器,曲辛庄地北变压器【纯农排变】,曲桥排灌3变压器【纯农排变】,孙凤田变压器,线庄排灌变压器【纯农排变】,高碑店市东马营马文武箱包加工厂变压器,曲桥排灌2变压器【纯农排变】,朱庄地东变压器【纯农排变】,平建军搅拌站变压器,大屯排灌变压器,梁庄南变压器,大屯内变压器,十里铺中变压器,平泽华面粉厂,大屯垃圾场,高碑店市水利局变压器,郭街砖厂2,大王庄地北变压器【纯农排变】,十里铺排灌3变压器【纯农排变】,中国移动通信集体河北有限公司高碑店分公司,田西排灌变压器,前孟变压器,李庄南变压器,大屯西南地（磁卡）变压器,朱庄排灌1变压器【纯农排变】,田东南变压器,丰元庄排灌变压器,田东排灌1变压器【纯农排变】,曲桥变压器,武家村排灌变压器【纯农排变】,永固水泥制品变压器,大王庄东变压器,田东北变压器,后孟西变压器,武家村南变压器,许立强变压器,东马营李庄,高碑店市栎荧餐厨废弃物回收有限公司,大王庄地南变压器【纯农排变】,高碑店市丰民农业服务农民专业合作社变压器,田东东变压器,十里铺地中变压器,十里铺西地1变压器【纯农排变】,郭街北排灌变压器【纯农排变】,大屯南排灌变压器【纯农排变】,大屯南变压器,大王庄北变压器,张秀生,孙建华变压器,朱庄变压器,大王庄西变压器,前孟东变压器,大屯南地,曲桥东变压器,保定德意隆箱包制造有限公司,田东地南2变压器【纯农排变】,大屯村东变压器,大屯东排灌变压器【纯农排变】,朱庄西变压器,高碑店市东马营春顺养猪场,后孟浇地,高碑店市东马营诚真海绵纸厂变压器,河北艾莫森通用航空有限公司,武家村南排灌变压器【纯农排变】,李庄东变压器,保定锐麒金属制品有限公司,武家村变压器,田西北变压器,梁庄西地变压器【纯农排变】,大屯北变压器,宇航织带变压器,王海彬变压器,变压器,郭街砖厂,田西地北变压器【纯农排变】,曲辛庄地南变压器【纯农排变】,河北永固水泥制品有限公司高碑店分公司,十里铺北变压器,田东混用变压器,郝庄排灌变压器【纯农排变】,十里铺公变,曲辛庄西变压器,保定营排灌变压器,客户投资_曲辛庄变压器,朱庄东变压器,十里铺东变压器,田西中变压器,十里铺南变压器,大屯北地变压器【纯农排变】,田东排灌2变压器【纯农排变】,徐建变压器,田宜屯东村变压器,大屯西地变压器,王宾,梁庄变压器,郝庄变压器,朱庄排灌2变压器【纯农排变】,郝庄地变压器【纯农排变】,李庄排灌1变压器【纯农排变】,东马营李庄西变压器,大屯面,李庄果园变压器【纯农排变】,田西南变压器,田东地南1变压器【纯农排变】,曲桥地变压器,高碑店市鑫树山建材销售处变压器,大王庄新架变压器,曲桥南变压器,十里铺西地2变压器【纯农排变】,西张庄地变压器【纯农排变】,收费站,田西地南变压器【纯农排变】,田东地北变压器【纯农排变】,高碑店市东马营恒海压铸厂,高碑店市新城镇大屯中心小学,保定铭信商砼有限公司,李庄排灌2变压器【纯农排变】,高碑店市铭信建筑材料销售有限公司,梁庄东地2变压器【纯农排变】,后孟变压器,梁庄东地1变压器【纯农排变】,胡街地西变压器【纯农排变】,十里铺排灌5变压器【纯农排变】,十里铺西变压器,十里铺地东变压器【纯农排变】,东五地北变压器【纯农排变】,东马营小陈庄,曲桥排灌1变压器【纯农排变】,十里铺排灌4变压器【纯农排变】,高碑店市水利局河防办事处,田西混用柱上变压器,高碑店市宏明远土地整理工程有限公司变压器","powerOffReason":"【停电原因】由于田西北分支有吊车装卸货物碰到高压线导致１１０ＫＶ太平庄变电站１０ＫＶ十里铺５１３线路全线停电 【变更送电】因抢修进度加快原因，送电时间由２２：００变更为１９：００ 【发布渠道】通过９５５９８发布","powerOffId":"2020031713000163"}],"pageModel":{"pageNow":264,"totalCount":10973,"totalPage":1098,"tableRows":0,"pageCount":10,"beginCount":2630},"isExperi":"1"}