{"message":"","today":"2020-06-15","seleList":[{"poweroffId":2020031713000155,"sgpoweroffId":null,"subsName":"","lineName":"天边561","pubTranName":"新小朱庄光7,大朱庄光3,新西黄河光1,小朱庄光3,天边光7【灾后重建】,李各庄光4,新小朱庄光5,李各庄光2,新小朱庄光8,小朱庄村西公用（养猪场),李各庄光7,西黄河光5,天宫寺光11,新李各庄光6【2018年重过载】,新小朱庄光6,天边光1,新小朱庄光1,天边光2,小朱庄光1,老军屯光1,天边排5【纯农排变】,新西黄河光2,老军屯光2,天边光4,小朱庄供电所,老军屯排3,新老军屯光4,李各庄光3,新小朱庄光12,新小朱庄光13,新小朱庄光9,天边光6,新小朱庄光3,西黄河养鸡场公用,北张庄综合,新小朱庄光2,新西黄河光3,新西黄河光4,新小朱庄光4,小朱庄光7,","scope":"【影响街道/乡镇】小朱庄乡 【高危重要客户】无 【影响客户】大朱庄、小朱庄、老君屯、李各庄、天边、西黄河、宏星面粉厂、海明铜制品加工厂、兴盛水泥构件厂、洪良保温建材加工厂、小朱庄幼儿园、祥润恒泰、凝聚新型建材、小朱庄供电所、洪刚拔丝厂、起航肉鸡孵化厂","startTime":"2020-03-17 16:24:10","stopDate":"2020-03-17 18:30:00","orgNo":"1340609","typeCode":"电网故障停限电","poweroffArea":"【全线路停电】停小朱庄排2【纯农排变】,大朱庄光1,老军屯排2【纯农排变】,大朱庄水泥板厂—200,李各庄光5,新西黄河光4,新小朱庄光1,天边光2,小朱庄光1,老军屯光1,0011688792*宏星面粉厂,0011688806小朱庄村委会,新西黄河光2,天边排1【纯农排变】,老军屯光2,小朱庄排3【纯农排变】,西黄河排1【纯农排变】,大朱庄光4,定兴县洪刚拔丝厂,天边光3,新小朱庄光5,李各庄光7,西黄河光5,新李各庄光6【2018年重过载】,天边光4,大朱庄光2,天边排5【纯农排变】,0011688787*起航肉鸡孵化厂,0011688783李各庄加工厂,天边排3【纯农排变】,小朱庄供电所,新小朱庄光3,西黄河养鸡场公用,瑞峰环卫-200,洪刚拔丝厂250配变,小朱庄排6【纯农排变】,北张庄综合,新小朱庄光2,250,天边排4【纯农排变】,新西黄河光3,大朱庄排4【纯农排变】,新小朱庄光12,新小朱庄光13,天边光5,新小朱庄光9,大朱庄村委会-250,大朱庄排5【纯农排变】,0011688803*大朱庄小学,李各庄排2【纯农排变】,老军屯光3,李各庄光3,小朱庄村西公用（养猪场),小朱庄排5【纯农排变】,新小朱庄光6,李各庄光1,老军屯排3,新老军屯光4,新小朱庄光4,老军屯排1【纯农排变】,大朱庄排2【纯农排变】,西黄河排2【纯农排变】,天边排2【纯农排变】,李各庄光2,*宏星面粉厂,高速东引线5号变-100,新小朱庄光8,小朱庄光7,天边光1,大朱庄排1【纯农排变】,0655071383-定兴县海明铜制品加工厂-专变-183764988-海明铜制品-250,天边光6,李各庄排1【纯农排变】,李各庄光4,大朱庄小学-400,天宫寺光11,小朱庄排4【纯农排变】,新小朱庄光7,大朱庄光3,洪良保温建材加工厂-250,大朱庄排3【纯农排变】,西黄河排3【纯农排变】,新西黄河光1,小朱庄排1【纯农排变】,100,小朱庄幼儿园,祥润恒泰,小朱庄光3,凝聚新型建材-315,天边光7【灾后重建】","poweroffReason":"【停电原因】由于小朱庄排５分支４号杆支瓶杆断裂导致１１０ＫＶ小朱庄变电站天边线５６１线路全线停电 【变更送电】因抢修进度加快原因，送电时间由２１：００变更为１８：３０ 【发布渠道】通过９５５９８发布","powerTime":"2020-03-17 18:12:55","powerComm":"已送电","subsNo":"","lineNo":"","tgNo":"","tgName":null,"infoStatus":"1","orgName":"国网定兴县供电公司","typeName":null,"infoStatusName":null,"dateDay":null,"orgNos":null,"nowTime":null,"countyName":null,"streetName":null,"villageName":null,"roadName":null,"communityName":null,"tranName":null,"sdLineName":null,"cityCode":"1340609","cityName":"国网定兴县供电公司","provinceCode":null,"stopTime":"2020-03-17 18:30:00","powerType":"全部","powerOffArea":"【全线路停电】停小朱庄排2【纯农排变】,大朱庄光1,老军屯排2【纯农排变】,大朱庄水泥板厂—200,李各庄光5,新西黄河光4,新小朱庄光1,天边光2,小朱庄光1,老军屯光1,0011688792*宏星面粉厂,0011688806小朱庄村委会,新西黄河光2,天边排1【纯农排变】,老军屯光2,小朱庄排3【纯农排变】,西黄河排1【纯农排变】,大朱庄光4,定兴县洪刚拔丝厂,天边光3,新小朱庄光5,李各庄光7,西黄河光5,新李各庄光6【2018年重过载】,天边光4,大朱庄光2,天边排5【纯农排变】,0011688787*起航肉鸡孵化厂,0011688783李各庄加工厂,天边排3【纯农排变】,小朱庄供电所,新小朱庄光3,西黄河养鸡场公用,瑞峰环卫-200,洪刚拔丝厂250配变,小朱庄排6【纯农排变】,北张庄综合,新小朱庄光2,250,天边排4【纯农排变】,新西黄河光3,大朱庄排4【纯农排变】,新小朱庄光12,新小朱庄光13,天边光5,新小朱庄光9,大朱庄村委会-250,大朱庄排5【纯农排变】,0011688803*大朱庄小学,李各庄排2【纯农排变】,老军屯光3,李各庄光3,小朱庄村西公用（养猪场),小朱庄排5【纯农排变】,新小朱庄光6,李各庄光1,老军屯排3,新老军屯光4,新小朱庄光4,老军屯排1【纯农排变】,大朱庄排2【纯农排变】,西黄河排2【纯农排变】,天边排2【纯农排变】,李各庄光2,*宏星面粉厂,高速东引线5号变-100,新小朱庄光8,小朱庄光7,天边光1,大朱庄排1【纯农排变】,0655071383-定兴县海明铜制品加工厂-专变-183764988-海明铜制品-250,天边光6,李各庄排1【纯农排变】,李各庄光4,大朱庄小学-400,天宫寺光11,小朱庄排4【纯农排变】,新小朱庄光7,大朱庄光3,洪良保温建材加工厂-250,大朱庄排3【纯农排变】,西黄河排3【纯农排变】,新西黄河光1,小朱庄排1【纯农排变】,100,小朱庄幼儿园,祥润恒泰,小朱庄光3,凝聚新型建材-315,天边光7【灾后重建】","powerOffReason":"【停电原因】由于小朱庄排５分支４号杆支瓶杆断裂导致１１０ＫＶ小朱庄变电站天边线５６１线路全线停电 【变更送电】因抢修进度加快原因，送电时间由２１：００变更为１８：３０ 【发布渠道】通过９５５９８发布","powerOffId":"2020031713000155"},{"poweroffId":2020031713000121,"sgpoweroffId":null,"subsName":"","lineName":"10KV明义514","pubTranName":"南桥头村内3变压器,南桥头村南三台区,丁家洼村北1变压器,西明义村西变压器,三沟子村西北变压器,南北庄村东三台区,台头村东2变压器,南桥头村内变压器,丁家洼村南变压器,西明义村北变压器,南桥头村西2变压器,南桥头村内2变压器,西明义村北2变压器,台头村南1变压器,西明义村内变压器,抬头村西南2台区变压器,西明义村南2台区,二十里铺村南变压器,南桥头村东2变压器,西明义村内3台区变压器,南桥头村南变压器,南桥头村西变压器,西明义村内2台区变压器,南桥头村西3台区变压器,南桥头村东3台区变压器,南桥头村南2变压器,","scope":"【影响街道/乡镇】明义镇、永阳镇 【高危重要客户】无 【影响客户】西明义村、西官庄村、南北庄村、丁家洼村、三沟子村、南桥头村、樊家台村、台头村、二十里铺村","startTime":"2020-03-17 14:07:28","stopDate":"2020-03-17 16:00:00","orgNo":"1340614","typeCode":"电网故障停限电","poweroffArea":"【全线路停电】停南桥头村南变压器,丁家洼村南变压器,西明义村北变压器,南桥头村西2变压器,南桥头村内2变压器,西明义村北2变压器,台头村南1变压器,西明义村内变压器,抬头村西南2台区变压器,西明义村南2台区,二十里铺村南变压器,南桥头村东2变压器,西明义村内3台区变压器,南桥头村内变压器,南桥头村西变压器,西明义村内2台区变压器,南桥头村西3台区变压器,南桥头村东3台区变压器,南桥头村南2变压器,南北庄村东三台区,南桥头村内3变压器,南桥头村南三台区,丁家洼村北1变压器,西明义村西变压器,三沟子村西北变压器,台头村东2变压器","poweroffReason":"【停电原因】由于过流跳闸导致３５ＫＶ明义变电站１０ＫＶ明义５１４线路全线停电 【变更送电】因抢修进度加快原因，送电时间由１８：００变更为１６：００ 【发布渠道】通过９５５９８发布","powerTime":"2020-03-17 15:45:18","powerComm":"已送电","subsNo":"","lineNo":"","tgNo":"","tgName":null,"infoStatus":"1","orgName":"国网涞水县供电公司","typeName":null,"infoStatusName":null,"dateDay":null,"orgNos":null,"nowTime":null,"countyName":null,"streetName":null,"villageName":null,"roadName":null,"communityName":null,"tranName":null,"sdLineName":null,"cityCode":"1340614","cityName":"国网涞水县供电公司","provinceCode":null,"stopTime":"2020-03-17 16:00:00","powerType":"全部","powerOffArea":"【全线路停电】停南桥头村南变压器,丁家洼村南变压器,西明义村北变压器,南桥头村西2变压器,南桥头村内2变压器,西明义村北2变压器,台头村南1变压器,西明义村内变压器,抬头村西南2台区变压器,西明义村南2台区,二十里铺村南变压器,南桥头村东2变压器,西明义村内3台区变压器,南桥头村内变压器,南桥头村西变压器,西明义村内2台区变压器,南桥头村西3台区变压器,南桥头村东3台区变压器,南桥头村南2变压器,南北庄村东三台区,南桥头村内3变压器,南桥头村南三台区,丁家洼村北1变压器,西明义村西变压器,三沟子村西北变压器,台头村东2变压器","powerOffReason":"【停电原因】由于过流跳闸导致３５ＫＶ明义变电站１０ＫＶ明义５１４线路全线停电 【变更送电】因抢修进度加快原因，送电时间由１８：００变更为１６：００ 【发布渠道】通过９５５９８发布","powerOffId":"2020031713000121"},{"poweroffId":2020031713000117,"sgpoweroffId":null,"subsName":"","lineName":"10kV513赵庄线","pubTranName":"西夫农排8台区变压器【纯农排变】,西夫综合13台区变压器,西夫综合8台区变压器,西夫综合14台区变压器,西夫综合6台区变压器,西夫农排4台区变压器【纯农排变】,西夫综合5台区变压器,","scope":"【影响街道/乡镇】留史镇【高危重要客户】无【影响客户】西五夫村（西伍夫村），赵庄村，贾町村","startTime":"2020-03-17 13:37:00","stopDate":"2020-03-17 18:30:00","orgNo":"1340616","typeCode":"电网故障停限电","poweroffArea":"【分支停电】停西夫综合8台区变压器,西夫农排4台区变压器，西夫综合13台区变压器，西夫农排5台区变压器，西夫农排3台区变压器，西夫农排4台区变压器，西夫农排6台区变压器西夫农排5台区变压器，西夫农排6台区变压器，西夫农排7台区变压器，西夫农排8台区变压器，赵庄农排8台区变压器，赵庄农排5台区变压器，贾町综合3台区变压器,贾町综合4台区变压器,贾町综合2台区变压器","poweroffReason":"【停电原因】由于线路接地导致１１０ＫＶ留史变电站１０ＫＶ赵庄５１３线路０６５１支线１３０号杆至１８５号杆以下线路停电【变更送电】因工作量大的原因，送电时间由１７：００变更为１８：３０【发布渠道】通过９５５９８发布","powerTime":"2020-03-17 18:00:24","powerComm":"已送电","subsNo":"","lineNo":"","tgNo":"","tgName":null,"infoStatus":"1","orgName":"国网蠡县供电公司","typeName":null,"infoStatusName":null,"dateDay":null,"orgNos":null,"nowTime":null,"countyName":null,"streetName":null,"villageName":null,"roadName":null,"communityName":null,"tranName":null,"sdLineName":null,"cityCode":"1340616","cityName":"国网蠡县供电公司","provinceCode":null,"stopTime":"2020-03-17 18:30:00","powerType":"全部","powerOffArea":"【分支停电】停西夫综合8台区变压器,西夫农排4台区变压器，西夫综合13台区变压器，西夫农排5台区变压器，西夫农排3台区变压器，西夫农排4台区变压器，西夫农排6台区变压器西夫农排5台区变压器，西夫农排6台区变压器，西夫农排7台区变压器，西夫农排8台区变压器，赵庄农排8台区变压器，赵庄农排5台区变压器，贾町综合3台区变压器,贾町综合4台区变压器,贾町综合2台区变压器","powerOffReason":"【停电原因】由于线路接地导致１１０ＫＶ留史变电站１０ＫＶ赵庄５１３线路０６５１支线１３０号杆至１８５号杆以下线路停电【变更送电】因工作量大的原因，送电时间由１７：００变更为１８：３０【发布渠道】通过９５５９８发布","powerOffId":"2020031713000117"},{"poweroffId":2020031713000105,"sgpoweroffId":null,"subsName":"","lineName":"10kV白团线515","pubTranName":"白团东街小学变压器,白团东街内7,1白团中街内1,1北白团内3,胡杨庄教学点变压器,客户投资_1白团南街内1,1白团乡政府,2白团南街外3【纯农排变】,2胡杨庄外2【纯农排变】,2白团中街外3【纯农排变】,1白团东街内4,2胡杨庄外3【纯农排变】,2白团北街外3【纯农排变】,1白团南街内2,白团南街内3柱上变压器,2白团南街外5【纯农排变】,2白团南街外2【纯农排变】,1白团东街内5,2白团东街外1【纯农排变】,1胡杨庄内2,2北白团外1【纯农排变】,2北白团外6【纯农排变】,2北白团外3【纯农排变】,2白团东街外3【纯农排变】,2白团中街外2【纯农排变】,2白团南街外4【纯农排变】,2胡杨庄外6【纯农排变】,1白团北街内10,1北位村内1,白团中学变压器2,白团北街外19【纯农排变】,1白团北街内9,2白团北街外4【纯农排变】,1胡杨庄内1新,2北白团外8【纯农排变】,2北白团外5【纯农排变】,1北白团内1,1北白团内2,1白团中街内2,客户投资_1白团东街内8,2北白团外4【纯农排变】,2胡杨庄外4【纯农排变】,白团中学变压器1,1白团东街内2,2白团北街外8【纯农排变】,","scope":"【影响街道/乡镇】白团乡 【高危重要客户】无 【影响客户】北白团村、北位村、胡杨庄、白团东街村、白团中街村、白团南街村、白团乡政府、白团北街村","startTime":"2020-03-17 12:35:35","stopDate":"2020-03-17 15:30:00","orgNo":"1340618","typeCode":"电网故障停限电","poweroffArea":"【全线路停电】停2白团东街外15【纯农排变】,白团东街小学变压器,2白团北街外14【纯农排变】,白团东街外2【纯农排变】,2白团北街外12【纯农排变】,白团东街内7,1白团中街内1,北白团路南面粉厂,1北白团内3,白团北街外6【纯农排变】,2白团北街外9【纯农排变】,北魏村村西,胡杨庄教学点变压器,客户投资_1白团南街内1,北魏村北,1白团乡政府,2白团南街外3【纯农排变】,2胡杨庄外2【纯农排变】,0387504232-东街砖厂北-专变-45324059-东街砖厂北,2白团中街外3【纯农排变】,2白团北街外5【纯农排变】,1白团东街内4,2胡杨庄外3【纯农排变】,2白团北街外3【纯农排变】,1白团南街内2,白团南街内3柱上变压器,2白团南街外5【纯农排变】,2白团南街外2【纯农排变】,1白团东街内5,2白团北街外11【纯农排变】,2白团东街外1【纯农排变】,1胡杨庄内2,2北白团外1【纯农排变】,2北白团外6【纯农排变】,2北白团外3【纯农排变】,2白团东街外3【纯农排变】,白团养猪场,2白团中街外2【纯农排变】,2白团南街外4【纯农排变】,2胡杨庄外6【纯农排变】,1白团北街内10,1北位村内1,白团中学变压器2,2白团北街外10【纯农排变】,白团北街外19【纯农排变】,清苑县城西煤炭供应处,2白团北街外4【纯农排变】,1胡杨庄内1新,2北白团外8【纯农排变】,2白团北街外7【纯农排变】,保定亿晟农业科技有限公司,2北白团外5【纯农排变】,北位村东,1北白团内1,2白团北街外15【纯农排变】,1北白团内2,1白团中街内2,客户投资_1白团东街内8,2北白团外7【纯农排变】,2北白团外4【纯农排变】,北位村北,2胡杨庄外4【纯农排变】,白团中学变压器1,北位村,2白团北街外13【纯农排变】,1白团东街内2,2白团北街外8【纯农排变】,1白团北街内9","poweroffReason":"【停电原因】由于主干６４号杆西Ｔ２号杆晨轩纺织有限公司１０ＫＶ线搭低压杆导致３５ＫＶ白团变电站１０ＫＶ白团线５１５线路全线停电 【变更送电】因抢修进度加快原因，送电时间由１７：００变更为１５：３０ 【发布渠道】通过９５５９８发布","powerTime":"2020-03-17 15:09:04","powerComm":"王艳云通知已送电","subsNo":"","lineNo":"","tgNo":"","tgName":null,"infoStatus":"1","orgName":"国网清苑县供电公司","typeName":null,"infoStatusName":null,"dateDay":null,"orgNos":null,"nowTime":null,"countyName":null,"streetName":null,"villageName":null,"roadName":null,"communityName":null,"tranName":null,"sdLineName":null,"cityCode":"1340618","cityName":"国网清苑县供电公司","provinceCode":null,"stopTime":"2020-03-17 15:30:00","powerType":"全部","powerOffArea":"【全线路停电】停2白团东街外15【纯农排变】,白团东街小学变压器,2白团北街外14【纯农排变】,白团东街外2【纯农排变】,2白团北街外12【纯农排变】,白团东街内7,1白团中街内1,北白团路南面粉厂,1北白团内3,白团北街外6【纯农排变】,2白团北街外9【纯农排变】,北魏村村西,胡杨庄教学点变压器,客户投资_1白团南街内1,北魏村北,1白团乡政府,2白团南街外3【纯农排变】,2胡杨庄外2【纯农排变】,0387504232-东街砖厂北-专变-45324059-东街砖厂北,2白团中街外3【纯农排变】,2白团北街外5【纯农排变】,1白团东街内4,2胡杨庄外3【纯农排变】,2白团北街外3【纯农排变】,1白团南街内2,白团南街内3柱上变压器,2白团南街外5【纯农排变】,2白团南街外2【纯农排变】,1白团东街内5,2白团北街外11【纯农排变】,2白团东街外1【纯农排变】,1胡杨庄内2,2北白团外1【纯农排变】,2北白团外6【纯农排变】,2北白团外3【纯农排变】,2白团东街外3【纯农排变】,白团养猪场,2白团中街外2【纯农排变】,2白团南街外4【纯农排变】,2胡杨庄外6【纯农排变】,1白团北街内10,1北位村内1,白团中学变压器2,2白团北街外10【纯农排变】,白团北街外19【纯农排变】,清苑县城西煤炭供应处,2白团北街外4【纯农排变】,1胡杨庄内1新,2北白团外8【纯农排变】,2白团北街外7【纯农排变】,保定亿晟农业科技有限公司,2北白团外5【纯农排变】,北位村东,1北白团内1,2白团北街外15【纯农排变】,1北白团内2,1白团中街内2,客户投资_1白团东街内8,2北白团外7【纯农排变】,2北白团外4【纯农排变】,北位村北,2胡杨庄外4【纯农排变】,白团中学变压器1,北位村,2白团北街外13【纯农排变】,1白团东街内2,2白团北街外8【纯农排变】,1白团北街内9","powerOffReason":"【停电原因】由于主干６４号杆西Ｔ２号杆晨轩纺织有限公司１０ＫＶ线搭低压杆导致３５ＫＶ白团变电站１０ＫＶ白团线５１５线路全线停电 【变更送电】因抢修进度加快原因，送电时间由１７：００变更为１５：３０ 【发布渠道】通过９５５９８发布","powerOffId":"2020031713000105"},{"poweroffId":2020031713000091,"sgpoweroffId":null,"subsName":"","lineName":"协议线512","pubTranName":"协议于庄（统管）,协议何家沟（统管）,协议于庄2号（统管）,孟新民,石井西山下2号【纯农排变】,杨树坟,0387471934-石保定市满城县井河沿-专变-45299166-石井河沿,石井青山峪【纯农排变】,协议村西井（农网）,0387470058-保定市满城县石井西山-专变-45299234-石井西山,协议十八亩地（统管）,联营石渣厂新增1号200,协议险下（统管）,0387468631-保定市满城县石井北沟井-专变-45299235-石井北沟井,0583144405-保定晟晔包装有限公司-专变-124847389-保定晟晔包装有限公司,永安庄村民委员会,协议石光板（统管）,东于河建材,李兵养殖厂变压器,永安庄第二采石厂,联营石渣厂新增2号1000,王永涛,0387471905-刘春福-专变-45299276-石井刘春辅井,聚润建材厂1000,协议一队（统管）,协议学校,协议六队（统管）,吉明纸箱厂,石井大桥新增（统管）,石井种羊基地,协议大庄（统管）,永安庄小王左井,0387471598-保定市满城北沟果园井-专变-45299598-北沟果园井,协议大队井【纯农排变】,保定市满城县永胜畜牧养殖有限公司,红星肠衣厂,万顺达养殖场,王新民加油站,石井桃园,聚润建材厂,保定市满城区秀兰文化园1000,协议东沟（统管）,石井永昌纸箱厂,","scope":"【影响街道/乡镇】石井乡 【高危重要客户】无 【影响客户】协议、石井","startTime":"2020-03-26 07:00:00","stopDate":"2020-03-26 12:30:00","orgNo":"1340617","typeCode":"计划停电","poweroffArea":"【全线路停电】停万顺达养殖场,聚润建材厂1000,李兵养殖厂变压器,永安庄小王左井,0387471934-石保定市满城县井河沿-专变-45299166-石井河沿,石井永昌纸箱厂,保定市满城县永胜畜牧养殖有限公司,聚润建材厂,杨树坟,石井种羊基地,石井大桥新增（统管）,王新民加油站,孟新民,联营石渣厂新增2号1000,石井桃园,保定市满城区秀兰文化园1000,协议大庄（统管）,永安庄第二采石厂,0387468631-保定市满城县石井北沟井-专变-45299235-石井北沟井,0387470058-保定市满城县石井西山-专变-45299234-石井西山,协议险下（统管）,协议一队（统管）,0583144405-保定晟晔包装有限公司-专变-124847389-保定晟晔包装有限公司,东于河建材,协议六队（统管）,协议于庄2号（统管）,协议何家沟（统管）,石井青山峪【纯农排变】,石井西山下2号【纯农排变】,王永涛,联营石渣厂新增1号200,红星肠衣厂,吉明纸箱厂,永安庄村民委员会,协议石光板（统管）,0387471905-刘春福-专变-45299276-石井刘春辅井,协议于庄（统管）,协议学校,协议东沟（统管）,协议大队井【纯农排变】,协议村西井（农网）,协议十八亩地（统管）,0387471598-保定市满城北沟果园井-专变-45299598-北沟果园井","poweroffReason":"【停电原因】由于线路检修导致３５ＫＶ石井变电站协议线５１２线路全线停电 【变更送电】因抢修进度加快原因，送电时间由１８：００更为:１２：３０ 【发布渠道】满城电视台（３月１７日１９：００－２０：００至３月２５日１９：００－２０：００之间）屏幕上方滚动。","powerTime":"2020-03-26 12:07:19","powerComm":"已送电","subsNo":"","lineNo":"","tgNo":"","tgName":null,"infoStatus":"1","orgName":"国网满城县供电公司","typeName":null,"infoStatusName":null,"dateDay":null,"orgNos":null,"nowTime":null,"countyName":null,"streetName":null,"villageName":null,"roadName":null,"communityName":null,"tranName":null,"sdLineName":null,"cityCode":"1340617","cityName":"国网满城县供电公司","provinceCode":null,"stopTime":"2020-03-26 12:30:00","powerType":"全部","powerOffArea":"【全线路停电】停万顺达养殖场,聚润建材厂1000,李兵养殖厂变压器,永安庄小王左井,0387471934-石保定市满城县井河沿-专变-45299166-石井河沿,石井永昌纸箱厂,保定市满城县永胜畜牧养殖有限公司,聚润建材厂,杨树坟,石井种羊基地,石井大桥新增（统管）,王新民加油站,孟新民,联营石渣厂新增2号1000,石井桃园,保定市满城区秀兰文化园1000,协议大庄（统管）,永安庄第二采石厂,0387468631-保定市满城县石井北沟井-专变-45299235-石井北沟井,0387470058-保定市满城县石井西山-专变-45299234-石井西山,协议险下（统管）,协议一队（统管）,0583144405-保定晟晔包装有限公司-专变-124847389-保定晟晔包装有限公司,东于河建材,协议六队（统管）,协议于庄2号（统管）,协议何家沟（统管）,石井青山峪【纯农排变】,石井西山下2号【纯农排变】,王永涛,联营石渣厂新增1号200,红星肠衣厂,吉明纸箱厂,永安庄村民委员会,协议石光板（统管）,0387471905-刘春福-专变-45299276-石井刘春辅井,协议于庄（统管）,协议学校,协议东沟（统管）,协议大队井【纯农排变】,协议村西井（农网）,协议十八亩地（统管）,0387471598-保定市满城北沟果园井-专变-45299598-北沟果园井","powerOffReason":"【停电原因】由于线路检修导致３５ＫＶ石井变电站协议线５１２线路全线停电 【变更送电】因抢修进度加快原因，送电时间由１８：００更为:１２：３０ 【发布渠道】满城电视台（３月１７日１９：００－２０：００至３月２５日１９：００－２０：００之间）屏幕上方滚动。","powerOffId":"2020031713000091"},{"poweroffId":2020031713000088,"sgpoweroffId":null,"subsName":"","lineName":"石井东线511","pubTranName":"西于河村西石渣厂2号,张永兴养殖厂,石井南门新增（统管）,石井梯子蹬,0544841914-满城县石井三利建材厂-专变-47707483-西于河石渣厂,新华灰厂,石井东沟打井,石井东沟里,石井村西新增（统管）,秀兰山庄,西于河村西石渣厂1号,满城县石井庆国加油站,石井分水岭井,秀兰山庄630KVA配变,石井剧场（统管）,李兵石渣厂新增1号,石井村内（统管）,石井医院（统管）,石井河北井,保定市满城县石井果园井,石井中学村照明（统管）,石井吴家坟井,石井村西山井【纯农排变】,李兵石渣厂继伟1号,保定市满城东于河胜利灰粉厂,石井大桥（统管）,西于河村西石渣厂3号,石井江峪,杨家峪山根【纯农排变】,石井中学,玉林包装有限公司,任洪坡果园,0465840278-满城县李兵建材厂-专变-126517752-李兵建材厂800KVA配变,吉明纸厂,三利纸箱厂,永安庄旱井,石井村东,满城县佳乐包装有限公司,满城县起田畜牧饲养有限公司,葛红臣果园,满城县德成核桃种植园,石井西园（统管）,金水湾加油站,0546258675-满城县石井三利建材厂-专变-47843738-西于河村西石渣厂1号,满城县国强果业专业合作社,石井南门（统管）,鑫鑫纸箱厂,顺兴石渣厂400KVA变压器,石井村内2号（统管）,石井乡政府,李兵石渣厂继伟2号,石井分水岭（统管）,","scope":"【影响街道/乡镇】石井乡 【高危重要客户】无 【影响客户】石井村","startTime":"2020-03-26 07:00:00","stopDate":"2020-03-26 10:00:00","orgNo":"1340617","typeCode":"计划停电","poweroffArea":"【全线路停电】停0544841914-满城县石井三利建材厂-专变-47707483-西于河石渣厂,0546258675-满城县石井三利建材厂-专变-47843738-西于河村西石渣厂1号,石井西园（统管）,石井分水岭（统管）,秀兰山庄630KVA配变,顺兴石渣厂400KVA变压器,石井乡政府,满城县起田畜牧饲养有限公司,任洪坡果园,石井江峪,保定市满城东于河胜利灰粉厂,石井医院（统管）,满城县国强果业专业合作社,石井村西山井【纯农排变】,吉明纸厂,满城县佳乐包装有限公司,满城县德成核桃种植园,李兵石渣厂继伟1号,西于河村西石渣厂2号,石井东沟打井,石井大桥（统管）,西于河村西石渣厂1号,石井梯子蹬,李兵石渣厂继伟2号,0465840278-满城县李兵建材厂-专变-126517752-李兵建材厂800KVA配变,葛红臣果园,石井剧场（统管）,玉林包装有限公司,石井河北井,石井村东,石井东沟里,金水湾加油站,石井中学,石井村内2号（统管）,石井南门（统管）,石井分水岭井,满城县石井庆国加油站,李兵石渣厂新增1号,石井南门新增（统管）,西于河村西石渣厂3号,三利纸箱厂,永安庄旱井,保定市满城县石井果园井,新华灰厂,鑫鑫纸箱厂,石井村内（统管）,石井吴家坟井,张永兴养殖厂,石井村西新增（统管）,秀兰山庄,杨家峪山根【纯农排变】,石井中学村照明（统管）","poweroffReason":"【停电原因】由于线路检修导致３５ＫＶ石井变电站石井东线５１１线路全线停电 【变更送电】因抢修进度加快原因，送电时间由１８：００变更为:１０：００ 【发布渠道】满城县有线电视台（３月１７日１９：００－２０：００至３月２５日１９：００－２０：００）屏幕上方滚动","powerTime":"2020-03-26 09:32:16","powerComm":"已送电","subsNo":"","lineNo":"","tgNo":"","tgName":null,"infoStatus":"1","orgName":"国网满城县供电公司","typeName":null,"infoStatusName":null,"dateDay":null,"orgNos":null,"nowTime":null,"countyName":null,"streetName":null,"villageName":null,"roadName":null,"communityName":null,"tranName":null,"sdLineName":null,"cityCode":"1340617","cityName":"国网满城县供电公司","provinceCode":null,"stopTime":"2020-03-26 10:00:00","powerType":"全部","powerOffArea":"【全线路停电】停0544841914-满城县石井三利建材厂-专变-47707483-西于河石渣厂,0546258675-满城县石井三利建材厂-专变-47843738-西于河村西石渣厂1号,石井西园（统管）,石井分水岭（统管）,秀兰山庄630KVA配变,顺兴石渣厂400KVA变压器,石井乡政府,满城县起田畜牧饲养有限公司,任洪坡果园,石井江峪,保定市满城东于河胜利灰粉厂,石井医院（统管）,满城县国强果业专业合作社,石井村西山井【纯农排变】,吉明纸厂,满城县佳乐包装有限公司,满城县德成核桃种植园,李兵石渣厂继伟1号,西于河村西石渣厂2号,石井东沟打井,石井大桥（统管）,西于河村西石渣厂1号,石井梯子蹬,李兵石渣厂继伟2号,0465840278-满城县李兵建材厂-专变-126517752-李兵建材厂800KVA配变,葛红臣果园,石井剧场（统管）,玉林包装有限公司,石井河北井,石井村东,石井东沟里,金水湾加油站,石井中学,石井村内2号（统管）,石井南门（统管）,石井分水岭井,满城县石井庆国加油站,李兵石渣厂新增1号,石井南门新增（统管）,西于河村西石渣厂3号,三利纸箱厂,永安庄旱井,保定市满城县石井果园井,新华灰厂,鑫鑫纸箱厂,石井村内（统管）,石井吴家坟井,张永兴养殖厂,石井村西新增（统管）,秀兰山庄,杨家峪山根【纯农排变】,石井中学村照明（统管）","powerOffReason":"【停电原因】由于线路检修导致３５ＫＶ石井变电站石井东线５１１线路全线停电 【变更送电】因抢修进度加快原因，送电时间由１８：００变更为:１０：００ 【发布渠道】满城县有线电视台（３月１７日１９：００－２０：００至３月２５日１９：００－２０：００）屏幕上方滚动","powerOffId":"2020031713000088"},{"poweroffId":2020031713000087,"sgpoweroffId":null,"subsName":"","lineName":"苏疃线515","pubTranName":"麻辛庄混1,白岳混4,固现混合12号,固现混合4号,小苏疃混合配变,固现混合10号,固现混合11号,固现混合3号,固现混7,固现混合8号,常早村东混合4号,固现内东混合5号,固现混合9号,固现混2,固现内西混6,固现混1,","scope":"【影响街道/乡镇】寺庄乡 【高危重要客户】无　　 【影响客户】小苏疃村、白岳村、常早村、固现村、麻辛庄","startTime":"2020-03-17 11:01:03","stopDate":"2020-03-17 15:00:00","orgNo":"1340623","typeCode":"电网故障停限电","poweroffArea":"【全线路停电】停麻辛庄混1,白岳混4,固现混合12号,固现混合4号,小苏疃混合配变,固现混合10号,固现混合11号,固现混合3号,固现混7,固现混合8号,常早村东混合4号,固现内东混合5号,固现混合9号,固现混2,固现内西混6,固现混1","poweroffReason":"【停电原因】由于Ａ相接地导致３５ＫＶ白岳变电站苏疃线５１５线路全线停电 【变更送电】因抢修进度加快原因，送电时间由１８：００变更为１５：００ 【发布渠道】通过９５５９８发布","powerTime":"2020-03-17 14:19:38","powerComm":"已送电","subsNo":"","lineNo":"","tgNo":"","tgName":null,"infoStatus":"1","orgName":"国网望都县供电公司","typeName":null,"infoStatusName":null,"dateDay":null,"orgNos":null,"nowTime":null,"countyName":null,"streetName":null,"villageName":null,"roadName":null,"communityName":null,"tranName":null,"sdLineName":null,"cityCode":"1340623","cityName":"国网望都县供电公司","provinceCode":null,"stopTime":"2020-03-17 15:00:00","powerType":"全部","powerOffArea":"【全线路停电】停麻辛庄混1,白岳混4,固现混合12号,固现混合4号,小苏疃混合配变,固现混合10号,固现混合11号,固现混合3号,固现混7,固现混合8号,常早村东混合4号,固现内东混合5号,固现混合9号,固现混2,固现内西混6,固现混1","powerOffReason":"【停电原因】由于Ａ相接地导致３５ＫＶ白岳变电站苏疃线５１５线路全线停电 【变更送电】因抢修进度加快原因，送电时间由１８：００变更为１５：００ 【发布渠道】通过９５５９８发布","powerOffId":"2020031713000087"},{"poweroffId":2020031713000033,"sgpoweroffId":null,"subsName":"","lineName":"10kV李麻营线514","pubTranName":"顿豆夏变压器,良辛庄东变台,马官屯东南变压器,宋渔池西南,胡娄集西南柱上变压器,供电所变压器,肖官营镇政府变压器,尚垡南台变压器,辛龙庄南2变压器,","scope":"【影响街道/乡镇】肖官营乡 【高危重要客户】水利局 【影响客户】顿豆夏村、郭辛庄村、胡娄集村、荒辛庄村、李麻营村、良辛庄村、马官屯村、孟良营村、尚垡村、宋鱼池村、肖官营村、肖官营市场、兴隆庄村、顿书凯、高碑店市辉煌伟业养殖有限公司、顿书军、张勇面粉厂、保定中油第三加油站、卓电强、乡政府、窦风林、河北航行机械铸造有限公司、仁达养殖厂、肖官营中学、高碑店市大广新型建材有限公司、高碑店市看守所、腾达工业、高碑店市公安局治安拘留所、廊坊盛翔道桥工程有限公司、肖官营洛津水泥制品厂、河北禾木田农业发展有限公司、尚垡中心学校","startTime":"2020-03-17 08:56:08","stopDate":"2020-03-17 14:00:00","orgNo":"1340612","typeCode":"电网故障停限电","poweroffArea":"【全线路停电】停国网高碑店市供电公司肖官营供电所变压器,荒辛庄排灌三变压器【纯农排变】,宋鱼池排灌五变压器【纯农排变】,兴隆庄西南变压器,宋鱼池排灌二变压器【纯农排变】,肖官营东变压器,宋渔池西南,尚垡东南变压器,胡娄集排6柱上变压器,胡娄集排灌五变压器【纯农排变】,兴隆庄排灌变压器【纯农排变】,高碑店市广大新型建材有限公司变压器,李麻营变压器,荒辛庄东变压器,郭辛庄排灌一变压器【纯农排变】,顿书凯,尚垡排灌四变压器【纯农排变】,窦风林,孟良营西南,胡娄集排灌三变压器【纯农排变】,肖官营排4柱上变压器,马官屯排灌二变压器【纯农排变】,吴恒,尚垡排灌一变压器,胡娄集南变压器,郭辛庄西台变压器,马官屯排灌一变压器【纯农排变】,孟良营中变压器,顿豆夏北变压器,胡娄集排灌一变压器【纯农排变】,尚垡东北变压器,河北航行机械铸造有限公司西#1,尚垡排灌二变压器【纯农排变】,顿豆夏排灌一变压器【纯农排变】,顿豆夏排灌三变压器【纯农排变】,孟良营南台变压器,胡娄集东台变压器,肖官营排5柱上变压器,孟良营排灌二变压器【纯农排变】,李麻营排灌三变压器【纯农排变】,胡娄集西南柱上变压器,李麻营东台变压器,供电所变压器,兴隆庄北变压器,顿豆夏排灌二变压器【纯农排变】,尚垡西南变压器,马官屯东台变压器,肖官营排灌二变压器【纯农排变】,肖官营镇政府变压器,胡娄集西台变压器,李麻营排灌一变压器【纯农排变】,顿书军,良辛庄变压器,张勇面粉厂,尚垡排灌五变压器【纯农排变】,肖官营市场变压器,高碑店市腾达工业有限责任公司变压器,尚垡排灌三变压器【纯农排变】,尚垡南台变压器,0387439051-高碑店市仁达养殖有限责任公司-专变-45275636-王长春,辛龙庄南2变压器,李麻营排灌二变压器【纯农排变】,孟良营排灌一变压器【纯农排变】,变压器,高碑店市水利局受电点变压器,石料厂,高碑店市国有军粮供应有限公司,尚垡西台变压器,宋鱼池排灌三变压器【纯农排变】,高碑店市肖官营洛津水泥制品厂,荒辛庄变压器,孟良营北台变压器,宋鱼池东南变压器,卓电强,宋鱼池西变压器,荒辛庄排灌二变压器【纯农排变】,肖官营砖厂（北）,河北航行机械铸造有限公司西#2,荒辛庄排灌一变压器【纯农排变】,吴辉,河北禾木田农业发展有限公司,顿豆夏变压器,马官屯西台变压器,良辛庄东变台,李麻营西台变压器,宋鱼池东北台变压器,郭辛庄排灌二变压器【纯农排变】,高碑店市肖官营乡肖官营中学,高碑店市肖官营乡尚垡中心学校变压器,良辛庄排灌变压器【纯农排变】,马官屯南台变压器,高碑店市肖官营乡胡娄集幼儿园,高碑店市公安局变压器,胡娄集排灌二变压器【纯农排变】,兴隆庄南变压器,郭辛庄变压器,马官屯东南变压器,高碑店市肖官营乡兴隆庄中心小学,胡娄集排灌四变压器【纯农排变】","poweroffReason":"【停电原因】由于开关跳闸导致３５ＫＶ方官变电站１０ＫＶ李麻营５１４线路全线停电 【变更送电】无 【发布渠道】通过９５５９８发布","powerTime":"2020-03-17 13:17:09","powerComm":"已送电","subsNo":"","lineNo":"","tgNo":"","tgName":null,"infoStatus":"1","orgName":"国网高碑店市供电公司","typeName":null,"infoStatusName":null,"dateDay":null,"orgNos":null,"nowTime":null,"countyName":null,"streetName":null,"villageName":null,"roadName":null,"communityName":null,"tranName":null,"sdLineName":null,"cityCode":"1340612","cityName":"国网高碑店市供电公司","provinceCode":null,"stopTime":"2020-03-17 14:00:00","powerType":"全部","powerOffArea":"【全线路停电】停国网高碑店市供电公司肖官营供电所变压器,荒辛庄排灌三变压器【纯农排变】,宋鱼池排灌五变压器【纯农排变】,兴隆庄西南变压器,宋鱼池排灌二变压器【纯农排变】,肖官营东变压器,宋渔池西南,尚垡东南变压器,胡娄集排6柱上变压器,胡娄集排灌五变压器【纯农排变】,兴隆庄排灌变压器【纯农排变】,高碑店市广大新型建材有限公司变压器,李麻营变压器,荒辛庄东变压器,郭辛庄排灌一变压器【纯农排变】,顿书凯,尚垡排灌四变压器【纯农排变】,窦风林,孟良营西南,胡娄集排灌三变压器【纯农排变】,肖官营排4柱上变压器,马官屯排灌二变压器【纯农排变】,吴恒,尚垡排灌一变压器,胡娄集南变压器,郭辛庄西台变压器,马官屯排灌一变压器【纯农排变】,孟良营中变压器,顿豆夏北变压器,胡娄集排灌一变压器【纯农排变】,尚垡东北变压器,河北航行机械铸造有限公司西#1,尚垡排灌二变压器【纯农排变】,顿豆夏排灌一变压器【纯农排变】,顿豆夏排灌三变压器【纯农排变】,孟良营南台变压器,胡娄集东台变压器,肖官营排5柱上变压器,孟良营排灌二变压器【纯农排变】,李麻营排灌三变压器【纯农排变】,胡娄集西南柱上变压器,李麻营东台变压器,供电所变压器,兴隆庄北变压器,顿豆夏排灌二变压器【纯农排变】,尚垡西南变压器,马官屯东台变压器,肖官营排灌二变压器【纯农排变】,肖官营镇政府变压器,胡娄集西台变压器,李麻营排灌一变压器【纯农排变】,顿书军,良辛庄变压器,张勇面粉厂,尚垡排灌五变压器【纯农排变】,肖官营市场变压器,高碑店市腾达工业有限责任公司变压器,尚垡排灌三变压器【纯农排变】,尚垡南台变压器,0387439051-高碑店市仁达养殖有限责任公司-专变-45275636-王长春,辛龙庄南2变压器,李麻营排灌二变压器【纯农排变】,孟良营排灌一变压器【纯农排变】,变压器,高碑店市水利局受电点变压器,石料厂,高碑店市国有军粮供应有限公司,尚垡西台变压器,宋鱼池排灌三变压器【纯农排变】,高碑店市肖官营洛津水泥制品厂,荒辛庄变压器,孟良营北台变压器,宋鱼池东南变压器,卓电强,宋鱼池西变压器,荒辛庄排灌二变压器【纯农排变】,肖官营砖厂（北）,河北航行机械铸造有限公司西#2,荒辛庄排灌一变压器【纯农排变】,吴辉,河北禾木田农业发展有限公司,顿豆夏变压器,马官屯西台变压器,良辛庄东变台,李麻营西台变压器,宋鱼池东北台变压器,郭辛庄排灌二变压器【纯农排变】,高碑店市肖官营乡肖官营中学,高碑店市肖官营乡尚垡中心学校变压器,良辛庄排灌变压器【纯农排变】,马官屯南台变压器,高碑店市肖官营乡胡娄集幼儿园,高碑店市公安局变压器,胡娄集排灌二变压器【纯农排变】,兴隆庄南变压器,郭辛庄变压器,马官屯东南变压器,高碑店市肖官营乡兴隆庄中心小学,胡娄集排灌四变压器【纯农排变】","powerOffReason":"【停电原因】由于开关跳闸导致３５ＫＶ方官变电站１０ＫＶ李麻营５１４线路全线停电 【变更送电】无 【发布渠道】通过９５５９８发布","powerOffId":"2020031713000033"},{"poweroffId":2020031713000020,"sgpoweroffId":null,"subsName":"","lineName":"白沙线514","pubTranName":"客户投资_田辛庄村南土地整治变压器7937,田家庄2506变压器,西白尧南混8022台区,白沙村0689变压器【纯农排变】,白沙村内6546变压器,白沙村0700变压器,西白尧小学变压器7921,白沙村东6545变压器,田家庄砖厂水2561变压器【纯农排变】,安里686变压器,田家庄3122变压器【纯农排变】,客户投资_白沙村2164变压器【纯农排变】,白沙卫生院变压器7920,白沙中学变压器7929,白沙小学变压器7927,西白尧西混8023台区,田家庄3112变压器,客户投资_白沙村0648变压器【纯农排变】,田家庄0683变压器,田家庄0641变压器,白沙新增7902,屯村2158变压器【纯农排变】,白沙8278台区,白沙村0679变压器,田家庄小学变压器7930,白沙西混4742变压器,西白尧0312变压器,白沙村南新增2变压器7901,客户投资_白沙村2165变压器【纯农排变】,白沙村校南混3109变压器,西白尧3110变压器,新安里南水3108变压器【纯农排变】,田家庄4779变压器【纯农排变】,田家庄新增混用,田辛庄自来水变压器7938,田家庄北新增3426变压器,白沙村西水新增7912,白沙村0680变压器,田辛庄2159变压器【纯农排变】,白沙村0702变压器,","scope":"【影响街道/乡镇】长古城乡【高危重要客户】无【影响客户】岗北村、小白尧村、新安里村、田辛庄村、西白尧村、白沙村、田家庄、东屯村","startTime":"2020-03-26 07:00:00","stopDate":"2020-03-26 15:00:00","orgNo":"1340622","typeCode":"计划停电","poweroffArea":"【全线路停电】停田辛庄自来水变压器7938,白沙村0679变压器,唐县高秋合水泥砖厂3306,河北妙泰雕塑工艺品销售有限公司XZ7765,小塑料厂0703,田家庄小学变压器7930,白沙西混4742变压器,西白尧0312变压器,移民塑料布厂,白沙村0700变压器,西白尧0313变压器,唐县学龙雕塑工艺品制造有限公司7764,田辛庄2157变压器,白沙村3608变压器,唐县永亮黄粉虫养殖场XZ7726,田家庄2178变压器,白沙村南新增2变压器7901,安里686变压器,长古城乡西白尧村农业灌溉10KV配变,唐县亚轩雕塑工艺品销售有限公司,唐县兴林商贸有限公司,唐县永飞雕塑工艺品销售有限公司受电点P7386,客户投资_白沙村0693变压器,田家庄北新增3426变压器,白沙村西水新增7912,白沙村0680变压器,唐县东辉黄粉虫养殖场,白沙中学变压器7929,唐县玉邦畜禽饲养有限公司,西白尧3110变压器,唐县凯达雕塑工艺品制造有限公司6100,河北轩龙雕塑工艺品销售有限公司10KV配变,田家庄0658变压器,唐县鑫淼黄粉虫养殖场10KV配变,田家庄新增混用,客户投资_田辛庄村南土地整治变压器7937,唐县艺都雕塑工艺品制造有限公司计量点,田家庄铸造有限公司2728,唐县龙彪工艺品销售有限公司7730,唐县宏达泡花碱有限责任公司0675,河北垚隆牧业有限责任公司计量点,天津凯尔维斯国际贸易有限公司10KV配变,田家庄2506变压器,唐县东升工艺品厂10KV配变,白沙村2162变压器,唐县农昌畜禽养殖服务农民专业合作社,白沙村2784变压器,西白尧南混8022台区,0585588665-唐县玉彪铝塑门窗厂-专变-125075312-唐县玉彪铝塑门窗厂10KV新建,河北旭升铜雕工艺品销售有限公司,唐县恒鑫工艺品厂10KV配变,唐县瑞林肉食品加工有限公司5131,唐县昊泰雕塑工艺品制造有限公司5296,白沙卫生院变压器7920,客户投资_白沙村2981变压器,河北千丰雕塑工艺品制造有限公司10KV配变,西白尧小学变压器7921,白沙村校南混3109变压器,白沙宏伟线头棉加工厂2265,西白尧西混8023台区,田家庄3112变压器,客户投资_岗北村2630变压器,客户投资_宏升砖厂3389,唐县兴林商贸有限公司10KV配变,客户投资_岗北村2629变压器,田家庄0683变压器,田家庄0641变压器,白沙新增7902,白沙村东6545变压器,唐县祥卫雕塑工艺品销售有限公司,白沙小学变压器7927,白沙村内6546变压器,白沙村0702变压器,唐县兴茹机械加工厂10KV配变,白沙8278台区,南岗北砖厂2643","poweroffReason":"【停电原因】由于线路检修导致３５ＫＶ北罗变电站白沙线５１４线路全线停电【变更送电】因工作进度加快原因，送电时间由１８：００变更为１５：００【发布渠道】保定市唐县电视台（０３月１７日至０３月２５日的２０：００时至２０：３０时之间）屏幕上方滚动字幕","powerTime":"2020-03-26 14:35:25","powerComm":"已送电","subsNo":"","lineNo":"","tgNo":"","tgName":null,"infoStatus":"1","orgName":"国网唐县供电公司","typeName":null,"infoStatusName":null,"dateDay":null,"orgNos":null,"nowTime":null,"countyName":null,"streetName":null,"villageName":null,"roadName":null,"communityName":null,"tranName":null,"sdLineName":null,"cityCode":"1340622","cityName":"国网唐县供电公司","provinceCode":null,"stopTime":"2020-03-26 15:00:00","powerType":"全部","powerOffArea":"【全线路停电】停田辛庄自来水变压器7938,白沙村0679变压器,唐县高秋合水泥砖厂3306,河北妙泰雕塑工艺品销售有限公司XZ7765,小塑料厂0703,田家庄小学变压器7930,白沙西混4742变压器,西白尧0312变压器,移民塑料布厂,白沙村0700变压器,西白尧0313变压器,唐县学龙雕塑工艺品制造有限公司7764,田辛庄2157变压器,白沙村3608变压器,唐县永亮黄粉虫养殖场XZ7726,田家庄2178变压器,白沙村南新增2变压器7901,安里686变压器,长古城乡西白尧村农业灌溉10KV配变,唐县亚轩雕塑工艺品销售有限公司,唐县兴林商贸有限公司,唐县永飞雕塑工艺品销售有限公司受电点P7386,客户投资_白沙村0693变压器,田家庄北新增3426变压器,白沙村西水新增7912,白沙村0680变压器,唐县东辉黄粉虫养殖场,白沙中学变压器7929,唐县玉邦畜禽饲养有限公司,西白尧3110变压器,唐县凯达雕塑工艺品制造有限公司6100,河北轩龙雕塑工艺品销售有限公司10KV配变,田家庄0658变压器,唐县鑫淼黄粉虫养殖场10KV配变,田家庄新增混用,客户投资_田辛庄村南土地整治变压器7937,唐县艺都雕塑工艺品制造有限公司计量点,田家庄铸造有限公司2728,唐县龙彪工艺品销售有限公司7730,唐县宏达泡花碱有限责任公司0675,河北垚隆牧业有限责任公司计量点,天津凯尔维斯国际贸易有限公司10KV配变,田家庄2506变压器,唐县东升工艺品厂10KV配变,白沙村2162变压器,唐县农昌畜禽养殖服务农民专业合作社,白沙村2784变压器,西白尧南混8022台区,0585588665-唐县玉彪铝塑门窗厂-专变-125075312-唐县玉彪铝塑门窗厂10KV新建,河北旭升铜雕工艺品销售有限公司,唐县恒鑫工艺品厂10KV配变,唐县瑞林肉食品加工有限公司5131,唐县昊泰雕塑工艺品制造有限公司5296,白沙卫生院变压器7920,客户投资_白沙村2981变压器,河北千丰雕塑工艺品制造有限公司10KV配变,西白尧小学变压器7921,白沙村校南混3109变压器,白沙宏伟线头棉加工厂2265,西白尧西混8023台区,田家庄3112变压器,客户投资_岗北村2630变压器,客户投资_宏升砖厂3389,唐县兴林商贸有限公司10KV配变,客户投资_岗北村2629变压器,田家庄0683变压器,田家庄0641变压器,白沙新增7902,白沙村东6545变压器,唐县祥卫雕塑工艺品销售有限公司,白沙小学变压器7927,白沙村内6546变压器,白沙村0702变压器,唐县兴茹机械加工厂10KV配变,白沙8278台区,南岗北砖厂2643","powerOffReason":"【停电原因】由于线路检修导致３５ＫＶ北罗变电站白沙线５１４线路全线停电【变更送电】因工作进度加快原因，送电时间由１８：００变更为１５：００【发布渠道】保定市唐县电视台（０３月１７日至０３月２５日的２０：００时至２０：３０时之间）屏幕上方滚动字幕","powerOffId":"2020031713000020"},{"poweroffId":2020031613000207,"sgpoweroffId":null,"subsName":"","lineName":"10kV伯章573线","pubTranName":"西伯章小村综合1变压器,西伯章综合7变压器,西伯章综合七变压器,","scope":"【影响街道/乡镇】西伏落乡 【高危重要客户】无 【影响客户】西伯章村","startTime":"2020-03-29 06:00:00","stopDate":"2020-03-29 23:00:00","orgNo":"1340606","typeCode":"计划停电","poweroffArea":"【全线路停电】停西伯章小村综合1变压器,西伯章综合7变压器,西伯章综合七变压器","poweroffReason":"【停电原因】由于更换导线导致１１０ＫＶ孝义变电站１０ＫＶ伯章５７３线路全线停电 【变更送电】因工作未完成原因，送电时间由１８：００变更为２３：００ 【发布渠道】保定市安国电视台（０３月２２日００时至２４时之间）屏幕上方滚动","powerTime":"2020-03-29 22:35:24","powerComm":"已送电","subsNo":"","lineNo":"","tgNo":"","tgName":null,"infoStatus":"1","orgName":"国网安国市供电公司","typeName":null,"infoStatusName":null,"dateDay":null,"orgNos":null,"nowTime":null,"countyName":null,"streetName":null,"villageName":null,"roadName":null,"communityName":null,"tranName":null,"sdLineName":null,"cityCode":"1340606","cityName":"国网安国市供电公司","provinceCode":null,"stopTime":"2020-03-29 23:00:00","powerType":"全部","powerOffArea":"【全线路停电】停西伯章小村综合1变压器,西伯章综合7变压器,西伯章综合七变压器","powerOffReason":"【停电原因】由于更换导线导致１１０ＫＶ孝义变电站１０ＫＶ伯章５７３线路全线停电 【变更送电】因工作未完成原因，送电时间由１８：００变更为２３：００ 【发布渠道】保定市安国电视台（０３月２２日００时至２４时之间）屏幕上方滚动","powerOffId":"2020031613000207"}],"pageModel":{"pageNow":265,"totalCount":10973,"totalPage":1098,"tableRows":0,"pageCount":10,"beginCount":2640},"isExperi":"1"}