{"message":"","today":"2020-06-15","seleList":[{"poweroffId":2020031613000084,"sgpoweroffId":null,"subsName":"","lineName":"谢房营523","pubTranName":"付村10号,付村11号【纯农排变】,付村12号,付村13号,付村14号,付村15号,付村16台区【纯农排变】,付村17号,荣乌高速服务区2号变压器,双营7号,遂城22#高压间隔配电变压器,谢坊10号,谢坊13号,谢坊14号,谢坊15号,谢坊16号,付村1号【纯农排变】,付村2号,付村3号,付村4号【纯农排变】,谢坊17号【纯农排变】,付村5号,付村6号【纯农排变】,谢坊营18号【纯农排变】,谢坊营19号,谢坊营1号【纯农排变】,谢坊营20号【纯农排变】,谢坊营21号,谢坊营22号【纯农排变】,谢坊营23号【纯农排变】,仪器厂小区1号,仪器厂小区2号,谢坊4号【纯农排变】,谢坊5号,谢坊7号,谢坊8号,谢坊营10号,谢坊营24号【纯农排变】,谢坊营25号,谢坊营26号,谢坊营27号,谢坊营28号,谢坊营29号,谢坊营2号,谢坊营30号,谢坊营31号,付村7号【纯农排变】,付村8号【纯农排变】,付村9号【纯农排变】,客户投资_谢坊营34号,荣乌高速服务区1号变压器,谢坊19号【纯农排变】,谢坊20号【纯农排变】,谢坊18号【纯农排变】,谢坊22号,谢坊23号,谢坊24号【纯农排变】,谢坊26号,谢坊27号,谢坊2号,谢坊3号,谢坊营11号【纯农排变】,谢坊营12号【纯农排变】,谢坊营13号【纯农排变】,谢坊营14号【纯农排变】,谢坊营15号【纯农排变】,谢坊营16号【纯农排变】,谢坊营17号【纯农排变】,谢坊营32号,谢坊营33号,谢坊营35号,谢坊营3号,谢坊营4号【纯农排变】,谢坊营5号,谢坊营6号,谢坊营7号【纯农排变】,谢坊营8号【纯农排变】,谢坊营9号,","scope":"【影响街道/乡镇】遂城镇 【高危重要客户】无 【影响客户】谢坊、付村、双营、谢坊营","startTime":"2020-03-29 07:00:00","stopDate":"2020-03-29 18:00:00","orgNo":"1340605","typeCode":"计划停电","poweroffArea":"【全线路停电】停付村10号,付村11号【纯农排变】,付村12号,付村13号,付村14号,付村15号,付村16台区【纯农排变】,付村17号,付村1号【纯农排变】,付村2号,付村3号,付村4号【纯农排变】,付村5号,付村6号【纯农排变】,付村7号【纯农排变】,付村8号【纯农排变】,付村9号【纯农排变】,客户投资_谢坊营34号,荣乌高速服务区1号变压器,荣乌高速服务区2号变压器,双营7号,遂城22#高压间隔配电变压器,谢坊10号,谢坊13号,谢坊14号,谢坊15号,谢坊16号,谢坊17号【纯农排变】,谢坊18号【纯农排变】,谢坊19号【纯农排变】,谢坊20号【纯农排变】,谢坊22号,谢坊23号,谢坊24号【纯农排变】,谢坊26号,谢坊27号,谢坊2号,谢坊3号,谢坊4号【纯农排变】,谢坊5号,谢坊7号,谢坊8号,谢坊营10号,谢坊营11号【纯农排变】,谢坊营12号【纯农排变】,谢坊营13号【纯农排变】,谢坊营14号【纯农排变】,谢坊营15号【纯农排变】,谢坊营16号【纯农排变】,谢坊营17号【纯农排变】,谢坊营18号【纯农排变】,谢坊营19号,谢坊营1号【纯农排变】,谢坊营20号【纯农排变】,谢坊营21号,谢坊营22号【纯农排变】,谢坊营23号【纯农排变】,谢坊营24号【纯农排变】,谢坊营25号,谢坊营26号,谢坊营27号,谢坊营28号,谢坊营29号,谢坊营2号,谢坊营30号,谢坊营31号,谢坊营32号,谢坊营33号,谢坊营35号,谢坊营3号,谢坊营4号【纯农排变】,谢坊营5号,谢坊营6号,谢坊营7号【纯农排变】,谢坊营8号【纯农排变】,谢坊营9号,仪器厂小区1号,仪器厂小区2号","poweroffReason":"【停电原因】由于计划检修导致１１０ＫＶ遂城变电站谢房营５２３线路全线停电 【变更送电】无 【发布渠道】通过河北省保定市徐水电视台游走滚动字幕播放（２０２０年０３月２２日０８:００至０３月２８日２０:００）","powerTime":"2020-03-29 17:57:35","powerComm":"已送电","subsNo":"","lineNo":"","tgNo":"","tgName":null,"infoStatus":"1","orgName":"国网徐水县供电公司","typeName":null,"infoStatusName":null,"dateDay":null,"orgNos":null,"nowTime":null,"countyName":null,"streetName":null,"villageName":null,"roadName":null,"communityName":null,"tranName":null,"sdLineName":null,"cityCode":"1340605","cityName":"国网徐水县供电公司","provinceCode":null,"stopTime":"2020-03-29 18:00:00","powerType":"全部","powerOffArea":"【全线路停电】停付村10号,付村11号【纯农排变】,付村12号,付村13号,付村14号,付村15号,付村16台区【纯农排变】,付村17号,付村1号【纯农排变】,付村2号,付村3号,付村4号【纯农排变】,付村5号,付村6号【纯农排变】,付村7号【纯农排变】,付村8号【纯农排变】,付村9号【纯农排变】,客户投资_谢坊营34号,荣乌高速服务区1号变压器,荣乌高速服务区2号变压器,双营7号,遂城22#高压间隔配电变压器,谢坊10号,谢坊13号,谢坊14号,谢坊15号,谢坊16号,谢坊17号【纯农排变】,谢坊18号【纯农排变】,谢坊19号【纯农排变】,谢坊20号【纯农排变】,谢坊22号,谢坊23号,谢坊24号【纯农排变】,谢坊26号,谢坊27号,谢坊2号,谢坊3号,谢坊4号【纯农排变】,谢坊5号,谢坊7号,谢坊8号,谢坊营10号,谢坊营11号【纯农排变】,谢坊营12号【纯农排变】,谢坊营13号【纯农排变】,谢坊营14号【纯农排变】,谢坊营15号【纯农排变】,谢坊营16号【纯农排变】,谢坊营17号【纯农排变】,谢坊营18号【纯农排变】,谢坊营19号,谢坊营1号【纯农排变】,谢坊营20号【纯农排变】,谢坊营21号,谢坊营22号【纯农排变】,谢坊营23号【纯农排变】,谢坊营24号【纯农排变】,谢坊营25号,谢坊营26号,谢坊营27号,谢坊营28号,谢坊营29号,谢坊营2号,谢坊营30号,谢坊营31号,谢坊营32号,谢坊营33号,谢坊营35号,谢坊营3号,谢坊营4号【纯农排变】,谢坊营5号,谢坊营6号,谢坊营7号【纯农排变】,谢坊营8号【纯农排变】,谢坊营9号,仪器厂小区1号,仪器厂小区2号","powerOffReason":"【停电原因】由于计划检修导致１１０ＫＶ遂城变电站谢房营５２３线路全线停电 【变更送电】无 【发布渠道】通过河北省保定市徐水电视台游走滚动字幕播放（２０２０年０３月２２日０８:００至０３月２８日２０:００）","powerOffId":"2020031613000084"},{"poweroffId":2020031613000079,"sgpoweroffId":null,"subsName":"","lineName":"遂城农业线521","pubTranName":"石桥8号【纯农排变】,东关2号【纯农排变】,东关3号【纯农排变】,东关4号【纯农排变】,东关5号,东关6号,东关7号,石桥9号,东关8号【纯农排变】,遂城14号,巩固庄11号,遂城18号,巩固庄15号,巩固庄2号,遂城24号,客户投资_遂城24号,石桥10号【纯农排变】,石桥1号,石桥2号,石桥3号,石桥4号【纯农排变】,遂城9号【纯农排变】,石桥5号【纯农排变】,石桥6号【纯农排变】,石桥7号,谢坊11号,谢坊12号,谢坊1号,谢坊21号【纯农排变】,谢坊25号,谢坊6号【纯农排变】,谢坊9号【纯农排变】,谢坊营36号,张华村6号【纯农排变】,张华村9号,城北2号【纯农排变】,城北3号【纯农排变】,城北4号【纯农排变】,城北5号,城北7号,城北8号【纯农排变】,城北9号【纯农排变】,城北庄10号,城西8号【纯农排变】,东关1号,城北1号【纯农排变】,","scope":"【影响街道/乡镇】遂城镇 【高危重要客户】无 【影响客户】城北、城西、东关、石桥、遂城、谢坊、城北庄、巩固庄、谢坊营、张华村","startTime":"2020-03-29 07:00:00","stopDate":"2020-03-29 18:00:00","orgNo":"1340605","typeCode":"计划停电","poweroffArea":"【全线路停电】停城北1号【纯农排变】,城北2号【纯农排变】,城北3号【纯农排变】,城北4号【纯农排变】,城北5号,城北7号,城北8号【纯农排变】,城北9号【纯农排变】,城北庄10号,城西8号【纯农排变】,东关1号,东关2号【纯农排变】,东关3号【纯农排变】,东关4号【纯农排变】,东关5号,东关6号,东关7号,东关8号【纯农排变】,巩固庄11号,巩固庄15号,巩固庄2号,客户投资_遂城24号,石桥10号【纯农排变】,石桥1号,石桥2号,石桥3号,石桥4号【纯农排变】,石桥5号【纯农排变】,石桥6号【纯农排变】,石桥7号,石桥8号【纯农排变】,石桥9号,遂城14号,遂城18号,遂城24号,遂城9号【纯农排变】,谢坊11号,谢坊12号,谢坊1号,谢坊21号【纯农排变】,谢坊25号,谢坊6号【纯农排变】,谢坊9号【纯农排变】,谢坊营36号,张华村6号【纯农排变】,张华村9号","poweroffReason":"【停电原因】由于计划检修导致１１０ＫＶ遂城变电站遂城农业线５２１全线停电 【变更送电】无 【发布渠道】通过河北省保定市徐水电视台游走滚动字幕播放（２０２０年０３月２２日０８:００至０３月２８日２０:００）","powerTime":"2020-03-29 17:57:19","powerComm":"已送电","subsNo":"","lineNo":"","tgNo":"","tgName":null,"infoStatus":"1","orgName":"国网徐水县供电公司","typeName":null,"infoStatusName":null,"dateDay":null,"orgNos":null,"nowTime":null,"countyName":null,"streetName":null,"villageName":null,"roadName":null,"communityName":null,"tranName":null,"sdLineName":null,"cityCode":"1340605","cityName":"国网徐水县供电公司","provinceCode":null,"stopTime":"2020-03-29 18:00:00","powerType":"全部","powerOffArea":"【全线路停电】停城北1号【纯农排变】,城北2号【纯农排变】,城北3号【纯农排变】,城北4号【纯农排变】,城北5号,城北7号,城北8号【纯农排变】,城北9号【纯农排变】,城北庄10号,城西8号【纯农排变】,东关1号,东关2号【纯农排变】,东关3号【纯农排变】,东关4号【纯农排变】,东关5号,东关6号,东关7号,东关8号【纯农排变】,巩固庄11号,巩固庄15号,巩固庄2号,客户投资_遂城24号,石桥10号【纯农排变】,石桥1号,石桥2号,石桥3号,石桥4号【纯农排变】,石桥5号【纯农排变】,石桥6号【纯农排变】,石桥7号,石桥8号【纯农排变】,石桥9号,遂城14号,遂城18号,遂城24号,遂城9号【纯农排变】,谢坊11号,谢坊12号,谢坊1号,谢坊21号【纯农排变】,谢坊25号,谢坊6号【纯农排变】,谢坊9号【纯农排变】,谢坊营36号,张华村6号【纯农排变】,张华村9号","powerOffReason":"【停电原因】由于计划检修导致１１０ＫＶ遂城变电站遂城农业线５２１全线停电 【变更送电】无 【发布渠道】通过河北省保定市徐水电视台游走滚动字幕播放（２０２０年０３月２２日０８:００至０３月２８日２０:００）","powerOffId":"2020031613000079"},{"poweroffId":2020031613000027,"sgpoweroffId":null,"subsName":"","lineName":"10KV东方515","pubTranName":"东庄头2148,下坡店村,八家尧南,下坡店村北井【纯农排变】,西皋庄村北2073,计生办(新)柱变【纯农排变】,下坡店2167,八家窑2138,西皋村村北井【纯农排变】,镇安寺小广场,西皋村村东,三义路西口,黎明小区（新）,东庄头2146,西皋村2072,镇安寺南3675,东庄头村东,八家窑新村套地【纯农排变】,东庄头南套地【纯农排变】,西皋庄北2183,党校,镇安寺村东北台区,八家窑2067,东庄头村,东庄头西3275,八家窑3307,东庄头小学,镇安寺2064,","scope":"【影响街道/乡镇】桃园城区 【高危重要客户】无 【影响客户】镇安寺、西皋村、西皋庄、忠义店、下坡店、八家尧、东庄头、党校、黎明小区、晨光小区、计生委、四中","startTime":"2020-03-28 05:00:00","stopDate":"2020-03-28 18:00:00","orgNo":"1340626","typeCode":"计划停电","poweroffArea":"【全线路停电】停东庄头2148,涿州市美城垃圾清运有限公司-变压器2,西皋庄4099【纯农排变】,下坡店村,八家尧南,下坡店村北井【纯农排变】,涿州市宏城铝制品有限公司,西皋庄村北2073,河北永发耐磨拉轮胎制造有限公司,涿州市华福精铸厂,计生办(新)柱变【纯农排变】,涿州市玻璃灯具厂,涿州市机械化施工工程有限公司,下坡店2167,涿州市恒兴新型建材有限公司,涿州市创达实业有限公司,保定涿州市沃嘉德机械加工厂,八家窑2138,西皋村村北井【纯农排变】,镇安寺小广场,西皋村村东,河北省涿州开发区管理委员会,河北永发耐磨拉轮胎制造有限公司2,三义路西口,黎明小区（新）,北京铁路局北京供电段,西皋庄东地,东庄头3971【纯农排变】,第四中学,东庄头4614【纯农排变】,西皋庄北2183,桃园供电所（张飞店村北井）,涿州恒旗建材有限公司,党校,镇安寺村东北台区,东庄头2146,西皋村2072,桃园供电所,镇安寺南3675,涿州市鑫昊汇元集团房地产开发有限公司,晨光小区-变压器2,晨光小区,四中,西皋庄河套【纯农排变】,涿州市京热热力有限责任公司,东庄头村东,涿州市桃园福利煤矿机械配件厂,东庄头南套地【纯农排变】,0387562030-涿州龙泉商贸有限公司-专变-45358092-涿州龙泉商贸有限公司,桃园供电所（镇安寺南井）,养路工区,中国石油天然气股份有限公司河北保定销售分,包子铺村东（东方大酒店）,八家窑3307,0671328074-张立军-专变-212336011-张立军,东庄头小学,涿州市龙腾工业气体经营部桃园区西皋村2,镇安寺2064,八家窑新村套地【纯农排变】,涿州市峻福亨利机动车检测有限公司,涿州市龙腾工业气体经营部桃园区西皋村1,涿州市顺鑫水泥制品厂,西皋庄2058【纯农排变】,涿州市美城垃圾清运有限公司-变压器1,河北航青机械设备有限公司,建筑垃圾处理厂,黄振亭,贾自强塑料加工厂,恒旗搅拌站,八家窑2067,河北保定交通运输集团有限公司涿州汽车站,卢成运输队,东庄头村,东庄头西3275","poweroffReason":"【停电原因】由于线路改造工程导致１１０ＫＶ涿县变电站１０ＫＶ东方５１５线路全线停电 【变更送电】无 【发布渠道】涿州电视台（０３月１６日至０３月２７日２１：００播放２次）屏幕上方滚动","powerTime":"2020-03-28 17:46:25","powerComm":"恢复送电","subsNo":"","lineNo":"","tgNo":"","tgName":null,"infoStatus":"1","orgName":"国网涿州市供电公司","typeName":null,"infoStatusName":null,"dateDay":null,"orgNos":null,"nowTime":null,"countyName":null,"streetName":null,"villageName":null,"roadName":null,"communityName":null,"tranName":null,"sdLineName":null,"cityCode":"1340626","cityName":"国网涿州市供电公司","provinceCode":null,"stopTime":"2020-03-28 18:00:00","powerType":"全部","powerOffArea":"【全线路停电】停东庄头2148,涿州市美城垃圾清运有限公司-变压器2,西皋庄4099【纯农排变】,下坡店村,八家尧南,下坡店村北井【纯农排变】,涿州市宏城铝制品有限公司,西皋庄村北2073,河北永发耐磨拉轮胎制造有限公司,涿州市华福精铸厂,计生办(新)柱变【纯农排变】,涿州市玻璃灯具厂,涿州市机械化施工工程有限公司,下坡店2167,涿州市恒兴新型建材有限公司,涿州市创达实业有限公司,保定涿州市沃嘉德机械加工厂,八家窑2138,西皋村村北井【纯农排变】,镇安寺小广场,西皋村村东,河北省涿州开发区管理委员会,河北永发耐磨拉轮胎制造有限公司2,三义路西口,黎明小区（新）,北京铁路局北京供电段,西皋庄东地,东庄头3971【纯农排变】,第四中学,东庄头4614【纯农排变】,西皋庄北2183,桃园供电所（张飞店村北井）,涿州恒旗建材有限公司,党校,镇安寺村东北台区,东庄头2146,西皋村2072,桃园供电所,镇安寺南3675,涿州市鑫昊汇元集团房地产开发有限公司,晨光小区-变压器2,晨光小区,四中,西皋庄河套【纯农排变】,涿州市京热热力有限责任公司,东庄头村东,涿州市桃园福利煤矿机械配件厂,东庄头南套地【纯农排变】,0387562030-涿州龙泉商贸有限公司-专变-45358092-涿州龙泉商贸有限公司,桃园供电所（镇安寺南井）,养路工区,中国石油天然气股份有限公司河北保定销售分,包子铺村东（东方大酒店）,八家窑3307,0671328074-张立军-专变-212336011-张立军,东庄头小学,涿州市龙腾工业气体经营部桃园区西皋村2,镇安寺2064,八家窑新村套地【纯农排变】,涿州市峻福亨利机动车检测有限公司,涿州市龙腾工业气体经营部桃园区西皋村1,涿州市顺鑫水泥制品厂,西皋庄2058【纯农排变】,涿州市美城垃圾清运有限公司-变压器1,河北航青机械设备有限公司,建筑垃圾处理厂,黄振亭,贾自强塑料加工厂,恒旗搅拌站,八家窑2067,河北保定交通运输集团有限公司涿州汽车站,卢成运输队,东庄头村,东庄头西3275","powerOffReason":"【停电原因】由于线路改造工程导致１１０ＫＶ涿县变电站１０ＫＶ东方５１５线路全线停电 【变更送电】无 【发布渠道】涿州电视台（０３月１６日至０３月２７日２１：００播放２次）屏幕上方滚动","powerOffId":"2020031613000027"},{"poweroffId":2020031613000016,"sgpoweroffId":null,"subsName":"","lineName":"10kV515彭家庄线","pubTranName":"北城村公用照明1台区,楼底公用照明1台区,南城村公用照明1台区,楼底公用照明10台区,楼底公用照明6台区,北城村公用照明2台区,楼底公用照明11台区,楼底公用照明4台区,楼底公用照明8台区,楼底公用照明3台区,楼底公用照明5台区,北城村公用照明5台区,楼底公用照明9台区,楼底公用照明2台区,南城村公用照明2台区,北城村公用照明3台区,楼底公用照明7台区,北城村公用照明4台区,楼底公用照明12台区,","scope":"【影响街道/乡镇】李亲顾镇【高危重要客户】无【影响客户】楼底、南城村、北城村","startTime":"2020-03-16 08:50:00","stopDate":"2020-03-16 10:30:00","orgNo":"1340610","typeCode":"其他临时停电","poweroffArea":"【分支停电】停楼底公用照明11台区,北城村公用照明1台区,楼底公用照明1台区,南城村公用照明1台区,楼底公用照明6台区,北城村公用照明2台区,楼底公用照明5台区,北城村公用照明5台区,楼底公用照明10台区,楼底公用照明4台区,楼底公用照明8台区,楼底公用照明3台区,楼底公用照明12台区,楼底公用照明9台区,楼底公用照明2台区,南城村公用照明2台区,北城村公用照明3台区,楼底公用照明7台区,北城村公用照明4台区","poweroffReason":"【停电原因】由于弓子线打火需停电进行紧急检修导致３５ＫＶ丁村变电站１０ＫＶ５１５彭家庄线路主干１５号杆０１号断路器以下线路停电 【变更送电】因抢修进度加快原因，送电时间由１１：３０变更为１０：３０ 【发布渠道】９５５９８","powerTime":"2020-03-16 09:41:36","powerComm":"已送电","subsNo":"","lineNo":"","tgNo":"","tgName":null,"infoStatus":"1","orgName":"国网定州市供电公司","typeName":null,"infoStatusName":null,"dateDay":null,"orgNos":null,"nowTime":null,"countyName":null,"streetName":null,"villageName":null,"roadName":null,"communityName":null,"tranName":null,"sdLineName":null,"cityCode":"1340610","cityName":"国网定州市供电公司","provinceCode":null,"stopTime":"2020-03-16 10:30:00","powerType":"全部","powerOffArea":"【分支停电】停楼底公用照明11台区,北城村公用照明1台区,楼底公用照明1台区,南城村公用照明1台区,楼底公用照明6台区,北城村公用照明2台区,楼底公用照明5台区,北城村公用照明5台区,楼底公用照明10台区,楼底公用照明4台区,楼底公用照明8台区,楼底公用照明3台区,楼底公用照明12台区,楼底公用照明9台区,楼底公用照明2台区,南城村公用照明2台区,北城村公用照明3台区,楼底公用照明7台区,北城村公用照明4台区","powerOffReason":"【停电原因】由于弓子线打火需停电进行紧急检修导致３５ＫＶ丁村变电站１０ＫＶ５１５彭家庄线路主干１５号杆０１号断路器以下线路停电 【变更送电】因抢修进度加快原因，送电时间由１１：３０变更为１０：３０ 【发布渠道】９５５９８","powerOffId":"2020031613000016"},{"poweroffId":2020031521000077,"sgpoweroffId":null,"subsName":"","lineName":"10kV薛留营站531线路","pubTranName":"C455柱上变压器,","scope":"【影响街道/乡镇】莲池区华电路、韩庄乡 【高危重要客户】无 【影响客户】王庄村","startTime":"2020-03-15 19:56:51","stopDate":"2020-03-15 22:00:00","orgNo":"13406","typeCode":"电网故障停限电","poweroffArea":"【单台区停电】停C455柱上变压器","poweroffReason":"【停电原因】由于低压电缆烧导致１０ＫＶ薛留营变电站５３１线路Ｃ４５５公变台区停电【变更送电】无【发布渠道】通过９５５９８发布","powerTime":"2020-03-15 21:21:48","powerComm":"已送电","subsNo":"","lineNo":"","tgNo":"","tgName":null,"infoStatus":"1","orgName":"保定供电公司","typeName":null,"infoStatusName":null,"dateDay":null,"orgNos":null,"nowTime":null,"countyName":null,"streetName":null,"villageName":null,"roadName":null,"communityName":null,"tranName":null,"sdLineName":null,"cityCode":"13406","cityName":"保定供电公司","provinceCode":null,"stopTime":"2020-03-15 22:00:00","powerType":"全部","powerOffArea":"【单台区停电】停C455柱上变压器","powerOffReason":"【停电原因】由于低压电缆烧导致１０ＫＶ薛留营变电站５３１线路Ｃ４５５公变台区停电【变更送电】无【发布渠道】通过９５５９８发布","powerOffId":"2020031521000077"},{"poweroffId":2020031513000177,"sgpoweroffId":null,"subsName":"","lineName":"营房516","pubTranName":"平安店东变压器,南泽畔中,乔刘凡东北2变压器,南泽畔东北台区,撞河西南变压器,松林新变压器,茶棚店北变压器,高三分支变压器,撞河西北变压器,龚辛庄东台区,龚辛庄北浇变压器【纯农排变】,军城办公变变压器,平安店北二变压器,高一村变压器,","scope":"【影响街道/乡镇】军城办事处、和平办事处、北城办事处 【高危重要客户】无 【影响客户】茶棚店村、龚辛庄村、南泽畔村、平安店村、祁村、乔刘凡村、松林村、撞河村、高三村、高一村、益友工业（北厂）、佳兴工业、包安面粉厂、中安天德机动车检测场、红成模具厂、昌信物业、乾荣地产、利兴综合加工厂、银庭物业、高化工业气体、民悦模具、中国人民解放军９１２９２部队、长盛商砼混凝土、联众机械制造、国有粮食购销储运、三兴装饰材料、中国人民解放军６６３３６部队、浩邦牧业、中国人民解放军６６３３６部队（医院）、高一铁厂、中国人民解放军６６３３６部队（修理连）、达烨铸造加工厂、高碑店市民政事业服务中心、精工液压密封件厂、高碑店明泉铸造厂、高碑店燕桥水泥厂、晨航橡塑制品有限公司、路灯管理办公室、王永彬、保定森泽汽车销售有限公司、自来水公司、职教中心、华宇燃气、跃然文化传媒、乔刘凡二砖二、泰鑫溢润金属、龚辛庄泰兴苗圃场、人民武装部靶场、方家务村（部分）、河北兴达原种猪有限公司、生态园餐厅、军城绿科苗木种植农民专业合作社、同兴农林畜牧有限公司、姬金华、河北万达箱包制品有限公司","startTime":"2020-03-15 22:27:23","stopDate":"2020-03-15 23:30:00","orgNo":"1340612","typeCode":"电网故障停限电","poweroffArea":"【分支停电】停停撞河中变压器,高碑店市军城绿科苗木种植农民专业合作社,兴达猪场,茶棚店北变压器,乔刘凡地南变压器【纯农排变】,乔刘凡地北变压器【纯农排变】,高碑店市三兴装饰材料有限公司变压器,祁村西变压器,撞河村内变压器,河北银庭物业服务有限公司,高碑店市救助管理站变压器,松林村变压器,高碑店市润兴物业服务有限公司2变压器,高碑店市润兴物业服务有限公司1变压器,乔刘凡地变压器【纯农排变】,冷库,民悦模具有限公司,胶合板,姬金华变压器,平安店东变压器,龚辛庄北浇变压器【纯农排变】,高一面粉厂,撞河东浇地变压器【纯农排变】,高碑店市利兴综合加工厂变压器,南泽畔中,祁村东变压器,平安店北二变压器,高一村变压器,乔二砖2,龚辛庄北变压器,乔刘凡乡二砖厂,石家庄乾荣房地产开发有限公司1,燕桥水泥厂,松林新变压器,0664684790-高碑店市泰鑫溢润金属制品有限公司-专变-201043231-高碑店市泰鑫溢润金属制品有限公司,高一西变压器,石家庄乾荣房地产开发有限公司变压器,军城办公变变压器,0585583208-高碑店市路灯管理办公室-专变-125094112-高碑店市路灯管理办公室变压器,石家庄乾荣房地产开发有限公司,氧气厂,变压器,平安店西变压器,杨振林,高三分支变压器,66336锅炉房,撞河西北变压器,高一王建国,河北豆想你食品有限公司,颜国红,石家庄乾荣房地产开发有限公司2,中国人民解放军66336部队变压器,平安店南变压器,高碑店市浩邦牧业有限公司变压器,撞河北变压器,南泽畔东变压器,高碑店市佳兴工业有限公司变压器,方家务浇地,龚辛庄东台区,平安店新变压器,松林地变压器【纯农排变】,平安店地南变压器,自来水北井,高碑店市北城办事处方家务村铁路西变台,高碑店市撞河中韵橡胶制品加工部变压器,撞河南变压器,河北洪豆食品科技有限公司,陈各庄西地1变压器【纯农排变】,平三变压器,龚辛庄南变压器,平安店西北变压器【纯农排变】,碑店市同兴农林畜牧有限公司变压器,乔刘凡东北2变压器,茶棚店村内变压器,县农场,蔬菜基地,平安店地北变压器【纯农排变】,陈各庄东地变压器【纯农排变】,华宇燃气,66336锅炉房（2）,河北亿松食品有限公司计,南泽畔地变压器【纯农排变】,0652546169-高碑店市路灯管理办公室-专变-178898805-高碑店市路灯管理办公室100变压器,撞河村东变压器,南泽畔东北台区,河北万达箱包制品有限公司变压器,高碑店市龚辛庄泰兴苗圃场变压器,河北新发地农副产品有限公司1,高碑店市国有粮食购销储运有限公司变压器,66336东宿,王永彬变压器,高一砖厂,高一铁厂,燕桥水泥厂2,南泽畔北变压器,92181部队,66336修理连,河北银庭物业服务有限公司2,武装部靶场,南泽畔西变压器,66336医院,0200002074|66336东宿,职教中心,龚辛庄村变压器,松林地二变压器【纯农排变】,南泽畔地南变压器,龚新庄地变压器【纯农排变】,撞河西南变压器,松林南变压器,军城办变压器,乔刘凡东北变压器,平安店北变压器","poweroffReason":"【停电原因】由于主干０１号开关设备线夹烧毁导致２２０ＫＶ高碑店变电站１０ＫＶ营房５１６线路０１号断路器以下停电 【变更送电】因抢修进度加快原因，送电时间由１６日０９：００变更为１５日２３：３０ 【发布渠道】通过９５５９８发布","powerTime":"2020-03-15 23:16:50","powerComm":"已送电","subsNo":"","lineNo":"","tgNo":"","tgName":null,"infoStatus":"1","orgName":"国网高碑店市供电公司","typeName":null,"infoStatusName":null,"dateDay":null,"orgNos":null,"nowTime":null,"countyName":null,"streetName":null,"villageName":null,"roadName":null,"communityName":null,"tranName":null,"sdLineName":null,"cityCode":"1340612","cityName":"国网高碑店市供电公司","provinceCode":null,"stopTime":"2020-03-15 23:30:00","powerType":"全部","powerOffArea":"【分支停电】停停撞河中变压器,高碑店市军城绿科苗木种植农民专业合作社,兴达猪场,茶棚店北变压器,乔刘凡地南变压器【纯农排变】,乔刘凡地北变压器【纯农排变】,高碑店市三兴装饰材料有限公司变压器,祁村西变压器,撞河村内变压器,河北银庭物业服务有限公司,高碑店市救助管理站变压器,松林村变压器,高碑店市润兴物业服务有限公司2变压器,高碑店市润兴物业服务有限公司1变压器,乔刘凡地变压器【纯农排变】,冷库,民悦模具有限公司,胶合板,姬金华变压器,平安店东变压器,龚辛庄北浇变压器【纯农排变】,高一面粉厂,撞河东浇地变压器【纯农排变】,高碑店市利兴综合加工厂变压器,南泽畔中,祁村东变压器,平安店北二变压器,高一村变压器,乔二砖2,龚辛庄北变压器,乔刘凡乡二砖厂,石家庄乾荣房地产开发有限公司1,燕桥水泥厂,松林新变压器,0664684790-高碑店市泰鑫溢润金属制品有限公司-专变-201043231-高碑店市泰鑫溢润金属制品有限公司,高一西变压器,石家庄乾荣房地产开发有限公司变压器,军城办公变变压器,0585583208-高碑店市路灯管理办公室-专变-125094112-高碑店市路灯管理办公室变压器,石家庄乾荣房地产开发有限公司,氧气厂,变压器,平安店西变压器,杨振林,高三分支变压器,66336锅炉房,撞河西北变压器,高一王建国,河北豆想你食品有限公司,颜国红,石家庄乾荣房地产开发有限公司2,中国人民解放军66336部队变压器,平安店南变压器,高碑店市浩邦牧业有限公司变压器,撞河北变压器,南泽畔东变压器,高碑店市佳兴工业有限公司变压器,方家务浇地,龚辛庄东台区,平安店新变压器,松林地变压器【纯农排变】,平安店地南变压器,自来水北井,高碑店市北城办事处方家务村铁路西变台,高碑店市撞河中韵橡胶制品加工部变压器,撞河南变压器,河北洪豆食品科技有限公司,陈各庄西地1变压器【纯农排变】,平三变压器,龚辛庄南变压器,平安店西北变压器【纯农排变】,碑店市同兴农林畜牧有限公司变压器,乔刘凡东北2变压器,茶棚店村内变压器,县农场,蔬菜基地,平安店地北变压器【纯农排变】,陈各庄东地变压器【纯农排变】,华宇燃气,66336锅炉房（2）,河北亿松食品有限公司计,南泽畔地变压器【纯农排变】,0652546169-高碑店市路灯管理办公室-专变-178898805-高碑店市路灯管理办公室100变压器,撞河村东变压器,南泽畔东北台区,河北万达箱包制品有限公司变压器,高碑店市龚辛庄泰兴苗圃场变压器,河北新发地农副产品有限公司1,高碑店市国有粮食购销储运有限公司变压器,66336东宿,王永彬变压器,高一砖厂,高一铁厂,燕桥水泥厂2,南泽畔北变压器,92181部队,66336修理连,河北银庭物业服务有限公司2,武装部靶场,南泽畔西变压器,66336医院,0200002074|66336东宿,职教中心,龚辛庄村变压器,松林地二变压器【纯农排变】,南泽畔地南变压器,龚新庄地变压器【纯农排变】,撞河西南变压器,松林南变压器,军城办变压器,乔刘凡东北变压器,平安店北变压器","powerOffReason":"【停电原因】由于主干０１号开关设备线夹烧毁导致２２０ＫＶ高碑店变电站１０ＫＶ营房５１６线路０１号断路器以下停电 【变更送电】因抢修进度加快原因，送电时间由１６日０９：００变更为１５日２３：３０ 【发布渠道】通过９５５９８发布","powerOffId":"2020031513000177"},{"poweroffId":2020031513000168,"sgpoweroffId":null,"subsName":"","lineName":"机床厂515","pubTranName":"高三新变压器,高三大队变压器,街里南变压器,街里北变压器,高三六队变压器,高三村市场变压器,高三街西变压器,高三街东变压器,高一大方变压器,","scope":"【影响街道/乡镇】和平办事处 【高危重要客户】无 【影响客户】高三村、人和茂盛、北京第一机床锻造、赵新禾、燕南、一机床铸造、春晖新吉、自来水、特种铸造、瑞仁厂、三聚厂、北一重型、冠力厂、金桥汽车、高碑店祥和瑞成、机床厂路灯","startTime":"2020-03-15 21:09:43","stopDate":"2020-03-15 23:00:00","orgNo":"1340612","typeCode":"电网故障停限电","poweroffArea":"【全线路停电】停街里北变压器,高三新变压器,高三大队变压器,街里南变压器,高三六队变压器,高三村市场变压器,高三街西变压器,高三街东变压器,高碑店市金桥汽车服务公司,0387436023-高碑店市益友工业有限责任公司06,0600672300-高碑店市益友工业有限责任公司03,高碑店市贤合瑞成废旧物资回收有限公司变压器01,0600672300-高碑店市益友工业有限责任公司04,燕南机械厂,0387436645-高碑店市益友工业有限公司05,特种铸造厂,北一重型机械铸造股份有限公司2,赵辛禾,高碑店市高碑店龙泉浴池变压器,春晖新吉机械制造有限公司,杨卫强变压器,0600672300-高碑店市益友工业有限责任公司01,高一大方变压器,0600672300-高碑店市益友工业有限责任公司02,0546632231-河北人和茂盛商混砼有限责任公司-专变-47889511-变压器,高碑店市贤合瑞成废旧物资回收有限公司变压器02,保定冠力工程机械,北一重型机械铸造股份有限公司1,三聚工业有限公司,一机床2,一机床2 南,瑞仁公司,自来水2,高一3变压器,高碑店市路灯管理办公室变压器,高三大方变压器","poweroffReason":"【停电原因】由于营房５１６线路主干０１号杆Ａ相弓子线断导致２２０ＫＶ高碑店变电站１０ＫＶ机床厂５１５线路全线停电 【变更送电】无 【发布渠道】通过９５５９８发布","powerTime":"2020-03-15 22:06:55","powerComm":"已送电","subsNo":"","lineNo":"","tgNo":"","tgName":null,"infoStatus":"1","orgName":"国网高碑店市供电公司","typeName":null,"infoStatusName":null,"dateDay":null,"orgNos":null,"nowTime":null,"countyName":null,"streetName":null,"villageName":null,"roadName":null,"communityName":null,"tranName":null,"sdLineName":null,"cityCode":"1340612","cityName":"国网高碑店市供电公司","provinceCode":null,"stopTime":"2020-03-15 23:00:00","powerType":"全部","powerOffArea":"【全线路停电】停街里北变压器,高三新变压器,高三大队变压器,街里南变压器,高三六队变压器,高三村市场变压器,高三街西变压器,高三街东变压器,高碑店市金桥汽车服务公司,0387436023-高碑店市益友工业有限责任公司06,0600672300-高碑店市益友工业有限责任公司03,高碑店市贤合瑞成废旧物资回收有限公司变压器01,0600672300-高碑店市益友工业有限责任公司04,燕南机械厂,0387436645-高碑店市益友工业有限公司05,特种铸造厂,北一重型机械铸造股份有限公司2,赵辛禾,高碑店市高碑店龙泉浴池变压器,春晖新吉机械制造有限公司,杨卫强变压器,0600672300-高碑店市益友工业有限责任公司01,高一大方变压器,0600672300-高碑店市益友工业有限责任公司02,0546632231-河北人和茂盛商混砼有限责任公司-专变-47889511-变压器,高碑店市贤合瑞成废旧物资回收有限公司变压器02,保定冠力工程机械,北一重型机械铸造股份有限公司1,三聚工业有限公司,一机床2,一机床2 南,瑞仁公司,自来水2,高一3变压器,高碑店市路灯管理办公室变压器,高三大方变压器","powerOffReason":"【停电原因】由于营房５１６线路主干０１号杆Ａ相弓子线断导致２２０ＫＶ高碑店变电站１０ＫＶ机床厂５１５线路全线停电 【变更送电】无 【发布渠道】通过９５５９８发布","powerOffId":"2020031513000168"},{"poweroffId":2020031513000159,"sgpoweroffId":null,"subsName":"","lineName":"营房516","pubTranName":"乔刘凡东北2变压器,南泽畔东北台区,撞河西南变压器,松林新变压器,茶棚店北变压器,高三分支变压器,撞河西北变压器,龚辛庄东台区,龚辛庄北浇变压器【纯农排变】,军城办公变变压器,平安店北二变压器,高一村变压器,平安店东变压器,南泽畔中,","scope":"【影响街道/乡镇】军城办事处、和平办事处、北城办事处 【高危重要客户】无 【影响客户】茶棚店村、龚辛庄村、南泽畔村、平安店村、祁村、乔刘凡村、松林村、撞河村、高三村、高一村、益友工业（北厂）、佳兴工业、包安面粉厂、中安天德机动车检测场、红成模具厂、昌信物业、乾荣地产、利兴综合加工厂、银庭物业、高化工业气体、民悦模具、中国人民解放军９１２９２部队、长盛商砼混凝土、联众机械制造、国有粮食购销储运、三兴装饰材料、中国人民解放军６６３３６部队、浩邦牧业、中国人民解放军６６３３６部队（医院）、高一铁厂、中国人民解放军６６３３６部队（修理连）、达烨铸造加工厂、高碑店市民政事业服务中心、精工液压密封件厂、高碑店明泉铸造厂、高碑店燕桥水泥厂、晨航橡塑制品有限公司、路灯管理办公室、王永彬、保定森泽汽车销售有限公司、自来水公司、职教中心、华宇燃气、跃然文化传媒、乔刘凡二砖二、泰鑫溢润金属、龚辛庄泰兴苗圃场、人民武装部靶场、方家务村（部分）、河北兴达原种猪有限公司、生态园餐厅、军城绿科苗木种植农民专业合作社、同兴农林畜牧有限公司、姬金华、河北万达箱包制品有限公司","startTime":"2020-03-15 19:53:52","stopDate":"2020-03-15 22:30:00","orgNo":"1340612","typeCode":"电网故障停限电","poweroffArea":"【全线路停电】停撞河中变压器,高碑店市军城绿科苗木种植农民专业合作社,兴达猪场,茶棚店北变压器,乔刘凡地南变压器【纯农排变】,乔刘凡地北变压器【纯农排变】,高碑店市三兴装饰材料有限公司变压器,祁村西变压器,撞河村内变压器,河北银庭物业服务有限公司,高碑店市救助管理站变压器,松林村变压器,高碑店市润兴物业服务有限公司2变压器,高碑店市润兴物业服务有限公司1变压器,乔刘凡地变压器【纯农排变】,冷库,民悦模具有限公司,胶合板,姬金华变压器,平安店东变压器,龚辛庄北浇变压器【纯农排变】,高一面粉厂,撞河东浇地变压器【纯农排变】,高碑店市利兴综合加工厂变压器,南泽畔中,祁村东变压器,平安店北二变压器,高一村变压器,乔二砖2,龚辛庄北变压器,乔刘凡乡二砖厂,石家庄乾荣房地产开发有限公司1,燕桥水泥厂,松林新变压器,0664684790-高碑店市泰鑫溢润金属制品有限公司-专变-201043231-高碑店市泰鑫溢润金属制品有限公司,高一西变压器,石家庄乾荣房地产开发有限公司变压器,军城办公变变压器,0585583208-高碑店市路灯管理办公室-专变-125094112-高碑店市路灯管理办公室变压器,石家庄乾荣房地产开发有限公司,氧气厂,变压器,平安店西变压器,杨振林,高三分支变压器,66336锅炉房,撞河西北变压器,高一王建国,河北豆想你食品有限公司,颜国红,石家庄乾荣房地产开发有限公司2,中国人民解放军66336部队变压器,平安店南变压器,高碑店市浩邦牧业有限公司变压器,撞河北变压器,南泽畔东变压器,高碑店市佳兴工业有限公司变压器,方家务浇地,龚辛庄东台区,平安店新变压器,松林地变压器【纯农排变】,平安店地南变压器,自来水北井,高碑店市北城办事处方家务村铁路西变台,高碑店市撞河中韵橡胶制品加工部变压器,撞河南变压器,河北洪豆食品科技有限公司,陈各庄西地1变压器【纯农排变】,平三变压器,龚辛庄南变压器,平安店西北变压器【纯农排变】,碑店市同兴农林畜牧有限公司变压器,乔刘凡东北2变压器,茶棚店村内变压器,县农场,蔬菜基地,平安店地北变压器【纯农排变】,陈各庄东地变压器【纯农排变】,华宇燃气,66336锅炉房（2）,河北亿松食品有限公司计,南泽畔地变压器【纯农排变】,0652546169-高碑店市路灯管理办公室-专变-178898805-高碑店市路灯管理办公室100变压器,撞河村东变压器,南泽畔东北台区,河北万达箱包制品有限公司变压器,高碑店市龚辛庄泰兴苗圃场变压器,河北新发地农副产品有限公司1,高碑店市国有粮食购销储运有限公司变压器,66336东宿,王永彬变压器,高一砖厂,高一铁厂,燕桥水泥厂2,南泽畔北变压器,92181部队,66336修理连,河北银庭物业服务有限公司2,武装部靶场,南泽畔西变压器,66336医院,0200002074|66336东宿,职教中心,龚辛庄村变压器,松林地二变压器【纯农排变】,南泽畔地南变压器,龚新庄地变压器【纯农排变】,撞河西南变压器,松林南变压器,军城办变压器,乔刘凡东北变压器,平安店北变压器","poweroffReason":"【停电原因】由于线路主干０１号杆Ａ相弓子线断导致２２０ＫＶ高碑店变电站１０ＫＶ营房５１６线路全线停电 【变更送电】因抢修进度加快原因，送电时间由２３：５９变更为２２：３０ 【发布渠道】通过９５５９８发布","powerTime":"2020-03-15 22:10:09","powerComm":"已送电","subsNo":"","lineNo":"","tgNo":"","tgName":null,"infoStatus":"1","orgName":"国网高碑店市供电公司","typeName":null,"infoStatusName":null,"dateDay":null,"orgNos":null,"nowTime":null,"countyName":null,"streetName":null,"villageName":null,"roadName":null,"communityName":null,"tranName":null,"sdLineName":null,"cityCode":"1340612","cityName":"国网高碑店市供电公司","provinceCode":null,"stopTime":"2020-03-15 22:30:00","powerType":"全部","powerOffArea":"【全线路停电】停撞河中变压器,高碑店市军城绿科苗木种植农民专业合作社,兴达猪场,茶棚店北变压器,乔刘凡地南变压器【纯农排变】,乔刘凡地北变压器【纯农排变】,高碑店市三兴装饰材料有限公司变压器,祁村西变压器,撞河村内变压器,河北银庭物业服务有限公司,高碑店市救助管理站变压器,松林村变压器,高碑店市润兴物业服务有限公司2变压器,高碑店市润兴物业服务有限公司1变压器,乔刘凡地变压器【纯农排变】,冷库,民悦模具有限公司,胶合板,姬金华变压器,平安店东变压器,龚辛庄北浇变压器【纯农排变】,高一面粉厂,撞河东浇地变压器【纯农排变】,高碑店市利兴综合加工厂变压器,南泽畔中,祁村东变压器,平安店北二变压器,高一村变压器,乔二砖2,龚辛庄北变压器,乔刘凡乡二砖厂,石家庄乾荣房地产开发有限公司1,燕桥水泥厂,松林新变压器,0664684790-高碑店市泰鑫溢润金属制品有限公司-专变-201043231-高碑店市泰鑫溢润金属制品有限公司,高一西变压器,石家庄乾荣房地产开发有限公司变压器,军城办公变变压器,0585583208-高碑店市路灯管理办公室-专变-125094112-高碑店市路灯管理办公室变压器,石家庄乾荣房地产开发有限公司,氧气厂,变压器,平安店西变压器,杨振林,高三分支变压器,66336锅炉房,撞河西北变压器,高一王建国,河北豆想你食品有限公司,颜国红,石家庄乾荣房地产开发有限公司2,中国人民解放军66336部队变压器,平安店南变压器,高碑店市浩邦牧业有限公司变压器,撞河北变压器,南泽畔东变压器,高碑店市佳兴工业有限公司变压器,方家务浇地,龚辛庄东台区,平安店新变压器,松林地变压器【纯农排变】,平安店地南变压器,自来水北井,高碑店市北城办事处方家务村铁路西变台,高碑店市撞河中韵橡胶制品加工部变压器,撞河南变压器,河北洪豆食品科技有限公司,陈各庄西地1变压器【纯农排变】,平三变压器,龚辛庄南变压器,平安店西北变压器【纯农排变】,碑店市同兴农林畜牧有限公司变压器,乔刘凡东北2变压器,茶棚店村内变压器,县农场,蔬菜基地,平安店地北变压器【纯农排变】,陈各庄东地变压器【纯农排变】,华宇燃气,66336锅炉房（2）,河北亿松食品有限公司计,南泽畔地变压器【纯农排变】,0652546169-高碑店市路灯管理办公室-专变-178898805-高碑店市路灯管理办公室100变压器,撞河村东变压器,南泽畔东北台区,河北万达箱包制品有限公司变压器,高碑店市龚辛庄泰兴苗圃场变压器,河北新发地农副产品有限公司1,高碑店市国有粮食购销储运有限公司变压器,66336东宿,王永彬变压器,高一砖厂,高一铁厂,燕桥水泥厂2,南泽畔北变压器,92181部队,66336修理连,河北银庭物业服务有限公司2,武装部靶场,南泽畔西变压器,66336医院,0200002074|66336东宿,职教中心,龚辛庄村变压器,松林地二变压器【纯农排变】,南泽畔地南变压器,龚新庄地变压器【纯农排变】,撞河西南变压器,松林南变压器,军城办变压器,乔刘凡东北变压器,平安店北变压器","powerOffReason":"【停电原因】由于线路主干０１号杆Ａ相弓子线断导致２２０ＫＶ高碑店变电站１０ＫＶ营房５１６线路全线停电 【变更送电】因抢修进度加快原因，送电时间由２３：５９变更为２２：３０ 【发布渠道】通过９５５９８发布","powerOffId":"2020031513000159"},{"poweroffId":2020031513000134,"sgpoweroffId":null,"subsName":"","lineName":"横上线551","pubTranName":"中营变压器,横上5号公变,菊花二台南2号排灌变压器【纯农排变】,横上南6号排灌变压器,范庄子北变压器,尤庄子西2号公变变压器,菊花三台西1号排灌变压器【纯农排变】,中营东2号排灌变压器,前营变压器,菊花一台南1号排灌变压器【纯农排变】,高碑店市辛桥镇总校横上村幼儿园变压器,高碑店市辛桥镇范庄子中心小学变压器,菊花一台北变压器,尤庄子村东变压器,陈庄子东南,尤庄子村西变压器,河北军海混凝土销售有限公司,横上西南水【纯农排变】,横上西北排灌【纯农排变】,范庄子东变压器,一台变压器,高庄子内变压器,柳庄子磁卡变压器【纯农排变】,齐王务西北变压器,高碑店市范庄子初级中学,菊花二台南1号排灌变压器【纯农排变】,前营磁卡变压器【纯农排变】,中营排灌变压器【纯农排变】,菊花台小学变压器,范庄子乡直变压器,菊花一台南变压器,菊花一台南水变压器,客户投资_陈庄子内变压器,范庄子水变压器【纯农排变】,高碑店市东正晟农业服务农民专业合作社变压器,三台西南变压器,高庄子内2号公变,横上南水变压器【纯农排变】,尤庄子排灌变压器【纯农排变】,菊花一台南2号排灌变压器【纯农排变】,柳庄子西变压器,横上东北变压器,王俊河,陈庄子南变压器,一台养鸭场,后营变压器,尤庄子地变压器【纯农排变】,横上东南水变压器【纯农排变】,二台西变压器,范庄子中学变压器,三台南变压器,横上北变压器,后营南变压器,范庄子面粉厂,横上西水变压器【纯农排变】,横上南变压器,三台西变压器,横上东变压器,中营西变压器,二台南水变压器【纯农排变】,高庄子磁卡变压器【纯农排变】,二台北水变压器【纯农排变】,三台西水变压器【纯农排变】,高庄子东变压器,三台东变压器,陈庄子东水变压器【纯农排变】,柳庄子东变压器,范庄子南台变压器,二台东变压器,王井民,中国移动通信集团河北有限公司高碑店分公司,一台排灌变压器【纯农排变】,尤庄子西排灌变压器【纯农排变】,","scope":"【影响街道/乡镇】辛桥乡 【高危重要客户】无 【影响客户】柳庄子村、横上村、菊花一台村、菊花二台村、菊花三台村、尤庄子村、陈庄子村、范庄子村、高庄子村、前营村、中营村、后营村、东正晟农业合作社、范庄子面粉厂、范庄子乡直、范庄子中学、李振海、王井民、王俊河、一台养鸭厂、移动公司、范庄子小学","startTime":"2020-03-15 17:34:08","stopDate":"2020-03-15 19:00:00","orgNo":"1340612","typeCode":"电网故障停限电","poweroffArea":"【分支停电】停中营东2号排灌变压器,横上5号公变,菊花二台南2号排灌变压器【纯农排变】,横上南6号排灌变压器,范庄子北变压器,尤庄子西2号公变变压器,菊花三台西1号排灌变压器【纯农排变】,前营变压器,菊花一台南1号排灌变压器【纯农排变】,高碑店市辛桥镇总校横上村幼儿园变压器,高碑店市辛桥镇范庄子中心小学变压器,菊花一台北变压器,尤庄子村东变压器,陈庄子东南,尤庄子村西变压器,河北军海混凝土销售有限公司,横上西南水【纯农排变】,范庄子东变压器,一台变压器,高庄子内变压器,柳庄子磁卡变压器【纯农排变】,齐王务西北变压器,高碑店市范庄子初级中学,菊花二台南1号排灌变压器【纯农排变】,前营磁卡变压器【纯农排变】,中营变压器,中营排灌变压器【纯农排变】,横上西北排灌【纯农排变】,菊花台小学变压器,范庄子乡直变压器,菊花一台南变压器,菊花一台南水变压器,客户投资_陈庄子内变压器,范庄子水变压器【纯农排变】,高碑店市东正晟农业服务农民专业合作社变压器,三台西南变压器,高庄子内2号公变,横上南水变压器【纯农排变】,尤庄子排灌变压器【纯农排变】,菊花一台南2号排灌变压器【纯农排变】,柳庄子西变压器,横上东北变压器,王俊河,陈庄子南变压器,一台养鸭场,中国移动通信集团河北有限公司高碑店分公司,一台排灌变压器【纯农排变】,三台南变压器,范庄子面粉厂,三台西变压器,横上东变压器,二台南水变压器【纯农排变】,高庄子磁卡变压器【纯农排变】,二台北水变压器【纯农排变】,高庄子东变压器,三台东变压器,柳庄子东变压器,后营变压器,尤庄子地变压器【纯农排变】,横上东南水变压器【纯农排变】,二台西变压器,范庄子中学变压器,横上北变压器,后营南变压器,横上西水变压器【纯农排变】,横上南变压器,中营西变压器,三台西水变压器【纯农排变】,陈庄子东水变压器【纯农排变】,范庄子南台变压器,二台东变压器,王井民,尤庄子西排灌变压器【纯农排变】","poweroffReason":"【停电原因】由于京雄高速施工致使范庄子面粉厂分支０４号－０５号杆间导线被拉土车挂蹭导致１１０ＫＶ陈八庄变电站１０ＫＶ横上５５１线路０２号断路器以下停电 【变更送电】因抢修进度加快原因，送电时间由２３：５９变更为１９：００ 【发布渠道】通过９５５９８发布","powerTime":"2020-03-15 18:31:08","powerComm":"已送电","subsNo":"","lineNo":"","tgNo":"","tgName":null,"infoStatus":"1","orgName":"国网高碑店市供电公司","typeName":null,"infoStatusName":null,"dateDay":null,"orgNos":null,"nowTime":null,"countyName":null,"streetName":null,"villageName":null,"roadName":null,"communityName":null,"tranName":null,"sdLineName":null,"cityCode":"1340612","cityName":"国网高碑店市供电公司","provinceCode":null,"stopTime":"2020-03-15 19:00:00","powerType":"全部","powerOffArea":"【分支停电】停中营东2号排灌变压器,横上5号公变,菊花二台南2号排灌变压器【纯农排变】,横上南6号排灌变压器,范庄子北变压器,尤庄子西2号公变变压器,菊花三台西1号排灌变压器【纯农排变】,前营变压器,菊花一台南1号排灌变压器【纯农排变】,高碑店市辛桥镇总校横上村幼儿园变压器,高碑店市辛桥镇范庄子中心小学变压器,菊花一台北变压器,尤庄子村东变压器,陈庄子东南,尤庄子村西变压器,河北军海混凝土销售有限公司,横上西南水【纯农排变】,范庄子东变压器,一台变压器,高庄子内变压器,柳庄子磁卡变压器【纯农排变】,齐王务西北变压器,高碑店市范庄子初级中学,菊花二台南1号排灌变压器【纯农排变】,前营磁卡变压器【纯农排变】,中营变压器,中营排灌变压器【纯农排变】,横上西北排灌【纯农排变】,菊花台小学变压器,范庄子乡直变压器,菊花一台南变压器,菊花一台南水变压器,客户投资_陈庄子内变压器,范庄子水变压器【纯农排变】,高碑店市东正晟农业服务农民专业合作社变压器,三台西南变压器,高庄子内2号公变,横上南水变压器【纯农排变】,尤庄子排灌变压器【纯农排变】,菊花一台南2号排灌变压器【纯农排变】,柳庄子西变压器,横上东北变压器,王俊河,陈庄子南变压器,一台养鸭场,中国移动通信集团河北有限公司高碑店分公司,一台排灌变压器【纯农排变】,三台南变压器,范庄子面粉厂,三台西变压器,横上东变压器,二台南水变压器【纯农排变】,高庄子磁卡变压器【纯农排变】,二台北水变压器【纯农排变】,高庄子东变压器,三台东变压器,柳庄子东变压器,后营变压器,尤庄子地变压器【纯农排变】,横上东南水变压器【纯农排变】,二台西变压器,范庄子中学变压器,横上北变压器,后营南变压器,横上西水变压器【纯农排变】,横上南变压器,中营西变压器,三台西水变压器【纯农排变】,陈庄子东水变压器【纯农排变】,范庄子南台变压器,二台东变压器,王井民,尤庄子西排灌变压器【纯农排变】","powerOffReason":"【停电原因】由于京雄高速施工致使范庄子面粉厂分支０４号－０５号杆间导线被拉土车挂蹭导致１１０ＫＶ陈八庄变电站１０ＫＶ横上５５１线路０２号断路器以下停电 【变更送电】因抢修进度加快原因，送电时间由２３：５９变更为１９：００ 【发布渠道】通过９５５９８发布","powerOffId":"2020031513000134"},{"poweroffId":2020031513000115,"sgpoweroffId":null,"subsName":"","lineName":"潘各庄线539","pubTranName":"1387潘各庄,","scope":"【影响街道/乡镇】刁窝乡 【高危重要客户】无 【影响客户】潘各庄","startTime":"2020-03-15 15:12:58","stopDate":"2020-03-15 18:10:00","orgNo":"1340626","typeCode":"电网故障停限电","poweroffArea":"【单台区停电】停1387潘各庄","poweroffReason":"【停电原因】由于低压空开烧毁导致１１０ＫＶ刁窝变电站潘各庄线５３９线路１３８７潘各庄公变台区停电 【变更送电】因抢修进度加快原因，送电时间由２１：００变更为１８：１０ 【发布渠道】通过９５５９８发布","powerTime":"2020-03-15 17:52:30","powerComm":"已送电","subsNo":"","lineNo":"","tgNo":"","tgName":null,"infoStatus":"1","orgName":"国网涿州市供电公司","typeName":null,"infoStatusName":null,"dateDay":null,"orgNos":null,"nowTime":null,"countyName":null,"streetName":null,"villageName":null,"roadName":null,"communityName":null,"tranName":null,"sdLineName":null,"cityCode":"1340626","cityName":"国网涿州市供电公司","provinceCode":null,"stopTime":"2020-03-15 18:10:00","powerType":"全部","powerOffArea":"【单台区停电】停1387潘各庄","powerOffReason":"【停电原因】由于低压空开烧毁导致１１０ＫＶ刁窝变电站潘各庄线５３９线路１３８７潘各庄公变台区停电 【变更送电】因抢修进度加快原因，送电时间由２１：００变更为１８：１０ 【发布渠道】通过９５５９８发布","powerOffId":"2020031513000115"}],"pageModel":{"pageNow":267,"totalCount":10973,"totalPage":1098,"tableRows":0,"pageCount":10,"beginCount":2660},"isExperi":"1"}