{"message":"","today":"2020-06-15","seleList":[{"poweroffId":2020031313000113,"sgpoweroffId":null,"subsName":"","lineName":"10kV荆塘铺554备用","pubTranName":"半壁店1号,半壁店5号,半壁店6号,半壁店7号,大营10号【纯农排变】,大营11号,大营12号,大营13号【纯农排变】,大营14号,大营16号,大营18号,大营1号,大营3号【纯农排变】,大营4号【纯农排变】,大营9号【纯农排变】,荆塘铺10号【纯农排变】,荆塘铺11号,荆塘铺12号,荆塘铺13号,荆塘铺15号,荆塘铺16号,荆塘铺17号,荆塘铺1号,荆塘铺2号,荆塘铺3号【纯农排变】,荆塘铺4号,荆塘铺6号【纯农排变】,荆塘铺7号【纯农排变】,荆塘铺8号,荆塘铺9号,南亭16号【纯农排变】,南亭19号,南亭1号,南亭23号,南亭3号,","scope":"【影响街道/乡镇】留村乡 【高危重要客户】无 【影响客户】大营村、荆塘铺村、半壁店村、南亭村","startTime":"2020-03-13 13:55:00","stopDate":"2020-03-13 16:00:00","orgNo":"1340605","typeCode":"电网故障停限电","poweroffArea":"【全线路停电】停半壁店1号,半壁店2号,半壁店4号【纯农排变】,半壁店5号,半壁店6号,半壁店7号,大营10号【纯农排变】,大营11号,大营12号,大营13号【纯农排变】,大营14号,大营16号,大营18号,大营1号,大营2号【纯农排变】,大营3号【纯农排变】,大营4号【纯农排变】,大营9号【纯农排变】,荆塘铺10号【纯农排变】,荆塘铺11号,荆塘铺12号,荆塘铺13号,荆塘铺14号【纯农排变】,荆塘铺15号,荆塘铺16号,荆塘铺17号,荆塘铺1号,荆塘铺2号,荆塘铺3号【纯农排变】,荆塘铺4号,荆塘铺5号【纯农排变】,荆塘铺6号【纯农排变】,荆塘铺7号【纯农排变】,荆塘铺8号,荆塘铺9号,南亭10号【纯农排变】,南亭11号【纯农排变】,南亭13号【纯农排变】,南亭15号【纯农排变】,南亭16号【纯农排变】,南亭19号,南亭1号,南亭21号【纯农排变】,南亭22号,南亭23号,南亭3号,南亭5号【纯农排变】,南亭6号【纯农排变】,南亭7号【纯农排变】,南亭8号【纯农排变】","poweroffReason":"【停电原因】由于Ｂ相接地导致１１０ＫＶ留村变电站１０ＫＶ荆塘铺５５４线路全线停电 【变更送电】因抢修进度加快原因，送电时间由１９:００变更为１６:００ 【发布渠道】通过９５５９８发布","powerTime":"2020-03-13 15:17:36","powerComm":"已送电","subsNo":"","lineNo":"","tgNo":"","tgName":null,"infoStatus":"1","orgName":"国网徐水县供电公司","typeName":null,"infoStatusName":null,"dateDay":null,"orgNos":null,"nowTime":null,"countyName":null,"streetName":null,"villageName":null,"roadName":null,"communityName":null,"tranName":null,"sdLineName":null,"cityCode":"1340605","cityName":"国网徐水县供电公司","provinceCode":null,"stopTime":"2020-03-13 16:00:00","powerType":"全部","powerOffArea":"【全线路停电】停半壁店1号,半壁店2号,半壁店4号【纯农排变】,半壁店5号,半壁店6号,半壁店7号,大营10号【纯农排变】,大营11号,大营12号,大营13号【纯农排变】,大营14号,大营16号,大营18号,大营1号,大营2号【纯农排变】,大营3号【纯农排变】,大营4号【纯农排变】,大营9号【纯农排变】,荆塘铺10号【纯农排变】,荆塘铺11号,荆塘铺12号,荆塘铺13号,荆塘铺14号【纯农排变】,荆塘铺15号,荆塘铺16号,荆塘铺17号,荆塘铺1号,荆塘铺2号,荆塘铺3号【纯农排变】,荆塘铺4号,荆塘铺5号【纯农排变】,荆塘铺6号【纯农排变】,荆塘铺7号【纯农排变】,荆塘铺8号,荆塘铺9号,南亭10号【纯农排变】,南亭11号【纯农排变】,南亭13号【纯农排变】,南亭15号【纯农排变】,南亭16号【纯农排变】,南亭19号,南亭1号,南亭21号【纯农排变】,南亭22号,南亭23号,南亭3号,南亭5号【纯农排变】,南亭6号【纯农排变】,南亭7号【纯农排变】,南亭8号【纯农排变】","powerOffReason":"【停电原因】由于Ｂ相接地导致１１０ＫＶ留村变电站１０ＫＶ荆塘铺５５４线路全线停电 【变更送电】因抢修进度加快原因，送电时间由１９:００变更为１６:００ 【发布渠道】通过９５５９８发布","powerOffId":"2020031313000113"},{"poweroffId":2020031313000084,"sgpoweroffId":null,"subsName":"","lineName":"10kV514辛庄西线","pubTranName":"李辛庄公用照明3台区,","scope":"【影响街道/乡镇】高蓬镇【高危重要客户】无【影响客户】李辛庄","startTime":"2020-03-27 07:00:00","stopDate":"2020-03-27 18:00:00","orgNo":"1340610","typeCode":"计划停电","poweroffArea":"【分支停电】停李辛庄公用照明3台区","poweroffReason":"【停电原因】由于更换低压导线导致１１０ＫＶ李亲顾变电站１０ＫＶ５１４辛庄西线路０１号杆４０号隔离开关以下线路停电 【变更送电】因抢修进度加快原因，送电时间由１９：００变更为１８：００ 【发布渠道】河北省定州市定州日报第三版（２０２０年０３月１４日）","powerTime":"2020-03-27 17:18:51","powerComm":"已送电","subsNo":"","lineNo":"","tgNo":"","tgName":null,"infoStatus":"1","orgName":"国网定州市供电公司","typeName":null,"infoStatusName":null,"dateDay":null,"orgNos":null,"nowTime":null,"countyName":null,"streetName":null,"villageName":null,"roadName":null,"communityName":null,"tranName":null,"sdLineName":null,"cityCode":"1340610","cityName":"国网定州市供电公司","provinceCode":null,"stopTime":"2020-03-27 18:00:00","powerType":"全部","powerOffArea":"【分支停电】停李辛庄公用照明3台区","powerOffReason":"【停电原因】由于更换低压导线导致１１０ＫＶ李亲顾变电站１０ＫＶ５１４辛庄西线路０１号杆４０号隔离开关以下线路停电 【变更送电】因抢修进度加快原因，送电时间由１９：００变更为１８：００ 【发布渠道】河北省定州市定州日报第三版（２０２０年０３月１４日）","powerOffId":"2020031313000084"},{"poweroffId":2020031313000081,"sgpoweroffId":null,"subsName":"","lineName":"10kV564南支合线","pubTranName":"太平庄村公用照明1台区,东三路村公用照明1台区,南支合公用照明5台区,北支合村公用照明1台区,北支合村公用照明2台区,北支合公用照明5台区,南支合村公用照明2台区,南支合公用照明6台区,北支合村公用照明3台区,北支合公用照明4台区,南支合公用照明4台区,东三路公用照明2台区,南支合村公用照明1台区,南支合村公用照明3台区,","scope":"【影响街道/乡镇】清风店镇【高危重要客户】无【影响客户】太平庄、南支合、北支合、东三路、清风店南街","startTime":"2020-03-27 06:50:00","stopDate":"2020-03-27 17:00:00","orgNo":"1340610","typeCode":"计划停电","poweroffArea":"【全线路停电】停南支合公用照明5台区,南支合村公用照明2台区,南支合公用照明6台区,太平庄村公用照明1台区,东三路村公用照明1台区,北支合村公用照明1台区,北支合村公用照明2台区,北支合公用照明5台区,北支合村公用照明3台区,北支合公用照明4台区,南支合公用照明4台区,东三路公用照明2台区,南支合村公用照明1台区,南支合村公用照明3台区","poweroffReason":"【停电原因】由于更换变压器导致１１０ＫＶ清风店变电站１０ＫＶ５６４南支合线路全线停电 【变更送电】无 【发布渠道】河北省定州市定州日报第三版（２０２０年０３月１４日）","powerTime":"2020-03-27 16:46:22","powerComm":"已送电","subsNo":"","lineNo":"","tgNo":"","tgName":null,"infoStatus":"1","orgName":"国网定州市供电公司","typeName":null,"infoStatusName":null,"dateDay":null,"orgNos":null,"nowTime":null,"countyName":null,"streetName":null,"villageName":null,"roadName":null,"communityName":null,"tranName":null,"sdLineName":null,"cityCode":"1340610","cityName":"国网定州市供电公司","provinceCode":null,"stopTime":"2020-03-27 17:00:00","powerType":"全部","powerOffArea":"【全线路停电】停南支合公用照明5台区,南支合村公用照明2台区,南支合公用照明6台区,太平庄村公用照明1台区,东三路村公用照明1台区,北支合村公用照明1台区,北支合村公用照明2台区,北支合公用照明5台区,北支合村公用照明3台区,北支合公用照明4台区,南支合公用照明4台区,东三路公用照明2台区,南支合村公用照明1台区,南支合村公用照明3台区","powerOffReason":"【停电原因】由于更换变压器导致１１０ＫＶ清风店变电站１０ＫＶ５６４南支合线路全线停电 【变更送电】无 【发布渠道】河北省定州市定州日报第三版（２０２０年０３月１４日）","powerOffId":"2020031313000081"},{"poweroffId":2020031313000073,"sgpoweroffId":null,"subsName":"","lineName":"10kV511王家庄线","pubTranName":"王家庄村公用照明1台区一,小瓦房村公用照明1台区,大瓦房公用照明3台区,北木庄公用照明5台区,南木庄村公用照明1台区,大瓦房公用照明4台区,大瓦房村公用照明1台区,西宋庄公用照明2台区,王家庄公用照明6台区一,同安庄公用照明3台区,北木庄村公用照明2台区,南木庄公用照明3台区,王家庄村公用照明3台区,管家庄村公用照明1台区,仝安庄公用照明2台区,仁义村公用照明3台区,王家庄公用照明4台区一,王家庄公用照明10台区,仁义村公用照明1台区,王家庄公用照明8台区一,北王家庄社区公用照明2台区,北王家庄社区公用照明3台区,仝安庄村公用照明1台区,北木庄村公用照明1台区,王家庄公用照明7台区一,北木庄公用照明3台区,蔡家庄村公用照明1台区,王家庄公用照明5台区一,北木庄公用照明4台区,王家庄村公用照明2台区,西宋庄村公用照明1台区,大瓦房村公用照明2台区,蔡家庄公用照明2台区,仁义村公用照明2台区,管家庄公用照明2台区,同安庄公用照明4台区,南木庄公用照明2台区,北王家庄社区公用照明1台区,大瓦房公用照明5台区,官家庄公用照明3台区,东宋庄村公用照明1台区,东宋庄公用照明2台区,","scope":"【影响街道/乡镇】留早镇【高危重要客户】无【影响客户】北木庄、仝安庄、管家庄、南木庄、东宋庄、西宋庄、蔡家庄、大瓦房、小瓦房、仁义村、北王家庄、留早北街村","startTime":"2020-03-26 12:00:00","stopDate":"2020-03-26 14:30:00","orgNo":"1340610","typeCode":"计划停电","poweroffArea":"【全线路停电】停王家庄村公用照明3台区,管家庄村公用照明1台区,仝安庄公用照明2台区,仁义村公用照明3台区,王家庄公用照明4台区一,王家庄公用照明10台区,仁义村公用照明1台区,王家庄公用照明8台区一,北王家庄社区公用照明2台区,北王家庄社区公用照明3台区,仝安庄村公用照明1台区,北木庄村公用照明1台区,王家庄公用照明7台区一,北木庄公用照明3台区,蔡家庄村公用照明1台区,王家庄公用照明5台区一,北木庄公用照明4台区,王家庄村公用照明2台区,西宋庄村公用照明1台区,大瓦房村公用照明2台区,蔡家庄公用照明2台区,仁义村公用照明2台区,管家庄公用照明2台区,同安庄公用照明4台区,南木庄公用照明2台区,东宋庄村公用照明1台区,东宋庄公用照明2台区,北王家庄社区公用照明1台区,王家庄村公用照明1台区一,小瓦房村公用照明1台区,大瓦房公用照明3台区,北木庄公用照明5台区,南木庄村公用照明1台区,大瓦房公用照明4台区,大瓦房村公用照明1台区,西宋庄公用照明2台区,王家庄公用照明6台区一,同安庄公用照明3台区,北木庄村公用照明2台区,南木庄公用照明3台区,大瓦房公用照明5台区,官家庄公用照明3台区","poweroffReason":"【停电原因】由于更换保护装置导致３５ＫＶ留早变电站１０ＫＶ５１１王家庄线路全线停电 【变更送电】无 【发布渠道】河北省定州市定州日报第三版（２０２０年０３月１４日）","powerTime":"2020-03-26 13:48:50","powerComm":"已送电","subsNo":"","lineNo":"","tgNo":"","tgName":null,"infoStatus":"1","orgName":"国网定州市供电公司","typeName":null,"infoStatusName":null,"dateDay":null,"orgNos":null,"nowTime":null,"countyName":null,"streetName":null,"villageName":null,"roadName":null,"communityName":null,"tranName":null,"sdLineName":null,"cityCode":"1340610","cityName":"国网定州市供电公司","provinceCode":null,"stopTime":"2020-03-26 14:30:00","powerType":"全部","powerOffArea":"【全线路停电】停王家庄村公用照明3台区,管家庄村公用照明1台区,仝安庄公用照明2台区,仁义村公用照明3台区,王家庄公用照明4台区一,王家庄公用照明10台区,仁义村公用照明1台区,王家庄公用照明8台区一,北王家庄社区公用照明2台区,北王家庄社区公用照明3台区,仝安庄村公用照明1台区,北木庄村公用照明1台区,王家庄公用照明7台区一,北木庄公用照明3台区,蔡家庄村公用照明1台区,王家庄公用照明5台区一,北木庄公用照明4台区,王家庄村公用照明2台区,西宋庄村公用照明1台区,大瓦房村公用照明2台区,蔡家庄公用照明2台区,仁义村公用照明2台区,管家庄公用照明2台区,同安庄公用照明4台区,南木庄公用照明2台区,东宋庄村公用照明1台区,东宋庄公用照明2台区,北王家庄社区公用照明1台区,王家庄村公用照明1台区一,小瓦房村公用照明1台区,大瓦房公用照明3台区,北木庄公用照明5台区,南木庄村公用照明1台区,大瓦房公用照明4台区,大瓦房村公用照明1台区,西宋庄公用照明2台区,王家庄公用照明6台区一,同安庄公用照明3台区,北木庄村公用照明2台区,南木庄公用照明3台区,大瓦房公用照明5台区,官家庄公用照明3台区","powerOffReason":"【停电原因】由于更换保护装置导致３５ＫＶ留早变电站１０ＫＶ５１１王家庄线路全线停电 【变更送电】无 【发布渠道】河北省定州市定州日报第三版（２０２０年０３月１４日）","powerOffId":"2020031313000073"},{"poweroffId":2020031313000070,"sgpoweroffId":null,"subsName":"","lineName":"10kV518大定线","pubTranName":"大定公用照明7台区,南大定村公用照明3台区,南大定公用照明1台区,大定公用照明8台区,大定公用照明6台区,东赵庄公用照明11台区,东赵庄公用照明9台区,大定公用照明4台区,东赵庄公用照明4台区,大定公用照明5台区,东赵庄公用照明10台区,南大定村公用照明2台区,东赵庄公用照明13台区,东赵庄公用照明5台区,","scope":"【影响街道/乡镇】西城乡【高危重要客户】无【影响客户】大定、东赵庄","startTime":"2020-03-26 06:50:00","stopDate":"2020-03-26 09:00:00","orgNo":"1340610","typeCode":"计划停电","poweroffArea":"【分支停电】停大定公用照明4台区,东赵庄公用照明4台区,大定公用照明5台区,东赵庄公用照明10台区,南大定村公用照明2台区,东赵庄公用照明13台区,东赵庄公用照明5台区,大定公用照明7台区,南大定村公用照明3台区,南大定公用照明1台区,大定公用照明8台区,大定公用照明6台区,东赵庄公用照明11台区,东赵庄公用照明9台区","poweroffReason":"【停电原因】由于新增电杆、新增配变导致１１０ＫＶ李亲顾变电站１０ＫＶ５１８大定线路主干１２０号杆０３号断路器以下线路停电 【变更送电】因抢修进度加快原因，送电时间由１７：００变更为０９：００ 【发布渠道】河北省定州市定州日报第三版（２０２０年０３月１４日）","powerTime":"2020-03-26 08:41:48","powerComm":"已送电","subsNo":"","lineNo":"","tgNo":"","tgName":null,"infoStatus":"1","orgName":"国网定州市供电公司","typeName":null,"infoStatusName":null,"dateDay":null,"orgNos":null,"nowTime":null,"countyName":null,"streetName":null,"villageName":null,"roadName":null,"communityName":null,"tranName":null,"sdLineName":null,"cityCode":"1340610","cityName":"国网定州市供电公司","provinceCode":null,"stopTime":"2020-03-26 09:00:00","powerType":"全部","powerOffArea":"【分支停电】停大定公用照明4台区,东赵庄公用照明4台区,大定公用照明5台区,东赵庄公用照明10台区,南大定村公用照明2台区,东赵庄公用照明13台区,东赵庄公用照明5台区,大定公用照明7台区,南大定村公用照明3台区,南大定公用照明1台区,大定公用照明8台区,大定公用照明6台区,东赵庄公用照明11台区,东赵庄公用照明9台区","powerOffReason":"【停电原因】由于新增电杆、新增配变导致１１０ＫＶ李亲顾变电站１０ＫＶ５１８大定线路主干１２０号杆０３号断路器以下线路停电 【变更送电】因抢修进度加快原因，送电时间由１７：００变更为０９：００ 【发布渠道】河北省定州市定州日报第三版（２０２０年０３月１４日）","powerOffId":"2020031313000070"},{"poweroffId":2020031313000067,"sgpoweroffId":null,"subsName":"","lineName":"10kV520李辛庄线","pubTranName":"李辛庄公用照明6台区,李辛庄公用照明16台区,","scope":"【影响街道/乡镇】高蓬镇【高危重要客户】无【影响客户】李辛庄","startTime":"2020-03-24 07:00:00","stopDate":"2020-03-24 17:00:00","orgNo":"1340610","typeCode":"计划停电","poweroffArea":"【分支停电】停李辛庄公用照明16台区,李辛庄公用照明6台区","poweroffReason":"【停电原因】由于更换低压导线导致１１０ＫＶ李亲顾变电站１０ＫＶ５２０李辛庄线路华洋路四分支０３号杆１２号隔离开关以下线路停电 【变更送电】无 【发布渠道】河北省定州市定州日报第三版（２０２０年０３月１４日）","powerTime":"2020-03-24 16:55:33","powerComm":"已送电","subsNo":"","lineNo":"","tgNo":"","tgName":null,"infoStatus":"1","orgName":"国网定州市供电公司","typeName":null,"infoStatusName":null,"dateDay":null,"orgNos":null,"nowTime":null,"countyName":null,"streetName":null,"villageName":null,"roadName":null,"communityName":null,"tranName":null,"sdLineName":null,"cityCode":"1340610","cityName":"国网定州市供电公司","provinceCode":null,"stopTime":"2020-03-24 17:00:00","powerType":"全部","powerOffArea":"【分支停电】停李辛庄公用照明16台区,李辛庄公用照明6台区","powerOffReason":"【停电原因】由于更换低压导线导致１１０ＫＶ李亲顾变电站１０ＫＶ５２０李辛庄线路华洋路四分支０３号杆１２号隔离开关以下线路停电 【变更送电】无 【发布渠道】河北省定州市定州日报第三版（２０２０年０３月１４日）","powerOffId":"2020031313000067"},{"poweroffId":2020031313000061,"sgpoweroffId":null,"subsName":"","lineName":"10kV北外环线587","pubTranName":"3外贸公用变压器,64栋楼公用3,3交通局公用变压器,3交通锅炉公用变压器,中冉内16变压器,四村内8,3新建胡同1公用,公安局公用变压器,3子弟小学公用变压器,3人行公用变压器,64栋楼公用1,中冉中学2,3民政局公用变压器,育英小区,中冉村3号,中冉中学1,3建委公用变压器,1南四村内18,3育才胡同,中冉内17变压器,64栋楼公用2,土产公用,清中公用,县委武装部2,中冉中学3,3新建胡同2公用,64栋楼公用4,交通锅炉2,中冉外15,中冉内2变压器,1南四村内7变压器,建业楼,老城根公用,3新华小区公用变压器,土产院,中冉外16,3老城根二期公用,1南四村内3变压器,","scope":"【影响街道/乡镇】清苑镇 【高危重要客户】无 【影响客户】中冉、南四村、清苑公园、第二工业园区立中有色金属、兴中汽车配件、中冉村移动、旭阳汽车装饰、中冉尹国旗牛厂、中冉米启钢厂、建设局、人行及家属院、清中及家属楼、子弟小学及家属楼、团结楼、幼儿园、老公安局及家属楼、建业家属楼、光明中街康源大药房、光明中街富强园超市、光明中街大家乐超市、光明街光建胡同、外贸家属楼、计生委家属楼、妇幼家属院、清苑路中行、乐童、信用社家属楼、土产门脸及家属院、新华街益康药店、育英小区家属院、建委家属院、企业局家属院、老水力局家属院、建委工会家属院、县委家属楼、武装部家属楼、老城根家属楼、清花饺子南侧门脸、新华小区家属楼、农机局及家属楼、新建胡同、生产资料家属楼、童装北厂家属院及门脸、南建国自选超市、公园管理处、公园风景城、浩乐地产、龙泽苑、文源阁小区","startTime":"2020-03-13 10:53:22","stopDate":"2020-03-13 12:10:00","orgNo":"1340618","typeCode":"电网故障停限电","poweroffArea":"【全线路停电】停0629913545-清苑县泰盛物业管理有限公司-专变-141655967-尚层名筑,河北喜谦房地产开发有限公司03-900009274036,0636303126-定州市广泰物业服务有限公司-专变-148226522-公园风景城,尹国旗牛场,保定华北旭阳汽车内饰件有限公司,杨大龙塑料厂,中冉移动通信,老城根路灯,3交通局公用变压器,3交通锅炉公用变压器,3新建胡同1公用,公安局公用变压器,64栋楼公用1,保定兴中汽车配件制造有限公司,3民政局公用变压器,中冉村3号,0723945321-保定碧清房地产开发有限公司-900025649956,中冉中学1,1南四村内18,保定市兴中汽车配件制造有限公司,3育才胡同,河北浩乐永耀房地产开发有限公司02,保定碧清房地产开发有限公司,中冉内17变压器,河北喜谦房地产开发有限公司计量点,土产公用,清中公用,县委武装部2,3外贸公用变压器,米启钢厂,保定市文澜房地产开发有限公司,清苑县城市公园2,0387482547-河北立中有色金属集团有限公司-专变-127718517-河北立中有色金属集团有限公司,64栋楼公用3,河北喜谦房地产开发有限公司02-900009274052,中冉内16变压器,四村内8,3子弟小学公用变压器,保定泽龙房地产开发有限公司,0638730124-公园风景城-专变-148556003-公园风景城,0723945321-保定碧清房地产开发有限公司-900025649869,3人行公用变压器,0723945321-保定碧清房地产开发有限公司-900025649948,0723945321-保定碧清房地产开发有限公司-900025651812,育英小区,0582940998-河北省清苑县清苑中学-专变-124814166-清苑县清苑中学,中冉中学2,河北浩乐永耀房地产开发有限公司01,3建委公用变压器,0638730586-公园风景城-专变-148556168-公园风景城,人行清苑支行,0701213772-河北喜谦房地产开发有限公司01-900009274060,保定市兴顺谦物业管理有限公司,清苑中学,清中路灯,64栋楼公用2,0659996075-国网河北清苑县供电公司-专变-194640213-国网河北清苑县供电公司,中冉中学3,3新建胡同2公用,64栋楼公用4,交通锅炉2,清苑县老秋建材经销处,清苑县城市公园1,中冉外15,中冉内2变压器,1南四村内7变压器,建业楼,老城根公用,河北浩乐永耀房地产开发有限公司,3新华小区公用变压器,土产院,中冉外16,河北立中有色金属集团有限公司,3老城根二期公用,1南四村内3变压器","poweroffReason":"【停电原因】由于主干２０号杆鸟搭线导致１１０ＫＶ赵庄变电站１０ＫＶ北外环线５８７线路全线停电 【变更送电】因抢修进度加快原因，送电时间由１７：００变更为１２：１０ 【发布渠道】通过９５５９８发布","powerTime":"2020-03-13 11:36:07","powerComm":"于国伐通知已送电","subsNo":"","lineNo":"","tgNo":"","tgName":null,"infoStatus":"1","orgName":"国网清苑县供电公司","typeName":null,"infoStatusName":null,"dateDay":null,"orgNos":null,"nowTime":null,"countyName":null,"streetName":null,"villageName":null,"roadName":null,"communityName":null,"tranName":null,"sdLineName":null,"cityCode":"1340618","cityName":"国网清苑县供电公司","provinceCode":null,"stopTime":"2020-03-13 12:10:00","powerType":"全部","powerOffArea":"【全线路停电】停0629913545-清苑县泰盛物业管理有限公司-专变-141655967-尚层名筑,河北喜谦房地产开发有限公司03-900009274036,0636303126-定州市广泰物业服务有限公司-专变-148226522-公园风景城,尹国旗牛场,保定华北旭阳汽车内饰件有限公司,杨大龙塑料厂,中冉移动通信,老城根路灯,3交通局公用变压器,3交通锅炉公用变压器,3新建胡同1公用,公安局公用变压器,64栋楼公用1,保定兴中汽车配件制造有限公司,3民政局公用变压器,中冉村3号,0723945321-保定碧清房地产开发有限公司-900025649956,中冉中学1,1南四村内18,保定市兴中汽车配件制造有限公司,3育才胡同,河北浩乐永耀房地产开发有限公司02,保定碧清房地产开发有限公司,中冉内17变压器,河北喜谦房地产开发有限公司计量点,土产公用,清中公用,县委武装部2,3外贸公用变压器,米启钢厂,保定市文澜房地产开发有限公司,清苑县城市公园2,0387482547-河北立中有色金属集团有限公司-专变-127718517-河北立中有色金属集团有限公司,64栋楼公用3,河北喜谦房地产开发有限公司02-900009274052,中冉内16变压器,四村内8,3子弟小学公用变压器,保定泽龙房地产开发有限公司,0638730124-公园风景城-专变-148556003-公园风景城,0723945321-保定碧清房地产开发有限公司-900025649869,3人行公用变压器,0723945321-保定碧清房地产开发有限公司-900025649948,0723945321-保定碧清房地产开发有限公司-900025651812,育英小区,0582940998-河北省清苑县清苑中学-专变-124814166-清苑县清苑中学,中冉中学2,河北浩乐永耀房地产开发有限公司01,3建委公用变压器,0638730586-公园风景城-专变-148556168-公园风景城,人行清苑支行,0701213772-河北喜谦房地产开发有限公司01-900009274060,保定市兴顺谦物业管理有限公司,清苑中学,清中路灯,64栋楼公用2,0659996075-国网河北清苑县供电公司-专变-194640213-国网河北清苑县供电公司,中冉中学3,3新建胡同2公用,64栋楼公用4,交通锅炉2,清苑县老秋建材经销处,清苑县城市公园1,中冉外15,中冉内2变压器,1南四村内7变压器,建业楼,老城根公用,河北浩乐永耀房地产开发有限公司,3新华小区公用变压器,土产院,中冉外16,河北立中有色金属集团有限公司,3老城根二期公用,1南四村内3变压器","powerOffReason":"【停电原因】由于主干２０号杆鸟搭线导致１１０ＫＶ赵庄变电站１０ＫＶ北外环线５８７线路全线停电 【变更送电】因抢修进度加快原因，送电时间由１７：００变更为１２：１０ 【发布渠道】通过９５５９８发布","powerOffId":"2020031313000061"},{"poweroffId":2020031313000060,"sgpoweroffId":null,"subsName":"","lineName":"10kV515留宿东线","pubTranName":"留宿村公用照明7台区,","scope":"【影响街道/乡镇】李亲顾镇【高危重要客户】无【影响客户】留宿","startTime":"2020-03-24 06:50:00","stopDate":"2020-03-24 18:00:00","orgNo":"1340610","typeCode":"计划停电","poweroffArea":"【分支停电】停留宿村公用照明7台区","poweroffReason":"【停电原因】由于更换拉线导致１１０ＫＶ李亲顾变电站１０ＫＶ５１５留宿东线路留宿照明７台区分支０１号杆３６号隔离开关以下线路停电 【变更送电】无 【发布渠道】河北省定州市定州日报第三版（２０２０年０３月１４日）","powerTime":"2020-03-24 17:44:13","powerComm":"已送电","subsNo":"","lineNo":"","tgNo":"","tgName":null,"infoStatus":"1","orgName":"国网定州市供电公司","typeName":null,"infoStatusName":null,"dateDay":null,"orgNos":null,"nowTime":null,"countyName":null,"streetName":null,"villageName":null,"roadName":null,"communityName":null,"tranName":null,"sdLineName":null,"cityCode":"1340610","cityName":"国网定州市供电公司","provinceCode":null,"stopTime":"2020-03-24 18:00:00","powerType":"全部","powerOffArea":"【分支停电】停留宿村公用照明7台区","powerOffReason":"【停电原因】由于更换拉线导致１１０ＫＶ李亲顾变电站１０ＫＶ５１５留宿东线路留宿照明７台区分支０１号杆３６号隔离开关以下线路停电 【变更送电】无 【发布渠道】河北省定州市定州日报第三版（２０２０年０３月１４日）","powerOffId":"2020031313000060"},{"poweroffId":2020031313000049,"sgpoweroffId":null,"subsName":"","lineName":"黄花滩线557","pubTranName":"涞源县阔宇房地产开发有限公司变压器,国营涞源县白石山林场变压器,涞源县住房和城乡建设局变压器2,519下北头线草厂2,519下北头线十八彦,519下北头线插箭岭1,中国铁塔股份有限公司保定市分公司变压器2,涞源县泰旺畜产品销售农民专业合作社变压器,519下北头线草厂3,涞源县顺平铁矿业有限公司变压器,519下北头线十八堰2,变压器007#,519下北头线草厂1,519下北头线插箭岭2,福建路桥建设有限公司变压器,中国人民解放军61969部队变压器,涞源县炫明畜禽饲养厂变压器,河北龙昂房地产开发有限公司变压器01,涞源站519插箭岭3号台区,519下北头线雀儿林,519下北头线西庄铺2号,涞源县住房和城乡建设局变压器3,涞源县住房和城乡建设局变压器1,国家新闻出版广电总局七八三台变压器,河北龙昂房地产开发有限公司变压器,变压器009#,中国铁塔股份有限公司保定市分公司变压器1,519下北头线南石盆,涞源白石山旅游开发有限公司变压器1,涞源白石山旅游开发有限公司变压器,519下北头线大梁,文华山庄,白石山林场,森林公园,保定中民信诚房地产开发有限公司变压器,涞源县基磊绿化苗木有限公司变压器,61969水,涞源县辛梅农家院变压器,519下北头线西庄铺1,西庄铺3,变压器008#,涞源县福延土地整理有限公司变压器,大草滩2台区,61969部队,插箭岭村王煜虹变压器,保隆矿业2井变,519下北头线大草滩,涞源县翠禾果树种植有限公司变压器,涞源县保隆矿业有限责任公司变压器,河北九宇鸿嘉航空科技发展有限公司变压器,涞源县六郎湾餐饮服务有限公司变压器,519下北头线杨家川,","scope":"【影响街道/乡镇】白石山镇【高危重要客户】无【影响客户】雀儿林、南石盆、十八彦、杨家川、大梁、插箭岭、大草滩、草厂、西庄铺","startTime":"2020-03-13 10:20:00","stopDate":"2020-03-13 12:00:00","orgNo":"1340615","typeCode":"电网故障停限电","poweroffArea":"【分支停电】停519下北头线杨家川,涞源县阔宇房地产开发有限公司变压器,国营涞源县白石山林场变压器,涞源县住房和城乡建设局变压器2,519下北头线草厂2,519下北头线十八彦,519下北头线插箭岭1,中国铁塔股份有限公司保定市分公司变压器2,涞源县泰旺畜产品销售农民专业合作社变压器,519下北头线草厂3,涞源县顺平铁矿业有限公司变压器,519下北头线十八堰2,变压器007#,519下北头线草厂1,519下北头线插箭岭2,福建路桥建设有限公司变压器,中国人民解放军61969部队变压器,涞源县炫明畜禽饲养厂变压器,河北龙昂房地产开发有限公司变压器01,涞源站519插箭岭3号台区,519下北头线雀儿林,519下北头线西庄铺2号,涞源县住房和城乡建设局变压器3,涞源县住房和城乡建设局变压器1,国家新闻出版广电总局七八三台变压器,河北龙昂房地产开发有限公司变压器,变压器009#,中国铁塔股份有限公司保定市分公司变压器1,519下北头线南石盆,涞源白石山旅游开发有限公司变压器1,涞源白石山旅游开发有限公司变压器,519下北头线大梁,文华山庄,白石山林场,森林公园,保定中民信诚房地产开发有限公司变压器,涞源县基磊绿化苗木有限公司变压器,61969水,涞源县辛梅农家院变压器,519下北头线西庄铺1,西庄铺3,变压器008#,涞源县福延土地整理有限公司变压器,大草滩2台区,61969部队,插箭岭村王煜虹变压器,保隆矿业2井变,519下北头线大草滩,涞源县翠禾果树种植有限公司变压器,涞源县保隆矿业有限责任公司变压器,河北九宇鸿嘉航空科技发展有限公司变压器,涞源县六郎湾餐饮服务有限公司变压器","poweroffReason":"【停电原因】由于３０号杆Ｔ接引线断线导致３５ＫＶ插箭岭变电站１０ＫＶ黄花滩线５５７线路１１号杆隔离开关以下线路停电【变更送电】因抢修进度加快，原定１５：００送电现计划１２：００送电【发布渠道】通过９５５９８发布","powerTime":"2020-03-13 11:23:37","powerComm":"已送电","subsNo":"","lineNo":"","tgNo":"","tgName":null,"infoStatus":"1","orgName":"国网涞源县供电公司","typeName":null,"infoStatusName":null,"dateDay":null,"orgNos":null,"nowTime":null,"countyName":null,"streetName":null,"villageName":null,"roadName":null,"communityName":null,"tranName":null,"sdLineName":null,"cityCode":"1340615","cityName":"国网涞源县供电公司","provinceCode":null,"stopTime":"2020-03-13 12:00:00","powerType":"全部","powerOffArea":"【分支停电】停519下北头线杨家川,涞源县阔宇房地产开发有限公司变压器,国营涞源县白石山林场变压器,涞源县住房和城乡建设局变压器2,519下北头线草厂2,519下北头线十八彦,519下北头线插箭岭1,中国铁塔股份有限公司保定市分公司变压器2,涞源县泰旺畜产品销售农民专业合作社变压器,519下北头线草厂3,涞源县顺平铁矿业有限公司变压器,519下北头线十八堰2,变压器007#,519下北头线草厂1,519下北头线插箭岭2,福建路桥建设有限公司变压器,中国人民解放军61969部队变压器,涞源县炫明畜禽饲养厂变压器,河北龙昂房地产开发有限公司变压器01,涞源站519插箭岭3号台区,519下北头线雀儿林,519下北头线西庄铺2号,涞源县住房和城乡建设局变压器3,涞源县住房和城乡建设局变压器1,国家新闻出版广电总局七八三台变压器,河北龙昂房地产开发有限公司变压器,变压器009#,中国铁塔股份有限公司保定市分公司变压器1,519下北头线南石盆,涞源白石山旅游开发有限公司变压器1,涞源白石山旅游开发有限公司变压器,519下北头线大梁,文华山庄,白石山林场,森林公园,保定中民信诚房地产开发有限公司变压器,涞源县基磊绿化苗木有限公司变压器,61969水,涞源县辛梅农家院变压器,519下北头线西庄铺1,西庄铺3,变压器008#,涞源县福延土地整理有限公司变压器,大草滩2台区,61969部队,插箭岭村王煜虹变压器,保隆矿业2井变,519下北头线大草滩,涞源县翠禾果树种植有限公司变压器,涞源县保隆矿业有限责任公司变压器,河北九宇鸿嘉航空科技发展有限公司变压器,涞源县六郎湾餐饮服务有限公司变压器","powerOffReason":"【停电原因】由于３０号杆Ｔ接引线断线导致３５ＫＶ插箭岭变电站１０ＫＶ黄花滩线５５７线路１１号杆隔离开关以下线路停电【变更送电】因抢修进度加快，原定１５：００送电现计划１２：００送电【发布渠道】通过９５５９８发布","powerOffId":"2020031313000049"},{"poweroffId":2020031313000005,"sgpoweroffId":null,"subsName":"","lineName":"10KV人民广场518","pubTranName":"广场511公用3841,","scope":"【影响街道/乡镇】徐里营城区 【高危重要客户】无 【影响客户】名流３号楼","startTime":"2020-03-13 09:03:25","stopDate":"2020-03-13 15:20:00","orgNo":"1340626","typeCode":"电网故障停限电","poweroffArea":"【单台区停电】停广场511公用3841","poweroffReason":"【停电原因】由于低压空开烧毁导致１１０ＫＶ塔上变电站１０ＫＶ人民广场５１８线路广场５１１公用３８４１公变台区停电 【变更送电】因抢修进度加快原因，送电时间由２２：００变更为１５：２０ 【发布渠道】通过９５５９８发布","powerTime":"2020-03-13 15:02:18","powerComm":"恢复送电","subsNo":"","lineNo":"","tgNo":"","tgName":null,"infoStatus":"1","orgName":"国网涿州市供电公司","typeName":null,"infoStatusName":null,"dateDay":null,"orgNos":null,"nowTime":null,"countyName":null,"streetName":null,"villageName":null,"roadName":null,"communityName":null,"tranName":null,"sdLineName":null,"cityCode":"1340626","cityName":"国网涿州市供电公司","provinceCode":null,"stopTime":"2020-03-13 15:20:00","powerType":"全部","powerOffArea":"【单台区停电】停广场511公用3841","powerOffReason":"【停电原因】由于低压空开烧毁导致１１０ＫＶ塔上变电站１０ＫＶ人民广场５１８线路广场５１１公用３８４１公变台区停电 【变更送电】因抢修进度加快原因，送电时间由２２：００变更为１５：２０ 【发布渠道】通过９５５９８发布","powerOffId":"2020031313000005"}],"pageModel":{"pageNow":271,"totalCount":10973,"totalPage":1098,"tableRows":0,"pageCount":10,"beginCount":2700},"isExperi":"1"}