{"message":"","today":"2020-06-15","seleList":[{"poweroffId":2020031113000178,"sgpoweroffId":null,"subsName":"","lineName":"10kV568体品园线","pubTranName":"大奇连公用照明7台区,客户投资_大奇连公用照明3台区,","scope":"【影响街道/乡镇】西城区【高危重要客户】无【影响客户】大奇连","startTime":"2020-03-12 01:00:00","stopDate":"2020-03-12 05:00:00","orgNo":"1340610","typeCode":"其他临时停电","poweroffArea":"【全线路停电】停大奇连公用照明7台区,客户投资_大奇连公用照明3台区","poweroffReason":"【停电原因】由于主干０号杆弓子线打火需停电进行紧急检修导致１１０ＫＶ焦化厂变电站１０ＫＶ５６８体品园线路全线停电 【变更送电】无 【发布渠道】９５５９８","powerTime":"2020-03-12 04:09:50","powerComm":"已送电","subsNo":"","lineNo":"","tgNo":"","tgName":null,"infoStatus":"1","orgName":"国网定州市供电公司","typeName":null,"infoStatusName":null,"dateDay":null,"orgNos":null,"nowTime":null,"countyName":null,"streetName":null,"villageName":null,"roadName":null,"communityName":null,"tranName":null,"sdLineName":null,"cityCode":"1340610","cityName":"国网定州市供电公司","provinceCode":null,"stopTime":"2020-03-12 05:00:00","powerType":"全部","powerOffArea":"【全线路停电】停大奇连公用照明7台区,客户投资_大奇连公用照明3台区","powerOffReason":"【停电原因】由于主干０号杆弓子线打火需停电进行紧急检修导致１１０ＫＶ焦化厂变电站１０ＫＶ５６８体品园线路全线停电 【变更送电】无 【发布渠道】９５５９８","powerOffId":"2020031113000178"},{"poweroffId":2020031113000176,"sgpoweroffId":null,"subsName":"","lineName":"10kV583中天线","pubTranName":"支白土公用照明1台区,河北中天房地产开发集团有限公司中天新郡照明变压器1,河北中天房地产开发集团有限公司中天新郡照明变压器3,支白土公用照明2台区,河北中天房地产开发集团有限公司中天新郡照明变压器2,","scope":"【影响街道/乡镇】西城区【高危重要客户】无【影响客户】支白土、中天新郡小区","startTime":"2020-03-12 01:00:00","stopDate":"2020-03-12 05:00:00","orgNo":"1340610","typeCode":"其他临时停电","poweroffArea":"【全线路停电】停支白土公用照明1台区,河北中天房地产开发集团有限公司中天新郡照明变压器1,河北中天房地产开发集团有限公司中天新郡照明变压器3,支白土公用照明2台区,河北中天房地产开发集团有限公司中天新郡照明变压器2","poweroffReason":"【停电原因】由于主干０号杆弓子线打火需停电进行紧急检修导致１１０ＫＶ焦化厂变电站１０ＫＶ５８３中天线路全线停电 【变更送电】无 【发布渠道】９５５９８","powerTime":"2020-03-12 04:10:07","powerComm":"已送电","subsNo":"","lineNo":"","tgNo":"","tgName":null,"infoStatus":"1","orgName":"国网定州市供电公司","typeName":null,"infoStatusName":null,"dateDay":null,"orgNos":null,"nowTime":null,"countyName":null,"streetName":null,"villageName":null,"roadName":null,"communityName":null,"tranName":null,"sdLineName":null,"cityCode":"1340610","cityName":"国网定州市供电公司","provinceCode":null,"stopTime":"2020-03-12 05:00:00","powerType":"全部","powerOffArea":"【全线路停电】停支白土公用照明1台区,河北中天房地产开发集团有限公司中天新郡照明变压器1,河北中天房地产开发集团有限公司中天新郡照明变压器3,支白土公用照明2台区,河北中天房地产开发集团有限公司中天新郡照明变压器2","powerOffReason":"【停电原因】由于主干０号杆弓子线打火需停电进行紧急检修导致１１０ＫＶ焦化厂变电站１０ＫＶ５８３中天线路全线停电 【变更送电】无 【发布渠道】９５５９８","powerOffId":"2020031113000176"},{"poweroffId":2020031113000160,"sgpoweroffId":null,"subsName":"","lineName":"10kV514花园头线","pubTranName":"花园头农排4台区【纯农排变】,花园头综合1台区,（李岗）张七农排4台区【纯农排变】,花园头综合9台区,花园头农排9台区【纯农排变】,花园头农排2台区【纯农排变】,花园头综合5台区,花园头农排10台区【纯农排变】,张七农排2台区【纯农排变】,花园头农排6台区【纯农排变】,张七综合3台区,张七综合5台区,张七综合1台区,花园头综合3台区,张七综合4台区,张七综合2台区,花园头农排5台区【纯农排变】,张七农排3台区【纯农排变】,花园头综合10台区变压器,花园头农排8台区【纯农排变】,张七农排6台区【纯农排变】,花园头综合2台区,花园头农排1台区【纯农排变】,花园头综合7台区,张七农排7台区【纯农排变】,花园头综合6台区,花园头综合4台区,花园头综合8台区,","scope":"【影响街道/乡镇】北埝头乡【高危重要客户】无【影响客户】花园头村、张七村、贾庄村","startTime":"2020-03-20 09:00:00","stopDate":"2020-03-20 16:30:00","orgNo":"1340616","typeCode":"计划停电","poweroffArea":"【全线路停电】停花园头综合1台区,张七农排7台区【纯农排变】,张七农排1台区【纯农排变】,张七国顺,花园头综合5台区,花园头农排9台区【纯农排变】,蠡县美缘日化有限公司,贾庄小周,张七农排6台区【纯农排变】,花园头综合8台区,张七综合4台区,花园头农排4台区【纯农排变】,蠡县华业精细化工有限公司,花园头综合7台区,张七农排5台区【纯农排变】,花园头综合2台区,花园头农排2台区【纯农排变】,张七农排3台区【纯农排变】,（李岗）张七农排4台区【纯农排变】,花园头综合10台区变压器,花园头农排5台区【纯农排变】,花园头农排1台区【纯农排变】,花园头西南,花园头综合9台区,陈鹏飞,李西农排13台区【纯农排变】,花园头大篷,花园头东农,花园头砖厂,花园头综合3台区,花园头农排8台区【纯农排变】,张七综合3台区,花园头农排10台区【纯农排变】,蠡县冀中华联精细化工有限公司,花园头西北,张七综合2台区,花园头农排3台区【纯农排变】,贾庄农排2台区【纯农排变】,张七农排2台区【纯农排变】,花园头综合4台区,张七综合1台区,花园头综合6台区,贾庄农排1台区【纯农排变】,蠡县灵汉绳带有限公司,张七综合5台区,花园头农排6台区【纯农排变】","poweroffReason":"【停电原因】由于２号主变更换刀闸导致３５ＫＶ李岗变电站１０ＫＶ花园头５１４线路全线停电【变更送电】无【发布渠道】河北省保定市蠡县电视台（０３月１１日至０３月１９日２０：００至２２：００之间）","powerTime":"2020-03-20 16:13:02","powerComm":"已送电","subsNo":"","lineNo":"","tgNo":"","tgName":null,"infoStatus":"1","orgName":"国网蠡县供电公司","typeName":null,"infoStatusName":null,"dateDay":null,"orgNos":null,"nowTime":null,"countyName":null,"streetName":null,"villageName":null,"roadName":null,"communityName":null,"tranName":null,"sdLineName":null,"cityCode":"1340616","cityName":"国网蠡县供电公司","provinceCode":null,"stopTime":"2020-03-20 16:30:00","powerType":"全部","powerOffArea":"【全线路停电】停花园头综合1台区,张七农排7台区【纯农排变】,张七农排1台区【纯农排变】,张七国顺,花园头综合5台区,花园头农排9台区【纯农排变】,蠡县美缘日化有限公司,贾庄小周,张七农排6台区【纯农排变】,花园头综合8台区,张七综合4台区,花园头农排4台区【纯农排变】,蠡县华业精细化工有限公司,花园头综合7台区,张七农排5台区【纯农排变】,花园头综合2台区,花园头农排2台区【纯农排变】,张七农排3台区【纯农排变】,（李岗）张七农排4台区【纯农排变】,花园头综合10台区变压器,花园头农排5台区【纯农排变】,花园头农排1台区【纯农排变】,花园头西南,花园头综合9台区,陈鹏飞,李西农排13台区【纯农排变】,花园头大篷,花园头东农,花园头砖厂,花园头综合3台区,花园头农排8台区【纯农排变】,张七综合3台区,花园头农排10台区【纯农排变】,蠡县冀中华联精细化工有限公司,花园头西北,张七综合2台区,花园头农排3台区【纯农排变】,贾庄农排2台区【纯农排变】,张七农排2台区【纯农排变】,花园头综合4台区,张七综合1台区,花园头综合6台区,贾庄农排1台区【纯农排变】,蠡县灵汉绳带有限公司,张七综合5台区,花园头农排6台区【纯农排变】","powerOffReason":"【停电原因】由于２号主变更换刀闸导致３５ＫＶ李岗变电站１０ＫＶ花园头５１４线路全线停电【变更送电】无【发布渠道】河北省保定市蠡县电视台（０３月１１日至０３月１９日２０：００至２２：００之间）","powerOffId":"2020031113000160"},{"poweroffId":2020031113000159,"sgpoweroffId":null,"subsName":"","lineName":"10kV516三李岗线","pubTranName":"李南农排3台区【纯农排变】,花园头农排7台区。【纯农排变】,李南农排1台区【纯农排变】,贾庄综合4台区。,花园头综合12台区变压器,李南综合4台区,李南综合2台区,李南农排14台区【纯农排变】,李南综合3台区,李南农排13台区【纯农排变】,贾庄综合1台区,李南综合5台区,李南农排11台区【纯农排变】,李南综合6台区,李南综合1台区,贾庄综合2台区,李南农排2台区【纯农排变】,贾庄综合3台区。,李西农排1台区。【纯农排变】,李南农排8台区【纯农排变】,李南农排5台区【纯农排变】,李南农排4台区【纯农排变】,李南农排12台区【纯农排变】,李南农排10台区【纯农排变】,","scope":"【影响街道/乡镇】北埝头乡【高危重要客户】无【影响客户】李南村、贾庄村、李西、李岗村","startTime":"2020-03-20 09:00:00","stopDate":"2020-03-20 16:30:00","orgNo":"1340616","typeCode":"计划停电","poweroffArea":"【全线路停电】停李南农排14台区【纯农排变】,李南农排3台区【纯农排变】,李南砖厂,李南农排8台区【纯农排变】,李南农排2台区【纯农排变】,李南农用,李南农排12台区【纯农排变】,李南农排7台区【纯农排变】,李南综合1台区,李南农排10台区【纯农排变】,李南建彬,李南综合3台区,李岗站变,李南农排5台区【纯农排变】,李南农排9台区【纯农排变】,李南农排4台区【纯农排变】,李南综合6台区,贾庄综合2台区,李南农排13台区【纯农排变】,贾庄综合1台区,李南农排11台区【纯农排变】,贾庄综合3台区。,李南综合4台区,李西农排1台区。【纯农排变】,李南综合2台区,李南农排6台区【纯农排变】,花园头农排7台区。【纯农排变】,天和人家小区,蠡县兴业汽车装饰用品厂变压器,蠡县圣之垣物业服务有限公司,李南农排1台区【纯农排变】,李南综合5台区,花园头综合12台区变压器,贾庄综合4台区。","poweroffReason":"【停电原因】由于２号主变更换刀闸导致３５ＫＶ李岗变电站１０ＫＶ三李岗５１６线路全线停电【变更送电】无【发布渠道】河北省保定市蠡县电视台（０３月１１日至０３月１９日２０：００至２２：００之间）","powerTime":"2020-03-20 16:13:26","powerComm":"已送电","subsNo":"","lineNo":"","tgNo":"","tgName":null,"infoStatus":"1","orgName":"国网蠡县供电公司","typeName":null,"infoStatusName":null,"dateDay":null,"orgNos":null,"nowTime":null,"countyName":null,"streetName":null,"villageName":null,"roadName":null,"communityName":null,"tranName":null,"sdLineName":null,"cityCode":"1340616","cityName":"国网蠡县供电公司","provinceCode":null,"stopTime":"2020-03-20 16:30:00","powerType":"全部","powerOffArea":"【全线路停电】停李南农排14台区【纯农排变】,李南农排3台区【纯农排变】,李南砖厂,李南农排8台区【纯农排变】,李南农排2台区【纯农排变】,李南农用,李南农排12台区【纯农排变】,李南农排7台区【纯农排变】,李南综合1台区,李南农排10台区【纯农排变】,李南建彬,李南综合3台区,李岗站变,李南农排5台区【纯农排变】,李南农排9台区【纯农排变】,李南农排4台区【纯农排变】,李南综合6台区,贾庄综合2台区,李南农排13台区【纯农排变】,贾庄综合1台区,李南农排11台区【纯农排变】,贾庄综合3台区。,李南综合4台区,李西农排1台区。【纯农排变】,李南综合2台区,李南农排6台区【纯农排变】,花园头农排7台区。【纯农排变】,天和人家小区,蠡县兴业汽车装饰用品厂变压器,蠡县圣之垣物业服务有限公司,李南农排1台区【纯农排变】,李南综合5台区,花园头综合12台区变压器,贾庄综合4台区。","powerOffReason":"【停电原因】由于２号主变更换刀闸导致３５ＫＶ李岗变电站１０ＫＶ三李岗５１６线路全线停电【变更送电】无【发布渠道】河北省保定市蠡县电视台（０３月１１日至０３月１９日２０：００至２２：００之间）","powerOffId":"2020031113000159"},{"poweroffId":2020031113000078,"sgpoweroffId":null,"subsName":"","lineName":"10kV营头线511","pubTranName":"北营头内5,南营头内1,1韦各庄内16,2南营头外12【纯农排变】,南营头内7,北营头内3,韦各庄内8,1南营头内15,韦各庄内13,2韦各庄外5,南营头内8,北营头内2,2韦各庄外18,2韦各庄外17,韦各庄内6,韦各庄内17,北营头内10变压器,北营头内8,草桥外18【纯农排变】,南营头内13,1北营头内11,北营头内1,韦各庄内12,1韦各庄内19,南营头外2【纯农排变】,韦各庄内2,南营头内3,韦各庄小学1,南营头内11,北营头内6,韦各庄小学2,史庄外3【纯农排变】,2韦各庄外14,南营头内10,南营头内2,南营头内4,1韦各庄内18,庞庄外1【纯农排变】,1南营头内14,韦各庄内9,南营头内12,北营头内7,1南营头内5,韦各庄内7,南营头内6,2韦各庄外16,韦各庄内11,韦各庄内14,2南营头外13【纯农排变】,南营头小学,韦各庄内1,韦各庄内10,2韦各庄外6,南营头外3【纯农排变】,1韦各庄内4,1韦各庄内15,2韦各庄外10,北营头小学,2韦各庄外9,北营头内4,韦各庄内3,北营头内9,南营头外1【纯农排变】,韦各庄内5,","scope":"【影响街道/乡镇】东吕乡、大庄乡 【高危重要客户】无 【影响客户】南营头、北营头、韦各庄、史庄、庞庄","startTime":"2020-03-11 13:11:45","stopDate":"2020-03-11 17:00:00","orgNo":"1340618","typeCode":"电网故障停限电","poweroffArea":"【全线路停电】停北营头内5,清苑县伟峰金属精密铸造有限公司01,南营头内1,保定市锦源纺织厂,1韦各庄内16,2韦各庄外11,南营头刘老白,北营头鲁立新织布厂,南营头内7,清苑县伟峰金属精密铸造有限公司,南营头孟利恒织布厂,马明,南营头外20【纯农排变】,南营头外4【纯农排变】,2南营头外12【纯农排变】,北营头内3,南营头外10【纯农排变】,南营头李堂纺织2,韦各庄内8,北营头外1【纯农排变】,2韦各庄外7,韦各庄内13,2韦各庄外5,北营头外5【纯农排变】,2韦各庄外17,韦各庄村委会01,保定市金谷粮食收购有限公司,韦各庄内6,北营头鲁四顺砖厂,草桥外18【纯农排变】,1北营头内11,北营头内1,0387493046-小东村五号分箱-专变-45315410-小东村内5,北营头刘正月织布厂,韦各庄村委会,小东村杨贵田砖厂,1南营头内15,南营头内8,北营头外3【纯农排变】,北营头内2,2韦各庄外18,韦各庄内17,2韦各庄外15,北营头内10变压器,北营头内8,保定百奕隆纺织有限公司01,清苑县韦各庄福申肉牛养殖场,南营头内13,北营头个体,南营头外8【纯农排变】,北营头外6【纯农排变】,韦各庄内12,1韦各庄内19,清苑县韦各庄丁丁冲庄加工厂,南营头外18【纯农排变】,南营头外2【纯农排变】,韦各庄内2,南营头内3,韦各庄小学1,国网清苑县供电公司,2韦各庄外14,韦各庄内9,南营头外11【纯农排变】,南营头孟庆军纺织厂,韦各庄外2【纯农排变】,保定力拓纺织有限公司03,南营头内9,韦各庄马少华2,北营头李东发织布厂,保定恒美纺织有限公司,北营头锅厂,1南营头内5,韦各庄内7,南营头内6,2韦各庄外16,韦各庄内11,南营头外17【纯农排变】,南营头内11,北营头内6,韦各庄小学2,史庄外3【纯农排变】,南营头内10,南营头内2,南营头内4,1韦各庄内18,庞庄外1【纯农排变】,1南营头内14,0609119501-保定市德高纺织厂-专变-127559239-清苑县梦娇纺织厂,草桥外17【纯农排变】,韦各庄外1【纯农排变】,2韦各庄外4【纯农排变】,2韦各庄外19,韦各庄外3【纯农排变】,南营头内12,南营头外5【纯农排变】,南营头外9【纯农排变】,2韦各庄外12,北营头内7,南营头外19【纯农排变】,北营头外8【纯农排变】,南营头刘军良纺织,北营头外4【纯农排变】,保定建烨纺织有限公司01,南营头孟进分箱,北营头孙跃更纺织,韦各庄刘小军焊厂,胡寅喜,保定鑫硕纺织有限公司,南营头刘大庄养殖场,南营头胡怀松,2南营头外13【纯农排变】,南营头孟根山养殖场,南营头小学,清苑县东益达棉织厂,南营头外14【纯农排变】,韦各庄内1,清苑县友联针棉织有限公司01,保定市天蓝龙商贸有限公司,保定力拓纺织有限公司01,南营头吴仁子,营头供电所,保定建烨纺织有限公司,2韦各庄外6,南营头外15【纯农排变】,南营头外3【纯农排变】,0387490803-南营头果园-专变-45315105-南营头果园,保定市杰超棉纺织厂,1韦各庄内15,保定力拓纺织有限公司,南营头外6【纯农排变】,南营头外16【纯农排变】,南营头刘文柱纺织,2韦各庄外10,北营头李喜路,北营头小学,南营头李虎,韦各庄翟俊生2,保定建烨纺织有限公司02,保定奥斯莉纺织有限公司,保定市清苑县新兴棉织厂,韦各庄内14,北营头外2【纯农排变】,南营头李俊勇织布厂,吴更需,韦各庄内10,0387491688-南营头吴仁子-专变-228778587-南营头吴仁子2,1韦各庄内4,2韦各庄外13,保定市三帆纺织厂,2韦各庄外9,南营头吴仁子3,2韦各庄外8,南营头陈立更纺织,保定百奕隆纺织有限公司,北营头内4,北营头李跃进,南营头外7【纯农排变】,韦各庄内3,南营头梁山,小东村李庆林,河北省清苑县兴元焊接器材厂,北营头内9,南营头外1【纯农排变】,清苑县","poweroffReason":"【停电原因】由于主干１３号杆西Ｔ６８号杆南Ｔ７号杆支瓶绑线脱落导致３５ＫＶ营头变电站１０ＫＶ营头线５１１线路全线停电 【变更送电】因抢修进度加快原因，送电时间由１９：００变更为１７：００ 【发布渠道】通过９５５９８发布","powerTime":"2020-03-11 16:25:53","powerComm":"何立国通知已送电","subsNo":"","lineNo":"","tgNo":"","tgName":null,"infoStatus":"1","orgName":"国网清苑县供电公司","typeName":null,"infoStatusName":null,"dateDay":null,"orgNos":null,"nowTime":null,"countyName":null,"streetName":null,"villageName":null,"roadName":null,"communityName":null,"tranName":null,"sdLineName":null,"cityCode":"1340618","cityName":"国网清苑县供电公司","provinceCode":null,"stopTime":"2020-03-11 17:00:00","powerType":"全部","powerOffArea":"【全线路停电】停北营头内5,清苑县伟峰金属精密铸造有限公司01,南营头内1,保定市锦源纺织厂,1韦各庄内16,2韦各庄外11,南营头刘老白,北营头鲁立新织布厂,南营头内7,清苑县伟峰金属精密铸造有限公司,南营头孟利恒织布厂,马明,南营头外20【纯农排变】,南营头外4【纯农排变】,2南营头外12【纯农排变】,北营头内3,南营头外10【纯农排变】,南营头李堂纺织2,韦各庄内8,北营头外1【纯农排变】,2韦各庄外7,韦各庄内13,2韦各庄外5,北营头外5【纯农排变】,2韦各庄外17,韦各庄村委会01,保定市金谷粮食收购有限公司,韦各庄内6,北营头鲁四顺砖厂,草桥外18【纯农排变】,1北营头内11,北营头内1,0387493046-小东村五号分箱-专变-45315410-小东村内5,北营头刘正月织布厂,韦各庄村委会,小东村杨贵田砖厂,1南营头内15,南营头内8,北营头外3【纯农排变】,北营头内2,2韦各庄外18,韦各庄内17,2韦各庄外15,北营头内10变压器,北营头内8,保定百奕隆纺织有限公司01,清苑县韦各庄福申肉牛养殖场,南营头内13,北营头个体,南营头外8【纯农排变】,北营头外6【纯农排变】,韦各庄内12,1韦各庄内19,清苑县韦各庄丁丁冲庄加工厂,南营头外18【纯农排变】,南营头外2【纯农排变】,韦各庄内2,南营头内3,韦各庄小学1,国网清苑县供电公司,2韦各庄外14,韦各庄内9,南营头外11【纯农排变】,南营头孟庆军纺织厂,韦各庄外2【纯农排变】,保定力拓纺织有限公司03,南营头内9,韦各庄马少华2,北营头李东发织布厂,保定恒美纺织有限公司,北营头锅厂,1南营头内5,韦各庄内7,南营头内6,2韦各庄外16,韦各庄内11,南营头外17【纯农排变】,南营头内11,北营头内6,韦各庄小学2,史庄外3【纯农排变】,南营头内10,南营头内2,南营头内4,1韦各庄内18,庞庄外1【纯农排变】,1南营头内14,0609119501-保定市德高纺织厂-专变-127559239-清苑县梦娇纺织厂,草桥外17【纯农排变】,韦各庄外1【纯农排变】,2韦各庄外4【纯农排变】,2韦各庄外19,韦各庄外3【纯农排变】,南营头内12,南营头外5【纯农排变】,南营头外9【纯农排变】,2韦各庄外12,北营头内7,南营头外19【纯农排变】,北营头外8【纯农排变】,南营头刘军良纺织,北营头外4【纯农排变】,保定建烨纺织有限公司01,南营头孟进分箱,北营头孙跃更纺织,韦各庄刘小军焊厂,胡寅喜,保定鑫硕纺织有限公司,南营头刘大庄养殖场,南营头胡怀松,2南营头外13【纯农排变】,南营头孟根山养殖场,南营头小学,清苑县东益达棉织厂,南营头外14【纯农排变】,韦各庄内1,清苑县友联针棉织有限公司01,保定市天蓝龙商贸有限公司,保定力拓纺织有限公司01,南营头吴仁子,营头供电所,保定建烨纺织有限公司,2韦各庄外6,南营头外15【纯农排变】,南营头外3【纯农排变】,0387490803-南营头果园-专变-45315105-南营头果园,保定市杰超棉纺织厂,1韦各庄内15,保定力拓纺织有限公司,南营头外6【纯农排变】,南营头外16【纯农排变】,南营头刘文柱纺织,2韦各庄外10,北营头李喜路,北营头小学,南营头李虎,韦各庄翟俊生2,保定建烨纺织有限公司02,保定奥斯莉纺织有限公司,保定市清苑县新兴棉织厂,韦各庄内14,北营头外2【纯农排变】,南营头李俊勇织布厂,吴更需,韦各庄内10,0387491688-南营头吴仁子-专变-228778587-南营头吴仁子2,1韦各庄内4,2韦各庄外13,保定市三帆纺织厂,2韦各庄外9,南营头吴仁子3,2韦各庄外8,南营头陈立更纺织,保定百奕隆纺织有限公司,北营头内4,北营头李跃进,南营头外7【纯农排变】,韦各庄内3,南营头梁山,小东村李庆林,河北省清苑县兴元焊接器材厂,北营头内9,南营头外1【纯农排变】,清苑县","powerOffReason":"【停电原因】由于主干１３号杆西Ｔ６８号杆南Ｔ７号杆支瓶绑线脱落导致３５ＫＶ营头变电站１０ＫＶ营头线５１１线路全线停电 【变更送电】因抢修进度加快原因，送电时间由１９：００变更为１７：００ 【发布渠道】通过９５５９８发布","powerOffId":"2020031113000078"},{"poweroffId":2020031113000074,"sgpoweroffId":null,"subsName":"","lineName":"张祖庄线512","pubTranName":"张祖庄光4,铺头光2|07095123035,新西王光5,西王光2|07095123046,北王排3【纯农排变】,太平庄排8【纯农排变】,西王光1|07095123001,南王光4,铺头光10,南王光3,北王光2|07095123047,北王光1|07095123008,新张祖庄光7,太平庄光5,太平庄排7【纯农排变】,铺头光11,新南王光2,铺头光8,太平庄光2,西王光4,张祖庄光5【2018年重过载】,南王光1|07095123008,太平庄光1|07095123029,张祖庄光10,新铺头光6【2018年一批应急】,太平庄,铺头光3|07095123036,张祖庄排1-2【纯农排变】,新张祖庄光6,新杨各庄光4【煤改电】,铺头光7|201006006,西王光3,张祖庄光9,太平庄排6【纯农排变】,太平庄排9【纯农排变】,南王光5,新张祖庄光3,张祖庄光8,新张祖庄光1,张祖庄光2,","scope":"【影响街道/乡镇】天宫寺乡 【高危重要客户】无 【影响客户】太平庄、张祖庄、铺头、南王、北王、西王、杨各庄、王英俊饲料厂、亦兴玻璃加工厂","startTime":"2020-03-11 13:05:00","stopDate":"2020-03-11 18:00:00","orgNo":"1340609","typeCode":"电网故障停限电","poweroffArea":"【全线路停电】停太平庄排8【纯农排变】,张祖庄排1-2【纯农排变】,鑫创饲养场-200,*金润纺织印染有限公司,太平庄排6【纯农排变】,北王排1|07095123006【纯农排变】,张祖庄排6【纯农排变】,铺头光2|07095123035,杨各庄排2【纯农排变】,新张祖庄光1,南王排1|07095123009【纯农排变】,杨各庄排4【纯农排变】,太平庄排3【纯农排变】,铺头光11,太平庄排7【纯农排变】,太平庄光4,太平庄排9【纯农排变】,铺头排5【纯农排变】,西王光2|07095123046,张祖庄光8,*王英俊饲料厂,太平庄排2【纯农排变】,北王排3【纯农排变】,铺头面粉厂,100,张祖庄排8【纯农排变】,亦兴玻璃加工厂-250,张祖庄光9,杨各庄排3|07095123032【纯农排变】,太平庄光2,张祖庄排9【纯农排变】,北王光1|07095123008,南王光5,张祖庄光4,新张祖庄光6,西王幼儿园,西王光3,西王光1|07095123001,南王排2|07095123010【纯农排变】,铺头光3|07095123036,太平庄排1【纯农排变】,新张祖庄光3,张祖庄光5【2018年重过载】,北王排2|07095123007【纯农排变】,*张祖庄移动机站,0680522638-河北圣沃农业开发有限公司-专变-221298166-河北圣沃-250,新铺头光6【2018年一批应急】,张祖庄光2,新杨各庄光4【煤改电】,铺头光1,西王排1【纯农排变】,铺头光7|201006006,新西王光5,新张祖庄光7,南王光3,杨各庄排1|07095123031)【纯农排变】,南王光4,张祖庄混4,南王光1|07095123008,太平庄排4【纯农排变】,南王排3|07095123011【纯农排变】,铺头光10,新南王光2,铺头光8,太平庄,0696769801-定兴县张祖庄小学-专变-240815746-受坊小学,西王光4,太平庄光1|07095123029,张祖庄光10,北王光2|07095123047,太平庄排5|07095123044【纯农排变】,太平庄光5","poweroffReason":"【停电原因】由于张祖庄排４引线断线导致３５ＫＶ辛保庄变电站张祖庄线５１２线路全线停电 【变更送电】无 【发布渠道】通过９５５９８发布","powerTime":"2020-03-11 17:08:09","powerComm":"已送电","subsNo":"","lineNo":"","tgNo":"","tgName":null,"infoStatus":"1","orgName":"国网定兴县供电公司","typeName":null,"infoStatusName":null,"dateDay":null,"orgNos":null,"nowTime":null,"countyName":null,"streetName":null,"villageName":null,"roadName":null,"communityName":null,"tranName":null,"sdLineName":null,"cityCode":"1340609","cityName":"国网定兴县供电公司","provinceCode":null,"stopTime":"2020-03-11 18:00:00","powerType":"全部","powerOffArea":"【全线路停电】停太平庄排8【纯农排变】,张祖庄排1-2【纯农排变】,鑫创饲养场-200,*金润纺织印染有限公司,太平庄排6【纯农排变】,北王排1|07095123006【纯农排变】,张祖庄排6【纯农排变】,铺头光2|07095123035,杨各庄排2【纯农排变】,新张祖庄光1,南王排1|07095123009【纯农排变】,杨各庄排4【纯农排变】,太平庄排3【纯农排变】,铺头光11,太平庄排7【纯农排变】,太平庄光4,太平庄排9【纯农排变】,铺头排5【纯农排变】,西王光2|07095123046,张祖庄光8,*王英俊饲料厂,太平庄排2【纯农排变】,北王排3【纯农排变】,铺头面粉厂,100,张祖庄排8【纯农排变】,亦兴玻璃加工厂-250,张祖庄光9,杨各庄排3|07095123032【纯农排变】,太平庄光2,张祖庄排9【纯农排变】,北王光1|07095123008,南王光5,张祖庄光4,新张祖庄光6,西王幼儿园,西王光3,西王光1|07095123001,南王排2|07095123010【纯农排变】,铺头光3|07095123036,太平庄排1【纯农排变】,新张祖庄光3,张祖庄光5【2018年重过载】,北王排2|07095123007【纯农排变】,*张祖庄移动机站,0680522638-河北圣沃农业开发有限公司-专变-221298166-河北圣沃-250,新铺头光6【2018年一批应急】,张祖庄光2,新杨各庄光4【煤改电】,铺头光1,西王排1【纯农排变】,铺头光7|201006006,新西王光5,新张祖庄光7,南王光3,杨各庄排1|07095123031)【纯农排变】,南王光4,张祖庄混4,南王光1|07095123008,太平庄排4【纯农排变】,南王排3|07095123011【纯农排变】,铺头光10,新南王光2,铺头光8,太平庄,0696769801-定兴县张祖庄小学-专变-240815746-受坊小学,西王光4,太平庄光1|07095123029,张祖庄光10,北王光2|07095123047,太平庄排5|07095123044【纯农排变】,太平庄光5","powerOffReason":"【停电原因】由于张祖庄排４引线断线导致３５ＫＶ辛保庄变电站张祖庄线５１２线路全线停电 【变更送电】无 【发布渠道】通过９５５９８发布","powerOffId":"2020031113000074"},{"poweroffId":2020031113000042,"sgpoweroffId":null,"subsName":"","lineName":"10kV清凉城线514","pubTranName":"全昆内4,1全昆内12,全昆村委会,2南王庄外14【纯农排变】,清苑县同发食品厂,2南王庄外15【纯农排变】,2南王庄外16【纯农排变】,清苑县鑫华宇采暖设备制造厂,0665120046-南王庄村委会-专变-201110705-南王庄村委会,南王庄村委会,2南王庄外13【纯农排变】,全昆内2号,1全昆内11,2南王庄外17【纯农排变】,1全昆内7,1全昆内6,2南王庄外12【纯农排变】,客户投资_1全昆内3,","scope":"【影响街道/乡镇】张登乡、东吕乡 【高危重要客户】无 【影响客户】全昆、南王庄","startTime":"2020-03-20 06:00:00","stopDate":"2020-03-20 18:00:00","orgNo":"1340618","typeCode":"计划停电","poweroffArea":"【全线路停电】停客户投资_1全昆内3,0665120046-南王庄村委会-专变-201110705-南王庄村委会,南王庄村委会,2南王庄外13【纯农排变】,全昆内2号,1全昆内11,2南王庄外17【纯农排变】,1全昆内7,1全昆内6,2南王庄外12【纯农排变】,清苑县鑫华宇采暖设备制造厂,全昆村委会,2南王庄外14【纯农排变】,清苑县同发食品厂,2南王庄外15【纯农排变】,2南王庄外16【纯农排变】,全昆内4,1全昆内12","poweroffReason":"【停电原因】由于线路清扫检修导致３５ＫＶ富王庄变电站１０ＫＶ清凉城线５１４线路全线停电 【变更送电】无 【发布渠道】保定市清苑区电视台（２０２０年０３月１２日１９时至２０２０年０３月１９日２０时之间）屏幕上方滚动","powerTime":"2020-03-20 17:55:20","powerComm":"张倩通知已送电","subsNo":"","lineNo":"","tgNo":"","tgName":null,"infoStatus":"1","orgName":"国网清苑县供电公司","typeName":null,"infoStatusName":null,"dateDay":null,"orgNos":null,"nowTime":null,"countyName":null,"streetName":null,"villageName":null,"roadName":null,"communityName":null,"tranName":null,"sdLineName":null,"cityCode":"1340618","cityName":"国网清苑县供电公司","provinceCode":null,"stopTime":"2020-03-20 18:00:00","powerType":"全部","powerOffArea":"【全线路停电】停客户投资_1全昆内3,0665120046-南王庄村委会-专变-201110705-南王庄村委会,南王庄村委会,2南王庄外13【纯农排变】,全昆内2号,1全昆内11,2南王庄外17【纯农排变】,1全昆内7,1全昆内6,2南王庄外12【纯农排变】,清苑县鑫华宇采暖设备制造厂,全昆村委会,2南王庄外14【纯农排变】,清苑县同发食品厂,2南王庄外15【纯农排变】,2南王庄外16【纯农排变】,全昆内4,1全昆内12","powerOffReason":"【停电原因】由于线路清扫检修导致３５ＫＶ富王庄变电站１０ＫＶ清凉城线５１４线路全线停电 【变更送电】无 【发布渠道】保定市清苑区电视台（２０２０年０３月１２日１９时至２０２０年０３月１９日２０时之间）屏幕上方滚动","powerOffId":"2020031113000042"},{"poweroffId":2020031113000038,"sgpoweroffId":null,"subsName":"","lineName":"10kV513内堡线","pubTranName":"七级公用照明7台区,东内堡公用照明1台区,北内堡村公用照明4台区,北内堡村公用照明8台区,七级公用照明8台区,七级公用照明6台区,东内堡公用照明9台区,东内堡公用照明14台区,东内堡公用照明2台区,东内堡公用照明10台区,北内堡村公用照明1台区,北内堡村公用照明10台区,七级公用照明9台区,北内堡村公用照明7台区,东内堡公用照明12台区,七级公用照明4台区,客户投资_北内堡村公用照明2台区,北内堡村公用照明9台区,东内堡公用照明5台区,七级公用照明2台区,东内堡公用照明8台区,北内堡村公用照明3台区,东内堡公用照明6台区,北内堡村公用照明6台区,七级公用照明5台区,七级公用照明3台区,七级公用照明1台区,东内堡小庄公用照明1台区,北内堡村公用照明5台区,东内堡公用照明4台区,东内堡公用照明13台区,东内堡公用照明11台区,东内堡公用照明3台区,","scope":"【影响街道/乡镇】子位镇【高危重要客户】无【影响客户】北内堡、东内堡、七级、西丁庄","startTime":"2020-03-11 09:20:54","stopDate":"2020-03-11 11:00:00","orgNo":"1340610","typeCode":"电网故障停限电","poweroffArea":"【全线路停电】停东内堡公用照明13台区,东内堡公用照明6台区,北内堡村公用照明6台区,七级公用照明5台区,七级公用照明3台区,七级公用照明1台区,东内堡小庄公用照明1台区,北内堡村公用照明5台区,东内堡公用照明4台区,东内堡公用照明11台区,东内堡公用照明3台区,北内堡村公用照明7台区,北内堡村公用照明11台区,七级公用照明7台区,东内堡公用照明1台区,北内堡村公用照明4台区,北内堡村公用照明8台区,七级公用照明8台区,七级公用照明6台区,东内堡公用照明9台区,东内堡公用照明14台区,东内堡公用照明2台区,东内堡公用照明10台区,北内堡村公用照明1台区,北内堡村公用照明10台区,七级公用照明9台区,东内堡公用照明12台区,七级公用照明4台区,客户投资_北内堡村公用照明2台区,北内堡村公用照明9台区,东内堡公用照明5台区,七级公用照明2台区,东内堡公用照明8台区,北内堡村公用照明3台区","poweroffReason":"【停电原因】由于主干９２＋１号杆鸟叼铁丝搭顶尖导致３５ＫＶ丁村变电站１０ＫＶ５１３内堡线路全线停电 【变更送电】因抢修进度加快原因，送电时间由１５：００变更为１１：００ 【发布渠道】９５５９８","powerTime":"2020-03-11 10:40:43","powerComm":"已送电","subsNo":"","lineNo":"","tgNo":"","tgName":null,"infoStatus":"1","orgName":"国网定州市供电公司","typeName":null,"infoStatusName":null,"dateDay":null,"orgNos":null,"nowTime":null,"countyName":null,"streetName":null,"villageName":null,"roadName":null,"communityName":null,"tranName":null,"sdLineName":null,"cityCode":"1340610","cityName":"国网定州市供电公司","provinceCode":null,"stopTime":"2020-03-11 11:00:00","powerType":"全部","powerOffArea":"【全线路停电】停东内堡公用照明13台区,东内堡公用照明6台区,北内堡村公用照明6台区,七级公用照明5台区,七级公用照明3台区,七级公用照明1台区,东内堡小庄公用照明1台区,北内堡村公用照明5台区,东内堡公用照明4台区,东内堡公用照明11台区,东内堡公用照明3台区,北内堡村公用照明7台区,北内堡村公用照明11台区,七级公用照明7台区,东内堡公用照明1台区,北内堡村公用照明4台区,北内堡村公用照明8台区,七级公用照明8台区,七级公用照明6台区,东内堡公用照明9台区,东内堡公用照明14台区,东内堡公用照明2台区,东内堡公用照明10台区,北内堡村公用照明1台区,北内堡村公用照明10台区,七级公用照明9台区,东内堡公用照明12台区,七级公用照明4台区,客户投资_北内堡村公用照明2台区,北内堡村公用照明9台区,东内堡公用照明5台区,七级公用照明2台区,东内堡公用照明8台区,北内堡村公用照明3台区","powerOffReason":"【停电原因】由于主干９２＋１号杆鸟叼铁丝搭顶尖导致３５ＫＶ丁村变电站１０ＫＶ５１３内堡线路全线停电 【变更送电】因抢修进度加快原因，送电时间由１５：００变更为１１：００ 【发布渠道】９５５９８","powerOffId":"2020031113000038"},{"poweroffId":2020031113000037,"sgpoweroffId":null,"subsName":"","lineName":"10kV清苑线528","pubTranName":"1丰台内1,1丰台内6,1唐庄内3（清苑线528）,2丰台外12【纯农排变】,1唐庄内7,1四平庄内7,1唐庄内2（清苑线528）,1四平庄内5,1丰台内8,1丰台内3,1四平庄内3,1丰台内2,1四平庄内1,1四平庄内4,1唐庄内8,1小祝泽内3,1唐庄内4（清苑线528）,1四平庄内10,1小祝泽内2,2丰台外16【纯农排变】,1四平庄内8,1丰台内9,1四平庄内6,1丰台内7,1唐庄内5（清苑线528）,1四平庄内9,1四平庄内2,1唐庄内9,1丰台内4,1唐庄内6（清苑线528）,1唐庄内1（清苑线528）,1丰台内5,国网河北电动汽车服务有限公司,1小祝泽内4,","scope":"【影响街道/乡镇】五尧乡 【高危重要客户】无 【影响客户】小祝泽、四平庄、北唐庄、丰台","startTime":"2020-03-20 06:00:00","stopDate":"2020-03-20 18:00:00","orgNo":"1340618","typeCode":"计划停电","poweroffArea":"【全线路停电】停1四平庄内9,2丰台外3【纯农排变】,2唐庄外9（清苑线528）【纯农排变】,1四平庄内3,丰台村北,大激店村铁道南,0387499217-保定市华力达机电物资有限公司-专变-45320678-保定市倡源汽车配件有限公司,2丰台外10【纯农排变】,1丰台内2,1四平庄内1,四平庄杨东浩,保定市路灯管理处,1四平庄内4,1唐庄内8,2丰台外20【纯农排变】,1小祝泽内3,河北农大二分场牛厂,保定市磊弘热力有限公司,2丰台外2【纯农排变】,丰台村委会,保定市玉金龙经贸发展有限公司,保定市明辉新能源科技有限公司,1唐庄内4（清苑线528）,保定市南市区丰台面粉厂,1四平庄内10,2小祝泽外1【纯农排变】,0574973319-大祝泽村委会-专变-127156820-大祝泽村委会2,0580332892-小祝泽村委会-专变-124553056-小祝泽村委会,保定市公路管理局,保定市联誉邦德无纺织物制造有限公司,2唐庄外5（清苑线528）【纯农排变】,保定市南市区丰运纸制造品厂,1小祝泽内2,保定市南市区腾达塑料制品厂,2丰台外16【纯农排变】,保定市巨威蓄电池有限公司,保定市龙泰化工有限公司,2丰台外26【纯农排变】,2丰台外19【纯农排变】,保定市韵宏包装材料制造有限公司,0591515541-保定市爱特鑫诚汽车配件制造有限公司-专变-125699150-保定市爱特鑫诚汽车配件制造有限公司,0547061162-保定中金博朗房车制造有限公司-专变-47959663-保定中金博朗房车制造有限公司,1四平庄内8,2唐庄外2（清苑线528）【纯农排变】,保定中铁苗木花卉有限公司,2丰台外11【纯农排变】,2丰台外23【纯农排变】,1丰台内9,保定中铁苗木花卉有限公司01,保定市肯吉纳皮革应用材料有限公司,跃华印染厂,2四平庄外3【纯农排变】,2四平庄外5【纯农排变】,保定直隶一宝调味品酿造有限公司,农大苗圃场,2丰台外5【纯农排变】,小祝泽李新卯钉子厂,0564343953-保定市新市区木林森沙发厂-专变-118608334-保定市新市区木林森沙发厂,2丰台外25【纯农排变】,1四平庄内6,方正机械厂,2唐庄外6（清苑线528）【纯农排变】,保定市力伟汽车贸易有限公司,四平庄桑彦坤纸管厂,保定市南市区龙飞奶农专业作合作社,|保定市南市区永发造纸厂,1丰台内7,1唐庄内5（清苑线528）,保定市海塑建材制造有限公司,保定市信诚不锈钢有限公司,2丰台外4【纯农排变】,1唐庄内9,保定市兆丰食品有限责任公司,保定川江卫生用品有限公司01,0584274691-保定市聚丰食品罐头厂-专变-124962616-保定市聚丰食品罐头厂,保定市华润油脂化工有限公司,保定市天硕新能源工贸有限公司,1丰台内5,国网河北电动汽车服务有限公司,2丰台外17【纯农排变】,2唐庄外3（清苑线528）【纯农排变】,保定市金谷硕面粉有限公司2,保定市鑫鹏砼业有限公司,保定市玖路幸汽车装饰材料有限公司02,2丰台外8【纯农排变】,保定市新市区恒信纸制品加工厂,保定市中天恒信电器设备有限公司,保定市南市区祝强造纸厂一分厂,河北华宁环保设备有限公司,1小祝泽内4,1丰台内1,2丰台外24【纯农排变】,2丰台外1【纯农排变】,2丰台外6【纯农排变】,2小祝泽外2【纯农排变】,保定市南市区牧丰奶农专业合作社,2唐庄外4（清苑线528）【纯农排变】,1丰台内6,保定市路灯管理处01#,1唐庄内3（清苑线528）,2丰台外21【纯农排变】,2丰台外12【纯农排变】,2四平庄外1【纯农排变】,2四平庄外2【纯农排变】,1唐庄内7,1四平庄内7,2丰台外7【纯农排变】,2唐庄外8（清苑线528）【纯农排变】,2丰台外22【纯农排变】,1四平庄内2,2四平庄外6【纯农排变】,保定市莲池区五尧乡中心幼儿园,2丰台外14【纯农排变】,0574973319-大祝泽村委会-专","poweroffReason":"【停电原因】由于线路清扫检修导致１１０ＫＶ祝泽变电站１０ＫＶ清苑线５２８线路全线停电 【变更送电】无 【发布渠道】保定市清苑区电视台（２０２０年０３月１２日１９时至２０２０年０３月１９日２０时之间）屏幕上方滚动","powerTime":"2020-03-20 17:54:33","powerComm":"张倩通知已送电","subsNo":"","lineNo":"","tgNo":"","tgName":null,"infoStatus":"1","orgName":"国网清苑县供电公司","typeName":null,"infoStatusName":null,"dateDay":null,"orgNos":null,"nowTime":null,"countyName":null,"streetName":null,"villageName":null,"roadName":null,"communityName":null,"tranName":null,"sdLineName":null,"cityCode":"1340618","cityName":"国网清苑县供电公司","provinceCode":null,"stopTime":"2020-03-20 18:00:00","powerType":"全部","powerOffArea":"【全线路停电】停1四平庄内9,2丰台外3【纯农排变】,2唐庄外9（清苑线528）【纯农排变】,1四平庄内3,丰台村北,大激店村铁道南,0387499217-保定市华力达机电物资有限公司-专变-45320678-保定市倡源汽车配件有限公司,2丰台外10【纯农排变】,1丰台内2,1四平庄内1,四平庄杨东浩,保定市路灯管理处,1四平庄内4,1唐庄内8,2丰台外20【纯农排变】,1小祝泽内3,河北农大二分场牛厂,保定市磊弘热力有限公司,2丰台外2【纯农排变】,丰台村委会,保定市玉金龙经贸发展有限公司,保定市明辉新能源科技有限公司,1唐庄内4（清苑线528）,保定市南市区丰台面粉厂,1四平庄内10,2小祝泽外1【纯农排变】,0574973319-大祝泽村委会-专变-127156820-大祝泽村委会2,0580332892-小祝泽村委会-专变-124553056-小祝泽村委会,保定市公路管理局,保定市联誉邦德无纺织物制造有限公司,2唐庄外5（清苑线528）【纯农排变】,保定市南市区丰运纸制造品厂,1小祝泽内2,保定市南市区腾达塑料制品厂,2丰台外16【纯农排变】,保定市巨威蓄电池有限公司,保定市龙泰化工有限公司,2丰台外26【纯农排变】,2丰台外19【纯农排变】,保定市韵宏包装材料制造有限公司,0591515541-保定市爱特鑫诚汽车配件制造有限公司-专变-125699150-保定市爱特鑫诚汽车配件制造有限公司,0547061162-保定中金博朗房车制造有限公司-专变-47959663-保定中金博朗房车制造有限公司,1四平庄内8,2唐庄外2（清苑线528）【纯农排变】,保定中铁苗木花卉有限公司,2丰台外11【纯农排变】,2丰台外23【纯农排变】,1丰台内9,保定中铁苗木花卉有限公司01,保定市肯吉纳皮革应用材料有限公司,跃华印染厂,2四平庄外3【纯农排变】,2四平庄外5【纯农排变】,保定直隶一宝调味品酿造有限公司,农大苗圃场,2丰台外5【纯农排变】,小祝泽李新卯钉子厂,0564343953-保定市新市区木林森沙发厂-专变-118608334-保定市新市区木林森沙发厂,2丰台外25【纯农排变】,1四平庄内6,方正机械厂,2唐庄外6（清苑线528）【纯农排变】,保定市力伟汽车贸易有限公司,四平庄桑彦坤纸管厂,保定市南市区龙飞奶农专业作合作社,|保定市南市区永发造纸厂,1丰台内7,1唐庄内5（清苑线528）,保定市海塑建材制造有限公司,保定市信诚不锈钢有限公司,2丰台外4【纯农排变】,1唐庄内9,保定市兆丰食品有限责任公司,保定川江卫生用品有限公司01,0584274691-保定市聚丰食品罐头厂-专变-124962616-保定市聚丰食品罐头厂,保定市华润油脂化工有限公司,保定市天硕新能源工贸有限公司,1丰台内5,国网河北电动汽车服务有限公司,2丰台外17【纯农排变】,2唐庄外3（清苑线528）【纯农排变】,保定市金谷硕面粉有限公司2,保定市鑫鹏砼业有限公司,保定市玖路幸汽车装饰材料有限公司02,2丰台外8【纯农排变】,保定市新市区恒信纸制品加工厂,保定市中天恒信电器设备有限公司,保定市南市区祝强造纸厂一分厂,河北华宁环保设备有限公司,1小祝泽内4,1丰台内1,2丰台外24【纯农排变】,2丰台外1【纯农排变】,2丰台外6【纯农排变】,2小祝泽外2【纯农排变】,保定市南市区牧丰奶农专业合作社,2唐庄外4（清苑线528）【纯农排变】,1丰台内6,保定市路灯管理处01#,1唐庄内3（清苑线528）,2丰台外21【纯农排变】,2丰台外12【纯农排变】,2四平庄外1【纯农排变】,2四平庄外2【纯农排变】,1唐庄内7,1四平庄内7,2丰台外7【纯农排变】,2唐庄外8（清苑线528）【纯农排变】,2丰台外22【纯农排变】,1四平庄内2,2四平庄外6【纯农排变】,保定市莲池区五尧乡中心幼儿园,2丰台外14【纯农排变】,0574973319-大祝泽村委会-专","powerOffReason":"【停电原因】由于线路清扫检修导致１１０ＫＶ祝泽变电站１０ＫＶ清苑线５２８线路全线停电 【变更送电】无 【发布渠道】保定市清苑区电视台（２０２０年０３月１２日１９时至２０２０年０３月１９日２０时之间）屏幕上方滚动","powerOffId":"2020031113000037"},{"poweroffId":2020031113000012,"sgpoweroffId":null,"subsName":"","lineName":"马庄线512","pubTranName":"马庄光15,马庄光1,马庄光3,辛木光4,马庄光9,辛木光15,马庄光10,马庄光7,马庄村排18【纯农排变】,侯家庄光7,辛木光7,辛木光17,侯家庄光8,辛木光14,候家庄光5,辛木光9,辛木光12,候家庄光6,马庄村排19【纯农排变】,候家庄光1,马家庄光6,马庄村排20【纯农排变】,候庄光4,马庄光11,马庄光12,马家庄光2,候家庄光2,辛木光5,候庄光3,马家庄光5,辛木光1,辛木光10,马家庄光4,辛木光11,辛木光16,辛木光5【2018年四批补强】,马庄光8,马庄光13,马庄光14,辛木光13,马庄村排21【纯农排变】,","scope":"【影响街道/乡镇】姚村乡 【高危重要客户】无 【影响客户】马家庄、侯家庄、北店砖厂、辛木、北店部分用户","startTime":"2020-03-11 04:42:45","stopDate":"2020-03-11 07:30:00","orgNo":"1340609","typeCode":"电网故障停限电","poweroffArea":"【全线路停电】停马庄光3,马庄光9,马庄光10,马庄光11,马庄光12,候家庄光5,辛木光12,辛木光16,马庄光13,马庄光14,辛木光13,候家庄光6,马庄村排19【纯农排变】,马庄村排20【纯农排变】,辛木光5【2018年四批补强】,马庄光15,辛木光15,辛木光14,马庄光8,马庄村排21【纯农排变】,马庄光1,侯家庄光7,侯家庄光8,马庄村排18【纯农排变】,马家庄光6,辛木混5,辛木排12【纯农排变】,辛木光7,辛木排15【纯农排变】,辛木排16【纯农排变】,辛木光17,候家庄排3【纯农排变】,候家庄光1,辛木排10【纯农排变】,候家庄排5【纯农排变】,马庄光7,辛木光1,马家庄排1【纯农排变】,辛木光10,辛木光11,候家庄排9【纯农排变】,马庄混13,马家庄排6【纯农排变】,马家庄排12【纯农排变】,马家庄排5【纯农排变】,候家庄排4【纯农排变】,马家庄排15【纯农排变】,候家庄排7【纯农排变】,辛木排2【纯农排变】,马家庄光4,辛木排6【纯农排变】,辛木光4,马家庄混11,候家庄混2,西马庄养殖小区排1【纯农排变】,辛木排13【纯农排变】,马家庄排7【纯农排变】,马家庄光5,马家庄排4【纯农排变】,马庄排14【纯农排变】,辛木混11,候家庄排1【纯农排变】,马家庄光2,候家庄排6【纯农排变】,辛木排9【纯农排变】,候家庄排8【纯农排变】,辛木排8【纯农排变】,马家庄排9【纯农排变】,候庄光4,马庄排3【纯农排变】,北店混9,辛木光9,马家庄排8【纯农排变】,辛木排14【纯农排变】,北店混11,辛木排7【纯农排变】,候庄光3,候家庄光2,辛木光5,辛木排1【纯农排变】,马家庄排2【纯农排变】,马家庄排16【纯农排变】,北店混8,马家庄排10【纯农排变】","poweroffReason":"【停电原因】由于辛木农１３分支２号杆至３号杆因施工车辆碰触导线导致３５ＫＶ闫台变电站马庄线５１２线路全线停电 【变更送电】因抢修进度加快原因，送电时间由１２：００变更为０７：３０ 【发布渠道】通过９５５９８发布","powerTime":"2020-03-11 06:56:53","powerComm":"已送电","subsNo":"","lineNo":"","tgNo":"","tgName":null,"infoStatus":"1","orgName":"国网定兴县供电公司","typeName":null,"infoStatusName":null,"dateDay":null,"orgNos":null,"nowTime":null,"countyName":null,"streetName":null,"villageName":null,"roadName":null,"communityName":null,"tranName":null,"sdLineName":null,"cityCode":"1340609","cityName":"国网定兴县供电公司","provinceCode":null,"stopTime":"2020-03-11 07:30:00","powerType":"全部","powerOffArea":"【全线路停电】停马庄光3,马庄光9,马庄光10,马庄光11,马庄光12,候家庄光5,辛木光12,辛木光16,马庄光13,马庄光14,辛木光13,候家庄光6,马庄村排19【纯农排变】,马庄村排20【纯农排变】,辛木光5【2018年四批补强】,马庄光15,辛木光15,辛木光14,马庄光8,马庄村排21【纯农排变】,马庄光1,侯家庄光7,侯家庄光8,马庄村排18【纯农排变】,马家庄光6,辛木混5,辛木排12【纯农排变】,辛木光7,辛木排15【纯农排变】,辛木排16【纯农排变】,辛木光17,候家庄排3【纯农排变】,候家庄光1,辛木排10【纯农排变】,候家庄排5【纯农排变】,马庄光7,辛木光1,马家庄排1【纯农排变】,辛木光10,辛木光11,候家庄排9【纯农排变】,马庄混13,马家庄排6【纯农排变】,马家庄排12【纯农排变】,马家庄排5【纯农排变】,候家庄排4【纯农排变】,马家庄排15【纯农排变】,候家庄排7【纯农排变】,辛木排2【纯农排变】,马家庄光4,辛木排6【纯农排变】,辛木光4,马家庄混11,候家庄混2,西马庄养殖小区排1【纯农排变】,辛木排13【纯农排变】,马家庄排7【纯农排变】,马家庄光5,马家庄排4【纯农排变】,马庄排14【纯农排变】,辛木混11,候家庄排1【纯农排变】,马家庄光2,候家庄排6【纯农排变】,辛木排9【纯农排变】,候家庄排8【纯农排变】,辛木排8【纯农排变】,马家庄排9【纯农排变】,候庄光4,马庄排3【纯农排变】,北店混9,辛木光9,马家庄排8【纯农排变】,辛木排14【纯农排变】,北店混11,辛木排7【纯农排变】,候庄光3,候家庄光2,辛木光5,辛木排1【纯农排变】,马家庄排2【纯农排变】,马家庄排16【纯农排变】,北店混8,马家庄排10【纯农排变】","powerOffReason":"【停电原因】由于辛木农１３分支２号杆至３号杆因施工车辆碰触导线导致３５ＫＶ闫台变电站马庄线５１２线路全线停电 【变更送电】因抢修进度加快原因，送电时间由１２：００变更为０７：３０ 【发布渠道】通过９５５９８发布","powerOffId":"2020031113000012"}],"pageModel":{"pageNow":273,"totalCount":10973,"totalPage":1098,"tableRows":0,"pageCount":10,"beginCount":2720},"isExperi":"1"}