{"message":"","today":"2020-06-15","seleList":[{"poweroffId":2020031113000004,"sgpoweroffId":null,"subsName":"","lineName":"东马营512","pubTranName":"东马营镇政府变压器,东二东变压器,客户投资_东四西变压器,张村学校变压器,井村南变压器,井村西变压器,后院西变压器,胡街地北变压器【纯农排变】,保定营变压器,吴街西变压器,赵张北变压器,后院变压器,李张南变压器,胡街变压器,马张地北变压器【纯农排变】,高碑店市天龙旅游用品有限责任公司变压器,何张南变压器,胡街新变压器,东五变压器,丰元庄西变压器,马张西变压器,后院排灌变压器【纯农排变】,河北圣杰包装制品有限公司,后院地西变压器,保定营北变压器【纯农排变】,汪庄地【纯农排变】,高张地变压器【纯农排变】,高碑店市鹏泽房地产开发有限责任公司变压器01,东一排灌变压器【纯农排变】,井村地变压器【纯农排变】,保定知途箱包制造有限公司变压器,高碑店市东马营镇沈各庄中心校变压器,东马营水厂,东三地西,高碑店市沃土土地整平服务有限公司02,高碑店市艳秋压铸厂变压器,马张东变压器,东三地东变压器,井村变压器,马张变压器,米张变压器,东三变压器,东一变压器,赵张东变压器,高张变压器,何张变压器,高张南变压器,东四南变压器,保定营中变压器,东二变压器,赵张南变压器,郭街村东变压器,吴街排灌变压器【纯农排变】,东四地北变压器,卫生所,东四方地变压器【纯农排变】,李张浇地变压器【纯农排变】,何张地变压器【纯农排变】,盖春明,米张地变压器【纯农排变】,吴街地变压器【纯农排变】,高碑店市东马营镇高张村幼儿园变压器,后院地变压器【纯农排变】,天澍公司,东四浇地变压器,东马营中学,高碑店市同兴畜牧有限公司（井村）变压器,东四东,张国林养殖厂,高碑店市东马营中学,郭街南排变压器【纯农排变】,李张地北变压器【纯农排变】,东五南排变压器【纯农排变】,高碑店市东润物业服务有限公司,东五地西变压器,宋立军,徐二群,乡直,东三地中变压器【纯农排变】,赵张地变压器【纯农排变】,林场砖厂,保北育林基地,张福林,丰元庄浇地变压器【纯农排变】,保定蓝通热力有限公司,高碑店市东马营标爵汽车卷材加工厂变压器,高碑店市东马营鑫天龙无纺布加工厂变压器,保定捷达箱包制造有限公司,倒洪吸变压器,高碑店市鹏泽房地产开发有限责任公司变压器02,高碑店市东马营中学变压器,高碑店市沃土土地整平服务有限公司01,吴斌,东五北排变压器【纯农排变】,中学地北变压器【纯农排变】,井村地西变压器【纯农排变】,高碑店市东马营童星幼儿园,东二地西变压器,胡街浇地2变压器【纯农排变】,张克龙,东二地变压器,孙栓良,吴街变压器,东三东变压器,胡街浇地1变压器【纯农排变】,郭街变压器,胡街地东变压器【纯农排变】,米张东变压器,东四变压器,东四小一变压器,东三西变压器,李张北变压器,丰元庄变压器,东一西变压器,东三新架变压器,东二中变压器,马张南变压器,李张西变压器,东五西变压器,","scope":"【影响街道/乡镇】东马营镇 【高危重要客户】无 【影响客户】东一村、东二村、东三村、东四村、东五村、赵张村、马张村、米张村、李张村、高张村、何张村、井村、胡街村、吴街村、丰元庄村、保定营村、后院村、郭街村、东马营镇政府、鑫天龙无纺布、东马营镇卫生院、东马营水厂、天润小区、东马营中学、高张村小学、沈各庄小学、张村学校","startTime":"2020-03-11 01:57:35","stopDate":"2020-03-11 04:30:00","orgNo":"1340612","typeCode":"电网故障停限电","poweroffArea":"【全线路停电】停何张变压器,东一西变压器,东三新架变压器,马张南变压器,东马营镇政府变压器,东二东变压器,井村变压器,马张变压器,米张变压器,东三变压器,东一变压器,赵张东变压器,高张变压器,高张南变压器,东四南变压器,马张东变压器,保定营中变压器,东二变压器,赵张南变压器,郭街村东变压器,吴街变压器,客户投资_东四西变压器,张村学校变压器,井村西变压器,胡街地东变压器【纯农排变】,后院西变压器,赵张北变压器,后院变压器,马张西变压器,李张南变压器,何张南变压器,胡街新变压器,东五变压器,丰元庄西变压器,东三东变压器,胡街浇地1变压器【纯农排变】,郭街变压器,米张东变压器,东四变压器,东四小一变压器,东三西变压器,李张北变压器,丰元庄变压器,东二中变压器,李张西变压器,东五西变压器,井村南变压器,胡街地北变压器【纯农排变】,保定营变压器,吴街西变压器,胡街变压器,马张地北变压器【纯农排变】,高碑店市天龙旅游用品有限责任公司变压器,东二地变压器,吴街排灌变压器【纯农排变】,何张地变压器【纯农排变】,盖春明,米张地变压器【纯农排变】,东马营中学,高碑店市同兴畜牧有限公司（井村）变压器,东四东,张国林养殖厂,高碑店市东马营中学,郭街南排变压器【纯农排变】,李张地北变压器【纯农排变】,东五南排变压器【纯农排变】,保定蓝通热力有限公司,东五地西变压器,宋立军,徐二群,乡直,东三地中变压器【纯农排变】,李张浇地变压器【纯农排变】,赵张地变压器【纯农排变】,东四地北变压器,卫生所,东四方地变压器【纯农排变】,孙栓良,吴街地变压器【纯农排变】,高碑店市东润物业服务有限公司,高碑店市东马营镇高张村幼儿园变压器,后院地变压器【纯农排变】,天澍公司,东四浇地变压器,林场砖厂,保北育林基地,张福林,丰元庄浇地变压器【纯农排变】,张克龙,高碑店市东马营标爵汽车卷材加工厂变压器,高碑店市东马营鑫天龙无纺布加工厂变压器,保定捷达箱包制造有限公司,倒洪吸变压器,高碑店市鹏泽房地产开发有限责任公司变压器02,高碑店市东马营中学变压器,高碑店市沃土土地整平服务有限公司01,吴斌,东五北排变压器【纯农排变】,中学地北变压器【纯农排变】,井村地西变压器【纯农排变】,高碑店市东马营童星幼儿园,东二地西变压器,胡街浇地2变压器【纯农排变】,后院排灌变压器【纯农排变】,河北圣杰包装制品有限公司,后院地西变压器,保定营北变压器【纯农排变】,汪庄地【纯农排变】,高张地变压器【纯农排变】,高碑店市鹏泽房地产开发有限责任公司变压器01,东一排灌变压器【纯农排变】,井村地变压器【纯农排变】,保定知途箱包制造有限公司变压器,高碑店市东马营镇沈各庄中心校变压器,东马营水厂,东三地西,高碑店市沃土土地整平服务有限公司02,高碑店市艳秋压铸厂变压器,东三地东变压器","poweroffReason":"【停电原因】由于开关跳闸导致１１０ＫＶ白沟变电站１０ＫＶ东马营５１２线路全线停电 【变更送电】因抢修进度加快原因，送电时间由１２：００变更为０４：３０ 【发布渠道】通过９５５９８发布","powerTime":"2020-03-11 03:57:38","powerComm":"已送电","subsNo":"","lineNo":"","tgNo":"","tgName":null,"infoStatus":"1","orgName":"国网高碑店市供电公司","typeName":null,"infoStatusName":null,"dateDay":null,"orgNos":null,"nowTime":null,"countyName":null,"streetName":null,"villageName":null,"roadName":null,"communityName":null,"tranName":null,"sdLineName":null,"cityCode":"1340612","cityName":"国网高碑店市供电公司","provinceCode":null,"stopTime":"2020-03-11 04:30:00","powerType":"全部","powerOffArea":"【全线路停电】停何张变压器,东一西变压器,东三新架变压器,马张南变压器,东马营镇政府变压器,东二东变压器,井村变压器,马张变压器,米张变压器,东三变压器,东一变压器,赵张东变压器,高张变压器,高张南变压器,东四南变压器,马张东变压器,保定营中变压器,东二变压器,赵张南变压器,郭街村东变压器,吴街变压器,客户投资_东四西变压器,张村学校变压器,井村西变压器,胡街地东变压器【纯农排变】,后院西变压器,赵张北变压器,后院变压器,马张西变压器,李张南变压器,何张南变压器,胡街新变压器,东五变压器,丰元庄西变压器,东三东变压器,胡街浇地1变压器【纯农排变】,郭街变压器,米张东变压器,东四变压器,东四小一变压器,东三西变压器,李张北变压器,丰元庄变压器,东二中变压器,李张西变压器,东五西变压器,井村南变压器,胡街地北变压器【纯农排变】,保定营变压器,吴街西变压器,胡街变压器,马张地北变压器【纯农排变】,高碑店市天龙旅游用品有限责任公司变压器,东二地变压器,吴街排灌变压器【纯农排变】,何张地变压器【纯农排变】,盖春明,米张地变压器【纯农排变】,东马营中学,高碑店市同兴畜牧有限公司（井村）变压器,东四东,张国林养殖厂,高碑店市东马营中学,郭街南排变压器【纯农排变】,李张地北变压器【纯农排变】,东五南排变压器【纯农排变】,保定蓝通热力有限公司,东五地西变压器,宋立军,徐二群,乡直,东三地中变压器【纯农排变】,李张浇地变压器【纯农排变】,赵张地变压器【纯农排变】,东四地北变压器,卫生所,东四方地变压器【纯农排变】,孙栓良,吴街地变压器【纯农排变】,高碑店市东润物业服务有限公司,高碑店市东马营镇高张村幼儿园变压器,后院地变压器【纯农排变】,天澍公司,东四浇地变压器,林场砖厂,保北育林基地,张福林,丰元庄浇地变压器【纯农排变】,张克龙,高碑店市东马营标爵汽车卷材加工厂变压器,高碑店市东马营鑫天龙无纺布加工厂变压器,保定捷达箱包制造有限公司,倒洪吸变压器,高碑店市鹏泽房地产开发有限责任公司变压器02,高碑店市东马营中学变压器,高碑店市沃土土地整平服务有限公司01,吴斌,东五北排变压器【纯农排变】,中学地北变压器【纯农排变】,井村地西变压器【纯农排变】,高碑店市东马营童星幼儿园,东二地西变压器,胡街浇地2变压器【纯农排变】,后院排灌变压器【纯农排变】,河北圣杰包装制品有限公司,后院地西变压器,保定营北变压器【纯农排变】,汪庄地【纯农排变】,高张地变压器【纯农排变】,高碑店市鹏泽房地产开发有限责任公司变压器01,东一排灌变压器【纯农排变】,井村地变压器【纯农排变】,保定知途箱包制造有限公司变压器,高碑店市东马营镇沈各庄中心校变压器,东马营水厂,东三地西,高碑店市沃土土地整平服务有限公司02,高碑店市艳秋压铸厂变压器,东三地东变压器","powerOffReason":"【停电原因】由于开关跳闸导致１１０ＫＶ白沟变电站１０ＫＶ东马营５１２线路全线停电 【变更送电】因抢修进度加快原因，送电时间由１２：００变更为０４：３０ 【发布渠道】通过９５５９８发布","powerOffId":"2020031113000004"},{"poweroffId":2020031013000109,"sgpoweroffId":null,"subsName":"","lineName":"徐果庄线512","pubTranName":"高阳县兴荣纺织品制造有限公司变压器,高阳县恒泽纺纱厂减容,高阳县新源巾被厂变压器,高阳县晋庄镇耿庄村村委会变压器,徐果庄村西综合,高阳县万通棉织厂电压器,永丰织物厂,阮庄大队综合,刘新民变压器,07202|阮庄村西综合3595,徐果庄村南新增2号综合,徐果庄西南新增综合,07198|徐果庄村里综合5237,高阳县晋庄镇徐果庄村民委员会三号台区,佐庄村东南综合,阮庄村西南新增综合,新建毛纺厂,07028|徐果庄西南综合5233,07203|阮庄村村北综合3614,成都华川公路建设集团有限公司变压器5,阮庄村西2号新增综合,北晋庄宋桥道综合,高阳县兴光棉织厂变压器,阮庄村西北新增综合,佐庄村西北新增综合,徐果庄大队新增综合,晋庄商店织布厂,07080|北晋庄东北方综合3572,徐果庄村北综合,高阳县晋庄镇阮庄村村民委员会二变压器,高阳县申达棉织厂变压器,高阳县平安汽车服务有限公司变压器,高阳县晋庄镇徐果庄村民委员会二号变压器,北晋庄村西北新增综合,北晋庄西街口综合,高阳县禹恒棉织厂变压器,07084|佐庄大队综合3684,07092|北晋庄村东2#综合3730,徐果庄村南新增综合,双峰针织厂,高阳县晋庄镇佐家庄村一变压器,高阳县晋庄镇佐家庄村二变压器,高阳县富国毛巾厂变压器,高阳县好丽纺织有限公司,康庄棉织厂减容200,三益氧化锌厂,徐果庄村东新增综合,李明发,佐庄村西南综合,高阳县康庄棉织厂变压器,高阳县晋庄镇北晋庄村三变压器,成都华川公路建设集团有限公司变压器6,07197|徐果庄村教堂综合5236,高阳县荣利毛巾厂变压器,雷庄村西北新增综合,佐庄村北新增综合,07081|北晋庄综合3578,高阳县平安机动车驾驶员培训学校变压器,高阳县晋庄乡杨家佐村民委员会二号变压器,070020|徐果庄中南综合5238,振国毛巾厂,北晋庄村东中综合,河北三益锌制品有限公司变压器,070021|徐果庄村西大坑综合5240,07205|徐果庄村东综合5231,徐果庄板厂新增综合,徐果庄西南新增2号综合,徐果庄教堂2号综合,万兴毛巾厂,雷庄村里东综合台区,北晋庄村北新增综合,高阳县舒雅特巾被有限公司变压器,高阳县晋庄镇雷家庄村村委会二变压器,阮庄村北2号综合,雷庄村里新增综合,康雄伟,07032|雷庄综合3758,高阳县新源巾被厂减容250,阮庄村北新增综合,徐果庄大坑2号新增综合,高阳县晋庄乡中心卫生院变压器,07200|阮庄村南综合3716,高阳县平安机动车驾驶培训学校变压器,高阳县友宏绣花厂变压器,07063|雷庄村西综合3732,北晋庄宋桥道2号综合,吉利毛巾厂,07169|耿庄村北综合3686,康新良,阮庄村东新增综合,徐果庄毛纺厂,07017|徐果庄村南综合5234,高阳县晋阳针织厂减容250,高阳县晋庄镇北晋庄村五变压器,07234|阮庄东南新增综合5546,07201|阮庄村东综合3715,高阳县晋庄镇徐果庄村民委员会一号变压器,高阳县晋庄镇阮庄村村民委员会一变压器,07088|佐庄村东北综合3731,佐庄大队新增综合,高阳县晋庄镇雷家庄村村委会一变压器,","scope":"【影响街道/乡镇】晋庄乡 【高危重要客户】无 【影响客户】耿庄、阮庄、佐庄（佐家庄）、雷庄（雷家庄）、徐果庄、北晋庄村北、南尖窝","startTime":"2020-03-10 19:02:40","stopDate":"2020-03-10 22:00:00","orgNo":"1340613","typeCode":"电网故障停限电","poweroffArea":"【全线路停电】停高阳县晋庄镇徐果庄村民委员会二号变压器,高阳县兴荣纺织品制造有限公司变压器,高阳县恒泽纺纱厂减容,高阳县新源巾被厂变压器,高阳县晋庄镇耿庄村村委会变压器,徐果庄村西综合,高阳县万通棉织厂电压器,永丰织物厂,阮庄大队综合,刘新民变压器,07202|阮庄村西综合3595,徐果庄村南新增2号综合,徐果庄西南新增综合,07198|徐果庄村里综合5237,高阳县晋庄镇徐果庄村民委员会三号台区,佐庄村东南综合,阮庄村西南新增综合,新建毛纺厂,07028|徐果庄西南综合5233,07203|阮庄村村北综合3614,成都华川公路建设集团有限公司变压器5,阮庄村西2号新增综合,北晋庄宋桥道综合,高阳县兴光棉织厂变压器,阮庄村西北新增综合,佐庄村西北新增综合,徐果庄大队新增综合,晋庄商店织布厂,07080|北晋庄东北方综合3572,徐果庄村北综合,高阳县晋庄镇阮庄村村民委员会二变压器,高阳县申达棉织厂变压器,高阳县平安汽车服务有限公司变压器,高阳县平安机动车驾驶培训学校变压器,北晋庄村西北新增综合,北晋庄西街口综合,高阳县禹恒棉织厂变压器,07084|佐庄大队综合3684,07092|北晋庄村东2#综合3730,徐果庄村南新增综合,双峰针织厂,高阳县晋庄镇佐家庄村一变压器,高阳县晋庄镇佐家庄村二变压器,高阳县富国毛巾厂变压器,高阳县好丽纺织有限公司,康庄棉织厂减容200,三益氧化锌厂,徐果庄村东新增综合,李明发,佐庄村西南综合,高阳县康庄棉织厂变压器,高阳县晋庄镇北晋庄村三变压器,成都华川公路建设集团有限公司变压器6,07197|徐果庄村教堂综合5236,高阳县荣利毛巾厂变压器,雷庄村西北新增综合,佐庄村北新增综合,07081|北晋庄综合3578,高阳县平安机动车驾驶员培训学校变压器,高阳县晋庄乡杨家佐村民委员会二号变压器,070020|徐果庄中南综合5238,振国毛巾厂,北晋庄村东中综合,河北三益锌制品有限公司变压器,070021|徐果庄村西大坑综合5240,07205|徐果庄村东综合5231,徐果庄板厂新增综合,徐果庄西南新增2号综合,徐果庄教堂2号综合,万兴毛巾厂,雷庄村里东综合台区,北晋庄村北新增综合,高阳县舒雅特巾被有限公司变压器,高阳县晋庄镇雷家庄村村委会二变压器,阮庄村北2号综合,雷庄村里新增综合,康雄伟,07032|雷庄综合3758,高阳县新源巾被厂减容250,阮庄村北新增综合,徐果庄大坑2号新增综合,高阳县晋庄乡中心卫生院变压器,07200|阮庄村南综合3716,07063|雷庄村西综合3732,高阳县友宏绣花厂变压器,北晋庄宋桥道2号综合,吉利毛巾厂,07169|耿庄村北综合3686,康新良,阮庄村东新增综合,徐果庄毛纺厂,07017|徐果庄村南综合5234,高阳县晋阳针织厂减容250,高阳县晋庄镇北晋庄村五变压器,07234|阮庄东南新增综合5546,07201|阮庄村东综合3715,高阳县晋庄镇徐果庄村民委员会一号变压器,高阳县晋庄镇阮庄村村民委员会一变压器,07088|佐庄村东北综合3731,佐庄大队新增综合,高阳县晋庄镇雷家庄村村委会一变压器","poweroffReason":"【停电原因】由于汽车撞杆导致１１０ＫＶ杨佐变电站徐果庄５１２线路全线停电【变更送电】无【发布渠道】９５５９８","powerTime":"2020-03-10 21:57:23","powerComm":"已送电","subsNo":"","lineNo":"","tgNo":"","tgName":null,"infoStatus":"1","orgName":"国网高阳县供电公司","typeName":null,"infoStatusName":null,"dateDay":null,"orgNos":null,"nowTime":null,"countyName":null,"streetName":null,"villageName":null,"roadName":null,"communityName":null,"tranName":null,"sdLineName":null,"cityCode":"1340613","cityName":"国网高阳县供电公司","provinceCode":null,"stopTime":"2020-03-10 22:00:00","powerType":"全部","powerOffArea":"【全线路停电】停高阳县晋庄镇徐果庄村民委员会二号变压器,高阳县兴荣纺织品制造有限公司变压器,高阳县恒泽纺纱厂减容,高阳县新源巾被厂变压器,高阳县晋庄镇耿庄村村委会变压器,徐果庄村西综合,高阳县万通棉织厂电压器,永丰织物厂,阮庄大队综合,刘新民变压器,07202|阮庄村西综合3595,徐果庄村南新增2号综合,徐果庄西南新增综合,07198|徐果庄村里综合5237,高阳县晋庄镇徐果庄村民委员会三号台区,佐庄村东南综合,阮庄村西南新增综合,新建毛纺厂,07028|徐果庄西南综合5233,07203|阮庄村村北综合3614,成都华川公路建设集团有限公司变压器5,阮庄村西2号新增综合,北晋庄宋桥道综合,高阳县兴光棉织厂变压器,阮庄村西北新增综合,佐庄村西北新增综合,徐果庄大队新增综合,晋庄商店织布厂,07080|北晋庄东北方综合3572,徐果庄村北综合,高阳县晋庄镇阮庄村村民委员会二变压器,高阳县申达棉织厂变压器,高阳县平安汽车服务有限公司变压器,高阳县平安机动车驾驶培训学校变压器,北晋庄村西北新增综合,北晋庄西街口综合,高阳县禹恒棉织厂变压器,07084|佐庄大队综合3684,07092|北晋庄村东2#综合3730,徐果庄村南新增综合,双峰针织厂,高阳县晋庄镇佐家庄村一变压器,高阳县晋庄镇佐家庄村二变压器,高阳县富国毛巾厂变压器,高阳县好丽纺织有限公司,康庄棉织厂减容200,三益氧化锌厂,徐果庄村东新增综合,李明发,佐庄村西南综合,高阳县康庄棉织厂变压器,高阳县晋庄镇北晋庄村三变压器,成都华川公路建设集团有限公司变压器6,07197|徐果庄村教堂综合5236,高阳县荣利毛巾厂变压器,雷庄村西北新增综合,佐庄村北新增综合,07081|北晋庄综合3578,高阳县平安机动车驾驶员培训学校变压器,高阳县晋庄乡杨家佐村民委员会二号变压器,070020|徐果庄中南综合5238,振国毛巾厂,北晋庄村东中综合,河北三益锌制品有限公司变压器,070021|徐果庄村西大坑综合5240,07205|徐果庄村东综合5231,徐果庄板厂新增综合,徐果庄西南新增2号综合,徐果庄教堂2号综合,万兴毛巾厂,雷庄村里东综合台区,北晋庄村北新增综合,高阳县舒雅特巾被有限公司变压器,高阳县晋庄镇雷家庄村村委会二变压器,阮庄村北2号综合,雷庄村里新增综合,康雄伟,07032|雷庄综合3758,高阳县新源巾被厂减容250,阮庄村北新增综合,徐果庄大坑2号新增综合,高阳县晋庄乡中心卫生院变压器,07200|阮庄村南综合3716,07063|雷庄村西综合3732,高阳县友宏绣花厂变压器,北晋庄宋桥道2号综合,吉利毛巾厂,07169|耿庄村北综合3686,康新良,阮庄村东新增综合,徐果庄毛纺厂,07017|徐果庄村南综合5234,高阳县晋阳针织厂减容250,高阳县晋庄镇北晋庄村五变压器,07234|阮庄东南新增综合5546,07201|阮庄村东综合3715,高阳县晋庄镇徐果庄村民委员会一号变压器,高阳县晋庄镇阮庄村村民委员会一变压器,07088|佐庄村东北综合3731,佐庄大队新增综合,高阳县晋庄镇雷家庄村村委会一变压器","powerOffReason":"【停电原因】由于汽车撞杆导致１１０ＫＶ杨佐变电站徐果庄５１２线路全线停电【变更送电】无【发布渠道】９５５９８","powerOffId":"2020031013000109"},{"poweroffId":2020031013000080,"sgpoweroffId":null,"subsName":"","lineName":"10kV521晓林线","pubTranName":"0014418538小辛庄中区变压器,辛庄南区变压器,0000006789张家庄南区变压器,0014330649张家庄东区变压器,张家庄北区变压器,晓林供电所统管变压器,张家庄西区变压器,0013362882辛庄东区变压器,辛庄小学变压器,店头北区变压器,0000004692辛庄小村变压器,店头西2区,0000004691辛庄村变压器,0000005635店头西区变压器,","scope":"【影响街道/乡镇】晓林乡【高危重要客户】无【影响客户】晓林、店头、辛庄、张家庄","startTime":"2020-03-21 06:30:00","stopDate":"2020-03-21 17:30:00","orgNo":"1340619","typeCode":"计划停电","poweroffArea":"【分支停电】停0014418538小辛庄中区变压器,辛庄南区变压器,0000006789张家庄南区变压器,0014330649张家庄东区变压器,张家庄北区变压器,晓林供电所统管变压器,店头西2区,0000004691辛庄村变压器,0000005635店头西区变压器,张家庄西区变压器,0013362882辛庄东区变压器,辛庄小学变压器,店头北区变压器,0000004692辛庄小村变压器","poweroffReason":"【停电原因】由于线路换杆、换线导致１１０ＫＶ羊村变电站１０ＫＶ５２１晓林线路张家庄支线００３号杆ＹＣ５２１－０３号断路器以下停电【变更送电】无【发布渠道】保定市曲阳县电视台（０３月１０日至０３月１２日１８时至２０时之间）屏幕上方滚动","powerTime":"2020-03-21 17:21:16","powerComm":"已送电","subsNo":"","lineNo":"","tgNo":"","tgName":null,"infoStatus":"1","orgName":"国网曲阳县供电公司","typeName":null,"infoStatusName":null,"dateDay":null,"orgNos":null,"nowTime":null,"countyName":null,"streetName":null,"villageName":null,"roadName":null,"communityName":null,"tranName":null,"sdLineName":null,"cityCode":"1340619","cityName":"国网曲阳县供电公司","provinceCode":null,"stopTime":"2020-03-21 17:30:00","powerType":"全部","powerOffArea":"【分支停电】停0014418538小辛庄中区变压器,辛庄南区变压器,0000006789张家庄南区变压器,0014330649张家庄东区变压器,张家庄北区变压器,晓林供电所统管变压器,店头西2区,0000004691辛庄村变压器,0000005635店头西区变压器,张家庄西区变压器,0013362882辛庄东区变压器,辛庄小学变压器,店头北区变压器,0000004692辛庄小村变压器","powerOffReason":"【停电原因】由于线路换杆、换线导致１１０ＫＶ羊村变电站１０ＫＶ５２１晓林线路张家庄支线００３号杆ＹＣ５２１－０３号断路器以下停电【变更送电】无【发布渠道】保定市曲阳县电视台（０３月１０日至０３月１２日１８时至２０时之间）屏幕上方滚动","powerOffId":"2020031013000080"},{"poweroffId":2020031013000075,"sgpoweroffId":null,"subsName":"","lineName":"10kV赵庄线530","pubTranName":"1连二博雅内1,","scope":"【影响街道/乡镇】焦庄乡 【高危重要客户】无 【影响客户】连二博雅A区","startTime":"2020-03-10 15:14:39","stopDate":"2020-03-10 16:40:00","orgNo":"1340618","typeCode":"电网故障停限电","poweroffArea":"【单台区停电】停1连二博雅内1","poweroffReason":"【停电原因】由于低压线断导致１１０ＫＶ阮庄变电站１０ＫＶ赵庄线５３０线路１连二博雅内１号公变台区停电 【变更送电】因抢修进度加快原因，送电时间由２０：００变更为１６：４０ 【发布渠道】通过９５５９８发布","powerTime":"2020-03-10 16:13:45","powerComm":"房晨飞通知已送电","subsNo":"","lineNo":"","tgNo":"","tgName":null,"infoStatus":"1","orgName":"国网清苑县供电公司","typeName":null,"infoStatusName":null,"dateDay":null,"orgNos":null,"nowTime":null,"countyName":null,"streetName":null,"villageName":null,"roadName":null,"communityName":null,"tranName":null,"sdLineName":null,"cityCode":"1340618","cityName":"国网清苑县供电公司","provinceCode":null,"stopTime":"2020-03-10 16:40:00","powerType":"全部","powerOffArea":"【单台区停电】停1连二博雅内1","powerOffReason":"【停电原因】由于低压线断导致１１０ＫＶ阮庄变电站１０ＫＶ赵庄线５３０线路１连二博雅内１号公变台区停电 【变更送电】因抢修进度加快原因，送电时间由２０：００变更为１６：４０ 【发布渠道】通过９５５９８发布","powerOffId":"2020031013000075"},{"poweroffId":2020031013000031,"sgpoweroffId":null,"subsName":"","lineName":"10kV514导务线","pubTranName":"麦旺村西新增综合,东柏山综合7859,西柏山西1490|24001490,东白司城新增综合,康北庄0950|24000950,麦旺750|24000750,康关北综合2127,西柏山东混用2790,南康关2460|24002460,燕子水0800|24000800,南康关村西1000|24001000,导务西0910|24000910,北康关东庄0860|24000860,导务村南2610|24002610,北康关村西0990|24000990,柴各庄北2150|24002150,导务东0770|24000770,南康关南综合7861,小掌,康北庄西综合8373,导务2740,柴各庄南2160|24002160,北康关村0870|24000870,柴各庄综合8340,南康关0820|24000820,南康关东综合8368,柴各庄综合6015,南康关东庄0830|24000830,北康关东北综合8456,东白司城综合7836,麦旺730|24000730,北康关2580|24002580,小掌东综合,西柏山新增综合0078,东柏山1470|24001470,小掌0890|24000890,","scope":"【影响街道/乡镇】台鱼乡【高危重要客户】无【影响客户】麦旺、导务、南康关、南康关东庄、北康关东庄、北康关、小掌村、康关北庄、柴各庄、东白司城、东安阳、东柏山、西柏山、秀兰庄园、台鱼乡政府","startTime":"2020-03-21 07:30:00","stopDate":"2020-03-21 18:00:00","orgNo":"1340621","typeCode":"计划停电","poweroffArea":"【分支停电】停康北庄0950|24000950,麦旺750|24000750,康关北综合2127,南康关村西1000|24001000,导务西0910|24000910,北康关东庄0860|24000860,柴各庄北2150|24002150,南康关南综合7861,小掌,康北庄西综合8373,导务2740,柴各庄南2160|24002160,北康关村0870|24000870,东白司城综合7836,麦旺730|24000730,北康关2580|24002580,小掌东综合,南康关2460|24002460,燕子水0800|24000800,导务村南2610|24002610,北康关村西0990|24000990,导务东0770|24000770,柴各庄综合8340,南康关0820|24000820,南康关东综合8368,柴各庄综合6015,南康关东庄0830|24000830,北康关东北综合8456,西柏山新增综合0078,东柏山1470|24001470,小掌0890|24000890,西柏山东混用2790,麦旺村西新增综合,东柏山综合7859,西柏山西1490|24001490,东白司城新增综合","poweroffReason":"【停电原因】由于线路清扫导致３５ＫＶ安阳变电站１０ＫＶ５１４导务线路０１号杆断路器及以下线路停电【变更送电】无【发布渠道】保定市顺平县电视台（３月１０日至２０日２０时至２１时之间）屏幕上方滚动字幕","powerTime":"2020-03-21 17:08:24","powerComm":"已送电","subsNo":"","lineNo":"","tgNo":"","tgName":null,"infoStatus":"1","orgName":"国网顺平县电力局","typeName":null,"infoStatusName":null,"dateDay":null,"orgNos":null,"nowTime":null,"countyName":null,"streetName":null,"villageName":null,"roadName":null,"communityName":null,"tranName":null,"sdLineName":null,"cityCode":"1340621","cityName":"国网顺平县电力局","provinceCode":null,"stopTime":"2020-03-21 18:00:00","powerType":"全部","powerOffArea":"【分支停电】停康北庄0950|24000950,麦旺750|24000750,康关北综合2127,南康关村西1000|24001000,导务西0910|24000910,北康关东庄0860|24000860,柴各庄北2150|24002150,南康关南综合7861,小掌,康北庄西综合8373,导务2740,柴各庄南2160|24002160,北康关村0870|24000870,东白司城综合7836,麦旺730|24000730,北康关2580|24002580,小掌东综合,南康关2460|24002460,燕子水0800|24000800,导务村南2610|24002610,北康关村西0990|24000990,导务东0770|24000770,柴各庄综合8340,南康关0820|24000820,南康关东综合8368,柴各庄综合6015,南康关东庄0830|24000830,北康关东北综合8456,西柏山新增综合0078,东柏山1470|24001470,小掌0890|24000890,西柏山东混用2790,麦旺村西新增综合,东柏山综合7859,西柏山西1490|24001490,东白司城新增综合","powerOffReason":"【停电原因】由于线路清扫导致３５ＫＶ安阳变电站１０ＫＶ５１４导务线路０１号杆断路器及以下线路停电【变更送电】无【发布渠道】保定市顺平县电视台（３月１０日至２０日２０时至２１时之间）屏幕上方滚动字幕","powerOffId":"2020031013000031"},{"poweroffId":2020031013000011,"sgpoweroffId":null,"subsName":"","lineName":"10kV514百尺村线","pubTranName":"北宗综合6台区,南宗综合7台区,南宗综合4台区,北宗综合8台区,南宗综合6台区,南宗综合12台区,北宗综合7台区,北宗综合14台区,北宗综合5台区,北宗综合15台区,北宗综合9台区,北宗农排10台区【纯农排变】,北宗综合1台区,南宗综合14台区,南宗综合5台区,南宗综合3台区,南宗综合13台区,北宗农排11台区【纯农排变】,北宗综合10台区,北宗综合11台区,北宗综合3台区,南宗综合9台区,北宗综合2台区,南宗综合11台区,南宗综合1台区,南宗综合2台区,北宗综合13台区,南宗综合8台区,北宗综合4台区,南宗综合10台区,北宗综合12台区,北宗农排12台区【纯农排变】,","scope":"【影响街道/乡镇】辛兴镇【高危重要客户】无【影响客户】北宗村、南宗村","startTime":"2020-03-10 08:07:16","stopDate":"2020-03-10 11:00:00","orgNo":"1340616","typeCode":"电网故障停限电","poweroffArea":"【全线路停电】停天宇电焊变压器,北宗农排3台区【纯农排变】,变压器,南宗农排6台区【纯农排变】,南宗农排10台区【纯农排变】,南宗农排5台区【纯农排变】,蠡县辛兴镇春晖养马场变压器,南宗新民居小区变压器,蠡县北盈麻山药农民专业合作社变压器500,蠡县北宗龙兴开花厂,南宗综合6台区,南宗农排4台区【纯农排变】,天雄毛纺厂,北宗综合4台区,金铎染厂,北宗农排11台区【纯农排变】,北宗综合10台区,北宗综合11台区,南宗农排2台区【纯农排变】,蠡县美森家居服饰有限公司,南宗农排12台区【纯农排变】,和平毛纺厂,南宗综合12台区,北宗综合7台区,河北诺曼通信设备有限公司,北宗农排6台区【纯农排变】,北宗综合13台区,南宗综合8台区,北宗农排8台区【纯农排变】,南宗综合9台区,艳辉养殖场,北宗农排10台区【纯农排变】,北宗农排12台区【纯农排变】,南宗综合3台区,北宗农排2台区【纯农排变】,北宗综合3台区,南宗农排7台区【纯农排变】,帅威皮革制品有限公司,南宗雄飞面粉厂,北宗种植科技园,北宗综合12台区,北宗综合14台区,南宗农排13台区【纯农排变】,南宗农排8台区【纯农排变】,北宗农排9台区【纯农排变】,北宗综合6台区,南宗综合7台区,南宗综合4台区,北宗综合8台区,南宗综合10台区,北宗农排1台区【纯农排变】,北宗开花厂,南宗综合13台区,蠡县东帝物业服务有限公司,北宗农排5台区【纯农排变】,南宗农排1台区【纯农排变】,南宗皮棍厂,北宗综合1台区,幸福阳光小区变压器,南宗综合1台区,兴平毛纺厂,南宗综合2台区,前进染厂,南宗综合14台区,南宗综合5台区,南宗农排3台区【纯农排变】,北宗综合2台区,南宗综合11台区,北宗农排4台区【纯农排变】,北宗农排7台区【纯农排变】,南宗农排9台区【纯农排变】,北宗综合5台区,北宗综合15台区,南宗农排11台区【纯农排变】,北宗综合9台区,北宗龙兴开花厂变压器","poweroffReason":"【停电原因】由于站外开关掉闸导致１１０ＫＶ辛兴变电站１０ＫＶ百尺村５１４线路全线停电【变更送电】因抢修进度加快原因，送电时间由２０：００变更为１１：００【发布渠道】通过９５５９８发布","powerTime":"2020-03-10 10:27:14","powerComm":"已送电","subsNo":"","lineNo":"","tgNo":"","tgName":null,"infoStatus":"1","orgName":"国网蠡县供电公司","typeName":null,"infoStatusName":null,"dateDay":null,"orgNos":null,"nowTime":null,"countyName":null,"streetName":null,"villageName":null,"roadName":null,"communityName":null,"tranName":null,"sdLineName":null,"cityCode":"1340616","cityName":"国网蠡县供电公司","provinceCode":null,"stopTime":"2020-03-10 11:00:00","powerType":"全部","powerOffArea":"【全线路停电】停天宇电焊变压器,北宗农排3台区【纯农排变】,变压器,南宗农排6台区【纯农排变】,南宗农排10台区【纯农排变】,南宗农排5台区【纯农排变】,蠡县辛兴镇春晖养马场变压器,南宗新民居小区变压器,蠡县北盈麻山药农民专业合作社变压器500,蠡县北宗龙兴开花厂,南宗综合6台区,南宗农排4台区【纯农排变】,天雄毛纺厂,北宗综合4台区,金铎染厂,北宗农排11台区【纯农排变】,北宗综合10台区,北宗综合11台区,南宗农排2台区【纯农排变】,蠡县美森家居服饰有限公司,南宗农排12台区【纯农排变】,和平毛纺厂,南宗综合12台区,北宗综合7台区,河北诺曼通信设备有限公司,北宗农排6台区【纯农排变】,北宗综合13台区,南宗综合8台区,北宗农排8台区【纯农排变】,南宗综合9台区,艳辉养殖场,北宗农排10台区【纯农排变】,北宗农排12台区【纯农排变】,南宗综合3台区,北宗农排2台区【纯农排变】,北宗综合3台区,南宗农排7台区【纯农排变】,帅威皮革制品有限公司,南宗雄飞面粉厂,北宗种植科技园,北宗综合12台区,北宗综合14台区,南宗农排13台区【纯农排变】,南宗农排8台区【纯农排变】,北宗农排9台区【纯农排变】,北宗综合6台区,南宗综合7台区,南宗综合4台区,北宗综合8台区,南宗综合10台区,北宗农排1台区【纯农排变】,北宗开花厂,南宗综合13台区,蠡县东帝物业服务有限公司,北宗农排5台区【纯农排变】,南宗农排1台区【纯农排变】,南宗皮棍厂,北宗综合1台区,幸福阳光小区变压器,南宗综合1台区,兴平毛纺厂,南宗综合2台区,前进染厂,南宗综合14台区,南宗综合5台区,南宗农排3台区【纯农排变】,北宗综合2台区,南宗综合11台区,北宗农排4台区【纯农排变】,北宗农排7台区【纯农排变】,南宗农排9台区【纯农排变】,北宗综合5台区,北宗综合15台区,南宗农排11台区【纯农排变】,北宗综合9台区,北宗龙兴开花厂变压器","powerOffReason":"【停电原因】由于站外开关掉闸导致１１０ＫＶ辛兴变电站１０ＫＶ百尺村５１４线路全线停电【变更送电】因抢修进度加快原因，送电时间由２０：００变更为１１：００【发布渠道】通过９５５９８发布","powerOffId":"2020031013000011"},{"poweroffId":2020030913000300,"sgpoweroffId":null,"subsName":"","lineName":"韩村线513","pubTranName":"新佟高庄村光8,北田光7,韩村光1,新章村排5【纯农排变】,新大佟村光3【2019年预安排】,榆林光3,榆林光8【2018年秋冬季重过载】,新佟高庄村光9,南召光4,大佟村光7【2018年四批补强】,韩村光5,新佟高庄光5,新北田光6【2019年预安排】,新佟高庄光1,韩村光3,韩村光4,杨村排6【纯农排变】,新佟高庄光7,尤旺光4,曹村光3,新北田光3【2019年预安排】,杨村排3【纯农排变】,皂马大棚排1【纯农排变】,新大佟村光2【2018年重过载】,尤旺光3,曹村光4【2018年四批补强】,韩村光8,农排鸡厂【纯农排变】,章村光6,新佟高庄光3,南召光5,韩村光6,韩村光7,新大佟村光1【2018年秋冬季重过载】,新北田光1,南召光3,尤旺光3【2018年节能变】,王官光4,曹村光8,佟北庄光3,佟高庄大棚排1【纯农排变】,曹村光5【2018年节能变】,曹村光4,新佟高庄光2,曹村光5,王官光1,大佟村光6,南召光2,榆林光4,大佟村光4,新榆林光1,佟北庄光1,新王官排2【纯农排变】,新榆林光2,新韩村光2,皂马光1【2018年技改】,大佟村光2,皂马光6,皂马光3,新佟高庄光6,新佟高庄光4,新尤旺光5【2019年预安排】,皂马排4【纯农排变】,韩村光9,北田混7,尤旺光1【2018年重过载】,佟高庄光10,杨村排4【纯农排变】,韩村排1【纯农排变】,尤旺光2【2018年四批补强】,新王官排3【纯农排变】,","scope":"【影响街道/乡镇】北田乡 【高危重要客户】无 【影响客户】东韩村、章村、曹村、榆林、北田、南召、大佟村、佟北庄、尤旺、佟高庄、王官、皂马","startTime":"2020-03-09 23:49:03","stopDate":"2020-03-10 01:00:00","orgNo":"1340609","typeCode":"电网故障停限电","poweroffArea":"【全线路停电】停新北田光3【2019年预安排】,曹村光1,新佟高庄光1,曹村排3【纯农排变】,章村光2,大佟村排2【纯农排变】,杨村排6【纯农排变】,皂马光1,榆林混1,新佟高庄光7,曹村光3,会军建材城,新榆林光1,榆林排5【纯农排变】,南召光3,曹村排7【纯农排变】,尤旺排5【纯农排变】,章村光4,尤旺光3【2018年节能变】,大佟村排4【纯农排变】,韩村排2【纯农排变】,曹村排8【纯农排变】,尤旺排6【纯农排变】,王官光4,0694616378-定兴县北田乡章村小学-专变-237547951-章村小学,皂马光3,新佟高庄光6,曹村光5,章村农排7【纯农排变】,韩村排5【纯农排变】,王官光1,大佟村光6,新尤旺光5【2019年预安排】,尤旺排2【纯农排变】,曹村排6【纯农排变】,王官排4 1【纯农排变】,曹村光2,韩村光9,北田混7,尤旺光1【2018年重过载】,佟高庄光10,韩村排3【纯农排变】,榆林排4【纯农排变】,杨村排4【纯农排变】,尤旺排1【纯农排变】,韩村排1【纯农排变】,大佟村排5【纯农排变】,尤旺光2【2018年四批补强】,新王官排3【纯农排变】,南召排2【纯农排变】,王官光3,尤旺光3,北田排3【纯农排变】,曹村光4【2018年四批补强】,佟北庄排3【纯农排变】,韩村光8,皂马排1【纯农排变】,北田光5,曹村面,榆林排2【纯农排变】,0469291487-*北田小学-专变-46771861-*北田小学,北田排2【纯农排变】,大佟村排1【纯农排变】,佟高庄排7|09105132075【纯农排变】,新北田光6【2019年预安排】,北田排5【纯农排变】,新榆林光2,新韩村光2,佟北庄光2,王官光2,南召光2,韩村排4【纯农排变】,榆林光4,大佟村光4,章村排1【纯农排变】,章村农排3【纯农排变】,新大佟村光2【2018年重过载】,皂马混2,杨村排2【纯农排变】,大佟村光5,章村排2【纯农排变】,榆林光6,榆林光7,佟北庄光1,皂马光5,北田排4【纯农排变】,新王官排2【纯农排变】,章村光6,新佟高庄光3,杨保安,榆林排3【纯农排变】,农排鸡厂【纯农排变】,章村农排5【纯农排变】,新佟高庄光5,佟北庄排1【纯农排变】,尤旺排4【纯农排变】,韩村光3,曹村排4【纯农排变】,章村农排6【纯农排变】,韩村光4,新佟高庄村光8,北田光7,新北田光2【2018年一批应急】,韩村光1,韩村村排6【纯农排变】,佟高庄排3【纯农排变】,新章村排5【纯农排变】,章村光3,尤旺光2,榆林小学,新大佟村光3【2019年预安排】,100,佟高庄排2【纯农排变】,南召河防,佟北庄排2【纯农排变】,榆林光3,曹村排2【纯农排变】,0694658277-定兴县北田中学-专变-237548824-北田中学2号便,曹村光6,榆林光8【2018年秋冬季重过载】,0694658277-定兴县北田中学-专变-237550411-北田中学1号便,新佟高庄村光9,北田农贸公用,北田排1【纯农排变】,南召光4,大佟村光7【2018年四批补强】,榆林光5,王官光5,佟高庄排6【纯农排变】,韩村光5,北田排6【纯农排变】,皂马排3【纯农排变】,韩村光6,韩村光7,大佟村中心小学,章村光1【2018年重过载】,新大佟村光1【2018年秋冬季重过载】,皂马光1【2018年技改】,北田光4,杨村排11【纯农排变】,新皂马光2,250KVA,大佟村光2,曹村排1【纯农排变】,南召排1【纯农排变】,皂马光6,新佟高庄光4,曹村排5【纯农排变】,曹村光7,尤旺光4,新北田光1,杨村排3【纯农排变】,皂马大棚排1【纯农排变】,南召光1,佟高庄排4【纯农排变】,北田学习-400,皂马排4【纯农排变】,北田乡春蕾小学,章村农排4【纯农排变】,南召光5,曹村光8,佟北庄光3,佟高庄大棚排1【纯农排变】,佟高庄排1【纯农排变】,王官光6,尤旺光6,曹村光5【2018年节能变】,佟高庄排5【纯农排变】,曹村光4,0696770270-定兴县北田小学-专变-240818269","poweroffReason":"【停电原因】由于曹村面粉厂台区跌落保险烧毁导致３５ＫＶ大留村变电站韩村线５１３线路全线停电 【变更送电】因抢修进度加快原因，送电时间由０６：００变更为０１：００ 【发布渠道】通过９５５９８发布","powerTime":"2020-03-10 00:32:02","powerComm":"已送电","subsNo":"","lineNo":"","tgNo":"","tgName":null,"infoStatus":"1","orgName":"国网定兴县供电公司","typeName":null,"infoStatusName":null,"dateDay":null,"orgNos":null,"nowTime":null,"countyName":null,"streetName":null,"villageName":null,"roadName":null,"communityName":null,"tranName":null,"sdLineName":null,"cityCode":"1340609","cityName":"国网定兴县供电公司","provinceCode":null,"stopTime":"2020-03-10 01:00:00","powerType":"全部","powerOffArea":"【全线路停电】停新北田光3【2019年预安排】,曹村光1,新佟高庄光1,曹村排3【纯农排变】,章村光2,大佟村排2【纯农排变】,杨村排6【纯农排变】,皂马光1,榆林混1,新佟高庄光7,曹村光3,会军建材城,新榆林光1,榆林排5【纯农排变】,南召光3,曹村排7【纯农排变】,尤旺排5【纯农排变】,章村光4,尤旺光3【2018年节能变】,大佟村排4【纯农排变】,韩村排2【纯农排变】,曹村排8【纯农排变】,尤旺排6【纯农排变】,王官光4,0694616378-定兴县北田乡章村小学-专变-237547951-章村小学,皂马光3,新佟高庄光6,曹村光5,章村农排7【纯农排变】,韩村排5【纯农排变】,王官光1,大佟村光6,新尤旺光5【2019年预安排】,尤旺排2【纯农排变】,曹村排6【纯农排变】,王官排4 1【纯农排变】,曹村光2,韩村光9,北田混7,尤旺光1【2018年重过载】,佟高庄光10,韩村排3【纯农排变】,榆林排4【纯农排变】,杨村排4【纯农排变】,尤旺排1【纯农排变】,韩村排1【纯农排变】,大佟村排5【纯农排变】,尤旺光2【2018年四批补强】,新王官排3【纯农排变】,南召排2【纯农排变】,王官光3,尤旺光3,北田排3【纯农排变】,曹村光4【2018年四批补强】,佟北庄排3【纯农排变】,韩村光8,皂马排1【纯农排变】,北田光5,曹村面,榆林排2【纯农排变】,0469291487-*北田小学-专变-46771861-*北田小学,北田排2【纯农排变】,大佟村排1【纯农排变】,佟高庄排7|09105132075【纯农排变】,新北田光6【2019年预安排】,北田排5【纯农排变】,新榆林光2,新韩村光2,佟北庄光2,王官光2,南召光2,韩村排4【纯农排变】,榆林光4,大佟村光4,章村排1【纯农排变】,章村农排3【纯农排变】,新大佟村光2【2018年重过载】,皂马混2,杨村排2【纯农排变】,大佟村光5,章村排2【纯农排变】,榆林光6,榆林光7,佟北庄光1,皂马光5,北田排4【纯农排变】,新王官排2【纯农排变】,章村光6,新佟高庄光3,杨保安,榆林排3【纯农排变】,农排鸡厂【纯农排变】,章村农排5【纯农排变】,新佟高庄光5,佟北庄排1【纯农排变】,尤旺排4【纯农排变】,韩村光3,曹村排4【纯农排变】,章村农排6【纯农排变】,韩村光4,新佟高庄村光8,北田光7,新北田光2【2018年一批应急】,韩村光1,韩村村排6【纯农排变】,佟高庄排3【纯农排变】,新章村排5【纯农排变】,章村光3,尤旺光2,榆林小学,新大佟村光3【2019年预安排】,100,佟高庄排2【纯农排变】,南召河防,佟北庄排2【纯农排变】,榆林光3,曹村排2【纯农排变】,0694658277-定兴县北田中学-专变-237548824-北田中学2号便,曹村光6,榆林光8【2018年秋冬季重过载】,0694658277-定兴县北田中学-专变-237550411-北田中学1号便,新佟高庄村光9,北田农贸公用,北田排1【纯农排变】,南召光4,大佟村光7【2018年四批补强】,榆林光5,王官光5,佟高庄排6【纯农排变】,韩村光5,北田排6【纯农排变】,皂马排3【纯农排变】,韩村光6,韩村光7,大佟村中心小学,章村光1【2018年重过载】,新大佟村光1【2018年秋冬季重过载】,皂马光1【2018年技改】,北田光4,杨村排11【纯农排变】,新皂马光2,250KVA,大佟村光2,曹村排1【纯农排变】,南召排1【纯农排变】,皂马光6,新佟高庄光4,曹村排5【纯农排变】,曹村光7,尤旺光4,新北田光1,杨村排3【纯农排变】,皂马大棚排1【纯农排变】,南召光1,佟高庄排4【纯农排变】,北田学习-400,皂马排4【纯农排变】,北田乡春蕾小学,章村农排4【纯农排变】,南召光5,曹村光8,佟北庄光3,佟高庄大棚排1【纯农排变】,佟高庄排1【纯农排变】,王官光6,尤旺光6,曹村光5【2018年节能变】,佟高庄排5【纯农排变】,曹村光4,0696770270-定兴县北田小学-专变-240818269","powerOffReason":"【停电原因】由于曹村面粉厂台区跌落保险烧毁导致３５ＫＶ大留村变电站韩村线５１３线路全线停电 【变更送电】因抢修进度加快原因，送电时间由０６：００变更为０１：００ 【发布渠道】通过９５５９８发布","powerOffId":"2020030913000300"},{"poweroffId":2020030913000272,"sgpoweroffId":null,"subsName":"","lineName":"巩庄线514","pubTranName":"白布南元,白堡村西2号,乡政府新增,野里灰厂,京宇石材厂内（统管）,迅口村东/迅口2号,钟家店村内,钟家店村南,巩庄村南,钟家店新增,白布村西,东院新增,白布乡政府,野里村西,白布东院,远达度假村,白堡村东新增,白布粮库2号,白布粮库门口,白布村南,白布龙王庙,白布南关堂,迅口新增,","scope":"【影响街道/乡镇】白龙乡 【高危重要客户】无 【影响客户】巩庄、钟（中）家店、也（野）里、白堡、训口","startTime":"2020-03-10 00:10:00","stopDate":"2020-03-10 03:00:00","orgNo":"1340617","typeCode":"其他临时停电","poweroffArea":"【全线路停电】停白布砖厂农用变压器,满城县庭院开发,野里灰厂,钟家店村内,富强灰厂,中家店大队,迈瑞达建材1厂,天宇石材,毛儿碾,长江加工厂,钟家店打井（统）,满城县华兴石材厂,白布李家峪,野里村东,白布南元,河北省高速公路荣乌管理处,白布岗头岭,白布南山井,中旺建材厂,野里村南,长江石材,野里村西,白堡村西2号,白布村西,迅口新增,钟家店照明,野里村内,白布连家,钟家店五队,崔路振,白布3和岭,远达度假村,白布南关堂,九龙山,白布12队,白布五分支,白堡吃水井（农网）,白布一分支打井,白布粮库门口,巩庄村南,京宇石材厂内（统管）,中家店打井,讯口2号,白布十四，十五队,石斗儿,野里村南新增,白布东院,巩庄机井,白堡村东新增,坎下村南井,未庄村南井,钟家店村南,巩庄村西2号,白布3分支,三分支双井,白布村南,0387465850-满城县大坎下张石坡石渣厂-专变-45295222-大坎下张石坡石渣厂,也里4队,神星果园,巩庄村西,巩庄村西3号,白布南大棚/毛儿碾,东院新增,钟家店新增,白布乡政府,迅口村东/迅口2号,一分支小井（农网）,白布粮库2号,乡政府新增,白布龙王庙,九龙面粉厂,中国联合网络通信有限公司满城县分,崔青波,野里石厂200KVA配变","poweroffReason":"【停电原因】由于紧急消缺导致３５ＫＶ龙门变电站巩庄线５１４线路全线停电 【变更送电】由于抢修进度加快，送电时间由４：３０变更为３：００ 【发布渠道】通过９５５９８发布","powerTime":"2020-03-10 02:33:33","powerComm":"已送电","subsNo":"","lineNo":"","tgNo":"","tgName":null,"infoStatus":"1","orgName":"国网满城县供电公司","typeName":null,"infoStatusName":null,"dateDay":null,"orgNos":null,"nowTime":null,"countyName":null,"streetName":null,"villageName":null,"roadName":null,"communityName":null,"tranName":null,"sdLineName":null,"cityCode":"1340617","cityName":"国网满城县供电公司","provinceCode":null,"stopTime":"2020-03-10 03:00:00","powerType":"全部","powerOffArea":"【全线路停电】停白布砖厂农用变压器,满城县庭院开发,野里灰厂,钟家店村内,富强灰厂,中家店大队,迈瑞达建材1厂,天宇石材,毛儿碾,长江加工厂,钟家店打井（统）,满城县华兴石材厂,白布李家峪,野里村东,白布南元,河北省高速公路荣乌管理处,白布岗头岭,白布南山井,中旺建材厂,野里村南,长江石材,野里村西,白堡村西2号,白布村西,迅口新增,钟家店照明,野里村内,白布连家,钟家店五队,崔路振,白布3和岭,远达度假村,白布南关堂,九龙山,白布12队,白布五分支,白堡吃水井（农网）,白布一分支打井,白布粮库门口,巩庄村南,京宇石材厂内（统管）,中家店打井,讯口2号,白布十四，十五队,石斗儿,野里村南新增,白布东院,巩庄机井,白堡村东新增,坎下村南井,未庄村南井,钟家店村南,巩庄村西2号,白布3分支,三分支双井,白布村南,0387465850-满城县大坎下张石坡石渣厂-专变-45295222-大坎下张石坡石渣厂,也里4队,神星果园,巩庄村西,巩庄村西3号,白布南大棚/毛儿碾,东院新增,钟家店新增,白布乡政府,迅口村东/迅口2号,一分支小井（农网）,白布粮库2号,乡政府新增,白布龙王庙,九龙面粉厂,中国联合网络通信有限公司满城县分,崔青波,野里石厂200KVA配变","powerOffReason":"【停电原因】由于紧急消缺导致３５ＫＶ龙门变电站巩庄线５１４线路全线停电 【变更送电】由于抢修进度加快，送电时间由４：３０变更为３：００ 【发布渠道】通过９５５９８发布","powerOffId":"2020030913000272"},{"poweroffId":2020030913000270,"sgpoweroffId":null,"subsName":"","lineName":"龙门线512","pubTranName":"东龙门村北,迅口村北,迅口村北2号,铁钎坨ZB,北水峪村西,南水峪,西龙门北坡,西龙门天梁井,龙门山庄,南水峪新增,东龙门,","scope":"【影响街道/乡镇】龙门乡 【高危重要客户】无 【影响客户】南水峪村、北水峪村、东龙门村、西龙门村、青山庄、钟家店、雷溪小镇、训口","startTime":"2020-03-10 00:10:00","stopDate":"2020-03-10 03:00:00","orgNo":"1340617","typeCode":"其他临时停电","poweroffArea":"【全线路停电】停满城县雄飞建材有限公司,西龙门南井2号,满城县喜壮壮养殖专业合作社,南水峪新增,铁钎坨,南水峪,钟家店2队打井【纯农排变】,汇通路桥建设集团有限公司荣乌高速公路LJSG-9项目经理部,东龙门,陈玉祥1号井,北水峪浇地【纯农排变】,南水峪西沟,0387465397-卢锴-专变-45295248-卢铠,铁钎坨ZB,龙门山庄,北水峪机井【纯农排变】,天梁井1号【纯农排变】,满城县雄飞建材有限公司200KVA,迅口村北,西龙门天梁井,玉祥2号,西龙门南井【纯农排变】,北水又村东,东龙门南井2号,财会培训中心2号,满城县白龙乡北水峪村村委会2,北水峪,青山庄,迅口村北2号,满城县城镇市政工程有限公司,康远房地产开发公司,雷溪小镇2号,南水峪黄蓝沟,南水1队,西龙门,雷溪小镇3号,西龙门北坡,东龙门村北,迅口西坡,满城县白龙乡北水峪村民委员2号100KVA,北水峪村西,西龙门打井【纯农排变】,青山庄北井,西龙门北井【纯农排变】,青山庄西井【纯农排变】,青山庄南场,满城县白龙乡北水峪村民委员会1号50KVA,南水峪机井,南水峪（农网）【纯农排变】,南水又北井,东龙门村西井【纯农排变】,钟家店,北水峪杨水站【纯农排变】,东龙门南井,北水峪新增","poweroffReason":"【停电原因】由于紧急消缺导致３５ＫＶ龙门变电站龙门线５１２线路全线停电 【变更送电】由于抢修进度加快，送电时间由４：３０变更为３：００ 【发布渠道】通过９５５９８发布 【发布渠道】通过９５５９８发布","powerTime":"2020-03-10 02:35:11","powerComm":"已送电","subsNo":"","lineNo":"","tgNo":"","tgName":null,"infoStatus":"1","orgName":"国网满城县供电公司","typeName":null,"infoStatusName":null,"dateDay":null,"orgNos":null,"nowTime":null,"countyName":null,"streetName":null,"villageName":null,"roadName":null,"communityName":null,"tranName":null,"sdLineName":null,"cityCode":"1340617","cityName":"国网满城县供电公司","provinceCode":null,"stopTime":"2020-03-10 03:00:00","powerType":"全部","powerOffArea":"【全线路停电】停满城县雄飞建材有限公司,西龙门南井2号,满城县喜壮壮养殖专业合作社,南水峪新增,铁钎坨,南水峪,钟家店2队打井【纯农排变】,汇通路桥建设集团有限公司荣乌高速公路LJSG-9项目经理部,东龙门,陈玉祥1号井,北水峪浇地【纯农排变】,南水峪西沟,0387465397-卢锴-专变-45295248-卢铠,铁钎坨ZB,龙门山庄,北水峪机井【纯农排变】,天梁井1号【纯农排变】,满城县雄飞建材有限公司200KVA,迅口村北,西龙门天梁井,玉祥2号,西龙门南井【纯农排变】,北水又村东,东龙门南井2号,财会培训中心2号,满城县白龙乡北水峪村村委会2,北水峪,青山庄,迅口村北2号,满城县城镇市政工程有限公司,康远房地产开发公司,雷溪小镇2号,南水峪黄蓝沟,南水1队,西龙门,雷溪小镇3号,西龙门北坡,东龙门村北,迅口西坡,满城县白龙乡北水峪村民委员2号100KVA,北水峪村西,西龙门打井【纯农排变】,青山庄北井,西龙门北井【纯农排变】,青山庄西井【纯农排变】,青山庄南场,满城县白龙乡北水峪村民委员会1号50KVA,南水峪机井,南水峪（农网）【纯农排变】,南水又北井,东龙门村西井【纯农排变】,钟家店,北水峪杨水站【纯农排变】,东龙门南井,北水峪新增","powerOffReason":"【停电原因】由于紧急消缺导致３５ＫＶ龙门变电站龙门线５１２线路全线停电 【变更送电】由于抢修进度加快，送电时间由４：３０变更为３：００ 【发布渠道】通过９５５９８发布 【发布渠道】通过９５５９８发布","powerOffId":"2020030913000270"},{"poweroffId":2020030913000250,"sgpoweroffId":null,"subsName":"","lineName":"10kV门东523线","pubTranName":"闫村综合6变压器,河西综合7变压器,闫村综合4台区变压器,河西综合4台区,","scope":"【影响街道/乡镇】药市办 【高危重要客户】无 【影响客户】南娄村、北娄村、闫村、河西村、齐村、门东村","startTime":"2020-03-28 06:00:00","stopDate":"2020-03-28 18:00:00","orgNo":"1340606","typeCode":"计划停电","poweroffArea":"【全线路停电】停河西综合4台区,闫村综合6变压器,河西综合7变压器,闫村综合4台区变压器","poweroffReason":"【停电原因】由于线路转检修导致１１０ＫＶ药城变电站１０ＫＶ门东５２３线路全线停电 【变更送电】无 【发布渠道】保定市安国电视台（０３月１４日００时至２４时之间）屏幕上方滚动","powerTime":"2020-03-28 17:42:13","powerComm":"已送电","subsNo":"","lineNo":"","tgNo":"","tgName":null,"infoStatus":"1","orgName":"国网安国市供电公司","typeName":null,"infoStatusName":null,"dateDay":null,"orgNos":null,"nowTime":null,"countyName":null,"streetName":null,"villageName":null,"roadName":null,"communityName":null,"tranName":null,"sdLineName":null,"cityCode":"1340606","cityName":"国网安国市供电公司","provinceCode":null,"stopTime":"2020-03-28 18:00:00","powerType":"全部","powerOffArea":"【全线路停电】停河西综合4台区,闫村综合6变压器,河西综合7变压器,闫村综合4台区变压器","powerOffReason":"【停电原因】由于线路转检修导致１１０ＫＶ药城变电站１０ＫＶ门东５２３线路全线停电 【变更送电】无 【发布渠道】保定市安国电视台（０３月１４日００时至２４时之间）屏幕上方滚动","powerOffId":"2020030913000250"}],"pageModel":{"pageNow":274,"totalCount":10973,"totalPage":1098,"tableRows":0,"pageCount":10,"beginCount":2730},"isExperi":"1"}