{"message":"","today":"2020-06-15","seleList":[{"poweroffId":2020030813000058,"sgpoweroffId":null,"subsName":"","lineName":"王马线549电力电缆","pubTranName":"坟台24号,坟台村2号,坟台19号,坟台村7号【纯农排变】,坟台14号【纯农排变】,王马村8号,王马村7号,义和庄9号,","scope":"【影响街道/乡镇】安肃镇 【高危重要客户】无 【影响客户】坟台、南张丰、义合庄、仁里村、王马村、沿公村","startTime":"2020-03-08 09:42:13","stopDate":"2020-03-08 12:00:00","orgNo":"1340605","typeCode":"电网故障停限电","poweroffArea":"【全线路停电】停徐水县玉川铸造有限公司,坟台21号,坟台永兴编织厂,南张丰村11号,义和庄7号,0469073469-保定市仁德塑料制品有限公司-专变-46716317-仁里村塑料厂,坟台村3号,义合庄2号,坟台村16号【纯农排变】,坟台11号,坟台20号,徐水县富达金工橡塑有限公司,坟台村2号,坟台村7号【纯农排变】,仁里村20号【纯农排变】,供电所6号【纯农排变】,坟台村4号【纯农排变】,王马村6号,王马村2号,王马村7号,坟台村9号,王马村8号,义合庄3号【纯农排变】,中国联合网络通信有限公司徐水县分公司沿公,义合庄6号【纯农排变】,坟台村6号【纯农排变】,沿公6号,沿公3号,河北长江中远吊索具有限公司,王马村5号,坟台村1号,沿公5号【纯农排变】,坟台23号,南张丰19号,保定奥睿特高分子粘接材料有限公司,坟台村15号,徐水县创业橡胶密封件厂,王马村4号【纯农排变】,徐水县东方橡塑制品有限公司,沿公1号,坟台24号,南张丰7号,保定巨力能源有限公司2,沿公10号,坟台19号,仁里村10号,坟台村10号【纯农排变】,王马村3号,保定银虹泵业有限公司,徐水县世纪缘卫生巾厂,徐水县彩虹表面制品厂,徐水县太行纸业有限公司,徐水县长江吊索具有限公司,沿公4号,义和庄9号,0469073498-徐水县富达金工橡塑有限公司-专变-46716336-徐水县富达金工橡塑有限公司2号,坟台22号,变压器,玉泉橡胶有限公司,义合庄5号【纯农排变】,坟台12号,坟台村8号,沿公11号,坟台村25号【纯农排变】,坟台村13,河北大业电机制造有限公司,保定巨力能源有限公司1,坟台18号,沿公9号【纯农排变】,保定市徐水区住房和城乡建设局变压器,徐水县富达金工橡塑有限公司1号,仁里村15号,坟台14号【纯农排变】,义合庄4号【纯农排变】,王马精工汽修厂,河北省食品工业公司酿酒厂,坟台村17号【纯农排变】,河北富达金工医疗器械有限公司,坟台面粉厂,义合庄1号【纯农排变】,吉正农牧有限公司1号,胜利特种橡胶制造有限公司,坟台5号【纯农排变】,徐水强力合线厂,王马村1号,长达建筑工程第一水泥构件厂,徐水县祈强金属制造有限公司,沿公7号,沿公8号,义和庄8号","poweroffReason":"【停电原因】由于Ｂ相接地导致２２０ＫＶ张丰变电站王马线５４９线路全线停电 【变更送电】因抢修进度加快原因，送电时间由２３:００变更为１２:００ 【发布渠道】通过９５５９８发布","powerTime":"2020-03-08 11:47:23","powerComm":"已送电","subsNo":"","lineNo":"","tgNo":"","tgName":null,"infoStatus":"1","orgName":"国网徐水县供电公司","typeName":null,"infoStatusName":null,"dateDay":null,"orgNos":null,"nowTime":null,"countyName":null,"streetName":null,"villageName":null,"roadName":null,"communityName":null,"tranName":null,"sdLineName":null,"cityCode":"1340605","cityName":"国网徐水县供电公司","provinceCode":null,"stopTime":"2020-03-08 12:00:00","powerType":"全部","powerOffArea":"【全线路停电】停徐水县玉川铸造有限公司,坟台21号,坟台永兴编织厂,南张丰村11号,义和庄7号,0469073469-保定市仁德塑料制品有限公司-专变-46716317-仁里村塑料厂,坟台村3号,义合庄2号,坟台村16号【纯农排变】,坟台11号,坟台20号,徐水县富达金工橡塑有限公司,坟台村2号,坟台村7号【纯农排变】,仁里村20号【纯农排变】,供电所6号【纯农排变】,坟台村4号【纯农排变】,王马村6号,王马村2号,王马村7号,坟台村9号,王马村8号,义合庄3号【纯农排变】,中国联合网络通信有限公司徐水县分公司沿公,义合庄6号【纯农排变】,坟台村6号【纯农排变】,沿公6号,沿公3号,河北长江中远吊索具有限公司,王马村5号,坟台村1号,沿公5号【纯农排变】,坟台23号,南张丰19号,保定奥睿特高分子粘接材料有限公司,坟台村15号,徐水县创业橡胶密封件厂,王马村4号【纯农排变】,徐水县东方橡塑制品有限公司,沿公1号,坟台24号,南张丰7号,保定巨力能源有限公司2,沿公10号,坟台19号,仁里村10号,坟台村10号【纯农排变】,王马村3号,保定银虹泵业有限公司,徐水县世纪缘卫生巾厂,徐水县彩虹表面制品厂,徐水县太行纸业有限公司,徐水县长江吊索具有限公司,沿公4号,义和庄9号,0469073498-徐水县富达金工橡塑有限公司-专变-46716336-徐水县富达金工橡塑有限公司2号,坟台22号,变压器,玉泉橡胶有限公司,义合庄5号【纯农排变】,坟台12号,坟台村8号,沿公11号,坟台村25号【纯农排变】,坟台村13,河北大业电机制造有限公司,保定巨力能源有限公司1,坟台18号,沿公9号【纯农排变】,保定市徐水区住房和城乡建设局变压器,徐水县富达金工橡塑有限公司1号,仁里村15号,坟台14号【纯农排变】,义合庄4号【纯农排变】,王马精工汽修厂,河北省食品工业公司酿酒厂,坟台村17号【纯农排变】,河北富达金工医疗器械有限公司,坟台面粉厂,义合庄1号【纯农排变】,吉正农牧有限公司1号,胜利特种橡胶制造有限公司,坟台5号【纯农排变】,徐水强力合线厂,王马村1号,长达建筑工程第一水泥构件厂,徐水县祈强金属制造有限公司,沿公7号,沿公8号,义和庄8号","powerOffReason":"【停电原因】由于Ｂ相接地导致２２０ＫＶ张丰变电站王马线５４９线路全线停电 【变更送电】因抢修进度加快原因，送电时间由２３:００变更为１２:００ 【发布渠道】通过９５５９８发布","powerOffId":"2020030813000058"},{"poweroffId":2020030813000050,"sgpoweroffId":null,"subsName":"","lineName":"方顺桥线515","pubTranName":"方顺桥羊圈3号【纯农排变】,南固店北5号,南固店村南【纯农排变】,南固店高标准农田4号【纯农排变】,方顺桥村南坝上,南固店沟南新增3号,太平庄西,方顺桥庙台,工业区1号,方顺桥,大站2号100,南固店营房南200新增,南固店西南【纯农排变】,南固店村西大坝【纯农排变】,方顺桥新增,谭头村东【纯农排变】,方顺桥西北大坝,太平庄高标准农田3号【纯农排变】,南固店果园,方顺桥北【纯农排变】,方顺桥高标准农田5号【纯农排变】,南固店村西,南固店奶牛厂,方顺桥恒泰熔炼有限公司,方顺桥高标准农田2号【纯农排变】,腾达有色金属,太平庄村内2号,南固店北3号【纯农排变】,方顺桥龙泉河【纯农排变】,夏庄2号,南固店东北【纯农排变】,南固店村西新增,太平庄新增3号,方顺桥村委会,南固店未俊得,南固店高标准农田3号【纯农排变】,大墩台【纯农排变】,夏庄,南固店沟南2号,鑫宇有色金属熔炼厂,谭头村内,满城县顺达马钢管件,武装警察8641部队家属,谭头村北新增,龙泉河3号,方顺桥西北1号【纯农排变】,南固店市场【纯农排变】,工业区2号,刘干饭店,方顺桥学校东【纯农排变】,南固店村南新增3号,方顺桥南,方顺桥学校新增200,南固店村东新增,鹏辉橡胶造粒厂变压器,金龙马铝业,太平庄高标准农田2号【纯农排变】,南固店沟南,南固店村东,工业区,南固店北【纯农排变】,方顺桥羊圈2号【纯农排变】,南固店东南【纯农排变】,保定市博洋精细化工有限公司,方顺桥南庙台,南固店村南2号【纯农排变】,南固店果园2号,方顺桥桥头,决堤南,鑫增有色金属,保定方顺有色金属,南固店西南2号【纯农排变】,满城县十万亩基本农田建设第七标段决堤新增2号,南固店东北水【纯农排变】,太平庄高标准农田1号【纯农排变】,南固店村内新增,南固店边庄2号,鑫坊养殖公司,南固店1号【纯农排变】,太平庄新增,谭头村新增,南固店村内【纯农排变】,方顺桥钱坡,南固店西南3号【纯农排变】,李玉扑塑料加工厂,方顺桥高标准农田1号【纯农排变】,8641部队,南固店边庄,龙泉河2号【纯农排变】,南固店学校东,方顺桥东北【纯农排变】,方顺桥刘金路照明,太平庄村东新增【纯农排变】,太平庄村东1号,满城县拓兴金属铸造有限公司,太平庄高标准农田4号【纯农排变】,方顺桥西北2号【纯农排变】,太平庄新增西南,南固店高标准农田1号【纯农排变】,方顺桥村西,方顺桥8号,方顺桥高标准农田6号【纯农排变】,方顺桥大队,谭头新增1,谭头西,南固店新增2号,谭头新增,方顺桥东北2号【纯农排变】,拓华铝材厂,方顺桥高标准农田3号【纯农排变】,南固店高标准农田2号【纯农排变】,方顺桥村内,决堤西北,决堤西南,金达有色金属,谭头高标准农田1号【纯农排变】,部队菜园,","scope":"【影响街道/乡镇】方顺桥乡 【高危重要客户】无 【影响客户】南固店、方顺桥、谭头、太平庄","startTime":"2020-03-17 06:00:00","stopDate":"2020-03-17 18:00:00","orgNo":"1340617","typeCode":"计划停电","poweroffArea":"【全线路停电】停太平庄高标准农田3号【纯农排变】,方顺桥南庙台,方顺桥大队,夏庄,南固店边庄2号,南固店西南2号【纯农排变】,太平庄高标准农田4号【纯农排变】,太平庄村内2号,夏庄2号,方顺桥桥头,龙泉河2号【纯农排变】,南固店村西大坝【纯农排变】,南固店沟南,南固店沟南新增3号,保定市博洋精细化工有限公司,南固店北5号,南固店高标准农田4号【纯农排变】,方顺桥高标准农田3号【纯农排变】,南固店村西,决堤南,谭头高标准农田1号【纯农排变】,太平庄村东新增【纯农排变】,保定方顺有色金属,南固店东北水【纯农排变】,太平庄高标准农田1号【纯农排变】,方顺桥西北大坝,谭头新增1,南固店沟南2号,南固店市场【纯农排变】,太平庄新增西南,方顺桥东北【纯农排变】,南固店新增2号,太平庄西,南固店高标准农田3号【纯农排变】,方顺桥庙台,南固店高标准农田1号【纯农排变】,方顺桥高标准农田1号【纯农排变】,方顺桥村内,满城县拓兴金属铸造有限公司,南固店果园,太平庄新增,南固店未俊得,方顺桥恒泰熔炼有限公司,谭头村新增,南固店西南3号【纯农排变】,南固店学校东,南固店边庄,太平庄高标准农田2号【纯农排变】,方顺桥羊圈3号【纯农排变】,南固店北【纯农排变】,方顺桥羊圈2号【纯农排变】,谭头村内,工业区2号,方顺桥高标准农田5号【纯农排变】,方顺桥高标准农田6号【纯农排变】,方顺桥龙泉河【纯农排变】,腾达有色金属,拓华铝材厂,南固店村内【纯农排变】,南固店北3号【纯农排变】,部队菜园,南固店村内新增,方顺桥高标准农田2号【纯农排变】,方顺桥村南坝上,工业区1号,南固店东南【纯农排变】,8641部队,工业区,南固店村南2号【纯农排变】,南固店村东,满城县顺达马钢管件,满城县十万亩基本农田建设第七标段决堤新增2号,金达有色金属,鑫宇有色金属熔炼厂,大站2号100,谭头村北新增,方顺桥北【纯农排变】,南固店村南【纯农排变】,南固店营房南200新增,大墩台【纯农排变】,谭头村东【纯农排变】,南固店村西新增,方顺桥南,南固店高标准农田2号【纯农排变】,决堤西南,决堤西北,方顺桥8号,武装警察8641部队家属,李玉扑塑料加工厂,方顺桥村西,南固店西南【纯农排变】,鑫增有色金属,方顺桥学校新增200,南固店村东新增,方顺桥新增,方顺桥刘金路照明,太平庄新增3号,方顺桥村委会,金龙马铝业,方顺桥西北1号【纯农排变】,南固店奶牛厂,南固店1号【纯农排变】,太平庄村东1号,鹏辉橡胶造粒厂变压器,方顺桥学校东【纯农排变】,南固店东北【纯农排变】,龙泉河3号,方顺桥钱坡,方顺桥,方顺桥西北2号【纯农排变】,方顺桥东北2号【纯农排变】,谭头新增,刘干饭店,南固店村南新增3号,谭头西,鑫坊养殖公司,南固店果园2号","poweroffReason":"【停电原因】由于线路检修导致１１０ＫＶ西原变电站方顺桥线５１５线路全线停电 【变更送电】无 【发布渠道】满城县有线电视台（０３月０８日１９：００－２０：００至０３月１６日１９：００－２０：００）屏幕上方滚动","powerTime":"2020-03-17 17:17:30","powerComm":"已送电","subsNo":"","lineNo":"","tgNo":"","tgName":null,"infoStatus":"1","orgName":"国网满城县供电公司","typeName":null,"infoStatusName":null,"dateDay":null,"orgNos":null,"nowTime":null,"countyName":null,"streetName":null,"villageName":null,"roadName":null,"communityName":null,"tranName":null,"sdLineName":null,"cityCode":"1340617","cityName":"国网满城县供电公司","provinceCode":null,"stopTime":"2020-03-17 18:00:00","powerType":"全部","powerOffArea":"【全线路停电】停太平庄高标准农田3号【纯农排变】,方顺桥南庙台,方顺桥大队,夏庄,南固店边庄2号,南固店西南2号【纯农排变】,太平庄高标准农田4号【纯农排变】,太平庄村内2号,夏庄2号,方顺桥桥头,龙泉河2号【纯农排变】,南固店村西大坝【纯农排变】,南固店沟南,南固店沟南新增3号,保定市博洋精细化工有限公司,南固店北5号,南固店高标准农田4号【纯农排变】,方顺桥高标准农田3号【纯农排变】,南固店村西,决堤南,谭头高标准农田1号【纯农排变】,太平庄村东新增【纯农排变】,保定方顺有色金属,南固店东北水【纯农排变】,太平庄高标准农田1号【纯农排变】,方顺桥西北大坝,谭头新增1,南固店沟南2号,南固店市场【纯农排变】,太平庄新增西南,方顺桥东北【纯农排变】,南固店新增2号,太平庄西,南固店高标准农田3号【纯农排变】,方顺桥庙台,南固店高标准农田1号【纯农排变】,方顺桥高标准农田1号【纯农排变】,方顺桥村内,满城县拓兴金属铸造有限公司,南固店果园,太平庄新增,南固店未俊得,方顺桥恒泰熔炼有限公司,谭头村新增,南固店西南3号【纯农排变】,南固店学校东,南固店边庄,太平庄高标准农田2号【纯农排变】,方顺桥羊圈3号【纯农排变】,南固店北【纯农排变】,方顺桥羊圈2号【纯农排变】,谭头村内,工业区2号,方顺桥高标准农田5号【纯农排变】,方顺桥高标准农田6号【纯农排变】,方顺桥龙泉河【纯农排变】,腾达有色金属,拓华铝材厂,南固店村内【纯农排变】,南固店北3号【纯农排变】,部队菜园,南固店村内新增,方顺桥高标准农田2号【纯农排变】,方顺桥村南坝上,工业区1号,南固店东南【纯农排变】,8641部队,工业区,南固店村南2号【纯农排变】,南固店村东,满城县顺达马钢管件,满城县十万亩基本农田建设第七标段决堤新增2号,金达有色金属,鑫宇有色金属熔炼厂,大站2号100,谭头村北新增,方顺桥北【纯农排变】,南固店村南【纯农排变】,南固店营房南200新增,大墩台【纯农排变】,谭头村东【纯农排变】,南固店村西新增,方顺桥南,南固店高标准农田2号【纯农排变】,决堤西南,决堤西北,方顺桥8号,武装警察8641部队家属,李玉扑塑料加工厂,方顺桥村西,南固店西南【纯农排变】,鑫增有色金属,方顺桥学校新增200,南固店村东新增,方顺桥新增,方顺桥刘金路照明,太平庄新增3号,方顺桥村委会,金龙马铝业,方顺桥西北1号【纯农排变】,南固店奶牛厂,南固店1号【纯农排变】,太平庄村东1号,鹏辉橡胶造粒厂变压器,方顺桥学校东【纯农排变】,南固店东北【纯农排变】,龙泉河3号,方顺桥钱坡,方顺桥,方顺桥西北2号【纯农排变】,方顺桥东北2号【纯农排变】,谭头新增,刘干饭店,南固店村南新增3号,谭头西,鑫坊养殖公司,南固店果园2号","powerOffReason":"【停电原因】由于线路检修导致１１０ＫＶ西原变电站方顺桥线５１５线路全线停电 【变更送电】无 【发布渠道】满城县有线电视台（０３月０８日１９：００－２０：００至０３月１６日１９：００－２０：００）屏幕上方滚动","powerOffId":"2020030813000050"},{"poweroffId":2020030813000048,"sgpoweroffId":null,"subsName":"","lineName":"南劳改线516","pubTranName":"长旺新增50,守陵道边,守陵新增1号,守陵大队,守陵村东,守陵学校边,","scope":"【影响街道/乡镇】满城镇 【高危重要客户】无 【影响客户】守陵村、长旺村及外环以南、南马村南、西佃庄村西、气象局、妇幼保健院、农村合作医疗","startTime":"2020-03-17 06:00:00","stopDate":"2020-03-17 18:30:00","orgNo":"1340617","typeCode":"计划停电","poweroffArea":"【全线路停电】停守陵新增1号,长旺一号【纯农排变】,长旺二号【纯农排变】,长旺四号井【纯农排变】,长旺三号【纯农排变】,长旺新增50,南马老井,守陵村东,守陵大队,守陵道边,守陵学校边,西佃庄村西【纯农排变】","poweroffReason":"【停电原因】由于线路检修导致１１０ＫＶ水源变电站南劳改线５１６线路全线停电 【变更送电】因抢修进度加快，送电时间由２０：００变更为１８：３０ 【发布渠道】满城县有线电视台（０３月０８日１９：００－２０：００至０３月１６日１９：００－２０：００）屏幕上方滚动","powerTime":"2020-03-17 18:21:37","powerComm":"已送电","subsNo":"","lineNo":"","tgNo":"","tgName":null,"infoStatus":"1","orgName":"国网满城县供电公司","typeName":null,"infoStatusName":null,"dateDay":null,"orgNos":null,"nowTime":null,"countyName":null,"streetName":null,"villageName":null,"roadName":null,"communityName":null,"tranName":null,"sdLineName":null,"cityCode":"1340617","cityName":"国网满城县供电公司","provinceCode":null,"stopTime":"2020-03-17 18:30:00","powerType":"全部","powerOffArea":"【全线路停电】停守陵新增1号,长旺一号【纯农排变】,长旺二号【纯农排变】,长旺四号井【纯农排变】,长旺三号【纯农排变】,长旺新增50,南马老井,守陵村东,守陵大队,守陵道边,守陵学校边,西佃庄村西【纯农排变】","powerOffReason":"【停电原因】由于线路检修导致１１０ＫＶ水源变电站南劳改线５１６线路全线停电 【变更送电】因抢修进度加快，送电时间由２０：００变更为１８：３０ 【发布渠道】满城县有线电视台（０３月０８日１９：００－２０：００至０３月１６日１９：００－２０：００）屏幕上方滚动","powerOffId":"2020030813000048"},{"poweroffId":2020030813000036,"sgpoweroffId":null,"subsName":"","lineName":"西农业线517","pubTranName":"固城马家庄光4,三街光6,新二街光4,三街光5,北庄头光4,国兴光12,三里铺光4变压器,三街光1,四街排4【纯农排变】,国兴光17变压器【灾后重建】,国兴光18【2018年重过载】,八街光1,新国兴光11,肖村营光7,肖村营光5【2019年预安排】,四街光1,三街光7【2018年重过载】,三里铺光2【2018年重过载】,固城马家庄光2,固城马家庄光5,二街光5,国兴光10【2018年重过载】,三街光3,四街光3变压器（100）,二街光6,三里铺光1,肖村营光9【2018年重过载】,肖村营光10【2019年预安排】,四街光6,国兴光3,肖村营排9【纯农排变】,肖村营光4,国兴光14变压器【灾后重建】,二街光1,新国兴光5,肖村营光8【2018年重过载】,肖村营光2,北庄头光14【2018年四批补强】,三街光4变压器（200）,固城马家庄光3,二街光7变压器,肖村营光6,三街光8【2019年预安排】,国兴光16变压器【灾后重建】,国兴光13,四街光5,八街光8【2018年重过载】,八街光7【2018年重过载】,八街光3,四街排5【纯农排变】,四街排8【纯农排变】,固城马家庄光1,新八街光2,肖村营排8【纯农排变】,国兴光1变压器,四街排6【纯农排变】,八街光6,八街光5,三里铺光3【2018年重过载】,国兴光2,肖村营光1,二街村排4【纯农排变】,国兴光15变压器【灾后重建】,新八街村光4,四街光2,二街光3,八街光9变压器,新四街光4,三街光2,国兴光7,肖村营光3,四街排7【纯农排变】,","scope":"【影响街道/乡镇】固城镇 【高危重要客户】无 【影响客户】固城中学、肖村、北庄头、马家庄、国兴、三街村、三里铺、四街村、八街村、二街村、北京大风公司、肖村营、马家庄幼儿园、四同盛世汽车配件厂、养路工区","startTime":"2020-03-08 08:44:38","stopDate":"2020-03-08 12:00:00","orgNo":"1340609","typeCode":"电网故障停限电","poweroffArea":"【全线路停电】停四街光3变压器（100）,二街光6,肖村营光6,0694659948-定兴县固城中学-专变-237548862-固城中学2号便,三街光8【2019年预安排】,国兴光16变压器【灾后重建】,国兴光13,四街光5,0696770209-定兴县马家庄幼儿园-专变-240818926-马家庄幼儿园,四通盛世汽车配件厂,八街光8【2018年重过载】,八街光7【2018年重过载】,八街光3,四街排5【纯农排变】,四街排8【纯农排变】,肖村营光5【2019年预安排】,四街光1,肖村营排7【纯农排变】,国兴排11【纯农排变】,三里铺光1,肖村营光9【2018年重过载】,肖村营光10【2019年预安排】,八街混1（固城中学分户）,四街光6,国兴光3,肖村营排4【纯农排变】,八街煤厂-200,肖村营排3【纯农排变】,四街排7【纯农排变】,固城马家庄光4,国兴排14【纯农排变】,国兴小学-500,0694659948-定兴县固城中学-专变-237550448-固城中学1号便,三街光6,新二街光4,肖村营排9【纯农排变】,三街排4【纯农排变】,四街排1,四街排2,国兴光2,三里铺光3【2018年重过载】,三街排2【纯农排变】,马庄排1【纯农排变】,肖村营光1,国兴排12【纯农排变】,二街村排4【纯农排变】,国兴光15变压器【灾后重建】,新八街村光4,四街光2,二街光3,八街光9变压器,新四街光4,100,三街光2,三街排1【纯农排变】,国兴排13【纯农排变】,北京大风公司,国兴光7,固城中学,八街煤厂,二街排1【纯农排变】,四街排3,三街排3【纯农排变】,肖村营光3,肖村营排8【纯农排变】,0691853871-定兴县肖村乡肖村营中心小学-专变-235619783-肖村营中心小学-400,三里铺光2【2018年重过载】,固城马家庄光2,固城马家庄光1,新八街光2,国兴光1变压器,四街排6【纯农排变】,八街光6,八街光5,三街光5,北庄头光4,鑫泉装饰材料-100,三街光1,八街光1,二街排3【纯农排变】,新国兴光11,肖村营光7,固城马家庄光5,二街光5,国兴光10【2018年重过载】,三街光3,二街排2【纯农排变】,肖村营光4,国兴光14变压器【灾后重建】,肖村营排6【纯农排变】,二街光1,新国兴光5,肖村营光8【2018年重过载】,肖村营光2,北庄头光14【2018年四批补强】,三里铺排1【纯农排变】,三街光4变压器（200）,0692010888-固城镇固城中心小学-专变-236731529-固城中心小学-400,固城马家庄光3,三街大棚排【纯农排变】,二街光7变压器,三街光7【2018年重过载】,国兴光12,160,四街板厂,三里铺光4变压器,四街排4【纯农排变】,0681212062-保定市交通运输局定兴县养路工区-专变-221711517-养路工区-200,国兴光17变压器【灾后重建】,国兴光18【2018年重过载】,三街排6【纯农排变】","poweroffReason":"【停电原因】由于站外开关跳闸导致３５ＫＶ固城变电站西农业线５１７线路全线停电 【变更送电】无 【发布渠道】通过９５５９８发布","powerTime":"2020-03-08 11:02:23","powerComm":"已送电","subsNo":"","lineNo":"","tgNo":"","tgName":null,"infoStatus":"1","orgName":"国网定兴县供电公司","typeName":null,"infoStatusName":null,"dateDay":null,"orgNos":null,"nowTime":null,"countyName":null,"streetName":null,"villageName":null,"roadName":null,"communityName":null,"tranName":null,"sdLineName":null,"cityCode":"1340609","cityName":"国网定兴县供电公司","provinceCode":null,"stopTime":"2020-03-08 12:00:00","powerType":"全部","powerOffArea":"【全线路停电】停四街光3变压器（100）,二街光6,肖村营光6,0694659948-定兴县固城中学-专变-237548862-固城中学2号便,三街光8【2019年预安排】,国兴光16变压器【灾后重建】,国兴光13,四街光5,0696770209-定兴县马家庄幼儿园-专变-240818926-马家庄幼儿园,四通盛世汽车配件厂,八街光8【2018年重过载】,八街光7【2018年重过载】,八街光3,四街排5【纯农排变】,四街排8【纯农排变】,肖村营光5【2019年预安排】,四街光1,肖村营排7【纯农排变】,国兴排11【纯农排变】,三里铺光1,肖村营光9【2018年重过载】,肖村营光10【2019年预安排】,八街混1（固城中学分户）,四街光6,国兴光3,肖村营排4【纯农排变】,八街煤厂-200,肖村营排3【纯农排变】,四街排7【纯农排变】,固城马家庄光4,国兴排14【纯农排变】,国兴小学-500,0694659948-定兴县固城中学-专变-237550448-固城中学1号便,三街光6,新二街光4,肖村营排9【纯农排变】,三街排4【纯农排变】,四街排1,四街排2,国兴光2,三里铺光3【2018年重过载】,三街排2【纯农排变】,马庄排1【纯农排变】,肖村营光1,国兴排12【纯农排变】,二街村排4【纯农排变】,国兴光15变压器【灾后重建】,新八街村光4,四街光2,二街光3,八街光9变压器,新四街光4,100,三街光2,三街排1【纯农排变】,国兴排13【纯农排变】,北京大风公司,国兴光7,固城中学,八街煤厂,二街排1【纯农排变】,四街排3,三街排3【纯农排变】,肖村营光3,肖村营排8【纯农排变】,0691853871-定兴县肖村乡肖村营中心小学-专变-235619783-肖村营中心小学-400,三里铺光2【2018年重过载】,固城马家庄光2,固城马家庄光1,新八街光2,国兴光1变压器,四街排6【纯农排变】,八街光6,八街光5,三街光5,北庄头光4,鑫泉装饰材料-100,三街光1,八街光1,二街排3【纯农排变】,新国兴光11,肖村营光7,固城马家庄光5,二街光5,国兴光10【2018年重过载】,三街光3,二街排2【纯农排变】,肖村营光4,国兴光14变压器【灾后重建】,肖村营排6【纯农排变】,二街光1,新国兴光5,肖村营光8【2018年重过载】,肖村营光2,北庄头光14【2018年四批补强】,三里铺排1【纯农排变】,三街光4变压器（200）,0692010888-固城镇固城中心小学-专变-236731529-固城中心小学-400,固城马家庄光3,三街大棚排【纯农排变】,二街光7变压器,三街光7【2018年重过载】,国兴光12,160,四街板厂,三里铺光4变压器,四街排4【纯农排变】,0681212062-保定市交通运输局定兴县养路工区-专变-221711517-养路工区-200,国兴光17变压器【灾后重建】,国兴光18【2018年重过载】,三街排6【纯农排变】","powerOffReason":"【停电原因】由于站外开关跳闸导致３５ＫＶ固城变电站西农业线５１７线路全线停电 【变更送电】无 【发布渠道】通过９５５９８发布","powerOffId":"2020030813000036"},{"poweroffId":2020030813000033,"sgpoweroffId":null,"subsName":"","lineName":"邮电线513","pubTranName":"北太平庄光5,新育村光1【2018年重过载】,北太平庄光1,北太平庄光2【2018年节能变】,北太平庄光8,北太平庄光6,南太平庄光4,新育村光2【2018年重过载】,北太平庄光3【2018年节能变】,新南太平庄光2,南太平庄光3【2019年预安排】,北太平庄光7【2018年重过载】,北太平庄光9【2018年四批补强】,南太平庄光1,北太平庄光4,","scope":"【影响街道/乡镇】固城镇 【高危重要客户】无 【影响客户】北太平庄、南太平庄、新育村、熙和商贸、刘启祥加工厂、保定百亨气体有限公司、中国农业气象试验基地、华智抽纱制品有限公司、河北诚睿金属制品有限公司、塑料颗粒厂、定兴县隆第格不锈钢铸品有限公司、保定晟达涂装材料有限公司、定兴县合金锛造有限公司、定兴县固城镇太平铸钢厂、保定东顺文教用品有限公司、保定硕源水业有限公司、进发水泥构件厂、北太平庄小学、移动公司北太平庄村西北机站、保定兴安冶金设备有限公司、鸿浠陶瓷、移动公司北太平庄村西北机站","startTime":"2020-03-08 08:42:39","stopDate":"2020-03-08 12:00:00","orgNo":"1340609","typeCode":"电网故障停限电","poweroffArea":"【全线路停电】停新育村光1【2018年重过载】,北太平庄光1,北太平庄光2【2018年节能变】,北太平庄光8,北太平庄光6,北太平庄光4,南太平庄光4,新育村光2【2018年重过载】,北太平庄光3【2018年节能变】,新南太平庄光2,北太平庄光5,南太平庄光3【2019年预安排】,北太平庄光7【2018年重过载】,北太平庄光9【2018年四批补强】,南太平庄光1","poweroffReason":"【停电原因】由于南太平庄排４分支２号杆铁丝搭担导致３５ＫＶ固城变电站邮电线５１３线路全线停电 【变更送电】无 【发布渠道】通过９５５９８发布","powerTime":"2020-03-08 11:06:54","powerComm":"已送电","subsNo":"","lineNo":"","tgNo":"","tgName":null,"infoStatus":"1","orgName":"国网定兴县供电公司","typeName":null,"infoStatusName":null,"dateDay":null,"orgNos":null,"nowTime":null,"countyName":null,"streetName":null,"villageName":null,"roadName":null,"communityName":null,"tranName":null,"sdLineName":null,"cityCode":"1340609","cityName":"国网定兴县供电公司","provinceCode":null,"stopTime":"2020-03-08 12:00:00","powerType":"全部","powerOffArea":"【全线路停电】停新育村光1【2018年重过载】,北太平庄光1,北太平庄光2【2018年节能变】,北太平庄光8,北太平庄光6,北太平庄光4,南太平庄光4,新育村光2【2018年重过载】,北太平庄光3【2018年节能变】,新南太平庄光2,北太平庄光5,南太平庄光3【2019年预安排】,北太平庄光7【2018年重过载】,北太平庄光9【2018年四批补强】,南太平庄光1","powerOffReason":"【停电原因】由于南太平庄排４分支２号杆铁丝搭担导致３５ＫＶ固城变电站邮电线５１３线路全线停电 【变更送电】无 【发布渠道】通过９５５９８发布","powerOffId":"2020030813000033"},{"poweroffId":2020030813000026,"sgpoweroffId":null,"subsName":"","lineName":"10kV515沙沃线","pubTranName":"10KV沙沃线515向阳小区变压器,","scope":"【影响街道/乡镇】博野镇【高危重要客户】无【影响客户】向阳小区","startTime":"2020-03-08 07:51:55","stopDate":"2020-03-08 12:30:00","orgNo":"1340608","typeCode":"电网故障停限电","poweroffArea":"【单台区停电】停10KV沙沃线515向阳小区变压器","poweroffReason":"【停电原因】由于低压线断导致１１０ＫＶ博野变电站沙沃５１５线路０４８３５公变台区停电【变更送电】因抢修进度加快原因，送电时间由１７：００变更为１２：３０【发布渠道】通过９５５９８发布","powerTime":"2020-03-08 12:06:32","powerComm":"已送电","subsNo":"","lineNo":"","tgNo":"","tgName":null,"infoStatus":"1","orgName":"国网博野县供电公司","typeName":null,"infoStatusName":null,"dateDay":null,"orgNos":null,"nowTime":null,"countyName":null,"streetName":null,"villageName":null,"roadName":null,"communityName":null,"tranName":null,"sdLineName":null,"cityCode":"1340608","cityName":"国网博野县供电公司","provinceCode":null,"stopTime":"2020-03-08 12:30:00","powerType":"全部","powerOffArea":"【单台区停电】停10KV沙沃线515向阳小区变压器","powerOffReason":"【停电原因】由于低压线断导致１１０ＫＶ博野变电站沙沃５１５线路０４８３５公变台区停电【变更送电】因抢修进度加快原因，送电时间由１７：００变更为１２：３０【发布渠道】通过９５５９８发布","powerOffId":"2020030813000026"},{"poweroffId":2020030713000210,"sgpoweroffId":null,"subsName":"","lineName":"10kV打油庄线511","pubTranName":"1钟家营内2,","scope":"【影响街道/乡镇】闫庄乡 【高危重要客户】无 【影响客户】钟家营","startTime":"2020-03-07 14:34:29","stopDate":"2020-03-07 16:10:00","orgNo":"1340618","typeCode":"电网故障停限电","poweroffArea":"【单台区停电】停1钟家营内2","poweroffReason":"【停电原因】由于低压线断导致３５ＫＶ沙堤营变电站１０ＫＶ打油庄线５１１线路１钟家营内２号公变台区停电 【变更送电】因抢修进度加快原因，送电时间由１９：００变更为１６：１０ 【发布渠道】通过９５５９８发布","powerTime":"2020-03-07 15:51:07","powerComm":"陈云涛通知已送电","subsNo":"","lineNo":"","tgNo":"","tgName":null,"infoStatus":"1","orgName":"国网清苑县供电公司","typeName":null,"infoStatusName":null,"dateDay":null,"orgNos":null,"nowTime":null,"countyName":null,"streetName":null,"villageName":null,"roadName":null,"communityName":null,"tranName":null,"sdLineName":null,"cityCode":"1340618","cityName":"国网清苑县供电公司","provinceCode":null,"stopTime":"2020-03-07 16:10:00","powerType":"全部","powerOffArea":"【单台区停电】停1钟家营内2","powerOffReason":"【停电原因】由于低压线断导致３５ＫＶ沙堤营变电站１０ＫＶ打油庄线５１１线路１钟家营内２号公变台区停电 【变更送电】因抢修进度加快原因，送电时间由１９：００变更为１６：１０ 【发布渠道】通过９５５９８发布","powerOffId":"2020030713000210"},{"poweroffId":2020030713000196,"sgpoweroffId":null,"subsName":"","lineName":"赵庄乡线516","pubTranName":"赵庄村西南混,赵庄南2号农【纯农排变】,赵庄村南农业【纯农排变】,西张庄西北农【纯农排变】,北张庄农业1号【纯农排变】,","scope":"【影响街道/乡镇】赵庄乡　 【高危重要客户】无　　 【影响客户】赵庄村西南及部分农业、西张庄村部分农业、北张庄部分农业","startTime":"2020-03-08 06:30:00","stopDate":"2020-03-08 12:30:00","orgNo":"1340623","typeCode":"其他临时停电","poweroffArea":"【全线路停电】停赵庄村西南混,赵庄南2号农【纯农排变】,赵庄村南农业【纯农排变】,西张庄西北农【纯农排变】,北张庄农业1号【纯农排变】","poweroffReason":"【停电原因】由于赵庄乡线５１６线路０２７号杆隔离开关发热，需停电进行紧急消缺导致３５ＫＶ工业变电站赵庄乡线５１６线路全线停电 【变更送电】无 【发布渠道】通过９５５９８发布","powerTime":"2020-03-08 12:23:26","powerComm":"已送电","subsNo":"","lineNo":"","tgNo":"","tgName":null,"infoStatus":"1","orgName":"国网望都县供电公司","typeName":null,"infoStatusName":null,"dateDay":null,"orgNos":null,"nowTime":null,"countyName":null,"streetName":null,"villageName":null,"roadName":null,"communityName":null,"tranName":null,"sdLineName":null,"cityCode":"1340623","cityName":"国网望都县供电公司","provinceCode":null,"stopTime":"2020-03-08 12:30:00","powerType":"全部","powerOffArea":"【全线路停电】停赵庄村西南混,赵庄南2号农【纯农排变】,赵庄村南农业【纯农排变】,西张庄西北农【纯农排变】,北张庄农业1号【纯农排变】","powerOffReason":"【停电原因】由于赵庄乡线５１６线路０２７号杆隔离开关发热，需停电进行紧急消缺导致３５ＫＶ工业变电站赵庄乡线５１６线路全线停电 【变更送电】无 【发布渠道】通过９５５９８发布","powerOffId":"2020030713000196"},{"poweroffId":2020030713000193,"sgpoweroffId":null,"subsName":"","lineName":"10kV张登线514","pubTranName":"1张登店内1,","scope":"【影响街道/乡镇】张登乡 【高危重要客户】无 【影响客户】张登店","startTime":"2020-03-07 12:16:20","stopDate":"2020-03-07 16:00:00","orgNo":"1340618","typeCode":"电网故障停限电","poweroffArea":"【单台区停电】停1张登店内1","poweroffReason":"【停电原因】由于低压接户线断导致１１０ＫＶ张登变电站１０ＫＶ张登线５１４线路１张登店内１号公变台区停电 【变更送电】无 【发布渠道】通过９５５９８发布","powerTime":"2020-03-07 15:05:27","powerComm":"王朝晖通知已送电","subsNo":"","lineNo":"","tgNo":"","tgName":null,"infoStatus":"1","orgName":"国网清苑县供电公司","typeName":null,"infoStatusName":null,"dateDay":null,"orgNos":null,"nowTime":null,"countyName":null,"streetName":null,"villageName":null,"roadName":null,"communityName":null,"tranName":null,"sdLineName":null,"cityCode":"1340618","cityName":"国网清苑县供电公司","provinceCode":null,"stopTime":"2020-03-07 16:00:00","powerType":"全部","powerOffArea":"【单台区停电】停1张登店内1","powerOffReason":"【停电原因】由于低压接户线断导致１１０ＫＶ张登变电站１０ＫＶ张登线５１４线路１张登店内１号公变台区停电 【变更送电】无 【发布渠道】通过９５５９８发布","powerOffId":"2020030713000193"},{"poweroffId":2020030713000175,"sgpoweroffId":null,"subsName":"","lineName":"10kV张登线514","pubTranName":"谢庄内2号,","scope":"【影响街道/乡镇】张登乡 【高危重要客户】无 【影响客户】谢庄","startTime":"2020-03-07 10:38:46","stopDate":"2020-03-07 12:00:00","orgNo":"1340618","typeCode":"电网故障停限电","poweroffArea":"【单台区停电】停谢庄内2号","poweroffReason":"【停电原因】由于低压接户线断导致１１０ＫＶ张登变电站１０ＫＶ张登线５１４线路谢庄内２号公变台区停电 【变更送电】因抢修进度加快原因，送电时间由１６：００变更为１２：００ 【发布渠道】通过９５５９８发布","powerTime":"2020-03-07 11:33:44","powerComm":"王朝晖通知已送电","subsNo":"","lineNo":"","tgNo":"","tgName":null,"infoStatus":"1","orgName":"国网清苑县供电公司","typeName":null,"infoStatusName":null,"dateDay":null,"orgNos":null,"nowTime":null,"countyName":null,"streetName":null,"villageName":null,"roadName":null,"communityName":null,"tranName":null,"sdLineName":null,"cityCode":"1340618","cityName":"国网清苑县供电公司","provinceCode":null,"stopTime":"2020-03-07 12:00:00","powerType":"全部","powerOffArea":"【单台区停电】停谢庄内2号","powerOffReason":"【停电原因】由于低压接户线断导致１１０ＫＶ张登变电站１０ＫＶ张登线５１４线路谢庄内２号公变台区停电 【变更送电】因抢修进度加快原因，送电时间由１６：００变更为１２：００ 【发布渠道】通过９５５９８发布","powerOffId":"2020030713000175"}],"pageModel":{"pageNow":278,"totalCount":10973,"totalPage":1098,"tableRows":0,"pageCount":10,"beginCount":2770},"isExperi":"1"}