{"message":"","today":"2020-06-15","seleList":[{"poweroffId":2020030713000152,"sgpoweroffId":null,"subsName":"","lineName":"黄庄II线535","pubTranName":"井泉内东2号,十五里铺内中配变,十五里铺村内西北,许庄东北2号,许庄内东南,井泉内东,许庄内西南,许庄内东北,十五里铺村内,十五里铺内东,许庄新民居2号,井泉内西,固店乡政府配变,许庄内西北,","scope":"【影响街道/乡镇】固店镇　 【高危重要客户】无 【影响客户】井泉村、十五里铺、许庄村","startTime":"2020-03-07 06:30:00","stopDate":"2020-03-07 10:30:00","orgNo":"1340623","typeCode":"其他临时停电","poweroffArea":"【全线路停电】停井泉内东2号,十五里铺内中配变,十五里铺村内西北,许庄东北2号,许庄内东南,井泉内东,许庄内西南,许庄内东北,十五里铺村内,十五里铺内东,许庄新民居2号,井泉内西,固店乡政府配变,许庄内西北","poweroffReason":"【停电原因】由于黄庄ＩＩ线５３５线路００４号杆处电线打火，需停电进行紧急消缺导致２２０ＫＶ固店变电站黄庄ＩＩ线５３５线路全线停电 【变更送电】无 【发布渠道】通过９５５９８发布","powerTime":"2020-03-07 10:22:10","powerComm":"已送电","subsNo":"","lineNo":"","tgNo":"","tgName":null,"infoStatus":"1","orgName":"国网望都县供电公司","typeName":null,"infoStatusName":null,"dateDay":null,"orgNos":null,"nowTime":null,"countyName":null,"streetName":null,"villageName":null,"roadName":null,"communityName":null,"tranName":null,"sdLineName":null,"cityCode":"1340623","cityName":"国网望都县供电公司","provinceCode":null,"stopTime":"2020-03-07 10:30:00","powerType":"全部","powerOffArea":"【全线路停电】停井泉内东2号,十五里铺内中配变,十五里铺村内西北,许庄东北2号,许庄内东南,井泉内东,许庄内西南,许庄内东北,十五里铺村内,十五里铺内东,许庄新民居2号,井泉内西,固店乡政府配变,许庄内西北","powerOffReason":"【停电原因】由于黄庄ＩＩ线５３５线路００４号杆处电线打火，需停电进行紧急消缺导致２２０ＫＶ固店变电站黄庄ＩＩ线５３５线路全线停电 【变更送电】无 【发布渠道】通过９５５９８发布","powerOffId":"2020030713000152"},{"poweroffId":2020030713000145,"sgpoweroffId":null,"subsName":"","lineName":"10kV559东魏线","pubTranName":"东魏综合2台区,蠡县蠡南振山化纤厂变压器,南庄综合15台区,东魏综合12台区,东魏农排12台区【纯农排变】,中国移动通信集团河北有限公司蠡县分公司东魏基站变压器,里县钰界洁皮革皮毛汽车用品有限公司,东魏综合10台区,东魏农排10台区【纯农排变】,昌兴面粉厂,东魏综合9台区,南庄村北,蠡县钰洁皮革皮毛汽车用品有限公司,南庄综合6台区,南庄农排1台区(宋岗）【纯农排变】,南庄综合12台区,南庄综合8台区,东魏综合6台区,东魏综合13台区,东魏综合1台区,东魏农排11台区【纯农排变】,东魏农排7台区【纯农排变】,东魏小学变压器,蠡县蠡南毛皮有限公司,南庄农排3台区（宋岗）【纯农排变】,南庄综合7台区,南庄联合面粉厂,南庄农排2台区（宋岗）【纯农排变】,东魏农排1台区【纯农排变】,南庄农排5台区（宋岗）【纯农排变】,蠡县南庄中心,东魏新民居小区变压器,金志西（刑警队）,东魏农排5台区【纯农排变】,南庄综合10台区,东魏农排3台区【纯农排变】,东魏村西,东魏农排8台区【纯农排变】,吴振岭,南庄综合13台区,南庄农排7台区（宋岗）【纯农排变】,南庄农排6台区（宋岗）【纯农排变】,东魏综合3台区,东魏农排15台区【纯农排变】,南庄综合5台区,东魏综合5台区,南庄中学,东魏农排9台区【纯农排变】,南庄综合1台区,东魏综合4台区,东魏综合8台区,南庄综合4台区,南庄综合14台区,南庄综合11台区,东魏综合7台区,东魏农排13台区【纯农排变】,南庄营业部,东魏农排4台区【纯农排变】,东魏综合11台区,南庄小学变压器,蠡县蠡南振山化纤厂变压器1,东魏农排2台区【纯农排变】,南庄综合3台区,南庄农排4台区（宋岗）【纯农排变】,南庄粮站,南庄综合9台区,南庄综合2台区,蠡县海兴皮革制品厂,里县里南毛皮有限公司,","scope":"【影响街道/乡镇】南庄镇【高危重要客户】无【影响客户】南庄村、东魏村","startTime":"2020-03-07 01:51:08","stopDate":"2020-03-07 05:00:00","orgNo":"1340616","typeCode":"电网故障停限电","poweroffArea":"【全线路停电】停蠡县蠡南毛皮有限公司,东魏农排2台区【纯农排变】,南庄综合7台区,东魏小学变压器,南庄综合3台区,东魏农排11台区【纯农排变】,南庄综合10台区,南庄农排7台区（宋岗）【纯农排变】,东魏综合2台区,蠡县钰洁皮革皮毛汽车用品有限公司,蠡县海兴皮革制品厂,东魏农排13台区【纯农排变】,吴振岭,蠡县蠡南振山化纤厂变压器,南庄村北,南庄综合9台区,蠡县蠡南振山化纤厂变压器1,东魏综合4台区,东魏农排10台区纯农排变】","poweroffReason":"【停电原因】由于线路接地导致１１０ＫＶ南庄变电站１０ＫＶ东魏５５９线路全线停电【变更送电】因抢修进度加快原因，送电时间由１０：００变更为０５：００【发布渠道】通过９５５９８发布","powerTime":"2020-03-07 04:24:08","powerComm":"已送电","subsNo":"","lineNo":"","tgNo":"","tgName":null,"infoStatus":"1","orgName":"国网蠡县供电公司","typeName":null,"infoStatusName":null,"dateDay":null,"orgNos":null,"nowTime":null,"countyName":null,"streetName":null,"villageName":null,"roadName":null,"communityName":null,"tranName":null,"sdLineName":null,"cityCode":"1340616","cityName":"国网蠡县供电公司","provinceCode":null,"stopTime":"2020-03-07 05:00:00","powerType":"全部","powerOffArea":"【全线路停电】停蠡县蠡南毛皮有限公司,东魏农排2台区【纯农排变】,南庄综合7台区,东魏小学变压器,南庄综合3台区,东魏农排11台区【纯农排变】,南庄综合10台区,南庄农排7台区（宋岗）【纯农排变】,东魏综合2台区,蠡县钰洁皮革皮毛汽车用品有限公司,蠡县海兴皮革制品厂,东魏农排13台区【纯农排变】,吴振岭,蠡县蠡南振山化纤厂变压器,南庄村北,南庄综合9台区,蠡县蠡南振山化纤厂变压器1,东魏综合4台区,东魏农排10台区纯农排变】","powerOffReason":"【停电原因】由于线路接地导致１１０ＫＶ南庄变电站１０ＫＶ东魏５５９线路全线停电【变更送电】因抢修进度加快原因，送电时间由１０：００变更为０５：００【发布渠道】通过９５５９８发布","powerOffId":"2020030713000145"},{"poweroffId":2020030713000020,"sgpoweroffId":null,"subsName":"","lineName":"北蔡线514","pubTranName":"大留光10,大留村排2【纯农排变】,辛庄光4,谭城混4,大留排15【纯农排变】,新北蔡光1,辛庄排6【纯农排变】,王官排4【纯农排变】,大留排9【纯农排变】,大留村小学-315,辛庄光8,辛庄光6,大留村光9,辛庄排1【纯农排变】,新北蔡光2【中心村】,谭城排2【纯农排变】,辛庄混5,大留排7【纯农排变】,新辛庄村光1,大留村光14【2018年四批补强】,大留光2,谭城排8【纯农排变】,北蔡排2【纯农排变】,谭城排10【纯农排变】,北蔡光7,大留村光5【2018年重过载】,北蔡排3【纯农排变】,谭城混1,新大留村光9,大留排8【纯农排变】,辛庄排7【纯农排变】,大留排10【纯农排变】,辛庄排3【纯农排变】,谭城排13【纯农排变】,大留村排1【纯农排变】,新北蔡光5【中心村】,辛庄光3,新大留村光1,谭城混7,北蔡光9,北南蔡所,谭城排9【纯农排变】,北蔡排6【纯农排变】,北蔡排1【纯农排变】,辛庄光2,北蔡排9【纯农排变】,辛庄排4【纯农排变】,北蔡光3,大留村光11,谭城排12【纯农排变】,大留村光4【2018年重过载】,大留村光13【2018年四批补强】,王官排5【纯农排变】,谭城排6【纯农排变】,北南蔡排11【纯农排变】,辛庄光7,大留排13【纯农排变】,大留排4【纯农排变】,王官排6【纯农排变】,大留村排3【纯农排变】,南南蔡大棚排1【纯农排变】,大留排12【纯农排变】,新北蔡光4,0692004720-北南蔡乡北蔡小学-专变-236732513-北蔡小学-250,北蔡排7【纯农排变】,北蔡光6,辛庄光5,谭城排3【纯农排变】,大留村光3【2018年重过载】,辛庄光9,辛庄光10,大留排14【纯农排变】,北蔡排5【纯农排变】,北蔡排4【纯农排变】,北蔡村光3,北蔡排8【纯农排变】,大留光6,大留村排11【纯农排变】,辛庄排2【纯农排变】,北蔡光8,","scope":"【影响街道/乡镇】北南蔡乡 【高危重要客户】无 【影响客户】北蔡、东辛庄村、大留村、谭城部分用户、南南蔡部分用户、王官部分用户","startTime":"2020-03-07 17:04:05","stopDate":"2020-03-07 19:30:00","orgNo":"1340609","typeCode":"电网故障停限电","poweroffArea":"【全线路停电】停北蔡光9,北南蔡所,谭城排9【纯农排变】,北蔡排6【纯农排变】,北蔡排1【纯农排变】,辛庄光2,北蔡排9【纯农排变】,辛庄排4【纯农排变】,大留排13【纯农排变】,大留村排3【纯农排变】,南南蔡大棚排1【纯农排变】,大留排12【纯农排变】,新北蔡光4,0692004720-北南蔡乡北蔡小学-专变-236732513-北蔡小学-250,北蔡排7【纯农排变】,北蔡光6,北蔡光3,大留村光11,谭城排12【纯农排变】,大留村光4【2018年重过载】,大留村光13【2018年四批补强】,王官排5【纯农排变】,谭城排6【纯农排变】,谭城排3【纯农排变】,北南蔡排11【纯农排变】,辛庄光7,辛庄光5,新大留村光9,大留排8【纯农排变】,辛庄排7【纯农排变】,大留排10【纯农排变】,辛庄排3【纯农排变】,谭城排13【纯农排变】,大留村排1【纯农排变】,辛庄光10,大留排14【纯农排变】,北蔡排5【纯农排变】,北蔡排4【纯农排变】,北蔡村光3,北蔡排8【纯农排变】,大留光6,大留村排11【纯农排变】,大留排4【纯农排变】,辛庄光8,王官排6【纯农排变】,大留村排2【纯农排变】,辛庄光4,谭城混4,大留排15【纯农排变】,新北蔡光1,辛庄排6【纯农排变】,谭城混7,谭城排10【纯农排变】,辛庄光6,大留村光9,辛庄排1【纯农排变】,谭城排2【纯农排变】,辛庄混5,大留排7【纯农排变】,新辛庄村光1,大留村光14【2018年四批补强】,谭城混1,大留光2,谭城排8【纯农排变】,北蔡排2【纯农排变】,大留村光3【2018年重过载】,北蔡光8,辛庄光9,北蔡光7,大留村光5【2018年重过载】,北蔡排3【纯农排变】,新北蔡光5【中心村】,辛庄光3,新大留村光1,辛庄排2【纯农排变】,新北蔡光2【中心村】,大留光10,王官排4【纯农排变】,大留排9【纯农排变】,大留村小学-315","poweroffReason":"【停电原因】由于北蔡排１分支异物搭线导致３５ＫＶ大留村变电站北蔡线５１４线路全线停电 【变更送电】因抢修进度加快原因，送电时间由２３：００变更为１９：３０ 【发布渠道】通过９５５９８发布","powerTime":"2020-03-07 18:53:31","powerComm":"已送电","subsNo":"","lineNo":"","tgNo":"","tgName":null,"infoStatus":"1","orgName":"国网定兴县供电公司","typeName":null,"infoStatusName":null,"dateDay":null,"orgNos":null,"nowTime":null,"countyName":null,"streetName":null,"villageName":null,"roadName":null,"communityName":null,"tranName":null,"sdLineName":null,"cityCode":"1340609","cityName":"国网定兴县供电公司","provinceCode":null,"stopTime":"2020-03-07 19:30:00","powerType":"全部","powerOffArea":"【全线路停电】停北蔡光9,北南蔡所,谭城排9【纯农排变】,北蔡排6【纯农排变】,北蔡排1【纯农排变】,辛庄光2,北蔡排9【纯农排变】,辛庄排4【纯农排变】,大留排13【纯农排变】,大留村排3【纯农排变】,南南蔡大棚排1【纯农排变】,大留排12【纯农排变】,新北蔡光4,0692004720-北南蔡乡北蔡小学-专变-236732513-北蔡小学-250,北蔡排7【纯农排变】,北蔡光6,北蔡光3,大留村光11,谭城排12【纯农排变】,大留村光4【2018年重过载】,大留村光13【2018年四批补强】,王官排5【纯农排变】,谭城排6【纯农排变】,谭城排3【纯农排变】,北南蔡排11【纯农排变】,辛庄光7,辛庄光5,新大留村光9,大留排8【纯农排变】,辛庄排7【纯农排变】,大留排10【纯农排变】,辛庄排3【纯农排变】,谭城排13【纯农排变】,大留村排1【纯农排变】,辛庄光10,大留排14【纯农排变】,北蔡排5【纯农排变】,北蔡排4【纯农排变】,北蔡村光3,北蔡排8【纯农排变】,大留光6,大留村排11【纯农排变】,大留排4【纯农排变】,辛庄光8,王官排6【纯农排变】,大留村排2【纯农排变】,辛庄光4,谭城混4,大留排15【纯农排变】,新北蔡光1,辛庄排6【纯农排变】,谭城混7,谭城排10【纯农排变】,辛庄光6,大留村光9,辛庄排1【纯农排变】,谭城排2【纯农排变】,辛庄混5,大留排7【纯农排变】,新辛庄村光1,大留村光14【2018年四批补强】,谭城混1,大留光2,谭城排8【纯农排变】,北蔡排2【纯农排变】,大留村光3【2018年重过载】,北蔡光8,辛庄光9,北蔡光7,大留村光5【2018年重过载】,北蔡排3【纯农排变】,新北蔡光5【中心村】,辛庄光3,新大留村光1,辛庄排2【纯农排变】,新北蔡光2【中心村】,大留光10,王官排4【纯农排变】,大留排9【纯农排变】,大留村小学-315","powerOffReason":"【停电原因】由于北蔡排１分支异物搭线导致３５ＫＶ大留村变电站北蔡线５１４线路全线停电 【变更送电】因抢修进度加快原因，送电时间由２３：００变更为１９：３０ 【发布渠道】通过９５５９８发布","powerOffId":"2020030713000020"},{"poweroffId":2020030713000011,"sgpoweroffId":null,"subsName":"","lineName":"10kV515沙沃线","pubTranName":"10KV沙沃线515兴华511联络分支城内线511南白沙照明07405柱上变压器,10KV沙沃线515仕美家园07556台区变压器,10kV515沙沃线42845台区变压器,10KV沙沃线515北白沙公用1199柱上变压器,10KV沙沃线515农机家属院07094台区变压器,10KV沙沃线515千禧5号楼07392台区变压器,10KV沙沃线515棉麻家属院07387柱上变压器,10KV515沙沃线南白沙公用变压器,10kV515沙沃线博陵供电所08194台区变压器,10kV沙沃线515交警07068台区变压器,10kV沙沃线515小区北07320台区变压器,10KV沙沃线515通达胜景小区2号变压器,10KV沙沃线515和谐07555柱上变压器,10KV沙沃线515霍乱家属院柱上变压器,10KV沙沃线515南白沙照明07405分支南白沙照明07119柱上变压器,10KV沙沃线515北白沙村07020台区变压器,10KV沙沃线515国税小区分户变压器,10KV沙沃线515李向东07123柱上变压器,10kV沙沃线515千禧小区32407台区变压器,10KV沙沃线515通达胜景小区3号变压器,10KV沙沃线515千禧二区07308台区变压器,10KV沙沃线515检察院07364柱上变压器,10KV沙沃线515通达胜景小区1号变压器,10KV沙沃线515人寿IC07378柱上变压器,10kV沙沃线515食品家属院32404台区变压器,10KV沙沃线515向阳小区变压器,10KV沙沃线515土地局07013台区变压器,","scope":"【影响街道/乡镇】博野镇【高危重要客户】无【影响客户】盛美纺织有限公司、衬布总厂、隆兴混凝土有限公司、汇金机械配件加工厂、千禧小区、棉麻家属院、工商局西、工商局家属院、土地局家属院、农林局、农机家属院、交通局及家属院、人寿、交警大队、农行、检察院小区、通达胜景小区、北白沙村、烟草公司家属院、南白沙村、观澜逸景、观澜逸墅、娇丽园、博城饭店、食品家属院、恒源饭店、千禧二区、国税局、供销社家属院、李向东家属院、和谐家园、向阳小区","startTime":"2020-03-08 04:00:00","stopDate":"2020-03-08 08:00:00","orgNo":"1340608","typeCode":"其他临时停电","poweroffArea":"【全线路停电】停10KV沙沃线515霍乱家属院柱上变压器,10KV沙沃线515兴华511联络分支城内线511南白沙照明07405柱上变压器,10KV沙沃线515仕美家园07556台区变压器,10KV515沙沃线南白沙公用变压器,10kV515沙沃线42845台区变压器,10KV沙沃线515北白沙公用1199柱上变压器,10KV沙沃线515农机家属院07094台区变压器,10KV沙沃线515千禧5号楼07392台区变压器,10KV沙沃线515棉麻家属院07387柱上变压器,10KV沙沃线515向阳小区变压器,10kV515沙沃线博陵供电所08194台区变压器,10kV沙沃线515交警07068台区变压器,10kV沙沃线515小区北07320台区变压器,10KV沙沃线515通达胜景小区2号变压器,10KV沙沃线515国税小区分户变压器,10KV沙沃线515李向东07123柱上变压器,10kV沙沃线515千禧小区32407台区变压器,10KV沙沃线515通达胜景小区3号变压器,10KV沙沃线515和谐07555柱上变压器,10KV沙沃线515南白沙照明07405分支南白沙照明07119柱上变压器,10KV沙沃线515北白沙村07020台区变压器,10KV沙沃线515人寿IC07378柱上变压器,10KV沙沃线515千禧二区07308台区变压器,10KV沙沃线515检察院07364柱上变压器,10KV沙沃线515通达胜景小区1号变压器,10kV沙沃线515食品家属院32404台区变压器,10KV沙沃线515土地局07013台区变压器","poweroffReason":"【停电原因】由于电杆倾斜，需停电进行紧急消缺导致１１０ＫＶ博野变电站沙沃５１５线路全线停电【变更送电】无【发布渠道】通过９５５９８发布","powerTime":"2020-03-08 07:41:58","powerComm":"已送电","subsNo":"","lineNo":"","tgNo":"","tgName":null,"infoStatus":"1","orgName":"国网博野县供电公司","typeName":null,"infoStatusName":null,"dateDay":null,"orgNos":null,"nowTime":null,"countyName":null,"streetName":null,"villageName":null,"roadName":null,"communityName":null,"tranName":null,"sdLineName":null,"cityCode":"1340608","cityName":"国网博野县供电公司","provinceCode":null,"stopTime":"2020-03-08 08:00:00","powerType":"全部","powerOffArea":"【全线路停电】停10KV沙沃线515霍乱家属院柱上变压器,10KV沙沃线515兴华511联络分支城内线511南白沙照明07405柱上变压器,10KV沙沃线515仕美家园07556台区变压器,10KV515沙沃线南白沙公用变压器,10kV515沙沃线42845台区变压器,10KV沙沃线515北白沙公用1199柱上变压器,10KV沙沃线515农机家属院07094台区变压器,10KV沙沃线515千禧5号楼07392台区变压器,10KV沙沃线515棉麻家属院07387柱上变压器,10KV沙沃线515向阳小区变压器,10kV515沙沃线博陵供电所08194台区变压器,10kV沙沃线515交警07068台区变压器,10kV沙沃线515小区北07320台区变压器,10KV沙沃线515通达胜景小区2号变压器,10KV沙沃线515国税小区分户变压器,10KV沙沃线515李向东07123柱上变压器,10kV沙沃线515千禧小区32407台区变压器,10KV沙沃线515通达胜景小区3号变压器,10KV沙沃线515和谐07555柱上变压器,10KV沙沃线515南白沙照明07405分支南白沙照明07119柱上变压器,10KV沙沃线515北白沙村07020台区变压器,10KV沙沃线515人寿IC07378柱上变压器,10KV沙沃线515千禧二区07308台区变压器,10KV沙沃线515检察院07364柱上变压器,10KV沙沃线515通达胜景小区1号变压器,10kV沙沃线515食品家属院32404台区变压器,10KV沙沃线515土地局07013台区变压器","powerOffReason":"【停电原因】由于电杆倾斜，需停电进行紧急消缺导致１１０ＫＶ博野变电站沙沃５１５线路全线停电【变更送电】无【发布渠道】通过９５５９８发布","powerOffId":"2020030713000011"},{"poweroffId":2020030613000107,"sgpoweroffId":null,"subsName":"","lineName":"北高515","pubTranName":"中北奇村5#,血山村5#,西北奇12#村,西北奇14#,东北奇村4#,中高村12#村边,西北奇村22#村,中北奇村4#【纯农排变】,西北奇村3#,西北奇村4#,血山村9#,东北奇村5#,中北奇村1#,卓家庄村5#,中北奇村6#村中,西北奇村16#,中北奇村3#,卓家庄村11#,血山村2#,血山村3#村北,东北奇村2#,卓家庄1#变压器,西北奇村6#,卓家庄村8#,西北奇村2#,西北奇村5#村西,西北奇10#,西市6#,东北奇村3#,西北奇20#变压器,西北奇村21#,卓家庄村2#村东,西北奇纸厂,民爆公司,血山10#变压器,西市村9#,卓家庄村9#【纯农排变】,血山村7#,血山村8#,西北奇村23#,血山村4#村南,北高4,西北奇村15#,西北奇村9#【纯农排变】,西北奇村17#,西市村5#,卓家庄村6#,卓家庄村3#,血山村1#,西北奇11#【纯农排变】,北高村8#村山坡,卓家庄12#变压器,西北奇村13#,卓家庄村10#,卓家庄村4#,东北奇村1#,中北奇村2#,卓家庄村13#,西北奇村1#,卓家庄村7#,","scope":"【影响街道/乡镇】高村乡【高危重要客户】无【影响客户】东北奇村、西北奇村、西市村、血山村、卓家庄村","startTime":"2020-03-06 20:21:08","stopDate":"2020-03-06 21:30:00","orgNo":"1340625","typeCode":"电网故障停限电","poweroffArea":"【全线路停电】停中北奇村5#,0469480014-西北奇张春芳面粉厂-专变-46818171-西北奇张春芳面粉厂,西北奇村23#,东北奇村4#,易县顺达石材厂变压器,中高村12#村边,中海石材,中海石材(学校),卓家庄面粉厂(卓庆林),河北易达矿业有限责任公司变压器,西北奇纸厂,西市村9#,血山村赵树奇变压器,易县卓家庄春龙灰厂,易县北方伟业石材有限公司,血山村2#,西北奇村5#村西,卓家庄村11#,变压器,易县天然石材工业园(1#),易县天然石材工业园(3#),易县龙山石材变压器,西北奇村17#,中北奇村6#村中,东北奇村1#,西北奇钙粉厂,血山村1#,燕龙石材有限公司,西北奇村21#,0554167424-北市村任保祥-专变-73908832-变压器,0593743360-易县龙山石材有限公司-专变-125906046-易县龙山石材有限公司变压器,中北奇村4#【纯农排变】,西北奇12#村,卓家庄村3#,血山村翟保华变压器,卓家庄村6#,东北奇村5#,卓家庄村5#,西北奇11#【纯农排变】,北高村8#村山坡,西市6#,易县明宇钙粉加工有限公司变压器,中北奇村2#,血山村4#村南,西市村5#,血山村9#,西北奇村13#,易县龙山石材有限公司变压器,东北奇村2#,血山村8#,血山10#变压器,西北奇村22#村,铭宇钙粉厂变压器,西北奇村1#,西北奇村6#,0668619301-易县鑫威家庭农场-专变-208447517-易县鑫威家庭农场50KVA,血山村5#,0469480375-珂利达石业有限公司-专变-46818143-长河石业有限公司,河北豫旺百创防水材料有限公司变压器,西北奇村4#,卓家庄村10#,卓家庄12#变压器,易县天然石材工业园(5#),卓家庄村4#,王志成,李彦芳养鸡厂,血山村3#村北,中国石化销售有限公司河北保定易县石油分公司变压器,卓家庄村7#,民爆公司,西北奇14#,西北奇村3#,西北奇村15#,卓家庄1#变压器,西北奇村16#,易县西北奇龙海石材厂变压器,易县天然石材工业园(2#),血山村7#,西北奇10#,易县金驰商品混凝土有限公司变压器,易县永泰筑路材料有限责任公司,中北奇村3#,西北奇村9#【纯农排变】,0546380563-高村供电所-专变-47853168-白马供电所,易县天然石材工业园(4#),易县龙山石材有限公司,西北奇20#变压器,龙山石材变压器,卓家庄村9#【纯农排变】,中北奇村1#,卓家庄村8#,血山袁学辉面粉厂,龙山石材集团公司(100KVA),龙山石材集团公司(80KVA),龙山石材集团公司(200KVA),卓家庄村2#村东,卓家庄水泥构件厂,0551702268-易县宇泽商贸有限责任公司-专变-49852424-变压器,西北奇村7#【纯农排变】,北京易水奇石仿古雕刻工艺品厂易县石材厂,北高4,东北奇村3#,易县长锁建材经销处变压器,卓家庄村13#,西北奇村2#","poweroffReason":"【停电原因】由于枯树砸线导致３５ＫＶ易水变电站北高５１５线路全线停电【变更送电】因抢修进度加快原因，送电时间由２３：５９变更为２１：３０【发布渠道】通过９５５９８发布","powerTime":"2020-03-06 21:05:12","powerComm":"已送电","subsNo":"","lineNo":"","tgNo":"","tgName":null,"infoStatus":"1","orgName":"国网易县供电公司","typeName":null,"infoStatusName":null,"dateDay":null,"orgNos":null,"nowTime":null,"countyName":null,"streetName":null,"villageName":null,"roadName":null,"communityName":null,"tranName":null,"sdLineName":null,"cityCode":"1340625","cityName":"国网易县供电公司","provinceCode":null,"stopTime":"2020-03-06 21:30:00","powerType":"全部","powerOffArea":"【全线路停电】停中北奇村5#,0469480014-西北奇张春芳面粉厂-专变-46818171-西北奇张春芳面粉厂,西北奇村23#,东北奇村4#,易县顺达石材厂变压器,中高村12#村边,中海石材,中海石材(学校),卓家庄面粉厂(卓庆林),河北易达矿业有限责任公司变压器,西北奇纸厂,西市村9#,血山村赵树奇变压器,易县卓家庄春龙灰厂,易县北方伟业石材有限公司,血山村2#,西北奇村5#村西,卓家庄村11#,变压器,易县天然石材工业园(1#),易县天然石材工业园(3#),易县龙山石材变压器,西北奇村17#,中北奇村6#村中,东北奇村1#,西北奇钙粉厂,血山村1#,燕龙石材有限公司,西北奇村21#,0554167424-北市村任保祥-专变-73908832-变压器,0593743360-易县龙山石材有限公司-专变-125906046-易县龙山石材有限公司变压器,中北奇村4#【纯农排变】,西北奇12#村,卓家庄村3#,血山村翟保华变压器,卓家庄村6#,东北奇村5#,卓家庄村5#,西北奇11#【纯农排变】,北高村8#村山坡,西市6#,易县明宇钙粉加工有限公司变压器,中北奇村2#,血山村4#村南,西市村5#,血山村9#,西北奇村13#,易县龙山石材有限公司变压器,东北奇村2#,血山村8#,血山10#变压器,西北奇村22#村,铭宇钙粉厂变压器,西北奇村1#,西北奇村6#,0668619301-易县鑫威家庭农场-专变-208447517-易县鑫威家庭农场50KVA,血山村5#,0469480375-珂利达石业有限公司-专变-46818143-长河石业有限公司,河北豫旺百创防水材料有限公司变压器,西北奇村4#,卓家庄村10#,卓家庄12#变压器,易县天然石材工业园(5#),卓家庄村4#,王志成,李彦芳养鸡厂,血山村3#村北,中国石化销售有限公司河北保定易县石油分公司变压器,卓家庄村7#,民爆公司,西北奇14#,西北奇村3#,西北奇村15#,卓家庄1#变压器,西北奇村16#,易县西北奇龙海石材厂变压器,易县天然石材工业园(2#),血山村7#,西北奇10#,易县金驰商品混凝土有限公司变压器,易县永泰筑路材料有限责任公司,中北奇村3#,西北奇村9#【纯农排变】,0546380563-高村供电所-专变-47853168-白马供电所,易县天然石材工业园(4#),易县龙山石材有限公司,西北奇20#变压器,龙山石材变压器,卓家庄村9#【纯农排变】,中北奇村1#,卓家庄村8#,血山袁学辉面粉厂,龙山石材集团公司(100KVA),龙山石材集团公司(80KVA),龙山石材集团公司(200KVA),卓家庄村2#村东,卓家庄水泥构件厂,0551702268-易县宇泽商贸有限责任公司-专变-49852424-变压器,西北奇村7#【纯农排变】,北京易水奇石仿古雕刻工艺品厂易县石材厂,北高4,东北奇村3#,易县长锁建材经销处变压器,卓家庄村13#,西北奇村2#","powerOffReason":"【停电原因】由于枯树砸线导致３５ＫＶ易水变电站北高５１５线路全线停电【变更送电】因抢修进度加快原因，送电时间由２３：５９变更为２１：３０【发布渠道】通过９５５９８发布","powerOffId":"2020030613000107"},{"poweroffId":2020030613000104,"sgpoweroffId":null,"subsName":"","lineName":"梁各庄线523","pubTranName":"太和庄5#,龙里华村2台区变压器,华北村3号变压器,郭锦辉(250KVA),梁格庄村7#|镇政府,龙里华4#,半壁店村3#村东,北百泉村3#,华北村1台区变压器,下黄蒿村3#|村北,侯得明变压器,半壁店2台区变压器,北石门村2#|村西,南百泉村2#,龙里华村3台区变压器,易县金冈铸造有限公司变压器,下黄蒿村4#|村北,梁格庄村5#,南百泉7#生态园2,梁格庄村13#戏台西,下黄蒿村7#村北,龙里华村1台区变压器,南百泉水井7台区,华北村2台区变压器,下黄蒿村8#村东,易县百泉铸造厂,南百泉村1#,南百泉村6#,下黄蒿村2#|村西,易县下岭村春风石料厂(王熊秀),半壁店建国沙石厂(三分厂)靳彩英,石门店村3#|村西,北石门村3#|村北,王贾庄村9#,南百泉村4#,梁格庄村1#,北石门6台区变压器,易县半壁店建明石料厂(李保来),王贾庄村4#|道边,易县绿润农畜牧养殖有限责任公司变压器,易县半壁店建国石料厂(赵金诚),半壁店宝山沙石厂,易县半壁店建国沙石厂(1#),","scope":"【影响街道/乡镇】西陵镇、梁格庄镇【高危重要客户】无【影响客户】华北村、龙里华村、太和庄村、梁格庄村、王贾庄村、下岭村、下黄蒿村、北百泉村、南百泉村、半壁店村、北石门村","startTime":"2020-03-06 20:00:27","stopDate":"2020-03-06 23:00:00","orgNo":"1340625","typeCode":"电网故障停限电","poweroffArea":"【分支停电】停太和庄5#,梁格庄村5#,下黄蒿村7#村北,半壁店建国石料厂(李建国新北),半壁店2台区变压器,侯德明变压器,下黄蒿村2#|村西,半壁店建国砂石厂(应建勇),0680584092-易县绿泽农林果种植有限责任公司-专变-219697236-易县绿泽农林果种植有限责任公司-1-50KVA,龙里华4#,易县下岭村春风石料厂(王熊秀),龙里华村2台区变压器,北石门村2#|村西,张振祥石厂,赵子明,易县半壁店建国沙石厂(2#),石门店村3#|村西,梁格庄村1#,半壁店宝山沙石厂,建明石料厂,下黄蒿村3#|村北,南百泉村1#,石门店面粉厂,半壁店变压器,易县金冈铸造有限公司变压器,半壁店建国沙石厂200KVA变压器,曾永顺(村北),永德工贸变压器,易县金冈铸造有限公司(630KVA),南百泉村6#,华北村3号变压器,半壁店建国沙石厂(三分厂)靳彩英,天伟矿产品有限公司,王贾庄周玉坡石料厂,梁格庄村7#|镇政府,华北村1台区变压器,易县永德昌工贸有限公司,郭建明石子厂(李文宾),李建国,郭锦辉(250KVA),易县半壁店建国沙石厂(1#),南百泉村2#,易县半壁店建国石料厂(赵金诚),下岭村陈宝富南,南百泉村4#,河北省地震局易县地震台变压器,王贾庄村9#,北石门6台区变压器,赵金城,南百泉7#生态园2,下黄蒿村4#|村北,易县下黄河侯德明石料厂,北百泉村3#,易县绿泽农林果种植有限责任公司500KVA,易县下岭春风石料厂,王贾庄村4#|道边,易县半壁店建明石料厂(李保来),王贾庄11台区变压器,易县金冈铸造有限公司(400KVA),曾永顺(村南),易县绿润农畜牧养殖有限责任公司变压器,易县绿泽农林果种植有限责任公司变压器,下黄蒿村8#村东,梁格庄村13#戏台西,易县百泉铸造厂,北石门村4#|北山【纯农排变】,龙里华村1台区变压器,南百泉水井7台区,半壁店建国石子厂(二分厂纪建春),龙里华村3台区变压器,华北村2台区变压器,半壁店村3#村东,10kV梁格庄523线王贾庄13台区,半壁店建国石料厂(十二分厂李进财),易县半壁店子明石料厂(赵云飞),陈宝富石料厂(南),郭建明石料厂,梁格庄村11#信用社,半壁店建国石料厂(李建国新南),北石门村3#|村北,侯得明变压器,易县下岭陈宝富石料厂,黄学明变压器","poweroffReason":"【停电原因】由于易县绿泽农林果种植有限责任公司变压器高压引线脱落导致１１０ＫＶ西陵变电站梁各庄线５２３线路００５＃杆以下线路停电【变更送电】因抢修进度加快原因，送电时间由２３：５９变更为２３：００【发布渠道】通过９５５９８发布","powerTime":"2020-03-06 22:46:35","powerComm":"已送电","subsNo":"","lineNo":"","tgNo":"","tgName":null,"infoStatus":"1","orgName":"国网易县供电公司","typeName":null,"infoStatusName":null,"dateDay":null,"orgNos":null,"nowTime":null,"countyName":null,"streetName":null,"villageName":null,"roadName":null,"communityName":null,"tranName":null,"sdLineName":null,"cityCode":"1340625","cityName":"国网易县供电公司","provinceCode":null,"stopTime":"2020-03-06 23:00:00","powerType":"全部","powerOffArea":"【分支停电】停太和庄5#,梁格庄村5#,下黄蒿村7#村北,半壁店建国石料厂(李建国新北),半壁店2台区变压器,侯德明变压器,下黄蒿村2#|村西,半壁店建国砂石厂(应建勇),0680584092-易县绿泽农林果种植有限责任公司-专变-219697236-易县绿泽农林果种植有限责任公司-1-50KVA,龙里华4#,易县下岭村春风石料厂(王熊秀),龙里华村2台区变压器,北石门村2#|村西,张振祥石厂,赵子明,易县半壁店建国沙石厂(2#),石门店村3#|村西,梁格庄村1#,半壁店宝山沙石厂,建明石料厂,下黄蒿村3#|村北,南百泉村1#,石门店面粉厂,半壁店变压器,易县金冈铸造有限公司变压器,半壁店建国沙石厂200KVA变压器,曾永顺(村北),永德工贸变压器,易县金冈铸造有限公司(630KVA),南百泉村6#,华北村3号变压器,半壁店建国沙石厂(三分厂)靳彩英,天伟矿产品有限公司,王贾庄周玉坡石料厂,梁格庄村7#|镇政府,华北村1台区变压器,易县永德昌工贸有限公司,郭建明石子厂(李文宾),李建国,郭锦辉(250KVA),易县半壁店建国沙石厂(1#),南百泉村2#,易县半壁店建国石料厂(赵金诚),下岭村陈宝富南,南百泉村4#,河北省地震局易县地震台变压器,王贾庄村9#,北石门6台区变压器,赵金城,南百泉7#生态园2,下黄蒿村4#|村北,易县下黄河侯德明石料厂,北百泉村3#,易县绿泽农林果种植有限责任公司500KVA,易县下岭春风石料厂,王贾庄村4#|道边,易县半壁店建明石料厂(李保来),王贾庄11台区变压器,易县金冈铸造有限公司(400KVA),曾永顺(村南),易县绿润农畜牧养殖有限责任公司变压器,易县绿泽农林果种植有限责任公司变压器,下黄蒿村8#村东,梁格庄村13#戏台西,易县百泉铸造厂,北石门村4#|北山【纯农排变】,龙里华村1台区变压器,南百泉水井7台区,半壁店建国石子厂(二分厂纪建春),龙里华村3台区变压器,华北村2台区变压器,半壁店村3#村东,10kV梁格庄523线王贾庄13台区,半壁店建国石料厂(十二分厂李进财),易县半壁店子明石料厂(赵云飞),陈宝富石料厂(南),郭建明石料厂,梁格庄村11#信用社,半壁店建国石料厂(李建国新南),北石门村3#|村北,侯得明变压器,易县下岭陈宝富石料厂,黄学明变压器","powerOffReason":"【停电原因】由于易县绿泽农林果种植有限责任公司变压器高压引线脱落导致１１０ＫＶ西陵变电站梁各庄线５２３线路００５＃杆以下线路停电【变更送电】因抢修进度加快原因，送电时间由２３：５９变更为２３：００【发布渠道】通过９５５９８发布","powerOffId":"2020030613000104"},{"poweroffId":2020030613000074,"sgpoweroffId":null,"subsName":"","lineName":"屯庄线518","pubTranName":"屯庄14号,屯庄15号【纯农排变】,屯庄9号【纯农排变】,屯庄13号,屯庄3号,广门营6号【纯农排变】,屯庄5号,屯庄16号,广门营16号,屯庄12号【纯农排变】,屯庄10号,屯庄1号,屯庄11号【纯农排变】,广门营12号【纯农排变】,屯庄8号【纯农排变】,屯庄7号【纯农排变】,广门营7号【纯农排变】,屯庄22号,广门营5号【纯农排变】,文村7号【纯农排变】,屯庄4号,广门营13号【纯农排变】,屯庄18号,屯庄23号,屯庄21号,屯庄20号【纯农排变】,屯庄6号【纯农排变】,屯庄2号,","scope":"【影响街道/乡镇】遂城镇 【高危重要客户】无 【影响客户】屯庄、广门营、汶村","startTime":"2020-03-22 07:00:00","stopDate":"2020-03-22 18:00:00","orgNo":"1340605","typeCode":"计划停电","poweroffArea":"【分支停电】停屯庄11号【纯农排变】,广门营12号【纯农排变】,屯庄8号【纯农排变】,屯庄7号【纯农排变】,广门营7号【纯农排变】,屯庄22号,广门营5号【纯农排变】,文村7号【纯农排变】,屯庄4号,广门营13号【纯农排变】,屯庄18号,屯庄23号,屯庄21号,屯庄20号【纯农排变】,屯庄6号【纯农排变】,屯庄2号,屯庄14号,屯庄15号【纯农排变】,屯庄9号【纯农排变】,屯庄13号,屯庄3号,广门营6号【纯农排变】,屯庄5号,屯庄16号,广门营16号,屯庄12号【纯农排变】,屯庄10号,屯庄1号","poweroffReason":"【停电原因】由于计划检修导致３５ＫＶ广门变电站屯庄５１８线路７０号杆分段开关以下线路停电 【变更送电】无 【发布渠道】通过河北省保定市徐水电视台游走滚动字幕播放（２０２０年０３月１４日０８:００至０３月２１日２０:００）","powerTime":"2020-03-22 17:19:33","powerComm":"已送电","subsNo":"","lineNo":"","tgNo":"","tgName":null,"infoStatus":"1","orgName":"国网徐水县供电公司","typeName":null,"infoStatusName":null,"dateDay":null,"orgNos":null,"nowTime":null,"countyName":null,"streetName":null,"villageName":null,"roadName":null,"communityName":null,"tranName":null,"sdLineName":null,"cityCode":"1340605","cityName":"国网徐水县供电公司","provinceCode":null,"stopTime":"2020-03-22 18:00:00","powerType":"全部","powerOffArea":"【分支停电】停屯庄11号【纯农排变】,广门营12号【纯农排变】,屯庄8号【纯农排变】,屯庄7号【纯农排变】,广门营7号【纯农排变】,屯庄22号,广门营5号【纯农排变】,文村7号【纯农排变】,屯庄4号,广门营13号【纯农排变】,屯庄18号,屯庄23号,屯庄21号,屯庄20号【纯农排变】,屯庄6号【纯农排变】,屯庄2号,屯庄14号,屯庄15号【纯农排变】,屯庄9号【纯农排变】,屯庄13号,屯庄3号,广门营6号【纯农排变】,屯庄5号,屯庄16号,广门营16号,屯庄12号【纯农排变】,屯庄10号,屯庄1号","powerOffReason":"【停电原因】由于计划检修导致３５ＫＶ广门变电站屯庄５１８线路７０号杆分段开关以下线路停电 【变更送电】无 【发布渠道】通过河北省保定市徐水电视台游走滚动字幕播放（２０２０年０３月１４日０８:００至０３月２１日２０:００）","powerOffId":"2020030613000074"},{"poweroffId":2020030613000069,"sgpoweroffId":null,"subsName":"","lineName":"户木线511","pubTranName":"三街8号,太和1号,户木6号,户木15号,豆村5号,大马各庄5号变台,豆村4号,豆村2号,解村7号【纯农排变】,孙村5号【纯农排变】,德山一街4号【纯农排变】,三街6号,德山三街14号,三街5号,户木22号,冀德泉酒厂,三街1号,兴旺面粉厂,豆村3号【纯农排变】,保定琦胜混凝土制造有限公司变压器,户木7号【纯农排变】,一街2号,二街6号,德山三街15号,太和4号,户木8号,三街4号,二街13号,一街5号,南城2号【纯农排变】,太和2号,德山二街12号,户木21号,德山三街7号,孙村6号【纯农排变】,户木20号,豆村1号,徐水县忠立石材厂,徐水县鑫世达金属表面处理有限公司2号,三街3号,徐水县鑫世达金属表面处理有限公司3号,太和9号,大马各庄20号,户木3号【纯农排变】,三街2号,大马各庄6号变台【纯农排变】,太和5号【纯农排变】,户木5号,太和8号,三街10号,德山二街8号,德山三街12号,户木13号【纯农排变】,户木粮库,太和7号【纯农排变】,孙村1号,德山二街4号【纯农排变】,太和3号,户木16号,徐水县鑫世达金属表面处理有限公司,户木10号,户木14号,南城5号,一街12号,三街11号【纯农排变】,徐水县奇凤商品混凝土有限公司,徐水县宏远橡塑发泡制品厂,易保面粉厂,孙村7号,孙村2号【纯农排变】,南城1号,三街13号,二街16号,户木17号,一街8号,南城4号配变,孙村3号【纯农排变】,户木线南城6号,太和6号【纯农排变】,户木1号,德山三街16号,孙村4号,二街14号,太和庄11号,二街5号,豆村6号,南城3号【纯农排变】,户木2号,","scope":"【影响街道/乡镇】户木乡 【高危重要客户】无 【影响客户】孙村、户木、德山三街村、豆村、太和庄、德山一街村、德山二街村、南城村、大马各庄","startTime":"2020-03-21 07:00:00","stopDate":"2020-03-21 18:00:00","orgNo":"1340605","typeCode":"计划停电","poweroffArea":"【全线路停电】停孙村3号【纯农排变】,户木8号,孙村6号【纯农排变】,三街5号,德山三街7号,户木22号,孙村5号【纯农排变】,徐水县鑫世达金属表面处理有限公司,户木15号,三街2号,一街2号,孙村7号,户木粮库,冀德泉酒厂,户木10号,一街5号,豆村5号,豆村3号【纯农排变】,户木14号,户木线南城6号,太和7号【纯农排变】,户木20号,二街6号,豆村4号,豆村6号,一街12号,德山二街12号,豆村2号,保定琦胜混凝土制造有限公司变压器,德山三街15号,德山三街12号,太和3号,太和8号,徐水县宏远橡塑发泡制品厂,徐水县鑫世达金属表面处理有限公司3号,解村7号【纯农排变】,徐水县鑫世达金属表面处理有限公司2号,易保面粉厂,孙村4号,太和4号,大马各庄20号,户木16号,户木3号【纯农排变】,太和6号【纯农排变】,德山二街8号,太和2号,二街14号,三街11号【纯农排变】,德山一街4号【纯农排变】,太和庄11号,二街13号,三街8号,孙村1号,户木7号【纯农排变】,三街6号,太和1号,豆村1号,徐水县奇凤商品混凝土有限公司,孙村2号【纯农排变】,大马各庄6号变台【纯农排变】,德山三街14号,德山三街16号,户木1号,南城3号【纯农排变】,大马各庄5号变台,兴旺面粉厂,户木13号【纯农排变】,徐水县忠立石材厂,户木6号,一街8号,南城1号,太和9号,三街3号,太和5号【纯农排变】,德山二街4号【纯农排变】,户木21号,三街13号,南城4号配变,三街10号,户木5号,南城5号,二街16号,南城2号【纯农排变】,户木2号,户木17号,三街4号,二街5号,三街1号","poweroffReason":"【停电原因】由于线路检修导致３５ＫＶ户木变电站户木线５１１线路全线停电 【变更送电】无 【发布渠道】通过河北省保定市徐水电视台游走滚动字幕播放（２０２０年０３月１３日０８:００至０３月２０日２０:００）","powerTime":"2020-03-21 17:29:58","powerComm":"已送电","subsNo":"","lineNo":"","tgNo":"","tgName":null,"infoStatus":"1","orgName":"国网徐水县供电公司","typeName":null,"infoStatusName":null,"dateDay":null,"orgNos":null,"nowTime":null,"countyName":null,"streetName":null,"villageName":null,"roadName":null,"communityName":null,"tranName":null,"sdLineName":null,"cityCode":"1340605","cityName":"国网徐水县供电公司","provinceCode":null,"stopTime":"2020-03-21 18:00:00","powerType":"全部","powerOffArea":"【全线路停电】停孙村3号【纯农排变】,户木8号,孙村6号【纯农排变】,三街5号,德山三街7号,户木22号,孙村5号【纯农排变】,徐水县鑫世达金属表面处理有限公司,户木15号,三街2号,一街2号,孙村7号,户木粮库,冀德泉酒厂,户木10号,一街5号,豆村5号,豆村3号【纯农排变】,户木14号,户木线南城6号,太和7号【纯农排变】,户木20号,二街6号,豆村4号,豆村6号,一街12号,德山二街12号,豆村2号,保定琦胜混凝土制造有限公司变压器,德山三街15号,德山三街12号,太和3号,太和8号,徐水县宏远橡塑发泡制品厂,徐水县鑫世达金属表面处理有限公司3号,解村7号【纯农排变】,徐水县鑫世达金属表面处理有限公司2号,易保面粉厂,孙村4号,太和4号,大马各庄20号,户木16号,户木3号【纯农排变】,太和6号【纯农排变】,德山二街8号,太和2号,二街14号,三街11号【纯农排变】,德山一街4号【纯农排变】,太和庄11号,二街13号,三街8号,孙村1号,户木7号【纯农排变】,三街6号,太和1号,豆村1号,徐水县奇凤商品混凝土有限公司,孙村2号【纯农排变】,大马各庄6号变台【纯农排变】,德山三街14号,德山三街16号,户木1号,南城3号【纯农排变】,大马各庄5号变台,兴旺面粉厂,户木13号【纯农排变】,徐水县忠立石材厂,户木6号,一街8号,南城1号,太和9号,三街3号,太和5号【纯农排变】,德山二街4号【纯农排变】,户木21号,三街13号,南城4号配变,三街10号,户木5号,南城5号,二街16号,南城2号【纯农排变】,户木2号,户木17号,三街4号,二街5号,三街1号","powerOffReason":"【停电原因】由于线路检修导致３５ＫＶ户木变电站户木线５１１线路全线停电 【变更送电】无 【发布渠道】通过河北省保定市徐水电视台游走滚动字幕播放（２０２０年０３月１３日０８:００至０３月２０日２０:００）","powerOffId":"2020030613000069"},{"poweroffId":2020030613000067,"sgpoweroffId":null,"subsName":"","lineName":"太保营线514","pubTranName":"保定五洲轮胎销售服务有限公司,太保营14号,东庄3号【纯农排变】,北高桥6号【纯农排变】,师庄12号,南高桥10号,南高桥3号【纯农排变】,田庄2号,师庄3号,太保营5号,田庄1号,太保营15号,留村中学,南高桥8号【纯农排变】,师庄1号,保定均合金属材料有限公司,南高桥11号,常乐14号,太保营8号,保定市津瑞建筑混凝土有限公司,南高桥15号,太保营4号,太保营10号,东庄4号,太保营9号,留东营1号,东庄2号,常乐7号【纯农排变】,田庄4号【纯农排变】,南高桥7号【纯农排变】,常乐1号,李丰收林业养殖场,太保营25号,太保营3号,留东营8号,南庄3号,太保营11号,徐水县新兴节能耐火材料厂,南高桥1号,精华碳素厂,太保营26号,供电所-4号【纯农排变】,常乐13号,南高桥2号,南高桥6号【纯农排变】,太保营6号,留东营2号,师庄11号,常乐9号,常乐8号【纯农排变】,太保营22号,太保营16号,常乐12号,田庄3号,师庄5号,南高桥12号,南高桥9号,南高桥4号,太保营18号,留东营3号【纯农排变】,太保营7号,太保营27号,南高桥13号,北高桥2号【纯农排变】,南高桥5号【纯农排变】,留东营6号【纯农排变】,保定是润丰实业有限公司,师庄13号,东庄1号,太保营19号,常乐5号,徐水县祥久金属材料焊接加工厂,0682547015-河北悦康志德医药贸易有限公司-专变-221712106-河北悦康志德医药贸易有限公司,太保营13号,常乐4号【纯农排变】,师庄2号,太保营23号,南庄2号,太保营12号,师庄4号【纯农排变】,太保营21号,华威汽车装饰件厂,保定市正汇包装彩印有限公司,供电所-5号,太保营17号,常乐2号,太保营20号,南高桥14【纯农排变】,常乐3号,太保营2号,师庄6号,刘东营面粉二厂,太保营1号,留东营4号,南庄4号【纯农排变】,河北爱博欣农业有限公司,太保营28号,留东营5号【纯农排变】,东庄5号,师庄7号,师庄10号,太保营24号,保定凯达石油产品销售有限公司,常乐11号,保定市祥瑞制冷设备有限公司,保定市润丰实业有限公司,南庄1号,师庄9号所8号,供电所-3号,保定市徐水区北常保东奇五金建材经销处,常乐6号,","scope":"【影响街道/乡镇】留村乡 【高危重要客户】无 【影响客户】北高桥村、南高桥村、留东营村、东庄村、南庄村、田庄村、师庄村、常乐村","startTime":"2020-03-20 07:00:00","stopDate":"2020-03-20 18:00:00","orgNo":"1340605","typeCode":"计划停电","poweroffArea":"【全线路停电】停供电所-5号,太保营15号,太保营17号,师庄2号,常乐2号,太保营25号,太保营20号,常乐1号,南高桥14【纯农排变】,太保营14号,南高桥9号,师庄6号,田庄1号,南庄4号【纯农排变】,东庄3号【纯农排变】,太保营18号,南高桥8号【纯农排变】,太保营28号,东庄1号,河北爱博欣农业有限公司,保定均合金属材料有限公司,保定市润丰实业有限公司,南高桥12号,太保营19号,保定市津瑞建筑混凝土有限公司,南高桥4号,刘东营面粉二厂,南高桥13号,东庄5号,留东营3号【纯农排变】,师庄7号,南高桥1号,太保营4号,师庄11号,东庄2号,留东营6号【纯农排变】,师庄10号,北高桥6号【纯农排变】,保定凯达石油产品销售有限公司,南庄2号,保定市祥瑞制冷设备有限公司,太保营7号,南高桥2号,南高桥10号,太保营24号,南高桥6号【纯农排变】,常乐11号,留东营2号,保定市正汇包装彩印有限公司,南庄1号,田庄2号,太保营3号,太保营2号,常乐5号,师庄12号,太保营1号,太保营11号,徐水县祥久金属材料焊接加工厂,师庄13号,南高桥5号【纯农排变】,0682547015-河北悦康志德医药贸易有限公司-专变-221712106-河北悦康志德医药贸易有限公司,常乐9号,南高桥15号,北高桥2号【纯农排变】,留东营5号【纯农排变】,徐水县新兴节能耐火材料厂,太保营13号,太保营23号,留东营4号,常乐4号【纯农排变】,太保营10号,常乐8号【纯农排变】,李丰收林业养殖场,留东营1号,太保营12号,留东营8号,太保营16号,师庄4号【纯农排变】,常乐7号【纯农排变】,常乐12号,太保营21号,南庄3号,田庄3号,田庄4号【纯农排变】,师庄9号所8号,留村中学,华威汽车装饰件厂,东庄4号,精华碳素厂,供电所-3号,保定是润丰实业有限公司,太保营9号,太保营6号,太保营27号,南高桥3号【纯农排变】,常乐6号,南高桥7号【纯农排变】,师庄1号,保定市徐水区北常保东奇五金建材经销处,太保营26号,南高桥11号,供电所-4号【纯农排变】,师庄3号,常乐14号,常乐13号,师庄5号,常乐3号,太保营8号,保定五洲轮胎销售服务有限公司,太保营22号,太保营5号","poweroffReason":"【停电原因】由于线路检修导致３５ＫＶ漕河变电站太保营线５１４线路全线停电 【变更送电】无 【发布渠道】通过河北省保定市徐水电视台游走滚动字幕播放（２０２０年０３月１２日０８:００至０３月１９日２０:００）","powerTime":"2020-03-20 17:59:49","powerComm":"已送电","subsNo":"","lineNo":"","tgNo":"","tgName":null,"infoStatus":"1","orgName":"国网徐水县供电公司","typeName":null,"infoStatusName":null,"dateDay":null,"orgNos":null,"nowTime":null,"countyName":null,"streetName":null,"villageName":null,"roadName":null,"communityName":null,"tranName":null,"sdLineName":null,"cityCode":"1340605","cityName":"国网徐水县供电公司","provinceCode":null,"stopTime":"2020-03-20 18:00:00","powerType":"全部","powerOffArea":"【全线路停电】停供电所-5号,太保营15号,太保营17号,师庄2号,常乐2号,太保营25号,太保营20号,常乐1号,南高桥14【纯农排变】,太保营14号,南高桥9号,师庄6号,田庄1号,南庄4号【纯农排变】,东庄3号【纯农排变】,太保营18号,南高桥8号【纯农排变】,太保营28号,东庄1号,河北爱博欣农业有限公司,保定均合金属材料有限公司,保定市润丰实业有限公司,南高桥12号,太保营19号,保定市津瑞建筑混凝土有限公司,南高桥4号,刘东营面粉二厂,南高桥13号,东庄5号,留东营3号【纯农排变】,师庄7号,南高桥1号,太保营4号,师庄11号,东庄2号,留东营6号【纯农排变】,师庄10号,北高桥6号【纯农排变】,保定凯达石油产品销售有限公司,南庄2号,保定市祥瑞制冷设备有限公司,太保营7号,南高桥2号,南高桥10号,太保营24号,南高桥6号【纯农排变】,常乐11号,留东营2号,保定市正汇包装彩印有限公司,南庄1号,田庄2号,太保营3号,太保营2号,常乐5号,师庄12号,太保营1号,太保营11号,徐水县祥久金属材料焊接加工厂,师庄13号,南高桥5号【纯农排变】,0682547015-河北悦康志德医药贸易有限公司-专变-221712106-河北悦康志德医药贸易有限公司,常乐9号,南高桥15号,北高桥2号【纯农排变】,留东营5号【纯农排变】,徐水县新兴节能耐火材料厂,太保营13号,太保营23号,留东营4号,常乐4号【纯农排变】,太保营10号,常乐8号【纯农排变】,李丰收林业养殖场,留东营1号,太保营12号,留东营8号,太保营16号,师庄4号【纯农排变】,常乐7号【纯农排变】,常乐12号,太保营21号,南庄3号,田庄3号,田庄4号【纯农排变】,师庄9号所8号,留村中学,华威汽车装饰件厂,东庄4号,精华碳素厂,供电所-3号,保定是润丰实业有限公司,太保营9号,太保营6号,太保营27号,南高桥3号【纯农排变】,常乐6号,南高桥7号【纯农排变】,师庄1号,保定市徐水区北常保东奇五金建材经销处,太保营26号,南高桥11号,供电所-4号【纯农排变】,师庄3号,常乐14号,常乐13号,师庄5号,常乐3号,太保营8号,保定五洲轮胎销售服务有限公司,太保营22号,太保营5号","powerOffReason":"【停电原因】由于线路检修导致３５ＫＶ漕河变电站太保营线５１４线路全线停电 【变更送电】无 【发布渠道】通过河北省保定市徐水电视台游走滚动字幕播放（２０２０年０３月１２日０８:００至０３月１９日２０:００）","powerOffId":"2020030613000067"},{"poweroffId":2020030613000063,"sgpoweroffId":null,"subsName":"","lineName":"车站线513","pubTranName":"留村9号,北常保4号,留村5号,北常保8号,北常保3号,北常保6号,留村11号,北常保10号,留村4号,留村1号,北常保1号,留村3号,留村10号,北常保15号,留村13号,留村6号,留村12号,北常保14号,","scope":"【影响街道/乡镇】留村乡 【高危重要客户】无 【影响客户】北常堡村、留村","startTime":"2020-03-20 07:00:00","stopDate":"2020-03-20 18:00:00","orgNo":"1340605","typeCode":"计划停电","poweroffArea":"【全线路停电】停留村12号,留村13号,徐水县美好生活超市有限公司,留村9号,海燕电线二厂,漕河地税分局,保定中盾塑胶有限公司变压器,留村1号,留村8号【纯农排变】,留村4号,北常保6号,北常保15号,留村3号,中国移动通信集团河北有限公司徐水分公司留,留村10号,留村医院,徐水盛安精神病康复医院,北常保2号【纯农排变】,保定光阳天然气利用有限公司,保定友星体育用品有限公司,北常保4号,北常保7号【纯农排变】,保定乾坤福商贸有限公司,保定天骏挂车制造有限公司,海燕电线二厂2号,中国邮政储蓄银行徐水县支行,北常保5号【纯农排变】,保定天福泵阀制造有限公司,保定市公安头盔厂,保定六合食品有限公司,保定六合食品有限公司1号,保定裕泰管件有限公司3号,裕泰管件有限公司2号,北常保14号,留村6号,北常保3号,北常保10号,0637414296-保定市徐水区住房和城乡建设局路灯-专变-148444957-徐水县住房和城乡建设局路灯,留村11号,天意橡胶厂,保定市天意橡胶厂分厂,裕泰管件有限公司1号,留村5号,云飞塑料制品厂,南高桥木器厂,水利局仓库,留村信用社,留村面粉厂,北常保1号,北常保8号,海燕电线厂","poweroffReason":"【停电原因】由于线路检修导致３５ＫＶ漕河变电站车站线５１３线路全线停电 【变更送电】无 【发布渠道】通过河北省保定市徐水电视台游走滚动字幕播放（２０２０年０３月１２日０８:００至０３月１９日２０:００）","powerTime":"2020-03-20 17:59:37","powerComm":"已送电","subsNo":"","lineNo":"","tgNo":"","tgName":null,"infoStatus":"1","orgName":"国网徐水县供电公司","typeName":null,"infoStatusName":null,"dateDay":null,"orgNos":null,"nowTime":null,"countyName":null,"streetName":null,"villageName":null,"roadName":null,"communityName":null,"tranName":null,"sdLineName":null,"cityCode":"1340605","cityName":"国网徐水县供电公司","provinceCode":null,"stopTime":"2020-03-20 18:00:00","powerType":"全部","powerOffArea":"【全线路停电】停留村12号,留村13号,徐水县美好生活超市有限公司,留村9号,海燕电线二厂,漕河地税分局,保定中盾塑胶有限公司变压器,留村1号,留村8号【纯农排变】,留村4号,北常保6号,北常保15号,留村3号,中国移动通信集团河北有限公司徐水分公司留,留村10号,留村医院,徐水盛安精神病康复医院,北常保2号【纯农排变】,保定光阳天然气利用有限公司,保定友星体育用品有限公司,北常保4号,北常保7号【纯农排变】,保定乾坤福商贸有限公司,保定天骏挂车制造有限公司,海燕电线二厂2号,中国邮政储蓄银行徐水县支行,北常保5号【纯农排变】,保定天福泵阀制造有限公司,保定市公安头盔厂,保定六合食品有限公司,保定六合食品有限公司1号,保定裕泰管件有限公司3号,裕泰管件有限公司2号,北常保14号,留村6号,北常保3号,北常保10号,0637414296-保定市徐水区住房和城乡建设局路灯-专变-148444957-徐水县住房和城乡建设局路灯,留村11号,天意橡胶厂,保定市天意橡胶厂分厂,裕泰管件有限公司1号,留村5号,云飞塑料制品厂,南高桥木器厂,水利局仓库,留村信用社,留村面粉厂,北常保1号,北常保8号,海燕电线厂","powerOffReason":"【停电原因】由于线路检修导致３５ＫＶ漕河变电站车站线５１３线路全线停电 【变更送电】无 【发布渠道】通过河北省保定市徐水电视台游走滚动字幕播放（２０２０年０３月１２日０８:００至０３月１９日２０:００）","powerOffId":"2020030613000063"}],"pageModel":{"pageNow":279,"totalCount":10973,"totalPage":1098,"tableRows":0,"pageCount":10,"beginCount":2780},"isExperi":"1"}