{"message":"","today":"2020-06-15","seleList":[{"poweroffId":2020030613000061,"sgpoweroffId":null,"subsName":"","lineName":"南留线511","pubTranName":"北常保13号高压配电变压器1,留村供电所,北常堡11号箱变配电变压器新,北常堡12号箱变配电变压器,","scope":"【影响街道/乡镇】留村乡 【高危重要客户】无 【影响客户】北常堡村","startTime":"2020-03-20 07:00:00","stopDate":"2020-03-20 18:00:00","orgNo":"1340605","typeCode":"计划停电","poweroffArea":"【全线路停电】停留村供电所,北常堡11号箱变配电变压器新,北常保13号高压配电变压器1,北常堡12号箱变配电变压器","poweroffReason":"【停电原因】由于线路检修导致３５ＫＶ漕河变电站南留线５１１线路全线停电 【变更送电】无 【发布渠道】通过河北省保定市徐水电视台游走滚动字幕播放（２０２０年０３月１２日０８:００至０３月１９日２０:００）","powerTime":"2020-03-20 17:59:23","powerComm":"已送电","subsNo":"","lineNo":"","tgNo":"","tgName":null,"infoStatus":"1","orgName":"国网徐水县供电公司","typeName":null,"infoStatusName":null,"dateDay":null,"orgNos":null,"nowTime":null,"countyName":null,"streetName":null,"villageName":null,"roadName":null,"communityName":null,"tranName":null,"sdLineName":null,"cityCode":"1340605","cityName":"国网徐水县供电公司","provinceCode":null,"stopTime":"2020-03-20 18:00:00","powerType":"全部","powerOffArea":"【全线路停电】停留村供电所,北常堡11号箱变配电变压器新,北常保13号高压配电变压器1,北常堡12号箱变配电变压器","powerOffReason":"【停电原因】由于线路检修导致３５ＫＶ漕河变电站南留线５１１线路全线停电 【变更送电】无 【发布渠道】通过河北省保定市徐水电视台游走滚动字幕播放（２０２０年０３月１２日０８:００至０３月１９日２０:００）","powerOffId":"2020030613000061"},{"poweroffId":2020030613000015,"sgpoweroffId":null,"subsName":"","lineName":"10kV540东沟线","pubTranName":"店上村中变压器,黄各庄新村,岭东河北坎变压器,岭东南山台区,野孤村中变压器,岭西村中变压器,","scope":"【影响街道/乡镇】赵各庄镇 【高危重要客户】无 【影响客户】岭东村、店上村、黄各庄村、岭西村、野孤村","startTime":"2020-03-17 07:00:00","stopDate":"2020-03-17 18:00:00","orgNo":"1340614","typeCode":"计划停电","poweroffArea":"【分支停电】停店上村中变压器,黄各庄新村,岭东河北坎变压器,岭东南山台区,野孤村中变压器,岭西村中变压器","poweroffReason":"【停电原因】由于更换导线导致１１０ＫＶ六顺变电站１０ＫＶ５４０东沟线岭西大分支０号杆至４９号杆停电 【变更送电】无 【发布渠道】保定市涞水电视台（０３月０７日０８时至０３月１７日１７时之间）屏幕上方滚动","powerTime":"2020-03-17 17:44:09","powerComm":"已送电","subsNo":"","lineNo":"","tgNo":"","tgName":null,"infoStatus":"1","orgName":"国网涞水县供电公司","typeName":null,"infoStatusName":null,"dateDay":null,"orgNos":null,"nowTime":null,"countyName":null,"streetName":null,"villageName":null,"roadName":null,"communityName":null,"tranName":null,"sdLineName":null,"cityCode":"1340614","cityName":"国网涞水县供电公司","provinceCode":null,"stopTime":"2020-03-17 18:00:00","powerType":"全部","powerOffArea":"【分支停电】停店上村中变压器,黄各庄新村,岭东河北坎变压器,岭东南山台区,野孤村中变压器,岭西村中变压器","powerOffReason":"【停电原因】由于更换导线导致１１０ＫＶ六顺变电站１０ＫＶ５４０东沟线岭西大分支０号杆至４９号杆停电 【变更送电】无 【发布渠道】保定市涞水电视台（０３月０７日０８时至０３月１７日１７时之间）屏幕上方滚动","powerOffId":"2020030613000015"},{"poweroffId":2020030613000006,"sgpoweroffId":null,"subsName":"","lineName":"谭城线512","pubTranName":"北南蔡光综11,谭城光1【2018年节能变】,谭城光5,北南蔡排8【纯农排变】,谭城光3,南南蔡光7【捐赠】,新北南蔡光8,谭城光1,谭城排14【纯农排变】,新北南蔡光3【2018年一批应急】,新谭城光11,新北南蔡光5【18年第四批补强】,大留村光12,中蔡光3【2018年一批应急】,新大留村光7,南留村光5,南南蔡光7,北南蔡光1【2018年技改】,谭城光5【2018年节能变】,南南蔡光1,南南蔡光6,新北南蔡光4,谭城光11,新谭城村光8,南南蔡光2,北南蔡乡政府,南留村光7,谭城排12 1【纯农排变】,北南蔡光12,中蔡光2,南留村光1,南南蔡光3,北南蔡排9【2018年四批补强】,北南蔡排5【纯农排变】,北南蔡排10【纯农排变】,大留村光7,大留村光8,北南蔡光7,","scope":"【影响街道/乡镇】北南蔡乡 【高危重要客户】无 【影响客户】北南蔡、中蔡、南南蔡、谭城、南留村、大留村","startTime":"2020-03-06 08:39:24","stopDate":"2020-03-06 10:00:00","orgNo":"1340609","typeCode":"电网故障停限电","poweroffArea":"【全线路停电】停新北南蔡光5【18年第四批补强】,南南蔡光7,南留村光8,南南蔡光1,中蔡排2【纯农排变】,谭城光11,中蔡排1【纯农排变】,北南蔡光12,中蔡光2,北南蔡排9【纯农排变】,南南蔡排5【纯农排变】,诚皓水泥-250,谭城排5【纯农排变】,谭城排12 1【纯农排变】,谭城光5,南留村排3【纯农排变】,新谭城光11,南留村光5,南留村排4【纯农排变】,10KV谭城线512线路谭城光10变压器,南南蔡排8【纯农排变】,谭城光2,中蔡光5,北南蔡排7【纯农排变】,新谭城村光8,南留村光7,南留村排2【纯农排变】,南留村排7【纯农排变】,160,北南蔡排1【纯农排变】,中蔡排5【纯农排变】,南留村排1【纯农排变】,棉站混用,北南蔡供电所,农泰肥料-250,南留村光1,谭城光4,箱包基地,南南蔡光3,南留村光3,0695324492-北南蔡乡谭城小学-专变-239132224-315,大留村排5【纯农排变】,中蔡排4【纯农排变】,中蔡光7,北南蔡排9【2018年四批补强】,北南蔡光综11,北南蔡排5【纯农排变】,南南蔡排6【纯农排变】,南留村排6【纯农排变】,新谭城光7,南南蔡排1【纯农排变】,北南蔡排10【纯农排变】,大留村光7,南南蔡排3【纯农排变】,北南蔡光1,大留村光8,中蔡排7【纯农排变】,北南蔡排6【纯农排变】,新大留村光7,北南蔡光7,北南蔡排2【纯农排变】,中蔡光6,新南南蔡光5,南南蔡排4【纯农排变】,中蔡光4,谭城光3,0469290341-*五达化工厂-专变-46771855-*五达化工厂,南南蔡光4,南南蔡排2【纯农排变】,*谭城机站水利局混,北南蔡排3【纯农排变】,谭城排14【纯农排变】,谭城光9,新北南蔡光3【2018年一批应急】,大留村光12,北南蔡排4【纯农排变】,中蔡光3【2018年一批应急】,南留村光2,0694660359-定兴县北南蔡乡中心小学-专变-237550490-北南蔡中心小学,北南蔡光10【2018年重过载】,北南蔡光1【2018年技改】,南留村光6,谭城光5【2018年节能变】,南南蔡光6,新北南蔡光4,北南蔡排12【纯农排变】,中蔡光1,南南蔡光2,南南蔡小学-315,谭城光1【2018年节能变】,中蔡排6【纯农排变】,北南蔡排8【纯农排变】,南南蔡光7【捐赠】,南南蔡排7【纯农排变】,南留村排5【纯农排变】,新北南蔡光8,北南蔡光9,谭城光1,北南蔡光6,谭城光6,中蔡排3【纯农排变】,北南蔡乡政府,新南留村光4","poweroffReason":"【停电原因】由于中蔡排１分支河堤扩建拆除旧杆搭线导致３５ＫＶ大留村变电站谭城线５１２线路全线停电 【变更送电】因抢修进度加快原因，送电时间由１４：００变更为１０：００ 【发布渠道】通过９５５９８发布","powerTime":"2020-03-06 09:20:17","powerComm":"已送电","subsNo":"","lineNo":"","tgNo":"","tgName":null,"infoStatus":"1","orgName":"国网定兴县供电公司","typeName":null,"infoStatusName":null,"dateDay":null,"orgNos":null,"nowTime":null,"countyName":null,"streetName":null,"villageName":null,"roadName":null,"communityName":null,"tranName":null,"sdLineName":null,"cityCode":"1340609","cityName":"国网定兴县供电公司","provinceCode":null,"stopTime":"2020-03-06 10:00:00","powerType":"全部","powerOffArea":"【全线路停电】停新北南蔡光5【18年第四批补强】,南南蔡光7,南留村光8,南南蔡光1,中蔡排2【纯农排变】,谭城光11,中蔡排1【纯农排变】,北南蔡光12,中蔡光2,北南蔡排9【纯农排变】,南南蔡排5【纯农排变】,诚皓水泥-250,谭城排5【纯农排变】,谭城排12 1【纯农排变】,谭城光5,南留村排3【纯农排变】,新谭城光11,南留村光5,南留村排4【纯农排变】,10KV谭城线512线路谭城光10变压器,南南蔡排8【纯农排变】,谭城光2,中蔡光5,北南蔡排7【纯农排变】,新谭城村光8,南留村光7,南留村排2【纯农排变】,南留村排7【纯农排变】,160,北南蔡排1【纯农排变】,中蔡排5【纯农排变】,南留村排1【纯农排变】,棉站混用,北南蔡供电所,农泰肥料-250,南留村光1,谭城光4,箱包基地,南南蔡光3,南留村光3,0695324492-北南蔡乡谭城小学-专变-239132224-315,大留村排5【纯农排变】,中蔡排4【纯农排变】,中蔡光7,北南蔡排9【2018年四批补强】,北南蔡光综11,北南蔡排5【纯农排变】,南南蔡排6【纯农排变】,南留村排6【纯农排变】,新谭城光7,南南蔡排1【纯农排变】,北南蔡排10【纯农排变】,大留村光7,南南蔡排3【纯农排变】,北南蔡光1,大留村光8,中蔡排7【纯农排变】,北南蔡排6【纯农排变】,新大留村光7,北南蔡光7,北南蔡排2【纯农排变】,中蔡光6,新南南蔡光5,南南蔡排4【纯农排变】,中蔡光4,谭城光3,0469290341-*五达化工厂-专变-46771855-*五达化工厂,南南蔡光4,南南蔡排2【纯农排变】,*谭城机站水利局混,北南蔡排3【纯农排变】,谭城排14【纯农排变】,谭城光9,新北南蔡光3【2018年一批应急】,大留村光12,北南蔡排4【纯农排变】,中蔡光3【2018年一批应急】,南留村光2,0694660359-定兴县北南蔡乡中心小学-专变-237550490-北南蔡中心小学,北南蔡光10【2018年重过载】,北南蔡光1【2018年技改】,南留村光6,谭城光5【2018年节能变】,南南蔡光6,新北南蔡光4,北南蔡排12【纯农排变】,中蔡光1,南南蔡光2,南南蔡小学-315,谭城光1【2018年节能变】,中蔡排6【纯农排变】,北南蔡排8【纯农排变】,南南蔡光7【捐赠】,南南蔡排7【纯农排变】,南留村排5【纯农排变】,新北南蔡光8,北南蔡光9,谭城光1,北南蔡光6,谭城光6,中蔡排3【纯农排变】,北南蔡乡政府,新南留村光4","powerOffReason":"【停电原因】由于中蔡排１分支河堤扩建拆除旧杆搭线导致３５ＫＶ大留村变电站谭城线５１２线路全线停电 【变更送电】因抢修进度加快原因，送电时间由１４：００变更为１０：００ 【发布渠道】通过９５５９８发布","powerOffId":"2020030613000006"},{"poweroffId":2020030613000004,"sgpoweroffId":null,"subsName":"","lineName":"10KV南榆511","pubTranName":"榆林（村东南）1642,","scope":"【影响街道/乡镇】松林店镇 【高危重要客户】无 【影响客户】榆林","startTime":"2020-03-06 08:36:17","stopDate":"2020-03-06 10:00:00","orgNo":"1340626","typeCode":"电网故障停限电","poweroffArea":"【单台区停电】停榆林（村东南）1642","poweroffReason":"【停电原因】由于低压空开烧毁导致３５ＫＶ南马变电站１０ＫＶ南榆５１１线路榆林（村东南）１６４２公变台区停电 【变更送电】因抢修进度加快原因，送电时间由１７：００变更为１０：００ 【发布渠道】通过９５５９８发布","powerTime":"2020-03-06 09:34:17","powerComm":"已送电","subsNo":"","lineNo":"","tgNo":"","tgName":null,"infoStatus":"1","orgName":"国网涿州市供电公司","typeName":null,"infoStatusName":null,"dateDay":null,"orgNos":null,"nowTime":null,"countyName":null,"streetName":null,"villageName":null,"roadName":null,"communityName":null,"tranName":null,"sdLineName":null,"cityCode":"1340626","cityName":"国网涿州市供电公司","provinceCode":null,"stopTime":"2020-03-06 10:00:00","powerType":"全部","powerOffArea":"【单台区停电】停榆林（村东南）1642","powerOffReason":"【停电原因】由于低压空开烧毁导致３５ＫＶ南马变电站１０ＫＶ南榆５１１线路榆林（村东南）１６４２公变台区停电 【变更送电】因抢修进度加快原因，送电时间由１７：００变更为１０：００ 【发布渠道】通过９５５９８发布","powerOffId":"2020030613000004"},{"poweroffId":2020030413000047,"sgpoweroffId":null,"subsName":"","lineName":"10KV里渠517","pubTranName":"大兴庄西0794,","scope":"【影响街道/乡镇】义和庄乡 【高危重要客户】无 【影响客户】大兴庄","startTime":"2020-03-04 15:09:55","stopDate":"2020-03-04 20:00:00","orgNo":"1340626","typeCode":"电网故障停限电","poweroffArea":"【单台区停电】停大兴庄西0794","poweroffReason":"【停电原因】由于低压空开烧毁导致３５ＫＶ码头变电站１０ＫＶ里渠５１７线路大兴庄西０７９４公变台区停电 【变更送电】无 【发布渠道】通过９５５９８发布","powerTime":"2020-03-04 19:11:53","powerComm":"已送电","subsNo":"","lineNo":"","tgNo":"","tgName":null,"infoStatus":"1","orgName":"国网涿州市供电公司","typeName":null,"infoStatusName":null,"dateDay":null,"orgNos":null,"nowTime":null,"countyName":null,"streetName":null,"villageName":null,"roadName":null,"communityName":null,"tranName":null,"sdLineName":null,"cityCode":"1340626","cityName":"国网涿州市供电公司","provinceCode":null,"stopTime":"2020-03-04 20:00:00","powerType":"全部","powerOffArea":"【单台区停电】停大兴庄西0794","powerOffReason":"【停电原因】由于低压空开烧毁导致３５ＫＶ码头变电站１０ＫＶ里渠５１７线路大兴庄西０７９４公变台区停电 【变更送电】无 【发布渠道】通过９５５９８发布","powerOffId":"2020030413000047"},{"poweroffId":2020030413000043,"sgpoweroffId":null,"subsName":"","lineName":"10kV589南庞线","pubTranName":"南庞16号,南庞12号,南庞2号,西白亭11号【纯农排变】,北楼5号,东白亭1号【纯农排变】,大刘庄11号,西白亭13号,南庞14号,大刘庄13号,南庞13号,西白亭2号,南庞10号,东白亭5号【纯农排变】,东白亭11号,大刘庄5号,东白亭7号【纯农排变】,西白亭1号,大刘庄9号,北楼8号【纯农排变】,大刘庄1号【纯农排变】,东白亭8号【纯农排变】,西白亭7号,东白亭2号,南庞4号,东白亭6号【纯农排变】,大刘庄2号【纯农排变】,小刘庄6号,大刘庄果园,小刘庄5号,曹庄4号,大刘庄7号,西白亭10号,西白亭14号,南庞6号,","scope":"【影响街道/乡镇】漕河镇 【高危重要客户】无 【影响客户】大刘庄村、西白亭村、南庞村、东白亭村、曹庄村、小刘庄村、北楼村","startTime":"2020-03-04 14:57:25","stopDate":"2020-03-04 17:00:00","orgNo":"1340605","typeCode":"电网故障停限电","poweroffArea":"【全线路停电】停徐水县轩雅食品有限公司计量点,大刘庄果园,西白亭10号,西白亭6号,南庞1号【纯农排变】,供电所8号,西白亭11号【纯农排变】,东白亭10号,东白亭12号,北庞8号,南庞5号,西白亭3号【纯农排变】,大刘庄7号,西白亭7号,西白亭12号,东白亭7号【纯农排变】,西白亭4号【纯农排变】,南庞12号,大刘庄1号【纯农排变】,南庞14号,东白亭6号【纯农排变】,南庞13号,大刘庄4号【纯农排变】,西白亭9号,西白亭2号,保定立辉玻璃有限公司,曹庄1号,大刘庄3号,徐水县华通水泥制品有限公司,小刘庄3号【纯农排变】,保定桑德水处理有限公司,南庞11号,东白亭1号【纯农排变】,小刘庄冰棍房,小刘庄4号,东白亭8号【纯农排变】,南庞4号,南庞3号【纯农排变】,盛园护具厂,大刘庄12号,徐水鑫林塑管有限公司,南庞10号,南庞村面粉厂,东白亭11号,西白亭8号,北楼5号,大刘庄13号,南庞16号,大刘庄6号【纯农排变】,大刘庄8号,南庞6号,西白亭13号,北庞5号【纯农排变】,曹庄3号【纯农排变】,大刘庄10号,东白亭2号,南庞8号【纯农排变】,南庞15号,东白亭5号【纯农排变】,小刘庄5号,东白亭3号【纯农排变】,小刘庄6号,大刘庄砖厂2号,大刘庄9号,大刘庄砖厂1号,南庞7号,小刘庄面粉厂,徐水县祥光工业用呢厂,徐水县乔森机械制造有限公司,刘大庆,小刘庄1号,南庞9号,北楼13号,漕河中心小学,西白亭5号,西白亭14号,保定市强固建筑材料制造有限公司,东白亭9号【纯农排变】,曹庄4号,西白亭1号,大刘庄5号,小刘庄2号【纯农排变】,大刘庄2号【纯农排变】,北楼8号【纯农排变】,南庞2号,曹庄2号,格润工贸有限公司,西白亭面粉厂,徐水县华帅包装制品厂2号,大刘庄11号,东白亭鱼塘","poweroffReason":"【停电原因】由于Ｂ相接地导致１１０ＫＶ田西良变电站南庞线５８９线路全线停电 【变更送电】因抢修进度加快原因，送电时间由１８:００变更为１７:００ 【发布渠道】通过９５５９８发布","powerTime":"2020-03-04 16:39:46","powerComm":"已送电","subsNo":"","lineNo":"","tgNo":"","tgName":null,"infoStatus":"1","orgName":"国网徐水县供电公司","typeName":null,"infoStatusName":null,"dateDay":null,"orgNos":null,"nowTime":null,"countyName":null,"streetName":null,"villageName":null,"roadName":null,"communityName":null,"tranName":null,"sdLineName":null,"cityCode":"1340605","cityName":"国网徐水县供电公司","provinceCode":null,"stopTime":"2020-03-04 17:00:00","powerType":"全部","powerOffArea":"【全线路停电】停徐水县轩雅食品有限公司计量点,大刘庄果园,西白亭10号,西白亭6号,南庞1号【纯农排变】,供电所8号,西白亭11号【纯农排变】,东白亭10号,东白亭12号,北庞8号,南庞5号,西白亭3号【纯农排变】,大刘庄7号,西白亭7号,西白亭12号,东白亭7号【纯农排变】,西白亭4号【纯农排变】,南庞12号,大刘庄1号【纯农排变】,南庞14号,东白亭6号【纯农排变】,南庞13号,大刘庄4号【纯农排变】,西白亭9号,西白亭2号,保定立辉玻璃有限公司,曹庄1号,大刘庄3号,徐水县华通水泥制品有限公司,小刘庄3号【纯农排变】,保定桑德水处理有限公司,南庞11号,东白亭1号【纯农排变】,小刘庄冰棍房,小刘庄4号,东白亭8号【纯农排变】,南庞4号,南庞3号【纯农排变】,盛园护具厂,大刘庄12号,徐水鑫林塑管有限公司,南庞10号,南庞村面粉厂,东白亭11号,西白亭8号,北楼5号,大刘庄13号,南庞16号,大刘庄6号【纯农排变】,大刘庄8号,南庞6号,西白亭13号,北庞5号【纯农排变】,曹庄3号【纯农排变】,大刘庄10号,东白亭2号,南庞8号【纯农排变】,南庞15号,东白亭5号【纯农排变】,小刘庄5号,东白亭3号【纯农排变】,小刘庄6号,大刘庄砖厂2号,大刘庄9号,大刘庄砖厂1号,南庞7号,小刘庄面粉厂,徐水县祥光工业用呢厂,徐水县乔森机械制造有限公司,刘大庆,小刘庄1号,南庞9号,北楼13号,漕河中心小学,西白亭5号,西白亭14号,保定市强固建筑材料制造有限公司,东白亭9号【纯农排变】,曹庄4号,西白亭1号,大刘庄5号,小刘庄2号【纯农排变】,大刘庄2号【纯农排变】,北楼8号【纯农排变】,南庞2号,曹庄2号,格润工贸有限公司,西白亭面粉厂,徐水县华帅包装制品厂2号,大刘庄11号,东白亭鱼塘","powerOffReason":"【停电原因】由于Ｂ相接地导致１１０ＫＶ田西良变电站南庞线５８９线路全线停电 【变更送电】因抢修进度加快原因，送电时间由１８:００变更为１７:００ 【发布渠道】通过９５５９８发布","powerOffId":"2020030413000043"},{"poweroffId":2020030413000039,"sgpoweroffId":null,"subsName":"","lineName":"麻园线512","pubTranName":"鹏通搅拌站02,福利建材厂,鹏通搅拌站01,河北省涞源县第三中学变压器,512麻圆线南关南,512麻圆线麻圆东,史拥军,第三中学箱变出线间隔配电变压器,石油公司,512麻圆线镇中东片,张勇,0469544288-涞源县力拓商品混凝土有限公司-专变-125930454-涞源县力拓商品混凝土有限公司变压器,512麻圆线南关外贸,512麻圆线麻圆西,512麻圆线西神山南,冷冻厂,涞源县阔宇房地产开发有限公司变压器,刁占峰,河北保定运输集团有限责任公司第六运输分公司变压器,变压器002#,涞源县住房和城乡建设局变压器1,涞源县涞源镇东神山村村民委员会,0593250950-涞源县巨凯混凝土有限公司-专变-125861051-涞源县巨凯混凝土有限公司变压器,涞源县力拓商品混凝土有限公司变压器-900027687144,涞源县住房和城乡建设局变压器,康洁清毒中心,涞源县兰凤铁选厂,512麻圆线东神山,512麻圆线西神山6#,512麻圆线麻圆北台区,512麻圆线西神山4#,512麻圆线西神山2号台区,512麻圆线林河家属楼台区,512麻圆线三中家属楼台区,河北省保定市涞源县滨湖所滨湖村变压器,城南站512汽车六队家属院,吴和平煤面厂,沁园山庄配变（冬季取暖）,512麻圆线西神山3号水利,512麻圆线汽车六队家属楼,交警大队变压器,512麻圆线南关大队,变压器01#,西神山8#,涞源县广兴泡沫塑料制造有限责任公司变压器,","scope":"【影响街道/乡镇】涞源镇、城区办【高危重要客户】无【影响客户】水云乡村、农机公司、东神山村、西神山村、麻园村、南关村、三中家属楼、交警队、怡源小区、涞源三中、西神山小学、林河小区、汽车六队家属楼、汽车六队家属院","startTime":"2020-03-04 13:55:00","stopDate":"2020-03-04 15:30:00","orgNo":"1340615","typeCode":"电网故障停限电","poweroffArea":"【全线路停电】停512麻圆线西神山6#,鹏通搅拌站02,福利建材厂,鹏通搅拌站01,河北省涞源县第三中学变压器,512麻圆线南关南,512麻圆线麻圆东,史拥军,第三中学箱变出线间隔配电变压器,石油公司,512麻圆线镇中东片,张勇,0469544288-涞源县力拓商品混凝土有限公司-专变-125930454-涞源县力拓商品混凝土有限公司变压器,512麻圆线南关外贸,512麻圆线麻圆西,512麻圆线西神山南,冷冻厂,涞源县阔宇房地产开发有限公司变压器,刁占峰,河北保定运输集团有限责任公司第六运输分公司变压器,变压器002#,涞源县住房和城乡建设局变压器1,涞源县涞源镇东神山村村民委员会,0593250950-涞源县巨凯混凝土有限公司-专变-125861051-涞源县巨凯混凝土有限公司变压器,涞源县力拓商品混凝土有限公司变压器-900027687144,涞源县住房和城乡建设局变压器,康洁清毒中心,涞源县兰凤铁选厂,512麻圆线东神山,512麻圆线麻圆北台区,512麻圆线西神山4#,512麻圆线西神山2号台区,512麻圆线林河家属楼台区,512麻圆线三中家属楼台区,河北省保定市涞源县滨湖所滨湖村变压器,城南站512汽车六队家属院,吴和平煤面厂,沁园山庄配变（冬季取暖）,512麻圆线西神山3号水利,512麻圆线汽车六队家属楼,交警大队变压器,512麻圆线南关大队,变压器01#,西神山8#,涞源县广兴泡沫塑料制造有限责任公司变压器","poweroffReason":"【停电原因】由于速断掉闸导致３５ＫＶ城南变电站１０ＫＶ麻园线５１２线路全线停电【变更送电】因抢修进度加快，原定１８：００送电现计划１５：３０送电【发布渠道】通过９５５９８发布","powerTime":"2020-03-04 15:01:24","powerComm":"已送电","subsNo":"","lineNo":"","tgNo":"","tgName":null,"infoStatus":"1","orgName":"国网涞源县供电公司","typeName":null,"infoStatusName":null,"dateDay":null,"orgNos":null,"nowTime":null,"countyName":null,"streetName":null,"villageName":null,"roadName":null,"communityName":null,"tranName":null,"sdLineName":null,"cityCode":"1340615","cityName":"国网涞源县供电公司","provinceCode":null,"stopTime":"2020-03-04 15:30:00","powerType":"全部","powerOffArea":"【全线路停电】停512麻圆线西神山6#,鹏通搅拌站02,福利建材厂,鹏通搅拌站01,河北省涞源县第三中学变压器,512麻圆线南关南,512麻圆线麻圆东,史拥军,第三中学箱变出线间隔配电变压器,石油公司,512麻圆线镇中东片,张勇,0469544288-涞源县力拓商品混凝土有限公司-专变-125930454-涞源县力拓商品混凝土有限公司变压器,512麻圆线南关外贸,512麻圆线麻圆西,512麻圆线西神山南,冷冻厂,涞源县阔宇房地产开发有限公司变压器,刁占峰,河北保定运输集团有限责任公司第六运输分公司变压器,变压器002#,涞源县住房和城乡建设局变压器1,涞源县涞源镇东神山村村民委员会,0593250950-涞源县巨凯混凝土有限公司-专变-125861051-涞源县巨凯混凝土有限公司变压器,涞源县力拓商品混凝土有限公司变压器-900027687144,涞源县住房和城乡建设局变压器,康洁清毒中心,涞源县兰凤铁选厂,512麻圆线东神山,512麻圆线麻圆北台区,512麻圆线西神山4#,512麻圆线西神山2号台区,512麻圆线林河家属楼台区,512麻圆线三中家属楼台区,河北省保定市涞源县滨湖所滨湖村变压器,城南站512汽车六队家属院,吴和平煤面厂,沁园山庄配变（冬季取暖）,512麻圆线西神山3号水利,512麻圆线汽车六队家属楼,交警大队变压器,512麻圆线南关大队,变压器01#,西神山8#,涞源县广兴泡沫塑料制造有限责任公司变压器","powerOffReason":"【停电原因】由于速断掉闸导致３５ＫＶ城南变电站１０ＫＶ麻园线５１２线路全线停电【变更送电】因抢修进度加快，原定１８：００送电现计划１５：３０送电【发布渠道】通过９５５９８发布","powerOffId":"2020030413000039"},{"poweroffId":2020030413000003,"sgpoweroffId":null,"subsName":"","lineName":"10kV泗庄线515","pubTranName":"客户投资_庞场东台柱上变压器,东大街西,庞场市场变压器,东大街中变压器,半边街北变压器,庞场南变压器,半边街南变压器,田庄西北2柱上变压器,半边街西北变压器,六里街地变压器,泗庄市场2变压器,半边街西南变压器,泗庄田庄东南台,田庄西三变压器,田庄西2柱上变压器,南大街村变压器,北留西排灌变压器【纯农排变】,郭街东变压器,半边街西变压器,半边街变压器,田庄东北变压器,东大街6号变台,泗庄市场变压器,庞场南二变压器,田庄东变压器,东大街南变压器,东大街北二,","scope":"【影响街道/乡镇】泗庄镇、东马营镇、东大街、南大街 【高危重要客户】无 【影响客户】东大街村、半边街村、庞场村、郭街村、田庄村、六里街村、高庄村、北留村、王义明、高碑店市泗庄东大街小学、高碑店市泗庄田庄小学、汇通路桥建设集团有限公司、泗庄镇政府、高碑店市泗庄中心卫生院、泗庄邮局、纪建春、万宇箱包、中国石油第四加油站","startTime":"2020-03-04 06:20:21","stopDate":"2020-03-04 10:30:00","orgNo":"1340612","typeCode":"电网故障停限电","poweroffArea":"【全线路停电】停半边街西变压器,半边街变压器,汇通路桥建设中心03,郭街地变压器【纯农排变】,田庄东南地变压器【纯农排变】,田庄西变压器,北留西排灌变压器【纯农排变】,泗庄镇政府,高庄南变压器,高碑店市泗庄镇东大街小学,六里街南地变压器,中国移动通信集团河北有限公司高碑店分公司,郭街东变压器,田庄西北变压器,东大街东变压器,东大街南地变压器,北留西2变压器,东大街西南地变压器【纯农排变】,泗庄市场变压器,半边街2号地变压器,南大街东南2变压器,庞场南二变压器,高庄西地变压器【纯农排变】,东大街北二,0387440299-社办厂-专变-45277408-社办厂,东大街西,庞场市场变压器,保定白沟新城和源加油站变压器,东大街中变压器,加油站,高碑店市华德立成箱包有限责任公司,半边街北变压器,保定帝翔商贸有限公司,庞场南变压器,猪场,泗庄田庄北变压器,东大街北变压器,半边街南变压器,田庄西北2柱上变压器,六里街变台,半边街西北变压器,郭街西变压器,泗庄田庄西南地变压器【纯农排变】,高碑店市泗庄镇田庄村富强人造革厂变压器,南大街村变压器,变压器,高碑店市泗庄镇田庄小学变压器,东大街地变压器【纯农排变】,庞场2号地变压器【纯农排变】,东大街煤厂,汇通路桥建设中心02,汇通路桥建设中心01,北留南变压器,高碑店市同兴农林畜牧有限公司,高碑店市瑞跃晟物业管理有限公司2,田庄东变压器,高碑店市白沟机动车驾驶员培训学校,高庄村内变压器,东大街东南地变压器【纯农排变】,孙建华,东大街南变压器,半边街西地变压器,半边街地变压器【纯农排变】,南大街地变压器【纯农排变】,六里街变压器,六里街地变压器,泗庄市场2变压器,高碑店市泗庄镇东大街小学变压器,王义明变压器,半边街西南变压器,庞场3号地变压器【纯农排变】,泗庄田庄东南台,田庄西三变压器,田庄西2柱上变压器,北留西变压器,高碑店市双兴粮油商贸有限公司变压器,高庄地变压器【纯农排变】,农场,保定霖诺商贸有限公司,田庄东北变压器,客户投资_庞场东台柱上变压器,庞场北变压器,东大街6号变台,高碑店市泗庄中心卫生院变压器,高碑店市瑞跃晟物业管理有限公司1","poweroffReason":"【停电原因】由于主干线路跳闸导致３５ＫＶ泗庄变电站１０ＫＶ泗庄５１５线路全线停电 【变更送电】因抢修进度加快原因，送电时间由１２：００变更为１０：３０ 【发布渠道】通过９５５９８发布","powerTime":"2020-03-04 10:17:56","powerComm":"已送电","subsNo":"","lineNo":"","tgNo":"","tgName":null,"infoStatus":"1","orgName":"国网高碑店市供电公司","typeName":null,"infoStatusName":null,"dateDay":null,"orgNos":null,"nowTime":null,"countyName":null,"streetName":null,"villageName":null,"roadName":null,"communityName":null,"tranName":null,"sdLineName":null,"cityCode":"1340612","cityName":"国网高碑店市供电公司","provinceCode":null,"stopTime":"2020-03-04 10:30:00","powerType":"全部","powerOffArea":"【全线路停电】停半边街西变压器,半边街变压器,汇通路桥建设中心03,郭街地变压器【纯农排变】,田庄东南地变压器【纯农排变】,田庄西变压器,北留西排灌变压器【纯农排变】,泗庄镇政府,高庄南变压器,高碑店市泗庄镇东大街小学,六里街南地变压器,中国移动通信集团河北有限公司高碑店分公司,郭街东变压器,田庄西北变压器,东大街东变压器,东大街南地变压器,北留西2变压器,东大街西南地变压器【纯农排变】,泗庄市场变压器,半边街2号地变压器,南大街东南2变压器,庞场南二变压器,高庄西地变压器【纯农排变】,东大街北二,0387440299-社办厂-专变-45277408-社办厂,东大街西,庞场市场变压器,保定白沟新城和源加油站变压器,东大街中变压器,加油站,高碑店市华德立成箱包有限责任公司,半边街北变压器,保定帝翔商贸有限公司,庞场南变压器,猪场,泗庄田庄北变压器,东大街北变压器,半边街南变压器,田庄西北2柱上变压器,六里街变台,半边街西北变压器,郭街西变压器,泗庄田庄西南地变压器【纯农排变】,高碑店市泗庄镇田庄村富强人造革厂变压器,南大街村变压器,变压器,高碑店市泗庄镇田庄小学变压器,东大街地变压器【纯农排变】,庞场2号地变压器【纯农排变】,东大街煤厂,汇通路桥建设中心02,汇通路桥建设中心01,北留南变压器,高碑店市同兴农林畜牧有限公司,高碑店市瑞跃晟物业管理有限公司2,田庄东变压器,高碑店市白沟机动车驾驶员培训学校,高庄村内变压器,东大街东南地变压器【纯农排变】,孙建华,东大街南变压器,半边街西地变压器,半边街地变压器【纯农排变】,南大街地变压器【纯农排变】,六里街变压器,六里街地变压器,泗庄市场2变压器,高碑店市泗庄镇东大街小学变压器,王义明变压器,半边街西南变压器,庞场3号地变压器【纯农排变】,泗庄田庄东南台,田庄西三变压器,田庄西2柱上变压器,北留西变压器,高碑店市双兴粮油商贸有限公司变压器,高庄地变压器【纯农排变】,农场,保定霖诺商贸有限公司,田庄东北变压器,客户投资_庞场东台柱上变压器,庞场北变压器,东大街6号变台,高碑店市泗庄中心卫生院变压器,高碑店市瑞跃晟物业管理有限公司1","powerOffReason":"【停电原因】由于主干线路跳闸导致３５ＫＶ泗庄变电站１０ＫＶ泗庄５１５线路全线停电 【变更送电】因抢修进度加快原因，送电时间由１２：００变更为１０：３０ 【发布渠道】通过９５５９８发布","powerOffId":"2020030413000003"},{"poweroffId":2020030321000045,"sgpoweroffId":null,"subsName":"","lineName":"10kV富昌站581线路","pubTranName":"0370738565-保定市新市区富昌乡小汲村-专变,保定市新市区江城乡后高庄学校,1后高庄内4,1后高庄内2,大汲店村南西台,保定市农业生态园建设指挥部,小汲村委会2,1后高庄内9,0356189262-保定市云祥绝缘材料有限公司-专变,1大汲店内7,0387500142-保定市圣豪建筑材料制造有限公司-专变-45320540-保定市新市区圣豪建材厂,保定市好梦花语旅游开发有限公司-900025451001,0387498953-后高庄西南南台-专变-216179387-后高庄西南南台,1后高庄内6,0387499099-后高庄村西南台-专变-209873295-后高庄村西南台,C185柱上变压器,0356185866-保定市文远模具设备有限公司-专变,C539柱上变压器,后高庄村委会,0387499507-后高庄村东-专变-209951689-后高庄村东,0387498979-交通局外环路管理处小-专变-45320496-交通局外环路管理处小,0356185895-束鹿元村-专变,后高庄村委会-50182342,1后高庄内7,C188柱上变压器,保定市城市管理行政执法局-227117190,0555178214-保定市新市区富昌乡小汲村村民委员会-专变,0387500227-后高庄村北-专变-209873737-后高庄村北,保定市西大洋供水有限公司,0555180367-保定市新市区富昌乡小汲村村民委员会-专变,1大汲店美林河畔内1配电变压器,C206柱上变压器,1大汲店内2,保定市新市区友联机械厂,0562872057-保定市新市区富昌乡束鹿园村-专变,C189柱上变压器,保定市新市区建红服装加工厂,1大汲店内1,后高庄砖厂边,大汲店鱼塘,1大汲店美林河畔内2配电变压器,0647666658-保定市新市区丰茂果蔬销售专业社-专变-171685832-保定市新市区丰茂果蔬销售专业社,1大汲店内5,0356243120-小汲村-专变,C3033柱上变压器,1大汲店内8,保定市新市区浩宇门经营部,保定市城市管理行政执法局-227115808,0688504890-大激店村委会-专变-228795933-大激店村委会,大汲店村委会315,保定市好梦花语旅游开发有限公司-900025447563,0672566053-大激店村委会-专变-214319363-大激店村委会,保定市城市管理行政执法局-227114651,后高庄候河边,1大汲店内9,后高庄桃园,1大汲店内4,0387499288-后高庄村北南台-专变-209930910-后高庄村北南台,1后高庄内11,后高庄李艳力牛场,后高李明,保定市环通交通发展有限公司收费南站,大汲店唐万景面粉厂,大汲店村南台,0465886560-保定市新市区富昌乡小汲村民委员会-专变,0609748365-保定市新市区富昌乡束鹿园村村民委员会-专变,1后高庄内5,0356185824-富昌屯(西)-专变,保定市隆泰达建材有限公司,后高庄卫东塑料厂,保定雷亚酒店有限公司,0387499305-后高庄西北台-专变-208462591-后高庄西北台,0387499930-保定三联肉兔养殖合作社","scope":"【影响街道/乡镇】江城乡、富昌乡 【高危重要客户】无 【影响客户】大汲店、后高庄、美林河畔小区、小汲店村、束鹿园","startTime":"2020-03-03 12:00:43","stopDate":"2020-03-03 17:00:43","orgNo":"13406","typeCode":"电网故障停限电","poweroffArea":"【全线路停电】停0356238397-小汲村-专变,1后高庄内1,后高庄李铮养殖厂,C184柱上变压器,后高庄村委会1,保定市新市区金良种猪场,后高庄刘志英,1后高庄内10,0387500256-交通局外环路管理处大-专变-45320614-交通局外环路管理处大,0356185853-束鹿元村-专变,保定市新市区立宾玻璃销售部,大汲店铁道北北台,中国石油化工股份有限公司河北保定石油分公,保定市城市管理行政执法局-227119938,C187柱上变压器,保定市新市区富达纸箱包装厂,小汲村委会,0687453869-大激店村委会-专变-228712976-大激店村委会,保定骏菱汽车销售服务有限公司计量点,1后高庄内8,0356185879-束鹿元村-专变,河北华宇设备有限公司,保定市新市区大永水泥制品厂,C421柱上变压器,0356236476-大祝泽西队-专变,0387499927-大汲店村-专变-45320622-大汲店村,保定市新市区平乐塑料制品经销部,后高庄石宝占种鸡场,利德路桥,1大汲店内3,1后高庄内3,保定海联塑料制品有限公司,后高庄村委会-148534320,保定海联塑料制品制造有限公司,中国石油天然气股份有限公司河北保定销售分公司第二百零三加油站,C186柱上变压器,变压器,保定市铭云中凯汽车贸易有限公司,保定隆泰达建材有限公司,保定市新市区冀浩宇木器加工厂,C403柱上变压器,保定市城市管理行政执法局,大汲店村委会,C422柱上变压器,0356227289-小汲村-专变,大汲店铁道北,大汲店北西,保定市好梦花语旅游开发有限公司-900025443858,大汲店南9号,后高庄村东南,1大汲店内6,后高庄刘国清拔丝厂,后高庄村西西北台,保定市农业生态园建设指挥部,0370738565-保定市新市区富昌乡小汲村-专变,保定市新市区江城乡后高庄学校,1后高庄内4,1后高庄内2,大汲店村南西台,小汲村委会2,1后高庄内9,0356189262-保定市云祥绝缘材料有限公司-专变,1大汲店内7,0387500142-保定市圣豪建筑材料制造有限公司-专变-45320540-保定市新市区圣豪建材厂,保定市好梦花语旅游开发有限公司-900025451001,0387498953-后高庄西南南台-专变-216179387-后高庄西南南台,1后高庄内6,0387499099-后高庄村西南台-专变-209873295-后高庄村西南台,C185柱上变压器,0356185866-保定市文远模具设备有限公司-专变,C539柱上变压器,后高庄村委会,0387499507-后高庄村东-专变-209951689-后高庄村东,0387498979-交通局外环路管理处小-专变-45320496-交通局外环路管理处小,0356185895-束鹿元村-专变,后高庄村委会-50182342,1后高庄内7,C188柱上变压器,保定市城市管理行政执法局-227117190,0555178214-保定市新市区富昌乡小汲村村民委员会-专变,0387500227-后高庄村北-专变-209873737-后高庄村北,保定市西大洋供水有限公司,0555180367-保定市新市区富昌乡小汲村村民委员会-专变,1大汲店美林河畔内1配电变压器,C206柱上变压器,1大汲店内2,保定市新市区友联机械厂,0562872057-保定市新市区富昌乡束鹿园村-专变,C189柱上变压器,0647666658-保定市新市区丰茂果蔬销售专业社-专变-171685832-保定市新市区丰茂果蔬销售专业社,1大汲店内5,0356243120-小汲村-专变,C3033柱上变压器,保定市新市区建红服装加工厂,1大汲店内1,后高庄砖厂边,大汲店鱼塘,1大汲店美林河畔内2配电变压器,1大汲店内8,保定市新市区浩宇门经营部,保定市城市管理行政执法局-227115808,0688504890-大激店村委会-专变-228795933-大激店村委会,大汲店村委会315,保定市好梦花语旅游开发有限公司-900025447563,0672566053-大激店村委会-专变-214319363-大激店村委会,保定市城市管理行政执法局-227114651,后高庄候河边,1大汲店内9,后高庄桃园,1大汲店内4,0387499288-后高庄村北南台-专变-209930910-后高庄村北南台,1后高庄内11,后高庄李艳","poweroffReason":"【停电原因】由于分支开关短路导致１０ＫＶ富昌变电站５８１线路全线停电【变更送电】无【发布渠道】通过９５５９８发布","powerTime":"2020-03-03 16:29:37","powerComm":"已送电","subsNo":"","lineNo":"","tgNo":"","tgName":null,"infoStatus":"1","orgName":"保定供电公司","typeName":null,"infoStatusName":null,"dateDay":null,"orgNos":null,"nowTime":null,"countyName":null,"streetName":null,"villageName":null,"roadName":null,"communityName":null,"tranName":null,"sdLineName":null,"cityCode":"13406","cityName":"保定供电公司","provinceCode":null,"stopTime":"2020-03-03 17:00:43","powerType":"全部","powerOffArea":"【全线路停电】停0356238397-小汲村-专变,1后高庄内1,后高庄李铮养殖厂,C184柱上变压器,后高庄村委会1,保定市新市区金良种猪场,后高庄刘志英,1后高庄内10,0387500256-交通局外环路管理处大-专变-45320614-交通局外环路管理处大,0356185853-束鹿元村-专变,保定市新市区立宾玻璃销售部,大汲店铁道北北台,中国石油化工股份有限公司河北保定石油分公,保定市城市管理行政执法局-227119938,C187柱上变压器,保定市新市区富达纸箱包装厂,小汲村委会,0687453869-大激店村委会-专变-228712976-大激店村委会,保定骏菱汽车销售服务有限公司计量点,1后高庄内8,0356185879-束鹿元村-专变,河北华宇设备有限公司,保定市新市区大永水泥制品厂,C421柱上变压器,0356236476-大祝泽西队-专变,0387499927-大汲店村-专变-45320622-大汲店村,保定市新市区平乐塑料制品经销部,后高庄石宝占种鸡场,利德路桥,1大汲店内3,1后高庄内3,保定海联塑料制品有限公司,后高庄村委会-148534320,保定海联塑料制品制造有限公司,中国石油天然气股份有限公司河北保定销售分公司第二百零三加油站,C186柱上变压器,变压器,保定市铭云中凯汽车贸易有限公司,保定隆泰达建材有限公司,保定市新市区冀浩宇木器加工厂,C403柱上变压器,保定市城市管理行政执法局,大汲店村委会,C422柱上变压器,0356227289-小汲村-专变,大汲店铁道北,大汲店北西,保定市好梦花语旅游开发有限公司-900025443858,大汲店南9号,后高庄村东南,1大汲店内6,后高庄刘国清拔丝厂,后高庄村西西北台,保定市农业生态园建设指挥部,0370738565-保定市新市区富昌乡小汲村-专变,保定市新市区江城乡后高庄学校,1后高庄内4,1后高庄内2,大汲店村南西台,小汲村委会2,1后高庄内9,0356189262-保定市云祥绝缘材料有限公司-专变,1大汲店内7,0387500142-保定市圣豪建筑材料制造有限公司-专变-45320540-保定市新市区圣豪建材厂,保定市好梦花语旅游开发有限公司-900025451001,0387498953-后高庄西南南台-专变-216179387-后高庄西南南台,1后高庄内6,0387499099-后高庄村西南台-专变-209873295-后高庄村西南台,C185柱上变压器,0356185866-保定市文远模具设备有限公司-专变,C539柱上变压器,后高庄村委会,0387499507-后高庄村东-专变-209951689-后高庄村东,0387498979-交通局外环路管理处小-专变-45320496-交通局外环路管理处小,0356185895-束鹿元村-专变,后高庄村委会-50182342,1后高庄内7,C188柱上变压器,保定市城市管理行政执法局-227117190,0555178214-保定市新市区富昌乡小汲村村民委员会-专变,0387500227-后高庄村北-专变-209873737-后高庄村北,保定市西大洋供水有限公司,0555180367-保定市新市区富昌乡小汲村村民委员会-专变,1大汲店美林河畔内1配电变压器,C206柱上变压器,1大汲店内2,保定市新市区友联机械厂,0562872057-保定市新市区富昌乡束鹿园村-专变,C189柱上变压器,0647666658-保定市新市区丰茂果蔬销售专业社-专变-171685832-保定市新市区丰茂果蔬销售专业社,1大汲店内5,0356243120-小汲村-专变,C3033柱上变压器,保定市新市区建红服装加工厂,1大汲店内1,后高庄砖厂边,大汲店鱼塘,1大汲店美林河畔内2配电变压器,1大汲店内8,保定市新市区浩宇门经营部,保定市城市管理行政执法局-227115808,0688504890-大激店村委会-专变-228795933-大激店村委会,大汲店村委会315,保定市好梦花语旅游开发有限公司-900025447563,0672566053-大激店村委会-专变-214319363-大激店村委会,保定市城市管理行政执法局-227114651,后高庄候河边,1大汲店内9,后高庄桃园,1大汲店内4,0387499288-后高庄村北南台-专变-209930910-后高庄村北南台,1后高庄内11,后高庄李艳","powerOffReason":"【停电原因】由于分支开关短路导致１０ＫＶ富昌变电站５８１线路全线停电【变更送电】无【发布渠道】通过９５５９８发布","powerOffId":"2020030321000045"},{"poweroffId":2020030313000133,"sgpoweroffId":null,"subsName":"","lineName":"韩村线513","pubTranName":"韩村光3,韩村光4,新佟高庄村光8,北田光7,韩村光1,新章村排5【纯农排变】,新大佟村光3【2019年预安排】,榆林光3,榆林光8【2018年秋冬季重过载】,新佟高庄村光9,南召光4,大佟村光7【2018年四批补强】,韩村光5,新佟高庄光5,新北田光6【2019年预安排】,新佟高庄光1,杨村排6【纯农排变】,新佟高庄光7,曹村光3,新北田光3【2019年预安排】,南召光2,榆林光4,大佟村光4,新榆林光1,佟北庄光1,新王官排2【纯农排变】,新榆林光2,新韩村光2,皂马光1【2018年技改】,大佟村光2,皂马光6,皂马光3,新佟高庄光6,新佟高庄光4,尤旺光4,杨村排3【纯农排变】,皂马大棚排1【纯农排变】,新大佟村光2【2018年重过载】,曹村光8,佟北庄光3,佟高庄大棚排1【纯农排变】,曹村光5【2018年节能变】,曹村光4,新佟高庄光2,曹村光5,王官光1,大佟村光6,新尤旺光5【2019年预安排】,皂马排4【纯农排变】,韩村光9,北田混7,尤旺光1【2018年重过载】,佟高庄光10,杨村排4【纯农排变】,韩村排1【纯农排变】,尤旺光2【2018年四批补强】,新王官排3【纯农排变】,尤旺光3,曹村光4【2018年四批补强】,韩村光8,农排鸡厂【纯农排变】,章村光6,新佟高庄光3,南召光5,韩村光6,韩村光7,新大佟村光1【2018年秋冬季重过载】,新北田光1,南召光3,尤旺光3【2018年节能变】,王官光4,","scope":"【影响街道/乡镇】北田乡 【高危重要客户】无 【影响客户】东韩村、章村、曹村、榆林、北田、南召、大佟村、佟北庄、尤旺、佟高庄、王官、皂马","startTime":"2020-03-03 19:45:25","stopDate":"2020-03-03 22:30:00","orgNo":"1340609","typeCode":"电网故障停限电","poweroffArea":"【全线路停电】停新北田光3【2019年预安排】,曹村光1,新佟高庄光1,曹村排3【纯农排变】,章村光2,大佟村排2【纯农排变】,杨村排6【纯农排变】,皂马光1,榆林混1,新佟高庄光7,曹村光3,会军建材城,新榆林光1,榆林排5【纯农排变】,南召光3,曹村排7【纯农排变】,尤旺排5【纯农排变】,章村光4,尤旺光3【2018年节能变】,大佟村排4【纯农排变】,韩村排2【纯农排变】,曹村排8【纯农排变】,尤旺排6【纯农排变】,王官光4,0694616378-定兴县北田乡章村小学-专变-237547951-章村小学,皂马光3,新佟高庄光6,曹村光5,章村农排7【纯农排变】,韩村排5【纯农排变】,王官光1,大佟村光6,新尤旺光5【2019年预安排】,尤旺排2【纯农排变】,曹村排6【纯农排变】,王官排4 1【纯农排变】,曹村光2,韩村光9,北田混7,尤旺光1【2018年重过载】,佟高庄光10,韩村排3【纯农排变】,榆林排4【纯农排变】,杨村排4【纯农排变】,尤旺排1【纯农排变】,韩村排1【纯农排变】,大佟村排5【纯农排变】,尤旺光2【2018年四批补强】,新王官排3【纯农排变】,南召排2【纯农排变】,王官光3,尤旺光3,北田排3【纯农排变】,曹村光4【2018年四批补强】,佟北庄排3【纯农排变】,韩村光8,皂马排1【纯农排变】,北田光5,曹村面,榆林排2【纯农排变】,0469291487-*北田小学-专变-46771861-*北田小学,北田排2【纯农排变】,大佟村排1【纯农排变】,佟高庄排7|09105132075【纯农排变】,新北田光6【2019年预安排】,北田排5【纯农排变】,新榆林光2,新韩村光2,佟北庄光2,王官光2,南召光2,韩村排4【纯农排变】,榆林光4,大佟村光4,章村排1【纯农排变】,章村农排3【纯农排变】,新大佟村光2【2018年重过载】,皂马混2,杨村排2【纯农排变】,大佟村光5,章村排2【纯农排变】,榆林光6,榆林光7,佟北庄光1,皂马光5,北田排4【纯农排变】,新王官排2【纯农排变】,章村光6,新佟高庄光3,杨保安,榆林排3【纯农排变】,农排鸡厂【纯农排变】,章村农排5【纯农排变】,新佟高庄光5,佟北庄排1【纯农排变】,尤旺排4【纯农排变】,韩村光3,曹村排4【纯农排变】,章村农排6【纯农排变】,韩村光4,新佟高庄村光8,北田光7,新北田光2【2018年一批应急】,韩村光1,韩村村排6【纯农排变】,佟高庄排3【纯农排变】,新章村排5【纯农排变】,章村光3,尤旺光2,榆林小学,新大佟村光3【2019年预安排】,100,佟高庄排2【纯农排变】,南召河防,佟北庄排2【纯农排变】,榆林光3,曹村排2【纯农排变】,0694658277-定兴县北田中学-专变-237548824-北田中学2号便,曹村光6,榆林光8【2018年秋冬季重过载】,0694658277-定兴县北田中学-专变-237550411-北田中学1号便,新佟高庄村光9,北田农贸公用,北田排1【纯农排变】,南召光4,大佟村光7【2018年四批补强】,榆林光5,王官光5,佟高庄排6【纯农排变】,韩村光5,北田排6【纯农排变】,皂马排3【纯农排变】,韩村光6,韩村光7,大佟村中心小学,章村光1【2018年重过载】,新大佟村光1【2018年秋冬季重过载】,皂马光1【2018年技改】,北田光4,杨村排11【纯农排变】,新皂马光2,250KVA,大佟村光2,曹村排1【纯农排变】,南召排1【纯农排变】,皂马光6,新佟高庄光4,曹村排5【纯农排变】,曹村光7,尤旺光4,新北田光1,杨村排3【纯农排变】,皂马大棚排1【纯农排变】,南召光1,佟高庄排4【纯农排变】,北田学习-400,皂马排4【纯农排变】,北田乡春蕾小学,章村农排4【纯农排变】,南召光5,曹村光8,佟北庄光3,佟高庄大棚排1【纯农排变】,佟高庄排1【纯农排变】,王官光6,尤旺光6,曹村光5【2018年节能变】,佟高庄排5【纯农排变】,曹村光4,0696770270-定兴县北田小学-专变-240818269","poweroffReason":"【停电原因】由于湖南路桥分支电缆外力破坏导致３５ＫＶ大留村变电站韩村线５１３线路全线停电 【变更送电】因抢修进度加快原因，送电时间由０４日０２：００变更为０３日２２：３０ 【发布渠道】通过９５５９８发布","powerTime":"2020-03-03 21:54:50","powerComm":"已送电","subsNo":"","lineNo":"","tgNo":"","tgName":null,"infoStatus":"1","orgName":"国网定兴县供电公司","typeName":null,"infoStatusName":null,"dateDay":null,"orgNos":null,"nowTime":null,"countyName":null,"streetName":null,"villageName":null,"roadName":null,"communityName":null,"tranName":null,"sdLineName":null,"cityCode":"1340609","cityName":"国网定兴县供电公司","provinceCode":null,"stopTime":"2020-03-03 22:30:00","powerType":"全部","powerOffArea":"【全线路停电】停新北田光3【2019年预安排】,曹村光1,新佟高庄光1,曹村排3【纯农排变】,章村光2,大佟村排2【纯农排变】,杨村排6【纯农排变】,皂马光1,榆林混1,新佟高庄光7,曹村光3,会军建材城,新榆林光1,榆林排5【纯农排变】,南召光3,曹村排7【纯农排变】,尤旺排5【纯农排变】,章村光4,尤旺光3【2018年节能变】,大佟村排4【纯农排变】,韩村排2【纯农排变】,曹村排8【纯农排变】,尤旺排6【纯农排变】,王官光4,0694616378-定兴县北田乡章村小学-专变-237547951-章村小学,皂马光3,新佟高庄光6,曹村光5,章村农排7【纯农排变】,韩村排5【纯农排变】,王官光1,大佟村光6,新尤旺光5【2019年预安排】,尤旺排2【纯农排变】,曹村排6【纯农排变】,王官排4 1【纯农排变】,曹村光2,韩村光9,北田混7,尤旺光1【2018年重过载】,佟高庄光10,韩村排3【纯农排变】,榆林排4【纯农排变】,杨村排4【纯农排变】,尤旺排1【纯农排变】,韩村排1【纯农排变】,大佟村排5【纯农排变】,尤旺光2【2018年四批补强】,新王官排3【纯农排变】,南召排2【纯农排变】,王官光3,尤旺光3,北田排3【纯农排变】,曹村光4【2018年四批补强】,佟北庄排3【纯农排变】,韩村光8,皂马排1【纯农排变】,北田光5,曹村面,榆林排2【纯农排变】,0469291487-*北田小学-专变-46771861-*北田小学,北田排2【纯农排变】,大佟村排1【纯农排变】,佟高庄排7|09105132075【纯农排变】,新北田光6【2019年预安排】,北田排5【纯农排变】,新榆林光2,新韩村光2,佟北庄光2,王官光2,南召光2,韩村排4【纯农排变】,榆林光4,大佟村光4,章村排1【纯农排变】,章村农排3【纯农排变】,新大佟村光2【2018年重过载】,皂马混2,杨村排2【纯农排变】,大佟村光5,章村排2【纯农排变】,榆林光6,榆林光7,佟北庄光1,皂马光5,北田排4【纯农排变】,新王官排2【纯农排变】,章村光6,新佟高庄光3,杨保安,榆林排3【纯农排变】,农排鸡厂【纯农排变】,章村农排5【纯农排变】,新佟高庄光5,佟北庄排1【纯农排变】,尤旺排4【纯农排变】,韩村光3,曹村排4【纯农排变】,章村农排6【纯农排变】,韩村光4,新佟高庄村光8,北田光7,新北田光2【2018年一批应急】,韩村光1,韩村村排6【纯农排变】,佟高庄排3【纯农排变】,新章村排5【纯农排变】,章村光3,尤旺光2,榆林小学,新大佟村光3【2019年预安排】,100,佟高庄排2【纯农排变】,南召河防,佟北庄排2【纯农排变】,榆林光3,曹村排2【纯农排变】,0694658277-定兴县北田中学-专变-237548824-北田中学2号便,曹村光6,榆林光8【2018年秋冬季重过载】,0694658277-定兴县北田中学-专变-237550411-北田中学1号便,新佟高庄村光9,北田农贸公用,北田排1【纯农排变】,南召光4,大佟村光7【2018年四批补强】,榆林光5,王官光5,佟高庄排6【纯农排变】,韩村光5,北田排6【纯农排变】,皂马排3【纯农排变】,韩村光6,韩村光7,大佟村中心小学,章村光1【2018年重过载】,新大佟村光1【2018年秋冬季重过载】,皂马光1【2018年技改】,北田光4,杨村排11【纯农排变】,新皂马光2,250KVA,大佟村光2,曹村排1【纯农排变】,南召排1【纯农排变】,皂马光6,新佟高庄光4,曹村排5【纯农排变】,曹村光7,尤旺光4,新北田光1,杨村排3【纯农排变】,皂马大棚排1【纯农排变】,南召光1,佟高庄排4【纯农排变】,北田学习-400,皂马排4【纯农排变】,北田乡春蕾小学,章村农排4【纯农排变】,南召光5,曹村光8,佟北庄光3,佟高庄大棚排1【纯农排变】,佟高庄排1【纯农排变】,王官光6,尤旺光6,曹村光5【2018年节能变】,佟高庄排5【纯农排变】,曹村光4,0696770270-定兴县北田小学-专变-240818269","powerOffReason":"【停电原因】由于湖南路桥分支电缆外力破坏导致３５ＫＶ大留村变电站韩村线５１３线路全线停电 【变更送电】因抢修进度加快原因，送电时间由０４日０２：００变更为０３日２２：３０ 【发布渠道】通过９５５９８发布","powerOffId":"2020030313000133"}],"pageModel":{"pageNow":280,"totalCount":10973,"totalPage":1098,"tableRows":0,"pageCount":10,"beginCount":2790},"isExperi":"1"}