{"message":"","today":"2020-06-15","seleList":[{"poweroffId":2020022913000071,"sgpoweroffId":null,"subsName":"","lineName":"固酒线564","pubTranName":"曹家营光4,东陶沈光2,中陶沈光2,东陶沈光7变压器,西陶沈光1,曹家营光2【2018年重过载】,西陶沈光3,东陶沈光1,曹家营光5,魏家庄光5,中陶沈光5,魏家庄光3【2019第一批预安排】,西陶沈光4【2018年四批补强】,魏家庄光4,新魏庄光2,魏家庄光1,中陶沈光6,东陶沈光5,曹家营光3,中陶沈光7,曹家营光6【2019年预安排】,西陶沈光5,中陶沈光1【2018年第二批应急工程】,西陶沈光2,中陶沈光4【2018年第二批应急工程】,东陶沈光6,中陶沈光3,东陶沈光3,东陶沈光4变压器,曹家营光1,","scope":"【影响街道/乡镇】张家庄乡 【高危重要客户】无 【影响客户】西陶沈、中陶沈、东陶沈、魏家庄、曹家营、北大牛部分用户","startTime":"2020-02-29 11:38:20","stopDate":"2020-02-29 16:30:00","orgNo":"1340609","typeCode":"电网故障停限电","poweroffArea":"【全线路停电】停中陶沈光1【2018年第二批应急工程】,曹家营光6【2019年预安排】,魏家庄光3【2019第一批预安排】,西陶沈光4【2018年四批补强】,魏家庄光4,中陶沈排8【纯农排变】,新魏庄光2,魏家庄光1,中陶沈光6,东陶沈光5,东陶沈排2【纯农排变】,西魏家庄排1【纯农排变】,曹家营排4【纯农排变】,中陶沈排5【纯农排变】,魏家庄排3【纯农排变】,西陶沈光5,曹家营排5【纯农排变】,曹家营排6【纯农排变】,曹家营排7【纯农排变】,西陶沈光2,东陶沈排3【纯农排变】,曹家营排2【纯农排变】,北大牛排5【纯农排变】,中陶沈光7,东陶沈光6,西陶沈排4【纯农排变】,魏家庄排4【纯农排变】,中陶沈光3,中陶沈排6【纯农排变】, 曹家营光1,北大牛排2【纯农排变】,魏家庄排2【纯农排变】,西陶沈排5【纯农排变】,曹家营排3【纯农排变】,曹家营光4,中陶沈排2【纯农排变】,北大牛排7【纯农排变】,东陶沈排4【纯农排变】,西陶沈排6【纯农排变】,中陶沈光2,曹家营排1【纯农排变】,中陶沈排3【纯农排变】,魏家庄排5【纯农排变】,东陶沈排6【纯农排变】,东陶沈光7变压器,西陶沈排2【纯农排变】,中陶沈排4【纯农排变】,西陶沈光1,西陶沈光3,西陶沈排1【纯农排变】,东陶沈光1,东陶沈光2,北大牛排1【纯农排变】,北大牛排6【纯农排变】,曹家营光3,西陶沈排3【纯农排变】,东陶沈光3,中陶沈排7【纯农排变】,东陶沈村排8【纯农排变】,东陶沈光4变压器,东陶沈村排5【纯农排变】,曹家营光2【2018年重过载】,中陶沈光4【2018年第二批应急工程】,东陶沈排7【纯农排变】,曹家营光5,中陶沈排1【纯农排变】,魏家庄光5,中陶沈光5","poweroffReason":"【停电原因】由于中兴饲料厂配变避雷器击穿导致１１０ＫＶ贤寓变电站固酒线５６４线路全线停电 【变更送电】因抢修进度加快原因，送电时间由１８：００变更为１６：３０ 【发布渠道】通过９５５９８发布","powerTime":"2020-02-29 15:51:26","powerComm":"已送电","subsNo":"","lineNo":"","tgNo":"","tgName":null,"infoStatus":"1","orgName":"国网定兴县供电公司","typeName":null,"infoStatusName":null,"dateDay":null,"orgNos":null,"nowTime":null,"countyName":null,"streetName":null,"villageName":null,"roadName":null,"communityName":null,"tranName":null,"sdLineName":null,"cityCode":"1340609","cityName":"国网定兴县供电公司","provinceCode":null,"stopTime":"2020-02-29 16:30:00","powerType":"全部","powerOffArea":"【全线路停电】停中陶沈光1【2018年第二批应急工程】,曹家营光6【2019年预安排】,魏家庄光3【2019第一批预安排】,西陶沈光4【2018年四批补强】,魏家庄光4,中陶沈排8【纯农排变】,新魏庄光2,魏家庄光1,中陶沈光6,东陶沈光5,东陶沈排2【纯农排变】,西魏家庄排1【纯农排变】,曹家营排4【纯农排变】,中陶沈排5【纯农排变】,魏家庄排3【纯农排变】,西陶沈光5,曹家营排5【纯农排变】,曹家营排6【纯农排变】,曹家营排7【纯农排变】,西陶沈光2,东陶沈排3【纯农排变】,曹家营排2【纯农排变】,北大牛排5【纯农排变】,中陶沈光7,东陶沈光6,西陶沈排4【纯农排变】,魏家庄排4【纯农排变】,中陶沈光3,中陶沈排6【纯农排变】, 曹家营光1,北大牛排2【纯农排变】,魏家庄排2【纯农排变】,西陶沈排5【纯农排变】,曹家营排3【纯农排变】,曹家营光4,中陶沈排2【纯农排变】,北大牛排7【纯农排变】,东陶沈排4【纯农排变】,西陶沈排6【纯农排变】,中陶沈光2,曹家营排1【纯农排变】,中陶沈排3【纯农排变】,魏家庄排5【纯农排变】,东陶沈排6【纯农排变】,东陶沈光7变压器,西陶沈排2【纯农排变】,中陶沈排4【纯农排变】,西陶沈光1,西陶沈光3,西陶沈排1【纯农排变】,东陶沈光1,东陶沈光2,北大牛排1【纯农排变】,北大牛排6【纯农排变】,曹家营光3,西陶沈排3【纯农排变】,东陶沈光3,中陶沈排7【纯农排变】,东陶沈村排8【纯农排变】,东陶沈光4变压器,东陶沈村排5【纯农排变】,曹家营光2【2018年重过载】,中陶沈光4【2018年第二批应急工程】,东陶沈排7【纯农排变】,曹家营光5,中陶沈排1【纯农排变】,魏家庄光5,中陶沈光5","powerOffReason":"【停电原因】由于中兴饲料厂配变避雷器击穿导致１１０ＫＶ贤寓变电站固酒线５６４线路全线停电 【变更送电】因抢修进度加快原因，送电时间由１８：００变更为１６：３０ 【发布渠道】通过９５５９８发布","powerOffId":"2020022913000071"},{"poweroffId":2020022913000046,"sgpoweroffId":null,"subsName":"","lineName":"10kV523伍侯线","pubTranName":"唐行店村西新增综合5867,唐行店村新增综合2号5882,唐行店西-23001330|23001330,正童村村东南新增综合0943,唐行店村南综合,唐行店村新增综合1号6391,玉山店村西综合5868,王银全综合9472,唐行店村东综合,正童村西新增综合3369,唐行店村新增综合2394,玉山店西-23000820|23000820,正童新增综合5872,玉山店南-23001640|23001640,北伍侯村新增综合2393,海家庄-23001970|23001970,唐行店-23003910|23003910,新增庄村西新增综合7981,新增庄-23001250|23001250,唐行店东-23001990|23001990,正童村南-23003830|23003830,新增庄村东新增综合6380,海家庄综合新建4936,唐行店新增综合3号3489,北伍侯-23001930|23001930,正童-23003920|23003920,正童村西北新增综合2399,正童村东南新增综合5884,正童村西-23001060|23001060,北伍候新架5874,玉山店-23003760|23003760,正童村东-23001100|23001100,玉山店新增综合1号2211,北伍侯-23003460|23003460,唐行店村南新增综合5870,","scope":"【影响街道/乡镇】腰山镇【高危重要客户】无【影响客户】正童、新增庄、唐行店","startTime":"2020-02-29 09:26:53","stopDate":"2020-02-29 13:00:00","orgNo":"1340621","typeCode":"电网故障停限电","poweroffArea":"【分支停电】停唐行店村西新增综合5867,唐行店村新增综合2号5882,唐行店西-23001330|23001330,正童村村东南新增综合0943,唐行店村南综合,唐行店村新增综合1号6391,唐行店村东综合,正童村西新增综合3369,唐行店村新增综合2394,正童新增综合5872,唐行店新增综合3号3489,正童村西北新增综合2399,正童村东南新增综合5884,新增庄村西新增综合7981,唐行店东-23001990|23001990,正童村南-23003830|23003830","poweroffReason":"【停电原因】由于铁丝搭在面粉厂横担上导致３５ＫＶ腰山变电站１０ＫＶ５２３伍侯线路正童分支０１号杆断路器以下线路停电【变更送电】因抢修进度加快原因，送电时间由１６：００变更为１３：００【发布渠道】通过９５５９８发布","powerTime":"2020-02-29 12:37:53","powerComm":"已送电","subsNo":"","lineNo":"","tgNo":"","tgName":null,"infoStatus":"1","orgName":"国网顺平县电力局","typeName":null,"infoStatusName":null,"dateDay":null,"orgNos":null,"nowTime":null,"countyName":null,"streetName":null,"villageName":null,"roadName":null,"communityName":null,"tranName":null,"sdLineName":null,"cityCode":"1340621","cityName":"国网顺平县电力局","provinceCode":null,"stopTime":"2020-02-29 13:00:00","powerType":"全部","powerOffArea":"【分支停电】停唐行店村西新增综合5867,唐行店村新增综合2号5882,唐行店西-23001330|23001330,正童村村东南新增综合0943,唐行店村南综合,唐行店村新增综合1号6391,唐行店村东综合,正童村西新增综合3369,唐行店村新增综合2394,正童新增综合5872,唐行店新增综合3号3489,正童村西北新增综合2399,正童村东南新增综合5884,新增庄村西新增综合7981,唐行店东-23001990|23001990,正童村南-23003830|23003830","powerOffReason":"【停电原因】由于铁丝搭在面粉厂横担上导致３５ＫＶ腰山变电站１０ＫＶ５２３伍侯线路正童分支０１号杆断路器以下线路停电【变更送电】因抢修进度加快原因，送电时间由１６：００变更为１３：００【发布渠道】通过９５５９８发布","powerOffId":"2020022913000046"},{"poweroffId":2020022913000023,"sgpoweroffId":null,"subsName":"","lineName":"赵庄乡线516","pubTranName":"赵庄村西南混,","scope":"【影响街道/乡镇】赵庄乡　 【高危重要客户】无　　 【影响客户】赵庄村","startTime":"2020-02-29 08:06:38","stopDate":"2020-02-29 10:00:00","orgNo":"1340623","typeCode":"电网故障停限电","poweroffArea":"【全线路停电】停赵庄村西南混","poweroffReason":"【停电原因】由于站内开关跳闸导致３５ＫＶ工业变电站赵庄乡线５１６线路全线停电 【变更送电】因抢修进度加快原因，送电时间由１８：００变更为１０：００ 【发布渠道】通过９５５９８发布","powerTime":"2020-02-29 09:28:26","powerComm":"已送电","subsNo":"","lineNo":"","tgNo":"","tgName":null,"infoStatus":"1","orgName":"国网望都县供电公司","typeName":null,"infoStatusName":null,"dateDay":null,"orgNos":null,"nowTime":null,"countyName":null,"streetName":null,"villageName":null,"roadName":null,"communityName":null,"tranName":null,"sdLineName":null,"cityCode":"1340623","cityName":"国网望都县供电公司","provinceCode":null,"stopTime":"2020-02-29 10:00:00","powerType":"全部","powerOffArea":"【全线路停电】停赵庄村西南混","powerOffReason":"【停电原因】由于站内开关跳闸导致３５ＫＶ工业变电站赵庄乡线５１６线路全线停电 【变更送电】因抢修进度加快原因，送电时间由１８：００变更为１０：００ 【发布渠道】通过９５５９８发布","powerOffId":"2020022913000023"},{"poweroffId":2020022821000005,"sgpoweroffId":null,"subsName":"","lineName":"10kV阮庄站512线路","pubTranName":"0356183147-保定凯莱先锋硅钙砖建筑新材料有限公司-1#专变,","scope":"【影响街道/乡镇】莲池区南二环、阮庄路、钢厂路 【高危重要客户】无 【影响客户】先锋机械厂、丰收法兰厂、洽尔公司","startTime":"2020-02-28 11:45:42","stopDate":"2020-02-28 14:00:42","orgNo":"13406","typeCode":"电网故障停限电","poweroffArea":"【全线路停电】停 0356183147-保定凯莱先锋硅钙砖建筑新材料有限公司-1#专变;0356465616-保定市祥云金属制品有限公司-6#专变;0356465616-保定市祥云金属制品有限公司-4#专变;0356465616-保定市祥云金属制品有限公司-12#专变;0356465616-保定市祥云金属制品有限公司-9#专变;0356465616-保定市祥云金属制品有限公司-8#专变;0356465616-保定市祥云金属制品有限公司-5#专变;0356465616-保定市祥云金属制品有限公司-1#专变;0356465616-保定市祥云金属制品有限公司-10#专变;0356465616-保定市祥云金属制品有限公司-11#专变;0356465616-保定市祥云金属制品有限公司-7#专变;0356465616-保定市祥云金属制品有限公司-2#专变;0356465616-保定市祥云金属制品有限公司-14#专变;0356183147-保定凯莱先锋硅钙砖建筑新材料有限公司-2#专变;0356465616-保定市祥云金属制品有限公司-3#专变;0356465616-保定市祥云金属制品有限公司-13#专变","poweroffReason":"【停电原因】由于分支开关短路导致１０ＫＶ阮庄变电站５１２线路全线停电【变更送电】因抢修进度加快，原定16:00送电现计划14:00送电【发布渠道】通过９５５９８发","powerTime":"2020-02-28 13:28:51","powerComm":"已送电","subsNo":"","lineNo":"","tgNo":"","tgName":null,"infoStatus":"1","orgName":"保定供电公司","typeName":null,"infoStatusName":null,"dateDay":null,"orgNos":null,"nowTime":null,"countyName":null,"streetName":null,"villageName":null,"roadName":null,"communityName":null,"tranName":null,"sdLineName":null,"cityCode":"13406","cityName":"保定供电公司","provinceCode":null,"stopTime":"2020-02-28 14:00:42","powerType":"全部","powerOffArea":"【全线路停电】停 0356183147-保定凯莱先锋硅钙砖建筑新材料有限公司-1#专变;0356465616-保定市祥云金属制品有限公司-6#专变;0356465616-保定市祥云金属制品有限公司-4#专变;0356465616-保定市祥云金属制品有限公司-12#专变;0356465616-保定市祥云金属制品有限公司-9#专变;0356465616-保定市祥云金属制品有限公司-8#专变;0356465616-保定市祥云金属制品有限公司-5#专变;0356465616-保定市祥云金属制品有限公司-1#专变;0356465616-保定市祥云金属制品有限公司-10#专变;0356465616-保定市祥云金属制品有限公司-11#专变;0356465616-保定市祥云金属制品有限公司-7#专变;0356465616-保定市祥云金属制品有限公司-2#专变;0356465616-保定市祥云金属制品有限公司-14#专变;0356183147-保定凯莱先锋硅钙砖建筑新材料有限公司-2#专变;0356465616-保定市祥云金属制品有限公司-3#专变;0356465616-保定市祥云金属制品有限公司-13#专变","powerOffReason":"【停电原因】由于分支开关短路导致１０ＫＶ阮庄变电站５１２线路全线停电【变更送电】因抢修进度加快，原定16:00送电现计划14:00送电【发布渠道】通过９５５９８发","powerOffId":"2020022821000005"},{"poweroffId":2020022813000446,"sgpoweroffId":null,"subsName":"","lineName":"10kV东北郊站532线路","pubTranName":"C360柱上变压器,","scope":"【影响街道/乡镇】莲池区东金庄乡 【高危重要客户】无 【影响客户】东金庄村","startTime":"2020-02-28 18:50:34","stopDate":"2020-02-28 22:00:00","orgNo":"13406","typeCode":"电网故障停限电","poweroffArea":"【单台区停电】停C360柱上变压器","poweroffReason":"【停电原因】由于低压刀闸烧导致１０ＫＶ东北郊变电站５３２线路Ｃ３６０公变台区停电【变更送电】无【发布渠道】通过９５５９８发布","powerTime":"2020-02-28 21:03:48","powerComm":"已送电","subsNo":"","lineNo":"","tgNo":"","tgName":null,"infoStatus":"1","orgName":"保定供电公司","typeName":null,"infoStatusName":null,"dateDay":null,"orgNos":null,"nowTime":null,"countyName":null,"streetName":null,"villageName":null,"roadName":null,"communityName":null,"tranName":null,"sdLineName":null,"cityCode":"13406","cityName":"保定供电公司","provinceCode":null,"stopTime":"2020-02-28 22:00:00","powerType":"全部","powerOffArea":"【单台区停电】停C360柱上变压器","powerOffReason":"【停电原因】由于低压刀闸烧导致１０ＫＶ东北郊变电站５３２线路Ｃ３６０公变台区停电【变更送电】无【发布渠道】通过９５５９８发布","powerOffId":"2020022813000446"},{"poweroffId":2020022813000440,"sgpoweroffId":null,"subsName":"","lineName":"10kV北王力线512","pubTranName":"1北王力内9,","scope":"【影响街道/乡镇】北王力乡 【高危重要客户】无 【影响客户】北王力","startTime":"2020-02-28 18:28:12","stopDate":"2020-02-28 20:00:00","orgNo":"1340618","typeCode":"电网故障停限电","poweroffArea":"【单台区停电】停1北王力内9","poweroffReason":"【停电原因】由于低压线断导致３５ＫＶ罗家营变电站１０ＫＶ北王力线５１２线路１北王力内９号公变台区停电 【变更送电】因抢修进度加快原因，送电时间由２３：５９变更为２０：００ 【发布渠道】通过９５５９８发布","powerTime":"2020-02-28 19:18:15","powerComm":"赵振宇通知已送电","subsNo":"","lineNo":"","tgNo":"","tgName":null,"infoStatus":"1","orgName":"国网清苑县供电公司","typeName":null,"infoStatusName":null,"dateDay":null,"orgNos":null,"nowTime":null,"countyName":null,"streetName":null,"villageName":null,"roadName":null,"communityName":null,"tranName":null,"sdLineName":null,"cityCode":"1340618","cityName":"国网清苑县供电公司","provinceCode":null,"stopTime":"2020-02-28 20:00:00","powerType":"全部","powerOffArea":"【单台区停电】停1北王力内9","powerOffReason":"【停电原因】由于低压线断导致３５ＫＶ罗家营变电站１０ＫＶ北王力线５１２线路１北王力内９号公变台区停电 【变更送电】因抢修进度加快原因，送电时间由２３：５９变更为２０：００ 【发布渠道】通过９５５９８发布","powerOffId":"2020022813000440"},{"poweroffId":2020022713000010,"sgpoweroffId":null,"subsName":"","lineName":"三八六512","pubTranName":"荆轲山村1#,韩家庄1#,荆轲山村12#,荆轲山4#,荆轲山村2#,荆轲山村8#,荆轲山村13#,荆轲山村3#,荆轲山村5#,荆轲山村7#,荆轲山村6#,荆轲山村14#,荆轲山村16#,荆轲山村9#,","scope":"【影响街道/乡镇】易州镇【高危重要客户】无【影响客户】荆轲山村、韩家庄村、西庄村","startTime":"2020-02-27 08:40:07","stopDate":"2020-02-27 10:00:00","orgNo":"1340625","typeCode":"电网故障停限电","poweroffArea":"【全线路停电】停386总站,荆轲山村12#,荆轲山村9#,荆轲山村13#,荆轲山村8#,双民石料购销处（李爱明1）南,光荣院,66393部队,韩家庄1#,荆轲山村7#,易县创意房地产开发有限公司变压器,0587164863-易县殡葬管理所-专变-125219237-易县殡葬管理所变压器,双明石料购销处（李爱明3）北,荆轲山村14#,荆轲山村3#,66287部队,荆轲山4#,荆轲山村16#,荆轲山村1#,易县王文养殖厂,荆轲山村5#,荆轲山村6#,荆轲山村2#","poweroffReason":"【停电原因】由于外力破坏速断跳闸导致３５ＫＶ易水变电站三八六５１２线路全线停电【变更送电】因抢修进度加快原因，送电时间由１４：００变更为１０：００【发布渠道】通过９５５９８发布","powerTime":"2020-02-27 09:41:34","powerComm":"已送电","subsNo":"","lineNo":"","tgNo":"","tgName":null,"infoStatus":"1","orgName":"国网易县供电公司","typeName":null,"infoStatusName":null,"dateDay":null,"orgNos":null,"nowTime":null,"countyName":null,"streetName":null,"villageName":null,"roadName":null,"communityName":null,"tranName":null,"sdLineName":null,"cityCode":"1340625","cityName":"国网易县供电公司","provinceCode":null,"stopTime":"2020-02-27 10:00:00","powerType":"全部","powerOffArea":"【全线路停电】停386总站,荆轲山村12#,荆轲山村9#,荆轲山村13#,荆轲山村8#,双民石料购销处（李爱明1）南,光荣院,66393部队,韩家庄1#,荆轲山村7#,易县创意房地产开发有限公司变压器,0587164863-易县殡葬管理所-专变-125219237-易县殡葬管理所变压器,双明石料购销处（李爱明3）北,荆轲山村14#,荆轲山村3#,66287部队,荆轲山4#,荆轲山村16#,荆轲山村1#,易县王文养殖厂,荆轲山村5#,荆轲山村6#,荆轲山村2#","powerOffReason":"【停电原因】由于外力破坏速断跳闸导致３５ＫＶ易水变电站三八六５１２线路全线停电【变更送电】因抢修进度加快原因，送电时间由１４：００变更为１０：００【发布渠道】通过９５５９８发布","powerOffId":"2020022713000010"},{"poweroffId":2020022613000014,"sgpoweroffId":null,"subsName":"","lineName":"10kV513高就线","pubTranName":"高就村公用照明2台区,留早中心街公用照明2台区,西街公用照明3台区,小齐堡公用照明2台区,甄家庄公用照明2台区,齐堡村小齐堡公用照明1台区,高就公用照明8台区,李家庄公用照明2台区,高就公用照明5台区,高就村公用照明3台区,留早中心街公用照明3台区,高就公用照明7台区,高就公用照明12台区,留早南街公用照明1台区,李家庄村公用照明1台区,高就公用照明6台区,甄家庄村公用照明1台区,留早西街公用照明2台区,高就公用照明13台区,高就公用照明10台区,中心街公用照明6台区,高就村公用照明4台区,高就村公用照明1台区,南街公用照明4台区,留早南街公用照明2台区,高就公用照明11台区,留早西街公用照明1台区,高就公用照明9台区,","scope":"【影响街道/乡镇】留早镇【高危重要客户】无【影响客户】小齐堡村、大兴庄村、留早南街、李家庄村、甄家庄、高就村、留早中心街村、留早西街村、白家庄","startTime":"2020-02-26 10:42:20","stopDate":"2020-02-26 12:00:00","orgNo":"1340610","typeCode":"电网故障停限电","poweroffArea":"【全线路停电】停留早中心街公用照明2台区,中心街公用照明6台区,高就村公用照明4台区,高就村公用照明1台区,留早南街公用照明2台区,高就公用照明11台区,留早西街公用照明1台区,留早南街公用照明1台区,李家庄村公用照明1台区,高就公用照明6台区,甄家庄村公用照明1台区,留早西街公用照明2台区,高就公用照明13台区,高就公用照明10台区,高就公用照明9台区,高就村公用照明2台区,西街公用照明3台区,小齐堡公用照明2台区,甄家庄公用照明2台区,齐堡村小齐堡公用照明1台区,高就公用照明8台区,高就公用照明12台区,李家庄公用照明2台区,高就公用照明5台区,高就村公用照明3台区,留早中心街公用照明3台区,南街公用照明4台区,高就公用照明7台区,高就公用照明15台区,留早西街公用照明5台区","poweroffReason":"【停电原因】由于刨树扫线导致３５ＫＶ留早变电站１０ＫＶ５１３高就线路全线停电 【变更送电】因抢修进度加快原因，送电时间由１８：００变更为１２：００ 【发布渠道】９５５９８","powerTime":"2020-02-26 11:39:46","powerComm":"已送电","subsNo":"","lineNo":"","tgNo":"","tgName":null,"infoStatus":"1","orgName":"国网定州市供电公司","typeName":null,"infoStatusName":null,"dateDay":null,"orgNos":null,"nowTime":null,"countyName":null,"streetName":null,"villageName":null,"roadName":null,"communityName":null,"tranName":null,"sdLineName":null,"cityCode":"1340610","cityName":"国网定州市供电公司","provinceCode":null,"stopTime":"2020-02-26 12:00:00","powerType":"全部","powerOffArea":"【全线路停电】停留早中心街公用照明2台区,中心街公用照明6台区,高就村公用照明4台区,高就村公用照明1台区,留早南街公用照明2台区,高就公用照明11台区,留早西街公用照明1台区,留早南街公用照明1台区,李家庄村公用照明1台区,高就公用照明6台区,甄家庄村公用照明1台区,留早西街公用照明2台区,高就公用照明13台区,高就公用照明10台区,高就公用照明9台区,高就村公用照明2台区,西街公用照明3台区,小齐堡公用照明2台区,甄家庄公用照明2台区,齐堡村小齐堡公用照明1台区,高就公用照明8台区,高就公用照明12台区,李家庄公用照明2台区,高就公用照明5台区,高就村公用照明3台区,留早中心街公用照明3台区,南街公用照明4台区,高就公用照明7台区,高就公用照明15台区,留早西街公用照明5台区","powerOffReason":"【停电原因】由于刨树扫线导致３５ＫＶ留早变电站１０ＫＶ５１３高就线路全线停电 【变更送电】因抢修进度加快原因，送电时间由１８：００变更为１２：００ 【发布渠道】９５５９８","powerOffId":"2020022613000014"},{"poweroffId":2020022513000021,"sgpoweroffId":null,"subsName":"","lineName":"10kV565小店线","pubTranName":"10kV565小店线18033台区变压器,10kV565小店线18026台区变压器,10kV565小店线18042台区变压器,10kV565小店线18012台区变压器,10kV565小店线2未命名台区变压器,10kV565小店线18016台区变压器,10kV565小店线99834台区变压器,10kV565小店线18100台区变压器,10kV565小店线68860台区变压器,10kV565小店线众泰家园43455台区变压器,10kV565小店线18050台区变压器,10kV565小店线42620台区变压器,10kV565小店线18018台区变压器.,10kV565小店线18017台区变压器,","scope":"【影响街道/乡镇】小店镇【高危重要客户】无【影响客户】小店、张营","startTime":"2020-02-25 07:12:29","stopDate":"2020-02-25 09:00:00","orgNo":"1340608","typeCode":"电网故障停限电","poweroffArea":"【全线路停电】停10kV565小店线18026台区变压器,10kV565小店线2未命名台区变压器,10kV565小店线99834台区变压器,10kV565小店线68860台区变压器,10kV565小店线众泰家园43455台区变压器,10kV565小店线18050台区变压器,10kV565小店线42620台区变压器,10kV565小店线18018台区变压器.,10kV565小店线18017台区变压器,10kV565小店线18033台区变压器,10kV565小店线18042台区变压器,10kV565小店线18012台区变压器,10kV565小店线18016台区变压器,10kV565小店线18100台区变压器","poweroffReason":"【停电原因】由于站外开关掉闸导致１１０ＫＶ胡庄变电站小店５６５线路全线停电【变更送电】因抢修进度加快原因，送电时间由１２：００变更为０９：００【发布渠道】通过９５５９８发布","powerTime":"2020-02-25 08:27:12","powerComm":"已送电","subsNo":"","lineNo":"","tgNo":"","tgName":null,"infoStatus":"1","orgName":"国网博野县供电公司","typeName":null,"infoStatusName":null,"dateDay":null,"orgNos":null,"nowTime":null,"countyName":null,"streetName":null,"villageName":null,"roadName":null,"communityName":null,"tranName":null,"sdLineName":null,"cityCode":"1340608","cityName":"国网博野县供电公司","provinceCode":null,"stopTime":"2020-02-25 09:00:00","powerType":"全部","powerOffArea":"【全线路停电】停10kV565小店线18026台区变压器,10kV565小店线2未命名台区变压器,10kV565小店线99834台区变压器,10kV565小店线68860台区变压器,10kV565小店线众泰家园43455台区变压器,10kV565小店线18050台区变压器,10kV565小店线42620台区变压器,10kV565小店线18018台区变压器.,10kV565小店线18017台区变压器,10kV565小店线18033台区变压器,10kV565小店线18042台区变压器,10kV565小店线18012台区变压器,10kV565小店线18016台区变压器,10kV565小店线18100台区变压器","powerOffReason":"【停电原因】由于站外开关掉闸导致１１０ＫＶ胡庄变电站小店５６５线路全线停电【变更送电】因抢修进度加快原因，送电时间由１２：００变更为０９：００【发布渠道】通过９５５９８发布","powerOffId":"2020022513000021"},{"poweroffId":2020022413000033,"sgpoweroffId":null,"subsName":"","lineName":"10kV御城线542","pubTranName":"1御城内4,","scope":"【影响街道/乡镇】望亭乡 【高危重要客户】无 【影响客户】玉城","startTime":"2020-02-24 11:11:50","stopDate":"2020-02-24 13:30:00","orgNo":"1340618","typeCode":"电网故障停限电","poweroffArea":"【单台区停电】停1御城内4","poweroffReason":"【停电原因】由于低压线断导致１０ＫＶ戎官营开关变电站１０ＫＶ御城线５４２线路１御城内４号公变台区停电 【变更送电】因抢修进度加快原因，送电时间由１６：００变更为１３：３０ 【发布渠道】通过９５５９８发布","powerTime":"2020-02-24 13:02:02","powerComm":"任洪洲通知已送电","subsNo":"","lineNo":"","tgNo":"","tgName":null,"infoStatus":"1","orgName":"国网清苑县供电公司","typeName":null,"infoStatusName":null,"dateDay":null,"orgNos":null,"nowTime":null,"countyName":null,"streetName":null,"villageName":null,"roadName":null,"communityName":null,"tranName":null,"sdLineName":null,"cityCode":"1340618","cityName":"国网清苑县供电公司","provinceCode":null,"stopTime":"2020-02-24 13:30:00","powerType":"全部","powerOffArea":"【单台区停电】停1御城内4","powerOffReason":"【停电原因】由于低压线断导致１０ＫＶ戎官营开关变电站１０ＫＶ御城线５４２线路１御城内４号公变台区停电 【变更送电】因抢修进度加快原因，送电时间由１６：００变更为１３：３０ 【发布渠道】通过９５５９８发布","powerOffId":"2020022413000033"}],"pageModel":{"pageNow":284,"totalCount":10973,"totalPage":1098,"tableRows":0,"pageCount":10,"beginCount":2830},"isExperi":"1"}