{"message":"","today":"2020-06-15","seleList":[{"poweroffId":2020022413000005,"sgpoweroffId":null,"subsName":"","lineName":"庞口线514","pubTranName":"南庞口村东综合,03068|南庞口村西南综合,03066|南庞口村里综合,03062|西庞口村南综合,03060|西庞口村东综合,03067|新南庞口村东南综合,03061|西庞口村西综合,南庞口村西综合,","scope":"【影响街道/乡镇】庞口镇 【高危重要客户】无 【影响客户】南庞口村、西庞口村、庞口市场全部","startTime":"2020-02-24 10:30:00","stopDate":"2020-02-24 12:30:00","orgNo":"1340613","typeCode":"其他临时停电","poweroffArea":"【分支停电】停03066|南庞口村里综合,高阳县强力配件厂变压器,程树杰,高阳县双马减震器制造有限公司变压器,高阳县顺成农业机械配件制造有限公司变压器,庞口营业所,高阳县庞口镇北庞口村村民委员会变压器,李占江 2,中国移动通信集团河北有限公司高阳分公司,张保生农机厂,庞口市场管理委员会,西庞口市场(车场),高阳县恩发物业管理有限公司变压器,西庞口集英学校2,西庞口菜园,庞口索建国,张金山,高阳县三鑫农用车配件厂变压器,03062|西庞口村南综合,杨国强,李志红,西庞口大队学校小区,上海桑沙机械进出口有限公司变压器,庞口市管会,03061|西庞口村西综合,西庞口轴瓦厂变压器,市管会,高阳县泰宏内燃机配件厂变压器,南庞口村西综合,03071|西庞口农业南,西庞口轴瓦厂,南庞口李贝变压器,江辉减震器厂,叶志桂,西庞口拔丝厂,南庞口制件厂,李占江,镇政府,索连伟,张森林,西庞口村西,南庞口村东,李臣煤厂,李申,保定光达物业管理公司,高阳县庞口镇北庞口村变压器,庞口市管会(200),候建康,中国联通高阳县分公司,西庞口铸件厂,张颜民轮胎厂,庞口津阳电机厂,徐二迷减振器厂,西庞口弓子板厂,物资站,高阳县地税局庞口分局,兴江机械有限公司,西庞口电镀厂,腾飞机件厂,李亚辉,庞口工商所,贺二强,03060|西庞口村东综合,恒光农机配件厂,王朝辉减震器厂,03068|南庞口村西南综合,南庞口复合肥厂,成艳轮面粉厂,西庞口李马,庞口市场,市管会新增,李顺北厂(子),东留果庄果园,张国欣,03070|西庞口农业中,停车场(二),03067|新南庞口村东南综合,南庞口村东综合,闫喜泉,南庞口西南,高阳县鹏翔养殖场,03069|西庞口农业北,李运昌农机厂,李义,成艳军面粉厂,北庞口公路西,五洲宾馆,侯喜震,西庞口村北新增,东风空气滤清器厂,亚辉厂","poweroffReason":"【停电原因】由于更换电杆导致３５ＫＶ庞口变电站庞口５１４线路主线５号杆５号开关以下停电【变更送电】无【发布渠道】通过９５５９８发布","powerTime":"2020-02-24 12:16:37","powerComm":"已送电","subsNo":"","lineNo":"","tgNo":"","tgName":null,"infoStatus":"1","orgName":"国网高阳县供电公司","typeName":null,"infoStatusName":null,"dateDay":null,"orgNos":null,"nowTime":null,"countyName":null,"streetName":null,"villageName":null,"roadName":null,"communityName":null,"tranName":null,"sdLineName":null,"cityCode":"1340613","cityName":"国网高阳县供电公司","provinceCode":null,"stopTime":"2020-02-24 12:30:00","powerType":"全部","powerOffArea":"【分支停电】停03066|南庞口村里综合,高阳县强力配件厂变压器,程树杰,高阳县双马减震器制造有限公司变压器,高阳县顺成农业机械配件制造有限公司变压器,庞口营业所,高阳县庞口镇北庞口村村民委员会变压器,李占江 2,中国移动通信集团河北有限公司高阳分公司,张保生农机厂,庞口市场管理委员会,西庞口市场(车场),高阳县恩发物业管理有限公司变压器,西庞口集英学校2,西庞口菜园,庞口索建国,张金山,高阳县三鑫农用车配件厂变压器,03062|西庞口村南综合,杨国强,李志红,西庞口大队学校小区,上海桑沙机械进出口有限公司变压器,庞口市管会,03061|西庞口村西综合,西庞口轴瓦厂变压器,市管会,高阳县泰宏内燃机配件厂变压器,南庞口村西综合,03071|西庞口农业南,西庞口轴瓦厂,南庞口李贝变压器,江辉减震器厂,叶志桂,西庞口拔丝厂,南庞口制件厂,李占江,镇政府,索连伟,张森林,西庞口村西,南庞口村东,李臣煤厂,李申,保定光达物业管理公司,高阳县庞口镇北庞口村变压器,庞口市管会(200),候建康,中国联通高阳县分公司,西庞口铸件厂,张颜民轮胎厂,庞口津阳电机厂,徐二迷减振器厂,西庞口弓子板厂,物资站,高阳县地税局庞口分局,兴江机械有限公司,西庞口电镀厂,腾飞机件厂,李亚辉,庞口工商所,贺二强,03060|西庞口村东综合,恒光农机配件厂,王朝辉减震器厂,03068|南庞口村西南综合,南庞口复合肥厂,成艳轮面粉厂,西庞口李马,庞口市场,市管会新增,李顺北厂(子),东留果庄果园,张国欣,03070|西庞口农业中,停车场(二),03067|新南庞口村东南综合,南庞口村东综合,闫喜泉,南庞口西南,高阳县鹏翔养殖场,03069|西庞口农业北,李运昌农机厂,李义,成艳军面粉厂,北庞口公路西,五洲宾馆,侯喜震,西庞口村北新增,东风空气滤清器厂,亚辉厂","powerOffReason":"【停电原因】由于更换电杆导致３５ＫＶ庞口变电站庞口５１４线路主线５号杆５号开关以下停电【变更送电】无【发布渠道】通过９５５９８发布","powerOffId":"2020022413000005"},{"poweroffId":2020022413000001,"sgpoweroffId":null,"subsName":"","lineName":"10kV西辛庄线556","pubTranName":"1小张庄内1,","scope":"【影响街道/乡镇】冉庄镇 【高危重要客户】无 【影响客户】小张庄","startTime":"2020-02-24 01:36:17","stopDate":"2020-02-24 03:00:00","orgNo":"1340618","typeCode":"电网故障停限电","poweroffArea":"【单台区停电】停1小张庄内1","poweroffReason":"【停电原因】由于低压杆被车撞断导致１１０ＫＶ罗侯变电站１０ＫＶ西辛庄线５５６线路１小张庄内１号公变台区停电 【变更送电】无 【发布渠道】通过９５５９８发布","powerTime":"2020-02-24 02:09:29","powerComm":"刘松通知已送电","subsNo":"","lineNo":"","tgNo":"","tgName":null,"infoStatus":"1","orgName":"国网清苑县供电公司","typeName":null,"infoStatusName":null,"dateDay":null,"orgNos":null,"nowTime":null,"countyName":null,"streetName":null,"villageName":null,"roadName":null,"communityName":null,"tranName":null,"sdLineName":null,"cityCode":"1340618","cityName":"国网清苑县供电公司","provinceCode":null,"stopTime":"2020-02-24 03:00:00","powerType":"全部","powerOffArea":"【单台区停电】停1小张庄内1","powerOffReason":"【停电原因】由于低压杆被车撞断导致１１０ＫＶ罗侯变电站１０ＫＶ西辛庄线５５６线路１小张庄内１号公变台区停电 【变更送电】无 【发布渠道】通过９５５９８发布","powerOffId":"2020022413000001"},{"poweroffId":2020022321000002,"sgpoweroffId":null,"subsName":"","lineName":"10kV七一路站533线路","pubTranName":"B1093柱上变压器,","scope":"【影响街道/乡镇】新市区廉良街、东三巷 【高危重要客户】无 【影响客户】薛刘营、新世纪小区、薛刘营新分村","startTime":"2020-02-23 13:00:00","stopDate":"2020-02-23 15:15:00","orgNo":"13406","typeCode":"电网故障停限电","poweroffArea":"【单台区停电】停B1093柱上变压器","poweroffReason":"【停电原因】由于杆下线烧导致１０ＫＶ七一变电站５３３线路Ｂ１０９３公变台区停电【变更送电】无【发布渠道】通过９５５９８发布","powerTime":"2020-02-23 14:45:45","powerComm":"已送电","subsNo":"","lineNo":"","tgNo":"","tgName":null,"infoStatus":"1","orgName":"保定供电公司","typeName":null,"infoStatusName":null,"dateDay":null,"orgNos":null,"nowTime":null,"countyName":null,"streetName":null,"villageName":null,"roadName":null,"communityName":null,"tranName":null,"sdLineName":null,"cityCode":"13406","cityName":"保定供电公司","provinceCode":null,"stopTime":"2020-02-23 15:15:00","powerType":"全部","powerOffArea":"【单台区停电】停B1093柱上变压器","powerOffReason":"【停电原因】由于杆下线烧导致１０ＫＶ七一变电站５３３线路Ｂ１０９３公变台区停电【变更送电】无【发布渠道】通过９５５９８发布","powerOffId":"2020022321000002"},{"poweroffId":2020022313000009,"sgpoweroffId":null,"subsName":"","lineName":"10kV528次曹线","pubTranName":"0000005100南次曹变压器,南次曹南区变压器,曲阳县晋屹沙石经销处,0000005049贾北庄变压器,北次曹农灌5变压器【纯农排变】,王北庄农灌1变压器【纯农排变】,曲阳县天福冷库变压器,0013587383王北庄村河里王家道南农井变压器,0012411776贾北庄西区变压器,方正砖厂,0000006983崔家庄农灌3#变压器【纯农排变】,李立栓冷库,李绩成冷库,李献周东方果品冷库,李成好冷库,寺南庄幼儿园变压器,贾北庄新增配变工程变压器,0000005067崔家庄西区变压器,北次曹新增农灌工程变压器,南次曹东2区变压器,刘建周冷库,0000005066崔家庄东区变压器,崔家庄农灌10变压器【纯农排变】,贾北庄小学2号变压器,0013681427北次曹村村东农井【纯农排变】,崔家庄农灌8变压器【纯农排变】,0469458523崔家庄农灌变压器【纯农排变】,0012608831贾北庄农灌1变压器【纯农排变】,0000006548崔家庄农灌2#变压器【纯农排变】,王北庄村西变压器,王北庄村东变压器,0013586876王北庄村二队梨园地农井变压器【纯农排变】,0000007021寺南庄西变压器,崔家庄东2区变压器,0013180889寺南庄北区变压器,张北庄2区变压器,寺南庄西区变压器,0013587381贾北庄村农井变压器,0013587375王北庄村王家道村边农井变压器【纯农排变】,贾北庄村东区变压器,0014316784寺南庄沙滩农灌1#变压器【纯农排变】,陈宗权,刘占才沙石经销处,北次曹西区变压器,0013585385南次曹村村东农井变压器【纯农排变】,崔家庄农灌,王北庄村内变压器,0000006349南次曹东区变压器,崔家庄农灌6变压器,0013585386王北庄村沙沟岸北道农井变压器【纯农排变】,南次曹小学变压器,0014316785贾北庄农灌3,0000006768崔家庄中区变压器,崔家庄农灌5分支变压器【纯农排变】,贾北庄小学变压器,0014317115寺南庄沙滩农灌变压器,0000006984崔家庄农灌1#变压器【纯农排变】,崔家庄西2区变压器,0013587880王北庄村王家道内滩农井变压器,崔家庄小学变压器,0000005048张北庄村变压器,0013689402王北庄村河里周家道南农井变压器【纯农排变】,曲阳县顺通农村土地整理有限公司变压器,0014317123寺南庄沙滩农灌2#变压器【纯农排变】,0013585380南次曹西沙地西农井变压器【纯农排变】,河北省曲阳县梨园纸厂,0013689403王北庄村沙沟北道农井变压器【纯农排变】,张国有冷库,葛旭亮,曲阳县寺南庄顺利果品冷库,0000005844寺南庄统管农灌【纯农排变】,0013584881王北庄村三队梨园地农井变压器【纯农排变】,崔家庄中2区变压器,北次曹农灌3#变压器【纯农排变】,0000005050北次曹变压器,0013584884北次曹村村北农井变压器,0013588875南次曹村坡子里变压器,君子冷库,老软冷库,寺南庄李振杰冷库,曲阳县佳汇农业开发有限公司变压器,寺南庄董勋子冷库,0013584885南次曹西沙地东农井变压器【","scope":"【影响街道/乡镇】产德乡【高危重要客户】无【影响客户】贾北庄、南次曹、崔家庄、寺南庄、王北庄、刘家村、北次曹、张北庄","startTime":"2020-02-23 08:50:00","stopDate":"2020-02-23 11:30:00","orgNo":"1340619","typeCode":"电网故障停限电","poweroffArea":"【全线路停电】停0000005100南次曹变压器,南次曹南区变压器,曲阳县晋屹沙石经销处,0000005049贾北庄变压器,北次曹农灌5变压器【纯农排变】,王北庄农灌1变压器【纯农排变】,曲阳县天福冷库变压器,0013587383王北庄村河里王家道南农井变压器,0012411776贾北庄西区变压器,方正砖厂,0000006983崔家庄农灌3#变压器【纯农排变】,李立栓冷库,李绩成冷库,李献周东方果品冷库,李成好冷库,寺南庄幼儿园变压器,贾北庄新增配变工程变压器,0000005067崔家庄西区变压器,北次曹新增农灌工程变压器,南次曹东2区变压器,刘建周冷库,0000005066崔家庄东区变压器,刘占才沙石经销处,北次曹西区变压器,0013585385南次曹村村东农井变压器【纯农排变】,崔家庄农灌,王北庄村内变压器,0000006349南次曹东区变压器,崔家庄农灌6变压器,0013585386王北庄村沙沟岸北道农井变压器【纯农排变】,南次曹小学变压器,0014316785贾北庄农灌3,0000006768崔家庄中区变压器,崔家庄农灌5分支变压器【纯农排变】,贾北庄小学变压器,0014317115寺南庄沙滩农灌变压器,0000006984崔家庄农灌1#变压器【纯农排变】,崔家庄西2区变压器,0013587880王北庄村王家道内滩农井变压器,崔家庄小学变压器,0000005048张北庄村变压器,0013689402王北庄村河里周家道南农井变压器【纯农排变】,曲阳县顺通农村土地整理有限公司变压器,崔家庄农灌10变压器【纯农排变】,贾北庄小学2号变压器,0013681427北次曹村村东农井【纯农排变】,崔家庄农灌8变压器【纯农排变】,0469458523崔家庄农灌变压器【纯农排变】,0012608831贾北庄农灌1变压器【纯农排变】,0000006548崔家庄农灌2#变压器【纯农排变】,王北庄村西变压器,王北庄村东变压器,0013586876王北庄村二队梨园地农井变压器【纯农排变】,0000007021寺南庄西变压器,崔家庄东2区变压器,0013180889寺南庄北区变压器,张北庄2区变压器,寺南庄西区变压器,0013587381贾北庄村农井变压器,0013587375王北庄村王家道村边农井变压器【纯农排变】,贾北庄村东区变压器,0014316784寺南庄沙滩农灌1#变压器【纯农排变】,陈宗权,0014317123寺南庄沙滩农灌2#变压器【纯农排变】,0013585380南次曹西沙地西农井变压器【纯农排变】,河北省曲阳县梨园纸厂,0013689403王北庄村沙沟北道农井变压器【纯农排变】,张国有冷库,葛旭亮,曲阳县寺南庄顺利果品冷库,0000005844寺南庄统管农灌【纯农排变】,0013584881王北庄村三队梨园地农井变压器【纯农排变】,崔家庄中2区变压器,北次曹农灌3#变压器【纯农排变】,0000005050北次曹变压器,0013584884北次曹村村北农井变压器,0013588875南次曹村坡子里变压器,君子冷库,老软冷库,寺南庄李振杰冷库,曲阳县佳汇农业开发有限公司变压器,寺南庄董勋子冷库,0013584885南次曹西沙地东农井变压器【纯农排变】,0013585875南次曹村坡子里农井变压器【纯农排变】,0000005457寺南庄变压器,崔家庄幼儿园变压器,寺南庄李玉乾冷库,崔家庄农灌7变压器【纯农排变】,0013586375王北庄村沙沟中道农井变压器,葛会哲冷库,0014316782刘家村沙滩农灌1变压器【纯农排变】,南次曹小学2号变压器,0013587876王北庄村王家道下河岸农井变压器,刘家村沙滩农灌2变压器【纯农排变】,0013587378王北庄村沙沟岸中道农井变压器【纯农排变】,六尔冷库,0000007218北次曹村内变压器,寺南庄冷库,陈锁朝冷库,崔家庄吉昌冷库,寺南庄张增勋冷库,长胜冷库,0013587380张北庄桥头农井变压器,0012609331贾北庄农灌2变压器【纯农排变】","poweroffReason":"【停电原因】由于线路Ｂ相接地导致１１０ＫＶ产德变电站１０ＫＶ５２８次曹线路全线停电【变更送电】无【发布渠道】通过９５５９８发布","powerTime":"2020-02-23 10:58:45","powerComm":"已送电","subsNo":"","lineNo":"","tgNo":"","tgName":null,"infoStatus":"1","orgName":"国网曲阳县供电公司","typeName":null,"infoStatusName":null,"dateDay":null,"orgNos":null,"nowTime":null,"countyName":null,"streetName":null,"villageName":null,"roadName":null,"communityName":null,"tranName":null,"sdLineName":null,"cityCode":"1340619","cityName":"国网曲阳县供电公司","provinceCode":null,"stopTime":"2020-02-23 11:30:00","powerType":"全部","powerOffArea":"【全线路停电】停0000005100南次曹变压器,南次曹南区变压器,曲阳县晋屹沙石经销处,0000005049贾北庄变压器,北次曹农灌5变压器【纯农排变】,王北庄农灌1变压器【纯农排变】,曲阳县天福冷库变压器,0013587383王北庄村河里王家道南农井变压器,0012411776贾北庄西区变压器,方正砖厂,0000006983崔家庄农灌3#变压器【纯农排变】,李立栓冷库,李绩成冷库,李献周东方果品冷库,李成好冷库,寺南庄幼儿园变压器,贾北庄新增配变工程变压器,0000005067崔家庄西区变压器,北次曹新增农灌工程变压器,南次曹东2区变压器,刘建周冷库,0000005066崔家庄东区变压器,刘占才沙石经销处,北次曹西区变压器,0013585385南次曹村村东农井变压器【纯农排变】,崔家庄农灌,王北庄村内变压器,0000006349南次曹东区变压器,崔家庄农灌6变压器,0013585386王北庄村沙沟岸北道农井变压器【纯农排变】,南次曹小学变压器,0014316785贾北庄农灌3,0000006768崔家庄中区变压器,崔家庄农灌5分支变压器【纯农排变】,贾北庄小学变压器,0014317115寺南庄沙滩农灌变压器,0000006984崔家庄农灌1#变压器【纯农排变】,崔家庄西2区变压器,0013587880王北庄村王家道内滩农井变压器,崔家庄小学变压器,0000005048张北庄村变压器,0013689402王北庄村河里周家道南农井变压器【纯农排变】,曲阳县顺通农村土地整理有限公司变压器,崔家庄农灌10变压器【纯农排变】,贾北庄小学2号变压器,0013681427北次曹村村东农井【纯农排变】,崔家庄农灌8变压器【纯农排变】,0469458523崔家庄农灌变压器【纯农排变】,0012608831贾北庄农灌1变压器【纯农排变】,0000006548崔家庄农灌2#变压器【纯农排变】,王北庄村西变压器,王北庄村东变压器,0013586876王北庄村二队梨园地农井变压器【纯农排变】,0000007021寺南庄西变压器,崔家庄东2区变压器,0013180889寺南庄北区变压器,张北庄2区变压器,寺南庄西区变压器,0013587381贾北庄村农井变压器,0013587375王北庄村王家道村边农井变压器【纯农排变】,贾北庄村东区变压器,0014316784寺南庄沙滩农灌1#变压器【纯农排变】,陈宗权,0014317123寺南庄沙滩农灌2#变压器【纯农排变】,0013585380南次曹西沙地西农井变压器【纯农排变】,河北省曲阳县梨园纸厂,0013689403王北庄村沙沟北道农井变压器【纯农排变】,张国有冷库,葛旭亮,曲阳县寺南庄顺利果品冷库,0000005844寺南庄统管农灌【纯农排变】,0013584881王北庄村三队梨园地农井变压器【纯农排变】,崔家庄中2区变压器,北次曹农灌3#变压器【纯农排变】,0000005050北次曹变压器,0013584884北次曹村村北农井变压器,0013588875南次曹村坡子里变压器,君子冷库,老软冷库,寺南庄李振杰冷库,曲阳县佳汇农业开发有限公司变压器,寺南庄董勋子冷库,0013584885南次曹西沙地东农井变压器【纯农排变】,0013585875南次曹村坡子里农井变压器【纯农排变】,0000005457寺南庄变压器,崔家庄幼儿园变压器,寺南庄李玉乾冷库,崔家庄农灌7变压器【纯农排变】,0013586375王北庄村沙沟中道农井变压器,葛会哲冷库,0014316782刘家村沙滩农灌1变压器【纯农排变】,南次曹小学2号变压器,0013587876王北庄村王家道下河岸农井变压器,刘家村沙滩农灌2变压器【纯农排变】,0013587378王北庄村沙沟岸中道农井变压器【纯农排变】,六尔冷库,0000007218北次曹村内变压器,寺南庄冷库,陈锁朝冷库,崔家庄吉昌冷库,寺南庄张增勋冷库,长胜冷库,0013587380张北庄桥头农井变压器,0012609331贾北庄农灌2变压器【纯农排变】","powerOffReason":"【停电原因】由于线路Ｂ相接地导致１１０ＫＶ产德变电站１０ＫＶ５２８次曹线路全线停电【变更送电】无【发布渠道】通过９５５９８发布","powerOffId":"2020022313000009"},{"poweroffId":2020022213000043,"sgpoweroffId":null,"subsName":"","lineName":"10kV512东城线","pubTranName":"北町村公用照明1台区,西城公用照明11台区,北町村公用照明3台区,西城公用照明9台区,西城村公用照明2台区,西城公用照明7台区,南疃村公用照明3台区,解家庄公用照明4台区,南疃公用照明8台区,解家庄公用照明3台区,东城公用照明5台区,南疃村公用照明2台区,东城村公用照明4台区,西城公用照明12台区,东城公用照明6台区,西城公用照明8台区,南疃公用照明7台区,东城公用照明8台区,南疃村公用照明5台区,东城村公用照明3台区,西城村公用照明5台区,北町村公用照明2台区,东城公用照明7台区,西城村公用照明3台区,北疃公用照明4台区,西城村公用照明4台区,东城村公用照明1台区,西城庄公用照明2台区,解家庄公用照明2台区,西城公用照明10台区,南疃公用照明6台区,西城村公用照明6台区,解家庄公用照明1台区,西城公用照明13台区,西城村公用照明1台区,东城村公用照明2台区,西城庄公用照明1台区,南疃村公用照明1台区,","scope":"【影响街道/乡镇】西城乡【高危重要客户】无【影响客户】南町、北町、东城、西城、西城庄、解家庄","startTime":"2020-02-22 22:05:21","stopDate":"2020-02-23 01:00:00","orgNo":"1340610","typeCode":"电网故障停限电","poweroffArea":"【全线路停电】停北町村公用照明3台区,北町村公用照明2台区,北疃公用照明4台区,北町村公用照明1台区,东城公用照明8台区,东城公用照明6台区,东城村公用照明2台区,东城村公用照明1台区,东城公用照明7台区,东城村公用照明3台区,东城村公用照明4台区,东城公用照明5台区,解家庄公用照明4台区,解家庄公用照明3台区,解家庄公用照明1台区,解家庄公用照明2台区,西城公用照明8台区,南疃公用照明8台区,南疃村公用照明4台区,南疃村公用照明3台区,南疃村公用照明1台区,南疃公用照明6台区,南疃村公用照明5台区,南疃公用照明7台区,南疃村公用照明2台区,西城村公用照明5台区,西城公用照明7台区,西城公用照明9台区,西城公用照明10台区,西城公用照明11台区,西城公用照明12台区,西城村公用照明6台区,西城村公用照明3台区,西城村公用照明1台区,西城村公用照明4台区,西城村公用照明2台区,西城公用照明13台区,西城庄公用照明2台区,西城庄公用照明1台区","poweroffReason":"【停电原因】由于线路开关掉闸导致１１０ＫＶ李亲顾变电站１０ＫＶ５１２东城线路全线停电 【变更送电】因抢修进度加快原因，送电时间由１２：００变更为０１：００ 【发布渠道】９５５９８","powerTime":"2020-02-23 00:36:30","powerComm":"已送电","subsNo":"","lineNo":"","tgNo":"","tgName":null,"infoStatus":"1","orgName":"国网定州市供电公司","typeName":null,"infoStatusName":null,"dateDay":null,"orgNos":null,"nowTime":null,"countyName":null,"streetName":null,"villageName":null,"roadName":null,"communityName":null,"tranName":null,"sdLineName":null,"cityCode":"1340610","cityName":"国网定州市供电公司","provinceCode":null,"stopTime":"2020-02-23 01:00:00","powerType":"全部","powerOffArea":"【全线路停电】停北町村公用照明3台区,北町村公用照明2台区,北疃公用照明4台区,北町村公用照明1台区,东城公用照明8台区,东城公用照明6台区,东城村公用照明2台区,东城村公用照明1台区,东城公用照明7台区,东城村公用照明3台区,东城村公用照明4台区,东城公用照明5台区,解家庄公用照明4台区,解家庄公用照明3台区,解家庄公用照明1台区,解家庄公用照明2台区,西城公用照明8台区,南疃公用照明8台区,南疃村公用照明4台区,南疃村公用照明3台区,南疃村公用照明1台区,南疃公用照明6台区,南疃村公用照明5台区,南疃公用照明7台区,南疃村公用照明2台区,西城村公用照明5台区,西城公用照明7台区,西城公用照明9台区,西城公用照明10台区,西城公用照明11台区,西城公用照明12台区,西城村公用照明6台区,西城村公用照明3台区,西城村公用照明1台区,西城村公用照明4台区,西城村公用照明2台区,西城公用照明13台区,西城庄公用照明2台区,西城庄公用照明1台区","powerOffReason":"【停电原因】由于线路开关掉闸导致１１０ＫＶ李亲顾变电站１０ＫＶ５１２东城线路全线停电 【变更送电】因抢修进度加快原因，送电时间由１２：００变更为０１：００ 【发布渠道】９５５９８","powerOffId":"2020022213000043"},{"poweroffId":2020022213000034,"sgpoweroffId":null,"subsName":"","lineName":"10kV571八兄线","pubTranName":"纸方头公用照明3台区,刘家庄公用照明一台区(012),纸坊头公用照明8台区,曹庄子公用照明5台区,纸方头公用照明2台区,曹庄子公用照明6台区,纸方头公用照明5台区,皮庄子公用照明一台区,纸方头公用照明4台区,曹庄子公用照明二台区(010):,曹庄子公用照明一台区(010):,曹庄子公用照明3台区,刘家庄公用照明3台区1,北陵头公用照明4台区,皮庄子公用照明2台区,兰家佐公用照明一台区(001),曹庄子公用照明4台区,纸房头公用照明6台区,北陵头公用照明3台区,纸方头公用照明1台区,纸方头公用照明9台区,兰家佐公用照明2台区,北陵头公用照明2台区,刘家庄公用照明2台区1,纸方头公用照明10台区,北陵头公用照明1台区占平,纸坊头公用照明7台区,北陵头公用照明5台区,","scope":"【影响街道/乡镇】南城区【高危重要客户】无【影响客户】皮家庄（皮庄子）、纸方头、曹庄子、北陵头、兰家佐、南刘家庄、韩家洼","startTime":"2020-02-23 01:00:00","stopDate":"2020-02-23 02:20:00","orgNo":"1340610","typeCode":"其他临时停电","poweroffArea":"【全线路停电】停皮庄子公用照明一台区,纸坊头公用照明8台区,刘家庄公用照明5台区1,曹庄子公用照明5台区,纸方头公用照明2台区,曹庄子公用照明6台区,纸方头公用照明5台区,纸方头公用照明4台区,曹庄子公用照明二台区(010):,曹庄子公用照明一台区(010):,曹庄子公用照明3台区,刘家庄公用照明3台区1,北陵头公用照明4台区,皮庄子公用照明2台区,纸房头公用照明6台区,北陵头公用照明3台区,纸方头公用照明1台区,北陵头公用照明6台区,纸方头公用照明9台区,北陵头公用照明2台区,刘家庄公用照明2台区1,纸方头公用照明10台区,北陵头公用照明1台区占平,兰家佐公用照明一台区(001),曹庄子公用照明4台区,兰家佐公用照明2台区,纸坊头公用照明7台区,刘家庄公用照明4台区1,北陵头公用照明5台区,纸方头公用照明3台区,刘家庄公用照明一台区(012)","poweroffReason":"【停电原因】由于电杆倾斜需停电进行紧急检修导致１１０ＫＶ明月店变电站１０ＫＶ５７１八兄线路全线停电 【变更送电】因抢修进度加快原因，送电时间由０４：００变更为０２：２０ 【发布渠道】９５５９８","powerTime":"2020-02-23 01:53:01","powerComm":"已送电","subsNo":"","lineNo":"","tgNo":"","tgName":null,"infoStatus":"1","orgName":"国网定州市供电公司","typeName":null,"infoStatusName":null,"dateDay":null,"orgNos":null,"nowTime":null,"countyName":null,"streetName":null,"villageName":null,"roadName":null,"communityName":null,"tranName":null,"sdLineName":null,"cityCode":"1340610","cityName":"国网定州市供电公司","provinceCode":null,"stopTime":"2020-02-23 02:20:00","powerType":"全部","powerOffArea":"【全线路停电】停皮庄子公用照明一台区,纸坊头公用照明8台区,刘家庄公用照明5台区1,曹庄子公用照明5台区,纸方头公用照明2台区,曹庄子公用照明6台区,纸方头公用照明5台区,纸方头公用照明4台区,曹庄子公用照明二台区(010):,曹庄子公用照明一台区(010):,曹庄子公用照明3台区,刘家庄公用照明3台区1,北陵头公用照明4台区,皮庄子公用照明2台区,纸房头公用照明6台区,北陵头公用照明3台区,纸方头公用照明1台区,北陵头公用照明6台区,纸方头公用照明9台区,北陵头公用照明2台区,刘家庄公用照明2台区1,纸方头公用照明10台区,北陵头公用照明1台区占平,兰家佐公用照明一台区(001),曹庄子公用照明4台区,兰家佐公用照明2台区,纸坊头公用照明7台区,刘家庄公用照明4台区1,北陵头公用照明5台区,纸方头公用照明3台区,刘家庄公用照明一台区(012)","powerOffReason":"【停电原因】由于电杆倾斜需停电进行紧急检修导致１１０ＫＶ明月店变电站１０ＫＶ５７１八兄线路全线停电 【变更送电】因抢修进度加快原因，送电时间由０４：００变更为０２：２０ 【发布渠道】９５５９８","powerOffId":"2020022213000034"},{"poweroffId":2020022213000001,"sgpoweroffId":null,"subsName":"","lineName":"10kV511王家庄线","pubTranName":"西宋庄村公用照明1台区,南木庄公用照明3台区,官家庄公用照明3台区,大瓦房村公用照明2台区,蔡家庄公用照明2台区,王家庄公用照明5台区一,大瓦房公用照明3台区,北木庄公用照明5台区,南木庄村公用照明1台区,大瓦房公用照明5台区,仁义村公用照明2台区,管家庄公用照明2台区,南木庄公用照明2台区,东宋庄村公用照明1台区,王家庄公用照明4台区一,东宋庄公用照明2台区,北王家庄社区公用照明1台区,王家庄村公用照明3台区,仁义村公用照明1台区,仝安庄公用照明2台区,王家庄村公用照明1台区一,小瓦房村公用照明1台区,北木庄公用照明4台区,仁义村公用照明3台区,王家庄村公用照明2台区,北王家庄社区公用照明3台区,仝安庄村公用照明1台区,北木庄村公用照明1台区,西宋庄公用照明2台区,王家庄公用照明7台区一,王家庄公用照明8台区一,王家庄公用照明6台区一,北王家庄社区公用照明2台区,大瓦房村公用照明1台区,北木庄村公用照明2台区,管家庄村公用照明1台区,北木庄公用照明3台区,大瓦房公用照明4台区,蔡家庄村公用照明1台区,","scope":"【影响街道/乡镇】留早镇【高危重要客户】无【影响客户】北木庄、仝安庄、管家庄、南木庄、东宋庄、西宋庄、蔡家庄、大瓦房、小瓦房、仁义村、北王家庄、留早北街村","startTime":"2020-02-22 00:51:34","stopDate":"2020-02-22 04:00:00","orgNo":"1340610","typeCode":"电网故障停限电","poweroffArea":"【全线路停电】停南木庄公用照明3台区,大瓦房公用照明5台区,官家庄公用照明3台区,大瓦房村公用照明2台区,蔡家庄公用照明2台区,大瓦房公用照明3台区,北木庄公用照明5台区,仁义村公用照明2台区,管家庄公用照明2台区,南木庄公用照明2台区,东宋庄村公用照明1台区,东宋庄公用照明2台区,北王家庄社区公用照明1台区,王家庄村公用照明1台区一,小瓦房村公用照明1台区,北木庄公用照明4台区,王家庄村公用照明2台区,西宋庄村公用照明1台区,北王家庄社区公用照明3台区,仝安庄村公用照明1台区,北木庄村公用照明1台区,王家庄公用照明7台区一,王家庄公用照明8台区一,北王家庄社区公用照明2台区,大瓦房村公用照明1台区,管家庄村公用照明1台区,北木庄公用照明3台区,蔡家庄村公用照明1台区,王家庄公用照明5台区一,南木庄村公用照明1台区,王家庄公用照明4台区一,王家庄村公用照明3台区,仁义村公用照明1台区,仝安庄公用照明2台区,仁义村公用照明3台区,西宋庄公用照明2台区,王家庄公用照明6台区一,北木庄村公用照明2台区,大瓦房公用照明4台区","poweroffReason":"【停电原因】由于线路开关掉闸导致３５ＫＶ留早变电站１０ＫＶ５１１王家庄线路全线停电 【变更送电】因抢修进度加快原因，送电时间由１２：００变更为０４：００ 【发布渠道】９５５９８","powerTime":"2020-02-22 03:43:08","powerComm":"已送电","subsNo":"","lineNo":"","tgNo":"","tgName":null,"infoStatus":"1","orgName":"国网定州市供电公司","typeName":null,"infoStatusName":null,"dateDay":null,"orgNos":null,"nowTime":null,"countyName":null,"streetName":null,"villageName":null,"roadName":null,"communityName":null,"tranName":null,"sdLineName":null,"cityCode":"1340610","cityName":"国网定州市供电公司","provinceCode":null,"stopTime":"2020-02-22 04:00:00","powerType":"全部","powerOffArea":"【全线路停电】停南木庄公用照明3台区,大瓦房公用照明5台区,官家庄公用照明3台区,大瓦房村公用照明2台区,蔡家庄公用照明2台区,大瓦房公用照明3台区,北木庄公用照明5台区,仁义村公用照明2台区,管家庄公用照明2台区,南木庄公用照明2台区,东宋庄村公用照明1台区,东宋庄公用照明2台区,北王家庄社区公用照明1台区,王家庄村公用照明1台区一,小瓦房村公用照明1台区,北木庄公用照明4台区,王家庄村公用照明2台区,西宋庄村公用照明1台区,北王家庄社区公用照明3台区,仝安庄村公用照明1台区,北木庄村公用照明1台区,王家庄公用照明7台区一,王家庄公用照明8台区一,北王家庄社区公用照明2台区,大瓦房村公用照明1台区,管家庄村公用照明1台区,北木庄公用照明3台区,蔡家庄村公用照明1台区,王家庄公用照明5台区一,南木庄村公用照明1台区,王家庄公用照明4台区一,王家庄村公用照明3台区,仁义村公用照明1台区,仝安庄公用照明2台区,仁义村公用照明3台区,西宋庄公用照明2台区,王家庄公用照明6台区一,北木庄村公用照明2台区,大瓦房公用照明4台区","powerOffReason":"【停电原因】由于线路开关掉闸导致３５ＫＶ留早变电站１０ＫＶ５１１王家庄线路全线停电 【变更送电】因抢修进度加快原因，送电时间由１２：００变更为０４：００ 【发布渠道】９５５９８","powerOffId":"2020022213000001"},{"poweroffId":2020022113000109,"sgpoweroffId":null,"subsName":"","lineName":"潘各庄线539","pubTranName":"1350潘各庄,","scope":"【影响街道/乡镇】刁窝乡 【高危重要客户】无 【影响客户】潘各庄","startTime":"2020-02-21 20:01:06","stopDate":"2020-02-21 23:30:00","orgNo":"1340626","typeCode":"电网故障停限电","poweroffArea":"【单台区停电】停1350潘各庄","poweroffReason":"【停电原因】由于低压空开烧毁导致１１０ＫＶ刁窝变电站潘各庄线５３９线路１３５０潘各庄公变台区停电 【变更送电】因抢修进度加快原因，送电时间由２２日０９：００变更为２１日２３：３０ 【发布渠道】通过９５５９８发布","powerTime":"2020-02-21 22:58:11","powerComm":"已送电","subsNo":"","lineNo":"","tgNo":"","tgName":null,"infoStatus":"1","orgName":"国网涿州市供电公司","typeName":null,"infoStatusName":null,"dateDay":null,"orgNos":null,"nowTime":null,"countyName":null,"streetName":null,"villageName":null,"roadName":null,"communityName":null,"tranName":null,"sdLineName":null,"cityCode":"1340626","cityName":"国网涿州市供电公司","provinceCode":null,"stopTime":"2020-02-21 23:30:00","powerType":"全部","powerOffArea":"【单台区停电】停1350潘各庄","powerOffReason":"【停电原因】由于低压空开烧毁导致１１０ＫＶ刁窝变电站潘各庄线５３９线路１３５０潘各庄公变台区停电 【变更送电】因抢修进度加快原因，送电时间由２２日０９：００变更为２１日２３：３０ 【发布渠道】通过９５５９８发布","powerOffId":"2020022113000109"},{"poweroffId":2020022113000061,"sgpoweroffId":null,"subsName":"","lineName":"10kV533供电局线","pubTranName":"（38）休干所公用照明台区中压出线间隔配电变压器,（57）回民街公用照明1台区中压出线间隔配电变压器,（41）刀枪街公用照明1台区,（172）回民街公用照明2台区,房产北公用照明2台区中压出线间隔配电变压器,（59）房产北公用照明台区中压出线间隔配电变压器,（144）清风南路公用照明台区中压出线间隔配电变压器,（111）柠檬酸公用照明台区中压出线间隔配电变压器,（58）回民街公用照明3台区中压出线间隔配电变压器,（146）刀枪街公用照明2台区,（37）政府公用照明台区,（173）房产南公用照明台区中压出线间隔配电变压器,回民街公用照明7台区,","scope":"【影响街道/乡镇】回民街、回民后街、刀枪街、清风中路、清风南路【高危重要客户】政府、市委【影响客户】移动公司、幸福３６５小区、银都花园、张寒辉广场、南城家属院、风味美食城、新华书店、师范、启明中学以南","startTime":"2020-02-22 00:30:00","stopDate":"2020-02-22 03:00:00","orgNo":"1340610","typeCode":"其他临时停电","poweroffArea":"【分支停电】停（38）休干所公用照明台区中压出线间隔配电变压器,房产北公用照明2台区中压出线间隔配电变压器,（59）房产北公用照明台区中压出线间隔配电变压器,（144）清风南路公用照明台区中压出线间隔配电变压器,（111）柠檬酸公用照明台区中压出线间隔配电变压器,（58）回民街公用照明3台区中压出线间隔配电变压器,（146）刀枪街公用照明2台区,（37）政府公用照明台区,（173）房产南公用照明台区中压出线间隔配电变压器,回民街公用照明7台区,（57）回民街公用照明1台区中压出线间隔配电变压器,（41）刀枪街公用照明1台区,（172）回民街公用照明2台区","poweroffReason":"【停电原因】由于电线打火需停电进行紧急检修导致１１０ＫＶ定县变电站１０ＫＶ５３３供电局线路主干０９号杆电缆分接箱０３号负荷开关以下线路停电 【变更送电】无 【发布渠道】９５５９８","powerTime":"2020-02-22 02:06:34","powerComm":"已送电","subsNo":"","lineNo":"","tgNo":"","tgName":null,"infoStatus":"1","orgName":"国网定州市供电公司","typeName":null,"infoStatusName":null,"dateDay":null,"orgNos":null,"nowTime":null,"countyName":null,"streetName":null,"villageName":null,"roadName":null,"communityName":null,"tranName":null,"sdLineName":null,"cityCode":"1340610","cityName":"国网定州市供电公司","provinceCode":null,"stopTime":"2020-02-22 03:00:00","powerType":"全部","powerOffArea":"【分支停电】停（38）休干所公用照明台区中压出线间隔配电变压器,房产北公用照明2台区中压出线间隔配电变压器,（59）房产北公用照明台区中压出线间隔配电变压器,（144）清风南路公用照明台区中压出线间隔配电变压器,（111）柠檬酸公用照明台区中压出线间隔配电变压器,（58）回民街公用照明3台区中压出线间隔配电变压器,（146）刀枪街公用照明2台区,（37）政府公用照明台区,（173）房产南公用照明台区中压出线间隔配电变压器,回民街公用照明7台区,（57）回民街公用照明1台区中压出线间隔配电变压器,（41）刀枪街公用照明1台区,（172）回民街公用照明2台区","powerOffReason":"【停电原因】由于电线打火需停电进行紧急检修导致１１０ＫＶ定县变电站１０ＫＶ５３３供电局线路主干０９号杆电缆分接箱０３号负荷开关以下线路停电 【变更送电】无 【发布渠道】９５５９８","powerOffId":"2020022113000061"},{"poweroffId":2020022113000029,"sgpoweroffId":null,"subsName":"","lineName":"10KV西龙泉线566","pubTranName":"东龙泉村北机井【纯农排变】,东龙泉东北台区变压器,士庄西台区,东营房南1台区,大赤土村北,北龙泉东台区,沿庄南台区【冬季供暖设施】,大赤土东台区,东龙泉东台区,大赤土小学台区变压器,东赤土村内,北龙泉北台区,东营房村内,大赤土村内,高庄村内,东龙泉学校变压器,大赤土西3台区,沿庄西台区,沿庄南井【纯农排变】,沿庄东南井3【纯农排变】,石亭保野路西2台区变压器,大赤土西井台区,东龙泉南2台区,大赤土东2台区,渐村村北二台区变压器,东营房南2台区,东营房村东【纯农排变】,东营房北台区,东龙泉北2台区,渐村村东二台区变压器,东营房北1台区,东龙泉南台区,东营房北2台区,士庄大棚菜【纯农排变】,东营房西井,北龙泉村内,大赤土西2台区,东营房南台区,东龙泉自来水,大赤土戏楼台区,士庄北台区,大赤土北2台区,土庄南台区,士庄东台区变压器,东龙泉西台区,东龙泉2号井,东龙泉北台区,","scope":"【影响街道/乡镇】石亭镇 【高危重要客户】无 【影响客户】士庄村、东龙泉村、北龙泉村、高庄村、大赤土村、沿庄村、东营房村、东赤土村","startTime":"2020-02-21 11:20:00","stopDate":"2020-02-21 13:00:00","orgNo":"1340614","typeCode":"电网故障停限电","poweroffArea":"【全线路停电】停大赤土村北,东龙泉北井【纯农排变】,北龙泉东台区,大赤土5、6队,沿庄南台区【冬季供暖设施】,大赤土东台区,东龙泉东台区,大赤土小学台区变压器,东赤土村内,士庄砖厂,大赤土西3台区,沿庄砖厂,沿庄西台区,沿庄南井【纯农排变】,0633976589-河北立宇超然房地产开发有限公司-专变-147935118-涞水县立宇超然房地产630KVA专变,0675447852-涞水县磊裕水泥制品加工厂-专变-216172279-磊裕水泥制品加工厂315KVA专变,大赤土南井1号【纯农排变】,沿庄东南井3【纯农排变】 ,中国电子科技集团公司电子科学研究院315KVA专变,石亭保野路西2台区变压器,大赤土西井台区,东龙泉南2台区,大赤土7、8队井【纯农排变】,士庄东井,东龙泉6号井【纯农排变】,大赤土东2台区,0674015397-北京建工集团有限责任公司-专变-215337230-北京建工集团有限责任公司800KVA专变,配变,大赤土官井台区【纯农排变】,东龙泉7号井【纯农排变】,北龙泉南井【纯农排变】,高庄村内,东龙泉学校变压器,渐村村北二台区变压器,士庄北井【纯农排变】,士庄西井【纯农排变】,旭垚石粉加工,大赤土北井【纯农排变】,东营房南2台区,大赤土自来水,东营房牌楼井【纯农排变】,东营房村东【纯农排变】,东营房北台区,东龙泉北2台区,渐村村东二台区变压器,东营房北1台区,东龙泉南台区,东营房北2台区,士庄大棚菜【纯农排变】,东营房西井,涞水新城收费站-专变-141355552-400KVA,北龙泉村内,0596087821-刘志俊-专变-126177416-刘志俊50KVA专变,大赤土西2台区,东营房南台区,0672297887-河北京创投资有限公司-专变-212389580-河北京创投资公司630KVA专变,水泉井,东龙泉1井,东龙泉自来水,大赤土戏楼台区,东营房北井【纯农排变】,涞水县旭??石灰粉加工有限公司250KVA专变,东赤土东北井【纯农排变】,士庄北台区,大赤土北2台区,东龙泉村北机井【纯农排变】,东龙泉东北台区变压器,士庄西台区,东营房南1台区,北龙泉北台区,东营房村内,大赤土村内,土庄南台区,大赤土东北井,东营房大白桥【纯农排变】,东龙泉4号井【纯农排变】,0674011496-北京建工集团有限责任公司-专变-215339310-北京建工集团有限责任公司1000KVA专变,士庄东台区变压器,源涞土材二厂,东龙泉西台区,东龙泉东井【纯农排变】,东赤土北井【纯农排变】,东龙泉2号井,东龙泉北台区","poweroffReason":"【停电原因】由于Ｂ相接地导致１１０ＫＶ石亭变电站１０ＫＶ西龙泉线５６６线路全线停电 【变更送电】因抢修进度加快原因，送电时间由１７：００变更为１３：００ 【发布渠道】通过９５５９８发布","powerTime":"2020-02-21 12:25:14","powerComm":"已送电","subsNo":"","lineNo":"","tgNo":"","tgName":null,"infoStatus":"1","orgName":"国网涞水县供电公司","typeName":null,"infoStatusName":null,"dateDay":null,"orgNos":null,"nowTime":null,"countyName":null,"streetName":null,"villageName":null,"roadName":null,"communityName":null,"tranName":null,"sdLineName":null,"cityCode":"1340614","cityName":"国网涞水县供电公司","provinceCode":null,"stopTime":"2020-02-21 13:00:00","powerType":"全部","powerOffArea":"【全线路停电】停大赤土村北,东龙泉北井【纯农排变】,北龙泉东台区,大赤土5、6队,沿庄南台区【冬季供暖设施】,大赤土东台区,东龙泉东台区,大赤土小学台区变压器,东赤土村内,士庄砖厂,大赤土西3台区,沿庄砖厂,沿庄西台区,沿庄南井【纯农排变】,0633976589-河北立宇超然房地产开发有限公司-专变-147935118-涞水县立宇超然房地产630KVA专变,0675447852-涞水县磊裕水泥制品加工厂-专变-216172279-磊裕水泥制品加工厂315KVA专变,大赤土南井1号【纯农排变】,沿庄东南井3【纯农排变】 ,中国电子科技集团公司电子科学研究院315KVA专变,石亭保野路西2台区变压器,大赤土西井台区,东龙泉南2台区,大赤土7、8队井【纯农排变】,士庄东井,东龙泉6号井【纯农排变】,大赤土东2台区,0674015397-北京建工集团有限责任公司-专变-215337230-北京建工集团有限责任公司800KVA专变,配变,大赤土官井台区【纯农排变】,东龙泉7号井【纯农排变】,北龙泉南井【纯农排变】,高庄村内,东龙泉学校变压器,渐村村北二台区变压器,士庄北井【纯农排变】,士庄西井【纯农排变】,旭垚石粉加工,大赤土北井【纯农排变】,东营房南2台区,大赤土自来水,东营房牌楼井【纯农排变】,东营房村东【纯农排变】,东营房北台区,东龙泉北2台区,渐村村东二台区变压器,东营房北1台区,东龙泉南台区,东营房北2台区,士庄大棚菜【纯农排变】,东营房西井,涞水新城收费站-专变-141355552-400KVA,北龙泉村内,0596087821-刘志俊-专变-126177416-刘志俊50KVA专变,大赤土西2台区,东营房南台区,0672297887-河北京创投资有限公司-专变-212389580-河北京创投资公司630KVA专变,水泉井,东龙泉1井,东龙泉自来水,大赤土戏楼台区,东营房北井【纯农排变】,涞水县旭??石灰粉加工有限公司250KVA专变,东赤土东北井【纯农排变】,士庄北台区,大赤土北2台区,东龙泉村北机井【纯农排变】,东龙泉东北台区变压器,士庄西台区,东营房南1台区,北龙泉北台区,东营房村内,大赤土村内,土庄南台区,大赤土东北井,东营房大白桥【纯农排变】,东龙泉4号井【纯农排变】,0674011496-北京建工集团有限责任公司-专变-215339310-北京建工集团有限责任公司1000KVA专变,士庄东台区变压器,源涞土材二厂,东龙泉西台区,东龙泉东井【纯农排变】,东赤土北井【纯农排变】,东龙泉2号井,东龙泉北台区","powerOffReason":"【停电原因】由于Ｂ相接地导致１１０ＫＶ石亭变电站１０ＫＶ西龙泉线５６６线路全线停电 【变更送电】因抢修进度加快原因，送电时间由１７：００变更为１３：００ 【发布渠道】通过９５５９８发布","powerOffId":"2020022113000029"}],"pageModel":{"pageNow":285,"totalCount":10973,"totalPage":1098,"tableRows":0,"pageCount":10,"beginCount":2840},"isExperi":"1"}