{"message":"","today":"2020-06-15","seleList":[{"poweroffId":2020022113000020,"sgpoweroffId":null,"subsName":"","lineName":"10kV仙人桥线541","pubTranName":"0602532725-清苑县文兴蔬菜花卉果树专业合作社-专变-126929395-清苑县文兴蔬菜花卉果蔬专业合作社,戎官营外12【纯农排变】,仙人桥外9【纯农排变】,平陵内3,仙人桥外16【纯农排变】,0387506111-清苑县平陵惠农奶牛养殖场-专变-121403122-平陵养牛厂,平陵内22,1平陵内28,平陵外6【纯农排变】,0387506078-西孙村合资鸡厂-专变-127232584-西孙村合资鸡厂,孙村幼儿园柱上变压器,0387505349-保定宏伟新型建筑材料有限公司-专变-48901130-保定宏伟新型建筑材料有限公司,仙人桥外8【纯农排变】,2平陵外15【纯农排变】,仙人桥外12号【纯农排变】,仙人桥外7号【纯农排变】,1平陵内31,平陵外10号【纯农排变】,0387505772-清苑县孙村乡砖机制修厂-专变-45325131-清苑县孙村乡砖机制修厂,仙人桥外6号【纯农排变】,戎官营外2号【纯农排变】,2南孙村外3【纯农排变】,2平陵外24【纯农排变】,南孙村外5【纯农排变】,戎官营外10【纯农排变】,2平陵外8【纯农排变】,平陵外5【纯农排变】,平陵1号,平陵外7【纯农排变】,保定市雄风工贸科技发展有限公司01,仙人桥小学柱上变压器,1仙人桥内18,清苑县红林建筑预制造构件厂,仙人桥外14号【纯农排变】,1南孙村内3,0387504968-西孙村蛋托厂-专变-45325139-西孙村蛋托厂,1平陵内26,0387505886-保定源鸿体育设施有限公司-专变-127991541-源宏体育设施公司,戎官营供电所,南孙村内1,西孙村1号,保定市雄风工贸科技发展有限公司,南孙村外4【纯农排变】,0387504997-平陵张峰种鸡厂-专变-45324859-平陵张峰种鸡厂,仙人桥外15号【纯农排变】,0387506368-中石化集团保定石油化工厂-专变-45324852-中石化集团保定石油化工厂,戎官营外11【纯农排变】,1南孙村内4,西孙内3,平陵外9【纯农排变】,1平陵内32,南孙村外6【纯农排变】,1仙人桥内17,仙人桥外5【纯农排变】,1平陵内37,1平陵内39,清苑县平陵惠农奶牛养殖场,仙人桥外4号【纯农排变】,|平陵水井,0387506339-仙人桥村西-专变-45325262-仙人桥村西,平陵外20【纯农排变】,2平陵外25【纯农排变】,0387504942-中国移动通信集团河北有限公司保定分公司-专变-45325265-中国移动通信集团清苑分公司,1平陵内38,1仙人桥内19,仙庭湖畔,1戎官营内15,清苑县沛丰农作物种植专业合作社,平陵小学柱上变压器,2平陵外12【纯农排变】,平陵2号,平陵外18【纯农排变】,南孙村外2【纯农排变】,1平陵内29,平陵内16,0387506384-西孙村村西-专变-45325089-西孙村村西,平陵外11【纯农排变】,南孙村内2,1平陵内30,1平陵内36,0387506108-戎官营李红彬苗圃-专变-45325084-戎官营李红彬苗圃,2平陵外23【纯农排变】,仙人桥棚户区01,平陵外13【纯农排变】,平陵外19【纯农排变】,仙人桥内2,仙人桥内3,1平","scope":"【影响街道/乡镇】石桥乡、孙村乡 【高危重要客户】无 【影响客户】平陵、仙人桥、南孙村、西孙村、戎官营、孙村乡政府","startTime":"2020-02-21 08:36:38","stopDate":"2020-02-21 10:30:00","orgNo":"1340618","typeCode":"电网故障停限电","poweroffArea":"【全线路停电】停西孙内3,平陵外9【纯农排变】,1平陵内32,南孙村外6【纯农排变】,1仙人桥内17,仙人桥外5【纯农排变】,1平陵内37,1平陵内39,1南孙村内4,清苑县平陵惠农奶牛养殖场,仙人桥外4号【纯农排变】,|平陵水井,0387506339-仙人桥村西-专变-45325262-仙人桥村西,平陵外20【纯农排变】,2平陵外25【纯农排变】,0387504942-中国移动通信集团河北有限公司保定分公司-专变-45325265-中国移动通信集团清苑分公司,1平陵内38,1仙人桥内19,仙庭湖畔,1戎官营内15,清苑县沛丰农作物种植专业合作社,2平陵外12【纯农排变】,0387504955-保定嘉尚房地产开发有限公司-专变-45325079-仙人桥砖厂,平陵2号,平陵外18【纯农排变】,南孙村外2【纯农排变】,1平陵内29,平陵内16,0387506384-西孙村村西-专变-45325089-西孙村村西,平陵外11【纯农排变】,南孙村内2,1平陵内30,1仙人桥内1,1平陵内36,0387506108-戎官营李红彬苗圃-专变-45325084-戎官营李红彬苗圃,2平陵外23【纯农排变】,仙人桥棚户区01,平陵外13【纯农排变】,平陵外19【纯农排变】,仙人桥内2,仙人桥内3,1平陵内33,1平陵内35,南孙村外1【纯农排变】,1平陵内27,保定市三鼎废旧物资回收有限公司,1平陵内34,1仙人桥内20,平陵内4号,2平陵外17【纯农排变】,戎官营外7【纯农排变】,1南孙村内5,0387505730-保定医用氧气厂-专变-45324849-保定医用氧气厂,仙人桥外13号【纯农排变】,0387505017-清苑县昌隆禽业有限公司-专变-45325152-清苑县昌隆禽业有限公司,戎官营外9【纯农排变】,保定市金诺制香有限公司,2戎官营外8【纯农排变】,保定宏睿石材有限公司,1西孙村内5,平陵外14【纯农排变】,平陵内21,西孙村内2,孙村乡政府,1西孙村内4,0677597533-仙庭湖畔-专变-219700973-仙庭湖畔,戎官营外12【纯农排变】,0602532725-清苑县文兴蔬菜花卉果树专业合作社-专变-126929395-清苑县文兴蔬菜花卉果蔬专业合作社,仙人桥外9【纯农排变】,平陵内3,仙人桥外16【纯农排变】,0387506111-清苑县平陵惠农奶牛养殖场-专变-121403122-平陵养牛厂,平陵内22,1平陵内28,平陵外6【纯农排变】,0387506078-西孙村合资鸡厂-专变-127232584-西孙村合资鸡厂,孙村幼儿园柱上变压器,0387505349-保定宏伟新型建筑材料有限公司-专变-48901130-保定宏伟新型建筑材料有限公司,仙人桥外8【纯农排变】,2平陵外15【纯农排变】,仙人桥外12号【纯农排变】,仙人桥外7号【纯农排变】,1平陵内31,平陵外10号【纯农排变】,0387505772-清苑县孙村乡砖机制修厂-专变-45325131-清苑县孙村乡砖机制修厂,仙人桥外6号【纯农排变】,戎官营外2号【纯农排变】,2南孙村外3【纯农排变】,2平陵外24【纯农排变】,南孙村外5【纯农排变】,戎官营外10【纯农排变】,2平陵外8【纯农排变】,平陵外5【纯农排变】,平陵1号,平陵外7【纯农排变】,保定市雄风工贸科技发展有限公司01,仙人桥小学柱上变压器,1仙人桥内18,清苑县红林建筑预制造构件厂,仙人桥外14号【纯农排变】,1南孙村内3,0387504968-西孙村蛋托厂-专变-45325139-西孙村蛋托厂,1平陵内26,0387505886-保定源鸿体育设施有限公司-专变-127991541-源宏体育设施公司,戎官营供电所,南孙村内1,西孙村1号,保定市雄风工贸科技发展有限公司,南孙村外4【纯农排变】,0387504997-平陵张峰种鸡厂-专变-45324859-平陵张峰种鸡厂,仙人桥外15号【纯农排变】,平陵小学柱上变压器,0387506368-中石化集团保定石油化工厂-专变-45324852-中石化集团保定石油化工厂,戎官营外11【纯农排变】","poweroffReason":"【停电原因】由于主干４８号杆北分支１２号杆电熔烧毁导致１０ＫＶ戎官营开关变电站１０ＫＶ仙人桥线５４１线路全线停电 【变更送电】因抢修进度加快原因，送电时间由１４：００变更为１０：３０ 【发布渠道】通过９５５９８发布","powerTime":"2020-02-21 09:52:07","powerComm":"任洪洲通知已送电","subsNo":"","lineNo":"","tgNo":"","tgName":null,"infoStatus":"1","orgName":"国网清苑县供电公司","typeName":null,"infoStatusName":null,"dateDay":null,"orgNos":null,"nowTime":null,"countyName":null,"streetName":null,"villageName":null,"roadName":null,"communityName":null,"tranName":null,"sdLineName":null,"cityCode":"1340618","cityName":"国网清苑县供电公司","provinceCode":null,"stopTime":"2020-02-21 10:30:00","powerType":"全部","powerOffArea":"【全线路停电】停西孙内3,平陵外9【纯农排变】,1平陵内32,南孙村外6【纯农排变】,1仙人桥内17,仙人桥外5【纯农排变】,1平陵内37,1平陵内39,1南孙村内4,清苑县平陵惠农奶牛养殖场,仙人桥外4号【纯农排变】,|平陵水井,0387506339-仙人桥村西-专变-45325262-仙人桥村西,平陵外20【纯农排变】,2平陵外25【纯农排变】,0387504942-中国移动通信集团河北有限公司保定分公司-专变-45325265-中国移动通信集团清苑分公司,1平陵内38,1仙人桥内19,仙庭湖畔,1戎官营内15,清苑县沛丰农作物种植专业合作社,2平陵外12【纯农排变】,0387504955-保定嘉尚房地产开发有限公司-专变-45325079-仙人桥砖厂,平陵2号,平陵外18【纯农排变】,南孙村外2【纯农排变】,1平陵内29,平陵内16,0387506384-西孙村村西-专变-45325089-西孙村村西,平陵外11【纯农排变】,南孙村内2,1平陵内30,1仙人桥内1,1平陵内36,0387506108-戎官营李红彬苗圃-专变-45325084-戎官营李红彬苗圃,2平陵外23【纯农排变】,仙人桥棚户区01,平陵外13【纯农排变】,平陵外19【纯农排变】,仙人桥内2,仙人桥内3,1平陵内33,1平陵内35,南孙村外1【纯农排变】,1平陵内27,保定市三鼎废旧物资回收有限公司,1平陵内34,1仙人桥内20,平陵内4号,2平陵外17【纯农排变】,戎官营外7【纯农排变】,1南孙村内5,0387505730-保定医用氧气厂-专变-45324849-保定医用氧气厂,仙人桥外13号【纯农排变】,0387505017-清苑县昌隆禽业有限公司-专变-45325152-清苑县昌隆禽业有限公司,戎官营外9【纯农排变】,保定市金诺制香有限公司,2戎官营外8【纯农排变】,保定宏睿石材有限公司,1西孙村内5,平陵外14【纯农排变】,平陵内21,西孙村内2,孙村乡政府,1西孙村内4,0677597533-仙庭湖畔-专变-219700973-仙庭湖畔,戎官营外12【纯农排变】,0602532725-清苑县文兴蔬菜花卉果树专业合作社-专变-126929395-清苑县文兴蔬菜花卉果蔬专业合作社,仙人桥外9【纯农排变】,平陵内3,仙人桥外16【纯农排变】,0387506111-清苑县平陵惠农奶牛养殖场-专变-121403122-平陵养牛厂,平陵内22,1平陵内28,平陵外6【纯农排变】,0387506078-西孙村合资鸡厂-专变-127232584-西孙村合资鸡厂,孙村幼儿园柱上变压器,0387505349-保定宏伟新型建筑材料有限公司-专变-48901130-保定宏伟新型建筑材料有限公司,仙人桥外8【纯农排变】,2平陵外15【纯农排变】,仙人桥外12号【纯农排变】,仙人桥外7号【纯农排变】,1平陵内31,平陵外10号【纯农排变】,0387505772-清苑县孙村乡砖机制修厂-专变-45325131-清苑县孙村乡砖机制修厂,仙人桥外6号【纯农排变】,戎官营外2号【纯农排变】,2南孙村外3【纯农排变】,2平陵外24【纯农排变】,南孙村外5【纯农排变】,戎官营外10【纯农排变】,2平陵外8【纯农排变】,平陵外5【纯农排变】,平陵1号,平陵外7【纯农排变】,保定市雄风工贸科技发展有限公司01,仙人桥小学柱上变压器,1仙人桥内18,清苑县红林建筑预制造构件厂,仙人桥外14号【纯农排变】,1南孙村内3,0387504968-西孙村蛋托厂-专变-45325139-西孙村蛋托厂,1平陵内26,0387505886-保定源鸿体育设施有限公司-专变-127991541-源宏体育设施公司,戎官营供电所,南孙村内1,西孙村1号,保定市雄风工贸科技发展有限公司,南孙村外4【纯农排变】,0387504997-平陵张峰种鸡厂-专变-45324859-平陵张峰种鸡厂,仙人桥外15号【纯农排变】,平陵小学柱上变压器,0387506368-中石化集团保定石油化工厂-专变-45324852-中石化集团保定石油化工厂,戎官营外11【纯农排变】","powerOffReason":"【停电原因】由于主干４８号杆北分支１２号杆电熔烧毁导致１０ＫＶ戎官营开关变电站１０ＫＶ仙人桥线５４１线路全线停电 【变更送电】因抢修进度加快原因，送电时间由１４：００变更为１０：３０ 【发布渠道】通过９５５９８发布","powerOffId":"2020022113000020"},{"poweroffId":2020022113000016,"sgpoweroffId":null,"subsName":"","lineName":"久安II线512","pubTranName":"小白陀混合配变,","scope":"【影响街道/乡镇】高岭乡 【高危重要客户】无　　 【影响客户】小白陀村","startTime":"2020-02-21 08:30:00","stopDate":"2020-02-21 11:00:00","orgNo":"1340623","typeCode":"其他临时停电","poweroffArea":"【全线路停电】停小白陀混合配变","poweroffReason":"【停电原因】由于久安ＩＩ线５１２线路０１１号杆Ｂ相线夹发热，需停电进行紧急消缺导致１１０ＫＶ望都变电站久安ＩＩ线５１２线路全线停电 【变更送电】无 【发布渠道】通过９５５９８发布","powerTime":"2020-02-21 10:47:48","powerComm":"已送电","subsNo":"","lineNo":"","tgNo":"","tgName":null,"infoStatus":"1","orgName":"国网望都县供电公司","typeName":null,"infoStatusName":null,"dateDay":null,"orgNos":null,"nowTime":null,"countyName":null,"streetName":null,"villageName":null,"roadName":null,"communityName":null,"tranName":null,"sdLineName":null,"cityCode":"1340623","cityName":"国网望都县供电公司","provinceCode":null,"stopTime":"2020-02-21 11:00:00","powerType":"全部","powerOffArea":"【全线路停电】停小白陀混合配变","powerOffReason":"【停电原因】由于久安ＩＩ线５１２线路０１１号杆Ｂ相线夹发热，需停电进行紧急消缺导致１１０ＫＶ望都变电站久安ＩＩ线５１２线路全线停电 【变更送电】无 【发布渠道】通过９５５９８发布","powerOffId":"2020022113000016"},{"poweroffId":2020022113000014,"sgpoweroffId":null,"subsName":"","lineName":"久安I线526","pubTranName":"小张家村混合配变,西白陀内北混配变,西白陀村东混配变,西白陀西混配变,小张家村南混,西白陀南混合配变,田庄路边混配变,","scope":"【影响街道/乡镇】中韩庄乡、高岭乡　 【高危重要客户】无　　 【影响客户】小张家村、西白陀村、田庄路边混","startTime":"2020-02-21 08:30:00","stopDate":"2020-02-21 11:00:00","orgNo":"1340623","typeCode":"其他临时停电","poweroffArea":"【全线路停电】停西白陀南混合配变,田庄路边混配变,小张家村混合配变,西白陀内北混配变,西白陀村东混配变,西白陀西混配变,小张家村南混","poweroffReason":"【停电原因】由于久安Ｉ线５２６线路０１１号杆Ｂ相线夹发热，需停电进行紧急消缺导致１１０ＫＶ望都变电站久安Ｉ线５２６线路全线停电 【变更送电】无 【发布渠道】通过９５５９８发布","powerTime":"2020-02-21 10:31:40","powerComm":"已送电","subsNo":"","lineNo":"","tgNo":"","tgName":null,"infoStatus":"1","orgName":"国网望都县供电公司","typeName":null,"infoStatusName":null,"dateDay":null,"orgNos":null,"nowTime":null,"countyName":null,"streetName":null,"villageName":null,"roadName":null,"communityName":null,"tranName":null,"sdLineName":null,"cityCode":"1340623","cityName":"国网望都县供电公司","provinceCode":null,"stopTime":"2020-02-21 11:00:00","powerType":"全部","powerOffArea":"【全线路停电】停西白陀南混合配变,田庄路边混配变,小张家村混合配变,西白陀内北混配变,西白陀村东混配变,西白陀西混配变,小张家村南混","powerOffReason":"【停电原因】由于久安Ｉ线５２６线路０１１号杆Ｂ相线夹发热，需停电进行紧急消缺导致１１０ＫＶ望都变电站久安Ｉ线５２６线路全线停电 【变更送电】无 【发布渠道】通过９５５９８发布","powerOffId":"2020022113000014"},{"poweroffId":2020022013000046,"sgpoweroffId":null,"subsName":"","lineName":"10KV南良沟560","pubTranName":"北良沟北2819,","scope":"【影响街道/乡镇】林屯乡 【高危重要客户】无 【影响客户】北良沟","startTime":"2020-02-20 11:01:48","stopDate":"2020-02-20 15:00:00","orgNo":"1340626","typeCode":"电网故障停限电","poweroffArea":"【单台区停电】停北良沟北2819","poweroffReason":"【停电原因】由于低压空开烧毁导致１１０ＫＶ松林店变电站１０ＫＶ南良沟５６０线路北良沟北２８１９公变台区停电 【变更送电】因抢修进度加快原因，送电时间由１７：００变更为１５：００ 【发布渠道】通过９５５９８发布","powerTime":"2020-02-20 14:36:11","powerComm":"恢复送电","subsNo":"","lineNo":"","tgNo":"","tgName":null,"infoStatus":"1","orgName":"国网涿州市供电公司","typeName":null,"infoStatusName":null,"dateDay":null,"orgNos":null,"nowTime":null,"countyName":null,"streetName":null,"villageName":null,"roadName":null,"communityName":null,"tranName":null,"sdLineName":null,"cityCode":"1340626","cityName":"国网涿州市供电公司","provinceCode":null,"stopTime":"2020-02-20 15:00:00","powerType":"全部","powerOffArea":"【单台区停电】停北良沟北2819","powerOffReason":"【停电原因】由于低压空开烧毁导致１１０ＫＶ松林店变电站１０ＫＶ南良沟５６０线路北良沟北２８１９公变台区停电 【变更送电】因抢修进度加快原因，送电时间由１７：００变更为１５：００ 【发布渠道】通过９５５９８发布","powerOffId":"2020022013000046"},{"poweroffId":2020022013000018,"sgpoweroffId":null,"subsName":"","lineName":"10kV514大柳树线","pubTranName":"荣营综合1台区变压器,荣营农排2台区变压器【纯农排变】,大柳树农排7台区变压器【纯农排变】,大柳树农排6台区变压器【纯农排变】,荣营综合7台区变压器,荣营农排3台区变压器【纯农排变】,大柳树综合5台区变压器,荣营综合3台区变压器,大柳树综合1台区变压器,大百尺农排18变压器【纯农排变】,大柳树综合2台区变压器,北界河综合1台区变压器,大柳树农排4台区变压器【纯农排变】,大百尺农排20变压器【纯农排变】,荣营综合8台区变压器,北界河综合5 变压器,高蠡公路2#路灯,荣营农排8台区变压器【纯农排变】,北界河综合6台区变压器,北界河综合7台区变压器,大百尺农排4台区变压器【纯农排变】,荣营农排七【纯农排变】,大百尺农排23台区变压器【纯农排变】,北界河农排8台区变压器【纯农排变】,荣营农排4台区变压器【纯农排变】,荣营农排5台区变压器【纯农排变】,北界河综合3台区变压器,大柳树综合4台区变压器,北界河综合2台区变压器,大柳树综合3台区变压器,大百尺综合11台区,荣营综合6台区变压器,荣营综合2台区变压器,荣营综合5台区变压器,北界河综合4台区变压器,荣营综合4台区变压器,大柳树农排5台区【纯农排变】,荣营农排9台区变压器【纯农排变】,大柳树农排1台区变压器【纯农排变】,大百尺农排3台区变压器【纯农排变】,大百尺农排19台区变压器【纯农排变】,大百尺农排2台区变压器【纯农排变】,高蠡公路3#路灯,","scope":"【影响街道/乡镇】大百尺镇【高危重要客户】无【影响客户】南许村、大柳树村、荣家营村（荣营）、大百尺村、北界河村、工业区","startTime":"2020-02-20 09:43:47","stopDate":"2020-02-20 16:00:00","orgNo":"1340616","typeCode":"电网故障停限电","poweroffArea":"【全线路停电】停北界河综合5 变压器,北界河综合6台区变压器,南许砖厂,荣营农排1变压器【纯农排变】,驾校,王平面粉厂,北界村村南浇地,荣营农排十【纯农排变】,蠡县盛强毛纺有限公司变压器,蠡县佳康皮毛皮革制品有限公司,荣营综合5台区变压器,大百尺农排19台区变压器【纯农排变】,东方洗毛厂,蠡县曙光羊毛洗涤制品厂变压器,荣营农排3台区变压器【纯农排变】,大柳树农排7台区变压器【纯农排变】,大百尺农排2台区变压器【纯农排变】,大柳树农排2台区变压器【纯农排变】,北界河综合2台区变压器,大百尺农排17变压器【纯农排变】,东方羊毛加工厂,高蠡公路2#路灯,荣营农排5台区变压器【纯农排变】,荣营综合8台区变压器,荣营农排6台区【纯农排变】,南许四片浇地,南许砖厂西浇地,荣营综合3台区变压器,大百尺农排23台区变压器【纯农排变】,北界河综合1台区变压器,大柳树综合3台区变压器,西面粉厂,加油站,大柳树综合5台区变压器,北界村边南浇地,变压器,大柳树毛纺厂,大百尺农排5台区变压器【纯农排变】,荣营农排2台区变压器【纯农排变】,荣营农排4台区变压器【纯农排变】,高蠡公路3#路灯,大柳树农排5台区【纯农排变】,荣营综合1台区变压器,荣营综合2台区变压器,蠡县瑞普华皮毛皮革有限公司变压器,荣营农排8台区变压器【纯农排变】,北界河综合7台区变压器,北界河农排8台区变压器【纯农排变】,大柳树综合2台区变压器,大柳树农排1台区变压器【纯农排变】,北界河综合4台区变压器,北界村边西浇地,大柳树农排3台区变压器【纯农排变】,北界村西浇地,荣营农排9台区变压器【纯农排变】,大柳树农排4台区变压器【纯农排变】,大百尺农排3台区变压器【纯农排变】,荣营农排七【纯农排变】,蠡县宇峰新型建材厂变压器,中国移动通信集团河北有限公司蠡县分公司,大柳树农排6台区变压器【纯农排变】,北界河综合3台区变压器,北界东南浇地,北界村东浇地,大柳树矿棉厂,加油站浇地,蠡县南许羊毛加工厂变压器315,南许南浇地,荣营综合7台区变压器,大百尺农排4台区变压器【纯农排变】,大柳树综合1台区变压器,南许中兴,大百尺农排18变压器【纯农排变】,蠡县南许羊毛加工厂变压器250,大百尺综合11台区,蠡县帅浩加油站,向阳,大柳树综合4台区变压器,荣营综合4台区变压器,荣营综合6台区变压器,大百尺农排20变压器【纯农排变】,大百尺农排1台区变压器【纯农排变】","poweroffReason":"【停电原因】由于站内开关烧毁导致３５ＫＶ百尺变电站１０ＫＶ大柳树５１４线路全线停电【变更送电】因抢修进度加快原因，送电时间由２３：５９变更为１６：００【发布渠道】通过９５５９８发布","powerTime":"2020-02-20 15:23:03","powerComm":"已送电","subsNo":"","lineNo":"","tgNo":"","tgName":null,"infoStatus":"1","orgName":"国网蠡县供电公司","typeName":null,"infoStatusName":null,"dateDay":null,"orgNos":null,"nowTime":null,"countyName":null,"streetName":null,"villageName":null,"roadName":null,"communityName":null,"tranName":null,"sdLineName":null,"cityCode":"1340616","cityName":"国网蠡县供电公司","provinceCode":null,"stopTime":"2020-02-20 16:00:00","powerType":"全部","powerOffArea":"【全线路停电】停北界河综合5 变压器,北界河综合6台区变压器,南许砖厂,荣营农排1变压器【纯农排变】,驾校,王平面粉厂,北界村村南浇地,荣营农排十【纯农排变】,蠡县盛强毛纺有限公司变压器,蠡县佳康皮毛皮革制品有限公司,荣营综合5台区变压器,大百尺农排19台区变压器【纯农排变】,东方洗毛厂,蠡县曙光羊毛洗涤制品厂变压器,荣营农排3台区变压器【纯农排变】,大柳树农排7台区变压器【纯农排变】,大百尺农排2台区变压器【纯农排变】,大柳树农排2台区变压器【纯农排变】,北界河综合2台区变压器,大百尺农排17变压器【纯农排变】,东方羊毛加工厂,高蠡公路2#路灯,荣营农排5台区变压器【纯农排变】,荣营综合8台区变压器,荣营农排6台区【纯农排变】,南许四片浇地,南许砖厂西浇地,荣营综合3台区变压器,大百尺农排23台区变压器【纯农排变】,北界河综合1台区变压器,大柳树综合3台区变压器,西面粉厂,加油站,大柳树综合5台区变压器,北界村边南浇地,变压器,大柳树毛纺厂,大百尺农排5台区变压器【纯农排变】,荣营农排2台区变压器【纯农排变】,荣营农排4台区变压器【纯农排变】,高蠡公路3#路灯,大柳树农排5台区【纯农排变】,荣营综合1台区变压器,荣营综合2台区变压器,蠡县瑞普华皮毛皮革有限公司变压器,荣营农排8台区变压器【纯农排变】,北界河综合7台区变压器,北界河农排8台区变压器【纯农排变】,大柳树综合2台区变压器,大柳树农排1台区变压器【纯农排变】,北界河综合4台区变压器,北界村边西浇地,大柳树农排3台区变压器【纯农排变】,北界村西浇地,荣营农排9台区变压器【纯农排变】,大柳树农排4台区变压器【纯农排变】,大百尺农排3台区变压器【纯农排变】,荣营农排七【纯农排变】,蠡县宇峰新型建材厂变压器,中国移动通信集团河北有限公司蠡县分公司,大柳树农排6台区变压器【纯农排变】,北界河综合3台区变压器,北界东南浇地,北界村东浇地,大柳树矿棉厂,加油站浇地,蠡县南许羊毛加工厂变压器315,南许南浇地,荣营综合7台区变压器,大百尺农排4台区变压器【纯农排变】,大柳树综合1台区变压器,南许中兴,大百尺农排18变压器【纯农排变】,蠡县南许羊毛加工厂变压器250,大百尺综合11台区,蠡县帅浩加油站,向阳,大柳树综合4台区变压器,荣营综合4台区变压器,荣营综合6台区变压器,大百尺农排20变压器【纯农排变】,大百尺农排1台区变压器【纯农排变】","powerOffReason":"【停电原因】由于站内开关烧毁导致３５ＫＶ百尺变电站１０ＫＶ大柳树５１４线路全线停电【变更送电】因抢修进度加快原因，送电时间由２３：５９变更为１６：００【发布渠道】通过９５５９８发布","powerOffId":"2020022013000018"},{"poweroffId":2020022013000006,"sgpoweroffId":null,"subsName":"","lineName":"10KV石屯574","pubTranName":"毛营村内A,","scope":"【影响街道/乡镇】豆庄乡 【高危重要客户】无 【影响客户】毛家营","startTime":"2020-02-20 07:38:00","stopDate":"2020-02-20 11:10:00","orgNo":"1340626","typeCode":"电网故障停限电","poweroffArea":"【单台区停电】停毛营村内A","poweroffReason":"【停电原因】由于低压空开烧毁导致２２０ＫＶ豆庄变电站１０ＫＶ石屯５７４线路毛营村内Ａ公变台区停电 【变更送电】因抢修进度加快原因，送电时间由１５：００变更为１１：１０ 【发布渠道】通过９５５９８发布","powerTime":"2020-02-20 10:50:15","powerComm":"恢复送电","subsNo":"","lineNo":"","tgNo":"","tgName":null,"infoStatus":"1","orgName":"国网涿州市供电公司","typeName":null,"infoStatusName":null,"dateDay":null,"orgNos":null,"nowTime":null,"countyName":null,"streetName":null,"villageName":null,"roadName":null,"communityName":null,"tranName":null,"sdLineName":null,"cityCode":"1340626","cityName":"国网涿州市供电公司","provinceCode":null,"stopTime":"2020-02-20 11:10:00","powerType":"全部","powerOffArea":"【单台区停电】停毛营村内A","powerOffReason":"【停电原因】由于低压空开烧毁导致２２０ＫＶ豆庄变电站１０ＫＶ石屯５７４线路毛营村内Ａ公变台区停电 【变更送电】因抢修进度加快原因，送电时间由１５：００变更为１１：１０ 【发布渠道】通过９５５９８发布","powerOffId":"2020022013000006"},{"poweroffId":2020021921000023,"sgpoweroffId":null,"subsName":"","lineName":"10kV崔闸站551线路","pubTranName":"10kVY0444.Y0445配电室Y0445配电变压器,10kVY0444.Y0445配电室Y0444配电变压器,10kVY0446.Y0447配电室Y0446配电变压器,10kVY0446.Y0447配电室Y0447配电变压器,","scope":"【影响街道/乡镇】竞秀区七一西路 【高危重要客户】无 【影响客户】阳光水岸、郝庄","startTime":"2020-02-20 00:30:00","stopDate":"2020-02-20 03:30:00","orgNo":"13406","typeCode":"其他临时停电","poweroffArea":"【全线路停电】停0356187514-消防大队二支队-专变,0701453378-保定伍建房地产开发有限责任公司-变压器04,10kVY0444.Y0445配电室Y0445配电变压器,10kVY0444.Y0445配电室Y0444配电变压器,变0701453378-保定伍建房地产开发有限责任公司-变压器05,0701453378-保定伍建房地产开发有限责任公司-变压器06,10kVY0446.Y0447配电室Y0446配电变压器,0703743248-保定市竞秀区颉庄乡郝庄村村民委员会-400KVA变压器,10kVY0446.Y0447配电室Y0447配电变压器","poweroffReason":"【停电原因】由于紧急消缺导致１０ＫＶ崔闸变电站５５１线路全线停电【变更送电】无【发布渠道】通过９５５９８发布","powerTime":"2020-02-20 02:56:22","powerComm":"已送电","subsNo":"","lineNo":"","tgNo":"","tgName":null,"infoStatus":"1","orgName":"保定供电公司","typeName":null,"infoStatusName":null,"dateDay":null,"orgNos":null,"nowTime":null,"countyName":null,"streetName":null,"villageName":null,"roadName":null,"communityName":null,"tranName":null,"sdLineName":null,"cityCode":"13406","cityName":"保定供电公司","provinceCode":null,"stopTime":"2020-02-20 03:30:00","powerType":"全部","powerOffArea":"【全线路停电】停0356187514-消防大队二支队-专变,0701453378-保定伍建房地产开发有限责任公司-变压器04,10kVY0444.Y0445配电室Y0445配电变压器,10kVY0444.Y0445配电室Y0444配电变压器,变0701453378-保定伍建房地产开发有限责任公司-变压器05,0701453378-保定伍建房地产开发有限责任公司-变压器06,10kVY0446.Y0447配电室Y0446配电变压器,0703743248-保定市竞秀区颉庄乡郝庄村村民委员会-400KVA变压器,10kVY0446.Y0447配电室Y0447配电变压器","powerOffReason":"【停电原因】由于紧急消缺导致１０ＫＶ崔闸变电站５５１线路全线停电【变更送电】无【发布渠道】通过９５５９８发布","powerOffId":"2020021921000023"},{"poweroffId":2020021913000068,"sgpoweroffId":null,"subsName":"","lineName":"10kV北环线514","pubTranName":"涞水县公安消防大队100KVA专变,筑建局100KVA专变,北环公用变压器,佳禾房地产1250KVA专变,北关村中台区,涞水县红木艺馆家具店400KVA专变,求成中学专变,北关小学台区,城内管厂变压器,求成中学,93567部队2,东租村内|0012,求成中学东公用,北环路灯(北环公用处),第二中学100KVA专变,涞水县佳禾房地产开发有限公司,涞水慧时欣园小区315,北关4台区,东租村内2,河北尚霖文化产业园投资有限公司630KVA专变,涞水兴阳房地产开发有限公司630KVA1#,涞水县深水蓝宾馆315KVA专变,西租村东,北关机井变压器,93567部队配变,北关北区变压器,东租南台区,中国人民解放军93567部队630KVA,涞水慧时欣园小区250,保野路口公用变压器,0665883127-涞水县佳禾房地产开发有限公司-专变-204338327-涞水县佳禾房地产开发有限公司1250KVA专变,北关东井,0624171937-涞水县住房和城乡建设局-专变-133095069-住建局100KVA专变,东租南井变压器,二中100KVA专变,二中西侧公用变压器,涞水兴阳房地产开发有限公司630KVA01#,保野路口西公用变压器,冲之北院变压器,涞水县金瓯建筑有限公司400KVA专变,","scope":"【影响街道/乡镇】涞水镇 【高危重要客户】无 【影响客户】城内村、管厂、北关村、东租村、东租村内机井、自来水公司、西租村、求成路附近、北环路、嘉兴园小区、慧时欣园小区、二中、93567部队、求城中学","startTime":"2020-02-20 02:30:00","stopDate":"2020-02-20 05:00:00","orgNo":"1340614","typeCode":"其他临时停电","poweroffArea":"【全线路停电】停涞水县公安消防大队100KVA专变,筑建局100KVA专变,北环公用变压器,佳禾房地产1250KVA专变,北关村中台区,涞水县红木艺馆家具店400KVA专变,求成中学专变,北关小学台区,城内管厂变压器,求成中学,93567部队2,东租村内|0012,求成中学东公用,北环路灯(北环公用处),第二中学100KVA专变,涞水县佳禾房地产开发有限公司,涞水慧时欣园小区315,北关4台区,东租村内2,河北尚霖文化产业园投资有限公司630KVA专变,东租南台区,涞水兴阳房地产开发有限公司630KVA1#,涞水县深水蓝宾馆315KVA专变,西租村东,北关机井变压器,93567部队配变,北关北区变压器,中国人民解放军93567部队630KVA,涞水慧时欣园小区250,保野路口公用变压器,0665883127-涞水县佳禾房地产开发有限公司-专变-204338327-涞水县佳禾房地产开发有限公司1250KVA专变,北关东井,0624171937-涞水县住房和城乡建设局-专变-133095069-住建局100KVA专变,东租南井变压器,二中100KVA专变,二中西侧公用变压器,涞水兴阳房地产开发有限公司630KVA01#,保野路口西公用变压器,冲之北院变压器,涞水县金瓯建筑有限公司400KVA专变","poweroffReason":"【停电原因】由于设备线夹过热，需停电进行紧急消缺导致１１０ＫＶ涞水变电站１０ＫＶ北环５１４线路全线停电 【变更送电】无 【发布渠道】通过９５５９８发布","powerTime":"2020-02-20 04:06:04","powerComm":"已送电","subsNo":"","lineNo":"","tgNo":"","tgName":null,"infoStatus":"1","orgName":"国网涞水县供电公司","typeName":null,"infoStatusName":null,"dateDay":null,"orgNos":null,"nowTime":null,"countyName":null,"streetName":null,"villageName":null,"roadName":null,"communityName":null,"tranName":null,"sdLineName":null,"cityCode":"1340614","cityName":"国网涞水县供电公司","provinceCode":null,"stopTime":"2020-02-20 05:00:00","powerType":"全部","powerOffArea":"【全线路停电】停涞水县公安消防大队100KVA专变,筑建局100KVA专变,北环公用变压器,佳禾房地产1250KVA专变,北关村中台区,涞水县红木艺馆家具店400KVA专变,求成中学专变,北关小学台区,城内管厂变压器,求成中学,93567部队2,东租村内|0012,求成中学东公用,北环路灯(北环公用处),第二中学100KVA专变,涞水县佳禾房地产开发有限公司,涞水慧时欣园小区315,北关4台区,东租村内2,河北尚霖文化产业园投资有限公司630KVA专变,东租南台区,涞水兴阳房地产开发有限公司630KVA1#,涞水县深水蓝宾馆315KVA专变,西租村东,北关机井变压器,93567部队配变,北关北区变压器,中国人民解放军93567部队630KVA,涞水慧时欣园小区250,保野路口公用变压器,0665883127-涞水县佳禾房地产开发有限公司-专变-204338327-涞水县佳禾房地产开发有限公司1250KVA专变,北关东井,0624171937-涞水县住房和城乡建设局-专变-133095069-住建局100KVA专变,东租南井变压器,二中100KVA专变,二中西侧公用变压器,涞水兴阳房地产开发有限公司630KVA01#,保野路口西公用变压器,冲之北院变压器,涞水县金瓯建筑有限公司400KVA专变","powerOffReason":"【停电原因】由于设备线夹过热，需停电进行紧急消缺导致１１０ＫＶ涞水变电站１０ＫＶ北环５１４线路全线停电 【变更送电】无 【发布渠道】通过９５５９８发布","powerOffId":"2020021913000068"},{"poweroffId":2020021913000043,"sgpoweroffId":null,"subsName":"","lineName":"10kV南郊站514线路","pubTranName":"C278柱上变压器,C439柱上变压器,B400柱上变压器,C282柱上变压器,C286柱上变压器,C440柱上变压器,B399柱上变压器,C652柱上变压器,C284柱上变压器,C277柱上变压器,C285柱上变压器,C283柱上变压器,C651柱上变压器,B397柱上变压器,C438柱上变压器,C281柱上变压器,B396柱上变压器,C636柱上变压器,C280柱上变压器,C279柱上变压器,","scope":"【影响街道/乡镇】满城区于家庄乡 【高危重要客户】无 【影响客户】郭村","startTime":"2020-02-19 12:20:00","stopDate":"2020-02-19 13:50:00","orgNo":"13406","typeCode":"电网故障停限电","poweroffArea":"【全线路停电】停C284柱上变压器,0356179968-满城郭村-专变-13402241-24000873,C278柱上变压器,B399柱上变压器,0356179968-满城郭村-专变-13402240-24000869,0356179968-满城郭村-专变-13402243-24000885,0356179968-满城郭村-专变-13402242-24000879,0356179968-满城郭村-专变-13402245-24000894,0356179968-满城郭村-专变-13402244-24000891,0356179968-满城郭村-专变-13402235-24000839,0356179968-满城郭村-专变-13402236-24000845,0356179968-满城郭村-专变-13402237-24000851,0356179968-满城郭村-专变-13402238-24000857,0356179968-满城郭村-专变-13402239-24000863,C277柱上变压器,C285柱上变压器,0356179968-满城郭村-专变-13401092-24000867,C283柱上变压器,0356179968-满城郭村-专变-13401093-24000871,0356179968-满城郭村-专变-13401090-24000859,0356179968-满城郭村-专变-13401091-24000861,C651柱上变压器,0356179968-满城郭村-专变-13401096-24000883,0356179968-满城郭村-专变-13401097-24000888,0356179968-满城郭村-专变-13401094-24000875,0356179968-满城郭村-专变-13401095-24000877,B397柱上变压器,0356179968-满城郭村-专变-13401098-24000890,C438柱上变压器,0356179968-满城郭村-专变-13401099-24000892,0356179968-满城郭村-专变-13401103-24000898,0356179968-满城郭村-专变-13402248-24000902,0356179968-满城郭村-专变-13401102-24000896,0356179968-满城郭村-专变-13401105-24000901,0356179968-满城郭村-专变-13402246-24000897,0356179968-满城郭村-专变-13401104-24000906,0356179968-满城郭村-专变-13402247-24000899,0356179968-满城郭村-专变-13401106-24000904,0356179968-满城郭村-专变-13401088-24000853,0356179968-满城郭村-专变-13401087-24000847,0356179968-满城郭村-专变-13401089-24000855,0356179968-满城郭村-专变-13401084-24000837,0356179968-满城郭村-专变-13401083-24000833,0356179968-满城郭村-专变-13401086-24000843,0356179968-满城郭村-专变-13401085-24000841,0356179968-满城郭村-专变-13401100-24000893,0356179968-满城郭村-专变-13401101-24000895,C281柱上变压器,0356179968-满城郭村-专变-13401082-24000832,0356179968-满城郭村-专变-13401081-24000830,0356190240-66051部队-专变-13402119-20018049,B396柱上变压器,C440柱上变压器,0356179968-满城郭村-专变-13402422-24000903,0356179968-满城郭村-专变-13402423-24000905,C652柱上变压器,C636柱上变压器,C280柱上变压器,C279柱上变压器,0356179968-满城郭村-专变-13402234-24000835,0356179968-满城郭村-专变-13402233-24000831,0356179968-满城郭村-专变-13402891-24000865,0356179968-满城郭村-专变-13402421-24000881,0356179968-满城郭村-专变-13402420-24000849,C439柱上变压器,B400柱上变压器,C282柱上变压器,C286柱上变压器,0356586308-郭村台区表(C287)-专变-13398846-20018632","poweroffReason":"【停电原因】由于线路接地导致１０ＫＶ南郊变电站５１４线路全线停电【变更送电】因抢修进度加快，原定１６：００送电现计划１３：５０送电【发布渠道】通过９５５９８发布","powerTime":"2020-02-19 13:39:28","powerComm":"已送电","subsNo":"","lineNo":"","tgNo":"","tgName":null,"infoStatus":"1","orgName":"保定供电公司","typeName":null,"infoStatusName":null,"dateDay":null,"orgNos":null,"nowTime":null,"countyName":null,"streetName":null,"villageName":null,"roadName":null,"communityName":null,"tranName":null,"sdLineName":null,"cityCode":"13406","cityName":"保定供电公司","provinceCode":null,"stopTime":"2020-02-19 13:50:00","powerType":"全部","powerOffArea":"【全线路停电】停C284柱上变压器,0356179968-满城郭村-专变-13402241-24000873,C278柱上变压器,B399柱上变压器,0356179968-满城郭村-专变-13402240-24000869,0356179968-满城郭村-专变-13402243-24000885,0356179968-满城郭村-专变-13402242-24000879,0356179968-满城郭村-专变-13402245-24000894,0356179968-满城郭村-专变-13402244-24000891,0356179968-满城郭村-专变-13402235-24000839,0356179968-满城郭村-专变-13402236-24000845,0356179968-满城郭村-专变-13402237-24000851,0356179968-满城郭村-专变-13402238-24000857,0356179968-满城郭村-专变-13402239-24000863,C277柱上变压器,C285柱上变压器,0356179968-满城郭村-专变-13401092-24000867,C283柱上变压器,0356179968-满城郭村-专变-13401093-24000871,0356179968-满城郭村-专变-13401090-24000859,0356179968-满城郭村-专变-13401091-24000861,C651柱上变压器,0356179968-满城郭村-专变-13401096-24000883,0356179968-满城郭村-专变-13401097-24000888,0356179968-满城郭村-专变-13401094-24000875,0356179968-满城郭村-专变-13401095-24000877,B397柱上变压器,0356179968-满城郭村-专变-13401098-24000890,C438柱上变压器,0356179968-满城郭村-专变-13401099-24000892,0356179968-满城郭村-专变-13401103-24000898,0356179968-满城郭村-专变-13402248-24000902,0356179968-满城郭村-专变-13401102-24000896,0356179968-满城郭村-专变-13401105-24000901,0356179968-满城郭村-专变-13402246-24000897,0356179968-满城郭村-专变-13401104-24000906,0356179968-满城郭村-专变-13402247-24000899,0356179968-满城郭村-专变-13401106-24000904,0356179968-满城郭村-专变-13401088-24000853,0356179968-满城郭村-专变-13401087-24000847,0356179968-满城郭村-专变-13401089-24000855,0356179968-满城郭村-专变-13401084-24000837,0356179968-满城郭村-专变-13401083-24000833,0356179968-满城郭村-专变-13401086-24000843,0356179968-满城郭村-专变-13401085-24000841,0356179968-满城郭村-专变-13401100-24000893,0356179968-满城郭村-专变-13401101-24000895,C281柱上变压器,0356179968-满城郭村-专变-13401082-24000832,0356179968-满城郭村-专变-13401081-24000830,0356190240-66051部队-专变-13402119-20018049,B396柱上变压器,C440柱上变压器,0356179968-满城郭村-专变-13402422-24000903,0356179968-满城郭村-专变-13402423-24000905,C652柱上变压器,C636柱上变压器,C280柱上变压器,C279柱上变压器,0356179968-满城郭村-专变-13402234-24000835,0356179968-满城郭村-专变-13402233-24000831,0356179968-满城郭村-专变-13402891-24000865,0356179968-满城郭村-专变-13402421-24000881,0356179968-满城郭村-专变-13402420-24000849,C439柱上变压器,B400柱上变压器,C282柱上变压器,C286柱上变压器,0356586308-郭村台区表(C287)-专变-13398846-20018632","powerOffReason":"【停电原因】由于线路接地导致１０ＫＶ南郊变电站５１４线路全线停电【变更送电】因抢修进度加快，原定１６：００送电现计划１３：５０送电【发布渠道】通过９５５９８发布","powerOffId":"2020021913000043"},{"poweroffId":2020021913000033,"sgpoweroffId":null,"subsName":"","lineName":"10kV封庄线537","pubTranName":"1羊庄内2,","scope":"【影响街道/乡镇】冉庄乡 【高危重要客户】无 【影响客户】羊庄","startTime":"2020-02-19 11:45:34","stopDate":"2020-02-19 14:30:00","orgNo":"1340618","typeCode":"电网故障停限电","poweroffArea":"【单台区停电】停1羊庄内2","poweroffReason":"【停电原因】由于低压线断导致２２０ＫＶ邓村变电站１０ＫＶ封庄线５３７线路１羊庄内２号公变台区停电 【变更送电】因抢修进度加快原因，送电时间由１８：００变更为１４：３０ 【发布渠道】通过９５５９８发布","powerTime":"2020-02-19 14:01:31","powerComm":"王朝晖通知已送电","subsNo":"","lineNo":"","tgNo":"","tgName":null,"infoStatus":"1","orgName":"国网清苑县供电公司","typeName":null,"infoStatusName":null,"dateDay":null,"orgNos":null,"nowTime":null,"countyName":null,"streetName":null,"villageName":null,"roadName":null,"communityName":null,"tranName":null,"sdLineName":null,"cityCode":"1340618","cityName":"国网清苑县供电公司","provinceCode":null,"stopTime":"2020-02-19 14:30:00","powerType":"全部","powerOffArea":"【单台区停电】停1羊庄内2","powerOffReason":"【停电原因】由于低压线断导致２２０ＫＶ邓村变电站１０ＫＶ封庄线５３７线路１羊庄内２号公变台区停电 【变更送电】因抢修进度加快原因，送电时间由１８：００变更为１４：３０ 【发布渠道】通过９５５９８发布","powerOffId":"2020021913000033"}],"pageModel":{"pageNow":286,"totalCount":10973,"totalPage":1098,"tableRows":0,"pageCount":10,"beginCount":2850},"isExperi":"1"}