{"message":"","today":"2020-06-15","seleList":[{"poweroffId":2020021413000258,"sgpoweroffId":null,"subsName":"","lineName":"10kV东黄线512","pubTranName":"南黄西台变压器,丰盛庄西变压器,王场东南1变压器,王场北3变压器,南黄南变压器,王场南变压器,魏庄北变压器,王场6号变台,南黄村变压器,王场东南2变压器,东黄南2变压器,南黄东台区,丰盛庄南2变压器,乔古寺东1变压器,乔古寺东2变压器,南黄南2变压器,丰盛庄南三,","scope":"【影响街道/乡镇】泗庄镇、白沟镇 【高危重要客户】无 【影响客户】南黄村、东黄村（部分）、魏庄村、乔古寺村、王场村、丰盛庄村、高碑店市泗庄东黄小学、保定白沟新城王场学校、保定海山雨鞋制造有限公司、高碑店市博荣拉链有限公司、高碑店市同兴畜牧有限公司(王家场)、张爽、利达橡塑制品厂、诚信拉杆厂、东黄丰华人造革厂、京华人造革厂、天和橡塑制品厂、魏庄砖厂、高碑店市华宝塑料制品有限责任公司、高碑店市公安局交通管理大队、社办厂、高碑店市欣荣海绵纸厂、保定博德广信皮革制品有限公司、宏丰人造革厂、三福饭店、高碑店市邓庄春晖面粉厂、新华油质化工厂、张艺萌、高碑店市鑫益隆塑胶有限公司","startTime":"2020-02-14 12:44:12","stopDate":"2020-02-14 18:30:00","orgNo":"1340612","typeCode":"电网故障停限电","poweroffArea":"【全线路停电】停丰盛庄西变压器,丰盛庄南变压器,东黄西南变压器,丰盛庄北变压器,王场东变压器,高碑店市欣荣海绵纸厂,高碑店市泗庄迪航硕鞋厂,南黄东台区,保定森泽汽车销售有限公司,丰盛庄南三,平占杰,高碑店市博荣拉链有限公司,丰盛庄西南地变压器【纯农排变】,王场6号变台,油厂东,王场东南1变压器,春晖面粉厂,乔古寺东变压器,王场西北变压器,东黄南2变压器,魏庄西地变压器,东黄地变压器【纯农排变】,南黄南变压器,魏庄村变压器,南黄村东地【纯农排变】,保定白沟新城王场学校,王场东南台变压器,丰盛庄西2变压器,高碑店市鑫益隆塑料有限公司变压器,高碑店市同兴畜牧有限公司（王家场）变压器,南黄西地变压器【纯农排变】,王场南变压器,陶文祥革厂3,王场南地变压器【纯农排变】,魏庄北变压器,魏庄西南地变压器【纯农排变】,王场北变压器,王场东地变压器【纯农排变】,交警中队,丰盛庄南2变压器,新华油质化工厂,乔古寺东北地变压器,王场西南地变压器【纯农排变】,泗庄供电所变压器,南黄南2变压器,王场北地变压器【纯农排变】,乔古寺东1变压器,南黄西台变压器,客户投资_东黄南变压器,乔古寺地变压器【纯农排变】,王志丰,王场北3变压器,于广才革厂,冯宝赤革厂,陶文祥革厂1,油厂,乔古寺东2变压器,陶文祥革厂 2,张金明革厂,乔古寺西台变压器,南黄村变压器,未庄砖厂,河北省保定市高碑店市泗庄乡高碑店泗庄供电所,丰盛庄村变压器,魏庄地变压器,0387437068-世纪大道北东台-专变-45274563-世纪大道北东台,乔古寺西南地变压器【纯农排变】,东黄村变压器,高碑店市泗庄镇东黄小学,王场东南2变压器","poweroffReason":"【停电原因】由于主干２２号东黄排灌分支刀闸烧毁导致３５ＫＶ泗庄变电站１０ＫＶ东黄５１２线路全线停电 【变更送电】因抢修进度加快原因，送电时间由２０：００变更为１８：３０ 【发布渠道】通过９５５９８发布","powerTime":"2020-02-14 17:48:56","powerComm":"已送电","subsNo":"","lineNo":"","tgNo":"","tgName":null,"infoStatus":"1","orgName":"国网高碑店市供电公司","typeName":null,"infoStatusName":null,"dateDay":null,"orgNos":null,"nowTime":null,"countyName":null,"streetName":null,"villageName":null,"roadName":null,"communityName":null,"tranName":null,"sdLineName":null,"cityCode":"1340612","cityName":"国网高碑店市供电公司","provinceCode":null,"stopTime":"2020-02-14 18:30:00","powerType":"全部","powerOffArea":"【全线路停电】停丰盛庄西变压器,丰盛庄南变压器,东黄西南变压器,丰盛庄北变压器,王场东变压器,高碑店市欣荣海绵纸厂,高碑店市泗庄迪航硕鞋厂,南黄东台区,保定森泽汽车销售有限公司,丰盛庄南三,平占杰,高碑店市博荣拉链有限公司,丰盛庄西南地变压器【纯农排变】,王场6号变台,油厂东,王场东南1变压器,春晖面粉厂,乔古寺东变压器,王场西北变压器,东黄南2变压器,魏庄西地变压器,东黄地变压器【纯农排变】,南黄南变压器,魏庄村变压器,南黄村东地【纯农排变】,保定白沟新城王场学校,王场东南台变压器,丰盛庄西2变压器,高碑店市鑫益隆塑料有限公司变压器,高碑店市同兴畜牧有限公司（王家场）变压器,南黄西地变压器【纯农排变】,王场南变压器,陶文祥革厂3,王场南地变压器【纯农排变】,魏庄北变压器,魏庄西南地变压器【纯农排变】,王场北变压器,王场东地变压器【纯农排变】,交警中队,丰盛庄南2变压器,新华油质化工厂,乔古寺东北地变压器,王场西南地变压器【纯农排变】,泗庄供电所变压器,南黄南2变压器,王场北地变压器【纯农排变】,乔古寺东1变压器,南黄西台变压器,客户投资_东黄南变压器,乔古寺地变压器【纯农排变】,王志丰,王场北3变压器,于广才革厂,冯宝赤革厂,陶文祥革厂1,油厂,乔古寺东2变压器,陶文祥革厂 2,张金明革厂,乔古寺西台变压器,南黄村变压器,未庄砖厂,河北省保定市高碑店市泗庄乡高碑店泗庄供电所,丰盛庄村变压器,魏庄地变压器,0387437068-世纪大道北东台-专变-45274563-世纪大道北东台,乔古寺西南地变压器【纯农排变】,东黄村变压器,高碑店市泗庄镇东黄小学,王场东南2变压器","powerOffReason":"【停电原因】由于主干２２号东黄排灌分支刀闸烧毁导致３５ＫＶ泗庄变电站１０ＫＶ东黄５１２线路全线停电 【变更送电】因抢修进度加快原因，送电时间由２０：００变更为１８：３０ 【发布渠道】通过９５５９８发布","powerOffId":"2020021413000258"},{"poweroffId":2020021413000251,"sgpoweroffId":null,"subsName":"","lineName":"金家庄线516","pubTranName":"南豹泉村2#,西豹泉村4#,金家庄7号变压器,北豹泉变压器4,东豹泉变压器8,北豹泉村5#,北流井变压器1,南豹泉变压器6,西豹泉变压器3#,金家庄变压器5,北豹泉变压器3,北流井变压器2,南豹泉变压器3#,东豹泉机井变压器6,金家庄机井变压器3,北豹泉变压器2,南豹泉村5#,东豹泉村1#,金家庄变压器2,东豹泉村2#,北豹泉村1,北流井变压器4,北豹泉变压器6,东豹泉变压器9,东豹泉村10#,东豹泉村4#,西豹泉变压器5#,东豹泉村7#,金家庄变压器6,西豹泉变压器1,金家庄变压器1,西豹泉变压器5,东流井变压器1,东流井变压器2,","scope":"【影响街道/乡镇】流井乡【高危重要客户】无【影响客户】东豹泉村、西豹泉村、南豹泉村、北豹泉村、金家庄村、东流井村、北流井村","startTime":"2020-02-14 12:38:56","stopDate":"2020-02-14 17:30:00","orgNo":"1340625","typeCode":"电网故障停限电","poweroffArea":"【全线路停电】停西豹泉机井变压器2【纯农排变】,西豹泉变压器5,东豹泉机井变压器6,北豹泉变压器6,变压器,易县岩峰建材有限公司变压器,东豹泉村4#,金家庄变压器5,易县广荣猪饲养有限公司变压器,易县岩锋建材有限公司变压器,西豹泉变压器3#,东豹泉村10#,北豹泉村1,东豹泉村5#【纯农排变】,李秀江,西豹泉变压器5#,南豹泉村4#【纯农排变】,西豹泉张恒军(生淇),高维有东流井,金家庄机井变压器3,西豹泉村4#,东豹泉村3#,金家庄变压器2,北流井变压器1,东流井变压器1,南豹泉村5#,北豹泉变压器2,北豹泉村5#,北流井变压器4,东豹泉变压器8,河北京煤太行化工有限公司变压器,南豹泉变压器6,北豹泉变压器3,北豹泉变压器4,金家庄7号变压器,东流井变压器2,东豹泉村2#,绿苑养猪厂,0660809076-易县中悦同兴混凝土制造有限公司-专变-195780480-易县中悦同兴混凝土制造有限公司315KVA,北流井变压器2,金家庄变压器6,金家庄变压器1,东豹泉村1#,西豹泉变压器1,东豹泉村7#,东豹泉变压器9,南豹泉变压器3#,南豹泉村2#,金家庄变压器4","poweroffReason":"【停电原因】由于线路接地导致３５ＫＶ李家坟变电站金家庄线５１６线路全线停电【变更送电】因抢修进度加快原因，送电时间由１９：００变更为１７：３０【发布渠道】通过９５５９８发布","powerTime":"2020-02-14 16:59:35","powerComm":"已送电","subsNo":"","lineNo":"","tgNo":"","tgName":null,"infoStatus":"1","orgName":"国网易县供电公司","typeName":null,"infoStatusName":null,"dateDay":null,"orgNos":null,"nowTime":null,"countyName":null,"streetName":null,"villageName":null,"roadName":null,"communityName":null,"tranName":null,"sdLineName":null,"cityCode":"1340625","cityName":"国网易县供电公司","provinceCode":null,"stopTime":"2020-02-14 17:30:00","powerType":"全部","powerOffArea":"【全线路停电】停西豹泉机井变压器2【纯农排变】,西豹泉变压器5,东豹泉机井变压器6,北豹泉变压器6,变压器,易县岩峰建材有限公司变压器,东豹泉村4#,金家庄变压器5,易县广荣猪饲养有限公司变压器,易县岩锋建材有限公司变压器,西豹泉变压器3#,东豹泉村10#,北豹泉村1,东豹泉村5#【纯农排变】,李秀江,西豹泉变压器5#,南豹泉村4#【纯农排变】,西豹泉张恒军(生淇),高维有东流井,金家庄机井变压器3,西豹泉村4#,东豹泉村3#,金家庄变压器2,北流井变压器1,东流井变压器1,南豹泉村5#,北豹泉变压器2,北豹泉村5#,北流井变压器4,东豹泉变压器8,河北京煤太行化工有限公司变压器,南豹泉变压器6,北豹泉变压器3,北豹泉变压器4,金家庄7号变压器,东流井变压器2,东豹泉村2#,绿苑养猪厂,0660809076-易县中悦同兴混凝土制造有限公司-专变-195780480-易县中悦同兴混凝土制造有限公司315KVA,北流井变压器2,金家庄变压器6,金家庄变压器1,东豹泉村1#,西豹泉变压器1,东豹泉村7#,东豹泉变压器9,南豹泉变压器3#,南豹泉村2#,金家庄变压器4","powerOffReason":"【停电原因】由于线路接地导致３５ＫＶ李家坟变电站金家庄线５１６线路全线停电【变更送电】因抢修进度加快原因，送电时间由１９：００变更为１７：３０【发布渠道】通过９５５９８发布","powerOffId":"2020021413000251"},{"poweroffId":2020021413000250,"sgpoweroffId":null,"subsName":"","lineName":"10kV567食品园Ⅰ线","pubTranName":"唐城照明4台区,客户投资_唐城村(019):照明1台区,唐城(019)：照明3台区,唐城新民居公用照明2台区中压出线间隔配电变压器,唐城村(019):照明2台区,唐城公用照明6台区,唐城新民居公用照明1台区中压出线间隔配电变压器,","scope":"【影响街道/乡镇】北城区【高危重要客户】无【影响客户】唐城","startTime":"2020-02-14 01:50:00","stopDate":"2020-02-14 14:00:00","orgNo":"1340610","typeCode":"其他临时停电","poweroffArea":"【全线路停电】停唐城新民居公用照明1台区中压出线间隔配电变压器,唐城照明4台区,客户投资_唐城村(019):照明1台区,唐城(019)：照明3台区,唐城新民居公用照明2台区中压出线间隔配电变压器,唐城村(019):照明2台区,唐城公用照明6台区","poweroffReason":"【停电原因】由于弓子线打火需停电进行紧急检修导致１１０ＫＶ清风店变电站１０ＫＶ５６７食品园Ｉ线路全线停电 【变更送电】因抢修进度加快原因，送电时间由２０：００变更为１４：００ 【发布渠道】９５５９８","powerTime":"2020-02-14 13:22:46","powerComm":"已送电","subsNo":"","lineNo":"","tgNo":"","tgName":null,"infoStatus":"1","orgName":"国网定州市供电公司","typeName":null,"infoStatusName":null,"dateDay":null,"orgNos":null,"nowTime":null,"countyName":null,"streetName":null,"villageName":null,"roadName":null,"communityName":null,"tranName":null,"sdLineName":null,"cityCode":"1340610","cityName":"国网定州市供电公司","provinceCode":null,"stopTime":"2020-02-14 14:00:00","powerType":"全部","powerOffArea":"【全线路停电】停唐城新民居公用照明1台区中压出线间隔配电变压器,唐城照明4台区,客户投资_唐城村(019):照明1台区,唐城(019)：照明3台区,唐城新民居公用照明2台区中压出线间隔配电变压器,唐城村(019):照明2台区,唐城公用照明6台区","powerOffReason":"【停电原因】由于弓子线打火需停电进行紧急检修导致１１０ＫＶ清风店变电站１０ＫＶ５６７食品园Ｉ线路全线停电 【变更送电】因抢修进度加快原因，送电时间由２０：００变更为１４：００ 【发布渠道】９５５９８","powerOffId":"2020021413000250"},{"poweroffId":2020021413000226,"sgpoweroffId":null,"subsName":"","lineName":"燕赵523","pubTranName":"保定顺和房地产开发有限公司1,高碑店市筑鹏房地产开发有限公司3#变压器,高碑店市筑鹏房地产开发有限公司1#变压器,保定顺和房地产开发有限公司3,高碑店市筑鹏房地产开发有限公司4#变压器,保定顺和房地产开发有限公司2,高碑店市筑鹏房地产开发有限公司6#变压器,高碑店市筑鹏房地产开发有限公司5#变压器,高碑店市筑鹏房地产开发有限公司2#变压器,","scope":"【影响街道/乡镇】东盛办事处 【高危重要客户】无 【影响客户】８１号院一、二期","startTime":"2020-02-14 11:53:31","stopDate":"2020-02-14 20:00:00","orgNo":"1340612","typeCode":"电网故障停限电","poweroffArea":"【全线路停电】停高碑店市筑鹏房地产开发有限公司6#变压器,高碑店市筑鹏房地产开发有限公司2#变压器,高碑店市筑鹏房地产开发有限公司3#变压器,高碑店市筑鹏房地产开发有限公司4#变压器,保定顺和房地产开发有限公司3,保定顺和房地产开发有限公司1,高碑店市筑鹏房地产开发有限公司5#变压器,保定顺和房地产开发有限公司2,高碑店市筑鹏房地产开发有限公司1#变压器","poweroffReason":"【停电原因】由于８１号院高压计量烧毁导致１１０ＫＶ方家务变电站１０ＫＶ燕赵５２３线路全线停电 【变更送电】因抢修进度加快原因，送电时间由２３：５９变更为２０：００ 【发布渠道】通过９５５９８发布","powerTime":"2020-02-14 19:27:36","powerComm":"已送电","subsNo":"","lineNo":"","tgNo":"","tgName":null,"infoStatus":"1","orgName":"国网高碑店市供电公司","typeName":null,"infoStatusName":null,"dateDay":null,"orgNos":null,"nowTime":null,"countyName":null,"streetName":null,"villageName":null,"roadName":null,"communityName":null,"tranName":null,"sdLineName":null,"cityCode":"1340612","cityName":"国网高碑店市供电公司","provinceCode":null,"stopTime":"2020-02-14 20:00:00","powerType":"全部","powerOffArea":"【全线路停电】停高碑店市筑鹏房地产开发有限公司6#变压器,高碑店市筑鹏房地产开发有限公司2#变压器,高碑店市筑鹏房地产开发有限公司3#变压器,高碑店市筑鹏房地产开发有限公司4#变压器,保定顺和房地产开发有限公司3,保定顺和房地产开发有限公司1,高碑店市筑鹏房地产开发有限公司5#变压器,保定顺和房地产开发有限公司2,高碑店市筑鹏房地产开发有限公司1#变压器","powerOffReason":"【停电原因】由于８１号院高压计量烧毁导致１１０ＫＶ方家务变电站１０ＫＶ燕赵５２３线路全线停电 【变更送电】因抢修进度加快原因，送电时间由２３：５９变更为２０：００ 【发布渠道】通过９５５９８发布","powerOffId":"2020021413000226"},{"poweroffId":2020021413000206,"sgpoweroffId":null,"subsName":"","lineName":"10kV李麻营线514","pubTranName":"顿豆夏变压器,良辛庄东变台,马官屯东南变压器,宋渔池西南,胡娄集西南柱上变压器,供电所变压器,肖官营镇政府变压器,尚垡南台变压器,辛龙庄南2变压器,","scope":"【影响街道/乡镇】肖官营乡 【高危重要客户】水利局 【影响客户】顿豆夏村、郭辛庄村、胡娄集村、荒辛庄村、李麻营村、良辛庄村、马官屯村、孟良营村、尚垡村、宋鱼池村、肖官营村、肖官营市场、兴隆庄村、顿书凯、高碑店市辉煌伟业养殖有限公司、顿书军、张勇面粉厂、保定中油第三加油站、卓电强、乡政府、窦风林、河北航行机械铸造有限公司、仁达养殖厂、肖官营中学、高碑店市大广新型建材有限公司、高碑店市看守所、腾达工业、高碑店市公安局治安拘留所、廊坊盛翔道桥工程有限公司、肖官营洛津水泥制品厂、河北禾木田农业发展有限公司、尚垡中心学校","startTime":"2020-02-14 12:35:00","stopDate":"2020-02-14 14:30:00","orgNo":"1340612","typeCode":"其他临时停电","poweroffArea":"【全线路停电】停国网高碑店市供电公司肖官营供电所变压器,荒辛庄排灌三变压器【纯农排变】,宋鱼池排灌五变压器【纯农排变】,兴隆庄西南变压器,宋鱼池排灌二变压器【纯农排变】,肖官营东变压器,宋渔池西南,尚垡东南变压器,胡娄集排6柱上变压器,胡娄集排灌五变压器【纯农排变】,兴隆庄排灌变压器【纯农排变】,高碑店市广大新型建材有限公司变压器,李麻营变压器,荒辛庄东变压器,郭辛庄排灌一变压器【纯农排变】,顿书凯,尚垡排灌四变压器【纯农排变】,窦风林,孟良营西南,胡娄集排灌三变压器【纯农排变】,肖官营排4柱上变压器,马官屯排灌二变压器【纯农排变】,吴恒,尚垡排灌一变压器,胡娄集南变压器,郭辛庄西台变压器,马官屯排灌一变压器【纯农排变】,孟良营中变压器,顿豆夏北变压器,胡娄集排灌一变压器【纯农排变】,尚垡东北变压器,河北航行机械铸造有限公司西#1,尚垡排灌二变压器【纯农排变】,顿豆夏排灌一变压器【纯农排变】,顿豆夏排灌三变压器【纯农排变】,孟良营南台变压器,胡娄集东台变压器,肖官营排5柱上变压器,孟良营排灌二变压器【纯农排变】,李麻营排灌三变压器【纯农排变】,胡娄集西南柱上变压器,李麻营东台变压器,供电所变压器,兴隆庄北变压器,顿豆夏排灌二变压器【纯农排变】,尚垡西南变压器,马官屯东台变压器,肖官营排灌二变压器【纯农排变】,肖官营镇政府变压器,胡娄集西台变压器,李麻营排灌一变压器【纯农排变】,顿书军,良辛庄变压器,张勇面粉厂,尚垡排灌五变压器【纯农排变】,肖官营市场变压器,高碑店市腾达工业有限责任公司变压器,尚垡排灌三变压器【纯农排变】,尚垡南台变压器,0387439051-高碑店市仁达养殖有限责任公司-专变-45275636-王长春,辛龙庄南2变压器,李麻营排灌二变压器【纯农排变】,孟良营排灌一变压器【纯农排变】,变压器,高碑店市水利局受电点变压器,石料厂,高碑店市国有军粮供应有限公司,尚垡西台变压器,宋鱼池排灌三变压器【纯农排变】,高碑店市肖官营洛津水泥制品厂,荒辛庄变压器,孟良营北台变压器,宋鱼池东南变压器,卓电强,宋鱼池西变压器,荒辛庄排灌二变压器【纯农排变】,肖官营砖厂（北）,河北航行机械铸造有限公司西#2,荒辛庄排灌一变压器【纯农排变】,吴辉,河北禾木田农业发展有限公司,顿豆夏变压器,马官屯西台变压器,良辛庄东变台,李麻营西台变压器,宋鱼池东北台变压器,郭辛庄排灌二变压器【纯农排变】,高碑店市肖官营乡肖官营中学,高碑店市肖官营乡尚垡中心学校变压器,良辛庄排灌变压器【纯农排变】,马官屯南台变压器,高碑店市肖官营乡胡娄集幼儿园,高碑店市公安局变压器,胡娄集排灌二变压器【纯农排变】,兴隆庄南变压器,郭辛庄变压器,马官屯东南变压器,高碑店市肖官营乡兴隆庄中心小学,胡娄集排灌四变压器【纯农排变】","poweroffReason":"【停电原因】由于６４号杆分支线打火需紧急处理导致３５ＫＶ方官变电站１０ＫＶ李麻营５１４线路全线停电 【变更送电】无 【发布渠道】通过９５５９８发布","powerTime":"2020-02-14 14:23:45","powerComm":"已送电","subsNo":"","lineNo":"","tgNo":"","tgName":null,"infoStatus":"1","orgName":"国网高碑店市供电公司","typeName":null,"infoStatusName":null,"dateDay":null,"orgNos":null,"nowTime":null,"countyName":null,"streetName":null,"villageName":null,"roadName":null,"communityName":null,"tranName":null,"sdLineName":null,"cityCode":"1340612","cityName":"国网高碑店市供电公司","provinceCode":null,"stopTime":"2020-02-14 14:30:00","powerType":"全部","powerOffArea":"【全线路停电】停国网高碑店市供电公司肖官营供电所变压器,荒辛庄排灌三变压器【纯农排变】,宋鱼池排灌五变压器【纯农排变】,兴隆庄西南变压器,宋鱼池排灌二变压器【纯农排变】,肖官营东变压器,宋渔池西南,尚垡东南变压器,胡娄集排6柱上变压器,胡娄集排灌五变压器【纯农排变】,兴隆庄排灌变压器【纯农排变】,高碑店市广大新型建材有限公司变压器,李麻营变压器,荒辛庄东变压器,郭辛庄排灌一变压器【纯农排变】,顿书凯,尚垡排灌四变压器【纯农排变】,窦风林,孟良营西南,胡娄集排灌三变压器【纯农排变】,肖官营排4柱上变压器,马官屯排灌二变压器【纯农排变】,吴恒,尚垡排灌一变压器,胡娄集南变压器,郭辛庄西台变压器,马官屯排灌一变压器【纯农排变】,孟良营中变压器,顿豆夏北变压器,胡娄集排灌一变压器【纯农排变】,尚垡东北变压器,河北航行机械铸造有限公司西#1,尚垡排灌二变压器【纯农排变】,顿豆夏排灌一变压器【纯农排变】,顿豆夏排灌三变压器【纯农排变】,孟良营南台变压器,胡娄集东台变压器,肖官营排5柱上变压器,孟良营排灌二变压器【纯农排变】,李麻营排灌三变压器【纯农排变】,胡娄集西南柱上变压器,李麻营东台变压器,供电所变压器,兴隆庄北变压器,顿豆夏排灌二变压器【纯农排变】,尚垡西南变压器,马官屯东台变压器,肖官营排灌二变压器【纯农排变】,肖官营镇政府变压器,胡娄集西台变压器,李麻营排灌一变压器【纯农排变】,顿书军,良辛庄变压器,张勇面粉厂,尚垡排灌五变压器【纯农排变】,肖官营市场变压器,高碑店市腾达工业有限责任公司变压器,尚垡排灌三变压器【纯农排变】,尚垡南台变压器,0387439051-高碑店市仁达养殖有限责任公司-专变-45275636-王长春,辛龙庄南2变压器,李麻营排灌二变压器【纯农排变】,孟良营排灌一变压器【纯农排变】,变压器,高碑店市水利局受电点变压器,石料厂,高碑店市国有军粮供应有限公司,尚垡西台变压器,宋鱼池排灌三变压器【纯农排变】,高碑店市肖官营洛津水泥制品厂,荒辛庄变压器,孟良营北台变压器,宋鱼池东南变压器,卓电强,宋鱼池西变压器,荒辛庄排灌二变压器【纯农排变】,肖官营砖厂（北）,河北航行机械铸造有限公司西#2,荒辛庄排灌一变压器【纯农排变】,吴辉,河北禾木田农业发展有限公司,顿豆夏变压器,马官屯西台变压器,良辛庄东变台,李麻营西台变压器,宋鱼池东北台变压器,郭辛庄排灌二变压器【纯农排变】,高碑店市肖官营乡肖官营中学,高碑店市肖官营乡尚垡中心学校变压器,良辛庄排灌变压器【纯农排变】,马官屯南台变压器,高碑店市肖官营乡胡娄集幼儿园,高碑店市公安局变压器,胡娄集排灌二变压器【纯农排变】,兴隆庄南变压器,郭辛庄变压器,马官屯东南变压器,高碑店市肖官营乡兴隆庄中心小学,胡娄集排灌四变压器【纯农排变】","powerOffReason":"【停电原因】由于６４号杆分支线打火需紧急处理导致３５ＫＶ方官变电站１０ＫＶ李麻营５１４线路全线停电 【变更送电】无 【发布渠道】通过９５５９８发布","powerOffId":"2020021413000206"},{"poweroffId":2020021413000187,"sgpoweroffId":null,"subsName":"","lineName":"里元线522","pubTranName":"大涨村(018):照明2台区,大涨村公用照明5台区,大涨村(018):照明1台区,大涨村公用照明9台区,大涨村公用照明4台区,大涨村公用照明7台区,客户投资_尹家庄(013):照明1台区,高头公用照明4台区,尹家庄公用照明4台区,大涨村公用照明6台区,尹家庄(013):照明2台区,尹家庄公用照明5台区,尹家庄公用照明3台区,大涨村照明3台区,大涨村公用照明8台区,","scope":"【影响街道/乡镇】南城区、大鹿庄乡、杨家庄乡【高危重要客户】无 【影响客户】尹家庄、大涨村、高头","startTime":"2020-02-14 14:00:00","stopDate":"2020-02-14 17:00:00","orgNo":"1340610","typeCode":"其他临时停电","poweroffArea":"【分支停电】停高头公用照明4台区,大涨村(018):照明2台区,大涨村公用照明5台区,大涨村(018):照明1台区,大涨村公用照明9台区,大涨村公用照明4台区,大涨村公用照明7台区,客户投资_尹家庄(013):照明1台区,尹家庄公用照明4台区,大涨村公用照明6台区,尹家庄(013):照明2台区,尹家庄公用照明5台区,尹家庄公用照明3台区,大涨村照明3台区,大涨村公用照明8台区","poweroffReason":"【停电原因】由于中城水务配变弓子线打火需停电进行紧急检修导致３５ＫＶ东北郊变电站１０ＫＶ５２２里元线路主干７８号杆０３号断路器以下线路停电 【变更送电】无 【发布渠道】９５５９８","powerTime":"2020-02-14 16:05:08","powerComm":"已送电","subsNo":"","lineNo":"","tgNo":"","tgName":null,"infoStatus":"1","orgName":"国网定州市供电公司","typeName":null,"infoStatusName":null,"dateDay":null,"orgNos":null,"nowTime":null,"countyName":null,"streetName":null,"villageName":null,"roadName":null,"communityName":null,"tranName":null,"sdLineName":null,"cityCode":"1340610","cityName":"国网定州市供电公司","provinceCode":null,"stopTime":"2020-02-14 17:00:00","powerType":"全部","powerOffArea":"【分支停电】停高头公用照明4台区,大涨村(018):照明2台区,大涨村公用照明5台区,大涨村(018):照明1台区,大涨村公用照明9台区,大涨村公用照明4台区,大涨村公用照明7台区,客户投资_尹家庄(013):照明1台区,尹家庄公用照明4台区,大涨村公用照明6台区,尹家庄(013):照明2台区,尹家庄公用照明5台区,尹家庄公用照明3台区,大涨村照明3台区,大涨村公用照明8台区","powerOffReason":"【停电原因】由于中城水务配变弓子线打火需停电进行紧急检修导致３５ＫＶ东北郊变电站１０ＫＶ５２２里元线路主干７８号杆０３号断路器以下线路停电 【变更送电】无 【发布渠道】９５５９８","powerOffId":"2020021413000187"},{"poweroffId":2020021413000175,"sgpoweroffId":null,"subsName":"","lineName":"10kV白城线514","pubTranName":"1北曹庄内1,","scope":"【影响街道/乡镇】白团乡 【高危重要客户】无 【影响客户】北曹庄","startTime":"2020-02-14 10:19:33","stopDate":"2020-02-14 12:00:00","orgNo":"1340618","typeCode":"电网故障停限电","poweroffArea":"【单台区停电】停1北曹庄内1","poweroffReason":"【停电原因】由于低压线断导致３５ＫＶ白团变电站１０ＫＶ白城线５１４线路１北曹庄内１号公变台区停电 【变更送电】无 【发布渠道】通过９５５９８发布","powerTime":"2020-02-14 11:18:29","powerComm":"李志伟通知已送电","subsNo":"","lineNo":"","tgNo":"","tgName":null,"infoStatus":"1","orgName":"国网清苑县供电公司","typeName":null,"infoStatusName":null,"dateDay":null,"orgNos":null,"nowTime":null,"countyName":null,"streetName":null,"villageName":null,"roadName":null,"communityName":null,"tranName":null,"sdLineName":null,"cityCode":"1340618","cityName":"国网清苑县供电公司","provinceCode":null,"stopTime":"2020-02-14 12:00:00","powerType":"全部","powerOffArea":"【单台区停电】停1北曹庄内1","powerOffReason":"【停电原因】由于低压线断导致３５ＫＶ白团变电站１０ＫＶ白城线５１４线路１北曹庄内１号公变台区停电 【变更送电】无 【发布渠道】通过９５５９８发布","powerOffId":"2020021413000175"},{"poweroffId":2020021413000161,"sgpoweroffId":null,"subsName":"","lineName":"10kV524元南线","pubTranName":"元南综合7台区,元东农排5台区【纯农排变】,元南农排5台区【纯农排变】,元南综合9台区,元东综合8台区,元南综合11台区,元南综合8台区,元东农排10台区【纯农排变】,元南综合4台区,元东综合1台区,元东农排3台区【纯农排变】,元南综合12台区,元南综合2台区,元南农排3台区【纯农排变】,元东综合6台区,元南综合6台区,元南综合5台区,杨南农排5台区【纯农排变】,元南农排4台区【纯农排变】,元东农排1台区【纯农排变】,杨南农排9台区【纯农排变】,杨南农排6台区【纯农排变】,元南综合3台区,元南农排2台区【纯农排变】,元东农排4台区【纯农排变】,杨西农排4台区【纯农排变】,元南农排8台区【纯农排变】,元东综合11台区,杨西农排10台区【纯农排变】,元南农排6台区【纯农排变】,元东农排9台区【纯农排变】,元东农排6台区【纯农排变】,元南农排1台区【纯农排变】,元南综合10台区,杨南农排7台区【纯农排变】,元东综合10台区,元东综合9台区,杨东农排7台区【纯农排变】,元东综合4台区,元东综合2台区,元南综合1台区,元营农排8台区【纯农排变】,","scope":"【影响街道/乡镇】桑元镇【高危重要客户】无【影响客户】元南村、元东村","startTime":"2020-02-14 10:11:02","stopDate":"2020-02-14 11:50:00","orgNo":"1340616","typeCode":"电网故障停限电","poweroffArea":"【全线路停电】停元南综合4台区,元东农排3台区【纯农排变】,元东综合1台区,元东农排2台区【纯农排变】,蠡县森源材料有限公司,元营农排8台区【纯农排变】,杨南农排7台区【纯农排变】,元南综合12台区,元东综合11台区,元东农排1台区【纯农排变】,元东综合10台区,元东综合8台区,元南综合3台区,元南综合7台区,元东农排6台区【纯农排变】,蠡县双蚨盛,元南综合2台区,元南农排6台区【纯农排变】,保定美雅纺织有限公司变压器,元南农排4台区【纯农排变】,蠡县森源材料有限公司变压器,元南综合1台区,杨南农排6台区【纯农排变】,元东综合4台区,蠡县贺林农资门市部,元东综合9台区,恒威变压器,元东综合6台区,杨南农排9台区【纯农排变】,元南综合11台区,元南综合9台区,元南农排3台区【纯农排变】,杨西农排4台区【纯农排变】,蠡县勤学毛纺厂,友谊纺织,鹤祥种业养殖公司,杨南农排5台区【纯农排变】,元南综合10台区,元东农排4台区【纯农排变】,元东农排10台区【纯农排变】,元南农排2台区【纯农排变】,元南农排5台区【纯农排变】,蠡县睿霖染化有限公司,元南农排1台区【纯农排变】,杨东农排7台区【纯农排变】,双兴公司,元南综合6台区,元东农排9台区【纯农排变】,元东综合2台区,雅尔公司,杨西农排10台区【纯农排变】,元南综合8台区,元南综合5台区,元南农排8台区【纯农排变】,元东农排5台区【纯农排变】","poweroffReason":"【停电原因】由于线路接地导致１１０ＫＶ刘铭庄变电站１０ＫＶ元南５２４线路全线停电【变更送电】因抢修进度加快原因，送电时间由２３:００变更为１１:５０【发布渠道】通过９５５９８发布","powerTime":"2020-02-14 11:20:41","powerComm":"已送电","subsNo":"","lineNo":"","tgNo":"","tgName":null,"infoStatus":"1","orgName":"国网蠡县供电公司","typeName":null,"infoStatusName":null,"dateDay":null,"orgNos":null,"nowTime":null,"countyName":null,"streetName":null,"villageName":null,"roadName":null,"communityName":null,"tranName":null,"sdLineName":null,"cityCode":"1340616","cityName":"国网蠡县供电公司","provinceCode":null,"stopTime":"2020-02-14 11:50:00","powerType":"全部","powerOffArea":"【全线路停电】停元南综合4台区,元东农排3台区【纯农排变】,元东综合1台区,元东农排2台区【纯农排变】,蠡县森源材料有限公司,元营农排8台区【纯农排变】,杨南农排7台区【纯农排变】,元南综合12台区,元东综合11台区,元东农排1台区【纯农排变】,元东综合10台区,元东综合8台区,元南综合3台区,元南综合7台区,元东农排6台区【纯农排变】,蠡县双蚨盛,元南综合2台区,元南农排6台区【纯农排变】,保定美雅纺织有限公司变压器,元南农排4台区【纯农排变】,蠡县森源材料有限公司变压器,元南综合1台区,杨南农排6台区【纯农排变】,元东综合4台区,蠡县贺林农资门市部,元东综合9台区,恒威变压器,元东综合6台区,杨南农排9台区【纯农排变】,元南综合11台区,元南综合9台区,元南农排3台区【纯农排变】,杨西农排4台区【纯农排变】,蠡县勤学毛纺厂,友谊纺织,鹤祥种业养殖公司,杨南农排5台区【纯农排变】,元南综合10台区,元东农排4台区【纯农排变】,元东农排10台区【纯农排变】,元南农排2台区【纯农排变】,元南农排5台区【纯农排变】,蠡县睿霖染化有限公司,元南农排1台区【纯农排变】,杨东农排7台区【纯农排变】,双兴公司,元南综合6台区,元东农排9台区【纯农排变】,元东综合2台区,雅尔公司,杨西农排10台区【纯农排变】,元南综合8台区,元南综合5台区,元南农排8台区【纯农排变】,元东农排5台区【纯农排变】","powerOffReason":"【停电原因】由于线路接地导致１１０ＫＶ刘铭庄变电站１０ＫＶ元南５２４线路全线停电【变更送电】因抢修进度加快原因，送电时间由２３:００变更为１１:５０【发布渠道】通过９５５９８发布","powerOffId":"2020021413000161"},{"poweroffId":2020021413000137,"sgpoweroffId":null,"subsName":"","lineName":"10kV518唐河线","pubTranName":"清水河公用照明9台区,东市邑照明1台区,总司屯(006):照明4台区,北门街公用照明9台区,总司屯公用照明11台区,总司屯公用照明6台区,东市邑公用照明2台区,东里元(012):照明2台区,总司屯(006):照明3台区,清水河公用照明10台区,东里元公用照明16台区,总司屯公用照明17台区,","scope":"【影响街道/乡镇】北城区、北门街、文庙街、瘟庙街、大鹿庄乡、清风店镇【高危重要客户】无【影响客户】清水河、东里元、总司屯、寺市邑、西市邑村、东市邑小村（小市邑）、北城区技中职业技术学院、四二团、师范、崇城国际、百盛家园","startTime":"2020-02-14 09:22:15","stopDate":"2020-02-14 14:00:00","orgNo":"1340610","typeCode":"电网故障停限电","poweroffArea":"【全线路停电】停总司屯(006):照明4台区,清水河公用照明9台区,东市邑照明1台区,北门街公用照明9台区,总司屯公用照明11台区,总司屯公用照明6台区,东市邑公用照明2台区,东里元(012):照明2台区,总司屯(006):照明3台区,清水河公用照明10台区,东里元公用照明16台区,东里元公用照明11台区,总司屯公用照明17台区,东里元公用照明10台区","poweroffReason":"【停电原因】由于寺市邑分支０６号杆福林农机跌落保险烧毁导致１１０ＫＶ总司屯变电站１０ＫＶ５１８唐河线路全线停电 【变更送电】因抢修进度加快原因，送电时间由１８：００变更为１４：００ 【发布渠道】９５５９８","powerTime":"2020-02-14 13:13:25","powerComm":"已送电","subsNo":"","lineNo":"","tgNo":"","tgName":null,"infoStatus":"1","orgName":"国网定州市供电公司","typeName":null,"infoStatusName":null,"dateDay":null,"orgNos":null,"nowTime":null,"countyName":null,"streetName":null,"villageName":null,"roadName":null,"communityName":null,"tranName":null,"sdLineName":null,"cityCode":"1340610","cityName":"国网定州市供电公司","provinceCode":null,"stopTime":"2020-02-14 14:00:00","powerType":"全部","powerOffArea":"【全线路停电】停总司屯(006):照明4台区,清水河公用照明9台区,东市邑照明1台区,北门街公用照明9台区,总司屯公用照明11台区,总司屯公用照明6台区,东市邑公用照明2台区,东里元(012):照明2台区,总司屯(006):照明3台区,清水河公用照明10台区,东里元公用照明16台区,东里元公用照明11台区,总司屯公用照明17台区,东里元公用照明10台区","powerOffReason":"【停电原因】由于寺市邑分支０６号杆福林农机跌落保险烧毁导致１１０ＫＶ总司屯变电站１０ＫＶ５１８唐河线路全线停电 【变更送电】因抢修进度加快原因，送电时间由１８：００变更为１４：００ 【发布渠道】９５５９８","powerOffId":"2020021413000137"},{"poweroffId":2020021413000133,"sgpoweroffId":null,"subsName":"","lineName":"10kV御城线542","pubTranName":"大望亭外8号【纯农排变】,御城外2【纯农排变】,2御城外13【纯农排变】,御城内8,1御城内15,2大望亭外14【纯农排变】,1大望亭内11,2御城外15【纯农排变】,御城外1【纯农排变】,大侯村外20【纯农排变】,大侯村外13号【纯农排变】,御城小学柱上变压器,大望亭4号,大望亭内10,御城内17台区,御城外10【纯农排变】,大候村外18【纯农排变】,1小望亭内3,御城外3【纯农排变】,御城内18台区,大候村外14【纯农排变】,1大望亭内14,御城外9【纯农排变】,大侯村外15【纯农排变】,1御城内16,1御城内19,御城外14【纯农排变】,1御城内6,小望亭外4【纯农排变】,1御城内11.,1大望亭内7,大侯村外17【纯农排变】,大望亭外10号【纯农排变】,1御城内3柱上变压器,客户投资_1御城内1号,大侯村外19【纯农排变】,御城外7号【纯农排变】,大望亭外6号【纯农排变】,小候村外3【纯农排变】,大望亭外4【纯农排变】,1小望亭内4,1御城内13,大望亭外9号【纯农排变】,2大侯村外24,2仙人桥外10【纯农排变】,2御城外12【纯农排变】,大望亭外13【纯农排变】,小望亭外5【纯农排变】,1御城内4,大望亭外11号【纯农排变】,1御城内7,1大望亭内17,1御城内2号,大望亭3号,大望亭外7号【纯农排变】,1御城内9,御城外11【纯农排变】,御城内10,1御城内12,1御城内14,仙人桥外11【纯农排变】,小候村外4【纯农排变】,大望亭外5号【纯农排变】,大望亭外12号【纯农排变】,御城外6【纯农排变】,2小望亭外6【纯农排变】,1小望亭新民居内1,","scope":"【影响街道/乡镇】望亭乡、孙村乡、仙人桥 【高危重要客户】无 【影响客户】玉城、大望亭、小望亭、大候村、小候村、仙人桥","startTime":"2020-02-14 09:20:02","stopDate":"2020-02-14 12:00:00","orgNo":"1340618","typeCode":"电网故障停限电","poweroffArea":"【全线路停电】停大侯村外19【纯农排变】,御城外7号【纯农排变】,大望亭外6号【纯农排变】,0387505873-中节能(保定)环保能源有限公司-专变-49039117-河北建投灵峰环保发电有限公司,小候村外3【纯农排变】,大望亭外4【纯农排变】,0741379872-保定市水利局-900027629843,0387504782-保定中亿电气材料制造有限公司-专变-45325255-保定中亿电气材料制造有限公司,保定市亿宠宠物饲料制造有限公司,0387505440-河北鑫兴仓储有限公司-专变-45325198-大望亭带锯,1小望亭内4,1御城内13,大望亭外9号【纯农排变】,2大侯村外24,2仙人桥外10【纯农排变】,2御城外12【纯农排变】,大望亭外13【纯农排变】,小望亭外5【纯农排变】,清苑县绿鸣养殖基地,1御城内4,保定市亚航建筑工程有限公司,河北建投灵峰环保发电有限公司,大望亭外11号【纯农排变】,0387505453-保定鑫源机件热处理加工厂-专变-45325062-保定鑫源机件热处理加工厂,御城内10,1御城内7,1大望亭内17,清苑县广通铝业,清苑县大望亭绿康养殖场,1御城内2号,0387506427-平陵河边-专变-45325170-平陵河边,0387505802-大望亭鸡厂会元-专变-45325175-大望亭鸡厂会元,0387506687-保定市清苑区农村信用联社股份有限公司-专变-45325179-清苑县农村信用合作联社,大望亭3号,大望亭外7号【纯农排变】,1御城内9,御城外11【纯农排变】,0387506762-清苑县茂硕金属加工有限公司-专变-192916051-保定美亚尼灯具制造有限公司,清苑县茂硕金属加工有限公司,保定市海深农业发展有限公司,大望亭外12号【纯农排变】,御城外6【纯农排变】,2小望亭外6【纯农排变】,1小望亭新民居内1,大望亭外8号【纯农排变】,大望亭贾顺养鸡场,御城外2【纯农排变】,2御城外13【纯农排变】,0387505088-望亭线材厂-专变-45325182-望亭线材厂,0387504795-清苑县盛达变压器铁芯制造有限公司-专变-45325183-清苑县盛达变压器铁芯制造有限公司,0602532073-保定伊和生物科技有限责任公司-专变-126940174-清苑县博远饲料销售有限公司,御城内8,0387506674-大望亭饮料厂北台-专变-45325081-大望亭饮料厂北台,0387505613-小望亭大堤(分箱)-专变-45325185-小望亭大堤（分箱）,0621499072-保定伊和生物科技有限责任公司-专变-129725284-清苑县博远饲料销售有限公司,1御城内15,0387504841-清泉鸡厂-专变-45325188-清泉鸡厂,2大望亭外14【纯农排变】,清苑县金荷塘农业园,1大望亭内11,2御城外15【纯农排变】,0602532073-保定伊和生物科技有限责任公司-专变-126944238-清苑县博远饲料销售有限公司,保定市中茂能源有限公司,0648984478-保定美亚尼灯具制造有限公司-专变-174391050-保定美亚尼灯具制造有限公司,大望亭村委会,1小望亭内3,御城外3【纯农排变】,0603049374-屹立卓郡小区-专变-126939848-屹立卓郡小区,段志佳养羊场,0621499072-保定伊和生物科技有限责任公司-专变-129745707-清苑县博远饲料销售有限公司,御城内18台区,0387505118-御城董占义-专变-124028079-御城董占义,0741379872-保定市水利局-900027629808,清苑县鑫润达机械配件制造有限公司,大候村外14【纯农排变】,1大望亭内14,御城外9【纯农排变】,0387506498-保定市文岳金属制品加工厂-专变-45325222-清苑县恒鑫五合面粉厂,0387505466-清苑县望亭长志养殖厂-专变-45325224-清苑县望亭长志养殖厂,大侯村外15【纯农排变】,1御城内16,1御城内19,御城外14【纯农排变】,1御城内6,0387504753-大侯村新兴食品厂-专变-45325166-大侯村新兴食品厂,0387506140-大侯村河边-专变-45325169-大侯村河边,侯村农场河边西台,小望亭外4【纯农排变】,御城外10【纯农排变】,0387505150-大望亭孟成福沙厂-专变-45325219-大望亭孟成","poweroffReason":"【停电原因】由于主干４０号杆导线断线导致１０ＫＶ戎官营开关变电站１０ＫＶ御城线５４２线路全线停电 【变更送电】因抢修进度加快原因，送电时间由１３：００变更为１２：００ 【发布渠道】通过９５５９８发布","powerTime":"2020-02-14 11:40:31","powerComm":"任洪洲通知已送电","subsNo":"","lineNo":"","tgNo":"","tgName":null,"infoStatus":"1","orgName":"国网清苑县供电公司","typeName":null,"infoStatusName":null,"dateDay":null,"orgNos":null,"nowTime":null,"countyName":null,"streetName":null,"villageName":null,"roadName":null,"communityName":null,"tranName":null,"sdLineName":null,"cityCode":"1340618","cityName":"国网清苑县供电公司","provinceCode":null,"stopTime":"2020-02-14 12:00:00","powerType":"全部","powerOffArea":"【全线路停电】停大侯村外19【纯农排变】,御城外7号【纯农排变】,大望亭外6号【纯农排变】,0387505873-中节能(保定)环保能源有限公司-专变-49039117-河北建投灵峰环保发电有限公司,小候村外3【纯农排变】,大望亭外4【纯农排变】,0741379872-保定市水利局-900027629843,0387504782-保定中亿电气材料制造有限公司-专变-45325255-保定中亿电气材料制造有限公司,保定市亿宠宠物饲料制造有限公司,0387505440-河北鑫兴仓储有限公司-专变-45325198-大望亭带锯,1小望亭内4,1御城内13,大望亭外9号【纯农排变】,2大侯村外24,2仙人桥外10【纯农排变】,2御城外12【纯农排变】,大望亭外13【纯农排变】,小望亭外5【纯农排变】,清苑县绿鸣养殖基地,1御城内4,保定市亚航建筑工程有限公司,河北建投灵峰环保发电有限公司,大望亭外11号【纯农排变】,0387505453-保定鑫源机件热处理加工厂-专变-45325062-保定鑫源机件热处理加工厂,御城内10,1御城内7,1大望亭内17,清苑县广通铝业,清苑县大望亭绿康养殖场,1御城内2号,0387506427-平陵河边-专变-45325170-平陵河边,0387505802-大望亭鸡厂会元-专变-45325175-大望亭鸡厂会元,0387506687-保定市清苑区农村信用联社股份有限公司-专变-45325179-清苑县农村信用合作联社,大望亭3号,大望亭外7号【纯农排变】,1御城内9,御城外11【纯农排变】,0387506762-清苑县茂硕金属加工有限公司-专变-192916051-保定美亚尼灯具制造有限公司,清苑县茂硕金属加工有限公司,保定市海深农业发展有限公司,大望亭外12号【纯农排变】,御城外6【纯农排变】,2小望亭外6【纯农排变】,1小望亭新民居内1,大望亭外8号【纯农排变】,大望亭贾顺养鸡场,御城外2【纯农排变】,2御城外13【纯农排变】,0387505088-望亭线材厂-专变-45325182-望亭线材厂,0387504795-清苑县盛达变压器铁芯制造有限公司-专变-45325183-清苑县盛达变压器铁芯制造有限公司,0602532073-保定伊和生物科技有限责任公司-专变-126940174-清苑县博远饲料销售有限公司,御城内8,0387506674-大望亭饮料厂北台-专变-45325081-大望亭饮料厂北台,0387505613-小望亭大堤(分箱)-专变-45325185-小望亭大堤（分箱）,0621499072-保定伊和生物科技有限责任公司-专变-129725284-清苑县博远饲料销售有限公司,1御城内15,0387504841-清泉鸡厂-专变-45325188-清泉鸡厂,2大望亭外14【纯农排变】,清苑县金荷塘农业园,1大望亭内11,2御城外15【纯农排变】,0602532073-保定伊和生物科技有限责任公司-专变-126944238-清苑县博远饲料销售有限公司,保定市中茂能源有限公司,0648984478-保定美亚尼灯具制造有限公司-专变-174391050-保定美亚尼灯具制造有限公司,大望亭村委会,1小望亭内3,御城外3【纯农排变】,0603049374-屹立卓郡小区-专变-126939848-屹立卓郡小区,段志佳养羊场,0621499072-保定伊和生物科技有限责任公司-专变-129745707-清苑县博远饲料销售有限公司,御城内18台区,0387505118-御城董占义-专变-124028079-御城董占义,0741379872-保定市水利局-900027629808,清苑县鑫润达机械配件制造有限公司,大候村外14【纯农排变】,1大望亭内14,御城外9【纯农排变】,0387506498-保定市文岳金属制品加工厂-专变-45325222-清苑县恒鑫五合面粉厂,0387505466-清苑县望亭长志养殖厂-专变-45325224-清苑县望亭长志养殖厂,大侯村外15【纯农排变】,1御城内16,1御城内19,御城外14【纯农排变】,1御城内6,0387504753-大侯村新兴食品厂-专变-45325166-大侯村新兴食品厂,0387506140-大侯村河边-专变-45325169-大侯村河边,侯村农场河边西台,小望亭外4【纯农排变】,御城外10【纯农排变】,0387505150-大望亭孟成福沙厂-专变-45325219-大望亭孟成","powerOffReason":"【停电原因】由于主干４０号杆导线断线导致１０ＫＶ戎官营开关变电站１０ＫＶ御城线５４２线路全线停电 【变更送电】因抢修进度加快原因，送电时间由１３：００变更为１２：００ 【发布渠道】通过９５５９８发布","powerOffId":"2020021413000133"}],"pageModel":{"pageNow":290,"totalCount":10973,"totalPage":1098,"tableRows":0,"pageCount":10,"beginCount":2890},"isExperi":"1"}