{"message":"","today":"2020-06-15","seleList":[{"poweroffId":2020021413000061,"sgpoweroffId":null,"subsName":"","lineName":"10kV王盘线513","pubTranName":"1王盘内7,1王盘内9,1王盘内1,1王盘内16,1王盘内13,南邓村内1,1南邓村内5,王盘外8【纯农排变】,王盘5号,1南邓村内7,1南邓村内4,1南邓村内6,1南邓村内2,1王盘内14号,王盘幼儿园配变1,王盘2号,南邓村内3,王盘外15【纯农排变】,南邓村小学配变,1王盘内3号,王盘中学配变3,王盘内8,王盘4号,王盘中学配变1,王盘6号,王盘中学配变2,1王盘内12,王盘幼儿园配变2,1王盘内15,1王盘内11,1王盘内10,","scope":"【影响街道/乡镇】温仁乡 【高危重要客户】无 【影响客户】王盘村、南邓村","startTime":"2020-02-14 06:42:21","stopDate":"2020-02-14 09:40:00","orgNo":"1340618","typeCode":"电网故障停限电","poweroffArea":"【全线路停电】停清苑县建业彩钢有限公司,1南邓村内2,南邓村外7【纯农排变】,1王盘内14号,王盘幼儿园配变1,王盘外11【纯农排变】,王盘外22【纯农排变】,蠡县亿丰纺织有限公司,王盘2号,清苑县建业彩钢有限公司01,南邓村内3,王盘外15【纯农排变】,保定市清苑区会翔秸杆加工厂,王盘外21【纯农排变】,南邓村小学配变,南邓村棉织厂,王盘中学配变3,王盘外20【纯农排变】,王盘外19【纯农排变】,王盘6号,王盘中学配变2,清苑县温仁镇王牌冷食厂01,1王盘内3号,南邓村外3【纯农排变】,清苑县振兴冷库,南邓村面粉厂,王盘内8,王盘4号,王盘中学配变1,南邓村外8【纯农排变】,王盘村幸福小区01,王盘村幸福小区,2王盘外14【纯农排变】,0617750002-清苑县南邓村红强机床加工厂-专变-128688011-清苑县南邓村红强机床加工厂,2王盘外23【纯农排变】,王盘外9【纯农排变】,清苑县温仁镇王牌冷食厂,1王盘内12,清苑县朋达储备有限公司01,蠡县腾运纺织有限公司,王盘幼儿园配变2,1王盘内15,1王盘内11,1王盘内10,1王盘内1,王盘外17【纯农排变】,1王盘内16,1王盘内13,南邓村内1,王盘面粉厂,王盘外13【纯农排变】,王盘中学,1南邓村内5,1王盘内7,蠡县华泰纺织有限公司,南邓村外4【纯农排变】,蠡县亿丰纺织有限公司02,1王盘内9,2王盘外10【纯农排变】,南邓村外5【纯农排变】,王盘外8【纯农排变】,蠡县亿丰纺织有限公司01,王盘5号,清苑县王盘中航彩钢板加工厂,1南邓村内7,王盘外7【纯农排变】,清苑县朋达储备有限公司,保定市清苑区刘芳冷库,王盘外12【纯农排变】,清苑县来义面粉厂,1南邓村内4,1南邓村内6,0626026040-清苑县王盘一龙冷库-专变-136256400-清苑县王盘一龙冷库,王盘外16【纯农排变】,南邓村外6【纯农排变】,王盘外18【纯农排变】,南邓村外2【纯农排变】","poweroffReason":"【停电原因】由于主干０号杆电缆头打火故障，需本线路停电配合抢修导致３５ＫＶ王盘变电站１０ＫＶ王盘线５１３线路全线停电 【变更送电】因抢修进度加快原因，送电时间由１２：００变更为０９：４０ 【发布渠道】通过９５５９８发布","powerTime":"2020-02-14 09:16:43","powerComm":"齐超通知已送电","subsNo":"","lineNo":"","tgNo":"","tgName":null,"infoStatus":"1","orgName":"国网清苑县供电公司","typeName":null,"infoStatusName":null,"dateDay":null,"orgNos":null,"nowTime":null,"countyName":null,"streetName":null,"villageName":null,"roadName":null,"communityName":null,"tranName":null,"sdLineName":null,"cityCode":"1340618","cityName":"国网清苑县供电公司","provinceCode":null,"stopTime":"2020-02-14 09:40:00","powerType":"全部","powerOffArea":"【全线路停电】停清苑县建业彩钢有限公司,1南邓村内2,南邓村外7【纯农排变】,1王盘内14号,王盘幼儿园配变1,王盘外11【纯农排变】,王盘外22【纯农排变】,蠡县亿丰纺织有限公司,王盘2号,清苑县建业彩钢有限公司01,南邓村内3,王盘外15【纯农排变】,保定市清苑区会翔秸杆加工厂,王盘外21【纯农排变】,南邓村小学配变,南邓村棉织厂,王盘中学配变3,王盘外20【纯农排变】,王盘外19【纯农排变】,王盘6号,王盘中学配变2,清苑县温仁镇王牌冷食厂01,1王盘内3号,南邓村外3【纯农排变】,清苑县振兴冷库,南邓村面粉厂,王盘内8,王盘4号,王盘中学配变1,南邓村外8【纯农排变】,王盘村幸福小区01,王盘村幸福小区,2王盘外14【纯农排变】,0617750002-清苑县南邓村红强机床加工厂-专变-128688011-清苑县南邓村红强机床加工厂,2王盘外23【纯农排变】,王盘外9【纯农排变】,清苑县温仁镇王牌冷食厂,1王盘内12,清苑县朋达储备有限公司01,蠡县腾运纺织有限公司,王盘幼儿园配变2,1王盘内15,1王盘内11,1王盘内10,1王盘内1,王盘外17【纯农排变】,1王盘内16,1王盘内13,南邓村内1,王盘面粉厂,王盘外13【纯农排变】,王盘中学,1南邓村内5,1王盘内7,蠡县华泰纺织有限公司,南邓村外4【纯农排变】,蠡县亿丰纺织有限公司02,1王盘内9,2王盘外10【纯农排变】,南邓村外5【纯农排变】,王盘外8【纯农排变】,蠡县亿丰纺织有限公司01,王盘5号,清苑县王盘中航彩钢板加工厂,1南邓村内7,王盘外7【纯农排变】,清苑县朋达储备有限公司,保定市清苑区刘芳冷库,王盘外12【纯农排变】,清苑县来义面粉厂,1南邓村内4,1南邓村内6,0626026040-清苑县王盘一龙冷库-专变-136256400-清苑县王盘一龙冷库,王盘外16【纯农排变】,南邓村外6【纯农排变】,王盘外18【纯农排变】,南邓村外2【纯农排变】","powerOffReason":"【停电原因】由于主干０号杆电缆头打火故障，需本线路停电配合抢修导致３５ＫＶ王盘变电站１０ＫＶ王盘线５１３线路全线停电 【变更送电】因抢修进度加快原因，送电时间由１２：００变更为０９：４０ 【发布渠道】通过９５５９８发布","powerOffId":"2020021413000061"},{"poweroffId":2020021413000058,"sgpoweroffId":null,"subsName":"","lineName":"10kV南段庄线512","pubTranName":"大兴庄内2,1南和庄内8,大柳树内1,1大兴庄内1,1大柳树内6,1南和庄内5,南和庄小学配变,1大柳树内9,蔡营内1,蔡营内3,大树村外10【纯农排变】,1大柳树内10,1大柳树内8,1大柳树内4,大柳树幼儿园配变,南和庄内2,大柳树小学配变,1南和庄内10,1南和庄内3,1大柳树内7,1南和庄内9,和庄外12【纯农排变】,1南和庄内6,1南和庄内7,蔡营内2区,南和庄内4,南和庄内1,大柳树内3,1大柳树内5,大柳树2号,","scope":"【影响街道/乡镇】温仁乡 【高危重要客户】无 【影响客户】大柳树村、蔡营、大兴庄、南和庄","startTime":"2020-02-14 05:34:49","stopDate":"2020-02-14 09:40:00","orgNo":"1340618","typeCode":"电网故障停限电","poweroffArea":"【全线路停电】停蠡县华泽针棉织厂,蠡县宋庄金鑫纺织厂,蔡营季兴纺纱厂,清苑县南和庄泰林车床加工门市部,清苑县蔡营国强棉纺织厂,宋庄砖厂,和庄外9【纯农排变】,大柳树外7【纯农排变】,2大兴庄外3【纯农排变】,1南和庄内7,南和庄外17【纯农排变】,南和庄内1,和庄外3【纯农排变】,保定市清苑区辉煌纺织厂01,大柳树外13【纯农排变】,大柳树外12【纯农排变】,大树村外8【纯农排变】,大树外4【纯农排变】,大柳树2号,保定市清苑区辉煌纺织厂,大柳树兴华织布厂,南和庄外1【纯农排变】,1南和庄内8,大柳树外9【纯农排变】,1大兴庄内1,清苑县锦绣纺织有限公司,1大柳树内6,南和庄外16【纯农排变】,清苑县南和庄泰林车床加工门市部01,保定百佳纺织有限公司,大柳树面粉厂,保定市弘织纺织厂,和庄外10【纯农排变】,大柳树外6【纯农排变】,南和庄外14【纯农排变】,大柳树外11【纯农排变】,蔡营内1,南和庄面粉厂,2南和庄外5【纯农排变】,大树村外10【纯农排变】,1大柳树内10,清苑县蔡家营恒达绒线加工厂,南和庄拔丝厂,大柳树幼儿园配变,南邓村外1【纯农排变】,1南和庄内10,清苑县鑫丰轧花有限公司,和庄外2【纯农排变】,和庄外13【纯农排变】,大柳树织布厂,1南和庄内9,清苑县宏宇纺织有限公司,1南和庄内6,清苑县大柳树永兴织布厂,蔡营内2区,南和庄内4,大柳树内3,1大柳树内5,大兴庄内2,南和庄建国面粉厂,大柳树内1,保定市盛寻纺织品制造有限公司,和庄外4【纯农排变】,1南和庄内5,南和庄小学配变,大树外5【纯农排变】,1大柳树内9,蔡营内3,保定柳丰轧花有限公司,腾达毛纺厂,1大柳树内8,1大柳树内4,2南和庄外6【纯农排变】,清苑县宏强砼业有限公司,蔡营外2区【纯农排变】,2南和庄外7【纯农排变】,南和庄内2,2南和庄外8【纯农排变】,南和庄外15【纯农排变】,大柳树小学配变,南和庄李广兴板厂,南和庄李建兴织布厂,1南和庄内3,1大柳树内7,和庄外12【纯农排变】,2大兴庄外2【纯农排变】,南和庄外11【纯农排变】,蔡营外1区【纯农排变】,2大兴庄外4【纯农排变】","poweroffReason":"【停电原因】由于主干０号杆电缆头打火导致３５ＫＶ王盘变电站１０ＫＶ南段庄线５１２线路全线停电 【变更送电】因抢修进度加快原因，送电时间由１２：００变更为０９：４０ 【发布渠道】通过９５５９８发布","powerTime":"2020-02-14 09:17:36","powerComm":"齐超通知已送电","subsNo":"","lineNo":"","tgNo":"","tgName":null,"infoStatus":"1","orgName":"国网清苑县供电公司","typeName":null,"infoStatusName":null,"dateDay":null,"orgNos":null,"nowTime":null,"countyName":null,"streetName":null,"villageName":null,"roadName":null,"communityName":null,"tranName":null,"sdLineName":null,"cityCode":"1340618","cityName":"国网清苑县供电公司","provinceCode":null,"stopTime":"2020-02-14 09:40:00","powerType":"全部","powerOffArea":"【全线路停电】停蠡县华泽针棉织厂,蠡县宋庄金鑫纺织厂,蔡营季兴纺纱厂,清苑县南和庄泰林车床加工门市部,清苑县蔡营国强棉纺织厂,宋庄砖厂,和庄外9【纯农排变】,大柳树外7【纯农排变】,2大兴庄外3【纯农排变】,1南和庄内7,南和庄外17【纯农排变】,南和庄内1,和庄外3【纯农排变】,保定市清苑区辉煌纺织厂01,大柳树外13【纯农排变】,大柳树外12【纯农排变】,大树村外8【纯农排变】,大树外4【纯农排变】,大柳树2号,保定市清苑区辉煌纺织厂,大柳树兴华织布厂,南和庄外1【纯农排变】,1南和庄内8,大柳树外9【纯农排变】,1大兴庄内1,清苑县锦绣纺织有限公司,1大柳树内6,南和庄外16【纯农排变】,清苑县南和庄泰林车床加工门市部01,保定百佳纺织有限公司,大柳树面粉厂,保定市弘织纺织厂,和庄外10【纯农排变】,大柳树外6【纯农排变】,南和庄外14【纯农排变】,大柳树外11【纯农排变】,蔡营内1,南和庄面粉厂,2南和庄外5【纯农排变】,大树村外10【纯农排变】,1大柳树内10,清苑县蔡家营恒达绒线加工厂,南和庄拔丝厂,大柳树幼儿园配变,南邓村外1【纯农排变】,1南和庄内10,清苑县鑫丰轧花有限公司,和庄外2【纯农排变】,和庄外13【纯农排变】,大柳树织布厂,1南和庄内9,清苑县宏宇纺织有限公司,1南和庄内6,清苑县大柳树永兴织布厂,蔡营内2区,南和庄内4,大柳树内3,1大柳树内5,大兴庄内2,南和庄建国面粉厂,大柳树内1,保定市盛寻纺织品制造有限公司,和庄外4【纯农排变】,1南和庄内5,南和庄小学配变,大树外5【纯农排变】,1大柳树内9,蔡营内3,保定柳丰轧花有限公司,腾达毛纺厂,1大柳树内8,1大柳树内4,2南和庄外6【纯农排变】,清苑县宏强砼业有限公司,蔡营外2区【纯农排变】,2南和庄外7【纯农排变】,南和庄内2,2南和庄外8【纯农排变】,南和庄外15【纯农排变】,大柳树小学配变,南和庄李广兴板厂,南和庄李建兴织布厂,1南和庄内3,1大柳树内7,和庄外12【纯农排变】,2大兴庄外2【纯农排变】,南和庄外11【纯农排变】,蔡营外1区【纯农排变】,2大兴庄外4【纯农排变】","powerOffReason":"【停电原因】由于主干０号杆电缆头打火导致３５ＫＶ王盘变电站１０ＫＶ南段庄线５１２线路全线停电 【变更送电】因抢修进度加快原因，送电时间由１２：００变更为０９：４０ 【发布渠道】通过９５５９８发布","powerOffId":"2020021413000058"},{"poweroffId":2020021413000056,"sgpoweroffId":null,"subsName":"","lineName":"10kV515孙庄线","pubTranName":"杨马庄综合8台区,杨马庄综合2台区,杨马庄综合1台区,孙庄综合2台区,孙庄综合5台区,宋庄综合4台区,孙庄综合3台区,林堡综合7台区,林堡综合14台区,杨马庄综合9台区,宋庄综合3台区,杨马庄综合11台区,宋庄综合1台区,孙庄综合4台区,孙庄综合1台区,宋庄综合5台区,杨马庄综合10台区,宋庄综合7台区,宋庄综合6台区,宋庄综合2台区,","scope":"【影响街道/乡镇】林堡乡【高危重要客户】无【影响客户】孙庄村、宋庄村、杨马庄村、林堡村","startTime":"2020-02-14 05:22:15","stopDate":"2020-02-14 12:10:00","orgNo":"1340616","typeCode":"电网故障停限电","poweroffArea":"【全线路停电】停孙庄综合5台区,宋庄综合2台区,宋庄综合3台区,宋庄综合1台区,杨马庄综合8台区,杨马庄综合2台区,杨马庄综合1台区,孙庄综合2台区,宋庄综合4台区,孙庄综合3台区,林堡综合7台区,林堡综合14台区,宋庄综合5台区,孙庄综合4台区,孙庄综合1台区,杨马庄综合10台区,宋庄综合7台区,宋庄综合6台区,杨马庄综合11台区,杨马庄综合9台区","poweroffReason":"【停电原因】由于线路接地导致３５ＫＶ林堡变电站１０ＫＶ孙庄５１５线路全线停电【变更送电】因抢修进度加快原因，送电时间由１４:００变更为１２:１０【发布渠道】通过９５５９８发布","powerTime":"2020-02-14 11:38:28","powerComm":"已送电","subsNo":"","lineNo":"","tgNo":"","tgName":null,"infoStatus":"1","orgName":"国网蠡县供电公司","typeName":null,"infoStatusName":null,"dateDay":null,"orgNos":null,"nowTime":null,"countyName":null,"streetName":null,"villageName":null,"roadName":null,"communityName":null,"tranName":null,"sdLineName":null,"cityCode":"1340616","cityName":"国网蠡县供电公司","provinceCode":null,"stopTime":"2020-02-14 12:10:00","powerType":"全部","powerOffArea":"【全线路停电】停孙庄综合5台区,宋庄综合2台区,宋庄综合3台区,宋庄综合1台区,杨马庄综合8台区,杨马庄综合2台区,杨马庄综合1台区,孙庄综合2台区,宋庄综合4台区,孙庄综合3台区,林堡综合7台区,林堡综合14台区,宋庄综合5台区,孙庄综合4台区,孙庄综合1台区,杨马庄综合10台区,宋庄综合7台区,宋庄综合6台区,杨马庄综合11台区,杨马庄综合9台区","powerOffReason":"【停电原因】由于线路接地导致３５ＫＶ林堡变电站１０ＫＶ孙庄５１５线路全线停电【变更送电】因抢修进度加快原因，送电时间由１４:００变更为１２:１０【发布渠道】通过９５５９８发布","powerOffId":"2020021413000056"},{"poweroffId":2020021413000053,"sgpoweroffId":null,"subsName":"","lineName":"10kV511潘营线","pubTranName":"王辛庄综合5台区,王辛庄综合4台区,王辛庄综合9台区,王辛庄综合10台区,王辛庄综合6台区,王辛庄综合11台区,客户投资_王辛庄综合3台区,王辛庄综合1台区,王辛庄综合13台区【冬季供暖设施】,王辛庄综合14台区,林堡综合21台区,王辛庄综合7台区,王辛庄综合8台区,王辛庄综合12台区.,王辛庄综合2台区,王辛庄综合3台区,","scope":"【影响街道/乡镇】林堡乡【高危重要客户】无【影响客户】王辛庄村","startTime":"2020-02-14 05:17:27","stopDate":"2020-02-14 08:00:00","orgNo":"1340616","typeCode":"电网故障停限电","poweroffArea":"【全线路停电】停蛮营道,王辛庄综合8台区,王辛庄综合12台区.,王辛庄综合7台区,面粉厂,志敏房东,王辛庄综合2台区,板厂,渡槽西,潘西砖厂,王辛庄综合9台区,渡槽,王辛庄综合3台区,王辛庄综合1台区,林曲路南新变,（2）6台区西营道,中国联合网络通信有限公司蠡县分公司变压器,蛮营道东,王辛庄综合6台区,沟南,王辛庄综合5台区,加弹厂北,砖厂北,王辛庄村东,志敏房,王辛庄小学西,王辛庄综合10台区,王辛庄综合4台区,加弹厂浇地,林曲南1号,林曲北1号,王辛庄综合11台区,林曲北2号,朱坟,客户投资_王辛庄综合3台区,王辛庄综合13台区【冬季供暖设施】,王辛庄综合14台区,林堡综合21台区","poweroffReason":"【停电原因】由于站外开关掉闸导致３５ＫＶ林堡变电站１０ＫＶ潘营５１１线路全线停电【变更送电】因抢修进度加快原因，送电时间由１４：００变更为０８：００【发布渠道】通过９５５９８发布","powerTime":"2020-02-14 07:09:58","powerComm":"已送电","subsNo":"","lineNo":"","tgNo":"","tgName":null,"infoStatus":"1","orgName":"国网蠡县供电公司","typeName":null,"infoStatusName":null,"dateDay":null,"orgNos":null,"nowTime":null,"countyName":null,"streetName":null,"villageName":null,"roadName":null,"communityName":null,"tranName":null,"sdLineName":null,"cityCode":"1340616","cityName":"国网蠡县供电公司","provinceCode":null,"stopTime":"2020-02-14 08:00:00","powerType":"全部","powerOffArea":"【全线路停电】停蛮营道,王辛庄综合8台区,王辛庄综合12台区.,王辛庄综合7台区,面粉厂,志敏房东,王辛庄综合2台区,板厂,渡槽西,潘西砖厂,王辛庄综合9台区,渡槽,王辛庄综合3台区,王辛庄综合1台区,林曲路南新变,（2）6台区西营道,中国联合网络通信有限公司蠡县分公司变压器,蛮营道东,王辛庄综合6台区,沟南,王辛庄综合5台区,加弹厂北,砖厂北,王辛庄村东,志敏房,王辛庄小学西,王辛庄综合10台区,王辛庄综合4台区,加弹厂浇地,林曲南1号,林曲北1号,王辛庄综合11台区,林曲北2号,朱坟,客户投资_王辛庄综合3台区,王辛庄综合13台区【冬季供暖设施】,王辛庄综合14台区,林堡综合21台区","powerOffReason":"【停电原因】由于站外开关掉闸导致３５ＫＶ林堡变电站１０ＫＶ潘营５１１线路全线停电【变更送电】因抢修进度加快原因，送电时间由１４：００变更为０８：００【发布渠道】通过９５５９８发布","powerOffId":"2020021413000053"},{"poweroffId":2020021413000051,"sgpoweroffId":null,"subsName":"","lineName":"10kV516东西营线","pubTranName":"东营综合10台区【冬季供暖设施】,西营综合8台区,西营农排7台区【纯农排变】,客户投资_东营综合3台区,东营综合4台区,东营综合6台区,东营综合1台区,东营综合9台区,东营综合5台区,西营农排3台区【纯农排变】,西营综合7台区,西营综合6台区,西营综合1台区,东营综合8台区,西营农排9台区【纯农排变】,西营综合3台区,客户投资_西营综合5台区,东营综合11台区,客户投资_东营综合2台区,西营农排1台区变压器,西营农排4台区【纯农排变】,东营综合12台区,西营综合2台区,西营综合4台区,东营综合7台区,","scope":"【影响街道/乡镇】林堡乡【高危重要客户】无【影响客户】西营村、东营村","startTime":"2020-02-14 05:12:35","stopDate":"2020-02-14 10:30:00","orgNo":"1340616","typeCode":"电网故障停限电","poweroffArea":"【全线路停电】停东营综合4台区,西营农排1台区变压器,西营农排4台区【纯农排变】,东营综合12台区,东营综合8台区,东营综合6台区,西营农排9台区【纯农排变】,西营综合3台区,客户投资_西营综合5台区,大朋,东营温馨家园,林堡5号,东营村委会,东营浇地1号,西营综合6台区,西营农排6台区【纯农排变】,西营农排5台区【纯农排变】,西营综合1台区,东营综合5台区,客户投资_东营综合2台区,东营综合1台区,西营农排3台区【纯农排变】,西营综合7台区,东营综合11台区,林堡六,东营综合10台区【冬季供暖设施】,西营综合8台区,西营农排7台区【纯农排变】,西营综合4台区,东营村浇地5号东,东营浇地10号,东营浇地7号西,0469455377-东营村浇地五号-专变-46813156-东营村浇地5号,东营浇地8号,东营浇地7号,东营浇地6号东,东营浇地3号,东营浇地2号,东营村东北,东营浇地6号,东营浇地4号,东营浇地3号东,东营浇地10号东,东营综合7台区,渔池,东营综合9台区,东营浇地9号,蠡县磊鑫砂石料场,东营砖厂2,东营砖厂1,西营综合2台区,客户投资_东营综合3台区,保定德鑫纺织品制造有限公司变压器","poweroffReason":"【停电原因】由于站内开关掉闸导致３５ＫＶ林堡变电站１０ＫＶ东西营５１６线路全线停电【变更送电】因抢修进度加快原因，送电时间由１４：００变更为１０：３０【发布渠道】通过９５５９８发布","powerTime":"2020-02-14 09:57:17","powerComm":"已送电","subsNo":"","lineNo":"","tgNo":"","tgName":null,"infoStatus":"1","orgName":"国网蠡县供电公司","typeName":null,"infoStatusName":null,"dateDay":null,"orgNos":null,"nowTime":null,"countyName":null,"streetName":null,"villageName":null,"roadName":null,"communityName":null,"tranName":null,"sdLineName":null,"cityCode":"1340616","cityName":"国网蠡县供电公司","provinceCode":null,"stopTime":"2020-02-14 10:30:00","powerType":"全部","powerOffArea":"【全线路停电】停东营综合4台区,西营农排1台区变压器,西营农排4台区【纯农排变】,东营综合12台区,东营综合8台区,东营综合6台区,西营农排9台区【纯农排变】,西营综合3台区,客户投资_西营综合5台区,大朋,东营温馨家园,林堡5号,东营村委会,东营浇地1号,西营综合6台区,西营农排6台区【纯农排变】,西营农排5台区【纯农排变】,西营综合1台区,东营综合5台区,客户投资_东营综合2台区,东营综合1台区,西营农排3台区【纯农排变】,西营综合7台区,东营综合11台区,林堡六,东营综合10台区【冬季供暖设施】,西营综合8台区,西营农排7台区【纯农排变】,西营综合4台区,东营村浇地5号东,东营浇地10号,东营浇地7号西,0469455377-东营村浇地五号-专变-46813156-东营村浇地5号,东营浇地8号,东营浇地7号,东营浇地6号东,东营浇地3号,东营浇地2号,东营村东北,东营浇地6号,东营浇地4号,东营浇地3号东,东营浇地10号东,东营综合7台区,渔池,东营综合9台区,东营浇地9号,蠡县磊鑫砂石料场,东营砖厂2,东营砖厂1,西营综合2台区,客户投资_东营综合3台区,保定德鑫纺织品制造有限公司变压器","powerOffReason":"【停电原因】由于站内开关掉闸导致３５ＫＶ林堡变电站１０ＫＶ东西营５１６线路全线停电【变更送电】因抢修进度加快原因，送电时间由１４：００变更为１０：３０【发布渠道】通过９５５９８发布","powerOffId":"2020021413000051"},{"poweroffId":2020021413000048,"sgpoweroffId":null,"subsName":"","lineName":"10kV杨漫撒线535","pubTranName":"孙漫撒08变压器,杨漫撒11号变压器,孙漫撒13变压器,杨漫撒03号变压器,杨漫撒19号变压器,杨漫撒26号变压器,孙漫撒14变压器,杨漫撒39号变压器,高碑店市华宇燃气开发有限公司,孙漫撒10变压器,高碑店市孙慢撒利华铸造厂变压器,河北路路通物流有限公司变压器,杨漫撒排灌东2（磁卡）【纯农排变】,杨漫撒01号变压器,杨漫撒27号变压器,杨漫撒25号变压器,河北戌兴实业有限公司2,孙漫撒北地变压器【纯农排变】,高碑店市北城晟奇锅炉制造有限公司变压器01,河北京石高速公路开发有限公司,宏伟达橡塑3,杨漫撒28号变压器,杨漫撒35号变压器,0721619345-河北帅旗房地产开发有限公司02,0721619345-河北帅旗房地产开发有限公司01,杨漫撒南东地变压器【纯农排变】,杨漫撒18号变压器,孙漫撒15变压器,杨漫撒西地变压器【纯农排变】,高碑店市北城晟奇锅炉制造有限公司变压器02,保定尚豪置地房地产开发有限责任公司,杨漫撒31号变压器,孙漫撒05变压器,杨漫撒22号变压器,杨漫撒05号变压器,杨漫撒南西地变压器【纯农排变】,0710603935-高碑店市路灯管理办公室02,孙漫撒09变压器,杨漫撒33号变压器,孙漫撒07变压器,杨漫撒北地变压器【纯农排变】,孙漫撒20变压器,高碑店市北城晟奇锅炉制造有限公司,孙漫撒01变压器,杨漫撒08号变压器,杨漫撒36号变压器,杨漫撒29号变压器,孙漫撒17变压器,杨漫撒13号变压器,杨漫撒12号变压器,杨漫撒15号变压器,孙漫撒16变压器,杨漫撒07号变压器,杨漫撒09号变压器,杨漫撒34号变压器,杨漫撒06号变压器,杨漫撒17号变压器,孙漫撒18变压器,杨漫撒16号变压器,杨漫撒14号变压器,杨漫撒04号变压器,杨漫撒30号变压器,杨漫撒38号变压器,孙漫撒19变压器,高速路充电站配电变压器,杨漫撒02号变压器,0387450160-高碑店市宏济医院-专变-45283410-杨炳成,宏伟达橡塑1,杨漫撒24号变压器,孙漫撒03变压器,孙漫撒11变压器,孙漫撒02变压器,孙漫撒06变压器,杨漫撒20号变压器,杨漫撒32号变压器,杨漫撒23号变压器,孙漫撒04变压器,孙漫撒东2地变压器【纯农排变】,杨漫撒东北地变压器【纯农排变】,河北戌兴投资有限公司变压器,孙漫撒12变压器,杨漫撒北西地变压器【纯农排变】,杨漫东地（磁卡）【纯农排变】,0709026282-高碑店市路灯管理办公室01,杨漫撒小学,合圃畜牧养殖厂变压器,杨漫撒10号变压器,河北戌兴实业有限公司,杨漫撒37号变压器,杨漫撒21号变压器,","scope":"【影响街道/乡镇】北城办事处、北城路 【高危重要客户】无 【影响客户】杨漫撒村","startTime":"2020-02-14 05:01:32","stopDate":"2020-02-14 11:00:00","orgNo":"1340612","typeCode":"电网故障停限电","poweroffArea":"【全线路停电】停杨漫撒37号变压器,杨漫撒小学,孙漫撒08变压器,杨漫撒11号变压器,孙漫撒13变压器,杨漫撒03号变压器,杨漫撒19号变压器,杨漫撒26号变压器,孙漫撒14变压器,杨漫撒21号变压器,杨漫撒24号变压器,孙漫撒03变压器,孙漫撒11变压器,孙漫撒02变压器,孙漫撒06变压器,杨漫撒20号变压器,杨漫撒32号变压器,杨漫撒23号变压器,孙漫撒04变压器,孙漫撒12变压器,杨漫撒10号变压器,孙漫撒10变压器,杨漫撒25号变压器,杨漫撒28号变压器,杨漫撒27号变压器,孙漫撒15变压器,杨漫撒22号变压器,杨漫撒05号变压器,孙漫撒20变压器,孙漫撒05变压器,孙漫撒01变压器,杨漫撒08号变压器,杨漫撒29号变压器,杨漫撒12号变压器,杨漫撒15号变压器,孙漫撒16变压器,杨漫撒07号变压器,杨漫撒09号变压器,杨漫撒17号变压器,孙漫撒18变压器,杨漫撒16号变压器,杨漫撒14号变压器,杨漫撒04号变压器,杨漫撒30号变压器,杨漫撒38号变压器,杨漫撒39号变压器,杨漫撒01号变压器,杨漫撒35号变压器,杨漫撒18号变压器,杨漫撒31号变压器,孙漫撒09变压器,孙漫撒07变压器,杨漫撒33号变压器,杨漫撒36号变压器,孙漫撒17变压器,杨漫撒13号变压器,杨漫撒34号变压器,杨漫撒06号变压器,孙漫撒19变压器,高速路充电站配电变压器,杨漫撒02号变压器,0387450160-高碑店市宏济医院-专变-45283410-杨炳成,宏伟达橡塑1,河北京石高速公路开发有限公司,宏伟达橡塑3,河北戌兴投资有限公司变压器,孙漫撒北地变压器【纯农排变】,杨漫东地（磁卡）【纯农排变】,孙漫撒东2地变压器【纯农排变】,杨漫撒东北地变压器【纯农排变】,河北戌兴实业有限公司2,保定尚豪置地房地产开发有限责任公司,0709026282-高碑店市路灯管理办公室01,合圃畜牧养殖厂变压器,河北戌兴实业有限公司,高碑店市华宇燃气开发有限公司,高碑店市孙慢撒利华铸造厂变压器,杨漫撒排灌东2（磁卡）【纯农排变】,河北路路通物流有限公司变压器,杨漫撒南东地变压器【纯农排变】,高碑店市北城晟奇锅炉制造有限公司变压器02,高碑店市北城晟奇锅炉制造有限公司变压器01,0710603935-高碑店市路灯管理办公室02,杨漫撒北地变压器【纯农排变】,高碑店市北城晟奇锅炉制造有限公司,0721619345-河北帅旗房地产开发有限公司02,0721619345-河北帅旗房地产开发有限公司01,杨漫撒西地变压器【纯农排变】,杨漫撒南西地变压器【纯农排变】,杨漫撒北西地变压器【纯农排变】","poweroffReason":"【停电原因】由于北城锅炉直瓶碎导致１１０ＫＶ各庄变电站１０ＫＶ杨漫撒５３５线路全线停电 【变更送电】因抢修进度加快原因，送电时间由１２：００变更为１１：００ 【发布渠道】通过９５５９８发布","powerTime":"2020-02-14 10:32:14","powerComm":"已送电","subsNo":"","lineNo":"","tgNo":"","tgName":null,"infoStatus":"1","orgName":"国网高碑店市供电公司","typeName":null,"infoStatusName":null,"dateDay":null,"orgNos":null,"nowTime":null,"countyName":null,"streetName":null,"villageName":null,"roadName":null,"communityName":null,"tranName":null,"sdLineName":null,"cityCode":"1340612","cityName":"国网高碑店市供电公司","provinceCode":null,"stopTime":"2020-02-14 11:00:00","powerType":"全部","powerOffArea":"【全线路停电】停杨漫撒37号变压器,杨漫撒小学,孙漫撒08变压器,杨漫撒11号变压器,孙漫撒13变压器,杨漫撒03号变压器,杨漫撒19号变压器,杨漫撒26号变压器,孙漫撒14变压器,杨漫撒21号变压器,杨漫撒24号变压器,孙漫撒03变压器,孙漫撒11变压器,孙漫撒02变压器,孙漫撒06变压器,杨漫撒20号变压器,杨漫撒32号变压器,杨漫撒23号变压器,孙漫撒04变压器,孙漫撒12变压器,杨漫撒10号变压器,孙漫撒10变压器,杨漫撒25号变压器,杨漫撒28号变压器,杨漫撒27号变压器,孙漫撒15变压器,杨漫撒22号变压器,杨漫撒05号变压器,孙漫撒20变压器,孙漫撒05变压器,孙漫撒01变压器,杨漫撒08号变压器,杨漫撒29号变压器,杨漫撒12号变压器,杨漫撒15号变压器,孙漫撒16变压器,杨漫撒07号变压器,杨漫撒09号变压器,杨漫撒17号变压器,孙漫撒18变压器,杨漫撒16号变压器,杨漫撒14号变压器,杨漫撒04号变压器,杨漫撒30号变压器,杨漫撒38号变压器,杨漫撒39号变压器,杨漫撒01号变压器,杨漫撒35号变压器,杨漫撒18号变压器,杨漫撒31号变压器,孙漫撒09变压器,孙漫撒07变压器,杨漫撒33号变压器,杨漫撒36号变压器,孙漫撒17变压器,杨漫撒13号变压器,杨漫撒34号变压器,杨漫撒06号变压器,孙漫撒19变压器,高速路充电站配电变压器,杨漫撒02号变压器,0387450160-高碑店市宏济医院-专变-45283410-杨炳成,宏伟达橡塑1,河北京石高速公路开发有限公司,宏伟达橡塑3,河北戌兴投资有限公司变压器,孙漫撒北地变压器【纯农排变】,杨漫东地（磁卡）【纯农排变】,孙漫撒东2地变压器【纯农排变】,杨漫撒东北地变压器【纯农排变】,河北戌兴实业有限公司2,保定尚豪置地房地产开发有限责任公司,0709026282-高碑店市路灯管理办公室01,合圃畜牧养殖厂变压器,河北戌兴实业有限公司,高碑店市华宇燃气开发有限公司,高碑店市孙慢撒利华铸造厂变压器,杨漫撒排灌东2（磁卡）【纯农排变】,河北路路通物流有限公司变压器,杨漫撒南东地变压器【纯农排变】,高碑店市北城晟奇锅炉制造有限公司变压器02,高碑店市北城晟奇锅炉制造有限公司变压器01,0710603935-高碑店市路灯管理办公室02,杨漫撒北地变压器【纯农排变】,高碑店市北城晟奇锅炉制造有限公司,0721619345-河北帅旗房地产开发有限公司02,0721619345-河北帅旗房地产开发有限公司01,杨漫撒西地变压器【纯农排变】,杨漫撒南西地变压器【纯农排变】,杨漫撒北西地变压器【纯农排变】","powerOffReason":"【停电原因】由于北城锅炉直瓶碎导致１１０ＫＶ各庄变电站１０ＫＶ杨漫撒５３５线路全线停电 【变更送电】因抢修进度加快原因，送电时间由１２：００变更为１１：００ 【发布渠道】通过９５５９８发布","powerOffId":"2020021413000048"},{"poweroffId":2020021413000045,"sgpoweroffId":null,"subsName":"","lineName":"老里线562","pubTranName":"新张里光2,张里光3,张里村排5【纯农排变】,老里光8变压器,老里光2变压器,老里光7变压器,张里光1,老里光4变压器,老里光1变压器,老里光12【灾后重建】,老里光9变压器,老里光6变压器,老里光3变压器,老里光10变压器,西里光4,新西里光2,西里光3,张里排3变压器,老里光5变压器,张里光4,西里光5【2019年预安排】,老里光11变压器,","scope":"【影响街道/乡镇】杨村乡 【高危重要客户】无 【影响客户】西里村、老里村、张里村、中连部分用户","startTime":"2020-02-14 04:36:13","stopDate":"2020-02-14 09:30:00","orgNo":"1340609","typeCode":"电网故障停限电","poweroffArea":"【全线路停电】停西里光4,老里排1【纯农排变】,张里排4【纯农排变】,西里光3,老里排4【纯农排变】,老里光4变压器,老里光12【灾后重建】,0696765261-定兴县老里村幼儿园-专变-240818890-160,老里光9变压器,老里光6变压器,新西里光2,老里排2【纯农排变】,张里排2【纯农排变】,西里排2【纯农排变】,老里光2变压器,张里排3变压器,西里排1【纯农排变】,老里光5变压器,老里排3【纯农排变】,中连排3【纯农排变】,张里光4,西里光5【2019年预安排】,中连排2【纯农排变】,张里排1【纯农排变】,0696791594-定兴县西里小学-专变-240818964-200,老里光1变压器,新张里光2,张里光3,西里排3【纯农排变】,张里村排5【纯农排变】,老里光8变压器,老里光7变压器,张里光1,西里光1,老里排5【纯农排变】,老里光11变压器,老里光3变压器,西里排4【纯农排变】,老里光10变压器,中国移动西里基站-50","poweroffReason":"【停电原因】由于主干６５号杆至６６号杆断线导致２２０ＫＶ柳卓开关站老里线５６２线路全线停电 【变更送电】因抢修进度加快原因，送电时间由１２：００变更为０９：３０ 【发布渠道】通过９５５９８发布","powerTime":"2020-02-14 08:56:42","powerComm":"已送电","subsNo":"","lineNo":"","tgNo":"","tgName":null,"infoStatus":"1","orgName":"国网定兴县供电公司","typeName":null,"infoStatusName":null,"dateDay":null,"orgNos":null,"nowTime":null,"countyName":null,"streetName":null,"villageName":null,"roadName":null,"communityName":null,"tranName":null,"sdLineName":null,"cityCode":"1340609","cityName":"国网定兴县供电公司","provinceCode":null,"stopTime":"2020-02-14 09:30:00","powerType":"全部","powerOffArea":"【全线路停电】停西里光4,老里排1【纯农排变】,张里排4【纯农排变】,西里光3,老里排4【纯农排变】,老里光4变压器,老里光12【灾后重建】,0696765261-定兴县老里村幼儿园-专变-240818890-160,老里光9变压器,老里光6变压器,新西里光2,老里排2【纯农排变】,张里排2【纯农排变】,西里排2【纯农排变】,老里光2变压器,张里排3变压器,西里排1【纯农排变】,老里光5变压器,老里排3【纯农排变】,中连排3【纯农排变】,张里光4,西里光5【2019年预安排】,中连排2【纯农排变】,张里排1【纯农排变】,0696791594-定兴县西里小学-专变-240818964-200,老里光1变压器,新张里光2,张里光3,西里排3【纯农排变】,张里村排5【纯农排变】,老里光8变压器,老里光7变压器,张里光1,西里光1,老里排5【纯农排变】,老里光11变压器,老里光3变压器,西里排4【纯农排变】,老里光10变压器,中国移动西里基站-50","powerOffReason":"【停电原因】由于主干６５号杆至６６号杆断线导致２２０ＫＶ柳卓开关站老里线５６２线路全线停电 【变更送电】因抢修进度加快原因，送电时间由１２：００变更为０９：３０ 【发布渠道】通过９５５９８发布","powerOffId":"2020021413000045"},{"poweroffId":2020021413000037,"sgpoweroffId":null,"subsName":"","lineName":"10KV高渠511","pubTranName":"汪辛庄1086,","scope":"【影响街道/乡镇】高官庄镇 【高危重要客户】无 【影响客户】汪辛庄","startTime":"2020-02-14 04:20:49","stopDate":"2020-02-14 11:30:00","orgNo":"1340626","typeCode":"电网故障停限电","poweroffArea":"【单台区停电】停汪辛庄1086","poweroffReason":"【停电原因】由于低压线断线导致３５ＫＶ高官庄变电站１０ＫＶ高渠５１１线路汪辛庄１０８６公变台区停电 【变更送电】因抢修进度加快原因，送电时间由１５：００变更为１１：３０ 【发布渠道】通过９５５９８发布","powerTime":"2020-02-14 11:00:12","powerComm":"恢复送电","subsNo":"","lineNo":"","tgNo":"","tgName":null,"infoStatus":"1","orgName":"国网涿州市供电公司","typeName":null,"infoStatusName":null,"dateDay":null,"orgNos":null,"nowTime":null,"countyName":null,"streetName":null,"villageName":null,"roadName":null,"communityName":null,"tranName":null,"sdLineName":null,"cityCode":"1340626","cityName":"国网涿州市供电公司","provinceCode":null,"stopTime":"2020-02-14 11:30:00","powerType":"全部","powerOffArea":"【单台区停电】停汪辛庄1086","powerOffReason":"【停电原因】由于低压线断线导致３５ＫＶ高官庄变电站１０ＫＶ高渠５１１线路汪辛庄１０８６公变台区停电 【变更送电】因抢修进度加快原因，送电时间由１５：００变更为１１：３０ 【发布渠道】通过９５５９８发布","powerOffId":"2020021413000037"},{"poweroffId":2020021413000026,"sgpoweroffId":null,"subsName":"","lineName":"10KV新田屯516","pubTranName":"新田屯1051,","scope":"【影响街道/乡镇】高官庄镇 【高危重要客户】无 【影响客户】新田屯","startTime":"2020-02-14 03:54:53","stopDate":"2020-02-14 14:20:00","orgNo":"1340626","typeCode":"电网故障停限电","poweroffArea":"【单台区停电】停新田屯1051","poweroffReason":"【停电原因】由于低压线断线导致３５ＫＶ高官庄变电站１０ＫＶ新田屯５１６线路新田屯１０５１公变台区停电 【变更送电】因抢修进度加快原因，送电时间由１５：００变更为１４：２０ 【发布渠道】通过９５５９８发布","powerTime":"2020-02-14 13:46:51","powerComm":"恢复送电","subsNo":"","lineNo":"","tgNo":"","tgName":null,"infoStatus":"1","orgName":"国网涿州市供电公司","typeName":null,"infoStatusName":null,"dateDay":null,"orgNos":null,"nowTime":null,"countyName":null,"streetName":null,"villageName":null,"roadName":null,"communityName":null,"tranName":null,"sdLineName":null,"cityCode":"1340626","cityName":"国网涿州市供电公司","provinceCode":null,"stopTime":"2020-02-14 14:20:00","powerType":"全部","powerOffArea":"【单台区停电】停新田屯1051","powerOffReason":"【停电原因】由于低压线断线导致３５ＫＶ高官庄变电站１０ＫＶ新田屯５１６线路新田屯１０５１公变台区停电 【变更送电】因抢修进度加快原因，送电时间由１５：００变更为１４：２０ 【发布渠道】通过９５５９８发布","powerOffId":"2020021413000026"},{"poweroffId":2020021413000009,"sgpoweroffId":null,"subsName":"","lineName":"大任线514","pubTranName":"五里窑光4,大田新光4,吴村排3变【纯农排变】,大任光5【2018年四批补强】,吴村排4【纯农排变】,小任光2【2018年四批补强】,交警大队公用,小任村内光,田候光8【2018年美丽乡村】,西厢盖光1,新田候光4,东相盖光3,落堡公用5【2018年重过载】,吴村新光10,大田新混3,吴村新光3,五里窑光2,南大位光5,吴村新光2,北大位光4,北大位光6,吴村排6【纯农排变】,北大位光3,落堡公用2【2018年节能变】,大任新光2,东相盖光6【2018年美丽乡村】,大任光6【2018年四批补强】,吴村新光1,西陈庄光5,吴村新排3【纯农排变】,吴村新光6,大田新光1,西陈庄光2,东相盖光1,吴村排2变【纯农排变】,东相盖光4【2018年美丽乡村】,西相盖光5【2018年美丽乡村】,五里窑光1,五里窑光3,北大位排林场【纯农排变】,大任光4,究室新排1【纯农排变】,田候养殖小区公用,田候光9【2018年美丽乡村】,田侯光3【2018年四批补强】,吴村新光7,北大位排5【纯农排变】,东相盖光5【2018年美丽乡村】,北大位排4【纯农排变】,落堡光6【2018年四批补强】,大田新光8,究室光6,西陈庄光4,南大位光7,大田新光5,大任市场公用,南大位排8【纯农排变】,南大位光6,吴村排8【纯农排变】,田候光7【2018年美丽乡村】,北大位光2,南大位光3,大田新光6,吴村排7【纯农排变】,南大位排7【纯农排变】,大任光1,五里窑光5,吴村排5【纯农排变】,田候光1,落堡公用4,大田新光7,大田新光3,西相盖光3【2018年美丽乡村】,西陈庄光3,吴村新光5,吴村新光4,吴村光9,落堡公用【2018年重过载】,大田新光2,五里窑新混1,吴村新光8,南大位光4,新落堡公用1,田候光5,东相盖光2,西陈庄光1,田候光2,","scope":"【影响街道/乡镇】落堡乡 【高危重要客户】无 【影响客户】陈庄、东相盖、西相盖、东落堡、南大位、北大位、大任村、小任村、吴村、田候、五里窑、大田、职中、郭坊、郭家亭、古桑","startTime":"2020-02-14 02:44:54","stopDate":"2020-02-14 04:50:00","orgNo":"1340609","typeCode":"电网故障停限电","poweroffArea":"【全线路停电】停大任排3【纯农排变】,西陈庄光3,北大位光4,五里窑光1,大任光3,北大位光6,宏洁服饰-200,0694660128-定兴县职业技术教育中心-专变-237548911-职教中心1,吴村新光3,落堡公用2【2018年节能变】,万通蔬菜100变压器,田候排1【纯农排变】,大任新光2,亨通面粉厂100,小任排【纯农排变】,田候混3,交警大队公用,田候排7【纯农排变】,北大位排4【纯农排变】,0691830072-定兴县东落堡乡中心小学-专变-235623362-东落堡中心小学-1250,兴澄萝卜合作社,东相盖排2【纯农排变】,大任市场公用,大田新光6,南大位排7【纯农排变】,小任光2【2018年四批补强】,南大位排4【纯农排变】,西厢盖排5【纯农排变】,吴村新排3【纯农排变】,新落堡公用1,东相盖光1,雄浩宇纸制品—400,南大位排8【纯农排变】,田候光9【2018年美丽乡村】,燕园牛肉饲养厂-200,160,究室新排1【纯农排变】,南大位光5,吴村排6【纯农排变】,北大位光3,富友蔬菜销售合作社,究室光6,究室排2【纯农排变】,南大位排3【纯农排变】,田候排5【纯农排变】,落堡排12【纯农排变】,常兴加油站,*昌胜煤厂,*南大养殖厂,五里窑光3,北大位光1,大田新光7,亨利面粉厂,大田新光3,田候光6,北大位光2,田候光1,北大位混1,大任排1【纯农排变】,大任排4【纯农排变】,定兴县联谊机械加工部,田候光5,南大位排1【纯农排变】,西陈庄光4,田候光8【2018年美丽乡村】,田侯面粉厂,大田新混3,落堡公用5【2018年重过载】,田候养殖小区公用,西相盖光3【2018年美丽乡村】,田候排2【纯农排变】,吴村新光8,西关排排【纯农排变】,李旭东-排,东相盖光4【2018年美丽乡村】,南大位光7,南大位光6,大田混3,100配变,古桑排7【纯农排变】,奥朗天然气-160,盛典广告装饰,职中3,吴村排5【纯农排变】,落堡公用4,田候排4【纯农排变】,落堡排13【纯农排变】,西相盖光5【2018年美丽乡村】,大任光4,田侯光3【2018年四批补强】,大田排2【纯农排变】,大田新光4,*保定恒兴食品有限公司1000,大任光5【2018年四批补强】,落堡混1,南大位光3,五里窑排2【纯农排变】,*职中2,富友蔬菜2号变-315,中国网通（集团）有限公司定兴县分公司,东相盖光5【2018年美丽乡村】,五里窑混1,吴村新光10,0694660128-定兴县职业技术教育中心-专变-237550487-职教中心2,燕城物业250,五里窑光2,古桑排2【纯农排变】,吴村新光2,南大位排5【纯农排变】,南大位光4,南大位排2【纯农排变】,吴村新光5,东相盖光2,西陈庄光1,田候光2,大任排2【纯农排变】,西陈庄光5,吴村新光6,小任光1,北大位排5【纯农排变】,大田排1【纯农排变】,汇农农牧专业合作社200,落堡光6【2018年四批补强】,田候排8【纯农排变】,大田新光8,落堡混11,北大位光5,东相盖排1【纯农排变】,吴村新光1,北大位排林场【纯农排变】,五里窑排3【纯农排变】,田候光7【2018年美丽乡村】,0694744479-定兴县东落堡乡田侯小学-专变-238553620-田侯小学,大田新光5,亿飞腾水泥制品-200,吴村排8【纯农排变】,吴村排7【纯农排变】,吴村新光4,定兴县速凝商品混凝土制造有限公司-250,吴村光9,田候混6,落堡公用【2018年重过载】,大田新光2,北大位排2【纯农排变】,落堡新村排2【纯农排变】,大任光1,北大位新混1,大任光6【2018年四批补强】,大田新光1,新田候光4,同舟粮食购销公司100,西陈庄光2,五里窑光4,东相盖光6【2018年美丽乡村】,吴村排4【纯农排变】,佳兴玉米加工厂-250,吴村排2变【纯农排变】,吴村新光7,落堡排15【纯农排变】,东相盖光3,吴村排3变【纯农排变】,落堡新村排1【纯农排变】,诚德胜家庭牧场-250,五里窑光5,古桑排1【纯农排变","poweroffReason":"【停电原因】由于站外开关跳闸导致３５ＫＶ景安变电站大任线５１４线路全线停电 【变更送电】因抢修进度加快原因，送电时间由０９：００变更为０４：５０ 【发布渠道】通过９５５９８发布","powerTime":"2020-02-14 04:21:56","powerComm":"已送电","subsNo":"","lineNo":"","tgNo":"","tgName":null,"infoStatus":"1","orgName":"国网定兴县供电公司","typeName":null,"infoStatusName":null,"dateDay":null,"orgNos":null,"nowTime":null,"countyName":null,"streetName":null,"villageName":null,"roadName":null,"communityName":null,"tranName":null,"sdLineName":null,"cityCode":"1340609","cityName":"国网定兴县供电公司","provinceCode":null,"stopTime":"2020-02-14 04:50:00","powerType":"全部","powerOffArea":"【全线路停电】停大任排3【纯农排变】,西陈庄光3,北大位光4,五里窑光1,大任光3,北大位光6,宏洁服饰-200,0694660128-定兴县职业技术教育中心-专变-237548911-职教中心1,吴村新光3,落堡公用2【2018年节能变】,万通蔬菜100变压器,田候排1【纯农排变】,大任新光2,亨通面粉厂100,小任排【纯农排变】,田候混3,交警大队公用,田候排7【纯农排变】,北大位排4【纯农排变】,0691830072-定兴县东落堡乡中心小学-专变-235623362-东落堡中心小学-1250,兴澄萝卜合作社,东相盖排2【纯农排变】,大任市场公用,大田新光6,南大位排7【纯农排变】,小任光2【2018年四批补强】,南大位排4【纯农排变】,西厢盖排5【纯农排变】,吴村新排3【纯农排变】,新落堡公用1,东相盖光1,雄浩宇纸制品—400,南大位排8【纯农排变】,田候光9【2018年美丽乡村】,燕园牛肉饲养厂-200,160,究室新排1【纯农排变】,南大位光5,吴村排6【纯农排变】,北大位光3,富友蔬菜销售合作社,究室光6,究室排2【纯农排变】,南大位排3【纯农排变】,田候排5【纯农排变】,落堡排12【纯农排变】,常兴加油站,*昌胜煤厂,*南大养殖厂,五里窑光3,北大位光1,大田新光7,亨利面粉厂,大田新光3,田候光6,北大位光2,田候光1,北大位混1,大任排1【纯农排变】,大任排4【纯农排变】,定兴县联谊机械加工部,田候光5,南大位排1【纯农排变】,西陈庄光4,田候光8【2018年美丽乡村】,田侯面粉厂,大田新混3,落堡公用5【2018年重过载】,田候养殖小区公用,西相盖光3【2018年美丽乡村】,田候排2【纯农排变】,吴村新光8,西关排排【纯农排变】,李旭东-排,东相盖光4【2018年美丽乡村】,南大位光7,南大位光6,大田混3,100配变,古桑排7【纯农排变】,奥朗天然气-160,盛典广告装饰,职中3,吴村排5【纯农排变】,落堡公用4,田候排4【纯农排变】,落堡排13【纯农排变】,西相盖光5【2018年美丽乡村】,大任光4,田侯光3【2018年四批补强】,大田排2【纯农排变】,大田新光4,*保定恒兴食品有限公司1000,大任光5【2018年四批补强】,落堡混1,南大位光3,五里窑排2【纯农排变】,*职中2,富友蔬菜2号变-315,中国网通（集团）有限公司定兴县分公司,东相盖光5【2018年美丽乡村】,五里窑混1,吴村新光10,0694660128-定兴县职业技术教育中心-专变-237550487-职教中心2,燕城物业250,五里窑光2,古桑排2【纯农排变】,吴村新光2,南大位排5【纯农排变】,南大位光4,南大位排2【纯农排变】,吴村新光5,东相盖光2,西陈庄光1,田候光2,大任排2【纯农排变】,西陈庄光5,吴村新光6,小任光1,北大位排5【纯农排变】,大田排1【纯农排变】,汇农农牧专业合作社200,落堡光6【2018年四批补强】,田候排8【纯农排变】,大田新光8,落堡混11,北大位光5,东相盖排1【纯农排变】,吴村新光1,北大位排林场【纯农排变】,五里窑排3【纯农排变】,田候光7【2018年美丽乡村】,0694744479-定兴县东落堡乡田侯小学-专变-238553620-田侯小学,大田新光5,亿飞腾水泥制品-200,吴村排8【纯农排变】,吴村排7【纯农排变】,吴村新光4,定兴县速凝商品混凝土制造有限公司-250,吴村光9,田候混6,落堡公用【2018年重过载】,大田新光2,北大位排2【纯农排变】,落堡新村排2【纯农排变】,大任光1,北大位新混1,大任光6【2018年四批补强】,大田新光1,新田候光4,同舟粮食购销公司100,西陈庄光2,五里窑光4,东相盖光6【2018年美丽乡村】,吴村排4【纯农排变】,佳兴玉米加工厂-250,吴村排2变【纯农排变】,吴村新光7,落堡排15【纯农排变】,东相盖光3,吴村排3变【纯农排变】,落堡新村排1【纯农排变】,诚德胜家庭牧场-250,五里窑光5,古桑排1【纯农排变","powerOffReason":"【停电原因】由于站外开关跳闸导致３５ＫＶ景安变电站大任线５１４线路全线停电 【变更送电】因抢修进度加快原因，送电时间由０９：００变更为０４：５０ 【发布渠道】通过９５５９８发布","powerOffId":"2020021413000009"}],"pageModel":{"pageNow":292,"totalCount":10973,"totalPage":1098,"tableRows":0,"pageCount":10,"beginCount":2910},"isExperi":"1"}