{"message":"","today":"2020-06-15","seleList":[{"poweroffId":2020060513000099,"sgpoweroffId":null,"subsName":"","lineName":"申庄线513","pubTranName":"10kV513申庄线马庄11号,10Kv513申庄线马庄3号,10kV513申庄线马庄12号,10Kv513申庄线申庄20号【纯农排变】,10Kv513申庄线申庄2号【纯农排变】,10Kv513申庄线申庄15号【纯农排变】,","scope":"【影响街道/乡镇】高林村镇 【高危重要客户】无 【影响客户】冯庄、马庄、翟庄、高林村、侯家窑、申庄","startTime":"2020-06-05 12:55:00","stopDate":"2020-06-05 14:30:00","orgNo":"1340605","typeCode":"电网故障停限电","poweroffArea":"【全线路停电】停 10Kv513申庄线郎五庄7号, 10Kv513申庄线申庄1号, 10Kv513申庄线冯庄4号【纯农排变】, 10Kv513申庄线申庄17号, 10Kv513申庄线冯庄2号,10Kv513申庄线高林村10号变压器, 10Kv513申庄线申庄8号, 10Kv513申庄线申庄21号【纯农排变】, 10Kv513申庄线申庄16号, 10Kv513申庄线申庄2号, 10Kv513申庄线马庄1号, 10Kv513申庄线申庄13号, 10Kv513申庄线高林村15号变压器, 10Kv513申庄线申庄9号【纯农排变】, 10Kv513申庄线申庄4号, 10Kv513申庄线高林村14号, 10Kv513申庄线侯家窑3号【纯农排变】, 10Kv513申庄线申庄10号, 10Kv513申庄线冯庄3号, 10Kv513申庄线马庄7号, 10Kv513申庄线翟庄11号【纯农排变】, 10Kv513申庄线郎五庄12号【纯农排变】, 10Kv513申庄线申庄15号, 10Kv513申庄线马庄9号, 10Kv513申庄线申庄12号,10Kv513申庄线高林村13号, 10Kv513申庄线侯家窑2号, 10Kv513申庄线马庄10号【纯农排变】,10Kv513申庄线高林村17号【纯农排变】, 10Kv513申庄线侯家窑1号, 10Kv513申庄线申庄20号,徐水县四通散热器制造有限公司, 10Kv513申庄线翟庄10号, 10Kv513申庄线申庄14号, 10Kv513申庄线马庄2号, 10Kv513申庄线马庄8号, 10Kv513申庄线申庄5号,高顺录养猪厂, 10Kv513申庄线马庄5号,高林村砖厂, 10Kv513申庄线马庄6号, 10Kv513申庄线冯庄1号, 10Kv513申庄线翟庄18号, 10Kv513申庄线马庄4号,10Kv513申庄线高林村12号, 10Kv513申庄线高林村16号,10Kv513申庄线翟庄9号【纯农排变】, 10Kv513申庄线申庄18号【纯农排变】, 10Kv513申庄线申庄3号, 10Kv513申庄线申庄19号, 10Kv513申庄线翟庄17号【纯农排变】, 10Kv513申庄线翟庄13号【纯农排变】,高林村镇申庄小学, 10Kv513申庄线申庄11号, 10Kv513申庄线申庄6号【纯农排变】, 10Kv513申庄线申庄7号, 10Kv513申庄线马庄3号,10Kv513申庄线申庄20号【纯农排变】,10Kv513申庄线申庄22号,10Kv513申庄线申庄2号【纯农排变】,10kV513申庄线马庄12号,保定市徐水区高林村镇申庄幼儿园,中国移动通信集团河北有限公司徐水分公司,10Kv513申庄线申庄14号,10Kv513申庄线申庄15号【纯农排变】,10Kv513申庄线马庄3号【纯农排变】,10kV513申庄线马庄11号,10Kv513申庄线高林村14号【纯农排变】","poweroffReason":"【停电原因】由于Ｂ相接地导致３５ＫＶ郎五庄变电站申庄线５１３线路全线停电 【变更送电】因抢修进度加快原因，送电时间由１８:００变更为１４:３０ 【发布渠道】通过９５５９８发布","powerTime":"2020-06-05 13:34:23","powerComm":"已送电","subsNo":"","lineNo":"","tgNo":"","tgName":null,"infoStatus":"1","orgName":"国网徐水县供电公司","typeName":null,"infoStatusName":null,"dateDay":null,"orgNos":null,"nowTime":null,"countyName":null,"streetName":null,"villageName":null,"roadName":null,"communityName":null,"tranName":null,"sdLineName":null,"cityCode":"1340605","cityName":"国网徐水县供电公司","provinceCode":null,"stopTime":"2020-06-05 14:30:00","powerType":"全部","powerOffArea":"【全线路停电】停 10Kv513申庄线郎五庄7号, 10Kv513申庄线申庄1号, 10Kv513申庄线冯庄4号【纯农排变】, 10Kv513申庄线申庄17号, 10Kv513申庄线冯庄2号,10Kv513申庄线高林村10号变压器, 10Kv513申庄线申庄8号, 10Kv513申庄线申庄21号【纯农排变】, 10Kv513申庄线申庄16号, 10Kv513申庄线申庄2号, 10Kv513申庄线马庄1号, 10Kv513申庄线申庄13号, 10Kv513申庄线高林村15号变压器, 10Kv513申庄线申庄9号【纯农排变】, 10Kv513申庄线申庄4号, 10Kv513申庄线高林村14号, 10Kv513申庄线侯家窑3号【纯农排变】, 10Kv513申庄线申庄10号, 10Kv513申庄线冯庄3号, 10Kv513申庄线马庄7号, 10Kv513申庄线翟庄11号【纯农排变】, 10Kv513申庄线郎五庄12号【纯农排变】, 10Kv513申庄线申庄15号, 10Kv513申庄线马庄9号, 10Kv513申庄线申庄12号,10Kv513申庄线高林村13号, 10Kv513申庄线侯家窑2号, 10Kv513申庄线马庄10号【纯农排变】,10Kv513申庄线高林村17号【纯农排变】, 10Kv513申庄线侯家窑1号, 10Kv513申庄线申庄20号,徐水县四通散热器制造有限公司, 10Kv513申庄线翟庄10号, 10Kv513申庄线申庄14号, 10Kv513申庄线马庄2号, 10Kv513申庄线马庄8号, 10Kv513申庄线申庄5号,高顺录养猪厂, 10Kv513申庄线马庄5号,高林村砖厂, 10Kv513申庄线马庄6号, 10Kv513申庄线冯庄1号, 10Kv513申庄线翟庄18号, 10Kv513申庄线马庄4号,10Kv513申庄线高林村12号, 10Kv513申庄线高林村16号,10Kv513申庄线翟庄9号【纯农排变】, 10Kv513申庄线申庄18号【纯农排变】, 10Kv513申庄线申庄3号, 10Kv513申庄线申庄19号, 10Kv513申庄线翟庄17号【纯农排变】, 10Kv513申庄线翟庄13号【纯农排变】,高林村镇申庄小学, 10Kv513申庄线申庄11号, 10Kv513申庄线申庄6号【纯农排变】, 10Kv513申庄线申庄7号, 10Kv513申庄线马庄3号,10Kv513申庄线申庄20号【纯农排变】,10Kv513申庄线申庄22号,10Kv513申庄线申庄2号【纯农排变】,10kV513申庄线马庄12号,保定市徐水区高林村镇申庄幼儿园,中国移动通信集团河北有限公司徐水分公司,10Kv513申庄线申庄14号,10Kv513申庄线申庄15号【纯农排变】,10Kv513申庄线马庄3号【纯农排变】,10kV513申庄线马庄11号,10Kv513申庄线高林村14号【纯农排变】","powerOffReason":"【停电原因】由于Ｂ相接地导致３５ＫＶ郎五庄变电站申庄线５１３线路全线停电 【变更送电】因抢修进度加快原因，送电时间由１８:００变更为１４:３０ 【发布渠道】通过９５５９８发布","powerOffId":"2020060513000099"},{"poweroffId":2020060513000085,"sgpoweroffId":null,"subsName":"","lineName":"10kV西城514线","pubTranName":"横头综合二台区变压器,南罗村北北综合九,南罗综合12台区,东城内东南综合6台区,北罗综合一台区变压器,东城综合7台区变压器,安国市建鑫精铸厂2号,南罗综合10台区变压器,北罗综合5号台区变压器,西城内北综合6,横头综合三台区变压器,","scope":"【影响街道/乡镇】西安国城乡 【高危重要客户】无 【影响客户】南流罗村（南罗）、西城村、东城村、北流罗村（北罗）、横头村、北街村、东街村、南街村、西街村","startTime":"2020-06-07 07:00:00","stopDate":"2020-06-07 12:30:00","orgNo":"1340606","typeCode":"临时停电","poweroffArea":"【全线路停电】停３５ＫＶ庞各庄变电站１０ＫＶ西城５１４线路全线，西城内北综合6,横头综合三台区变压器,横头综合二台区变压器,南罗村北北综合九,南罗综合12台区,东城内东南综合6台区,北罗综合一台区变压器,东城综合7台区变压器,安国市建鑫精铸厂2号,南罗综合10台区变压器,北罗综合5号台区变压器","poweroffReason":"【停电原因】由于紧急消缺导致３５ＫＶ庞各庄变电站１０ＫＶ西城５１４线路全线停电 【变更送电】无 【发布渠道】保定市安国电视台（０６月０５日００时至２４时之间）屏幕上方滚动","powerTime":"2020-06-07 12:07:41","powerComm":"已送电","subsNo":"","lineNo":"","tgNo":"","tgName":null,"infoStatus":"1","orgName":"国网安国市供电公司","typeName":null,"infoStatusName":null,"dateDay":null,"orgNos":null,"nowTime":null,"countyName":null,"streetName":null,"villageName":null,"roadName":null,"communityName":null,"tranName":null,"sdLineName":null,"cityCode":"1340606","cityName":"国网安国市供电公司","provinceCode":null,"stopTime":"2020-06-07 12:30:00","powerType":"全部","powerOffArea":"【全线路停电】停３５ＫＶ庞各庄变电站１０ＫＶ西城５１４线路全线，西城内北综合6,横头综合三台区变压器,横头综合二台区变压器,南罗村北北综合九,南罗综合12台区,东城内东南综合6台区,北罗综合一台区变压器,东城综合7台区变压器,安国市建鑫精铸厂2号,南罗综合10台区变压器,北罗综合5号台区变压器","powerOffReason":"【停电原因】由于紧急消缺导致３５ＫＶ庞各庄变电站１０ＫＶ西城５１４线路全线停电 【变更送电】无 【发布渠道】保定市安国电视台（０６月０５日００时至２４时之间）屏幕上方滚动","powerOffId":"2020060513000085"},{"poweroffId":2020060421000285,"sgpoweroffId":null,"subsName":"","lineName":"10kV七一路站512线路","pubTranName":"B563柱上变压器,","scope":"【影响街道/乡镇】竞秀区、盛兴路 【高危重要客户】无 【影响客户】 邮电小区","startTime":"2020-06-05 05:00:00","stopDate":"2020-06-05 08:00:00","orgNo":"13406","typeCode":"电网故障停限电","poweroffArea":"【单台区停电】停 B563柱上变压器","poweroffReason":"【停电原因】由于低压保险片烧导致１０ＫＶ七一变电站５１２线路Ｂ５６３公变台区停电【变更送电】无【发布渠道】通过９５５９８发布","powerTime":"2020-06-05 07:46:17","powerComm":"已送电","subsNo":"","lineNo":"","tgNo":"","tgName":null,"infoStatus":"1","orgName":"保定供电公司","typeName":null,"infoStatusName":null,"dateDay":null,"orgNos":null,"nowTime":null,"countyName":null,"streetName":null,"villageName":null,"roadName":null,"communityName":null,"tranName":null,"sdLineName":null,"cityCode":"13406","cityName":"保定供电公司","provinceCode":null,"stopTime":"2020-06-05 08:00:00","powerType":"全部","powerOffArea":"【单台区停电】停 B563柱上变压器","powerOffReason":"【停电原因】由于低压保险片烧导致１０ＫＶ七一变电站５１２线路Ｂ５６３公变台区停电【变更送电】无【发布渠道】通过９５５９８发布","powerOffId":"2020060421000285"},{"poweroffId":2020060421000246,"sgpoweroffId":null,"subsName":"","lineName":"10kV联盟路站512线路","pubTranName":"B1428柱上变压器,B150柱上变压器,B151柱上变压器,B624柱上变压器,","scope":"【影响街道/乡镇】南市区 裕华路　红星路 【高危重要客户】无 【影响客户】四中教学楼、陶然小区","startTime":"2020-06-04 16:10:00","stopDate":"2020-06-04 18:30:00","orgNo":"13406","typeCode":"电网故障停限电","poweroffArea":"【分支停电】停B150柱上变压器,B151柱上变压器,B624柱上变压器,B1428柱上变压器","poweroffReason":"【停电原因】由于分支开关短路导致１０ＫＶ联盟路变电站５１２线路ＨＫ-１５环网柜２号开关以下停电【变更送电】因抢修进度加快，原定20:10送电现计划18:30送电。【发布渠道】通过９５５９８发布","powerTime":"2020-06-04 17:57:31","powerComm":"已送电","subsNo":"","lineNo":"","tgNo":"","tgName":null,"infoStatus":"1","orgName":"保定供电公司","typeName":null,"infoStatusName":null,"dateDay":null,"orgNos":null,"nowTime":null,"countyName":null,"streetName":null,"villageName":null,"roadName":null,"communityName":null,"tranName":null,"sdLineName":null,"cityCode":"13406","cityName":"保定供电公司","provinceCode":null,"stopTime":"2020-06-04 18:30:00","powerType":"全部","powerOffArea":"【分支停电】停B150柱上变压器,B151柱上变压器,B624柱上变压器,B1428柱上变压器","powerOffReason":"【停电原因】由于分支开关短路导致１０ＫＶ联盟路变电站５１２线路ＨＫ-１５环网柜２号开关以下停电【变更送电】因抢修进度加快，原定20:10送电现计划18:30送电。【发布渠道】通过９５５９８发布","powerOffId":"2020060421000246"},{"poweroffId":2020060421000084,"sgpoweroffId":null,"subsName":"","lineName":"10kV韩村站522线路","pubTranName":"10kVB1467.B1468配电室B1467配电变压器,","scope":"【影响街道/乡镇】北市区徐庄路 【高危重要客户】无 【影响客户】丽景蓝湾A区","startTime":"2020-06-13 07:00:00","stopDate":"2020-06-13 12:00:00","orgNo":"13406","typeCode":"计划停电","poweroffArea":"【单台区停电】停10kVB1467.B1468配电室B1467配电变压器","poweroffReason":"【停电原因】由于供电设备临时检修导致１０ＫＶ韩村变电站５２２线路Ｂ１４６７公变台区停电【变更送电】无【发布渠道】保定市保定有限电视台（６月５日２０时１５分至２１时４５分之间）屏幕上滚动","powerTime":"2020-06-13 12:00:00","powerComm":"已送电","subsNo":"","lineNo":"","tgNo":"","tgName":null,"infoStatus":"1","orgName":"保定供电公司","typeName":null,"infoStatusName":null,"dateDay":null,"orgNos":null,"nowTime":null,"countyName":null,"streetName":null,"villageName":null,"roadName":null,"communityName":null,"tranName":null,"sdLineName":null,"cityCode":"13406","cityName":"保定供电公司","provinceCode":null,"stopTime":"2020-06-13 12:00:00","powerType":"全部","powerOffArea":"【单台区停电】停10kVB1467.B1468配电室B1467配电变压器","powerOffReason":"【停电原因】由于供电设备临时检修导致１０ＫＶ韩村变电站５２２线路Ｂ１４６７公变台区停电【变更送电】无【发布渠道】保定市保定有限电视台（６月５日２０时１５分至２１时４５分之间）屏幕上滚动","powerOffId":"2020060421000084"},{"poweroffId":2020060421000057,"sgpoweroffId":null,"subsName":"","lineName":"10kV韩村站537线路","pubTranName":"C654,C572柱上变压器,","scope":"【影响街道/乡镇】新市区韩村乡 【高危重要客户】无 【影响客户】韩村","startTime":"2020-06-14 07:00:00","stopDate":"2020-06-14 11:30:00","orgNo":"13406","typeCode":"计划停电","poweroffArea":"【分支停电】停C572柱上变压器;C654","poweroffReason":"【停电原因】由于供电设备临时检修导致１０ＫＶ韩村变电站５３７线路阳光大街－８７号杆以下停电【变更送电】因抢修进度加快，原定１４：００送电现计划１１：３０送电【发布渠道】通过保定市保定有线电视台（６月６日２０时１５分至２１时４５分之间）屏幕上滚动","powerTime":"2020-06-14 11:08:28","powerComm":"已送电","subsNo":"","lineNo":"","tgNo":"","tgName":null,"infoStatus":"1","orgName":"保定供电公司","typeName":null,"infoStatusName":null,"dateDay":null,"orgNos":null,"nowTime":null,"countyName":null,"streetName":null,"villageName":null,"roadName":null,"communityName":null,"tranName":null,"sdLineName":null,"cityCode":"13406","cityName":"保定供电公司","provinceCode":null,"stopTime":"2020-06-14 11:30:00","powerType":"全部","powerOffArea":"【分支停电】停C572柱上变压器;C654","powerOffReason":"【停电原因】由于供电设备临时检修导致１０ＫＶ韩村变电站５３７线路阳光大街－８７号杆以下停电【变更送电】因抢修进度加快，原定１４：００送电现计划１１：３０送电【发布渠道】通过保定市保定有线电视台（６月６日２０时１５分至２１时４５分之间）屏幕上滚动","powerOffId":"2020060421000057"},{"poweroffId":2020060421000050,"sgpoweroffId":null,"subsName":"","lineName":"10kV韩村站522线路","pubTranName":"10kVB1467.B1468配电室B1468配电变压器,","scope":"【影响街道/乡镇】北市区徐庄路 【高危重要客户】无 【影响客户】丽景蓝湾A区","startTime":"2020-06-13 12:30:00","stopDate":"2020-06-13 15:30:00","orgNo":"13406","typeCode":"计划停电","poweroffArea":"【单台区停电】停10kVB1467.B1468配电室B1468配电变压器","poweroffReason":"【停电原因】由于供电设备临时检修导致１０ＫＶ韩村变电站５２２线路Ｂ１４６８公变台区停电【变更送电】因抢修进度加快，原定１８:００送电现计划１５:３０送电【发布渠道】保定市保定有线电视台（０６月０５日２０时１５分至２１时４５分之间）屏幕上滚动","powerTime":"2020-06-13 15:03:39","powerComm":"已送电","subsNo":"","lineNo":"","tgNo":"","tgName":null,"infoStatus":"1","orgName":"保定供电公司","typeName":null,"infoStatusName":null,"dateDay":null,"orgNos":null,"nowTime":null,"countyName":null,"streetName":null,"villageName":null,"roadName":null,"communityName":null,"tranName":null,"sdLineName":null,"cityCode":"13406","cityName":"保定供电公司","provinceCode":null,"stopTime":"2020-06-13 15:30:00","powerType":"全部","powerOffArea":"【单台区停电】停10kVB1467.B1468配电室B1468配电变压器","powerOffReason":"【停电原因】由于供电设备临时检修导致１０ＫＶ韩村变电站５２２线路Ｂ１４６８公变台区停电【变更送电】因抢修进度加快，原定１８:００送电现计划１５:３０送电【发布渠道】保定市保定有线电视台（０６月０５日２０时１５分至２１时４５分之间）屏幕上滚动","powerOffId":"2020060421000050"},{"poweroffId":2020060421000049,"sgpoweroffId":null,"subsName":"","lineName":"10kV联盟路站518线路","pubTranName":"10kVB828配电室B828配电变压器,","scope":"【影响街道/乡镇】莲池区支农路 【高危重要客户】无 【影响客户】 万欣家园小区","startTime":"2020-06-14 07:00:00","stopDate":"2020-06-14 11:30:00","orgNo":"13406","typeCode":"计划停电","poweroffArea":"【单台区停电】停10kVB828配电室B828配电变压器","poweroffReason":"【停电原因】由于供电设备临时检修导致１０ＫＶ联盟路变电站５１８线路Ｂ８２８公变台区停电【变更送电】因抢修进度加快，原定１５:００送电现计划１１:３０送电【发布渠道】保定市保定有线电视台（０６月０６日２０时１５分至２１时４５分之间）屏幕上滚动","powerTime":"2020-06-14 10:55:29","powerComm":"已送电","subsNo":"","lineNo":"","tgNo":"","tgName":null,"infoStatus":"1","orgName":"保定供电公司","typeName":null,"infoStatusName":null,"dateDay":null,"orgNos":null,"nowTime":null,"countyName":null,"streetName":null,"villageName":null,"roadName":null,"communityName":null,"tranName":null,"sdLineName":null,"cityCode":"13406","cityName":"保定供电公司","provinceCode":null,"stopTime":"2020-06-14 11:30:00","powerType":"全部","powerOffArea":"【单台区停电】停10kVB828配电室B828配电变压器","powerOffReason":"【停电原因】由于供电设备临时检修导致１０ＫＶ联盟路变电站５１８线路Ｂ８２８公变台区停电【变更送电】因抢修进度加快，原定１５:００送电现计划１１:３０送电【发布渠道】保定市保定有线电视台（０６月０６日２０时１５分至２１时４５分之间）屏幕上滚动","powerOffId":"2020060421000049"},{"poweroffId":2020060413000424,"sgpoweroffId":null,"subsName":"","lineName":"东斗516","pubTranName":"东斗城村2#,辛庄头村1#,中范村2#,东斗城村3#,西范村3#,北东村17号,北东村1#,东斗城村9#,西范村1#,西斗城村1#,北东村16#,西范村2#,北东村2#,北东15#,辛庄头村5#,辛庄头村2#,东斗城村10#,辛庄头村4#,西范村4#,北东20#,辛庄头村11#,西范村5#,东斗城村5#,北东村11小北街,辛庄头村3#,西斗城5#,东斗城村1#,东斗城村4#,中范村1#,辛庄头村6#,西斗城村4#,","scope":"【影响街道/乡镇】易州镇、高陌乡【高危重要客户】无【影响客户】西范村、中范村、北东村、东斗城村村委、西斗城村、辛庄头村","startTime":"2020-06-04 21:02:48","stopDate":"2020-06-04 23:59:00","orgNo":"1340625","typeCode":"电网故障停限电","poweroffArea":"【全线路停电】停西范村4#,北东15#,东斗城村4#,西斗城村3#,五龙建筑安装有限公司,孙建军,辛庄头村11#,北东村13#【纯农排变】,东斗城村5#,中范村2#,辛庄头村10#,易县金久新型建材变压器,北东村12#【纯农排变】,易县容大建筑材料有限责任公司变压器,辛庄头村4#,西范村3#,东斗城村10#,北东村2#,北东村1#,辛庄头村7#,易县易州镇中心卫生院变压器,中范村1#,北东20#,北东村11小北街,东斗城村9#,辛庄头村8#,辛庄头村5#,西范村2#,北极星创意石材(80KVA),西斗城5#,辛庄头村3#,东斗城村7#【纯农排变】,东斗城村2#,东斗城村8#,辛庄头村1#,辛庄头村2#,东斗城村3#,中范村3#,易县联营面粉厂(延振海),东斗城面粉厂,北东村11#【纯农排变】,西范村1#,马成明,西斗城村2#,西范村5#,辛庄头面粉厂(宋文和),辛庄头村9#【纯农排变】,北东村16#,刘荣军大理石厂,张进宝,北东村17号,东斗城村1#,辛庄头村6#,西斗城村1#,北东村14#【纯农排变】,东斗城村6#【纯农排变】,西斗城村4#,茂启水泥板厂","poweroffReason":"【停电原因】由于直瓶脱落导致３５ＫＶ高陌变电站东斗５１６线路全线停电【变更送电】无【发布渠道】通过９５５９８发布","powerTime":"2020-06-04 23:28:16","powerComm":"已送电","subsNo":"","lineNo":"","tgNo":"","tgName":null,"infoStatus":"1","orgName":"国网易县供电公司","typeName":null,"infoStatusName":null,"dateDay":null,"orgNos":null,"nowTime":null,"countyName":null,"streetName":null,"villageName":null,"roadName":null,"communityName":null,"tranName":null,"sdLineName":null,"cityCode":"1340625","cityName":"国网易县供电公司","provinceCode":null,"stopTime":"2020-06-04 23:59:00","powerType":"全部","powerOffArea":"【全线路停电】停西范村4#,北东15#,东斗城村4#,西斗城村3#,五龙建筑安装有限公司,孙建军,辛庄头村11#,北东村13#【纯农排变】,东斗城村5#,中范村2#,辛庄头村10#,易县金久新型建材变压器,北东村12#【纯农排变】,易县容大建筑材料有限责任公司变压器,辛庄头村4#,西范村3#,东斗城村10#,北东村2#,北东村1#,辛庄头村7#,易县易州镇中心卫生院变压器,中范村1#,北东20#,北东村11小北街,东斗城村9#,辛庄头村8#,辛庄头村5#,西范村2#,北极星创意石材(80KVA),西斗城5#,辛庄头村3#,东斗城村7#【纯农排变】,东斗城村2#,东斗城村8#,辛庄头村1#,辛庄头村2#,东斗城村3#,中范村3#,易县联营面粉厂(延振海),东斗城面粉厂,北东村11#【纯农排变】,西范村1#,马成明,西斗城村2#,西范村5#,辛庄头面粉厂(宋文和),辛庄头村9#【纯农排变】,北东村16#,刘荣军大理石厂,张进宝,北东村17号,东斗城村1#,辛庄头村6#,西斗城村1#,北东村14#【纯农排变】,东斗城村6#【纯农排变】,西斗城村4#,茂启水泥板厂","powerOffReason":"【停电原因】由于直瓶脱落导致３５ＫＶ高陌变电站东斗５１６线路全线停电【变更送电】无【发布渠道】通过９５５９８发布","powerOffId":"2020060413000424"},{"poweroffId":2020060413000421,"sgpoweroffId":null,"subsName":"","lineName":"东扬515","pubTranName":"东杨威城24#,小北城村1#,大北城小学,东杨威城9号,小北城5号,练台庄村1#,西杨威城村2#,西杨威城9号,大北城村9#,东杨威城17号,东杨威城22#,中杨威城13号,中杨威城25|#变压器,北东村8#,西杨威城17号,东杨威城14号,东杨威城21#,西杨威城15号,西杨威城23#,中杨威城9号,北东村7#,中杨威城20#变压器,西杨威城25#,中杨威城26#变压器,北东村6#,东杨威城12号,小北城村2#,东杨威城16号,东杨威城25#,练台庄村3#,北东19#,练台村1#,西杨威城13号,西杨威城14号,东杨威城19#,西杨威城村6#,西杨威城22#,西杨威城19号,练台村3#,东杨威城村3#,中杨威城村2#,大北城村2#,中杨威城16号,东杨威城18号,练台村4#,大北城村10#,西杨威城16号,北东村5#商,西杨威城20#,大北城村11#,中杨威城村4#【纯农排变】,东杨威城15号,西杨威城24#,东杨威城11号,中杨威城17号,北东小学,西杨威城12号,东杨威城23#,练台村2#,东杨威城20#,东杨威城10号,中杨威城11号,中杨威城村1#,西杨威城26#,中杨威城21#变压器,西杨威城村1#,练台村7#,东杨威城13号,大北城村3#,中杨威城14号,中杨威城24|#变压器,大北城12#,中杨威城22#变压器,练台村5#,西杨威城村7#,练台庄8#,大北城村4#,练台庄村4#,中杨威城10号,西杨威城18号,西杨威城10号,东杨威城8号,西杨威城21#,东杨威城村2#,大北城村13#,中杨威城23|#变压器,中杨威城15号,中杨威城19号,西杨威城8号,练台9号变压器,高陌所变压器,练台村6#村东,西杨威城11号,大北城村1号,中杨威城12号,东杨威城村4#,中杨威城村7#【纯农排变】,练台庄村6#,大北城村8#,中杨威城18号,东杨威城村1#,中杨威城村8#,","scope":"【影响街道/乡镇】高陌乡【高危重要客户】无【影响客户】西杨威城村、大北城村、练台庄村、中杨威城村、北东村、东杨威城村、小北城村 、练台村","startTime":"2020-06-04 20:56:57","stopDate":"2020-06-04 22:00:00","orgNo":"1340625","typeCode":"电网故障停限电","poweroffArea":"【全线路停电】停西杨威城村7#,练台庄8#,大北城村4#,大北城村6#【纯农排变】,练台庄村4#,西杨威城5#【纯农排变】,扬中砖厂(刘平)2,中杨威城10号,董淑青,西杨威城18号,扬中砖厂(刘平)1,易县世博汽车驾驶员培训学校,北东村18#,西杨威城10号,东杨威城8号,西杨威城21#,东杨威城村2#,东杨威城村7#【纯农排变】,西杨威城村3#【纯农排变】,大北城村郭强,大北城村13#,练台面粉厂,练台庄村2#,大北城面粉厂,中杨威城23|#变压器,中杨威城15号,中杨威城19号,北东村9#【纯农排变】,西杨威城8号,练台9号变压器,高陌所变压器,练台村6#村东,西杨威城11号,大北城村1号,中杨威城12号,东杨威城村4#,中杨威城村7#【纯农排变】,练台庄村7#|村北,练台庄村6#,大北城村9#,东杨威城17号,佟维(加油站),中杨威城13号,大北城收费站,中杨威城村6#【纯农排变】,中杨威城25|#变压器,北东村8#,易县高陌乡中心学校变压器2,西杨威城17号,东杨威城14号,西杨威城15号,中杨威城20#变压器,西杨威城25#,东杨威城5#【纯农排变】,中杨威城26#变压器,练台庄村3#,东杨威城村6#【纯农排变】,中杨威城9号,北东村7#,东杨威城12号,小北城村2#,练台村1#,西杨威城村6#,练台村3#,西杨威城村4#【纯农排变】,东杨威城24#,小北城村1#,大北城小学,东杨威城9号,小北城5号,东杨威城15号,练台庄村1#,北东19#,西杨威城13号,西杨威城14号,东杨威城19#,中杨威城16号,中杨威城村2#,大北城村2#,东杨威城18号,练台村4#,大北城村10#,西杨威城16号,北东村5#商,西杨威城20#,易县广源养殖服务中心变压器,大北城村11#,东杨威城22#,北东村3#【纯农排变】,东杨威城21#,中杨威城村5#【纯农排变】,中杨威城村3#【纯农排变】,西杨威城23#,西杨威城村2#,西杨威城9号,易县顺利畜牧养殖有限公司变压器,小北城村3#,中杨威城村4#【纯农排变】,北东村6#,东杨威城16号,东杨威城25#,小北城村4#,练台村7#,西杨威城24#,东杨威城11号,大北城村7#【纯农排变】,北东小学,王玉凤变压器,西杨威城12号,东杨威城23#,易县志豪加油站变压器,东杨威城20#,东杨威城10号,中杨威城18号,中杨威城村8#,中杨威城11号,西杨威城26#,中杨威城21#变压器,东杨威城13号,大北城村3#,易县高陌乡中心学校变压器1,中杨威城14号,中杨威城24|#变压器,大北城12#,中杨威城22#变压器,练台村5#,西杨威城22#,西杨威城19号,东杨威城村3#,中杨威城17号,大北城村5#,练台村2#,练台庄村5#,大北城村8#,东杨威城村1#,中杨威城村1#,西杨威城村1#,练台村8#","poweroffReason":"【停电原因】由于线路接地导致３５ＫＶ高陌变电站东扬５１５线路全线停电【变更送电】因抢修进度加快原因，送电时间由２３：５９变更为２２：００【发布渠道】通过９５５９８发布","powerTime":"2020-06-04 21:50:05","powerComm":"已送电","subsNo":"","lineNo":"","tgNo":"","tgName":null,"infoStatus":"1","orgName":"国网易县供电公司","typeName":null,"infoStatusName":null,"dateDay":null,"orgNos":null,"nowTime":null,"countyName":null,"streetName":null,"villageName":null,"roadName":null,"communityName":null,"tranName":null,"sdLineName":null,"cityCode":"1340625","cityName":"国网易县供电公司","provinceCode":null,"stopTime":"2020-06-04 22:00:00","powerType":"全部","powerOffArea":"【全线路停电】停西杨威城村7#,练台庄8#,大北城村4#,大北城村6#【纯农排变】,练台庄村4#,西杨威城5#【纯农排变】,扬中砖厂(刘平)2,中杨威城10号,董淑青,西杨威城18号,扬中砖厂(刘平)1,易县世博汽车驾驶员培训学校,北东村18#,西杨威城10号,东杨威城8号,西杨威城21#,东杨威城村2#,东杨威城村7#【纯农排变】,西杨威城村3#【纯农排变】,大北城村郭强,大北城村13#,练台面粉厂,练台庄村2#,大北城面粉厂,中杨威城23|#变压器,中杨威城15号,中杨威城19号,北东村9#【纯农排变】,西杨威城8号,练台9号变压器,高陌所变压器,练台村6#村东,西杨威城11号,大北城村1号,中杨威城12号,东杨威城村4#,中杨威城村7#【纯农排变】,练台庄村7#|村北,练台庄村6#,大北城村9#,东杨威城17号,佟维(加油站),中杨威城13号,大北城收费站,中杨威城村6#【纯农排变】,中杨威城25|#变压器,北东村8#,易县高陌乡中心学校变压器2,西杨威城17号,东杨威城14号,西杨威城15号,中杨威城20#变压器,西杨威城25#,东杨威城5#【纯农排变】,中杨威城26#变压器,练台庄村3#,东杨威城村6#【纯农排变】,中杨威城9号,北东村7#,东杨威城12号,小北城村2#,练台村1#,西杨威城村6#,练台村3#,西杨威城村4#【纯农排变】,东杨威城24#,小北城村1#,大北城小学,东杨威城9号,小北城5号,东杨威城15号,练台庄村1#,北东19#,西杨威城13号,西杨威城14号,东杨威城19#,中杨威城16号,中杨威城村2#,大北城村2#,东杨威城18号,练台村4#,大北城村10#,西杨威城16号,北东村5#商,西杨威城20#,易县广源养殖服务中心变压器,大北城村11#,东杨威城22#,北东村3#【纯农排变】,东杨威城21#,中杨威城村5#【纯农排变】,中杨威城村3#【纯农排变】,西杨威城23#,西杨威城村2#,西杨威城9号,易县顺利畜牧养殖有限公司变压器,小北城村3#,中杨威城村4#【纯农排变】,北东村6#,东杨威城16号,东杨威城25#,小北城村4#,练台村7#,西杨威城24#,东杨威城11号,大北城村7#【纯农排变】,北东小学,王玉凤变压器,西杨威城12号,东杨威城23#,易县志豪加油站变压器,东杨威城20#,东杨威城10号,中杨威城18号,中杨威城村8#,中杨威城11号,西杨威城26#,中杨威城21#变压器,东杨威城13号,大北城村3#,易县高陌乡中心学校变压器1,中杨威城14号,中杨威城24|#变压器,大北城12#,中杨威城22#变压器,练台村5#,西杨威城22#,西杨威城19号,东杨威城村3#,中杨威城17号,大北城村5#,练台村2#,练台庄村5#,大北城村8#,东杨威城村1#,中杨威城村1#,西杨威城村1#,练台村8#","powerOffReason":"【停电原因】由于线路接地导致３５ＫＶ高陌变电站东扬５１５线路全线停电【变更送电】因抢修进度加快原因，送电时间由２３：５９变更为２２：００【发布渠道】通过９５５９８发布","powerOffId":"2020060413000421"}],"pageModel":{"pageNow":15,"totalCount":10973,"totalPage":1098,"tableRows":0,"pageCount":10,"beginCount":140},"isExperi":"1"}