{"message":"","today":"2020-06-15","seleList":[{"poweroffId":2020012013000037,"sgpoweroffId":null,"subsName":"","lineName":"正村区线511","pubTranName":"大次良9号【纯农排变】,","scope":"【影响街道/乡镇】遂城镇 【高危重要客户】无 【影响客户】大次良村","startTime":"2020-01-20 15:29:46","stopDate":"2020-01-20 17:00:00","orgNo":"1340605","typeCode":"电网故障停限电","poweroffArea":"【全线路停电】停大次良28号,大次良20号,大次良9号【纯农排变】","poweroffReason":"【停电原因】由于Ｂ相接地导致３５ＫＶ大王店变电站正村区线５１１线路全线停电 【变更送电】因抢修进度加快原因，送电时间由２３:００变更为１７:００ 【发布渠道】通过９５５９８发布","powerTime":"2020-01-20 16:05:00","powerComm":"已送电","subsNo":"","lineNo":"","tgNo":"","tgName":null,"infoStatus":"1","orgName":"国网徐水县供电公司","typeName":null,"infoStatusName":null,"dateDay":null,"orgNos":null,"nowTime":null,"countyName":null,"streetName":null,"villageName":null,"roadName":null,"communityName":null,"tranName":null,"sdLineName":null,"cityCode":"1340605","cityName":"国网徐水县供电公司","provinceCode":null,"stopTime":"2020-01-20 17:00:00","powerType":"全部","powerOffArea":"【全线路停电】停大次良28号,大次良20号,大次良9号【纯农排变】","powerOffReason":"【停电原因】由于Ｂ相接地导致３５ＫＶ大王店变电站正村区线５１１线路全线停电 【变更送电】因抢修进度加快原因，送电时间由２３:００变更为１７:００ 【发布渠道】通过９５５９８发布","powerOffId":"2020012013000037"},{"poweroffId":2020012013000026,"sgpoweroffId":null,"subsName":"","lineName":"10kV东文山517","pubTranName":"东文山东台,","scope":"【影响街道/乡镇】东文山乡 【高危重要客户】无 【影响客户】东文山村","startTime":"2020-01-20 14:00:00","stopDate":"2020-01-20 17:00:00","orgNo":"1340614","typeCode":"其他临时停电","poweroffArea":"【单台区停电】停东文山东台","poweroffReason":"【停电原因】由于空开过热，需停电进行紧急消缺导致１１０ＫＶ涞水变电站１０ＫＶ东文山５１７线路东文山东台公变台区停电 【变更送电】无 【发布渠道】通过９５５９８发布","powerTime":"2020-01-20 16:34:29","powerComm":"已送电","subsNo":"","lineNo":"","tgNo":"","tgName":null,"infoStatus":"1","orgName":"国网涞水县供电公司","typeName":null,"infoStatusName":null,"dateDay":null,"orgNos":null,"nowTime":null,"countyName":null,"streetName":null,"villageName":null,"roadName":null,"communityName":null,"tranName":null,"sdLineName":null,"cityCode":"1340614","cityName":"国网涞水县供电公司","provinceCode":null,"stopTime":"2020-01-20 17:00:00","powerType":"全部","powerOffArea":"【单台区停电】停东文山东台","powerOffReason":"【停电原因】由于空开过热，需停电进行紧急消缺导致１１０ＫＶ涞水变电站１０ＫＶ东文山５１７线路东文山东台公变台区停电 【变更送电】无 【发布渠道】通过９５５９８发布","powerOffId":"2020012013000026"},{"poweroffId":2020012013000019,"sgpoweroffId":null,"subsName":"","lineName":"10kV512子位线","pubTranName":"子位三村公用照明5台区,客户投资_西丁庄公用照明1台区,子位三村公用照明6台区,子位二村公用照明10台区,寨里公用照明3台区,子位二村公用照明12台区,子位三村公用照明11台区0,寨里公用照明7台区,子位一村公用照明4台区,西丁庄公用照明2台区,子位三村公用照明3台区,子位二村公用照明13台区,子位二村公用照明2台区,子位二村公用照明1台区,子位一村公用照明3台区,子位二村公用照明4台区,子位二村公用照明3台区,子位三村公用照明4台区,子位一村公用照明1台区,寨里公用照明10台区,子位二村公用照明15台区,子位一村公用照明8台区,寨里公用照明4台区,寨里公用照明2台区,寨里公用照明9台区,子位二村公用照明14台区,子位二村公用照明16台区,寨里公用照明6台区,子位一村公用照明9台区,子位一村小庄公用照明2台区,子位三村公用照明1台区,子位一村公用照明6台区,寨里公用照明1台区,子位二村公用照明6台区,寨里公用照明5台区,子位二村公用照明9台区,子位三村公用照明10台区,子位三村公用照明7台区,子位一村小庄公用照明1台区,子位三村公用照明9台区,寨里公用照明8台区,子位三村公用照明2台区,子位二村公用照明11台区,子位一村公用照明2台区,子位二村公用照明7台区,子位一村公用照明5台区,子位一村公用照明7台区,西丁庄公用照明3台区,子位二村公用照明5台区,子位二村公用照明8台区,","scope":"【影响街道/乡镇】子位镇【高危重要客户】无【影响客户】西丁庄村、子位一村、子位二村、子位三村、寨里村","startTime":"2020-01-20 14:00:00","stopDate":"2020-01-20 15:30:00","orgNo":"1340610","typeCode":"其他临时停电","poweroffArea":"【全线路停电】停子位三村公用照明5台区,客户投资_西丁庄公用照明1台区,子位三村公用照明6台区,子位二村公用照明10台区,子位二村公用照明12台区,寨里公用照明7台区,西丁庄公用照明2台区,子位三村公用照明3台区,子位二村公用照明13台区,子位二村公用照明2台区,子位二村公用照明1台区,子位一村公用照明3台区,子位二村公用照明4台区,子位二村公用照明3台区,子位三村公用照明4台区,子位一村公用照明1台区,寨里公用照明10台区,子位一村公用照明8台区,寨里公用照明2台区,寨里公用照明9台区,子位二村公用照明14台区,子位二村公用照明16台区,寨里公用照明6台区,子位一村公用照明9台区,子位一村小庄公用照明2台区,子位三村公用照明1台区,子位一村公用照明6台区,寨里公用照明1台区,子位二村公用照明6台区,寨里公用照明5台区,子位二村公用照明9台区,子位三村公用照明7台区,子位一村小庄公用照明1台区,子位三村公用照明9台区,寨里公用照明8台区,子位三村公用照明2台区,寨里公用照明3台区,子位三村公用照明11台区0,子位一村公用照明4台区,子位二村公用照明15台区,寨里公用照明4台区,子位三村公用照明10台区,子位二村公用照明11台区,子位一村公用照明2台区,子位二村公用照明7台区,子位一村公用照明5台区,子位一村公用照明7台区,西丁庄公用照明3台区,子位二村公用照明5台区,子位二村公用照明8台区","poweroffReason":"【停电原因】由于子位二寸５分支０１号杆弓子线打火需停电进行紧急检修导致３５ＫＶ丁村变电站１０ＫＶ５１２子位线路全线停电 【变更送电】无 【发布渠道】９５５９８","powerTime":"2020-01-20 15:10:53","powerComm":"已送电","subsNo":"","lineNo":"","tgNo":"","tgName":null,"infoStatus":"1","orgName":"国网定州市供电公司","typeName":null,"infoStatusName":null,"dateDay":null,"orgNos":null,"nowTime":null,"countyName":null,"streetName":null,"villageName":null,"roadName":null,"communityName":null,"tranName":null,"sdLineName":null,"cityCode":"1340610","cityName":"国网定州市供电公司","provinceCode":null,"stopTime":"2020-01-20 15:30:00","powerType":"全部","powerOffArea":"【全线路停电】停子位三村公用照明5台区,客户投资_西丁庄公用照明1台区,子位三村公用照明6台区,子位二村公用照明10台区,子位二村公用照明12台区,寨里公用照明7台区,西丁庄公用照明2台区,子位三村公用照明3台区,子位二村公用照明13台区,子位二村公用照明2台区,子位二村公用照明1台区,子位一村公用照明3台区,子位二村公用照明4台区,子位二村公用照明3台区,子位三村公用照明4台区,子位一村公用照明1台区,寨里公用照明10台区,子位一村公用照明8台区,寨里公用照明2台区,寨里公用照明9台区,子位二村公用照明14台区,子位二村公用照明16台区,寨里公用照明6台区,子位一村公用照明9台区,子位一村小庄公用照明2台区,子位三村公用照明1台区,子位一村公用照明6台区,寨里公用照明1台区,子位二村公用照明6台区,寨里公用照明5台区,子位二村公用照明9台区,子位三村公用照明7台区,子位一村小庄公用照明1台区,子位三村公用照明9台区,寨里公用照明8台区,子位三村公用照明2台区,寨里公用照明3台区,子位三村公用照明11台区0,子位一村公用照明4台区,子位二村公用照明15台区,寨里公用照明4台区,子位三村公用照明10台区,子位二村公用照明11台区,子位一村公用照明2台区,子位二村公用照明7台区,子位一村公用照明5台区,子位一村公用照明7台区,西丁庄公用照明3台区,子位二村公用照明5台区,子位二村公用照明8台区","powerOffReason":"【停电原因】由于子位二寸５分支０１号杆弓子线打火需停电进行紧急检修导致３５ＫＶ丁村变电站１０ＫＶ５１２子位线路全线停电 【变更送电】无 【发布渠道】９５５９８","powerOffId":"2020012013000019"},{"poweroffId":2020011921000033,"sgpoweroffId":null,"subsName":"","lineName":"10kV薛留营站513线路","pubTranName":"B099柱上变压器,","scope":"【影响街道/乡镇】新市区新北街 【高危重要客户】无 【影响客户】新北街55号楼","startTime":"2020-01-19 21:40:00","stopDate":"2020-01-20 00:30:00","orgNo":"13406","typeCode":"电网故障停限电","poweroffArea":"【单台区停电】停B099柱上变压器","poweroffReason":"【停电原因】由于杆上线烧导致１０ＫＶ薛留营变电站５１３线路Ｂ０９９公变台区停电【变更送电】无【发布渠道】通过９５５９８发布","powerTime":"2020-01-19 23:34:39","powerComm":"已送电","subsNo":"","lineNo":"","tgNo":"","tgName":null,"infoStatus":"1","orgName":"保定供电公司","typeName":null,"infoStatusName":null,"dateDay":null,"orgNos":null,"nowTime":null,"countyName":null,"streetName":null,"villageName":null,"roadName":null,"communityName":null,"tranName":null,"sdLineName":null,"cityCode":"13406","cityName":"保定供电公司","provinceCode":null,"stopTime":"2020-01-20 00:30:00","powerType":"全部","powerOffArea":"【单台区停电】停B099柱上变压器","powerOffReason":"【停电原因】由于杆上线烧导致１０ＫＶ薛留营变电站５１３线路Ｂ０９９公变台区停电【变更送电】无【发布渠道】通过９５５９８发布","powerOffId":"2020011921000033"},{"poweroffId":2020011913000122,"sgpoweroffId":null,"subsName":"","lineName":"10kV岗头线523","pubTranName":"大册营4号,大册营13号,大册20号（统管）,大册18号,","scope":"【影响街道/乡镇】大册营镇 【高危重要客户】无 【影响客户】大册村、大册营村","startTime":"2020-01-19 19:15:52","stopDate":"2020-01-20 01:00:00","orgNo":"1340617","typeCode":"电网故障停限电","poweroffArea":"【全线路停电】停赵香占,大册20号（统管）,保定市港兴纸业有限公司315,大册18号,大册营4号,满城县大册营中心卫生院,大册港兴纸厂,满城县汇丰纸业有限公司,大册营13号","poweroffReason":"【停电原因】由于Ｂ相接地导致１１０ＫＶ大册营变电站１０ＫＶ岗头线５２３线路全线停电 【变更送电】因抢修进度加快原因，送电时间由０４：００变更为０１：００ 【发布渠道】通过９５５９８发布","powerTime":"2020-01-20 00:07:28","powerComm":"已送电","subsNo":"","lineNo":"","tgNo":"","tgName":null,"infoStatus":"1","orgName":"国网满城县供电公司","typeName":null,"infoStatusName":null,"dateDay":null,"orgNos":null,"nowTime":null,"countyName":null,"streetName":null,"villageName":null,"roadName":null,"communityName":null,"tranName":null,"sdLineName":null,"cityCode":"1340617","cityName":"国网满城县供电公司","provinceCode":null,"stopTime":"2020-01-20 01:00:00","powerType":"全部","powerOffArea":"【全线路停电】停赵香占,大册20号（统管）,保定市港兴纸业有限公司315,大册18号,大册营4号,满城县大册营中心卫生院,大册港兴纸厂,满城县汇丰纸业有限公司,大册营13号","powerOffReason":"【停电原因】由于Ｂ相接地导致１１０ＫＶ大册营变电站１０ＫＶ岗头线５２３线路全线停电 【变更送电】因抢修进度加快原因，送电时间由０４：００变更为０１：００ 【发布渠道】通过９５５９８发布","powerOffId":"2020011913000122"},{"poweroffId":2020011913000113,"sgpoweroffId":null,"subsName":"","lineName":"市区520","pubTranName":"城市信用社变压器,农机公变变压器,火车站箱变间隔配电变压器,文明1号公变变压器,南大街3号箱变间隔配电变压器,汽车二队变压器,高易铁路公变,八通市场变压器,客户投资_农行公变变压器,文明4号公变,大件变压器,100号北台配变,100号南台公变,站南公变,木器厂公变,北大街5#公变,100号公变变压器,南大街1#公变,邮政局箱变间隔配电变压器,祥和变压器间隔配电变压器,北大街1号迎宾变压器,百货2号公变变压器,南大街2号变压器,文明2号变压器,文明3号公变,粮库1#变压器,粮库2#变压器,","scope":"【影响街道/乡镇】１０７国道、团结路、迎宾路、京广南大街 【高危重要客户】铁路变电所 【影响客户】玖玖公寓、家兴商贸集团、汽车二队小区、祥和鑫园小区、天津肯德基、粮库小区、一百号、农行小区、景阳丽都小区、糖酒公司家属楼、家兴南库家属楼、粮局家属楼、火车站、家兴精品酒店、南市场、电影院平房家属院、顺新化工厂、大件家属楼、家兴１９５９酒店、喜悦轩酒店、军隆公司、和平路派出所、顺新国美、海韵花园","startTime":"2020-01-20 05:30:00","stopDate":"2020-01-20 07:00:00","orgNo":"1340612","typeCode":"其他临时停电","poweroffArea":"【全线路停电】停文明3号公变,粮库1#变压器,粮库2#变压器,城市信用社变压器,农机公变变压器,火车站箱变间隔配电变压器,文明1号公变变压器,南大街3号箱变间隔配电变压器,汽车二队变压器,文明2号变压器,百货2号公变变压器,南大街2号变压器,八通市场变压器,客户投资_农行公变变压器,文明4号公变,大件变压器,木器厂公变,北大街5#公变,100号公变变压器,南大街1#公变,邮政局箱变间隔配电变压器,祥和变压器间隔配电变压器,北大街1号迎宾变压器,河北喜悦轩酒店管理有限公司4,河北喜悦轩酒店管理有限公司3,河北喜悦轩酒店管理有限公司1,河北喜悦轩酒店管理有限公司2,0387434649-北京铁路局石家庄供电段-专变-212336408-北京铁路局石家庄供电段高碑店配电室400变压器,铁路变电所,高碑店市现代化商业有限责任公司,河北信康房地产开发有限公司,高碑店市城市管理综合执法局#4,顺新化工厂变压器01,河北景阳房地产开发有限公司1#变压器,河北景阳房地产开发有限公司3#变压器,高碑店市安普特种防火材料制造有限公司变压器,高碑店市恒亚商贸有限公司,顺新化工厂,河北家兴商贸集团有限公司变压器,高碑店市舒园物业服务有限公司,河北信康房地产开发有限公司800,河北景阳房地产开发有限公司4#变压器,粮库,高碑店市路灯管理办公室（汽车站路灯）变压器,保运二公司,河北景阳房地产开发有限公司2#变压器,祥和鑫园小区,0387434649-北京铁路局石家庄供电段-专变-212339320-北京铁路局石家庄供电段高碑店配电室500变压器,高易铁路公变,小肥羊饭店,高碑店市隆泰丰博石墨烯加工有限公司,玖玖公寓,高碑店商场,河北创世房地产开发有限公司-景阳800-1,家兴商厦,高易铁路,0737321919-河北家兴商贸集团有限公司02,百货公司,100号北台配变,河北家兴商贸集团有限公司01,云岭医药公司,河北创世房地产开发有限公司,河北创世房地产开发有限公司-景阳800-2,河北信康房地产开发有限公司400,高碑店市城市管理综合执法局#3,河北创世房地产开发有限公司变压器,高碑店市鑫远房地产开发有限公司变压器,东大街信用社,100号南台公变,农行路灯,高碑店市军隆公交有限公司1,华北水泥厂,一百号路灯,变压器,高碑店市军隆公交有限公司2,顺新化工厂变压器02,高碑店市现代化商业有限责任公司变压器,河北信康房地产开发有限公司变压器,站南公变,高碑店市城市管理综合执法局迎宾路1号","poweroffReason":"【停电原因】由于高压电缆头温度过高需紧急处理导致２２０ＫＶ高碑店变电站１０ＫＶ市区５２０线路全线停电 【变更送电】无 【发布渠道】通过９５５９８发布","powerTime":"2020-01-20 06:27:18","powerComm":"已送电","subsNo":"","lineNo":"","tgNo":"","tgName":null,"infoStatus":"1","orgName":"国网高碑店市供电公司","typeName":null,"infoStatusName":null,"dateDay":null,"orgNos":null,"nowTime":null,"countyName":null,"streetName":null,"villageName":null,"roadName":null,"communityName":null,"tranName":null,"sdLineName":null,"cityCode":"1340612","cityName":"国网高碑店市供电公司","provinceCode":null,"stopTime":"2020-01-20 07:00:00","powerType":"全部","powerOffArea":"【全线路停电】停文明3号公变,粮库1#变压器,粮库2#变压器,城市信用社变压器,农机公变变压器,火车站箱变间隔配电变压器,文明1号公变变压器,南大街3号箱变间隔配电变压器,汽车二队变压器,文明2号变压器,百货2号公变变压器,南大街2号变压器,八通市场变压器,客户投资_农行公变变压器,文明4号公变,大件变压器,木器厂公变,北大街5#公变,100号公变变压器,南大街1#公变,邮政局箱变间隔配电变压器,祥和变压器间隔配电变压器,北大街1号迎宾变压器,河北喜悦轩酒店管理有限公司4,河北喜悦轩酒店管理有限公司3,河北喜悦轩酒店管理有限公司1,河北喜悦轩酒店管理有限公司2,0387434649-北京铁路局石家庄供电段-专变-212336408-北京铁路局石家庄供电段高碑店配电室400变压器,铁路变电所,高碑店市现代化商业有限责任公司,河北信康房地产开发有限公司,高碑店市城市管理综合执法局#4,顺新化工厂变压器01,河北景阳房地产开发有限公司1#变压器,河北景阳房地产开发有限公司3#变压器,高碑店市安普特种防火材料制造有限公司变压器,高碑店市恒亚商贸有限公司,顺新化工厂,河北家兴商贸集团有限公司变压器,高碑店市舒园物业服务有限公司,河北信康房地产开发有限公司800,河北景阳房地产开发有限公司4#变压器,粮库,高碑店市路灯管理办公室（汽车站路灯）变压器,保运二公司,河北景阳房地产开发有限公司2#变压器,祥和鑫园小区,0387434649-北京铁路局石家庄供电段-专变-212339320-北京铁路局石家庄供电段高碑店配电室500变压器,高易铁路公变,小肥羊饭店,高碑店市隆泰丰博石墨烯加工有限公司,玖玖公寓,高碑店商场,河北创世房地产开发有限公司-景阳800-1,家兴商厦,高易铁路,0737321919-河北家兴商贸集团有限公司02,百货公司,100号北台配变,河北家兴商贸集团有限公司01,云岭医药公司,河北创世房地产开发有限公司,河北创世房地产开发有限公司-景阳800-2,河北信康房地产开发有限公司400,高碑店市城市管理综合执法局#3,河北创世房地产开发有限公司变压器,高碑店市鑫远房地产开发有限公司变压器,东大街信用社,100号南台公变,农行路灯,高碑店市军隆公交有限公司1,华北水泥厂,一百号路灯,变压器,高碑店市军隆公交有限公司2,顺新化工厂变压器02,高碑店市现代化商业有限责任公司变压器,河北信康房地产开发有限公司变压器,站南公变,高碑店市城市管理综合执法局迎宾路1号","powerOffReason":"【停电原因】由于高压电缆头温度过高需紧急处理导致２２０ＫＶ高碑店变电站１０ＫＶ市区５２０线路全线停电 【变更送电】无 【发布渠道】通过９５５９８发布","powerOffId":"2020011913000113"},{"poweroffId":2020011913000108,"sgpoweroffId":null,"subsName":"","lineName":"10kV518唐河线","pubTranName":"总司屯(006):照明4台区,清水河公用照明9台区,东市邑照明1台区,北门街公用照明9台区,总司屯公用照明11台区,总司屯公用照明6台区,东市邑公用照明2台区,东里元(012):照明2台区,总司屯(006):照明3台区,清水河公用照明10台区,东里元公用照明16台区,东里元公用照明11台区,总司屯公用照明17台区,东里元公用照明10台区,","scope":"【影响街道/乡镇】北城区、北门街、文庙街、瘟庙街、大鹿庄乡、清风店镇【高危重要客户】无【影响客户】清水河、东里元、总司屯、寺市邑、西市邑村、东市邑小村（小市邑）、北城区技中职业技术学院、四二团、师范、崇城国际、百盛家园","startTime":"2020-01-19 16:08:38","stopDate":"2020-01-19 21:10:00","orgNo":"1340610","typeCode":"电网故障停限电","poweroffArea":"【全线路停电】停总司屯(006):照明4台区,清水河公用照明9台区,东市邑照明1台区,北门街公用照明9台区,总司屯公用照明11台区,总司屯公用照明6台区,东市邑公用照明2台区,东里元(012):照明2台区,总司屯(006):照明3台区,清水河公用照明10台区,东里元公用照明16台区,东里元公用照明11台区,总司屯公用照明17台区,东里元公用照明10台区","poweroffReason":"【停电原因】由于搅拌站配变跌落保险烧毁导致１１０ＫＶ总司屯变电站１０ＫＶ５１８唐河线路全线停电 【变更送电】因抢修进度加快原因，送电时间由２３：５９变更为２１：１０ 【发布渠道】９５５９８","powerTime":"2020-01-19 20:53:04","powerComm":"已送电","subsNo":"","lineNo":"","tgNo":"","tgName":null,"infoStatus":"1","orgName":"国网定州市供电公司","typeName":null,"infoStatusName":null,"dateDay":null,"orgNos":null,"nowTime":null,"countyName":null,"streetName":null,"villageName":null,"roadName":null,"communityName":null,"tranName":null,"sdLineName":null,"cityCode":"1340610","cityName":"国网定州市供电公司","provinceCode":null,"stopTime":"2020-01-19 21:10:00","powerType":"全部","powerOffArea":"【全线路停电】停总司屯(006):照明4台区,清水河公用照明9台区,东市邑照明1台区,北门街公用照明9台区,总司屯公用照明11台区,总司屯公用照明6台区,东市邑公用照明2台区,东里元(012):照明2台区,总司屯(006):照明3台区,清水河公用照明10台区,东里元公用照明16台区,东里元公用照明11台区,总司屯公用照明17台区,东里元公用照明10台区","powerOffReason":"【停电原因】由于搅拌站配变跌落保险烧毁导致１１０ＫＶ总司屯变电站１０ＫＶ５１８唐河线路全线停电 【变更送电】因抢修进度加快原因，送电时间由２３：５９变更为２１：１０ 【发布渠道】９５５９８","powerOffId":"2020011913000108"},{"poweroffId":2020011913000106,"sgpoweroffId":null,"subsName":"","lineName":"10kV高台线561","pubTranName":"1闫庄内5,1闫庄内6,1闫庄内8,王辛力小学闫庄分校,2闫庄外2【纯农排变】,1石庄内2,2郝庄外4【纯农排变】,1石庄内4,1石庄内3,2王辛力外1【纯农排变】,1高台内1,齐贤庄东街内12,1石庄内1,2刘指挥外15【纯农排变】,1高台内7,2闫庄外7【纯农排变】,2闫庄外3【纯农排变】,1闫庄内2,1王辛力内3,王辛力小学1,1王辛力内4,1石庄内5,1王辛力内1,2石庄外5,1王辛力内2,1石庄内7,","scope":"【影响街道/乡镇】阳城镇 【高危重要客户】无 【影响客户】高台、闫庄、王辛力、石庄、齐贤庄东街","startTime":"2020-01-19 15:57:12","stopDate":"2020-01-19 21:30:00","orgNo":"1340618","typeCode":"电网故障停限电","poweroffArea":"【全线路停电】停1高台内7,1闫庄内6,2闫庄外8【纯农排变】,2闫庄外9【纯农排变】,2王辛力外4【纯农排变】,1闫庄内8,2石庄外4【纯农排变】,保定市久和型材有限公司,保定市晟凯鑫塑料制品制造有限公司,2闫庄外5【纯农排变】,1闫庄内7,王辛力小学闫庄分校,2闫庄外2【纯农排变】,2闫庄外6【纯农排变】,2王辛力外5【纯农排变】,1石庄内2,2郝庄外4【纯农排变】,1石庄内4,1齐东街内4,1石庄内3,2抄纸屯外13【纯农排变】,2王辛力外1【纯农排变】,2高台外2【纯农排变】,阎庄占生塑料厂,1高台内3,2闫庄外4【纯农排变】,1闫庄内5,2石庄外2【纯农排变】,清苑县金石塑料编织厂02,保定市清苑区阳城镇王辛力村龙泉塑料管厂,0693790628-保定市清苑区阎庄村晟德塑料制品厂-专变-237549770-保定市清苑区阎庄村晟德塑料制品厂,1高台内1,齐贤庄东街内12,1石庄内1,闫庄赵彦章塑料厂,纪臣塑厂,2刘指挥外15【纯农排变】,2闫庄外7【纯农排变】,2闫庄外3【纯农排变】,1高台内6,闫庄连喜,2石庄外1【纯农排变】,1闫庄内2,刘指挥村北,2王辛力外2【纯农排变】,1闫庄内4,0387503532-清苑县兴达机械厂-专变-175496922-|清苑县兴达机械厂,清苑县金石塑料编织厂,保定市清苑区田红机械厂,高台许成群塑厂,1王辛力内3,王辛力王福望,2石庄外3【纯农排变】,王辛力小学1,1王辛力内4,2王辛力外3【纯农排变】,2闫庄外10【纯农排变】,1闫庄内1,1石庄内5,1闫庄内3,保定市天赢塑料制品有限公司,清苑县金石塑料编织厂01,1王辛力内1,石庄新占,2石庄外5,2齐东街外8【纯农排变】,1王辛力内2,1石庄内7","poweroffReason":"【停电原因】由于主干６６号杆北分支４号杆刘庄村北变压器支瓶击穿导致１１０ＫＶ罗侯变电站１０ＫＶ高台线５６１线路全线停电 【变更送电】因抢修进度加快原因，送电时间由２２：００变更为２１：３０ 【发布渠道】通过９５５９８发布","powerTime":"2020-01-19 20:57:37","powerComm":"李会军通知已送电","subsNo":"","lineNo":"","tgNo":"","tgName":null,"infoStatus":"1","orgName":"国网清苑县供电公司","typeName":null,"infoStatusName":null,"dateDay":null,"orgNos":null,"nowTime":null,"countyName":null,"streetName":null,"villageName":null,"roadName":null,"communityName":null,"tranName":null,"sdLineName":null,"cityCode":"1340618","cityName":"国网清苑县供电公司","provinceCode":null,"stopTime":"2020-01-19 21:30:00","powerType":"全部","powerOffArea":"【全线路停电】停1高台内7,1闫庄内6,2闫庄外8【纯农排变】,2闫庄外9【纯农排变】,2王辛力外4【纯农排变】,1闫庄内8,2石庄外4【纯农排变】,保定市久和型材有限公司,保定市晟凯鑫塑料制品制造有限公司,2闫庄外5【纯农排变】,1闫庄内7,王辛力小学闫庄分校,2闫庄外2【纯农排变】,2闫庄外6【纯农排变】,2王辛力外5【纯农排变】,1石庄内2,2郝庄外4【纯农排变】,1石庄内4,1齐东街内4,1石庄内3,2抄纸屯外13【纯农排变】,2王辛力外1【纯农排变】,2高台外2【纯农排变】,阎庄占生塑料厂,1高台内3,2闫庄外4【纯农排变】,1闫庄内5,2石庄外2【纯农排变】,清苑县金石塑料编织厂02,保定市清苑区阳城镇王辛力村龙泉塑料管厂,0693790628-保定市清苑区阎庄村晟德塑料制品厂-专变-237549770-保定市清苑区阎庄村晟德塑料制品厂,1高台内1,齐贤庄东街内12,1石庄内1,闫庄赵彦章塑料厂,纪臣塑厂,2刘指挥外15【纯农排变】,2闫庄外7【纯农排变】,2闫庄外3【纯农排变】,1高台内6,闫庄连喜,2石庄外1【纯农排变】,1闫庄内2,刘指挥村北,2王辛力外2【纯农排变】,1闫庄内4,0387503532-清苑县兴达机械厂-专变-175496922-|清苑县兴达机械厂,清苑县金石塑料编织厂,保定市清苑区田红机械厂,高台许成群塑厂,1王辛力内3,王辛力王福望,2石庄外3【纯农排变】,王辛力小学1,1王辛力内4,2王辛力外3【纯农排变】,2闫庄外10【纯农排变】,1闫庄内1,1石庄内5,1闫庄内3,保定市天赢塑料制品有限公司,清苑县金石塑料编织厂01,1王辛力内1,石庄新占,2石庄外5,2齐东街外8【纯农排变】,1王辛力内2,1石庄内7","powerOffReason":"【停电原因】由于主干６６号杆北分支４号杆刘庄村北变压器支瓶击穿导致１１０ＫＶ罗侯变电站１０ＫＶ高台线５６１线路全线停电 【变更送电】因抢修进度加快原因，送电时间由２２：００变更为２１：３０ 【发布渠道】通过９５５９８发布","powerOffId":"2020011913000106"},{"poweroffId":2020011913000094,"sgpoweroffId":null,"subsName":"","lineName":"10kV526程六市线","pubTranName":"10kv526程六市线32033变压器,杜田庄村25119,10kv526程六市线42546变压器0,10kv526程六市线25016变压器,10kv526程六市线40531变压器,10kv526程六市线41013变压器,10kv526程六市线32050变压器,10kv526程六市线95836变压器0,顿庄25082照明,10kv526程六市线程什伍照明84322变压器,10kv526程六市线32035变压器,10kv526程六市线86372变压器,10kv526程六市线32067变压器,10kV526程六市线25010台区变压器,10kV526程六市线25088台区变压器,程六市照明71686,10kv526程六市线40537变压器0,10kv526程六市线95030变压器,10kv526程六市线32040变压器,10kv526程六市线86366变压器,10kv526程六市线32066变压器,10kv526程六市线41014变压器,10kv526程六市线40994变压器,10kv526程六市线32051变压器,10kv526程六市线32022变压器,10kv526程六市线32010变压器,","scope":"【影响街道/乡镇】大程委镇【高危重要客户】无【影响客户】程六市、顿庄、杜田庄、程委","startTime":"2020-01-19 13:56:28","stopDate":"2020-01-19 15:30:00","orgNo":"1340608","typeCode":"电网故障停限电","poweroffArea":"【全线路停电】停10kv526程六市线95836变压器0,10kv526程六市线32033变压器,杜田庄村25119,10kv526程六市线42546变压器0,10kv526程六市线25016变压器,10kv526程六市线40531变压器,10kv526程六市线41013变压器,10kv526程六市线32050变压器,顿庄25082照明,10kv526程六市线程什伍照明84322变压器,10kv526程六市线32035变压器,10kv526程六市线86372变压器,10kv526程六市线32067变压器,10kV526程六市线25010台区变压器,10kV526程六市线25088台区变压器,程六市照明71686,10kv526程六市线40537变压器0,10kv526程六市线95030变压器,10kv526程六市线32040变压器,10kv526程六市线86366变压器,10kv526程六市线32066变压器,10kv526程六市线41014变压器,10kv526程六市线40994变压器,10kv526程六市线32051变压器,10kv526程六市线32022变压器,10kv526程六市线32010变压器","poweroffReason":"【停电原因】由于站内开关掉闸导致１１０ＫＶ程委变电站程六市５２６线路全线停电【变更送电】因抢修进度加快原因，送电时间由２０：００变更为１５：３０【发布渠道】通过９５５９８发布","powerTime":"2020-01-19 15:15:59","powerComm":"已送电","subsNo":"","lineNo":"","tgNo":"","tgName":null,"infoStatus":"1","orgName":"国网博野县供电公司","typeName":null,"infoStatusName":null,"dateDay":null,"orgNos":null,"nowTime":null,"countyName":null,"streetName":null,"villageName":null,"roadName":null,"communityName":null,"tranName":null,"sdLineName":null,"cityCode":"1340608","cityName":"国网博野县供电公司","provinceCode":null,"stopTime":"2020-01-19 15:30:00","powerType":"全部","powerOffArea":"【全线路停电】停10kv526程六市线95836变压器0,10kv526程六市线32033变压器,杜田庄村25119,10kv526程六市线42546变压器0,10kv526程六市线25016变压器,10kv526程六市线40531变压器,10kv526程六市线41013变压器,10kv526程六市线32050变压器,顿庄25082照明,10kv526程六市线程什伍照明84322变压器,10kv526程六市线32035变压器,10kv526程六市线86372变压器,10kv526程六市线32067变压器,10kV526程六市线25010台区变压器,10kV526程六市线25088台区变压器,程六市照明71686,10kv526程六市线40537变压器0,10kv526程六市线95030变压器,10kv526程六市线32040变压器,10kv526程六市线86366变压器,10kv526程六市线32066变压器,10kv526程六市线41014变压器,10kv526程六市线40994变压器,10kv526程六市线32051变压器,10kv526程六市线32022变压器,10kv526程六市线32010变压器","powerOffReason":"【停电原因】由于站内开关掉闸导致１１０ＫＶ程委变电站程六市５２６线路全线停电【变更送电】因抢修进度加快原因，送电时间由２０：００变更为１５：３０【发布渠道】通过９５５９８发布","powerOffId":"2020011913000094"},{"poweroffId":2020011913000057,"sgpoweroffId":null,"subsName":"","lineName":"10kV512杨村线","pubTranName":"10Kv512杨村线小西章村南1号变压器【纯农排变】,10KV512杨村线杨村12091IC卡变压器【纯农排变】,10KV杨村512线杨村村东12058台区柱上变压器,10KV杨村512线北彦村南12051台区变压器,10KV杨村512线杨村村北12052台区变压器,10Kv512杨村线沃头村西2号12101IC卡变压器【纯农排变】,10KV杨村512线小西章村北12053台区变压器【纯农排变】,10Kv512杨村线沃头村西1号12100IC卡变压器【纯农排变】,10KV杨村512线小西章村内12056台区柱上变压器,10KV杨村512线北彦村西12050台区变压器,10Kv512杨村线小西章村东北变压器【纯农排变】,10Kv512杨村线12011台区变压器【纯农排变】,10KV512杨村线东章12010排灌变压器【纯农排变】,10Kv512北杨村91982台区变压器,10KV512杨村线84320台区变压器【纯农排变】,10Kv512杨村线小西章村北2号变压器【纯农排变】,","scope":"【影响街道/乡镇】城东乡【高危重要客户】无【影响客户】东章、北杨村、北彦、沃头、东佰章、小西章","startTime":"2020-01-19 10:15:02","stopDate":"2020-01-19 13:30:00","orgNo":"1340608","typeCode":"电网故障停限电","poweroffArea":"【全线路停电】停10Kv512杨村线小西章村南1号变压器【纯农排变】,10KV512杨村线杨村12091IC卡变压器【纯农排变】,10KV杨村512线杨村村东12058台区柱上变压器,10KV杨村512线北彦村南12051台区变压器,10KV杨村512线杨村村北12052台区变压器,10Kv512杨村线沃头村西2号12101IC卡变压器【纯农排变】,10KV杨村512线小西章村北12053台区变压器【纯农排变】,10Kv512杨村线沃头村西1号12100IC卡变压器【纯农排变】,10KV杨村512线小西章村内12056台区柱上变压器,10KV杨村512线北彦村西12050台区变压器,10Kv512杨村线小西章村东北变压器【纯农排变】,10Kv512杨村线12011台区变压器【纯农排变】,10KV512杨村线东章12010排灌变压器【纯农排变】,10Kv512北杨村91982台区变压器,10KV512杨村线84320台区变压器【纯农排变】,10Kv512杨村线小西章村北2号变压器【纯农排变】","poweroffReason":"【停电原因】由于线路掉闸导致３５ＫＶ城东变电站杨村５１２线路全线停电【变更送电】因抢修进度加快原因，送电时间由１８：００变更为１３：３０【发布渠道】通过９５５９８发布","powerTime":"2020-01-19 13:12:34","powerComm":"已送电","subsNo":"","lineNo":"","tgNo":"","tgName":null,"infoStatus":"1","orgName":"国网博野县供电公司","typeName":null,"infoStatusName":null,"dateDay":null,"orgNos":null,"nowTime":null,"countyName":null,"streetName":null,"villageName":null,"roadName":null,"communityName":null,"tranName":null,"sdLineName":null,"cityCode":"1340608","cityName":"国网博野县供电公司","provinceCode":null,"stopTime":"2020-01-19 13:30:00","powerType":"全部","powerOffArea":"【全线路停电】停10Kv512杨村线小西章村南1号变压器【纯农排变】,10KV512杨村线杨村12091IC卡变压器【纯农排变】,10KV杨村512线杨村村东12058台区柱上变压器,10KV杨村512线北彦村南12051台区变压器,10KV杨村512线杨村村北12052台区变压器,10Kv512杨村线沃头村西2号12101IC卡变压器【纯农排变】,10KV杨村512线小西章村北12053台区变压器【纯农排变】,10Kv512杨村线沃头村西1号12100IC卡变压器【纯农排变】,10KV杨村512线小西章村内12056台区柱上变压器,10KV杨村512线北彦村西12050台区变压器,10Kv512杨村线小西章村东北变压器【纯农排变】,10Kv512杨村线12011台区变压器【纯农排变】,10KV512杨村线东章12010排灌变压器【纯农排变】,10Kv512北杨村91982台区变压器,10KV512杨村线84320台区变压器【纯农排变】,10Kv512杨村线小西章村北2号变压器【纯农排变】","powerOffReason":"【停电原因】由于线路掉闸导致３５ＫＶ城东变电站杨村５１２线路全线停电【变更送电】因抢修进度加快原因，送电时间由１８：００变更为１３：３０【发布渠道】通过９５５９８发布","powerOffId":"2020011913000057"}],"pageModel":{"pageNow":304,"totalCount":10973,"totalPage":1098,"tableRows":0,"pageCount":10,"beginCount":3030},"isExperi":"1"}