{"message":"","today":"2020-06-15","seleList":[{"poweroffId":2020011913000049,"sgpoweroffId":null,"subsName":"","lineName":"10kV吴家辛线519","pubTranName":"东古庄内1号,","scope":"【影响街道/乡镇】清苑镇 【高危重要客户】无 【影响客户】东顾庄（东古庄）","startTime":"2020-01-19 09:57:15","stopDate":"2020-01-19 12:00:00","orgNo":"1340618","typeCode":"电网故障停限电","poweroffArea":"【单台区停电】停东古庄内1号","poweroffReason":"【停电原因】由于低压线断导致１１０ＫＶ中冉变电站１０ＫＶ吴家辛线５１９线路东古庄内１号公变台区停电 【变更送电】无 【发布渠道】通过９５５９８发布","powerTime":"2020-01-19 11:03:10","powerComm":"王凯通知已送电","subsNo":"","lineNo":"","tgNo":"","tgName":null,"infoStatus":"1","orgName":"国网清苑县供电公司","typeName":null,"infoStatusName":null,"dateDay":null,"orgNos":null,"nowTime":null,"countyName":null,"streetName":null,"villageName":null,"roadName":null,"communityName":null,"tranName":null,"sdLineName":null,"cityCode":"1340618","cityName":"国网清苑县供电公司","provinceCode":null,"stopTime":"2020-01-19 12:00:00","powerType":"全部","powerOffArea":"【单台区停电】停东古庄内1号","powerOffReason":"【停电原因】由于低压线断导致１１０ＫＶ中冉变电站１０ＫＶ吴家辛线５１９线路东古庄内１号公变台区停电 【变更送电】无 【发布渠道】通过９５５９８发布","powerOffId":"2020011913000049"},{"poweroffId":2020011913000028,"sgpoweroffId":null,"subsName":"","lineName":"10kV524杜田庄线","pubTranName":"10kV524杜田庄线41017台区变压器,10kV524杜田庄线54098台区变压器,10kV524杜田庄线25098台区变压器,10kV524杜田庄线25088台区变压器,10kV524杜田庄线25055台区变压器,10kV524杜田庄线25040台区变压器,10kV524杜田庄线17781台区变压器,10kV524杜田庄线25036台区变压器,10kV524杜田庄线41015台区变压器,10kV524杜田庄线73838台区变压器,10kV524杜田庄线41016台区变压器,10kV524杜田庄线25049台区变压器,10kV524杜田庄线25033台区变压器,10kV524杜田庄线25138台区变压器,10kV524杜田庄线25037台区变压器,10kV524杜田庄线25039台区变压器,10KV524杜田庄线南阳庄村东变压器,10kV524杜田庄线73339台区变压器,","scope":"【影响街道/乡镇】大程委镇【高危重要客户】无【影响客户】北两合、北两合开发区","startTime":"2020-01-19 08:30:00","stopDate":"2020-01-19 12:00:00","orgNo":"1340608","typeCode":"其他临时停电","poweroffArea":"【全线路停电】停10kV524杜田庄线41017台区变压器,10kV524杜田庄线54098台区变压器,10kV524杜田庄线25098台区变压器,10kV524杜田庄线25088台区变压器,10kV524杜田庄线25055台区变压器,10kV524杜田庄线25040台区变压器,10kV524杜田庄线17781台区变压器,10kV524杜田庄线25036台区变压器,10kV524杜田庄线41015台区变压器,10kV524杜田庄线73838台区变压器,10kV524杜田庄线41016台区变压器,10kV524杜田庄线25049台区变压器,10kV524杜田庄线25033台区变压器,10kV524杜田庄线25138台区变压器,10kV524杜田庄线25037台区变压器,10kV524杜田庄线25039台区变压器,10KV524杜田庄线南阳庄村东变压器,10kV524杜田庄线73339台区变压器","poweroffReason":"【停电原因】由于电杆倾斜，需停电进行紧急消缺导致１１０ＫＶ程委变电站杜田庄５２４线路全线停电【变更送电】因工作进度加快原因，送电时间由１８：００变更为１２：００【发布渠道】通过９５５９８发布","powerTime":"2020-01-19 11:30:57","powerComm":"已送电","subsNo":"","lineNo":"","tgNo":"","tgName":null,"infoStatus":"1","orgName":"国网博野县供电公司","typeName":null,"infoStatusName":null,"dateDay":null,"orgNos":null,"nowTime":null,"countyName":null,"streetName":null,"villageName":null,"roadName":null,"communityName":null,"tranName":null,"sdLineName":null,"cityCode":"1340608","cityName":"国网博野县供电公司","provinceCode":null,"stopTime":"2020-01-19 12:00:00","powerType":"全部","powerOffArea":"【全线路停电】停10kV524杜田庄线41017台区变压器,10kV524杜田庄线54098台区变压器,10kV524杜田庄线25098台区变压器,10kV524杜田庄线25088台区变压器,10kV524杜田庄线25055台区变压器,10kV524杜田庄线25040台区变压器,10kV524杜田庄线17781台区变压器,10kV524杜田庄线25036台区变压器,10kV524杜田庄线41015台区变压器,10kV524杜田庄线73838台区变压器,10kV524杜田庄线41016台区变压器,10kV524杜田庄线25049台区变压器,10kV524杜田庄线25033台区变压器,10kV524杜田庄线25138台区变压器,10kV524杜田庄线25037台区变压器,10kV524杜田庄线25039台区变压器,10KV524杜田庄线南阳庄村东变压器,10kV524杜田庄线73339台区变压器","powerOffReason":"【停电原因】由于电杆倾斜，需停电进行紧急消缺导致１１０ＫＶ程委变电站杜田庄５２４线路全线停电【变更送电】因工作进度加快原因，送电时间由１８：００变更为１２：００【发布渠道】通过９５５９８发布","powerOffId":"2020011913000028"},{"poweroffId":2020011913000026,"sgpoweroffId":null,"subsName":"","lineName":"10kV526程六市线","pubTranName":"10kv526程六市线32066变压器,10kv526程六市线86372变压器,程六市照明71686,10kv526程六市线40537变压器0,10kv526程六市线程什伍照明84322变压器,10kv526程六市线95030变压器,10kV526程六市线25088台区变压器,10kv526程六市线32040变压器,10kV526程六市线25010台区变压器,10kv526程六市线95836变压器0,10kv526程六市线32033变压器,杜田庄村25119,10kv526程六市线41013变压器,10kv526程六市线40531变压器,顿庄25082照明,10kv526程六市线42546变压器0,10kv526程六市线32010变压器,10kv526程六市线25016变压器,10kv526程六市线41014变压器,10kv526程六市线40994变压器,","scope":"【影响街道/乡镇】大程委镇【高危重要客户】无【影响客户】程六市、顿庄、杜田庄、程委","startTime":"2020-01-19 08:30:00","stopDate":"2020-01-19 12:00:00","orgNo":"1340608","typeCode":"其他临时停电","poweroffArea":"【全线路停电】停10kv526程六市线86372变压器,程六市照明71686,10kv526程六市线40537变压器0,10kv526程六市线程什伍照明84322变压器,10kv526程六市线95030变压器,10kV526程六市线25088台区变压器,10kv526程六市线32040变压器,10kV526程六市线25010台区变压器,10kv526程六市线95836变压器0,10kv526程六市线32033变压器,杜田庄村25119,10kv526程六市线41013变压器,10kv526程六市线40531变压器,顿庄25082照明,10kv526程六市线42546变压器0,10kv526程六市线32010变压器,10kv526程六市线25016变压器,10kv526程六市线41014变压器,10kv526程六市线40994变压器,10kv526程六市线32066变压器","poweroffReason":"【停电原因】由于电杆倾斜，需停电进行紧急消缺导致１１０ＫＶ程委变电站程六市５２６线路全线停电【变更送电】因工作进度加快原因，送电时间由１８：００变更为１２：００【发布渠道】通过９５５９８发布","powerTime":"2020-01-19 11:31:50","powerComm":"已送电","subsNo":"","lineNo":"","tgNo":"","tgName":null,"infoStatus":"1","orgName":"国网博野县供电公司","typeName":null,"infoStatusName":null,"dateDay":null,"orgNos":null,"nowTime":null,"countyName":null,"streetName":null,"villageName":null,"roadName":null,"communityName":null,"tranName":null,"sdLineName":null,"cityCode":"1340608","cityName":"国网博野县供电公司","provinceCode":null,"stopTime":"2020-01-19 12:00:00","powerType":"全部","powerOffArea":"【全线路停电】停10kv526程六市线86372变压器,程六市照明71686,10kv526程六市线40537变压器0,10kv526程六市线程什伍照明84322变压器,10kv526程六市线95030变压器,10kV526程六市线25088台区变压器,10kv526程六市线32040变压器,10kV526程六市线25010台区变压器,10kv526程六市线95836变压器0,10kv526程六市线32033变压器,杜田庄村25119,10kv526程六市线41013变压器,10kv526程六市线40531变压器,顿庄25082照明,10kv526程六市线42546变压器0,10kv526程六市线32010变压器,10kv526程六市线25016变压器,10kv526程六市线41014变压器,10kv526程六市线40994变压器,10kv526程六市线32066变压器","powerOffReason":"【停电原因】由于电杆倾斜，需停电进行紧急消缺导致１１０ＫＶ程委变电站程六市５２６线路全线停电【变更送电】因工作进度加快原因，送电时间由１８：００变更为１２：００【发布渠道】通过９５５９８发布","powerOffId":"2020011913000026"},{"poweroffId":2020011913000024,"sgpoweroffId":null,"subsName":"","lineName":"10kV望亭线551","pubTranName":"1大望亭内8,固上外2号【纯农排变】,大望亭内5号,1大望亭内16,前米阳外2【纯农排变】,1前米阳内5,1大望亭内12,1前米阳内4,1大望亭内15,小候村西南1【纯农排变】,前米阳小学柱上变压器,大望亭小学2,1东安内11,1小望亭内5,小侯村外6号【纯农排变】,1前米阳内2,后米阳外2【纯农排变】,大望亭内6号,1大望亭内19,大望亭1号,望亭中学4柱上变压器,大望亭小学1,前米阳外3【纯农排变】,大望亭2号,前米阳外1【纯农排变】,大望亭外1号【纯农排变】,后米阳外3【纯农排变】,望亭中学3柱上变压器,1前米阳内1,望亭中学1柱上变压器,固上外3【纯农排变】,2小侯村外2【纯农排变】,1后米阳内3,望亭中学2柱上变压器,后米阳内2号,后米阳外4【纯农排变】,小望亭内1,大望亭外3号【纯农排变】,大望亭外2号【纯农排变】,1前米阳内3,大望亭内9,固上外1号【纯农排变】,1大望亭内13,前后米阳合用【纯农排变】,小望亭内2,","scope":"【影响街道/乡镇】望亭乡 【高危重要客户】无 【影响客户】前米阳、后米阳、大望亭、小望亭、小侯村","startTime":"2020-01-19 06:19:01","stopDate":"2020-01-19 09:30:00","orgNo":"1340618","typeCode":"电网故障停限电","poweroffArea":"【全线路停电】停1大望亭内16,前米阳外2【纯农排变】,1前米阳内5,1大望亭内8,固上外2号【纯农排变】,大望亭内5号,1大望亭内12,1前米阳内4,1大望亭内15,小候村西南1【纯农排变】,前米阳小学柱上变压器,0387505176-小望亭村北西箱-专变-45325065-变压器,大望亭小学2,1东安内11,1小望亭内5,小侯村外6号【纯农排变】,1前米阳内2,后米阳外2【纯农排变】,大望亭内6号,振兴鸡厂,1大望亭内19,大望亭1号,望亭中学4柱上变压器,大望亭小学1,前米阳外3【纯农排变】,0387505482-前米阳村东河边-专变-45325022-前米阳村东河边,后米阳河边,大望亭2号,前米阳外1【纯农排变】,大望亭外1号【纯农排变】,0387506254-大望亭面粉厂-专变-45324934-大望亭面粉厂,东安周满义,后米阳外3【纯农排变】,望亭中学3柱上变压器,1前米阳内1,望亭中学1柱上变压器,清苑县大望亭水厂,固上外3【纯农排变】,0387505701-小候村周大庄-专变-124295114-小候村周大庄,2小侯村外2【纯农排变】,1后米阳内3,望亭中学2柱上变压器,后米阳内2号,后米阳外4【纯农排变】,小望亭内1,大望亭外3号【纯农排变】,大望亭外2号【纯农排变】,1前米阳内3,大望亭内9,固上外1号【纯农排变】,1大望亭内13,0387504900-前米阳村东-专变-45325146-前米阳村东,前后米阳合用【纯农排变】,小望亭内2","poweroffReason":"【停电原因】由于主干４０号杆西分支２３号杆线断导致１０ＫＶ戎官营开关变电站１０ＫＶ望亭线５５１线路全线停电 【变更送电】因抢修进度加快原因，送电时间由１２：００变更为０９：３０ 【发布渠道】通过９５５９８发布","powerTime":"2020-01-19 08:55:57","powerComm":"高丽杰通知已送电","subsNo":"","lineNo":"","tgNo":"","tgName":null,"infoStatus":"1","orgName":"国网清苑县供电公司","typeName":null,"infoStatusName":null,"dateDay":null,"orgNos":null,"nowTime":null,"countyName":null,"streetName":null,"villageName":null,"roadName":null,"communityName":null,"tranName":null,"sdLineName":null,"cityCode":"1340618","cityName":"国网清苑县供电公司","provinceCode":null,"stopTime":"2020-01-19 09:30:00","powerType":"全部","powerOffArea":"【全线路停电】停1大望亭内16,前米阳外2【纯农排变】,1前米阳内5,1大望亭内8,固上外2号【纯农排变】,大望亭内5号,1大望亭内12,1前米阳内4,1大望亭内15,小候村西南1【纯农排变】,前米阳小学柱上变压器,0387505176-小望亭村北西箱-专变-45325065-变压器,大望亭小学2,1东安内11,1小望亭内5,小侯村外6号【纯农排变】,1前米阳内2,后米阳外2【纯农排变】,大望亭内6号,振兴鸡厂,1大望亭内19,大望亭1号,望亭中学4柱上变压器,大望亭小学1,前米阳外3【纯农排变】,0387505482-前米阳村东河边-专变-45325022-前米阳村东河边,后米阳河边,大望亭2号,前米阳外1【纯农排变】,大望亭外1号【纯农排变】,0387506254-大望亭面粉厂-专变-45324934-大望亭面粉厂,东安周满义,后米阳外3【纯农排变】,望亭中学3柱上变压器,1前米阳内1,望亭中学1柱上变压器,清苑县大望亭水厂,固上外3【纯农排变】,0387505701-小候村周大庄-专变-124295114-小候村周大庄,2小侯村外2【纯农排变】,1后米阳内3,望亭中学2柱上变压器,后米阳内2号,后米阳外4【纯农排变】,小望亭内1,大望亭外3号【纯农排变】,大望亭外2号【纯农排变】,1前米阳内3,大望亭内9,固上外1号【纯农排变】,1大望亭内13,0387504900-前米阳村东-专变-45325146-前米阳村东,前后米阳合用【纯农排变】,小望亭内2","powerOffReason":"【停电原因】由于主干４０号杆西分支２３号杆线断导致１０ＫＶ戎官营开关变电站１０ＫＶ望亭线５５１线路全线停电 【变更送电】因抢修进度加快原因，送电时间由１２：００变更为０９：３０ 【发布渠道】通过９５５９８发布","powerOffId":"2020011913000024"},{"poweroffId":2020011913000021,"sgpoweroffId":null,"subsName":"","lineName":"10kV549工业区西线","pubTranName":"西尧城8940|20008940,南常丰8260,南常丰370综合|20000370,西尧城12160|20010260,北常丰1388,南常丰8670|20008670,北常丰新10310|20010310,西尧城2号2345,公路养护综合3440#|20003440,南常丰8510|20008510,西尧城新增综合7227,512南常丰村北新增综合4340,西尧城0280|20000280,南常丰8680|20008680,南常丰8690|20008690,北常丰新增综合1389,北常丰新增1号7870,西尧城8830|20008830,西尧城学校混用8950|20008950,南尧城新增1号综合8363,北常丰3520|20003520,南常丰570|20000570,南常丰380|20000380,512南常丰村南新增综合4338,魏爱军混用8230|20008230,南常丰620|20000620,路灯变压器3号8379,南尧城西630|20000630,西尧城1号1234,南尧城20010340,","scope":"【影响街道/乡镇】蒲阳镇【高危重要客户】无【影响客户】南尧城、西尧城、北尧城、南常丰、北常丰、霍家关、南环公路养护中心","startTime":"2020-01-19 04:57:58","stopDate":"2020-01-19 09:10:00","orgNo":"1340621","typeCode":"电网故障停限电","poweroffArea":"【全线路停电】停西尧城学校混用8950|20008950,南尧城新增1号综合8363,北常丰3520|20003520,南常丰570|20000570,南常丰380|20000380,512南常丰村南新增综合4338,魏爱军混用8230|20008230,南常丰620|20000620,路灯变压器3号8379,南常丰8670|20008670,北常丰新10310|20010310,西尧城2号2345,公路养护综合3440#|20003440,南常丰8510|20008510,西尧城新增综合7227,512南常丰村北新增综合4340,西尧城0280|20000280,南常丰8680|20008680,南常丰8690|20008690,西尧城8940|20008940,北常丰新增综合1389,北常丰新增1号7870,西尧城8830|20008830,南尧城西630|20000630,西尧城1号1234,南尧城20010340,南常丰8260,南常丰370综合|20000370,西尧城12160|20010260,北常丰1388","poweroffReason":"【停电原因】由于天瑞制香专变Ｃ相导线跌落横担接地导致２２０ＫＶ吴家庄变电站１０ＫＶ５４９工业区西线路全线停电【变更送电】因抢修进度加快原因，送电时间由１２：００变更为:０９：１０【发布渠道】通过９５５９８发布","powerTime":"2020-01-19 08:31:08","powerComm":"已送电","subsNo":"","lineNo":"","tgNo":"","tgName":null,"infoStatus":"1","orgName":"国网顺平县电力局","typeName":null,"infoStatusName":null,"dateDay":null,"orgNos":null,"nowTime":null,"countyName":null,"streetName":null,"villageName":null,"roadName":null,"communityName":null,"tranName":null,"sdLineName":null,"cityCode":"1340621","cityName":"国网顺平县电力局","provinceCode":null,"stopTime":"2020-01-19 09:10:00","powerType":"全部","powerOffArea":"【全线路停电】停西尧城学校混用8950|20008950,南尧城新增1号综合8363,北常丰3520|20003520,南常丰570|20000570,南常丰380|20000380,512南常丰村南新增综合4338,魏爱军混用8230|20008230,南常丰620|20000620,路灯变压器3号8379,南常丰8670|20008670,北常丰新10310|20010310,西尧城2号2345,公路养护综合3440#|20003440,南常丰8510|20008510,西尧城新增综合7227,512南常丰村北新增综合4340,西尧城0280|20000280,南常丰8680|20008680,南常丰8690|20008690,西尧城8940|20008940,北常丰新增综合1389,北常丰新增1号7870,西尧城8830|20008830,南尧城西630|20000630,西尧城1号1234,南尧城20010340,南常丰8260,南常丰370综合|20000370,西尧城12160|20010260,北常丰1388","powerOffReason":"【停电原因】由于天瑞制香专变Ｃ相导线跌落横担接地导致２２０ＫＶ吴家庄变电站１０ＫＶ５４９工业区西线路全线停电【变更送电】因抢修进度加快原因，送电时间由１２：００变更为:０９：１０【发布渠道】通过９５５９８发布","powerOffId":"2020011913000021"},{"poweroffId":2020011913000013,"sgpoweroffId":null,"subsName":"","lineName":"10kV522崔古庄线","pubTranName":"后洞子光伏变压器【光伏】,东口南6区变压器,0000004988西口南1区变压器,东口南9区变压器,东口南6区柱上变压器,西口南幼儿园变压器,东口南4区柱上变压器,孝墓供电所统管变压器,0012479017东口南东2区变压器,0000006582东口南东区变压器,李家洼东2区变压器,侯家沟光伏变压器【光伏】,东口南10区变压器,0012805947西口南3区变压器,西口南光伏变压器【光伏】,东口南13区变压器,东口南5区柱上变压器,东口南7区变压器,西口南6区变压器,0000006614西口南2区变压器,0012479903李家洼村变压器,郭家店光伏变压器【光伏】,李家洼小学变压器2,李家洼农灌变压器,0000005642李家洼南区变压器,东口南16区变压器,东口南8区变压器,0014457139西口南4区,0000004991李家洼西区变压器,0000007214东口南（2）西区变压器,东口南11区变压器,东口南小学变压器,东口南小学西校区变压器,东口南2区变压器,李家洼幼儿园变压器,东口南光伏变压器【光伏】,东口南15区变压器,东口南14区变压器,0000004998李家洼东区变压器,李家洼北区变压器,东口南12区变压器,李家洼东3变压器,东口南3区变压器,东口南1区变压器,0000007170东口南3区变压器,李家洼小学变压器,","scope":"【影响街道/乡镇】孝墓乡【高危重要客户】无【影响客户】东口南、李家洼、西口南","startTime":"2020-01-19 03:30:00","stopDate":"2020-01-19 13:20:00","orgNo":"1340619","typeCode":"电网故障停限电","poweroffArea":"【全线路停电】停东口南1区变压器,0000007170东口南3区变压器,曲阳县红影纺织品有限公司变压器,东口南6区柱上变压器,西口南幼儿园变压器,东口南4区柱上变压器,孝墓供电所统管变压器,0012479017东口南东2区变压器,0000006582东口南东区变压器,曲阳县孝墓乡西口南村西变压器,李家洼东2区变压器,东口南10区变压器,0012805947西口南3区变压器,曲阳县德润广告有限公司变压器,西口南光伏变压器【光伏】,东口南13区变压器,曲阳县齐古庄石料厂变压器,侯家沟光伏变压器【光伏】,后洞子光伏变压器【光伏】,曲阳县源森机械有限公司变压器,曲阳县东口南果树种植农民专业合作社变压器,东口南9区变压器,东口南16区变压器,东口南8区变压器,曲阳县永红石渣厂,曲阳县仨宝养殖场变压器,李家洼小学变压器,0469348822-曲阳县东口南石渣厂2#-专变-212388524-曲阳县东口南石渣厂2#变压器,东口南第一石灰石料厂（2）,0014457139西口南4区,曲阳县远达建材厂变压器,0000004991李家洼西区变压器,0000004988西口南1区变压器,0469348822-曲阳县东口南石渣厂2#-专变-212388529-曲阳县东口南石渣厂2#变压器,东口南2区变压器,李家洼幼儿园变压器,东口南光伏变压器【光伏】,东口南15区变压器,0689606106-中国移动通信集团河北有限公司曲阳分公司-专变-230653717-中国移动集团河北有限公司曲阳分公司变压器,鑫盛石料厂,东口南14区变压器,0000004998李家洼东区变压器,李家洼北区变压器,东口南12区变压器,李家洼东3变压器,东口南3区变压器,曲阳县顺发灰粉厂（曹立山2）,曲阳县合峰包装箱加工厂,东口南7区变压器,西口南6区变压器,0000006614西口南2区变压器,曲阳县华兴石料厂,0012479903李家洼村变压器,郭家店光伏变压器【光伏】,曲阳县东口南石渣厂,曲阳县第一石灰石料厂,齐古庄石料厂,0469348822-曲阳县东口南石渣厂2#-专变-46780541-曲阳县东口南石渣厂2#,李家洼小学变压器2,曲阳县隆顺石材废料处理加工厂变压器,0000007214东口南（2）西区变压器,东口南11区变压器,东口南小学变压器,东口南小学西校区变压器,曲阳县少峰建材经销公司变压器,曲阳县英利石渣厂（2＃）,县石灰厂1#,东口南5区柱上变压器,曲阳县第一石灰石料厂（1）,李家洼农灌变压器,0000005642李家洼南区变压器,曲阳县顺发灰粉厂(曹立山),曲阳县振兴建材厂,东口南6区变压器,曲阳华峰石材经营部变压器,曲阳县玉朝建材经销处变压器","poweroffReason":"【停电原因】由于棋南３６４线路Ａ相接地导致３５ＫＶ东口南变电站１０ＫＶ５２２崔古庄线路全线停电【变更送电】因抢修进度加快原因，送电时间由１６：００变更为１３：２０【发布渠道】通过９５５９８发布","powerTime":"2020-01-19 13:03:34","powerComm":"已送电","subsNo":"","lineNo":"","tgNo":"","tgName":null,"infoStatus":"1","orgName":"国网曲阳县供电公司","typeName":null,"infoStatusName":null,"dateDay":null,"orgNos":null,"nowTime":null,"countyName":null,"streetName":null,"villageName":null,"roadName":null,"communityName":null,"tranName":null,"sdLineName":null,"cityCode":"1340619","cityName":"国网曲阳县供电公司","provinceCode":null,"stopTime":"2020-01-19 13:20:00","powerType":"全部","powerOffArea":"【全线路停电】停东口南1区变压器,0000007170东口南3区变压器,曲阳县红影纺织品有限公司变压器,东口南6区柱上变压器,西口南幼儿园变压器,东口南4区柱上变压器,孝墓供电所统管变压器,0012479017东口南东2区变压器,0000006582东口南东区变压器,曲阳县孝墓乡西口南村西变压器,李家洼东2区变压器,东口南10区变压器,0012805947西口南3区变压器,曲阳县德润广告有限公司变压器,西口南光伏变压器【光伏】,东口南13区变压器,曲阳县齐古庄石料厂变压器,侯家沟光伏变压器【光伏】,后洞子光伏变压器【光伏】,曲阳县源森机械有限公司变压器,曲阳县东口南果树种植农民专业合作社变压器,东口南9区变压器,东口南16区变压器,东口南8区变压器,曲阳县永红石渣厂,曲阳县仨宝养殖场变压器,李家洼小学变压器,0469348822-曲阳县东口南石渣厂2#-专变-212388524-曲阳县东口南石渣厂2#变压器,东口南第一石灰石料厂（2）,0014457139西口南4区,曲阳县远达建材厂变压器,0000004991李家洼西区变压器,0000004988西口南1区变压器,0469348822-曲阳县东口南石渣厂2#-专变-212388529-曲阳县东口南石渣厂2#变压器,东口南2区变压器,李家洼幼儿园变压器,东口南光伏变压器【光伏】,东口南15区变压器,0689606106-中国移动通信集团河北有限公司曲阳分公司-专变-230653717-中国移动集团河北有限公司曲阳分公司变压器,鑫盛石料厂,东口南14区变压器,0000004998李家洼东区变压器,李家洼北区变压器,东口南12区变压器,李家洼东3变压器,东口南3区变压器,曲阳县顺发灰粉厂（曹立山2）,曲阳县合峰包装箱加工厂,东口南7区变压器,西口南6区变压器,0000006614西口南2区变压器,曲阳县华兴石料厂,0012479903李家洼村变压器,郭家店光伏变压器【光伏】,曲阳县东口南石渣厂,曲阳县第一石灰石料厂,齐古庄石料厂,0469348822-曲阳县东口南石渣厂2#-专变-46780541-曲阳县东口南石渣厂2#,李家洼小学变压器2,曲阳县隆顺石材废料处理加工厂变压器,0000007214东口南（2）西区变压器,东口南11区变压器,东口南小学变压器,东口南小学西校区变压器,曲阳县少峰建材经销公司变压器,曲阳县英利石渣厂（2＃）,县石灰厂1#,东口南5区柱上变压器,曲阳县第一石灰石料厂（1）,李家洼农灌变压器,0000005642李家洼南区变压器,曲阳县顺发灰粉厂(曹立山),曲阳县振兴建材厂,东口南6区变压器,曲阳华峰石材经营部变压器,曲阳县玉朝建材经销处变压器","powerOffReason":"【停电原因】由于棋南３６４线路Ａ相接地导致３５ＫＶ东口南变电站１０ＫＶ５２２崔古庄线路全线停电【变更送电】因抢修进度加快原因，送电时间由１６：００变更为１３：２０【发布渠道】通过９５５９８发布","powerOffId":"2020011913000013"},{"poweroffId":2020011913000011,"sgpoweroffId":null,"subsName":"","lineName":"10kV525槐树埝线","pubTranName":"0000006712槐树埝东2变压器,下店幼儿园变压器,0014438461齐古庄西区变压器,槐树埝小学变压器,0000004984河东变压器,0000005394城南北变压器,0000004987峪里变压器,0000004982党城东变压器,0012149561城南南2区变压器,0000004997北辛庄变压器,党城东3变压器,下店3区变压器,城南小学变压器1,0000005643槐树埝东变压器,0012872412党城东2变压器,峪里村2区变压器,0000006302齐古庄北变压器,0000004996下店变压器,0012429814槐树埝北区变压器,齐古庄小学变压器,党城乡卫生院变压器,0000006741城南副业变压器,下店小学变压器,0014418698城南西3区变压器,河东小学变压器,城南西4变压器,北辛庄北区变压器,0000005010槐树埝100变压器,0000005465党城南变变压器,0000006632河东西变压器,西口南5区柱上变压器【纯农排变】,0000007140党城南2变压器,城南幼儿园变压器,0012952890河东东区变压器,0000005996槐树埝西变压器,0000004994槐树埝变压器,党城南3区变压器,0014305134城南西变压器,0014364454城南西2区变压器,0000004995齐古庄变压器,0000005680漫石道统管变压器,0000006982下店北区变压器,0000004985城南南变压器,城南小学变压器2,0000006154城南东变压器,","scope":"【影响街道/乡镇】党城乡【高危重要客户】无【影响客户】槐树埝、漫石道、党城、下店、北辛庄、河东、峪里、城南、东口南、齐古庄","startTime":"2020-01-19 03:30:00","stopDate":"2020-01-19 13:20:00","orgNo":"1340619","typeCode":"电网故障停限电","poweroffArea":"【全线路停电】停0000006302齐古庄北变压器,0000004996下店变压器,曲阳县艺峰雕刻有限公司1,0012429814槐树埝北区变压器,曲阳县汇泰园林雕塑有限公司变压器,鑫源雕刻厂,曲阳县元丰工艺雕刻厂3,齐古庄小学变压器,首信石业,曲阳县金腾石料有限公司变压器,0014364454城南西2区变压器,曲阳县美林雕刻有限公司变压器,党城南3区变压器,曲阳县飞宇雕刻厂有限公司变压器,0000006982下店北区变压器,0000004985城南南变压器,0000006641峪里农灌2#变压器,城南小学变压器2,0000006154城南东变压器,0000004982党城东变压器,曲阳县达兴雕刻厂变压器,槐树埝小学变压器,曲阳县嘉庆雕刻厂变压器,0000006051峪里统管农灌变压器,0000004984河东变压器,0000005394城南北变压器,0000004987峪里变压器,曲阳县品尚园林工程有限公司变压器,飞煌雕刻厂,飞天雕刻有限公司,党城东3变压器,下店3区变压器,东口南钻井,城南小学变压器1,曲阳县奥艺美术雕刻厂变压器,0000005643槐树埝东变压器,0012872412党城东2变压器,峪里村2区变压器,曲阳县金鑫雕刻厂,0000004995齐古庄变压器,0000005680漫石道统管变压器,曲阳县复兴工艺雕刻厂,曲阳县艺达雕刻厂2#,0000005996槐树埝西变压器,0000004994槐树埝变压器,0014438461齐古庄西区变压器,康乐方便面厂,0014305134城南西变压器,党城卢二群面粉厂,曲阳县永信石材销售部变压器,下店甄敬会,曲阳县天峰工艺雕刻厂,吕满庄木材加工厂,0000006741城南副业变压器,下店小学变压器,曲阳县艺达雕刻厂,0014418698城南西3区变压器,河东小学变压器,城南西4变压器,曲阳县华新雕刻厂,北辛庄北区变压器,元丰工艺雕刻厂,0000005010槐树埝100变压器,曲阳县富源雕刻石材厂变压器,曲阳县华石山石材有限公司,0469546545-曲阳县华风雕刻厂-专变-46836332-曲阳县华风雕刻厂,曲阳县华鑫石材雕刻有限公司,0000005465党城南变变压器,0000006632河东西变压器,曲阳县海鸥油脂厂,利新化工有限公司（1＃）,西口南5区柱上变压器【纯农排变】,0690207824-曲阳县党城艺龙雕刻厂-专变-231655549-曲阳县党城艺龙雕刻厂变压器,0000007140党城南2变压器,0690208784-曲阳县亮峰石板厂-专变-232197330-曲阳县党城艺龙雕刻厂变压器,曲阳县瑞犇养殖农民专业合作社,利新化工有限公司（2#）,甄三女面粉加工,曲阳县飞宇雕刻有限公司,曲阳县艺峰雕刻厂变压器,曲阳县腾飞雕刻厂,曲阳县艺峰雕刻有限公司2,曲阳县元丰工艺雕刻厂2＃,城南幼儿园变压器,曲阳县少华石板加工厂变压器,0012952890河东东区变压器,0012149561城南南2区变压器,0000004997北辛庄变压器,下店幼儿园变压器,曲阳利新油脂化工有限公司,曹文栋石材厂,双飞雕刻厂,利新化工有限公司(3#),曲阳县利新油脂化工厂,河北飞天工艺品有限公司,新蕾雕刻厂,党城乡卫生院变压器,甄兴辉（东）,甄兴辉（西）,0000006712槐树埝东2变压器","poweroffReason":"【停电原因】由于棋南３６４线路Ａ相接地导致３５ＫＶ东口南变电站１０ＫＶ５２５槐树埝线路全线停电【变更送电】因抢修进度加快原因，送电时间由１６：００变更为１３：２０【发布渠道】通过９５５９８发布","powerTime":"2020-01-19 13:01:50","powerComm":"已送电","subsNo":"","lineNo":"","tgNo":"","tgName":null,"infoStatus":"1","orgName":"国网曲阳县供电公司","typeName":null,"infoStatusName":null,"dateDay":null,"orgNos":null,"nowTime":null,"countyName":null,"streetName":null,"villageName":null,"roadName":null,"communityName":null,"tranName":null,"sdLineName":null,"cityCode":"1340619","cityName":"国网曲阳县供电公司","provinceCode":null,"stopTime":"2020-01-19 13:20:00","powerType":"全部","powerOffArea":"【全线路停电】停0000006302齐古庄北变压器,0000004996下店变压器,曲阳县艺峰雕刻有限公司1,0012429814槐树埝北区变压器,曲阳县汇泰园林雕塑有限公司变压器,鑫源雕刻厂,曲阳县元丰工艺雕刻厂3,齐古庄小学变压器,首信石业,曲阳县金腾石料有限公司变压器,0014364454城南西2区变压器,曲阳县美林雕刻有限公司变压器,党城南3区变压器,曲阳县飞宇雕刻厂有限公司变压器,0000006982下店北区变压器,0000004985城南南变压器,0000006641峪里农灌2#变压器,城南小学变压器2,0000006154城南东变压器,0000004982党城东变压器,曲阳县达兴雕刻厂变压器,槐树埝小学变压器,曲阳县嘉庆雕刻厂变压器,0000006051峪里统管农灌变压器,0000004984河东变压器,0000005394城南北变压器,0000004987峪里变压器,曲阳县品尚园林工程有限公司变压器,飞煌雕刻厂,飞天雕刻有限公司,党城东3变压器,下店3区变压器,东口南钻井,城南小学变压器1,曲阳县奥艺美术雕刻厂变压器,0000005643槐树埝东变压器,0012872412党城东2变压器,峪里村2区变压器,曲阳县金鑫雕刻厂,0000004995齐古庄变压器,0000005680漫石道统管变压器,曲阳县复兴工艺雕刻厂,曲阳县艺达雕刻厂2#,0000005996槐树埝西变压器,0000004994槐树埝变压器,0014438461齐古庄西区变压器,康乐方便面厂,0014305134城南西变压器,党城卢二群面粉厂,曲阳县永信石材销售部变压器,下店甄敬会,曲阳县天峰工艺雕刻厂,吕满庄木材加工厂,0000006741城南副业变压器,下店小学变压器,曲阳县艺达雕刻厂,0014418698城南西3区变压器,河东小学变压器,城南西4变压器,曲阳县华新雕刻厂,北辛庄北区变压器,元丰工艺雕刻厂,0000005010槐树埝100变压器,曲阳县富源雕刻石材厂变压器,曲阳县华石山石材有限公司,0469546545-曲阳县华风雕刻厂-专变-46836332-曲阳县华风雕刻厂,曲阳县华鑫石材雕刻有限公司,0000005465党城南变变压器,0000006632河东西变压器,曲阳县海鸥油脂厂,利新化工有限公司（1＃）,西口南5区柱上变压器【纯农排变】,0690207824-曲阳县党城艺龙雕刻厂-专变-231655549-曲阳县党城艺龙雕刻厂变压器,0000007140党城南2变压器,0690208784-曲阳县亮峰石板厂-专变-232197330-曲阳县党城艺龙雕刻厂变压器,曲阳县瑞犇养殖农民专业合作社,利新化工有限公司（2#）,甄三女面粉加工,曲阳县飞宇雕刻有限公司,曲阳县艺峰雕刻厂变压器,曲阳县腾飞雕刻厂,曲阳县艺峰雕刻有限公司2,曲阳县元丰工艺雕刻厂2＃,城南幼儿园变压器,曲阳县少华石板加工厂变压器,0012952890河东东区变压器,0012149561城南南2区变压器,0000004997北辛庄变压器,下店幼儿园变压器,曲阳利新油脂化工有限公司,曹文栋石材厂,双飞雕刻厂,利新化工有限公司(3#),曲阳县利新油脂化工厂,河北飞天工艺品有限公司,新蕾雕刻厂,党城乡卫生院变压器,甄兴辉（东）,甄兴辉（西）,0000006712槐树埝东2变压器","powerOffReason":"【停电原因】由于棋南３６４线路Ａ相接地导致３５ＫＶ东口南变电站１０ＫＶ５２５槐树埝线路全线停电【变更送电】因抢修进度加快原因，送电时间由１６：００变更为１３：２０【发布渠道】通过９５５９８发布","powerOffId":"2020011913000011"},{"poweroffId":2020011913000010,"sgpoweroffId":null,"subsName":"","lineName":"10kV524下庄线","pubTranName":"上庄尔光伏变压器【光伏】,0014456310耳朵山西区,万华中学变压器2号,0000005057耳朵山变压器,北孝墓中心小学变压器,0000005059东沟变压器,万华中学变压器1,上庄尔小学变压器,0012422784东沟西区变压器,岭尔上东区变压器,岭尔上光伏变压器,0012479904东沟东区变压器,0000007149上庄尔2区变压器,上庄尔4区变压器,东沟光伏变压器,上庄尔3区变压器,0012930347下庄尔东区变压器,0000005538白山涧变压器,0000006583东沟统管副业变压器,北孝墓西变压器,白山峡农灌变压器,0000005062下庄尔村变压器,耳朵山光伏变压器,0000005061上庄尔村变压器,北孝墓幼儿园变压器,0000005060岭尔上变压器,耳朵山农灌2变压器【纯农排变】,下庄光伏变压器,","scope":"【影响街道/乡镇】孝墓乡【高危重要客户】无【影响客户】东沟、下庄尔、白山涧、上庄尔、岭尔上、耳朵山、北孝墓","startTime":"2020-01-19 03:30:35","stopDate":"2020-01-19 13:20:00","orgNo":"1340619","typeCode":"电网故障停限电","poweroffArea":"【全线路停电】停0014456315东沟农灌【纯农排变】,耳朵山农灌1变压器【纯农排变】,曲阳县伟业商贸有限公司,0012422784东沟西区变压器,曲阳县博泉矿产品销售有限公司变压器,0012479904东沟东区变压器,0469350281-东沟饮用水井-专变-46780928-东沟饮用水井,曲阳县农发投美丽乡村建设有限公司变压器,上庄尔农灌变压器【纯农排变】,下庄光伏变压器,上庄尔光伏变压器【光伏】,曲阳县宏腾商砼有限公司变压器,耳朵山农灌2变压器【纯农排变】,杨砂候农灌3变压器【纯农排变】,0000005057耳朵山变压器,北孝墓中心小学变压器,0000007149上庄尔2区变压器,上庄尔4区变压器,杨砂候农灌2变压器【纯农排变】,曲阳县顺益雕刻厂变压器,0014335419杨砂侯农灌【纯农排变】,曲阳县瀚达建材经销部变压器,东沟光伏变压器,0012930347下庄尔东区变压器,曲阳县亨达矿产品购销有限公司变压器,白山峡农灌变压器,曲阳县刘玉华建材销售部变压器,0000005062下庄尔村变压器,0014456310耳朵山西区,0000005059东沟变压器,岭尔上东区变压器,岭尔上光伏变压器,孝木万华中学,0000006583东沟统管副业变压器,万华中学变压器2号,万华中学变压器1,上庄尔小学变压器,耳朵山机台,上庄尔3区变压器,0000005538白山涧变压器,北孝墓西变压器,耳朵山光伏变压器,上庄尔农灌2变压器【纯农排变】,0000005061上庄尔村变压器,北孝墓幼儿园变压器,0000005060岭尔上变压器,东沟收费站,下庄尔村农灌【纯农排变】","poweroffReason":"【停电原因】由于棋南３６４线路Ａ相接地导致３５ＫＶ东口南变电站１０ＫＶ５２４下庄线路全线停电【变更送电】因抢修进度加快原因，送电时间由１６：００变更为１３：２０【发布渠道】通过９５５９８发布","powerTime":"2020-01-19 12:59:57","powerComm":"已送电","subsNo":"","lineNo":"","tgNo":"","tgName":null,"infoStatus":"1","orgName":"国网曲阳县供电公司","typeName":null,"infoStatusName":null,"dateDay":null,"orgNos":null,"nowTime":null,"countyName":null,"streetName":null,"villageName":null,"roadName":null,"communityName":null,"tranName":null,"sdLineName":null,"cityCode":"1340619","cityName":"国网曲阳县供电公司","provinceCode":null,"stopTime":"2020-01-19 13:20:00","powerType":"全部","powerOffArea":"【全线路停电】停0014456315东沟农灌【纯农排变】,耳朵山农灌1变压器【纯农排变】,曲阳县伟业商贸有限公司,0012422784东沟西区变压器,曲阳县博泉矿产品销售有限公司变压器,0012479904东沟东区变压器,0469350281-东沟饮用水井-专变-46780928-东沟饮用水井,曲阳县农发投美丽乡村建设有限公司变压器,上庄尔农灌变压器【纯农排变】,下庄光伏变压器,上庄尔光伏变压器【光伏】,曲阳县宏腾商砼有限公司变压器,耳朵山农灌2变压器【纯农排变】,杨砂候农灌3变压器【纯农排变】,0000005057耳朵山变压器,北孝墓中心小学变压器,0000007149上庄尔2区变压器,上庄尔4区变压器,杨砂候农灌2变压器【纯农排变】,曲阳县顺益雕刻厂变压器,0014335419杨砂侯农灌【纯农排变】,曲阳县瀚达建材经销部变压器,东沟光伏变压器,0012930347下庄尔东区变压器,曲阳县亨达矿产品购销有限公司变压器,白山峡农灌变压器,曲阳县刘玉华建材销售部变压器,0000005062下庄尔村变压器,0014456310耳朵山西区,0000005059东沟变压器,岭尔上东区变压器,岭尔上光伏变压器,孝木万华中学,0000006583东沟统管副业变压器,万华中学变压器2号,万华中学变压器1,上庄尔小学变压器,耳朵山机台,上庄尔3区变压器,0000005538白山涧变压器,北孝墓西变压器,耳朵山光伏变压器,上庄尔农灌2变压器【纯农排变】,0000005061上庄尔村变压器,北孝墓幼儿园变压器,0000005060岭尔上变压器,东沟收费站,下庄尔村农灌【纯农排变】","powerOffReason":"【停电原因】由于棋南３６４线路Ａ相接地导致３５ＫＶ东口南变电站１０ＫＶ５２４下庄线路全线停电【变更送电】因抢修进度加快原因，送电时间由１６：００变更为１３：２０【发布渠道】通过９５５９８发布","powerOffId":"2020011913000010"},{"poweroffId":2020011913000008,"sgpoweroffId":null,"subsName":"","lineName":"10kV523南庄线","pubTranName":"北孝墓卫生院变压器,南青阳贯东区变压器,南青阳贯3区变压器,北青阳贯5区变压器,0013362875南青阳贯农灌【纯农排变】,0012479016北青阳贯3区变压器,北孝墓变压器【光伏】,柳树沟机井变压器,南青阳贯小学变压器,北孝墓6区变压器,东庄3区变压器,北孝墓5区变压器,孙家庄南东变压器,柳树沟光伏变压器【光伏】,0014464914孙家庄南,孙家庄幼儿园变压器,0014334959孙家庄东区变压器,孙家庄村光伏变压器【光伏】,0000006313南庄南区变压器,南庄光伏变压器【光伏】,南庄4区变压器,0000004831北孝墓北区变压器,0000004833南庄变压器,南青阳贯光伏变压器【光伏】,孙家庄南西变压器,0000004824北青阳贯1区变压器,0012457420北青阳贯4区,0000004835孙家庄变压器,孝墓派出所变压器,柳树沟3区变压器,0000004832柳树沟1区变压器,0000007118东庄2区变压器,东庄1区变压器,柳树沟幼儿园变压器,0000005535中孝墓北区变压器,南庄3区变压器,0000005405中孝墓东区变压器,南庄幼儿园变压器,南庄2区变压器,0013361891孙家庄东农灌变压器【纯农排变】,0000004834东庄变压器,南庄小学变压器,孙家庄西变压器,0000004825南清阳贯变压器,北青阳贯农灌1变压器,东庄2区变压器,0000004830北孝墓南区变压器,南庄5区变压器,0000006314孙家庄北区变压器,0000007128南青阳贯二区增容变压器,0000006821北青阳贯2区变压器,0012422788北孝墓村变压器,0012422787柳树沟南区变压器,北青阳贯变压器【光伏】,0000006932柳树构2区变压器,北青阳贯幼儿园变压器,中孝墓光伏变压器[光伏】,","scope":"【影响街道/乡镇】孝墓乡【高危重要客户】无【影响客户】东孝墓、中孝墓村、孙家庄、东庄、北孝墓、南庄、南青阳贯、柳树构、西孝墓、北青阳贯","startTime":"2020-01-19 03:30:00","stopDate":"2020-01-19 13:20:00","orgNo":"1340619","typeCode":"电网故障停限电","poweroffArea":"【全线路停电】停0013361892孙家庄南农灌变压器【纯农排变】,孝墓派出所变压器,柳树沟3区变压器,0000004832柳树沟1区变压器,0000007118东庄2区变压器,东庄1区变压器,0014464917柳树沟农1【纯农排变】,柳树沟幼儿园变压器,0000005535中孝墓北区变压器,曲阳县青阳奶农专业合作社变压器,0014464389北孝墓农1【纯农排变】,0014464909孙家庄水库农灌3【纯农排变】,0678314759-国家电投集团曲阳新能源发电有限公司-专变-217802638-国家电投集团曲阳新能源发电有限公司变压器,南庄3区变压器,0000005405中孝墓东区变压器,南庄幼儿园变压器,南庄2区变压器,曲阳县大金安包装有限公司变压器,0000004834东庄变压器,南庄小学变压器,孙家庄西变压器,0000004825南清阳贯变压器,北青阳贯农灌1变压器,东庄2区变压器,0000004830北孝墓南区变压器,南庄5区变压器,0000006314孙家庄北区变压器,0000007128南青阳贯二区增容变压器,曲阳县晨新建材有限公司变压器,中电投曲阳新能源发电有限公司变压器,0000006821北青阳贯2区变压器,0012422788北孝墓村变压器,中电投曲阳新能源发电有限公司二期变压器,孙家庄水库农灌4#【纯农排变】,0012422787柳树沟南区变压器,0014464912北孝墓农2【纯农排变】,南庄王秀成,0014464916柳树沟农2【纯农排变】,北青阳贯变压器【光伏】,0000006932柳树构2区变压器,北青阳贯幼儿园变压器,中孝墓光伏变压器[光伏】,0014464914孙家庄南,0014334959孙家庄东区变压器,北孝墓卫生院变压器,南青阳贯东区变压器,南青阳贯3区变压器,北青阳贯5区变压器,孙家庄南东变压器,0013361893孙家庄水库农灌2变压器【纯农排变】,柳树沟光伏变压器【光伏】,孙家庄幼儿园变压器,0013361891孙家庄东农灌变压器【纯农排变】,孙家庄村光伏变压器【光伏】,0000006313南庄南区变压器,0014464913柳树沟农3【纯农排变】,南庄光伏变压器【光伏】,南庄4区变压器,0000004831北孝墓北区变压器,0000004833南庄变压器,曲阳县隆鑫养殖场变压器,曲阳县大金安包装有限公司,南青阳贯光伏变压器【光伏】,孙家庄南西变压器,0000004824北青阳贯1区变压器,0012457420北青阳贯4区,曲阳县爱军石料建材经销处变压器,0000004835孙家庄变压器,0013362875南青阳贯农灌【纯农排变】,0013362877孙家庄水库农灌变压器【纯农排变】,0012479016北青阳贯3区变压器,北孝墓变压器【光伏】,柳树沟机井变压器,南青阳贯小学变压器,孙家庄水库农灌5#【纯农排变】,北孝墓6区变压器,东庄3区变压器,北孝墓5区变压器","poweroffReason":"【停电原因】由于棋南３６４线路Ａ相接地导致３５ＫＶ东口南变电站１０ＫＶ５２３南庄线路全线停电【变更送电】因抢修进度加快原因，送电时间由１６：００变更为:１３：２０【发布渠道】通过９５５９８发布","powerTime":"2020-01-19 12:56:52","powerComm":"已送电","subsNo":"","lineNo":"","tgNo":"","tgName":null,"infoStatus":"1","orgName":"国网曲阳县供电公司","typeName":null,"infoStatusName":null,"dateDay":null,"orgNos":null,"nowTime":null,"countyName":null,"streetName":null,"villageName":null,"roadName":null,"communityName":null,"tranName":null,"sdLineName":null,"cityCode":"1340619","cityName":"国网曲阳县供电公司","provinceCode":null,"stopTime":"2020-01-19 13:20:00","powerType":"全部","powerOffArea":"【全线路停电】停0013361892孙家庄南农灌变压器【纯农排变】,孝墓派出所变压器,柳树沟3区变压器,0000004832柳树沟1区变压器,0000007118东庄2区变压器,东庄1区变压器,0014464917柳树沟农1【纯农排变】,柳树沟幼儿园变压器,0000005535中孝墓北区变压器,曲阳县青阳奶农专业合作社变压器,0014464389北孝墓农1【纯农排变】,0014464909孙家庄水库农灌3【纯农排变】,0678314759-国家电投集团曲阳新能源发电有限公司-专变-217802638-国家电投集团曲阳新能源发电有限公司变压器,南庄3区变压器,0000005405中孝墓东区变压器,南庄幼儿园变压器,南庄2区变压器,曲阳县大金安包装有限公司变压器,0000004834东庄变压器,南庄小学变压器,孙家庄西变压器,0000004825南清阳贯变压器,北青阳贯农灌1变压器,东庄2区变压器,0000004830北孝墓南区变压器,南庄5区变压器,0000006314孙家庄北区变压器,0000007128南青阳贯二区增容变压器,曲阳县晨新建材有限公司变压器,中电投曲阳新能源发电有限公司变压器,0000006821北青阳贯2区变压器,0012422788北孝墓村变压器,中电投曲阳新能源发电有限公司二期变压器,孙家庄水库农灌4#【纯农排变】,0012422787柳树沟南区变压器,0014464912北孝墓农2【纯农排变】,南庄王秀成,0014464916柳树沟农2【纯农排变】,北青阳贯变压器【光伏】,0000006932柳树构2区变压器,北青阳贯幼儿园变压器,中孝墓光伏变压器[光伏】,0014464914孙家庄南,0014334959孙家庄东区变压器,北孝墓卫生院变压器,南青阳贯东区变压器,南青阳贯3区变压器,北青阳贯5区变压器,孙家庄南东变压器,0013361893孙家庄水库农灌2变压器【纯农排变】,柳树沟光伏变压器【光伏】,孙家庄幼儿园变压器,0013361891孙家庄东农灌变压器【纯农排变】,孙家庄村光伏变压器【光伏】,0000006313南庄南区变压器,0014464913柳树沟农3【纯农排变】,南庄光伏变压器【光伏】,南庄4区变压器,0000004831北孝墓北区变压器,0000004833南庄变压器,曲阳县隆鑫养殖场变压器,曲阳县大金安包装有限公司,南青阳贯光伏变压器【光伏】,孙家庄南西变压器,0000004824北青阳贯1区变压器,0012457420北青阳贯4区,曲阳县爱军石料建材经销处变压器,0000004835孙家庄变压器,0013362875南青阳贯农灌【纯农排变】,0013362877孙家庄水库农灌变压器【纯农排变】,0012479016北青阳贯3区变压器,北孝墓变压器【光伏】,柳树沟机井变压器,南青阳贯小学变压器,孙家庄水库农灌5#【纯农排变】,北孝墓6区变压器,东庄3区变压器,北孝墓5区变压器","powerOffReason":"【停电原因】由于棋南３６４线路Ａ相接地导致３５ＫＶ东口南变电站１０ＫＶ５２３南庄线路全线停电【变更送电】因抢修进度加快原因，送电时间由１６：００变更为:１３：２０【发布渠道】通过９５５９８发布","powerOffId":"2020011913000008"},{"poweroffId":2020011913000004,"sgpoweroffId":null,"subsName":"","lineName":"10kV524供电局线","pubTranName":"南庄子公用照明5台区,（191）清风中路公用照明台区中压出线间隔配电变压器,（1）南庄子村公用照明3台区,（174）人事局院公用照明台区中压出线间隔配电变压器,南庄子公用照明4台区,（49）文庙小学公用照明台区,（155）赵喜勤公用照明台区中压出线间隔配电变压器,（154）畜牧局院公用照明台区,（63）文庙大队公用照明台区,文庙小学公用照明2台区,（132）法院院公用照明台区,清风北路公用照明台区中压出线间隔配电变压器,","scope":"【影响街道/乡镇】北城区、文庙街、大道观街、清风北路【高危重要客户】８６４０部队【影响客户】清风路加油站、法院、交通局、供电局、技术监督局、畜牧局、恒泰国际小区、京津悦明园、南庄子、人事局家属院、社保院、凤祥园小区、允正公寓、城建市政家属院、文庙小学附近、文庙后街、部队家属院","startTime":"2020-01-19 01:07:01","stopDate":"2020-01-19 12:00:00","orgNo":"1340610","typeCode":"电网故障停限电","poweroffArea":"【全线路停电】停（63）文庙大队公用照明台区,文庙小学公用照明2台区,（132）法院院公用照明台区,清风北路公用照明台区中压出线间隔配电变压器,南庄子公用照明5台区,（191）清风中路公用照明台区中压出线间隔配电变压器,（1）南庄子村公用照明3台区,（174）人事局院公用照明台区中压出线间隔配电变压器,南庄子公用照明4台区,（49）文庙小学公用照明台区,河北盛东房地产开发有限公司照明变压器3,（155）赵喜勤公用照明台区中压出线间隔配电变压器,（154）畜牧局院公用照明台区","poweroffReason":"【停电原因】由于主干０６号电缆分接箱损坏导致１１０ＫＶ总司屯变电站１０ＫＶ５２４供电局线路全线停电 【变更送电】无 【发布渠道】９５５９８","powerTime":"2020-01-19 11:07:41","powerComm":"已送电","subsNo":"","lineNo":"","tgNo":"","tgName":null,"infoStatus":"1","orgName":"国网定州市供电公司","typeName":null,"infoStatusName":null,"dateDay":null,"orgNos":null,"nowTime":null,"countyName":null,"streetName":null,"villageName":null,"roadName":null,"communityName":null,"tranName":null,"sdLineName":null,"cityCode":"1340610","cityName":"国网定州市供电公司","provinceCode":null,"stopTime":"2020-01-19 12:00:00","powerType":"全部","powerOffArea":"【全线路停电】停（63）文庙大队公用照明台区,文庙小学公用照明2台区,（132）法院院公用照明台区,清风北路公用照明台区中压出线间隔配电变压器,南庄子公用照明5台区,（191）清风中路公用照明台区中压出线间隔配电变压器,（1）南庄子村公用照明3台区,（174）人事局院公用照明台区中压出线间隔配电变压器,南庄子公用照明4台区,（49）文庙小学公用照明台区,河北盛东房地产开发有限公司照明变压器3,（155）赵喜勤公用照明台区中压出线间隔配电变压器,（154）畜牧局院公用照明台区","powerOffReason":"【停电原因】由于主干０６号电缆分接箱损坏导致１１０ＫＶ总司屯变电站１０ＫＶ５２４供电局线路全线停电 【变更送电】无 【发布渠道】９５５９８","powerOffId":"2020011913000004"}],"pageModel":{"pageNow":305,"totalCount":10973,"totalPage":1098,"tableRows":0,"pageCount":10,"beginCount":3040},"isExperi":"1"}