{"message":"","today":"2020-06-15","seleList":[{"poweroffId":2020011913000002,"sgpoweroffId":null,"subsName":"","lineName":"10kV522商场线","pubTranName":"（42）南大街北公用照明台区,（96）水汶大队公用照明1台区,（81）新立街公用照明1台区,（26）文庙街公用照明1台区,文庙街公用照明4台区,（184）劳改大队公用照明2台区,（44）北门街公用照明台区,北门街公用照明2台区,（167）齿轮厂北院公用照明台区,（106）土地大众院公用照明台区,（84）物资局院公用照明台区,南大北公用照明2台区,（185）劳改大队公用照明1台区,（82）新立街公用照明2台区,（60）东大街东公用照明台区,（23）南大街中公用照明台区,（2）南大街南公用照明台区,（194）土地局院公用照明台区,文庙街公用照明3台区,（177）文庙街公用照明2台区,","scope":"【影响街道/乡镇】北门街、北大街、新立街、文庙街、南大街、马道街、东大街、兴定路、中心街、中山东路、城里南街、都府营街、仓门口街、崇文街、开元寺大街【高危重要客户】８６４０部队、定州市博物馆【影响客户】考棚、水汶大队院、文博园、福源商场、土地局、土地局家属院、铭都花园、屈家胡同、物资局家属院、熙尚园小区、大众家属院、网通家属院、监狱家属院、东方城市花园小区、金地花园小区","startTime":"2020-01-19 01:02:14","stopDate":"2020-01-19 15:00:00","orgNo":"1340610","typeCode":"电网故障停限电","poweroffArea":"【全线路停电】停文庙街公用照明4台区,（185）劳改大队公用照明1台区,（44）北门街公用照明台区,北门街公用照明2台区,（167）齿轮厂北院公用照明台区,（60）东大街东公用照明台区,（106）土地大众院公用照明台区,（184）劳改大队公用照明2台区,南大北公用照明2台区,（23）南大街中公用照明台区,（42）南大街北公用照明台区,（2）南大街南公用照明台区,（96）水汶大队公用照明1台区,（84）物资局院公用照明台区,（194）土地局院公用照明台区,（26）文庙街公用照明1台区,（177）文庙街公用照明2台区,文庙街公用照明3台区,（82）新立街公用照明2台区,（81）新立街公用照明1台区","poweroffReason":"【停电原因】由于银都花园配变烧毁导致１１０ＫＶ总司屯变电站１０ＫＶ５２２商场线路全线停电 【变更送电】因抢修进度加快原因，送电时间由１８：００变更为１５：００ 【发布渠道】９５５９８","powerTime":"2020-01-19 14:44:50","powerComm":"已送电","subsNo":"","lineNo":"","tgNo":"","tgName":null,"infoStatus":"1","orgName":"国网定州市供电公司","typeName":null,"infoStatusName":null,"dateDay":null,"orgNos":null,"nowTime":null,"countyName":null,"streetName":null,"villageName":null,"roadName":null,"communityName":null,"tranName":null,"sdLineName":null,"cityCode":"1340610","cityName":"国网定州市供电公司","provinceCode":null,"stopTime":"2020-01-19 15:00:00","powerType":"全部","powerOffArea":"【全线路停电】停文庙街公用照明4台区,（185）劳改大队公用照明1台区,（44）北门街公用照明台区,北门街公用照明2台区,（167）齿轮厂北院公用照明台区,（60）东大街东公用照明台区,（106）土地大众院公用照明台区,（184）劳改大队公用照明2台区,南大北公用照明2台区,（23）南大街中公用照明台区,（42）南大街北公用照明台区,（2）南大街南公用照明台区,（96）水汶大队公用照明1台区,（84）物资局院公用照明台区,（194）土地局院公用照明台区,（26）文庙街公用照明1台区,（177）文庙街公用照明2台区,文庙街公用照明3台区,（82）新立街公用照明2台区,（81）新立街公用照明1台区","powerOffReason":"【停电原因】由于银都花园配变烧毁导致１１０ＫＶ总司屯变电站１０ＫＶ５２２商场线路全线停电 【变更送电】因抢修进度加快原因，送电时间由１８：００变更为１５：００ 【发布渠道】９５５９８","powerOffId":"2020011913000002"},{"poweroffId":2020011821000015,"sgpoweroffId":null,"subsName":"","lineName":"10kV朝阳路站531线路","pubTranName":"B1416柱上变压器,","scope":"【影响街道/乡镇】新市区、花园街、小集街、集贸胡同 【高危重要客户】无 【影响客户】 精文公寓、橡胶厂宿舍","startTime":"2020-01-18 21:00:00","stopDate":"2020-01-18 22:40:00","orgNo":"13406","typeCode":"电网故障停限电","poweroffArea":"【单台区停电】停B1416柱上变压器","poweroffReason":"【停电原因】由于低压保险片烧导致１０ＫＶ朝阳变电站５３１线路Ｂ１４１６公变台区停电【变更送电】因抢修进度加快，原定１９日０１:００送电现计划１８日２２:４０送电。【发布渠道】通过９５５９８发布","powerTime":"2020-01-18 22:17:35","powerComm":"已送电","subsNo":"","lineNo":"","tgNo":"","tgName":null,"infoStatus":"1","orgName":"保定供电公司","typeName":null,"infoStatusName":null,"dateDay":null,"orgNos":null,"nowTime":null,"countyName":null,"streetName":null,"villageName":null,"roadName":null,"communityName":null,"tranName":null,"sdLineName":null,"cityCode":"13406","cityName":"保定供电公司","provinceCode":null,"stopTime":"2020-01-18 22:40:00","powerType":"全部","powerOffArea":"【单台区停电】停B1416柱上变压器","powerOffReason":"【停电原因】由于低压保险片烧导致１０ＫＶ朝阳变电站５３１线路Ｂ１４１６公变台区停电【变更送电】因抢修进度加快，原定１９日０１:００送电现计划１８日２２:４０送电。【发布渠道】通过９５５９８发布","powerOffId":"2020011821000015"},{"poweroffId":2020011821000004,"sgpoweroffId":null,"subsName":"","lineName":"10kV利民路站562线路","pubTranName":"B363柱上变压器,","scope":"【影响街道/乡镇】莲池区三丰路、利民路 【高危重要客户】无 【影响客户】公安宿舍、三丰路货场、植物油宿舍","startTime":"2020-01-18 11:30:00","stopDate":"2020-01-18 15:00:00","orgNo":"13406","typeCode":"电网故障停限电","poweroffArea":"【单台区停电】停B363柱上变压器","poweroffReason":"【停电原因】由于低压刀闸烧导致１０ＫＶ利民路变电站５６２线路Ｂ３６３公变台区停电【变更送电】无【发布渠道】通过９５５９８发布","powerTime":"2020-01-18 14:27:13","powerComm":"已送电","subsNo":"","lineNo":"","tgNo":"","tgName":null,"infoStatus":"1","orgName":"保定供电公司","typeName":null,"infoStatusName":null,"dateDay":null,"orgNos":null,"nowTime":null,"countyName":null,"streetName":null,"villageName":null,"roadName":null,"communityName":null,"tranName":null,"sdLineName":null,"cityCode":"13406","cityName":"保定供电公司","provinceCode":null,"stopTime":"2020-01-18 15:00:00","powerType":"全部","powerOffArea":"【单台区停电】停B363柱上变压器","powerOffReason":"【停电原因】由于低压刀闸烧导致１０ＫＶ利民路变电站５６２线路Ｂ３６３公变台区停电【变更送电】无【发布渠道】通过９５５９８发布","powerOffId":"2020011821000004"},{"poweroffId":2020011813000053,"sgpoweroffId":null,"subsName":"","lineName":"10KV太平村513","pubTranName":"河西村南台区,太平村水塔台区变压器,北龙门隧道500KVA专变1#,北龙门隧道160KVA专变4#,北龙门隧道630KVA专变6#,林里隧道500KVA专变,北龙门隧道630KVA专变5#,北庄西河滩台区,北龙门隧道160KVA专变3#,北龙门隧道500KVA专变2#,北龙门隧道500KVA专变,北龙门隧道200KVA专变,镇厂大街3台区,北龙门隧道250KVA专变,高永喜,北庄大河滩台区变压器,镇厂大街五台区,张涿一标商砼400KVA专变,","scope":"【影响街道/乡镇】九龙镇 【高危重要客户】无 【影响客户】北庄村、镇厂村、张涿高速","startTime":"2020-01-18 20:50:00","stopDate":"2020-01-18 22:00:00","orgNo":"1340614","typeCode":"电网故障停限电","poweroffArea":"【全线路停电】停北龙门隧道500KVA专变,北龙门隧道200KVA专变,镇厂大街3台区,北龙门隧道250KVA专变,高永喜,北庄大河滩台区变压器,镇厂大街五台区,张涿一标商砼400KVA专变,河西村南台区,太平村水塔台区变压器,北龙门隧道500KVA专变1#,北龙门隧道160KVA专变4#,北龙门隧道630KVA专变6#,林里隧道500KVA专变,北龙门隧道630KVA专变5#,北庄西河滩台区,北龙门隧道160KVA专变3#,北龙门隧道500KVA专变2#","poweroffReason":"【停电原因】由于速断跳闸导致３５ＫＶ镇厂变电站１０ＫＶ太平村５１３线路全线停电 【变更送电】因抢修进度加快原因，送电时间由２３：３０变更为２２：００ 【发布渠道】通过９５５９８发布","powerTime":"2020-01-18 21:46:18","powerComm":"已送电","subsNo":"","lineNo":"","tgNo":"","tgName":null,"infoStatus":"1","orgName":"国网涞水县供电公司","typeName":null,"infoStatusName":null,"dateDay":null,"orgNos":null,"nowTime":null,"countyName":null,"streetName":null,"villageName":null,"roadName":null,"communityName":null,"tranName":null,"sdLineName":null,"cityCode":"1340614","cityName":"国网涞水县供电公司","provinceCode":null,"stopTime":"2020-01-18 22:00:00","powerType":"全部","powerOffArea":"【全线路停电】停北龙门隧道500KVA专变,北龙门隧道200KVA专变,镇厂大街3台区,北龙门隧道250KVA专变,高永喜,北庄大河滩台区变压器,镇厂大街五台区,张涿一标商砼400KVA专变,河西村南台区,太平村水塔台区变压器,北龙门隧道500KVA专变1#,北龙门隧道160KVA专变4#,北龙门隧道630KVA专变6#,林里隧道500KVA专变,北龙门隧道630KVA专变5#,北庄西河滩台区,北龙门隧道160KVA专变3#,北龙门隧道500KVA专变2#","powerOffReason":"【停电原因】由于速断跳闸导致３５ＫＶ镇厂变电站１０ＫＶ太平村５１３线路全线停电 【变更送电】因抢修进度加快原因，送电时间由２３：３０变更为２２：００ 【发布渠道】通过９５５９８发布","powerOffId":"2020011813000053"},{"poweroffId":2020011813000051,"sgpoweroffId":null,"subsName":"","lineName":"大兰线514","pubTranName":"南杜岗村1#,龙家铺村4#村东（综）,桑岗村2|【纯农排变】,川角村5,川角村3#,小兰村2,北口子4#,北口子村2#,南杜岗村3#,苑岗村2#,苑岗村1#,桑岗村1号,川角村2,大兰3台区,大平地,大兰村1#,龙村2#,北口子村1,川角村1#（新,桑岗村3#,龙村1#,川角村1#,北口子村6#变压器,大平地1#,大兰村6#,小平地村1#,南杜岗村2#,川角村4#,桑岗4#变压器,小兰村2#变压器,龙家铺1号新,龙家铺村3#,大兰村5#一队,龙家铺村1#,北口子村5#分支,大兰村4#三队,五间房村1#,北口子村3号,苑岗村3#,小兰村1号,大兰村2#,","scope":"【影响街道/乡镇】坡仓乡、良岗镇【高危重要客户】无【影响客户】苑岗村、南杜岗村、桑岗村、龙家铺村、龙村、五间房村、大平地村、小兰村、大兰村、川角村、北口子村、小平地村","startTime":"2020-01-18 20:10:03","stopDate":"2020-01-18 23:59:00","orgNo":"1340625","typeCode":"电网故障停限电","poweroffArea":"【全线路停电】停龙家铺1号新,北口子村5#分支,易县国占铁选厂315KVA,小兰村2,北口子4#,川角村4#,小平地村1#,中国冶金地质总局第一地质勘察院变压器,桑岗村1号,桑岗村2|【纯农排变】,大平地1#,龙村2#,北口子村2#,南杜岗村3#,0546380840-良岗新所-专变-47853302-良岗新所,丰发沟钨粉厂,安全铁选厂(500KVA),川角村3#,川角村1#（新,龙家铺村3#,易县炽达方解石矿有限公司,大兰村5#一队,大兰村4#三队,孙文报变压器,桑岗4#变压器,北口子村6#变压器,北口子村3号,川角村2,小兰村1号,河北省高速公路荣乌管理处315KVA,大兰村2#,小兰村2#变压器,龙家铺村1#,北口子村1,兴达铁选厂,龙江铁选厂,五间房村1#,龙村水库,北口子疗养院,大兰3台区,大平地,龙村1#,苑岗村1#,南杜岗村2#,易县诚信钙粉厂,国刚铁选厂,造全铁选厂(400KVA),大兰村1#,川角村1#,苑岗村2#,变压器,苑岗村3#,南杜岗村1#,龙家铺村4#村东（综）,刘占平铁选厂,川角村5,桑岗村3#,大兰村6#","poweroffReason":"【停电原因】由于速断跳闸导致１１０ＫＶ良岗变电站大兰线５１４线路全线停电【变更送电】无【发布渠道】通过９５５９８发布","powerTime":"2020-01-18 23:10:44","powerComm":"已送电","subsNo":"","lineNo":"","tgNo":"","tgName":null,"infoStatus":"1","orgName":"国网易县供电公司","typeName":null,"infoStatusName":null,"dateDay":null,"orgNos":null,"nowTime":null,"countyName":null,"streetName":null,"villageName":null,"roadName":null,"communityName":null,"tranName":null,"sdLineName":null,"cityCode":"1340625","cityName":"国网易县供电公司","provinceCode":null,"stopTime":"2020-01-18 23:59:00","powerType":"全部","powerOffArea":"【全线路停电】停龙家铺1号新,北口子村5#分支,易县国占铁选厂315KVA,小兰村2,北口子4#,川角村4#,小平地村1#,中国冶金地质总局第一地质勘察院变压器,桑岗村1号,桑岗村2|【纯农排变】,大平地1#,龙村2#,北口子村2#,南杜岗村3#,0546380840-良岗新所-专变-47853302-良岗新所,丰发沟钨粉厂,安全铁选厂(500KVA),川角村3#,川角村1#（新,龙家铺村3#,易县炽达方解石矿有限公司,大兰村5#一队,大兰村4#三队,孙文报变压器,桑岗4#变压器,北口子村6#变压器,北口子村3号,川角村2,小兰村1号,河北省高速公路荣乌管理处315KVA,大兰村2#,小兰村2#变压器,龙家铺村1#,北口子村1,兴达铁选厂,龙江铁选厂,五间房村1#,龙村水库,北口子疗养院,大兰3台区,大平地,龙村1#,苑岗村1#,南杜岗村2#,易县诚信钙粉厂,国刚铁选厂,造全铁选厂(400KVA),大兰村1#,川角村1#,苑岗村2#,变压器,苑岗村3#,南杜岗村1#,龙家铺村4#村东（综）,刘占平铁选厂,川角村5,桑岗村3#,大兰村6#","powerOffReason":"【停电原因】由于速断跳闸导致１１０ＫＶ良岗变电站大兰线５１４线路全线停电【变更送电】无【发布渠道】通过９５５９８发布","powerOffId":"2020011813000051"},{"poweroffId":2020011813000028,"sgpoweroffId":null,"subsName":"","lineName":"10KV义和庄514","pubTranName":"长安城南1439,","scope":"【影响街道/乡镇】义和庄乡 【高危重要客户】无 【影响客户】长安城","startTime":"2020-01-18 12:21:25","stopDate":"2020-01-18 13:30:00","orgNo":"1340626","typeCode":"电网故障停限电","poweroffArea":"【单台区停电】停长安城南1439","poweroffReason":"【停电原因】由于低压空开烧毁导致３５ＫＶ码头变电站１０ＫＶ义和庄５１４线路长安城南１４３９公变台区停电 【变更送电】因抢修进度加快原因，送电时间由２１：００变更为１３：３０ 【发布渠道】通过９５５９８发布","powerTime":"2020-01-18 12:57:38","powerComm":"恢复送电","subsNo":"","lineNo":"","tgNo":"","tgName":null,"infoStatus":"1","orgName":"国网涿州市供电公司","typeName":null,"infoStatusName":null,"dateDay":null,"orgNos":null,"nowTime":null,"countyName":null,"streetName":null,"villageName":null,"roadName":null,"communityName":null,"tranName":null,"sdLineName":null,"cityCode":"1340626","cityName":"国网涿州市供电公司","provinceCode":null,"stopTime":"2020-01-18 13:30:00","powerType":"全部","powerOffArea":"【单台区停电】停长安城南1439","powerOffReason":"【停电原因】由于低压空开烧毁导致３５ＫＶ码头变电站１０ＫＶ义和庄５１４线路长安城南１４３９公变台区停电 【变更送电】因抢修进度加快原因，送电时间由２１：００变更为１３：３０ 【发布渠道】通过９５５９８发布","powerOffId":"2020011813000028"},{"poweroffId":2020011813000015,"sgpoweroffId":null,"subsName":"","lineName":"候陀线560","pubTranName":"南高岭内东混,","scope":"【影响街道/乡镇】高岭乡　 【高危重要客户】无　　 【影响客户】南高岭部分","startTime":"2020-01-18 14:30:00","stopDate":"2020-01-18 16:30:00","orgNo":"1340623","typeCode":"其他临时停电","poweroffArea":"【单台区停电】停南高岭内东混","poweroffReason":"【停电原因】由于变压器低压保险片打火，需停电进行紧急消缺导致１１０ＫＶ高岭变电站候陀５６０线路南高岭内东混公变台区停电 【变更送电】无 【发布渠道】通过９５５９８发布","powerTime":"2020-01-18 15:41:48","powerComm":"已送电","subsNo":"","lineNo":"","tgNo":"","tgName":null,"infoStatus":"1","orgName":"国网望都县供电公司","typeName":null,"infoStatusName":null,"dateDay":null,"orgNos":null,"nowTime":null,"countyName":null,"streetName":null,"villageName":null,"roadName":null,"communityName":null,"tranName":null,"sdLineName":null,"cityCode":"1340623","cityName":"国网望都县供电公司","provinceCode":null,"stopTime":"2020-01-18 16:30:00","powerType":"全部","powerOffArea":"【单台区停电】停南高岭内东混","powerOffReason":"【停电原因】由于变压器低压保险片打火，需停电进行紧急消缺导致１１０ＫＶ高岭变电站候陀５６０线路南高岭内东混公变台区停电 【变更送电】无 【发布渠道】通过９５５９８发布","powerOffId":"2020011813000015"},{"poweroffId":2020011813000012,"sgpoweroffId":null,"subsName":"","lineName":"姜庄线551备用","pubTranName":"大道王庄西变压器,前曲西北变压器,史辛庄1变压器,后曲06号变压器,后曲03号变压器,后曲02号变压器,史辛庄西变压器,后曲01号变压器,后曲07号变压器,史辛庄2变压器,达子营西变压器,道口变压器,大道王庄南变压器,方官公变变压器,赵辛庄东地变压器【纯农排变】,后曲05号变压器,后曲东地变压器,后曲04号变压器,康庄北地变压器【纯农排变】,史辛庄3变压器,高碑店市石达营六友铸造变压器,姜庄04号变压器,方官西台变压器,前曲西地变压器【纯农排变】,北京中泉置业有限公司变压器,赵辛庄西台变压器,前曲村变压器,方官西北变压器,后曲西地变压器【纯农排变】,姜庄01号变压器,亚太,客户投资_前曲东台变压器,史辛庄4变压器,姜庄03号变压器,高碑店市八方达铸造有限责任公司1,前曲排灌变压器【纯农排变】,高碑店市腾逸铸造有限公司变压器,道口地变压器【纯农排变】,三里铺变压器,赵辛庄东台变压器,高碑店市八方达铸造有限责任公司2,赵辛庄地变压器,前曲西变压器,赵辛庄北台变压器,前曲地变压器【纯农排变】,","scope":"【影响街道/乡镇】方官镇 【高危重要客户】无 【影响客户】赵辛庄村、前曲村、达子营村、史辛庄村、姜庄村、后曲村、道口村、大道王庄村、三里铺村、康庄村、方官村、高碑店市八方达铸造有限责任公司、亚太面粉厂、高碑店市腾逸铸造有限公司、北京中泉置业有限公司、河北时氏长胜铸造有限公司、高碑店市石达营六友铸造","startTime":"2020-01-18 10:25:00","stopDate":"2020-01-18 12:00:00","orgNo":"1340612","typeCode":"其他临时停电","poweroffArea":"【分支停电】停前曲西北变压器,史辛庄1变压器,后曲06号变压器,后曲03号变压器,后曲02号变压器,史辛庄西变压器,后曲01号变压器,后曲07号变压器,史辛庄2变压器,达子营西变压器,大道王庄西变压器,前曲西地变压器【纯农排变】,北京中泉置业有限公司变压器,赵辛庄西台变压器,前曲村变压器,方官西北变压器,道口变压器,大道王庄南变压器,方官公变变压器,赵辛庄东地变压器【纯农排变】,后曲05号变压器,后曲东地变压器,后曲04号变压器,康庄北地变压器【纯农排变】,史辛庄3变压器,高碑店市石达营六友铸造变压器,姜庄04号变压器,方官西台变压器,后曲西地变压器【纯农排变】,姜庄01号变压器,亚太,客户投资_前曲东台变压器,史辛庄4变压器,姜庄03号变压器,高碑店市八方达铸造有限责任公司1,前曲排灌变压器【纯农排变】,高碑店市腾逸铸造有限公司变压器,道口地变压器【纯农排变】,三里铺变压器,赵辛庄东台变压器,高碑店市八方达铸造有限责任公司2,赵辛庄地变压器,前曲西变压器,赵辛庄北台变压器,前曲地变压器【纯农排变】","poweroffReason":"【停电原因】由于电缆打火需紧急处理导致１１０ＫＶ方官变电站１０ＫＶ姜庄５５１线路０３号断路器以下停电 【变更送电】无 【发布渠道】通过９５５９８发布","powerTime":"2020-01-18 11:28:34","powerComm":"已送电","subsNo":"","lineNo":"","tgNo":"","tgName":null,"infoStatus":"1","orgName":"国网高碑店市供电公司","typeName":null,"infoStatusName":null,"dateDay":null,"orgNos":null,"nowTime":null,"countyName":null,"streetName":null,"villageName":null,"roadName":null,"communityName":null,"tranName":null,"sdLineName":null,"cityCode":"1340612","cityName":"国网高碑店市供电公司","provinceCode":null,"stopTime":"2020-01-18 12:00:00","powerType":"全部","powerOffArea":"【分支停电】停前曲西北变压器,史辛庄1变压器,后曲06号变压器,后曲03号变压器,后曲02号变压器,史辛庄西变压器,后曲01号变压器,后曲07号变压器,史辛庄2变压器,达子营西变压器,大道王庄西变压器,前曲西地变压器【纯农排变】,北京中泉置业有限公司变压器,赵辛庄西台变压器,前曲村变压器,方官西北变压器,道口变压器,大道王庄南变压器,方官公变变压器,赵辛庄东地变压器【纯农排变】,后曲05号变压器,后曲东地变压器,后曲04号变压器,康庄北地变压器【纯农排变】,史辛庄3变压器,高碑店市石达营六友铸造变压器,姜庄04号变压器,方官西台变压器,后曲西地变压器【纯农排变】,姜庄01号变压器,亚太,客户投资_前曲东台变压器,史辛庄4变压器,姜庄03号变压器,高碑店市八方达铸造有限责任公司1,前曲排灌变压器【纯农排变】,高碑店市腾逸铸造有限公司变压器,道口地变压器【纯农排变】,三里铺变压器,赵辛庄东台变压器,高碑店市八方达铸造有限责任公司2,赵辛庄地变压器,前曲西变压器,赵辛庄北台变压器,前曲地变压器【纯农排变】","powerOffReason":"【停电原因】由于电缆打火需紧急处理导致１１０ＫＶ方官变电站１０ＫＶ姜庄５５１线路０３号断路器以下停电 【变更送电】无 【发布渠道】通过９５５９８发布","powerOffId":"2020011813000012"},{"poweroffId":2020011713000085,"sgpoweroffId":null,"subsName":"","lineName":"10kV杨家务线512","pubTranName":"军庄北变压器,韩庄西变压器,东务村北2,西仓东,东义合西南,东务新北变压器,","scope":"【影响街道/乡镇】方官镇、新城镇、肖官营乡 【高危重要客户】无 【影响客户】马东村、马西村、雷李庄村、肖鱼池村、袁家营村、金东村（金钗营）、金中村、李庄村、毛庄村、东仓村、西仓村、韩庄村、张庄村、西义和村、东宋村、东务村、东义和村、军庄村、石辛庄村、西宋村、西务村、天津通鼓风机有限公司、河北高碑店市鼓风机厂、河北高鼓环保设备有限公司、河北鑫宏远冶金设备制造有限公司、高碑店市宏润风机制造有限公司、高碑店市红日风机厂、河北腾浩风机制造有限公司、高碑店市工业风机制造厂、鸿旭金属粉末加工有限公司、河北科隆风机有限公司、中国移动通信高碑店分公司、保定富瑞康管道有限公司","startTime":"2020-01-17 22:06:49","stopDate":"2020-01-17 23:30:00","orgNo":"1340612","typeCode":"电网故障停限电","poweroffArea":"【全线路停电】停韩庄西变压器,东务村北2,西仓东,东义合西南,东务新北变压器,军庄北变压器,韩庄北地变压器【纯农排变】,张庄变压器,肖鱼池变压器,东宋地变压器【纯农排变】,东宋变压器,军庄东变压器,西务地3变压器【纯农排变】,西义合变压器,毛庄北地变压器,中国移动通信集体河北有限公司高碑店分公司,东务地变压器【纯农排变】,西义合地2变压器,东务变压器,金东地变压器【纯农排变】,韩庄变压器,0610660612-高碑店市科隆商贸有限公司-专变-223551278-河北科隆风机有限公司变压器,保定富瑞康管道有限公司,韩庄南水变压器【纯农排变】,毛庄变压器,毛庄西变压器,西义合地变压器【纯农排变】,东务村南变压器,河北高碑店市鼓风机厂变压器,金东西变压器,东务西变压器,军庄地变压器【纯农排变】,0387449762-天津通鼓风机有限公司河北分公司-专变-226995247-天津风机五厂变压器,肖鱼池地变压器,金柴营变压器,东义合水3变压器,西宋南变压器,军庄西变压器,石辛庄水3变压器,西务变压器,李庄地2变压器【纯农排变】,石辛庄变压器,韩庄东南水变压器【纯农排变】,东务南变压器【纯农排变】,东仓地2变压器【纯农排变】,西仓村2变压器,高碑店市鸿旭金属粉末加工有限公司,马东变压器,西务北变压器,西务南变压器,东义合水2变压器,西仓地变压器【纯农排变】,金中变压器,西务地6变压器【纯农排变】,东务地2变压器【纯农排变】,东仓地变压器【纯农排变】,西务地5变压器【纯农排变】,马西变压器,金东地2变压器【纯农排变】,西务地变压器【纯农排变】,天津风机五厂(谷1),东义合地变压器,西仓地2变压器【纯农排变】,东仓变压器,雷李庄变压器,马东北地变压器【纯农排变】,韩庄水变压器【纯农排变】,西仓变压器,河北鑫宏远冶金设备制造有限公司变压器,军庄新地变压器,西加录地变压器【纯农排变】,西务新地变压器,东义合变压器,李庄变压器512线,河北高鼓环保设备有限公司,东宋排灌变压器,石辛庄水4变压器,肖鱼池东变压器,李庄北变压器,李庄浇地变压器【纯农排变】,军庄北地变压器【纯农排变】,金东新变压器,东宋南水变压器,石辛庄地变压器【纯农排变】,高碑店市鸿旭金属粉末加工有限公司变压器,东务北变压器,张庄水变压器,李庄西变压器,西宋变压器,马东东变压器,马东南地变压器【纯农排变】,西务地4变压器【纯农排变】","poweroffReason":"【停电原因】由于科隆风机厂高压计量电死只鹰导致３５ＫＶ加录变电站１０ＫＶ杨家务５１２线路全线停电 【变更送电】因抢修进度加快原因，送电时间由１８日０６：００变更为１７日２３：３０ 【发布渠道】通过９５５９８发布","powerTime":"2020-01-17 22:55:43","powerComm":"已送电","subsNo":"","lineNo":"","tgNo":"","tgName":null,"infoStatus":"1","orgName":"国网高碑店市供电公司","typeName":null,"infoStatusName":null,"dateDay":null,"orgNos":null,"nowTime":null,"countyName":null,"streetName":null,"villageName":null,"roadName":null,"communityName":null,"tranName":null,"sdLineName":null,"cityCode":"1340612","cityName":"国网高碑店市供电公司","provinceCode":null,"stopTime":"2020-01-17 23:30:00","powerType":"全部","powerOffArea":"【全线路停电】停韩庄西变压器,东务村北2,西仓东,东义合西南,东务新北变压器,军庄北变压器,韩庄北地变压器【纯农排变】,张庄变压器,肖鱼池变压器,东宋地变压器【纯农排变】,东宋变压器,军庄东变压器,西务地3变压器【纯农排变】,西义合变压器,毛庄北地变压器,中国移动通信集体河北有限公司高碑店分公司,东务地变压器【纯农排变】,西义合地2变压器,东务变压器,金东地变压器【纯农排变】,韩庄变压器,0610660612-高碑店市科隆商贸有限公司-专变-223551278-河北科隆风机有限公司变压器,保定富瑞康管道有限公司,韩庄南水变压器【纯农排变】,毛庄变压器,毛庄西变压器,西义合地变压器【纯农排变】,东务村南变压器,河北高碑店市鼓风机厂变压器,金东西变压器,东务西变压器,军庄地变压器【纯农排变】,0387449762-天津通鼓风机有限公司河北分公司-专变-226995247-天津风机五厂变压器,肖鱼池地变压器,金柴营变压器,东义合水3变压器,西宋南变压器,军庄西变压器,石辛庄水3变压器,西务变压器,李庄地2变压器【纯农排变】,石辛庄变压器,韩庄东南水变压器【纯农排变】,东务南变压器【纯农排变】,东仓地2变压器【纯农排变】,西仓村2变压器,高碑店市鸿旭金属粉末加工有限公司,马东变压器,西务北变压器,西务南变压器,东义合水2变压器,西仓地变压器【纯农排变】,金中变压器,西务地6变压器【纯农排变】,东务地2变压器【纯农排变】,东仓地变压器【纯农排变】,西务地5变压器【纯农排变】,马西变压器,金东地2变压器【纯农排变】,西务地变压器【纯农排变】,天津风机五厂(谷1),东义合地变压器,西仓地2变压器【纯农排变】,东仓变压器,雷李庄变压器,马东北地变压器【纯农排变】,韩庄水变压器【纯农排变】,西仓变压器,河北鑫宏远冶金设备制造有限公司变压器,军庄新地变压器,西加录地变压器【纯农排变】,西务新地变压器,东义合变压器,李庄变压器512线,河北高鼓环保设备有限公司,东宋排灌变压器,石辛庄水4变压器,肖鱼池东变压器,李庄北变压器,李庄浇地变压器【纯农排变】,军庄北地变压器【纯农排变】,金东新变压器,东宋南水变压器,石辛庄地变压器【纯农排变】,高碑店市鸿旭金属粉末加工有限公司变压器,东务北变压器,张庄水变压器,李庄西变压器,西宋变压器,马东东变压器,马东南地变压器【纯农排变】,西务地4变压器【纯农排变】","powerOffReason":"【停电原因】由于科隆风机厂高压计量电死只鹰导致３５ＫＶ加录变电站１０ＫＶ杨家务５１２线路全线停电 【变更送电】因抢修进度加快原因，送电时间由１８日０６：００变更为１７日２３：３０ 【发布渠道】通过９５５９８发布","powerOffId":"2020011713000085"},{"poweroffId":2020011713000081,"sgpoweroffId":null,"subsName":"","lineName":"白沙线514","pubTranName":"西白尧0312变压器,","scope":"【影响街道/乡镇】长古城乡【高危重要客户】无【影响客户】西白尧村、","startTime":"2020-01-17 21:26:59","stopDate":"2020-01-17 23:50:00","orgNo":"1340622","typeCode":"电网故障停限电","poweroffArea":"【单台区停电】停西白尧0312变压器","poweroffReason":"【停电原因】由于空开烧导致３５ＫＶ北罗变电站白沙线５１４线路西白尧０３１２公变台区停电【变更送电】无【发布渠道】通过９５５９８发布","powerTime":"2020-01-17 22:54:09","powerComm":"已送电","subsNo":"","lineNo":"","tgNo":"","tgName":null,"infoStatus":"1","orgName":"国网唐县供电公司","typeName":null,"infoStatusName":null,"dateDay":null,"orgNos":null,"nowTime":null,"countyName":null,"streetName":null,"villageName":null,"roadName":null,"communityName":null,"tranName":null,"sdLineName":null,"cityCode":"1340622","cityName":"国网唐县供电公司","provinceCode":null,"stopTime":"2020-01-17 23:50:00","powerType":"全部","powerOffArea":"【单台区停电】停西白尧0312变压器","powerOffReason":"【停电原因】由于空开烧导致３５ＫＶ北罗变电站白沙线５１４线路西白尧０３１２公变台区停电【变更送电】无【发布渠道】通过９５５９８发布","powerOffId":"2020011713000081"}],"pageModel":{"pageNow":306,"totalCount":10973,"totalPage":1098,"tableRows":0,"pageCount":10,"beginCount":3050},"isExperi":"1"}