{"message":"","today":"2020-06-15","seleList":[{"poweroffId":2020060413000420,"sgpoweroffId":null,"subsName":"","lineName":"方城514","pubTranName":"百福村2#,百福村11#,燕子村5#,南胡解村2#,城角村1#,方城村2#,燕子村3#,北胡解村1#,百福村1#,燕子村4#,方城村1#,方城村5#,燕子村1#,大胡解村2#,百福村8#,百福村9#,百福村7#,大胡解村3#,军营村1#,百福村10#,百福村3#,城角村5#,大胡解村1#,百福村6#【纯农排变】,","scope":"【影响街道/乡镇】高陌乡、高村乡【高危重要客户】无【影响客户】军营村、大胡解村、百福村、燕子村、方城村、南胡解村、北胡解村","startTime":"2020-06-04 20:58:20","stopDate":"2020-06-04 22:00:00","orgNo":"1340625","typeCode":"电网故障停限电","poweroffArea":"【全线路停电】停城角村3#【纯农排变】,军营村2#,大胡解村2#,百福村2#,军营村1#,燕子村3#,百福村4#【纯农排变】,方城村4#【纯农排变】,百福村7#,南胡解村1#,河北惠东预制混凝土制造有限公司变压器,燕子村4#,百福村11#,百福村1#,西沈村3#【纯农排变】,方城村5#,燕子村1#,北胡解村1#,南胡解村2#,北胡解村2#,百福村9#,方城村2#,城角村孙志辉250KVA,方城村3#【纯农排变】,大胡解村4#,大胡解村1#,燕子村5#,百福村10#,河北惠东房地产开发有限公司变压器,城角村4#,百福村3#,百福中学,大胡解村3#,燕子村2#,百福村6#【纯农排变】,方城村1#,城角村1#,城角村5#,百福村8#,百福村5#【纯农排变】,城角村2#【纯农排变】","poweroffReason":"【停电原因】由于线路接地导致３５ＫＶ高陌变电站方城５１４线路全线停电【变更送电】因抢修进度加快原因，送电时间由２３：５９变更为２２：００【发布渠道】通过９５５９８发布","powerTime":"2020-06-04 21:38:20","powerComm":"已送电","subsNo":"","lineNo":"","tgNo":"","tgName":null,"infoStatus":"1","orgName":"国网易县供电公司","typeName":null,"infoStatusName":null,"dateDay":null,"orgNos":null,"nowTime":null,"countyName":null,"streetName":null,"villageName":null,"roadName":null,"communityName":null,"tranName":null,"sdLineName":null,"cityCode":"1340625","cityName":"国网易县供电公司","provinceCode":null,"stopTime":"2020-06-04 22:00:00","powerType":"全部","powerOffArea":"【全线路停电】停城角村3#【纯农排变】,军营村2#,大胡解村2#,百福村2#,军营村1#,燕子村3#,百福村4#【纯农排变】,方城村4#【纯农排变】,百福村7#,南胡解村1#,河北惠东预制混凝土制造有限公司变压器,燕子村4#,百福村11#,百福村1#,西沈村3#【纯农排变】,方城村5#,燕子村1#,北胡解村1#,南胡解村2#,北胡解村2#,百福村9#,方城村2#,城角村孙志辉250KVA,方城村3#【纯农排变】,大胡解村4#,大胡解村1#,燕子村5#,百福村10#,河北惠东房地产开发有限公司变压器,城角村4#,百福村3#,百福中学,大胡解村3#,燕子村2#,百福村6#【纯农排变】,方城村1#,城角村1#,城角村5#,百福村8#,百福村5#【纯农排变】,城角村2#【纯农排变】","powerOffReason":"【停电原因】由于线路接地导致３５ＫＶ高陌变电站方城５１４线路全线停电【变更送电】因抢修进度加快原因，送电时间由２３：５９变更为２２：００【发布渠道】通过９５５９８发布","powerOffId":"2020060413000420"},{"poweroffId":2020060413000413,"sgpoweroffId":null,"subsName":"","lineName":"东贯城512","pubTranName":"北沈村6#,北沈村5#,西沈村2#,西贯城村1#,东沈村8#,北沈村8#,西贯城村5#,北沈村1#,西贯城村6#,北沈村2#,高陌乡镇府9号,东沈村2#,东沈村1#,东贯城村4#,东沈村10#,东沈村9#,高陌村6#,东贯城村5#,西沈村1#,东贯城村1#,高陌村7#,西沈村6#,高陌村1#,北沈村7#,东贯城村2#,高陌村2#,郎井9号变压器,高陌村3#,","scope":"【影响街道/乡镇】高陌乡【高危重要客户】无【影响客户】高陌村、西贯城村、东贯城村、西沈村、北沈村、东沈村","startTime":"2020-06-04 20:52:43","stopDate":"2020-06-05 02:30:00","orgNo":"1340625","typeCode":"电网故障停限电","poweroffArea":"【全线路停电】停西沈村6#,东沈村10#,西贯城村2#,西贯城面粉厂(李富启),东沈村南榆皮厂(赵国),高陌村6#,东贯城村4#,东沈村4#【纯农排变】,高陌村5#【纯农排变】,西贯城村1#,东贯城村1#,变压器,西贯城村3#,郎井9号变压器,东贯城村2#,高陌10#【纯农排变】,北沈村7#,东贯城村7#,东沈村9#,东沈村7#【纯农排变】,北沈村6#,西沈村2#,北沈村4#,西沈村4#,东贯城村6#【纯农排变】,北东村10#,东贯城村5#,易县朋得畜牧业养殖有限公司变压器,东沈村6#【纯农排变】,西沈村5#,东贯城村3#,东沈村(赵云海),北沈龙源面粉厂,高陌乡镇府9号,李爱明,西贯城村5#,北沈村8#,东沈村桥南(赵建华),西沈村1#,易县联发砂石经销处,高陌村4#【纯农排变】,北沈村许文变压器,北沈村3#,西贯城村6#,郎井村4#,西贯城村4#,东贯城8#,西贯城村李贵变压器,北沈村1#,佳利面粉厂250KVA,北沈村2#,高陌村7#,高陌村8#,东沈村8#,高陌村3#,东沈村1#,东沈村3#【纯农排变】,东沈村5#【纯农排变】,北沈村5#,高陌村1#,高陌村2#,东沈村2#","poweroffReason":"【停电原因】由于站内变压器烧毁导致３５ＫＶ高陌变电站东贯城５１２线路全线停电【变更送电】因抢修进度加快原因，送电时间由０８：００变更为０２：３０【发布渠道】通过９５５９８发布","powerTime":"2020-06-05 02:02:20","powerComm":"已送电","subsNo":"","lineNo":"","tgNo":"","tgName":null,"infoStatus":"1","orgName":"国网易县供电公司","typeName":null,"infoStatusName":null,"dateDay":null,"orgNos":null,"nowTime":null,"countyName":null,"streetName":null,"villageName":null,"roadName":null,"communityName":null,"tranName":null,"sdLineName":null,"cityCode":"1340625","cityName":"国网易县供电公司","provinceCode":null,"stopTime":"2020-06-05 02:30:00","powerType":"全部","powerOffArea":"【全线路停电】停西沈村6#,东沈村10#,西贯城村2#,西贯城面粉厂(李富启),东沈村南榆皮厂(赵国),高陌村6#,东贯城村4#,东沈村4#【纯农排变】,高陌村5#【纯农排变】,西贯城村1#,东贯城村1#,变压器,西贯城村3#,郎井9号变压器,东贯城村2#,高陌10#【纯农排变】,北沈村7#,东贯城村7#,东沈村9#,东沈村7#【纯农排变】,北沈村6#,西沈村2#,北沈村4#,西沈村4#,东贯城村6#【纯农排变】,北东村10#,东贯城村5#,易县朋得畜牧业养殖有限公司变压器,东沈村6#【纯农排变】,西沈村5#,东贯城村3#,东沈村(赵云海),北沈龙源面粉厂,高陌乡镇府9号,李爱明,西贯城村5#,北沈村8#,东沈村桥南(赵建华),西沈村1#,易县联发砂石经销处,高陌村4#【纯农排变】,北沈村许文变压器,北沈村3#,西贯城村6#,郎井村4#,西贯城村4#,东贯城8#,西贯城村李贵变压器,北沈村1#,佳利面粉厂250KVA,北沈村2#,高陌村7#,高陌村8#,东沈村8#,高陌村3#,东沈村1#,东沈村3#【纯农排变】,东沈村5#【纯农排变】,北沈村5#,高陌村1#,高陌村2#,东沈村2#","powerOffReason":"【停电原因】由于站内变压器烧毁导致３５ＫＶ高陌变电站东贯城５１２线路全线停电【变更送电】因抢修进度加快原因，送电时间由０８：００变更为０２：３０【发布渠道】通过９５５９８发布","powerOffId":"2020060413000413"},{"poweroffId":2020060413000410,"sgpoweroffId":null,"subsName":"","lineName":"东于坻511","pubTranName":"客户投资_郎井村6#,北于坻村1#,武阳台村5#,东于坻村3#,郎井村7#,东于坻村4#,西于坻村4#,郎井村3#,武阳台8号,西于坻村1#,武阳台村2#,西于坻村3#,东于坻村6#,武阳台9号,西于坻村2#,武阳台6号变压器,郎井村2#,郎井庄村1#,郎井庄村4#,郎井村1#,郎井8号变压器,东于坻村1#,客户投资_武阳台村3#,郎井庄村3#,北于坻村4#,武阳台村7#,东于坻7#,","scope":"【影响街道/乡镇】高陌乡【高危重要客户】无【影响客户】东于坻村、西于坻村、郎井村、郎井庄村、武阳台村、北于坻村","startTime":"2020-06-04 20:50:34","stopDate":"2020-06-04 22:00:00","orgNo":"1340625","typeCode":"电网故障停限电","poweroffArea":"【全线路停电】停客户投资_武阳台村3#,郎井庄村3#,东于坻7#,北于坻村4#,奥杰制衣有限公司,武阳台村7#,变压器,东于坻村3#,西于坻村4#,东于坻村5#,郎井村7#,客户投资_郎井村6#,北于坻村1#,易县郎井庄村春江奶牛养殖厂,武阳台村5#,东于坻村4#,郎井村3#,武阳台8号,西于坻村1#,武阳台村2#,西于坻村3#,东于坻村6#,武阳台9号,武阳台村1#,西于坻村2#,武阳台6号变压器,郎井村2#,郎井庄村1#,郎井庄村4#,北于坻村3#【纯农排变】,东于坻中心小学200KVA,郎井村1#,移动公司郎井庄基站50,郎井8号变压器,武阳台村4#,郎井庄村2#,东于坻村2#,郎井村5#,东于坻村1#,西于坻村5#【纯农排变】,北于坻村2#【纯农排变】","poweroffReason":"【停电原因】由于线路接地导致３５ＫＶ高陌变电站东于坻５１１线路全线停电【变更送电】因抢修进度加快原因，送电时间由２３：５９变更为２２：００【发布渠道】通过９５５９８发布","powerTime":"2020-06-04 21:50:45","powerComm":"已送电","subsNo":"","lineNo":"","tgNo":"","tgName":null,"infoStatus":"1","orgName":"国网易县供电公司","typeName":null,"infoStatusName":null,"dateDay":null,"orgNos":null,"nowTime":null,"countyName":null,"streetName":null,"villageName":null,"roadName":null,"communityName":null,"tranName":null,"sdLineName":null,"cityCode":"1340625","cityName":"国网易县供电公司","provinceCode":null,"stopTime":"2020-06-04 22:00:00","powerType":"全部","powerOffArea":"【全线路停电】停客户投资_武阳台村3#,郎井庄村3#,东于坻7#,北于坻村4#,奥杰制衣有限公司,武阳台村7#,变压器,东于坻村3#,西于坻村4#,东于坻村5#,郎井村7#,客户投资_郎井村6#,北于坻村1#,易县郎井庄村春江奶牛养殖厂,武阳台村5#,东于坻村4#,郎井村3#,武阳台8号,西于坻村1#,武阳台村2#,西于坻村3#,东于坻村6#,武阳台9号,武阳台村1#,西于坻村2#,武阳台6号变压器,郎井村2#,郎井庄村1#,郎井庄村4#,北于坻村3#【纯农排变】,东于坻中心小学200KVA,郎井村1#,移动公司郎井庄基站50,郎井8号变压器,武阳台村4#,郎井庄村2#,东于坻村2#,郎井村5#,东于坻村1#,西于坻村5#【纯农排变】,北于坻村2#【纯农排变】","powerOffReason":"【停电原因】由于线路接地导致３５ＫＶ高陌变电站东于坻５１１线路全线停电【变更送电】因抢修进度加快原因，送电时间由２３：５９变更为２２：００【发布渠道】通过９５５９８发布","powerOffId":"2020060413000410"},{"poweroffId":2020060413000296,"sgpoweroffId":null,"subsName":"","lineName":"10kV520城东线","pubTranName":"东南街农排1台区【纯农排变】,北忠卫综合5台区,南忠卫农排6台区【纯农排变】,南忠卫综合3台区,南忠卫综合17台区,南忠卫综合13台区,北忠卫综合3台区,南忠卫农排14台区【纯农排变】,南忠卫综合8台区,南忠卫综合14台区,西北街农排2台区【纯农排变】,南忠卫综合7台区,南忠卫综合5台区,南忠卫农排8台区【纯农排变】,北忠卫综合4台区,南忠卫农排1台区【纯农排变】,南忠卫综合2台区,南忠卫综合15台区,北忠卫综合7台区,东北街农排1台区【纯农排变】,北忠卫农排4台区【纯农排变】,东北街农排2台区【纯农排变】,南忠卫综合11台区,南忠卫综合12台区,南忠卫综合6台区,南忠卫综合16台区,南忠卫农排5台区【纯农排变】,南忠卫综合1台区,北忠卫综合6台区,南忠卫综合4台区,北忠卫综合8台区,北忠卫综合2台区,南忠卫综合10台区,南忠卫综合9台区,","scope":"【影响街道/乡镇】蠡吾镇、西北街、东南街、西南街、东北街【高危重要客户】无【影响客户】南忠卫村、北忠卫村、蠡县自来水公司、保定卫生用品厂","startTime":"2020-06-04 15:53:28","stopDate":"2020-06-04 17:00:00","orgNo":"1340616","typeCode":"电网故障停限电","poweroffArea":"【全线路停电】停２２０ＫＶ蠡县变电站１０ＫＶ城东５２０线路全线，南忠卫综合6台区,南忠卫综合2台区,旭日,南忠卫综合1台区,百川橡胶,蠡县南忠卫丽芳纺织厂（2）,北忠卫综合5台区,张志民,蠡县群力纺织有限公司,南忠卫农排6台区【纯农排变】,南忠卫农排14台区【纯农排变】,盠县南忠卫建国纺纱厂,小彬纺纱,北忠卫综合3台区,南忠卫综合12台区,西北街农排1台区【纯农排变】,北忠卫综合6台区,南忠卫综合15台区,自来水,盠县南忠卫中心纺纱厂,蠡县南中卫谷小良纺纱厂变压器,河北省里县圣鑫纺纱厂,元憎,蠡县鑫泰纺织制造有限公司变压器,南忠卫气水厂东,傅新,小谷纺纱厂变压器,保定东立胶带制造有限公司变压器,南忠卫综合4台区,蠡县南忠卫建国纺纱厂变压器,南忠卫小良纺织厂变压器,南忠卫开花厂变压器,南忠卫综合10台区,占强纺纱厂变压器,张树根,南忠卫综合3台区,0556973823-蠡县鸿运输送机械厂-专变-227030242-蠡县鸿运变压器,百川北","poweroffReason":"【停电原因】由于站内开关掉闸导致２２０ＫＶ蠡县变电站１０ＫＶ城东５２０线路全线停电【变更送电】因抢修进度加快原因，送电时间由２０：００变更为１７：００【发布渠道】通过９５５９８发布","powerTime":"2020-06-04 16:28:44","powerComm":"已送电","subsNo":"","lineNo":"","tgNo":"","tgName":null,"infoStatus":"1","orgName":"国网蠡县供电公司","typeName":null,"infoStatusName":null,"dateDay":null,"orgNos":null,"nowTime":null,"countyName":null,"streetName":null,"villageName":null,"roadName":null,"communityName":null,"tranName":null,"sdLineName":null,"cityCode":"1340616","cityName":"国网蠡县供电公司","provinceCode":null,"stopTime":"2020-06-04 17:00:00","powerType":"全部","powerOffArea":"【全线路停电】停２２０ＫＶ蠡县变电站１０ＫＶ城东５２０线路全线，南忠卫综合6台区,南忠卫综合2台区,旭日,南忠卫综合1台区,百川橡胶,蠡县南忠卫丽芳纺织厂（2）,北忠卫综合5台区,张志民,蠡县群力纺织有限公司,南忠卫农排6台区【纯农排变】,南忠卫农排14台区【纯农排变】,盠县南忠卫建国纺纱厂,小彬纺纱,北忠卫综合3台区,南忠卫综合12台区,西北街农排1台区【纯农排变】,北忠卫综合6台区,南忠卫综合15台区,自来水,盠县南忠卫中心纺纱厂,蠡县南中卫谷小良纺纱厂变压器,河北省里县圣鑫纺纱厂,元憎,蠡县鑫泰纺织制造有限公司变压器,南忠卫气水厂东,傅新,小谷纺纱厂变压器,保定东立胶带制造有限公司变压器,南忠卫综合4台区,蠡县南忠卫建国纺纱厂变压器,南忠卫小良纺织厂变压器,南忠卫开花厂变压器,南忠卫综合10台区,占强纺纱厂变压器,张树根,南忠卫综合3台区,0556973823-蠡县鸿运输送机械厂-专变-227030242-蠡县鸿运变压器,百川北","powerOffReason":"【停电原因】由于站内开关掉闸导致２２０ＫＶ蠡县变电站１０ＫＶ城东５２０线路全线停电【变更送电】因抢修进度加快原因，送电时间由２０：００变更为１７：００【发布渠道】通过９５５９８发布","powerOffId":"2020060413000296"},{"poweroffId":2020060413000282,"sgpoweroffId":null,"subsName":"","lineName":"10kV516流驼庄线","pubTranName":"流驼庄公用照明6台区,流驼庄公用照明8台区,流驼庄公用照明3台区(3),王宿庄公用照明1台区(1),流驼庄公用照明11台区,流驼庄公用照明12台区,流驼庄公用照明1台区(1),流驼庄公用照明2台区(2),流驼庄公用照明9台区,王宿庄公用照明2台区,流驼庄公用照明5台区,流驼庄公用照明7台区,流驼庄公用照明10台区,流驼庄公用照明4台区(4),","scope":"【影响街道/乡镇】息仲镇【影响客户】流驼庄、王宿庄","startTime":"2020-06-16 05:30:00","stopDate":"2020-06-16 16:30:00","orgNo":"1340610","typeCode":"计划停电","poweroffArea":"【全线路停电】停３５ＫＶ息仲变电站１０ＫＶ５１６流驼庄线路全线，流驼庄公用照明9台区,王宿庄公用照明1台区(1),流驼庄公用照明11台区,流驼庄公用照明12台区,流驼庄公用照明1台区(1),流驼庄公用照明2台区(2),王宿庄公用照明2台区,流驼庄公用照明5台区,流驼庄公用照明7台区,流驼庄公用照明10台区,流驼庄公用照明4台区(4),流驼庄公用照明6台区,流驼庄公用照明8台区,流驼庄公用照明3台区(3)","poweroffReason":"【停电原因】由于更换导线导致３５ＫＶ息仲变电站１０ＫＶ５１６流驼庄线路全线停电 【变更送电】无 【发布渠道】河北省定州市定州日报第三版（２０２０年０６月０８日）","powerTime":"","powerComm":"","subsNo":"","lineNo":"","tgNo":"","tgName":null,"infoStatus":"1","orgName":"国网定州市供电公司","typeName":null,"infoStatusName":null,"dateDay":null,"orgNos":null,"nowTime":null,"countyName":null,"streetName":null,"villageName":null,"roadName":null,"communityName":null,"tranName":null,"sdLineName":null,"cityCode":"1340610","cityName":"国网定州市供电公司","provinceCode":null,"stopTime":"2020-06-16 16:30:00","powerType":"未送电","powerOffArea":"【全线路停电】停３５ＫＶ息仲变电站１０ＫＶ５１６流驼庄线路全线，流驼庄公用照明9台区,王宿庄公用照明1台区(1),流驼庄公用照明11台区,流驼庄公用照明12台区,流驼庄公用照明1台区(1),流驼庄公用照明2台区(2),王宿庄公用照明2台区,流驼庄公用照明5台区,流驼庄公用照明7台区,流驼庄公用照明10台区,流驼庄公用照明4台区(4),流驼庄公用照明6台区,流驼庄公用照明8台区,流驼庄公用照明3台区(3)","powerOffReason":"【停电原因】由于更换导线导致３５ＫＶ息仲变电站１０ＫＶ５１６流驼庄线路全线停电 【变更送电】无 【发布渠道】河北省定州市定州日报第三版（２０２０年０６月０８日）","powerOffId":"2020060413000282"},{"poweroffId":2020060413000280,"sgpoweroffId":null,"subsName":"","lineName":"10kV517东坂线","pubTranName":"北庞村公用照明14台区,西南宋公用照明2台区,大西丈公用照明10台区,庞村公用照明10台区1,东坂村公用照明2台区,东坂村公用照明1台区,西南宋公用照明3台区,张家庄村公用照明1台区,庞村公用照明8台区1,北庞村公用照明13台区,大西丈公用照明11台区,东南宋公用照明2台区,东南宋公用照明1台区,东南宋公用照明3台区,张家庄公用照明2台区,客户投资_大西仗村公用照明1台区,庞村公用照明4台区,大西丈公用照明8台区,东南宋公用照明6台区,东坂公用照明3台区,庞村公用照明5台区,大西丈公用照明12台区,东南宋公用照明4台区,庞村公用照明11台区1,庞村公用照明1台区,大西仗村公用照明3台区,庞村公用照明3台区,大西仗公用照明2台区,大西丈公用照明6台区,西南宋村公用照明1台区,客户投资_东南宋公用照明5台区,西南宋公用照明4台区,大西丈村公用照明4台区,大西丈公用照明14台区,大西丈公用照明9台区,大西丈公用照明7台区,","scope":"【影响街道/乡镇】砖路镇、庞村镇【影响客户】张家庄村、东南宋村、西南宋村、大西丈村、东坂村、北庞村","startTime":"2020-06-15 05:30:00","stopDate":"2020-06-15 16:30:00","orgNo":"1340610","typeCode":"计划停电","poweroffArea":"【全线路停电】停３５ＫＶ北庞村变电站１０ＫＶ５１７东坂线路全线，北庞村公用照明14台区,西南宋公用照明2台区,大西丈公用照明10台区,庞村公用照明10台区1,东坂村公用照明2台区,东坂村公用照明1台区,东南宋公用照明7台区,东坂公用照明4台区,西南宋公用照明3台区,西南宋公用照明6台区,张家庄村公用照明1台区,庞村公用照明8台区1,北庞村公用照明13台区,大西丈公用照明11台区,东南宋公用照明2台区,东南宋公用照明1台区,东南宋公用照明3台区,张家庄公用照明2台区,客户投资_大西仗村公用照明1台区,庞村公用照明4台区,大西丈公用照明8台区,大西丈公用照明13台区,东南宋公用照明6台区,东坂公用照明3台区,庞村公用照明5台区,大西丈公用照明12台区,东南宋公用照明4台区,庞村公用照明11台区1,庞村公用照明1台区,大西仗村公用照明3台区,庞村公用照明3台区,大西仗公用照明2台区,大西丈公用照明6台区,西南宋村公用照明1台区,客户投资_东南宋公用照明5台区,西南宋公用照明4台区,大西丈村公用照明4台区,大西丈公用照明14台区,大西丈公用照明9台区,大西丈公用照明7台区","poweroffReason":"【停电原因】由于更换导线导致３５ＫＶ北庞村变电站１０ＫＶ５１７东坂线路全线停电 【变更送电】无 【发布渠道】河北省定州市定州日报第三版（２０２０年０６月０８日）","powerTime":"","powerComm":"","subsNo":"","lineNo":"","tgNo":"","tgName":null,"infoStatus":"1","orgName":"国网定州市供电公司","typeName":null,"infoStatusName":null,"dateDay":null,"orgNos":null,"nowTime":null,"countyName":null,"streetName":null,"villageName":null,"roadName":null,"communityName":null,"tranName":null,"sdLineName":null,"cityCode":"1340610","cityName":"国网定州市供电公司","provinceCode":null,"stopTime":"2020-06-15 16:30:00","powerType":"未送电","powerOffArea":"【全线路停电】停３５ＫＶ北庞村变电站１０ＫＶ５１７东坂线路全线，北庞村公用照明14台区,西南宋公用照明2台区,大西丈公用照明10台区,庞村公用照明10台区1,东坂村公用照明2台区,东坂村公用照明1台区,东南宋公用照明7台区,东坂公用照明4台区,西南宋公用照明3台区,西南宋公用照明6台区,张家庄村公用照明1台区,庞村公用照明8台区1,北庞村公用照明13台区,大西丈公用照明11台区,东南宋公用照明2台区,东南宋公用照明1台区,东南宋公用照明3台区,张家庄公用照明2台区,客户投资_大西仗村公用照明1台区,庞村公用照明4台区,大西丈公用照明8台区,大西丈公用照明13台区,东南宋公用照明6台区,东坂公用照明3台区,庞村公用照明5台区,大西丈公用照明12台区,东南宋公用照明4台区,庞村公用照明11台区1,庞村公用照明1台区,大西仗村公用照明3台区,庞村公用照明3台区,大西仗公用照明2台区,大西丈公用照明6台区,西南宋村公用照明1台区,客户投资_东南宋公用照明5台区,西南宋公用照明4台区,大西丈村公用照明4台区,大西丈公用照明14台区,大西丈公用照明9台区,大西丈公用照明7台区","powerOffReason":"【停电原因】由于更换导线导致３５ＫＶ北庞村变电站１０ＫＶ５１７东坂线路全线停电 【变更送电】无 【发布渠道】河北省定州市定州日报第三版（２０２０年０６月０８日）","powerOffId":"2020060413000280"},{"poweroffId":2020060413000211,"sgpoweroffId":null,"subsName":"","lineName":"10kV519百尺西线","pubTranName":"大百尺综9台区,大百尺农排13台【纯农排变】,百东综合11台,天发毛纺厂,河北天利纺织有限公司变压器800,大百尺排12台区【纯农排变】,保定亨利毛纺厂,0469446050-保定经纬纺织有限公司-专变-46811766-保定经纬纺织有限公司,康益毛纺厂,润昌毛纺,中国石油加油站,蠡县赢润纺织有限公司400,中国移动通信集团河北有限公司蠡县分公司变压器,新社毛纺厂,祥源毛纺厂,国税分局,松杰毛纺厂,宏润毛纺,保定经纬纺织有限公司315,大百尺中学,新星婚纱影楼,蠡县鑫荣毛纺厂,汇鑫毛纺,保定经纬纺织有限公司500,蠡县豪泰纺织有限公司200,光华毛纺,河北新天利纺织有限公司变压器,蠡县豪泰纺织有限公司100,福利毛纺厂,百尺综合24台区变压器,大柳树果园浇地,蠡县大白尺陆陆顺冷库变压器,兴源地毯纱厂,","scope":"【影响街道/乡镇】大百尺镇【高危重要客户】无【影响客户】大百尺中学、大百尺工业区","startTime":"2020-06-04 13:19:30","stopDate":"2020-06-04 18:00:00","orgNo":"1340616","typeCode":"电网故障停限电","poweroffArea":"【全线路停电】停３５ＫＶ百尺变电站１０ＫＶ百尺西５１９线路全线停电，大百尺综9台区,大百尺农排13台【纯农排变】,百东综合11台,天发毛纺厂,河北天利纺织有限公司变压器800,大百尺排12台区【纯农排变】,保定亨利毛纺厂,0469446050-保定经纬纺织有限公司-专变-46811766-保定经纬纺织有限公司,康益毛纺厂,润昌毛纺,中国石油加油站,蠡县赢润纺织有限公司400,中国移动通信集团河北有限公司蠡县分公司变压器,新社毛纺厂,祥源毛纺厂,国税分局,松杰毛纺厂,宏润毛纺,保定经纬纺织有限公司315,大百尺中学,新星婚纱影楼,蠡县鑫荣毛纺厂,汇鑫毛纺,保定经纬纺织有限公司500,蠡县豪泰纺织有限公司200,光华毛纺,河北新天利纺织有限公司变压器,蠡县豪泰纺织有限公司100,福利毛纺厂,百尺综合24台区变压器,大柳树果园浇地,蠡县大白尺陆陆顺冷库变压器,兴源地毯纱厂","poweroffReason":"【停电原因】由于站内开关掉闸导致３５ＫＶ百尺变电站１０ＫＶ百尺西５１９线路全线停电【变更送电】无【发布渠道】通过９５５９８发布　","powerTime":"2020-06-04 17:11:12","powerComm":"已送电","subsNo":"","lineNo":"","tgNo":"","tgName":null,"infoStatus":"1","orgName":"国网蠡县供电公司","typeName":null,"infoStatusName":null,"dateDay":null,"orgNos":null,"nowTime":null,"countyName":null,"streetName":null,"villageName":null,"roadName":null,"communityName":null,"tranName":null,"sdLineName":null,"cityCode":"1340616","cityName":"国网蠡县供电公司","provinceCode":null,"stopTime":"2020-06-04 18:00:00","powerType":"全部","powerOffArea":"【全线路停电】停３５ＫＶ百尺变电站１０ＫＶ百尺西５１９线路全线停电，大百尺综9台区,大百尺农排13台【纯农排变】,百东综合11台,天发毛纺厂,河北天利纺织有限公司变压器800,大百尺排12台区【纯农排变】,保定亨利毛纺厂,0469446050-保定经纬纺织有限公司-专变-46811766-保定经纬纺织有限公司,康益毛纺厂,润昌毛纺,中国石油加油站,蠡县赢润纺织有限公司400,中国移动通信集团河北有限公司蠡县分公司变压器,新社毛纺厂,祥源毛纺厂,国税分局,松杰毛纺厂,宏润毛纺,保定经纬纺织有限公司315,大百尺中学,新星婚纱影楼,蠡县鑫荣毛纺厂,汇鑫毛纺,保定经纬纺织有限公司500,蠡县豪泰纺织有限公司200,光华毛纺,河北新天利纺织有限公司变压器,蠡县豪泰纺织有限公司100,福利毛纺厂,百尺综合24台区变压器,大柳树果园浇地,蠡县大白尺陆陆顺冷库变压器,兴源地毯纱厂","powerOffReason":"【停电原因】由于站内开关掉闸导致３５ＫＶ百尺变电站１０ＫＶ百尺西５１９线路全线停电【变更送电】无【发布渠道】通过９５５９８发布　","powerOffId":"2020060413000211"},{"poweroffId":2020060413000148,"sgpoweroffId":null,"subsName":"","lineName":"10kV517百尺中线","pubTranName":"南界河农排3台区【纯农排变】,大百尺农排8台区【纯农排变】,南界河农排6台区【纯农排变】,南界河农排8台区变压器【纯农排变】,大百尺农排22台区变压器【纯农排变】,大百尺综合二台区,南界河农排4台区【纯农排变】,南界河综合2台区,大百尺综合六台区,大百尺综合22台区,大百尺综合1台区,大百尺农排11台区【纯农排变】,南界河农排5台区【纯农排变】,大百尺综合十四台区,大百尺综合十五台区,大百尺综合三台区,大百尺综合20台区,大百尺综合十二台区,大百尺农排21台区变压器【纯农排变】,南界河农排7台区【纯农排变】,大百尺综合十台区,大百尺农排7台区【纯农排变】,南界河农排2台区【纯农排变】,大百尺综合十八台区,大百尺农排10台区【纯农排变】,南界河综合1台区,南界河农排1台区【纯农排变】,大百尺综合十六台区,大百尺综合8台区,大百尺综合十七台区,大百尺综合四台区,大百尺综合十三台区,大百尺综合五台区,","scope":"【影响街道/乡镇】大百尺镇【高危重要客户】无【影响客户】大百尺村、百尺电信局、百尺邮政局、百尺医院、百尺小区","startTime":"2020-06-04 10:45:15","stopDate":"2020-06-04 18:00:00","orgNo":"1340616","typeCode":"电网故障停限电","poweroffArea":"【全线路停电】停３５ＫＶ百尺变电站１０ＫＶ百尺中５１７线路全线，京联,南界河农排2台区【纯农排变】,大百尺综合十台区,大百尺综合8台区,大百尺综合22台区,大百尺综合十六台区,蠡县金鑫机床制造厂变压器,河北中炬建筑工程有限公司变压器,大百尺综合十二台区,大百尺农排7台区【纯农排变】,大百尺农排10台区【纯农排变】,大百尺综合十七台区,蠡县坤鹏建筑材料制造有限公司变压器安装,南界河农排7台区【纯农排变】,蠡县盛航绒毛加工厂,保定雷骏皮毛有限公司,蠡县佳益生猪定点屠宰厂,0469444618-蠡县泰祥绒毛制造有限公司-专变-227120736-泰祥变压器,南界河综合2台区,大百尺农排8台区【纯农排变】,天润德养殖厂,百尺小区,双进毛纺厂,0469445972-保定三和毛纺有限公司-专变-217784745-蠡县三合纺织有限公司,保定经纬纺织有限公司变压器,百尺砖厂,蠡县建华毛纺,立英冷库,红彬毛纺厂,兴发毛纺厂,大百尺综合五台区,董亚松,百尺伍进毛纺厂,宏达毛纺厂,大百尺农排22台区变压器【纯农排变】,大百尺农排9台区【纯农排变】,南界河综合1台区,大百尺农排21台区变压器【纯农排变】,国太毛纺厂,0578346281-蠡县百盛纺织有限公司-专变-124292417-蠡县百盛纺织有限公司变压器安装,大百尺综合四台区,电信局,大百尺综合二台区,保定雷骏皮毛有限公司变压器,东亚厂,东胜毛昵,蠡县百尺高远纺纱厂,大百尺综合十三台区,大百尺综合十四台区,0469445972-保定三和毛纺有限公司-专变-217786959-保定三和毛纺有限公司,保定市盈溢商贸有限公司变压器,大百尺综合六台区,0469444634-蠡县龙泽纺织厂-专变-47808957-三鑫厂变压器,大百尺综合20台区,百尺医院,蠡县百东华鑫毛纺织厂变压器,宏硕厂（铭牌是250KVA，刘孟东测量的是220KVA),南界河农排6台区【纯农排变】,0667765348-蠡县博华陶瓷纤维制品有限公司-专变-208448586-蠡县博华陶瓷纤维制品有限公司变压器,大百尺综合十八台区,会彬毛纺厂,天利嘉园变压器,东明毛纺厂,新华毛纺厂（高计）,蠡县金鑫车床制造厂,永顺毛昵厂,亚顺毛纺厂,0469444230-蠡县顺源毛呢纺织染整厂-专变-47809031-永顺毛昵厂,南界河农排5台区【纯农排变】,蠡县百尺双龙气流纺纱厂变压器,大百尺综合十五台区,大百尺综合1台区,南界河农排4台区【纯农排变】,润利手套厂,大百尺综合三台区,蠡县大百尺污水处理厂,南界河农排8台区变压器【纯农排变】,宏硕厂,南界河农排3台区【纯农排变】,百尺邮政局,百尺镇政府,志光养殖厂,国立毛纺厂,永发毛纺厂,蠡县兰柱机动车检测有限公司变压器,蠡县米伦服饰制造有限公司变压器,大百尺农排11台区【纯农排变】,南界河农排1台区【纯农排变】","poweroffReason":"【停电原因】由于站内开关掉闸导致３５ＫＶ百尺变电站１０ＫＶ百尺中５１７线路全线停电【变更送电】无【发布渠道】通过９５５９８发布","powerTime":"2020-06-04 17:12:27","powerComm":"已送电","subsNo":"","lineNo":"","tgNo":"","tgName":null,"infoStatus":"1","orgName":"国网蠡县供电公司","typeName":null,"infoStatusName":null,"dateDay":null,"orgNos":null,"nowTime":null,"countyName":null,"streetName":null,"villageName":null,"roadName":null,"communityName":null,"tranName":null,"sdLineName":null,"cityCode":"1340616","cityName":"国网蠡县供电公司","provinceCode":null,"stopTime":"2020-06-04 18:00:00","powerType":"全部","powerOffArea":"【全线路停电】停３５ＫＶ百尺变电站１０ＫＶ百尺中５１７线路全线，京联,南界河农排2台区【纯农排变】,大百尺综合十台区,大百尺综合8台区,大百尺综合22台区,大百尺综合十六台区,蠡县金鑫机床制造厂变压器,河北中炬建筑工程有限公司变压器,大百尺综合十二台区,大百尺农排7台区【纯农排变】,大百尺农排10台区【纯农排变】,大百尺综合十七台区,蠡县坤鹏建筑材料制造有限公司变压器安装,南界河农排7台区【纯农排变】,蠡县盛航绒毛加工厂,保定雷骏皮毛有限公司,蠡县佳益生猪定点屠宰厂,0469444618-蠡县泰祥绒毛制造有限公司-专变-227120736-泰祥变压器,南界河综合2台区,大百尺农排8台区【纯农排变】,天润德养殖厂,百尺小区,双进毛纺厂,0469445972-保定三和毛纺有限公司-专变-217784745-蠡县三合纺织有限公司,保定经纬纺织有限公司变压器,百尺砖厂,蠡县建华毛纺,立英冷库,红彬毛纺厂,兴发毛纺厂,大百尺综合五台区,董亚松,百尺伍进毛纺厂,宏达毛纺厂,大百尺农排22台区变压器【纯农排变】,大百尺农排9台区【纯农排变】,南界河综合1台区,大百尺农排21台区变压器【纯农排变】,国太毛纺厂,0578346281-蠡县百盛纺织有限公司-专变-124292417-蠡县百盛纺织有限公司变压器安装,大百尺综合四台区,电信局,大百尺综合二台区,保定雷骏皮毛有限公司变压器,东亚厂,东胜毛昵,蠡县百尺高远纺纱厂,大百尺综合十三台区,大百尺综合十四台区,0469445972-保定三和毛纺有限公司-专变-217786959-保定三和毛纺有限公司,保定市盈溢商贸有限公司变压器,大百尺综合六台区,0469444634-蠡县龙泽纺织厂-专变-47808957-三鑫厂变压器,大百尺综合20台区,百尺医院,蠡县百东华鑫毛纺织厂变压器,宏硕厂（铭牌是250KVA，刘孟东测量的是220KVA),南界河农排6台区【纯农排变】,0667765348-蠡县博华陶瓷纤维制品有限公司-专变-208448586-蠡县博华陶瓷纤维制品有限公司变压器,大百尺综合十八台区,会彬毛纺厂,天利嘉园变压器,东明毛纺厂,新华毛纺厂（高计）,蠡县金鑫车床制造厂,永顺毛昵厂,亚顺毛纺厂,0469444230-蠡县顺源毛呢纺织染整厂-专变-47809031-永顺毛昵厂,南界河农排5台区【纯农排变】,蠡县百尺双龙气流纺纱厂变压器,大百尺综合十五台区,大百尺综合1台区,南界河农排4台区【纯农排变】,润利手套厂,大百尺综合三台区,蠡县大百尺污水处理厂,南界河农排8台区变压器【纯农排变】,宏硕厂,南界河农排3台区【纯农排变】,百尺邮政局,百尺镇政府,志光养殖厂,国立毛纺厂,永发毛纺厂,蠡县兰柱机动车检测有限公司变压器,蠡县米伦服饰制造有限公司变压器,大百尺农排11台区【纯农排变】,南界河农排1台区【纯农排变】","powerOffReason":"【停电原因】由于站内开关掉闸导致３５ＫＶ百尺变电站１０ＫＶ百尺中５１７线路全线停电【变更送电】无【发布渠道】通过９５５９８发布","powerOffId":"2020060413000148"},{"poweroffId":2020060413000125,"sgpoweroffId":null,"subsName":"","lineName":"兰沟564","pubTranName":"新巨兰沟光5【煤改电】,焦兰沟光2,刘兰沟光2,高兰沟光1,夏家营排5【纯农排变】,新巨兰沟光7【煤改电】,王兰沟光3,焦兰沟光4,新巨兰沟光1【煤改电】,新巨兰沟光2【煤改电】,刘兰沟光1,新巨兰沟光3【煤改电】,新巨兰沟光11【煤改电】,新巨兰沟光8【煤改电】,尹黄营光2,常家营光1,王兰沟光2,焦兰沟光5,巨兰沟村光3,新王兰沟光2【2018年重过载】,新常家营光2【2018年重过载】,高兰沟光3,高兰沟光2,新巨兰沟光4【煤改电】,新王兰沟光1,","scope":"【影响街道/乡镇】小朱庄乡 【影响客户】夏家营部分用户、高兰沟部分用户、焦兰沟部分用户、尹黄营、常家营、巨兰沟部分用户、刘兰沟部分用户、王兰沟部分用户","startTime":"2020-06-04 10:23:00","stopDate":"2020-06-04 12:00:00","orgNo":"1340609","typeCode":"电网故障停限电","poweroffArea":"【全线路停电】停１１０ＫＶ小朱庄变电站兰沟线５６４线路全线，尹黄营排3【纯农排变】,高兰沟光4,王兰沟光2,尹黄营排1【纯农排变】,巨兰沟排7【纯农排变】,夏家营小学-160,夏家营光3,焦兰沟光6,0695365314-定兴县高兰沟幼儿园-专变-239160117-50,新高兰沟光3【2018年重过载】,常家营光4,新巨兰沟光11【煤改电】,新巨兰沟光8【煤改电】,常家营光1,刘兰沟排5【纯农排变】,焦兰沟光5,新巨兰沟光7【煤改电】,巨兰沟村光3,新常家营光2【2018年重过载】,焦兰沟光1,高兰沟光3,高兰沟光2,新巨兰沟光4【煤改电】,常家营排2【纯农排变】,焦兰沟排1【纯农排变】,新王兰沟光5【2018年重过载】,焦兰沟排5【纯农排变】,高兰沟光6,新王兰沟光1,王兰沟排6【纯农排变】,新巨兰沟光3【煤改电】,尹黄营光1,夏家营光1,焦兰沟光2,变压器,尹黄营排2【纯农排变】,焦兰沟光3,尹黄营光2,刘兰沟光2,夏家营排2【纯农排变】,高兰沟光1,夏家营排5【纯农排变】,刘兰沟光3,王兰沟光4,0011688799刘兰沟机站,焦兰沟排4【纯农排变】,新巨兰沟光5【煤改电】,0011688784*巨兰沟面粉厂,王兰沟光3,常家营排1【纯农排变】,新巨兰沟光2【煤改电】,尹黄营排4【纯农排变】,兰沟小学-630,0696769377-定兴县小朱庄焦兰沟小学-专变-240815690-160,常家营排3【纯农排变】,双龙新型建材,王兰沟排4【纯农排变】,焦兰沟光4,高兰沟光5,王兰沟排5【纯农排变】,新王兰沟光2【2018年重过载】,新巨兰沟光1【煤改电】,刘兰沟光1,刘兰沟光4","poweroffReason":"【停电原因】由于常家营农排分支９号杆施工车辆碰线导致１１０ＫＶ小朱庄变电站兰沟线５６４线路全线停电 【变更送电】因抢修进度加快原因，送电时间由１４：００变更为１２：００ 【发布渠道】通过９５５９８发布","powerTime":"2020-06-04 11:23:26","powerComm":"已送电","subsNo":"","lineNo":"","tgNo":"","tgName":null,"infoStatus":"1","orgName":"国网定兴县供电公司","typeName":null,"infoStatusName":null,"dateDay":null,"orgNos":null,"nowTime":null,"countyName":null,"streetName":null,"villageName":null,"roadName":null,"communityName":null,"tranName":null,"sdLineName":null,"cityCode":"1340609","cityName":"国网定兴县供电公司","provinceCode":null,"stopTime":"2020-06-04 12:00:00","powerType":"全部","powerOffArea":"【全线路停电】停１１０ＫＶ小朱庄变电站兰沟线５６４线路全线，尹黄营排3【纯农排变】,高兰沟光4,王兰沟光2,尹黄营排1【纯农排变】,巨兰沟排7【纯农排变】,夏家营小学-160,夏家营光3,焦兰沟光6,0695365314-定兴县高兰沟幼儿园-专变-239160117-50,新高兰沟光3【2018年重过载】,常家营光4,新巨兰沟光11【煤改电】,新巨兰沟光8【煤改电】,常家营光1,刘兰沟排5【纯农排变】,焦兰沟光5,新巨兰沟光7【煤改电】,巨兰沟村光3,新常家营光2【2018年重过载】,焦兰沟光1,高兰沟光3,高兰沟光2,新巨兰沟光4【煤改电】,常家营排2【纯农排变】,焦兰沟排1【纯农排变】,新王兰沟光5【2018年重过载】,焦兰沟排5【纯农排变】,高兰沟光6,新王兰沟光1,王兰沟排6【纯农排变】,新巨兰沟光3【煤改电】,尹黄营光1,夏家营光1,焦兰沟光2,变压器,尹黄营排2【纯农排变】,焦兰沟光3,尹黄营光2,刘兰沟光2,夏家营排2【纯农排变】,高兰沟光1,夏家营排5【纯农排变】,刘兰沟光3,王兰沟光4,0011688799刘兰沟机站,焦兰沟排4【纯农排变】,新巨兰沟光5【煤改电】,0011688784*巨兰沟面粉厂,王兰沟光3,常家营排1【纯农排变】,新巨兰沟光2【煤改电】,尹黄营排4【纯农排变】,兰沟小学-630,0696769377-定兴县小朱庄焦兰沟小学-专变-240815690-160,常家营排3【纯农排变】,双龙新型建材,王兰沟排4【纯农排变】,焦兰沟光4,高兰沟光5,王兰沟排5【纯农排变】,新王兰沟光2【2018年重过载】,新巨兰沟光1【煤改电】,刘兰沟光1,刘兰沟光4","powerOffReason":"【停电原因】由于常家营农排分支９号杆施工车辆碰线导致１１０ＫＶ小朱庄变电站兰沟线５６４线路全线停电 【变更送电】因抢修进度加快原因，送电时间由１４：００变更为１２：００ 【发布渠道】通过９５５９８发布","powerOffId":"2020060413000125"},{"poweroffId":2020060413000100,"sgpoweroffId":null,"subsName":"","lineName":"10KV东城坊512","pubTranName":"西瞳村1815变压器,马踏营农开L变压器,西疃村东北BQ1台区,东城坊供电所西疃小学（煤）箱式变电站配电变压器,马踏营农开D【纯农排变】,西疃村南BQ3台区,马踏营农开J变压器,西疃村南新,西瞳村西5480变压器,西疃大队ML变压器,西瞳村东5481变压器,西疃村东南BQ2台区,西疃村1811,","scope":"【影响街道/乡镇】东城坊镇 【影响客户】西疃、郝家庄、马踏营、史家铺","startTime":"2020-06-14 04:30:00","stopDate":"2020-06-14 18:00:00","orgNo":"1340626","typeCode":"计划停电","poweroffArea":"【分支停电】停３５ＫＶ东城坊变电站１０ＫＶ东城坊５１２线路５８号杆以下线路，马踏营农开L变压器,马踏营孙庄道井,马踏营大井,西疃村东北BQ1台区,马踏营7号井,东城坊供电所西疃小学（煤）箱式变电站配电变压器,西瞳村1757【纯农排变】,马踏营二坨子,马踏营农开D【纯农排变】,西疃村南BQ3台区,马踏营农开J变压器,马踏营八队井,马踏营西河井,西瞳村1815变压器,马踏营北河井,马踏营庄子井,西疃村南新,马踏营南道井（村南）,马踏营村村北新增配变工程农开F【纯农排变】,马踏营农开E,西瞳村南5482变压器,西瞳村西5480变压器,西町二农,西疃大队ML变压器,西瞳村东5481变压器,西疃村东南BQ2台区,西疃村1811,西町二三十斗","poweroffReason":"【停电原因】由于更换电杆、导线及金具导致３５ＫＶ东城坊变电站１０ＫＶ东城坊５１２线路５８号杆以下线路停电 【变更送电】无 【发布渠道】涿州市涿州电视台（０６月０４日至０６月１３日２１：００播放２次）屏幕上方滚动","powerTime":"2020-06-14 17:40:33","powerComm":"恢复送电","subsNo":"","lineNo":"","tgNo":"","tgName":null,"infoStatus":"1","orgName":"国网涿州市供电公司","typeName":null,"infoStatusName":null,"dateDay":null,"orgNos":null,"nowTime":null,"countyName":null,"streetName":null,"villageName":null,"roadName":null,"communityName":null,"tranName":null,"sdLineName":null,"cityCode":"1340626","cityName":"国网涿州市供电公司","provinceCode":null,"stopTime":"2020-06-14 18:00:00","powerType":"全部","powerOffArea":"【分支停电】停３５ＫＶ东城坊变电站１０ＫＶ东城坊５１２线路５８号杆以下线路，马踏营农开L变压器,马踏营孙庄道井,马踏营大井,西疃村东北BQ1台区,马踏营7号井,东城坊供电所西疃小学（煤）箱式变电站配电变压器,西瞳村1757【纯农排变】,马踏营二坨子,马踏营农开D【纯农排变】,西疃村南BQ3台区,马踏营农开J变压器,马踏营八队井,马踏营西河井,西瞳村1815变压器,马踏营北河井,马踏营庄子井,西疃村南新,马踏营南道井（村南）,马踏营村村北新增配变工程农开F【纯农排变】,马踏营农开E,西瞳村南5482变压器,西瞳村西5480变压器,西町二农,西疃大队ML变压器,西瞳村东5481变压器,西疃村东南BQ2台区,西疃村1811,西町二三十斗","powerOffReason":"【停电原因】由于更换电杆、导线及金具导致３５ＫＶ东城坊变电站１０ＫＶ东城坊５１２线路５８号杆以下线路停电 【变更送电】无 【发布渠道】涿州市涿州电视台（０６月０４日至０６月１３日２１：００播放２次）屏幕上方滚动","powerOffId":"2020060413000100"}],"pageModel":{"pageNow":16,"totalCount":10973,"totalPage":1098,"tableRows":0,"pageCount":10,"beginCount":150},"isExperi":"1"}