{"message":"","today":"2020-06-15","seleList":[{"poweroffId":2020011713000061,"sgpoweroffId":null,"subsName":"","lineName":"白虹线538","pubTranName":"北白虹村3#,高家庄村3#,太和庄村3#,宋家庄村1#,北白虹村8#变压器,西靠村7#变压器,南中庄村8#,南白虹2#,北白虹村2#,南福地村1#,北白虹村1#,榆林庄村4#,南靠村2#,南白虹村5#,南中庄村9#变压器,南中庄村3#,王家庄村5#,太和庄村4#,西固城村5#变压器,北白虹村5#,车网地村3#|,南白虹村2#|,塘湖村14#,北白虹村4#,南靠村4#,南白虹村1#,车网地村1#,车网地村4#,高家庄村1#,高家庄村2#,南白虹村8#,东柳泉村5#,西柳泉村1#,仁义庄村5#,南中庄村6#,西靠村1#,南白虹村9#,王家庄村4#,南中庄村1#,宋家庄村9#变压器,王家庄村2#,宋家庄6#,东柳泉村1#,北靠村1#,北白虹村7#,仁义庄村7#,塘湖村7#,东柳泉村2#,东柳泉村3#,北靠村4#,西柳泉村6#,太和庄村2#t,西柳泉村5#,南白虹村13#变压器,塘湖村15#,太和庄村8#,塘湖村18#变压器（吴小河）,南白虹村10#,南靠村1#,北白虹村6#,宋家庄村3#,南福地村3#,仁义庄村3#,张进庄村3#,塘湖村16#变压器,西靠村4#,西靠村5#,仁义庄村8#南井,西柳泉7#,南靠村3#,塘湖村17号变压器,太和庄村1#t,王家庄村1#|,北林村2#t,太和庄村6#,仁义庄村1#,","scope":"【影响街道/乡镇】裴山镇、塘湖镇【高危重要客户】无【影响客户】南太和庄村、车网地村、小罗村、北白虹村、南福地村、南白虹村、高家庄村、塘湖村、南林村、榆林庄村、张进庄村、东柳泉村、西柳泉村、宋家庄村、仁义庄村、南考村、北考村、西考村、王家庄村、南中庄村","startTime":"2020-01-17 15:58:54","stopDate":"2020-01-17 19:00:00","orgNo":"1340625","typeCode":"电网故障停限电","poweroffArea":"【全线路停电】停西靠村7#变压器,西靠村5#,北白虹村6#,北白虹村4#,刘德财养鸡厂,塘湖村18#变压器（吴小河）,南福地村1#,易县源德建材有限公司B-500KVA,刘晓立养牛厂,北白虹村2#,王家庄村2#,南白虹村2#|,北白虹面粉厂,北白虹村5#,中电投河北易县新能源发电有限公司变压器,太和庄村3#,南白虹2#,南白虹村13#变压器,榆林庄村4#,南白虹村1#,宋家庄6#,南中庄村5#","poweroffReason":"【停电原因】由于线路接地导致１１０ＫＶ塘湖变电站白虹５３８线路全线停电【变更送电】因抢修进度加快原因，送电时间由２１：００变更为１９：００【发布渠道】通过９５５９８发布","powerTime":"2020-01-17 18:36:35","powerComm":"已送电","subsNo":"","lineNo":"","tgNo":"","tgName":null,"infoStatus":"1","orgName":"国网易县供电公司","typeName":null,"infoStatusName":null,"dateDay":null,"orgNos":null,"nowTime":null,"countyName":null,"streetName":null,"villageName":null,"roadName":null,"communityName":null,"tranName":null,"sdLineName":null,"cityCode":"1340625","cityName":"国网易县供电公司","provinceCode":null,"stopTime":"2020-01-17 19:00:00","powerType":"全部","powerOffArea":"【全线路停电】停西靠村7#变压器,西靠村5#,北白虹村6#,北白虹村4#,刘德财养鸡厂,塘湖村18#变压器（吴小河）,南福地村1#,易县源德建材有限公司B-500KVA,刘晓立养牛厂,北白虹村2#,王家庄村2#,南白虹村2#|,北白虹面粉厂,北白虹村5#,中电投河北易县新能源发电有限公司变压器,太和庄村3#,南白虹2#,南白虹村13#变压器,榆林庄村4#,南白虹村1#,宋家庄6#,南中庄村5#","powerOffReason":"【停电原因】由于线路接地导致１１０ＫＶ塘湖变电站白虹５３８线路全线停电【变更送电】因抢修进度加快原因，送电时间由２１：００变更为１９：００【发布渠道】通过９５５９８发布","powerOffId":"2020011713000061"},{"poweroffId":2020011713000033,"sgpoweroffId":null,"subsName":"","lineName":"10KV祖各庄514","pubTranName":"张翠台西北台区,张翠台东台区,张翠台村内2,张翠台高速井,张翠台变压器,张翠台村北台区,张翠台村内台区,","scope":"【影响街道/乡镇】王村乡 【高危重要客户】无 【影响客户】张翠台村","startTime":"2020-01-17 12:25:08","stopDate":"2020-01-17 15:25:00","orgNo":"1340614","typeCode":"电网故障停限电","poweroffArea":"【分支停电】停张翠台西北台区,张翠台面粉厂,张翠台东台区,张翠台村内2,张翠台高速井,张翠台变压器,张翠台村北8号井变压器,张翠台村北台区,张翠台2号井变压器,张翠台村内台区,张翠台万红光机井变压器,张翠台所北台区,张翠台村北3,张翠台北井变压器","poweroffReason":"【停电原因】由于电缆被破坏导致３５ＫＶ王村变电站１０ＫＶ祖各庄５１４线路０２号杆至３３号杆停电 【变更送电】因抢修进度加快原因，送电时间由１９：３０变更为１５：２５ 【发布渠道】通过９５５９８发布","powerTime":"2020-01-17 15:13:48","powerComm":"已送电","subsNo":"","lineNo":"","tgNo":"","tgName":null,"infoStatus":"1","orgName":"国网涞水县供电公司","typeName":null,"infoStatusName":null,"dateDay":null,"orgNos":null,"nowTime":null,"countyName":null,"streetName":null,"villageName":null,"roadName":null,"communityName":null,"tranName":null,"sdLineName":null,"cityCode":"1340614","cityName":"国网涞水县供电公司","provinceCode":null,"stopTime":"2020-01-17 15:25:00","powerType":"全部","powerOffArea":"【分支停电】停张翠台西北台区,张翠台面粉厂,张翠台东台区,张翠台村内2,张翠台高速井,张翠台变压器,张翠台村北8号井变压器,张翠台村北台区,张翠台2号井变压器,张翠台村内台区,张翠台万红光机井变压器,张翠台所北台区,张翠台村北3,张翠台北井变压器","powerOffReason":"【停电原因】由于电缆被破坏导致３５ＫＶ王村变电站１０ＫＶ祖各庄５１４线路０２号杆至３３号杆停电 【变更送电】因抢修进度加快原因，送电时间由１９：３０变更为１５：２５ 【发布渠道】通过９５５９８发布","powerOffId":"2020011713000033"},{"poweroffId":2020011713000028,"sgpoweroffId":null,"subsName":"","lineName":"10KV祖各庄514","pubTranName":"王村供电所,张翠台村北2号台区,张翠台西北台区,北辛庄村西北台区,吴各庄村内,北辛庄西台区,祖各庄村配变柱上变压器,张翠台东台区,张翠台村内2,张翠台高速井,张翠台变压器,吴各庄北台区,吴各庄村南台区,北辛庄公路边台区,祖各庄新东台区,张翠台村北台区,北辛庄东台区,南横七北井变压器,北辛庄河套井台区（西）,祖各庄村内台区,北辛庄村西海峰,下庄西台区,张翠台村内台区,吴各庄小学院内变压器,祖各庄东坑台区变压器,北辛庄村南台区,王村中学箱变间隔配电变压器,祖各庄南台区,吴各庄村内2台区,吴各庄村西,吴各庄公路边变压器,","scope":"【影响街道/乡镇】王村乡 【高危重要客户】无 【影响客户】祖各庄村、吴各庄村、张翠台村、下庄村、北辛庄村","startTime":"2020-01-17 11:53:30","stopDate":"2020-01-17 12:40:00","orgNo":"1340614","typeCode":"电网故障停限电","poweroffArea":"【全线路停电】停张翠台村北2号台区,0611825203-保定翔海旅游开发有限公司-专变-127816772-翔海旅游315KVA专变,张翠台西北台区,祖各庄西南台区,涞水龙博建材有限公司新增250KVA专变,北辛庄村西北台区,涞水双开饲养有限公司新增变压器1#,涞水润鑫建材二分厂250,吴各庄村内,0646673503-涞水县航航水泥制品厂-专变-169896449-涞水县航航水泥制品厂新增变压器315KVA,北辛庄西台区,张翠台面粉厂,祖各庄砖厂,承装公司杆厂,祖各庄村配变柱上变压器,祖各庄砖厂2,张翠台东台区,张翠台村内2,祖各庄楼板厂,张翠台高速井,张翠台变压器,吴各庄北台区,吴各庄村南台区,0670992458-涞水县辛庄头金良水泥制品有限公司-专变-212136071-金良水泥制品有限公司200KVA专变,下庄西井【纯农排变】,北辛庄公路边台区,祖各庄新东台区,下庄,祖各庄西北变压器,长和水泥构件,吴各庄公路边变压器,涞水县保北电气安装有限公司200KVA专变,鑫磊石粉厂,张翠台村北8号井变压器,涞水双开饲养有限公司新增变压器2#,张涿高速涞水互通收费站630KVA专变,张翠台村北台区,北辛庄五方井变压器【纯农排变】,北辛庄东台区,北辛庄三岔井变压器,0469315631-王村粮站-专变-46774540-王村粮站,南横七北井变压器,北辛庄河套井台区（西）,张翠台2号井变压器,下庄北井2变压器【纯农排变】,北辛庄北井变压器,祖各庄村内台区,新兴纸箱厂,北辛庄村东北台区,北辛庄村西海峰,瑞兴隆建材厂,下庄西台区,祖各庄东南台区变压器,张翠台村内台区,吴各庄小学院内变压器,涞水涞聚再生资源利用有限公司2000KVA专变,张翠台万红光机井变压器,0469315367-王村中学-专变-46774539-王村中学,张翠台所北台区,祖各庄东坑台区变压器,王村供电所,北辛庄村南台区,0679135049-涞水龙博建材有限公司-专变-218835593-涞水龙博建材有限公司800KVA专变,国网河北省电力有限公司涿州市供电分公司200KVA专变,王村中学箱变间隔配电变压器,祖各庄南台区,吴各庄村内2台区,吴各庄村西,张翠台村北3,张翠台北井变压器,涿州市供电有限责任公司","poweroffReason":"【停电原因】由于速断跳闸导致３５ＫＶ王村变电站１０ＫＶ祖各庄５１４线路全线停电 【变更送电】因抢修进度加快原因，送电时间由１６：００变更为１２：４０ 【发布渠道】通过９５５９８发布","powerTime":"2020-01-17 12:30:45","powerComm":"已送电","subsNo":"","lineNo":"","tgNo":"","tgName":null,"infoStatus":"1","orgName":"国网涞水县供电公司","typeName":null,"infoStatusName":null,"dateDay":null,"orgNos":null,"nowTime":null,"countyName":null,"streetName":null,"villageName":null,"roadName":null,"communityName":null,"tranName":null,"sdLineName":null,"cityCode":"1340614","cityName":"国网涞水县供电公司","provinceCode":null,"stopTime":"2020-01-17 12:40:00","powerType":"全部","powerOffArea":"【全线路停电】停张翠台村北2号台区,0611825203-保定翔海旅游开发有限公司-专变-127816772-翔海旅游315KVA专变,张翠台西北台区,祖各庄西南台区,涞水龙博建材有限公司新增250KVA专变,北辛庄村西北台区,涞水双开饲养有限公司新增变压器1#,涞水润鑫建材二分厂250,吴各庄村内,0646673503-涞水县航航水泥制品厂-专变-169896449-涞水县航航水泥制品厂新增变压器315KVA,北辛庄西台区,张翠台面粉厂,祖各庄砖厂,承装公司杆厂,祖各庄村配变柱上变压器,祖各庄砖厂2,张翠台东台区,张翠台村内2,祖各庄楼板厂,张翠台高速井,张翠台变压器,吴各庄北台区,吴各庄村南台区,0670992458-涞水县辛庄头金良水泥制品有限公司-专变-212136071-金良水泥制品有限公司200KVA专变,下庄西井【纯农排变】,北辛庄公路边台区,祖各庄新东台区,下庄,祖各庄西北变压器,长和水泥构件,吴各庄公路边变压器,涞水县保北电气安装有限公司200KVA专变,鑫磊石粉厂,张翠台村北8号井变压器,涞水双开饲养有限公司新增变压器2#,张涿高速涞水互通收费站630KVA专变,张翠台村北台区,北辛庄五方井变压器【纯农排变】,北辛庄东台区,北辛庄三岔井变压器,0469315631-王村粮站-专变-46774540-王村粮站,南横七北井变压器,北辛庄河套井台区（西）,张翠台2号井变压器,下庄北井2变压器【纯农排变】,北辛庄北井变压器,祖各庄村内台区,新兴纸箱厂,北辛庄村东北台区,北辛庄村西海峰,瑞兴隆建材厂,下庄西台区,祖各庄东南台区变压器,张翠台村内台区,吴各庄小学院内变压器,涞水涞聚再生资源利用有限公司2000KVA专变,张翠台万红光机井变压器,0469315367-王村中学-专变-46774539-王村中学,张翠台所北台区,祖各庄东坑台区变压器,王村供电所,北辛庄村南台区,0679135049-涞水龙博建材有限公司-专变-218835593-涞水龙博建材有限公司800KVA专变,国网河北省电力有限公司涿州市供电分公司200KVA专变,王村中学箱变间隔配电变压器,祖各庄南台区,吴各庄村内2台区,吴各庄村西,张翠台村北3,张翠台北井变压器,涿州市供电有限责任公司","powerOffReason":"【停电原因】由于速断跳闸导致３５ＫＶ王村变电站１０ＫＶ祖各庄５１４线路全线停电 【变更送电】因抢修进度加快原因，送电时间由１６：００变更为１２：４０ 【发布渠道】通过９５５９８发布","powerOffId":"2020011713000028"},{"poweroffId":2020011713000025,"sgpoweroffId":null,"subsName":"","lineName":"水泥厂线512","pubTranName":"岭南庄4号,岭南庄1号,白岭1号,白岭7号,岭南庄8号,北釜山10号,北合庄1号,北釜山8号,北陈庄4号,西峪6号,西峪4号,岭南庄6号,北合庄3号,白岭2号,北合庄2号,小黑山2号【纯农排变】,西峪8号,岭南庄3号,西峪1号,白岭4号,岭南庄2号,北陈庄5号,西峪2号,西峪3号,岭南庄7号,小黑山7号,白岭8号,白岭5号,北釜山5号,北陈庄2号,北釜山14号【纯农排变】,白岭6号,西峪10号,西峪9号,岭南庄5号,西峪7号,北陈庄3号【纯农排变】,西峪11号,西峪5号,北釜山16号【纯农排变】,白岭3号,","scope":"【影响街道/乡镇】大王店镇 【高危重要客户】无 【影响客户】西峪村、岭南庄村、北釜山村、北合庄村、北陈庄村、白岭村、小黑山村","startTime":"2020-01-17 11:27:47","stopDate":"2020-01-17 13:30:00","orgNo":"1340605","typeCode":"电网故障停限电","poweroffArea":"【全线路停电】停西峪11号,岭南庄7号,北釜山5号,西峪6号,北合庄2号,岭南庄8号,西峪1号,西峪8号,北釜山8号,西峪9号,北陈庄2号,白岭1号,西峪5号,北釜山16号【纯农排变】,白岭6号,白岭5号,白岭3号,岭南庄2号,岭南庄1号,北合庄1号,小黑山7号,西峪7号,西峪3号,西峪2号,岭南庄5号,北釜山14号【纯农排变】,北陈庄5号,北陈庄4号,北陈庄3号【纯农排变】,白岭4号,白岭2号,小黑山2号【纯农排变】,西峪4号,西峪10号,岭南庄6号,岭南庄4号,岭南庄3号,北合庄3号,北釜山10号,白岭8号,白岭7号","poweroffReason":"【停电原因】由于Ｂ相接地导致３５ＫＶ黑山变电站水泥厂５１２线路全线停电 【变更送电】因工作进度加快原因，送电时间由１５:００变更为１３:３０ 【发布渠道】通过９５５９８发布","powerTime":"2020-01-17 12:44:54","powerComm":"已送电","subsNo":"","lineNo":"","tgNo":"","tgName":null,"infoStatus":"1","orgName":"国网徐水县供电公司","typeName":null,"infoStatusName":null,"dateDay":null,"orgNos":null,"nowTime":null,"countyName":null,"streetName":null,"villageName":null,"roadName":null,"communityName":null,"tranName":null,"sdLineName":null,"cityCode":"1340605","cityName":"国网徐水县供电公司","provinceCode":null,"stopTime":"2020-01-17 13:30:00","powerType":"全部","powerOffArea":"【全线路停电】停西峪11号,岭南庄7号,北釜山5号,西峪6号,北合庄2号,岭南庄8号,西峪1号,西峪8号,北釜山8号,西峪9号,北陈庄2号,白岭1号,西峪5号,北釜山16号【纯农排变】,白岭6号,白岭5号,白岭3号,岭南庄2号,岭南庄1号,北合庄1号,小黑山7号,西峪7号,西峪3号,西峪2号,岭南庄5号,北釜山14号【纯农排变】,北陈庄5号,北陈庄4号,北陈庄3号【纯农排变】,白岭4号,白岭2号,小黑山2号【纯农排变】,西峪4号,西峪10号,岭南庄6号,岭南庄4号,岭南庄3号,北合庄3号,北釜山10号,白岭8号,白岭7号","powerOffReason":"【停电原因】由于Ｂ相接地导致３５ＫＶ黑山变电站水泥厂５１２线路全线停电 【变更送电】因工作进度加快原因，送电时间由１５:００变更为１３:３０ 【发布渠道】通过９５５９８发布","powerOffId":"2020011713000025"},{"poweroffId":2020011713000021,"sgpoweroffId":null,"subsName":"","lineName":"汇通线534","pubTranName":"东盛办事处柳家屯变压器,苏家务01号变压器,东盛高镇新变压器,东盛高镇北变压器,东盛高镇东变压器,东盛柳屯西变压器,东盛柳屯新架,东盛柳屯南变压器,高镇中变,东盛罗家营公变,苏家务02号变压器,高镇新2变,东盛柳屯北变压器,东盛柳屯西地变压器,东盛温屯东地变压器,苏家务03号变压器,苏家务05号变压器,东盛李家营变压器,东盛高镇西变压器,东盛柳屯西北变压器,d李家营东台,苏家务04号变压器,东盛李家营北变压器,东盛温屯南地变压器,东盛龙赵庄地变压器【纯农排变】,","scope":"【影响街道/乡镇】东盛办事处 【高危重要客户】无 【影响客户】李家营村、高镇村、苏家务村、中路安公司、蔬菜种子公司、世纪小学、建设局、殡仪管理所、众营物业、麻家营（部分）","startTime":"2020-01-22 00:00:00","stopDate":"2020-01-22 06:30:00","orgNo":"1340612","typeCode":"临时停电","poweroffArea":"【全线路停电】停杨景坤,蔬菜种子公司,汇通图腾国际物流有限公司2号变压器,河北中格尚木木业有限公司,东盛李家营变压器,高碑店市三义厚再生水建设有限公司2,汇通图腾国际物流有限公司,东盛柳屯北变压器,高碑店市城市管理综合行政执法局#2,汇通图腾国际物流有限公司533,高碑店市建设局变压器,高碑店市三义厚再生水建设有限公司,定兴县宏升建材销售部变压器,0387451512-河北英泰环境工程有限公司-专变-219725347-河北英泰环境工程有限公司534线路变压器,苏家务04号变压器,0387451512-河北英泰环境工程有限公司-专变-219725350-河北英泰环境工程有限公司534线路2号变压器,东盛李家营北变压器,东盛温屯南地变压器,天阔临变南,东盛龙赵庄地变压器【纯农排变】,高碑店市城市管理综合执法局#2,苏家务01号变压器,东盛高镇新变压器,高碑店市城市管理综合执法局#1,柳屯面粉厂,汇通路桥桥梁公司,东盛高镇北变压器,东盛高镇东变压器,0712290629-河北鑫宏源印刷包装有限责任公司04,东盛苏家务地变压器【纯农排变】,赵少强,0711281343-河北鑫宏源印刷包装有限责任公司03,东盛兴发变压器,河北省高碑店市殡葬管理所,高碑店市城市管理综合行政执法局#1,高碑店市华强机械制造有限公司变压器,东盛柳屯西变压器,0387437518-河北雄领炉料制造有限公司-专变-45274571-义青工业辅料厂,东盛柳屯新架,高碑店市佰特商贸有限公司2变压器,东盛柳屯南变压器,高碑店市震源橡胶模具加工厂变压器,高碑店市路灯管理办公室,高碑店市佰特商贸有限公司1变压器,高镇中变,汇通图腾国际物流有限公司1号变压器,河北东奥建筑工程有限公司高碑店分公司,东盛罗家营公变,东盛柳屯排灌变压器【纯农排变】,苏家务02号变压器,高镇新2变,0706418143-高碑店市中玻玻璃有限公司变压器01,东盛柳屯西地变压器,东盛温屯东地变压器,苏家务03号变压器,苏家务05号变压器,东盛高镇西变压器,东盛柳屯西北变压器,东盛办事处柳家屯变压器,河北中路安交通科技有限公司,姬金华,河北鑫宏源印刷包装有限责任公司800,河北鑫宏源印刷包装有限责任公司01,0708293793-河北鑫宏源印刷包装有限责任公司02,d李家营东台","poweroffReason":"【停电原因】由于２号主变５０２开关检修导致１１０ＫＶ马庄变电站１０ＫＶ汇通５３４线路全线停电 【变更送电】因工作进度加快原因，送电时间由０９：００变更为０６：３０ 【发布渠道】通过９５５９８发布","powerTime":"2020-01-22 05:54:41","powerComm":"已送电","subsNo":"","lineNo":"","tgNo":"","tgName":null,"infoStatus":"1","orgName":"国网高碑店市供电公司","typeName":null,"infoStatusName":null,"dateDay":null,"orgNos":null,"nowTime":null,"countyName":null,"streetName":null,"villageName":null,"roadName":null,"communityName":null,"tranName":null,"sdLineName":null,"cityCode":"1340612","cityName":"国网高碑店市供电公司","provinceCode":null,"stopTime":"2020-01-22 06:30:00","powerType":"全部","powerOffArea":"【全线路停电】停杨景坤,蔬菜种子公司,汇通图腾国际物流有限公司2号变压器,河北中格尚木木业有限公司,东盛李家营变压器,高碑店市三义厚再生水建设有限公司2,汇通图腾国际物流有限公司,东盛柳屯北变压器,高碑店市城市管理综合行政执法局#2,汇通图腾国际物流有限公司533,高碑店市建设局变压器,高碑店市三义厚再生水建设有限公司,定兴县宏升建材销售部变压器,0387451512-河北英泰环境工程有限公司-专变-219725347-河北英泰环境工程有限公司534线路变压器,苏家务04号变压器,0387451512-河北英泰环境工程有限公司-专变-219725350-河北英泰环境工程有限公司534线路2号变压器,东盛李家营北变压器,东盛温屯南地变压器,天阔临变南,东盛龙赵庄地变压器【纯农排变】,高碑店市城市管理综合执法局#2,苏家务01号变压器,东盛高镇新变压器,高碑店市城市管理综合执法局#1,柳屯面粉厂,汇通路桥桥梁公司,东盛高镇北变压器,东盛高镇东变压器,0712290629-河北鑫宏源印刷包装有限责任公司04,东盛苏家务地变压器【纯农排变】,赵少强,0711281343-河北鑫宏源印刷包装有限责任公司03,东盛兴发变压器,河北省高碑店市殡葬管理所,高碑店市城市管理综合行政执法局#1,高碑店市华强机械制造有限公司变压器,东盛柳屯西变压器,0387437518-河北雄领炉料制造有限公司-专变-45274571-义青工业辅料厂,东盛柳屯新架,高碑店市佰特商贸有限公司2变压器,东盛柳屯南变压器,高碑店市震源橡胶模具加工厂变压器,高碑店市路灯管理办公室,高碑店市佰特商贸有限公司1变压器,高镇中变,汇通图腾国际物流有限公司1号变压器,河北东奥建筑工程有限公司高碑店分公司,东盛罗家营公变,东盛柳屯排灌变压器【纯农排变】,苏家务02号变压器,高镇新2变,0706418143-高碑店市中玻玻璃有限公司变压器01,东盛柳屯西地变压器,东盛温屯东地变压器,苏家务03号变压器,苏家务05号变压器,东盛高镇西变压器,东盛柳屯西北变压器,东盛办事处柳家屯变压器,河北中路安交通科技有限公司,姬金华,河北鑫宏源印刷包装有限责任公司800,河北鑫宏源印刷包装有限责任公司01,0708293793-河北鑫宏源印刷包装有限责任公司02,d李家营东台","powerOffReason":"【停电原因】由于２号主变５０２开关检修导致１１０ＫＶ马庄变电站１０ＫＶ汇通５３４线路全线停电 【变更送电】因工作进度加快原因，送电时间由０９：００变更为０６：３０ 【发布渠道】通过９５５９８发布","powerOffId":"2020011713000021"},{"poweroffId":2020011713000019,"sgpoweroffId":null,"subsName":"","lineName":"10kV532建行线","pubTranName":"印刷厂公变,建行公变,益民东公变,文明北公变,文明南2号公变,企业局公变,二轻公变,传感器公变,十八局材料厂小区01号公变,文明公寓公变,客户投资_花丝厂公变,电石厂公变,兴华北公变,客户投资_八通市场南公变,益民西公变,十八局材料厂小区02号公变,益民住宅小区,兴华南变压器,兴华南2号变压器,时氏公变,文明南变压器,益民小区公变,","scope":"【影响街道/乡镇】南环路、团结西路、益民路、结文胡同、结祥胡同、结利胡同、向阳路、结乐胡同、文明南路、兴华南路、华茂巷 【高危重要客户】无 【影响客户】实验小学、中国建设银行保定分行、中医医院、企业局家属楼（平房、门脸）、电石厂家属楼、建行、益民小区、南环小区、阳光逸景、十八局材料厂小区、十八局电务处家属楼、八通市场（南部）、中医院家属楼、时氏正骨平房、文明公寓、文明公寓二期、河北新宇传感器厂、花丝厂家属楼、黄金小区、建设银行、传感器家属楼、房产局家属楼、政府十八排平房、河北嘉安物业、润庭园物业、欧华物业、单单幕墙、川石箱包制造有限公司、润兴物业、河北盈隆盛洋房地产、德裕顺印刷住宅小区、河北戌兴实业有限公司、光大公司、华联东、中铁十八局集团有限公司材料厂、四建、建筑企业集团公司第十公司住宅区、佳联工程公司家属楼","startTime":"2020-01-22 00:00:00","stopDate":"2020-01-22 06:30:00","orgNo":"1340612","typeCode":"临时停电","poweroffArea":"【全线路停电】停客户投资_花丝厂公变,泰和小区1,华联东,建筑公司,文明北公变,四建,保定腾盛房地产开发有限公司,十八局材料厂小区01号公变,文明公寓公变,印刷厂公变,泰和小区2,0664640169-高碑店市华冶机械有限公司-专变-201046289-高碑店市华冶机械有限公司变压器,建行公变,高碑店市建筑企业集团公司第十公司bianyaqi,益民东公变,高碑店市益民路实验小学,兴华北公变,益民西公变,十八局材料厂小区02号公变,中医医院,文明南2号公变,电石厂公变,客户投资_八通市场南公变,中国移动通信集团河北有限公司高碑店分公司,益民住宅小区,高碑店市鑫远房地产开发有限公司（文明公寓二期）变压器,兴华南变压器,高碑店市路灯管理办公室100KVA变压器,传感器厂,冀华机械厂,光大公司,隆基泰和实业有限公司（阳光逸景）,兴华南2号变压器,时氏公变,0387449078-隆基泰和实业有限公司(阳光逸景)-专变-47764273-变压器,文明南变压器,建设银行,益民小区公变,二轻公变,传感器公变,隆兴工业公司,白云食品,企业局公变,南环小区","poweroffReason":"【停电原因】由于２号主变５０２开关检修导致１１０ＫＶ马庄变电站１０ＫＶ建行５３２线路全线停电 【变更送电】因工作进度加快原因，送电时间由０９：００变更为０６：３０ 【发布渠道】通过９５５９８发布","powerTime":"2020-01-22 05:49:15","powerComm":"已送电","subsNo":"","lineNo":"","tgNo":"","tgName":null,"infoStatus":"1","orgName":"国网高碑店市供电公司","typeName":null,"infoStatusName":null,"dateDay":null,"orgNos":null,"nowTime":null,"countyName":null,"streetName":null,"villageName":null,"roadName":null,"communityName":null,"tranName":null,"sdLineName":null,"cityCode":"1340612","cityName":"国网高碑店市供电公司","provinceCode":null,"stopTime":"2020-01-22 06:30:00","powerType":"全部","powerOffArea":"【全线路停电】停客户投资_花丝厂公变,泰和小区1,华联东,建筑公司,文明北公变,四建,保定腾盛房地产开发有限公司,十八局材料厂小区01号公变,文明公寓公变,印刷厂公变,泰和小区2,0664640169-高碑店市华冶机械有限公司-专变-201046289-高碑店市华冶机械有限公司变压器,建行公变,高碑店市建筑企业集团公司第十公司bianyaqi,益民东公变,高碑店市益民路实验小学,兴华北公变,益民西公变,十八局材料厂小区02号公变,中医医院,文明南2号公变,电石厂公变,客户投资_八通市场南公变,中国移动通信集团河北有限公司高碑店分公司,益民住宅小区,高碑店市鑫远房地产开发有限公司（文明公寓二期）变压器,兴华南变压器,高碑店市路灯管理办公室100KVA变压器,传感器厂,冀华机械厂,光大公司,隆基泰和实业有限公司（阳光逸景）,兴华南2号变压器,时氏公变,0387449078-隆基泰和实业有限公司(阳光逸景)-专变-47764273-变压器,文明南变压器,建设银行,益民小区公变,二轻公变,传感器公变,隆兴工业公司,白云食品,企业局公变,南环小区","powerOffReason":"【停电原因】由于２号主变５０２开关检修导致１１０ＫＶ马庄变电站１０ＫＶ建行５３２线路全线停电 【变更送电】因工作进度加快原因，送电时间由０９：００变更为０６：３０ 【发布渠道】通过９５５９８发布","powerOffId":"2020011713000019"},{"poweroffId":2020011713000018,"sgpoweroffId":null,"subsName":"","lineName":"尚品530","pubTranName":"保定顺和房地产开发有限公司（西）变压器02,0710603951-高碑店市路灯管理办公室01,河北元和房地产开发有限公司1#变压器,好妈妈商业股份有限公司变压器400,高碑店市昆仑房地产开发有限公司6#变压器,高碑店市昆仑房地产开发有限公司3#变压器,河北元和房地产开发有限公司5#变压器,高碑店市威盾电子设备有限公司,高碑店市昆仑房地产开发有限公司04,河北元和房地产开发有限公司4#变压器,河北鼎誉房地产开发有限公司变压器,河北元和房地产开发有限公司3#变压器,高碑店市东盛办事处高镇中心学校变压器,奥润顺达窗业公司西,河北元和房地产开发有限公司2#变压器,0712249751-河北尚轩房地产开发有限公司02,高碑店市荣悦昌纸制品制造有限公司变压器,高碑店市昆仑房地产开发有限公司2#变压器,高碑店市昆仑房地产开发有限公司1#变压器,高碑店市昆仑房地产开发有限公司4#变压器,高碑店市久筑物业服务有限公司2变压器,植物园,高碑店市昆仑房地产开发有限公司03,保定顺和房地产开发有限公司（西）变压器01,0712249751-河北尚轩房地产开发有限公司03,0721091497-河北尚轩房地产开发有限公司02,高碑店市昆仑房地产开发有限公司02,河北元和房地产开发有限公司6#变压器,高碑店市昆仑房地产开发有限公司01,0712247973-河北尚轩房地产开发有限公司01,娃哈哈增容工程,0691031521-高碑店市普惠健康体检有限公司-专变-234122772-高碑店市普惠健康体检有限公司,高碑店市久筑物业服务有限公司1变压器,0712249751-河北尚轩房地产开发有限公司01,高碑店市城市管理综合执法局世纪大道3号,","scope":"【影响街道/乡镇】东盛办事处 【高危重要客户】无 【影响客户】尚轩房地产、昆仑房地产、润正房地产、人和物业、高镇中心学校、元和房地产","startTime":"2020-01-22 00:00:00","stopDate":"2020-01-22 06:30:00","orgNo":"1340612","typeCode":"临时停电","poweroffArea":"【全线路停电】停高碑店市威盾电子设备有限公司,高碑店市昆仑房地产开发有限公司04,河北元和房地产开发有限公司4#变压器,河北鼎誉房地产开发有限公司变压器,河北元和房地产开发有限公司3#变压器,高碑店市东盛办事处高镇中心学校变压器,奥润顺达窗业公司西,河北元和房地产开发有限公司2#变压器,0712249751-河北尚轩房地产开发有限公司02,保定顺和房地产开发有限公司（西）变压器02,0710603951-高碑店市路灯管理办公室01,河北元和房地产开发有限公司1#变压器,好妈妈商业股份有限公司变压器400,高碑店市昆仑房地产开发有限公司6#变压器,高碑店市昆仑房地产开发有限公司3#变压器,河北元和房地产开发有限公司5#变压器,高碑店市荣悦昌纸制品制造有限公司变压器,高碑店市昆仑房地产开发有限公司2#变压器,高碑店市昆仑房地产开发有限公司4#变压器,保定顺和房地产开发有限公司（西）变压器01,0721091497-河北尚轩房地产开发有限公司02,河北元和房地产开发有限公司6#变压器,0691031521-高碑店市普惠健康体检有限公司-专变-234122772-高碑店市普惠健康体检有限公司,0712249751-河北尚轩房地产开发有限公司01,高碑店市城市管理综合执法局世纪大道3号,高碑店市昆仑房地产开发有限公司1#变压器,高碑店市久筑物业服务有限公司2变压器,植物园,高碑店市昆仑房地产开发有限公司03,0712249751-河北尚轩房地产开发有限公司03,高碑店市昆仑房地产开发有限公司02,高碑店市昆仑房地产开发有限公司01,0712247973-河北尚轩房地产开发有限公司01,娃哈哈增容工程,高碑店市久筑物业服务有限公司1变压器","poweroffReason":"【停电原因】由于２号主变５０２开关检修导致１１０ＫＶ马庄变电站１０ＫＶ尚品５３０线路全线停电 【变更送电】因工作进度加快原因，送电时间由０９：００变更为０６：３０ 【发布渠道】通过９５５９８发布","powerTime":"2020-01-22 05:48:46","powerComm":"已送电","subsNo":"","lineNo":"","tgNo":"","tgName":null,"infoStatus":"1","orgName":"国网高碑店市供电公司","typeName":null,"infoStatusName":null,"dateDay":null,"orgNos":null,"nowTime":null,"countyName":null,"streetName":null,"villageName":null,"roadName":null,"communityName":null,"tranName":null,"sdLineName":null,"cityCode":"1340612","cityName":"国网高碑店市供电公司","provinceCode":null,"stopTime":"2020-01-22 06:30:00","powerType":"全部","powerOffArea":"【全线路停电】停高碑店市威盾电子设备有限公司,高碑店市昆仑房地产开发有限公司04,河北元和房地产开发有限公司4#变压器,河北鼎誉房地产开发有限公司变压器,河北元和房地产开发有限公司3#变压器,高碑店市东盛办事处高镇中心学校变压器,奥润顺达窗业公司西,河北元和房地产开发有限公司2#变压器,0712249751-河北尚轩房地产开发有限公司02,保定顺和房地产开发有限公司（西）变压器02,0710603951-高碑店市路灯管理办公室01,河北元和房地产开发有限公司1#变压器,好妈妈商业股份有限公司变压器400,高碑店市昆仑房地产开发有限公司6#变压器,高碑店市昆仑房地产开发有限公司3#变压器,河北元和房地产开发有限公司5#变压器,高碑店市荣悦昌纸制品制造有限公司变压器,高碑店市昆仑房地产开发有限公司2#变压器,高碑店市昆仑房地产开发有限公司4#变压器,保定顺和房地产开发有限公司（西）变压器01,0721091497-河北尚轩房地产开发有限公司02,河北元和房地产开发有限公司6#变压器,0691031521-高碑店市普惠健康体检有限公司-专变-234122772-高碑店市普惠健康体检有限公司,0712249751-河北尚轩房地产开发有限公司01,高碑店市城市管理综合执法局世纪大道3号,高碑店市昆仑房地产开发有限公司1#变压器,高碑店市久筑物业服务有限公司2变压器,植物园,高碑店市昆仑房地产开发有限公司03,0712249751-河北尚轩房地产开发有限公司03,高碑店市昆仑房地产开发有限公司02,高碑店市昆仑房地产开发有限公司01,0712247973-河北尚轩房地产开发有限公司01,娃哈哈增容工程,高碑店市久筑物业服务有限公司1变压器","powerOffReason":"【停电原因】由于２号主变５０２开关检修导致１１０ＫＶ马庄变电站１０ＫＶ尚品５３０线路全线停电 【变更送电】因工作进度加快原因，送电时间由０９：００变更为０６：３０ 【发布渠道】通过９５５９８发布","powerOffId":"2020011713000018"},{"poweroffId":2020011713000017,"sgpoweroffId":null,"subsName":"","lineName":"世纪528","pubTranName":"顺河庄东1变压器,黄辛庄村,顺河庄10号变压器,建筑九公司变压器1,黄辛庄新1变压器,赵磊（花都）变压器,顺河庄09号变压器,顺河庄07号变压器,顺河庄02号变压器,华汽东变压器,顺河庄08号变压器,环卫所公变,顺河庄12号变压器,黄辛庄北公变,雕刻厂公变,麻家营地,顺河庄05号变压器,","scope":"【影响街道/乡镇】南环路、绿化街、南大街 【高危重要客户】德仁医院、兴华办事处社区卫生服务中心、圣亚泰汽车模具、保定长城汽车有限公司、９１４４６部队、佰格乐器箱包厂 【影响客户】毕加索花园、北京隆兴嘉苑物业、水仙阁、华都、五厂南区、华汽小区、环卫所家属楼、绿化所、路灯所、麻家营（部分）、新春汽校练车场、黄辛庄村、顺河庄村、富泰城、鸿旭物业、雕刻厂平房、十八局西、高彩水泥品厂、洪顶煤炭销售有限公司、苏建新、石油公司、润波旅馆、镇南汽修、保定雅溪农业发展有限公司、新华保险、花溪墅小区","startTime":"2020-01-22 00:00:00","stopDate":"2020-01-22 06:30:00","orgNo":"1340612","typeCode":"临时停电","poweroffArea":"【全线路停电】停高碑店市恒荣房地产开发有限公司,苏建新变压器,汇通路桥4,华汽,汇通路桥建设集团公路工程有限公司变压器,水仙阁,黄辛庄中,黄辛庄北地,顺河庄05号变压器,雕刻厂公变,顺河庄东1变压器,鑫昊印刷有限责任公司,高碑店市路灯管理办公室变压器,黄辛庄村,高碑店市恒荣房地产开发有限公司1,河北嘉德丽景房地产开发有限公司变压器,保定雅溪农业发展有限公司,河北嘉安物业服务有限公司,高碑店市正宇恒基房地产开发有限责任公司变压器,0673908157-高碑店市鸿旭物业服务有限责任公司-专变-215909346-高碑店市鸿旭物业服务有限责任公司变压器,黄辛庄南(油库),麻家营地,高碑店市自来水公司变压器,河北汇佳房地产开发有限公司变压器,顺河庄08号变压器,91292部队变压器,环卫所公变,顺河庄03号变压器,高碑店市蔬菜研究中心变压器,高碑店市南环西路齐珑渔锅饭店,高碑店市正宇恒基房地产开发有限责任公司,高碑店市红顶煤炭销售有限公司变压器,顺河庄12号变压器,河北盈隆盛洋房地产开发有限公司变压器,保定市林生房地产开发有限责任公司（毕加索居民小区）变压器,中铁十八局集团第五工程有限公司,十八局西,黄辛庄新,河北杉浩房地产开发有限公司变压器,高碑店市洪顶煤炭销售有限公司变压器,高碑店市欧华物业服务有限公司,新鑫电镀厂,黄辛庄北公变,镇南水泥彩砖厂,赵磊（花都）变压器,石油公司,高碑店市第四人民医院变压器,顺河庄10号变压器,海山水泥厂,镇南构件厂,顺河庄01号变压器,0387449645汇通路桥变压器200-2,建筑九公司变压器1,高碑店市庭安物业服务有限公司,黄辛庄新1变压器,0671051989-高碑店市佰格乐器箱包厂-专变-212315321-高碑店市佰格乐器箱包厂变压器,顺河庄09号变压器,蔬菜研究中心,赵雷,高碑店市新兴化工有限责任公司,顺河庄07号变压器,高碑店市鑫雨艺术幼儿园,高碑店市路灯管理办公室（南外环路灯）变压器,汇通路桥400KVA2#,汇通路桥400变压器3#,宋明新,交通运政,顺河庄02号变压器,保定长城华北汽车有限责任公司,华汽东变压器,建筑九公司","poweroffReason":"【停电原因】由于２号主变５０２开关检修导致１１０ＫＶ马庄变电站１０ＫＶ世纪５２８线路全线停电 【变更送电】因工作进度加快原因，送电时间由０９：００变更为０６：３０ 【发布渠道】通过９５５９８发布","powerTime":"2020-01-22 05:47:15","powerComm":"已送电","subsNo":"","lineNo":"","tgNo":"","tgName":null,"infoStatus":"1","orgName":"国网高碑店市供电公司","typeName":null,"infoStatusName":null,"dateDay":null,"orgNos":null,"nowTime":null,"countyName":null,"streetName":null,"villageName":null,"roadName":null,"communityName":null,"tranName":null,"sdLineName":null,"cityCode":"1340612","cityName":"国网高碑店市供电公司","provinceCode":null,"stopTime":"2020-01-22 06:30:00","powerType":"全部","powerOffArea":"【全线路停电】停高碑店市恒荣房地产开发有限公司,苏建新变压器,汇通路桥4,华汽,汇通路桥建设集团公路工程有限公司变压器,水仙阁,黄辛庄中,黄辛庄北地,顺河庄05号变压器,雕刻厂公变,顺河庄东1变压器,鑫昊印刷有限责任公司,高碑店市路灯管理办公室变压器,黄辛庄村,高碑店市恒荣房地产开发有限公司1,河北嘉德丽景房地产开发有限公司变压器,保定雅溪农业发展有限公司,河北嘉安物业服务有限公司,高碑店市正宇恒基房地产开发有限责任公司变压器,0673908157-高碑店市鸿旭物业服务有限责任公司-专变-215909346-高碑店市鸿旭物业服务有限责任公司变压器,黄辛庄南(油库),麻家营地,高碑店市自来水公司变压器,河北汇佳房地产开发有限公司变压器,顺河庄08号变压器,91292部队变压器,环卫所公变,顺河庄03号变压器,高碑店市蔬菜研究中心变压器,高碑店市南环西路齐珑渔锅饭店,高碑店市正宇恒基房地产开发有限责任公司,高碑店市红顶煤炭销售有限公司变压器,顺河庄12号变压器,河北盈隆盛洋房地产开发有限公司变压器,保定市林生房地产开发有限责任公司（毕加索居民小区）变压器,中铁十八局集团第五工程有限公司,十八局西,黄辛庄新,河北杉浩房地产开发有限公司变压器,高碑店市洪顶煤炭销售有限公司变压器,高碑店市欧华物业服务有限公司,新鑫电镀厂,黄辛庄北公变,镇南水泥彩砖厂,赵磊（花都）变压器,石油公司,高碑店市第四人民医院变压器,顺河庄10号变压器,海山水泥厂,镇南构件厂,顺河庄01号变压器,0387449645汇通路桥变压器200-2,建筑九公司变压器1,高碑店市庭安物业服务有限公司,黄辛庄新1变压器,0671051989-高碑店市佰格乐器箱包厂-专变-212315321-高碑店市佰格乐器箱包厂变压器,顺河庄09号变压器,蔬菜研究中心,赵雷,高碑店市新兴化工有限责任公司,顺河庄07号变压器,高碑店市鑫雨艺术幼儿园,高碑店市路灯管理办公室（南外环路灯）变压器,汇通路桥400KVA2#,汇通路桥400变压器3#,宋明新,交通运政,顺河庄02号变压器,保定长城华北汽车有限责任公司,华汽东变压器,建筑九公司","powerOffReason":"【停电原因】由于２号主变５０２开关检修导致１１０ＫＶ马庄变电站１０ＫＶ世纪５２８线路全线停电 【变更送电】因工作进度加快原因，送电时间由０９：００变更为０６：３０ 【发布渠道】通过９５５９８发布","powerOffId":"2020011713000017"},{"poweroffId":2020011713000016,"sgpoweroffId":null,"subsName":"","lineName":"李家营524","pubTranName":"东盛城南供电所变压器,温屯北变压器新架,东盛马庄2变,郭屯02变压器,838充电站变压器,东盛马庄变压器,东盛张八屯南变压器,郭屯01变压器,东盛温屯北公变,东盛马庄4变,石家庄2#公变变压器,郭屯04变压器,东盛马庄3变,东盛张八屯变压器,石家庄14号变压器,东盛温屯北变压器,郭屯03变压器,东盛阎王庄南变压器,八方达客运有限公司天桥分公司变压器,东盛马庄5变,东盛张八屯地变压器【纯农排变】,郭屯05变压器,东盛马庄1变,","scope":"【影响街道/乡镇】东盛办事处 【高危重要客户】无 【影响客户】郭屯村、马庄村、华永房地产、欣知语、园林局、鹏达房地产、白象、京石高速收费站、北方风机、豆豆房地产、豆豆食品、闫各庄回迁楼、亿博豪轩小区","startTime":"2020-01-22 00:00:00","stopDate":"2020-01-22 06:30:00","orgNo":"1340612","typeCode":"临时停电","poweroffArea":"【全线路停电】停东盛马庄5变,东盛张八屯地变压器【纯农排变】,郭屯05变压器,郭屯02变压器,838充电站变压器,东盛马庄变压器,东盛张八屯南变压器,东盛城南供电所变压器,东盛温屯北变压器,郭屯01变压器,东盛温屯北公变,石家庄2#公变变压器,郭屯04变压器,东盛马庄3变,东盛张八屯变压器,温屯北变压器新架,东盛马庄2变,郭屯03变压器,东盛阎王庄南变压器,八方达客运有限公司天桥分公司变压器,石家庄14号变压器,东盛马庄1变,东盛马庄4变,永安印铁变压器3,高碑店市路灯管理办公室变压器,永安印铁变压器2,河北鹏达房地产开发有限公司01,河北鹏达房地产开发有限公司变压器,高碑店市电业局变压器,高碑店市城市管理综合执法局112国道2号,河北鹏达房地产开发有限公司03,中国石化销售有限公司河北保定高碑店石油分公司,保定隆和房地产开发有限公司,高碑店市永杰汽车销售公司,温屯窗纱厂,高碑店市欣知语服饰有限公司变压器,河北北方风机制造有限公司,万通加油站,高碑店市万通发展有限责任公司变压器,高碑店市自来水公司变压器,交通局,变压器-020,河北旭坤房地产开发有限公司,河北旭坤房地产开发有限公司2#变压器,变压器-019,河北鹏达房地产开发有限公司02,高碑店市凯龙房地产开发有限公司8#变压器,0585511104-高碑店市路灯管理办公室-专变-125093165-高碑店市路灯管理办公室变压器,杨宝坤,高碑店市凯龙房地产开发有限公司3#变压器,高碑店市平生环保设备制造有限公司,河北旭坤房地产开发有限公司3#变压器,王克录,永安印铁,河北隆泰物业变压器,冀东商业公司,高碑店白象食品有限公司变压器,河北旭坤房地产开发有限公司4#变压器,河北京石高速公路开发有限公司,碑店市凯龙房地产开发有限公司变压器02,河北隆泰物业服务有限责任公司高碑店分公司1#变压器,中国石油保定第105站,高碑店市建筑集团公司变压器,高碑店市天天一泉水厂2,高碑店市康美舒空气净化设备科技有限公司,保定中油石油销售有限公司第二加油站,0609130229-河北高碑店市豆豆食品(集团)有限公司-专变-127561667-河北高碑店市豆豆食品（集团）有限公司变压器,碑店市凯龙房地产开发有限公司变压器01,高碑店市凯龙房地产开发有限公司7#变压器,高碑店市凯龙房地产开发有限公司6#变压器,温屯公变,高碑店市凯龙房地产开发有限公司5#变压器,高碑店市凯龙房地产开发有限公司4#变压器","poweroffReason":"【停电原因】由于２号主变５０２开关检修导致１１０ＫＶ马庄变电站１０ＫＶ李家营５２４线路全线停电 【变更送电】因工作进度加快原因，送电时间由０９：００变更为０６：３０ 【发布渠道】通过９５５９８发布","powerTime":"2020-01-22 05:54:11","powerComm":"已送电","subsNo":"","lineNo":"","tgNo":"","tgName":null,"infoStatus":"1","orgName":"国网高碑店市供电公司","typeName":null,"infoStatusName":null,"dateDay":null,"orgNos":null,"nowTime":null,"countyName":null,"streetName":null,"villageName":null,"roadName":null,"communityName":null,"tranName":null,"sdLineName":null,"cityCode":"1340612","cityName":"国网高碑店市供电公司","provinceCode":null,"stopTime":"2020-01-22 06:30:00","powerType":"全部","powerOffArea":"【全线路停电】停东盛马庄5变,东盛张八屯地变压器【纯农排变】,郭屯05变压器,郭屯02变压器,838充电站变压器,东盛马庄变压器,东盛张八屯南变压器,东盛城南供电所变压器,东盛温屯北变压器,郭屯01变压器,东盛温屯北公变,石家庄2#公变变压器,郭屯04变压器,东盛马庄3变,东盛张八屯变压器,温屯北变压器新架,东盛马庄2变,郭屯03变压器,东盛阎王庄南变压器,八方达客运有限公司天桥分公司变压器,石家庄14号变压器,东盛马庄1变,东盛马庄4变,永安印铁变压器3,高碑店市路灯管理办公室变压器,永安印铁变压器2,河北鹏达房地产开发有限公司01,河北鹏达房地产开发有限公司变压器,高碑店市电业局变压器,高碑店市城市管理综合执法局112国道2号,河北鹏达房地产开发有限公司03,中国石化销售有限公司河北保定高碑店石油分公司,保定隆和房地产开发有限公司,高碑店市永杰汽车销售公司,温屯窗纱厂,高碑店市欣知语服饰有限公司变压器,河北北方风机制造有限公司,万通加油站,高碑店市万通发展有限责任公司变压器,高碑店市自来水公司变压器,交通局,变压器-020,河北旭坤房地产开发有限公司,河北旭坤房地产开发有限公司2#变压器,变压器-019,河北鹏达房地产开发有限公司02,高碑店市凯龙房地产开发有限公司8#变压器,0585511104-高碑店市路灯管理办公室-专变-125093165-高碑店市路灯管理办公室变压器,杨宝坤,高碑店市凯龙房地产开发有限公司3#变压器,高碑店市平生环保设备制造有限公司,河北旭坤房地产开发有限公司3#变压器,王克录,永安印铁,河北隆泰物业变压器,冀东商业公司,高碑店白象食品有限公司变压器,河北旭坤房地产开发有限公司4#变压器,河北京石高速公路开发有限公司,碑店市凯龙房地产开发有限公司变压器02,河北隆泰物业服务有限责任公司高碑店分公司1#变压器,中国石油保定第105站,高碑店市建筑集团公司变压器,高碑店市天天一泉水厂2,高碑店市康美舒空气净化设备科技有限公司,保定中油石油销售有限公司第二加油站,0609130229-河北高碑店市豆豆食品(集团)有限公司-专变-127561667-河北高碑店市豆豆食品（集团）有限公司变压器,碑店市凯龙房地产开发有限公司变压器01,高碑店市凯龙房地产开发有限公司7#变压器,高碑店市凯龙房地产开发有限公司6#变压器,温屯公变,高碑店市凯龙房地产开发有限公司5#变压器,高碑店市凯龙房地产开发有限公司4#变压器","powerOffReason":"【停电原因】由于２号主变５０２开关检修导致１１０ＫＶ马庄变电站１０ＫＶ李家营５２４线路全线停电 【变更送电】因工作进度加快原因，送电时间由０９：００变更为０６：３０ 【发布渠道】通过９５５９８发布","powerOffId":"2020011713000016"},{"poweroffId":2020011713000015,"sgpoweroffId":null,"subsName":"","lineName":"悦百汇522","pubTranName":"东盛麻家营5变压器,东盛国土资源局变压器,东盛2号公变变压器,东盛麻家营北变压器,东盛麻家营3变压器,东盛麻家营新变压器,东盛麻家营南变压器,","scope":"【影响街道/乡镇】东盛办事处、世纪大街、五一路 【高危重要客户】无 【影响客户】麻家营村、国土资源局、国土资源局小区、紫金园小区、保定银行、隆基泰和置业、悦百汇、天阔小区一、二期","startTime":"2020-01-22 00:00:00","stopDate":"2020-01-22 06:30:00","orgNo":"1340612","typeCode":"临时停电","poweroffArea":"【全线路停电】停东盛麻家营新变压器,高碑店市佰特商贸有限公司1#变压器,高碑店市佰特商贸有限公司6#变压器,河北隆泰物业服务有限公司变压器,高碑店市佰特商贸有限公司4#变压器,天阔第一城,东盛麻家营5变压器,高碑店市明盛达建筑有限公司,高碑店市佰特商贸有限公司3#变压器,东盛国土资源局变压器,东盛2号公变变压器,高碑店市佰特商贸有限公司变压器,河北隆泰物业服务有限责任公司变压器,高碑店市麻家营勤劳外婆快餐店,东盛麻家营南变压器,高碑店市城市管理综合执法局世纪大道1号,高碑店市铁岩钢板桩有限公司,东盛麻家营北变压器,高碑店市佰特商贸有限公司5#变压器,高碑店市佰特商贸有限公司2#变压器,东盛麻家营3变压器","poweroffReason":"【停电原因】由于２号主变５０２开关检修导致１１０ＫＶ马庄变电站１０ＫＶ悦百汇５２２线路全线停电 【变更送电】因工作进度加快原因，送电时间由０９：００变更为０６：３０ 【发布渠道】通过９５５９８发布","powerTime":"2020-01-22 06:01:22","powerComm":"已送电","subsNo":"","lineNo":"","tgNo":"","tgName":null,"infoStatus":"1","orgName":"国网高碑店市供电公司","typeName":null,"infoStatusName":null,"dateDay":null,"orgNos":null,"nowTime":null,"countyName":null,"streetName":null,"villageName":null,"roadName":null,"communityName":null,"tranName":null,"sdLineName":null,"cityCode":"1340612","cityName":"国网高碑店市供电公司","provinceCode":null,"stopTime":"2020-01-22 06:30:00","powerType":"全部","powerOffArea":"【全线路停电】停东盛麻家营新变压器,高碑店市佰特商贸有限公司1#变压器,高碑店市佰特商贸有限公司6#变压器,河北隆泰物业服务有限公司变压器,高碑店市佰特商贸有限公司4#变压器,天阔第一城,东盛麻家营5变压器,高碑店市明盛达建筑有限公司,高碑店市佰特商贸有限公司3#变压器,东盛国土资源局变压器,东盛2号公变变压器,高碑店市佰特商贸有限公司变压器,河北隆泰物业服务有限责任公司变压器,高碑店市麻家营勤劳外婆快餐店,东盛麻家营南变压器,高碑店市城市管理综合执法局世纪大道1号,高碑店市铁岩钢板桩有限公司,东盛麻家营北变压器,高碑店市佰特商贸有限公司5#变压器,高碑店市佰特商贸有限公司2#变压器,东盛麻家营3变压器","powerOffReason":"【停电原因】由于２号主变５０２开关检修导致１１０ＫＶ马庄变电站１０ＫＶ悦百汇５２２线路全线停电 【变更送电】因工作进度加快原因，送电时间由０９：００变更为０６：３０ 【发布渠道】通过９５５９８发布","powerOffId":"2020011713000015"}],"pageModel":{"pageNow":307,"totalCount":10973,"totalPage":1098,"tableRows":0,"pageCount":10,"beginCount":3060},"isExperi":"1"}