{"message":"","today":"2020-06-15","seleList":[{"poweroffId":2020010913000113,"sgpoweroffId":null,"subsName":"","lineName":"韩村线513","pubTranName":"新佟高庄光5,韩村光3,韩村光4,新佟高庄村光8,北田光7,韩村光1,新章村排5【纯农排变】,新大佟村光3【2019年预安排】,榆林光3,榆林光8【2018年秋冬季重过载】,新佟高庄村光9,南召光4,大佟村光7【2018年四批补强】,韩村光5,新北田光6【2019年预安排】,新榆林光2,新韩村光2,皂马光1【2018年技改】,大佟村光2,皂马光6,新佟高庄光4,尤旺光4,杨村排3【纯农排变】,皂马大棚排1【纯农排变】,新大佟村光2【2018年重过载】,曹村光8,佟北庄光3,佟高庄大棚排1【纯农排变】,曹村光5【2018年节能变】,曹村光4,新佟高庄光2,皂马排4【纯农排变】,新佟高庄光1,杨村排6【纯农排变】,新佟高庄光7,曹村光3,新北田光3【2019年预安排】,南召光2,榆林光4,大佟村光4,新榆林光1,佟北庄光1,新王官排2【纯农排变】,章村光6,新佟高庄光3,南召光5,韩村光6,韩村光7,新大佟村光1【2018年秋冬季重过载】,新北田光1,南召光3,尤旺光3【2018年节能变】,王官光4,皂马光3,新佟高庄光6,曹村光5,王官光1,大佟村光6,新尤旺光5【2019年预安排】,韩村光9,北田混7,尤旺光1【2018年重过载】,佟高庄光10,杨村排4【纯农排变】,韩村排1【纯农排变】,尤旺光2【2018年四批补强】,新王官排3【纯农排变】,尤旺光3,曹村光4【2018年四批补强】,韩村光8,农排鸡厂【纯农排变】,","scope":"【影响街道/乡镇】北田乡 【高危重要客户】无 【影响客户】东韩村、章村、曹村、榆林、北田、南召、大佟村、佟北庄、尤旺、佟高庄、王官、皂马","startTime":"2020-01-09 21:02:37","stopDate":"2020-01-09 23:00:00","orgNo":"1340609","typeCode":"电网故障停限电","poweroffArea":"【全线路停电】停新北田光3【2019年预安排】,曹村光1,新佟高庄光1,曹村排3【纯农排变】,章村光2,大佟村排2【纯农排变】,杨村排6【纯农排变】,皂马光1,榆林混1,新佟高庄光7,曹村光3,会军建材城,新榆林光1,榆林排5【纯农排变】,南召光3,曹村排7【纯农排变】,尤旺排5【纯农排变】,章村光4,尤旺光3【2018年节能变】,大佟村排4【纯农排变】,韩村排2【纯农排变】,曹村排8【纯农排变】,尤旺排6【纯农排变】,王官光4,0694616378-定兴县北田乡章村小学-专变-237547951-章村小学,皂马光3,新佟高庄光6,曹村光5,章村农排7【纯农排变】,韩村排5【纯农排变】,王官光1,大佟村光6,新尤旺光5【2019年预安排】,尤旺排2【纯农排变】,曹村排6【纯农排变】,王官排4 1【纯农排变】,曹村光2,韩村光9,北田混7,尤旺光1【2018年重过载】,佟高庄光10,韩村排3【纯农排变】,榆林排4【纯农排变】,杨村排4【纯农排变】,尤旺排1【纯农排变】,韩村排1【纯农排变】,大佟村排5【纯农排变】,尤旺光2【2018年四批补强】,新王官排3【纯农排变】,南召排2【纯农排变】,王官光3,尤旺光3,北田排3【纯农排变】,曹村光4【2018年四批补强】,佟北庄排3【纯农排变】,韩村光8,皂马排1【纯农排变】,北田光5,曹村面,榆林排2【纯农排变】,0469291487-*北田小学-专变-46771861-*北田小学,北田排2【纯农排变】,大佟村排1【纯农排变】,佟高庄排7|09105132075【纯农排变】,新北田光6【2019年预安排】,北田排5【纯农排变】,新榆林光2,新韩村光2,佟北庄光2,王官光2,南召光2,韩村排4【纯农排变】,榆林光4,大佟村光4,章村排1【纯农排变】,章村农排3【纯农排变】,新大佟村光2【2018年重过载】,皂马混2,杨村排2【纯农排变】,大佟村光5,章村排2【纯农排变】,榆林光6,榆林光7,佟北庄光1,皂马光5,北田排4【纯农排变】,新王官排2【纯农排变】,章村光6,新佟高庄光3,杨保安,榆林排3【纯农排变】,农排鸡厂【纯农排变】,章村农排5【纯农排变】,新佟高庄光5,佟北庄排1【纯农排变】,尤旺排4【纯农排变】,韩村光3,曹村排4【纯农排变】,章村农排6【纯农排变】,韩村光4,新佟高庄村光8,北田光7,新北田光2【2018年一批应急】,韩村光1,韩村村排6【纯农排变】,佟高庄排3【纯农排变】,新章村排5【纯农排变】,章村光3,尤旺光2,榆林小学,新大佟村光3【2019年预安排】,100,佟高庄排2【纯农排变】,南召河防,佟北庄排2【纯农排变】,榆林光3,曹村排2【纯农排变】,0694658277-定兴县北田中学-专变-237548824-北田中学2号便,曹村光6,榆林光8【2018年秋冬季重过载】,0694658277-定兴县北田中学-专变-237550411-北田中学1号便,新佟高庄村光9,北田农贸公用,北田排1【纯农排变】,南召光4,大佟村光7【2018年四批补强】,榆林光5,王官光5,佟高庄排6【纯农排变】,韩村光5,北田排6【纯农排变】,皂马排3【纯农排变】,韩村光6,韩村光7,大佟村中心小学,章村光1【2018年重过载】,新大佟村光1【2018年秋冬季重过载】,皂马光1【2018年技改】,北田光4,杨村排11【纯农排变】,新皂马光2,250KVA,大佟村光2,曹村排1【纯农排变】,南召排1【纯农排变】,皂马光6,新佟高庄光4,曹村排5【纯农排变】,曹村光7,尤旺光4,新北田光1,杨村排3【纯农排变】,皂马大棚排1【纯农排变】,南召光1,佟高庄排4【纯农排变】,北田学习-400,皂马排4【纯农排变】,北田乡春蕾小学,章村农排4【纯农排变】,南召光5,曹村光8,佟北庄光3,佟高庄大棚排1【纯农排变】,佟高庄排1【纯农排变】,王官光6,尤旺光6,曹村光5【2018年节能变】,佟高庄排5【纯农排变】,曹村光4,0696770270-定兴县北田小学-专变-240818269","poweroffReason":"【停电原因】由于皂马大分支土地开发农排变压器电缆烧毁导致３５ＫＶ大留村变电站韩村线５１３线路全线停电 【变更送电】无 【发布渠道】通过９５５９８发布","powerTime":"2020-01-09 22:07:24","powerComm":"已送电","subsNo":"","lineNo":"","tgNo":"","tgName":null,"infoStatus":"1","orgName":"国网定兴县供电公司","typeName":null,"infoStatusName":null,"dateDay":null,"orgNos":null,"nowTime":null,"countyName":null,"streetName":null,"villageName":null,"roadName":null,"communityName":null,"tranName":null,"sdLineName":null,"cityCode":"1340609","cityName":"国网定兴县供电公司","provinceCode":null,"stopTime":"2020-01-09 23:00:00","powerType":"全部","powerOffArea":"【全线路停电】停新北田光3【2019年预安排】,曹村光1,新佟高庄光1,曹村排3【纯农排变】,章村光2,大佟村排2【纯农排变】,杨村排6【纯农排变】,皂马光1,榆林混1,新佟高庄光7,曹村光3,会军建材城,新榆林光1,榆林排5【纯农排变】,南召光3,曹村排7【纯农排变】,尤旺排5【纯农排变】,章村光4,尤旺光3【2018年节能变】,大佟村排4【纯农排变】,韩村排2【纯农排变】,曹村排8【纯农排变】,尤旺排6【纯农排变】,王官光4,0694616378-定兴县北田乡章村小学-专变-237547951-章村小学,皂马光3,新佟高庄光6,曹村光5,章村农排7【纯农排变】,韩村排5【纯农排变】,王官光1,大佟村光6,新尤旺光5【2019年预安排】,尤旺排2【纯农排变】,曹村排6【纯农排变】,王官排4 1【纯农排变】,曹村光2,韩村光9,北田混7,尤旺光1【2018年重过载】,佟高庄光10,韩村排3【纯农排变】,榆林排4【纯农排变】,杨村排4【纯农排变】,尤旺排1【纯农排变】,韩村排1【纯农排变】,大佟村排5【纯农排变】,尤旺光2【2018年四批补强】,新王官排3【纯农排变】,南召排2【纯农排变】,王官光3,尤旺光3,北田排3【纯农排变】,曹村光4【2018年四批补强】,佟北庄排3【纯农排变】,韩村光8,皂马排1【纯农排变】,北田光5,曹村面,榆林排2【纯农排变】,0469291487-*北田小学-专变-46771861-*北田小学,北田排2【纯农排变】,大佟村排1【纯农排变】,佟高庄排7|09105132075【纯农排变】,新北田光6【2019年预安排】,北田排5【纯农排变】,新榆林光2,新韩村光2,佟北庄光2,王官光2,南召光2,韩村排4【纯农排变】,榆林光4,大佟村光4,章村排1【纯农排变】,章村农排3【纯农排变】,新大佟村光2【2018年重过载】,皂马混2,杨村排2【纯农排变】,大佟村光5,章村排2【纯农排变】,榆林光6,榆林光7,佟北庄光1,皂马光5,北田排4【纯农排变】,新王官排2【纯农排变】,章村光6,新佟高庄光3,杨保安,榆林排3【纯农排变】,农排鸡厂【纯农排变】,章村农排5【纯农排变】,新佟高庄光5,佟北庄排1【纯农排变】,尤旺排4【纯农排变】,韩村光3,曹村排4【纯农排变】,章村农排6【纯农排变】,韩村光4,新佟高庄村光8,北田光7,新北田光2【2018年一批应急】,韩村光1,韩村村排6【纯农排变】,佟高庄排3【纯农排变】,新章村排5【纯农排变】,章村光3,尤旺光2,榆林小学,新大佟村光3【2019年预安排】,100,佟高庄排2【纯农排变】,南召河防,佟北庄排2【纯农排变】,榆林光3,曹村排2【纯农排变】,0694658277-定兴县北田中学-专变-237548824-北田中学2号便,曹村光6,榆林光8【2018年秋冬季重过载】,0694658277-定兴县北田中学-专变-237550411-北田中学1号便,新佟高庄村光9,北田农贸公用,北田排1【纯农排变】,南召光4,大佟村光7【2018年四批补强】,榆林光5,王官光5,佟高庄排6【纯农排变】,韩村光5,北田排6【纯农排变】,皂马排3【纯农排变】,韩村光6,韩村光7,大佟村中心小学,章村光1【2018年重过载】,新大佟村光1【2018年秋冬季重过载】,皂马光1【2018年技改】,北田光4,杨村排11【纯农排变】,新皂马光2,250KVA,大佟村光2,曹村排1【纯农排变】,南召排1【纯农排变】,皂马光6,新佟高庄光4,曹村排5【纯农排变】,曹村光7,尤旺光4,新北田光1,杨村排3【纯农排变】,皂马大棚排1【纯农排变】,南召光1,佟高庄排4【纯农排变】,北田学习-400,皂马排4【纯农排变】,北田乡春蕾小学,章村农排4【纯农排变】,南召光5,曹村光8,佟北庄光3,佟高庄大棚排1【纯农排变】,佟高庄排1【纯农排变】,王官光6,尤旺光6,曹村光5【2018年节能变】,佟高庄排5【纯农排变】,曹村光4,0696770270-定兴县北田小学-专变-240818269","powerOffReason":"【停电原因】由于皂马大分支土地开发农排变压器电缆烧毁导致３５ＫＶ大留村变电站韩村线５１３线路全线停电 【变更送电】无 【发布渠道】通过９５５９８发布","powerOffId":"2020010913000113"},{"poweroffId":2020010913000109,"sgpoweroffId":null,"subsName":"","lineName":"10kV584白土线","pubTranName":"焦化厂公用照明4台区,庞白土公用照明1台区,郝白土公用照明2台区,","scope":"【影响街道/乡镇】西城区、赵村镇【高危重要客户】无【影响客户】庞白土、芦庄子、郝白土、辛庄子、焦化社区、０２０仓库家属院、怡园小区、畜产家属院、庞白土新民居、景秀花园小区、朝晖房地产、岸芷汀兰小区、胜蓝国际小区、东明家具广场、铭阳商厦、庞白土生态园","startTime":"2020-01-09 20:10:40","stopDate":"2020-01-10 06:00:00","orgNo":"1340610","typeCode":"电网故障停限电","poweroffArea":"【分支停电】停焦化厂公用照明4台区,庞白土公用照明1台区,郝白土公用照明2台区","poweroffReason":"【停电原因】由于侯勇配变烧毁导致１１０ＫＶ焦化厂变电站１０ＫＶ５８４白土线路主干１３号杆１５号隔离开关以下线路停电 【变更送电】因抢修进度加快原因，送电时间由０８：００变更为０６：００ 【发布渠道】９５５９８","powerTime":"2020-01-10 05:40:25","powerComm":"已送电","subsNo":"","lineNo":"","tgNo":"","tgName":null,"infoStatus":"1","orgName":"国网定州市供电公司","typeName":null,"infoStatusName":null,"dateDay":null,"orgNos":null,"nowTime":null,"countyName":null,"streetName":null,"villageName":null,"roadName":null,"communityName":null,"tranName":null,"sdLineName":null,"cityCode":"1340610","cityName":"国网定州市供电公司","provinceCode":null,"stopTime":"2020-01-10 06:00:00","powerType":"全部","powerOffArea":"【分支停电】停焦化厂公用照明4台区,庞白土公用照明1台区,郝白土公用照明2台区","powerOffReason":"【停电原因】由于侯勇配变烧毁导致１１０ＫＶ焦化厂变电站１０ＫＶ５８４白土线路主干１３号杆１５号隔离开关以下线路停电 【变更送电】因抢修进度加快原因，送电时间由０８：００变更为０６：００ 【发布渠道】９５５９８","powerOffId":"2020010913000109"},{"poweroffId":2020010913000106,"sgpoweroffId":null,"subsName":"","lineName":"备用568","pubTranName":"王金强,肖连扣3,高碑店市信德百利革业有限公司变压器,江雪丰,王学会,0712556622-许庄安置区1变压器02,赵国永,0712556622-许庄安置区1变压器01,吴斌,0387443618-肖连扣-专变-45279465-肖连扣,赵小田,马青宾,","scope":"【影响街道/乡镇】白沟镇、友谊路、北外环 【高危重要客户】无 【影响客户】旺百伦物业、信德百利革业有限公司、保定浙圣箱包制造有限公司、白沟佳山皮具、许庄村、许庄安置小区、柳树屯饭庄、恒昌拉链有限公司、中国铁塔股份有限公司、肖连扣、赵小田、马青宾、王学会、王金强、高碑店市永生塑胶有限公司、赵国永、亨兴帽业服饰有限责任公司、吴斌、江雪丰、豪园小区","startTime":"2020-01-10 05:30:00","stopDate":"2020-01-10 08:00:00","orgNo":"1340612","typeCode":"其他临时停电","poweroffArea":"【分支停电】停王金强,肖连扣3,高碑店市信德百利革业有限公司变压器,江雪丰,王学会,0712556622-许庄安置区1变压器02,赵国永,0712556622-许庄安置区1变压器01,吴斌,0387443618-肖连扣-专变-45279465-肖连扣,赵小田,马青宾","poweroffReason":"【停电原因】由于刀闸打火需紧急处理导致１１０ＫＶ南留变电站１０ＫＶ备用５６８线路０２号断路器以下停电 【变更送电】无 【发布渠道】通过９５５９８发布","powerTime":"2020-01-10 07:23:24","powerComm":"已送电","subsNo":"","lineNo":"","tgNo":"","tgName":null,"infoStatus":"1","orgName":"国网高碑店市供电公司","typeName":null,"infoStatusName":null,"dateDay":null,"orgNos":null,"nowTime":null,"countyName":null,"streetName":null,"villageName":null,"roadName":null,"communityName":null,"tranName":null,"sdLineName":null,"cityCode":"1340612","cityName":"国网高碑店市供电公司","provinceCode":null,"stopTime":"2020-01-10 08:00:00","powerType":"全部","powerOffArea":"【分支停电】停王金强,肖连扣3,高碑店市信德百利革业有限公司变压器,江雪丰,王学会,0712556622-许庄安置区1变压器02,赵国永,0712556622-许庄安置区1变压器01,吴斌,0387443618-肖连扣-专变-45279465-肖连扣,赵小田,马青宾","powerOffReason":"【停电原因】由于刀闸打火需紧急处理导致１１０ＫＶ南留变电站１０ＫＶ备用５６８线路０２号断路器以下停电 【变更送电】无 【发布渠道】通过９５５９８发布","powerOffId":"2020010913000106"},{"poweroffId":2020010913000070,"sgpoweroffId":null,"subsName":"","lineName":"10kV514胡房线","pubTranName":"胡房公用照明7台区,白家庄村公用照明1台区,胡房村公用照明2台区,小胡房公用照明1台区,胡房村公用照明3台区,白家庄公用照明8台区,跑里庄公用照明3台区,白家庄村公用照明2台区,白家庄村公用照明3台区,跑里庄公用照明2台区,白家庄公用照明4台区,义合庄村公用照明1台区,白家庄公用照明5台区,西南合村小西南合公用照明1台区,白家庄村公用照明7台区,胡房公用照明6台区,南合庄村公用照明1台区,白家庄公用照明6台区,胡房公用照明9台区,南合庄村公用照明2台区,","scope":"【影响街道/乡镇】留早镇【高危重要客户】无【影响客户】义合庄村、白家庄村、胡房村、跑里庄、南合庄、小胡房、小西南合","startTime":"2020-01-10 10:00:00","stopDate":"2020-01-10 16:00:00","orgNo":"1340610","typeCode":"其他临时停电","poweroffArea":"【全线路停电】停胡房公用照明7台区,白家庄村公用照明3台区,跑里庄公用照明2台区,白家庄公用照明4台区,义合庄村公用照明1台区,白家庄公用照明5台区,西南合村小西南合公用照明1台区,白家庄村公用照明7台区,胡房公用照明6台区,南合庄村公用照明1台区,白家庄公用照明6台区,胡房公用照明9台区,南合庄村公用照明2台区,白家庄村公用照明1台区,胡房村公用照明2台区,小胡房公用照明1台区,胡房村公用照明3台区,白家庄公用照明8台区,跑里庄公用照明3台区,白家庄村公用照明2台区","poweroffReason":"【停电原因】由于弓子线打火需停电进行紧急检修导致３５ＫＶ留早变电站１０ＫＶ５１４胡房线路全线停电 【变更送电】因抢修进度加快原因，送电时间由１７：００变更为１６：００ 【发布渠道】９５５９８","powerTime":"2020-01-10 15:24:12","powerComm":"已送电","subsNo":"","lineNo":"","tgNo":"","tgName":null,"infoStatus":"1","orgName":"国网定州市供电公司","typeName":null,"infoStatusName":null,"dateDay":null,"orgNos":null,"nowTime":null,"countyName":null,"streetName":null,"villageName":null,"roadName":null,"communityName":null,"tranName":null,"sdLineName":null,"cityCode":"1340610","cityName":"国网定州市供电公司","provinceCode":null,"stopTime":"2020-01-10 16:00:00","powerType":"全部","powerOffArea":"【全线路停电】停胡房公用照明7台区,白家庄村公用照明3台区,跑里庄公用照明2台区,白家庄公用照明4台区,义合庄村公用照明1台区,白家庄公用照明5台区,西南合村小西南合公用照明1台区,白家庄村公用照明7台区,胡房公用照明6台区,南合庄村公用照明1台区,白家庄公用照明6台区,胡房公用照明9台区,南合庄村公用照明2台区,白家庄村公用照明1台区,胡房村公用照明2台区,小胡房公用照明1台区,胡房村公用照明3台区,白家庄公用照明8台区,跑里庄公用照明3台区,白家庄村公用照明2台区","powerOffReason":"【停电原因】由于弓子线打火需停电进行紧急检修导致３５ＫＶ留早变电站１０ＫＶ５１４胡房线路全线停电 【变更送电】因抢修进度加快原因，送电时间由１７：００变更为１６：００ 【发布渠道】９５５９８","powerOffId":"2020010913000070"},{"poweroffId":2020010913000067,"sgpoweroffId":null,"subsName":"","lineName":"10kV513高就线","pubTranName":"留早中心街公用照明2台区,南街公用照明4台区,中心街公用照明6台区,高就村公用照明4台区,高就村公用照明1台区,留早南街公用照明2台区,高就公用照明11台区,留早西街公用照明1台区,留早南街公用照明1台区,李家庄村公用照明1台区,高就公用照明6台区,甄家庄村公用照明1台区,留早西街公用照明2台区,高就公用照明13台区,高就公用照明10台区,高就公用照明9台区,高就村公用照明2台区,西街公用照明3台区,小齐堡公用照明2台区,甄家庄公用照明2台区,齐堡村小齐堡公用照明1台区,高就公用照明8台区,高就公用照明12台区,李家庄公用照明2台区,高就公用照明5台区,高就村公用照明3台区,留早中心街公用照明3台区,高就公用照明7台区,","scope":"【影响街道/乡镇】留早镇【高危重要客户】无【影响客户】小齐堡村、大兴庄村、留早南街、李家庄村、甄家庄、高就村、留早中心街村、留早西街村、白家庄","startTime":"2020-01-10 10:00:00","stopDate":"2020-01-10 16:00:00","orgNo":"1340610","typeCode":"其他临时停电","poweroffArea":"【全线路停电】停留早中心街公用照明2台区,中心街公用照明6台区,高就村公用照明4台区,高就村公用照明1台区,留早南街公用照明2台区,高就公用照明11台区,留早西街公用照明1台区,留早南街公用照明1台区,李家庄村公用照明1台区,高就公用照明6台区,甄家庄村公用照明1台区,留早西街公用照明2台区,高就公用照明13台区,高就公用照明10台区,高就公用照明9台区,高就村公用照明2台区,西街公用照明3台区,小齐堡公用照明2台区,甄家庄公用照明2台区,齐堡村小齐堡公用照明1台区,高就公用照明8台区,高就公用照明12台区,李家庄公用照明2台区,高就公用照明5台区,高就村公用照明3台区,留早中心街公用照明3台区,南街公用照明4台区,高就公用照明7台区,高就公用照明15台区,留早西街公用照明5台区","poweroffReason":"【停电原因】由于弓子线打火需停电进行紧急检修导致３５ＫＶ留早变电站１０ＫＶ５１３高就线路全线停电 【变更送电】因抢修进度加快原因，送电时间由１７：００变更为１６：００ 【发布渠道】９５５９８","powerTime":"2020-01-10 15:24:44","powerComm":"已送电","subsNo":"","lineNo":"","tgNo":"","tgName":null,"infoStatus":"1","orgName":"国网定州市供电公司","typeName":null,"infoStatusName":null,"dateDay":null,"orgNos":null,"nowTime":null,"countyName":null,"streetName":null,"villageName":null,"roadName":null,"communityName":null,"tranName":null,"sdLineName":null,"cityCode":"1340610","cityName":"国网定州市供电公司","provinceCode":null,"stopTime":"2020-01-10 16:00:00","powerType":"全部","powerOffArea":"【全线路停电】停留早中心街公用照明2台区,中心街公用照明6台区,高就村公用照明4台区,高就村公用照明1台区,留早南街公用照明2台区,高就公用照明11台区,留早西街公用照明1台区,留早南街公用照明1台区,李家庄村公用照明1台区,高就公用照明6台区,甄家庄村公用照明1台区,留早西街公用照明2台区,高就公用照明13台区,高就公用照明10台区,高就公用照明9台区,高就村公用照明2台区,西街公用照明3台区,小齐堡公用照明2台区,甄家庄公用照明2台区,齐堡村小齐堡公用照明1台区,高就公用照明8台区,高就公用照明12台区,李家庄公用照明2台区,高就公用照明5台区,高就村公用照明3台区,留早中心街公用照明3台区,南街公用照明4台区,高就公用照明7台区,高就公用照明15台区,留早西街公用照明5台区","powerOffReason":"【停电原因】由于弓子线打火需停电进行紧急检修导致３５ＫＶ留早变电站１０ＫＶ５１３高就线路全线停电 【变更送电】因抢修进度加快原因，送电时间由１７：００变更为１６：００ 【发布渠道】９５５９８","powerOffId":"2020010913000067"},{"poweroffId":2020010913000065,"sgpoweroffId":null,"subsName":"","lineName":"10kV512来合庄线","pubTranName":"周家庄公用照明2台区,周家庄公用照明3台区,留早北街公用照明1台区,留早北街公用照明2台区,中心街村公用照明1台区,东街公用照明4台区,留早中心街公用照明4台区,来合庄村公用照明2台区,来合庄公用照明3台区,北高就村公用照明1台区,北街公用照明4台区,中心街公用照明7台区,周家庄村公用照明1台区,中心街公用照明5台区,大兴庄公用照明3台区,大兴庄村公用照明2台区,东街村公用照明1台区,大兴庄村公用照明1台区,留早东街公用照明2台区,高就公用照明14台区,来合庄村公用照明1台区,四合庄公用照明2台区新建工程,留早北街公用照明3台区,东街公用照明5台区,来合庄公用照明4台区,大兴庄公用照明4台区,北高就公用照明2台区,留早四合庄村公用照明1台区,留早东街公用照明3台区,小留早公用照明1台区,北高就公用照明3台区,","scope":"【影响街道/乡镇】留早镇【高危重要客户】无【影响客户】周家庄、北高就、四合庄、来合庄、大兴庄、留早北街、留早东街村、留早中心街村、小留早、高就","startTime":"2020-01-10 10:00:00","stopDate":"2020-01-10 16:00:00","orgNo":"1340610","typeCode":"其他临时停电","poweroffArea":"【全线路停电】停来合庄公用照明5台区,大兴庄村公用照明2台区,周家庄公用照明3台区,周家庄公用照明2台区,留早北街公用照明1台区,留早北街公用照明2台区,中心街村公用照明1台区,东街公用照明4台区,留早中心街公用照明4台区,来合庄村公用照明2台区,高就公用照明16台区,来合庄公用照明3台区,北高就村公用照明1台区,北街公用照明4台区,大兴庄公用照明4台区,中心街公用照明5台区,大兴庄公用照明3台区,四合庄公用照明2台区新建工程,东街村公用照明1台区,大兴庄村公用照明1台区,留早东街公用照明2台区,高就公用照明14台区,东街公用照明6台区,中心街公用照明7台区,周家庄村公用照明1台区,来合庄村公用照明1台区,留早北街公用照明3台区,东街公用照明5台区,来合庄公用照明4台区,北高就公用照明2台区,留早四合庄村公用照明1台区,留早东街公用照明3台区,小留早公用照明1台区,北高就公用照明3台区","poweroffReason":"【停电原因】由于电杆倾斜需停电进行紧急检修导致３５ＫＶ留早变电站１０ＫＶ５１２来合庄线路全线停电 【变更送电】因抢修进度加快原因，送电时间由１７：００变更为１６：００ 【发布渠道】９５５９８","powerTime":"2020-01-10 15:26:14","powerComm":"已送电","subsNo":"","lineNo":"","tgNo":"","tgName":null,"infoStatus":"1","orgName":"国网定州市供电公司","typeName":null,"infoStatusName":null,"dateDay":null,"orgNos":null,"nowTime":null,"countyName":null,"streetName":null,"villageName":null,"roadName":null,"communityName":null,"tranName":null,"sdLineName":null,"cityCode":"1340610","cityName":"国网定州市供电公司","provinceCode":null,"stopTime":"2020-01-10 16:00:00","powerType":"全部","powerOffArea":"【全线路停电】停来合庄公用照明5台区,大兴庄村公用照明2台区,周家庄公用照明3台区,周家庄公用照明2台区,留早北街公用照明1台区,留早北街公用照明2台区,中心街村公用照明1台区,东街公用照明4台区,留早中心街公用照明4台区,来合庄村公用照明2台区,高就公用照明16台区,来合庄公用照明3台区,北高就村公用照明1台区,北街公用照明4台区,大兴庄公用照明4台区,中心街公用照明5台区,大兴庄公用照明3台区,四合庄公用照明2台区新建工程,东街村公用照明1台区,大兴庄村公用照明1台区,留早东街公用照明2台区,高就公用照明14台区,东街公用照明6台区,中心街公用照明7台区,周家庄村公用照明1台区,来合庄村公用照明1台区,留早北街公用照明3台区,东街公用照明5台区,来合庄公用照明4台区,北高就公用照明2台区,留早四合庄村公用照明1台区,留早东街公用照明3台区,小留早公用照明1台区,北高就公用照明3台区","powerOffReason":"【停电原因】由于电杆倾斜需停电进行紧急检修导致３５ＫＶ留早变电站１０ＫＶ５１２来合庄线路全线停电 【变更送电】因抢修进度加快原因，送电时间由１７：００变更为１６：００ 【发布渠道】９５５９８","powerOffId":"2020010913000065"},{"poweroffId":2020010913000063,"sgpoweroffId":null,"subsName":"","lineName":"10kV515西南合线","pubTranName":"西同房公用照明7台区,东南合村公用照明2台区,西同房公用照明6台区,南同房公用照明4台区,南同房公用照明3台区,东南合公用照明3台区,西同房村公用照明2台区,南同房村公用照明2台区,东南合村公用照明1台区,西同房公用照明9台区,南同房公用照明5台区,东南合公用照明4台区,西同房公用照明8台区,西同房村公用照明4台区,西同房村公用照明1台区,南同房公用照明6台区,西南合村公用照明1台区,西南合村公用照明5台区,西南合公用照明10台区,西南合村公用照明3台区,西南合公用照明7台区,南仝房村公用照明1台区,西南合公用照明14台区,西南合公用照明8台区,西南合公用照明2台区,西仝房村公用照明3台区,西南合公用照明6台区,西南合公用照明11台区,","scope":"【影响街道/乡镇】留早镇【高危重要客户】无【影响客户】东南合、南同房、西同房、西南合、留早西街","startTime":"2020-01-10 10:00:00","stopDate":"2020-01-10 16:00:00","orgNo":"1340610","typeCode":"其他临时停电","poweroffArea":"【全线路停电】停南同房公用照明5台区,西同房公用照明7台区,东南合村公用照明2台区,西同房公用照明6台区,南同房公用照明4台区,南同房公用照明3台区,东南合公用照明3台区,西同房村公用照明2台区,南同房村公用照明2台区,东南合村公用照明1台区,西同房公用照明9台区,东南合公用照明4台区,西同房公用照明8台区,西同房村公用照明4台区,西同房村公用照明1台区,南同房公用照明6台区,西南合村公用照明1台区,西南合村公用照明5台区,西南合公用照明10台区,西南合村公用照明3台区,西南合公用照明7台区,南仝房村公用照明1台区,西南合公用照明14台区,留早西街公用照明3台区,西南合公用照明8台区,西南合公用照明2台区,西仝房村公用照明3台区,西南合公用照明6台区,西南合公用照明11台区","poweroffReason":"【停电原因】由于电杆倾斜需停电进行紧急检修导致３５ＫＶ留早变电站１０ＫＶ５１５西南合线路全线停电 【变更送电】因抢修进度加快原因，送电时间由１７：００变更为１６：００ 【发布渠道】９５５９８","powerTime":"2020-01-10 15:27:12","powerComm":"已送电","subsNo":"","lineNo":"","tgNo":"","tgName":null,"infoStatus":"1","orgName":"国网定州市供电公司","typeName":null,"infoStatusName":null,"dateDay":null,"orgNos":null,"nowTime":null,"countyName":null,"streetName":null,"villageName":null,"roadName":null,"communityName":null,"tranName":null,"sdLineName":null,"cityCode":"1340610","cityName":"国网定州市供电公司","provinceCode":null,"stopTime":"2020-01-10 16:00:00","powerType":"全部","powerOffArea":"【全线路停电】停南同房公用照明5台区,西同房公用照明7台区,东南合村公用照明2台区,西同房公用照明6台区,南同房公用照明4台区,南同房公用照明3台区,东南合公用照明3台区,西同房村公用照明2台区,南同房村公用照明2台区,东南合村公用照明1台区,西同房公用照明9台区,东南合公用照明4台区,西同房公用照明8台区,西同房村公用照明4台区,西同房村公用照明1台区,南同房公用照明6台区,西南合村公用照明1台区,西南合村公用照明5台区,西南合公用照明10台区,西南合村公用照明3台区,西南合公用照明7台区,南仝房村公用照明1台区,西南合公用照明14台区,留早西街公用照明3台区,西南合公用照明8台区,西南合公用照明2台区,西仝房村公用照明3台区,西南合公用照明6台区,西南合公用照明11台区","powerOffReason":"【停电原因】由于电杆倾斜需停电进行紧急检修导致３５ＫＶ留早变电站１０ＫＶ５１５西南合线路全线停电 【变更送电】因抢修进度加快原因，送电时间由１７：００变更为１６：００ 【发布渠道】９５５９８","powerOffId":"2020010913000063"},{"poweroffId":2020010913000061,"sgpoweroffId":null,"subsName":"","lineName":"10kV511王家庄线","pubTranName":"大瓦房公用照明5台区,南木庄公用照明3台区,官家庄公用照明3台区,大瓦房村公用照明2台区,蔡家庄公用照明2台区,大瓦房公用照明3台区,北木庄公用照明5台区,仁义村公用照明2台区,管家庄公用照明2台区,南木庄公用照明2台区,东宋庄村公用照明1台区,东宋庄公用照明2台区,北王家庄社区公用照明1台区,王家庄村公用照明1台区一,小瓦房村公用照明1台区,北木庄公用照明4台区,王家庄村公用照明2台区,西宋庄村公用照明1台区,北王家庄社区公用照明3台区,仝安庄村公用照明1台区,北木庄村公用照明1台区,王家庄公用照明7台区一,王家庄公用照明8台区一,北王家庄社区公用照明2台区,大瓦房村公用照明1台区,管家庄村公用照明1台区,北木庄公用照明3台区,蔡家庄村公用照明1台区,王家庄公用照明5台区一,南木庄村公用照明1台区,王家庄公用照明4台区一,王家庄村公用照明3台区,仁义村公用照明1台区,仝安庄公用照明2台区,仁义村公用照明3台区,西宋庄公用照明2台区,王家庄公用照明6台区一,北木庄村公用照明2台区,大瓦房公用照明4台区,","scope":"【影响街道/乡镇】留早镇【高危重要客户】无【影响客户】北木庄、仝安庄、管家庄、南木庄、东宋庄、西宋庄、蔡家庄、大瓦房、小瓦房、仁义村、北王家庄、留早北街村","startTime":"2020-01-10 10:00:00","stopDate":"2020-01-10 16:00:00","orgNo":"1340610","typeCode":"其他临时停电","poweroffArea":"【全线路停电】停南木庄公用照明3台区,大瓦房公用照明5台区,官家庄公用照明3台区,大瓦房村公用照明2台区,蔡家庄公用照明2台区,大瓦房公用照明3台区,北木庄公用照明5台区,仁义村公用照明2台区,管家庄公用照明2台区,南木庄公用照明2台区,东宋庄村公用照明1台区,东宋庄公用照明2台区,北王家庄社区公用照明1台区,王家庄村公用照明1台区一,小瓦房村公用照明1台区,北木庄公用照明4台区,王家庄村公用照明2台区,西宋庄村公用照明1台区,北王家庄社区公用照明3台区,仝安庄村公用照明1台区,北木庄村公用照明1台区,王家庄公用照明7台区一,王家庄公用照明8台区一,北王家庄社区公用照明2台区,大瓦房村公用照明1台区,管家庄村公用照明1台区,北木庄公用照明3台区,蔡家庄村公用照明1台区,王家庄公用照明5台区一,南木庄村公用照明1台区,王家庄公用照明4台区一,王家庄村公用照明3台区,仁义村公用照明1台区,仝安庄公用照明2台区,仁义村公用照明3台区,西宋庄公用照明2台区,王家庄公用照明6台区一,北木庄村公用照明2台区,大瓦房公用照明4台区","poweroffReason":"【停电原因】由于电杆倾斜需停电进行紧急检修导致３５ＫＶ留早变电站１０ＫＶ５１１王家庄线路全线停电 【变更送电】因抢修进度加快原因，送电时间由１７：００变更为１６：００ 【发布渠道】９５５９８","powerTime":"2020-01-10 15:25:44","powerComm":"已送电","subsNo":"","lineNo":"","tgNo":"","tgName":null,"infoStatus":"1","orgName":"国网定州市供电公司","typeName":null,"infoStatusName":null,"dateDay":null,"orgNos":null,"nowTime":null,"countyName":null,"streetName":null,"villageName":null,"roadName":null,"communityName":null,"tranName":null,"sdLineName":null,"cityCode":"1340610","cityName":"国网定州市供电公司","provinceCode":null,"stopTime":"2020-01-10 16:00:00","powerType":"全部","powerOffArea":"【全线路停电】停南木庄公用照明3台区,大瓦房公用照明5台区,官家庄公用照明3台区,大瓦房村公用照明2台区,蔡家庄公用照明2台区,大瓦房公用照明3台区,北木庄公用照明5台区,仁义村公用照明2台区,管家庄公用照明2台区,南木庄公用照明2台区,东宋庄村公用照明1台区,东宋庄公用照明2台区,北王家庄社区公用照明1台区,王家庄村公用照明1台区一,小瓦房村公用照明1台区,北木庄公用照明4台区,王家庄村公用照明2台区,西宋庄村公用照明1台区,北王家庄社区公用照明3台区,仝安庄村公用照明1台区,北木庄村公用照明1台区,王家庄公用照明7台区一,王家庄公用照明8台区一,北王家庄社区公用照明2台区,大瓦房村公用照明1台区,管家庄村公用照明1台区,北木庄公用照明3台区,蔡家庄村公用照明1台区,王家庄公用照明5台区一,南木庄村公用照明1台区,王家庄公用照明4台区一,王家庄村公用照明3台区,仁义村公用照明1台区,仝安庄公用照明2台区,仁义村公用照明3台区,西宋庄公用照明2台区,王家庄公用照明6台区一,北木庄村公用照明2台区,大瓦房公用照明4台区","powerOffReason":"【停电原因】由于电杆倾斜需停电进行紧急检修导致３５ＫＶ留早变电站１０ＫＶ５１１王家庄线路全线停电 【变更送电】因抢修进度加快原因，送电时间由１７：００变更为１６：００ 【发布渠道】９５５９８","powerOffId":"2020010913000061"},{"poweroffId":2020010813000071,"sgpoweroffId":null,"subsName":"","lineName":"10kV谢庄线545","pubTranName":"2张登外39,张登屯内1号,1张登内10,2张登外24,2张登外26,张登内2号,2张登外22,1张登屯内6,2张登外29,2北河庄外10【纯农排变】,张登屯四台区,张登屯内2号,2张登外30,1张登内12,2张登外37,2张登外19,客户投资_张登内1号,2张登外18,1张登屯内5,客户投资_1张登内9,张登小学,1张登屯内7,张登内7,2张登外35,1张登屯内8,2张登外28,张登内5,2张登外20,1张登屯内9,张登内6,2张登外32,1张登内11,2张登外27,1北和庄内11,2张登外36,张登屯内3,2张登外34,2张登外25,2张登外23,2张登外33,","scope":"【影响街道/乡镇】张登乡 【高危重要客户】无 【影响客户】张登屯、北和庄、张登","startTime":"2020-01-08 11:56:53","stopDate":"2020-01-08 13:10:00","orgNo":"1340618","typeCode":"电网故障停限电","poweroffArea":"【全线路停电】停张登小学,张登内7,2张登屯外三【纯农排变】,2张登外35,1张登屯内8,2张登外28,张登内5,2张登外20,1张登屯内9,张登内6,2张登外32,保定市清苑区张登镇张登幼儿园,1张登内11,2张登外27,1北和庄内11,2张登外36,张登屯内3,2张登外34,2张登外25,2张登外21,张登屯内1号,1张登内10,张登屯瓜果市场,2北和庄外8【纯农排变】,2张登屯外二【纯农排变】,2张登外24,2张登外26,张登内2号,2张登外22,0387480798-清苑县北和庄面粉厂-专变-45309479-清苑县北和庄面粉厂,1张登屯内6,2北和庄外15【纯农排变】,2张登外29,2张登外31,2北河庄外10【纯农排变】,2北和庄外11【纯农排变】,张登屯四台区,2张登屯外6【纯农排变】,2张登外23,2张登外33,2北和庄外9【纯农排变】,1张登屯内7,2张登外39,2北和庄外7【纯农排变】,张登屯内2号,张登屯村委会,2张登外30,1张登内12,2张登外37,2张登外19,2张登屯外4【纯农排变】,客户投资_张登内1号,2张登外18,2张登屯外5【纯农排变】,1张登屯内5,2北和庄外20【纯农排变】,客户投资_1张登内9","poweroffReason":"【停电原因】由于主干４８号杆Ｔ１２号杆中相刀闸搭铁丝导致２２０ＫＶ邓村变电站１０ＫＶ谢庄线５４５线路全线停电 【变更送电】因抢修进度加快原因，送电时间由１８：００变更为１３：１０ 【发布渠道】通过９５５９８发布","powerTime":"2020-01-08 12:45:12","powerComm":"郝艳荣通知已送电","subsNo":"","lineNo":"","tgNo":"","tgName":null,"infoStatus":"1","orgName":"国网清苑县供电公司","typeName":null,"infoStatusName":null,"dateDay":null,"orgNos":null,"nowTime":null,"countyName":null,"streetName":null,"villageName":null,"roadName":null,"communityName":null,"tranName":null,"sdLineName":null,"cityCode":"1340618","cityName":"国网清苑县供电公司","provinceCode":null,"stopTime":"2020-01-08 13:10:00","powerType":"全部","powerOffArea":"【全线路停电】停张登小学,张登内7,2张登屯外三【纯农排变】,2张登外35,1张登屯内8,2张登外28,张登内5,2张登外20,1张登屯内9,张登内6,2张登外32,保定市清苑区张登镇张登幼儿园,1张登内11,2张登外27,1北和庄内11,2张登外36,张登屯内3,2张登外34,2张登外25,2张登外21,张登屯内1号,1张登内10,张登屯瓜果市场,2北和庄外8【纯农排变】,2张登屯外二【纯农排变】,2张登外24,2张登外26,张登内2号,2张登外22,0387480798-清苑县北和庄面粉厂-专变-45309479-清苑县北和庄面粉厂,1张登屯内6,2北和庄外15【纯农排变】,2张登外29,2张登外31,2北河庄外10【纯农排变】,2北和庄外11【纯农排变】,张登屯四台区,2张登屯外6【纯农排变】,2张登外23,2张登外33,2北和庄外9【纯农排变】,1张登屯内7,2张登外39,2北和庄外7【纯农排变】,张登屯内2号,张登屯村委会,2张登外30,1张登内12,2张登外37,2张登外19,2张登屯外4【纯农排变】,客户投资_张登内1号,2张登外18,2张登屯外5【纯农排变】,1张登屯内5,2北和庄外20【纯农排变】,客户投资_1张登内9","powerOffReason":"【停电原因】由于主干４８号杆Ｔ１２号杆中相刀闸搭铁丝导致２２０ＫＶ邓村变电站１０ＫＶ谢庄线５４５线路全线停电 【变更送电】因抢修进度加快原因，送电时间由１８：００变更为１３：１０ 【发布渠道】通过９５５９８发布","powerOffId":"2020010813000071"},{"poweroffId":2020010813000048,"sgpoweroffId":null,"subsName":"","lineName":"酒厂线524电力电缆","pubTranName":"盛源55号（教委家属院）,盛源26号（安肃镇家属院）,盛源28号（广播局）,盛源54号（网通家属院）,盛源45号（开发区）,盛源25号（工商银行）,盛源62号（局7-8-9-10号楼）,永兴17号(医院南),","scope":"【影响街道/乡镇】安肃镇 【高危重要客户】无 【影响客户】广播局、安肃镇家属院、教委家属院、医院家属院、网通家属院、天使新村","startTime":"2020-01-09 00:30:00","stopDate":"2020-01-09 04:00:00","orgNo":"1340605","typeCode":"其他临时停电","poweroffArea":"【全线路停电】停盛源45号（开发区）,盛源62号（局7-8-9-10号楼）,永兴25号(天使新村),盛源25号（工商银行）,盛源26号（安肃镇家属院）,盛源28号（广播局）,盛源55号（教委家属院）,永兴18号(酒厂后),永兴24号(医院家属院),永兴38号(二中对面),永兴17号(医院南),盛源54号（网通家属院）","poweroffReason":"【停电原因】由于处理紧急缺陷导致１１０ＫＶ徐水变电站酒厂线５２４线路全线停电 【变更送电】因抢修进度加快原因，送电时间由０５:３０变更为０４:００ 【发布渠道】通过９５５９８发布","powerTime":"2020-01-09 03:31:30","powerComm":"已送电","subsNo":"","lineNo":"","tgNo":"","tgName":null,"infoStatus":"1","orgName":"国网徐水县供电公司","typeName":null,"infoStatusName":null,"dateDay":null,"orgNos":null,"nowTime":null,"countyName":null,"streetName":null,"villageName":null,"roadName":null,"communityName":null,"tranName":null,"sdLineName":null,"cityCode":"1340605","cityName":"国网徐水县供电公司","provinceCode":null,"stopTime":"2020-01-09 04:00:00","powerType":"全部","powerOffArea":"【全线路停电】停盛源45号（开发区）,盛源62号（局7-8-9-10号楼）,永兴25号(天使新村),盛源25号（工商银行）,盛源26号（安肃镇家属院）,盛源28号（广播局）,盛源55号（教委家属院）,永兴18号(酒厂后),永兴24号(医院家属院),永兴38号(二中对面),永兴17号(医院南),盛源54号（网通家属院）","powerOffReason":"【停电原因】由于处理紧急缺陷导致１１０ＫＶ徐水变电站酒厂线５２４线路全线停电 【变更送电】因抢修进度加快原因，送电时间由０５:３０变更为０４:００ 【发布渠道】通过９５５９８发布","powerOffId":"2020010813000048"}],"pageModel":{"pageNow":312,"totalCount":10973,"totalPage":1098,"tableRows":0,"pageCount":10,"beginCount":3110},"isExperi":"1"}