{"message":"","today":"2020-06-15","seleList":[{"poweroffId":2020010513000083,"sgpoweroffId":null,"subsName":"","lineName":"10kV574赵庄子线","pubTranName":"赵庄子公用照明1台区,赵庄子公用照明6台区,孔庄子公用照明7台区,孔庄子公用照明8台区,孔庄子公用照明3台区,赵庄子公用照明7台区,赵庄子公用照明10台区,孔庄子公用照明5台区,赵庄子公用照明2台区,孔庄子公用照明9台区,赵庄子公用照明4台区,赵庄子公用照明9台区,赵庄子公用照明3台区,赵庄子公用照明5台区,孔庄子公用照明2台区,赵庄子公用照明8台区,赵庄子公用照明11台区,","scope":"【影响街道/乡镇】开元镇【高危重要客户】无【影响客户】孔庄子、赵庄子","startTime":"2020-01-05 14:57:42","stopDate":"2020-01-05 16:00:00","orgNo":"1340610","typeCode":"电网故障停限电","poweroffArea":"【全线路停电】停赵庄子公用照明1台区,赵庄子公用照明6台区,孔庄子公用照明7台区,孔庄子公用照明8台区,孔庄子公用照明3台区,赵庄子公用照明7台区,赵庄子公用照明10台区,孔庄子公用照明5台区,赵庄子公用照明2台区,孔庄子公用照明9台区,赵庄子公用照明4台区,赵庄子公用照明9台区,赵庄子公用照明3台区,赵庄子公用照明5台区,孔庄子公用照明2台区,赵庄子公用照明8台区,赵庄子公用照明11台区","poweroffReason":"【停电原因】由于车撞树砸线导致１１０ＫＶ明月店变电站１０ＫＶ５７４赵庄子线路全线停电 【变更送电】因抢修进度加快原因，送电时间由２３：５９变更为１６：００ 【发布渠道】９５５９８","powerTime":"2020-01-05 15:43:14","powerComm":"已送电","subsNo":"","lineNo":"","tgNo":"","tgName":null,"infoStatus":"1","orgName":"国网定州市供电公司","typeName":null,"infoStatusName":null,"dateDay":null,"orgNos":null,"nowTime":null,"countyName":null,"streetName":null,"villageName":null,"roadName":null,"communityName":null,"tranName":null,"sdLineName":null,"cityCode":"1340610","cityName":"国网定州市供电公司","provinceCode":null,"stopTime":"2020-01-05 16:00:00","powerType":"全部","powerOffArea":"【全线路停电】停赵庄子公用照明1台区,赵庄子公用照明6台区,孔庄子公用照明7台区,孔庄子公用照明8台区,孔庄子公用照明3台区,赵庄子公用照明7台区,赵庄子公用照明10台区,孔庄子公用照明5台区,赵庄子公用照明2台区,孔庄子公用照明9台区,赵庄子公用照明4台区,赵庄子公用照明9台区,赵庄子公用照明3台区,赵庄子公用照明5台区,孔庄子公用照明2台区,赵庄子公用照明8台区,赵庄子公用照明11台区","powerOffReason":"【停电原因】由于车撞树砸线导致１１０ＫＶ明月店变电站１０ＫＶ５７４赵庄子线路全线停电 【变更送电】因抢修进度加快原因，送电时间由２３：５９变更为１６：００ 【发布渠道】９５５９８","powerOffId":"2020010513000083"},{"poweroffId":2020010413000050,"sgpoweroffId":null,"subsName":"","lineName":"郎伍庄线516","pubTranName":"10Kv516郎伍庄线郎五庄19号,10Kv516郎伍庄线郎五庄20号【纯农排变】,10Kv516郎伍庄线郎五庄6号【纯农排变】,10Kv516郎伍庄线郎五庄10号【纯农排变】,10Kv516郎伍庄线郎五庄11号【纯农排变】,10Kv516郎伍庄线郎五庄13号,10Kv516郎伍庄线郎五庄14号,10Kv516郎伍庄线郎五庄15号【纯农排变】,10Kv516郎伍庄线郎五庄17号,10Kv516郎伍庄线郎五庄18号,10Kv516郎伍庄线郎五庄1号,10Kv516郎伍庄线郎五庄2号,10Kv516郎伍庄线郎五庄3号,10Kv516郎伍庄线郎五庄4号,10Kv516郎伍庄线郎五庄5号,10Kv516郎伍庄线郎五庄9号,10kV516郎伍庄线郎五庄8号【纯农排变】,郎五庄21号,郎五庄22号,郎伍庄新居民进线间隔配电变压器,","scope":"【影响街道/乡镇】高林村镇 【高危重要客户】无 【影响客户】郎五庄村","startTime":"2020-01-04 15:43:11","stopDate":"2020-01-04 18:00:00","orgNo":"1340605","typeCode":"电网故障停限电","poweroffArea":"【全线路停电】停10Kv516郎伍庄线郎五庄19号, 10Kv516郎伍庄线郎五庄20号【纯农排变】, 10Kv516郎伍庄线郎五庄6号【纯农排变】,10Kv516郎伍庄线郎五庄10号【纯农排变】,10Kv516郎伍庄线郎五庄11号【纯农排变】,10Kv516郎伍庄线郎五庄13号,10Kv516郎伍庄线郎五庄14号,10Kv516郎伍庄线郎五庄15号【纯农排变】,10Kv516郎伍庄线郎五庄17号,10Kv516郎伍庄线郎五庄18号,10Kv516郎伍庄线郎五庄1号,10Kv516郎伍庄线郎五庄2号,10Kv516郎伍庄线郎五庄3号,10Kv516郎伍庄线郎五庄4号,10Kv516郎伍庄线郎五庄5号,10Kv516郎伍庄线郎五庄9号,10kV516郎伍庄线郎五庄8号【纯农排变】,郎五庄21号,郎五庄22号,郎伍庄新居民进线间隔配电变压器","poweroffReason":"【停电原因】由于Ｂ相接地导致３５ＫＶ郎五庄变电站郎伍庄线５１６线路全线停电 【变更送电】无 【发布渠道】通过９５５９８发布","powerTime":"2020-01-04 17:07:00","powerComm":"已送电","subsNo":"","lineNo":"","tgNo":"","tgName":null,"infoStatus":"1","orgName":"国网徐水县供电公司","typeName":null,"infoStatusName":null,"dateDay":null,"orgNos":null,"nowTime":null,"countyName":null,"streetName":null,"villageName":null,"roadName":null,"communityName":null,"tranName":null,"sdLineName":null,"cityCode":"1340605","cityName":"国网徐水县供电公司","provinceCode":null,"stopTime":"2020-01-04 18:00:00","powerType":"全部","powerOffArea":"【全线路停电】停10Kv516郎伍庄线郎五庄19号, 10Kv516郎伍庄线郎五庄20号【纯农排变】, 10Kv516郎伍庄线郎五庄6号【纯农排变】,10Kv516郎伍庄线郎五庄10号【纯农排变】,10Kv516郎伍庄线郎五庄11号【纯农排变】,10Kv516郎伍庄线郎五庄13号,10Kv516郎伍庄线郎五庄14号,10Kv516郎伍庄线郎五庄15号【纯农排变】,10Kv516郎伍庄线郎五庄17号,10Kv516郎伍庄线郎五庄18号,10Kv516郎伍庄线郎五庄1号,10Kv516郎伍庄线郎五庄2号,10Kv516郎伍庄线郎五庄3号,10Kv516郎伍庄线郎五庄4号,10Kv516郎伍庄线郎五庄5号,10Kv516郎伍庄线郎五庄9号,10kV516郎伍庄线郎五庄8号【纯农排变】,郎五庄21号,郎五庄22号,郎伍庄新居民进线间隔配电变压器","powerOffReason":"【停电原因】由于Ｂ相接地导致３５ＫＶ郎五庄变电站郎伍庄线５１６线路全线停电 【变更送电】无 【发布渠道】通过９５５９８发布","powerOffId":"2020010413000050"},{"poweroffId":2020010413000044,"sgpoweroffId":null,"subsName":"","lineName":"东河线513","pubTranName":"东河综合10号,10039|公用事业局综合,东河11号村北综合,SQ北外环公用2号综合,东河9号新增综合,东河村南8号综合,东河5号新增综合,东河7号村里新增综合,东河2#街里综合,东河4#综合,东河3#村北综合,东河6号村北新增综合,东河1#村南综合,西关2#大队015农排【纯农排变】,","scope":"【影响街道/乡镇】高阳镇、晋庄乡、正阳路 【高危重要客户】无 【影响客户】东河全村","startTime":"2020-01-04 14:45:43","stopDate":"2020-01-04 16:30:00","orgNo":"1340613","typeCode":"电网故障停限电","poweroffArea":"【全线路停电】停高阳县鑫境界房地产开发有限公司变压器,正阳小区,高阳县住房和城乡建设局变压器,东河5号新增综合,高阳县盛乾坐垫厂变压器,0376886026-纺纱厂-专变-44747251-纺纱厂(子),东河7号村里新增综合,田建国,保定昱晟房地产开发有限公司,西关1#大队014农排【纯农排变】,高阳县西街小学变压器02,保定市秀兰建设工程有限公司变压器,东河2#街里综合,0376884163-现代城一期四号-专变-123338868-河北长润房地产开发有限公司变压器,北关北大方农排【纯农排变】,东河4#综合,东河3#村北综合,东河6号村北新增综合,高阳县宏润物业服务有限公司变压器,孙兵变压器,高阳县荣耀纺织品制造有限公司变压器,农机监理站,东河织物厂2#变压器,东河1#村南综合,西关2#大队015农排【纯农排变】,国网河北高阳县供电公司变压器减容,0692665495-保定捷瑞纺织品制造有限公司-专变-235674678-保定捷瑞纺织品制造有限公司变压器,保定智阳纺织品有限公司变压器,河北省高阳县气象局变压器,东河综合10号,高阳镇东王草庄社区居民委员会电压器,0376884495-武装部-专变-44747039-武装部,10039|公用事业局综合,东河11号村北综合,SQ北外环公用2号综合,高阳县佳泰长盈物业服务有限公司变压器,东河9号新增综合,高阳县住房和城乡建设局变压器01,0376884280-高阳县自来水公司-专变-44747285-自来水公司,0376887944-高阳县孟尧纺织品制造有限公司-专变-44747174-冯洗清,东河村南8号综合,高阳县西街小学变压器01,0376888543-高阳县国土资源局-专变-127198725-高阳县国土资源局变压器,0376887449-保定捷瑞纺织品制造有限公司-专变-44747459-东河水箱厂,保定智阳纺织品有限公司","poweroffReason":"【停电原因】由于汽车撞杆导致１１０ＫＶ沙窝变电站东河５１３线路全线停电【变更送电】因抢修进度加快原因，送电时间由２０：００变更为１６：３０【发布渠道】通过９５５９８发布","powerTime":"2020-01-04 15:55:10","powerComm":"已送电","subsNo":"","lineNo":"","tgNo":"","tgName":null,"infoStatus":"1","orgName":"国网高阳县供电公司","typeName":null,"infoStatusName":null,"dateDay":null,"orgNos":null,"nowTime":null,"countyName":null,"streetName":null,"villageName":null,"roadName":null,"communityName":null,"tranName":null,"sdLineName":null,"cityCode":"1340613","cityName":"国网高阳县供电公司","provinceCode":null,"stopTime":"2020-01-04 16:30:00","powerType":"全部","powerOffArea":"【全线路停电】停高阳县鑫境界房地产开发有限公司变压器,正阳小区,高阳县住房和城乡建设局变压器,东河5号新增综合,高阳县盛乾坐垫厂变压器,0376886026-纺纱厂-专变-44747251-纺纱厂(子),东河7号村里新增综合,田建国,保定昱晟房地产开发有限公司,西关1#大队014农排【纯农排变】,高阳县西街小学变压器02,保定市秀兰建设工程有限公司变压器,东河2#街里综合,0376884163-现代城一期四号-专变-123338868-河北长润房地产开发有限公司变压器,北关北大方农排【纯农排变】,东河4#综合,东河3#村北综合,东河6号村北新增综合,高阳县宏润物业服务有限公司变压器,孙兵变压器,高阳县荣耀纺织品制造有限公司变压器,农机监理站,东河织物厂2#变压器,东河1#村南综合,西关2#大队015农排【纯农排变】,国网河北高阳县供电公司变压器减容,0692665495-保定捷瑞纺织品制造有限公司-专变-235674678-保定捷瑞纺织品制造有限公司变压器,保定智阳纺织品有限公司变压器,河北省高阳县气象局变压器,东河综合10号,高阳镇东王草庄社区居民委员会电压器,0376884495-武装部-专变-44747039-武装部,10039|公用事业局综合,东河11号村北综合,SQ北外环公用2号综合,高阳县佳泰长盈物业服务有限公司变压器,东河9号新增综合,高阳县住房和城乡建设局变压器01,0376884280-高阳县自来水公司-专变-44747285-自来水公司,0376887944-高阳县孟尧纺织品制造有限公司-专变-44747174-冯洗清,东河村南8号综合,高阳县西街小学变压器01,0376888543-高阳县国土资源局-专变-127198725-高阳县国土资源局变压器,0376887449-保定捷瑞纺织品制造有限公司-专变-44747459-东河水箱厂,保定智阳纺织品有限公司","powerOffReason":"【停电原因】由于汽车撞杆导致１１０ＫＶ沙窝变电站东河５１３线路全线停电【变更送电】因抢修进度加快原因，送电时间由２０：００变更为１６：３０【发布渠道】通过９５５９８发布","powerOffId":"2020010413000044"},{"poweroffId":2020010413000033,"sgpoweroffId":null,"subsName":"","lineName":"金台南583","pubTranName":"金台路10#,","scope":"【影响街道/乡镇】金台路【高危重要客户】无【影响客户】板厂家属院","startTime":"2020-01-04 11:30:19","stopDate":"2020-01-04 12:30:00","orgNo":"1340625","typeCode":"电网故障停限电","poweroffArea":"【单台区停电】停金台路10#","poweroffReason":"【停电原因】由于低压线断导致１１０ＫＶ店北变电站金台南５８３线路金台路１０＃公变台区停电【变更送电】因抢修进度加快原因，送电时间由１４：００变更为１２：３０【发布渠道】通过９５５９８发布","powerTime":"2020-01-04 12:06:56","powerComm":"已送电","subsNo":"","lineNo":"","tgNo":"","tgName":null,"infoStatus":"1","orgName":"国网易县供电公司","typeName":null,"infoStatusName":null,"dateDay":null,"orgNos":null,"nowTime":null,"countyName":null,"streetName":null,"villageName":null,"roadName":null,"communityName":null,"tranName":null,"sdLineName":null,"cityCode":"1340625","cityName":"国网易县供电公司","provinceCode":null,"stopTime":"2020-01-04 12:30:00","powerType":"全部","powerOffArea":"【单台区停电】停金台路10#","powerOffReason":"【停电原因】由于低压线断导致１１０ＫＶ店北变电站金台南５８３线路金台路１０＃公变台区停电【变更送电】因抢修进度加快原因，送电时间由１４：００变更为１２：３０【发布渠道】通过９５５９８发布","powerOffId":"2020010413000033"},{"poweroffId":2020010413000021,"sgpoweroffId":null,"subsName":"","lineName":"仪村线511","pubTranName":"大西张二队6号【纯农排变】,大西张二队10号【纯农排变】,大西张二队11号【纯农排变】,大西张二队13号【纯农排变】,大西张二队1号【纯农排变】,大西张二队7号【纯农排变】,大西张二队8号【纯农排变】,大西张二队2号,大西张二队9号,大西张一队14号,大西张二队4号,大西张二队5号【纯农排变】,大西张一队19号【纯农排变】,敬上18号【纯农排变】,客户投资_大西张二队1号,仪村3号,仪村4号,客户投资_大西张二队6号,客户投资_大西张二队7号,南亭17号,南亭小学,仪村10号,仪村1号【纯农排变】,仪村2号,仪村5号【纯农排变】,仪村6号【纯农排变】,仪村7号,仪村8号,仪村9号,","scope":"【影响街道/乡镇】大因镇 【高危重要客户】无 【影响客户】仪村、南亭、大西张","startTime":"2020-01-04 13:30:00","stopDate":"2020-01-04 16:00:00","orgNo":"1340605","typeCode":"其他临时停电","poweroffArea":"【全线路停电】停大西张二队10号【纯农排变】,大西张二队11号【纯农排变】,大西张二队13号【纯农排变】,大西张二队1号【纯农排变】,大西张二队2号,大西张二队4号,大西张二队5号【纯农排变】,大西张二队6号【纯农排变】,大西张二队7号【纯农排变】,大西张二队8号【纯农排变】,大西张二队9号,大西张一队14号,大西张一队19号【纯农排变】,敬上18号【纯农排变】,客户投资_大西张二队1号,客户投资_大西张二队6号,客户投资_大西张二队7号,南亭17号,南亭小学,仪村10号,仪村1号【纯农排变】,仪村2号,仪村3号,仪村4号,仪村5号【纯农排变】,仪村6号【纯农排变】,仪村7号,仪村8号,仪村9号","poweroffReason":"【停电原因】由于处理紧急缺陷导致３５ＫＶ大因变电站仪村线５１１线路全线停电 【变更送电】因抢修进度加快原因，送电时间由１７:００变更为１６:００ 【发布渠道】通过９５５９８发布","powerTime":"2020-01-04 15:21:01","powerComm":"已送电","subsNo":"","lineNo":"","tgNo":"","tgName":null,"infoStatus":"1","orgName":"国网徐水县供电公司","typeName":null,"infoStatusName":null,"dateDay":null,"orgNos":null,"nowTime":null,"countyName":null,"streetName":null,"villageName":null,"roadName":null,"communityName":null,"tranName":null,"sdLineName":null,"cityCode":"1340605","cityName":"国网徐水县供电公司","provinceCode":null,"stopTime":"2020-01-04 16:00:00","powerType":"全部","powerOffArea":"【全线路停电】停大西张二队10号【纯农排变】,大西张二队11号【纯农排变】,大西张二队13号【纯农排变】,大西张二队1号【纯农排变】,大西张二队2号,大西张二队4号,大西张二队5号【纯农排变】,大西张二队6号【纯农排变】,大西张二队7号【纯农排变】,大西张二队8号【纯农排变】,大西张二队9号,大西张一队14号,大西张一队19号【纯农排变】,敬上18号【纯农排变】,客户投资_大西张二队1号,客户投资_大西张二队6号,客户投资_大西张二队7号,南亭17号,南亭小学,仪村10号,仪村1号【纯农排变】,仪村2号,仪村3号,仪村4号,仪村5号【纯农排变】,仪村6号【纯农排变】,仪村7号,仪村8号,仪村9号","powerOffReason":"【停电原因】由于处理紧急缺陷导致３５ＫＶ大因变电站仪村线５１１线路全线停电 【变更送电】因抢修进度加快原因，送电时间由１７:００变更为１６:００ 【发布渠道】通过９５５９８发布","powerOffId":"2020010413000021"},{"poweroffId":2020010413000020,"sgpoweroffId":null,"subsName":"","lineName":"东方纸厂线512","pubTranName":"敬上12号,敬上13号,敬上14号,敬上15号,敬上16号【纯农排变】,敬上17号【纯农排变】,敬上20号,敬上21号,敬上2号,敬上11号,敬上3号,敬上4号【纯农排变】,敬上5号【纯农排变】,敬上6号,敬上7号,敬上10号【纯农排变】,敬上9号,客户投资_敬上5号,南贺寿营11号【纯农排变】,南贺寿营12号,南贺寿营1号,伍级11号【纯农排变】,伍级2号,伍级5号,伍级7号【纯农排变】,","scope":"【影响街道/乡镇】大因镇 【高危重要客户】无 【影响客户】敬上村、伍级村、南贺寿营村","startTime":"2020-01-04 13:30:00","stopDate":"2020-01-04 16:00:00","orgNo":"1340605","typeCode":"其他临时停电","poweroffArea":"【全线路停电】停敬上10号【纯农排变】,敬上11号,敬上12号,敬上13号,敬上14号,敬上15号,敬上16号【纯农排变】,敬上17号【纯农排变】,敬上20号,敬上21号,敬上2号,敬上3号,敬上4号【纯农排变】,敬上5号【纯农排变】,敬上6号,敬上7号,敬上9号,客户投资_敬上5号,南贺寿营11号【纯农排变】,南贺寿营12号,南贺寿营1号,伍级11号【纯农排变】,伍级2号,伍级5号,伍级7号【纯农排变】","poweroffReason":"【停电原因】由于处理紧急缺陷导致３５ＫＶ大因变电站东方纸厂线５１２线路全线停电 【变更送电】因抢修进度加快原因，送电时间由１７:００变更为１６:００ 【发布渠道】通过９５５９８发布","powerTime":"2020-01-04 15:21:18","powerComm":"已送电","subsNo":"","lineNo":"","tgNo":"","tgName":null,"infoStatus":"1","orgName":"国网徐水县供电公司","typeName":null,"infoStatusName":null,"dateDay":null,"orgNos":null,"nowTime":null,"countyName":null,"streetName":null,"villageName":null,"roadName":null,"communityName":null,"tranName":null,"sdLineName":null,"cityCode":"1340605","cityName":"国网徐水县供电公司","provinceCode":null,"stopTime":"2020-01-04 16:00:00","powerType":"全部","powerOffArea":"【全线路停电】停敬上10号【纯农排变】,敬上11号,敬上12号,敬上13号,敬上14号,敬上15号,敬上16号【纯农排变】,敬上17号【纯农排变】,敬上20号,敬上21号,敬上2号,敬上3号,敬上4号【纯农排变】,敬上5号【纯农排变】,敬上6号,敬上7号,敬上9号,客户投资_敬上5号,南贺寿营11号【纯农排变】,南贺寿营12号,南贺寿营1号,伍级11号【纯农排变】,伍级2号,伍级5号,伍级7号【纯农排变】","powerOffReason":"【停电原因】由于处理紧急缺陷导致３５ＫＶ大因变电站东方纸厂线５１２线路全线停电 【变更送电】因抢修进度加快原因，送电时间由１７:００变更为１６:００ 【发布渠道】通过９５５９８发布","powerOffId":"2020010413000020"},{"poweroffId":2020010413000019,"sgpoweroffId":null,"subsName":"","lineName":"坟庄线515","pubTranName":"马头村13#,东白羊村4#,孙家庄村1#,中黄蒿村2#,上黄蒿村2#,上白羊村7#,东流井村3#,马家庄村2#,马头村7#,真武庙村1#,北白马村5#,南流井村5#,盘神庙村5#,上白羊村5#,中黄蒿村1#,上黄蒿村3#,上白羊村9#,东白羊村1#,建新村4#,全山庄村2#,马头村14#,西白羊村2#,主良6号,马头村8#,马头村18#,建新村5#,流井小学,西流井村1#,马头村12#,北白马6号,上黄蒿村1#,上白羊村4#,东白马机井5#,建新村1#,真武庙村2#,南流井村9#,南流井村8#,全山庄1#,马头6#,真武庙村4#,南流井6#,真武庙村6#,建新村3#,孙家庄2#,北六井五台,源泉村5#,南白羊村4#,南流井村4#,西流井村2#,南白羊村5#,马头村19#,马头村11#,南流井村6#,北流井村3#,盘神庙村4#,南白羊村3#,西白羊5号,南流井村1#,源泉村1#,上白羊村3#,马头村9#,南白羊村1#,主良村2#,南流井村3#,上白羊村8#,盘神庙村2#,全山庄村3#,源泉村2#,源泉村4#,马头村5#,西白羊村1#,真武庙村5#,南白羊村6#,主良8号,马家庄10号,北白马7号,全山庄村5#,中黄蒿村3#,主良村4#,盘神庙村7#,主良1号,主良5号,上白羊村1#,上白羊村2#,中黄蒿村4#,盘神庙村3#,马头村3#,西流井村3#,盘神庙村6#,马家庄村3#,东白马村6#,东白羊村2#,马家庄村5#,真武庙村3#,西白羊村3#,马头村4#,马头村20#,马头村2#,南白羊村2#|,主良7号,马头村15#,源泉村3#,全山庄村4#,马家庄村4#,盘神庙村1#,全山庄村1#,上白羊村6#,马头村10#,真武庙村7#,西白羊4#,马头村16#,建新村6#,南流井村10#,南流井村7#,马头村1#,主良村3#,马头村17#,孙家庄村3#,南流井村2#,建新村2#,马家庄7号,上黄蒿村4#,","scope":"【影响街道/乡镇】流井乡、易州镇、白马乡、梁格庄镇【高危重要客户】无【影响客户】建新村、全山庄村、主良村、马头村、李家坟村、西流井村、南流井村、北流井村、孙家庄村、西白羊村、南白羊村、东白羊村、马家庄村、源泉村、盘神庙村、真武庙村、上白羊村、上黄蒿村、北白马村、中黄蒿村","startTime":"2020-01-04 13:30:00","stopDate":"2020-01-04 16:00:00","orgNo":"1340625","typeCode":"其他临时停电","poweroffArea":"【分支停电】停马家庄7号,上白羊村4#,马头村1#,西白羊村3#,易县农旺苗木种植农民专业合作社变压器,马头村13#,南流井6#,建新村马平变压器,河北省洪崖山国有林场管理局变压器,马头村14#,北白马6号,马家庄8号【纯农排变】,上黄蒿村1#,南白羊村7#【纯农排变】,马家庄村4#,马头村7#,西白羊5号,马家庄10号,张大勇变压器,和利金属制品有限公司,马家庄村5#,0680605801-易县绿泽农林果种植有限责任公司-专变-219705076-易县绿泽农林果种植有限责任公司-3-50KVA,源泉村6#【纯农排变】,全山庄村4#,0680607722-易县绿泽农林果种植有限责任公司-专变-219705072-易县绿泽农林果种植有限责任公司-2-50KVA,西白羊蔡永贵面粉厂,全山庄村3#,主良6号,源泉村(刘水),马头村18#,中黄蒿村4#,中黄蒿村2#,建新村2#,马家庄村2#,上黄蒿村4#,源泉村4#,西流井村1#,保定和利金属制品有限公司变压器,东白羊村1#,西流井村3#,马家庄村1#【纯农排变】,上黄蒿村3#,刘桂军变压器,盘神庙村3#,盘神庙村4#,易县中易板材有限公司变压器,东白羊村4#,西流井村2#,马头村20#,南流井村10#,易县安平土地整理服务有限公司7号50KVA,牛云田变压器,上白羊村7#,许树义,南流井村1#,北白马村5#,建新村6#,上白羊村5#,南白羊村6#,北流井村3#,上白羊村1#,马头村2#,主良村张树贵变压器,易县安平土地整理服务有限公司5号100KVA,建新村5#,真武庙村6#,中黄蒿村1#,东白羊村2#,主良村3#,马家庄9号【纯农排变】,东流井村3#,全山庄1#,众信石材有限公司,马头村10#,千佛山开发处,孙家庄村3#,盘神庙村2#,真武庙村4#,真武庙村1#,上白羊村2#,马头6#,建新村3#,0469479528-河北省洪崖山国有林场管理局-专变-46817902-白马林场,易县安禄土地整理有限公司4号50KVA,马头水库,马头村5#,建新村4#,马家庄6号【纯农排变】,主良村2#,马头村15#,主良1号,全山庄村2#,易县安禄土地整理有限公司2号-50KVA,李家坟村6#【纯农排变】,流井小学,易县安禄土地整理有限公司1号-160KVA,马头村19#,东白马机井5#,全山庄村1#,南白羊村2#|,马家庄村3#,合利金属160KVA,源泉村3#,盘神庙村6#,南流井村8#,马家庄11号【纯农排变】,上白羊村6#,孙家庄村1#,盘神庙村5#,易县安禄土地整理有限公司3号100KVA,孙家庄2#,北六井五台,上白羊村3#,洪崖山索道有限公司,南流井村6#,易县中能太阳能有限公司250KVA,马头村9#,流井中学,真武庙村2#,易县安平土地整理服务有限公司4号100KVA,主良村(砖厂),西白羊村2#,易县安平土地整理服务有限公司3号100KVA,中黄蒿村3#,南白羊村5#,南白羊村4#,东白羊村5#【纯农排变】,上白羊村9#,东白马村6#,易县乾鼎商品混凝土有限公司变压器,盘神庙村7#,马头村4#,主良7号,南流井村7#,马头村3#,主良5号,南白羊村1#,上黄蒿村2#,马头村17#,南流井村2#,主良8号,建新村1#,马头村16#,全山庄村5#,易县绿泽农林果种植有限责任公司500,河北鑫路石料有限公司变压器,西白羊4#,主良村4#,0635310273-易县农旺苗木种植农民专业合作社-专变-225175957-易县农旺苗木种植农民专业合作社-增容250KVA,南流井村5#,源泉村1#,南流井村9#,上白羊村8#,南流井村4#,南流井村3#,马头村8#,涞水县文山供水有限公司630KVA专变,易县安平土地整理服务有限公司2号100KVA,南白羊村3#,真武庙村7#,北白马7号,真武庙村5#,马头村11#,易县安平土地整理服务有限公司6号100KVA,马头村12#,真武庙村3#,西白羊村1#,源泉村2#,源泉村5#,盘神庙村1#","poweroffReason":"【停电原因】由于线路紧急消缺导致３５ＫＶ李家坟变电站坟庄线５１５线路００８号杆至０３２号杆之间停电【变更送电】无【发布渠道】通过９５５９８发布","powerTime":"2020-01-04 15:26:21","powerComm":"已送电","subsNo":"","lineNo":"","tgNo":"","tgName":null,"infoStatus":"1","orgName":"国网易县供电公司","typeName":null,"infoStatusName":null,"dateDay":null,"orgNos":null,"nowTime":null,"countyName":null,"streetName":null,"villageName":null,"roadName":null,"communityName":null,"tranName":null,"sdLineName":null,"cityCode":"1340625","cityName":"国网易县供电公司","provinceCode":null,"stopTime":"2020-01-04 16:00:00","powerType":"全部","powerOffArea":"【分支停电】停马家庄7号,上白羊村4#,马头村1#,西白羊村3#,易县农旺苗木种植农民专业合作社变压器,马头村13#,南流井6#,建新村马平变压器,河北省洪崖山国有林场管理局变压器,马头村14#,北白马6号,马家庄8号【纯农排变】,上黄蒿村1#,南白羊村7#【纯农排变】,马家庄村4#,马头村7#,西白羊5号,马家庄10号,张大勇变压器,和利金属制品有限公司,马家庄村5#,0680605801-易县绿泽农林果种植有限责任公司-专变-219705076-易县绿泽农林果种植有限责任公司-3-50KVA,源泉村6#【纯农排变】,全山庄村4#,0680607722-易县绿泽农林果种植有限责任公司-专变-219705072-易县绿泽农林果种植有限责任公司-2-50KVA,西白羊蔡永贵面粉厂,全山庄村3#,主良6号,源泉村(刘水),马头村18#,中黄蒿村4#,中黄蒿村2#,建新村2#,马家庄村2#,上黄蒿村4#,源泉村4#,西流井村1#,保定和利金属制品有限公司变压器,东白羊村1#,西流井村3#,马家庄村1#【纯农排变】,上黄蒿村3#,刘桂军变压器,盘神庙村3#,盘神庙村4#,易县中易板材有限公司变压器,东白羊村4#,西流井村2#,马头村20#,南流井村10#,易县安平土地整理服务有限公司7号50KVA,牛云田变压器,上白羊村7#,许树义,南流井村1#,北白马村5#,建新村6#,上白羊村5#,南白羊村6#,北流井村3#,上白羊村1#,马头村2#,主良村张树贵变压器,易县安平土地整理服务有限公司5号100KVA,建新村5#,真武庙村6#,中黄蒿村1#,东白羊村2#,主良村3#,马家庄9号【纯农排变】,东流井村3#,全山庄1#,众信石材有限公司,马头村10#,千佛山开发处,孙家庄村3#,盘神庙村2#,真武庙村4#,真武庙村1#,上白羊村2#,马头6#,建新村3#,0469479528-河北省洪崖山国有林场管理局-专变-46817902-白马林场,易县安禄土地整理有限公司4号50KVA,马头水库,马头村5#,建新村4#,马家庄6号【纯农排变】,主良村2#,马头村15#,主良1号,全山庄村2#,易县安禄土地整理有限公司2号-50KVA,李家坟村6#【纯农排变】,流井小学,易县安禄土地整理有限公司1号-160KVA,马头村19#,东白马机井5#,全山庄村1#,南白羊村2#|,马家庄村3#,合利金属160KVA,源泉村3#,盘神庙村6#,南流井村8#,马家庄11号【纯农排变】,上白羊村6#,孙家庄村1#,盘神庙村5#,易县安禄土地整理有限公司3号100KVA,孙家庄2#,北六井五台,上白羊村3#,洪崖山索道有限公司,南流井村6#,易县中能太阳能有限公司250KVA,马头村9#,流井中学,真武庙村2#,易县安平土地整理服务有限公司4号100KVA,主良村(砖厂),西白羊村2#,易县安平土地整理服务有限公司3号100KVA,中黄蒿村3#,南白羊村5#,南白羊村4#,东白羊村5#【纯农排变】,上白羊村9#,东白马村6#,易县乾鼎商品混凝土有限公司变压器,盘神庙村7#,马头村4#,主良7号,南流井村7#,马头村3#,主良5号,南白羊村1#,上黄蒿村2#,马头村17#,南流井村2#,主良8号,建新村1#,马头村16#,全山庄村5#,易县绿泽农林果种植有限责任公司500,河北鑫路石料有限公司变压器,西白羊4#,主良村4#,0635310273-易县农旺苗木种植农民专业合作社-专变-225175957-易县农旺苗木种植农民专业合作社-增容250KVA,南流井村5#,源泉村1#,南流井村9#,上白羊村8#,南流井村4#,南流井村3#,马头村8#,涞水县文山供水有限公司630KVA专变,易县安平土地整理服务有限公司2号100KVA,南白羊村3#,真武庙村7#,北白马7号,真武庙村5#,马头村11#,易县安平土地整理服务有限公司6号100KVA,马头村12#,真武庙村3#,西白羊村1#,源泉村2#,源泉村5#,盘神庙村1#","powerOffReason":"【停电原因】由于线路紧急消缺导致３５ＫＶ李家坟变电站坟庄线５１５线路００８号杆至０３２号杆之间停电【变更送电】无【发布渠道】通过９５５９８发布","powerOffId":"2020010413000019"},{"poweroffId":2020010413000004,"sgpoweroffId":null,"subsName":"","lineName":"10kV526曹庄子线","pubTranName":"八兄公用照明1台区,蔡庄子公用照明2台区,东庄公用照明1台区,八兄公用照明5台区,中军帐公用照明1台区,客户投资_中军帐公用照明5台区,蔡庄子公用照明4台区,八兄公用照明3台区,八兄公用照明4台区,蔡庄子公用照明3台区,八兄公用照明7台区,八兄公用照明8台区,南关公用照明1台区,","scope":"【影响街道/乡镇】西城区、南城区【高危重要客户】无【影响客户】蔡庄子、中军帐、八兄、迎泰新城、紫竹园小区及工地、普林第一城工地、南关（１０７国道）","startTime":"2020-01-04 03:25:32","stopDate":"2020-01-04 14:00:00","orgNo":"1340610","typeCode":"电网故障停限电","poweroffArea":"【全线路停电】停保定迎泰房地产开发有限公司照明1变压器1,保定迎泰房地产开发有限公司照明1变压器2,保定迎泰房地产开发有限公司照明2变压器3,八兄公用照明7台区,保定迎泰房地产开发有限公司照明1变压器4,八兄公用照明8台区,保定迎泰房地产开发有限公司照明1变压器7,南关公用照明1台区,八兄公用照明1台区,蔡庄子公用照明2台区,东庄公用照明1台区,八兄公用照明5台区,保定迎泰房地产开发有限公司照明1变压器5,保定迎泰房地产开发有限公司照明2变压器1,保定迎泰房地产开发有限公司照明2变压器2,中军帐公用照明1台区,客户投资_中军帐公用照明5台区,蔡庄子公用照明4台区,保定迎泰房地产开发有限公司照明1变压器3,八兄公用照明3台区,保定迎泰房地产开发有限公司照明1变压器6,八兄公用照明4台区,蔡庄子公用照明3台区","poweroffReason":"【停电原因】由于迎泰新城小区Ｂ区配变室进水导致１１０ＫＶ定县变电站１０ＫＶ５２６曹庄子线路全线停电 【变更送电】无 【发布渠道】９５５９８","powerTime":"2020-01-04 13:35:45","powerComm":"已送电","subsNo":"","lineNo":"","tgNo":"","tgName":null,"infoStatus":"1","orgName":"国网定州市供电公司","typeName":null,"infoStatusName":null,"dateDay":null,"orgNos":null,"nowTime":null,"countyName":null,"streetName":null,"villageName":null,"roadName":null,"communityName":null,"tranName":null,"sdLineName":null,"cityCode":"1340610","cityName":"国网定州市供电公司","provinceCode":null,"stopTime":"2020-01-04 14:00:00","powerType":"全部","powerOffArea":"【全线路停电】停保定迎泰房地产开发有限公司照明1变压器1,保定迎泰房地产开发有限公司照明1变压器2,保定迎泰房地产开发有限公司照明2变压器3,八兄公用照明7台区,保定迎泰房地产开发有限公司照明1变压器4,八兄公用照明8台区,保定迎泰房地产开发有限公司照明1变压器7,南关公用照明1台区,八兄公用照明1台区,蔡庄子公用照明2台区,东庄公用照明1台区,八兄公用照明5台区,保定迎泰房地产开发有限公司照明1变压器5,保定迎泰房地产开发有限公司照明2变压器1,保定迎泰房地产开发有限公司照明2变压器2,中军帐公用照明1台区,客户投资_中军帐公用照明5台区,蔡庄子公用照明4台区,保定迎泰房地产开发有限公司照明1变压器3,八兄公用照明3台区,保定迎泰房地产开发有限公司照明1变压器6,八兄公用照明4台区,蔡庄子公用照明3台区","powerOffReason":"【停电原因】由于迎泰新城小区Ｂ区配变室进水导致１１０ＫＶ定县变电站１０ＫＶ５２６曹庄子线路全线停电 【变更送电】无 【发布渠道】９５５９８","powerOffId":"2020010413000004"},{"poweroffId":2020010321000072,"sgpoweroffId":null,"subsName":"","lineName":"10kV阮庄站527线路","pubTranName":"B1871柱上变压器,","scope":"【影响街道/乡镇】南市区莲池南大街、南大园乡 【高危重要客户】无 【影响客户】八里庄、刘守庙煤场","startTime":"2020-01-03 21:40:00","stopDate":"2020-01-03 23:00:00","orgNo":"13406","typeCode":"电网故障停限电","poweroffArea":"【单台区停电】停B1871柱上变压器","poweroffReason":"【停电原因】由于低压架空线烧导致１０ＫＶ阮庄变电站５２７线路Ｂ１８７１公变台区停电【变更送电】提前【变更送电】因抢修进度加快，原定４日００：００送电现计划３日２３：００送电【发布渠道】通过９５５９８发布","powerTime":"2020-01-03 22:41:59","powerComm":"已送电","subsNo":"","lineNo":"","tgNo":"","tgName":null,"infoStatus":"1","orgName":"保定供电公司","typeName":null,"infoStatusName":null,"dateDay":null,"orgNos":null,"nowTime":null,"countyName":null,"streetName":null,"villageName":null,"roadName":null,"communityName":null,"tranName":null,"sdLineName":null,"cityCode":"13406","cityName":"保定供电公司","provinceCode":null,"stopTime":"2020-01-03 23:00:00","powerType":"全部","powerOffArea":"【单台区停电】停B1871柱上变压器","powerOffReason":"【停电原因】由于低压架空线烧导致１０ＫＶ阮庄变电站５２７线路Ｂ１８７１公变台区停电【变更送电】提前【变更送电】因抢修进度加快，原定４日００：００送电现计划３日２３：００送电【发布渠道】通过９５５９８发布","powerOffId":"2020010321000072"},{"poweroffId":2020010313000132,"sgpoweroffId":null,"subsName":"","lineName":"10kV火炬街549","pubTranName":"金城花园601台区,","scope":"【影响街道/乡镇】徐里营城区 【高危重要客户】无 【影响客户】金城花园","startTime":"2020-01-03 17:13:13","stopDate":"2020-01-03 19:50:00","orgNo":"1340626","typeCode":"电网故障停限电","poweroffArea":"【单台区停电】停金城花园601台区","poweroffReason":"【停电原因】由于低压空开烧毁导致１１０ＫＶ安泰变电站１０ＫＶ火炬街５４９线路金城花园６０１公变台区停电 【变更送电】因抢修进度加快原因，送电时间由２３：３０变更为１９：５０ 【发布渠道】通过９５５９８发布","powerTime":"2020-01-03 19:10:09","powerComm":"已送电","subsNo":"","lineNo":"","tgNo":"","tgName":null,"infoStatus":"1","orgName":"国网涿州市供电公司","typeName":null,"infoStatusName":null,"dateDay":null,"orgNos":null,"nowTime":null,"countyName":null,"streetName":null,"villageName":null,"roadName":null,"communityName":null,"tranName":null,"sdLineName":null,"cityCode":"1340626","cityName":"国网涿州市供电公司","provinceCode":null,"stopTime":"2020-01-03 19:50:00","powerType":"全部","powerOffArea":"【单台区停电】停金城花园601台区","powerOffReason":"【停电原因】由于低压空开烧毁导致１１０ＫＶ安泰变电站１０ＫＶ火炬街５４９线路金城花园６０１公变台区停电 【变更送电】因抢修进度加快原因，送电时间由２３：３０变更为１９：５０ 【发布渠道】通过９５５９８发布","powerOffId":"2020010313000132"}],"pageModel":{"pageNow":317,"totalCount":10973,"totalPage":1098,"tableRows":0,"pageCount":10,"beginCount":3160},"isExperi":"1"}