{"message":"","today":"2020-06-15","seleList":[{"poweroffId":2020010113000046,"sgpoweroffId":null,"subsName":"","lineName":"10kV519杨西线","pubTranName":"杨北综合5台区,杨西农排6台区【纯农排变】,杨北综合4台区,杨北综合12台区,杨西综合8台区,杨西综合10台区,杨东农排2台区【纯农排变】,元北综合10台区,杨北综合1台区,杨西综合9台区,杨西综合11台区,杨北综合10台区,杨北综合8台区,元东综合7台区,杨西综合6台区,元北综合18台区,杨北综合7台区,杨东综合11台区,杨西综合12台区,杨西综合13台区,杨北综合2台区,杨西综合4台区,元东综合3台区,杨西综合3台区,杨北综合13台区,杨北综合3台区,杨北综合11台区,杨东农排8台区【纯农排变】,元东综合12台区,元东综合5台区,杨北综合9台区,杨西综合5台区,杨西综合1台区,","scope":"【影响街道/乡镇】桑元镇【高危重要客户】无【影响客户】元北村、杨西村、杨北村、元东村、大杨庄村","startTime":"2020-01-01 10:51:53","stopDate":"2020-01-01 13:00:00","orgNo":"1340616","typeCode":"电网故障停限电","poweroffArea":"【全线路停电】停杨西综合3台区,同乐,幼儿园,杨西综合9台区,杨东农排2台区【纯农排变】,杨东农排8台区【纯农排变】,元东综合12台区,0469348516-蠡县华兴纺织有限公司-专变-46780275-华兴纺织公司,杨西综合13台区,杨西综合10台区,杨西综合4台区,杨西综合6台区,杨北综合2台区,杨北综合13台区,杨北综合1台区,何彦欣,桑园镇政府,保定美雅纺织变压器,元北综合18台区,杨北综合8台区,蠡县双建经编有限公司,杨北综合9台区,华澳石材厂,蠡园毛纺厂,杨北综合7台区,杨西纺织经编厂,杨北综合4台区,杨西九龙,杨北综合5台区,杨北综合3台区,杨北综合12台区,元东综合3台区,杨北综合11台区,杨北综合10台区,蔡团,国庆农场,杨西综合11台区,杨西综合1台区,张永兴,杨西九龙毛纺厂,元东综合5台区,杨西综合5台区,杨西针织厂,蠡县杨西孕泽纺织厂变压器,元东综合7台区,春雅纺织有限公司,杨西农排6台区【纯农排变】,元北综合10台区,杨西综合8台区,杨西综合12台区,杨北方辰针织厂变压器,杨东综合11台区","poweroffReason":"【停电原因】由于站内开关掉闸导致３５ＫＶ桑园变电站１０ＫＶ杨西５１９线路全线停电【变更送电】因抢修进度加快原因，送电时间由１９：００变更为１３：００【发布渠道】通过９５５９８发布","powerTime":"2020-01-01 12:16:07","powerComm":"已送电","subsNo":"","lineNo":"","tgNo":"","tgName":null,"infoStatus":"1","orgName":"国网蠡县供电公司","typeName":null,"infoStatusName":null,"dateDay":null,"orgNos":null,"nowTime":null,"countyName":null,"streetName":null,"villageName":null,"roadName":null,"communityName":null,"tranName":null,"sdLineName":null,"cityCode":"1340616","cityName":"国网蠡县供电公司","provinceCode":null,"stopTime":"2020-01-01 13:00:00","powerType":"全部","powerOffArea":"【全线路停电】停杨西综合3台区,同乐,幼儿园,杨西综合9台区,杨东农排2台区【纯农排变】,杨东农排8台区【纯农排变】,元东综合12台区,0469348516-蠡县华兴纺织有限公司-专变-46780275-华兴纺织公司,杨西综合13台区,杨西综合10台区,杨西综合4台区,杨西综合6台区,杨北综合2台区,杨北综合13台区,杨北综合1台区,何彦欣,桑园镇政府,保定美雅纺织变压器,元北综合18台区,杨北综合8台区,蠡县双建经编有限公司,杨北综合9台区,华澳石材厂,蠡园毛纺厂,杨北综合7台区,杨西纺织经编厂,杨北综合4台区,杨西九龙,杨北综合5台区,杨北综合3台区,杨北综合12台区,元东综合3台区,杨北综合11台区,杨北综合10台区,蔡团,国庆农场,杨西综合11台区,杨西综合1台区,张永兴,杨西九龙毛纺厂,元东综合5台区,杨西综合5台区,杨西针织厂,蠡县杨西孕泽纺织厂变压器,元东综合7台区,春雅纺织有限公司,杨西农排6台区【纯农排变】,元北综合10台区,杨西综合8台区,杨西综合12台区,杨北方辰针织厂变压器,杨东综合11台区","powerOffReason":"【停电原因】由于站内开关掉闸导致３５ＫＶ桑园变电站１０ＫＶ杨西５１９线路全线停电【变更送电】因抢修进度加快原因，送电时间由１９：００变更为１３：００【发布渠道】通过９５５９８发布","powerOffId":"2020010113000046"},{"poweroffId":2019123121000042,"sgpoweroffId":null,"subsName":"","lineName":"10kV联盟路站521线路","pubTranName":"B747柱上变压器,","scope":"【影响街道/乡镇】南市区长城大街、工农路、三丰路、焦庄乡 【高危重要客户】无 【影响客户】西韩蒋村五洲宾馆、工农路菜市场","startTime":"2019-12-31 07:40:00","stopDate":"2019-12-31 11:30:00","orgNo":"13406","typeCode":"电网故障停限电","poweroffArea":"【单台区停电】停B747柱上变压器","poweroffReason":"【停电原因】由于低压刀闸烧导致１０ＫＶ联盟路变电站５２１线路Ｂ７４７公变台区停电【变更送电】无【发布渠道】通过９５５９８发布","powerTime":"2019-12-31 11:20:43","powerComm":"已送电","subsNo":"","lineNo":"","tgNo":"","tgName":null,"infoStatus":"1","orgName":"保定供电公司","typeName":null,"infoStatusName":null,"dateDay":null,"orgNos":null,"nowTime":null,"countyName":null,"streetName":null,"villageName":null,"roadName":null,"communityName":null,"tranName":null,"sdLineName":null,"cityCode":"13406","cityName":"保定供电公司","provinceCode":null,"stopTime":"2019-12-31 11:30:00","powerType":"全部","powerOffArea":"【单台区停电】停B747柱上变压器","powerOffReason":"【停电原因】由于低压刀闸烧导致１０ＫＶ联盟路变电站５２１线路Ｂ７４７公变台区停电【变更送电】无【发布渠道】通过９５５９８发布","powerOffId":"2019123121000042"},{"poweroffId":2019123121000039,"sgpoweroffId":null,"subsName":"","lineName":"10kV花庄站522线路","pubTranName":"0357446504-保定三伊天星电气有限公司-1-箱式变－变压器－2,变压器-229786408,0648215675-保定建工集团有限公司-专变-172569408-变压器,0357291579-保定市路灯管理处(126)-1-箱式变－变压器,0588264128-河北省保定水文水资源勘测局-专变,0356219053-市轮胎经销公司-专变,0357468430-保定市路灯管理处-1-箱式变－变压器,0357468427-保定市路灯管理处-1-箱式变－变压器,0357468414-保定市路灯管理处-1-箱式变－变压器,0363389284-保定五洲汽车销售服务有限公司-1-配电室－变压器－1,0616008054-河北瀚尊房地产开发有限公司-1#专变,0357759460-保定轩宇俊鹏汽车销售服务有限公司-1-箱式变－变压器,0609097119-保定市新市区浩宇五金经销部-1-箱式变－变压器,0596978123-保定中远通讯工程有限公司-专变,变压器,0358003249-保定市振中餐巾纸厂-专变,0725149321-保定市珊瑚海温泉酒店有限公司-630KVA变压器2#,0638753662-保定市妇幼保健院-专变-148547849-变压器,0357298134-中航惠腾风电设备股份有限公司-1-箱式变－变压器,0357468502-保定市路灯管理处-1-箱式变－变压器,0358121844-中国电信集团公司保定市分公司-专变,0356435307-保定市中兴实业公司防水材料厂-专变,0673834100-保定市方硕投资有限公司-变压器,0357684609-保定华翼风电叶片研究开发有限公司-专变,0563332189-保定市公共交通总公司-1-箱式变－变压器,0357446504-保定三伊天星电气有限公司-1-箱式变－变压器－1,0638753662-保定市妇幼保健院-专变-148545645-变压器,0358528977-保定市排水总公司-1-配电室－变压器－1,0555427853-保定轩宇和筑汽车销售服务有限公司-1-箱式变－变压器,0628211967-中国人民武装警察部队保定市支队-专变-139771492-变压器,0604130400-保定市新市区鑫友运输队-专变,0356217073-保定市新市区鑫友运输队-1-配电室－变压器,0357636538-保定市通达玻璃钢厂-专变,变压器-229790777,0726765128-保定市医药有限公司-2#专变800kVA,10kVY0196.Y0197配电室Y0197配电变压器,10kVY0194.Y0195配电室Y0195配电变压器,10kVC488.C489配电室C488配电变压器,10kVC488.C489配电室C489配电变压器,10kVY0196.Y0197配电室Y0196配电变压器,0357519008-中航惠德风电工程有限公司-专变,00212192,0691826226-保定市新华书店有限责任公司-专变-1,0615367970-保定市公安消防支队-专变-128252317-变压器,0549624718-保定市棉油机械厂-专变,03","scope":"【影响街道/乡镇】新市区乐凯北大街 【高危重要客户】无 【影响客户】万和城、鲁岗新村小区、鲁岗辛庄村","startTime":"2019-12-31 06:30:00","stopDate":"2019-12-31 11:00:00","orgNo":"13406","typeCode":"电网故障停限电","poweroffArea":"【全线路停电】停10kVY0194.Y0195配电室Y0194配电变压器,10kVY0196.Y0197配电室Y0197配电变压器,10kVY0194.Y0195配电室Y0195配电变压器,10kVC488.C489配电室C488配电变压器,10kVC488.C489配电室C489配电变压器,10kVY0196.Y0197配电室Y0196配电变压器,0357519008-中航惠德风电工程有限公司-专变,00212192,0691826226-保定市新华书店有限责任公司-专变-1,0615367970-保定市公安消防支队-专变-128252317-变压器,0549624718-保定市棉油机械厂-专变,0358528977-保定市排水总公司-1-配电室－变压器－2,0630329742-六九硅业有限公司-专变-141698899-变压器,0725149321-保定市珊瑚海温泉酒店有限公司-630KVA变压器1#,0698839382-保定上谷美术馆-变压器,0356708676-保定市新市区兴旺养殖场-专变,0616008054-河北瀚尊房地产开发有限公司-2#专变,0726765128-保定市医药有限公司-1#专变800kVA,0356308384-保定市华建混凝土有限公司-专变,0358528977-保定市排水总公司-1-配电室－变压器－1,0555427853-保定轩宇和筑汽车销售服务有限公司-1-箱式变－变压器,0628211967-中国人民武装警察部队保定市支队-专变-139771492-变压器,0604130400-保定市新市区鑫友运输队-专变,0356217073-保定市新市区鑫友运输队-1-配电室－变压器,0357636538-保定市通达玻璃钢厂-专变,变压器-229790777,0638753662-保定市妇幼保健院-专变-148545645-变压器,0726765128-保定市医药有限公司-2#专变800kVA,0357446504-保定三伊天星电气有限公司-1-箱式变－变压器－2,变压器-229786408,0648215675-保定建工集团有限公司-专变-172569408-变压器,0357291579-保定市路灯管理处(126)-1-箱式变－变压器,0588264128-河北省保定水文水资源勘测局-专变,0356219053-市轮胎经销公司-专变,0357468430-保定市路灯管理处-1-箱式变－变压器,0357468427-保定市路灯管理处-1-箱式变－变压器,0357468414-保定市路灯管理处-1-箱式变－变压器,0363389284-保定五洲汽车销售服务有限公司-1-配电室－变压器－1,0616008054-河北瀚尊房地产开发有限公司-1#专变,0357759460-保定轩宇俊鹏汽车销售服务有限公司-1-箱式变－变压器,0609097119-保定市新市区浩宇五金经销部-1-箱式变－变压器,0596978123-保定中远通讯工程有限公司-专变,变压器,0358003249-保定市振中餐巾纸厂-专变,0725149321-保定市珊瑚海温泉酒店有限公司-630KVA变压器2#,0638753662-保定市妇幼保健院-专变-148547849-变压器,0357298134-中航惠腾风电设备股份有限公司-1-箱式变－变压器,0357468502-保定市路灯管理处-1-箱式变－变压器,0358121844-中国电信集团公司保定市分公司-专变,0356435307-保定市中兴实业公司防水材料厂-专变,0673834100-保定市方硕投资有限公司-变压器,0357684609-保定华翼风电叶片研究开发有限公司-专变,0563332189-保定市公共交通总公司-1-箱式变－变压器,0357446504-保定三伊天星电气有限公司-1-箱式变－变压器－1","poweroffReason":"【停电原因】由于线路接地导致１０ＫＶ花庄变电站５２２线路全线停电【变更送电】因工作正在处理中，送电时间由１０：３０变更为１１：００【发布渠道】通过９５５９８发布","powerTime":"2019-12-31 10:54:12","powerComm":"已送电","subsNo":"","lineNo":"","tgNo":"","tgName":null,"infoStatus":"1","orgName":"保定供电公司","typeName":null,"infoStatusName":null,"dateDay":null,"orgNos":null,"nowTime":null,"countyName":null,"streetName":null,"villageName":null,"roadName":null,"communityName":null,"tranName":null,"sdLineName":null,"cityCode":"13406","cityName":"保定供电公司","provinceCode":null,"stopTime":"2019-12-31 11:00:00","powerType":"全部","powerOffArea":"【全线路停电】停10kVY0194.Y0195配电室Y0194配电变压器,10kVY0196.Y0197配电室Y0197配电变压器,10kVY0194.Y0195配电室Y0195配电变压器,10kVC488.C489配电室C488配电变压器,10kVC488.C489配电室C489配电变压器,10kVY0196.Y0197配电室Y0196配电变压器,0357519008-中航惠德风电工程有限公司-专变,00212192,0691826226-保定市新华书店有限责任公司-专变-1,0615367970-保定市公安消防支队-专变-128252317-变压器,0549624718-保定市棉油机械厂-专变,0358528977-保定市排水总公司-1-配电室－变压器－2,0630329742-六九硅业有限公司-专变-141698899-变压器,0725149321-保定市珊瑚海温泉酒店有限公司-630KVA变压器1#,0698839382-保定上谷美术馆-变压器,0356708676-保定市新市区兴旺养殖场-专变,0616008054-河北瀚尊房地产开发有限公司-2#专变,0726765128-保定市医药有限公司-1#专变800kVA,0356308384-保定市华建混凝土有限公司-专变,0358528977-保定市排水总公司-1-配电室－变压器－1,0555427853-保定轩宇和筑汽车销售服务有限公司-1-箱式变－变压器,0628211967-中国人民武装警察部队保定市支队-专变-139771492-变压器,0604130400-保定市新市区鑫友运输队-专变,0356217073-保定市新市区鑫友运输队-1-配电室－变压器,0357636538-保定市通达玻璃钢厂-专变,变压器-229790777,0638753662-保定市妇幼保健院-专变-148545645-变压器,0726765128-保定市医药有限公司-2#专变800kVA,0357446504-保定三伊天星电气有限公司-1-箱式变－变压器－2,变压器-229786408,0648215675-保定建工集团有限公司-专变-172569408-变压器,0357291579-保定市路灯管理处(126)-1-箱式变－变压器,0588264128-河北省保定水文水资源勘测局-专变,0356219053-市轮胎经销公司-专变,0357468430-保定市路灯管理处-1-箱式变－变压器,0357468427-保定市路灯管理处-1-箱式变－变压器,0357468414-保定市路灯管理处-1-箱式变－变压器,0363389284-保定五洲汽车销售服务有限公司-1-配电室－变压器－1,0616008054-河北瀚尊房地产开发有限公司-1#专变,0357759460-保定轩宇俊鹏汽车销售服务有限公司-1-箱式变－变压器,0609097119-保定市新市区浩宇五金经销部-1-箱式变－变压器,0596978123-保定中远通讯工程有限公司-专变,变压器,0358003249-保定市振中餐巾纸厂-专变,0725149321-保定市珊瑚海温泉酒店有限公司-630KVA变压器2#,0638753662-保定市妇幼保健院-专变-148547849-变压器,0357298134-中航惠腾风电设备股份有限公司-1-箱式变－变压器,0357468502-保定市路灯管理处-1-箱式变－变压器,0358121844-中国电信集团公司保定市分公司-专变,0356435307-保定市中兴实业公司防水材料厂-专变,0673834100-保定市方硕投资有限公司-变压器,0357684609-保定华翼风电叶片研究开发有限公司-专变,0563332189-保定市公共交通总公司-1-箱式变－变压器,0357446504-保定三伊天星电气有限公司-1-箱式变－变压器－1","powerOffReason":"【停电原因】由于线路接地导致１０ＫＶ花庄变电站５２２线路全线停电【变更送电】因工作正在处理中，送电时间由１０：３０变更为１１：００【发布渠道】通过９５５９８发布","powerOffId":"2019123121000039"},{"poweroffId":2019123113000167,"sgpoweroffId":null,"subsName":"","lineName":"10kV521塔宣村线","pubTranName":"塔宣村公用照明4台区1,杨庄子照明6台区4队(3),杨庄子公用照明9台区,计生委公用照明一台区(1),杨庄子公用照明8台区,杨庄子照明5台区2队(2),塔宣村公用照明3台区1,","scope":"【影响街道/乡镇】西城区、赵村镇【高危重要客户】无【影响客户】杨庄子、计生委、水厂、塔宣村、塔宣村铁路以东、新华城小区、缔景城小区、蔡庄子村（北方汽车部件有限公司）","startTime":"2019-12-31 17:48:43","stopDate":"2019-12-31 23:00:00","orgNo":"1340610","typeCode":"电网故障停限电","poweroffArea":"【全线路停电】停塔宣村公用照明4台区1,杨庄子照明6台区4队(3),杨庄子公用照明9台区,计生委公用照明一台区(1),杨庄子公用照明8台区,杨庄子照明5台区2队(2),塔宣村公用照明3台区1,塔宣村公用照明1台区1,塔宣村公用照明5台区1,塔宣村公用照明2台区1","poweroffReason":"【停电原因】由于主干５３号杆隔离开关烧毁导致１１０ＫＶ定县变电站１０ＫＶ５２１塔宣村线路全线停电 【变更送电】因抢修进度加快原因，送电时间由２３：５９变更为２３：００ 【发布渠道】９５５９８　","powerTime":"2019-12-31 22:31:25","powerComm":"已送电","subsNo":"","lineNo":"","tgNo":"","tgName":null,"infoStatus":"1","orgName":"国网定州市供电公司","typeName":null,"infoStatusName":null,"dateDay":null,"orgNos":null,"nowTime":null,"countyName":null,"streetName":null,"villageName":null,"roadName":null,"communityName":null,"tranName":null,"sdLineName":null,"cityCode":"1340610","cityName":"国网定州市供电公司","provinceCode":null,"stopTime":"2019-12-31 23:00:00","powerType":"全部","powerOffArea":"【全线路停电】停塔宣村公用照明4台区1,杨庄子照明6台区4队(3),杨庄子公用照明9台区,计生委公用照明一台区(1),杨庄子公用照明8台区,杨庄子照明5台区2队(2),塔宣村公用照明3台区1,塔宣村公用照明1台区1,塔宣村公用照明5台区1,塔宣村公用照明2台区1","powerOffReason":"【停电原因】由于主干５３号杆隔离开关烧毁导致１１０ＫＶ定县变电站１０ＫＶ５２１塔宣村线路全线停电 【变更送电】因抢修进度加快原因，送电时间由２３：５９变更为２３：００ 【发布渠道】９５５９８　","powerOffId":"2019123113000167"},{"poweroffId":2019123113000156,"sgpoweroffId":null,"subsName":"","lineName":"医院线531","pubTranName":"幸福路2号变压器,华福公变,医院4#变压器,文明小区1号箱变配电变压器,文明小区4号箱变间隔配电变压器,广场南变压器间隔配电变压器,县社木材变压器,体委公变变压器,一中箱变间隔配电变压器,一小变压器,局西变台,妇幼公变变压器,幸福路一号变压器,财政局变压器,人行公变变压器,医院3#公变,二中公变变压器,医院1变压器,一中,管道局变压器间隔配电变压器,文明小区5号箱变间隔配电变压器,建筑公司公变变压器,豆豆集团变压器,一招公变变压器,太平洋公变变压器,顺源公变,计生委公变变压器,建筑公司平房变压器,老电力局变压器,农林局公变变压器,幸福路3#公变,营销楼变压器,文明小区2号箱变间隔配电变压器,广场北箱变间隔配电变压器,豆豆集团1#公变,聋哑学校公变变压器,医院2变压器,文明小区3号公变间隔配电变压器,高碑店市腾盛房地产开发有限公司变压器02,高碑店市鹏达物业服务有限公司（一招家属楼）变压器,育才路变压器,河北省高碑店市高碑店市一中1250kva变压器,高碑店市腾盛房地产开发有限公司变压器01,鹏达世纪酒店,十八局建安处,干休所2号变压器,高碑店市幸福路小学1,高碑店市隆创集中供热有限公司,高碑店市幸福路小学变压器,河北省高碑店市高碑店一中002,宜佳旺,建安公变,河北省高碑店市高碑店市一中800kva变压器,河北烟草保定分公司,高碑店市博建昱德房地产开发有限公司第一分公司,|鹏达世纪酒店,高碑店市人民政府,物业二公司变压器,国网高碑店市供电公司一号锅炉变压器,0387434577-高碑店市星光玻璃幕墙工程有限公司-专变-45273370-高碑店市星光工贸公司,保定腾盛房地产开发有限公司变压器,网通公变变压器,高碑店市特教中心变压器,十八局建安处北院,十八局家属区西区01号公变,特教中心,联通高碑店分公司2,邮电汽修变压器,高碑店市医院,河北省高碑店市高碑店一中001,0387434577-高碑店市星光玻璃幕墙工程有限公司-专变-45273302-高碑店市星光工贸公司,一小家属配电变,十八局医院配电变,十八局医院,电力局营销楼,福利汽修,干休所,高碑店市幸福路小学2,十八局家属区西区02号公变,中铁十八局集团高碑店医院,罗增宝,鹏达公变变压器,国网高碑店市供电公司二号锅炉变压器,河北省高碑店市高碑店市一中1000kva变压器,高碑店市合享成商贸有限公司,物业二公司,政府,联通高碑店分公司1,一中二,隆基泰和实业有限公司,","scope":"【影响街道/乡镇】幸福路、１１２线、二中胡同、计生委胡同 【高危重要客户】市医院、自来水公司、一中 【影响客户】干休所、腾胜家园、十八局建安处、鹏达世纪酒店、网通家属楼、武装部家属楼、一中、高碑店市特教中心、一中家属楼、一小家属楼、十八局建安处北院、特教中心家属楼、建筑公司楼房、太平洋家属楼、妇幼家属楼、汽车二队家属楼、豆豆集团家属楼、第八小学、民政局家属楼、管道局小区、文明小区、十八局医院、豪宇家园、一小、政府市委、育才街家属院","startTime":"2019-12-31 17:18:18","stopDate":"2019-12-31 18:30:00","orgNo":"1340612","typeCode":"电网故障停限电","poweroffArea":"【全线路停电】停幸福路2号变压器,华福公变,医院4#变压器,文明小区1号箱变配电变压器,文明小区4号箱变间隔配电变压器,广场南变压器间隔配电变压器,县社木材变压器,体委公变变压器,一中箱变间隔配电变压器,一小变压器,局西变台,妇幼公变变压器,幸福路一号变压器,财政局变压器,人行公变变压器,医院3#公变,二中公变变压器,医院1变压器,邮电汽修变压器,管道局变压器间隔配电变压器,文明小区5号箱变间隔配电变压器,建筑公司公变变压器,豆豆集团变压器,一招公变变压器,太平洋公变变压器,顺源公变,计生委公变变压器,建筑公司平房变压器,老电力局变压器,农林局公变变压器,幸福路3#公变,营销楼变压器,文明小区2号箱变间隔配电变压器,广场北箱变间隔配电变压器,豆豆集团1#公变,聋哑学校公变变压器,医院2变压器,文明小区3号公变间隔配电变压器,高碑店市腾盛房地产开发有限公司变压器02,高碑店市鹏达物业服务有限公司（一招家属楼）变压器,育才路变压器,一中,河北省高碑店市高碑店市一中1250kva变压器,高碑店市腾盛房地产开发有限公司变压器01,干休所2号变压器,高碑店市隆创集中供热有限公司,高碑店市幸福路小学变压器,河北省高碑店市高碑店一中002,宜佳旺,建安公变,河北省高碑店市高碑店市一中800kva变压器,河北烟草保定分公司,高碑店市博建昱德房地产开发有限公司第一分公司,|鹏达世纪酒店,高碑店市人民政府,物业二公司变压器,国网高碑店市供电公司一号锅炉变压器,0387434577-高碑店市星光玻璃幕墙工程有限公司-专变-45273370-高碑店市星光工贸公司,保定腾盛房地产开发有限公司变压器,网通公变变压器,高碑店市特教中心变压器,十八局建安处北院,十八局家属区西区01号公变,特教中心,联通高碑店分公司2,隆基泰和实业有限公司,高碑店市医院,河北省高碑店市高碑店一中001,0387434577-高碑店市星光玻璃幕墙工程有限公司-专变-45273302-高碑店市星光工贸公司,一小家属配电变,十八局医院配电变,十八局医院,电力局营销楼,福利汽修,干休所,高碑店市幸福路小学2,十八局家属区西区02号公变,中铁十八局集团高碑店医院,罗增宝,鹏达公变变压器,国网高碑店市供电公司二号锅炉变压器,河北省高碑店市高碑店市一中1000kva变压器,高碑店市合享成商贸有限公司,物业二公司,政府,联通高碑店分公司1,一中二,鹏达世纪酒店,十八局建安处,高碑店市幸福路小学1","poweroffReason":"【停电原因】由于开关跳闸导致１１０ＫＶ方家务变电站１０ＫＶ医院５３１线路全线停电 【变更送电】因抢修进度加快原因，送电时间由２３：００变更为１８：３０ 【发布渠道】通过９５５９８发布","powerTime":"2019-12-31 18:15:22","powerComm":"已送电","subsNo":"","lineNo":"","tgNo":"","tgName":null,"infoStatus":"1","orgName":"国网高碑店市供电公司","typeName":null,"infoStatusName":null,"dateDay":null,"orgNos":null,"nowTime":null,"countyName":null,"streetName":null,"villageName":null,"roadName":null,"communityName":null,"tranName":null,"sdLineName":null,"cityCode":"1340612","cityName":"国网高碑店市供电公司","provinceCode":null,"stopTime":"2019-12-31 18:30:00","powerType":"全部","powerOffArea":"【全线路停电】停幸福路2号变压器,华福公变,医院4#变压器,文明小区1号箱变配电变压器,文明小区4号箱变间隔配电变压器,广场南变压器间隔配电变压器,县社木材变压器,体委公变变压器,一中箱变间隔配电变压器,一小变压器,局西变台,妇幼公变变压器,幸福路一号变压器,财政局变压器,人行公变变压器,医院3#公变,二中公变变压器,医院1变压器,邮电汽修变压器,管道局变压器间隔配电变压器,文明小区5号箱变间隔配电变压器,建筑公司公变变压器,豆豆集团变压器,一招公变变压器,太平洋公变变压器,顺源公变,计生委公变变压器,建筑公司平房变压器,老电力局变压器,农林局公变变压器,幸福路3#公变,营销楼变压器,文明小区2号箱变间隔配电变压器,广场北箱变间隔配电变压器,豆豆集团1#公变,聋哑学校公变变压器,医院2变压器,文明小区3号公变间隔配电变压器,高碑店市腾盛房地产开发有限公司变压器02,高碑店市鹏达物业服务有限公司（一招家属楼）变压器,育才路变压器,一中,河北省高碑店市高碑店市一中1250kva变压器,高碑店市腾盛房地产开发有限公司变压器01,干休所2号变压器,高碑店市隆创集中供热有限公司,高碑店市幸福路小学变压器,河北省高碑店市高碑店一中002,宜佳旺,建安公变,河北省高碑店市高碑店市一中800kva变压器,河北烟草保定分公司,高碑店市博建昱德房地产开发有限公司第一分公司,|鹏达世纪酒店,高碑店市人民政府,物业二公司变压器,国网高碑店市供电公司一号锅炉变压器,0387434577-高碑店市星光玻璃幕墙工程有限公司-专变-45273370-高碑店市星光工贸公司,保定腾盛房地产开发有限公司变压器,网通公变变压器,高碑店市特教中心变压器,十八局建安处北院,十八局家属区西区01号公变,特教中心,联通高碑店分公司2,隆基泰和实业有限公司,高碑店市医院,河北省高碑店市高碑店一中001,0387434577-高碑店市星光玻璃幕墙工程有限公司-专变-45273302-高碑店市星光工贸公司,一小家属配电变,十八局医院配电变,十八局医院,电力局营销楼,福利汽修,干休所,高碑店市幸福路小学2,十八局家属区西区02号公变,中铁十八局集团高碑店医院,罗增宝,鹏达公变变压器,国网高碑店市供电公司二号锅炉变压器,河北省高碑店市高碑店市一中1000kva变压器,高碑店市合享成商贸有限公司,物业二公司,政府,联通高碑店分公司1,一中二,鹏达世纪酒店,十八局建安处,高碑店市幸福路小学1","powerOffReason":"【停电原因】由于开关跳闸导致１１０ＫＶ方家务变电站１０ＫＶ医院５３１线路全线停电 【变更送电】因抢修进度加快原因，送电时间由２３：００变更为１８：３０ 【发布渠道】通过９５５９８发布","powerOffId":"2019123113000156"},{"poweroffId":2019123113000146,"sgpoweroffId":null,"subsName":"","lineName":"宋桥线516","pubTranName":"北晋庄羊场新增综合,07082|北晋庄村西2综合3565,07091|北晋庄村西综合3729,07238|北晋庄村北新增综合5576,北晋庄村北农排3#【纯农排变】,07044|三岔口村西北综合3736,07042|三岔口村东综合3673,07090|北晋庄村北综合3728,07043|三岔口村西南综合3672,07045|三岔口综合3619,","scope":"【影响街道/乡镇】晋庄乡 【高危重要客户】无 【影响客户】北晋庄村北部分、三岔口村","startTime":"2020-01-01 00:30:00","stopDate":"2020-01-01 03:00:00","orgNo":"1340613","typeCode":"其他临时停电","poweroffArea":"【全线路停电】停晁燕合线厂,北晋庄17号农排【纯农排变】,高阳县凯通织物厂变压器,保定凯曼毛纺织品制造有限公司变压器,三岔口3#农排【纯农排变】,三岔口1#农排【纯农排变】,高阳县晋庄镇北晋庄村四变压器,东方皮毛厂,高阳县盛鸿纺织品制造有限公司变压器,晋庄中学变压器,北晋庄村西北农排5#【纯农排变】,高阳县明远纺织有限公司变压器,苇元屯面粉厂,振华皮毛厂,李红格织布厂,北晋庄16号农排【纯农排变】,王刚,北晋庄12号农排【纯农排变】,070016|北晋庄村西农排（5）5146【纯农排变】,07044|三岔口村西北综合3736,北晋庄村北农排3#【纯农排变】,北晋庄13号农排【纯农排变】,曙光北毛巾厂,义兴毛纺厂,北晋庄18号农排【纯农排变】,北晋庄11号农排【纯农排变】,蒋小贺地毯厂,三岔口5号农排【纯农排变】,高阳县晋庄镇北晋庄村一变压器,高阳县朋乐纺织厂变压器,07042|三岔口村东综合3673,昌旗佳润纺织品有限公司,07238|北晋庄村北新增综合5576,金丰毛纺厂,晁小燕合线厂,高阳县晋庄镇北晋庄村二变压器,三岔口2#农排【纯农排变】,07091|北晋庄村西综合3729,07045|三岔口综合3619,07082|北晋庄村西2综合3565,三岔口8#农排【纯农排变】,三岔口4#农排【纯农排变】,07090|北晋庄村北综合3728,07043|三岔口村西南综合3672,北晋庄村北农排4#【纯农排变】,北晋庄羊场新增综合,北晋庄2号农排【纯农排变】","poweroffReason":"【停电原因】由于更换线夹导致３５ＫＶ杨佐变电站宋桥５１６线路全线停电【变更送电】无【发布渠道】通过９５５９８发布","powerTime":"2020-01-01 02:01:11","powerComm":"已送电","subsNo":"","lineNo":"","tgNo":"","tgName":null,"infoStatus":"1","orgName":"国网高阳县供电公司","typeName":null,"infoStatusName":null,"dateDay":null,"orgNos":null,"nowTime":null,"countyName":null,"streetName":null,"villageName":null,"roadName":null,"communityName":null,"tranName":null,"sdLineName":null,"cityCode":"1340613","cityName":"国网高阳县供电公司","provinceCode":null,"stopTime":"2020-01-01 03:00:00","powerType":"全部","powerOffArea":"【全线路停电】停晁燕合线厂,北晋庄17号农排【纯农排变】,高阳县凯通织物厂变压器,保定凯曼毛纺织品制造有限公司变压器,三岔口3#农排【纯农排变】,三岔口1#农排【纯农排变】,高阳县晋庄镇北晋庄村四变压器,东方皮毛厂,高阳县盛鸿纺织品制造有限公司变压器,晋庄中学变压器,北晋庄村西北农排5#【纯农排变】,高阳县明远纺织有限公司变压器,苇元屯面粉厂,振华皮毛厂,李红格织布厂,北晋庄16号农排【纯农排变】,王刚,北晋庄12号农排【纯农排变】,070016|北晋庄村西农排（5）5146【纯农排变】,07044|三岔口村西北综合3736,北晋庄村北农排3#【纯农排变】,北晋庄13号农排【纯农排变】,曙光北毛巾厂,义兴毛纺厂,北晋庄18号农排【纯农排变】,北晋庄11号农排【纯农排变】,蒋小贺地毯厂,三岔口5号农排【纯农排变】,高阳县晋庄镇北晋庄村一变压器,高阳县朋乐纺织厂变压器,07042|三岔口村东综合3673,昌旗佳润纺织品有限公司,07238|北晋庄村北新增综合5576,金丰毛纺厂,晁小燕合线厂,高阳县晋庄镇北晋庄村二变压器,三岔口2#农排【纯农排变】,07091|北晋庄村西综合3729,07045|三岔口综合3619,07082|北晋庄村西2综合3565,三岔口8#农排【纯农排变】,三岔口4#农排【纯农排变】,07090|北晋庄村北综合3728,07043|三岔口村西南综合3672,北晋庄村北农排4#【纯农排变】,北晋庄羊场新增综合,北晋庄2号农排【纯农排变】","powerOffReason":"【停电原因】由于更换线夹导致３５ＫＶ杨佐变电站宋桥５１６线路全线停电【变更送电】无【发布渠道】通过９５５９８发布","powerOffId":"2019123113000146"},{"poweroffId":2019123113000144,"sgpoweroffId":null,"subsName":"","lineName":"辛立庄553","pubTranName":"杨辛庄3号农变压器【纯农排变】,杜村东1变压器,辛三南变压器,杜村南变压器,韩村营南变压器,杨辛庄北变压器,杜村西3变压器,","scope":"【影响街道/乡镇】辛立庄镇 【高危重要客户】无 【影响客户】高碑店市辛立庄韩村营井龙塑料件加工厂、高碑店市辛立庄鑫宏宇木门加工厂、时成海、刘笑天、杨辛庄成江塑件厂、高碑店市强昊技术信息服务农民专业合作社、高碑店市辛立庄镇杨辛庄村村民委员会、高碑店市辛立庄峰源养猪场、高碑店市辛立庄幼儿园、高碑店市洁洁环卫服务有限公司、杨辛庄、杜村、辛二、辛三东、辛三农、辛三南、辛一南一、韩村营","startTime":"2019-12-31 16:50:05","stopDate":"2019-12-31 18:30:00","orgNo":"1340612","typeCode":"电网故障停限电","poweroffArea":"【全线路停电】停杜村西3变压器,杨辛庄3号农变压器【纯农排变】,杜村东1变压器,辛三南变压器,杜村南变压器,燎原公司东,杜村东变压器,韩村营内变压器,韩村营南农变压器【纯农排变】,韩村营东变压器,高碑店市辛立庄幼儿园变压器,辛二东变压器,辛二农变压器【纯农排变】,杨辛庄南1变压器,时成海,辛三2号农变压器【纯农排变】,辛二2号农排变压器【纯农排变】,辛三东变压器,辛二西变压器,杨辛庄东变压器,杜村西1变压器,杨辛庄2号农变压器【纯农排变】,杜村南农变压器【纯农排变】,韩村营南变压器,杜村西变压器,高碑店市辛立庄远宏不锈钢厂1变压器,杨辛庄北变压器,辛三农（磁卡）变压器【纯农排变】,辛一南1变压器,变压器,杨辛庄南变压器,新一村南变压器【纯农排变】,杨辛庄1号农变压器【纯农排变】,韩村营农（磁卡）变压器【纯农排变】,高碑店市强昊技术信息服务农民专业合作社2#变压器,辛三东北变压器,柳振喜,辛三东南排灌（磁卡）变压器【纯农排变】,高碑店市强昊技术信息服务农民专业合作社1#变压器,韩村营东南变压器,高碑店市张六庄国义水泥制品厂,高碑店市辛立庄镇杨辛庄村村民委员会变压器,辛二南变压器,刘笑天,高碑店市辛立庄远宏不锈钢厂2变压器,高碑店市辛立庄峰源养猪场变压器","poweroffReason":"【停电原因】由于洁洁环卫公司设备线夹烧毁导致１１０ＫＶ陈八庄变电站１０ＫＶ辛立庄５５３线路全线停电 【变更送电】因抢修进度加快原因，送电时间由２３：００变更为１８：３０ 【发布渠道】通过９５５９８发布","powerTime":"2019-12-31 18:17:38","powerComm":"已送电","subsNo":"","lineNo":"","tgNo":"","tgName":null,"infoStatus":"1","orgName":"国网高碑店市供电公司","typeName":null,"infoStatusName":null,"dateDay":null,"orgNos":null,"nowTime":null,"countyName":null,"streetName":null,"villageName":null,"roadName":null,"communityName":null,"tranName":null,"sdLineName":null,"cityCode":"1340612","cityName":"国网高碑店市供电公司","provinceCode":null,"stopTime":"2019-12-31 18:30:00","powerType":"全部","powerOffArea":"【全线路停电】停杜村西3变压器,杨辛庄3号农变压器【纯农排变】,杜村东1变压器,辛三南变压器,杜村南变压器,燎原公司东,杜村东变压器,韩村营内变压器,韩村营南农变压器【纯农排变】,韩村营东变压器,高碑店市辛立庄幼儿园变压器,辛二东变压器,辛二农变压器【纯农排变】,杨辛庄南1变压器,时成海,辛三2号农变压器【纯农排变】,辛二2号农排变压器【纯农排变】,辛三东变压器,辛二西变压器,杨辛庄东变压器,杜村西1变压器,杨辛庄2号农变压器【纯农排变】,杜村南农变压器【纯农排变】,韩村营南变压器,杜村西变压器,高碑店市辛立庄远宏不锈钢厂1变压器,杨辛庄北变压器,辛三农（磁卡）变压器【纯农排变】,辛一南1变压器,变压器,杨辛庄南变压器,新一村南变压器【纯农排变】,杨辛庄1号农变压器【纯农排变】,韩村营农（磁卡）变压器【纯农排变】,高碑店市强昊技术信息服务农民专业合作社2#变压器,辛三东北变压器,柳振喜,辛三东南排灌（磁卡）变压器【纯农排变】,高碑店市强昊技术信息服务农民专业合作社1#变压器,韩村营东南变压器,高碑店市张六庄国义水泥制品厂,高碑店市辛立庄镇杨辛庄村村民委员会变压器,辛二南变压器,刘笑天,高碑店市辛立庄远宏不锈钢厂2变压器,高碑店市辛立庄峰源养猪场变压器","powerOffReason":"【停电原因】由于洁洁环卫公司设备线夹烧毁导致１１０ＫＶ陈八庄变电站１０ＫＶ辛立庄５５３线路全线停电 【变更送电】因抢修进度加快原因，送电时间由２３：００变更为１８：３０ 【发布渠道】通过９５５９８发布","powerOffId":"2019123113000144"},{"poweroffId":2019123113000116,"sgpoweroffId":null,"subsName":"","lineName":"钢厂572","pubTranName":"西张家庄村4#,北白马村3#,中白马村3#,西张家庄村3#,东白马村7#,西白马村2#,北白马村4#,南白马村1#,西张家庄村1#,南白马村4#,苏家坟村2#,北白马村1#,中白马村1#,南白马村10#,东白马村3#,北白马村2#,东白马村4#,西白马村1#,苏家坟村3#,西张家庄村2#,东白马村1#,西白马村4#,中白马村2#,东白马9号,东白马村2#,苏家坟村1#,苏家坟村5#,南白马村2#,西白马村3#,苏家坟六号,","scope":"【影响街道/乡镇】白马乡【高危重要客户】无【影响客户】瑞霞桥、西张家庄村、中白马村、东白马村、西白马村、南白马村、北白马村","startTime":"2019-12-31 14:12:44","stopDate":"2019-12-31 18:00:00","orgNo":"1340625","typeCode":"电网故障停限电","poweroffArea":"【全线路停电】停中白马村3#,西张家庄村3#,北白马村2#,中白马村2#,东白马村3#,东白马村1#,苏家坟村5#,南白马村1#,东白马村7#,西张家庄村2#,南白马村2#,西白马村2#,北白马村3#,北白马村1#,东白马村4#,西白马村1#,西白马村3#,苏家坟村1#,中白马村1#,北白马村4#,东白马9号,苏家坟村3#,苏家坟村2#,南白马村4#,西张家庄村4#,西张家庄村1#,南白马村10#,西白马村4#,苏家坟六号,东白马村2#","poweroffReason":"【停电原因】由于速断跳闸导致１１０ＫＶ店北变电站钢厂５７２线路全线停电【变更送电】无【发布渠道】通过９５５９８发布","powerTime":"2019-12-31 17:06:53","powerComm":"已送电","subsNo":"","lineNo":"","tgNo":"","tgName":null,"infoStatus":"1","orgName":"国网易县供电公司","typeName":null,"infoStatusName":null,"dateDay":null,"orgNos":null,"nowTime":null,"countyName":null,"streetName":null,"villageName":null,"roadName":null,"communityName":null,"tranName":null,"sdLineName":null,"cityCode":"1340625","cityName":"国网易县供电公司","provinceCode":null,"stopTime":"2019-12-31 18:00:00","powerType":"全部","powerOffArea":"【全线路停电】停中白马村3#,西张家庄村3#,北白马村2#,中白马村2#,东白马村3#,东白马村1#,苏家坟村5#,南白马村1#,东白马村7#,西张家庄村2#,南白马村2#,西白马村2#,北白马村3#,北白马村1#,东白马村4#,西白马村1#,西白马村3#,苏家坟村1#,中白马村1#,北白马村4#,东白马9号,苏家坟村3#,苏家坟村2#,南白马村4#,西张家庄村4#,西张家庄村1#,南白马村10#,西白马村4#,苏家坟六号,东白马村2#","powerOffReason":"【停电原因】由于速断跳闸导致１１０ＫＶ店北变电站钢厂５７２线路全线停电【变更送电】无【发布渠道】通过９５５９８发布","powerOffId":"2019123113000116"},{"poweroffId":2019123113000114,"sgpoweroffId":null,"subsName":"","lineName":"10kV562东张谦线","pubTranName":"东张欠公用照明10台区,东张欠公用照明7台区,东张欠公用照明9台区,东张欠公用照明13台区,客户投资_东张欠村公用照明3台区,东张欠村公用照明4台区,东张欠公用照明12台区,东张欠公用照明8台区,东张欠公用照明1台区,东张欠村公用照明5台区,东张欠公用照明2台区,东张欠村公用照明6台区,东张欠公用照明11台区,西张欠公用照明15台区柱上变压器,","scope":"【影响街道/乡镇】叮咛店镇【高危重要客户】无【影响客户】东张谦、西张谦","startTime":"2019-12-31 13:57:46","stopDate":"2019-12-31 15:00:00","orgNo":"1340610","typeCode":"电网故障停限电","poweroffArea":"【全线路停电】停东张欠公用照明10台区,东张欠公用照明7台区,东张欠公用照明9台区,东张欠公用照明13台区,客户投资_东张欠村公用照明3台区,东张欠村公用照明4台区,东张欠公用照明12台区,东张欠公用照明8台区,东张欠公用照明1台区,东张欠村公用照明5台区,东张欠公用照明2台区,东张欠村公用照明6台区,东张欠公用照明11台区,西张欠公用照明15台区柱上变压器","poweroffReason":"【停电原因】由于中山纺织配变烧毁导致１１０ＫＶ叮咛店变电站１０ＫＶ５６２东张谦线路全线停电 【变更送电】因抢修进度加快原因，送电时间由１９：００变更为１５：００ 【发布渠道】９５５９８","powerTime":"2019-12-31 14:21:53","powerComm":"已送电","subsNo":"","lineNo":"","tgNo":"","tgName":null,"infoStatus":"1","orgName":"国网定州市供电公司","typeName":null,"infoStatusName":null,"dateDay":null,"orgNos":null,"nowTime":null,"countyName":null,"streetName":null,"villageName":null,"roadName":null,"communityName":null,"tranName":null,"sdLineName":null,"cityCode":"1340610","cityName":"国网定州市供电公司","provinceCode":null,"stopTime":"2019-12-31 15:00:00","powerType":"全部","powerOffArea":"【全线路停电】停东张欠公用照明10台区,东张欠公用照明7台区,东张欠公用照明9台区,东张欠公用照明13台区,客户投资_东张欠村公用照明3台区,东张欠村公用照明4台区,东张欠公用照明12台区,东张欠公用照明8台区,东张欠公用照明1台区,东张欠村公用照明5台区,东张欠公用照明2台区,东张欠村公用照明6台区,东张欠公用照明11台区,西张欠公用照明15台区柱上变压器","powerOffReason":"【停电原因】由于中山纺织配变烧毁导致１１０ＫＶ叮咛店变电站１０ＫＶ５６２东张谦线路全线停电 【变更送电】因抢修进度加快原因，送电时间由１９：００变更为１５：００ 【发布渠道】９５５９８","powerOffId":"2019123113000114"},{"poweroffId":2019123113000104,"sgpoweroffId":null,"subsName":"","lineName":"10kV540南定线路","pubTranName":"南定村3590【纯农排变】,","scope":"【影响街道/乡镇】义和庄乡 【高危重要客户】无 【影响客户】南定村","startTime":"2019-12-31 12:29:38","stopDate":"2019-12-31 16:20:00","orgNo":"1340626","typeCode":"电网故障停限电","poweroffArea":"【单台区停电】停南定村3590【纯农排变】","poweroffReason":"【停电原因】由于低压空开烧毁导致１１０ＫＶ刁窝变电站１０ＫＶ５４０南定线路南定村３５９０公变台区停电 【变更送电】因抢修进度加快原因，送电时间由１９：００变更为１６：２０ 【发布渠道】通过９５５９８发布","powerTime":"2019-12-31 15:43:18","powerComm":"恢复送电","subsNo":"","lineNo":"","tgNo":"","tgName":null,"infoStatus":"1","orgName":"国网涿州市供电公司","typeName":null,"infoStatusName":null,"dateDay":null,"orgNos":null,"nowTime":null,"countyName":null,"streetName":null,"villageName":null,"roadName":null,"communityName":null,"tranName":null,"sdLineName":null,"cityCode":"1340626","cityName":"国网涿州市供电公司","provinceCode":null,"stopTime":"2019-12-31 16:20:00","powerType":"全部","powerOffArea":"【单台区停电】停南定村3590【纯农排变】","powerOffReason":"【停电原因】由于低压空开烧毁导致１１０ＫＶ刁窝变电站１０ＫＶ５４０南定线路南定村３５９０公变台区停电 【变更送电】因抢修进度加快原因，送电时间由１９：００变更为１６：２０ 【发布渠道】通过９５５９８发布","powerOffId":"2019123113000104"}],"pageModel":{"pageNow":320,"totalCount":10973,"totalPage":1098,"tableRows":0,"pageCount":10,"beginCount":3190},"isExperi":"1"}