{"message":"","today":"2020-06-15","seleList":[{"poweroffId":2019123113000062,"sgpoweroffId":null,"subsName":"","lineName":"10kV512工专线","pubTranName":"10kV512工专线冠丰公寓15435台区变压器,10kV512工专线王寅乱家属院07269台区变压器,0469535264-河北利志凯房地产开发有限公司-专变-46834035-大成精密铸造有限公司,0469533545-大成(博野)机械有限责任公司-专变-119551660-大成（博野） 机械有限责任公司,河北龙冠丰房地产开发有限公司,0469533545-大成(博野)机械有限责任公司-专变-119551656-大成（博野） 机械有限责任公司,富丽华大酒店,0469533545-大成(博野)机械有限责任公司-专变-46834038-大成（博野） 机械有限责任公司,龙冠丰,","scope":"【影响街道/乡镇】博野镇【高危重要客户】无【影响客户】富丽华酒店、冠丰公寓、裕丰家园、大成公司","startTime":"2019-12-31 10:00:00","stopDate":"2019-12-31 16:00:00","orgNo":"1340608","typeCode":"电网故障停限电","poweroffArea":"【全线路停电】停富丽华大酒店,0469533545-大成(博野)机械有限责任公司-专变-46834038-大成（博野） 机械有限责任公司,10kV512工专线王寅乱家属院07269台区变压器,0469535264-河北利志凯房地产开发有限公司-专变-46834035-大成精密铸造有限公司,龙冠丰,0469533545-大成(博野)机械有限责任公司-专变-119551660-大成（博野） 机械有限责任公司,10kV512工专线冠丰公寓15435台区变压器,河北龙冠丰房地产开发有限公司,0469533545-大成(博野)机械有限责任公司-专变-119551656-大成（博野） 机械有限责任公司","poweroffReason":"【停电原因】由于线路接地导致１１０ＫＶ博野变电站工专５１２线路全线停电【变更送电】因抢修进度加快原因，送电时间由２０：００变更为１６：００【发布渠道】通过９５５９８发布","powerTime":"2019-12-31 15:42:45","powerComm":"已送电","subsNo":"","lineNo":"","tgNo":"","tgName":null,"infoStatus":"1","orgName":"国网博野县供电公司","typeName":null,"infoStatusName":null,"dateDay":null,"orgNos":null,"nowTime":null,"countyName":null,"streetName":null,"villageName":null,"roadName":null,"communityName":null,"tranName":null,"sdLineName":null,"cityCode":"1340608","cityName":"国网博野县供电公司","provinceCode":null,"stopTime":"2019-12-31 16:00:00","powerType":"全部","powerOffArea":"【全线路停电】停富丽华大酒店,0469533545-大成(博野)机械有限责任公司-专变-46834038-大成（博野） 机械有限责任公司,10kV512工专线王寅乱家属院07269台区变压器,0469535264-河北利志凯房地产开发有限公司-专变-46834035-大成精密铸造有限公司,龙冠丰,0469533545-大成(博野)机械有限责任公司-专变-119551660-大成（博野） 机械有限责任公司,10kV512工专线冠丰公寓15435台区变压器,河北龙冠丰房地产开发有限公司,0469533545-大成(博野)机械有限责任公司-专变-119551656-大成（博野） 机械有限责任公司","powerOffReason":"【停电原因】由于线路接地导致１１０ＫＶ博野变电站工专５１２线路全线停电【变更送电】因抢修进度加快原因，送电时间由２０：００变更为１６：００【发布渠道】通过９５５９８发布","powerOffId":"2019123113000062"},{"poweroffId":2019123113000057,"sgpoweroffId":null,"subsName":"","lineName":"10KV511城内线","pubTranName":"10KV511城内线屯庄07383台区变压器,10KV511城内线博雅IC1208柱上变压器,10KV511城内线北白沙07012柱上变压器,10KV城内511线尚品小区变压器,10KV511城内线畜牧局07072柱上变压器,10KV511城内线屯庄07058柱上变压器,10KV511城内线屯庄78359台区变压器,10KV511城内线北白沙07066柱上变压器,10KV511城内线计生局家属院07006台区变压器,10KV511城内线博雅07558变压器,10KV511城内线温馨家园07083柱上变压器,10KV511城内线博雅尚品2变压器,10KV511城内线保险公司07348台区变压器,10KV511城内线北白沙07045柱上变压器,10kV城内线511财政局07371台区变压器,10KV511城内线农林局家属院07029柱上变压器,10KV511城内线土产07187台区变压器,10KV511城内线财险家属院台区变压器,10KV511城内线北白沙07023柱上变压器,10KV511城内线屯庄村07102台区变压器,10KV511城内线西街07282柱上变压器,10KV511城内线西街07281柱上变压器,10KV511城内线西街07368柱上变压器,10kV城内511线计生局IC台区变压器,10KV511城内线油库07067柱上变压器,10kV511城内线西街52908台区变压器,10kV511城内线地税公用41243台区变压器,10kV511城内线油棉07025台区变压器,10KV511城内线四季07146柱上变压器,10KV511城内线春蕾07003柱上变压器,","scope":"【影响街道/乡镇】博野镇【高危重要客户】无【影响客户】财险家属院、煤建家属院、农林局家属院、粮局家属院、良缘小区、尚城国际西区、尚城国际东区、土地局、油棉厂家属院、计生局、财政局家属院、党校、博雅家园、温馨家园、恒鼎商业街、屯庄村、党校家属院、博兴西路、北白沙村、名仕家苑小区、民政局、博兴中路、西街村、地税局、畜牧局、法院","startTime":"2019-12-31 08:43:33","stopDate":"2019-12-31 16:00:00","orgNo":"1340608","typeCode":"电网故障停限电","poweroffArea":"【全线路停电】停10KV511城内线屯庄07383台区变压器,10KV511城内线博雅IC1208柱上变压器,10KV511城内线北白沙07012柱上变压器,10KV城内511线尚品小区变压器,10KV511城内线畜牧局07072柱上变压器,10KV511城内线屯庄07058柱上变压器,10KV511城内线屯庄78359台区变压器,10KV511城内线北白沙07066柱上变压器,10KV511城内线计生局家属院07006台区变压器,10KV511城内线博雅07558变压器,10KV511城内线温馨家园07083柱上变压器,10KV511城内线博雅尚品2变压器,10KV511城内线保险公司07348台区变压器,10KV511城内线北白沙07045柱上变压器,10kV城内线511财政局07371台区变压器,10KV511城内线农林局家属院07029柱上变压器,10KV511城内线土产07187台区变压器,10KV511城内线财险家属院台区变压器,10KV511城内线北白沙07023柱上变压器,10KV511城内线屯庄村07102台区变压器,10KV511城内线西街07282柱上变压器,10KV511城内线西街07281柱上变压器,10KV511城内线西街07368柱上变压器,10kV城内511线计生局IC台区变压器,10KV511城内线油库07067柱上变压器,10kV511城内线西街52908台区变压器,10kV511城内线地税公用41243台区变压器,10kV511城内线油棉07025台区变压器,10KV511城内线四季07146柱上变压器,10KV511城内线春蕾07003柱上变压器","poweroffReason":"【停电原因】由于线路接地导致１１０ＫＶ博野变电站城内５１１线路全线停电【变更送电】因抢修进度加快原因，送电时间由２０：００变更为１６：００【发布渠道】通过９５５９８发布","powerTime":"2019-12-31 15:38:42","powerComm":"已送电","subsNo":"","lineNo":"","tgNo":"","tgName":null,"infoStatus":"1","orgName":"国网博野县供电公司","typeName":null,"infoStatusName":null,"dateDay":null,"orgNos":null,"nowTime":null,"countyName":null,"streetName":null,"villageName":null,"roadName":null,"communityName":null,"tranName":null,"sdLineName":null,"cityCode":"1340608","cityName":"国网博野县供电公司","provinceCode":null,"stopTime":"2019-12-31 16:00:00","powerType":"全部","powerOffArea":"【全线路停电】停10KV511城内线屯庄07383台区变压器,10KV511城内线博雅IC1208柱上变压器,10KV511城内线北白沙07012柱上变压器,10KV城内511线尚品小区变压器,10KV511城内线畜牧局07072柱上变压器,10KV511城内线屯庄07058柱上变压器,10KV511城内线屯庄78359台区变压器,10KV511城内线北白沙07066柱上变压器,10KV511城内线计生局家属院07006台区变压器,10KV511城内线博雅07558变压器,10KV511城内线温馨家园07083柱上变压器,10KV511城内线博雅尚品2变压器,10KV511城内线保险公司07348台区变压器,10KV511城内线北白沙07045柱上变压器,10kV城内线511财政局07371台区变压器,10KV511城内线农林局家属院07029柱上变压器,10KV511城内线土产07187台区变压器,10KV511城内线财险家属院台区变压器,10KV511城内线北白沙07023柱上变压器,10KV511城内线屯庄村07102台区变压器,10KV511城内线西街07282柱上变压器,10KV511城内线西街07281柱上变压器,10KV511城内线西街07368柱上变压器,10kV城内511线计生局IC台区变压器,10KV511城内线油库07067柱上变压器,10kV511城内线西街52908台区变压器,10kV511城内线地税公用41243台区变压器,10kV511城内线油棉07025台区变压器,10KV511城内线四季07146柱上变压器,10KV511城内线春蕾07003柱上变压器","powerOffReason":"【停电原因】由于线路接地导致１１０ＫＶ博野变电站城内５１１线路全线停电【变更送电】因抢修进度加快原因，送电时间由２０：００变更为１６：００【发布渠道】通过９５５９８发布","powerOffId":"2019123113000057"},{"poweroffId":2019123113000019,"sgpoweroffId":null,"subsName":"","lineName":"于城岭515","pubTranName":"大岭沟村1#学校,口子村1#,桥家河村1#村中,大岭沟村2#,桥家河4#,桥家河村2#,桥家河村3#,口子村2#,","scope":"【影响街道/乡镇】桥家河乡【高危重要客户】无【影响客户】桥家河村、口子村、大岭沟村","startTime":"2019-12-31 03:02:41","stopDate":"2019-12-31 09:30:00","orgNo":"1340625","typeCode":"电网故障停限电","poweroffArea":"【全线路停电】停(赵玉江),泰岩石材加工厂(王东全),0469489893-易县金山矿业有限公司-专变-47815904-金山矿业有限公司(2300KVA),于城30KVA,桥家河村2#,大岭沟村1#学校,易县洪起土地整理有限公司100KVA,洪财铁选厂,口子村2#,口子村1#,桥家河4#,0469489893-易县金山矿业有限公司-专变-47815892-金山矿业有限公司(2300KVA),于城800,桥家河村1#村中,0469489893-易县金山矿业有限公司-专变-47815898-金山矿业有限公司(2300KVA)","poweroffReason":"【停电原因】由于Ｂ相接地导致３５ＫＶ桥家河变电站于城岭５１５线路全线停电【变更送电】因抢修进度加快原因，送电时间由１２：００变更为０９：３０【发布渠道】通过９５５９８发布","powerTime":"2019-12-31 08:59:17","powerComm":"已送电","subsNo":"","lineNo":"","tgNo":"","tgName":null,"infoStatus":"1","orgName":"国网易县供电公司","typeName":null,"infoStatusName":null,"dateDay":null,"orgNos":null,"nowTime":null,"countyName":null,"streetName":null,"villageName":null,"roadName":null,"communityName":null,"tranName":null,"sdLineName":null,"cityCode":"1340625","cityName":"国网易县供电公司","provinceCode":null,"stopTime":"2019-12-31 09:30:00","powerType":"全部","powerOffArea":"【全线路停电】停(赵玉江),泰岩石材加工厂(王东全),0469489893-易县金山矿业有限公司-专变-47815904-金山矿业有限公司(2300KVA),于城30KVA,桥家河村2#,大岭沟村1#学校,易县洪起土地整理有限公司100KVA,洪财铁选厂,口子村2#,口子村1#,桥家河4#,0469489893-易县金山矿业有限公司-专变-47815892-金山矿业有限公司(2300KVA),于城800,桥家河村1#村中,0469489893-易县金山矿业有限公司-专变-47815898-金山矿业有限公司(2300KVA)","powerOffReason":"【停电原因】由于Ｂ相接地导致３５ＫＶ桥家河变电站于城岭５１５线路全线停电【变更送电】因抢修进度加快原因，送电时间由１２：００变更为０９：３０【发布渠道】通过９５５９８发布","powerOffId":"2019123113000019"},{"poweroffId":2019123021000063,"sgpoweroffId":null,"subsName":"","lineName":"10kV联盟路站521线路","pubTranName":"B747柱上变压器,C3008柱上变压器,0562664681-保定市华舜房地产开发有限公司-2#专变,B002柱上变压器,B1934柱上变压器,10kVB1163配电室B1163配电变压器,","scope":"【影响街道/乡镇】莲池区工农路、长城大街、红旗路、红星路、高保路、三丰路、南大园乡、东金庄乡 【高危重要客户】无 【影响客户】西韩蒋村、岳庄村、焦庄村、石油设备机械加工厂、华舜房地产开发有限公司、公用事业建设集团、盐库、宏远、华瞬学府小区、中华纺织、乳品厂、天宏汽车贸易、保定机电设备总公司","startTime":"2019-12-30 17:00:00","stopDate":"2019-12-31 08:00:00","orgNo":"13406","typeCode":"电网故障停限电","poweroffArea":"【分支停电】停B747柱上变压器,C3008柱上变压器,0562664681-保定市华舜房地产开发有限公司-2#专变,B002柱上变压器,B1934柱上变压器,10kVB1163配电室B1163配电变压器","poweroffReason":"【停电原因】由于分支开关掉闸导致１０ＫＶ联盟路变电站５２１线路４５号开关以下停电【变更送电】因工作正在处理中，送电时间由０３：００变更为０８：００【发布渠道】通过９５５９８发布","powerTime":"2019-12-31 07:32:03","powerComm":"已送电","subsNo":"","lineNo":"","tgNo":"","tgName":null,"infoStatus":"1","orgName":"保定供电公司","typeName":null,"infoStatusName":null,"dateDay":null,"orgNos":null,"nowTime":null,"countyName":null,"streetName":null,"villageName":null,"roadName":null,"communityName":null,"tranName":null,"sdLineName":null,"cityCode":"13406","cityName":"保定供电公司","provinceCode":null,"stopTime":"2019-12-31 08:00:00","powerType":"全部","powerOffArea":"【分支停电】停B747柱上变压器,C3008柱上变压器,0562664681-保定市华舜房地产开发有限公司-2#专变,B002柱上变压器,B1934柱上变压器,10kVB1163配电室B1163配电变压器","powerOffReason":"【停电原因】由于分支开关掉闸导致１０ＫＶ联盟路变电站５２１线路４５号开关以下停电【变更送电】因工作正在处理中，送电时间由０３：００变更为０８：００【发布渠道】通过９５５９８发布","powerOffId":"2019123021000063"},{"poweroffId":2019123013000154,"sgpoweroffId":null,"subsName":"","lineName":"市政线511","pubTranName":"公安3号变压器,建委公变变压器,今日家园,建设局变压器,","scope":"【影响街道/乡镇】迎宾路南侧、兴华中路、玖玖胡同 【高危重要客户】无 【影响客户】今日家园、老公安局家属楼、建委家属楼、金盾小区、人保家属楼","startTime":"2019-12-31 00:30:00","stopDate":"2019-12-31 02:30:00","orgNo":"1340612","typeCode":"其他临时停电","poweroffArea":"【分支停电】停公安3号变压器,建委公变变压器,今日家园,建设局变压器","poweroffReason":"【停电原因】由于金盾小区高压计量打火需紧急处理导致１１０ＫＶ方家务变电站１０ＫＶ市政５１１线路０３号断路器以下停电 【变更送电】无 【发布渠道】通过９５５９８发布","powerTime":"2019-12-31 02:08:55","powerComm":"已送电","subsNo":"","lineNo":"","tgNo":"","tgName":null,"infoStatus":"1","orgName":"国网高碑店市供电公司","typeName":null,"infoStatusName":null,"dateDay":null,"orgNos":null,"nowTime":null,"countyName":null,"streetName":null,"villageName":null,"roadName":null,"communityName":null,"tranName":null,"sdLineName":null,"cityCode":"1340612","cityName":"国网高碑店市供电公司","provinceCode":null,"stopTime":"2019-12-31 02:30:00","powerType":"全部","powerOffArea":"【分支停电】停公安3号变压器,建委公变变压器,今日家园,建设局变压器","powerOffReason":"【停电原因】由于金盾小区高压计量打火需紧急处理导致１１０ＫＶ方家务变电站１０ＫＶ市政５１１线路０３号断路器以下停电 【变更送电】无 【发布渠道】通过９５５９８发布","powerOffId":"2019123013000154"},{"poweroffId":2019123013000145,"sgpoweroffId":null,"subsName":"","lineName":"10kV清苑线528","pubTranName":"1唐庄内1（清苑线528）,1丰台内8,1丰台内3,1四平庄内9,1四平庄内3,1丰台内2,1唐庄内3（清苑线528）,1四平庄内1,1四平庄内4,1唐庄内8,1小祝泽内3,1唐庄内4（清苑线528）,1四平庄内10,1小祝泽内2,1丰台内7,1唐庄内5（清苑线528）,1唐庄内9,1丰台内5,1四平庄内8,国网河北电动汽车服务有限公司,1小祝泽内4,1丰台内1,1丰台内6,1丰台内9,1四平庄内6,1唐庄内2（清苑线528）,1四平庄内5,2丰台外12【纯农排变】,1唐庄内7,1四平庄内7,1四平庄内2,1丰台内4,1唐庄内6（清苑线528）,","scope":"【影响街道/乡镇】五尧乡 【高危重要客户】无 【影响客户】小祝泽、四平庄、唐庄、丰台","startTime":"2019-12-30 18:59:21","stopDate":"2019-12-31 12:00:00","orgNo":"1340618","typeCode":"电网故障停限电","poweroffArea":"【全线路停电】停1四平庄内9,2唐庄外9（清苑线528）【纯农排变】,1四平庄内3,丰台村北,大激店村铁道南,张艳忠玻璃钢厂,1丰台内2,1四平庄内1,四平庄杨东浩,保定市路灯管理处,1四平庄内4,1唐庄内8,1小祝泽内3,丰台村委会,1唐庄内4（清苑线528）,1四平庄内10,0574973319-大祝泽村委会-专变-127156820-大祝泽村委会2,0580332892-小祝泽村委会-专变-124553056-小祝泽村委会,保定市公路管理局,保定市联誉邦德无纺织物制造有限公司,2唐庄外5（清苑线528）【纯农排变】,1小祝泽内2,0591515541-保定市爱特鑫诚汽车配件制造有限公司-专变-125699150-保定市爱特鑫诚汽车配件制造有限公司,2唐庄外2（清苑线528）【纯农排变】,1四平庄内8,1丰台内9,跃华印染厂,农大苗圃场,2丰台外5【纯农排变】,0564343953-保定市新市区木林森沙发厂-专变-118608334-保定市新市区木林森沙发厂,小祝泽村委会,1四平庄内6,方正机械厂,2唐庄外6（清苑线528）【纯农排变】,1丰台内7,1唐庄内5（清苑线528）,保定市海塑建材制造有限公司,保定市信诚不锈钢有限公司,2丰台外4【纯农排变】,1唐庄内9,保定市兆丰食品有限责任公司,保定川江卫生用品有限公司01,0584274691-保定市聚丰食品罐头厂-专变-124962616-保定市聚丰食品罐头厂,保定市华润油脂化工有限公司,保定市天硕新能源工贸有限公司,1丰台内5,国网河北电动汽车服务有限公司,2丰台外17【纯农排变】,2唐庄外3（清苑线528）【纯农排变】,保定市金谷硕面粉有限公司2,保定市鑫鹏砼业有限公司,保定市玖路幸汽车装饰材料有限公司02,2丰台外8【纯农排变】,保定市新市区恒信纸制品加工厂,保定市中天恒信电器设备有限公司,保定市南市区祝强造纸厂一分厂,河北华宁环保设备有限公司,1小祝泽内4,1丰台内1,2丰台外24【纯农排变】,2丰台外1【纯农排变】,2丰台外6【纯农排变】,保定市鑫鹏砼业有限公司01,保定市康之源餐具消毒有限公司1,保定市雨林科技有限公司,2小祝泽外2【纯农排变】,保定市南市区牧丰奶农专业合作社,2唐庄外4（清苑线528）【纯农排变】,1丰台内6,保定市路灯管理处01#,1唐庄内3（清苑线528）,保定市春泽园蔬菜种植有限公司,2丰台外21【纯农排变】,保定市新市区锦上峰家具厂,2丰台外12【纯农排变】,保定市南市区奥胜美装饰材料厂,|保定市南市区福发造纸厂2,2四平庄外1【纯农排变】,2四平庄外2【纯农排变】,1唐庄内7,0562700615-保定市金富兴纸箱包装有限公司-专变-118458653-保定市金富兴纸箱包装有限公司,1四平庄内7,2丰台外7【纯农排变】,0615854425-保定市海伟达纸制品加工有限公司-专变-128300368-保定市海伟达纸制品加工有限公司,0615521525-保定市三联包装制品有限公司-专变-128258252-保定市三联包装制品有限公司,周青钢厂,0684246493-保定市大鹏货物运输有限公司-专变-223601568-保定市大鹏货物运输有限公司,保定市正汉机械制造有限公司,2唐庄外8（清苑线528）【纯农排变】,保定市新市区龙泉橡胶厂,0387499389-保定市海伟达纸制品加工有限公司-专变-45320650-保定市南市区国兴纸箱厂,河北省保定市高级技工学校,保定市倡源汽车配件有限公司,保定市南市区鑫保油化厂,0626299680-保定市新市区大祝泽果蔬销售农民专业合作社-专变-138791787-保定市新市区大祝泽果蔬销售农民专业合作社,2丰台外22【纯农排变】,1四平庄内2,2四平庄外6【纯农排变】,保定市莲池区五尧乡中心幼儿园,保定市万特汽车贸易有限公司,2丰台外14【纯农排变】,0574973319-大祝泽村委会-专变-123915289-大祝泽村委会,1丰台内4,0387499190-保定市聚丰食品罐头厂-专变-45320667-","poweroffReason":"【停电原因】由于主干３８号杆至４０号杆电缆炸导致１１０ＫＶ祝泽变电站１０ＫＶ清苑线５２８线路全线停电 【变更送电】因故障未彻底排除，送电时间由１１：００变更为１２：００ 【发布渠道】通过９５５９８发布","powerTime":"2019-12-31 11:11:55","powerComm":"崔春燕通知已送电","subsNo":"","lineNo":"","tgNo":"","tgName":null,"infoStatus":"1","orgName":"国网清苑县供电公司","typeName":null,"infoStatusName":null,"dateDay":null,"orgNos":null,"nowTime":null,"countyName":null,"streetName":null,"villageName":null,"roadName":null,"communityName":null,"tranName":null,"sdLineName":null,"cityCode":"1340618","cityName":"国网清苑县供电公司","provinceCode":null,"stopTime":"2019-12-31 12:00:00","powerType":"全部","powerOffArea":"【全线路停电】停1四平庄内9,2唐庄外9（清苑线528）【纯农排变】,1四平庄内3,丰台村北,大激店村铁道南,张艳忠玻璃钢厂,1丰台内2,1四平庄内1,四平庄杨东浩,保定市路灯管理处,1四平庄内4,1唐庄内8,1小祝泽内3,丰台村委会,1唐庄内4（清苑线528）,1四平庄内10,0574973319-大祝泽村委会-专变-127156820-大祝泽村委会2,0580332892-小祝泽村委会-专变-124553056-小祝泽村委会,保定市公路管理局,保定市联誉邦德无纺织物制造有限公司,2唐庄外5（清苑线528）【纯农排变】,1小祝泽内2,0591515541-保定市爱特鑫诚汽车配件制造有限公司-专变-125699150-保定市爱特鑫诚汽车配件制造有限公司,2唐庄外2（清苑线528）【纯农排变】,1四平庄内8,1丰台内9,跃华印染厂,农大苗圃场,2丰台外5【纯农排变】,0564343953-保定市新市区木林森沙发厂-专变-118608334-保定市新市区木林森沙发厂,小祝泽村委会,1四平庄内6,方正机械厂,2唐庄外6（清苑线528）【纯农排变】,1丰台内7,1唐庄内5（清苑线528）,保定市海塑建材制造有限公司,保定市信诚不锈钢有限公司,2丰台外4【纯农排变】,1唐庄内9,保定市兆丰食品有限责任公司,保定川江卫生用品有限公司01,0584274691-保定市聚丰食品罐头厂-专变-124962616-保定市聚丰食品罐头厂,保定市华润油脂化工有限公司,保定市天硕新能源工贸有限公司,1丰台内5,国网河北电动汽车服务有限公司,2丰台外17【纯农排变】,2唐庄外3（清苑线528）【纯农排变】,保定市金谷硕面粉有限公司2,保定市鑫鹏砼业有限公司,保定市玖路幸汽车装饰材料有限公司02,2丰台外8【纯农排变】,保定市新市区恒信纸制品加工厂,保定市中天恒信电器设备有限公司,保定市南市区祝强造纸厂一分厂,河北华宁环保设备有限公司,1小祝泽内4,1丰台内1,2丰台外24【纯农排变】,2丰台外1【纯农排变】,2丰台外6【纯农排变】,保定市鑫鹏砼业有限公司01,保定市康之源餐具消毒有限公司1,保定市雨林科技有限公司,2小祝泽外2【纯农排变】,保定市南市区牧丰奶农专业合作社,2唐庄外4（清苑线528）【纯农排变】,1丰台内6,保定市路灯管理处01#,1唐庄内3（清苑线528）,保定市春泽园蔬菜种植有限公司,2丰台外21【纯农排变】,保定市新市区锦上峰家具厂,2丰台外12【纯农排变】,保定市南市区奥胜美装饰材料厂,|保定市南市区福发造纸厂2,2四平庄外1【纯农排变】,2四平庄外2【纯农排变】,1唐庄内7,0562700615-保定市金富兴纸箱包装有限公司-专变-118458653-保定市金富兴纸箱包装有限公司,1四平庄内7,2丰台外7【纯农排变】,0615854425-保定市海伟达纸制品加工有限公司-专变-128300368-保定市海伟达纸制品加工有限公司,0615521525-保定市三联包装制品有限公司-专变-128258252-保定市三联包装制品有限公司,周青钢厂,0684246493-保定市大鹏货物运输有限公司-专变-223601568-保定市大鹏货物运输有限公司,保定市正汉机械制造有限公司,2唐庄外8（清苑线528）【纯农排变】,保定市新市区龙泉橡胶厂,0387499389-保定市海伟达纸制品加工有限公司-专变-45320650-保定市南市区国兴纸箱厂,河北省保定市高级技工学校,保定市倡源汽车配件有限公司,保定市南市区鑫保油化厂,0626299680-保定市新市区大祝泽果蔬销售农民专业合作社-专变-138791787-保定市新市区大祝泽果蔬销售农民专业合作社,2丰台外22【纯农排变】,1四平庄内2,2四平庄外6【纯农排变】,保定市莲池区五尧乡中心幼儿园,保定市万特汽车贸易有限公司,2丰台外14【纯农排变】,0574973319-大祝泽村委会-专变-123915289-大祝泽村委会,1丰台内4,0387499190-保定市聚丰食品罐头厂-专变-45320667-","powerOffReason":"【停电原因】由于主干３８号杆至４０号杆电缆炸导致１１０ＫＶ祝泽变电站１０ＫＶ清苑线５２８线路全线停电 【变更送电】因故障未彻底排除，送电时间由１１：００变更为１２：００ 【发布渠道】通过９５５９８发布","powerOffId":"2019123013000145"},{"poweroffId":2019123013000102,"sgpoweroffId":null,"subsName":"","lineName":"10kV560杨村线","pubTranName":"西杨村公用照明14台区,东杨村公用照明6台区,西杨村公用照明11台区,西杨村公用照明18台区,东杨村公用照明1台区,西杨村公用照明13台区,东杨村公用照明4台区,西杨村公用照明2台区,东杨村公用照明7台区,西杨村照明10台区,西杨村公用照明7台区,东杨村公用照明10台区配变,叮咛村公用照明2台区,西杨村公用照明9台区,东杨村公用照明9台区,西杨村公用照明8台区,西杨村公用照明15台区,东杨村公用照明2台区,东杨村公用照明8台区,叮咛村公用照明4台区,叮咛村公用照明3台区,西杨村公用照明16台区,西杨村公用照明4台区,东杨村公用照明5台区,西杨村公用照明5台区,东杨村公用照明3台区,西杨村公用照明1台区,叮咛村公用照明1台区,西杨村公用照明6台区,西杨村公用照明17台区,西杨村公用照明3台区,西杨村公用照明12台区,","scope":"【影响街道/乡镇】叮咛店镇【高危重要客户】无【影响客户】叮咛村、东杨村、西杨村","startTime":"2019-12-30 15:52:57","stopDate":"2019-12-30 19:00:00","orgNo":"1340610","typeCode":"电网故障停限电","poweroffArea":"【全线路停电】停西杨村公用照明14台区,东杨村公用照明6台区,西杨村公用照明11台区,西杨村公用照明18台区,东杨村公用照明1台区,西杨村公用照明13台区,东杨村公用照明4台区,西杨村公用照明2台区,东杨村公用照明7台区,西杨村照明10台区,西杨村公用照明7台区,西杨村公用照明8台区,西杨村公用照明15台区,东杨村公用照明2台区,东杨村公用照明8台区,叮咛村公用照明4台区,叮咛村公用照明3台区,西杨村公用照明16台区,西杨村公用照明4台区,东杨村公用照明5台区,西杨村公用照明5台区,东杨村公用照明3台区,西杨村公用照明1台区,叮咛村公用照明1台区,西杨村公用照明6台区,西杨村公用照明17台区,东杨村公用照明10台区配变,叮咛村公用照明2台区,西杨村公用照明9台区,东杨村公用照明9台区,西杨村公用照明3台区,西杨村公用照明12台区","poweroffReason":"【停电原因】由于新开道分支０７号杆Ｂ相绑线脱落搭担导致１１０ＫＶ叮咛店变电站１０ＫＶ５６０杨村线路全线停电 【变更送电】因抢修进度加快原因，送电时间由２２：００变更为１９：００ 【发布渠道】９５５９８","powerTime":"2019-12-30 18:58:31","powerComm":"已送电","subsNo":"","lineNo":"","tgNo":"","tgName":null,"infoStatus":"1","orgName":"国网定州市供电公司","typeName":null,"infoStatusName":null,"dateDay":null,"orgNos":null,"nowTime":null,"countyName":null,"streetName":null,"villageName":null,"roadName":null,"communityName":null,"tranName":null,"sdLineName":null,"cityCode":"1340610","cityName":"国网定州市供电公司","provinceCode":null,"stopTime":"2019-12-30 19:00:00","powerType":"全部","powerOffArea":"【全线路停电】停西杨村公用照明14台区,东杨村公用照明6台区,西杨村公用照明11台区,西杨村公用照明18台区,东杨村公用照明1台区,西杨村公用照明13台区,东杨村公用照明4台区,西杨村公用照明2台区,东杨村公用照明7台区,西杨村照明10台区,西杨村公用照明7台区,西杨村公用照明8台区,西杨村公用照明15台区,东杨村公用照明2台区,东杨村公用照明8台区,叮咛村公用照明4台区,叮咛村公用照明3台区,西杨村公用照明16台区,西杨村公用照明4台区,东杨村公用照明5台区,西杨村公用照明5台区,东杨村公用照明3台区,西杨村公用照明1台区,叮咛村公用照明1台区,西杨村公用照明6台区,西杨村公用照明17台区,东杨村公用照明10台区配变,叮咛村公用照明2台区,西杨村公用照明9台区,东杨村公用照明9台区,西杨村公用照明3台区,西杨村公用照明12台区","powerOffReason":"【停电原因】由于新开道分支０７号杆Ｂ相绑线脱落搭担导致１１０ＫＶ叮咛店变电站１０ＫＶ５６０杨村线路全线停电 【变更送电】因抢修进度加快原因，送电时间由２２：００变更为１９：００ 【发布渠道】９５５９８","powerOffId":"2019123013000102"},{"poweroffId":2019123013000091,"sgpoweroffId":null,"subsName":"","lineName":"市政线511","pubTranName":"公安1号变压器,文明2号变压器,公安2号变压器,百货2号公变变压器,文明4号公变,公安4号变压器,文明1号公变变压器,局北1号变压器,电业局东院变压器,建委公变变压器,文明3号公变,干休所1号变压器,百货1号变压器,八通市场变压器,公安3号变压器,","scope":"【影响街道/乡镇】迎宾路南侧、文明街、兴华南街、玖玖胡同、民族路、华福胡同 【高危重要客户】无 【影响客户】文明家园、燕赵花园、民乐小区、永安酒店、二小家属楼、今日家园、民族路灯、盛世商场、老公安局家属楼、建委家属楼、八通市场、橡胶厂家属楼、家兴商厦、燕赵大街、金盾小区、人保家属楼、现代商厦、防疫站家属楼、中安大厦、腾盛家园","startTime":"2019-12-30 14:40:53","stopDate":"2019-12-30 15:30:00","orgNo":"1340612","typeCode":"电网故障停限电","poweroffArea":"【全线路停电】停百货1号变压器,八通市场变压器,公安3号变压器,河北民乐小区630变压器,市乾禧服装厂,文明3号公变,公安1号变压器,高碑店市永安印铁制罐有限责任公司变压器,文明家园,文明4号公变,公安4号变压器,文明1号公变变压器,高碑店市文化物业有限公司,家兴,电业局东院变压器,建委公变变压器,干休所1号变压器,今日家园,燕赵花园,高碑店市路灯管理办公室（现代商厦）变压器,局北1号变压器,建设局变压器,高碑店市文化物业有限公司2变压器,高碑店市盛世商业有限公司变压器,现代商厦,高碑店市文明南路幼儿园变压器,电业局-02,电业局-01,河北民乐地产开发有限责任公司变压器,河北民乐房地产开发有限责任公司,房产,盛世广场,民族路灯,玖玖商厦变压器,文明2号变压器,公安2号变压器,百货2号公变变压器","poweroffReason":"【停电原因】由于兴华路分支金盾小区高压计量烧坏导致１１０ＫＶ方家务变电站１０ＫＶ市政５１１线路全线停电 【变更送电】因抢修进度加快原因，送电时间由１８：００变更为１５：３０ 【发布渠道】通过９５５９８发布","powerTime":"2019-12-30 15:13:37","powerComm":"已送电","subsNo":"","lineNo":"","tgNo":"","tgName":null,"infoStatus":"1","orgName":"国网高碑店市供电公司","typeName":null,"infoStatusName":null,"dateDay":null,"orgNos":null,"nowTime":null,"countyName":null,"streetName":null,"villageName":null,"roadName":null,"communityName":null,"tranName":null,"sdLineName":null,"cityCode":"1340612","cityName":"国网高碑店市供电公司","provinceCode":null,"stopTime":"2019-12-30 15:30:00","powerType":"全部","powerOffArea":"【全线路停电】停百货1号变压器,八通市场变压器,公安3号变压器,河北民乐小区630变压器,市乾禧服装厂,文明3号公变,公安1号变压器,高碑店市永安印铁制罐有限责任公司变压器,文明家园,文明4号公变,公安4号变压器,文明1号公变变压器,高碑店市文化物业有限公司,家兴,电业局东院变压器,建委公变变压器,干休所1号变压器,今日家园,燕赵花园,高碑店市路灯管理办公室（现代商厦）变压器,局北1号变压器,建设局变压器,高碑店市文化物业有限公司2变压器,高碑店市盛世商业有限公司变压器,现代商厦,高碑店市文明南路幼儿园变压器,电业局-02,电业局-01,河北民乐地产开发有限责任公司变压器,河北民乐房地产开发有限责任公司,房产,盛世广场,民族路灯,玖玖商厦变压器,文明2号变压器,公安2号变压器,百货2号公变变压器","powerOffReason":"【停电原因】由于兴华路分支金盾小区高压计量烧坏导致１１０ＫＶ方家务变电站１０ＫＶ市政５１１线路全线停电 【变更送电】因抢修进度加快原因，送电时间由１８：００变更为１５：３０ 【发布渠道】通过９５５９８发布","powerOffId":"2019123013000091"},{"poweroffId":2019123013000086,"sgpoweroffId":null,"subsName":"","lineName":"10kV东黄线512","pubTranName":"王场南变压器,魏庄北变压器,王场6号变台,南黄村变压器,东黄南2变压器,南黄东台区,丰盛庄南2变压器,乔古寺东1变压器,乔古寺东2变压器,南黄南2变压器,丰盛庄南三,王场东南2变压器,南黄西台变压器,丰盛庄西变压器,王场东南1变压器,王场北3变压器,南黄南变压器,","scope":"【影响街道/乡镇】泗庄镇、白沟镇 【高危重要客户】无 【影响客户】南黄村、东黄村（部分）、魏庄村、乔古寺村、王场村、丰盛庄村、高碑店市泗庄东黄小学、保定白沟新城王场学校、保定海山雨鞋制造有限公司、高碑店市博荣拉链有限公司、高碑店市同兴畜牧有限公司(王家场)、张爽、利达橡塑制品厂、诚信拉杆厂、东黄丰华人造革厂、京华人造革厂、天和橡塑制品厂、魏庄砖厂、高碑店市华宝塑料制品有限责任公司、高碑店市公安局交通管理大队、社办厂、高碑店市欣荣海绵纸厂、保定博德广信皮革制品有限公司、宏丰人造革厂、三福饭店、高碑店市邓庄春晖面粉厂、新华油质化工厂、张艺萌、高碑店市鑫益隆塑胶有限公司","startTime":"2019-12-30 13:35:18","stopDate":"2019-12-30 15:10:00","orgNo":"1340612","typeCode":"电网故障停限电","poweroffArea":"【全线路停电】停丰盛庄西变压器,丰盛庄南变压器,东黄西南变压器,丰盛庄北变压器,王场东变压器,高碑店市欣荣海绵纸厂,高碑店市泗庄迪航硕鞋厂,南黄东台区,保定森泽汽车销售有限公司,丰盛庄南三,平占杰,高碑店市博荣拉链有限公司,丰盛庄西南地变压器【纯农排变】,王场6号变台,油厂东,王场东南1变压器,春晖面粉厂,乔古寺东变压器,王场西北变压器,东黄南2变压器,魏庄西地变压器,东黄地变压器【纯农排变】,南黄南变压器,魏庄村变压器,南黄村东地【纯农排变】,保定白沟新城王场学校,王场东南台变压器,丰盛庄西2变压器,高碑店市鑫益隆塑料有限公司变压器,高碑店市同兴畜牧有限公司（王家场）变压器,南黄西地变压器【纯农排变】,王场南变压器,陶文祥革厂3,王场南地变压器【纯农排变】,魏庄北变压器,魏庄西南地变压器【纯农排变】,王场北变压器,王场东地变压器【纯农排变】,交警中队,丰盛庄南2变压器,新华油质化工厂,乔古寺东北地变压器,王场西南地变压器【纯农排变】,泗庄供电所变压器,南黄南2变压器,王场北地变压器【纯农排变】,乔古寺东1变压器,南黄西台变压器,客户投资_东黄南变压器,乔古寺地变压器【纯农排变】,王志丰,王场北3变压器,于广才革厂,冯宝赤革厂,陶文祥革厂1,油厂,乔古寺东2变压器,陶文祥革厂 2,张金明革厂,乔古寺西台变压器,南黄村变压器,未庄砖厂,河北省保定市高碑店市泗庄乡高碑店泗庄供电所,丰盛庄村变压器,魏庄地变压器,0387437068-世纪大道北东台-专变-45274563-世纪大道北东台,乔古寺西南地变压器【纯农排变】,东黄村变压器,高碑店市泗庄镇东黄小学,王场东南2变压器","poweroffReason":"【停电原因】由于乔古寺大分支２３号杆刮上锡纸导致３５ＫＶ泗庄变电站１０ＫＶ东黄５１２线路全线停电 【变更送电】因抢修进度加快原因，送电时间由１８：００变更为１５：１０ 【发布渠道】通过９５５９８发布","powerTime":"2019-12-30 14:55:22","powerComm":"已送电","subsNo":"","lineNo":"","tgNo":"","tgName":null,"infoStatus":"1","orgName":"国网高碑店市供电公司","typeName":null,"infoStatusName":null,"dateDay":null,"orgNos":null,"nowTime":null,"countyName":null,"streetName":null,"villageName":null,"roadName":null,"communityName":null,"tranName":null,"sdLineName":null,"cityCode":"1340612","cityName":"国网高碑店市供电公司","provinceCode":null,"stopTime":"2019-12-30 15:10:00","powerType":"全部","powerOffArea":"【全线路停电】停丰盛庄西变压器,丰盛庄南变压器,东黄西南变压器,丰盛庄北变压器,王场东变压器,高碑店市欣荣海绵纸厂,高碑店市泗庄迪航硕鞋厂,南黄东台区,保定森泽汽车销售有限公司,丰盛庄南三,平占杰,高碑店市博荣拉链有限公司,丰盛庄西南地变压器【纯农排变】,王场6号变台,油厂东,王场东南1变压器,春晖面粉厂,乔古寺东变压器,王场西北变压器,东黄南2变压器,魏庄西地变压器,东黄地变压器【纯农排变】,南黄南变压器,魏庄村变压器,南黄村东地【纯农排变】,保定白沟新城王场学校,王场东南台变压器,丰盛庄西2变压器,高碑店市鑫益隆塑料有限公司变压器,高碑店市同兴畜牧有限公司（王家场）变压器,南黄西地变压器【纯农排变】,王场南变压器,陶文祥革厂3,王场南地变压器【纯农排变】,魏庄北变压器,魏庄西南地变压器【纯农排变】,王场北变压器,王场东地变压器【纯农排变】,交警中队,丰盛庄南2变压器,新华油质化工厂,乔古寺东北地变压器,王场西南地变压器【纯农排变】,泗庄供电所变压器,南黄南2变压器,王场北地变压器【纯农排变】,乔古寺东1变压器,南黄西台变压器,客户投资_东黄南变压器,乔古寺地变压器【纯农排变】,王志丰,王场北3变压器,于广才革厂,冯宝赤革厂,陶文祥革厂1,油厂,乔古寺东2变压器,陶文祥革厂 2,张金明革厂,乔古寺西台变压器,南黄村变压器,未庄砖厂,河北省保定市高碑店市泗庄乡高碑店泗庄供电所,丰盛庄村变压器,魏庄地变压器,0387437068-世纪大道北东台-专变-45274563-世纪大道北东台,乔古寺西南地变压器【纯农排变】,东黄村变压器,高碑店市泗庄镇东黄小学,王场东南2变压器","powerOffReason":"【停电原因】由于乔古寺大分支２３号杆刮上锡纸导致３５ＫＶ泗庄变电站１０ＫＶ东黄５１２线路全线停电 【变更送电】因抢修进度加快原因，送电时间由１８：００变更为１５：１０ 【发布渠道】通过９５５９８发布","powerOffId":"2019123013000086"},{"poweroffId":2019123013000060,"sgpoweroffId":null,"subsName":"","lineName":"烟草585","pubTranName":"饲料院公用,","scope":"【影响街道/乡镇】清苑镇 【高危重要客户】无 【影响客户】饲料院（物价局家属院）","startTime":"2019-12-30 10:50:45","stopDate":"2019-12-30 13:00:00","orgNo":"1340618","typeCode":"电网故障停限电","poweroffArea":"【单台区停电】停饲料院公用","poweroffReason":"【停电原因】由于低压刀闸烧毁导致１１０ＫＶ中冉变电站１０ＫＶ烟草５８５线路饲料院公用公变台区停电 【变更送电】因抢修进度加快原因，送电时间由１４：００变更为１３：００ 【发布渠道】通过９５５９８发布","powerTime":"2019-12-30 12:19:15","powerComm":"李立军通知已送电","subsNo":"","lineNo":"","tgNo":"","tgName":null,"infoStatus":"1","orgName":"国网清苑县供电公司","typeName":null,"infoStatusName":null,"dateDay":null,"orgNos":null,"nowTime":null,"countyName":null,"streetName":null,"villageName":null,"roadName":null,"communityName":null,"tranName":null,"sdLineName":null,"cityCode":"1340618","cityName":"国网清苑县供电公司","provinceCode":null,"stopTime":"2019-12-30 13:00:00","powerType":"全部","powerOffArea":"【单台区停电】停饲料院公用","powerOffReason":"【停电原因】由于低压刀闸烧毁导致１１０ＫＶ中冉变电站１０ＫＶ烟草５８５线路饲料院公用公变台区停电 【变更送电】因抢修进度加快原因，送电时间由１４：００变更为１３：００ 【发布渠道】通过９５５９８发布","powerOffId":"2019123013000060"}],"pageModel":{"pageNow":321,"totalCount":10973,"totalPage":1098,"tableRows":0,"pageCount":10,"beginCount":3200},"isExperi":"1"}