{"message":"","today":"2020-06-15","seleList":[{"poweroffId":2019123013000058,"sgpoweroffId":null,"subsName":"","lineName":"拒马源线533","pubTranName":"后泉坊箱变3#出线间隔配电变压器,水云乡箱变7#出线间隔配电变压器,涞源同力医院变压器,东内环6号箱变出线间隔配电变压器,东内环箱变3#出线间隔配电变压器,水云乡箱变8#出线间隔配电变压器,山门底箱变13#出线间隔配电变压器,512麻圆线电力局家属楼1号台区,后泉坊箱变4#出线间隔（新）配电变压器,515东环线城建家属楼,水云乡箱变9#出线间隔配电变压器,烟墩山公用变,政府小区箱变出线间隔配电变压器,涞源县民政局,后泉坊箱变1#出线间隔配电变压器,山水家园箱变出线间隔配电变压器,东内环箱变5#出线间隔配电变压器,白石山花园东小区箱变出线间隔配电变压器,水云乡箱变11#出线间隔配电变压器,东内环箱变1#出线间隔配电变压器,电力小区出线间隔配电变压器,城东站513山水家园小区,同力医院公用变,东北环箱变2#出线间隔配电变压器,城区办公用变,东内环箱变4#出线间隔配电变压器,水云乡箱变10#出线间隔配电变压器,后泉坊箱变2#出线间隔（新）配电变压器,","scope":"【影响街道/乡镇】１０８国道、２０７国道、城区办【高危重要客户】无【影响客户】后泉坊村、滨湖新区、水云乡村、电力局水云乡家属楼、电影公司家属楼、国土资源局、电影公司、城建小区家属楼、天利车业、顶利鲜超市、白石山大酒店、环保局、民政局、清香园饭店、壹捞饭店、药监局、交通局停车场、凉城美景一期、观湖景程、白石山花园东小区、政府小区、畜牧小区、同力医院","startTime":"2020-01-07 02:00:00","stopDate":"2020-01-07 05:30:00","orgNo":"1340615","typeCode":"临时停电","poweroffArea":"【全线路停电】停水云乡箱变11#出线间隔配电变压器,东内环箱变1#出线间隔配电变压器,电力小区出线间隔配电变压器,城东站513山水家园小区,同力医院公用变,东北环箱变2#出线间隔配电变压器,城区办公用变,东内环箱变4#出线间隔配电变压器,后泉坊箱变2#出线间隔（新）配电变压器,水云乡箱变10#出线间隔配电变压器,水云乡箱变7#出线间隔配电变压器,后泉坊箱变3#出线间隔配电变压器,涞源同力医院变压器,东内环6号箱变出线间隔配电变压器,东内环箱变3#出线间隔配电变压器,水云乡箱变8#出线间隔配电变压器,山门底箱变13#出线间隔配电变压器,512麻圆线电力局家属楼1号台区,后泉坊箱变4#出线间隔（新）配电变压器,515东环线城建家属楼,水云乡箱变9#出线间隔配电变压器,烟墩山公用变,政府小区箱变出线间隔配电变压器,涞源县民政局,后泉坊箱变1#出线间隔配电变压器,山水家园箱变出线间隔配电变压器,东内环箱变5#出线间隔配电变压器,白石山花园东小区箱变出线间隔配电变压器","poweroffReason":"【停电原因】由于新增配变分支接引导致１１０ＫＶ滨湖变电站１０ＫＶ拒马源线５３３线路全线停电【变更送电】因工作进度加快，原定０７：００送电现计划０５：３０送电【发布渠道】通过９５５９８发布","powerTime":"2020-01-07 04:49:21","powerComm":"已送电","subsNo":"","lineNo":"","tgNo":"","tgName":null,"infoStatus":"1","orgName":"国网涞源县供电公司","typeName":null,"infoStatusName":null,"dateDay":null,"orgNos":null,"nowTime":null,"countyName":null,"streetName":null,"villageName":null,"roadName":null,"communityName":null,"tranName":null,"sdLineName":null,"cityCode":"1340615","cityName":"国网涞源县供电公司","provinceCode":null,"stopTime":"2020-01-07 05:30:00","powerType":"全部","powerOffArea":"【全线路停电】停水云乡箱变11#出线间隔配电变压器,东内环箱变1#出线间隔配电变压器,电力小区出线间隔配电变压器,城东站513山水家园小区,同力医院公用变,东北环箱变2#出线间隔配电变压器,城区办公用变,东内环箱变4#出线间隔配电变压器,后泉坊箱变2#出线间隔（新）配电变压器,水云乡箱变10#出线间隔配电变压器,水云乡箱变7#出线间隔配电变压器,后泉坊箱变3#出线间隔配电变压器,涞源同力医院变压器,东内环6号箱变出线间隔配电变压器,东内环箱变3#出线间隔配电变压器,水云乡箱变8#出线间隔配电变压器,山门底箱变13#出线间隔配电变压器,512麻圆线电力局家属楼1号台区,后泉坊箱变4#出线间隔（新）配电变压器,515东环线城建家属楼,水云乡箱变9#出线间隔配电变压器,烟墩山公用变,政府小区箱变出线间隔配电变压器,涞源县民政局,后泉坊箱变1#出线间隔配电变压器,山水家园箱变出线间隔配电变压器,东内环箱变5#出线间隔配电变压器,白石山花园东小区箱变出线间隔配电变压器","powerOffReason":"【停电原因】由于新增配变分支接引导致１１０ＫＶ滨湖变电站１０ＫＶ拒马源线５３３线路全线停电【变更送电】因工作进度加快，原定０７：００送电现计划０５：３０送电【发布渠道】通过９５５９８发布","powerOffId":"2019123013000058"},{"poweroffId":2019123013000016,"sgpoweroffId":null,"subsName":"","lineName":"沈村511","pubTranName":"东庄村6#,曲城村3#,东火山村2#,黄金庄村1#,东庄村8#,西邵村4#,裴山镇政府1#,东火山村3#,东火山村1#,东火山村6#,东庄村11#,北邵村9号变压器,东庄村13#,南庄村4#,西街4号变压器,西邵村5#,东庄村12#,曲城村2#,西街村1#,西邵村6#变压器,西街村3#,南街村2#,南街村1#,孝村2#,西邵村1#,东庄村14#,西邵村2#,东庄村5#,曲城村5#,尉都村8#,南街村11#变压器,西邵村3#,北街村1#,南街村3#,孝村4#,尉都乡政府1#,南街10#,南街村6#,东庄村15#,尉都村5#,南街村9#,东庄村7#,曲城村4#,东庄村9#,孝村5#,尉都村6#,","scope":"【影响街道/乡镇】裴山镇、尉都乡【高危重要客户】无【影响客户】南街村、西街村、北街村、南庄村、东霍山村、尉都村、孝村、西邵村、曲城村、黄金庄村、东庄村","startTime":"2019-12-30 05:04:46","stopDate":"2019-12-30 08:00:00","orgNo":"1340625","typeCode":"电网故障停限电","poweroffArea":"【全线路停电】停东庄村12#,沙莲娜北变,沙莲娜南变,裴山供电所,南街村1#,南庄村4#,裴山镇政府1#,尉都村6#,尉都乡政府1#,东庄村5#,易县尉都腾达石材有限公司变压器,王志恒板厂,0665049765-易县农村信用联社股份有限公司-专变-201072765-裴山信用社80KVA,东庄村9#,南街村11#变压器,尉都中心小学变压器,东庄村10#,西邵面粉厂,东庄村15#,曲城酒厂,尚晓东板厂,修配厂,尉都村5#,孝村5#,南街村3#,周占良,魏喜元板厂,魏复兴板厂,灌渠,裴山粮库,西街村3#,王术申养殖厂(板厂),南庄面粉厂,李金强面粉厂(石板厂),易县西邵康足鞋垫厂(王世清),南街村9#,东庄村1#【纯农排变】,东庄村2#【纯农排变】,西邵村6#变压器,曲城村3#,马连平板厂,魏建军,曲城村1#【纯农排变】,李顺吉板厂,东庄村6#,西邵村5#,尉都村8#,西街村1#,黄学军面粉厂,曲城村5#,东火山村7#【纯农排变】,东火山张建光石板厂,河北省易县曲城酒厂变压器,南街村2#,金利重质碳酸钙厂变压器,变压器,北街村1#,孝村1#【纯农排变】,东庄村4#【纯农排变】,南街10#,西邵村3#,南街村6#,东庄村13#,孝村3#【纯农排变】,黄金庄村1#,东庄村8#,尉都村1#,东庄村7#,孝村塑料颗粒厂,孝村崔克林(农业),西街4号变压器,孝村2#,曲城村2#,西邵村2#,东火山村3#,东庄村14#,东火山村2#,东火山村1#,孝村4#,魏洪源,西邵村4#,东庄村3#【纯农排变】,黄金庄村2#【纯农排变】,东霍山x英鞋垫厂(董红忠),东庄村11#,裴山小光石材厂,北邵村9号变压器,供销社石材加工厂(张瑞江),西邵村1#,东火山村6#,易县尉都易兴石子厂(500),曲城村4#","poweroffReason":"【停电原因】由于线路Ｂ相接地导致３５ＫＶ裴山变电站沈村５１１线路全线停电【变更送电】因抢修进度加快原因，送电时间由１１：００变更为０８：００【发布渠道】通过９５５９８发布","powerTime":"2019-12-30 07:39:27","powerComm":"已送电","subsNo":"","lineNo":"","tgNo":"","tgName":null,"infoStatus":"1","orgName":"国网易县供电公司","typeName":null,"infoStatusName":null,"dateDay":null,"orgNos":null,"nowTime":null,"countyName":null,"streetName":null,"villageName":null,"roadName":null,"communityName":null,"tranName":null,"sdLineName":null,"cityCode":"1340625","cityName":"国网易县供电公司","provinceCode":null,"stopTime":"2019-12-30 08:00:00","powerType":"全部","powerOffArea":"【全线路停电】停东庄村12#,沙莲娜北变,沙莲娜南变,裴山供电所,南街村1#,南庄村4#,裴山镇政府1#,尉都村6#,尉都乡政府1#,东庄村5#,易县尉都腾达石材有限公司变压器,王志恒板厂,0665049765-易县农村信用联社股份有限公司-专变-201072765-裴山信用社80KVA,东庄村9#,南街村11#变压器,尉都中心小学变压器,东庄村10#,西邵面粉厂,东庄村15#,曲城酒厂,尚晓东板厂,修配厂,尉都村5#,孝村5#,南街村3#,周占良,魏喜元板厂,魏复兴板厂,灌渠,裴山粮库,西街村3#,王术申养殖厂(板厂),南庄面粉厂,李金强面粉厂(石板厂),易县西邵康足鞋垫厂(王世清),南街村9#,东庄村1#【纯农排变】,东庄村2#【纯农排变】,西邵村6#变压器,曲城村3#,马连平板厂,魏建军,曲城村1#【纯农排变】,李顺吉板厂,东庄村6#,西邵村5#,尉都村8#,西街村1#,黄学军面粉厂,曲城村5#,东火山村7#【纯农排变】,东火山张建光石板厂,河北省易县曲城酒厂变压器,南街村2#,金利重质碳酸钙厂变压器,变压器,北街村1#,孝村1#【纯农排变】,东庄村4#【纯农排变】,南街10#,西邵村3#,南街村6#,东庄村13#,孝村3#【纯农排变】,黄金庄村1#,东庄村8#,尉都村1#,东庄村7#,孝村塑料颗粒厂,孝村崔克林(农业),西街4号变压器,孝村2#,曲城村2#,西邵村2#,东火山村3#,东庄村14#,东火山村2#,东火山村1#,孝村4#,魏洪源,西邵村4#,东庄村3#【纯农排变】,黄金庄村2#【纯农排变】,东霍山x英鞋垫厂(董红忠),东庄村11#,裴山小光石材厂,北邵村9号变压器,供销社石材加工厂(张瑞江),西邵村1#,东火山村6#,易县尉都易兴石子厂(500),曲城村4#","powerOffReason":"【停电原因】由于线路Ｂ相接地导致３５ＫＶ裴山变电站沈村５１１线路全线停电【变更送电】因抢修进度加快原因，送电时间由１１：００变更为０８：００【发布渠道】通过９５５９８发布","powerOffId":"2019123013000016"},{"poweroffId":2019123013000011,"sgpoweroffId":null,"subsName":"","lineName":"10kV512杨家台线","pubTranName":"南神南1|26001680,新华混用|26000520,寨沟野猪养殖,北神南村北综合6381,北神南3|26002170,复兴混用|26000680,青榆沟混用|26000730,向明混用|26000600,神北混用26002020,北神南|26000750,娘娘宫混用|26000590,白福台新建混用,北神南胜杰综合2950,上齐河混用|26000640,神北道边综合6978,北神南4|26002180,白福台新建混用,神北学校|26000430,娘娘宫松树台混用|26001860,神北李家庄|26000470,桑树营混用|26000700,百福台混用|26000620,北神南6|26001780,张家庄混用|26000690,杨家台混用|26000560,胜利26002080,顺利混用|26000460,神北村西|26001540,神北道边综合6978,北神南3|26002170,南神南2|26001670,神北唐漂混用|26001710,峦头|26000370,神北李家庄|26000470,南神南1|26001680,大黄峪混用|26000500,南神南南坡2号综合0355,北神南2|26002160,上齐河混用|26000640,龙潭3综合,永兴混用|26000720,青榆沟混用|26000730,北神南村北综合6381,北神南村中新增综合0396,龙潭混用|26000670,胜利|26000450,下齐河混用|26000650,神北混用26002020,峦头混用26001990,北神南综合段新秋9977,北神南综合段新秋9977,神北|26000510,青榆沟村光伏扶贫变压器【光伏】,北神南村东综合6972,观音堂混用|26000710,七八七（杨家台）,娘娘宫（八九队）混用|26000580,龙潭混用|26000670,胜利26002080,刘家营2混用|26001840,南神南3|26001660,北神南5|26001550,七八七（杨家台）,杨家台混用|26000560,南神南2|26001670,龙潭湖采摘,顺利混用|26000460,杨家台东台综合6377,南神南南坡2号综合0355,娘娘宫松树台混用|26001860,北神南6|26001780,胜利26001990,北神南村中新增综合0396,刘家营混用|26000480,神北学校|26000430,观音堂混用|26000710,","scope":"【影响街道/乡镇】大悲乡、神南镇【高危重要客户】无【影响客户】峦头、南神南、北神南、胜利、顺利、神北、李家庄、刘家营、大黄峪、新华、杨家台、娘娘宫、向明、百福台、上齐河、下齐河、龙谭、复兴、张家庄、桑家营、观音堂、永兴、唐河漂流、青榆沟","startTime":"2019-12-30 03:24:34","stopDate":"2019-12-30 10:30:00","orgNo":"1340621","typeCode":"电网故障停限电","poweroffArea":"【全线路停电】停北神南新增综合,张家庄混用|26000690,北大悲村西1号农业【纯农排变】,北神南村东综合6972,北神南村中新增综合0396,青榆沟混用|26000730,大悲供电所【纯农排变】,龙潭3综合,南神南1700农排|26001700【纯农排变】,神北学校|26000430,中国移动,南神南村东1号农业【纯农排变】","poweroffReason":"【停电原因】由于设备线尖烧毁导致３５ＫＶ大悲变电站１０ＫＶ５１２杨家台线路全线停电【变更送电】因抢修进度加快原因，送电时间由１２：００变更为１０：３０【发布渠道】通过９５５９８发布","powerTime":"2019-12-30 09:47:53","powerComm":"已送电","subsNo":"","lineNo":"","tgNo":"","tgName":null,"infoStatus":"1","orgName":"国网顺平县电力局","typeName":null,"infoStatusName":null,"dateDay":null,"orgNos":null,"nowTime":null,"countyName":null,"streetName":null,"villageName":null,"roadName":null,"communityName":null,"tranName":null,"sdLineName":null,"cityCode":"1340621","cityName":"国网顺平县电力局","provinceCode":null,"stopTime":"2019-12-30 10:30:00","powerType":"全部","powerOffArea":"【全线路停电】停北神南新增综合,张家庄混用|26000690,北大悲村西1号农业【纯农排变】,北神南村东综合6972,北神南村中新增综合0396,青榆沟混用|26000730,大悲供电所【纯农排变】,龙潭3综合,南神南1700农排|26001700【纯农排变】,神北学校|26000430,中国移动,南神南村东1号农业【纯农排变】","powerOffReason":"【停电原因】由于设备线尖烧毁导致３５ＫＶ大悲变电站１０ＫＶ５１２杨家台线路全线停电【变更送电】因抢修进度加快原因，送电时间由１２：００变更为１０：３０【发布渠道】通过９５５９８发布","powerOffId":"2019123013000011"},{"poweroffId":2019122913000026,"sgpoweroffId":null,"subsName":"","lineName":"10kV572东丈线","pubTranName":"东丈公用照明8台区,东丈村公用照明1台区1,东丈公用照明12台区,东岗公用照明5台区,西岗公用照明5台区,清风店西岗公用照明6台区,东岗村公用照明2台区,东丈公用照明6台区1,东岗公用照明6台区,东丈村公用照明4台区,东丈村公用照明3台区,西岗公用照明3台区,清风店西岗公用照明9台区,东只东村公用照明1台区,东丈公用照明11台区,东岗公用照明7台区,西岗村公用照明1台区,东丈公用照明9台区,东丈公用照明14台区,东丈村公用照明2台区1,东丈公用照明5台区1,清风店东只东公用照明2台区,东丈公用照明13台区,西岗公用照明10台区,西岗村公用照明2台区,东丈公用照明7台区,东丈公用照明10台区,东丈公用照明15台区,东岗村公用照明1台区,东岗公用照明4台区,","scope":"【影响街道/乡镇】清风店镇、庞村镇【高危重要客户】无【影响客户】东岗、西岗、东丈、东只东","startTime":"2019-12-29 09:34:55","stopDate":"2019-12-29 12:00:00","orgNo":"1340610","typeCode":"电网故障停限电","poweroffArea":"【全线路停电】停东丈公用照明8台区,东丈村公用照明1台区1,清风店西岗公用照明6台区,东岗村公用照明2台区,东丈村公用照明3台区,西岗公用照明3台区,东岗公用照明7台区,西岗村公用照明1台区,东丈公用照明9台区,东丈公用照明14台区,东丈村公用照明2台区1,东丈公用照明5台区1,清风店东只东公用照明2台区,东丈公用照明13台区,西岗公用照明10台区,西岗村公用照明2台区,东丈公用照明7台区,东丈公用照明10台区,东丈公用照明15台区,东岗村公用照明1台区,东岗公用照明4台区,东丈公用照明12台区,东岗公用照明5台区,西岗公用照明5台区,东丈公用照明6台区1,东岗公用照明6台区,东丈村公用照明4台区,清风店西岗公用照明9台区,东只东村公用照明1台区,东丈公用照明11台区","poweroffReason":"【停电原因】由于线路开关掉闸导致１１０ＫＶ清风店变电站１０ＫＶ５７２东丈线路全线停电 【变更送电】因抢修进度加快原因，送电时间由１８：００变更为１２：００ 【发布渠道】９５５９８","powerTime":"2019-12-29 11:32:07","powerComm":"已送电","subsNo":"","lineNo":"","tgNo":"","tgName":null,"infoStatus":"1","orgName":"国网定州市供电公司","typeName":null,"infoStatusName":null,"dateDay":null,"orgNos":null,"nowTime":null,"countyName":null,"streetName":null,"villageName":null,"roadName":null,"communityName":null,"tranName":null,"sdLineName":null,"cityCode":"1340610","cityName":"国网定州市供电公司","provinceCode":null,"stopTime":"2019-12-29 12:00:00","powerType":"全部","powerOffArea":"【全线路停电】停东丈公用照明8台区,东丈村公用照明1台区1,清风店西岗公用照明6台区,东岗村公用照明2台区,东丈村公用照明3台区,西岗公用照明3台区,东岗公用照明7台区,西岗村公用照明1台区,东丈公用照明9台区,东丈公用照明14台区,东丈村公用照明2台区1,东丈公用照明5台区1,清风店东只东公用照明2台区,东丈公用照明13台区,西岗公用照明10台区,西岗村公用照明2台区,东丈公用照明7台区,东丈公用照明10台区,东丈公用照明15台区,东岗村公用照明1台区,东岗公用照明4台区,东丈公用照明12台区,东岗公用照明5台区,西岗公用照明5台区,东丈公用照明6台区1,东岗公用照明6台区,东丈村公用照明4台区,清风店西岗公用照明9台区,东只东村公用照明1台区,东丈公用照明11台区","powerOffReason":"【停电原因】由于线路开关掉闸导致１１０ＫＶ清风店变电站１０ＫＶ５７２东丈线路全线停电 【变更送电】因抢修进度加快原因，送电时间由１８：００变更为１２：００ 【发布渠道】９５５９８","powerOffId":"2019122913000026"},{"poweroffId":2019122913000008,"sgpoweroffId":null,"subsName":"","lineName":"10kV冉庄线511","pubTranName":"1冉庄内1,","scope":"【影响街道/乡镇】冉庄镇 【高危重要客户】无 【影响客户】冉庄","startTime":"2019-12-29 04:09:52","stopDate":"2019-12-29 06:00:00","orgNo":"1340618","typeCode":"电网故障停限电","poweroffArea":"【单台区停电】停1冉庄内1","poweroffReason":"【停电原因】由于低压线断导致３５ＫＶ李庄变电站１０ＫＶ冉庄线５１１线路１冉庄内１号公变台区停电 【变更送电】因抢修进度加快原因，送电时间由０９：００变更为０６：００ 【发布渠道】通过９５５９８发布","powerTime":"2019-12-29 05:30:58","powerComm":"姜二龙通知已送电","subsNo":"","lineNo":"","tgNo":"","tgName":null,"infoStatus":"1","orgName":"国网清苑县供电公司","typeName":null,"infoStatusName":null,"dateDay":null,"orgNos":null,"nowTime":null,"countyName":null,"streetName":null,"villageName":null,"roadName":null,"communityName":null,"tranName":null,"sdLineName":null,"cityCode":"1340618","cityName":"国网清苑县供电公司","provinceCode":null,"stopTime":"2019-12-29 06:00:00","powerType":"全部","powerOffArea":"【单台区停电】停1冉庄内1","powerOffReason":"【停电原因】由于低压线断导致３５ＫＶ李庄变电站１０ＫＶ冉庄线５１１线路１冉庄内１号公变台区停电 【变更送电】因抢修进度加快原因，送电时间由０９：００变更为０６：００ 【发布渠道】通过９５５９８发布","powerOffId":"2019122913000008"},{"poweroffId":2019122813000102,"sgpoweroffId":null,"subsName":"","lineName":"西环512线","pubTranName":"麻黄头北0007配变,麻黄头村西4959配变,丽景花园一出线间隔配电变压器,丽景花园二出线间隔配电变压器,南坛村北4773配变,麻黄头村内1376配变,麻黄头水利5216,泗城涧西北配变,西沿公用2出线间隔配电变压器,麻黄头村南0016配变,丽景花园出线间隔配电变压器,丽景花园四出线间隔配电变压器,南关西水4602配变,南坛西南3201配变,西沿公用1出线间隔配电变压器,南关西新增变压器,麻黄头北4534配变,金三角变压器,","scope":"【影响街道/乡镇】仁厚镇、南环路、国防路、仁厚东路、仁厚西路、唐王路【高危重要客户】无【影响客户】南坛、麻黄头、丽景花园、金三角周围、唐县鑫宇水泥制砖厂、北京滕航房地产开发有限公司、河北唐龙纺织集团有限公司、唐县恒天气体有限责任公司、云马塑钢厂、保定市西大洋供水有限公司、大唐会馆、第二罐头厂、建行家属院、春秋家属院、刘家庄村、北野羊村、粮局家属院、唐县众源供水有限责任公司、唐县李光辉管厂、太行篷布厂、富信羊绒制品有限公司、木货市周边、第二中学、职中家属楼、水利局","startTime":"2019-12-28 21:26:00","stopDate":"2019-12-29 01:50:00","orgNo":"1340622","typeCode":"电网故障停限电","poweroffArea":"【全线路停电】停南坛南水0024配变【纯农排变】,麻黄头水利5216,麻黄头北0007配变,西沿公用2出线间隔配电变压器,丽景花园一出线间隔配电变压器,引水工程1474,麻黄头村西4959配变,金三角变压器,麻黄头村内1376配变,北京滕航房地产开发有限公司,南坛北水0023配变【纯农排变】,云马塑钢厂0004,北京腾航房地产开发有限公司10KV配变,丽景花园四出线间隔配电变压器,丽景花园出线间隔配电变压器,南坛西南3201配变,麻黄头村南0016配变,西沿公用1出线间隔配电变压器,丽景花园二出线间隔配电变压器,南关西水4602配变,唐县建宝房地产开发有限公司5136,南坛村北4773配变,泗城涧西北配变,麻黄头北4534配变,南关西新增变压器,唐县鑫宇水泥制砖厂","poweroffReason":"【停电原因】由于鑫宇水泥砖厂避雷器坏导致１１０ＫＶ唐县变电站西环５１２线路全线停电【变更送电】因抢修进度加快原因，送电时间由１５：００变更为１：５０【发布渠道】通过９５５９８发布","powerTime":"2019-12-29 01:33:02","powerComm":"已送电","subsNo":"","lineNo":"","tgNo":"","tgName":null,"infoStatus":"1","orgName":"国网唐县供电公司","typeName":null,"infoStatusName":null,"dateDay":null,"orgNos":null,"nowTime":null,"countyName":null,"streetName":null,"villageName":null,"roadName":null,"communityName":null,"tranName":null,"sdLineName":null,"cityCode":"1340622","cityName":"国网唐县供电公司","provinceCode":null,"stopTime":"2019-12-29 01:50:00","powerType":"全部","powerOffArea":"【全线路停电】停南坛南水0024配变【纯农排变】,麻黄头水利5216,麻黄头北0007配变,西沿公用2出线间隔配电变压器,丽景花园一出线间隔配电变压器,引水工程1474,麻黄头村西4959配变,金三角变压器,麻黄头村内1376配变,北京滕航房地产开发有限公司,南坛北水0023配变【纯农排变】,云马塑钢厂0004,北京腾航房地产开发有限公司10KV配变,丽景花园四出线间隔配电变压器,丽景花园出线间隔配电变压器,南坛西南3201配变,麻黄头村南0016配变,西沿公用1出线间隔配电变压器,丽景花园二出线间隔配电变压器,南关西水4602配变,唐县建宝房地产开发有限公司5136,南坛村北4773配变,泗城涧西北配变,麻黄头北4534配变,南关西新增变压器,唐县鑫宇水泥制砖厂","powerOffReason":"【停电原因】由于鑫宇水泥砖厂避雷器坏导致１１０ＫＶ唐县变电站西环５１２线路全线停电【变更送电】因抢修进度加快原因，送电时间由１５：００变更为１：５０【发布渠道】通过９５５９８发布","powerOffId":"2019122813000102"},{"poweroffId":2019122813000097,"sgpoweroffId":null,"subsName":"","lineName":"10kV东环511","pubTranName":"永兴62号箱变(尚城2号),永兴63号箱变(尚城3号),绿墅蓝湾（供电所3号）高压间隔配电变压器,永兴61号箱变(尚城1号),永兴71号箱变（东方红城1号楼）,永兴75号箱变(东方红城20号楼),永兴48号箱变(东方红城西),永兴74号箱变(东方红城5号楼),永兴49号箱变(东方红城东),永兴72号箱变(东方红城3号楼),","scope":"【影响街道/乡镇】安肃镇 【高危重要客户】无 【影响客户】东方红城小区、尚城小区、绿墅蓝湾小区","startTime":"2019-12-28 19:18:31","stopDate":"2019-12-28 21:00:00","orgNo":"1340605","typeCode":"电网故障停限电","poweroffArea":"【全线路停电】停徐水县华建物业管理有限公司,河北晨阳工贸集团有限公司计量点,永兴61号箱变(尚城1号),巨力集团徐水物业管理有限公司2号（1250KVA门帘）,保定华晨机械制造有限公司变压器2,保定华晨机械制造有限公司变压器,巨力物业1号,永兴49号箱变(东方红城东),河北晨阳工贸集团有限公司,巨力物业6号,永兴72号箱变(东方红城3号楼),永兴48号箱变(东方红城西),永兴71号箱变（东方红城1号楼）,永兴74号箱变(东方红城5号楼),巨力物业2号,永兴63号箱变(尚城3号),永兴62号箱变(尚城2号),河北天疆房地产开发有限公司,巨力尚城物业管理部4号(1000KVA)(2/3/4/6号合算),绿墅蓝湾（供电所3号）高压间隔配电变压器,巨力集团徐水物业管理有限公司3号(1000KVA),0657448617-保定市徐水区高尚物业管理有限公司-专变-190459953-河北巨力房地产开发有限公司,0630057098-保定市徐水区住房和城乡建设局路灯-专变-141640677-徐水县住房和城乡建设局路灯,永兴75号箱变(东方红城20号楼),0685065804-徐水县兴盛物业管理有限公司-专变-223616139-徐水县兴盛物业管理有限公司变压器,0594102933-徐水县华忠房地产开发有限公司-专变-125919656-徐水县华忠房地产开发有限公司,巨力物业3号,巨力尚城物业管理部","poweroffReason":"【停电原因】由于Ｂ相接地导致１１０ＫＶ下河西变电站１０ＫＶ东环５１１线路全线停电 【变更送电】因抢修进度加快原因，送电时间由２３:５９变更为２１:００ 【发布渠道】通过９５５９８发布","powerTime":"2019-12-28 20:28:10","powerComm":"已送电","subsNo":"","lineNo":"","tgNo":"","tgName":null,"infoStatus":"1","orgName":"国网徐水县供电公司","typeName":null,"infoStatusName":null,"dateDay":null,"orgNos":null,"nowTime":null,"countyName":null,"streetName":null,"villageName":null,"roadName":null,"communityName":null,"tranName":null,"sdLineName":null,"cityCode":"1340605","cityName":"国网徐水县供电公司","provinceCode":null,"stopTime":"2019-12-28 21:00:00","powerType":"全部","powerOffArea":"【全线路停电】停徐水县华建物业管理有限公司,河北晨阳工贸集团有限公司计量点,永兴61号箱变(尚城1号),巨力集团徐水物业管理有限公司2号（1250KVA门帘）,保定华晨机械制造有限公司变压器2,保定华晨机械制造有限公司变压器,巨力物业1号,永兴49号箱变(东方红城东),河北晨阳工贸集团有限公司,巨力物业6号,永兴72号箱变(东方红城3号楼),永兴48号箱变(东方红城西),永兴71号箱变（东方红城1号楼）,永兴74号箱变(东方红城5号楼),巨力物业2号,永兴63号箱变(尚城3号),永兴62号箱变(尚城2号),河北天疆房地产开发有限公司,巨力尚城物业管理部4号(1000KVA)(2/3/4/6号合算),绿墅蓝湾（供电所3号）高压间隔配电变压器,巨力集团徐水物业管理有限公司3号(1000KVA),0657448617-保定市徐水区高尚物业管理有限公司-专变-190459953-河北巨力房地产开发有限公司,0630057098-保定市徐水区住房和城乡建设局路灯-专变-141640677-徐水县住房和城乡建设局路灯,永兴75号箱变(东方红城20号楼),0685065804-徐水县兴盛物业管理有限公司-专变-223616139-徐水县兴盛物业管理有限公司变压器,0594102933-徐水县华忠房地产开发有限公司-专变-125919656-徐水县华忠房地产开发有限公司,巨力物业3号,巨力尚城物业管理部","powerOffReason":"【停电原因】由于Ｂ相接地导致１１０ＫＶ下河西变电站１０ＫＶ东环５１１线路全线停电 【变更送电】因抢修进度加快原因，送电时间由２３:５９变更为２１:００ 【发布渠道】通过９５５９８发布","powerOffId":"2019122813000097"},{"poweroffId":2019122813000093,"sgpoweroffId":null,"subsName":"","lineName":"10kV固上线543","pubTranName":"1臧村内1,","scope":"【影响街道/乡镇】臧村乡 【高危重要客户】无 【影响客户】臧村（西臧）","startTime":"2019-12-28 18:35:20","stopDate":"2019-12-28 20:00:00","orgNo":"1340618","typeCode":"电网故障停限电","poweroffArea":"【单台区停电】停1臧村内1","poweroffReason":"【停电原因】由于接户线烧毁导致１１０ＫＶ臧村变电站１０ＫＶ固上线５４３线路１臧村内１号公变台区停电 【变更送电】无 【发布渠道】通过９５５９８发布","powerTime":"2019-12-28 19:55:46","powerComm":"陈云涛通知已送电","subsNo":"","lineNo":"","tgNo":"","tgName":null,"infoStatus":"1","orgName":"国网清苑县供电公司","typeName":null,"infoStatusName":null,"dateDay":null,"orgNos":null,"nowTime":null,"countyName":null,"streetName":null,"villageName":null,"roadName":null,"communityName":null,"tranName":null,"sdLineName":null,"cityCode":"1340618","cityName":"国网清苑县供电公司","provinceCode":null,"stopTime":"2019-12-28 20:00:00","powerType":"全部","powerOffArea":"【单台区停电】停1臧村内1","powerOffReason":"【停电原因】由于接户线烧毁导致１１０ＫＶ臧村变电站１０ＫＶ固上线５４３线路１臧村内１号公变台区停电 【变更送电】无 【发布渠道】通过９５５９８发布","powerOffId":"2019122813000093"},{"poweroffId":2019122813000091,"sgpoweroffId":null,"subsName":"","lineName":"10kV固上线543","pubTranName":"1崔庄内2,","scope":"【影响街道/乡镇】臧村乡 【高危重要客户】无 【影响客户】崔庄","startTime":"2019-12-28 18:32:45","stopDate":"2019-12-28 20:00:00","orgNo":"1340618","typeCode":"电网故障停限电","poweroffArea":"【单台区停电】停1崔庄内2","poweroffReason":"【停电原因】由于接户线烧毁导致１１０ＫＶ臧村变电站１０ＫＶ固上线５４３线路１崔庄内２号公变台区停电 【变更送电】无 【发布渠道】通过９５５９８发布","powerTime":"2019-12-28 19:55:50","powerComm":"陈云涛通知已送电","subsNo":"","lineNo":"","tgNo":"","tgName":null,"infoStatus":"1","orgName":"国网清苑县供电公司","typeName":null,"infoStatusName":null,"dateDay":null,"orgNos":null,"nowTime":null,"countyName":null,"streetName":null,"villageName":null,"roadName":null,"communityName":null,"tranName":null,"sdLineName":null,"cityCode":"1340618","cityName":"国网清苑县供电公司","provinceCode":null,"stopTime":"2019-12-28 20:00:00","powerType":"全部","powerOffArea":"【单台区停电】停1崔庄内2","powerOffReason":"【停电原因】由于接户线烧毁导致１１０ＫＶ臧村变电站１０ＫＶ固上线５４３线路１崔庄内２号公变台区停电 【变更送电】无 【发布渠道】通过９５５９８发布","powerOffId":"2019122813000091"},{"poweroffId":2019122813000088,"sgpoweroffId":null,"subsName":"","lineName":"坟庄线515","pubTranName":"中黄蒿村1#,盘神庙村5#,南流井村5#,上白羊村5#,上黄蒿村3#,东白羊村1#,上白羊村4#,南流井村9#,南流井村8#,全山庄1#,马头6#,真武庙村4#,南流井6#,真武庙村6#,建新村3#,孙家庄2#,北六井五台,源泉村5#,南白羊村4#,西白羊5号,南流井村4#,西流井村2#,南白羊村5#,上白羊村9#,建新村4#,全山庄村2#,马头村14#,马头村13#,东白羊村4#,孙家庄村1#,中黄蒿村2#,上黄蒿村2#,上白羊村7#,东流井村3#,马家庄村2#,马头村7#,真武庙村1#,北白马村5#,西白羊村2#,主良6号,建新村5#,流井小学,西流井村1#,马头村12#,北白马6号,上黄蒿村1#,马头村19#,盘神庙村4#,南白羊村3#,马头村5#,东白马机井5#,马头村9#,南流井村3#,南白羊村6#,马家庄10号,马家庄村3#,南流井村2#,建新村2#,马家庄7号,上黄蒿村4#,北白马7号,全山庄村5#,中黄蒿村3#,主良村4#,盘神庙村7#,主良1号,主良5号,上白羊村1#,上白羊村2#,中黄蒿村4#,盘神庙村3#,马头村3#,西流井村3#,东白马村6#,东白羊村2#,马头村11#,盘神庙村6#,马家庄村5#,真武庙村3#,西白羊村3#,马头村4#,源泉村1#,上白羊村3#,南流井村6#,北流井村3#,南流井村1#,西白羊村1#,真武庙村5#,建新村1#,真武庙村2#,南白羊村1#,主良村2#,上白羊村8#,盘神庙村2#,全山庄村3#,源泉村2#,源泉村4#,主良8号,马头村8#,马头村18#,马头村20#,孙家庄村3#,马头村2#,南白羊村2#|,主良7号,马头村15#,源泉村3#,全山庄村4#,马家庄村4#,盘神庙村1#,全山庄村1#,上白羊村6#,马头村10#,真武庙村7#,西白羊4#,马头村16#,建新村6#,南流井村10#,南流井村7#,马头村1#,主良村3#,马头村17#,","scope":"【影响街道/乡镇】流井乡、易州镇、白马乡、梁格庄镇【高危重要客户】无【影响客户】建新村、全山庄村、主良村、马头村、李家坟村、西流井村、南流井村、北流井村、孙家庄村、西白羊村、南白羊村、东白羊村、马家庄村、源泉村、盘神庙村、真武庙村、上白羊村、上黄蒿村、北白马村、中黄蒿村","startTime":"2019-12-28 17:40:18","stopDate":"2019-12-28 20:00:00","orgNo":"1340625","typeCode":"电网故障停限电","poweroffArea":"【全线路停电】停马家庄7号,上白羊村4#,马头村1#,西白羊村3#,易县农旺苗木种植农民专业合作社变压器,马头村13#,南流井6#,建新村马平变压器,河北省洪崖山国有林场管理局变压器,马头村14#,北白马6号,马家庄8号【纯农排变】,上黄蒿村1#,南白羊村7#【纯农排变】,马家庄村4#,马头村7#,西白羊5号,马家庄10号,张大勇变压器,和利金属制品有限公司,马家庄村5#,0680605801-易县绿泽农林果种植有限责任公司-专变-219705076-易县绿泽农林果种植有限责任公司-3-50KVA,源泉村6#【纯农排变】,全山庄村4#,0680607722-易县绿泽农林果种植有限责任公司-专变-219705072-易县绿泽农林果种植有限责任公司-2-50KVA,西白羊蔡永贵面粉厂,全山庄村3#,主良6号,源泉村(刘水),马头村18#,中黄蒿村4#,中黄蒿村2#,建新村2#,马家庄村2#,上黄蒿村4#,源泉村4#,西流井村1#,保定和利金属制品有限公司变压器,东白羊村1#,西流井村3#,马家庄村1#【纯农排变】,上黄蒿村3#,刘桂军变压器,盘神庙村3#,盘神庙村4#,易县中易板材有限公司变压器,东白羊村4#,西流井村2#,马头村20#,南流井村10#,易县安平土地整理服务有限公司7号50KVA,牛云田变压器,上白羊村7#,许树义,南流井村1#,北白马村5#,建新村6#,上白羊村5#,南白羊村6#,北流井村3#,上白羊村1#,马头村2#,主良村张树贵变压器,易县安平土地整理服务有限公司5号100KVA,建新村5#,真武庙村6#,中黄蒿村1#,东白羊村2#,主良村3#,马家庄9号【纯农排变】,东流井村3#,全山庄1#,众信石材有限公司,马头村10#,千佛山开发处,孙家庄村3#,盘神庙村2#,真武庙村4#,真武庙村1#,上白羊村2#,马头6#,建新村3#,0469479528-河北省洪崖山国有林场管理局-专变-46817902-白马林场,易县安禄土地整理有限公司4号50KVA,马头水库,马头村5#,建新村4#,马家庄6号【纯农排变】,主良村2#,马头村15#,主良1号,全山庄村2#,易县安禄土地整理有限公司2号-50KVA,李家坟村6#【纯农排变】,流井小学,易县安禄土地整理有限公司1号-160KVA,马头村19#,东白马机井5#,全山庄村1#,南白羊村2#|,马家庄村3#,合利金属160KVA,源泉村3#,盘神庙村6#,南流井村8#,马家庄11号【纯农排变】,上白羊村6#,孙家庄村1#,盘神庙村5#,易县安禄土地整理有限公司3号100KVA,孙家庄2#,北六井五台,上白羊村3#,洪崖山索道有限公司,南流井村6#,易县中能太阳能有限公司250KVA,马头村9#,流井中学,真武庙村2#,易县安平土地整理服务有限公司4号100KVA,主良村(砖厂),西白羊村2#,易县安平土地整理服务有限公司3号100KVA,中黄蒿村3#,南白羊村5#,南白羊村4#,东白羊村5#【纯农排变】,上白羊村9#,东白马村6#,易县乾鼎商品混凝土有限公司变压器,盘神庙村7#,马头村4#,主良7号,南流井村7#,马头村3#,主良5号,南白羊村1#,上黄蒿村2#,马头村17#,南流井村2#,主良8号,建新村1#,马头村16#,全山庄村5#,易县绿泽农林果种植有限责任公司500,河北鑫路石料有限公司变压器,西白羊4#,主良村4#,0635310273-易县农旺苗木种植农民专业合作社-专变-225175957-易县农旺苗木种植农民专业合作社-增容250KVA,南流井村5#,源泉村1#,南流井村9#,上白羊村8#,南流井村4#,南流井村3#,马头村8#,涞水县文山供水有限公司630KVA专变,易县安平土地整理服务有限公司2号100KVA,南白羊村3#,真武庙村7#,北白马7号,真武庙村5#,马头村11#,易县安平土地整理服务有限公司6号100KVA,马头村12#,真武庙村3#,西白羊村1#,源泉村2#,源泉村5#,盘神庙村1#","poweroffReason":"【停电原因】由于主干２５＃杆高压刀闸线夹烧断导致３５ＫＶ李家坟变电站坟庄线５１５线路全线停电【变更送电】因抢修进度加快原因，送电时间由２３：００变更为２０：００【发布渠道】通过９５５９８发布","powerTime":"2019-12-28 19:36:49","powerComm":"已送电","subsNo":"","lineNo":"","tgNo":"","tgName":null,"infoStatus":"1","orgName":"国网易县供电公司","typeName":null,"infoStatusName":null,"dateDay":null,"orgNos":null,"nowTime":null,"countyName":null,"streetName":null,"villageName":null,"roadName":null,"communityName":null,"tranName":null,"sdLineName":null,"cityCode":"1340625","cityName":"国网易县供电公司","provinceCode":null,"stopTime":"2019-12-28 20:00:00","powerType":"全部","powerOffArea":"【全线路停电】停马家庄7号,上白羊村4#,马头村1#,西白羊村3#,易县农旺苗木种植农民专业合作社变压器,马头村13#,南流井6#,建新村马平变压器,河北省洪崖山国有林场管理局变压器,马头村14#,北白马6号,马家庄8号【纯农排变】,上黄蒿村1#,南白羊村7#【纯农排变】,马家庄村4#,马头村7#,西白羊5号,马家庄10号,张大勇变压器,和利金属制品有限公司,马家庄村5#,0680605801-易县绿泽农林果种植有限责任公司-专变-219705076-易县绿泽农林果种植有限责任公司-3-50KVA,源泉村6#【纯农排变】,全山庄村4#,0680607722-易县绿泽农林果种植有限责任公司-专变-219705072-易县绿泽农林果种植有限责任公司-2-50KVA,西白羊蔡永贵面粉厂,全山庄村3#,主良6号,源泉村(刘水),马头村18#,中黄蒿村4#,中黄蒿村2#,建新村2#,马家庄村2#,上黄蒿村4#,源泉村4#,西流井村1#,保定和利金属制品有限公司变压器,东白羊村1#,西流井村3#,马家庄村1#【纯农排变】,上黄蒿村3#,刘桂军变压器,盘神庙村3#,盘神庙村4#,易县中易板材有限公司变压器,东白羊村4#,西流井村2#,马头村20#,南流井村10#,易县安平土地整理服务有限公司7号50KVA,牛云田变压器,上白羊村7#,许树义,南流井村1#,北白马村5#,建新村6#,上白羊村5#,南白羊村6#,北流井村3#,上白羊村1#,马头村2#,主良村张树贵变压器,易县安平土地整理服务有限公司5号100KVA,建新村5#,真武庙村6#,中黄蒿村1#,东白羊村2#,主良村3#,马家庄9号【纯农排变】,东流井村3#,全山庄1#,众信石材有限公司,马头村10#,千佛山开发处,孙家庄村3#,盘神庙村2#,真武庙村4#,真武庙村1#,上白羊村2#,马头6#,建新村3#,0469479528-河北省洪崖山国有林场管理局-专变-46817902-白马林场,易县安禄土地整理有限公司4号50KVA,马头水库,马头村5#,建新村4#,马家庄6号【纯农排变】,主良村2#,马头村15#,主良1号,全山庄村2#,易县安禄土地整理有限公司2号-50KVA,李家坟村6#【纯农排变】,流井小学,易县安禄土地整理有限公司1号-160KVA,马头村19#,东白马机井5#,全山庄村1#,南白羊村2#|,马家庄村3#,合利金属160KVA,源泉村3#,盘神庙村6#,南流井村8#,马家庄11号【纯农排变】,上白羊村6#,孙家庄村1#,盘神庙村5#,易县安禄土地整理有限公司3号100KVA,孙家庄2#,北六井五台,上白羊村3#,洪崖山索道有限公司,南流井村6#,易县中能太阳能有限公司250KVA,马头村9#,流井中学,真武庙村2#,易县安平土地整理服务有限公司4号100KVA,主良村(砖厂),西白羊村2#,易县安平土地整理服务有限公司3号100KVA,中黄蒿村3#,南白羊村5#,南白羊村4#,东白羊村5#【纯农排变】,上白羊村9#,东白马村6#,易县乾鼎商品混凝土有限公司变压器,盘神庙村7#,马头村4#,主良7号,南流井村7#,马头村3#,主良5号,南白羊村1#,上黄蒿村2#,马头村17#,南流井村2#,主良8号,建新村1#,马头村16#,全山庄村5#,易县绿泽农林果种植有限责任公司500,河北鑫路石料有限公司变压器,西白羊4#,主良村4#,0635310273-易县农旺苗木种植农民专业合作社-专变-225175957-易县农旺苗木种植农民专业合作社-增容250KVA,南流井村5#,源泉村1#,南流井村9#,上白羊村8#,南流井村4#,南流井村3#,马头村8#,涞水县文山供水有限公司630KVA专变,易县安平土地整理服务有限公司2号100KVA,南白羊村3#,真武庙村7#,北白马7号,真武庙村5#,马头村11#,易县安平土地整理服务有限公司6号100KVA,马头村12#,真武庙村3#,西白羊村1#,源泉村2#,源泉村5#,盘神庙村1#","powerOffReason":"【停电原因】由于主干２５＃杆高压刀闸线夹烧断导致３５ＫＶ李家坟变电站坟庄线５１５线路全线停电【变更送电】因抢修进度加快原因，送电时间由２３：００变更为２０：００【发布渠道】通过９５５９８发布","powerOffId":"2019122813000088"}],"pageModel":{"pageNow":322,"totalCount":10973,"totalPage":1098,"tableRows":0,"pageCount":10,"beginCount":3210},"isExperi":"1"}