{"message":"","today":"2020-06-15","seleList":[{"poweroffId":2020060313000311,"sgpoweroffId":null,"subsName":"","lineName":"10kV511中管头线","pubTranName":"0012742813中管头中2区变压器,中管头小学变压器,0000005473中管头中区变压器,0000005474中管头南区变压器,中管头西2区变压器,中管头中3区变压器,中管头农8变压器【纯农排变】,0000005471中管头西区变压器,中管头中4区变压器,0000005472中管头北区变压器,","scope":"【影响街道/乡镇】燕赵镇 【影响客户】中管头","startTime":"2020-06-12 05:00:00","stopDate":"2020-06-13 04:00:00","orgNo":"1340619","typeCode":"计划停电","poweroffArea":"【全线路停电】停３５ＫＶ管头变电站１０ＫＶ５１１中管头线路全线，0000005782中管头统管南农4号变压器,保定市南水北调工程建设委员会办公室变压器,中管头西2区变压器,0664931274-保定市南水北调工程建设委员会办公室-专变-201062655-保定市南水北调工程建设委员会办公室变压器,中管头农8变压器【纯农排变】,0000005781中管头统管北农3号变压器【纯农排变】,0000005780中管头统管西北农2号变压器,0000005783中管头统管西农5号变压器【纯农排变】,0000005471中管头西区变压器,中管头中4区变压器,0012742813中管头中2区变压器,0000005473中管头中区变压器,0000005474中管头南区变压器,袁分树冷库,中管头小学变压器,中管头中3区变压器,中管头第二冷库,中管头第一冷库,0000005472中管头北区变压器,0000006456中管头统管农6#变压器","poweroffReason":"【停电原因】由于站内设备检修导致３５ＫＶ管头变电站１０ＫＶ５１１中管头线路全线停电 【变更送电】因工作未完工原因，送电时间由１３日０２：００变更为１３日０４：００ 【发布渠道】保定市曲阳县电视台（０６月０３日至０６月０５日１８时至２０时之间）屏幕上方滚动","powerTime":"2020-06-13 03:20:00","powerComm":"已送电","subsNo":"","lineNo":"","tgNo":"","tgName":null,"infoStatus":"1","orgName":"国网曲阳县供电公司","typeName":null,"infoStatusName":null,"dateDay":null,"orgNos":null,"nowTime":null,"countyName":null,"streetName":null,"villageName":null,"roadName":null,"communityName":null,"tranName":null,"sdLineName":null,"cityCode":"1340619","cityName":"国网曲阳县供电公司","provinceCode":null,"stopTime":"2020-06-13 04:00:00","powerType":"全部","powerOffArea":"【全线路停电】停３５ＫＶ管头变电站１０ＫＶ５１１中管头线路全线，0000005782中管头统管南农4号变压器,保定市南水北调工程建设委员会办公室变压器,中管头西2区变压器,0664931274-保定市南水北调工程建设委员会办公室-专变-201062655-保定市南水北调工程建设委员会办公室变压器,中管头农8变压器【纯农排变】,0000005781中管头统管北农3号变压器【纯农排变】,0000005780中管头统管西北农2号变压器,0000005783中管头统管西农5号变压器【纯农排变】,0000005471中管头西区变压器,中管头中4区变压器,0012742813中管头中2区变压器,0000005473中管头中区变压器,0000005474中管头南区变压器,袁分树冷库,中管头小学变压器,中管头中3区变压器,中管头第二冷库,中管头第一冷库,0000005472中管头北区变压器,0000006456中管头统管农6#变压器","powerOffReason":"【停电原因】由于站内设备检修导致３５ＫＶ管头变电站１０ＫＶ５１１中管头线路全线停电 【变更送电】因工作未完工原因，送电时间由１３日０２：００变更为１３日０４：００ 【发布渠道】保定市曲阳县电视台（０６月０３日至０６月０５日１８时至２０时之间）屏幕上方滚动","powerOffId":"2020060313000311"},{"poweroffId":2020060313000307,"sgpoweroffId":null,"subsName":"","lineName":"10kV514洪德线","pubTranName":"杜村小学变压器,南洪德小学变压器,南洪德中学1变压器,南洪德农3变压器【纯农排变】,0000005486文德东区变压器,0014300455北洪德农4【纯农排变】,0014466780南留营南3区,东流德西区变压器,0000005338北洪德变压器,慈顺南区变压器,慈顺西区变压器,北管头农7变压器,南洪德中学2变压器,牛堡内明德小学变压器,文德东村西区变压器,杜村农2变压器【纯农排变】,慈顺小学变压器,南洪德农灌1变压器【纯农排变】,0000006436杜村统管南农变压器,慈顺农灌1变压器,0014100456北洪德新建变压器,0000005406慈顺村北区变压器,东流德小学变压器,0012891920杜村西区变压器,杜村中区变压器,0014098168慈顺变压器,0000005343杜村变压器,0013037895文德西农3【纯农排变】,洪德幼儿园变压器,东流德东3区变压器,0000005388牛堡内西区变压器,南洪德西2区变压器,0000006842东诸侯东区变压器,0012891918慈顺北2变压器,东诸侯新增配电变压器,文德东村北区变压器,0014418537南洪德南2区变压器,0012743367南洪德西区变压器,南洪德中学变压器,南洪德农4变压器【纯农排变】,南洪德农灌2变压器【纯农排变】,0014100458南洪德,0012430770牛堡内中区变压器,慈顺小学1变压器,0012551388慈顺农2号变压器,北洪德北区变压器,0000006811文德东北区变压器,0000005452南洪德北区变压器,文德东3变压器,0013037902文德西农4【纯农排变】,东流德东2变压器,牛堡内东2区变压器,东流德南2区变压器,0000005856南洪德统管农灌变压器,0000005387牛堡内南区变压器,0000006820慈顺东区变压器,0000005445南洪德南区变压器,0000006857南洪德北2区变压器,0012883929文德东2区变压器,0000005389牛堡内北区变压器,0000006522南洪德东农变压器,牛堡内西3区变压器,0000006655杜村北农变压器,南洪德卫生院变压器,0014100457东流德,","scope":"【影响街道/乡镇】燕赵镇、文德乡 【影响客户】慈顺、杜村、牛堡内、南洪德、北洪德、东流德、西流德、文德东、东诸侯、田家庄、小盖都","startTime":"2020-06-12 05:00:00","stopDate":"2020-06-13 04:00:00","orgNo":"1340619","typeCode":"计划停电","poweroffArea":"【全线路停电】停３５ＫＶ管头变电站１０ＫＶ５１４洪德线路全线，文德东村农灌,东流德新建变压器,南洪德卫生院变压器,南洪德面粉厂,0000006523北洪德北农2＃变压器,牛堡石碑厂（1）,0012883929文德东2区变压器,南洪德王进军,东流德面粉加工厂,0012958944牛堡内农4变压器,牛堡内统管东农变压器【纯农排变】,0000005389牛堡内北区变压器,0000006522南洪德东农变压器,牛堡内西3区变压器,0000006655杜村北农变压器,0014100457东流德,南洪德中学2变压器,慈顺南区变压器,杜村小学变压器,东流德农灌（王义苍）1号,东流德农灌（王义苍）3号,南洪德中学1变压器,东流德农灌（王义苍）2号,曲阳县盛达石材雕刻厂变压器,南洪德农3变压器【纯农排变】,杨顺民,0000005486文德东区变压器,0014300455北洪德农4【纯农排变】,慈顺南农灌(焦国庄),0014466780南留营南3区,东流德西区变压器,南洪德村委会农（1）,0000005338北洪德变压器,0000006525北洪德北农1＃变压器,慈顺西区变压器,慈顺面粉厂,北管头农7变压器,慈顺北农灌,南洪德王天昆面粉厂,0012735063牛堡内农3变压器【纯农排变】,0000006653文德西村农1#|变压器【纯农排变】,甄志杰变压器,牛堡内明德小学变压器,文德东村西区变压器,杜村农2变压器【纯农排变】,0553463387-曲阳县东流德村农灌-专变-66255832-曲阳县文德乡东流德村变压器,0012230603东流德统管农1号变压器,南洪德小学变压器,0000007163牛堡内西2区增容变压器,慈顺小学变压器,南洪德农灌1变压器【纯农排变】,0000006652慈顺东农变压器【纯农排变】,0000006436杜村统管南农变压器,0014098168慈顺变压器,0000005452南洪德北区变压器,0000005343杜村变压器,0013037895文德西农3【纯农排变】,文德乡刘堡内昌顺面粉厂,洪德幼儿园变压器,东流德东3区变压器,0000005388牛堡内西区变压器,东流德面粉加工厂2,牛堡内农5变压器,0000006088杜村农灌变压器,0000006417牛堡内统管东农2#变压器【纯农排变】,南洪德西2区变压器,0000006842东诸侯东区变压器,慈顺东农灌(焦立明)变压器,0012891918慈顺北2变压器,南洪德农4变压器【纯农排变】,曲阳县洪德免烧砖厂,0000005386牛堡内东区变压器,南洪德农灌2变压器【纯农排变】,0014100458南洪德,0012430770牛堡内中区变压器,慈顺小学1变压器,0000006654文德西村农2#|变压器【纯农排变】,0012551388慈顺农2号变压器,曲阳县南洪德大和水果储存冷库变压器,0000005448东流德东区变压器,北洪德北区变压器,0000006811文德东北区变压器,文德东3变压器,0000005447东流德南区,0013037902文德西农4【纯农排变】,东流德东2变压器,慈顺农灌1变压器,0014100456北洪德新建变压器,0000005406慈顺村北区变压器,东流德小学变压器,0012891920杜村西区变压器,杜村中区变压器,牛堡内东2区变压器,东流德南2区变压器,0000005856南洪德统管农灌变压器,0000005387牛堡内南区变压器,0000006820慈顺东区变压器,0000005445南洪德南区变压器,0000006857南洪德北2区变压器,东诸侯新增配电变压器,文德东村北区变压器,0014418537南洪德南2区变压器,0012743367南洪德西区变压器,河北省曲阳县清凉庵变压器,0012735871北洪德农3变压器,0000005855西流德统管农灌变压器【纯农排变】,0000005854牛堡内统管南农变压器,南洪德中学变压器","poweroffReason":"【停电原因】由于站内设备检修导致３５ＫＶ管头变电站１０ＫＶ５１４洪德线路全线停电 【变更送电】因工作未完工原因，送电时间由１３日０２：００变更为１３日０４：００ 【发布渠道】保定市曲阳县电视台（０６月０３日至０６月０５日１８时至２０时之间）屏幕上方滚动","powerTime":"2020-06-13 03:20:00","powerComm":"已送电","subsNo":"","lineNo":"","tgNo":"","tgName":null,"infoStatus":"1","orgName":"国网曲阳县供电公司","typeName":null,"infoStatusName":null,"dateDay":null,"orgNos":null,"nowTime":null,"countyName":null,"streetName":null,"villageName":null,"roadName":null,"communityName":null,"tranName":null,"sdLineName":null,"cityCode":"1340619","cityName":"国网曲阳县供电公司","provinceCode":null,"stopTime":"2020-06-13 04:00:00","powerType":"全部","powerOffArea":"【全线路停电】停３５ＫＶ管头变电站１０ＫＶ５１４洪德线路全线，文德东村农灌,东流德新建变压器,南洪德卫生院变压器,南洪德面粉厂,0000006523北洪德北农2＃变压器,牛堡石碑厂（1）,0012883929文德东2区变压器,南洪德王进军,东流德面粉加工厂,0012958944牛堡内农4变压器,牛堡内统管东农变压器【纯农排变】,0000005389牛堡内北区变压器,0000006522南洪德东农变压器,牛堡内西3区变压器,0000006655杜村北农变压器,0014100457东流德,南洪德中学2变压器,慈顺南区变压器,杜村小学变压器,东流德农灌（王义苍）1号,东流德农灌（王义苍）3号,南洪德中学1变压器,东流德农灌（王义苍）2号,曲阳县盛达石材雕刻厂变压器,南洪德农3变压器【纯农排变】,杨顺民,0000005486文德东区变压器,0014300455北洪德农4【纯农排变】,慈顺南农灌(焦国庄),0014466780南留营南3区,东流德西区变压器,南洪德村委会农（1）,0000005338北洪德变压器,0000006525北洪德北农1＃变压器,慈顺西区变压器,慈顺面粉厂,北管头农7变压器,慈顺北农灌,南洪德王天昆面粉厂,0012735063牛堡内农3变压器【纯农排变】,0000006653文德西村农1#|变压器【纯农排变】,甄志杰变压器,牛堡内明德小学变压器,文德东村西区变压器,杜村农2变压器【纯农排变】,0553463387-曲阳县东流德村农灌-专变-66255832-曲阳县文德乡东流德村变压器,0012230603东流德统管农1号变压器,南洪德小学变压器,0000007163牛堡内西2区增容变压器,慈顺小学变压器,南洪德农灌1变压器【纯农排变】,0000006652慈顺东农变压器【纯农排变】,0000006436杜村统管南农变压器,0014098168慈顺变压器,0000005452南洪德北区变压器,0000005343杜村变压器,0013037895文德西农3【纯农排变】,文德乡刘堡内昌顺面粉厂,洪德幼儿园变压器,东流德东3区变压器,0000005388牛堡内西区变压器,东流德面粉加工厂2,牛堡内农5变压器,0000006088杜村农灌变压器,0000006417牛堡内统管东农2#变压器【纯农排变】,南洪德西2区变压器,0000006842东诸侯东区变压器,慈顺东农灌(焦立明)变压器,0012891918慈顺北2变压器,南洪德农4变压器【纯农排变】,曲阳县洪德免烧砖厂,0000005386牛堡内东区变压器,南洪德农灌2变压器【纯农排变】,0014100458南洪德,0012430770牛堡内中区变压器,慈顺小学1变压器,0000006654文德西村农2#|变压器【纯农排变】,0012551388慈顺农2号变压器,曲阳县南洪德大和水果储存冷库变压器,0000005448东流德东区变压器,北洪德北区变压器,0000006811文德东北区变压器,文德东3变压器,0000005447东流德南区,0013037902文德西农4【纯农排变】,东流德东2变压器,慈顺农灌1变压器,0014100456北洪德新建变压器,0000005406慈顺村北区变压器,东流德小学变压器,0012891920杜村西区变压器,杜村中区变压器,牛堡内东2区变压器,东流德南2区变压器,0000005856南洪德统管农灌变压器,0000005387牛堡内南区变压器,0000006820慈顺东区变压器,0000005445南洪德南区变压器,0000006857南洪德北2区变压器,东诸侯新增配电变压器,文德东村北区变压器,0014418537南洪德南2区变压器,0012743367南洪德西区变压器,河北省曲阳县清凉庵变压器,0012735871北洪德农3变压器,0000005855西流德统管农灌变压器【纯农排变】,0000005854牛堡内统管南农变压器,南洪德中学变压器","powerOffReason":"【停电原因】由于站内设备检修导致３５ＫＶ管头变电站１０ＫＶ５１４洪德线路全线停电 【变更送电】因工作未完工原因，送电时间由１３日０２：００变更为１３日０４：００ 【发布渠道】保定市曲阳县电视台（０６月０３日至０６月０５日１８时至２０时之间）屏幕上方滚动","powerOffId":"2020060313000307"},{"poweroffId":2020060313000294,"sgpoweroffId":null,"subsName":"","lineName":"10kV515东旺线","pubTranName":"0000004953北管头变压器,0000005600北管头统管北农4号变压器,0012630044北管头西区变压器,0000006327北管头东区变压器,北管头统管西农2号变压器,0000005939北管头统管西农变压器,北管头中2区变压器,北管头农8变压器【纯农排变】,北管头小学变压器,0000006408北管头统管东农5#变压器【纯农排变】,0000005601北管头统管北农3号变压器,0014331042北管头中区变压器,中管头农1变压器【纯农排变】,北管头农6变压器,0000005873北管头统管东农1号变压器,","scope":"【影响街道/乡镇】燕赵镇 【影响客户】中管头部分、北管头","startTime":"2020-06-12 05:00:00","stopDate":"2020-06-13 04:00:00","orgNo":"1340619","typeCode":"计划停电","poweroffArea":"【全线路停电】停３５ＫＶ管头变电站１０ＫＶ５１５东旺线路全线，中管头农1变压器【纯农排变】,0000004953北管头变压器,0000005600北管头统管北农4号变压器,0012630044北管头西区变压器,0000006327北管头东区变压器,北管头统管西农2号变压器,0000005939北管头统管西农变压器,北管头中2区变压器,北管头农8变压器【纯农排变】,北管头小学变压器,0000006408北管头统管东农5#变压器【纯农排变】,0000005601北管头统管北农3号变压器,0014331042北管头中区变压器,北管头农6变压器,0000005873北管头统管东农1号变压器","poweroffReason":"【停电原因】由于站内设备检修导致３５ＫＶ管头变电站１０ＫＶ５１５东旺线路全线停电 【变更送电】因工作未完工原因，送电时间由１３日０２：００变更为１３日０４：００ 【发布渠道】保定市曲阳县电视台（０６月０３日至０６月０５日１８时至２０时之间）屏幕上方滚动","powerTime":"2020-06-13 03:20:00","powerComm":"已送电","subsNo":"","lineNo":"","tgNo":"","tgName":null,"infoStatus":"1","orgName":"国网曲阳县供电公司","typeName":null,"infoStatusName":null,"dateDay":null,"orgNos":null,"nowTime":null,"countyName":null,"streetName":null,"villageName":null,"roadName":null,"communityName":null,"tranName":null,"sdLineName":null,"cityCode":"1340619","cityName":"国网曲阳县供电公司","provinceCode":null,"stopTime":"2020-06-13 04:00:00","powerType":"全部","powerOffArea":"【全线路停电】停３５ＫＶ管头变电站１０ＫＶ５１５东旺线路全线，中管头农1变压器【纯农排变】,0000004953北管头变压器,0000005600北管头统管北农4号变压器,0012630044北管头西区变压器,0000006327北管头东区变压器,北管头统管西农2号变压器,0000005939北管头统管西农变压器,北管头中2区变压器,北管头农8变压器【纯农排变】,北管头小学变压器,0000006408北管头统管东农5#变压器【纯农排变】,0000005601北管头统管北农3号变压器,0014331042北管头中区变压器,北管头农6变压器,0000005873北管头统管东农1号变压器","powerOffReason":"【停电原因】由于站内设备检修导致３５ＫＶ管头变电站１０ＫＶ５１５东旺线路全线停电 【变更送电】因工作未完工原因，送电时间由１３日０２：００变更为１３日０４：００ 【发布渠道】保定市曲阳县电视台（０６月０３日至０６月０５日１８时至２０时之间）屏幕上方滚动","powerOffId":"2020060313000294"},{"poweroffId":2020060313000268,"sgpoweroffId":null,"subsName":"","lineName":"尚家柳线522","pubTranName":"07243|尚家柳农业村南1#农排5648【纯农排变】,07143|北尖东南农排0516【纯农排变】,尖窝面粉厂,高阳县建鑫毛巾厂变压器,恒立纺织印染有限公司,喜君纺织公司,王丙文毛巾厂,韩二强,河北伊佩姿纺织有限公司变压器,07131|尚家柳综合0503,河北明朗纺织品制造有限公司变压器,翟文杰,0728|尚家柳2#综合0400,高阳县鑫星巾被厂变压器,旭阳巾被厂,高阳县邢家南镇六合庄村民委员会一变压器,王丙文,南尖制线厂,尚家柳(北副业),天海巾被有限公司,北尖大队综合0394,南尖大队农业,070006|六合庄农业3#4976【纯农排变】,甄喜合,南光纺织有限公司,北尖大队,07140|北尖5#综合0505,高阳县晋庄镇西杨庄村变压器,翟敬通,邓新海,赵万通,中国石油华北油田公司第一采油厂西柳作业区（高64#）变压器,向阳毛纺厂,杨庄农业,南尖村北农业变压器,070010|六合庄农业1#4974【纯农排变】,翟志强,南尖农排3台区【纯农排变】,高阳县中金电力金具厂设备,07244|尚家柳农业村中2#农排5649【纯农排变】,翟老五,保定市武警支队一中队,代占良,尚家柳(北),尚家柳村东新增综合,张立春,070013|六合庄农业2#4975【纯农排变】,07145|北尖村中农排0517【纯农排变】,南尖农排5台区【纯农排变】,高阳县昱东棉纺织厂变压器,高阳县恒立纺织印染有限公司变压器,宋延宾,南尖农业,高阳县晋庄镇尚家柳村委会一变压器,07146|北尖东北农排0519【纯农排变】,南尖纺织厂变压器减容,河北六阳纺织品有限公司,北尖东北新增综合,高阳县嘉信市政建设有限公司变压器,代艳昌,华通医用器材公司,北尖絮片厂,高阳县双凤毛巾厂电压器,杨庄综合0402,南尖道北综合,北尖公路北综合,河北旭万格纺织有限公司变压器,高阳县晋庄镇尚家柳村委会二变压器,恒立(2号),代志安,07141|北尖大队综合0435,07245|尚家柳农业村北3#农排5651【纯农排变】,南尖农排8台区【纯农排变】,0727|尚家柳1#综合0399,高阳县胜达毛巾厂变压器,张杰,07142|北尖4变综合0419,高阳南光纺织公司,南尖染厂变压器减容,高阳县喜君巾被厂变压器,甄小建,南尖农排2台区【纯农排变】,北尖西北农排【纯农排变】,","scope":"【影响街道/乡镇】晋庄乡、邢南乡 【高危重要客户】无 【影响客户】尚家柳村、杨庄村、北尖村部分用户、南尖村部分用户、六合庄村西北部分农业、六合屯村西部分用户","startTime":"2020-06-21 05:00:00","stopDate":"2020-06-21 17:00:00","orgNo":"1340613","typeCode":"计划停电","poweroffArea":"【分支停电】停高阳县中金电力金具厂设备,07244|尚家柳农业村中2#农排5649【纯农排变】,翟老五,保定市武警支队一中队,尚家柳(北),河北伊佩姿纺织有限公司变压器,翟文杰,北尖大队综合0394,代占良,尚家柳村东新增综合,张立春,07145|北尖村中农排0517【纯农排变】,南尖农排5台区【纯农排变】,高阳县昱东棉纺织厂变压器,高阳县恒立纺织印染有限公司变压器,宋延宾,南尖农业,070013|六合庄农业2#4975【纯农排变】,中国石油华北油田公司第一采油厂西柳作业区（高64#）变压器,向阳毛纺厂,杨庄农业,南尖村北农业变压器,070010|六合庄农业1#4974【纯农排变】,高阳县晋庄镇尚家柳村委会一变压器,07146|北尖东北农排0519【纯农排变】,南尖纺织厂变压器减容,河北六阳纺织品有限公司,北尖东北新增综合,高阳县嘉信市政建设有限公司变压器,代艳昌,华通医用器材公司,北尖絮片厂,高阳县双凤毛巾厂电压器,甄小建,河北旭万格纺织有限公司变压器,高阳县晋庄镇尚家柳村委会二变压器,恒立(2号),代志安,07141|北尖大队综合0435,07245|尚家柳农业村北3#农排5651【纯农排变】,南尖农排8台区【纯农排变】,0727|尚家柳1#综合0399,高阳县胜达毛巾厂变压器,张杰,07142|北尖4变综合0419,高阳南光纺织公司,南尖染厂变压器减容,高阳县喜君巾被厂变压器,南尖农排2台区【纯农排变】,北尖西北农排【纯农排变】,高阳县鑫星巾被厂变压器,旭阳巾被厂,高阳县邢家南镇六合庄村民委员会一变压器,王丙文,南尖制线厂,尚家柳(北副业),天海巾被有限公司,南尖大队农业,070006|六合庄农业3#4976【纯农排变】,甄喜合,南光纺织有限公司,北尖大队,高阳县晋庄镇西杨庄村变压器,翟敬通,邓新海,赵万通,杨庄综合0402,南尖道北综合,北尖公路北综合,翟志强,07243|尚家柳农业村南1#农排5648【纯农排变】,07143|北尖东南农排0516【纯农排变】,尖窝面粉厂,高阳县建鑫毛巾厂变压器,恒立纺织印染有限公司,喜君纺织公司,王丙文毛巾厂,韩二强,07131|尚家柳综合0503,河北明朗纺织品制造有限公司变压器,0728|尚家柳2#综合0400,07140|北尖5#综合0505,南尖农排3台区【纯农排变】","poweroffReason":"【停电原因】由于安装断路器导致２２０ＫＶ高阳变电站尚家柳５２２线路主线５号杆５号开关以下停电【变更送电】无【发布渠道】高阳县电视台（６月４日１９时至２１时之间）屏幕下方滚动播出","powerTime":"","powerComm":"","subsNo":"","lineNo":"","tgNo":"","tgName":null,"infoStatus":"1","orgName":"国网高阳县供电公司","typeName":null,"infoStatusName":null,"dateDay":null,"orgNos":null,"nowTime":null,"countyName":null,"streetName":null,"villageName":null,"roadName":null,"communityName":null,"tranName":null,"sdLineName":null,"cityCode":"1340613","cityName":"国网高阳县供电公司","provinceCode":null,"stopTime":"2020-06-21 17:00:00","powerType":"未送电","powerOffArea":"【分支停电】停高阳县中金电力金具厂设备,07244|尚家柳农业村中2#农排5649【纯农排变】,翟老五,保定市武警支队一中队,尚家柳(北),河北伊佩姿纺织有限公司变压器,翟文杰,北尖大队综合0394,代占良,尚家柳村东新增综合,张立春,07145|北尖村中农排0517【纯农排变】,南尖农排5台区【纯农排变】,高阳县昱东棉纺织厂变压器,高阳县恒立纺织印染有限公司变压器,宋延宾,南尖农业,070013|六合庄农业2#4975【纯农排变】,中国石油华北油田公司第一采油厂西柳作业区（高64#）变压器,向阳毛纺厂,杨庄农业,南尖村北农业变压器,070010|六合庄农业1#4974【纯农排变】,高阳县晋庄镇尚家柳村委会一变压器,07146|北尖东北农排0519【纯农排变】,南尖纺织厂变压器减容,河北六阳纺织品有限公司,北尖东北新增综合,高阳县嘉信市政建设有限公司变压器,代艳昌,华通医用器材公司,北尖絮片厂,高阳县双凤毛巾厂电压器,甄小建,河北旭万格纺织有限公司变压器,高阳县晋庄镇尚家柳村委会二变压器,恒立(2号),代志安,07141|北尖大队综合0435,07245|尚家柳农业村北3#农排5651【纯农排变】,南尖农排8台区【纯农排变】,0727|尚家柳1#综合0399,高阳县胜达毛巾厂变压器,张杰,07142|北尖4变综合0419,高阳南光纺织公司,南尖染厂变压器减容,高阳县喜君巾被厂变压器,南尖农排2台区【纯农排变】,北尖西北农排【纯农排变】,高阳县鑫星巾被厂变压器,旭阳巾被厂,高阳县邢家南镇六合庄村民委员会一变压器,王丙文,南尖制线厂,尚家柳(北副业),天海巾被有限公司,南尖大队农业,070006|六合庄农业3#4976【纯农排变】,甄喜合,南光纺织有限公司,北尖大队,高阳县晋庄镇西杨庄村变压器,翟敬通,邓新海,赵万通,杨庄综合0402,南尖道北综合,北尖公路北综合,翟志强,07243|尚家柳农业村南1#农排5648【纯农排变】,07143|北尖东南农排0516【纯农排变】,尖窝面粉厂,高阳县建鑫毛巾厂变压器,恒立纺织印染有限公司,喜君纺织公司,王丙文毛巾厂,韩二强,07131|尚家柳综合0503,河北明朗纺织品制造有限公司变压器,0728|尚家柳2#综合0400,07140|北尖5#综合0505,南尖农排3台区【纯农排变】","powerOffReason":"【停电原因】由于安装断路器导致２２０ＫＶ高阳变电站尚家柳５２２线路主线５号杆５号开关以下停电【变更送电】无【发布渠道】高阳县电视台（６月４日１９时至２１时之间）屏幕下方滚动播出","powerOffId":"2020060313000268"},{"poweroffId":2020060313000256,"sgpoweroffId":null,"subsName":"","lineName":"板桥线557","pubTranName":"070023|南板村东北5367综合,07023|南板村南综合3618,07016|南板村西综合3718,07186|板桥村东综合3642,07195|板桥村西南综合3735,板桥村南2号新增综合,07185|板桥村南2综合3668,07184|板桥村南综合3635,07183|板桥村北综合3656,南板高保公路北2号综合,南板村南2号新增综合,南板高保公路北综合,板桥村东北综合,板桥村北学校综合,南板大队综合,07015|南板村北综合3717,南板村东新增综合,板桥村南西综合,07134|板桥村西北2#综合4815,","scope":"【影响街道/乡镇】晋庄乡 【高危重要客户】无 【影响客户】板桥村、南板村","startTime":"2020-06-20 05:00:00","stopDate":"2020-06-20 18:00:00","orgNo":"1340613","typeCode":"计划停电","poweroffArea":"【分支停电】停南板大队综合,07185|板桥村南2综合3668,07015|南板村北综合3717,南板村东新增综合,板桥村南西综合,07134|板桥村西北2#综合4815,070023|南板村东北5367综合,07023|南板村南综合3618,07016|南板村西综合3718,07186|板桥村东综合3642,07195|板桥村西南综合3735,板桥村南2号新增综合,07184|板桥村南综合3635,07183|板桥村北综合3656,南板高保公路北2号综合,南板村南2号新增综合,南板高保公路北综合,板桥村东北综合,板桥村北学校综合","poweroffReason":"【停电原因】由于更换电杆、导线导致１１０ＫＶ芦庄变电站板桥５５７线路主线２０号杆２０号开关停电【变更送电】无【发布渠道】高阳县电视台（６月４日１９时至２１时之间）屏幕下方滚动播出","powerTime":"","powerComm":"","subsNo":"","lineNo":"","tgNo":"","tgName":null,"infoStatus":"1","orgName":"国网高阳县供电公司","typeName":null,"infoStatusName":null,"dateDay":null,"orgNos":null,"nowTime":null,"countyName":null,"streetName":null,"villageName":null,"roadName":null,"communityName":null,"tranName":null,"sdLineName":null,"cityCode":"1340613","cityName":"国网高阳县供电公司","provinceCode":null,"stopTime":"2020-06-20 18:00:00","powerType":"未送电","powerOffArea":"【分支停电】停南板大队综合,07185|板桥村南2综合3668,07015|南板村北综合3717,南板村东新增综合,板桥村南西综合,07134|板桥村西北2#综合4815,070023|南板村东北5367综合,07023|南板村南综合3618,07016|南板村西综合3718,07186|板桥村东综合3642,07195|板桥村西南综合3735,板桥村南2号新增综合,07184|板桥村南综合3635,07183|板桥村北综合3656,南板高保公路北2号综合,南板村南2号新增综合,南板高保公路北综合,板桥村东北综合,板桥村北学校综合","powerOffReason":"【停电原因】由于更换电杆、导线导致１１０ＫＶ芦庄变电站板桥５５７线路主线２０号杆２０号开关停电【变更送电】无【发布渠道】高阳县电视台（６月４日１９时至２１时之间）屏幕下方滚动播出","powerOffId":"2020060313000256"},{"poweroffId":2020060313000240,"sgpoweroffId":null,"subsName":"","lineName":"10kV512杨东线","pubTranName":"杨东综合8台区,杨东综合1台区,杨东综合2台区,杨东综合5台区,杨东综合9台区,杨东农排1台区【纯农排变】,杨东综合6台区,杨东综合7台区,杨东综合3台区,杨东综合10台区,通达针织厂,老宽鸡厂,杨东综合12台区变压器,保定太平果园种植冷藏有限公司变压器500,保定太平果园种植冷藏有限公司80,杨东综合4台区,","scope":"【影响街道/乡镇】桑元镇【高危重要客户】无【影响客户】杨东村","startTime":"2020-06-03 14:45:45","stopDate":"2020-06-03 16:00:00","orgNo":"1340616","typeCode":"电网故障停限电","poweroffArea":"【全线路停电】停３５ＫＶ桑园变电站１０ＫＶ杨东５１２线路全线，杨东综合4台区,杨东综合8台区,杨东综合1台区,杨东综合2台区,杨东综合5台区,杨东综合9台区,杨东农排1台区【纯农排变】,杨东综合6台区,杨东综合7台区,杨东综合3台区,杨东综合10台区,通达针织厂,老宽鸡厂,杨东综合12台区变压器,保定太平果园种植冷藏有限公司变压器500,保定太平果园种植冷藏有限公司80","poweroffReason":"【停电原因】由于站内开关掉闸导致３５ＫＶ桑园变电站１０ＫＶ杨东５１２线路全线停电【变更送电】因抢修进度加快原因，送电时间由２３：００变更为１６：００【发布渠道】通过９５５９８发布","powerTime":"2020-06-03 15:28:58","powerComm":"已送电","subsNo":"","lineNo":"","tgNo":"","tgName":null,"infoStatus":"1","orgName":"国网蠡县供电公司","typeName":null,"infoStatusName":null,"dateDay":null,"orgNos":null,"nowTime":null,"countyName":null,"streetName":null,"villageName":null,"roadName":null,"communityName":null,"tranName":null,"sdLineName":null,"cityCode":"1340616","cityName":"国网蠡县供电公司","provinceCode":null,"stopTime":"2020-06-03 16:00:00","powerType":"全部","powerOffArea":"【全线路停电】停３５ＫＶ桑园变电站１０ＫＶ杨东５１２线路全线，杨东综合4台区,杨东综合8台区,杨东综合1台区,杨东综合2台区,杨东综合5台区,杨东综合9台区,杨东农排1台区【纯农排变】,杨东综合6台区,杨东综合7台区,杨东综合3台区,杨东综合10台区,通达针织厂,老宽鸡厂,杨东综合12台区变压器,保定太平果园种植冷藏有限公司变压器500,保定太平果园种植冷藏有限公司80","powerOffReason":"【停电原因】由于站内开关掉闸导致３５ＫＶ桑园变电站１０ＫＶ杨东５１２线路全线停电【变更送电】因抢修进度加快原因，送电时间由２３：００变更为１６：００【发布渠道】通过９５５９８发布","powerOffId":"2020060313000240"},{"poweroffId":2020060313000194,"sgpoweroffId":null,"subsName":"","lineName":"振华线529","pubTranName":"07227|于留佐西北2#农排5540【纯农排变】,赵国战,于留佐村西北新增综合,于留佐村西南新增综合,07232|于留佐西北7#农排5543【纯农排变】,07228|于留佐西北3#农排5541【纯农排变】,07233|于留佐西北8#农排5544【纯农排变】,07056|于留佐村南综合1622,尤庆川,07226|于留佐西北1#农排5539【纯农排变】,07055|于留佐村西综合1651,","scope":"【影响街道/乡镇】邢南乡 【高危重要客户】无 【影响客户】于留佐","startTime":"2020-06-20 05:00:00","stopDate":"2020-06-20 18:00:00","orgNo":"1340613","typeCode":"计划停电","poweroffArea":"【分支停电】停尤庆川,07226|于留佐西北1#农排5539【纯农排变】,07055|于留佐村西综合1651,07227|于留佐西北2#农排5540【纯农排变】,赵国战,于留佐村西北新增综合,于留佐村西南新增综合,07232|于留佐西北7#农排5543【纯农排变】,07228|于留佐西北3#农排5541【纯农排变】,07233|于留佐西北8#农排5544【纯农排变】,07056|于留佐村南综合1622","poweroffReason":"【停电原因】由于换杆换线导致２２０ＫＶ高阳变电站振华５２９线路于留佐主分支１号杆１号开关以下停电【变更送电】无【发布渠道】高阳县电视台（６月４日１９时至２１时之间）屏幕下方滚动播出","powerTime":"","powerComm":"","subsNo":"","lineNo":"","tgNo":"","tgName":null,"infoStatus":"1","orgName":"国网高阳县供电公司","typeName":null,"infoStatusName":null,"dateDay":null,"orgNos":null,"nowTime":null,"countyName":null,"streetName":null,"villageName":null,"roadName":null,"communityName":null,"tranName":null,"sdLineName":null,"cityCode":"1340613","cityName":"国网高阳县供电公司","provinceCode":null,"stopTime":"2020-06-20 18:00:00","powerType":"未送电","powerOffArea":"【分支停电】停尤庆川,07226|于留佐西北1#农排5539【纯农排变】,07055|于留佐村西综合1651,07227|于留佐西北2#农排5540【纯农排变】,赵国战,于留佐村西北新增综合,于留佐村西南新增综合,07232|于留佐西北7#农排5543【纯农排变】,07228|于留佐西北3#农排5541【纯农排变】,07233|于留佐西北8#农排5544【纯农排变】,07056|于留佐村南综合1622","powerOffReason":"【停电原因】由于换杆换线导致２２０ＫＶ高阳变电站振华５２９线路于留佐主分支１号杆１号开关以下停电【变更送电】无【发布渠道】高阳县电视台（６月４日１９时至２１时之间）屏幕下方滚动播出","powerOffId":"2020060313000194"},{"poweroffId":2020060313000185,"sgpoweroffId":null,"subsName":"","lineName":"10kV517郑村线","pubTranName":"东河综合1台区,赵佃庄综合14台区,东河综合13台区,东河综合3台区,东河综合6台区,东河综合4台区,刘庄综合1台区,赵佃庄综合10台区,赵佃庄综合3台区,东河综合10台区,辛兴所路灯4#变压器,刘庄综合2台区,东河综合8台区,赵佃庄综合5台区,赵佃庄综合9台区,赵佃庄综合8台区,东河综合7台区,赵佃庄综合11台区,东河综合2台区,赵佃庄综合13台区,刘庄综合4台区,东河综合5台区,刘庄综合6台区,赵佃庄综合1台区,赵佃庄综合16台区,赵佃庄综合15台区,辛兴所路灯3#变压器,赵佃庄综合2台区,赵佃庄综合7台区,赵佃庄综合12台区,东河综合12台区,东河综合11台区,刘庄综合3台区,","scope":"【影响街道/乡镇】辛兴镇【高危重要客户】无【影响客户】赵锻庄村、东河村、刘庄村、梁庄村","startTime":"2020-06-03 11:49:42","stopDate":"2020-06-03 16:00:00","orgNo":"1340616","typeCode":"电网故障停限电","poweroffArea":"【全线路停电】停１１０ＫＶ辛兴变电站１０ＫＶ郑村５１７线路全线，蠡县鑫达纺沙厂,河北隆达绒毛有限公司,东河东升皮毛厂,赵佃庄面粉厂,赵佃庄丝织厂,赵佃庄综合2台区,东河综合1台区,赵佃庄综合15台区,张亚东皮毛厂,赵佃庄综合3台区,蠡县振义水泥管道厂变压器,蠡县第一毛绒有限公司,赵佃庄综合5台区,蠡县东河悦毅毛绒厂变压器,蠡县恒利人造皮毛厂变压器,蠡县成化助剂有限公司,刘庄综合6台区,东河赵新乐毛纺厂,东河李建河,赵佃庄综合11台区,蠡县喜相逢饮品制造有限公司变压器,河北隆达绒毛有限公司变压器,蠡县李盛人造皮毛厂,东河综合10台区,刘庄综合1台区,兴旺人造皮毛厂变压器,占国沙口,东河和顺佳苑小区变压器,0552858526-蠡县东河刘程纺织厂-专变-171511201-晓辉变压器,刘庄综合3台区,东河综合12台区,0663809082-蠡县森雅绒毛制品有限公司-专变-199222445-蠡县森雅绒毛制品有限公司变压器,14517075|天宇毛纺厂,刘庄综合4台区,变压器,0667977279-蠡县辛兴兴农种子门市部-专变-209986603-蠡县辛兴兴农种子门市部变压器,东河世纪毛纺厂,赵佃庄综合14台区,赵佃庄综合9台区,老四,辛兴所路灯4#变压器,赵佃庄综合1台区,赵佃庄综合12台区,东河综合4台区,0663809082-蠡县森雅绒毛制品有限公司-专变-200850634-蠡县森雅绒毛制品有限公司,幸福家园,赵佃庄砖厂,0657745763-广东长青(集团)蠡县热电有限公司-专变-192886363-广东长青蠡县热电有限公司变压器,赵佃庄正学毛纺厂,东河板厂,蠡县辛兴镇卫生院,赵佃庄综合8台区,蠡县天宇毛纺厂,赵佃庄综合13台区,保定永盛毛绒有限公司变压器,东河占军毛条厂,东河综合3台区,蠡县森雅绒毛制品有限公司变压器,保定天龙制衣有限公司,东河恒通皮毛厂,东河医院,东河综合6台区,赵佃庄老闷皮毛厂,晓辉变压器,赵佃庄综合10台区,蠡县东河亚赛纸箱包装厂,赵佃庄综合16台区,刘庄综合2台区,兴河皮毛厂变压器,东河综合5台区,江海毛纺厂,烤鸭店,蠡县四龙纺织有限公司变压器,东河综合2台区,蠡县东河祥龙绒线厂变压器,东河综合7台区,蠡县东河亚赛纸箱包装,东河丽华皮毛厂,东河恒通皮毛2厂,瑞丰建材,东河村委会,恒力皮毛厂,东河南面粉厂,东河综合8台区,福隆纺纱厂,腾飞地毯沙厂,赵佃庄疏绒厂,赵佃庄爱军,蠡县东河渤润冷库,东河综合13台区,辛兴所路灯3#变压器,河北润凯纺织有限公司变压器,赵佃庄综合7台区,蠡县一诺纺织有限公司变压器,蠡县永盛毛绒有限公司,刘庄综合5台区,天宇毛纺厂,蠡县恒通人造皮毛厂,东河综合11台区","poweroffReason":"【停电原因】由于郑村５１７线路０４６－５３号杆导线脱落导致１１０ＫＶ辛兴变电站１０ＫＶ郑村５１７线路全线停电【变更送电】无【发布渠道】通过９５５９８发布","powerTime":"2020-06-03 15:01:35","powerComm":"已送电","subsNo":"","lineNo":"","tgNo":"","tgName":null,"infoStatus":"1","orgName":"国网蠡县供电公司","typeName":null,"infoStatusName":null,"dateDay":null,"orgNos":null,"nowTime":null,"countyName":null,"streetName":null,"villageName":null,"roadName":null,"communityName":null,"tranName":null,"sdLineName":null,"cityCode":"1340616","cityName":"国网蠡县供电公司","provinceCode":null,"stopTime":"2020-06-03 16:00:00","powerType":"全部","powerOffArea":"【全线路停电】停１１０ＫＶ辛兴变电站１０ＫＶ郑村５１７线路全线，蠡县鑫达纺沙厂,河北隆达绒毛有限公司,东河东升皮毛厂,赵佃庄面粉厂,赵佃庄丝织厂,赵佃庄综合2台区,东河综合1台区,赵佃庄综合15台区,张亚东皮毛厂,赵佃庄综合3台区,蠡县振义水泥管道厂变压器,蠡县第一毛绒有限公司,赵佃庄综合5台区,蠡县东河悦毅毛绒厂变压器,蠡县恒利人造皮毛厂变压器,蠡县成化助剂有限公司,刘庄综合6台区,东河赵新乐毛纺厂,东河李建河,赵佃庄综合11台区,蠡县喜相逢饮品制造有限公司变压器,河北隆达绒毛有限公司变压器,蠡县李盛人造皮毛厂,东河综合10台区,刘庄综合1台区,兴旺人造皮毛厂变压器,占国沙口,东河和顺佳苑小区变压器,0552858526-蠡县东河刘程纺织厂-专变-171511201-晓辉变压器,刘庄综合3台区,东河综合12台区,0663809082-蠡县森雅绒毛制品有限公司-专变-199222445-蠡县森雅绒毛制品有限公司变压器,14517075|天宇毛纺厂,刘庄综合4台区,变压器,0667977279-蠡县辛兴兴农种子门市部-专变-209986603-蠡县辛兴兴农种子门市部变压器,东河世纪毛纺厂,赵佃庄综合14台区,赵佃庄综合9台区,老四,辛兴所路灯4#变压器,赵佃庄综合1台区,赵佃庄综合12台区,东河综合4台区,0663809082-蠡县森雅绒毛制品有限公司-专变-200850634-蠡县森雅绒毛制品有限公司,幸福家园,赵佃庄砖厂,0657745763-广东长青(集团)蠡县热电有限公司-专变-192886363-广东长青蠡县热电有限公司变压器,赵佃庄正学毛纺厂,东河板厂,蠡县辛兴镇卫生院,赵佃庄综合8台区,蠡县天宇毛纺厂,赵佃庄综合13台区,保定永盛毛绒有限公司变压器,东河占军毛条厂,东河综合3台区,蠡县森雅绒毛制品有限公司变压器,保定天龙制衣有限公司,东河恒通皮毛厂,东河医院,东河综合6台区,赵佃庄老闷皮毛厂,晓辉变压器,赵佃庄综合10台区,蠡县东河亚赛纸箱包装厂,赵佃庄综合16台区,刘庄综合2台区,兴河皮毛厂变压器,东河综合5台区,江海毛纺厂,烤鸭店,蠡县四龙纺织有限公司变压器,东河综合2台区,蠡县东河祥龙绒线厂变压器,东河综合7台区,蠡县东河亚赛纸箱包装,东河丽华皮毛厂,东河恒通皮毛2厂,瑞丰建材,东河村委会,恒力皮毛厂,东河南面粉厂,东河综合8台区,福隆纺纱厂,腾飞地毯沙厂,赵佃庄疏绒厂,赵佃庄爱军,蠡县东河渤润冷库,东河综合13台区,辛兴所路灯3#变压器,河北润凯纺织有限公司变压器,赵佃庄综合7台区,蠡县一诺纺织有限公司变压器,蠡县永盛毛绒有限公司,刘庄综合5台区,天宇毛纺厂,蠡县恒通人造皮毛厂,东河综合11台区","powerOffReason":"【停电原因】由于郑村５１７线路０４６－５３号杆导线脱落导致１１０ＫＶ辛兴变电站１０ＫＶ郑村５１７线路全线停电【变更送电】无【发布渠道】通过９５５９８发布","powerOffId":"2020060313000185"},{"poweroffId":2020060313000167,"sgpoweroffId":null,"subsName":"","lineName":"10kv514韩庄线","pubTranName":"兀术营北,驸马庄路边浇地变压器【纯农排变】,薛家营变压器,西菜园西变压器,西加录南变压器,西营南,西营变压器,","scope":"【影响街道/乡镇】新城镇 【高危重要客户】无 【影响客户】蔡各庄村（北蔡）、东加录村、东营村（东柴家营）、恩赐庄村、驸马庄村、里一村、柳各庄村、兀术营村、西菜园村、西加录村、西营村（西柴家营）、薛家营村、薛辛庄伙村、杨家务村、张贲营村、恩赐庄养殖厂、付马庄面粉厂、高碑店市鑫鹿新型建材厂、白沟子朝革塑制品有限公司、新城敬老院、高碑店市水利局、中国移动通信高碑店分公司、河北创世房地产、新城思玥户外用品加工厂、高碑店市隆顺干混砂浆制造有限公司、驸马庄幼儿园、张贲营中心小学、杨家务中心小学、高碑店市明伟新型建材有限公司","startTime":"2020-06-03 11:20:00","stopDate":"2020-06-03 13:30:00","orgNo":"1340612","typeCode":"电网故障停限电","poweroffArea":"【全线路停电】停薛家营水2变压器【纯农排变】,东加录水6变压器【纯农排变】,东营水变压器【纯农排变】,张贲营水变压器【纯农排变】,高碑店市民政局新城敬老院变压器,高碑店市新城镇张贲营中心小学变压器,西营南,张贲营西水变压器,兀术营北,东加录东变压器,里遗变压器,里遗南变压器,薛辛庄伙变压器,高碑店市电力局变压器,驸马庄路边浇地变压器【纯农排变】,西菜园变压器,驸马庄水3变压器,恩赐庄西变压器,河北创世房地产开发有限公司,张贲营水4变压器,薛辛庄伙水变压器【纯农排变】,东营西水变压器【纯农排变】,兀术营变压器,西加录变压器,高碑店市新城镇东加录中心小学,薛家营水变压器【纯农排变】,东营北变压器,东加录东北水变压器【纯农排变】,东营南水变压器,柳各庄变压器,高碑店市明伟新型建材有限公司2变压器,蔡各庄水变压器【纯农排变】,东加录东1变压器,西营变压器,西加录东南水【纯农排变】,杨家务水3变压器【纯农排变】,东营变压器,兀术营水变压器【纯农排变】,西加录东北水变压器【纯农排变】,驸马庄水变压器,恩赐庄养殖厂,里遗北变压器,客户投资_恩赐庄变压器,白沟通宝海绵纸厂变压器,西菜园西变压器,高碑店市白沟子朝革塑制品有限公司变压器,西营海开变压器【纯农排变】,驸马庄新西,达子营水变压器【纯农排变】,里遗水3变压器【纯农排变】,里遗水变压器【纯农排变】,西菜园水变压器,杨家务水2变压器【纯农排变】,西加录水变压器,东加录水变压器【纯农排变】,高碑店市水力局,薛家营南台变压器,东加录水5变压器【纯农排变】,西菜园北水变压器,柳各庄西南水变压器【纯农排变】,里遗水2变压器【纯农排变】,东加录正东水变压器【纯农排变】,东加录南水变压器【纯农排变】,高碑店市鑫鹿新型建材厂,大陈庄水变压器50【纯农排变】,薛家营变压器,杨家务东台混用变压器,驸马庄西水变压器【纯农排变】,柳各庄水3变压器,高碑店市明伟新型建材有限公司1变压器,驸马庄北地变压器【纯农排变】,高碑店市新城镇总校附马庄幼儿园变压器,张贲营西变压器,高碑店市新城镇杨家务中心小学变压器,付马庄面粉厂,东加录南变压器,西加录北水变压器【纯农排变】,西加录西水变压器【纯农排变】,恩赐庄村3变压器,驸马庄西变压器,张贲营南水变压器【纯农排变】,张贲营水5变压器,中国移动通信集体河北有限公司高碑店分公司,裴永金变压器,张贲营东变压器,驸马庄路边变压器,蔡各庄南,西加录南变压器,杨家务变压器,柳各庄西北水变压器【纯农排变】,东加录变压器,蔡各庄北变压器,0677241775-高碑店市隆顺干混砂浆制造有限公司-专变-217785147-高碑店市隆顺干混砂浆制造有限公司变压器,蔡各庄变压器,西营水变压器【纯农排变】,蔡各庄水2变压器【纯农排变】,石辛庄水2变压器【纯农排变】,柳各庄水变压器,驸马庄东变压器,杨家务水变压器,驸马庄南变压器","poweroffReason":"【停电原因】由于张贲营分支２５号杆C相引线断导致３５ＫＶ加录变电站１０ＫＶ韩庄５１４线路全线停电 【变更送电】因抢修进度加快原因，送电时间由１７：００变更为１３：３０ 【发布渠道】通过９５５９８发布","powerTime":"2020-06-03 13:14:23","powerComm":"已送电","subsNo":"","lineNo":"","tgNo":"","tgName":null,"infoStatus":"1","orgName":"国网高碑店市供电公司","typeName":null,"infoStatusName":null,"dateDay":null,"orgNos":null,"nowTime":null,"countyName":null,"streetName":null,"villageName":null,"roadName":null,"communityName":null,"tranName":null,"sdLineName":null,"cityCode":"1340612","cityName":"国网高碑店市供电公司","provinceCode":null,"stopTime":"2020-06-03 13:30:00","powerType":"全部","powerOffArea":"【全线路停电】停薛家营水2变压器【纯农排变】,东加录水6变压器【纯农排变】,东营水变压器【纯农排变】,张贲营水变压器【纯农排变】,高碑店市民政局新城敬老院变压器,高碑店市新城镇张贲营中心小学变压器,西营南,张贲营西水变压器,兀术营北,东加录东变压器,里遗变压器,里遗南变压器,薛辛庄伙变压器,高碑店市电力局变压器,驸马庄路边浇地变压器【纯农排变】,西菜园变压器,驸马庄水3变压器,恩赐庄西变压器,河北创世房地产开发有限公司,张贲营水4变压器,薛辛庄伙水变压器【纯农排变】,东营西水变压器【纯农排变】,兀术营变压器,西加录变压器,高碑店市新城镇东加录中心小学,薛家营水变压器【纯农排变】,东营北变压器,东加录东北水变压器【纯农排变】,东营南水变压器,柳各庄变压器,高碑店市明伟新型建材有限公司2变压器,蔡各庄水变压器【纯农排变】,东加录东1变压器,西营变压器,西加录东南水【纯农排变】,杨家务水3变压器【纯农排变】,东营变压器,兀术营水变压器【纯农排变】,西加录东北水变压器【纯农排变】,驸马庄水变压器,恩赐庄养殖厂,里遗北变压器,客户投资_恩赐庄变压器,白沟通宝海绵纸厂变压器,西菜园西变压器,高碑店市白沟子朝革塑制品有限公司变压器,西营海开变压器【纯农排变】,驸马庄新西,达子营水变压器【纯农排变】,里遗水3变压器【纯农排变】,里遗水变压器【纯农排变】,西菜园水变压器,杨家务水2变压器【纯农排变】,西加录水变压器,东加录水变压器【纯农排变】,高碑店市水力局,薛家营南台变压器,东加录水5变压器【纯农排变】,西菜园北水变压器,柳各庄西南水变压器【纯农排变】,里遗水2变压器【纯农排变】,东加录正东水变压器【纯农排变】,东加录南水变压器【纯农排变】,高碑店市鑫鹿新型建材厂,大陈庄水变压器50【纯农排变】,薛家营变压器,杨家务东台混用变压器,驸马庄西水变压器【纯农排变】,柳各庄水3变压器,高碑店市明伟新型建材有限公司1变压器,驸马庄北地变压器【纯农排变】,高碑店市新城镇总校附马庄幼儿园变压器,张贲营西变压器,高碑店市新城镇杨家务中心小学变压器,付马庄面粉厂,东加录南变压器,西加录北水变压器【纯农排变】,西加录西水变压器【纯农排变】,恩赐庄村3变压器,驸马庄西变压器,张贲营南水变压器【纯农排变】,张贲营水5变压器,中国移动通信集体河北有限公司高碑店分公司,裴永金变压器,张贲营东变压器,驸马庄路边变压器,蔡各庄南,西加录南变压器,杨家务变压器,柳各庄西北水变压器【纯农排变】,东加录变压器,蔡各庄北变压器,0677241775-高碑店市隆顺干混砂浆制造有限公司-专变-217785147-高碑店市隆顺干混砂浆制造有限公司变压器,蔡各庄变压器,西营水变压器【纯农排变】,蔡各庄水2变压器【纯农排变】,石辛庄水2变压器【纯农排变】,柳各庄水变压器,驸马庄东变压器,杨家务水变压器,驸马庄南变压器","powerOffReason":"【停电原因】由于张贲营分支２５号杆C相引线断导致３５ＫＶ加录变电站１０ＫＶ韩庄５１４线路全线停电 【变更送电】因抢修进度加快原因，送电时间由１７：００变更为１３：３０ 【发布渠道】通过９５５９８发布","powerOffId":"2020060313000167"},{"poweroffId":2020060313000152,"sgpoweroffId":null,"subsName":"","lineName":"东马营512","pubTranName":"郭街村东变压器,吴街变压器,客户投资_东四西变压器,张村学校变压器,东四小一变压器,东三西变压器,李张北变压器,郭街变压器,米张东变压器,东一西变压器,东四变压器,李张西变压器,东二中变压器,东五西变压器,井村南变压器,胡街地北变压器【纯农排变】,胡街新变压器,东五变压器,东三东变压器,保定营变压器,保定营中变压器,东三新架变压器,胡街浇地1变压器【纯农排变】,丰元庄西变压器,东马营镇政府变压器,东二东变压器,井村变压器,马张变压器,米张变压器,东三变压器,赵张东变压器,马张南变压器,东一变压器,吴街西变压器,井村西变压器,何张南变压器,胡街地东变压器【纯农排变】,后院西变压器,胡街变压器,赵张北变压器,后院地西变压器,何张变压器,马张西变压器,李张南变压器,高张变压器,高张南变压器,后院变压器,东四南变压器,马张东变压器,东二变压器,赵张南变压器,丰元庄变压器,","scope":"【影响街道/乡镇】东马营镇 【高危重要客户】无 【影响客户】东一、东二、东三、东四、东五、井村、赵张、高张、米张、马张、李张、何张、丰元庄、胡街、吴街、后院、保定营、郭街、东马营镇政府、艳秋压铸厂、鑫天龙无纺布、神达化工、宋立军、孙栓良、东马营童星幼儿园、保定捷达箱包、东润物业、天润小区、东马营水厂、东马营卫生院、标爵脚垫卷材厂、天澍、赵明、徐二群、倒虹吸、乡直、蓝通热力、鹏泽房地产、张国林、李和平、同兴畜牧、东马营中学、马张小学、高张小学、知途箱包、吴斌","startTime":"2020-06-03 10:56:48","stopDate":"2020-06-03 12:30:00","orgNo":"1340612","typeCode":"电网故障停限电","poweroffArea":"【分支停电】停胡街浇地1变压器【纯农排变】,郭街变压器,马张地北变压器【纯农排变】,米张东变压器,高碑店市天龙旅游用品有限责任公司变压器,东二地变压器,东一西变压器,东四变压器,吴街排灌变压器【纯农排变】,东四小一变压器,中交第三公路工程局有限公司,何张地变压器【纯农排变】,东三西变压器,中交第三公路工程局有限公司9,中交第三公路工程局有限公司1,李张北变压器,盖春明,米张地变压器【纯农排变】,东马营中学,高碑店市同兴畜牧有限公司（井村）变压器,李张西变压器,东二中变压器,东四东,张国林养殖厂,东五西变压器,郭街南排变压器【纯农排变】,高碑店市东马营中学,李张地北变压器【纯农排变】,井村南变压器,胡街地北变压器【纯农排变】,东五南排变压器【纯农排变】,保定蓝通热力有限公司,东五地西变压器,胡街新变压器,宋立军,徐二群,乡直,东五变压器,东三地中变压器【纯农排变】,丰元庄西变压器,中交第三公路工程局有限公司7,李张浇地变压器【纯农排变】,东三东变压器,保定营变压器,赵张地变压器【纯农排变】,东四地北变压器,卫生所,保定营中变压器,东四方地变压器【纯农排变】,孙栓良,吴街地变压器【纯农排变】,高碑店市东润物业服务有限公司,中交第三公路工程局有限公司6,东三新架变压器,高碑店市东马营镇高张村幼儿园变压器,后院地变压器【纯农排变】,天澍公司,东四浇地变压器,林场砖厂,保北育林基地,张福林,马张南变压器,丰元庄浇地变压器【纯农排变】,中交第三公路工程局有限公司4,张克龙,东马营镇政府变压器,东二东变压器,井村变压器,马张变压器,高碑店市东马营标爵汽车卷材加工厂变压器,高碑店市东马营鑫天龙无纺布加工厂变压器,保定捷达箱包制造有限公司,倒洪吸变压器,高碑店市鹏泽房地产开发有限责任公司变压器02,米张变压器,高碑店市东马营中学变压器,东三变压器,高碑店市沃土土地整平服务有限公司01,吴斌,中交第三公路工程局有限公司3,东五北排变压器【纯农排变】,中学地北变压器【纯农排变】,东一变压器,井村地西变压器【纯农排变】,吴街西变压器,高碑店市东马营童星幼儿园,东二地西变压器,胡街浇地2变压器【纯农排变】,后院排灌变压器【纯农排变】,何张南变压器,中交第三公路工程局有限公司2,河北圣杰包装制品有限公司,胡街变压器,后院地西变压器,何张变压器,保定营北变压器【纯农排变】,汪庄地【纯农排变】,赵张东变压器,井村西变压器,胡街地东变压器【纯农排变】,后院西变压器,赵张北变压器,高张地变压器【纯农排变】,后院变压器,高碑店市鹏泽房地产开发有限责任公司变压器01,东一排灌变压器【纯农排变】,马张西变压器,井村地变压器【纯农排变】,李张南变压器,保定知途箱包制造有限公司变压器,高碑店市东马营镇沈各庄中心校变压器,高张变压器,高张南变压器,东马营水厂,东三地西,高碑店市沃土土地整平服务有限公司02,中交第三公路工程局有限公司12,中交第三公路工程局有限公司5,东四南变压器,马张东变压器,东二变压器,赵张南变压器,中交第三公路工程局有限公司10,丰元庄变压器,高碑店市艳秋压铸厂变压器,郭街村东变压器,吴街变压器,东三地东变压器,客户投资_东四西变压器,张村学校变压器","poweroffReason":"【停电原因】由于荣乌高速路施工中交四公司箱变高压电缆挖断导致１１０ＫＶ白沟变电站１０ＫＶ东马营５１２线路０１号断路器以下停电 【变更送电】因抢修进度加快原因，送电时间由１７：００变更为１２：３０ 【发布渠道】通过９５５９８发布","powerTime":"2020-06-03 12:01:27","powerComm":"已送电","subsNo":"","lineNo":"","tgNo":"","tgName":null,"infoStatus":"1","orgName":"国网高碑店市供电公司","typeName":null,"infoStatusName":null,"dateDay":null,"orgNos":null,"nowTime":null,"countyName":null,"streetName":null,"villageName":null,"roadName":null,"communityName":null,"tranName":null,"sdLineName":null,"cityCode":"1340612","cityName":"国网高碑店市供电公司","provinceCode":null,"stopTime":"2020-06-03 12:30:00","powerType":"全部","powerOffArea":"【分支停电】停胡街浇地1变压器【纯农排变】,郭街变压器,马张地北变压器【纯农排变】,米张东变压器,高碑店市天龙旅游用品有限责任公司变压器,东二地变压器,东一西变压器,东四变压器,吴街排灌变压器【纯农排变】,东四小一变压器,中交第三公路工程局有限公司,何张地变压器【纯农排变】,东三西变压器,中交第三公路工程局有限公司9,中交第三公路工程局有限公司1,李张北变压器,盖春明,米张地变压器【纯农排变】,东马营中学,高碑店市同兴畜牧有限公司（井村）变压器,李张西变压器,东二中变压器,东四东,张国林养殖厂,东五西变压器,郭街南排变压器【纯农排变】,高碑店市东马营中学,李张地北变压器【纯农排变】,井村南变压器,胡街地北变压器【纯农排变】,东五南排变压器【纯农排变】,保定蓝通热力有限公司,东五地西变压器,胡街新变压器,宋立军,徐二群,乡直,东五变压器,东三地中变压器【纯农排变】,丰元庄西变压器,中交第三公路工程局有限公司7,李张浇地变压器【纯农排变】,东三东变压器,保定营变压器,赵张地变压器【纯农排变】,东四地北变压器,卫生所,保定营中变压器,东四方地变压器【纯农排变】,孙栓良,吴街地变压器【纯农排变】,高碑店市东润物业服务有限公司,中交第三公路工程局有限公司6,东三新架变压器,高碑店市东马营镇高张村幼儿园变压器,后院地变压器【纯农排变】,天澍公司,东四浇地变压器,林场砖厂,保北育林基地,张福林,马张南变压器,丰元庄浇地变压器【纯农排变】,中交第三公路工程局有限公司4,张克龙,东马营镇政府变压器,东二东变压器,井村变压器,马张变压器,高碑店市东马营标爵汽车卷材加工厂变压器,高碑店市东马营鑫天龙无纺布加工厂变压器,保定捷达箱包制造有限公司,倒洪吸变压器,高碑店市鹏泽房地产开发有限责任公司变压器02,米张变压器,高碑店市东马营中学变压器,东三变压器,高碑店市沃土土地整平服务有限公司01,吴斌,中交第三公路工程局有限公司3,东五北排变压器【纯农排变】,中学地北变压器【纯农排变】,东一变压器,井村地西变压器【纯农排变】,吴街西变压器,高碑店市东马营童星幼儿园,东二地西变压器,胡街浇地2变压器【纯农排变】,后院排灌变压器【纯农排变】,何张南变压器,中交第三公路工程局有限公司2,河北圣杰包装制品有限公司,胡街变压器,后院地西变压器,何张变压器,保定营北变压器【纯农排变】,汪庄地【纯农排变】,赵张东变压器,井村西变压器,胡街地东变压器【纯农排变】,后院西变压器,赵张北变压器,高张地变压器【纯农排变】,后院变压器,高碑店市鹏泽房地产开发有限责任公司变压器01,东一排灌变压器【纯农排变】,马张西变压器,井村地变压器【纯农排变】,李张南变压器,保定知途箱包制造有限公司变压器,高碑店市东马营镇沈各庄中心校变压器,高张变压器,高张南变压器,东马营水厂,东三地西,高碑店市沃土土地整平服务有限公司02,中交第三公路工程局有限公司12,中交第三公路工程局有限公司5,东四南变压器,马张东变压器,东二变压器,赵张南变压器,中交第三公路工程局有限公司10,丰元庄变压器,高碑店市艳秋压铸厂变压器,郭街村东变压器,吴街变压器,东三地东变压器,客户投资_东四西变压器,张村学校变压器","powerOffReason":"【停电原因】由于荣乌高速路施工中交四公司箱变高压电缆挖断导致１１０ＫＶ白沟变电站１０ＫＶ东马营５１２线路０１号断路器以下停电 【变更送电】因抢修进度加快原因，送电时间由１７：００变更为１２：３０ 【发布渠道】通过９５５９８发布","powerOffId":"2020060313000152"}],"pageModel":{"pageNow":18,"totalCount":10973,"totalPage":1098,"tableRows":0,"pageCount":10,"beginCount":170},"isExperi":"1"}