{"message":"","today":"2020-06-15","seleList":[{"poweroffId":2019121913000065,"sgpoweroffId":null,"subsName":"","lineName":"大巨线512","pubTranName":"10kV东邵514线路涞山11号变压器,涞山村1号变压器,东邵中村10号变压器,东邵新村1#,东邵中村7#,涞山村2#,东邵东村3#,东邵新村2#,涞山村3#,东邵东村5#,东邵中村5#,涞山村6#,东邵新7号,10kV东邵514线路涞山10号变压器,东邵东村2#,东邵东村4#,东邵中村6#,涞山村4#,贾庄村8号【纯农排变】,涞山村8#,东邵中村2#,南韩村1#配变【纯农排变】,东邵中村1#,东邵东村6#,东邵新村5#,东邵东村9#【纯农排变】,东邵新村3号,东韩村3#,东邵新村4#,东韩村2#,东邵中村8#,贾庄村7号,东邵新6号,东邵东村7#变压器,东邵中村9#,涞山村7#,涞山12#变压器,","scope":"【影响街道/乡镇】凌云册乡【高危重要客户】无【影响客户】涞山村、东韩村、贾庄村、东邵新村、东邵中村、东邵东村","startTime":"2019-12-19 16:44:34","stopDate":"2019-12-19 20:00:00","orgNo":"1340625","typeCode":"电网故障停限电","poweroffArea":"【全线路停电】停涞山村贾红文,涞山村6#,贾庄村1号【纯农排变】,易县靠山新型建材制造有限公司250,东韩村3#,东韩村2#,贾庄村7号,东邵新6号,易县凌云册石灰厂(280KVA),涞山12#变压器,东邵东村1#【纯农排变】,东邵中村2#,东邵东村6#,易县涞山医院变压器,东邵东村9#【纯农排变】,涞山村4#,东邵新村4#,涞山村7#,东邵中村8#,东邵东村7#变压器,易县贺春石材经销处变压器,东邵中村9#,10kV东邵514线路涞山11号变压器,0469488018-66336部队凤凰山庄-专变-46820532-涞山果园,东邵中村4#,涞山村1号变压器,东邵新村1#,东邵中村7#,涞山村2#,东邵中村3#【纯农排变】,易县凡杰石材经销处,东邵东村3#,东邵新村2#,东邵中心小学变压器,涞山村3#,东邵东村5#,东邵中村5#,东邵新7号,10kV东邵514线路涞山10号变压器,东邵东村2#,东邵东村4#,东邵中村6#,贾庄村8号【纯农排变】,涞山村8#,北京地矿东邵50,南韩村1#配变【纯农排变】,赵洪涛板厂,东邵中村10号变压器,东邵中村1#,东邵新村5#,东邵新村3号","poweroffReason":"【停电原因】由于树枝搭线导致３５ＫＶ凌云册变电站大巨线５１２线路全线停电【变更送电】因抢修进度加快原因，送电时间由２３：００变更为２０：００【发布渠道】通过９５５９８发布","powerTime":"2019-12-19 19:14:37","powerComm":"已送电","subsNo":"","lineNo":"","tgNo":"","tgName":null,"infoStatus":"1","orgName":"国网易县供电公司","typeName":null,"infoStatusName":null,"dateDay":null,"orgNos":null,"nowTime":null,"countyName":null,"streetName":null,"villageName":null,"roadName":null,"communityName":null,"tranName":null,"sdLineName":null,"cityCode":"1340625","cityName":"国网易县供电公司","provinceCode":null,"stopTime":"2019-12-19 20:00:00","powerType":"全部","powerOffArea":"【全线路停电】停涞山村贾红文,涞山村6#,贾庄村1号【纯农排变】,易县靠山新型建材制造有限公司250,东韩村3#,东韩村2#,贾庄村7号,东邵新6号,易县凌云册石灰厂(280KVA),涞山12#变压器,东邵东村1#【纯农排变】,东邵中村2#,东邵东村6#,易县涞山医院变压器,东邵东村9#【纯农排变】,涞山村4#,东邵新村4#,涞山村7#,东邵中村8#,东邵东村7#变压器,易县贺春石材经销处变压器,东邵中村9#,10kV东邵514线路涞山11号变压器,0469488018-66336部队凤凰山庄-专变-46820532-涞山果园,东邵中村4#,涞山村1号变压器,东邵新村1#,东邵中村7#,涞山村2#,东邵中村3#【纯农排变】,易县凡杰石材经销处,东邵东村3#,东邵新村2#,东邵中心小学变压器,涞山村3#,东邵东村5#,东邵中村5#,东邵新7号,10kV东邵514线路涞山10号变压器,东邵东村2#,东邵东村4#,东邵中村6#,贾庄村8号【纯农排变】,涞山村8#,北京地矿东邵50,南韩村1#配变【纯农排变】,赵洪涛板厂,东邵中村10号变压器,东邵中村1#,东邵新村5#,东邵新村3号","powerOffReason":"【停电原因】由于树枝搭线导致３５ＫＶ凌云册变电站大巨线５１２线路全线停电【变更送电】因抢修进度加快原因，送电时间由２３：００变更为２０：００【发布渠道】通过９５５９８发布","powerOffId":"2019121913000065"},{"poweroffId":2019121913000053,"sgpoweroffId":null,"subsName":"","lineName":"10kV569赵村线","pubTranName":"赵村公用照明6台区,孟家庄公用照明13台区,孟家庄公用照明21台区,赵村公用照明4台区,西甘德公用照明5台区,孟家庄公用照明11台区,孟家庄公用照明2台区,孟家庄公用照明5台区【纯农排变】,孟家庄公用照明9台区,孟家庄公用照明14台区,孟家庄公用照明10台区【纯农排变】,客户投资_西南佐公用照明2台区,韩家庄公用照明2台区,孟家庄公用照明16台区,孟家庄公用照明7台区,西南佐公用照明1台区,客户投资_孟家庄公用照明8台区,赵村公用照明3台区,韩家庄公用照明1台区,韩家庄公用照明5台区,韩家庄公用照明6台区,孟家庄公用照明12台区,赵村公用照明1台区,孟家庄公用照明18台区,西甘德公用照明2台区,孟家庄公用照明6台区,韩家庄公用照明4台区,客户投资_孟家庄公用照明4台区,韩家庄公用照明7台区,孟家庄公用照明19台区,西甘德公用照明3台区,赵村公用照明2台区,孟家庄公用照明20台区,孟家庄公用照明3台区,西甘德公用照明1台区,赵村乡政府公用照明1台区,韩家庄公用照明3台区,孟家庄公用照明17台区,西甘德公用照明6台区,西甘德公用照明4台区,赵村公用照明5台区,","scope":"【影响街道/乡镇】赵村乡【高危重要客户】无【影响客户】西甘德、赵村、西南佐、韩家庄、孟家庄","startTime":"2020-01-04 06:30:00","stopDate":"2020-01-04 17:00:00","orgNo":"1340610","typeCode":"计划停电","poweroffArea":"【全线路停电】停客户投资_孟家庄公用照明8台区,赵村公用照明3台区,韩家庄公用照明1台区,韩家庄公用照明5台区,韩家庄公用照明6台区,孟家庄公用照明12台区,赵村公用照明1台区,孟家庄公用照明18台区,西甘德公用照明2台区,孟家庄公用照明6台区,韩家庄公用照明4台区,客户投资_孟家庄公用照明4台区,韩家庄公用照明7台区,孟家庄公用照明19台区,西甘德公用照明3台区,赵村公用照明2台区,孟家庄公用照明20台区,孟家庄公用照明3台区,西甘德公用照明1台区,赵村乡政府公用照明1台区,韩家庄公用照明3台区,孟家庄公用照明17台区,西甘德公用照明6台区,西甘德公用照明4台区,赵村公用照明5台区,赵村公用照明6台区,孟家庄公用照明13台区,孟家庄公用照明21台区,赵村公用照明4台区,西甘德公用照明5台区,孟家庄公用照明11台区,孟家庄公用照明2台区,孟家庄公用照明5台区【纯农排变】,孟家庄公用照明9台区,孟家庄公用照明14台区,孟家庄公用照明10台区【纯农排变】,客户投资_西南佐公用照明2台区,韩家庄公用照明2台区,孟家庄公用照明16台区,孟家庄公用照明7台区,西南佐公用照明1台区","poweroffReason":"【停电原因】由于新增电杆、安装电缆头导致１１０ＫＶ焦化厂变电站１０ＫＶ５６９赵村线路全线停电 【变更送电】无 【发布渠道】河北省定州市定州日报第三版（２０１９年１２月２０日）","powerTime":"2020-01-04 16:54:20","powerComm":"已送电","subsNo":"","lineNo":"","tgNo":"","tgName":null,"infoStatus":"1","orgName":"国网定州市供电公司","typeName":null,"infoStatusName":null,"dateDay":null,"orgNos":null,"nowTime":null,"countyName":null,"streetName":null,"villageName":null,"roadName":null,"communityName":null,"tranName":null,"sdLineName":null,"cityCode":"1340610","cityName":"国网定州市供电公司","provinceCode":null,"stopTime":"2020-01-04 17:00:00","powerType":"全部","powerOffArea":"【全线路停电】停客户投资_孟家庄公用照明8台区,赵村公用照明3台区,韩家庄公用照明1台区,韩家庄公用照明5台区,韩家庄公用照明6台区,孟家庄公用照明12台区,赵村公用照明1台区,孟家庄公用照明18台区,西甘德公用照明2台区,孟家庄公用照明6台区,韩家庄公用照明4台区,客户投资_孟家庄公用照明4台区,韩家庄公用照明7台区,孟家庄公用照明19台区,西甘德公用照明3台区,赵村公用照明2台区,孟家庄公用照明20台区,孟家庄公用照明3台区,西甘德公用照明1台区,赵村乡政府公用照明1台区,韩家庄公用照明3台区,孟家庄公用照明17台区,西甘德公用照明6台区,西甘德公用照明4台区,赵村公用照明5台区,赵村公用照明6台区,孟家庄公用照明13台区,孟家庄公用照明21台区,赵村公用照明4台区,西甘德公用照明5台区,孟家庄公用照明11台区,孟家庄公用照明2台区,孟家庄公用照明5台区【纯农排变】,孟家庄公用照明9台区,孟家庄公用照明14台区,孟家庄公用照明10台区【纯农排变】,客户投资_西南佐公用照明2台区,韩家庄公用照明2台区,孟家庄公用照明16台区,孟家庄公用照明7台区,西南佐公用照明1台区","powerOffReason":"【停电原因】由于新增电杆、安装电缆头导致１１０ＫＶ焦化厂变电站１０ＫＶ５６９赵村线路全线停电 【变更送电】无 【发布渠道】河北省定州市定州日报第三版（２０１９年１２月２０日）","powerOffId":"2019121913000053"},{"poweroffId":2019121913000029,"sgpoweroffId":null,"subsName":"","lineName":"10kV三厂519","pubTranName":"徐家庄村内变压器,","scope":"【影响街道/乡镇】东文山乡 【高危重要客户】无 【影响客户】徐家庄村、翔海房地产、保定万泰房地产","startTime":"2019-12-19 12:30:00","stopDate":"2019-12-19 15:30:00","orgNo":"1340614","typeCode":"其他临时停电","poweroffArea":"【全线路停电】停徐家庄村内变压器,0629862889-翔海房地产开发集团有限公司-专变-141412681-翔海房地产开发有限公司315KVA专变,0615779171-河北翔海房地产开发有限公司-专变-128294483-翔海房地产开发公司315KVA一台,0636151174-保定万泰房地产开发有限公司-专变-148184093-保定万泰房地产开发有限公司专变500KVA","poweroffReason":"【停电原因】由于刀闸过热需停电进行紧急消缺导致１１０ＫＶ涞水变电站１０ＫＶ三厂５１９线路全线停电 【变更送电】无 【发布渠道】通过９５５９８发布","powerTime":"2019-12-19 15:07:11","powerComm":"已送电","subsNo":"","lineNo":"","tgNo":"","tgName":null,"infoStatus":"1","orgName":"国网涞水县供电公司","typeName":null,"infoStatusName":null,"dateDay":null,"orgNos":null,"nowTime":null,"countyName":null,"streetName":null,"villageName":null,"roadName":null,"communityName":null,"tranName":null,"sdLineName":null,"cityCode":"1340614","cityName":"国网涞水县供电公司","provinceCode":null,"stopTime":"2019-12-19 15:30:00","powerType":"全部","powerOffArea":"【全线路停电】停徐家庄村内变压器,0629862889-翔海房地产开发集团有限公司-专变-141412681-翔海房地产开发有限公司315KVA专变,0615779171-河北翔海房地产开发有限公司-专变-128294483-翔海房地产开发公司315KVA一台,0636151174-保定万泰房地产开发有限公司-专变-148184093-保定万泰房地产开发有限公司专变500KVA","powerOffReason":"【停电原因】由于刀闸过热需停电进行紧急消缺导致１１０ＫＶ涞水变电站１０ＫＶ三厂５１９线路全线停电 【变更送电】无 【发布渠道】通过９５５９８发布","powerOffId":"2019121913000029"},{"poweroffId":2019121913000014,"sgpoweroffId":null,"subsName":"","lineName":"东关II线526","pubTranName":"大水泥家属院,化工家属院,所药新民居,昌平路南2号配变,东关内东2,昌平路北2号新上,所药混合,东关新民居南,所药村配变,所药社区配电变压器,东关大沟,电力局东院,所药村西1|,昌兴家园配电变压器,东关村南混合,人行联社院,昌平路配变,师馨家园配电变压器,东关村南混3,东关新民居北,所药内西2,所药社区1号,师馨家园2配电变压器,","scope":"【影响街道/乡镇】望都镇、昌平路　 【高危重要客户】无　　 【影响客户】东关村、东关新民居、所药村、所药新民居、师馨家园、化肥家属院、化工家属院、大水泥家属院、人行联社院、盛景园小区、电力局东院、文教局家属院、杏林苑（中医院家属楼）、名仕苑小区、中医院、望都镇卫生院","startTime":"2019-12-19 07:50:47","stopDate":"2019-12-19 09:20:00","orgNo":"1340623","typeCode":"电网故障停限电","poweroffArea":"【全线路停电】停所药新民居,昌平路南2号配变,昌平路北2号新上,东关新民居南,东关大沟,所药村西1|,大水泥家属院,化工家属院,东关内东2,所药混合,所药村配变,所药社区配电变压器,电力局东院,昌兴家园配电变压器,东关村南混合,人行联社院,昌平路配变,师馨家园配电变压器,东关村南混3,东关新民居北,所药内西2,所药社区1号,师馨家园2配电变压器","poweroffReason":"【停电原因】由于化肥厂院分支隔离引线烧毁导致１１０ＫＶ八里庄变电站东关ＩＩ线５２６线路全线停电 【变更送电】因抢修进度加快原因，送电时间由２０：００变更为０９：２０ 【发布渠道】通过９５５９８发布","powerTime":"2019-12-19 08:37:22","powerComm":"已送电","subsNo":"","lineNo":"","tgNo":"","tgName":null,"infoStatus":"1","orgName":"国网望都县供电公司","typeName":null,"infoStatusName":null,"dateDay":null,"orgNos":null,"nowTime":null,"countyName":null,"streetName":null,"villageName":null,"roadName":null,"communityName":null,"tranName":null,"sdLineName":null,"cityCode":"1340623","cityName":"国网望都县供电公司","provinceCode":null,"stopTime":"2019-12-19 09:20:00","powerType":"全部","powerOffArea":"【全线路停电】停所药新民居,昌平路南2号配变,昌平路北2号新上,东关新民居南,东关大沟,所药村西1|,大水泥家属院,化工家属院,东关内东2,所药混合,所药村配变,所药社区配电变压器,电力局东院,昌兴家园配电变压器,东关村南混合,人行联社院,昌平路配变,师馨家园配电变压器,东关村南混3,东关新民居北,所药内西2,所药社区1号,师馨家园2配电变压器","powerOffReason":"【停电原因】由于化肥厂院分支隔离引线烧毁导致１１０ＫＶ八里庄变电站东关ＩＩ线５２６线路全线停电 【变更送电】因抢修进度加快原因，送电时间由２０：００变更为０９：２０ 【发布渠道】通过９５５９８发布","powerOffId":"2019121913000014"},{"poweroffId":2019121913000009,"sgpoweroffId":null,"subsName":"","lineName":"贤寓线514","pubTranName":"贤寓光1,贤寓光7【2018年节能变】,新贤寓村光6,贤寓光4,贤寓光11,贤寓光9,贤寓光5,贤寓光12,贤寓光16变压器,贤寓光11【2018年节能变】,贤寓中心卫生院,贤寓光2,贤寓光综14,贤寓光1【2018年节能变】,贤寓光8【2018年重过载】,贤寓光3,贤寓光8【2018年四批补强】,贤寓光综15,贤寓乡政府,贤寓光7,贤寓光12【2018年技改】,","scope":"【影响街道/乡镇】贤寓镇 【高危重要客户】贤寓中心卫生院 【影响客户】贤寓村、贤寓乡政府、贤寓幼儿园、贤寓小学、东凯铸造辅料有限公司、北人机械附件厂、京源食品有限公司","startTime":"2019-12-19 04:44:34","stopDate":"2019-12-19 07:00:00","orgNo":"1340609","typeCode":"电网故障停限电","poweroffArea":"【全线路停电】停400,贤寓光11【2018年节能变】,贤寓中心卫生院,0011677024贤寓网通分公司,贤寓光2,贤寓光综14,贤寓光1【2018年节能变】,贤寓光3,贤寓光5,贤寓光8【2018年重过载】,贤寓光8【2018年四批补强】,0011677044贤寓排12,贤寓光4,0011676983贤寓排13,贤寓光9,0011677048*河北京源食品有限公司,贤寓光综15,贤寓乡政府,贤寓光7,贤寓光11,贤寓光12【2018年技改】,贤寓光1,贤寓光7【2018年节能变】,新贤寓村光6,变压器,160,贤寓光12,贤寓光16变压器,0011677001定兴县东凯铸造辅料有限公司,0011677003定兴县北人机械附件厂","poweroffReason":"【停电原因】由于马大姐糖厂避雷器烧毁导致３５ＫＶ贤寓变电站贤寓线５１４线路全线停电 【变更送电】因抢修进度加快原因，送电时间由１２：００变更为７：００ 【发布渠道】通过９５５９８发布","powerTime":"2019-12-19 06:12:25","powerComm":"已送电","subsNo":"","lineNo":"","tgNo":"","tgName":null,"infoStatus":"1","orgName":"国网定兴县供电公司","typeName":null,"infoStatusName":null,"dateDay":null,"orgNos":null,"nowTime":null,"countyName":null,"streetName":null,"villageName":null,"roadName":null,"communityName":null,"tranName":null,"sdLineName":null,"cityCode":"1340609","cityName":"国网定兴县供电公司","provinceCode":null,"stopTime":"2019-12-19 07:00:00","powerType":"全部","powerOffArea":"【全线路停电】停400,贤寓光11【2018年节能变】,贤寓中心卫生院,0011677024贤寓网通分公司,贤寓光2,贤寓光综14,贤寓光1【2018年节能变】,贤寓光3,贤寓光5,贤寓光8【2018年重过载】,贤寓光8【2018年四批补强】,0011677044贤寓排12,贤寓光4,0011676983贤寓排13,贤寓光9,0011677048*河北京源食品有限公司,贤寓光综15,贤寓乡政府,贤寓光7,贤寓光11,贤寓光12【2018年技改】,贤寓光1,贤寓光7【2018年节能变】,新贤寓村光6,变压器,160,贤寓光12,贤寓光16变压器,0011677001定兴县东凯铸造辅料有限公司,0011677003定兴县北人机械附件厂","powerOffReason":"【停电原因】由于马大姐糖厂避雷器烧毁导致３５ＫＶ贤寓变电站贤寓线５１４线路全线停电 【变更送电】因抢修进度加快原因，送电时间由１２：００变更为７：００ 【发布渠道】通过９５５９８发布","powerOffId":"2019121913000009"},{"poweroffId":2019121913000007,"sgpoweroffId":null,"subsName":"","lineName":"南大牛线511","pubTranName":"南幸光3,南合庄光18,南幸排13【纯农排变】,南合庄光17,南合庄光14,南合庄光13,南幸光8,南合庄光4,南合庄光15,南合庄光10,南幸光10变压器,南合庄光11,南合庄光1,南合庄光2,南幸光5,南合庄光16,南合庄光9,南合庄光12,南合庄光6,新南幸光4,南幸光1,南合庄光5,南合庄光7,南合庄光3,南幸光7,南幸排14【纯农排变】,南合庄光8,南幸排5【纯农排变】,南幸排6【纯农排变】,南幸光9,南幸光6,","scope":"【影响街道/乡镇】贤寓镇 【高危重要客户】无 【影响客户】南幸、南合庄、贤寓部分用户、永强化工有限公司、南幸面粉厂、贤寓幼儿园、贤寓小学","startTime":"2019-12-19 04:30:05","stopDate":"2019-12-19 11:00:00","orgNo":"1340609","typeCode":"电网故障停限电","poweroffArea":"【全线路停电】停0011677056定兴县永强化工有限公司,南合庄光3,南合庄光14,南合庄排2【纯农排变】,南合庄光13,南合庄排1【纯农排变】,南幸光8,南幸排4【纯农排变】,南幸排3【纯农排变】,0011677054南幸冰棍厂,南合庄光4,南合庄排7【纯农排变】,南合庄光10,0011677011南幸面粉厂,南幸光10变压器,南合庄光11,贤寓幼儿园-200,贤寓小学-315,南合庄光1,南合庄光2,南幸排2【纯农排变】,南合庄排5【纯农排变】,南幸光5,0696770179-定兴县南合庄幼儿园-专变-240818939-160,南合庄光16,南幸排7【纯农排变】,南幸光7,南合庄排4【纯农排变】,南合庄光8,南幸排6【纯农排变】,贤寓排15,南合庄排9【纯农排变】,南合庄光9,南合庄光6,南合庄排3【纯农排变】,新南幸光4,南幸光1,南合庄光5,南合庄光15,南幸排14【纯农排变】,0696765115-定兴县南幸村小学-专变-240818945-南幸村小学,南幸排5【纯农排变】,南幸排1【纯农排变】,南幸光6,0622054375-贤寓排17-专变-129784838-贤寓排17,南合庄光17,南幸排12【纯农排变】,南合庄光12,南合庄光7,南幸光9,南幸光2,南幸光3,南合庄排6【纯农排变】,南合庄光18,南幸排13【纯农排变】,南合庄排8【纯农排变】","poweroffReason":"【停电原因】由于南幸小学分支电缆绝缘击穿导致３５ＫＶ贤寓变电站南大牛线５１１线路全线停电 【变更送电】因抢修进度加快原因，送电时间由１２：００变更为１１：００ 【发布渠道】通过９５５９８发布","powerTime":"2019-12-19 10:35:30","powerComm":"已送电","subsNo":"","lineNo":"","tgNo":"","tgName":null,"infoStatus":"1","orgName":"国网定兴县供电公司","typeName":null,"infoStatusName":null,"dateDay":null,"orgNos":null,"nowTime":null,"countyName":null,"streetName":null,"villageName":null,"roadName":null,"communityName":null,"tranName":null,"sdLineName":null,"cityCode":"1340609","cityName":"国网定兴县供电公司","provinceCode":null,"stopTime":"2019-12-19 11:00:00","powerType":"全部","powerOffArea":"【全线路停电】停0011677056定兴县永强化工有限公司,南合庄光3,南合庄光14,南合庄排2【纯农排变】,南合庄光13,南合庄排1【纯农排变】,南幸光8,南幸排4【纯农排变】,南幸排3【纯农排变】,0011677054南幸冰棍厂,南合庄光4,南合庄排7【纯农排变】,南合庄光10,0011677011南幸面粉厂,南幸光10变压器,南合庄光11,贤寓幼儿园-200,贤寓小学-315,南合庄光1,南合庄光2,南幸排2【纯农排变】,南合庄排5【纯农排变】,南幸光5,0696770179-定兴县南合庄幼儿园-专变-240818939-160,南合庄光16,南幸排7【纯农排变】,南幸光7,南合庄排4【纯农排变】,南合庄光8,南幸排6【纯农排变】,贤寓排15,南合庄排9【纯农排变】,南合庄光9,南合庄光6,南合庄排3【纯农排变】,新南幸光4,南幸光1,南合庄光5,南合庄光15,南幸排14【纯农排变】,0696765115-定兴县南幸村小学-专变-240818945-南幸村小学,南幸排5【纯农排变】,南幸排1【纯农排变】,南幸光6,0622054375-贤寓排17-专变-129784838-贤寓排17,南合庄光17,南幸排12【纯农排变】,南合庄光12,南合庄光7,南幸光9,南幸光2,南幸光3,南合庄排6【纯农排变】,南合庄光18,南幸排13【纯农排变】,南合庄排8【纯农排变】","powerOffReason":"【停电原因】由于南幸小学分支电缆绝缘击穿导致３５ＫＶ贤寓变电站南大牛线５１１线路全线停电 【变更送电】因抢修进度加快原因，送电时间由１２：００变更为１１：００ 【发布渠道】通过９５５９８发布","powerOffId":"2019121913000007"},{"poweroffId":2019121913000001,"sgpoweroffId":null,"subsName":"","lineName":"正村区线511","pubTranName":"大次良9号【纯农排变】,","scope":"【影响街道/乡镇】遂城镇 【高危重要客户】无 【影响客户】大次良村","startTime":"2019-12-18 23:59:31","stopDate":"2019-12-19 03:00:00","orgNo":"1340605","typeCode":"电网故障停限电","poweroffArea":"【全线路停电】停大次良28号,大次良20号,大次良9号【纯农排变】","poweroffReason":"【停电原因】由于Ｂ相接地导致３５ＫＶ大王店变电站正村区线５１１线路全线停电 【变更送电】因抢修进度加快原因，送电时间由１０:００变更为０３:００ 【发布渠道】通过９５５９８发布","powerTime":"2019-12-19 02:30:21","powerComm":"已送电","subsNo":"","lineNo":"","tgNo":"","tgName":null,"infoStatus":"1","orgName":"国网徐水县供电公司","typeName":null,"infoStatusName":null,"dateDay":null,"orgNos":null,"nowTime":null,"countyName":null,"streetName":null,"villageName":null,"roadName":null,"communityName":null,"tranName":null,"sdLineName":null,"cityCode":"1340605","cityName":"国网徐水县供电公司","provinceCode":null,"stopTime":"2019-12-19 03:00:00","powerType":"全部","powerOffArea":"【全线路停电】停大次良28号,大次良20号,大次良9号【纯农排变】","powerOffReason":"【停电原因】由于Ｂ相接地导致３５ＫＶ大王店变电站正村区线５１１线路全线停电 【变更送电】因抢修进度加快原因，送电时间由１０:００变更为０３:００ 【发布渠道】通过９５５９８发布","powerOffId":"2019121913000001"},{"poweroffId":2019121821000009,"sgpoweroffId":null,"subsName":"","lineName":"10kV联盟路站527线路","pubTranName":"B101柱上变压器,","scope":"【影响街道/乡镇】莲池区刘守庙街、南大园乡 【高危重要客户】无 【影响客户】尧上村","startTime":"2019-12-18 19:00:00","stopDate":"2019-12-19 00:00:00","orgNo":"13406","typeCode":"电网故障停限电","poweroffArea":"【单台区停电】停B101柱上变压器","poweroffReason":"【停电原因】由于低压刀闸烧导致１０ＫＶ联盟路变电站５２７线路Ｂ１０１公变台区停电【变更送电】无【发布渠道】通过９５５９８发布","powerTime":"2019-12-18 23:31:02","powerComm":"已送电","subsNo":"","lineNo":"","tgNo":"","tgName":null,"infoStatus":"1","orgName":"保定供电公司","typeName":null,"infoStatusName":null,"dateDay":null,"orgNos":null,"nowTime":null,"countyName":null,"streetName":null,"villageName":null,"roadName":null,"communityName":null,"tranName":null,"sdLineName":null,"cityCode":"13406","cityName":"保定供电公司","provinceCode":null,"stopTime":"2019-12-19 00:00:00","powerType":"全部","powerOffArea":"【单台区停电】停B101柱上变压器","powerOffReason":"【停电原因】由于低压刀闸烧导致１０ＫＶ联盟路变电站５２７线路Ｂ１０１公变台区停电【变更送电】无【发布渠道】通过９５５９８发布","powerOffId":"2019121821000009"},{"poweroffId":2019121815011728,"sgpoweroffId":null,"subsName":"","lineName":"10kV祝泽站519线路","pubTranName":"B1110柱上变压器,B1277柱上变压器,10kVB1286配电室B1286配电变压器,B364柱上变压器,B1894柱上变压器,B1780柱上变压器,B1313柱上变压器,C273柱上变压器,B1755柱上变压器,10kVH0036.H0037.H0038.H0039配电室H0038配电变压器,C253柱上变压器,B1178柱上变压器,10kVH0036.H0037.H0038.H0039配电室H0039配电变压器,B1276柱上变压器,10kVB1487配电室B1487配电变压器,10kVB339箱式变电站B339配电变压器,10kVC274箱式变电站C274配电变压器,B1841柱上变压器,B1251柱上变压器,B338柱上变压器,10kVB023箱式变电站B023配电变压器,C3032柱上变压器,C252柱上变压器,B902柱上变压器,B1789柱上变压器,B1314柱上变压器,C485柱上变压器,B1741柱上变压器,","scope":"【影响街道/乡镇】竞秀区、乐凯南大街、富昌路、三丰西路、陵园路、富昌乡、南大园乡 【高危重要客户】无 【影响客户】后屯、金属宿舍、铸机厂宿舍、列电、前屯、环卫局宿舍、丰苑小区、北刘各庄、工行宿舍、九中宿舍、保定市人民政府军供站、排水处三丰道桥泵站、人民政府军供站、新市区三丰电器厂、众成建筑工程有限公司、路灯管理处、交通运输局公路设施设备维护处-专变、冀北电力有限公司技能培训中心、第一大件运输公司","startTime":"2019-12-18 15:00:00","stopDate":"2019-12-18 18:30:00","orgNo":"13406","typeCode":"电网故障停限电","poweroffArea":"【全线路停电】停0356242983-排水处三丰道桥泵站-1-配电室-变压器-1,0356242970-排水处三丰道桥泵站-1-配电室-变压器-1,0592737054-保定亿佰德酒店管理有限公司-专变,0356242967-保定腾翔市政建设有限公司-专变,B1276柱上变压器,10kVB1487配电室B1487配电变压器,0358528326-保定市清水公园筹建处-专变,10kVB339箱式变电站B339配电变压器,10kVC274箱式变电站C274配电变压器,0564569601-中国石油天然气股份有限公司河北保定销售分公司第一百一十一加油站-专变,B1841柱上变压器,0357341290-保定众成建筑工程有限公司-专变,0356243029-保定市飞马挂车厂-专变,0356184209-消防大队-专变,0356318109-冀北电力有限公司技能培训中心-2#专变,B1251柱上变压器,0356269843-园林局宿舍-专变,B338柱上变压器,0356178835-保定市公共交通总公司-专变,0356189435-保定东兴建设有限责任公司-专变,0356233103-保定市人民政府军供站-专变,10kVB023箱式变电站B023配电变压器,0356183293-四八二第一生活区-专变,0356179809-河北保定城乡建设集团有限责任公司-专变,0356267964-园林局宿舍-专变,C3032柱上变压器,C252柱上变压器,B902柱上变压器,B1789柱上变压器,B1314柱上变压器,0747197230-国网河北省电力有限公司培训中心保定分部-03,0356182261-总参兵种部保定干休所-1-配电室-变压器-1,0356177164-污水侯河泵站-专变,0651760487-保定市人民政府军供站-专变-177293877-变压器,C485柱上变压器,B1741柱上变压器,0356184456-保定市新市区三丰电器厂-专变,B1110柱上变压器,10kVB1286配电室B1286配电变压器,0356177210-钢厂宿舍-专变,B364柱上变压器,B1894柱上变压器,B1780柱上变压器,B1313柱上变压器,0356184472-第一大件运输公司-专变,C273柱上变压器,0747197230-国网河北省电力有限公司培训中心保定分部-01,0747197230-国网河北省电力有限公司培训中心保定分部-02,0356171834-保定市新市区龙潭宾馆-专变,0372487834-保定市新市区上院8号酒店-1-箱式变-变压器-1,B1755柱上变压器,10kVH0036.H0037.H0038.H0039配电室H0038配电变压器,C253柱上变压器,B1178柱上变压器,0356178864-保定市军粮供应站-变压器-315KVA,10kVH0036.H0037.H0038.H0039配电室H0039配电变压器,0356342830-保定市路灯管理处-专变,0356173188-保定市金属塑料制品厂-专变,0356342827-保定市路灯管理处-专变,0356178880-保定市聚合汽车维修有限公司-专变,0357338708-保定市公安消防支队-专变,B1277柱上变压器","poweroffReason":"【停电原因】由于分支开关短路导致１０ＫＶ祝泽变电站５１９线路全线停电【变更送电】无【发布渠道】通过９５５９８发布","powerTime":"2019-12-18 17:31:10","powerComm":"已送电","subsNo":"","lineNo":"","tgNo":"","tgName":null,"infoStatus":"1","orgName":"保定供电公司","typeName":null,"infoStatusName":null,"dateDay":null,"orgNos":null,"nowTime":null,"countyName":null,"streetName":null,"villageName":null,"roadName":null,"communityName":null,"tranName":null,"sdLineName":null,"cityCode":"13406","cityName":"保定供电公司","provinceCode":null,"stopTime":"2019-12-18 18:30:00","powerType":"全部","powerOffArea":"【全线路停电】停0356242983-排水处三丰道桥泵站-1-配电室-变压器-1,0356242970-排水处三丰道桥泵站-1-配电室-变压器-1,0592737054-保定亿佰德酒店管理有限公司-专变,0356242967-保定腾翔市政建设有限公司-专变,B1276柱上变压器,10kVB1487配电室B1487配电变压器,0358528326-保定市清水公园筹建处-专变,10kVB339箱式变电站B339配电变压器,10kVC274箱式变电站C274配电变压器,0564569601-中国石油天然气股份有限公司河北保定销售分公司第一百一十一加油站-专变,B1841柱上变压器,0357341290-保定众成建筑工程有限公司-专变,0356243029-保定市飞马挂车厂-专变,0356184209-消防大队-专变,0356318109-冀北电力有限公司技能培训中心-2#专变,B1251柱上变压器,0356269843-园林局宿舍-专变,B338柱上变压器,0356178835-保定市公共交通总公司-专变,0356189435-保定东兴建设有限责任公司-专变,0356233103-保定市人民政府军供站-专变,10kVB023箱式变电站B023配电变压器,0356183293-四八二第一生活区-专变,0356179809-河北保定城乡建设集团有限责任公司-专变,0356267964-园林局宿舍-专变,C3032柱上变压器,C252柱上变压器,B902柱上变压器,B1789柱上变压器,B1314柱上变压器,0747197230-国网河北省电力有限公司培训中心保定分部-03,0356182261-总参兵种部保定干休所-1-配电室-变压器-1,0356177164-污水侯河泵站-专变,0651760487-保定市人民政府军供站-专变-177293877-变压器,C485柱上变压器,B1741柱上变压器,0356184456-保定市新市区三丰电器厂-专变,B1110柱上变压器,10kVB1286配电室B1286配电变压器,0356177210-钢厂宿舍-专变,B364柱上变压器,B1894柱上变压器,B1780柱上变压器,B1313柱上变压器,0356184472-第一大件运输公司-专变,C273柱上变压器,0747197230-国网河北省电力有限公司培训中心保定分部-01,0747197230-国网河北省电力有限公司培训中心保定分部-02,0356171834-保定市新市区龙潭宾馆-专变,0372487834-保定市新市区上院8号酒店-1-箱式变-变压器-1,B1755柱上变压器,10kVH0036.H0037.H0038.H0039配电室H0038配电变压器,C253柱上变压器,B1178柱上变压器,0356178864-保定市军粮供应站-变压器-315KVA,10kVH0036.H0037.H0038.H0039配电室H0039配电变压器,0356342830-保定市路灯管理处-专变,0356173188-保定市金属塑料制品厂-专变,0356342827-保定市路灯管理处-专变,0356178880-保定市聚合汽车维修有限公司-专变,0357338708-保定市公安消防支队-专变,B1277柱上变压器","powerOffReason":"【停电原因】由于分支开关短路导致１０ＫＶ祝泽变电站５１９线路全线停电【变更送电】无【发布渠道】通过９５５９８发布","powerOffId":"2019121815011728"},{"poweroffId":2019121813000073,"sgpoweroffId":null,"subsName":"","lineName":"10kV于庄线512","pubTranName":"1北刘口内9,","scope":"【影响街道/乡镇】望亭乡 【高危重要客户】无 【影响客户】北刘口村","startTime":"2019-12-18 13:29:41","stopDate":"2019-12-18 17:00:00","orgNo":"1340618","typeCode":"电网故障停限电","poweroffArea":"【单台区停电】停1北刘口内9","poweroffReason":"【停电原因】由于地埋线损坏导致３５ＫＶ刘口变电站１０ＫＶ于庄线５１２线路１北刘口内９号公变台区停电 【变更送电】无 【发布渠道】通过９５５９８发布","powerTime":"2019-12-18 16:19:05","powerComm":"陈云涛通知已送电","subsNo":"","lineNo":"","tgNo":"","tgName":null,"infoStatus":"1","orgName":"国网清苑县供电公司","typeName":null,"infoStatusName":null,"dateDay":null,"orgNos":null,"nowTime":null,"countyName":null,"streetName":null,"villageName":null,"roadName":null,"communityName":null,"tranName":null,"sdLineName":null,"cityCode":"1340618","cityName":"国网清苑县供电公司","provinceCode":null,"stopTime":"2019-12-18 17:00:00","powerType":"全部","powerOffArea":"【单台区停电】停1北刘口内9","powerOffReason":"【停电原因】由于地埋线损坏导致３５ＫＶ刘口变电站１０ＫＶ于庄线５１２线路１北刘口内９号公变台区停电 【变更送电】无 【发布渠道】通过９５５９８发布","powerOffId":"2019121813000073"}],"pageModel":{"pageNow":329,"totalCount":10973,"totalPage":1098,"tableRows":0,"pageCount":10,"beginCount":3280},"isExperi":"1"}