{"message":"","today":"2020-06-15","seleList":[{"poweroffId":2019121813000072,"sgpoweroffId":null,"subsName":"","lineName":"10kV于庄线512","pubTranName":"1贾辛庄内1,","scope":"【影响街道/乡镇】望亭乡 【高危重要客户】无 【影响客户】贾辛庄","startTime":"2019-12-18 13:28:17","stopDate":"2019-12-18 16:30:00","orgNo":"1340618","typeCode":"电网故障停限电","poweroffArea":"【单台区停电】停1贾辛庄内1","poweroffReason":"【停电原因】由于集束导线烧毁导致３５ＫＶ刘口变电站１０ＫＶ于庄线５１２线路１贾辛庄内１号公变台区停电 【变更送电】无 【发布渠道】通过９５５９８发布","powerTime":"2019-12-18 16:18:17","powerComm":"陈云涛通知已送电","subsNo":"","lineNo":"","tgNo":"","tgName":null,"infoStatus":"1","orgName":"国网清苑县供电公司","typeName":null,"infoStatusName":null,"dateDay":null,"orgNos":null,"nowTime":null,"countyName":null,"streetName":null,"villageName":null,"roadName":null,"communityName":null,"tranName":null,"sdLineName":null,"cityCode":"1340618","cityName":"国网清苑县供电公司","provinceCode":null,"stopTime":"2019-12-18 16:30:00","powerType":"全部","powerOffArea":"【单台区停电】停1贾辛庄内1","powerOffReason":"【停电原因】由于集束导线烧毁导致３５ＫＶ刘口变电站１０ＫＶ于庄线５１２线路１贾辛庄内１号公变台区停电 【变更送电】无 【发布渠道】通过９５５９８发布","powerOffId":"2019121813000072"},{"poweroffId":2019121813000057,"sgpoweroffId":null,"subsName":"","lineName":"10kV513团结线","pubTranName":"大岭后|26001210,团结1混用|26001240,野场混用|26000810,富有村4号综合8450,业里混用|26000920,大岭后村东|26001050,大岭后村南综合9735,寨南混用|26000990,大岭沟林果开发有限公司,安子混用|26001060,付友1280综合|26001280,团结2混用|26001720,南大悲支少辉综合6048,大岭后3|26001070,郭家庄|26000950,郭家庄二区新增综合2999,大岭后村西|26001920,大岭后2|26001130,南盘混用|26000910,付友1|26001110,龙王展1混用|26001080,团结北庄村西新增综合1721,寨南村北二区新增综合6367,野场村光伏扶贫变压器【光伏】,龙王展2混用|26001030,黄岩|26000960,黄岩新增综合1610,西大悲村北新兴综合1609,旺顺敏达养猪场5998,北大悲四|26001820,南大悲二区新增综合5863,龙王水混用|26000830,南大悲|26000940,付友3|26000870,黄岩新增综合二台区9892,","scope":"【影响街道/乡镇】大悲乡【高危重要客户】无【影响客户】西大悲、富有、南盘、邺里、南大悲、郭家庄、黄岩、井尔峪、寨南、龙王展、大岭后、安子、李家沟、团结、大悲面粉厂、大悲中学、路桥公司、路桥公司砂石厂","startTime":"2019-12-18 13:00:00","stopDate":"2019-12-18 16:00:00","orgNo":"1340621","typeCode":"其他临时停电","poweroffArea":"【全线路停电】停团结1混用|26001240,野场混用|26000810,井尔峪1090农排|26001090【纯农排变】,富有村4号综合8450,大悲中学,大岭后新增2号井（TD）2880【纯农排变】,团结1260农排|26001260【纯农排变】,黄岩|26000960,黄岩新增综合1610,团结二队1170农排|26001170【纯农排变】,付友村北农业2号【纯农排变】,大岭后村南综合9735,大岭后3|26001070　","poweroffReason":"【停电原因】由于大树压线需停电进行紧急消缺导致３５ＫＶ大悲变电站１０ＫＶ５１３团结线路全线停电【变更送电】无【发布渠道】通过９５５９８发布","powerTime":"2019-12-18 15:49:21","powerComm":"已送电","subsNo":"","lineNo":"","tgNo":"","tgName":null,"infoStatus":"1","orgName":"国网顺平县电力局","typeName":null,"infoStatusName":null,"dateDay":null,"orgNos":null,"nowTime":null,"countyName":null,"streetName":null,"villageName":null,"roadName":null,"communityName":null,"tranName":null,"sdLineName":null,"cityCode":"1340621","cityName":"国网顺平县电力局","provinceCode":null,"stopTime":"2019-12-18 16:00:00","powerType":"全部","powerOffArea":"【全线路停电】停团结1混用|26001240,野场混用|26000810,井尔峪1090农排|26001090【纯农排变】,富有村4号综合8450,大悲中学,大岭后新增2号井（TD）2880【纯农排变】,团结1260农排|26001260【纯农排变】,黄岩|26000960,黄岩新增综合1610,团结二队1170农排|26001170【纯农排变】,付友村北农业2号【纯农排变】,大岭后村南综合9735,大岭后3|26001070　","powerOffReason":"【停电原因】由于大树压线需停电进行紧急消缺导致３５ＫＶ大悲变电站１０ＫＶ５１３团结线路全线停电【变更送电】无【发布渠道】通过９５５９８发布","powerOffId":"2019121813000057"},{"poweroffId":2019121813000042,"sgpoweroffId":null,"subsName":"","lineName":"毛巾厂线524","pubTranName":"客户投资_SQ现代城二期南综合出线配电变压器,柴新泽,田月然,客户投资_SQ现代城二期中综合出线配电变压器,东王4#敬老院综合,齐凤英02,河北长润房地产开发有限公司变压器,齐凤英01,兴华毛巾厂,高阳县振华毛纺织有限公司变压器,中硕织业有限公司,东王5#大队综合,河北春润建筑安装工程有限公司变压器,客户投资_SQ现代城小区4#中压出线配电变压器,高阳县太和风景五号变压器,东王3#西街口综合,河北田强纺织品有限责任公司变压器01,客户投资_高阳县太和风景3号综合箱变配变配电变压器,高阳县咏春纺织品有限公司,高阳县供电公司,崔大普毛巾厂,客户投资_高阳县太和风景2号综合箱变配变配电变压器,赵继同,保定优漫纺织品制造有限公司变压器,河北田强纺织有限责任公司变压器,客户投资_SQ现代城二期北综合出线配电变压器,超限超载检测站高阳保沧站变压器,客户投资_新苑小区4号台区中压出线配电变压器,李三良,光达绿洲科技公司,河北田强纺织品有限责任公司变压器1,隆达纺织品公司,齐凤英,中硕织业有限公司01,东王1#东北综合,10106|迎宾路东王小区综合,高阳安康医院变压器,东王大队西北大方,常萌,张长贺(金鑫),河北长润房地产开发有限公司设备01,保定冀中动物保健品有限公司,客户投资_SQ现代城小区2#箱变配变配电变压器,河北长润房地产开发有限公司设备,","scope":"【影响街道/乡镇】迎宾路 现代城大街 建新路 【高危重要客户】无 【影响客户】太和风景、现代城","startTime":"2019-12-19 00:30:00","stopDate":"2019-12-19 04:00:00","orgNo":"1340613","typeCode":"其他临时停电","poweroffArea":"【全线路停电】停客户投资_SQ现代城二期南综合出线配电变压器,柴新泽,田月然,客户投资_SQ现代城二期中综合出线配电变压器,东王4#敬老院综合,齐凤英02,河北长润房地产开发有限公司变压器,齐凤英01,兴华毛巾厂,高阳县振华毛纺织有限公司变压器,中硕织业有限公司,东王5#大队综合,河北春润建筑安装工程有限公司变压器,客户投资_SQ现代城小区4#中压出线配电变压器,高阳县太和风景五号变压器,东王3#西街口综合,河北田强纺织品有限责任公司变压器01,客户投资_高阳县太和风景3号综合箱变配变配电变压器,高阳县咏春纺织品有限公司,高阳县供电公司,崔大普毛巾厂,客户投资_高阳县太和风景2号综合箱变配变配电变压器,赵继同,保定优漫纺织品制造有限公司变压器,河北田强纺织有限责任公司变压器,客户投资_SQ现代城二期北综合出线配电变压器,超限超载检测站高阳保沧站变压器,客户投资_新苑小区4号台区中压出线配电变压器,李三良,光达绿洲科技公司,河北田强纺织品有限责任公司变压器1,隆达纺织品公司,齐凤英,中硕织业有限公司01,东王1#东北综合,10106|迎宾路东王小区综合,高阳安康医院变压器,东王大队西北大方,常萌,张长贺(金鑫),河北长润房地产开发有限公司设备01,保定冀中动物保健品有限公司,客户投资_SQ现代城小区2#箱变配变配电变压器,河北长润房地产开发有限公司设备","poweroffReason":"【停电原因】由于更换线夹导致１１０ＫＶ沙窝变电站毛巾厂５２４线路全线停电【变更送电】无【发布渠道】通过９５５９８发布","powerTime":"2019-12-19 03:05:27","powerComm":"已送电","subsNo":"","lineNo":"","tgNo":"","tgName":null,"infoStatus":"1","orgName":"国网高阳县供电公司","typeName":null,"infoStatusName":null,"dateDay":null,"orgNos":null,"nowTime":null,"countyName":null,"streetName":null,"villageName":null,"roadName":null,"communityName":null,"tranName":null,"sdLineName":null,"cityCode":"1340613","cityName":"国网高阳县供电公司","provinceCode":null,"stopTime":"2019-12-19 04:00:00","powerType":"全部","powerOffArea":"【全线路停电】停客户投资_SQ现代城二期南综合出线配电变压器,柴新泽,田月然,客户投资_SQ现代城二期中综合出线配电变压器,东王4#敬老院综合,齐凤英02,河北长润房地产开发有限公司变压器,齐凤英01,兴华毛巾厂,高阳县振华毛纺织有限公司变压器,中硕织业有限公司,东王5#大队综合,河北春润建筑安装工程有限公司变压器,客户投资_SQ现代城小区4#中压出线配电变压器,高阳县太和风景五号变压器,东王3#西街口综合,河北田强纺织品有限责任公司变压器01,客户投资_高阳县太和风景3号综合箱变配变配电变压器,高阳县咏春纺织品有限公司,高阳县供电公司,崔大普毛巾厂,客户投资_高阳县太和风景2号综合箱变配变配电变压器,赵继同,保定优漫纺织品制造有限公司变压器,河北田强纺织有限责任公司变压器,客户投资_SQ现代城二期北综合出线配电变压器,超限超载检测站高阳保沧站变压器,客户投资_新苑小区4号台区中压出线配电变压器,李三良,光达绿洲科技公司,河北田强纺织品有限责任公司变压器1,隆达纺织品公司,齐凤英,中硕织业有限公司01,东王1#东北综合,10106|迎宾路东王小区综合,高阳安康医院变压器,东王大队西北大方,常萌,张长贺(金鑫),河北长润房地产开发有限公司设备01,保定冀中动物保健品有限公司,客户投资_SQ现代城小区2#箱变配变配电变压器,河北长润房地产开发有限公司设备","powerOffReason":"【停电原因】由于更换线夹导致１１０ＫＶ沙窝变电站毛巾厂５２４线路全线停电【变更送电】无【发布渠道】通过９５５９８发布","powerOffId":"2019121813000042"},{"poweroffId":2019121813000034,"sgpoweroffId":null,"subsName":"","lineName":"10kV店房514线","pubTranName":"店房5#配变,宋家沟4#配变,宋家沟5#公用配变,槐树底3#配变,宋家沟7#公用配变,店房10#配变,广安2#配变,店房4#配变,吴家沟8#配变,抬头湾2#配变,北果园6#配变,店房3#配变,吴家沟4#配变,店房6号配变,店房9号配变,北果园8#配变,","scope":"【影响街道/乡镇】北果园乡、城南庄镇 【高危重要客户】无 【影响客户】眼药沟、葫芦沟、固镇、田家沟、店房、老王沟、贯沟、吴家沟、水帘洞、抬头湾、瓦房沟、梨树台、东红峪、宋家沟、大南地、槐树底、沙岭、南红峪、广安、井沟、广安小学、广安面粉厂、振兴选矿厂、万立铁选厂、华益铁治有限公司、龙兴加油有限公司","startTime":"2019-12-18 10:30:00","stopDate":"2019-12-18 15:00:00","orgNo":"1340611","typeCode":"其他临时停电","poweroffArea":"【全线路停电】停北果园6#配变,店房5#配变,宋家沟4#配变","poweroffReason":"【停电原因】由于刀闸过热需停电进行紧急消缺导致３５ＫＶ北果园变电站１０ＫＶ店房５１４线路全线停电 【变更送电】无 【发布渠道】９５５９８","powerTime":"2019-12-18 14:53:38","powerComm":"已送电","subsNo":"","lineNo":"","tgNo":"","tgName":null,"infoStatus":"1","orgName":"国网阜平县供电公司","typeName":null,"infoStatusName":null,"dateDay":null,"orgNos":null,"nowTime":null,"countyName":null,"streetName":null,"villageName":null,"roadName":null,"communityName":null,"tranName":null,"sdLineName":null,"cityCode":"1340611","cityName":"国网阜平县供电公司","provinceCode":null,"stopTime":"2019-12-18 15:00:00","powerType":"全部","powerOffArea":"【全线路停电】停北果园6#配变,店房5#配变,宋家沟4#配变","powerOffReason":"【停电原因】由于刀闸过热需停电进行紧急消缺导致３５ＫＶ北果园变电站１０ＫＶ店房５１４线路全线停电 【变更送电】无 【发布渠道】９５５９８","powerOffId":"2019121813000034"},{"poweroffId":2019121813000033,"sgpoweroffId":null,"subsName":"","lineName":"染厂线516","pubTranName":"西庄村东拔丝厂,10097|审计局综合柱上变压器,齐国建,孙建强,保定蓝瑞房地产开发有限公司变压器,高阳县住房和城乡建设局变压器,北关2#村西综合,宋占辉,王连军,王记拔丝厂,三丰面粉厂(1),南街综合,西庄4#村北综合,韩强,客户投资_河北省保定市高阳县龙泉小区2期西台区出线配电变压器,赵通6#综合,高阳县新杰棉织厂01,韩兴辰,高阳金鑫小学变压器,三丰面粉厂(2),高阳县庆贺毛纺厂,文化城,高阳县印刷厂,金鑫小学,北关6号新增综合,高阳县新杰棉织厂03,河北瑞春纺织有限公司,三利中学400,西庄5#综合,客户投资_高阳县龙泉花园小区三区叁号综合箱变配变配电变压器,西庄1#村南综合,薛栓图,西庄2#村东综合,北关5号新增综合,高阳县住房和城乡建设局三利大街路灯变压器,文浩纺织品有限公,河北长润房地产开发有限公司变压器,赵万军,10034|三利综合柱上变压器,西庄3#村西综合,高阳县新杰棉织厂02,西庄7号新增综合,北关社区,赵通5#综合,东莹生活小区,于闷,高阳县宏润物业服务有限公司（商贸城龙泉花园小区）变压器,北关3#村东综合,建华吹塑厂,10032|看守所东综合,客户投资_高阳县龙泉花园小区三区肆号综合箱变配变配电变压器,孙建华,赵通9#新增综合,贾雷江,客户投资_龙泉花园2出线配电变压器,高阳县宏润物业服务有限公司变压器,佳棉纺织品公司,董法会,中石化高阳分公司变压器,西庄8号综合,河北中??房地产开发有限公司变压器,洪克新,北关变压器,段洪刚,西庄大队农业,","scope":"【影响街道/乡镇】高阳镇、城关镇 【高危重要客户】无 【影响客户】赵通、西庄、北关、靶场、龙泉花园、审计局、金鑫小区","startTime":"2019-12-19 00:30:00","stopDate":"2019-12-19 04:00:00","orgNo":"1340613","typeCode":"其他临时停电","poweroffArea":"【全线路停电】停西庄村东拔丝厂,10097|审计局综合柱上变压器,齐国建,孙建强,保定蓝瑞房地产开发有限公司变压器,高阳县住房和城乡建设局变压器,北关2#村西综合,宋占辉,王连军,王记拔丝厂,三丰面粉厂(1),南街综合,西庄4#村北综合,韩强,客户投资_河北省保定市高阳县龙泉小区2期西台区出线配电变压器,赵通6#综合,高阳县新杰棉织厂01,韩兴辰,高阳金鑫小学变压器,三丰面粉厂(2),高阳县庆贺毛纺厂,文化城,高阳县印刷厂,金鑫小学,北关6号新增综合,高阳县新杰棉织厂03,河北瑞春纺织有限公司,三利中学400,西庄5#综合,客户投资_高阳县龙泉花园小区三区叁号综合箱变配变配电变压器,西庄1#村南综合,薛栓图,西庄2#村东综合,北关5号新增综合,高阳县住房和城乡建设局三利大街路灯变压器,文浩纺织品有限公,河北长润房地产开发有限公司变压器,赵万军,10034|三利综合柱上变压器,西庄3#村西综合,高阳县新杰棉织厂02,西庄7号新增综合,北关社区,赵通5#综合,东莹生活小区,于闷,高阳县宏润物业服务有限公司（商贸城龙泉花园小区）变压器,北关3#村东综合,建华吹塑厂,10032|看守所东综合,客户投资_高阳县龙泉花园小区三区肆号综合箱变配变配电变压器,孙建华,赵通9#新增综合,贾雷江,客户投资_龙泉花园2出线配电变压器,高阳县宏润物业服务有限公司变压器,佳棉纺织品公司,董法会,中石化高阳分公司变压器,西庄8号综合,河北中??房地产开发有限公司变压器,洪克新,北关变压器,段洪刚,西庄大队农业","poweroffReason":"【停电原因】由于更换线夹导致１１０ＫＶ沙窝变电站染厂５１６线路全线停电【变更送电】无【发布渠道】通过９５５９８发布","powerTime":"2019-12-19 03:05:52","powerComm":"已送电","subsNo":"","lineNo":"","tgNo":"","tgName":null,"infoStatus":"1","orgName":"国网高阳县供电公司","typeName":null,"infoStatusName":null,"dateDay":null,"orgNos":null,"nowTime":null,"countyName":null,"streetName":null,"villageName":null,"roadName":null,"communityName":null,"tranName":null,"sdLineName":null,"cityCode":"1340613","cityName":"国网高阳县供电公司","provinceCode":null,"stopTime":"2019-12-19 04:00:00","powerType":"全部","powerOffArea":"【全线路停电】停西庄村东拔丝厂,10097|审计局综合柱上变压器,齐国建,孙建强,保定蓝瑞房地产开发有限公司变压器,高阳县住房和城乡建设局变压器,北关2#村西综合,宋占辉,王连军,王记拔丝厂,三丰面粉厂(1),南街综合,西庄4#村北综合,韩强,客户投资_河北省保定市高阳县龙泉小区2期西台区出线配电变压器,赵通6#综合,高阳县新杰棉织厂01,韩兴辰,高阳金鑫小学变压器,三丰面粉厂(2),高阳县庆贺毛纺厂,文化城,高阳县印刷厂,金鑫小学,北关6号新增综合,高阳县新杰棉织厂03,河北瑞春纺织有限公司,三利中学400,西庄5#综合,客户投资_高阳县龙泉花园小区三区叁号综合箱变配变配电变压器,西庄1#村南综合,薛栓图,西庄2#村东综合,北关5号新增综合,高阳县住房和城乡建设局三利大街路灯变压器,文浩纺织品有限公,河北长润房地产开发有限公司变压器,赵万军,10034|三利综合柱上变压器,西庄3#村西综合,高阳县新杰棉织厂02,西庄7号新增综合,北关社区,赵通5#综合,东莹生活小区,于闷,高阳县宏润物业服务有限公司（商贸城龙泉花园小区）变压器,北关3#村东综合,建华吹塑厂,10032|看守所东综合,客户投资_高阳县龙泉花园小区三区肆号综合箱变配变配电变压器,孙建华,赵通9#新增综合,贾雷江,客户投资_龙泉花园2出线配电变压器,高阳县宏润物业服务有限公司变压器,佳棉纺织品公司,董法会,中石化高阳分公司变压器,西庄8号综合,河北中??房地产开发有限公司变压器,洪克新,北关变压器,段洪刚,西庄大队农业","powerOffReason":"【停电原因】由于更换线夹导致１１０ＫＶ沙窝变电站染厂５１６线路全线停电【变更送电】无【发布渠道】通过９５５９８发布","powerOffId":"2019121813000033"},{"poweroffId":2019121813000029,"sgpoweroffId":null,"subsName":"","lineName":"电力局线520","pubTranName":"10030|劳教所家属楼综合,劳教所2号变压器,北街1#村西综合,10058|靶场中段配变综合,北外环公用台区,西庄6#村南综合,10074|高安路保险平房综合,北街2#村东综合,10099|99东环北关公用综合,","scope":"【影响街道/乡镇】城关镇、正阳路 【高危重要客户】无 【影响客户】北街村、北关、西庄、温馨家园、瑞春家园、看守所、靶场、劳教所家属楼、三利、东环北关、高安路保险平房、机关事务管理局、养路工区、阳光家园","startTime":"2019-12-19 00:30:00","stopDate":"2019-12-19 04:00:00","orgNo":"1340613","typeCode":"其他临时停电","poweroffArea":"【全线路停电】停劳教所,高阳县讯闪达网吧变压器,高阳县恒丰纺织品有限公司变压器,肥羊王,北街2#村东综合,高阳县人口和计划生育局设备,北关村委会,北街总表,保定亨达信房地产开发有限公司变压器,高阳县机关事务管理局变压器,温馨家园3号,抄表中心,自来水6#,三利家属楼,温馨家园4号,阳光家园,10099|99东环北关公用综合,高阳县春江纺织品有限公司变压器,奥林大酒店,河北长润房地产开发有限公司变压器,10030|劳教所家属楼综合,文教局变压器,劳教所2号变压器,高阳县高阳镇北关村委会变压器02,奥林温泉小区,北街1#村西综合,西街大队,0554501998-保定市亨达信房地产开发有限公司-专变-79518832-保定市亨达信房地产开发有限公司变压器,10058|靶场中段配变综合,北关大队（100）,高阳县高阳镇北关村委会变压器01,国网河北高阳供电公司变压器减容,0376885368-高阳县农村信用合作联社北环路信用社-专变-222789110-高阳县农村信用合作联社北环路信用社变压器,技术监督局变压器,北外环公用台区,西庄6#村南综合,高阳县法院变压器,温馨家园630,北街,温馨家园1000,0376888370-高阳县委-专变-44747429-变压器2,保定市享达信房地产开发有限公司,10074|高安路保险平房综合","poweroffReason":"【停电原因】由于更换线夹导致１１０ＫＶ沙窝变电站电力局５２０线路全线停电【变更送电】无【发布渠道】通过９５５９８发布","powerTime":"2019-12-19 03:06:10","powerComm":"已送电","subsNo":"","lineNo":"","tgNo":"","tgName":null,"infoStatus":"1","orgName":"国网高阳县供电公司","typeName":null,"infoStatusName":null,"dateDay":null,"orgNos":null,"nowTime":null,"countyName":null,"streetName":null,"villageName":null,"roadName":null,"communityName":null,"tranName":null,"sdLineName":null,"cityCode":"1340613","cityName":"国网高阳县供电公司","provinceCode":null,"stopTime":"2019-12-19 04:00:00","powerType":"全部","powerOffArea":"【全线路停电】停劳教所,高阳县讯闪达网吧变压器,高阳县恒丰纺织品有限公司变压器,肥羊王,北街2#村东综合,高阳县人口和计划生育局设备,北关村委会,北街总表,保定亨达信房地产开发有限公司变压器,高阳县机关事务管理局变压器,温馨家园3号,抄表中心,自来水6#,三利家属楼,温馨家园4号,阳光家园,10099|99东环北关公用综合,高阳县春江纺织品有限公司变压器,奥林大酒店,河北长润房地产开发有限公司变压器,10030|劳教所家属楼综合,文教局变压器,劳教所2号变压器,高阳县高阳镇北关村委会变压器02,奥林温泉小区,北街1#村西综合,西街大队,0554501998-保定市亨达信房地产开发有限公司-专变-79518832-保定市亨达信房地产开发有限公司变压器,10058|靶场中段配变综合,北关大队（100）,高阳县高阳镇北关村委会变压器01,国网河北高阳供电公司变压器减容,0376885368-高阳县农村信用合作联社北环路信用社-专变-222789110-高阳县农村信用合作联社北环路信用社变压器,技术监督局变压器,北外环公用台区,西庄6#村南综合,高阳县法院变压器,温馨家园630,北街,温馨家园1000,0376888370-高阳县委-专变-44747429-变压器2,保定市享达信房地产开发有限公司,10074|高安路保险平房综合","powerOffReason":"【停电原因】由于更换线夹导致１１０ＫＶ沙窝变电站电力局５２０线路全线停电【变更送电】无【发布渠道】通过９５５９８发布","powerOffId":"2019121813000029"},{"poweroffId":2019121813000017,"sgpoweroffId":null,"subsName":"","lineName":"10kV551南留线","pubTranName":"贾官营11号,贾官营12号,贾官营1号【纯农排变】,贾官营2号,贾官营4号【纯农排变】,漕河马庄6号,漕河马庄7号,贾官营6号,贾官营8号【纯农排变】,西留营2号【纯农排变】,周官营1号,周官营3号,漕河供电所7号,","scope":"【影响街道/乡镇】漕河镇 【高危重要客户】无 【影响客户】贾官营，周官营，西留营，漕河杨庄，漕河马庄","startTime":"2019-12-18 09:30:00","stopDate":"2019-12-18 12:00:00","orgNo":"1340605","typeCode":"其他临时停电","poweroffArea":"【分支停电】停贾官营10号,贾官营11号,贾官营12号,贾官营13号【纯农排变】,贾官营14号,贾官营1号【纯农排变】,贾官营2号,贾官营3号【纯农排变】,贾官营4号【纯农排变】,贾官营5号【纯农排变】,贾官营6号,贾官营7号【纯农排变】,贾官营8号【纯农排变】,贾官营9号【纯农排变】,漕河杨庄13号【纯农排变】,周官营1号,周官营2号,周官营3号,周官营4号,周官营5号【纯农排变】,周官营6号【纯农排变】,周官营7号,漕河供电所7号,漕河马庄1号【纯农排变】,漕河马庄2号,漕河马庄3号【纯农排变】,漕河马庄4号【纯农排变】,漕河马庄5号【纯农排变】,漕河马庄6号,漕河马庄7号","poweroffReason":"【停电原因】由于处理紧急缺陷导致１１０ＫＶ留村变电站南留５５１线路３０号杆分段开关以下线路停电 【变更送电】无 【发布渠道】通过９５５９８发布","powerTime":"2019-12-18 11:19:24","powerComm":"已送电","subsNo":"","lineNo":"","tgNo":"","tgName":null,"infoStatus":"1","orgName":"国网徐水县供电公司","typeName":null,"infoStatusName":null,"dateDay":null,"orgNos":null,"nowTime":null,"countyName":null,"streetName":null,"villageName":null,"roadName":null,"communityName":null,"tranName":null,"sdLineName":null,"cityCode":"1340605","cityName":"国网徐水县供电公司","provinceCode":null,"stopTime":"2019-12-18 12:00:00","powerType":"全部","powerOffArea":"【分支停电】停贾官营10号,贾官营11号,贾官营12号,贾官营13号【纯农排变】,贾官营14号,贾官营1号【纯农排变】,贾官营2号,贾官营3号【纯农排变】,贾官营4号【纯农排变】,贾官营5号【纯农排变】,贾官营6号,贾官营7号【纯农排变】,贾官营8号【纯农排变】,贾官营9号【纯农排变】,漕河杨庄13号【纯农排变】,周官营1号,周官营2号,周官营3号,周官营4号,周官营5号【纯农排变】,周官营6号【纯农排变】,周官营7号,漕河供电所7号,漕河马庄1号【纯农排变】,漕河马庄2号,漕河马庄3号【纯农排变】,漕河马庄4号【纯农排变】,漕河马庄5号【纯农排变】,漕河马庄6号,漕河马庄7号","powerOffReason":"【停电原因】由于处理紧急缺陷导致１１０ＫＶ留村变电站南留５５１线路３０号杆分段开关以下线路停电 【变更送电】无 【发布渠道】通过９５５９８发布","powerOffId":"2019121813000017"},{"poweroffId":2019121813000008,"sgpoweroffId":null,"subsName":"","lineName":"10kV513新兴线","pubTranName":"东赵庄综合2830|27002830,西新兴村南新增综合2879,六四庄2720|27002720,西新兴1200|27001200,南新兴村内2530|27002530,西新兴1160|27001160,西新兴北综合2650|27002650,西新兴村内新增综合,西新兴村西南综合5433,南新兴1250|27001250,新兴村内5465,南新兴2240|27002240,西新兴综合2840|27002840,西新兴村西新增综合,赵家庄1320|27001320,东赵庄西南综合0703,西新兴1140|27001140,西新兴新增综合0082,南新兴1260|27001260,","scope":"【影响街道/乡镇】腰山镇、高于铺镇【高危重要客户】无【影响客户】六四庄、西新兴、南新兴、东赵庄","startTime":"2019-12-18 05:41:17","stopDate":"2019-12-18 10:00:00","orgNo":"1340621","typeCode":"电网故障停限电","poweroffArea":"【全线路停电】停南新兴村内2530|27002530,西新兴1160|27001160,西新兴村西南综合5433,西新兴1190农业|27001190【纯农排变】,南新兴土地整改新增农业1号（TD）5486【纯农排变】,南新兴1280农业|27001280【纯农排变】,西新兴新增农业1号（TD）2468【纯农排变】,东赵庄土地整改新增农业3号（TD）7964【纯农排变】,西新兴村内新增综合,南新兴2240|27002240,南新兴新增农业2号（TD）4383【纯农排变】,东赵庄西南综合0703,西新兴1140|27001140,南新兴新增农业3号（TD）2471【纯农排变】,西新兴1180农业|27001180【纯农排变】,西新兴1170农业|27001170【纯农排变】,南新兴新架1号农业6350【纯农排变】,西新兴土地整改新增农业3号（TD）5485【纯农排变】","poweroffReason":"【停电原因】由于龙昌面粉厂线尖烧毁导致３５ＫＶ四通变电站１０ＫＶ５１３新兴线路全线停电【变更送电】因抢修进度加快原因，送电时间由１２：００变更为１０：００【发布渠道】通过９５５９８发布","powerTime":"2019-12-18 09:16:46","powerComm":"已送电","subsNo":"","lineNo":"","tgNo":"","tgName":null,"infoStatus":"1","orgName":"国网顺平县电力局","typeName":null,"infoStatusName":null,"dateDay":null,"orgNos":null,"nowTime":null,"countyName":null,"streetName":null,"villageName":null,"roadName":null,"communityName":null,"tranName":null,"sdLineName":null,"cityCode":"1340621","cityName":"国网顺平县电力局","provinceCode":null,"stopTime":"2019-12-18 10:00:00","powerType":"全部","powerOffArea":"【全线路停电】停南新兴村内2530|27002530,西新兴1160|27001160,西新兴村西南综合5433,西新兴1190农业|27001190【纯农排变】,南新兴土地整改新增农业1号（TD）5486【纯农排变】,南新兴1280农业|27001280【纯农排变】,西新兴新增农业1号（TD）2468【纯农排变】,东赵庄土地整改新增农业3号（TD）7964【纯农排变】,西新兴村内新增综合,南新兴2240|27002240,南新兴新增农业2号（TD）4383【纯农排变】,东赵庄西南综合0703,西新兴1140|27001140,南新兴新增农业3号（TD）2471【纯农排变】,西新兴1180农业|27001180【纯农排变】,西新兴1170农业|27001170【纯农排变】,南新兴新架1号农业6350【纯农排变】,西新兴土地整改新增农业3号（TD）5485【纯农排变】","powerOffReason":"【停电原因】由于龙昌面粉厂线尖烧毁导致３５ＫＶ四通变电站１０ＫＶ５１３新兴线路全线停电【变更送电】因抢修进度加快原因，送电时间由１２：００变更为１０：００【发布渠道】通过９５５９８发布","powerOffId":"2019121813000008"},{"poweroffId":2019121721000016,"sgpoweroffId":null,"subsName":"","lineName":"10kV韩村站526线路","pubTranName":"C365柱上变压器,","scope":"【影响街道/乡镇】北市区韩村乡 【高危重要客户】无 【影响客户】留守坟","startTime":"2019-12-17 13:30:00","stopDate":"2019-12-17 15:00:00","orgNo":"13406","typeCode":"电网故障停限电","poweroffArea":"【单台区停电】停C365柱上变压器","poweroffReason":"【停电原因】由于表上线烧导致１０ＫＶ韩村变电站５２６线路Ｃ３６５公变台区停电【变更送电】无【发布渠道】通过９５５９８发布","powerTime":"2019-12-17 14:50:57","powerComm":"已送电","subsNo":"","lineNo":"","tgNo":"","tgName":null,"infoStatus":"1","orgName":"保定供电公司","typeName":null,"infoStatusName":null,"dateDay":null,"orgNos":null,"nowTime":null,"countyName":null,"streetName":null,"villageName":null,"roadName":null,"communityName":null,"tranName":null,"sdLineName":null,"cityCode":"13406","cityName":"保定供电公司","provinceCode":null,"stopTime":"2019-12-17 15:00:00","powerType":"全部","powerOffArea":"【单台区停电】停C365柱上变压器","powerOffReason":"【停电原因】由于表上线烧导致１０ＫＶ韩村变电站５２６线路Ｃ３６５公变台区停电【变更送电】无【发布渠道】通过９５５９８发布","powerOffId":"2019121721000016"},{"poweroffId":2019121713000111,"sgpoweroffId":null,"subsName":"","lineName":"东安里线541","pubTranName":"西白城内中心,西白城内西,北岗子内中配变,西白城内西南,西白城中学内新上,西白城内东南,东白城村内,西白城内南,唐会内北,北岗子内东,东安里内东,东安里村内,东白城内东北,北岗子内南,唐会村北,唐会村南,唐会内西北,西白城内东,唐会村内西南,唐会村内东,","scope":"【影响街道/乡镇】黑堡乡 【高危重要客户】无　　 【影响客户】 北岗子村、西白城部分、东白城部分、唐会村、东安里村","startTime":"2019-12-17 22:34:02","stopDate":"2019-12-18 03:00:00","orgNo":"1340623","typeCode":"电网故障停限电","poweroffArea":"【全线路停电】停东安里内东,西白城内中心,西白城内西,北岗子内中配变,西白城内西南,西白城中学内新上,西白城内东南,东白城村内,西白城内南,唐会内北,北岗子内东,唐会村内东,东安里村内,东白城内东北,北岗子内南,唐会村北,唐会村南,唐会内西北,西白城内东,唐会村内西南","poweroffReason":"【停电原因】由于站内开关跳闸导致２２０ＫＶ固店变电站东安里线５４１线路全线停电 【变更送电】因抢修进度加快原因，送电时间由１０：００变更为０３：００ 【发布渠道】通过９５５９８发布","powerTime":"2019-12-18 02:24:25","powerComm":"已送电","subsNo":"","lineNo":"","tgNo":"","tgName":null,"infoStatus":"1","orgName":"国网望都县供电公司","typeName":null,"infoStatusName":null,"dateDay":null,"orgNos":null,"nowTime":null,"countyName":null,"streetName":null,"villageName":null,"roadName":null,"communityName":null,"tranName":null,"sdLineName":null,"cityCode":"1340623","cityName":"国网望都县供电公司","provinceCode":null,"stopTime":"2019-12-18 03:00:00","powerType":"全部","powerOffArea":"【全线路停电】停东安里内东,西白城内中心,西白城内西,北岗子内中配变,西白城内西南,西白城中学内新上,西白城内东南,东白城村内,西白城内南,唐会内北,北岗子内东,唐会村内东,东安里村内,东白城内东北,北岗子内南,唐会村北,唐会村南,唐会内西北,西白城内东,唐会村内西南","powerOffReason":"【停电原因】由于站内开关跳闸导致２２０ＫＶ固店变电站东安里线５４１线路全线停电 【变更送电】因抢修进度加快原因，送电时间由１０：００变更为０３：００ 【发布渠道】通过９５５９８发布","powerOffId":"2019121713000111"}],"pageModel":{"pageNow":330,"totalCount":10973,"totalPage":1098,"tableRows":0,"pageCount":10,"beginCount":3290},"isExperi":"1"}