{"message":"","today":"2020-06-15","seleList":[{"poweroffId":2019121213000070,"sgpoweroffId":null,"subsName":"","lineName":"邮电线513","pubTranName":"南太平庄光4,新育村光2【2018年重过载】,新育村光1【2018年重过载】,北太平庄光1,北太平庄光2【2018年节能变】,北太平庄排8台区【纯农排变】,北太平庄光8,北太平庄光6,北太平庄光4,北太平庄光3【2018年节能变】,新南太平庄光2,北太平庄光5,北太平庄排4台区【纯农排变】,南太平庄光3【2019年预安排】,北太平庄排6台区【纯农排变】,北太平庄光7【2018年重过载】,北太平庄光9【2018年四批补强】,南太平庄光1,","scope":"【影响街道/乡镇】固城镇 【高危重要客户】无 【影响客户】北太平庄、南太平庄、新育村、八街村部分用户、北罡上部分用户、南堽上部分用户、肖金庄部分用户、国兴部分用户、熙和商贸、刘启祥加工厂、保定百亨气体有限公司、中国农业气象试验基地、华智抽纱制品有限公司、河北诚睿金属制品有限公司、塑料颗粒厂、南太平庄幼儿园、北罡上、定兴县隆第格不锈钢铸品有限公司、保定晟达涂装材料有限公司、定兴县合金锛造有限公司、定兴县固城镇太平铸钢厂、保定东顺文教用品有限公司、保定硕源水业有限公司、进发水泥构件厂、北太平庄小学、移动公司北太平庄村西北机站、北罡砖厂、保定兴安冶金设备有限公司、鸿浠陶瓷、移动公司北太平庄村西北机站","startTime":"2019-12-12 12:12:26","stopDate":"2019-12-12 15:40:00","orgNo":"1340609","typeCode":"电网故障停限电","poweroffArea":"【全线路停电】停南太平庄排4【纯农排变】,八街排3【纯农排变】,北堽上排10【纯农排变】,国兴排10【纯农排变】,气象局-160,南堽上排3【纯农排变】,煦和商贸-250,刘启祥加工厂,保定百亨气体有限公司,北太平庄排8台区【纯农排变】,肖金庄排3【纯农排变】,河北省华智抽纱制品有限公司,北太平庄排3【纯农排变】,河北诚睿金属制品有限公司-250,新育村光1【2018年重过载】,南太平庄排3【纯农排变】,塑料颗粒厂,中国气象科学研究院-315,北太平庄光8,南太平庄排2【纯农排变】,合金铸造-250,0694659717-定兴县南太平庄幼儿园-专变-239106598-太平庄幼儿园,北堽上排17【纯农排变】,北堽上排12【纯农排变】,北太平庄光3【2018年节能变】,0616914021-河北诚睿金属制品有限公司-专变-128543321-诚睿金属800箱变,北堽上排13【纯农排变】,北太平庄排9台区【纯农排变】,新南太平庄光2,*保定兴安冶金设备有限公司1,北太平庄排7【纯农排变】,新育村光2【2018年重过载】,48农场公用,北庄构件厂,北太平庄排4台区【纯农排变】,南太平庄光1,定兴县隆第格不锈钢铸品有限公司,南太平庄排5【纯农排变】,昌明公司(混),三里铺排【纯农排变】,新育村排1【纯农排变】,兴安凤电400配变,南太平庄光3【2019年预安排】,北太平庄排6台区【纯农排变】,保定晟达涂装材料有限公司,定兴县合金锛造有限公司1,北太平庄排1【纯农排变】,北太平庄光7【2018年重过载】,北太平庄光5,南堽上排4【纯农排变】,北太平庄光1,北太平庄排5【纯农排变】,北堽上排11【纯农排变】,诚睿金属2-800,北太平庄光9【2018年四批补强】,定兴县固城镇太平铸钢厂,保定东顺文教用品有限公司100-2,鸿浠陶瓷-250,北太平庄光2【2018年节能变】,保定硕源水业有限公司,进发水泥构件厂-250,北太平庄光6,南堽上排5【纯农排变】,南堽上排2【纯农排变】,新育村排2【纯农排变】,南太平庄排1【纯农排变】,北太平庄排9【纯农排变】,北太平庄光4,0692010543-固城镇北太平庄小学-专变-237286580-北太平庄小学-250,*保定东顺文教用品有限公司,*移动公司北太平庄村西北机站,东江村排8【纯农排变】,62农厂,北堽上排14【纯农排变】,北太平庄排2【纯农排变】,南太平庄光4","poweroffReason":"【停电原因】由于兴安分支高压计量引线短路导致３５ＫＶ固城变电站邮电线５１３线路全线停电 【变更送电】因抢修进度加快原因，送电时间由１８：００变更为１５：４０ 【发布渠道】通过９５５９８发布","powerTime":"2019-12-12 15:16:26","powerComm":"已送电","subsNo":"","lineNo":"","tgNo":"","tgName":null,"infoStatus":"1","orgName":"国网定兴县供电公司","typeName":null,"infoStatusName":null,"dateDay":null,"orgNos":null,"nowTime":null,"countyName":null,"streetName":null,"villageName":null,"roadName":null,"communityName":null,"tranName":null,"sdLineName":null,"cityCode":"1340609","cityName":"国网定兴县供电公司","provinceCode":null,"stopTime":"2019-12-12 15:40:00","powerType":"全部","powerOffArea":"【全线路停电】停南太平庄排4【纯农排变】,八街排3【纯农排变】,北堽上排10【纯农排变】,国兴排10【纯农排变】,气象局-160,南堽上排3【纯农排变】,煦和商贸-250,刘启祥加工厂,保定百亨气体有限公司,北太平庄排8台区【纯农排变】,肖金庄排3【纯农排变】,河北省华智抽纱制品有限公司,北太平庄排3【纯农排变】,河北诚睿金属制品有限公司-250,新育村光1【2018年重过载】,南太平庄排3【纯农排变】,塑料颗粒厂,中国气象科学研究院-315,北太平庄光8,南太平庄排2【纯农排变】,合金铸造-250,0694659717-定兴县南太平庄幼儿园-专变-239106598-太平庄幼儿园,北堽上排17【纯农排变】,北堽上排12【纯农排变】,北太平庄光3【2018年节能变】,0616914021-河北诚睿金属制品有限公司-专变-128543321-诚睿金属800箱变,北堽上排13【纯农排变】,北太平庄排9台区【纯农排变】,新南太平庄光2,*保定兴安冶金设备有限公司1,北太平庄排7【纯农排变】,新育村光2【2018年重过载】,48农场公用,北庄构件厂,北太平庄排4台区【纯农排变】,南太平庄光1,定兴县隆第格不锈钢铸品有限公司,南太平庄排5【纯农排变】,昌明公司(混),三里铺排【纯农排变】,新育村排1【纯农排变】,兴安凤电400配变,南太平庄光3【2019年预安排】,北太平庄排6台区【纯农排变】,保定晟达涂装材料有限公司,定兴县合金锛造有限公司1,北太平庄排1【纯农排变】,北太平庄光7【2018年重过载】,北太平庄光5,南堽上排4【纯农排变】,北太平庄光1,北太平庄排5【纯农排变】,北堽上排11【纯农排变】,诚睿金属2-800,北太平庄光9【2018年四批补强】,定兴县固城镇太平铸钢厂,保定东顺文教用品有限公司100-2,鸿浠陶瓷-250,北太平庄光2【2018年节能变】,保定硕源水业有限公司,进发水泥构件厂-250,北太平庄光6,南堽上排5【纯农排变】,南堽上排2【纯农排变】,新育村排2【纯农排变】,南太平庄排1【纯农排变】,北太平庄排9【纯农排变】,北太平庄光4,0692010543-固城镇北太平庄小学-专变-237286580-北太平庄小学-250,*保定东顺文教用品有限公司,*移动公司北太平庄村西北机站,东江村排8【纯农排变】,62农厂,北堽上排14【纯农排变】,北太平庄排2【纯农排变】,南太平庄光4","powerOffReason":"【停电原因】由于兴安分支高压计量引线短路导致３５ＫＶ固城变电站邮电线５１３线路全线停电 【变更送电】因抢修进度加快原因，送电时间由１８：００变更为１５：４０ 【发布渠道】通过９５５９８发布","powerOffId":"2019121213000070"},{"poweroffId":2019121213000031,"sgpoweroffId":null,"subsName":"","lineName":"10kV东吕南线539线路","pubTranName":"1东吕四街内8,东吕四街内1,","scope":"【影响街道/乡镇】东吕乡 【高危重要客户】无 【影响客户】东吕四街村","startTime":"2019-12-14 08:00:00","stopDate":"2019-12-14 15:00:00","orgNo":"1340618","typeCode":"临时停电","poweroffArea":"【分支停电】停1东吕四街内8,东吕四街内1","poweroffReason":"【停电原因】由于线路重过载治理导致１１０ＫＶ东闾变电站１０ＫＶ东吕南线５３９线路主干３４号杆北Ｔ１５号杆至６１号杆停电 【变更送电】无 【发布渠道】通过９５５９８发布","powerTime":"2019-12-14 14:56:23","powerComm":"贾明通知已送电","subsNo":"","lineNo":"","tgNo":"","tgName":null,"infoStatus":"1","orgName":"国网清苑县供电公司","typeName":null,"infoStatusName":null,"dateDay":null,"orgNos":null,"nowTime":null,"countyName":null,"streetName":null,"villageName":null,"roadName":null,"communityName":null,"tranName":null,"sdLineName":null,"cityCode":"1340618","cityName":"国网清苑县供电公司","provinceCode":null,"stopTime":"2019-12-14 15:00:00","powerType":"全部","powerOffArea":"【分支停电】停1东吕四街内8,东吕四街内1","powerOffReason":"【停电原因】由于线路重过载治理导致１１０ＫＶ东闾变电站１０ＫＶ东吕南线５３９线路主干３４号杆北Ｔ１５号杆至６１号杆停电 【变更送电】无 【发布渠道】通过９５５９８发布","powerOffId":"2019121213000031"},{"poweroffId":2019121213000030,"sgpoweroffId":null,"subsName":"","lineName":"10kV东吕I线540线路","pubTranName":"保定大力起重机械有限公司,保定鼎力索具有限公司01,河北力雕起重设备制造有限公司,东吕张国林配件加工,0646559580-中国铁塔股份有限公司保定市分公司-专变-169916015-中国移动通信集团河北有限公司保定分公司,保定巨鹰起重机械制造有限公司,东吕四街野外,东吕四街野外新增,清苑县东吕月宽配件加工厂,东吕村西,东吕四街内9,杨继军,东吕寇建生配件加工,东吕畜牧场,河北神雕起重设备制造有限公司,东吕西六,佳力起重001,东吕西五,东吕四街村西南,东吕四街内2,东吕一街野外,1东吕四街内11,1东吕四街内6,上海轶鹰起重机械有限公司清苑分公司,河北君达起重机械制造有限公司,0556973793-东吕一街头村委会村西-专变-104865832-东吕一街村委会村西,0387489896-清苑县鑫力起重索具制造厂-专变-45315538-清苑县鑫力起重索具制造厂,佳力起重,东吕杜成立配件加工,保定鼎力索具有限公司,河北劲龙起重机械制造有限公司,东吕一街村委会东,清苑县志发链条加工厂,上海轶鹰机械有限公司清苑分公司,东吕东四,河北恩派克起重液压机械有限公司,清苑县飞翔起重机械厂,清苑县川岛起重机械制造有限公司,0658714380-清苑县宇航起重机械制造有限公司-专变-202679187-清苑县宇航起重机械制造有限公司,东吕翟志章配件加工,清苑县宏利锚链厂,","scope":"【影响街道/乡镇】东吕乡 【高危重要客户】无 【影响客户】东吕三街村、东吕四街村","startTime":"2019-12-14 08:00:00","stopDate":"2019-12-14 15:00:00","orgNo":"1340618","typeCode":"临时停电","poweroffArea":"【全线路停电】停0556973793-东吕一街头村委会村西-专变-104865832-东吕一街村委会村西,0387489896-清苑县鑫力起重索具制造厂-专变-45315538-清苑县鑫力起重索具制造厂,佳力起重,东吕杜成立配件加工,保定鼎力索具有限公司,河北劲龙起重机械制造有限公司,东吕一街村委会东,清苑县志发链条加工厂,上海轶鹰机械有限公司清苑分公司,东吕东四,河北恩派克起重液压机械有限公司,清苑县飞翔起重机械厂,清苑县川岛起重机械制造有限公司,0658714380-清苑县宇航起重机械制造有限公司-专变-202679187-清苑县宇航起重机械制造有限公司,东吕翟志章配件加工,清苑县宏利锚链厂,保定大力起重机械有限公司,保定鼎力索具有限公司01,河北力雕起重设备制造有限公司,东吕张国林配件加工,0646559580-中国铁塔股份有限公司保定市分公司-专变-169916015-中国移动通信集团河北有限公司保定分公司,保定巨鹰起重机械制造有限公司,东吕四街野外,东吕四街野外新增,清苑县东吕月宽配件加工厂,东吕村西,东吕四街内9,杨继军,东吕寇建生配件加工,东吕畜牧场,河北神雕起重设备制造有限公司,东吕西六,佳力起重001,东吕西五,东吕四街村西南,东吕四街内2,东吕一街野外,1东吕四街内11,1东吕四街内6,上海轶鹰起重机械有限公司清苑分公司,河北君达起重机械制造有限公司","poweroffReason":"【停电原因】由于线路重过载治理导致１１０ＫＶ东闾变电站１０ＫＶ东吕Ｉ线５４０线路全线停电 【变更送电】无 【发布渠道】通过９５５９８发布","powerTime":"2019-12-14 14:56:33","powerComm":"贾明通知已送电","subsNo":"","lineNo":"","tgNo":"","tgName":null,"infoStatus":"1","orgName":"国网清苑县供电公司","typeName":null,"infoStatusName":null,"dateDay":null,"orgNos":null,"nowTime":null,"countyName":null,"streetName":null,"villageName":null,"roadName":null,"communityName":null,"tranName":null,"sdLineName":null,"cityCode":"1340618","cityName":"国网清苑县供电公司","provinceCode":null,"stopTime":"2019-12-14 15:00:00","powerType":"全部","powerOffArea":"【全线路停电】停0556973793-东吕一街头村委会村西-专变-104865832-东吕一街村委会村西,0387489896-清苑县鑫力起重索具制造厂-专变-45315538-清苑县鑫力起重索具制造厂,佳力起重,东吕杜成立配件加工,保定鼎力索具有限公司,河北劲龙起重机械制造有限公司,东吕一街村委会东,清苑县志发链条加工厂,上海轶鹰机械有限公司清苑分公司,东吕东四,河北恩派克起重液压机械有限公司,清苑县飞翔起重机械厂,清苑县川岛起重机械制造有限公司,0658714380-清苑县宇航起重机械制造有限公司-专变-202679187-清苑县宇航起重机械制造有限公司,东吕翟志章配件加工,清苑县宏利锚链厂,保定大力起重机械有限公司,保定鼎力索具有限公司01,河北力雕起重设备制造有限公司,东吕张国林配件加工,0646559580-中国铁塔股份有限公司保定市分公司-专变-169916015-中国移动通信集团河北有限公司保定分公司,保定巨鹰起重机械制造有限公司,东吕四街野外,东吕四街野外新增,清苑县东吕月宽配件加工厂,东吕村西,东吕四街内9,杨继军,东吕寇建生配件加工,东吕畜牧场,河北神雕起重设备制造有限公司,东吕西六,佳力起重001,东吕西五,东吕四街村西南,东吕四街内2,东吕一街野外,1东吕四街内11,1东吕四街内6,上海轶鹰起重机械有限公司清苑分公司,河北君达起重机械制造有限公司","powerOffReason":"【停电原因】由于线路重过载治理导致１１０ＫＶ东闾变电站１０ＫＶ东吕Ｉ线５４０线路全线停电 【变更送电】无 【发布渠道】通过９５５９８发布","powerOffId":"2019121213000030"},{"poweroffId":2019121213000028,"sgpoweroffId":null,"subsName":"","lineName":"10kV西环路515","pubTranName":"阳光鑫园小区315,西环中医院变压器出线间隔配电变压器,西环一号井,兴华房地产,西环林业局变压器出线间隔配电变压器,阳光鑫园小区,文山路南公用出线间隔配电变压器,三里铺村东变压器出线间隔配电变压器,汇通房地产2*500KVA专变01#,住建局100KVA专变,涞水县住房和城乡建设局200KVA专变,三里铺村混用变压器,中盛房地产开发有限公司新增变压器,东方万泰公司,中盛房地产开发有限公司新增变压器630KVA一台,永泰房地产祥和苑小区B1250,家兴超市,三里铺村西变压器,永泰房地产祥和苑小区A1250,局大楼用电2#变,地税门口变压器出线间隔配电变压器,汇通房地产2*500KVA专变1#,涞水县住房和城乡建设局200KVA专变1#,三里铺村内2,七二六家属院公用变压器,西环南口公用变压器出线间隔配电变压器,","scope":"【影响街道/乡镇】涞水镇 【高危重要客户】无 【影响客户】西环、三里铺村、地税局、林业局、畜牧局、筑建局、祥和苑、中医院、西苑华庭小区、阳光欣园、汇通房地产、汇通小区、726家属院、富民小区、文山路口以南西环两侧、盛世对面、家兴超市、兴华房地产、东方万泰公司、检察院、检察院家属楼、蜀风苑饭店","startTime":"2019-12-12 09:01:44","stopDate":"2019-12-12 13:00:00","orgNo":"1340614","typeCode":"电网故障停限电","poweroffArea":"【全线路停电】停阳光鑫园小区315,西环中医院变压器出线间隔配电变压器,西环一号井,兴华房地产,西环林业局变压器出线间隔配电变压器,阳光鑫园小区,文山路南公用出线间隔配电变压器,三里铺村东变压器出线间隔配电变压器,汇通房地产2*500KVA专变01#,住建局100KVA专变,涞水县住房和城乡建设局200KVA专变,三里铺村混用变压器,中盛房地产开发有限公司新增变压器,东方万泰公司,中盛房地产开发有限公司新增变压器630KVA一台,永泰房地产祥和苑小区B1250,家兴超市,三里铺村西变压器,永泰房地产祥和苑小区A1250,局大楼用电2#变,地税门口变压器出线间隔配电变压器,汇通房地产2*500KVA专变1#,涞水县住房和城乡建设局200KVA专变1#,三里铺村内2,七二六家属院公用变压器,西环南口公用变压器出线间隔配电变压器","poweroffReason":"【停电原因】由于Ｂ相接地导致１１０ＫＶ涞水变电站１０ＫＶ西环路５１５线路全线停电 【变更送电】因抢修进度加快原因，送电时间由１４：００变更为１３：００ 【发布渠道】通过９５５９８发布","powerTime":"2019-12-12 12:20:18","powerComm":"已送电","subsNo":"","lineNo":"","tgNo":"","tgName":null,"infoStatus":"1","orgName":"国网涞水县供电公司","typeName":null,"infoStatusName":null,"dateDay":null,"orgNos":null,"nowTime":null,"countyName":null,"streetName":null,"villageName":null,"roadName":null,"communityName":null,"tranName":null,"sdLineName":null,"cityCode":"1340614","cityName":"国网涞水县供电公司","provinceCode":null,"stopTime":"2019-12-12 13:00:00","powerType":"全部","powerOffArea":"【全线路停电】停阳光鑫园小区315,西环中医院变压器出线间隔配电变压器,西环一号井,兴华房地产,西环林业局变压器出线间隔配电变压器,阳光鑫园小区,文山路南公用出线间隔配电变压器,三里铺村东变压器出线间隔配电变压器,汇通房地产2*500KVA专变01#,住建局100KVA专变,涞水县住房和城乡建设局200KVA专变,三里铺村混用变压器,中盛房地产开发有限公司新增变压器,东方万泰公司,中盛房地产开发有限公司新增变压器630KVA一台,永泰房地产祥和苑小区B1250,家兴超市,三里铺村西变压器,永泰房地产祥和苑小区A1250,局大楼用电2#变,地税门口变压器出线间隔配电变压器,汇通房地产2*500KVA专变1#,涞水县住房和城乡建设局200KVA专变1#,三里铺村内2,七二六家属院公用变压器,西环南口公用变压器出线间隔配电变压器","powerOffReason":"【停电原因】由于Ｂ相接地导致１１０ＫＶ涞水变电站１０ＫＶ西环路５１５线路全线停电 【变更送电】因抢修进度加快原因，送电时间由１４：００变更为１３：００ 【发布渠道】通过９５５９８发布","powerOffId":"2019121213000028"},{"poweroffId":2019121213000025,"sgpoweroffId":null,"subsName":"","lineName":"10KV徐里营531","pubTranName":"刁窝供电所（徐一村）【纯农排变】,","scope":"【影响街道/乡镇】刁窝乡 【高危重要客户】无 【影响客户】徐一村","startTime":"2019-12-14 08:00:00","stopDate":"2019-12-14 17:00:00","orgNo":"1340626","typeCode":"临时停电","poweroffArea":"【单台区停电】停刁窝供电所（徐一村）【纯农排变】","poweroffReason":"【停电原因】由于电杆组立、架设导线工程导致１１０ＫＶ刁窝变电站１０ＫＶ徐里营５３１线路刁窝供电所（徐一村）公变台区停电 【变更送电】无 【发布渠道】通过９５５９８发布","powerTime":"2019-12-14 16:40:13","powerComm":"恢复送电","subsNo":"","lineNo":"","tgNo":"","tgName":null,"infoStatus":"1","orgName":"国网涿州市供电公司","typeName":null,"infoStatusName":null,"dateDay":null,"orgNos":null,"nowTime":null,"countyName":null,"streetName":null,"villageName":null,"roadName":null,"communityName":null,"tranName":null,"sdLineName":null,"cityCode":"1340626","cityName":"国网涿州市供电公司","provinceCode":null,"stopTime":"2019-12-14 17:00:00","powerType":"全部","powerOffArea":"【单台区停电】停刁窝供电所（徐一村）【纯农排变】","powerOffReason":"【停电原因】由于电杆组立、架设导线工程导致１１０ＫＶ刁窝变电站１０ＫＶ徐里营５３１线路刁窝供电所（徐一村）公变台区停电 【变更送电】无 【发布渠道】通过９５５９８发布","powerOffId":"2019121213000025"},{"poweroffId":2019121213000019,"sgpoweroffId":null,"subsName":"","lineName":"白庄线513","pubTranName":"高阳县庞口镇北庞口村村民委员会变压器,河北省高阳县振兴塑料厂变压器,高阳县万佳电器厂变压器,贺庄村北综合,03064|白庄村村东综合,03063|白庄村西南综合,03048|刘庄村东2#农业【纯农排变】,保定大柴机械配件制造有限公司变压器3,丰万成,保定正昊房地产开发有限公司2,03050|白庄村南台区农业【纯农排变】,03065|白庄村村北综合,03037|贺庄村综合2,贺庄西北台区综合,李庄村东农业2号【纯农排变】,03083|李庄村东农业【纯农排变】,03084|李庄村西农业【纯农排变】,贺庄东南综合,03034|刘庄综合,03047|刘庄村东1#农业【纯农排变】,保定大柴机械配件制造有限公司变压器1,03051|白庄村东2台区农业【纯农排变】,刘庄鸡场综合台区,高阳县正大冲压件厂变压器,03032|刘庄村里综合,03040|李庄5#综合,高阳县风暴王机械厂变压器,03052|白庄村西台区农业【纯农排变】,贺庄(村东),贺庄(村东南),贺庄西南台区综合,03035|刘庄(村东南）综合,保定大柴机械配件制造有限公司变压器4,03038|贺庄（村里）综合,保定大柴机械配件制造有限公司变压器2,高阳县丰硕农场变压器,03041|李庄6#综合,保定正昊房地产开发有限公司1,贺庄(村正南),03085|李庄村北,","scope":"【影响街道/乡镇】庞口镇 【高危重要客户】无 【影响客户】贺家庄（贺庄）、刘家庄（刘庄）、李家庄（李庄）、白家庄（白庄）","startTime":"2019-12-12 08:20:00","stopDate":"2019-12-12 11:00:00","orgNo":"1340613","typeCode":"电网故障停限电","poweroffArea":"【全线路停电】停保定大柴机械配件制造有限公司变压器2,高阳县庞口镇北庞口村村民委员会变压器,河北省高阳县振兴塑料厂变压器,高阳县万佳电器厂变压器,贺庄村北综合,03064|白庄村村东综合,03063|白庄村西南综合,03048|刘庄村东2#农业【纯农排变】,保定大柴机械配件制造有限公司变压器3,丰万成,保定正昊房地产开发有限公司2,03050|白庄村南台区农业【纯农排变】,03065|白庄村村北综合,03037|贺庄村综合2,贺庄西北台区综合,李庄村东农业2号【纯农排变】,03083|李庄村东农业【纯农排变】,03084|李庄村西农业【纯农排变】,贺庄东南综合,03034|刘庄综合,03047|刘庄村东1#农业【纯农排变】,保定大柴机械配件制造有限公司变压器1,03051|白庄村东2台区农业【纯农排变】,刘庄鸡场综合台区,高阳县正大冲压件厂变压器,03032|刘庄村里综合,03040|李庄5#综合,高阳县风暴王机械厂变压器,03052|白庄村西台区农业【纯农排变】,贺庄(村东),贺庄(村东南),贺庄西南台区综合,03035|刘庄(村东南）综合,保定大柴机械配件制造有限公司变压器4,03038|贺庄（村里）综合,高阳县丰硕农场变压器,03041|李庄6#综合,保定正昊房地产开发有限公司1,贺庄(村正南),03085|李庄村北","poweroffReason":"【停电原因】由于汽车撞杆导致３５ＫＶ庞口变电站白庄５１３线路全线停电【变更送电】无【发布渠道】通过９５５９８发布","powerTime":"2019-12-12 10:27:08","powerComm":"已送电","subsNo":"","lineNo":"","tgNo":"","tgName":null,"infoStatus":"1","orgName":"国网高阳县供电公司","typeName":null,"infoStatusName":null,"dateDay":null,"orgNos":null,"nowTime":null,"countyName":null,"streetName":null,"villageName":null,"roadName":null,"communityName":null,"tranName":null,"sdLineName":null,"cityCode":"1340613","cityName":"国网高阳县供电公司","provinceCode":null,"stopTime":"2019-12-12 11:00:00","powerType":"全部","powerOffArea":"【全线路停电】停保定大柴机械配件制造有限公司变压器2,高阳县庞口镇北庞口村村民委员会变压器,河北省高阳县振兴塑料厂变压器,高阳县万佳电器厂变压器,贺庄村北综合,03064|白庄村村东综合,03063|白庄村西南综合,03048|刘庄村东2#农业【纯农排变】,保定大柴机械配件制造有限公司变压器3,丰万成,保定正昊房地产开发有限公司2,03050|白庄村南台区农业【纯农排变】,03065|白庄村村北综合,03037|贺庄村综合2,贺庄西北台区综合,李庄村东农业2号【纯农排变】,03083|李庄村东农业【纯农排变】,03084|李庄村西农业【纯农排变】,贺庄东南综合,03034|刘庄综合,03047|刘庄村东1#农业【纯农排变】,保定大柴机械配件制造有限公司变压器1,03051|白庄村东2台区农业【纯农排变】,刘庄鸡场综合台区,高阳县正大冲压件厂变压器,03032|刘庄村里综合,03040|李庄5#综合,高阳县风暴王机械厂变压器,03052|白庄村西台区农业【纯农排变】,贺庄(村东),贺庄(村东南),贺庄西南台区综合,03035|刘庄(村东南）综合,保定大柴机械配件制造有限公司变压器4,03038|贺庄（村里）综合,高阳县丰硕农场变压器,03041|李庄6#综合,保定正昊房地产开发有限公司1,贺庄(村正南),03085|李庄村北","powerOffReason":"【停电原因】由于汽车撞杆导致３５ＫＶ庞口变电站白庄５１３线路全线停电【变更送电】无【发布渠道】通过９５５９８发布","powerOffId":"2019121213000019"},{"poweroffId":2019121213000005,"sgpoweroffId":null,"subsName":"","lineName":"10KV西龙泉线566","pubTranName":"大赤土村北,","scope":"【影响街道/乡镇】石亭镇 【高危重要客户】无 【影响客户】大赤土村","startTime":"2019-12-12 01:29:49","stopDate":"2019-12-12 12:00:00","orgNo":"1340614","typeCode":"电网故障停限电","poweroffArea":"【单台区停电】停大赤土村北","poweroffReason":"【停电原因】由于电杆撞断导致１１０ＫＶ石亭变电站１０ＫＶ西龙泉线５６６线路大赤土村北公变台区停电 【变更送电】无 【发布渠道】通过９５５９８发布","powerTime":"2019-12-12 11:04:55","powerComm":"已送电","subsNo":"","lineNo":"","tgNo":"","tgName":null,"infoStatus":"1","orgName":"国网涞水县供电公司","typeName":null,"infoStatusName":null,"dateDay":null,"orgNos":null,"nowTime":null,"countyName":null,"streetName":null,"villageName":null,"roadName":null,"communityName":null,"tranName":null,"sdLineName":null,"cityCode":"1340614","cityName":"国网涞水县供电公司","provinceCode":null,"stopTime":"2019-12-12 12:00:00","powerType":"全部","powerOffArea":"【单台区停电】停大赤土村北","powerOffReason":"【停电原因】由于电杆撞断导致１１０ＫＶ石亭变电站１０ＫＶ西龙泉线５６６线路大赤土村北公变台区停电 【变更送电】无 【发布渠道】通过９５５９８发布","powerOffId":"2019121213000005"},{"poweroffId":2019121113000135,"sgpoweroffId":null,"subsName":"","lineName":"10KV刁窝538","pubTranName":"刁二1279,","scope":"【影响街道/乡镇】刁窝乡 【高危重要客户】无 【影响客户】刁二","startTime":"2019-12-12 01:49:00","stopDate":"2019-12-12 03:00:00","orgNo":"1340626","typeCode":"电网故障停限电","poweroffArea":"【单台区停电】停刁二1279","poweroffReason":"【停电原因】由于低压空开烧毁导致１１０ＫＶ刁窝变电站１０ＫＶ刁窝５３８线路刁二１２７９公变台区停电 【变更送电】因抢修进度加快原因，送电时间由０６：００变更为０３：００ 【发布渠道】通过９５５９８发布","powerTime":"2019-12-12 02:40:45","powerComm":"恢复送电","subsNo":"","lineNo":"","tgNo":"","tgName":null,"infoStatus":"1","orgName":"国网涿州市供电公司","typeName":null,"infoStatusName":null,"dateDay":null,"orgNos":null,"nowTime":null,"countyName":null,"streetName":null,"villageName":null,"roadName":null,"communityName":null,"tranName":null,"sdLineName":null,"cityCode":"1340626","cityName":"国网涿州市供电公司","provinceCode":null,"stopTime":"2019-12-12 03:00:00","powerType":"全部","powerOffArea":"【单台区停电】停刁二1279","powerOffReason":"【停电原因】由于低压空开烧毁导致１１０ＫＶ刁窝变电站１０ＫＶ刁窝５３８线路刁二１２７９公变台区停电 【变更送电】因抢修进度加快原因，送电时间由０６：００变更为０３：００ 【发布渠道】通过９５５９８发布","powerOffId":"2019121113000135"},{"poweroffId":2019121113000133,"sgpoweroffId":null,"subsName":"","lineName":"10KV茂林庄531","pubTranName":"张庄村5199,","scope":"【影响街道/乡镇】百尺竿乡 【高危重要客户】无 【影响客户】张庄村","startTime":"2019-12-11 22:32:59","stopDate":"2019-12-12 00:30:00","orgNo":"1340626","typeCode":"电网故障停限电","poweroffArea":"【单台区停电】停张庄村5199","poweroffReason":"【停电原因】由于低压线断线导致１１０ＫＶ宋营变电站１０ＫＶ茂林庄５３１线路张庄村５１９９公变台区停电 【变更送电】因抢修进度加快原因，送电时间由１０：００变更为００：３０ 【发布渠道】通过９５５９８发布","powerTime":"2019-12-12 00:07:57","powerComm":"恢复送电","subsNo":"","lineNo":"","tgNo":"","tgName":null,"infoStatus":"1","orgName":"国网涿州市供电公司","typeName":null,"infoStatusName":null,"dateDay":null,"orgNos":null,"nowTime":null,"countyName":null,"streetName":null,"villageName":null,"roadName":null,"communityName":null,"tranName":null,"sdLineName":null,"cityCode":"1340626","cityName":"国网涿州市供电公司","provinceCode":null,"stopTime":"2019-12-12 00:30:00","powerType":"全部","powerOffArea":"【单台区停电】停张庄村5199","powerOffReason":"【停电原因】由于低压线断线导致１１０ＫＶ宋营变电站１０ＫＶ茂林庄５３１线路张庄村５１９９公变台区停电 【变更送电】因抢修进度加快原因，送电时间由１０：００变更为００：３０ 【发布渠道】通过９５５９８发布","powerOffId":"2019121113000133"},{"poweroffId":2019121113000128,"sgpoweroffId":null,"subsName":"","lineName":"刘庄518","pubTranName":"白五村2,","scope":"【影响街道/乡镇】白沟镇 【高危重要客户】无 【影响客户】白五村、箱包大厅西侧","startTime":"2019-12-11 21:53:27","stopDate":"2019-12-12 01:00:00","orgNo":"1340612","typeCode":"电网故障停限电","poweroffArea":"【单台区停电】停白五村2","poweroffReason":"【停电原因】由于０１号杆二次电缆烧毁导致１１０ＫＶ白沟变电站１０ＫＶ刘庄５１８线路白五村２号公变台区停电 【变更送电】因抢修进度加快原因，送电时间由１２日１２：００变更为１２日０１：００ 【发布渠道】通过９５５９８发布","powerTime":"2019-12-12 00:47:31","powerComm":"已送电","subsNo":"","lineNo":"","tgNo":"","tgName":null,"infoStatus":"1","orgName":"国网高碑店市供电公司","typeName":null,"infoStatusName":null,"dateDay":null,"orgNos":null,"nowTime":null,"countyName":null,"streetName":null,"villageName":null,"roadName":null,"communityName":null,"tranName":null,"sdLineName":null,"cityCode":"1340612","cityName":"国网高碑店市供电公司","provinceCode":null,"stopTime":"2019-12-12 01:00:00","powerType":"全部","powerOffArea":"【单台区停电】停白五村2","powerOffReason":"【停电原因】由于０１号杆二次电缆烧毁导致１１０ＫＶ白沟变电站１０ＫＶ刘庄５１８线路白五村２号公变台区停电 【变更送电】因抢修进度加快原因，送电时间由１２日１２：００变更为１２日０１：００ 【发布渠道】通过９５５９８发布","powerOffId":"2019121113000128"}],"pageModel":{"pageNow":335,"totalCount":10973,"totalPage":1098,"tableRows":0,"pageCount":10,"beginCount":3340},"isExperi":"1"}