{"message":"","today":"2020-06-15","seleList":[{"poweroffId":2019121113000108,"sgpoweroffId":null,"subsName":"","lineName":"箱包城514","pubTranName":"阳光凯旋城,","scope":"【影响街道/乡镇】七一街 【高危重要客户】无 【影响客户】凯旋城小区、凯旋城三期","startTime":"2019-12-11 18:48:38","stopDate":"2019-12-11 23:59:40","orgNo":"1340612","typeCode":"电网故障停限电","poweroffArea":"【单台区停电】停阳光凯旋城","poweroffReason":"【停电原因】由于凯旋城三期出站电缆烧毁导致１１０ＫＶ白沟变电站１０ＫＶ箱包城５１４线路阳光凯旋城公变台区停电 【变更送电】无 【发布渠道】通过９５５９８发布","powerTime":"2019-12-11 23:17:13","powerComm":"已送电","subsNo":"","lineNo":"","tgNo":"","tgName":null,"infoStatus":"1","orgName":"国网高碑店市供电公司","typeName":null,"infoStatusName":null,"dateDay":null,"orgNos":null,"nowTime":null,"countyName":null,"streetName":null,"villageName":null,"roadName":null,"communityName":null,"tranName":null,"sdLineName":null,"cityCode":"1340612","cityName":"国网高碑店市供电公司","provinceCode":null,"stopTime":"2019-12-11 23:59:40","powerType":"全部","powerOffArea":"【单台区停电】停阳光凯旋城","powerOffReason":"【停电原因】由于凯旋城三期出站电缆烧毁导致１１０ＫＶ白沟变电站１０ＫＶ箱包城５１４线路阳光凯旋城公变台区停电 【变更送电】无 【发布渠道】通过９５５９８发布","powerOffId":"2019121113000108"},{"poweroffId":2019121113000098,"sgpoweroffId":null,"subsName":"","lineName":"华信线519","pubTranName":"兴达公变,仁和小区公变,高镇公变2号,诺林湾南配电变压器,林海公变,新发公变,法院,高镇公变,一小公变,网络公司公变变压器,诺林湾北配电变压器,车架组装厂变压器,稽征站(交通局)公变,高碑店开发区公变变压器,凌云机电商业街公变,五厂公变新,世纪嘉园二期配电变压器,扒鸡厂公变,","scope":"【影响街道/乡镇】团结西路、幸福南路、朝阳街、向阳路、结乐胡同、华茂巷 【高危重要客户】无 【影响客户】时氏正骨医院、一中东校区、三中、法院、司法局、高碑店市商务局、广播局、高镇村（世纪大街路北）、五厂新、诺林湾小区、世纪家园、世纪家园二期、锦锈花园小区、牡丹庄园、民乐小区、三中（三中门店）、博旭时代小区、扒鸡厂、一小平房、盛景花园、仁和楼房、结乐小区、法院家属楼、磷肥厂平房、磷肥厂家属楼、麻家营小区、隆鑫花园、五一路家兴超市、高碑店市洪顶煤炭销售有限公司、河北民乐房地产、河北锋向标汽车贸易有限公司、司法局、河北凌云机电、鼎立建筑设计有限公司、宋明新、林海采暖设备有限责任公司、高碑店光辉织物涂层厂（云海洗浴）、中国移动通信保定分公司、河北冀高电力器材开发有限公司、农村商业银行、河北广电网络集团广播局新、河北康伴医药有限公司、兴安物业、网络公司家属楼、新交警大队楼、强凌防水","startTime":"2019-12-12 00:00:00","stopDate":"2019-12-12 03:00:00","orgNo":"1340612","typeCode":"其他临时停电","poweroffArea":"【全线路停电】停一小公变,扒鸡厂公变,诺林湾北配电变压器,兴达公变,三中,冀高电力器材开发公司,世纪嘉园,仁和小区公变,0717782158-高碑店市昊青物业服务有限公司02,河北凌云机电有限公司变压器02,新型水泥厂,市荣生综合加工厂,奥润顺达窗业公司,开发区,高碑店市融阔房地产开发有限责任公司,广播局新,高镇公变2号,华莹氧气厂,河北凌云机电公司,市信用合作联社,锦绣华庭变压器,高碑店市公安交通警察大队变压器,高碑店市景融稼源生态科技有限公司生态园餐厅,高碑店市幸福路幸福壹捞火锅店,0717782158-高碑店市昊青物业服务有限公司01,高碑店市埃德加房地产开发有限公司,诺林湾南配电变压器,0730123895-中国移动通信集团河北有限公司高碑店分公司02,高碑店市路灯管理办公室,0598044804-高碑店市晨星物业服务有限公司01,张忠水洗,光辉织物涂层厂,河北家兴商贸集团有限公司变压器,河北凌云机电公司变压器,林海公变,高碑店市博旭房地产开发有限公司变压器,新发公变,河北锋向标汽车贸易有限公司变压器,北师大附中变压器,时氏正骨医院,网络公司公变变压器,磷肥厂1,高碑店市网络公司,高碑店市众居物业服务有限公司,司法局,建筑设计所,0598046738-高碑店市晨星物业服务有限公司02,0598046738-高碑店市晨星物业服务有限公司01,河北强凌有限公司,中国移动通信集团河北有限公司高碑店分公司01,隆鑫花园,河北高碑店农村商业银行股份有限公司,高碑店市城市管理综合执法局团结路1号,高碑店市隆创集中供热有限公司,0704172658-河北凌云机电有限公司变压器01,麻家营小区,高碑店市汇华物业服务有限公司变压器,法院,高镇公变,交通局,高碑店市城市管理综合执法局幸福路1号,结乐小区,车架组装厂变压器,高碑店市众居物业服务有限公司2,稽征站(交通局)公变,高碑店开发区公变变压器,0597176469-高碑店市景融稼源生态科技有限公司生态园餐厅-专变-126300668-高碑店市景融稼源生态科技有限公司变压器,凌云机电商业街公变,五厂公变新,世纪嘉园二期配电变压器,高碑店市三中变压器,实验中学变压器","poweroffReason":"【停电原因】由于０１号杆刀闸打火需紧急处理导致１１０ＫＶ马庄变电站１０ＫＶ华信５１９线路全线停电 【变更送电】无 【发布渠道】通过９５５９８发布","powerTime":"2019-12-12 02:37:18","powerComm":"已送电","subsNo":"","lineNo":"","tgNo":"","tgName":null,"infoStatus":"1","orgName":"国网高碑店市供电公司","typeName":null,"infoStatusName":null,"dateDay":null,"orgNos":null,"nowTime":null,"countyName":null,"streetName":null,"villageName":null,"roadName":null,"communityName":null,"tranName":null,"sdLineName":null,"cityCode":"1340612","cityName":"国网高碑店市供电公司","provinceCode":null,"stopTime":"2019-12-12 03:00:00","powerType":"全部","powerOffArea":"【全线路停电】停一小公变,扒鸡厂公变,诺林湾北配电变压器,兴达公变,三中,冀高电力器材开发公司,世纪嘉园,仁和小区公变,0717782158-高碑店市昊青物业服务有限公司02,河北凌云机电有限公司变压器02,新型水泥厂,市荣生综合加工厂,奥润顺达窗业公司,开发区,高碑店市融阔房地产开发有限责任公司,广播局新,高镇公变2号,华莹氧气厂,河北凌云机电公司,市信用合作联社,锦绣华庭变压器,高碑店市公安交通警察大队变压器,高碑店市景融稼源生态科技有限公司生态园餐厅,高碑店市幸福路幸福壹捞火锅店,0717782158-高碑店市昊青物业服务有限公司01,高碑店市埃德加房地产开发有限公司,诺林湾南配电变压器,0730123895-中国移动通信集团河北有限公司高碑店分公司02,高碑店市路灯管理办公室,0598044804-高碑店市晨星物业服务有限公司01,张忠水洗,光辉织物涂层厂,河北家兴商贸集团有限公司变压器,河北凌云机电公司变压器,林海公变,高碑店市博旭房地产开发有限公司变压器,新发公变,河北锋向标汽车贸易有限公司变压器,北师大附中变压器,时氏正骨医院,网络公司公变变压器,磷肥厂1,高碑店市网络公司,高碑店市众居物业服务有限公司,司法局,建筑设计所,0598046738-高碑店市晨星物业服务有限公司02,0598046738-高碑店市晨星物业服务有限公司01,河北强凌有限公司,中国移动通信集团河北有限公司高碑店分公司01,隆鑫花园,河北高碑店农村商业银行股份有限公司,高碑店市城市管理综合执法局团结路1号,高碑店市隆创集中供热有限公司,0704172658-河北凌云机电有限公司变压器01,麻家营小区,高碑店市汇华物业服务有限公司变压器,法院,高镇公变,交通局,高碑店市城市管理综合执法局幸福路1号,结乐小区,车架组装厂变压器,高碑店市众居物业服务有限公司2,稽征站(交通局)公变,高碑店开发区公变变压器,0597176469-高碑店市景融稼源生态科技有限公司生态园餐厅-专变-126300668-高碑店市景融稼源生态科技有限公司变压器,凌云机电商业街公变,五厂公变新,世纪嘉园二期配电变压器,高碑店市三中变压器,实验中学变压器","powerOffReason":"【停电原因】由于０１号杆刀闸打火需紧急处理导致１１０ＫＶ马庄变电站１０ＫＶ华信５１９线路全线停电 【变更送电】无 【发布渠道】通过９５５９８发布","powerOffId":"2019121113000098"},{"poweroffId":2019121113000097,"sgpoweroffId":null,"subsName":"","lineName":"韩家庄577","pubTranName":"厂城村7#,","scope":"【影响街道/乡镇】易州镇【高危重要客户】无【影响客户】厂城村","startTime":"2019-12-11 17:55:50","stopDate":"2019-12-11 20:30:00","orgNo":"1340625","typeCode":"电网故障停限电","poweroffArea":"【单台区停电】停厂城村7#","poweroffReason":"【停电原因】由于低压线断导致１１０ＫＶ店北变电站韩家庄５７７线路厂城村７＃公变台区停电【变更送电】因抢修进度加快原因，送电时间由２２：００变更为２０：３０【发布渠道】通过９５５９８发布","powerTime":"2019-12-11 20:08:56","powerComm":"已送电","subsNo":"","lineNo":"","tgNo":"","tgName":null,"infoStatus":"1","orgName":"国网易县供电公司","typeName":null,"infoStatusName":null,"dateDay":null,"orgNos":null,"nowTime":null,"countyName":null,"streetName":null,"villageName":null,"roadName":null,"communityName":null,"tranName":null,"sdLineName":null,"cityCode":"1340625","cityName":"国网易县供电公司","provinceCode":null,"stopTime":"2019-12-11 20:30:00","powerType":"全部","powerOffArea":"【单台区停电】停厂城村7#","powerOffReason":"【停电原因】由于低压线断导致１１０ＫＶ店北变电站韩家庄５７７线路厂城村７＃公变台区停电【变更送电】因抢修进度加快原因，送电时间由２２：００变更为２０：３０【发布渠道】通过９５５９８发布","powerOffId":"2019121113000097"},{"poweroffId":2019121113000095,"sgpoweroffId":null,"subsName":"","lineName":"海龙线517","pubTranName":"房开公变变压器,远东小区公变变压器,技术监督局变压器,十八局远东小区02号公变,农行变压器,芙蓉小区公变变压器,海龙建材公变变压器,八中变压器,广播电视局变压器,国税局公变变压器,华汽幼儿园公变变压器,五厂公变变压器,五厂北公变,财政局公变变压器,车身厂门口公变变压器,五厂南公变,房产局公变1,液压管件公变变压器,公安局公变变压器,地税局大厅公变变压器,","scope":"【影响街道/乡镇】团结东路、幸福南路、五一南路、昌盛路、结福胡同、结盟巷 【高危重要客户】高碑店市第二幼儿园、公安局、中国银行高碑店支行、中国农业银行高碑店市支行、广播电视局、八中 【影响客户】华汽幼儿园小区、车身厂家属楼、海龙建材家属楼、海龙公寓、液压管件家属楼、计量局家属楼、远东小区、财政局家属楼、房产局家属楼、税鑫园小区、地税局服务大厅、鑫祥园小区、五厂北区、尚品东方小区、锦绣华庭小区、水榭花都小区、公安局小区、芙蓉小区、广播局家属楼、哈贝教育、润景花园小区、华润公寓、天阔幸福家园、海龙商业有限责任公司、景融稼源生态园餐厅、博旭房地产、植物公园管理处、嘉德丽景房地产、牛秀英、欧亚塑料有限公司、河北华达公路工程咨询监理有限公司、天宏塑料制品厂、同兴粮油、市场监督管理局、鑫瑞申有限公司、胜贝双金属线材有限公司、淇仑餐饮、旺佳物业、万和物业公司、汇华物业、高碑店悦华食府、天阔英雄房地产、嘉林物业、河北元和房地产、保定长城汽车制造有限公司","startTime":"2019-12-12 00:00:00","stopDate":"2019-12-12 03:00:00","orgNo":"1340612","typeCode":"其他临时停电","poweroffArea":"【全线路停电】停房开公变变压器,公安局公变变压器,河北凌云机电有限公司受电点变压器,高碑店市工业和信息化局变压器,地税局大厅公变变压器,华达工程监理公司,0387447896-高碑店市植物公园管理处-专变-130228648-植物园箱变,元和房地产公司,中国银行股份有限公司高碑店支行变压器,远东小区公变变压器,技术监督局变压器,公安局,保定长城汽车公司1,农行新,技术监督局,高碑店市路灯管理办公室（团结路中）变压器,高碑店市海龙商业有限责任公司,十八局远东小区02号公变,农行变压器,鑫瑞申有限公司,变压器,芙蓉小区公变变压器,海龙建材公变变压器,0693257242-高碑店市第二幼儿园-专变-237503079-高碑店市第二幼儿园变压器,八中变压器,广播电视局变压器,国税局公变变压器,欧亚塑料有限公司,电线厂,华汽幼儿园公变变压器,润景花园小区,五厂公变变压器,五厂北公变,财政局公变变压器,车身厂门口公变变压器,0387449140-海龙公寓-专变-45281872-海龙公寓,万和物业公司,五厂南公变,八中,0387447809-润景花园小区2-专变-45281911-润景花园小区2,牛秀英,高碑店市嘉林物业服务有限公司,0586498752-高碑店市汇华物业服务有限公司-专变-125141073-高碑店市鑫天祥房地产开发有限公司变压器,河北元和房地产开发有限公司,嘉德丽景房地产,电视局,房产局公变1,液压管件公变变压器,0586498752-高碑店市汇华物业服务有限公司-专变-125143992-高碑店市鑫天祥房地产开发有限公司变压器,淇沦食府,同兴粮油,高碑店市高碑店悦华食府,天宏塑料制品厂","poweroffReason":"【停电原因】由于０１号杆刀闸打火需紧急处理导致１１０ＫＶ马庄变电站１０ＫＶ海龙５１７线路全线停电 【变更送电】无 【发布渠道】通过９５５９８发布","powerTime":"2019-12-12 02:34:51","powerComm":"已送电","subsNo":"","lineNo":"","tgNo":"","tgName":null,"infoStatus":"1","orgName":"国网高碑店市供电公司","typeName":null,"infoStatusName":null,"dateDay":null,"orgNos":null,"nowTime":null,"countyName":null,"streetName":null,"villageName":null,"roadName":null,"communityName":null,"tranName":null,"sdLineName":null,"cityCode":"1340612","cityName":"国网高碑店市供电公司","provinceCode":null,"stopTime":"2019-12-12 03:00:00","powerType":"全部","powerOffArea":"【全线路停电】停房开公变变压器,公安局公变变压器,河北凌云机电有限公司受电点变压器,高碑店市工业和信息化局变压器,地税局大厅公变变压器,华达工程监理公司,0387447896-高碑店市植物公园管理处-专变-130228648-植物园箱变,元和房地产公司,中国银行股份有限公司高碑店支行变压器,远东小区公变变压器,技术监督局变压器,公安局,保定长城汽车公司1,农行新,技术监督局,高碑店市路灯管理办公室（团结路中）变压器,高碑店市海龙商业有限责任公司,十八局远东小区02号公变,农行变压器,鑫瑞申有限公司,变压器,芙蓉小区公变变压器,海龙建材公变变压器,0693257242-高碑店市第二幼儿园-专变-237503079-高碑店市第二幼儿园变压器,八中变压器,广播电视局变压器,国税局公变变压器,欧亚塑料有限公司,电线厂,华汽幼儿园公变变压器,润景花园小区,五厂公变变压器,五厂北公变,财政局公变变压器,车身厂门口公变变压器,0387449140-海龙公寓-专变-45281872-海龙公寓,万和物业公司,五厂南公变,八中,0387447809-润景花园小区2-专变-45281911-润景花园小区2,牛秀英,高碑店市嘉林物业服务有限公司,0586498752-高碑店市汇华物业服务有限公司-专变-125141073-高碑店市鑫天祥房地产开发有限公司变压器,河北元和房地产开发有限公司,嘉德丽景房地产,电视局,房产局公变1,液压管件公变变压器,0586498752-高碑店市汇华物业服务有限公司-专变-125143992-高碑店市鑫天祥房地产开发有限公司变压器,淇沦食府,同兴粮油,高碑店市高碑店悦华食府,天宏塑料制品厂","powerOffReason":"【停电原因】由于０１号杆刀闸打火需紧急处理导致１１０ＫＶ马庄变电站１０ＫＶ海龙５１７线路全线停电 【变更送电】无 【发布渠道】通过９５５９８发布","powerOffId":"2019121113000095"},{"poweroffId":2019121113000053,"sgpoweroffId":null,"subsName":"","lineName":"10KV里渠517","pubTranName":"大兴庄道东变,","scope":"【影响街道/乡镇】义和庄乡 【高危重要客户】无 【影响客户】大兴庄","startTime":"2019-12-11 12:44:58","stopDate":"2019-12-11 16:30:00","orgNo":"1340626","typeCode":"电网故障停限电","poweroffArea":"【单台区停电】停大兴庄道东变","poweroffReason":"【停电原因】由于低压空开烧毁导致３５ＫＶ码头变电站１０ＫＶ里渠５１７线路大兴庄道东公变台区停电 【变更送电】因抢修进度加快原因，送电时间由２０：００变更为１６：３０ 【发布渠道】通过９５５９８发布","powerTime":"2019-12-11 15:39:09","powerComm":"恢复送电","subsNo":"","lineNo":"","tgNo":"","tgName":null,"infoStatus":"1","orgName":"国网涿州市供电公司","typeName":null,"infoStatusName":null,"dateDay":null,"orgNos":null,"nowTime":null,"countyName":null,"streetName":null,"villageName":null,"roadName":null,"communityName":null,"tranName":null,"sdLineName":null,"cityCode":"1340626","cityName":"国网涿州市供电公司","provinceCode":null,"stopTime":"2019-12-11 16:30:00","powerType":"全部","powerOffArea":"【单台区停电】停大兴庄道东变","powerOffReason":"【停电原因】由于低压空开烧毁导致３５ＫＶ码头变电站１０ＫＶ里渠５１７线路大兴庄道东公变台区停电 【变更送电】因抢修进度加快原因，送电时间由２０：００变更为１６：３０ 【发布渠道】通过９５５９８发布","powerOffId":"2019121113000053"},{"poweroffId":2019121113000052,"sgpoweroffId":null,"subsName":"","lineName":"10KV511城内线","pubTranName":"10kV511城内线油棉07025台区变压器,","scope":"【影响街道/乡镇】博野镇【高危重要客户】无【影响客户】煤建家属院、油棉厂家属院、老车站、五金家属院、金泽园","startTime":"2019-12-11 14:00:00","stopDate":"2019-12-11 16:00:00","orgNo":"1340608","typeCode":"其他临时停电","poweroffArea":"【分支停电】停10kV511城内线油棉07025台区变压器","poweroffReason":"【停电原因】由于电杆倾斜需紧急消缺导致１１０ＫＶ博野变电站城内５１１线路０４号杆０３号开关以下线路停电【变更送电】无【发布渠道】通过９５５９８发布","powerTime":"2019-12-11 15:56:29","powerComm":"已送电","subsNo":"","lineNo":"","tgNo":"","tgName":null,"infoStatus":"1","orgName":"国网博野县供电公司","typeName":null,"infoStatusName":null,"dateDay":null,"orgNos":null,"nowTime":null,"countyName":null,"streetName":null,"villageName":null,"roadName":null,"communityName":null,"tranName":null,"sdLineName":null,"cityCode":"1340608","cityName":"国网博野县供电公司","provinceCode":null,"stopTime":"2019-12-11 16:00:00","powerType":"全部","powerOffArea":"【分支停电】停10kV511城内线油棉07025台区变压器","powerOffReason":"【停电原因】由于电杆倾斜需紧急消缺导致１１０ＫＶ博野变电站城内５１１线路０４号杆０３号开关以下线路停电【变更送电】无【发布渠道】通过９５５９８发布","powerOffId":"2019121113000052"},{"poweroffId":2019121113000006,"sgpoweroffId":null,"subsName":"","lineName":"10kV512台头线","pubTranName":"北古山村公用照明2台区,潘村公用照明3台区,台头村公用照明6台区,台头公用照明9台区,南古山公用照明3台区,潘村公用照明10台区,潘村公用照明2台区,台头公用照明12台区,潘村公用照明1台区,台头公用照明16台区,南古山村公用照明1台区,台头村公用照明5台区,台头村公用照明2台区,北古山村公用照明1台区,潘村公用照明5台区,台头公用照明11台区,潘村公用照明8台区,台头村公用照明7台区,台头村公用照明4台区,台头公用照明14台区,台头公用照明18台区,台头公用照明17台区,南古山公用照明2台区,台头村公用照明3台区,潘村公用照明4台区,潘村公用照明11台区,南古山公用照明4台区,潘村公用照明12台区,潘村公用照明9台区,潘村公用照明6台区,台头公用照明13台区,台头公用照明10台区,台头村公用照明1台区,潘村公用照明7台区,客户投资_台头公用照明8台区,北古山公用照明5台区,北古山公用照明3台区,北古山公用照明4台区,","scope":"【影响街道/乡镇】砖路镇【高危重要客户】无【影响客户】台头村、潘村、南古山村、北古山村、岸下村","startTime":"2019-12-11 07:00:00","stopDate":"2019-12-11 08:00:00","orgNo":"1340610","typeCode":"其他临时停电","poweroffArea":"【全线路停电】停北古山村公用照明1台区,北古山公用照明4台区,北古山公用照明3台区,北古山村公用照明2台区,潘村公用照明3台区,台头村公用照明6台区,台头公用照明9台区,南古山公用照明3台区,潘村公用照明10台区,潘村公用照明2台区,台头公用照明12台区,潘村公用照明1台区,台头公用照明16台区,南古山村公用照明1台区,台头村公用照明5台区,台头村公用照明2台区,潘村公用照明12台区,潘村公用照明9台区,潘村公用照明6台区,台头公用照明13台区,台头公用照明10台区,台头村公用照明1台区,潘村公用照明7台区,客户投资_台头公用照明8台区,北古山公用照明5台区,潘村公用照明5台区,台头公用照明11台区,潘村公用照明8台区,台头村公用照明7台区,台头村公用照明4台区,台头公用照明14台区,台头公用照明18台区,台头公用照明17台区,南古山公用照明2台区,潘村公用照明14台区,台头村公用照明3台区,潘村公用照明4台区,潘村公用照明11台区,南古山公用照明4台区,潘村公用照明13台区","poweroffReason":"【停电原因】由于弓子线打火需停电进行紧急检修导致３５ＫＶ吴家庄变电站１０ＫＶ５１２台头线路全线停电 【变更送电】无 【发布渠道】９５５９８","powerTime":"2019-12-11 07:57:33","powerComm":"已送电","subsNo":"","lineNo":"","tgNo":"","tgName":null,"infoStatus":"1","orgName":"国网定州市供电公司","typeName":null,"infoStatusName":null,"dateDay":null,"orgNos":null,"nowTime":null,"countyName":null,"streetName":null,"villageName":null,"roadName":null,"communityName":null,"tranName":null,"sdLineName":null,"cityCode":"1340610","cityName":"国网定州市供电公司","provinceCode":null,"stopTime":"2019-12-11 08:00:00","powerType":"全部","powerOffArea":"【全线路停电】停北古山村公用照明1台区,北古山公用照明4台区,北古山公用照明3台区,北古山村公用照明2台区,潘村公用照明3台区,台头村公用照明6台区,台头公用照明9台区,南古山公用照明3台区,潘村公用照明10台区,潘村公用照明2台区,台头公用照明12台区,潘村公用照明1台区,台头公用照明16台区,南古山村公用照明1台区,台头村公用照明5台区,台头村公用照明2台区,潘村公用照明12台区,潘村公用照明9台区,潘村公用照明6台区,台头公用照明13台区,台头公用照明10台区,台头村公用照明1台区,潘村公用照明7台区,客户投资_台头公用照明8台区,北古山公用照明5台区,潘村公用照明5台区,台头公用照明11台区,潘村公用照明8台区,台头村公用照明7台区,台头村公用照明4台区,台头公用照明14台区,台头公用照明18台区,台头公用照明17台区,南古山公用照明2台区,潘村公用照明14台区,台头村公用照明3台区,潘村公用照明4台区,潘村公用照明11台区,南古山公用照明4台区,潘村公用照明13台区","powerOffReason":"【停电原因】由于弓子线打火需停电进行紧急检修导致３５ＫＶ吴家庄变电站１０ＫＶ５１２台头线路全线停电 【变更送电】无 【发布渠道】９５５９８","powerOffId":"2019121113000006"},{"poweroffId":2019121013000173,"sgpoweroffId":null,"subsName":"","lineName":"箱包城514","pubTranName":"阳光凯旋城,","scope":"【影响街道/乡镇】七一街 【高危重要客户】无 【影响客户】凯旋城小区、凯旋城三期、阳光８８８小区","startTime":"2019-12-10 19:16:26","stopDate":"2019-12-11 18:00:00","orgNo":"1340612","typeCode":"电网故障停限电","poweroffArea":"【单台区停电】停阳光凯旋城","poweroffReason":"【停电原因】由于凯旋城三期出站电缆烧毁导致１１０ＫＶ白沟变电站１０ＫＶ箱包城５１４线路阳光凯旋城公变台区停电 【变更送电】无 【发布渠道】通过９５５９８发布","powerTime":"2019-12-11 17:50:00","powerComm":"已送电","subsNo":"","lineNo":"","tgNo":"","tgName":null,"infoStatus":"1","orgName":"国网高碑店市供电公司","typeName":null,"infoStatusName":null,"dateDay":null,"orgNos":null,"nowTime":null,"countyName":null,"streetName":null,"villageName":null,"roadName":null,"communityName":null,"tranName":null,"sdLineName":null,"cityCode":"1340612","cityName":"国网高碑店市供电公司","provinceCode":null,"stopTime":"2019-12-11 18:00:00","powerType":"全部","powerOffArea":"【单台区停电】停阳光凯旋城","powerOffReason":"【停电原因】由于凯旋城三期出站电缆烧毁导致１１０ＫＶ白沟变电站１０ＫＶ箱包城５１４线路阳光凯旋城公变台区停电 【变更送电】无 【发布渠道】通过９５５９８发布","powerOffId":"2019121013000173"},{"poweroffId":2019121013000161,"sgpoweroffId":null,"subsName":"","lineName":"箱包城514","pubTranName":"家属楼公变,涞远村南,音响街3号公变,涞远村,音像街1号公变,分局公变,音像街2号公变,","scope":"【影响街道/乡镇】团结路、友谊路、音像街、七一街、银河街、紫荆路 【高危重要客户】无 【影响客户】尚水坊、瑞博幼儿园、刘国强、董振良、时帅军（董振良）、大都仕（韩立新）、盛大龙、涞远村、王玉强、魏建水、徐波、王美娟、保定白沟新城英杰学校、中国银行、王连生、华达电器、胜利海绵厂、白沟新城中心医院、国贸小区、世纪洗浴、李永旺、白沟新城中心医院、凯旋城小区(一期、二期、三期）、大都市小区、大红门商城、航天医院、阳光８８８小区","startTime":"2019-12-10 17:29:52","stopDate":"2019-12-10 19:00:00","orgNo":"1340612","typeCode":"电网故障停限电","poweroffArea":"【全线路停电】停0387442484-白沟地税局-专变-45278598-董振良,变压器-010,0387441537-保定白沟新城悦联市场服务有限公司-专变-212349250-高碑店市丰合元商贸有限公司变压器2,刘国强2,家属楼公变,变压器1600,航天医院,变压器315,高碑店市丰合元商贸有限公司,变压器3,隆基泰和实业有限公司凯旋城,变压器-009,涞远村南,变压器-008,变压器,变压器-007,音响街3号公变,阳光凯旋城,涞远村,0387443328-高碑店市华达电器销售有限公司-专变-45278641-高碑店市华达电器销售有限公司,阳光888小区 630,音像街1号公变,张中坡,分局公变,变压器1,白沟新城规划建设局(友谊路路灯)变压器,阳光凯旋城800,音像街2号公变,0387442266-王连生-专变-45278736-王连生,董振良,世纪洗浴,0588746260-保定白沟新城英杰学校-专变-125352422-变压器,0387441436-明珠小区-专变-45278590-李振学,阳光888小区,0387442875-花园小区-专变-45278732-贾坡,0387442888-王玉强-专变-45278733-张立,国际贸易中心1,0387442383-来远村北工地-专变-45278734-来远村北工地,胜利海绵厂,0387442064-盛大龙-专变-45278594-盛大龙","poweroffReason":"【停电原因】由于团结路变压器缺相导致１１０ＫＶ白沟变电站１０ＫＶ箱包城５１４线路全线停电 【变更送电】因抢修进度加快原因，送电时间由２０：００变更为１９：００ 【发布渠道】通过９５５９８发布","powerTime":"2019-12-10 18:45:59","powerComm":"已送电","subsNo":"","lineNo":"","tgNo":"","tgName":null,"infoStatus":"1","orgName":"国网高碑店市供电公司","typeName":null,"infoStatusName":null,"dateDay":null,"orgNos":null,"nowTime":null,"countyName":null,"streetName":null,"villageName":null,"roadName":null,"communityName":null,"tranName":null,"sdLineName":null,"cityCode":"1340612","cityName":"国网高碑店市供电公司","provinceCode":null,"stopTime":"2019-12-10 19:00:00","powerType":"全部","powerOffArea":"【全线路停电】停0387442484-白沟地税局-专变-45278598-董振良,变压器-010,0387441537-保定白沟新城悦联市场服务有限公司-专变-212349250-高碑店市丰合元商贸有限公司变压器2,刘国强2,家属楼公变,变压器1600,航天医院,变压器315,高碑店市丰合元商贸有限公司,变压器3,隆基泰和实业有限公司凯旋城,变压器-009,涞远村南,变压器-008,变压器,变压器-007,音响街3号公变,阳光凯旋城,涞远村,0387443328-高碑店市华达电器销售有限公司-专变-45278641-高碑店市华达电器销售有限公司,阳光888小区 630,音像街1号公变,张中坡,分局公变,变压器1,白沟新城规划建设局(友谊路路灯)变压器,阳光凯旋城800,音像街2号公变,0387442266-王连生-专变-45278736-王连生,董振良,世纪洗浴,0588746260-保定白沟新城英杰学校-专变-125352422-变压器,0387441436-明珠小区-专变-45278590-李振学,阳光888小区,0387442875-花园小区-专变-45278732-贾坡,0387442888-王玉强-专变-45278733-张立,国际贸易中心1,0387442383-来远村北工地-专变-45278734-来远村北工地,胜利海绵厂,0387442064-盛大龙-专变-45278594-盛大龙","powerOffReason":"【停电原因】由于团结路变压器缺相导致１１０ＫＶ白沟变电站１０ＫＶ箱包城５１４线路全线停电 【变更送电】因抢修进度加快原因，送电时间由２０：００变更为１９：００ 【发布渠道】通过９５５９８发布","powerOffId":"2019121013000161"},{"poweroffId":2019121013000127,"sgpoweroffId":null,"subsName":"","lineName":"北山南线518","pubTranName":"良村8#,","scope":"【影响街道/乡镇】桥头乡、易州镇、城管处、迎晖北大街【高危重要客户】无【影响客户】良村","startTime":"2019-12-10 15:35:57","stopDate":"2019-12-10 18:00:00","orgNo":"1340625","typeCode":"电网故障停限电","poweroffArea":"【单台区停电】停良村8#","poweroffReason":"【停电原因】由于低压线断导致１１０ＫＶ易县变电站北山南５１８线路良村８＃公变台区停电【变更送电】无【发布渠道】通过９５５９８发布","powerTime":"2019-12-10 17:26:12","powerComm":"已送电","subsNo":"","lineNo":"","tgNo":"","tgName":null,"infoStatus":"1","orgName":"国网易县供电公司","typeName":null,"infoStatusName":null,"dateDay":null,"orgNos":null,"nowTime":null,"countyName":null,"streetName":null,"villageName":null,"roadName":null,"communityName":null,"tranName":null,"sdLineName":null,"cityCode":"1340625","cityName":"国网易县供电公司","provinceCode":null,"stopTime":"2019-12-10 18:00:00","powerType":"全部","powerOffArea":"【单台区停电】停良村8#","powerOffReason":"【停电原因】由于低压线断导致１１０ＫＶ易县变电站北山南５１８线路良村８＃公变台区停电【变更送电】无【发布渠道】通过９５５９８发布","powerOffId":"2019121013000127"}],"pageModel":{"pageNow":336,"totalCount":10973,"totalPage":1098,"tableRows":0,"pageCount":10,"beginCount":3350},"isExperi":"1"}