{"message":"","today":"2020-06-15","seleList":[{"poweroffId":2019120913000073,"sgpoweroffId":null,"subsName":"","lineName":"贾东线511","pubTranName":"北贾村光伏配变,北贾村村北混合4号配变,北贾村村北混合5号配变,北贾村内北配变,南韩庄内中,南贾村内东北配变,南贾村内东南配变,南韩庄内东配变,南贾村南配变,北贾村村北混合3号配变,北贾村村北混合1号配变,北贾村村内配变,北贾村村北混合2号配变,北贾村内混合3号配变,北贾村内混合4号配变,北贾村村内2号配变,南贾村内东配变,","scope":"【影响街道/乡镇】贾村乡 【高危重要客户】无　　 【影响客户】北贾村、南韩庄、南贾村","startTime":"2019-12-09 13:26:31","stopDate":"2019-12-09 15:40:00","orgNo":"1340623","typeCode":"电网故障停限电","poweroffArea":"【全线路停电】停北贾村光伏配变,北贾村村北混合4号配变,北贾村村北混合5号配变,北贾村内北配变,南韩庄内中,南贾村内东北配变,南贾村内东南配变,南韩庄内东配变,南贾村南配变,北贾村村北混合3号配变,北贾村村北混合1号配变,北贾村村内配变,北贾村村北混合2号配变,北贾村内混合3号配变,北贾村内混合4号配变,北贾村村内2号配变,南贾村内东配变","poweroffReason":"【停电原因】由于Ｃ相接地导致３５ＫＶ贾村变电站贾东线５１１线路全线停电 【变更送电】因抢修进度加快原因，送电时间由２２：００变更为１５：４０ 【发布渠道】通过９５５９８发布","powerTime":"2019-12-09 15:09:43","powerComm":"已送电","subsNo":"","lineNo":"","tgNo":"","tgName":null,"infoStatus":"1","orgName":"国网望都县供电公司","typeName":null,"infoStatusName":null,"dateDay":null,"orgNos":null,"nowTime":null,"countyName":null,"streetName":null,"villageName":null,"roadName":null,"communityName":null,"tranName":null,"sdLineName":null,"cityCode":"1340623","cityName":"国网望都县供电公司","provinceCode":null,"stopTime":"2019-12-09 15:40:00","powerType":"全部","powerOffArea":"【全线路停电】停北贾村光伏配变,北贾村村北混合4号配变,北贾村村北混合5号配变,北贾村内北配变,南韩庄内中,南贾村内东北配变,南贾村内东南配变,南韩庄内东配变,南贾村南配变,北贾村村北混合3号配变,北贾村村北混合1号配变,北贾村村内配变,北贾村村北混合2号配变,北贾村内混合3号配变,北贾村内混合4号配变,北贾村村内2号配变,南贾村内东配变","powerOffReason":"【停电原因】由于Ｃ相接地导致３５ＫＶ贾村变电站贾东线５１１线路全线停电 【变更送电】因抢修进度加快原因，送电时间由２２：００变更为１５：４０ 【发布渠道】通过９５５９８发布","powerOffId":"2019120913000073"},{"poweroffId":2019120913000040,"sgpoweroffId":null,"subsName":"","lineName":"市政520","pubTranName":"北大厅公变,","scope":"【影响街道/乡镇】白沟镇 【高危重要客户】无 【影响客户】北大厅","startTime":"2019-12-09 10:16:55","stopDate":"2019-12-09 14:00:00","orgNo":"1340612","typeCode":"电网故障停限电","poweroffArea":"【单台区停电】停北大厅公变","poweroffReason":"【停电原因】由于低压线路故障导致１１０ＫＶ白沟变电站１０ＫＶ市政５２０线路北大厅公变台区停电 【变更送电】因抢修进度加快原因，送电时间由１８：００变更为１４:００ 【发布渠道】通过９５５９８发布","powerTime":"2019-12-09 13:19:05","powerComm":"已送电","subsNo":"","lineNo":"","tgNo":"","tgName":null,"infoStatus":"1","orgName":"国网高碑店市供电公司","typeName":null,"infoStatusName":null,"dateDay":null,"orgNos":null,"nowTime":null,"countyName":null,"streetName":null,"villageName":null,"roadName":null,"communityName":null,"tranName":null,"sdLineName":null,"cityCode":"1340612","cityName":"国网高碑店市供电公司","provinceCode":null,"stopTime":"2019-12-09 14:00:00","powerType":"全部","powerOffArea":"【单台区停电】停北大厅公变","powerOffReason":"【停电原因】由于低压线路故障导致１１０ＫＶ白沟变电站１０ＫＶ市政５２０线路北大厅公变台区停电 【变更送电】因抢修进度加快原因，送电时间由１８：００变更为１４:００ 【发布渠道】通过９５５９８发布","powerOffId":"2019120913000040"},{"poweroffId":2019120913000023,"sgpoweroffId":null,"subsName":"","lineName":"10kV514大柳树线","pubTranName":"大柳树综合1台区变压器,荣营综合1台区变压器,荣营农排2台区变压器【纯农排变】,大柳树农排7台区变压器【纯农排变】,荣营农排3台区变压器【纯农排变】,大柳树综合5台区变压器,荣营综合3台区变压器,大百尺农排18变压器【纯农排变】,大柳树综合2台区变压器,北界河综合1台区变压器,大柳树农排4台区变压器【纯农排变】,大柳树农排6台区变压器【纯农排变】,荣营综合7台区变压器,大百尺农排20变压器【纯农排变】,荣营综合8台区变压器,北界河综合5 变压器,高蠡公路2#路灯,荣营农排8台区变压器【纯农排变】,北界河综合6台区变压器,大百尺农排4台区变压器【纯农排变】,荣营农排七【纯农排变】,大百尺农排23台区变压器【纯农排变】,北界河农排8台区变压器【纯农排变】,荣营农排4台区变压器【纯农排变】,荣营农排5台区变压器【纯农排变】,大柳树综合4台区变压器,大百尺综合11台区,荣营综合6台区变压器,荣营综合2台区变压器,北界河综合7台区变压器,北界河综合3台区变压器,荣营综合5台区变压器,北界河综合4台区变压器,荣营综合4台区变压器,大柳树农排5台区【纯农排变】,荣营农排9台区变压器【纯农排变】,大柳树农排1台区变压器【纯农排变】,大百尺农排3台区变压器【纯农排变】,大百尺农排19台区变压器【纯农排变】,大百尺农排2台区变压器【纯农排变】,高蠡公路3#路灯,北界河综合2台区变压器,大柳树综合3台区变压器,","scope":"【影响街道/乡镇】大百尺镇【高危重要客户】无【影响客户】南许村、大柳树村、荣家营村（荣营）、大百尺村、北界河村、工业区","startTime":"2019-12-09 09:17:42","stopDate":"2019-12-09 16:30:00","orgNo":"1340616","typeCode":"电网故障停限电","poweroffArea":"【全线路停电】停北界河综合5 变压器,北界河综合6台区变压器,南许砖厂,荣营农排1变压器【纯农排变】,驾校,王平面粉厂,北界村村南浇地,荣营农排十【纯农排变】,蠡县盛强毛纺有限公司变压器,蠡县佳康皮毛皮革制品有限公司,荣营综合5台区变压器,大百尺农排19台区变压器【纯农排变】,东方洗毛厂,蠡县曙光羊毛洗涤制品厂变压器,荣营农排3台区变压器【纯农排变】,大柳树农排7台区变压器【纯农排变】,大百尺农排2台区变压器【纯农排变】,大柳树农排2台区变压器【纯农排变】,北界河综合2台区变压器,大百尺农排17变压器【纯农排变】,东方羊毛加工厂,高蠡公路2#路灯,荣营农排5台区变压器【纯农排变】,荣营综合8台区变压器,荣营农排6台区【纯农排变】,南许四片浇地,南许砖厂西浇地,荣营综合3台区变压器,大百尺农排23台区变压器【纯农排变】,北界河综合1台区变压器,大柳树综合3台区变压器,西面粉厂,加油站,大柳树综合5台区变压器,北界村边南浇地,变压器,大柳树毛纺厂,大百尺农排5台区变压器【纯农排变】,荣营农排2台区变压器【纯农排变】,荣营农排4台区变压器【纯农排变】,高蠡公路3#路灯,大柳树农排5台区【纯农排变】,荣营综合1台区变压器,荣营综合2台区变压器,蠡县瑞普华皮毛皮革有限公司变压器,荣营农排8台区变压器【纯农排变】,北界河综合7台区变压器,北界河农排8台区变压器【纯农排变】,大柳树综合2台区变压器,大柳树农排1台区变压器【纯农排变】,北界河综合4台区变压器,北界村边西浇地,大柳树农排3台区变压器【纯农排变】,北界村西浇地,荣营农排9台区变压器【纯农排变】,大柳树农排4台区变压器【纯农排变】,大百尺农排3台区变压器【纯农排变】,荣营农排七【纯农排变】,蠡县宇峰新型建材厂变压器,中国移动通信集团河北有限公司蠡县分公司,大柳树农排6台区变压器【纯农排变】,北界河综合3台区变压器,北界东南浇地,北界村东浇地,大柳树矿棉厂,加油站浇地,蠡县南许羊毛加工厂变压器315,南许南浇地,荣营综合7台区变压器,大百尺农排4台区变压器【纯农排变】,大柳树综合1台区变压器,南许中兴,大百尺农排18变压器【纯农排变】,蠡县南许羊毛加工厂变压器250,大百尺综合11台区,蠡县帅浩加油站,向阳,大柳树综合4台区变压器,荣营综合4台区变压器,荣营综合6台区变压器,大百尺农排20变压器【纯农排变】,大百尺农排1台区变压器【纯农排变】","poweroffReason":"【停电原因】由于站内开关掉闸导致３５ＫＶ百尺变电站１０ＫＶ大柳树５１４线路全线停电【变更送电】因抢修进度加快原因，送电时间由２３:５０变更为１６:３０【发布渠道】通过９５５９８发布","powerTime":"2019-12-09 16:03:00","powerComm":"已送电","subsNo":"","lineNo":"","tgNo":"","tgName":null,"infoStatus":"1","orgName":"国网蠡县供电公司","typeName":null,"infoStatusName":null,"dateDay":null,"orgNos":null,"nowTime":null,"countyName":null,"streetName":null,"villageName":null,"roadName":null,"communityName":null,"tranName":null,"sdLineName":null,"cityCode":"1340616","cityName":"国网蠡县供电公司","provinceCode":null,"stopTime":"2019-12-09 16:30:00","powerType":"全部","powerOffArea":"【全线路停电】停北界河综合5 变压器,北界河综合6台区变压器,南许砖厂,荣营农排1变压器【纯农排变】,驾校,王平面粉厂,北界村村南浇地,荣营农排十【纯农排变】,蠡县盛强毛纺有限公司变压器,蠡县佳康皮毛皮革制品有限公司,荣营综合5台区变压器,大百尺农排19台区变压器【纯农排变】,东方洗毛厂,蠡县曙光羊毛洗涤制品厂变压器,荣营农排3台区变压器【纯农排变】,大柳树农排7台区变压器【纯农排变】,大百尺农排2台区变压器【纯农排变】,大柳树农排2台区变压器【纯农排变】,北界河综合2台区变压器,大百尺农排17变压器【纯农排变】,东方羊毛加工厂,高蠡公路2#路灯,荣营农排5台区变压器【纯农排变】,荣营综合8台区变压器,荣营农排6台区【纯农排变】,南许四片浇地,南许砖厂西浇地,荣营综合3台区变压器,大百尺农排23台区变压器【纯农排变】,北界河综合1台区变压器,大柳树综合3台区变压器,西面粉厂,加油站,大柳树综合5台区变压器,北界村边南浇地,变压器,大柳树毛纺厂,大百尺农排5台区变压器【纯农排变】,荣营农排2台区变压器【纯农排变】,荣营农排4台区变压器【纯农排变】,高蠡公路3#路灯,大柳树农排5台区【纯农排变】,荣营综合1台区变压器,荣营综合2台区变压器,蠡县瑞普华皮毛皮革有限公司变压器,荣营农排8台区变压器【纯农排变】,北界河综合7台区变压器,北界河农排8台区变压器【纯农排变】,大柳树综合2台区变压器,大柳树农排1台区变压器【纯农排变】,北界河综合4台区变压器,北界村边西浇地,大柳树农排3台区变压器【纯农排变】,北界村西浇地,荣营农排9台区变压器【纯农排变】,大柳树农排4台区变压器【纯农排变】,大百尺农排3台区变压器【纯农排变】,荣营农排七【纯农排变】,蠡县宇峰新型建材厂变压器,中国移动通信集团河北有限公司蠡县分公司,大柳树农排6台区变压器【纯农排变】,北界河综合3台区变压器,北界东南浇地,北界村东浇地,大柳树矿棉厂,加油站浇地,蠡县南许羊毛加工厂变压器315,南许南浇地,荣营综合7台区变压器,大百尺农排4台区变压器【纯农排变】,大柳树综合1台区变压器,南许中兴,大百尺农排18变压器【纯农排变】,蠡县南许羊毛加工厂变压器250,大百尺综合11台区,蠡县帅浩加油站,向阳,大柳树综合4台区变压器,荣营综合4台区变压器,荣营综合6台区变压器,大百尺农排20变压器【纯农排变】,大百尺农排1台区变压器【纯农排变】","powerOffReason":"【停电原因】由于站内开关掉闸导致３５ＫＶ百尺变电站１０ＫＶ大柳树５１４线路全线停电【变更送电】因抢修进度加快原因，送电时间由２３:５０变更为１６:３０【发布渠道】通过９５５９８发布","powerOffId":"2019120913000023"},{"poweroffId":2019120913000008,"sgpoweroffId":null,"subsName":"","lineName":"10KV苟各庄513","pubTranName":"松树口二号台区,保定市圣豪酒店有限公司涞水分公司新增160KVA变压器,刘家河村1,圣迪宾馆,刘家河新村二号台区间隔配电变压器,百里峡景区200KVA专变,配变,路和体育器材销售500KVA专变,松口村,苟各庄新村台区,0686411204-涞水野三坡美丽乡村旅游开发有限公司-专变-226822089-涞水野三坡美丽乡村旅游开发有限公司新装变压器一台400KVA,刘家河小队后山台区,松树口后山,刘家河新村间隔配电变压器,0664730640-保定伟佳野三坡索道旅游有限公司-专变-201032832-保定伟佳野三坡索道旅游有限公司200KVA,松树口隧道1#开闭所200KVA专变,上庄四队2#台区,刘家河小队2,伟佳索道,松口新村,上庄四队3,品道酒店400KVA专变,王淑贤,松树口三号台区,三坡污水处理厂100KVA专变,胜迪宾馆,迎春灵芝山庄,0469100219-金汇宾馆-专变-46719367-金汇宾馆,配变001#,涞水县贵和酒店有限公司630KVA专变,刘家河小队1,松树口铁路台区,三坡工商局,百里峡索道,百里峡水工程,北京理工大学,百里峡水工程1#,华正旅游集团,松树口隧道1#开闭所630KVA专变,刘家河村四号台区,保定伟佳野三坡索道旅游有限公司630KVA专变,河北品道创意休闲健身新增500KVA变压器,","scope":"【影响街道/乡镇】三坡镇 【高危重要客户】无 【影响客户】松树口村、松树口新村、刘家河村、上庄村","startTime":"2019-12-09 06:16:59","stopDate":"2019-12-09 10:00:00","orgNo":"1340614","typeCode":"电网故障停限电","poweroffArea":"【全线路停电】停松树口二号台区,保定市圣豪酒店有限公司涞水分公司新增160KVA变压器,刘家河村1,圣迪宾馆,刘家河新村二号台区间隔配电变压器,百里峡景区200KVA专变,配变,路和体育器材销售500KVA专变,松口村,苟各庄新村台区,0686411204-涞水野三坡美丽乡村旅游开发有限公司-专变-226822089-涞水野三坡美丽乡村旅游开发有限公司新装变压器一台400KVA,刘家河小队后山台区,松树口后山,刘家河新村间隔配电变压器,0664730640-保定伟佳野三坡索道旅游有限公司-专变-201032832-保定伟佳野三坡索道旅游有限公司200KVA,松树口隧道1#开闭所200KVA专变,上庄四队2#台区,刘家河小队2,伟佳索道,松口新村,河北品道创意休闲健身新增500KVA变压器,迎春灵芝山庄,0469100219-金汇宾馆-专变-46719367-金汇宾馆,配变001#,涞水县贵和酒店有限公司630KVA专变,刘家河小队1,松树口铁路台区,松树口隧道1#开闭所630KVA专变,刘家河村四号台区,保定伟佳野三坡索道旅游有限公司630KVA专变,上庄四队3,品道酒店400KVA专变,王淑贤,松树口三号台区,三坡污水处理厂100KVA专变,胜迪宾馆,三坡工商局,百里峡索道,百里峡水工程,北京理工大学,百里峡水工程1#,华正旅游集团","poweroffReason":"【停电原因】由于Ｃ相接地导致３５ＫＶ三坡变电站１０ＫＶ苟各庄５１３线路全线停电 【变更送电】因抢修进度加快原因，送电时间由１１：００变更为１０：００ 【发布渠道】通过９５５９８发布","powerTime":"2019-12-09 09:13:50","powerComm":"已送电","subsNo":"","lineNo":"","tgNo":"","tgName":null,"infoStatus":"1","orgName":"国网涞水县供电公司","typeName":null,"infoStatusName":null,"dateDay":null,"orgNos":null,"nowTime":null,"countyName":null,"streetName":null,"villageName":null,"roadName":null,"communityName":null,"tranName":null,"sdLineName":null,"cityCode":"1340614","cityName":"国网涞水县供电公司","provinceCode":null,"stopTime":"2019-12-09 10:00:00","powerType":"全部","powerOffArea":"【全线路停电】停松树口二号台区,保定市圣豪酒店有限公司涞水分公司新增160KVA变压器,刘家河村1,圣迪宾馆,刘家河新村二号台区间隔配电变压器,百里峡景区200KVA专变,配变,路和体育器材销售500KVA专变,松口村,苟各庄新村台区,0686411204-涞水野三坡美丽乡村旅游开发有限公司-专变-226822089-涞水野三坡美丽乡村旅游开发有限公司新装变压器一台400KVA,刘家河小队后山台区,松树口后山,刘家河新村间隔配电变压器,0664730640-保定伟佳野三坡索道旅游有限公司-专变-201032832-保定伟佳野三坡索道旅游有限公司200KVA,松树口隧道1#开闭所200KVA专变,上庄四队2#台区,刘家河小队2,伟佳索道,松口新村,河北品道创意休闲健身新增500KVA变压器,迎春灵芝山庄,0469100219-金汇宾馆-专变-46719367-金汇宾馆,配变001#,涞水县贵和酒店有限公司630KVA专变,刘家河小队1,松树口铁路台区,松树口隧道1#开闭所630KVA专变,刘家河村四号台区,保定伟佳野三坡索道旅游有限公司630KVA专变,上庄四队3,品道酒店400KVA专变,王淑贤,松树口三号台区,三坡污水处理厂100KVA专变,胜迪宾馆,三坡工商局,百里峡索道,百里峡水工程,北京理工大学,百里峡水工程1#,华正旅游集团","powerOffReason":"【停电原因】由于Ｃ相接地导致３５ＫＶ三坡变电站１０ＫＶ苟各庄５１３线路全线停电 【变更送电】因抢修进度加快原因，送电时间由１１：００变更为１０：００ 【发布渠道】通过９５５９８发布","powerOffId":"2019120913000008"},{"poweroffId":2019120913000003,"sgpoweroffId":null,"subsName":"","lineName":"工业线517","pubTranName":"小店光6,四街桥头公用2,繁星街南延2号箱变配电变压器,嘉会庄光2,小店路东光3,韩庄光2,四街桥头公用【2018年重过载】,看守所公用,繁星街南延1号箱变配电变压器,汇丰公用2【2018年节能变】,韩庄光4,","scope":"【影响街道/乡镇】定兴镇、繁兴街 【高危重要客户】无 【影响客户】华新建材城、贯鸿房地产、华兴、金地、福利厂、海龙冷冻食品、恒河机械、鑫超盛建筑公司、北京世代小区、金凯利包装厂、盛德机械部件有限公司、河北森富达木包装制品厂、华艺制帽、金祥德制帽有限公司、马大姐食品、定兴县教育局、定兴县鑫明华印刷厂、北控环境服务有限公司、朗坤水处理技术服务有限公司、海龙冷冻食品、水榭康都小区、星宇物业、合盛制帽、第四实验小学、通利达汽车贸易有限公司、韩庄、大沟、小店村、东风南方汽车销售服务有限公司、康源洗衣服务有限公司、金鹏帽业有限公司、看守所、武警中队","startTime":"2019-12-09 05:01:54","stopDate":"2019-12-09 12:00:00","orgNo":"1340609","typeCode":"电网故障停限电","poweroffArea":"【分支停电】停康源洗衣-200,0011676761定兴县金鹏帽业有限公司,海龙冷冻食品,嘉会庄光2,金凯利包装厂-400,0546834640-河北金鹏帽业有限公司-专变-47916142-金鹏帽业2,华艺制帽-250,小店路东光3,0636254730-*河北马大姐食品有限公司-专变-148240755-马大姐-1000,河北马大姐食品有限公司200,盛德机械部件有限公司,0552335810-*定兴县朗坤水处理技术服务有限公司-专变-50553881-污水处理800-2,0011676704*定兴自来水公司,合盛制帽厂250变压器,水榭康都-315,韩庄光2,0469093197-定兴县c-专变-46718544-*定兴县华新建筑材料厂,看守所公用,马大姐2号变—1000,河北森富达木包装制品厂,汇丰公用2【2018年节能变】,韩庄光4,贯鸿地产315-2,0469288621-定兴金祥德制帽有限公司-专变-183744134-金祥德-200,繁星街南延1号箱变配电变压器,1000,0681719547-定兴县教育局-专变-220701795-第四小学-630,贯鸿地产315-1,小店光6,大沟村光3,定兴县通利达汽车贸易有限公司,四街桥头公用2,0692104840-定兴县北控环境服务有限公司-专变-235672589-北控环境-100","poweroffReason":"【停电原因】由于金鹏制帽避雷器击穿导致３５ＫＶ城关变电站工业线５１７线路污水处理厂分支３号杆以下线路停电 【变更送电】因故障未排除原因，送电时间由０８：００变更为１２：００ 【发布渠道】通过９５５９８发布","powerTime":"2019-12-09 11:21:24","powerComm":"已送电","subsNo":"","lineNo":"","tgNo":"","tgName":null,"infoStatus":"1","orgName":"国网定兴县供电公司","typeName":null,"infoStatusName":null,"dateDay":null,"orgNos":null,"nowTime":null,"countyName":null,"streetName":null,"villageName":null,"roadName":null,"communityName":null,"tranName":null,"sdLineName":null,"cityCode":"1340609","cityName":"国网定兴县供电公司","provinceCode":null,"stopTime":"2019-12-09 12:00:00","powerType":"全部","powerOffArea":"【分支停电】停康源洗衣-200,0011676761定兴县金鹏帽业有限公司,海龙冷冻食品,嘉会庄光2,金凯利包装厂-400,0546834640-河北金鹏帽业有限公司-专变-47916142-金鹏帽业2,华艺制帽-250,小店路东光3,0636254730-*河北马大姐食品有限公司-专变-148240755-马大姐-1000,河北马大姐食品有限公司200,盛德机械部件有限公司,0552335810-*定兴县朗坤水处理技术服务有限公司-专变-50553881-污水处理800-2,0011676704*定兴自来水公司,合盛制帽厂250变压器,水榭康都-315,韩庄光2,0469093197-定兴县c-专变-46718544-*定兴县华新建筑材料厂,看守所公用,马大姐2号变—1000,河北森富达木包装制品厂,汇丰公用2【2018年节能变】,韩庄光4,贯鸿地产315-2,0469288621-定兴金祥德制帽有限公司-专变-183744134-金祥德-200,繁星街南延1号箱变配电变压器,1000,0681719547-定兴县教育局-专变-220701795-第四小学-630,贯鸿地产315-1,小店光6,大沟村光3,定兴县通利达汽车贸易有限公司,四街桥头公用2,0692104840-定兴县北控环境服务有限公司-专变-235672589-北控环境-100","powerOffReason":"【停电原因】由于金鹏制帽避雷器击穿导致３５ＫＶ城关变电站工业线５１７线路污水处理厂分支３号杆以下线路停电 【变更送电】因故障未排除原因，送电时间由０８：００变更为１２：００ 【发布渠道】通过９５５９８发布","powerOffId":"2019120913000003"},{"poweroffId":2019120821000034,"sgpoweroffId":null,"subsName":"","lineName":"10kV崔闸站555线路","pubTranName":"H0031,10kVY0104.Y0105配电室Y0104配电变压器,B1090柱上变压器,B1108柱上变压器,C632柱上变压器,10kVB1511箱式变电站B1511配电变压器,10kVB1479配电室B1479配电变压器,10kVY0104.Y0105配电室Y0105配电变压器,10kVB1316.B1317配电室B1317配电变压器,10kVY0106.Y0107配电室Y0107配电变压器,10kVY0106.Y0107配电室Y0106配电变压器,10kVB1478配电室B1478配电变压器,10kVB1320配电室B1320配电变压器,10kVB1253配电室B1253配电变压器,10kVB1316.B1317配电室B1316配电变压器,10kVB1480配电室B1480配电变压器,","scope":"【影响街道/乡镇】竞秀区，盛兴路，乐凯大街，七一西路，光明路 【高危重要客户】无 【影响客户】 河北省保定市新市区光明路乒乓球，乐凯北大街586#，电厂二区崔闸小区，七中拆迁楼，保定市北市区七一西路999号，保定市新市区化工宿舍，热电厂三区，丽景溪城，合成橡胶厂宿舍，热电小区，崔闸村","startTime":"2019-12-08 04:34:09","stopDate":"2019-12-08 06:30:09","orgNo":"13406","typeCode":"电网故障停限电","poweroffArea":"【全线路停电】停H0031,B1090柱上变压器,B1108柱上变压器,C632柱上变压器,0706765382-保定博鑫房地产开发有限公司-3-315KVA-用户变压器,0356227120-保定乐凯包装材料有限公司-2#专变,0356227120-保定乐凯包装材料有限公司-1#专变,0356231527-保定汇鑫毛纺织物厂-专变,10kVB1511箱式变电站B1511配电变压器,10kVB1479配电室B1479配电变压器,0356231501-水碾头-专变,0356275624-保定市容大房地产集团有限公司-专变,0356345581-保定康乐宫服务有限公司-1-箱式变-变压器-1,10kVY0106.Y0107配电室Y0106配电变压器,0581084521-河北娜莎袜业有限公司-专变,0356231514-西城机械厂-专变,0356274487-保定服装衬布厂-1-配电室-变压器-1,0554675020-保定市新市区颉庄乡崔闸村村民委员会-专变,0356345855-保定市路灯管理处-专变,10kVB1478配电室B1478配电变压器,0601280678-保定市赢佳房地产开发有限公司-3#专变,0601280678-保定市赢佳房地产开发有限公司-1#专变,0356227801-新市区崔闸村-专变,0601280678-保定市赢佳房地产开发有限公司-2#专变,10kVB1320配电室B1320配电变压器,0356213895-崔闸-专变,0356227667-新市区医院宿舍-专变,10kVB1253配电室B1253配电变压器,10kVB1316.B1317配电室B1316配电变压器,0370450939-保定市坚毅袜业有限公司-专变,0356225485-保定长城合成橡胶有限公司-专变,0706765382-保定博鑫房地产开发有限公司-1-315KVA-用户变压器,10kVB1480配电室B1480配电变压器,0594113823-保定市卓正物业服务有限公司-2#专变,0706765382-保定博鑫房地产开发有限公司-2-315KVA-用户变压器,0356220608-南奇信用社-1-配电室-变压器-1,10kVY0104.Y0105配电室Y0104配电变压器,0662375892-保定市市区农村信用合作联社-专变-197576586-变压器,10kVY0104.Y0105配电室Y0105配电变压器,10kVB1316.B1317配电室B1317配电变压器,10kVY0106.Y0107配电室Y0107配电变压器","poweroffReason":"【停电原因】由于分支开关短路导致１０ＫＶ崔闸变电站５５５线路全线停电【变更送电】因抢修进度加快，原定１０:００送电现计划０６:３０送电。【发布渠道】通过９５５９８发布","powerTime":"2019-12-08 06:09:13","powerComm":"已送电","subsNo":"","lineNo":"","tgNo":"","tgName":null,"infoStatus":"1","orgName":"保定供电公司","typeName":null,"infoStatusName":null,"dateDay":null,"orgNos":null,"nowTime":null,"countyName":null,"streetName":null,"villageName":null,"roadName":null,"communityName":null,"tranName":null,"sdLineName":null,"cityCode":"13406","cityName":"保定供电公司","provinceCode":null,"stopTime":"2019-12-08 06:30:09","powerType":"全部","powerOffArea":"【全线路停电】停H0031,B1090柱上变压器,B1108柱上变压器,C632柱上变压器,0706765382-保定博鑫房地产开发有限公司-3-315KVA-用户变压器,0356227120-保定乐凯包装材料有限公司-2#专变,0356227120-保定乐凯包装材料有限公司-1#专变,0356231527-保定汇鑫毛纺织物厂-专变,10kVB1511箱式变电站B1511配电变压器,10kVB1479配电室B1479配电变压器,0356231501-水碾头-专变,0356275624-保定市容大房地产集团有限公司-专变,0356345581-保定康乐宫服务有限公司-1-箱式变-变压器-1,10kVY0106.Y0107配电室Y0106配电变压器,0581084521-河北娜莎袜业有限公司-专变,0356231514-西城机械厂-专变,0356274487-保定服装衬布厂-1-配电室-变压器-1,0554675020-保定市新市区颉庄乡崔闸村村民委员会-专变,0356345855-保定市路灯管理处-专变,10kVB1478配电室B1478配电变压器,0601280678-保定市赢佳房地产开发有限公司-3#专变,0601280678-保定市赢佳房地产开发有限公司-1#专变,0356227801-新市区崔闸村-专变,0601280678-保定市赢佳房地产开发有限公司-2#专变,10kVB1320配电室B1320配电变压器,0356213895-崔闸-专变,0356227667-新市区医院宿舍-专变,10kVB1253配电室B1253配电变压器,10kVB1316.B1317配电室B1316配电变压器,0370450939-保定市坚毅袜业有限公司-专变,0356225485-保定长城合成橡胶有限公司-专变,0706765382-保定博鑫房地产开发有限公司-1-315KVA-用户变压器,10kVB1480配电室B1480配电变压器,0594113823-保定市卓正物业服务有限公司-2#专变,0706765382-保定博鑫房地产开发有限公司-2-315KVA-用户变压器,0356220608-南奇信用社-1-配电室-变压器-1,10kVY0104.Y0105配电室Y0104配电变压器,0662375892-保定市市区农村信用合作联社-专变-197576586-变压器,10kVY0104.Y0105配电室Y0105配电变压器,10kVB1316.B1317配电室B1317配电变压器,10kVY0106.Y0107配电室Y0107配电变压器","powerOffReason":"【停电原因】由于分支开关短路导致１０ＫＶ崔闸变电站５５５线路全线停电【变更送电】因抢修进度加快，原定１０:００送电现计划０６:３０送电。【发布渠道】通过９５５９８发布","powerOffId":"2019120821000034"},{"poweroffId":2019120813000126,"sgpoweroffId":null,"subsName":"","lineName":"10kV521辛庄线","pubTranName":"辛庄学校-23003730|23003730,","scope":"【影响街道/乡镇】蒲上乡【高危重要客户】无【影响客户】辛庄村","startTime":"2019-12-08 22:54:17","stopDate":"2019-12-09 16:00:00","orgNo":"1340621","typeCode":"电网故障停限电","poweroffArea":"【单台区停电】停辛庄学校-23003730|23003730","poweroffReason":"【停电原因】由于开关烧毁导致３５ＫＶ腰山变电站１０ＫＶ５２１辛庄线路辛庄３７３０公变台区停电【变更送电】因抢修进度加快原因，送电时间由１７：００变更为１６：００【发布渠道】通过９５５９８发布","powerTime":"2019-12-09 15:25:08","powerComm":"已送电","subsNo":"","lineNo":"","tgNo":"","tgName":null,"infoStatus":"1","orgName":"国网顺平县电力局","typeName":null,"infoStatusName":null,"dateDay":null,"orgNos":null,"nowTime":null,"countyName":null,"streetName":null,"villageName":null,"roadName":null,"communityName":null,"tranName":null,"sdLineName":null,"cityCode":"1340621","cityName":"国网顺平县电力局","provinceCode":null,"stopTime":"2019-12-09 16:00:00","powerType":"全部","powerOffArea":"【单台区停电】停辛庄学校-23003730|23003730","powerOffReason":"【停电原因】由于开关烧毁导致３５ＫＶ腰山变电站１０ＫＶ５２１辛庄线路辛庄３７３０公变台区停电【变更送电】因抢修进度加快原因，送电时间由１７：００变更为１６：００【发布渠道】通过９５５９８发布","powerOffId":"2019120813000126"},{"poweroffId":2019120813000122,"sgpoweroffId":null,"subsName":"","lineName":"10kV521辛庄线","pubTranName":"辛庄新增综合10号2852,辛庄村北-23000680|23000680,东于庄综合3号2429,马家庄-23000230|23000230,北安全新增综合3号1910,南腰山内-23002660|23002660,西于家庄综合3号2425,北吴村西-23000100|23000100,西于家庄村东新增综合,辛庄新增综合12号1909,东于庄-23000920|23000920,北吴村综合6号7867,南腰山综合6号0415,北安全-23000270|23000270,山东头新增综合4号2407,山东头综合3号9975,南腰山综合5号2426,腰山中国移动,西于庄-23000130,南腰山综合7号6001,北安全综合2号9888,东于村北-23000240|23000240,南吴村综合4号2921,西于家庄综合2号4020,马家庄村东新增综合,山东头-23000140|23000140,南安全综合4号2920,山东头综合2号,辛庄新增综合9号2419,511西于家庄综合4号6860,何家营综合3号0413,辛庄综合8号0409,东于家庄综合4号8516,马家庄综合2号,南吴村综合3号0831,南腰山新村-23002300|23002300,南安全-23000210|23000210,南腰山西-23002650|23002650,辛庄综合7号2427,南安全-23003980|23003980,辛庄村西-23000050|23000050,何家营-23000020|23000020,南安全综合3号2431,南安全新增综合5号1903,南吴村南-23000150|23000150,","scope":"【影响街道/乡镇】蒲上乡、腰山镇【高危重要客户】无【影响客户】何家营、辛庄、北吴村、西于家庄、南吴村、南安全、马家庄、东于家庄、北安全、山东头、南腰山、顺平县华瑞采石厂、河北保沧大型石材有限责任公司","startTime":"2019-12-08 22:21:51","stopDate":"2019-12-08 23:30:00","orgNo":"1340621","typeCode":"电网故障停限电","poweroffArea":"【全线路停电】停南腰山综合6号0415,北安全-23000270|23000270,南安全新增综合5号1903,辛庄新增综合10号2852,东于庄综合3号2429,马家庄-23000230|23000230,辛庄综合8号0409,腰山中国移动,北安全新增综合3号1910,南腰山内-23002660|23002660,西于家庄综合3号2425,北吴村西-23000100|23000100,西于家庄村东新增综合,辛庄新增综合12号1909,东于庄-23000920|23000920,北吴村综合6号7867,山东头新增综合4号2407,山东头综合3号9975,南腰山综合5号2426,辛庄村北-23000680|23000680,西于庄-23000130,南腰山综合7号6001,北安全综合2号9888,东于村北-23000240|23000240,南安全土地整改新增农业2号（TD）2436【纯农排变】,西于家庄综合2号4020,马家庄村东新增综合,山东头-23000140|23000140,南安全综合4号2920,山东头综合2号,辛庄新增综合9号2419,腰山一中,王氏庄园,南吴村土地整改新增农业1号（TD）4382【纯农排变】,南安全土地整改新增农业1号（TD）4383【纯农排变】,顺平县腰山镇第一初级中学,北安全土地整改新增农业2号（TD）2438【纯农排变】,东于家庄综合4号8516,南吴村南-23000150|23000150,南腰山新村-23002300|23002300,南安全-23000210|23000210,南腰山西-23002650|23002650,北安全土地整改新增农业1号（TD）2437【纯农排变】,辛庄综合7号2427,南安全-23003980|23003980,辛庄村西-23000050|23000050,何家营-23000020|23000020,何家营南厂,南安全综合3号2431,南吴村综合4号2921,511西于家庄综合4号6860,何家营综合3号0413,马家庄综合2号,南吴村综合3号0831","poweroffReason":"【停电原因】由于辛庄学校３７３０公变台区JP柜烧毁导致３５ＫＶ腰山变电站１０ＫＶ５２１辛庄线路全线停电【变更送电】因抢修进度加快原因，送电时间由９日１０：００变更为８日２３：３０【发布渠道】通过９５５９８发布","powerTime":"2019-12-08 22:52:21","powerComm":"已送电","subsNo":"","lineNo":"","tgNo":"","tgName":null,"infoStatus":"1","orgName":"国网顺平县电力局","typeName":null,"infoStatusName":null,"dateDay":null,"orgNos":null,"nowTime":null,"countyName":null,"streetName":null,"villageName":null,"roadName":null,"communityName":null,"tranName":null,"sdLineName":null,"cityCode":"1340621","cityName":"国网顺平县电力局","provinceCode":null,"stopTime":"2019-12-08 23:30:00","powerType":"全部","powerOffArea":"【全线路停电】停南腰山综合6号0415,北安全-23000270|23000270,南安全新增综合5号1903,辛庄新增综合10号2852,东于庄综合3号2429,马家庄-23000230|23000230,辛庄综合8号0409,腰山中国移动,北安全新增综合3号1910,南腰山内-23002660|23002660,西于家庄综合3号2425,北吴村西-23000100|23000100,西于家庄村东新增综合,辛庄新增综合12号1909,东于庄-23000920|23000920,北吴村综合6号7867,山东头新增综合4号2407,山东头综合3号9975,南腰山综合5号2426,辛庄村北-23000680|23000680,西于庄-23000130,南腰山综合7号6001,北安全综合2号9888,东于村北-23000240|23000240,南安全土地整改新增农业2号（TD）2436【纯农排变】,西于家庄综合2号4020,马家庄村东新增综合,山东头-23000140|23000140,南安全综合4号2920,山东头综合2号,辛庄新增综合9号2419,腰山一中,王氏庄园,南吴村土地整改新增农业1号（TD）4382【纯农排变】,南安全土地整改新增农业1号（TD）4383【纯农排变】,顺平县腰山镇第一初级中学,北安全土地整改新增农业2号（TD）2438【纯农排变】,东于家庄综合4号8516,南吴村南-23000150|23000150,南腰山新村-23002300|23002300,南安全-23000210|23000210,南腰山西-23002650|23002650,北安全土地整改新增农业1号（TD）2437【纯农排变】,辛庄综合7号2427,南安全-23003980|23003980,辛庄村西-23000050|23000050,何家营-23000020|23000020,何家营南厂,南安全综合3号2431,南吴村综合4号2921,511西于家庄综合4号6860,何家营综合3号0413,马家庄综合2号,南吴村综合3号0831","powerOffReason":"【停电原因】由于辛庄学校３７３０公变台区JP柜烧毁导致３５ＫＶ腰山变电站１０ＫＶ５２１辛庄线路全线停电【变更送电】因抢修进度加快原因，送电时间由９日１０：００变更为８日２３：３０【发布渠道】通过９５５９８发布","powerOffId":"2019120813000122"},{"poweroffId":2019120813000088,"sgpoweroffId":null,"subsName":"","lineName":"塘湖线537","pubTranName":"塘湖石板厂(刘海龙),榆林庄面粉厂,榆林庄村3#,张进庄2#,北京地矿-孔山100-2号,孔山村6#,燕城纸厂,孔山村3#,孔山村9#,塘湖村1#,易县塘湖中心卫生院630KVA,塘湖村13#,张进庄村1#,孔山村5#,易县百石石材加工有限公司80,塘湖村4#,孔山村1#,塘湖中心小学,塘湖村20号变压器,滑越海石板厂,郭金良养鸡厂,塘湖煤厂,塘湖村南(农业),孔山10号变压器,塘湖村3#,燕城纸厂(农业),塘湖村5#,孔山村7#,孔山村4#,塘湖村19#,乾坤石板厂,榆林庄村5#,北京地矿-孔山100,刘德才,塘湖医院,0469482889-塘湖中学-专变-46818891-塘湖中学,塘湖碱面厂,吕文祥石板厂,塘湖村12#,塘湖镇政府变压器,易县塘湖初级中学1250KVA,刘志强面粉厂,滑金全石板厂,滑越海养鸡厂,易县金泰洋建筑工程有限公司100-孔山,张进庄村4#变压器,塘湖村2#,孔山村8#,塘湖村6#,北京地质矿产勘查-孔山王,孔山村2#,易县全顺通砂厂,榆林庄村2#,榆林庄村1#,塘湖村24#,榆林庄村6#变压器,塘湖镇政府,塘湖村9#,塘湖村10#,","scope":"【影响街道/乡镇】塘湖镇【高危重要客户】无【影响客户】塘湖村、孔山村、榆林庄","startTime":"2019-12-08 17:28:28","stopDate":"2019-12-08 19:00:00","orgNo":"1340625","typeCode":"电网故障停限电","poweroffArea":"【全线路停电】停塘湖村3#,燕城纸厂(农业),塘湖村19#,乾坤石板厂,孔山村4#,北京地矿-孔山100,刘德才,塘湖医院,0469482889-塘湖中学-专变-46818891-塘湖中学,塘湖碱面厂,吕文祥石板厂,北京地矿-孔山100-2号,燕城纸厂,孔山村3#,孔山村5#,孔山村9#,易县塘湖中心卫生院630KVA,孔山村1#,塘湖中心小学,塘湖村20号变压器,郭金良养鸡厂,塘湖煤厂,塘湖村南(农业),塘湖镇政府变压器,孔山10号变压器,塘湖村12#,塘湖村6#,北京地质矿产勘查-孔山王,榆林庄村2#,塘湖村24#,塘湖村9#,塘湖村10#,榆林庄村3#,张进庄2#,易县百石石材加工有限公司80,塘湖村4#,易县塘湖初级中学1250KVA,刘志强面粉厂,滑金全石板厂,滑越海养鸡厂,易县金泰洋建筑工程有限公司100-孔山,张进庄村4#变压器,塘湖村2#,孔山村8#,孔山村2#,易县全顺通砂厂,榆林庄村1#,榆林庄村6#变压器,塘湖镇政府,塘湖村5#,孔山村7#,榆林庄村5#,滑越海石板厂,塘湖石板厂(刘海龙),榆林庄面粉厂,孔山村6#,塘湖村1#,塘湖村13#,张进庄村1#","poweroffReason":"【停电原因】由于速断跳闸导致１１０ＫＶ塘湖变电站塘湖线５３７线路全线停电【变更送电】因抢修进度加快原因，送电时间由２３：００变更为１９：００【发布渠道】通过９５５９８发布","powerTime":"2019-12-08 18:38:54","powerComm":"已送电","subsNo":"","lineNo":"","tgNo":"","tgName":null,"infoStatus":"1","orgName":"国网易县供电公司","typeName":null,"infoStatusName":null,"dateDay":null,"orgNos":null,"nowTime":null,"countyName":null,"streetName":null,"villageName":null,"roadName":null,"communityName":null,"tranName":null,"sdLineName":null,"cityCode":"1340625","cityName":"国网易县供电公司","provinceCode":null,"stopTime":"2019-12-08 19:00:00","powerType":"全部","powerOffArea":"【全线路停电】停塘湖村3#,燕城纸厂(农业),塘湖村19#,乾坤石板厂,孔山村4#,北京地矿-孔山100,刘德才,塘湖医院,0469482889-塘湖中学-专变-46818891-塘湖中学,塘湖碱面厂,吕文祥石板厂,北京地矿-孔山100-2号,燕城纸厂,孔山村3#,孔山村5#,孔山村9#,易县塘湖中心卫生院630KVA,孔山村1#,塘湖中心小学,塘湖村20号变压器,郭金良养鸡厂,塘湖煤厂,塘湖村南(农业),塘湖镇政府变压器,孔山10号变压器,塘湖村12#,塘湖村6#,北京地质矿产勘查-孔山王,榆林庄村2#,塘湖村24#,塘湖村9#,塘湖村10#,榆林庄村3#,张进庄2#,易县百石石材加工有限公司80,塘湖村4#,易县塘湖初级中学1250KVA,刘志强面粉厂,滑金全石板厂,滑越海养鸡厂,易县金泰洋建筑工程有限公司100-孔山,张进庄村4#变压器,塘湖村2#,孔山村8#,孔山村2#,易县全顺通砂厂,榆林庄村1#,榆林庄村6#变压器,塘湖镇政府,塘湖村5#,孔山村7#,榆林庄村5#,滑越海石板厂,塘湖石板厂(刘海龙),榆林庄面粉厂,孔山村6#,塘湖村1#,塘湖村13#,张进庄村1#","powerOffReason":"【停电原因】由于速断跳闸导致１１０ＫＶ塘湖变电站塘湖线５３７线路全线停电【变更送电】因抢修进度加快原因，送电时间由２３：００变更为１９：００【发布渠道】通过９５５９８发布","powerOffId":"2019120813000088"},{"poweroffId":2019120813000068,"sgpoweroffId":null,"subsName":"","lineName":"10kV温辛庄566线","pubTranName":"义合庄村内二台区变压器,温辛庄村内变压器,","scope":"【影响街道/乡镇】义安镇 【高危重要客户】无 【影响客户】温辛庄村、义合庄村","startTime":"2019-12-08 16:50:00","stopDate":"2019-12-08 18:00:00","orgNo":"1340614","typeCode":"其他临时停电","poweroffArea":"【分支停电】停义合庄村内二台区变压器,温辛庄村内变压器","poweroffReason":"【停电原因】由于刀闸过热，需停电进行紧急消缺导致１１０ＫＶ义安变电站１０ＫＶ温辛庄５６６线路１０号杆至３０号杆停电 【变更送电】无 【发布渠道】通过９５５９８发布","powerTime":"2019-12-08 17:27:54","powerComm":"已送电","subsNo":"","lineNo":"","tgNo":"","tgName":null,"infoStatus":"1","orgName":"国网涞水县供电公司","typeName":null,"infoStatusName":null,"dateDay":null,"orgNos":null,"nowTime":null,"countyName":null,"streetName":null,"villageName":null,"roadName":null,"communityName":null,"tranName":null,"sdLineName":null,"cityCode":"1340614","cityName":"国网涞水县供电公司","provinceCode":null,"stopTime":"2019-12-08 18:00:00","powerType":"全部","powerOffArea":"【分支停电】停义合庄村内二台区变压器,温辛庄村内变压器","powerOffReason":"【停电原因】由于刀闸过热，需停电进行紧急消缺导致１１０ＫＶ义安变电站１０ＫＶ温辛庄５６６线路１０号杆至３０号杆停电 【变更送电】无 【发布渠道】通过９５５９８发布","powerOffId":"2019120813000068"}],"pageModel":{"pageNow":338,"totalCount":10973,"totalPage":1098,"tableRows":0,"pageCount":10,"beginCount":3370},"isExperi":"1"}