{"message":"","today":"2020-06-15","seleList":[{"poweroffId":2019120813000025,"sgpoweroffId":null,"subsName":"","lineName":"潘各庄线539","pubTranName":"1357潘各庄,","scope":"【影响街道/乡镇】刁窝乡 【高危重要客户】无 【影响客户】潘各庄村","startTime":"2019-12-10 08:00:00","stopDate":"2019-12-10 17:00:00","orgNo":"1340626","typeCode":"临时停电","poweroffArea":"【单台区停电】停1357潘各庄","poweroffReason":"【停电原因】由于更换金具、架设导线导致１１０ＫＶ刁窝变电站潘各庄线５３９线路１３５７潘各庄公变台区停电 【变更送电】无 【发布渠道】通过９５５９８发布","powerTime":"2019-12-10 16:45:50","powerComm":"已送电","subsNo":"","lineNo":"","tgNo":"","tgName":null,"infoStatus":"1","orgName":"国网涿州市供电公司","typeName":null,"infoStatusName":null,"dateDay":null,"orgNos":null,"nowTime":null,"countyName":null,"streetName":null,"villageName":null,"roadName":null,"communityName":null,"tranName":null,"sdLineName":null,"cityCode":"1340626","cityName":"国网涿州市供电公司","provinceCode":null,"stopTime":"2019-12-10 17:00:00","powerType":"全部","powerOffArea":"【单台区停电】停1357潘各庄","powerOffReason":"【停电原因】由于更换金具、架设导线导致１１０ＫＶ刁窝变电站潘各庄线５３９线路１３５７潘各庄公变台区停电 【变更送电】无 【发布渠道】通过９５５９８发布","powerOffId":"2019120813000025"},{"poweroffId":2019120813000024,"sgpoweroffId":null,"subsName":"","lineName":"10kV518南邑线","pubTranName":"10KV518南邑线北邑02007台区变压器,南邑村40014,10KV518南邑线02091台区变压器,10KV518南邑线南邑村内分支02075台区变压器,10KV518南邑线邓庄84839台区变压器,10KV518南邑线02092台区变压器,10KV518南邑线邓庄02112台区变压器,10KV518南邑线南邑16585台区变压器,10KV518南邑线02031台区变压器,10KV518南邑线南邑村内分支02025台区变压器,10KV518南邑线南邑02085台区变压器,10KV518南邑线北邑02011台区变压器,10KV518南邑线主干6558台区变压器,10KV518南邑线南邑村内分支47246台区变压器,10KV518南邑线南邑20889台区变压器,10KV518南邑线北邑56849台区变压器,10KV518南邑线南邑村西02006台区变压器,10KV518南邑线北邑02009台区变压器,10kv518南邑线南邑村02115台区变压器,10kV518南邑线芦村村东02104台区变压器,10KV518南邑线02012台区变压器,10KV518南邑线北邑02010台区变压器,10kv518南邑线北邑村南41933台区变压器,10KV518南邑线卢村村东74908台区变压器,10kv518南邑线南邑12569台区变压器,10KV518南邑线北邑村东照明分支02008台区变压器,10kV518南邑线南邑村北02005台区变压器,10KV518南邑线屯庄02003台区变压器,10kv518南邑线南邑12563台区变压器,10KV518南邑线邓庄村内西分支02053台区变压器,10KV518南邑线南邑18360台区变压器,10KV518南邑线邓庄村内分支02060台区变压器,10KV518南邑线主干18358台区变压器,10KV518南邑线02090台区变压器,10KV518南邑线南邑村内83062台区变压器,10KV518南邑线芦村02103变压器,10kv518南邑线邓庄83879台区变压器,10KV518南邑线南邑21390台区变压器,10KV518南邑线南邑村内分支02073台区变压器,10KV518南邑线邓庄村北02033台区变压器,10kv518南邑线南邑照明42140台区变压器,10KV518南邑线屯庄02099台区变压器,","scope":"【影响街道/乡镇】北杨村乡【高危重要客户】无【影响客户】南邑、北邑、邓庄、芦村、初蕾油漆","startTime":"2019-12-08 08:46:43","stopDate":"2019-12-08 11:30:00","orgNo":"1340608","typeCode":"电网故障停限电","poweroffArea":"【全线路停电】停10kv518南邑线北邑村南41933台区变压器,10KV518南邑线北邑02007台区变压器,南邑村40014,10KV518南邑线02091台区变压器,10KV518南邑线南邑村内分支02075台区变压器,10KV518南邑线邓庄84839台区变压器,10KV518南邑线02092台区变压器,10KV518南邑线邓庄02112台区变压器,10KV518南邑线南邑16585台区变压器,10KV518南邑线02031台区变压器,10KV518南邑线南邑村内分支02025台区变压器,10KV518南邑线南邑02085台区变压器,10KV518南邑线北邑02011台区变压器,10KV518南邑线主干6558台区变压器,10KV518南邑线南邑村内分支47246台区变压器,10KV518南邑线南邑20889台区变压器,10KV518南邑线北邑56849台区变压器,10KV518南邑线南邑村西02006台区变压器,10KV518南邑线北邑02009台区变压器,10kv518南邑线南邑村02115台区变压器,10kV518南邑线芦村村东02104台区变压器,10KV518南邑线02012台区变压器,10KV518南邑线北邑02010台区变压器,10KV518南邑线卢村村东74908台区变压器,10kv518南邑线南邑12569台区变压器,10KV518南邑线北邑村东照明分支02008台区变压器,10kV518南邑线南邑村北02005台区变压器,10KV518南邑线屯庄02003台区变压器,10kv518南邑线南邑12563台区变压器,10KV518南邑线邓庄村内西分支02053台区变压器,10KV518南邑线南邑18360台区变压器,10KV518南邑线邓庄村内分支02060台区变压器,10KV518南邑线主干18358台区变压器,10KV518南邑线02090台区变压器,10KV518南邑线南邑村内83062台区变压器,10KV518南邑线芦村02103变压器,10kv518南邑线邓庄83879台区变压器,10KV518南邑线南邑21390台区变压器,10KV518南邑线南邑村内分支02073台区变压器,10KV518南邑线邓庄村北02033台区变压器,10kv518南邑线南邑照明42140台区变压器,10KV518南邑线屯庄02099台区变压器","poweroffReason":"【停电原因】由于站外开关掉闸导致１１０ＫＶ博野变电站南邑５１８线路全线停电【变更送电】因抢修进度加快原因，送电时间由１８：００变更为１１：３０【发布渠道】通过９５５９８发布","powerTime":"2019-12-08 11:09:00","powerComm":"已送电","subsNo":"","lineNo":"","tgNo":"","tgName":null,"infoStatus":"1","orgName":"国网博野县供电公司","typeName":null,"infoStatusName":null,"dateDay":null,"orgNos":null,"nowTime":null,"countyName":null,"streetName":null,"villageName":null,"roadName":null,"communityName":null,"tranName":null,"sdLineName":null,"cityCode":"1340608","cityName":"国网博野县供电公司","provinceCode":null,"stopTime":"2019-12-08 11:30:00","powerType":"全部","powerOffArea":"【全线路停电】停10kv518南邑线北邑村南41933台区变压器,10KV518南邑线北邑02007台区变压器,南邑村40014,10KV518南邑线02091台区变压器,10KV518南邑线南邑村内分支02075台区变压器,10KV518南邑线邓庄84839台区变压器,10KV518南邑线02092台区变压器,10KV518南邑线邓庄02112台区变压器,10KV518南邑线南邑16585台区变压器,10KV518南邑线02031台区变压器,10KV518南邑线南邑村内分支02025台区变压器,10KV518南邑线南邑02085台区变压器,10KV518南邑线北邑02011台区变压器,10KV518南邑线主干6558台区变压器,10KV518南邑线南邑村内分支47246台区变压器,10KV518南邑线南邑20889台区变压器,10KV518南邑线北邑56849台区变压器,10KV518南邑线南邑村西02006台区变压器,10KV518南邑线北邑02009台区变压器,10kv518南邑线南邑村02115台区变压器,10kV518南邑线芦村村东02104台区变压器,10KV518南邑线02012台区变压器,10KV518南邑线北邑02010台区变压器,10KV518南邑线卢村村东74908台区变压器,10kv518南邑线南邑12569台区变压器,10KV518南邑线北邑村东照明分支02008台区变压器,10kV518南邑线南邑村北02005台区变压器,10KV518南邑线屯庄02003台区变压器,10kv518南邑线南邑12563台区变压器,10KV518南邑线邓庄村内西分支02053台区变压器,10KV518南邑线南邑18360台区变压器,10KV518南邑线邓庄村内分支02060台区变压器,10KV518南邑线主干18358台区变压器,10KV518南邑线02090台区变压器,10KV518南邑线南邑村内83062台区变压器,10KV518南邑线芦村02103变压器,10kv518南邑线邓庄83879台区变压器,10KV518南邑线南邑21390台区变压器,10KV518南邑线南邑村内分支02073台区变压器,10KV518南邑线邓庄村北02033台区变压器,10kv518南邑线南邑照明42140台区变压器,10KV518南邑线屯庄02099台区变压器","powerOffReason":"【停电原因】由于站外开关掉闸导致１１０ＫＶ博野变电站南邑５１８线路全线停电【变更送电】因抢修进度加快原因，送电时间由１８：００变更为１１：３０【发布渠道】通过９５５９８发布","powerOffId":"2019120813000024"},{"poweroffId":2019120713000103,"sgpoweroffId":null,"subsName":"","lineName":"10kV534东堤阳线","pubTranName":"元光村公用照明四台区,南齐公用照明4台区,东堤阳村公用照明二台区,元光公用照明7台区,南齐村公用照明三台区,东堤阳公用照明3台区,西堤阳公用照明3台区,元光村公用照明二台区,元光公用照明5台区,东堤阳村公用照明一台区,元光公用照明8台区,元光村公用照明三台区,南齐村公用照明一台区,东亭公路北公用照明2台区,东堤阳公用照明4台区,南齐公用照明6台区,西堤阳村公用照明二台区,西堤阳村公用照明一台区,南齐公用照明5台区,元光公用照明6台区,南齐村公用照明二台区,西堤阳公用照明4台区,西堤阳公用照明5台区,元光村公用照明一台区,东堤阳公用照明5台区,","scope":"【影响街道/乡镇】东亭镇【高危重要客户】无【影响客户】东亭村、南齐、元光、西堤阳、东堤阳","startTime":"2019-12-07 18:03:02","stopDate":"2019-12-07 21:00:00","orgNo":"1340610","typeCode":"电网故障停限电","poweroffArea":"【全线路停电】停元光村公用照明二台区,元光公用照明5台区,西堤阳公用照明5台区,元光村公用照明四台区,,元光公用照明6台区,东堤阳公用照明5台区,东堤阳公用照明4台区,东堤阳村公用照明二台区,东堤阳公用照明3台区,南齐村公用照明二台区,,西堤阳公用照明4台区，元光公用照明7台区,南齐村公用照明三台区,东堤阳村公用照明一台区,,元光村公用照明三台区,,元光村公用照明一台区,元光公用照明8台区,南齐公用照明5台区,南齐村公用照明一台区,东亭公路北公用照明2台区,,西堤阳村公用照明二台区,,西堤阳村公用照明一台区,,南齐公用照明6台区,,南齐公用照明4台区,西堤阳公用照明3台区","poweroffReason":"【停电原因】由于线路开关掉闸导致１１０ＫＶ东亭变电站１０ＫＶ５３４东堤阳线路全线停电 【变更送电】因抢修进度加快原因，送电时间由０８日１２：００变更为０７日２１：００ 【发布渠道】９５５９８","powerTime":"2019-12-07 20:25:42","powerComm":"已送电","subsNo":"","lineNo":"","tgNo":"","tgName":null,"infoStatus":"1","orgName":"国网定州市供电公司","typeName":null,"infoStatusName":null,"dateDay":null,"orgNos":null,"nowTime":null,"countyName":null,"streetName":null,"villageName":null,"roadName":null,"communityName":null,"tranName":null,"sdLineName":null,"cityCode":"1340610","cityName":"国网定州市供电公司","provinceCode":null,"stopTime":"2019-12-07 21:00:00","powerType":"全部","powerOffArea":"【全线路停电】停元光村公用照明二台区,元光公用照明5台区,西堤阳公用照明5台区,元光村公用照明四台区,,元光公用照明6台区,东堤阳公用照明5台区,东堤阳公用照明4台区,东堤阳村公用照明二台区,东堤阳公用照明3台区,南齐村公用照明二台区,,西堤阳公用照明4台区，元光公用照明7台区,南齐村公用照明三台区,东堤阳村公用照明一台区,,元光村公用照明三台区,,元光村公用照明一台区,元光公用照明8台区,南齐公用照明5台区,南齐村公用照明一台区,东亭公路北公用照明2台区,,西堤阳村公用照明二台区,,西堤阳村公用照明一台区,,南齐公用照明6台区,,南齐公用照明4台区,西堤阳公用照明3台区","powerOffReason":"【停电原因】由于线路开关掉闸导致１１０ＫＶ东亭变电站１０ＫＶ５３４东堤阳线路全线停电 【变更送电】因抢修进度加快原因，送电时间由０８日１２：００变更为０７日２１：００ 【发布渠道】９５５９８","powerOffId":"2019120713000103"},{"poweroffId":2019120713000080,"sgpoweroffId":null,"subsName":"","lineName":"10kV512朝阳线","pubTranName":"西朝阳南庄2730|25002730,西朝阳果园二区2695,西朝阳果园2670|25002670,西朝阳南庄2区0321,","scope":"【影响街道/乡镇】白云乡【高危重要客户】无【影响客户】西朝阳、西朝阳南庄","startTime":"2019-12-07 15:31:05","stopDate":"2019-12-07 17:30:00","orgNo":"1340621","typeCode":"电网故障停限电","poweroffArea":"【分支停电】停西朝阳南庄2区0321,西朝阳南庄2730|25002730,西朝阳果园二区2695,西朝阳果园2670|25002670","poweroffReason":"【停电原因】由于刀闸烧毁导致３５ＫＶ河口变电站１０ＫＶ５１２朝阳线路西朝阳村南分支３２号杆断路器以下线路停电【变更送电】因抢修进度加快原因，送电时间由１９：００变更为１７：３０【发布渠道】通过９５５９８发布","powerTime":"2019-12-07 16:59:11","powerComm":"已送电","subsNo":"","lineNo":"","tgNo":"","tgName":null,"infoStatus":"1","orgName":"国网顺平县电力局","typeName":null,"infoStatusName":null,"dateDay":null,"orgNos":null,"nowTime":null,"countyName":null,"streetName":null,"villageName":null,"roadName":null,"communityName":null,"tranName":null,"sdLineName":null,"cityCode":"1340621","cityName":"国网顺平县电力局","provinceCode":null,"stopTime":"2019-12-07 17:30:00","powerType":"全部","powerOffArea":"【分支停电】停西朝阳南庄2区0321,西朝阳南庄2730|25002730,西朝阳果园二区2695,西朝阳果园2670|25002670","powerOffReason":"【停电原因】由于刀闸烧毁导致３５ＫＶ河口变电站１０ＫＶ５１２朝阳线路西朝阳村南分支３２号杆断路器以下线路停电【变更送电】因抢修进度加快原因，送电时间由１９：００变更为１７：３０【发布渠道】通过９５５９８发布","powerOffId":"2019120713000080"},{"poweroffId":2019120713000059,"sgpoweroffId":null,"subsName":"","lineName":"10kV县委513","pubTranName":"涞水农行新增80KVA,涞水县委大楼,武装部后身公用,影院公用变压器,文山路公用变压器,政府大楼(2),","scope":"【影响街道/乡镇】涞水镇 【高危重要客户】无 【影响客户】文山北侧、残联家属院、涞阳路东侧、冲之对面、县政府大楼、招待所、派出所、粮食局、电信公司、武装部一片、电影院、联通公司、后城西一片、万荣小区、冲之学校、城内村涞阳路西侧、城内村南片","startTime":"2019-12-07 14:00:00","stopDate":"2019-12-07 17:00:00","orgNo":"1340614","typeCode":"其他临时停电","poweroffArea":"【全线路停电】停涞水农行新增80KVA,涞水县委大楼,武装部后身公用,影院公用变压器,文山路公用变压器,政府大楼(2)","poweroffReason":"【停电原因】由于刀闸过热，需停电进行紧急消缺导致１１０ＫＶ涞水变电站１０ＫＶ县委５１３线路全线停电 【变更送电】无 【发布渠道】通过９５５９８发布","powerTime":"2019-12-07 16:28:40","powerComm":"已送电","subsNo":"","lineNo":"","tgNo":"","tgName":null,"infoStatus":"1","orgName":"国网涞水县供电公司","typeName":null,"infoStatusName":null,"dateDay":null,"orgNos":null,"nowTime":null,"countyName":null,"streetName":null,"villageName":null,"roadName":null,"communityName":null,"tranName":null,"sdLineName":null,"cityCode":"1340614","cityName":"国网涞水县供电公司","provinceCode":null,"stopTime":"2019-12-07 17:00:00","powerType":"全部","powerOffArea":"【全线路停电】停涞水农行新增80KVA,涞水县委大楼,武装部后身公用,影院公用变压器,文山路公用变压器,政府大楼(2)","powerOffReason":"【停电原因】由于刀闸过热，需停电进行紧急消缺导致１１０ＫＶ涞水变电站１０ＫＶ县委５１３线路全线停电 【变更送电】无 【发布渠道】通过９５５９８发布","powerOffId":"2019120713000059"},{"poweroffId":2019120713000045,"sgpoweroffId":null,"subsName":"","lineName":"10kV524杨庄子线","pubTranName":"杨庄子照明3台区一队家属院,开元公用照明2台区,农机修公用照明1台区,邢台天鹭幸福里公用照明2台区中压出线间隔配电变压器,杨庄子照明2台区1队2,丝绸厂公用照明1台区,开元公用照明4台区,邢台天鹭幸福里公用照明1台区中压出线间隔配电变压器,杨庄子公用照明10台区,二毛公用照明1台区,开元公用照明3台区,杨庄子公用照明7台区,党校公用照明1台区,开元公用照明1台区,","scope":"【影响街道/乡镇】西城区、水源街、中山西路【高危重要客户】电视台【影响客户】电视台、丝绸厂、旭美玻璃厂、开元家属院、党校、二毛、农机修、中山绿洲东区、西区、幸福里一期、杨庄子、幸福３６５小区、金泰家园、广府家园","startTime":"2019-12-07 10:43:39","stopDate":"2019-12-07 16:00:00","orgNo":"1340610","typeCode":"电网故障停限电","poweroffArea":"【全线路停电】停开元公用照明1台区,杨庄子照明3台区一队家属院,开元公用照明2台区,农机修公用照明1台区,邢台天鹭幸福里公用照明2台区中压出线间隔配电变压器,杨庄子照明2台区1队2,丝绸厂公用照明1台区,开元公用照明4台区,邢台天鹭幸福里公用照明1台区中压出线间隔配电变压器,杨庄子公用照明10台区,二毛公用照明1台区,开元公用照明3台区,杨庄子公用照明7台区,党校公用照明1台区","poweroffReason":"【停电原因】由于主干３２号杆过街电缆外力破坏导致１１０ＫＶ定县变电站１０ＫＶ５２４杨庄子线路全线停电 【变更送电】因抢修进度加快原因，送电时间由１８：００变更为１６：００ 【发布渠道】９５５９８","powerTime":"2019-12-07 15:18:33","powerComm":"已送电","subsNo":"","lineNo":"","tgNo":"","tgName":null,"infoStatus":"1","orgName":"国网定州市供电公司","typeName":null,"infoStatusName":null,"dateDay":null,"orgNos":null,"nowTime":null,"countyName":null,"streetName":null,"villageName":null,"roadName":null,"communityName":null,"tranName":null,"sdLineName":null,"cityCode":"1340610","cityName":"国网定州市供电公司","provinceCode":null,"stopTime":"2019-12-07 16:00:00","powerType":"全部","powerOffArea":"【全线路停电】停开元公用照明1台区,杨庄子照明3台区一队家属院,开元公用照明2台区,农机修公用照明1台区,邢台天鹭幸福里公用照明2台区中压出线间隔配电变压器,杨庄子照明2台区1队2,丝绸厂公用照明1台区,开元公用照明4台区,邢台天鹭幸福里公用照明1台区中压出线间隔配电变压器,杨庄子公用照明10台区,二毛公用照明1台区,开元公用照明3台区,杨庄子公用照明7台区,党校公用照明1台区","powerOffReason":"【停电原因】由于主干３２号杆过街电缆外力破坏导致１１０ＫＶ定县变电站１０ＫＶ５２４杨庄子线路全线停电 【变更送电】因抢修进度加快原因，送电时间由１８：００变更为１６：００ 【发布渠道】９５５９８","powerOffId":"2019120713000045"},{"poweroffId":2019120713000032,"sgpoweroffId":null,"subsName":"","lineName":"10kV517新华线","pubTranName":"仓门口公用照明1台区,四家庄公用照明7台区,（73）教委院公用照明台区,新华园公用照明1台区,（22）四家庄村公用照明1台区,四家庄公用照明6台区,（22）四家庄村公用照明2台区,仓门口公用照明3台区,四家庄公用照明3台区,四家庄公用照明8台区,仓门口公用照明4台区,(50)宝塔街公用照明2台区,（65）仓门口街公用照明2台区,宝塔公用照明1台区,四家庄公用照明4台区,客户投资_四家庄公用照明5台区,","scope":"【影响街道/乡镇】仓门口街、南环路、自来佛街【高危重要客户】定州市中医医院【影响客户】南关、四家庄、天成花园小区、懋鑫福城、教委院、军转院、玫香园、实验小学、新华中学、天成东星花园、景秀江南、１０７国道、巴黎印象、阳光尚都、缔景城小区、新华园","startTime":"2019-12-07 09:40:06","stopDate":"2019-12-07 11:00:00","orgNo":"1340610","typeCode":"电网故障停限电","poweroffArea":"【全线路停电】停客户投资_四家庄公用照明5台区,仓门口公用照明1台区,四家庄公用照明7台区,（73）教委院公用照明台区,新华园公用照明1台区,（22）四家庄村公用照明1台区,四家庄公用照明6台区,（22）四家庄村公用照明2台区,仓门口公用照明3台区,四家庄公用照明3台区,四家庄公用照明8台区,仓门口公用照明4台区,(50)宝塔街公用照明2台区,（65）仓门口街公用照明2台区,宝塔公用照明1台区,四家庄公用照明4台区","poweroffReason":"【停电原因】由于实验小学配变烧毁导致１１０ＫＶ定县变电站１０ＫＶ５１７新华线路全线停电 【变更送电】因抢修进度加快原因，送电时间由１８：００变更为１１：００ 【发布渠道】９５５９８　","powerTime":"2019-12-07 10:40:10","powerComm":"已送电","subsNo":"","lineNo":"","tgNo":"","tgName":null,"infoStatus":"1","orgName":"国网定州市供电公司","typeName":null,"infoStatusName":null,"dateDay":null,"orgNos":null,"nowTime":null,"countyName":null,"streetName":null,"villageName":null,"roadName":null,"communityName":null,"tranName":null,"sdLineName":null,"cityCode":"1340610","cityName":"国网定州市供电公司","provinceCode":null,"stopTime":"2019-12-07 11:00:00","powerType":"全部","powerOffArea":"【全线路停电】停客户投资_四家庄公用照明5台区,仓门口公用照明1台区,四家庄公用照明7台区,（73）教委院公用照明台区,新华园公用照明1台区,（22）四家庄村公用照明1台区,四家庄公用照明6台区,（22）四家庄村公用照明2台区,仓门口公用照明3台区,四家庄公用照明3台区,四家庄公用照明8台区,仓门口公用照明4台区,(50)宝塔街公用照明2台区,（65）仓门口街公用照明2台区,宝塔公用照明1台区,四家庄公用照明4台区","powerOffReason":"【停电原因】由于实验小学配变烧毁导致１１０ＫＶ定县变电站１０ＫＶ５１７新华线路全线停电 【变更送电】因抢修进度加快原因，送电时间由１８：００变更为１１：００ 【发布渠道】９５５９８　","powerOffId":"2019120713000032"},{"poweroffId":2019120713000005,"sgpoweroffId":null,"subsName":"","lineName":"10kV515花张蒙线","pubTranName":"华张木公用照明2台区,花张蒙公用照明8台区,花张蒙公用照明1台区,寺张蒙公用照明1台区,花张蒙公用照明4台区,塔耳洼公用照明3台区,花张蒙公用照明6台区,阜头庄公用照明3台区,阜头庄公用照明1台区,李张蒙公用照明7台区变压器,阜头庄公用照明6台区,李张蒙公用照明2台区,李张蒙公用照明6台区,阜头庄公用照明2台区,花张蒙公用照明5台区,张蒙屯公用照明1台区,张蒙屯公用照明3台区,武庄子公用照明1台区,武庄子公用照明2台区,李张蒙公用照明3台区,阜头庄公用照明7台区,阜头庄公用照明10台区,张蒙屯公用照明2台区,阜头庄公用照明5台区,花张木公用照明3台区,李张蒙公用照明1台区,阜头庄公用照明4台区,塔耳洼公用照明2台区,寺张蒙公用照明2台区,李张蒙公用照明5台区,寺张蒙公用照明3台区,阜头庄公用照明8台区,阜头庄公用照明9台区,李张蒙公用照明4台区,塔耳洼公用照明1台区,","scope":"【影响街道/乡镇】周村乡【高危重要客户】无【影响客户】花张蒙村、阜头庄村、李张蒙村、张蒙屯村、寺张蒙村、武庄子村、塔耳洼村","startTime":"2019-12-07 01:46:28","stopDate":"2019-12-07 08:00:00","orgNo":"1340610","typeCode":"电网故障停限电","poweroffArea":"【全线路停电】停阜头庄公用照明10台区,张蒙屯公用照明2台区,阜头庄公用照明4台区,塔耳洼公用照明2台区,寺张蒙公用照明2台区,阜头庄公用照明9台区,塔耳洼公用照明1台区,华张木公用照明2台区,李张蒙公用照明3台区,阜头庄公用照明7台区,阜头庄公用照明5台区,花张木公用照明3台区,李张蒙公用照明1台区,李张蒙公用照明5台区,寺张蒙公用照明3台区,阜头庄公用照明8台区,李张蒙公用照明4台区,花张蒙公用照明8台区,花张蒙公用照明1台区,寺张蒙公用照明1台区,花张蒙公用照明4台区,塔耳洼公用照明3台区,花张蒙公用照明6台区,阜头庄公用照明1台区,阜头庄公用照明6台区,李张蒙公用照明2台区,李张蒙公用照明6台区,阜头庄公用照明2台区,花张蒙公用照明5台区,张蒙屯公用照明1台区,张蒙屯公用照明3台区,武庄子公用照明1台区,武庄子公用照明2台区,阜头庄公用照明3台区,李张蒙公用照明7台区变压器","poweroffReason":"【停电原因】由于民生医院配变烧毁导致３５ＫＶ车寄变电站１０ＫＶ５１５花张蒙线路全线停电 【变更送电】因抢修进度加快原因，送电时间由１２：００变更为０８：００ 【发布渠道】９５５９８","powerTime":"2019-12-07 07:27:33","powerComm":"已送电","subsNo":"","lineNo":"","tgNo":"","tgName":null,"infoStatus":"1","orgName":"国网定州市供电公司","typeName":null,"infoStatusName":null,"dateDay":null,"orgNos":null,"nowTime":null,"countyName":null,"streetName":null,"villageName":null,"roadName":null,"communityName":null,"tranName":null,"sdLineName":null,"cityCode":"1340610","cityName":"国网定州市供电公司","provinceCode":null,"stopTime":"2019-12-07 08:00:00","powerType":"全部","powerOffArea":"【全线路停电】停阜头庄公用照明10台区,张蒙屯公用照明2台区,阜头庄公用照明4台区,塔耳洼公用照明2台区,寺张蒙公用照明2台区,阜头庄公用照明9台区,塔耳洼公用照明1台区,华张木公用照明2台区,李张蒙公用照明3台区,阜头庄公用照明7台区,阜头庄公用照明5台区,花张木公用照明3台区,李张蒙公用照明1台区,李张蒙公用照明5台区,寺张蒙公用照明3台区,阜头庄公用照明8台区,李张蒙公用照明4台区,花张蒙公用照明8台区,花张蒙公用照明1台区,寺张蒙公用照明1台区,花张蒙公用照明4台区,塔耳洼公用照明3台区,花张蒙公用照明6台区,阜头庄公用照明1台区,阜头庄公用照明6台区,李张蒙公用照明2台区,李张蒙公用照明6台区,阜头庄公用照明2台区,花张蒙公用照明5台区,张蒙屯公用照明1台区,张蒙屯公用照明3台区,武庄子公用照明1台区,武庄子公用照明2台区,阜头庄公用照明3台区,李张蒙公用照明7台区变压器","powerOffReason":"【停电原因】由于民生医院配变烧毁导致３５ＫＶ车寄变电站１０ＫＶ５１５花张蒙线路全线停电 【变更送电】因抢修进度加快原因，送电时间由１２：００变更为０８：００ 【发布渠道】９５５９８","powerOffId":"2019120713000005"},{"poweroffId":2019120621000065,"sgpoweroffId":null,"subsName":"","lineName":"10kV薛留营站527线路","pubTranName":"B1283柱上变压器,","scope":"【影响街道/乡镇】莲池区西关大街 【高危重要客户】无 【影响客户】朱家园","startTime":"2019-12-06 16:30:00","stopDate":"2019-12-06 22:00:00","orgNo":"13406","typeCode":"电网故障停限电","poweroffArea":"【单台区停电】停B1283柱上变压器","poweroffReason":"【停电原因】由于变压器冒火导致１０ＫＶ薛留营变电站５２７线路Ｂ１２８３公变台区停电【变更送电】无【发布渠道】通过９５５９８发布","powerTime":"2019-12-06 21:31:52","powerComm":"已送电","subsNo":"","lineNo":"","tgNo":"","tgName":null,"infoStatus":"1","orgName":"保定供电公司","typeName":null,"infoStatusName":null,"dateDay":null,"orgNos":null,"nowTime":null,"countyName":null,"streetName":null,"villageName":null,"roadName":null,"communityName":null,"tranName":null,"sdLineName":null,"cityCode":"13406","cityName":"保定供电公司","provinceCode":null,"stopTime":"2019-12-06 22:00:00","powerType":"全部","powerOffArea":"【单台区停电】停B1283柱上变压器","powerOffReason":"【停电原因】由于变压器冒火导致１０ＫＶ薛留营变电站５２７线路Ｂ１２８３公变台区停电【变更送电】无【发布渠道】通过９５５９８发布","powerOffId":"2019120621000065"},{"poweroffId":2019120613000196,"sgpoweroffId":null,"subsName":"","lineName":"10KV篷头线531","pubTranName":"涞水荣发体育文化发展有限公司1#1000KVA专变,涞水荣盛伟业房地产开发有限公司KVA,荣盛伟业房地产开发有限公司1000KVA专变,01荣盛伟业房地产开发有限公司1000KVA专变,涞水县赵各庄镇人民政府200KVA专变,计鹿村变压器（箱式变电站）间隔配电变压器,河东5台区,福山口2号井台区变压器,福山口许文永变压器,河东2台区,赵各庄大棚台区,平峪4台区,平峪电站,计鹿二台区,赵各庄南台区,02涞水荣盛伟业房地产开发有限公司专变,小丰口村西台区,福山口一间房变压器,福山口一间房机井2台区,福山口村变压器,白涧邮政分局,涞水荣盛康旅投资有限公司新增变压器630KVA一台,计鹿砖厂,赵各庄大街2台区,小丰口2号井台区变压器,龙八港五台区变压器,白涧机井变压器,小丰口1号井台区变压器,赵各庄幼儿园台区,计鹿机井变压器【纯农排变】,福山口2,福山口机井,小丰口村,赵各庄苗圃场变压器,福山口3台区,计鹿四台区,福山口奔山变压器,荣盛伟业房地产1600KVA专变,董秀文,计鹿村三台区,平峪村变压器,平峪（三台区）,0671532666-涞水荣盛伟业房地产开发有限公司-专变-212323038-涞水荣盛康旅投资有限公司630KVA,河东村开发区,北京铁路局北京供电段250KVA,赵各庄村变压器,河东4台区,赵各庄派出所,01涞水荣发体育文化发展有限公司1000KVA专变,01涞水荣盛伟业房地产开发有限公司专变,龙八港二台区【纯农排变】,北砣生态园,赵各庄7台区,赵各庄砖厂,小丰口村东2台区,福山口3号井变压器,赵各庄（二台区）,03涞水荣盛伟业房地产开发有限公司专变,赵各庄村大队后沟井【纯农排变】,白涧四台区,涞水县林建石材厂315KVA专变,龙八港中铺变压器,白涧十台区,河东村变压器【冬季供暖设施】,福山口芥葱港台区,【混全】小丰口村东,计鹿5台区,平峪5台区,平峪二台区变压器,小丰口村东3台区变压器,河东小巷口台区,福山口一间房机井1台区,涞水县云凯水泥制品有限公司400KVA,小丰口山神庙变压器,福山口1号井台区变压器,福山口小学台区【冬季供暖设施】,小丰口沙窝东变压器,赵各庄3,吕建良50KVA专变,河东3台区,涞水荣盛伟业房地产开发有限公司315KVA专变,小丰口扬水站变压器,小丰口上庄,涞水县林键石材厂315KVA专变,河北鼎拓房地产开发有限公司250KVA专变,中国移动通信集团河北有限公司保定分公司50KVA专变,涞水县国营赵各庄林场,赵各庄6台区,涞水县城乡建设投资有限公司新增变压器,赵各庄村大队1号井,福山口小北台区,涞水县恒瑞建筑工程有限公司315KVA专变,涞水荣发体育文化发展有限公司,涞水荣盛伟业房地产开发有限公司1250KVA专变,小丰口上庄2台区,城建公司100KV专变,涞水荣盛伟业房地产开发有限公司专变,赵各庄大街变压器,","scope":"【影响街道/乡镇】赵各庄镇 【高危重要客户】无 【影响客户】福山口村、赵各庄村、河东村、计鹿村、平峪村、小丰口村、荣盛集团（计鹿）","startTime":"2019-12-06 20:42:39","stopDate":"2019-12-06 22:00:00","orgNo":"1340614","typeCode":"电网故障停限电","poweroffArea":"【全线路停电】停平峪4台区,平峪电站,计鹿二台区,赵各庄南台区,02涞水荣盛伟业房地产开发有限公司专变,小丰口村西台区,福山口一间房变压器,福山口一间房机井2台区,福山口村变压器,涞水荣发体育文化发展有限公司1#1000KVA专变,涞水荣盛伟业房地产开发有限公司KVA,荣盛伟业房地产开发有限公司1000KVA专变,01荣盛伟业房地产开发有限公司1000KVA专变,涞水县赵各庄镇人民政府200KVA专变,计鹿村变压器（箱式变电站）间隔配电变压器,河东5台区,福山口2号井台区变压器,福山口许文永变压器,白涧邮政分局,涞水荣盛康旅投资有限公司新增变压器630KVA一台,计鹿砖厂,龙八港五台区变压器,白涧机井变压器,小丰口1号井台区变压器,赵各庄幼儿园台区,计鹿机井变压器【纯农排变】,福山口2,福山口机井,小丰口村,赵各庄苗圃场变压器,福山口3台区,荣盛伟业房地产1600KVA专变,赵各庄大街2台区,小丰口2号井台区变压器,计鹿四台区,福山口奔山变压器,董秀文,赵各庄派出所,计鹿村三台区,平峪村变压器,平峪（三台区）,0671532666-涞水荣盛伟业房地产开发有限公司-专变-212323038-涞水荣盛康旅投资有限公司630KVA,河东村开发区,北京铁路局北京供电段250KVA,赵各庄村变压器,河东4台区,01涞水荣发体育文化发展有限公司1000KVA专变,01涞水荣盛伟业房地产开发有限公司专变,龙八港二台区【纯农排变】,北砣生态园,赵各庄7台区,赵各庄砖厂,小丰口村东2台区,福山口3号井变压器,赵各庄（二台区）,03涞水荣盛伟业房地产开发有限公司专变,赵各庄村大队后沟井【纯农排变】,白涧四台区,涞水县林建石材厂315KVA专变,龙八港中铺变压器,白涧十台区,河东村变压器【冬季供暖设施】,福山口芥葱港台区,【混全】小丰口村东,计鹿5台区,平峪5台区,平峪二台区变压器,小丰口村东3台区变压器,河东小巷口台区,福山口一间房机井1台区,涞水县云凯水泥制品有限公司400KVA,小丰口山神庙变压器,福山口1号井台区变压器,福山口小学台区【冬季供暖设施】,小丰口沙窝东变压器,赵各庄3,吕建良50KVA专变,河东3台区,涞水荣盛伟业房地产开发有限公司315KVA专变,小丰口扬水站变压器,小丰口上庄,涞水县林键石材厂315KVA专变,河北鼎拓房地产开发有限公司250KVA专变,中国移动通信集团河北有限公司保定分公司50KVA专变,涞水县国营赵各庄林场,赵各庄6台区,涞水县城乡建设投资有限公司新增变压器,赵各庄村大队1号井,福山口小北台区,涞水县恒瑞建筑工程有限公司315KVA专变,涞水荣发体育文化发展有限公司,涞水荣盛伟业房地产开发有限公司1250KVA专变,小丰口上庄2台区,城建公司100KV专变,涞水荣盛伟业房地产开发有限公司专变,赵各庄大街变压器,河东2台区,赵各庄大棚台区","poweroffReason":"【停电原因】由于Ｃ相接地导致１１０ＫＶ六顺变电站１０ＫＶ蓬头５３１线路全线停电 【变更送电】因抢修进度加快原因，送电时间由０７日０９：００变更为０６日２２：００ 【发布渠道】通过９５５９８发布","powerTime":"2019-12-06 21:46:53","powerComm":"已送电","subsNo":"","lineNo":"","tgNo":"","tgName":null,"infoStatus":"1","orgName":"国网涞水县供电公司","typeName":null,"infoStatusName":null,"dateDay":null,"orgNos":null,"nowTime":null,"countyName":null,"streetName":null,"villageName":null,"roadName":null,"communityName":null,"tranName":null,"sdLineName":null,"cityCode":"1340614","cityName":"国网涞水县供电公司","provinceCode":null,"stopTime":"2019-12-06 22:00:00","powerType":"全部","powerOffArea":"【全线路停电】停平峪4台区,平峪电站,计鹿二台区,赵各庄南台区,02涞水荣盛伟业房地产开发有限公司专变,小丰口村西台区,福山口一间房变压器,福山口一间房机井2台区,福山口村变压器,涞水荣发体育文化发展有限公司1#1000KVA专变,涞水荣盛伟业房地产开发有限公司KVA,荣盛伟业房地产开发有限公司1000KVA专变,01荣盛伟业房地产开发有限公司1000KVA专变,涞水县赵各庄镇人民政府200KVA专变,计鹿村变压器（箱式变电站）间隔配电变压器,河东5台区,福山口2号井台区变压器,福山口许文永变压器,白涧邮政分局,涞水荣盛康旅投资有限公司新增变压器630KVA一台,计鹿砖厂,龙八港五台区变压器,白涧机井变压器,小丰口1号井台区变压器,赵各庄幼儿园台区,计鹿机井变压器【纯农排变】,福山口2,福山口机井,小丰口村,赵各庄苗圃场变压器,福山口3台区,荣盛伟业房地产1600KVA专变,赵各庄大街2台区,小丰口2号井台区变压器,计鹿四台区,福山口奔山变压器,董秀文,赵各庄派出所,计鹿村三台区,平峪村变压器,平峪（三台区）,0671532666-涞水荣盛伟业房地产开发有限公司-专变-212323038-涞水荣盛康旅投资有限公司630KVA,河东村开发区,北京铁路局北京供电段250KVA,赵各庄村变压器,河东4台区,01涞水荣发体育文化发展有限公司1000KVA专变,01涞水荣盛伟业房地产开发有限公司专变,龙八港二台区【纯农排变】,北砣生态园,赵各庄7台区,赵各庄砖厂,小丰口村东2台区,福山口3号井变压器,赵各庄（二台区）,03涞水荣盛伟业房地产开发有限公司专变,赵各庄村大队后沟井【纯农排变】,白涧四台区,涞水县林建石材厂315KVA专变,龙八港中铺变压器,白涧十台区,河东村变压器【冬季供暖设施】,福山口芥葱港台区,【混全】小丰口村东,计鹿5台区,平峪5台区,平峪二台区变压器,小丰口村东3台区变压器,河东小巷口台区,福山口一间房机井1台区,涞水县云凯水泥制品有限公司400KVA,小丰口山神庙变压器,福山口1号井台区变压器,福山口小学台区【冬季供暖设施】,小丰口沙窝东变压器,赵各庄3,吕建良50KVA专变,河东3台区,涞水荣盛伟业房地产开发有限公司315KVA专变,小丰口扬水站变压器,小丰口上庄,涞水县林键石材厂315KVA专变,河北鼎拓房地产开发有限公司250KVA专变,中国移动通信集团河北有限公司保定分公司50KVA专变,涞水县国营赵各庄林场,赵各庄6台区,涞水县城乡建设投资有限公司新增变压器,赵各庄村大队1号井,福山口小北台区,涞水县恒瑞建筑工程有限公司315KVA专变,涞水荣发体育文化发展有限公司,涞水荣盛伟业房地产开发有限公司1250KVA专变,小丰口上庄2台区,城建公司100KV专变,涞水荣盛伟业房地产开发有限公司专变,赵各庄大街变压器,河东2台区,赵各庄大棚台区","powerOffReason":"【停电原因】由于Ｃ相接地导致１１０ＫＶ六顺变电站１０ＫＶ蓬头５３１线路全线停电 【变更送电】因抢修进度加快原因，送电时间由０７日０９：００变更为０６日２２：００ 【发布渠道】通过９５５９８发布","powerOffId":"2019120613000196"}],"pageModel":{"pageNow":339,"totalCount":10973,"totalPage":1098,"tableRows":0,"pageCount":10,"beginCount":3380},"isExperi":"1"}