{"message":"","today":"2020-06-15","seleList":[{"poweroffId":2019112813000010,"sgpoweroffId":null,"subsName":"","lineName":"黄庄I线534","pubTranName":"黄庄内正东,西白城于街2号配变,崔庄内东南,东白城内东2号,黄庄村南,西白城内东北,崔庄内北,黄庄内正西,西白城7号配变,崔庄村东混,闫庄北混配变,崔庄内东北,西白城5号配变,西白城内东北2号,西白城17号配变,西白城于街,西白城内北,崔庄内西北,闫庄村内,西白城6号配变,东白城内东,西白城小村,西白城3号配变,东白城村内北,黄庄村内西,西白城小村北内,黄庄内东,","scope":"【影响街道/乡镇】固店镇、黑堡乡 【高危重要客户】无　　 【影响客户】崔庄、东白城村、西白城村、黄庄、闫庄","startTime":"2019-11-28 05:44:13","stopDate":"2019-11-28 13:00:00","orgNo":"1340623","typeCode":"电网故障停限电","poweroffArea":"【全线路停电】停东白城内东2号,黄庄村南,西白城内东北,崔庄内北,黄庄内正西,西白城7号配变,崔庄村东混,闫庄北混配变,崔庄内东北,西白城5号配变,黄庄内正东,西白城于街2号配变,崔庄内东南,黄庄内东,西白城内东北2号,西白城17号配变,西白城于街,西白城内北,崔庄内西北,闫庄村内,西白城6号配变,东白城内东,西白城小村,西白城3号配变,东白城村内北,黄庄村内西,西白城小村北内","poweroffReason":"【停电原因】由于Ｂ相线夹断导致２２０ＫＶ固店变电站黄庄Ｉ线５３４线路全线停电 【变更送电】因抢修进度加快原因，送电时间由２０：００变更为１３：００ 【发布渠道】通过９５５９８发布","powerTime":"2019-11-28 12:10:51","powerComm":"已送电","subsNo":"","lineNo":"","tgNo":"","tgName":null,"infoStatus":"1","orgName":"国网望都县供电公司","typeName":null,"infoStatusName":null,"dateDay":null,"orgNos":null,"nowTime":null,"countyName":null,"streetName":null,"villageName":null,"roadName":null,"communityName":null,"tranName":null,"sdLineName":null,"cityCode":"1340623","cityName":"国网望都县供电公司","provinceCode":null,"stopTime":"2019-11-28 13:00:00","powerType":"全部","powerOffArea":"【全线路停电】停东白城内东2号,黄庄村南,西白城内东北,崔庄内北,黄庄内正西,西白城7号配变,崔庄村东混,闫庄北混配变,崔庄内东北,西白城5号配变,黄庄内正东,西白城于街2号配变,崔庄内东南,黄庄内东,西白城内东北2号,西白城17号配变,西白城于街,西白城内北,崔庄内西北,闫庄村内,西白城6号配变,东白城内东,西白城小村,西白城3号配变,东白城村内北,黄庄村内西,西白城小村北内","powerOffReason":"【停电原因】由于Ｂ相线夹断导致２２０ＫＶ固店变电站黄庄Ｉ线５３４线路全线停电 【变更送电】因抢修进度加快原因，送电时间由２０：００变更为１３：００ 【发布渠道】通过９５５９８发布","powerOffId":"2019112813000010"},{"poweroffId":2019112721000005,"sgpoweroffId":null,"subsName":"","lineName":"10kV薛留营站518线路","pubTranName":"B249柱上变压器,","scope":"【影响街道/乡镇】北市区青年路 【高危重要客户】无 【影响客户】新华村、防疫站、房管小区、小北门市场大楼","startTime":"2019-11-29 06:30:00","stopDate":"2019-11-29 18:00:00","orgNo":"13406","typeCode":"临时停电","poweroffArea":"【单台区停电】停B249柱上变压器","poweroffReason":"【停电原因】由于供电设备临时检修导致１０ＫＶ薛留营变电站５１８线路Ｂ２４９公变台区停电【变更送电】因抢修进度加快，原定22:00送电现计划18:00送电【发布渠道】通过９５５９８发布","powerTime":"2019-11-29 17:13:47","powerComm":"已送电","subsNo":"","lineNo":"","tgNo":"","tgName":null,"infoStatus":"1","orgName":"保定供电公司","typeName":null,"infoStatusName":null,"dateDay":null,"orgNos":null,"nowTime":null,"countyName":null,"streetName":null,"villageName":null,"roadName":null,"communityName":null,"tranName":null,"sdLineName":null,"cityCode":"13406","cityName":"保定供电公司","provinceCode":null,"stopTime":"2019-11-29 18:00:00","powerType":"全部","powerOffArea":"【单台区停电】停B249柱上变压器","powerOffReason":"【停电原因】由于供电设备临时检修导致１０ＫＶ薛留营变电站５１８线路Ｂ２４９公变台区停电【变更送电】因抢修进度加快，原定22:00送电现计划18:00送电【发布渠道】通过９５５９８发布","powerOffId":"2019112721000005"},{"poweroffId":2019112713000321,"sgpoweroffId":null,"subsName":"","lineName":"10kV521辛庄线","pubTranName":"辛庄学校-23003730|23003730,","scope":"【影响街道/乡镇】蒲上乡【高危重要客户】无【影响客户】辛庄村","startTime":"2019-11-27 22:44:20","stopDate":"2019-11-28 11:00:00","orgNo":"1340621","typeCode":"电网故障停限电","poweroffArea":"【单台区停电】停辛庄学校-23003730|23003730","poweroffReason":"【停电原因】由于开关烧毁导致３５ＫＶ腰山变电站１０ＫＶ５２１辛庄线路辛庄３７３０公变台区停电【变更送电】因抢修进度加快原因，送电时间由１２：００变更为１１：００【发布渠道】通过９５５９８发布","powerTime":"2019-11-28 10:38:48","powerComm":"已送电","subsNo":"","lineNo":"","tgNo":"","tgName":null,"infoStatus":"1","orgName":"国网顺平县电力局","typeName":null,"infoStatusName":null,"dateDay":null,"orgNos":null,"nowTime":null,"countyName":null,"streetName":null,"villageName":null,"roadName":null,"communityName":null,"tranName":null,"sdLineName":null,"cityCode":"1340621","cityName":"国网顺平县电力局","provinceCode":null,"stopTime":"2019-11-28 11:00:00","powerType":"全部","powerOffArea":"【单台区停电】停辛庄学校-23003730|23003730","powerOffReason":"【停电原因】由于开关烧毁导致３５ＫＶ腰山变电站１０ＫＶ５２１辛庄线路辛庄３７３０公变台区停电【变更送电】因抢修进度加快原因，送电时间由１２：００变更为１１：００【发布渠道】通过９５５９８发布","powerOffId":"2019112713000321"},{"poweroffId":2019112713000300,"sgpoweroffId":null,"subsName":"","lineName":"10kV上车亭526","pubTranName":"安家洼村配变,北西租022-1,西租村内变压器,东租村内台区变压器,","scope":"【影响街道/乡镇】涞水镇、东文山乡 【高危重要客户】无 【影响客户】西租村、北西租村、安家洼村、东租村","startTime":"2019-12-08 07:00:00","stopDate":"2019-12-08 17:00:00","orgNo":"1340614","typeCode":"计划停电","poweroffArea":"【全线路停电】停安家洼村配变,北西租022-1,西租村内变压器,东租村内台区变压器","poweroffReason":"【停电原因】由于更换电杆导致１１０ＫＶ涞水变电站１０ＫＶ上车亭５２６线路全线停电 【变更送电】无 【发布渠道】保定市涞水电视台（１１月２８日１２时至１２月０７日２３时之间）屏幕上方滚动","powerTime":"2019-12-08 16:39:20","powerComm":"已送电","subsNo":"","lineNo":"","tgNo":"","tgName":null,"infoStatus":"1","orgName":"国网涞水县供电公司","typeName":null,"infoStatusName":null,"dateDay":null,"orgNos":null,"nowTime":null,"countyName":null,"streetName":null,"villageName":null,"roadName":null,"communityName":null,"tranName":null,"sdLineName":null,"cityCode":"1340614","cityName":"国网涞水县供电公司","provinceCode":null,"stopTime":"2019-12-08 17:00:00","powerType":"全部","powerOffArea":"【全线路停电】停安家洼村配变,北西租022-1,西租村内变压器,东租村内台区变压器","powerOffReason":"【停电原因】由于更换电杆导致１１０ＫＶ涞水变电站１０ＫＶ上车亭５２６线路全线停电 【变更送电】无 【发布渠道】保定市涞水电视台（１１月２８日１２时至１２月０７日２３时之间）屏幕上方滚动","powerOffId":"2019112713000300"},{"poweroffId":2019112713000294,"sgpoweroffId":null,"subsName":"","lineName":"10KV檀山512","pubTranName":"南庞村东变压器,坛山村内变压器,二十里铺村东北,丛西村中台区,铺头村南,行宫北（内）台区变压器,北秋兰村西,","scope":"【影响街道/乡镇】永阳镇 【高危重要客户】无 【影响客户】北秋兰村、丛西村、檀山村、南庞村、铺头村、行宫村、二十里铺村","startTime":"2019-12-07 07:00:00","stopDate":"2019-12-07 17:00:00","orgNo":"1340614","typeCode":"计划停电","poweroffArea":"【全线路停电】停北秋兰村西,南庞村东变压器,坛山村内变压器,二十里铺村东北,丛西村中台区,铺头村南,行宫北（内）台区变压器","poweroffReason":"【停电原因】由于更换电缆导致３５ＫＶ明义变电站１０ＫＶ檀山５１２线路全线停电 【变更送电】无 【发布渠道】保定市涞水电视台（１１月２８日１２时至１２月０６日２３时之间）屏幕上方滚动","powerTime":"2019-12-07 16:52:42","powerComm":"已送电","subsNo":"","lineNo":"","tgNo":"","tgName":null,"infoStatus":"1","orgName":"国网涞水县供电公司","typeName":null,"infoStatusName":null,"dateDay":null,"orgNos":null,"nowTime":null,"countyName":null,"streetName":null,"villageName":null,"roadName":null,"communityName":null,"tranName":null,"sdLineName":null,"cityCode":"1340614","cityName":"国网涞水县供电公司","provinceCode":null,"stopTime":"2019-12-07 17:00:00","powerType":"全部","powerOffArea":"【全线路停电】停北秋兰村西,南庞村东变压器,坛山村内变压器,二十里铺村东北,丛西村中台区,铺头村南,行宫北（内）台区变压器","powerOffReason":"【停电原因】由于更换电缆导致３５ＫＶ明义变电站１０ＫＶ檀山５１２线路全线停电 【变更送电】无 【发布渠道】保定市涞水电视台（１１月２８日１２时至１２月０６日２３时之间）屏幕上方滚动","powerOffId":"2019112713000294"},{"poweroffId":2019112713000284,"sgpoweroffId":null,"subsName":"","lineName":"10kV东文山517","pubTranName":"南兵上村西台区变压器,南七山混用,淮河东台变压器,北七山村东北变压器,东文山东台,北兵上村内台区变压器,西武山村南变压器,东长堤村西台区变压器,牛各庄村西变压器,上车亭村西南变压器,西长堤村西台区变压器,","scope":"【影响街道/乡镇】东文山乡 【高危重要客户】无 【影响客户】南兵上村、北兵上村、东文山村东、西武山村、淮河村、南七山村、北七山村、东长堤村、西长堤村、牛各庄村、上车亭村南及西南用户","startTime":"2019-12-07 07:00:00","stopDate":"2019-12-07 17:00:00","orgNo":"1340614","typeCode":"计划停电","poweroffArea":"【全线路停电】停南兵上村西台区变压器,南七山混用,淮河东台变压器,北七山村东北变压器,东文山东台,北兵上村内台区变压器,西武山村南变压器,东长堤村西台区变压器,牛各庄村西变压器,上车亭村西南变压器,西长堤村西台区变压器","poweroffReason":"【停电原因】由于更换导线导致１１０ＫＶ涞水变电站１０ＫＶ东文山５１７线路全线停电 【变更送电】无 【发布渠道】保定市涞水县电视台（１１月２８日１２时至１２月０６日２３时之间）屏幕上方滚动","powerTime":"2019-12-07 16:53:38","powerComm":"已送电","subsNo":"","lineNo":"","tgNo":"","tgName":null,"infoStatus":"1","orgName":"国网涞水县供电公司","typeName":null,"infoStatusName":null,"dateDay":null,"orgNos":null,"nowTime":null,"countyName":null,"streetName":null,"villageName":null,"roadName":null,"communityName":null,"tranName":null,"sdLineName":null,"cityCode":"1340614","cityName":"国网涞水县供电公司","provinceCode":null,"stopTime":"2019-12-07 17:00:00","powerType":"全部","powerOffArea":"【全线路停电】停南兵上村西台区变压器,南七山混用,淮河东台变压器,北七山村东北变压器,东文山东台,北兵上村内台区变压器,西武山村南变压器,东长堤村西台区变压器,牛各庄村西变压器,上车亭村西南变压器,西长堤村西台区变压器","powerOffReason":"【停电原因】由于更换导线导致１１０ＫＶ涞水变电站１０ＫＶ东文山５１７线路全线停电 【变更送电】无 【发布渠道】保定市涞水县电视台（１１月２８日１２时至１２月０６日２３时之间）屏幕上方滚动","powerOffId":"2019112713000284"},{"poweroffId":2019112713000266,"sgpoweroffId":null,"subsName":"","lineName":"备用549","pubTranName":"三粮店公变变压器,新运处公变变压器,电务处变压器,土地局,新运处2,东市场公变变压器,","scope":"【影响街道/乡镇】和平西路、老广播局胡同、和顺胡同、兴华北结、京广北大街、站北胡同、和欢胡同、和睦胡同、和悦胡同、和乐胡同 【高危重要客户】无 【影响客户】东市场、土地局、三粮店家属楼、电务处家属楼、新运出家属楼、五处家属楼","startTime":"2019-11-27 16:16:24","stopDate":"2019-11-27 20:00:00","orgNo":"1340612","typeCode":"电网故障停限电","poweroffArea":"【分支停电】停三粮店公变变压器,新运处公变变压器,电务处变压器,土地局,新运处2,东市场公变变压器","poweroffReason":"【停电原因】由于铁运处变压器烧毁导致１１０ＫＶ方家务变电站１０ＫＶ备用５４９线路０４号断路器以下停电 【变更送电】因抢修进度加快原因，送电时间由２３：５９变更为２０：００ 【发布渠道】通过９５５９８发布","powerTime":"2019-11-27 19:26:19","powerComm":"已送电","subsNo":"","lineNo":"","tgNo":"","tgName":null,"infoStatus":"1","orgName":"国网高碑店市供电公司","typeName":null,"infoStatusName":null,"dateDay":null,"orgNos":null,"nowTime":null,"countyName":null,"streetName":null,"villageName":null,"roadName":null,"communityName":null,"tranName":null,"sdLineName":null,"cityCode":"1340612","cityName":"国网高碑店市供电公司","provinceCode":null,"stopTime":"2019-11-27 20:00:00","powerType":"全部","powerOffArea":"【分支停电】停三粮店公变变压器,新运处公变变压器,电务处变压器,土地局,新运处2,东市场公变变压器","powerOffReason":"【停电原因】由于铁运处变压器烧毁导致１１０ＫＶ方家务变电站１０ＫＶ备用５４９线路０４号断路器以下停电 【变更送电】因抢修进度加快原因，送电时间由２３：５９变更为２０：００ 【发布渠道】通过９５５９８发布","powerOffId":"2019112713000266"},{"poweroffId":2019112713000161,"sgpoweroffId":null,"subsName":"","lineName":"大龙华线517","pubTranName":"国网河北电动汽车服务有限公司（南）,赵家沟村3#|村中,大龙华村4#|村东,小寨村1#|村南,大龙华宿舍楼,尧舜口村1#|村中,东三里铺村1#|村中,东三里铺2#,东三里铺村9#变压器,小寨村4#村南,大龙华村7#,马兰台村2#村南,小龙华村3#,马兰台村4#村中,尧舜口村8#,野里店村村北2#,东三里铺村8#变压器,大龙华村8#,尧舜口村4#村东,小龙华村1#|村东,小寨村3#|村西,赵家沟村6#变压器,东三里铺3#,大龙华村3#|村东,赵家沟村4#|村北,刘家沟村2#|村中,大龙华村9#,刘家沟村6#村中,野里店3#变压器,小龙华村5#变压器,东三里铺村5#村南,小寨村2#|村中,国网河北电动汽车服务有限公司（北）,马兰台村1#|村中,河北村2#|村西,刘家沟村3#|村西,马兰台村3#村南,野里店村1#|村西,小寨村5#,刘家沟村5#村南,刘家沟村8#村南,小寨村6#,尧舜口村5#村南,刘家沟村9#,东三里铺村7#变压器,大龙华村2#|村北,大龙华6#村北,河北村1#|村东,小龙华村2#|村西,刘家沟村11#变压器,大龙华5#,大龙华村1#|村南,尧舜口村10#,东三里铺村4#村中,尧舜口村3#|村东,酸枣沟村1#|村北,刘家沟村1#|村南,刘家沟村4#|村北,赵家沟村1#|村南,小龙华村4#,赵家沟村2#|村中,酸枣沟村3#村东,尧舜口村9#,刘家沟村7#村北,酸枣沟村2#|村南,河北村3#村南,赵家沟村5#,","scope":"【影响街道/乡镇】大龙华乡【高危重要客户】无【影响客户】大龙华村、小龙华村、酸枣沟村、小寨村、野里店村、马兰台村、东三里铺村、赵家沟村、刘家沟村、尧舜口村、河北村","startTime":"2019-11-27 13:16:49","stopDate":"2019-11-27 16:30:00","orgNo":"1340625","typeCode":"电网故障停限电","poweroffArea":"【全线路停电】停大龙华村2#|村北,大龙华6#村北,大龙华5#,大龙华中心小学1250KVA,大龙华村4#|村东,尧舜口村1#|村中,东三里铺村1#|村中,大龙华教学点100KVA,尧舜口村8#,刘家沟村6#村中,易县天成纸业有限公司200KVA,东三里铺2#,易县大龙华乡卫生院变压器,马兰台村4#村中,东三里铺村5#村南,小寨村2#|村中,易县顺和水泥制品厂,国网河北电动汽车服务有限公司（北）,东三里铺村6#【纯农排变】,河北村2#|村西,刘家沟村3#|村西,0546378218-安格庄供电所-专变-47851693-安格庄供电所,尧舜口村7#【纯农排变】,小龙华村2#|村西,马兰台村3#村南,野里店村1#|村西,小寨村5#,马兰台村5#村西【纯农排变】,先创易成矿山开采有限公司250,刘家沟村5#村南,小寨村6#,易县鑫良建材销售有限公司B500,刘家沟村9#,小龙华村1#|村东,国网河北电动汽车服务有限公司（南）,易县龙华百姓水泥制品销售处变压器,龙华乡政府,小寨村1#|村南,刘家沟村10#【纯农排变】,大龙华宿舍楼,小寨村4#村南,大龙华村7#,大龙华新建饭店,大龙华水泥砖厂(廉力),野里店村村北2#,易县腾辉矿产建材有限公司630,展鹏铁砂厂(2#),东三里铺村8#变压器,天成纸业有限公司(80KVA),小龙华村委会5号200,东三里铺村委会1号100,易县金景盛矿业有限公司变压器4,小龙华村委会3号50,天成纸业有限公司(1000KVA),大龙华村8#,中国移动通讯集团河北有限公司易县分公司,野里店3#变压器,易县金景盛矿业有限公司变压器1,东三里铺村9#变压器,马兰台村2#村南,华侨陵园,易县金景盛矿业有限公司变压器5,易县金景盛矿业有限公司变压器7,小龙华村3#,小龙华村5#变压器,马兰台村1#|村中,刘家沟村4#|村北,变压器,河北村3#村南,易县东正商品混凝土有限公司2,大龙华村9#,易县先创易成矿山开采有限公司1250,刘家沟村8#村南,高碑店市建筑企业（集团）公司变压器315,尧舜口村6#机井【纯农排变】,尧舜口村5#村南,东三里铺村2号100,0469486331-易县云蒙山石材厂-专变-46819944-易县玉泉山石材有限公司,小龙华村委会2号50,易县金景盛矿业有限公司变压器2,高碑店市建筑企业（集团）公司变压器630,易县东正商品混凝土有限公司1,赵家沟村3#|村中,尧舜口村4#村东,小寨村3#|村西,易县金景盛矿业有限公司变压器8,大龙华中心小学100KVA,赵家沟村6#变压器,东三里铺3#,大龙华村3#|村东,赵家沟村4#|村北,刘家沟村2#|村中,北头村佟建军变压器,小龙华村委会4号50,大龙华村1#|村南,尧舜口村10#,酸枣沟村1#|村北,刘家沟村1#|村南,酸枣沟村3#村东,易县腾辉矿产建材有限公司变压器,东三里铺村4#村中,泥瓦铺村郝春友160KVA,尧舜口村3#|村东,赵家沟村1#|村南,易县鑫良建材销售有限公司A500,赵家沟村2#|村中,易县鑫良建材销售有限公司C250,易县易源光伏电力开发有限公司160KVA,河北圣煌电力安装工程有限公司200,酸枣沟村2#|村南,赵家沟村5#,河北村1#|村东,易县大龙华服装厂,易县金景盛矿业有限公司变压器6,刘家沟村11#变压器,小龙华村4#,易县先创建材有限公司250,小龙华小学200KVA,尧舜口村9#,刘家沟村7#村北,易县聚峰园鱼饲养农民专业合作社变压器,易县金景盛矿业有限公司变压器3,东三里铺村7#变压器","poweroffReason":"【停电原因】由于Ｂ相接地导致１１０ＫＶ西陵变电站大龙华线５１７线路全线停电【变更送电】因抢修进度加快原因，送电时间由１８：００变更为１６：３０【发布渠道】通过９５５９８发布","powerTime":"2019-11-27 16:07:19","powerComm":"已送电","subsNo":"","lineNo":"","tgNo":"","tgName":null,"infoStatus":"1","orgName":"国网易县供电公司","typeName":null,"infoStatusName":null,"dateDay":null,"orgNos":null,"nowTime":null,"countyName":null,"streetName":null,"villageName":null,"roadName":null,"communityName":null,"tranName":null,"sdLineName":null,"cityCode":"1340625","cityName":"国网易县供电公司","provinceCode":null,"stopTime":"2019-11-27 16:30:00","powerType":"全部","powerOffArea":"【全线路停电】停大龙华村2#|村北,大龙华6#村北,大龙华5#,大龙华中心小学1250KVA,大龙华村4#|村东,尧舜口村1#|村中,东三里铺村1#|村中,大龙华教学点100KVA,尧舜口村8#,刘家沟村6#村中,易县天成纸业有限公司200KVA,东三里铺2#,易县大龙华乡卫生院变压器,马兰台村4#村中,东三里铺村5#村南,小寨村2#|村中,易县顺和水泥制品厂,国网河北电动汽车服务有限公司（北）,东三里铺村6#【纯农排变】,河北村2#|村西,刘家沟村3#|村西,0546378218-安格庄供电所-专变-47851693-安格庄供电所,尧舜口村7#【纯农排变】,小龙华村2#|村西,马兰台村3#村南,野里店村1#|村西,小寨村5#,马兰台村5#村西【纯农排变】,先创易成矿山开采有限公司250,刘家沟村5#村南,小寨村6#,易县鑫良建材销售有限公司B500,刘家沟村9#,小龙华村1#|村东,国网河北电动汽车服务有限公司（南）,易县龙华百姓水泥制品销售处变压器,龙华乡政府,小寨村1#|村南,刘家沟村10#【纯农排变】,大龙华宿舍楼,小寨村4#村南,大龙华村7#,大龙华新建饭店,大龙华水泥砖厂(廉力),野里店村村北2#,易县腾辉矿产建材有限公司630,展鹏铁砂厂(2#),东三里铺村8#变压器,天成纸业有限公司(80KVA),小龙华村委会5号200,东三里铺村委会1号100,易县金景盛矿业有限公司变压器4,小龙华村委会3号50,天成纸业有限公司(1000KVA),大龙华村8#,中国移动通讯集团河北有限公司易县分公司,野里店3#变压器,易县金景盛矿业有限公司变压器1,东三里铺村9#变压器,马兰台村2#村南,华侨陵园,易县金景盛矿业有限公司变压器5,易县金景盛矿业有限公司变压器7,小龙华村3#,小龙华村5#变压器,马兰台村1#|村中,刘家沟村4#|村北,变压器,河北村3#村南,易县东正商品混凝土有限公司2,大龙华村9#,易县先创易成矿山开采有限公司1250,刘家沟村8#村南,高碑店市建筑企业（集团）公司变压器315,尧舜口村6#机井【纯农排变】,尧舜口村5#村南,东三里铺村2号100,0469486331-易县云蒙山石材厂-专变-46819944-易县玉泉山石材有限公司,小龙华村委会2号50,易县金景盛矿业有限公司变压器2,高碑店市建筑企业（集团）公司变压器630,易县东正商品混凝土有限公司1,赵家沟村3#|村中,尧舜口村4#村东,小寨村3#|村西,易县金景盛矿业有限公司变压器8,大龙华中心小学100KVA,赵家沟村6#变压器,东三里铺3#,大龙华村3#|村东,赵家沟村4#|村北,刘家沟村2#|村中,北头村佟建军变压器,小龙华村委会4号50,大龙华村1#|村南,尧舜口村10#,酸枣沟村1#|村北,刘家沟村1#|村南,酸枣沟村3#村东,易县腾辉矿产建材有限公司变压器,东三里铺村4#村中,泥瓦铺村郝春友160KVA,尧舜口村3#|村东,赵家沟村1#|村南,易县鑫良建材销售有限公司A500,赵家沟村2#|村中,易县鑫良建材销售有限公司C250,易县易源光伏电力开发有限公司160KVA,河北圣煌电力安装工程有限公司200,酸枣沟村2#|村南,赵家沟村5#,河北村1#|村东,易县大龙华服装厂,易县金景盛矿业有限公司变压器6,刘家沟村11#变压器,小龙华村4#,易县先创建材有限公司250,小龙华小学200KVA,尧舜口村9#,刘家沟村7#村北,易县聚峰园鱼饲养农民专业合作社变压器,易县金景盛矿业有限公司变压器3,东三里铺村7#变压器","powerOffReason":"【停电原因】由于Ｂ相接地导致１１０ＫＶ西陵变电站大龙华线５１７线路全线停电【变更送电】因抢修进度加快原因，送电时间由１８：００变更为１６：３０【发布渠道】通过９５５９８发布","powerOffId":"2019112713000161"},{"poweroffId":2019112713000148,"sgpoweroffId":null,"subsName":"","lineName":"井尔峪线511","pubTranName":"井尔峪村3#,","scope":"【影响街道/乡镇】高村乡【高危重要客户】无【影响客户】井尔峪村","startTime":"2019-12-03 06:00:00","stopDate":"2019-12-03 10:00:00","orgNo":"1340625","typeCode":"临时停电","poweroffArea":"【单台区停电】停井尔峪村3#","poweroffReason":"【停电原因】由于增容梯接导致１１０ＫＶ西陵变电站井尔峪５１１线路井尔峪村３＃公变台区停电【变更送电】无【发布渠道】通过９５５９８发布","powerTime":"2019-12-03 09:31:33","powerComm":"已送电","subsNo":"","lineNo":"","tgNo":"","tgName":null,"infoStatus":"1","orgName":"国网易县供电公司","typeName":null,"infoStatusName":null,"dateDay":null,"orgNos":null,"nowTime":null,"countyName":null,"streetName":null,"villageName":null,"roadName":null,"communityName":null,"tranName":null,"sdLineName":null,"cityCode":"1340625","cityName":"国网易县供电公司","provinceCode":null,"stopTime":"2019-12-03 10:00:00","powerType":"全部","powerOffArea":"【单台区停电】停井尔峪村3#","powerOffReason":"【停电原因】由于增容梯接导致１１０ＫＶ西陵变电站井尔峪５１１线路井尔峪村３＃公变台区停电【变更送电】无【发布渠道】通过９５５９８发布","powerOffId":"2019112713000148"},{"poweroffId":2019112713000143,"sgpoweroffId":null,"subsName":"","lineName":"大巨线512","pubTranName":"涞山村6#,10kV东邵514线路涞山11号变压器,涞山村3#,10kV东邵514线路涞山10号变压器,南韩村1#配变【纯农排变】,","scope":"【影响街道/乡镇】凌云册乡【高危重要客户】无【影响客户】涞山村、南韩村","startTime":"2019-12-06 06:00:00","stopDate":"2019-12-06 10:00:00","orgNo":"1340625","typeCode":"计划停电","poweroffArea":"【分支停电】停涞山村6#,10kV东邵514线路涞山11号变压器,涞山村3#,10kV东邵514线路涞山10号变压器,南韩村1#配变【纯农排变】,赵洪涛板厂","poweroffReason":"【停电原因】由于增容梯接导致３５ＫＶ凌云册变电站大巨５１２线路南韩村１＃机井分支００１号杆０１号刀闸以下线路停电【变更送电】无【发布渠道】保定市易县电视台（１１月２８日００时至１２月０５日２４时之间）下方滚动。","powerTime":"2019-12-06 09:33:17","powerComm":"已送电","subsNo":"","lineNo":"","tgNo":"","tgName":null,"infoStatus":"1","orgName":"国网易县供电公司","typeName":null,"infoStatusName":null,"dateDay":null,"orgNos":null,"nowTime":null,"countyName":null,"streetName":null,"villageName":null,"roadName":null,"communityName":null,"tranName":null,"sdLineName":null,"cityCode":"1340625","cityName":"国网易县供电公司","provinceCode":null,"stopTime":"2019-12-06 10:00:00","powerType":"全部","powerOffArea":"【分支停电】停涞山村6#,10kV东邵514线路涞山11号变压器,涞山村3#,10kV东邵514线路涞山10号变压器,南韩村1#配变【纯农排变】,赵洪涛板厂","powerOffReason":"【停电原因】由于增容梯接导致３５ＫＶ凌云册变电站大巨５１２线路南韩村１＃机井分支００１号杆０１号刀闸以下线路停电【变更送电】无【发布渠道】保定市易县电视台（１１月２８日００时至１２月０５日２４时之间）下方滚动。","powerOffId":"2019112713000143"}],"pageModel":{"pageNow":352,"totalCount":10973,"totalPage":1098,"tableRows":0,"pageCount":10,"beginCount":3510},"isExperi":"1"}