{"message":"","today":"2020-06-15","seleList":[{"poweroffId":2019112713000097,"sgpoweroffId":null,"subsName":"","lineName":"10kV519仉村线","pubTranName":"仉村综合4台区,仉村和盛家园综合1台区,仉村综合2台区,仉村农排2台区【纯农排变】,仉村综合9台区,仉村综合7台区,仉村综合6台区,仉村农排12台区【纯农排变】,北辛庄农排4台区【纯农排变】,仉村综合10台区,仉村农排1台区【纯农排变】,仉村综合1台区,仉村农排5台区【纯农排变】,仉村综合5台区,仉村综合11台区,仉村综合3台区,仉村农排3台区【纯农排变】,仉村综合12台区,仉村综合8台区,","scope":"【影响街道/乡镇】蠡吾镇【高危重要客户】无【影响客户】仉村","startTime":"2019-11-27 10:17:03","stopDate":"2019-11-27 19:20:00","orgNo":"1340616","typeCode":"电网故障停限电","poweroffArea":"【全线路停电】停仉村综合1台区,仉村综合3台区,仉村综合5台区,沈三开东院南,仉村农排3台区【纯农排变】,家乐面粉厂,艺涛板厂,仉村农排15台区【纯农排变】,仉村综合12台区,仉村农排10台区【纯农排变】,仉村综合6台区,蠡县斌合粮食农民专业合作社,仉村农排14台区【纯农排变】,养牛场,蠡县中滑精工纸管厂变压器,北辛庄砖厂,沈三开东院北,仉村综合8台区,仉村农排4台区【纯农排变】,仉村农排16台区【纯农排变】,仉村农排11台区【纯农排变】,沈三开北院西,保定佐三川电工有限公司,蠡县宏德免烧砖加工厂变压器,仉村综合4台区,仉村和盛家园综合1台区,仉村综合2台区,仉村农排2台区【纯农排变】,仉村综合9台区,仉村综合7台区,仉村农排1台区【纯农排变】,河北蓝琪生物科技有限公司,仉村农排12台区【纯农排变】,张新朝,仉村农排6台区【纯农排变】,蠡县泰丰织布有限公司变压器,仉村农排8台区【纯农排变】,河北朝日瑞琪生物科技有限公司,恒信木制品厂,北辛庄农排4台区【纯农排变】,沈三开西院,沈三开北院东,仉村综合10台区,火化厂,仉村农排13台区【纯农排变】,中国移动通信集团河北有限公司蠡县分公司变压器,蠡县聚力新型材料制造有限公司,仉村农排5台区【纯农排变】,河北超烁路桥工程有限公司变压器,仉村综合11台区,河北朝日瑞琪生物科技有限公司变压器,变压器,仉村农排7台区【纯农排变】","poweroffReason":"【停电原因】由于站内开关掉闸导致３５ＫＶ王庄变电站１０ＫＶ仉村５１９线路全线停电【变更送电】因抢修进度加快原因，送电时间由２３：５０变更为：１９:２０【发布渠道】通过９５５９８发布","powerTime":"2019-11-27 18:54:30","powerComm":"已送电","subsNo":"","lineNo":"","tgNo":"","tgName":null,"infoStatus":"1","orgName":"国网蠡县供电公司","typeName":null,"infoStatusName":null,"dateDay":null,"orgNos":null,"nowTime":null,"countyName":null,"streetName":null,"villageName":null,"roadName":null,"communityName":null,"tranName":null,"sdLineName":null,"cityCode":"1340616","cityName":"国网蠡县供电公司","provinceCode":null,"stopTime":"2019-11-27 19:20:00","powerType":"全部","powerOffArea":"【全线路停电】停仉村综合1台区,仉村综合3台区,仉村综合5台区,沈三开东院南,仉村农排3台区【纯农排变】,家乐面粉厂,艺涛板厂,仉村农排15台区【纯农排变】,仉村综合12台区,仉村农排10台区【纯农排变】,仉村综合6台区,蠡县斌合粮食农民专业合作社,仉村农排14台区【纯农排变】,养牛场,蠡县中滑精工纸管厂变压器,北辛庄砖厂,沈三开东院北,仉村综合8台区,仉村农排4台区【纯农排变】,仉村农排16台区【纯农排变】,仉村农排11台区【纯农排变】,沈三开北院西,保定佐三川电工有限公司,蠡县宏德免烧砖加工厂变压器,仉村综合4台区,仉村和盛家园综合1台区,仉村综合2台区,仉村农排2台区【纯农排变】,仉村综合9台区,仉村综合7台区,仉村农排1台区【纯农排变】,河北蓝琪生物科技有限公司,仉村农排12台区【纯农排变】,张新朝,仉村农排6台区【纯农排变】,蠡县泰丰织布有限公司变压器,仉村农排8台区【纯农排变】,河北朝日瑞琪生物科技有限公司,恒信木制品厂,北辛庄农排4台区【纯农排变】,沈三开西院,沈三开北院东,仉村综合10台区,火化厂,仉村农排13台区【纯农排变】,中国移动通信集团河北有限公司蠡县分公司变压器,蠡县聚力新型材料制造有限公司,仉村农排5台区【纯农排变】,河北超烁路桥工程有限公司变压器,仉村综合11台区,河北朝日瑞琪生物科技有限公司变压器,变压器,仉村农排7台区【纯农排变】","powerOffReason":"【停电原因】由于站内开关掉闸导致３５ＫＶ王庄变电站１０ＫＶ仉村５１９线路全线停电【变更送电】因抢修进度加快原因，送电时间由２３：５０变更为：１９:２０【发布渠道】通过９５５９８发布","powerOffId":"2019112713000097"},{"poweroffId":2019112713000091,"sgpoweroffId":null,"subsName":"","lineName":"10kV514王庄农业线","pubTranName":"郭庄综合2台区,王庄板厂,东南街农排4台区【纯农排变】,王庄冷库,贾庄农排4台区【纯农排变】,郭庄农排2台区【纯农排变】,0469338209-王庄东二台-专变-46778813-王庄东二,王庄综合3台区,贾庄冰袋,保定中瑞胶带制造有限公司,贾庄综合2台区514,八里庄塑料厂,贾庄庆祥,敬老院,蠡县万隆煤炭销售有限公司变压器,梁庄综合1台区514,蠡县宇大公路工程材料供应处,蠡县橡胶厂,王庄综合2台区,0667401862-蠡县伏羲砂石料厂-专变-208425925-蠡县伏羲砂石料厂,0660806400-河北英达物流有限公司-专变-195782521-河北英达物流有限公司,王庄综合4台区,东南街农排3台区【纯农排变】,贾庄农排3台区【纯农排变】,道桥养护,保定博新橡胶机带有限公司变压器,郭庄农排1台区【纯农排变】,蠡县王庄边立织布厂变压器,王庄农排5台区【纯农排变】,梁庄农排1台区514【纯农排变】,贾庄农排2台区514【纯农排变】,龙辉,梁庄综合3台区514,王庄村里冰袋,王庄农用,贾庄浇地,南忠卫农排10台区【纯农排变】,南忠卫农排16台区【纯农排变】,河北蠡县新城毛纺有限公司变压器,保定强胜水利工程有公司变压器,王庄农排3台区【纯农排变】新乡,王庄农排1台区【纯农排变】新乡,蠡县橡胶厂变压器,蠡县远鸿纺织有限公司,蠡县正鑫煤炭购销有限公司,贾庄综合1台区514,王庄农排2台区【纯农排变】新乡,盛隆纺纱厂变压器,王庄综合1台区,郭庄综合1台区,王庄开花厂变压器,王庄综合5台区【冬季采暖设施】,王庄东一,南关鸡厂,蠡县梁庄扎花厂变压器,贾庄综合4台区[纯农排变】,梁庄综合2台区514,郭庄综合3台区,河北沈三开电器制造有限公司变压器,环形带,贾庄农排1台区514【纯农排变】,大华纺织厂变压器,河北长瑞商品混凝土有限公司变压器,南忠卫农排15台区【纯农排变】,锅炉房,保定中瑞胶带制造有限公司变压器,王庄浇地,王庄路灯,贾庄综合3台区514,蠡县郭庄冷雪冷食厂变压器,小刚农用,河北中北橡胶机带有限公司变压器,德茂装卸站,正鑫煤厂,王庄农排4台区【纯农排变】新乡,郭庄农排3台区【纯农排变】,0667908594-河北太平洋危货储运销售有限公司-专变-208448641-河北太平洋危货储运销售有限公司变压器,王庄面粉厂,","scope":"【影响街道/乡镇】蠡吾镇【高危重要客户】无【影响客户】贾庄村、王庄村、梁庄村、郭庄村","startTime":"2019-11-27 10:12:38","stopDate":"2019-11-27 12:00:00","orgNo":"1340616","typeCode":"电网故障停限电","poweroffArea":"【全线路停电】停梁庄综合2台区514,贾庄综合4台区[纯农排变】,郭庄综合2台区,南忠卫农排10台区【纯农排变】,河北蠡县新城毛纺有限公司变压器,正鑫煤厂,蠡县梁庄扎花厂变压器,0667401862-蠡县伏羲砂石料厂-专变-208425925-蠡县伏羲砂石料厂,王庄村里冰袋,王庄农排2台区【纯农排变】新乡,小刚农用,王庄冷库,王庄面粉厂,锅炉房,贾庄农排1台区514【纯农排变】,贾庄综合2台区514,梁庄农排1台区514【纯农排变】,蠡县万隆煤炭销售有限公司变压器,河北中北橡胶机带有限公司变压器,王庄综合2台区,贾庄农排2台区514【纯农排变】,南忠卫农排16台区【纯农排变】,环形带,0660806400-河北英达物流有限公司-专变-195782521-河北英达物流有限公司,蠡县远鸿纺织有限公司,河北沈三开电器制造有限公司变压器,南忠卫农排15台区【纯农排变】,王庄东一,蠡县橡胶厂变压器,王庄浇地,贾庄农排3台区【纯农排变】,0469338209-王庄东二台-专变-46778813-王庄东二,大华纺织厂变压器,蠡县郭庄冷雪冷食厂变压器,王庄板厂,郭庄综合1台区,蠡县王庄边立织布厂变压器,保定中瑞胶带制造有限公司变压器,贾庄综合1台区514,梁庄综合1台区514,德茂装卸站,八里庄塑料厂,王庄农排4台区【纯农排变】新乡,王庄农排1台区【纯农排变】新乡,王庄综合5台区【冬季采暖设施】,王庄开花厂变压器,梁庄综合3台区514,保定中瑞胶带制造有限公司,王庄农排5台区【纯农排变】,郭庄综合3台区,0667908594-河北太平洋危货储运销售有限公司-专变-208448641-河北太平洋危货储运销售有限公司变压器,郭庄农排1台区【纯农排变】,王庄路灯,王庄农排3台区【纯农排变】新乡,王庄综合4台区,贾庄冰袋,王庄农用,敬老院,贾庄综合3台区514,东南街农排3台区【纯农排变】,贾庄庆祥,蠡县正鑫煤炭购销有限公司,南关鸡厂,保定博新橡胶机带有限公司变压器,王庄综合3台区,王庄综合1台区,河北长瑞商品混凝土有限公司变压器,东南街农排4台区【纯农排变】,龙辉,郭庄农排3台区【纯农排变】,蠡县宇大公路工程材料供应处,贾庄农排4台区【纯农排变】,贾庄浇地,蠡县橡胶厂,道桥养护,盛隆纺纱厂变压器,郭庄农排2台区【纯农排变】,保定强胜水利工程有公司变压器","poweroffReason":"【停电原因】由于站内开关掉闸导致３５ＫＶ王庄变电站１０ＫＶ王庄农业５１４线路全线停电【变更送电】因抢修进度加快原因，送电时间由１６：００变更为１２：００【发布渠道】通过９５５９８发布","powerTime":"2019-11-27 11:43:50","powerComm":"已送电","subsNo":"","lineNo":"","tgNo":"","tgName":null,"infoStatus":"1","orgName":"国网蠡县供电公司","typeName":null,"infoStatusName":null,"dateDay":null,"orgNos":null,"nowTime":null,"countyName":null,"streetName":null,"villageName":null,"roadName":null,"communityName":null,"tranName":null,"sdLineName":null,"cityCode":"1340616","cityName":"国网蠡县供电公司","provinceCode":null,"stopTime":"2019-11-27 12:00:00","powerType":"全部","powerOffArea":"【全线路停电】停梁庄综合2台区514,贾庄综合4台区[纯农排变】,郭庄综合2台区,南忠卫农排10台区【纯农排变】,河北蠡县新城毛纺有限公司变压器,正鑫煤厂,蠡县梁庄扎花厂变压器,0667401862-蠡县伏羲砂石料厂-专变-208425925-蠡县伏羲砂石料厂,王庄村里冰袋,王庄农排2台区【纯农排变】新乡,小刚农用,王庄冷库,王庄面粉厂,锅炉房,贾庄农排1台区514【纯农排变】,贾庄综合2台区514,梁庄农排1台区514【纯农排变】,蠡县万隆煤炭销售有限公司变压器,河北中北橡胶机带有限公司变压器,王庄综合2台区,贾庄农排2台区514【纯农排变】,南忠卫农排16台区【纯农排变】,环形带,0660806400-河北英达物流有限公司-专变-195782521-河北英达物流有限公司,蠡县远鸿纺织有限公司,河北沈三开电器制造有限公司变压器,南忠卫农排15台区【纯农排变】,王庄东一,蠡县橡胶厂变压器,王庄浇地,贾庄农排3台区【纯农排变】,0469338209-王庄东二台-专变-46778813-王庄东二,大华纺织厂变压器,蠡县郭庄冷雪冷食厂变压器,王庄板厂,郭庄综合1台区,蠡县王庄边立织布厂变压器,保定中瑞胶带制造有限公司变压器,贾庄综合1台区514,梁庄综合1台区514,德茂装卸站,八里庄塑料厂,王庄农排4台区【纯农排变】新乡,王庄农排1台区【纯农排变】新乡,王庄综合5台区【冬季采暖设施】,王庄开花厂变压器,梁庄综合3台区514,保定中瑞胶带制造有限公司,王庄农排5台区【纯农排变】,郭庄综合3台区,0667908594-河北太平洋危货储运销售有限公司-专变-208448641-河北太平洋危货储运销售有限公司变压器,郭庄农排1台区【纯农排变】,王庄路灯,王庄农排3台区【纯农排变】新乡,王庄综合4台区,贾庄冰袋,王庄农用,敬老院,贾庄综合3台区514,东南街农排3台区【纯农排变】,贾庄庆祥,蠡县正鑫煤炭购销有限公司,南关鸡厂,保定博新橡胶机带有限公司变压器,王庄综合3台区,王庄综合1台区,河北长瑞商品混凝土有限公司变压器,东南街农排4台区【纯农排变】,龙辉,郭庄农排3台区【纯农排变】,蠡县宇大公路工程材料供应处,贾庄农排4台区【纯农排变】,贾庄浇地,蠡县橡胶厂,道桥养护,盛隆纺纱厂变压器,郭庄农排2台区【纯农排变】,保定强胜水利工程有公司变压器","powerOffReason":"【停电原因】由于站内开关掉闸导致３５ＫＶ王庄变电站１０ＫＶ王庄农业５１４线路全线停电【变更送电】因抢修进度加快原因，送电时间由１６：００变更为１２：００【发布渠道】通过９５５９８发布","powerOffId":"2019112713000091"},{"poweroffId":2019112713000087,"sgpoweroffId":null,"subsName":"","lineName":"10kV515育才路线","pubTranName":"育才路综合7台区,育才路综合4台区,育才路综合三台区,代庄综合三台区,育才路综合六台区,育才路综合2台区,育才路综合1台区,育才路综合5台区,代庄综合一台区,永盛南大街路灯,代庄综合4台区,代庄综合二台区,代庄综合5台区,","scope":"【影响街道/乡镇】蠡吾镇【高危重要客户】无【影响客户】戴庄村、育才东路、蠡县老网通、蠡县公安局","startTime":"2019-11-27 10:10:32","stopDate":"2019-11-27 12:00:00","orgNo":"1340616","typeCode":"电网故障停限电","poweroffArea":"【全线路停电】停育才路综合4台区,代庄综合三台区,里县网通,育才路综合三台区,蠡县建投天然气有限公司变压器,蠡县中洲水业有限公司,育才路综合2台区,永盛南大街路灯,修理厂,代庄综合5台区,育才路综合7台区,0667182659-蠡县中洲水业有限公司-专变-208423493-蠡县中洲水业有限公司,代庄综合4台区,育才路公用2台区,代永发,代庄综合二台区,0581501949-蠡县万隆生物质热能转化有限公司-专变-124696842-蠡县万隆生物质热能转化有限公司变压器,郭彦浦,代庄东浇地,育才路综合1台区,河北蒲公英食品有限公司变压器安装,克民变压器,兴波老高计,蠡县青山变压器,保定龙军建材有限公司变压器,育才路综合5台区,代庄综合一台区,育才路综合六台区,蠡县天河物业管理有限公司变压器","poweroffReason":"【停电原因】由于站内开关掉闸导致３５ＫＶ王庄变电站１０ＫＶ育才路５１５线路全线停电【变更送电】因抢修进度加快原因，送电时间由１６：００变更为１２：００【发布渠道】通过９５５９８发布","powerTime":"2019-11-27 11:33:27","powerComm":"已送电","subsNo":"","lineNo":"","tgNo":"","tgName":null,"infoStatus":"1","orgName":"国网蠡县供电公司","typeName":null,"infoStatusName":null,"dateDay":null,"orgNos":null,"nowTime":null,"countyName":null,"streetName":null,"villageName":null,"roadName":null,"communityName":null,"tranName":null,"sdLineName":null,"cityCode":"1340616","cityName":"国网蠡县供电公司","provinceCode":null,"stopTime":"2019-11-27 12:00:00","powerType":"全部","powerOffArea":"【全线路停电】停育才路综合4台区,代庄综合三台区,里县网通,育才路综合三台区,蠡县建投天然气有限公司变压器,蠡县中洲水业有限公司,育才路综合2台区,永盛南大街路灯,修理厂,代庄综合5台区,育才路综合7台区,0667182659-蠡县中洲水业有限公司-专变-208423493-蠡县中洲水业有限公司,代庄综合4台区,育才路公用2台区,代永发,代庄综合二台区,0581501949-蠡县万隆生物质热能转化有限公司-专变-124696842-蠡县万隆生物质热能转化有限公司变压器,郭彦浦,代庄东浇地,育才路综合1台区,河北蒲公英食品有限公司变压器安装,克民变压器,兴波老高计,蠡县青山变压器,保定龙军建材有限公司变压器,育才路综合5台区,代庄综合一台区,育才路综合六台区,蠡县天河物业管理有限公司变压器","powerOffReason":"【停电原因】由于站内开关掉闸导致３５ＫＶ王庄变电站１０ＫＶ育才路５１５线路全线停电【变更送电】因抢修进度加快原因，送电时间由１６：００变更为１２：００【发布渠道】通过９５５９８发布","powerOffId":"2019112713000087"},{"poweroffId":2019112713000083,"sgpoweroffId":null,"subsName":"","lineName":"10kV516北高晃线","pubTranName":"西柳青综合7台区,沈庄综合5台区,北高晃综合14台区,北高晃农排9台区【纯农排变】,北高晃综合7台区,北高晃综合10台区,保定永祥橡胶输送设备制造有限公司500KVA,八里庄农排6台区【纯农排变】,八里庄面粉厂,北高晃综合6台区,西柳青综合9台区,西柳青农排3台区【纯农排变】,西柳青农排10台区【纯农排变】,西柳青综合6台区,西柳青吃水井,沈庄综合9台区,高晃鸡场,段庄综合2台区,北高晃农排6台区【纯农排变】,西柳青综合2台区,西柳青农排5台区【纯农排变】,沈庄农排3台区【纯农排变】,西柳青农排13台区【纯农排变】,沈庄综合7台区,西柳青综合10台区,蠡县航轩饲养场变压器,北高晃综合8台区,段庄综合1台区,西柳青农排11台区【纯农排变】,北高晃农排10台区【纯农排变】,北高晃农排2台区【纯农排变】,北高晃农排5台区【纯农排变】,蠡县永丰再生胶厂变压器,西柳青河南南,西柳青综合4台区,蠡县西柳青华宇纺织厂,洪江塑料厂,沈庄农排2台区【纯农排变】,西柳青农排7台区【纯农排变】,蠡县永丰再生胶315,北高晃纺纱厂,蠡县铭福通盛服装制造厂,沈庄综合1台区,西柳青农排14台区【纯农排变】,沈庄综合3台区,沈庄农排1台区【纯农排变】,西柳青农排12台区【纯农排变】,北高晃堤南农业,北高晃综合16台区,保定燕兆化工有限公司变压器,北高晃堤上农业,北高晃综合9台区,北高晃综合1台区,沈庄开花厂,南板,北高晃第一纺织厂,段庄农排2台区【纯农排变】,北高晃综合13台区,保定永祥橡胶输送设备制造有限公司,北高晃农排11台区【纯农排变】,沈庄综合6台区,北高晃综合2台区,北高晃农排4台区【纯农排变】,西柳青综合8台区,西柳青综合1台区,北高晃综合4台区,沈庄综合10台区,西柳青综合3台区,蠡县纺纱厂变压器,段庄综合3台区,北高晃综合11台区,北高晃农排1台区【纯农排变】,北高晃农排8台区【纯农排变】,北高晃综合5台区,蠡县永丰再生胶500,沈庄综合2台区,北高晃农排3台区【纯农排变】,西柳青农排4台区【纯农排变】,站变,高晃农业高深南,西柳青综合11台区,西柳青农排2台区【纯农排变】,西柳青农排1台区【纯农排变】,高晃堤内农用,北高晃综合15台区,高晃农业高深北,西柳青农排6台区【纯农排变】,八里庄农排7台区【纯农排变】,西柳青农排9台区【纯农排变】,八里庄农排5台区【纯农排变】,西柳青农排8台区【纯农排变】,西柳青综合5台区,北高晃综合3台区,河北云岭生物科技有限公司变压器,北高晃综合12台区,北高晃农排7台区【纯农排变】,蠡县沈庄扎花厂变压器,","scope":"【影响街道/乡镇】蠡吾镇【高危重要客户】无【影响客户】北高晃村、八里庄村、西柳青村、段庄村、沈庄村（沈河庄村）","startTime":"2019-11-27 10:06:30","stopDate":"2019-11-27 12:00:00","orgNo":"1340616","typeCode":"电网故障停限电","poweroffArea":"【全线路停电】停西柳青综合5台区,北高晃综合9台区,西柳青农排2台区【纯农排变】,西柳青综合7台区,北高晃第一纺织厂,北高晃综合13台区,蠡县西柳青华宇纺织厂,西柳青河南南,西柳青农排11台区【纯农排变】八里庄农排7台区【纯农排变】,蠡县航轩饲养场变压器,西柳青农排8台区【纯农排变】,段庄综合1台区,西柳青综合1台区,保定永祥橡胶输送设备制造有限公司,西柳青农排13台区","poweroffReason":"【停电原因】由于站内开关掉闸导致３５ＫＶ王庄变电站１０ＫＶ北高晃５１６线路全线停电【变更送电】因抢修进度加快原因，送电时间由１６：００变更为１２：００【发布渠道】通过９５５９８发布","powerTime":"2019-11-27 11:53:04","powerComm":"已送电","subsNo":"","lineNo":"","tgNo":"","tgName":null,"infoStatus":"1","orgName":"国网蠡县供电公司","typeName":null,"infoStatusName":null,"dateDay":null,"orgNos":null,"nowTime":null,"countyName":null,"streetName":null,"villageName":null,"roadName":null,"communityName":null,"tranName":null,"sdLineName":null,"cityCode":"1340616","cityName":"国网蠡县供电公司","provinceCode":null,"stopTime":"2019-11-27 12:00:00","powerType":"全部","powerOffArea":"【全线路停电】停西柳青综合5台区,北高晃综合9台区,西柳青农排2台区【纯农排变】,西柳青综合7台区,北高晃第一纺织厂,北高晃综合13台区,蠡县西柳青华宇纺织厂,西柳青河南南,西柳青农排11台区【纯农排变】八里庄农排7台区【纯农排变】,蠡县航轩饲养场变压器,西柳青农排8台区【纯农排变】,段庄综合1台区,西柳青综合1台区,保定永祥橡胶输送设备制造有限公司,西柳青农排13台区","powerOffReason":"【停电原因】由于站内开关掉闸导致３５ＫＶ王庄变电站１０ＫＶ北高晃５１６线路全线停电【变更送电】因抢修进度加快原因，送电时间由１６：００变更为１２：００【发布渠道】通过９５５９８发布","powerOffId":"2019112713000083"},{"poweroffId":2019112713000075,"sgpoweroffId":null,"subsName":"","lineName":"10kV518南辛庄线","pubTranName":"黄庄开花厂,广丰养殖厂,仉村综合9台区,黄庄综合5台区,南辛庄综合5台区,仉村农排14台区【纯农排变】,北辛庄综合3台区,进国塑料厂,沈庄农排5台区【纯农排变】,八里庄纺纱厂公司边,南辛庄综合7台区,八里庄中学,南辛庄农排1台区【纯农排变】,蠡县众鑫纺纱厂变压器,八里庄综合7台区,北辛庄农排1台区【纯农排变】,仉村农排4台区【纯农排变】,八里庄综合8台区,南辛庄综合1台区,仉村农排7台区【纯农排变】,沈庄综合4 段庄农1,南辛庄柴厂,南辛庄农排3台区【纯农排变】,南辛庄综合6台区,保定恒奥酵母加工有限公司变压器,京洪毛纺厂,仉村综合5台区,北辛庄开花,0679455402-保定东辉酵母制造有限公司-专变-219719730-保定东辉酵母制造有限公司,仉村农排16台区【纯农排变】,南辛庄综合2台区,沈庄油坊,仉村综合8台区,沈庄开花厂,沈庄综合12台区,蠡县八里庄宏泰纺纱厂变压器,黄庄纺沙厂,蠡县沈庄纺纱厂,黄庄综合3台区,南辛庄农业（秦业）,八里庄纺纱厂西,鑫欣塑料厂,保定东辉酵母制造有限公司9954,变压器,仉村综合7台区,0693438760-蠡县启盛家庭农场-专变-237555593-蠡县启盛家庭农场,蠡县华昌免烧砖制造厂变压器,八里庄综合12台区,八里庄皮毛厂,蠡县广信输送设备制造有限公司变压器,沈庄农排6台区【纯农排变】,八里庄综合4台区,仉村农排1台区【纯农排变】,北辛庄农排4台区【纯农排变】,仉村综合10台区,仉村综合2台区,仉村农排9台区【纯农排变】,北辛庄农排3台区【纯农排变】,仉村综合6台区,仉村农排3台区【纯农排变】,黄庄农排1台区【纯农排变】,八里庄综合3台区,仉村农排6台区【纯农排变】,八里庄综合11台区,仉村和盛家园综合1台区,八里庄综合2台区,仉村农排5台区【纯农排变】,黄庄农排3台区【纯农排变】,蠡县恒生农贸有限责任公司,泷河加油站,北辛庄纺纱,黄庄面粉厂,仉村综合11台区,仉村农排11台区【纯农排变】,志英厂,河北荣轩生物科技有限公司,黄庄综合2台区,八里庄农排3台区【纯农排变】,蠡县黄庄彦辉瓦和经销站变压器,沈庄农排4台区【纯农排变】,保定东正橡胶机带有限公司变压器,八里庄农排4台区【纯农排变】,沈庄综合8台区,南辛庄综合4台区,黄庄农排4台区八里庄【纯农排变】,南辛庄综合3台区,八里庄农排1台区【纯农排变】,八里庄综合5台区,仉村综合4台区,仉村综合1台区,黄庄综合4台区,黄庄农排2台区【纯农排变】,黄庄综合1台区,北辛庄综合1台区,仉村农排2台区【纯农排变】,北辛庄农排2台区【纯农排变】,黄庄农排5台区【纯农排变】,八里庄综合10台区,仉村农排13台区【纯农排变】,南辛庄农排2台区【纯农排变】,北辛庄综合2台区,南辛庄农排4台区【纯农排变】,八里庄农排2台区【纯农排变】,南辛庄农排5台区【纯农排变】,沈庄农排7台区【纯农排变】,仉村农排8台区【纯农排变】,仉村综合3台区,八里庄综合9台区,八里庄综合6台区,八里庄综合1台区,","scope":"【影响街道/乡镇】蠡吾镇【高危重要客户】无【影响客户】南辛庄村、北辛庄村、八里庄村、沈庄村北、黄庄村","startTime":"2019-11-27 10:00:01","stopDate":"2019-11-27 12:00:00","orgNo":"1340616","typeCode":"电网故障停限电","poweroffArea":"【全线路停电】停仉村农排1台区【纯农排变】,北辛庄农排4台区【纯农排变】,仉村综合2台区,仉村农排4台区【纯农排变】,仉村综合5台区,仉村综合7台区,仉村农排9台区【纯农排变】,仉村和盛家园综合1台区,八里庄综合2台区,仉村农排5台区【纯农排变】,仉村综合11台区,仉村农排11台区【纯农排变】,八里庄农排4台区【纯农排变】,南辛庄综合4台区,八里庄农排1台区【纯农排变】,八里庄综合5台区,仉村综合4台区,八里庄综合4台区,仉村综合10台区,南辛庄农排1台区【纯农排变】,八里庄综合7台区,南辛庄综合1台区,南辛庄农排3台区【纯农排变】,仉村农排16台区【纯农排变】,南辛庄综合2台区,仉村综合8台区,黄庄综合3台区,北辛庄农排3台区【纯农排变】,仉村综合6台区,仉村农排3台区【纯农排变】,黄庄农排1台区【纯农排变】,八里庄综合3台区,仉村农排6台区【纯农排变】,八里庄综合11台区,黄庄综合4台区,黄庄农排2台区【纯农排变】,仉村农排2台区【纯农排变】,北辛庄农排2台区【纯农排变】,黄庄农排5台区【纯农排变】,八里庄综合10台区,仉村农排13台区【纯农排变】,南辛庄农排2台区【纯农排变】,沈庄综合8台区,黄庄农排4台区八里庄【纯农排变】,南辛庄综合3台区,仉村综合1台区,黄庄综合1台区,北辛庄综合1台区,南辛庄农排4台区【纯农排变】,八里庄农排2台区【纯农排变】,南辛庄农排5台区【纯农排变】,沈庄农排7台区【纯农排变】,仉村综合3台区,八里庄综合9台区,八里庄综合6台区,八里庄综合1台区,北辛庄综合2台区,仉村综合9台区,黄庄综合5台区,南辛庄综合5台区,仉村农排14台区【纯农排变】,仉村农排8台区【纯农排变】,北辛庄综合3台区,北辛庄农排1台区【纯农排变】,八里庄综合8台区,仉村农排7台区【纯农排变】,沈庄综合4 段庄农1,南辛庄柴厂,南辛庄综合6台区,保定恒奥酵母加工有限公司变压器,京洪毛纺厂,北辛庄开花,0679455402-保定东辉酵母制造有限公司-专变-219719730-保定东辉酵母制造有限公司,沈庄油坊,沈庄开花厂,沈庄综合12台区,蠡县八里庄宏泰纺纱厂变压器,黄庄纺沙厂,蠡县沈庄纺纱厂,南辛庄农业（秦业）,八里庄纺纱厂西,保定东辉酵母制造有限公司9954,变压器,0693438760-蠡县启盛家庭农场-专变-237555593-蠡县启盛家庭农场,进国塑料厂,黄庄开花厂,广丰养殖厂,沈庄农排5台区【纯农排变】,八里庄纺纱厂公司边,南辛庄综合7台区,八里庄中学,蠡县众鑫纺纱厂变压器,鑫欣塑料厂,八里庄综合12台区,八里庄皮毛厂,蠡县广信输送设备制造有限公司变压器,黄庄农排3台区【纯农排变】,蠡县恒生农贸有限责任公司,泷河加油站,北辛庄纺纱,黄庄面粉厂,志英厂,河北荣轩生物科技有限公司,黄庄综合2台区,八里庄农排3台区【纯农排变】,蠡县黄庄彦辉瓦和经销站变压器,沈庄农排4台区【纯农排变】,保定东正橡胶机带有限公司变压器,蠡县华昌免烧砖制造厂变压器,沈庄农排6台区【纯农排变】","poweroffReason":"【停电原因】由于站内开关掉闸导致３５ＫＶ王庄变电站１０ＫＶ南辛庄５１８线路全线停电【变更送电】因抢修进度加快原因，送电时间由１６：００变更为１２：００【发布渠道】通过９５５９８发布","powerTime":"2019-11-27 11:54:45","powerComm":"已送电","subsNo":"","lineNo":"","tgNo":"","tgName":null,"infoStatus":"1","orgName":"国网蠡县供电公司","typeName":null,"infoStatusName":null,"dateDay":null,"orgNos":null,"nowTime":null,"countyName":null,"streetName":null,"villageName":null,"roadName":null,"communityName":null,"tranName":null,"sdLineName":null,"cityCode":"1340616","cityName":"国网蠡县供电公司","provinceCode":null,"stopTime":"2019-11-27 12:00:00","powerType":"全部","powerOffArea":"【全线路停电】停仉村农排1台区【纯农排变】,北辛庄农排4台区【纯农排变】,仉村综合2台区,仉村农排4台区【纯农排变】,仉村综合5台区,仉村综合7台区,仉村农排9台区【纯农排变】,仉村和盛家园综合1台区,八里庄综合2台区,仉村农排5台区【纯农排变】,仉村综合11台区,仉村农排11台区【纯农排变】,八里庄农排4台区【纯农排变】,南辛庄综合4台区,八里庄农排1台区【纯农排变】,八里庄综合5台区,仉村综合4台区,八里庄综合4台区,仉村综合10台区,南辛庄农排1台区【纯农排变】,八里庄综合7台区,南辛庄综合1台区,南辛庄农排3台区【纯农排变】,仉村农排16台区【纯农排变】,南辛庄综合2台区,仉村综合8台区,黄庄综合3台区,北辛庄农排3台区【纯农排变】,仉村综合6台区,仉村农排3台区【纯农排变】,黄庄农排1台区【纯农排变】,八里庄综合3台区,仉村农排6台区【纯农排变】,八里庄综合11台区,黄庄综合4台区,黄庄农排2台区【纯农排变】,仉村农排2台区【纯农排变】,北辛庄农排2台区【纯农排变】,黄庄农排5台区【纯农排变】,八里庄综合10台区,仉村农排13台区【纯农排变】,南辛庄农排2台区【纯农排变】,沈庄综合8台区,黄庄农排4台区八里庄【纯农排变】,南辛庄综合3台区,仉村综合1台区,黄庄综合1台区,北辛庄综合1台区,南辛庄农排4台区【纯农排变】,八里庄农排2台区【纯农排变】,南辛庄农排5台区【纯农排变】,沈庄农排7台区【纯农排变】,仉村综合3台区,八里庄综合9台区,八里庄综合6台区,八里庄综合1台区,北辛庄综合2台区,仉村综合9台区,黄庄综合5台区,南辛庄综合5台区,仉村农排14台区【纯农排变】,仉村农排8台区【纯农排变】,北辛庄综合3台区,北辛庄农排1台区【纯农排变】,八里庄综合8台区,仉村农排7台区【纯农排变】,沈庄综合4 段庄农1,南辛庄柴厂,南辛庄综合6台区,保定恒奥酵母加工有限公司变压器,京洪毛纺厂,北辛庄开花,0679455402-保定东辉酵母制造有限公司-专变-219719730-保定东辉酵母制造有限公司,沈庄油坊,沈庄开花厂,沈庄综合12台区,蠡县八里庄宏泰纺纱厂变压器,黄庄纺沙厂,蠡县沈庄纺纱厂,南辛庄农业（秦业）,八里庄纺纱厂西,保定东辉酵母制造有限公司9954,变压器,0693438760-蠡县启盛家庭农场-专变-237555593-蠡县启盛家庭农场,进国塑料厂,黄庄开花厂,广丰养殖厂,沈庄农排5台区【纯农排变】,八里庄纺纱厂公司边,南辛庄综合7台区,八里庄中学,蠡县众鑫纺纱厂变压器,鑫欣塑料厂,八里庄综合12台区,八里庄皮毛厂,蠡县广信输送设备制造有限公司变压器,黄庄农排3台区【纯农排变】,蠡县恒生农贸有限责任公司,泷河加油站,北辛庄纺纱,黄庄面粉厂,志英厂,河北荣轩生物科技有限公司,黄庄综合2台区,八里庄农排3台区【纯农排变】,蠡县黄庄彦辉瓦和经销站变压器,沈庄农排4台区【纯农排变】,保定东正橡胶机带有限公司变压器,蠡县华昌免烧砖制造厂变压器,沈庄农排6台区【纯农排变】","powerOffReason":"【停电原因】由于站内开关掉闸导致３５ＫＶ王庄变电站１０ＫＶ南辛庄５１８线路全线停电【变更送电】因抢修进度加快原因，送电时间由１６：００变更为１２：００【发布渠道】通过９５５９８发布","powerOffId":"2019112713000075"},{"poweroffId":2019112713000071,"sgpoweroffId":null,"subsName":"","lineName":"10kV513垒德线","pubTranName":"东环南大街东侧路灯,","scope":"【影响街道/乡镇】蠡吾镇【高危重要客户】无【影响客户】王庄开发区、鑫泽汽配城、紫薇山制药厂、方田牧业、永盛建材城","startTime":"2019-11-27 09:57:53","stopDate":"2019-11-27 12:30:00","orgNo":"1340616","typeCode":"电网故障停限电","poweroffArea":"【全线路停电】停东环南大街东侧路灯,河北神马化纤有限公司,变压器,蠡县忠义运输有限公司,中国移动通信集团河北有限公司蠡县分公司,方田变压器,河北神马化纤有限公司315,河北神马化纤有限公司200,河北紫薇山制药有限责任公司500,河北紫薇山制药有限责任公司250,河北沈三开电器制造有限公司变压器,保定方田牧业有限公司变压器,蠡县永盛建材商贸有限公司变压器,保定鑫泽汽车零部件制造有限公司变压器安装,0469338674-中国石油河北保定销售分公司第五十六加油站-专变-46778873-河北保定56加油站,代庄南浇地,代庄浇地","poweroffReason":"【停电原因】由于站内开关掉闸导致３５ＫＶ王庄变电站１０ＫＶ垒德５１３线路全线停电【变更送电】因抢修进度加快原因，送电时间由１６：００变更为１２：３０【发布渠道】通过９５５９８发布","powerTime":"2019-11-27 12:06:28","powerComm":"已送电","subsNo":"","lineNo":"","tgNo":"","tgName":null,"infoStatus":"1","orgName":"国网蠡县供电公司","typeName":null,"infoStatusName":null,"dateDay":null,"orgNos":null,"nowTime":null,"countyName":null,"streetName":null,"villageName":null,"roadName":null,"communityName":null,"tranName":null,"sdLineName":null,"cityCode":"1340616","cityName":"国网蠡县供电公司","provinceCode":null,"stopTime":"2019-11-27 12:30:00","powerType":"全部","powerOffArea":"【全线路停电】停东环南大街东侧路灯,河北神马化纤有限公司,变压器,蠡县忠义运输有限公司,中国移动通信集团河北有限公司蠡县分公司,方田变压器,河北神马化纤有限公司315,河北神马化纤有限公司200,河北紫薇山制药有限责任公司500,河北紫薇山制药有限责任公司250,河北沈三开电器制造有限公司变压器,保定方田牧业有限公司变压器,蠡县永盛建材商贸有限公司变压器,保定鑫泽汽车零部件制造有限公司变压器安装,0469338674-中国石油河北保定销售分公司第五十六加油站-专变-46778873-河北保定56加油站,代庄南浇地,代庄浇地","powerOffReason":"【停电原因】由于站内开关掉闸导致３５ＫＶ王庄变电站１０ＫＶ垒德５１３线路全线停电【变更送电】因抢修进度加快原因，送电时间由１６：００变更为１２：３０【发布渠道】通过９５５９８发布","powerOffId":"2019112713000071"},{"poweroffId":2019112713000069,"sgpoweroffId":null,"subsName":"","lineName":"10kV511电力新村线","pubTranName":"电力新村综合2台区,电力新村1备用,电力新村综合6台区箱变10KV出线间隔2号配电变压器,电力新村综合6台区箱变10KV出线间隔1号配电变压器,电力新村综合1台区,电力新村2备用,电力新村三台区出线间隔配电变压器,电力新村综合6台区箱变10KV出线间隔3号配电变压器,0469339055-六号照明变压器-专变-46778861-六号变压器,","scope":"【影响街道/乡镇】蠡吾镇【高危重要客户】无【影响客户】电力新村、蠡县供电公司","startTime":"2019-11-27 09:55:48","stopDate":"2019-11-27 12:00:00","orgNo":"1340616","typeCode":"电网故障停限电","poweroffArea":"【全线路停电】停电力新村1备用,电力新村综合6台区箱变10KV出线间隔3号配电变压器,电力新村三台区出线间隔配电变压器,电力新村综合6台区箱变10KV出线间隔2号配电变压器,电力新村2备用,电力新村综合2台区,电力新村综合6台区箱变10KV出线间隔1号配电变压器,0469339055-六号照明变压器-专变-46778861-六号变压器,电力新村综合1台区","poweroffReason":"【停电原因】由于站内开关掉闸导致３５ＫＶ王庄变电站１０ＫＶ电力新村５１１线路全线停电【变更送电】因抢修进度加快原因，送电时间由１６：００变更为１２：００【发布渠道】通过９５５９８发布","powerTime":"2019-11-27 11:33:12","powerComm":"已送电","subsNo":"","lineNo":"","tgNo":"","tgName":null,"infoStatus":"1","orgName":"国网蠡县供电公司","typeName":null,"infoStatusName":null,"dateDay":null,"orgNos":null,"nowTime":null,"countyName":null,"streetName":null,"villageName":null,"roadName":null,"communityName":null,"tranName":null,"sdLineName":null,"cityCode":"1340616","cityName":"国网蠡县供电公司","provinceCode":null,"stopTime":"2019-11-27 12:00:00","powerType":"全部","powerOffArea":"【全线路停电】停电力新村1备用,电力新村综合6台区箱变10KV出线间隔3号配电变压器,电力新村三台区出线间隔配电变压器,电力新村综合6台区箱变10KV出线间隔2号配电变压器,电力新村2备用,电力新村综合2台区,电力新村综合6台区箱变10KV出线间隔1号配电变压器,0469339055-六号照明变压器-专变-46778861-六号变压器,电力新村综合1台区","powerOffReason":"【停电原因】由于站内开关掉闸导致３５ＫＶ王庄变电站１０ＫＶ电力新村５１１线路全线停电【变更送电】因抢修进度加快原因，送电时间由１６：００变更为１２：００【发布渠道】通过９５５９８发布","powerOffId":"2019112713000069"},{"poweroffId":2019112713000055,"sgpoweroffId":null,"subsName":"","lineName":"10KV城西北526","pubTranName":"大邵村西内,","scope":"【影响街道/乡镇】百尺竿乡 【高危重要客户】无 【影响客户】大邵村","startTime":"2019-11-29 08:00:00","stopDate":"2019-11-29 17:00:00","orgNo":"1340626","typeCode":"临时停电","poweroffArea":"【单台区停电】停大邵村西内","poweroffReason":"【停电原因】由于电表改造、安装接户线工程导致１１０ＫＶ下胡良变电站１０ＫＶ城西北５２６线路大邵村西内公变台区停电 【变更送电】无 【发布渠道】通过９５５９８发布","powerTime":"2019-11-29 16:45:10","powerComm":"恢复送电","subsNo":"","lineNo":"","tgNo":"","tgName":null,"infoStatus":"1","orgName":"国网涿州市供电公司","typeName":null,"infoStatusName":null,"dateDay":null,"orgNos":null,"nowTime":null,"countyName":null,"streetName":null,"villageName":null,"roadName":null,"communityName":null,"tranName":null,"sdLineName":null,"cityCode":"1340626","cityName":"国网涿州市供电公司","provinceCode":null,"stopTime":"2019-11-29 17:00:00","powerType":"全部","powerOffArea":"【单台区停电】停大邵村西内","powerOffReason":"【停电原因】由于电表改造、安装接户线工程导致１１０ＫＶ下胡良变电站１０ＫＶ城西北５２６线路大邵村西内公变台区停电 【变更送电】无 【发布渠道】通过９５５９８发布","powerOffId":"2019112713000055"},{"poweroffId":2019112713000049,"sgpoweroffId":null,"subsName":"","lineName":"韩家庄577","pubTranName":"石炕村2#,","scope":"【影响街道/乡镇】易州镇【高危重要客户】无【影响客户】石炕村","startTime":"2019-11-27 08:55:32","stopDate":"2019-11-27 12:00:00","orgNo":"1340625","typeCode":"电网故障停限电","poweroffArea":"【单台区停电】停石炕村2#","poweroffReason":"【停电原因】由于低压线断导致１１０ＫＶ店北变电站韩家庄５７７线路石炕村２＃公变台区停电【变更送电】无【发布渠道】通过９５５９８发布","powerTime":"2019-11-27 11:46:05","powerComm":"已送电","subsNo":"","lineNo":"","tgNo":"","tgName":null,"infoStatus":"1","orgName":"国网易县供电公司","typeName":null,"infoStatusName":null,"dateDay":null,"orgNos":null,"nowTime":null,"countyName":null,"streetName":null,"villageName":null,"roadName":null,"communityName":null,"tranName":null,"sdLineName":null,"cityCode":"1340625","cityName":"国网易县供电公司","provinceCode":null,"stopTime":"2019-11-27 12:00:00","powerType":"全部","powerOffArea":"【单台区停电】停石炕村2#","powerOffReason":"【停电原因】由于低压线断导致１１０ＫＶ店北变电站韩家庄５７７线路石炕村２＃公变台区停电【变更送电】无【发布渠道】通过９５５９８发布","powerOffId":"2019112713000049"},{"poweroffId":2019112713000043,"sgpoweroffId":null,"subsName":"","lineName":"10KV徐里营531","pubTranName":"徐一村委会东,","scope":"【影响街道/乡镇】刁窝乡 【高危重要客户】无 【影响客户】徐一村","startTime":"2019-12-07 08:00:00","stopDate":"2019-12-07 17:00:00","orgNo":"1340626","typeCode":"计划停电","poweroffArea":"【单台区停电】停徐一村委会东","poweroffReason":"【停电原因】由于电杆组立、架设导线导致１１０ＫＶ刁窝变电站１０ＫＶ徐里营５３１线路徐一村委会东公变台区停电 【变更送电】无 【发布渠道】涿州电视台（１１月２７日至１２月０６日２１：００播放２次）屏幕上方滚动","powerTime":"2019-12-07 16:45:13","powerComm":"恢复送电","subsNo":"","lineNo":"","tgNo":"","tgName":null,"infoStatus":"1","orgName":"国网涿州市供电公司","typeName":null,"infoStatusName":null,"dateDay":null,"orgNos":null,"nowTime":null,"countyName":null,"streetName":null,"villageName":null,"roadName":null,"communityName":null,"tranName":null,"sdLineName":null,"cityCode":"1340626","cityName":"国网涿州市供电公司","provinceCode":null,"stopTime":"2019-12-07 17:00:00","powerType":"全部","powerOffArea":"【单台区停电】停徐一村委会东","powerOffReason":"【停电原因】由于电杆组立、架设导线导致１１０ＫＶ刁窝变电站１０ＫＶ徐里营５３１线路徐一村委会东公变台区停电 【变更送电】无 【发布渠道】涿州电视台（１１月２７日至１２月０６日２１：００播放２次）屏幕上方滚动","powerOffId":"2019112713000043"}],"pageModel":{"pageNow":353,"totalCount":10973,"totalPage":1098,"tableRows":0,"pageCount":10,"beginCount":3520},"isExperi":"1"}