{"message":"","today":"2020-06-15","seleList":[{"poweroffId":2019112713000041,"sgpoweroffId":null,"subsName":"","lineName":"10KV褚村572","pubTranName":"北相1016,","scope":"【影响街道/乡镇】豆庄乡 【高危重要客户】无 【影响客户】北相","startTime":"2019-12-07 08:00:00","stopDate":"2019-12-07 17:00:00","orgNo":"1340626","typeCode":"计划停电","poweroffArea":"【单台区停电】停北相1016","poweroffReason":"【停电原因】由于组装金具、导线架设工程导致２２０ＫＶ豆庄变电站１０ＫＶ褚村５７２线路北相１０１６公变台区停电 【变更送电】无 【发布渠道】涿州电视台（１１月２７日至１２月０６日２１：００播放２次）屏幕上方滚动","powerTime":"2019-12-07 16:45:34","powerComm":"恢复送电","subsNo":"","lineNo":"","tgNo":"","tgName":null,"infoStatus":"1","orgName":"国网涿州市供电公司","typeName":null,"infoStatusName":null,"dateDay":null,"orgNos":null,"nowTime":null,"countyName":null,"streetName":null,"villageName":null,"roadName":null,"communityName":null,"tranName":null,"sdLineName":null,"cityCode":"1340626","cityName":"国网涿州市供电公司","provinceCode":null,"stopTime":"2019-12-07 17:00:00","powerType":"全部","powerOffArea":"【单台区停电】停北相1016","powerOffReason":"【停电原因】由于组装金具、导线架设工程导致２２０ＫＶ豆庄变电站１０ＫＶ褚村５７２线路北相１０１６公变台区停电 【变更送电】无 【发布渠道】涿州电视台（１１月２７日至１２月０６日２１：００播放２次）屏幕上方滚动","powerOffId":"2019112713000041"},{"poweroffId":2019112713000038,"sgpoweroffId":null,"subsName":"","lineName":"10kV中相578","pubTranName":"王各庄村南,","scope":"【影响街道/乡镇】豆庄乡 【高危重要客户】无 【影响客户】王各庄村","startTime":"2019-12-07 08:00:00","stopDate":"2019-12-07 17:00:00","orgNo":"1340626","typeCode":"计划停电","poweroffArea":"【单台区停电】停王各庄村南","poweroffReason":"【停电原因】由于组装金具、导线架设工程导致２２０ＫＶ豆庄变电站１０ＫＶ中相５７８线路王各庄村南公变台区停电 【变更送电】无 【发布渠道】涿州电视台（１１月２７日至１２月０６日２１：００播放２次）屏幕上方滚动","powerTime":"2019-12-07 16:45:54","powerComm":"恢复送电","subsNo":"","lineNo":"","tgNo":"","tgName":null,"infoStatus":"1","orgName":"国网涿州市供电公司","typeName":null,"infoStatusName":null,"dateDay":null,"orgNos":null,"nowTime":null,"countyName":null,"streetName":null,"villageName":null,"roadName":null,"communityName":null,"tranName":null,"sdLineName":null,"cityCode":"1340626","cityName":"国网涿州市供电公司","provinceCode":null,"stopTime":"2019-12-07 17:00:00","powerType":"全部","powerOffArea":"【单台区停电】停王各庄村南","powerOffReason":"【停电原因】由于组装金具、导线架设工程导致２２０ＫＶ豆庄变电站１０ＫＶ中相５７８线路王各庄村南公变台区停电 【变更送电】无 【发布渠道】涿州电视台（１１月２７日至１２月０６日２１：００播放２次）屏幕上方滚动","powerOffId":"2019112713000038"},{"poweroffId":2019112713000029,"sgpoweroffId":null,"subsName":"","lineName":"任疃线530","pubTranName":"周庄内西2号,","scope":"【影响街道/乡镇】赵庄乡 【高危重要客户】无　　 【影响客户】周庄村","startTime":"2019-11-27 07:09:50","stopDate":"2019-11-27 11:00:00","orgNo":"1340623","typeCode":"电网故障停限电","poweroffArea":"【单台区停电】停周庄内西2号","poweroffReason":"【停电原因】由于低压刀闸烧导致１１０ＫＶ八里庄变电站任疃线５３０线路周庄村内西混２号公变台区停电 【变更送电】因抢修进度加快原因，送电时间由２２：００变更为１１：００ 【发布渠道】通过９５５９８发布","powerTime":"2019-11-27 10:12:04","powerComm":"已送电","subsNo":"","lineNo":"","tgNo":"","tgName":null,"infoStatus":"1","orgName":"国网望都县供电公司","typeName":null,"infoStatusName":null,"dateDay":null,"orgNos":null,"nowTime":null,"countyName":null,"streetName":null,"villageName":null,"roadName":null,"communityName":null,"tranName":null,"sdLineName":null,"cityCode":"1340623","cityName":"国网望都县供电公司","provinceCode":null,"stopTime":"2019-11-27 11:00:00","powerType":"全部","powerOffArea":"【单台区停电】停周庄内西2号","powerOffReason":"【停电原因】由于低压刀闸烧导致１１０ＫＶ八里庄变电站任疃线５３０线路周庄村内西混２号公变台区停电 【变更送电】因抢修进度加快原因，送电时间由２２：００变更为１１：００ 【发布渠道】通过９５５９８发布","powerOffId":"2019112713000029"},{"poweroffId":2019112713000018,"sgpoweroffId":null,"subsName":"","lineName":"任疃线530","pubTranName":"周庄村内西混合,周庄内西2号,周庄内东2号,八里庄内北混,八里庄内南混,周庄村内东混合,周庄内东1号,","scope":"【影响街道/乡镇】赵庄乡 【高危重要客户】无　　 【影响客户】周庄村、八里庄","startTime":"2019-11-27 03:59:01","stopDate":"2019-11-27 08:00:00","orgNo":"1340623","typeCode":"电网故障停限电","poweroffArea":"【全线路停电】停周庄村内西混合,周庄内西2号,周庄内东2号,八里庄内北混,八里庄内南混,周庄村内东混合,周庄内东1号","poweroffReason":"【停电原因】由于Ｃ相接地导致１１０ＫＶ八里庄变电站任疃线５３０线路全线停电 【变更送电】因抢修进度加快原因，送电时间由２２：００变更为０８：００ 【发布渠道】通过９５５９８发布","powerTime":"2019-11-27 07:09:14","powerComm":"已送电","subsNo":"","lineNo":"","tgNo":"","tgName":null,"infoStatus":"1","orgName":"国网望都县供电公司","typeName":null,"infoStatusName":null,"dateDay":null,"orgNos":null,"nowTime":null,"countyName":null,"streetName":null,"villageName":null,"roadName":null,"communityName":null,"tranName":null,"sdLineName":null,"cityCode":"1340623","cityName":"国网望都县供电公司","provinceCode":null,"stopTime":"2019-11-27 08:00:00","powerType":"全部","powerOffArea":"【全线路停电】停周庄村内西混合,周庄内西2号,周庄内东2号,八里庄内北混,八里庄内南混,周庄村内东混合,周庄内东1号","powerOffReason":"【停电原因】由于Ｃ相接地导致１１０ＫＶ八里庄变电站任疃线５３０线路全线停电 【变更送电】因抢修进度加快原因，送电时间由２２：００变更为０８：００ 【发布渠道】通过９５５９８发布","powerOffId":"2019112713000018"},{"poweroffId":2019112613000150,"sgpoweroffId":null,"subsName":"","lineName":"10kV516北两合线","pubTranName":"10kV516北两合线41008变压器,10kV516北两合线24003变压器,10kV516北两合线24018变压器,10kV516北两合线24025变压器,10kV516北两合线庄火头村北新增变压器,10kV516北两合线夹河新增变压器,10kV516北两合线42075变压器,夹河西南24417,10kV516北两合线40862变压器,北板桥村东照明15394,夹河村东24191,10kV516北两合线40867变压器,10kV516北两合线43944变压器,10kV516北两合线24069变压器,10kV516北两合线24014变压器,10kV516北两合线78355变压器,10kV516北两合线43414变压器,10kV516北两合线24088变压器,10kV516北两合线24029变压器,10kV516北两合线24042变压器,10kV516北两合线41006变压器,10kV516北两合线43949变压器,10kV516北两合线24024变压器,10kV516北两合线40555变压器,10kV516北两合线24002变压器,10kV516北两合线41007变压器,10kV516北两合线40865变压器,10kV516北两合线40866变压器,10kV516北两合线43894变压器,10kV516北两合线42072变压器,","scope":"【影响街道/乡镇】大程委镇【高危重要客户】无【影响客户】夹河、北板桥、南辛庄、甄庄","startTime":"2019-11-27 07:30:00","stopDate":"2019-11-27 09:30:00","orgNo":"1340608","typeCode":"其他临时停电","poweroffArea":"【全线路停电】停10kV516北两合线24025变压器,10kV516北两合线41008变压器,10kV516北两合线24003变压器,10kV516北两合线24018变压器,10kV516北两合线庄火头村北新增变压器,10kV516北两合线夹河新增变压器,10kV516北两合线42075变压器,夹河西南24417,10kV516北两合线40862变压器,北板桥村东照明15394,夹河村东24191,10kV516北两合线40867变压器,10kV516北两合线43944变压器,10kV516北两合线24069变压器,10kV516北两合线24014变压器,10kV516北两合线78355变压器,10kV516北两合线43414变压器,10kV516北两合线24088变压器,10kV516北两合线24029变压器,10kV516北两合线24042变压器,10kV516北两合线41006变压器,10kV516北两合线43949变压器,10kV516北两合线24024变压器,10kV516北两合线40555变压器,10kV516北两合线24002变压器,10kV516北两合线41007变压器,10kV516北两合线40865变压器,10kV516北两合线40866变压器,10kV516北两合线43894变压器,10kV516北两合线42072变压器","poweroffReason":"【停电原因】由于线夹发热，需停电进行紧急消缺导致１１０ＫＶ程委变电站北两合５１６线路全线停电【变更送电】无【发布渠道】通过９５５９８发布","powerTime":"2019-11-27 09:26:00","powerComm":"已送电","subsNo":"","lineNo":"","tgNo":"","tgName":null,"infoStatus":"1","orgName":"国网博野县供电公司","typeName":null,"infoStatusName":null,"dateDay":null,"orgNos":null,"nowTime":null,"countyName":null,"streetName":null,"villageName":null,"roadName":null,"communityName":null,"tranName":null,"sdLineName":null,"cityCode":"1340608","cityName":"国网博野县供电公司","provinceCode":null,"stopTime":"2019-11-27 09:30:00","powerType":"全部","powerOffArea":"【全线路停电】停10kV516北两合线24025变压器,10kV516北两合线41008变压器,10kV516北两合线24003变压器,10kV516北两合线24018变压器,10kV516北两合线庄火头村北新增变压器,10kV516北两合线夹河新增变压器,10kV516北两合线42075变压器,夹河西南24417,10kV516北两合线40862变压器,北板桥村东照明15394,夹河村东24191,10kV516北两合线40867变压器,10kV516北两合线43944变压器,10kV516北两合线24069变压器,10kV516北两合线24014变压器,10kV516北两合线78355变压器,10kV516北两合线43414变压器,10kV516北两合线24088变压器,10kV516北两合线24029变压器,10kV516北两合线24042变压器,10kV516北两合线41006变压器,10kV516北两合线43949变压器,10kV516北两合线24024变压器,10kV516北两合线40555变压器,10kV516北两合线24002变压器,10kV516北两合线41007变压器,10kV516北两合线40865变压器,10kV516北两合线40866变压器,10kV516北两合线43894变压器,10kV516北两合线42072变压器","powerOffReason":"【停电原因】由于线夹发热，需停电进行紧急消缺导致１１０ＫＶ程委变电站北两合５１６线路全线停电【变更送电】无【发布渠道】通过９５５９８发布","powerOffId":"2019112613000150"},{"poweroffId":2019112613000146,"sgpoweroffId":null,"subsName":"","lineName":"10kV518庄火头线","pubTranName":"南板桥西南24420,10kv518庄火头线新增1号变压器,10kV518庄火头线24032变压器,10KV518庄火头线北辛庄新增变压器,10kV518庄火头线42077变压器,10kV518庄火头线24049变压器,庞庄村西94087,10kV518庄火头线24023变压器,10kV518庄火头线43419变压器,10kV518庄火头线41004变压器,10kV518庄火头线24009变压器,10kV518庄火头线24065变压器,维辛村40824,10kV518庄火头线78357变压器,","scope":"【影响街道/乡镇】大程委镇【高危重要客户】无【影响客户】维新村、王庄、南辛庄、北辛庄、庞庄、夹河、南板桥、北板桥、甄庄、庄火头","startTime":"2019-11-27 07:30:00","stopDate":"2019-11-27 09:30:00","orgNo":"1340608","typeCode":"其他临时停电","poweroffArea":"【全线路停电】停杜占军25080,南板桥西南24420,维新村拔丝厂,10kv518庄火头线新增1号变压器,10kV518庄火头线41004变压器,维新村宋中民,王庄丝网厂,博野县嘉华拔丝厂,10kV518庄火头线24009变压器,10kV518庄火头线24032变压器,10kV518庄火头线24065变压器,10KV518庄火头线北辛庄新增变压器,北辛庄电焊网厂,10kV518庄火头线42077变压器,博野县福顺财机制美格网厂,庞庄面粉厂,0469286058-博野县通信拔丝厂-专变-107232831-李通信拔丝厂,10kV518庄火头线24049变压器,博野县亨通金属丝网制造有限公司,小强丝网厂,维新村杨喜朋,庞庄村西94087,维辛村40824,10kV518庄火头线24023变压器,西程委小区,10kV518庄火头线43419变压器,维辛村杨喜朋2电焊拨丝,10kV518庄火头线78357变压器,博野县恒鑫美格网厂","poweroffReason":"【停电原因】由于线夹发热，需停电进行紧急消缺导致１１０ＫＶ程委变电站庄火头５１８线路全线停电【变更送电】无【发布渠道】通过９５５９８发布","powerTime":"2019-11-27 09:26:00","powerComm":"已送电","subsNo":"","lineNo":"","tgNo":"","tgName":null,"infoStatus":"1","orgName":"国网博野县供电公司","typeName":null,"infoStatusName":null,"dateDay":null,"orgNos":null,"nowTime":null,"countyName":null,"streetName":null,"villageName":null,"roadName":null,"communityName":null,"tranName":null,"sdLineName":null,"cityCode":"1340608","cityName":"国网博野县供电公司","provinceCode":null,"stopTime":"2019-11-27 09:30:00","powerType":"全部","powerOffArea":"【全线路停电】停杜占军25080,南板桥西南24420,维新村拔丝厂,10kv518庄火头线新增1号变压器,10kV518庄火头线41004变压器,维新村宋中民,王庄丝网厂,博野县嘉华拔丝厂,10kV518庄火头线24009变压器,10kV518庄火头线24032变压器,10kV518庄火头线24065变压器,10KV518庄火头线北辛庄新增变压器,北辛庄电焊网厂,10kV518庄火头线42077变压器,博野县福顺财机制美格网厂,庞庄面粉厂,0469286058-博野县通信拔丝厂-专变-107232831-李通信拔丝厂,10kV518庄火头线24049变压器,博野县亨通金属丝网制造有限公司,小强丝网厂,维新村杨喜朋,庞庄村西94087,维辛村40824,10kV518庄火头线24023变压器,西程委小区,10kV518庄火头线43419变压器,维辛村杨喜朋2电焊拨丝,10kV518庄火头线78357变压器,博野县恒鑫美格网厂","powerOffReason":"【停电原因】由于线夹发热，需停电进行紧急消缺导致１１０ＫＶ程委变电站庄火头５１８线路全线停电【变更送电】无【发布渠道】通过９５５９８发布","powerOffId":"2019112613000146"},{"poweroffId":2019112613000135,"sgpoweroffId":null,"subsName":"","lineName":"10KV石屯574","pubTranName":"海深塘村西,","scope":"【影响街道/乡镇】豆庄乡 【高危重要客户】无 【影响客户】海深塘","startTime":"2019-11-26 15:36:02","stopDate":"2019-11-26 17:30:00","orgNo":"1340626","typeCode":"电网故障停限电","poweroffArea":"【单台区停电】停海深塘村西","poweroffReason":"【停电原因】由于低压线断线导致２２０ＫＶ豆庄变电站１０ＫＶ石屯５７４线路海深塘村西公变台区停电 【变更送电】因抢修进度加快原因，送电时间由２２：００变更为１７：３０ 【发布渠道】通过９５５９８发布","powerTime":"2019-11-26 17:05:04","powerComm":"恢复送电","subsNo":"","lineNo":"","tgNo":"","tgName":null,"infoStatus":"1","orgName":"国网涿州市供电公司","typeName":null,"infoStatusName":null,"dateDay":null,"orgNos":null,"nowTime":null,"countyName":null,"streetName":null,"villageName":null,"roadName":null,"communityName":null,"tranName":null,"sdLineName":null,"cityCode":"1340626","cityName":"国网涿州市供电公司","provinceCode":null,"stopTime":"2019-11-26 17:30:00","powerType":"全部","powerOffArea":"【单台区停电】停海深塘村西","powerOffReason":"【停电原因】由于低压线断线导致２２０ＫＶ豆庄变电站１０ＫＶ石屯５７４线路海深塘村西公变台区停电 【变更送电】因抢修进度加快原因，送电时间由２２：００变更为１７：３０ 【发布渠道】通过９５５９８发布","powerOffId":"2019112613000135"},{"poweroffId":2019112613000094,"sgpoweroffId":null,"subsName":"","lineName":"夏庄线526","pubTranName":"凤凰台1#【纯农排变】,西大地4#村东,易县忆江南观赏鱼饲养场变压器,万亩林,西大地村2#村北,省良种厂西陵分厂,梁格庄9#,南石门村1#村西,易县恒兴精密铸造有限公司,易县西陵万亩林林场王晓明100KVA,龙湖开发区管理处(张来宾),西大地村5#村东,北百泉村2#村北,王宗保,中国移动通讯集团河北有限公司易县分公司变压器,南石门村6#村西,北百泉村6#村东,南石门村3#村内,华路宾馆,石门店8#台区,南石门村7#村中,太和庄村孙书珍变压器,西大地村1#村南,南石门村4#村南,梁格庄村2#村东,梁格庄12#,南石门村9#村东【纯农排变】,关春伟变压器,南石门10号变压器,行宫招待所,南石门村李彦平变压器,西大地3#村西,梁格庄村3#村西,南石门村苑爱忠变压器,梁格庄村扬水站4台区,张格庄村3#村东,武装部,南石门村5#村南,崇陵(100KVA),北百泉村5#村北,南石门12台区,张格庄村1#村内,南石门村2#村西,河北省林业示范园西陵林场,南石门11台区,王贾庄村5#村内,南石门村8#村东,南石门13#,梁格庄村15#村东,清西陵文物管理处,良格庄供电所,石门店村5#村西南,张格庄2#,","scope":"【影响街道/乡镇】梁格庄镇【高危重要客户】无【影响客户】梁格庄村、王贾庄村、西大地村、张各庄村、北百泉村、南石门村、石门店村","startTime":"2019-11-26 13:18:07","stopDate":"2019-11-26 14:30:00","orgNo":"1340625","typeCode":"电网故障停限电","poweroffArea":"【全线路停电】停梁格庄12#,南石门村1#村西,华路宾馆,王贾庄村5#村内,易县恒兴精密铸造有限公司,西大地村1#村南,西大地村5#村东,西大地村2#村北,南石门村8#村东,南石门村3#村内,石门店村5#村西南,南石门村6#村西,北百泉村2#村北,武装部,凤凰台1#【纯农排变】,张格庄村3#村东,南石门村7#村中,梁格庄村15#村东,南石门村李彦平变压器,南石门12台区,梁格庄9#,关春伟变压器,北百泉村5#村北,北百泉村6#村东,易县忆江南观赏鱼饲养场变压器,王宗保,西大地4#村东,南石门10号变压器,良格庄供电所,中国移动通讯集团河北有限公司易县分公司变压器,南石门村4#村南,梁格庄村扬水站4台区,南石门村9#村东【纯农排变】,易县西陵万亩林林场王晓明100KVA,龙湖开发区管理处(张来宾),太和庄村孙书珍变压器,崇陵(100KVA),河北省林业示范园西陵林场,南石门村5#村南,张格庄2#,梁格庄村3#村西,万亩林,行宫招待所,省良种厂西陵分厂,清西陵文物管理处,南石门13#,南石门村苑爱忠变压器,南石门11台区,西大地3#村西,张格庄村1#村内,梁格庄村2#村东,石门店8#台区,南石门村2#村西","poweroffReason":"【停电原因】由于速断跳闸导致１１０ＫＶ西陵变电站夏庄５２６线路全线停电【变更送电】因抢修进度加快原因，送电时间由１８：００变更为１４：３０【发布渠道】通过９５５９８发布","powerTime":"2019-11-26 14:10:13","powerComm":"已送电","subsNo":"","lineNo":"","tgNo":"","tgName":null,"infoStatus":"1","orgName":"国网易县供电公司","typeName":null,"infoStatusName":null,"dateDay":null,"orgNos":null,"nowTime":null,"countyName":null,"streetName":null,"villageName":null,"roadName":null,"communityName":null,"tranName":null,"sdLineName":null,"cityCode":"1340625","cityName":"国网易县供电公司","provinceCode":null,"stopTime":"2019-11-26 14:30:00","powerType":"全部","powerOffArea":"【全线路停电】停梁格庄12#,南石门村1#村西,华路宾馆,王贾庄村5#村内,易县恒兴精密铸造有限公司,西大地村1#村南,西大地村5#村东,西大地村2#村北,南石门村8#村东,南石门村3#村内,石门店村5#村西南,南石门村6#村西,北百泉村2#村北,武装部,凤凰台1#【纯农排变】,张格庄村3#村东,南石门村7#村中,梁格庄村15#村东,南石门村李彦平变压器,南石门12台区,梁格庄9#,关春伟变压器,北百泉村5#村北,北百泉村6#村东,易县忆江南观赏鱼饲养场变压器,王宗保,西大地4#村东,南石门10号变压器,良格庄供电所,中国移动通讯集团河北有限公司易县分公司变压器,南石门村4#村南,梁格庄村扬水站4台区,南石门村9#村东【纯农排变】,易县西陵万亩林林场王晓明100KVA,龙湖开发区管理处(张来宾),太和庄村孙书珍变压器,崇陵(100KVA),河北省林业示范园西陵林场,南石门村5#村南,张格庄2#,梁格庄村3#村西,万亩林,行宫招待所,省良种厂西陵分厂,清西陵文物管理处,南石门13#,南石门村苑爱忠变压器,南石门11台区,西大地3#村西,张格庄村1#村内,梁格庄村2#村东,石门店8#台区,南石门村2#村西","powerOffReason":"【停电原因】由于速断跳闸导致１１０ＫＶ西陵变电站夏庄５２６线路全线停电【变更送电】因抢修进度加快原因，送电时间由１８：００变更为１４：３０【发布渠道】通过９５５９８发布","powerOffId":"2019112613000094"},{"poweroffId":2019112613000086,"sgpoweroffId":null,"subsName":"","lineName":"张天佑513","pubTranName":"东市村2#|村西,北市村2#|村西,北市村6#村西,北市村4#|药材院,八里庄2#,北市村3#|村北,八里庄村1#|村内,固村村1#|村南,西市村1#|村西,北市村5#|村南,万家庄村2#|村南,固村村2#|村北,东市村8#|村东,固村8#村北,东市村12#村中,东市村4#|村东南,万家庄村1#|村东,东市9#村中,西市村7#村北,西市村3#|村北,张天峪村1#|村北,西市村2#|村东,万家庄村3#村南,东市村5#|村东,","scope":"【影响街道/乡镇】易州镇、高村乡、高陌乡、梁格庄镇 【高危重要客户】无 【影响客户】万家庄村、北市村、西庄村、东市村、西市村、血山村、八里庄村、固村、固村庄村、张天峪村","startTime":"2019-11-26 11:34:15","stopDate":"2019-11-26 15:00:00","orgNo":"1340625","typeCode":"电网故障停限电","poweroffArea":"【全线路停电】停北市村6#村西,北市村2#|村西,北市村5#|村南,东市9#村中,万家庄村2#|村南,东市村2#|村西,固村村1#|村南,西市村7#村北,固村8#村北,西市村1#|村西,西市村2#|村东,东市村8#|村东,东市村5#|村东,八里庄2#,东市村4#|村东南,万家庄村3#村南,西市村3#|村北,张天峪村1#|村北,八里庄村1#|村内,北市村3#|村北,北市村4#|药材院,东市村12#村中,固村村2#|村北,万家庄村1#|村东","poweroffReason":"【停电原因】由于速断跳闸导致３５ＫＶ易水变电站张天佑５１３线路全线停电【变更送电】因抢修进度加快原因，送电时间由１８：００变更为１５：００【发布渠道】通过９５５９８发布","powerTime":"2019-11-26 14:37:59","powerComm":"已送电","subsNo":"","lineNo":"","tgNo":"","tgName":null,"infoStatus":"1","orgName":"国网易县供电公司","typeName":null,"infoStatusName":null,"dateDay":null,"orgNos":null,"nowTime":null,"countyName":null,"streetName":null,"villageName":null,"roadName":null,"communityName":null,"tranName":null,"sdLineName":null,"cityCode":"1340625","cityName":"国网易县供电公司","provinceCode":null,"stopTime":"2019-11-26 15:00:00","powerType":"全部","powerOffArea":"【全线路停电】停北市村6#村西,北市村2#|村西,北市村5#|村南,东市9#村中,万家庄村2#|村南,东市村2#|村西,固村村1#|村南,西市村7#村北,固村8#村北,西市村1#|村西,西市村2#|村东,东市村8#|村东,东市村5#|村东,八里庄2#,东市村4#|村东南,万家庄村3#村南,西市村3#|村北,张天峪村1#|村北,八里庄村1#|村内,北市村3#|村北,北市村4#|药材院,东市村12#村中,固村村2#|村北,万家庄村1#|村东","powerOffReason":"【停电原因】由于速断跳闸导致３５ＫＶ易水变电站张天佑５１３线路全线停电【变更送电】因抢修进度加快原因，送电时间由１８：００变更为１５：００【发布渠道】通过９５５９８发布","powerOffId":"2019112613000086"},{"poweroffId":2019112613000065,"sgpoweroffId":null,"subsName":"","lineName":"10KV520中学线","pubTranName":"10kV520中学线25121变压器【纯农排变】,程委30059IC卡【纯农排变】,程委30051IC卡【纯农排变】,","scope":"【影响街道/乡镇】大程委镇【高危重要客户】义利铜厂【影响客户】南堤圈、程委村","startTime":"2019-12-14 07:00:00","stopDate":"2019-12-14 14:00:00","orgNo":"1340608","typeCode":"计划停电","poweroffArea":"【全线路停电】停10kV520中学线25121变压器【纯农排变】,程委30059IC卡【纯农排变】,程委30051IC卡【纯农排变】","poweroffReason":"【停电原因】由于线路检修导致１１０ＫＶ程委变电站中学５２０线路全线停电【变更送电】无【发布渠道】保定市博野电视台（１１月２６日１９时３０分至２０时３０分之间）屏幕上方滚动","powerTime":"2019-12-14 13:10:34","powerComm":"已送电","subsNo":"","lineNo":"","tgNo":"","tgName":null,"infoStatus":"1","orgName":"国网博野县供电公司","typeName":null,"infoStatusName":null,"dateDay":null,"orgNos":null,"nowTime":null,"countyName":null,"streetName":null,"villageName":null,"roadName":null,"communityName":null,"tranName":null,"sdLineName":null,"cityCode":"1340608","cityName":"国网博野县供电公司","provinceCode":null,"stopTime":"2019-12-14 14:00:00","powerType":"全部","powerOffArea":"【全线路停电】停10kV520中学线25121变压器【纯农排变】,程委30059IC卡【纯农排变】,程委30051IC卡【纯农排变】","powerOffReason":"【停电原因】由于线路检修导致１１０ＫＶ程委变电站中学５２０线路全线停电【变更送电】无【发布渠道】保定市博野电视台（１１月２６日１９时３０分至２０时３０分之间）屏幕上方滚动","powerOffId":"2019112613000065"}],"pageModel":{"pageNow":354,"totalCount":10973,"totalPage":1098,"tableRows":0,"pageCount":10,"beginCount":3530},"isExperi":"1"}