{"message":"","today":"2020-06-15","seleList":[{"poweroffId":2019112613000021,"sgpoweroffId":null,"subsName":"","lineName":"东团堡线511","pubTranName":"511东团堡线袁家村1#,511东团堡线袁家村变压器,袁家村3号变压器,","scope":"【影响街道/乡镇】东团堡乡【高危重要客户】无【影响客户】袁家村","startTime":"2019-12-03 08:00:00","stopDate":"2019-12-03 12:00:00","orgNo":"1340615","typeCode":"临时停电","poweroffArea":"【分支停电】停511东团堡线袁家村1#,511东团堡线袁家村变压器,袁家村3号变压器","poweroffReason":"【停电原因】由于袁家村水利配变接引导致３５ＫＶ西团堡变电站１０ＫＶ东团堡线５１１线路袁家村３号分支０１１号杆刀闸以下线路停电【变更送电】无【发布渠道】通过９５５９８发布","powerTime":"2019-12-03 11:58:04","powerComm":"已送电","subsNo":"","lineNo":"","tgNo":"","tgName":null,"infoStatus":"1","orgName":"国网涞源县供电公司","typeName":null,"infoStatusName":null,"dateDay":null,"orgNos":null,"nowTime":null,"countyName":null,"streetName":null,"villageName":null,"roadName":null,"communityName":null,"tranName":null,"sdLineName":null,"cityCode":"1340615","cityName":"国网涞源县供电公司","provinceCode":null,"stopTime":"2019-12-03 12:00:00","powerType":"全部","powerOffArea":"【分支停电】停511东团堡线袁家村1#,511东团堡线袁家村变压器,袁家村3号变压器","powerOffReason":"【停电原因】由于袁家村水利配变接引导致３５ＫＶ西团堡变电站１０ＫＶ东团堡线５１１线路袁家村３号分支０１１号杆刀闸以下线路停电【变更送电】无【发布渠道】通过９５５９８发布","powerOffId":"2019112613000021"},{"poweroffId":2019112613000019,"sgpoweroffId":null,"subsName":"","lineName":"10kV中相578","pubTranName":"东何各庄1000,","scope":"【影响街道/乡镇】豆庄乡 【高危重要客户】无 【影响客户】东何各庄村","startTime":"2019-12-06 08:00:00","stopDate":"2019-12-06 17:00:00","orgNo":"1340626","typeCode":"计划停电","poweroffArea":"【单台区停电】停东何各庄1000","poweroffReason":"【停电原因】由于组装金具、导线架设工程导致２２０ＫＶ豆庄变电站１０ＫＶ中相５７８线路东何各庄１０００公变台区停电 【变更送电】无 【发布渠道】涿州电视台（１１月２６日至１２月０５日２１：００播放２次）屏幕上方滚动","powerTime":"2019-12-06 16:40:25","powerComm":"恢复送电","subsNo":"","lineNo":"","tgNo":"","tgName":null,"infoStatus":"1","orgName":"国网涿州市供电公司","typeName":null,"infoStatusName":null,"dateDay":null,"orgNos":null,"nowTime":null,"countyName":null,"streetName":null,"villageName":null,"roadName":null,"communityName":null,"tranName":null,"sdLineName":null,"cityCode":"1340626","cityName":"国网涿州市供电公司","provinceCode":null,"stopTime":"2019-12-06 17:00:00","powerType":"全部","powerOffArea":"【单台区停电】停东何各庄1000","powerOffReason":"【停电原因】由于组装金具、导线架设工程导致２２０ＫＶ豆庄变电站１０ＫＶ中相５７８线路东何各庄１０００公变台区停电 【变更送电】无 【发布渠道】涿州电视台（１１月２６日至１２月０５日２１：００播放２次）屏幕上方滚动","powerOffId":"2019112613000019"},{"poweroffId":2019112613000017,"sgpoweroffId":null,"subsName":"","lineName":"大庄线512","pubTranName":"马台村05台区,","scope":"【影响街道/乡镇】乌龙沟乡【高危重要客户】无【影响客户】马台村","startTime":"2019-12-04 09:00:00","stopDate":"2019-12-04 10:00:00","orgNo":"1340615","typeCode":"计划停电","poweroffArea":"【单台区停电】停马台村05台区","poweroffReason":"【停电原因】由于马台村扶贫水利工程接引导致３５ＫＶ乌龙沟变电站１０ＫＶ大庄线５１２线路马台村０５公变台区停电【变更送电】无【发布渠道】涞源电视台（２０１９年１１月２６日至２０１９年１２月３日）屏幕上方滚动","powerTime":"2019-12-04 09:55:14","powerComm":"已送电","subsNo":"","lineNo":"","tgNo":"","tgName":null,"infoStatus":"1","orgName":"国网涞源县供电公司","typeName":null,"infoStatusName":null,"dateDay":null,"orgNos":null,"nowTime":null,"countyName":null,"streetName":null,"villageName":null,"roadName":null,"communityName":null,"tranName":null,"sdLineName":null,"cityCode":"1340615","cityName":"国网涞源县供电公司","provinceCode":null,"stopTime":"2019-12-04 10:00:00","powerType":"全部","powerOffArea":"【单台区停电】停马台村05台区","powerOffReason":"【停电原因】由于马台村扶贫水利工程接引导致３５ＫＶ乌龙沟变电站１０ＫＶ大庄线５１２线路马台村０５公变台区停电【变更送电】无【发布渠道】涞源电视台（２０１９年１１月２６日至２０１９年１２月３日）屏幕上方滚动","powerOffId":"2019112613000017"},{"poweroffId":2019112613000013,"sgpoweroffId":null,"subsName":"","lineName":"鸽子岭线515","pubTranName":"韦地沟变压器,兰家庄变压器,后土沟变压器,","scope":"【影响街道/乡镇】杨家庄镇【高危重要客户】无【影响客户】苇地沟、后土沟、兰家庄","startTime":"2019-12-03 08:00:00","stopDate":"2019-12-03 11:30:00","orgNo":"1340615","typeCode":"临时停电","poweroffArea":"【分支停电】停兰家庄变压器,后土沟变压器,韦地沟变压器","poweroffReason":"【停电原因】由于兰家庄水利配变接引导致３５ＫＶ杨家庄变电站１０ＫＶ鸽子岭线５１５线路主干０３４号杆兰家庄分支００１号杆刀闸以下线路停电【变更送电】无【发布渠道】通过９５５９８发布","powerTime":"2019-12-03 11:28:04","powerComm":"已送电","subsNo":"","lineNo":"","tgNo":"","tgName":null,"infoStatus":"1","orgName":"国网涞源县供电公司","typeName":null,"infoStatusName":null,"dateDay":null,"orgNos":null,"nowTime":null,"countyName":null,"streetName":null,"villageName":null,"roadName":null,"communityName":null,"tranName":null,"sdLineName":null,"cityCode":"1340615","cityName":"国网涞源县供电公司","provinceCode":null,"stopTime":"2019-12-03 11:30:00","powerType":"全部","powerOffArea":"【分支停电】停兰家庄变压器,后土沟变压器,韦地沟变压器","powerOffReason":"【停电原因】由于兰家庄水利配变接引导致３５ＫＶ杨家庄变电站１０ＫＶ鸽子岭线５１５线路主干０３４号杆兰家庄分支００１号杆刀闸以下线路停电【变更送电】无【发布渠道】通过９５５９８发布","powerOffId":"2019112613000013"},{"poweroffId":2019112613000011,"sgpoweroffId":null,"subsName":"","lineName":"10kV515农场线","pubTranName":"屯里综合2台区,一队综合1台区,后市农排2台区【纯农排变】,屯里综合7台区,屯里农排3台区【纯农排变】,屯里农排15台区【纯农排变】,屯里农排18台区,二队农排2台区【纯农排变】,二队农排1台区【纯农排变】,三队综合1台区,屯里农排4台区【纯农排变】,屯里农排10台区【纯农排变】,屯里综合8台区,屯里农排17台区【纯农排变】,二队综合1台区,屯里综合3台区,南庄农排1台区【纯农排变】,屯里农排2台区【纯农排变】,三队农排3台区【纯农排变】,屯里综合5台区,屯里综合6台区,二队农排3台区【纯农排变】,五队农排1台区【纯农排变】,屯里农排6台区【纯农排变】,屯里综合4台区,屯里农排16台区【纯农排变】,二队农排4台区【纯农排变】,屯里农排5台区【纯农排变】,三队农排2台区【纯农排变】,屯里综合1台区,南庄农排8台区【纯农排变】,","scope":"【影响街道/乡镇】南庄镇【高危重要客户】无【影响客户】屯里村、农场（一队、二队、三队）、前市、南庄村、南庄胶厂","startTime":"2019-11-26 09:30:00","stopDate":"2019-11-26 13:00:00","orgNo":"1340616","typeCode":"其他临时停电","poweroffArea":"【全线路停电】停三队农排3台区【纯农排变】,南庄农排2台区【纯农排变】,屯里农排8台区【纯农排变】,五队农排1台区【纯农排变】,屯里农排13台区【纯农排变】,屯里农排9台区【纯农排变】,农场三队2,南庄农排1台区【纯农排变】,五坊农排1台区【纯农排变】,前市农排3台区【纯农排变】,屯里农排4台区【纯农排变】,五队农排2台区【纯农排变】,屯里农排16台区【纯农排变】,一队农排1台区【纯农排变】,二队农排2台区【纯农排变】,一队农排3台区【纯农排变】,屯里农排7台区【纯农排变】,屯里综合2台区,蠡县张七幸贤绳带,屯里农排15台区【纯农排变】,屯里综合3台区,后市农排9台区【纯农排变】,屯里农排10台区【纯农排变】,一队农排2台区【纯农排变】,屯里农排17台区【纯农排变】,一队农排4台区【纯农排变】,屯里农排6台区【纯农排变】,三队综合1台区,屯里综合8台区,屯里综合6台区,三队农排1台区【纯农排变】,屯里农排5台区【纯农排变】,前市农排7台区【纯农排变】,屯里农排1台区【纯农排变】,一队综合1台区,南庄农排7台区【纯农排变】,五坊农排8台区【纯农排变】,屯里综合1台区,二队农排3台区【纯农排变】,屯里农排12台区【纯农排变】,三队农排2台区【纯农排变】,屯里综合5台区,屯里综合4台区,屯里综合7台区,五坊村东,屯里农排14台区【纯农排变】,南庄树苗厂,农场五队,屯里农排11台区【纯农排变】,南庄农排8台区【纯农排变】,后市农排2台区【纯农排变】,农砖厂小,二队综合1台区,五坊东二,五坊农四,屯里农排2台区【纯农排变】,屯里农排3台区【纯农排变】,农砖厂大,二队农排1台区【纯农排变】,屯里农排18台区,二队农排4台区【纯农排变】","poweroffReason":"【停电原因】由于站内开关机构缺陷，需停电进行紧急消缺导致３５ＫＶ洪善堡变电站１０ＫＶ农场５１５线路全线停电【变更送电】因工作进度加快原因，送电时间由１５：３０变更为１３：００【发布渠道】通过９５５９８发布","powerTime":"2019-11-26 12:32:47","powerComm":"已送电","subsNo":"","lineNo":"","tgNo":"","tgName":null,"infoStatus":"1","orgName":"国网蠡县供电公司","typeName":null,"infoStatusName":null,"dateDay":null,"orgNos":null,"nowTime":null,"countyName":null,"streetName":null,"villageName":null,"roadName":null,"communityName":null,"tranName":null,"sdLineName":null,"cityCode":"1340616","cityName":"国网蠡县供电公司","provinceCode":null,"stopTime":"2019-11-26 13:00:00","powerType":"全部","powerOffArea":"【全线路停电】停三队农排3台区【纯农排变】,南庄农排2台区【纯农排变】,屯里农排8台区【纯农排变】,五队农排1台区【纯农排变】,屯里农排13台区【纯农排变】,屯里农排9台区【纯农排变】,农场三队2,南庄农排1台区【纯农排变】,五坊农排1台区【纯农排变】,前市农排3台区【纯农排变】,屯里农排4台区【纯农排变】,五队农排2台区【纯农排变】,屯里农排16台区【纯农排变】,一队农排1台区【纯农排变】,二队农排2台区【纯农排变】,一队农排3台区【纯农排变】,屯里农排7台区【纯农排变】,屯里综合2台区,蠡县张七幸贤绳带,屯里农排15台区【纯农排变】,屯里综合3台区,后市农排9台区【纯农排变】,屯里农排10台区【纯农排变】,一队农排2台区【纯农排变】,屯里农排17台区【纯农排变】,一队农排4台区【纯农排变】,屯里农排6台区【纯农排变】,三队综合1台区,屯里综合8台区,屯里综合6台区,三队农排1台区【纯农排变】,屯里农排5台区【纯农排变】,前市农排7台区【纯农排变】,屯里农排1台区【纯农排变】,一队综合1台区,南庄农排7台区【纯农排变】,五坊农排8台区【纯农排变】,屯里综合1台区,二队农排3台区【纯农排变】,屯里农排12台区【纯农排变】,三队农排2台区【纯农排变】,屯里综合5台区,屯里综合4台区,屯里综合7台区,五坊村东,屯里农排14台区【纯农排变】,南庄树苗厂,农场五队,屯里农排11台区【纯农排变】,南庄农排8台区【纯农排变】,后市农排2台区【纯农排变】,农砖厂小,二队综合1台区,五坊东二,五坊农四,屯里农排2台区【纯农排变】,屯里农排3台区【纯农排变】,农砖厂大,二队农排1台区【纯农排变】,屯里农排18台区,二队农排4台区【纯农排变】","powerOffReason":"【停电原因】由于站内开关机构缺陷，需停电进行紧急消缺导致３５ＫＶ洪善堡变电站１０ＫＶ农场５１５线路全线停电【变更送电】因工作进度加快原因，送电时间由１５：３０变更为１３：００【发布渠道】通过９５５９８发布","powerOffId":"2019112613000011"},{"poweroffId":2019112521000020,"sgpoweroffId":null,"subsName":"","lineName":"10kV七一路站533线路","pubTranName":"B202柱上变压器,10kVB1932.B1933配电室B1933配电变压器,10kVB1035箱式变电站B1035配电变压器,10kVB1932.B1933配电室B1932配电变压器,B1215柱上变压器,10kVB1036箱式变电站B1036配电变压器,","scope":"【影响街道/乡镇】竞秀区韩村北路、盛兴路、阳光北大街 【高危重要客户】无 【影响客户】物勘院二生活区、染厂宿舍、市职机关宿舍五号区、房管宿舍、建安三公司","startTime":"2019-11-27 06:30:00","stopDate":"2019-11-27 17:00:00","orgNo":"13406","typeCode":"临时停电","poweroffArea":"【分支停电】停10kVB1036箱式变电站B1036配电变压器,B202柱上变压器,10kVB1932.B1933配电室B1933配电变压器,10kVB1035箱式变电站B1035配电变压器,10kVB1932.B1933配电室B1932配电变压器,B1215柱上变压器","poweroffReason":"【停电原因】由于供电设备临时检修导致１０ＫＶ七一路变电站５３３线路阳光北大街６９号杆西分支１号杆开关以下停电【变更送电】无【发布渠道】保定市保定有线电视台（１１月２５日２０时１５分至２１时４５分之间）屏幕上滚动","powerTime":"2019-11-27 16:55:17","powerComm":"已送电","subsNo":"","lineNo":"","tgNo":"","tgName":null,"infoStatus":"1","orgName":"保定供电公司","typeName":null,"infoStatusName":null,"dateDay":null,"orgNos":null,"nowTime":null,"countyName":null,"streetName":null,"villageName":null,"roadName":null,"communityName":null,"tranName":null,"sdLineName":null,"cityCode":"13406","cityName":"保定供电公司","provinceCode":null,"stopTime":"2019-11-27 17:00:00","powerType":"全部","powerOffArea":"【分支停电】停10kVB1036箱式变电站B1036配电变压器,B202柱上变压器,10kVB1932.B1933配电室B1933配电变压器,10kVB1035箱式变电站B1035配电变压器,10kVB1932.B1933配电室B1932配电变压器,B1215柱上变压器","powerOffReason":"【停电原因】由于供电设备临时检修导致１０ＫＶ七一路变电站５３３线路阳光北大街６９号杆西分支１号杆开关以下停电【变更送电】无【发布渠道】保定市保定有线电视台（１１月２５日２０时１５分至２１时４５分之间）屏幕上滚动","powerOffId":"2019112521000020"},{"poweroffId":2019112513000203,"sgpoweroffId":null,"subsName":"","lineName":"义和庄线524","pubTranName":"110站变,","scope":"【影响街道/乡镇】五一路、京白路、富民路、北一环 【高危重要客户】凤凰城小区、土地分局、公安小区、晨鼎小区、京呈口腔 【影响客户】保定辰鼎物业服务有限公司、王铁军、北京时代风尚房地产开发有限公司（时代东）、百德时代、高碑店市鹏飞伟业房地产开发有限公司、白金柱、中国铁塔股份有限公司保定市分公司、土普家园三期、土普家园二期、高秋生、保定市国土资源局白沟新城分局、公安局、中国移动通信集团河北有限公司保定分公司、现代城市花园、土普家园小区、宋建辉、土普家园二期商业、李二旺、郭建明、保定白沟吉兆隆无纺布厂、朱利民、魏建磊、保定黛莱箱包服饰制造有限公司（李贺群）、李明亮、王永田、高碑店市昌宏化纤有限公司、王迪、华威皮革制品厂、保定博永商贸有限公司、白沟巴拉都皮具有限公司、高碑店市白沟魏庄小区、高碑店市双力塑胶有限责任公司、保定白沟新城和同物业有限公司（秀水华庭小区）、高碑店市鑫远房地产开发有限公司（金开元小区）、河北格丽亚皮具有限公司、白沟新城建设规划局、保定白沟新城恒睿塑胶制品厂、张根青、金开元小区二期、张老黑、保定白沟新城和同物业有限公司、保定润和房地产开发有限公司（梧桐苑）、海宏","startTime":"2019-11-25 16:32:24","stopDate":"2019-11-25 21:00:00","orgNo":"1340612","typeCode":"电网故障停限电","poweroffArea":"【全线路停电】停王迪,朱利民,华威皮革制品厂,李明亮,王永田,王铁军,郭建明,李二旺,李贺群,张老黑,变压器,张民（百得时代地下室区）变压器,0607976047-白金柱-专变-127454291-变压器,付宇,宋建辉变压器,0387441566-富润花园3-专变-45278687-吕锁成3,王玉才,永轩变压器,苏艳华,0387442048-海宏工业有限公司-专变-45278576-海宏工业有限公司,魏国旺,白沟土地分局,移动公司变压器,110站变,0387442426-公安局1-专变-45278785-公安局1,0387443230保定辰鼎物业服务有限公司,张民（百得时代西区）变压器,京呈口腔,0387441058-白沟镇富润花园小区-专变-45278645-白沟镇富润花园小区,张根青,公安局2,0387442006-高秋生-专变-45278565-高秋生,0387442396-富润花园4-专变-45278566-吕锁成4,变压器160,金开元二期,张春晖,吕锁成2,凤凰城物业2,凤凰城物业1,鹏飞伟业变台,凤凰城2,董振良（秀水华庭）变台","poweroffReason":"【停电原因】由于主干线路电缆烧毁导致１１０ＫＶ白沟变电站１０ＫＶ义和庄５２４线路全线停电 【变更送电】无 【发布渠道】通过９５５９８发布","powerTime":"2019-11-25 20:46:27","powerComm":"已送电","subsNo":"","lineNo":"","tgNo":"","tgName":null,"infoStatus":"1","orgName":"国网高碑店市供电公司","typeName":null,"infoStatusName":null,"dateDay":null,"orgNos":null,"nowTime":null,"countyName":null,"streetName":null,"villageName":null,"roadName":null,"communityName":null,"tranName":null,"sdLineName":null,"cityCode":"1340612","cityName":"国网高碑店市供电公司","provinceCode":null,"stopTime":"2019-11-25 21:00:00","powerType":"全部","powerOffArea":"【全线路停电】停王迪,朱利民,华威皮革制品厂,李明亮,王永田,王铁军,郭建明,李二旺,李贺群,张老黑,变压器,张民（百得时代地下室区）变压器,0607976047-白金柱-专变-127454291-变压器,付宇,宋建辉变压器,0387441566-富润花园3-专变-45278687-吕锁成3,王玉才,永轩变压器,苏艳华,0387442048-海宏工业有限公司-专变-45278576-海宏工业有限公司,魏国旺,白沟土地分局,移动公司变压器,110站变,0387442426-公安局1-专变-45278785-公安局1,0387443230保定辰鼎物业服务有限公司,张民（百得时代西区）变压器,京呈口腔,0387441058-白沟镇富润花园小区-专变-45278645-白沟镇富润花园小区,张根青,公安局2,0387442006-高秋生-专变-45278565-高秋生,0387442396-富润花园4-专变-45278566-吕锁成4,变压器160,金开元二期,张春晖,吕锁成2,凤凰城物业2,凤凰城物业1,鹏飞伟业变台,凤凰城2,董振良（秀水华庭）变台","powerOffReason":"【停电原因】由于主干线路电缆烧毁导致１１０ＫＶ白沟变电站１０ＫＶ义和庄５２４线路全线停电 【变更送电】无 【发布渠道】通过９５５９８发布","powerOffId":"2019112513000203"},{"poweroffId":2019112513000197,"sgpoweroffId":null,"subsName":"","lineName":"10kV538陈村线","pubTranName":"10KV538陈村线代庄03111台区变压器,10KV538陈村线代庄47734台区变压器,","scope":"【影响街道/乡镇】东墟乡【高危重要客户】无【影响客户】代庄村部分","startTime":"2019-11-25 17:30:00","stopDate":"2019-11-25 19:30:00","orgNo":"1340608","typeCode":"其他临时停电","poweroffArea":"【分支停电】停10KV538陈村线代庄47734台区变压器,10KV538陈村线代庄03111台区变压器","poweroffReason":"【停电原因】由于刀闸发热，需停电进行紧急消缺导致１１０ＫＶ张岳变电站陈村５３８线路代庄分支４７号杆０１号刀闸以下线路停电【变更送电】无【发布渠道】通过９５５９８发布","powerTime":"2019-11-25 19:25:49","powerComm":"已送电","subsNo":"","lineNo":"","tgNo":"","tgName":null,"infoStatus":"1","orgName":"国网博野县供电公司","typeName":null,"infoStatusName":null,"dateDay":null,"orgNos":null,"nowTime":null,"countyName":null,"streetName":null,"villageName":null,"roadName":null,"communityName":null,"tranName":null,"sdLineName":null,"cityCode":"1340608","cityName":"国网博野县供电公司","provinceCode":null,"stopTime":"2019-11-25 19:30:00","powerType":"全部","powerOffArea":"【分支停电】停10KV538陈村线代庄47734台区变压器,10KV538陈村线代庄03111台区变压器","powerOffReason":"【停电原因】由于刀闸发热，需停电进行紧急消缺导致１１０ＫＶ张岳变电站陈村５３８线路代庄分支４７号杆０１号刀闸以下线路停电【变更送电】无【发布渠道】通过９５５９８发布","powerOffId":"2019112513000197"},{"poweroffId":2019112513000190,"sgpoweroffId":null,"subsName":"","lineName":"10kV工业城线571","pubTranName":"1博仕园小区3,1博士园小区,1博仕园小区4,1博仕园小区6,1博仕园小区5,何辛庄外7【纯农排变】,博仕园1区,","scope":"【影响街道/乡镇】北市区 【高危重要客户】无 【影响客户】博仕园、园中苑","startTime":"2019-11-25 15:53:26","stopDate":"2019-11-25 17:30:00","orgNo":"1340618","typeCode":"电网故障停限电","poweroffArea":"【全线路停电】停1博仕园小区4,博仕园二期工程04,博仕园二期工程03,保定市福乐瑞盛服装有限公司,保定昱晟混凝土制造有限公司,白洋淀科技城投资有限公司,0593476783-保定市路灯管理处-专变-125932018-保定市路灯管理处5,1博仕园小区5,保定市北市区高端物流服务中心,保定市福乐瑞盛服装有限公司01,保定昂硕商贸有限公司,保定市北市区顺畅维修部,保定俩久仨柒商贸有限公司,0387506456-保定市立中车轮制造有限公司-专变-209874366-保定市立中车轮制造有限公司,保定市佳逸豪酒店有限公司,保定市宇龙机械零部件有限公司,南孙村杨年旗大棚,1博仕园小区3,1博士园小区,保定市华泰房地产开发有限责任公司,1博仕园小区6,保定市居兴门窗制造有限公司,保定昱晟混凝土制造有限公司01,保定市路灯管理处2,保定市北市区宏福租贷站,0387506704-中央司法警官学院-专变-45325029-中央司法警官学院,0387505655-保定市北市区控电设备厂-专变-45325028-保定市北市区控电设备厂,0387506690-张辛庄-专变-45325071-张辛庄,0593476783-保定市路灯管理处-专变-125929126-保定市路灯管理处6,保定市北市区高端物流服务中心01,保定俩久仨柒商贸有限公司01,河北省高速公路京石改扩建筹建处,东百楼村委会,保定昊科文化传播有限公司,0387506717-河大驾校-专变-45325035-河大驾校,0387506456-保定市立中车轮制造有限公司-专变-45325032-保定市立中车轮制造有限公司,0387505408-唐山虹基房地产开发有限公司保定分公司-专变-45325030-唐山虹基房地产开发有限公司保定分公司,博仕园二期工程,保定市路灯管理处,河北京石高速公路开发有限公司,保定市路灯管理处4,博仕园二期工程01,河北通菱汽车销售服务有限公司保定分公司,何辛庄外7【纯农排变】,博仕园1区,0593476783-保定市路灯管理处-专变-125931998-保定市路灯管理处3,0593476783-保定市路灯管理处-专变-125932026-保定市路灯管理处7,0593476783-保定市路灯管理处-专变-125931993-保定市路灯管理处8,0387506746-保定维特瑞交通设施工程有限责任公司-专变-45325001-保定市恒运电器设备有限公司,博仕园二期工程02,保定市天业房地产开发有限公司,河北建新建筑集团股份有限公司,保定金隆机械制造有限公司","poweroffReason":"【停电原因】由于主干１２１号杆南Ｔ６号杆东Ｔ４号杆何辛庄外７苇子搭引线导致１０ＫＶ戎官营开关变电站１０ＫＶ工业城线５７１线路全线停电 【变更送电】因抢修进度加快原因，送电时间由２２：００变更为１７：３０ 【发布渠道】通过９５５９８发布","powerTime":"2019-11-25 16:53:17","powerComm":"于占军通知已送电","subsNo":"","lineNo":"","tgNo":"","tgName":null,"infoStatus":"1","orgName":"国网清苑县供电公司","typeName":null,"infoStatusName":null,"dateDay":null,"orgNos":null,"nowTime":null,"countyName":null,"streetName":null,"villageName":null,"roadName":null,"communityName":null,"tranName":null,"sdLineName":null,"cityCode":"1340618","cityName":"国网清苑县供电公司","provinceCode":null,"stopTime":"2019-11-25 17:30:00","powerType":"全部","powerOffArea":"【全线路停电】停1博仕园小区4,博仕园二期工程04,博仕园二期工程03,保定市福乐瑞盛服装有限公司,保定昱晟混凝土制造有限公司,白洋淀科技城投资有限公司,0593476783-保定市路灯管理处-专变-125932018-保定市路灯管理处5,1博仕园小区5,保定市北市区高端物流服务中心,保定市福乐瑞盛服装有限公司01,保定昂硕商贸有限公司,保定市北市区顺畅维修部,保定俩久仨柒商贸有限公司,0387506456-保定市立中车轮制造有限公司-专变-209874366-保定市立中车轮制造有限公司,保定市佳逸豪酒店有限公司,保定市宇龙机械零部件有限公司,南孙村杨年旗大棚,1博仕园小区3,1博士园小区,保定市华泰房地产开发有限责任公司,1博仕园小区6,保定市居兴门窗制造有限公司,保定昱晟混凝土制造有限公司01,保定市路灯管理处2,保定市北市区宏福租贷站,0387506704-中央司法警官学院-专变-45325029-中央司法警官学院,0387505655-保定市北市区控电设备厂-专变-45325028-保定市北市区控电设备厂,0387506690-张辛庄-专变-45325071-张辛庄,0593476783-保定市路灯管理处-专变-125929126-保定市路灯管理处6,保定市北市区高端物流服务中心01,保定俩久仨柒商贸有限公司01,河北省高速公路京石改扩建筹建处,东百楼村委会,保定昊科文化传播有限公司,0387506717-河大驾校-专变-45325035-河大驾校,0387506456-保定市立中车轮制造有限公司-专变-45325032-保定市立中车轮制造有限公司,0387505408-唐山虹基房地产开发有限公司保定分公司-专变-45325030-唐山虹基房地产开发有限公司保定分公司,博仕园二期工程,保定市路灯管理处,河北京石高速公路开发有限公司,保定市路灯管理处4,博仕园二期工程01,河北通菱汽车销售服务有限公司保定分公司,何辛庄外7【纯农排变】,博仕园1区,0593476783-保定市路灯管理处-专变-125931998-保定市路灯管理处3,0593476783-保定市路灯管理处-专变-125932026-保定市路灯管理处7,0593476783-保定市路灯管理处-专变-125931993-保定市路灯管理处8,0387506746-保定维特瑞交通设施工程有限责任公司-专变-45325001-保定市恒运电器设备有限公司,博仕园二期工程02,保定市天业房地产开发有限公司,河北建新建筑集团股份有限公司,保定金隆机械制造有限公司","powerOffReason":"【停电原因】由于主干１２１号杆南Ｔ６号杆东Ｔ４号杆何辛庄外７苇子搭引线导致１０ＫＶ戎官营开关变电站１０ＫＶ工业城线５７１线路全线停电 【变更送电】因抢修进度加快原因，送电时间由２２：００变更为１７：３０ 【发布渠道】通过９５５９８发布","powerOffId":"2019112513000190"},{"poweroffId":2019112513000166,"sgpoweroffId":null,"subsName":"","lineName":"10kV526曹庄子线","pubTranName":"八兄公用照明1台区,蔡庄子公用照明2台区,东庄公用照明1台区,八兄公用照明5台区,保定迎泰房地产开发有限公司照明1变压器5,保定迎泰房地产开发有限公司照明2变压器1,保定迎泰房地产开发有限公司照明2变压器2,中军帐公用照明1台区,客户投资_中军帐公用照明5台区,蔡庄子公用照明4台区,保定迎泰房地产开发有限公司照明1变压器3,八兄公用照明3台区,保定迎泰房地产开发有限公司照明1变压器6,八兄公用照明4台区,蔡庄子公用照明3台区,保定迎泰房地产开发有限公司照明1变压器2,保定迎泰房地产开发有限公司照明2变压器3,八兄公用照明7台区,保定迎泰房地产开发有限公司照明1变压器4,八兄公用照明8台区,保定迎泰房地产开发有限公司照明1变压器7,南关公用照明1台区,保定迎泰房地产开发有限公司照明1变压器1,","scope":"【影响街道/乡镇】西城区、南城区【高危重要客户】无【影响客户】蔡庄子、中军帐、八兄、迎泰新城、紫竹园小区及工地、普林第一城工地、南关（１０７国道）","startTime":"2019-11-26 08:00:00","stopDate":"2019-11-26 14:00:00","orgNo":"1340610","typeCode":"其他临时停电","poweroffArea":"【全线路停电】停保定迎泰房地产开发有限公司照明1变压器1,保定迎泰房地产开发有限公司照明1变压器2,保定迎泰房地产开发有限公司照明2变压器3,八兄公用照明7台区,保定迎泰房地产开发有限公司照明1变压器4,八兄公用照明8台区,保定迎泰房地产开发有限公司照明1变压器7,南关公用照明1台区,八兄公用照明1台区,蔡庄子公用照明2台区,东庄公用照明1台区,八兄公用照明5台区,保定迎泰房地产开发有限公司照明1变压器5,保定迎泰房地产开发有限公司照明2变压器1,保定迎泰房地产开发有限公司照明2变压器2,中军帐公用照明1台区,客户投资_中军帐公用照明5台区,蔡庄子公用照明4台区,保定迎泰房地产开发有限公司照明1变压器3,八兄公用照明3台区,保定迎泰房地产开发有限公司照明1变压器6,八兄公用照明4台区,蔡庄子公用照明3台区","poweroffReason":"【停电原因】由于弓子线打火需停电进行紧急检修导致１１０ＫＶ定县变电站１０ＫＶ５２６曹庄子线路全线停电 【变更送电】无 【发布渠道】９５５９８","powerTime":"2019-11-26 13:03:01","powerComm":"已送电","subsNo":"","lineNo":"","tgNo":"","tgName":null,"infoStatus":"1","orgName":"国网定州市供电公司","typeName":null,"infoStatusName":null,"dateDay":null,"orgNos":null,"nowTime":null,"countyName":null,"streetName":null,"villageName":null,"roadName":null,"communityName":null,"tranName":null,"sdLineName":null,"cityCode":"1340610","cityName":"国网定州市供电公司","provinceCode":null,"stopTime":"2019-11-26 14:00:00","powerType":"全部","powerOffArea":"【全线路停电】停保定迎泰房地产开发有限公司照明1变压器1,保定迎泰房地产开发有限公司照明1变压器2,保定迎泰房地产开发有限公司照明2变压器3,八兄公用照明7台区,保定迎泰房地产开发有限公司照明1变压器4,八兄公用照明8台区,保定迎泰房地产开发有限公司照明1变压器7,南关公用照明1台区,八兄公用照明1台区,蔡庄子公用照明2台区,东庄公用照明1台区,八兄公用照明5台区,保定迎泰房地产开发有限公司照明1变压器5,保定迎泰房地产开发有限公司照明2变压器1,保定迎泰房地产开发有限公司照明2变压器2,中军帐公用照明1台区,客户投资_中军帐公用照明5台区,蔡庄子公用照明4台区,保定迎泰房地产开发有限公司照明1变压器3,八兄公用照明3台区,保定迎泰房地产开发有限公司照明1变压器6,八兄公用照明4台区,蔡庄子公用照明3台区","powerOffReason":"【停电原因】由于弓子线打火需停电进行紧急检修导致１１０ＫＶ定县变电站１０ＫＶ５２６曹庄子线路全线停电 【变更送电】无 【发布渠道】９５５９８","powerOffId":"2019112513000166"}],"pageModel":{"pageNow":356,"totalCount":10973,"totalPage":1098,"tableRows":0,"pageCount":10,"beginCount":3550},"isExperi":"1"}