{"message":"","today":"2020-06-15","seleList":[{"poweroffId":2019112413000284,"sgpoweroffId":null,"subsName":"","lineName":"市政线511","pubTranName":"建委公变变压器,公安1号变压器,公安3号变压器,公安4号变压器,公安2号变压器,","scope":"【影响街道/乡镇】迎宾路、兴华中路 【高危重要客户】无 【影响客户】今日家园、老公安局家属楼、建委家属楼、金盾小区、人保家属楼","startTime":"2019-11-25 00:00:00","stopDate":"2019-11-25 02:00:00","orgNo":"1340612","typeCode":"其他临时停电","poweroffArea":"【分支停电】停建委公变变压器,公安1号变压器,今日家园,公安3号变压器,公安4号变压器,公安2号变压器","poweroffReason":"【停电原因】由于更换金盾小区高压计量导致１１０ＫＶ方家务变电站１０ＫＶ市政５１１线路０３号断路器以下停电 【变更送电】因工作进度加快原因，送电时间由３：００变更为２：００ 【发布渠道】通过９５５９８发布","powerTime":"2019-11-25 01:23:09","powerComm":"已送电","subsNo":"","lineNo":"","tgNo":"","tgName":null,"infoStatus":"1","orgName":"国网高碑店市供电公司","typeName":null,"infoStatusName":null,"dateDay":null,"orgNos":null,"nowTime":null,"countyName":null,"streetName":null,"villageName":null,"roadName":null,"communityName":null,"tranName":null,"sdLineName":null,"cityCode":"1340612","cityName":"国网高碑店市供电公司","provinceCode":null,"stopTime":"2019-11-25 02:00:00","powerType":"全部","powerOffArea":"【分支停电】停建委公变变压器,公安1号变压器,今日家园,公安3号变压器,公安4号变压器,公安2号变压器","powerOffReason":"【停电原因】由于更换金盾小区高压计量导致１１０ＫＶ方家务变电站１０ＫＶ市政５１１线路０３号断路器以下停电 【变更送电】因工作进度加快原因，送电时间由３：００变更为２：００ 【发布渠道】通过９５５９８发布","powerOffId":"2019112413000284"},{"poweroffId":2019112413000251,"sgpoweroffId":null,"subsName":"","lineName":"吴庄线516","pubTranName":"徐水县思美特鞋厂变压器,北邵庄2号变压器【纯农排变】,保定亿盛鞋业有限公司,北邵庄供129号变压器,吴庄12号变压器,徐水县华鑫碾米加工厂,西崔庄供131号变压器,西崔庄供5号变压器,北邵庄1号变压器【纯农排变】,徐水县华晨铸造厂,0680042882-保定市苏坨面粉加工有限公司-专变-219584554-保定市苏坨面粉加工有限公司变压器,南邵庄4号变压器,干河沟5号变压器,徐水天源综合医院,徐水县助力加热油管厂,张庄2号变压器【纯农排变】,徐水县仙登鞋材厂,南邵庄5号变压器,永胜毛纺厂,徐水县远征鞋底厂,徐水县鼎亮门窗制造有限公司,南邵庄供99号变压器,永盛橡塑厂1号,商平庄鞋厂,南邵庄供100#箱变 配电变压器,西崔庄1号变压器,徐水县盛源工艺加工厂,西崔庄5号变压器,徐水县顺达模具厂,南邵庄供69号变压器,南邵庄13号变压器,南邵庄供91号变压器,南邵庄3号变压器,南邵庄供77号变压器,南邵庄9号变压器,干沟供52号变压器,徐水县长兴洗毛厂,保定市徐水天源综合医院,徐水县吉星宇鞋服制造有限公司,南邵庄供32号变压器,南邵庄11号变压器,徐水县远征橡胶制品厂2号,东方灵星机毡厂,西崔庄供51号变压器,南邵庄面粉一厂,南邵庄供43号变压器,徐水县宝来毛纺制品有限公司2号,徐水县远征橡胶制品厂3号,北邵庄4号变压器,南邵庄汽车电路器材厂,徐水县峻鼎鞋材有限公司(250KVA),徐水县宏达制鞋厂,南邵庄供28号变压器【纯农排变】,南邵庄10号变压器,保定华艺帽业有限公司1号,徐水县吉星宇鞋服制造有限公司1号,中国联合网络通信有限公司徐水县分公司崔庄,王铁庄供119号变压器,保定市徐水区奥尔特鞋材厂,吉昌毛纺厂,0675479965-徐水县昌顺木材加工有限公司-专变-216137462-徐水县昌顺木材加工有限公司,保定市徐水区百渡鞋材加工厂,西崔庄供81号变压器,变压器,徐水县邵庄增国鞋厂,朝阳毛纺厂,徐水县金龙机架厂,南邵庄2号变压器,徐水县峻鼎鞋材有限公司3号,南邵庄供110号变压器,西崔庄供97号变压器,商平庄供83号变压器,南邵庄供101#高压间隔配电变压器,西崔庄2号变压器,北邵庄供106号变压器,徐水县超亿鞋服有限公司,西崔庄面粉厂,西崔庄7号变压器,南邵庄1号变压器,徐水县盛达电路板厂,南邵庄12号变压器,南邵庄8号变压器【纯农排变】,徐水县东信毛纺制品有限公司,南邵庄油毡厂,张庄3号变压器,商平庄供46号变压器,徐水县中原包装厂,北邵庄供125号变压器,北邵庄6号变压器,徐水县东升针刺毡厂,徐水县伟通机械加工厂,崔庄镇人民政府,张庄供113号变压器,南邵庄供75号变压器,西崔庄8号变压器,商平庄6号变压器,商平庄供123号变压器,徐水县宏鑫建材商店,徐水县东方灵星机毡厂,0684455497-徐水县思美特鞋厂-专变-223609302-徐水县思美特鞋厂变压器,南邵庄供67号变压器,商平庄供2号变压器,南邵庄水么石厂,保定华艺帽业有限公司2号250,王铁庄供33号变压器,南邵庄板厂,徐水永盛橡塑厂2号,北邵庄3号变压器,北邵庄供103号变压器,北邵庄供42号变压器,北邵供65号变压器【纯农排变】,太行毛纺集团","scope":"【影响街道/乡镇】崔庄镇 【高危重要客户】无 【影响客户】南邵庄、王铁庄、张庄、西崔庄、商平庄、北邵庄、干河沟","startTime":"2019-11-24 17:50:00","stopDate":"2019-11-24 23:00:00","orgNo":"1340605","typeCode":"超电网供电能力停限电","poweroffArea":"【全线路停电】停南邵庄供69号变压器,王铁庄供119号变压器,南邵庄供43号变压器,徐水县宏鑫建材商店,徐水县助力加热油管厂,商平庄供123号变压器,王铁庄供33号变压器,南邵庄12号变压器,徐水县峻鼎鞋材有限公司3号,徐水县仙登鞋材厂,南邵庄供101#高压间隔配电变压器,北邵庄供42号变压器,保定市徐水区百渡鞋材加工厂,徐水县东方灵星机毡厂,北邵庄3号变压器,徐水县东信毛纺制品有限公司,南邵庄供75号变压器,北邵庄供129号变压器,西崔庄供51号变压器,张庄供113号变压器,商平庄供2号变压器,北邵庄4号变压器,西崔庄供81号变压器,变压器,西崔庄2号变压器,徐水县吉星宇鞋服制造有限公司,北邵庄2号变压器【纯农排变】,干沟供52号变压器,保定亿盛鞋业有限公司,吴庄12号变压器,商平庄供46号变压器,徐水县伟通机械加工厂,南邵庄供110号变压器,北邵庄供125号变压器,南邵庄11号变压器,徐水县华晨铸造厂,徐水永盛橡塑厂2号,徐水县金龙机架厂,西崔庄供131号变压器,南邵庄供28号变压器【纯农排变】,徐水县华鑫碾米加工厂,保定市徐水区奥尔特鞋材厂,徐水县中原包装厂,徐水县峻鼎鞋材有限公司(250KVA),徐水县宏达制鞋厂,保定市徐水天源综合医院,保定市徐水区崔庄镇南邵庄小学,张庄2号变压器【纯农排变】,南邵庄3号变压器,太行毛纺集团3号,徐水县远征橡胶制品厂1号,东方灵星机毡厂,南邵庄13号变压器,徐水县东升针刺毡厂,南邵庄汽车电路器材厂,南邵庄供100#箱变 配电变压器,商平庄供83号变压器,徐水县宝来毛纺制品有限公司2号,三环橡胶厂,0675479965-徐水县昌顺木材加工有限公司-专变-216137462-徐水县昌顺木材加工有限公司,永兴拔丝厂,徐水县鼎亮门窗制造有限公司,南邵庄10号变压器,北邵庄供103号变压器,徐水县思美特鞋厂变压器,南邵庄供32号变压器,南邵庄5号变压器,南邵供34号变压器,0684455497-徐水县思美特鞋厂-专变-223609302-徐水县思美特鞋厂变压器,永胜毛纺厂,南邵庄8号变压器【纯农排变】,西崔庄8号变压器,南邵庄水么石厂,商平庄鞋厂,永盛橡塑厂1号,太行毛纺集团有限公司1号,徐水县长兴洗毛厂,北邵供65号变压器【纯农排变】,商平庄小康鞋厂,南邵庄供99号变压器,崔庄镇人民政府,0680042882-保定市苏坨面粉加工有限公司-专变-219584554-保定市苏坨面粉加工有限公司变压器,张庄3号变压器,南邵庄供91号变压器,徐水县远征鞋底厂,南邵庄供102#箱变配电变压器,南邵庄面粉一厂,南邵庄油毡厂,北邵庄1号变压器【纯农排变】,朝阳毛纺厂,徐水县盛达电路板厂,徐水县盛源工艺加工厂,西崔庄供97号变压器,南邵庄供77号变压器,徐水县顺达模具厂,吉昌毛纺厂,徐水县远征橡胶制品厂3号,徐水县吉星宇鞋服制造有限公司1号,红星造纸厂1号,徐水县邵庄增国鞋厂,南邵庄板厂,保定华艺帽业有限公司2号250,北邵庄6号变压器,西崔庄面粉厂,中国联合网络通信有限公司徐水县分公司崔庄,徐水县超亿鞋服有限公司,南邵庄4号变压器,南邵庄9号变压器,西崔庄5号变压器,西崔庄1号变压器,北邵庄供106号变压器,南邵庄2号变压器,商平庄6号变压器,徐水天源综合医院,南邵庄供67号变压器,北邵庄供29号变压器【纯农排变】,保定华艺帽业有限公司1号,徐水县远征橡胶制品厂2号,西崔庄7号变压器,干河沟5号变压器,南邵庄1号变压器,西崔庄供5号变压器","poweroffReason":"【停电原因】因崔庄变电站主变过负荷导致３５ＫＶ崔庄变电站吴庄线５１６线路全线停电 【变更送电】无 【发布渠道】通过９５５９８发布","powerTime":"2019-11-24 22:02:26","powerComm":"已送电","subsNo":"","lineNo":"","tgNo":"","tgName":null,"infoStatus":"1","orgName":"国网徐水县供电公司","typeName":null,"infoStatusName":null,"dateDay":null,"orgNos":null,"nowTime":null,"countyName":null,"streetName":null,"villageName":null,"roadName":null,"communityName":null,"tranName":null,"sdLineName":null,"cityCode":"1340605","cityName":"国网徐水县供电公司","provinceCode":null,"stopTime":"2019-11-24 23:00:00","powerType":"全部","powerOffArea":"【全线路停电】停南邵庄供69号变压器,王铁庄供119号变压器,南邵庄供43号变压器,徐水县宏鑫建材商店,徐水县助力加热油管厂,商平庄供123号变压器,王铁庄供33号变压器,南邵庄12号变压器,徐水县峻鼎鞋材有限公司3号,徐水县仙登鞋材厂,南邵庄供101#高压间隔配电变压器,北邵庄供42号变压器,保定市徐水区百渡鞋材加工厂,徐水县东方灵星机毡厂,北邵庄3号变压器,徐水县东信毛纺制品有限公司,南邵庄供75号变压器,北邵庄供129号变压器,西崔庄供51号变压器,张庄供113号变压器,商平庄供2号变压器,北邵庄4号变压器,西崔庄供81号变压器,变压器,西崔庄2号变压器,徐水县吉星宇鞋服制造有限公司,北邵庄2号变压器【纯农排变】,干沟供52号变压器,保定亿盛鞋业有限公司,吴庄12号变压器,商平庄供46号变压器,徐水县伟通机械加工厂,南邵庄供110号变压器,北邵庄供125号变压器,南邵庄11号变压器,徐水县华晨铸造厂,徐水永盛橡塑厂2号,徐水县金龙机架厂,西崔庄供131号变压器,南邵庄供28号变压器【纯农排变】,徐水县华鑫碾米加工厂,保定市徐水区奥尔特鞋材厂,徐水县中原包装厂,徐水县峻鼎鞋材有限公司(250KVA),徐水县宏达制鞋厂,保定市徐水天源综合医院,保定市徐水区崔庄镇南邵庄小学,张庄2号变压器【纯农排变】,南邵庄3号变压器,太行毛纺集团3号,徐水县远征橡胶制品厂1号,东方灵星机毡厂,南邵庄13号变压器,徐水县东升针刺毡厂,南邵庄汽车电路器材厂,南邵庄供100#箱变 配电变压器,商平庄供83号变压器,徐水县宝来毛纺制品有限公司2号,三环橡胶厂,0675479965-徐水县昌顺木材加工有限公司-专变-216137462-徐水县昌顺木材加工有限公司,永兴拔丝厂,徐水县鼎亮门窗制造有限公司,南邵庄10号变压器,北邵庄供103号变压器,徐水县思美特鞋厂变压器,南邵庄供32号变压器,南邵庄5号变压器,南邵供34号变压器,0684455497-徐水县思美特鞋厂-专变-223609302-徐水县思美特鞋厂变压器,永胜毛纺厂,南邵庄8号变压器【纯农排变】,西崔庄8号变压器,南邵庄水么石厂,商平庄鞋厂,永盛橡塑厂1号,太行毛纺集团有限公司1号,徐水县长兴洗毛厂,北邵供65号变压器【纯农排变】,商平庄小康鞋厂,南邵庄供99号变压器,崔庄镇人民政府,0680042882-保定市苏坨面粉加工有限公司-专变-219584554-保定市苏坨面粉加工有限公司变压器,张庄3号变压器,南邵庄供91号变压器,徐水县远征鞋底厂,南邵庄供102#箱变配电变压器,南邵庄面粉一厂,南邵庄油毡厂,北邵庄1号变压器【纯农排变】,朝阳毛纺厂,徐水县盛达电路板厂,徐水县盛源工艺加工厂,西崔庄供97号变压器,南邵庄供77号变压器,徐水县顺达模具厂,吉昌毛纺厂,徐水县远征橡胶制品厂3号,徐水县吉星宇鞋服制造有限公司1号,红星造纸厂1号,徐水县邵庄增国鞋厂,南邵庄板厂,保定华艺帽业有限公司2号250,北邵庄6号变压器,西崔庄面粉厂,中国联合网络通信有限公司徐水县分公司崔庄,徐水县超亿鞋服有限公司,南邵庄4号变压器,南邵庄9号变压器,西崔庄5号变压器,西崔庄1号变压器,北邵庄供106号变压器,南邵庄2号变压器,商平庄6号变压器,徐水天源综合医院,南邵庄供67号变压器,北邵庄供29号变压器【纯农排变】,保定华艺帽业有限公司1号,徐水县远征橡胶制品厂2号,西崔庄7号变压器,干河沟5号变压器,南邵庄1号变压器,西崔庄供5号变压器","powerOffReason":"【停电原因】因崔庄变电站主变过负荷导致３５ＫＶ崔庄变电站吴庄线５１６线路全线停电 【变更送电】无 【发布渠道】通过９５５９８发布","powerOffId":"2019112413000251"},{"poweroffId":2019112413000245,"sgpoweroffId":null,"subsName":"","lineName":"10kV519北小王线","pubTranName":"10KV519北小王线40049台区变压器,10KV519北小王线40032台区变压器,10KV519北小王线40011台区变压器,10kv519北小王线南邑照明42140台区变压器,10KV519北小王线40046台区变压器,10KV519北小王线40001台区变压器,10KV519北小王线北小王村东照明42228台区变压器,10KV519北小王线南邑小扣照明42144台区变压器,","scope":"【影响街道/乡镇】北杨村乡【高危重要客户】无【影响客户】北堤圈、北小王、南邑","startTime":"2019-11-24 17:37:52","stopDate":"2019-11-24 19:30:00","orgNo":"1340608","typeCode":"电网故障停限电","poweroffArea":"【全线路停电】停10KV519北小王线40032台区变压器,10KV519北小王线40011台区变压器,10kv519北小王线南邑照明42140台区变压器,10KV519北小王线40046台区变压器,10KV519北小王线40001台区变压器,10KV519北小王线北小王村东照明42228台区变压器,10KV519北小王线南邑小扣照明42144台区变压器,10KV519北小王线40049台区变压器","poweroffReason":"【停电原因】由于站内开关掉闸导致１１０ＫＶ博野变电站北小王５１９线路全线停电【变更送电】因抢修进度加快原因，送电时间由２３：３０变更为１９：３０【发布渠道】通过９５５９８发布","powerTime":"2019-11-24 18:48:55","powerComm":"已送电","subsNo":"","lineNo":"","tgNo":"","tgName":null,"infoStatus":"1","orgName":"国网博野县供电公司","typeName":null,"infoStatusName":null,"dateDay":null,"orgNos":null,"nowTime":null,"countyName":null,"streetName":null,"villageName":null,"roadName":null,"communityName":null,"tranName":null,"sdLineName":null,"cityCode":"1340608","cityName":"国网博野县供电公司","provinceCode":null,"stopTime":"2019-11-24 19:30:00","powerType":"全部","powerOffArea":"【全线路停电】停10KV519北小王线40032台区变压器,10KV519北小王线40011台区变压器,10kv519北小王线南邑照明42140台区变压器,10KV519北小王线40046台区变压器,10KV519北小王线40001台区变压器,10KV519北小王线北小王村东照明42228台区变压器,10KV519北小王线南邑小扣照明42144台区变压器,10KV519北小王线40049台区变压器","powerOffReason":"【停电原因】由于站内开关掉闸导致１１０ＫＶ博野变电站北小王５１９线路全线停电【变更送电】因抢修进度加快原因，送电时间由２３：３０变更为１９：３０【发布渠道】通过９５５９８发布","powerOffId":"2019112413000245"},{"poweroffId":2019112413000220,"sgpoweroffId":null,"subsName":"","lineName":"横沟541","pubTranName":"衣巾店13变压器,衣巾店北地变压器【纯农排变】,大铺东北变压器,衣巾店09变压器,衣巾店05变压器,衣巾店07变压器,北沟二变压器,衣巾店16变压器,衣巾店03变压器,衣巾店19变压器,衣巾店15变压器,客户投资_南沟东变压器,衣巾店12变压器,衣巾店06变压器,衣巾店11变压器,衣巾店08变压器,衣巾店04变压器,衣巾店10变压器,","scope":"【影响街道/乡镇】方官镇 【高危重要客户】方官镇总校第一幼儿园 【影响客户】南沟村、北沟村、薛庄村、北衣巾（部分）、大铺村、半壁店村、良家井村、衣锦店村、志远科技有限公司、高新机械工业有限公司、京泰达风机制造有限责任公司、裕禾面业有限公司、河北君利环保设备有限公司、高碑店市溢丰粮食农民专业合作社、高碑店市风机总厂、刘建民面粉厂、河北保新风机制造有限公司、亢海增","startTime":"2019-11-24 15:59:05","stopDate":"2019-11-24 19:00:00","orgNo":"1340612","typeCode":"电网故障停限电","poweroffArea":"【全线路停电】停薛庄南地磁卡变压器【纯农排变】,衣巾店03变压器,衣巾店19变压器,大铺北台变压器,大铺地变压器【纯农排变】,南沟北变压器,衣巾店04变压器,大铺浇地（不纯磁卡）变压器【纯农排变】,衣巾店10变压器,薛庄北地磁卡变压器【纯农排变】,半壁店东排灌变压器,良家井地（磁卡）变压器【纯农排变】,良家井西变压器,薛庄清泉奶牛养殖场,衣巾店02变压器,衣巾店05变压器,半壁店西变压器,衣巾店07变压器,北沟二变压器,亢海增变压器,刘建民面粉厂,大铺东变压器,衣巾店15变压器,客户投资_南沟东变压器,风机厂北院,刘建民面粉厂变压器,衣巾店12变压器,良家井北台变压器,南沟新变压器,衣巾店06变压器,衣巾店11变压器,衣巾店08变压器,衣巾店17变压器,衣巾店01变压器,保新风机厂,衣巾店南地变压器【纯农排变】,北衣巾地变压器【纯农排变】,高碑店市半壁店金利源面粉厂变压器,良家井南台变压器,高碑店市方官镇总校第一幼儿园变压器,南沟地变压器【纯农排变】,大铺变压器,大铺东北变压器,衣巾店09变压器,衣巾店16变压器,衣巾店中学,衣巾店14变压器,侯军,北沟变压器,高新机械1,衣巾店北地变压器【纯农排变】,高碑店市方官镇衣巾店小学,南沟南变压器,衣巾店18变压器,半壁店变压器,衣巾店13变压器,北沟地变压器","poweroffReason":"【停电原因】由于亢海增高压计量引线断导致１１０ＫＶ方官变电站１０ＫＶ横沟５４１线路全线停电 【变更送电】因抢修进度加快原因，送电时间由２１：００变更为１９：００ 【发布渠道】通过９５５９８发布","powerTime":"2019-11-24 18:21:57","powerComm":"已送电","subsNo":"","lineNo":"","tgNo":"","tgName":null,"infoStatus":"1","orgName":"国网高碑店市供电公司","typeName":null,"infoStatusName":null,"dateDay":null,"orgNos":null,"nowTime":null,"countyName":null,"streetName":null,"villageName":null,"roadName":null,"communityName":null,"tranName":null,"sdLineName":null,"cityCode":"1340612","cityName":"国网高碑店市供电公司","provinceCode":null,"stopTime":"2019-11-24 19:00:00","powerType":"全部","powerOffArea":"【全线路停电】停薛庄南地磁卡变压器【纯农排变】,衣巾店03变压器,衣巾店19变压器,大铺北台变压器,大铺地变压器【纯农排变】,南沟北变压器,衣巾店04变压器,大铺浇地（不纯磁卡）变压器【纯农排变】,衣巾店10变压器,薛庄北地磁卡变压器【纯农排变】,半壁店东排灌变压器,良家井地（磁卡）变压器【纯农排变】,良家井西变压器,薛庄清泉奶牛养殖场,衣巾店02变压器,衣巾店05变压器,半壁店西变压器,衣巾店07变压器,北沟二变压器,亢海增变压器,刘建民面粉厂,大铺东变压器,衣巾店15变压器,客户投资_南沟东变压器,风机厂北院,刘建民面粉厂变压器,衣巾店12变压器,良家井北台变压器,南沟新变压器,衣巾店06变压器,衣巾店11变压器,衣巾店08变压器,衣巾店17变压器,衣巾店01变压器,保新风机厂,衣巾店南地变压器【纯农排变】,北衣巾地变压器【纯农排变】,高碑店市半壁店金利源面粉厂变压器,良家井南台变压器,高碑店市方官镇总校第一幼儿园变压器,南沟地变压器【纯农排变】,大铺变压器,大铺东北变压器,衣巾店09变压器,衣巾店16变压器,衣巾店中学,衣巾店14变压器,侯军,北沟变压器,高新机械1,衣巾店北地变压器【纯农排变】,高碑店市方官镇衣巾店小学,南沟南变压器,衣巾店18变压器,半壁店变压器,衣巾店13变压器,北沟地变压器","powerOffReason":"【停电原因】由于亢海增高压计量引线断导致１１０ＫＶ方官变电站１０ＫＶ横沟５４１线路全线停电 【变更送电】因抢修进度加快原因，送电时间由２１：００变更为１９：００ 【发布渠道】通过９５５９８发布","powerOffId":"2019112413000220"},{"poweroffId":2019112413000213,"sgpoweroffId":null,"subsName":"","lineName":"10kV开发区线544","pubTranName":"2军欣3690,","scope":"【影响街道/乡镇】徐里营城区 【高危重要客户】无 【影响客户】军欣家园","startTime":"2019-11-24 15:29:30","stopDate":"2019-11-24 17:20:00","orgNo":"1340626","typeCode":"电网故障停限电","poweroffArea":"【单台区停电】停2军欣3690","poweroffReason":"【停电原因】由于低压刀闸烧毁导致１１０ＫＶ新业变电站１０ＫＶ开发区５４４线路２军欣３６９０公变台区停电 【变更送电】因抢修进度加快原因，送电时间由２０：００变更为１７：２０ 【发布渠道】通过９５５９８发布","powerTime":"2019-11-24 16:58:40","powerComm":"恢复送电","subsNo":"","lineNo":"","tgNo":"","tgName":null,"infoStatus":"1","orgName":"国网涿州市供电公司","typeName":null,"infoStatusName":null,"dateDay":null,"orgNos":null,"nowTime":null,"countyName":null,"streetName":null,"villageName":null,"roadName":null,"communityName":null,"tranName":null,"sdLineName":null,"cityCode":"1340626","cityName":"国网涿州市供电公司","provinceCode":null,"stopTime":"2019-11-24 17:20:00","powerType":"全部","powerOffArea":"【单台区停电】停2军欣3690","powerOffReason":"【停电原因】由于低压刀闸烧毁导致１１０ＫＶ新业变电站１０ＫＶ开发区５４４线路２军欣３６９０公变台区停电 【变更送电】因抢修进度加快原因，送电时间由２０：００变更为１７：２０ 【发布渠道】通过９５５９８发布","powerOffId":"2019112413000213"},{"poweroffId":2019112413000203,"sgpoweroffId":null,"subsName":"","lineName":"吴庄工业线515","pubTranName":"吴庄1号变压器,","scope":"【影响街道/乡镇】崔庄镇 【高危重要客户】无 【影响客户】南邵庄、吴庄","startTime":"2019-11-24 15:05:19","stopDate":"2019-11-24 17:00:00","orgNo":"1340605","typeCode":"电网故障停限电","poweroffArea":"【全线路停电】停河北德力食品有限公司6号,河北德力食品有限公司5号,吴庄供126号变压器,徐水县腾达鞋业有限公司,吴庄10号变压器,吴庄3号变压器,南邵庄6号变压器,吴庄1号变压器,徐水县干沟胶底厂,跃泰发泡厂,河北德力食品有限公司1号（400KVA）,河北德力食品有限公司3号,吴庄供27号变压器,吴庄供41号变压器,河北徐水腾达鞋业有限公司,新兴胶厂,河北徐水腾达鞋业有限公司2号,河北德力食品有限公司,崔庄供电所（站变）,吴庄供1号变压器,吴庄供96号变压器,保定市徐水区崔庄镇吴庄小学,吴庄供124号变压器,河北徐水中原冷冻加工厂,徐水县百万乐生活超市","poweroffReason":"【停电原因】由于Ｂ相接地导致３５ＫＶ崔庄变电站吴庄工业线５１５线路全线停电 【变更送电】因抢修进度加快原因，送电时间由２３:３０变更为１７:００ 【发布渠道】通过９５５９８发布","powerTime":"2019-11-24 16:45:13","powerComm":"已送电","subsNo":"","lineNo":"","tgNo":"","tgName":null,"infoStatus":"1","orgName":"国网徐水县供电公司","typeName":null,"infoStatusName":null,"dateDay":null,"orgNos":null,"nowTime":null,"countyName":null,"streetName":null,"villageName":null,"roadName":null,"communityName":null,"tranName":null,"sdLineName":null,"cityCode":"1340605","cityName":"国网徐水县供电公司","provinceCode":null,"stopTime":"2019-11-24 17:00:00","powerType":"全部","powerOffArea":"【全线路停电】停河北德力食品有限公司6号,河北德力食品有限公司5号,吴庄供126号变压器,徐水县腾达鞋业有限公司,吴庄10号变压器,吴庄3号变压器,南邵庄6号变压器,吴庄1号变压器,徐水县干沟胶底厂,跃泰发泡厂,河北德力食品有限公司1号（400KVA）,河北德力食品有限公司3号,吴庄供27号变压器,吴庄供41号变压器,河北徐水腾达鞋业有限公司,新兴胶厂,河北徐水腾达鞋业有限公司2号,河北德力食品有限公司,崔庄供电所（站变）,吴庄供1号变压器,吴庄供96号变压器,保定市徐水区崔庄镇吴庄小学,吴庄供124号变压器,河北徐水中原冷冻加工厂,徐水县百万乐生活超市","powerOffReason":"【停电原因】由于Ｂ相接地导致３５ＫＶ崔庄变电站吴庄工业线５１５线路全线停电 【变更送电】因抢修进度加快原因，送电时间由２３:３０变更为１７:００ 【发布渠道】通过９５５９８发布","powerOffId":"2019112413000203"},{"poweroffId":2019112413000201,"sgpoweroffId":null,"subsName":"","lineName":"林水线518","pubTranName":"林水1号变压器,","scope":"【影响街道/乡镇】安肃镇、崔庄镇 【高危重要客户】无 【影响客户】东王庄村、王铁庄、田庄、林水、索庄","startTime":"2019-11-24 15:02:14","stopDate":"2019-11-24 17:00:00","orgNo":"1340605","typeCode":"电网故障停限电","poweroffArea":"【全线路停电】停林水10号变压器,保定市徐水区崔庄镇林水小学,索庄1号变压器【纯农排变】,林水供48号变压器,田庄供55号变压器,林水供135号变压器,林水11号变压器【纯农排变】,田庄供10号变压器,林水8号变压器,北徐城6号,林水供104号变压器【纯农排变】,林水4号变压器,王铁庄3号变压器,田庄2号变压器,王铁庄供112号变压器【纯农排变】,林水供8号变压器,林水供14号变压器,王铁庄供98号变压器,田庄1号变压器,徐水县东升铸造厂,林水供109 号变压器,徐水县树海配件加工厂,徐水县建工商品混凝土有限公司,林水供92号变压器,林水7号变压器,0683975800-徐水县树海液压机械配件加工厂-专变-223583804-徐水县树海液压机械配件加工厂变压器,北徐城4号,林水供15号变压器,索庄供139号变压器,田庄供11号变压器,王铁庄1号变压器,林水供122号变压器,林水供121 号变压器【纯农排变】,索庄2号变压器,林水供80号变压器,王铁庄4号变压器,林水9号变压器,林水2号变压器,索庄供30号变压器,索庄供120号变压器,田庄供93号变压器,林水杨同春面粉厂(原林水3号),王铁庄供87号变压器,林水供66号变压器,林水砖厂1号,林水砖厂2号,林水供138号变压器,王铁庄供70号变压器【纯农排变】,徐水县万顺塑钢门窗厂配变,王铁庄9号变压器,王铁庄2号变压器,林水1号变压器,王铁庄供79号变压器,林水12号变压器【纯农排变】,林水供71号变压器,索庄供107号变压器,林水5号变压器【纯农排变】","poweroffReason":"【停电原因】由于Ｂ相接地导致３５ＫＶ崔庄变电站林水线５１８线路全线停电 【变更送电】因抢修进度加快原因，送电时间由２３:３０变更为１７:００ 【发布渠道】通过９５５９８发布","powerTime":"2019-11-24 16:46:44","powerComm":"已送电","subsNo":"","lineNo":"","tgNo":"","tgName":null,"infoStatus":"1","orgName":"国网徐水县供电公司","typeName":null,"infoStatusName":null,"dateDay":null,"orgNos":null,"nowTime":null,"countyName":null,"streetName":null,"villageName":null,"roadName":null,"communityName":null,"tranName":null,"sdLineName":null,"cityCode":"1340605","cityName":"国网徐水县供电公司","provinceCode":null,"stopTime":"2019-11-24 17:00:00","powerType":"全部","powerOffArea":"【全线路停电】停林水10号变压器,保定市徐水区崔庄镇林水小学,索庄1号变压器【纯农排变】,林水供48号变压器,田庄供55号变压器,林水供135号变压器,林水11号变压器【纯农排变】,田庄供10号变压器,林水8号变压器,北徐城6号,林水供104号变压器【纯农排变】,林水4号变压器,王铁庄3号变压器,田庄2号变压器,王铁庄供112号变压器【纯农排变】,林水供8号变压器,林水供14号变压器,王铁庄供98号变压器,田庄1号变压器,徐水县东升铸造厂,林水供109 号变压器,徐水县树海配件加工厂,徐水县建工商品混凝土有限公司,林水供92号变压器,林水7号变压器,0683975800-徐水县树海液压机械配件加工厂-专变-223583804-徐水县树海液压机械配件加工厂变压器,北徐城4号,林水供15号变压器,索庄供139号变压器,田庄供11号变压器,王铁庄1号变压器,林水供122号变压器,林水供121 号变压器【纯农排变】,索庄2号变压器,林水供80号变压器,王铁庄4号变压器,林水9号变压器,林水2号变压器,索庄供30号变压器,索庄供120号变压器,田庄供93号变压器,林水杨同春面粉厂(原林水3号),王铁庄供87号变压器,林水供66号变压器,林水砖厂1号,林水砖厂2号,林水供138号变压器,王铁庄供70号变压器【纯农排变】,徐水县万顺塑钢门窗厂配变,王铁庄9号变压器,王铁庄2号变压器,林水1号变压器,王铁庄供79号变压器,林水12号变压器【纯农排变】,林水供71号变压器,索庄供107号变压器,林水5号变压器【纯农排变】","powerOffReason":"【停电原因】由于Ｂ相接地导致３５ＫＶ崔庄变电站林水线５１８线路全线停电 【变更送电】因抢修进度加快原因，送电时间由２３:３０变更为１７:００ 【发布渠道】通过９５５９８发布","powerOffId":"2019112413000201"},{"poweroffId":2019112413000199,"sgpoweroffId":null,"subsName":"","lineName":"西崔庄线517","pubTranName":"南邵庄供101#高压间隔配电变压器,南邵庄供102#箱变配电变压器,南邵庄供100#箱变 配电变压器,","scope":"【影响街道/乡镇】崔庄镇 【高危重要客户】无 【影响客户】西崔庄、南邵庄、王铁庄、张庄、商平庄、北邵庄","startTime":"2019-11-24 15:00:23","stopDate":"2019-11-24 17:00:00","orgNo":"1340605","typeCode":"电网故障停限电","poweroffArea":"【全线路停电】停南邵庄供69号变压器,王铁庄供119号变压器,南邵庄供43号变压器,徐水县助力加热油管厂,徐水县宏鑫建材商店,商平庄供123号变压器,王铁庄供33号变压器,南邵庄12号变压器,徐水县峻鼎鞋材有限公司3号,徐水县仙登鞋材厂,南邵庄供101#高压间隔配电变压器,北邵庄供42号变压器,保定市徐水区百渡鞋材加工厂,徐水县东方灵星机毡厂,北邵庄3号变压器,徐水县东信毛纺制品有限公司,南邵庄供75号变压器,北邵庄供129号变压器,西崔庄供51号变压器,张庄供113号变压器,商平庄供2号变压器,北邵庄4号变压器,西崔庄供81号变压器,变压器,西崔庄2号变压器,徐水县吉星宇鞋服制造有限公司,北邵庄2号变压器【纯农排变】,干沟供52号变压器,保定亿盛鞋业有限公司,吴庄12号变压器,商平庄供46号变压器,徐水县伟通机械加工厂,南邵庄供110号变压器,北邵庄供125号变压器,南邵庄11号变压器,徐水县华晨铸造厂,徐水永盛橡塑厂2号,徐水县金龙机架厂,西崔庄供131号变压器,南邵庄供28号变压器【纯农排变】,保定市徐水区奥尔特鞋材厂,徐水县华鑫碾米加工厂,徐水县中原包装厂,徐水县峻鼎鞋材有限公司(250KVA),保定市徐水天源综合医院,徐水县宏达制鞋厂,保定市徐水区崔庄镇南邵庄小学,南邵庄3号变压器,张庄2号变压器【纯农排变】,太行毛纺集团3号,徐水县远征橡胶制品厂1号,南邵庄13号变压器,东方灵星机毡厂,徐水县东升针刺毡厂,南邵庄汽车电路器材厂,南邵庄供100#箱变 配电变压器,商平庄供83号变压器,徐水县宝来毛纺制品有限公司2号,三环橡胶厂,0675479965-徐水县昌顺木材加工有限公司-专变-216137462-徐水县昌顺木材加工有限公司,永兴拔丝厂,徐水县鼎亮门窗制造有限公司,南邵庄10号变压器,北邵庄供103号变压器,保定市徐水区深红鞋材加工厂,徐水县思美特鞋厂变压器,南邵庄供32号变压器,南邵庄5号变压器,南邵供34号变压器,0684455497-徐水县思美特鞋厂-专变-223609302-徐水县思美特鞋厂变压器,南邵庄8号变压器【纯农排变】,永胜毛纺厂,西崔庄8号变压器,南邵庄水么石厂,商平庄鞋厂,永盛橡塑厂1号,太行毛纺集团有限公司1号,徐水县长兴洗毛厂,北邵供65号变压器【纯农排变】,商平庄小康鞋厂,南邵庄供99号变压器,崔庄镇人民政府,0680042882-保定市苏坨面粉加工有限公司-专变-219584554-保定市苏坨面粉加工有限公司变压器,张庄3号变压器,南邵庄供91号变压器,徐水县远征鞋底厂,南邵庄供102#箱变配电变压器,南邵庄面粉一厂,南邵庄油毡厂,北邵庄1号变压器【纯农排变】,徐水县盛达电路板厂,朝阳毛纺厂,徐水县盛源工艺加工厂,西崔庄供97号变压器,南邵庄供77号变压器,徐水县顺达模具厂,吉昌毛纺厂,徐水县远征橡胶制品厂3号,红星造纸厂1号,徐水县吉星宇鞋服制造有限公司1号,南邵庄板厂,徐水县邵庄增国鞋厂,保定华艺帽业有限公司2号250,北邵庄6号变压器,西崔庄面粉厂,中国联合网络通信有限公司徐水县分公司崔庄,徐水县超亿鞋服有限公司,南邵庄4号变压器,南邵庄9号变压器,保定市徐水区源晟鞋材经销处,西崔庄5号变压器,西崔庄1号变压器,北邵庄供106号变压器,南邵庄2号变压器,商平庄6号变压器,徐水天源综合医院,南邵庄供67号变压器,北邵庄供29号变压器【纯农排变】,保定华艺帽业有限公司1号,徐水县远征橡胶制品厂2号,西崔庄7号变压器,干河沟5号变压器,南邵庄1号变压器,西崔庄供5号变压器","poweroffReason":"【停电原因】由于Ｂ相接地导致３５ＫＶ崔庄变电站西崔庄线５１７线路全线停电 【变更送电】因抢修进度加快原因，送电时间由２３:３０变更为１７:００ 【发布渠道】通过９５５９８发布","powerTime":"2019-11-24 16:45:34","powerComm":"已送电","subsNo":"","lineNo":"","tgNo":"","tgName":null,"infoStatus":"1","orgName":"国网徐水县供电公司","typeName":null,"infoStatusName":null,"dateDay":null,"orgNos":null,"nowTime":null,"countyName":null,"streetName":null,"villageName":null,"roadName":null,"communityName":null,"tranName":null,"sdLineName":null,"cityCode":"1340605","cityName":"国网徐水县供电公司","provinceCode":null,"stopTime":"2019-11-24 17:00:00","powerType":"全部","powerOffArea":"【全线路停电】停南邵庄供69号变压器,王铁庄供119号变压器,南邵庄供43号变压器,徐水县助力加热油管厂,徐水县宏鑫建材商店,商平庄供123号变压器,王铁庄供33号变压器,南邵庄12号变压器,徐水县峻鼎鞋材有限公司3号,徐水县仙登鞋材厂,南邵庄供101#高压间隔配电变压器,北邵庄供42号变压器,保定市徐水区百渡鞋材加工厂,徐水县东方灵星机毡厂,北邵庄3号变压器,徐水县东信毛纺制品有限公司,南邵庄供75号变压器,北邵庄供129号变压器,西崔庄供51号变压器,张庄供113号变压器,商平庄供2号变压器,北邵庄4号变压器,西崔庄供81号变压器,变压器,西崔庄2号变压器,徐水县吉星宇鞋服制造有限公司,北邵庄2号变压器【纯农排变】,干沟供52号变压器,保定亿盛鞋业有限公司,吴庄12号变压器,商平庄供46号变压器,徐水县伟通机械加工厂,南邵庄供110号变压器,北邵庄供125号变压器,南邵庄11号变压器,徐水县华晨铸造厂,徐水永盛橡塑厂2号,徐水县金龙机架厂,西崔庄供131号变压器,南邵庄供28号变压器【纯农排变】,保定市徐水区奥尔特鞋材厂,徐水县华鑫碾米加工厂,徐水县中原包装厂,徐水县峻鼎鞋材有限公司(250KVA),保定市徐水天源综合医院,徐水县宏达制鞋厂,保定市徐水区崔庄镇南邵庄小学,南邵庄3号变压器,张庄2号变压器【纯农排变】,太行毛纺集团3号,徐水县远征橡胶制品厂1号,南邵庄13号变压器,东方灵星机毡厂,徐水县东升针刺毡厂,南邵庄汽车电路器材厂,南邵庄供100#箱变 配电变压器,商平庄供83号变压器,徐水县宝来毛纺制品有限公司2号,三环橡胶厂,0675479965-徐水县昌顺木材加工有限公司-专变-216137462-徐水县昌顺木材加工有限公司,永兴拔丝厂,徐水县鼎亮门窗制造有限公司,南邵庄10号变压器,北邵庄供103号变压器,保定市徐水区深红鞋材加工厂,徐水县思美特鞋厂变压器,南邵庄供32号变压器,南邵庄5号变压器,南邵供34号变压器,0684455497-徐水县思美特鞋厂-专变-223609302-徐水县思美特鞋厂变压器,南邵庄8号变压器【纯农排变】,永胜毛纺厂,西崔庄8号变压器,南邵庄水么石厂,商平庄鞋厂,永盛橡塑厂1号,太行毛纺集团有限公司1号,徐水县长兴洗毛厂,北邵供65号变压器【纯农排变】,商平庄小康鞋厂,南邵庄供99号变压器,崔庄镇人民政府,0680042882-保定市苏坨面粉加工有限公司-专变-219584554-保定市苏坨面粉加工有限公司变压器,张庄3号变压器,南邵庄供91号变压器,徐水县远征鞋底厂,南邵庄供102#箱变配电变压器,南邵庄面粉一厂,南邵庄油毡厂,北邵庄1号变压器【纯农排变】,徐水县盛达电路板厂,朝阳毛纺厂,徐水县盛源工艺加工厂,西崔庄供97号变压器,南邵庄供77号变压器,徐水县顺达模具厂,吉昌毛纺厂,徐水县远征橡胶制品厂3号,红星造纸厂1号,徐水县吉星宇鞋服制造有限公司1号,南邵庄板厂,徐水县邵庄增国鞋厂,保定华艺帽业有限公司2号250,北邵庄6号变压器,西崔庄面粉厂,中国联合网络通信有限公司徐水县分公司崔庄,徐水县超亿鞋服有限公司,南邵庄4号变压器,南邵庄9号变压器,保定市徐水区源晟鞋材经销处,西崔庄5号变压器,西崔庄1号变压器,北邵庄供106号变压器,南邵庄2号变压器,商平庄6号变压器,徐水天源综合医院,南邵庄供67号变压器,北邵庄供29号变压器【纯农排变】,保定华艺帽业有限公司1号,徐水县远征橡胶制品厂2号,西崔庄7号变压器,干河沟5号变压器,南邵庄1号变压器,西崔庄供5号变压器","powerOffReason":"【停电原因】由于Ｂ相接地导致３５ＫＶ崔庄变电站西崔庄线５１７线路全线停电 【变更送电】因抢修进度加快原因，送电时间由２３:３０变更为１７:００ 【发布渠道】通过９５５９８发布","powerOffId":"2019112413000199"},{"poweroffId":2019112413000197,"sgpoweroffId":null,"subsName":"","lineName":"吴庄线516","pubTranName":"南邵庄1号变压器,","scope":"【影响街道/乡镇】崔庄镇 【高危重要客户】无 【影响客户】北邵庄、干沟、南邵庄、商平庄、吴庄、张庄","startTime":"2019-11-24 14:58:14","stopDate":"2019-11-24 17:00:00","orgNo":"1340605","typeCode":"电网故障停限电","poweroffArea":"【全线路停电】停北邵供65号变压器【纯农排变】,北邵庄1号变压器【纯农排变】,北邵庄2号变压器【纯农排变】,北邵庄3号变压器,北邵庄4号变压器,北邵庄6号变压器,北邵庄供106号变压器,北邵庄供129号变压器,北邵庄供42号变压器,干河沟5号变压器,干沟供52号变压器,南邵庄供28号变压器【纯农排变】,北邵庄供29号变压器【纯农排变】,南邵庄13号变压器,南邵供34号变压器,南邵庄10号变压器,南邵庄1号变压器,南邵庄3号变压器,南邵庄8号变压器【纯农排变】,南邵庄5号变压器,南邵庄供110号变压器,南邵庄供32号变压器,南邵庄供43号变压器,南邵庄供67号变压器,南邵庄供75号变压器,南邵庄供91号变压器,南邵庄供99号变压器,南邵庄9号变压器,商平庄6号变压器,商平庄供46号变压器,吴庄12号变压器,张庄3号变压器,张庄2号变压器【纯农排变】,张庄供113号变压器","poweroffReason":"【停电原因】由于Ｂ相接地导致３５ＫＶ崔庄变电站吴庄线５１６线路全线停电 【变更送电】因抢修进度加快原因，送电时间由２３:３０变更为１７:００ 【发布渠道】通过９５５９８发布","powerTime":"2019-11-24 16:46:03","powerComm":"已送电","subsNo":"","lineNo":"","tgNo":"","tgName":null,"infoStatus":"1","orgName":"国网徐水县供电公司","typeName":null,"infoStatusName":null,"dateDay":null,"orgNos":null,"nowTime":null,"countyName":null,"streetName":null,"villageName":null,"roadName":null,"communityName":null,"tranName":null,"sdLineName":null,"cityCode":"1340605","cityName":"国网徐水县供电公司","provinceCode":null,"stopTime":"2019-11-24 17:00:00","powerType":"全部","powerOffArea":"【全线路停电】停北邵供65号变压器【纯农排变】,北邵庄1号变压器【纯农排变】,北邵庄2号变压器【纯农排变】,北邵庄3号变压器,北邵庄4号变压器,北邵庄6号变压器,北邵庄供106号变压器,北邵庄供129号变压器,北邵庄供42号变压器,干河沟5号变压器,干沟供52号变压器,南邵庄供28号变压器【纯农排变】,北邵庄供29号变压器【纯农排变】,南邵庄13号变压器,南邵供34号变压器,南邵庄10号变压器,南邵庄1号变压器,南邵庄3号变压器,南邵庄8号变压器【纯农排变】,南邵庄5号变压器,南邵庄供110号变压器,南邵庄供32号变压器,南邵庄供43号变压器,南邵庄供67号变压器,南邵庄供75号变压器,南邵庄供91号变压器,南邵庄供99号变压器,南邵庄9号变压器,商平庄6号变压器,商平庄供46号变压器,吴庄12号变压器,张庄3号变压器,张庄2号变压器【纯农排变】,张庄供113号变压器","powerOffReason":"【停电原因】由于Ｂ相接地导致３５ＫＶ崔庄变电站吴庄线５１６线路全线停电 【变更送电】因抢修进度加快原因，送电时间由２３:３０变更为１７:００ 【发布渠道】通过９５５９８发布","powerOffId":"2019112413000197"},{"poweroffId":2019112413000195,"sgpoweroffId":null,"subsName":"","lineName":"东崔庄线513","pubTranName":"东崔庄供88号变压器,","scope":"【影响街道/乡镇】崔庄镇 【高危重要客户】无 【影响客户】东崔庄、兴隆庄、西崔庄、四新庄、干沟村、张庄","startTime":"2019-11-24 14:56:14","stopDate":"2019-11-24 17:00:00","orgNo":"1340605","typeCode":"电网故障停限电","poweroffArea":"【全线路停电】停东崔庄9号变压器,兴隆1号变压器【纯农排变】,兴隆供117号变压器【纯农排变】,东崔庄1号变压器,东崔供20号变压器【纯农排变】,东崔庄5号变压器,东崔庄供47号变压器,东崔庄3号变压器,东崔4号变压器【纯农排变】,东崔庄7号变压器,兴隆2号变压器,兴隆供39号变压器,西崔庄10号变压器【纯农排变】,西崔庄供95号变压器,四新庄1号变压器,兴隆供21号变压器【纯农排变】,干沟1号变压器,东崔庄85号变压器,东崔供45号变压器,徐水县东崔庄砖厂2号,兴隆供118号变压器【纯农排变】,木森养猪厂,东崔庄62号变压器,东崔庄供86号变压器,张庄1号变压器,西崔庄3号变压器,徐水县瑞达纸箱厂,东崔庄供115号变压器【纯农排变】,西崔庄砖厂2号,东崔庄供88号变压器,东崔庄10号变压器,东崔庄2号变压器,西崔庄4号变压器,西崔庄9号变压器【纯农排变】,东崔庄6号变压器,西崔庄6号变压器【纯农排变】,东崔庄供40号变压器,张庄64号变压器,西崔庄砖厂1号,东崔庄8号变压器,东崔庄供116号变压器,西崔庄供19号变压器,东崔庄砖厂,东崔庄11号变压器","poweroffReason":"【停电原因】由于Ｂ相接地导致３５ＫＶ崔庄变电站东崔庄线５１３线路全线停电 【变更送电】因抢修进度加快原因，送电时间由２３:３０变更为１７:００ 【发布渠道】通过９５５９８发布","powerTime":"2019-11-24 16:46:21","powerComm":"已送电","subsNo":"","lineNo":"","tgNo":"","tgName":null,"infoStatus":"1","orgName":"国网徐水县供电公司","typeName":null,"infoStatusName":null,"dateDay":null,"orgNos":null,"nowTime":null,"countyName":null,"streetName":null,"villageName":null,"roadName":null,"communityName":null,"tranName":null,"sdLineName":null,"cityCode":"1340605","cityName":"国网徐水县供电公司","provinceCode":null,"stopTime":"2019-11-24 17:00:00","powerType":"全部","powerOffArea":"【全线路停电】停东崔庄9号变压器,兴隆1号变压器【纯农排变】,兴隆供117号变压器【纯农排变】,东崔庄1号变压器,东崔供20号变压器【纯农排变】,东崔庄5号变压器,东崔庄供47号变压器,东崔庄3号变压器,东崔4号变压器【纯农排变】,东崔庄7号变压器,兴隆2号变压器,兴隆供39号变压器,西崔庄10号变压器【纯农排变】,西崔庄供95号变压器,四新庄1号变压器,兴隆供21号变压器【纯农排变】,干沟1号变压器,东崔庄85号变压器,东崔供45号变压器,徐水县东崔庄砖厂2号,兴隆供118号变压器【纯农排变】,木森养猪厂,东崔庄62号变压器,东崔庄供86号变压器,张庄1号变压器,西崔庄3号变压器,徐水县瑞达纸箱厂,东崔庄供115号变压器【纯农排变】,西崔庄砖厂2号,东崔庄供88号变压器,东崔庄10号变压器,东崔庄2号变压器,西崔庄4号变压器,西崔庄9号变压器【纯农排变】,东崔庄6号变压器,西崔庄6号变压器【纯农排变】,东崔庄供40号变压器,张庄64号变压器,西崔庄砖厂1号,东崔庄8号变压器,东崔庄供116号变压器,西崔庄供19号变压器,东崔庄砖厂,东崔庄11号变压器","powerOffReason":"【停电原因】由于Ｂ相接地导致３５ＫＶ崔庄变电站东崔庄线５１３线路全线停电 【变更送电】因抢修进度加快原因，送电时间由２３:３０变更为１７:００ 【发布渠道】通过９５５９８发布","powerOffId":"2019112413000195"}],"pageModel":{"pageNow":358,"totalCount":10973,"totalPage":1098,"tableRows":0,"pageCount":10,"beginCount":3570},"isExperi":"1"}