{"message":"","today":"2020-06-15","seleList":[{"poweroffId":2019112313000098,"sgpoweroffId":null,"subsName":"","lineName":"10kV工业区东527线","pubTranName":"新增庄村东新增综合6380,南伍侯东-23001170|23001170,南伍侯-23003930|23003930,新增庄002#综合,海家庄村东新增综合7980,两分庄新增综合2417,南伍候村东新增综合2946,邵家庄北综合3855,南伍候村北新增综合3453,南伍侯内-23001950|23001950,邵家庄-23001940|23001940,两分庄-23001540|23001540,","scope":"【影响街道/乡镇】腰山镇【高危重要客户】无【影响客户】海家庄、两分庄、南伍侯、邵家庄、新增庄","startTime":"2019-11-24 07:00:00","stopDate":"2019-11-24 18:00:00","orgNo":"1340621","typeCode":"其他临时停电","poweroffArea":"【全线路停电】停南伍侯内-23001950|23001950,80KVA配变,变压器11,邵家庄-23001940|23001940,两分庄-23001540|23001540,新增庄村东新增综合6380,南伍侯东-23001170|23001170,南伍侯-23003930|23003930,新增庄002#综合,海家庄村东新增综合7980,两分庄新增综合2417,南伍候村东新增综合2946,邵家庄北综合3855,南伍候村北新增综合3453,银全合用,变压器13","poweroffReason":"【停电原因】由于开关的操作机构严重缺陷，需停电进行紧急消缺导致３５ＫＶ腰山变电站１０ＫＶ５２７工业区东线路全线停电【变更送电】无【发布渠道】通过９５５９８发布","powerTime":"2019-11-24 17:54:46","powerComm":"已送电","subsNo":"","lineNo":"","tgNo":"","tgName":null,"infoStatus":"1","orgName":"国网顺平县电力局","typeName":null,"infoStatusName":null,"dateDay":null,"orgNos":null,"nowTime":null,"countyName":null,"streetName":null,"villageName":null,"roadName":null,"communityName":null,"tranName":null,"sdLineName":null,"cityCode":"1340621","cityName":"国网顺平县电力局","provinceCode":null,"stopTime":"2019-11-24 18:00:00","powerType":"全部","powerOffArea":"【全线路停电】停南伍侯内-23001950|23001950,80KVA配变,变压器11,邵家庄-23001940|23001940,两分庄-23001540|23001540,新增庄村东新增综合6380,南伍侯东-23001170|23001170,南伍侯-23003930|23003930,新增庄002#综合,海家庄村东新增综合7980,两分庄新增综合2417,南伍候村东新增综合2946,邵家庄北综合3855,南伍候村北新增综合3453,银全合用,变压器13","powerOffReason":"【停电原因】由于开关的操作机构严重缺陷，需停电进行紧急消缺导致３５ＫＶ腰山变电站１０ＫＶ５２７工业区东线路全线停电【变更送电】无【发布渠道】通过９５５９８发布","powerOffId":"2019112313000098"},{"poweroffId":2019112313000093,"sgpoweroffId":null,"subsName":"","lineName":"10kV526后兴线","pubTranName":"田家台-23003640|23003640,西后兴村北新增综合8474,南巷北新增综合0433,田家台混用2270|23002270,南巷北村西新增综合5000,田家台村东新增综合8477,西后兴东-23002670|23002670,东后兴-23002710|23002710,西后兴村东北新增综合2407,西后兴南-23002700|23002700,西后兴村南新增综合2406,田家台村西综合1386,田家台村内-23002210|23002210,北巷北村-23002380|23002380,南巷北-23002460|23002460,西后兴北-23002030|23002030,田台李兴混用-23003130|23003130,北巷北-23003990|23003990,张立军综合2470,东后兴村新增综合8953,北巷北村内新增综合5002,田台占元混用-23002240|23002240,北巷北村北综合8172,西后兴西-23002690|23002690,西后兴村西新增综合8959,","scope":"【影响街道/乡镇】腰山镇【高危重要客户】无【影响客户】西后兴、东后兴、南巷北、北巷北、田家台","startTime":"2019-11-24 07:00:00","stopDate":"2019-11-24 18:00:00","orgNo":"1340621","typeCode":"其他临时停电","poweroffArea":"【全线路停电】停南巷北新增综合0433,北巷北-23003990|23003990,张立军综合2470,东后兴村新增综合8953,北巷北村内新增综合5002,北巷北村北综合8172,西后兴西-23002690|23002690,西后兴村西新增综合8959,田台占元混用-23002240|23002240,田家台-23003640|23003640,西后兴村北新增综合8474,田家台混用2270|23002270,南巷北村西新增综合5000,田家台村东新增综合8477,西后兴东-23002670|23002670,东后兴-23002710|23002710,西后兴村东北新增综合2407,西后兴南-23002700|23002700,西后兴村南新增综合2406,田家台村西综合1386,田家台村内-23002210|23002210,北巷北村-23002380|23002380,南巷北-23002460|23002460,西后兴北-23002030|23002030,田台李兴混用-23003130|23003130","poweroffReason":"【停电原因】由于开关的操作机构严重缺陷，需停电进行紧急消缺导致３５ＫＶ腰山变电站１０ＫＶ５２６后兴线路全线停电【变更送电】无【发布渠道】通过９５５９８发布","powerTime":"2019-11-24 17:55:00","powerComm":"已送电","subsNo":"","lineNo":"","tgNo":"","tgName":null,"infoStatus":"1","orgName":"国网顺平县电力局","typeName":null,"infoStatusName":null,"dateDay":null,"orgNos":null,"nowTime":null,"countyName":null,"streetName":null,"villageName":null,"roadName":null,"communityName":null,"tranName":null,"sdLineName":null,"cityCode":"1340621","cityName":"国网顺平县电力局","provinceCode":null,"stopTime":"2019-11-24 18:00:00","powerType":"全部","powerOffArea":"【全线路停电】停南巷北新增综合0433,北巷北-23003990|23003990,张立军综合2470,东后兴村新增综合8953,北巷北村内新增综合5002,北巷北村北综合8172,西后兴西-23002690|23002690,西后兴村西新增综合8959,田台占元混用-23002240|23002240,田家台-23003640|23003640,西后兴村北新增综合8474,田家台混用2270|23002270,南巷北村西新增综合5000,田家台村东新增综合8477,西后兴东-23002670|23002670,东后兴-23002710|23002710,西后兴村东北新增综合2407,西后兴南-23002700|23002700,西后兴村南新增综合2406,田家台村西综合1386,田家台村内-23002210|23002210,北巷北村-23002380|23002380,南巷北-23002460|23002460,西后兴北-23002030|23002030,田台李兴混用-23003130|23003130","powerOffReason":"【停电原因】由于开关的操作机构严重缺陷，需停电进行紧急消缺导致３５ＫＶ腰山变电站１０ＫＶ５２６后兴线路全线停电【变更送电】无【发布渠道】通过９５５９８发布","powerOffId":"2019112313000093"},{"poweroffId":2019112313000090,"sgpoweroffId":null,"subsName":"","lineName":"10kV523伍侯线","pubTranName":"海家庄-23001970|23001970,唐行店村南新增综合5870,唐行店-23003910|23003910,新增庄村西新增综合7981,新增庄-23001250|23001250,唐行店东-23001990|23001990,正童村南-23003830|23003830,新增庄村东新增综合6380,海家庄综合新建4936,正童村东南新增综合5884,正童村西-23001060|23001060,北伍候新架5874,玉山店-23003760|23003760,正童村东-23001100|23001100,玉山店新增综合1号2211,北伍侯-23003460|23003460,唐行店村西新增综合5867,唐行店村新增综合2号5882,唐行店西-23001330|23001330,正童村村东南新增综合0943,唐行店村南综合,唐行店村新增综合1号6391,玉山店村西综合5868,王银全综合9472,唐行店村东综合,正童村西新增综合3369,唐行店村新增综合2394,玉山店西-23000820|23000820,正童新增综合5872,玉山店南-23001640|23001640,北伍侯村新增综合2393,唐行店新增综合3号3489,北伍侯-23001930|23001930,正童-23003920|23003920,正童村西北新增综合2399,","scope":"【影响街道/乡镇】腰山镇【高危重要客户】无【影响客户】玉山店、正童、南伍侯、新增庄、唐行店、海家庄、北伍侯","startTime":"2019-11-24 07:00:00","stopDate":"2019-11-24 18:00:00","orgNo":"1340621","typeCode":"其他临时停电","poweroffArea":"【全线路停电】停唐行店村南新增综合5870,玉山店村西综合5868,王银全综合9472,唐行店村东综合,正童村西新增综合3369,唐行店村新增综合2394,玉山店西-23000820|23000820,正童新增综合5872,玉山店南-23001640|23001640,北伍侯村新增综合2393,唐行店新增综合3号3489,北伍侯-23001930|23001930,正童-23003920|23003920,海家庄-23001970|23001970,唐行店-23003910|23003910,新增庄村西新增综合7981,新增庄-23001250|23001250,唐行店东-23001990|23001990,正童村南-23003830|23003830,新增庄村东新增综合6380,海家庄综合新建4936,正童村东南新增综合5884,正童村西-23001060|23001060,北伍候新架5874,玉山店-23003760|23003760,正童村东-23001100|23001100,玉山店新增综合1号2211,北伍侯-23003460|23003460,唐行店村西新增综合5867,唐行店村新增综合2号5882,唐行店西-23001330|23001330,正童村西北新增综合2399,正童村村东南新增综合0943,唐行店村南综合,唐行店村新增综合1号6391","poweroffReason":"【停电原因】由于开关的操作机构严重缺陷，需停电进行紧急消缺导致３５ＫＶ腰山变电站１０ＫＶ５２３伍侯线路全线停电【变更送电】无【发布渠道】通过９５５９８发布","powerTime":"2019-11-24 17:55:14","powerComm":"已送电","subsNo":"","lineNo":"","tgNo":"","tgName":null,"infoStatus":"1","orgName":"国网顺平县电力局","typeName":null,"infoStatusName":null,"dateDay":null,"orgNos":null,"nowTime":null,"countyName":null,"streetName":null,"villageName":null,"roadName":null,"communityName":null,"tranName":null,"sdLineName":null,"cityCode":"1340621","cityName":"国网顺平县电力局","provinceCode":null,"stopTime":"2019-11-24 18:00:00","powerType":"全部","powerOffArea":"【全线路停电】停唐行店村南新增综合5870,玉山店村西综合5868,王银全综合9472,唐行店村东综合,正童村西新增综合3369,唐行店村新增综合2394,玉山店西-23000820|23000820,正童新增综合5872,玉山店南-23001640|23001640,北伍侯村新增综合2393,唐行店新增综合3号3489,北伍侯-23001930|23001930,正童-23003920|23003920,海家庄-23001970|23001970,唐行店-23003910|23003910,新增庄村西新增综合7981,新增庄-23001250|23001250,唐行店东-23001990|23001990,正童村南-23003830|23003830,新增庄村东新增综合6380,海家庄综合新建4936,正童村东南新增综合5884,正童村西-23001060|23001060,北伍候新架5874,玉山店-23003760|23003760,正童村东-23001100|23001100,玉山店新增综合1号2211,北伍侯-23003460|23003460,唐行店村西新增综合5867,唐行店村新增综合2号5882,唐行店西-23001330|23001330,正童村西北新增综合2399,正童村村东南新增综合0943,唐行店村南综合,唐行店村新增综合1号6391","powerOffReason":"【停电原因】由于开关的操作机构严重缺陷，需停电进行紧急消缺导致３５ＫＶ腰山变电站１０ＫＶ５２３伍侯线路全线停电【变更送电】无【发布渠道】通过９５５９８发布","powerOffId":"2019112313000090"},{"poweroffId":2019112313000077,"sgpoweroffId":null,"subsName":"","lineName":"新发地533","pubTranName":"党家营02号变压器,党家营04号变压器,杜家营09变压器,杜家营11变压器,钱家营03号变压器,杜家营02变压器,钱家营16号变压器,党家营05号变压器,杜家营06变压器,石家庄14号变压器,石家庄2#公变变压器,钱家营07号变压器,钱家营12号变压器,党家营01号变压器,钱家营06号变压器,东盛温屯南变压器,东盛国成玻璃变压器,钱家营01号变压器,党家营03号变压器,杜家营08变压器,杜家营10变压器,东盛党家营地变压器【纯农排变】,钱家营13号变压器,杜家营07变压器,杜家营03变压器,杜家营04变压器,东盛冯漫撒东变压器【纯农排变】,钱家营11号变压器,钱家营09号变压器,杜家营05变压器,东盛杜家营西变压器,杜家营01变压器,钱家营14号变压器,钱家营15号变压器,钱家营04号变压器,钱家营08号变压器,杜家营12变压器,钱家营17号变压器,钱家营05号变压器,钱家营02号变压器,钱家营10号变压器,东盛杜家营北变压器,东盛杜家营变压器,","scope":"【影响街道/乡镇】东盛办事处 【高危重要客户】污水处理厂 【影响客户】党家营村、杜家营村、钱家营村、汇通路桥、隆泰物业、新凯汽车、明盛达、阿苏尔门窗材料科技、弘盛实业、石家庄小区、华强制冷、平生环保、华欣水泥、建安菜园、李忠新、华铝、高桂茹、北京风机４厂、李凯风机、华彩装订、冀辰汽车、海轮风机","startTime":"2019-11-23 15:49:54","stopDate":"2019-11-23 18:00:00","orgNo":"1340612","typeCode":"电网故障停限电","poweroffArea":"【全线路停电】停党家营01号变压器,钱家营07号变压器,杜家营05变压器,杜家营01变压器,钱家营14号变压器,钱家营15号变压器,钱家营04号变压器,钱家营08号变压器,杜家营12变压器,钱家营17号变压器,钱家营05号变压器,钱家营02号变压器,钱家营10号变压器,东盛杜家营北变压器,东盛杜家营变压器,东盛杜家营西变压器,党家营02号变压器,党家营04号变压器,杜家营09变压器,杜家营11变压器,钱家营03号变压器,杜家营02变压器,钱家营16号变压器,党家营05号变压器,杜家营06变压器,钱家营12号变压器,钱家营06号变压器,东盛温屯南变压器,东盛国成玻璃变压器,钱家营01号变压器,党家营03号变压器,杜家营08变压器,杜家营10变压器,东盛党家营地变压器【纯农排变】,钱家营13号变压器,杜家营07变压器,杜家营03变压器,杜家营04变压器,东盛冯漫撒东变压器【纯农排变】,钱家营11号变压器,钱家营09号变压器,高桂茹变压器,高碑店市建设局变压器,隆基泰和置业有限公司高碑店分公司03,汇通路桥建设集团再生水建设有限公司1#变压器,高碑店市路灯管理办公室（世纪大道东侧）变压器,高碑店市诚惠家庭农场变压器,高碑店市华永房地产开发有限公司,刘长军,东盛杜家营北地变压器【纯农排变】,0575654804-高碑店市三义厚再生水建设有限公司-专变-123981594-汇通路桥建设集团有限公司变压器,汇通路桥建设集团再生水建设有限公司2#变压器,高碑店市华彩装订有限公司变压器,高碑店市路灯管理办公室,李中新,高碑店市城市管理综合执法局112国道1号,贾志明,高碑店市华永房地产开发有限公司1,隆基泰和置业有限公司高碑店分公司02,李凯风机厂西,0387451567-新凯汽车集团有限公司-专变-45283709-新凯汽车集团有限公司,石家庄14号变压器,隆基泰和置业有限公司高碑店分公司04,河北鼎誉房地产开发有限公司100KVA变压器,河北鼎誉房地产开发有限公司400KVA变压器,隆基泰和置业有限公司高碑店分公司3,隆基泰和置业有限公司高碑店分公司1,河北高碑店市经济开发管理委员会变压器02,东盛杜家营南地变压器【纯农排变】,河北路云乾房地产开发有限公司2变压器,隆基泰和置业有限公司高碑店分公司01,0387437765-高碑店市海轮风机制造有限责任公司-专变-45274527-海轮风机厂,0645126211-河北阿苏尔门窗材料科技有限公司-专变-169310323-河北阿苏尔门窗材料科技有限公司变压器,河北路云乾房地产开发有限公司1变压器,吉亚无纺布厂,高碑店市华创房地产开发有限公司5,华欣水泥2,高碑店市华永房地产开发有限公司2,高碑店市栋梁实业有限公司变压器,新凯汽车集团有限公司02,隆基泰和置业有限公司高碑店分公司2,隆基泰和实业有限公司,高碑店市东盛初级中学,高碑店市城市管理综合执法局112国道3号,欣欣水泥机械厂,李凯风机厂,建安公司,新凯汽车集团有限公司01,河北高碑店市经济开发管理委员会变压器01,河北英泰环境工程有限公司,汇通路桥建设集团有限公司变压器,高碑店市路灯管理办公室变压器,华铝,华欣水泥,0387451512-河北英泰环境工程有限公司-专变-219728329-河北英泰环境工程有限公司2变压器,高碑店市华创房地产开发有限公司2,高碑店市城市管理综合执法局兴隆1号,河北弘盛实业有限公司变压器,石家庄2#公变变压器,高碑店市城市管理综合执法局世纪大道2号,河北双欧房地产开发有限公司,0586499061-高碑店市路灯管理办公室-专变-125125578-高碑店市路灯管理办公室变压器","poweroffReason":"【停电原因】由于刘长军分支高压电缆烧坏导致１１０ＫＶ方官变电站１０ＫＶ新发地５３３线路全线停电 【变更送电】因抢修进度加快原因，送电时间由２０：００变更为１８：００ 【发布渠道】通过９５５９８发布","powerTime":"2019-11-23 17:30:09","powerComm":"已送电","subsNo":"","lineNo":"","tgNo":"","tgName":null,"infoStatus":"1","orgName":"国网高碑店市供电公司","typeName":null,"infoStatusName":null,"dateDay":null,"orgNos":null,"nowTime":null,"countyName":null,"streetName":null,"villageName":null,"roadName":null,"communityName":null,"tranName":null,"sdLineName":null,"cityCode":"1340612","cityName":"国网高碑店市供电公司","provinceCode":null,"stopTime":"2019-11-23 18:00:00","powerType":"全部","powerOffArea":"【全线路停电】停党家营01号变压器,钱家营07号变压器,杜家营05变压器,杜家营01变压器,钱家营14号变压器,钱家营15号变压器,钱家营04号变压器,钱家营08号变压器,杜家营12变压器,钱家营17号变压器,钱家营05号变压器,钱家营02号变压器,钱家营10号变压器,东盛杜家营北变压器,东盛杜家营变压器,东盛杜家营西变压器,党家营02号变压器,党家营04号变压器,杜家营09变压器,杜家营11变压器,钱家营03号变压器,杜家营02变压器,钱家营16号变压器,党家营05号变压器,杜家营06变压器,钱家营12号变压器,钱家营06号变压器,东盛温屯南变压器,东盛国成玻璃变压器,钱家营01号变压器,党家营03号变压器,杜家营08变压器,杜家营10变压器,东盛党家营地变压器【纯农排变】,钱家营13号变压器,杜家营07变压器,杜家营03变压器,杜家营04变压器,东盛冯漫撒东变压器【纯农排变】,钱家营11号变压器,钱家营09号变压器,高桂茹变压器,高碑店市建设局变压器,隆基泰和置业有限公司高碑店分公司03,汇通路桥建设集团再生水建设有限公司1#变压器,高碑店市路灯管理办公室（世纪大道东侧）变压器,高碑店市诚惠家庭农场变压器,高碑店市华永房地产开发有限公司,刘长军,东盛杜家营北地变压器【纯农排变】,0575654804-高碑店市三义厚再生水建设有限公司-专变-123981594-汇通路桥建设集团有限公司变压器,汇通路桥建设集团再生水建设有限公司2#变压器,高碑店市华彩装订有限公司变压器,高碑店市路灯管理办公室,李中新,高碑店市城市管理综合执法局112国道1号,贾志明,高碑店市华永房地产开发有限公司1,隆基泰和置业有限公司高碑店分公司02,李凯风机厂西,0387451567-新凯汽车集团有限公司-专变-45283709-新凯汽车集团有限公司,石家庄14号变压器,隆基泰和置业有限公司高碑店分公司04,河北鼎誉房地产开发有限公司100KVA变压器,河北鼎誉房地产开发有限公司400KVA变压器,隆基泰和置业有限公司高碑店分公司3,隆基泰和置业有限公司高碑店分公司1,河北高碑店市经济开发管理委员会变压器02,东盛杜家营南地变压器【纯农排变】,河北路云乾房地产开发有限公司2变压器,隆基泰和置业有限公司高碑店分公司01,0387437765-高碑店市海轮风机制造有限责任公司-专变-45274527-海轮风机厂,0645126211-河北阿苏尔门窗材料科技有限公司-专变-169310323-河北阿苏尔门窗材料科技有限公司变压器,河北路云乾房地产开发有限公司1变压器,吉亚无纺布厂,高碑店市华创房地产开发有限公司5,华欣水泥2,高碑店市华永房地产开发有限公司2,高碑店市栋梁实业有限公司变压器,新凯汽车集团有限公司02,隆基泰和置业有限公司高碑店分公司2,隆基泰和实业有限公司,高碑店市东盛初级中学,高碑店市城市管理综合执法局112国道3号,欣欣水泥机械厂,李凯风机厂,建安公司,新凯汽车集团有限公司01,河北高碑店市经济开发管理委员会变压器01,河北英泰环境工程有限公司,汇通路桥建设集团有限公司变压器,高碑店市路灯管理办公室变压器,华铝,华欣水泥,0387451512-河北英泰环境工程有限公司-专变-219728329-河北英泰环境工程有限公司2变压器,高碑店市华创房地产开发有限公司2,高碑店市城市管理综合执法局兴隆1号,河北弘盛实业有限公司变压器,石家庄2#公变变压器,高碑店市城市管理综合执法局世纪大道2号,河北双欧房地产开发有限公司,0586499061-高碑店市路灯管理办公室-专变-125125578-高碑店市路灯管理办公室变压器","powerOffReason":"【停电原因】由于刘长军分支高压电缆烧坏导致１１０ＫＶ方官变电站１０ＫＶ新发地５３３线路全线停电 【变更送电】因抢修进度加快原因，送电时间由２０：００变更为１８：００ 【发布渠道】通过９５５９８发布","powerOffId":"2019112313000077"},{"poweroffId":2019112313000070,"sgpoweroffId":null,"subsName":"","lineName":"10kV联盟路站514线路","pubTranName":"B051柱上变压器,","scope":"【影响街道/乡镇】莲池区、永华大街 【高危重要客户】无 【影响客户】史庄、东小元、南金庄","startTime":"2019-11-23 14:45:47","stopDate":"2019-11-23 16:30:00","orgNo":"13406","typeCode":"电网故障停限电","poweroffArea":"【单台区停电】停B051柱上变压器","poweroffReason":"【停电原因】由于低压保险片烧导致１０ＫＶ联盟路变电站５１４线路Ｂ０５１公变台区停电【变更送电】无【发布渠道】通过９５５９８发布","powerTime":"2019-11-23 15:45:13","powerComm":"已送电","subsNo":"","lineNo":"","tgNo":"","tgName":null,"infoStatus":"1","orgName":"保定供电公司","typeName":null,"infoStatusName":null,"dateDay":null,"orgNos":null,"nowTime":null,"countyName":null,"streetName":null,"villageName":null,"roadName":null,"communityName":null,"tranName":null,"sdLineName":null,"cityCode":"13406","cityName":"保定供电公司","provinceCode":null,"stopTime":"2019-11-23 16:30:00","powerType":"全部","powerOffArea":"【单台区停电】停B051柱上变压器","powerOffReason":"【停电原因】由于低压保险片烧导致１０ＫＶ联盟路变电站５１４线路Ｂ０５１公变台区停电【变更送电】无【发布渠道】通过９５５９８发布","powerOffId":"2019112313000070"},{"poweroffId":2019112313000055,"sgpoweroffId":null,"subsName":"","lineName":"市政线511","pubTranName":"建委公变变压器,公安1号变压器,今日家园,","scope":"【影响街道/乡镇】迎宾路、兴华中路 【高危重要客户】无 【影响客户】今日家园、老公安局家属楼、建委家属楼、金盾小区、人保家属楼","startTime":"2019-11-23 14:12:57","stopDate":"2019-11-23 16:00:00","orgNo":"1340612","typeCode":"电网故障停限电","poweroffArea":"【分支停电】停建委公变变压器,公安1号变压器,今日家园","poweroffReason":"【停电原因】由于兴华路分支金盾小区０５号杆刀闸烧坏导致１１０ＫＶ方家务变电站１０ＫＶ市政５１１线路０３号断路器以下停电 【变更送电】无 【发布渠道】通过９５５９８发布","powerTime":"2019-11-23 15:07:01","powerComm":"已送电","subsNo":"","lineNo":"","tgNo":"","tgName":null,"infoStatus":"1","orgName":"国网高碑店市供电公司","typeName":null,"infoStatusName":null,"dateDay":null,"orgNos":null,"nowTime":null,"countyName":null,"streetName":null,"villageName":null,"roadName":null,"communityName":null,"tranName":null,"sdLineName":null,"cityCode":"1340612","cityName":"国网高碑店市供电公司","provinceCode":null,"stopTime":"2019-11-23 16:00:00","powerType":"全部","powerOffArea":"【分支停电】停建委公变变压器,公安1号变压器,今日家园","powerOffReason":"【停电原因】由于兴华路分支金盾小区０５号杆刀闸烧坏导致１１０ＫＶ方家务变电站１０ＫＶ市政５１１线路０３号断路器以下停电 【变更送电】无 【发布渠道】通过９５５９８发布","powerOffId":"2019112313000055"},{"poweroffId":2019112313000007,"sgpoweroffId":null,"subsName":"","lineName":"潘各庄线539","pubTranName":"1350潘各庄,","scope":"【影响街道/乡镇】刁窝乡 【高危重要客户】无 【影响客户】潘各庄","startTime":"2019-12-03 07:00:00","stopDate":"2019-12-03 18:00:00","orgNo":"1340626","typeCode":"计划停电","poweroffArea":"【单台区停电】停1350潘各庄","poweroffReason":"【停电原因】由于更换金具、架设导线工程导致１１０ＫＶ刁窝变电站潘各庄线５３９线路１３５０潘各庄公变台区停电 【变更送电】无 【发布渠道】涿州电视台（１１月２３日至１２月０２日２１：００播放２次）屏幕上方滚动","powerTime":"2019-12-03 17:45:10","powerComm":"恢复送电","subsNo":"","lineNo":"","tgNo":"","tgName":null,"infoStatus":"1","orgName":"国网涿州市供电公司","typeName":null,"infoStatusName":null,"dateDay":null,"orgNos":null,"nowTime":null,"countyName":null,"streetName":null,"villageName":null,"roadName":null,"communityName":null,"tranName":null,"sdLineName":null,"cityCode":"1340626","cityName":"国网涿州市供电公司","provinceCode":null,"stopTime":"2019-12-03 18:00:00","powerType":"全部","powerOffArea":"【单台区停电】停1350潘各庄","powerOffReason":"【停电原因】由于更换金具、架设导线工程导致１１０ＫＶ刁窝变电站潘各庄线５３９线路１３５０潘各庄公变台区停电 【变更送电】无 【发布渠道】涿州电视台（１１月２３日至１２月０２日２１：００播放２次）屏幕上方滚动","powerOffId":"2019112313000007"},{"poweroffId":2019112313000006,"sgpoweroffId":null,"subsName":"","lineName":"10KV褚村572","pubTranName":"北相0967,","scope":"【影响街道/乡镇】豆庄乡 【高危重要客户】无 【影响客户】北相村","startTime":"2019-12-03 08:00:00","stopDate":"2019-12-03 17:00:00","orgNo":"1340626","typeCode":"计划停电","poweroffArea":"【单台区停电】停北相0967","poweroffReason":"【停电原因】由于组装金具、架设导线工程导致２２０ＫＶ豆庄变电站１０ＫＶ褚村５７２线路北相０９６７公变台区停电 【变更送电】无 【发布渠道】涿州电视台（１１月２３日至１２月０２日２１：００播放２次）屏幕上方滚动","powerTime":"2019-12-03 16:35:27","powerComm":"恢复送电","subsNo":"","lineNo":"","tgNo":"","tgName":null,"infoStatus":"1","orgName":"国网涿州市供电公司","typeName":null,"infoStatusName":null,"dateDay":null,"orgNos":null,"nowTime":null,"countyName":null,"streetName":null,"villageName":null,"roadName":null,"communityName":null,"tranName":null,"sdLineName":null,"cityCode":"1340626","cityName":"国网涿州市供电公司","provinceCode":null,"stopTime":"2019-12-03 17:00:00","powerType":"全部","powerOffArea":"【单台区停电】停北相0967","powerOffReason":"【停电原因】由于组装金具、架设导线工程导致２２０ＫＶ豆庄变电站１０ＫＶ褚村５７２线路北相０９６７公变台区停电 【变更送电】无 【发布渠道】涿州电视台（１１月２３日至１２月０２日２１：００播放２次）屏幕上方滚动","powerOffId":"2019112313000006"},{"poweroffId":2019112213000337,"sgpoweroffId":null,"subsName":"","lineName":"10kV513息仲线","pubTranName":"息仲公用照明10台区,息仲公用照明14台区,息仲公用照明1台区(2),客户投资_息仲公用照明2台区(1),息仲公用照明9台区,","scope":"【影响街道/乡镇】息仲镇【高危重要客户】无【影响客户】息仲村、沙流","startTime":"2019-11-23 13:00:00","stopDate":"2019-11-23 16:30:00","orgNo":"1340610","typeCode":"其他临时停电","poweroffArea":"【全线路停电】停客户投资_息仲公用照明2台区(1),息仲公用照明9台区,息仲公用照明10台区,息仲公用照明14台区,息仲公用照明1台区(2)","poweroffReason":"【停电原因】由于弓子线打火需停电进行紧急检修导致３５ＫＶ息仲变电站１０ＫＶ５１３息仲线路全线停电 【变更送电】无 【发布渠道】９５５９８","powerTime":"","powerComm":"","subsNo":"","lineNo":"","tgNo":"","tgName":null,"infoStatus":"1","orgName":"国网定州市供电公司","typeName":null,"infoStatusName":null,"dateDay":null,"orgNos":null,"nowTime":null,"countyName":null,"streetName":null,"villageName":null,"roadName":null,"communityName":null,"tranName":null,"sdLineName":null,"cityCode":"1340610","cityName":"国网定州市供电公司","provinceCode":null,"stopTime":"2019-11-23 16:30:00","powerType":"未送电","powerOffArea":"【全线路停电】停客户投资_息仲公用照明2台区(1),息仲公用照明9台区,息仲公用照明10台区,息仲公用照明14台区,息仲公用照明1台区(2)","powerOffReason":"【停电原因】由于弓子线打火需停电进行紧急检修导致３５ＫＶ息仲变电站１０ＫＶ５１３息仲线路全线停电 【变更送电】无 【发布渠道】９５５９８","powerOffId":"2019112213000337"},{"poweroffId":2019112213000284,"sgpoweroffId":null,"subsName":"","lineName":"韦家营线513","pubTranName":"彭各庄光2|07095111020,彭各庄光7,彭各庄光9,彭各庄光8,彭各庄光4|07095111096,彭各庄光1|07095111019,彭各庄光6【2018年重过载】,","scope":"【影响街道/乡镇】天宫寺乡 【高危重要客户】无 【影响客户】彭各庄部分用户","startTime":"2019-12-07 01:00:00","stopDate":"2019-12-07 04:30:00","orgNo":"1340609","typeCode":"计划停电","poweroffArea":"【分支停电】停彭各庄光2|07095111020,彭各庄光7,彭各庄光9,彭各庄光8,彭各庄光4|07095111096,彭各庄光1|07095111019,彭各庄光6【2018年重过载】","poweroffReason":"【停电原因】由于彭各庄光４分支００２号杆至００３号杆线下重杆安装隔离开关导致３５ＫＶ彭各庄变电站韦家营线５１３线路主干００２号杆以下线路停电 【变更送电】无 【发布渠道】保定市定兴县电视台（１１月２９日０９时１０分至２３时５０分之间）屏幕上方滚动播放","powerTime":"2019-12-07 04:18:11","powerComm":"已送电","subsNo":"","lineNo":"","tgNo":"","tgName":null,"infoStatus":"1","orgName":"国网定兴县供电公司","typeName":null,"infoStatusName":null,"dateDay":null,"orgNos":null,"nowTime":null,"countyName":null,"streetName":null,"villageName":null,"roadName":null,"communityName":null,"tranName":null,"sdLineName":null,"cityCode":"1340609","cityName":"国网定兴县供电公司","provinceCode":null,"stopTime":"2019-12-07 04:30:00","powerType":"全部","powerOffArea":"【分支停电】停彭各庄光2|07095111020,彭各庄光7,彭各庄光9,彭各庄光8,彭各庄光4|07095111096,彭各庄光1|07095111019,彭各庄光6【2018年重过载】","powerOffReason":"【停电原因】由于彭各庄光４分支００２号杆至００３号杆线下重杆安装隔离开关导致３５ＫＶ彭各庄变电站韦家营线５１３线路主干００２号杆以下线路停电 【变更送电】无 【发布渠道】保定市定兴县电视台（１１月２９日０９时１０分至２３时５０分之间）屏幕上方滚动播放","powerOffId":"2019112213000284"}],"pageModel":{"pageNow":361,"totalCount":10973,"totalPage":1098,"tableRows":0,"pageCount":10,"beginCount":3600},"isExperi":"1"}