{"message":"","today":"2020-06-15","seleList":[{"poweroffId":2019112213000275,"sgpoweroffId":null,"subsName":"","lineName":"沙口专线575","pubTranName":"徐水县康盛奶牛合作社,郑庄4号,沙口4号,徐水县禾鑫奶牛专业合作社,郑庄7号,郑庄8号【纯农排变】,郑庄11号,沙口15号【纯农排变】,郑庄5号,郑庄2号,郑庄3号,沙口12号,沙口5号,郑庄14号【纯农排变】,郑庄9号【纯农排变】,沙口8号【纯农排变】,沙口10号【纯农排变】,郑庄13号【纯农排变】,沙口2号,沙口7号,徐水彩虹印刷厂1号,国强饲料厂,客户投资_沙口9号,郑庄12号,沙口6号【纯农排变】,郑庄1号,郑庄10号【纯农排变】,郑庄15号,沙口16号,沙口13号,沙口1号,郑庄6号【纯农排变】,沙口3号【纯农排变】,","scope":"【影响街道/乡镇】崔庄镇 【高危重要客户】无 【影响客户】郑庄、沙口","startTime":"2019-12-07 06:00:00","stopDate":"2019-12-07 17:00:00","orgNo":"1340605","typeCode":"计划停电","poweroffArea":"【分支停电】停徐水县康盛奶牛合作社,郑庄4号,徐水县禾鑫奶牛专业合作社,郑庄7号,郑庄8号【纯农排变】,郑庄11号,沙口15号【纯农排变】,郑庄5号,郑庄2号,郑庄3号,沙口4号,郑庄12号,沙口12号,沙口5号,郑庄14号【纯农排变】,郑庄9号【纯农排变】,沙口8号【纯农排变】,沙口10号【纯农排变】,郑庄13号【纯农排变】,沙口2号,沙口7号,徐水彩虹印刷厂1号,国强饲料厂,客户投资_沙口9号,沙口6号【纯农排变】,郑庄1号,郑庄10号【纯农排变】,郑庄15号,沙口16号,沙口13号,沙口1号,郑庄6号【纯农排变】,沙口3号【纯农排变】","poweroffReason":"【停电原因】由于线路改造导致１１０ＫＶ沙口变电站沙口５７５线路８号杆分段开关以下线路停电 【变更送电】无 【发布渠道】通过徐水电视台游走滚动字幕播放（２０１９年１１月３０日０７:００至１２月０６日２０:００）","powerTime":"2019-12-07 15:01:22","powerComm":"已送电","subsNo":"","lineNo":"","tgNo":"","tgName":null,"infoStatus":"1","orgName":"国网徐水县供电公司","typeName":null,"infoStatusName":null,"dateDay":null,"orgNos":null,"nowTime":null,"countyName":null,"streetName":null,"villageName":null,"roadName":null,"communityName":null,"tranName":null,"sdLineName":null,"cityCode":"1340605","cityName":"国网徐水县供电公司","provinceCode":null,"stopTime":"2019-12-07 17:00:00","powerType":"全部","powerOffArea":"【分支停电】停徐水县康盛奶牛合作社,郑庄4号,徐水县禾鑫奶牛专业合作社,郑庄7号,郑庄8号【纯农排变】,郑庄11号,沙口15号【纯农排变】,郑庄5号,郑庄2号,郑庄3号,沙口4号,郑庄12号,沙口12号,沙口5号,郑庄14号【纯农排变】,郑庄9号【纯农排变】,沙口8号【纯农排变】,沙口10号【纯农排变】,郑庄13号【纯农排变】,沙口2号,沙口7号,徐水彩虹印刷厂1号,国强饲料厂,客户投资_沙口9号,沙口6号【纯农排变】,郑庄1号,郑庄10号【纯农排变】,郑庄15号,沙口16号,沙口13号,沙口1号,郑庄6号【纯农排变】,沙口3号【纯农排变】","powerOffReason":"【停电原因】由于线路改造导致１１０ＫＶ沙口变电站沙口５７５线路８号杆分段开关以下线路停电 【变更送电】无 【发布渠道】通过徐水电视台游走滚动字幕播放（２０１９年１１月３０日０７:００至１２月０６日２０:００）","powerOffId":"2019112213000275"},{"poweroffId":2019112213000266,"sgpoweroffId":null,"subsName":"","lineName":"沙口线576","pubTranName":"沙口14号【纯农排变】,水磨头11号,东方羽毛加工厂2号,大辛庄供电所7号配变【纯农排变】,利明羽绒厂,艳辉羽绒厂,鑫祥羽绒加工厂,庆丰粉碎加工厂,鑫源羽绒厂,大辛庄33号配变,客户投资_水磨头1号配变,水磨头3号配变【纯农排变】,郝王庄7号配变【纯农排变】,大辛庄36号配变,大辛庄3号配变,小康庄4号,客户投资_大辛庄25号配变,水磨头25号,保定市徐水区昱通羽绒加工厂,大辛庄20号【纯农排变】,水磨头5号【纯农排变】,徐水县立新养猪场,水磨头27号,水磨头17号配变【纯农排变】,水磨头30号,客户投资_大辛庄9号配变,大辛庄供电所6号【纯农排变】,小康庄1号配变,水磨头31号,水磨头8号配变【纯农排变】,大辛庄22号配变,水磨头20号配变【纯农排变】,保定市徐水区田丰胜羽绒加工厂,客户投资_水磨头19号配变,大辛庄21号配变,保定市徐水区崔庄镇大辛庄幼儿园,水磨头12号,保定市徐水区龙洋羽绒加工厂,新立庄1号配变,水磨头23号,大辛庄10号配变,郝王庄3号,水磨头26号,变压器,小康庄6号,郝王庄9号,水磨头29号,崔庄镇大辛庄小学,郝王庄8号,保定市徐水区运志羽绒加工厂,小康庄2号配变【纯农排变】,水磨头22号配变,郝王庄11号,水磨头15号,水磨头14号【纯农排变】,新生水泥构件厂,水磨头6号配变,郝王庄4号配变,大千秋7号【纯农排变】,郝王庄1号配变,水磨头2号配变【纯农排变】,小康庄7号,水磨头24号,水磨头18号配变,大辛庄供电所8号配变,0745516907保定正一养殖有限公司900028433656,郝王庄10号,水磨头10号,水磨头9号配变,大辛庄35号配变,大辛庄26号,郝王庄6号【纯农排变】,水磨头7号配变【纯农排变】,大辛庄供电所14号【纯农排变】,徐水县安安生猪饲养有限公司,新立庄2号【纯农排变】,水磨头21号【纯农排变】,大辛庄供电所15号,强胜羽绒加工厂,水磨头4号配变,郝王庄12号,客户投资_大辛庄29号配变,郝王庄2号【纯农排变】,保定市徐水区鑫祥羽绒厂,水磨头28号,小康庄5号,保定市顺通利达商贸有限公司,大辛庄2号配变,恒达羽绒加工厂,大辛庄31号配变【纯农排变】,水磨头16号配变【纯农排变】,小康庄3号配变【纯农排变】,水磨头13号,曙东羽绒加工厂,富源羽绒加工厂,保定茂衡有色金属有限公司,郝王庄5号【纯农排变】,大辛庄8号配变,沙口11号【纯农排变】,","scope":"【影响街道/乡镇】崔庄镇 【高危重要客户】无 【影响客户】水磨头、大辛庄、新立庄、郝王庄、小康庄、大千秋、沙口","startTime":"2019-12-06 06:00:00","stopDate":"2019-12-06 17:00:00","orgNo":"1340605","typeCode":"计划停电","poweroffArea":"【分支停电】停水磨头8号配变【纯农排变】,大辛庄22号配变,水磨头20号配变【纯农排变】,保定市徐水区田丰胜羽绒加工厂,客户投资_水磨头19号配变,大辛庄21号配变,保定市徐水区崔庄镇大辛庄幼儿园,水磨头12号,保定市徐水区龙洋羽绒加工厂,新立庄1号配变,水磨头23号,大辛庄10号配变,郝王庄3号,水磨头26号,变压器,小康庄6号,郝王庄9号,水磨头29号,崔庄镇大辛庄小学,郝王庄8号,保定市徐水区运志羽绒加工厂,小康庄2号配变【纯农排变】,水磨头22号配变,郝王庄4号配变,水磨头2号配变【纯农排变】,0745516907保定正一养殖有限公司900028433656,郝王庄10号,水磨头10号,大辛庄26号,水磨头7号配变【纯农排变】,大辛庄供电所14号【纯农排变】,徐水县安安生猪饲养有限公司,新立庄2号【纯农排变】,水磨头21号【纯农排变】,强胜羽绒加工厂,郝王庄2号【纯农排变】,保定市徐水区鑫祥羽绒厂,水磨头28号,小康庄5号,保定市顺通利达商贸有限公司,水磨头16号配变【纯农排变】,小康庄3号配变【纯农排变】,水磨头13号,郝王庄11号,水磨头15号,水磨头14号【纯农排变】,新生水泥构件厂,水磨头6号配变,大千秋7号【纯农排变】,郝王庄1号配变,小康庄7号,水磨头24号,水磨头18号配变,大辛庄供电所8号配变,水磨头9号配变,大辛庄35号配变,郝王庄6号【纯农排变】,大辛庄供电所15号,水磨头4号配变,郝王庄12号,客户投资_大辛庄29号配变,大辛庄2号配变,恒达羽绒加工厂,大辛庄31号配变【纯农排变】,曙东羽绒加工厂,富源羽绒加工厂,保定茂衡有色金属有限公司,郝王庄5号【纯农排变】,大辛庄8号配变,沙口11号【纯农排变】,沙口14号【纯农排变】,水磨头11号,东方羽毛加工厂2号,大辛庄供电所7号配变【纯农排变】,利明羽绒厂,艳辉羽绒厂,鑫祥羽绒加工厂,庆丰粉碎加工厂,鑫源羽绒厂,大辛庄33号配变,客户投资_水磨头1号配变,水磨头3号配变【纯农排变】,郝王庄7号配变【纯农排变】,大辛庄36号配变,大辛庄3号配变,小康庄4号,客户投资_大辛庄25号配变,水磨头25号,保定市徐水区昱通羽绒加工厂,大辛庄20号【纯农排变】,水磨头5号【纯农排变】,徐水县立新养猪场,水磨头27号,水磨头17号配变【纯农排变】,水磨头30号,客户投资_大辛庄9号配变,大辛庄供电所6号【纯农排变】,小康庄1号配变,水磨头31号","poweroffReason":"【停电原因】由于线路改造导致１１０ＫＶ沙口变电站沙口５７６线路３０号杆分段开关以下线路停电 【变更送电】无 【发布渠道】通过徐水电视台游走滚动字幕播放（２０１９年１１月２９日０７:００至１２月５日２０:００）","powerTime":"2019-12-06 16:57:04","powerComm":"已送电","subsNo":"","lineNo":"","tgNo":"","tgName":null,"infoStatus":"1","orgName":"国网徐水县供电公司","typeName":null,"infoStatusName":null,"dateDay":null,"orgNos":null,"nowTime":null,"countyName":null,"streetName":null,"villageName":null,"roadName":null,"communityName":null,"tranName":null,"sdLineName":null,"cityCode":"1340605","cityName":"国网徐水县供电公司","provinceCode":null,"stopTime":"2019-12-06 17:00:00","powerType":"全部","powerOffArea":"【分支停电】停水磨头8号配变【纯农排变】,大辛庄22号配变,水磨头20号配变【纯农排变】,保定市徐水区田丰胜羽绒加工厂,客户投资_水磨头19号配变,大辛庄21号配变,保定市徐水区崔庄镇大辛庄幼儿园,水磨头12号,保定市徐水区龙洋羽绒加工厂,新立庄1号配变,水磨头23号,大辛庄10号配变,郝王庄3号,水磨头26号,变压器,小康庄6号,郝王庄9号,水磨头29号,崔庄镇大辛庄小学,郝王庄8号,保定市徐水区运志羽绒加工厂,小康庄2号配变【纯农排变】,水磨头22号配变,郝王庄4号配变,水磨头2号配变【纯农排变】,0745516907保定正一养殖有限公司900028433656,郝王庄10号,水磨头10号,大辛庄26号,水磨头7号配变【纯农排变】,大辛庄供电所14号【纯农排变】,徐水县安安生猪饲养有限公司,新立庄2号【纯农排变】,水磨头21号【纯农排变】,强胜羽绒加工厂,郝王庄2号【纯农排变】,保定市徐水区鑫祥羽绒厂,水磨头28号,小康庄5号,保定市顺通利达商贸有限公司,水磨头16号配变【纯农排变】,小康庄3号配变【纯农排变】,水磨头13号,郝王庄11号,水磨头15号,水磨头14号【纯农排变】,新生水泥构件厂,水磨头6号配变,大千秋7号【纯农排变】,郝王庄1号配变,小康庄7号,水磨头24号,水磨头18号配变,大辛庄供电所8号配变,水磨头9号配变,大辛庄35号配变,郝王庄6号【纯农排变】,大辛庄供电所15号,水磨头4号配变,郝王庄12号,客户投资_大辛庄29号配变,大辛庄2号配变,恒达羽绒加工厂,大辛庄31号配变【纯农排变】,曙东羽绒加工厂,富源羽绒加工厂,保定茂衡有色金属有限公司,郝王庄5号【纯农排变】,大辛庄8号配变,沙口11号【纯农排变】,沙口14号【纯农排变】,水磨头11号,东方羽毛加工厂2号,大辛庄供电所7号配变【纯农排变】,利明羽绒厂,艳辉羽绒厂,鑫祥羽绒加工厂,庆丰粉碎加工厂,鑫源羽绒厂,大辛庄33号配变,客户投资_水磨头1号配变,水磨头3号配变【纯农排变】,郝王庄7号配变【纯农排变】,大辛庄36号配变,大辛庄3号配变,小康庄4号,客户投资_大辛庄25号配变,水磨头25号,保定市徐水区昱通羽绒加工厂,大辛庄20号【纯农排变】,水磨头5号【纯农排变】,徐水县立新养猪场,水磨头27号,水磨头17号配变【纯农排变】,水磨头30号,客户投资_大辛庄9号配变,大辛庄供电所6号【纯农排变】,小康庄1号配变,水磨头31号","powerOffReason":"【停电原因】由于线路改造导致１１０ＫＶ沙口变电站沙口５７６线路３０号杆分段开关以下线路停电 【变更送电】无 【发布渠道】通过徐水电视台游走滚动字幕播放（２０１９年１１月２９日０７:００至１２月５日２０:００）","powerOffId":"2019112213000266"},{"poweroffId":2019112213000256,"sgpoweroffId":null,"subsName":"","lineName":"申庄线513","pubTranName":"10Kv513申庄线申庄20号【纯农排变】,10Kv513申庄线申庄2号【纯农排变】,10Kv513申庄线申庄8号,10Kv513申庄线申庄1号,10Kv513申庄线申庄15号【纯农排变】,","scope":"【影响街道/乡镇】高林村镇 【高危重要客户】无 【影响客户】申庄、高林村","startTime":"2019-12-08 06:00:00","stopDate":"2019-12-08 18:00:00","orgNo":"1340605","typeCode":"计划停电","poweroffArea":"【分支停电】停10Kv513申庄线申庄20号【纯农排变】,10Kv513申庄线高林村12号【纯农排变】,10Kv513申庄线申庄2号【纯农排变】, 10Kv513申庄线申庄8号,10Kv513申庄线高林村17号【纯农排变】, 10Kv513申庄线申庄16号, 10Kv513申庄线申庄13号, 10Kv513申庄线申庄1号, 10Kv513申庄线申庄18号【纯农排变】,10kV513申庄线申庄3号【纯农排变】,10Kv513申庄线申庄15号【纯农排变】, 10Kv513申庄线申庄4号,10Kv513申庄线申庄10号【纯农排变】, 10Kv513申庄线申庄12号,10Kv513申庄线高林村13号【纯农排变】, 10Kv513申庄线申庄19号, 10Kv513申庄线申庄17号","poweroffReason":"【停电原因】由于线路改造导致３５ＫＶ郎五庄变电站申庄５１３线路１２号分支３号杆分段开关以下线路停电 【变更送电】因工作未完成原因，送电时间由１７:００变更为１８:００ 【发布渠道】通过徐水电视台游走滚动字幕播放（１２月１日０７:００至１２月７日２０:００）","powerTime":"2019-12-08 17:07:52","powerComm":"已送电","subsNo":"","lineNo":"","tgNo":"","tgName":null,"infoStatus":"1","orgName":"国网徐水县供电公司","typeName":null,"infoStatusName":null,"dateDay":null,"orgNos":null,"nowTime":null,"countyName":null,"streetName":null,"villageName":null,"roadName":null,"communityName":null,"tranName":null,"sdLineName":null,"cityCode":"1340605","cityName":"国网徐水县供电公司","provinceCode":null,"stopTime":"2019-12-08 18:00:00","powerType":"全部","powerOffArea":"【分支停电】停10Kv513申庄线申庄20号【纯农排变】,10Kv513申庄线高林村12号【纯农排变】,10Kv513申庄线申庄2号【纯农排变】, 10Kv513申庄线申庄8号,10Kv513申庄线高林村17号【纯农排变】, 10Kv513申庄线申庄16号, 10Kv513申庄线申庄13号, 10Kv513申庄线申庄1号, 10Kv513申庄线申庄18号【纯农排变】,10kV513申庄线申庄3号【纯农排变】,10Kv513申庄线申庄15号【纯农排变】, 10Kv513申庄线申庄4号,10Kv513申庄线申庄10号【纯农排变】, 10Kv513申庄线申庄12号,10Kv513申庄线高林村13号【纯农排变】, 10Kv513申庄线申庄19号, 10Kv513申庄线申庄17号","powerOffReason":"【停电原因】由于线路改造导致３５ＫＶ郎五庄变电站申庄５１３线路１２号分支３号杆分段开关以下线路停电 【变更送电】因工作未完成原因，送电时间由１７:００变更为１８:００ 【发布渠道】通过徐水电视台游走滚动字幕播放（１２月１日０７:００至１２月７日２０:００）","powerOffId":"2019112213000256"},{"poweroffId":2019112213000245,"sgpoweroffId":null,"subsName":"","lineName":"西关线515","pubTranName":"河北定兴中学-500,康城3号地块2号变-630,*园丁小区,河北贯鸿房地产开发有限公司-1250A,河北宏屹房地产2号变-1250,贯鸿房地产-1000,河北贯鸿房地产开发有限公司-1250B,定兴中学-500-01,定兴中学-1250,河北定兴中学-1000,园丁小区公用,河北宏屹房地产4-1000,河北定兴中学1250,河北定兴中学500,康城3号地块1号变—630,河北宏屹房地产-1250,贯鸿2号变-1000,定兴中学-500-02,*康城建筑公司,河北宏屹房地产3-1000,康城3号地块3号变—315,河北宏屹房地产1250,康城3号地块1号箱变2—630,厚德房地产-1250,","scope":"【影响街道/乡镇】定兴镇 【高危重要客户】无 【影响客户】康城房地产、瑞德物业服务有限公司、康城物业、定兴中学、园丁小区、西苑小区、夏荷园小区、城市管理行政执法局、厚德房地产、贯鸿房地产开发有限公司、宏屹房地产、天骄房地产","startTime":"2019-12-06 01:00:00","stopDate":"2019-12-06 05:00:00","orgNo":"1340609","typeCode":"计划停电","poweroffArea":"【分支停电】停园丁小区公用,河北宏屹房地产2号变-1250,康城3号地块2号变-630,*园丁小区,河北贯鸿房地产开发有限公司-1250A,贯鸿房地产-1000,河北贯鸿房地产开发有限公司-1250B,定兴中学-500-01,定兴中学-1250,河北宏屹房地产4-1000,河北定兴中学1250,河北定兴中学500,康城3号地块1号变—630,河北宏屹房地产-1250,贯鸿2号变-1000,定兴中学-500-02,康城3号地块1号箱变2—630,厚德房地产-1250,河北定兴中学-1000,河北宏屹房地产1250,河北定兴中学-500,康城3号地块3号变—315,*康城建筑公司,河北宏屹房地产3-1000","poweroffReason":"【停电原因】由于肖庄分支０９号杆Ｔ接电缆安装高压计量导致３５ＫＶ城关变电站西关线５１５线路主干１９号杆以下线路停电 【变更送电】无 【发布渠道】保定市定兴县电视台（１１月２８日０９时１０分至２３时５０分之间）屏幕上方滚动播放","powerTime":"2019-12-06 04:43:34","powerComm":"已送电","subsNo":"","lineNo":"","tgNo":"","tgName":null,"infoStatus":"1","orgName":"国网定兴县供电公司","typeName":null,"infoStatusName":null,"dateDay":null,"orgNos":null,"nowTime":null,"countyName":null,"streetName":null,"villageName":null,"roadName":null,"communityName":null,"tranName":null,"sdLineName":null,"cityCode":"1340609","cityName":"国网定兴县供电公司","provinceCode":null,"stopTime":"2019-12-06 05:00:00","powerType":"全部","powerOffArea":"【分支停电】停园丁小区公用,河北宏屹房地产2号变-1250,康城3号地块2号变-630,*园丁小区,河北贯鸿房地产开发有限公司-1250A,贯鸿房地产-1000,河北贯鸿房地产开发有限公司-1250B,定兴中学-500-01,定兴中学-1250,河北宏屹房地产4-1000,河北定兴中学1250,河北定兴中学500,康城3号地块1号变—630,河北宏屹房地产-1250,贯鸿2号变-1000,定兴中学-500-02,康城3号地块1号箱变2—630,厚德房地产-1250,河北定兴中学-1000,河北宏屹房地产1250,河北定兴中学-500,康城3号地块3号变—315,*康城建筑公司,河北宏屹房地产3-1000","powerOffReason":"【停电原因】由于肖庄分支０９号杆Ｔ接电缆安装高压计量导致３５ＫＶ城关变电站西关线５１５线路主干１９号杆以下线路停电 【变更送电】无 【发布渠道】保定市定兴县电视台（１１月２８日０９时１０分至２３时５０分之间）屏幕上方滚动播放","powerOffId":"2019112213000245"},{"poweroffId":2019112213000242,"sgpoweroffId":null,"subsName":"","lineName":"瀑河线517","pubTranName":"王坎庄3号,贾庄15号,西凡6号,西凡3号,新乡6号,向阳6号,椿木峪2号,椿木峪1号,向阳1号,贾庄16号,贾庄14号变压器,东凡6号【纯农排变】,屯里16号,屯里3号,新乡11号变压器,椿木峪3号,屯里4号【纯农排变】,屯里17号变压器,西凡10号,","scope":"【影响街道/乡镇】瀑河乡 【高危重要客户】无 【影响客户】贾庄、屯里、西凡村、向阳村、太合庄、新乡村、东凡村、椿木峪、杨庄、王砍庄","startTime":"2019-12-08 06:00:00","stopDate":"2019-12-08 18:00:00","orgNo":"1340605","typeCode":"计划停电","poweroffArea":"【分支停电】停贾庄7号【纯农排变】,屯里16号,西凡13号,屯里11号【纯农排变】,贾庄4号【纯农排变】,屯里3号,向阳3号【纯农排变】,太合庄10号【纯农排变】,新乡5号【纯农排变】,屯里10号,124883159-保定安驰蓄电池制造有限公司002,东凡村2号,西凡12号,新乡11号变压器,贾庄8号【纯农排变】,新乡8号【纯农排变】,屯里1号,贾庄10号,椿木峪3号,屯里4号【纯农排变】,屯里17号变压器,保定巨腾房地产开发有限公司,屯里5号【纯农排变】,向阳5号,新乡9号,保定中普瑞拓科技有限公司,杨庄1号（西）,西凡10号,徐水县金启针刺毡厂,新乡7号【纯农排变】,西凡2号,屯里15号,王坎庄3号,王坎庄1号,屯里8号【纯农排变】,东凡村1号【纯农排变】,新乡4号【纯农排变】,贾庄15号,0690755134-900026434971保定安驰蓄电池制造有限公司001,0690755134-900026434977保定安驰蓄电池制造有限公司003,屯里12号,贾庄9号,贾庄1号,东凡3号【纯农排变】,西凡6号,中兴洗毛厂,保定格瑞特化工有限公司2号,贾庄11号,向阳2号【纯农排变】,西凡3号,贾庄6号【纯农排变】,屯里14号,西凡4号,新乡2号,东凡村4号,西凡木材加工厂,东凡6号【纯农排变】,保定格瑞特化工有限公司1号,屯里6号,0620201779-900027573759变压器,向阳6号,贾庄砖厂,西凡9号,贾庄13号,西凡1号【纯农排变】,西凡5村号,贾庄5号【纯农排变】,贾庄3号,0690755134-保定安驰蓄电池制造有限公司-专变-232271487-保定安驰蓄电池制造有限公司,新乡6号,向阳村4号,新乡3号【纯农排变】,东凡村5号,新乡10号,椿木峪2号,保定市徐水区宏远塑料发泡制品厂,椿木峪1号,贾庄12号,保定宇峰新技术研制厂,西凡7号,向阳1号,保定三军酿酒厂,贾庄2号,西凡11号【纯农排变】,西凡8号【纯农排变】,屯里13号,新乡1号,保定安驰蓄电池制造有限公司,贾庄16号,0716519676-900024246638变压器,杨庄2号(西),西凡14号,保定市徐水区瀑河乡贾庄小学,贾庄14号变压器,保定市徐水区瀑河乡新乡村幼儿园,屯里2号,屯里7号,屯里9号【纯农排变】","poweroffReason":"【停电原因】由于线路改造导致３５ＫＶ户木变电站瀑河５１７线路３２号杆分段开关以下线路停电 【变更送电】因工作未完成原因，送电时间由１７:００变更为１８:００ 【发布渠道】通过徐水电视台游走滚动字幕播放（１２月１日０７:００至１２月７日２０:００）","powerTime":"2019-12-08 17:08:02","powerComm":"已送电","subsNo":"","lineNo":"","tgNo":"","tgName":null,"infoStatus":"1","orgName":"国网徐水县供电公司","typeName":null,"infoStatusName":null,"dateDay":null,"orgNos":null,"nowTime":null,"countyName":null,"streetName":null,"villageName":null,"roadName":null,"communityName":null,"tranName":null,"sdLineName":null,"cityCode":"1340605","cityName":"国网徐水县供电公司","provinceCode":null,"stopTime":"2019-12-08 18:00:00","powerType":"全部","powerOffArea":"【分支停电】停贾庄7号【纯农排变】,屯里16号,西凡13号,屯里11号【纯农排变】,贾庄4号【纯农排变】,屯里3号,向阳3号【纯农排变】,太合庄10号【纯农排变】,新乡5号【纯农排变】,屯里10号,124883159-保定安驰蓄电池制造有限公司002,东凡村2号,西凡12号,新乡11号变压器,贾庄8号【纯农排变】,新乡8号【纯农排变】,屯里1号,贾庄10号,椿木峪3号,屯里4号【纯农排变】,屯里17号变压器,保定巨腾房地产开发有限公司,屯里5号【纯农排变】,向阳5号,新乡9号,保定中普瑞拓科技有限公司,杨庄1号（西）,西凡10号,徐水县金启针刺毡厂,新乡7号【纯农排变】,西凡2号,屯里15号,王坎庄3号,王坎庄1号,屯里8号【纯农排变】,东凡村1号【纯农排变】,新乡4号【纯农排变】,贾庄15号,0690755134-900026434971保定安驰蓄电池制造有限公司001,0690755134-900026434977保定安驰蓄电池制造有限公司003,屯里12号,贾庄9号,贾庄1号,东凡3号【纯农排变】,西凡6号,中兴洗毛厂,保定格瑞特化工有限公司2号,贾庄11号,向阳2号【纯农排变】,西凡3号,贾庄6号【纯农排变】,屯里14号,西凡4号,新乡2号,东凡村4号,西凡木材加工厂,东凡6号【纯农排变】,保定格瑞特化工有限公司1号,屯里6号,0620201779-900027573759变压器,向阳6号,贾庄砖厂,西凡9号,贾庄13号,西凡1号【纯农排变】,西凡5村号,贾庄5号【纯农排变】,贾庄3号,0690755134-保定安驰蓄电池制造有限公司-专变-232271487-保定安驰蓄电池制造有限公司,新乡6号,向阳村4号,新乡3号【纯农排变】,东凡村5号,新乡10号,椿木峪2号,保定市徐水区宏远塑料发泡制品厂,椿木峪1号,贾庄12号,保定宇峰新技术研制厂,西凡7号,向阳1号,保定三军酿酒厂,贾庄2号,西凡11号【纯农排变】,西凡8号【纯农排变】,屯里13号,新乡1号,保定安驰蓄电池制造有限公司,贾庄16号,0716519676-900024246638变压器,杨庄2号(西),西凡14号,保定市徐水区瀑河乡贾庄小学,贾庄14号变压器,保定市徐水区瀑河乡新乡村幼儿园,屯里2号,屯里7号,屯里9号【纯农排变】","powerOffReason":"【停电原因】由于线路改造导致３５ＫＶ户木变电站瀑河５１７线路３２号杆分段开关以下线路停电 【变更送电】因工作未完成原因，送电时间由１７:００变更为１８:００ 【发布渠道】通过徐水电视台游走滚动字幕播放（１２月１日０７:００至１２月７日２０:００）","powerOffId":"2019112213000242"},{"poweroffId":2019112213000212,"sgpoweroffId":null,"subsName":"","lineName":"陈庄线517","pubTranName":"10kV517陈庄线陈庄12号,10kV517陈庄线梁庄12号,10kV517陈庄线梁庄供19号,10kV517陈庄线梁庄3号,梁庄佳苑小区配电变压器,10kV517陈庄线梁庄9号【纯农排变】,","scope":"【影响街道/乡镇】史端乡 【高危重要客户】无 【影响客户】陈庄、梁庄、刘庄、林庄、北营","startTime":"2019-12-08 06:00:00","stopDate":"2019-12-08 18:00:00","orgNo":"1340605","typeCode":"计划停电","poweroffArea":"【分支停电】停10kV517陈庄线梁庄供38号,10kV517陈庄线梁庄供17号【纯农排变】,客户投资_陈庄供39号,10kV517陈庄线陈庄12号,10kV517陈庄线梁庄供60号,10kV517陈庄线梁庄12号,10kV517陈庄线陈庄供9号,10kV517陈庄线梁庄7号【纯农排变】,10kV517陈庄线陈庄供91号,10kV517陈庄线陈庄13号【纯农排变】,10kV517陈庄线陈庄供8号【纯农排变】,10kV517陈庄线陈庄4号【纯农排变】,10kV517陈庄线陈庄5号,徐水县鑫泽商品混泥土有限公司变压器,10kV517陈庄线梁庄供19号,徐水县伟业精密铸造有限公司2号,10kV517陈庄线陈庄20号,农田作业综合服务点,徐水县天丰苗木种植公司,10kV517陈庄线梁庄6号【纯农排变】,徐水县伟业精密铸造有限公司1号,10kV517陈庄线梁庄供88号,10kV517陈庄线梁庄3号,徐水县巨达焊管厂,徐水县中泰钢管制造厂,10kV517陈庄线梁庄2号,客户投资_陈庄26号,客户投资_陈庄供4号,10kV517陈庄线北营11号,10kV517陈庄线刘庄供12号【纯农排变】,10kV517陈庄线陈庄供82号,10kV517陈庄线陈庄16号【纯农排变】,10kV517陈庄线刘庄供83号,10kV517陈庄线林庄供23号,梁庄佳苑小区配电变压器,10kV517陈庄线北营供3号【纯农排变】,10kV517陈庄线陈庄供37号,10kV517陈庄线陈庄17号,10kV517陈庄线梁庄5号【纯农排变】,0627359912-保定皓辰木业有限公司-专变-139258177-保定皓辰木业有限公司,10kV517陈庄线梁庄9号【纯农排变】,10kV517陈庄线陈庄14号【纯农排变】,10kV517陈庄线陈庄22号,10kV517陈庄线梁庄8号【纯农排变】,保定市徐水区恒泰物业管理有限公司,10kV517陈庄线陈庄6号,10kV517陈庄线陈庄7号【纯农排变】,10kV517陈庄线梁庄供11号,10kV517陈庄线北营8号【纯农排变】,10kV517陈庄线陈庄8号【纯农排变】,10kV517陈庄线陈庄供30号【纯农排变】,10kV517陈庄线梁庄供90号,10kV517陈庄线梁庄14号,保定皓辰木业有限公司2K,10kV517陈庄线梁庄11号,10kV517陈庄线北营供43号","poweroffReason":"【停电原因】由于线路更换导线及切改导致３５ＫＶ史端变电站陈庄５１７线路１７号杆分段开关以下线路停电 【变更送电】因工作未完成原因，送电时间由１７:００变更为１８:００ 【发布渠道】通过电视台游走滚动字幕播放（１２月１日０７:００至１２月０７日２０:００）","powerTime":"2019-12-08 17:08:12","powerComm":"已送电","subsNo":"","lineNo":"","tgNo":"","tgName":null,"infoStatus":"1","orgName":"国网徐水县供电公司","typeName":null,"infoStatusName":null,"dateDay":null,"orgNos":null,"nowTime":null,"countyName":null,"streetName":null,"villageName":null,"roadName":null,"communityName":null,"tranName":null,"sdLineName":null,"cityCode":"1340605","cityName":"国网徐水县供电公司","provinceCode":null,"stopTime":"2019-12-08 18:00:00","powerType":"全部","powerOffArea":"【分支停电】停10kV517陈庄线梁庄供38号,10kV517陈庄线梁庄供17号【纯农排变】,客户投资_陈庄供39号,10kV517陈庄线陈庄12号,10kV517陈庄线梁庄供60号,10kV517陈庄线梁庄12号,10kV517陈庄线陈庄供9号,10kV517陈庄线梁庄7号【纯农排变】,10kV517陈庄线陈庄供91号,10kV517陈庄线陈庄13号【纯农排变】,10kV517陈庄线陈庄供8号【纯农排变】,10kV517陈庄线陈庄4号【纯农排变】,10kV517陈庄线陈庄5号,徐水县鑫泽商品混泥土有限公司变压器,10kV517陈庄线梁庄供19号,徐水县伟业精密铸造有限公司2号,10kV517陈庄线陈庄20号,农田作业综合服务点,徐水县天丰苗木种植公司,10kV517陈庄线梁庄6号【纯农排变】,徐水县伟业精密铸造有限公司1号,10kV517陈庄线梁庄供88号,10kV517陈庄线梁庄3号,徐水县巨达焊管厂,徐水县中泰钢管制造厂,10kV517陈庄线梁庄2号,客户投资_陈庄26号,客户投资_陈庄供4号,10kV517陈庄线北营11号,10kV517陈庄线刘庄供12号【纯农排变】,10kV517陈庄线陈庄供82号,10kV517陈庄线陈庄16号【纯农排变】,10kV517陈庄线刘庄供83号,10kV517陈庄线林庄供23号,梁庄佳苑小区配电变压器,10kV517陈庄线北营供3号【纯农排变】,10kV517陈庄线陈庄供37号,10kV517陈庄线陈庄17号,10kV517陈庄线梁庄5号【纯农排变】,0627359912-保定皓辰木业有限公司-专变-139258177-保定皓辰木业有限公司,10kV517陈庄线梁庄9号【纯农排变】,10kV517陈庄线陈庄14号【纯农排变】,10kV517陈庄线陈庄22号,10kV517陈庄线梁庄8号【纯农排变】,保定市徐水区恒泰物业管理有限公司,10kV517陈庄线陈庄6号,10kV517陈庄线陈庄7号【纯农排变】,10kV517陈庄线梁庄供11号,10kV517陈庄线北营8号【纯农排变】,10kV517陈庄线陈庄8号【纯农排变】,10kV517陈庄线陈庄供30号【纯农排变】,10kV517陈庄线梁庄供90号,10kV517陈庄线梁庄14号,保定皓辰木业有限公司2K,10kV517陈庄线梁庄11号,10kV517陈庄线北营供43号","powerOffReason":"【停电原因】由于线路更换导线及切改导致３５ＫＶ史端变电站陈庄５１７线路１７号杆分段开关以下线路停电 【变更送电】因工作未完成原因，送电时间由１７:００变更为１８:００ 【发布渠道】通过电视台游走滚动字幕播放（１２月１日０７:００至１２月０７日２０:００）","powerOffId":"2019112213000212"},{"poweroffId":2019112213000191,"sgpoweroffId":null,"subsName":"","lineName":"10kV519新一中线","pubTranName":"西里元公用照明6台区,西里元(027):照明1台区,","scope":"【影响街道/乡镇】北城区【高危重要客户】无 【影响客户】西里元、高头","startTime":"2019-12-04 06:00:00","stopDate":"2019-12-04 17:00:00","orgNo":"1340610","typeCode":"计划停电","poweroffArea":"【分支停电】停西里元公用照明6台区,西里元(027):照明1台区","poweroffReason":"【停电原因】由于更换导线导致１１０ＫＶ总司屯变电站１０ＫＶ５１９新一中线路主干２３号杆０２号断路器以下线路停电 【变更送电】无 【发布渠道】河北省定州市定州日报第三版（２０１９年１１月２２日）","powerTime":"2019-12-04 16:47:22","powerComm":"已送电","subsNo":"","lineNo":"","tgNo":"","tgName":null,"infoStatus":"1","orgName":"国网定州市供电公司","typeName":null,"infoStatusName":null,"dateDay":null,"orgNos":null,"nowTime":null,"countyName":null,"streetName":null,"villageName":null,"roadName":null,"communityName":null,"tranName":null,"sdLineName":null,"cityCode":"1340610","cityName":"国网定州市供电公司","provinceCode":null,"stopTime":"2019-12-04 17:00:00","powerType":"全部","powerOffArea":"【分支停电】停西里元公用照明6台区,西里元(027):照明1台区","powerOffReason":"【停电原因】由于更换导线导致１１０ＫＶ总司屯变电站１０ＫＶ５１９新一中线路主干２３号杆０２号断路器以下线路停电 【变更送电】无 【发布渠道】河北省定州市定州日报第三版（２０１９年１１月２２日）","powerOffId":"2019112213000191"},{"poweroffId":2019112213000182,"sgpoweroffId":null,"subsName":"","lineName":"10kV521杜各庄线","pubTranName":"10kV521杜各庄线庄头营31426台区变压器,10kV521杜各庄线庄头24830台区变压器,10kV521杜各庄线杜各庄村39004台区变压器,10kV521杜各庄线杜各庄39057台区变压器,10kV521杜各庄线庄头39018台区变压器,10kV521杜各庄线庄头39054台区变压器,10kV521杜各庄线杜各庄39048台区变压器,10kV521杜各庄线庄头营39062台区变压器,10kV521杜各庄线庄头营39069台区变压器,10kV521杜各庄线庄头39055台区变压器,10kV521杜各庄线杜各庄39058台区变压器,10kV521杜各庄线杜各庄39001台区变压器,10kV521杜各庄线杜各庄39002台区变压器,10kV521杜各庄线杜各庄39045台区变压器,10kV521杜各庄线庄头营42849台区变压器,10kV521杜各庄线庄头营39068台区变压器,10kV521杜各庄线庄头营39022台区变压器,10kV521杜各庄线杜各庄39006台区变压器,10kV521杜各庄线杜各在39047台区变压器,","scope":"【影响街道/乡镇】博野镇【高危重要客户】无【影响客户】杜各庄、庄头、庄头营、北白沙、屯庄","startTime":"2019-11-22 15:06:00","stopDate":"2019-11-22 17:30:00","orgNo":"1340608","typeCode":"电网故障停限电","poweroffArea":"【全线路停电】停10kV521杜各庄线庄头24830台区变压器,10kV521杜各庄线杜各庄村39004台区变压器,10kV521杜各庄线庄头39054台区变压器,10kV521杜各庄线杜各庄39048台区变压器,10kV521杜各庄线庄头营39069台区变压器,10kV521杜各庄线庄头39055台区变压器,10kV521杜各庄线杜各庄39058台区变压器,10kV521杜各庄线杜各庄39001台区变压器,10kV521杜各庄线杜各庄39002台区变压器,10kV521杜各庄线杜各庄39045台区变压器,10kV521杜各庄线庄头营42849台区变压器,10kV521杜各庄线庄头营39068台区变压器,10kV521杜各庄线庄头营39022台区变压器,10kV521杜各庄线庄头营31426台区变压器,10kV521杜各庄线杜各庄39057台区变压器,10kV521杜各庄线庄头39018台区变压器,10kV521杜各庄线庄头营39062台区变压器,10kV521杜各庄线杜各庄39006台区变压器,10kV521杜各庄线杜各在39047台区变压器","poweroffReason":"【停电原因】由于线路接地导致１１０ＫＶ博野变电站杜各庄５２１线路全线停电【变更送电】因抢修进度加快原因，送电时间由２３日１１：００变更为２２日１７：３０【发布渠道】通过９５５９８发布","powerTime":"2019-11-22 17:08:21","powerComm":"已送电","subsNo":"","lineNo":"","tgNo":"","tgName":null,"infoStatus":"1","orgName":"国网博野县供电公司","typeName":null,"infoStatusName":null,"dateDay":null,"orgNos":null,"nowTime":null,"countyName":null,"streetName":null,"villageName":null,"roadName":null,"communityName":null,"tranName":null,"sdLineName":null,"cityCode":"1340608","cityName":"国网博野县供电公司","provinceCode":null,"stopTime":"2019-11-22 17:30:00","powerType":"全部","powerOffArea":"【全线路停电】停10kV521杜各庄线庄头24830台区变压器,10kV521杜各庄线杜各庄村39004台区变压器,10kV521杜各庄线庄头39054台区变压器,10kV521杜各庄线杜各庄39048台区变压器,10kV521杜各庄线庄头营39069台区变压器,10kV521杜各庄线庄头39055台区变压器,10kV521杜各庄线杜各庄39058台区变压器,10kV521杜各庄线杜各庄39001台区变压器,10kV521杜各庄线杜各庄39002台区变压器,10kV521杜各庄线杜各庄39045台区变压器,10kV521杜各庄线庄头营42849台区变压器,10kV521杜各庄线庄头营39068台区变压器,10kV521杜各庄线庄头营39022台区变压器,10kV521杜各庄线庄头营31426台区变压器,10kV521杜各庄线杜各庄39057台区变压器,10kV521杜各庄线庄头39018台区变压器,10kV521杜各庄线庄头营39062台区变压器,10kV521杜各庄线杜各庄39006台区变压器,10kV521杜各庄线杜各在39047台区变压器","powerOffReason":"【停电原因】由于线路接地导致１１０ＫＶ博野变电站杜各庄５２１线路全线停电【变更送电】因抢修进度加快原因，送电时间由２３日１１：００变更为２２日１７：３０【发布渠道】通过９５５９８发布","powerOffId":"2019112213000182"},{"poweroffId":2019112213000173,"sgpoweroffId":null,"subsName":"","lineName":"10kV513冯村线","pubTranName":"10kV513冯村线08002台区变压器,10kV513冯村线55028台区变压器,10KV513冯村线08174台区变压器,10KV513冯村线24201台区变压器,10KV513冯村线沙沃08316台区变压器,10kV513冯村线冯村村北42842台区变压器,10kV513冯村线沙沃08088台区变压器,10kv513冯村线沙沃村村内08306台区变压器,10kV513冯村线冯村55029台区变压器,10KV513冯村线08034台区变压器,10kV513冯村线08175台区变压器,10kV513冯村线冯村08001台区变压器,10kV513冯村线沙沃08007台区变压器,","scope":"【影响街道/乡镇】博野镇【高危重要客户】无【影响客户】沙沃、冯村、西高庄、南白沙、小苑","startTime":"2019-11-22 14:58:00","stopDate":"2019-11-22 18:40:00","orgNo":"1340608","typeCode":"电网故障停限电","poweroffArea":"【全线路停电】停10KV513冯村线沙沃08316台区变压器,10kV513冯村线冯村村北42842台区变压器,10kV513冯村线沙沃08088台区变压器,10kv513冯村线沙沃村村内08306台区变压器,10kV513冯村线冯村55029台区变压器,10KV513冯村线08034台区变压器,10kV513冯村线08175台区变压器,10kV513冯村线冯村08001台区变压器,10kV513冯村线沙沃08007台区变压器,10kV513冯村线08002台区变压器,10kV513冯村线55028台区变压器,10KV513冯村线08174台区变压器,10KV513冯村线24201台区变压器","poweroffReason":"【停电原因】由于线路接地导致１１０ＫＶ博野变电站冯村５１３线路全线停电【变更送电】因抢修进度加快原因，送电时间由２３日１１：００变更为２２日１８：４０【发布渠道】通过９５５９８发布","powerTime":"2019-11-22 18:08:00","powerComm":"已送电","subsNo":"","lineNo":"","tgNo":"","tgName":null,"infoStatus":"1","orgName":"国网博野县供电公司","typeName":null,"infoStatusName":null,"dateDay":null,"orgNos":null,"nowTime":null,"countyName":null,"streetName":null,"villageName":null,"roadName":null,"communityName":null,"tranName":null,"sdLineName":null,"cityCode":"1340608","cityName":"国网博野县供电公司","provinceCode":null,"stopTime":"2019-11-22 18:40:00","powerType":"全部","powerOffArea":"【全线路停电】停10KV513冯村线沙沃08316台区变压器,10kV513冯村线冯村村北42842台区变压器,10kV513冯村线沙沃08088台区变压器,10kv513冯村线沙沃村村内08306台区变压器,10kV513冯村线冯村55029台区变压器,10KV513冯村线08034台区变压器,10kV513冯村线08175台区变压器,10kV513冯村线冯村08001台区变压器,10kV513冯村线沙沃08007台区变压器,10kV513冯村线08002台区变压器,10kV513冯村线55028台区变压器,10KV513冯村线08174台区变压器,10KV513冯村线24201台区变压器","powerOffReason":"【停电原因】由于线路接地导致１１０ＫＶ博野变电站冯村５１３线路全线停电【变更送电】因抢修进度加快原因，送电时间由２３日１１：００变更为２２日１８：４０【发布渠道】通过９５５９８发布","powerOffId":"2019112213000173"},{"poweroffId":2019112213000158,"sgpoweroffId":null,"subsName":"","lineName":"10kV511才良线","pubTranName":"韩旧庄2020农业|27002020【纯农排变】,西韩童新增农业4号（TD）4380【纯农排变】,北新兴10农业|27000010【纯农排变】,旧西庄130|27000130,才良240农排【纯农排变】,西韩童新增农业2号（TD)4387【纯农排变】,才良210农业|27000210【纯农排变】,西韩童2190农业|27002190【纯农排变】,韩新庄土地整改新增农业1号（TD）1409【纯农排变】,才良村西农业【纯农排变】,才良村北农业【纯农排变】,西韩童面粉厂,韩新庄新增农业2号（TD）4386【纯农排变】,西韩童40农业|27000040【纯农排变】,四通供电所,才良村西新增综合2号,西韩童60|27000060,韩新庄2800农业|27002800【纯农排变】,才良250农业|27000250【纯农排变】,才良村东南农业【纯农排变】,才良村西北农业【纯农排变】,才良村180|27000180,西韩童村东综合1855,北新兴村东2180农业|27002180【纯农排变】,旧西庄140|27000140,才良村东新增综合,西韩童2330综合|27002330,韩新庄100|27000100,西韩童东南综合0390,0469468162-中国移动通信集团河北有限公司顺平分公司-专变-46816492-中国移动,才良村170|27000170,才良面粉厂,韩旧庄土地整改新增农业2号（TD）1427【纯农排变】,才良学校综合1850,韩新庄120农业|27000120【纯农排变】,杨兴尔,韩新庄新增农业3号（TD）2475【纯农排变】,北新兴土地整改新增农业7号（TD）7879【纯农排变】,西韩童南综合2850|27002850,顺平县韩旺再生资源开发利用有限公司,韩旧庄150农业|27000150【纯农排变】,才良村西南农业【纯农排变】,才良村160|27000160,西韩童20综合|27000020,韩旧庄土地整改新增农业1号（TD）1909【纯农排变】,西韩童新增农业6号（TD）4384【纯农排变】,才良村西新建综合5388,西韩童村北新增综合1169,西韩童50|27000050,才良村北综合2860|27002860,韩新庄110农业|27000110【纯农排变】,韩旧庄2820农业|27002820【纯农排变】,西韩童2340农业|27002340【纯农排变】,西韩童2320农业|27002320【纯农排变】,韩新庄2260农业|27002260【纯农排变】,才良西南农业2【纯农排变】,才良2760|27002760,才良270|27000270,才良220农业|27000220【纯农排变】,西韩童30农业|27000030【纯农排变】,才良西南农业1【纯农排变】,西韩童70农业|27000070【纯农排变】,西韩童新增农业1号（TD)2473【纯农排变】,才良水塔边农业【纯农排变】,韩新庄新增农业1号（TD）4385【纯农排变】,西韩童村内新增综合1172,西韩童2310农业|27002310【纯农排变】,西韩童新增农业5号（TD）4381【纯农排变】,韩新庄2810农业|27002810【纯农排变】,韩新","scope":"【影响街道/乡镇】腰山镇【高危重要客户】无【影响客户】才良、西韩童、韩新庄、韩旧庄","startTime":"2019-11-23 07:00:00","stopDate":"2019-11-23 20:00:00","orgNo":"1340621","typeCode":"其他临时停电","poweroffArea":"【全线路停电】停四通供电所,韩旧庄150农业|27000150【纯农排变】,才良村东南农业【纯农排变】,才良230农业|27000230【纯农排变】,才良250农业|27000250【纯农排变】,才良西南农业1【纯农排变】,韩新庄综合2号7672,西韩童2310农业|27002310【纯农排变】,韩旧庄土地整改新增农业1号（TD）1909【纯农排变】,北新兴村东2180农业|27002180【纯农排变】,西韩童2190农业|27002190【纯农排变】,西韩童村内新增综合1172,才良220农业|27000220【纯农排变】,韩新庄2800农业|27002800【纯农排变】,西韩童村北新增综合1169,韩旧庄2020农业|27002020【纯农排变】,西韩童新增农业4号（TD）4380【纯农排变】,才良240农排【纯农排变】,韩新庄土地整改新增农业1号（TD）1409【纯农排变】,西韩童70农业|27000070【纯农排变】,才良村西新增综合2号,西韩童2320农业|27002320【纯农排变】,才良村西农业【纯农排变】,西韩童60|27000060,才良村北综合2860|27002860,西韩童东南综合0390,才良210农业|27000210【纯农排变】,才良村西新建综合5388,才良村北农业【纯农排变】,西韩童新增农业6号（TD）4384【纯农排变】,韩新庄110农业|27000110【纯农排变】,才良村东新增综合,西韩童40农业|27000040【纯农排变】,西韩童新增农业1号（TD)2473【纯农排变】,西韩童新增农业5号（TD）4381【纯农排变】,北新兴10农业|27000010【纯农排变】,西韩童20综合|27000020,西韩童面粉厂,韩新庄新增农业1号（TD）4385【纯农排变】,旧西庄130|27000130,韩新庄新增农业2号（TD）4386【纯农排变】,才良西南农业2【纯农排变】,才良水塔边农业【纯农排变】,才良村西南农业【纯农排变】,才良村西北农业【纯农排变】,才良村160|27000160,0469468162-中国移动通信集团河北有限公司顺平分公司-专变-46816492-中国移动,旧西庄140|27000140,西韩童村东综合1855,韩旧庄2820农业|27002820【纯农排变】,西韩童2340农业|27002340【纯农排变】,韩新庄2810农业|27002810【纯农排变】,才良270|27000270,西韩童80农业|27000080【纯农排变】,西韩童30农业|27000030【纯农排变】,才良2760|27002760,西韩童2330综合|27002330,韩旧庄土地整改新增农业2号（TD）1427【纯农排变】,才良面粉厂,北新兴土地整改新增农业7号（TD）7879【纯农排变】,韩旧庄综合1842,韩新庄2260农业|27002260【纯农排变】,才良村北新增综合1432,韩新庄100|27000100,韩新庄120农业|27000120【纯农排变】,杨兴尔,西韩童新增农业2号（TD)4387【纯农排变】,西韩童新增农业3号（TD)4389【纯农排变】,西韩童南综合2850|27002850,才良学校综合1850,才良村180|27000180,才良村170|27000170,顺平县韩旺再生资源开发利用有限公司,韩新庄新增农业3号（TD）2475【纯农排变】,西韩童50|27000050","poweroffReason":"【停电原因】由于大车撞歪电杆需停电进行紧急消缺导致３５ＫＶ四通变电站１０ＫＶ５１１才良线路全线停电【变更送电】无【发布渠道】通过９５５９８发布","powerTime":"","powerComm":"","subsNo":"","lineNo":"","tgNo":"","tgName":null,"infoStatus":"1","orgName":"国网顺平县电力局","typeName":null,"infoStatusName":null,"dateDay":null,"orgNos":null,"nowTime":null,"countyName":null,"streetName":null,"villageName":null,"roadName":null,"communityName":null,"tranName":null,"sdLineName":null,"cityCode":"1340621","cityName":"国网顺平县电力局","provinceCode":null,"stopTime":"2019-11-23 20:00:00","powerType":"未送电","powerOffArea":"【全线路停电】停四通供电所,韩旧庄150农业|27000150【纯农排变】,才良村东南农业【纯农排变】,才良230农业|27000230【纯农排变】,才良250农业|27000250【纯农排变】,才良西南农业1【纯农排变】,韩新庄综合2号7672,西韩童2310农业|27002310【纯农排变】,韩旧庄土地整改新增农业1号（TD）1909【纯农排变】,北新兴村东2180农业|27002180【纯农排变】,西韩童2190农业|27002190【纯农排变】,西韩童村内新增综合1172,才良220农业|27000220【纯农排变】,韩新庄2800农业|27002800【纯农排变】,西韩童村北新增综合1169,韩旧庄2020农业|27002020【纯农排变】,西韩童新增农业4号（TD）4380【纯农排变】,才良240农排【纯农排变】,韩新庄土地整改新增农业1号（TD）1409【纯农排变】,西韩童70农业|27000070【纯农排变】,才良村西新增综合2号,西韩童2320农业|27002320【纯农排变】,才良村西农业【纯农排变】,西韩童60|27000060,才良村北综合2860|27002860,西韩童东南综合0390,才良210农业|27000210【纯农排变】,才良村西新建综合5388,才良村北农业【纯农排变】,西韩童新增农业6号（TD）4384【纯农排变】,韩新庄110农业|27000110【纯农排变】,才良村东新增综合,西韩童40农业|27000040【纯农排变】,西韩童新增农业1号（TD)2473【纯农排变】,西韩童新增农业5号（TD）4381【纯农排变】,北新兴10农业|27000010【纯农排变】,西韩童20综合|27000020,西韩童面粉厂,韩新庄新增农业1号（TD）4385【纯农排变】,旧西庄130|27000130,韩新庄新增农业2号（TD）4386【纯农排变】,才良西南农业2【纯农排变】,才良水塔边农业【纯农排变】,才良村西南农业【纯农排变】,才良村西北农业【纯农排变】,才良村160|27000160,0469468162-中国移动通信集团河北有限公司顺平分公司-专变-46816492-中国移动,旧西庄140|27000140,西韩童村东综合1855,韩旧庄2820农业|27002820【纯农排变】,西韩童2340农业|27002340【纯农排变】,韩新庄2810农业|27002810【纯农排变】,才良270|27000270,西韩童80农业|27000080【纯农排变】,西韩童30农业|27000030【纯农排变】,才良2760|27002760,西韩童2330综合|27002330,韩旧庄土地整改新增农业2号（TD）1427【纯农排变】,才良面粉厂,北新兴土地整改新增农业7号（TD）7879【纯农排变】,韩旧庄综合1842,韩新庄2260农业|27002260【纯农排变】,才良村北新增综合1432,韩新庄100|27000100,韩新庄120农业|27000120【纯农排变】,杨兴尔,西韩童新增农业2号（TD)4387【纯农排变】,西韩童新增农业3号（TD)4389【纯农排变】,西韩童南综合2850|27002850,才良学校综合1850,才良村180|27000180,才良村170|27000170,顺平县韩旺再生资源开发利用有限公司,韩新庄新增农业3号（TD）2475【纯农排变】,西韩童50|27000050","powerOffReason":"【停电原因】由于大车撞歪电杆需停电进行紧急消缺导致３５ＫＶ四通变电站１０ＫＶ５１１才良线路全线停电【变更送电】无【发布渠道】通过９５５９８发布","powerOffId":"2019112213000158"}],"pageModel":{"pageNow":362,"totalCount":10973,"totalPage":1098,"tableRows":0,"pageCount":10,"beginCount":3610},"isExperi":"1"}