{"message":"","today":"2020-06-15","seleList":[{"poweroffId":2020060213000036,"sgpoweroffId":null,"subsName":"","lineName":"10kV512野陈佐线","pubTranName":"南保去综合3台区,北保去综合1台区,南鲍墟综合7台区,南鲍墟综合9台区,西鲍墟综合8台区,野陈佐综合1台区,野陈佐农排9台区【纯农排变】,野陈佐综合3台区,野陈佐综合2台区,南保去综合1台区,东鲍墟综合5台区,西保去综合2台区,西保去综合4台区,南鲍墟综合4台区,北保去农排2台区【纯农排变】,西保去农排4台区【纯农排变】,西鲍墟综合7台区,野陈佐综合7台区,北鲍墟综合4台区,野陈佐农排1台区【纯农排变】,野陈佐综合6台区,西保去综合3台区,北鲍墟综合5台区,北鲍墟综合7台区,野陈佐综合9台区,东保去综合2台区,野陈佐农排2台区【纯农排变】,东鲍墟综合6台区,北鲍墟综合6台区,东保去农排3台区【纯农排变】,北鲍墟综合9台区,东保去综合4台区,野陈佐综合8台区,野陈佐综合4台区,东保去综合1台区,野陈佐综合10台区,西保去综合5台区,西鲍墟综合6台区,野陈佐农排11台区【纯农排变】,北保去农排3台区【纯农排变】,南鲍墟综合8台区,北保去农排6台区【纯农排变】,北鲍墟综合8台区,南鲍墟综合5台区,北保去综合2台区,野陈佐农排3台区【纯农排变】,野陈佐综合5台区,南保去综合2台区,北保去农排10台区【纯农排变】,北保去综合3台区,东保去综合3台区,东鲍墟综合7台区,南鲍墟综合6台区,西保去综合1台区,","scope":"【影响街道/乡镇】鲍墟乡【高危重要客户】无【影响客户】野陈佐村、东鲍墟村、北鲍墟村、西鲍墟村、南鲍墟村","startTime":"2020-06-02 05:48:00","stopDate":"2020-06-02 16:40:00","orgNo":"1340616","typeCode":"电网故障停限电","poweroffArea":"【全线路停电】停３５ＫＶ鲍墟变电站１０ＫＶ野陈佐５１２线路全线，文瑞,南鲍墟综合4台区,野陈佐农排6台区【纯农排变】,南保去农排5台区【纯农排变】,北保去综合3台区,北保去农排5台区【纯农排变】,西保去综合4台区,野陈佐综合3台区,西鲍墟综合7台区,西保去农排1台区【纯农排变】,北保去农排7台区【纯农排变】,北鲍墟综合8台区,南保去综合1台区,野陈佐农排8台区【纯农排变】,西鲍墟综合6台区,西鲍墟综合8台区,东保去农排4台区【纯农排变】,野陈佐农排11台区【纯农排变】,中学农场,进托,南保去农排6台区【纯农排变】,南鲍墟综合7台区,野陈佐农排9台区【纯农排变】,野陈佐综合1台区,西保去综合1台区,瑞兴宏景变压器500,北保去农排9台区【纯农排变】,南保去综合2台区,西保去综合2台区,养牛厂,西保去综合5台区,小杰,保去社办厂,中学农场大变压器,北鲍墟综合7台区,南保去农排7台区【纯农排变】,南保去综合3台区,保去中学变压器,野陈佐农排4台区【纯农排变】,野陈佐农排1台区【纯农排变】,野陈佐综合2台区,南鲍墟综合6台区,北鲍墟综合4台区,北保去农排6台区【纯农排变】,北鲍墟综合6台区,北保去农排8台区【纯农排变】,东保去农排1台区【纯农排变】,野陈佐综合5台区,南保去农排2台区【纯农排变】,东保去农排6台区【纯农排变】,野陈佐农排2台区【纯农排变】,西保去农排4台区【纯农排变】,北鲍墟综合5台区,西保去农排3台区【纯农排变】,北保去综合2台区,北保去农排1台区【纯农排变】,蠡县春梅芦笋农民专业合作社,野陈佐综合9台区,蠡县淑亮狐饲料农民专业合作社,北保去综合1台区,西保去综合3台区,野陈佐综合10台区,野陈佐农排10台区【纯农排变】,东保去综合4台区,南保去农排1台区【纯农排变】,东鲍墟综合7台区,南保去农排4台区【纯农排变】,北鲍墟综合9台区,东保去综合3台区,野陈佐农排3台区【纯农排变】,野陈佐综合7台区,北保去农排2台区【纯农排变】,西保去农排7台区【纯农排变】,北保去农排10台区【纯农排变】,南鲍墟综合9台区,东保去农排5台区【纯农排变】,东保去综合1台区,南保红亮,瑞兴宏景变压器315,野陈佐综合4台区,北保去农排4台区【纯农排变】,东鲍墟综合6台区,北保去农排3台区【纯农排变】,西保去农排2台区【纯农排变】,东保去农排2台区【纯农排变】,西保去农排5台区【纯农排变】,野陈佐农排7台区【纯农排变】,南保去农排3台区【纯农排变】,野陈佐农排5台区【纯农排变】,野陈佐综合8台区,西保农排6台区【纯农排变】,蠡县亿帮洁日化有限公司,南鲍墟综合5台区,东保去农排3台区【纯农排变】,野陈佐综合6台区,南鲍墟综合8台区,东鲍墟综合5台区,东保去综合2台区","poweroffReason":"【停电原因】由于站内开关掉闸导致３５ＫＶ鲍墟变电站１０ＫＶ野陈佐５１２线路全线停电【变更送电】因抢修进度加快原因，送电时间由２０：００变更为１６:４０【发布渠道】通过９５５９８发布","powerTime":"2020-06-02 16:22:30","powerComm":"已送电","subsNo":"","lineNo":"","tgNo":"","tgName":null,"infoStatus":"1","orgName":"国网蠡县供电公司","typeName":null,"infoStatusName":null,"dateDay":null,"orgNos":null,"nowTime":null,"countyName":null,"streetName":null,"villageName":null,"roadName":null,"communityName":null,"tranName":null,"sdLineName":null,"cityCode":"1340616","cityName":"国网蠡县供电公司","provinceCode":null,"stopTime":"2020-06-02 16:40:00","powerType":"全部","powerOffArea":"【全线路停电】停３５ＫＶ鲍墟变电站１０ＫＶ野陈佐５１２线路全线，文瑞,南鲍墟综合4台区,野陈佐农排6台区【纯农排变】,南保去农排5台区【纯农排变】,北保去综合3台区,北保去农排5台区【纯农排变】,西保去综合4台区,野陈佐综合3台区,西鲍墟综合7台区,西保去农排1台区【纯农排变】,北保去农排7台区【纯农排变】,北鲍墟综合8台区,南保去综合1台区,野陈佐农排8台区【纯农排变】,西鲍墟综合6台区,西鲍墟综合8台区,东保去农排4台区【纯农排变】,野陈佐农排11台区【纯农排变】,中学农场,进托,南保去农排6台区【纯农排变】,南鲍墟综合7台区,野陈佐农排9台区【纯农排变】,野陈佐综合1台区,西保去综合1台区,瑞兴宏景变压器500,北保去农排9台区【纯农排变】,南保去综合2台区,西保去综合2台区,养牛厂,西保去综合5台区,小杰,保去社办厂,中学农场大变压器,北鲍墟综合7台区,南保去农排7台区【纯农排变】,南保去综合3台区,保去中学变压器,野陈佐农排4台区【纯农排变】,野陈佐农排1台区【纯农排变】,野陈佐综合2台区,南鲍墟综合6台区,北鲍墟综合4台区,北保去农排6台区【纯农排变】,北鲍墟综合6台区,北保去农排8台区【纯农排变】,东保去农排1台区【纯农排变】,野陈佐综合5台区,南保去农排2台区【纯农排变】,东保去农排6台区【纯农排变】,野陈佐农排2台区【纯农排变】,西保去农排4台区【纯农排变】,北鲍墟综合5台区,西保去农排3台区【纯农排变】,北保去综合2台区,北保去农排1台区【纯农排变】,蠡县春梅芦笋农民专业合作社,野陈佐综合9台区,蠡县淑亮狐饲料农民专业合作社,北保去综合1台区,西保去综合3台区,野陈佐综合10台区,野陈佐农排10台区【纯农排变】,东保去综合4台区,南保去农排1台区【纯农排变】,东鲍墟综合7台区,南保去农排4台区【纯农排变】,北鲍墟综合9台区,东保去综合3台区,野陈佐农排3台区【纯农排变】,野陈佐综合7台区,北保去农排2台区【纯农排变】,西保去农排7台区【纯农排变】,北保去农排10台区【纯农排变】,南鲍墟综合9台区,东保去农排5台区【纯农排变】,东保去综合1台区,南保红亮,瑞兴宏景变压器315,野陈佐综合4台区,北保去农排4台区【纯农排变】,东鲍墟综合6台区,北保去农排3台区【纯农排变】,西保去农排2台区【纯农排变】,东保去农排2台区【纯农排变】,西保去农排5台区【纯农排变】,野陈佐农排7台区【纯农排变】,南保去农排3台区【纯农排变】,野陈佐农排5台区【纯农排变】,野陈佐综合8台区,西保农排6台区【纯农排变】,蠡县亿帮洁日化有限公司,南鲍墟综合5台区,东保去农排3台区【纯农排变】,野陈佐综合6台区,南鲍墟综合8台区,东鲍墟综合5台区,东保去综合2台区","powerOffReason":"【停电原因】由于站内开关掉闸导致３５ＫＶ鲍墟变电站１０ＫＶ野陈佐５１２线路全线停电【变更送电】因抢修进度加快原因，送电时间由２０：００变更为１６:４０【发布渠道】通过９５５９８发布","powerOffId":"2020060213000036"},{"poweroffId":2020060213000033,"sgpoweroffId":null,"subsName":"","lineName":"10kV514东五夫线","pubTranName":"张庄综合5台区,张庄综合4台区,马佐综合2台区,悟儿头综合3台区,东伍夫综合1台区,东伍夫综合3台区,东五夫综合11台区,东伍夫农排4台区【纯农排变】,东伍夫农排1台区【纯农排变】,南五夫农排3台区【纯农排变】,南伍夫综合1台区,南伍夫综合5台区,于林村农排2台区【纯农排变】,东伍夫农排6台区【纯农排变】,东五夫综合8台区,东伍夫综合10台区,南五夫综合6台区,于林村农排1台区【纯农排变】,南伍夫综合4台区,于林村农排3台区【纯农排变】,东五夫农排16台区【纯农排变】,马佐综合3台区,马佐综合1台区,张庄综合2台区,东伍夫农排10台区【纯农排变】,南五夫综合8台区,张庄综合3台区,马佐农排3台区【纯农排变】,张庄综合1台区,南五夫农排10台区【纯农排变】,东伍夫农排2台区【纯农排变】,东伍夫农排7台区【纯农排变】,东五夫综合9台区,南伍夫综合3台区,吾尔头农排2台区【纯农排变】,南伍夫综合2台区,南五夫综合7台区,东伍夫农排14台区【纯农排变】,东五夫综合5台区,石庄村综合1台区,吾尔头综合1台区,东伍夫农排5台区【纯农排变】,南五夫综合9台区,张庄农排2台区【纯农排变】,东伍夫农排3台区【纯农排变】,东伍夫综合4台区,悟儿头综合2台区,张庄农排3台区【纯农排变】,南五夫农排9台区【纯农排变】,东五夫综合6台区,马佐综合4台区,东伍夫综合2台区,东五夫综合7台区,","scope":"【影响街道/乡镇】鲍墟乡【高危重要客户】无【影响客户】南五夫村、东五夫村、张庄村、马佐村、悟儿头村、榆林村","startTime":"2020-06-02 05:40:00","stopDate":"2020-06-02 10:00:00","orgNo":"1340616","typeCode":"电网故障停限电","poweroffArea":"【全线路停电】停３５ＫＶ鲍墟变电站１０ＫＶ东五夫５１４线路全线，南五夫综合7台区,南五夫农排9台区【纯农排变】,马佐农排1台区【纯农排变】,东伍夫农排11台区【纯农排变】,东伍夫农排15台区【纯农排变】,东五夫综合9台区,张庄综合2台区,东五夫综合11台区,东伍夫农排7台区【纯农排变】,南五夫农排3台区【纯农排变】,张庄农排2台区【纯农排变】,南五夫农排4台区【纯农排变】,东伍夫农排1台区【纯农排变】,东五夫农排16台区【纯农排变】,张庄农排1台区【纯农排变】,东伍夫综合2台区,于林村农排2台区【纯农排变】,南伍夫综合5台区,于林村农排3台区【纯农排变】,南五夫农排12台区【纯农排变】,东伍夫农排5台区【纯农排变】,悟儿头综合2台区,南五夫农排8台区【纯农排变】,南伍夫综合3台区,邢台市龙翔钻探有限公司变压器,乡政府,石庄件厂,马佐综合1台区,吾尔头农排1台区【纯农排变】,保去砖厂小,东五夫综合6台区,东伍夫农排10台区【纯农排变】,张庄农排3台区【纯农排变】,南五夫农排11台区【纯农排变】,马佐综合4台区,南伍夫综合1台区,于林村农排1台区【纯农排变】,东伍夫农排6台区【纯农排变】,东伍夫综合10台区,东伍夫农排14台区【纯农排变】,马佐革区西,捂儿头农用正北,南五夫综合8台区,南五夫综合9台区,东伍夫农排2台区【纯农排变】,南五夫面粉厂,悟儿头综合3台区,南伍夫综合4台区,鲍墟供电所变压器,石庄村综合1台区,东伍夫农排12台区【纯农排变】,马佐农排3台区【纯农排变】,东伍夫综合1台区,东伍夫农排8台区【纯农排变】,张庄综合5台区,马佐综合3台区,南五夫综合6台区,东伍夫农排9台区【纯农排变】,东伍夫农排3台区【纯农排变】,南伍夫农排2台区【纯农排变】,马佐农排4台区【纯农排变】,东伍夫农排13台区【纯农排变】,东五夫综合8台区,张庄农排4台区【纯农排变】,保去砖厂大,捂儿头面粉厂,南五夫农排6台区【纯农排变】,南五夫农排10台区【纯农排变】,东伍夫农排4台区【纯农排变】,张庄综合3台区,吾尔头农排2台区【纯农排变】,东五夫综合7台区,南五夫农排7台区【纯农排变】,吾尔头综合1台区,南伍夫农排1台区【纯农排变】,张庄综合1台区,张庄综合4台区,东伍夫综合3台区,马佐综合2台区,东五夫综合5台区,马佐农排2台区【纯农排变】,南五夫农排5台区【纯农排变】,东伍夫综合4台区,南伍夫综合2台区","poweroffReason":"【停电原因】由于站内开关掉闸导致３５ＫＶ鲍墟变电站１０ＫＶ东五夫５１４线路全线停电【变更送电】因抢修进度加快原因，送电时间由２０:００变更为１０:００【发布渠道】通过９５５９８发布","powerTime":"2020-06-02 09:23:28","powerComm":"已送电","subsNo":"","lineNo":"","tgNo":"","tgName":null,"infoStatus":"1","orgName":"国网蠡县供电公司","typeName":null,"infoStatusName":null,"dateDay":null,"orgNos":null,"nowTime":null,"countyName":null,"streetName":null,"villageName":null,"roadName":null,"communityName":null,"tranName":null,"sdLineName":null,"cityCode":"1340616","cityName":"国网蠡县供电公司","provinceCode":null,"stopTime":"2020-06-02 10:00:00","powerType":"全部","powerOffArea":"【全线路停电】停３５ＫＶ鲍墟变电站１０ＫＶ东五夫５１４线路全线，南五夫综合7台区,南五夫农排9台区【纯农排变】,马佐农排1台区【纯农排变】,东伍夫农排11台区【纯农排变】,东伍夫农排15台区【纯农排变】,东五夫综合9台区,张庄综合2台区,东五夫综合11台区,东伍夫农排7台区【纯农排变】,南五夫农排3台区【纯农排变】,张庄农排2台区【纯农排变】,南五夫农排4台区【纯农排变】,东伍夫农排1台区【纯农排变】,东五夫农排16台区【纯农排变】,张庄农排1台区【纯农排变】,东伍夫综合2台区,于林村农排2台区【纯农排变】,南伍夫综合5台区,于林村农排3台区【纯农排变】,南五夫农排12台区【纯农排变】,东伍夫农排5台区【纯农排变】,悟儿头综合2台区,南五夫农排8台区【纯农排变】,南伍夫综合3台区,邢台市龙翔钻探有限公司变压器,乡政府,石庄件厂,马佐综合1台区,吾尔头农排1台区【纯农排变】,保去砖厂小,东五夫综合6台区,东伍夫农排10台区【纯农排变】,张庄农排3台区【纯农排变】,南五夫农排11台区【纯农排变】,马佐综合4台区,南伍夫综合1台区,于林村农排1台区【纯农排变】,东伍夫农排6台区【纯农排变】,东伍夫综合10台区,东伍夫农排14台区【纯农排变】,马佐革区西,捂儿头农用正北,南五夫综合8台区,南五夫综合9台区,东伍夫农排2台区【纯农排变】,南五夫面粉厂,悟儿头综合3台区,南伍夫综合4台区,鲍墟供电所变压器,石庄村综合1台区,东伍夫农排12台区【纯农排变】,马佐农排3台区【纯农排变】,东伍夫综合1台区,东伍夫农排8台区【纯农排变】,张庄综合5台区,马佐综合3台区,南五夫综合6台区,东伍夫农排9台区【纯农排变】,东伍夫农排3台区【纯农排变】,南伍夫农排2台区【纯农排变】,马佐农排4台区【纯农排变】,东伍夫农排13台区【纯农排变】,东五夫综合8台区,张庄农排4台区【纯农排变】,保去砖厂大,捂儿头面粉厂,南五夫农排6台区【纯农排变】,南五夫农排10台区【纯农排变】,东伍夫农排4台区【纯农排变】,张庄综合3台区,吾尔头农排2台区【纯农排变】,东五夫综合7台区,南五夫农排7台区【纯农排变】,吾尔头综合1台区,南伍夫农排1台区【纯农排变】,张庄综合1台区,张庄综合4台区,东伍夫综合3台区,马佐综合2台区,东五夫综合5台区,马佐农排2台区【纯农排变】,南五夫农排5台区【纯农排变】,东伍夫综合4台区,南伍夫综合2台区","powerOffReason":"【停电原因】由于站内开关掉闸导致３５ＫＶ鲍墟变电站１０ＫＶ东五夫５１４线路全线停电【变更送电】因抢修进度加快原因，送电时间由２０:００变更为１０:００【发布渠道】通过９５５９８发布","powerOffId":"2020060213000033"},{"poweroffId":2020060213000023,"sgpoweroffId":null,"subsName":"","lineName":"10kV541大润线","pubTranName":"兑坎庄综合9台区,兑坎庄综合4台区,","scope":"【影响街道/乡镇】蠡吾镇【高危重要客户】无【影响客户】兑坎庄工业区","startTime":"2020-06-02 05:29:00","stopDate":"2020-06-02 11:20:00","orgNo":"1340616","typeCode":"电网故障停限电","poweroffArea":"【全线路停电】停１１０ＫＶ张岳变电站１０ＫＶ大润５４１线路全线，保定蓝润胶带制造有限公司,蠡县宏达贸易有限公司,兑坎庄综合9台区,保定宏达输送机械有限公司变压器,兑坎庄综合4台区,变压器,蠡县弘扬胶带有限公司变压器,张永志,河北阳光胶带,河北天发橡胶有限公司,大润橡胶机带制造有限公司,保定大润橡胶机带制造有限公司,河北昌鑫胶带机械有限公司,鑫涛橡胶,张彦峰,蠡县圣元橡胶机带厂,保定远晟橡胶胶带制造有限公司变压器,？县兑坎庄正达胶带厂,中国石化,河北华龙输送设备厂,蠡县昌鑫橡胶机械制造有限公司变压器,蠡县亿鑫橡胶输送设备有限公司变压器,保定佳旭橡胶输送设备有限公司变压器630","poweroffReason":"【停电原因】由于四回同杆架设导致１１０ＫＶ张岳变电站１０ＫＶ大润５４１线路全线停电【变更送电】因抢修进度加快原因，送电时间由１７:００变更为１１:２０【发布渠道】通过９５５９８发布","powerTime":"2020-06-02 10:47:52","powerComm":"已送电","subsNo":"","lineNo":"","tgNo":"","tgName":null,"infoStatus":"1","orgName":"国网蠡县供电公司","typeName":null,"infoStatusName":null,"dateDay":null,"orgNos":null,"nowTime":null,"countyName":null,"streetName":null,"villageName":null,"roadName":null,"communityName":null,"tranName":null,"sdLineName":null,"cityCode":"1340616","cityName":"国网蠡县供电公司","provinceCode":null,"stopTime":"2020-06-02 11:20:00","powerType":"全部","powerOffArea":"【全线路停电】停１１０ＫＶ张岳变电站１０ＫＶ大润５４１线路全线，保定蓝润胶带制造有限公司,蠡县宏达贸易有限公司,兑坎庄综合9台区,保定宏达输送机械有限公司变压器,兑坎庄综合4台区,变压器,蠡县弘扬胶带有限公司变压器,张永志,河北阳光胶带,河北天发橡胶有限公司,大润橡胶机带制造有限公司,保定大润橡胶机带制造有限公司,河北昌鑫胶带机械有限公司,鑫涛橡胶,张彦峰,蠡县圣元橡胶机带厂,保定远晟橡胶胶带制造有限公司变压器,？县兑坎庄正达胶带厂,中国石化,河北华龙输送设备厂,蠡县昌鑫橡胶机械制造有限公司变压器,蠡县亿鑫橡胶输送设备有限公司变压器,保定佳旭橡胶输送设备有限公司变压器630","powerOffReason":"【停电原因】由于四回同杆架设导致１１０ＫＶ张岳变电站１０ＫＶ大润５４１线路全线停电【变更送电】因抢修进度加快原因，送电时间由１７:００变更为１１:２０【发布渠道】通过９５５９８发布","powerOffId":"2020060213000023"},{"poweroffId":2020060213000022,"sgpoweroffId":null,"subsName":"","lineName":"10kV542红星线","pubTranName":"兑坎庄综合10台区,兑坎庄综合2台区,兑坎庄综合5台区,兑坎庄综合11台区,","scope":"【影响街道/乡镇】蠡吾镇【高危重要客户】无【影响客户】兑坎庄工业区","startTime":"2020-06-02 05:30:00","stopDate":"2020-06-02 11:20:00","orgNo":"1340616","typeCode":"电网故障停限电","poweroffArea":"【全线路停电】停１１０ＫＶ张岳变电站１０ＫＶ红星５４２线路全线，李同营,蠡县兑坎庄橡胶制品经销部变压器,华腾,四通设备厂,保定坤隆橡胶机带有限公司变压器,保定天顺橡胶制品有限公司,河北东风橡胶机带有限公司,蠡县兑坎庄中亿胶带输送设备配件厂,保定四海橡胶机带有限公司,兑坎庄综合11台区,李贺营,李国安,保定红星橡胶制品有限公司,保定中南橡胶机带有限公司,蠡县亿丰输送设备有限公司变压器,韩素卓||2522046|兑坎庄,2522兑坎庄李云清,河北新达胶带厂变压器,2522050||2522兑坎庄,兑坎庄综合10台区,2522兑坎庄车床,蠡县东亿橡胶机带有限公司变压器安装,0684252737-保定晟诺橡胶机带制造有限公司-专变-225174124-保定晟诺橡胶机带制造有限公司,2522兑坎庄韩显增,保定天顺橡胶制品有限公司变压器,双启织布厂,中北橡,蠡县华川胶带有限公司,兑坎庄综合2台区,北方,0683783388-蠡县华隆胶带厂-专变-223538313-蠡县华隆胶带厂变压器,变压器,胜利橡,蠡县开泰输送机带有限公司变压器,华都,其林,保定中南橡胶机带有限公司变压器,蠡县兑庄农机配件维修部,李建辉,中元,鑫宝达输送设备制造有限公司变压器,兑坎庄综合5台区,李贺兵,明星,蠡县兑坎庄腾达环形带厂变压器,李建良,李保昌,保定弘强橡胶机带有限公司,蠡县爱辉橡胶厂变压器","poweroffReason":"【停电原因】由于四回同杆架设导致１１０ＫＶ张岳变电站１０ＫＶ红星５４２线路全线停电【变更送电】因抢修进度加快原因，送电时间由１７:００变更为１１:２０【发布渠道】通过９５５９８发布","powerTime":"2020-06-02 10:47:16","powerComm":"已送电","subsNo":"","lineNo":"","tgNo":"","tgName":null,"infoStatus":"1","orgName":"国网蠡县供电公司","typeName":null,"infoStatusName":null,"dateDay":null,"orgNos":null,"nowTime":null,"countyName":null,"streetName":null,"villageName":null,"roadName":null,"communityName":null,"tranName":null,"sdLineName":null,"cityCode":"1340616","cityName":"国网蠡县供电公司","provinceCode":null,"stopTime":"2020-06-02 11:20:00","powerType":"全部","powerOffArea":"【全线路停电】停１１０ＫＶ张岳变电站１０ＫＶ红星５４２线路全线，李同营,蠡县兑坎庄橡胶制品经销部变压器,华腾,四通设备厂,保定坤隆橡胶机带有限公司变压器,保定天顺橡胶制品有限公司,河北东风橡胶机带有限公司,蠡县兑坎庄中亿胶带输送设备配件厂,保定四海橡胶机带有限公司,兑坎庄综合11台区,李贺营,李国安,保定红星橡胶制品有限公司,保定中南橡胶机带有限公司,蠡县亿丰输送设备有限公司变压器,韩素卓||2522046|兑坎庄,2522兑坎庄李云清,河北新达胶带厂变压器,2522050||2522兑坎庄,兑坎庄综合10台区,2522兑坎庄车床,蠡县东亿橡胶机带有限公司变压器安装,0684252737-保定晟诺橡胶机带制造有限公司-专变-225174124-保定晟诺橡胶机带制造有限公司,2522兑坎庄韩显增,保定天顺橡胶制品有限公司变压器,双启织布厂,中北橡,蠡县华川胶带有限公司,兑坎庄综合2台区,北方,0683783388-蠡县华隆胶带厂-专变-223538313-蠡县华隆胶带厂变压器,变压器,胜利橡,蠡县开泰输送机带有限公司变压器,华都,其林,保定中南橡胶机带有限公司变压器,蠡县兑庄农机配件维修部,李建辉,中元,鑫宝达输送设备制造有限公司变压器,兑坎庄综合5台区,李贺兵,明星,蠡县兑坎庄腾达环形带厂变压器,李建良,李保昌,保定弘强橡胶机带有限公司,蠡县爱辉橡胶厂变压器","powerOffReason":"【停电原因】由于四回同杆架设导致１１０ＫＶ张岳变电站１０ＫＶ红星５４２线路全线停电【变更送电】因抢修进度加快原因，送电时间由１７:００变更为１１:２０【发布渠道】通过９５５９８发布","powerOffId":"2020060213000022"},{"poweroffId":2020060213000020,"sgpoweroffId":null,"subsName":"","lineName":"10kV543弘强线","pubTranName":"兑坎庄综合18台区,兑坎庄综合2台区,兑坎庄综合10台区,","scope":"【影响街道/乡镇】蠡吾镇【高危重要客户】无【影响客户】兑坎庄工业区　兑坎庄村","startTime":"2020-06-02 05:28:00","stopDate":"2020-06-02 11:20:00","orgNo":"1340616","typeCode":"电网故障停限电","poweroffArea":"【全线路停电】停１１０ＫＶ张岳变电站１０ＫＶ弘强５４３线路全线，蠡县华申胶带有限公司,河北中北橡胶机带有限公司,保定东翔橡胶机带制造有限公司,北方托辊变压器,保定鑫宝达输送设备制造有限公司250,河北中凯橡胶机带有限公司,河北华胜胶带有限公司,保定天顺橡胶制品有限公司,河北东风橡胶机带有限公司,蠡县兑坎庄中亿胶带输送设备配件厂,兑坎庄善刚农机维修门市部,忠义输送带,0469344859-河北维力橡胶机带有限公司-专变-118460019-河北凯颖橡胶机带有限公司,0675576376-保定红星橡胶制品有限公司-专变-217730354-保定红星橡胶制品有限公司,0490431894-河北中亚输送设备厂-专变-46935353-变压器,保定红星橡胶制品有限公司,蠡县明星胶带有限公司,兑坎庄综合10台区,蠡县兑坎庄三友机械厂,河北大龙橡胶制品有限公司,河北华胜胶带有限公司630,河北神龙橡胶,蠡县鑫广橡胶机带制造有限公司,河北神龙橡胶输送设备有限公司变压器,兑坎庄综合18台区,兑坎庄综合2台区,北方橡胶有限公司,蠡县华隆胶带厂变压器","poweroffReason":"【停电原因】由于四回同杆架设导致１１０ＫＶ张岳变电站１０ＫＶ弘强５４３线路全线停电【变更送电】因抢修进度加快原因，送电时间由１７:００变更为１１:２０【发布渠道】通过９５５９８发布","powerTime":"2020-06-02 10:48:22","powerComm":"已送电","subsNo":"","lineNo":"","tgNo":"","tgName":null,"infoStatus":"1","orgName":"国网蠡县供电公司","typeName":null,"infoStatusName":null,"dateDay":null,"orgNos":null,"nowTime":null,"countyName":null,"streetName":null,"villageName":null,"roadName":null,"communityName":null,"tranName":null,"sdLineName":null,"cityCode":"1340616","cityName":"国网蠡县供电公司","provinceCode":null,"stopTime":"2020-06-02 11:20:00","powerType":"全部","powerOffArea":"【全线路停电】停１１０ＫＶ张岳变电站１０ＫＶ弘强５４３线路全线，蠡县华申胶带有限公司,河北中北橡胶机带有限公司,保定东翔橡胶机带制造有限公司,北方托辊变压器,保定鑫宝达输送设备制造有限公司250,河北中凯橡胶机带有限公司,河北华胜胶带有限公司,保定天顺橡胶制品有限公司,河北东风橡胶机带有限公司,蠡县兑坎庄中亿胶带输送设备配件厂,兑坎庄善刚农机维修门市部,忠义输送带,0469344859-河北维力橡胶机带有限公司-专变-118460019-河北凯颖橡胶机带有限公司,0675576376-保定红星橡胶制品有限公司-专变-217730354-保定红星橡胶制品有限公司,0490431894-河北中亚输送设备厂-专变-46935353-变压器,保定红星橡胶制品有限公司,蠡县明星胶带有限公司,兑坎庄综合10台区,蠡县兑坎庄三友机械厂,河北大龙橡胶制品有限公司,河北华胜胶带有限公司630,河北神龙橡胶,蠡县鑫广橡胶机带制造有限公司,河北神龙橡胶输送设备有限公司变压器,兑坎庄综合18台区,兑坎庄综合2台区,北方橡胶有限公司,蠡县华隆胶带厂变压器","powerOffReason":"【停电原因】由于四回同杆架设导致１１０ＫＶ张岳变电站１０ＫＶ弘强５４３线路全线停电【变更送电】因抢修进度加快原因，送电时间由１７:００变更为１１:２０【发布渠道】通过９５５９８发布","powerOffId":"2020060213000020"},{"poweroffId":2020060121000206,"sgpoweroffId":null,"subsName":"","lineName":"10kV前卫站584线路","pubTranName":"10kVB1544.B1545配电室B1544配电变压器,10kVB1020.B1021箱式变电站B1020配电变压器,10kVC486.C487配电室C487配电变压器,10kVB1544.B1545配电室B1545配电变压器,10kVB1372.B1373箱式变电站B1372配电变压器,10kVB1025.B1026箱式变电站B1025配电变压器,10kVB1027.B1028箱式变电站B1027配电变压器,10kVC444.C445配电室C444配电变压器,10kVB1027.B1028箱式变电站B1028配电变压器,10kVC444.C445配电室C445配电变压器,10kVB159.B506箱式变电站B506配电变压器,10kVB813.B814箱式变电站B814配电变压器,10kVC486.C487配电室C486配电变压器,10kVB1025.B1026箱式变电站B1026配电变压器,10kVB159.B506箱式变电站B159配电变压器,10kVB1020.B1021箱式变电站B1021配电变压器,10kVB1374.B1375箱式变电站B1374配电变压器,10kVB1018.B1019箱式变电站B1019配电变压器,10kVC446配电室C446配电变压器,10kVB813.B814箱式变电站B813配电变压器,10kVB1374.B1375箱式变电站B1375配电变压器,10kVB1372.B1373箱式变电站B1373配电变压器,10kVB1018.B1019箱式变电站B1018配电变压器,10kVB1548.B1549配电室B1549配电变压器,10kVB1844箱式变电站B1844配电变压器,10kVB1029.B1030箱式变电站B1029配电变压器,H0047柱上变压器,10kVB1548.B1549配电室B1548配电变压器,10kVB1029.B1030箱式变电站B1030配电变压器,","scope":"【影响街道/乡镇】北市区李庄路、复兴路、五一九路、城苑路、任庄街、瑞兴路、天鹅路 【高危重要客户】无 【影响客户】文化小区、鑫和花园、秀兰城市花园、秀兰花园、马家园小区、假日花园小区、东盛佳园、秀兰新天地、五金宿舍","startTime":"2020-06-01 17:50:41","stopDate":"2020-06-01 20:20:00","orgNo":"13406","typeCode":"电网故障停限电","poweroffArea":"【全线路停电】停10kVB1018.B1019箱式变电站B1019配电变压器,0714509859-亢龙房地产-315kVA专变,10kVB1544.B1545配电室B1544配电变压器,0356216979-马家园村-1-配电室-变压器-1,10kVB1020.B1021箱式变电站B1020配电变压器,10kVC486.C487配电室C487配电变压器,0356244569-河北省邮政公司保定市分公司-专变,10kVB1544.B1545配电室B1545配电变压器,10kVB1372.B1373箱式变电站B1372配电变压器,10kVB1025.B1026箱式变电站B1025配电变压器,10kVB1027.B1028箱式变电站B1027配电变压器,10kVC444.C445配电室C444配电变压器,10kVB1027.B1028箱式变电站B1028配电变压器,10kVC446配电室C446配电变压器,0356230885-保定金利装饰工程有限公司-专变,10kVB813.B814箱式变电站B813配电变压器,0356414070-保定市财政局-1-配电室变压器,10kVB1374.B1375箱式变电站B1375配电变压器,10kVB1372.B1373箱式变电站B1373配电变压器,0590957744-保定市路灯管理处-专变,10kVB1018.B1019箱式变电站B1018配电变压器,10kVB1548.B1549配电室B1549配电变压器,10kVB1844箱式变电站B1844配电变压器,10kVB1029.B1030箱式变电站B1029配电变压器,H0047柱上变压器,0366224661-保定市金悦正和餐饮有限公司-2#专变,0357355495-保定市北市区地方税务局-专变,10kVB1548.B1549配电室B1548配电变压器,10kVB1029.B1030箱式变电站B1030配电变压器,10kVC444.C445配电室C445配电变压器,0356333786-市政维护处路灯-1-箱式变-变压器,10kVB159.B506箱式变电站B506配电变压器,10kVB813.B814箱式变电站B814配电变压器,10kVC486.C487配电室C486配电变压器,10kVB1025.B1026箱式变电站B1026配电变压器,0580105195-亢龙房地产开发有限公司-2#专变,10kVB159.B506箱式变电站B159配电变压器,10kVB1020.B1021箱式变电站B1021配电变压器,0580105195-亢龙房地产开发有限公司-1#专变,10kVB1374.B1375箱式变电站B1374配电变压器","poweroffReason":"【停电原因】由于分支开关短路导致１０ＫＶ前卫变电站５８４线路全线停电【变更送电】因抢修进度加快，原定２１：５０送电现计划２０:２０送电【发布渠道】通过９５５９８发布","powerTime":"2020-06-01 20:03:57","powerComm":"已送电","subsNo":"","lineNo":"","tgNo":"","tgName":null,"infoStatus":"1","orgName":"保定供电公司","typeName":null,"infoStatusName":null,"dateDay":null,"orgNos":null,"nowTime":null,"countyName":null,"streetName":null,"villageName":null,"roadName":null,"communityName":null,"tranName":null,"sdLineName":null,"cityCode":"13406","cityName":"保定供电公司","provinceCode":null,"stopTime":"2020-06-01 20:20:00","powerType":"全部","powerOffArea":"【全线路停电】停10kVB1018.B1019箱式变电站B1019配电变压器,0714509859-亢龙房地产-315kVA专变,10kVB1544.B1545配电室B1544配电变压器,0356216979-马家园村-1-配电室-变压器-1,10kVB1020.B1021箱式变电站B1020配电变压器,10kVC486.C487配电室C487配电变压器,0356244569-河北省邮政公司保定市分公司-专变,10kVB1544.B1545配电室B1545配电变压器,10kVB1372.B1373箱式变电站B1372配电变压器,10kVB1025.B1026箱式变电站B1025配电变压器,10kVB1027.B1028箱式变电站B1027配电变压器,10kVC444.C445配电室C444配电变压器,10kVB1027.B1028箱式变电站B1028配电变压器,10kVC446配电室C446配电变压器,0356230885-保定金利装饰工程有限公司-专变,10kVB813.B814箱式变电站B813配电变压器,0356414070-保定市财政局-1-配电室变压器,10kVB1374.B1375箱式变电站B1375配电变压器,10kVB1372.B1373箱式变电站B1373配电变压器,0590957744-保定市路灯管理处-专变,10kVB1018.B1019箱式变电站B1018配电变压器,10kVB1548.B1549配电室B1549配电变压器,10kVB1844箱式变电站B1844配电变压器,10kVB1029.B1030箱式变电站B1029配电变压器,H0047柱上变压器,0366224661-保定市金悦正和餐饮有限公司-2#专变,0357355495-保定市北市区地方税务局-专变,10kVB1548.B1549配电室B1548配电变压器,10kVB1029.B1030箱式变电站B1030配电变压器,10kVC444.C445配电室C445配电变压器,0356333786-市政维护处路灯-1-箱式变-变压器,10kVB159.B506箱式变电站B506配电变压器,10kVB813.B814箱式变电站B814配电变压器,10kVC486.C487配电室C486配电变压器,10kVB1025.B1026箱式变电站B1026配电变压器,0580105195-亢龙房地产开发有限公司-2#专变,10kVB159.B506箱式变电站B159配电变压器,10kVB1020.B1021箱式变电站B1021配电变压器,0580105195-亢龙房地产开发有限公司-1#专变,10kVB1374.B1375箱式变电站B1374配电变压器","powerOffReason":"【停电原因】由于分支开关短路导致１０ＫＶ前卫变电站５８４线路全线停电【变更送电】因抢修进度加快，原定２１：５０送电现计划２０:２０送电【发布渠道】通过９５５９８发布","powerOffId":"2020060121000206"},{"poweroffId":2020060121000100,"sgpoweroffId":null,"subsName":"","lineName":"10kV江城站522线路","pubTranName":"H0052柱上变压器,10kVB1529配电室B1529配电变压器,C479柱上变压器,C104柱上变压器,C523柱上变压器,C106柱上变压器,10kVB1530配电室B1530配电变压器,C105柱上变压器,B1709柱上变压器,H0053柱上变压器,C639柱上变压器,B925柱上变压器,","scope":"【影响街道/乡镇】新市区颉庄乡、康庄路、天威西路、 【高危重要客户】无 【影响客户】 颉庄、铝厂宿舍、天威小区","startTime":"2020-06-01 12:30:00","stopDate":"2020-06-01 14:40:00","orgNo":"13406","typeCode":"电网故障停限电","poweroffArea":"【分支停电】停 10kVB1529配电室B1529配电变压器;B925柱上变压器;H0052柱上变压器;C479柱上变压器;C104柱上变压器;C523柱上变压器;C106柱上变压器;10kVB1530配电室B1530配电变压器;C105柱上变压器;B1709柱上变压器;H0053柱上变压器;C639柱上变压器;0732218009-保定市竞秀区颉庄乡人民政府-900086057321;0356325879-长城轧钢厂-专变;0356174178-化工九厂-专变;0617149286-保定市新市区颉庄乡郝庄村村民委员会-专变-128546061-变压器;0356313960-保定市和顺粉煤灰制品有限公司-1#专变;0563066257-保定中远自动门业有限公司-专变;0544809712-保定市红光体育用品有限公司-专变;0577617511-保定市铭泰保险代理有限公司-专变;0356174165-颉庄-专变;0356179694-郝庄-专变;0356313960-保定市和顺粉煤灰制品有限公司-2#专变;0358294670-保定市和顺粉煤灰制品有限公司-专变","poweroffReason":"【停电原因】由于分支开关短路导致１０ＫＶ江城变电站５２２线路出线２０号开关以下停电【变更送电】因抢修进度加快，原定１６:３０送电现计划１４:４０送电【发布渠道】通过９５５９８发布","powerTime":"2020-06-01 14:19:25","powerComm":"已送电","subsNo":"","lineNo":"","tgNo":"","tgName":null,"infoStatus":"1","orgName":"保定供电公司","typeName":null,"infoStatusName":null,"dateDay":null,"orgNos":null,"nowTime":null,"countyName":null,"streetName":null,"villageName":null,"roadName":null,"communityName":null,"tranName":null,"sdLineName":null,"cityCode":"13406","cityName":"保定供电公司","provinceCode":null,"stopTime":"2020-06-01 14:40:00","powerType":"全部","powerOffArea":"【分支停电】停 10kVB1529配电室B1529配电变压器;B925柱上变压器;H0052柱上变压器;C479柱上变压器;C104柱上变压器;C523柱上变压器;C106柱上变压器;10kVB1530配电室B1530配电变压器;C105柱上变压器;B1709柱上变压器;H0053柱上变压器;C639柱上变压器;0732218009-保定市竞秀区颉庄乡人民政府-900086057321;0356325879-长城轧钢厂-专变;0356174178-化工九厂-专变;0617149286-保定市新市区颉庄乡郝庄村村民委员会-专变-128546061-变压器;0356313960-保定市和顺粉煤灰制品有限公司-1#专变;0563066257-保定中远自动门业有限公司-专变;0544809712-保定市红光体育用品有限公司-专变;0577617511-保定市铭泰保险代理有限公司-专变;0356174165-颉庄-专变;0356179694-郝庄-专变;0356313960-保定市和顺粉煤灰制品有限公司-2#专变;0358294670-保定市和顺粉煤灰制品有限公司-专变","powerOffReason":"【停电原因】由于分支开关短路导致１０ＫＶ江城变电站５２２线路出线２０号开关以下停电【变更送电】因抢修进度加快，原定１６:３０送电现计划１４:４０送电【发布渠道】通过９５５９８发布","powerOffId":"2020060121000100"},{"poweroffId":2020060121000098,"sgpoweroffId":null,"subsName":"","lineName":"10kV鲁岗站511线路","pubTranName":"C195柱上变压器,","scope":"【影响街道/乡镇】新市区新市场街道 【高危重要客户】无 【影响客户】中廉良村","startTime":"2020-06-01 12:00:00","stopDate":"2020-06-01 13:30:00","orgNo":"13406","typeCode":"电网故障停限电","poweroffArea":"【单台区停电】停C195柱上变压器","poweroffReason":"【停电原因】由于低压刀闸烧导致１０ＫＶ鲁岗变电站５１１线路Ｃ１９５公变台区停电【变更送电】因抢修进度加快，原定１４:３０送电现计划１３:３０送电【发布渠道】通过９５５９８发布","powerTime":"2020-06-01 13:00:50","powerComm":"已送电","subsNo":"","lineNo":"","tgNo":"","tgName":null,"infoStatus":"1","orgName":"保定供电公司","typeName":null,"infoStatusName":null,"dateDay":null,"orgNos":null,"nowTime":null,"countyName":null,"streetName":null,"villageName":null,"roadName":null,"communityName":null,"tranName":null,"sdLineName":null,"cityCode":"13406","cityName":"保定供电公司","provinceCode":null,"stopTime":"2020-06-01 13:30:00","powerType":"全部","powerOffArea":"【单台区停电】停C195柱上变压器","powerOffReason":"【停电原因】由于低压刀闸烧导致１０ＫＶ鲁岗变电站５１１线路Ｃ１９５公变台区停电【变更送电】因抢修进度加快，原定１４:３０送电现计划１３:３０送电【发布渠道】通过９５５９８发布","powerOffId":"2020060121000098"},{"poweroffId":2020060113000972,"sgpoweroffId":null,"subsName":"","lineName":"东绪口线515","pubTranName":"小团丁校边综合,八果庄村北1号,东绪口15#农业【纯农排变】,东绪口村西南综合,小团丁村西南综合,杨家务新增88号综合,小团丁村村里综合,利口村北新增综合,东绪口村北新增48综合,杨家务村南综合68,小团丁村北综合47,东绪口村西北综合,八果庄62#农业【纯农排变】,小团丁村东综合,八果庄大队4综合,东绪口村东2号综合,杨家务108号综合,杨家务3号农业,八果庄村西综合46,八果庄大队3号综合,东绪口村里综合,利口村西综合48,东绪口村北新增综合,团丁庄51#农业【纯农排变】,团丁庄村南综合,利口村南新增1号,东绪口村东新增综合,小团丁村里新增综合,东绪口村北综合,八果庄村南综合70,利口村北综合44,利口村南新增综合,小团丁村西北综合,利口村新综合,利口村东新增综合,利口村东综合49,利口村南综合45,团丁庄综合（17）,小团丁村南综合71,八果庄大队2号综合,团丁庄新增综合73,","scope":"【影响街道/乡镇】西演镇 【高危重要客户】无 【影响客户】小团丁、八果庄、团丁庄、利口（利家口）、东绪口、杨家务","startTime":"2020-06-01 23:49:00","stopDate":"2020-06-02 09:00:00","orgNo":"1340613","typeCode":"电网故障停限电","poweroffArea":"【全线路停电】停鲁宏宾,团丁庄新增综合73,八果庄拔丝厂,,邮政储蓄银行高阳县支行,杨家务西南,,八果庄村北1号,,小团丁村西南综合,高阳县国家税务局变压器,杨家务新增88号综合,小团丁校边综合,,小团丁村村里综合,,王双峰,佳宝提花织物厂,,利口村北新增综合,东绪口村北新增48综合,利口村东新增综合,杨家务村南综合68,小团丁村北综合47,李更生,,东绪口村西北综合,,泷硕公司,保定乐家纺织有限公司变压器,小团丁村东综合,八果庄大队4综合,高阳县得莹棉纱制造有限公司,东绪口村东2号综合,杨家务108号综合,杨家务3号农业,利口村东综合49,利口村南综合45,团丁庄综合（17）,小团丁村南综合71,八果庄大队2号综合,利口面粉厂,,利口村南新增1号,东绪口村东新增综合,张跃进,小团丁村里新增综合,小团丁张青松,,东绪口村北综合,高阳县双峰合线厂变压器,八果庄村南综合70,利口村北综合44,小团定(六),利口村南新增综合,西演皮厂,小团丁村西北综合,,利口村新综合,八果庄村西综合46,八果庄大队3号综合,东绪口村里综合,,利口村西综合48,鲁冬梅,东绪口村北新增综合,,贾大东,小团丁毛巾厂,华北油田，小团定(贾),团丁庄村南综合","poweroffReason":"【停电原因】由于风刮异物导致１１０ＫＶ西演变电站东绪口５１５线路全线停电【变更送电】无【发布渠道】通过９５５９８发布","powerTime":"2020-06-02 08:34:40","powerComm":"已送电","subsNo":"","lineNo":"","tgNo":"","tgName":null,"infoStatus":"1","orgName":"国网高阳县供电公司","typeName":null,"infoStatusName":null,"dateDay":null,"orgNos":null,"nowTime":null,"countyName":null,"streetName":null,"villageName":null,"roadName":null,"communityName":null,"tranName":null,"sdLineName":null,"cityCode":"1340613","cityName":"国网高阳县供电公司","provinceCode":null,"stopTime":"2020-06-02 09:00:00","powerType":"全部","powerOffArea":"【全线路停电】停鲁宏宾,团丁庄新增综合73,八果庄拔丝厂,,邮政储蓄银行高阳县支行,杨家务西南,,八果庄村北1号,,小团丁村西南综合,高阳县国家税务局变压器,杨家务新增88号综合,小团丁校边综合,,小团丁村村里综合,,王双峰,佳宝提花织物厂,,利口村北新增综合,东绪口村北新增48综合,利口村东新增综合,杨家务村南综合68,小团丁村北综合47,李更生,,东绪口村西北综合,,泷硕公司,保定乐家纺织有限公司变压器,小团丁村东综合,八果庄大队4综合,高阳县得莹棉纱制造有限公司,东绪口村东2号综合,杨家务108号综合,杨家务3号农业,利口村东综合49,利口村南综合45,团丁庄综合（17）,小团丁村南综合71,八果庄大队2号综合,利口面粉厂,,利口村南新增1号,东绪口村东新增综合,张跃进,小团丁村里新增综合,小团丁张青松,,东绪口村北综合,高阳县双峰合线厂变压器,八果庄村南综合70,利口村北综合44,小团定(六),利口村南新增综合,西演皮厂,小团丁村西北综合,,利口村新综合,八果庄村西综合46,八果庄大队3号综合,东绪口村里综合,,利口村西综合48,鲁冬梅,东绪口村北新增综合,,贾大东,小团丁毛巾厂,华北油田，小团定(贾),团丁庄村南综合","powerOffReason":"【停电原因】由于风刮异物导致１１０ＫＶ西演变电站东绪口５１５线路全线停电【变更送电】无【发布渠道】通过９５５９８发布","powerOffId":"2020060113000972"},{"poweroffId":2020060113000964,"sgpoweroffId":null,"subsName":"","lineName":"东环线573备用","pubTranName":"宋村,东芦中台,宋村3号,东芦南,东芦东,西芦5号,东芦东2,东芦西,东一环公变,宋村南,西芦村,","scope":"【影响街道/乡镇】白沟镇、东一环路、津保路 【高危重要客户】无 【影响客户】宋村、西芦村、东芦村（部分）、白沟新城规划建设局（东一环泵站）、白沟新城分局、ＣＴ工业园、苏德禄、顾翠萍、李志江","startTime":"2020-06-02 06:00:59","stopDate":"2020-06-02 18:00:00","orgNo":"1340612","typeCode":"电网故障停限电","poweroffArea":"【全线路停电】停东芦东,变压器-029,西芦5号,河北正威混凝土贸易有限公司,东芦西,污水处理厂变压器,白沟新城规划建设局路灯CT工业园,0608045117-白沟新城规划建设局(东一环路灯1)-专变-127457120-变压器,变压器-030,兴宝华,东一环公变,宋村南,保定互赢物业服务有限责任公司,许国栋,李志江变压器,东芦东2,西芦村,保定富地房地产开发有限公司,0387444552-保定鼎创箱包材料制造有限公司-专变-216168873-变压器630,变压器100,河北宾乐皮具制造有限公司变压器,变压器200,变压器-028,保定白沟宝华箱包制造有限公司变压器,白沟新城规划建设局津保路1号路灯,郎连峰,宋村,张艳刚,群山皮具变压器,东芦中台,宋村3号,保定君厚箱包配件制造有限公司变压器,保定白沟新城互信居民服务部变压器,东芦南,白沟诚兴箱包变压器,0550557867-顾翠萍-专变-48976870-顾翠萍变压器","poweroffReason":"【停电原因】由于弓子线烧导致１１０ＫＶ南留变电站１０ＫＶ东环５７３线路全线停电 【变更送电】无 【发布渠道】通过９５５９８发布","powerTime":"2020-06-02 17:50:06","powerComm":"已送电","subsNo":"","lineNo":"","tgNo":"","tgName":null,"infoStatus":"1","orgName":"国网高碑店市供电公司","typeName":null,"infoStatusName":null,"dateDay":null,"orgNos":null,"nowTime":null,"countyName":null,"streetName":null,"villageName":null,"roadName":null,"communityName":null,"tranName":null,"sdLineName":null,"cityCode":"1340612","cityName":"国网高碑店市供电公司","provinceCode":null,"stopTime":"2020-06-02 18:00:00","powerType":"全部","powerOffArea":"【全线路停电】停东芦东,变压器-029,西芦5号,河北正威混凝土贸易有限公司,东芦西,污水处理厂变压器,白沟新城规划建设局路灯CT工业园,0608045117-白沟新城规划建设局(东一环路灯1)-专变-127457120-变压器,变压器-030,兴宝华,东一环公变,宋村南,保定互赢物业服务有限责任公司,许国栋,李志江变压器,东芦东2,西芦村,保定富地房地产开发有限公司,0387444552-保定鼎创箱包材料制造有限公司-专变-216168873-变压器630,变压器100,河北宾乐皮具制造有限公司变压器,变压器200,变压器-028,保定白沟宝华箱包制造有限公司变压器,白沟新城规划建设局津保路1号路灯,郎连峰,宋村,张艳刚,群山皮具变压器,东芦中台,宋村3号,保定君厚箱包配件制造有限公司变压器,保定白沟新城互信居民服务部变压器,东芦南,白沟诚兴箱包变压器,0550557867-顾翠萍-专变-48976870-顾翠萍变压器","powerOffReason":"【停电原因】由于弓子线烧导致１１０ＫＶ南留变电站１０ＫＶ东环５７３线路全线停电 【变更送电】无 【发布渠道】通过９５５９８发布","powerOffId":"2020060113000964"}],"pageModel":{"pageNow":22,"totalCount":10973,"totalPage":1098,"tableRows":0,"pageCount":10,"beginCount":210},"isExperi":"1"}