{"message":"","today":"2020-06-15","seleList":[{"poweroffId":2019111913000118,"sgpoweroffId":null,"subsName":"","lineName":"10kV泗庄线515","pubTranName":"六里街变压器,","scope":"【影响街道/乡镇】泗庄镇 【高危重要客户】无 【影响客户】六里街村","startTime":"2019-11-20 06:00:00","stopDate":"2019-11-20 09:00:00","orgNo":"1340612","typeCode":"其他临时停电","poweroffArea":"【单台区停电】停六里街变压器","poweroffReason":"【停电原因】由于弓子线打火需紧急处理导致３５ＫＶ泗庄变电站１０ＫＶ泗庄５１５线路六里街公变台区停电 【变更送电】无 【发布渠道】通过９５５９８发布","powerTime":"2019-11-20 08:51:27","powerComm":"已送电","subsNo":"","lineNo":"","tgNo":"","tgName":null,"infoStatus":"1","orgName":"国网高碑店市供电公司","typeName":null,"infoStatusName":null,"dateDay":null,"orgNos":null,"nowTime":null,"countyName":null,"streetName":null,"villageName":null,"roadName":null,"communityName":null,"tranName":null,"sdLineName":null,"cityCode":"1340612","cityName":"国网高碑店市供电公司","provinceCode":null,"stopTime":"2019-11-20 09:00:00","powerType":"全部","powerOffArea":"【单台区停电】停六里街变压器","powerOffReason":"【停电原因】由于弓子线打火需紧急处理导致３５ＫＶ泗庄变电站１０ＫＶ泗庄５１５线路六里街公变台区停电 【变更送电】无 【发布渠道】通过９５５９８发布","powerOffId":"2019111913000118"},{"poweroffId":2019111913000116,"sgpoweroffId":null,"subsName":"","lineName":"10kV东文山517","pubTranName":"淮河村西南变压器,","scope":"【影响街道/乡镇】东文山乡 【高危重要客户】无 【影响客户】淮河村","startTime":"2019-11-19 14:00:00","stopDate":"2019-11-19 15:30:00","orgNo":"1340614","typeCode":"其他临时停电","poweroffArea":"【单台区停电】停淮河村西南变压器","poweroffReason":"【停电原因】由于线夹打火需停电进行紧急消缺，导致１１０ＫＶ涞水变电站１０ＫＶ东文山５１７线路淮河村西南公变台区停电 【变更送电】无 【发布渠道】通过９５５９８发布","powerTime":"2019-11-19 15:20:13","powerComm":"已送电","subsNo":"","lineNo":"","tgNo":"","tgName":null,"infoStatus":"1","orgName":"国网涞水县供电公司","typeName":null,"infoStatusName":null,"dateDay":null,"orgNos":null,"nowTime":null,"countyName":null,"streetName":null,"villageName":null,"roadName":null,"communityName":null,"tranName":null,"sdLineName":null,"cityCode":"1340614","cityName":"国网涞水县供电公司","provinceCode":null,"stopTime":"2019-11-19 15:30:00","powerType":"全部","powerOffArea":"【单台区停电】停淮河村西南变压器","powerOffReason":"【停电原因】由于线夹打火需停电进行紧急消缺，导致１１０ＫＶ涞水变电站１０ＫＶ东文山５１７线路淮河村西南公变台区停电 【变更送电】无 【发布渠道】通过９５５９８发布","powerOffId":"2019111913000116"},{"poweroffId":2019111913000115,"sgpoweroffId":null,"subsName":"","lineName":"10kV泗庄线515","pubTranName":"高庄南变压器,","scope":"【影响街道/乡镇】泗庄镇 【高危重要客户】无 【影响客户】高庄村","startTime":"2019-11-20 06:00:00","stopDate":"2019-11-20 09:00:00","orgNo":"1340612","typeCode":"其他临时停电","poweroffArea":"【单台区停电】停高庄南变压器","poweroffReason":"【停电原因】由于弓子线打火需紧急处理导致３５ＫＶ泗庄变电站１０ＫＶ泗庄５１５线路高庄南公变台区停电 【变更送电】无 【发布渠道】通过９５５９８发布","powerTime":"2019-11-20 08:51:59","powerComm":"已送电","subsNo":"","lineNo":"","tgNo":"","tgName":null,"infoStatus":"1","orgName":"国网高碑店市供电公司","typeName":null,"infoStatusName":null,"dateDay":null,"orgNos":null,"nowTime":null,"countyName":null,"streetName":null,"villageName":null,"roadName":null,"communityName":null,"tranName":null,"sdLineName":null,"cityCode":"1340612","cityName":"国网高碑店市供电公司","provinceCode":null,"stopTime":"2019-11-20 09:00:00","powerType":"全部","powerOffArea":"【单台区停电】停高庄南变压器","powerOffReason":"【停电原因】由于弓子线打火需紧急处理导致３５ＫＶ泗庄变电站１０ＫＶ泗庄５１５线路高庄南公变台区停电 【变更送电】无 【发布渠道】通过９５５９８发布","powerOffId":"2019111913000115"},{"poweroffId":2019111913000113,"sgpoweroffId":null,"subsName":"","lineName":"10kV泗庄线515","pubTranName":"田庄西2柱上变压器,","scope":"【影响街道/乡镇】泗庄镇 【高危重要客户】无 【影响客户】田庄村","startTime":"2019-11-20 06:00:00","stopDate":"2019-11-20 09:00:00","orgNo":"1340612","typeCode":"其他临时停电","poweroffArea":"【单台区停电】停田庄西2柱上变压器","poweroffReason":"【停电原因】由于弓子线打火需紧急处理导致３５ＫＶ泗庄变电站１０ＫＶ泗庄５１５线路田庄西２柱上公变台区停电 【变更送电】无 【发布渠道】通过９５５９８发布","powerTime":"2019-11-20 08:50:42","powerComm":"已送电","subsNo":"","lineNo":"","tgNo":"","tgName":null,"infoStatus":"1","orgName":"国网高碑店市供电公司","typeName":null,"infoStatusName":null,"dateDay":null,"orgNos":null,"nowTime":null,"countyName":null,"streetName":null,"villageName":null,"roadName":null,"communityName":null,"tranName":null,"sdLineName":null,"cityCode":"1340612","cityName":"国网高碑店市供电公司","provinceCode":null,"stopTime":"2019-11-20 09:00:00","powerType":"全部","powerOffArea":"【单台区停电】停田庄西2柱上变压器","powerOffReason":"【停电原因】由于弓子线打火需紧急处理导致３５ＫＶ泗庄变电站１０ＫＶ泗庄５１５线路田庄西２柱上公变台区停电 【变更送电】无 【发布渠道】通过９５５９８发布","powerOffId":"2019111913000113"},{"poweroffId":2019111913000107,"sgpoweroffId":null,"subsName":"","lineName":"10KV大团柳511","pubTranName":"丁庄东南5365,","scope":"【影响街道/乡镇】东城坊镇 【高危重要客户】无 【影响客户】丁庄","startTime":"2019-11-19 12:45:34","stopDate":"2019-11-19 14:30:00","orgNo":"1340626","typeCode":"电网故障停限电","poweroffArea":"【单台区停电】停丁庄东南5365","poweroffReason":"【停电原因】由于低压空开烧毁导致３５ＫＶ劳动学院变电站１０ＫＶ大团柳５１１线路丁庄东南５３６５公变台区停电 【变更送电】因抢修进度加快原因，送电时间由２０：００变更为１４：３０ 【发布渠道】通过９５５９８发布","powerTime":"2019-11-19 14:08:04","powerComm":"已送电","subsNo":"","lineNo":"","tgNo":"","tgName":null,"infoStatus":"1","orgName":"国网涿州市供电公司","typeName":null,"infoStatusName":null,"dateDay":null,"orgNos":null,"nowTime":null,"countyName":null,"streetName":null,"villageName":null,"roadName":null,"communityName":null,"tranName":null,"sdLineName":null,"cityCode":"1340626","cityName":"国网涿州市供电公司","provinceCode":null,"stopTime":"2019-11-19 14:30:00","powerType":"全部","powerOffArea":"【单台区停电】停丁庄东南5365","powerOffReason":"【停电原因】由于低压空开烧毁导致３５ＫＶ劳动学院变电站１０ＫＶ大团柳５１１线路丁庄东南５３６５公变台区停电 【变更送电】因抢修进度加快原因，送电时间由２０：００变更为１４：３０ 【发布渠道】通过９５５９８发布","powerOffId":"2019111913000107"},{"poweroffId":2019111913000105,"sgpoweroffId":null,"subsName":"","lineName":"金台南583","pubTranName":"厂东关村7#,靖远北大街5#,泰元北大街4#,金台路2#,金台路4#,靖远北大街1#,金台路6#,养路工区,厂东关村1#,泰元北大街3#,金台路12#,厂东关村9#,金台路8#,靖远北大街4#,金台路10#,厂东关12#,泰元北大街6#,靖远北大街3#,电力局充电桩配电变压器,厂东关村3#,靖远北大街2#,厂东关村2#,泰元北大街5#,","scope":"【影响街道/乡镇】城管处、泰元北大街、金台路、靖远北大街 【高危重要客户】无 【影响客户】厂东关村","startTime":"2019-11-19 12:25:59","stopDate":"2019-11-19 14:30:00","orgNo":"1340625","typeCode":"电网故障停限电","poweroffArea":"【全线路停电】停厂东关村1#,泰元北大街5#,养路工区,厂东关村7#,靖远北大街5#,泰元北大街4#,金台路2#,金台路4#,易县易水医院变压器,靖远北大街1#,金台路6#,泰元北大街3#,河北兰姆大叔食品科技有限公司200,金台路12#,厂东关村9#,易县一千零一夜商务酒店有限公司,靖远北大街4#,易县海铭湾洗浴服务部250,金台路10#,河北易县医院,厂东关12#,泰元北大街6#,靖远北大街3#,电力局充电桩配电变压器,厂东关村3#,百益城,景安物业增容1号-1000KVA,和平小区(于占河),靖远北大街2#,0586857887-易县景安物业服务有限公司-专变-125162662-易县景安物业服务有限公司变压器,厂东关村2#,河北景安房地产开发有限公司800KVA-易县520线,燕都名苑小区,金台路8#,景安物业增容2号-1000KVA","poweroffReason":"【停电原因】由于环网柜保险烧毁导致１１０ＫＶ店北变电站金台南５８３线路全线停电【变更送电】因抢修进度加快原因，送电时间由１８：００变更为１４：３０【发布渠道】通过９５５９８发布","powerTime":"2019-11-19 14:10:24","powerComm":"已送电","subsNo":"","lineNo":"","tgNo":"","tgName":null,"infoStatus":"1","orgName":"国网易县供电公司","typeName":null,"infoStatusName":null,"dateDay":null,"orgNos":null,"nowTime":null,"countyName":null,"streetName":null,"villageName":null,"roadName":null,"communityName":null,"tranName":null,"sdLineName":null,"cityCode":"1340625","cityName":"国网易县供电公司","provinceCode":null,"stopTime":"2019-11-19 14:30:00","powerType":"全部","powerOffArea":"【全线路停电】停厂东关村1#,泰元北大街5#,养路工区,厂东关村7#,靖远北大街5#,泰元北大街4#,金台路2#,金台路4#,易县易水医院变压器,靖远北大街1#,金台路6#,泰元北大街3#,河北兰姆大叔食品科技有限公司200,金台路12#,厂东关村9#,易县一千零一夜商务酒店有限公司,靖远北大街4#,易县海铭湾洗浴服务部250,金台路10#,河北易县医院,厂东关12#,泰元北大街6#,靖远北大街3#,电力局充电桩配电变压器,厂东关村3#,百益城,景安物业增容1号-1000KVA,和平小区(于占河),靖远北大街2#,0586857887-易县景安物业服务有限公司-专变-125162662-易县景安物业服务有限公司变压器,厂东关村2#,河北景安房地产开发有限公司800KVA-易县520线,燕都名苑小区,金台路8#,景安物业增容2号-1000KVA","powerOffReason":"【停电原因】由于环网柜保险烧毁导致１１０ＫＶ店北变电站金台南５８３线路全线停电【变更送电】因抢修进度加快原因，送电时间由１８：００变更为１４：３０【发布渠道】通过９５５９８发布","powerOffId":"2019111913000105"},{"poweroffId":2019111913000054,"sgpoweroffId":null,"subsName":"","lineName":"10kV551东疃线","pubTranName":"塔宣村公用照明11台区,塔宣村公用照明9台区,","scope":"【影响街道/乡镇】开元镇【高危重要客户】无【影响客户】塔宣村","startTime":"2019-11-19 12:00:00","stopDate":"2019-11-19 16:30:00","orgNo":"1340610","typeCode":"其他临时停电","poweroffArea":"【分支停电】停塔宣村公用照明11台区,塔宣村公用照明9台区","poweroffReason":"【停电原因】由于电杆倾斜需停电进行紧急检修导致１１０ＫＶ新民变电站１０ＫＶ５５１东疃线路主干２３号杆０６号隔离开关以下线路停电 【变更送电】无 【发布渠道】９５５９８","powerTime":"2019-11-19 16:14:38","powerComm":"已送电","subsNo":"","lineNo":"","tgNo":"","tgName":null,"infoStatus":"1","orgName":"国网定州市供电公司","typeName":null,"infoStatusName":null,"dateDay":null,"orgNos":null,"nowTime":null,"countyName":null,"streetName":null,"villageName":null,"roadName":null,"communityName":null,"tranName":null,"sdLineName":null,"cityCode":"1340610","cityName":"国网定州市供电公司","provinceCode":null,"stopTime":"2019-11-19 16:30:00","powerType":"全部","powerOffArea":"【分支停电】停塔宣村公用照明11台区,塔宣村公用照明9台区","powerOffReason":"【停电原因】由于电杆倾斜需停电进行紧急检修导致１１０ＫＶ新民变电站１０ＫＶ５５１东疃线路主干２３号杆０６号隔离开关以下线路停电 【变更送电】无 【发布渠道】９５５９８","powerOffId":"2019111913000054"},{"poweroffId":2019111913000010,"sgpoweroffId":null,"subsName":"","lineName":"10KV石屯574","pubTranName":"石屯村西北4743,","scope":"【影响街道/乡镇】豆庄乡 【高危重要客户】无 【影响客户】石屯村","startTime":"2019-11-19 08:00:00","stopDate":"2019-11-19 12:00:00","orgNo":"1340626","typeCode":"电网故障停限电","poweroffArea":"【单台区停电】停石屯村西北4743","poweroffReason":"【停电原因】由于低压出线电缆烧毁导致２２０ＫＶ豆庄变电站１０ＫＶ石屯５７４线路石屯村西北４７４３公变台区停电 【变更送电】因抢修进度加快原因，送电时间由１３：００变更为１２：００ 【发布渠道】通过９５５９８发布","powerTime":"2019-11-19 11:31:03","powerComm":"已送电","subsNo":"","lineNo":"","tgNo":"","tgName":null,"infoStatus":"1","orgName":"国网涿州市供电公司","typeName":null,"infoStatusName":null,"dateDay":null,"orgNos":null,"nowTime":null,"countyName":null,"streetName":null,"villageName":null,"roadName":null,"communityName":null,"tranName":null,"sdLineName":null,"cityCode":"1340626","cityName":"国网涿州市供电公司","provinceCode":null,"stopTime":"2019-11-19 12:00:00","powerType":"全部","powerOffArea":"【单台区停电】停石屯村西北4743","powerOffReason":"【停电原因】由于低压出线电缆烧毁导致２２０ＫＶ豆庄变电站１０ＫＶ石屯５７４线路石屯村西北４７４３公变台区停电 【变更送电】因抢修进度加快原因，送电时间由１３：００变更为１２：００ 【发布渠道】通过９５５９８发布","powerOffId":"2019111913000010"},{"poweroffId":2019111821000082,"sgpoweroffId":null,"subsName":"","lineName":"10kV韩村站517线路","pubTranName":"C587,C072柱上变压器,C586,C589,C588,C564,","scope":"【影响街道/乡镇】北市区、瑞祥大街、韩庄乡 【高危重要客户】无 【影响客户】北八里庄、风帆家园、金苑小区、诚信房地产、光阳电子、农药厂、","startTime":"2019-11-18 14:15:00","stopDate":"2019-11-18 19:00:00","orgNo":"13406","typeCode":"电网故障停限电","poweroffArea":"【分支停电】停C587,C072柱上变压器,C586,C589,C588,C564","poweroffReason":"【停电原因】由于低压电缆断导致１０ＫＶ韩村变电站５１７线路ＨＫ－０１环网柜５号开关以下停电【变更送电】无【发布渠道】通过９５５９８发布","powerTime":"2019-11-18 18:07:30","powerComm":"已送电","subsNo":"","lineNo":"","tgNo":"","tgName":null,"infoStatus":"1","orgName":"保定供电公司","typeName":null,"infoStatusName":null,"dateDay":null,"orgNos":null,"nowTime":null,"countyName":null,"streetName":null,"villageName":null,"roadName":null,"communityName":null,"tranName":null,"sdLineName":null,"cityCode":"13406","cityName":"保定供电公司","provinceCode":null,"stopTime":"2019-11-18 19:00:00","powerType":"全部","powerOffArea":"【分支停电】停C587,C072柱上变压器,C586,C589,C588,C564","powerOffReason":"【停电原因】由于低压电缆断导致１０ＫＶ韩村变电站５１７线路ＨＫ－０１环网柜５号开关以下停电【变更送电】无【发布渠道】通过９５５９８发布","powerOffId":"2019111821000082"},{"poweroffId":2019111821000074,"sgpoweroffId":null,"subsName":"","lineName":"10kV水源站526线路","pubTranName":"C635柱上变压器,C397柱上变压器,C399柱上变压器,C244柱上变压器,C398柱上变压器,C246柱上变压器,C167柱上变压器,C245柱上变压器,","scope":"【影响街道/乡镇】新市区、要庄乡、育才街 【高危重要客户】无 【影响客户】要庄村、贾庄村、造纸厂","startTime":"2019-11-18 15:30:00","stopDate":"2019-11-18 18:00:00","orgNo":"13406","typeCode":"电网故障停限电","poweroffArea":"【分支停电】停C245柱上变压器,C635柱上变压器,C397柱上变压器,C399柱上变压器,C244柱上变压器,C398柱上变压器,C246柱上变压器,C167柱上变压器","poweroffReason":"【停电原因】由于分支开关短路导致１０ＫＶ水源变电站５２６线路６８号开关以下停电【变更送电】无【发布渠道】通过９５５９８发布","powerTime":"2019-11-18 17:09:14","powerComm":"已送电","subsNo":"","lineNo":"","tgNo":"","tgName":null,"infoStatus":"1","orgName":"保定供电公司","typeName":null,"infoStatusName":null,"dateDay":null,"orgNos":null,"nowTime":null,"countyName":null,"streetName":null,"villageName":null,"roadName":null,"communityName":null,"tranName":null,"sdLineName":null,"cityCode":"13406","cityName":"保定供电公司","provinceCode":null,"stopTime":"2019-11-18 18:00:00","powerType":"全部","powerOffArea":"【分支停电】停C245柱上变压器,C635柱上变压器,C397柱上变压器,C399柱上变压器,C244柱上变压器,C398柱上变压器,C246柱上变压器,C167柱上变压器","powerOffReason":"【停电原因】由于分支开关短路导致１０ＫＶ水源变电站５２６线路６８号开关以下停电【变更送电】无【发布渠道】通过９５５９８发布","powerOffId":"2019111821000074"}],"pageModel":{"pageNow":369,"totalCount":10973,"totalPage":1098,"tableRows":0,"pageCount":10,"beginCount":3680},"isExperi":"1"}