{"message":"","today":"2020-06-15","seleList":[{"poweroffId":2019111813000081,"sgpoweroffId":null,"subsName":"","lineName":"阳元街518","pubTranName":"路家庄村1#,阳元街直供2#,阳元南街2#,南环小区直供1#,南环小区2#,友谊路2#,南关村1#,城关医院直供,阳元街直供1#,鑫苑小区,路家庄5#,阳元南街直供1#,平安家园1,阳元街直供3#,南环路3#,","scope":"【影响街道/乡镇】城管处、友谊路、阳元北大街、易兴路、西环路、朝阳路、南环路【高危重要客户】无【影响客户】路家庄村、金色家园小区、平安家园小区、南环小区、鑫苑小区","startTime":"2019-11-18 09:21:46","stopDate":"2019-11-18 11:00:00","orgNo":"1340625","typeCode":"电网故障停限电","poweroffArea":"【全线路停电】停城关医院直供,鑫苑小区,阳元南街2#,阳元街直供2#,平安家园1,路家庄5#,南关村1#,南环路3#,南环小区直供1#,南环小区2#,阳元南街直供1#,友谊路2#,路家庄村1#,阳元街直供3#,阳元街直供1#","poweroffReason":"【停电原因】由于速断跳闸导致３５ＫＶ易水变电站阳元街５１８线路全线停电【变更送电】因抢修进度加快原因,送电时间由１８：００变更为１１：００【发布渠道】通过９５５９８发布","powerTime":"2019-11-18 10:33:13","powerComm":"已送电","subsNo":"","lineNo":"","tgNo":"","tgName":null,"infoStatus":"1","orgName":"国网易县供电公司","typeName":null,"infoStatusName":null,"dateDay":null,"orgNos":null,"nowTime":null,"countyName":null,"streetName":null,"villageName":null,"roadName":null,"communityName":null,"tranName":null,"sdLineName":null,"cityCode":"1340625","cityName":"国网易县供电公司","provinceCode":null,"stopTime":"2019-11-18 11:00:00","powerType":"全部","powerOffArea":"【全线路停电】停城关医院直供,鑫苑小区,阳元南街2#,阳元街直供2#,平安家园1,路家庄5#,南关村1#,南环路3#,南环小区直供1#,南环小区2#,阳元南街直供1#,友谊路2#,路家庄村1#,阳元街直供3#,阳元街直供1#","powerOffReason":"【停电原因】由于速断跳闸导致３５ＫＶ易水变电站阳元街５１８线路全线停电【变更送电】因抢修进度加快原因,送电时间由１８：００变更为１１：００【发布渠道】通过９５５９８发布","powerOffId":"2019111813000081"},{"poweroffId":2019111813000031,"sgpoweroffId":null,"subsName":"","lineName":"10kV514王庄子线","pubTranName":"粮局家属院公用照明 1台区,物资局家属院公用照明1台区,董庄子公用照明2台区,小町家属院公用照明1台区,夏庄子公用照明1台区,夏庄子公用照明2台区,王庄子公用照明1台区,王庄子公用照明2台区,董庄子公用照明1台区,夏庄子公用照明3台区,王庄子公用照明3台区,健身家属院公用照明1台区,小铁路楼房院公用照明1台区,杨庄子五队公用照明1台区,夏庄子公用照明4台区,小铁路平房院公用照明1台区,建华家属院公用照明2台区,玻璃珠家属院公用照明1台区,建华家属院公用照明1台区,王庄子公用照明4台区,冷冻厂家属院公用照明1台区,","scope":"【影响街道/乡镇】西城区【高危重要客户】无【影响客户】董庄子、夏庄子、王庄子、杨庄子五队、健身家属院、冷冻厂家属院、小町家属院、物资局家属院、玻璃珠家属院、粮局家属院、建华家属院、小铁路平房家属院、小铁路楼房家属院、中天新郡小区、天润佳苑小区、东旭化工厂、红光锻造家属院、定州卫校、嘉宝天同有限公司、保定红宇健身有限公司、丰源肉食","startTime":"2019-11-18 05:09:30","stopDate":"2019-11-18 08:00:00","orgNo":"1340610","typeCode":"电网故障停限电","poweroffArea":"【全线路停电】停董庄子公用照明1台区,王庄子公用照明1台区,董庄子公用照明2台区,小町家属院公用照明1台区,夏庄子公用照明1台区,夏庄子公用照明2台区,王庄子公用照明2台区,冷冻厂家属院公用照明1台区,王庄子公用照明4台区,夏庄子公用照明3台区,粮局家属院公用照明 1台区,建华家属院公用照明1台区,物资局家属院公用照明1台区,王庄子公用照明3台区,健身家属院公用照明1台区,小铁路楼房院公用照明1台区,杨庄子五队公用照明1台区,夏庄子公用照明4台区,小铁路平房院公用照明1台区,建华家属院公用照明2台区,玻璃珠家属院公用照明1台区","poweroffReason":"【停电原因】由于夏庄子街内１分支０４号杆低压导线搭高压导线导致１１０ＫＶ客车厂变电站１０ＫＶ５１４王庄子线路全线停电 【变更送电】因抢修进度加快原因，送电时间由１８：００变更为０８：００ 【发布渠道】９５５９８","powerTime":"2019-11-18 07:41:54","powerComm":"已送电","subsNo":"","lineNo":"","tgNo":"","tgName":null,"infoStatus":"1","orgName":"国网定州市供电公司","typeName":null,"infoStatusName":null,"dateDay":null,"orgNos":null,"nowTime":null,"countyName":null,"streetName":null,"villageName":null,"roadName":null,"communityName":null,"tranName":null,"sdLineName":null,"cityCode":"1340610","cityName":"国网定州市供电公司","provinceCode":null,"stopTime":"2019-11-18 08:00:00","powerType":"全部","powerOffArea":"【全线路停电】停董庄子公用照明1台区,王庄子公用照明1台区,董庄子公用照明2台区,小町家属院公用照明1台区,夏庄子公用照明1台区,夏庄子公用照明2台区,王庄子公用照明2台区,冷冻厂家属院公用照明1台区,王庄子公用照明4台区,夏庄子公用照明3台区,粮局家属院公用照明 1台区,建华家属院公用照明1台区,物资局家属院公用照明1台区,王庄子公用照明3台区,健身家属院公用照明1台区,小铁路楼房院公用照明1台区,杨庄子五队公用照明1台区,夏庄子公用照明4台区,小铁路平房院公用照明1台区,建华家属院公用照明2台区,玻璃珠家属院公用照明1台区","powerOffReason":"【停电原因】由于夏庄子街内１分支０４号杆低压导线搭高压导线导致１１０ＫＶ客车厂变电站１０ＫＶ５１４王庄子线路全线停电 【变更送电】因抢修进度加快原因，送电时间由１８：００变更为０８：００ 【发布渠道】９５５９８","powerOffId":"2019111813000031"},{"poweroffId":2019111713000387,"sgpoweroffId":null,"subsName":"","lineName":"城西线516","pubTranName":"西阳邱混2,","scope":"【影响街道/乡镇】黑堡乡　 【高危重要客户】无　　 【影响客户】西阳邱村","startTime":"2019-11-17 21:16:38","stopDate":"2019-11-18 08:30:00","orgNo":"1340623","typeCode":"电网故障停限电","poweroffArea":"【单台区停电】停西阳邱混2","poweroffReason":"【停电原因】由于低压刀闸烧导致１１０ＫＶ西堤变电站城西线５１６线路西阳邱混２公变台区停电 【变更送电】因抢修进度加快原因，送电时间由１０：００变更为０８：３０ 【发布渠道】通过９５５９８发布","powerTime":"2019-11-18 07:56:19","powerComm":"已送电","subsNo":"","lineNo":"","tgNo":"","tgName":null,"infoStatus":"1","orgName":"国网望都县供电公司","typeName":null,"infoStatusName":null,"dateDay":null,"orgNos":null,"nowTime":null,"countyName":null,"streetName":null,"villageName":null,"roadName":null,"communityName":null,"tranName":null,"sdLineName":null,"cityCode":"1340623","cityName":"国网望都县供电公司","provinceCode":null,"stopTime":"2019-11-18 08:30:00","powerType":"全部","powerOffArea":"【单台区停电】停西阳邱混2","powerOffReason":"【停电原因】由于低压刀闸烧导致１１０ＫＶ西堤变电站城西线５１６线路西阳邱混２公变台区停电 【变更送电】因抢修进度加快原因，送电时间由１０：００变更为０８：３０ 【发布渠道】通过９５５９８发布","powerOffId":"2019111713000387"},{"poweroffId":2019111713000380,"sgpoweroffId":null,"subsName":"","lineName":"10kV贾辛庄线547","pubTranName":"1马庄内2,1马庄内5,1东于庄内3,马庄幼儿园,1马庄内4,1马庄内8,1西于庄内8,1东于庄内2,1马庄内6,1马庄内1,1西于庄内4,西于庄小学分校,1西于庄内2,1马庄内3,1西于庄内5,1马庄内7,1西于庄内1,西于庄小学,1西于庄内3,1西于庄内7,1东于庄内1,1西于庄内6,","scope":"【影响街道/乡镇】望亭乡 【高危重要客户】无 【影响客户】马庄、东于庄、西于庄","startTime":"2019-11-17 21:01:13","stopDate":"2019-11-17 23:20:00","orgNo":"1340618","typeCode":"电网故障停限电","poweroffArea":"【全线路停电】停1马庄内2,1马庄内5,1东于庄内3,马庄幼儿园,1马庄内4,1马庄内8,2东于庄外2【纯农排变】,保定全乐动物饲料制造有限公司01,马庄电信局,1西于庄内8,清苑县兴旺粮食购销有限责任公司,2马庄外1【纯农排变】,2西于庄外4【纯农排变】,1东于庄内2,1马庄内6,2西于庄外6【纯农排变】,2闸板口外9【纯农排变】,1马庄内1,2西于庄外8【纯农排变】,0387487731-西于庄西南-专变-45313615-西于庄西南2号,1西于庄内4,2西于庄外7【纯农排变】,1马庄内7,1西于庄内1,清苑县众旺养殖场01,俊青养殖厂,西于庄小学,1西于庄内3,2马庄外2【纯农排变】,保定市清苑区良苑奶牛养殖场,1西于庄内7,1东于庄内1,1西于庄内6,2孟庄外4【纯农排变】,西于庄小学分校,闸板口砖厂(小),1西于庄内2,清苑县众旺养殖场,保定全乐动物饲料制造有限公司,2马庄外3【纯农排变】,1马庄内3,2马庄外5【纯农排变】,1西于庄内5,2马庄外4【纯农排变】,马庄蛋托厂,2西于庄外5【纯农排变】,清苑县鑫兴奶牛养殖场,2东于庄外3【纯农排变】,良苑奶牛合作社养殖小区,2马庄外6【纯农排变】,2西于庄外9【纯农排变】","poweroffReason":"【停电原因】由于主干３４号杆北Ｔ１２号杆西Ｔ２号杆马庄蛋托厂跌落保险上引线搭一起导致１１０ＫＶ臧村变电站１０ＫＶ贾辛庄线５４７线路全线停电 【变更送电】因抢修进度加快原因，送电时间由１８日０２：００变更为１７日２３：２０ 【发布渠道】通过９５５９８发布","powerTime":"2019-11-17 22:56:05","powerComm":"陈云涛通知已送电","subsNo":"","lineNo":"","tgNo":"","tgName":null,"infoStatus":"1","orgName":"国网清苑县供电公司","typeName":null,"infoStatusName":null,"dateDay":null,"orgNos":null,"nowTime":null,"countyName":null,"streetName":null,"villageName":null,"roadName":null,"communityName":null,"tranName":null,"sdLineName":null,"cityCode":"1340618","cityName":"国网清苑县供电公司","provinceCode":null,"stopTime":"2019-11-17 23:20:00","powerType":"全部","powerOffArea":"【全线路停电】停1马庄内2,1马庄内5,1东于庄内3,马庄幼儿园,1马庄内4,1马庄内8,2东于庄外2【纯农排变】,保定全乐动物饲料制造有限公司01,马庄电信局,1西于庄内8,清苑县兴旺粮食购销有限责任公司,2马庄外1【纯农排变】,2西于庄外4【纯农排变】,1东于庄内2,1马庄内6,2西于庄外6【纯农排变】,2闸板口外9【纯农排变】,1马庄内1,2西于庄外8【纯农排变】,0387487731-西于庄西南-专变-45313615-西于庄西南2号,1西于庄内4,2西于庄外7【纯农排变】,1马庄内7,1西于庄内1,清苑县众旺养殖场01,俊青养殖厂,西于庄小学,1西于庄内3,2马庄外2【纯农排变】,保定市清苑区良苑奶牛养殖场,1西于庄内7,1东于庄内1,1西于庄内6,2孟庄外4【纯农排变】,西于庄小学分校,闸板口砖厂(小),1西于庄内2,清苑县众旺养殖场,保定全乐动物饲料制造有限公司,2马庄外3【纯农排变】,1马庄内3,2马庄外5【纯农排变】,1西于庄内5,2马庄外4【纯农排变】,马庄蛋托厂,2西于庄外5【纯农排变】,清苑县鑫兴奶牛养殖场,2东于庄外3【纯农排变】,良苑奶牛合作社养殖小区,2马庄外6【纯农排变】,2西于庄外9【纯农排变】","powerOffReason":"【停电原因】由于主干３４号杆北Ｔ１２号杆西Ｔ２号杆马庄蛋托厂跌落保险上引线搭一起导致１１０ＫＶ臧村变电站１０ＫＶ贾辛庄线５４７线路全线停电 【变更送电】因抢修进度加快原因，送电时间由１８日０２：００变更为１７日２３：２０ 【发布渠道】通过９５５９８发布","powerOffId":"2019111713000380"},{"poweroffId":2019111713000371,"sgpoweroffId":null,"subsName":"","lineName":"黄庄II线535","pubTranName":"许庄内西北,井泉内东2号,十五里铺内中配变,十五里铺村内西北,许庄东北2号,许庄内东南,井泉内东,许庄内西南,许庄内东北,十五里铺村内,十五里铺内东,许庄新民居2号,井泉内西,固店乡政府配变,三友食品厂,","scope":"【影响街道/乡镇】固店镇　 【高危重要客户】无 【影响客户】井泉村、十五里铺、许庄村、三友食品厂","startTime":"2019-11-17 20:55:13","stopDate":"2019-11-17 22:40:00","orgNo":"1340623","typeCode":"电网故障停限电","poweroffArea":"【全线路停电】停许庄内西北,井泉内东2号,十五里铺内中配变,十五里铺村内西北,许庄东北2号,许庄内东南,井泉内东,许庄内西南,许庄内东北,十五里铺村内,十五里铺内东,许庄新民居2号,井泉内西,固店乡政府配变,三友食品厂","poweroffReason":"【停电原因】由于用户资产三友食品厂配变Ａ相避雷器引线断导致２２０ＫＶ固店变电站黄庄ＩＩ线５３５线路全线停电 【变更送电】因抢修进度加快原因，送电时间由１８日１０：００变更为１７日２２：４０ 【发布渠道】通过９５５９８发布","powerTime":"2019-11-17 22:09:21","powerComm":"已送电","subsNo":"","lineNo":"","tgNo":"","tgName":null,"infoStatus":"1","orgName":"国网望都县供电公司","typeName":null,"infoStatusName":null,"dateDay":null,"orgNos":null,"nowTime":null,"countyName":null,"streetName":null,"villageName":null,"roadName":null,"communityName":null,"tranName":null,"sdLineName":null,"cityCode":"1340623","cityName":"国网望都县供电公司","provinceCode":null,"stopTime":"2019-11-17 22:40:00","powerType":"全部","powerOffArea":"【全线路停电】停许庄内西北,井泉内东2号,十五里铺内中配变,十五里铺村内西北,许庄东北2号,许庄内东南,井泉内东,许庄内西南,许庄内东北,十五里铺村内,十五里铺内东,许庄新民居2号,井泉内西,固店乡政府配变,三友食品厂","powerOffReason":"【停电原因】由于用户资产三友食品厂配变Ａ相避雷器引线断导致２２０ＫＶ固店变电站黄庄ＩＩ线５３５线路全线停电 【变更送电】因抢修进度加快原因，送电时间由１８日１０：００变更为１７日２２：４０ 【发布渠道】通过９５５９８发布","powerOffId":"2019111713000371"},{"poweroffId":2019111713000367,"sgpoweroffId":null,"subsName":"","lineName":"西环512线","pubTranName":"南关西水4602配变,麻黄头村南0016配变,南坛西南3201配变,西沿公用1出线间隔配电变压器,南关西新增变压器,麻黄头北4534配变,麻黄头北0007配变,金三角变压器,麻黄头村西4959配变,丽景花园出线间隔配电变压器,丽景花园四出线间隔配电变压器,丽景花园一出线间隔配电变压器,丽景花园二出线间隔配电变压器,南坛村北4773配变,麻黄头村内1376配变,麻黄头水利5216,泗城涧西北配变,西沿公用2出线间隔配电变压器,","scope":"【影响街道/乡镇】仁厚镇、南环路、国防路、仁厚东路、仁厚西路、唐王路【高危重要客户】无【影响客户】南坛、南关、麻黄头、丽景花园、金泰、金三角周围、唐县鑫宇水泥制砖厂、北京滕航房地产开发有限公司、河北唐龙纺织集团有限公司、唐县恒天气体有限责任公司、云马塑钢厂、保定市西大洋供水有限公司、大唐会馆、第二罐头厂、建行家属院、春秋家属院、刘家庄村、北野羊村、粮局家属院、唐县众源供水有限责任公司、唐县李光辉管厂、太行篷布厂、富信羊绒制品有限公司、木货市周边、第二中学、职中家属楼、水利局","startTime":"2019-11-17 21:55:00","stopDate":"2019-11-18 00:00:00","orgNo":"1340622","typeCode":"其他临时停电","poweroffArea":"【全线路停电】停麻黄头村南0016配变,丽景花园四出线间隔配电变压器,南关西水4602配变,南坛西南3201配变,西沿公用1出线间隔配电变压器,引水工程1474,南关西新增变压器,唐县建宝房地产开发有限公司5136,云马塑钢厂0004,麻黄头北4534配变,北京腾航房地产开发有限公司10KV配变,麻黄头北0007配变,金三角变压器,麻黄头村西4959配变,丽景花园出线间隔配电变压器,丽景花园一出线间隔配电变压器,唐县鑫宇水泥制砖厂,丽景花园二出线间隔配电变压器,南坛村北4773配变,北京滕航房地产开发有限公司,麻黄头村内1376配变,麻黄头水利5216,泗城涧西北配变,西沿公用2出线间隔配电变压器","poweroffReason":"【停电原因】由于处理紧急缺陷导致１１０ＫＶ唐县变电站西环５１２线路全线停电【变更送电】因抢修进度加快原因，送电时间由０４：００变更为００：００【发布渠道】通过９５５９８发布","powerTime":"2019-11-17 23:35:13","powerComm":"已送电","subsNo":"","lineNo":"","tgNo":"","tgName":null,"infoStatus":"1","orgName":"国网唐县供电公司","typeName":null,"infoStatusName":null,"dateDay":null,"orgNos":null,"nowTime":null,"countyName":null,"streetName":null,"villageName":null,"roadName":null,"communityName":null,"tranName":null,"sdLineName":null,"cityCode":"1340622","cityName":"国网唐县供电公司","provinceCode":null,"stopTime":"2019-11-18 00:00:00","powerType":"全部","powerOffArea":"【全线路停电】停麻黄头村南0016配变,丽景花园四出线间隔配电变压器,南关西水4602配变,南坛西南3201配变,西沿公用1出线间隔配电变压器,引水工程1474,南关西新增变压器,唐县建宝房地产开发有限公司5136,云马塑钢厂0004,麻黄头北4534配变,北京腾航房地产开发有限公司10KV配变,麻黄头北0007配变,金三角变压器,麻黄头村西4959配变,丽景花园出线间隔配电变压器,丽景花园一出线间隔配电变压器,唐县鑫宇水泥制砖厂,丽景花园二出线间隔配电变压器,南坛村北4773配变,北京滕航房地产开发有限公司,麻黄头村内1376配变,麻黄头水利5216,泗城涧西北配变,西沿公用2出线间隔配电变压器","powerOffReason":"【停电原因】由于处理紧急缺陷导致１１０ＫＶ唐县变电站西环５１２线路全线停电【变更送电】因抢修进度加快原因，送电时间由０４：００变更为００：００【发布渠道】通过９５５９８发布","powerOffId":"2019111713000367"},{"poweroffId":2019111713000360,"sgpoweroffId":null,"subsName":"","lineName":"微波站517线","pubTranName":"大寺城涧2687,东都亭128变压器,东都亭130变压器,东都亭2615,东都亭6520变压器,李家庄3159变压器,李城涧0133,东都亭村北6063,大寺城涧1740变压器,李家庄0316,东都亭村东6064,李城涧4714,大寺城涧0324,李家庄6059,杨城涧0325,东都亭6669变压器,东都亭4636变压器,李家庄2323,李家庄4064,李家庄1417,大寺城涧2694,李城涧4079,供电所2078,大寺城涧3158,东都亭3189变压器,","scope":"【影响街道/乡镇】仁厚镇、都亭乡【高危重要客户】无【影响客户】唐县中央公馆、大寺城涧、李家庄、杨城涧、李城涧、东都亭、兴和大酒店、瑞利牧业、酒厂","startTime":"2019-11-17 21:50:00","stopDate":"2019-11-18 00:00:00","orgNo":"1340622","typeCode":"其他临时停电","poweroffArea":"【全线路停电】停唐县南环医院4659,电视台0120,大寺城涧2687,东都亭128变压器,东都亭130变压器,东都亭2615,东都亭6520变压器,李家庄3159变压器,李城涧0133,东都亭村北6063,南环医院1812,大寺城涧1740变压器,河北香江房地产3#箱变,唐县强茂有机肥生产有限公司,李家庄0316,东都亭村东6064,木器厂家属0122,李城涧4714,保定兴华建筑有限公司,大寺城涧0324,李家庄6059,杨城涧0325,兴和大酒店1970,东都亭6669变压器,利群食品有限公司0317,西环加油站1827,河北香江房地产2#箱变,河北香江房地产1#箱变,冰冰冷冻1828,东都亭4636变压器,微波站,李家庄2323,李家庄4064,李家庄1417,大寺城涧2694,唐县恒天气体有限责任公司,惠琳公司0321,李城涧4079,河北焕歌物流有限公司10KV配变,供电所2078,唐县永耀混凝土搅拌有限公司配变,唐县恒兴饲料厂2790,大寺城涧3158,唐县永耀混凝土搅拌有限公司,东都亭3189变压器","poweroffReason":"【停电原因】由于紧急消缺导致１１０ＫＶ唐县变电站微波站５１７线路全线停电【变更送电】因抢修进度加快原因，送电时间由０４：００变更为００：００【发布渠道】通过９５５９８发布","powerTime":"2019-11-17 23:42:40","powerComm":"已送电","subsNo":"","lineNo":"","tgNo":"","tgName":null,"infoStatus":"1","orgName":"国网唐县供电公司","typeName":null,"infoStatusName":null,"dateDay":null,"orgNos":null,"nowTime":null,"countyName":null,"streetName":null,"villageName":null,"roadName":null,"communityName":null,"tranName":null,"sdLineName":null,"cityCode":"1340622","cityName":"国网唐县供电公司","provinceCode":null,"stopTime":"2019-11-18 00:00:00","powerType":"全部","powerOffArea":"【全线路停电】停唐县南环医院4659,电视台0120,大寺城涧2687,东都亭128变压器,东都亭130变压器,东都亭2615,东都亭6520变压器,李家庄3159变压器,李城涧0133,东都亭村北6063,南环医院1812,大寺城涧1740变压器,河北香江房地产3#箱变,唐县强茂有机肥生产有限公司,李家庄0316,东都亭村东6064,木器厂家属0122,李城涧4714,保定兴华建筑有限公司,大寺城涧0324,李家庄6059,杨城涧0325,兴和大酒店1970,东都亭6669变压器,利群食品有限公司0317,西环加油站1827,河北香江房地产2#箱变,河北香江房地产1#箱变,冰冰冷冻1828,东都亭4636变压器,微波站,李家庄2323,李家庄4064,李家庄1417,大寺城涧2694,唐县恒天气体有限责任公司,惠琳公司0321,李城涧4079,河北焕歌物流有限公司10KV配变,供电所2078,唐县永耀混凝土搅拌有限公司配变,唐县恒兴饲料厂2790,大寺城涧3158,唐县永耀混凝土搅拌有限公司,东都亭3189变压器","powerOffReason":"【停电原因】由于紧急消缺导致１１０ＫＶ唐县变电站微波站５１７线路全线停电【变更送电】因抢修进度加快原因，送电时间由０４：００变更为００：００【发布渠道】通过９５５９８发布","powerOffId":"2019111713000360"},{"poweroffId":2019111713000355,"sgpoweroffId":null,"subsName":"","lineName":"10kV514王庄子线","pubTranName":"粮局家属院公用照明 1台区,建华家属院公用照明1台区,物资局家属院公用照明1台区,董庄子公用照明2台区,小町家属院公用照明1台区,夏庄子公用照明1台区,夏庄子公用照明2台区,王庄子公用照明1台区,王庄子公用照明2台区,董庄子公用照明1台区,夏庄子公用照明3台区,王庄子公用照明3台区,健身家属院公用照明1台区,小铁路楼房院公用照明1台区,杨庄子五队公用照明1台区,夏庄子公用照明4台区,小铁路平房院公用照明1台区,建华家属院公用照明2台区,玻璃珠家属院公用照明1台区,王庄子公用照明4台区,冷冻厂家属院公用照明1台区,","scope":"【影响街道/乡镇】西城区【高危重要客户】无【影响客户】董庄子、夏庄子、王庄子、杨庄子五队、健身家属院、冷冻厂家属院、小町家属院、物资局家属院、玻璃珠家属院、粮局家属院、建华家属院、小铁路平房家属院、小铁路楼房家属院、中天新郡小区、天润佳苑小区、东旭化工厂、红光锻造家属院、定州卫校、嘉宝天同有限公司、保定红宇健身有限公司、丰源肉食","startTime":"2019-11-17 20:22:52","stopDate":"2019-11-17 22:00:00","orgNo":"1340610","typeCode":"电网故障停限电","poweroffArea":"【全线路停电】停董庄子公用照明1台区,王庄子公用照明1台区,董庄子公用照明2台区,小町家属院公用照明1台区,夏庄子公用照明1台区,夏庄子公用照明2台区,王庄子公用照明2台区,冷冻厂家属院公用照明1台区,王庄子公用照明4台区,夏庄子公用照明3台区,粮局家属院公用照明 1台区,建华家属院公用照明1台区,物资局家属院公用照明1台区,王庄子公用照明3台区,健身家属院公用照明1台区,小铁路楼房院公用照明1台区,杨庄子五队公用照明1台区,夏庄子公用照明4台区,小铁路平房院公用照明1台区,建华家属院公用照明2台区,玻璃珠家属院公用照明1台区","poweroffReason":"【停电原因】由于废品站０１号杆变台跌落保险上桩头脱落搭担导致１１０ＫＶ客车厂变电站１０ＫＶ５１４王庄子线路全线停电 【变更送电】因抢修进度加快原因，送电时间由１８日１２：００变更为１７日２２：００ 【发布渠道】９５５９８","powerTime":"2019-11-17 21:46:36","powerComm":"已送电","subsNo":"","lineNo":"","tgNo":"","tgName":null,"infoStatus":"1","orgName":"国网定州市供电公司","typeName":null,"infoStatusName":null,"dateDay":null,"orgNos":null,"nowTime":null,"countyName":null,"streetName":null,"villageName":null,"roadName":null,"communityName":null,"tranName":null,"sdLineName":null,"cityCode":"1340610","cityName":"国网定州市供电公司","provinceCode":null,"stopTime":"2019-11-17 22:00:00","powerType":"全部","powerOffArea":"【全线路停电】停董庄子公用照明1台区,王庄子公用照明1台区,董庄子公用照明2台区,小町家属院公用照明1台区,夏庄子公用照明1台区,夏庄子公用照明2台区,王庄子公用照明2台区,冷冻厂家属院公用照明1台区,王庄子公用照明4台区,夏庄子公用照明3台区,粮局家属院公用照明 1台区,建华家属院公用照明1台区,物资局家属院公用照明1台区,王庄子公用照明3台区,健身家属院公用照明1台区,小铁路楼房院公用照明1台区,杨庄子五队公用照明1台区,夏庄子公用照明4台区,小铁路平房院公用照明1台区,建华家属院公用照明2台区,玻璃珠家属院公用照明1台区","powerOffReason":"【停电原因】由于废品站０１号杆变台跌落保险上桩头脱落搭担导致１１０ＫＶ客车厂变电站１０ＫＶ５１４王庄子线路全线停电 【变更送电】因抢修进度加快原因，送电时间由１８日１２：００变更为１７日２２：００ 【发布渠道】９５５９８","powerOffId":"2019111713000355"},{"poweroffId":2019111713000350,"sgpoweroffId":null,"subsName":"","lineName":"大巨线512","pubTranName":"10kV东邵514线路涞山11号变压器,涞山村1号变压器,东邵新村1#,东邵中村7#,涞山村2#,东邵东村3#,东邵新村2#,涞山村3#,东邵东村5#,东邵中村5#,涞山村6#,东邵新7号,10kV东邵514线路涞山10号变压器,东邵东村2#,东邵东村4#,东邵中村6#,涞山村4#,贾庄村8号【纯农排变】,涞山村8#,东邵中村2#,南韩村1#配变【纯农排变】,东邵中村10号变压器,东邵中村1#,东邵东村6#,东邵新村5#,东邵东村9#【纯农排变】,东邵新村3号,东韩村3#,东邵新村4#,东韩村2#,东邵中村8#,贾庄村7号,东邵新6号,东邵东村7#变压器,东邵中村9#,涞山村7#,涞山12#变压器,","scope":"【影响街道/乡镇】凌云册乡【高危重要客户】无【影响客户】涞山村、东韩村、贾庄村、东邵新村、东邵中村、东邵东村","startTime":"2019-11-17 20:18:39","stopDate":"2019-11-17 23:50:00","orgNo":"1340625","typeCode":"电网故障停限电","poweroffArea":"【全线路停电】停涞山村贾红文,涞山村6#,贾庄村1号【纯农排变】,易县靠山新型建材制造有限公司250,东韩村3#,东韩村2#,贾庄村7号,东邵新6号,易县凌云册石灰厂(280KVA),涞山12#变压器,东邵东村1#【纯农排变】,东邵中村2#,东邵东村6#,易县涞山医院变压器,东邵东村9#【纯农排变】,涞山村4#,东邵新村4#,涞山村7#,东邵中村8#,东邵东村7#变压器,易县贺春石材经销处变压器,东邵中村9#,10kV东邵514线路涞山11号变压器,0469488018-66336部队凤凰山庄-专变-46820532-涞山果园,东邵中村4#,涞山村1号变压器,东邵新村1#,东邵中村7#,涞山村2#,东邵中村3#【纯农排变】,易县凡杰石材经销处,东邵东村3#,东邵新村2#,东邵中心小学变压器,涞山村3#,东邵东村5#,东邵中村5#,东邵新7号,10kV东邵514线路涞山10号变压器,东邵东村2#,东邵东村4#,东邵中村6#,贾庄村8号【纯农排变】,涞山村8#,北京地矿东邵50,南韩村1#配变【纯农排变】,赵洪涛板厂,东邵中村10号变压器,东邵中村1#,东邵新村5#,东邵新村3号","poweroffReason":"【停电原因】由于线路接地导致３５ＫＶ凌云册变电站大巨线５１２线路全线停电【变更送电】无【发布渠道】通过９５５９８发布","powerTime":"2019-11-17 22:56:21","powerComm":"已送电","subsNo":"","lineNo":"","tgNo":"","tgName":null,"infoStatus":"1","orgName":"国网易县供电公司","typeName":null,"infoStatusName":null,"dateDay":null,"orgNos":null,"nowTime":null,"countyName":null,"streetName":null,"villageName":null,"roadName":null,"communityName":null,"tranName":null,"sdLineName":null,"cityCode":"1340625","cityName":"国网易县供电公司","provinceCode":null,"stopTime":"2019-11-17 23:50:00","powerType":"全部","powerOffArea":"【全线路停电】停涞山村贾红文,涞山村6#,贾庄村1号【纯农排变】,易县靠山新型建材制造有限公司250,东韩村3#,东韩村2#,贾庄村7号,东邵新6号,易县凌云册石灰厂(280KVA),涞山12#变压器,东邵东村1#【纯农排变】,东邵中村2#,东邵东村6#,易县涞山医院变压器,东邵东村9#【纯农排变】,涞山村4#,东邵新村4#,涞山村7#,东邵中村8#,东邵东村7#变压器,易县贺春石材经销处变压器,东邵中村9#,10kV东邵514线路涞山11号变压器,0469488018-66336部队凤凰山庄-专变-46820532-涞山果园,东邵中村4#,涞山村1号变压器,东邵新村1#,东邵中村7#,涞山村2#,东邵中村3#【纯农排变】,易县凡杰石材经销处,东邵东村3#,东邵新村2#,东邵中心小学变压器,涞山村3#,东邵东村5#,东邵中村5#,东邵新7号,10kV东邵514线路涞山10号变压器,东邵东村2#,东邵东村4#,东邵中村6#,贾庄村8号【纯农排变】,涞山村8#,北京地矿东邵50,南韩村1#配变【纯农排变】,赵洪涛板厂,东邵中村10号变压器,东邵中村1#,东邵新村5#,东邵新村3号","powerOffReason":"【停电原因】由于线路接地导致３５ＫＶ凌云册变电站大巨线５１２线路全线停电【变更送电】无【发布渠道】通过９５５９８发布","powerOffId":"2019111713000350"},{"poweroffId":2019111713000344,"sgpoweroffId":null,"subsName":"","lineName":"10kV七里铺540线","pubTranName":"七里铺内中1,七里铺内中2配变,七里铺内西2号,七里铺内东1,7里铺最西,七里铺村内西,七里铺村内2配变,七里铺村内1,七里铺内西3配变,七里铺内西4配变,七里铺内东2配变,","scope":"【影响街道/乡镇】固店镇 【高危重要客户】无　　 【影响客户】七里铺","startTime":"2019-11-17 20:16:51","stopDate":"2019-11-18 00:00:00","orgNo":"1340623","typeCode":"电网故障停限电","poweroffArea":"【单台区停电】停七里铺内东1","poweroffReason":"【停电原因】由于低压刀闸烧导致２２０ＫＶ固店变电站１０ＫＶ七里铺５４０线路七里铺内东１公变台区停电 【变更送电】因抢修进度加快原因，送电时间由１８日１０：００变更为１８日００：００ 【发布渠道】通过９５５９８发布","powerTime":"2019-11-17 23:32:49","powerComm":"已送电","subsNo":"","lineNo":"","tgNo":"","tgName":null,"infoStatus":"1","orgName":"国网望都县供电公司","typeName":null,"infoStatusName":null,"dateDay":null,"orgNos":null,"nowTime":null,"countyName":null,"streetName":null,"villageName":null,"roadName":null,"communityName":null,"tranName":null,"sdLineName":null,"cityCode":"1340623","cityName":"国网望都县供电公司","provinceCode":null,"stopTime":"2019-11-18 00:00:00","powerType":"全部","powerOffArea":"【单台区停电】停七里铺内东1","powerOffReason":"【停电原因】由于低压刀闸烧导致２２０ＫＶ固店变电站１０ＫＶ七里铺５４０线路七里铺内东１公变台区停电 【变更送电】因抢修进度加快原因，送电时间由１８日１０：００变更为１８日００：００ 【发布渠道】通过９５５９８发布","powerOffId":"2019111713000344"}],"pageModel":{"pageNow":371,"totalCount":10973,"totalPage":1098,"tableRows":0,"pageCount":10,"beginCount":3700},"isExperi":"1"}