{"message":"","today":"2020-06-15","seleList":[{"poweroffId":2019111713000267,"sgpoweroffId":null,"subsName":"","lineName":"阳元街518","pubTranName":"平安家园1,阳元街直供2#,阳元南街2#,南环小区直供1#,南环小区2#,友谊路2#,城关医院直供,鑫苑小区,路家庄5#,阳元南街直供1#,阳元街直供3#,南环路3#,路家庄村1#,南关村1#,阳元街直供1#,","scope":"【影响街道/乡镇】城管处、友谊路、阳元北大街、易兴路、西环路、朝阳路、南环路【高危重要客户】无【影响客户】路家庄村、金色家园小区、平安家园小区、南环小区、鑫苑小区","startTime":"2019-11-17 18:44:16","stopDate":"2019-11-17 22:00:00","orgNo":"1340625","typeCode":"电网故障停限电","poweroffArea":"【全线路停电】停城关医院直供,鑫苑小区,阳元南街2#,阳元街直供2#,平安家园1,路家庄5#,南关村1#,南环路3#,南环小区直供1#,南环小区2#,阳元南街直供1#,友谊路2#,路家庄村1#,阳元街直供3#,阳元街直供1#","poweroffReason":"【停电原因】由于大风天气速断跳闸导致３５ＫＶ易水变电站阳元街５１８线路全线停电【变更送电】因抢修进度加快原因,送电时间由２３：５０变更为２２：００【发布渠道】通过９５５９８发布","powerTime":"2019-11-17 21:26:04","powerComm":"已送电","subsNo":"","lineNo":"","tgNo":"","tgName":null,"infoStatus":"1","orgName":"国网易县供电公司","typeName":null,"infoStatusName":null,"dateDay":null,"orgNos":null,"nowTime":null,"countyName":null,"streetName":null,"villageName":null,"roadName":null,"communityName":null,"tranName":null,"sdLineName":null,"cityCode":"1340625","cityName":"国网易县供电公司","provinceCode":null,"stopTime":"2019-11-17 22:00:00","powerType":"全部","powerOffArea":"【全线路停电】停城关医院直供,鑫苑小区,阳元南街2#,阳元街直供2#,平安家园1,路家庄5#,南关村1#,南环路3#,南环小区直供1#,南环小区2#,阳元南街直供1#,友谊路2#,路家庄村1#,阳元街直供3#,阳元街直供1#","powerOffReason":"【停电原因】由于大风天气速断跳闸导致３５ＫＶ易水变电站阳元街５１８线路全线停电【变更送电】因抢修进度加快原因,送电时间由２３：５０变更为２２：００【发布渠道】通过９５５９８发布","powerOffId":"2019111713000267"},{"poweroffId":2019111713000260,"sgpoweroffId":null,"subsName":"","lineName":"10kV520辉岭线","pubTranName":"0012742945辉岭村东变变压器,0000005550灵山1区变压器,0000006330朱家峪西2变压器,0012457064郭家庄中2变压器,0000005552灵山7区变压器,0000007208下岸村2,0000006294朱家峪东2变压器,朱家峪西5变压器,0000005556灵山6区变压器,0012457431郭家庄西2变压器,灵山23区变压器,辉岭西1变压器,0000005325郭家庄村南变压器,0000005867下岸村变压器,0000005551灵山2区变压器,0000006278朱家峪道南2变压器,灵山小学变压器2,0000006138下岸统管副业变压器,灵山24区变压器,0000006499辉岭北2区变压器,0000007207灵山9区变压器,灵山小学变压器1,0000005207朱家峪中西变压器,0000005204辉岭村西变压器,郭家庄小学变压器2,0012457070郭家庄南3变压器,朱家峪东7变压器,朱家峪东9变压器,0011946487朱家峪北区变压器,0012457051朱家峪东4变压器,灵山地税变压器,灵山28区变压器,朱家峪东6区变压器,0012891907辉岭中区,0000005206朱家峪南区变压器,灵山医院变压器,灵山中心幼儿园变压器,0012891905郭家庄南5区变压器,0012892411辉岭南2区变压器,0000005202郭家庄村北变压器,辉岭北3变压器,0012891914郭家庄西3区变压器,灵山中心卫生院郭家庄分院变压器,0000005205朱家峪东区变压器,0000005199辉岭村变压器,0000005198灵山12区变压器,辉岭南3变压器,0000006106灵山10区变压器,0000005549灵山8区变压器,朱家峪东8变压器,朱家峪幼儿园变压器,灵山中学变压器3,0012457425朱家峪西4变压器,0012470873郭家庄东北变压器,0000005200郭家庄村中变压器,0000006778朱家峪南2区变压器,辉岭小学变压器,0000005557灵山4区变压器,0000005201郭家庄水井变压器,0012457072郭家庄南4变压器,0000005208朱家峪道南变压器,朱家峪南3变压器,下岸3变压器【光伏】,灵山中学变压器2,0000007194朱家峪西3区变压器,0012359268灵山15区变压器,灵山中学变压器1,朱家峪小学变压器,0000007193朱家峪东3区变压器,0000005203辉岭村南变压器,0012457053灵山14区变压器,0000005836郭家庄南区(2#)变压器,","scope":"【影响街道/乡镇】灵山镇【高危重要客户】无【影响客户】辉岭、朱家峪、郭家庄、灵山、下岸","startTime":"2019-11-17 18:15:00","stopDate":"2019-11-17 20:00:00","orgNo":"1340619","typeCode":"电网故障停限电","poweroffArea":"【全线路停电】0012742945辉岭村东变变压器,0000005550灵山1区变压器,0000006330朱家峪西2变压器,0012457064郭家庄中2变压器,0000005552灵山7区变压器,0000007208下岸村2,0000006294朱家峪东2变压器,朱家峪西5变压器,0000005556灵山6区变压器,0012457431郭家庄西2变压器,灵山23区变压器,辉岭西1变压器,0000005325郭家庄村南变压器,0000005867下岸村变压器,0000005551灵山2区变压器,0000006278朱家峪道南2变压器,灵山小学变压器2,0000006138下岸统管副业变压器,灵山24区变压器,0000006499辉岭北2区变压器,0000007207灵山9区变压器,灵山小学变压器1,0000005207朱家峪中西变压器,0000005204辉岭村西变压器,郭家庄小学变压器2,0012457070郭家庄南3变压器,朱家峪东7变压器,朱家峪东9变压器,0011946487朱家峪北区变压器,0012457051朱家峪东4变压器,灵山地税变压器,灵山28区变压器,朱家峪东6区变压器,0012891907辉岭中区,0000005206朱家峪南区变压器,灵山医院变压器,灵山中心幼儿园变压器,0012892411辉岭南2区变压器,朱家峪小学变压器,0000007193朱家峪东3区变压器,0000005203辉岭村南变压器,0012457053灵山14区变压器,0000005836郭家庄南区(2#)变压器,0012891905郭家庄南5区变压器,0000005202郭家庄村北变压器,辉岭北3变压器,0012891914郭家庄西3区变压器,灵山中心卫生院郭家庄分院变压器,0000005205朱家峪东区变压器,0000005199辉岭村变压器,0000005198灵山12区变压器,辉岭南3变压器,0000006106灵山10区变压器,0000005549灵山8区变压器,朱家峪东8变压器,朱家峪幼儿园变压器,灵山中学变压器3,0012457425朱家峪西4变压器,0012470873郭家庄东北变压器,0000005200郭家庄村中变压器,0000006778朱家峪南2区变压器,辉岭小学变压器,0000005557灵山4区变压器,0000005201郭家庄水井变压器,0012457072郭家庄南4变压器,0000005208朱家峪道南变压器,朱家峪南3变压器,下岸3变压器【光伏】,灵山中学变压器2,0000007194朱家峪西3区变压器,0012359268灵山15区变压器,灵山中学变压器1","poweroffReason":"【停电原因】由于线路Ｂ相接地导致导致３５ＫＶ灵山变电站１０ＫＶ５２０辉岭线路全线停电【变更送电】因抢修进度加快原因，送电时间由１８日１０：００变更为１７日２０：００【发布渠道】通过９５５９８发布","powerTime":"2019-11-17 19:36:15","powerComm":"已送电","subsNo":"","lineNo":"","tgNo":"","tgName":null,"infoStatus":"1","orgName":"国网曲阳县供电公司","typeName":null,"infoStatusName":null,"dateDay":null,"orgNos":null,"nowTime":null,"countyName":null,"streetName":null,"villageName":null,"roadName":null,"communityName":null,"tranName":null,"sdLineName":null,"cityCode":"1340619","cityName":"国网曲阳县供电公司","provinceCode":null,"stopTime":"2019-11-17 20:00:00","powerType":"全部","powerOffArea":"【全线路停电】0012742945辉岭村东变变压器,0000005550灵山1区变压器,0000006330朱家峪西2变压器,0012457064郭家庄中2变压器,0000005552灵山7区变压器,0000007208下岸村2,0000006294朱家峪东2变压器,朱家峪西5变压器,0000005556灵山6区变压器,0012457431郭家庄西2变压器,灵山23区变压器,辉岭西1变压器,0000005325郭家庄村南变压器,0000005867下岸村变压器,0000005551灵山2区变压器,0000006278朱家峪道南2变压器,灵山小学变压器2,0000006138下岸统管副业变压器,灵山24区变压器,0000006499辉岭北2区变压器,0000007207灵山9区变压器,灵山小学变压器1,0000005207朱家峪中西变压器,0000005204辉岭村西变压器,郭家庄小学变压器2,0012457070郭家庄南3变压器,朱家峪东7变压器,朱家峪东9变压器,0011946487朱家峪北区变压器,0012457051朱家峪东4变压器,灵山地税变压器,灵山28区变压器,朱家峪东6区变压器,0012891907辉岭中区,0000005206朱家峪南区变压器,灵山医院变压器,灵山中心幼儿园变压器,0012892411辉岭南2区变压器,朱家峪小学变压器,0000007193朱家峪东3区变压器,0000005203辉岭村南变压器,0012457053灵山14区变压器,0000005836郭家庄南区(2#)变压器,0012891905郭家庄南5区变压器,0000005202郭家庄村北变压器,辉岭北3变压器,0012891914郭家庄西3区变压器,灵山中心卫生院郭家庄分院变压器,0000005205朱家峪东区变压器,0000005199辉岭村变压器,0000005198灵山12区变压器,辉岭南3变压器,0000006106灵山10区变压器,0000005549灵山8区变压器,朱家峪东8变压器,朱家峪幼儿园变压器,灵山中学变压器3,0012457425朱家峪西4变压器,0012470873郭家庄东北变压器,0000005200郭家庄村中变压器,0000006778朱家峪南2区变压器,辉岭小学变压器,0000005557灵山4区变压器,0000005201郭家庄水井变压器,0012457072郭家庄南4变压器,0000005208朱家峪道南变压器,朱家峪南3变压器,下岸3变压器【光伏】,灵山中学变压器2,0000007194朱家峪西3区变压器,0012359268灵山15区变压器,灵山中学变压器1","powerOffReason":"【停电原因】由于线路Ｂ相接地导致导致３５ＫＶ灵山变电站１０ＫＶ５２０辉岭线路全线停电【变更送电】因抢修进度加快原因，送电时间由１８日１０：００变更为１７日２０：００【发布渠道】通过９５５９８发布","powerOffId":"2019111713000260"},{"poweroffId":2019111713000257,"sgpoweroffId":null,"subsName":"","lineName":"微波站517线","pubTranName":"东都亭村东6064,李家庄6059,李家庄4064,东都亭128变压器,大寺城涧2687,大寺城涧2694,东都亭4636变压器,李城涧0133,大寺城涧0324,供电所2078,李家庄2323,东都亭3189变压器,李家庄2727【纯农排变】,大寺城涧3158,东都亭村北6063,东都亭6669变压器,李城涧4714,李家庄0316,李城涧4079,杨城涧0325,李家庄3159变压器,李家庄1417,东都亭6520变压器,李家庄2725【纯农排变】,大寺城涧1740变压器,东都亭2615,东都亭130变压器,","scope":"【影响街道/乡镇】仁厚镇、都亭乡【高危重要客户】无【影响客户】唐县中央公馆、大寺城涧、李家庄、杨城涧、李城涧、东都亭、兴和大酒店、瑞利牧业、酒厂","startTime":"2019-11-17 18:29:02","stopDate":"2019-11-17 20:30:00","orgNo":"1340622","typeCode":"电网故障停限电","poweroffArea":"【全线路停电】停唐县永耀混凝土搅拌有限公司,李家庄6059,东都亭2615,利群食品有限公司0317,河北焕歌物流有限公司10KV配变,大寺城涧3158,李家庄0316,李家庄2725【纯农排变】,东都亭6669变压器,河北香江房地产3#箱变,李家庄4064,东都亭130变压器,东都亭6520变压器,大寺城涧0324,电视台0120,保定兴华建筑有限公司,南环医院1812,大寺城涧2694,0387521772-河北帝尧鸿酒业有限公司-专变-210340460-河北帝尧鸿酒业有限公司,李家庄1417,微波站,河北香江房地产2#箱变,李城涧4079,东都亭村东6064,惠琳公司0321,唐县恒天气体有限责任公司,东都亭3189变压器,大寺城涧1740变压器,唐县永耀混凝土搅拌有限公司配变,唐县南环医院4659,供电所2078,李城涧0133,东都亭128变压器,李家庄3159变压器,李家庄2727【纯农排变】,李城涧4714,河北香江房地产1#箱变,杨城涧0325,西环加油站1827,唐县强茂有机肥生产有限公司,东都亭4636变压器,兴和大酒店1970,大寺城涧2687,李家庄2323,唐县恒兴饲料厂2790,木器厂家属0122,冰冰冷冻1828,东都亭村北6063","poweroffReason":"【停电原因】由于树枝搭线导致１１０ＫＶ唐县变电站微波站５１７线路全线停电【变更送电】因抢修进度加快原因，送电时间由１８日０９：００变更为１７日２０：３０【发布渠道】通过９５５９８发布","powerTime":"2019-11-17 19:51:38","powerComm":"已送电","subsNo":"","lineNo":"","tgNo":"","tgName":null,"infoStatus":"1","orgName":"国网唐县供电公司","typeName":null,"infoStatusName":null,"dateDay":null,"orgNos":null,"nowTime":null,"countyName":null,"streetName":null,"villageName":null,"roadName":null,"communityName":null,"tranName":null,"sdLineName":null,"cityCode":"1340622","cityName":"国网唐县供电公司","provinceCode":null,"stopTime":"2019-11-17 20:30:00","powerType":"全部","powerOffArea":"【全线路停电】停唐县永耀混凝土搅拌有限公司,李家庄6059,东都亭2615,利群食品有限公司0317,河北焕歌物流有限公司10KV配变,大寺城涧3158,李家庄0316,李家庄2725【纯农排变】,东都亭6669变压器,河北香江房地产3#箱变,李家庄4064,东都亭130变压器,东都亭6520变压器,大寺城涧0324,电视台0120,保定兴华建筑有限公司,南环医院1812,大寺城涧2694,0387521772-河北帝尧鸿酒业有限公司-专变-210340460-河北帝尧鸿酒业有限公司,李家庄1417,微波站,河北香江房地产2#箱变,李城涧4079,东都亭村东6064,惠琳公司0321,唐县恒天气体有限责任公司,东都亭3189变压器,大寺城涧1740变压器,唐县永耀混凝土搅拌有限公司配变,唐县南环医院4659,供电所2078,李城涧0133,东都亭128变压器,李家庄3159变压器,李家庄2727【纯农排变】,李城涧4714,河北香江房地产1#箱变,杨城涧0325,西环加油站1827,唐县强茂有机肥生产有限公司,东都亭4636变压器,兴和大酒店1970,大寺城涧2687,李家庄2323,唐县恒兴饲料厂2790,木器厂家属0122,冰冰冷冻1828,东都亭村北6063","powerOffReason":"【停电原因】由于树枝搭线导致１１０ＫＶ唐县变电站微波站５１７线路全线停电【变更送电】因抢修进度加快原因，送电时间由１８日０９：００变更为１７日２０：３０【发布渠道】通过９５５９８发布","powerOffId":"2019111713000257"},{"poweroffId":2019111713000244,"sgpoweroffId":null,"subsName":"","lineName":"大洋线513","pubTranName":"大长峪5236变压器,万里村西1221变压器,西岳口3321变压器,十三队变压器1219,吕家庄3393,万里水4734变压器,万里4623变压器,郑家庄3264变压器,北大洋村内变压器1261,蔡庄4197变压器,东大洋1229变压器,山南庄村西1213变压器,大长峪种植变压器2009,石南坡1235变压器,北岗北4961变压器,万里0707变压器,万里6076变压器,大长峪4653变压器,大长峪5237变压器,东岳口4085变压器,大洋庄5073变压器,大长峪南1258变压器,西大洋4358分支,石南坡4152变压器,郑家庄6077变压器,中长店内0778变压器,东岳口4880变压器,大长峪4679变压器,山南庄水4889变压器,大长峪村北1211变压器,东岳口1264变压器,大洋庄东1241变压器,乡政府1245变压器,大洋庄4960变压器,西沟1208变压器,西岳口1203变压器,中长店水5086变压器,北大洋村西变压器0687,北岗北村南1220变压器,西大洋北0754变压器,中长店4205变压器,山南庄村东1218变压器,东长店4365变压器,蔡庄村西0768变压器,东长店水4731变压器,南大洋0736变压器,东大洋4381变压器,西岳口浇地变压器0752,蔡庄村北6073,石南坡1259变压器,吕家庄4058变压器,东长店0777变压器,石南坡6568变压器,中长店5083变压器,东大洋东1226变压器,北岗北扶贫排灌变压器0863,南大洋3044变压器,北大洋村东2011变压器,吕家庄河南1205变压器,山南庄3314变压器,蔡庄村浇地变压器1270,西大洋村南1263变压器,蔡庄1183变压器,北大洋4965变压器,郑家庄1206变压器,山南庄4962变压器,北大洋村南水利变压器1215,南大洋0739变压器,山南庄6572变压器,石南坡1236变压器,中长店4041变压器,中长店西1222变压器,东大洋4969变压器,西大洋3326变压器,西岳口6072变压器,吕家庄河北1204变压器,南大洋水2721变压器,西大洋村西南2337变压器,大长峪2010变压器,中长店吃水变压器1223,大洋庄村西0705变压器,","scope":"【影响街道/乡镇】大洋乡、雹水乡、北店头乡【高危重要客户】无【影响客户】吕家庄、北大洋、北岗北、西岳口、蔡庄、万里村、郑家庄、大洋庄、东大洋、东岳口、西大洋、大长峪、中长店、山南庄、东长店、南大洋、石南坡、黄金峪、北店头村北","startTime":"2019-11-17 18:04:33","stopDate":"2019-11-17 20:30:00","orgNo":"1340622","typeCode":"电网故障停限电","poweroffArea":"【全线路停电】停唐县保毅矿业有限公司3436,中长店4041变压器,石南坡1259变压器,北大洋4965变压器,大洋庄4960变压器,北岗北村南1220变压器,大洋庄村西0705变压器,东长店4365变压器,山南庄水4889变压器,西大洋3326变压器,大长峪5236变压器,西岳口浇地变压器0752,山南庄6572变压器,陈计山石料厂5090,北岗北4961变压器,万里村西1221变压器,郑家庄1206变压器,北大洋村东2011变压器,石南坡1236变压器,西岳口6072变压器,大长峪南1258变压器,乡政府1245变压器,中长店4205变压器,山南庄村东1218变压器,西大洋村南1263变压器,北岗北扶贫排灌变压器0863,0387520085-唐县泰鑫矿产品加工有限公司-专变-219684703-唐县泰鑫矿产品加工有限公司计量点6169,西大洋北0754变压器,大长峪2010变压器,中长店水5086变压器,吕家庄河南1205变压器,万里4623变压器,中长店吃水变压器1223,南大洋0736变压器,东岳口1264变压器,石南坡1235变压器,吕家庄河北1204变压器,大长峪5237变压器,大长峪村北1211变压器,南大洋3044变压器,大洋庄东1241变压器,大洋供电所,西岳口3321变压器,西岳口1203变压器,山南庄4962变压器,西大洋4358分支,大长峪4653变压器,东大洋1229变压器,北大洋村南水利变压器1215,蔡庄村北6073,石南坡4152变压器,万里水4734变压器,刘宏军养殖1243,西沟1208变压器,蔡庄4197变压器,东岳口4880变压器,中长店内0778变压器,石南坡6568变压器,郑家庄3264变压器,北大洋村西变压器0687,北大洋村内变压器1261,东大洋东1226变压器,西大洋村西南2337变压器,南大洋水2721变压器,东长店水4731变压器,杨吾别墅1234,吕家庄3393,蔡庄陈记石料厂1232,东岳口4085变压器,大洋庄5073变压器,万里0707变压器,唐县华峪选矿旅游开发有限责任公司,唐县恒旺畜禽养殖服务农民专业合作社6612,东大洋4969变压器,山南庄村西1213变压器,菜庄村安京余2579,十三队变压器1219,东长店0777变压器,蔡庄村西0768变压器,蔡庄陈计山石料厂5191,郑家庄6077变压器,唐县蔡庄陈记山石料厂10KV配变,0671194725-于学良-专变-212150932-于学良,蔡庄村浇地变压器1270,万里6076变压器,南大洋0739变压器,唐县蔡庄陈记山石料厂10KV新装配变,东岳口2008,蔡庄1183变压器,唐县王各庄石料厂3221,吕家庄4058变压器,大长峪4679变压器,中长店西1222变压器,大长峪种植变压器2009,东大洋4381变压器,中长店5083变压器,山南庄3314变压器","poweroffReason":"【停电原因】由于线路接地导致３５ＫＶ西大洋变电站大洋线５１３线路全线停电【变更送电】因抢修进度加快原因，送电时间由１８日０９：００变更为１７日２０：３０【发布渠道】通过９５５９８发布","powerTime":"2019-11-17 19:46:18","powerComm":"已送电","subsNo":"","lineNo":"","tgNo":"","tgName":null,"infoStatus":"1","orgName":"国网唐县供电公司","typeName":null,"infoStatusName":null,"dateDay":null,"orgNos":null,"nowTime":null,"countyName":null,"streetName":null,"villageName":null,"roadName":null,"communityName":null,"tranName":null,"sdLineName":null,"cityCode":"1340622","cityName":"国网唐县供电公司","provinceCode":null,"stopTime":"2019-11-17 20:30:00","powerType":"全部","powerOffArea":"【全线路停电】停唐县保毅矿业有限公司3436,中长店4041变压器,石南坡1259变压器,北大洋4965变压器,大洋庄4960变压器,北岗北村南1220变压器,大洋庄村西0705变压器,东长店4365变压器,山南庄水4889变压器,西大洋3326变压器,大长峪5236变压器,西岳口浇地变压器0752,山南庄6572变压器,陈计山石料厂5090,北岗北4961变压器,万里村西1221变压器,郑家庄1206变压器,北大洋村东2011变压器,石南坡1236变压器,西岳口6072变压器,大长峪南1258变压器,乡政府1245变压器,中长店4205变压器,山南庄村东1218变压器,西大洋村南1263变压器,北岗北扶贫排灌变压器0863,0387520085-唐县泰鑫矿产品加工有限公司-专变-219684703-唐县泰鑫矿产品加工有限公司计量点6169,西大洋北0754变压器,大长峪2010变压器,中长店水5086变压器,吕家庄河南1205变压器,万里4623变压器,中长店吃水变压器1223,南大洋0736变压器,东岳口1264变压器,石南坡1235变压器,吕家庄河北1204变压器,大长峪5237变压器,大长峪村北1211变压器,南大洋3044变压器,大洋庄东1241变压器,大洋供电所,西岳口3321变压器,西岳口1203变压器,山南庄4962变压器,西大洋4358分支,大长峪4653变压器,东大洋1229变压器,北大洋村南水利变压器1215,蔡庄村北6073,石南坡4152变压器,万里水4734变压器,刘宏军养殖1243,西沟1208变压器,蔡庄4197变压器,东岳口4880变压器,中长店内0778变压器,石南坡6568变压器,郑家庄3264变压器,北大洋村西变压器0687,北大洋村内变压器1261,东大洋东1226变压器,西大洋村西南2337变压器,南大洋水2721变压器,东长店水4731变压器,杨吾别墅1234,吕家庄3393,蔡庄陈记石料厂1232,东岳口4085变压器,大洋庄5073变压器,万里0707变压器,唐县华峪选矿旅游开发有限责任公司,唐县恒旺畜禽养殖服务农民专业合作社6612,东大洋4969变压器,山南庄村西1213变压器,菜庄村安京余2579,十三队变压器1219,东长店0777变压器,蔡庄村西0768变压器,蔡庄陈计山石料厂5191,郑家庄6077变压器,唐县蔡庄陈记山石料厂10KV配变,0671194725-于学良-专变-212150932-于学良,蔡庄村浇地变压器1270,万里6076变压器,南大洋0739变压器,唐县蔡庄陈记山石料厂10KV新装配变,东岳口2008,蔡庄1183变压器,唐县王各庄石料厂3221,吕家庄4058变压器,大长峪4679变压器,中长店西1222变压器,大长峪种植变压器2009,东大洋4381变压器,中长店5083变压器,山南庄3314变压器","powerOffReason":"【停电原因】由于线路接地导致３５ＫＶ西大洋变电站大洋线５１３线路全线停电【变更送电】因抢修进度加快原因，送电时间由１８日０９：００变更为１７日２０：３０【发布渠道】通过９５５９８发布","powerOffId":"2019111713000244"},{"poweroffId":2019111713000241,"sgpoweroffId":null,"subsName":"","lineName":"高于铺线513","pubTranName":"高于铺190|28000190,高于铺桥头综合1878,高于铺1850 综合|22001850,高于铺160|28000160,高于铺4270|22004270,高于铺6010|22006010,高于铺2710|22002710,高于铺东街村中新增综合1051,高于铺2590|22002590,高于铺2310|22002310,高于铺村中综合1879,高于铺1870|22001870,高于铺村南1号综合2722,高于铺2650|22002650,高于铺2630|22002630,高于铺村西1号,高于铺村东南新增综合0992,高于铺2410|22002410,","scope":"【影响街道/乡镇】高于铺镇【高危重要客户】无【影响客户】高于铺、顺平县卓正塑料制品有限公司、顺平县金峰化纤有限公司","startTime":"2019-11-17 17:54:14","stopDate":"2019-11-17 19:00:00","orgNo":"1340621","typeCode":"电网故障停限电","poweroffArea":"【全线路停电】停高于铺6010|22006010,高于铺桥头综合1878,0469132364-中国移动通信集团河北有限公司顺平分公司-专变-46724576-中国移动","poweroffReason":"【停电原因】由于大风天气异物搭线造成Ｂ相接地导致３５ＫＶ益兴变电站１０ＫＶ高于铺５１３线路全线停电【变更送电】因抢修进度加快原因，送电时间由２３：００变更为１９：００【发布渠道】通过９５５９８发布","powerTime":"2019-11-17 18:41:13","powerComm":"已送电","subsNo":"","lineNo":"","tgNo":"","tgName":null,"infoStatus":"1","orgName":"国网顺平县电力局","typeName":null,"infoStatusName":null,"dateDay":null,"orgNos":null,"nowTime":null,"countyName":null,"streetName":null,"villageName":null,"roadName":null,"communityName":null,"tranName":null,"sdLineName":null,"cityCode":"1340621","cityName":"国网顺平县电力局","provinceCode":null,"stopTime":"2019-11-17 19:00:00","powerType":"全部","powerOffArea":"【全线路停电】停高于铺6010|22006010,高于铺桥头综合1878,0469132364-中国移动通信集团河北有限公司顺平分公司-专变-46724576-中国移动","powerOffReason":"【停电原因】由于大风天气异物搭线造成Ｂ相接地导致３５ＫＶ益兴变电站１０ＫＶ高于铺５１３线路全线停电【变更送电】因抢修进度加快原因，送电时间由２３：００变更为１９：００【发布渠道】通过９５５９８发布","powerOffId":"2019111713000241"},{"poweroffId":2019111713000237,"sgpoweroffId":null,"subsName":"","lineName":"10kV南营线511","pubTranName":"1南营内4,南营内2,1中林水内2,1西林水内6,2西顾庄外12【纯农排变】,西林水内1号,西林水内3台区,1北营内5,张登中学林水分校2,东林水内2,东林水内1号,客户投资_1林水屯内2,1东林水内4,西林水内2,东林水小学,1南营内8,张登中学林水分校1,1北营内6,1南营内7,1南营内9,1南营内5,1北营内1,林水屯内1,1南营内6,北营内3,1北营内7,北营内2号,客户投资_1北营内4,1东林水内5,西林水内4台区,北蛮营幼儿园,1南营内1,1南营内3,中林水1号,2南营外25【纯农排变】,南营小学,1西林水内5,西林水小学,2南营外26【纯农排变】,","scope":"【影响街道/乡镇】白团乡 【高危重要客户】无 【影响客户】南营、北营、东林水、西林水、林水屯、中林水、辛庄、西顾庄","startTime":"2019-11-17 17:45:43","stopDate":"2019-11-17 19:00:00","orgNo":"1340618","typeCode":"电网故障停限电","poweroffArea":"【全线路停电】停1南营内1,1南营内4,保定市好梦林水农业科技有限公司,南营内2,1中林水内2,2南营外23【纯农排变】,1西林水内6,保定市清苑区新华世纪中学,1南营内3,2北营外12【纯农排变】,保定绿视野林业发展有限公司,中林水1号,保定市鸿运秋益建筑安装有限公司,2南营外25【纯农排变】,2北营外10【纯农排变】,2南营外21【纯农排变】,2北营外5【纯农排变】,2北营外11【纯农排变】,2西林水外3【纯农排变】,2南营外14【纯农排变】,2南营外12【纯农排变】,2西林水外10【纯农排变】,2北营外13【纯农排变】,2西林水外8【纯农排变】,南营小学,保定宝钻机械制造有限公司,2北营外14【纯农排变】,西林水安置楼,0668872748-河北建设集团有限公司朝阳大街南延项目经理部-专变-210339870-河北建设集团有限公司朝阳大街南延项目经理部,好梦林水观光大道路灯,2南营外6【纯农排变】,1西林水内5,2林水屯外2【纯农排变】,西林水小学,2南营外26【纯农排变】,清苑县北营新家园钻头厂,2南营外20【纯农排变】,2西顾庄外11【纯农排变】,2南营外16【纯农排变】,宝钻桩孔机械加工厂,2西顾庄外6【纯农排变】,清苑县鑫华钻机厂,2南营外3【纯农排变】,2北营外7【纯农排变】,2西林水外2【纯农排变】,2西顾庄外12【纯农排变】,西林水内1号,2北营外8【纯农排变】,2林水屯外3【纯农排变】,保定市好梦林水农业科技有限公司02,2南营外22【纯农排变】,河北雨农灌溉设备制造有限公司,2南营外24【纯农排变】,西林水内3台区,河北建设集团有限公司,2南营外11【纯农排变】,2南营外5【纯农排变】,2南营外9【纯农排变】,2北营外17【纯农排变】,保定市清苑区新华世纪中学01,1北营内5,张登中学林水分校2,东林水内2,2北营外3【纯农排变】,2西林水外9【纯农排变】,客户投资_1林水屯内2,1东林水内4,2南营外15【纯农排变】,保定市清苑区北店乡东林水小学,2北营外2【纯农排变】,东林水小学,2西顾庄外8【纯农排变】,清苑县鑫隆机械制造有限公司,保定市顺昶水泵制造有限公司,2中林水外3【纯农排变】,2北营外1【纯农排变】,2北营外4【纯农排变】,1南营内8,0550746221-保定市气象局-专变-213875681-保定市气象局,张登中学林水分校1,1北营内6,2西林水外7【纯农排变】,2北营外15【纯农排变】,东林水内1号,西林水内2,2南营外10【纯农排变】,2南营外18【纯农排变】,保定市好梦林水农业科技有限公司01,2西林水外6【纯农排变】,2北营外9【纯农排变】,2南营外7【纯农排变】,2西林水外1【纯农排变】,1南营内7,2西顾庄外9【纯农排变】,1南营内9,1南营内5,2东林水外1【纯农排变】,2南营外19【纯农排变】,2南营外8【纯农排变】,1北营内1,河北北工特机械科技有限公司,林水屯内1,1南营内6,辛庄外4【纯农排变】,北营内3,2南营外4【纯农排变】,1北营内7,北营内2号,2西顾庄外5【纯农排变】,客户投资_1北营内4,2南营外17【纯农排变】,西林水中学,清苑县鑫洋钻机厂,2中林水外2【纯农排变】,2西林水外5【纯农排变】,2西林水外4【纯农排变】,1东林水内5,2北营外6【纯农排变】,清苑县金顺钻头门市部,西林水内4台区,北蛮营幼儿园,2北营外16【纯农排变】,2北营外18【纯农排变】,2南营外13【纯农排变】","poweroffReason":"【停电原因】由于主干１１０号杆南分支１７号杆西分支１号杆分支１号杆金顺钻头门市部跌落烧导致１１０ＫＶ中冉变电站１０ＫＶ南营线５１１线路全线停电 【变更送电】因抢修进度加快原因，送电时间由２３：５９变更为１９：００ 【发布渠道】通过９５５９８发布","powerTime":"2019-11-17 18:37:36","powerComm":"王凯通知已送电","subsNo":"","lineNo":"","tgNo":"","tgName":null,"infoStatus":"1","orgName":"国网清苑县供电公司","typeName":null,"infoStatusName":null,"dateDay":null,"orgNos":null,"nowTime":null,"countyName":null,"streetName":null,"villageName":null,"roadName":null,"communityName":null,"tranName":null,"sdLineName":null,"cityCode":"1340618","cityName":"国网清苑县供电公司","provinceCode":null,"stopTime":"2019-11-17 19:00:00","powerType":"全部","powerOffArea":"【全线路停电】停1南营内1,1南营内4,保定市好梦林水农业科技有限公司,南营内2,1中林水内2,2南营外23【纯农排变】,1西林水内6,保定市清苑区新华世纪中学,1南营内3,2北营外12【纯农排变】,保定绿视野林业发展有限公司,中林水1号,保定市鸿运秋益建筑安装有限公司,2南营外25【纯农排变】,2北营外10【纯农排变】,2南营外21【纯农排变】,2北营外5【纯农排变】,2北营外11【纯农排变】,2西林水外3【纯农排变】,2南营外14【纯农排变】,2南营外12【纯农排变】,2西林水外10【纯农排变】,2北营外13【纯农排变】,2西林水外8【纯农排变】,南营小学,保定宝钻机械制造有限公司,2北营外14【纯农排变】,西林水安置楼,0668872748-河北建设集团有限公司朝阳大街南延项目经理部-专变-210339870-河北建设集团有限公司朝阳大街南延项目经理部,好梦林水观光大道路灯,2南营外6【纯农排变】,1西林水内5,2林水屯外2【纯农排变】,西林水小学,2南营外26【纯农排变】,清苑县北营新家园钻头厂,2南营外20【纯农排变】,2西顾庄外11【纯农排变】,2南营外16【纯农排变】,宝钻桩孔机械加工厂,2西顾庄外6【纯农排变】,清苑县鑫华钻机厂,2南营外3【纯农排变】,2北营外7【纯农排变】,2西林水外2【纯农排变】,2西顾庄外12【纯农排变】,西林水内1号,2北营外8【纯农排变】,2林水屯外3【纯农排变】,保定市好梦林水农业科技有限公司02,2南营外22【纯农排变】,河北雨农灌溉设备制造有限公司,2南营外24【纯农排变】,西林水内3台区,河北建设集团有限公司,2南营外11【纯农排变】,2南营外5【纯农排变】,2南营外9【纯农排变】,2北营外17【纯农排变】,保定市清苑区新华世纪中学01,1北营内5,张登中学林水分校2,东林水内2,2北营外3【纯农排变】,2西林水外9【纯农排变】,客户投资_1林水屯内2,1东林水内4,2南营外15【纯农排变】,保定市清苑区北店乡东林水小学,2北营外2【纯农排变】,东林水小学,2西顾庄外8【纯农排变】,清苑县鑫隆机械制造有限公司,保定市顺昶水泵制造有限公司,2中林水外3【纯农排变】,2北营外1【纯农排变】,2北营外4【纯农排变】,1南营内8,0550746221-保定市气象局-专变-213875681-保定市气象局,张登中学林水分校1,1北营内6,2西林水外7【纯农排变】,2北营外15【纯农排变】,东林水内1号,西林水内2,2南营外10【纯农排变】,2南营外18【纯农排变】,保定市好梦林水农业科技有限公司01,2西林水外6【纯农排变】,2北营外9【纯农排变】,2南营外7【纯农排变】,2西林水外1【纯农排变】,1南营内7,2西顾庄外9【纯农排变】,1南营内9,1南营内5,2东林水外1【纯农排变】,2南营外19【纯农排变】,2南营外8【纯农排变】,1北营内1,河北北工特机械科技有限公司,林水屯内1,1南营内6,辛庄外4【纯农排变】,北营内3,2南营外4【纯农排变】,1北营内7,北营内2号,2西顾庄外5【纯农排变】,客户投资_1北营内4,2南营外17【纯农排变】,西林水中学,清苑县鑫洋钻机厂,2中林水外2【纯农排变】,2西林水外5【纯农排变】,2西林水外4【纯农排变】,1东林水内5,2北营外6【纯农排变】,清苑县金顺钻头门市部,西林水内4台区,北蛮营幼儿园,2北营外16【纯农排变】,2北营外18【纯农排变】,2南营外13【纯农排变】","powerOffReason":"【停电原因】由于主干１１０号杆南分支１７号杆西分支１号杆分支１号杆金顺钻头门市部跌落烧导致１１０ＫＶ中冉变电站１０ＫＶ南营线５１１线路全线停电 【变更送电】因抢修进度加快原因，送电时间由２３：５９变更为１９：００ 【发布渠道】通过９５５９８发布","powerOffId":"2019111713000237"},{"poweroffId":2019111713000231,"sgpoweroffId":null,"subsName":"","lineName":"蟒栏线513","pubTranName":"浦大石1346变压器,大岭口5117变压器,双岭沟1349变压器,莽栏村1354变压器,刘家沟1352变压器,上马石1356变压器,杨家台5116变压器,莽栏3310变压器,下柳树沟1383变压器,上柳树沟1348变压器,王支1344变压器,杨家台1350变压器,大岭口1341变压器,蟒拦5058变压器,大石沟1343变压器,刘家沟门1386变压器,虎峪村1357变压器,草庄台1340变压器,伟模沟门1278变压器,王支村西公用4020变压器,伟模村1347变压器,","scope":"【影响街道/乡镇】石门乡、范家庄乡【高危重要客户】无【影响客户】刘家沟、王支村、下柳树沟、大岭口、刘家沟门、草庄台、双良沟村、伟模村、铺大石、上马石、虎峪、杨家台、大石沟、伟模沟门、蟒栏、上柳树沟","startTime":"2019-11-17 17:32:49","stopDate":"2019-11-17 22:00:00","orgNo":"1340622","typeCode":"电网故障停限电","poweroffArea":"【全线路停电】停草庄台1340变压器,大岭口1341变压器,大岭口5117变压器,大石沟1343变压器,虎峪村1357变压器,刘家沟1352变压器,刘家沟门1386变压器,下柳树沟1383变压器,上柳树沟1348变压器,莽栏3310变压器,莽栏村1354变压器,蟒拦5058变压器,浦大石1346变压器,上马石1356变压器,双岭沟1349变压器,王支1344变压器,王支村西公用4020变压器,伟模村1347变压器,伟模沟门1278变压器,杨家台1350变压器,杨家台5116变压器","poweroffReason":"【停电原因】由于线路掉闸导致３５ＫＶ石门变电站蟒栏线５１３线路全线停电【变更送电】因抢修进度加快原因，送电时间由１８日０９：００变更为１７日２２：００【发布渠道】通过９５５９８发布","powerTime":"2019-11-17 21:20:52","powerComm":"已送电","subsNo":"","lineNo":"","tgNo":"","tgName":null,"infoStatus":"1","orgName":"国网唐县供电公司","typeName":null,"infoStatusName":null,"dateDay":null,"orgNos":null,"nowTime":null,"countyName":null,"streetName":null,"villageName":null,"roadName":null,"communityName":null,"tranName":null,"sdLineName":null,"cityCode":"1340622","cityName":"国网唐县供电公司","provinceCode":null,"stopTime":"2019-11-17 22:00:00","powerType":"全部","powerOffArea":"【全线路停电】停草庄台1340变压器,大岭口1341变压器,大岭口5117变压器,大石沟1343变压器,虎峪村1357变压器,刘家沟1352变压器,刘家沟门1386变压器,下柳树沟1383变压器,上柳树沟1348变压器,莽栏3310变压器,莽栏村1354变压器,蟒拦5058变压器,浦大石1346变压器,上马石1356变压器,双岭沟1349变压器,王支1344变压器,王支村西公用4020变压器,伟模村1347变压器,伟模沟门1278变压器,杨家台1350变压器,杨家台5116变压器","powerOffReason":"【停电原因】由于线路掉闸导致３５ＫＶ石门变电站蟒栏线５１３线路全线停电【变更送电】因抢修进度加快原因，送电时间由１８日０９：００变更为１７日２２：００【发布渠道】通过９５５９８发布","powerOffId":"2019111713000231"},{"poweroffId":2019111713000225,"sgpoweroffId":null,"subsName":"","lineName":"北淇村536","pubTranName":"农|18045【纯农排变】,东步乐村2#|村北,刘家庄村3#|村北,综|18082,东步乐村6#村中（综）,农|18022【纯农排变】,农|18023【纯农排变】,胡庄村1#|村中,林泉村1#|村中,农|18042【纯农排变】,东渭庄村1#|村中,东步乐村7#村南（农）【纯农排变】,东步乐村3#|村东北2号,综|18035,东渭庄村2#|村东,南河北村1#|村北,东步乐村4#村东（综）,刘家庄4#村东（综）【纯农排变】,综|18037,综|18043,农|18046【纯农排变】,综,综|18026,南河北村2#|村南,综|18036,综|18001,刘家庄村2#|村南,北河北村2#|村西,北河北村1#|村中,刘家庄村1#|村中,南河北村4#村东（综）,远台村3#|大峪,综|18021,北河北村西变压器,南淇村1#|村中,综|18031,林泉村8#村南（综）,港里村7#村北（综）,林泉村9#村西（综）,林泉村东变压器,刘家庄村5#村东（农）【纯农排变】,林泉村3#|村西1,农|18034【纯农排变】,港里村6#|村北,远台村9#|大峪东,北河北村3#|村东,综|18029,港里村8#村南（综）,林泉村6#|村东2,","scope":"【影响街道/乡镇】塘湖镇、西山北乡【高危重要客户】无【影响客户】北河北村、东渭庄村、西渭庄村、北淇村、南淇村、刘家庄村、西山北村、塔峪村、沙江村、港里村、远台村、西步乐村、林泉村、南河北村、胡庄村、山西村、东步乐村","startTime":"2019-11-17 17:31:33","stopDate":"2019-11-18 01:30:00","orgNo":"1340625","typeCode":"电网故障停限电","poweroffArea":"【分支停电】停北河北村1#|村中,综|18001,北河北村西变压器,远台村3#|大峪,综|18082,远台村9#|大峪东,农|18088【纯农排变】,东步乐村3#|村东北2号,农|18023【纯农排变】,港里村5#|村西,胡庄村1#|村中,综|18035,林泉村7#|村西2,林泉村1#|村中,综|18036,远台村7#|村北2,林泉村9#村西（综）,南河北村4#村东（综）,南淇村1#|村中,南淇村2#|村西沙江村1#|村中,综|18051,沙江村2#村东（综）,沙江村3#|村西,农|18053,山西村2#村南（农）【纯农排变】,山西村3#|村西,塔峪村2#|村北西山北村8#|村南2,塔峪村1#|村中,西渭庄村3#|村南,农|18078【纯农排变】,远台村1#|村南","poweroffReason":"【停电原因】由于大风天气线夹刮断导致３５ＫＶ步乐变电站北淇村５３６线路０２０号杆至０４８号杆之间停电【变更送电】因抢修进度加快原因，送电时间由０７：００变更为０１：３０【发布渠道】通过９５５９８发布","powerTime":"2019-11-18 01:01:41","powerComm":"已送电","subsNo":"","lineNo":"","tgNo":"","tgName":null,"infoStatus":"1","orgName":"国网易县供电公司","typeName":null,"infoStatusName":null,"dateDay":null,"orgNos":null,"nowTime":null,"countyName":null,"streetName":null,"villageName":null,"roadName":null,"communityName":null,"tranName":null,"sdLineName":null,"cityCode":"1340625","cityName":"国网易县供电公司","provinceCode":null,"stopTime":"2019-11-18 01:30:00","powerType":"全部","powerOffArea":"【分支停电】停北河北村1#|村中,综|18001,北河北村西变压器,远台村3#|大峪,综|18082,远台村9#|大峪东,农|18088【纯农排变】,东步乐村3#|村东北2号,农|18023【纯农排变】,港里村5#|村西,胡庄村1#|村中,综|18035,林泉村7#|村西2,林泉村1#|村中,综|18036,远台村7#|村北2,林泉村9#村西（综）,南河北村4#村东（综）,南淇村1#|村中,南淇村2#|村西沙江村1#|村中,综|18051,沙江村2#村东（综）,沙江村3#|村西,农|18053,山西村2#村南（农）【纯农排变】,山西村3#|村西,塔峪村2#|村北西山北村8#|村南2,塔峪村1#|村中,西渭庄村3#|村南,农|18078【纯农排变】,远台村1#|村南","powerOffReason":"【停电原因】由于大风天气线夹刮断导致３５ＫＶ步乐变电站北淇村５３６线路０２０号杆至０４８号杆之间停电【变更送电】因抢修进度加快原因，送电时间由０７：００变更为０１：３０【发布渠道】通过９５５９８发布","powerOffId":"2019111713000225"},{"poweroffId":2019111713000222,"sgpoweroffId":null,"subsName":"","lineName":"石家庄512","pubTranName":"旺家台3#,六平地村2#,甘河净村3#,张公铺村4#,上卫厂村1#,六平地村3#,旺家台村4#,张公铺村5#,宝石村5#,武家庄村1#,张公铺村3#,旺家台村1#,甘河净村2#,宝石4队,七峪村5#,石家庄村3#,甘河净村1#,张公铺村1#,上卫厂村2#,甘河净8#,下卫厂村3#,六平地村1#,上卫厂村3#,七峪7#变压器,七峪村4#,旺家台村2#,七峪村2#,甘河净5#,下卫厂村1#,下卫厂2#村南,七峪村1#,石家庄村1#,武家庄村2#,","scope":"【影响街道/乡镇】七峪乡、坡仓乡、甘河净乡【高危重要客户】无【影响客户】七峪村、石家庄村、武家庄村、张公铺村、六平地村、上苇场村、下苇场村、宝石村、甘河净村、旺家台村","startTime":"2019-11-17 17:28:58","stopDate":"2019-11-17 23:50:00","orgNo":"1340625","typeCode":"电网故障停限电","poweroffArea":"【分支停电】停上卫厂村2#,下卫厂2#村南,武家庄村2#,上卫厂村3#,旺家台村1#,六平地村2#,六平地村1#,旺家台村4#,甘河净5#,旺家台村2#,下卫厂村3#,宝石村5#,甘河净村1#,七峪村2#,七峪村1#,七峪7#变压器,张公铺村3#,六平地村3#,武家庄村1#,张公铺村1#,下卫厂村1#,甘河净乡政府,七峪村5#,甘河净村3#,宝石4队,甘河净8#,张公铺村4#,石家庄村1#,张公铺村5#,石家庄村3#,上卫厂村1#,王宏远矿山,旺家台3#,七峪村4#,甘河净村2#","poweroffReason":"【停电原因】由于大风天气速断跳闸导致３５ＫＶ甘河净变电站石家庄５１２线路０２０号杆至０３６号杆之间停电【变更送电】无【发布渠道】通过９５５９８发布","powerTime":"2019-11-17 23:20:32","powerComm":"已送电","subsNo":"","lineNo":"","tgNo":"","tgName":null,"infoStatus":"1","orgName":"国网易县供电公司","typeName":null,"infoStatusName":null,"dateDay":null,"orgNos":null,"nowTime":null,"countyName":null,"streetName":null,"villageName":null,"roadName":null,"communityName":null,"tranName":null,"sdLineName":null,"cityCode":"1340625","cityName":"国网易县供电公司","provinceCode":null,"stopTime":"2019-11-17 23:50:00","powerType":"全部","powerOffArea":"【分支停电】停上卫厂村2#,下卫厂2#村南,武家庄村2#,上卫厂村3#,旺家台村1#,六平地村2#,六平地村1#,旺家台村4#,甘河净5#,旺家台村2#,下卫厂村3#,宝石村5#,甘河净村1#,七峪村2#,七峪村1#,七峪7#变压器,张公铺村3#,六平地村3#,武家庄村1#,张公铺村1#,下卫厂村1#,甘河净乡政府,七峪村5#,甘河净村3#,宝石4队,甘河净8#,张公铺村4#,石家庄村1#,张公铺村5#,石家庄村3#,上卫厂村1#,王宏远矿山,旺家台3#,七峪村4#,甘河净村2#","powerOffReason":"【停电原因】由于大风天气速断跳闸导致３５ＫＶ甘河净变电站石家庄５１２线路０２０号杆至０３６号杆之间停电【变更送电】无【发布渠道】通过９５５９８发布","powerOffId":"2019111713000222"},{"poweroffId":2019111713000221,"sgpoweroffId":null,"subsName":"","lineName":"10kV七里铺540线","pubTranName":"七里铺内中1,七里铺内中2配变,七里铺内西2号,七里铺内东1,7里铺最西,七里铺村内西,七里铺村内1,七里铺内西3配变,七里铺内西4配变,七里铺内东2配变,七里铺村内2配变,","scope":"【影响街道/乡镇】固店镇 【高危重要客户】无　　 【影响客户】七里铺","startTime":"2019-11-17 17:30:17","stopDate":"2019-11-17 20:30:00","orgNo":"1340623","typeCode":"电网故障停限电","poweroffArea":"【全线路停电】停七里铺村内2配变,七里铺内中2配变,七里铺内西2号,七里铺内东1,7里铺最西,七里铺村内西,七里铺村内1,七里铺内西3配变,七里铺内中1,七里铺内西4配变,七里铺内东2配变","poweroffReason":"【停电原因】由于过流Ｉ段跳闸导致２２０ＫＶ固店变电站１０ＫＶ七里铺５４０线路全线路停电 【变更送电】因抢修进度加快原因，送电时间由２３：３０变更为２０：３０ 【发布渠道】通过９５５９８发布","powerTime":"2019-11-17 19:51:00","powerComm":"已送电","subsNo":"","lineNo":"","tgNo":"","tgName":null,"infoStatus":"1","orgName":"国网望都县供电公司","typeName":null,"infoStatusName":null,"dateDay":null,"orgNos":null,"nowTime":null,"countyName":null,"streetName":null,"villageName":null,"roadName":null,"communityName":null,"tranName":null,"sdLineName":null,"cityCode":"1340623","cityName":"国网望都县供电公司","provinceCode":null,"stopTime":"2019-11-17 20:30:00","powerType":"全部","powerOffArea":"【全线路停电】停七里铺村内2配变,七里铺内中2配变,七里铺内西2号,七里铺内东1,7里铺最西,七里铺村内西,七里铺村内1,七里铺内西3配变,七里铺内中1,七里铺内西4配变,七里铺内东2配变","powerOffReason":"【停电原因】由于过流Ｉ段跳闸导致２２０ＫＶ固店变电站１０ＫＶ七里铺５４０线路全线路停电 【变更送电】因抢修进度加快原因，送电时间由２３：３０变更为２０：３０ 【发布渠道】通过９５５９８发布","powerOffId":"2019111713000221"}],"pageModel":{"pageNow":373,"totalCount":10973,"totalPage":1098,"tableRows":0,"pageCount":10,"beginCount":3720},"isExperi":"1"}