{"message":"","today":"2020-06-15","seleList":[{"poweroffId":2019111321000029,"sgpoweroffId":null,"subsName":"","lineName":"10kV薛留营站520线路","pubTranName":"B085柱上变压器,","scope":"【影响街道/乡镇】北市区花园街、百花路 【高危重要客户】无 【影响客户】花椒园邮电宿舍、花椒园小区、东风桥新市场","startTime":"2019-11-13 10:30:00","stopDate":"2019-11-13 16:30:00","orgNo":"13406","typeCode":"电网故障停限电","poweroffArea":"【单台区停电】停B085柱上变压器","poweroffReason":"【停电原因】由于低压保险片烧导致１０ＫＶ薛留营变电站５２０线路Ｂ０８５公变台区停电【变更送电】因抢修进度加快，原定１８:００送电现计划１６:３０送电【发布渠道】通过９５５９８发布","powerTime":"2019-11-13 16:17:36","powerComm":"已送电","subsNo":"","lineNo":"","tgNo":"","tgName":null,"infoStatus":"1","orgName":"保定供电公司","typeName":null,"infoStatusName":null,"dateDay":null,"orgNos":null,"nowTime":null,"countyName":null,"streetName":null,"villageName":null,"roadName":null,"communityName":null,"tranName":null,"sdLineName":null,"cityCode":"13406","cityName":"保定供电公司","provinceCode":null,"stopTime":"2019-11-13 16:30:00","powerType":"全部","powerOffArea":"【单台区停电】停B085柱上变压器","powerOffReason":"【停电原因】由于低压保险片烧导致１０ＫＶ薛留营变电站５２０线路Ｂ０８５公变台区停电【变更送电】因抢修进度加快，原定１８:００送电现计划１６:３０送电【发布渠道】通过９５５９８发布","powerOffId":"2019111321000029"},{"poweroffId":2019111313000725,"sgpoweroffId":null,"subsName":"","lineName":"10kV东文山517","pubTranName":"北七山村南变压器【冬季供暖设施】,","scope":"【影响街道/乡镇】东文山乡 【高危重要客户】无 【影响客户】北七山村","startTime":"2019-11-13 18:50:11","stopDate":"2019-11-13 21:00:00","orgNo":"1340614","typeCode":"电网故障停限电","poweroffArea":"【单台区停电】停北七山村南变压器【冬季供暖设施】","poweroffReason":"【停电原因】由于空开烧毁导致１１０ＫＶ涞水变电站１０ＫＶ东文山５１７线路北七山村南公变台区停电 【变更送电】因抢修进度加快原因，送电时间由２２：００变更为２１：００ 【发布渠道】通过９５５９８发布","powerTime":"2019-11-13 20:26:44","powerComm":"已送电","subsNo":"","lineNo":"","tgNo":"","tgName":null,"infoStatus":"1","orgName":"国网涞水县供电公司","typeName":null,"infoStatusName":null,"dateDay":null,"orgNos":null,"nowTime":null,"countyName":null,"streetName":null,"villageName":null,"roadName":null,"communityName":null,"tranName":null,"sdLineName":null,"cityCode":"1340614","cityName":"国网涞水县供电公司","provinceCode":null,"stopTime":"2019-11-13 21:00:00","powerType":"全部","powerOffArea":"【单台区停电】停北七山村南变压器【冬季供暖设施】","powerOffReason":"【停电原因】由于空开烧毁导致１１０ＫＶ涞水变电站１０ＫＶ东文山５１７线路北七山村南公变台区停电 【变更送电】因抢修进度加快原因，送电时间由２２：００变更为２１：００ 【发布渠道】通过９５５９８发布","powerOffId":"2019111313000725"},{"poweroffId":2019111313000692,"sgpoweroffId":null,"subsName":"","lineName":"10kV516朱家峪线","pubTranName":"0000005945朱家峪道西变压器,0000005196朱家峪道北变压器,灵山供电所统管变压器,0014334946朱家峪大道北2区变压器,","scope":"【影响街道/乡镇】灵山镇【高危重要客户】无【影响客户】朱家峪道北、朱家峪道西、灵山供电所","startTime":"2019-11-13 18:40:00","stopDate":"2019-11-14 06:40:00","orgNo":"1340619","typeCode":"其他临时停电","poweroffArea":"【全线路停电】停大桥厂,0000005945朱家峪道西变压器,0000005196朱家峪道北变压器,灵山供电所统管变压器,0014334946朱家峪大道北2区变压器","poweroffReason":"【停电原因】由于站内开关的操作机构严重缺陷，需停电进行紧急消缺导致３５ＫＶ灵山变电站１０ＫＶ５１６朱家峪线路全线停电【变更送电】因工作进度加快原因，送电时间由０９：００变更为０６：４０【发布渠道】通过９５５９８发布","powerTime":"2019-11-14 06:11:22","powerComm":"已送电","subsNo":"","lineNo":"","tgNo":"","tgName":null,"infoStatus":"1","orgName":"国网曲阳县供电公司","typeName":null,"infoStatusName":null,"dateDay":null,"orgNos":null,"nowTime":null,"countyName":null,"streetName":null,"villageName":null,"roadName":null,"communityName":null,"tranName":null,"sdLineName":null,"cityCode":"1340619","cityName":"国网曲阳县供电公司","provinceCode":null,"stopTime":"2019-11-14 06:40:00","powerType":"全部","powerOffArea":"【全线路停电】停大桥厂,0000005945朱家峪道西变压器,0000005196朱家峪道北变压器,灵山供电所统管变压器,0014334946朱家峪大道北2区变压器","powerOffReason":"【停电原因】由于站内开关的操作机构严重缺陷，需停电进行紧急消缺导致３５ＫＶ灵山变电站１０ＫＶ５１６朱家峪线路全线停电【变更送电】因工作进度加快原因，送电时间由０９：００变更为０６：４０【发布渠道】通过９５５９８发布","powerOffId":"2019111313000692"},{"poweroffId":2019111313000678,"sgpoweroffId":null,"subsName":"","lineName":"10kV514齐古庄线","pubTranName":"0000005837崔古庄大道2变压器,0012446341小赤涧统管副业2变压器,0012876927小赤涧村南2变压器,小赤涧村4区变压器,0014094445洼子西南区,0013170422崔古庄村西变压器,0014094448崔古庄西北区变压器,0012114553洼子北变压器,0012114553南家庄统管副业2变压器,0000006280崔古庄大道3变压器,0000005160崔古庄村变压器,0012892438大赤涧中区变压器,0012330752郭家庄村西变压器,魏古庄村2变压器,0014308729魏古庄西区变压器,0000005154洼子1,洼子小学变压器,0012196668小赤涧村南变压器,0000005155西坡村变压器,魏古庄小学变压器,0000005165小赤涧村变压器,0014094447大赤涧村2变压器,0012332339魏古庄南区变压器,0013222380西坡东区变压器,洼子幼儿园变压器,崔古庄小学变压器,0000006578崔古庄农灌变压器,小赤涧小学变压器,0012329837洼子3变压器,洼子4区变压器,0000005158大赤涧村变压器,0012914905朱家峪大道南3变压器,小赤涧村北变压器,崔古庄村2变压器,0012332338大赤涧南区,0014094451崔古庄东南区变压器,0012330753小赤涧村2区变压器,0012892436小赤涧西2区变压器,0012447234崔古庄村北变压器,0000006785大赤涧东区变压器,0000005156魏古庄变压器,0012446339崔古庄大道4变压器,0000006266小赤涧西区变压器,0014094443朱家峪大道南4变压器,0000007228大赤涧西区变压器,0000006695小赤涧村统管副业变压器,洼子村2区,0012330754崔古庄村南变压器,小赤涧东变压器,0012301581西坡南变压器,0000005161崔古庄大道1变压器,","scope":"【影响街道/乡镇】灵山镇【高危重要客户】无【影响客户】小赤涧村、大赤涧村、委古庄村、西坡村、洼子村、崔古庄、南家庄统管副业、郭家庄村、朱家裕、灵山","startTime":"2019-11-13 18:30:00","stopDate":"2019-11-14 06:40:00","orgNo":"1340619","typeCode":"其他临时停电","poweroffArea":"【全线路停电】停0014308729魏古庄西区变压器,小赤涧村4区变压器,曲阳县亿泰商砼有限公司变压器,0014094445洼子西南区,0013170422崔古庄村西变压器,曲阳县崔古庄石料厂（2）,曲阳县崔古庄民航石料厂4,0014094448崔古庄西北区变压器,曲阳县瑞玉建材销售部变压器,民航石子厂（2）,曲阳县三联石渣厂,0012114553洼子北变压器,0012114553南家庄统管副业2变压器,0000006280崔古庄大道3变压器,0000005160崔古庄村变压器,0012892438大赤涧中区变压器,0012330752郭家庄村西变压器,魏古庄村2变压器,崔古庄民航石子厂,洼子小学变压器,0000005165小赤涧村变压器,0012332339魏古庄南区变压器,0013222380西坡东区变压器,洼子幼儿园变压器,曲阳县崔古庄石料厂（1）,0012329837洼子3变压器,曲阳县第二石渣厂,0012914905朱家峪大道南3变压器,崔古庄村2变压器,0012332338大赤涧南区,0000005154洼子1,曲阳县洼子养殖技术专业合作社变压器,0012196668小赤涧村南变压器,0000005155西坡村变压器,崔古庄小学变压器,小赤涧水井,魏古庄小学变压器,0014094447大赤涧村2变压器,大赤涧水井,河北月明山建材集团有限公司变压器,0000006578崔古庄农灌变压器,小赤涧小学变压器,曲阳县崔古庄民航石子厂变压器,洼子4区变压器,0000005158大赤涧村变压器,小赤涧村北变压器,崔古庄石料厂（3）,曲阳县崔会杰石子厂变压器,0000005837崔古庄大道2变压器,0012446341小赤涧统管副业2变压器,曲阳县瑞华建材经销处变压器,0012446339崔古庄大道4变压器,民航石子厂（3）,曲阳县崔古庄石料厂(4),0000005161崔古庄大道1变压器,0000006266小赤涧西区变压器,0014094443朱家峪大道南4变压器,0000007228大赤涧西区变压器,曲阳县崔古庄民航石子厂第一分厂变压器,0000006695小赤涧村统管副业变压器,洼子村2区,曲阳县开拓石籽厂,曲阳县开拓石籽厂2#,小赤涧东变压器,0012301581西坡南变压器,0014094451崔古庄东南区变压器,0012330753小赤涧村2区变压器,0012892436小赤涧西2区变压器,0012447234崔古庄村北变压器,曲阳县崔古庄民航石子厂变压器001,0000006785大赤涧东区变压器,0000005156魏古庄变压器,0012876927小赤涧村南2变压器,0012330754崔古庄村南变压器","poweroffReason":"【停电原因】由于站内开关的操作机构严重缺陷，需停电进行紧急消缺导致３５ＫＶ灵山变电站１０ＫＶ５１４齐古庄线路全线停电【变更送电】因工作进度加快原因，送电时间由０９：００变更为０６：４０【发布渠道】通过９５５９８发布","powerTime":"2019-11-14 06:14:06","powerComm":"已送电","subsNo":"","lineNo":"","tgNo":"","tgName":null,"infoStatus":"1","orgName":"国网曲阳县供电公司","typeName":null,"infoStatusName":null,"dateDay":null,"orgNos":null,"nowTime":null,"countyName":null,"streetName":null,"villageName":null,"roadName":null,"communityName":null,"tranName":null,"sdLineName":null,"cityCode":"1340619","cityName":"国网曲阳县供电公司","provinceCode":null,"stopTime":"2019-11-14 06:40:00","powerType":"全部","powerOffArea":"【全线路停电】停0014308729魏古庄西区变压器,小赤涧村4区变压器,曲阳县亿泰商砼有限公司变压器,0014094445洼子西南区,0013170422崔古庄村西变压器,曲阳县崔古庄石料厂（2）,曲阳县崔古庄民航石料厂4,0014094448崔古庄西北区变压器,曲阳县瑞玉建材销售部变压器,民航石子厂（2）,曲阳县三联石渣厂,0012114553洼子北变压器,0012114553南家庄统管副业2变压器,0000006280崔古庄大道3变压器,0000005160崔古庄村变压器,0012892438大赤涧中区变压器,0012330752郭家庄村西变压器,魏古庄村2变压器,崔古庄民航石子厂,洼子小学变压器,0000005165小赤涧村变压器,0012332339魏古庄南区变压器,0013222380西坡东区变压器,洼子幼儿园变压器,曲阳县崔古庄石料厂（1）,0012329837洼子3变压器,曲阳县第二石渣厂,0012914905朱家峪大道南3变压器,崔古庄村2变压器,0012332338大赤涧南区,0000005154洼子1,曲阳县洼子养殖技术专业合作社变压器,0012196668小赤涧村南变压器,0000005155西坡村变压器,崔古庄小学变压器,小赤涧水井,魏古庄小学变压器,0014094447大赤涧村2变压器,大赤涧水井,河北月明山建材集团有限公司变压器,0000006578崔古庄农灌变压器,小赤涧小学变压器,曲阳县崔古庄民航石子厂变压器,洼子4区变压器,0000005158大赤涧村变压器,小赤涧村北变压器,崔古庄石料厂（3）,曲阳县崔会杰石子厂变压器,0000005837崔古庄大道2变压器,0012446341小赤涧统管副业2变压器,曲阳县瑞华建材经销处变压器,0012446339崔古庄大道4变压器,民航石子厂（3）,曲阳县崔古庄石料厂(4),0000005161崔古庄大道1变压器,0000006266小赤涧西区变压器,0014094443朱家峪大道南4变压器,0000007228大赤涧西区变压器,曲阳县崔古庄民航石子厂第一分厂变压器,0000006695小赤涧村统管副业变压器,洼子村2区,曲阳县开拓石籽厂,曲阳县开拓石籽厂2#,小赤涧东变压器,0012301581西坡南变压器,0014094451崔古庄东南区变压器,0012330753小赤涧村2区变压器,0012892436小赤涧西2区变压器,0012447234崔古庄村北变压器,曲阳县崔古庄民航石子厂变压器001,0000006785大赤涧东区变压器,0000005156魏古庄变压器,0012876927小赤涧村南2变压器,0012330754崔古庄村南变压器","powerOffReason":"【停电原因】由于站内开关的操作机构严重缺陷，需停电进行紧急消缺导致３５ＫＶ灵山变电站１０ＫＶ５１４齐古庄线路全线停电【变更送电】因工作进度加快原因，送电时间由０９：００变更为０６：４０【发布渠道】通过９５５９８发布","powerOffId":"2019111313000678"},{"poweroffId":2019111313000663,"sgpoweroffId":null,"subsName":"","lineName":"候陀线560","pubTranName":"南高岭内东混,野场内东混,候陀西南混配变,候陀东南混配变,安乐庄村内混,天寺台内混配变,安乐庄内东1号混配变,天寺台内东混,候陀西北混配变,南高岭村内混,安乐庄西混,安乐庄内东（内混）,安乐庄村光伏村北配变,安乐庄村光伏村内配变,南高岭北混,候陀村北饭店混,南高岭小村混,候陀村内南混,候陀村内北混,侯陀饭店西,天寺台内西混,候陀村内混,","scope":"【影响街道/乡镇】高岭乡　 【高危重要客户】无　　 【影响客户】安乐庄、天寺台、候陀村、南高岭、野场","startTime":"2019-11-14 01:30:00","stopDate":"2019-11-14 04:30:00","orgNo":"1340623","typeCode":"其他临时停电","poweroffArea":"【全线路停电】停安乐庄村光伏村内配变,南高岭内东混,野场内东混,候陀西南混配变,候陀东南混配变,安乐庄村内混,天寺台内混配变,安乐庄内东1号混配变,天寺台内东混,候陀西北混配变,南高岭村内混,安乐庄西混,安乐庄内东（内混）,安乐庄村光伏村北配变,候陀村内混,南高岭北混,候陀村北饭店混,南高岭小村混,候陀村内南混,候陀村内北混,侯陀饭店西,天寺台内西混","poweroffReason":"【停电原因】由于候陀线５６０线路Ｂ相引线发热，需停电进行紧急消缺导致１１０ＫＶ高岭变电站候陀线５６０线路全线停电 【变更送电】无 【发布渠道】通过９５５９８发布","powerTime":"2019-11-14 04:25:13","powerComm":"已送电","subsNo":"","lineNo":"","tgNo":"","tgName":null,"infoStatus":"1","orgName":"国网望都县供电公司","typeName":null,"infoStatusName":null,"dateDay":null,"orgNos":null,"nowTime":null,"countyName":null,"streetName":null,"villageName":null,"roadName":null,"communityName":null,"tranName":null,"sdLineName":null,"cityCode":"1340623","cityName":"国网望都县供电公司","provinceCode":null,"stopTime":"2019-11-14 04:30:00","powerType":"全部","powerOffArea":"【全线路停电】停安乐庄村光伏村内配变,南高岭内东混,野场内东混,候陀西南混配变,候陀东南混配变,安乐庄村内混,天寺台内混配变,安乐庄内东1号混配变,天寺台内东混,候陀西北混配变,南高岭村内混,安乐庄西混,安乐庄内东（内混）,安乐庄村光伏村北配变,候陀村内混,南高岭北混,候陀村北饭店混,南高岭小村混,候陀村内南混,候陀村内北混,侯陀饭店西,天寺台内西混","powerOffReason":"【停电原因】由于候陀线５６０线路Ｂ相引线发热，需停电进行紧急消缺导致１１０ＫＶ高岭变电站候陀线５６０线路全线停电 【变更送电】无 【发布渠道】通过９５５９８发布","powerOffId":"2019111313000663"},{"poweroffId":2019111313000653,"sgpoweroffId":null,"subsName":"","lineName":"备用553","pubTranName":"四处东配电变,烟草公变,四处西公变,海龙建材城西,高碑店市华宇燃气开发有限公司变压器,","scope":"【影响街道/乡镇】北大街 【高危重要客户】无 【影响客户】海龙建材城、华尊香槟湾小区、南洋小区、和平路四处基地、华宇加气站、烟草","startTime":"2019-11-13 17:37:00","stopDate":"2019-11-13 20:00:00","orgNo":"1340612","typeCode":"其他临时停电","poweroffArea":"【分支停电】停高碑店市华宇燃气开发有限公司变压器,四处东配电变,烟草公变,四处西公变,海龙建材城西","poweroffReason":"【停电原因】由于烟草分支０２号杆设备线夹打火需紧急处理导致１１０ＫＶ方家务变电站１０ＫＶ备用５５３线路０２号断路器以下停电 【变更送电】无 【发布渠道】通过９５５９８发布","powerTime":"2019-11-13 19:20:31","powerComm":"已送电","subsNo":"","lineNo":"","tgNo":"","tgName":null,"infoStatus":"1","orgName":"国网高碑店市供电公司","typeName":null,"infoStatusName":null,"dateDay":null,"orgNos":null,"nowTime":null,"countyName":null,"streetName":null,"villageName":null,"roadName":null,"communityName":null,"tranName":null,"sdLineName":null,"cityCode":"1340612","cityName":"国网高碑店市供电公司","provinceCode":null,"stopTime":"2019-11-13 20:00:00","powerType":"全部","powerOffArea":"【分支停电】停高碑店市华宇燃气开发有限公司变压器,四处东配电变,烟草公变,四处西公变,海龙建材城西","powerOffReason":"【停电原因】由于烟草分支０２号杆设备线夹打火需紧急处理导致１１０ＫＶ方家务变电站１０ＫＶ备用５５３线路０２号断路器以下停电 【变更送电】无 【发布渠道】通过９５５９８发布","powerOffId":"2019111313000653"},{"poweroffId":2019111313000632,"sgpoweroffId":null,"subsName":"","lineName":"10kV517燕川线","pubTranName":"0000005498东燕川村变压器,0012358756西燕川北区变压器,0014453434东燕川东2区,东燕川小学变压器,灵山村庞永好,0012735402悦景家园小区变压器,0000006696南家庄北统管副业变压器,0014442596西燕川中区变压器,西燕川小学变压器2,西燕川水井（2）,0012366280西燕川南区变压器,东燕川水井,0000006698东燕川西变压器,灵山国土所变压器,0000005400西燕川西变变压器,南家庄第二砖厂,西燕川水井（1）,0000006196东燕川东区变压器,西燕川幼儿园变压器,0012892439西燕川西北区变压器,盛达煤厂,","scope":"【影响街道/乡镇】灵山镇【高危重要客户】无【影响客户】西燕川、南家庄北副业、东燕川","startTime":"2019-11-13 17:10:00","stopDate":"2019-11-14 00:00:00","orgNo":"1340619","typeCode":"其他临时停电","poweroffArea":"【全线路停电】停0000005498东燕川村变压器,0012358756西燕川北区变压器,0014453434东燕川东2区,东燕川小学变压器,灵山村庞永好,0012735402悦景家园小区变压器,0000006696南家庄北统管副业变压器,0014442596西燕川中区变压器,西燕川小学变压器2,西燕川水井（2）,0012366280西燕川南区变压器,东燕川水井,0000006698东燕川西变压器,灵山国土所变压器,0000005400西燕川西变变压器,南家庄第二砖厂,西燕川水井（1）,0000006196东燕川东区变压器,西燕川幼儿园变压器,0012892439西燕川西北区变压器,盛达煤厂","poweroffReason":"【停电原因】由于站内开关的操作机构严重缺陷，需停电进行紧急消缺导致３５ＫＶ灵山变电站１０ＫＶ５１７燕川线路全线停电【变更送电】无【发布渠道】通过９５５９８发布","powerTime":"2019-11-13 23:21:40","powerComm":"已送电","subsNo":"","lineNo":"","tgNo":"","tgName":null,"infoStatus":"1","orgName":"国网曲阳县供电公司","typeName":null,"infoStatusName":null,"dateDay":null,"orgNos":null,"nowTime":null,"countyName":null,"streetName":null,"villageName":null,"roadName":null,"communityName":null,"tranName":null,"sdLineName":null,"cityCode":"1340619","cityName":"国网曲阳县供电公司","provinceCode":null,"stopTime":"2019-11-14 00:00:00","powerType":"全部","powerOffArea":"【全线路停电】停0000005498东燕川村变压器,0012358756西燕川北区变压器,0014453434东燕川东2区,东燕川小学变压器,灵山村庞永好,0012735402悦景家园小区变压器,0000006696南家庄北统管副业变压器,0014442596西燕川中区变压器,西燕川小学变压器2,西燕川水井（2）,0012366280西燕川南区变压器,东燕川水井,0000006698东燕川西变压器,灵山国土所变压器,0000005400西燕川西变变压器,南家庄第二砖厂,西燕川水井（1）,0000006196东燕川东区变压器,西燕川幼儿园变压器,0012892439西燕川西北区变压器,盛达煤厂","powerOffReason":"【停电原因】由于站内开关的操作机构严重缺陷，需停电进行紧急消缺导致３５ＫＶ灵山变电站１０ＫＶ５１７燕川线路全线停电【变更送电】无【发布渠道】通过９５５９８发布","powerOffId":"2019111313000632"},{"poweroffId":2019111313000630,"sgpoweroffId":null,"subsName":"","lineName":"兴华516","pubTranName":"老交警队公变,长城啤酒厂公变变压器,高碑店市华夏庄园工程指挥部变压器,高碑店市南大街诚意德饭店变压器,新凯公变,91446部队,交通局,长城啤酒厂1号变压器,华夏庄园变压器,栋梁集团,东马市场2,东马市场新凯用,","scope":"【影响街道/乡镇】１０７国道、南大街、团结西路、益民西路、结美胡同、结安胡同 【高危重要客户】无 【影响客户】燕赵熙府、碧圆华庭、新凯家属楼、交通局家属楼、华夏庄园、交通局、工信局、交警队、老交警平房、长城啤酒厂家属楼（门脸）、盛祥佳苑、东马市场家属楼、栋梁集团、诚意德饭店、９１４４６部队","startTime":"2019-11-14 03:00:00","stopDate":"2019-11-14 06:00:00","orgNo":"1340612","typeCode":"其他临时停电","poweroffArea":"【分支停电】停老交警队公变,长城啤酒厂公变变压器,高碑店市华夏庄园工程指挥部变压器,高碑店市南大街诚意德饭店变压器,新凯公变,91446部队,交通局,长城啤酒厂1号变压器,华夏庄园变压器,栋梁集团,东马市场2,东马市场新凯用","poweroffReason":"【停电原因】由于新凯分支０１号杆弓子线打火需紧急处理导致１１０ＫＶ马庄变电站１０ＫＶ兴华５１６线路０３号断路器以下停电 【变更送电】无 【发布渠道】通过９５５９８发布","powerTime":"2019-11-14 05:04:48","powerComm":"已送电","subsNo":"","lineNo":"","tgNo":"","tgName":null,"infoStatus":"1","orgName":"国网高碑店市供电公司","typeName":null,"infoStatusName":null,"dateDay":null,"orgNos":null,"nowTime":null,"countyName":null,"streetName":null,"villageName":null,"roadName":null,"communityName":null,"tranName":null,"sdLineName":null,"cityCode":"1340612","cityName":"国网高碑店市供电公司","provinceCode":null,"stopTime":"2019-11-14 06:00:00","powerType":"全部","powerOffArea":"【分支停电】停老交警队公变,长城啤酒厂公变变压器,高碑店市华夏庄园工程指挥部变压器,高碑店市南大街诚意德饭店变压器,新凯公变,91446部队,交通局,长城啤酒厂1号变压器,华夏庄园变压器,栋梁集团,东马市场2,东马市场新凯用","powerOffReason":"【停电原因】由于新凯分支０１号杆弓子线打火需紧急处理导致１１０ＫＶ马庄变电站１０ＫＶ兴华５１６线路０３号断路器以下停电 【变更送电】无 【发布渠道】通过９５５９８发布","powerOffId":"2019111313000630"},{"poweroffId":2019111313000601,"sgpoweroffId":null,"subsName":"","lineName":"谢房营523电缆","pubTranName":"谢坊营26号,","scope":"【影响街道/乡镇】遂城镇 【高危重要客户】无 【影响客户】付村、谢坊营村、谢坊村","startTime":"2019-11-13 15:19:01","stopDate":"2019-11-13 16:30:00","orgNo":"1340605","typeCode":"电网故障停限电","poweroffArea":"【全线路停电】停付村10号,谢坊20号【纯农排变】,谢坊16号,谢坊27号,谢坊26号,谢坊营29号,谢坊营27号,谢坊营7号【纯农排变】,谢坊营21号,谢坊营19号,谢坊营4号,谢坊营5号,谢坊营28号,谢坊营3号,谢坊5号,谢坊营24号【纯农排变】,谢坊营17号【纯农排变】,谢坊10号,付村2号,付村4号【纯农排变】,谢坊24号【纯农排变】,付村14号,谢坊23号,谢坊营9号,谢坊2号,付村6号【纯农排变】,谢坊17号【纯农排变】,付村8号【纯农排变】,付村9号【纯农排变】,谢坊14号,谢坊营16号【纯农排变】,谢坊营12号【纯农排变】,谢坊7号,谢坊营1号【纯农排变】,谢坊营18号【纯农排变】,谢坊营8号【纯农排变】,谢坊营23号【纯农排变】,谢坊4号【纯农排变】,付村16台区【纯农排变】,谢坊营10号,谢坊营13号,谢坊营20号,谢坊营15号【纯农排变】,谢坊营14号【纯农排变】,谢坊营25号,谢坊8号,谢坊营26号,谢坊营2号","poweroffReason":"【停电原因】由于Ｂ相接地导致１１０ＫＶ遂城变电站谢房营５２３线路全线停电 【变更送电】因抢修进度加快原因，送电时间由１９:００变更为１６:３０ 【发布渠道】通过９５５９８发布","powerTime":"2019-11-13 15:55:13","powerComm":"已送电","subsNo":"","lineNo":"","tgNo":"","tgName":null,"infoStatus":"1","orgName":"国网徐水县供电公司","typeName":null,"infoStatusName":null,"dateDay":null,"orgNos":null,"nowTime":null,"countyName":null,"streetName":null,"villageName":null,"roadName":null,"communityName":null,"tranName":null,"sdLineName":null,"cityCode":"1340605","cityName":"国网徐水县供电公司","provinceCode":null,"stopTime":"2019-11-13 16:30:00","powerType":"全部","powerOffArea":"【全线路停电】停付村10号,谢坊20号【纯农排变】,谢坊16号,谢坊27号,谢坊26号,谢坊营29号,谢坊营27号,谢坊营7号【纯农排变】,谢坊营21号,谢坊营19号,谢坊营4号,谢坊营5号,谢坊营28号,谢坊营3号,谢坊5号,谢坊营24号【纯农排变】,谢坊营17号【纯农排变】,谢坊10号,付村2号,付村4号【纯农排变】,谢坊24号【纯农排变】,付村14号,谢坊23号,谢坊营9号,谢坊2号,付村6号【纯农排变】,谢坊17号【纯农排变】,付村8号【纯农排变】,付村9号【纯农排变】,谢坊14号,谢坊营16号【纯农排变】,谢坊营12号【纯农排变】,谢坊7号,谢坊营1号【纯农排变】,谢坊营18号【纯农排变】,谢坊营8号【纯农排变】,谢坊营23号【纯农排变】,谢坊4号【纯农排变】,付村16台区【纯农排变】,谢坊营10号,谢坊营13号,谢坊营20号,谢坊营15号【纯农排变】,谢坊营14号【纯农排变】,谢坊营25号,谢坊8号,谢坊营26号,谢坊营2号","powerOffReason":"【停电原因】由于Ｂ相接地导致１１０ＫＶ遂城变电站谢房营５２３线路全线停电 【变更送电】因抢修进度加快原因，送电时间由１９:００变更为１６:３０ 【发布渠道】通过９５５９８发布","powerOffId":"2019111313000601"},{"poweroffId":2019111313000577,"sgpoweroffId":null,"subsName":"","lineName":"大因线513","pubTranName":"龙华1号,大因4号,","scope":"【影响街道/乡镇】大因镇 【高危重要客户】无 【影响客户】龙华、大因、王村、任庄、小桥南路大因小学、大因防陵","startTime":"2019-11-13 09:00:00","stopDate":"2019-11-13 15:00:00","orgNo":"1340605","typeCode":"电网故障停限电","poweroffArea":"【全线路停电】停大因1号,龙华11号【纯农排变】,大因8号,任庄10号,王村10号【纯农排变】,王村11号,王村12号,王村2号,王村4号,王村1号,王村7号,王村8号,王村6号,王村9号,龙华9号【纯农排变】,龙华7号,龙华6号,龙华5号,龙华3号,龙华31号,龙华30号,龙华28号,龙华27号【纯农排变】,龙华18号,龙华26号【纯农排变】,龙华10号,龙华25号,龙华24号【纯农排变】,龙华23号,龙华20号,龙华1号,龙华16号,龙华19号【纯农排变】,龙华15号,龙华14号【纯农排变】,龙华13号,龙华12号,大因政府分箱,大因6号,大因5号,大因4号,大因35号,大因33号,大因2号,大因24号,大因23号,大因22号,大因21号,大因19号,大因17号,大因15号,大因14号","poweroffReason":"【停电原因】由于Ｂ相接地导致３５ＫＶ大因变电站大因线５１３线路全线停电 【变更送电】无 【发布渠道】通过９５５９８发布","powerTime":"2019-11-13 14:48:59","powerComm":"已送电","subsNo":"","lineNo":"","tgNo":"","tgName":null,"infoStatus":"1","orgName":"国网徐水县供电公司","typeName":null,"infoStatusName":null,"dateDay":null,"orgNos":null,"nowTime":null,"countyName":null,"streetName":null,"villageName":null,"roadName":null,"communityName":null,"tranName":null,"sdLineName":null,"cityCode":"1340605","cityName":"国网徐水县供电公司","provinceCode":null,"stopTime":"2019-11-13 15:00:00","powerType":"全部","powerOffArea":"【全线路停电】停大因1号,龙华11号【纯农排变】,大因8号,任庄10号,王村10号【纯农排变】,王村11号,王村12号,王村2号,王村4号,王村1号,王村7号,王村8号,王村6号,王村9号,龙华9号【纯农排变】,龙华7号,龙华6号,龙华5号,龙华3号,龙华31号,龙华30号,龙华28号,龙华27号【纯农排变】,龙华18号,龙华26号【纯农排变】,龙华10号,龙华25号,龙华24号【纯农排变】,龙华23号,龙华20号,龙华1号,龙华16号,龙华19号【纯农排变】,龙华15号,龙华14号【纯农排变】,龙华13号,龙华12号,大因政府分箱,大因6号,大因5号,大因4号,大因35号,大因33号,大因2号,大因24号,大因23号,大因22号,大因21号,大因19号,大因17号,大因15号,大因14号","powerOffReason":"【停电原因】由于Ｂ相接地导致３５ＫＶ大因变电站大因线５１３线路全线停电 【变更送电】无 【发布渠道】通过９５５９８发布","powerOffId":"2019111313000577"}],"pageModel":{"pageNow":380,"totalCount":10973,"totalPage":1098,"tableRows":0,"pageCount":10,"beginCount":3790},"isExperi":"1"}