{"message":"","today":"2020-06-15","seleList":[{"poweroffId":2019111313000552,"sgpoweroffId":null,"subsName":"","lineName":"10kV520辉岭线","pubTranName":"0000005867下岸村变压器,0000005204辉岭村西变压器,郭家庄小学变压器2,0000007207灵山9区变压器,0000005551灵山2区变压器,0000006278朱家峪道南2变压器,0012457070郭家庄南3变压器,灵山小学变压器2,朱家峪东7变压器,0011946487朱家峪北区变压器,0000005206朱家峪南区变压器,灵山医院变压器,灵山中心幼儿园变压器,0000005203辉岭村南变压器,0012457053灵山14区变压器,0000005201郭家庄水井变压器,0012457072郭家庄南4变压器,0000005208朱家峪道南变压器,朱家峪南3变压器,下岸3变压器【光伏】,0000007194朱家峪西3区变压器,辉岭北3变压器,0012891914郭家庄西3区变压器,灵山中心卫生院郭家庄分院变压器,0000005205朱家峪东区变压器,0000005199辉岭村变压器,0000005198灵山12区变压器,0012892411辉岭南2区变压器,朱家峪东9变压器,0000007193朱家峪东3区变压器,0012457425朱家峪西4变压器,0012457051朱家峪东4变压器,灵山地税变压器,灵山28区变压器,朱家峪东6区变压器,0012891907辉岭中区,灵山中学变压器2,0000006330朱家峪西2变压器,0012457064郭家庄中2变压器,0000005552灵山7区变压器,0000007208下岸村2,0000006294朱家峪东2变压器,朱家峪西5变压器,0000006138下岸统管副业变压器,0000005556灵山6区变压器,0012457431郭家庄西2变压器,辉岭西1变压器,灵山24区变压器,0000005836郭家庄南区(2#)变压器,0012891905郭家庄南5区变压器,0000005202郭家庄村北变压器,0000005557灵山4区变压器,0000006499辉岭北2区变压器,0012470873郭家庄东北变压器,灵山中学变压器1,辉岭南3变压器,0000006106灵山10区变压器,朱家峪小学变压器,0000005549灵山8区变压器,朱家峪东8变压器,灵山中学变压器3,0000005200郭家庄村中变压器,0000006778朱家峪南2区变压器,辉岭小学变压器,0012359268灵山15区变压器,朱家峪幼儿园变压器,0012742945辉岭村东变变压器,0000005550灵山1区变压器,灵山23区变压器,灵山小学变压器1,0000005325郭家庄村南变压器,0000005207朱家峪中西变压器,","scope":"【影响街道/乡镇】灵山镇【高危重要客户】无【影响客户】辉岭、朱家峪、郭家庄、灵山、下岸","startTime":"2019-11-13 14:13:00","stopDate":"2019-11-14 06:50:00","orgNo":"1340619","typeCode":"电网故障停限电","poweroffArea":"【全线路停电】停灵山23区变压器,0012742945辉岭村东变变压器,0000005550灵山1区变压器,0000006330朱家峪西2变压器,0012457064郭家庄中2变压器,0000005552灵山7区变压器,0000007208下岸村2,0000006294朱家峪东2变压器,朱家峪西5变压器,0000006138下岸统管副业变压器,0000005556灵山6区变压器,0012457431郭家庄西2变压器,辉岭西1变压器,灵山24区变压器,0000005836郭家庄南区(2#)变压器,0012891905郭家庄南5区变压器,0000005202郭家庄村北变压器,0000005557灵山4区变压器,0000006499辉岭北2区变压器,0000007207灵山9区变压器,灵山小学变压器1,0000005325郭家庄村南变压器,0000005207朱家峪中西变压器,0000005867下岸村变压器,0000005204辉岭村西变压器,郭家庄小学变压器2,0000005551灵山2区变压器,0000006278朱家峪道南2变压器,0012457070郭家庄南3变压器,灵山小学变压器2,朱家峪东7变压器,0011946487朱家峪北区变压器,0012457051朱家峪东4变压器,灵山地税变压器,灵山28区变压器,朱家峪东6区变压器,0012891907辉岭中区,灵山中学变压器2,0000005206朱家峪南区变压器,灵山医院变压器,灵山中心幼儿园变压器,0012892411辉岭南2区变压器,朱家峪东9变压器,0000007193朱家峪东3区变压器,0000005203辉岭村南变压器,0012457053灵山14区变压器,0000005201郭家庄水井变压器,0012457072郭家庄南4变压器,0000005208朱家峪道南变压器,朱家峪南3变压器,下岸3变压器【光伏】,0000007194朱家峪西3区变压器,辉岭北3变压器,0012891914郭家庄西3区变压器,灵山中心卫生院郭家庄分院变压器,0000005205朱家峪东区变压器,0000005199辉岭村变压器,0000005198灵山12区变压器,灵山中学变压器1,辉岭南3变压器,0000006106灵山10区变压器,朱家峪小学变压器,0000005549灵山8区变压器,朱家峪东8变压器,灵山中学变压器3,0012457425朱家峪西4变压器,0012470873郭家庄东北变压器,0000005200郭家庄村中变压器,0000006778朱家峪南2区变压器,辉岭小学变压器,0012359268灵山15区变压器,朱家峪幼儿园变压器","poweroffReason":"【停电原因】由于站内开关烧坏导致３５ＫＶ灵山变电站１０ＫＶ５２０辉岭线路全线停电【变更送电】因抢修进度加快原因，送电时间由０９：００变更为０６：５０【发布渠道】通过９５５９８发布","powerTime":"2019-11-14 06:18:46","powerComm":"已送电","subsNo":"","lineNo":"","tgNo":"","tgName":null,"infoStatus":"1","orgName":"国网曲阳县供电公司","typeName":null,"infoStatusName":null,"dateDay":null,"orgNos":null,"nowTime":null,"countyName":null,"streetName":null,"villageName":null,"roadName":null,"communityName":null,"tranName":null,"sdLineName":null,"cityCode":"1340619","cityName":"国网曲阳县供电公司","provinceCode":null,"stopTime":"2019-11-14 06:50:00","powerType":"全部","powerOffArea":"【全线路停电】停灵山23区变压器,0012742945辉岭村东变变压器,0000005550灵山1区变压器,0000006330朱家峪西2变压器,0012457064郭家庄中2变压器,0000005552灵山7区变压器,0000007208下岸村2,0000006294朱家峪东2变压器,朱家峪西5变压器,0000006138下岸统管副业变压器,0000005556灵山6区变压器,0012457431郭家庄西2变压器,辉岭西1变压器,灵山24区变压器,0000005836郭家庄南区(2#)变压器,0012891905郭家庄南5区变压器,0000005202郭家庄村北变压器,0000005557灵山4区变压器,0000006499辉岭北2区变压器,0000007207灵山9区变压器,灵山小学变压器1,0000005325郭家庄村南变压器,0000005207朱家峪中西变压器,0000005867下岸村变压器,0000005204辉岭村西变压器,郭家庄小学变压器2,0000005551灵山2区变压器,0000006278朱家峪道南2变压器,0012457070郭家庄南3变压器,灵山小学变压器2,朱家峪东7变压器,0011946487朱家峪北区变压器,0012457051朱家峪东4变压器,灵山地税变压器,灵山28区变压器,朱家峪东6区变压器,0012891907辉岭中区,灵山中学变压器2,0000005206朱家峪南区变压器,灵山医院变压器,灵山中心幼儿园变压器,0012892411辉岭南2区变压器,朱家峪东9变压器,0000007193朱家峪东3区变压器,0000005203辉岭村南变压器,0012457053灵山14区变压器,0000005201郭家庄水井变压器,0012457072郭家庄南4变压器,0000005208朱家峪道南变压器,朱家峪南3变压器,下岸3变压器【光伏】,0000007194朱家峪西3区变压器,辉岭北3变压器,0012891914郭家庄西3区变压器,灵山中心卫生院郭家庄分院变压器,0000005205朱家峪东区变压器,0000005199辉岭村变压器,0000005198灵山12区变压器,灵山中学变压器1,辉岭南3变压器,0000006106灵山10区变压器,朱家峪小学变压器,0000005549灵山8区变压器,朱家峪东8变压器,灵山中学变压器3,0012457425朱家峪西4变压器,0012470873郭家庄东北变压器,0000005200郭家庄村中变压器,0000006778朱家峪南2区变压器,辉岭小学变压器,0012359268灵山15区变压器,朱家峪幼儿园变压器","powerOffReason":"【停电原因】由于站内开关烧坏导致３５ＫＶ灵山变电站１０ＫＶ５２０辉岭线路全线停电【变更送电】因抢修进度加快原因，送电时间由０９：００变更为０６：５０【发布渠道】通过９５５９８发布","powerOffId":"2019111313000552"},{"poweroffId":2019111313000545,"sgpoweroffId":null,"subsName":"","lineName":"兰沟564","pubTranName":"新巨兰沟光11【煤改电】,新巨兰沟光8【煤改电】,常家营光1,王兰沟光2,焦兰沟光5,巨兰沟村光3,新王兰沟光2【2018年重过载】,新常家营光2【2018年重过载】,高兰沟光3,高兰沟光2,新巨兰沟光4【煤改电】,新王兰沟光1,尹黄营光2,新巨兰沟光5【煤改电】,焦兰沟光2,刘兰沟光2,高兰沟光1,夏家营排5【纯农排变】,新巨兰沟光7【煤改电】,王兰沟光3,焦兰沟光4,新巨兰沟光1【煤改电】,新巨兰沟光2【煤改电】,刘兰沟光1,新巨兰沟光3【煤改电】,","scope":"【影响街道/乡镇】小朱庄乡 【高危重要客户】无 【影响客户】夏家营部分用户、高兰沟部分用户、焦兰沟部分用户、尹黄营、常家营、巨兰沟部分用户、刘兰沟部分用户、王兰沟部分用户","startTime":"2019-11-13 14:14:13","stopDate":"2019-11-13 16:00:00","orgNo":"1340609","typeCode":"电网故障停限电","poweroffArea":"【全线路停电】停尹黄营排3【纯农排变】,高兰沟光4,王兰沟光2,尹黄营排1【纯农排变】,巨兰沟排7【纯农排变】,夏家营小学-160,夏家营光3,焦兰沟光6,0695365314-定兴县高兰沟幼儿园-专变-239160117-50,新高兰沟光3【2018年重过载】,常家营光4,新巨兰沟光11【煤改电】,新巨兰沟光8【煤改电】,常家营光1,刘兰沟排5【纯农排变】,焦兰沟光5,新巨兰沟光7【煤改电】,巨兰沟村光3,新常家营光2【2018年重过载】,焦兰沟光1,高兰沟光3,高兰沟光2,新巨兰沟光4【煤改电】,常家营排2【纯农排变】,焦兰沟排1【纯农排变】,新王兰沟光5【2018年重过载】,焦兰沟排5【纯农排变】,高兰沟光6,新王兰沟光1,王兰沟排6【纯农排变】,新巨兰沟光3【煤改电】,尹黄营光1,夏家营光1,焦兰沟光2,变压器,尹黄营排2【纯农排变】,焦兰沟光3,尹黄营光2,刘兰沟光2,夏家营排2【纯农排变】,高兰沟光1,夏家营排5【纯农排变】,刘兰沟光3,王兰沟光4,0011688799刘兰沟机站,焦兰沟排4【纯农排变】,新巨兰沟光5【煤改电】,0011688784*巨兰沟面粉厂,王兰沟光3,常家营排1【纯农排变】,新巨兰沟光2【煤改电】,尹黄营排4【纯农排变】,兰沟小学-630,0696769377-定兴县小朱庄焦兰沟小学-专变-240815690-160,常家营排3【纯农排变】,双龙新型建材,王兰沟排4【纯农排变】,焦兰沟光4,高兰沟光5,王兰沟排5【纯农排变】,新王兰沟光2【2018年重过载】,新巨兰沟光1【煤改电】,刘兰沟光1,刘兰沟光4","poweroffReason":"【停电原因】由于用户施工挖断尹黄营排１低压电缆导致１１０ＫＶ小朱庄变电站兰沟线５６４线路全线停电 【变更送电】因抢修进度加快原因，送电时间由１９：００变更为１６：００ 【发布渠道】通过９５５９８发布","powerTime":"2019-11-13 15:11:12","powerComm":"已送电","subsNo":"","lineNo":"","tgNo":"","tgName":null,"infoStatus":"1","orgName":"国网定兴县供电公司","typeName":null,"infoStatusName":null,"dateDay":null,"orgNos":null,"nowTime":null,"countyName":null,"streetName":null,"villageName":null,"roadName":null,"communityName":null,"tranName":null,"sdLineName":null,"cityCode":"1340609","cityName":"国网定兴县供电公司","provinceCode":null,"stopTime":"2019-11-13 16:00:00","powerType":"全部","powerOffArea":"【全线路停电】停尹黄营排3【纯农排变】,高兰沟光4,王兰沟光2,尹黄营排1【纯农排变】,巨兰沟排7【纯农排变】,夏家营小学-160,夏家营光3,焦兰沟光6,0695365314-定兴县高兰沟幼儿园-专变-239160117-50,新高兰沟光3【2018年重过载】,常家营光4,新巨兰沟光11【煤改电】,新巨兰沟光8【煤改电】,常家营光1,刘兰沟排5【纯农排变】,焦兰沟光5,新巨兰沟光7【煤改电】,巨兰沟村光3,新常家营光2【2018年重过载】,焦兰沟光1,高兰沟光3,高兰沟光2,新巨兰沟光4【煤改电】,常家营排2【纯农排变】,焦兰沟排1【纯农排变】,新王兰沟光5【2018年重过载】,焦兰沟排5【纯农排变】,高兰沟光6,新王兰沟光1,王兰沟排6【纯农排变】,新巨兰沟光3【煤改电】,尹黄营光1,夏家营光1,焦兰沟光2,变压器,尹黄营排2【纯农排变】,焦兰沟光3,尹黄营光2,刘兰沟光2,夏家营排2【纯农排变】,高兰沟光1,夏家营排5【纯农排变】,刘兰沟光3,王兰沟光4,0011688799刘兰沟机站,焦兰沟排4【纯农排变】,新巨兰沟光5【煤改电】,0011688784*巨兰沟面粉厂,王兰沟光3,常家营排1【纯农排变】,新巨兰沟光2【煤改电】,尹黄营排4【纯农排变】,兰沟小学-630,0696769377-定兴县小朱庄焦兰沟小学-专变-240815690-160,常家营排3【纯农排变】,双龙新型建材,王兰沟排4【纯农排变】,焦兰沟光4,高兰沟光5,王兰沟排5【纯农排变】,新王兰沟光2【2018年重过载】,新巨兰沟光1【煤改电】,刘兰沟光1,刘兰沟光4","powerOffReason":"【停电原因】由于用户施工挖断尹黄营排１低压电缆导致１１０ＫＶ小朱庄变电站兰沟线５６４线路全线停电 【变更送电】因抢修进度加快原因，送电时间由１９：００变更为１６：００ 【发布渠道】通过９５５９８发布","powerOffId":"2019111313000545"},{"poweroffId":2019111313000487,"sgpoweroffId":null,"subsName":"","lineName":"10kV533塔古庄线","pubTranName":"陈村营公用照明2台区,齐家庄村公用照明一台区,水磨屯公用照明4台区,水磨屯村公用照明一台区,安家营村公用照明一台区,塔古庄村公用照明一台区,安家营公用照明5台区,安家营公用照明4台区,水磨屯公用照明5台区,齐家庄公用照明2台区,陈村营村公用照明一台区,半比店公用照明3台区,塔古庄村公用照明二台区,半壁店公用照明5台区,水磨屯村公用照明二台区,半比店公用照明2台区,半比店公用照明4台区,安家营公用照明3台区,塔古庄公用照明3台区,塔古庄公用照明4台区,东亭公路北公用照明1台区,半比店村公用照明一台区,陈村营公用照明3台区,安家营村公用照明二台区,水磨屯公用照明3台区,","scope":"【影响街道/乡镇】东亭镇、杨家庄乡【高危重要客户】无【影响客户】东亭、安家营、陈村营、齐家庄、水磨屯、塔古庄、半壁店、大陈村","startTime":"2019-11-13 12:23:09","stopDate":"2019-11-13 14:40:00","orgNo":"1340610","typeCode":"电网故障停限电","poweroffArea":"【全线路停电】停半比店公用照明2台区,陈村营公用照明2台区,齐家庄村公用照明一台区,水磨屯公用照明4台区,水磨屯村公用照明一台区,安家营村公用照明一台区,塔古庄村公用照明一台区,安家营公用照明5台区,安家营公用照明4台区,水磨屯公用照明5台区,齐家庄公用照明2台区,陈村营村公用照明一台区,半比店公用照明3台区,塔古庄村公用照明二台区,塔古庄公用照明3台区,半壁店公用照明5台区,水磨屯村公用照明二台区,半比店公用照明4台区,安家营公用照明3台区,塔古庄公用照明4台区,东亭公路北公用照明1台区,半比店村公用照明一台区,陈村营公用照明3台区,安家营村公用照明二台区,水磨屯公用照明3台区","poweroffReason":"【停电原因】由于Ｃ相电杆被撞，电线搭担导致１１０ＫＶ东亭变电站１０ＫＶ５３３塔古庄线路全线停电 【变更送电】因抢修进度加快原因，送电时间由２０：００变更为１４：４０ 【发布渠道】９５５９８","powerTime":"2019-11-13 14:17:47","powerComm":"已送电","subsNo":"","lineNo":"","tgNo":"","tgName":null,"infoStatus":"1","orgName":"国网定州市供电公司","typeName":null,"infoStatusName":null,"dateDay":null,"orgNos":null,"nowTime":null,"countyName":null,"streetName":null,"villageName":null,"roadName":null,"communityName":null,"tranName":null,"sdLineName":null,"cityCode":"1340610","cityName":"国网定州市供电公司","provinceCode":null,"stopTime":"2019-11-13 14:40:00","powerType":"全部","powerOffArea":"【全线路停电】停半比店公用照明2台区,陈村营公用照明2台区,齐家庄村公用照明一台区,水磨屯公用照明4台区,水磨屯村公用照明一台区,安家营村公用照明一台区,塔古庄村公用照明一台区,安家营公用照明5台区,安家营公用照明4台区,水磨屯公用照明5台区,齐家庄公用照明2台区,陈村营村公用照明一台区,半比店公用照明3台区,塔古庄村公用照明二台区,塔古庄公用照明3台区,半壁店公用照明5台区,水磨屯村公用照明二台区,半比店公用照明4台区,安家营公用照明3台区,塔古庄公用照明4台区,东亭公路北公用照明1台区,半比店村公用照明一台区,陈村营公用照明3台区,安家营村公用照明二台区,水磨屯公用照明3台区","powerOffReason":"【停电原因】由于Ｃ相电杆被撞，电线搭担导致１１０ＫＶ东亭变电站１０ＫＶ５３３塔古庄线路全线停电 【变更送电】因抢修进度加快原因，送电时间由２０：００变更为１４：４０ 【发布渠道】９５５９８","powerOffId":"2019111313000487"},{"poweroffId":2019111313000469,"sgpoweroffId":null,"subsName":"","lineName":"市郊513","pubTranName":"南方中西变压器,北方中新增西变压器,南方中南地变压器【纯农排变】,南方中北变压器,北方中中台变压器,北方中东变压器,北方中新增200变压器,南方中东变压器,北方中北变压器,北虎内变压器,北方中新增排灌【纯农排变】,北方中新增东变压器,","scope":"【影响街道/乡镇】和平办事处 【高危重要客户】无 【影响客户】南方中村、北方中村、北虎村、北方中面粉厂、弘景致诚厂、南虎机房、顺新化工厂、魏志福、五七中学、赵贵、志华养牛厂","startTime":"2019-11-13 11:55:57","stopDate":"2019-11-13 13:00:00","orgNo":"1340612","typeCode":"电网故障停限电","poweroffArea":"【分支停电】停南方中南地变压器【纯农排变】,南方中北变压器,北方中北地变压器【纯农排变】,南方中西南台变压器【纯农排变】,顺新化工厂,魏志福变压器,顺新化工厂01,北方中中台变压器,北方中西变压器,北虎地变压器【纯农排变】,南方中南变台,北方中东地2变压器【纯农排变】,北方中东变压器,五七中学（排灌）,北方中新增200变压器,南方中东变压器,北方中北变压器,北虎内变压器,北方中新增排灌【纯农排变】,北虎配变,北方中面粉厂,北方中新增东变压器,赵贵,南方中西变压器,南方中东地变台【纯农排变】,顺新化工厂02,北方中新增西变压器,南虎机房,北方中东地变压器【纯农排变】","poweroffReason":"【停电原因】由于中石油６７加油站避雷器烧坏导致２２０ＫＶ高碑店变电站１０ＫＶ市郊５１３线路０１号断路器以下停电 【变更送电】因抢修进度加快原因，送电时间由１８：００变更为１３：００ 【发布渠道】通过９５５９８发布","powerTime":"2019-11-13 12:34:46","powerComm":"已送电","subsNo":"","lineNo":"","tgNo":"","tgName":null,"infoStatus":"1","orgName":"国网高碑店市供电公司","typeName":null,"infoStatusName":null,"dateDay":null,"orgNos":null,"nowTime":null,"countyName":null,"streetName":null,"villageName":null,"roadName":null,"communityName":null,"tranName":null,"sdLineName":null,"cityCode":"1340612","cityName":"国网高碑店市供电公司","provinceCode":null,"stopTime":"2019-11-13 13:00:00","powerType":"全部","powerOffArea":"【分支停电】停南方中南地变压器【纯农排变】,南方中北变压器,北方中北地变压器【纯农排变】,南方中西南台变压器【纯农排变】,顺新化工厂,魏志福变压器,顺新化工厂01,北方中中台变压器,北方中西变压器,北虎地变压器【纯农排变】,南方中南变台,北方中东地2变压器【纯农排变】,北方中东变压器,五七中学（排灌）,北方中新增200变压器,南方中东变压器,北方中北变压器,北虎内变压器,北方中新增排灌【纯农排变】,北虎配变,北方中面粉厂,北方中新增东变压器,赵贵,南方中西变压器,南方中东地变台【纯农排变】,顺新化工厂02,北方中新增西变压器,南虎机房,北方中东地变压器【纯农排变】","powerOffReason":"【停电原因】由于中石油６７加油站避雷器烧坏导致２２０ＫＶ高碑店变电站１０ＫＶ市郊５１３线路０１号断路器以下停电 【变更送电】因抢修进度加快原因，送电时间由１８：００变更为１３：００ 【发布渠道】通过９５５９８发布","powerOffId":"2019111313000469"},{"poweroffId":2019111313000430,"sgpoweroffId":null,"subsName":"","lineName":"贤台线521","pubTranName":"0615979379-保定春生散热器有限公司-专变-128437988-保定市信荣散热器有限公司,留马村东2号,东黄村【纯农排变】,西贤台村内,中贤台村内新增,小东庄村内,西贤台新增（统管）,大次韩村南2号【纯农排变】,马坊村,保定市天泽电子科技有限公司,留马北【纯农排变】,东庄店村内,小东庄村内（统管）,小辛庄村内,王强养猪厂,永兴养猪厂,东贤台西南【纯农排变】,马坊新增100,留马村内,后大留2号,胜利喷塑厂,保定网通公司,东庄店村南,保定红星高频设备有限公司630,中贤台村南新增,东贤台村新增（统管）,中贤台村北,后大留村新增3号,保定市新市区金属工艺容器厂,前大留村南,东庄店新增,保定市红星高频设备有限公司,小辛庄村内2号,东贤台养殖厂,小辛庄村北【纯农排变】,保定市交通运输局徐水县养路工区2号,东贤台村南【纯农排变】,后大留村西（农网）【纯农排变】,保定市德厚商贸有限公司,保定市新市区环球金纺加工厂,保定市圣和房地产有限公司,保定市博奥塑料制品有限公司,东贤台综合,贤台乡政府,西贤台村内新增,向阳金属加工厂,大辛庄村北,保定中石油昆仑燃气有限公司,留马村东【纯农排变】,东黄村村北,河北飞毛腿通信工程有限公司,永明养猪场,玉合钢木加工厂,曹庄村西3号,保定市交通运输局徐水县养路工区1号,高新区公共事业管理处路灯1号,后大留4号,保定市科宝电气科技有限公司,前大留村西,东贤台新增,满城县富强炭业有限公司,留马村南,省植保所,后大留村内,东贤台村内,后大留预制件厂,东黄村村南【纯农排变】,曹庄村西新增2号,东贤台大场,东贤台路口,东庄店3号,曹庄村西新增,后大留5号,东贤台西南2号【纯农排变】,东贤台小学,大次韩村内,后大留1号,林海纸业有限公司,东贤台5号,大马坊中学,后大留猪厂,马坊新增3号,保定爱迪新能源股份有限公司,后大留西南新增（农网）【纯农排变】,保定市高标电子科技有限公司,东庄店大碑【纯农排变】,西贤台王杰养猪场,崔玉东照明,东贤台中学,中贤台综合,保定市一诺门窗制造有限公司,保定市光阳线材制造有限公司,前大留村东【纯农排变】,保定市屹马汽车配件制造有限公司,中贤台村内,大次韩村新增,马坊供电所,保定市乐阳灯具有限公司,马坊村大百桥,河北博为电气有限公司,东贤台村北,长城节能设备厂,红建花卉大棚,大次韩村南【纯农排变】,保定市信荣散热器有限公司,喷塑厂,曹庄村内2号,大次韩村南新增,中贤台新增,东黄村新增,西贤台新增2号,后大留贾亚伟养殖场,保定赫然建筑工程有限公司,后大留新增2,后大留村南【纯农排变】,后大留西南【纯农排变】,0547867669-保定军分区-专变-48068897-保定军分区,车床厂,东黄村南,保定市力宏汽车销售有限公司,中贤台村南,后大留新增【纯农排变】,塑钢门窗厂,留马村西,东庄店土改,保定市星源物流有限公司,贤台综合（统管）,后大留新增1,曹庄村西,苗长明小区,中贤台北上坡,","scope":"【影响街道/乡镇】贤台乡、大马坊乡、要庄乡 【高危重要客户】无 【影响客户】大马坊、中贤台、东贤台、西贤台、小东庄、小辛庄、大次韩、留马、东庄店、国际陆港、国际物流园","startTime":"2019-11-13 12:40:00","stopDate":"2019-11-13 17:00:00","orgNo":"1340617","typeCode":"其他临时停电","poweroffArea":"【全线路停电】停小东庄村内,大次韩村南2号【纯农排变】,保定市力宏汽车销售有限公司,保定市德厚商贸有限公司,后大留新增【纯农排变】,东庄店新增,东贤台养殖厂,东黄村村北,保定市一诺门窗制造有限公司,留马村西,东庄店土改,留马北【纯农排变】,省植保所,留马村东【纯农排变】,王强养猪厂,红建花卉大棚,大次韩村南【纯农排变】,东庄店大碑【纯农排变】,中贤台北上坡,东贤台西南2号【纯农排变】,东贤台小学,中贤台新增,苗长明小区,永明养猪场,曹庄村西新增2号,中贤台村内,东贤台西南【纯农排变】,东黄村南,西贤台村内,长城节能设备厂,车床厂,保定市星源物流有限公司,前大留村东【纯农排变】小辛庄村内2号,中贤台综合,胜利喷塑厂,西贤台新增2号,马坊村,马坊村大百桥,保定市信荣散热器有限公司,保定市交通运输局徐水县养路工区2号,0547867669-保定军分区-专变-48068897-保定军分区,中贤台村内新增,保定市圣和房地产有限公司,东黄村村南【纯农排变】,高新区公共事业管理处路灯1号,中贤台村南新增,东黄村【纯农排变】,后大留村西（农网）【纯农排变】,保定市光阳线材制造有限公司,后大留1号,东贤台路口,贤台综合（统管）,东贤台新增,后大留村新增3号,大次韩村南新增,保定市科宝电气科技有限公司,后大留4号,河北飞毛腿通信工程有限公司,马坊新增100,中贤台村南,东贤台综合,中贤台村北,保定市高标电子科技有限公司,曹庄村西3号,西贤台新增（统管）,大次韩村新增,留马村内,后大留新增2,大马坊中学,东贤台村新增（统管）,留马村东2号,河北博为电气有限公司,留马村南,保定爱迪新能源股份有限公司,崔玉东照明,马坊新增3号,后大留猪厂,保定红星高频设备有限公司630,后大留西南【纯农排变】,0615979379-保定春生散热器有限公司-专变-128437988-保定市信荣散热器有限公司,后大留村内,保定市博奥塑料制品有限公司,保定市天泽电子科技有限公司,大次韩村内,向阳金属加工厂,喷塑厂,前大留村南,曹庄村西,曹庄村西新增,保定市屹马汽车配件制造有限公司,西贤台王杰养猪场,马坊供电所,后大留村南【纯农排变】,东庄店村内,林海纸业有限公司,保定市新市区环球金纺加工厂,保定市新市区金属工艺容器厂,塑钢门窗厂,后大留西南新增（农网）【纯农排变】,后大留新增1,后大留5号,东贤台中学,东庄店村南,东庄店3号,东贤台村南","poweroffReason":"【停电原因】由于紧急消缺导致２２０ＫＶ花庄变电站贤台线５２１线路全线停电 【变更送电】无 【发布渠道】通过９５５９８发布","powerTime":"2019-11-13 16:35:39","powerComm":"已送电","subsNo":"","lineNo":"","tgNo":"","tgName":null,"infoStatus":"1","orgName":"国网满城县供电公司","typeName":null,"infoStatusName":null,"dateDay":null,"orgNos":null,"nowTime":null,"countyName":null,"streetName":null,"villageName":null,"roadName":null,"communityName":null,"tranName":null,"sdLineName":null,"cityCode":"1340617","cityName":"国网满城县供电公司","provinceCode":null,"stopTime":"2019-11-13 17:00:00","powerType":"全部","powerOffArea":"【全线路停电】停小东庄村内,大次韩村南2号【纯农排变】,保定市力宏汽车销售有限公司,保定市德厚商贸有限公司,后大留新增【纯农排变】,东庄店新增,东贤台养殖厂,东黄村村北,保定市一诺门窗制造有限公司,留马村西,东庄店土改,留马北【纯农排变】,省植保所,留马村东【纯农排变】,王强养猪厂,红建花卉大棚,大次韩村南【纯农排变】,东庄店大碑【纯农排变】,中贤台北上坡,东贤台西南2号【纯农排变】,东贤台小学,中贤台新增,苗长明小区,永明养猪场,曹庄村西新增2号,中贤台村内,东贤台西南【纯农排变】,东黄村南,西贤台村内,长城节能设备厂,车床厂,保定市星源物流有限公司,前大留村东【纯农排变】小辛庄村内2号,中贤台综合,胜利喷塑厂,西贤台新增2号,马坊村,马坊村大百桥,保定市信荣散热器有限公司,保定市交通运输局徐水县养路工区2号,0547867669-保定军分区-专变-48068897-保定军分区,中贤台村内新增,保定市圣和房地产有限公司,东黄村村南【纯农排变】,高新区公共事业管理处路灯1号,中贤台村南新增,东黄村【纯农排变】,后大留村西（农网）【纯农排变】,保定市光阳线材制造有限公司,后大留1号,东贤台路口,贤台综合（统管）,东贤台新增,后大留村新增3号,大次韩村南新增,保定市科宝电气科技有限公司,后大留4号,河北飞毛腿通信工程有限公司,马坊新增100,中贤台村南,东贤台综合,中贤台村北,保定市高标电子科技有限公司,曹庄村西3号,西贤台新增（统管）,大次韩村新增,留马村内,后大留新增2,大马坊中学,东贤台村新增（统管）,留马村东2号,河北博为电气有限公司,留马村南,保定爱迪新能源股份有限公司,崔玉东照明,马坊新增3号,后大留猪厂,保定红星高频设备有限公司630,后大留西南【纯农排变】,0615979379-保定春生散热器有限公司-专变-128437988-保定市信荣散热器有限公司,后大留村内,保定市博奥塑料制品有限公司,保定市天泽电子科技有限公司,大次韩村内,向阳金属加工厂,喷塑厂,前大留村南,曹庄村西,曹庄村西新增,保定市屹马汽车配件制造有限公司,西贤台王杰养猪场,马坊供电所,后大留村南【纯农排变】,东庄店村内,林海纸业有限公司,保定市新市区环球金纺加工厂,保定市新市区金属工艺容器厂,塑钢门窗厂,后大留西南新增（农网）【纯农排变】,后大留新增1,后大留5号,东贤台中学,东庄店村南,东庄店3号,东贤台村南","powerOffReason":"【停电原因】由于紧急消缺导致２２０ＫＶ花庄变电站贤台线５２１线路全线停电 【变更送电】无 【发布渠道】通过９５５９８发布","powerOffId":"2019111313000430"},{"poweroffId":2019111313000331,"sgpoweroffId":null,"subsName":"","lineName":"10kV533塔古庄线","pubTranName":"半比店公用照明2台区,陈村营公用照明2台区,齐家庄村公用照明一台区,水磨屯公用照明4台区,水磨屯村公用照明一台区,安家营村公用照明一台区,塔古庄村公用照明一台区,安家营公用照明5台区,安家营公用照明4台区,水磨屯公用照明5台区,齐家庄公用照明2台区,陈村营村公用照明一台区,半比店公用照明3台区,塔古庄村公用照明二台区,半壁店公用照明5台区,水磨屯村公用照明二台区,半比店公用照明4台区,安家营公用照明3台区,塔古庄公用照明3台区,塔古庄公用照明4台区,东亭公路北公用照明1台区,半比店村公用照明一台区,陈村营公用照明3台区,安家营村公用照明二台区,水磨屯公用照明3台区,","scope":"【影响街道/乡镇】东亭镇、杨家庄乡【高危重要客户】无【影响客户】东亭、安家营、陈村营、齐家庄、水磨屯、塔古庄、半壁店、大陈村","startTime":"2019-11-13 10:00:54","stopDate":"2019-11-13 12:00:00","orgNo":"1340610","typeCode":"电网故障停限电","poweroffArea":"【全线路停电】停半比店公用照明2台区,陈村营公用照明2台区,齐家庄村公用照明一台区,水磨屯公用照明4台区,水磨屯村公用照明一台区,安家营村公用照明一台区,塔古庄村公用照明一台区,安家营公用照明5台区,安家营公用照明4台区,水磨屯公用照明5台区,齐家庄公用照明2台区,陈村营村公用照明一台区,半比店公用照明3台区,塔古庄村公用照明二台区,塔古庄公用照明3台区,半壁店公用照明5台区,水磨屯村公用照明二台区,半比店公用照明4台区,安家营公用照明3台区,塔古庄公用照明4台区,东亭公路北公用照明1台区,半比店村公用照明一台区,陈村营公用照明3台区,安家营村公用照明二台区,水磨屯公用照明3台区","poweroffReason":"【停电原因】由于塔古庄１分支１２号杆风刮异物导致１１０ＫＶ东亭变电站１０ＫＶ５３３塔古庄线路全线停电 【变更送电】因抢修进度加快原因，送电时间由２０：００变更为１２：００ 【发布渠道】９５５９８","powerTime":"2019-11-13 11:20:24","powerComm":"已送电","subsNo":"","lineNo":"","tgNo":"","tgName":null,"infoStatus":"1","orgName":"国网定州市供电公司","typeName":null,"infoStatusName":null,"dateDay":null,"orgNos":null,"nowTime":null,"countyName":null,"streetName":null,"villageName":null,"roadName":null,"communityName":null,"tranName":null,"sdLineName":null,"cityCode":"1340610","cityName":"国网定州市供电公司","provinceCode":null,"stopTime":"2019-11-13 12:00:00","powerType":"全部","powerOffArea":"【全线路停电】停半比店公用照明2台区,陈村营公用照明2台区,齐家庄村公用照明一台区,水磨屯公用照明4台区,水磨屯村公用照明一台区,安家营村公用照明一台区,塔古庄村公用照明一台区,安家营公用照明5台区,安家营公用照明4台区,水磨屯公用照明5台区,齐家庄公用照明2台区,陈村营村公用照明一台区,半比店公用照明3台区,塔古庄村公用照明二台区,塔古庄公用照明3台区,半壁店公用照明5台区,水磨屯村公用照明二台区,半比店公用照明4台区,安家营公用照明3台区,塔古庄公用照明4台区,东亭公路北公用照明1台区,半比店村公用照明一台区,陈村营公用照明3台区,安家营村公用照明二台区,水磨屯公用照明3台区","powerOffReason":"【停电原因】由于塔古庄１分支１２号杆风刮异物导致１１０ＫＶ东亭变电站１０ＫＶ５３３塔古庄线路全线停电 【变更送电】因抢修进度加快原因，送电时间由２０：００变更为１２：００ 【发布渠道】９５５９８","powerOffId":"2019111313000331"},{"poweroffId":2019111313000312,"sgpoweroffId":null,"subsName":"","lineName":"玉山线513","pubTranName":"大娄曹坡,大楼村西,0387465212-荆山南沟-专变-45294030-荆山南沟,康泰养殖1号,大楼南台,玉山,小楼新增（统管）,玉山村南,满城县卫东林果社,大娄曹坡,小楼新增,大楼南台,金星粉末制剂厂,荆山新增,保定市满城区三发养殖场,神湖四季生态园1号,小楼路南,大娄三角地井,荆山养猪厂,满城县吴庄馒头山石碴厂计量点 400KVA,满城县吴庄馒头山石碴厂400计量点,冉喜良,大元2号,大楼村北,荆山村机井,九龙机井,味美源有限公司,塑料厂,冯青包装厂,永兴沙石厂,大娄桑园,玉山村西,保满石料厂,大娄红沙沟,大娄桑园,小楼路南,冉喜良,荆山村北照明,荆山村北路边,大楼南胡同,大娄村机井,东方沙石厂,玉山村南3号,荆山西北,大娄李角门,小楼村新增,荆山村机井,神湖四季生态园2,荆山村东新增,天祥化工,满城县吴庄馒头山石碴厂,冉玉林,大娄红沙沟2号,大楼村东,荆山南壕,小娄村东,大娄庙坡,大娄古山南,大娄村南,大楼南坡,大楼南胡同,大楼村东,晶华石材厂,赵文力猪厂,冉景坡,天角2号,荆山村北路边,大元2号,大娄黄来,满城县吴庄馒头山石碴厂400计量点,神星大长地,大娄白灰厂,林风果品250KVA配变1号,满城县吴庄馒头山石碴厂计量点 400KVA,玉山南坡,大楼南坡,荆山桥西,荆山苑启面粉厂,玉山,富强面粉厂,玉山路边,赵文力猪厂,冉栓路,太平钙粉厂,大娄石头坡,荆山路北,味香源食品厂,古山南边,神星吃水井,神星大长地,小娄路边,荆山村边,0387463867-荆山村南-专变-45293922-荆山村南,大娄村北,林风果品250KVA配变2号,小楼村北,大娄天角,玉山大峪,大娄三角地井,大娄村北,冉连套新增,大楼村西,大楼村北,荆山村西,荆山村东,荆山南壕,大娄涵洞口,荆山灿,冉祥养殖厂,荆山大元1号,荆山苑启面粉厂,大娄天角,玉山福利厂,荆山钙粉厂,大娄庙坡,塑料厂,崔昆砖厂,冯青包装厂,大娄古山北,中国移动通信集团河北有限公司满城分公司,冉祥养殖厂,保定市满城区三发养殖场,大娄西壕2号,大楼田连生,大娄吃水井,田镇坡新增,玉山南坡,大水渠郭庆伟,金星粉末制剂厂,荆山西南,大娄黄来,富强面粉厂,大娄古山北,大娄李角门,晶华石材厂2号,荆山村西新增,0671316817-南水北调中线干线工程建设管理局河北分局-专变-212142838-南水北调中线干线保定管理处,新兴灰厂,神星小庄新增,荆山四季水泥砖厂,冉玉林,荆山养猪厂,神湖四季生态园2,","scope":"【影响街道/乡镇】神星镇 【高危重要客户】无 【影响客户】大楼（娄）村、荆山村、小楼（娄）村、玉山村","startTime":"2019-11-13 09:48:18","stopDate":"2019-11-13 11:30:00","orgNo":"1340617","typeCode":"电网故障停限电","poweroffArea":"【全线路停电】停玉山南坡,神星小庄新增,天祥化工,0387463867-荆山村南-专变-45293922-荆山村南,荆山大元1号,大娄白灰厂,东方沙石厂,玉山城坡岭,荆山四季水泥砖厂,满城县吴庄馒头山石碴厂计量点 400KVA,新兴灰厂,富强面粉厂,荆山钙粉厂,大娄村机井,晶华石材厂2号,果园井,神星大长地,荆山灿,太平山,晶华石材厂,冉栓路,大娄西壕2号,荆山村北路边,大楼田连生,小楼村北,林风果品250KVA配变1号,荆山村机井,荆山苑启面粉厂,大娄古山东2号,满城县吴庄馒头山石碴厂,小楼村新增,大娄红沙沟2号,荆山西南,大娄古山南,神星吃水井,大娄果园,玉山村北1号,大娄古山北,大娄红沙沟,大娄天角,荆山路北,大娄村南,大娄石头坡,大娄庙坡,荆山西北,九龙机井,小娄村东,神星养猪厂,玉山路边,满城县吴庄馒头山石碴厂315计量点,康泰养殖2,古山南边,荆山养猪厂,大娄三角地井,大水渠郭庆伟,荆山村西新增,味香源食品厂,崔昆砖厂,大娄吃水井,冯青包装厂,金星粉末制剂厂,味美源有限公司,满城县吴庄馒头山石碴厂400计量点,荆山村西,冉祥养殖厂,满城县卫东林果社,塑料厂,大楼南台,冉连套新增,中国移动通信集团河北有限公司满城分公司,大娄大寨,满城县恒昌纸制品厂,0387465212-荆山南沟-专变-45294030-荆山南沟,大娄涵洞口,大楼村东,小楼新增（统管）,玉山村南3号,玉山大峪,大楼西壕,大娄桑园,大楼村东新增,0671316817-南水北调中线干线工程建设管理局河北分局-专变-212142838-南水北调中线干线保定管理处,小楼新增,荆山新增,小娄路边,小楼路南,荆山南壕,小楼村南,大娄红沙沟3号,荆山村边,玉山村南,天角2号,大楼村北,赵文力猪厂,大楼南坡,林风果品250KVA配变2号,玉山福利厂,大娄黄来,冉玉林,冉喜良,荆山村东,田镇坡新增,大娄曹坡,永兴沙石厂,冉景坡,大楼南胡同,大元2号,保定市满城区三发养殖场,荆山村北照明,玉山玻璃制品,太平钙粉厂,大楼高渠,神湖四季生态园1号,荆山村东新增,荆山桥西,大楼村西,大娄村北,康泰养殖1号,玉山,大娄李角门,神湖四季生态园2,玉山村西,保满石料厂","poweroffReason":"【停电原因】由于速断掉闸导致３５ＫＶ神星变电站玉山线５１３线路全线停电 【变更送电】因抢修进度加快原因，送电时间由１８：００变更为１１：３０ 【发布渠道】通过９５５９８发布","powerTime":"2019-11-13 11:08:52","powerComm":"已送电","subsNo":"","lineNo":"","tgNo":"","tgName":null,"infoStatus":"1","orgName":"国网满城县供电公司","typeName":null,"infoStatusName":null,"dateDay":null,"orgNos":null,"nowTime":null,"countyName":null,"streetName":null,"villageName":null,"roadName":null,"communityName":null,"tranName":null,"sdLineName":null,"cityCode":"1340617","cityName":"国网满城县供电公司","provinceCode":null,"stopTime":"2019-11-13 11:30:00","powerType":"全部","powerOffArea":"【全线路停电】停玉山南坡,神星小庄新增,天祥化工,0387463867-荆山村南-专变-45293922-荆山村南,荆山大元1号,大娄白灰厂,东方沙石厂,玉山城坡岭,荆山四季水泥砖厂,满城县吴庄馒头山石碴厂计量点 400KVA,新兴灰厂,富强面粉厂,荆山钙粉厂,大娄村机井,晶华石材厂2号,果园井,神星大长地,荆山灿,太平山,晶华石材厂,冉栓路,大娄西壕2号,荆山村北路边,大楼田连生,小楼村北,林风果品250KVA配变1号,荆山村机井,荆山苑启面粉厂,大娄古山东2号,满城县吴庄馒头山石碴厂,小楼村新增,大娄红沙沟2号,荆山西南,大娄古山南,神星吃水井,大娄果园,玉山村北1号,大娄古山北,大娄红沙沟,大娄天角,荆山路北,大娄村南,大娄石头坡,大娄庙坡,荆山西北,九龙机井,小娄村东,神星养猪厂,玉山路边,满城县吴庄馒头山石碴厂315计量点,康泰养殖2,古山南边,荆山养猪厂,大娄三角地井,大水渠郭庆伟,荆山村西新增,味香源食品厂,崔昆砖厂,大娄吃水井,冯青包装厂,金星粉末制剂厂,味美源有限公司,满城县吴庄馒头山石碴厂400计量点,荆山村西,冉祥养殖厂,满城县卫东林果社,塑料厂,大楼南台,冉连套新增,中国移动通信集团河北有限公司满城分公司,大娄大寨,满城县恒昌纸制品厂,0387465212-荆山南沟-专变-45294030-荆山南沟,大娄涵洞口,大楼村东,小楼新增（统管）,玉山村南3号,玉山大峪,大楼西壕,大娄桑园,大楼村东新增,0671316817-南水北调中线干线工程建设管理局河北分局-专变-212142838-南水北调中线干线保定管理处,小楼新增,荆山新增,小娄路边,小楼路南,荆山南壕,小楼村南,大娄红沙沟3号,荆山村边,玉山村南,天角2号,大楼村北,赵文力猪厂,大楼南坡,林风果品250KVA配变2号,玉山福利厂,大娄黄来,冉玉林,冉喜良,荆山村东,田镇坡新增,大娄曹坡,永兴沙石厂,冉景坡,大楼南胡同,大元2号,保定市满城区三发养殖场,荆山村北照明,玉山玻璃制品,太平钙粉厂,大楼高渠,神湖四季生态园1号,荆山村东新增,荆山桥西,大楼村西,大娄村北,康泰养殖1号,玉山,大娄李角门,神湖四季生态园2,玉山村西,保满石料厂","powerOffReason":"【停电原因】由于速断掉闸导致３５ＫＶ神星变电站玉山线５１３线路全线停电 【变更送电】因抢修进度加快原因，送电时间由１８：００变更为１１：３０ 【发布渠道】通过９５５９８发布","powerOffId":"2019111313000312"},{"poweroffId":2019111313000293,"sgpoweroffId":null,"subsName":"","lineName":"西崔庄线517","pubTranName":"南邵庄供101#高压间隔配电变压器,南邵庄供102#箱变配电变压器,南邵庄供100#箱变 配电变压器,","scope":"【影响街道/乡镇】崔庄镇 【高危重要客户】无 【影响客户】西崔庄、南邵庄、王铁庄、张庄、商平庄、北邵庄","startTime":"2019-11-13 09:36:20","stopDate":"2019-11-13 11:30:00","orgNo":"1340605","typeCode":"电网故障停限电","poweroffArea":"【全线路停电】停南邵庄供69号变压器,王铁庄供119号变压器,南邵庄供43号变压器,徐水县助力加热油管厂,徐水县宏鑫建材商店,商平庄供123号变压器,王铁庄供33号变压器,南邵庄12号变压器,徐水县峻鼎鞋材有限公司3号,徐水县仙登鞋材厂,南邵庄供101#高压间隔配电变压器,北邵庄供42号变压器,保定市徐水区百渡鞋材加工厂,徐水县东方灵星机毡厂,北邵庄3号变压器,徐水县东信毛纺制品有限公司,南邵庄供75号变压器,北邵庄供129号变压器,西崔庄供51号变压器,张庄供113号变压器,商平庄供2号变压器,北邵庄4号变压器,西崔庄供81号变压器,变压器,西崔庄2号变压器,徐水县吉星宇鞋服制造有限公司,北邵庄2号变压器【纯农排变】,干沟供52号变压器,保定亿盛鞋业有限公司,吴庄12号变压器,商平庄供46号变压器,徐水县伟通机械加工厂,南邵庄供110号变压器,北邵庄供125号变压器,南邵庄11号变压器,徐水县华晨铸造厂,徐水永盛橡塑厂2号,徐水县金龙机架厂,西崔庄供131号变压器,南邵庄供28号变压器【纯农排变】,保定市徐水区奥尔特鞋材厂,徐水县华鑫碾米加工厂,徐水县中原包装厂,徐水县峻鼎鞋材有限公司(250KVA),保定市徐水天源综合医院,徐水县宏达制鞋厂,保定市徐水区崔庄镇南邵庄小学,南邵庄3号变压器,张庄2号变压器【纯农排变】,太行毛纺集团3号,徐水县远征橡胶制品厂1号,南邵庄13号变压器,东方灵星机毡厂,徐水县东升针刺毡厂,南邵庄汽车电路器材厂,南邵庄供100#箱变 配电变压器,商平庄供83号变压器,徐水县宝来毛纺制品有限公司2号,三环橡胶厂,0675479965-徐水县昌顺木材加工有限公司-专变-216137462-徐水县昌顺木材加工有限公司,永兴拔丝厂,徐水县鼎亮门窗制造有限公司,南邵庄10号变压器,北邵庄供103号变压器,保定市徐水区深红鞋材加工厂,徐水县思美特鞋厂变压器,南邵庄供32号变压器,南邵庄5号变压器,南邵供34号变压器,0684455497-徐水县思美特鞋厂-专变-223609302-徐水县思美特鞋厂变压器,南邵庄8号变压器【纯农排变】,永胜毛纺厂,西崔庄8号变压器,南邵庄水么石厂,商平庄鞋厂,永盛橡塑厂1号,太行毛纺集团有限公司1号,徐水县长兴洗毛厂,北邵供65号变压器【纯农排变】,商平庄小康鞋厂,南邵庄供99号变压器,崔庄镇人民政府,0680042882-保定市苏坨面粉加工有限公司-专变-219584554-保定市苏坨面粉加工有限公司变压器,张庄3号变压器,南邵庄供91号变压器,徐水县远征鞋底厂,南邵庄供102#箱变配电变压器,南邵庄面粉一厂,南邵庄油毡厂,北邵庄1号变压器【纯农排变】,徐水县盛达电路板厂,朝阳毛纺厂,徐水县盛源工艺加工厂,西崔庄供97号变压器,南邵庄供77号变压器,徐水县顺达模具厂,吉昌毛纺厂,徐水县远征橡胶制品厂3号,红星造纸厂1号,徐水县吉星宇鞋服制造有限公司1号,南邵庄板厂,徐水县邵庄增国鞋厂,保定华艺帽业有限公司2号250,北邵庄6号变压器,西崔庄面粉厂,中国联合网络通信有限公司徐水县分公司崔庄,徐水县超亿鞋服有限公司,南邵庄4号变压器,南邵庄9号变压器,保定市徐水区源晟鞋材经销处,西崔庄5号变压器,西崔庄1号变压器,北邵庄供106号变压器,南邵庄2号变压器,商平庄6号变压器,徐水天源综合医院,南邵庄供67号变压器,北邵庄供29号变压器【纯农排变】,保定华艺帽业有限公司1号,徐水县远征橡胶制品厂2号,西崔庄7号变压器,干河沟5号变压器,南邵庄1号变压器,西崔庄供5号变压器","poweroffReason":"【停电原因】由于Ｂ相接地导致３５ＫＶ崔庄变电站西崔庄线５１７线路全线停电 【变更送电】因抢修进度加快原因，送电时间由２２:００变更为１１:３０ 【发布渠道】通过９５５９８发布","powerTime":"2019-11-13 10:55:27","powerComm":"已送电","subsNo":"","lineNo":"","tgNo":"","tgName":null,"infoStatus":"1","orgName":"国网徐水县供电公司","typeName":null,"infoStatusName":null,"dateDay":null,"orgNos":null,"nowTime":null,"countyName":null,"streetName":null,"villageName":null,"roadName":null,"communityName":null,"tranName":null,"sdLineName":null,"cityCode":"1340605","cityName":"国网徐水县供电公司","provinceCode":null,"stopTime":"2019-11-13 11:30:00","powerType":"全部","powerOffArea":"【全线路停电】停南邵庄供69号变压器,王铁庄供119号变压器,南邵庄供43号变压器,徐水县助力加热油管厂,徐水县宏鑫建材商店,商平庄供123号变压器,王铁庄供33号变压器,南邵庄12号变压器,徐水县峻鼎鞋材有限公司3号,徐水县仙登鞋材厂,南邵庄供101#高压间隔配电变压器,北邵庄供42号变压器,保定市徐水区百渡鞋材加工厂,徐水县东方灵星机毡厂,北邵庄3号变压器,徐水县东信毛纺制品有限公司,南邵庄供75号变压器,北邵庄供129号变压器,西崔庄供51号变压器,张庄供113号变压器,商平庄供2号变压器,北邵庄4号变压器,西崔庄供81号变压器,变压器,西崔庄2号变压器,徐水县吉星宇鞋服制造有限公司,北邵庄2号变压器【纯农排变】,干沟供52号变压器,保定亿盛鞋业有限公司,吴庄12号变压器,商平庄供46号变压器,徐水县伟通机械加工厂,南邵庄供110号变压器,北邵庄供125号变压器,南邵庄11号变压器,徐水县华晨铸造厂,徐水永盛橡塑厂2号,徐水县金龙机架厂,西崔庄供131号变压器,南邵庄供28号变压器【纯农排变】,保定市徐水区奥尔特鞋材厂,徐水县华鑫碾米加工厂,徐水县中原包装厂,徐水县峻鼎鞋材有限公司(250KVA),保定市徐水天源综合医院,徐水县宏达制鞋厂,保定市徐水区崔庄镇南邵庄小学,南邵庄3号变压器,张庄2号变压器【纯农排变】,太行毛纺集团3号,徐水县远征橡胶制品厂1号,南邵庄13号变压器,东方灵星机毡厂,徐水县东升针刺毡厂,南邵庄汽车电路器材厂,南邵庄供100#箱变 配电变压器,商平庄供83号变压器,徐水县宝来毛纺制品有限公司2号,三环橡胶厂,0675479965-徐水县昌顺木材加工有限公司-专变-216137462-徐水县昌顺木材加工有限公司,永兴拔丝厂,徐水县鼎亮门窗制造有限公司,南邵庄10号变压器,北邵庄供103号变压器,保定市徐水区深红鞋材加工厂,徐水县思美特鞋厂变压器,南邵庄供32号变压器,南邵庄5号变压器,南邵供34号变压器,0684455497-徐水县思美特鞋厂-专变-223609302-徐水县思美特鞋厂变压器,南邵庄8号变压器【纯农排变】,永胜毛纺厂,西崔庄8号变压器,南邵庄水么石厂,商平庄鞋厂,永盛橡塑厂1号,太行毛纺集团有限公司1号,徐水县长兴洗毛厂,北邵供65号变压器【纯农排变】,商平庄小康鞋厂,南邵庄供99号变压器,崔庄镇人民政府,0680042882-保定市苏坨面粉加工有限公司-专变-219584554-保定市苏坨面粉加工有限公司变压器,张庄3号变压器,南邵庄供91号变压器,徐水县远征鞋底厂,南邵庄供102#箱变配电变压器,南邵庄面粉一厂,南邵庄油毡厂,北邵庄1号变压器【纯农排变】,徐水县盛达电路板厂,朝阳毛纺厂,徐水县盛源工艺加工厂,西崔庄供97号变压器,南邵庄供77号变压器,徐水县顺达模具厂,吉昌毛纺厂,徐水县远征橡胶制品厂3号,红星造纸厂1号,徐水县吉星宇鞋服制造有限公司1号,南邵庄板厂,徐水县邵庄增国鞋厂,保定华艺帽业有限公司2号250,北邵庄6号变压器,西崔庄面粉厂,中国联合网络通信有限公司徐水县分公司崔庄,徐水县超亿鞋服有限公司,南邵庄4号变压器,南邵庄9号变压器,保定市徐水区源晟鞋材经销处,西崔庄5号变压器,西崔庄1号变压器,北邵庄供106号变压器,南邵庄2号变压器,商平庄6号变压器,徐水天源综合医院,南邵庄供67号变压器,北邵庄供29号变压器【纯农排变】,保定华艺帽业有限公司1号,徐水县远征橡胶制品厂2号,西崔庄7号变压器,干河沟5号变压器,南邵庄1号变压器,西崔庄供5号变压器","powerOffReason":"【停电原因】由于Ｂ相接地导致３５ＫＶ崔庄变电站西崔庄线５１７线路全线停电 【变更送电】因抢修进度加快原因，送电时间由２２:００变更为１１:３０ 【发布渠道】通过９５５９８发布","powerOffId":"2019111313000293"},{"poweroffId":2019111313000289,"sgpoweroffId":null,"subsName":"","lineName":"阳元街518","pubTranName":"城关医院直供,鑫苑小区,路家庄5#,阳元南街直供1#,阳元街直供3#,南环路3#,路家庄村1#,南关村1#,阳元街直供1#,平安家园1,阳元街直供2#,阳元南街2#,南环小区直供1#,南环小区2#,友谊路2#,","scope":"【影响街道/乡镇】城管处、友谊路、阳元北大街、易兴路、西环路、朝阳路、南环路【高危重要客户】无【影响客户】路家庄村、金色家园小区、平安家园小区、南环小区、鑫苑小区","startTime":"2019-11-13 09:32:11","stopDate":"2019-11-13 12:00:00","orgNo":"1340625","typeCode":"电网故障停限电","poweroffArea":"【全线路停电】停城关医院直供,鑫苑小区,阳元南街2#,阳元街直供2#,平安家园1,路家庄5#,南关村1#,南环路3#,南环小区直供1#,南环小区2#,阳元南街直供1#,友谊路2#,路家庄村1#,阳元街直供3#,阳元街直供1#","poweroffReason":"【停电原因】由于城关医院高压引线大风刮断导致３５ＫＶ易水变电站阳元街５１８线路全线停电【变更送电】因抢修进度加快原因，送电时间由１８：００变更为１２：００【发布渠道】通过９５５９８发布","powerTime":"2019-11-13 11:10:34","powerComm":"已送电","subsNo":"","lineNo":"","tgNo":"","tgName":null,"infoStatus":"1","orgName":"国网易县供电公司","typeName":null,"infoStatusName":null,"dateDay":null,"orgNos":null,"nowTime":null,"countyName":null,"streetName":null,"villageName":null,"roadName":null,"communityName":null,"tranName":null,"sdLineName":null,"cityCode":"1340625","cityName":"国网易县供电公司","provinceCode":null,"stopTime":"2019-11-13 12:00:00","powerType":"全部","powerOffArea":"【全线路停电】停城关医院直供,鑫苑小区,阳元南街2#,阳元街直供2#,平安家园1,路家庄5#,南关村1#,南环路3#,南环小区直供1#,南环小区2#,阳元南街直供1#,友谊路2#,路家庄村1#,阳元街直供3#,阳元街直供1#","powerOffReason":"【停电原因】由于城关医院高压引线大风刮断导致３５ＫＶ易水变电站阳元街５１８线路全线停电【变更送电】因抢修进度加快原因，送电时间由１８：００变更为１２：００【发布渠道】通过９５５９８发布","powerOffId":"2019111313000289"},{"poweroffId":2019111313000288,"sgpoweroffId":null,"subsName":"","lineName":"吴庄工业线515","pubTranName":"吴庄1号变压器,","scope":"【影响街道/乡镇】崔庄镇 【高危重要客户】无 【影响客户】南邵庄、吴庄","startTime":"2019-11-13 09:34:32","stopDate":"2019-11-13 11:30:00","orgNo":"1340605","typeCode":"电网故障停限电","poweroffArea":"【全线路停电】停河北德力食品有限公司6号,河北德力食品有限公司5号,吴庄供126号变压器,徐水县腾达鞋业有限公司,吴庄10号变压器,吴庄3号变压器,南邵庄6号变压器,吴庄1号变压器,徐水县干沟胶底厂,跃泰发泡厂,河北德力食品有限公司1号（400KVA）,河北德力食品有限公司3号,吴庄供27号变压器,吴庄供41号变压器,河北徐水腾达鞋业有限公司,新兴胶厂,河北徐水腾达鞋业有限公司2号,河北德力食品有限公司,崔庄供电所（站变）,吴庄供1号变压器,吴庄供96号变压器,保定市徐水区崔庄镇吴庄小学,吴庄供124号变压器,河北徐水中原冷冻加工厂,徐水县百万乐生活超市","poweroffReason":"【停电原因】由于Ｂ相接地导致３５ＫＶ崔庄变电站吴庄工业线５１５线路全线停电 【变更送电】因抢修进度加快原因，送电时间由２２:００变更为１１:３０ 【发布渠道】通过９５５９８发布","powerTime":"2019-11-13 10:55:40","powerComm":"已送电","subsNo":"","lineNo":"","tgNo":"","tgName":null,"infoStatus":"1","orgName":"国网徐水县供电公司","typeName":null,"infoStatusName":null,"dateDay":null,"orgNos":null,"nowTime":null,"countyName":null,"streetName":null,"villageName":null,"roadName":null,"communityName":null,"tranName":null,"sdLineName":null,"cityCode":"1340605","cityName":"国网徐水县供电公司","provinceCode":null,"stopTime":"2019-11-13 11:30:00","powerType":"全部","powerOffArea":"【全线路停电】停河北德力食品有限公司6号,河北德力食品有限公司5号,吴庄供126号变压器,徐水县腾达鞋业有限公司,吴庄10号变压器,吴庄3号变压器,南邵庄6号变压器,吴庄1号变压器,徐水县干沟胶底厂,跃泰发泡厂,河北德力食品有限公司1号（400KVA）,河北德力食品有限公司3号,吴庄供27号变压器,吴庄供41号变压器,河北徐水腾达鞋业有限公司,新兴胶厂,河北徐水腾达鞋业有限公司2号,河北德力食品有限公司,崔庄供电所（站变）,吴庄供1号变压器,吴庄供96号变压器,保定市徐水区崔庄镇吴庄小学,吴庄供124号变压器,河北徐水中原冷冻加工厂,徐水县百万乐生活超市","powerOffReason":"【停电原因】由于Ｂ相接地导致３５ＫＶ崔庄变电站吴庄工业线５１５线路全线停电 【变更送电】因抢修进度加快原因，送电时间由２２:００变更为１１:３０ 【发布渠道】通过９５５９８发布","powerOffId":"2019111313000288"}],"pageModel":{"pageNow":381,"totalCount":10973,"totalPage":1098,"tableRows":0,"pageCount":10,"beginCount":3800},"isExperi":"1"}