{"message":"","today":"2020-06-15","seleList":[{"poweroffId":2019111313000192,"sgpoweroffId":null,"subsName":"","lineName":"川倒线516","pubTranName":"南下沟5167变压器,黑龙洞1784变压器,倒马关4949变压器,刘家沟1771变压器,大石峪4177变压器,段庄子1783变压器,五家铺1781变压器,川里新增4051变压器,南上沟1779变压器,民安庄4944变压器,东庄子1767变压器,刘家庄6566变压器,大石峪4739变压器,刘家庄1769变压器,南下沟1778变压器,西苇子1766变压器,红花1768变压器,南下沟4011变压器,涧子沟1654变压器,西苇子5171变压器,上村口1776变压器,新城1785变压器,虫王沟1773变压器,川里西2794变压器,大石峪1782变压器,刘家庄1774变压器,望尔峪6657变压器,倒马关1777变压器,西苇子4388变压器,东庄子6632变压器,倒马关4784变压器,民安庄1764变压器,东庄子水1847变压器,西苇子6595变压器,东庄子南2622变压器,","scope":"【影响街道/乡镇】倒马关乡、川里镇【高危重要客户】无【影响客户】上城口、牛家庄、大石峪村、南上沟村、刘家沟、虫王沟、刘家庄、倒马关村、南下沟村、东庄子、红花、石北、川里村、西苇子村、民安庄村","startTime":"2019-11-13 08:35:34","stopDate":"2019-11-13 14:00:00","orgNo":"1340622","typeCode":"电网故障停限电","poweroffArea":"【全线路停电】停0387525758-大石峪金矿-专变-125432801-大石峪金矿,陈志云煤厂2830,马保国10KV新建,大石峪4177变压器,龙鑫选矿厂2038,上村口1776变压器,0549345798-唐县大石峪金矿有限公司-专变-48243973-唐县大石峪金矿有限公司3439,永康选矿厂2873,五家铺1781变压器,川里村荒山开发2939,凯达选厂1739,东庄子南2622变压器,西苇子4388变压器,倒马关1777变压器,黑龙洞1784变压器,隆基水电,永盛制砖有限公司3070,0565327387-唐县大石峪金矿有限公司-专变-118673351-唐县大石峪金矿有限公司变压器,西苇子1766变压器,温州水电4003,东庄子1767变压器,东庄子6632变压器,唐县锦隆选矿厂2998,大石峪1782变压器,川西选矿厂2905,铁十三局水电4001-1,铁十三局4004,民安庄4944变压器,金泰选矿厂2945,西苇子5171变压器,隆基水电4002,新城1785变压器,倒马关4949变压器,段庄子1783变压器,南下沟4011变压器,鑫丰选厂,永盛制砖有限公司3069,刘家庄1769变压器,广益加油站1810,恒达免烧砖厂3008,涧子沟1654变压器,刘家庄1774变压器,川里面粉厂1240,唐县川里加油站2876,南下沟5167变压器,兴达煤场2779,天用选矿厂2988,0387525732-唐县永旺选矿厂-专变-45341938-唐县永旺选矿厂3143,虫王沟1773变压器,望尔峪6657变压器,小朋选矿厂用水,磊鑫选矿厂2987,大石峪景区2653,倒马关4784变压器,金大地选厂,西苇子6595变压器,川里西2794变压器,南上沟1779变压器,唐县龙鑫选矿厂新装变台,民安庄1764变压器,东庄子水1847变压器,红花1768变压器,刘家沟1771变压器,大石峪4739变压器,唐县恒川水泥砖厂,川里新增4051变压器,唐县联通公司2977,南下沟1778变压器,唐县地天泰煤厂,徐唐选矿厂1820,刘家庄6566变压器,川里太行加油站2075,双飞选矿厂2313,大石峪金矿2364\\2364,利达选矿厂2378,移动基站2399,大石峪金矿2475","poweroffReason":"【停电原因】由于线路接地导致３５ＫＶ川里变电站川倒线５１６线路全线停电【变更送电】因抢修进度加快原因，送电时间由２０：００变更为１４：００【发布渠道】通过９５５９８发布","powerTime":"2019-11-13 13:24:51","powerComm":"已送电","subsNo":"","lineNo":"","tgNo":"","tgName":null,"infoStatus":"1","orgName":"国网唐县供电公司","typeName":null,"infoStatusName":null,"dateDay":null,"orgNos":null,"nowTime":null,"countyName":null,"streetName":null,"villageName":null,"roadName":null,"communityName":null,"tranName":null,"sdLineName":null,"cityCode":"1340622","cityName":"国网唐县供电公司","provinceCode":null,"stopTime":"2019-11-13 14:00:00","powerType":"全部","powerOffArea":"【全线路停电】停0387525758-大石峪金矿-专变-125432801-大石峪金矿,陈志云煤厂2830,马保国10KV新建,大石峪4177变压器,龙鑫选矿厂2038,上村口1776变压器,0549345798-唐县大石峪金矿有限公司-专变-48243973-唐县大石峪金矿有限公司3439,永康选矿厂2873,五家铺1781变压器,川里村荒山开发2939,凯达选厂1739,东庄子南2622变压器,西苇子4388变压器,倒马关1777变压器,黑龙洞1784变压器,隆基水电,永盛制砖有限公司3070,0565327387-唐县大石峪金矿有限公司-专变-118673351-唐县大石峪金矿有限公司变压器,西苇子1766变压器,温州水电4003,东庄子1767变压器,东庄子6632变压器,唐县锦隆选矿厂2998,大石峪1782变压器,川西选矿厂2905,铁十三局水电4001-1,铁十三局4004,民安庄4944变压器,金泰选矿厂2945,西苇子5171变压器,隆基水电4002,新城1785变压器,倒马关4949变压器,段庄子1783变压器,南下沟4011变压器,鑫丰选厂,永盛制砖有限公司3069,刘家庄1769变压器,广益加油站1810,恒达免烧砖厂3008,涧子沟1654变压器,刘家庄1774变压器,川里面粉厂1240,唐县川里加油站2876,南下沟5167变压器,兴达煤场2779,天用选矿厂2988,0387525732-唐县永旺选矿厂-专变-45341938-唐县永旺选矿厂3143,虫王沟1773变压器,望尔峪6657变压器,小朋选矿厂用水,磊鑫选矿厂2987,大石峪景区2653,倒马关4784变压器,金大地选厂,西苇子6595变压器,川里西2794变压器,南上沟1779变压器,唐县龙鑫选矿厂新装变台,民安庄1764变压器,东庄子水1847变压器,红花1768变压器,刘家沟1771变压器,大石峪4739变压器,唐县恒川水泥砖厂,川里新增4051变压器,唐县联通公司2977,南下沟1778变压器,唐县地天泰煤厂,徐唐选矿厂1820,刘家庄6566变压器,川里太行加油站2075,双飞选矿厂2313,大石峪金矿2364\\2364,利达选矿厂2378,移动基站2399,大石峪金矿2475","powerOffReason":"【停电原因】由于线路接地导致３５ＫＶ川里变电站川倒线５１６线路全线停电【变更送电】因抢修进度加快原因，送电时间由２０：００变更为１４：００【发布渠道】通过９５５９８发布","powerOffId":"2019111313000192"},{"poweroffId":2019111313000191,"sgpoweroffId":null,"subsName":"","lineName":"川夹线514","pubTranName":"米家湾4102变压器,米家湾水3387变压器,和西村1642变压器,上秦王1230变压器,川里乡政府6667变压器,秦王杨水站1653变压器,五间坨0822变压器,腰子沟1645变压器,米家湾1647变压器,川里村1641变压器,川里车站801变压器,路家寨1644变压器,下赤水1643变压器,小北花1652变压器,川里乡政府0818变压器,川里村5169变压器,下秦王村北1651变压器,川里中学1940变压器,川里公用1657变压器,川里村西0242变压器,夹子村1648变压器,下赤水3368变压器,夹子北沟5166变压器,河西村6597变压器,上赤水新增5162变压器,","scope":"【影响街道/乡镇】川里镇、倒马关乡【高危重要客户】无【影响客户】秦王村、小北花、五尖驼、上秦王、下秦王、荒山、川里村、川里中学、路家寨村、下赤水、断水、腰子沟、河西村、夹子村、上赤水、沟掌、米家湾村","startTime":"2019-11-13 08:36:37","stopDate":"2019-11-13 14:00:00","orgNo":"1340622","typeCode":"电网故障停限电","poweroffArea":"【全线路停电】停川里车站801变压器,川里村1641变压器,川里村西0242变压器,川里村5169变压器,川里乡政府6667变压器,川里乡政府0818变压器,川里中学1940变压器,川里公用1657变压器,和西村1642变压器,夹子北沟5166变压器,夹子村1648变压器,路家寨1644变压器,米家湾1647变压器,米家湾4102变压器,米家湾水3387变压器,客户投资_秦王荒山3217变压器,上赤水新增5162变压器,上秦王1230变压器,五间坨0822变压器,下赤水1643变压器,下赤水3368变压器,下秦王村北1651变压器,小北花1652变压器,秦王杨水站1653变压器,腰子沟1645变压器,河西村6597变压器","poweroffReason":"【停电原因】由于线路接地导致３５ＫＶ川里变电站川夹线５１４线路全线停电【变更送电】因抢修进度加快原因，送电时间由２０：００变更为１４：００【发布渠道】通过９５５９８发布","powerTime":"2019-11-13 13:21:02","powerComm":"已送电","subsNo":"","lineNo":"","tgNo":"","tgName":null,"infoStatus":"1","orgName":"国网唐县供电公司","typeName":null,"infoStatusName":null,"dateDay":null,"orgNos":null,"nowTime":null,"countyName":null,"streetName":null,"villageName":null,"roadName":null,"communityName":null,"tranName":null,"sdLineName":null,"cityCode":"1340622","cityName":"国网唐县供电公司","provinceCode":null,"stopTime":"2019-11-13 14:00:00","powerType":"全部","powerOffArea":"【全线路停电】停川里车站801变压器,川里村1641变压器,川里村西0242变压器,川里村5169变压器,川里乡政府6667变压器,川里乡政府0818变压器,川里中学1940变压器,川里公用1657变压器,和西村1642变压器,夹子北沟5166变压器,夹子村1648变压器,路家寨1644变压器,米家湾1647变压器,米家湾4102变压器,米家湾水3387变压器,客户投资_秦王荒山3217变压器,上赤水新增5162变压器,上秦王1230变压器,五间坨0822变压器,下赤水1643变压器,下赤水3368变压器,下秦王村北1651变压器,小北花1652变压器,秦王杨水站1653变压器,腰子沟1645变压器,河西村6597变压器","powerOffReason":"【停电原因】由于线路接地导致３５ＫＶ川里变电站川夹线５１４线路全线停电【变更送电】因抢修进度加快原因，送电时间由２０：００变更为１４：００【发布渠道】通过９５５９８发布","powerOffId":"2019111313000191"},{"poweroffId":2019111313000187,"sgpoweroffId":null,"subsName":"","lineName":"河暖线511","pubTranName":"周家堡6594变压器,花塔中学1141变压器,桃家湾水利4125变压器,面鱼沟1598变压器,花塔扬水站1899变压器,周家堡1256变压器,桃家湾0022变压器,河暖村1254变压器,下庄尔1253变压器,司里村1255变压器,周家堡水利变压器,司里村北4750变压器,桃家湾水利2000变压器,司里村南4738变压器,","scope":"【影响街道/乡镇】黄石口乡【高危重要客户】无【影响客户】司里村、河暖下庄尔、花塔、花塔中学、扬水站、周家堡村、桃家湾水","startTime":"2019-11-13 08:33:23","stopDate":"2019-11-13 14:00:00","orgNo":"1340622","typeCode":"电网故障停限电","poweroffArea":"【全线路停电】停河暖村1254变压器,河暖水利2212变压器,花塔扬水站1899变压器,花塔中学1141变压器,面鱼沟1598变压器,司里村1255变压器,司里村北4750变压器,司里村南4738变压器,桃家湾0022变压器,桃家湾水利2000变压器,桃家湾水利4125变压器,下庄尔1253变压器,周家堡1256变压器,周家堡水利变压器,周家堡6594变压器","poweroffReason":"【停电原因】由于线路接地导致３５ＫＶ花塔变电站河暖线５１１线路全线停电【变更送电】因抢修进度加快原因，送电时间由２０：００变更为１４：００【发布渠道】通过９５５９８发布","powerTime":"2019-11-13 13:27:09","powerComm":"已送电","subsNo":"","lineNo":"","tgNo":"","tgName":null,"infoStatus":"1","orgName":"国网唐县供电公司","typeName":null,"infoStatusName":null,"dateDay":null,"orgNos":null,"nowTime":null,"countyName":null,"streetName":null,"villageName":null,"roadName":null,"communityName":null,"tranName":null,"sdLineName":null,"cityCode":"1340622","cityName":"国网唐县供电公司","provinceCode":null,"stopTime":"2019-11-13 14:00:00","powerType":"全部","powerOffArea":"【全线路停电】停河暖村1254变压器,河暖水利2212变压器,花塔扬水站1899变压器,花塔中学1141变压器,面鱼沟1598变压器,司里村1255变压器,司里村北4750变压器,司里村南4738变压器,桃家湾0022变压器,桃家湾水利2000变压器,桃家湾水利4125变压器,下庄尔1253变压器,周家堡1256变压器,周家堡水利变压器,周家堡6594变压器","powerOffReason":"【停电原因】由于线路接地导致３５ＫＶ花塔变电站河暖线５１１线路全线停电【变更送电】因抢修进度加快原因，送电时间由２０：００变更为１４：００【发布渠道】通过９５５９８发布","powerOffId":"2019111313000187"},{"poweroffId":2019111313000183,"sgpoweroffId":null,"subsName":"","lineName":"川花线513","pubTranName":"合玉口南1239变压器,古道口东2910变压器,山南庄5184变压器,山南庄1616变压器,古道口南1638变压器,古道口西1640变压器,茶叶庄1617变压器,河北村6596变压器,山南庄3381变压器,河北村1615变压器,合玉口村西4094变压器,合玉口村东水利4648变压器,河北村5164变压器,合玉口4946变压器,百草寺6578变压器,","scope":"【影响街道/乡镇】黄石口乡、川里镇【高危重要客户】无【影响客户】山南庄村、周家堡村、五家会村、花塔北沟村、桃家湾、花塔村、北当村、河北村、茶叶庄村、富家峪村、后七峪未家庄、司里村、唐河西村、苑家会村、岳家台村、三道河村、河暖下庄尔、聂家台村、合玉口村、五家角、河暖、河北台、下庄村、古道口村、小南村","startTime":"2019-11-13 08:32:31","stopDate":"2019-11-13 14:00:00","orgNo":"1340622","typeCode":"电网故障停限电","poweroffArea":"【全线路停电】停合玉口南1239变压器,古道口西1640变压器,建永加工厂,合玉口村东水利4648变压器,河北村6596变压器,合玉口村西4094变压器,河北村5164变压器,张保锁1610,合玉口4946变压器,古道口收费站1444,合玉口开发区照明1635,合玉口开发区1634,荼叶庄石料厂1629,茶叶庄1617变压器,山南庄5184变压器,山南庄1616变压器,唐县鹤峪口顺源货场,0387526256-兴隆选矿厂-专变-45341813-兴隆选矿厂3026,河北村1615变压器,唐县川里腾达选矿厂3050,唐县保唐荒山开发有限公司4942,山南庄3381变压器,古道口东2910变压器,百草寺6578变压器,唐县旺浩钿水泥砖5147,唐县旺浩钿水泥砖厂5244,塑料颗粒厂2308,古道口南1638变压器","poweroffReason":"【停电原因】由于线路接地导致３５ＫＶ川里变电站川花线５１３线路全线停电【变更送电】因抢修进度加快原因，送电时间由２０：００变更为１４：００【发布渠道】通过９５５９８发布","powerTime":"2019-11-13 13:24:35","powerComm":"已送电","subsNo":"","lineNo":"","tgNo":"","tgName":null,"infoStatus":"1","orgName":"国网唐县供电公司","typeName":null,"infoStatusName":null,"dateDay":null,"orgNos":null,"nowTime":null,"countyName":null,"streetName":null,"villageName":null,"roadName":null,"communityName":null,"tranName":null,"sdLineName":null,"cityCode":"1340622","cityName":"国网唐县供电公司","provinceCode":null,"stopTime":"2019-11-13 14:00:00","powerType":"全部","powerOffArea":"【全线路停电】停合玉口南1239变压器,古道口西1640变压器,建永加工厂,合玉口村东水利4648变压器,河北村6596变压器,合玉口村西4094变压器,河北村5164变压器,张保锁1610,合玉口4946变压器,古道口收费站1444,合玉口开发区照明1635,合玉口开发区1634,荼叶庄石料厂1629,茶叶庄1617变压器,山南庄5184变压器,山南庄1616变压器,唐县鹤峪口顺源货场,0387526256-兴隆选矿厂-专变-45341813-兴隆选矿厂3026,河北村1615变压器,唐县川里腾达选矿厂3050,唐县保唐荒山开发有限公司4942,山南庄3381变压器,古道口东2910变压器,百草寺6578变压器,唐县旺浩钿水泥砖5147,唐县旺浩钿水泥砖厂5244,塑料颗粒厂2308,古道口南1638变压器","powerOffReason":"【停电原因】由于线路接地导致３５ＫＶ川里变电站川花线５１３线路全线停电【变更送电】因抢修进度加快原因，送电时间由２０：００变更为１４：００【发布渠道】通过９５５９８发布","powerOffId":"2019111313000183"},{"poweroffId":2019111313000182,"sgpoweroffId":null,"subsName":"","lineName":"唐河西线513","pubTranName":"唐河西1594变压器,唐河西1597变压器,唐河西线新增变压器,聂家台1592变压器,五家会5163变压器,富家峪1625变压器,小南村4063变压器,合玉口北1630变压器,唐河东1260变压器,五家会水利cl5066变压器,花塔村1250变压器,五家会1608变压器,五家会3374变压器,下庄村0824变压器,岳家台1593变压器,唐河西南1631变压器,五家会水利4732变压器,小南村1618变压器,","scope":"【影响街道/乡镇】黄石口乡、川里镇【高危重要客户】无【影响客户】花塔、唐河西、岳家台、富家峪、河峪口、五家会、聂家台、小南、下庄","startTime":"2019-11-13 08:31:13","stopDate":"2019-11-13 14:00:00","orgNo":"1340622","typeCode":"电网故障停限电","poweroffArea":"【全线路停电】停富家峪1625变压器,合玉口北1630变压器,花塔村1250变压器,聂家台1592变压器,唐河西南1631变压器,唐河东1260变压器,唐河西1597变压器,唐河西线新增变压器,五家会1608变压器,五家会3374变压器,五家会5163变压器,五家会水利4732变压器,五家会水利cl5066变压器,下庄村0824变压器,小南村1618变压器,小南村4063变压器,岳家台1593变压器,唐河西1594变压器","poweroffReason":"【停电原因】由于线路接地导致３５ＫＶ花塔变电站唐河西线５１３线路全线停电【变更送电】因抢修进度加快原因，送电时间由２０：００变更为１４：００【发布渠道】通过９５５９８发布","powerTime":"2019-11-13 13:22:31","powerComm":"已送电","subsNo":"","lineNo":"","tgNo":"","tgName":null,"infoStatus":"1","orgName":"国网唐县供电公司","typeName":null,"infoStatusName":null,"dateDay":null,"orgNos":null,"nowTime":null,"countyName":null,"streetName":null,"villageName":null,"roadName":null,"communityName":null,"tranName":null,"sdLineName":null,"cityCode":"1340622","cityName":"国网唐县供电公司","provinceCode":null,"stopTime":"2019-11-13 14:00:00","powerType":"全部","powerOffArea":"【全线路停电】停富家峪1625变压器,合玉口北1630变压器,花塔村1250变压器,聂家台1592变压器,唐河西南1631变压器,唐河东1260变压器,唐河西1597变压器,唐河西线新增变压器,五家会1608变压器,五家会3374变压器,五家会5163变压器,五家会水利4732变压器,五家会水利cl5066变压器,下庄村0824变压器,小南村1618变压器,小南村4063变压器,岳家台1593变压器,唐河西1594变压器","powerOffReason":"【停电原因】由于线路接地导致３５ＫＶ花塔变电站唐河西线５１３线路全线停电【变更送电】因抢修进度加快原因，送电时间由２０：００变更为１４：００【发布渠道】通过９５５９８发布","powerOffId":"2019111313000182"},{"poweroffId":2019111313000179,"sgpoweroffId":null,"subsName":"","lineName":"10kV525高庄线","pubTranName":"南许综合8台区,南许综合7台区,南许综合9台区,南许综合13台区,南许综合14台区,客户投资_南许综合4台区,蠡县南许小学变压器,南许综合1台区,南许综合10台区,南许综合22台区变压器,南许综合15台区,客户投资_南许综合11台区,南许综合21台区,客户投资_南许综合5台区,高庄综合3台区,南许综合20台区,南许综合18台区,南许综合24台区变压器,南许综合16台区,南许农排2台区变压器【纯农排变】,南许综合3台区,高庄综合4台区变压器,南许综合17台区,南许综合2台区,蠡县南许幼儿园变压器,高庄综合2台区,高庄农排2台区【纯农排变】,南许综合19台区,南许综合12台区,高庄农排3台区【纯农排变】,高庄综合1台区,南许综合6台区,","scope":"【影响街道/乡镇】大百尺镇【高危重要客户】无【影响客户】南许村、高庄村","startTime":"2019-11-13 08:33:00","stopDate":"2019-11-13 10:30:00","orgNo":"1340616","typeCode":"电网故障停限电","poweroffArea":"【全线路停电】停南许综合7台区,蠡县正德综合养猪场变压器,恒发毛纺厂,南许农排8台区,南许农排11台区,南许综合20台区,南许综合18台区,南许综合24台区变压器,立源毛纺厂,南许综合9台区,南许综合13台区,南许综合14台区,南许综合16台区,0664755083-中国石油天然气股份有限公司华北油田分公司-专变-202593684-中国石油天然气股份有限公司华北油田分公司变压器,南许农排十二台区,线头加工开花厂,南许农排一台区,南许综合3台区,南许面粉厂,蠡县南许幼儿园变压器,蠡县正德养殖厂,0653453811-蠡县南许二安化纤加工厂-专变-183583595-蠡县南许二安化纤加工厂变压器,南许农排五台区,南许农排2台区变压器【纯农排变】,南许农排三台区,高庄综合4台区变压器,南许综合17台区,南许农排十三台区,南许综合2台区,0683759859-蠡县宏凯棉纺织厂-专变-223596485-蠡县宏凯棉纺织厂变压器,蠡县南许小学变压器,南许综合1台区,南许农排七台区,蠡县统力毛纺厂变压器,南许综合10台区,南许农排四台区,南许村东浇地,保定利源毛纺织有限公司变压器,棉线加工厂,南许烤鸭店,南许综合22台区变压器,南许水泥制板厂,南许综合15台区,益利毛纺厂变压器,南许综合21台区,中国移动通信集团河北有限公司蠡县分公司,客户投资_南许综合11台区,高庄综合3台区,0617141804-蠡县南许二安化纤加工厂-专变-128570237-蠡县南许二安化纤加工厂变压器,南许综合8台区,0681794595-蠡县南许二安化纤加工厂-专变-219745267-蠡县南许二安化纤加工厂变压器,客户投资_南许综合5台区,南许农排六台区,树理浇地,南许农排二台区,客户投资_南许综合4台区,南许梳绒厂,南许开花厂,高庄综合2台区,高庄农排2台区【纯农排变】,南许综合19台区,南许综合12台区,高庄农排1台区【纯农排变】,高庄农排3台区【纯农排变】,高庄综合1台区,南许综合6台区","poweroffReason":"【停电原因】由于站外开关掉闸导致１１０ＫＶ刘铭庄变电站１０ＫＶ高庄５２５线路全线停电【变更送电】因抢修进度加快原因，送电时间由１４：００变更为１０：３０【发布渠道】通过９５５９８发布","powerTime":"2019-11-13 10:02:52","powerComm":"已送电","subsNo":"","lineNo":"","tgNo":"","tgName":null,"infoStatus":"1","orgName":"国网蠡县供电公司","typeName":null,"infoStatusName":null,"dateDay":null,"orgNos":null,"nowTime":null,"countyName":null,"streetName":null,"villageName":null,"roadName":null,"communityName":null,"tranName":null,"sdLineName":null,"cityCode":"1340616","cityName":"国网蠡县供电公司","provinceCode":null,"stopTime":"2019-11-13 10:30:00","powerType":"全部","powerOffArea":"【全线路停电】停南许综合7台区,蠡县正德综合养猪场变压器,恒发毛纺厂,南许农排8台区,南许农排11台区,南许综合20台区,南许综合18台区,南许综合24台区变压器,立源毛纺厂,南许综合9台区,南许综合13台区,南许综合14台区,南许综合16台区,0664755083-中国石油天然气股份有限公司华北油田分公司-专变-202593684-中国石油天然气股份有限公司华北油田分公司变压器,南许农排十二台区,线头加工开花厂,南许农排一台区,南许综合3台区,南许面粉厂,蠡县南许幼儿园变压器,蠡县正德养殖厂,0653453811-蠡县南许二安化纤加工厂-专变-183583595-蠡县南许二安化纤加工厂变压器,南许农排五台区,南许农排2台区变压器【纯农排变】,南许农排三台区,高庄综合4台区变压器,南许综合17台区,南许农排十三台区,南许综合2台区,0683759859-蠡县宏凯棉纺织厂-专变-223596485-蠡县宏凯棉纺织厂变压器,蠡县南许小学变压器,南许综合1台区,南许农排七台区,蠡县统力毛纺厂变压器,南许综合10台区,南许农排四台区,南许村东浇地,保定利源毛纺织有限公司变压器,棉线加工厂,南许烤鸭店,南许综合22台区变压器,南许水泥制板厂,南许综合15台区,益利毛纺厂变压器,南许综合21台区,中国移动通信集团河北有限公司蠡县分公司,客户投资_南许综合11台区,高庄综合3台区,0617141804-蠡县南许二安化纤加工厂-专变-128570237-蠡县南许二安化纤加工厂变压器,南许综合8台区,0681794595-蠡县南许二安化纤加工厂-专变-219745267-蠡县南许二安化纤加工厂变压器,客户投资_南许综合5台区,南许农排六台区,树理浇地,南许农排二台区,客户投资_南许综合4台区,南许梳绒厂,南许开花厂,高庄综合2台区,高庄农排2台区【纯农排变】,南许综合19台区,南许综合12台区,高庄农排1台区【纯农排变】,高庄农排3台区【纯农排变】,高庄综合1台区,南许综合6台区","powerOffReason":"【停电原因】由于站外开关掉闸导致１１０ＫＶ刘铭庄变电站１０ＫＶ高庄５２５线路全线停电【变更送电】因抢修进度加快原因，送电时间由１４：００变更为１０：３０【发布渠道】通过９５５９８发布","powerOffId":"2019111313000179"},{"poweroffId":2019111313000177,"sgpoweroffId":null,"subsName":"","lineName":"苑家会线515","pubTranName":"老虎岭1605变压器,三道河村1602变压器,花塔北沟1600变压器,花塔北沟水2843变压器,河北台1791变压器,五家角1604变压器,花塔村4761变压器,五家角村北变压器,三道河6567变压器,小花塔1601变压器,北当1603-2变压器,未家庄1224变压器,大草原1225变压器,花塔村东4075变压器,北当1603变压器,花塔乡1599变压器,西湾4948变压器,苑家会村6051变压器,唐河铺1606变压器,","scope":"【影响街道/乡镇】黄石口乡【高危重要客户】无【影响客户】苑家会、三道河村、花塔村、后七峪、未家庄、北当村、五家角河北台、五家角、花塔北沟","startTime":"2019-11-13 08:29:20","stopDate":"2019-11-13 14:00:00","orgNo":"1340622","typeCode":"电网故障停限电","poweroffArea":"【全线路停电】停北当1603-2变压器,花塔乡1599变压器,五家角村北变压器,北当1603变压器,河北台1791变压器,花塔北沟水2843变压器,花塔北沟1600变压器,花塔村4761变压器,花塔村东4075变压器,老虎岭1605变压器,三道河村1602变压器,三道河6567变压器,唐河铺1606变压器,未家庄1224变压器,大草原1225变压器,五家角1604变压器,小花塔1601变压器,西湾4948变压器,苑家会村6051变压器","poweroffReason":"【停电原因】由于线路接地导致３５ＫＶ花塔变电站苑家会线５１５线路全线停电【变更送电】因抢修进度加快原因，送电时间由２０：００变更为１４：００【发布渠道】通过９５５９８发布","powerTime":"2019-11-13 13:21:08","powerComm":"已送电","subsNo":"","lineNo":"","tgNo":"","tgName":null,"infoStatus":"1","orgName":"国网唐县供电公司","typeName":null,"infoStatusName":null,"dateDay":null,"orgNos":null,"nowTime":null,"countyName":null,"streetName":null,"villageName":null,"roadName":null,"communityName":null,"tranName":null,"sdLineName":null,"cityCode":"1340622","cityName":"国网唐县供电公司","provinceCode":null,"stopTime":"2019-11-13 14:00:00","powerType":"全部","powerOffArea":"【全线路停电】停北当1603-2变压器,花塔乡1599变压器,五家角村北变压器,北当1603变压器,河北台1791变压器,花塔北沟水2843变压器,花塔北沟1600变压器,花塔村4761变压器,花塔村东4075变压器,老虎岭1605变压器,三道河村1602变压器,三道河6567变压器,唐河铺1606变压器,未家庄1224变压器,大草原1225变压器,五家角1604变压器,小花塔1601变压器,西湾4948变压器,苑家会村6051变压器","powerOffReason":"【停电原因】由于线路接地导致３５ＫＶ花塔变电站苑家会线５１５线路全线停电【变更送电】因抢修进度加快原因，送电时间由２０：００变更为１４：００【发布渠道】通过９５５９８发布","powerOffId":"2019111313000177"},{"poweroffId":2019111313000173,"sgpoweroffId":null,"subsName":"","lineName":"工业线515","pubTranName":"沙里安7167变压器【光伏】,古道口村北6823变压器,黄石口北1613变压器,芦苇村北cl3389变压器,石北村1656变压器,岭北村1614变压器,石腰7052变压器,对子门1622变压器,黄石口南1627变压器,望尔峪1620变压器,上庄村1619变压器,沙里安1621变压器,黄石口4777变压器,石腰村1655变压器,黄石口东4067变压器,黄石口4945变压器,大寺上1623变压器,望尔峪6736变压器光伏,上庄子5160变压器,下庄新增6824变压器,药草村1596变压器,古道口3280变压器,芦苇村0866变压器,岭北3043变压器,望尔峪北沟5165变压器,古道口5168变压器,黄石口村2735变压器,","scope":"【影响街道/乡镇】川里镇、黄石口乡【高危重要客户】无【影响客户】石腰村、石北村、古道口村、沙里安村、上庄村药草、望尔峪村、大寺上、对子门、黄石口、岭北村、乡政府、芦苇村","startTime":"2019-11-13 08:29:14","stopDate":"2019-11-13 14:00:00","orgNo":"1340622","typeCode":"电网故障停限电","poweroffArea":"【全线路停电】停鑫盛选矿厂2476,黄石口矿业公司2828,唐县华建选厂2054,黄石口矿业公司2810,志合选厂2777,唐县东兴选矿厂有限公司,志合选矿厂1841,黄石口北1613变压器,昌盛选矿厂,望尔峪北沟5165变压器,志合选矿厂2865,邸铁晨水3449,唐县川里虹祥选矿厂3376,岭北沙场2827,唐县黄石口矿业有限公司,石北水2930,石腰村1655变压器,石北村1656变压器,唐县黄石口矿业有限公司3367,鸿发选矿厂2756,黄石口东4067变压器,石腰7052变压器,赵金禄鹏翔选厂2471,黄石口矿业公司2295,黄石口村2735变压器,中交路桥北方工程有限公司XZ6710,望尔峪1620变压器,保定东部矿业有限公司2045,虹祥选矿厂2042,黄石口矿业有限公司3085,唐县黄石口矿业有限公司3152,0387525716-唐县黄石口矿业有限公司-专变-45341895-黄石口矿业有限公司2210,黄石口4945变压器,大寺上1623变压器,中交路桥北方工程有限公司新装6735,黄石口石粉2257,唐县福泰选矿厂,中交路桥北方工程有限公司新装6801,兴华分厂1228,药草村1596变压器,唐县黄石口矿业有限公司3191,沙里安7167变压器【光伏】,对子门1622变压器,古道口3280变压器,陈大栓铁厂,保定东部矿业有限公司,建峰养猪厂,下庄新增6824变压器,黄石口矿业有限公司2322,黄石口矿业公司2666,黄石口矿业公司2293,黄石口南1627变压器,芦苇村北cl3389变压器,中交路桥北方工程有限公司计量点P6722,秦王砖厂10KV配变,陈万顺1612,芦苇村0866变压器,上庄村1619变压器,鸿发选厂水泵2755,中交路桥北方工程有限公司计量点,望尔峪6736变压器光伏,运通选矿厂,岭北3043变压器,黄石口乡1626,古道口5168变压器,中国电信岭北,峪鑫选矿厂,上庄子5160变压器,黄石口4777变压器,古道口村北6823变压器,黄石口矿山2480,黄石口矿业公司2875,秦王砖厂1636,沙里安1621变压器,岭北村1614变压器","poweroffReason":"【停电原因】由于站内故障导致３５ＫＶ川里变电站工业线５１５线路全线停电【变更送电】因抢修进度加快原因，送电时间由２０：００变更为１４：００【发布渠道】通过９５５９８发布","powerTime":"2019-11-13 13:19:40","powerComm":"已送电","subsNo":"","lineNo":"","tgNo":"","tgName":null,"infoStatus":"1","orgName":"国网唐县供电公司","typeName":null,"infoStatusName":null,"dateDay":null,"orgNos":null,"nowTime":null,"countyName":null,"streetName":null,"villageName":null,"roadName":null,"communityName":null,"tranName":null,"sdLineName":null,"cityCode":"1340622","cityName":"国网唐县供电公司","provinceCode":null,"stopTime":"2019-11-13 14:00:00","powerType":"全部","powerOffArea":"【全线路停电】停鑫盛选矿厂2476,黄石口矿业公司2828,唐县华建选厂2054,黄石口矿业公司2810,志合选厂2777,唐县东兴选矿厂有限公司,志合选矿厂1841,黄石口北1613变压器,昌盛选矿厂,望尔峪北沟5165变压器,志合选矿厂2865,邸铁晨水3449,唐县川里虹祥选矿厂3376,岭北沙场2827,唐县黄石口矿业有限公司,石北水2930,石腰村1655变压器,石北村1656变压器,唐县黄石口矿业有限公司3367,鸿发选矿厂2756,黄石口东4067变压器,石腰7052变压器,赵金禄鹏翔选厂2471,黄石口矿业公司2295,黄石口村2735变压器,中交路桥北方工程有限公司XZ6710,望尔峪1620变压器,保定东部矿业有限公司2045,虹祥选矿厂2042,黄石口矿业有限公司3085,唐县黄石口矿业有限公司3152,0387525716-唐县黄石口矿业有限公司-专变-45341895-黄石口矿业有限公司2210,黄石口4945变压器,大寺上1623变压器,中交路桥北方工程有限公司新装6735,黄石口石粉2257,唐县福泰选矿厂,中交路桥北方工程有限公司新装6801,兴华分厂1228,药草村1596变压器,唐县黄石口矿业有限公司3191,沙里安7167变压器【光伏】,对子门1622变压器,古道口3280变压器,陈大栓铁厂,保定东部矿业有限公司,建峰养猪厂,下庄新增6824变压器,黄石口矿业有限公司2322,黄石口矿业公司2666,黄石口矿业公司2293,黄石口南1627变压器,芦苇村北cl3389变压器,中交路桥北方工程有限公司计量点P6722,秦王砖厂10KV配变,陈万顺1612,芦苇村0866变压器,上庄村1619变压器,鸿发选厂水泵2755,中交路桥北方工程有限公司计量点,望尔峪6736变压器光伏,运通选矿厂,岭北3043变压器,黄石口乡1626,古道口5168变压器,中国电信岭北,峪鑫选矿厂,上庄子5160变压器,黄石口4777变压器,古道口村北6823变压器,黄石口矿山2480,黄石口矿业公司2875,秦王砖厂1636,沙里安1621变压器,岭北村1614变压器","powerOffReason":"【停电原因】由于站内故障导致３５ＫＶ川里变电站工业线５１５线路全线停电【变更送电】因抢修进度加快原因，送电时间由２０：００变更为１４：００【发布渠道】通过９５５９８发布","powerOffId":"2019111313000173"},{"poweroffId":2019111313000160,"sgpoweroffId":null,"subsName":"","lineName":"葛村线576","pubTranName":"刘祥店19号,半壁店3号,刘祥店22号,刘祥店1号,北贺寿营9号,十里铺4号,十里铺村11号变台区,刘祥店12号,史各庄16号,刘祥店4号,十里铺8号,十里铺村15号变台区,刘祥店2号,刘祥店17号,刘祥店8号,刘祥店16号,刘祥店23号,刘祥店3号,刘祥店15号,刘祥店13号,刘祥店7号,刘祥店25号,刘祥店10号【纯农排变】,刘祥店5号【纯农排变】,刘祥店20号,刘祥店11号,十里铺村16号变台区,青苗营12号,刘祥店6号,十里铺村14号变台区,刘祥店14号,刘祥店18号,刘祥店24号,北贺寿营8号,刘祥店21号,青苗营14号,","scope":"【影响街道/乡镇】安肃镇 【高危重要客户】无 【影响客户】刘祥店、十里铺、青庙营、北贺寿营村","startTime":"2019-11-13 08:25:00","stopDate":"2019-11-13 12:30:00","orgNo":"1340605","typeCode":"电网故障停限电","poweroffArea":"【全线路停电】停刘祥店21号,刘祥店22号,刘祥店23号,刘祥店24号,十里铺村11号变台区,刘祥店25号,刘祥店17号,十里铺村14号变台区,十里铺村16号变台区,刘祥店15号,刘祥店16号,刘祥店20号,十里铺村15号变台区,刘祥店18号,刘祥店19号,青庙营7号,史各庄16号,刘祥店9号,刘祥店14号,十里铺1号,刘祥店12号,刘祥店5号【纯农排变】,刘祥店1号,刘祥店10号【纯农排变】,北贺寿营4号,北贺寿营7号【纯农排变】,刘祥店7号,青庙营15号,刘祥店2号,北贺寿营8号,北贺寿营5号【纯农排变】,北贺寿营6号,青庙营8号,青庙营2号,十里铺4号,刘祥店6号,刘祥店11号,青苗营14号,青苗营16号,刘祥店13号,青庙营4号,十里铺8号,安肃镇供电所5号,北贺寿营1号,十里铺9号,刘祥店8号,半壁店3号,青苗营12号,青庙营1号,刘祥店4号,北贺寿营9号,青庙营13,十里铺3号,北贺寿营3号,刘祥店3号,青庙营11号,北贺寿营2号,十里铺10号,青庙营3号,青庙营5号,青庙营6号,青庙营10号,十里铺2号","poweroffReason":"【停电原因】由于Ｂ相接地导致１１０ＫＶ何家店变电站葛村线５７６线路全线停电 【变更送电】因抢修进度加快原因，送电时间由１９:００变更为１２:３０ 【发布渠道】通过９５５９８发布","powerTime":"2019-11-13 11:46:37","powerComm":"已送电","subsNo":"","lineNo":"","tgNo":"","tgName":null,"infoStatus":"1","orgName":"国网徐水县供电公司","typeName":null,"infoStatusName":null,"dateDay":null,"orgNos":null,"nowTime":null,"countyName":null,"streetName":null,"villageName":null,"roadName":null,"communityName":null,"tranName":null,"sdLineName":null,"cityCode":"1340605","cityName":"国网徐水县供电公司","provinceCode":null,"stopTime":"2019-11-13 12:30:00","powerType":"全部","powerOffArea":"【全线路停电】停刘祥店21号,刘祥店22号,刘祥店23号,刘祥店24号,十里铺村11号变台区,刘祥店25号,刘祥店17号,十里铺村14号变台区,十里铺村16号变台区,刘祥店15号,刘祥店16号,刘祥店20号,十里铺村15号变台区,刘祥店18号,刘祥店19号,青庙营7号,史各庄16号,刘祥店9号,刘祥店14号,十里铺1号,刘祥店12号,刘祥店5号【纯农排变】,刘祥店1号,刘祥店10号【纯农排变】,北贺寿营4号,北贺寿营7号【纯农排变】,刘祥店7号,青庙营15号,刘祥店2号,北贺寿营8号,北贺寿营5号【纯农排变】,北贺寿营6号,青庙营8号,青庙营2号,十里铺4号,刘祥店6号,刘祥店11号,青苗营14号,青苗营16号,刘祥店13号,青庙营4号,十里铺8号,安肃镇供电所5号,北贺寿营1号,十里铺9号,刘祥店8号,半壁店3号,青苗营12号,青庙营1号,刘祥店4号,北贺寿营9号,青庙营13,十里铺3号,北贺寿营3号,刘祥店3号,青庙营11号,北贺寿营2号,十里铺10号,青庙营3号,青庙营5号,青庙营6号,青庙营10号,十里铺2号","powerOffReason":"【停电原因】由于Ｂ相接地导致１１０ＫＶ何家店变电站葛村线５７６线路全线停电 【变更送电】因抢修进度加快原因，送电时间由１９:００变更为１２:３０ 【发布渠道】通过９５５９８发布","powerOffId":"2019111313000160"},{"poweroffId":2019111313000158,"sgpoweroffId":null,"subsName":"","lineName":"新城线517","pubTranName":"南场西变压器,太平庄东柱上变压器,新城宋庄南变压器,北关西1变压器,南五里西北1变压器,新城镇人民政府变压器,小陈庄东变压器,宁家坟北变压器,","scope":"【影响街道/乡镇】新城镇 【高危重要客户】高碑店市新城镇人民政府、新城镇中心卫生院 【影响客户】太平庄村、杨庄村、杨庄南、杨庄北、北场村、南场村、城东村、城西村、北关村、南关村、马贾店村、宁家坟村、丰胡庄村、宋庄村、骆街村、李庄村、东张庄村、小陈庄村、大陈庄村、南五里村、仁合庄村、线庄村、杨南村、西张村、杨北村、小周庄村、常居物业、玖瑞门窗、开善寺文物保护管理所、旺盛达农业灌溉、新城初级中学、新城贺发箱包销售部、新城镇北场中心小学、新城镇陈建强家具城、新城镇丰胡庄中心小学、新城镇总校城内幼儿园、新城紫泉中学、鑫满园面业有限公司、河北谛凡贸易有限公司、农村商业银行、华奥纺织品公司、平素生林场、仁合庄农场、王会茹、新城粮站、网络通信、紫泉塑料制品有限公司","startTime":"2019-11-13 08:24:25","stopDate":"2019-11-13 10:00:00","orgNo":"1340612","typeCode":"电网故障停限电","poweroffArea":"【全线路停电】停南五里西变压器,小陈庄变压器,0681543559-高碑店市旺盛达农业灌溉设备配件有限公司-专变-219729025-高碑店市旺盛达农业灌溉设备配件有限公司变压器,东张庄变压器,小陈庄西水变压器,南场水变压器【纯农排变】,太平庄东柱上变压器,高碑店市鲁格门窗有限公司变压器,新城供电所、新城公变变压器,高碑店市新城宜简家具销售部,城内西村变压器,丰胡庄三队变压器,南场南变压器,南五里西北变压器,变压器-076,北场变压器,李庄水变压器【纯农排变】,高碑店市新城镇南五里幼儿园,南关东排灌变压器【纯农排变】,小陈庄南水变压器【纯农排变】,宁家坟水二变压器【纯农排变】,平素生林场,仁合庄东水变压器,南五里西北1变压器,新城镇人民政府变压器,高碑店市新城初级中学变压器,紫泉塑料制品河北有限公司变压器,大陈庄南变压器,变压器-075,河北谛凡贸易有限公司变压器,南五里南水变压器,联通公司,南五里东地变压器【纯农排变】,新城粮站,益民化工厂(宋庄水)变压器,骆街水变压器【纯农排变】,仁合庄水变压器,华奥纺织品公司,南五里南变压器,大陈庄南水变压器【纯农排变】,高碑店市开善寺文物保护管理所,高碑店市鑫满园面业有限公司2#变压器,西张变压器,南关水变压器【纯农排变】,丰胡庄水变压器【纯农排变】,南五里东水变压器【纯农排变】,马贾店北变压器,小周庄变压器,南五里南水2变压器【纯农排变】,高碑店市新城镇总校城内幼儿园变压器,南场西变压器,南关北排灌变压器【纯农排变】,高碑店市新城镇丰胡庄中心小学,线庄北变压器,杨南变压器,高碑店市鑫满园面业有限公司1#变压器,北关西变压器,仁合庄农场,王会茹,新城供电所,北关西1变压器,高碑店市新城镇北场中心小学,南五里小学变压器,线庄东柱上变压器,宁家坟变压器,南五里农场变压器,仁合庄西台变压器,宁家坟水变压器【纯农排变】,新城宋庄南变压器,南五里南地变压器【纯农排变】,客户投资_仁合庄变压器,南五里北水变压器,新城城东变压器,太平庄变压器,李庄变压器,高碑店市新城镇陈建强家具城,南关变压器,线庄变压器,南五里西排灌变压器【纯农排变】,城西社办变压器,南场变压器,新城北关1变压器,仁合庄西水变压器【纯农排变】,小陈庄东变压器,南关东变压器,宋庄变压器,小陈庄水变压器【纯农排变】,东张庄东水变压器【纯农排变】,南关南排灌变压器【纯农排变】,高碑店市新城贺发箱包销售部,杨北变压器,马贾店2变压器,大陈庄水变压器【纯农排变】,马贾店水变压器【纯农排变】,马贾店水三变压器【纯农排变】,丰胡庄大队变压器,杨北东变压器,李庄水2变压器【纯农排变】,南五里北变压器,丰胡庄排灌变压器【纯农排变】,高碑店市新城镇人民政府变压器,高碑店市白芙蓉中学,宁家坟北变压器,新城城东东变压器,东张庄水变压器【纯农排变】,南关北变压器,大陈庄变压器,骆街变压器,河北高碑店农村商业银行股份有限公司,马贾店变压器,太平庄排灌变压器,新城北关2变压器","poweroffReason":"【停电原因】由于小陈庄水分支１７号杆Ａ相线断导致１１０ＫＶ太平庄变电站１０ＫＶ新城５１７线路全线停电 【变更送电】因抢修进度加快原因，送电时间由１２：３０变更为１０：００ 【发布渠道】通过９５５９８发布","powerTime":"2019-11-13 09:28:36","powerComm":"已送电","subsNo":"","lineNo":"","tgNo":"","tgName":null,"infoStatus":"1","orgName":"国网高碑店市供电公司","typeName":null,"infoStatusName":null,"dateDay":null,"orgNos":null,"nowTime":null,"countyName":null,"streetName":null,"villageName":null,"roadName":null,"communityName":null,"tranName":null,"sdLineName":null,"cityCode":"1340612","cityName":"国网高碑店市供电公司","provinceCode":null,"stopTime":"2019-11-13 10:00:00","powerType":"全部","powerOffArea":"【全线路停电】停南五里西变压器,小陈庄变压器,0681543559-高碑店市旺盛达农业灌溉设备配件有限公司-专变-219729025-高碑店市旺盛达农业灌溉设备配件有限公司变压器,东张庄变压器,小陈庄西水变压器,南场水变压器【纯农排变】,太平庄东柱上变压器,高碑店市鲁格门窗有限公司变压器,新城供电所、新城公变变压器,高碑店市新城宜简家具销售部,城内西村变压器,丰胡庄三队变压器,南场南变压器,南五里西北变压器,变压器-076,北场变压器,李庄水变压器【纯农排变】,高碑店市新城镇南五里幼儿园,南关东排灌变压器【纯农排变】,小陈庄南水变压器【纯农排变】,宁家坟水二变压器【纯农排变】,平素生林场,仁合庄东水变压器,南五里西北1变压器,新城镇人民政府变压器,高碑店市新城初级中学变压器,紫泉塑料制品河北有限公司变压器,大陈庄南变压器,变压器-075,河北谛凡贸易有限公司变压器,南五里南水变压器,联通公司,南五里东地变压器【纯农排变】,新城粮站,益民化工厂(宋庄水)变压器,骆街水变压器【纯农排变】,仁合庄水变压器,华奥纺织品公司,南五里南变压器,大陈庄南水变压器【纯农排变】,高碑店市开善寺文物保护管理所,高碑店市鑫满园面业有限公司2#变压器,西张变压器,南关水变压器【纯农排变】,丰胡庄水变压器【纯农排变】,南五里东水变压器【纯农排变】,马贾店北变压器,小周庄变压器,南五里南水2变压器【纯农排变】,高碑店市新城镇总校城内幼儿园变压器,南场西变压器,南关北排灌变压器【纯农排变】,高碑店市新城镇丰胡庄中心小学,线庄北变压器,杨南变压器,高碑店市鑫满园面业有限公司1#变压器,北关西变压器,仁合庄农场,王会茹,新城供电所,北关西1变压器,高碑店市新城镇北场中心小学,南五里小学变压器,线庄东柱上变压器,宁家坟变压器,南五里农场变压器,仁合庄西台变压器,宁家坟水变压器【纯农排变】,新城宋庄南变压器,南五里南地变压器【纯农排变】,客户投资_仁合庄变压器,南五里北水变压器,新城城东变压器,太平庄变压器,李庄变压器,高碑店市新城镇陈建强家具城,南关变压器,线庄变压器,南五里西排灌变压器【纯农排变】,城西社办变压器,南场变压器,新城北关1变压器,仁合庄西水变压器【纯农排变】,小陈庄东变压器,南关东变压器,宋庄变压器,小陈庄水变压器【纯农排变】,东张庄东水变压器【纯农排变】,南关南排灌变压器【纯农排变】,高碑店市新城贺发箱包销售部,杨北变压器,马贾店2变压器,大陈庄水变压器【纯农排变】,马贾店水变压器【纯农排变】,马贾店水三变压器【纯农排变】,丰胡庄大队变压器,杨北东变压器,李庄水2变压器【纯农排变】,南五里北变压器,丰胡庄排灌变压器【纯农排变】,高碑店市新城镇人民政府变压器,高碑店市白芙蓉中学,宁家坟北变压器,新城城东东变压器,东张庄水变压器【纯农排变】,南关北变压器,大陈庄变压器,骆街变压器,河北高碑店农村商业银行股份有限公司,马贾店变压器,太平庄排灌变压器,新城北关2变压器","powerOffReason":"【停电原因】由于小陈庄水分支１７号杆Ａ相线断导致１１０ＫＶ太平庄变电站１０ＫＶ新城５１７线路全线停电 【变更送电】因抢修进度加快原因，送电时间由１２：３０变更为１０：００ 【发布渠道】通过９５５９８发布","powerOffId":"2019111313000158"}],"pageModel":{"pageNow":383,"totalCount":10973,"totalPage":1098,"tableRows":0,"pageCount":10,"beginCount":3820},"isExperi":"1"}