{"message":"","today":"2020-06-15","seleList":[{"poweroffId":2019111113000259,"sgpoweroffId":null,"subsName":"","lineName":"10KV东永阳515","pubTranName":"南庞村南专用井|0703,居士大棚菜2,二十里铺市场,南庞村西2#,西永阳大棚二,二十里铺2变压器,西永阳村内二台区变压器,居士村西2,南庞村南二,周家庄村西变压器,居士村西南箱变间隔配电变压器,二十里铺村内1变压器,居士大棚菜,东永阳村南2台区,周家庄村南变压器,周家庄村南专用,南庞村南变压器,居士村东井2台区,铺头村西变压器,东永阳2变压器,铺头村内2,西永阳村东,南庞村西变压器,居士肖树安大棚井,永阳中学台区【冬季供暖设施】,西永阳村内,居士南园子井台区,二十里铺机井构件厂变压器,二十里铺村西变压器,居士村东井,西永阳大棚菜,东永阳大街|0685,居士村西1,东永阳村南,永阳镇政府台区【冬季供暖设施】,永阳卫生院,东永阳西台区,周家庄村东变压器,东永阳村东台区,周家庄村南2台区,东永阳1村北|0681,","scope":"【影响街道/乡镇】永阳镇 【高危重要客户】无 【影响客户】二十里铺村、铺头村、居士村、西永阳村、东永阳村、南庞村、周家庄村","startTime":"2019-11-11 23:00:00","stopDate":"2019-11-12 00:30:00","orgNo":"1340614","typeCode":"其他临时停电","poweroffArea":"【全线路停电】停南庞村南专用井|0703,居士大棚菜2,二十里铺市场,南庞村西2#,西永阳大棚二,二十里铺2变压器,0694302594-中国邮政集团公司河北省涞水县分公司-专变-237547948-中国邮政集团公司河北省涞水县分公司100KVA专变,西永阳村内二台区变压器,居士村西2,东永阳2变压器,西永阳村内,居士南园子井台区,南庞村南二,周家庄村西变压器,中亚灰厂2,居士村西南箱变间隔配电变压器,二十里铺村内1变压器,居士大棚菜,东永阳村南2台区,周家庄村南变压器,周家庄村南专用,永阳信用社,南庞村南变压器,居士村东井2台区,国华塑料颗粒,铺头村西变压器,铺头村内2,西永阳村东,南庞村西变压器,永兴钙粉厂,涞水邮政,居士肖树安大棚井,永阳中学台区【冬季供暖设施】,二十里铺机井构件厂变压器,二十里铺村西变压器,居士村东井,西永阳大棚菜,东永阳大街|0685,居士村西1,东永阳村南,南庞灰厂,周家庄砖厂,永阳镇政府台区【冬季供暖设施】,东福灰厂,升源公司,永阳卫生院,东永阳西台区,周家庄村东变压器,东永阳村东台区,周家庄村南2台区,信丰瑞通630KVA专变,东永阳1村北|0681,永阳中学(1),周家庄砖厂2","poweroffReason":"【停电原因】由于站内倒运行方式导致３５ＫＶ明义变电站１０ＫＶ东永阳５１５线路全线停电 【变更送电】无 【发布渠道】通过９５５９８发布","powerTime":"2019-11-12 00:05:32","powerComm":"已送电","subsNo":"","lineNo":"","tgNo":"","tgName":null,"infoStatus":"1","orgName":"国网涞水县供电公司","typeName":null,"infoStatusName":null,"dateDay":null,"orgNos":null,"nowTime":null,"countyName":null,"streetName":null,"villageName":null,"roadName":null,"communityName":null,"tranName":null,"sdLineName":null,"cityCode":"1340614","cityName":"国网涞水县供电公司","provinceCode":null,"stopTime":"2019-11-12 00:30:00","powerType":"全部","powerOffArea":"【全线路停电】停南庞村南专用井|0703,居士大棚菜2,二十里铺市场,南庞村西2#,西永阳大棚二,二十里铺2变压器,0694302594-中国邮政集团公司河北省涞水县分公司-专变-237547948-中国邮政集团公司河北省涞水县分公司100KVA专变,西永阳村内二台区变压器,居士村西2,东永阳2变压器,西永阳村内,居士南园子井台区,南庞村南二,周家庄村西变压器,中亚灰厂2,居士村西南箱变间隔配电变压器,二十里铺村内1变压器,居士大棚菜,东永阳村南2台区,周家庄村南变压器,周家庄村南专用,永阳信用社,南庞村南变压器,居士村东井2台区,国华塑料颗粒,铺头村西变压器,铺头村内2,西永阳村东,南庞村西变压器,永兴钙粉厂,涞水邮政,居士肖树安大棚井,永阳中学台区【冬季供暖设施】,二十里铺机井构件厂变压器,二十里铺村西变压器,居士村东井,西永阳大棚菜,东永阳大街|0685,居士村西1,东永阳村南,南庞灰厂,周家庄砖厂,永阳镇政府台区【冬季供暖设施】,东福灰厂,升源公司,永阳卫生院,东永阳西台区,周家庄村东变压器,东永阳村东台区,周家庄村南2台区,信丰瑞通630KVA专变,东永阳1村北|0681,永阳中学(1),周家庄砖厂2","powerOffReason":"【停电原因】由于站内倒运行方式导致３５ＫＶ明义变电站１０ＫＶ东永阳５１５线路全线停电 【变更送电】无 【发布渠道】通过９５５９８发布","powerOffId":"2019111113000259"},{"poweroffId":2019111113000258,"sgpoweroffId":null,"subsName":"","lineName":"李各庄线527","pubTranName":"北李各庄西混配变,太平庄村内混合配变,南李各庄混合配变,南李各庄村西混合配变,北李各庄西北混配变,姜庄村东南混配变,南李各庄新混配变,姜庄村内东混配变,北李各庄北混,大十五计新民居3号配变,八里庄新区配变,太平庄新混配变,姜庄村内西混配变,八里庄西混,北李各庄东混配变,姜庄南混,南无东混2号,李各庄外西3混配变,南无村东混合配变,大十五计新民居2号配变,十里铺新民居配变,十里铺东混配变,南李各庄西南混配变,大十五计南混配变,大十五计外西混配变,大十五计内西混配变,大十五计东南混配变,南无南混,南李各庄北混合配变,南李各庄南混,南李各庄新民居2号,十里铺混合配变,大十五计东混配变,大十五计大队混配变,大十五计外西混2号配变,南无村西混合配变,北李各庄村外西混配变,北李各庄北混2号,大十五计南混2号配变,南李各庄内混合配变,","scope":"【影响街道/乡镇】赵庄乡、望都镇 【高危重要客户】无　　 【影响客户】南无村、大十五计、太平庄、南李各庄、北李各庄、姜庄村、十里铺、八里庄","startTime":"2019-11-11 17:38:20","stopDate":"2019-11-11 21:40:00","orgNo":"1340623","typeCode":"电网故障停限电","poweroffArea":"【全线路停电】停南无南混,大十五计东南混配变,大十五计外西混2号配变,南无村西混合配变,北李各庄村外西混配变,北李各庄北混2号,大十五计南混2号配变,大十五计南混配变,大十五计外西混配变,大十五计内西混配变,姜庄村内东混配变,北李各庄西北混配变,南李各庄北混合配变,南李各庄南混,南李各庄新民居2号,十里铺混合配变,南李各庄内混合配变,北李各庄西混配变,太平庄村内混合配变,南李各庄混合配变,南李各庄村西混合配变,姜庄村东南混配变,南李各庄新混配变,北李各庄北混,大十五计新民居3号配变,八里庄新区配变,太平庄新混配变,姜庄村内西混配变,八里庄西混,北李各庄东混配变,姜庄南混,南无东混2号,李各庄外西3混配变,南无村东混合配变,大十五计新民居2号配变,十里铺新民居配变,十里铺东混配变,南李各庄西南混配变,大十五计东混配变,大十五计大队混配变","poweroffReason":"【停电原因】由于站内开关跳闸导致１１０ＫＶ八里庄变电站李各庄线５２７线路全线停电 【变更送电】因抢修进度加快原因，送电时间由２３：３０变更为２１：４０ 【发布渠道】通过９５５９８发布","powerTime":"2019-11-11 21:10:21","powerComm":"已送电","subsNo":"","lineNo":"","tgNo":"","tgName":null,"infoStatus":"1","orgName":"国网望都县供电公司","typeName":null,"infoStatusName":null,"dateDay":null,"orgNos":null,"nowTime":null,"countyName":null,"streetName":null,"villageName":null,"roadName":null,"communityName":null,"tranName":null,"sdLineName":null,"cityCode":"1340623","cityName":"国网望都县供电公司","provinceCode":null,"stopTime":"2019-11-11 21:40:00","powerType":"全部","powerOffArea":"【全线路停电】停南无南混,大十五计东南混配变,大十五计外西混2号配变,南无村西混合配变,北李各庄村外西混配变,北李各庄北混2号,大十五计南混2号配变,大十五计南混配变,大十五计外西混配变,大十五计内西混配变,姜庄村内东混配变,北李各庄西北混配变,南李各庄北混合配变,南李各庄南混,南李各庄新民居2号,十里铺混合配变,南李各庄内混合配变,北李各庄西混配变,太平庄村内混合配变,南李各庄混合配变,南李各庄村西混合配变,姜庄村东南混配变,南李各庄新混配变,北李各庄北混,大十五计新民居3号配变,八里庄新区配变,太平庄新混配变,姜庄村内西混配变,八里庄西混,北李各庄东混配变,姜庄南混,南无东混2号,李各庄外西3混配变,南无村东混合配变,大十五计新民居2号配变,十里铺新民居配变,十里铺东混配变,南李各庄西南混配变,大十五计东混配变,大十五计大队混配变","powerOffReason":"【停电原因】由于站内开关跳闸导致１１０ＫＶ八里庄变电站李各庄线５２７线路全线停电 【变更送电】因抢修进度加快原因，送电时间由２３：３０变更为２１：４０ 【发布渠道】通过９５５９８发布","powerOffId":"2019111113000258"},{"poweroffId":2019111113000249,"sgpoweroffId":null,"subsName":"","lineName":"10KV檀山512","pubTranName":"十里铺西井,铺头村北2台区,北秋兰村西,南庞村东变压器,永阳供电所变压器,北秋兰村南养殖场变压器,北秋兰村内西台区变压器,坛山村西台区变压器,丛西村南（西）变压器,坛山村内变压器,行宫北（内）台区变压器,北秋兰市场变压器,二十里铺村东北,北秋兰西南台区,北秋兰村东变压器,丛西村中台区,铺头村北井|0704,行宫1村南|0737,北秋兰市场2台区,二十里铺村东二,铺头村南,铺头村东二,丛西村南专用变压器,铺头村内|0706,北秋兰村东2#,南庞村东专用井|0702,铺头村东变压器,坛山村西北变压器,","scope":"【影响街道/乡镇】永阳镇 【高危重要客户】无 【影响客户】北秋兰村、丛西村、檀山村、南庞村、铺头村、行宫村、二十里铺村","startTime":"2019-11-11 23:00:00","stopDate":"2019-11-12 00:30:00","orgNo":"1340614","typeCode":"其他临时停电","poweroffArea":"【全线路停电】停汇源灰粉厂,涞富灰粉厂,福海灰粉厂,联合灰粉厂,铺头村北2台区,玉成灰粉厂,华林实业公司,北秋兰村西,北秋兰面粉厂,宏达水泥厂,王俊力灰粉厂,南庞村东变压器,永阳供电所变压器,建辉灰粉厂,张增军灰粉厂,同顺钙粉厂,顺发灰粉厂,高科电力,北秋兰村南养殖场变压器,北秋兰村内西台区变压器,涞水县凤福灰粉厂新增变压器,古艺坊家俱厂,坛山村内变压器,北秋兰市场变压器,刘福灰粉厂,铺头士江塑料,涞水金招水泥砖制造有限公司,涞水县德强加工250KVA专变,涞水县宝幢水泥砖厂新增变压器,二十里铺村东北,涞水县泰和灰粉厂315KVA专变,北秋兰西南台区,丛西村中台区,海开办,铺头村南,中亚灰粉厂,玉明灰粉厂,高旭灰粉厂,涞水县宗元钙粉厂200KVA专变,胜达永强公司1,洪建修配厂,0469321799-涞水县泰和灰粉厂-专变-46775202-泰岳灰粉厂,永阳供电所2,坛山赵志英,铺头村东二,周磊杰灰粉厂,丛西村南专用变压器,变压器,福鑫灰厂,铺头村内|0706,北秋兰村东2#,南庞村东专用井|0702,金星石业250KVA专变,铺头村东变压器,坛山村西北变压器,十里铺西井,坛山村西台区变压器,丛西村南（西）变压器,行宫北（内）台区变压器,亚平灰厂,张凤福灰粉厂,涞水县明新水泥砖厂200KVA专变,北秋兰村东变压器,坛山工艺美术,海龙修配厂,高峰灰粉厂250KVA专变,铺头村北井|0704,凤福灰粉厂200KVA专变,行宫1村南|0737,北秋兰市场2台区,二十里铺村东二,联富灰粉厂2","poweroffReason":"【停电原因】由于站内倒运行方式导致３５ＫＶ明义变电站１０ＫＶ檀山５１２线路全线停电 【变更送电】无 【发布渠道】通过９５５９８发布","powerTime":"2019-11-12 00:05:01","powerComm":"已送电","subsNo":"","lineNo":"","tgNo":"","tgName":null,"infoStatus":"1","orgName":"国网涞水县供电公司","typeName":null,"infoStatusName":null,"dateDay":null,"orgNos":null,"nowTime":null,"countyName":null,"streetName":null,"villageName":null,"roadName":null,"communityName":null,"tranName":null,"sdLineName":null,"cityCode":"1340614","cityName":"国网涞水县供电公司","provinceCode":null,"stopTime":"2019-11-12 00:30:00","powerType":"全部","powerOffArea":"【全线路停电】停汇源灰粉厂,涞富灰粉厂,福海灰粉厂,联合灰粉厂,铺头村北2台区,玉成灰粉厂,华林实业公司,北秋兰村西,北秋兰面粉厂,宏达水泥厂,王俊力灰粉厂,南庞村东变压器,永阳供电所变压器,建辉灰粉厂,张增军灰粉厂,同顺钙粉厂,顺发灰粉厂,高科电力,北秋兰村南养殖场变压器,北秋兰村内西台区变压器,涞水县凤福灰粉厂新增变压器,古艺坊家俱厂,坛山村内变压器,北秋兰市场变压器,刘福灰粉厂,铺头士江塑料,涞水金招水泥砖制造有限公司,涞水县德强加工250KVA专变,涞水县宝幢水泥砖厂新增变压器,二十里铺村东北,涞水县泰和灰粉厂315KVA专变,北秋兰西南台区,丛西村中台区,海开办,铺头村南,中亚灰粉厂,玉明灰粉厂,高旭灰粉厂,涞水县宗元钙粉厂200KVA专变,胜达永强公司1,洪建修配厂,0469321799-涞水县泰和灰粉厂-专变-46775202-泰岳灰粉厂,永阳供电所2,坛山赵志英,铺头村东二,周磊杰灰粉厂,丛西村南专用变压器,变压器,福鑫灰厂,铺头村内|0706,北秋兰村东2#,南庞村东专用井|0702,金星石业250KVA专变,铺头村东变压器,坛山村西北变压器,十里铺西井,坛山村西台区变压器,丛西村南（西）变压器,行宫北（内）台区变压器,亚平灰厂,张凤福灰粉厂,涞水县明新水泥砖厂200KVA专变,北秋兰村东变压器,坛山工艺美术,海龙修配厂,高峰灰粉厂250KVA专变,铺头村北井|0704,凤福灰粉厂200KVA专变,行宫1村南|0737,北秋兰市场2台区,二十里铺村东二,联富灰粉厂2","powerOffReason":"【停电原因】由于站内倒运行方式导致３５ＫＶ明义变电站１０ＫＶ檀山５１２线路全线停电 【变更送电】无 【发布渠道】通过９５５９８发布","powerOffId":"2019111113000249"},{"poweroffId":2019111113000247,"sgpoweroffId":null,"subsName":"","lineName":"10KV明义514","pubTranName":"西明义村内变压器,南桥头村南变压器,丁家洼村南变压器,西明义村北变压器,南桥头村西2变压器,抬头村西南2台区变压器,台头苗圃厂3台区,西明义村南2台区,南桥头村内2变压器,二十里铺村南变压器,西明义村北2变压器,南桥头村东2变压器,西明义村内3台区变压器,南桥头村内变压器,南桥头村西变压器,西明义村内2台区变压器,南桥头村西3台区变压器,南桥头村东3台区变压器,南桥头村南2变压器,南北庄村东三台区,台头村南1变压器,台头村东2变压器,南桥头村南三台区,丁家洼村北1变压器,西明义村西变压器,三沟子村西北变压器,精神病医院配电变压器,台头苗圃厂2变压器,南桥头村内3变压器,","scope":"【影响街道/乡镇】明义镇、永阳镇 【高危重要客户】无 【影响客户】西明义村、西官庄村、南北庄村、丁家洼村、三沟子村、南桥头村、樊家台村、台头村、二十里铺村","startTime":"2019-11-11 23:00:00","stopDate":"2019-11-12 00:30:00","orgNo":"1340614","typeCode":"其他临时停电","poweroffArea":"【全线路停电】停涞水县福泰石灰制造有限公司新增变压器250KVA,台头村东南专变压器,西明义村西水100变压器,南北庄村东1变压器,南桥头村南变压器,丁家洼村南变压器,西明义村北变压器,南桥头村西2变压器,三沟子村南变压器,变压器,津同加油站,台头苗圃厂3台区,西明义村北水变压器,西明义村南变压器,三沟子村内变压器,南桥头村内2变压器,西明义村北2变压器,南北庄村内二变压器,西明义村西北井变压器,兴牧矿物饲料100,台头村南1变压器,东顺英合水泥砖制造有限公司250KVA专变2,福泰石灰制造有限公司315KVA专变,任辉石粉厂,涞水枢纽互通,西明义村内变压器,朝运红盛250KVA专变,抬头村西南2台区变压器,西明义村南2台区,二十里铺村南变压器,南北庄村东2变压器,通达矿物加工,南桥头村东2变压器,南桥头村西北变压器,西明义村内3台区变压器,晓良钙粉一二厂新2,南北庄村南变压器,南桥头村内变压器,南桥头村西变压器,西明义村内2台区变压器,三沟子村东变压器,南桥头村西3台区变压器,南桥头村东3台区变压器,台头村北变压器,丁家洼村内变压器,南桥头村南2变压器,丁家洼村西变压器,建良印刷有限公司315KVA专变,朝运红盛石灰厂400KVA专变,台头村东南专2变压器,丁家洼村北2变压器,南北庄村东三台区,南桥头村内3变压器,晓良钙粉一二厂新1,丁家洼村西北变压器,西明义村西水变压器,三沟子村北变压器,樊家台村内2变压器,朝运红盛315KVA变压器,南桥头村南三台区,冉冉幼儿园变压器,丁家洼村北1变压器,西明义村西变压器,宏潮钙粉厂,丁家洼村内2变压器,东顺英合水泥砖制造有限公司250KVA专变1,三沟子村西北变压器,樊家台村西混用变压器,兴牧矿物饲料,台头村南2变压器,南北庄村内变压器,南北庄村北变压器,涞水县福泰石灰制造有限公司新增变压器400KVA,南桥头村西180变压器,台头村北专变压器,台头村东变压器,长顺钙粉200KVA专变,台头村东2变压器,南桥头村西水变压器,樊家台村南变压器,兴牧矿物饲料200,精神病医院配电变压器,南桥头村东变压器,台头苗圃厂2变压器","poweroffReason":"【停电原因】由于站内倒运行方式导致３５ＫＶ明义变电站１０ＫＶ明义５１４线路全线停电 【变更送电】无 【发布渠道】通过９５５９８发布","powerTime":"2019-11-12 00:04:40","powerComm":"已送电","subsNo":"","lineNo":"","tgNo":"","tgName":null,"infoStatus":"1","orgName":"国网涞水县供电公司","typeName":null,"infoStatusName":null,"dateDay":null,"orgNos":null,"nowTime":null,"countyName":null,"streetName":null,"villageName":null,"roadName":null,"communityName":null,"tranName":null,"sdLineName":null,"cityCode":"1340614","cityName":"国网涞水县供电公司","provinceCode":null,"stopTime":"2019-11-12 00:30:00","powerType":"全部","powerOffArea":"【全线路停电】停涞水县福泰石灰制造有限公司新增变压器250KVA,台头村东南专变压器,西明义村西水100变压器,南北庄村东1变压器,南桥头村南变压器,丁家洼村南变压器,西明义村北变压器,南桥头村西2变压器,三沟子村南变压器,变压器,津同加油站,台头苗圃厂3台区,西明义村北水变压器,西明义村南变压器,三沟子村内变压器,南桥头村内2变压器,西明义村北2变压器,南北庄村内二变压器,西明义村西北井变压器,兴牧矿物饲料100,台头村南1变压器,东顺英合水泥砖制造有限公司250KVA专变2,福泰石灰制造有限公司315KVA专变,任辉石粉厂,涞水枢纽互通,西明义村内变压器,朝运红盛250KVA专变,抬头村西南2台区变压器,西明义村南2台区,二十里铺村南变压器,南北庄村东2变压器,通达矿物加工,南桥头村东2变压器,南桥头村西北变压器,西明义村内3台区变压器,晓良钙粉一二厂新2,南北庄村南变压器,南桥头村内变压器,南桥头村西变压器,西明义村内2台区变压器,三沟子村东变压器,南桥头村西3台区变压器,南桥头村东3台区变压器,台头村北变压器,丁家洼村内变压器,南桥头村南2变压器,丁家洼村西变压器,建良印刷有限公司315KVA专变,朝运红盛石灰厂400KVA专变,台头村东南专2变压器,丁家洼村北2变压器,南北庄村东三台区,南桥头村内3变压器,晓良钙粉一二厂新1,丁家洼村西北变压器,西明义村西水变压器,三沟子村北变压器,樊家台村内2变压器,朝运红盛315KVA变压器,南桥头村南三台区,冉冉幼儿园变压器,丁家洼村北1变压器,西明义村西变压器,宏潮钙粉厂,丁家洼村内2变压器,东顺英合水泥砖制造有限公司250KVA专变1,三沟子村西北变压器,樊家台村西混用变压器,兴牧矿物饲料,台头村南2变压器,南北庄村内变压器,南北庄村北变压器,涞水县福泰石灰制造有限公司新增变压器400KVA,南桥头村西180变压器,台头村北专变压器,台头村东变压器,长顺钙粉200KVA专变,台头村东2变压器,南桥头村西水变压器,樊家台村南变压器,兴牧矿物饲料200,精神病医院配电变压器,南桥头村东变压器,台头苗圃厂2变压器","powerOffReason":"【停电原因】由于站内倒运行方式导致３５ＫＶ明义变电站１０ＫＶ明义５１４线路全线停电 【变更送电】无 【发布渠道】通过９５５９８发布","powerOffId":"2019111113000247"},{"poweroffId":2019111113000228,"sgpoweroffId":null,"subsName":"","lineName":"10kV明官店517线","pubTranName":"南仕庄综合4,西王奇综合5变压器,","scope":"【影响街道/乡镇】明官店乡 【高危重要客户】无 【影响客户】南仕庄、西仕庄、西王奇","startTime":"2019-11-20 08:30:00","stopDate":"2019-11-20 17:30:00","orgNo":"1340606","typeCode":"计划停电","poweroffArea":"【分支停电】停南仕庄综合4,西王奇综合5变压器","poweroffReason":"【停电原因】由于线路改造导致１１０ＫＶ东河变电站１０ＫＶ明官店５１７线路西王奇分支１号杆刀闸以下线路停电 【变更送电】无 【发布渠道】保定市安国电视台（１１月１２日００时至２４时之间）屏幕上方滚动","powerTime":"2019-11-20 17:08:19","powerComm":"已送电","subsNo":"","lineNo":"","tgNo":"","tgName":null,"infoStatus":"1","orgName":"国网安国市供电公司","typeName":null,"infoStatusName":null,"dateDay":null,"orgNos":null,"nowTime":null,"countyName":null,"streetName":null,"villageName":null,"roadName":null,"communityName":null,"tranName":null,"sdLineName":null,"cityCode":"1340606","cityName":"国网安国市供电公司","provinceCode":null,"stopTime":"2019-11-20 17:30:00","powerType":"全部","powerOffArea":"【分支停电】停南仕庄综合4,西王奇综合5变压器","powerOffReason":"【停电原因】由于线路改造导致１１０ＫＶ东河变电站１０ＫＶ明官店５１７线路西王奇分支１号杆刀闸以下线路停电 【变更送电】无 【发布渠道】保定市安国电视台（１１月１２日００时至２４时之间）屏幕上方滚动","powerOffId":"2019111113000228"},{"poweroffId":2019111113000224,"sgpoweroffId":null,"subsName":"","lineName":"大任线514","pubTranName":"南大位光4,五里窑光1,五里窑光3,大田新光7,大田新光3,西相盖光3【2018年美丽乡村】,吴村新光5,新落堡公用1,田候光5,东相盖光2,西陈庄光1,田候光2,北大位光6,吴村排6【纯农排变】,北大位光3,落堡公用2【2018年节能变】,大任新光2,东相盖光6【2018年美丽乡村】,大任光6【2018年四批补强】,新田候光4,五里窑光4,大田新光4,吴村排3变【纯农排变】,大任光5【2018年四批补强】,吴村排4【纯农排变】,小任光2【2018年四批补强】,交警大队公用,小任村内光,田候光8【2018年美丽乡村】,西厢盖光1,东相盖光3,落堡公用5【2018年重过载】,吴村新光10,大田新混3,吴村新光3,五里窑光2,南大位光5,吴村新光2,北大位光4,东相盖光4【2018年美丽乡村】,吴村新光1,西陈庄光5,吴村新光6,大田新光1,西陈庄光2,东相盖光1,吴村排2变【纯农排变】,西陈庄光4,西相盖光5【2018年美丽乡村】,北大位排林场【纯农排变】,大任光4,究室新排1【纯农排变】,田候养殖小区公用,田候光9【2018年美丽乡村】,田侯光3【2018年四批补强】,吴村新光7,北大位排5【纯农排变】,东相盖光5【2018年美丽乡村】,北大位排4【纯农排变】,落堡光6【2018年四批补强】,大田新光8,究室光6,田候光1,南大位光7,大田新光5,大任市场公用,南大位排8【纯农排变】,南大位光6,吴村排8【纯农排变】,田候光7【2018年美丽乡村】,北大位光2,南大位光3,大田新光6,吴村排7【纯农排变】,南大位排7【纯农排变】,大任光1,吴村新排3【纯农排变】,五里窑光5,吴村排5【纯农排变】,落堡公用4,西陈庄光3,吴村新光4,吴村光9,落堡公用【2018年重过载】,大田新光2,五里窑新混1,吴村新光8,","scope":"【影响街道/乡镇】落堡乡 【高危重要客户】无 【影响客户】陈庄、东相盖、西相盖、东落堡、南大位、北大位、大任村、小任村、吴村、田候、五里窑、大田、职中、郭坊、郭家亭、古桑","startTime":"2019-11-12 00:30:00","stopDate":"2019-11-12 05:00:00","orgNo":"1340609","typeCode":"其他临时停电","poweroffArea":"【全线路停电】停大任排3【纯农排变】,西陈庄光3,北大位光4,五里窑光1,大任光3,北大位光6,宏洁服饰-200,0694660128-定兴县职业技术教育中心-专变-237548911-职教中心1,吴村新光3,落堡公用2【2018年节能变】,万通蔬菜100变压器,田候排1【纯农排变】,大任新光2,亨通面粉厂100,小任排【纯农排变】,田候混3,交警大队公用,田候排7【纯农排变】,北大位排4【纯农排变】,0691830072-定兴县东落堡乡中心小学-专变-235623362-东落堡中心小学-1250,兴澄萝卜合作社,东相盖排2【纯农排变】,大任市场公用,大田新光6,南大位排7【纯农排变】,小任光2【2018年四批补强】,南大位排4【纯农排变】,西厢盖排5【纯农排变】,吴村新排3【纯农排变】,新落堡公用1,东相盖光1,雄浩宇纸制品—400,南大位排8【纯农排变】,田候光9【2018年美丽乡村】,燕园牛肉饲养厂-200,160,究室新排1【纯农排变】,南大位光5,吴村排6【纯农排变】,北大位光3,富友蔬菜销售合作社,究室光6,究室排2【纯农排变】,南大位排3【纯农排变】,田候排5【纯农排变】,落堡排12【纯农排变】,常兴加油站,*昌胜煤厂,*南大养殖厂,五里窑光3,北大位光1,大田新光7,亨利面粉厂,大田新光3,田候光6,北大位光2,田候光1,北大位混1,大任排1【纯农排变】,大任排4【纯农排变】,定兴县联谊机械加工部,田候光5,南大位排1【纯农排变】,西陈庄光4,田候光8【2018年美丽乡村】,田侯面粉厂,大田新混3,落堡公用5【2018年重过载】,田候养殖小区公用,西相盖光3【2018年美丽乡村】,田候排2【纯农排变】,吴村新光8,西关排排【纯农排变】,李旭东-排,东相盖光4【2018年美丽乡村】,南大位光7,南大位光6,大田混3,100配变,古桑排7【纯农排变】,奥朗天然气-160,盛典广告装饰,职中3,吴村排5【纯农排变】,落堡公用4,田候排4【纯农排变】,落堡排13【纯农排变】,西相盖光5【2018年美丽乡村】,大任光4,田侯光3【2018年四批补强】,大田排2【纯农排变】,大田新光4,*保定恒兴食品有限公司1000,大任光5【2018年四批补强】,落堡混1,南大位光3,五里窑排2【纯农排变】,*职中2,富友蔬菜2号变-315,中国网通（集团）有限公司定兴县分公司,东相盖光5【2018年美丽乡村】,五里窑混1,吴村新光10,0694660128-定兴县职业技术教育中心-专变-237550487-职教中心2,燕城物业250,五里窑光2,古桑排2【纯农排变】,吴村新光2,南大位排5【纯农排变】,南大位光4,南大位排2【纯农排变】,吴村新光5,东相盖光2,西陈庄光1,田候光2,大任排2【纯农排变】,西陈庄光5,吴村新光6,小任光1,北大位排5【纯农排变】,大田排1【纯农排变】,汇农农牧专业合作社200,落堡光6【2018年四批补强】,田候排8【纯农排变】,大田新光8,落堡混11,北大位光5,东相盖排1【纯农排变】,吴村新光1,北大位排林场【纯农排变】,五里窑排3【纯农排变】,田候光7【2018年美丽乡村】,0694744479-定兴县东落堡乡田侯小学-专变-238553620-田侯小学,大田新光5,亿飞腾水泥制品-200,吴村排8【纯农排变】,吴村排7【纯农排变】,吴村新光4,定兴县速凝商品混凝土制造有限公司-250,吴村光9,田候混6,落堡公用【2018年重过载】,大田新光2,北大位排2【纯农排变】,落堡新村排2【纯农排变】,大任光1,北大位新混1,大任光6【2018年四批补强】,大田新光1,新田候光4,同舟粮食购销公司100,西陈庄光2,五里窑光4,东相盖光6【2018年美丽乡村】,吴村排4【纯农排变】,佳兴玉米加工厂-250,吴村排2变【纯农排变】,吴村新光7,落堡排15【纯农排变】,东相盖光3,吴村排3变【纯农排变】,落堡新村排1【纯农排变】,诚德胜家庭牧场-250,五里窑光5,古桑排1【纯农排变","poweroffReason":"【停电原因】由于站内开关线路侧线夹过热，需停电进行紧急消缺导致３５ＫＶ景安变电站大任线５１４线路全线停电 【变更送电】无 【发布渠道】通过９５５９８发布","powerTime":"2019-11-12 04:49:15","powerComm":"已送电","subsNo":"","lineNo":"","tgNo":"","tgName":null,"infoStatus":"1","orgName":"国网定兴县供电公司","typeName":null,"infoStatusName":null,"dateDay":null,"orgNos":null,"nowTime":null,"countyName":null,"streetName":null,"villageName":null,"roadName":null,"communityName":null,"tranName":null,"sdLineName":null,"cityCode":"1340609","cityName":"国网定兴县供电公司","provinceCode":null,"stopTime":"2019-11-12 05:00:00","powerType":"全部","powerOffArea":"【全线路停电】停大任排3【纯农排变】,西陈庄光3,北大位光4,五里窑光1,大任光3,北大位光6,宏洁服饰-200,0694660128-定兴县职业技术教育中心-专变-237548911-职教中心1,吴村新光3,落堡公用2【2018年节能变】,万通蔬菜100变压器,田候排1【纯农排变】,大任新光2,亨通面粉厂100,小任排【纯农排变】,田候混3,交警大队公用,田候排7【纯农排变】,北大位排4【纯农排变】,0691830072-定兴县东落堡乡中心小学-专变-235623362-东落堡中心小学-1250,兴澄萝卜合作社,东相盖排2【纯农排变】,大任市场公用,大田新光6,南大位排7【纯农排变】,小任光2【2018年四批补强】,南大位排4【纯农排变】,西厢盖排5【纯农排变】,吴村新排3【纯农排变】,新落堡公用1,东相盖光1,雄浩宇纸制品—400,南大位排8【纯农排变】,田候光9【2018年美丽乡村】,燕园牛肉饲养厂-200,160,究室新排1【纯农排变】,南大位光5,吴村排6【纯农排变】,北大位光3,富友蔬菜销售合作社,究室光6,究室排2【纯农排变】,南大位排3【纯农排变】,田候排5【纯农排变】,落堡排12【纯农排变】,常兴加油站,*昌胜煤厂,*南大养殖厂,五里窑光3,北大位光1,大田新光7,亨利面粉厂,大田新光3,田候光6,北大位光2,田候光1,北大位混1,大任排1【纯农排变】,大任排4【纯农排变】,定兴县联谊机械加工部,田候光5,南大位排1【纯农排变】,西陈庄光4,田候光8【2018年美丽乡村】,田侯面粉厂,大田新混3,落堡公用5【2018年重过载】,田候养殖小区公用,西相盖光3【2018年美丽乡村】,田候排2【纯农排变】,吴村新光8,西关排排【纯农排变】,李旭东-排,东相盖光4【2018年美丽乡村】,南大位光7,南大位光6,大田混3,100配变,古桑排7【纯农排变】,奥朗天然气-160,盛典广告装饰,职中3,吴村排5【纯农排变】,落堡公用4,田候排4【纯农排变】,落堡排13【纯农排变】,西相盖光5【2018年美丽乡村】,大任光4,田侯光3【2018年四批补强】,大田排2【纯农排变】,大田新光4,*保定恒兴食品有限公司1000,大任光5【2018年四批补强】,落堡混1,南大位光3,五里窑排2【纯农排变】,*职中2,富友蔬菜2号变-315,中国网通（集团）有限公司定兴县分公司,东相盖光5【2018年美丽乡村】,五里窑混1,吴村新光10,0694660128-定兴县职业技术教育中心-专变-237550487-职教中心2,燕城物业250,五里窑光2,古桑排2【纯农排变】,吴村新光2,南大位排5【纯农排变】,南大位光4,南大位排2【纯农排变】,吴村新光5,东相盖光2,西陈庄光1,田候光2,大任排2【纯农排变】,西陈庄光5,吴村新光6,小任光1,北大位排5【纯农排变】,大田排1【纯农排变】,汇农农牧专业合作社200,落堡光6【2018年四批补强】,田候排8【纯农排变】,大田新光8,落堡混11,北大位光5,东相盖排1【纯农排变】,吴村新光1,北大位排林场【纯农排变】,五里窑排3【纯农排变】,田候光7【2018年美丽乡村】,0694744479-定兴县东落堡乡田侯小学-专变-238553620-田侯小学,大田新光5,亿飞腾水泥制品-200,吴村排8【纯农排变】,吴村排7【纯农排变】,吴村新光4,定兴县速凝商品混凝土制造有限公司-250,吴村光9,田候混6,落堡公用【2018年重过载】,大田新光2,北大位排2【纯农排变】,落堡新村排2【纯农排变】,大任光1,北大位新混1,大任光6【2018年四批补强】,大田新光1,新田候光4,同舟粮食购销公司100,西陈庄光2,五里窑光4,东相盖光6【2018年美丽乡村】,吴村排4【纯农排变】,佳兴玉米加工厂-250,吴村排2变【纯农排变】,吴村新光7,落堡排15【纯农排变】,东相盖光3,吴村排3变【纯农排变】,落堡新村排1【纯农排变】,诚德胜家庭牧场-250,五里窑光5,古桑排1【纯农排变","powerOffReason":"【停电原因】由于站内开关线路侧线夹过热，需停电进行紧急消缺导致３５ＫＶ景安变电站大任线５１４线路全线停电 【变更送电】无 【发布渠道】通过９５５９８发布","powerOffId":"2019111113000224"},{"poweroffId":2019111113000222,"sgpoweroffId":null,"subsName":"","lineName":"石井线511","pubTranName":"永安庄太平沟井,永安庄抬水村东,永安庄六队园2号（统管）,永安庄村西井,永安庄新增（统管）,永安庄南节新增（统管）,永安庄村东河沿井,永安庄吴山口,永安东坡头,永安庄王地井,永安庄村北（统管）,永安庄北节新增（统管）,永安庄村内（统管）,永安庄东岗村东,永安庄南大井（统管）,永安庄河沿,永安土粉厂,永安2号井,永安庄砖厂,永安老母庙村南,永安庄张亩地村东,永安庄大队（统管）,永安庄营尔,永安庄大队石厂,永安庄东岗地,永安庄东大坡,永安庄东大坡2号,永安庄大铁勺,永安庄长垅地北,","scope":"【影响街道/乡镇】满城镇 【高危重要客户】无 【影响客户】永安庄","startTime":"2019-11-20 07:00:00","stopDate":"2019-11-20 17:45:00","orgNo":"1340617","typeCode":"计划停电","poweroffArea":"【分支停电】停永安庄太平沟井,永安庄抬水村东,永安庄六队园2号（统管）,永安庄村西井,永安庄新增（统管）,永安庄南节新增（统管）,永安庄村东河沿井,永安庄吴山口,永安东坡头,永安庄王地井,永安庄村北（统管）,永安庄北节新增（统管）,永安庄村内（统管）,永安庄东岗村东,永安庄南大井（统管）,永安庄河沿,永安土粉厂,永安2号井,永安庄砖厂,永安老母庙村南,永安庄张亩地村东,永安庄大队（统管）,永安庄营尔,永安庄大队石厂,永安庄东岗地,永安庄东大坡,永安庄东大坡2号,永安庄大铁勺,永安庄长垅地北","poweroffReason":"【停电原因】由于配变改造导致１１０ＫＶ杨佐变电站石井线５１１线路６５号杆开关以下停电 【变更送电】无 【发布渠道】保定市满城电视台（１１月１１日１９：００－２０：００至１１月１９日１９：００－２０：００之间）屏幕上方滚动","powerTime":"2019-11-20 17:41:58","powerComm":"已送电","subsNo":"","lineNo":"","tgNo":"","tgName":null,"infoStatus":"1","orgName":"国网满城县供电公司","typeName":null,"infoStatusName":null,"dateDay":null,"orgNos":null,"nowTime":null,"countyName":null,"streetName":null,"villageName":null,"roadName":null,"communityName":null,"tranName":null,"sdLineName":null,"cityCode":"1340617","cityName":"国网满城县供电公司","provinceCode":null,"stopTime":"2019-11-20 17:45:00","powerType":"全部","powerOffArea":"【分支停电】停永安庄太平沟井,永安庄抬水村东,永安庄六队园2号（统管）,永安庄村西井,永安庄新增（统管）,永安庄南节新增（统管）,永安庄村东河沿井,永安庄吴山口,永安东坡头,永安庄王地井,永安庄村北（统管）,永安庄北节新增（统管）,永安庄村内（统管）,永安庄东岗村东,永安庄南大井（统管）,永安庄河沿,永安土粉厂,永安2号井,永安庄砖厂,永安老母庙村南,永安庄张亩地村东,永安庄大队（统管）,永安庄营尔,永安庄大队石厂,永安庄东岗地,永安庄东大坡,永安庄东大坡2号,永安庄大铁勺,永安庄长垅地北","powerOffReason":"【停电原因】由于配变改造导致１１０ＫＶ杨佐变电站石井线５１１线路６５号杆开关以下停电 【变更送电】无 【发布渠道】保定市满城电视台（１１月１１日１９：００－２０：００至１１月１９日１９：００－２０：００之间）屏幕上方滚动","powerOffId":"2019111113000222"},{"poweroffId":2019111113000165,"sgpoweroffId":null,"subsName":"","lineName":"三八六512","pubTranName":"荆轲山村1#,韩家庄1#,荆轲山村12#,荆轲山4#,荆轲山村2#,荆轲山村8#,荆轲山村13#,荆轲山村3#,荆轲山村5#,荆轲山村7#,荆轲山村6#,荆轲山村14#,荆轲山村16#,荆轲山村9#,","scope":"【影响街道/乡镇】易州镇【高危重要客户】无【影响客户】荆轲山村、韩家庄村、西庄村","startTime":"2019-11-11 15:08:23","stopDate":"2019-11-11 20:00:00","orgNo":"1340625","typeCode":"电网故障停限电","poweroffArea":"【全线路停电】停386总站,荆轲山村12#,荆轲山村9#,荆轲山村13#,荆轲山村8#,双民石料购销处（李爱明1）南,光荣院,66393部队,韩家庄1#,荆轲山村7#,易县创意房地产开发有限公司变压器,0587164863-易县殡葬管理所-专变-125219237-易县殡葬管理所变压器,双明石料购销处（李爱明3）北,荆轲山村14#,荆轲山村3#,66287部队,荆轲山4#,荆轲山村16#,荆轲山村1#,易县王文养殖厂,荆轲山村5#,荆轲山村6#,荆轲山村2#","poweroffReason":"【停电原因】由于速断跳闸导致３５ＫＶ易水变电站三八六５１２线路全线停电【变更送电】因抢修进度加快原因，送电时间由２２：００变更为２０：００【发布渠道】通过９５５９８发布","powerTime":"2019-11-11 19:35:38","powerComm":"已送电","subsNo":"","lineNo":"","tgNo":"","tgName":null,"infoStatus":"1","orgName":"国网易县供电公司","typeName":null,"infoStatusName":null,"dateDay":null,"orgNos":null,"nowTime":null,"countyName":null,"streetName":null,"villageName":null,"roadName":null,"communityName":null,"tranName":null,"sdLineName":null,"cityCode":"1340625","cityName":"国网易县供电公司","provinceCode":null,"stopTime":"2019-11-11 20:00:00","powerType":"全部","powerOffArea":"【全线路停电】停386总站,荆轲山村12#,荆轲山村9#,荆轲山村13#,荆轲山村8#,双民石料购销处（李爱明1）南,光荣院,66393部队,韩家庄1#,荆轲山村7#,易县创意房地产开发有限公司变压器,0587164863-易县殡葬管理所-专变-125219237-易县殡葬管理所变压器,双明石料购销处（李爱明3）北,荆轲山村14#,荆轲山村3#,66287部队,荆轲山4#,荆轲山村16#,荆轲山村1#,易县王文养殖厂,荆轲山村5#,荆轲山村6#,荆轲山村2#","powerOffReason":"【停电原因】由于速断跳闸导致３５ＫＶ易水变电站三八六５１２线路全线停电【变更送电】因抢修进度加快原因，送电时间由２２：００变更为２０：００【发布渠道】通过９５５９８发布","powerOffId":"2019111113000165"},{"poweroffId":2019111113000159,"sgpoweroffId":null,"subsName":"","lineName":"张天佑513","pubTranName":"东市村8#|村东,固村8#村北,东市村12#村中,东市村4#|村东南,万家庄村1#|村东,东市9#村中,西市村7#村北,西市村3#|村北,张天峪村1#|村北,西市村2#|村东,万家庄村3#村南,东市村5#|村东,东市村2#|村西,北市村2#|村西,北市村6#村西,北市村4#|药材院,八里庄2#,北市村3#|村北,八里庄村1#|村内,固村村1#|村南,西市村1#|村西,北市村5#|村南,万家庄村2#|村南,固村村2#|村北,","scope":"【影响街道/乡镇】易州镇、高村乡、高陌乡、梁格庄镇 【高危重要客户】无 【影响客户】万家庄村、北市村、西庄村、东市村、西市村、血山村、八里庄村、固村、固村庄村、张天峪村","startTime":"2019-11-11 15:04:38","stopDate":"2019-11-11 17:30:00","orgNo":"1340625","typeCode":"电网故障停限电","poweroffArea":"【全线路停电】停北市村6#村西,北市村2#|村西,北市村5#|村南,东市9#村中,万家庄村2#|村南,东市村2#|村西,固村村1#|村南,西市村7#村北,固村8#村北,西市村1#|村西,西市村2#|村东,东市村8#|村东,东市村5#|村东,八里庄2#,东市村4#|村东南,万家庄村3#村南,西市村3#|村北,张天峪村1#|村北,八里庄村1#|村内,北市村3#|村北,北市村4#|药材院,东市村12#村中,固村村2#|村北,万家庄村1#|村东","poweroffReason":"【停电原因】由于速断跳闸导致３５ＫＶ易水变电站张天佑５１３线路全线停电【变更送电】因抢修进度加快原因，送电时间由２２：００变更为１７：３０【发布渠道】通过９５５９８发布","powerTime":"2019-11-11 17:09:43","powerComm":"已送电","subsNo":"","lineNo":"","tgNo":"","tgName":null,"infoStatus":"1","orgName":"国网易县供电公司","typeName":null,"infoStatusName":null,"dateDay":null,"orgNos":null,"nowTime":null,"countyName":null,"streetName":null,"villageName":null,"roadName":null,"communityName":null,"tranName":null,"sdLineName":null,"cityCode":"1340625","cityName":"国网易县供电公司","provinceCode":null,"stopTime":"2019-11-11 17:30:00","powerType":"全部","powerOffArea":"【全线路停电】停北市村6#村西,北市村2#|村西,北市村5#|村南,东市9#村中,万家庄村2#|村南,东市村2#|村西,固村村1#|村南,西市村7#村北,固村8#村北,西市村1#|村西,西市村2#|村东,东市村8#|村东,东市村5#|村东,八里庄2#,东市村4#|村东南,万家庄村3#村南,西市村3#|村北,张天峪村1#|村北,八里庄村1#|村内,北市村3#|村北,北市村4#|药材院,东市村12#村中,固村村2#|村北,万家庄村1#|村东","powerOffReason":"【停电原因】由于速断跳闸导致３５ＫＶ易水变电站张天佑５１３线路全线停电【变更送电】因抢修进度加快原因，送电时间由２２：００变更为１７：３０【发布渠道】通过９５５９８发布","powerOffId":"2019111113000159"},{"poweroffId":2019111113000111,"sgpoweroffId":null,"subsName":"","lineName":"10kV东文山517","pubTranName":"北兵上村西变变压器,","scope":"【影响街道/乡镇】东文山乡 【高危重要客户】无 【影响客户】北兵上村","startTime":"2019-11-11 14:00:00","stopDate":"2019-11-11 17:00:00","orgNo":"1340614","typeCode":"其他临时停电","poweroffArea":"【单台区停电】停北兵上村西变变压器","poweroffReason":"【停电原因】由于电缆接头老化，需停电进行紧急消缺导致１１０ＫＶ涞水变电站１０ＫＶ东文山５１７线路北兵上村西公变台区停电 【变更送电】无 【发布渠道】通过９５５９８发布","powerTime":"2019-11-11 16:55:24","powerComm":"已送电","subsNo":"","lineNo":"","tgNo":"","tgName":null,"infoStatus":"1","orgName":"国网涞水县供电公司","typeName":null,"infoStatusName":null,"dateDay":null,"orgNos":null,"nowTime":null,"countyName":null,"streetName":null,"villageName":null,"roadName":null,"communityName":null,"tranName":null,"sdLineName":null,"cityCode":"1340614","cityName":"国网涞水县供电公司","provinceCode":null,"stopTime":"2019-11-11 17:00:00","powerType":"全部","powerOffArea":"【单台区停电】停北兵上村西变变压器","powerOffReason":"【停电原因】由于电缆接头老化，需停电进行紧急消缺导致１１０ＫＶ涞水变电站１０ＫＶ东文山５１７线路北兵上村西公变台区停电 【变更送电】无 【发布渠道】通过９５５９８发布","powerOffId":"2019111113000111"}],"pageModel":{"pageNow":390,"totalCount":10973,"totalPage":1098,"tableRows":0,"pageCount":10,"beginCount":3890},"isExperi":"1"}