{"message":"","today":"2020-06-15","seleList":[{"poweroffId":2019111013000505,"sgpoweroffId":null,"subsName":"","lineName":"龙堂546线路","pubTranName":"龙兆庄08号变压器,0728245905-高碑店市中誉房地产开发有限公司01,庄伙02号变压器,龙堂04号变压器,龙堂01号变压器,庄伙05号变压器,庄伙03号变压器,龙堂05号变压器,0743759135-高碑店市中誉房地产开发有限公司01,庄伙10号变压器,龙堂02号变压器,庄伙06号变压器,龙堂路变压器,龙兆庄02号变压器,北京华汇恒业投资有限公司变压器,龙兆庄09号变压器,龙兆庄03号变压器,高碑店市建设局,龙兆庄12号变压器,龙兆庄01号变压器,龙兆庄10号变压器,0580353363-高碑店市水利局龙堂水厂-专变-124550007-高碑店市水利局变压器,高碑店市东盛办事处龙赵庄小学,龙兆庄11号变压器,龙兆庄06号变压器,龙兆庄13号变压器,龙兆庄05号变压器,龙兆庄04号变压器,高碑店市城市管理综合行政执法局,龙兆庄07号变压器,庄伙11号变压器,龙堂03号变压器,龙堂16号变压器,龙堂15号变压器,龙堂09号变压器,龙堂12号变压器,龙堂07号变压器,龙堂10号变压器,龙堂11号变压器,龙堂08号变压器,龙堂13号变压器,龙堂14号变压器,庄伙04号变压器,庄伙07号变压器,庄伙09号变压器,0743759135-高碑店市中誉房地产开发有限公司02,龙堂06号变压器,庄伙08号变压器,庄伙01号变压器,","scope":"【影响街道/乡镇】东盛办事处、梁家营乡 【高危重要客户】无 【影响客户】庄伙村、龙堂村、龙赵庄村","startTime":"2019-11-11 01:00:00","stopDate":"2019-11-11 02:00:00","orgNo":"1340612","typeCode":"其他临时停电","poweroffArea":"【全线路停电】停庄伙11号变压器,龙堂03号变压器,龙堂16号变压器,龙堂15号变压器,龙堂09号变压器,龙堂12号变压器,龙堂07号变压器,龙堂10号变压器,龙堂11号变压器,龙堂08号变压器,龙堂13号变压器,龙堂14号变压器,庄伙04号变压器,庄伙07号变压器,庄伙09号变压器,0743759135-高碑店市中誉房地产开发有限公司02,龙堂06号变压器,庄伙08号变压器,庄伙01号变压器,庄伙02号变压器,龙堂04号变压器,龙堂01号变压器,庄伙05号变压器,庄伙03号变压器,龙堂05号变压器,0743759135-高碑店市中誉房地产开发有限公司01,庄伙10号变压器,龙堂02号变压器,庄伙06号变压器,龙堂路变压器,龙兆庄02号变压器,北京华汇恒业投资有限公司变压器,龙兆庄09号变压器,龙兆庄03号变压器,高碑店市建设局,龙兆庄12号变压器,龙兆庄01号变压器,龙兆庄10号变压器,0580353363-高碑店市水利局龙堂水厂-专变-124550007-高碑店市水利局变压器,高碑店市东盛办事处龙赵庄小学,龙兆庄11号变压器,龙兆庄06号变压器,龙兆庄13号变压器,龙兆庄05号变压器,龙兆庄04号变压器,高碑店市城市管理综合行政执法局,龙兆庄07号变压器,龙兆庄08号变压器,0728245905-高碑店市中誉房地产开发有限公司01","poweroffReason":"【停电原因】由于电缆分接箱打火需紧急处理导致１１０ＫＶ方官变电站１０ＫＶ龙堂５４６线路全线停电 【变更送电】无 【发布渠道】通过９５５９８发布","powerTime":"2019-11-11 01:45:05","powerComm":"已送电","subsNo":"","lineNo":"","tgNo":"","tgName":null,"infoStatus":"1","orgName":"国网高碑店市供电公司","typeName":null,"infoStatusName":null,"dateDay":null,"orgNos":null,"nowTime":null,"countyName":null,"streetName":null,"villageName":null,"roadName":null,"communityName":null,"tranName":null,"sdLineName":null,"cityCode":"1340612","cityName":"国网高碑店市供电公司","provinceCode":null,"stopTime":"2019-11-11 02:00:00","powerType":"全部","powerOffArea":"【全线路停电】停庄伙11号变压器,龙堂03号变压器,龙堂16号变压器,龙堂15号变压器,龙堂09号变压器,龙堂12号变压器,龙堂07号变压器,龙堂10号变压器,龙堂11号变压器,龙堂08号变压器,龙堂13号变压器,龙堂14号变压器,庄伙04号变压器,庄伙07号变压器,庄伙09号变压器,0743759135-高碑店市中誉房地产开发有限公司02,龙堂06号变压器,庄伙08号变压器,庄伙01号变压器,庄伙02号变压器,龙堂04号变压器,龙堂01号变压器,庄伙05号变压器,庄伙03号变压器,龙堂05号变压器,0743759135-高碑店市中誉房地产开发有限公司01,庄伙10号变压器,龙堂02号变压器,庄伙06号变压器,龙堂路变压器,龙兆庄02号变压器,北京华汇恒业投资有限公司变压器,龙兆庄09号变压器,龙兆庄03号变压器,高碑店市建设局,龙兆庄12号变压器,龙兆庄01号变压器,龙兆庄10号变压器,0580353363-高碑店市水利局龙堂水厂-专变-124550007-高碑店市水利局变压器,高碑店市东盛办事处龙赵庄小学,龙兆庄11号变压器,龙兆庄06号变压器,龙兆庄13号变压器,龙兆庄05号变压器,龙兆庄04号变压器,高碑店市城市管理综合行政执法局,龙兆庄07号变压器,龙兆庄08号变压器,0728245905-高碑店市中誉房地产开发有限公司01","powerOffReason":"【停电原因】由于电缆分接箱打火需紧急处理导致１１０ＫＶ方官变电站１０ＫＶ龙堂５４６线路全线停电 【变更送电】无 【发布渠道】通过９５５９８发布","powerOffId":"2019111013000505"},{"poweroffId":2019111013000499,"sgpoweroffId":null,"subsName":"","lineName":"市政线511","pubTranName":"高碑店市盛世商业有限公司变压器,盛世广场,十八局建安处,干休所1号变压器,十八局家属区西区01号公变,十八局家属区西区02号公变,干休所2号变压器,十八局医院,干休所,今日家园,中铁十八局集团高碑店医院,建委公变变压器,","scope":"【影响街道/乡镇】迎宾路、兴华中路、玖玖胡同 【高危重要客户】无 【影响客户】今日家园、盛世商场、干休所、腾胜家园、十八局建安处、老公安局家属楼、建委家属楼","startTime":"2019-11-11 00:00:00","stopDate":"2019-11-11 02:00:00","orgNo":"1340612","typeCode":"其他临时停电","poweroffArea":"【分支停电】停建委公变变压器,干休所1号变压器,十八局家属区西区01号公变,十八局家属区西区02号公变,干休所2号变压器,十八局医院,干休所,今日家园,中铁十八局集团高碑店医院,高碑店市盛世商业有限公司变压器,盛世广场,十八局建安处","poweroffReason":"【停电原因】由于高压计量打火需紧急处理导致１１０ＫＶ方家务变电站１０ＫＶ市政５１１线路０２号断路器以下停电 【变更送电】无 【发布渠道】通过９５５９８发布","powerTime":"2019-11-11 01:54:29","powerComm":"已送电","subsNo":"","lineNo":"","tgNo":"","tgName":null,"infoStatus":"1","orgName":"国网高碑店市供电公司","typeName":null,"infoStatusName":null,"dateDay":null,"orgNos":null,"nowTime":null,"countyName":null,"streetName":null,"villageName":null,"roadName":null,"communityName":null,"tranName":null,"sdLineName":null,"cityCode":"1340612","cityName":"国网高碑店市供电公司","provinceCode":null,"stopTime":"2019-11-11 02:00:00","powerType":"全部","powerOffArea":"【分支停电】停建委公变变压器,干休所1号变压器,十八局家属区西区01号公变,十八局家属区西区02号公变,干休所2号变压器,十八局医院,干休所,今日家园,中铁十八局集团高碑店医院,高碑店市盛世商业有限公司变压器,盛世广场,十八局建安处","powerOffReason":"【停电原因】由于高压计量打火需紧急处理导致１１０ＫＶ方家务变电站１０ＫＶ市政５１１线路０２号断路器以下停电 【变更送电】无 【发布渠道】通过９５５９８发布","powerOffId":"2019111013000499"},{"poweroffId":2019111013000491,"sgpoweroffId":null,"subsName":"","lineName":"10kV514北堡线","pubTranName":"东韩童村南新增综合1367,南营1510|27001510,西北堡新增综合0378,北新兴宝栓2010|27002010,东新兴村新增综合1841,东韩童村中新增综合0090,东韩童村北新增综合0091,南营村新增综合1840,永旺村西1750|27001750,永旺新增综合0380,东韩童综合4台区5975,东北堡1660|27001660,东北堡村南综合,东北堡村内新增综合,苏家营村西1810|27001810,西北堡1580|27001580,南营村西综合0381,西北堡村内综合5376,南营1560|27001560,东北堡新增综合0919,南营村内新增综合,新兴村西内5461,东韩童村东新增综合,东韩童2940|27002940,南营2960|27002960,东韩童村东综合2680|27002680,东北堡1690|27001690,苏家营村内综合5378,辛阳1620|27001620,东新兴1440|27001440,2210,东韩童村南1820|27001820,东韩童内综合1880|27001880,北新兴1490|27001490,永旺村西综合2870|27002870,苏家营村东新增综合0198,","scope":"【影响街道/乡镇】腰山镇【高危重要客户】无【影响客户】东北堡、西北堡、南营、北新兴、东韩童、东新兴、永旺、苏家营、辛阳","startTime":"2019-11-10 19:21:02","stopDate":"2019-11-10 21:30:00","orgNo":"1340621","typeCode":"电网故障停限电","poweroffArea":"【全线路停电】停辛阳土地整改新增农业1号（TD）6445【纯农排变】,西北堡村南综合【纯农排变】,东北堡1680农业|27001680【纯农排变】,新兴村西内5461,北新兴土地整改新增农业6号（TD）8375【纯农排变】,永旺村西1750|27001750,南营村土地整改新增农业4号（TD）1900【纯农排变】,北新兴土地整改新增农业4号（TD）7876【纯农排变】","poweroffReason":"【停电原因】由于跌落烧毁导致３５ＫＶ四通变电站１０ＫＶ５１４北堡线路全线停电【变更送电】因抢修进度加快原因，送电时间由２３：５０变更为２１：３０【发布渠道】通过９５５９８发布","powerTime":"2019-11-10 20:33:28","powerComm":"已送电","subsNo":"","lineNo":"","tgNo":"","tgName":null,"infoStatus":"1","orgName":"国网顺平县电力局","typeName":null,"infoStatusName":null,"dateDay":null,"orgNos":null,"nowTime":null,"countyName":null,"streetName":null,"villageName":null,"roadName":null,"communityName":null,"tranName":null,"sdLineName":null,"cityCode":"1340621","cityName":"国网顺平县电力局","provinceCode":null,"stopTime":"2019-11-10 21:30:00","powerType":"全部","powerOffArea":"【全线路停电】停辛阳土地整改新增农业1号（TD）6445【纯农排变】,西北堡村南综合【纯农排变】,东北堡1680农业|27001680【纯农排变】,新兴村西内5461,北新兴土地整改新增农业6号（TD）8375【纯农排变】,永旺村西1750|27001750,南营村土地整改新增农业4号（TD）1900【纯农排变】,北新兴土地整改新增农业4号（TD）7876【纯农排变】","powerOffReason":"【停电原因】由于跌落烧毁导致３５ＫＶ四通变电站１０ＫＶ５１４北堡线路全线停电【变更送电】因抢修进度加快原因，送电时间由２３：５０变更为２１：３０【发布渠道】通过９５５９８发布","powerOffId":"2019111013000491"},{"poweroffId":2019111013000467,"sgpoweroffId":null,"subsName":"","lineName":"10kV528次曹线","pubTranName":"0014316782刘家村沙滩农灌1变压器【纯农排变】,崔家庄中2区变压器,0013587876王北庄村王家道下河岸农井变压器,刘家村沙滩农灌2变压器【纯农排变】,0013587378王北庄村沙沟岸中道农井变压器【纯农排变】,0000007218北次曹村内变压器,0000005049贾北庄变压器,北次曹农灌5变压器【纯农排变】,0013587383王北庄村河里王家道南农井变压器,南次曹东2区变压器,0012411776贾北庄西区变压器,寺南庄幼儿园变压器,0000005067崔家庄西区变压器,0000005100南次曹变压器,张北庄2区变压器,0014316784寺南庄沙滩农灌1#变压器【纯农排变】,0013587381贾北庄村农井变压器,0013689403王北庄村沙沟北道农井变压器【纯农排变】,0000005844寺南庄统管农灌【纯农排变】,0013584881王北庄村三队梨园地农井变压器【纯农排变】,北次曹农灌3#变压器【纯农排变】,南次曹南区变压器,0013584884北次曹村村北农井变压器,0013587375王北庄村王家道村边农井变压器【纯农排变】,贾北庄村东区变压器,0014317123寺南庄沙滩农灌2#变压器【纯农排变】,0013588875南次曹村坡子里变压器,0000005066崔家庄东区变压器,王北庄村内变压器,0000006349南次曹东区变压器,崔家庄农灌6变压器,0013585386王北庄村沙沟岸北道农井变压器【纯农排变】,南次曹小学变压器,0014316785贾北庄农灌3,0000005050北次曹变压器,贾北庄小学变压器,0014317115寺南庄沙滩农灌变压器,崔家庄西2区变压器,0013587880王北庄村王家道内滩农井变压器,崔家庄小学变压器,0000005048张北庄村变压器,0000006768崔家庄中区变压器,0013584885南次曹西沙地东农井变压器【纯农排变】,0000005457寺南庄变压器,崔家庄农灌10变压器【纯农排变】,贾北庄小学2号变压器,0013681427北次曹村村东农井【纯农排变】,0013587380张北庄桥头农井变压器,0012609331贾北庄农灌2变压器【纯农排变】,0013585380南次曹西沙地西农井变压器【纯农排变】,崔家庄农灌8变压器【纯农排变】,0012608831贾北庄农灌1变压器【纯农排变】,王北庄村西变压器,王北庄村东变压器,0000007021寺南庄西变压器,崔家庄东2区变压器,0013180889寺南庄北区变压器,崔家庄幼儿园变压器,崔家庄农灌7变压器【纯农排变】,0013586375王北庄村沙沟中道农井变压器,0013689402王北庄村河里周家道南农井变压器【纯农排变】,0013586876王北庄村二队梨园地农井变压器【纯农排变】,","scope":"【影响街道/乡镇】产德乡【高危重要客户】无【影响客户】贾北庄、南次曹、崔家庄、寺南庄、王北庄、刘家村、北次曹、张北庄","startTime":"2019-11-10 18:25:00","stopDate":"2019-11-10 22:00:00","orgNo":"1340619","typeCode":"电网故障停限电","poweroffArea":"【全线路停电】停南次曹南区变压器,0000005049贾北庄变压器,北次曹农灌5变压器【纯农排变】,0013587383王北庄村河里王家道南农井变压器,南次曹东2区变压器,0012411776贾北庄西区变压器,寺南庄幼儿园变压器,0000005067崔家庄西区变压器,0000005100南次曹变压器,0000005066崔家庄东区变压器,王北庄村内变压器,0000006349南次曹东区变压器,崔家庄农灌6变压器,0013585386王北庄村沙沟岸北道农井变压器【纯农排变】,南次曹小学变压器,0014316785贾北庄农灌3,0000006768崔家庄中区变压器,贾北庄小学变压器,0014317115寺南庄沙滩农灌变压器,崔家庄西2区变压器,0013587880王北庄村王家道内滩农井变压器,崔家庄小学变压器,0000005048张北庄村变压器,0013689402王北庄村河里周家道南农井变压器【纯农排变】,0013584885南次曹西沙地东农井变压器【纯农排变】,0000005457寺南庄变压器,崔家庄农灌10变压器【纯农排变】,贾北庄小学2号变压器,0013681427北次曹村村东农井【纯农排变】,崔家庄农灌8变压器【纯农排变】,0012608831贾北庄农灌1变压器【纯农排变】,王北庄村西变压器,王北庄村东变压器,0013586876王北庄村二队梨园地农井变压器【纯农排变】,0000007021寺南庄西变压器,崔家庄东2区变压器,0013180889寺南庄北区变压器,张北庄2区变压器,0014316784寺南庄沙滩农灌1#变压器【纯农排变】,0013587381贾北庄村农井变压器,0013689403王北庄村沙沟北道农井变压器【纯农排变】,0000005844寺南庄统管农灌【纯农排变】,0013584881王北庄村三队梨园地农井变压器【纯农排变】,北次曹农灌3#变压器【纯农排变】,0000005050北次曹变压器,0013584884北次曹村村北农井变压器,0013587375王北庄村王家道村边农井变压器【纯农排变】,贾北庄村东区变压器,0014317123寺南庄沙滩农灌2#变压器【纯农排变】,0013588875南次曹村坡子里变压器,崔家庄幼儿园变压器,崔家庄农灌7变压器【纯农排变】,0013586375王北庄村沙沟中道农井变压器,0014316782刘家村沙滩农灌1变压器【纯农排变】,崔家庄中2区变压器,0013587876王北庄村王家道下河岸农井变压器,刘家村沙滩农灌2变压器【纯农排变】,0013587378王北庄村沙沟岸中道农井变压器【纯农排变】,0000007218北次曹村内变压器,0013587380张北庄桥头农井变压器,0012609331贾北庄农灌2变压器【纯农排变】,0013585380南次曹西沙地西农井变压器【纯农排变】","poweroffReason":"【停电原因】由于线路Ａ相接地导致１１０ＫＶ产德变电站１０ＫＶ５２８次曹线路全线停电【变更送电】因抢修进度加快原因，送电时间由１１日１０：００变更为１０日２２：００【发布渠道】通过９５５９８发布","powerTime":"2019-11-10 21:52:00","powerComm":"已送电","subsNo":"","lineNo":"","tgNo":"","tgName":null,"infoStatus":"1","orgName":"国网曲阳县供电公司","typeName":null,"infoStatusName":null,"dateDay":null,"orgNos":null,"nowTime":null,"countyName":null,"streetName":null,"villageName":null,"roadName":null,"communityName":null,"tranName":null,"sdLineName":null,"cityCode":"1340619","cityName":"国网曲阳县供电公司","provinceCode":null,"stopTime":"2019-11-10 22:00:00","powerType":"全部","powerOffArea":"【全线路停电】停南次曹南区变压器,0000005049贾北庄变压器,北次曹农灌5变压器【纯农排变】,0013587383王北庄村河里王家道南农井变压器,南次曹东2区变压器,0012411776贾北庄西区变压器,寺南庄幼儿园变压器,0000005067崔家庄西区变压器,0000005100南次曹变压器,0000005066崔家庄东区变压器,王北庄村内变压器,0000006349南次曹东区变压器,崔家庄农灌6变压器,0013585386王北庄村沙沟岸北道农井变压器【纯农排变】,南次曹小学变压器,0014316785贾北庄农灌3,0000006768崔家庄中区变压器,贾北庄小学变压器,0014317115寺南庄沙滩农灌变压器,崔家庄西2区变压器,0013587880王北庄村王家道内滩农井变压器,崔家庄小学变压器,0000005048张北庄村变压器,0013689402王北庄村河里周家道南农井变压器【纯农排变】,0013584885南次曹西沙地东农井变压器【纯农排变】,0000005457寺南庄变压器,崔家庄农灌10变压器【纯农排变】,贾北庄小学2号变压器,0013681427北次曹村村东农井【纯农排变】,崔家庄农灌8变压器【纯农排变】,0012608831贾北庄农灌1变压器【纯农排变】,王北庄村西变压器,王北庄村东变压器,0013586876王北庄村二队梨园地农井变压器【纯农排变】,0000007021寺南庄西变压器,崔家庄东2区变压器,0013180889寺南庄北区变压器,张北庄2区变压器,0014316784寺南庄沙滩农灌1#变压器【纯农排变】,0013587381贾北庄村农井变压器,0013689403王北庄村沙沟北道农井变压器【纯农排变】,0000005844寺南庄统管农灌【纯农排变】,0013584881王北庄村三队梨园地农井变压器【纯农排变】,北次曹农灌3#变压器【纯农排变】,0000005050北次曹变压器,0013584884北次曹村村北农井变压器,0013587375王北庄村王家道村边农井变压器【纯农排变】,贾北庄村东区变压器,0014317123寺南庄沙滩农灌2#变压器【纯农排变】,0013588875南次曹村坡子里变压器,崔家庄幼儿园变压器,崔家庄农灌7变压器【纯农排变】,0013586375王北庄村沙沟中道农井变压器,0014316782刘家村沙滩农灌1变压器【纯农排变】,崔家庄中2区变压器,0013587876王北庄村王家道下河岸农井变压器,刘家村沙滩农灌2变压器【纯农排变】,0013587378王北庄村沙沟岸中道农井变压器【纯农排变】,0000007218北次曹村内变压器,0013587380张北庄桥头农井变压器,0012609331贾北庄农灌2变压器【纯农排变】,0013585380南次曹西沙地西农井变压器【纯农排变】","powerOffReason":"【停电原因】由于线路Ａ相接地导致１１０ＫＶ产德变电站１０ＫＶ５２８次曹线路全线停电【变更送电】因抢修进度加快原因，送电时间由１１日１０：００变更为１０日２２：００【发布渠道】通过９５５９８发布","powerOffId":"2019111013000467"},{"poweroffId":2019111013000406,"sgpoweroffId":null,"subsName":"","lineName":"北环一线535（备用）","pubTranName":"0000006749清华园小区变压器,0000004504农机监理站小区变压器,恒州供电所统管变压器,0012087011新农村南大道变压器,0000005516北关西区变压器,气象局变压器,北关北区变压器,0012197161新农村南变压器,","scope":"【影响街道/乡镇】恒州镇【高危重要客户】无【影响客户】西街气象局、北关北、北关西、清华园小区、农机监理站、新农村、新农村南区、新农村南大道、恒州供电所","startTime":"2019-11-11 05:00:00","stopDate":"2019-11-11 06:00:00","orgNo":"1340619","typeCode":"其他临时停电","poweroffArea":"【全线路停电】停0000006749清华园小区变压器,0000004504农机监理站小区变压器,恒州供电所统管变压器,曲阳永信房地产开发有限公司变压器,0012087011新农村南大道变压器,0000005516北关西区变压器,气象局变压器,张玉昌,北关北区变压器,宏富佳园,闫建栓,杨兵谦,0012197161新农村南变压器","poweroffReason":"【停电原因】由于站内开关的操作机构严重缺陷，需停电进行紧急消缺导致３５ＫＶ城西变电站１０ＫＶ北环一线５３５线路全线停电【变更送电】无【发布渠道】通过９５５９８发布","powerTime":"2019-11-11 05:52:22","powerComm":"已送电","subsNo":"","lineNo":"","tgNo":"","tgName":null,"infoStatus":"1","orgName":"国网曲阳县供电公司","typeName":null,"infoStatusName":null,"dateDay":null,"orgNos":null,"nowTime":null,"countyName":null,"streetName":null,"villageName":null,"roadName":null,"communityName":null,"tranName":null,"sdLineName":null,"cityCode":"1340619","cityName":"国网曲阳县供电公司","provinceCode":null,"stopTime":"2019-11-11 06:00:00","powerType":"全部","powerOffArea":"【全线路停电】停0000006749清华园小区变压器,0000004504农机监理站小区变压器,恒州供电所统管变压器,曲阳永信房地产开发有限公司变压器,0012087011新农村南大道变压器,0000005516北关西区变压器,气象局变压器,张玉昌,北关北区变压器,宏富佳园,闫建栓,杨兵谦,0012197161新农村南变压器","powerOffReason":"【停电原因】由于站内开关的操作机构严重缺陷，需停电进行紧急消缺导致３５ＫＶ城西变电站１０ＫＶ北环一线５３５线路全线停电【变更送电】无【发布渠道】通过９５５９８发布","powerOffId":"2019111013000406"},{"poweroffId":2019111013000405,"sgpoweroffId":null,"subsName":"","lineName":"10kV536正阳街线","pubTranName":"0000006148后巷街统管2变压器,滨河新区配电变压器,0012834849正阳街统管5变压器,0000006097正阳副业4变压器,0000004441东关北区,0000005651东大街桥西1变压器,东大街广场西变压器,0000004454大南关西变压器,0012792874东关东2区变压器,0012114550二期商城2变压器,0000007222正阳街统管6变压器,0000004456小南关南变压器,0000006153汶水街变压器,0000006149后巷街统管3变压器,二期商城西北变压器,0000006147后巷街统管1变压器,0000004458大南关东区变压器,正阳街中变压器,0000006098滨河小区变压器,0000007130曲阳县富园小区变压器,0000006152二期商城变压器,0014317112正阳副业3变压器,0000006150后巷街统管4变压器,0000005409新华书店家属院变压器,0000006292二期商城北变压器,0000005650东大街桥西区2变压器,0000006029东大街广场变压器,","scope":"【影响街道/乡镇】东大街、汶水街、后巷街、正阳街、恒州镇【高危重要客户】无【影响客户】滨河小区、二期商城、旧县委、新华书店家属院、东关、大南关、小南关、富园小区、滨河新区、惠友超市、正阳副业","startTime":"2019-11-11 05:00:00","stopDate":"2019-11-11 06:00:00","orgNo":"1340619","typeCode":"其他临时停电","poweroffArea":"【全线路停电】停0000007222正阳街统管6变压器,保定市惠友万家福超级市场有限公司购物广场曲阳店变压器-001#,0000006152二期商城变压器,0000006148后巷街统管2变压器,滨河新区配电变压器,0012834849正阳街统管5变压器,0000006097正阳副业4变压器,0000004441东关北区,0000005651东大街桥西1变压器,东大街广场西变压器,曲阳县逸夫小学,保定市惠友万家福超级市场有限公司购物广场曲阳店变压器,0000004454大南关西变压器,0012792874东关东2区变压器,0469351923-曲阳县人民政府招待处-专变-46781473-曲阳县人民政府招待处,0012114550二期商城2变压器,0000005650东大街桥西区2变压器,0000004456小南关南变压器,0000006153汶水街变压器,曲阳县潮衣酷服饰中心变压器,0000006149后巷街统管3变压器,恒山西路路灯,0469351486-谢志明(合表用户)-专变-46781525-谢志明,二期商城西北变压器,曲阳县永益五金门市变压器,0000006147后巷街统管1变压器,0000004458大南关东区变压器,正阳街中变压器,商城路灯,滨河路路灯,0000006098滨河小区变压器,0000007130曲阳县富园小区变压器,0000006029东大街广场变压器,0014317112正阳副业3变压器,0000006150后巷街统管4变压器,0000005409新华书店家属院变压器,0000006292二期商城北变压器","poweroffReason":"【停电原因】由于站内开关的操作机构严重缺陷，需停电进行紧急消缺导致３５ＫＶ城西变电站１０ＫＶ５３６正阳街线路全线停电【变更送电】无【发布渠道】通过９５５９８发布","powerTime":"2019-11-11 05:51:10","powerComm":"已送电","subsNo":"","lineNo":"","tgNo":"","tgName":null,"infoStatus":"1","orgName":"国网曲阳县供电公司","typeName":null,"infoStatusName":null,"dateDay":null,"orgNos":null,"nowTime":null,"countyName":null,"streetName":null,"villageName":null,"roadName":null,"communityName":null,"tranName":null,"sdLineName":null,"cityCode":"1340619","cityName":"国网曲阳县供电公司","provinceCode":null,"stopTime":"2019-11-11 06:00:00","powerType":"全部","powerOffArea":"【全线路停电】停0000007222正阳街统管6变压器,保定市惠友万家福超级市场有限公司购物广场曲阳店变压器-001#,0000006152二期商城变压器,0000006148后巷街统管2变压器,滨河新区配电变压器,0012834849正阳街统管5变压器,0000006097正阳副业4变压器,0000004441东关北区,0000005651东大街桥西1变压器,东大街广场西变压器,曲阳县逸夫小学,保定市惠友万家福超级市场有限公司购物广场曲阳店变压器,0000004454大南关西变压器,0012792874东关东2区变压器,0469351923-曲阳县人民政府招待处-专变-46781473-曲阳县人民政府招待处,0012114550二期商城2变压器,0000005650东大街桥西区2变压器,0000004456小南关南变压器,0000006153汶水街变压器,曲阳县潮衣酷服饰中心变压器,0000006149后巷街统管3变压器,恒山西路路灯,0469351486-谢志明(合表用户)-专变-46781525-谢志明,二期商城西北变压器,曲阳县永益五金门市变压器,0000006147后巷街统管1变压器,0000004458大南关东区变压器,正阳街中变压器,商城路灯,滨河路路灯,0000006098滨河小区变压器,0000007130曲阳县富园小区变压器,0000006029东大街广场变压器,0014317112正阳副业3变压器,0000006150后巷街统管4变压器,0000005409新华书店家属院变压器,0000006292二期商城北变压器","powerOffReason":"【停电原因】由于站内开关的操作机构严重缺陷，需停电进行紧急消缺导致３５ＫＶ城西变电站１０ＫＶ５３６正阳街线路全线停电【变更送电】无【发布渠道】通过９５５９８发布","powerOffId":"2019111013000405"},{"poweroffId":2019111013000404,"sgpoweroffId":null,"subsName":"","lineName":"10kV532南关线","pubTranName":"0000006146燕南街统管2变压器,0000006050新汽车站小区变压器,0000006113菜市场南3变压器,0000006361中医院家属院变压器,东关北3变压器,0012271086旧中医院家属院变压器,0012576843金地家园变压器,0000006109菜市场北2变压器,0000006227东关北2区变压器,0000006108菜市场北1变压器,0000006112菜市场南4变压器,0000006142城区统管2变压器,0000006111菜市场南2变压器,0000006144商城北统管2变压器,鼎盛小区西区配电变压器,0000006141城区统管1变压器,0013373400曲阳县运输公司小区变压器,0000004498岗子西变变压器,0000005593正阳副业2变压器,0000006143商城北统管1变压器,正阳街北统管变压器,恒州路西统管变压器,0000006125点将台小区变压器,燕南街统管3变压器,0000004497岗子东南变压器,0000006351安康公寓变压器,0000006886明珠花园变压器,菜市场东变压器,0000006145燕南街统管1变压器,水岸商都配电变压器,金地花园配电变压器,0000006110菜市场南1变压器,鼎盛小区东区配电变压器,0012457082跃进市场小区变压器,","scope":"【影响街道/乡镇】恒州镇、燕南街、恒州路、正阳街【高危重要客户】无【影响客户】小岗子、新汽车站小区、商城、一中、邮政局、大南关菜市场、点将台小区、东关、安康公寓、中医院家属院、城区、明珠花园、卫生局办公楼、水岸商都小区、金地花园、旧中医院家属院、运输公司小区、跃进市场小区、 鼎盛庄园","startTime":"2019-11-11 05:00:00","stopDate":"2019-11-11 06:00:00","orgNo":"1340619","typeCode":"其他临时停电","poweroffArea":"【全线路停电】停0000006227东关北2区变压器,0000006146燕南街统管2变压器,0000006050新汽车站小区变压器,0000006113菜市场南3变压器,0000006361中医院家属院变压器,东关北3变压器,0012271086旧中医院家属院变压器,0012576843金地家园变压器,0000006109菜市场北2变压器,0000006112菜市场南4变压器,0000006108菜市场北1变压器,曲阳县飞达电器有限公司飞达购物广场变压器,0000006142城区统管2变压器,0000006111菜市场南2变压器,0000006144商城北统管2变压器,曲阳县鼎盛庄园二期变压器,鼎盛小区西区配电变压器,0000006141城区统管1变压器,菜市场东变压器,0013373400曲阳县运输公司小区变压器,0000004498岗子西变变压器,0000005593正阳副业2变压器,正阳街路灯1,0000006143商城北统管1变压器,正阳街北统管变压器,恒州路西统管变压器,田世杰,0000006125点将台小区变压器,燕南街统管3变压器,0000004497岗子东南变压器,0012457082跃进市场小区变压器,0000006351安康公寓变压器,0000006886明珠花园变压器,0000006145燕南街统管1变压器,水岸商都配电变压器,金地花园配电变压器,曲阳县中医院CT,0000006110菜市场南1变压器,鼎盛小区东区配电变压器","poweroffReason":"【停电原因】由于站内开关的操作机构严重缺陷，需停电进行紧急消缺导致３５ＫＶ城西变电站１０ＫＶ５３２南关线路全线停电【变更送电】无【发布渠道】通过９５５９８发布","powerTime":"2019-11-11 05:51:28","powerComm":"已送电","subsNo":"","lineNo":"","tgNo":"","tgName":null,"infoStatus":"1","orgName":"国网曲阳县供电公司","typeName":null,"infoStatusName":null,"dateDay":null,"orgNos":null,"nowTime":null,"countyName":null,"streetName":null,"villageName":null,"roadName":null,"communityName":null,"tranName":null,"sdLineName":null,"cityCode":"1340619","cityName":"国网曲阳县供电公司","provinceCode":null,"stopTime":"2019-11-11 06:00:00","powerType":"全部","powerOffArea":"【全线路停电】停0000006227东关北2区变压器,0000006146燕南街统管2变压器,0000006050新汽车站小区变压器,0000006113菜市场南3变压器,0000006361中医院家属院变压器,东关北3变压器,0012271086旧中医院家属院变压器,0012576843金地家园变压器,0000006109菜市场北2变压器,0000006112菜市场南4变压器,0000006108菜市场北1变压器,曲阳县飞达电器有限公司飞达购物广场变压器,0000006142城区统管2变压器,0000006111菜市场南2变压器,0000006144商城北统管2变压器,曲阳县鼎盛庄园二期变压器,鼎盛小区西区配电变压器,0000006141城区统管1变压器,菜市场东变压器,0013373400曲阳县运输公司小区变压器,0000004498岗子西变变压器,0000005593正阳副业2变压器,正阳街路灯1,0000006143商城北统管1变压器,正阳街北统管变压器,恒州路西统管变压器,田世杰,0000006125点将台小区变压器,燕南街统管3变压器,0000004497岗子东南变压器,0012457082跃进市场小区变压器,0000006351安康公寓变压器,0000006886明珠花园变压器,0000006145燕南街统管1变压器,水岸商都配电变压器,金地花园配电变压器,曲阳县中医院CT,0000006110菜市场南1变压器,鼎盛小区东区配电变压器","powerOffReason":"【停电原因】由于站内开关的操作机构严重缺陷，需停电进行紧急消缺导致３５ＫＶ城西变电站１０ＫＶ５３２南关线路全线停电【变更送电】无【发布渠道】通过９５５９８发布","powerOffId":"2019111013000404"},{"poweroffId":2019111013000402,"sgpoweroffId":null,"subsName":"","lineName":"10kV539水电站线","pubTranName":"0012788567小南关南2变压器,西城枫景2区配电变压器,轩和家园二期（2）配电变压器,轩和家园二期（1）配电变压器,0000005348小南关东变压器,燕南街西统管柱上变压器,小南关中变压器,西城枫景4区配电变压器,西城枫景1区配电变压器,0014235536城西南1变压器,0000006198育英台变压器,0012510338城西南3变压器,北岳小区配电变压器,育英台2变压器,0000006124小南关东2变压器,轩和家园配电变压器,西城枫景3区配电变压器,0000007223小南关北变压器,0012510337小南关北2变压器,0000006168北关大队统管2变压器,0000006529农机监理站小区2变压器,0000005327北关大队统管变压器,0000006199红十字医院变压器,","scope":"【影响街道/乡镇】燕南街、恒州镇【高危重要客户】无【影响客户】育英台、红十字医院、贡家庄、农机监理站小区、小南关、北关、旧二中、轩和家园、文物所、城西、西城枫景、轩和家园二期、北岳小区、雅馨园小区、曲阳县第一中学、河北丽庭酒店","startTime":"2019-11-11 05:00:00","stopDate":"2019-11-11 06:00:00","orgNo":"1340619","typeCode":"其他临时停电","poweroffArea":"【全线路停电】停0000005327北关大队统管变压器,0000006199红十字医院变压器,0012788567小南关南2变压器,西城枫景2区配电变压器,轩和家园二期（2）配电变压器,曲阳县雅馨园小区住宅楼,0000005348小南关东变压器,燕南街西统管柱上变压器,第一高级中学家属院,小南关中变压器,西城枫景4区配电变压器,西城枫景1区配电变压器,0014235536城西南1变压器,0000006198育英台变压器,0012510338城西南3变压器,曲阳县第一高级中学（2）变压器,北岳小区配电变压器,曲阳县第一高级中学,育英台2变压器,0000006124小南关东2变压器,轩和家园配电变压器,西城枫景3区配电变压器,轩和家园二期（1）配电变压器,0000007223小南关北变压器,0012510337小南关北2变压器,0000006168北关大队统管2变压器,0000006529农机监理站小区2变压器,庙前街路灯,河北丽庭酒店有限公司变压器,小南关西路灯,0469352274-曲阳县第一高级中学(2)-专变-211339982-曲阳县第一高级中学（2）,西街路灯","poweroffReason":"【停电原因】由于站内开关的操作机构严重缺陷，需停电进行紧急消缺导致３５ＫＶ城西变电站１０ＫＶ５３９水电站线路全线停电【变更送电】无【发布渠道】通过９５５９８发布","powerTime":"2019-11-11 05:51:42","powerComm":"已送电","subsNo":"","lineNo":"","tgNo":"","tgName":null,"infoStatus":"1","orgName":"国网曲阳县供电公司","typeName":null,"infoStatusName":null,"dateDay":null,"orgNos":null,"nowTime":null,"countyName":null,"streetName":null,"villageName":null,"roadName":null,"communityName":null,"tranName":null,"sdLineName":null,"cityCode":"1340619","cityName":"国网曲阳县供电公司","provinceCode":null,"stopTime":"2019-11-11 06:00:00","powerType":"全部","powerOffArea":"【全线路停电】停0000005327北关大队统管变压器,0000006199红十字医院变压器,0012788567小南关南2变压器,西城枫景2区配电变压器,轩和家园二期（2）配电变压器,曲阳县雅馨园小区住宅楼,0000005348小南关东变压器,燕南街西统管柱上变压器,第一高级中学家属院,小南关中变压器,西城枫景4区配电变压器,西城枫景1区配电变压器,0014235536城西南1变压器,0000006198育英台变压器,0012510338城西南3变压器,曲阳县第一高级中学（2）变压器,北岳小区配电变压器,曲阳县第一高级中学,育英台2变压器,0000006124小南关东2变压器,轩和家园配电变压器,西城枫景3区配电变压器,轩和家园二期（1）配电变压器,0000007223小南关北变压器,0012510337小南关北2变压器,0000006168北关大队统管2变压器,0000006529农机监理站小区2变压器,庙前街路灯,河北丽庭酒店有限公司变压器,小南关西路灯,0469352274-曲阳县第一高级中学(2)-专变-211339982-曲阳县第一高级中学（2）,西街路灯","powerOffReason":"【停电原因】由于站内开关的操作机构严重缺陷，需停电进行紧急消缺导致３５ＫＶ城西变电站１０ＫＶ５３９水电站线路全线停电【变更送电】无【发布渠道】通过９５５９８发布","powerOffId":"2019111013000402"},{"poweroffId":2019111013000400,"sgpoweroffId":null,"subsName":"","lineName":"10kV538马古庄线","pubTranName":"新农村北变压器,0000004779北马古庄北区变压器,五里岗水井变压器,0014464265北马古庄南2区,0012411785北马古庄北2变压器,0000004781西海子变压器,0014316738西海子北区变压器,0012886464五里岗北变变压器,0000004822东海子变压器,0013038040五里岗东变压器,东海子东区变压器,北马古庄东北变压器,北马古庄小学2变压器,0000005482北马古庄南变压器,五里岗小学变压器,0013038043北马古庄水井变压器,北马古庄东区变压器,0000004780新农村变压器,0013880879东海子南区变压器,北马古庄农水井变压器【纯农排变】,0014235006北马古庄东农变压器,","scope":"【影响街道/乡镇】恒州镇【高危重要客户】无【影响客户】北马古庄、五里岗、新农村、东海子、西海子、曲阳县定瓷技术学校、兴居房地产、金穗农资合作社、兴泉混泥土、东海子养殖合作社、北马古庄一扬、武兴造纸厂","startTime":"2019-11-11 05:00:00","stopDate":"2019-11-11 06:00:00","orgNo":"1340619","typeCode":"其他临时停电","poweroffArea":"【全线路停电】停新农村北变压器,0000004779北马古庄北区变压器,五里岗水井变压器,0014464265北马古庄南2区,0012411785北马古庄北2变压器,0000004781西海子变压器,0014316738西海子北区变压器,0012886464五里岗北变变压器,0000004822东海子变压器,0013038040五里岗东变压器,东海子东区变压器,北马古庄东北变压器,北马古庄小学2变压器,0000005482北马古庄南变压器,五里岗小学变压器,0013038043北马古庄水井变压器,北马古庄东区变压器,0000004780新农村变压器,0013880879东海子南区变压器,北马古庄农水井变压器【纯农排变】,0014235006北马古庄东农变压器","poweroffReason":"【停电原因】由于站内开关的操作机构严重缺陷，需停电进行紧急消缺导致３５ＫＶ城西变电站１０ＫＶ５３８马古庄线路全线停电【变更送电】无【发布渠道】通过９５５９８发布","powerTime":"2019-11-11 05:51:56","powerComm":"已送电","subsNo":"","lineNo":"","tgNo":"","tgName":null,"infoStatus":"1","orgName":"国网曲阳县供电公司","typeName":null,"infoStatusName":null,"dateDay":null,"orgNos":null,"nowTime":null,"countyName":null,"streetName":null,"villageName":null,"roadName":null,"communityName":null,"tranName":null,"sdLineName":null,"cityCode":"1340619","cityName":"国网曲阳县供电公司","provinceCode":null,"stopTime":"2019-11-11 06:00:00","powerType":"全部","powerOffArea":"【全线路停电】停新农村北变压器,0000004779北马古庄北区变压器,五里岗水井变压器,0014464265北马古庄南2区,0012411785北马古庄北2变压器,0000004781西海子变压器,0014316738西海子北区变压器,0012886464五里岗北变变压器,0000004822东海子变压器,0013038040五里岗东变压器,东海子东区变压器,北马古庄东北变压器,北马古庄小学2变压器,0000005482北马古庄南变压器,五里岗小学变压器,0013038043北马古庄水井变压器,北马古庄东区变压器,0000004780新农村变压器,0013880879东海子南区变压器,北马古庄农水井变压器【纯农排变】,0014235006北马古庄东农变压器","powerOffReason":"【停电原因】由于站内开关的操作机构严重缺陷，需停电进行紧急消缺导致３５ＫＶ城西变电站１０ＫＶ５３８马古庄线路全线停电【变更送电】无【发布渠道】通过９５５９８发布","powerOffId":"2019111013000400"},{"poweroffId":2019111013000398,"sgpoweroffId":null,"subsName":"","lineName":"10kV537北环二线","pubTranName":"伟业小区配电变压器,0000006659养路工区家属院变压器,0000004489南马古庄村变压器,0000005997养路工区变压器,0012696501北环4区变压器,0000007159曲阳县正阳小区变压器,南马古庄小学变压器,0000006484南马古庄2变压器,恒源盛景配电变压器,南马古庄小学变压器2,曲阳县明珠新区配电变压器,0000006257北环路统管3#变压器,0000004495小岗子公用变压器,0012087010南马古庄西区变压器,0012184547聚缘小区变压器,0000005434北关塔东区变压器,","scope":"【影响街道/乡镇】恒州镇、北环路【高危重要客户】无【影响客户】南马古庄、新农村、北关、正阳小区、养路工区、养路工区家属院、聚缘小区、小岗子、点将台、汽车站、明珠新区、伟业小区、恒阳盛景小区","startTime":"2019-11-11 05:00:00","stopDate":"2019-11-11 06:00:00","orgNo":"1340619","typeCode":"其他临时停电","poweroffArea":"【全线路停电】停伟业小区配电变压器,0469352812-曲阳县中医院-专变-46781534-曲阳县中医院,曲阳县公共租赁住房住宅楼变压器,曲阳远大学校,0000006659养路工区家属院变压器,0000004489南马古庄村变压器,0000004495小岗子公用变压器,0000005997养路工区变压器,0012696501北环4区变压器,0000007159曲阳县正阳小区变压器,南马古庄小学变压器,齐国青2,中国石油天然气保定第三十加油站,0000006484南马古庄2变压器,0664314130-曲阳脑血管病医院-专变-199228762-曲阳脑血管病医院变压器,曲阳县中医医院变压器2,石油有限责任公司（马古庄),曲阳县中医医院变压器,曲阳远大学校变压器,中国铁塔股份有限公司保定市分公司,恒源盛景配电变压器,南马古庄小学变压器2,曲阳县明珠新区配电变压器,中国铁塔股份有限公司保定市分公司变压器,0000006257北环路统管3#变压器,曲阳县汽车站,0012087010南马古庄西区变压器,0012184547聚缘小区变压器,0000005434北关塔东区变压器,曲阳县远大学校","poweroffReason":"【停电原因】由于站内开关的操作机构严重缺陷，需停电进行紧急消缺导致３５ＫＶ城西变电站１０ＫＶ５３７北环二线路全线停电【变更送电】无【发布渠道】通过９５５９８发布","powerTime":"2019-11-11 05:50:43","powerComm":"已送电","subsNo":"","lineNo":"","tgNo":"","tgName":null,"infoStatus":"1","orgName":"国网曲阳县供电公司","typeName":null,"infoStatusName":null,"dateDay":null,"orgNos":null,"nowTime":null,"countyName":null,"streetName":null,"villageName":null,"roadName":null,"communityName":null,"tranName":null,"sdLineName":null,"cityCode":"1340619","cityName":"国网曲阳县供电公司","provinceCode":null,"stopTime":"2019-11-11 06:00:00","powerType":"全部","powerOffArea":"【全线路停电】停伟业小区配电变压器,0469352812-曲阳县中医院-专变-46781534-曲阳县中医院,曲阳县公共租赁住房住宅楼变压器,曲阳远大学校,0000006659养路工区家属院变压器,0000004489南马古庄村变压器,0000004495小岗子公用变压器,0000005997养路工区变压器,0012696501北环4区变压器,0000007159曲阳县正阳小区变压器,南马古庄小学变压器,齐国青2,中国石油天然气保定第三十加油站,0000006484南马古庄2变压器,0664314130-曲阳脑血管病医院-专变-199228762-曲阳脑血管病医院变压器,曲阳县中医医院变压器2,石油有限责任公司（马古庄),曲阳县中医医院变压器,曲阳远大学校变压器,中国铁塔股份有限公司保定市分公司,恒源盛景配电变压器,南马古庄小学变压器2,曲阳县明珠新区配电变压器,中国铁塔股份有限公司保定市分公司变压器,0000006257北环路统管3#变压器,曲阳县汽车站,0012087010南马古庄西区变压器,0012184547聚缘小区变压器,0000005434北关塔东区变压器,曲阳县远大学校","powerOffReason":"【停电原因】由于站内开关的操作机构严重缺陷，需停电进行紧急消缺导致３５ＫＶ城西变电站１０ＫＶ５３７北环二线路全线停电【变更送电】无【发布渠道】通过９５５９８发布","powerOffId":"2019111013000398"}],"pageModel":{"pageNow":392,"totalCount":10973,"totalPage":1098,"tableRows":0,"pageCount":10,"beginCount":3910},"isExperi":"1"}