{"message":"","today":"2020-06-15","seleList":[{"poweroffId":2019111013000252,"sgpoweroffId":null,"subsName":"","lineName":"10kV耿桥线521","pubTranName":"玉皇庙幼儿园,1蔡桥内8,1前铺内4,1耿桥内6,1李庄内1,07前铺内1号,1玉皇庙内2,07耿桥内3号,客户投资_07玉皇庙内1号,1后铺内6,1后铺内5,1许家洼内5,1李庄内2,1后铺内4,07耿桥内1号,蔡桥内5,1蔡桥内4,1许家洼内4,07许家洼内1号,01前铺内2,1蔡桥内7,前铺幼儿园,后铺内3,1耿桥内4,耿桥内7#,1前铺内3,1前铺内5,1耿桥内5,耿桥小学,1杨庄内4-1,后铺小学,1杨庄内1-1,1耿桥内8,1杨庄内2-1,1蔡桥内6,1后铺内1,1李庄内4(耿桥线),1蔡桥内3,1后铺内2,1玉皇庙内3台区,07许家洼内2,1李庄内3,1杨庄内3-1,1后铺内7,","scope":"【影响街道/乡镇】何桥乡 【高危重要客户】无 【影响客户】耿桥、后铺、前铺、许家洼、杨庄、李庄、玉皇庙、蔡桥","startTime":"2019-11-12 02:00:00","stopDate":"2019-11-12 06:00:00","orgNo":"1340618","typeCode":"临时停电","poweroffArea":"【全线路停电】停蔡桥村东,0602899545-玉皇庙村西五-专变-126976971-玉皇庙村西五,耿桥金兴氧化锌厂2,1前铺内4,0602899691-玉皇庙村西四-专变-126980064-玉皇庙村西四,2后铺外20【纯农排变】,0602894306-玉皇庙村西九-专变-126977095-玉皇庙村西九,清苑县汇银建材经销处,2耿桥外9【纯农排变】,07蔡桥2号,07李庄外1【纯农排变】,玉皇庙幼儿园,清苑县晟隆镀锌有限公司02,清苑县天宇纺织有限公司,清苑县耿桥面粉厂,2后铺外17【纯农排变】,清苑四海水泥砖厂,玉皇庙村西八,1蔡桥内8,07后铺外3【纯农排变】,清苑县增旺化工有限公司,1许家洼内3,0387495417-保定市耀邦棉纺织厂-专变-45316751-清苑县天宇纺织有限公司,清苑县新兴预制构件厂,1耿桥内6,2后铺外11【纯农排变】,07后铺外1【纯农排变】,保定市清苑区路南预制构件厂,1李庄内1,蔡桥蔡全旺,07前铺内1号,1玉皇庙内2,07耿桥内3号,客户投资_07玉皇庙内1号,保定市鸿大棉织厂,1后铺内6,耿桥金兴氧化锌厂1,2前铺外5【纯农排变】,蔡桥蔡志国织布厂,2耿桥外18【纯农排变】,蔡桥松岩浆纱厂,2后铺外2【纯农排变】,1后铺内5,2后铺外19【纯农排变】,07蔡桥外2【纯农排变】,耿桥内2,清苑县庆丰养殖场,清苑县人民客运有限公司,2耿桥外10【纯农排变】,2前铺外1【纯农排变】,2后铺外12【纯农排变】,1许家洼内5,2许家洼外5【纯农排变】,2前铺外4【纯农排变】,1李庄内2,1后铺内4,07前铺外三【纯农排变】,0387496742-保定市耀邦棉纺织厂-专变-174183763-保定佳越纺织有限公司,2后铺外15【纯农排变】,07耿桥内1号,后铺板厂,2草桥外15【纯农排变】,保定市名皇电动车科技有限公司,2蔡桥外1【纯农排变】,清苑县广大金属有限公司,2许家洼外6【纯农排变】,蔡桥内5,玉皇庙西,07后铺外5【纯农排变】,玉皇庙村西3,天兴金具加工厂,1蔡桥内4,杨庄杨全闹,07前铺外二【纯农排变】,1许家洼内4,清苑县增旺化工有限公司01,07许家洼内1号,2后铺外9【纯农排变】,玉皇庙村西十,01前铺内2,王宗,1蔡桥内7,1耿桥内5,蔡振坡,耿桥小学,河北阪禾纺织有限公司,1杨庄内4-1,后铺小学,2蔡桥外9【纯农排变】,2后铺外13【纯农排变】,2耿桥外12【纯农排变】,1杨庄内1-1,耿桥面粉厂,1耿桥内8,保定彤阳纺织有限公司,蔡桥砖厂,1杨庄内2-1,蔡桥砖厂小,1蔡桥内6,1后铺内1,1李庄内4(耿桥线),清苑县三旺针织有限公司,1蔡桥内3,清苑县丽伟养殖基地,2耿桥外11【纯农排变】,0387495417-保定市耀邦棉纺织厂-专变-46911407-清苑县天宇纺织有限公司,前铺幼儿园,0578052526-清苑县雪之光卫生材料有限公司-专变-124274028-清苑县雪之光卫生材料有限公司,后铺内3,玉皇庄村西七,07耿桥外1【纯农排变】,2后铺外10【纯农排变】,玉皇庙村西2,2后铺外14【纯农排变】,2后铺外4【纯农排变】,07耿桥外7【纯农排变】,2后铺外18【纯农排变】,07蔡桥1号,0602894377-玉皇庙村西十一-专变-126977132-玉皇庙村西十一,1耿桥内4,2李庄外5【纯农排变】,2许家洼外4【纯农排变】,耿桥内7#,2后铺外16【纯农排变】,1前铺内3,1前铺内5,玉皇庙村西六,1后铺内2,1玉皇庙内3台区,2草桥外16【纯农排变】,07许家洼内2,清苑县晟隆镀锌有限公司,清苑县晟隆镀锌有限公司01,1李庄内3,1杨庄内3-1,1后铺内7,07后铺外7【纯农排变】","poweroffReason":"【停电原因】由于更换隔离开关导致１１０ＫＶ草桥变电站１０ＫＶ耿桥线５２１线路全线停电 【变更送电】无 【发布渠道】通过９５５９８发布","powerTime":"2019-11-12 05:51:15","powerComm":"杨猛通知已送电","subsNo":"","lineNo":"","tgNo":"","tgName":null,"infoStatus":"1","orgName":"国网清苑县供电公司","typeName":null,"infoStatusName":null,"dateDay":null,"orgNos":null,"nowTime":null,"countyName":null,"streetName":null,"villageName":null,"roadName":null,"communityName":null,"tranName":null,"sdLineName":null,"cityCode":"1340618","cityName":"国网清苑县供电公司","provinceCode":null,"stopTime":"2019-11-12 06:00:00","powerType":"全部","powerOffArea":"【全线路停电】停蔡桥村东,0602899545-玉皇庙村西五-专变-126976971-玉皇庙村西五,耿桥金兴氧化锌厂2,1前铺内4,0602899691-玉皇庙村西四-专变-126980064-玉皇庙村西四,2后铺外20【纯农排变】,0602894306-玉皇庙村西九-专变-126977095-玉皇庙村西九,清苑县汇银建材经销处,2耿桥外9【纯农排变】,07蔡桥2号,07李庄外1【纯农排变】,玉皇庙幼儿园,清苑县晟隆镀锌有限公司02,清苑县天宇纺织有限公司,清苑县耿桥面粉厂,2后铺外17【纯农排变】,清苑四海水泥砖厂,玉皇庙村西八,1蔡桥内8,07后铺外3【纯农排变】,清苑县增旺化工有限公司,1许家洼内3,0387495417-保定市耀邦棉纺织厂-专变-45316751-清苑县天宇纺织有限公司,清苑县新兴预制构件厂,1耿桥内6,2后铺外11【纯农排变】,07后铺外1【纯农排变】,保定市清苑区路南预制构件厂,1李庄内1,蔡桥蔡全旺,07前铺内1号,1玉皇庙内2,07耿桥内3号,客户投资_07玉皇庙内1号,保定市鸿大棉织厂,1后铺内6,耿桥金兴氧化锌厂1,2前铺外5【纯农排变】,蔡桥蔡志国织布厂,2耿桥外18【纯农排变】,蔡桥松岩浆纱厂,2后铺外2【纯农排变】,1后铺内5,2后铺外19【纯农排变】,07蔡桥外2【纯农排变】,耿桥内2,清苑县庆丰养殖场,清苑县人民客运有限公司,2耿桥外10【纯农排变】,2前铺外1【纯农排变】,2后铺外12【纯农排变】,1许家洼内5,2许家洼外5【纯农排变】,2前铺外4【纯农排变】,1李庄内2,1后铺内4,07前铺外三【纯农排变】,0387496742-保定市耀邦棉纺织厂-专变-174183763-保定佳越纺织有限公司,2后铺外15【纯农排变】,07耿桥内1号,后铺板厂,2草桥外15【纯农排变】,保定市名皇电动车科技有限公司,2蔡桥外1【纯农排变】,清苑县广大金属有限公司,2许家洼外6【纯农排变】,蔡桥内5,玉皇庙西,07后铺外5【纯农排变】,玉皇庙村西3,天兴金具加工厂,1蔡桥内4,杨庄杨全闹,07前铺外二【纯农排变】,1许家洼内4,清苑县增旺化工有限公司01,07许家洼内1号,2后铺外9【纯农排变】,玉皇庙村西十,01前铺内2,王宗,1蔡桥内7,1耿桥内5,蔡振坡,耿桥小学,河北阪禾纺织有限公司,1杨庄内4-1,后铺小学,2蔡桥外9【纯农排变】,2后铺外13【纯农排变】,2耿桥外12【纯农排变】,1杨庄内1-1,耿桥面粉厂,1耿桥内8,保定彤阳纺织有限公司,蔡桥砖厂,1杨庄内2-1,蔡桥砖厂小,1蔡桥内6,1后铺内1,1李庄内4(耿桥线),清苑县三旺针织有限公司,1蔡桥内3,清苑县丽伟养殖基地,2耿桥外11【纯农排变】,0387495417-保定市耀邦棉纺织厂-专变-46911407-清苑县天宇纺织有限公司,前铺幼儿园,0578052526-清苑县雪之光卫生材料有限公司-专变-124274028-清苑县雪之光卫生材料有限公司,后铺内3,玉皇庄村西七,07耿桥外1【纯农排变】,2后铺外10【纯农排变】,玉皇庙村西2,2后铺外14【纯农排变】,2后铺外4【纯农排变】,07耿桥外7【纯农排变】,2后铺外18【纯农排变】,07蔡桥1号,0602894377-玉皇庙村西十一-专变-126977132-玉皇庙村西十一,1耿桥内4,2李庄外5【纯农排变】,2许家洼外4【纯农排变】,耿桥内7#,2后铺外16【纯农排变】,1前铺内3,1前铺内5,玉皇庙村西六,1后铺内2,1玉皇庙内3台区,2草桥外16【纯农排变】,07许家洼内2,清苑县晟隆镀锌有限公司,清苑县晟隆镀锌有限公司01,1李庄内3,1杨庄内3-1,1后铺内7,07后铺外7【纯农排变】","powerOffReason":"【停电原因】由于更换隔离开关导致１１０ＫＶ草桥变电站１０ＫＶ耿桥线５２１线路全线停电 【变更送电】无 【发布渠道】通过９５５９８发布","powerOffId":"2019111013000252"},{"poweroffId":2019111013000246,"sgpoweroffId":null,"subsName":"","lineName":"10KV冠云路516","pubTranName":"太平庄村中,","scope":"【影响街道/乡镇】桃园城区 【高危重要客户】无 【影响客户】太平庄村","startTime":"2019-11-12 07:30:00","stopDate":"2019-11-12 17:30:00","orgNo":"1340626","typeCode":"临时停电","poweroffArea":"【单台区停电】停太平庄村中","poweroffReason":"【停电原因】由于更换导线工程导致１１０ＫＶ涿县变电站１０ＫＶ冠云路５１６线路太平庄村中公变台区停电 【变更送电】无 【发布渠道】通过９５５９８发布","powerTime":"2019-11-12 17:20:19","powerComm":"恢复送电","subsNo":"","lineNo":"","tgNo":"","tgName":null,"infoStatus":"1","orgName":"国网涿州市供电公司","typeName":null,"infoStatusName":null,"dateDay":null,"orgNos":null,"nowTime":null,"countyName":null,"streetName":null,"villageName":null,"roadName":null,"communityName":null,"tranName":null,"sdLineName":null,"cityCode":"1340626","cityName":"国网涿州市供电公司","provinceCode":null,"stopTime":"2019-11-12 17:30:00","powerType":"全部","powerOffArea":"【单台区停电】停太平庄村中","powerOffReason":"【停电原因】由于更换导线工程导致１１０ＫＶ涿县变电站１０ＫＶ冠云路５１６线路太平庄村中公变台区停电 【变更送电】无 【发布渠道】通过９５５９８发布","powerOffId":"2019111013000246"},{"poweroffId":2019111013000240,"sgpoweroffId":null,"subsName":"","lineName":"10kV524城西线","pubTranName":"大宋综合12台区,大宋综合13台区,大庄头综合7台区,大庄头综合1台区,大宋综合11台区,大宋综合9台区,大宋综合6台区,大庄头综合3台区,大宋综合14台区,大宋综合3台区,大庄头综合8台区,大庄头综合4台区,大宋综合4台区,大宋综合15台区,大庄头综合2台区,大庄头综合6台区,大宋综合8台区,大宋综合1台区,大宋综合7台区,大庄头综合5台区,大宋综合5台区,大庄头综合9台区,大宋综合10台区,大宋综合2台区,","scope":"【影响街道/乡镇】蠡吾镇【高危重要客户】无【影响客户】大庄头村、大宋村、南忠卫村、南忠卫鸡场、仕伟纺纱厂、彦怀纺织厂、果园面粉厂、蠡县小凯纺织厂","startTime":"2019-11-10 10:30:00","stopDate":"2019-11-10 12:50:00","orgNo":"1340616","typeCode":"其他临时停电","poweroffArea":"【全线路停电】停大宋综合13台区,大庄头综合7台区,大庄头综合1台区,大宋综合11台区,大宋综合9台区,大宋综合6台区,大庄头综合3台区,大宋综合14台区,大宋综合3台区,大庄头综合8台区,大庄头综合4台区,大宋综合4台区,大宋综合15台区,大庄头综合2台区,大庄头综合6台区,大宋综合8台区,大宋综合1台区,大宋综合7台区,大庄头综合5台区,大宋综合5台区,大庄头综合9台区,大宋综合10台区,大宋综合2台区,大宋综合12台区","poweroffReason":"【停电原因】由于线路严重缺陷，需停电进行紧急消缺导致２２０ＫＶ蠡县变电站１０ＫＶ城西５２４线路全线停电【变更送电】因抢修进度加快原因，送电时间由１４：００变更为１２：５０【发布渠道】通过９５５９８发布","powerTime":"2019-11-10 12:35:12","powerComm":"已送电","subsNo":"","lineNo":"","tgNo":"","tgName":null,"infoStatus":"1","orgName":"国网蠡县供电公司","typeName":null,"infoStatusName":null,"dateDay":null,"orgNos":null,"nowTime":null,"countyName":null,"streetName":null,"villageName":null,"roadName":null,"communityName":null,"tranName":null,"sdLineName":null,"cityCode":"1340616","cityName":"国网蠡县供电公司","provinceCode":null,"stopTime":"2019-11-10 12:50:00","powerType":"全部","powerOffArea":"【全线路停电】停大宋综合13台区,大庄头综合7台区,大庄头综合1台区,大宋综合11台区,大宋综合9台区,大宋综合6台区,大庄头综合3台区,大宋综合14台区,大宋综合3台区,大庄头综合8台区,大庄头综合4台区,大宋综合4台区,大宋综合15台区,大庄头综合2台区,大庄头综合6台区,大宋综合8台区,大宋综合1台区,大宋综合7台区,大庄头综合5台区,大宋综合5台区,大庄头综合9台区,大宋综合10台区,大宋综合2台区,大宋综合12台区","powerOffReason":"【停电原因】由于线路严重缺陷，需停电进行紧急消缺导致２２０ＫＶ蠡县变电站１０ＫＶ城西５２４线路全线停电【变更送电】因抢修进度加快原因，送电时间由１４：００变更为１２：５０【发布渠道】通过９５５９８发布","powerOffId":"2019111013000240"},{"poweroffId":2019111013000237,"sgpoweroffId":null,"subsName":"","lineName":"10KV偏道子线534","pubTranName":"河口南台2台区,龙门乡政府台区,上港西沟变压器,庄儿上二台区,龙门西洼变压器,龙门乡卫生院台区1,白涧二台区变压器,林清寺中学1台区,板城8台区,韦家峪西机井,龙门岗二号井,河口小学台区柱上变压器1,林清寺中学2号台区,板城9台区,白涧大队台区,龙门村中变压器,龙门大西洼2,龙门大西洼三台区,龙门白蛇港变压器,龙门大棚台区,苇家峪村中变压器,河口南台新台区,河口变压器,白涧刘兴友,白蛇港4台区,上港村中变压器,龙门小村变压器,庄儿上（村内）二台区变压器,下港机井台区,板城大队台区,板城新二台区变压器,板城6台区,下港2台区,龙门村北台区,白涧幼儿园,庄儿上大棚井台区,庄儿上村中变压器,板城4号台区,上港三台区,板城村北变压器,白涧6台区,龙门岗子变压器,龙门（峨台）,龙门村包峪,板城（2）村东变压器,板城村5台区,龙门包峪南台区,下港村变压器,上港机井台区变压器,龙门白蛇港三台区,板城村,河口小学2台区,白涧村,板城村五台区,板城7台区,龙门包峪50kVA新建,韦家峪2台区,上港2台区,龙门白蛇港二台区,龙门额台二台区,龙门幼儿园台区【冬季供暖设施】,庄儿上龙王庙台区,苇家峪机井,","scope":"【影响街道/乡镇】赵各庄镇、龙门乡 【高危重要客户】无 【影响客户】白涧村、龙门村、河口村、上港村、下港村、韦家峪村、板城村、庄儿上村","startTime":"2019-11-14 09:00:00","stopDate":"2019-11-14 10:00:00","orgNo":"1340614","typeCode":"临时停电","poweroffArea":"【全线路停电】停嘉珩基石材分厂,林清寺中学2号台区,板城9台区,白涧大队台区,龙门村中变压器,龙门大西洼2,龙门大西洼三台区,龙门白蛇港变压器,龙门大棚台区,苇家峪村中变压器,勾林娟砖厂,嘉珩石材400KVA专变,河口南台新台区,河口变压器,中国移动通信集团河北有限公司涞水分公司50KVA专变,白涧刘兴友,白蛇港4台区,上港村中变压器,龙门小村变压器,北京铁路局北京供电段250KVA,庄儿上（村内）二台区变压器,下港机井台区,板城大队台区,板城新二台区变压器,板城6台区,下港2台区,龙门村北台区,白涧幼儿园,庄儿上大棚井台区,泽诺石料厂200KVA,河口南台2台区,龙门乡政府台区,上港西沟变压器,庄儿上二台区,鼎盛石材厂专变,龙门西洼变压器,龙门乡卫生院台区1,白涧二台区变压器,光明装饰材料,林清寺中学1台区,板城8台区,韦家峪西机井,1涞水县鼎盛石材厂315KVA专变,龙门岗二号井,河口小学台区柱上变压器1,庄儿上村中变压器,板城村北变压器,白涧6台区,涞水县鼎盛石材厂315KVA专变1#,板城4号台区,上港三台区,龙门岗子变压器,龙门（峨台）,龙门村包峪,板城（2）村东变压器,板城村5台区,龙门包峪南台区,下港村变压器,上港机井台区变压器,龙门白蛇港三台区,涞水县白涧农副产品购销站新增变压器,板城村,河口小学2台区,白涧村,板城村五台区,板城7台区,苇家峪机井,龙门包峪50kVA新建,韦家峪2台区,上港2台区,龙门白蛇港二台区,龙门额台二台区,龙门幼儿园台区【冬季供暖设施】,庄儿上龙王庙台区","poweroffReason":"【停电原因】由于站内开关检修导致１１０ＫＶ六顺变电站１０ＫＶ偏道子５３４线路全线停电 【变更送电】因工作进度加快原因，送电时间由１８：００变更为１０：００ 【发布渠道】通过９５５９８发布","powerTime":"2019-11-14 09:37:51","powerComm":"已送电","subsNo":"","lineNo":"","tgNo":"","tgName":null,"infoStatus":"1","orgName":"国网涞水县供电公司","typeName":null,"infoStatusName":null,"dateDay":null,"orgNos":null,"nowTime":null,"countyName":null,"streetName":null,"villageName":null,"roadName":null,"communityName":null,"tranName":null,"sdLineName":null,"cityCode":"1340614","cityName":"国网涞水县供电公司","provinceCode":null,"stopTime":"2019-11-14 10:00:00","powerType":"全部","powerOffArea":"【全线路停电】停嘉珩基石材分厂,林清寺中学2号台区,板城9台区,白涧大队台区,龙门村中变压器,龙门大西洼2,龙门大西洼三台区,龙门白蛇港变压器,龙门大棚台区,苇家峪村中变压器,勾林娟砖厂,嘉珩石材400KVA专变,河口南台新台区,河口变压器,中国移动通信集团河北有限公司涞水分公司50KVA专变,白涧刘兴友,白蛇港4台区,上港村中变压器,龙门小村变压器,北京铁路局北京供电段250KVA,庄儿上（村内）二台区变压器,下港机井台区,板城大队台区,板城新二台区变压器,板城6台区,下港2台区,龙门村北台区,白涧幼儿园,庄儿上大棚井台区,泽诺石料厂200KVA,河口南台2台区,龙门乡政府台区,上港西沟变压器,庄儿上二台区,鼎盛石材厂专变,龙门西洼变压器,龙门乡卫生院台区1,白涧二台区变压器,光明装饰材料,林清寺中学1台区,板城8台区,韦家峪西机井,1涞水县鼎盛石材厂315KVA专变,龙门岗二号井,河口小学台区柱上变压器1,庄儿上村中变压器,板城村北变压器,白涧6台区,涞水县鼎盛石材厂315KVA专变1#,板城4号台区,上港三台区,龙门岗子变压器,龙门（峨台）,龙门村包峪,板城（2）村东变压器,板城村5台区,龙门包峪南台区,下港村变压器,上港机井台区变压器,龙门白蛇港三台区,涞水县白涧农副产品购销站新增变压器,板城村,河口小学2台区,白涧村,板城村五台区,板城7台区,苇家峪机井,龙门包峪50kVA新建,韦家峪2台区,上港2台区,龙门白蛇港二台区,龙门额台二台区,龙门幼儿园台区【冬季供暖设施】,庄儿上龙王庙台区","powerOffReason":"【停电原因】由于站内开关检修导致１１０ＫＶ六顺变电站１０ＫＶ偏道子５３４线路全线停电 【变更送电】因工作进度加快原因，送电时间由１８：００变更为１０：００ 【发布渠道】通过９５５９８发布","powerOffId":"2019111013000237"},{"poweroffId":2019111013000236,"sgpoweroffId":null,"subsName":"","lineName":"10KV南三店555","pubTranName":"酱各庄1105,","scope":"【影响街道/乡镇】高官庄镇 【高危重要客户】无 【影响客户】酱各庄村","startTime":"2019-11-12 07:30:00","stopDate":"2019-11-12 18:00:00","orgNo":"1340626","typeCode":"临时停电","poweroffArea":"【单台区停电】停酱各庄1105","poweroffReason":"【停电原因】由于导线架设工程导致１１０ＫＶ松林店变电站１０ＫＶ南三店５５５线路酱各庄１１０５公变台区停电 【变更送电】无 【发布渠道】通过９５５９８发布","powerTime":"2019-11-12 17:45:17","powerComm":"恢复送电","subsNo":"","lineNo":"","tgNo":"","tgName":null,"infoStatus":"1","orgName":"国网涿州市供电公司","typeName":null,"infoStatusName":null,"dateDay":null,"orgNos":null,"nowTime":null,"countyName":null,"streetName":null,"villageName":null,"roadName":null,"communityName":null,"tranName":null,"sdLineName":null,"cityCode":"1340626","cityName":"国网涿州市供电公司","provinceCode":null,"stopTime":"2019-11-12 18:00:00","powerType":"全部","powerOffArea":"【单台区停电】停酱各庄1105","powerOffReason":"【停电原因】由于导线架设工程导致１１０ＫＶ松林店变电站１０ＫＶ南三店５５５线路酱各庄１１０５公变台区停电 【变更送电】无 【发布渠道】通过９５５９８发布","powerOffId":"2019111013000236"},{"poweroffId":2019111013000231,"sgpoweroffId":null,"subsName":"","lineName":"10KV南三店555","pubTranName":"台头1095,","scope":"【影响街道/乡镇】高官庄镇 【高危重要客户】无 【影响客户】台头村","startTime":"2019-11-12 07:30:00","stopDate":"2019-11-12 18:00:00","orgNo":"1340626","typeCode":"临时停电","poweroffArea":"【单台区停电】停台头1095","poweroffReason":"【停电原因】由于架设导线工程导致１１０ＫＶ松林店变电站１０ＫＶ南三店５５５线路台头１０９５公变台区停电 【变更送电】无 【发布渠道】通过９５５９８发布","powerTime":"2019-11-12 17:45:35","powerComm":"恢复送电","subsNo":"","lineNo":"","tgNo":"","tgName":null,"infoStatus":"1","orgName":"国网涿州市供电公司","typeName":null,"infoStatusName":null,"dateDay":null,"orgNos":null,"nowTime":null,"countyName":null,"streetName":null,"villageName":null,"roadName":null,"communityName":null,"tranName":null,"sdLineName":null,"cityCode":"1340626","cityName":"国网涿州市供电公司","provinceCode":null,"stopTime":"2019-11-12 18:00:00","powerType":"全部","powerOffArea":"【单台区停电】停台头1095","powerOffReason":"【停电原因】由于架设导线工程导致１１０ＫＶ松林店变电站１０ＫＶ南三店５５５线路台头１０９５公变台区停电 【变更送电】无 【发布渠道】通过９５５９８发布","powerOffId":"2019111013000231"},{"poweroffId":2019111013000225,"sgpoweroffId":null,"subsName":"","lineName":"10KV石屯574","pubTranName":"柳河村,","scope":"【影响街道/乡镇】豆庄乡 【高危重要客户】无 【影响客户】柳河村","startTime":"2019-11-12 07:30:00","stopDate":"2019-11-12 18:00:00","orgNo":"1340626","typeCode":"临时停电","poweroffArea":"【单台区停电】停柳河村","poweroffReason":"【停电原因】由于导线架设工程导致２２０ＫＶ豆庄变电站１０ＫＶ石屯５７４线路柳河村公变台区停电 【变更送电】无 【发布渠道】通过９５５９８发布","powerTime":"2019-11-12 17:45:51","powerComm":"恢复送电","subsNo":"","lineNo":"","tgNo":"","tgName":null,"infoStatus":"1","orgName":"国网涿州市供电公司","typeName":null,"infoStatusName":null,"dateDay":null,"orgNos":null,"nowTime":null,"countyName":null,"streetName":null,"villageName":null,"roadName":null,"communityName":null,"tranName":null,"sdLineName":null,"cityCode":"1340626","cityName":"国网涿州市供电公司","provinceCode":null,"stopTime":"2019-11-12 18:00:00","powerType":"全部","powerOffArea":"【单台区停电】停柳河村","powerOffReason":"【停电原因】由于导线架设工程导致２２０ＫＶ豆庄变电站１０ＫＶ石屯５７４线路柳河村公变台区停电 【变更送电】无 【发布渠道】通过９５５９８发布","powerOffId":"2019111013000225"},{"poweroffId":2019111013000221,"sgpoweroffId":null,"subsName":"","lineName":"10KV车厂511","pubTranName":"车厂北山光伏6号变压器,车厂村内变压器,娄村西1台区变压器,车厂北山光伏2号变压器,兰家巷变压器,包家坟,车厂北山光伏12号变压器,木井西1变压器,包家坟高速路边井变压器,娄村绿化井变压器,木井绿化井变压器,包家坟南台区变压器,车厂南坡根井变压器,木井2村南3配变,车厂北山光伏8号变压器,娄村高家巷变压器,南庄西井配变,南庄2台区配变,车厂北山光伏7号变压器,南庄西三台区变压器,包家坟村东新,娄村西2台区变压器,车厂北山光伏3号变压器,木井西四台区变压器,张凤坡机井变压器,木井桥沟台区变压器,南庄村东配变,车厂西山庄三台区变压器,南庄村北台区配变,车厂北山光伏14号变压器,车厂村南山庄,半坡井变压器,南庄东井配变,车厂北山光伏13号变压器,木井玉泉寺台区变压器,车厂南2台区变压器,车厂南山庄自来水台区变压器,车厂捞洼井变压器,娄村兰家巷二台区变压器,木井学校台区配变,木井西3台区变压器,车厂七队变压器,包家坟北井变压器,南山庄2井变压器,娄村釜山顶变压器,张井恒机井变压器,车厂北山光伏5号变压器,娄村李占文|0478变压器,木井南2配变,车厂村东变压器【冬季供暖设施】,南庄村南台区配变,车厂北山光伏4号变压器,木井村西变压器,车厂村东三台区变压器,南庄村西大棚菜配变,娄村道边井台区变压器,南庄西2台区配变,娄村大石槽井0473变压器,车厂北山光伏10号变压器,车厂西大井区变压器,张涿娄村服务区西充电桩配电变压器,木井南四台区配变,张涿娄村服务区东充电桩母线间隔配电变压器,木井自来水井台区,包家坟村东变压器,车厂北山光伏9号变压器,木井大队台区变压器,车厂北山光伏11号变压器,木井学校变压器,兰家巷三台区变压器,车厂北山光伏1号变压器,包家坟村西井台区 变压器【纯农排变】,车厂西山庄1台区变压器,娄村兰家巷4台区,釜山灵泉寺台区变压器,木井南1变压器,","scope":"【影响街道/乡镇】娄村乡 【高危重要客户】无 【影响客户】包家坟村、车厂村、木井村、娄村、兰家巷、高家巷、西坡、高速服务区、高速充电桩、南庄村、海波建材、顺合建材","startTime":"2019-11-13 08:00:00","stopDate":"2019-11-13 19:00:00","orgNo":"1340614","typeCode":"临时停电","poweroffArea":"【全线路停电】停木井绿化井变压器,包家坟南台区变压器,木井2村南3配变,车厂北山光伏8号变压器,娄村高家巷变压器,南庄西井配变,南庄2台区配变,车厂北山光伏7号变压器,娄村西2台区变压器,车厂北山光伏3号变压器,木井西2变压器,河北信诺众帮科技有限公司160KVA专变,木井西四台区变压器,半坡井变压器,娄村兰家巷二台区变压器,点将台2台区变压器,车厂七队变压器,包家坟北井变压器,车厂北山光伏5号变压器,娄村李占文|0478变压器,车厂村东变压器【冬季供暖设施】,南庄村南台区配变,涞水海波建材有限公司200专变,木井村西变压器,木井桥沟台区变压器,南庄村东配变,车厂西山庄三台区变压器,南庄村北台区配变,海波建材有限公司新增变压器,娄村李术江,涞水县顺合建材有限公司2000KVA专变,车厂北山光伏14号变压器,车厂村南山庄,南庄西三台区变压器,刘凤春化石厂,涞水海波建材有限公司630KVA专变,包家坟村东新,庞秀歧机井|0512变压器,娄村服务区630KVA专变,张凤坡机井变压器,河北正通翔市政道路315KVA专变,娄村服务区1000KVA专变,车厂北山光伏13号变压器,包家坟村变压器,车厂南坡根井变压器,南庄东井配变,木井玉泉寺台区变压器,车厂南2台区变压器,车厂南山庄自来水台区变压器,果园井2#变压器,车厂捞洼井变压器,南山庄2井变压器,娄村釜山顶变压器,张井恒机井变压器,包家坟北水泉井变压器,木井南2配变,车厂北山光伏4号变压器,车厂村东三台区变压器,涞水正通翔程市政道路630变压器专变,南庄村西大棚菜配变,娄村道边井台区变压器,釜山灵泉寺台区变压器,南庄西2台区配变,娄村大石槽井0473变压器,庞秀岐滑石厂,车厂北山光伏10号变压器,南庄村东2台区配变,0468883492-王国良滑石二厂-专变-46618532-王国良滑石2,车厂西大井区变压器,张涿娄村服务区西充电桩配电变压器,木井南四台区配变,木井自来水井台区,车厂北山光伏11号变压器,包家坟村西井台区 变压器【纯农排变】,娄村兰家巷4台区,点将台井变压器,车厂北山光伏12号变压器,包家坟高速路边井变压器,娄村绿化井变压器,车厂西山庄一台区变压器,海波建材1260KVA专变,张涿娄村服务区东充电桩母线间隔配电变压器,包家坟村东变压器,车厂北山光伏9号变压器,海波建材200KVA专变,木井大队台区变压器,木井学校台区配变,木井西3台区变压器,木井学校变压器,兰家巷三台区变压器,海波建材1260KVA专变1#,车厂北山光伏1号变压器,车厂西山庄1台区变压器,木井南1变压器,车厂北山光伏6号变压器,车厂村内变压器,娄村西1台区变压器,车厂北山光伏2号变压器,娄村西坡变压器,申城路桥木井250KVA专变,兰家巷变压器,包家坟,木井西1变压器","poweroffReason":"【停电原因】由于更换设备线夹导致３５ＫＶ娄村变电站１０ＫＶ车厂５１１线路全线停电 【变更送电】无 【发布渠道】通过９５５９８发布 　　　　　　　　　　　　　　　　　　　　　　　　　　　　　　　　　　　　　　　　　","powerTime":"2019-11-13 18:04:51","powerComm":"已送电","subsNo":"","lineNo":"","tgNo":"","tgName":null,"infoStatus":"1","orgName":"国网涞水县供电公司","typeName":null,"infoStatusName":null,"dateDay":null,"orgNos":null,"nowTime":null,"countyName":null,"streetName":null,"villageName":null,"roadName":null,"communityName":null,"tranName":null,"sdLineName":null,"cityCode":"1340614","cityName":"国网涞水县供电公司","provinceCode":null,"stopTime":"2019-11-13 19:00:00","powerType":"全部","powerOffArea":"【全线路停电】停木井绿化井变压器,包家坟南台区变压器,木井2村南3配变,车厂北山光伏8号变压器,娄村高家巷变压器,南庄西井配变,南庄2台区配变,车厂北山光伏7号变压器,娄村西2台区变压器,车厂北山光伏3号变压器,木井西2变压器,河北信诺众帮科技有限公司160KVA专变,木井西四台区变压器,半坡井变压器,娄村兰家巷二台区变压器,点将台2台区变压器,车厂七队变压器,包家坟北井变压器,车厂北山光伏5号变压器,娄村李占文|0478变压器,车厂村东变压器【冬季供暖设施】,南庄村南台区配变,涞水海波建材有限公司200专变,木井村西变压器,木井桥沟台区变压器,南庄村东配变,车厂西山庄三台区变压器,南庄村北台区配变,海波建材有限公司新增变压器,娄村李术江,涞水县顺合建材有限公司2000KVA专变,车厂北山光伏14号变压器,车厂村南山庄,南庄西三台区变压器,刘凤春化石厂,涞水海波建材有限公司630KVA专变,包家坟村东新,庞秀歧机井|0512变压器,娄村服务区630KVA专变,张凤坡机井变压器,河北正通翔市政道路315KVA专变,娄村服务区1000KVA专变,车厂北山光伏13号变压器,包家坟村变压器,车厂南坡根井变压器,南庄东井配变,木井玉泉寺台区变压器,车厂南2台区变压器,车厂南山庄自来水台区变压器,果园井2#变压器,车厂捞洼井变压器,南山庄2井变压器,娄村釜山顶变压器,张井恒机井变压器,包家坟北水泉井变压器,木井南2配变,车厂北山光伏4号变压器,车厂村东三台区变压器,涞水正通翔程市政道路630变压器专变,南庄村西大棚菜配变,娄村道边井台区变压器,釜山灵泉寺台区变压器,南庄西2台区配变,娄村大石槽井0473变压器,庞秀岐滑石厂,车厂北山光伏10号变压器,南庄村东2台区配变,0468883492-王国良滑石二厂-专变-46618532-王国良滑石2,车厂西大井区变压器,张涿娄村服务区西充电桩配电变压器,木井南四台区配变,木井自来水井台区,车厂北山光伏11号变压器,包家坟村西井台区 变压器【纯农排变】,娄村兰家巷4台区,点将台井变压器,车厂北山光伏12号变压器,包家坟高速路边井变压器,娄村绿化井变压器,车厂西山庄一台区变压器,海波建材1260KVA专变,张涿娄村服务区东充电桩母线间隔配电变压器,包家坟村东变压器,车厂北山光伏9号变压器,海波建材200KVA专变,木井大队台区变压器,木井学校台区配变,木井西3台区变压器,木井学校变压器,兰家巷三台区变压器,海波建材1260KVA专变1#,车厂北山光伏1号变压器,车厂西山庄1台区变压器,木井南1变压器,车厂北山光伏6号变压器,车厂村内变压器,娄村西1台区变压器,车厂北山光伏2号变压器,娄村西坡变压器,申城路桥木井250KVA专变,兰家巷变压器,包家坟,木井西1变压器","powerOffReason":"【停电原因】由于更换设备线夹导致３５ＫＶ娄村变电站１０ＫＶ车厂５１１线路全线停电 【变更送电】无 【发布渠道】通过９５５９８发布 　　　　　　　　　　　　　　　　　　　　　　　　　　　　　　　　　　　　　　　　　","powerOffId":"2019111013000221"},{"poweroffId":2019111013000213,"sgpoweroffId":null,"subsName":"","lineName":"10kV杨漫撒线535","pubTranName":"杨漫撒14号变压器,杨漫撒21号变压器,杨漫撒24号变压器,杨漫撒12号变压器,杨漫撒20号变压器,杨漫撒32号变压器,杨漫撒15号变压器,杨漫撒01号变压器,杨漫撒18号变压器,杨漫撒35号变压器,杨漫撒31号变压器,杨漫撒02号变压器,杨漫撒23号变压器,杨漫撒26号变压器,杨漫撒09号变压器,杨漫撒30号变压器,杨漫撒小学,杨漫撒38号变压器,杨漫撒11号变压器,杨漫撒03号变压器,杨漫撒05号变压器,杨漫撒13号变压器,杨漫撒34号变压器,杨漫撒28号变压器,杨漫撒08号变压器,杨漫撒06号变压器,杨漫撒39号变压器,杨漫撒37号变压器,杨漫撒33号变压器,杨漫撒22号变压器,杨漫撒07号变压器,杨漫撒36号变压器,杨漫撒10号变压器,杨漫撒17号变压器,杨漫撒25号变压器,杨漫撒27号变压器,杨漫撒16号变压器,杨漫撒29号变压器,杨漫撒19号变压器,杨漫撒04号变压器,","scope":"【影响街道/乡镇】北城办事处、北城路 【高危重要客户】无 【影响客户】杨漫撒村","startTime":"2019-11-10 09:55:00","stopDate":"2019-11-10 11:30:00","orgNo":"1340612","typeCode":"其他临时停电","poweroffArea":"【全线路停电】停杨漫撒03号变压器,杨漫撒19号变压器,杨漫撒09号变压器,杨漫撒26号变压器,杨漫撒17号变压器,杨漫撒16号变压器,0387450160-高碑店市宏济医院-专变-45283410-杨炳成,杨漫撒14号变压器,杨漫撒21号变压器,杨漫撒24号变压器,杨漫撒04号变压器,杨漫撒30号变压器,杨漫撒38号变压器,杨漫撒39号变压器,杨漫撒20号变压器,杨漫撒32号变压器,杨漫撒01号变压器,杨漫撒18号变压器,杨漫撒35号变压器,杨漫撒31号变压器,杨漫撒23号变压器,杨漫撒33号变压器,杨漫撒36号变压器,杨漫撒10号变压器,杨漫撒25号变压器,杨漫撒27号变压器,杨漫撒28号变压器,杨漫撒北地变压器【纯农排变】,杨漫撒22号变压器,河北帅旗房地产开发有限公司,杨漫撒05号变压器,杨漫撒13号变压器,杨漫撒西地变压器【纯农排变】,杨漫撒34号变压器,杨漫撒08号变压器,杨漫撒06号变压器,杨漫撒29号变压器,杨漫撒12号变压器,杨漫撒北西地变压器【纯农排变】,杨漫撒15号变压器,杨漫撒02号变压器,杨漫撒37号变压器,杨漫撒07号变压器,杨漫撒小学,杨漫撒11号变压器","poweroffReason":"【停电原因】由于电缆打火需紧急处理导致１１０ＫＶ各庄变电站１０ＫＶ杨漫撒５３５线路全线停电 【变更送电】无 【发布渠道】通过９５５９８发布","powerTime":"2019-11-10 11:20:53","powerComm":"已送电","subsNo":"","lineNo":"","tgNo":"","tgName":null,"infoStatus":"1","orgName":"国网高碑店市供电公司","typeName":null,"infoStatusName":null,"dateDay":null,"orgNos":null,"nowTime":null,"countyName":null,"streetName":null,"villageName":null,"roadName":null,"communityName":null,"tranName":null,"sdLineName":null,"cityCode":"1340612","cityName":"国网高碑店市供电公司","provinceCode":null,"stopTime":"2019-11-10 11:30:00","powerType":"全部","powerOffArea":"【全线路停电】停杨漫撒03号变压器,杨漫撒19号变压器,杨漫撒09号变压器,杨漫撒26号变压器,杨漫撒17号变压器,杨漫撒16号变压器,0387450160-高碑店市宏济医院-专变-45283410-杨炳成,杨漫撒14号变压器,杨漫撒21号变压器,杨漫撒24号变压器,杨漫撒04号变压器,杨漫撒30号变压器,杨漫撒38号变压器,杨漫撒39号变压器,杨漫撒20号变压器,杨漫撒32号变压器,杨漫撒01号变压器,杨漫撒18号变压器,杨漫撒35号变压器,杨漫撒31号变压器,杨漫撒23号变压器,杨漫撒33号变压器,杨漫撒36号变压器,杨漫撒10号变压器,杨漫撒25号变压器,杨漫撒27号变压器,杨漫撒28号变压器,杨漫撒北地变压器【纯农排变】,杨漫撒22号变压器,河北帅旗房地产开发有限公司,杨漫撒05号变压器,杨漫撒13号变压器,杨漫撒西地变压器【纯农排变】,杨漫撒34号变压器,杨漫撒08号变压器,杨漫撒06号变压器,杨漫撒29号变压器,杨漫撒12号变压器,杨漫撒北西地变压器【纯农排变】,杨漫撒15号变压器,杨漫撒02号变压器,杨漫撒37号变压器,杨漫撒07号变压器,杨漫撒小学,杨漫撒11号变压器","powerOffReason":"【停电原因】由于电缆打火需紧急处理导致１１０ＫＶ各庄变电站１０ＫＶ杨漫撒５３５线路全线停电 【变更送电】无 【发布渠道】通过９５５９８发布","powerOffId":"2019111013000213"},{"poweroffId":2019111013000205,"sgpoweroffId":null,"subsName":"","lineName":"10kV备用539间隔","pubTranName":"河北新发地农副产品有限公司计量点2,","scope":"【影响街道/乡镇】１０７国道 【高危重要客户】无 【影响客户】物流园西区、国家贸易港、粮油理货区","startTime":"2019-11-10 08:22:16","stopDate":"2019-11-10 10:30:00","orgNo":"1340612","typeCode":"电网故障停限电","poweroffArea":"【全线路停电】停高碑店市新发地食品贸易有限公司5,河北新发地农副产品有限公司1#变压器,0616181995-保定隆和房地产开发有限公司02,高碑店市新发地食品贸易有限公司1号变压器,高碑店市新发地食品贸易有限公司2号变压器,河北新发地农副产品有限公司计量点,高碑店市新发地食品贸易有限公司8,河北新发地农副产品有限公司7,河北新发地农副产品有限公司22,0665536597-高碑店市新发地食品贸易有限公司01,河北新发地农副产品有限公司2,河北新发地农副产品有限公司55,河北新发地农副产品有限公司11,河北新发地农副产品有限公司88,河北新发地农副产品有限公司77,高碑店市新发地食品贸易有限公司3,河北新发地农副产品有限公司66,高碑店市新发地食品贸易有限公司4,0665536597-高碑店市新发地食品贸易有限公司02,白象食品有限公司,河北新发地农副产品有限公司33,河北新发地农副产品有限公司6,河北新发地农副产品有限公司4,0616181995-保定隆和房地产开发有限公司01,高碑店市新发地食品贸易有限公司6,河北新发地农副产品有限公司计量点2,0699989206-河北新发地农副产品有限公司02,0699989206-河北新发地农副产品有限公司03,河北新发地农副产品有限公司3#变压器,河北新发地农副产品有限公司1,高碑店市新发地食品贸易有限公司2,河北新发地农副产品有限公司变压器250（2）,高碑店市新发地食品贸易有限公司1,河北新发地农副产品有限公司4#变压器,高碑店市新发地食品贸易有限公司7,河北新发地农副产品有限公司44,河北新发地农副产品有限公司2#变压器,高碑店市新发地食品贸易有限公司9,0699989206-河北新发地农副产品有限公司01,河北新发地农副产品有限公司3,河北新发地农副产品有限公司8,河北新发地农副产品有限公司变压器250（1）,河北新发地农副产品有限公司5","poweroffReason":"【停电原因】由于富农门右侧计量烧毁导致１１０ＫＶ各庄变电站１０ＫＶ备用５３９线路全线停电 【变更送电】因抢修进度加快原因，送电时间由１２：００变更为１０：３０ 【发布渠道】通过９５５９８发布","powerTime":"2019-11-10 09:50:32","powerComm":"已送电","subsNo":"","lineNo":"","tgNo":"","tgName":null,"infoStatus":"1","orgName":"国网高碑店市供电公司","typeName":null,"infoStatusName":null,"dateDay":null,"orgNos":null,"nowTime":null,"countyName":null,"streetName":null,"villageName":null,"roadName":null,"communityName":null,"tranName":null,"sdLineName":null,"cityCode":"1340612","cityName":"国网高碑店市供电公司","provinceCode":null,"stopTime":"2019-11-10 10:30:00","powerType":"全部","powerOffArea":"【全线路停电】停高碑店市新发地食品贸易有限公司5,河北新发地农副产品有限公司1#变压器,0616181995-保定隆和房地产开发有限公司02,高碑店市新发地食品贸易有限公司1号变压器,高碑店市新发地食品贸易有限公司2号变压器,河北新发地农副产品有限公司计量点,高碑店市新发地食品贸易有限公司8,河北新发地农副产品有限公司7,河北新发地农副产品有限公司22,0665536597-高碑店市新发地食品贸易有限公司01,河北新发地农副产品有限公司2,河北新发地农副产品有限公司55,河北新发地农副产品有限公司11,河北新发地农副产品有限公司88,河北新发地农副产品有限公司77,高碑店市新发地食品贸易有限公司3,河北新发地农副产品有限公司66,高碑店市新发地食品贸易有限公司4,0665536597-高碑店市新发地食品贸易有限公司02,白象食品有限公司,河北新发地农副产品有限公司33,河北新发地农副产品有限公司6,河北新发地农副产品有限公司4,0616181995-保定隆和房地产开发有限公司01,高碑店市新发地食品贸易有限公司6,河北新发地农副产品有限公司计量点2,0699989206-河北新发地农副产品有限公司02,0699989206-河北新发地农副产品有限公司03,河北新发地农副产品有限公司3#变压器,河北新发地农副产品有限公司1,高碑店市新发地食品贸易有限公司2,河北新发地农副产品有限公司变压器250（2）,高碑店市新发地食品贸易有限公司1,河北新发地农副产品有限公司4#变压器,高碑店市新发地食品贸易有限公司7,河北新发地农副产品有限公司44,河北新发地农副产品有限公司2#变压器,高碑店市新发地食品贸易有限公司9,0699989206-河北新发地农副产品有限公司01,河北新发地农副产品有限公司3,河北新发地农副产品有限公司8,河北新发地农副产品有限公司变压器250（1）,河北新发地农副产品有限公司5","powerOffReason":"【停电原因】由于富农门右侧计量烧毁导致１１０ＫＶ各庄变电站１０ＫＶ备用５３９线路全线停电 【变更送电】因抢修进度加快原因，送电时间由１２：００变更为１０：３０ 【发布渠道】通过９５５９８发布","powerOffId":"2019111013000205"}],"pageModel":{"pageNow":394,"totalCount":10973,"totalPage":1098,"tableRows":0,"pageCount":10,"beginCount":3930},"isExperi":"1"}