{"message":"","today":"2020-06-15","seleList":[{"poweroffId":2019111013000041,"sgpoweroffId":null,"subsName":"","lineName":"工业线511","pubTranName":"玉保庄光2,新小北召光1,内一光5,张百户大棚排1【纯农排变】,新东晓村光5,内三光4,内三光1,玉宝庄光7,新东晓村光4,永安庄光5,新候官营光4,玉保庄光1,新东晓村光7,新小北召光4,新大北召光4,秸杆压块厂(陈宝齐),候官营光6,新东晓村光6,李郁庄光7,候官营光1,李郁庄光8,新大北召光15,新大北召光8,新大北召光10,李郁庄光6,新小北召光2,新东晓村光2,史家庄光1号,新东晓村光3,新小北召光6,玉保庄光4,新东晓村光1,永安庄光2,内三光3【2018年节能变】,新大北召光9,李郁庄光1,新大北召光5,新彭各庄光3【2018年重过载】,李郁庄光2,候官营光3,新西晓光3,新大北召光7,玉保庄光9,玉保庄光3,新东晓村光9,李郁庄村光4,李郁庄光5,永安庄光4,内三光2,新小北召光3,新大北召光2,新西晓村光4【2018年重过载】,新大北召光11,玉保庄光5,新大北召光3,史家庄光3,候官营光2,新东晓村光8,西晓光5,候官营光5,永安庄新光1,史家庄光5,新大北召光1,史家庄光2,玉保庄光6,新大北召光6,永安庄光3,新大北召光14,新大北召光13,李郁庄光3,新大北召光12,彭各庄排8【纯农排变】,新小北召光5,","scope":"【影响街道/乡镇】李郁庄乡 【高危重要客户】无 【影响客户】史家庄、永安庄、玉保庄、侯官营、李郁庄、彭各庄、张百户部分用户、新发地市场、昌利饲料厂、明珠集团、内三、大北召、小北召、东晓村、西晓村、定兴县老樊农牧专业合作社、定兴县李郁庄乡杨各庄小学李郁庄教学点、李郁庄中学、清牧原家庭牧场、秸杆压块厂、定兴县北田乡内一幼儿园、侯官营小学、宝硕公司、定兴县西晓村幼儿园、星源养殖场、大北召小学、李郁庄小学、李福凯面粉厂、定兴县建高面粉厂","startTime":"2019-11-10 00:58:20","stopDate":"2019-11-10 11:00:00","orgNo":"1340609","typeCode":"电网故障停限电","poweroffArea":"【全线路停电】停永安庄排4【纯农排变】,玉保庄光6,新大北召光6,永安庄光3,新大北召光14,玉保庄排1【纯农排变】,西晓光2(村北),*定兴县老樊农牧专业合作社,高速东引线路灯3号变-100,内三排1【纯农排变】,新大北召光13,李郁庄光3,候官营排2【纯农排变】,新大北召光12,彭各庄排8【纯农排变】,0696769784-定兴县李郁庄乡杨各庄小学李郁庄教学点-专变-240818882-杨各庄小学,小北召排3【纯农排变】,新小北召光5,小北召混4,内三排3【纯农排变】,玉保庄光2,永安庄光2,*李郁庄中学,新小北召光1,内一光5,清牧原家庭牧场-400,新大北召光4,东晓排3【纯农排变】,永安庄排2|07095111006【纯农排变】,秸杆压块厂(陈宝齐),史家庄排6|07095111046【纯农排变】,候官营光6,0696765317-定兴县北田乡内一幼儿园-专变-240818878-160,新东晓村光6,李郁庄光7,新大北召光15,新小北召光6,李郁庄光8,小北召排2【纯农排变】,新大北召光9,李郁庄排1【纯农排变】,新大北召光7,0694606364-定兴县玉保庄小学-专变-239110793-160,玉保庄光3,李郁庄光5,新大北召光2,东晓排6【纯农排变】,新西晓村光4【2018年重过载】,新大北召光3,史家庄光3,李郁庄排4【纯农排变】,史家庄排7|07095111047【纯农排变】,西晓面粉厂,永安庄光5,小北召排5【纯农排变】,新候官营光4,大北召排7【纯农排变】,玉保庄光1,新东晓村光7,候官营光1,*定兴永和粘和剂厂,史家庄排2【纯农排变】,大北召混5,大北召排1【纯农排变】,新大北召光8,清牧原家庭牧场—200,新大北召光10,西晓混4,李郁庄光6,新小北召光2,新东晓村光2,新东晓村光3,西晓排1【纯农排变】,玉宝庄排3【纯农排变】,西晓排3【纯农排变】,大北召混8,史家庄光6,玉保庄光4,新东晓村光1,史家庄光1号,内三光3【2018年节能变】,小北召排7【纯农排变】,侯官营小学-100,李郁庄排8【纯农排变】,大北召排9【纯农排变】,李郁庄排5【纯农排变】,李郁庄光1,张百户大棚排1【纯农排变】,候官营东混3,新东晓村光5,东晓排1【纯农排变】,内三光4,东晓村排5【纯农排变】,内三光1,大北召排6【纯农排变】,玉宝庄光7,玉保庄排2【纯农排变】,新东晓村光4,0011688777宝硕公司,新小北召光4,新大北召光5,候官营北排4【纯农排变】,定兴县新发地农副产品市场服务有限公司,新彭各庄光3【2018年重过载】,李郁庄光2,明珠250,李郁庄排3【纯农排变】,候官营光3,大北召排3【纯农排变】,小北召混6,新西晓光3,玉保庄光9,新东晓村光9,玉保庄光8,李郁庄村光4,永安庄光4,史家庄光4,西晓排2【纯农排变】,内三光2,新小北召光3,新大北召光11,李志刚套史家庄排6,0696770326-定兴县西晓村幼儿园-专变-240818244-160,星源养殖场,0696765359-定兴县北田乡大北召小学-专变-240818123-大北召小学,玉保庄光5,李郁庄排2【纯农排变】,候官营光2,李郁庄排9【纯农排变】,李郁庄小学-400,新东晓村光8,西晓光1（村南）,永安庄排1|07095111005【纯农排变】,候官营排1【纯农排变】,西晓光5,小北召小学-400,永安庄排3【纯农排变】,史家庄排1【纯农排变】,候官营光5,永安庄新光1,玉保庄排4【纯农排变】,史家庄光5,李福凯面粉厂,*昌利压块饲料厂,大北召排4【纯农排变】,*定兴县建高面粉厂,李郁庄排6【纯农排变】,东晓混5,大北召排2【纯农排变】,史家庄排3【纯农排变】,新大北召光1,李郁庄排7【纯农排变】,史家庄光2,东晓排4【纯农排变】,200","poweroffReason":"【停电原因】由于候官营小学台区直瓶烧毁导致３５ＫＶ彭各庄变电站工业线５１１线路全线停电 【变更送电】因故障未排除原因，送电时间由０９：００变更为１１：００ 　 【发布渠道】通过９５５９８发布","powerTime":"2019-11-10 10:09:27","powerComm":"已送电","subsNo":"","lineNo":"","tgNo":"","tgName":null,"infoStatus":"1","orgName":"国网定兴县供电公司","typeName":null,"infoStatusName":null,"dateDay":null,"orgNos":null,"nowTime":null,"countyName":null,"streetName":null,"villageName":null,"roadName":null,"communityName":null,"tranName":null,"sdLineName":null,"cityCode":"1340609","cityName":"国网定兴县供电公司","provinceCode":null,"stopTime":"2019-11-10 11:00:00","powerType":"全部","powerOffArea":"【全线路停电】停永安庄排4【纯农排变】,玉保庄光6,新大北召光6,永安庄光3,新大北召光14,玉保庄排1【纯农排变】,西晓光2(村北),*定兴县老樊农牧专业合作社,高速东引线路灯3号变-100,内三排1【纯农排变】,新大北召光13,李郁庄光3,候官营排2【纯农排变】,新大北召光12,彭各庄排8【纯农排变】,0696769784-定兴县李郁庄乡杨各庄小学李郁庄教学点-专变-240818882-杨各庄小学,小北召排3【纯农排变】,新小北召光5,小北召混4,内三排3【纯农排变】,玉保庄光2,永安庄光2,*李郁庄中学,新小北召光1,内一光5,清牧原家庭牧场-400,新大北召光4,东晓排3【纯农排变】,永安庄排2|07095111006【纯农排变】,秸杆压块厂(陈宝齐),史家庄排6|07095111046【纯农排变】,候官营光6,0696765317-定兴县北田乡内一幼儿园-专变-240818878-160,新东晓村光6,李郁庄光7,新大北召光15,新小北召光6,李郁庄光8,小北召排2【纯农排变】,新大北召光9,李郁庄排1【纯农排变】,新大北召光7,0694606364-定兴县玉保庄小学-专变-239110793-160,玉保庄光3,李郁庄光5,新大北召光2,东晓排6【纯农排变】,新西晓村光4【2018年重过载】,新大北召光3,史家庄光3,李郁庄排4【纯农排变】,史家庄排7|07095111047【纯农排变】,西晓面粉厂,永安庄光5,小北召排5【纯农排变】,新候官营光4,大北召排7【纯农排变】,玉保庄光1,新东晓村光7,候官营光1,*定兴永和粘和剂厂,史家庄排2【纯农排变】,大北召混5,大北召排1【纯农排变】,新大北召光8,清牧原家庭牧场—200,新大北召光10,西晓混4,李郁庄光6,新小北召光2,新东晓村光2,新东晓村光3,西晓排1【纯农排变】,玉宝庄排3【纯农排变】,西晓排3【纯农排变】,大北召混8,史家庄光6,玉保庄光4,新东晓村光1,史家庄光1号,内三光3【2018年节能变】,小北召排7【纯农排变】,侯官营小学-100,李郁庄排8【纯农排变】,大北召排9【纯农排变】,李郁庄排5【纯农排变】,李郁庄光1,张百户大棚排1【纯农排变】,候官营东混3,新东晓村光5,东晓排1【纯农排变】,内三光4,东晓村排5【纯农排变】,内三光1,大北召排6【纯农排变】,玉宝庄光7,玉保庄排2【纯农排变】,新东晓村光4,0011688777宝硕公司,新小北召光4,新大北召光5,候官营北排4【纯农排变】,定兴县新发地农副产品市场服务有限公司,新彭各庄光3【2018年重过载】,李郁庄光2,明珠250,李郁庄排3【纯农排变】,候官营光3,大北召排3【纯农排变】,小北召混6,新西晓光3,玉保庄光9,新东晓村光9,玉保庄光8,李郁庄村光4,永安庄光4,史家庄光4,西晓排2【纯农排变】,内三光2,新小北召光3,新大北召光11,李志刚套史家庄排6,0696770326-定兴县西晓村幼儿园-专变-240818244-160,星源养殖场,0696765359-定兴县北田乡大北召小学-专变-240818123-大北召小学,玉保庄光5,李郁庄排2【纯农排变】,候官营光2,李郁庄排9【纯农排变】,李郁庄小学-400,新东晓村光8,西晓光1（村南）,永安庄排1|07095111005【纯农排变】,候官营排1【纯农排变】,西晓光5,小北召小学-400,永安庄排3【纯农排变】,史家庄排1【纯农排变】,候官营光5,永安庄新光1,玉保庄排4【纯农排变】,史家庄光5,李福凯面粉厂,*昌利压块饲料厂,大北召排4【纯农排变】,*定兴县建高面粉厂,李郁庄排6【纯农排变】,东晓混5,大北召排2【纯农排变】,史家庄排3【纯农排变】,新大北召光1,李郁庄排7【纯农排变】,史家庄光2,东晓排4【纯农排变】,200","powerOffReason":"【停电原因】由于候官营小学台区直瓶烧毁导致３５ＫＶ彭各庄变电站工业线５１１线路全线停电 【变更送电】因故障未排除原因，送电时间由０９：００变更为１１：００ 　 【发布渠道】通过９５５９８发布","powerOffId":"2019111013000041"},{"poweroffId":2019111013000003,"sgpoweroffId":null,"subsName":"","lineName":"巩庄线514","pubTranName":"白布南关堂,","scope":"【影响街道/乡镇】白龙乡 【高危重要客户】无 【影响客户】白堡","startTime":"2019-11-10 08:00:00","stopDate":"2019-11-10 17:00:00","orgNo":"1340617","typeCode":"其他临时停电","poweroffArea":"【单台区停电】停白布南关堂","poweroffReason":"【停电原因】由于紧急消缺导致３５ＫＶ龙门变电站巩庄线５１４线路白布南关堂公变台区停电 【变更送电】无 【发布渠道】通过９５５９８发布","powerTime":"2019-11-10 17:00:00","powerComm":"已送电","subsNo":"","lineNo":"","tgNo":"","tgName":null,"infoStatus":"1","orgName":"国网满城县供电公司","typeName":null,"infoStatusName":null,"dateDay":null,"orgNos":null,"nowTime":null,"countyName":null,"streetName":null,"villageName":null,"roadName":null,"communityName":null,"tranName":null,"sdLineName":null,"cityCode":"1340617","cityName":"国网满城县供电公司","provinceCode":null,"stopTime":"2019-11-10 17:00:00","powerType":"全部","powerOffArea":"【单台区停电】停白布南关堂","powerOffReason":"【停电原因】由于紧急消缺导致３５ＫＶ龙门变电站巩庄线５１４线路白布南关堂公变台区停电 【变更送电】无 【发布渠道】通过９５５９８发布","powerOffId":"2019111013000003"},{"poweroffId":2019110921000003,"sgpoweroffId":null,"subsName":"","lineName":"10kV大阳站562线路","pubTranName":"C137柱上变压器,","scope":"【影响街道/乡镇】莲池区杨庄乡 【高危重要客户】无 【影响客户】中阳村、下闸、东后营","startTime":"2019-11-09 08:00:00","stopDate":"2019-11-09 15:00:00","orgNo":"13406","typeCode":"电网故障停限电","poweroffArea":"【单台区停电】停C137柱上变压器","poweroffReason":"【停电原因】由于低压刀闸烧导致１０ＫＶ大阳变电站５６２线路Ｃ１３７公变台区停电【变更送电】无【发布渠道】通过９５５９８发布","powerTime":"2019-11-09 14:05:17","powerComm":"已送电","subsNo":"","lineNo":"","tgNo":"","tgName":null,"infoStatus":"1","orgName":"保定供电公司","typeName":null,"infoStatusName":null,"dateDay":null,"orgNos":null,"nowTime":null,"countyName":null,"streetName":null,"villageName":null,"roadName":null,"communityName":null,"tranName":null,"sdLineName":null,"cityCode":"13406","cityName":"保定供电公司","provinceCode":null,"stopTime":"2019-11-09 15:00:00","powerType":"全部","powerOffArea":"【单台区停电】停C137柱上变压器","powerOffReason":"【停电原因】由于低压刀闸烧导致１０ＫＶ大阳变电站５６２线路Ｃ１３７公变台区停电【变更送电】无【发布渠道】通过９５５９８发布","powerOffId":"2019110921000003"},{"poweroffId":2019110913000212,"sgpoweroffId":null,"subsName":"","lineName":"固店村线542","pubTranName":"赤灰内西,南阳村内2号,固店混合3号配变,固店村内,南岗子村内2号配变,南阳村3号,固店内南1,固店混合1号配变,南岗子内东2号配变,固店混合7号配变,南岗子新上,北阳村南混合,南岗子内东3号配变,古城镇北,南岗子内东,赤灰内西2号配变,固店混合10号配变,固店内东,黄庄路东2,固店混合6号配变,南岗子村内,北阳村村内4号配变,南阳村内东,固店混合2号配变,南阳村内1,固店混合8号配变,赤灰内,固店混合5号配变,南岗子村内3号配变,固店混合4号配变,固店村西配变,北阳村内3号,固店混合9号配变,北阳村内1,","scope":"【影响街道/乡镇】固店镇、古城镇 【高危重要客户】无　　 【影响客户】固店村、北阳村、南岗子村、赤灰、南阳村、黄庄路东2","startTime":"2019-11-09 23:33:40","stopDate":"2019-11-10 02:00:00","orgNo":"1340623","typeCode":"电网故障停限电","poweroffArea":"【全线路停电】停赤灰内西,南阳村内2号,固店混合3号配变,固店村内,南岗子村内2号配变,南阳村3号,固店内南1,固店混合1号配变,南岗子内东2号配变,固店混合7号配变,南岗子新上,北阳村南混合,南岗子内东3号配变,古城镇北,南岗子内东,赤灰内西2号配变,固店混合10号配变,固店内东,黄庄路东2,固店混合6号配变,南岗子村内,北阳村村内4号配变,南阳村内东,固店混合2号配变,南阳村内1,固店混合8号配变,赤灰内,固店混合5号配变,南岗子村内3号配变,固店混合4号配变,固店村西配变,北阳村内3号,固店混合9号配变,北阳村内1","poweroffReason":"【停电原因】由于站内开关跳闸导致２２０ＫＶ固店变电站固店村线５４２线路全线停电 【变更送电】因抢修进度加快原因，送电时间由１２：００变更为０２：００ 【发布渠道】通过９５５９８发布","powerTime":"2019-11-10 01:40:23","powerComm":"已送电","subsNo":"","lineNo":"","tgNo":"","tgName":null,"infoStatus":"1","orgName":"国网望都县供电公司","typeName":null,"infoStatusName":null,"dateDay":null,"orgNos":null,"nowTime":null,"countyName":null,"streetName":null,"villageName":null,"roadName":null,"communityName":null,"tranName":null,"sdLineName":null,"cityCode":"1340623","cityName":"国网望都县供电公司","provinceCode":null,"stopTime":"2019-11-10 02:00:00","powerType":"全部","powerOffArea":"【全线路停电】停赤灰内西,南阳村内2号,固店混合3号配变,固店村内,南岗子村内2号配变,南阳村3号,固店内南1,固店混合1号配变,南岗子内东2号配变,固店混合7号配变,南岗子新上,北阳村南混合,南岗子内东3号配变,古城镇北,南岗子内东,赤灰内西2号配变,固店混合10号配变,固店内东,黄庄路东2,固店混合6号配变,南岗子村内,北阳村村内4号配变,南阳村内东,固店混合2号配变,南阳村内1,固店混合8号配变,赤灰内,固店混合5号配变,南岗子村内3号配变,固店混合4号配变,固店村西配变,北阳村内3号,固店混合9号配变,北阳村内1","powerOffReason":"【停电原因】由于站内开关跳闸导致２２０ＫＶ固店变电站固店村线５４２线路全线停电 【变更送电】因抢修进度加快原因，送电时间由１２：００变更为０２：００ 【发布渠道】通过９５５９８发布","powerOffId":"2019110913000212"},{"poweroffId":2019110913000194,"sgpoweroffId":null,"subsName":"","lineName":"大沟线564","pubTranName":"西靳光21,两合庄光3,西靳光23,大沟光2【2018年重过载】,西靳村光18,两合庄村委会2,西靳光综13,西靳光7,西靳光6【2018年技改】,西靳光3(村西),西靳光19,西靳光20,西章新光2,西章光4,西章光5,西靳光9,大沟新光6,两合庄新光4,西靳光5,两合庄光5,西章光1,两合庄光6【2018年四批补强】,大沟光1,西靳光4,西靳光11,西靳光10,新西章光3,西靳光8,西靳光22,西靳光15,西靳光16,大沟光5,大沟光4,西靳光综14,大沟光7【灾后重建】,西靳光1,新两合庄光1,西靳光2,两合庄光2,西靳光6,大沟光8,西靳村光17,西靳光12,","scope":"【影响街道/乡镇】定兴镇、北田乡 【高危重要客户】无 【影响客户】西章、西靳、大沟、两合庄、污水处理厂、看守所、联兴饲料、瑞驰川豪、两合庄村委会、浩天飞织、马大姐食品、保定裕康食品、保定兴建商品混凝土公司、西靳水利局、小店移动机站、京港澳高速收费站、匠工新型建筑材料、程锦扬包装制品、段振秀面粉厂、佳丽彩印厂、西靳小学、河北智德锅炉制造有限公司、保定中博华泰汽车贸易公司、河北浩天非织造布有限公司、定兴县鑫明华印刷厂、紫光新锐、德崇生物科技","startTime":"2019-11-09 22:54:34","stopDate":"2019-11-09 23:55:00","orgNo":"1340609","typeCode":"电网故障停限电","poweroffArea":"【全线路停电】停匠工新型建筑材料-1250,西靳光8,两合庄光2,变压器,0636254730-河北马大姐食品有限公司-专变-234160989-马大姐3-1000,西靳排12【纯农排变】,大沟光8,西章排3【纯农排变】,西靳排11【纯农排变】,程锦扬包装制品-200,西靳光21,0011676787段振秀面粉厂,西靳排20【纯农排变】,100,西靳排9【纯农排变】,新两合庄光1,西靳光综14,0695735889-保定裕康食品科技有限公司-专变-240159107-2-1600,大沟光7【灾后重建】,大沟光4,西靳排7【纯农排变】,西靳排10【纯农排变】,西靳村光18,西靳柴文排2,佳丽彩印厂,西靳光6【2018年技改】,西靳光20,执法局高速引线西路灯-100,西靳光2,西靳光6,西靳村光17,西靳排15【纯农排变】,0694615955-定兴县西靳小学-专变-237548026-北田乡西靳小学,0670029686-河北智德锅炉制造有限公司-专变-212363514-智德锅炉-100,西章高速收费站-400,西靳光22,河北马大姐食品有限公司-200,两合庄光6【2018年四批补强】,西靳光15,西靳光16,大沟光5,两合庄光3,保定兴建商品混凝土有限公司,西靳光23,西靳排8【纯农排变】,0011676765*定兴污水处理厂,西靳排4【纯农排变】,西靳光9,大沟新光6,定兴县瑞驰川豪建筑材料经销处,西靳排13【纯农排变】,西章新光2,0671776655-保定中博华泰汽车贸易公司-专变-212352292-中博华泰-200,西靳光7,大沟光2【2018年重过载】,两合庄村委会2,西靳光4,西章排2【纯农排变】,西靳排6《【纯农排变】,西靳光11,0643256462-河北浩天非织造布有限公司-专变-161934759-河北浩天非织造布有限公司-500,西靳排19【纯农排变】,西靳光1,0693545879-定兴县看守所-专变-239116232-看守所-400,0695735889-保定裕康食品科技有限公司-专变-240151795-1-1600,西靳光5,大沟混2,两合庄光5,西靳光10,新西章光3,0011676758移动公司小店机站,西靳光12,华韵兴宏纸制品制造-250,西靳光3(村西),垃圾处理站,西章排1【纯农排变】,西靳光19,西靳排14【纯农排变】,0682841058-定兴县鑫明华印刷厂-专变-223348556-鑫明华印刷厂-200,紫光新锐-250,西章排4【纯农排变】,大沟光1,执法局高速引线东-100,西靳排16【纯农排变】,德崇生物科技-400,0011676769*西靳小学,0011676786联兴饲料厂,0011676781*两合庄村委会,0011676783西靳水利排,两合庄新光4,西章光4,西章光5,0636254730-河北马大姐食品有限公司-专变-234163050-马大姐4-1000,西靳排5【纯农排变】,西章光1,西靳光综13","poweroffReason":"【停电原因】由于站外开关跳闸导致２２０ＫＶ柳卓开关站大沟线５６４线路全线停电 【变更送电】因抢修进度加快原因，送电时间由１０日０５：００变更为０９日２３：５５ 【发布渠道】通过９５５９８发布","powerTime":"2019-11-09 23:34:25","powerComm":"已送电","subsNo":"","lineNo":"","tgNo":"","tgName":null,"infoStatus":"1","orgName":"国网定兴县供电公司","typeName":null,"infoStatusName":null,"dateDay":null,"orgNos":null,"nowTime":null,"countyName":null,"streetName":null,"villageName":null,"roadName":null,"communityName":null,"tranName":null,"sdLineName":null,"cityCode":"1340609","cityName":"国网定兴县供电公司","provinceCode":null,"stopTime":"2019-11-09 23:55:00","powerType":"全部","powerOffArea":"【全线路停电】停匠工新型建筑材料-1250,西靳光8,两合庄光2,变压器,0636254730-河北马大姐食品有限公司-专变-234160989-马大姐3-1000,西靳排12【纯农排变】,大沟光8,西章排3【纯农排变】,西靳排11【纯农排变】,程锦扬包装制品-200,西靳光21,0011676787段振秀面粉厂,西靳排20【纯农排变】,100,西靳排9【纯农排变】,新两合庄光1,西靳光综14,0695735889-保定裕康食品科技有限公司-专变-240159107-2-1600,大沟光7【灾后重建】,大沟光4,西靳排7【纯农排变】,西靳排10【纯农排变】,西靳村光18,西靳柴文排2,佳丽彩印厂,西靳光6【2018年技改】,西靳光20,执法局高速引线西路灯-100,西靳光2,西靳光6,西靳村光17,西靳排15【纯农排变】,0694615955-定兴县西靳小学-专变-237548026-北田乡西靳小学,0670029686-河北智德锅炉制造有限公司-专变-212363514-智德锅炉-100,西章高速收费站-400,西靳光22,河北马大姐食品有限公司-200,两合庄光6【2018年四批补强】,西靳光15,西靳光16,大沟光5,两合庄光3,保定兴建商品混凝土有限公司,西靳光23,西靳排8【纯农排变】,0011676765*定兴污水处理厂,西靳排4【纯农排变】,西靳光9,大沟新光6,定兴县瑞驰川豪建筑材料经销处,西靳排13【纯农排变】,西章新光2,0671776655-保定中博华泰汽车贸易公司-专变-212352292-中博华泰-200,西靳光7,大沟光2【2018年重过载】,两合庄村委会2,西靳光4,西章排2【纯农排变】,西靳排6《【纯农排变】,西靳光11,0643256462-河北浩天非织造布有限公司-专变-161934759-河北浩天非织造布有限公司-500,西靳排19【纯农排变】,西靳光1,0693545879-定兴县看守所-专变-239116232-看守所-400,0695735889-保定裕康食品科技有限公司-专变-240151795-1-1600,西靳光5,大沟混2,两合庄光5,西靳光10,新西章光3,0011676758移动公司小店机站,西靳光12,华韵兴宏纸制品制造-250,西靳光3(村西),垃圾处理站,西章排1【纯农排变】,西靳光19,西靳排14【纯农排变】,0682841058-定兴县鑫明华印刷厂-专变-223348556-鑫明华印刷厂-200,紫光新锐-250,西章排4【纯农排变】,大沟光1,执法局高速引线东-100,西靳排16【纯农排变】,德崇生物科技-400,0011676769*西靳小学,0011676786联兴饲料厂,0011676781*两合庄村委会,0011676783西靳水利排,两合庄新光4,西章光4,西章光5,0636254730-河北马大姐食品有限公司-专变-234163050-马大姐4-1000,西靳排5【纯农排变】,西章光1,西靳光综13","powerOffReason":"【停电原因】由于站外开关跳闸导致２２０ＫＶ柳卓开关站大沟线５６４线路全线停电 【变更送电】因抢修进度加快原因，送电时间由１０日０５：００变更为０９日２３：５５ 【发布渠道】通过９５５９８发布","powerOffId":"2019110913000194"},{"poweroffId":2019110913000191,"sgpoweroffId":null,"subsName":"","lineName":"紫口Ⅰ线540","pubTranName":"上紫口14#,上紫口13号,上紫口16号,上紫口12号,上紫口17号,上紫口新增11号,上紫口10#,上紫口4#（统管）,上紫口5#（统管）,上紫口3号,上紫口2#,上紫口6#（统管）,上紫口15号,","scope":"【影响街道/乡镇】大册营镇 【高危重要客户】无 【影响客户】大册营、上子（紫）口","startTime":"2019-11-09 22:50:04","stopDate":"2019-11-10 00:20:00","orgNo":"1340617","typeCode":"电网故障停限电","poweroffArea":"【全线路停电】停上紫口7-8队,上紫口12号,保定市振巍纸业有限公司1,上紫口4#（统管）,保定市尚京纸制品加工有限公司,上紫口3-4队,大册营光华大理石,上紫口村西2号,保定市长山纸制品有限公司,大册营3号,大册营永红纸厂,上紫口17号,满城县轩雅纸制品厂,上子口八号,龙祥彩印厂,保定市振巍纸业有限公司2,满城县恒顺采石场,上紫口18号,上紫口6#（统管）,上紫口8#【纯农排变】,上紫口3号,0387461698-满城国美纸制品有限公司-专变-45292285-姬发纸厂,香丰果脯厂,保定爱森卫生纸制品有限公司,保定市满城国利造纸有限公司计量,0387461991-满城县悦诚纸制品厂-专变-45292334-前进石厂,满城县胜达造纸厂,上紫口7#【纯农排变】,上子口七号,上紫口村西新增,满城县水蜜源食品制造有限公司,上紫口2#,保定雨森卫生用品有限公司（25000,上紫口9#【纯农排变】,上紫口15号,上紫口14#,大册营16号,上紫口村1#,上紫口13号,上紫口5#（统管）,上紫口16号,0387461500-满城县华旭纸制品厂-专变-174424192-华旭纸制品厂200KVA变压器,上紫口10#,0387461627-王生林养猪场-专变-45292079-王生林养猪场,恒顺采石场3号,上紫口新增11号,保定市满城区感恩纸制品厂,赫天新型建材,西村四号","poweroffReason":"【停电原因】由于Ａ相接地导致１１０ＫＶ夜借变电站紫口Ｉ线５４０线路全线停电 【变更送电】因抢修进度加快原因，送电时间由０８：００变更为００：２０ 【发布渠道】通过９５５９８发布","powerTime":"2019-11-10 00:02:34","powerComm":"已送电","subsNo":"","lineNo":"","tgNo":"","tgName":null,"infoStatus":"1","orgName":"国网满城县供电公司","typeName":null,"infoStatusName":null,"dateDay":null,"orgNos":null,"nowTime":null,"countyName":null,"streetName":null,"villageName":null,"roadName":null,"communityName":null,"tranName":null,"sdLineName":null,"cityCode":"1340617","cityName":"国网满城县供电公司","provinceCode":null,"stopTime":"2019-11-10 00:20:00","powerType":"全部","powerOffArea":"【全线路停电】停上紫口7-8队,上紫口12号,保定市振巍纸业有限公司1,上紫口4#（统管）,保定市尚京纸制品加工有限公司,上紫口3-4队,大册营光华大理石,上紫口村西2号,保定市长山纸制品有限公司,大册营3号,大册营永红纸厂,上紫口17号,满城县轩雅纸制品厂,上子口八号,龙祥彩印厂,保定市振巍纸业有限公司2,满城县恒顺采石场,上紫口18号,上紫口6#（统管）,上紫口8#【纯农排变】,上紫口3号,0387461698-满城国美纸制品有限公司-专变-45292285-姬发纸厂,香丰果脯厂,保定爱森卫生纸制品有限公司,保定市满城国利造纸有限公司计量,0387461991-满城县悦诚纸制品厂-专变-45292334-前进石厂,满城县胜达造纸厂,上紫口7#【纯农排变】,上子口七号,上紫口村西新增,满城县水蜜源食品制造有限公司,上紫口2#,保定雨森卫生用品有限公司（25000,上紫口9#【纯农排变】,上紫口15号,上紫口14#,大册营16号,上紫口村1#,上紫口13号,上紫口5#（统管）,上紫口16号,0387461500-满城县华旭纸制品厂-专变-174424192-华旭纸制品厂200KVA变压器,上紫口10#,0387461627-王生林养猪场-专变-45292079-王生林养猪场,恒顺采石场3号,上紫口新增11号,保定市满城区感恩纸制品厂,赫天新型建材,西村四号","powerOffReason":"【停电原因】由于Ａ相接地导致１１０ＫＶ夜借变电站紫口Ｉ线５４０线路全线停电 【变更送电】因抢修进度加快原因，送电时间由０８：００变更为００：２０ 【发布渠道】通过９５５９８发布","powerOffId":"2019110913000191"},{"poweroffId":2019110913000171,"sgpoweroffId":null,"subsName":"","lineName":"10KV松町511","pubTranName":"念町村东1499,","scope":"【影响街道/乡镇】松林店镇 【高危重要客户】无 【影响客户】念町","startTime":"2019-11-09 22:03:15","stopDate":"2019-11-10 10:00:00","orgNo":"1340626","typeCode":"电网故障停限电","poweroffArea":"【单台区停电】停念町村东1499","poweroffReason":"【停电原因】由于低压线路断线导致３５ＫＶ松林店变电站１０ＫＶ松町５１１线路念町村东１４９９公变台区停电 【变更送电】因抢修进度加快原因，送电时间由２０：００变更为１０：００ 【发布渠道】通过９５５９８发布","powerTime":"2019-11-10 09:40:29","powerComm":"恢复送电","subsNo":"","lineNo":"","tgNo":"","tgName":null,"infoStatus":"1","orgName":"国网涿州市供电公司","typeName":null,"infoStatusName":null,"dateDay":null,"orgNos":null,"nowTime":null,"countyName":null,"streetName":null,"villageName":null,"roadName":null,"communityName":null,"tranName":null,"sdLineName":null,"cityCode":"1340626","cityName":"国网涿州市供电公司","provinceCode":null,"stopTime":"2019-11-10 10:00:00","powerType":"全部","powerOffArea":"【单台区停电】停念町村东1499","powerOffReason":"【停电原因】由于低压线路断线导致３５ＫＶ松林店变电站１０ＫＶ松町５１１线路念町村东１４９９公变台区停电 【变更送电】因抢修进度加快原因，送电时间由２０：００变更为１０：００ 【发布渠道】通过９５５９８发布","powerOffId":"2019110913000171"},{"poweroffId":2019110913000166,"sgpoweroffId":null,"subsName":"","lineName":"坟庄线515","pubTranName":"南流井村1#,建新村1#,真武庙村2#,南白羊村1#,上白羊村1#,上白羊村6#,马头村3#,西流井村3#,上白羊村9#,建新村4#,真武庙村3#,西白羊村3#,上白羊村3#,南流井村6#,北流井村3#,东流井村3#,马家庄村2#,马头村10#,真武庙村7#,西白羊4#,南流井村10#,南流井村7#,马头村1#,南白羊村2#|,主良7号,马头村15#,源泉村3#,全山庄村4#,马家庄村4#,盘神庙村1#,主良村3#,马头村17#,马头村5#,全山庄1#,马头6#,真武庙村4#,孙家庄2#,南白羊村4#,西白羊5号,马头村11#,盘神庙村6#,源泉村1#,真武庙村5#,全山庄村1#,东白羊村2#,马家庄村5#,西白羊村1#,马头村4#,马头村16#,建新村6#,全山庄村2#,马头村14#,南流井村9#,上黄蒿村1#,盘神庙村2#,全山庄村3#,源泉村4#,马头村20#,主良5号,西流井村2#,上黄蒿村4#,中黄蒿村3#,主良村4#,盘神庙村5#,上白羊村5#,东白羊村1#,南流井6#,马头村13#,孙家庄村1#,中黄蒿村2#,马头村7#,真武庙村1#,北白马村5#,西白羊村2#,主良6号,建新村5#,流井小学,西流井村1#,马头村12#,北白马6号,马头村19#,盘神庙村4#,南白羊村3#,东白马机井5#,南流井村5#,源泉村5#,南流井村4#,东白羊村4#,上黄蒿村2#,上白羊村7#,马头村9#,南流井村3#,南白羊村6#,马家庄10号,马家庄村3#,南流井村2#,中黄蒿村1#,上白羊村4#,真武庙村6#,建新村3#,北六井五台,上黄蒿村3#,南流井村8#,马家庄7号,主良村2#,上白羊村8#,源泉村2#,主良8号,马头村8#,马头村18#,孙家庄村3#,马头村2#,建新村2#,北白马7号,全山庄村5#,东白马村6#,南白羊村5#,盘神庙村7#,主良1号,上白羊村2#,中黄蒿村4#,盘神庙村3#,","scope":"【影响街道/乡镇】流井乡、易州镇、白马乡、梁格庄镇【高危重要客户】无【影响客户】建新村、全山庄村、主良村、马头村、李家坟村、西流井村、南流井村、北流井村、孙家庄村、西白羊村、南白羊村、东白羊村、马家庄村、源泉村、盘神庙村、真武庙村、上白羊村、上黄蒿村、北白马村、中黄蒿村","startTime":"2019-11-09 21:48:04","stopDate":"2019-11-10 08:40:00","orgNo":"1340625","typeCode":"电网故障停限电","poweroffArea":"【全线路停电】停马家庄7号,上白羊村4#,马头村1#,西白羊村3#,易县农旺苗木种植农民专业合作社变压器,马头村13#,南流井6#,建新村马平变压器,河北省洪崖山国有林场管理局变压器,马头村14#,北白马6号,马家庄8号【纯农排变】,上黄蒿村1#,南白羊村7#【纯农排变】,马家庄村4#,马头村7#,西白羊5号,马家庄10号,张大勇变压器,和利金属制品有限公司,马家庄村5#,0680605801-易县绿泽农林果种植有限责任公司-专变-219705076-易县绿泽农林果种植有限责任公司-3-50KVA,源泉村6#【纯农排变】,全山庄村4#,0680607722-易县绿泽农林果种植有限责任公司-专变-219705072-易县绿泽农林果种植有限责任公司-2-50KVA,西白羊蔡永贵面粉厂,全山庄村3#,主良6号,源泉村(刘水),马头村18#,中黄蒿村4#,中黄蒿村2#,建新村2#,马家庄村2#,上黄蒿村4#,源泉村4#,西流井村1#,保定和利金属制品有限公司变压器,东白羊村1#,西流井村3#,马家庄村1#【纯农排变】,上黄蒿村3#,刘桂军变压器,盘神庙村3#,盘神庙村4#,易县中易板材有限公司变压器,东白羊村4#,西流井村2#,马头村20#,南流井村10#,易县安平土地整理服务有限公司7号50KVA,牛云田变压器,上白羊村7#,许树义,南流井村1#,北白马村5#,建新村6#,上白羊村5#,南白羊村6#,北流井村3#,上白羊村1#,马头村2#,主良村张树贵变压器,易县安平土地整理服务有限公司5号100KVA,建新村5#,真武庙村6#,中黄蒿村1#,东白羊村2#,主良村3#,马家庄9号【纯农排变】,东流井村3#,全山庄1#,众信石材有限公司,马头村10#,千佛山开发处,孙家庄村3#,盘神庙村2#,真武庙村4#,真武庙村1#,上白羊村2#,马头6#,建新村3#,0469479528-河北省洪崖山国有林场管理局-专变-46817902-白马林场,易县安禄土地整理有限公司4号50KVA,马头水库,马头村5#,建新村4#,马家庄6号【纯农排变】,主良村2#,马头村15#,主良1号,全山庄村2#,易县安禄土地整理有限公司2号-50KVA,李家坟村6#【纯农排变】,流井小学,易县安禄土地整理有限公司1号-160KVA,马头村19#,东白马机井5#,全山庄村1#,南白羊村2#|,马家庄村3#,合利金属160KVA,源泉村3#,盘神庙村6#,南流井村8#,马家庄11号【纯农排变】,上白羊村6#,孙家庄村1#,盘神庙村5#,易县安禄土地整理有限公司3号100KVA,孙家庄2#,北六井五台,上白羊村3#,洪崖山索道有限公司,南流井村6#,易县中能太阳能有限公司250KVA,马头村9#,流井中学,真武庙村2#,易县安平土地整理服务有限公司4号100KVA,主良村(砖厂),西白羊村2#,易县安平土地整理服务有限公司3号100KVA,中黄蒿村3#,南白羊村5#,南白羊村4#,东白羊村5#【纯农排变】,上白羊村9#,东白马村6#,易县乾鼎商品混凝土有限公司变压器,盘神庙村7#,马头村4#,主良7号,南流井村7#,马头村3#,主良5号,南白羊村1#,上黄蒿村2#,马头村17#,南流井村2#,主良8号,建新村1#,马头村16#,全山庄村5#,易县绿泽农林果种植有限责任公司500,河北鑫路石料有限公司变压器,西白羊4#,主良村4#,0635310273-易县农旺苗木种植农民专业合作社-专变-225175957-易县农旺苗木种植农民专业合作社-增容250KVA,南流井村5#,源泉村1#,南流井村9#,上白羊村8#,南流井村4#,南流井村3#,马头村8#,涞水县文山供水有限公司630KVA专变,易县安平土地整理服务有限公司2号100KVA,南白羊村3#,真武庙村7#,北白马7号,真武庙村5#,马头村11#,易县安平土地整理服务有限公司6号100KVA,马头村12#,真武庙村3#,西白羊村1#,源泉村2#,源泉村5#,盘神庙村1#","poweroffReason":"【停电原因】由于速断跳闸导致３５ＫＶ李家坟变电站坟庄线５１５线路全线停电【变更送电】因抢修进度加快原因，送电时间由１２：００变更为０８：４０【发布渠道】通过９５５９８发布","powerTime":"2019-11-10 08:15:58","powerComm":"已送电","subsNo":"","lineNo":"","tgNo":"","tgName":null,"infoStatus":"1","orgName":"国网易县供电公司","typeName":null,"infoStatusName":null,"dateDay":null,"orgNos":null,"nowTime":null,"countyName":null,"streetName":null,"villageName":null,"roadName":null,"communityName":null,"tranName":null,"sdLineName":null,"cityCode":"1340625","cityName":"国网易县供电公司","provinceCode":null,"stopTime":"2019-11-10 08:40:00","powerType":"全部","powerOffArea":"【全线路停电】停马家庄7号,上白羊村4#,马头村1#,西白羊村3#,易县农旺苗木种植农民专业合作社变压器,马头村13#,南流井6#,建新村马平变压器,河北省洪崖山国有林场管理局变压器,马头村14#,北白马6号,马家庄8号【纯农排变】,上黄蒿村1#,南白羊村7#【纯农排变】,马家庄村4#,马头村7#,西白羊5号,马家庄10号,张大勇变压器,和利金属制品有限公司,马家庄村5#,0680605801-易县绿泽农林果种植有限责任公司-专变-219705076-易县绿泽农林果种植有限责任公司-3-50KVA,源泉村6#【纯农排变】,全山庄村4#,0680607722-易县绿泽农林果种植有限责任公司-专变-219705072-易县绿泽农林果种植有限责任公司-2-50KVA,西白羊蔡永贵面粉厂,全山庄村3#,主良6号,源泉村(刘水),马头村18#,中黄蒿村4#,中黄蒿村2#,建新村2#,马家庄村2#,上黄蒿村4#,源泉村4#,西流井村1#,保定和利金属制品有限公司变压器,东白羊村1#,西流井村3#,马家庄村1#【纯农排变】,上黄蒿村3#,刘桂军变压器,盘神庙村3#,盘神庙村4#,易县中易板材有限公司变压器,东白羊村4#,西流井村2#,马头村20#,南流井村10#,易县安平土地整理服务有限公司7号50KVA,牛云田变压器,上白羊村7#,许树义,南流井村1#,北白马村5#,建新村6#,上白羊村5#,南白羊村6#,北流井村3#,上白羊村1#,马头村2#,主良村张树贵变压器,易县安平土地整理服务有限公司5号100KVA,建新村5#,真武庙村6#,中黄蒿村1#,东白羊村2#,主良村3#,马家庄9号【纯农排变】,东流井村3#,全山庄1#,众信石材有限公司,马头村10#,千佛山开发处,孙家庄村3#,盘神庙村2#,真武庙村4#,真武庙村1#,上白羊村2#,马头6#,建新村3#,0469479528-河北省洪崖山国有林场管理局-专变-46817902-白马林场,易县安禄土地整理有限公司4号50KVA,马头水库,马头村5#,建新村4#,马家庄6号【纯农排变】,主良村2#,马头村15#,主良1号,全山庄村2#,易县安禄土地整理有限公司2号-50KVA,李家坟村6#【纯农排变】,流井小学,易县安禄土地整理有限公司1号-160KVA,马头村19#,东白马机井5#,全山庄村1#,南白羊村2#|,马家庄村3#,合利金属160KVA,源泉村3#,盘神庙村6#,南流井村8#,马家庄11号【纯农排变】,上白羊村6#,孙家庄村1#,盘神庙村5#,易县安禄土地整理有限公司3号100KVA,孙家庄2#,北六井五台,上白羊村3#,洪崖山索道有限公司,南流井村6#,易县中能太阳能有限公司250KVA,马头村9#,流井中学,真武庙村2#,易县安平土地整理服务有限公司4号100KVA,主良村(砖厂),西白羊村2#,易县安平土地整理服务有限公司3号100KVA,中黄蒿村3#,南白羊村5#,南白羊村4#,东白羊村5#【纯农排变】,上白羊村9#,东白马村6#,易县乾鼎商品混凝土有限公司变压器,盘神庙村7#,马头村4#,主良7号,南流井村7#,马头村3#,主良5号,南白羊村1#,上黄蒿村2#,马头村17#,南流井村2#,主良8号,建新村1#,马头村16#,全山庄村5#,易县绿泽农林果种植有限责任公司500,河北鑫路石料有限公司变压器,西白羊4#,主良村4#,0635310273-易县农旺苗木种植农民专业合作社-专变-225175957-易县农旺苗木种植农民专业合作社-增容250KVA,南流井村5#,源泉村1#,南流井村9#,上白羊村8#,南流井村4#,南流井村3#,马头村8#,涞水县文山供水有限公司630KVA专变,易县安平土地整理服务有限公司2号100KVA,南白羊村3#,真武庙村7#,北白马7号,真武庙村5#,马头村11#,易县安平土地整理服务有限公司6号100KVA,马头村12#,真武庙村3#,西白羊村1#,源泉村2#,源泉村5#,盘神庙村1#","powerOffReason":"【停电原因】由于速断跳闸导致３５ＫＶ李家坟变电站坟庄线５１５线路全线停电【变更送电】因抢修进度加快原因，送电时间由１２：００变更为０８：４０【发布渠道】通过９５５９８发布","powerOffId":"2019110913000166"},{"poweroffId":2019110913000164,"sgpoweroffId":null,"subsName":"","lineName":"瀑河线517","pubTranName":"王坎庄3号,大马各庄2号,大马各庄15号HM,向阳2号,大马各庄18号,","scope":"【影响街道/乡镇】瀑河乡 【高危重要客户】无 【影响客户】贾庄、屯里、西凡、大马各庄、向阳、新乡、太和庄、东凡村、王坎庄","startTime":"2019-11-09 17:00:00","stopDate":"2019-11-09 22:00:00","orgNo":"1340605","typeCode":"电网故障停限电","poweroffArea":"【全线路停电】停贾庄11号,贾庄7号,贾庄6号,屯里11号,西凡13号,屯里14号,贾庄4号【纯农排变】,大马各庄11号,西凡4号,向阳3号,新乡2号,太和庄10号,东凡村4号,西凡木材加工厂贾庄1号,保定安驰蓄电池制造有限公司变压器,东凡3号【纯农排变】,向阳6号,屯里2号,中兴洗毛厂,屯里7号,保定格瑞特化工有限公司2号,屯里9号","poweroffReason":"【停电原因】由于Ｂ相接地导致３５ＫＶ户木变电站瀑河线５１７线路全线停电 【变更送电】无 【发布渠道】通过９５５９８发布","powerTime":"2019-11-09 21:53:25","powerComm":"已送电","subsNo":"","lineNo":"","tgNo":"","tgName":null,"infoStatus":"1","orgName":"国网徐水县供电公司","typeName":null,"infoStatusName":null,"dateDay":null,"orgNos":null,"nowTime":null,"countyName":null,"streetName":null,"villageName":null,"roadName":null,"communityName":null,"tranName":null,"sdLineName":null,"cityCode":"1340605","cityName":"国网徐水县供电公司","provinceCode":null,"stopTime":"2019-11-09 22:00:00","powerType":"全部","powerOffArea":"【全线路停电】停贾庄11号,贾庄7号,贾庄6号,屯里11号,西凡13号,屯里14号,贾庄4号【纯农排变】,大马各庄11号,西凡4号,向阳3号,新乡2号,太和庄10号,东凡村4号,西凡木材加工厂贾庄1号,保定安驰蓄电池制造有限公司变压器,东凡3号【纯农排变】,向阳6号,屯里2号,中兴洗毛厂,屯里7号,保定格瑞特化工有限公司2号,屯里9号","powerOffReason":"【停电原因】由于Ｂ相接地导致３５ＫＶ户木变电站瀑河线５１７线路全线停电 【变更送电】无 【发布渠道】通过９５５９８发布","powerOffId":"2019110913000164"},{"poweroffId":2019110913000151,"sgpoweroffId":null,"subsName":"","lineName":"邮电线513","pubTranName":"南太平庄光1,南太平庄光4,新育村光2【2018年重过载】,新育村光1【2018年重过载】,北太平庄光1,北太平庄光2【2018年节能变】,北太平庄排8台区【纯农排变】,北太平庄光8,北太平庄光6,北太平庄光4,北太平庄光3【2018年节能变】,新南太平庄光2,北太平庄光5,北太平庄排4台区【纯农排变】,南太平庄光3【2019年预安排】,北太平庄排6台区【纯农排变】,北太平庄光7【2018年重过载】,北太平庄光9【2018年四批补强】,","scope":"【影响街道/乡镇】固城镇 【高危重要客户】无 【影响客户】北太平庄、南太平庄、新育村、八街村部分用户、北罡上部分用户、南堽上部分用户、肖金庄部分用户、国兴部分用户、熙和商贸、刘启祥加工厂、保定百亨气体有限公司、中国农业气象试验基地、华智抽纱制品有限公司、河北诚睿金属制品有限公司、塑料颗粒厂、南太平庄幼儿园、北罡上、定兴县隆第格不锈钢铸品有限公司、保定晟达涂装材料有限公司、定兴县合金锛造有限公司、定兴县固城镇太平铸钢厂、保定东顺文教用品有限公司、保定硕源水业有限公司、进发水泥构件厂、北太平庄小学、移动公司北太平庄村西北机站、北罡砖厂、保定兴安冶金设备有限公司、鸿浠陶瓷、移动公司北太平庄村西北机站","startTime":"2019-11-09 21:04:55","stopDate":"2019-11-09 23:10:00","orgNo":"1340609","typeCode":"电网故障停限电","poweroffArea":"【全线路停电】停南太平庄排4【纯农排变】,八街排3【纯农排变】,北堽上排10【纯农排变】,国兴排10【纯农排变】,气象局-160,南堽上排3【纯农排变】,煦和商贸-250,刘启祥加工厂,保定百亨气体有限公司,北太平庄排8台区【纯农排变】,肖金庄排3【纯农排变】,河北省华智抽纱制品有限公司,北太平庄排3【纯农排变】,河北诚睿金属制品有限公司-250,新育村光1【2018年重过载】,南太平庄排3【纯农排变】,塑料颗粒厂,中国气象科学研究院-315,北太平庄光8,南太平庄排2【纯农排变】,合金铸造-250,0694659717-定兴县南太平庄幼儿园-专变-239106598-太平庄幼儿园,北堽上排17【纯农排变】,北堽上排12【纯农排变】,北太平庄光3【2018年节能变】,0616914021-河北诚睿金属制品有限公司-专变-128543321-诚睿金属800箱变,北堽上排13【纯农排变】,北太平庄排9台区【纯农排变】,新南太平庄光2,*保定兴安冶金设备有限公司1,北太平庄排7【纯农排变】,新育村光2【2018年重过载】,48农场公用,北庄构件厂,北太平庄排4台区【纯农排变】,南太平庄光1,定兴县隆第格不锈钢铸品有限公司,南太平庄排5【纯农排变】,昌明公司(混),三里铺排【纯农排变】,新育村排1【纯农排变】,兴安凤电400配变,南太平庄光3【2019年预安排】,北太平庄排6台区【纯农排变】,保定晟达涂装材料有限公司,定兴县合金锛造有限公司1,北太平庄排1【纯农排变】,北太平庄光7【2018年重过载】,北太平庄光5,南堽上排4【纯农排变】,北太平庄光1,北太平庄排5【纯农排变】,北堽上排11【纯农排变】,诚睿金属2-800,北太平庄光9【2018年四批补强】,定兴县固城镇太平铸钢厂,保定东顺文教用品有限公司100-2,鸿浠陶瓷-250,北太平庄光2【2018年节能变】,保定硕源水业有限公司,进发水泥构件厂-250,北太平庄光6,南堽上排5【纯农排变】,南堽上排2【纯农排变】,新育村排2【纯农排变】,南太平庄排1【纯农排变】,北太平庄排9【纯农排变】,北太平庄光4,0692010543-固城镇北太平庄小学-专变-237286580-北太平庄小学-250,*保定东顺文教用品有限公司,*移动公司北太平庄村西北机站,东江村排8【纯农排变】,62农厂,北堽上排14【纯农排变】,北太平庄排2【纯农排变】,南太平庄光4","poweroffReason":"【停电原因】由于气象局分支跌落保险击穿导致３５ＫＶ固城变电站邮电线５１３线路全线停电 【变更送电】因抢修进度加快原因，送电时间由１０日０８：００变更为０９日２３：１０ 【发布渠道】通过９５５９８发布","powerTime":"2019-11-09 22:47:00","powerComm":"已送电","subsNo":"","lineNo":"","tgNo":"","tgName":null,"infoStatus":"1","orgName":"国网定兴县供电公司","typeName":null,"infoStatusName":null,"dateDay":null,"orgNos":null,"nowTime":null,"countyName":null,"streetName":null,"villageName":null,"roadName":null,"communityName":null,"tranName":null,"sdLineName":null,"cityCode":"1340609","cityName":"国网定兴县供电公司","provinceCode":null,"stopTime":"2019-11-09 23:10:00","powerType":"全部","powerOffArea":"【全线路停电】停南太平庄排4【纯农排变】,八街排3【纯农排变】,北堽上排10【纯农排变】,国兴排10【纯农排变】,气象局-160,南堽上排3【纯农排变】,煦和商贸-250,刘启祥加工厂,保定百亨气体有限公司,北太平庄排8台区【纯农排变】,肖金庄排3【纯农排变】,河北省华智抽纱制品有限公司,北太平庄排3【纯农排变】,河北诚睿金属制品有限公司-250,新育村光1【2018年重过载】,南太平庄排3【纯农排变】,塑料颗粒厂,中国气象科学研究院-315,北太平庄光8,南太平庄排2【纯农排变】,合金铸造-250,0694659717-定兴县南太平庄幼儿园-专变-239106598-太平庄幼儿园,北堽上排17【纯农排变】,北堽上排12【纯农排变】,北太平庄光3【2018年节能变】,0616914021-河北诚睿金属制品有限公司-专变-128543321-诚睿金属800箱变,北堽上排13【纯农排变】,北太平庄排9台区【纯农排变】,新南太平庄光2,*保定兴安冶金设备有限公司1,北太平庄排7【纯农排变】,新育村光2【2018年重过载】,48农场公用,北庄构件厂,北太平庄排4台区【纯农排变】,南太平庄光1,定兴县隆第格不锈钢铸品有限公司,南太平庄排5【纯农排变】,昌明公司(混),三里铺排【纯农排变】,新育村排1【纯农排变】,兴安凤电400配变,南太平庄光3【2019年预安排】,北太平庄排6台区【纯农排变】,保定晟达涂装材料有限公司,定兴县合金锛造有限公司1,北太平庄排1【纯农排变】,北太平庄光7【2018年重过载】,北太平庄光5,南堽上排4【纯农排变】,北太平庄光1,北太平庄排5【纯农排变】,北堽上排11【纯农排变】,诚睿金属2-800,北太平庄光9【2018年四批补强】,定兴县固城镇太平铸钢厂,保定东顺文教用品有限公司100-2,鸿浠陶瓷-250,北太平庄光2【2018年节能变】,保定硕源水业有限公司,进发水泥构件厂-250,北太平庄光6,南堽上排5【纯农排变】,南堽上排2【纯农排变】,新育村排2【纯农排变】,南太平庄排1【纯农排变】,北太平庄排9【纯农排变】,北太平庄光4,0692010543-固城镇北太平庄小学-专变-237286580-北太平庄小学-250,*保定东顺文教用品有限公司,*移动公司北太平庄村西北机站,东江村排8【纯农排变】,62农厂,北堽上排14【纯农排变】,北太平庄排2【纯农排变】,南太平庄光4","powerOffReason":"【停电原因】由于气象局分支跌落保险击穿导致３５ＫＶ固城变电站邮电线５１３线路全线停电 【变更送电】因抢修进度加快原因，送电时间由１０日０８：００变更为０９日２３：１０ 【发布渠道】通过９５５９８发布","powerOffId":"2019110913000151"}],"pageModel":{"pageNow":396,"totalCount":10973,"totalPage":1098,"tableRows":0,"pageCount":10,"beginCount":3950},"isExperi":"1"}