{"message":"","today":"2020-06-15","seleList":[{"poweroffId":2019110813000055,"sgpoweroffId":null,"subsName":"","lineName":"10kV东桄513线","pubTranName":"西桄综合1变压器,营二里综合2变压器,侯村综合1变压器,营二里综合三,侯村综合三台区,东桄综合四,东桄综合八,","scope":"【影响街道/乡镇】郑章镇 【高危重要客户】无 【影响客户】东桄村、西桄村、东柴村、西李村、西娄底村、常庄村、东李村、营二里村、候村","startTime":"2019-11-12 08:00:00","stopDate":"2019-11-12 18:00:00","orgNo":"1340606","typeCode":"临时停电","poweroffArea":"【全线路停电】停东桄综合四,西桄综合1变压器,营二里综合2变压器,侯村综合1变压器,营二里综合三,侯村综合三台区,东桄综合八","poweroffReason":"【停电原因】由于秋季检修导致３５ＫＶ常庄变电站１０ＫＶ东桄５１３线路全线停电 【变更送电】无 【发布渠道】保定市安国电视台（１１月９日００时至２４时之间）屏幕上方滚动","powerTime":"2019-11-12 17:48:29","powerComm":"已送电","subsNo":"","lineNo":"","tgNo":"","tgName":null,"infoStatus":"1","orgName":"国网安国市供电公司","typeName":null,"infoStatusName":null,"dateDay":null,"orgNos":null,"nowTime":null,"countyName":null,"streetName":null,"villageName":null,"roadName":null,"communityName":null,"tranName":null,"sdLineName":null,"cityCode":"1340606","cityName":"国网安国市供电公司","provinceCode":null,"stopTime":"2019-11-12 18:00:00","powerType":"全部","powerOffArea":"【全线路停电】停东桄综合四,西桄综合1变压器,营二里综合2变压器,侯村综合1变压器,营二里综合三,侯村综合三台区,东桄综合八","powerOffReason":"【停电原因】由于秋季检修导致３５ＫＶ常庄变电站１０ＫＶ东桄５１３线路全线停电 【变更送电】无 【发布渠道】保定市安国电视台（１１月９日００时至２４时之间）屏幕上方滚动","powerOffId":"2019110813000055"},{"poweroffId":2019110813000054,"sgpoweroffId":null,"subsName":"","lineName":"10kV韩村512线","pubTranName":"辛安综合7,常庄综合10变压器,韩村综合8,新安内西综合3变压器,路根综合五号J,辛安综合6,路根综合4,辛安综合四,韩村综合6,","scope":"【影响街道/乡镇】郑章镇 【高危重要客户】无 【影响客户】辛安村、路根村、韩村、梨园村","startTime":"2019-11-12 08:00:00","stopDate":"2019-11-12 18:00:00","orgNo":"1340606","typeCode":"临时停电","poweroffArea":"【全线路停电】停路根综合五号J,辛安综合7,常庄综合10变压器,韩村综合8,新安内西综合3变压器,辛安综合6,路根综合4,辛安综合四,韩村综合6","poweroffReason":"【停电原因】由于秋季检修导致３５ＫＶ常庄变电站１０ＫＶ韩村５１２线路全线停电 【变更送电】无 【发布渠道】保定市安国电视台（１１月９日００时至２４时之间）屏幕上方滚动","powerTime":"2019-11-12 17:28:08","powerComm":"已送电","subsNo":"","lineNo":"","tgNo":"","tgName":null,"infoStatus":"1","orgName":"国网安国市供电公司","typeName":null,"infoStatusName":null,"dateDay":null,"orgNos":null,"nowTime":null,"countyName":null,"streetName":null,"villageName":null,"roadName":null,"communityName":null,"tranName":null,"sdLineName":null,"cityCode":"1340606","cityName":"国网安国市供电公司","provinceCode":null,"stopTime":"2019-11-12 18:00:00","powerType":"全部","powerOffArea":"【全线路停电】停路根综合五号J,辛安综合7,常庄综合10变压器,韩村综合8,新安内西综合3变压器,辛安综合6,路根综合4,辛安综合四,韩村综合6","powerOffReason":"【停电原因】由于秋季检修导致３５ＫＶ常庄变电站１０ＫＶ韩村５１２线路全线停电 【变更送电】无 【发布渠道】保定市安国电视台（１１月９日００时至２４时之间）屏幕上方滚动","powerOffId":"2019110813000054"},{"poweroffId":2019110813000050,"sgpoweroffId":null,"subsName":"","lineName":"10kV常庄511线","pubTranName":"常庄综合2变压器,常庄综合1变压器,","scope":"【影响街道/乡镇】常庄乡 【高危重要客户】无 【影响客户】常庄村","startTime":"2019-11-12 08:00:00","stopDate":"2019-11-12 18:00:00","orgNo":"1340606","typeCode":"临时停电","poweroffArea":"【全线路停电】停常庄综合2变压器,常庄综合1变压器","poweroffReason":"【停电原因】由于秋季检修导致３５ＫＶ常庄变电站１０ＫＶ常庄５１１线路全线停电 【变更送电】无 【发布渠道】保定市安国电视台（１１月９日００时至２４时之间）屏幕上方滚动","powerTime":"2019-11-12 17:27:29","powerComm":"已送电","subsNo":"","lineNo":"","tgNo":"","tgName":null,"infoStatus":"1","orgName":"国网安国市供电公司","typeName":null,"infoStatusName":null,"dateDay":null,"orgNos":null,"nowTime":null,"countyName":null,"streetName":null,"villageName":null,"roadName":null,"communityName":null,"tranName":null,"sdLineName":null,"cityCode":"1340606","cityName":"国网安国市供电公司","provinceCode":null,"stopTime":"2019-11-12 18:00:00","powerType":"全部","powerOffArea":"【全线路停电】停常庄综合2变压器,常庄综合1变压器","powerOffReason":"【停电原因】由于秋季检修导致３５ＫＶ常庄变电站１０ＫＶ常庄５１１线路全线停电 【变更送电】无 【发布渠道】保定市安国电视台（１１月９日００时至２４时之间）屏幕上方滚动","powerOffId":"2019110813000050"},{"poweroffId":2019110813000030,"sgpoweroffId":null,"subsName":"","lineName":"10kV东文山517","pubTranName":"东长堤村北台区变压器,","scope":"【影响街道/乡镇】东文山乡 【高危重要客户】无 【影响客户】东长堤村","startTime":"2019-11-08 08:44:25","stopDate":"2019-11-08 17:00:00","orgNo":"1340614","typeCode":"电网故障停限电","poweroffArea":"【单台区停电】停东长堤村北台区变压器","poweroffReason":"【停电原因】由于电杆撞断导致１１０ＫＶ涞水变电站１０ＫＶ东文山５１７线路东长堤村北公变台区停电 【变更送电】无 【发布渠道】通过９５５９８发布","powerTime":"2019-11-08 16:22:30","powerComm":"已送电","subsNo":"","lineNo":"","tgNo":"","tgName":null,"infoStatus":"1","orgName":"国网涞水县供电公司","typeName":null,"infoStatusName":null,"dateDay":null,"orgNos":null,"nowTime":null,"countyName":null,"streetName":null,"villageName":null,"roadName":null,"communityName":null,"tranName":null,"sdLineName":null,"cityCode":"1340614","cityName":"国网涞水县供电公司","provinceCode":null,"stopTime":"2019-11-08 17:00:00","powerType":"全部","powerOffArea":"【单台区停电】停东长堤村北台区变压器","powerOffReason":"【停电原因】由于电杆撞断导致１１０ＫＶ涞水变电站１０ＫＶ东文山５１７线路东长堤村北公变台区停电 【变更送电】无 【发布渠道】通过９５５９８发布","powerOffId":"2019110813000030"},{"poweroffId":2019110713000309,"sgpoweroffId":null,"subsName":"","lineName":"10KV太平村513","pubTranName":"北龙门隧道200KVA专变,镇厂大街3台区,北龙门隧道250KVA专变,高永喜,北庄大河滩台区变压器,镇厂大街五台区,张涿一标商砼400KVA专变,河西村南台区,太平村水塔台区变压器,北龙门隧道500KVA专变1#,北龙门隧道160KVA专变4#,北龙门隧道630KVA专变6#,林里隧道500KVA专变,北龙门隧道630KVA专变5#,北庄西河滩台区,北龙门隧道160KVA专变3#,北龙门隧道500KVA专变2#,北龙门隧道500KVA专变,","scope":"【影响街道/乡镇】九龙镇 【高危重要客户】无 【影响客户】北庄村、镇厂村、张涿高速","startTime":"2019-11-07 20:51:08","stopDate":"2019-11-07 22:00:00","orgNo":"1340614","typeCode":"电网故障停限电","poweroffArea":"【全线路停电】停北龙门隧道500KVA专变,北龙门隧道200KVA专变,镇厂大街3台区,北龙门隧道250KVA专变,高永喜,北庄大河滩台区变压器,镇厂大街五台区,张涿一标商砼400KVA专变,河西村南台区,太平村水塔台区变压器,北龙门隧道500KVA专变1#,北龙门隧道160KVA专变4#,北龙门隧道630KVA专变6#,林里隧道500KVA专变,北龙门隧道630KVA专变5#,北庄西河滩台区,北龙门隧道160KVA专变3#,北龙门隧道500KVA专变2#","poweroffReason":"【停电原因】由于速断跳闸导致３５ＫＶ镇厂变电站１０ＫＶ太平村５１３线路全线停电 【变更送电】因抢修进度加快原因，送电时间由２３：３０变更为２２：００ 【发布渠道】通过９５５９８发布","powerTime":"2019-11-07 21:37:29","powerComm":"已送电","subsNo":"","lineNo":"","tgNo":"","tgName":null,"infoStatus":"1","orgName":"国网涞水县供电公司","typeName":null,"infoStatusName":null,"dateDay":null,"orgNos":null,"nowTime":null,"countyName":null,"streetName":null,"villageName":null,"roadName":null,"communityName":null,"tranName":null,"sdLineName":null,"cityCode":"1340614","cityName":"国网涞水县供电公司","provinceCode":null,"stopTime":"2019-11-07 22:00:00","powerType":"全部","powerOffArea":"【全线路停电】停北龙门隧道500KVA专变,北龙门隧道200KVA专变,镇厂大街3台区,北龙门隧道250KVA专变,高永喜,北庄大河滩台区变压器,镇厂大街五台区,张涿一标商砼400KVA专变,河西村南台区,太平村水塔台区变压器,北龙门隧道500KVA专变1#,北龙门隧道160KVA专变4#,北龙门隧道630KVA专变6#,林里隧道500KVA专变,北龙门隧道630KVA专变5#,北庄西河滩台区,北龙门隧道160KVA专变3#,北龙门隧道500KVA专变2#","powerOffReason":"【停电原因】由于速断跳闸导致３５ＫＶ镇厂变电站１０ＫＶ太平村５１３线路全线停电 【变更送电】因抢修进度加快原因，送电时间由２３：３０变更为２２：００ 【发布渠道】通过９５５９８发布","powerOffId":"2019110713000309"},{"poweroffId":2019110713000305,"sgpoweroffId":null,"subsName":"","lineName":"10kV560新民庄线","pubTranName":"新兴庄公用照明11台区,新民庄公用照明8台区,新兴庄公用照明16台区,新兴庄公用照明15台区,客户投资_新民庄公用照明4台区,新兴庄公用照明6台区,新民庄公用照明5台区,新民庄公用照明6台区,新民庄公用照明7台区,新民庄公用照明1台区,新兴庄公用照明4台区,新兴庄公用照明5台区,新民庄公用照明12台区,新兴庄公用照明9台区,新兴庄公用照明12台区,新民庄公用照明11台区,新民庄公用照明13台区,新兴庄公用照明10台区,","scope":"【影响街道/乡镇】赵村乡【高危重要客户】无【影响客户】新兴庄、新民庄、新兴庄村民委员会、华安体育用品、华林体育用品","startTime":"2019-11-07 20:09:42","stopDate":"2019-11-08 10:30:00","orgNo":"1340610","typeCode":"电网故障停限电","poweroffArea":"【全线路停电】停新兴庄公用照明6台区,新民庄公用照明5台区,新民庄公用照明6台区,新民庄公用照明7台区,新民庄公用照明1台区,新兴庄公用照明4台区,新兴庄公用照明5台区,新民庄公用照明12台区,新兴庄公用照明9台区,新兴庄公用照明12台区,新民庄公用照明11台区,新民庄公用照明13台区,新兴庄公用照明10台区,新兴庄公用照明11台区,新民庄公用照明8台区,新兴庄公用照明16台区,新兴庄公用照明15台区,客户投资_新民庄公用照明4台区","poweroffReason":"【停电原因】由于线路开关掉闸导致１１０ＫＶ新民变电站１０ＫＶ５６０新民庄线路全线停电 【变更送电】因抢修进度加快原因，送电时间由１２：００变更为１０：３０ 【发布渠道】９５５９８","powerTime":"2019-11-08 09:53:15","powerComm":"已送电","subsNo":"","lineNo":"","tgNo":"","tgName":null,"infoStatus":"1","orgName":"国网定州市供电公司","typeName":null,"infoStatusName":null,"dateDay":null,"orgNos":null,"nowTime":null,"countyName":null,"streetName":null,"villageName":null,"roadName":null,"communityName":null,"tranName":null,"sdLineName":null,"cityCode":"1340610","cityName":"国网定州市供电公司","provinceCode":null,"stopTime":"2019-11-08 10:30:00","powerType":"全部","powerOffArea":"【全线路停电】停新兴庄公用照明6台区,新民庄公用照明5台区,新民庄公用照明6台区,新民庄公用照明7台区,新民庄公用照明1台区,新兴庄公用照明4台区,新兴庄公用照明5台区,新民庄公用照明12台区,新兴庄公用照明9台区,新兴庄公用照明12台区,新民庄公用照明11台区,新民庄公用照明13台区,新兴庄公用照明10台区,新兴庄公用照明11台区,新民庄公用照明8台区,新兴庄公用照明16台区,新兴庄公用照明15台区,客户投资_新民庄公用照明4台区","powerOffReason":"【停电原因】由于线路开关掉闸导致１１０ＫＶ新民变电站１０ＫＶ５６０新民庄线路全线停电 【变更送电】因抢修进度加快原因，送电时间由１２：００变更为１０：３０ 【发布渠道】９５５９８","powerOffId":"2019110713000305"},{"poweroffId":2019110713000269,"sgpoweroffId":null,"subsName":"","lineName":"坡仓线518","pubTranName":"坡仓村5#,大木台村1,高台村2#变压器,高台村1#,大木台4,坡仓村1#,坡仓村3#,大木台村2,大木台3号,坡仓村2#,坡仓4#,","scope":"【影响街道/乡镇】坡仓乡、良岗镇【高危重要客户】无【影响客户】坡仓村、高家台村、大木台村","startTime":"2019-11-11 07:00:00","stopDate":"2019-11-11 17:00:00","orgNo":"1340625","typeCode":"临时停电","poweroffArea":"【全线路停电】停坡仓4#,高台村2#变压器,坡仓村3#,大木台村2,大木台3号,大木台4,大木台村1,坡仓村1#,坡仓村2#,坡仓村5#,高台村1#","poweroffReason":"【停电原因】由于增加断路器导致１１０ＫＶ良岗变电站坡仓５１８线路全线停电【变更送电】无【发布渠道】通过９５５９８发布","powerTime":"2019-11-11 16:15:19","powerComm":"已送电","subsNo":"","lineNo":"","tgNo":"","tgName":null,"infoStatus":"1","orgName":"国网易县供电公司","typeName":null,"infoStatusName":null,"dateDay":null,"orgNos":null,"nowTime":null,"countyName":null,"streetName":null,"villageName":null,"roadName":null,"communityName":null,"tranName":null,"sdLineName":null,"cityCode":"1340625","cityName":"国网易县供电公司","provinceCode":null,"stopTime":"2019-11-11 17:00:00","powerType":"全部","powerOffArea":"【全线路停电】停坡仓4#,高台村2#变压器,坡仓村3#,大木台村2,大木台3号,大木台4,大木台村1,坡仓村1#,坡仓村2#,坡仓村5#,高台村1#","powerOffReason":"【停电原因】由于增加断路器导致１１０ＫＶ良岗变电站坡仓５１８线路全线停电【变更送电】无【发布渠道】通过９５５９８发布","powerOffId":"2019110713000269"},{"poweroffId":2019110713000258,"sgpoweroffId":null,"subsName":"","lineName":"10kV518小汪线","pubTranName":"小汪农排4台区【纯农排变】,小汪综合3台区变压器,小汪综合2台区变压器,小汪市场综合2台区变压器,小汪综合10台区变压器,小汪综合11台区变压器,小汪市场综合8台区变压器,小汪市场综合5台区变压器,小汪市场综合3台区变压器,小汪市场综合9台区变压器,小汪农排1台区【纯农排变】,小汪综合6台区变压器,小汪市场综合6台区变压器,小汪综合7台区变压器,小汪综合9台区变压器,小汪综合5台区变压器,小汪农排2台区【纯农排变】,小汪市场综合4台区变压器,小汪市场综合1台区变压器,小汪综合4台区变压器,小汪综合12台区变压器,小汪市场综合7台区变压器,小汪综合8台区变压器,小汪综合1台区变压器,","scope":"【影响街道/乡镇】大曲堤乡【高危重要客户】无【影响客户】小汪村、小汪市场","startTime":"2019-11-07 17:22:54","stopDate":"2019-11-07 19:00:00","orgNo":"1340616","typeCode":"超电网供电能力停限电","poweroffArea":"【全线路停电】停王分厂,0469433034-蠡县华鑫毛巾水洗厂-专变-148260405-蠡县华鑫毛巾水洗厂变压器500,小汪综合10台区变压器,0469432132-永昌毛巾厂-专变-46810315-永昌毛巾厂,析坤纺织品有限公司2号,兴阳纺织品有限公司,小汪市场综合1台区变压器,小汪农排5台区【纯农排变】,0469433601-蠡县思绮纺织品有限公司-专变-46810314-白鸽纺织品有限公司,析坤纺织有限公司,0469433337-蠡县圣美禾纺织有限公司-专变-46810319-杜来厂,0469435955-蠡县晰坤纺织品有限公司-专变-119555667-析坤纺织有限公司,0469432581-王门楼厂-专变-46810317-玉门楼厂,小汪市场综合9台区变压器,0469435421-蠡县合力纺织有限公司-专变-46810258-书芬厂,王祥厂,0469434965-清坡未来厂-专变-46810259-清波未来厂,0469435939-蠡县天润纺织有限公司-专变-46810322-环宇织物厂,小汪市场综合3台区变压器,小汪村西,王显厂,小汪综合12台区变压器,小汪综合2台区变压器,小汪市场综合7台区变压器,小汪农排2台区【纯农排变】,0469434226-天和纺织厂-专变-46810212-天和纺织厂,保定用兴纺织品有限公司2号,0573190287-蠡县小汪保健毛巾厂-专变-127461270-蠡县小汪保健毛巾厂变压器,0469435942-腾达毛巾厂-专变-46810213-腾达毛巾厂,0469433542-蠡县裕积纺织品有限公司-专变-46810210-蠡县明浩纺织品有限公司,0469433571-青松合线厂-专变-46810399-青松合线厂,0469435955-蠡县晰坤纺织品有限公司-专变-46810398-析坤纺织有限公司,小汪综合8台区变压器,永华巾被厂,0469435359-蠡县颖福森纺织品有限公司-专变-46810257-洁丽纺织品有限公司,王备战,兴宇毛巾厂,小汪南地,诚信合线厂,小汪市场综合8台区变压器,0469433962-蠡县鹏伟纺织公司-专变-46810353-鹏伟纺织公司,保定娜欣毛巾日用品有限公司,小汪市场综合6台区变压器,保定永兴纺织品有限公司,0469432767-蠡县天隆纺织有限公司-专变-46810402-天隆纺织品有限公司,蠡县晰坤纺织品有限公司,李三养鸡厂,小汪综合6台区变压器,小汪综合11台区变压器,0671205227-蠡县小汪占良麻山药经销站-专变-212314957-蠡县小汪占良麻山药经销站变压器,0565962094-中国移动通信集团河北有限公司蠡县分公司-专变-118727692-中国移动通信集团河北有限公司蠡县分公司变压器518,小汪市场综合4台区变压器,小汪综合9台区变压器,凯华纺织品有限公司,保定人俊织业有限公司,四合厂,蠡县锦棉纺织品有限公司,小汪农排4台区【纯农排变】,小汪市场综合5台区变压器,小汪市场综合2台区变压器,百尺镇毛巾厂,小汪综合7台区变压器,0469433597-蠡县天润纺织品有限公司-专变-46810295-张忠厂,晰坤纺织有限公司,0469432145-蠡县鑫祎纺织厂-专变-46810296-保定鑫伟纺织厂,0469434242-三源毛巾有限公司-专变-46810378-三源纺织品有限公司,0655719861-蠡县小汪占良麻山药经销站-专变-187303436-蠡县小汪占良麻山药经销站变压器,0469432783-赵分洪厂-专变-46810372-赵分洪厂,小汪综合1台区变压器,王强厂,小汪农排1台区【纯农排变】,保定宏业纺,0469432754-双峰毛巾厂-专变-46810334-双丰厂,粮种厂,析坤纺织品有限公司3号,0469433034-蠡县华鑫毛巾水洗厂-专变-46810330-鑫远水洗厂,小汪综合3台区变压器,0469433034-蠡县华鑫毛巾水洗厂-专变-119558106-鑫远水洗厂,小汪综合4台区变压器,0469434718-高阳朋丽四季毯厂-专变-46810328-高阳朋丽四季毯厂2,小汪综合5台区变压器","poweroffReason":"【停电原因】由于Ｉ号主变过负荷导致３５ＫＶ握纽庄变电站１０ＫＶ小汪５１８线路全线停电【变更送电】因主变负荷恢复正常原因，送电时间由２２:００变更为１９:００【发布渠道】通过９５５９８发布","powerTime":"2019-11-07 18:31:14","powerComm":"已送电","subsNo":"","lineNo":"","tgNo":"","tgName":null,"infoStatus":"1","orgName":"国网蠡县供电公司","typeName":null,"infoStatusName":null,"dateDay":null,"orgNos":null,"nowTime":null,"countyName":null,"streetName":null,"villageName":null,"roadName":null,"communityName":null,"tranName":null,"sdLineName":null,"cityCode":"1340616","cityName":"国网蠡县供电公司","provinceCode":null,"stopTime":"2019-11-07 19:00:00","powerType":"全部","powerOffArea":"【全线路停电】停王分厂,0469433034-蠡县华鑫毛巾水洗厂-专变-148260405-蠡县华鑫毛巾水洗厂变压器500,小汪综合10台区变压器,0469432132-永昌毛巾厂-专变-46810315-永昌毛巾厂,析坤纺织品有限公司2号,兴阳纺织品有限公司,小汪市场综合1台区变压器,小汪农排5台区【纯农排变】,0469433601-蠡县思绮纺织品有限公司-专变-46810314-白鸽纺织品有限公司,析坤纺织有限公司,0469433337-蠡县圣美禾纺织有限公司-专变-46810319-杜来厂,0469435955-蠡县晰坤纺织品有限公司-专变-119555667-析坤纺织有限公司,0469432581-王门楼厂-专变-46810317-玉门楼厂,小汪市场综合9台区变压器,0469435421-蠡县合力纺织有限公司-专变-46810258-书芬厂,王祥厂,0469434965-清坡未来厂-专变-46810259-清波未来厂,0469435939-蠡县天润纺织有限公司-专变-46810322-环宇织物厂,小汪市场综合3台区变压器,小汪村西,王显厂,小汪综合12台区变压器,小汪综合2台区变压器,小汪市场综合7台区变压器,小汪农排2台区【纯农排变】,0469434226-天和纺织厂-专变-46810212-天和纺织厂,保定用兴纺织品有限公司2号,0573190287-蠡县小汪保健毛巾厂-专变-127461270-蠡县小汪保健毛巾厂变压器,0469435942-腾达毛巾厂-专变-46810213-腾达毛巾厂,0469433542-蠡县裕积纺织品有限公司-专变-46810210-蠡县明浩纺织品有限公司,0469433571-青松合线厂-专变-46810399-青松合线厂,0469435955-蠡县晰坤纺织品有限公司-专变-46810398-析坤纺织有限公司,小汪综合8台区变压器,永华巾被厂,0469435359-蠡县颖福森纺织品有限公司-专变-46810257-洁丽纺织品有限公司,王备战,兴宇毛巾厂,小汪南地,诚信合线厂,小汪市场综合8台区变压器,0469433962-蠡县鹏伟纺织公司-专变-46810353-鹏伟纺织公司,保定娜欣毛巾日用品有限公司,小汪市场综合6台区变压器,保定永兴纺织品有限公司,0469432767-蠡县天隆纺织有限公司-专变-46810402-天隆纺织品有限公司,蠡县晰坤纺织品有限公司,李三养鸡厂,小汪综合6台区变压器,小汪综合11台区变压器,0671205227-蠡县小汪占良麻山药经销站-专变-212314957-蠡县小汪占良麻山药经销站变压器,0565962094-中国移动通信集团河北有限公司蠡县分公司-专变-118727692-中国移动通信集团河北有限公司蠡县分公司变压器518,小汪市场综合4台区变压器,小汪综合9台区变压器,凯华纺织品有限公司,保定人俊织业有限公司,四合厂,蠡县锦棉纺织品有限公司,小汪农排4台区【纯农排变】,小汪市场综合5台区变压器,小汪市场综合2台区变压器,百尺镇毛巾厂,小汪综合7台区变压器,0469433597-蠡县天润纺织品有限公司-专变-46810295-张忠厂,晰坤纺织有限公司,0469432145-蠡县鑫祎纺织厂-专变-46810296-保定鑫伟纺织厂,0469434242-三源毛巾有限公司-专变-46810378-三源纺织品有限公司,0655719861-蠡县小汪占良麻山药经销站-专变-187303436-蠡县小汪占良麻山药经销站变压器,0469432783-赵分洪厂-专变-46810372-赵分洪厂,小汪综合1台区变压器,王强厂,小汪农排1台区【纯农排变】,保定宏业纺,0469432754-双峰毛巾厂-专变-46810334-双丰厂,粮种厂,析坤纺织品有限公司3号,0469433034-蠡县华鑫毛巾水洗厂-专变-46810330-鑫远水洗厂,小汪综合3台区变压器,0469433034-蠡县华鑫毛巾水洗厂-专变-119558106-鑫远水洗厂,小汪综合4台区变压器,0469434718-高阳朋丽四季毯厂-专变-46810328-高阳朋丽四季毯厂2,小汪综合5台区变压器","powerOffReason":"【停电原因】由于Ｉ号主变过负荷导致３５ＫＶ握纽庄变电站１０ＫＶ小汪５１８线路全线停电【变更送电】因主变负荷恢复正常原因，送电时间由２２:００变更为１９:００【发布渠道】通过９５５９８发布","powerOffId":"2019110713000258"},{"poweroffId":2019110713000256,"sgpoweroffId":null,"subsName":"","lineName":"石岗线512","pubTranName":"石岗村3#,方岗村1#,石岗村1#,许家村2#,河西村4#,许家村7#,黄沙口村8#,南坡村3#,黄沙口村5#,河西村2#,河西村1#,水口村1#,黄沙口村2#,方岗村3#,水口村2#,黄沙口村3#,黄沙口村1#,许家村5#,方岗村2#,许家村3#,南坡5#,良岗村4#,良岗村2#,黄沙口村6#,许家村2#214,南坡村1#,许家村4#,黄沙口村7#,水口村3#,黄沙口4#,许家村1#,石岗村2#,良岗村3#,良岗村8#,南坡村2#,良岗村5#,石岗村4#,河西村3#,良岗村1#,良岗村7#,水口村4#【纯农排变】,良岗村6#,方岗村4#,南坡村4#,良岗村9#,","scope":"【影响街道/乡镇】坡仓乡、良岗镇【高危重要客户】无【影响客户】南杜岗村、水口村、黄沙口村、许家村、河西村、石岗村、南坡村、方岗村、良岗村","startTime":"2019-11-11 07:00:00","stopDate":"2019-11-11 17:00:00","orgNo":"1340625","typeCode":"临时停电","poweroffArea":"【全线路停电】停石岗村3#,良岗村1#,河西村1#,万鑫铁选厂,方岗村1#,聚金元铁选厂,良岗医院,黄沙口村7#,良岗镇政府,易县利来钙粉厂(100KVA),河西村4#,兴源铁选厂,南坡村4#,黄沙口村3#,良岗村6#,福龙铁选厂,变压器3,黄沙口村王保同变压器,易县水口村赵艺剪纸厂变压器,南坡村1#,良岗村4#,良岗村3#,许家村5#,黄沙口村6#,森阳铁选厂,腾飞钙粉1#160KVA,变压器,金冠铁选厂,易县安达燃气销售有限公司变压器,石岗村1#,易县文海建材销售有限公司变压器,南坡村3#,变压器2,易县银龙石材加工厂变压器,恒丰球团厂(500KVA),许家村1#,易县利来钙粉厂(500KVA),良岗村8#,许家村2#214,许家村7#,易县金鑫石材有限公司变压器,腾飞钙粉2#200KVA,方岗村3#,南坡村2#,0469487145-良岗中心小学-专变-150628977-良岗中心小学变压器,河西村2#,良岗村5#,华友钙粉厂250KVA-2号,易县良岗鑫跃饭店变压器,水口村3#,黄沙口村8#,良岗村7#,易县源通淡水鱼养殖有限公司变压器,良岗村2#,良岗村9#,河西村3#,水口村4#【纯农排变】,金泰铁选厂(50KVA),石岗村2#,华友钙粉厂250KVA-1号,许家村2#,许家村3#,许家村4#,易县宏安钙粉厂,黄沙口4#,黄沙口村5#,金冠铁选厂2*250KVA-2,方岗村4#,金冠铁选厂2*250KVA-1,水口村1#,造全铁选厂(160KVA),易县金冠铁选厂变压器,良岗钙粉厂(360KVA),水口村2#,易县华友钙粉厂变压器,黄沙口村2#,方岗村2#,赵廷刚,新双水泥制品厂变压器,良岗石板厂,黄沙口村1#,四通铁选厂,石岗村4#,南坡5#","poweroffReason":"【停电原因】由于增加断路器导致１１０ＫＶ良岗变电站石岗５１２线路全线停电【变更送电】无【发布渠道】通过９５５９８发布","powerTime":"2019-11-11 16:16:58","powerComm":"已送电","subsNo":"","lineNo":"","tgNo":"","tgName":null,"infoStatus":"1","orgName":"国网易县供电公司","typeName":null,"infoStatusName":null,"dateDay":null,"orgNos":null,"nowTime":null,"countyName":null,"streetName":null,"villageName":null,"roadName":null,"communityName":null,"tranName":null,"sdLineName":null,"cityCode":"1340625","cityName":"国网易县供电公司","provinceCode":null,"stopTime":"2019-11-11 17:00:00","powerType":"全部","powerOffArea":"【全线路停电】停石岗村3#,良岗村1#,河西村1#,万鑫铁选厂,方岗村1#,聚金元铁选厂,良岗医院,黄沙口村7#,良岗镇政府,易县利来钙粉厂(100KVA),河西村4#,兴源铁选厂,南坡村4#,黄沙口村3#,良岗村6#,福龙铁选厂,变压器3,黄沙口村王保同变压器,易县水口村赵艺剪纸厂变压器,南坡村1#,良岗村4#,良岗村3#,许家村5#,黄沙口村6#,森阳铁选厂,腾飞钙粉1#160KVA,变压器,金冠铁选厂,易县安达燃气销售有限公司变压器,石岗村1#,易县文海建材销售有限公司变压器,南坡村3#,变压器2,易县银龙石材加工厂变压器,恒丰球团厂(500KVA),许家村1#,易县利来钙粉厂(500KVA),良岗村8#,许家村2#214,许家村7#,易县金鑫石材有限公司变压器,腾飞钙粉2#200KVA,方岗村3#,南坡村2#,0469487145-良岗中心小学-专变-150628977-良岗中心小学变压器,河西村2#,良岗村5#,华友钙粉厂250KVA-2号,易县良岗鑫跃饭店变压器,水口村3#,黄沙口村8#,良岗村7#,易县源通淡水鱼养殖有限公司变压器,良岗村2#,良岗村9#,河西村3#,水口村4#【纯农排变】,金泰铁选厂(50KVA),石岗村2#,华友钙粉厂250KVA-1号,许家村2#,许家村3#,许家村4#,易县宏安钙粉厂,黄沙口4#,黄沙口村5#,金冠铁选厂2*250KVA-2,方岗村4#,金冠铁选厂2*250KVA-1,水口村1#,造全铁选厂(160KVA),易县金冠铁选厂变压器,良岗钙粉厂(360KVA),水口村2#,易县华友钙粉厂变压器,黄沙口村2#,方岗村2#,赵廷刚,新双水泥制品厂变压器,良岗石板厂,黄沙口村1#,四通铁选厂,石岗村4#,南坡5#","powerOffReason":"【停电原因】由于增加断路器导致１１０ＫＶ良岗变电站石岗５１２线路全线停电【变更送电】无【发布渠道】通过９５５９８发布","powerOffId":"2019110713000256"},{"poweroffId":2019110713000204,"sgpoweroffId":null,"subsName":"","lineName":"10kV512东城线","pubTranName":"西城村公用照明6台区,西城公用照明13台区,西城村公用照明1台区,西城公用照明11台区,西城公用照明9台区,西城村公用照明2台区,西城公用照明12台区,西城村公用照明3台区,西城村公用照明4台区,西城公用照明10台区,","scope":"【影响街道/乡镇】西城乡【高危重要客户】无【影响客户】西城","startTime":"2019-11-21 06:40:00","stopDate":"2019-11-21 17:00:00","orgNo":"1340610","typeCode":"计划停电","poweroffArea":"【分支停电】停西城公用照明10台区,西城村公用照明6台区,西城公用照明13台区,西城村公用照明1台区,西城公用照明11台区,西城公用照明9台区,西城村公用照明2台区,西城公用照明12台区,西城村公用照明3台区,西城村公用照明4台区","poweroffReason":"【停电原因】由于新增电杆导致１１０ＫＶ李亲顾变电站１０ＫＶ５１２东城线路西城２分支０１号杆０２号断路器以下线路停电 【变更送电】无 【发布渠道】河北省定州市定州日报第三版（２０１９年１１月０８日）","powerTime":"2019-11-21 16:56:38","powerComm":"已送电","subsNo":"","lineNo":"","tgNo":"","tgName":null,"infoStatus":"1","orgName":"国网定州市供电公司","typeName":null,"infoStatusName":null,"dateDay":null,"orgNos":null,"nowTime":null,"countyName":null,"streetName":null,"villageName":null,"roadName":null,"communityName":null,"tranName":null,"sdLineName":null,"cityCode":"1340610","cityName":"国网定州市供电公司","provinceCode":null,"stopTime":"2019-11-21 17:00:00","powerType":"全部","powerOffArea":"【分支停电】停西城公用照明10台区,西城村公用照明6台区,西城公用照明13台区,西城村公用照明1台区,西城公用照明11台区,西城公用照明9台区,西城村公用照明2台区,西城公用照明12台区,西城村公用照明3台区,西城村公用照明4台区","powerOffReason":"【停电原因】由于新增电杆导致１１０ＫＶ李亲顾变电站１０ＫＶ５１２东城线路西城２分支０１号杆０２号断路器以下线路停电 【变更送电】无 【发布渠道】河北省定州市定州日报第三版（２０１９年１１月０８日）","powerOffId":"2019110713000204"}],"pageModel":{"pageNow":400,"totalCount":10973,"totalPage":1098,"tableRows":0,"pageCount":10,"beginCount":3990},"isExperi":"1"}