{"message":"","today":"2020-06-15","seleList":[{"poweroffId":2019110621000012,"sgpoweroffId":null,"subsName":"","lineName":"10kV花庄站537线路","pubTranName":"10kVZ0160.Z0161.Z0162.Z0163配电室Z0162配电变压器,10kVZ0160.Z0161.Z0162.Z0163配电室Z0163配电变压器,10kVZ0160.Z0161.Z0162.Z0163配电室Z0160配电变压器,10kVZ0158.Z0159配电室Z0158配电变压器,10kVZ0160.Z0161.Z0162.Z0163配电室Z0161配电变压器,10kVZ0158.Z0159配电室Z0159配电变压器,","scope":"【影响街道/乡镇】竞秀区、向阳北大街 【高危重要客户】无 【影响客户】直隶新城文苑","startTime":"2019-11-13 06:00:00","stopDate":"2019-11-13 18:00:00","orgNo":"13406","typeCode":"临时停电","poweroffArea":"【全线路停电】停0667935644-保定盛美房地产开发有限公司-专变-208426559-变压器,变压器,10kVZ0160.Z0161.Z0162.Z0163配电室Z0161配电变压器,10kVZ0158.Z0159配电室Z0159配电变压器,10kVZ0160.Z0161.Z0162.Z0163配电室Z0162配电变压器,10kVZ0160.Z0161.Z0162.Z0163配电室Z0163配电变压器,0726919248-保定原创奇石生产有限公司-变压器-200KVA,10kVZ0160.Z0161.Z0162.Z0163配电室Z0160配电变压器,10kVZ0158.Z0159配电室Z0158配电变压器","poweroffReason":"【停电原因】由于供电设备临时检修导致１０ＫＶ花庄变电站５３７线路全线停电【变更送电】无【发布渠道】保定市保定有线电视台（１１月０６日２０时１５分至２１时４５分之间）屏幕上滚动","powerTime":"2019-11-13 17:45:50","powerComm":"已送电","subsNo":"","lineNo":"","tgNo":"","tgName":null,"infoStatus":"1","orgName":"保定供电公司","typeName":null,"infoStatusName":null,"dateDay":null,"orgNos":null,"nowTime":null,"countyName":null,"streetName":null,"villageName":null,"roadName":null,"communityName":null,"tranName":null,"sdLineName":null,"cityCode":"13406","cityName":"保定供电公司","provinceCode":null,"stopTime":"2019-11-13 18:00:00","powerType":"全部","powerOffArea":"【全线路停电】停0667935644-保定盛美房地产开发有限公司-专变-208426559-变压器,变压器,10kVZ0160.Z0161.Z0162.Z0163配电室Z0161配电变压器,10kVZ0158.Z0159配电室Z0159配电变压器,10kVZ0160.Z0161.Z0162.Z0163配电室Z0162配电变压器,10kVZ0160.Z0161.Z0162.Z0163配电室Z0163配电变压器,0726919248-保定原创奇石生产有限公司-变压器-200KVA,10kVZ0160.Z0161.Z0162.Z0163配电室Z0160配电变压器,10kVZ0158.Z0159配电室Z0158配电变压器","powerOffReason":"【停电原因】由于供电设备临时检修导致１０ＫＶ花庄变电站５３７线路全线停电【变更送电】无【发布渠道】保定市保定有线电视台（１１月０６日２０时１５分至２１时４５分之间）屏幕上滚动","powerOffId":"2019110621000012"},{"poweroffId":2019110613000284,"sgpoweroffId":null,"subsName":"","lineName":"10kV514洪德线","pubTranName":"南洪德农4变压器【纯农排变】,南洪德中学1变压器,0000006811文德东北区变压器,南洪德农3变压器【纯农排变】,0000006436杜村统管南农变压器,0000005406慈顺村北区变压器,东流德小学变压器,慈顺西区变压器,北管头农7变压器,牛堡内明德小学变压器,南洪德农灌2变压器【纯农排变】,0014100458南洪德,慈顺小学1变压器,南洪德西2区变压器,0012430770牛堡内中区变压器,东流德东3区变压器,0000005388牛堡内西区变压器,文德东3变压器,0013037902文德西农4【纯农排变】,东流德东2变压器,0012551388慈顺农2号变压器,0000006842东诸侯东区变压器,慈顺农灌1变压器,0012891918慈顺北2变压器,北洪德北区变压器,0000005486文德东区变压器,0014300455北洪德农4【纯农排变】,0000005389牛堡内北区变压器,0014466780南留营南3区,0000006522南洪德东农变压器,南洪德小学变压器,牛堡内西3区变压器,慈顺小学变压器,东流德西区变压器,0012883929文德东2区变压器,0014100457东流德,南洪德中学2变压器,0000005343杜村变压器【纯农排变】,0013037895文德西农3【纯农排变】,洪德幼儿园变压器,南洪德农灌1变压器【纯农排变】,0000006655杜村北农变压器,0000005338北洪德变压器,0000005856南洪德统管农灌变压器,0000005387牛堡内南区变压器,0000005452南洪德北区变压器,0000005445南洪德南区变压器,0000006857南洪德北2区变压器,0000006820慈顺东区变压器,慈顺南区变压器,杜村小学变压器,杜村农2变压器【纯农排变】,南洪德卫生院变压器,0012891920杜村西区变压器,杜村中区变压器,牛堡内东2区变压器,东流德南2区变压器,0014100456北洪德新建变压器,0014098168慈顺变压器,东诸侯新增配电变压器,0014418537南洪德南2区变压器,0012743367南洪德西区变压器,南洪德中学变压器,","scope":"【影响街道/乡镇】燕赵镇、文德乡【高危重要客户】无【影响客户】杜村、慈顺、牛堡内、南洪德、北洪德、文德东村、东诸侯东、东流德部分","startTime":"2019-11-07 05:00:00","stopDate":"2019-11-07 08:20:00","orgNo":"1340619","typeCode":"其他临时停电","poweroffArea":"【全线路停电】停文德东村农灌,东流德新建变压器,南洪德卫生院变压器,南洪德面粉厂,0000006523北洪德北农2＃变压器,牛堡石碑厂（1）,南洪德王进军,东流德面粉加工厂,0012958944牛堡内农4变压器,牛堡内统管东农变压器【纯农排变】,0000005389牛堡内北区变压器,0000006522南洪德东农变压器,牛堡内西3区变压器,0000006655杜村北农变压器,0014100457东流德,南洪德中学2变压器,慈顺南区变压器,杜村小学变压器,东流德农灌（王义苍）1号,东流德农灌（王义苍）3号,南洪德中学1变压器,东流德农灌（王义苍）2号,曲阳县盛达石材雕刻厂变压器,南洪德农3变压器【纯农排变】,杨顺民,0000005486文德东区变压器,0014300455北洪德农4【纯农排变】,慈顺南农灌(焦国庄),0014466780南留营南3区,东流德西区变压器,南洪德村委会农（1）,0000005338北洪德变压器,0000006525北洪德北农1＃变压器,慈顺西区变压器,慈顺面粉厂,北管头农7变压器,慈顺北农灌,南洪德王天昆面粉厂,0012735063牛堡内农3变压器【纯农排变】,0000006653文德西村农1#|变压器【纯农排变】,甄志杰变压器,牛堡内明德小学变压器,杜村农2变压器【纯农排变】,0553463387-曲阳县东流德村农灌-专变-66255832-曲阳县文德乡东流德村变压器,0012230603东流德统管农1号变压器,南洪德小学变压器,0000007163牛堡内西2区增容变压器,慈顺小学变压器,0012883929文德东2区变压器,南洪德农灌1变压器【纯农排变】,0000006652慈顺东农变压器【纯农排变】,0000006436杜村统管南农变压器,0014098168慈顺变压器,0000005452南洪德北区变压器,0000005343杜村变压器【纯农排变】,0013037895文德西农3【纯农排变】,文德乡刘堡内昌顺面粉厂,洪德幼儿园变压器,东流德东3区变压器,0000005388牛堡内西区变压器,东流德面粉加工厂2,牛堡内农5变压器,0000006088杜村农灌变压器,文德东3变压器,0000006417牛堡内统管东农2#变压器【纯农排变】,南洪德西2区变压器,0000006842东诸侯东区变压器,慈顺东农灌(焦立明)变压器,0012891918慈顺北2变压器,南洪德农4变压器【纯农排变】,曲阳县洪德免烧砖厂,0000005386牛堡内东区变压器,南洪德农灌2变压器【纯农排变】,0014100458南洪德,0012430770牛堡内中区变压器,慈顺小学1变压器,0000006654文德西村农2#|变压器【纯农排变】,0012551388慈顺农2号变压器,曲阳县南洪德大和水果储存冷库变压器,北洪德北区变压器,0000005448东流德东区变压器,0000006811文德东北区变压器,0000005447东流德南区,0013037902文德西农4【纯农排变】,东流德东2变压器,慈顺农灌1变压器,0014100456北洪德新建变压器,0000005406慈顺村北区变压器,东流德小学变压器,0012891920杜村西区变压器,杜村中区变压器,牛堡内东2区变压器,东流德南2区变压器,0000005856南洪德统管农灌变压器,0000005387牛堡内南区变压器,0000006820慈顺东区变压器,0000005445南洪德南区变压器,0000006857南洪德北2区变压器,东诸侯新增配电变压器,0014418537南洪德南2区变压器,0012743367南洪德西区变压器,河北省曲阳县清凉庵变压器,0012735871北洪德农3变压器,0000005855西流德统管农灌变压器【纯农排变】,0000005854牛堡内统管南农变压器,南洪德中学变压器","poweroffReason":"【停电原因】由于线路２６号电杆倾斜需停电进行紧急抢修导致３５ＫＶ管头变电站１０ＫＶ５１４洪德线路全线停电【变更送电】因工作进度加快原因，送电时间由１０:００变更为０８:２０【发布渠道】通过９５５９８发布","powerTime":"2019-11-07 07:58:55","powerComm":"已送电","subsNo":"","lineNo":"","tgNo":"","tgName":null,"infoStatus":"1","orgName":"国网曲阳县供电公司","typeName":null,"infoStatusName":null,"dateDay":null,"orgNos":null,"nowTime":null,"countyName":null,"streetName":null,"villageName":null,"roadName":null,"communityName":null,"tranName":null,"sdLineName":null,"cityCode":"1340619","cityName":"国网曲阳县供电公司","provinceCode":null,"stopTime":"2019-11-07 08:20:00","powerType":"全部","powerOffArea":"【全线路停电】停文德东村农灌,东流德新建变压器,南洪德卫生院变压器,南洪德面粉厂,0000006523北洪德北农2＃变压器,牛堡石碑厂（1）,南洪德王进军,东流德面粉加工厂,0012958944牛堡内农4变压器,牛堡内统管东农变压器【纯农排变】,0000005389牛堡内北区变压器,0000006522南洪德东农变压器,牛堡内西3区变压器,0000006655杜村北农变压器,0014100457东流德,南洪德中学2变压器,慈顺南区变压器,杜村小学变压器,东流德农灌（王义苍）1号,东流德农灌（王义苍）3号,南洪德中学1变压器,东流德农灌（王义苍）2号,曲阳县盛达石材雕刻厂变压器,南洪德农3变压器【纯农排变】,杨顺民,0000005486文德东区变压器,0014300455北洪德农4【纯农排变】,慈顺南农灌(焦国庄),0014466780南留营南3区,东流德西区变压器,南洪德村委会农（1）,0000005338北洪德变压器,0000006525北洪德北农1＃变压器,慈顺西区变压器,慈顺面粉厂,北管头农7变压器,慈顺北农灌,南洪德王天昆面粉厂,0012735063牛堡内农3变压器【纯农排变】,0000006653文德西村农1#|变压器【纯农排变】,甄志杰变压器,牛堡内明德小学变压器,杜村农2变压器【纯农排变】,0553463387-曲阳县东流德村农灌-专变-66255832-曲阳县文德乡东流德村变压器,0012230603东流德统管农1号变压器,南洪德小学变压器,0000007163牛堡内西2区增容变压器,慈顺小学变压器,0012883929文德东2区变压器,南洪德农灌1变压器【纯农排变】,0000006652慈顺东农变压器【纯农排变】,0000006436杜村统管南农变压器,0014098168慈顺变压器,0000005452南洪德北区变压器,0000005343杜村变压器【纯农排变】,0013037895文德西农3【纯农排变】,文德乡刘堡内昌顺面粉厂,洪德幼儿园变压器,东流德东3区变压器,0000005388牛堡内西区变压器,东流德面粉加工厂2,牛堡内农5变压器,0000006088杜村农灌变压器,文德东3变压器,0000006417牛堡内统管东农2#变压器【纯农排变】,南洪德西2区变压器,0000006842东诸侯东区变压器,慈顺东农灌(焦立明)变压器,0012891918慈顺北2变压器,南洪德农4变压器【纯农排变】,曲阳县洪德免烧砖厂,0000005386牛堡内东区变压器,南洪德农灌2变压器【纯农排变】,0014100458南洪德,0012430770牛堡内中区变压器,慈顺小学1变压器,0000006654文德西村农2#|变压器【纯农排变】,0012551388慈顺农2号变压器,曲阳县南洪德大和水果储存冷库变压器,北洪德北区变压器,0000005448东流德东区变压器,0000006811文德东北区变压器,0000005447东流德南区,0013037902文德西农4【纯农排变】,东流德东2变压器,慈顺农灌1变压器,0014100456北洪德新建变压器,0000005406慈顺村北区变压器,东流德小学变压器,0012891920杜村西区变压器,杜村中区变压器,牛堡内东2区变压器,东流德南2区变压器,0000005856南洪德统管农灌变压器,0000005387牛堡内南区变压器,0000006820慈顺东区变压器,0000005445南洪德南区变压器,0000006857南洪德北2区变压器,东诸侯新增配电变压器,0014418537南洪德南2区变压器,0012743367南洪德西区变压器,河北省曲阳县清凉庵变压器,0012735871北洪德农3变压器,0000005855西流德统管农灌变压器【纯农排变】,0000005854牛堡内统管南农变压器,南洪德中学变压器","powerOffReason":"【停电原因】由于线路２６号电杆倾斜需停电进行紧急抢修导致３５ＫＶ管头变电站１０ＫＶ５１４洪德线路全线停电【变更送电】因工作进度加快原因，送电时间由１０:００变更为０８:２０【发布渠道】通过９５５９８发布","powerOffId":"2019110613000284"},{"poweroffId":2019110613000178,"sgpoweroffId":null,"subsName":"","lineName":"10kV514林堡线","pubTranName":"林堡新1号,齐根浇地,林堡综合4台区,永旺,新四号,林堡新4号,林堡综合12台区,荣顺祥,林堡综合1台区,林堡综合2台区,宋庄毛纺厂（清飞）,林堡新2号,新5号,双乐团绒,新6号,宋庄砖厂,宋庄南1号,林堡综合11台区,东子,林堡综合5台区,浇地2号,牛厂1号,新3号,蠡县宋庄恒威棉织厂变压器,林堡6号,林堡综合6台区,林堡5号,林堡综合9台区,林堡综合10台区,新10号,小新鸡厂,落地3号,林堡综合13台区,林堡1号,宋庄板厂,胜园,浇地5号,砖厂东南1,新9号,猪厂7号,华益,林堡站用,林堡2号,林堡综合16台区,砖厂东南2,宋庄南2号,林堡综合20台区,大柳树农场,宋庄水泥构件厂变压器,林堡综合3台区,华泽纺织有限公司,占利,林堡综合15台区,马军板厂,新8号,宋庄综合8台区,林堡综合8台区,","scope":"【影响街道/乡镇】林堡乡【高危重要客户】无【影响客户】林堡村","startTime":"2019-11-06 15:15:39","stopDate":"2019-11-06 17:00:00","orgNo":"1340616","typeCode":"电网故障停限电","poweroffArea":"【全线路停电】停林堡6号,华益,宋庄南2号,宋庄南1号,浇地5号,林堡综合15台区,林堡综合1台区,林堡综合6台区,新四号,新3号,新5号,浇地2号,新6号,牛厂1号,猪厂7号,林堡综合12台区,林堡综合5台区,林堡新4号,林堡综合4台区,林堡综合10台区,宋庄综合8台区,林堡新1号,林堡综合11台区,林堡新2号,林堡综合20台区,蠡县宋庄恒威棉织厂变压器,林堡综合8台区,东子,砖厂东南2,双乐团绒,小新鸡厂,宋庄毛纺厂（清飞）,永旺,新10号,落地3号,宋庄水泥构件厂变压器,新9号,占利,马军板厂,齐根浇地,胜园,砖厂东南1,林堡综合3台区,新8号,林堡站用,宋庄砖厂,大柳树农场,林堡综合9台区,宋庄板厂,华泽纺织有限公司,荣顺祥,林堡2号,林堡1号,林堡5号,林堡综合2台区,林堡综合13台区,林堡综合16台区","poweroffReason":"【停电原因】由于站内开关掉闸导致３５ＫＶ林堡变电站１０ＫＶ林堡５１４线路全线停电【变更送电】因抢修进度加快原因，送电时间由２０：００变更为１７：００【发布渠道】通过９５５９８发布","powerTime":"2019-11-06 16:49:52","powerComm":"已送电","subsNo":"","lineNo":"","tgNo":"","tgName":null,"infoStatus":"1","orgName":"国网蠡县供电公司","typeName":null,"infoStatusName":null,"dateDay":null,"orgNos":null,"nowTime":null,"countyName":null,"streetName":null,"villageName":null,"roadName":null,"communityName":null,"tranName":null,"sdLineName":null,"cityCode":"1340616","cityName":"国网蠡县供电公司","provinceCode":null,"stopTime":"2019-11-06 17:00:00","powerType":"全部","powerOffArea":"【全线路停电】停林堡6号,华益,宋庄南2号,宋庄南1号,浇地5号,林堡综合15台区,林堡综合1台区,林堡综合6台区,新四号,新3号,新5号,浇地2号,新6号,牛厂1号,猪厂7号,林堡综合12台区,林堡综合5台区,林堡新4号,林堡综合4台区,林堡综合10台区,宋庄综合8台区,林堡新1号,林堡综合11台区,林堡新2号,林堡综合20台区,蠡县宋庄恒威棉织厂变压器,林堡综合8台区,东子,砖厂东南2,双乐团绒,小新鸡厂,宋庄毛纺厂（清飞）,永旺,新10号,落地3号,宋庄水泥构件厂变压器,新9号,占利,马军板厂,齐根浇地,胜园,砖厂东南1,林堡综合3台区,新8号,林堡站用,宋庄砖厂,大柳树农场,林堡综合9台区,宋庄板厂,华泽纺织有限公司,荣顺祥,林堡2号,林堡1号,林堡5号,林堡综合2台区,林堡综合13台区,林堡综合16台区","powerOffReason":"【停电原因】由于站内开关掉闸导致３５ＫＶ林堡变电站１０ＫＶ林堡５１４线路全线停电【变更送电】因抢修进度加快原因，送电时间由２０：００变更为１７：００【发布渠道】通过９５５９８发布","powerOffId":"2019110613000178"},{"poweroffId":2019110613000152,"sgpoweroffId":null,"subsName":"","lineName":"灌城线511","pubTranName":"丰山庄1109变压器,灌城小学7204变压器,北屯7808变压器,南屯小学7210变压器,坡上村0676变压器,风山庄小学7219变压器,坡下4557变压器,南屯村0673变压器,十八渡小学7213变压器,南屯村1096变压器,十八渡7540变压器,灌城内1103变压器,坡上村1114变压器,东庄湾4828变压器,灌城村北4026变压器,东庄湾1122变压器,灌城村1120变压器,风山庄4809变压器,北屯村0681变压器,岭底村1898变压器,坡下1118变压器,北屯7164变压器【光伏】,坡下北1100变压器,东庄湾小学7203变压器,东庄湾2851变压器,岭底村1110变压器,坡下6840变压器【光伏】,十八渡1117变压器,坡下小学7211变压器,坡上3252变压器,坡上8006变压器,十八渡1107变压器,南屯村荒山2612变压器【纯农排变】,坡上4983变压器,南屯6039变压器,坡下4812变压器,丰山庄1140变压器,十八渡4984变压器,灌城7163变压器【光伏】,坡上4810变压器,北屯小学7202变压器,东庄湾西4025变压器,北屯村5046变压器,十八渡4850变压器,灌城4813变压器,灌城7426变压器,十八渡2857变压器,","scope":"【影响街道/乡镇】罗庄乡【高危重要客户】无【影响客户】坡上、东庄湾、北屯、南屯、灌城、坡下、风山庄、十八渡","startTime":"2019-11-06 14:00:00","stopDate":"2019-11-06 16:10:00","orgNo":"1340622","typeCode":"其他临时停电","poweroffArea":"【分支停电】停东庄湾小学7203变压器,东庄湾2851变压器,岭底村1110变压器,坡下6840变压器【光伏】,十八渡1117变压器,坡下小学7211变压器,坡上3252变压器,坡上8006变压器,十八渡1107变压器,,坡上4983变压器,南屯6039变压器,东庄湾1122变压器,灌城村1120变压器,风山庄4809变压器,北屯村0681变压器,岭底村1898变压器,坡下1118变压器,北屯7164变压器【光伏】,坡下北1100变压器,坡下4812变压器,丰山庄1140变压器,十八渡4984变压器,灌城7163变压器【光伏】,坡上4810变压器,北屯小学7202变压器,东庄湾西4025变压器,北屯村5046变压器,十八渡4850变压器,灌城4813变压器,灌城7426变压器,十八渡2857变压器,丰山庄1109变压器,灌城小学7204变压器,北屯7808变压器,南屯小学7210变压器,坡上村0676变压器,风山庄小学7219变压器,坡下4557变压器,南屯村0673变压器,十八渡小学7213变压器,南屯村1096变压器,十八渡7540变压器,灌城内1103变压器,坡上村1114变压器,东庄湾4828变压器,灌城村北4026变压器","poweroffReason":"【停电原因】由于紧急消缺导致３５ＫＶ西大洋变电站灌城线５１１线路００１号杆刀闸以下线路停电【变更送电】因工作进度加快原因，送电时间由１７：００变更为１６：１０ 【发布渠道】通过９５５９８发布","powerTime":"2019-11-06 15:31:25","powerComm":"已送电","subsNo":"","lineNo":"","tgNo":"","tgName":null,"infoStatus":"1","orgName":"国网唐县供电公司","typeName":null,"infoStatusName":null,"dateDay":null,"orgNos":null,"nowTime":null,"countyName":null,"streetName":null,"villageName":null,"roadName":null,"communityName":null,"tranName":null,"sdLineName":null,"cityCode":"1340622","cityName":"国网唐县供电公司","provinceCode":null,"stopTime":"2019-11-06 16:10:00","powerType":"全部","powerOffArea":"【分支停电】停东庄湾小学7203变压器,东庄湾2851变压器,岭底村1110变压器,坡下6840变压器【光伏】,十八渡1117变压器,坡下小学7211变压器,坡上3252变压器,坡上8006变压器,十八渡1107变压器,,坡上4983变压器,南屯6039变压器,东庄湾1122变压器,灌城村1120变压器,风山庄4809变压器,北屯村0681变压器,岭底村1898变压器,坡下1118变压器,北屯7164变压器【光伏】,坡下北1100变压器,坡下4812变压器,丰山庄1140变压器,十八渡4984变压器,灌城7163变压器【光伏】,坡上4810变压器,北屯小学7202变压器,东庄湾西4025变压器,北屯村5046变压器,十八渡4850变压器,灌城4813变压器,灌城7426变压器,十八渡2857变压器,丰山庄1109变压器,灌城小学7204变压器,北屯7808变压器,南屯小学7210变压器,坡上村0676变压器,风山庄小学7219变压器,坡下4557变压器,南屯村0673变压器,十八渡小学7213变压器,南屯村1096变压器,十八渡7540变压器,灌城内1103变压器,坡上村1114变压器,东庄湾4828变压器,灌城村北4026变压器","powerOffReason":"【停电原因】由于紧急消缺导致３５ＫＶ西大洋变电站灌城线５１１线路００１号杆刀闸以下线路停电【变更送电】因工作进度加快原因，送电时间由１７：００变更为１６：１０ 【发布渠道】通过９５５９８发布","powerOffId":"2019110613000152"},{"poweroffId":2019110613000134,"sgpoweroffId":null,"subsName":"","lineName":"狮后街线552","pubTranName":"八堵墙南台变压器,","scope":"【影响街道/乡镇】方官镇 【高危重要客户】气象局、隆兴搅拌站 【影响客户】八堵墙村、河北博克力佳电器有限公司、河北鼎泰华奥投资有限公司、胜利化工设备有限公司、方隆电气设备有限公司、经济开发管理委员会、河北奥润顺达窗业有限公司、河北群翔采暖设备有限公司、石家庄面粉厂、高碑店市隆跃工业园区开发有限公司、和通工业园区开发有限公司、光为绿色新能源股份有限公司、新凯汽车集团有限公司、铁岩钢板桩有限公司、华电高科（高碑店）环保技术有限公司、河北优品科技有限公司、高碑店鑫达模具加工部、昆仲伟业机械制造有限公司、河北巨能锅炉集团、星光玻璃幕墙、高碑店市硕恒门窗制造有限责任公司、河北天启通宇航空器材科技发展有限公司、河北合创建筑节能科技有限责任公司、坤达房地产","startTime":"2019-11-06 11:24:10","stopDate":"2019-11-06 13:00:00","orgNo":"1340612","typeCode":"电网故障停限电","poweroffArea":"【全线路停电】停河北高碑店市经济开发管理委员会100变压器,0710599056-高碑店市路灯管理办公室03,八堵墙南台变压器,高碑店市星光玻璃幕墙工程有限公司变压器,高碑店市路灯管理办公室变压器,光为绿色新能源股份有限公司变压器,高碑店市硕恒门窗制造有限责任公司变压器,高碑店市坤达房地产开发有限公司3,高碑店市坤达房地产开发有限公司,亢龙房地产集团有限公司2#变压器,高碑店市坤达房地产开发有限公司2,狮后街排灌变压器【纯农排变】,高碑店市气象局,高碑店市星光玻璃幕墙工程有限公司2,河北巨能锅炉集团有限公司,河北鼎泰华奥投资有限公司变压器,0710603599-高碑店市路灯管理办公室01,高碑店市坤达房地产开发有限公司备用3,高碑店市铁岩钢板桩有限公司1,高碑店市坤达房地产开发有限公司备用2,河北群翔采暖设备有限公司1#变压器,高碑店市坤达房地产开发有限公司备用1,河北博克力佳电器有限公司变压器,高碑店市源满商贸有限公司,八堵墙新变压器,高碑店市高碑店鑫达模具加工部变压器,亢龙房地产集团有限公司1#变压器,新凯汽车集团有限公司,058558983-高碑店市路灯管理办公室02,高碑店市方隆电气设备有限公司变压器,高碑店市铁岩钢板桩有限公司变压器01,高碑店市铁岩钢板桩有限公司变压器02,高碑店市铁岩钢板桩有限公司2,河北群翔采暖设备有限公司2#变压器,河北奥润顺达窗业有限公司变压器,河北群翔采暖设备有限公司3#变压器,河北达奥达建材科技股份有限公司,河北如峰机电设备科技有限公司变压器,保定光为绿色能源科技有限公司,高碑店市和通工业园区开发有限公司变压器,高碑店市隆跃工业园区开发有限公司,河北鼎泰华奥投资有限公司630变压器,河北合创建筑节能科技有限责任公司,高碑店市迎君玻璃有限公司,高碑店市铁岩钢板桩有限公司3,河北天启通宇航空器材科技发展有限公司变压器,高碑店市邦运物流有限公司,高碑店市坤达房地产开发有限公司备用4,高碑店市铁岩钢板桩有限公司变压器03,高碑店市星光玻璃幕墙工程有限公司1,石家庄面,河北隆新德澳集成房屋科技有限公司,龚永旗八堵墙砖厂,河北高碑店市经济开发管理委员会变压器,高碑店市昆仲伟业机械制造有限公司变压器,高碑店市坤达房地产开发有限公司4,高碑店市隆兴商品混凝土有限公司","poweroffReason":"【停电原因】由于硕恒门窗用户电缆被挖断导致１１０ＫＶ方官变电站１０ＫＶ狮后街５５２线路全线停电 【变更送电】因抢修进度加快原因，送电时间由１７：００变更为１３：００ 【发布渠道】通过９５５９８发布","powerTime":"2019-11-06 12:14:08","powerComm":"已送电","subsNo":"","lineNo":"","tgNo":"","tgName":null,"infoStatus":"1","orgName":"国网高碑店市供电公司","typeName":null,"infoStatusName":null,"dateDay":null,"orgNos":null,"nowTime":null,"countyName":null,"streetName":null,"villageName":null,"roadName":null,"communityName":null,"tranName":null,"sdLineName":null,"cityCode":"1340612","cityName":"国网高碑店市供电公司","provinceCode":null,"stopTime":"2019-11-06 13:00:00","powerType":"全部","powerOffArea":"【全线路停电】停河北高碑店市经济开发管理委员会100变压器,0710599056-高碑店市路灯管理办公室03,八堵墙南台变压器,高碑店市星光玻璃幕墙工程有限公司变压器,高碑店市路灯管理办公室变压器,光为绿色新能源股份有限公司变压器,高碑店市硕恒门窗制造有限责任公司变压器,高碑店市坤达房地产开发有限公司3,高碑店市坤达房地产开发有限公司,亢龙房地产集团有限公司2#变压器,高碑店市坤达房地产开发有限公司2,狮后街排灌变压器【纯农排变】,高碑店市气象局,高碑店市星光玻璃幕墙工程有限公司2,河北巨能锅炉集团有限公司,河北鼎泰华奥投资有限公司变压器,0710603599-高碑店市路灯管理办公室01,高碑店市坤达房地产开发有限公司备用3,高碑店市铁岩钢板桩有限公司1,高碑店市坤达房地产开发有限公司备用2,河北群翔采暖设备有限公司1#变压器,高碑店市坤达房地产开发有限公司备用1,河北博克力佳电器有限公司变压器,高碑店市源满商贸有限公司,八堵墙新变压器,高碑店市高碑店鑫达模具加工部变压器,亢龙房地产集团有限公司1#变压器,新凯汽车集团有限公司,058558983-高碑店市路灯管理办公室02,高碑店市方隆电气设备有限公司变压器,高碑店市铁岩钢板桩有限公司变压器01,高碑店市铁岩钢板桩有限公司变压器02,高碑店市铁岩钢板桩有限公司2,河北群翔采暖设备有限公司2#变压器,河北奥润顺达窗业有限公司变压器,河北群翔采暖设备有限公司3#变压器,河北达奥达建材科技股份有限公司,河北如峰机电设备科技有限公司变压器,保定光为绿色能源科技有限公司,高碑店市和通工业园区开发有限公司变压器,高碑店市隆跃工业园区开发有限公司,河北鼎泰华奥投资有限公司630变压器,河北合创建筑节能科技有限责任公司,高碑店市迎君玻璃有限公司,高碑店市铁岩钢板桩有限公司3,河北天启通宇航空器材科技发展有限公司变压器,高碑店市邦运物流有限公司,高碑店市坤达房地产开发有限公司备用4,高碑店市铁岩钢板桩有限公司变压器03,高碑店市星光玻璃幕墙工程有限公司1,石家庄面,河北隆新德澳集成房屋科技有限公司,龚永旗八堵墙砖厂,河北高碑店市经济开发管理委员会变压器,高碑店市昆仲伟业机械制造有限公司变压器,高碑店市坤达房地产开发有限公司4,高碑店市隆兴商品混凝土有限公司","powerOffReason":"【停电原因】由于硕恒门窗用户电缆被挖断导致１１０ＫＶ方官变电站１０ＫＶ狮后街５５２线路全线停电 【变更送电】因抢修进度加快原因，送电时间由１７：００变更为１３：００ 【发布渠道】通过９５５９８发布","powerOffId":"2019110613000134"},{"poweroffId":2019110613000120,"sgpoweroffId":null,"subsName":"","lineName":"莘桥线512","pubTranName":"莘桥集口综合,布里村西南综合变压器,04044|布里村西综合变压器,莘桥村鸡场综合变压器,04052|辛桥村南(综合)变压器,04051|辛桥村东(综合)变压器,04048|布里新增综合变压器,布里中学新增综合变压器,莘桥村西远综合变压器,莘桥商业街综合,莘桥村村西北综合变压器,04045|布里大队综合变压器,莘桥村口综合,04076|辛桥村西(综合)变压器,辛桥村北新增综合变压器,莘桥村南新增综合变压器,04077|莘桥村里新增综合变压器,04078|辛桥西南综合变压器,04079|辛桥村西南综合变压器,04050|辛桥村北(综合)变压器,","scope":"【影响街道/乡镇】西演镇 【高危重要客户】无 【影响客户】莘桥村部分、布里村部分","startTime":"2019-11-13 07:30:00","stopDate":"2019-11-13 18:00:00","orgNo":"1340613","typeCode":"临时停电","poweroffArea":"【全线路停电】停宏阔毛巾厂云增元,天下行纺织公司,靳宝坤,04122|布里村东南农业变压器【纯农排变】,辛桥村东,田海涛,高阳县芝柏莉纺织厂电压器,李文,魏佐供电所,04048|布里新增综合变压器,曹满意,辛桥南远,永亮纺织有限公司,04051|辛桥村东(综合)变压器,辛桥西北,辛桥河套3号农排变压器【纯农排变】,梅鹿纺织品公司,辛桥村西北农业,安华纺织有限公司,布里中学新增综合变压器,辛桥南,莘桥村村西北综合变压器,马进兴,辛桥河套2号农排变压器【纯农排变】,高阳县郭钟屠宰场变压器,04045|布里大队综合变压器,王辉,莘桥村口综合,04076|辛桥村西(综合)变压器,辛桥村北新增综合变压器,莘桥村南新增综合变压器,04077|莘桥村里新增综合变压器,04078|辛桥西南综合变压器,辛桥,04079|辛桥村西南综合变压器,辛桥河套1号农排变压器【纯农排变】,辛桥面粉厂,04050|辛桥村北(综合)变压器,莘桥集口综合,布里村南,高阳县东奥棉织厂,王庆怀,布里村西南综合变压器,04044|布里村西综合变压器,三联毛巾厂,莘桥村鸡场综合变压器,04052|辛桥村南(综合)变压器,莘桥村西远综合变压器,靳运通,莘桥商业街综合","poweroffReason":"【停电原因】由于换ＣＴ改定值导致３５ＫＶ魏家佐变电站莘桥５１２线路全线停电【变更送电】无【发布渠道】通过９５５９８发布","powerTime":"2019-11-13 17:02:37","powerComm":"已送电","subsNo":"","lineNo":"","tgNo":"","tgName":null,"infoStatus":"1","orgName":"国网高阳县供电公司","typeName":null,"infoStatusName":null,"dateDay":null,"orgNos":null,"nowTime":null,"countyName":null,"streetName":null,"villageName":null,"roadName":null,"communityName":null,"tranName":null,"sdLineName":null,"cityCode":"1340613","cityName":"国网高阳县供电公司","provinceCode":null,"stopTime":"2019-11-13 18:00:00","powerType":"全部","powerOffArea":"【全线路停电】停宏阔毛巾厂云增元,天下行纺织公司,靳宝坤,04122|布里村东南农业变压器【纯农排变】,辛桥村东,田海涛,高阳县芝柏莉纺织厂电压器,李文,魏佐供电所,04048|布里新增综合变压器,曹满意,辛桥南远,永亮纺织有限公司,04051|辛桥村东(综合)变压器,辛桥西北,辛桥河套3号农排变压器【纯农排变】,梅鹿纺织品公司,辛桥村西北农业,安华纺织有限公司,布里中学新增综合变压器,辛桥南,莘桥村村西北综合变压器,马进兴,辛桥河套2号农排变压器【纯农排变】,高阳县郭钟屠宰场变压器,04045|布里大队综合变压器,王辉,莘桥村口综合,04076|辛桥村西(综合)变压器,辛桥村北新增综合变压器,莘桥村南新增综合变压器,04077|莘桥村里新增综合变压器,04078|辛桥西南综合变压器,辛桥,04079|辛桥村西南综合变压器,辛桥河套1号农排变压器【纯农排变】,辛桥面粉厂,04050|辛桥村北(综合)变压器,莘桥集口综合,布里村南,高阳县东奥棉织厂,王庆怀,布里村西南综合变压器,04044|布里村西综合变压器,三联毛巾厂,莘桥村鸡场综合变压器,04052|辛桥村南(综合)变压器,莘桥村西远综合变压器,靳运通,莘桥商业街综合","powerOffReason":"【停电原因】由于换ＣＴ改定值导致３５ＫＶ魏家佐变电站莘桥５１２线路全线停电【变更送电】无【发布渠道】通过９５５９８发布","powerOffId":"2019110613000120"},{"poweroffId":2019110613000071,"sgpoweroffId":null,"subsName":"","lineName":"10kV564杜村线","pubTranName":"10kV564杜村线西杜村22004台区变压器,10kV564杜村线20120台区变压器,10kV564杜村线谭庄42614台区变压器,10kV564杜村线东杜村22007台区变压器,10kV564杜村线谭庄20007台区变压器,10kV564杜村线西杜村98989台区变压器,10kV564杜村线谭庄8296台区,10kV564杜村线西杜村22005台区变压器,10kV564杜村线22016台区变压器,10kV564杜村线东杜村22033台区变压器,10kV564杜村线谭庄20009台区变压器,10kV564杜村线西杜村村东新增照明49909变压器,10kV564杜村线东杜村22056台区变压器,10kV564杜村线西杜村22002台区变压器,10kV564杜村线71862台区变压器,10kV564杜村线东杜村22049台区变压器,10kV564杜村线油里铺新增98501台区变压器,","scope":"【影响街道/乡镇】小店镇【高危重要客户】无【影响客户】谭庄、油里铺、东杜村、西杜村","startTime":"2019-11-06 09:53:09","stopDate":"2019-11-06 11:00:00","orgNo":"1340608","typeCode":"电网故障停限电","poweroffArea":"【全线路停电】停10kV564杜村线东杜村22049台区变压器,10kV564杜村线油里铺新增98501台区变压器,10kV564杜村线西杜村22004台区变压器,10kV564杜村线20120台区变压器,10kV564杜村线谭庄42614台区变压器,10kV564杜村线东杜村22007台区变压器,10kV564杜村线谭庄20007台区变压器,10kV564杜村线西杜村98989台区变压器,10kV564杜村线谭庄8296台区,10kV564杜村线西杜村22005台区变压器,10kV564杜村线22016台区变压器,10kV564杜村线东杜村22033台区变压器,10kV564杜村线谭庄20009台区变压器,10kV564杜村线西杜村村东新增照明49909变压器,10kV564杜村线东杜村22056台区变压器,10kV564杜村线西杜村22002台区变压器,10kV564杜村线71862台区变压器","poweroffReason":"【停电原因】由于线路掉闸导致１１０ＫＶ胡庄变电站杜村５６４线路全线停电【变更送电】因抢修进度加快原因，送电时间由１８：００变更为１１：００ 【发布渠道】通过９５５９８发布","powerTime":"2019-11-06 10:45:36","powerComm":"已送电","subsNo":"","lineNo":"","tgNo":"","tgName":null,"infoStatus":"1","orgName":"国网博野县供电公司","typeName":null,"infoStatusName":null,"dateDay":null,"orgNos":null,"nowTime":null,"countyName":null,"streetName":null,"villageName":null,"roadName":null,"communityName":null,"tranName":null,"sdLineName":null,"cityCode":"1340608","cityName":"国网博野县供电公司","provinceCode":null,"stopTime":"2019-11-06 11:00:00","powerType":"全部","powerOffArea":"【全线路停电】停10kV564杜村线东杜村22049台区变压器,10kV564杜村线油里铺新增98501台区变压器,10kV564杜村线西杜村22004台区变压器,10kV564杜村线20120台区变压器,10kV564杜村线谭庄42614台区变压器,10kV564杜村线东杜村22007台区变压器,10kV564杜村线谭庄20007台区变压器,10kV564杜村线西杜村98989台区变压器,10kV564杜村线谭庄8296台区,10kV564杜村线西杜村22005台区变压器,10kV564杜村线22016台区变压器,10kV564杜村线东杜村22033台区变压器,10kV564杜村线谭庄20009台区变压器,10kV564杜村线西杜村村东新增照明49909变压器,10kV564杜村线东杜村22056台区变压器,10kV564杜村线西杜村22002台区变压器,10kV564杜村线71862台区变压器","powerOffReason":"【停电原因】由于线路掉闸导致１１０ＫＶ胡庄变电站杜村５６４线路全线停电【变更送电】因抢修进度加快原因，送电时间由１８：００变更为１１：００ 【发布渠道】通过９５５９８发布","powerOffId":"2019110613000071"},{"poweroffId":2019110613000040,"sgpoweroffId":null,"subsName":"","lineName":"马庄518线","pubTranName":"安里村0744台区变压器,西长店小学7573变压器【煤改电】,西杨庄光伏7536变压器,安里7757变压器,西赤0712变压器,西赤5128变压器,西长店0359变压器,西杨庄光伏7534变压器,西长店6700变压器,北店头4047变压器,","scope":"【影响街道/乡镇】北店头乡、白合镇【高危重要客户】无【影响客户】安里村、西长店村、西赤村、西杨庄","startTime":"2019-11-12 06:30:00","stopDate":"2019-11-12 18:00:00","orgNo":"1340622","typeCode":"临时停电","poweroffArea":"【分支停电】停西长店0359变压器,西杨庄光伏7534变压器,西长店6700变压器,安里村0744台区变压器,西杨庄光伏7536变压器,安里7757变压器,西赤0712变压器,西赤5128变压器","poweroffReason":"【停电原因】由于线路检修导致１１０ＫＶ唐县变电站马庄５１８线路１０３号杆长店分支断路器以下线路停电【变更送电】无【发布渠道】唐县电视台（１１月０７日至１１月１１日２０：００至２０：３０之间）屏幕上方滚动字幕","powerTime":"2019-11-12 17:21:28","powerComm":"已送电","subsNo":"","lineNo":"","tgNo":"","tgName":null,"infoStatus":"1","orgName":"国网唐县供电公司","typeName":null,"infoStatusName":null,"dateDay":null,"orgNos":null,"nowTime":null,"countyName":null,"streetName":null,"villageName":null,"roadName":null,"communityName":null,"tranName":null,"sdLineName":null,"cityCode":"1340622","cityName":"国网唐县供电公司","provinceCode":null,"stopTime":"2019-11-12 18:00:00","powerType":"全部","powerOffArea":"【分支停电】停西长店0359变压器,西杨庄光伏7534变压器,西长店6700变压器,安里村0744台区变压器,西杨庄光伏7536变压器,安里7757变压器,西赤0712变压器,西赤5128变压器","powerOffReason":"【停电原因】由于线路检修导致１１０ＫＶ唐县变电站马庄５１８线路１０３号杆长店分支断路器以下线路停电【变更送电】无【发布渠道】唐县电视台（１１月０７日至１１月１１日２０：００至２０：３０之间）屏幕上方滚动字幕","powerOffId":"2019110613000040"},{"poweroffId":2019110521000126,"sgpoweroffId":null,"subsName":"","lineName":"10KV富昌站582线路","pubTranName":"B476柱上变压器,","scope":"【影响街道/乡镇】新市区富昌乡 【高危重要客户】无 【影响客户】女儿楼、苑七里店","startTime":"2019-11-14 09:00:00","stopDate":"2019-11-14 14:30:00","orgNo":"13406","typeCode":"计划停电","poweroffArea":"【单台区停电】停B476柱上变压器","poweroffReason":"【停电原因】由于供电设备临时检修导致１０ＫＶ富昌变电站５８２线路Ｂ４７６公变台区停电【变更送电】因抢修进度加快，原定１６：００送电现计划１４：３０送电。【发布渠道】保定市保定有线电视台（１１月６日２０时１５分至２１时４５分之间）屏幕上滚动","powerTime":"2019-11-14 14:06:53","powerComm":"已送电","subsNo":"","lineNo":"","tgNo":"","tgName":null,"infoStatus":"1","orgName":"保定供电公司","typeName":null,"infoStatusName":null,"dateDay":null,"orgNos":null,"nowTime":null,"countyName":null,"streetName":null,"villageName":null,"roadName":null,"communityName":null,"tranName":null,"sdLineName":null,"cityCode":"13406","cityName":"保定供电公司","provinceCode":null,"stopTime":"2019-11-14 14:30:00","powerType":"全部","powerOffArea":"【单台区停电】停B476柱上变压器","powerOffReason":"【停电原因】由于供电设备临时检修导致１０ＫＶ富昌变电站５８２线路Ｂ４７６公变台区停电【变更送电】因抢修进度加快，原定１６：００送电现计划１４：３０送电。【发布渠道】保定市保定有线电视台（１１月６日２０时１５分至２１时４５分之间）屏幕上滚动","powerOffId":"2019110521000126"},{"poweroffId":2019110521000122,"sgpoweroffId":null,"subsName":"","lineName":"10kV朝阳路站529线路","pubTranName":"10kVZ0072-Z0077配电室Z0072配电变压器,","scope":"【影响街道/乡镇】竞秀区阳光大街 【高危重要客户】无 【影响客户】西大园新区","startTime":"2019-11-05 15:00:00","stopDate":"2019-11-05 15:30:00","orgNo":"13406","typeCode":"电网故障停限电","poweroffArea":"【单台区停电】停10kVZ0072-Z0077配电室Z0072配电变压器","poweroffReason":"【停电原因】由于低压保险片烧导致１０ＫＶ朝阳路变电站５２９线路Ｚ００７７公变台区停电【变更送电】无【发布渠道】通过９５５９８发布","powerTime":"2019-11-05 15:30:00","powerComm":"已送电","subsNo":"","lineNo":"","tgNo":"","tgName":null,"infoStatus":"1","orgName":"保定供电公司","typeName":null,"infoStatusName":null,"dateDay":null,"orgNos":null,"nowTime":null,"countyName":null,"streetName":null,"villageName":null,"roadName":null,"communityName":null,"tranName":null,"sdLineName":null,"cityCode":"13406","cityName":"保定供电公司","provinceCode":null,"stopTime":"2019-11-05 15:30:00","powerType":"全部","powerOffArea":"【单台区停电】停10kVZ0072-Z0077配电室Z0072配电变压器","powerOffReason":"【停电原因】由于低压保险片烧导致１０ＫＶ朝阳路变电站５２９线路Ｚ００７７公变台区停电【变更送电】无【发布渠道】通过９５５９８发布","powerOffId":"2019110521000122"}],"pageModel":{"pageNow":403,"totalCount":10973,"totalPage":1098,"tableRows":0,"pageCount":10,"beginCount":4020},"isExperi":"1"}