{"message":"","today":"2020-06-15","seleList":[{"poweroffId":2019110521000118,"sgpoweroffId":null,"subsName":"","lineName":"10kV鲁岗站520线路","pubTranName":"10kVB1839.B1840配电室B1839配电变压器,","scope":"【影响街道/乡镇】天鹅路 【高危重要客户】无 【影响客户】化纤北生活区、化纤南生活区","startTime":"2019-11-05 14:00:00","stopDate":"2019-11-05 15:15:00","orgNo":"13406","typeCode":"电网故障停限电","poweroffArea":"【单台区停电】停10kVB1839.B1840配电室B1839配电变压器","poweroffReason":"【停电原因】由于低压保险片烧导致１０ＫＶ鲁岗变电站５２０线路Ｂ１８３９公变台区停电【变更送电】无【发布渠道】通过９５５９８发布","powerTime":"2019-11-05 15:08:49","powerComm":"已送电","subsNo":"","lineNo":"","tgNo":"","tgName":null,"infoStatus":"1","orgName":"保定供电公司","typeName":null,"infoStatusName":null,"dateDay":null,"orgNos":null,"nowTime":null,"countyName":null,"streetName":null,"villageName":null,"roadName":null,"communityName":null,"tranName":null,"sdLineName":null,"cityCode":"13406","cityName":"保定供电公司","provinceCode":null,"stopTime":"2019-11-05 15:15:00","powerType":"全部","powerOffArea":"【单台区停电】停10kVB1839.B1840配电室B1839配电变压器","powerOffReason":"【停电原因】由于低压保险片烧导致１０ＫＶ鲁岗变电站５２０线路Ｂ１８３９公变台区停电【变更送电】无【发布渠道】通过９５５９８发布","powerOffId":"2019110521000118"},{"poweroffId":2019110521000112,"sgpoweroffId":null,"subsName":"","lineName":"10kV韩村站537线路","pubTranName":"C175柱上变压器,","scope":"【影响街道/乡镇】新市区韩村乡 【高危重要客户】无 【影响客户】韩村","startTime":"2019-11-14 07:00:00","stopDate":"2019-11-14 12:00:00","orgNo":"13406","typeCode":"计划停电","poweroffArea":"【单台区停电】停C175柱上变压器","poweroffReason":"【停电原因】由于供电设备临时检修导致１０ＫＶ韩村变电站５３７线路Ｃ１７５公变台区停电【变更送电】无【发布渠道】保定市保定有线电视台（１１月６日２０时１５分至２１时４５分之间）屏幕上滚动","powerTime":"2019-11-14 11:46:10","powerComm":"已送电","subsNo":"","lineNo":"","tgNo":"","tgName":null,"infoStatus":"1","orgName":"保定供电公司","typeName":null,"infoStatusName":null,"dateDay":null,"orgNos":null,"nowTime":null,"countyName":null,"streetName":null,"villageName":null,"roadName":null,"communityName":null,"tranName":null,"sdLineName":null,"cityCode":"13406","cityName":"保定供电公司","provinceCode":null,"stopTime":"2019-11-14 12:00:00","powerType":"全部","powerOffArea":"【单台区停电】停C175柱上变压器","powerOffReason":"【停电原因】由于供电设备临时检修导致１０ＫＶ韩村变电站５３７线路Ｃ１７５公变台区停电【变更送电】无【发布渠道】保定市保定有线电视台（１１月６日２０时１５分至２１时４５分之间）屏幕上滚动","powerOffId":"2019110521000112"},{"poweroffId":2019110521000110,"sgpoweroffId":null,"subsName":"","lineName":"10kV七一路站533线路","pubTranName":"C611柱上变压器,","scope":"【影响街道/乡镇】新市区五一九路、省印西路 【高危重要客户】无 【影响客户】粮局、水泥厂宿舍、韩村","startTime":"2019-11-14 07:00:00","stopDate":"2019-11-14 12:00:00","orgNo":"13406","typeCode":"计划停电","poweroffArea":"【分支停电】停C611柱上变压器","poweroffReason":"【停电原因】由于供电设备临时检修导致１０ＫＶ七一路变电站５３３线路天鹅路ＨＫ－０３号环网柜３号间隔北分支２号杆隔离刀闸以下停电【变更送电】无【发布渠道】保定市保定有线电视台（１１月６日２０时１５分至２１时４５分之间）屏幕上滚动","powerTime":"2019-11-14 11:45:31","powerComm":"已送电","subsNo":"","lineNo":"","tgNo":"","tgName":null,"infoStatus":"1","orgName":"保定供电公司","typeName":null,"infoStatusName":null,"dateDay":null,"orgNos":null,"nowTime":null,"countyName":null,"streetName":null,"villageName":null,"roadName":null,"communityName":null,"tranName":null,"sdLineName":null,"cityCode":"13406","cityName":"保定供电公司","provinceCode":null,"stopTime":"2019-11-14 12:00:00","powerType":"全部","powerOffArea":"【分支停电】停C611柱上变压器","powerOffReason":"【停电原因】由于供电设备临时检修导致１０ＫＶ七一路变电站５３３线路天鹅路ＨＫ－０３号环网柜３号间隔北分支２号杆隔离刀闸以下停电【变更送电】无【发布渠道】保定市保定有线电视台（１１月６日２０时１５分至２１时４５分之间）屏幕上滚动","powerOffId":"2019110521000110"},{"poweroffId":2019110521000102,"sgpoweroffId":null,"subsName":"","lineName":"10kV联盟路站530线路","pubTranName":"10kVC559.C560箱式变电站C560配电变压器,10kVC465.C466.C467.C468配电室C465配电变压器,10kVC465.C466.C467.C468配电室C467配电变压器,10kVC465.C466.C467.C468配电室C466配电变压器,10kVC570.C571箱式变电站C571配电变压器,10kVC465.C466.C467.C468配电室C468配电变压器,10kVC570.C571箱式变电站C570配电变压器,C039柱上变压器,C108柱上变压器,C040柱上变压器,C464柱上变压器,C041柱上变压器,C415柱上变压器,C110柱上变压器,C109柱上变压器,C042柱上变压器,C043柱上变压器,10kVC559.C560箱式变电站C559配电变压器,","scope":"【影响街道/乡镇】莲池区焦庄乡长城南大街、南大园乡 【高危重要客户】无 【影响客户】西韩蒋、岳庄、阮庄、青青花园、阳光新馨花园、幸福小区、联农果品","startTime":"2019-11-05 15:00:00","stopDate":"2019-11-05 17:00:00","orgNo":"13406","typeCode":"其他临时停电","poweroffArea":"【分支停电】停10kVC559.C560箱式变电站C559配电变压器,10kVC559.C560箱式变电站C560配电变压器,10kVC465.C466.C467.C468配电室C465配电变压器,10kVC465.C466.C467.C468配电室C467配电变压器,10kVC465.C466.C467.C468配电室C466配电变压器,10kVC570.C571箱式变电站C571配电变压器,10kVC465.C466.C467.C468配电室C468配电变压器,10kVC570.C571箱式变电站C570配电变压器,0356174194-长城汽车股份有限公司-1-配电室-变压器-1,0547229533-石家庄卓艺房地产开发有限公司-1#专变,0357730836-保定人和物业管理有限公司-2#专变,0356236391-保定东方技工学校-专变,0356176839-岳庄-专变,变压器,0710518390-保定市天宏汽车贸易有限公司-400KVA变压器,C039柱上变压器,0357730836-保定人和物业管理有限公司-1#专变,0358496920-保定市路灯管理处-1-箱式变-变压器-1,byq,0356188953-保定一中-专变,0548584068-保定市南市区焦庄乡西韩蒋村村民委员会-1#专变,0548584068-保定市南市区焦庄乡西韩蒋村村民委员会-2#专变,C108柱上变压器,C040柱上变压器,0636989898-保定市运输总公司八公司-专变-148277431-变压器,0356437547-保定市南市区顺利编织厂-专变,0708922228-保定市联农果品批发市场有限公司-1000KVA 专变,C464柱上变压器,0357506688-保定市路灯管理处-1-箱式变-变压器-1,C041柱上变压器,C415柱上变压器,0356234278-西韩蒋村委会-专变,0712745985-保定市城泰供热有限公司-专变-315KVA,0356339654-保定市路灯管理处-1-箱式变-变压器-1,0677852315-保定市悦水汽车维修有限公司-专变-217787298-变压器,0356328588-西韩蒋村委会-专变,C110柱上变压器,0356338824-保定市路灯管理处-1-箱式变-变压器-1,0356244051-保定市老板中式烹调师技能培训学校,0356174194-长城汽车股份有限公司-1-配电室-变压器-2,C109柱上变压器,0698626953-保定市医药有限公司,0356651909-中国石油化工股份有限公司河北保定石油分公司-专变,0356339641-保定市路灯管理处-1-箱式变-变压器-1,C042柱上变压器,C043柱上变压器,0356234047-中国联合网络通信有限公司保定市分公司-专变","poweroffReason":"【停电原因】由于紧急消缺导致１０ＫＶ联盟路变电站５３０线路长城大街４５号开关以下停电【变更送电】无【发布渠道】通过９５５９８发布","powerTime":"2019-11-05 16:40:00","powerComm":"已送电","subsNo":"","lineNo":"","tgNo":"","tgName":null,"infoStatus":"1","orgName":"保定供电公司","typeName":null,"infoStatusName":null,"dateDay":null,"orgNos":null,"nowTime":null,"countyName":null,"streetName":null,"villageName":null,"roadName":null,"communityName":null,"tranName":null,"sdLineName":null,"cityCode":"13406","cityName":"保定供电公司","provinceCode":null,"stopTime":"2019-11-05 17:00:00","powerType":"全部","powerOffArea":"【分支停电】停10kVC559.C560箱式变电站C559配电变压器,10kVC559.C560箱式变电站C560配电变压器,10kVC465.C466.C467.C468配电室C465配电变压器,10kVC465.C466.C467.C468配电室C467配电变压器,10kVC465.C466.C467.C468配电室C466配电变压器,10kVC570.C571箱式变电站C571配电变压器,10kVC465.C466.C467.C468配电室C468配电变压器,10kVC570.C571箱式变电站C570配电变压器,0356174194-长城汽车股份有限公司-1-配电室-变压器-1,0547229533-石家庄卓艺房地产开发有限公司-1#专变,0357730836-保定人和物业管理有限公司-2#专变,0356236391-保定东方技工学校-专变,0356176839-岳庄-专变,变压器,0710518390-保定市天宏汽车贸易有限公司-400KVA变压器,C039柱上变压器,0357730836-保定人和物业管理有限公司-1#专变,0358496920-保定市路灯管理处-1-箱式变-变压器-1,byq,0356188953-保定一中-专变,0548584068-保定市南市区焦庄乡西韩蒋村村民委员会-1#专变,0548584068-保定市南市区焦庄乡西韩蒋村村民委员会-2#专变,C108柱上变压器,C040柱上变压器,0636989898-保定市运输总公司八公司-专变-148277431-变压器,0356437547-保定市南市区顺利编织厂-专变,0708922228-保定市联农果品批发市场有限公司-1000KVA 专变,C464柱上变压器,0357506688-保定市路灯管理处-1-箱式变-变压器-1,C041柱上变压器,C415柱上变压器,0356234278-西韩蒋村委会-专变,0712745985-保定市城泰供热有限公司-专变-315KVA,0356339654-保定市路灯管理处-1-箱式变-变压器-1,0677852315-保定市悦水汽车维修有限公司-专变-217787298-变压器,0356328588-西韩蒋村委会-专变,C110柱上变压器,0356338824-保定市路灯管理处-1-箱式变-变压器-1,0356244051-保定市老板中式烹调师技能培训学校,0356174194-长城汽车股份有限公司-1-配电室-变压器-2,C109柱上变压器,0698626953-保定市医药有限公司,0356651909-中国石油化工股份有限公司河北保定石油分公司-专变,0356339641-保定市路灯管理处-1-箱式变-变压器-1,C042柱上变压器,C043柱上变压器,0356234047-中国联合网络通信有限公司保定市分公司-专变","powerOffReason":"【停电原因】由于紧急消缺导致１０ＫＶ联盟路变电站５３０线路长城大街４５号开关以下停电【变更送电】无【发布渠道】通过９５５９８发布","powerOffId":"2019110521000102"},{"poweroffId":2019110521000096,"sgpoweroffId":null,"subsName":"","lineName":"10kV联盟路站530线路","pubTranName":"10kVC465.C466.C467.C468配电室C467配电变压器,10kVC465.C466.C467.C468配电室C466配电变压器,10kVB1194.B1210配电室B1210配电变压器,10kVB1194.B1210配电室B1194配电变压器,10kVY0057.Y0058配电室Y0058配电变压器,10kVY0057.Y0058配电室Y0057配电变压器,10kVC570.C571箱式变电站C571配电变压器,10kVC559.C560箱式变电站C560配电变压器,10kVB1815配电室B1815配电变压器,10kVC465.C466.C467.C468配电室C465配电变压器,10kVC465.C466.C467.C468配电室C468配电变压器,10kVC570.C571箱式变电站C570配电变压器,10kVC559.C560箱式变电站C559配电变压器,","scope":"【影响街道/乡镇】南市区三丰路、焦庄乡、长城南大街、天威路、煤市街、南大园乡 【高危重要客户】长城汽车、一中 【影响客户】新中国面粉厂、邮局（联通）、锦绣城、金丰花园、阳光新馨家园、西韩蒋、青青花园、青青家园、卓雅豪庭、岳庄、宝硕东区","startTime":"2019-11-05 00:30:00","stopDate":"2019-11-05 10:00:00","orgNo":"13406","typeCode":"电网故障停限电","poweroffArea":"【全线路停电】停10kVC465.C466.C467.C468配电室C465配电变压器;10kVB1194.B1210配电室B1194配电变压器;10kVY0057.Y0058配电室Y0058配电变压器;10kVC570.C571箱式变电站C571配电变压器;10kVC465.C466.C467.C468配电室C466配电变压器;10kVC559.C560箱式变电站C559配电变压器;10kVC570.C571箱式变电站C570配电变压器;10kVC559.C560箱式变电站C560配电变压器;10kVB1194.B1210配电室B1210配电变压器;10kVY0057.Y0058配电室Y0057配电变压器;10kVC465.C466.C467.C468配电室C467配电变压器;10kVC465.C466.C467.C468配电室C468配电变压器;10kVB1815配电室B1815配电变压器;0356188953-保定一中-专变;0356234278-西韩蒋村委会-专变;0356230654-河北省保定劳教所-1#专变;0356188924-保定市新金制冰厂-专变;0357506688-保定市路灯管理处-专变;0356176637-南大元村-专变;0356176842-岳庄-专变;0356176839-岳庄-专变;0356437547-保定市南市区顺利编织厂-专变;0357730836-保定人和物业管理有限公司-1#专变;0356237020-中华纺织厂-专变;0356240886-保定拔丝制钉厂-1#专变;变压器;0548584068-保定市南市区焦庄乡西韩蒋村村民委员会-1#专变;变压器;0356236391-保定东方技工学校-专变;0591458479-保定市城市之家酒店管理有限公司长城南大街店-专变;0548457902-保定市春光房地产开发有限公司-专变;byq ;0548584068-保定市南市区焦庄乡西韩蒋村村民委员会-2#专变;0356328588-西韩蒋村委会-专变;0356244048-南苑纺织厂-专变;变压器;变压器;0356174194-长城汽车股份有限公司-2#专变","poweroffReason":"【停电原因】由于线路接地导致１０ＫＶ联盟变电站５３０线路全线停电【变更送电】无【发布渠道】通过９５５９８发布","powerTime":"2019-11-05 01:00:00","powerComm":"已送电","subsNo":"","lineNo":"","tgNo":"","tgName":null,"infoStatus":"1","orgName":"保定供电公司","typeName":null,"infoStatusName":null,"dateDay":null,"orgNos":null,"nowTime":null,"countyName":null,"streetName":null,"villageName":null,"roadName":null,"communityName":null,"tranName":null,"sdLineName":null,"cityCode":"13406","cityName":"保定供电公司","provinceCode":null,"stopTime":"2019-11-05 10:00:00","powerType":"全部","powerOffArea":"【全线路停电】停10kVC465.C466.C467.C468配电室C465配电变压器;10kVB1194.B1210配电室B1194配电变压器;10kVY0057.Y0058配电室Y0058配电变压器;10kVC570.C571箱式变电站C571配电变压器;10kVC465.C466.C467.C468配电室C466配电变压器;10kVC559.C560箱式变电站C559配电变压器;10kVC570.C571箱式变电站C570配电变压器;10kVC559.C560箱式变电站C560配电变压器;10kVB1194.B1210配电室B1210配电变压器;10kVY0057.Y0058配电室Y0057配电变压器;10kVC465.C466.C467.C468配电室C467配电变压器;10kVC465.C466.C467.C468配电室C468配电变压器;10kVB1815配电室B1815配电变压器;0356188953-保定一中-专变;0356234278-西韩蒋村委会-专变;0356230654-河北省保定劳教所-1#专变;0356188924-保定市新金制冰厂-专变;0357506688-保定市路灯管理处-专变;0356176637-南大元村-专变;0356176842-岳庄-专变;0356176839-岳庄-专变;0356437547-保定市南市区顺利编织厂-专变;0357730836-保定人和物业管理有限公司-1#专变;0356237020-中华纺织厂-专变;0356240886-保定拔丝制钉厂-1#专变;变压器;0548584068-保定市南市区焦庄乡西韩蒋村村民委员会-1#专变;变压器;0356236391-保定东方技工学校-专变;0591458479-保定市城市之家酒店管理有限公司长城南大街店-专变;0548457902-保定市春光房地产开发有限公司-专变;byq ;0548584068-保定市南市区焦庄乡西韩蒋村村民委员会-2#专变;0356328588-西韩蒋村委会-专变;0356244048-南苑纺织厂-专变;变压器;变压器;0356174194-长城汽车股份有限公司-2#专变","powerOffReason":"【停电原因】由于线路接地导致１０ＫＶ联盟变电站５３０线路全线停电【变更送电】无【发布渠道】通过９５５９８发布","powerOffId":"2019110521000096"},{"poweroffId":2019110521000088,"sgpoweroffId":null,"subsName":"","lineName":"10kV联盟路站536线路","pubTranName":"10kVY0348.Y0349.Y0350.Y0351配电室Y0348配电变压器,10kVY0344.Y0345.Y0346.Y0347配电室Y0344配电变压器,10kVY0344.Y0345.Y0346.Y0347配电室Y0347配电变压器,10kVY0348.Y0349.Y0350.Y0351配电室Y0351配电变压器,10kVN0003.N0004配电室N0004配电变压器,10kVN0001.N0002配电室N0001配电变压器,10kVN0001.N0002配电室N0002配电变压器,10kVY0344.Y0345.Y0346.Y0347配电室Y0345配电变压器,10kVY0344.Y0345.Y0346.Y0347配电室Y0346配电变压器,10kVY0348.Y0349.Y0350.Y0351配电室Y0349配电变压器,10kVY0348.Y0349.Y0350.Y0351配电室Y0350配电变压器,10kVN0003.N0004配电室N0003配电变压器,","scope":"【影响街道/乡镇】南市区长城南大街 【高危重要客户】无 【影响客户】嘉森理想城","startTime":"2019-11-05 00:30:00","stopDate":"2019-11-05 10:00:00","orgNo":"13406","typeCode":"电网故障停限电","poweroffArea":"【全线路停电】停10kVN0003.N0004配电室N0003配电变压器;10kVN0003.N0004配电室N0004配电变压器;10kVN0001.N0002配电室N0001配电变压器;10kVN0001.N0002配电室N0002配电变压器;10kVY0344.Y0345.Y0346.Y0347配电室Y0345配电变压器;10kVY0344.Y0345.Y0346.Y0347配电室Y0346配电变压器;10kVY0348.Y0349.Y0350.Y0351配电室Y0349配电变压器;10kVY0348.Y0349.Y0350.Y0351配电室Y0350配电变压器;10kVY0348.Y0349.Y0350.Y0351配电室Y0351配电变压器;10kVY0348.Y0349.Y0350.Y0351配电室Y0348配电变压器;10kVY0344.Y0345.Y0346.Y0347配电室Y0344配电变压器;10kVY0344.Y0345.Y0346.Y0347配电室Y0347配电变压器","poweroffReason":"【停电原因】由于线路接地导致１０ＫＶ联盟变电站５３６线路全线停电【变更送电】无【发布渠道】通过９５５９８发布","powerTime":"2019-11-05 01:00:00","powerComm":"已送电","subsNo":"","lineNo":"","tgNo":"","tgName":null,"infoStatus":"1","orgName":"保定供电公司","typeName":null,"infoStatusName":null,"dateDay":null,"orgNos":null,"nowTime":null,"countyName":null,"streetName":null,"villageName":null,"roadName":null,"communityName":null,"tranName":null,"sdLineName":null,"cityCode":"13406","cityName":"保定供电公司","provinceCode":null,"stopTime":"2019-11-05 10:00:00","powerType":"全部","powerOffArea":"【全线路停电】停10kVN0003.N0004配电室N0003配电变压器;10kVN0003.N0004配电室N0004配电变压器;10kVN0001.N0002配电室N0001配电变压器;10kVN0001.N0002配电室N0002配电变压器;10kVY0344.Y0345.Y0346.Y0347配电室Y0345配电变压器;10kVY0344.Y0345.Y0346.Y0347配电室Y0346配电变压器;10kVY0348.Y0349.Y0350.Y0351配电室Y0349配电变压器;10kVY0348.Y0349.Y0350.Y0351配电室Y0350配电变压器;10kVY0348.Y0349.Y0350.Y0351配电室Y0351配电变压器;10kVY0348.Y0349.Y0350.Y0351配电室Y0348配电变压器;10kVY0344.Y0345.Y0346.Y0347配电室Y0344配电变压器;10kVY0344.Y0345.Y0346.Y0347配电室Y0347配电变压器","powerOffReason":"【停电原因】由于线路接地导致１０ＫＶ联盟变电站５３６线路全线停电【变更送电】无【发布渠道】通过９５５９８发布","powerOffId":"2019110521000088"},{"poweroffId":2019110521000086,"sgpoweroffId":null,"subsName":"","lineName":"10kV联盟路站534线路","pubTranName":"10kVB884配电室B884配电变压器,10kVB152箱式变电站B152配电变压器,10kVB234箱式变电站B234配电变压器,","scope":"【影响街道/乡镇】南市区恒祥大街、裕华路、永华大街、莲池大街、楼南街、长城大街 【高危重要客户】无 【影响客户】华创地产、商业大厦、保定商场、直隶总督署、裕华名品、宏大房地产、长城房地产、广原房地产","startTime":"2019-11-05 00:30:00","stopDate":"2019-11-05 10:00:00","orgNo":"13406","typeCode":"电网故障停限电","poweroffArea":"【全线路停电】停10kVB884配电室B884配电变压器;10kVB234箱式变电站B234配电变压器;10kVB152箱式变电站B152配电变压器;0357482463-保定市裕华名品商城有限公司(国美电器)-2#专变;0387635345-保定市广原地产有限公司-2#专变;0387635345-保定市广原地产有限公司-1#专变;0356179362-保定商场股份有限公司-2#专变;0356582999-保定市华创房地产开发有限公司-4#专变;0356334691-保定市路灯管理处-专变;0357482463-保定市裕华名品商城有限公司(国美电器)-1#专变;0387641735-保定市广原地产有限公司-2#专变;0387641735-保定市广原地产有限公司-1#专变;0356582999-保定市华创房地产开发有限公司-3#专变;变压器","poweroffReason":"【停电原因】由于线路接地导致１０ＫＶ联盟变电站５３４线路全线停电【变更送电】无【发布渠道】通过９５５９８发布","powerTime":"2019-11-05 01:00:00","powerComm":"已送电","subsNo":"","lineNo":"","tgNo":"","tgName":null,"infoStatus":"1","orgName":"保定供电公司","typeName":null,"infoStatusName":null,"dateDay":null,"orgNos":null,"nowTime":null,"countyName":null,"streetName":null,"villageName":null,"roadName":null,"communityName":null,"tranName":null,"sdLineName":null,"cityCode":"13406","cityName":"保定供电公司","provinceCode":null,"stopTime":"2019-11-05 10:00:00","powerType":"全部","powerOffArea":"【全线路停电】停10kVB884配电室B884配电变压器;10kVB234箱式变电站B234配电变压器;10kVB152箱式变电站B152配电变压器;0357482463-保定市裕华名品商城有限公司(国美电器)-2#专变;0387635345-保定市广原地产有限公司-2#专变;0387635345-保定市广原地产有限公司-1#专变;0356179362-保定商场股份有限公司-2#专变;0356582999-保定市华创房地产开发有限公司-4#专变;0356334691-保定市路灯管理处-专变;0357482463-保定市裕华名品商城有限公司(国美电器)-1#专变;0387641735-保定市广原地产有限公司-2#专变;0387641735-保定市广原地产有限公司-1#专变;0356582999-保定市华创房地产开发有限公司-3#专变;变压器","powerOffReason":"【停电原因】由于线路接地导致１０ＫＶ联盟变电站５３４线路全线停电【变更送电】无【发布渠道】通过９５５９８发布","powerOffId":"2019110521000086"},{"poweroffId":2019110521000085,"sgpoweroffId":null,"subsName":"","lineName":"10kV联盟路站532线路","pubTranName":"10kVB045箱式变电站B045配电变压器,10kVB1262箱式变电站B1262配电变压器,","scope":"【影响街道/乡镇】南市区利农街、三丰中路、永华南大街、利丰胡同、南仓路 【高危重要客户】无 【影响客户】糖酒公司宿舍、南大元、五金站宿舍、食品宿舍、肉联厂宿舍、南大园村、果品公司宿舍、五金交电化工公司、地区副食品宿舍、富华速冻食品、森达物业公司","startTime":"2019-11-05 00:30:00","stopDate":"2019-11-05 10:00:00","orgNo":"13406","typeCode":"电网故障停限电","poweroffArea":"【全线路停电】停10kVB1262箱式变电站B1262配电变压器;10kVB045箱式变电站B045配电变压器;0696499746-变压器-242370288;0356240091-保定天惠副食果品有限公司-2#专变;变压器;0356288767-保定瑞丰糖业有限公司-专变;0356418841-保定市恒丰物业有限责任公司-专变;0356344722-保定市莲池肉类联合加工厂-专变;0356243902-保定市莲池肉类联合加工厂-专变;变压器;0356237844-保定市食品公司牛羊肉加工厂-专变;0356344722-保定市莲池肉类联合加工厂-专变-148291899-变压器;0356418841-保定市恒丰物业有限责任公司-专变;0696499746-byq-242370283;0356240671-保定市食品公司牛羊肉加工厂-专变;0356240091-保定天惠副食果品有限公司-1#专变;变压器","poweroffReason":"【停电原因】由于线路接地导致１０ＫＶ联盟变电站５３２线路全线停电【变更送电】无【发布渠道】通过９５５９８发布","powerTime":"2019-11-05 01:00:00","powerComm":"已送电","subsNo":"","lineNo":"","tgNo":"","tgName":null,"infoStatus":"1","orgName":"保定供电公司","typeName":null,"infoStatusName":null,"dateDay":null,"orgNos":null,"nowTime":null,"countyName":null,"streetName":null,"villageName":null,"roadName":null,"communityName":null,"tranName":null,"sdLineName":null,"cityCode":"13406","cityName":"保定供电公司","provinceCode":null,"stopTime":"2019-11-05 10:00:00","powerType":"全部","powerOffArea":"【全线路停电】停10kVB1262箱式变电站B1262配电变压器;10kVB045箱式变电站B045配电变压器;0696499746-变压器-242370288;0356240091-保定天惠副食果品有限公司-2#专变;变压器;0356288767-保定瑞丰糖业有限公司-专变;0356418841-保定市恒丰物业有限责任公司-专变;0356344722-保定市莲池肉类联合加工厂-专变;0356243902-保定市莲池肉类联合加工厂-专变;变压器;0356237844-保定市食品公司牛羊肉加工厂-专变;0356344722-保定市莲池肉类联合加工厂-专变-148291899-变压器;0356418841-保定市恒丰物业有限责任公司-专变;0696499746-byq-242370283;0356240671-保定市食品公司牛羊肉加工厂-专变;0356240091-保定天惠副食果品有限公司-1#专变;变压器","powerOffReason":"【停电原因】由于线路接地导致１０ＫＶ联盟变电站５３２线路全线停电【变更送电】无【发布渠道】通过９５５９８发布","powerOffId":"2019110521000085"},{"poweroffId":2019110521000074,"sgpoweroffId":null,"subsName":"","lineName":"10kV联盟路站520线路","pubTranName":"10kVB923.B924箱式变电站B923配电变压器,10kVB923.B924箱式变电站B924配电变压器,","scope":"【影响街道/乡镇】莲池区莲池大街 【高危重要客户】无 【影响客户】力高西园","startTime":"2019-11-14 07:30:00","stopDate":"2019-11-14 15:00:00","orgNo":"13406","typeCode":"计划停电","poweroffArea":"【分支停电】停10kVB923.B924箱式变电站B923配电变压器,10kVB923.B924箱式变电站B924配电变压器","poweroffReason":"【停电原因】由于供电设备临时检修导致１０ＫＶ联盟路变电站５２０线路莲池大街１１６号杆分支以下停电【变更送电】因抢修进度加快，原定１７:００送电现计划１５:００送电【发布渠道】保定市保定有线电视台（１１月０６日２０时１５分至２１时４５分之间）屏幕上滚动","powerTime":"2019-11-14 14:48:37","powerComm":"已送电","subsNo":"","lineNo":"","tgNo":"","tgName":null,"infoStatus":"1","orgName":"保定供电公司","typeName":null,"infoStatusName":null,"dateDay":null,"orgNos":null,"nowTime":null,"countyName":null,"streetName":null,"villageName":null,"roadName":null,"communityName":null,"tranName":null,"sdLineName":null,"cityCode":"13406","cityName":"保定供电公司","provinceCode":null,"stopTime":"2019-11-14 15:00:00","powerType":"全部","powerOffArea":"【分支停电】停10kVB923.B924箱式变电站B923配电变压器,10kVB923.B924箱式变电站B924配电变压器","powerOffReason":"【停电原因】由于供电设备临时检修导致１０ＫＶ联盟路变电站５２０线路莲池大街１１６号杆分支以下停电【变更送电】因抢修进度加快，原定１７:００送电现计划１５:００送电【发布渠道】保定市保定有线电视台（１１月０６日２０时１５分至２１时４５分之间）屏幕上滚动","powerOffId":"2019110521000074"},{"poweroffId":2019110521000065,"sgpoweroffId":null,"subsName":"","lineName":"10kV联盟路站520线路","pubTranName":"B064柱上变压器,B065柱上变压器,B1909柱上变压器,B769柱上变压器,B128柱上变压器,B1911柱上变压器,B613柱上变压器,B1910柱上变压器,B066柱上变压器,B611柱上变压器,B126柱上变压器,B127柱上变压器,10kVB923.B924箱式变电站B923配电变压器,10kVB766.B767配电室B767配电变压器,B161柱上变压器,10kVB685箱式变电站B685配电变压器,10kVB764.B765配电室B764配电变压器,10kVB764.B765配电室B765配电变压器,10kVB817.B818箱式变电站B818配电变压器,10kVB438.B805配电室B805配电变压器,10kVB762配电室B762配电变压器,B130柱上变压器,10kVB923.B924箱式变电站B924配电变压器,10kVB438.B805配电室B438配电变压器,10kVB766.B767配电室B766配电变压器,10kVB817.B818箱式变电站B817配电变压器,10kVH0030箱式变电站H0030配电变压器,B1444柱上变压器,B129柱上变压器,10kVB124箱式变电站B124配电变压器,10kVB411箱式变电站B411配电变压器,B3033柱上变压器,B227柱上变压器,","scope":"【影响街道/乡镇】南市区裕华西路、琅瑚街、小安市胡同、兴华路、相府胡同、枣儿胡同、西大街、菊胡同、胜利胡同、城隍庙街、梁家胡同、南大街 【高危重要客户】无 【影响客户】振兴里小区、裕华园小区、府学后街71号、新北街5号楼、力高西院、永华中路8号楼、税务角居民楼、紫河套小区","startTime":"2019-11-05 00:30:00","stopDate":"2019-11-05 10:00:00","orgNo":"13406","typeCode":"电网故障停限电","poweroffArea":"【全线路停电】停B769柱上变压器;B065柱上变压器;10kVB438.B805配电室B805配电变压器;10kVB817.B818箱式变电站B818配电变压器;10kVB685箱式变电站B685配电变压器;B1444柱上变压器;10kVB766.B767配电室B767配电变压器;10kVB411箱式变电站B411配电变压器;10kVB438.B805配电室B438配电变压器;10kVB764.B765配电室B765配电变压器;B130柱上变压器;B128柱上变压器;10kVB923.B924箱式变电站B923配电变压器;10kVB124箱式变电站B124配电变压器;B129柱上变压器;B611柱上变压器;B161柱上变压器;10kVB762配电室B762配电变压器;10kVB817.B818箱式变电站B817配电变压器;B3033柱上变压器;10kVH0030箱式变电站H0030配电变压器;10kVB764.B765配电室B764配电变压器;B1910柱上变压器;B127柱上变压器;B1911柱上变压器;B1909柱上变压器;B613柱上变压器;B064柱上变压器;B066柱上变压器;10kVB923.B924箱式变电站B924配电变压器;10kVB766.B767配电室B766配电变压器;B227柱上变压器;B126柱上变压器;0356228804-河北省保定商业大厦集团公司-2#专变;0356217347-保定钟楼商厦有限公司-1#专变;0466227889-保定市北市区北关村委会-专变;0593982152-保定市华创房地产开发有限公司-专变;0356238573-保定市侨生房地产开发有限公司-专变;0356269348-河北中移通信技术工程有限公司-专变;0357530306-河北秀兰房地产集团有限公司-专变;0356234412-劝业场-专变;0356294997-保定市人民政府机关事务管理局-专变;0356217347-保定钟楼商厦有限公司-2#专变;0550643359-保定市市区集中供热管理办公室-专变;0612716968-保定市中良物业管理有限公司-1#专变;0356337690-保定市路灯管理处-专变;0358168663-保定市中顺物业管理有限公司-专变;0356339885-保定市路灯管理处-专变;0356327729-保定新明华商业投资管理有限公司-专变;0356309329-河北省天主教保定教区-专变;0696500206byq-242371529变压器;变压器;0612716968-保定市中良物业管理有限公司-2#专变;0357341320-保定市人民政府机关事务管理局-专变;0620293569-河北华中房地产开发有限公司-专变-129151934-变压器;0356341518-河北国美电器有限公司-2#专变;0356320803-保定市蕴升物业管理有限公司-专变;0356275578-保定市北市区人民检查院-专变;0356211945-保定直隶总督署博物馆-专变;0356262060-保定市大舞台娱乐有限公司-专变;0356265740-保定市和乐物业管理有限公司-专变;0357302475-保定市路灯管理处-专变;0356341130-保定市路灯管理处-专变;0356232575-军分区三休干所-专变;0356476434-保定市路灯管理处-专变","poweroffReason":"【停电原因】由于线路接地导致１０ＫＶ联盟路变电站５２０线路全线停电【变更送电】无【发布渠道】通过９５５９８发布","powerTime":"2019-11-05 01:00:00","powerComm":"已送电","subsNo":"","lineNo":"","tgNo":"","tgName":null,"infoStatus":"1","orgName":"保定供电公司","typeName":null,"infoStatusName":null,"dateDay":null,"orgNos":null,"nowTime":null,"countyName":null,"streetName":null,"villageName":null,"roadName":null,"communityName":null,"tranName":null,"sdLineName":null,"cityCode":"13406","cityName":"保定供电公司","provinceCode":null,"stopTime":"2019-11-05 10:00:00","powerType":"全部","powerOffArea":"【全线路停电】停B769柱上变压器;B065柱上变压器;10kVB438.B805配电室B805配电变压器;10kVB817.B818箱式变电站B818配电变压器;10kVB685箱式变电站B685配电变压器;B1444柱上变压器;10kVB766.B767配电室B767配电变压器;10kVB411箱式变电站B411配电变压器;10kVB438.B805配电室B438配电变压器;10kVB764.B765配电室B765配电变压器;B130柱上变压器;B128柱上变压器;10kVB923.B924箱式变电站B923配电变压器;10kVB124箱式变电站B124配电变压器;B129柱上变压器;B611柱上变压器;B161柱上变压器;10kVB762配电室B762配电变压器;10kVB817.B818箱式变电站B817配电变压器;B3033柱上变压器;10kVH0030箱式变电站H0030配电变压器;10kVB764.B765配电室B764配电变压器;B1910柱上变压器;B127柱上变压器;B1911柱上变压器;B1909柱上变压器;B613柱上变压器;B064柱上变压器;B066柱上变压器;10kVB923.B924箱式变电站B924配电变压器;10kVB766.B767配电室B766配电变压器;B227柱上变压器;B126柱上变压器;0356228804-河北省保定商业大厦集团公司-2#专变;0356217347-保定钟楼商厦有限公司-1#专变;0466227889-保定市北市区北关村委会-专变;0593982152-保定市华创房地产开发有限公司-专变;0356238573-保定市侨生房地产开发有限公司-专变;0356269348-河北中移通信技术工程有限公司-专变;0357530306-河北秀兰房地产集团有限公司-专变;0356234412-劝业场-专变;0356294997-保定市人民政府机关事务管理局-专变;0356217347-保定钟楼商厦有限公司-2#专变;0550643359-保定市市区集中供热管理办公室-专变;0612716968-保定市中良物业管理有限公司-1#专变;0356337690-保定市路灯管理处-专变;0358168663-保定市中顺物业管理有限公司-专变;0356339885-保定市路灯管理处-专变;0356327729-保定新明华商业投资管理有限公司-专变;0356309329-河北省天主教保定教区-专变;0696500206byq-242371529变压器;变压器;0612716968-保定市中良物业管理有限公司-2#专变;0357341320-保定市人民政府机关事务管理局-专变;0620293569-河北华中房地产开发有限公司-专变-129151934-变压器;0356341518-河北国美电器有限公司-2#专变;0356320803-保定市蕴升物业管理有限公司-专变;0356275578-保定市北市区人民检查院-专变;0356211945-保定直隶总督署博物馆-专变;0356262060-保定市大舞台娱乐有限公司-专变;0356265740-保定市和乐物业管理有限公司-专变;0357302475-保定市路灯管理处-专变;0356341130-保定市路灯管理处-专变;0356232575-军分区三休干所-专变;0356476434-保定市路灯管理处-专变","powerOffReason":"【停电原因】由于线路接地导致１０ＫＶ联盟路变电站５２０线路全线停电【变更送电】无【发布渠道】通过９５５９８发布","powerOffId":"2019110521000065"}],"pageModel":{"pageNow":404,"totalCount":10973,"totalPage":1098,"tableRows":0,"pageCount":10,"beginCount":4030},"isExperi":"1"}