{"message":"","today":"2020-06-15","seleList":[{"poweroffId":2019110513000042,"sgpoweroffId":null,"subsName":"","lineName":"10kV551许村线","pubTranName":"道西综合7台区,北林综合2台区,许村农排7台区【纯农排变】,许村综合3台区,许村综合2台区,北林农排11台区【纯农排变】,道西综合6台区,北林农排13台区【纯农排变】,许村农排10台区【纯农排变】,北林综合9台区,北林农排1台区【纯农排变】,道西综合5台区,道西综合2台区,洪堡农排9台区【纯农排变】,北林综合6台区,北林综合10台区,道西综合3台区,许村农排15台区【纯农排变】,北林综合11台区,许村综合6台区,许村综合1台区,北林综合3台区,许村综合5台区,北林综合7台区,道西综合9台区,北林综合1台区,道西农排16台区【纯农排变】,许村农排5台区【纯农排变】,道西农排6台区【纯农排变】,许村综合7台区,道西农排7台区【纯农排变】,许村综合4台区,北林农排18台区【纯农排变】,许村农排12台区【纯农排变】,道西综合1台区,道西综合4台区,北林综合5台区,许村农排6台区【纯农排变】,北林综合4台区,北林农排8台区【纯农排变】,北林综合8台区,许村农排13台区【纯农排变】,道西综合8台区,许村农排14台区【纯农排变】,道西农排1台区【纯农排变】,许村农排11台区【纯农排变】,","scope":"【影响街道/乡镇】南庄镇【高危重要客户】无【影响客户】北林里村、道西村、许村、南庄村、前刘市村","startTime":"2019-11-14 06:00:00","stopDate":"2019-11-14 18:00:00","orgNo":"1340616","typeCode":"计划停电","poweroffArea":"【全线路停电】停道西农排14台区【纯农排变】,蠡县润久汽车配件厂变压器,北林农排2台区【纯农排变】,北林农排6台区【纯农排变】,道西综合4台区,许村综合1台区,北林农排18台区【纯农排变】,北林农排12台区【纯农排变】,北林综合8台区,北林综合3台区,北林综合10台区,北林农排19台区【纯农排变】,许村综合3台区,道西综合3台区,前市农排5台区【纯农排变】,许村农排6台区【纯农排变】,北林农排15台区【纯农排变】,道西农排3台区【纯农排变】,北林农排22台区【纯农排变】,北林农排16台区【纯农排变】,北林农排9台区【纯农排变】,洪堡农排9台区【纯农排变】,道西农排10台区【纯农排变】,北林综合6台区,南庄农排3台区（洪堡）【纯农排变】,许村农排13台区【纯农排变】,前市农排4台区【纯农排变】,许村农排12台区【纯农排变】,南庄农排5台【纯农排变】,许村农排10台区【纯农排变】,道西农排13台区【纯农排变】,许村农排2台区【纯农排变】,北林综合9台区,北林农排17台区【纯农排变】,北林综合1台区,道西农排12台区【纯农排变】,许村农排4台区【纯农排变】,北林综合2台区,许村农排8台区【纯农排变】,道西综合8台区,道西农排9台区【纯农排变】,北林农排5台区【纯农排变】,北林综合5台区,许村综合4台区,许村农排11台区【纯农排变】,许村综合5台区,许村农排15台区【纯农排变】,许村综合7台区,洪堡农排18台区【纯农排变】,道西农排4台区【纯农排变】,道西农排15台区【纯农排变】,北林农排4台区【纯农排变】,道西综合6台区,道西综合1台区,道西农排11台区【纯农排变】,北林农排13台区【纯农排变】,北林农排8台区【纯农排变】,许村农排9台区【纯农排变】,许村农排14台区【纯农排变】,北林综合4台区,北林农排14台区【纯农排变】,道西综合2台区,南庄农排9台区【纯农排变】,道西农排5台区【纯农排变】,道西农排16台区【纯农排变】,道西农排1台区【纯农排变】,许村综合6台区,占礼,道西农排7台区【纯农排变】,前市农排2台区【纯农排变】,北林农排1台区【纯农排变】,南庄农排4台区【纯农排变】,洪堡农排10台区【纯农排变】,北林农排7台区【纯农排变】,蠡县鑫朋农副产品加工厂,变压器,许村农排3台区【纯农排变】,前市农排6台区【纯农排变】,许村农排1台区【纯农排变】,许村综合2台区,许村农排5台区【纯农排变】,许村农排7台区【纯农排变】,北林综合11台区,粮种厂混用,北林村东上农3,粮种厂,手套厂,道西综合9台区,北林村北1021,道西花厂,北林6号农,北林农排11台区【纯农排变】,北林村南农10,道西农排8台区【纯农排变】,北林综合7台区,道西农排6台区【纯农排变】,红州,道西农排2台区【纯农排变】,聚田,道西综合7台区,晨光,道西综合5台区","poweroffReason":"【停电原因】由于变台改造导致１１０ＫＶ南庄变电站１０ＫＶ许村５５１线路全线停电【变更送电】无【发布渠道】蠡县电视台（１１月０５日至１１月１３日２０：００至２２：００之间）屏幕上方滚动","powerTime":"2019-11-14 17:39:50","powerComm":"已送电","subsNo":"","lineNo":"","tgNo":"","tgName":null,"infoStatus":"1","orgName":"国网蠡县供电公司","typeName":null,"infoStatusName":null,"dateDay":null,"orgNos":null,"nowTime":null,"countyName":null,"streetName":null,"villageName":null,"roadName":null,"communityName":null,"tranName":null,"sdLineName":null,"cityCode":"1340616","cityName":"国网蠡县供电公司","provinceCode":null,"stopTime":"2019-11-14 18:00:00","powerType":"全部","powerOffArea":"【全线路停电】停道西农排14台区【纯农排变】,蠡县润久汽车配件厂变压器,北林农排2台区【纯农排变】,北林农排6台区【纯农排变】,道西综合4台区,许村综合1台区,北林农排18台区【纯农排变】,北林农排12台区【纯农排变】,北林综合8台区,北林综合3台区,北林综合10台区,北林农排19台区【纯农排变】,许村综合3台区,道西综合3台区,前市农排5台区【纯农排变】,许村农排6台区【纯农排变】,北林农排15台区【纯农排变】,道西农排3台区【纯农排变】,北林农排22台区【纯农排变】,北林农排16台区【纯农排变】,北林农排9台区【纯农排变】,洪堡农排9台区【纯农排变】,道西农排10台区【纯农排变】,北林综合6台区,南庄农排3台区（洪堡）【纯农排变】,许村农排13台区【纯农排变】,前市农排4台区【纯农排变】,许村农排12台区【纯农排变】,南庄农排5台【纯农排变】,许村农排10台区【纯农排变】,道西农排13台区【纯农排变】,许村农排2台区【纯农排变】,北林综合9台区,北林农排17台区【纯农排变】,北林综合1台区,道西农排12台区【纯农排变】,许村农排4台区【纯农排变】,北林综合2台区,许村农排8台区【纯农排变】,道西综合8台区,道西农排9台区【纯农排变】,北林农排5台区【纯农排变】,北林综合5台区,许村综合4台区,许村农排11台区【纯农排变】,许村综合5台区,许村农排15台区【纯农排变】,许村综合7台区,洪堡农排18台区【纯农排变】,道西农排4台区【纯农排变】,道西农排15台区【纯农排变】,北林农排4台区【纯农排变】,道西综合6台区,道西综合1台区,道西农排11台区【纯农排变】,北林农排13台区【纯农排变】,北林农排8台区【纯农排变】,许村农排9台区【纯农排变】,许村农排14台区【纯农排变】,北林综合4台区,北林农排14台区【纯农排变】,道西综合2台区,南庄农排9台区【纯农排变】,道西农排5台区【纯农排变】,道西农排16台区【纯农排变】,道西农排1台区【纯农排变】,许村综合6台区,占礼,道西农排7台区【纯农排变】,前市农排2台区【纯农排变】,北林农排1台区【纯农排变】,南庄农排4台区【纯农排变】,洪堡农排10台区【纯农排变】,北林农排7台区【纯农排变】,蠡县鑫朋农副产品加工厂,变压器,许村农排3台区【纯农排变】,前市农排6台区【纯农排变】,许村农排1台区【纯农排变】,许村综合2台区,许村农排5台区【纯农排变】,许村农排7台区【纯农排变】,北林综合11台区,粮种厂混用,北林村东上农3,粮种厂,手套厂,道西综合9台区,北林村北1021,道西花厂,北林6号农,北林农排11台区【纯农排变】,北林村南农10,道西农排8台区【纯农排变】,北林综合7台区,道西农排6台区【纯农排变】,红州,道西农排2台区【纯农排变】,聚田,道西综合7台区,晨光,道西综合5台区","powerOffReason":"【停电原因】由于变台改造导致１１０ＫＶ南庄变电站１０ＫＶ许村５５１线路全线停电【变更送电】无【发布渠道】蠡县电视台（１１月０５日至１１月１３日２０：００至２２：００之间）屏幕上方滚动","powerOffId":"2019110513000042"},{"poweroffId":2019110513000036,"sgpoweroffId":null,"subsName":"","lineName":"10kV557西七村线","pubTranName":"南高晃综合1台区,郑庄综合7台区,南高晃综合4台区,张刘庄综合1台区,刘町农排5台区【纯农排变】,张刘庄农排2台区【纯农排变】,郑庄综合1台区,南高晃农排5台区【纯农排变】,东魏农排6台区【纯农排变】,薛庄综合4台区,南高晃农排6台区【纯农排变】,芦庄农排4台区【纯农排变】,薛庄综合2台区,刘町综合1台区,柳青综合3台区,芦庄农排1台区【纯农排变】,芦庄综合1台区,薛庄综合3台区,郑庄综合3台区,薛庄农排5台区【纯农排变】,郑庄综合6台区,薛庄农排4台区【纯农排变】,薛庄农排6台区【纯农排变】,南高晃综合3台区,南高晃综合5台区,芦庄综合2台区,刘町农排6台区【纯农排变】,薛庄农排1台区【纯农排变】,薛庄综合5台区,刘町综合2台区,张刘庄综合2台区,刘町农排2台区【纯农排变】,张刘庄农排1台区【纯农排变】,滑岗农排3台区【纯农排变】,南高晃农排3台区【纯农排变】,郑庄综合4台区,南高晃综合2台区,薛庄农排7台区【纯农排变】,柳青综合1台区,柳青综合4台区,郑庄综合2台区,南高晃综合6台区,张刘庄综合3台区,刘町综合3台区,柳青农排1台区【纯农排变】,柳青综合2台区,南高晃农排4台区【纯农排变】,南高晃农排2台区【纯农排变】,郑庄综合5台区,刘町农排3台区【纯农排变】,薛庄综合1台区,柳青农排3台区【纯农排变】,芦庄综合3台区,张刘庄综合4台区,","scope":"【影响街道/乡镇】南庄镇【高危重要客户】无【影响客户】卢庄村、刘町村、南高晃村、东柳青村、郑庄村、张刘庄村、薛庄村","startTime":"2019-11-14 06:00:00","stopDate":"2019-11-14 18:00:00","orgNo":"1340616","typeCode":"计划停电","poweroffArea":"【全线路停电】停南高晃综合2台区,里县东魏天元橡胶制品有限公司,东魏农排14台区【纯农排变】,蠡县青山防水材料有限公司,南高晃农排6台区【纯农排变】,张刘庄综合1台区,薛庄农排7台区【纯农排变】,芦庄综合2台区,南高晃农排1台区【纯农排变】,南高晃综合1台区,张刘庄综合4台区,南高晃农排5台区【纯农排变】,柳青综合2台区,变压器,刘町农排3台区【纯农排变】,薛庄农排2台区【纯农排变】,滑岗农排1台区【纯农排变】,南高晃综合3台区,张刘庄农排2台区【纯农排变】,芦庄农排3台区【纯农排变】,滑岗农排12台区【纯农排变】,蠡县兴滑水泥制品厂变压器,蠡县利年汽车装饰用品制造有限公司变压器,张刘庄农排1台区【纯农排变】,郑庄塑料厂,郑庄综合4台区,张刘庄综合3台区,芦庄农排5台区【纯农排变】,柳青农5台区,芦庄综合3台区,芦庄综合1台区,南高晃综合4台区,刘町综合2台区,柳青农排1台区【纯农排变】,薛庄农排5台区【纯农排变】,柳青农排3台区【纯农排变】,道西面粉厂变压器,柳青农排2台区【纯农排变】,芦庄农排4台区【纯农排变】,南高晃综合5台区,郑庄综合7台区,柳青综合3台区,张刘庄综合2台区,郑庄农排7台区【纯农排变】,刘町农排1台区【纯农排变】,刘町农排2台区【纯农排变】,刘町农排4台区【纯农排变】,郑庄东农8台区,郑庄东南农用6台区,柳青综合4台区,薛庄综合2台区,滑岗种植园,刘町综合3台区,郑庄综合1台区,薛庄综合4台区,柳青综合1台区,薛庄综合5台区,芦庄农排1台区【纯农排变】,里县鹏飞皮毛制品有限公司,郑庄综合6台区,郑庄西南4台区,南高晃轧花加工厂,薛庄农排4台区【纯农排变】,南高晃综合6台区,郑庄农用9台区,滑岗农排2台区【纯农排变】,南高晃农排3台区【纯农排变】,郑庄综合2台区,刘町综合1台区,薛庄综合1台区,刘町农排6台区【纯农排变】,柳青农用4台区,薛庄综合3台区,芦庄农排2台区【纯农排变】,郑庄西农用3台区,郑庄农排5台区【纯农排变】,东魏农排6台区【纯农排变】,南高晃农排4台区【纯农排变】,薛庄农排6台区【纯农排变】,郑庄综合5台区,蠡县滑岗顺达废品收购站,刘町农排5台区【纯农排变】,郑庄综合3台区,南高晃农排2台区【纯农排变】,芦庄农排6台区【纯农排变】,滑岗农排3台区【纯农排变】,薛庄农排3台区【纯农排变】,薛庄农排1台区【纯农排变】","poweroffReason":"【停电原因】由于更换电杆、更换导线导致１１０ＫＶ南庄变电站１０ＫＶ西七村５５７线路全线停电【变更送电】无【发布渠道】蠡县电视台（１１月０５日至１１月１３日２０：００至２２：００之间）屏幕上方滚动","powerTime":"2019-11-14 17:40:10","powerComm":"已送电","subsNo":"","lineNo":"","tgNo":"","tgName":null,"infoStatus":"1","orgName":"国网蠡县供电公司","typeName":null,"infoStatusName":null,"dateDay":null,"orgNos":null,"nowTime":null,"countyName":null,"streetName":null,"villageName":null,"roadName":null,"communityName":null,"tranName":null,"sdLineName":null,"cityCode":"1340616","cityName":"国网蠡县供电公司","provinceCode":null,"stopTime":"2019-11-14 18:00:00","powerType":"全部","powerOffArea":"【全线路停电】停南高晃综合2台区,里县东魏天元橡胶制品有限公司,东魏农排14台区【纯农排变】,蠡县青山防水材料有限公司,南高晃农排6台区【纯农排变】,张刘庄综合1台区,薛庄农排7台区【纯农排变】,芦庄综合2台区,南高晃农排1台区【纯农排变】,南高晃综合1台区,张刘庄综合4台区,南高晃农排5台区【纯农排变】,柳青综合2台区,变压器,刘町农排3台区【纯农排变】,薛庄农排2台区【纯农排变】,滑岗农排1台区【纯农排变】,南高晃综合3台区,张刘庄农排2台区【纯农排变】,芦庄农排3台区【纯农排变】,滑岗农排12台区【纯农排变】,蠡县兴滑水泥制品厂变压器,蠡县利年汽车装饰用品制造有限公司变压器,张刘庄农排1台区【纯农排变】,郑庄塑料厂,郑庄综合4台区,张刘庄综合3台区,芦庄农排5台区【纯农排变】,柳青农5台区,芦庄综合3台区,芦庄综合1台区,南高晃综合4台区,刘町综合2台区,柳青农排1台区【纯农排变】,薛庄农排5台区【纯农排变】,柳青农排3台区【纯农排变】,道西面粉厂变压器,柳青农排2台区【纯农排变】,芦庄农排4台区【纯农排变】,南高晃综合5台区,郑庄综合7台区,柳青综合3台区,张刘庄综合2台区,郑庄农排7台区【纯农排变】,刘町农排1台区【纯农排变】,刘町农排2台区【纯农排变】,刘町农排4台区【纯农排变】,郑庄东农8台区,郑庄东南农用6台区,柳青综合4台区,薛庄综合2台区,滑岗种植园,刘町综合3台区,郑庄综合1台区,薛庄综合4台区,柳青综合1台区,薛庄综合5台区,芦庄农排1台区【纯农排变】,里县鹏飞皮毛制品有限公司,郑庄综合6台区,郑庄西南4台区,南高晃轧花加工厂,薛庄农排4台区【纯农排变】,南高晃综合6台区,郑庄农用9台区,滑岗农排2台区【纯农排变】,南高晃农排3台区【纯农排变】,郑庄综合2台区,刘町综合1台区,薛庄综合1台区,刘町农排6台区【纯农排变】,柳青农用4台区,薛庄综合3台区,芦庄农排2台区【纯农排变】,郑庄西农用3台区,郑庄农排5台区【纯农排变】,东魏农排6台区【纯农排变】,南高晃农排4台区【纯农排变】,薛庄农排6台区【纯农排变】,郑庄综合5台区,蠡县滑岗顺达废品收购站,刘町农排5台区【纯农排变】,郑庄综合3台区,南高晃农排2台区【纯农排变】,芦庄农排6台区【纯农排变】,滑岗农排3台区【纯农排变】,薛庄农排3台区【纯农排变】,薛庄农排1台区【纯农排变】","powerOffReason":"【停电原因】由于更换电杆、更换导线导致１１０ＫＶ南庄变电站１０ＫＶ西七村５５７线路全线停电【变更送电】无【发布渠道】蠡县电视台（１１月０５日至１１月１３日２０：００至２２：００之间）屏幕上方滚动","powerOffId":"2019110513000036"},{"poweroffId":2019110513000029,"sgpoweroffId":null,"subsName":"","lineName":"10kV车屯线515","pubTranName":"车屯东南变压器,潘家营西北变压器,朱皮营排灌5变压器【纯农排变】,温家佐排灌3变压器【纯农排变】,彦士垡排灌7变压器【纯农排变】,潘家营南,辛村西南柱上变压器,彦士垡排灌8变压器【纯农排变】,彦士垡排灌6变压器【纯农排变】,于庄东变压器,南龙湾2变压器,","scope":"【影响街道/乡镇】肖官营镇、方官镇 【高危重要客户】无 【影响客户】车屯村、东垡头村、西垡头村、东未屯村、河头村、老王庄村、龙湾村、潘家营村、善巨庄村、温家佐村、辛村、闫家营村、彦士垡、义和庄村、于庄村、朱皮营村、中国人民解放军93498部队78分队、高碑店市肖官营乡东魏隆基小学、高碑店市肖官营隆丰清洁用品商贸经营部、高碑店市绿雪草种销售有限公司、高碑店市必拓金属制品加工有限公司、高碑店市仁达养殖有限责任公司、赵晨慧、高碑店市双合盛养殖有限责任公司","startTime":"2019-11-15 06:00:00","stopDate":"2019-11-15 18:00:00","orgNo":"1340612","typeCode":"计划停电","poweroffArea":"【分支停电】停中国人民解放军93498部队78分队-,西垡头排灌5变压器【纯农排变】,河头排灌2变压器【纯农排变】,潘家营排灌2变压器【纯农排变】,东垡头变压器,潘家营西北变压器,西垡头排灌3变压器【纯农排变】,潘家营变压器,彦士垡北变压器,车屯南变压器,西垡头东北变压器,闫家营排灌1变压器【纯农排变】,高碑店市肖官营乡东魏隆基小学变压器,车屯排灌3变压器【纯农排变】,高碑店市肖官营隆丰清洁用品商贸经营部变压器,仁达养殖公司,彦士垡排灌2变压器【纯农排变】,义合庄西变压器,朱皮营排灌5变压器【纯农排变】,赵晨慧变压器,温家佐排灌3变压器【纯农排变】,辛村北台变压器,龙湾市场变压器,温家佐排灌1变压器【纯农排变】,义合庄东变压器,西垡头排灌4变压器【纯农排变】,温家佐西变压器,潘家营排灌1变压器【纯农排变】,老王庄东变压器,龙湾排灌3变压器【纯农排变】,西垡头排灌1变压器【纯农排变】,潘家营南,义合庄排灌2变压器【纯农排变】,朱皮营变压器,朱皮营排灌4变压器【纯农排变】,高碑店市绿雪草种销售有限公司,辛村西南柱上变压器,双合盛养殖有限责任公司,车屯北变压器,彦士垡排灌8变压器【纯农排变】,朱皮营排灌2变压器【纯农排变】,车屯排灌1变压器【纯农排变】,龙湾排灌4变压器【纯农排变】,河头排灌1变压器【纯农排变】,彦士垡排灌6变压器【纯农排变】,于庄东变压器,南龙湾2变压器,河头南台变压器,龙湾排灌2变压器【纯农排变】,车屯南2变压器,龙湾排灌5变压器【纯农排变】,老王庄北变压器,老王庄变压器,西垡头排灌2变压器【纯农排变】,于庄变压器,闫家营变压器,河头东北变压器,河头西变压器,彦士垡排灌5变压器【纯农排变】,东未屯砖厂,辛村排灌1变压器【纯农排变】,辛村排灌2变压器【纯农排变】,车屯东南变压器,朱皮营排灌3变压器【纯农排变】,温家佐东变压器,善巨庄变压器,温家佐混用变压器,义合庄排灌1变压器【纯农排变】,善巨庄东变压器,老王庄南变压器,潘家营西变压器,朱皮营排灌1变压器【纯农排变】,辛村南变压器,彦士垡排灌7变压器【纯农排变】,龙湾南变压器,龙湾南2变压器,高碑店市必拓金属制品加工有限公司,龙湾北变压器,于庄市场变压器,东垡头排灌变压器【纯农排变】,河头排灌3变压器【纯农排变】,西垡头变压器","poweroffReason":"【停电原因】由于线路改造导致３５ＫＶ方官变电站１０ＫＶ车屯５１５线路０３号断路器以下停电 【变更送电】无 【发布渠道】高碑店市高碑店电视台（１１月６日０８时至１１月１４日１８时之间）屏幕上方滚动","powerTime":"2019-11-15 17:33:37","powerComm":"已送电","subsNo":"","lineNo":"","tgNo":"","tgName":null,"infoStatus":"1","orgName":"国网高碑店市供电公司","typeName":null,"infoStatusName":null,"dateDay":null,"orgNos":null,"nowTime":null,"countyName":null,"streetName":null,"villageName":null,"roadName":null,"communityName":null,"tranName":null,"sdLineName":null,"cityCode":"1340612","cityName":"国网高碑店市供电公司","provinceCode":null,"stopTime":"2019-11-15 18:00:00","powerType":"全部","powerOffArea":"【分支停电】停中国人民解放军93498部队78分队-,西垡头排灌5变压器【纯农排变】,河头排灌2变压器【纯农排变】,潘家营排灌2变压器【纯农排变】,东垡头变压器,潘家营西北变压器,西垡头排灌3变压器【纯农排变】,潘家营变压器,彦士垡北变压器,车屯南变压器,西垡头东北变压器,闫家营排灌1变压器【纯农排变】,高碑店市肖官营乡东魏隆基小学变压器,车屯排灌3变压器【纯农排变】,高碑店市肖官营隆丰清洁用品商贸经营部变压器,仁达养殖公司,彦士垡排灌2变压器【纯农排变】,义合庄西变压器,朱皮营排灌5变压器【纯农排变】,赵晨慧变压器,温家佐排灌3变压器【纯农排变】,辛村北台变压器,龙湾市场变压器,温家佐排灌1变压器【纯农排变】,义合庄东变压器,西垡头排灌4变压器【纯农排变】,温家佐西变压器,潘家营排灌1变压器【纯农排变】,老王庄东变压器,龙湾排灌3变压器【纯农排变】,西垡头排灌1变压器【纯农排变】,潘家营南,义合庄排灌2变压器【纯农排变】,朱皮营变压器,朱皮营排灌4变压器【纯农排变】,高碑店市绿雪草种销售有限公司,辛村西南柱上变压器,双合盛养殖有限责任公司,车屯北变压器,彦士垡排灌8变压器【纯农排变】,朱皮营排灌2变压器【纯农排变】,车屯排灌1变压器【纯农排变】,龙湾排灌4变压器【纯农排变】,河头排灌1变压器【纯农排变】,彦士垡排灌6变压器【纯农排变】,于庄东变压器,南龙湾2变压器,河头南台变压器,龙湾排灌2变压器【纯农排变】,车屯南2变压器,龙湾排灌5变压器【纯农排变】,老王庄北变压器,老王庄变压器,西垡头排灌2变压器【纯农排变】,于庄变压器,闫家营变压器,河头东北变压器,河头西变压器,彦士垡排灌5变压器【纯农排变】,东未屯砖厂,辛村排灌1变压器【纯农排变】,辛村排灌2变压器【纯农排变】,车屯东南变压器,朱皮营排灌3变压器【纯农排变】,温家佐东变压器,善巨庄变压器,温家佐混用变压器,义合庄排灌1变压器【纯农排变】,善巨庄东变压器,老王庄南变压器,潘家营西变压器,朱皮营排灌1变压器【纯农排变】,辛村南变压器,彦士垡排灌7变压器【纯农排变】,龙湾南变压器,龙湾南2变压器,高碑店市必拓金属制品加工有限公司,龙湾北变压器,于庄市场变压器,东垡头排灌变压器【纯农排变】,河头排灌3变压器【纯农排变】,西垡头变压器","powerOffReason":"【停电原因】由于线路改造导致３５ＫＶ方官变电站１０ＫＶ车屯５１５线路０３号断路器以下停电 【变更送电】无 【发布渠道】高碑店市高碑店电视台（１１月６日０８时至１１月１４日１８时之间）屏幕上方滚动","powerOffId":"2019110513000029"},{"poweroffId":2019110513000008,"sgpoweroffId":null,"subsName":"","lineName":"10kV515齐营线","pubTranName":"齐营综合7台区,刘佃庄综合9台区,刘佃庄综合8台区,西南庄综合3台区,正南庄综合4台区,齐营综合11台区,刘佃庄综合5台区,齐营农排3台区【纯农排变】,刘佃庄农排6台区【纯农排变】,正南庄综合8台区,正南庄农排2台区【纯农排变】,正南庄农排3台区【纯农排变】,西南庄农排1台区【纯农排变】,刘佃庄综合1台区,西南庄农排4台区【纯农排变】,正南庄综合9台区,刘佃庄综合7台区,齐营综合8台区,正南庄综合7台区,齐营综合12台区,齐营农排10台区【纯农排变】,刘佃庄农排3台区【纯农排变】,齐营综合6台区,正南庄综合6台区,西南庄综合7台区,齐营综合1台区,东口农排4台区【纯农排变】,刘佃庄综合2台区,正南庄综合1台区,正南庄综合5台区,东口综合20台区,齐营农排11台区【纯农排变】,齐营综合9台区,刘佃庄综合4台区,刘佃庄农排8台区【纯农排变】,刘佃庄综合六台区,刘佃庄综合10台区,齐营农排4台区【纯农排变】,正南庄农排4台区【纯农排变】,南口农排4台区【纯农排变】,正南庄综合3台区,齐营综合10台区,齐营综合3台区,齐营综合2台区,齐营综合5台区,","scope":"【影响街道/乡镇】鲍墟乡【高危重要客户】无【影响客户】齐营村、东口村、刘佃庄村、西南庄村、正南庄村、南口村、西口村","startTime":"2019-11-05 05:30:00","stopDate":"2019-11-05 08:00:00","orgNo":"1340616","typeCode":"其他临时停电","poweroffArea":"【全线路停电】停正南庄农排1台区【纯农排变】,齐营农排6台区【纯农排变】,刘佃庄综合六台区,正南庄农排4台区【纯农排变】,东口农排5台区【纯农排变】,刘佃庄综合4台区,东口农排8台区【纯农排变】,齐营综合12台区,刘佃庄综合5台区,正南庄农排2台区【纯农排变】,齐营综合9台区,刘佃庄农排4台区【纯农排变】,齐营综合1台区,正南庄综合2台区,刘佃庄农排1台区【纯农排变】,冷冻厂,刘佃庄农排6台区【纯农排变】,刘佃庄农排10台区【纯农排变】,紫玉养殖厂,齐营农排5台区【纯农排变】,齐营综合7台区,齐营综合10台区,齐营综合11台区,西南庄综合3台区,东口综合20台区,齐营综合8台区,西南庄农排1台区【纯农排变】,齐营农排4台区【纯农排变】,正南庄综合9台区,中口农排2台区【纯农排变】,齐营农排3台区【纯农排变】,正南庄农排3台区【纯农排变】,蠡县东口利兆特种养殖厂变压器,刘佃庄农排5台区【纯农排变】,蠡县东口绿丹蓝养殖场变压器,东口农排4台区【纯农排变】,正南庄综合6台区,齐营农排1台区【纯农排变】,正南庄综合1台区,正南庄综合4台区,东口农排10台区【纯农排变】,正南庄综合7台区,正南庄综合8台区,西南庄农排2台区【纯农排变】,正南庄综合5台区,齐营农排10台区【纯农排变】,齐营综合5台区,中国移动通信集团河北有限公司蠡县分公司刘佃庄村变压器,齐营农排2台区【纯农排变】,齐营农排11台区【纯农排变】,东口农排6台区【纯农排变】,刘佃庄综合9台区,东口农排9台区【纯农排变】,齐营农排12台区【纯农排变】,刘佃庄综合1台区,刘佃庄农排3台区【纯农排变】,东口农排7台区【纯农排变】,刘佃庄农排9台区【纯农排变】,刘佃庄农排2台区【纯农排变】,东口地,齐营农排13台区【纯农排变】,蠡县东口第二饲养厂变压器,西南庄农排4台区【纯农排变】,刘佃庄综合8台区,刘佃庄农排8台区【纯农排变】,南口农排4台区【纯农排变】,齐营综合4台区,刘佃庄综合2台区,中口农排3台区【纯农排变】,齐营综合6台区,刘佃庄农排7台区【纯农排变】,刘佃庄综合7台区,正南庄综合3台区,刘佃庄综合10台区,蠡县东口第一养殖厂变压器,南口农排5台区【纯农排变】,南口农排2台区【纯农排变】,齐营农排8台区【纯农排变】,西南庄农排3台区【纯农排变】,齐营农排9台区【纯农排变】,齐营综合2台区,齐营农排7台区【纯农排变】,中国石油天然气股份有限公司华北油田分公司,西南庄综合7台区,齐营综合3台区,东口农排2台区【纯农排变】,南口农排3台区【纯农排变】,东口农排3台区【纯农排变】","poweroffReason":"【停电原因】由于线夹接虚过热，需停电进行紧急消缺导致３５ＫＶ鲍墟变电站１０ＫＶ齐营５１５线路全线停电【变更送电】无【发布渠道】通过９５５９８发布","powerTime":"2019-11-05 07:11:47","powerComm":"已送电","subsNo":"","lineNo":"","tgNo":"","tgName":null,"infoStatus":"1","orgName":"国网蠡县供电公司","typeName":null,"infoStatusName":null,"dateDay":null,"orgNos":null,"nowTime":null,"countyName":null,"streetName":null,"villageName":null,"roadName":null,"communityName":null,"tranName":null,"sdLineName":null,"cityCode":"1340616","cityName":"国网蠡县供电公司","provinceCode":null,"stopTime":"2019-11-05 08:00:00","powerType":"全部","powerOffArea":"【全线路停电】停正南庄农排1台区【纯农排变】,齐营农排6台区【纯农排变】,刘佃庄综合六台区,正南庄农排4台区【纯农排变】,东口农排5台区【纯农排变】,刘佃庄综合4台区,东口农排8台区【纯农排变】,齐营综合12台区,刘佃庄综合5台区,正南庄农排2台区【纯农排变】,齐营综合9台区,刘佃庄农排4台区【纯农排变】,齐营综合1台区,正南庄综合2台区,刘佃庄农排1台区【纯农排变】,冷冻厂,刘佃庄农排6台区【纯农排变】,刘佃庄农排10台区【纯农排变】,紫玉养殖厂,齐营农排5台区【纯农排变】,齐营综合7台区,齐营综合10台区,齐营综合11台区,西南庄综合3台区,东口综合20台区,齐营综合8台区,西南庄农排1台区【纯农排变】,齐营农排4台区【纯农排变】,正南庄综合9台区,中口农排2台区【纯农排变】,齐营农排3台区【纯农排变】,正南庄农排3台区【纯农排变】,蠡县东口利兆特种养殖厂变压器,刘佃庄农排5台区【纯农排变】,蠡县东口绿丹蓝养殖场变压器,东口农排4台区【纯农排变】,正南庄综合6台区,齐营农排1台区【纯农排变】,正南庄综合1台区,正南庄综合4台区,东口农排10台区【纯农排变】,正南庄综合7台区,正南庄综合8台区,西南庄农排2台区【纯农排变】,正南庄综合5台区,齐营农排10台区【纯农排变】,齐营综合5台区,中国移动通信集团河北有限公司蠡县分公司刘佃庄村变压器,齐营农排2台区【纯农排变】,齐营农排11台区【纯农排变】,东口农排6台区【纯农排变】,刘佃庄综合9台区,东口农排9台区【纯农排变】,齐营农排12台区【纯农排变】,刘佃庄综合1台区,刘佃庄农排3台区【纯农排变】,东口农排7台区【纯农排变】,刘佃庄农排9台区【纯农排变】,刘佃庄农排2台区【纯农排变】,东口地,齐营农排13台区【纯农排变】,蠡县东口第二饲养厂变压器,西南庄农排4台区【纯农排变】,刘佃庄综合8台区,刘佃庄农排8台区【纯农排变】,南口农排4台区【纯农排变】,齐营综合4台区,刘佃庄综合2台区,中口农排3台区【纯农排变】,齐营综合6台区,刘佃庄农排7台区【纯农排变】,刘佃庄综合7台区,正南庄综合3台区,刘佃庄综合10台区,蠡县东口第一养殖厂变压器,南口农排5台区【纯农排变】,南口农排2台区【纯农排变】,齐营农排8台区【纯农排变】,西南庄农排3台区【纯农排变】,齐营农排9台区【纯农排变】,齐营综合2台区,齐营农排7台区【纯农排变】,中国石油天然气股份有限公司华北油田分公司,西南庄综合7台区,齐营综合3台区,东口农排2台区【纯农排变】,南口农排3台区【纯农排变】,东口农排3台区【纯农排变】","powerOffReason":"【停电原因】由于线夹接虚过热，需停电进行紧急消缺导致３５ＫＶ鲍墟变电站１０ＫＶ齐营５１５线路全线停电【变更送电】无【发布渠道】通过９５５９８发布","powerOffId":"2019110513000008"},{"poweroffId":2019110513000006,"sgpoweroffId":null,"subsName":"","lineName":"10kV516市场线","pubTranName":"阳光嘉园综合5台区,市场综合1台区,市场综合5出线间隔配电变压器,阳光嘉园综合4台区,阳光嘉园综合2台区,阳光嘉园综合1台区,市场综合4台区,阳光嘉园综合6台区,市场综合2台区,市场综合3台区,阳光嘉园综合7台区,阳光嘉园综合3台区,","scope":"【影响街道/乡镇】鲍墟乡【高危重要客户】无【影响客户】东口市场、阳光嘉园","startTime":"2019-11-05 05:30:00","stopDate":"2019-11-05 08:00:00","orgNo":"1340616","typeCode":"其他临时停电","poweroffArea":"【全线路停电】停友福,市场综合5出线间隔配电变压器,阳光嘉园综合1台区,阳光嘉园综合4台区,市场综合2台区,阳光嘉园综合6台区,市场综合4台区,阳光嘉园综合5台区,市场综合3台区,阳光嘉园综合3台区,友福皮毛有限公司变压器,阳光嘉园综合2台区,阳光嘉园综合7台区,市场综合1台区","poweroffReason":"【停电原因】由于线夹接虚过热，需停电进行紧急消缺导致３５ＫＶ鲍墟变电站１０ＫＶ市场５１６线路全线停电【变更送电】无【发布渠道】通过９５５９８发布","powerTime":"2019-11-05 07:12:12","powerComm":"已送电","subsNo":"","lineNo":"","tgNo":"","tgName":null,"infoStatus":"1","orgName":"国网蠡县供电公司","typeName":null,"infoStatusName":null,"dateDay":null,"orgNos":null,"nowTime":null,"countyName":null,"streetName":null,"villageName":null,"roadName":null,"communityName":null,"tranName":null,"sdLineName":null,"cityCode":"1340616","cityName":"国网蠡县供电公司","provinceCode":null,"stopTime":"2019-11-05 08:00:00","powerType":"全部","powerOffArea":"【全线路停电】停友福,市场综合5出线间隔配电变压器,阳光嘉园综合1台区,阳光嘉园综合4台区,市场综合2台区,阳光嘉园综合6台区,市场综合4台区,阳光嘉园综合5台区,市场综合3台区,阳光嘉园综合3台区,友福皮毛有限公司变压器,阳光嘉园综合2台区,阳光嘉园综合7台区,市场综合1台区","powerOffReason":"【停电原因】由于线夹接虚过热，需停电进行紧急消缺导致３５ＫＶ鲍墟变电站１０ＫＶ市场５１６线路全线停电【变更送电】无【发布渠道】通过９５５９８发布","powerOffId":"2019110513000006"},{"poweroffId":2019110513000004,"sgpoweroffId":null,"subsName":"","lineName":"中旺517","pubTranName":"崔中旺西变压器,立各庄东变压器,立各庄北变压器,立各庄村内变压器,乔刘凡南变压器,乔五变压器,李中旺村二变压器【纯农排变】,李中旺地三变压器【纯农排变】,立各庄东2变压器,崔中旺地变压器【纯农排变】,立各庄西北变压器,立各庄西明变压器,李中旺村变压器,【学校取暖】乔刘凡中学公变,台中旺南变压器,台中旺内变压器,立各庄西南变压器,立各庄东北变压器,","scope":"【影响街道/乡镇】军城办事处 【高危重要客户】无 【影响客户】崔中旺村、乔刘凡村、李中旺村、台中旺村、周中旺村、立各庄村、６６３３６部队靶场、６６３３６部队炮团、６６３３６部队营内、昌泰汽车、崔中旺砖厂、崔中旺面粉厂、丰和商贸、何宝良、华神煤炭、环亚泵业、嘉晟幕墙、金盾水泥厂、立各庄面粉厂、吕永兴、模星钢模板、乔刘凡面粉厂、润洋建材、商混搅拌站、盛源建材经营门市部、台中旺砖厂、王喜彬、王宪中、新源加油站、亚腾达橡塑、乙炔气厂、伟宸路桥建设有限公司、鑫耕农机农民专业合作社、立各庄鑫涛泡沫包装厂、硕农家庭农场、华冶机械、崔中旺明业养殖场","startTime":"2019-11-05 02:55:52","stopDate":"2019-11-05 18:00:00","orgNo":"1340612","typeCode":"电网故障停限电","poweroffArea":"【全线路停电】停立各庄东2变压器,崔中旺地变压器【纯农排变】,乔刘凡面粉厂,崔中旺砖厂,高碑店市园林绿化管理局,台中旺排灌变压器【纯农排变】,周中旺新变压器,66336部队营内变压器,0585424433-高碑店市路灯管理办公室-专变-125093144-高碑店市路灯管理办公室变压器,立各庄西北变压器,0585424794-高碑店市路灯管理办公室-专变-125093139-高碑店市路灯管理办公室变压器,崔中旺东变压器,何顺（催中旺砖厂）变压器,王献忠变压器,李中旺内变压器,立各庄西明变压器,高碑店市鑫耕农农机农民专业合作社,高碑店市德瑞龙建筑施工废弃物治理有限公司,高碑店市伟宸路桥建设有限公司变压器,李中旺村变压器,立各庄地变压器,【学校取暖】乔刘凡中学公变,刘国斌,中国人民解放军66336部队变压器,高碑店市硕农家庭农场,高碑店市环亚泵业有限责任公司变压器,高碑店市华治机械有限公司变压器,乔五变压器,李中旺村二变压器【纯农排变】,崔中旺面粉厂,乔刘凡西变压器,立各庄南变压器,增利水泥厂,李中旺地三变压器【纯农排变】,乔刘凡东南变压器,高碑店市迎君玻璃有限公司,王喜彬变压器,崔中旺西变压器,周中旺内变压器,立各庄东北变压器,润洋建材有限公司,李中旺南变压器,高碑店市金盾水泥厂2,吕永兴变压器,66336部队营内,高碑店市立各庄鑫涛泡沫包装厂变压器,李中旺地变压器【纯农排变】,0585431288-高碑店市路灯管理办公室-专变-125093135-高碑店市路灯管理办公室变压器,台中旺南变压器,台中旺内变压器,台中旺地变压器【纯农排变】,乔四变压器,立各庄西南变压器,立各庄东变压器,立各庄面粉厂,乔刘凡西2变压器,河北羽佳鑫盛玻璃有限公司,河北羽佳鑫盛玻璃有限公司2,乔刘凡东变压器,新源加油站,乔刘凡南变压器,高碑店市军城办事处台中旺村,高碑店市丰和商贸有限公司变压器,立各庄北变压器,乙炔气厂,立各庄东南变压器,亚腾达橡塑,0387435932-高碑店市高碑店金盾水泥厂-专变-45273822-高碑店市金盾水泥厂,增利水泥厂2,河北君安越翔玻璃幕墙工程有限公司,高碑店市乔刘凡军德液压设备厂,金桥汽车,台中旺西变压器,立各庄村内变压器,高碑店市华神煤炭贸易有限公限公司,高碑店模星钢模板制造有限公司变压器","poweroffReason":"【停电原因】由于汽车撞断电杆导致２２０ＫＶ高碑店变电站１０ＫＶ中旺５１７线路全线停电 【变更送电】因工作量大原因，送电时间由１６：００变更为１８：００ 【发布渠道】通过９５５９８发布","powerTime":"2019-11-05 17:28:49","powerComm":"已送电","subsNo":"","lineNo":"","tgNo":"","tgName":null,"infoStatus":"1","orgName":"国网高碑店市供电公司","typeName":null,"infoStatusName":null,"dateDay":null,"orgNos":null,"nowTime":null,"countyName":null,"streetName":null,"villageName":null,"roadName":null,"communityName":null,"tranName":null,"sdLineName":null,"cityCode":"1340612","cityName":"国网高碑店市供电公司","provinceCode":null,"stopTime":"2019-11-05 18:00:00","powerType":"全部","powerOffArea":"【全线路停电】停立各庄东2变压器,崔中旺地变压器【纯农排变】,乔刘凡面粉厂,崔中旺砖厂,高碑店市园林绿化管理局,台中旺排灌变压器【纯农排变】,周中旺新变压器,66336部队营内变压器,0585424433-高碑店市路灯管理办公室-专变-125093144-高碑店市路灯管理办公室变压器,立各庄西北变压器,0585424794-高碑店市路灯管理办公室-专变-125093139-高碑店市路灯管理办公室变压器,崔中旺东变压器,何顺（催中旺砖厂）变压器,王献忠变压器,李中旺内变压器,立各庄西明变压器,高碑店市鑫耕农农机农民专业合作社,高碑店市德瑞龙建筑施工废弃物治理有限公司,高碑店市伟宸路桥建设有限公司变压器,李中旺村变压器,立各庄地变压器,【学校取暖】乔刘凡中学公变,刘国斌,中国人民解放军66336部队变压器,高碑店市硕农家庭农场,高碑店市环亚泵业有限责任公司变压器,高碑店市华治机械有限公司变压器,乔五变压器,李中旺村二变压器【纯农排变】,崔中旺面粉厂,乔刘凡西变压器,立各庄南变压器,增利水泥厂,李中旺地三变压器【纯农排变】,乔刘凡东南变压器,高碑店市迎君玻璃有限公司,王喜彬变压器,崔中旺西变压器,周中旺内变压器,立各庄东北变压器,润洋建材有限公司,李中旺南变压器,高碑店市金盾水泥厂2,吕永兴变压器,66336部队营内,高碑店市立各庄鑫涛泡沫包装厂变压器,李中旺地变压器【纯农排变】,0585431288-高碑店市路灯管理办公室-专变-125093135-高碑店市路灯管理办公室变压器,台中旺南变压器,台中旺内变压器,台中旺地变压器【纯农排变】,乔四变压器,立各庄西南变压器,立各庄东变压器,立各庄面粉厂,乔刘凡西2变压器,河北羽佳鑫盛玻璃有限公司,河北羽佳鑫盛玻璃有限公司2,乔刘凡东变压器,新源加油站,乔刘凡南变压器,高碑店市军城办事处台中旺村,高碑店市丰和商贸有限公司变压器,立各庄北变压器,乙炔气厂,立各庄东南变压器,亚腾达橡塑,0387435932-高碑店市高碑店金盾水泥厂-专变-45273822-高碑店市金盾水泥厂,增利水泥厂2,河北君安越翔玻璃幕墙工程有限公司,高碑店市乔刘凡军德液压设备厂,金桥汽车,台中旺西变压器,立各庄村内变压器,高碑店市华神煤炭贸易有限公限公司,高碑店模星钢模板制造有限公司变压器","powerOffReason":"【停电原因】由于汽车撞断电杆导致２２０ＫＶ高碑店变电站１０ＫＶ中旺５１７线路全线停电 【变更送电】因工作量大原因，送电时间由１６：００变更为１８：００ 【发布渠道】通过９５５９８发布","powerOffId":"2019110513000004"},{"poweroffId":2019110421000072,"sgpoweroffId":null,"subsName":"","lineName":"10kV崔闸站553线路","pubTranName":"10kVB668配电室B668配电变压器,","scope":"【影响街道/乡镇】新市区新市场街 【高危重要客户】无 【影响客户】新市场街60号","startTime":"2019-11-05 08:30:00","stopDate":"2019-11-05 10:30:00","orgNo":"13406","typeCode":"其他临时停电","poweroffArea":"【单台区停电】停10kVB668配电室B668配电变压器","poweroffReason":"【停电原因】由于紧急消缺导致１０ＫＶ崔闸变电站５５３线路Ｂ６６８公变台区停电【变更送电】因抢修进度加快，原定１２:００送电现计划１０:３０送电【发布渠道】通过９５５９８发布","powerTime":"2019-11-05 10:12:30","powerComm":"已送电","subsNo":"","lineNo":"","tgNo":"","tgName":null,"infoStatus":"1","orgName":"保定供电公司","typeName":null,"infoStatusName":null,"dateDay":null,"orgNos":null,"nowTime":null,"countyName":null,"streetName":null,"villageName":null,"roadName":null,"communityName":null,"tranName":null,"sdLineName":null,"cityCode":"13406","cityName":"保定供电公司","provinceCode":null,"stopTime":"2019-11-05 10:30:00","powerType":"全部","powerOffArea":"【单台区停电】停10kVB668配电室B668配电变压器","powerOffReason":"【停电原因】由于紧急消缺导致１０ＫＶ崔闸变电站５５３线路Ｂ６６８公变台区停电【变更送电】因抢修进度加快，原定１２:００送电现计划１０:３０送电【发布渠道】通过９５５９８发布","powerOffId":"2019110421000072"},{"poweroffId":2019110421000044,"sgpoweroffId":null,"subsName":"","lineName":"10kV东北郊站523线路","pubTranName":"C645柱上变压器,C549,","scope":"【影响街道/乡镇】莲池区、东金庄乡 【高危重要客户】无 【影响客户】东金庄村","startTime":"2019-11-13 07:00:00","stopDate":"2019-11-13 11:45:00","orgNo":"13406","typeCode":"计划停电","poweroffArea":"【分支停电】停C549,C645柱上变压器","poweroffReason":"【停电原因】由于供电设备临时检修导致10KV东北郊变电站523线路东风路HK-23环网柜3号间隔出线HK-25环网柜4号间隔出线4号北分支开关以下停电【变更送电】因抢修进度加快，原定16：00送电现计划11：45送电【发布渠道】通过95598发布","powerTime":"2019-11-13 11:36:04","powerComm":"已送电","subsNo":"","lineNo":"","tgNo":"","tgName":null,"infoStatus":"1","orgName":"保定供电公司","typeName":null,"infoStatusName":null,"dateDay":null,"orgNos":null,"nowTime":null,"countyName":null,"streetName":null,"villageName":null,"roadName":null,"communityName":null,"tranName":null,"sdLineName":null,"cityCode":"13406","cityName":"保定供电公司","provinceCode":null,"stopTime":"2019-11-13 11:45:00","powerType":"全部","powerOffArea":"【分支停电】停C549,C645柱上变压器","powerOffReason":"【停电原因】由于供电设备临时检修导致10KV东北郊变电站523线路东风路HK-23环网柜3号间隔出线HK-25环网柜4号间隔出线4号北分支开关以下停电【变更送电】因抢修进度加快，原定16：00送电现计划11：45送电【发布渠道】通过95598发布","powerOffId":"2019110421000044"},{"poweroffId":2019110421000040,"sgpoweroffId":null,"subsName":"","lineName":"10kV东北郊站523线路","pubTranName":"C170柱上变压器,","scope":"【影响街道/乡镇】莲池区、东金庄乡 【高危重要客户】无 【影响客户】东金庄村","startTime":"2019-11-13 07:00:00","stopDate":"2019-11-13 11:30:00","orgNo":"13406","typeCode":"计划停电","poweroffArea":"【单台区停电】停C170柱上变压器","poweroffReason":"【停电原因】由于供电设备临时检修导致１０ＫＶ东北郊变电站５２３线路Ｃ１７０公变台区停电【变更送电】因抢修进度加快，原定１６：００送电现计划１１：３０送电【发布渠道】保定市保定有线电视台（１１月０５日２０时１５分至２１时４５分之间）屏幕上滚动","powerTime":"2019-11-13 11:19:41","powerComm":"已送电","subsNo":"","lineNo":"","tgNo":"","tgName":null,"infoStatus":"1","orgName":"保定供电公司","typeName":null,"infoStatusName":null,"dateDay":null,"orgNos":null,"nowTime":null,"countyName":null,"streetName":null,"villageName":null,"roadName":null,"communityName":null,"tranName":null,"sdLineName":null,"cityCode":"13406","cityName":"保定供电公司","provinceCode":null,"stopTime":"2019-11-13 11:30:00","powerType":"全部","powerOffArea":"【单台区停电】停C170柱上变压器","powerOffReason":"【停电原因】由于供电设备临时检修导致１０ＫＶ东北郊变电站５２３线路Ｃ１７０公变台区停电【变更送电】因抢修进度加快，原定１６：００送电现计划１１：３０送电【发布渠道】保定市保定有线电视台（１１月０５日２０时１５分至２１时４５分之间）屏幕上滚动","powerOffId":"2019110421000040"},{"poweroffId":2019110421000037,"sgpoweroffId":null,"subsName":"","lineName":"10kV江城站532线路","pubTranName":"B1770柱上变压器,H0055柱上变压器,","scope":"【影响街道/乡镇】莲池区、天威西路 【高危重要客户】无 【影响客户】工业站平房、华强宿舍","startTime":"2019-11-13 07:30:00","stopDate":"2019-11-13 11:30:00","orgNo":"13406","typeCode":"计划停电","poweroffArea":"【分支停电】停B1770柱上变压器;H0055柱上变压器","poweroffReason":"【停电原因】由于供电设备临时检修导致１０ＫＶ江城变电站５３２线路天威路１９７号杆北分支１号杆高压刀闸以下停电【变更送电】无【发布渠道】保定市保定有线电视台（１１月０５日２０时１５分至２１时４５分之间）屏幕上滚动","powerTime":"2019-11-13 10:39:34","powerComm":"已送电","subsNo":"","lineNo":"","tgNo":"","tgName":null,"infoStatus":"1","orgName":"保定供电公司","typeName":null,"infoStatusName":null,"dateDay":null,"orgNos":null,"nowTime":null,"countyName":null,"streetName":null,"villageName":null,"roadName":null,"communityName":null,"tranName":null,"sdLineName":null,"cityCode":"13406","cityName":"保定供电公司","provinceCode":null,"stopTime":"2019-11-13 11:30:00","powerType":"全部","powerOffArea":"【分支停电】停B1770柱上变压器;H0055柱上变压器","powerOffReason":"【停电原因】由于供电设备临时检修导致１０ＫＶ江城变电站５３２线路天威路１９７号杆北分支１号杆高压刀闸以下停电【变更送电】无【发布渠道】保定市保定有线电视台（１１月０５日２０时１５分至２１时４５分之间）屏幕上滚动","powerOffId":"2019110421000037"}],"pageModel":{"pageNow":407,"totalCount":10973,"totalPage":1098,"tableRows":0,"pageCount":10,"beginCount":4060},"isExperi":"1"}