{"message":"","today":"2020-06-15","seleList":[{"poweroffId":2019110421000034,"sgpoweroffId":null,"subsName":"","lineName":"10kV韩村站526线路","pubTranName":"0693736880-保定市儿童医院-配电室变压器03-237524061,0693736880-保定市儿童医院-配电室变压器04-237524056,","scope":"【影响街道/乡镇】莲池区、金砖路 【高危重要客户】儿童医院 【影响客户】大唐热力","startTime":"2019-11-13 07:30:00","stopDate":"2019-11-13 16:00:00","orgNo":"13406","typeCode":"计划停电","poweroffArea":"【分支停电】停0693736880-保定市儿童医院-配电室变压器03-237524061,0693736880-保定市儿童医院-配电室变压器04-237524056","poweroffReason":"【停电原因】由于供电设备临时检修导致１０ＫＶ韩村变电站５２６线路金专路ＨＫ-０３环网柜５号间隔开关以下停电【变更送电】无【发布渠道】保定市保定有线电视台（１１月６日２０时１５分至２１时４５分之间）屏幕上滚动","powerTime":"2019-11-13 15:05:14","powerComm":"已送电","subsNo":"","lineNo":"","tgNo":"","tgName":null,"infoStatus":"1","orgName":"保定供电公司","typeName":null,"infoStatusName":null,"dateDay":null,"orgNos":null,"nowTime":null,"countyName":null,"streetName":null,"villageName":null,"roadName":null,"communityName":null,"tranName":null,"sdLineName":null,"cityCode":"13406","cityName":"保定供电公司","provinceCode":null,"stopTime":"2019-11-13 16:00:00","powerType":"全部","powerOffArea":"【分支停电】停0693736880-保定市儿童医院-配电室变压器03-237524061,0693736880-保定市儿童医院-配电室变压器04-237524056","powerOffReason":"【停电原因】由于供电设备临时检修导致１０ＫＶ韩村变电站５２６线路金专路ＨＫ-０３环网柜５号间隔开关以下停电【变更送电】无【发布渠道】保定市保定有线电视台（１１月６日２０时１５分至２１时４５分之间）屏幕上滚动","powerOffId":"2019110421000034"},{"poweroffId":2019110421000031,"sgpoweroffId":null,"subsName":"","lineName":"10kV鲁岗站518线路","pubTranName":"B1213柱上变压器,","scope":"【影响街道/乡镇】纸厂路 【高危重要客户】无 【影响客户】小车","startTime":"2019-11-04 11:36:17","stopDate":"2019-11-04 12:30:58","orgNo":"13406","typeCode":"电网故障停限电","poweroffArea":"【单台区停电】停B1213柱上变压器","poweroffReason":"【停电原因】由于低压保险片烧导致１０ＫＶ鲁岗变电站５１８线路Ｂ１２１３公变台区停电【变更送电】无【发布渠道】通过９５５９８发布","powerTime":"2019-11-04 11:52:17","powerComm":"已送电","subsNo":"","lineNo":"","tgNo":"","tgName":null,"infoStatus":"1","orgName":"保定供电公司","typeName":null,"infoStatusName":null,"dateDay":null,"orgNos":null,"nowTime":null,"countyName":null,"streetName":null,"villageName":null,"roadName":null,"communityName":null,"tranName":null,"sdLineName":null,"cityCode":"13406","cityName":"保定供电公司","provinceCode":null,"stopTime":"2019-11-04 12:30:58","powerType":"全部","powerOffArea":"【单台区停电】停B1213柱上变压器","powerOffReason":"【停电原因】由于低压保险片烧导致１０ＫＶ鲁岗变电站５１８线路Ｂ１２１３公变台区停电【变更送电】无【发布渠道】通过９５５９８发布","powerOffId":"2019110421000031"},{"poweroffId":2019110421000018,"sgpoweroffId":null,"subsName":"","lineName":"10kV鲁岗站531线路","pubTranName":"C634柱上变压器,C210柱上变压器,C247柱上变压器,C3037柱上变压器,C344柱上变压器,C348柱上变压器,C510柱上变压器,C533柱上变压器,C563,","scope":"【影响街道/乡镇】竞秀区、大马坊乡 【高危重要客户】无 【影响客户】北奇、高屯、道口村、东营村、宋贾、相庄村　","startTime":"2019-11-13 07:30:00","stopDate":"2019-11-13 12:30:00","orgNo":"13406","typeCode":"计划停电","poweroffArea":"【分支停电】停C210柱上变压器,C247柱上变压器,C3037柱上变压器,C344柱上变压器,C348柱上变压器,C510柱上变压器,C533柱上变压器,C563,C634柱上变压器","poweroffReason":"【停电原因】由于供电设备临时检修导致１０ＫＶ鲁岗变电站５３１线路出线１４８杆分支１５杆开关以下停电【变更送电】因抢修进度加快，原定１７:３０送电现计划１２:３０送电【发布渠道】保定市保定有线电视台（１１月５日２０时１５分至２１时４５分之间）屏幕上滚动","powerTime":"2019-11-13 12:17:56","powerComm":"已送电","subsNo":"","lineNo":"","tgNo":"","tgName":null,"infoStatus":"1","orgName":"保定供电公司","typeName":null,"infoStatusName":null,"dateDay":null,"orgNos":null,"nowTime":null,"countyName":null,"streetName":null,"villageName":null,"roadName":null,"communityName":null,"tranName":null,"sdLineName":null,"cityCode":"13406","cityName":"保定供电公司","provinceCode":null,"stopTime":"2019-11-13 12:30:00","powerType":"全部","powerOffArea":"【分支停电】停C210柱上变压器,C247柱上变压器,C3037柱上变压器,C344柱上变压器,C348柱上变压器,C510柱上变压器,C533柱上变压器,C563,C634柱上变压器","powerOffReason":"【停电原因】由于供电设备临时检修导致１０ＫＶ鲁岗变电站５３１线路出线１４８杆分支１５杆开关以下停电【变更送电】因抢修进度加快，原定１７:３０送电现计划１２:３０送电【发布渠道】保定市保定有线电视台（１１月５日２０时１５分至２１时４５分之间）屏幕上滚动","powerOffId":"2019110421000018"},{"poweroffId":2019110413000392,"sgpoweroffId":null,"subsName":"","lineName":"10kV良寨线573","pubTranName":"良寨小学,1良寨内11,1良寨内15,1良寨内6,1良寨内13,1良寨内18,1良寨内10,1良寨内5,1良寨内16,1良寨内8,1良寨内14,1良寨内17,1良寨内7,1良寨内1,1良寨内12,1良寨内4,1良寨内2,","scope":"【影响街道/乡镇】温仁乡 【高危重要客户】无 【影响客户】良寨","startTime":"2019-11-04 19:26:04","stopDate":"2019-11-04 23:00:00","orgNo":"1340618","typeCode":"电网故障停限电","poweroffArea":"【全线路停电】停0387500908-清苑县温仁镇良寨利民面粉厂-专变-45321393-清苑县温仁镇良寨利民面粉厂,0387500373-良寨张盼峰-专变-45321291-良寨张盼峰,2良寨外12【纯农排变】,良寨小学,1良寨内11,2良寨外6【纯农排变】,1良寨内15,1良寨内6,2良寨外7【纯农排变】,1良寨内18,1良寨内10,2良寨外14【纯农排变】,2良寨外13【纯农排变】,1良寨内5,0547364926-清苑县良寨村四通奶牛养殖场-专变-48023293-清苑县良寨村四通养殖场,0387500924-清苑县良寨天成食用菌种植园-专变-125986266-清苑县良寨天成食用菌种植园,1良寨内16,2良寨外5【纯农排变】,0653630698-保定市恒锦丝线有限公司-专变-183542902-保定市恒锦丝线有限公司,0605484175-清苑县良寨平安板厂-专变-127238002-清苑县良寨平安板厂,1良寨内8,1良寨内14,1良寨内17,2良寨外8【纯农排变】,2良寨外10【纯农排变】,2良寨外11【纯农排变】,1良寨内7,1良寨内1,1良寨内12,2良寨外16【纯农排变】,2良寨外9【纯农排变】,1良寨内4,1良寨内2,1良寨内13","poweroffReason":"【停电原因】由于主干１１０号杆分支４号杆恒锦纺织变压器烧毁导致１１０ＫＶ温仁变电站１０ＫＶ良寨线５７３线路全线停电 【变更送电】因抢修进度加快原因，送电时间由２３：５９变更为２３：００ 【发布渠道】通过９５５９８发布","powerTime":"2019-11-04 22:25:00","powerComm":"武建军通知已送电","subsNo":"","lineNo":"","tgNo":"","tgName":null,"infoStatus":"1","orgName":"国网清苑县供电公司","typeName":null,"infoStatusName":null,"dateDay":null,"orgNos":null,"nowTime":null,"countyName":null,"streetName":null,"villageName":null,"roadName":null,"communityName":null,"tranName":null,"sdLineName":null,"cityCode":"1340618","cityName":"国网清苑县供电公司","provinceCode":null,"stopTime":"2019-11-04 23:00:00","powerType":"全部","powerOffArea":"【全线路停电】停0387500908-清苑县温仁镇良寨利民面粉厂-专变-45321393-清苑县温仁镇良寨利民面粉厂,0387500373-良寨张盼峰-专变-45321291-良寨张盼峰,2良寨外12【纯农排变】,良寨小学,1良寨内11,2良寨外6【纯农排变】,1良寨内15,1良寨内6,2良寨外7【纯农排变】,1良寨内18,1良寨内10,2良寨外14【纯农排变】,2良寨外13【纯农排变】,1良寨内5,0547364926-清苑县良寨村四通奶牛养殖场-专变-48023293-清苑县良寨村四通养殖场,0387500924-清苑县良寨天成食用菌种植园-专变-125986266-清苑县良寨天成食用菌种植园,1良寨内16,2良寨外5【纯农排变】,0653630698-保定市恒锦丝线有限公司-专变-183542902-保定市恒锦丝线有限公司,0605484175-清苑县良寨平安板厂-专变-127238002-清苑县良寨平安板厂,1良寨内8,1良寨内14,1良寨内17,2良寨外8【纯农排变】,2良寨外10【纯农排变】,2良寨外11【纯农排变】,1良寨内7,1良寨内1,1良寨内12,2良寨外16【纯农排变】,2良寨外9【纯农排变】,1良寨内4,1良寨内2,1良寨内13","powerOffReason":"【停电原因】由于主干１１０号杆分支４号杆恒锦纺织变压器烧毁导致１１０ＫＶ温仁变电站１０ＫＶ良寨线５７３线路全线停电 【变更送电】因抢修进度加快原因，送电时间由２３：５９变更为２３：００ 【发布渠道】通过９５５９８发布","powerOffId":"2019110413000392"},{"poweroffId":2019110413000353,"sgpoweroffId":null,"subsName":"","lineName":"河图线510","pubTranName":"大赛村西南,大赛村北新增1号,高荆,大赛村西新增2号,大赛正南,大赛村内三坑,大赛村西新增3号,大赛村东新增1号,大赛野外新增9号,高荆村东新增3号,高荆村西北,高荆村西南,高荆村东新增,高荆正北,大赛大队,高荆村东新增2,高荆村东200,","scope":"【影响街道/乡镇】方顺桥乡 【高危重要客户】无 【影响客户】大赛、高荆、五里铺机井","startTime":"2019-11-13 05:30:00","stopDate":"2019-11-13 21:00:00","orgNo":"1340617","typeCode":"计划停电","poweroffArea":"【全线路停电】停大塞合线厂,兴隆面粉厂,高荆村西北,益民面粉厂,抄纸屯综合塑料厂,五里铺新增2号【纯农排变】,大赛村西新增2号,大塞堂新社,高荆村野外新增4号【纯农排变】,高井花厂,高荆村西村外【纯农排变】,高荆村野外新增5号【纯农排变】,高荆村东,大赛村东新增1号,大赛新增浇地1号【纯农排变】,大赛村蔬菜基地3号【纯农排变】,大塞稀土厂,高荆村西新增,高标准大赛1号【纯农排变】,大赛野外新增9号,高井村南,交警支队,高井精细化工,五里铺新增【纯农排变】,大赛大队,大赛正南,大赛村西南,高荆村野外新增3号【纯农排变】,高荆村西南,高荆村野外新增2号【纯农排变】,大赛村西新增3号,大赛村蔬菜基地新增1号【纯农排变】,高荆新增2号,大赛野外新增4号【纯农排变】,高井野外新增,国新塑料,高荆村东新增2,大赛野外新增6号【纯农排变】,大塞西,大赛野外新增5号【纯农排变】,高井桥西,大塞村,大赛村蔬菜基地新增2号【纯农排变】,大赛村,大赛村东北107国道,大赛新增8号【纯农排变】,大赛满常,大塞北50,金虎塑料厂,河北建设集团有限公司,井驿村,大赛村东2号,大赛东新增1号【纯农排变】,大赛村内三坑,五里铺村南,高荆村东200,高荆村野外新增1号【纯农排变】,高荆村东新增,高荆村北,大赛东新增2号【纯农排变】,大赛新增浇地2号【纯农排变】,高荆,高荆新增【纯农排变】,保阜高速公路,大塞东,大赛村北路东,大赛新增7号【纯农排变】,高荆新增1号,大塞南50,高荆村东新增3号,大赛村北新增1号,井义2片,五里铺（原砖厂）,0387480219-保定市天兴制衣有限公司-专变-45308254-冀开电力器材有限公司,大赛纸箱厂,0387480567-保定市满城县冀开电力器材有限公司-专变-45308097-冀开电力器材有限公司,大塞东南,孙增路养鸡场,金双雨养殖厂,高井榨油厂,保定氧化锌避雷器,高荆正北,大赛东新增3号【纯农排变】,光明塑料厂,长明塑料","poweroffReason":"【停电原因】由于线路检修导致２２０ＫＶ南郊变电站河图线５１０线路全线停电 【变更送电】因工作量大，送电时间由１７：４５变更为２１：００ 【发布渠道】满城县有线电视台（１１月４日１９：００－２０：００至１１月１２日１９：００－２０：００）屏幕上方滚动","powerTime":"2019-11-13 20:42:50","powerComm":"已送电","subsNo":"","lineNo":"","tgNo":"","tgName":null,"infoStatus":"1","orgName":"国网满城县供电公司","typeName":null,"infoStatusName":null,"dateDay":null,"orgNos":null,"nowTime":null,"countyName":null,"streetName":null,"villageName":null,"roadName":null,"communityName":null,"tranName":null,"sdLineName":null,"cityCode":"1340617","cityName":"国网满城县供电公司","provinceCode":null,"stopTime":"2019-11-13 21:00:00","powerType":"全部","powerOffArea":"【全线路停电】停大塞合线厂,兴隆面粉厂,高荆村西北,益民面粉厂,抄纸屯综合塑料厂,五里铺新增2号【纯农排变】,大赛村西新增2号,大塞堂新社,高荆村野外新增4号【纯农排变】,高井花厂,高荆村西村外【纯农排变】,高荆村野外新增5号【纯农排变】,高荆村东,大赛村东新增1号,大赛新增浇地1号【纯农排变】,大赛村蔬菜基地3号【纯农排变】,大塞稀土厂,高荆村西新增,高标准大赛1号【纯农排变】,大赛野外新增9号,高井村南,交警支队,高井精细化工,五里铺新增【纯农排变】,大赛大队,大赛正南,大赛村西南,高荆村野外新增3号【纯农排变】,高荆村西南,高荆村野外新增2号【纯农排变】,大赛村西新增3号,大赛村蔬菜基地新增1号【纯农排变】,高荆新增2号,大赛野外新增4号【纯农排变】,高井野外新增,国新塑料,高荆村东新增2,大赛野外新增6号【纯农排变】,大塞西,大赛野外新增5号【纯农排变】,高井桥西,大塞村,大赛村蔬菜基地新增2号【纯农排变】,大赛村,大赛村东北107国道,大赛新增8号【纯农排变】,大赛满常,大塞北50,金虎塑料厂,河北建设集团有限公司,井驿村,大赛村东2号,大赛东新增1号【纯农排变】,大赛村内三坑,五里铺村南,高荆村东200,高荆村野外新增1号【纯农排变】,高荆村东新增,高荆村北,大赛东新增2号【纯农排变】,大赛新增浇地2号【纯农排变】,高荆,高荆新增【纯农排变】,保阜高速公路,大塞东,大赛村北路东,大赛新增7号【纯农排变】,高荆新增1号,大塞南50,高荆村东新增3号,大赛村北新增1号,井义2片,五里铺（原砖厂）,0387480219-保定市天兴制衣有限公司-专变-45308254-冀开电力器材有限公司,大赛纸箱厂,0387480567-保定市满城县冀开电力器材有限公司-专变-45308097-冀开电力器材有限公司,大塞东南,孙增路养鸡场,金双雨养殖厂,高井榨油厂,保定氧化锌避雷器,高荆正北,大赛东新增3号【纯农排变】,光明塑料厂,长明塑料","powerOffReason":"【停电原因】由于线路检修导致２２０ＫＶ南郊变电站河图线５１０线路全线停电 【变更送电】因工作量大，送电时间由１７：４５变更为２１：００ 【发布渠道】满城县有线电视台（１１月４日１９：００－２０：００至１１月１２日１９：００－２０：００）屏幕上方滚动","powerOffId":"2019110413000353"},{"poweroffId":2019110413000268,"sgpoweroffId":null,"subsName":"","lineName":"高林营线511","pubTranName":"10Kv511高林营线六里铺9号,10Kv511高林营线田村铺12号,中国人民解放军71282部队保障部,10Kv511高林营线高林营11号【纯农排变】,10Kv511高林营线高林营14号,保定市徐水区高林营镇田村铺幼儿园,10Kv511高林营线田村铺25号【纯农排变】,10Kv511高林营线田村铺1号,客户投资_田村铺12号,高林营15号,10Kv511高林营线田村铺9号,10Kv511高林营线田村铺23号,田村铺小学六里铺教学点,10Kv511高林营线田村铺17号,10Kv511高林营线田村铺10号【纯农排变】,高林营幼儿园,10Kv511高林营线田村铺16号【纯农排变】,客户投资_六里铺9号,0588618260-河北大午农牧集团有限公司-专变-125429007-河北大午农牧集团有限公司,10Kv511高林营线田村铺21号,10Kv511高林营线田村铺4号,10Kv511高林营线高林营3号,10kV511高林营线六里铺7号【纯农排变】,10Kv511高林营线田村铺18号【纯农排变】,10Kv511高林营线六里铺3号,66069部队,10kV511高林营线田村铺14号【纯农排变】,南水北调中线干线工程建设管理局天津直管项目建设管理部,10Kv511高林营线田村铺28号,10Kv511高林营线六里铺2号,10Kv511高林营线高林营13号【纯农排变】,10Kv511高林营线田村铺22号,10Kv511高林营线高林营2号,10kV511高林营线田村铺7号【纯农排变】,10Kv511高林营线高林营4号,10Kv511高林营线六里铺5号【纯农排变】,10Kv511高林营线田村铺3号,变压器,10Kv511高林营线高林营6号,10Kv511高林营线高林营12号【纯农排变】,10Kv511高林营线田村铺19号【纯农排变】,罡上砖厂,徐水县东风综合铸造厂,艳利面粉加工厂,永祥斋饭店,10Kv511高林营线六里铺6号,10Kv511高林营线田村铺11号,10Kv511高林营线六里铺1号,10Kv511高林营线田村铺27号,10Kv511高林营线田村铺13号,10Kv511高林营线高林营1号,徐水县宇晨机床加工厂,10kV511高林营线田村铺8号【纯农排变】,10Kv511高林营线田村铺26号,10Kv511高林营线田村铺24号,10Kv511高林营线高林营7号,10Kv511高林营线田村铺20号,","scope":"【影响街道/乡镇】高林村镇 【高危重要客户】无 【影响客户】田村铺村、六里铺村、高林营村、66069部队","startTime":"2019-11-14 05:00:00","stopDate":"2019-11-14 18:00:00","orgNo":"1340605","typeCode":"计划停电","poweroffArea":"【分支停电】停10Kv511高林营线六里铺9号,10Kv511高林营线田村铺12号,中国人民解放军71282部队保障部,10Kv511高林营线高林营11号【纯农排变】,10Kv511高林营线高林营14号,保定市徐水区高林营镇田村铺幼儿园,10Kv511高林营线田村铺25号【纯农排变】,10Kv511高林营线田村铺1号,客户投资_田村铺12号,高林营15号,10Kv511高林营线田村铺9号,田村铺小学六里铺教学点,10Kv511高林营线田村铺17号,10Kv511高林营线田村铺10号【纯农排变】,高林营幼儿园,10Kv511高林营线田村铺16号【纯农排变】,10Kv511高林营线田村铺23号,客户投资_六里铺9号,0588618260-河北大午农牧集团有限公司-专变-125429007-河北大午农牧集团有限公司,10Kv511高林营线田村铺21号,10Kv511高林营线田村铺4号,10Kv511高林营线高林营3号,10kV511高林营线六里铺7号【纯农排变】,10Kv511高林营线田村铺18号【纯农排变】,10Kv511高林营线六里铺3号,66069部队,10kV511高林营线田村铺14号【纯农排变】,南水北调中线干线工程建设管理局天津直管项目建设管理部,10Kv511高林营线田村铺28号,10Kv511高林营线六里铺2号,10Kv511高林营线高林营13号【纯农排变】,10Kv511高林营线田村铺22号,10Kv511高林营线高林营2号,10kV511高林营线田村铺7号【纯农排变】,10Kv511高林营线高林营4号,10Kv511高林营线六里铺5号【纯农排变】,10Kv511高林营线田村铺3号,变压器,10Kv511高林营线高林营6号,10Kv511高林营线高林营12号【纯农排变】,10Kv511高林营线田村铺19号【纯农排变】,罡上砖厂,徐水县东风综合铸造厂,艳利面粉加工厂,永祥斋饭店,10Kv511高林营线六里铺6号,10Kv511高林营线田村铺11号,10Kv511高林营线六里铺1号,10Kv511高林营线田村铺27号,10Kv511高林营线田村铺13号,10Kv511高林营线高林营1号,徐水县宇晨机床加工厂,10kV511高林营线田村铺8号【纯农排变】,10Kv511高林营线田村铺26号,10Kv511高林营线田村铺24号,10Kv511高林营线高林营7号,10Kv511高林营线田村铺20号","poweroffReason":"【停电原因】由于计划检修导致３５ＫＶ高林营变电站高林营线５１１线路３号杆分段开关以下线路停电 【变更送电】无 【发布渠道】通过徐水电视台游走滚动字幕播放（２０１９年１１月０６日０８:００至１１月１３日２０:００）","powerTime":"2019-11-14 17:11:39","powerComm":"已送电","subsNo":"","lineNo":"","tgNo":"","tgName":null,"infoStatus":"1","orgName":"国网徐水县供电公司","typeName":null,"infoStatusName":null,"dateDay":null,"orgNos":null,"nowTime":null,"countyName":null,"streetName":null,"villageName":null,"roadName":null,"communityName":null,"tranName":null,"sdLineName":null,"cityCode":"1340605","cityName":"国网徐水县供电公司","provinceCode":null,"stopTime":"2019-11-14 18:00:00","powerType":"全部","powerOffArea":"【分支停电】停10Kv511高林营线六里铺9号,10Kv511高林营线田村铺12号,中国人民解放军71282部队保障部,10Kv511高林营线高林营11号【纯农排变】,10Kv511高林营线高林营14号,保定市徐水区高林营镇田村铺幼儿园,10Kv511高林营线田村铺25号【纯农排变】,10Kv511高林营线田村铺1号,客户投资_田村铺12号,高林营15号,10Kv511高林营线田村铺9号,田村铺小学六里铺教学点,10Kv511高林营线田村铺17号,10Kv511高林营线田村铺10号【纯农排变】,高林营幼儿园,10Kv511高林营线田村铺16号【纯农排变】,10Kv511高林营线田村铺23号,客户投资_六里铺9号,0588618260-河北大午农牧集团有限公司-专变-125429007-河北大午农牧集团有限公司,10Kv511高林营线田村铺21号,10Kv511高林营线田村铺4号,10Kv511高林营线高林营3号,10kV511高林营线六里铺7号【纯农排变】,10Kv511高林营线田村铺18号【纯农排变】,10Kv511高林营线六里铺3号,66069部队,10kV511高林营线田村铺14号【纯农排变】,南水北调中线干线工程建设管理局天津直管项目建设管理部,10Kv511高林营线田村铺28号,10Kv511高林营线六里铺2号,10Kv511高林营线高林营13号【纯农排变】,10Kv511高林营线田村铺22号,10Kv511高林营线高林营2号,10kV511高林营线田村铺7号【纯农排变】,10Kv511高林营线高林营4号,10Kv511高林营线六里铺5号【纯农排变】,10Kv511高林营线田村铺3号,变压器,10Kv511高林营线高林营6号,10Kv511高林营线高林营12号【纯农排变】,10Kv511高林营线田村铺19号【纯农排变】,罡上砖厂,徐水县东风综合铸造厂,艳利面粉加工厂,永祥斋饭店,10Kv511高林营线六里铺6号,10Kv511高林营线田村铺11号,10Kv511高林营线六里铺1号,10Kv511高林营线田村铺27号,10Kv511高林营线田村铺13号,10Kv511高林营线高林营1号,徐水县宇晨机床加工厂,10kV511高林营线田村铺8号【纯农排变】,10Kv511高林营线田村铺26号,10Kv511高林营线田村铺24号,10Kv511高林营线高林营7号,10Kv511高林营线田村铺20号","powerOffReason":"【停电原因】由于计划检修导致３５ＫＶ高林营变电站高林营线５１１线路３号杆分段开关以下线路停电 【变更送电】无 【发布渠道】通过徐水电视台游走滚动字幕播放（２０１９年１１月０６日０８:００至１１月１３日２０:００）","powerOffId":"2019110413000268"},{"poweroffId":2019110413000262,"sgpoweroffId":null,"subsName":"","lineName":"明开575","pubTranName":"店北村7#,店北村2#,营房村1#,河北誉龙圣世房地产开发有限公司变压器1,河北普华房地产开发有限公司变压器,河北玄武企业集团矿业有限公司500KVA,第三小学630KVA,开元街梯接路灯,河北誉龙圣世房地产开发有限公司变压器2,变压器,","scope":"【影响街道/乡镇】城管处、泰元北大街、金台路、靖远北大街 【高危重要客户】无 【影响客户】厂东关村","startTime":"2019-11-04 14:01:09","stopDate":"2019-11-04 15:30:00","orgNo":"1340625","typeCode":"电网故障停限电","poweroffArea":"【全线路停电】停变压器,店北村7#,店北村2#,营房村1#,河北誉龙圣世房地产开发有限公司变压器1,河北普华房地产开发有限公司变压器,河北玄武企业集团矿业有限公司500KVA,第三小学630KVA,开元街梯接路灯,河北誉龙圣世房地产开发有限公司变压器2","poweroffReason":"【停电原因】由于速断跳闸导致１１０ＫＶ店北变电站明开５７５线路全线停电【变更送电】因抢修进度加快原因，送电时间由２０：００变更为１５：３０【发布渠道】通过９５５９８发布","powerTime":"2019-11-04 15:08:27","powerComm":"已送电","subsNo":"","lineNo":"","tgNo":"","tgName":null,"infoStatus":"1","orgName":"国网易县供电公司","typeName":null,"infoStatusName":null,"dateDay":null,"orgNos":null,"nowTime":null,"countyName":null,"streetName":null,"villageName":null,"roadName":null,"communityName":null,"tranName":null,"sdLineName":null,"cityCode":"1340625","cityName":"国网易县供电公司","provinceCode":null,"stopTime":"2019-11-04 15:30:00","powerType":"全部","powerOffArea":"【全线路停电】停变压器,店北村7#,店北村2#,营房村1#,河北誉龙圣世房地产开发有限公司变压器1,河北普华房地产开发有限公司变压器,河北玄武企业集团矿业有限公司500KVA,第三小学630KVA,开元街梯接路灯,河北誉龙圣世房地产开发有限公司变压器2","powerOffReason":"【停电原因】由于速断跳闸导致１１０ＫＶ店北变电站明开５７５线路全线停电【变更送电】因抢修进度加快原因，送电时间由２０：００变更为１５：３０【发布渠道】通过９５５９８发布","powerOffId":"2019110413000262"},{"poweroffId":2019110413000240,"sgpoweroffId":null,"subsName":"","lineName":"乡企线511","pubTranName":"于庄村西,六间房4号,西庄新增2号,六间房15号,六间房3号,六间房13号,王辛庄6号,六间房5号,王辛庄5号,六间房6号,六间房14号,王辛庄4号,六间房,","scope":"【影响街道/乡镇】大册营镇 【高危重要客户】无 【影响客户】六间房村、王辛庄、于庄村","startTime":"2019-11-04 14:15:00","stopDate":"2019-11-04 21:50:00","orgNo":"1340617","typeCode":"其他临时停电","poweroffArea":"【全线路停电】停六间房4号,六间房15号,六间房14号,保定市金霖商贸有限公司,六间房5号,云莉奶牛场,保定市满城县福利橡胶,北宋10号,六间房8号,王辛庄6号,新农丰肥料公司,于庄村西,远达纸业二分厂,王辛庄2号,满城县聚鑫门窗制造有限公司100KVA变压器,河南庄村委会,六间房10号,保定市满城恒达纸箱厂,王泽义胶厂,满城县远达铸造厂,六间房,中兴洗涤,保定轩宇俊鹏汽车销售服务有限公司,王辛庄4号,小许城3号分支【纯农排变】,远达纸业,六间房3号,六间房6号,六间房12号【纯农排变】,金星化工厂2号,保定市满城金星化工有限公司,河南庄农业,满城县大册营镇王辛庄村村民委员,六间房13号,保定市远达纸业有限公司,龙兴纸厂,保定市交通运输局徐水县养路工区4号,王辛庄油葵试验田,福利橡胶厂,福利胶厂,春良胶厂,西庄新增2号,六间房11号【纯农排变】,王辛庄村西,保定博凯瑞机械制造,王辛庄1号,利丰纸箱厂,六间房7号【纯农排变】,王辛庄5号,诚信胶业有限公司,六间房9号【纯农排变】,王辛庄3号,六间房2号,河北力强路桥工程有限公司","poweroffReason":"【停电原因】由于变电站紧急处缺导致３５ＫＶ西庄变电站乡企线５１１线路全线停电 【变更送电】因抢修进度加快原因，送电时间由２３：５９变更为２１：５０ 【发布渠道】通过９５５９８发布","powerTime":"2019-11-04 21:32:34","powerComm":"已送电","subsNo":"","lineNo":"","tgNo":"","tgName":null,"infoStatus":"1","orgName":"国网满城县供电公司","typeName":null,"infoStatusName":null,"dateDay":null,"orgNos":null,"nowTime":null,"countyName":null,"streetName":null,"villageName":null,"roadName":null,"communityName":null,"tranName":null,"sdLineName":null,"cityCode":"1340617","cityName":"国网满城县供电公司","provinceCode":null,"stopTime":"2019-11-04 21:50:00","powerType":"全部","powerOffArea":"【全线路停电】停六间房4号,六间房15号,六间房14号,保定市金霖商贸有限公司,六间房5号,云莉奶牛场,保定市满城县福利橡胶,北宋10号,六间房8号,王辛庄6号,新农丰肥料公司,于庄村西,远达纸业二分厂,王辛庄2号,满城县聚鑫门窗制造有限公司100KVA变压器,河南庄村委会,六间房10号,保定市满城恒达纸箱厂,王泽义胶厂,满城县远达铸造厂,六间房,中兴洗涤,保定轩宇俊鹏汽车销售服务有限公司,王辛庄4号,小许城3号分支【纯农排变】,远达纸业,六间房3号,六间房6号,六间房12号【纯农排变】,金星化工厂2号,保定市满城金星化工有限公司,河南庄农业,满城县大册营镇王辛庄村村民委员,六间房13号,保定市远达纸业有限公司,龙兴纸厂,保定市交通运输局徐水县养路工区4号,王辛庄油葵试验田,福利橡胶厂,福利胶厂,春良胶厂,西庄新增2号,六间房11号【纯农排变】,王辛庄村西,保定博凯瑞机械制造,王辛庄1号,利丰纸箱厂,六间房7号【纯农排变】,王辛庄5号,诚信胶业有限公司,六间房9号【纯农排变】,王辛庄3号,六间房2号,河北力强路桥工程有限公司","powerOffReason":"【停电原因】由于变电站紧急处缺导致３５ＫＶ西庄变电站乡企线５１１线路全线停电 【变更送电】因抢修进度加快原因，送电时间由２３：５９变更为２１：５０ 【发布渠道】通过９５５９８发布","powerOffId":"2019110413000240"},{"poweroffId":2019110413000235,"sgpoweroffId":null,"subsName":"","lineName":"河南庄线521","pubTranName":"夜借8号t,北宋16台区变压器,夜借6号新增分支,沿村分支2号,北宋17号,北宋19号,北宋营11号变压器,大庄5号,大庄村西新增,北宋营5号,小庄村南2号,夜借9号,北宋18号分支,沿村大队,南宋1#分支,大庄1号,夜借7号分支,方上1号,方上6号,夜借2分支,北宋村东【纯农排变】,沿村4号,北宋7号,方上3号,夜借1号分支,北宋11号,方上4号,夜借5分支1,大庄7号,北宋营7台区柱上变压器,方上7号,北宋14,北宋营10号,小庄3号分支,北宋营1台区柱上变压器,夜借3号分支,方上南新增,小庄分支1号,北宋营9,南宋5号分支,北宋15,南宋新增分支,南宋营6号新,方上2分支,","scope":"【影响街道/乡镇】大册营乡 【高危重要客户】无 【影响客户】方上、沿村、北宋、南宋、大庄、小庄、夜借、北宋营","startTime":"2019-11-04 14:15:00","stopDate":"2019-11-04 21:50:00","orgNo":"1340617","typeCode":"其他临时停电","poweroffArea":"【全线路停电】停富润达肥业,夜借8号t,北宋19号,沿村分支2号,南宋5号分支,保定易优卫生巾制造有限公司,保定雨森卫生用品有限公司1000,夜借7号分支,沿村3号,大庄5号,小北宋分,方上1号,北宋营11号变压器,小庄3号分支,鑫泰化工厂,满城县尚达纸质品厂,大册营国税所,满城县东雨卫生用品有限公司,鑫达纸厂,北宋17号,夜借2分支,大庄3号（统管）,北宋营6分支,0683522905-河北天冠新能源科技有限公司-专变-221825226-河北天冠新能源科技有限公司,北宋营4号,北宋营7台区柱上变压器,方上3号,京保纸厂,保定天冠新能源,小庄分支1号,满城县艺洋卫生用品有限公司,北宋14,北宋营2【纯农排变】,满城县天合纸制品有限公司,大庄村东新增6号,赵福民,保定雨森卫生用品有限公司,北宋9【纯农排变】,北宋营3【纯农排变】,北宋16台区变压器,嘉禾卫生用品厂,南宋营6号新,北宋11号,沿村4号,北宋营9,夜借6号新增分支,北宋8分支,大庄2号,方上4号,唐长贺摩托维修,大庄村西新增,北宋村东【纯农排变】,南宋2号,北宋营10号,南宋3号,大庄面粉厂,南宋新增分支,满城县铭宇彩印有限公司,北宋营5号,方上2分支,夜借5分支1,夜借1号分支,沿村大队,南宋大队农业,方上6号,小庄村南2号,北宋3【纯农排变】,夜借4号分支,夜借3号分支,洪达线材有限公司,大庄7号,张文全加工厂,北宋15,腾飞塑料加工厂,保定丰健生物工程技术有限公司,保定雨森卫生用品有限公司1600,南宋1#分支,大庄1号,夜借9号,方上7号,北宋2号【纯农排变】,北宋四号,北宋营1台区柱上变压器,北宋新增5号,夜借2面粉厂,北宋18号分支,方上南新增,北宋1号,满城县旗洋彩印有限公司,北宋营新增分支8号,美华卫生用品厂,年永全吹膜厂,北宋7号,北宋6","poweroffReason":"【停电原因】由于变电站紧急处缺导致１１０ＫＶ大册营变电站河南庄线５２１线路全线停电 【变更送电】因抢修进度加快原因，送电时间由２３：５９变更为２１：５０ 【发布渠道】通过９５５９８发布","powerTime":"2019-11-04 21:32:14","powerComm":"已送电","subsNo":"","lineNo":"","tgNo":"","tgName":null,"infoStatus":"1","orgName":"国网满城县供电公司","typeName":null,"infoStatusName":null,"dateDay":null,"orgNos":null,"nowTime":null,"countyName":null,"streetName":null,"villageName":null,"roadName":null,"communityName":null,"tranName":null,"sdLineName":null,"cityCode":"1340617","cityName":"国网满城县供电公司","provinceCode":null,"stopTime":"2019-11-04 21:50:00","powerType":"全部","powerOffArea":"【全线路停电】停富润达肥业,夜借8号t,北宋19号,沿村分支2号,南宋5号分支,保定易优卫生巾制造有限公司,保定雨森卫生用品有限公司1000,夜借7号分支,沿村3号,大庄5号,小北宋分,方上1号,北宋营11号变压器,小庄3号分支,鑫泰化工厂,满城县尚达纸质品厂,大册营国税所,满城县东雨卫生用品有限公司,鑫达纸厂,北宋17号,夜借2分支,大庄3号（统管）,北宋营6分支,0683522905-河北天冠新能源科技有限公司-专变-221825226-河北天冠新能源科技有限公司,北宋营4号,北宋营7台区柱上变压器,方上3号,京保纸厂,保定天冠新能源,小庄分支1号,满城县艺洋卫生用品有限公司,北宋14,北宋营2【纯农排变】,满城县天合纸制品有限公司,大庄村东新增6号,赵福民,保定雨森卫生用品有限公司,北宋9【纯农排变】,北宋营3【纯农排变】,北宋16台区变压器,嘉禾卫生用品厂,南宋营6号新,北宋11号,沿村4号,北宋营9,夜借6号新增分支,北宋8分支,大庄2号,方上4号,唐长贺摩托维修,大庄村西新增,北宋村东【纯农排变】,南宋2号,北宋营10号,南宋3号,大庄面粉厂,南宋新增分支,满城县铭宇彩印有限公司,北宋营5号,方上2分支,夜借5分支1,夜借1号分支,沿村大队,南宋大队农业,方上6号,小庄村南2号,北宋3【纯农排变】,夜借4号分支,夜借3号分支,洪达线材有限公司,大庄7号,张文全加工厂,北宋15,腾飞塑料加工厂,保定丰健生物工程技术有限公司,保定雨森卫生用品有限公司1600,南宋1#分支,大庄1号,夜借9号,方上7号,北宋2号【纯农排变】,北宋四号,北宋营1台区柱上变压器,北宋新增5号,夜借2面粉厂,北宋18号分支,方上南新增,北宋1号,满城县旗洋彩印有限公司,北宋营新增分支8号,美华卫生用品厂,年永全吹膜厂,北宋7号,北宋6","powerOffReason":"【停电原因】由于变电站紧急处缺导致１１０ＫＶ大册营变电站河南庄线５２１线路全线停电 【变更送电】因抢修进度加快原因，送电时间由２３：５９变更为２１：５０ 【发布渠道】通过９５５９８发布","powerOffId":"2019110413000235"},{"poweroffId":2019110413000170,"sgpoweroffId":null,"subsName":"","lineName":"边家务线525","pubTranName":"湘连口村西新增综合,湘连口西16综合,河西村东综合,庄头村西新增,庄头村新增综合,河西村综合,河西村北新增综合,南梁庄30综合,湘连口村东南新增综合,湘连口村南新增综合,庄头村新增综合(123),湘连口村西北新增综合,河西村村里综合,湘连口70综合,湘连口村东北新增综合,河西村南综合,湘连口北20综合,湘连口东22综合,庄头综合,湘连口新增综合,","scope":"【影响街道/乡镇】庞佐乡 【高危重要客户】无 【影响客户】南梁庄村西、河西村、庄头村、湘涟口村","startTime":"2019-11-12 07:00:00","stopDate":"2019-11-12 18:00:00","orgNo":"1340613","typeCode":"临时停电","poweroffArea":"【分支停电】停河西村大队,湘连口西,湘连口东2,河西村东,河西村,河西村(西盘),河西村北新增综合,湘连口村东南新增综合,庄头村新增综合(123),华兴电器厂,湘连口村西北新增综合,永红电器设备公司,湘连口70综合,湘连口村东北新增综合,河西村南综合,湘连口北20综合,庞佐卫生院,湘连口东22综合,庄头综合,湘连口永发热镀厂,保定安凯电器设备制造有限公司变压器,湘连口新增综合,保定东华电力器材有限公司,庞佐联小,保定永红电器设备有限公司,东华电力器材公司,湘连口红旗厂,河西村村,南梁庄30综合,张亚辉,河西村村南,湘连口村西新增综合,保定双强电器设备有限公司,湘连口西16综合,河西村东综合,湘连口东洼6,湘连口,河西村东洼,湘连口东洼2,庄头村西新增,湘连口东洼,湘连口东洼3,湘连口大队,湘连口东洼5,庄头村新增综合,湘连口村南新增综合,河西村村里综合,河西村综合","poweroffReason":"【停电原因】由于换杆换线导致１１０ＫＶ西演变电站边家务５２５线路主线１０２号杆１０２号开关以下线路停电【变更送电】因工作量大原因，送电时间由１６：００变更为１８：００【发布渠道】通过９５５９８发布","powerTime":"2019-11-12 17:30:53","powerComm":"已送电","subsNo":"","lineNo":"","tgNo":"","tgName":null,"infoStatus":"1","orgName":"国网高阳县供电公司","typeName":null,"infoStatusName":null,"dateDay":null,"orgNos":null,"nowTime":null,"countyName":null,"streetName":null,"villageName":null,"roadName":null,"communityName":null,"tranName":null,"sdLineName":null,"cityCode":"1340613","cityName":"国网高阳县供电公司","provinceCode":null,"stopTime":"2019-11-12 18:00:00","powerType":"全部","powerOffArea":"【分支停电】停河西村大队,湘连口西,湘连口东2,河西村东,河西村,河西村(西盘),河西村北新增综合,湘连口村东南新增综合,庄头村新增综合(123),华兴电器厂,湘连口村西北新增综合,永红电器设备公司,湘连口70综合,湘连口村东北新增综合,河西村南综合,湘连口北20综合,庞佐卫生院,湘连口东22综合,庄头综合,湘连口永发热镀厂,保定安凯电器设备制造有限公司变压器,湘连口新增综合,保定东华电力器材有限公司,庞佐联小,保定永红电器设备有限公司,东华电力器材公司,湘连口红旗厂,河西村村,南梁庄30综合,张亚辉,河西村村南,湘连口村西新增综合,保定双强电器设备有限公司,湘连口西16综合,河西村东综合,湘连口东洼6,湘连口,河西村东洼,湘连口东洼2,庄头村西新增,湘连口东洼,湘连口东洼3,湘连口大队,湘连口东洼5,庄头村新增综合,湘连口村南新增综合,河西村村里综合,河西村综合","powerOffReason":"【停电原因】由于换杆换线导致１１０ＫＶ西演变电站边家务５２５线路主线１０２号杆１０２号开关以下线路停电【变更送电】因工作量大原因，送电时间由１６：００变更为１８：００【发布渠道】通过９５５９８发布","powerOffId":"2019110413000170"}],"pageModel":{"pageNow":408,"totalCount":10973,"totalPage":1098,"tableRows":0,"pageCount":10,"beginCount":4070},"isExperi":"1"}