{"message":"","today":"2020-06-15","seleList":[{"poweroffId":2019110413000169,"sgpoweroffId":null,"subsName":"","lineName":"东庄线516","pubTranName":"河南庄大队,北于庄小学,西庄9号,于庄3号,大石桥1,","scope":"【影响街道/乡镇】西庄乡 【高危重要客户】无 【影响客户】西庄村、东庄村、大石桥村、河南庄村、北于庄村、昭华锦城小区","startTime":"2019-11-04 12:15:00","stopDate":"2019-11-04 21:00:00","orgNo":"1340617","typeCode":"其他临时停电","poweroffArea":"【全线路停电】停西庄7号,东庄4号,河南庄大队,西庄土改4【纯农排变】,西庄土改3号【纯农排变】,西庄5号,于庄2号变压器,西庄新增,于庄3号,高新区公共事业管理处路灯4号,东庄村西新增（统管）,保定国家高新技术产业开发区公共事业管理处,西庄4号,西庄8号,崔管营饮料厂,大石桥5,于庄（统管）,大石桥桥北钢厂,大石桥2号,高开区管委会7号路灯,西庄6号,西庄9号,东庄土改3号,西庄土改2【纯农排变】,东庄土改2号,大石桥3号,东庄6号,西庄乡政府,东庄3号,西庄土改1【纯农排变】,大石桥新增200（统管）,东庄8号,河南庄1,大石桥4【纯农排变】,河南庄新增2【纯农排变】,东庄5号,东庄土改4号,北于庄小学,满城县宏联胶辊厂,东庄10号,于庄土改3号,于庄土改2号,东庄村东新增变压器,于庄土改1号,大石桥土改3号,大石桥土改2号,大石桥土改1号,河南庄新增1【纯农排变】,大石桥1,于庄村内,东庄土改1号,东庄新增,东庄7号","poweroffReason":"【停电原因】由于变电站紧急处缺导致３５ＫＶ西庄变电站东庄线５１６线路全线停电 【变更送电】无 【发布渠道】通过９５５９８发布","powerTime":"2019-11-04 20:14:12","powerComm":"已送电","subsNo":"","lineNo":"","tgNo":"","tgName":null,"infoStatus":"1","orgName":"国网满城县供电公司","typeName":null,"infoStatusName":null,"dateDay":null,"orgNos":null,"nowTime":null,"countyName":null,"streetName":null,"villageName":null,"roadName":null,"communityName":null,"tranName":null,"sdLineName":null,"cityCode":"1340617","cityName":"国网满城县供电公司","provinceCode":null,"stopTime":"2019-11-04 21:00:00","powerType":"全部","powerOffArea":"【全线路停电】停西庄7号,东庄4号,河南庄大队,西庄土改4【纯农排变】,西庄土改3号【纯农排变】,西庄5号,于庄2号变压器,西庄新增,于庄3号,高新区公共事业管理处路灯4号,东庄村西新增（统管）,保定国家高新技术产业开发区公共事业管理处,西庄4号,西庄8号,崔管营饮料厂,大石桥5,于庄（统管）,大石桥桥北钢厂,大石桥2号,高开区管委会7号路灯,西庄6号,西庄9号,东庄土改3号,西庄土改2【纯农排变】,东庄土改2号,大石桥3号,东庄6号,西庄乡政府,东庄3号,西庄土改1【纯农排变】,大石桥新增200（统管）,东庄8号,河南庄1,大石桥4【纯农排变】,河南庄新增2【纯农排变】,东庄5号,东庄土改4号,北于庄小学,满城县宏联胶辊厂,东庄10号,于庄土改3号,于庄土改2号,东庄村东新增变压器,于庄土改1号,大石桥土改3号,大石桥土改2号,大石桥土改1号,河南庄新增1【纯农排变】,大石桥1,于庄村内,东庄土改1号,东庄新增,东庄7号","powerOffReason":"【停电原因】由于变电站紧急处缺导致３５ＫＶ西庄变电站东庄线５１６线路全线停电 【变更送电】无 【发布渠道】通过９５５９８发布","powerOffId":"2019110413000169"},{"poweroffId":2019110413000168,"sgpoweroffId":null,"subsName":"","lineName":"许城线514","pubTranName":"大庄村委会,大许2号,大许3【纯农排变】,大许4号,大许5【纯农排变】,大许7号,大许城新增,小许2,小许4,小许城1号,","scope":"【影响街道/乡镇】贤台乡 【高危重要客户】无 【影响客户】大许城村、小许城村","startTime":"2019-11-04 12:15:00","stopDate":"2019-11-04 21:00:00","orgNo":"1340617","typeCode":"其他临时停电","poweroffArea":"【全线路停电】停大庄村委会,大许2号,大许3【纯农排变】,大许4号,大许5【纯农排变】,大许7号,大许城新增,小许2,小许4,小许城1号","poweroffReason":"【停电原因】由于变电站紧急处缺导致３５ＫＶ西庄变电站许城线５１４线路全线停电 【变更送电】无 【发布渠道】通过９５５９８发布","powerTime":"2019-11-04 20:14:37","powerComm":"已送电","subsNo":"","lineNo":"","tgNo":"","tgName":null,"infoStatus":"1","orgName":"国网满城县供电公司","typeName":null,"infoStatusName":null,"dateDay":null,"orgNos":null,"nowTime":null,"countyName":null,"streetName":null,"villageName":null,"roadName":null,"communityName":null,"tranName":null,"sdLineName":null,"cityCode":"1340617","cityName":"国网满城县供电公司","provinceCode":null,"stopTime":"2019-11-04 21:00:00","powerType":"全部","powerOffArea":"【全线路停电】停大庄村委会,大许2号,大许3【纯农排变】,大许4号,大许5【纯农排变】,大许7号,大许城新增,小许2,小许4,小许城1号","powerOffReason":"【停电原因】由于变电站紧急处缺导致３５ＫＶ西庄变电站许城线５１４线路全线停电 【变更送电】无 【发布渠道】通过９５５９８发布","powerOffId":"2019110413000168"},{"poweroffId":2019110413000138,"sgpoweroffId":null,"subsName":"","lineName":"10kV南马513线","pubTranName":"南马综合3变压器,西北马综合2变压器,南马综合8台区变压器,西北马综合6变压器,东北马综合四台区,东北马综合3变压器,","scope":"【影响街道/乡镇】南娄底乡 【高危重要客户】无 【影响客户】南马村、西北马村、东北马村","startTime":"2019-11-13 07:30:00","stopDate":"2019-11-13 15:30:00","orgNo":"1340606","typeCode":"计划停电","poweroffArea":"【全线路停电】停东北马综合3变压器,南马综合3变压器,西北马综合2变压器,南马综合8台区变压器,西北马综合6变压器,东北马综合四台区","poweroffReason":"【停电原因】由于安装刀闸导致３５ＫＶ南娄底变电站１０ＫＶ南马５１３线路全线停电 【变更送电】无 【发布渠道】保定市安国电视台（１１月０５日００时至２４时之间）屏幕上方滚动","powerTime":"2019-11-13 14:49:46","powerComm":"已送电","subsNo":"","lineNo":"","tgNo":"","tgName":null,"infoStatus":"1","orgName":"国网安国市供电公司","typeName":null,"infoStatusName":null,"dateDay":null,"orgNos":null,"nowTime":null,"countyName":null,"streetName":null,"villageName":null,"roadName":null,"communityName":null,"tranName":null,"sdLineName":null,"cityCode":"1340606","cityName":"国网安国市供电公司","provinceCode":null,"stopTime":"2019-11-13 15:30:00","powerType":"全部","powerOffArea":"【全线路停电】停东北马综合3变压器,南马综合3变压器,西北马综合2变压器,南马综合8台区变压器,西北马综合6变压器,东北马综合四台区","powerOffReason":"【停电原因】由于安装刀闸导致３５ＫＶ南娄底变电站１０ＫＶ南马５１３线路全线停电 【变更送电】无 【发布渠道】保定市安国电视台（１１月０５日００时至２４时之间）屏幕上方滚动","powerOffId":"2019110413000138"},{"poweroffId":2019110413000123,"sgpoweroffId":null,"subsName":"","lineName":"10kV李麻营线514","pubTranName":"尚垡南台变压器,辛龙庄南2变压器,顿豆夏变压器,良辛庄东变台,马官屯东南变压器,宋渔池西南,胡娄集西南柱上变压器,供电所变压器,肖官营镇政府变压器,","scope":"【影响街道/乡镇】肖官营乡 【高危重要客户】水利局 【影响客户】顿豆夏村、胡娄集村、荒辛庄村、李麻营村、良辛庄村、孟良营村、尚垡村、肖官营村、兴隆庄村、顿书凯、高碑店市辉煌伟业养殖有限公司、顿书军、张勇面粉厂、卓电强、窦风林、高碑店市顺维新型建材有限公司、肖官营中学、高碑店市大广新型建材有限公司、肖官营洛津水泥制品厂、河北禾木田农业发展有限公司、尚垡中心学校、兴隆庄中心学校、","startTime":"2019-11-13 06:00:00","stopDate":"2019-11-13 13:30:00","orgNo":"1340612","typeCode":"计划停电","poweroffArea":"【分支停电】停李麻营排灌一变压器【纯农排变】,顿书军,良辛庄变压器,胡娄集西台变压器,张勇面粉厂,尚垡排灌五变压器【纯农排变】,肖官营市场变压器,高碑店市腾达工业有限责任公司变压器,廊坊盛翔道桥工程有限公司,尚垡排灌三变压器【纯农排变】,尚垡南台变压器,0387439051-高碑店市仁达养殖有限责任公司-专变-45275636-王长春,辛龙庄南2变压器,孟良营排灌一变压器【纯农排变】,李麻营排灌二变压器【纯农排变】,变压器,高碑店市水利局受电点变压器,石料厂,高碑店市国有军粮供应有限公司,尚垡西台变压器,高碑店市肖官营洛津水泥制品厂,宋鱼池排灌三变压器【纯农排变】,乡政府,荒辛庄变压器,孟良营北台变压器,宋鱼池东南变压器,顿豆夏排灌一变压器【纯农排变】,卓电强,宋鱼池西变压器,荒辛庄排灌二变压器【纯农排变】,肖官营砖厂（北）,荒辛庄排灌一变压器【纯农排变】,吴辉,河北禾木田农业发展有限公司,顿豆夏变压器,马官屯西台变压器,顿豆夏排灌三变压器【纯农排变】,良辛庄东变台,李麻营西台变压器,宋鱼池东北台变压器,郭辛庄排灌二变压器【纯农排变】,高碑店市肖官营乡肖官营中学,高碑店市肖官营乡尚垡中心学校变压器,良辛庄排灌变压器【纯农排变】,马官屯南台变压器,荒辛庄东变压器,高碑店市肖官营乡胡娄集幼儿园,高碑店市公安局变压器,胡娄集排灌二变压器【纯农排变】,郭辛庄变压器,兴隆庄南变压器,马官屯东南变压器,郭辛庄排灌一变压器【纯农排变】,高碑店市肖官营乡兴隆庄中心小学,胡娄集排灌四变压器【纯农排变】,荒辛庄排灌三变压器【纯农排变】,宋鱼池排灌五变压器【纯农排变】,兴隆庄西南变压器,尚垡东北变压器,宋鱼池排灌二变压器【纯农排变】,肖官营东变压器,宋渔池西南,尚垡东南变压器,胡娄集排6柱上变压器,河北航行机械铸造有限公司西,胡娄集排灌五变压器【纯农排变】,尚垡排灌二变压器【纯农排变】,兴隆庄排灌变压器【纯农排变】,高碑店市广大新型建材有限公司变压器,李麻营变压器,顿书凯,尚垡排灌四变压器【纯农排变】,窦风林,胡娄集东台变压器,孟良营南台变压器,孟良营西南,胡娄集排灌三变压器【纯农排变】,国网高碑店市供电公司肖官营供电所变压器,肖官营排4柱上变压器,马官屯排灌二变压器【纯农排变】,吴恒,尚垡排灌一变压器,肖官营排5柱上变压器,胡娄集南变压器,郭辛庄西台变压器,马官屯排灌一变压器【纯农排变】,孟良营中变压器,孟良营排灌二变压器【纯农排变】,李麻营排灌三变压器【纯农排变】,顿豆夏北变压器,胡娄集排灌一变压器【纯农排变】,胡娄集西南柱上变压器,李麻营东台变压器,供电所变压器,兴隆庄北变压器,顿豆夏排灌二变压器【纯农排变】,尚垡西南变压器,马官屯东台变压器,肖官营排灌二变压器【纯农排变】,肖官营镇政府变压器,河北航行机械铸造有限公司西#2","poweroffReason":"【停电原因】由于线路改造导致３５ＫＶ方官变电站１０ＫＶ李麻营５１４线路０２号断路器以下停电 【变更送电】因抢修进度加快原因，送电时间由１８：００变更为１３：３０ 【发布渠道】高碑店市高碑店电视台（１１月５日１８时至１１月１２日８时之间）屏幕上方滚动","powerTime":"2019-11-13 12:57:13","powerComm":"已送电","subsNo":"","lineNo":"","tgNo":"","tgName":null,"infoStatus":"1","orgName":"国网高碑店市供电公司","typeName":null,"infoStatusName":null,"dateDay":null,"orgNos":null,"nowTime":null,"countyName":null,"streetName":null,"villageName":null,"roadName":null,"communityName":null,"tranName":null,"sdLineName":null,"cityCode":"1340612","cityName":"国网高碑店市供电公司","provinceCode":null,"stopTime":"2019-11-13 13:30:00","powerType":"全部","powerOffArea":"【分支停电】停李麻营排灌一变压器【纯农排变】,顿书军,良辛庄变压器,胡娄集西台变压器,张勇面粉厂,尚垡排灌五变压器【纯农排变】,肖官营市场变压器,高碑店市腾达工业有限责任公司变压器,廊坊盛翔道桥工程有限公司,尚垡排灌三变压器【纯农排变】,尚垡南台变压器,0387439051-高碑店市仁达养殖有限责任公司-专变-45275636-王长春,辛龙庄南2变压器,孟良营排灌一变压器【纯农排变】,李麻营排灌二变压器【纯农排变】,变压器,高碑店市水利局受电点变压器,石料厂,高碑店市国有军粮供应有限公司,尚垡西台变压器,高碑店市肖官营洛津水泥制品厂,宋鱼池排灌三变压器【纯农排变】,乡政府,荒辛庄变压器,孟良营北台变压器,宋鱼池东南变压器,顿豆夏排灌一变压器【纯农排变】,卓电强,宋鱼池西变压器,荒辛庄排灌二变压器【纯农排变】,肖官营砖厂（北）,荒辛庄排灌一变压器【纯农排变】,吴辉,河北禾木田农业发展有限公司,顿豆夏变压器,马官屯西台变压器,顿豆夏排灌三变压器【纯农排变】,良辛庄东变台,李麻营西台变压器,宋鱼池东北台变压器,郭辛庄排灌二变压器【纯农排变】,高碑店市肖官营乡肖官营中学,高碑店市肖官营乡尚垡中心学校变压器,良辛庄排灌变压器【纯农排变】,马官屯南台变压器,荒辛庄东变压器,高碑店市肖官营乡胡娄集幼儿园,高碑店市公安局变压器,胡娄集排灌二变压器【纯农排变】,郭辛庄变压器,兴隆庄南变压器,马官屯东南变压器,郭辛庄排灌一变压器【纯农排变】,高碑店市肖官营乡兴隆庄中心小学,胡娄集排灌四变压器【纯农排变】,荒辛庄排灌三变压器【纯农排变】,宋鱼池排灌五变压器【纯农排变】,兴隆庄西南变压器,尚垡东北变压器,宋鱼池排灌二变压器【纯农排变】,肖官营东变压器,宋渔池西南,尚垡东南变压器,胡娄集排6柱上变压器,河北航行机械铸造有限公司西,胡娄集排灌五变压器【纯农排变】,尚垡排灌二变压器【纯农排变】,兴隆庄排灌变压器【纯农排变】,高碑店市广大新型建材有限公司变压器,李麻营变压器,顿书凯,尚垡排灌四变压器【纯农排变】,窦风林,胡娄集东台变压器,孟良营南台变压器,孟良营西南,胡娄集排灌三变压器【纯农排变】,国网高碑店市供电公司肖官营供电所变压器,肖官营排4柱上变压器,马官屯排灌二变压器【纯农排变】,吴恒,尚垡排灌一变压器,肖官营排5柱上变压器,胡娄集南变压器,郭辛庄西台变压器,马官屯排灌一变压器【纯农排变】,孟良营中变压器,孟良营排灌二变压器【纯农排变】,李麻营排灌三变压器【纯农排变】,顿豆夏北变压器,胡娄集排灌一变压器【纯农排变】,胡娄集西南柱上变压器,李麻营东台变压器,供电所变压器,兴隆庄北变压器,顿豆夏排灌二变压器【纯农排变】,尚垡西南变压器,马官屯东台变压器,肖官营排灌二变压器【纯农排变】,肖官营镇政府变压器,河北航行机械铸造有限公司西#2","powerOffReason":"【停电原因】由于线路改造导致３５ＫＶ方官变电站１０ＫＶ李麻营５１４线路０２号断路器以下停电 【变更送电】因抢修进度加快原因，送电时间由１８：００变更为１３：３０ 【发布渠道】高碑店市高碑店电视台（１１月５日１８时至１１月１２日８时之间）屏幕上方滚动","powerOffId":"2019110413000123"},{"poweroffId":2019110413000108,"sgpoweroffId":null,"subsName":"","lineName":"横沟541","pubTranName":"衣巾店05变压器,衣巾店07变压器,北沟二变压器,衣巾店03变压器,衣巾店16变压器,衣巾店19变压器,衣巾店15变压器,客户投资_南沟东变压器,衣巾店12变压器,衣巾店06变压器,马西地变压器【纯农排变】,北沟变压器,高新机械1,河北硕融幕墙工程有限公司变压器,衣巾店11变压器,衣巾店08变压器,衣巾店04变压器,衣巾店10变压器,衣巾店13变压器,衣巾店北地变压器【纯农排变】,衣巾店09变压器,南沟北变压器,马西北变压器,良各庄变压器,衣巾店02变压器,马西浇地变压器,良各庄北地变压器【纯农排变】,良各庄地（不纯磁卡）变压器【纯农排变】,高碑店市联通铸造有限责任公司1,高碑店市联通铸造有限责任公司2,南沟新变压器,衣巾店17变压器,衣巾店01变压器,衣巾店南地变压器【纯农排变】,高碑店市联通铸造有限责任公司,碑店市禾田农业机械有限公司变压器,南沟地变压器【纯农排变】,客户投资_良各庄西变压器,衣巾店中学,衣巾店14变压器,高碑店市方官镇衣巾店小学,南沟南变压器,衣巾店18变压器,北沟地变压器,","scope":"【影响街道/乡镇】方官镇 【高危重要客户】无 【影响客户】南沟村（部分）、北沟村（部分）、高新机械工业有限公司、衣锦店村、京泰达风机制造有限责任公司、裕禾面业有限公司、高碑店市溢丰粮食农民专业合作社、高碑店市风机总厂、良各庄村、马西村、高碑店市联通铸造有限责任公司、河北硕融幕墙工程有限公司、高碑店市禾田农业机械有限公司、总通风机公司","startTime":"2019-11-13 06:00:00","stopDate":"2019-11-13 09:00:00","orgNo":"1340612","typeCode":"计划停电","poweroffArea":"【分支停电】停衣巾店16变压器,衣巾店05变压器,衣巾店07变压器,北沟二变压器,衣巾店03变压器,衣巾店19变压器,衣巾店15变压器,客户投资_南沟东变压器,衣巾店12变压器,衣巾店06变压器,衣巾店11变压器,衣巾店08变压器,衣巾店04变压器,衣巾店10变压器,衣巾店13变压器,衣巾店北地变压器【纯农排变】,衣巾店09变压器,南沟北变压器,马西北变压器,良各庄变压器,衣巾店02变压器,马西浇地变压器,良各庄北地变压器【纯农排变】,良各庄地（不纯磁卡）变压器【纯农排变】,高碑店市联通铸造有限责任公司1,高碑店市联通铸造有限责任公司2,南沟新变压器,衣巾店17变压器,衣巾店01变压器,衣巾店南地变压器【纯农排变】,高碑店市联通铸造有限责任公司,碑店市禾田农业机械有限公司变压器,南沟地变压器【纯农排变】,客户投资_良各庄西变压器,衣巾店中学,衣巾店14变压器,马西地变压器【纯农排变】,北沟变压器,高新机械1,河北硕融幕墙工程有限公司变压器,高碑店市方官镇衣巾店小学,南沟南变压器,衣巾店18变压器,北沟地变压器","poweroffReason":"【停电原因】由于新增配变接引导致１１０ＫＶ方官变电站１０ＫＶ横沟５４１线路０２号断路器以下停电 【变更送电】无 【发布渠道】高碑店市高碑店电视台（１１月５日１８时至１１月１２日８时之间）屏幕上方滚动","powerTime":"2019-11-13 08:09:13","powerComm":"已送电","subsNo":"","lineNo":"","tgNo":"","tgName":null,"infoStatus":"1","orgName":"国网高碑店市供电公司","typeName":null,"infoStatusName":null,"dateDay":null,"orgNos":null,"nowTime":null,"countyName":null,"streetName":null,"villageName":null,"roadName":null,"communityName":null,"tranName":null,"sdLineName":null,"cityCode":"1340612","cityName":"国网高碑店市供电公司","provinceCode":null,"stopTime":"2019-11-13 09:00:00","powerType":"全部","powerOffArea":"【分支停电】停衣巾店16变压器,衣巾店05变压器,衣巾店07变压器,北沟二变压器,衣巾店03变压器,衣巾店19变压器,衣巾店15变压器,客户投资_南沟东变压器,衣巾店12变压器,衣巾店06变压器,衣巾店11变压器,衣巾店08变压器,衣巾店04变压器,衣巾店10变压器,衣巾店13变压器,衣巾店北地变压器【纯农排变】,衣巾店09变压器,南沟北变压器,马西北变压器,良各庄变压器,衣巾店02变压器,马西浇地变压器,良各庄北地变压器【纯农排变】,良各庄地（不纯磁卡）变压器【纯农排变】,高碑店市联通铸造有限责任公司1,高碑店市联通铸造有限责任公司2,南沟新变压器,衣巾店17变压器,衣巾店01变压器,衣巾店南地变压器【纯农排变】,高碑店市联通铸造有限责任公司,碑店市禾田农业机械有限公司变压器,南沟地变压器【纯农排变】,客户投资_良各庄西变压器,衣巾店中学,衣巾店14变压器,马西地变压器【纯农排变】,北沟变压器,高新机械1,河北硕融幕墙工程有限公司变压器,高碑店市方官镇衣巾店小学,南沟南变压器,衣巾店18变压器,北沟地变压器","powerOffReason":"【停电原因】由于新增配变接引导致１１０ＫＶ方官变电站１０ＫＶ横沟５４１线路０２号断路器以下停电 【变更送电】无 【发布渠道】高碑店市高碑店电视台（１１月５日１８时至１１月１２日８时之间）屏幕上方滚动","powerOffId":"2019110413000108"},{"poweroffId":2019110413000105,"sgpoweroffId":null,"subsName":"","lineName":"10kV北都511线","pubTranName":"小内综合3号,中照综合1号变压器,","scope":"【影响街道/乡镇】段村乡 【高危重要客户】无 【影响客户】北都村、黄台村、小内村、边三庄村、西照村、中照村","startTime":"2019-11-14 08:00:00","stopDate":"2019-11-14 18:30:00","orgNo":"1340606","typeCode":"计划停电","poweroffArea":"【全线路停电】停小内综合3号,中照综合1号变压器","poweroffReason":"【停电原因】由于更换电杆导致３５ＫＶ边三庄变电站１０ＫＶ北都５１１线路全线停电 【变更送电】无 【发布渠道】保定市安国电视台（１１月０５日００时至２４时之间）屏幕上方滚动","powerTime":"2019-11-14 18:08:46","powerComm":"已送电","subsNo":"","lineNo":"","tgNo":"","tgName":null,"infoStatus":"1","orgName":"国网安国市供电公司","typeName":null,"infoStatusName":null,"dateDay":null,"orgNos":null,"nowTime":null,"countyName":null,"streetName":null,"villageName":null,"roadName":null,"communityName":null,"tranName":null,"sdLineName":null,"cityCode":"1340606","cityName":"国网安国市供电公司","provinceCode":null,"stopTime":"2019-11-14 18:30:00","powerType":"全部","powerOffArea":"【全线路停电】停小内综合3号,中照综合1号变压器","powerOffReason":"【停电原因】由于更换电杆导致３５ＫＶ边三庄变电站１０ＫＶ北都５１１线路全线停电 【变更送电】无 【发布渠道】保定市安国电视台（１１月０５日００时至２４时之间）屏幕上方滚动","powerOffId":"2019110413000105"},{"poweroffId":2019110413000082,"sgpoweroffId":null,"subsName":"","lineName":"市郊513","pubTranName":"三丈铺新增北台变压器,西马新变压器,三丈铺西变压器,西马南变压器,顺河庄04号变压器,三丈辛庄新增200配变,张彦辉变压器,三辛庄西地变压器【纯农排变】,西马北,南虎南变台,三丈北地变压器【纯农排变】,三辛庄南变压器,顺河庄南地变压器【纯农排变】,三辛庄内变压器,三丈铺东变压器,南虎东地变压器【纯农排变】,西马排灌变压器【纯农排变】,三辛庄北地变压器【纯农排变】,三丈铺地变压器【纯农排变】,顺通水泥制品厂,三丈东南变压器,顺河庄11号变压器,三辛庄东,红旗水泥制品厂,三丈铺北排灌变压器【纯农排变】,南虎西变压器,三辛庄砖厂,鑫正牧业,西马变压器,三丈北变压器,三丈南地变压器【纯农排变】,三丈南变压器,田树河,中国石油保定67站,南虎北变压器,","scope":"【影响街道/乡镇】和平办事处 【高危重要客户】无 【影响客户】南虎村、西马村 、三丈铺村、三辛庄村、 顺河庄村(铁路西)、三丈村、 67加油站、 红旗水泥、三辛庄砖厂、顺通水泥厂、田树河、张彦辉、鑫正牧业","startTime":"2019-11-13 07:00:00","stopDate":"2019-11-13 11:00:00","orgNo":"1340612","typeCode":"计划停电","poweroffArea":"【分支停电】停三丈东南变压器,顺河庄11号变压器,三丈铺新增北台变压器,西马新变压器,三丈铺西变压器,西马南变压器,顺河庄04号变压器,三丈辛庄新增200配变,张彦辉变压器,三辛庄西地变压器【纯农排变】,西马北,南虎南变台,三丈北地变压器【纯农排变】,三辛庄南变压器,顺河庄南地变压器【纯农排变】,三辛庄内变压器,三丈铺东变压器,南虎东地变压器【纯农排变】,西马排灌变压器【纯农排变】,三辛庄北地变压器【纯农排变】,三丈铺地变压器【纯农排变】,顺通水泥制品厂,三辛庄东,红旗水泥制品厂,三丈铺北排灌变压器【纯农排变】,南虎西变压器,三辛庄砖厂,鑫正牧业,西马变压器,三丈北变压器,三丈南地变压器【纯农排变】,三丈南变压器,田树河,中国石油保定67站,南虎北变压器","poweroffReason":"【停电原因】由于更换刀闸导致２２０ＫＶ高碑店变电站１０ＫＶ市郊５１３线路０２号断路器以下停电 【变更送电】无 【发布渠道】高碑店市高碑店电视台（１１月５日１８时至１１月１２日８时之间）屏幕上方滚动","powerTime":"2019-11-13 10:58:47","powerComm":"已送电","subsNo":"","lineNo":"","tgNo":"","tgName":null,"infoStatus":"1","orgName":"国网高碑店市供电公司","typeName":null,"infoStatusName":null,"dateDay":null,"orgNos":null,"nowTime":null,"countyName":null,"streetName":null,"villageName":null,"roadName":null,"communityName":null,"tranName":null,"sdLineName":null,"cityCode":"1340612","cityName":"国网高碑店市供电公司","provinceCode":null,"stopTime":"2019-11-13 11:00:00","powerType":"全部","powerOffArea":"【分支停电】停三丈东南变压器,顺河庄11号变压器,三丈铺新增北台变压器,西马新变压器,三丈铺西变压器,西马南变压器,顺河庄04号变压器,三丈辛庄新增200配变,张彦辉变压器,三辛庄西地变压器【纯农排变】,西马北,南虎南变台,三丈北地变压器【纯农排变】,三辛庄南变压器,顺河庄南地变压器【纯农排变】,三辛庄内变压器,三丈铺东变压器,南虎东地变压器【纯农排变】,西马排灌变压器【纯农排变】,三辛庄北地变压器【纯农排变】,三丈铺地变压器【纯农排变】,顺通水泥制品厂,三辛庄东,红旗水泥制品厂,三丈铺北排灌变压器【纯农排变】,南虎西变压器,三辛庄砖厂,鑫正牧业,西马变压器,三丈北变压器,三丈南地变压器【纯农排变】,三丈南变压器,田树河,中国石油保定67站,南虎北变压器","powerOffReason":"【停电原因】由于更换刀闸导致２２０ＫＶ高碑店变电站１０ＫＶ市郊５１３线路０２号断路器以下停电 【变更送电】无 【发布渠道】高碑店市高碑店电视台（１１月５日１８时至１１月１２日８时之间）屏幕上方滚动","powerOffId":"2019110413000082"},{"poweroffId":2019110413000063,"sgpoweroffId":null,"subsName":"","lineName":"10kV清苑线528","pubTranName":"2丰台外7【纯农排变】,2丰台外22【纯农排变】,2丰台外14【纯农排变】,2丰台外13【纯农排变】,2丰台外9【纯农排变】,2丰台外18【纯农排变】,2丰台外15【纯农排变】,2丰台外6【纯农排变】,2丰台外21【纯农排变】,2丰台外12【纯农排变】,2唐庄外9（清苑线528）【纯农排变】,丰台村北,1丰台内2,2丰台外20【纯农排变】,2丰台外2【纯农排变】,丰台村委会,1丰台内9,1丰台内7,1丰台内5,2唐庄外3（清苑线528）【纯农排变】,1丰台内1,1丰台内6,1丰台内4,1丰台内8,1丰台内3,2丰台外3【纯农排变】,2丰台外10【纯农排变】,2丰台外16【纯农排变】,2丰台外26【纯农排变】,2丰台外19【纯农排变】,2丰台外11【纯农排变】,2丰台外23【纯农排变】,2丰台外5【纯农排变】,2丰台外25【纯农排变】,2丰台外4【纯农排变】,2丰台外17【纯农排变】,2丰台外8【纯农排变】,2丰台外24【纯农排变】,2丰台外1【纯农排变】,","scope":"【影响街道/乡镇】五尧乡 【高危重要客户】无 【影响客户】丰台、唐庄","startTime":"2019-11-13 06:30:00","stopDate":"2019-11-13 18:00:00","orgNo":"1340618","typeCode":"计划停电","poweroffArea":"【分支停电】停2唐庄外9【纯农排变】,丰台村北,1丰台内2,2丰台外20【纯农排变】,2丰台外2【纯农排变】,丰台村委会,1丰台内9,1丰台内7,1丰台内5,2唐庄外3【纯农排变】,1丰台内1,1丰台内6,1丰台内4,1丰台内8,1丰台内3,2丰台外3【纯农排变】,2丰台外10【纯农排变】,2丰台外16【纯农排变】,2丰台外26【纯农排变】,2丰台外19【纯农排变】,2丰台外11【纯农排变】,2丰台外23【纯农排变】,2丰台外5【纯农排变】,2丰台外25【纯农排变】,2丰台外4【纯农排变】,2丰台外17【纯农排变】,2丰台外8【纯农排变】,2丰台外24【纯农排变】,2丰台外1【纯农排变】,2丰台外6【纯农排变】,2丰台外21【纯农排变】,2丰台外12【纯农排变】,2丰台外7【纯农排变】,2丰台外22【纯农排变】,2丰台外14【纯农排变】,2丰台外13【纯农排变】,2丰台外9【纯农排变】,2丰台外18【纯农排变】,2丰台外15【纯农排变】","poweroffReason":"【停电原因】由于线路改造工程导致１１０ＫＶ祝泽变电站１０ＫＶ清苑线５２８线路主干１１６号杆分支１号杆至４７号杆停电 【变更送电】无 【发布渠道】保定市清苑区电视台（２０１９年１１月０５日１９时至２０１９年１１月１２日２０时之间）屏幕上方滚动","powerTime":"2019-11-13 17:35:28","powerComm":"崔春燕通知已送电","subsNo":"","lineNo":"","tgNo":"","tgName":null,"infoStatus":"1","orgName":"国网清苑县供电公司","typeName":null,"infoStatusName":null,"dateDay":null,"orgNos":null,"nowTime":null,"countyName":null,"streetName":null,"villageName":null,"roadName":null,"communityName":null,"tranName":null,"sdLineName":null,"cityCode":"1340618","cityName":"国网清苑县供电公司","provinceCode":null,"stopTime":"2019-11-13 18:00:00","powerType":"全部","powerOffArea":"【分支停电】停2唐庄外9【纯农排变】,丰台村北,1丰台内2,2丰台外20【纯农排变】,2丰台外2【纯农排变】,丰台村委会,1丰台内9,1丰台内7,1丰台内5,2唐庄外3【纯农排变】,1丰台内1,1丰台内6,1丰台内4,1丰台内8,1丰台内3,2丰台外3【纯农排变】,2丰台外10【纯农排变】,2丰台外16【纯农排变】,2丰台外26【纯农排变】,2丰台外19【纯农排变】,2丰台外11【纯农排变】,2丰台外23【纯农排变】,2丰台外5【纯农排变】,2丰台外25【纯农排变】,2丰台外4【纯农排变】,2丰台外17【纯农排变】,2丰台外8【纯农排变】,2丰台外24【纯农排变】,2丰台外1【纯农排变】,2丰台外6【纯农排变】,2丰台外21【纯农排变】,2丰台外12【纯农排变】,2丰台外7【纯农排变】,2丰台外22【纯农排变】,2丰台外14【纯农排变】,2丰台外13【纯农排变】,2丰台外9【纯农排变】,2丰台外18【纯农排变】,2丰台外15【纯农排变】","powerOffReason":"【停电原因】由于线路改造工程导致１１０ＫＶ祝泽变电站１０ＫＶ清苑线５２８线路主干１１６号杆分支１号杆至４７号杆停电 【变更送电】无 【发布渠道】保定市清苑区电视台（２０１９年１１月０５日１９时至２０１９年１１月１２日２０时之间）屏幕上方滚动","powerOffId":"2019110413000063"},{"poweroffId":2019110413000046,"sgpoweroffId":null,"subsName":"","lineName":"玩具厂线512","pubTranName":"北罗镇2263变压器,北罗镇1017变压器,北罗镇6848变压器,北罗镇4523变压器,","scope":"【影响街道/乡镇】北罗镇【高危重要客户】无【影响客户】北罗镇村","startTime":"2019-11-14 07:00:00","stopDate":"2019-11-14 17:30:00","orgNo":"1340622","typeCode":"计划停电","poweroffArea":"【分支停电】停北罗镇2263变压器,北罗镇1017变压器,北罗镇6848变压器,北罗镇4523变压器","poweroffReason":"【停电原因】由于更换导线导致３５ＫＶ北罗变电站玩具厂线５１２线路北罗镇分支００２号杆以下线路停电【变更送电】因工作进度加快原因，送电时间由１８：００变更为１７：３０【发布渠道】唐县电视台（０４日至１３日的２０：００时至２０：３０时之间）屏幕上方滚动字幕","powerTime":"2019-11-14 16:46:04","powerComm":"已送电","subsNo":"","lineNo":"","tgNo":"","tgName":null,"infoStatus":"1","orgName":"国网唐县供电公司","typeName":null,"infoStatusName":null,"dateDay":null,"orgNos":null,"nowTime":null,"countyName":null,"streetName":null,"villageName":null,"roadName":null,"communityName":null,"tranName":null,"sdLineName":null,"cityCode":"1340622","cityName":"国网唐县供电公司","provinceCode":null,"stopTime":"2019-11-14 17:30:00","powerType":"全部","powerOffArea":"【分支停电】停北罗镇2263变压器,北罗镇1017变压器,北罗镇6848变压器,北罗镇4523变压器","powerOffReason":"【停电原因】由于更换导线导致３５ＫＶ北罗变电站玩具厂线５１２线路北罗镇分支００２号杆以下线路停电【变更送电】因工作进度加快原因，送电时间由１８：００变更为１７：３０【发布渠道】唐县电视台（０４日至１３日的２０：００时至２０：３０时之间）屏幕上方滚动字幕","powerOffId":"2019110413000046"},{"poweroffId":2019110413000032,"sgpoweroffId":null,"subsName":"","lineName":"10KV白庄512","pubTranName":"闫庄东,罗营8台区,杨坟村西4423【纯农排变】,双树南,闫庄西南,闫庄村内北,南蔡五号6948【纯农排变】,常庄村东变压器【纯农排变】,常庄村东4429【纯农排变】,涿州市南蔡幼儿园柱上变压器,义和庄供电所北蔡柱上变压器【纯农排变】,南蔡村一号变6463【纯农排变】,北蔡村2313【纯农排变】,闫庄北,杨坟北0830【纯农排变】,常庄村东2308【纯农排变】,闫庄南变压器,闫庄南,北蔡西北7381【纯农排变】,北蔡五号6025【纯农排变】,双树南街2949增,闫庄村西南变压器,北蔡村村西道变台,南蔡村二号变6946【纯农排变】,西田城南地变【纯农排变】,南蔡三号6945【纯农排变】,北蔡梨苑变【纯农排变】,永定河管理所,双树北街增,北蔡三号6449【纯农排变】,南蔡四号变6949【纯农排变】,","scope":"【影响街道/乡镇】义和庄乡 【高危重要客户】无 【影响客户】双树、杨坟、西田城、闫庄、北蔡、南蔡、常庄、罗营","startTime":"2019-11-14 06:00:00","stopDate":"2019-11-14 18:00:00","orgNo":"1340626","typeCode":"计划停电","poweroffArea":"【全线路停电】停涿州市温居建筑工程有限公司,闫庄东,罗营8台区,杨坟村西4423【纯农排变】,双树南,闫庄西南,闫庄村内北,杨坟（村北）,南蔡五号6948【纯农排变】,南蔡村南0339【纯农排变】,北蔡村北2号2969【纯农排变】,常庄村东变压器【纯农排变】,常庄村东4429【纯农排变】,河北中科高圣佳环保科技有限公司3,涿州市农丰养殖场,涿州市泽洋门窗加工厂,涿州市南蔡幼儿园柱上变压器,北蔡东北3号2900【纯农排变】,义和庄供电所北蔡柱上变压器【纯农排变】,北京龙伟木制品有限公司涿州分公司,杨坟村南1837【纯农排变】,南蔡村一号变6463【纯农排变】,涿州市国鼎农业技术开发有限公司1,涿州正晟农业技术有限公司,北蔡五号6025【纯农排变】,南蔡西南0338【纯农排变】,涿州鑫豆源食品有限公司,双树南街2949增,河北中科高圣佳环保科技有限公司2,涿州市水利局永定河管理所,河北中科高圣佳环保科技有限公司4,河北中科高圣佳环保科技有限公司1,闫庄村西南变压器,北蔡村村西道变台,义和庄常庄村内,南蔡村二号变6946【纯农排变】,涿州巧工建材有限公司,北蔡村2313【纯农排变】,闫庄北,杨坟北0830【纯农排变】,常庄村东2308【纯农排变】,西田城南地变【纯农排变】,双树0823增,北蔡村北1号3099【纯农排变】,北蔡四号6449,北蔡东南4号3100【纯农排变】,南蔡三号6945【纯农排变】,闫庄小学,闫庄村5322,闫庄南变压器,闫庄学校东,闫庄南,南蔡东北0337【纯农排变】,涿州市国鼎农业技术开发有限公司3,北蔡西北7381【纯农排变】,义所常庄东7988【纯农排变】,北蔡村东7376,北蔡村西南5378,北蔡村南5号2964【纯农排变】,涿州市义和庄乡北菜村民委员会,南蔡堤西1333【纯农排变】,涿州正晟农业科技有限公司,涿州市国鼎农业技术开发有限公司2,北蔡梨苑变【纯农排变】,闫庄村东南【纯农排变】,双树2409增,南蔡东南0336【纯农排变】,南蔡西北1332【纯农排变】,闫庄村内0803,永定河管理所,闫庄5826增,双树北街增,双树村南0822,闫马庄（南地）,北蔡三号6449【纯农排变】,南蔡四号变6949【纯农排变】","poweroffReason":"【停电原因】由于线路检修导致３５ＫＶ码头变电站１０ＫＶ白庄５１２线路全线停电 【变更送电】无 【发布渠道】涿州电视台（１１月０４日至１１月１３日２１：００播放２次）屏幕上方滚动","powerTime":"2019-11-14 17:50:51","powerComm":"恢复送电","subsNo":"","lineNo":"","tgNo":"","tgName":null,"infoStatus":"1","orgName":"国网涿州市供电公司","typeName":null,"infoStatusName":null,"dateDay":null,"orgNos":null,"nowTime":null,"countyName":null,"streetName":null,"villageName":null,"roadName":null,"communityName":null,"tranName":null,"sdLineName":null,"cityCode":"1340626","cityName":"国网涿州市供电公司","provinceCode":null,"stopTime":"2019-11-14 18:00:00","powerType":"全部","powerOffArea":"【全线路停电】停涿州市温居建筑工程有限公司,闫庄东,罗营8台区,杨坟村西4423【纯农排变】,双树南,闫庄西南,闫庄村内北,杨坟（村北）,南蔡五号6948【纯农排变】,南蔡村南0339【纯农排变】,北蔡村北2号2969【纯农排变】,常庄村东变压器【纯农排变】,常庄村东4429【纯农排变】,河北中科高圣佳环保科技有限公司3,涿州市农丰养殖场,涿州市泽洋门窗加工厂,涿州市南蔡幼儿园柱上变压器,北蔡东北3号2900【纯农排变】,义和庄供电所北蔡柱上变压器【纯农排变】,北京龙伟木制品有限公司涿州分公司,杨坟村南1837【纯农排变】,南蔡村一号变6463【纯农排变】,涿州市国鼎农业技术开发有限公司1,涿州正晟农业技术有限公司,北蔡五号6025【纯农排变】,南蔡西南0338【纯农排变】,涿州鑫豆源食品有限公司,双树南街2949增,河北中科高圣佳环保科技有限公司2,涿州市水利局永定河管理所,河北中科高圣佳环保科技有限公司4,河北中科高圣佳环保科技有限公司1,闫庄村西南变压器,北蔡村村西道变台,义和庄常庄村内,南蔡村二号变6946【纯农排变】,涿州巧工建材有限公司,北蔡村2313【纯农排变】,闫庄北,杨坟北0830【纯农排变】,常庄村东2308【纯农排变】,西田城南地变【纯农排变】,双树0823增,北蔡村北1号3099【纯农排变】,北蔡四号6449,北蔡东南4号3100【纯农排变】,南蔡三号6945【纯农排变】,闫庄小学,闫庄村5322,闫庄南变压器,闫庄学校东,闫庄南,南蔡东北0337【纯农排变】,涿州市国鼎农业技术开发有限公司3,北蔡西北7381【纯农排变】,义所常庄东7988【纯农排变】,北蔡村东7376,北蔡村西南5378,北蔡村南5号2964【纯农排变】,涿州市义和庄乡北菜村民委员会,南蔡堤西1333【纯农排变】,涿州正晟农业科技有限公司,涿州市国鼎农业技术开发有限公司2,北蔡梨苑变【纯农排变】,闫庄村东南【纯农排变】,双树2409增,南蔡东南0336【纯农排变】,南蔡西北1332【纯农排变】,闫庄村内0803,永定河管理所,闫庄5826增,双树北街增,双树村南0822,闫马庄（南地）,北蔡三号6449【纯农排变】,南蔡四号变6949【纯农排变】","powerOffReason":"【停电原因】由于线路检修导致３５ＫＶ码头变电站１０ＫＶ白庄５１２线路全线停电 【变更送电】无 【发布渠道】涿州电视台（１１月０４日至１１月１３日２１：００播放２次）屏幕上方滚动","powerOffId":"2019110413000032"}],"pageModel":{"pageNow":409,"totalCount":10973,"totalPage":1098,"tableRows":0,"pageCount":10,"beginCount":4080},"isExperi":"1"}