{"message":"","today":"2020-06-15","seleList":[{"poweroffId":2019110413000024,"sgpoweroffId":null,"subsName":"","lineName":"513丰源庄线","pubTranName":"丁各庄村东北煤【纯农排变】,苑庄1410煤增,丁各庄村内南煤【纯农排变】,丁各庄村西北8034【纯农排变】,北任村东北5504,丁各庄村内南2410,白庄村西煤【纯农排变】,丰源庄沙沟变【纯农排变】,北任村西地变【纯农排变】,北任村南1煤【纯农排变】,屯子头东北煤【纯农排变】,苑庄东南煤【纯农排变】,丰源庄村西南4721【纯农排变】,北任村西1煤【纯农排变】,苑庄西煤【纯农排变】,苑庄西南煤【纯农排变】,屯子头北煤【纯农排变】,屯子头6790台区煤增,北任村西2煤【纯农排变】,白庄德晨达西柱上变压器【纯农排变】,丰源庄北煤【纯农排变】,白庄村内9238煤增,北任村游街3602,北任村南2煤【纯农排变】,丰源庄村北变压器【纯农排变】,白庄村东南煤【纯农排变】,苑庄西北煤【纯农排变】,丁各庄村内1433【纯农排变】,白庄3429煤增,北任村北1煤【纯农排变】,丰源庄村东变压器,北任村村西4726【纯农排变】,丁各庄村西内煤【纯农排变】,苑庄东煤【纯农排变】,丰源庄东道南2411,北任村内1443,屯子头村中2407煤增,丁各庄4426煤增,丰源庄东煤【纯农排变】,白庄村西北煤【纯农排变】,丁各庄村东南煤【纯农排变】,白庄1478煤增,丁各庄村内西1432,白庄2417煤增,义和庄白庄村北【纯农排变】,屯子头西煤【纯农排变】,北任村东1煤【纯农排变】,北任村1482,丰源庄村北（农开）3912【纯农排变】,苑庄村北煤【纯农排变】,丁各庄村西南煤【纯农排变】,白庄村外东1082【纯农排变】,丰源庄1413煤增,","scope":"【影响街道/乡镇】义和庄乡 【高危重要客户】无 【影响客户】渠洛、罗营、杨村、北任村、丁各庄、南荒村、白庄村、屯子头、苑庄、丰源庄、涿州市水利局","startTime":"2019-11-14 06:00:00","stopDate":"2019-11-14 18:00:00","orgNo":"1340626","typeCode":"计划停电","poweroffArea":"【全线路停电】停河北迦美科技有限公司2,丁庄村东5503【纯农排变】,屯子头村东4694【纯农排变】,苑庄村北煤【纯农排变】,丁各庄村内西1432,河北迦美科技有限公司1,涿州市新俊杰新材料科技有限公司,苑庄村南,白庄村西3938【纯农排变】,北任村南2煤【纯农排变】,北任村南1煤【纯农排变】,屯子头村南4446【纯农排变】,丰源庄东道南2411,北任村东北2421,北任村北1煤【纯农排变】,苑庄西煤【纯农排变】,白庄村内9238煤增,北任村西地变【纯农排变】,丰源庄1413煤增,南荒村西北1436,河北中科高圣佳环保科技有限公司4,北任村内1443,丁各庄村东南煤【纯农排变】,丰源庄村西南4721【纯农排变】,屯子头村内,白庄村东南煤【纯农排变】,屯子头村南地,白庄3429煤增,白庄德晨达西柱上变压器【纯农排变】,北任村村西4726【纯农排变】,北任村西1煤【纯农排变】,苑庄5793煤增,白庄村东,白庄村西北煤【纯农排变】,丁各庄村西南煤【纯农排变】,丁各庄村东南3125【纯农排变】,屯子头1471台区煤增,苑庄西南煤【纯农排变】,白庄1414煤增,苑庄村南3920【纯农排变】,苑庄西北煤【纯农排变】,丁各庄4426煤增,白庄村西煤【纯农排变】,丁各庄村东北煤【纯农排变】,白庄村后2412,丁各庄村西内煤【纯农排变】,丰源庄村东变压器,丁各庄村内1433【纯农排变】,义和庄白庄村北【纯农排变】,屯子头1485台区煤增,屯子头北煤【纯农排变】,义和庄南荒村北3148【纯农排变】,白庄村东3935【纯农排变】,海润达2,苑庄村北3932【纯农排变】,北任村游街3602,北任村村东4695【纯农排变】,北任村村西4725【纯农排变】,河北中科高圣佳环保科技有限公司3,苑庄东煤【纯农排变】,丰源庄北煤【纯农排变】,北京龙伟木制品有限公司涿州分公司,苑庄1410煤增,丰源庄村东南4706【纯农排变】,丁各庄村西北8034【纯农排变】,苑庄村东3926【纯农排变】,白庄2417煤增,义和庄所白庄村井6017【纯农排变】,北任村东北5504,丁各庄村内南2410,丁各庄大队前6459,义和庄供电所（丁各庄村西北）,苑庄东南煤【纯农排变】,白庄村北,丰源庄村北变压器【纯农排变】,河北中科高圣佳环保科技有限公司2,北任村1482,河北中科高圣佳环保科技有限公司1,涿州市义和庄镇丁各庄村民委员会,北任村小学（煤）,白庄村1214【纯农排变】,丰源庄东煤【纯农排变】,屯子头6790台区煤增,屯子头西南4715【纯农排变】,0387571113-义和庄供电所苑庄村-专变-45362754-义和庄供电所（苑庄村南）,白庄1478煤增,涿州市兴东养殖服务有限公司,屯子头村中2407煤增,丰源庄1412煤增,屯子头西煤【纯农排变】,丰源庄村北（农开）3912【纯农排变】,丁各庄村内南煤【纯农排变】,海润达1,白庄村外东1082【纯农排变】,北任村西2煤【纯农排变】,丰源庄沙沟变【纯农排变】,屯子头东北煤【纯农排变】,义和庄供电所（丁各庄）,丰源庄1477【纯农排变】,北任村东1煤【纯农排变】,北任村村北4697【纯农排变】","poweroffReason":"【停电原因】由于线路检修导致３５ＫＶ码头变电站５１３丰源庄线路全线停电 【变更送电】无 【发布渠道】涿州电视台（１１月０４日至１１月１３日２１：００播放２次）屏幕上方滚动","powerTime":"2019-11-14 17:50:27","powerComm":"恢复送电","subsNo":"","lineNo":"","tgNo":"","tgName":null,"infoStatus":"1","orgName":"国网涿州市供电公司","typeName":null,"infoStatusName":null,"dateDay":null,"orgNos":null,"nowTime":null,"countyName":null,"streetName":null,"villageName":null,"roadName":null,"communityName":null,"tranName":null,"sdLineName":null,"cityCode":"1340626","cityName":"国网涿州市供电公司","provinceCode":null,"stopTime":"2019-11-14 18:00:00","powerType":"全部","powerOffArea":"【全线路停电】停河北迦美科技有限公司2,丁庄村东5503【纯农排变】,屯子头村东4694【纯农排变】,苑庄村北煤【纯农排变】,丁各庄村内西1432,河北迦美科技有限公司1,涿州市新俊杰新材料科技有限公司,苑庄村南,白庄村西3938【纯农排变】,北任村南2煤【纯农排变】,北任村南1煤【纯农排变】,屯子头村南4446【纯农排变】,丰源庄东道南2411,北任村东北2421,北任村北1煤【纯农排变】,苑庄西煤【纯农排变】,白庄村内9238煤增,北任村西地变【纯农排变】,丰源庄1413煤增,南荒村西北1436,河北中科高圣佳环保科技有限公司4,北任村内1443,丁各庄村东南煤【纯农排变】,丰源庄村西南4721【纯农排变】,屯子头村内,白庄村东南煤【纯农排变】,屯子头村南地,白庄3429煤增,白庄德晨达西柱上变压器【纯农排变】,北任村村西4726【纯农排变】,北任村西1煤【纯农排变】,苑庄5793煤增,白庄村东,白庄村西北煤【纯农排变】,丁各庄村西南煤【纯农排变】,丁各庄村东南3125【纯农排变】,屯子头1471台区煤增,苑庄西南煤【纯农排变】,白庄1414煤增,苑庄村南3920【纯农排变】,苑庄西北煤【纯农排变】,丁各庄4426煤增,白庄村西煤【纯农排变】,丁各庄村东北煤【纯农排变】,白庄村后2412,丁各庄村西内煤【纯农排变】,丰源庄村东变压器,丁各庄村内1433【纯农排变】,义和庄白庄村北【纯农排变】,屯子头1485台区煤增,屯子头北煤【纯农排变】,义和庄南荒村北3148【纯农排变】,白庄村东3935【纯农排变】,海润达2,苑庄村北3932【纯农排变】,北任村游街3602,北任村村东4695【纯农排变】,北任村村西4725【纯农排变】,河北中科高圣佳环保科技有限公司3,苑庄东煤【纯农排变】,丰源庄北煤【纯农排变】,北京龙伟木制品有限公司涿州分公司,苑庄1410煤增,丰源庄村东南4706【纯农排变】,丁各庄村西北8034【纯农排变】,苑庄村东3926【纯农排变】,白庄2417煤增,义和庄所白庄村井6017【纯农排变】,北任村东北5504,丁各庄村内南2410,丁各庄大队前6459,义和庄供电所（丁各庄村西北）,苑庄东南煤【纯农排变】,白庄村北,丰源庄村北变压器【纯农排变】,河北中科高圣佳环保科技有限公司2,北任村1482,河北中科高圣佳环保科技有限公司1,涿州市义和庄镇丁各庄村民委员会,北任村小学（煤）,白庄村1214【纯农排变】,丰源庄东煤【纯农排变】,屯子头6790台区煤增,屯子头西南4715【纯农排变】,0387571113-义和庄供电所苑庄村-专变-45362754-义和庄供电所（苑庄村南）,白庄1478煤增,涿州市兴东养殖服务有限公司,屯子头村中2407煤增,丰源庄1412煤增,屯子头西煤【纯农排变】,丰源庄村北（农开）3912【纯农排变】,丁各庄村内南煤【纯农排变】,海润达1,白庄村外东1082【纯农排变】,北任村西2煤【纯农排变】,丰源庄沙沟变【纯农排变】,屯子头东北煤【纯农排变】,义和庄供电所（丁各庄）,丰源庄1477【纯农排变】,北任村东1煤【纯农排变】,北任村村北4697【纯农排变】","powerOffReason":"【停电原因】由于线路检修导致３５ＫＶ码头变电站５１３丰源庄线路全线停电 【变更送电】无 【发布渠道】涿州电视台（１１月０４日至１１月１３日２１：００播放２次）屏幕上方滚动","powerOffId":"2019110413000024"},{"poweroffId":2019110413000020,"sgpoweroffId":null,"subsName":"","lineName":"10KV义和庄514","pubTranName":"南定村南煤增,长安城村北【纯农排变】,义和庄中学一（煤）,长安城村北7336【纯农排变】,中任西堤1445,长安城路南变压器【纯农排变】,义和庄商业街北柱上变压器,南定村内1405煤增,南任村村南2399,义和庄村北8384,长安城西北【纯农排变】,长安城街内9620,龙门口村南3908,龙门口1479,长安城南1439,义和庄村南8387,义和庄大队西南2413,涿州市义和庄幼儿园1煤柱上变压器,中任村村北柱上变压器,义和庄大队8052【纯农排变】,义和庄中学东北变压器【纯农排变】,刘庄村南东1541煤增,北任村2401,南定村1470煤增,义和庄中学三（煤）,南定小学箱（煤）箱式变电站配电变压器,中任村村西北2951【纯农排变】,中任村内东5505,南任村8130【纯农排变】,义和庄乡政府煤配电变压器,义和庄1472,北沟2920,涿州市义和庄卫生院煤柱上变压器,长安城正北变,义和庄中学二（煤）,刘庄村南1422煤增,南任村4094【纯农排变】,义和庄村东5843【纯农排变】,南定小学（煤）,南定村北1407煤增,义和庄村西北,","scope":"【影响街道/乡镇】义和庄乡 【高危重要客户】无 【影响客户】义和庄、龙门口、南定村、南任村、中任村、义和庄供电所、长安城、刘庄、华庄、义和庄乡政府","startTime":"2019-11-14 06:00:00","stopDate":"2019-11-14 18:00:00","orgNo":"1340626","typeCode":"计划停电","poweroffArea":"【全线路停电】停义和庄粮库2921,华庄村东北3126,义和庄村北4083,南定小学箱（煤）箱式变电站配电变压器,义和庄村南8387,义和庄村南地1403,南任村村南2399,义和庄供电所（刘庄）,长安城村村南3142【纯农排变】,北任村村南4696【纯农排变】,长安城北西1441,义和庄村南4722【纯农排变】,义和庄村北4724【纯农排变】,义和庄1472,龙门口村8435【纯农排变】,涿州市义和庄乡义和庄村委会,涿州市义和庄幼儿园1煤柱上变压器,义和庄供电所（长安城）,义和庄村西北,长安城街内9620,义和庄供电所(中任村),南定村1470煤增,南定村北变压器【纯农排变】,刘庄村南1422煤增,南定村北1407煤增,中任村内东5505,义和庄中学东北变压器【纯农排变】,涿州市供电有限责任公司义和庄供电所,刘庄村南东1541煤增,长安城村东南3137【纯农排变】,涿州市森牛牧业有限公司2,南任村村南,长安城村南（东）,长安城村北（东）,华东庄南地,中国联通涿州分公司（义和庄）,南定村南煤增,南荒村1469,义和庄乡政府煤配电变压器,义和庄大队西南6403,义和庄乡双树村委会,长安城村北【纯农排变】,长安城,中任村村北柱上变压器,义和庄,长安城东,南任村南,长安城村北7336【纯农排变】,涿州市义和庄卫生院煤柱上变压器,南晃村东,中任村村西北2951【纯农排变】,刘庄村北地6738【纯农排变】,南荒村西南3146a【纯农排变】,长安城西北【纯农排变】,一心加油站,义和庄中学三（煤）,长安城正北变,长安城路南变压器【纯农排变】,长安城东北3145【纯农排变】,北沟2920,义和庄中学二（煤）,南任村4094【纯农排变】,义和庄刘庄村北5509【纯农排变】,南定村内1405煤增,中任西堤1445,华庄村1473,义和庄大队西南2413,南荒村南5843,长安城南1439,南荒村南1435,义和庄商业街北柱上变压器,义和庄村东5843【纯农排变】,义和庄村东北4723【纯农排变】,义和庄中学一（煤）,长安城新道变【纯农排变】,涿州市义和庄乡长安城村民委员会,龙门口村南3908,南任村1465,义和庄1486,义和庄村北8384,长安城村西南,义和庄供电所（苑庄）,双树井(村西),南定村面粉厂村外,南定小学（煤）,南任村6732,义和庄大队8052【纯农排变】,义所长安城南4860,中任村村西4711【纯农排变】,南任村8130【纯农排变】,龙门口1479,义和庄村北,义和庄村东南,义合庄华庄村西南【纯农排变】,中任村村内1444,中任村村南6237【纯农排变】,华庄村南1430,义和庄村面粉厂南,义和庄东南4720【纯农排变】,涿州京瑞养殖服务有限公司,义和庄大队南,龙门口村西3928【纯农排变】,北任村2401,长安城村东南5837","poweroffReason":"【停电原因】由于线路检修导致３５ＫＶ码头变电站１０ＫＶ义和庄５１４线路全线停电 【变更送电】无 【发布渠道】涿州电视台（１１月０４日至１１月１３日２１：００播放２次）屏幕上方滚动","powerTime":"2019-11-14 17:50:39","powerComm":"恢复送电","subsNo":"","lineNo":"","tgNo":"","tgName":null,"infoStatus":"1","orgName":"国网涿州市供电公司","typeName":null,"infoStatusName":null,"dateDay":null,"orgNos":null,"nowTime":null,"countyName":null,"streetName":null,"villageName":null,"roadName":null,"communityName":null,"tranName":null,"sdLineName":null,"cityCode":"1340626","cityName":"国网涿州市供电公司","provinceCode":null,"stopTime":"2019-11-14 18:00:00","powerType":"全部","powerOffArea":"【全线路停电】停义和庄粮库2921,华庄村东北3126,义和庄村北4083,南定小学箱（煤）箱式变电站配电变压器,义和庄村南8387,义和庄村南地1403,南任村村南2399,义和庄供电所（刘庄）,长安城村村南3142【纯农排变】,北任村村南4696【纯农排变】,长安城北西1441,义和庄村南4722【纯农排变】,义和庄村北4724【纯农排变】,义和庄1472,龙门口村8435【纯农排变】,涿州市义和庄乡义和庄村委会,涿州市义和庄幼儿园1煤柱上变压器,义和庄供电所（长安城）,义和庄村西北,长安城街内9620,义和庄供电所(中任村),南定村1470煤增,南定村北变压器【纯农排变】,刘庄村南1422煤增,南定村北1407煤增,中任村内东5505,义和庄中学东北变压器【纯农排变】,涿州市供电有限责任公司义和庄供电所,刘庄村南东1541煤增,长安城村东南3137【纯农排变】,涿州市森牛牧业有限公司2,南任村村南,长安城村南（东）,长安城村北（东）,华东庄南地,中国联通涿州分公司（义和庄）,南定村南煤增,南荒村1469,义和庄乡政府煤配电变压器,义和庄大队西南6403,义和庄乡双树村委会,长安城村北【纯农排变】,长安城,中任村村北柱上变压器,义和庄,长安城东,南任村南,长安城村北7336【纯农排变】,涿州市义和庄卫生院煤柱上变压器,南晃村东,中任村村西北2951【纯农排变】,刘庄村北地6738【纯农排变】,南荒村西南3146a【纯农排变】,长安城西北【纯农排变】,一心加油站,义和庄中学三（煤）,长安城正北变,长安城路南变压器【纯农排变】,长安城东北3145【纯农排变】,北沟2920,义和庄中学二（煤）,南任村4094【纯农排变】,义和庄刘庄村北5509【纯农排变】,南定村内1405煤增,中任西堤1445,华庄村1473,义和庄大队西南2413,南荒村南5843,长安城南1439,南荒村南1435,义和庄商业街北柱上变压器,义和庄村东5843【纯农排变】,义和庄村东北4723【纯农排变】,义和庄中学一（煤）,长安城新道变【纯农排变】,涿州市义和庄乡长安城村民委员会,龙门口村南3908,南任村1465,义和庄1486,义和庄村北8384,长安城村西南,义和庄供电所（苑庄）,双树井(村西),南定村面粉厂村外,南定小学（煤）,南任村6732,义和庄大队8052【纯农排变】,义所长安城南4860,中任村村西4711【纯农排变】,南任村8130【纯农排变】,龙门口1479,义和庄村北,义和庄村东南,义合庄华庄村西南【纯农排变】,中任村村内1444,中任村村南6237【纯农排变】,华庄村南1430,义和庄村面粉厂南,义和庄东南4720【纯农排变】,涿州京瑞养殖服务有限公司,义和庄大队南,龙门口村西3928【纯农排变】,北任村2401,长安城村东南5837","powerOffReason":"【停电原因】由于线路检修导致３５ＫＶ码头变电站１０ＫＶ义和庄５１４线路全线停电 【变更送电】无 【发布渠道】涿州电视台（１１月０４日至１１月１３日２１：００播放２次）屏幕上方滚动","powerOffId":"2019110413000020"},{"poweroffId":2019110413000019,"sgpoweroffId":null,"subsName":"","lineName":"10KV里渠517","pubTranName":"北蔡五号6025【纯农排变】,大兴庄道东变,大兴庄村委会东【纯农排变】,东新村6734,东田城村西4365,四树村东南变,常庄村北,常庄村西北变压器【纯农排变】,大兴庄西0794,涿州市义和庄六合新村6箱变母线间隔配电变压器,陶营堤北【纯农排变】,大兴庄堤西【纯农排变】,涿州市义和庄六合新村12-1箱变母线间隔配电变压器,东辛村北路南变,涿州市东田城幼儿园煤柱上变压器,东辛村西北地变,涿州市义和庄六合新村7箱变母线间隔配电变压器,涿州市义和庄六合新村10箱变母线间隔配电变压器,涿州市义和庄六合新村4箱变母线间隔配电变压器,刘园子村东南变,北蔡西北7381【纯农排变】,北蔡三号6449【纯农排变】,涿州市义和庄六合新村3箱变母线间隔配电变压器,义和庄里渠村北新增【纯农排变】,涿州市义和庄六合新村5箱变母线间隔配电变压器,涿州市义和庄六合新村2箱变母线间隔配电变压器,涿州市义和庄六合新村9箱变母线间隔配电变压器,里渠村西南,闫庄村西北7957【纯农排变】,义和庄派出所（煤）,刘家园村西0787,陶营村东变压器【纯农排变】,大兴庄村北柱上变压器【纯农排变】,陶营北柱上变压器【纯农排变】,大兴庄村西南1083【纯农排变】,常庄村西4438【纯农排变】,陶营村北东变压器,涿州市义和庄六合新村12-2箱变母线间隔配电变压器,邓渠村北柱上变压器【纯农排变】,四树村南【纯农排变】,涿州市义和庄六合新村1箱变母线间隔配电变压器,大兴庄堤北变压器【纯农排变】,","scope":"【影响街道/乡镇】义和庄乡 【高危重要客户】无 【影响客户】北蔡村、陶营村、西田城、邓渠、东田城、四树、古城村、常庄村、里渠、大兴庄、刘家园、杨村、东辛村、六和新村","startTime":"2019-11-14 06:00:00","stopDate":"2019-11-14 18:00:00","orgNo":"1340626","typeCode":"计划停电","poweroffArea":"【全线路停电】停常庄村西4438【纯农排变】,陶营村北东变压器,大兴庄道东变,大兴庄村南8511【纯农排变】,大兴庄（堤北）,义和庄西田城村委会5664变台西田城村北,大兴庄（南地）,刘家园（村南）,古城北1（北地）,北蔡三号6449【纯农排变】,涿州市义和庄六合新村5箱变母线间隔配电变压器,北蔡村大棚,涿州市义和庄六合新村12-1箱变母线间隔配电变压器,涿州市义和庄乡大兴庄村委会,邓渠村西0786【纯农排变】,义和庄里渠村北新增【纯农排变】,陶营村北0799,东田城（路西地）,里渠村南,刘家园村西0787,北蔡西北7381【纯农排变】,闫庄（西地）,东辛村路南2879,涿州市义和庄六合新村3箱变母线间隔配电变压器,刘家园村南4717【纯农排变】,陶营村东变压器【纯农排变】,四树村南【纯农排变】,古城0840,涿州市义和庄六合新村1箱变母线间隔配电变压器,东田城0815,东田城村西4365,东田城村北6199【纯农排变】,常庄村北0848【纯农排变】,北蔡四号6449,里渠0784,常庄村内0805【纯农排变】,里渠村村东北2927,涿州市义和庄六合新村9箱变母线间隔配电变压器,陶营村东0797,涿州市义和庄六合新村2箱变母线间隔配电变压器,古城（西北）,陶营（北地）,北蔡村北2号2969【纯农排变】,西田城铁厂,大兴庄内0795【纯农排变】,西田城内0831,东辛村西北地变,西田城面粉厂,四树村西北0837,陶营村9614【纯农排变】,陶营（大堤）,涿州市东田城幼儿园煤柱上变压器,东田城村北地0816,义和庄派出所（煤）,大兴庄村北柱上变压器【纯农排变】,结源地材有限公司,刘园（村西北）,陶营北柱上变压器【纯农排变】,北蔡村东7376,北蔡村南5号2964【纯农排变】,涿州市义和庄乡陶家营村委会5734变台陶营北地,大兴庄堤北变压器【纯农排变】,大兴庄村西南1083【纯农排变】,涿州市义和庄六合新村7箱变母线间隔配电变压器,里渠村东南,涿州市义和庄六合新村10箱变母线间隔配电变压器,北蔡村西地8503【纯农排变】,东新村6734,西田城（北地）,涿州市义和庄六合新村4箱变母线间隔配电变压器,东田城（村东南）,涿州市义和庄六合新村12-2箱变母线间隔配电变压器,邓渠内0785,陶营村东北9970,西田城（村北路南）,四树（村南）,西田城村东（义和庄供电所）,东辛村北路南变,邓渠村北柱上变压器【纯农排变】,北蔡村北1号3099【纯农排变】,常庄村西0806【纯农排变】,北蔡东南4号3100【纯农排变】,大兴庄堤西【纯农排变】,刘园子村东南变,陶营堤北【纯农排变】,辛村（北地东）,四树村东南变,东田城村西0814,涿州市义和庄镇北蔡村民委员会,四树,义和庄供电所（罗营）,常庄村北,闫庄村西北7957【纯农排变】,常庄村西北变压器【纯农排变】,邓渠村南4718【纯农排变】,古城（西南）,大兴庄西0794,涿州市义和庄六合新村6箱变母线间隔配电变压器,东辛村（北地）,北蔡东北3号2900【纯农排变】,古城村北（农开）【纯农排变】,东辛村村北地7970【纯农排变】,陶营（东北地）,北蔡五号6025【纯农排变】,里渠供电所0838,陶营（村南）,义和庄供电所（杨村北地）,北蔡村西南5378,古城东南0790,四树村南0792【纯农排变】,里渠村西南,大兴庄村委会东【纯农排变】,陶营村北7746","poweroffReason":"【停电原因】由于线路检修导致３５ＫＶ码头变电站１０ＫＶ里渠５１７线路全线停电 【变更送电】无 【发布渠道】涿州电视台（１１月０４日至１１月１３日２１：００播放２次）屏幕上方滚动","powerTime":"2019-11-14 17:50:12","powerComm":"恢复送电","subsNo":"","lineNo":"","tgNo":"","tgName":null,"infoStatus":"1","orgName":"国网涿州市供电公司","typeName":null,"infoStatusName":null,"dateDay":null,"orgNos":null,"nowTime":null,"countyName":null,"streetName":null,"villageName":null,"roadName":null,"communityName":null,"tranName":null,"sdLineName":null,"cityCode":"1340626","cityName":"国网涿州市供电公司","provinceCode":null,"stopTime":"2019-11-14 18:00:00","powerType":"全部","powerOffArea":"【全线路停电】停常庄村西4438【纯农排变】,陶营村北东变压器,大兴庄道东变,大兴庄村南8511【纯农排变】,大兴庄（堤北）,义和庄西田城村委会5664变台西田城村北,大兴庄（南地）,刘家园（村南）,古城北1（北地）,北蔡三号6449【纯农排变】,涿州市义和庄六合新村5箱变母线间隔配电变压器,北蔡村大棚,涿州市义和庄六合新村12-1箱变母线间隔配电变压器,涿州市义和庄乡大兴庄村委会,邓渠村西0786【纯农排变】,义和庄里渠村北新增【纯农排变】,陶营村北0799,东田城（路西地）,里渠村南,刘家园村西0787,北蔡西北7381【纯农排变】,闫庄（西地）,东辛村路南2879,涿州市义和庄六合新村3箱变母线间隔配电变压器,刘家园村南4717【纯农排变】,陶营村东变压器【纯农排变】,四树村南【纯农排变】,古城0840,涿州市义和庄六合新村1箱变母线间隔配电变压器,东田城0815,东田城村西4365,东田城村北6199【纯农排变】,常庄村北0848【纯农排变】,北蔡四号6449,里渠0784,常庄村内0805【纯农排变】,里渠村村东北2927,涿州市义和庄六合新村9箱变母线间隔配电变压器,陶营村东0797,涿州市义和庄六合新村2箱变母线间隔配电变压器,古城（西北）,陶营（北地）,北蔡村北2号2969【纯农排变】,西田城铁厂,大兴庄内0795【纯农排变】,西田城内0831,东辛村西北地变,西田城面粉厂,四树村西北0837,陶营村9614【纯农排变】,陶营（大堤）,涿州市东田城幼儿园煤柱上变压器,东田城村北地0816,义和庄派出所（煤）,大兴庄村北柱上变压器【纯农排变】,结源地材有限公司,刘园（村西北）,陶营北柱上变压器【纯农排变】,北蔡村东7376,北蔡村南5号2964【纯农排变】,涿州市义和庄乡陶家营村委会5734变台陶营北地,大兴庄堤北变压器【纯农排变】,大兴庄村西南1083【纯农排变】,涿州市义和庄六合新村7箱变母线间隔配电变压器,里渠村东南,涿州市义和庄六合新村10箱变母线间隔配电变压器,北蔡村西地8503【纯农排变】,东新村6734,西田城（北地）,涿州市义和庄六合新村4箱变母线间隔配电变压器,东田城（村东南）,涿州市义和庄六合新村12-2箱变母线间隔配电变压器,邓渠内0785,陶营村东北9970,西田城（村北路南）,四树（村南）,西田城村东（义和庄供电所）,东辛村北路南变,邓渠村北柱上变压器【纯农排变】,北蔡村北1号3099【纯农排变】,常庄村西0806【纯农排变】,北蔡东南4号3100【纯农排变】,大兴庄堤西【纯农排变】,刘园子村东南变,陶营堤北【纯农排变】,辛村（北地东）,四树村东南变,东田城村西0814,涿州市义和庄镇北蔡村民委员会,四树,义和庄供电所（罗营）,常庄村北,闫庄村西北7957【纯农排变】,常庄村西北变压器【纯农排变】,邓渠村南4718【纯农排变】,古城（西南）,大兴庄西0794,涿州市义和庄六合新村6箱变母线间隔配电变压器,东辛村（北地）,北蔡东北3号2900【纯农排变】,古城村北（农开）【纯农排变】,东辛村村北地7970【纯农排变】,陶营（东北地）,北蔡五号6025【纯农排变】,里渠供电所0838,陶营（村南）,义和庄供电所（杨村北地）,北蔡村西南5378,古城东南0790,四树村南0792【纯农排变】,里渠村西南,大兴庄村委会东【纯农排变】,陶营村北7746","powerOffReason":"【停电原因】由于线路检修导致３５ＫＶ码头变电站１０ＫＶ里渠５１７线路全线停电 【变更送电】无 【发布渠道】涿州电视台（１１月０４日至１１月１３日２１：００播放２次）屏幕上方滚动","powerOffId":"2019110413000019"},{"poweroffId":2019110413000016,"sgpoweroffId":null,"subsName":"","lineName":"罗营515线","pubTranName":"龙各庄06变压器,龙各庄03变压器,陶辛庄(东)变压器,苑辛庄北变压器,龙各庄05变压器,王家营变压器,苑辛庄排灌变压器【纯农排变】,苑辛庄南变压器,陶辛庄西变压器,王家营北变台,高碑店市水利局梁家营水厂,陶辛庄排灌变压器【纯农排变】,龙各庄07变压器,苑辛庄排灌3变压器【纯农排变】,龙各庄01变压器,龙各庄排灌变压器【纯农排变】,王家营北排灌变压器【纯农排变】,苑辛庄东变压器,龙各庄02变压器,龙各庄04变压器,","scope":"【影响街道/乡镇】梁家营乡 【高危重要客户】无 【影响客户】梁家营水厂、王家营村、苑辛庄村、陶辛庄村、龙各庄村","startTime":"2019-11-04 09:40:00","stopDate":"2019-11-04 12:00:00","orgNo":"1340612","typeCode":"其他临时停电","poweroffArea":"【分支停电】停龙各庄06变压器,龙各庄03变压器,陶辛庄(东)变压器,苑辛庄北变压器,龙各庄05变压器,王家营变压器,苑辛庄排灌变压器【纯农排变】,苑辛庄南变压器,陶辛庄西变压器,王家营北变台,高碑店市水利局梁家营水厂,陶辛庄排灌变压器【纯农排变】,龙各庄07变压器,苑辛庄排灌3变压器【纯农排变】,龙各庄01变压器,龙各庄排灌变压器【纯农排变】,王家营北排灌变压器【纯农排变】,苑辛庄东变压器,龙各庄02变压器,龙各庄04变压器","poweroffReason":"【停电原因】由于弓子线打火需紧急处理导致１１０ＫＶ太平庄变电站１０ＫＶ罗营５１５线路０２号断路器以下停电 【变更送电】无 【发布渠道】通过９５５９８发布","powerTime":"2019-11-04 11:16:14","powerComm":"已送电","subsNo":"","lineNo":"","tgNo":"","tgName":null,"infoStatus":"1","orgName":"国网高碑店市供电公司","typeName":null,"infoStatusName":null,"dateDay":null,"orgNos":null,"nowTime":null,"countyName":null,"streetName":null,"villageName":null,"roadName":null,"communityName":null,"tranName":null,"sdLineName":null,"cityCode":"1340612","cityName":"国网高碑店市供电公司","provinceCode":null,"stopTime":"2019-11-04 12:00:00","powerType":"全部","powerOffArea":"【分支停电】停龙各庄06变压器,龙各庄03变压器,陶辛庄(东)变压器,苑辛庄北变压器,龙各庄05变压器,王家营变压器,苑辛庄排灌变压器【纯农排变】,苑辛庄南变压器,陶辛庄西变压器,王家营北变台,高碑店市水利局梁家营水厂,陶辛庄排灌变压器【纯农排变】,龙各庄07变压器,苑辛庄排灌3变压器【纯农排变】,龙各庄01变压器,龙各庄排灌变压器【纯农排变】,王家营北排灌变压器【纯农排变】,苑辛庄东变压器,龙各庄02变压器,龙各庄04变压器","powerOffReason":"【停电原因】由于弓子线打火需紧急处理导致１１０ＫＶ太平庄变电站１０ＫＶ罗营５１５线路０２号断路器以下停电 【变更送电】无 【发布渠道】通过９５５９８发布","powerOffId":"2019110413000016"},{"poweroffId":2019110313000117,"sgpoweroffId":null,"subsName":"","lineName":"大兰线514","pubTranName":"龙家铺9#（光伏）,龙家铺1号新,龙家铺7#（光伏）,龙家铺6#（光伏）,桑岗村1号,桑岗村2|【纯农排变】,南杜岗村3#,桑岗光伏1#变压器,桑岗村3#,龙家铺8#（光伏）,龙家铺10#,苑岗村1#,龙家铺5#（光伏）,南杜岗村2#,苑岗村2#,苑岗村3#,南杜岗村1#,桑岗4#变压器,","scope":"【影响街道/乡镇】良岗镇【高危重要客户】无【影响客户】龙家铺、桑岗村、南杜岗村、苑岗村","startTime":"2019-11-03 14:50:40","stopDate":"2019-11-03 16:30:00","orgNo":"1340625","typeCode":"电网故障停限电","poweroffArea":"【分支停电】停龙家铺1号新,龙家铺7#（光伏）,龙家铺6#（光伏）,桑岗村1号,桑岗村2|【纯农排变】,南杜岗村3#,桑岗光伏1#变压器,桑岗村3#,桑岗4#变压器,龙家铺10#,苑岗村1#,龙家铺5#（光伏）,南杜岗村2#,苑岗村2#,苑岗村3#,南杜岗村1#,龙家铺8#（光伏）,龙家铺9#（光伏）","poweroffReason":"【停电原因】由于低压线断导致１１０ＫＶ良岗变电站大兰线５１４线路００５号杆至０１８号杆之间线路停电【变更送电】因抢修进度加快原因，送电时间由１８：００变更为１６：３０【发布渠道】通过９５５９８发布","powerTime":"2019-11-03 16:06:41","powerComm":"已送电","subsNo":"","lineNo":"","tgNo":"","tgName":null,"infoStatus":"1","orgName":"国网易县供电公司","typeName":null,"infoStatusName":null,"dateDay":null,"orgNos":null,"nowTime":null,"countyName":null,"streetName":null,"villageName":null,"roadName":null,"communityName":null,"tranName":null,"sdLineName":null,"cityCode":"1340625","cityName":"国网易县供电公司","provinceCode":null,"stopTime":"2019-11-03 16:30:00","powerType":"全部","powerOffArea":"【分支停电】停龙家铺1号新,龙家铺7#（光伏）,龙家铺6#（光伏）,桑岗村1号,桑岗村2|【纯农排变】,南杜岗村3#,桑岗光伏1#变压器,桑岗村3#,桑岗4#变压器,龙家铺10#,苑岗村1#,龙家铺5#（光伏）,南杜岗村2#,苑岗村2#,苑岗村3#,南杜岗村1#,龙家铺8#（光伏）,龙家铺9#（光伏）","powerOffReason":"【停电原因】由于低压线断导致１１０ＫＶ良岗变电站大兰线５１４线路００５号杆至０１８号杆之间线路停电【变更送电】因抢修进度加快原因，送电时间由１８：００变更为１６：３０【发布渠道】通过９５５９８发布","powerOffId":"2019110313000117"},{"poweroffId":2019110313000115,"sgpoweroffId":null,"subsName":"","lineName":"辛立庄553","pubTranName":"杜村南变压器,杜村西3变压器,杨辛庄3号农变压器【纯农排变】,杜村东1变压器,辛三南变压器,","scope":"【影响街道/乡镇】辛立庄镇 【高危重要客户】无 【影响客户】高碑店市辛立庄韩村营井龙塑料件加工厂、高碑店市辛立庄鑫宏宇木门加工厂、时成海、刘笑天、杨辛庄成江塑件厂、高碑店市强昊技术信息服务农民专业合作社、高碑店市辛立庄镇杨辛庄村村民委员会、高碑店市辛立庄峰源养猪场、高碑店市辛立庄幼儿园、高碑店市洁洁环卫服务有限公司、杨辛庄、杜村、辛二、辛三、辛一南一、韩村营","startTime":"2019-11-12 06:00:00","stopDate":"2019-11-12 20:00:00","orgNo":"1340612","typeCode":"计划停电","poweroffArea":"【全线路停电】停燎原公司东,杜村东变压器,韩村营内变压器,韩村营南变压器,韩村营南农变压器【纯农排变】,韩村营东变压器,高碑店市辛立庄幼儿园变压器,辛二东变压器,辛二农变压器【纯农排变】,杨辛庄南1变压器,时成海,辛三2号农变压器【纯农排变】,辛二2号农排变压器【纯农排变】,辛三东变压器,辛二西变压器,杨辛庄东变压器,辛三南变压器,杜村西1变压器,杜村西3变压器,杨辛庄2号农变压器【纯农排变】,杜村南农变压器【纯农排变】,杜村西变压器,高碑店市辛立庄远宏不锈钢厂1变压器,杨辛庄3号农变压器【纯农排变】,辛三农（磁卡）变压器【纯农排变】,辛一南1变压器,变压器,杜村东1变压器,杨辛庄南变压器,新一村南变压器【纯农排变】,杨辛庄1号农变压器【纯农排变】,韩村营农（磁卡）变压器【纯农排变】,高碑店市强昊技术信息服务农民专业合作社2#变压器,辛三东北变压器,柳振喜,杜村南变压器,杨辛庄北变压器,辛三东南排灌（磁卡）变压器【纯农排变】,高碑店市强昊技术信息服务农民专业合作社1#变压器,韩村营东南变压器,高碑店市张六庄国义水泥制品厂,高碑店市辛立庄镇杨辛庄村村民委员会变压器,辛二南变压器,刘笑天,高碑店市辛立庄远宏不锈钢厂2变压器,高碑店市辛立庄峰源养猪场变压器","poweroffReason":"【停电原因】由于立杆换线导致１１０ＫＶ陈八庄变电站１０ＫＶ辛立庄５５３线路全线停电 【变更送电】因工作量大原因，送电时间由１８：００变更为２０：００ 【发布渠道】高碑店市高碑店电视台（１１月０４日０８时至１１月１１日１８时之间）屏幕上方滚动","powerTime":"2019-11-12 19:03:18","powerComm":"已送电","subsNo":"","lineNo":"","tgNo":"","tgName":null,"infoStatus":"1","orgName":"国网高碑店市供电公司","typeName":null,"infoStatusName":null,"dateDay":null,"orgNos":null,"nowTime":null,"countyName":null,"streetName":null,"villageName":null,"roadName":null,"communityName":null,"tranName":null,"sdLineName":null,"cityCode":"1340612","cityName":"国网高碑店市供电公司","provinceCode":null,"stopTime":"2019-11-12 20:00:00","powerType":"全部","powerOffArea":"【全线路停电】停燎原公司东,杜村东变压器,韩村营内变压器,韩村营南变压器,韩村营南农变压器【纯农排变】,韩村营东变压器,高碑店市辛立庄幼儿园变压器,辛二东变压器,辛二农变压器【纯农排变】,杨辛庄南1变压器,时成海,辛三2号农变压器【纯农排变】,辛二2号农排变压器【纯农排变】,辛三东变压器,辛二西变压器,杨辛庄东变压器,辛三南变压器,杜村西1变压器,杜村西3变压器,杨辛庄2号农变压器【纯农排变】,杜村南农变压器【纯农排变】,杜村西变压器,高碑店市辛立庄远宏不锈钢厂1变压器,杨辛庄3号农变压器【纯农排变】,辛三农（磁卡）变压器【纯农排变】,辛一南1变压器,变压器,杜村东1变压器,杨辛庄南变压器,新一村南变压器【纯农排变】,杨辛庄1号农变压器【纯农排变】,韩村营农（磁卡）变压器【纯农排变】,高碑店市强昊技术信息服务农民专业合作社2#变压器,辛三东北变压器,柳振喜,杜村南变压器,杨辛庄北变压器,辛三东南排灌（磁卡）变压器【纯农排变】,高碑店市强昊技术信息服务农民专业合作社1#变压器,韩村营东南变压器,高碑店市张六庄国义水泥制品厂,高碑店市辛立庄镇杨辛庄村村民委员会变压器,辛二南变压器,刘笑天,高碑店市辛立庄远宏不锈钢厂2变压器,高碑店市辛立庄峰源养猪场变压器","powerOffReason":"【停电原因】由于立杆换线导致１１０ＫＶ陈八庄变电站１０ＫＶ辛立庄５５３线路全线停电 【变更送电】因工作量大原因，送电时间由１８：００变更为２０：００ 【发布渠道】高碑店市高碑店电视台（１１月０４日０８时至１１月１１日１８时之间）屏幕上方滚动","powerOffId":"2019110313000115"},{"poweroffId":2019110313000114,"sgpoweroffId":null,"subsName":"","lineName":"崔庄线554","pubTranName":"丁庄东变压器,辛三北1变压器,丁庄4号农变压器【纯农排变】,宋庄北变压器,许庄南变压器,市场2变压器,宋庄东2变压器,小韩村南2变压器,北辛庄西变压器,辛一北2变压器,大韩村西2变压器,东垡小杨庄1号农变压器【纯农排变】,","scope":"【影响街道/乡镇】辛立庄镇 【高危重要客户】无 【影响客户】高碑店市茂宏电力器材制造有限公司、高碑店市辛立庄镇总校东垡上幼儿园、高碑店市辛立庄镇总校、高碑店市博农农业发展有限公司、亿联电气设备河北有限公司、高碑店市辛立庄镇总校宋庄小学、高碑店市辛立庄卫生院、高碑店市辛立庄运宏不锈钢厂、河北高碑店农村商业银行股份有限公司、高碑店市高园果品有限责任公司、刘金全、刘国成、王守力、高碑店市辛立庄源禄果品专业合作社、镇政府、高碑店市辛立庄东泰塑料制品厂、刘庆中、高碑店市俊军养殖场、李俊清、刘巨辉、陈景路、东安医院、郭建国、中冀铁管厂、吴井龙、刘庆良、高碑店市辛立庄鑫宇塑料品厂、韩磊、吴宪忠、王素芬养殖厂、高碑店市蓬润包装制品有限公司、高碑店友爱医院、国网河北高碑店市供电公司、高碑店市亿圣灏博奶牛专业合作社、高碑店市晨奥五金制品有限公司、河北亮怡门窗制造有限公司、高碑店市辛立庄镇总校辛立庄小学、高碑店市辛立庄镇小韩村幼儿园、高碑店市辛立庄文徳家庭农场、高碑店市军兴塑料制品包装厂、高碑店市栢城商贸有限公司、辛一、辛三北、市场、北辛庄、阁辛庄、小韩村、大韩村、宋庄、东垡、许庄、西垡、丁庄","startTime":"2019-11-12 06:00:00","stopDate":"2019-11-12 20:00:00","orgNo":"1340612","typeCode":"计划停电","poweroffArea":"【全线路停电】停鸣鸡候农（磁卡）变压器【纯农排变】,高碑店市辛立庄镇总校辛立庄小学变压器,市场2变压器,高碑店市博农农业发展有限公司,宋庄东2变压器,西垡变压器,沈金良变压器,高碑店市辛立庄镇小韩村幼儿园变压器,河北高碑店农村商业银行股份有限公司,东垡1号农变压器【纯农排变】,宋庄西变压器,小韩村南2变压器,高碑店市军兴塑料制品包装厂,北辛庄北变压器,辛一北1变压器,东垡农变压器【纯农排变】,东垡南变压器,北辛庄西变压器,阁辛庄北变压器,辛立庄市场变压器,高碑店市高园果品有限责任公司,高碑店市辛立庄镇总校宋庄小学变压器,高碑店市辛立庄山川纸箱厂变压器,辛一南变压器,高碑店市辛立庄文徳家庭农场,宋庄东变压器,吴杰,大韩村西变压器,辛一北2变压器,镇政府,辛立庄供电所变压器,刘庆中,丁庄内变压器,冯会清,宋庄南变压器,许庄南变压器,宋庄农排变压器【纯农排变】,高碑店市晨奥五金制品有限公司变压器,高碑店市辛立庄镇总校东垡上幼儿园,刘金全,高碑店市辛立庄卫生院变压器,苑文林变压器,高碑店友爱医院,大韩村西2变压器,辛一北变压器,丁庄1号农变压器【纯农排变】,丁庄南变压器,阁辛庄农变压器【纯农排变】,北亮怡门窗制造有限公司变压器01,北辛庄农变压器【纯农排变】,刘巨辉,东垡小杨庄1号农变压器【纯农排变】,西垡农变压器【纯农排变】,丁庄东变压器,0622590431-河北亮怡门窗制造有限公司-专变-130366649-北亮怡门窗制造有限公司变压器,高园果品有限责任公司,东垡内变压器,丁庄2号农变压器【纯农排变】,小韩村北变压器,小韩村农变压器【纯农排变】,王守力,陈景路,韩磊,新一北变压器,丁庄北农变压器【纯农排变】,北辛庄内变压器,许庄北变压器,高碑店市辛立庄东坡铁盒制品变压器,高碑店市辛立庄镇总校,辛三北1变压器,郭建国,高碑店市亿圣灏博奶牛专业合作社变压器,申龙塑电有限公司,辛立庄造纸厂,丁庄4号农变压器【纯农排变】,高碑店市辛立庄运宏不锈钢厂,丁庄3号农变压器,许庄变压器【纯农排变】,市场变压器,宋庄北变压器,辛三北变压器,高碑店市栢城商贸有限公司,东垡北变压器,辛一农变压器【纯农排变】,刘国成,吴宪忠,东安医院,大韩村北变压器,小韩村南变压器,大韩村南变压器,李俊清,东垡小杨庄混用变压器,刘庆良,王素芬养殖厂,沈金良","poweroffReason":"【停电原因】由于立杆换线导致１１０ＫＶ陈八庄变电站１０ＫＶ崔庄５５４线路全线停电 【变更送电】因工作量大原因，送电时间由１８：００变更为２０：００ 【发布渠道】高碑店市高碑店电视台（１１月０４日０８时至１１月１１日１８时之间）屏幕上方滚动","powerTime":"2019-11-12 19:06:16","powerComm":"已送电","subsNo":"","lineNo":"","tgNo":"","tgName":null,"infoStatus":"1","orgName":"国网高碑店市供电公司","typeName":null,"infoStatusName":null,"dateDay":null,"orgNos":null,"nowTime":null,"countyName":null,"streetName":null,"villageName":null,"roadName":null,"communityName":null,"tranName":null,"sdLineName":null,"cityCode":"1340612","cityName":"国网高碑店市供电公司","provinceCode":null,"stopTime":"2019-11-12 20:00:00","powerType":"全部","powerOffArea":"【全线路停电】停鸣鸡候农（磁卡）变压器【纯农排变】,高碑店市辛立庄镇总校辛立庄小学变压器,市场2变压器,高碑店市博农农业发展有限公司,宋庄东2变压器,西垡变压器,沈金良变压器,高碑店市辛立庄镇小韩村幼儿园变压器,河北高碑店农村商业银行股份有限公司,东垡1号农变压器【纯农排变】,宋庄西变压器,小韩村南2变压器,高碑店市军兴塑料制品包装厂,北辛庄北变压器,辛一北1变压器,东垡农变压器【纯农排变】,东垡南变压器,北辛庄西变压器,阁辛庄北变压器,辛立庄市场变压器,高碑店市高园果品有限责任公司,高碑店市辛立庄镇总校宋庄小学变压器,高碑店市辛立庄山川纸箱厂变压器,辛一南变压器,高碑店市辛立庄文徳家庭农场,宋庄东变压器,吴杰,大韩村西变压器,辛一北2变压器,镇政府,辛立庄供电所变压器,刘庆中,丁庄内变压器,冯会清,宋庄南变压器,许庄南变压器,宋庄农排变压器【纯农排变】,高碑店市晨奥五金制品有限公司变压器,高碑店市辛立庄镇总校东垡上幼儿园,刘金全,高碑店市辛立庄卫生院变压器,苑文林变压器,高碑店友爱医院,大韩村西2变压器,辛一北变压器,丁庄1号农变压器【纯农排变】,丁庄南变压器,阁辛庄农变压器【纯农排变】,北亮怡门窗制造有限公司变压器01,北辛庄农变压器【纯农排变】,刘巨辉,东垡小杨庄1号农变压器【纯农排变】,西垡农变压器【纯农排变】,丁庄东变压器,0622590431-河北亮怡门窗制造有限公司-专变-130366649-北亮怡门窗制造有限公司变压器,高园果品有限责任公司,东垡内变压器,丁庄2号农变压器【纯农排变】,小韩村北变压器,小韩村农变压器【纯农排变】,王守力,陈景路,韩磊,新一北变压器,丁庄北农变压器【纯农排变】,北辛庄内变压器,许庄北变压器,高碑店市辛立庄东坡铁盒制品变压器,高碑店市辛立庄镇总校,辛三北1变压器,郭建国,高碑店市亿圣灏博奶牛专业合作社变压器,申龙塑电有限公司,辛立庄造纸厂,丁庄4号农变压器【纯农排变】,高碑店市辛立庄运宏不锈钢厂,丁庄3号农变压器,许庄变压器【纯农排变】,市场变压器,宋庄北变压器,辛三北变压器,高碑店市栢城商贸有限公司,东垡北变压器,辛一农变压器【纯农排变】,刘国成,吴宪忠,东安医院,大韩村北变压器,小韩村南变压器,大韩村南变压器,李俊清,东垡小杨庄混用变压器,刘庆良,王素芬养殖厂,沈金良","powerOffReason":"【停电原因】由于立杆换线导致１１０ＫＶ陈八庄变电站１０ＫＶ崔庄５５４线路全线停电 【变更送电】因工作量大原因，送电时间由１８：００变更为２０：００ 【发布渠道】高碑店市高碑店电视台（１１月０４日０８时至１１月１１日１８时之间）屏幕上方滚动","powerOffId":"2019110313000114"},{"poweroffId":2019110313000113,"sgpoweroffId":null,"subsName":"","lineName":"何其营线552","pubTranName":"西娘庄南5号排灌变压器【纯农排变】,东娘庄南1号排灌变压器【纯农排变】,西娘庄小学变压器,东娘庄南3号公变,西娘庄西4号排灌变压器【纯农排变】,西娘庄北2号公变变压器,东娘庄东3号排灌变压器【纯农排变】,东娘庄南2号排灌变压器【纯农排变】,","scope":"【影响街道/乡镇】辛桥乡 【高危重要客户】无 【影响客户】何其营村、东娘庄村、西娘庄村、何其营移动公司、京南基地、京南种植公司、京旺塑胶厂、西娘庄水厂、砖厂、西娘庄小学","startTime":"2019-11-12 07:00:00","stopDate":"2019-11-12 21:00:00","orgNo":"1340612","typeCode":"计划停电","poweroffArea":"【全线路停电】停何其营东水变压器【纯农排变】,西娘庄南5号排灌变压器【纯农排变】,徐彪,西娘庄北水变压器【纯农排变】,西娘庄北变压器,中国移动通信集团河北有限公司高碑店分公司变压器,齐王务东南水变压器【纯农排变】,西娘庄北2号排灌变压器【纯农排变】,辛一南水变压器【纯农排变】,东娘庄北排灌变压器,东娘庄南2号排灌变压器【纯农排变】,东娘庄东变压器,三台北水变压器【纯农排变】,晋家营水变压器【纯农排变】,东娘庄南1号排灌变压器【纯农排变】,客户投资_何其营西变压器,何其营内,砖厂,河北省京南种植有限公司2变压器,何其营南变压器,西娘庄南水变压器【纯农排变】,何其营西北排灌变压器【纯农排变】,西娘庄小学变压器,西娘庄南3号排灌变压器【纯农排变】,何其营南水变压器【纯农排变】,东娘庄西变压器,西娘庄内变压器,东娘庄南3号公变,西娘庄西变压器,西娘庄西4号排灌变压器【纯农排变】,何其营南1号排灌变压器【纯农排变】,西娘庄北2号公变变压器,河北省京南种植有限公司1变压器,东娘庄东2号公变变压器,何其营东2号公变变压器,东娘庄东3号排灌变压器【纯农排变】,西娘庄西1号排灌变压器【纯农排变】,齐王务北水变压器【纯农排变】,何其营东磁卡变压器【纯农排变】,辛一东水变压器【纯农排变】,何其营东变压器,西娘庄东变压器,辛桥水厂,东娘庄磁卡变压器【纯农排变】","poweroffReason":"【停电原因】由于换杆换线导致１１０ＫＶ陈八庄变电站１０ＫＶ何其营５５２线路全线停电 【变更送电】因工作量大原因，送电时间由１８：００变更为２１：００ 【发布渠道】高碑店市高碑店电视台（１１月０４日０８时至１１月１１日１８时之间）屏幕上方滚动","powerTime":"2019-11-12 20:02:07","powerComm":"已送电","subsNo":"","lineNo":"","tgNo":"","tgName":null,"infoStatus":"1","orgName":"国网高碑店市供电公司","typeName":null,"infoStatusName":null,"dateDay":null,"orgNos":null,"nowTime":null,"countyName":null,"streetName":null,"villageName":null,"roadName":null,"communityName":null,"tranName":null,"sdLineName":null,"cityCode":"1340612","cityName":"国网高碑店市供电公司","provinceCode":null,"stopTime":"2019-11-12 21:00:00","powerType":"全部","powerOffArea":"【全线路停电】停何其营东水变压器【纯农排变】,西娘庄南5号排灌变压器【纯农排变】,徐彪,西娘庄北水变压器【纯农排变】,西娘庄北变压器,中国移动通信集团河北有限公司高碑店分公司变压器,齐王务东南水变压器【纯农排变】,西娘庄北2号排灌变压器【纯农排变】,辛一南水变压器【纯农排变】,东娘庄北排灌变压器,东娘庄南2号排灌变压器【纯农排变】,东娘庄东变压器,三台北水变压器【纯农排变】,晋家营水变压器【纯农排变】,东娘庄南1号排灌变压器【纯农排变】,客户投资_何其营西变压器,何其营内,砖厂,河北省京南种植有限公司2变压器,何其营南变压器,西娘庄南水变压器【纯农排变】,何其营西北排灌变压器【纯农排变】,西娘庄小学变压器,西娘庄南3号排灌变压器【纯农排变】,何其营南水变压器【纯农排变】,东娘庄西变压器,西娘庄内变压器,东娘庄南3号公变,西娘庄西变压器,西娘庄西4号排灌变压器【纯农排变】,何其营南1号排灌变压器【纯农排变】,西娘庄北2号公变变压器,河北省京南种植有限公司1变压器,东娘庄东2号公变变压器,何其营东2号公变变压器,东娘庄东3号排灌变压器【纯农排变】,西娘庄西1号排灌变压器【纯农排变】,齐王务北水变压器【纯农排变】,何其营东磁卡变压器【纯农排变】,辛一东水变压器【纯农排变】,何其营东变压器,西娘庄东变压器,辛桥水厂,东娘庄磁卡变压器【纯农排变】","powerOffReason":"【停电原因】由于换杆换线导致１１０ＫＶ陈八庄变电站１０ＫＶ何其营５５２线路全线停电 【变更送电】因工作量大原因，送电时间由１８：００变更为２１：００ 【发布渠道】高碑店市高碑店电视台（１１月０４日０８时至１１月１１日１８时之间）屏幕上方滚动","powerOffId":"2019110313000113"},{"poweroffId":2019110313000108,"sgpoweroffId":null,"subsName":"","lineName":"10kV铝加工厂513","pubTranName":"铝厂北院南,","scope":"【影响街道/乡镇】桃园城区 【高危重要客户】无 【影响客户】铝厂家属院","startTime":"2019-11-03 13:53:26","stopDate":"2019-11-03 17:00:00","orgNo":"1340626","typeCode":"电网故障停限电","poweroffArea":"【单台区停电】停铝厂北院南","poweroffReason":"【停电原因】由于低压空开烧毁导致１１０ＫＶ涿县变电站１０ＫＶ铝加工厂５１３线路铝厂北院南公变台区停电 【变更送电】因抢修进度加快原因，送电时间由２０：００变更为１７：００ 【发布渠道】通过９５５９８发布","powerTime":"2019-11-03 16:49:50","powerComm":"已送电","subsNo":"","lineNo":"","tgNo":"","tgName":null,"infoStatus":"1","orgName":"国网涿州市供电公司","typeName":null,"infoStatusName":null,"dateDay":null,"orgNos":null,"nowTime":null,"countyName":null,"streetName":null,"villageName":null,"roadName":null,"communityName":null,"tranName":null,"sdLineName":null,"cityCode":"1340626","cityName":"国网涿州市供电公司","provinceCode":null,"stopTime":"2019-11-03 17:00:00","powerType":"全部","powerOffArea":"【单台区停电】停铝厂北院南","powerOffReason":"【停电原因】由于低压空开烧毁导致１１０ＫＶ涿县变电站１０ＫＶ铝加工厂５１３线路铝厂北院南公变台区停电 【变更送电】因抢修进度加快原因，送电时间由２０：００变更为１７：００ 【发布渠道】通过９５５９８发布","powerOffId":"2019110313000108"},{"poweroffId":2019110313000091,"sgpoweroffId":null,"subsName":"","lineName":"10KV偏道子线534","pubTranName":"林清寺中学2号台区,板城9台区,白涧大队台区,龙门村中变压器,龙门大西洼2,龙门大西洼三台区,龙门白蛇港变压器,龙门大棚台区,苇家峪村中变压器,河口南台新台区,河口变压器,白涧刘兴友,白涧【纯农排变】,白蛇港4台区,上港村中变压器,龙门小村变压器,庄儿上（村内）二台区变压器,下港机井台区,板城大队台区,板城新二台区变压器,板城6台区,下港2台区,龙门村北台区,白涧幼儿园,庄儿上大棚井台区,河口南台2台区,龙门乡政府台区,上港西沟变压器,庄儿上二台区,龙门西洼变压器,龙门乡卫生院台区1,白涧二台区变压器,林清寺中学1台区,板城8台区,韦家峪西机井,龙门岗子变压器,上港2台区,龙门（峨台）,龙门村包峪,板城（2）村东变压器,板城村5台区,龙门包峪南台区,下港村变压器,龙门白蛇港二台区,龙门额台二台区,龙门幼儿园台区【冬季供暖设施】,庄儿上龙王庙台区,龙门岗二号井,河口小学台区柱上变压器1,庄儿上村中变压器,板城村北变压器,白涧6台区,板城4号台区,上港三台区,上港机井台区变压器,龙门白蛇港三台区,板城村,河口小学2台区,白涧村,板城村五台区,板城7台区,苇家峪机井,龙门包峪50kVA新建,韦家峪2台区,","scope":"【影响街道/乡镇】赵各庄镇 【高危重要客户】无 【影响客户】白涧村、龙门村、河口村、上港村、下港村、韦家峪村、板城村、庄儿上村","startTime":"2019-11-03 12:17:32","stopDate":"2019-11-03 16:00:00","orgNo":"1340614","typeCode":"电网故障停限电","poweroffArea":"【全线路停电】停嘉珩基石材分厂,林清寺中学2号台区,板城9台区,白涧大队台区,龙门村中变压器,龙门大西洼2,龙门大西洼三台区,龙门白蛇港变压器,龙门大棚台区,苇家峪村中变压器,勾林娟砖厂,嘉珩石材400KVA专变,河口南台新台区,河口变压器,中国移动通信集团河北有限公司涞水分公司50KVA专变,白涧刘兴友,白涧【纯农排变】,白蛇港4台区,上港村中变压器,龙门小村变压器,北京铁路局北京供电段250KVA,庄儿上（村内）二台区变压器,下港机井台区,板城大队台区,板城新二台区变压器,板城6台区,下港2台区,龙门村北台区,白涧幼儿园,庄儿上大棚井台区,泽诺石料厂200KVA,河口南台2台区,龙门乡政府台区,上港西沟变压器,庄儿上二台区,鼎盛石材厂专变,龙门西洼变压器,龙门乡卫生院台区1,白涧二台区变压器,光明装饰材料,林清寺中学1台区,板城8台区,韦家峪西机井,1涞水县鼎盛石材厂315KVA专变,龙门岗二号井,河口小学台区柱上变压器1,庄儿上村中变压器,板城村北变压器,白涧6台区,涞水县鼎盛石材厂315KVA专变1#,板城4号台区,上港三台区,龙门岗子变压器,龙门（峨台）,龙门村包峪,板城（2）村东变压器,板城村5台区,龙门包峪南台区,下港村变压器,上港机井台区变压器,龙门白蛇港三台区,涞水县白涧农副产品购销站新增变压器,板城村,河口小学2台区,白涧村,板城村五台区,板城7台区,苇家峪机井,龙门包峪50kVA新建,韦家峪2台区,上港2台区,龙门白蛇港二台区,龙门额台二台区,龙门幼儿园台区【冬季供暖设施】,庄儿上龙王庙台区","poweroffReason":"【停电原因】由于Ｂ相接地导致１１０ＫＶ六顺变电站１０ＫＶ偏道子线５３４线路全线停电 【变更送电】因抢修进度加快原因，送电时间由１８：３０变更为１６：００ 【发布渠道】通过９５５９８发布","powerTime":"2019-11-03 15:37:07","powerComm":"已送电","subsNo":"","lineNo":"","tgNo":"","tgName":null,"infoStatus":"1","orgName":"国网涞水县供电公司","typeName":null,"infoStatusName":null,"dateDay":null,"orgNos":null,"nowTime":null,"countyName":null,"streetName":null,"villageName":null,"roadName":null,"communityName":null,"tranName":null,"sdLineName":null,"cityCode":"1340614","cityName":"国网涞水县供电公司","provinceCode":null,"stopTime":"2019-11-03 16:00:00","powerType":"全部","powerOffArea":"【全线路停电】停嘉珩基石材分厂,林清寺中学2号台区,板城9台区,白涧大队台区,龙门村中变压器,龙门大西洼2,龙门大西洼三台区,龙门白蛇港变压器,龙门大棚台区,苇家峪村中变压器,勾林娟砖厂,嘉珩石材400KVA专变,河口南台新台区,河口变压器,中国移动通信集团河北有限公司涞水分公司50KVA专变,白涧刘兴友,白涧【纯农排变】,白蛇港4台区,上港村中变压器,龙门小村变压器,北京铁路局北京供电段250KVA,庄儿上（村内）二台区变压器,下港机井台区,板城大队台区,板城新二台区变压器,板城6台区,下港2台区,龙门村北台区,白涧幼儿园,庄儿上大棚井台区,泽诺石料厂200KVA,河口南台2台区,龙门乡政府台区,上港西沟变压器,庄儿上二台区,鼎盛石材厂专变,龙门西洼变压器,龙门乡卫生院台区1,白涧二台区变压器,光明装饰材料,林清寺中学1台区,板城8台区,韦家峪西机井,1涞水县鼎盛石材厂315KVA专变,龙门岗二号井,河口小学台区柱上变压器1,庄儿上村中变压器,板城村北变压器,白涧6台区,涞水县鼎盛石材厂315KVA专变1#,板城4号台区,上港三台区,龙门岗子变压器,龙门（峨台）,龙门村包峪,板城（2）村东变压器,板城村5台区,龙门包峪南台区,下港村变压器,上港机井台区变压器,龙门白蛇港三台区,涞水县白涧农副产品购销站新增变压器,板城村,河口小学2台区,白涧村,板城村五台区,板城7台区,苇家峪机井,龙门包峪50kVA新建,韦家峪2台区,上港2台区,龙门白蛇港二台区,龙门额台二台区,龙门幼儿园台区【冬季供暖设施】,庄儿上龙王庙台区","powerOffReason":"【停电原因】由于Ｂ相接地导致１１０ＫＶ六顺变电站１０ＫＶ偏道子线５３４线路全线停电 【变更送电】因抢修进度加快原因，送电时间由１８：３０变更为１６：００ 【发布渠道】通过９５５９８发布","powerOffId":"2019110313000091"}],"pageModel":{"pageNow":410,"totalCount":10973,"totalPage":1098,"tableRows":0,"pageCount":10,"beginCount":4090},"isExperi":"1"}