{"message":"","today":"2020-06-15","seleList":[{"poweroffId":2019110313000089,"sgpoweroffId":null,"subsName":"","lineName":"10KV篷头线531","pubTranName":"赵各庄幼儿园台区,赵各庄村变压器,平峪4台区,计鹿二台区,计鹿村变压器（箱式变电站）间隔配电变压器,河东5台区,小丰口村西台区,福山口一间房机井2台区,福山口村变压器,福山口2号井台区变压器,福山口许文永变压器,龙八港五台区变压器,福山口机井,白涧机井变压器,赵各庄派出所,计鹿村三台区,平峪村变压器,平峪（三台区）,小丰口村,河东4台区,福山口3台区,赵各庄大街2台区,小丰口2号井台区变压器,赵各庄7台区,小丰口山神庙变压器,福山口1号井台区变压器,福山口小学台区【冬季供暖设施】,小丰口沙窝东变压器,福山口3号井变压器,赵各庄3,小丰口扬水站变压器,赵各庄村大队后沟井【纯农排变】,小丰口上庄,白涧四台区,龙八港中铺变压器,白涧十台区,赵各庄6台区,赵各庄村大队1号井,福山口小北台区,河东村变压器【冬季供暖设施】,福山口芥葱港台区,【混全】小丰口村东,计鹿5台区,小丰口上庄2台区,平峪二台区变压器,小丰口村东3台区变压器,河东小巷口台区,福山口一间房机井1台区,赵各庄大街变压器,河东2台区,赵各庄苗圃场变压器,","scope":"【影响街道/乡镇】赵各庄镇 【高危重要客户】无 【影响客户】福山口村、赵各庄村、河东村、计鹿村、平峪村、小丰口村、荣盛集团（计鹿）","startTime":"2019-11-03 12:05:25","stopDate":"2019-11-03 15:00:00","orgNo":"1340614","typeCode":"电网故障停限电","poweroffArea":"【全线路停电】停平峪4台区,平峪电站,计鹿二台区,赵各庄南台区,02涞水荣盛伟业房地产开发有限公司专变,小丰口村西台区,福山口一间房变压器,福山口一间房机井2台区,福山口村变压器,涞水荣发体育文化发展有限公司1#1000KVA专变,涞水荣盛伟业房地产开发有限公司KVA,荣盛伟业房地产开发有限公司1000KVA专变,01荣盛伟业房地产开发有限公司1000KVA专变,涞水县赵各庄镇人民政府200KVA专变,计鹿村变压器（箱式变电站）间隔配电变压器,河东5台区,福山口2号井台区变压器,福山口许文永变压器,白涧邮政分局,涞水荣盛康旅投资有限公司新增变压器630KVA一台,计鹿砖厂,龙八港五台区变压器,白涧机井变压器,小丰口1号井台区变压器,赵各庄幼儿园台区,计鹿机井变压器【纯农排变】,福山口2,福山口机井,小丰口村,赵各庄苗圃场变压器,福山口3台区,荣盛伟业房地产1600KVA专变,赵各庄大街2台区,小丰口2号井台区变压器,计鹿四台区,福山口奔山变压器,董秀文,赵各庄派出所,计鹿村三台区,平峪村变压器,平峪（三台区）,0671532666-涞水荣盛伟业房地产开发有限公司-专变-212323038-涞水荣盛康旅投资有限公司630KVA,河东村开发区,北京铁路局北京供电段250KVA,赵各庄村变压器,河东4台区,01涞水荣发体育文化发展有限公司1000KVA专变,01涞水荣盛伟业房地产开发有限公司专变,龙八港二台区【纯农排变】,北砣生态园,赵各庄7台区,赵各庄砖厂,小丰口村东2台区,福山口3号井变压器,赵各庄（二台区）,03涞水荣盛伟业房地产开发有限公司专变,赵各庄村大队后沟井【纯农排变】,白涧四台区,涞水县林建石材厂315KVA专变,龙八港中铺变压器,白涧十台区,河东村变压器【冬季供暖设施】,福山口芥葱港台区,【混全】小丰口村东,计鹿5台区,平峪5台区,平峪二台区变压器,小丰口村东3台区变压器,河东小巷口台区,福山口一间房机井1台区,涞水县云凯水泥制品有限公司400KVA,小丰口山神庙变压器,福山口1号井台区变压器,福山口小学台区【冬季供暖设施】,小丰口沙窝东变压器,赵各庄3,吕建良50KVA专变,河东3台区,涞水荣盛伟业房地产开发有限公司315KVA专变,小丰口扬水站变压器,小丰口上庄,涞水县林键石材厂315KVA专变,河北鼎拓房地产开发有限公司250KVA专变,中国移动通信集团河北有限公司保定分公司50KVA专变,涞水县国营赵各庄林场,赵各庄6台区,涞水县城乡建设投资有限公司新增变压器,赵各庄村大队1号井,福山口小北台区,涞水县恒瑞建筑工程有限公司315KVA专变,涞水荣发体育文化发展有限公司,涞水荣盛伟业房地产开发有限公司1250KVA专变,小丰口上庄2台区,城建公司100KV专变,涞水荣盛伟业房地产开发有限公司专变,赵各庄大街变压器,河东2台区,赵各庄大棚台区","poweroffReason":"【停电原因】由于过流跳闸导致１１０ＫＶ六顺变电站１０ＫＶ篷头线５３１线路全线停电 【变更送电】因抢修进度加快原因，送电时间由１８：３０变更为１５：００ 【发布渠道】通过９５５９８发布","powerTime":"2019-11-03 14:11:40","powerComm":"已送电","subsNo":"","lineNo":"","tgNo":"","tgName":null,"infoStatus":"1","orgName":"国网涞水县供电公司","typeName":null,"infoStatusName":null,"dateDay":null,"orgNos":null,"nowTime":null,"countyName":null,"streetName":null,"villageName":null,"roadName":null,"communityName":null,"tranName":null,"sdLineName":null,"cityCode":"1340614","cityName":"国网涞水县供电公司","provinceCode":null,"stopTime":"2019-11-03 15:00:00","powerType":"全部","powerOffArea":"【全线路停电】停平峪4台区,平峪电站,计鹿二台区,赵各庄南台区,02涞水荣盛伟业房地产开发有限公司专变,小丰口村西台区,福山口一间房变压器,福山口一间房机井2台区,福山口村变压器,涞水荣发体育文化发展有限公司1#1000KVA专变,涞水荣盛伟业房地产开发有限公司KVA,荣盛伟业房地产开发有限公司1000KVA专变,01荣盛伟业房地产开发有限公司1000KVA专变,涞水县赵各庄镇人民政府200KVA专变,计鹿村变压器（箱式变电站）间隔配电变压器,河东5台区,福山口2号井台区变压器,福山口许文永变压器,白涧邮政分局,涞水荣盛康旅投资有限公司新增变压器630KVA一台,计鹿砖厂,龙八港五台区变压器,白涧机井变压器,小丰口1号井台区变压器,赵各庄幼儿园台区,计鹿机井变压器【纯农排变】,福山口2,福山口机井,小丰口村,赵各庄苗圃场变压器,福山口3台区,荣盛伟业房地产1600KVA专变,赵各庄大街2台区,小丰口2号井台区变压器,计鹿四台区,福山口奔山变压器,董秀文,赵各庄派出所,计鹿村三台区,平峪村变压器,平峪（三台区）,0671532666-涞水荣盛伟业房地产开发有限公司-专变-212323038-涞水荣盛康旅投资有限公司630KVA,河东村开发区,北京铁路局北京供电段250KVA,赵各庄村变压器,河东4台区,01涞水荣发体育文化发展有限公司1000KVA专变,01涞水荣盛伟业房地产开发有限公司专变,龙八港二台区【纯农排变】,北砣生态园,赵各庄7台区,赵各庄砖厂,小丰口村东2台区,福山口3号井变压器,赵各庄（二台区）,03涞水荣盛伟业房地产开发有限公司专变,赵各庄村大队后沟井【纯农排变】,白涧四台区,涞水县林建石材厂315KVA专变,龙八港中铺变压器,白涧十台区,河东村变压器【冬季供暖设施】,福山口芥葱港台区,【混全】小丰口村东,计鹿5台区,平峪5台区,平峪二台区变压器,小丰口村东3台区变压器,河东小巷口台区,福山口一间房机井1台区,涞水县云凯水泥制品有限公司400KVA,小丰口山神庙变压器,福山口1号井台区变压器,福山口小学台区【冬季供暖设施】,小丰口沙窝东变压器,赵各庄3,吕建良50KVA专变,河东3台区,涞水荣盛伟业房地产开发有限公司315KVA专变,小丰口扬水站变压器,小丰口上庄,涞水县林键石材厂315KVA专变,河北鼎拓房地产开发有限公司250KVA专变,中国移动通信集团河北有限公司保定分公司50KVA专变,涞水县国营赵各庄林场,赵各庄6台区,涞水县城乡建设投资有限公司新增变压器,赵各庄村大队1号井,福山口小北台区,涞水县恒瑞建筑工程有限公司315KVA专变,涞水荣发体育文化发展有限公司,涞水荣盛伟业房地产开发有限公司1250KVA专变,小丰口上庄2台区,城建公司100KV专变,涞水荣盛伟业房地产开发有限公司专变,赵各庄大街变压器,河东2台区,赵各庄大棚台区","powerOffReason":"【停电原因】由于过流跳闸导致１１０ＫＶ六顺变电站１０ＫＶ篷头线５３１线路全线停电 【变更送电】因抢修进度加快原因，送电时间由１８：３０变更为１５：００ 【发布渠道】通过９５５９８发布","powerOffId":"2019110313000089"},{"poweroffId":2019110313000052,"sgpoweroffId":null,"subsName":"","lineName":"10kV518乡政府线","pubTranName":"百尺镇一中,大百尺综合19台区,大百尺综合7台区变压器,","scope":"【影响街道/乡镇】大百尺镇 【高危重要客户】无 【影响客户】大百尺村、百尺镇一中","startTime":"2019-11-03 11:30:00","stopDate":"2019-11-03 14:00:00","orgNo":"1340616","typeCode":"其他临时停电","poweroffArea":"【全线路停电】停大百尺综合19台区,大百尺综合7台区变压器,百尺镇一中","poweroffReason":"【停电原因】由于线路缺陷，需停电进行紧急消缺导致３５ＫＶ百尺变电站１０ＫＶ乡政府５１８线路全线停电【变更送电】无【发布渠道】通过９５５９８发布","powerTime":"2019-11-03 13:09:51","powerComm":"已送电","subsNo":"","lineNo":"","tgNo":"","tgName":null,"infoStatus":"1","orgName":"国网蠡县供电公司","typeName":null,"infoStatusName":null,"dateDay":null,"orgNos":null,"nowTime":null,"countyName":null,"streetName":null,"villageName":null,"roadName":null,"communityName":null,"tranName":null,"sdLineName":null,"cityCode":"1340616","cityName":"国网蠡县供电公司","provinceCode":null,"stopTime":"2019-11-03 14:00:00","powerType":"全部","powerOffArea":"【全线路停电】停大百尺综合19台区,大百尺综合7台区变压器,百尺镇一中","powerOffReason":"【停电原因】由于线路缺陷，需停电进行紧急消缺导致３５ＫＶ百尺变电站１０ＫＶ乡政府５１８线路全线停电【变更送电】无【发布渠道】通过９５５９８发布","powerOffId":"2019110313000052"},{"poweroffId":2019110313000049,"sgpoweroffId":null,"subsName":"","lineName":"10kV朝阳路站512线路","pubTranName":"B297柱上变压器,B1062柱上变压器,10kVB1460配电室B1460配电变压器,10kVB1070配电室B1070配电变压器,B1722柱上变压器,B3002柱上变压器,B279柱上变压器,10kVB1649配电室B1649配电变压器,","scope":"【影响街道/乡镇】北市区、新市区、南市区、建华路、裕华路、莲池区 【高危重要客户】无 【影响客户】佰盛国际公寓、学府银行宿舍、学府胡同、农大家属院、公安局宿舍、工行宿舍、农大北院、康泰大厦、日报社底商宿舍、百盛房地产、康泰房地产、十方商贸城","startTime":"2019-11-12 06:00:00","stopDate":"2019-11-12 18:00:00","orgNo":"13406","typeCode":"计划停电","poweroffArea":"【分支停电】停10kVB1649配电室B1649配电变压器,B297柱上变压器,0356269814-保定十方商贸城开发有限公司-1-箱式变-变压器-3,0357272495-保定市康泰房地产开发有限公司-1-配电室-变压器-1,B1062柱上变压器,10kVB1460配电室B1460配电变压器,10kVB1070配电室B1070配电变压器,B1722柱上变压器,B3002柱上变压器,B279柱上变压器,0356269814-保定十方商贸城开发有限公司-1-箱式变-变压器-2,0356269814-保定十方商贸城开发有限公司-1-箱式变-变压器-1","poweroffReason":"【停电原因】由于供电设备临时检修导致１０ＫＶ朝阳变电站５１２线路裕华路１１９号杆南分支１号开关以下停电【变更送电】无【发布渠道】保定市保定有线电视台（１１月４日２０时１５分至２１时４５分之间）屏幕上滚动","powerTime":"2019-11-12 17:50:03","powerComm":"已送电","subsNo":"","lineNo":"","tgNo":"","tgName":null,"infoStatus":"1","orgName":"保定供电公司","typeName":null,"infoStatusName":null,"dateDay":null,"orgNos":null,"nowTime":null,"countyName":null,"streetName":null,"villageName":null,"roadName":null,"communityName":null,"tranName":null,"sdLineName":null,"cityCode":"13406","cityName":"保定供电公司","provinceCode":null,"stopTime":"2019-11-12 18:00:00","powerType":"全部","powerOffArea":"【分支停电】停10kVB1649配电室B1649配电变压器,B297柱上变压器,0356269814-保定十方商贸城开发有限公司-1-箱式变-变压器-3,0357272495-保定市康泰房地产开发有限公司-1-配电室-变压器-1,B1062柱上变压器,10kVB1460配电室B1460配电变压器,10kVB1070配电室B1070配电变压器,B1722柱上变压器,B3002柱上变压器,B279柱上变压器,0356269814-保定十方商贸城开发有限公司-1-箱式变-变压器-2,0356269814-保定十方商贸城开发有限公司-1-箱式变-变压器-1","powerOffReason":"【停电原因】由于供电设备临时检修导致１０ＫＶ朝阳变电站５１２线路裕华路１１９号杆南分支１号开关以下停电【变更送电】无【发布渠道】保定市保定有线电视台（１１月４日２０时１５分至２１时４５分之间）屏幕上滚动","powerOffId":"2019110313000049"},{"poweroffId":2019110313000047,"sgpoweroffId":null,"subsName":"","lineName":"10kV朝阳路站585线路","pubTranName":"10kVZ0078.Z0079.Z0080配电室Z0079配电变压器,10kVZ0078.Z0079.Z0080配电室Z0080配电变压器,10kVY0320.Y0321.Z0081配电室Y0320配电变压器,10kVY0320.Y0321.Z0081配电室Y0321配电变压器,10kVY0320.Y0321.Z0081配电室Z0081配电变压器,10kVY0322.Y0323配电室Y0322配电变压器,10kVY0322.Y0323配电室Y0323配电变压器,10kVZ0078.Z0079.Z0080配电室Z0078配电变压器,","scope":"【影响街道/乡镇】新市区朝阳大街 【高危重要客户】无 【影响客户】西大园片区","startTime":"2019-11-12 07:00:00","stopDate":"2019-11-12 11:00:00","orgNo":"13406","typeCode":"计划停电","poweroffArea":"【分支停电】停10kVZ0078.Z0079.Z0080配电室Z0078配电变压器,10kVZ0078.Z0079.Z0080配电室Z0079配电变压器,10kVZ0078.Z0079.Z0080配电室Z0080配电变压器","poweroffReason":"【停电原因】由于新增高压柜一面、电缆接引导致１０ＫＶ朝阳变电站５８５线路ＨＫ-０１环网柜３号间隔出线以下停电【变更送电】因抢修进度加快，原定18:00送电现计划11:00送电【发布渠道】保定市保定有限电视台（１１月４日２０时１５分至２１时４５分之间）屏幕上滚动","powerTime":"2019-11-12 10:34:23","powerComm":"已送电","subsNo":"","lineNo":"","tgNo":"","tgName":null,"infoStatus":"1","orgName":"保定供电公司","typeName":null,"infoStatusName":null,"dateDay":null,"orgNos":null,"nowTime":null,"countyName":null,"streetName":null,"villageName":null,"roadName":null,"communityName":null,"tranName":null,"sdLineName":null,"cityCode":"13406","cityName":"保定供电公司","provinceCode":null,"stopTime":"2019-11-12 11:00:00","powerType":"全部","powerOffArea":"【分支停电】停10kVZ0078.Z0079.Z0080配电室Z0078配电变压器,10kVZ0078.Z0079.Z0080配电室Z0079配电变压器,10kVZ0078.Z0079.Z0080配电室Z0080配电变压器","powerOffReason":"【停电原因】由于新增高压柜一面、电缆接引导致１０ＫＶ朝阳变电站５８５线路ＨＫ-０１环网柜３号间隔出线以下停电【变更送电】因抢修进度加快，原定18:00送电现计划11:00送电【发布渠道】保定市保定有限电视台（１１月４日２０时１５分至２１时４５分之间）屏幕上滚动","powerOffId":"2019110313000047"},{"poweroffId":2019110313000038,"sgpoweroffId":null,"subsName":"","lineName":"10kV517桑园营线","pubTranName":"元营综合9台区,元北农排3台区【纯农排变】,元营综合5台区,元北综合7台区,元营农排2台区【纯农排变】,元营农排7台区【纯农排变】,元东农排8台区【纯农排变】,杨西农排2台区【纯农排变】,元营农排5台区【纯农排变】,元营综合3台区,元营综合7台区,元北综合21台区变压器,元北农排2台区【纯农排变】,元南农排9台区【纯农排变】,元北综合12台区,元营综合6台区,元北综合8台区,元南农排10台区【纯农排变】,元北综合15台区,杨北农排5台区【纯农排变】,杨北农排1台区【纯农排变】,元北综合11台区,杨北农排3台区【纯农排变】,元北农排7台区【纯农排变】,元北综合6台区,元北综合2台区,元营综合4台区,元北综合16台区,元营农排4台区【纯农排变】,杨东农排3台区【纯农排变】,元营农排6台区【纯农排变】,杨北农排2台区【纯农排变】,元北综合13台区,元北农排1台区【纯农排变】,元北综合5台区,元营综合2台区,元北综合3台区,元营综合1台区,元北综合1台区,元北农排6台区【纯农排变】,杨东农排5台区【纯农排变】,元北农排5台区【纯农排变】,元北综合4台区,元东农排7台区【纯农排变】,元营农排3台区【纯农排变】,杨西农排9台区【纯农排变】,元北农排4台区【纯农排变】,元北综合17台区,杨北农排4台区【纯农排变】,元北综合9台区,元营农排1台区【纯农排变】,杨西农排3台区【纯农排变】,杨西农排5台区【纯农排变】,杨西农排8台区【纯农排变】,元北综合14台区,杨东农排4台区【纯农排变】,元营综合8台区,","scope":"【影响街道/乡镇】桑元镇【高危重要客户】无【影响客户】元营村、元北村、杨东村、杨西村、元南村","startTime":"2019-11-12 06:00:00","stopDate":"2019-11-12 15:00:00","orgNo":"1340616","typeCode":"计划停电","poweroffArea":"【全线路停电】停李占江,元北面粉厂,中信公司,刘铭庄砖厂,元北综合7台区,云国经编厂,杨西农排5台区【纯农排变】,春光染厂,杨东农排4台区【纯农排变】,元北纬编厂,二兵经编厂,元北综合8台区,元北农排6台区【纯农排变】,占海纬编厂,元北农排2台区【纯农排变】,元北农排4台区【纯农排变】,小马经编厂,元北综合9台区,元营综合3台区,元南农排9台区【纯农排变】,元营农排2台区【纯农排变】,元营综合2台区,元东农排7台区【纯农排变】,元北综合3台区,元北综合14台区,元东农排8台区【纯农排变】,元营综合7台区,彦水,元南农排10台区【纯农排变】,元北综合2台区,元营综合5台区,杨东农排3台区【纯农排变】,元北综合16台区,杨西农排2台区【纯农排变】,元北农排3台区【纯农排变】,元北农排7台区【纯农排变】,元北综合11台区,杨东梨园（黄庄）,杨西农排9台区【纯农排变】,元营农排6台区【纯农排变】,杨北农排2台区【纯农排变】,元北综合6台区,元北综合13台区,蠡县乐朋起绒厂变压器,杨北农排4台区【纯农排变】,蠡县商标印刷厂,杨北农排5台区【纯农排变】,杨东农排5台区【纯农排变】,元营综合9台区,一鸣印刷厂,老虎,元营综合6台区,小学经编厂,蠡县桑园针织染整厂,杨西农排3台区【纯农排变】,元营农排4台区【纯农排变】,元北综合21台区变压器,元营农排7台区【纯农排变】,蠡县桑园博远针织厂,杨北农排1台区【纯农排变】,元北综合12台区,元营综合10台区,元北经编厂,杨西农排8台区【纯农排变】,杨东梨园（大亮）,元北农排1台区【纯农排变】,李云平,元营综合4台区,元北冷库,杨北大队梨园,元北综合15台区,元营综合8台区,范建军,元营农排1台区【纯农排变】,元营农排5台区【纯农排变】,蠡县众诚纺织公司,元营农排3台区【纯农排变】,元北农排5台区【纯农排变】,元北综合4台区,元北综合5台区,杨北农排3台区【纯农排变】,元营综合1台区,元北综合1台区,元北综合17台区","poweroffReason":"【停电原因】由于安装变压器导致３５ＫＶ桑园变电站１０ＫＶ桑园营５１７线路全线停电【变更送电】因工作进度加快原因，送电时间由１８：００变更为１５：００【发布渠道】蠡县电视台（１１月０３日至１１月１１日２０：００至２２：００之间）屏幕上方滚动　　　","powerTime":"2019-11-12 14:31:35","powerComm":"已送电","subsNo":"","lineNo":"","tgNo":"","tgName":null,"infoStatus":"1","orgName":"国网蠡县供电公司","typeName":null,"infoStatusName":null,"dateDay":null,"orgNos":null,"nowTime":null,"countyName":null,"streetName":null,"villageName":null,"roadName":null,"communityName":null,"tranName":null,"sdLineName":null,"cityCode":"1340616","cityName":"国网蠡县供电公司","provinceCode":null,"stopTime":"2019-11-12 15:00:00","powerType":"全部","powerOffArea":"【全线路停电】停李占江,元北面粉厂,中信公司,刘铭庄砖厂,元北综合7台区,云国经编厂,杨西农排5台区【纯农排变】,春光染厂,杨东农排4台区【纯农排变】,元北纬编厂,二兵经编厂,元北综合8台区,元北农排6台区【纯农排变】,占海纬编厂,元北农排2台区【纯农排变】,元北农排4台区【纯农排变】,小马经编厂,元北综合9台区,元营综合3台区,元南农排9台区【纯农排变】,元营农排2台区【纯农排变】,元营综合2台区,元东农排7台区【纯农排变】,元北综合3台区,元北综合14台区,元东农排8台区【纯农排变】,元营综合7台区,彦水,元南农排10台区【纯农排变】,元北综合2台区,元营综合5台区,杨东农排3台区【纯农排变】,元北综合16台区,杨西农排2台区【纯农排变】,元北农排3台区【纯农排变】,元北农排7台区【纯农排变】,元北综合11台区,杨东梨园（黄庄）,杨西农排9台区【纯农排变】,元营农排6台区【纯农排变】,杨北农排2台区【纯农排变】,元北综合6台区,元北综合13台区,蠡县乐朋起绒厂变压器,杨北农排4台区【纯农排变】,蠡县商标印刷厂,杨北农排5台区【纯农排变】,杨东农排5台区【纯农排变】,元营综合9台区,一鸣印刷厂,老虎,元营综合6台区,小学经编厂,蠡县桑园针织染整厂,杨西农排3台区【纯农排变】,元营农排4台区【纯农排变】,元北综合21台区变压器,元营农排7台区【纯农排变】,蠡县桑园博远针织厂,杨北农排1台区【纯农排变】,元北综合12台区,元营综合10台区,元北经编厂,杨西农排8台区【纯农排变】,杨东梨园（大亮）,元北农排1台区【纯农排变】,李云平,元营综合4台区,元北冷库,杨北大队梨园,元北综合15台区,元营综合8台区,范建军,元营农排1台区【纯农排变】,元营农排5台区【纯农排变】,蠡县众诚纺织公司,元营农排3台区【纯农排变】,元北农排5台区【纯农排变】,元北综合4台区,元北综合5台区,杨北农排3台区【纯农排变】,元营综合1台区,元北综合1台区,元北综合17台区","powerOffReason":"【停电原因】由于安装变压器导致３５ＫＶ桑园变电站１０ＫＶ桑园营５１７线路全线停电【变更送电】因工作进度加快原因，送电时间由１８：００变更为１５：００【发布渠道】蠡县电视台（１１月０３日至１１月１１日２０：００至２２：００之间）屏幕上方滚动　　　","powerOffId":"2019110313000038"},{"poweroffId":2019110313000037,"sgpoweroffId":null,"subsName":"","lineName":"黄庄II线535","pubTranName":"许庄内西北,井泉内东2号,井泉村西,许庄村内,十五里铺内中配变,十五里铺村内西北,许庄东北2号,许庄内东南,井泉内东,许庄内西南,许庄内东北,十五里铺村内,许庄西南,十五里铺内东,许庄新民居,许庄双庙道,井泉外南,许庄新民居2号,许庄西北,井泉内西,","scope":"【影响街道/乡镇】固店镇　 【高危重要客户】无　　 【影响客户】井泉村、十五里铺、许庄村","startTime":"2019-11-14 06:00:00","stopDate":"2019-11-14 18:00:00","orgNo":"1340623","typeCode":"计划停电","poweroffArea":"【全线路停电】停许庄内西北,井泉内西,井泉内东2号,井泉村西,许庄村内,十五里铺内中配变,十五里铺村内西北,许庄东北2号,许庄内东南,井泉内东,许庄内西南,许庄内东北,十五里铺村内,许庄西南,十五里铺内东,许庄新民居,许庄双庙道,井泉外南,许庄新民居2号,许庄西北","poweroffReason":"【停电原因】由于更换电杆、更换导线导致２２０ＫＶ固店变电站黄庄ＩＩ线５３５线路全线停电 【变更送电】无 【发布渠道】保定市望都有线电视台（１１月０４日至１１月１３日１９时００分至２０时００分之间）屏幕上方滚动","powerTime":"2019-11-14 17:53:58","powerComm":"已送电","subsNo":"","lineNo":"","tgNo":"","tgName":null,"infoStatus":"1","orgName":"国网望都县供电公司","typeName":null,"infoStatusName":null,"dateDay":null,"orgNos":null,"nowTime":null,"countyName":null,"streetName":null,"villageName":null,"roadName":null,"communityName":null,"tranName":null,"sdLineName":null,"cityCode":"1340623","cityName":"国网望都县供电公司","provinceCode":null,"stopTime":"2019-11-14 18:00:00","powerType":"全部","powerOffArea":"【全线路停电】停许庄内西北,井泉内西,井泉内东2号,井泉村西,许庄村内,十五里铺内中配变,十五里铺村内西北,许庄东北2号,许庄内东南,井泉内东,许庄内西南,许庄内东北,十五里铺村内,许庄西南,十五里铺内东,许庄新民居,许庄双庙道,井泉外南,许庄新民居2号,许庄西北","powerOffReason":"【停电原因】由于更换电杆、更换导线导致２２０ＫＶ固店变电站黄庄ＩＩ线５３５线路全线停电 【变更送电】无 【发布渠道】保定市望都有线电视台（１１月０４日至１１月１３日１９时００分至２０时００分之间）屏幕上方滚动","powerOffId":"2019110313000037"},{"poweroffId":2019110313000036,"sgpoweroffId":null,"subsName":"","lineName":"10kV大李各庄线513","pubTranName":"1武安内7,1大李各庄内10,1大李各庄内8,1武安内9,1大李各庄内6,刘村小学,1大李各庄内1,1大李各庄内12,1大李各庄内14,2顾家营外3【纯农排变】,1刘村内3,1刘村内6,1顾家营内4,1顾家营内7,大李各庄小学1,1大李各庄内13,1刘村内2,1刘村内1,1刘村内7,1顾家营内5,1顾家营内6,1武安内6,1大李各庄内15,1大李各庄内3,1武安内1,1武安内5,1大李各庄内2,1顾家营内3,1大李各庄内9,1大李各庄内11,1刘村内8,1大李各庄内7,1武安内4,1武安内3,1武安内2,1顾家营内1,1顾家营内2,1大李各庄内5,1武安内8,大李各庄小学2,1刘村内4,顾家营小学,武安小学,1刘村内5,1刘村内9,1顾家营内8,","scope":"【影响街道/乡镇】北王力乡 【高危重要客户】无 【影响客户】大李各庄、刘村、顾家营、武安村","startTime":"2019-11-12 05:30:00","stopDate":"2019-11-12 18:00:00","orgNo":"1340618","typeCode":"计划停电","poweroffArea":"【全线路停电】停1大李各庄内13,大李各庄小学1,1刘村内2,1刘村内1,2刘村外2【纯农排变】,1刘村内7,2顾家营外10【纯农排变】,1顾家营内5,1顾家营内6,1武安内6,顾家营砖厂,顾家营水厂,2大李各庄外12【纯农排变】,1大李各庄内15,2武安外8【纯农排变】,1大李各庄内3,1武安内1,2武安外2【纯农排变】,2大李各庄外22【纯农排变】,1武安内5,1大李各庄内2,1顾家营内3,1大李各庄内9,1大李各庄内11,2大李各庄外20【纯农排变】,2武安外6【纯农排变】,2大李各庄外9【纯农排变】,2刘村外8【纯农排变】,2武安外4【纯农排变】,1大李各庄内10,清苑县大李各庄谷玉雄养鸡厂,2大李各庄外10【纯农排变】,1大李各庄内8,县林场南台,1武安内9,2大李各庄外1【纯农排变】,2大李各庄外3【纯农排变】,2武安外1【纯农排变】,2大李各庄外21【纯农排变】,2顾家营外1【纯农排变】,1大李各庄内6,2刘村外7【纯农排变】,刘村小学,2大李各庄外14【纯农排变】,2刘村外3【纯农排变】,2大李各庄外2【纯农排变】,1大李各庄内1,清苑县民政事业第二服务中心,1大李各庄内12,2顾家营外3【纯农排变】,2大李各庄外23【纯农排变】,2顾家营外13【纯农排变】,0387500605-清苑县苗圃总场-专变-45321375-清苑县苗圃总厂,2刘村外4【纯农排变】,2大李各庄外19【纯农排变】,大李各庄面粉厂,2大李各庄外16【纯农排变】,1大李各庄内14,2大李各庄外6【纯农排变】,县林场东台,2刘村外6【纯农排变】,中国移动通信集团河北有限公司清苑分公司,2顾家营外12【纯农排变】,1大李各庄内7,2顾家营外4【纯农排变】,1武安内4,1武安内3,2大李各庄外5【纯农排变】,1武安内2,2大李各庄外11【纯农排变】,1顾家营内1,0564528789-河北鑫艺苑建筑材料有限公司-专变-219696356-清苑县大李各庄砖厂,1顾家营内2,0387500966-清苑县苗圃总场-专变-45321358-大李各庄林场1,0669051926-保定市清苑区大李各庄鑫源苗圃场-专变-210338503-保定市清苑区大李各庄鑫源苗圃场,1武安内8,0387500995-清苑县苗圃总场-专变-45321359-大李各庄林场2,2大李各庄外7【纯农排变】,2顾家营外2【纯农排变】,2大李各庄外18【纯农排变】,大李各庄小学2,2武安外5【纯农排变】,1刘村内4,武安小学,1刘村内5,1刘村内9,2武安外3【纯农排变】,大李各庄林场3,1顾家营内8,2刘村外5【纯农排变】,0387500940-清苑县苗圃总场-专变-125674936-清苑县苗圃总场,县苗圃,1刘村内8,2顾家营外14【纯农排变】,1武安内7,2顾家营外9【纯农排变】,2顾家营外8【纯农排变】,中国移动通信集团河北有限公司保定分公司,县林场中,2顾家营外11【纯农排变】,1大李各庄内5,0618175321-河北泽龙投资集团有限公司-专变-128759542-河北泽龙投资集团有限公司,顾家营小学,2顾家营外5【纯农排变】,2大李各庄外4【纯农排变】,2刘村外1【纯农排变】,2大李各庄外8【纯农排变】,2武安外7【纯农排变】,2大李各庄外13【纯农排变】,2大李各庄外17【纯农排变】,0664802604-保定市共赢建筑材料制造有限公司-专变-202052729-保定市共赢建筑材料制造有限公司,2顾家营外6【纯农排变】,1刘村内3,河北鑫艺苑建筑材料有限公司,2大李各庄外24【纯农排变】,1刘村内6,1顾家营内4,1顾家营内7,2大李各庄外15【纯农排变】","poweroffReason":"【停电原因】由于配变改造工程导致３５ＫＶ罗家营变电站１０ＫＶ大李各庄线５１３线路全线停电 【变更送电】无 【发布渠道】保定市清苑区电视台（２０１９年１１月０４日１９时至２０１９年１１月１１日２０时之间）屏幕上方滚动","powerTime":"2019-11-12 17:53:26","powerComm":"王素通知已送电","subsNo":"","lineNo":"","tgNo":"","tgName":null,"infoStatus":"1","orgName":"国网清苑县供电公司","typeName":null,"infoStatusName":null,"dateDay":null,"orgNos":null,"nowTime":null,"countyName":null,"streetName":null,"villageName":null,"roadName":null,"communityName":null,"tranName":null,"sdLineName":null,"cityCode":"1340618","cityName":"国网清苑县供电公司","provinceCode":null,"stopTime":"2019-11-12 18:00:00","powerType":"全部","powerOffArea":"【全线路停电】停1大李各庄内13,大李各庄小学1,1刘村内2,1刘村内1,2刘村外2【纯农排变】,1刘村内7,2顾家营外10【纯农排变】,1顾家营内5,1顾家营内6,1武安内6,顾家营砖厂,顾家营水厂,2大李各庄外12【纯农排变】,1大李各庄内15,2武安外8【纯农排变】,1大李各庄内3,1武安内1,2武安外2【纯农排变】,2大李各庄外22【纯农排变】,1武安内5,1大李各庄内2,1顾家营内3,1大李各庄内9,1大李各庄内11,2大李各庄外20【纯农排变】,2武安外6【纯农排变】,2大李各庄外9【纯农排变】,2刘村外8【纯农排变】,2武安外4【纯农排变】,1大李各庄内10,清苑县大李各庄谷玉雄养鸡厂,2大李各庄外10【纯农排变】,1大李各庄内8,县林场南台,1武安内9,2大李各庄外1【纯农排变】,2大李各庄外3【纯农排变】,2武安外1【纯农排变】,2大李各庄外21【纯农排变】,2顾家营外1【纯农排变】,1大李各庄内6,2刘村外7【纯农排变】,刘村小学,2大李各庄外14【纯农排变】,2刘村外3【纯农排变】,2大李各庄外2【纯农排变】,1大李各庄内1,清苑县民政事业第二服务中心,1大李各庄内12,2顾家营外3【纯农排变】,2大李各庄外23【纯农排变】,2顾家营外13【纯农排变】,0387500605-清苑县苗圃总场-专变-45321375-清苑县苗圃总厂,2刘村外4【纯农排变】,2大李各庄外19【纯农排变】,大李各庄面粉厂,2大李各庄外16【纯农排变】,1大李各庄内14,2大李各庄外6【纯农排变】,县林场东台,2刘村外6【纯农排变】,中国移动通信集团河北有限公司清苑分公司,2顾家营外12【纯农排变】,1大李各庄内7,2顾家营外4【纯农排变】,1武安内4,1武安内3,2大李各庄外5【纯农排变】,1武安内2,2大李各庄外11【纯农排变】,1顾家营内1,0564528789-河北鑫艺苑建筑材料有限公司-专变-219696356-清苑县大李各庄砖厂,1顾家营内2,0387500966-清苑县苗圃总场-专变-45321358-大李各庄林场1,0669051926-保定市清苑区大李各庄鑫源苗圃场-专变-210338503-保定市清苑区大李各庄鑫源苗圃场,1武安内8,0387500995-清苑县苗圃总场-专变-45321359-大李各庄林场2,2大李各庄外7【纯农排变】,2顾家营外2【纯农排变】,2大李各庄外18【纯农排变】,大李各庄小学2,2武安外5【纯农排变】,1刘村内4,武安小学,1刘村内5,1刘村内9,2武安外3【纯农排变】,大李各庄林场3,1顾家营内8,2刘村外5【纯农排变】,0387500940-清苑县苗圃总场-专变-125674936-清苑县苗圃总场,县苗圃,1刘村内8,2顾家营外14【纯农排变】,1武安内7,2顾家营外9【纯农排变】,2顾家营外8【纯农排变】,中国移动通信集团河北有限公司保定分公司,县林场中,2顾家营外11【纯农排变】,1大李各庄内5,0618175321-河北泽龙投资集团有限公司-专变-128759542-河北泽龙投资集团有限公司,顾家营小学,2顾家营外5【纯农排变】,2大李各庄外4【纯农排变】,2刘村外1【纯农排变】,2大李各庄外8【纯农排变】,2武安外7【纯农排变】,2大李各庄外13【纯农排变】,2大李各庄外17【纯农排变】,0664802604-保定市共赢建筑材料制造有限公司-专变-202052729-保定市共赢建筑材料制造有限公司,2顾家营外6【纯农排变】,1刘村内3,河北鑫艺苑建筑材料有限公司,2大李各庄外24【纯农排变】,1刘村内6,1顾家营内4,1顾家营内7,2大李各庄外15【纯农排变】","powerOffReason":"【停电原因】由于配变改造工程导致３５ＫＶ罗家营变电站１０ＫＶ大李各庄线５１３线路全线停电 【变更送电】无 【发布渠道】保定市清苑区电视台（２０１９年１１月０４日１９时至２０１９年１１月１１日２０时之间）屏幕上方滚动","powerOffId":"2019110313000036"},{"poweroffId":2019110313000029,"sgpoweroffId":null,"subsName":"","lineName":"10KV徐里营531","pubTranName":"1266徐一【纯农排变】,","scope":"【影响街道/乡镇】刁窝乡 【高危重要客户】无 【影响客户】徐一村","startTime":"2019-11-13 08:00:00","stopDate":"2019-11-13 17:00:00","orgNo":"1340626","typeCode":"计划停电","poweroffArea":"【单台区停电】停1266徐一【纯农排变】","poweroffReason":"【停电原因】由于更换金具、架设导线工程导致１１０ＫＶ刁窝变电站１０ＫＶ徐里营５３１线路１２６６徐一公变台区停电 【变更送电】无 【发布渠道】涿州电视台（１１月０３日至１１月１２日２１：００播放２次）屏幕上方滚动","powerTime":"2019-11-13 16:44:58","powerComm":"恢复送电","subsNo":"","lineNo":"","tgNo":"","tgName":null,"infoStatus":"1","orgName":"国网涿州市供电公司","typeName":null,"infoStatusName":null,"dateDay":null,"orgNos":null,"nowTime":null,"countyName":null,"streetName":null,"villageName":null,"roadName":null,"communityName":null,"tranName":null,"sdLineName":null,"cityCode":"1340626","cityName":"国网涿州市供电公司","provinceCode":null,"stopTime":"2019-11-13 17:00:00","powerType":"全部","powerOffArea":"【单台区停电】停1266徐一【纯农排变】","powerOffReason":"【停电原因】由于更换金具、架设导线工程导致１１０ＫＶ刁窝变电站１０ＫＶ徐里营５３１线路１２６６徐一公变台区停电 【变更送电】无 【发布渠道】涿州电视台（１１月０３日至１１月１２日２１：００播放２次）屏幕上方滚动","powerOffId":"2019110313000029"},{"poweroffId":2019110313000028,"sgpoweroffId":null,"subsName":"","lineName":"10KV东方515","pubTranName":"八家窑2138,","scope":"【影响街道/乡镇】桃园城区 【高危重要客户】无 【影响客户】八家窑","startTime":"2019-11-13 07:00:00","stopDate":"2019-11-13 17:00:00","orgNo":"1340626","typeCode":"计划停电","poweroffArea":"【单台区停电】停八家窑2138","poweroffReason":"【停电原因】由于挖坑、立杆、架设导线工程导致１１０ＫＶ涿县变电站１０ＫＶ东方５１５线路八家窑２１３８公变台区停电 【变更送电】无 【发布渠道】涿州电视台（１１月０３日至１１月１２日２１：００播放２次）屏幕上方滚动","powerTime":"2019-11-13 16:45:19","powerComm":"恢复送电","subsNo":"","lineNo":"","tgNo":"","tgName":null,"infoStatus":"1","orgName":"国网涿州市供电公司","typeName":null,"infoStatusName":null,"dateDay":null,"orgNos":null,"nowTime":null,"countyName":null,"streetName":null,"villageName":null,"roadName":null,"communityName":null,"tranName":null,"sdLineName":null,"cityCode":"1340626","cityName":"国网涿州市供电公司","provinceCode":null,"stopTime":"2019-11-13 17:00:00","powerType":"全部","powerOffArea":"【单台区停电】停八家窑2138","powerOffReason":"【停电原因】由于挖坑、立杆、架设导线工程导致１１０ＫＶ涿县变电站１０ＫＶ东方５１５线路八家窑２１３８公变台区停电 【变更送电】无 【发布渠道】涿州电视台（１１月０３日至１１月１２日２１：００播放２次）屏幕上方滚动","powerOffId":"2019110313000028"},{"poweroffId":2019110313000024,"sgpoweroffId":null,"subsName":"","lineName":"10KV塑料厂516","pubTranName":"西河5037,东东府房地产开发有限公司东方丽景A,半壁店0381,东道元0378,涿州市西道元学校煤柱上变压器,西道元3181,西道元0372,半壁店村南,涿州市东府房地产开发有限公司,西道元0376【纯农排变】,东道元0379,西河0399,半壁店0380,东道元村北(清凉寺供电所),涿州市清凉寺供电所西河村东【纯农排变】,龙马铝业集团有限公司D变压器,东道元村内,涿州市金东林房地产开发有限公司（51602）,西河0384,半壁店4545,列电家属公用,西道元4953,东道元村南,西道园村,涿州市金东林房地产开发有限公司E变压器,南河0315,游园管理处（煤）,西道元4546,市政工程小区【纯农排变】,龙马铝业集团有限公司A变压器,涿州市金东林房地产开发有限公司（51601）,列电平房家属院,","scope":"【影响街道/乡镇】清凉寺城区冠云路 【高危重要客户】无 【影响客户】列电厂、半壁店、西道元、东道元、西河村、东河村、南河村、桃园中学、列电平房、列电厂家属院、市政工程小区、东林家园、明城驾校、龙马铝业、润泽物业、郦道元、仙颐园、东方丽景、涿州市城市投资发展有限公司、飞腾房地产开发有限公司、涿州市益民商贸有限公司、东府房地产开发有限公司、涿州市利贞永兴煤制品加工厂、涿州市鼎润商贸有限公司、游园管理处、涿州市发达机械制造有限公司、涿州市紫桐木门厂、李金勇涂料厂、涿州市蓝宇特灯有限公司、涿州市鑫利兴发机械制造有限公司、涿州市实验中学、涿州市鸿昌粮油机械厂、河北永固水泥制品有限公司、涿州市天银圣博工贸有限公司、搬运公司、保定市交通运输局涿州市养路工区、涿州市发达机械制造有限公司、涿州市制鞋模具有限公司、涿州市鹏翔机械有限公司、涿州市坤祥机械厂、松源华兴涿州干燥设备有限公司、涿州市东联机械设备有限公司、涿州精微机电设备有限公司、保定市联众物业服务有限公司涿州分公司、河北银天幕墙工程有限公司","startTime":"2019-11-13 09:00:00","stopDate":"2019-11-13 15:00:00","orgNo":"1340626","typeCode":"计划停电","poweroffArea":"【全线路停电】停涿州市市政设施管理处,涿州美莱化工能源有限公司,东东府房地产开发有限公司东方丽景A,涿州市紫桐木门厂,西河0384,涿州市西道元学校煤柱上变压器,0681367241-涿州市利贞永兴煤制品加工厂-专变-219728383-涿州市益民商贸有限公司1,涿州市明城驾校,游园管理处（煤）,鑫立金属加工厂,涿州市金东林房地产开发有限公司E变压器,东道元0379,龙马铝业集团有限公司D变压器,龙马铝业集团有限公司A变压器,搬运公司,0387557672-涿州市仙颐园物业服务有限公司-专变-45356824-涿州市仙仙颐园物业管理有限公司,永固水泥制品厂,市政工程小区【纯农排变】,西道元4546,列电家属公用,谭学志,润泽物业,涿州明城恒盛集团驾驶员培训有限公司,东道元0378,涿州市鼎润商贸有限公司,西道元0376【纯农排变】,东道元村内,李金勇涂料厂,涿州市金东林房地产开发有限公司1,西道元4953,涿州市金东林房地产开发有限公司,涿州市金东林房地产开发有限公司（51602）,西河0399,涿州市仙颐园物业服务有限公司,列电平房家属院,涿州市金东林房地产开发有限公司（51601）,西河5037,南河村（村南）,南河0315,西道元3181,半壁店0380,半壁店4545,涿州市北方液压设备有限公司,0548930122-保定市联众物业服务有限公司-专变-126761261-保定市民生房地产开发限公司,0667726291-涿州市益民商贸有限公司-专变-208440081-涿州市益民商贸有限公司2,涿州市飞腾房地产开发有限公司,涿州市城市投资发展有限公司,西道元0372,西河0393【纯农排变】,涿州市东府房地产开发有限公司,涿州市隆泰润达机械安装有限公司,半壁店0381,西道园村,半壁店村南,东道元村南,涿州市清凉寺供电所西河村东【纯农排变】,交通局公路站,0387558776-涿州市养路工区-专变-45356495-涿州市养路工区,涿州市鑫立金属加工厂,东道元村北(清凉寺供电所)","poweroffReason":"【停电原因】由于线路检修导致３５ＫＶ南河变电站１０ＫＶ塑料厂５１６线路全线停电 【变更送电】无 【发布渠道】涿州电视台（１１月０３日至１１月１２日２１：００播放２次）屏幕上方滚动","powerTime":"2019-11-13 14:45:10","powerComm":"恢复送电","subsNo":"","lineNo":"","tgNo":"","tgName":null,"infoStatus":"1","orgName":"国网涿州市供电公司","typeName":null,"infoStatusName":null,"dateDay":null,"orgNos":null,"nowTime":null,"countyName":null,"streetName":null,"villageName":null,"roadName":null,"communityName":null,"tranName":null,"sdLineName":null,"cityCode":"1340626","cityName":"国网涿州市供电公司","provinceCode":null,"stopTime":"2019-11-13 15:00:00","powerType":"全部","powerOffArea":"【全线路停电】停涿州市市政设施管理处,涿州美莱化工能源有限公司,东东府房地产开发有限公司东方丽景A,涿州市紫桐木门厂,西河0384,涿州市西道元学校煤柱上变压器,0681367241-涿州市利贞永兴煤制品加工厂-专变-219728383-涿州市益民商贸有限公司1,涿州市明城驾校,游园管理处（煤）,鑫立金属加工厂,涿州市金东林房地产开发有限公司E变压器,东道元0379,龙马铝业集团有限公司D变压器,龙马铝业集团有限公司A变压器,搬运公司,0387557672-涿州市仙颐园物业服务有限公司-专变-45356824-涿州市仙仙颐园物业管理有限公司,永固水泥制品厂,市政工程小区【纯农排变】,西道元4546,列电家属公用,谭学志,润泽物业,涿州明城恒盛集团驾驶员培训有限公司,东道元0378,涿州市鼎润商贸有限公司,西道元0376【纯农排变】,东道元村内,李金勇涂料厂,涿州市金东林房地产开发有限公司1,西道元4953,涿州市金东林房地产开发有限公司,涿州市金东林房地产开发有限公司（51602）,西河0399,涿州市仙颐园物业服务有限公司,列电平房家属院,涿州市金东林房地产开发有限公司（51601）,西河5037,南河村（村南）,南河0315,西道元3181,半壁店0380,半壁店4545,涿州市北方液压设备有限公司,0548930122-保定市联众物业服务有限公司-专变-126761261-保定市民生房地产开发限公司,0667726291-涿州市益民商贸有限公司-专变-208440081-涿州市益民商贸有限公司2,涿州市飞腾房地产开发有限公司,涿州市城市投资发展有限公司,西道元0372,西河0393【纯农排变】,涿州市东府房地产开发有限公司,涿州市隆泰润达机械安装有限公司,半壁店0381,西道园村,半壁店村南,东道元村南,涿州市清凉寺供电所西河村东【纯农排变】,交通局公路站,0387558776-涿州市养路工区-专变-45356495-涿州市养路工区,涿州市鑫立金属加工厂,东道元村北(清凉寺供电所)","powerOffReason":"【停电原因】由于线路检修导致３５ＫＶ南河变电站１０ＫＶ塑料厂５１６线路全线停电 【变更送电】无 【发布渠道】涿州电视台（１１月０３日至１１月１２日２１：００播放２次）屏幕上方滚动","powerOffId":"2019110313000024"}],"pageModel":{"pageNow":411,"totalCount":10973,"totalPage":1098,"tableRows":0,"pageCount":10,"beginCount":4100},"isExperi":"1"}