{"message":"","today":"2020-06-15","seleList":[{"poweroffId":2019110213000025,"sgpoweroffId":null,"subsName":"","lineName":"中韩庄线515","pubTranName":"南王疃内中,南王疃内西,南王疃村内新增,南王疃内东,","scope":"【影响街道/乡镇】中韩庄乡 【高危重要客户】无　　 【影响客户】南王疃村","startTime":"2019-11-12 06:00:00","stopDate":"2019-11-12 18:00:00","orgNo":"1340623","typeCode":"计划停电","poweroffArea":"【全线路停电】停南王疃内东,南王疃内中,南王疃内西,南王疃村内新增","poweroffReason":"【停电原因】由于更换电杆、更换导线导致３５ＫＶ曹庄变电站中韩庄线５１５线路全线停电 【变更送电】无 【发布渠道】保定市望都有线电视台（１１月０３日至１１月１１日１９时００分至２０时００分之间）屏幕上方滚动","powerTime":"2019-11-12 17:52:50","powerComm":"已送电","subsNo":"","lineNo":"","tgNo":"","tgName":null,"infoStatus":"1","orgName":"国网望都县供电公司","typeName":null,"infoStatusName":null,"dateDay":null,"orgNos":null,"nowTime":null,"countyName":null,"streetName":null,"villageName":null,"roadName":null,"communityName":null,"tranName":null,"sdLineName":null,"cityCode":"1340623","cityName":"国网望都县供电公司","provinceCode":null,"stopTime":"2019-11-12 18:00:00","powerType":"全部","powerOffArea":"【全线路停电】停南王疃内东,南王疃内中,南王疃内西,南王疃村内新增","powerOffReason":"【停电原因】由于更换电杆、更换导线导致３５ＫＶ曹庄变电站中韩庄线５１５线路全线停电 【变更送电】无 【发布渠道】保定市望都有线电视台（１１月０３日至１１月１１日１９时００分至２０时００分之间）屏幕上方滚动","powerOffId":"2019110213000025"},{"poweroffId":2019110213000023,"sgpoweroffId":null,"subsName":"","lineName":"10KV冠云路516","pubTranName":"八家尧2127,","scope":"【影响街道/乡镇】桃园城区 【高危重要客户】无 【影响客户】八家窑","startTime":"2019-11-12 07:00:00","stopDate":"2019-11-12 17:00:00","orgNo":"1340626","typeCode":"计划停电","poweroffArea":"【单台区停电】停八家尧2127","poweroffReason":"【停电原因】由于架设导线工程导致１１０ＫＶ涿县变电站１０ＫＶ冠云路５１６线路八家尧２１２７公变台区停电 【变更送电】无 【发布渠道】涿州电视台（１１月０２日至１１月１１日２１：００播放２次）屏幕上方滚动","powerTime":"2019-11-12 16:45:24","powerComm":"恢复送电","subsNo":"","lineNo":"","tgNo":"","tgName":null,"infoStatus":"1","orgName":"国网涿州市供电公司","typeName":null,"infoStatusName":null,"dateDay":null,"orgNos":null,"nowTime":null,"countyName":null,"streetName":null,"villageName":null,"roadName":null,"communityName":null,"tranName":null,"sdLineName":null,"cityCode":"1340626","cityName":"国网涿州市供电公司","provinceCode":null,"stopTime":"2019-11-12 17:00:00","powerType":"全部","powerOffArea":"【单台区停电】停八家尧2127","powerOffReason":"【停电原因】由于架设导线工程导致１１０ＫＶ涿县变电站１０ＫＶ冠云路５１６线路八家尧２１２７公变台区停电 【变更送电】无 【发布渠道】涿州电视台（１１月０２日至１１月１１日２１：００播放２次）屏幕上方滚动","powerOffId":"2019110213000023"},{"poweroffId":2019110213000021,"sgpoweroffId":null,"subsName":"","lineName":"华信线519","pubTranName":"扒鸡厂公变,一小公变,网络公司公变变压器,诺林湾北配电变压器,兴达公变,仁和小区公变,高镇公变2号,诺林湾南配电变压器,林海公变,新发公变,法院,高镇公变,车架组装厂变压器,稽征站(交通局)公变,高碑店开发区公变变压器,凌云机电商业街公变,五厂公变新,世纪嘉园二期配电变压器,","scope":"【影响街道/乡镇】团结西路、幸福南路、朝阳街、向阳路、结乐胡同、华茂巷 【高危重要客户】无 【影响客户】时氏正骨医院、一中东校区、三中、法院、司法局、高碑店市商务局、广播局、高镇村（世纪大街路北）、五厂新、诺林湾小区、世纪家园、世纪家园二期、锦锈花园小区、牡丹庄园、民乐小区、三中（三中门店）、博旭时代小区、扒鸡厂、一小平房、盛景花园、仁和楼房、结乐小区、法院家属楼、磷肥厂平房、磷肥厂家属楼、麻家营小区、隆鑫花园、五一路家兴超市、高碑店市洪顶煤炭销售有限公司、河北民乐房地产、河北锋向标汽车贸易有限公司、司法局、河北凌云机电、鼎立建筑设计有限公司、宋明新、林海采暖设备有限责任公司、高碑店光辉织物涂层厂（云海洗浴）、中国移动通信保定分公司、河北冀高电力器材开发有限公司、农村商业银行、河北广电网络集团广播局新、河北康伴医药有限公司、兴安物业、网络公司家属楼、新交警大队楼、强凌防水","startTime":"2019-11-02 08:54:40","stopDate":"2019-11-02 10:00:00","orgNo":"1340612","typeCode":"电网故障停限电","poweroffArea":"【全线路停电】停一小公变,扒鸡厂公变,诺林湾北配电变压器,兴达公变,三中,冀高电力器材开发公司,世纪嘉园,仁和小区公变,0717782158-高碑店市昊青物业服务有限公司02,河北凌云机电有限公司变压器02,新型水泥厂,市荣生综合加工厂,奥润顺达窗业公司,开发区,高碑店市融阔房地产开发有限责任公司,广播局新,高镇公变2号,华莹氧气厂,河北凌云机电公司,市信用合作联社,锦绣华庭变压器,高碑店市公安交通警察大队变压器,高碑店市景融稼源生态科技有限公司生态园餐厅,高碑店市幸福路幸福壹捞火锅店,0717782158-高碑店市昊青物业服务有限公司01,高碑店市埃德加房地产开发有限公司,诺林湾南配电变压器,0730123895-中国移动通信集团河北有限公司高碑店分公司02,高碑店市路灯管理办公室,0598044804-高碑店市晨星物业服务有限公司01,张忠水洗,光辉织物涂层厂,河北家兴商贸集团有限公司变压器,河北凌云机电公司变压器,林海公变,高碑店市博旭房地产开发有限公司变压器,新发公变,河北锋向标汽车贸易有限公司变压器,北师大附中变压器,时氏正骨医院,网络公司公变变压器,磷肥厂1,高碑店市网络公司,高碑店市众居物业服务有限公司,司法局,建筑设计所,0598046738-高碑店市晨星物业服务有限公司02,0598046738-高碑店市晨星物业服务有限公司01,河北强凌有限公司,中国移动通信集团河北有限公司高碑店分公司01,隆鑫花园,河北高碑店农村商业银行股份有限公司,高碑店市城市管理综合执法局团结路1号,高碑店市隆创集中供热有限公司,0704172658-河北凌云机电有限公司变压器01,麻家营小区,高碑店市汇华物业服务有限公司变压器,法院,高镇公变,交通局,高碑店市城市管理综合执法局幸福路1号,结乐小区,车架组装厂变压器,高碑店市众居物业服务有限公司2,稽征站(交通局)公变,高碑店开发区公变变压器,0597176469-高碑店市景融稼源生态科技有限公司生态园餐厅-专变-126300668-高碑店市景融稼源生态科技有限公司变压器,凌云机电商业街公变,五厂公变新,世纪嘉园二期配电变压器,高碑店市三中变压器,实验中学变压器","poweroffReason":"【停电原因】由于牡丹园小区电缆被挖断导致１１０ＫＶ马庄变电站１０ＫＶ华信５１９线路全线停电 【变更送电】因抢修进度加快原因，送电时间由１３：００变更为１０：００ 【发布渠道】通过９５５９８发布","powerTime":"2019-11-02 09:36:20","powerComm":"已送电","subsNo":"","lineNo":"","tgNo":"","tgName":null,"infoStatus":"1","orgName":"国网高碑店市供电公司","typeName":null,"infoStatusName":null,"dateDay":null,"orgNos":null,"nowTime":null,"countyName":null,"streetName":null,"villageName":null,"roadName":null,"communityName":null,"tranName":null,"sdLineName":null,"cityCode":"1340612","cityName":"国网高碑店市供电公司","provinceCode":null,"stopTime":"2019-11-02 10:00:00","powerType":"全部","powerOffArea":"【全线路停电】停一小公变,扒鸡厂公变,诺林湾北配电变压器,兴达公变,三中,冀高电力器材开发公司,世纪嘉园,仁和小区公变,0717782158-高碑店市昊青物业服务有限公司02,河北凌云机电有限公司变压器02,新型水泥厂,市荣生综合加工厂,奥润顺达窗业公司,开发区,高碑店市融阔房地产开发有限责任公司,广播局新,高镇公变2号,华莹氧气厂,河北凌云机电公司,市信用合作联社,锦绣华庭变压器,高碑店市公安交通警察大队变压器,高碑店市景融稼源生态科技有限公司生态园餐厅,高碑店市幸福路幸福壹捞火锅店,0717782158-高碑店市昊青物业服务有限公司01,高碑店市埃德加房地产开发有限公司,诺林湾南配电变压器,0730123895-中国移动通信集团河北有限公司高碑店分公司02,高碑店市路灯管理办公室,0598044804-高碑店市晨星物业服务有限公司01,张忠水洗,光辉织物涂层厂,河北家兴商贸集团有限公司变压器,河北凌云机电公司变压器,林海公变,高碑店市博旭房地产开发有限公司变压器,新发公变,河北锋向标汽车贸易有限公司变压器,北师大附中变压器,时氏正骨医院,网络公司公变变压器,磷肥厂1,高碑店市网络公司,高碑店市众居物业服务有限公司,司法局,建筑设计所,0598046738-高碑店市晨星物业服务有限公司02,0598046738-高碑店市晨星物业服务有限公司01,河北强凌有限公司,中国移动通信集团河北有限公司高碑店分公司01,隆鑫花园,河北高碑店农村商业银行股份有限公司,高碑店市城市管理综合执法局团结路1号,高碑店市隆创集中供热有限公司,0704172658-河北凌云机电有限公司变压器01,麻家营小区,高碑店市汇华物业服务有限公司变压器,法院,高镇公变,交通局,高碑店市城市管理综合执法局幸福路1号,结乐小区,车架组装厂变压器,高碑店市众居物业服务有限公司2,稽征站(交通局)公变,高碑店开发区公变变压器,0597176469-高碑店市景融稼源生态科技有限公司生态园餐厅-专变-126300668-高碑店市景融稼源生态科技有限公司变压器,凌云机电商业街公变,五厂公变新,世纪嘉园二期配电变压器,高碑店市三中变压器,实验中学变压器","powerOffReason":"【停电原因】由于牡丹园小区电缆被挖断导致１１０ＫＶ马庄变电站１０ＫＶ华信５１９线路全线停电 【变更送电】因抢修进度加快原因，送电时间由１３：００变更为１０：００ 【发布渠道】通过９５５９８发布","powerOffId":"2019110213000021"},{"poweroffId":2019110213000016,"sgpoweroffId":null,"subsName":"","lineName":"10kV七一路站532线路","pubTranName":"10kVB1513.B1514配电室B1513配电变压器,10kVB1513.B1514配电室B1514配电变压器,10kVB1515.B1516配电室B1515配电变压器,10kVB1515.B1516配电室B1516配电变压器,10kVB1517.B1518配电室B1517配电变压器,10kVB1517.B1518配电室B1518配电变压器,","scope":"【影响街道/乡镇】天鹅中路 【高危重要客户】无 【影响客户】花倾城小区","startTime":"2019-11-02 08:30:00","stopDate":"2019-11-02 12:00:00","orgNo":"13406","typeCode":"电网故障停限电","poweroffArea":"【分支停电】停10kVB1513.B1514配电室B1513配电变压器,10kVB1513.B1514配电室B1514配电变压器,10kVB1515.B1516配电室B1515配电变压器,10kVB1515.B1516配电室B1516配电变压器,10kVB1517.B1518配电室B1517配电变压器,10kVB1517.B1518配电室B1518配电变压器","poweroffReason":"【停电原因】由于分支开关短路导致１０ＫＶ七一变电站５３２线路ＨＫ-０４环网柜４号间隔以下停电【变更送电】无【发布渠道】通过９５５９８发布","powerTime":"2019-11-02 12:00:00","powerComm":"已送电","subsNo":"","lineNo":"","tgNo":"","tgName":null,"infoStatus":"1","orgName":"保定供电公司","typeName":null,"infoStatusName":null,"dateDay":null,"orgNos":null,"nowTime":null,"countyName":null,"streetName":null,"villageName":null,"roadName":null,"communityName":null,"tranName":null,"sdLineName":null,"cityCode":"13406","cityName":"保定供电公司","provinceCode":null,"stopTime":"2019-11-02 12:00:00","powerType":"全部","powerOffArea":"【分支停电】停10kVB1513.B1514配电室B1513配电变压器,10kVB1513.B1514配电室B1514配电变压器,10kVB1515.B1516配电室B1515配电变压器,10kVB1515.B1516配电室B1516配电变压器,10kVB1517.B1518配电室B1517配电变压器,10kVB1517.B1518配电室B1518配电变压器","powerOffReason":"【停电原因】由于分支开关短路导致１０ＫＶ七一变电站５３２线路ＨＫ-０４环网柜４号间隔以下停电【变更送电】无【发布渠道】通过９５５９８发布","powerOffId":"2019110213000016"},{"poweroffId":2019110213000014,"sgpoweroffId":null,"subsName":"","lineName":"军农场线511","pubTranName":"北王疃村内西3号配变,田庄村内西1配变,南陈庄内东2号,田庄内西,田庄内东,田庄村内东1配变,北王疃内南2,北王疃村内南,南陈庄内西2号,南陈庄内东,南陈庄内西,田庄村内东2配变,","scope":"【影响街道/乡镇】中韩庄乡 【高危重要客户】无　　 【影响客户】三民村、南陈庄、中韩庄村、北王疃村、田庄村","startTime":"2019-11-12 06:00:00","stopDate":"2019-11-12 18:00:00","orgNo":"1340623","typeCode":"计划停电","poweroffArea":"【全线路停电】停三民村北,北王疃村内东,北王疃村内北,北王疃村内西3号配变,田庄村内西1配变,南陈庄内东2号,三民村二队,中韩庄村内,中韩庄内西,田庄内西,北王疃村内西,北王疃村内西2号,中韩庄中乡公用,田庄内东,田庄村内东1配变,北王疃内南2,三民村三队,北王疃村内南,南陈庄内西2号,南陈庄内东,南陈庄内西,田庄村内东2配变","poweroffReason":"【停电原因】由于更换电杆、更换导线导致３５ＫＶ曹庄变电站军农场线５１１线路全线停电 【变更送电】无 【发布渠道】保定市望都有线电视台（１１月０３日至１１月１１日１９时００分至２０时００分之间）屏幕上方滚动","powerTime":"2019-11-12 17:53:07","powerComm":"已送电","subsNo":"","lineNo":"","tgNo":"","tgName":null,"infoStatus":"1","orgName":"国网望都县供电公司","typeName":null,"infoStatusName":null,"dateDay":null,"orgNos":null,"nowTime":null,"countyName":null,"streetName":null,"villageName":null,"roadName":null,"communityName":null,"tranName":null,"sdLineName":null,"cityCode":"1340623","cityName":"国网望都县供电公司","provinceCode":null,"stopTime":"2019-11-12 18:00:00","powerType":"全部","powerOffArea":"【全线路停电】停三民村北,北王疃村内东,北王疃村内北,北王疃村内西3号配变,田庄村内西1配变,南陈庄内东2号,三民村二队,中韩庄村内,中韩庄内西,田庄内西,北王疃村内西,北王疃村内西2号,中韩庄中乡公用,田庄内东,田庄村内东1配变,北王疃内南2,三民村三队,北王疃村内南,南陈庄内西2号,南陈庄内东,南陈庄内西,田庄村内东2配变","powerOffReason":"【停电原因】由于更换电杆、更换导线导致３５ＫＶ曹庄变电站军农场线５１１线路全线停电 【变更送电】无 【发布渠道】保定市望都有线电视台（１１月０３日至１１月１１日１９时００分至２０时００分之间）屏幕上方滚动","powerOffId":"2019110213000014"},{"poweroffId":2019110213000013,"sgpoweroffId":null,"subsName":"","lineName":"10KV东方515","pubTranName":"八家窑2067,东庄头村,西皋庄北2183,党校,镇安寺村东北台区,西皋村2072,镇安寺南3675,下坡店村,八家尧南,东庄头村东,下坡店村北井【纯农排变】,西皋庄村北2073,计生办(新)柱变【纯农排变】,下坡店2167,镇安寺2064,西皋村村北井【纯农排变】,西皋村村东,黎明小区（新）,","scope":"【影响街道/乡镇】桃园城区 【高危重要客户】无 【影响客户】镇安寺、西皋村、西皋庄、忠义店、下坡店、八家尧、东庄头、党校、黎明小区、晨光小区、计生委、四中","startTime":"2019-11-12 06:00:00","stopDate":"2019-11-12 12:00:00","orgNo":"1340626","typeCode":"计划停电","poweroffArea":"【全线路停电】停党校,镇安寺村东北台区,桃园供电所,西皋村2072,镇安寺南3675,涿州市鑫昊汇元集团房地产开发有限公司,晨光小区,西皋庄4099【纯农排变】,四中,西皋庄河套【纯农排变】,下坡店村,八家尧南,涿州市京热热力有限责任公司,东庄头村东,下坡店村北井【纯农排变】,0387562030-涿州龙泉商贸有限公司-专变-45358092-涿州龙泉商贸有限公司,桃园供电所（镇安寺南井）,西皋庄村北2073,养路工区,包子铺村东（东方大酒店）,涿州市华福精铸厂,计生办(新)柱变【纯农排变】,0671328074-张立军-专变-212336011-张立军,下坡店2167,涿州市龙腾工业气体经营部桃园区西皋村2,镇安寺2064,西皋村村北井【纯农排变】,西皋村村东,涿州市龙腾工业气体经营部桃园区西皋村1,黎明小区（新）,西皋庄2058【纯农排变】,西皋庄东地,北京铁路局北京供电段,八家窑2067,第四中学,东庄头村,桃园供电所（张飞店村北井）,西皋庄北2183","poweroffReason":"【停电原因】由于线路检修导致１１０ＫＶ涿县变电站１０ＫＶ东方５１５线路全线停电 【变更送电】无 【发布渠道】涿州电视台（１１月０２日至１１月１１日２１：００播放２次）屏幕上方滚动","powerTime":"2019-11-12 11:32:33","powerComm":"恢复送电","subsNo":"","lineNo":"","tgNo":"","tgName":null,"infoStatus":"1","orgName":"国网涿州市供电公司","typeName":null,"infoStatusName":null,"dateDay":null,"orgNos":null,"nowTime":null,"countyName":null,"streetName":null,"villageName":null,"roadName":null,"communityName":null,"tranName":null,"sdLineName":null,"cityCode":"1340626","cityName":"国网涿州市供电公司","provinceCode":null,"stopTime":"2019-11-12 12:00:00","powerType":"全部","powerOffArea":"【全线路停电】停党校,镇安寺村东北台区,桃园供电所,西皋村2072,镇安寺南3675,涿州市鑫昊汇元集团房地产开发有限公司,晨光小区,西皋庄4099【纯农排变】,四中,西皋庄河套【纯农排变】,下坡店村,八家尧南,涿州市京热热力有限责任公司,东庄头村东,下坡店村北井【纯农排变】,0387562030-涿州龙泉商贸有限公司-专变-45358092-涿州龙泉商贸有限公司,桃园供电所（镇安寺南井）,西皋庄村北2073,养路工区,包子铺村东（东方大酒店）,涿州市华福精铸厂,计生办(新)柱变【纯农排变】,0671328074-张立军-专变-212336011-张立军,下坡店2167,涿州市龙腾工业气体经营部桃园区西皋村2,镇安寺2064,西皋村村北井【纯农排变】,西皋村村东,涿州市龙腾工业气体经营部桃园区西皋村1,黎明小区（新）,西皋庄2058【纯农排变】,西皋庄东地,北京铁路局北京供电段,八家窑2067,第四中学,东庄头村,桃园供电所（张飞店村北井）,西皋庄北2183","powerOffReason":"【停电原因】由于线路检修导致１１０ＫＶ涿县变电站１０ＫＶ东方５１５线路全线停电 【变更送电】无 【发布渠道】涿州电视台（１１月０２日至１１月１１日２１：００播放２次）屏幕上方滚动","powerOffId":"2019110213000013"},{"poweroffId":2019110213000003,"sgpoweroffId":null,"subsName":"","lineName":"10kV515齐营线","pubTranName":"齐营综合2台区,齐营农排11台区【纯农排变】,齐营综合9台区,刘佃庄综合4台区,刘佃庄农排8台区【纯农排变】,刘佃庄综合六台区,刘佃庄综合10台区,齐营农排4台区【纯农排变】,正南庄农排4台区【纯农排变】,南口农排4台区【纯农排变】,正南庄综合3台区,齐营综合10台区,齐营综合5台区,西南庄综合7台区,齐营综合3台区,刘佃庄综合9台区,刘佃庄综合8台区,西南庄综合3台区,正南庄综合4台区,齐营综合11台区,刘佃庄综合5台区,齐营农排3台区【纯农排变】,刘佃庄农排6台区【纯农排变】,正南庄综合8台区,正南庄农排2台区【纯农排变】,正南庄农排3台区【纯农排变】,西南庄农排1台区【纯农排变】,刘佃庄综合1台区,西南庄农排4台区【纯农排变】,正南庄综合9台区,刘佃庄综合7台区,齐营综合8台区,正南庄综合7台区,齐营综合12台区,齐营农排10台区【纯农排变】,刘佃庄农排3台区【纯农排变】,齐营综合6台区,正南庄综合6台区,齐营综合1台区,东口农排4台区【纯农排变】,刘佃庄综合2台区,正南庄综合1台区,正南庄综合5台区,东口综合20台区,齐营综合7台区,","scope":"【影响街道/乡镇】鲍墟乡【高危重要客户】无【影响客户】齐营村、东口村、刘佃庄村、西南庄村、正南庄村、南口村、西口村","startTime":"2019-11-02 05:30:00","stopDate":"2019-11-02 09:00:00","orgNo":"1340616","typeCode":"其他临时停电","poweroffArea":"【全线路停电】停正南庄农排1台区【纯农排变】,齐营农排6台区【纯农排变】,刘佃庄综合六台区,正南庄农排4台区【纯农排变】,东口农排5台区【纯农排变】,刘佃庄综合4台区,东口农排8台区【纯农排变】,齐营综合12台区,刘佃庄综合5台区,正南庄农排2台区【纯农排变】,齐营综合9台区,刘佃庄农排4台区【纯农排变】,齐营综合1台区,正南庄综合2台区,刘佃庄农排1台区【纯农排变】,冷冻厂,刘佃庄农排6台区【纯农排变】,刘佃庄农排10台区【纯农排变】,紫玉养殖厂,齐营农排5台区【纯农排变】,齐营综合7台区,齐营综合10台区,齐营综合11台区,西南庄综合3台区,东口综合20台区,齐营综合8台区,西南庄农排1台区【纯农排变】,齐营农排4台区【纯农排变】,正南庄综合9台区,中口农排2台区【纯农排变】,齐营农排3台区【纯农排变】,正南庄农排3台区【纯农排变】,蠡县东口利兆特种养殖厂变压器,刘佃庄农排5台区【纯农排变】,蠡县东口绿丹蓝养殖场变压器,东口农排4台区【纯农排变】,正南庄综合6台区,齐营农排1台区【纯农排变】,正南庄综合1台区,正南庄综合4台区,东口农排10台区【纯农排变】,正南庄综合7台区,正南庄综合8台区,西南庄农排2台区【纯农排变】,正南庄综合5台区,齐营农排10台区【纯农排变】,齐营综合5台区,中国移动通信集团河北有限公司蠡县分公司刘佃庄村变压器,齐营农排2台区【纯农排变】,齐营农排11台区【纯农排变】,东口农排6台区【纯农排变】,刘佃庄综合9台区,东口农排9台区【纯农排变】,齐营农排12台区【纯农排变】,刘佃庄综合1台区,刘佃庄农排3台区【纯农排变】,东口农排7台区【纯农排变】,刘佃庄农排9台区【纯农排变】,刘佃庄农排2台区【纯农排变】,东口地,齐营农排13台区【纯农排变】,蠡县东口第二饲养厂变压器,西南庄农排4台区【纯农排变】,刘佃庄综合8台区,刘佃庄农排8台区【纯农排变】,南口农排4台区【纯农排变】,齐营综合4台区,刘佃庄综合2台区,中口农排3台区【纯农排变】,齐营综合6台区,刘佃庄农排7台区【纯农排变】,刘佃庄综合7台区,正南庄综合3台区,刘佃庄综合10台区,蠡县东口第一养殖厂变压器,南口农排5台区【纯农排变】,南口农排2台区【纯农排变】,齐营农排8台区【纯农排变】,西南庄农排3台区【纯农排变】,齐营农排9台区【纯农排变】,齐营综合2台区,齐营农排7台区【纯农排变】,中国石油天然气股份有限公司华北油田分公司,西南庄综合7台区,齐营综合3台区,东口农排2台区【纯农排变】,南口农排3台区【纯农排变】,东口农排3台区【纯农排变】","poweroffReason":"【停电原因】由于线路缺陷，需停电进行紧急消缺导致３５ＫＶ鲍墟变电站１０ＫＶ齐营５１５线路全线停电【变更送电】无【发布渠道】通过９５５９８发布","powerTime":"2019-11-02 08:01:13","powerComm":"已送电","subsNo":"","lineNo":"","tgNo":"","tgName":null,"infoStatus":"1","orgName":"国网蠡县供电公司","typeName":null,"infoStatusName":null,"dateDay":null,"orgNos":null,"nowTime":null,"countyName":null,"streetName":null,"villageName":null,"roadName":null,"communityName":null,"tranName":null,"sdLineName":null,"cityCode":"1340616","cityName":"国网蠡县供电公司","provinceCode":null,"stopTime":"2019-11-02 09:00:00","powerType":"全部","powerOffArea":"【全线路停电】停正南庄农排1台区【纯农排变】,齐营农排6台区【纯农排变】,刘佃庄综合六台区,正南庄农排4台区【纯农排变】,东口农排5台区【纯农排变】,刘佃庄综合4台区,东口农排8台区【纯农排变】,齐营综合12台区,刘佃庄综合5台区,正南庄农排2台区【纯农排变】,齐营综合9台区,刘佃庄农排4台区【纯农排变】,齐营综合1台区,正南庄综合2台区,刘佃庄农排1台区【纯农排变】,冷冻厂,刘佃庄农排6台区【纯农排变】,刘佃庄农排10台区【纯农排变】,紫玉养殖厂,齐营农排5台区【纯农排变】,齐营综合7台区,齐营综合10台区,齐营综合11台区,西南庄综合3台区,东口综合20台区,齐营综合8台区,西南庄农排1台区【纯农排变】,齐营农排4台区【纯农排变】,正南庄综合9台区,中口农排2台区【纯农排变】,齐营农排3台区【纯农排变】,正南庄农排3台区【纯农排变】,蠡县东口利兆特种养殖厂变压器,刘佃庄农排5台区【纯农排变】,蠡县东口绿丹蓝养殖场变压器,东口农排4台区【纯农排变】,正南庄综合6台区,齐营农排1台区【纯农排变】,正南庄综合1台区,正南庄综合4台区,东口农排10台区【纯农排变】,正南庄综合7台区,正南庄综合8台区,西南庄农排2台区【纯农排变】,正南庄综合5台区,齐营农排10台区【纯农排变】,齐营综合5台区,中国移动通信集团河北有限公司蠡县分公司刘佃庄村变压器,齐营农排2台区【纯农排变】,齐营农排11台区【纯农排变】,东口农排6台区【纯农排变】,刘佃庄综合9台区,东口农排9台区【纯农排变】,齐营农排12台区【纯农排变】,刘佃庄综合1台区,刘佃庄农排3台区【纯农排变】,东口农排7台区【纯农排变】,刘佃庄农排9台区【纯农排变】,刘佃庄农排2台区【纯农排变】,东口地,齐营农排13台区【纯农排变】,蠡县东口第二饲养厂变压器,西南庄农排4台区【纯农排变】,刘佃庄综合8台区,刘佃庄农排8台区【纯农排变】,南口农排4台区【纯农排变】,齐营综合4台区,刘佃庄综合2台区,中口农排3台区【纯农排变】,齐营综合6台区,刘佃庄农排7台区【纯农排变】,刘佃庄综合7台区,正南庄综合3台区,刘佃庄综合10台区,蠡县东口第一养殖厂变压器,南口农排5台区【纯农排变】,南口农排2台区【纯农排变】,齐营农排8台区【纯农排变】,西南庄农排3台区【纯农排变】,齐营农排9台区【纯农排变】,齐营综合2台区,齐营农排7台区【纯农排变】,中国石油天然气股份有限公司华北油田分公司,西南庄综合7台区,齐营综合3台区,东口农排2台区【纯农排变】,南口农排3台区【纯农排变】,东口农排3台区【纯农排变】","powerOffReason":"【停电原因】由于线路缺陷，需停电进行紧急消缺导致３５ＫＶ鲍墟变电站１０ＫＶ齐营５１５线路全线停电【变更送电】无【发布渠道】通过９５５９８发布","powerOffId":"2019110213000003"},{"poweroffId":2019110213000001,"sgpoweroffId":null,"subsName":"","lineName":"10kV516市场线","pubTranName":"阳光嘉园综合5台区,市场综合1台区,市场综合5出线间隔配电变压器,阳光嘉园综合4台区,阳光嘉园综合2台区,阳光嘉园综合1台区,市场综合4台区,阳光嘉园综合6台区,市场综合2台区,市场综合3台区,阳光嘉园综合7台区,阳光嘉园综合3台区,","scope":"【影响街道/乡镇】鲍墟乡【高危重要客户】无【影响客户】东口市场、阳光嘉园","startTime":"2019-11-02 05:30:00","stopDate":"2019-11-02 09:00:00","orgNo":"1340616","typeCode":"其他临时停电","poweroffArea":"【全线路停电】停友福,市场综合5出线间隔配电变压器,阳光嘉园综合1台区,阳光嘉园综合4台区,市场综合2台区,阳光嘉园综合6台区,市场综合4台区,阳光嘉园综合5台区,市场综合3台区,阳光嘉园综合3台区,友福皮毛有限公司变压器,阳光嘉园综合2台区,阳光嘉园综合7台区,市场综合1台区","poweroffReason":"【停电原因】由于线路缺陷，需停电进行紧急消缺导致３５ＫＶ鲍墟变电站１０ＫＶ市场５１６线路全线停电【变更送电】无【发布渠道】通过９５５９８发布","powerTime":"2019-11-02 08:01:28","powerComm":"已送电","subsNo":"","lineNo":"","tgNo":"","tgName":null,"infoStatus":"1","orgName":"国网蠡县供电公司","typeName":null,"infoStatusName":null,"dateDay":null,"orgNos":null,"nowTime":null,"countyName":null,"streetName":null,"villageName":null,"roadName":null,"communityName":null,"tranName":null,"sdLineName":null,"cityCode":"1340616","cityName":"国网蠡县供电公司","provinceCode":null,"stopTime":"2019-11-02 09:00:00","powerType":"全部","powerOffArea":"【全线路停电】停友福,市场综合5出线间隔配电变压器,阳光嘉园综合1台区,阳光嘉园综合4台区,市场综合2台区,阳光嘉园综合6台区,市场综合4台区,阳光嘉园综合5台区,市场综合3台区,阳光嘉园综合3台区,友福皮毛有限公司变压器,阳光嘉园综合2台区,阳光嘉园综合7台区,市场综合1台区","powerOffReason":"【停电原因】由于线路缺陷，需停电进行紧急消缺导致３５ＫＶ鲍墟变电站１０ＫＶ市场５１６线路全线停电【变更送电】无【发布渠道】通过９５５９８发布","powerOffId":"2019110213000001"},{"poweroffId":2019110121000022,"sgpoweroffId":null,"subsName":"","lineName":"10kV江城站530线路","pubTranName":"C334柱上变压器,","scope":"【影响街道/乡镇】颉庄乡 【高危重要客户】无 【影响客户】水碾头村","startTime":"2019-11-01 08:30:00","stopDate":"2019-11-01 10:00:00","orgNo":"13406","typeCode":"电网故障停限电","poweroffArea":"【单台区停电】停C334柱上变压器","poweroffReason":"【停电原因】由于低压刀闸引线断导致１０ＫＶ江城变电站５３０线路Ｃ３３４公变台区停电【变更送电】无【发布渠道】通过９５５９８发布","powerTime":"2019-11-01 09:52:29","powerComm":"已送电","subsNo":"","lineNo":"","tgNo":"","tgName":null,"infoStatus":"1","orgName":"保定供电公司","typeName":null,"infoStatusName":null,"dateDay":null,"orgNos":null,"nowTime":null,"countyName":null,"streetName":null,"villageName":null,"roadName":null,"communityName":null,"tranName":null,"sdLineName":null,"cityCode":"13406","cityName":"保定供电公司","provinceCode":null,"stopTime":"2019-11-01 10:00:00","powerType":"全部","powerOffArea":"【单台区停电】停C334柱上变压器","powerOffReason":"【停电原因】由于低压刀闸引线断导致１０ＫＶ江城变电站５３０线路Ｃ３３４公变台区停电【变更送电】无【发布渠道】通过９５５９８发布","powerOffId":"2019110121000022"},{"poweroffId":2019110113000518,"sgpoweroffId":null,"subsName":"","lineName":"海龙线517","pubTranName":"房开公变变压器,远东小区公变变压器,技术监督局变压器,十八局远东小区02号公变,农行变压器,芙蓉小区公变变压器,海龙建材公变变压器,八中变压器,广播电视局变压器,国税局公变变压器,华汽幼儿园公变变压器,五厂公变变压器,五厂北公变,财政局公变变压器,车身厂门口公变变压器,五厂南公变,房产局公变1,液压管件公变变压器,公安局公变变压器,地税局大厅公变变压器,","scope":"【影响街道/乡镇】团结东路、幸福南路、五一南路、昌盛路、结福胡同、结盟巷 【高危重要客户】高碑店市第二幼儿园、公安局、中国银行高碑店支行、中国农业银行高碑店市支行、广播电视局、八中 【影响客户】华汽幼儿园小区、车身厂家属楼、海龙建材家属楼、海龙公寓、液压管件家属楼、计量局家属楼、远东小区、财政局家属楼、房产局家属楼、税鑫园小区、地税局服务大厅、鑫祥园小区、五厂北区、尚品东方小区、锦绣华庭小区、水榭花都小区、公安局小区、芙蓉小区、广播局家属楼、哈贝教育、润景花园小区、华润公寓、天阔幸福家园、海龙商业有限责任公司、景融稼源生态园餐厅、博旭房地产、植物公园管理处、嘉德丽景房地产、牛秀英、欧亚塑料有限公司、河北华达公路工程咨询监理有限公司、天宏塑料制品厂、同兴粮油、市场监督管理局、鑫瑞申有限公司、胜贝双金属线材有限公司、淇仑餐饮、旺佳物业、万和物业公司、汇华物业、高碑店悦华食府、天阔英雄房地产、嘉林物业、河北元和房地产、保定长城汽车制造有限公司","startTime":"2019-11-02 06:00:00","stopDate":"2019-11-02 08:00:00","orgNo":"1340612","typeCode":"其他临时停电","poweroffArea":"【全线路停电】停房开公变变压器,公安局公变变压器,河北凌云机电有限公司受电点变压器,高碑店市工业和信息化局变压器,地税局大厅公变变压器,华达工程监理公司,0387447896-高碑店市植物公园管理处-专变-130228648-植物园箱变,元和房地产公司,中国银行股份有限公司高碑店支行变压器,远东小区公变变压器,技术监督局变压器,公安局,保定长城汽车公司1,农行新,技术监督局,高碑店市路灯管理办公室（团结路中）变压器,高碑店市海龙商业有限责任公司,十八局远东小区02号公变,农行变压器,鑫瑞申有限公司,变压器,芙蓉小区公变变压器,海龙建材公变变压器,0693257242-高碑店市第二幼儿园-专变-237503079-高碑店市第二幼儿园变压器,八中变压器,广播电视局变压器,国税局公变变压器,欧亚塑料有限公司,电线厂,华汽幼儿园公变变压器,润景花园小区,五厂公变变压器,五厂北公变,财政局公变变压器,车身厂门口公变变压器,0387449140-海龙公寓-专变-45281872-海龙公寓,万和物业公司,五厂南公变,八中,0387447809-润景花园小区2-专变-45281911-润景花园小区2,牛秀英,高碑店市嘉林物业服务有限公司,0586498752-高碑店市汇华物业服务有限公司-专变-125141073-高碑店市鑫天祥房地产开发有限公司变压器,河北元和房地产开发有限公司,嘉德丽景房地产,电视局,房产局公变1,液压管件公变变压器,0586498752-高碑店市汇华物业服务有限公司-专变-125143992-高碑店市鑫天祥房地产开发有限公司变压器,淇沦食府,同兴粮油,高碑店市高碑店悦华食府,天宏塑料制品厂","poweroffReason":"【停电原因】由于华达监理弓子线打火需紧急处理导致１１０ＫＶ马庄变电站１０ＫＶ海龙５１７线路全线停电 【变更送电】无 【发布渠道】通过９５５９８发布","powerTime":"2019-11-02 07:05:40","powerComm":"已送电","subsNo":"","lineNo":"","tgNo":"","tgName":null,"infoStatus":"1","orgName":"国网高碑店市供电公司","typeName":null,"infoStatusName":null,"dateDay":null,"orgNos":null,"nowTime":null,"countyName":null,"streetName":null,"villageName":null,"roadName":null,"communityName":null,"tranName":null,"sdLineName":null,"cityCode":"1340612","cityName":"国网高碑店市供电公司","provinceCode":null,"stopTime":"2019-11-02 08:00:00","powerType":"全部","powerOffArea":"【全线路停电】停房开公变变压器,公安局公变变压器,河北凌云机电有限公司受电点变压器,高碑店市工业和信息化局变压器,地税局大厅公变变压器,华达工程监理公司,0387447896-高碑店市植物公园管理处-专变-130228648-植物园箱变,元和房地产公司,中国银行股份有限公司高碑店支行变压器,远东小区公变变压器,技术监督局变压器,公安局,保定长城汽车公司1,农行新,技术监督局,高碑店市路灯管理办公室（团结路中）变压器,高碑店市海龙商业有限责任公司,十八局远东小区02号公变,农行变压器,鑫瑞申有限公司,变压器,芙蓉小区公变变压器,海龙建材公变变压器,0693257242-高碑店市第二幼儿园-专变-237503079-高碑店市第二幼儿园变压器,八中变压器,广播电视局变压器,国税局公变变压器,欧亚塑料有限公司,电线厂,华汽幼儿园公变变压器,润景花园小区,五厂公变变压器,五厂北公变,财政局公变变压器,车身厂门口公变变压器,0387449140-海龙公寓-专变-45281872-海龙公寓,万和物业公司,五厂南公变,八中,0387447809-润景花园小区2-专变-45281911-润景花园小区2,牛秀英,高碑店市嘉林物业服务有限公司,0586498752-高碑店市汇华物业服务有限公司-专变-125141073-高碑店市鑫天祥房地产开发有限公司变压器,河北元和房地产开发有限公司,嘉德丽景房地产,电视局,房产局公变1,液压管件公变变压器,0586498752-高碑店市汇华物业服务有限公司-专变-125143992-高碑店市鑫天祥房地产开发有限公司变压器,淇沦食府,同兴粮油,高碑店市高碑店悦华食府,天宏塑料制品厂","powerOffReason":"【停电原因】由于华达监理弓子线打火需紧急处理导致１１０ＫＶ马庄变电站１０ＫＶ海龙５１７线路全线停电 【变更送电】无 【发布渠道】通过９５５９８发布","powerOffId":"2019110113000518"}],"pageModel":{"pageNow":413,"totalCount":10973,"totalPage":1098,"tableRows":0,"pageCount":10,"beginCount":4120},"isExperi":"1"}