{"message":"","today":"2020-06-15","seleList":[{"poweroffId":2019110113000137,"sgpoweroffId":null,"subsName":"","lineName":"大洋线513","pubTranName":"万里村西1221变压器,西岳口3321变压器,十三队变压器1219,吕家庄3393,万里水4734变压器,万里4623变压器,郑家庄3264变压器,北大洋村内变压器1261,蔡庄4197变压器,东大洋1229变压器,大长峪种植变压器2009,石南坡1235变压器,北岗北4961变压器,万里0707变压器,万里6076变压器,大长峪4653变压器,大长峪5237变压器,东岳口4085变压器,大洋庄5073变压器,大长峪南1258变压器,西大洋4358分支,石南坡4152变压器,山南庄村西1213变压器,郑家庄1206变压器,郑家庄6077变压器,中长店内0778变压器,东岳口4880变压器,大长峪4679变压器,山南庄水4889变压器,大长峪村北1211变压器,东岳口1264变压器,大洋庄东1241变压器,乡政府1245变压器,大洋庄4960变压器,西沟1208变压器,西岳口1203变压器,中长店水5086变压器,北大洋村西变压器0687,北岗北村南1220变压器,大长峪5236变压器,西大洋北0754变压器,中长店4205变压器,山南庄村东1218变压器,东长店4365变压器,蔡庄村西0768变压器,东长店水4731变压器,南大洋0736变压器,东大洋4381变压器,西岳口浇地变压器0752,蔡庄村北6073,石南坡1259变压器,吕家庄4058变压器,东长店0777变压器,石南坡6568变压器,中长店5083变压器,东大洋东1226变压器,北岗北扶贫排灌变压器0863,南大洋3044变压器,北大洋村东2011变压器,吕家庄河南1205变压器,山南庄3314变压器,蔡庄村浇地变压器1270,西大洋村南1263变压器,蔡庄1183变压器,北大洋4965变压器,山南庄4962变压器,北大洋村南水利变压器1215,南大洋0739变压器,山南庄6572变压器,石南坡1236变压器,中长店4041变压器,中长店西1222变压器,东大洋4969变压器,西大洋3326变压器,西岳口6072变压器,吕家庄河北1204变压器,南大洋水2721变压器,西大洋村西南2337变压器,大长峪2010变压器,中长店吃水变压器1223,大洋庄村西0705变压器,","scope":"【影响街道/乡镇】大洋乡、雹水乡、北店头乡【高危重要客户】无【影响客户】吕家庄、北大洋、北岗北、西岳口、蔡庄、万里村、郑家庄、大洋庄、东大洋、东岳口、西大洋、大长峪、中长店、山南庄、东长店、南大洋、石南坡、黄金峪、北店头村北","startTime":"2019-11-01 10:53:55","stopDate":"2019-11-01 13:30:00","orgNo":"1340622","typeCode":"电网故障停限电","poweroffArea":"【全线路停电】停唐县保毅矿业有限公司3436,中长店4041变压器,石南坡1259变压器,北大洋4965变压器,大洋庄4960变压器,北岗北村南1220变压器,大洋庄村西0705变压器,东长店4365变压器,山南庄水4889变压器,西大洋3326变压器,大长峪5236变压器,西岳口浇地变压器0752,山南庄6572变压器,陈计山石料厂5090,北岗北4961变压器,万里村西1221变压器,郑家庄1206变压器,北大洋村东2011变压器,石南坡1236变压器,西岳口6072变压器,大长峪南1258变压器,乡政府1245变压器,中长店4205变压器,山南庄村东1218变压器,西大洋村南1263变压器,北岗北扶贫排灌变压器0863,0387520085-唐县泰鑫矿产品加工有限公司-专变-219684703-唐县泰鑫矿产品加工有限公司计量点6169,西大洋北0754变压器,大长峪2010变压器,中长店水5086变压器,吕家庄河南1205变压器,万里4623变压器,中长店吃水变压器1223,南大洋0736变压器,东岳口1264变压器,石南坡1235变压器,吕家庄河北1204变压器,大长峪5237变压器,大长峪村北1211变压器,南大洋3044变压器,大洋庄东1241变压器,大洋供电所,西岳口3321变压器,西岳口1203变压器,山南庄4962变压器,西大洋4358分支,大长峪4653变压器,东大洋1229变压器,北大洋村南水利变压器1215,蔡庄村北6073,石南坡4152变压器,万里水4734变压器,刘宏军养殖1243,西沟1208变压器,蔡庄4197变压器,东岳口4880变压器,中长店内0778变压器,石南坡6568变压器,郑家庄3264变压器,北大洋村西变压器0687,北大洋村内变压器1261,东大洋东1226变压器,西大洋村西南2337变压器,南大洋水2721变压器,东长店水4731变压器,杨吾别墅1234,吕家庄3393,蔡庄陈记石料厂1232,东岳口4085变压器,大洋庄5073变压器,万里0707变压器,唐县华峪选矿旅游开发有限责任公司,唐县恒旺畜禽养殖服务农民专业合作社6612,东大洋4969变压器,山南庄村西1213变压器,菜庄村安京余2579,十三队变压器1219,东长店0777变压器,蔡庄村西0768变压器,蔡庄陈计山石料厂5191,郑家庄6077变压器,唐县蔡庄陈记山石料厂10KV配变,0671194725-于学良-专变-212150932-于学良,蔡庄村浇地变压器1270,万里6076变压器,南大洋0739变压器,唐县蔡庄陈记山石料厂10KV新装配变,东岳口2008,蔡庄1183变压器,唐县王各庄石料厂3221,吕家庄4058变压器,大长峪4679变压器,中长店西1222变压器,大长峪种植变压器2009,东大洋4381变压器,中长店5083变压器,山南庄3314变压器","poweroffReason":"【停电原因】由于东大３５９线路１０杆铁塔电缆着火导致３５ＫＶ西大洋变电站大洋线５１３线路全线停电【变更送电】因抢修进度加快原因，送电时间由１８：００变更为１３：３０【发布渠道】通过９５５９８发布","powerTime":"2019-11-01 12:58:23","powerComm":"已送电","subsNo":"","lineNo":"","tgNo":"","tgName":null,"infoStatus":"1","orgName":"国网唐县供电公司","typeName":null,"infoStatusName":null,"dateDay":null,"orgNos":null,"nowTime":null,"countyName":null,"streetName":null,"villageName":null,"roadName":null,"communityName":null,"tranName":null,"sdLineName":null,"cityCode":"1340622","cityName":"国网唐县供电公司","provinceCode":null,"stopTime":"2019-11-01 13:30:00","powerType":"全部","powerOffArea":"【全线路停电】停唐县保毅矿业有限公司3436,中长店4041变压器,石南坡1259变压器,北大洋4965变压器,大洋庄4960变压器,北岗北村南1220变压器,大洋庄村西0705变压器,东长店4365变压器,山南庄水4889变压器,西大洋3326变压器,大长峪5236变压器,西岳口浇地变压器0752,山南庄6572变压器,陈计山石料厂5090,北岗北4961变压器,万里村西1221变压器,郑家庄1206变压器,北大洋村东2011变压器,石南坡1236变压器,西岳口6072变压器,大长峪南1258变压器,乡政府1245变压器,中长店4205变压器,山南庄村东1218变压器,西大洋村南1263变压器,北岗北扶贫排灌变压器0863,0387520085-唐县泰鑫矿产品加工有限公司-专变-219684703-唐县泰鑫矿产品加工有限公司计量点6169,西大洋北0754变压器,大长峪2010变压器,中长店水5086变压器,吕家庄河南1205变压器,万里4623变压器,中长店吃水变压器1223,南大洋0736变压器,东岳口1264变压器,石南坡1235变压器,吕家庄河北1204变压器,大长峪5237变压器,大长峪村北1211变压器,南大洋3044变压器,大洋庄东1241变压器,大洋供电所,西岳口3321变压器,西岳口1203变压器,山南庄4962变压器,西大洋4358分支,大长峪4653变压器,东大洋1229变压器,北大洋村南水利变压器1215,蔡庄村北6073,石南坡4152变压器,万里水4734变压器,刘宏军养殖1243,西沟1208变压器,蔡庄4197变压器,东岳口4880变压器,中长店内0778变压器,石南坡6568变压器,郑家庄3264变压器,北大洋村西变压器0687,北大洋村内变压器1261,东大洋东1226变压器,西大洋村西南2337变压器,南大洋水2721变压器,东长店水4731变压器,杨吾别墅1234,吕家庄3393,蔡庄陈记石料厂1232,东岳口4085变压器,大洋庄5073变压器,万里0707变压器,唐县华峪选矿旅游开发有限责任公司,唐县恒旺畜禽养殖服务农民专业合作社6612,东大洋4969变压器,山南庄村西1213变压器,菜庄村安京余2579,十三队变压器1219,东长店0777变压器,蔡庄村西0768变压器,蔡庄陈计山石料厂5191,郑家庄6077变压器,唐县蔡庄陈记山石料厂10KV配变,0671194725-于学良-专变-212150932-于学良,蔡庄村浇地变压器1270,万里6076变压器,南大洋0739变压器,唐县蔡庄陈记山石料厂10KV新装配变,东岳口2008,蔡庄1183变压器,唐县王各庄石料厂3221,吕家庄4058变压器,大长峪4679变压器,中长店西1222变压器,大长峪种植变压器2009,东大洋4381变压器,中长店5083变压器,山南庄3314变压器","powerOffReason":"【停电原因】由于东大３５９线路１０杆铁塔电缆着火导致３５ＫＶ西大洋变电站大洋线５１３线路全线停电【变更送电】因抢修进度加快原因，送电时间由１８：００变更为１３：３０【发布渠道】通过９５５９８发布","powerOffId":"2019110113000137"},{"poweroffId":2019110113000136,"sgpoweroffId":null,"subsName":"","lineName":"10kV516三李岗线","pubTranName":"李南农排1台区【纯农排变】,贾庄综合1台区,李南农排10台区【纯农排变】,花园头农排7台区。【纯农排变】,贾庄综合2台区,李南农排8台区【纯农排变】,李南综合2台区,李南综合4台区,李南综合3台区,贾庄综合4台区。,李南综合6台区,贾庄综合3台区。,李南农排3台区【纯农排变】,李西农排1台区。【纯农排变】,李南农排4台区【纯农排变】,李南农排14台区【纯农排变】,花园头综合12台区变压器,李南农排13台区【纯农排变】,李南农排2台区【纯农排变】,李南综合1台区,李南农排5台区【纯农排变】,李南综合5台区,李南农排12台区【纯农排变】,李南农排11台区【纯农排变】,","scope":"【影响街道/乡镇】北埝头乡【高危重要客户】无【影响客户】李南村、贾庄村、李西村","startTime":"2019-11-01 10:54:48","stopDate":"2019-11-01 12:00:00","orgNo":"1340616","typeCode":"电网故障停限电","poweroffArea":"【全线路停电】停李南农排14台区【纯农排变】,李南农排3台区【纯农排变】,李南砖厂,李南农排8台区【纯农排变】,李南农排2台区【纯农排变】,李南农用,李南农排12台区【纯农排变】,李南农排7台区【纯农排变】,李南综合1台区,李南农排10台区【纯农排变】,李南建彬,李南综合3台区,李岗站变,李南农排5台区【纯农排变】,李南农排9台区【纯农排变】,李南农排4台区【纯农排变】,李南综合6台区,贾庄综合2台区,李南农排13台区【纯农排变】,贾庄综合1台区,李南农排11台区【纯农排变】,贾庄综合3台区。,李南综合4台区,李西农排1台区。【纯农排变】,李南综合2台区,李南农排6台区【纯农排变】,花园头农排7台区。【纯农排变】,天和人家小区,蠡县兴业汽车装饰用品厂变压器,蠡县圣之垣物业服务有限公司,李南农排1台区【纯农排变】,李南综合5台区,花园头综合12台区变压器,贾庄综合4台区。","poweroffReason":"【停电原因】由于线路接地导致３５ＫＶ李岗变电站１０ＫＶ三李岗５１６线路全线停电【变更送电】因抢修进度加快原因，送电时间由１８：００变更为１２：００【发布渠道】通过９５５９８发布","powerTime":"2019-11-01 11:19:24","powerComm":"已送电","subsNo":"","lineNo":"","tgNo":"","tgName":null,"infoStatus":"1","orgName":"国网蠡县供电公司","typeName":null,"infoStatusName":null,"dateDay":null,"orgNos":null,"nowTime":null,"countyName":null,"streetName":null,"villageName":null,"roadName":null,"communityName":null,"tranName":null,"sdLineName":null,"cityCode":"1340616","cityName":"国网蠡县供电公司","provinceCode":null,"stopTime":"2019-11-01 12:00:00","powerType":"全部","powerOffArea":"【全线路停电】停李南农排14台区【纯农排变】,李南农排3台区【纯农排变】,李南砖厂,李南农排8台区【纯农排变】,李南农排2台区【纯农排变】,李南农用,李南农排12台区【纯农排变】,李南农排7台区【纯农排变】,李南综合1台区,李南农排10台区【纯农排变】,李南建彬,李南综合3台区,李岗站变,李南农排5台区【纯农排变】,李南农排9台区【纯农排变】,李南农排4台区【纯农排变】,李南综合6台区,贾庄综合2台区,李南农排13台区【纯农排变】,贾庄综合1台区,李南农排11台区【纯农排变】,贾庄综合3台区。,李南综合4台区,李西农排1台区。【纯农排变】,李南综合2台区,李南农排6台区【纯农排变】,花园头农排7台区。【纯农排变】,天和人家小区,蠡县兴业汽车装饰用品厂变压器,蠡县圣之垣物业服务有限公司,李南农排1台区【纯农排变】,李南综合5台区,花园头综合12台区变压器,贾庄综合4台区。","powerOffReason":"【停电原因】由于线路接地导致３５ＫＶ李岗变电站１０ＫＶ三李岗５１６线路全线停电【变更送电】因抢修进度加快原因，送电时间由１８：００变更为１２：００【发布渠道】通过９５５９８发布","powerOffId":"2019110113000136"},{"poweroffId":2019110113000122,"sgpoweroffId":null,"subsName":"","lineName":"沿村线537","pubTranName":"北宋14,北宋16号（统管）,北宋16台区变压器,北宋19号,小庄3号分支,","scope":"【影响街道/乡镇】大册营镇 【高危重要客户】无 【影响客户】北宋村北、小庄村北、北宋营村路北","startTime":"2019-11-11 06:30:00","stopDate":"2019-11-11 17:45:00","orgNo":"1340617","typeCode":"计划停电","poweroffArea":"【分支停电】停北宋14,北宋16号（统管）,北宋16台区变压器,北宋19号,北宋3,北宋9【纯农排变】,北宋四号,北宋营4号,小北宋分,小庄3号分支","poweroffReason":"【停电原因】由于线路检修导致１１０ＫＶ夜借变电站沿村线５３７线路５３号杆开关以下线路停电 【变更送电】无 【发布渠道】满城县有线电视台（１１月０２日１９：００－２０：００至１１月１０日１９：００－２０：００）屏幕上方滚动","powerTime":"2019-11-11 17:38:03","powerComm":"已送电","subsNo":"","lineNo":"","tgNo":"","tgName":null,"infoStatus":"1","orgName":"国网满城县供电公司","typeName":null,"infoStatusName":null,"dateDay":null,"orgNos":null,"nowTime":null,"countyName":null,"streetName":null,"villageName":null,"roadName":null,"communityName":null,"tranName":null,"sdLineName":null,"cityCode":"1340617","cityName":"国网满城县供电公司","provinceCode":null,"stopTime":"2019-11-11 17:45:00","powerType":"全部","powerOffArea":"【分支停电】停北宋14,北宋16号（统管）,北宋16台区变压器,北宋19号,北宋3,北宋9【纯农排变】,北宋四号,北宋营4号,小北宋分,小庄3号分支","powerOffReason":"【停电原因】由于线路检修导致１１０ＫＶ夜借变电站沿村线５３７线路５３号杆开关以下线路停电 【变更送电】无 【发布渠道】满城县有线电视台（１１月０２日１９：００－２０：００至１１月１０日１９：００－２０：００）屏幕上方滚动","powerOffId":"2019110113000122"},{"poweroffId":2019110113000100,"sgpoweroffId":null,"subsName":"","lineName":"10kV吴家辛线519","pubTranName":"东古庄内1号,","scope":"【影响街道/乡镇】清苑镇 【高危重要客户】无 【影响客户】东顾庄（东古庄）","startTime":"2019-11-01 09:56:14","stopDate":"2019-11-01 17:00:00","orgNo":"1340618","typeCode":"电网故障停限电","poweroffArea":"【单台区停电】停东古庄内1号","poweroffReason":"【停电原因】由于低压开关烧毁导致１１０ＫＶ中冉变电站１０ＫＶ吴家辛线５１９线路东古庄内１号公变台区停电 【变更送电】因故障未彻底排除，送电时间由１２：００变更为１７：００ 【发布渠道】通过９５５９８发布","powerTime":"2019-11-01 16:22:59","powerComm":"王凯通知已送电","subsNo":"","lineNo":"","tgNo":"","tgName":null,"infoStatus":"1","orgName":"国网清苑县供电公司","typeName":null,"infoStatusName":null,"dateDay":null,"orgNos":null,"nowTime":null,"countyName":null,"streetName":null,"villageName":null,"roadName":null,"communityName":null,"tranName":null,"sdLineName":null,"cityCode":"1340618","cityName":"国网清苑县供电公司","provinceCode":null,"stopTime":"2019-11-01 17:00:00","powerType":"全部","powerOffArea":"【单台区停电】停东古庄内1号","powerOffReason":"【停电原因】由于低压开关烧毁导致１１０ＫＶ中冉变电站１０ＫＶ吴家辛线５１９线路东古庄内１号公变台区停电 【变更送电】因故障未彻底排除，送电时间由１２：００变更为１７：００ 【发布渠道】通过９５５９８发布","powerOffId":"2019110113000100"},{"poweroffId":2019110113000084,"sgpoweroffId":null,"subsName":"","lineName":"10KV路胶514","pubTranName":"范阳立交东公用（新）,","scope":"【影响街道/乡镇】清凉寺城区 【高危重要客户】无 【影响客户】范阳桥东北侧商户","startTime":"2019-11-01 09:39:02","stopDate":"2019-11-01 13:30:00","orgNo":"1340626","typeCode":"电网故障停限电","poweroffArea":"【单台区停电】停范阳立交东公用（新）","poweroffReason":"【停电原因】由于低压空开烧毁导致３５ＫＶ路东变电站１０ＫＶ路胶５１４线路范阳立交东公变台区停电 【变更送电】因抢修进度加快原因，送电时间由１６：００变更为１３：３０ 【发布渠道】通过９５５９８发布","powerTime":"2019-11-01 12:52:36","powerComm":"恢复送电","subsNo":"","lineNo":"","tgNo":"","tgName":null,"infoStatus":"1","orgName":"国网涿州市供电公司","typeName":null,"infoStatusName":null,"dateDay":null,"orgNos":null,"nowTime":null,"countyName":null,"streetName":null,"villageName":null,"roadName":null,"communityName":null,"tranName":null,"sdLineName":null,"cityCode":"1340626","cityName":"国网涿州市供电公司","provinceCode":null,"stopTime":"2019-11-01 13:30:00","powerType":"全部","powerOffArea":"【单台区停电】停范阳立交东公用（新）","powerOffReason":"【停电原因】由于低压空开烧毁导致３５ＫＶ路东变电站１０ＫＶ路胶５１４线路范阳立交东公变台区停电 【变更送电】因抢修进度加快原因，送电时间由１６：００变更为１３：３０ 【发布渠道】通过９５５９８发布","powerOffId":"2019110113000084"},{"poweroffId":2019110113000071,"sgpoweroffId":null,"subsName":"","lineName":"加录线521","pubTranName":"南衣巾07号变压器,王马街03号变压器,南衣巾12号变压器,赵庄东1变压器,南衣巾10号变压器,王马街01号变压器,南衣巾04号变压器,南衣巾05号变压器,王马街05号变压器,南衣巾09号变压器,王马街04号变压器,南衣巾11号变压器,新城北关东变压器,赵庄北1变压器,南衣巾03号变压器,南衣巾01号变压器,王马街02号变压器,南衣巾02号变压器,五北北变压器,王马街06号变压器,南衣巾08号变压器,","scope":"【影响街道/乡镇】新城镇、方官镇、梁家营镇 【高危重要客户】无 【影响客户】孙家湾村、七里铺村、五南村、五北村、解家营村、凡庄村、王瓜园村、北关市场、南衣巾村、王马街村、华家店、方庄村、湛杨庄村、赵庄村、崔学刚、北关煤厂、北关面粉厂、杨振鹏、方官镇污水处理有限公司、湛杨庄中心小学","startTime":"2019-11-07 10:00:00","stopDate":"2019-11-07 18:00:00","orgNo":"1340612","typeCode":"临时停电","poweroffArea":"【全线路停电】停南衣巾水变压器【纯农排变】,南衣巾09号变压器,五南南台变压器,王马街04号变压器,王马街西水变压器【纯农排变】,南衣巾11号变压器,方庄变压器,方庄北变压器,北关北变压器,北场水变压器,新城北关东变压器,七里铺水变压器,解家营变压器,南衣巾07号变压器,五北变压器,孙家湾水变压器【纯农排变】,南衣巾06号变压器,方庄西水变压器【纯农排变】,凡庄变压器,变压器,王马街03号变压器,赵庄南变压器,南衣巾12号变压器,扬庄东变压器,赵庄北变压器（新城）,五南变压器,客户投资_王瓜园变压器,赵庄东1变压器,南衣巾10号变压器,崔学刚北关煤厂,北关面粉厂,花家店东变压器,汇通路桥建设集团再生水建设有限公司变压器02,王马街01号变压器,汇通路桥建设集团再生水建设有限公司变压器01,花家店水变压器【纯农排变】,赵庄水变压器【纯农排变】,高碑店市嘉嘉物业服务有限公司,孙家湾变压器,南衣巾04号变压器,南衣巾05号变压器,赵庄变压器,华家店村用变压器,赵庄东变压器,七里铺变压器,王马街05号变压器,南衣巾08号变压器,杨庄西水变压器【纯农排变】,五北东水变压器【纯农排变】,孙家湾水2变压器,北关市场变压器,赵庄北1变压器,王瓜园南变压器,杨振鹏、杨庄东水2变压器,解家营南柱上变压器,扬庄变压器,王马街东水变压器【纯农排变】,高碑店市梁家营乡湛杨庄中心小学变压器,南衣巾03号变压器,南衣巾01号变压器,五南水变压器【纯农排变】,王马街02号变压器,南衣巾02号变压器,方庄水变压器【纯农排变】,五北北变压器,王马街06号变压器","poweroffReason":"【停电原因】由于保定局处理出线穿墙套管发热缺陷导致１１０ＫＶ太平庄变电站１０ＫＶ加录５２１线路全线停电 【变更送电】无 【发布渠道】通过９５５９８发布","powerTime":"2019-11-07 17:10:47","powerComm":"已送电","subsNo":"","lineNo":"","tgNo":"","tgName":null,"infoStatus":"1","orgName":"国网高碑店市供电公司","typeName":null,"infoStatusName":null,"dateDay":null,"orgNos":null,"nowTime":null,"countyName":null,"streetName":null,"villageName":null,"roadName":null,"communityName":null,"tranName":null,"sdLineName":null,"cityCode":"1340612","cityName":"国网高碑店市供电公司","provinceCode":null,"stopTime":"2019-11-07 18:00:00","powerType":"全部","powerOffArea":"【全线路停电】停南衣巾水变压器【纯农排变】,南衣巾09号变压器,五南南台变压器,王马街04号变压器,王马街西水变压器【纯农排变】,南衣巾11号变压器,方庄变压器,方庄北变压器,北关北变压器,北场水变压器,新城北关东变压器,七里铺水变压器,解家营变压器,南衣巾07号变压器,五北变压器,孙家湾水变压器【纯农排变】,南衣巾06号变压器,方庄西水变压器【纯农排变】,凡庄变压器,变压器,王马街03号变压器,赵庄南变压器,南衣巾12号变压器,扬庄东变压器,赵庄北变压器（新城）,五南变压器,客户投资_王瓜园变压器,赵庄东1变压器,南衣巾10号变压器,崔学刚北关煤厂,北关面粉厂,花家店东变压器,汇通路桥建设集团再生水建设有限公司变压器02,王马街01号变压器,汇通路桥建设集团再生水建设有限公司变压器01,花家店水变压器【纯农排变】,赵庄水变压器【纯农排变】,高碑店市嘉嘉物业服务有限公司,孙家湾变压器,南衣巾04号变压器,南衣巾05号变压器,赵庄变压器,华家店村用变压器,赵庄东变压器,七里铺变压器,王马街05号变压器,南衣巾08号变压器,杨庄西水变压器【纯农排变】,五北东水变压器【纯农排变】,孙家湾水2变压器,北关市场变压器,赵庄北1变压器,王瓜园南变压器,杨振鹏、杨庄东水2变压器,解家营南柱上变压器,扬庄变压器,王马街东水变压器【纯农排变】,高碑店市梁家营乡湛杨庄中心小学变压器,南衣巾03号变压器,南衣巾01号变压器,五南水变压器【纯农排变】,王马街02号变压器,南衣巾02号变压器,方庄水变压器【纯农排变】,五北北变压器,王马街06号变压器","powerOffReason":"【停电原因】由于保定局处理出线穿墙套管发热缺陷导致１１０ＫＶ太平庄变电站１０ＫＶ加录５２１线路全线停电 【变更送电】无 【发布渠道】通过９５５９８发布","powerOffId":"2019110113000071"},{"poweroffId":2019110113000063,"sgpoweroffId":null,"subsName":"","lineName":"10kV阳城线513","pubTranName":"1郑各庄内8,1郑各庄内2,1郑各庄内4,","scope":"【影响街道/乡镇】阳城镇 【高危重要客户】无 【影响客户】郑各庄","startTime":"2019-11-10 06:30:00","stopDate":"2019-11-10 17:30:00","orgNo":"1340618","typeCode":"计划停电","poweroffArea":"【分支停电】停1郑各庄内8,1郑各庄内2,1郑各庄内4","poweroffReason":"【停电原因】由于换杆、更换变台导致３５ＫＶ大魏庄变电站１０ＫＶ阳城线５１３线路主干６９号杆西Ｔ６６号杆东Ｔ２２号杆南Ｔ１０号杆分支１号杆至１２号杆停电 【变更送电】无 【发布渠道】清苑区电视台（１１月０２日１９时至１１月０９日２０时之间）屏幕上方滚动","powerTime":"2019-11-10 17:22:33","powerComm":"永浩通知已送电","subsNo":"","lineNo":"","tgNo":"","tgName":null,"infoStatus":"1","orgName":"国网清苑县供电公司","typeName":null,"infoStatusName":null,"dateDay":null,"orgNos":null,"nowTime":null,"countyName":null,"streetName":null,"villageName":null,"roadName":null,"communityName":null,"tranName":null,"sdLineName":null,"cityCode":"1340618","cityName":"国网清苑县供电公司","provinceCode":null,"stopTime":"2019-11-10 17:30:00","powerType":"全部","powerOffArea":"【分支停电】停1郑各庄内8,1郑各庄内2,1郑各庄内4","powerOffReason":"【停电原因】由于换杆、更换变台导致３５ＫＶ大魏庄变电站１０ＫＶ阳城线５１３线路主干６９号杆西Ｔ６６号杆东Ｔ２２号杆南Ｔ１０号杆分支１号杆至１２号杆停电 【变更送电】无 【发布渠道】清苑区电视台（１１月０２日１９时至１１月０９日２０时之间）屏幕上方滚动","powerOffId":"2019110113000063"},{"poweroffId":2019110113000060,"sgpoweroffId":null,"subsName":"","lineName":"10kV邓村线546","pubTranName":"1北邓村内9,1北邓村内11,1北邓村内7,1北邓村内13,北邓村内4,1北邓村内12,1北邓村内10,1北邓村内2,1北邓村内8,北邓村内1号,北邓村小学1,北邓村小学2,北邓村内5,北邓村内3号,","scope":"【影响街道/乡镇】张登乡 【高危重要客户】无 【影响客户】北邓村","startTime":"2019-11-10 06:00:00","stopDate":"2019-11-10 18:00:00","orgNo":"1340618","typeCode":"计划停电","poweroffArea":"【分支停电】停1北邓村内9,1北邓村内11,1北邓村内7,1北邓村内13,北邓村内4,1北邓村内12,1北邓村内10,1北邓村内2,1北邓村内8,北邓村内1号,北邓村小学1,北邓村小学2,北邓村内5,北邓村内3号","poweroffReason":"【停电原因】由于配变改造工程导致２２０ＫＶ邓村变电站１０ＫＶ邓村线５４６线路主干３８号杆至６９号杆停电 【变更送电】无 【发布渠道】保定市清苑区电视台（２０１９年１１月０２日１９时至２０１９年１１月０９日２０时之间）屏幕上方滚动","powerTime":"2019-11-10 17:05:57","powerComm":"张高峰通知已送电","subsNo":"","lineNo":"","tgNo":"","tgName":null,"infoStatus":"1","orgName":"国网清苑县供电公司","typeName":null,"infoStatusName":null,"dateDay":null,"orgNos":null,"nowTime":null,"countyName":null,"streetName":null,"villageName":null,"roadName":null,"communityName":null,"tranName":null,"sdLineName":null,"cityCode":"1340618","cityName":"国网清苑县供电公司","provinceCode":null,"stopTime":"2019-11-10 18:00:00","powerType":"全部","powerOffArea":"【分支停电】停1北邓村内9,1北邓村内11,1北邓村内7,1北邓村内13,北邓村内4,1北邓村内12,1北邓村内10,1北邓村内2,1北邓村内8,北邓村内1号,北邓村小学1,北邓村小学2,北邓村内5,北邓村内3号","powerOffReason":"【停电原因】由于配变改造工程导致２２０ＫＶ邓村变电站１０ＫＶ邓村线５４６线路主干３８号杆至６９号杆停电 【变更送电】无 【发布渠道】保定市清苑区电视台（２０１９年１１月０２日１９时至２０１９年１１月０９日２０时之间）屏幕上方滚动","powerOffId":"2019110113000060"},{"poweroffId":2019110113000049,"sgpoweroffId":null,"subsName":"","lineName":"河南庄线521","pubTranName":"南宋1#分支,南宋新增分支,南宋营6号新,大庄村西新增,小庄村南2号,南宋5号分支,大庄7号,北宋17号,北宋18号分支,大庄1号,北宋村东【纯农排变】,大庄5号,","scope":"【影响街道/乡镇】大册营乡 【高危重要客户】无 【影响客户】南宋、大庄、小庄（村南）、北宋（村南）","startTime":"2019-11-10 06:30:00","stopDate":"2019-11-10 17:45:00","orgNo":"1340617","typeCode":"计划停电","poweroffArea":"【分支停电】停南宋5号分支,大庄7号,北宋17号,大庄2号,大庄5号,南宋大队农业,南宋1#分支,北宋1号,南宋2号,保定丰健生物工程技术有限公司,大庄面粉厂,南宋新增分支,南宋营6号新,大庄村东新增6号,北宋8分支,大庄村西新增,小庄村南2号,北宋18号分支,洪达线材有限公司,大庄1号,大庄3号（统管）,北宋村东【纯农排变】,南宋3号,满城县艺洋卫生用品有限公司","poweroffReason":"【停电原因】由于线路检修导致１１０ＫＶ大册营变电站河南庄线５２１线路５０号杆开关以下南干线分支停电 【变更送电】无 【发布渠道】满城县有线电视台（１１月０１日１９：００－２０：００至１１月０９日１９：００－２０：００）屏幕上方滚动","powerTime":"2019-11-10 17:14:47","powerComm":"已送电","subsNo":"","lineNo":"","tgNo":"","tgName":null,"infoStatus":"1","orgName":"国网满城县供电公司","typeName":null,"infoStatusName":null,"dateDay":null,"orgNos":null,"nowTime":null,"countyName":null,"streetName":null,"villageName":null,"roadName":null,"communityName":null,"tranName":null,"sdLineName":null,"cityCode":"1340617","cityName":"国网满城县供电公司","provinceCode":null,"stopTime":"2019-11-10 17:45:00","powerType":"全部","powerOffArea":"【分支停电】停南宋5号分支,大庄7号,北宋17号,大庄2号,大庄5号,南宋大队农业,南宋1#分支,北宋1号,南宋2号,保定丰健生物工程技术有限公司,大庄面粉厂,南宋新增分支,南宋营6号新,大庄村东新增6号,北宋8分支,大庄村西新增,小庄村南2号,北宋18号分支,洪达线材有限公司,大庄1号,大庄3号（统管）,北宋村东【纯农排变】,南宋3号,满城县艺洋卫生用品有限公司","powerOffReason":"【停电原因】由于线路检修导致１１０ＫＶ大册营变电站河南庄线５２１线路５０号杆开关以下南干线分支停电 【变更送电】无 【发布渠道】满城县有线电视台（１１月０１日１９：００－２０：００至１１月０９日１９：００－２０：００）屏幕上方滚动","powerOffId":"2019110113000049"},{"poweroffId":2019110113000047,"sgpoweroffId":null,"subsName":"","lineName":"10kV511三百尺线","pubTranName":"蠡县百中小学变压器【冬季供暖设施】,百西综合9台区变压器,百西农排9台区变压器【纯农排变】,百西综合1台区变压器,百西农排2台区变压器【纯农排变】,百西综合4台区变压器,百中农排10台区变压器【纯农排变】,百中综合8台区变压器,百中农排6台区变压器【纯农排变】,百中农排11台区变压器【纯农排变】,百中农排12台区变压器【纯农排变】,百中综合3台区变压器,百中农排8台区变压器【纯农排变】,百中农排2台区变压器【纯农排变】,百中综合5台区变压器,百中农排1台区变压器【纯农排变】,百中综合1台区变压器,百西综合3台区变压器,百西农排10台区变压器【纯农排变】,百西农排8台区变压器【纯农排变】,百西综合8台区变压器,百西洗毛厂（高计）,百西农排7台区变压器【纯农排变】,百中综合7台区变压器,百西综合7台区变压器,百西农排4台区变压器【纯农排变】,百西农排6台区变压器【纯农排变】,百西综合6台区变压器,百西农排3台区变压器【纯农排变】,百中农排4台区变压器【纯农排变】,百中农排7台区变压器【纯农排变】,百中综合10台区,百西农排5台区变压器【纯农排变】,百西农排12台区变压器【纯农排变】,百中农排5台区变压器【纯农排变】,百中农排3台区变压器【纯农排变】,百中综合6台区变压器,百西小学变压器,百西农排11台区变压器【纯农排变】,客户投资_百西综合2台区变压器,百中综合9台区变压器,百中农排9台区变压器【纯农排变】,百西综合5台区变压器,客户投资_百中综合4台区变压器,百西农排1台区变压器【纯农排变】,","scope":"【影响街道/乡镇】大百尺镇【高危重要客户】无【影响客户】百东村、百西村、百中村","startTime":"2019-11-10 06:30:00","stopDate":"2019-11-10 18:00:00","orgNo":"1340616","typeCode":"计划停电","poweroffArea":"【分支停电】停百中农排2台区变压器【纯农排变】,百中农排10台区变压器【纯农排变】,百中综合8台区变压器,百中农排6台区变压器【纯农排变】,百中农排11台区变压器【纯农排变】,百中农排12台区变压器【纯农排变】,百中综合3台区变压器,百中农排8台区变压器【纯农排变】,百中综合5台区变压器,百中农排1台区变压器【纯农排变】,百中综合1台区变压器,百西综合3台区变压器,百西农排10台区变压器【纯农排变】,百西农排8台区变压器【纯农排变】,百西综合8台区变压器,百西洗毛厂（高计）,百西农排7台区变压器【纯农排变】,百中综合7台区变压器,百西综合7台区变压器,百西农排4台区变压器【纯农排变】,百西农排6台区变压器【纯农排变】,百西综合6台区变压器,百西农排3台区变压器【纯农排变】,百中农排4台区变压器【纯农排变】,百中农排7台区变压器【纯农排变】,百中综合10台区,百西农排5台区变压器【纯农排变】,百西农排12台区变压器【纯农排变】,蠡县百中小学变压器【冬季供暖设施】,百西综合9台区变压器,百西农排9台区变压器【纯农排变】,百西综合1台区变压器,百西农排2台区变压器【纯农排变】,百西综合4台区变压器,百中农排3台区变压器【纯农排变】,百中综合6台区变压器,百西小学变压器,百中农排5台区变压器【纯农排变】,百西农排11台区变压器【纯农排变】,客户投资_百西综合2台区变压器,百中综合9台区变压器,百中农排9台区变压器【纯农排变】,百西综合5台区变压器,客户投资_百中综合4台区变压器,百西农排1台区变压器【纯农排变】","poweroffReason":"【停电原因】由于更换导线、更换金具导致３５ＫＶ百尺变电站１０ＫＶ三百尺５１１线路０５０号杆０３号开关１３号刀闸以下停电【变更送电】无【发布渠道】保定市蠡县电视台（１１月０１日至１１月０９日２０：００至２２：００）屏幕上方滚动","powerTime":"2019-11-10 17:55:30","powerComm":"已送电","subsNo":"","lineNo":"","tgNo":"","tgName":null,"infoStatus":"1","orgName":"国网蠡县供电公司","typeName":null,"infoStatusName":null,"dateDay":null,"orgNos":null,"nowTime":null,"countyName":null,"streetName":null,"villageName":null,"roadName":null,"communityName":null,"tranName":null,"sdLineName":null,"cityCode":"1340616","cityName":"国网蠡县供电公司","provinceCode":null,"stopTime":"2019-11-10 18:00:00","powerType":"全部","powerOffArea":"【分支停电】停百中农排2台区变压器【纯农排变】,百中农排10台区变压器【纯农排变】,百中综合8台区变压器,百中农排6台区变压器【纯农排变】,百中农排11台区变压器【纯农排变】,百中农排12台区变压器【纯农排变】,百中综合3台区变压器,百中农排8台区变压器【纯农排变】,百中综合5台区变压器,百中农排1台区变压器【纯农排变】,百中综合1台区变压器,百西综合3台区变压器,百西农排10台区变压器【纯农排变】,百西农排8台区变压器【纯农排变】,百西综合8台区变压器,百西洗毛厂（高计）,百西农排7台区变压器【纯农排变】,百中综合7台区变压器,百西综合7台区变压器,百西农排4台区变压器【纯农排变】,百西农排6台区变压器【纯农排变】,百西综合6台区变压器,百西农排3台区变压器【纯农排变】,百中农排4台区变压器【纯农排变】,百中农排7台区变压器【纯农排变】,百中综合10台区,百西农排5台区变压器【纯农排变】,百西农排12台区变压器【纯农排变】,蠡县百中小学变压器【冬季供暖设施】,百西综合9台区变压器,百西农排9台区变压器【纯农排变】,百西综合1台区变压器,百西农排2台区变压器【纯农排变】,百西综合4台区变压器,百中农排3台区变压器【纯农排变】,百中综合6台区变压器,百西小学变压器,百中农排5台区变压器【纯农排变】,百西农排11台区变压器【纯农排变】,客户投资_百西综合2台区变压器,百中综合9台区变压器,百中农排9台区变压器【纯农排变】,百西综合5台区变压器,客户投资_百中综合4台区变压器,百西农排1台区变压器【纯农排变】","powerOffReason":"【停电原因】由于更换导线、更换金具导致３５ＫＶ百尺变电站１０ＫＶ三百尺５１１线路０５０号杆０３号开关１３号刀闸以下停电【变更送电】无【发布渠道】保定市蠡县电视台（１１月０１日至１１月０９日２０：００至２２：００）屏幕上方滚动","powerOffId":"2019110113000047"}],"pageModel":{"pageNow":417,"totalCount":10973,"totalPage":1098,"tableRows":0,"pageCount":10,"beginCount":4160},"isExperi":"1"}