{"message":"","today":"2020-06-15","seleList":[{"poweroffId":2019103013000326,"sgpoweroffId":null,"subsName":"","lineName":"吴庄线520","pubTranName":"鹏运采石厂,吴庄石厂井,吴庄村内新增（统管）,吴庄北山头,张石大娄隧道照明,吴庄水沟北新增（统管）,柳左王家坟,柳佐王坟2号,吴庄李家坟井,保定市好嘉食品有限公司养殖基地,郑佐西山北新增【纯农排变】,郑左西大井,吴庄村南（统管）,柳左广山峪,吴庄村西井,0387469546-保定市满城康宝井建材厂-专变-45298822-康宝井建材厂,52008390|鹏运采石厂250,柳佐广山佑西【纯农排变】,南水北调工程,柳佐新增井,张石东于河隧道照明,吴庄2号,柳左砖厂,柳左中学西,中国联通,杨佐村西（统管）,柳左北大坡,东于河建峰石厂,柳左桥沟井,柳左砖厂井,吴庄九亩地,吴庄村东（统管）,郑左赵里头,车厂井,柳左大念头,郑左西山根,郑左新井,吴庄地下化,吴庄村内1号（统管）,郑佐秋坡井【纯农排变】,","scope":"【影响街道/乡镇】满城镇 【高危重要客户】无 【影响客户】吴庄、柳家佐、郑家佐","startTime":"2019-11-08 06:30:00","stopDate":"2019-11-08 17:45:00","orgNo":"1340617","typeCode":"计划停电","poweroffArea":"【全线路停电】停保定市好嘉食品有限公司养殖基地,南水北调工程,郑左西山根,柳佐新增井,柳左砖厂,张石大娄隧道照明,东于河建峰石厂,柳佐王坟2号,柳左大念头,柳左北大坡,张石东于河隧道照明,柳左中学西,柳左广山峪,吴庄水沟北新增（统管）,车厂井,郑佐秋坡井【纯农排变】,吴庄村东（统管）,郑佐西山北新增【纯农排变】,中国联通,柳左桥沟井,吴庄北山头,吴庄村西井,吴庄地下化,吴庄李家坟井,0387469546-保定市满城康宝井建材厂-专变-45298822-康宝井建材厂,吴庄九亩地,鹏运采石厂,吴庄2号,吴庄石厂井,郑左新井,吴庄村内新增（统管）,郑左西大井,郑左赵里头,柳佐广山佑西【纯农排变】,吴庄村内1号（统管）,吴庄村南（统管）,柳左王家坟,杨佐村西（统管）,柳左砖厂井,52008390|鹏运采石厂250","poweroffReason":"【停电原因】由于线路检修导致１１０ＫＶ杨佐变电站吴庄线５２０线路全线停电 【变更送电】无 【发布渠道】满城县有线电视台（１０月３０日１９：００－２０：００至１１月０７日１９：００－２０：００）屏幕上方滚动","powerTime":"2019-11-08 17:13:54","powerComm":"已送电","subsNo":"","lineNo":"","tgNo":"","tgName":null,"infoStatus":"1","orgName":"国网满城县供电公司","typeName":null,"infoStatusName":null,"dateDay":null,"orgNos":null,"nowTime":null,"countyName":null,"streetName":null,"villageName":null,"roadName":null,"communityName":null,"tranName":null,"sdLineName":null,"cityCode":"1340617","cityName":"国网满城县供电公司","provinceCode":null,"stopTime":"2019-11-08 17:45:00","powerType":"全部","powerOffArea":"【全线路停电】停保定市好嘉食品有限公司养殖基地,南水北调工程,郑左西山根,柳佐新增井,柳左砖厂,张石大娄隧道照明,东于河建峰石厂,柳佐王坟2号,柳左大念头,柳左北大坡,张石东于河隧道照明,柳左中学西,柳左广山峪,吴庄水沟北新增（统管）,车厂井,郑佐秋坡井【纯农排变】,吴庄村东（统管）,郑佐西山北新增【纯农排变】,中国联通,柳左桥沟井,吴庄北山头,吴庄村西井,吴庄地下化,吴庄李家坟井,0387469546-保定市满城康宝井建材厂-专变-45298822-康宝井建材厂,吴庄九亩地,鹏运采石厂,吴庄2号,吴庄石厂井,郑左新井,吴庄村内新增（统管）,郑左西大井,郑左赵里头,柳佐广山佑西【纯农排变】,吴庄村内1号（统管）,吴庄村南（统管）,柳左王家坟,杨佐村西（统管）,柳左砖厂井,52008390|鹏运采石厂250","powerOffReason":"【停电原因】由于线路检修导致１１０ＫＶ杨佐变电站吴庄线５２０线路全线停电 【变更送电】无 【发布渠道】满城县有线电视台（１０月３０日１９：００－２０：００至１１月０７日１９：００－２０：００）屏幕上方滚动","powerOffId":"2019103013000326"},{"poweroffId":2019103013000307,"sgpoweroffId":null,"subsName":"","lineName":"电台线514","pubTranName":"南马村南,城内7队,城内火车站家属院,抱阳村西,满城县文信房地产有限公司,长旺村北井,长旺村东,长旺村南,长旺村西新增出线间隔配电变压器,长旺大队,城内7队2号,城内火车站2号,蓝汀园间隔配电变压器,理想城1号间隔配电变压器,理想城2号间隔配电变压器,煤建家属院,南陵山新增【纯农排变】,南马大队村西新增,西马吃水井,新阳合晟房地产4间隔配电变压器,长旺新增1号,","scope":"【影响街道/乡镇】满城镇 【高危重要客户】无 【影响客户】兰汀园、煤建家属院、城内七队、火车站家属院、理想城小区、兰亭风景、长旺村、阳光城小区、兰亭竹溪、新二中、兰汀东岸","startTime":"2019-11-08 06:30:00","stopDate":"2019-11-08 17:45:00","orgNo":"1340617","typeCode":"计划停电","poweroffArea":"【分支停电】停长旺新增1号,南马村南,城内7队,城内火车站家属院,抱阳村西,满城县文信房地产有限公司,长旺村北井,长旺村东,长旺村南,长旺村西新增出线间隔配电变压器,长旺大队,城内7队2号,城内火车站2号,蓝汀园间隔配电变压器,理想城1号间隔配电变压器,理想城2号间隔配电变压器,煤建家属院,南陵山新增【纯农排变】,南马大队村西新增,西马吃水井,新阳合晟房地产4间隔配电变压器","poweroffReason":"【停电原因】由于线路检修导致１１０ＫＶ水源变电站电台线５１４线路１３５号杆开关以下停电 【变更送电】无 【发布渠道】满城县有线电视台（１０月３０日１９：００－２０：００至１１月０７日１９：００－２０：００）屏幕上方滚动","powerTime":"2019-11-08 17:44:14","powerComm":"已送电","subsNo":"","lineNo":"","tgNo":"","tgName":null,"infoStatus":"1","orgName":"国网满城县供电公司","typeName":null,"infoStatusName":null,"dateDay":null,"orgNos":null,"nowTime":null,"countyName":null,"streetName":null,"villageName":null,"roadName":null,"communityName":null,"tranName":null,"sdLineName":null,"cityCode":"1340617","cityName":"国网满城县供电公司","provinceCode":null,"stopTime":"2019-11-08 17:45:00","powerType":"全部","powerOffArea":"【分支停电】停长旺新增1号,南马村南,城内7队,城内火车站家属院,抱阳村西,满城县文信房地产有限公司,长旺村北井,长旺村东,长旺村南,长旺村西新增出线间隔配电变压器,长旺大队,城内7队2号,城内火车站2号,蓝汀园间隔配电变压器,理想城1号间隔配电变压器,理想城2号间隔配电变压器,煤建家属院,南陵山新增【纯农排变】,南马大队村西新增,西马吃水井,新阳合晟房地产4间隔配电变压器","powerOffReason":"【停电原因】由于线路检修导致１１０ＫＶ水源变电站电台线５１４线路１３５号杆开关以下停电 【变更送电】无 【发布渠道】满城县有线电视台（１０月３０日１９：００－２０：００至１１月０７日１９：００－２０：００）屏幕上方滚动","powerOffId":"2019103013000307"},{"poweroffId":2019103013000303,"sgpoweroffId":null,"subsName":"","lineName":"东庄线516","pubTranName":"西庄4号,高新区公共事业管理处路灯4号,大石桥5,大石桥桥北钢厂,河南庄大队,东庄4号,东庄3号,西庄土改2【纯农排变】,东庄8号,东庄村东新增变压器,东庄土改4号,东庄10号,大石桥土改3号,河南庄1,西庄土改1【纯农排变】,北于庄小学,大石桥新增200（统管）,西庄8号,于庄（统管）,大石桥土改2号,大石桥3号,大石桥4【纯农排变】,高开区管委会7号路灯,河南庄新增2【纯农排变】,西庄9号,满城县宏联胶辊厂,东庄5号,于庄村内,东庄村西新增（统管）,东庄土改3号,保定国家高新技术产业开发区公共事业管理处,于庄3号,大石桥2号,东庄6号,东庄新增,东庄土改1号,河南庄新增1【纯农排变】,西庄6号,东庄土改2号,西庄乡政府,西庄5号,西庄土改3号【纯农排变】,西庄7号,西庄新增,东庄7号,于庄2号变压器,崔管营饮料厂,西庄土改4【纯农排变】,于庄土改1号,大石桥1,于庄土改2号,大石桥土改1号,于庄土改3号,","scope":"【影响街道/乡镇】西庄乡 【高危重要客户】无 【影响客户】西庄村、东庄村、大石桥村、河南庄村、北于庄村","startTime":"2019-11-08 06:30:00","stopDate":"2019-11-08 17:45:00","orgNo":"1340617","typeCode":"计划停电","poweroffArea":"【全线路停电】停西庄7号,东庄4号,河南庄大队,西庄土改4【纯农排变】,西庄土改3号【纯农排变】,西庄5号,于庄2号变压器,西庄新增,于庄3号,高新区公共事业管理处路灯4号,东庄村西新增（统管）,保定国家高新技术产业开发区公共事业管理处,西庄4号,西庄8号,崔管营饮料厂,大石桥5,于庄（统管）,大石桥桥北钢厂,大石桥2号,高开区管委会7号路灯,西庄6号,西庄9号,东庄土改3号,西庄土改2【纯农排变】,东庄土改2号,大石桥3号,东庄6号,西庄乡政府,东庄3号,西庄土改1【纯农排变】,大石桥新增200（统管）,东庄8号,河南庄1,大石桥4【纯农排变】,河南庄新增2【纯农排变】,东庄5号,东庄土改4号,北于庄小学,满城县宏联胶辊厂,东庄10号,于庄土改3号,于庄土改2号,东庄村东新增变压器,于庄土改1号,大石桥土改3号,大石桥土改2号,大石桥土改1号,河南庄新增1【纯农排变】,大石桥1,于庄村内,东庄土改1号,东庄新增,东庄7号","poweroffReason":"【停电原因】由于线路检修导致３５ＫＶ西庄变电站东庄线５１６线路全线停电 【变更送电】无 【发布渠道】保定市满城电视台（１０月３０日１９：００－２０：００至１１月０７日１９：００－２０：００之间）屏幕上方滚动","powerTime":"2019-11-08 17:44:28","powerComm":"已送电","subsNo":"","lineNo":"","tgNo":"","tgName":null,"infoStatus":"1","orgName":"国网满城县供电公司","typeName":null,"infoStatusName":null,"dateDay":null,"orgNos":null,"nowTime":null,"countyName":null,"streetName":null,"villageName":null,"roadName":null,"communityName":null,"tranName":null,"sdLineName":null,"cityCode":"1340617","cityName":"国网满城县供电公司","provinceCode":null,"stopTime":"2019-11-08 17:45:00","powerType":"全部","powerOffArea":"【全线路停电】停西庄7号,东庄4号,河南庄大队,西庄土改4【纯农排变】,西庄土改3号【纯农排变】,西庄5号,于庄2号变压器,西庄新增,于庄3号,高新区公共事业管理处路灯4号,东庄村西新增（统管）,保定国家高新技术产业开发区公共事业管理处,西庄4号,西庄8号,崔管营饮料厂,大石桥5,于庄（统管）,大石桥桥北钢厂,大石桥2号,高开区管委会7号路灯,西庄6号,西庄9号,东庄土改3号,西庄土改2【纯农排变】,东庄土改2号,大石桥3号,东庄6号,西庄乡政府,东庄3号,西庄土改1【纯农排变】,大石桥新增200（统管）,东庄8号,河南庄1,大石桥4【纯农排变】,河南庄新增2【纯农排变】,东庄5号,东庄土改4号,北于庄小学,满城县宏联胶辊厂,东庄10号,于庄土改3号,于庄土改2号,东庄村东新增变压器,于庄土改1号,大石桥土改3号,大石桥土改2号,大石桥土改1号,河南庄新增1【纯农排变】,大石桥1,于庄村内,东庄土改1号,东庄新增,东庄7号","powerOffReason":"【停电原因】由于线路检修导致３５ＫＶ西庄变电站东庄线５１６线路全线停电 【变更送电】无 【发布渠道】保定市满城电视台（１０月３０日１９：００－２０：００至１１月０７日１９：００－２０：００之间）屏幕上方滚动","powerOffId":"2019103013000303"},{"poweroffId":2019103013000295,"sgpoweroffId":null,"subsName":"","lineName":"方顺桥线515","pubTranName":"南固店学校东,南固店东南【纯农排变】,南固店高标准农田1号【纯农排变】,南固店高标准农田2号【纯农排变】,南固店学校配变,南固店高标准农田3号【纯农排变】,南固店一号【纯农排变】,南固店高标准农田4号【纯农排变】,南固店沟南,南固店沟南2号,南固店沟南新增3号,南固店果园2号,南固店营房南200新增,南固店市场【纯农排变】,南固店1号【纯农排变】,南固店西南2号【纯农排变】,南固店西南3号【纯农排变】,南固店北3号【纯农排变】,南固店北5号【纯农排变】,南固店西南【纯农排变】,南固店新增2号,南固店北【纯农排变】,南固店边庄,南固店边庄2号,南固店村东,南固店村东新增,南固店村南2号【纯农排变】,南固店村南【纯农排变】,南固店村南新增3号,南固店村内【纯农排变】,南固店村内新增,南固店村西,南固店村西大坝【纯农排变】,南固店村西新增,南固店东北【纯农排变】,南固店东北水【纯农排变】,","scope":"【影响街道/乡镇】方顺桥乡 【高危重要客户】无 【影响客户】南固店","startTime":"2019-11-08 06:30:00","stopDate":"2019-11-08 17:45:00","orgNo":"1340617","typeCode":"计划停电","poweroffArea":"【分支停电】停南固店东南【纯农排变】,南固店高标准农田1号【纯农排变】,南固店高标准农田2号【纯农排变】,南固店高标准农田3号【纯农排变】,南固店高标准农田4号【纯农排变】,南固店沟南,南固店沟南2号,南固店沟南新增3号,南固店果园2号,南固店市场【纯农排变】,南固店西南2号【纯农排变】,南固店西南3号【纯农排变】,南固店西南【纯农排变】,南固店新增2号,南固店学校东,南固店学校配变,南固店一号【纯农排变】,南固店营房南200新增,南固店1号【纯农排变】,南固店北3号【纯农排变】,南固店北5号【纯农排变】,南固店北【纯农排变】,南固店边庄,南固店边庄2号,南固店村东,南固店村东新增,南固店村南2号【纯农排变】,南固店村南【纯农排变】,南固店村南新增3号,南固店村内【纯农排变】,南固店村内新增,南固店村西,南固店村西大坝【纯农排变】,南固店村西新增,南固店东北【纯农排变】,南固店东北水【纯农排变】","poweroffReason":"【停电原因】由于线路检修导致１１０ＫＶ西原变电站１０ＫＶ方顺桥线５１５线路４５号开关以下南固店分支停电 【变更送电】无 【发布渠道】满城县有线电视台（１０月３０日１９：００－２０：００至１１月０７日１９：００－２０：００）屏幕上方滚动","powerTime":"2019-11-08 17:15:31","powerComm":"已送电","subsNo":"","lineNo":"","tgNo":"","tgName":null,"infoStatus":"1","orgName":"国网满城县供电公司","typeName":null,"infoStatusName":null,"dateDay":null,"orgNos":null,"nowTime":null,"countyName":null,"streetName":null,"villageName":null,"roadName":null,"communityName":null,"tranName":null,"sdLineName":null,"cityCode":"1340617","cityName":"国网满城县供电公司","provinceCode":null,"stopTime":"2019-11-08 17:45:00","powerType":"全部","powerOffArea":"【分支停电】停南固店东南【纯农排变】,南固店高标准农田1号【纯农排变】,南固店高标准农田2号【纯农排变】,南固店高标准农田3号【纯农排变】,南固店高标准农田4号【纯农排变】,南固店沟南,南固店沟南2号,南固店沟南新增3号,南固店果园2号,南固店市场【纯农排变】,南固店西南2号【纯农排变】,南固店西南3号【纯农排变】,南固店西南【纯农排变】,南固店新增2号,南固店学校东,南固店学校配变,南固店一号【纯农排变】,南固店营房南200新增,南固店1号【纯农排变】,南固店北3号【纯农排变】,南固店北5号【纯农排变】,南固店北【纯农排变】,南固店边庄,南固店边庄2号,南固店村东,南固店村东新增,南固店村南2号【纯农排变】,南固店村南【纯农排变】,南固店村南新增3号,南固店村内【纯农排变】,南固店村内新增,南固店村西,南固店村西大坝【纯农排变】,南固店村西新增,南固店东北【纯农排变】,南固店东北水【纯农排变】","powerOffReason":"【停电原因】由于线路检修导致１１０ＫＶ西原变电站１０ＫＶ方顺桥线５１５线路４５号开关以下南固店分支停电 【变更送电】无 【发布渠道】满城县有线电视台（１０月３０日１９：００－２０：００至１１月０７日１９：００－２０：００）屏幕上方滚动","powerOffId":"2019103013000295"},{"poweroffId":2019103013000279,"sgpoweroffId":null,"subsName":"","lineName":"10kV富昌站581线路","pubTranName":"1后高庄内7,","scope":"【影响街道/乡镇】江城乡 【高危重要客户】无 【影响客户】后高庄","startTime":"2019-11-01 07:00:00","stopDate":"2019-11-01 18:00:00","orgNo":"1340618","typeCode":"临时停电","poweroffArea":"【单台区停电】停1后高庄内7","poweroffReason":"【停电原因】由于更换低压线导致２２０ＫＶ富昌变电站１０ＫＶ富昌站５８１线路１后高庄内７号公变台区停电 【变更送电】无 【发布渠道】通过９５５９８发布","powerTime":"2019-11-01 17:28:37","powerComm":"崔春燕通知已送电","subsNo":"","lineNo":"","tgNo":"","tgName":null,"infoStatus":"1","orgName":"国网清苑县供电公司","typeName":null,"infoStatusName":null,"dateDay":null,"orgNos":null,"nowTime":null,"countyName":null,"streetName":null,"villageName":null,"roadName":null,"communityName":null,"tranName":null,"sdLineName":null,"cityCode":"1340618","cityName":"国网清苑县供电公司","provinceCode":null,"stopTime":"2019-11-01 18:00:00","powerType":"全部","powerOffArea":"【单台区停电】停1后高庄内7","powerOffReason":"【停电原因】由于更换低压线导致２２０ＫＶ富昌变电站１０ＫＶ富昌站５８１线路１后高庄内７号公变台区停电 【变更送电】无 【发布渠道】通过９５５９８发布","powerOffId":"2019103013000279"},{"poweroffId":2019103013000256,"sgpoweroffId":null,"subsName":"","lineName":"边家务线525","pubTranName":"河西村村边农业,河北同兴电气有限公司,河北京阳电气有限公司50,贾务西,湘连口北20综合,辛丰庄57#农业【纯农排变】,河西村变压器农业,湘连口村东北道3号农业【纯农排变】,河西村阳光农业,贾务村西北2号农业【纯农排变】,东信电力金具厂,庞佐2#农业【纯农排变】,庄头农业13号【纯农排变】,利口100#农业【纯农排变】,湘连口村东北新增综合,保定双强电器设备有限公司,湘连口东洼,庄头综合,华北油田第三采油厂,利口99#农业【纯农排变】,河北同兴电气有限公司变压器,庞佐乡政府小区,湘连口村南新增综合,贾务电缆厂,贾务村北综合,庞佐西面厂,永红电器设备公司,都曹口36综合,辛丰庄58综合,0376890957-贾务北-专变-44749843-贾务北,保定东华电力器材有限公司,南辛庄农业【纯农排变】,双强电器设备公司,任佐农业2号【纯农排变】,湘连口东洼3,西演振兴电缆厂,湘连口西16综合,河西村郭坟农业,湘连口村西新增综合,庄头农业75号【纯农排变】,南辛庄6#农业【纯农排变】,利口98#农业【纯农排变】,河西村北新增综合,北归还村东北新增综合变压器,河西村(西盘),北归还72综合,都曹口大队综合,北归还13#台区80#农业【纯农排变】,河西村大队,南辛庄村南新增综合,湘连口向阳街新增综合,北归还新增综合,湘连口村西北新增综合,通力电器设备公司,北归还2#台区9#农业【纯农排变】,庞佐卫生院,天路公司牛场,庄头农业93号【纯农排变】,华兴电器厂,大东毛纺厂(子),河西村收购点农业,保定阳光电力设备有限公司,庄头村西新增,贾务村西北1号农业【纯农排变】,河西村果园农业,湘连口村东南新增综合,高阳县宏泰线路金具厂变压器,北归还3#台区16#农业【纯农排变】,河北永安线路器材有限公司变压器,湘连口,高阳县庞家佐中学变压器,湘连口村东北道6号农业【纯农排变】,河西村东洼,北归还大队74综合,贾务大队（东）综合,河西村大庙东农业,河西村综合,高阳县京硕毛巾厂变压器,保定安凯电器设备制造有限公司变压器,北归还大槐树新增综合,南梁庄30综合,田佐综合,北归还9#台区92#农业【纯农排变】,湘连口村东北道5号农业【纯农排变】,河西村东,河西村托坯坑农业,曙光电器厂,湘连口村北新增综合,李满常,都曹口村西综合,湘连口东22综合,湘连口大队,庞佐59#农业【纯农排变】,南梁庄28#农业【纯农排变】,续国建,东方染厂,庞佐71#农业【纯农排变】,湘连口村东北道1号农业【纯农排变】,阳光电力设备公司,庄头农业55号【纯农排变】,河西村村里综合,河西村,河西村信家地农业,河北京阳电气有限公司,庞佐粮站,庞佐3#农业【纯农排变】,任长六,北归还村东南新增综合,湘连口70综合,辛丰庄113#农业【纯农排变】,北归还1#台区113#农业【纯农排变】,庄头农业新增【纯农排变】,庞佐村南126综合,河西村板厂农业,湘连口村东中道8号农业【纯农排变】,庞佐37#农业【纯农排变】,南辛庄线厂,湘连口村东北道4号农业【纯农排变】,庞佐村委会,湘连口村东中道7号农业【纯农排变】,湘连口新增综合,北归还7#台区10#农业【纯农排变】,续惠丰变压器,保定永红电器设备有限","scope":"【影响街道/乡镇】西演镇、庞口镇、庞佐乡 【高危重要客户】无 【影响客户】都曹口村西、都曹口村里、都曹口村西北、庞佐村（不包含庞佐村西北）、辛丰庄村东北、辛丰庄村东、北归还村东南、北归还村东北、南梁庄村西、河西村、湘连口村、庄头村","startTime":"2019-11-12 07:00:00","stopDate":"2019-11-12 13:00:00","orgNo":"1340613","typeCode":"计划停电","poweroffArea":"【分支停电】停湘连口村北新增综合,天路公司牛场,湘连口红旗厂,河西村村,湘连口70综合,湘连口向阳街新增综合,河西村东,北归还4#台区15#农业【纯农排变】,河西村大道农业,北归还1#台区113#农业【纯农排变】,湘连口村东中道7号农业【纯农排变】,河西村东洼,贾务电缆厂,庄头农业14号【纯农排变】,庞佐西面厂,湘连口村东北新增综合,庞佐村南新增综合,河西村,贾务南(西）综合,河西村南综合,河西村板厂农业,庞佐粮站,湘连口村东北道6号农业【纯农排变】,庄头农业55号【纯农排变】,庞佐东5综合,河北诚拓电力器材有限公司,阳光电力设备公司,北辛庄4#农业【纯农排变】,双强电器设备公司,庞佐37#农业【纯农排变】,河西村(西盘),湘连口村东北道2号农业【纯农排变】,湘连口北20综合,河西村大庙东农业,湘连口村东北道4号农业【纯农排变】,庞佐联小,高阳县庞家佐中学变压器,河西村收购点农业,河西村北新增综合,河北京阳电气有限公司50,北归还9#台区92#农业【纯农排变】,华北油田1号,湘连口村东北道1号农业【纯农排变】,湘连口小康街中综合,辛丰庄村北新增综合,北归还5#台区14#农业【纯农排变】,贾务村西农业【纯农排变】,贾务村北综合,保定永红电器设备有限公司,庞佐95#农业【纯农排变】,庞佐卫生院,湘连口村东南新增综合,北归还6#台区13#农业【纯农排变】,南辛庄6#农业【纯农排变】,湘连口东洼3,湘连口东2,续国建,中国石油天然气股份有限公司华北油田分公司变压器,保定东华电力器材有限公司,辛丰庄村东北综合,永红电器设备公司,湘连口东洼,湘连口东洼2,李满常,贾务村南新增综合,河西村托坯坑农业,辛丰庄村西,南辛庄线厂,西演振兴电缆厂,湘连口新增综合,保定阳光电力设备有限公司,河西村赵坟农业,都曹口36综合,华北油田第三采油厂,庄头农业新增【纯农排变】,庞佐村委会,河北京阳电气有限公司,湘连口村西北新增综合,任佐农业2号【纯农排变】,北归还8#台区79#农业【纯农排变】,北归还2#台区9#农业【纯农排变】,湘连口村东中道8号农业【纯农排变】,庞佐综合（117）,湘连口东洼5,北归还3#台区16#农业【纯农排变】,银河棉花有限公司,庞佐71#农业【纯农排变】,大东毛纺厂(子),北归还村东北新增综合变压器,田佐综合,河北同兴电气有限公司变压器,南梁庄30综合,庞佐西42综合,湘连口村东北道5号农业【纯农排变】,双龙巾被厂,华兴电器厂,河西村信家地农业,河西村综合,北归还13#台区80#农业【纯农排变】,通力电器设备公司,河西村果园农业,东信电力金具厂,庄头村新增综合,贾务村西北1号农业【纯农排变】,河西村郭坟农业,辛丰庄57#农业【纯农排变】,庄头村新增综合(123),北归还大队74综合,庄头农业13号【纯农排变】,河西村大队,湘连口村南新增综合,北归还7#台区10#农业【纯农排变】,高阳县宏达绝缘材料厂变压器,北归还村东南新增综合,湘莲口村东农业,辛丰庄58综合,贾务大队（东）综合,湘连口西,东华电力器材公司,湘连口大队,北归还新增综合,北归还72综合,河西村村里综合,湘连口西16综合,湘连口村西新增综合,河北永安线路器材有限公司变压器,田佐村村西综合,南辛庄村南新增综合,保定安凯电器设备制造有限公司变压器,保定京阳立津线缆制造有限公司变压器,0376890957-贾务北-专变-44749843-贾务北,湘连口村东北道3号农业【纯农排变】,任长六,湘连口东洼6,湘连口东22综合,张亚辉,庞佐59#农业【纯农排变】,都曹口村西综合,辛丰庄113#农业【纯农排变】,曙光电器厂,贾务村北农业【纯农排变】,南辛庄农业【纯农排","poweroffReason":"【停电原因】由于秋季检修导致１１０ＫＶ西演变电站边家务５２５线路主线１１号杆１１号开关以下停电【变更送电】因抢修进度加快原因，送电时间由１４：００变更为１３：００【发布渠道】高阳县电视台（１０月３１日１９时至２１时之间）屏幕下方滚动播出","powerTime":"2019-11-12 12:36:31","powerComm":"已送电","subsNo":"","lineNo":"","tgNo":"","tgName":null,"infoStatus":"1","orgName":"国网高阳县供电公司","typeName":null,"infoStatusName":null,"dateDay":null,"orgNos":null,"nowTime":null,"countyName":null,"streetName":null,"villageName":null,"roadName":null,"communityName":null,"tranName":null,"sdLineName":null,"cityCode":"1340613","cityName":"国网高阳县供电公司","provinceCode":null,"stopTime":"2019-11-12 13:00:00","powerType":"全部","powerOffArea":"【分支停电】停湘连口村北新增综合,天路公司牛场,湘连口红旗厂,河西村村,湘连口70综合,湘连口向阳街新增综合,河西村东,北归还4#台区15#农业【纯农排变】,河西村大道农业,北归还1#台区113#农业【纯农排变】,湘连口村东中道7号农业【纯农排变】,河西村东洼,贾务电缆厂,庄头农业14号【纯农排变】,庞佐西面厂,湘连口村东北新增综合,庞佐村南新增综合,河西村,贾务南(西）综合,河西村南综合,河西村板厂农业,庞佐粮站,湘连口村东北道6号农业【纯农排变】,庄头农业55号【纯农排变】,庞佐东5综合,河北诚拓电力器材有限公司,阳光电力设备公司,北辛庄4#农业【纯农排变】,双强电器设备公司,庞佐37#农业【纯农排变】,河西村(西盘),湘连口村东北道2号农业【纯农排变】,湘连口北20综合,河西村大庙东农业,湘连口村东北道4号农业【纯农排变】,庞佐联小,高阳县庞家佐中学变压器,河西村收购点农业,河西村北新增综合,河北京阳电气有限公司50,北归还9#台区92#农业【纯农排变】,华北油田1号,湘连口村东北道1号农业【纯农排变】,湘连口小康街中综合,辛丰庄村北新增综合,北归还5#台区14#农业【纯农排变】,贾务村西农业【纯农排变】,贾务村北综合,保定永红电器设备有限公司,庞佐95#农业【纯农排变】,庞佐卫生院,湘连口村东南新增综合,北归还6#台区13#农业【纯农排变】,南辛庄6#农业【纯农排变】,湘连口东洼3,湘连口东2,续国建,中国石油天然气股份有限公司华北油田分公司变压器,保定东华电力器材有限公司,辛丰庄村东北综合,永红电器设备公司,湘连口东洼,湘连口东洼2,李满常,贾务村南新增综合,河西村托坯坑农业,辛丰庄村西,南辛庄线厂,西演振兴电缆厂,湘连口新增综合,保定阳光电力设备有限公司,河西村赵坟农业,都曹口36综合,华北油田第三采油厂,庄头农业新增【纯农排变】,庞佐村委会,河北京阳电气有限公司,湘连口村西北新增综合,任佐农业2号【纯农排变】,北归还8#台区79#农业【纯农排变】,北归还2#台区9#农业【纯农排变】,湘连口村东中道8号农业【纯农排变】,庞佐综合（117）,湘连口东洼5,北归还3#台区16#农业【纯农排变】,银河棉花有限公司,庞佐71#农业【纯农排变】,大东毛纺厂(子),北归还村东北新增综合变压器,田佐综合,河北同兴电气有限公司变压器,南梁庄30综合,庞佐西42综合,湘连口村东北道5号农业【纯农排变】,双龙巾被厂,华兴电器厂,河西村信家地农业,河西村综合,北归还13#台区80#农业【纯农排变】,通力电器设备公司,河西村果园农业,东信电力金具厂,庄头村新增综合,贾务村西北1号农业【纯农排变】,河西村郭坟农业,辛丰庄57#农业【纯农排变】,庄头村新增综合(123),北归还大队74综合,庄头农业13号【纯农排变】,河西村大队,湘连口村南新增综合,北归还7#台区10#农业【纯农排变】,高阳县宏达绝缘材料厂变压器,北归还村东南新增综合,湘莲口村东农业,辛丰庄58综合,贾务大队（东）综合,湘连口西,东华电力器材公司,湘连口大队,北归还新增综合,北归还72综合,河西村村里综合,湘连口西16综合,湘连口村西新增综合,河北永安线路器材有限公司变压器,田佐村村西综合,南辛庄村南新增综合,保定安凯电器设备制造有限公司变压器,保定京阳立津线缆制造有限公司变压器,0376890957-贾务北-专变-44749843-贾务北,湘连口村东北道3号农业【纯农排变】,任长六,湘连口东洼6,湘连口东22综合,张亚辉,庞佐59#农业【纯农排变】,都曹口村西综合,辛丰庄113#农业【纯农排变】,曙光电器厂,贾务村北农业【纯农排变】,南辛庄农业【纯农排","powerOffReason":"【停电原因】由于秋季检修导致１１０ＫＶ西演变电站边家务５２５线路主线１１号杆１１号开关以下停电【变更送电】因抢修进度加快原因，送电时间由１４：００变更为１３：００【发布渠道】高阳县电视台（１０月３１日１９时至２１时之间）屏幕下方滚动播出","powerOffId":"2019103013000256"},{"poweroffId":2019103013000248,"sgpoweroffId":null,"subsName":"","lineName":"湘连口线511","pubTranName":"北柳庄综合3,都曹口33综合,贾务村东新增综合,南辛庄综合（116）,北辛庄1号综合,都曹口新增综合,北辛庄54综合,庞佐村西北新增综合,北柳庄村东北综合,北柳庄综合55,都曹口村里新增综合,贾务村东北农业【纯农排变】,边家务村西新增综合　,南辛庄53综合,北辛庄综合36,南梁庄村东新增综合,田佐新增综合,贾务村东农业【纯农排变】,","scope":"【影响街道/乡镇】西演镇、庞佐乡 【高危重要客户】无 【影响客户】南梁庄村东、南辛庄村东、南辛庄村西北、田佐村东、北辛庄村北、北辛庄村南、北柳庄村西、北柳庄村东北、 北柳庄村北、边家务村西、都曹口村东北、都曹口村东、庞佐村西北、贾务村东北","startTime":"2019-11-12 07:00:00","stopDate":"2019-11-12 13:00:00","orgNo":"1340613","typeCode":"计划停电","poweroffArea":"【分支停电】停边家务利达养殖厂,田佐2#农业【纯农排变】,南梁庄村东新增综合,边家务新增106#农业【纯农排变】,田佐新增综合,贾务村东农业【纯农排变】,都曹口33综合,贾务村东新增综合,南辛庄77#农业【纯农排变】,南辛庄综合（116）,北柳庄村西49#农业【纯农排变】,保定京阳立津线缆制造有限公司变压器,都曹口电镀厂,田佐1#农业【纯农排变】,边家务村西新增综合　,河北华恩纺织品制造有限公司变压器,京阳电揽厂,北辛庄1号综合,史文清变压器,都曹口新增综合,高阳县宝发纺织机械制造有限公司变压器,北辛庄皮制品厂,都曹口121#农业【纯农排变】,北辛庄54综合,庞佐村西北新增综合,北柳庄村东北综合,北柳庄综合55,都曹口村里新增综合,田佐村东新增农业【纯农排变】,都曹口62#农业【纯农排变】,保定京阳线缆有限公司,贾务村东北农业【纯农排变】,河北保沧高速公路公司,边家务52#农业【纯农排变】,冀中电缆厂,北柳庄综合3,贾务东,北辛庄东南农业（124）【纯农排变】,高阳县贾务面粉厂变压器,都曹口32#农业【纯农排变】,南辛庄53综合,都曹口31#农业【纯农排变】,南梁庄7#农业【纯农排变】,京阳电缆厂,北柳庄村北新增农业【纯农排变】,边家务51#农业【纯农排变】,祥丰毛巾厂,庞佐96#农业【纯农排变】,都曹口34#农业【纯农排变】,北辛庄综合36,任佐新增农业【纯农排变】,田佐53#农业【纯农排变】","poweroffReason":"【停电原因】由于秋季检修导致１１０ＫＶ西演变电站湘连口５１１线路主线１１号杆１１号开关以下线路停电【变更送电】因抢修进度加快原因，送电时间由１４：００变更为１３：００【发布渠道】高阳县电视台（１０月３１日１９时至２１时之间）屏幕下方滚动播出","powerTime":"2019-11-12 12:36:01","powerComm":"已送电","subsNo":"","lineNo":"","tgNo":"","tgName":null,"infoStatus":"1","orgName":"国网高阳县供电公司","typeName":null,"infoStatusName":null,"dateDay":null,"orgNos":null,"nowTime":null,"countyName":null,"streetName":null,"villageName":null,"roadName":null,"communityName":null,"tranName":null,"sdLineName":null,"cityCode":"1340613","cityName":"国网高阳县供电公司","provinceCode":null,"stopTime":"2019-11-12 13:00:00","powerType":"全部","powerOffArea":"【分支停电】停边家务利达养殖厂,田佐2#农业【纯农排变】,南梁庄村东新增综合,边家务新增106#农业【纯农排变】,田佐新增综合,贾务村东农业【纯农排变】,都曹口33综合,贾务村东新增综合,南辛庄77#农业【纯农排变】,南辛庄综合（116）,北柳庄村西49#农业【纯农排变】,保定京阳立津线缆制造有限公司变压器,都曹口电镀厂,田佐1#农业【纯农排变】,边家务村西新增综合　,河北华恩纺织品制造有限公司变压器,京阳电揽厂,北辛庄1号综合,史文清变压器,都曹口新增综合,高阳县宝发纺织机械制造有限公司变压器,北辛庄皮制品厂,都曹口121#农业【纯农排变】,北辛庄54综合,庞佐村西北新增综合,北柳庄村东北综合,北柳庄综合55,都曹口村里新增综合,田佐村东新增农业【纯农排变】,都曹口62#农业【纯农排变】,保定京阳线缆有限公司,贾务村东北农业【纯农排变】,河北保沧高速公路公司,边家务52#农业【纯农排变】,冀中电缆厂,北柳庄综合3,贾务东,北辛庄东南农业（124）【纯农排变】,高阳县贾务面粉厂变压器,都曹口32#农业【纯农排变】,南辛庄53综合,都曹口31#农业【纯农排变】,南梁庄7#农业【纯农排变】,京阳电缆厂,北柳庄村北新增农业【纯农排变】,边家务51#农业【纯农排变】,祥丰毛巾厂,庞佐96#农业【纯农排变】,都曹口34#农业【纯农排变】,北辛庄综合36,任佐新增农业【纯农排变】,田佐53#农业【纯农排变】","powerOffReason":"【停电原因】由于秋季检修导致１１０ＫＶ西演变电站湘连口５１１线路主线１１号杆１１号开关以下线路停电【变更送电】因抢修进度加快原因，送电时间由１４：００变更为１３：００【发布渠道】高阳县电视台（１０月３１日１９时至２１时之间）屏幕下方滚动播出","powerOffId":"2019103013000248"},{"poweroffId":2019103013000246,"sgpoweroffId":null,"subsName":"","lineName":"印染线541","pubTranName":"北蔡口西南综合,南才口农业2#【纯农排变】,高阳县春秋纺织品印染有限公司变压器,崔振宗,南才口村东北综合,南才口村东综合,0683781483-河北长润环保科技有限公司-专变-223435890-河北长润环保科技有限公司变压器,南才口村东2号变压器,三利乳业公司,南才口农业1#【纯农排变】,南才口西北综合,南才口农业3#【纯农排变】,北蔡口村东综合,棉籽加工厂,南才口西北农业【纯农排变】,高阳县同和棉织厂,王文学,河北三环家居制品有限公司,北蔡口村西南2号综合,八运纺织有限公司,南才口农业4#【纯农排变】,北才口毛纺厂,南才口村北综合,李长征,北蔡口村西综合,|南才口村西南综合,中国石油天然气股份有限公司华北油田分公司变压器,高阳县尚品家纺制造有限公司变压器,南才口村里综合,北蔡口农业4台区【纯农排变】,河北三环家居制品有限公司变压器,南才口村西南2号综合,李学顺毛巾厂,高阳县欧欧纺织品有限公司,南才口村西综合,河北长润房地产开发有限公司变压器,南才口正南综合,高阳县虹天纺织品印染有限公司变压器,南才口村南综合,北蔡口农业5台区【纯农排变】,北蔡口村北综合,王坡,","scope":"【影响街道/乡镇】高阳镇 【高危重要客户】无 【影响客户】南才口、北蔡口","startTime":"2019-11-11 07:30:00","stopDate":"2019-11-11 12:00:00","orgNo":"1340613","typeCode":"计划停电","poweroffArea":"【全线路停电】停|南才口村西南综合,北蔡口村北综合,八运纺织有限公司,北蔡口村西南2号综合,南才口农业2#【纯农排变】,北蔡口西南综合,三利乳业公司,王文学,高阳县春秋纺织品印染有限公司变压器,河北三环家居制品有限公司,南才口农业4#【纯农排变】,中国石油天然气股份有限公司华北油田分公司变压器,北蔡口农业5台区【纯农排变】,李长征,高阳县尚品家纺制造有限公司变压器,南才口村里综合,南才口农业1#【纯农排变】,南才口村西综合,南才口村东2号变压器,南才口农业3#【纯农排变】,高阳县虹天纺织品印染有限公司变压器,0683781483-河北长润环保科技有限公司-专变-223435890-河北长润环保科技有限公司变压器,南才口村南综合,北蔡口村东综合,北蔡口农业4台区【纯农排变】,崔振宗,河北三环家居制品有限公司变压器,棉籽加工厂,高阳县欧欧纺织品有限公司,南才口西北农业【纯农排变】,河北长润房地产开发有限公司变压器,南才口西北综合,南才口村东综合,王坡,南才口村北综合,南才口村西南2号综合,高阳县同和棉织厂,南才口正南综合,南才口村东北综合,李学顺毛巾厂,北蔡口村西综合,北才口毛纺厂","poweroffReason":"【停电原因】由于更换出线刀闸导致１１０ＫＶ城东变电站印染５４１线路全线停电【变更送电】无【发布渠道】高阳县电视台（１０月３１日１９时至２１时之间）屏幕下方滚动播出","powerTime":"2019-11-11 11:18:43","powerComm":"已送电","subsNo":"","lineNo":"","tgNo":"","tgName":null,"infoStatus":"1","orgName":"国网高阳县供电公司","typeName":null,"infoStatusName":null,"dateDay":null,"orgNos":null,"nowTime":null,"countyName":null,"streetName":null,"villageName":null,"roadName":null,"communityName":null,"tranName":null,"sdLineName":null,"cityCode":"1340613","cityName":"国网高阳县供电公司","provinceCode":null,"stopTime":"2019-11-11 12:00:00","powerType":"全部","powerOffArea":"【全线路停电】停|南才口村西南综合,北蔡口村北综合,八运纺织有限公司,北蔡口村西南2号综合,南才口农业2#【纯农排变】,北蔡口西南综合,三利乳业公司,王文学,高阳县春秋纺织品印染有限公司变压器,河北三环家居制品有限公司,南才口农业4#【纯农排变】,中国石油天然气股份有限公司华北油田分公司变压器,北蔡口农业5台区【纯农排变】,李长征,高阳县尚品家纺制造有限公司变压器,南才口村里综合,南才口农业1#【纯农排变】,南才口村西综合,南才口村东2号变压器,南才口农业3#【纯农排变】,高阳县虹天纺织品印染有限公司变压器,0683781483-河北长润环保科技有限公司-专变-223435890-河北长润环保科技有限公司变压器,南才口村南综合,北蔡口村东综合,北蔡口农业4台区【纯农排变】,崔振宗,河北三环家居制品有限公司变压器,棉籽加工厂,高阳县欧欧纺织品有限公司,南才口西北农业【纯农排变】,河北长润房地产开发有限公司变压器,南才口西北综合,南才口村东综合,王坡,南才口村北综合,南才口村西南2号综合,高阳县同和棉织厂,南才口正南综合,南才口村东北综合,李学顺毛巾厂,北蔡口村西综合,北才口毛纺厂","powerOffReason":"【停电原因】由于更换出线刀闸导致１１０ＫＶ城东变电站印染５４１线路全线停电【变更送电】无【发布渠道】高阳县电视台（１０月３１日１９时至２１时之间）屏幕下方滚动播出","powerOffId":"2019103013000246"},{"poweroffId":2019103013000238,"sgpoweroffId":null,"subsName":"","lineName":"10kV阮庄站511线路","pubTranName":"0356177366-保定市硕丰管件制造有限公司-6-配电室-变压器-6,0356188924-保定市新金制冰厂-专变,0356337573-保定市南市区石发塑钢门窗加工部-1-配电室-变压器-1,0356329637-保定市南市区春来塑料制品商行-专变-148290657-变压器,0356318327-保定市新华蓄电池厂-专变,0356546144-保定市南市区顺兴机械加工厂-1-配电室-变压器-1,0356329637-保定市力达塑业有限公司-1#专变,0356177366-保定市硕丰管件制造有限公司-6#专变,0356683386-保定市新华蓄电池厂-专变,0356177366-保定市硕丰管件制造有限公司-7-配电室-变压器-7,0356177366-保定市硕丰管件制造有限公司-2-配电室-变压器-1,0356177366-保定市硕丰管件制造有限公司-8-配电室-变压器-8,0356177366-保定市硕丰管件制造有限公司-3#专变,0356237020-中华纺织厂-专变,0356329637-保定市力达塑业有限公司-2#专变,0609685790-保定轩宇泰鼎汽车销售服务有限公司-专变,0356433255-中国联合网络通信有限公司保定市分公司-1-配电室-变压器-1,0356338778-保定市王成兰食品有限公司-专变,0356183697-保定市北方电磁线有限公司-1-配电室-变压器-1,0356177366-保定市硕丰管件制造有限公司-9#专变,0356188940-保定市新华综合制品厂-专变,20022232,0356345275-南大园-专变,0356329637-保定市南市区春来塑料制品商行-专变-148290631-变压器,0357280924-保定市路灯管理处-1-箱式变-变压器-1,B704柱上变压器,0562876219-保定市光达总公司-专变,0356225690-保定市亨达铜业有限责任公司-专变-148038555-变压器,0356242097-保定市硕丰管件制造有限公司-1-配电室-变压器-1,0356177366-保定市硕丰管件制造有限公司-3-配电室-变压器-3,0357444960-保定市力达塑业有限公司-1-配电室-变压器-1,0356393056-保定市南市区吉利起重件厂-1-配电室-变压器-1,0356268710-保定市新华蓄电池厂-专变,0356177366-保定市硕丰管件制造有限公司-5-配电室-变压器-5,0356230654-河北省保定劳教所-1#专变,0356177366-保定市硕丰管件制造有限公司-4-配电室-变压器-4,","scope":"【影响街道/乡镇】莲池南大街、阮庄路、南二环、高保路口、长城南大街、太行路 【高危重要客户】无 【影响客户】南二环2222门牌号、2242门牌号、新华蓄电池、力达塑业、轩宇泰顶、恒达铜业、朱庄钢业、天翔织布、凤仙起重设备厂、顺兴机械加工厂、劳教所","startTime":"2019-10-30 15:40:00","stopDate":"2019-10-30 17:10:00","orgNo":"13406","typeCode":"电网故障停限电","poweroffArea":"【全线路停电】停0356177366-保定市硕丰管件制造有限公司-6#专变,0356683386-保定市新华蓄电池厂-专变,0356177366-保定市硕丰管件制造有限公司-7-配电室-变压器-7,0356177366-保定市硕丰管件制造有限公司-2-配电室-变压器-1,0356177366-保定市硕丰管件制造有限公司-8-配电室-变压器-8,0356177366-保定市硕丰管件制造有限公司-3#专变,0356237020-中华纺织厂-专变,0357280924-保定市路灯管理处-1-箱式变-变压器-1,B704柱上变压器,0562876219-保定市光达总公司-专变,0356225690-保定市亨达铜业有限责任公司-专变-148038555-变压器,0356242097-保定市硕丰管件制造有限公司-1-配电室-变压器-1,0357444960-保定市力达塑业有限公司-1-配电室-变压器-1,0356393056-保定市南市区吉利起重件厂-1-配电室-变压器-1,0356268710-保定市新华蓄电池厂-专变,0356433255-中国联合网络通信有限公司保定市分公司-1-配电室-变压器-1,0356183697-保定市北方电磁线有限公司-1-配电室-变压器-1,0356177366-保定市硕丰管件制造有限公司-9#专变,0356188940-保定市新华综合制品厂-专变,20022232,0356345275-南大园-专变,0356329637-保定市南市区春来塑料制品商行-专变-148290631-变压器,0356177366-保定市硕丰管件制造有限公司-4-配电室-变压器-4,0356177366-保定市硕丰管件制造有限公司-3-配电室-变压器-3,0356177366-保定市硕丰管件制造有限公司-6-配电室-变压器-6,0356188924-保定市新金制冰厂-专变,0356337573-保定市南市区石发塑钢门窗加工部-1-配电室-变压器-1,0356329637-保定市南市区春来塑料制品商行-专变-148290657-变压器,0356318327-保定市新华蓄电池厂-专变,0356546144-保定市南市区顺兴机械加工厂-1-配电室-变压器-1,0356329637-保定市力达塑业有限公司-1#专变,0356177366-保定市硕丰管件制造有限公司-5-配电室-变压器-5,0356230654-河北省保定劳教所-1#专变,0356338778-保定市王成兰食品有限公司-专变,0356329637-保定市力达塑业有限公司-2#专变,0609685790-保定轩宇泰鼎汽车销售服务有限公司-专变","poweroffReason":"【停电原因】由于过流跳闸导致１０ＫＶ阮庄变电站５１１线路全线停电【变更送电】因抢修进度加快，原定１９：４０送电现计划１７：１０送电【发布渠道】通过９５５９８发布","powerTime":"2019-10-30 16:45:26","powerComm":"已送电","subsNo":"","lineNo":"","tgNo":"","tgName":null,"infoStatus":"1","orgName":"保定供电公司","typeName":null,"infoStatusName":null,"dateDay":null,"orgNos":null,"nowTime":null,"countyName":null,"streetName":null,"villageName":null,"roadName":null,"communityName":null,"tranName":null,"sdLineName":null,"cityCode":"13406","cityName":"保定供电公司","provinceCode":null,"stopTime":"2019-10-30 17:10:00","powerType":"全部","powerOffArea":"【全线路停电】停0356177366-保定市硕丰管件制造有限公司-6#专变,0356683386-保定市新华蓄电池厂-专变,0356177366-保定市硕丰管件制造有限公司-7-配电室-变压器-7,0356177366-保定市硕丰管件制造有限公司-2-配电室-变压器-1,0356177366-保定市硕丰管件制造有限公司-8-配电室-变压器-8,0356177366-保定市硕丰管件制造有限公司-3#专变,0356237020-中华纺织厂-专变,0357280924-保定市路灯管理处-1-箱式变-变压器-1,B704柱上变压器,0562876219-保定市光达总公司-专变,0356225690-保定市亨达铜业有限责任公司-专变-148038555-变压器,0356242097-保定市硕丰管件制造有限公司-1-配电室-变压器-1,0357444960-保定市力达塑业有限公司-1-配电室-变压器-1,0356393056-保定市南市区吉利起重件厂-1-配电室-变压器-1,0356268710-保定市新华蓄电池厂-专变,0356433255-中国联合网络通信有限公司保定市分公司-1-配电室-变压器-1,0356183697-保定市北方电磁线有限公司-1-配电室-变压器-1,0356177366-保定市硕丰管件制造有限公司-9#专变,0356188940-保定市新华综合制品厂-专变,20022232,0356345275-南大园-专变,0356329637-保定市南市区春来塑料制品商行-专变-148290631-变压器,0356177366-保定市硕丰管件制造有限公司-4-配电室-变压器-4,0356177366-保定市硕丰管件制造有限公司-3-配电室-变压器-3,0356177366-保定市硕丰管件制造有限公司-6-配电室-变压器-6,0356188924-保定市新金制冰厂-专变,0356337573-保定市南市区石发塑钢门窗加工部-1-配电室-变压器-1,0356329637-保定市南市区春来塑料制品商行-专变-148290657-变压器,0356318327-保定市新华蓄电池厂-专变,0356546144-保定市南市区顺兴机械加工厂-1-配电室-变压器-1,0356329637-保定市力达塑业有限公司-1#专变,0356177366-保定市硕丰管件制造有限公司-5-配电室-变压器-5,0356230654-河北省保定劳教所-1#专变,0356338778-保定市王成兰食品有限公司-专变,0356329637-保定市力达塑业有限公司-2#专变,0609685790-保定轩宇泰鼎汽车销售服务有限公司-专变","powerOffReason":"【停电原因】由于过流跳闸导致１０ＫＶ阮庄变电站５１１线路全线停电【变更送电】因抢修进度加快，原定１９：４０送电现计划１７：１０送电【发布渠道】通过９５５９８发布","powerOffId":"2019103013000238"},{"poweroffId":2019103013000237,"sgpoweroffId":null,"subsName":"","lineName":"园区线547","pubTranName":"岳佐6#村东综合,赵通10号村西综合,赵通1#大队综合,赵通8#,赵通2#村西北综合,岳佐7#村里综合,赵通4#村北综合,赵通3#大队综合,赵通7#综合,","scope":"【影响街道/乡镇】城关镇 【高危重要客户】无 【影响客户】岳佐、赵通","startTime":"2019-11-11 07:30:00","stopDate":"2019-11-11 12:00:00","orgNo":"1340613","typeCode":"计划停电","poweroffArea":"【全线路停电】停岳佐1#村东北106农排【纯农排变】,侯佳,赵通4#村北综合,东关农排【纯农排变】,上海卓悦纺织品有限公司变压器,志华养殖厂,赵通3#大队综合,岳佐4#远东北109农排【纯农排变】,鑫鑫车队,岳佐3#远东南108农排【纯农排变】,河北高阳经济开发区管理委员会变压器,王金岭,田兴旺染厂,赵通农业,高阳县尚品家纺制造有限公司变压器,高阳县虹天纺织品印染有限公司变压器,赵通2#村西北综合,岳佐5#远东1#110农排【纯农排变】,高阳县东方染厂变压器,高阳县鑫顺纺织品印染有限公司变压器,赵通7#综合,岳佐6#远东2#111农排【纯农排变】,津联工业用呢公司,河北宏润新型面料有限公司设备,赵通1#大队综合,赵通8#,岳佐6#村东综合,金馥伦纺织有限公司,岳佐7#村里综合,赵通东,高阳县文浩纺织品有限公司变压器,赵通10号村西综合","poweroffReason":"【停电原因】由于更换出线刀闸导致１１０ＫＶ城东变电站园区５４７线路全线停电【变更送电】无【发布渠道】高阳县电视台（１０月３１日１９时至２１时之间）屏幕下方滚动播出","powerTime":"2019-11-11 11:16:13","powerComm":"已送电","subsNo":"","lineNo":"","tgNo":"","tgName":null,"infoStatus":"1","orgName":"国网高阳县供电公司","typeName":null,"infoStatusName":null,"dateDay":null,"orgNos":null,"nowTime":null,"countyName":null,"streetName":null,"villageName":null,"roadName":null,"communityName":null,"tranName":null,"sdLineName":null,"cityCode":"1340613","cityName":"国网高阳县供电公司","provinceCode":null,"stopTime":"2019-11-11 12:00:00","powerType":"全部","powerOffArea":"【全线路停电】停岳佐1#村东北106农排【纯农排变】,侯佳,赵通4#村北综合,东关农排【纯农排变】,上海卓悦纺织品有限公司变压器,志华养殖厂,赵通3#大队综合,岳佐4#远东北109农排【纯农排变】,鑫鑫车队,岳佐3#远东南108农排【纯农排变】,河北高阳经济开发区管理委员会变压器,王金岭,田兴旺染厂,赵通农业,高阳县尚品家纺制造有限公司变压器,高阳县虹天纺织品印染有限公司变压器,赵通2#村西北综合,岳佐5#远东1#110农排【纯农排变】,高阳县东方染厂变压器,高阳县鑫顺纺织品印染有限公司变压器,赵通7#综合,岳佐6#远东2#111农排【纯农排变】,津联工业用呢公司,河北宏润新型面料有限公司设备,赵通1#大队综合,赵通8#,岳佐6#村东综合,金馥伦纺织有限公司,岳佐7#村里综合,赵通东,高阳县文浩纺织品有限公司变压器,赵通10号村西综合","powerOffReason":"【停电原因】由于更换出线刀闸导致１１０ＫＶ城东变电站园区５４７线路全线停电【变更送电】无【发布渠道】高阳县电视台（１０月３１日１９时至２１时之间）屏幕下方滚动播出","powerOffId":"2019103013000237"}],"pageModel":{"pageNow":425,"totalCount":10973,"totalPage":1098,"tableRows":0,"pageCount":10,"beginCount":4240},"isExperi":"1"}