{"message":"","today":"2020-06-15","seleList":[{"poweroffId":2019102913000049,"sgpoweroffId":null,"subsName":"","lineName":"10KV城西北526","pubTranName":"豆庄新增7号变,","scope":"【影响街道/乡镇】百尺竿乡 【高危重要客户】无 【影响客户】豆庄村","startTime":"2019-11-08 08:00:00","stopDate":"2019-11-08 17:00:00","orgNo":"1340626","typeCode":"计划停电","poweroffArea":"【单台区停电】停豆庄新增7号变","poweroffReason":"【停电原因】由于架设导线导致１１０ＫＶ下胡良变电站１０ＫＶ城西北５２６线路豆庄新增７号公变台区停电 【变更送电】无 【发布渠道】涿州电视台（１０月２９日至１１月０７日２１：００播放２次）屏幕上方滚动","powerTime":"2019-11-08 16:45:13","powerComm":"恢复送电","subsNo":"","lineNo":"","tgNo":"","tgName":null,"infoStatus":"1","orgName":"国网涿州市供电公司","typeName":null,"infoStatusName":null,"dateDay":null,"orgNos":null,"nowTime":null,"countyName":null,"streetName":null,"villageName":null,"roadName":null,"communityName":null,"tranName":null,"sdLineName":null,"cityCode":"1340626","cityName":"国网涿州市供电公司","provinceCode":null,"stopTime":"2019-11-08 17:00:00","powerType":"全部","powerOffArea":"【单台区停电】停豆庄新增7号变","powerOffReason":"【停电原因】由于架设导线导致１１０ＫＶ下胡良变电站１０ＫＶ城西北５２６线路豆庄新增７号公变台区停电 【变更送电】无 【发布渠道】涿州电视台（１０月２９日至１１月０７日２１：００播放２次）屏幕上方滚动","powerOffId":"2019102913000049"},{"poweroffId":2019102913000047,"sgpoweroffId":null,"subsName":"","lineName":"10kV514百尺村线","pubTranName":"北宗综合5台区,北宗综合15台区,南宗农排11台区【纯农排变】,南宗综合1台区,北宗综合9台区,兴平毛纺厂,北宗龙兴开花厂变压器,南宗综合12台区,北宗综合7台区,天雄毛纺厂,北宗综合14台区,南宗农排13台区【纯农排变】,南宗农排2台区【纯农排变】,北宗农排5台区【纯农排变】,和平毛纺厂,蠡县美森家居服饰有限公司,南宗综合3台区,北宗农排2台区【纯农排变】,北宗综合3台区,南宗农排7台区【纯农排变】,北宗综合10台区,南宗农排9台区【纯农排变】,幸福阳光小区变压器,帅威皮革制品有限公司,北宗农排8台区【纯农排变】,北宗综合11台区,南宗农排8台区【纯农排变】,南宗综合9台区,南宗农排3台区【纯农排变】,北宗综合2台区,南宗综合11台区,北宗农排9台区【纯农排变】,北宗综合6台区,北宗农排4台区【纯农排变】,南宗综合7台区,北宗农排7台区【纯农排变】,南宗综合4台区,北宗综合8台区,蠡县东帝物业服务有限公司,北宗农排12台区【纯农排变】,南宗农排12台区【纯农排变】,南宗综合5台区,南宗农排10台区【纯农排变】,南宗综合2台区,前进染厂,南宗农排1台区【纯农排变】,南宗综合14台区,南宗皮棍厂,北宗综合1台区,南宗综合10台区,北宗农排1台区【纯农排变】,北宗综合12台区,北宗开花厂,南宗综合13台区,北宗农排11台区【纯农排变】,南宗综合6台区,天宇电焊变压器,南宗农排6台区【纯农排变】,北宗农排3台区【纯农排变】,金铎染厂,变压器,北宗农排10台区【纯农排变】,艳辉养殖场,南宗农排4台区【纯农排变】,河北诺曼通信设备有限公司,北宗农排6台区【纯农排变】,北宗综合13台区,南宗综合8台区,南宗雄飞面粉厂,北宗种植科技园,北宗综合4台区,南宗农排5台区【纯农排变】,蠡县辛兴镇春晖养马场变压器,南宗新民居小区变压器,蠡县北盈麻山药农民专业合作社变压器500,蠡县北宗龙兴开花厂,","scope":"【影响街道/乡镇】辛兴镇【高危重要客户】无【影响客户】北宗村、南宗村","startTime":"2019-11-07 06:00:00","stopDate":"2019-11-07 16:40:00","orgNo":"1340616","typeCode":"计划停电","poweroffArea":"【全线路停电】停天宇电焊变压器,北宗农排3台区【纯农排变】,变压器,南宗农排6台区【纯农排变】,南宗农排10台区【纯农排变】,南宗农排5台区【纯农排变】,蠡县辛兴镇春晖养马场变压器,南宗新民居小区变压器,蠡县北盈麻山药农民专业合作社变压器500,蠡县北宗龙兴开花厂,南宗综合6台区,南宗农排4台区【纯农排变】,天雄毛纺厂,北宗综合4台区,金铎染厂,北宗农排11台区【纯农排变】,北宗综合10台区,北宗综合11台区,南宗农排2台区【纯农排变】,蠡县美森家居服饰有限公司,南宗农排12台区【纯农排变】,和平毛纺厂,南宗综合12台区,北宗综合7台区,河北诺曼通信设备有限公司,北宗农排6台区【纯农排变】,北宗综合13台区,南宗综合8台区,北宗农排8台区【纯农排变】,南宗综合9台区,艳辉养殖场,北宗农排10台区【纯农排变】,北宗农排12台区【纯农排变】,南宗综合3台区,北宗农排2台区【纯农排变】,北宗综合3台区,南宗农排7台区【纯农排变】,帅威皮革制品有限公司,南宗雄飞面粉厂,北宗种植科技园,北宗综合12台区,北宗综合14台区,南宗农排13台区【纯农排变】,南宗农排8台区【纯农排变】,北宗农排9台区【纯农排变】,北宗综合6台区,南宗综合7台区,南宗综合4台区,北宗综合8台区,南宗综合10台区,北宗农排1台区【纯农排变】,北宗开花厂,南宗综合13台区,蠡县东帝物业服务有限公司,北宗农排5台区【纯农排变】,南宗农排1台区【纯农排变】,南宗皮棍厂,北宗综合1台区,幸福阳光小区变压器,南宗综合1台区,兴平毛纺厂,南宗综合2台区,前进染厂,南宗综合14台区,南宗综合5台区,南宗农排3台区【纯农排变】,北宗综合2台区,南宗综合11台区,北宗农排4台区【纯农排变】,北宗农排7台区【纯农排变】,南宗农排9台区【纯农排变】,北宗综合5台区,北宗综合15台区,南宗农排11台区【纯农排变】,北宗综合9台区,北宗龙兴开花厂变压器","poweroffReason":"【停电原因】由于立杆、安装变压器导致１１０ＫＶ辛兴变电站１０ＫＶ百尺村５１４线路全线停电【变更送电】因工作进度加快原因，送电时间由１８：００变更为１６：４０【发布渠道】河北省保定市蠡县电视台（１０月２９日至１１月０６日２０：００至２２：００之间）　","powerTime":"2019-11-07 16:22:07","powerComm":"已送电","subsNo":"","lineNo":"","tgNo":"","tgName":null,"infoStatus":"1","orgName":"国网蠡县供电公司","typeName":null,"infoStatusName":null,"dateDay":null,"orgNos":null,"nowTime":null,"countyName":null,"streetName":null,"villageName":null,"roadName":null,"communityName":null,"tranName":null,"sdLineName":null,"cityCode":"1340616","cityName":"国网蠡县供电公司","provinceCode":null,"stopTime":"2019-11-07 16:40:00","powerType":"全部","powerOffArea":"【全线路停电】停天宇电焊变压器,北宗农排3台区【纯农排变】,变压器,南宗农排6台区【纯农排变】,南宗农排10台区【纯农排变】,南宗农排5台区【纯农排变】,蠡县辛兴镇春晖养马场变压器,南宗新民居小区变压器,蠡县北盈麻山药农民专业合作社变压器500,蠡县北宗龙兴开花厂,南宗综合6台区,南宗农排4台区【纯农排变】,天雄毛纺厂,北宗综合4台区,金铎染厂,北宗农排11台区【纯农排变】,北宗综合10台区,北宗综合11台区,南宗农排2台区【纯农排变】,蠡县美森家居服饰有限公司,南宗农排12台区【纯农排变】,和平毛纺厂,南宗综合12台区,北宗综合7台区,河北诺曼通信设备有限公司,北宗农排6台区【纯农排变】,北宗综合13台区,南宗综合8台区,北宗农排8台区【纯农排变】,南宗综合9台区,艳辉养殖场,北宗农排10台区【纯农排变】,北宗农排12台区【纯农排变】,南宗综合3台区,北宗农排2台区【纯农排变】,北宗综合3台区,南宗农排7台区【纯农排变】,帅威皮革制品有限公司,南宗雄飞面粉厂,北宗种植科技园,北宗综合12台区,北宗综合14台区,南宗农排13台区【纯农排变】,南宗农排8台区【纯农排变】,北宗农排9台区【纯农排变】,北宗综合6台区,南宗综合7台区,南宗综合4台区,北宗综合8台区,南宗综合10台区,北宗农排1台区【纯农排变】,北宗开花厂,南宗综合13台区,蠡县东帝物业服务有限公司,北宗农排5台区【纯农排变】,南宗农排1台区【纯农排变】,南宗皮棍厂,北宗综合1台区,幸福阳光小区变压器,南宗综合1台区,兴平毛纺厂,南宗综合2台区,前进染厂,南宗综合14台区,南宗综合5台区,南宗农排3台区【纯农排变】,北宗综合2台区,南宗综合11台区,北宗农排4台区【纯农排变】,北宗农排7台区【纯农排变】,南宗农排9台区【纯农排变】,北宗综合5台区,北宗综合15台区,南宗农排11台区【纯农排变】,北宗综合9台区,北宗龙兴开花厂变压器","powerOffReason":"【停电原因】由于立杆、安装变压器导致１１０ＫＶ辛兴变电站１０ＫＶ百尺村５１４线路全线停电【变更送电】因工作进度加快原因，送电时间由１８：００变更为１６：４０【发布渠道】河北省保定市蠡县电视台（１０月２９日至１１月０６日２０：００至２２：００之间）　","powerOffId":"2019102913000047"},{"poweroffId":2019102913000045,"sgpoweroffId":null,"subsName":"","lineName":"衣巾店线525","pubTranName":"大史新变压器,陶辛庄小区5号箱变配电变压器,幸福营20号变压器,梁北东台变压器,陶辛庄小区4号箱变配电变压器,幸福营19号变压器,陶辛庄小区1号箱变间隔配电变压器,陶辛庄小区2号箱变间隔配电变压器,陶辛庄小区3号箱变配电变压器,龙堂路变压器,梁北中,梁北北变压器,梁家营乡政府变压器,","scope":"【影响街道/乡镇】梁家营乡、方官镇 【高危重要客户】无 【影响客户】天筑建材、高德门窗、大史村、小史村、蔡庄村、梁南村、梁北村、陶辛庄村、幸福营村","startTime":"2019-11-07 06:00:00","stopDate":"2019-11-07 10:30:00","orgNo":"1340612","typeCode":"计划停电","poweroffArea":"【分支停电】停大史新变压器,梁北排灌2【纯农排变】,中铁一局2公司,梁北西变压器,东升高计,东升3,梁北东台变压器,高碑店市晨阳橡塑制品有限公司,陶辛庄变压器,高碑店市盛品塑料制品有限公司,高碑店市梁家营初级中学变压器,中国移动通信集团河北有限公司高碑店分公司,幸福营排【纯农排变】,陶辛庄小区4号箱变配电变压器,0662995733-国网高碑店市供电公司-专变-197606801-河北省保定市高碑店市梁家营乡梁家营供电0所,北京华汇恒业投资有限公司变压器,陶辛庄小区1号箱变间隔配电变压器,大史排灌,梁北排灌3【纯农排变】,陶辛庄小区5号箱变配电变压器,梁南排灌变压器【纯农排变】,幸福营19号变压器,高碑店市天筑新型建材有限公司,梁北排灌1【纯农排变】,陶辛庄小区2号箱变间隔配电变压器,永兴加油站,梁南变压器,小史排灌【纯农排变】,通盛水泥厂,梁北面粉厂,孵化厂,河北驰通房地产开发有限公司,高碑店市路灯管理办公室,高碑店市呈辉石材加工有限公司,大史东台变压器,大史南台变压器,河北汇佳房地产开发有限公司2,高碑店市建设局,赵庄排灌【纯农排变】,蔡庄变压器,幸福营20号变压器,高碑店市中誉房地产开发有限公司800,河北杉浩房地产开发有限公司,龙堂路变压器,小史变压器,河北汇佳房地产开发有限公司,大史排灌2变压器【纯农排变】,高碑店市志豪机电设备有限公司,河北汇佳房地产开发有限公司变压器,中铁一局中心试验室,梁北北变压器,太平庄排灌1号变压器【纯农排变】,太平庄排灌2号变压器【纯农排变】,衣巾店农场,梁南新变压器,庄伙排灌变压器【纯农排变】,梁家营乡政府变压器,陶辛庄北变压器,陶辛庄小区3号箱变配电变压器,梁北中,幸福营排灌变压器【纯农排变】,高碑店燕赵医院,农场2,粮站,高碑店市睦天家庭农场,高碑店市梁家营高德门窗加工厂,保定杰海箱包配件制造有限公司","poweroffReason":"【停电原因】由于线路改造导致１１０ＫＶ太平庄变电站１０ＫＶ衣巾店５２５线路０１号断路器以下停电 【变更送电】因工作进度加快原因，送电时间由１８：００变更为１０：３０ 【发布渠道】高碑店市高碑店电视台（１０月３０日０８时至１１月０６日１８时之间）屏幕上方滚动","powerTime":"2019-11-07 10:00:11","powerComm":"已送电","subsNo":"","lineNo":"","tgNo":"","tgName":null,"infoStatus":"1","orgName":"国网高碑店市供电公司","typeName":null,"infoStatusName":null,"dateDay":null,"orgNos":null,"nowTime":null,"countyName":null,"streetName":null,"villageName":null,"roadName":null,"communityName":null,"tranName":null,"sdLineName":null,"cityCode":"1340612","cityName":"国网高碑店市供电公司","provinceCode":null,"stopTime":"2019-11-07 10:30:00","powerType":"全部","powerOffArea":"【分支停电】停大史新变压器,梁北排灌2【纯农排变】,中铁一局2公司,梁北西变压器,东升高计,东升3,梁北东台变压器,高碑店市晨阳橡塑制品有限公司,陶辛庄变压器,高碑店市盛品塑料制品有限公司,高碑店市梁家营初级中学变压器,中国移动通信集团河北有限公司高碑店分公司,幸福营排【纯农排变】,陶辛庄小区4号箱变配电变压器,0662995733-国网高碑店市供电公司-专变-197606801-河北省保定市高碑店市梁家营乡梁家营供电0所,北京华汇恒业投资有限公司变压器,陶辛庄小区1号箱变间隔配电变压器,大史排灌,梁北排灌3【纯农排变】,陶辛庄小区5号箱变配电变压器,梁南排灌变压器【纯农排变】,幸福营19号变压器,高碑店市天筑新型建材有限公司,梁北排灌1【纯农排变】,陶辛庄小区2号箱变间隔配电变压器,永兴加油站,梁南变压器,小史排灌【纯农排变】,通盛水泥厂,梁北面粉厂,孵化厂,河北驰通房地产开发有限公司,高碑店市路灯管理办公室,高碑店市呈辉石材加工有限公司,大史东台变压器,大史南台变压器,河北汇佳房地产开发有限公司2,高碑店市建设局,赵庄排灌【纯农排变】,蔡庄变压器,幸福营20号变压器,高碑店市中誉房地产开发有限公司800,河北杉浩房地产开发有限公司,龙堂路变压器,小史变压器,河北汇佳房地产开发有限公司,大史排灌2变压器【纯农排变】,高碑店市志豪机电设备有限公司,河北汇佳房地产开发有限公司变压器,中铁一局中心试验室,梁北北变压器,太平庄排灌1号变压器【纯农排变】,太平庄排灌2号变压器【纯农排变】,衣巾店农场,梁南新变压器,庄伙排灌变压器【纯农排变】,梁家营乡政府变压器,陶辛庄北变压器,陶辛庄小区3号箱变配电变压器,梁北中,幸福营排灌变压器【纯农排变】,高碑店燕赵医院,农场2,粮站,高碑店市睦天家庭农场,高碑店市梁家营高德门窗加工厂,保定杰海箱包配件制造有限公司","powerOffReason":"【停电原因】由于线路改造导致１１０ＫＶ太平庄变电站１０ＫＶ衣巾店５２５线路０１号断路器以下停电 【变更送电】因工作进度加快原因，送电时间由１８：００变更为１０：３０ 【发布渠道】高碑店市高碑店电视台（１０月３０日０８时至１１月０６日１８时之间）屏幕上方滚动","powerOffId":"2019102913000045"},{"poweroffId":2019102913000042,"sgpoweroffId":null,"subsName":"","lineName":"10KV沿鲁532","pubTranName":"沿鲁新增柱变,","scope":"【影响街道/乡镇】刁窝乡 【高危重要客户】无 【影响客户】沿鲁村","startTime":"2019-11-08 07:00:00","stopDate":"2019-11-08 18:00:00","orgNo":"1340626","typeCode":"计划停电","poweroffArea":"【单台区停电】停沿鲁新增柱变","poweroffReason":"【停电原因】由于更换导线导致１１０ＫＶ刁窝变电站１０ＫＶ沿鲁５３２线路沿鲁新增公变台区停电 【变更送电】无 【发布渠道】涿州电视台（１０月２９日至１１月０７日２１：００播放２次）屏幕上方滚动","powerTime":"2019-11-08 17:25:21","powerComm":"恢复送电","subsNo":"","lineNo":"","tgNo":"","tgName":null,"infoStatus":"1","orgName":"国网涿州市供电公司","typeName":null,"infoStatusName":null,"dateDay":null,"orgNos":null,"nowTime":null,"countyName":null,"streetName":null,"villageName":null,"roadName":null,"communityName":null,"tranName":null,"sdLineName":null,"cityCode":"1340626","cityName":"国网涿州市供电公司","provinceCode":null,"stopTime":"2019-11-08 18:00:00","powerType":"全部","powerOffArea":"【单台区停电】停沿鲁新增柱变","powerOffReason":"【停电原因】由于更换导线导致１１０ＫＶ刁窝变电站１０ＫＶ沿鲁５３２线路沿鲁新增公变台区停电 【变更送电】无 【发布渠道】涿州电视台（１０月２９日至１１月０７日２１：００播放２次）屏幕上方滚动","powerOffId":"2019102913000042"},{"poweroffId":2019102913000039,"sgpoweroffId":null,"subsName":"","lineName":"汇通线534","pubTranName":"苏家务03号变压器,苏家务05号变压器,东盛办事处柳家屯变压器,东盛李家营变压器,东盛柳屯北变压器,苏家务04号变压器,东盛李家营北变压器,东盛温屯南地变压器,东盛高镇北变压器,东盛高镇东变压器,东盛龙赵庄东1变压器,东盛高镇西变压器,东盛柳屯西北变压器,东盛柳屯南变压器,d李家营东台,东盛柳屯西变压器,东盛柳屯新架,苏家务02号变压器,高镇中变,东盛罗家营公变,东盛龙赵庄地变压器【纯农排变】,苏家务01号变压器,东盛高镇新变压器,高镇新2变,东盛柳屯西地变压器,东盛温屯东地变压器,","scope":"【影响街道/乡镇】东盛办事处 【高危重要客户】无 【影响客户】李家营村、高镇村、苏家务村、中路安公司、蔬菜种子公司、世纪小学、建设局、殡仪管理所、众营物业","startTime":"2019-11-07 08:00:00","stopDate":"2019-11-07 14:00:00","orgNo":"1340612","typeCode":"计划停电","poweroffArea":"【全线路停电】停杨景坤,蔬菜种子公司,河北中格尚木木业有限公司,东盛李家营变压器,汇通图腾国际物流有限公司,东盛柳屯北变压器,高碑店市城市管理综合行政执法局,高碑店市建设局变压器,定兴县宏升建材销售部变压器,0387451512-河北英泰环境工程有限公司-专变-219725347-河北英泰环境工程有限公司534线路变压器,苏家务04号变压器,0387451512-河北英泰环境工程有限公司-专变-219725350-河北英泰环境工程有限公司534线路2号变压器,东盛李家营北变压器,东盛温屯南地变压器,天阔临变南,东盛龙赵庄地变压器【纯农排变】,苏家务01号变压器,东盛高镇新变压器,高碑店市城市管理综合执法局,柳屯面粉厂,东盛高镇北变压器,汇通路桥桥梁公司,东盛高镇东变压器,河北鑫宏源印刷包装有限责任公司,东盛苏家务地变压器【纯农排变】,赵少强,东盛兴发变压器,河北省高碑店市殡葬管理所,高碑店市华强机械制造有限公司变压器,东盛柳屯西变压器,0387437518-河北雄领炉料制造有限公司-专变-45274571-义青工业辅料厂,东盛柳屯新架,高碑店市佰特商贸有限公司2变压器,东盛柳屯南变压器,高碑店市震源橡胶模具加工厂变压器,高碑店市佰特商贸有限公司1变压器,高镇中变,东盛柳屯排灌变压器【纯农排变】,东盛罗家营公变,苏家务02号变压器,0550039954-高碑店市三义厚再生水建设有限公司-专变-219725323-高碑店市三义厚再生水建设有限公司1变压器,高镇新2变,高碑店市中玻玻璃有限公司变压器,东盛柳屯西地变压器,东盛温屯东地变压器,苏家务03号变压器,苏家务05号变压器,东盛高镇西变压器,东盛柳屯西北变压器,河北中路安交通科技有限公司,东盛办事处柳家屯变压器,姬金华,东盛龙赵庄东1变压器,河北鑫宏源印刷包装有限责任公司800,0550039954-高碑店市三义厚再生水建设有限公司-专变-219725336-高碑店市三义厚再生水建设有限公司2变压器,d李家营东台","poweroffReason":"【停电原因】由于更换断路器导致１１０ＫＶ马庄变电站１０ＫＶ汇通５３４线路全线停电 【变更送电】无 【发布渠道】高碑店市高碑店电视台（１０月３０日０８时至１１月０６日１８时之间）屏幕上方滚动","powerTime":"2019-11-07 13:10:47","powerComm":"已送电","subsNo":"","lineNo":"","tgNo":"","tgName":null,"infoStatus":"1","orgName":"国网高碑店市供电公司","typeName":null,"infoStatusName":null,"dateDay":null,"orgNos":null,"nowTime":null,"countyName":null,"streetName":null,"villageName":null,"roadName":null,"communityName":null,"tranName":null,"sdLineName":null,"cityCode":"1340612","cityName":"国网高碑店市供电公司","provinceCode":null,"stopTime":"2019-11-07 14:00:00","powerType":"全部","powerOffArea":"【全线路停电】停杨景坤,蔬菜种子公司,河北中格尚木木业有限公司,东盛李家营变压器,汇通图腾国际物流有限公司,东盛柳屯北变压器,高碑店市城市管理综合行政执法局,高碑店市建设局变压器,定兴县宏升建材销售部变压器,0387451512-河北英泰环境工程有限公司-专变-219725347-河北英泰环境工程有限公司534线路变压器,苏家务04号变压器,0387451512-河北英泰环境工程有限公司-专变-219725350-河北英泰环境工程有限公司534线路2号变压器,东盛李家营北变压器,东盛温屯南地变压器,天阔临变南,东盛龙赵庄地变压器【纯农排变】,苏家务01号变压器,东盛高镇新变压器,高碑店市城市管理综合执法局,柳屯面粉厂,东盛高镇北变压器,汇通路桥桥梁公司,东盛高镇东变压器,河北鑫宏源印刷包装有限责任公司,东盛苏家务地变压器【纯农排变】,赵少强,东盛兴发变压器,河北省高碑店市殡葬管理所,高碑店市华强机械制造有限公司变压器,东盛柳屯西变压器,0387437518-河北雄领炉料制造有限公司-专变-45274571-义青工业辅料厂,东盛柳屯新架,高碑店市佰特商贸有限公司2变压器,东盛柳屯南变压器,高碑店市震源橡胶模具加工厂变压器,高碑店市佰特商贸有限公司1变压器,高镇中变,东盛柳屯排灌变压器【纯农排变】,东盛罗家营公变,苏家务02号变压器,0550039954-高碑店市三义厚再生水建设有限公司-专变-219725323-高碑店市三义厚再生水建设有限公司1变压器,高镇新2变,高碑店市中玻玻璃有限公司变压器,东盛柳屯西地变压器,东盛温屯东地变压器,苏家务03号变压器,苏家务05号变压器,东盛高镇西变压器,东盛柳屯西北变压器,河北中路安交通科技有限公司,东盛办事处柳家屯变压器,姬金华,东盛龙赵庄东1变压器,河北鑫宏源印刷包装有限责任公司800,0550039954-高碑店市三义厚再生水建设有限公司-专变-219725336-高碑店市三义厚再生水建设有限公司2变压器,d李家营东台","powerOffReason":"【停电原因】由于更换断路器导致１１０ＫＶ马庄变电站１０ＫＶ汇通５３４线路全线停电 【变更送电】无 【发布渠道】高碑店市高碑店电视台（１０月３０日０８时至１１月０６日１８时之间）屏幕上方滚动","powerOffId":"2019102913000039"},{"poweroffId":2019102913000034,"sgpoweroffId":null,"subsName":"","lineName":"阳元街518","pubTranName":"路家庄村1#,南环小区2#,南关村1#,阳元街直供1#,阳元南街2#,友谊路2#,城关医院直供,路家庄5#,阳元南街直供1#,阳元街直供3#,南环路3#,平安家园1,鑫苑小区,阳元街直供2#,南环小区直供1#,","scope":"【影响街道/乡镇】城管处、友谊路、阳元北大街、易兴路、西环路、朝阳路、南环路【高危重要客户】无【影响客户】路家庄村、金色家园小区、平安家园小区、南环小区、鑫苑小区","startTime":"2019-10-29 08:55:22","stopDate":"2019-10-29 13:30:00","orgNo":"1340625","typeCode":"电网故障停限电","poweroffArea":"【全线路停电】停城关医院直供,鑫苑小区,阳元南街2#,阳元街直供2#,平安家园1,路家庄5#,南关村1#,南环路3#,南环小区直供1#,南环小区2#,阳元南街直供1#,友谊路2#,路家庄村1#,阳元街直供3#,阳元街直供1#","poweroffReason":"【停电原因】由于速断跳闸导致３５ＫＶ易水变电站阳元街５１８线路全线停电【变更送电】因抢修进度加快原因，送电时间由１８：００变更为１３：３０【发布渠道】通过９５５９８发布","powerTime":"2019-10-29 13:05:57","powerComm":"已送电","subsNo":"","lineNo":"","tgNo":"","tgName":null,"infoStatus":"1","orgName":"国网易县供电公司","typeName":null,"infoStatusName":null,"dateDay":null,"orgNos":null,"nowTime":null,"countyName":null,"streetName":null,"villageName":null,"roadName":null,"communityName":null,"tranName":null,"sdLineName":null,"cityCode":"1340625","cityName":"国网易县供电公司","provinceCode":null,"stopTime":"2019-10-29 13:30:00","powerType":"全部","powerOffArea":"【全线路停电】停城关医院直供,鑫苑小区,阳元南街2#,阳元街直供2#,平安家园1,路家庄5#,南关村1#,南环路3#,南环小区直供1#,南环小区2#,阳元南街直供1#,友谊路2#,路家庄村1#,阳元街直供3#,阳元街直供1#","powerOffReason":"【停电原因】由于速断跳闸导致３５ＫＶ易水变电站阳元街５１８线路全线停电【变更送电】因抢修进度加快原因，送电时间由１８：００变更为１３：３０【发布渠道】通过９５５９８发布","powerOffId":"2019102913000034"},{"poweroffId":2019102913000030,"sgpoweroffId":null,"subsName":"","lineName":"和家庄519线","pubTranName":"北关1365变压器,于家寨4881变压器,和家庄西1005变压器,石堂村1004变压器,辛庄村5262变压器,","scope":"【影响街道/乡镇】军城镇【高危重要客户】无【影响客户】辛庄村、于家寨、北关、石堂、和家庄","startTime":"2019-11-09 06:30:00","stopDate":"2019-11-09 17:00:00","orgNo":"1340622","typeCode":"计划停电","poweroffArea":"【分支停电】停辛庄村5262变压器,北关1365变压器,于家寨4881变压器,和家庄西1005变压器,石堂村1004变压器","poweroffReason":"【停电原因】由于更换电杆导致１１０ＫＶ军城变电站和家庄５１９线路０２４号断路器以下线路停电【变更送电】因工作进度加快原因，送电时间由１８：００变更为１７：００【发布渠道】保定市唐县电视台（１０月３０日至１１月０８日的２０：００时至２０：３０时之间）","powerTime":"2019-11-09 16:01:06","powerComm":"已送电","subsNo":"","lineNo":"","tgNo":"","tgName":null,"infoStatus":"1","orgName":"国网唐县供电公司","typeName":null,"infoStatusName":null,"dateDay":null,"orgNos":null,"nowTime":null,"countyName":null,"streetName":null,"villageName":null,"roadName":null,"communityName":null,"tranName":null,"sdLineName":null,"cityCode":"1340622","cityName":"国网唐县供电公司","provinceCode":null,"stopTime":"2019-11-09 17:00:00","powerType":"全部","powerOffArea":"【分支停电】停辛庄村5262变压器,北关1365变压器,于家寨4881变压器,和家庄西1005变压器,石堂村1004变压器","powerOffReason":"【停电原因】由于更换电杆导致１１０ＫＶ军城变电站和家庄５１９线路０２４号断路器以下线路停电【变更送电】因工作进度加快原因，送电时间由１８：００变更为１７：００【发布渠道】保定市唐县电视台（１０月３０日至１１月０８日的２０：００时至２０：３０时之间）","powerOffId":"2019102913000030"},{"poweroffId":2019102913000029,"sgpoweroffId":null,"subsName":"","lineName":"商业区线538","pubTranName":"高碑店市昆仑房地产开发有限公司6,","scope":"【影响街道/乡镇】方官镇 【高危重要客户】无 【影响客户】昆仑房地产开发有限公司、河北奥润顺达窗业有限公司一期、二期、河北鼎泰华奥投资有限公司","startTime":"2019-11-07 05:00:00","stopDate":"2019-11-07 08:00:00","orgNo":"1340612","typeCode":"计划停电","poweroffArea":"【全线路停电】停河北奥润顺达窗业有限公司,河北奥润顺达创业有限公司变压器,0654043271-河北鼎泰华奥投资有限公司-专变-183661612-河北鼎泰华奥投资有限公司3#变压器,0654043271-河北鼎泰华奥投资有限公司-专变-183664054-河北鼎泰华奥投资有限公司2#变压器,河北奥润顺达窗业有限公司二期2#变压器,高碑店市昆仑房地产开发有限公司6,河北奥润顺达窗业有限公司二期1#变压器,高碑店市昆仑房地产开发有限公司5,高碑店市昆仑房地产开发有限公司2,高碑店市昆仑房地产开发有限公司4,河北奥润顺达窗业有限公司二期3#变压器,高碑店市昆仑房地产开发有限公司3,河北奥润顺达窗业有限公司1#变压器,河北奥润顺达窗业有限公司二期4#变压器,高碑店市路灯管理办公室1#变压器,0654043271-河北鼎泰华奥投资有限公司-专变-183661579-河北鼎泰华奥投资有限公司1#变压器,高碑店市昆仑房地产开发有限公司1,河北奥润顺达窗业有限公司二期5#变压器,0652546505-高碑店市路灯管理办公室-专变-197625591-高碑店市路灯管理办公室2#变压器","poweroffReason":"【停电原因】由于新增配变接引导致１１０ＫＶ方官变电站１０ＫＶ商业区５３８线路全线停电 【变更送电】无 【发布渠道】高碑店市高碑店电视台（１０月３０日０８时至１１月０６日１８时之间）屏幕上方滚动","powerTime":"2019-11-07 07:31:54","powerComm":"已送电","subsNo":"","lineNo":"","tgNo":"","tgName":null,"infoStatus":"1","orgName":"国网高碑店市供电公司","typeName":null,"infoStatusName":null,"dateDay":null,"orgNos":null,"nowTime":null,"countyName":null,"streetName":null,"villageName":null,"roadName":null,"communityName":null,"tranName":null,"sdLineName":null,"cityCode":"1340612","cityName":"国网高碑店市供电公司","provinceCode":null,"stopTime":"2019-11-07 08:00:00","powerType":"全部","powerOffArea":"【全线路停电】停河北奥润顺达窗业有限公司,河北奥润顺达创业有限公司变压器,0654043271-河北鼎泰华奥投资有限公司-专变-183661612-河北鼎泰华奥投资有限公司3#变压器,0654043271-河北鼎泰华奥投资有限公司-专变-183664054-河北鼎泰华奥投资有限公司2#变压器,河北奥润顺达窗业有限公司二期2#变压器,高碑店市昆仑房地产开发有限公司6,河北奥润顺达窗业有限公司二期1#变压器,高碑店市昆仑房地产开发有限公司5,高碑店市昆仑房地产开发有限公司2,高碑店市昆仑房地产开发有限公司4,河北奥润顺达窗业有限公司二期3#变压器,高碑店市昆仑房地产开发有限公司3,河北奥润顺达窗业有限公司1#变压器,河北奥润顺达窗业有限公司二期4#变压器,高碑店市路灯管理办公室1#变压器,0654043271-河北鼎泰华奥投资有限公司-专变-183661579-河北鼎泰华奥投资有限公司1#变压器,高碑店市昆仑房地产开发有限公司1,河北奥润顺达窗业有限公司二期5#变压器,0652546505-高碑店市路灯管理办公室-专变-197625591-高碑店市路灯管理办公室2#变压器","powerOffReason":"【停电原因】由于新增配变接引导致１１０ＫＶ方官变电站１０ＫＶ商业区５３８线路全线停电 【变更送电】无 【发布渠道】高碑店市高碑店电视台（１０月３０日０８时至１１月０６日１８时之间）屏幕上方滚动","powerOffId":"2019102913000029"},{"poweroffId":2019102913000027,"sgpoweroffId":null,"subsName":"","lineName":"513丰源庄线","pubTranName":"罗营村0829,","scope":"【影响街道/乡镇】义和庄乡 【高危重要客户】无 【影响客户】罗营村","startTime":"2019-11-08 08:00:00","stopDate":"2019-11-08 18:00:00","orgNo":"1340626","typeCode":"计划停电","poweroffArea":"【单台区停电】停罗营村0829","poweroffReason":"【停电原因】由于更换导线导致３５ＫＶ码头变电站５１３丰源庄线路罗营村０８２９公变台区停电 【变更送电】无 【发布渠道】涿州电视台（１０月２９日至１１月０７日２１：００播放２次）屏幕上方滚动","powerTime":"2019-11-08 17:25:38","powerComm":"恢复送电","subsNo":"","lineNo":"","tgNo":"","tgName":null,"infoStatus":"1","orgName":"国网涿州市供电公司","typeName":null,"infoStatusName":null,"dateDay":null,"orgNos":null,"nowTime":null,"countyName":null,"streetName":null,"villageName":null,"roadName":null,"communityName":null,"tranName":null,"sdLineName":null,"cityCode":"1340626","cityName":"国网涿州市供电公司","provinceCode":null,"stopTime":"2019-11-08 18:00:00","powerType":"全部","powerOffArea":"【单台区停电】停罗营村0829","powerOffReason":"【停电原因】由于更换导线导致３５ＫＶ码头变电站５１３丰源庄线路罗营村０８２９公变台区停电 【变更送电】无 【发布渠道】涿州电视台（１０月２９日至１１月０７日２１：００播放２次）屏幕上方滚动","powerOffId":"2019102913000027"},{"poweroffId":2019102913000025,"sgpoweroffId":null,"subsName":"","lineName":"平景线555","pubTranName":"赵马营东变压器,平辛庄东变压器【纯农排变】,内渠北变压器,客户投资_久宁北变压器,客户投资_久宁南变压器,北平景4号农变压器,南平景西变压器,许家营东1柱上变压器,铺头东农2号变压器,赵马营5号农变压器【纯农排变】,双铺头新增排灌变压器【纯农排变】,内渠南2变压器,内渠东变压器,","scope":"【影响街道/乡镇】辛立庄镇 【高危重要客户】无 【影响客户】刘家店、久宁、罗家营、东沿村、西沿村、孟良营、许家营、赵马营、南平景、北平景、双铺头、王佐营、高碑店市辛立庄兆华工艺画展部、高碑店市永诺诚建筑机械租赁有限公司、高碑店市辛立庄泰富新型材料厂、高碑店市兴东生猪购物农民专业合作社、高碑店市澳通养殖场、高碑店市泽森生猪销售专业合作社、高碑店市浩腾隆业新型建材有限公司、耿增福、刘金山、梁华、高碑店市辛立庄汇群养殖场、马兆军、东沿村面粉厂、于红、高碑店市天启新型建材制造有限公司、高碑店市辛立庄镇东沿村中心小学、高碑店市辛立庄镇总校北平景中心小学、高碑店市富瑞克燃气有限公司、高碑店市乐田生态农庄有限公司、高碑店市辛立庄镇中心幼儿园、高碑店市永凝商品混凝土制造有限公司、高碑店市会青新型建筑材料有限公司、高碑店市建业仓储有限公司、高碑店市辛立庄金海浴池、苑文超","startTime":"2019-11-07 06:00:00","stopDate":"2019-11-07 20:30:00","orgNo":"1340612","typeCode":"计划停电","poweroffArea":"【全线路停电】停内渠东农变压器【纯农排变】,东孟良营新变压器,双铺头北变压器,内渠内2变压器,王佐营南农变压器【纯农排变】,客户投资_许家营东北变压器,双铺头变压器,安新型复合散热器高碑店有限公司,久宁南农变压器【纯农排变】,北平景南变压器,久宁一号农变压器【纯农排变】,内渠内变压器,东沿村南一变压器,辛立庄许家营变压器,赵马营东变压器,高碑店市永凝商品混凝土制造有限公司变压器,赵马营一号农变压器【纯农排变】,客户投资_久宁北变压器,王佐营北农变压器【纯农排变】,高碑店市天启新型建材制造有限公司315变压器,高碑店市天启新型建材制造有限公司315变压器2#,高碑店市天启新型建材制造有限公司800KVA,高碑店市辛立庄金海浴池,北平景内变压器,双铺头东农变压器【纯农排变】,高碑店市富瑞克燃气有限公司,高碑店市民惠养殖场200KVA变压器,高碑店市辛立庄镇中心幼儿园变压器,于红,高碑店市兴东生猪购物农民专业合作社变压器,张八屯面粉厂,赵马营西台变压器,平辛庄东变压器【纯农排变】,北平景西农变压器【纯农排变】,客户投资_久宁南变压器,付井荣变压器,许家营西农变压器【纯农排变】,南平景一号农变压器【纯农排变】,平辛庄南农变压器【纯农排变】,王佐营变压器,东沿村二号农变压器【纯农排变】,刘家店变压器,平辛庄东农变压器【纯农排变】,北平景4号农变压器,耿增福变压器,高碑店市辛立庄镇东沿村中心小学变压器,久宁砖厂南,东孟良营西变压器,高碑店市寰烁电子科技有限公司,南平景西变压器,小王村东农变压器【纯农排变】,陈八庄西排灌变压器【纯农排变】,变压器,铺头东农2号变压器,王佐营南变压器,辛立庄罗家营北变压器,平辛庄南台变压器,东沿村一号农变压器【纯农排变】,赵马营三号农变压器【纯农排变】,高碑店市辛立庄镇内渠中心小学,小王村西农变压器【纯农排变】,北平景2号农变压器【纯农排变】,西沿村北变压器,马兆军,赵马营5号农变压器【纯农排变】,辛立庄孟良营南变压器,双铺头新增排灌变压器【纯农排变】,高碑店市澳通养殖场变压器,北平景6号农变压器【纯农排变】,许家营东1柱上变压器,北平景3号农变压器【纯农排变】,双铺头北农变压器【纯农排变】,高碑店市民惠养殖场100KVA变压器,内渠南2变压器,高碑店市建业仓储有限公司变压器,双铺头南农变压器【纯农排变】,东沿村面粉厂,冯号龙,平辛庄内变压器,陈八庄一号农变压器【纯农排变】,高碑店市会青新型建筑材料有限公司,平辛庄东2变压器,高碑店市辛立庄镇总校北平景中心小学,0679889672-高碑店市乐田生态农庄有限公司-专变-219650893-高碑店市乐田生态农庄有限公司变压器,北平景磁卡农变压器【纯农排变】,高碑店市辛立庄泰富新型材料厂,赵马营南台变压器,东沿村东变压器,许家营南农变压器【纯农排变】,南平景变压器,许家营东农变压器【纯农排变】,双铺头西农变压器【纯农排变】,久宁二号农排变压器【纯农排变】,许家营北农变压器【纯农排变】,北平景5号农变压器【纯农排变】,内渠北变压器,北京市绿海食品有限公司高碑店市分公司,高碑店市会青新型建筑材料有限公司2,东沿村南变压器,小王村变压器,客户投资_辛立庄罗家营变压器,高碑店市辛立庄兆华工艺画展部,内渠东变压器,高碑店市欣泰建筑工程有限责任公司,内渠西农变压器,小王村西变压器,0666332721-刘建红-专变-204479261-刘建红变压器,罗家营农排变压器,西沿村东变压器,许家营北变压器,高碑店市泽森生猪销售专业合作","poweroffReason":"【停电原因】由于立杆换线导致１１０ＫＶ陈八庄变电站１０ＫＶ平景５５５线路全线停电 【变更送电】因工作量大原因，送电时间由１９：００变更为２０：３０ 【发布渠道】高碑店市高碑店电视台（１０月３０日０８时至１１月０６日１８时之间）屏幕上方滚动","powerTime":"2019-11-07 20:13:24","powerComm":"已送电","subsNo":"","lineNo":"","tgNo":"","tgName":null,"infoStatus":"1","orgName":"国网高碑店市供电公司","typeName":null,"infoStatusName":null,"dateDay":null,"orgNos":null,"nowTime":null,"countyName":null,"streetName":null,"villageName":null,"roadName":null,"communityName":null,"tranName":null,"sdLineName":null,"cityCode":"1340612","cityName":"国网高碑店市供电公司","provinceCode":null,"stopTime":"2019-11-07 20:30:00","powerType":"全部","powerOffArea":"【全线路停电】停内渠东农变压器【纯农排变】,东孟良营新变压器,双铺头北变压器,内渠内2变压器,王佐营南农变压器【纯农排变】,客户投资_许家营东北变压器,双铺头变压器,安新型复合散热器高碑店有限公司,久宁南农变压器【纯农排变】,北平景南变压器,久宁一号农变压器【纯农排变】,内渠内变压器,东沿村南一变压器,辛立庄许家营变压器,赵马营东变压器,高碑店市永凝商品混凝土制造有限公司变压器,赵马营一号农变压器【纯农排变】,客户投资_久宁北变压器,王佐营北农变压器【纯农排变】,高碑店市天启新型建材制造有限公司315变压器,高碑店市天启新型建材制造有限公司315变压器2#,高碑店市天启新型建材制造有限公司800KVA,高碑店市辛立庄金海浴池,北平景内变压器,双铺头东农变压器【纯农排变】,高碑店市富瑞克燃气有限公司,高碑店市民惠养殖场200KVA变压器,高碑店市辛立庄镇中心幼儿园变压器,于红,高碑店市兴东生猪购物农民专业合作社变压器,张八屯面粉厂,赵马营西台变压器,平辛庄东变压器【纯农排变】,北平景西农变压器【纯农排变】,客户投资_久宁南变压器,付井荣变压器,许家营西农变压器【纯农排变】,南平景一号农变压器【纯农排变】,平辛庄南农变压器【纯农排变】,王佐营变压器,东沿村二号农变压器【纯农排变】,刘家店变压器,平辛庄东农变压器【纯农排变】,北平景4号农变压器,耿增福变压器,高碑店市辛立庄镇东沿村中心小学变压器,久宁砖厂南,东孟良营西变压器,高碑店市寰烁电子科技有限公司,南平景西变压器,小王村东农变压器【纯农排变】,陈八庄西排灌变压器【纯农排变】,变压器,铺头东农2号变压器,王佐营南变压器,辛立庄罗家营北变压器,平辛庄南台变压器,东沿村一号农变压器【纯农排变】,赵马营三号农变压器【纯农排变】,高碑店市辛立庄镇内渠中心小学,小王村西农变压器【纯农排变】,北平景2号农变压器【纯农排变】,西沿村北变压器,马兆军,赵马营5号农变压器【纯农排变】,辛立庄孟良营南变压器,双铺头新增排灌变压器【纯农排变】,高碑店市澳通养殖场变压器,北平景6号农变压器【纯农排变】,许家营东1柱上变压器,北平景3号农变压器【纯农排变】,双铺头北农变压器【纯农排变】,高碑店市民惠养殖场100KVA变压器,内渠南2变压器,高碑店市建业仓储有限公司变压器,双铺头南农变压器【纯农排变】,东沿村面粉厂,冯号龙,平辛庄内变压器,陈八庄一号农变压器【纯农排变】,高碑店市会青新型建筑材料有限公司,平辛庄东2变压器,高碑店市辛立庄镇总校北平景中心小学,0679889672-高碑店市乐田生态农庄有限公司-专变-219650893-高碑店市乐田生态农庄有限公司变压器,北平景磁卡农变压器【纯农排变】,高碑店市辛立庄泰富新型材料厂,赵马营南台变压器,东沿村东变压器,许家营南农变压器【纯农排变】,南平景变压器,许家营东农变压器【纯农排变】,双铺头西农变压器【纯农排变】,久宁二号农排变压器【纯农排变】,许家营北农变压器【纯农排变】,北平景5号农变压器【纯农排变】,内渠北变压器,北京市绿海食品有限公司高碑店市分公司,高碑店市会青新型建筑材料有限公司2,东沿村南变压器,小王村变压器,客户投资_辛立庄罗家营变压器,高碑店市辛立庄兆华工艺画展部,内渠东变压器,高碑店市欣泰建筑工程有限责任公司,内渠西农变压器,小王村西变压器,0666332721-刘建红-专变-204479261-刘建红变压器,罗家营农排变压器,西沿村东变压器,许家营北变压器,高碑店市泽森生猪销售专业合作","powerOffReason":"【停电原因】由于立杆换线导致１１０ＫＶ陈八庄变电站１０ＫＶ平景５５５线路全线停电 【变更送电】因工作量大原因，送电时间由１９：００变更为２０：３０ 【发布渠道】高碑店市高碑店电视台（１０月３０日０８时至１１月０６日１８时之间）屏幕上方滚动","powerOffId":"2019102913000025"}],"pageModel":{"pageNow":431,"totalCount":10973,"totalPage":1098,"tableRows":0,"pageCount":10,"beginCount":4300},"isExperi":"1"}