{"message":"","today":"2020-06-15","seleList":[{"poweroffId":2019102813000391,"sgpoweroffId":null,"subsName":"","lineName":"10KV茂林庄531","pubTranName":"大全庄东内2770,","scope":"【影响街道/乡镇】百尺竿乡 【高危重要客户】无 【影响客户】大全庄村","startTime":"2019-10-28 15:42:49","stopDate":"2019-10-28 20:30:00","orgNo":"1340626","typeCode":"电网故障停限电","poweroffArea":"【单台区停电】停大全庄东内2770","poweroffReason":"【停电原因】由于低压空开烧毁导致１１０ＫＶ宋营变电站１０ＫＶ茂林庄５３１线路大全庄东内２７７０公变台区停电 【变更送电】因抢修进度加快原因，送电时间由２３：００变更为２０：３０ 【发布渠道】通过９５５９８发布","powerTime":"2019-10-28 20:04:05","powerComm":"恢复送电","subsNo":"","lineNo":"","tgNo":"","tgName":null,"infoStatus":"1","orgName":"国网涿州市供电公司","typeName":null,"infoStatusName":null,"dateDay":null,"orgNos":null,"nowTime":null,"countyName":null,"streetName":null,"villageName":null,"roadName":null,"communityName":null,"tranName":null,"sdLineName":null,"cityCode":"1340626","cityName":"国网涿州市供电公司","provinceCode":null,"stopTime":"2019-10-28 20:30:00","powerType":"全部","powerOffArea":"【单台区停电】停大全庄东内2770","powerOffReason":"【停电原因】由于低压空开烧毁导致１１０ＫＶ宋营变电站１０ＫＶ茂林庄５３１线路大全庄东内２７７０公变台区停电 【变更送电】因抢修进度加快原因，送电时间由２３：００变更为２０：３０ 【发布渠道】通过９５５９８发布","powerOffId":"2019102813000391"},{"poweroffId":2019102813000385,"sgpoweroffId":null,"subsName":"","lineName":"10kV七里铺540线","pubTranName":"七里铺村内2配变,七里铺内中2配变,七里铺内西2号,七里铺内东1,7里铺最西,七里铺村内西,七里铺村内1,七里铺内西3配变,七里铺内中1,七里铺内西4配变,七里铺内东2配变,","scope":"【影响街道/乡镇】固店镇 【高危重要客户】无　　 【影响客户】七里铺","startTime":"2019-10-28 15:33:59","stopDate":"2019-10-28 17:40:00","orgNo":"1340623","typeCode":"电网故障停限电","poweroffArea":"【全线路停电】停七里铺村内2配变,七里铺内中2配变,七里铺内西2号,七里铺内东1,7里铺最西,七里铺村内西,七里铺村内1,七里铺内西3配变,七里铺内中1,七里铺内西4配变,七里铺内东2配变","poweroffReason":"【停电原因】由于腾源搅拌站配变烧坏导致２２０ＫＶ固店变电站１０ＫＶ七里铺５４０线路全线路停电 【变更送电】因抢修进度加快原因，送电时间由２３：３０变更为１７：４０ 【发布渠道】通过９５５９８发布","powerTime":"2019-10-28 17:16:22","powerComm":"已送电","subsNo":"","lineNo":"","tgNo":"","tgName":null,"infoStatus":"1","orgName":"国网望都县供电公司","typeName":null,"infoStatusName":null,"dateDay":null,"orgNos":null,"nowTime":null,"countyName":null,"streetName":null,"villageName":null,"roadName":null,"communityName":null,"tranName":null,"sdLineName":null,"cityCode":"1340623","cityName":"国网望都县供电公司","provinceCode":null,"stopTime":"2019-10-28 17:40:00","powerType":"全部","powerOffArea":"【全线路停电】停七里铺村内2配变,七里铺内中2配变,七里铺内西2号,七里铺内东1,7里铺最西,七里铺村内西,七里铺村内1,七里铺内西3配变,七里铺内中1,七里铺内西4配变,七里铺内东2配变","powerOffReason":"【停电原因】由于腾源搅拌站配变烧坏导致２２０ＫＶ固店变电站１０ＫＶ七里铺５４０线路全线路停电 【变更送电】因抢修进度加快原因，送电时间由２３：３０变更为１７：４０ 【发布渠道】通过９５５９８发布","powerOffId":"2019102813000385"},{"poweroffId":2019102813000367,"sgpoweroffId":null,"subsName":"","lineName":"10kV526后兴线","pubTranName":"田台占元混用-23002240|23002240,田家台-23003640|23003640,西后兴村北新增综合8474,南巷北新增综合0433,田家台混用2270|23002270,南巷北村西新增综合5000,田家台村东新增综合8477,西后兴东-23002670|23002670,东后兴-23002710|23002710,西后兴村东北新增综合2407,西后兴南-23002700|23002700,西后兴村南新增综合2406,田家台村西综合1386,田家台村内-23002210|23002210,北巷北村-23002380|23002380,南巷北-23002460|23002460,西后兴北-23002030|23002030,田台李兴混用-23003130|23003130,北巷北-23003990|23003990,张立军综合2470,东后兴村新增综合8953,北巷北村内新增综合5002,北巷北村北综合8172,西后兴西-23002690|23002690,西后兴村西新增综合8959,","scope":"【影响街道/乡镇】腰山镇【高危重要客户】无【影响客户】西后兴、东后兴、南巷北、北巷北、田家台","startTime":"2019-11-13 06:30:00","stopDate":"2019-11-13 18:40:00","orgNo":"1340621","typeCode":"计划停电","poweroffArea":"【全线路停电】停南巷北新增综合0433,北巷北-23003990|23003990,张立军综合2470,东后兴村新增综合8953,北巷北村内新增综合5002,北巷北村北综合8172,西后兴西-23002690|23002690,西后兴村西新增综合8959,田台占元混用-23002240|23002240,田家台-23003640|23003640,西后兴村北新增综合8474,田家台混用2270|23002270,南巷北村西新增综合5000,田家台村东新增综合8477,西后兴东-23002670|23002670,东后兴-23002710|23002710,西后兴村东北新增综合2407,西后兴南-23002700|23002700,西后兴村南新增综合2406,田家台村西综合1386,田家台村内-23002210|23002210,北巷北村-23002380|23002380,南巷北-23002460|23002460,西后兴北-23002030|23002030,田台李兴混用-23003130|23003130","poweroffReason":"【停电原因】由于保护更换、改定值导３５ＫＶ腰山变电站１０ＫＶ５２６后兴线路全线停电【变更送电】因计划工作进度加快原因，送电时间由１９：３０变更为１８：４０【发布渠道】保定市顺平县电视台（１０月２９日至１１月１２日２０时至２１时之间）屏幕上方滚动字幕","powerTime":"2019-11-13 18:18:03","powerComm":"已送电","subsNo":"","lineNo":"","tgNo":"","tgName":null,"infoStatus":"1","orgName":"国网顺平县电力局","typeName":null,"infoStatusName":null,"dateDay":null,"orgNos":null,"nowTime":null,"countyName":null,"streetName":null,"villageName":null,"roadName":null,"communityName":null,"tranName":null,"sdLineName":null,"cityCode":"1340621","cityName":"国网顺平县电力局","provinceCode":null,"stopTime":"2019-11-13 18:40:00","powerType":"全部","powerOffArea":"【全线路停电】停南巷北新增综合0433,北巷北-23003990|23003990,张立军综合2470,东后兴村新增综合8953,北巷北村内新增综合5002,北巷北村北综合8172,西后兴西-23002690|23002690,西后兴村西新增综合8959,田台占元混用-23002240|23002240,田家台-23003640|23003640,西后兴村北新增综合8474,田家台混用2270|23002270,南巷北村西新增综合5000,田家台村东新增综合8477,西后兴东-23002670|23002670,东后兴-23002710|23002710,西后兴村东北新增综合2407,西后兴南-23002700|23002700,西后兴村南新增综合2406,田家台村西综合1386,田家台村内-23002210|23002210,北巷北村-23002380|23002380,南巷北-23002460|23002460,西后兴北-23002030|23002030,田台李兴混用-23003130|23003130","powerOffReason":"【停电原因】由于保护更换、改定值导３５ＫＶ腰山变电站１０ＫＶ５２６后兴线路全线停电【变更送电】因计划工作进度加快原因，送电时间由１９：３０变更为１８：４０【发布渠道】保定市顺平县电视台（１０月２９日至１１月１２日２０时至２１时之间）屏幕上方滚动字幕","powerOffId":"2019102813000367"},{"poweroffId":2019102813000365,"sgpoweroffId":null,"subsName":"","lineName":"10kV522桑园线","pubTranName":"北吴村综合5号9973,何家营-23003740|23003740,石家庄综合5号2916,马家台综合3号2915,辛庄村新增综合13号,石家庄东-23000010|23000010,北吴村-23003950|23003950,西腰山-23000500|23000500,南吴村北-23000910|23000910,北吴村新增综合7号0326,北腰山综合5号8994,马家台-23003940|23003940,北腰山新增综合3号2389,辛庄新增综合11号2392,石家庄-23000780|23000780,桑园新增综合4号2386,石家庄综合4号2424,桑园-23000170|23000170,北腰山-23003970|23003970,石家庄南-23003390|23003390,北吴村内-23000930|23000930,马家台-23000660|23000660,西腰山新增综合3号,北吴村新增综合8号2384,北吴村东-23000110|23000110,桑园-23003960|23003960,何家营综合0005,辛庄综合6号0411,桑园综合3号7866,西腰山综合2号8556,辛庄村东-23000620|23000620,何家营综合4号2423,北腰山-23000510|23000510,北腰山新增综合4号2831,","scope":"【影响街道/乡镇】腰山镇、蒲上乡【高危重要客户】无【影响客户】何家营、石家庄、北吴村、桑园、辛庄、马家台、南吴村北、西腰山、北腰山","startTime":"2019-11-14 06:30:00","stopDate":"2019-11-14 14:30:00","orgNo":"1340621","typeCode":"计划停电","poweroffArea":"【全线路停电】停马家台-23003940|23003940,马家台山后北井|23004030【纯农排变】,北腰山新增综合3号2389,辛庄新增综合11号2392,石家庄-23000780|23000780,桑园新增综合4号2386,石家庄综合4号2424,桑园-23000170|23000170,北腰山-23003970|23003970,北腰山综合5号8994,北吴村综合5号9973,何家营-23003740|23003740,石家庄综合5号2916,马家台综合3号2915,辛庄村新增综合13号,石家庄东-23000010|23000010,北吴村-23003950|23003950,西腰山-23000500|23000500,南吴村北-23000910|23000910,北吴村新增综合7号0326,北腰山新增综合4号2831,石家庄南-23003390|23003390,北吴村内-23000930|23000930,马家台-23000660|23000660,西腰山新增综合3号,桑园土地整改新增农业1号（TD）4381【纯农排变】,变压器10,北吴村新增综合8号2384,北吴村东-23000110|23000110,桑园-23003960|23003960,何家营综合0005,辛庄综合6号0411,桑园综合3号7866,西腰山综合2号8556,辛庄村东-23000620|23000620,何家营综合4号2423,北腰山-23000510|23000510","poweroffReason":"【停电原因】由于保护更换、改定值导致３５ＫＶ腰山变电站１０ＫＶ５２２桑园线路全线停电【变更送电】因计划工作进度加快原因，送电时间由１９：３０变更为１４：３０【发布渠道】保定市顺平县电视台（１０月２９日至１１月１３日２０时至２１时之间）屏幕上方滚动字幕","powerTime":"2019-11-14 13:51:55","powerComm":"已送电","subsNo":"","lineNo":"","tgNo":"","tgName":null,"infoStatus":"1","orgName":"国网顺平县电力局","typeName":null,"infoStatusName":null,"dateDay":null,"orgNos":null,"nowTime":null,"countyName":null,"streetName":null,"villageName":null,"roadName":null,"communityName":null,"tranName":null,"sdLineName":null,"cityCode":"1340621","cityName":"国网顺平县电力局","provinceCode":null,"stopTime":"2019-11-14 14:30:00","powerType":"全部","powerOffArea":"【全线路停电】停马家台-23003940|23003940,马家台山后北井|23004030【纯农排变】,北腰山新增综合3号2389,辛庄新增综合11号2392,石家庄-23000780|23000780,桑园新增综合4号2386,石家庄综合4号2424,桑园-23000170|23000170,北腰山-23003970|23003970,北腰山综合5号8994,北吴村综合5号9973,何家营-23003740|23003740,石家庄综合5号2916,马家台综合3号2915,辛庄村新增综合13号,石家庄东-23000010|23000010,北吴村-23003950|23003950,西腰山-23000500|23000500,南吴村北-23000910|23000910,北吴村新增综合7号0326,北腰山新增综合4号2831,石家庄南-23003390|23003390,北吴村内-23000930|23000930,马家台-23000660|23000660,西腰山新增综合3号,桑园土地整改新增农业1号（TD）4381【纯农排变】,变压器10,北吴村新增综合8号2384,北吴村东-23000110|23000110,桑园-23003960|23003960,何家营综合0005,辛庄综合6号0411,桑园综合3号7866,西腰山综合2号8556,辛庄村东-23000620|23000620,何家营综合4号2423,北腰山-23000510|23000510","powerOffReason":"【停电原因】由于保护更换、改定值导致３５ＫＶ腰山变电站１０ＫＶ５２２桑园线路全线停电【变更送电】因计划工作进度加快原因，送电时间由１９：３０变更为１４：３０【发布渠道】保定市顺平县电视台（１０月２９日至１１月１３日２０时至２１时之间）屏幕上方滚动字幕","powerOffId":"2019102813000365"},{"poweroffId":2019102813000359,"sgpoweroffId":null,"subsName":"","lineName":"古洞511线","pubTranName":"东迷城6150变压器,荣起石英粉厂1670,宏达石英粉厂1139（安达二厂）,唐县迷城乡古洞村民委员会10KV配变7772,下庄4275变压器,唐县首钢石灰石矿有限公司ZR7192,鑫鑫石英粉厂2321,古洞石英粉厂1542,唐县乾诚矿产品加工厂增容6601,唐县燚岩建材加工有限公司计量点6964,唐县海丰矿业有限公司计量点,古洞村2982变压器,下庄小学6897变压器【煤改电】,社章耐火厂1528,古洞6025变压器,西迷城钙石加工厂2061,唐县顺发石英粉厂,唐县首钢石灰石矿有限公司XZ7334,下庄7025变压器【光伏】,古洞小学6894变压器【煤改电】,唐县首钢石灰石矿有限公司增容7083,唐县首钢石灰石矿有限公司3361,下庄5030变压器,唐县迷城乡古洞村10KV配变7383,古洞7021变压器【光伏】,唐县首钢石灰石矿有限公司10KV配变,马沟1544变压器,古洞村1539变压器,唐县迷城乡古洞村民委员会10KV配变7771,安达石英粉厂1715,唐县日新矿业有限公司配变,唐县迷城乡下庄村民委员会新装6913,海丰矿业有限公司250KVA,唐县德鑫矿业有限公司2661,下庄1541变压器,","scope":"【影响街道/乡镇】迷城乡【高危重要客户】无【影响客户】古洞、下庄、马沟、海丰矿业有限公司、首钢石灰石矿有限公司","startTime":"2019-11-08 06:30:00","stopDate":"2019-11-08 18:00:00","orgNo":"1340622","typeCode":"计划停电","poweroffArea":"【分支停电】停唐县首钢石灰石矿有限公司ZR7192,鑫鑫石英粉厂2321,古洞石英粉厂1542,唐县乾诚矿产品加工厂增容6601,唐县燚岩建材加工有限公司计量点6964,下庄小学6897变压器【煤改电】,社章耐火厂1528,古洞6025变压器,西迷城钙石加工厂2061,唐县顺发石英粉厂,唐县首钢石灰石矿有限公司XZ7334,下庄7025变压器【光伏】,古洞小学6894变压器【煤改电】,唐县首钢石灰石矿有限公司增容7083,唐县首钢石灰石矿有限公司3361,下庄5030变压器,唐县迷城乡古洞村10KV配变7383,古洞7021变压器【光伏】,唐县首钢石灰石矿有限公司10KV配变,马沟1544变压器,古洞村1539变压器,唐县迷城乡古洞村民委员会10KV配变7771,安达石英粉厂1715,唐县日新矿业有限公司配变,东迷城6150变压器,荣起石英粉厂1670,宏达石英粉厂1139（安达二厂）,唐县迷城乡古洞村民委员会10KV配变7772,下庄4275变压器,唐县海丰矿业有限公司计量点,古洞村2982变压器,唐县迷城乡下庄村民委员会新装6913,下庄1541变压器,海丰矿业有限公司250KVA,唐县德鑫矿业有限公司2661","poweroffReason":"【停电原因】由于更换电杆导致１１０ＫＶ军城变电站古洞５１１线路古洞分支００２号杆断路器以下线路停电【变更送电】无【发布渠道】保定市唐县电视台（１０月２８日至１１月０７日的２０：００时至２０：３０时之间）屏幕上方滚动字幕","powerTime":"2019-11-08 16:46:12","powerComm":"已送电","subsNo":"","lineNo":"","tgNo":"","tgName":null,"infoStatus":"1","orgName":"国网唐县供电公司","typeName":null,"infoStatusName":null,"dateDay":null,"orgNos":null,"nowTime":null,"countyName":null,"streetName":null,"villageName":null,"roadName":null,"communityName":null,"tranName":null,"sdLineName":null,"cityCode":"1340622","cityName":"国网唐县供电公司","provinceCode":null,"stopTime":"2019-11-08 18:00:00","powerType":"全部","powerOffArea":"【分支停电】停唐县首钢石灰石矿有限公司ZR7192,鑫鑫石英粉厂2321,古洞石英粉厂1542,唐县乾诚矿产品加工厂增容6601,唐县燚岩建材加工有限公司计量点6964,下庄小学6897变压器【煤改电】,社章耐火厂1528,古洞6025变压器,西迷城钙石加工厂2061,唐县顺发石英粉厂,唐县首钢石灰石矿有限公司XZ7334,下庄7025变压器【光伏】,古洞小学6894变压器【煤改电】,唐县首钢石灰石矿有限公司增容7083,唐县首钢石灰石矿有限公司3361,下庄5030变压器,唐县迷城乡古洞村10KV配变7383,古洞7021变压器【光伏】,唐县首钢石灰石矿有限公司10KV配变,马沟1544变压器,古洞村1539变压器,唐县迷城乡古洞村民委员会10KV配变7771,安达石英粉厂1715,唐县日新矿业有限公司配变,东迷城6150变压器,荣起石英粉厂1670,宏达石英粉厂1139（安达二厂）,唐县迷城乡古洞村民委员会10KV配变7772,下庄4275变压器,唐县海丰矿业有限公司计量点,古洞村2982变压器,唐县迷城乡下庄村民委员会新装6913,下庄1541变压器,海丰矿业有限公司250KVA,唐县德鑫矿业有限公司2661","powerOffReason":"【停电原因】由于更换电杆导致１１０ＫＶ军城变电站古洞５１１线路古洞分支００２号杆断路器以下线路停电【变更送电】无【发布渠道】保定市唐县电视台（１０月２８日至１１月０７日的２０：００时至２０：３０时之间）屏幕上方滚动字幕","powerOffId":"2019102813000359"},{"poweroffId":2019102813000353,"sgpoweroffId":null,"subsName":"","lineName":"10kV521辛庄线","pubTranName":"南腰山综合6号0415,北安全-23000270|23000270,南安全新增综合5号1903,辛庄新增综合10号2852,东于庄综合3号2429,马家庄-23000230|23000230,辛庄综合8号0409,腰山中国移动,北安全新增综合3号1910,南腰山内-23002660|23002660,西于家庄综合3号2425,北吴村西-23000100|23000100,西于家庄村东新增综合,辛庄新增综合12号1909,东于庄-23000920|23000920,北吴村综合6号7867,山东头新增综合4号2407,山东头综合3号9975,南腰山综合5号2426,辛庄村北-23000680|23000680,西于庄-23000130,南腰山综合7号6001,北安全综合2号9888,东于村北-23000240|23000240,西于家庄综合2号4020,马家庄村东新增综合,山东头-23000140|23000140,南安全综合4号2920,山东头综合2号,辛庄新增综合9号2419,东于家庄综合4号8516,南吴村南-23000150|23000150,南腰山新村-23002300|23002300,南安全-23000210|23000210,南腰山西-23002650|23002650,辛庄综合7号2427,南安全-23003980|23003980,辛庄村西-23000050|23000050,何家营-23000020|23000020,南安全综合3号2431,南吴村综合4号2921,511西于家庄综合4号6860,何家营综合3号0413,马家庄综合2号,南吴村综合3号0831,","scope":"【影响街道/乡镇】蒲上乡、腰山镇【高危重要客户】无【影响客户】何家营、辛庄、北吴村、西于家庄、南吴村、南安全、马家庄、东于家庄、北安全、山东头、南腰山","startTime":"2019-11-14 06:30:00","stopDate":"2019-11-14 14:30:00","orgNo":"1340621","typeCode":"计划停电","poweroffArea":"【全线路停电】停南腰山综合6号0415,北安全-23000270|23000270,南安全新增综合5号1903,辛庄新增综合10号2852,东于庄综合3号2429,马家庄-23000230|23000230,辛庄综合8号0409,腰山中国移动,北安全新增综合3号1910,南腰山内-23002660|23002660,西于家庄综合3号2425,北吴村西-23000100|23000100,西于家庄村东新增综合,辛庄新增综合12号1909,东于庄-23000920|23000920,北吴村综合6号7867,山东头新增综合4号2407,山东头综合3号9975,南腰山综合5号2426,辛庄村北-23000680|23000680,西于庄-23000130,南腰山综合7号6001,北安全综合2号9888,东于村北-23000240|23000240,南安全土地整改新增农业2号（TD）2436【纯农排变】,西于家庄综合2号4020,马家庄村东新增综合,山东头-23000140|23000140,南安全综合4号2920,山东头综合2号,辛庄新增综合9号2419,腰山一中,王氏庄园,南吴村土地整改新增农业1号（TD）4382【纯农排变】,南安全土地整改新增农业1号（TD）4383【纯农排变】,顺平县腰山镇第一初级中学,北安全土地整改新增农业2号（TD）2438【纯农排变】,东于家庄综合4号8516,南吴村南-23000150|23000150,南腰山新村-23002300|23002300,南安全-23000210|23000210,南腰山西-23002650|23002650,北安全土地整改新增农业1号（TD）2437【纯农排变】,辛庄综合7号2427,南安全-23003980|23003980,辛庄村西-23000050|23000050,何家营-23000020|23000020,何家营南厂,南安全综合3号2431,南吴村综合4号2921,511西于家庄综合4号6860,何家营综合3号0413,马家庄综合2号,南吴村综合3号0831","poweroffReason":"【停电原因】由于保护更换、改定值导致３５ＫＶ腰山变电站１０ＫＶ５２１辛庄线路全线停电【变更送电】因计划工作进度加快原因，送电时间由１９：３０变更为１４：３０【发布渠道】保定市顺平县电视台（１０月２９日至１１月１３日２０时至２１时之间）屏幕上方滚动字幕","powerTime":"2019-11-14 13:52:58","powerComm":"已送电","subsNo":"","lineNo":"","tgNo":"","tgName":null,"infoStatus":"1","orgName":"国网顺平县电力局","typeName":null,"infoStatusName":null,"dateDay":null,"orgNos":null,"nowTime":null,"countyName":null,"streetName":null,"villageName":null,"roadName":null,"communityName":null,"tranName":null,"sdLineName":null,"cityCode":"1340621","cityName":"国网顺平县电力局","provinceCode":null,"stopTime":"2019-11-14 14:30:00","powerType":"全部","powerOffArea":"【全线路停电】停南腰山综合6号0415,北安全-23000270|23000270,南安全新增综合5号1903,辛庄新增综合10号2852,东于庄综合3号2429,马家庄-23000230|23000230,辛庄综合8号0409,腰山中国移动,北安全新增综合3号1910,南腰山内-23002660|23002660,西于家庄综合3号2425,北吴村西-23000100|23000100,西于家庄村东新增综合,辛庄新增综合12号1909,东于庄-23000920|23000920,北吴村综合6号7867,山东头新增综合4号2407,山东头综合3号9975,南腰山综合5号2426,辛庄村北-23000680|23000680,西于庄-23000130,南腰山综合7号6001,北安全综合2号9888,东于村北-23000240|23000240,南安全土地整改新增农业2号（TD）2436【纯农排变】,西于家庄综合2号4020,马家庄村东新增综合,山东头-23000140|23000140,南安全综合4号2920,山东头综合2号,辛庄新增综合9号2419,腰山一中,王氏庄园,南吴村土地整改新增农业1号（TD）4382【纯农排变】,南安全土地整改新增农业1号（TD）4383【纯农排变】,顺平县腰山镇第一初级中学,北安全土地整改新增农业2号（TD）2438【纯农排变】,东于家庄综合4号8516,南吴村南-23000150|23000150,南腰山新村-23002300|23002300,南安全-23000210|23000210,南腰山西-23002650|23002650,北安全土地整改新增农业1号（TD）2437【纯农排变】,辛庄综合7号2427,南安全-23003980|23003980,辛庄村西-23000050|23000050,何家营-23000020|23000020,何家营南厂,南安全综合3号2431,南吴村综合4号2921,511西于家庄综合4号6860,何家营综合3号0413,马家庄综合2号,南吴村综合3号0831","powerOffReason":"【停电原因】由于保护更换、改定值导致３５ＫＶ腰山变电站１０ＫＶ５２１辛庄线路全线停电【变更送电】因计划工作进度加快原因，送电时间由１９：３０变更为１４：３０【发布渠道】保定市顺平县电视台（１０月２９日至１１月１３日２０时至２１时之间）屏幕上方滚动字幕","powerOffId":"2019102813000353"},{"poweroffId":2019102813000351,"sgpoweroffId":null,"subsName":"","lineName":"10kV工业区东527线","pubTranName":"新增庄村东新增综合6380,南伍侯东-23001170|23001170,南伍侯-23003930|23003930,新增庄002#综合,海家庄村东新增综合7980,两分庄新增综合2417,南伍候村东新增综合2946,邵家庄北综合3855,南伍候村北新增综合3453,南伍侯内-23001950|23001950,邵家庄-23001940|23001940,两分庄-23001540|23001540,","scope":"【影响街道/乡镇】腰山镇【高危重要客户】无【影响客户】海家庄、两分庄、南伍侯、邵家庄、新增庄","startTime":"2019-11-13 06:30:00","stopDate":"2019-11-13 18:40:00","orgNo":"1340621","typeCode":"计划停电","poweroffArea":"【全线路停电】停南伍侯内-23001950|23001950,80KVA配变,变压器11,邵家庄-23001940|23001940,两分庄-23001540|23001540,新增庄村东新增综合6380,南伍侯东-23001170|23001170,南伍侯-23003930|23003930,新增庄002#综合,海家庄村东新增综合7980,两分庄新增综合2417,南伍候村东新增综合2946,邵家庄北综合3855,南伍候村北新增综合3453,银全合用,变压器13","poweroffReason":"【停电原因】由于保护更换、改定值导３５ＫＶ腰山变电站１０ＫＶ５２７工业区东线路全线停电【变更送电】因计划工作进度加快原因，送电时间由１９：３０变更为１８：４０【发布渠道】保定市顺平县电视台（１０月２９日至１１月１２日２０时至２１时之间）屏幕上方滚动字幕","powerTime":"2019-11-13 18:18:30","powerComm":"已送电","subsNo":"","lineNo":"","tgNo":"","tgName":null,"infoStatus":"1","orgName":"国网顺平县电力局","typeName":null,"infoStatusName":null,"dateDay":null,"orgNos":null,"nowTime":null,"countyName":null,"streetName":null,"villageName":null,"roadName":null,"communityName":null,"tranName":null,"sdLineName":null,"cityCode":"1340621","cityName":"国网顺平县电力局","provinceCode":null,"stopTime":"2019-11-13 18:40:00","powerType":"全部","powerOffArea":"【全线路停电】停南伍侯内-23001950|23001950,80KVA配变,变压器11,邵家庄-23001940|23001940,两分庄-23001540|23001540,新增庄村东新增综合6380,南伍侯东-23001170|23001170,南伍侯-23003930|23003930,新增庄002#综合,海家庄村东新增综合7980,两分庄新增综合2417,南伍候村东新增综合2946,邵家庄北综合3855,南伍候村北新增综合3453,银全合用,变压器13","powerOffReason":"【停电原因】由于保护更换、改定值导３５ＫＶ腰山变电站１０ＫＶ５２７工业区东线路全线停电【变更送电】因计划工作进度加快原因，送电时间由１９：３０变更为１８：４０【发布渠道】保定市顺平县电视台（１０月２９日至１１月１２日２０时至２１时之间）屏幕上方滚动字幕","powerOffId":"2019102813000351"},{"poweroffId":2019102813000344,"sgpoweroffId":null,"subsName":"","lineName":"久安II线512","pubTranName":"小白陀混合配变,","scope":"【影响街道/乡镇】中韩庄乡　 【高危重要客户】无　　 【影响客户】小白陀村","startTime":"2019-11-07 06:00:00","stopDate":"2019-11-07 18:00:00","orgNo":"1340623","typeCode":"计划停电","poweroffArea":"【全线路停电】停小白陀混合配变","poweroffReason":"【停电原因】由于做断档、安装开关导致１１０ＫＶ望都变电站久安ＩＩ线５１２线路全线停电 【变更送电】无 【发布渠道】保定市望都有线电视台（１０月２９日至１１月０６日１９时００分至２０时００分之间）屏幕上方滚动","powerTime":"2019-11-07 17:23:05","powerComm":"已送电","subsNo":"","lineNo":"","tgNo":"","tgName":null,"infoStatus":"1","orgName":"国网望都县供电公司","typeName":null,"infoStatusName":null,"dateDay":null,"orgNos":null,"nowTime":null,"countyName":null,"streetName":null,"villageName":null,"roadName":null,"communityName":null,"tranName":null,"sdLineName":null,"cityCode":"1340623","cityName":"国网望都县供电公司","provinceCode":null,"stopTime":"2019-11-07 18:00:00","powerType":"全部","powerOffArea":"【全线路停电】停小白陀混合配变","powerOffReason":"【停电原因】由于做断档、安装开关导致１１０ＫＶ望都变电站久安ＩＩ线５１２线路全线停电 【变更送电】无 【发布渠道】保定市望都有线电视台（１０月２９日至１１月０６日１９时００分至２０时００分之间）屏幕上方滚动","powerOffId":"2019102813000344"},{"poweroffId":2019102813000326,"sgpoweroffId":null,"subsName":"","lineName":"10kV523伍侯线","pubTranName":"唐行店村南新增综合5870,玉山店村西综合5868,王银全综合9472,唐行店村东综合,正童村西新增综合3369,唐行店村新增综合2394,玉山店西-23000820|23000820,正童新增综合5872,玉山店南-23001640|23001640,北伍侯村新增综合2393,唐行店新增综合3号3489,北伍侯-23001930|23001930,正童-23003920|23003920,海家庄-23001970|23001970,唐行店-23003910|23003910,新增庄村西新增综合7981,新增庄-23001250|23001250,唐行店东-23001990|23001990,正童村南-23003830|23003830,新增庄村东新增综合6380,海家庄综合新建4936,正童村东南新增综合5884,正童村西-23001060|23001060,北伍候新架5874,玉山店-23003760|23003760,正童村东-23001100|23001100,玉山店新增综合1号2211,北伍侯-23003460|23003460,唐行店村西新增综合5867,唐行店村新增综合2号5882,唐行店西-23001330|23001330,正童村西北新增综合2399,正童村村东南新增综合0943,唐行店村南综合,唐行店村新增综合1号6391,","scope":"【影响街道/乡镇】腰山镇【高危重要客户】无【影响客户】玉山店、正童、南伍侯、新增庄、唐行店、海家庄、北伍侯","startTime":"2019-11-12 06:30:00","stopDate":"2019-11-12 19:30:00","orgNo":"1340621","typeCode":"计划停电","poweroffArea":"【全线路停电】停唐行店村南新增综合5870,玉山店村西综合5868,王银全综合9472,唐行店村东综合,正童村西新增综合3369,唐行店村新增综合2394,玉山店西-23000820|23000820,正童新增综合5872,玉山店南-23001640|23001640,北伍侯村新增综合2393,唐行店新增综合3号3489,北伍侯-23001930|23001930,正童-23003920|23003920,海家庄-23001970|23001970,唐行店-23003910|23003910,新增庄村西新增综合7981,新增庄-23001250|23001250,唐行店东-23001990|23001990,正童村南-23003830|23003830,新增庄村东新增综合6380,海家庄综合新建4936,正童村东南新增综合5884,正童村西-23001060|23001060,北伍候新架5874,玉山店-23003760|23003760,正童村东-23001100|23001100,玉山店新增综合1号2211,北伍侯-23003460|23003460,唐行店村西新增综合5867,唐行店村新增综合2号5882,唐行店西-23001330|23001330,正童村西北新增综合2399,正童村村东南新增综合0943,唐行店村南综合,唐行店村新增综合1号6391","poweroffReason":"【停电原因】由于保护更换、改定值导致３５ＫＶ腰山变电站１０ＫＶ５２３伍侯线路全线停电【变更送电】无【发布渠道】保定市顺平电视台（１０月２９日至１１月１１日２０时至２１时之间）屏幕上方滚动字幕","powerTime":"2019-11-12 19:13:07","powerComm":"已送电","subsNo":"","lineNo":"","tgNo":"","tgName":null,"infoStatus":"1","orgName":"国网顺平县电力局","typeName":null,"infoStatusName":null,"dateDay":null,"orgNos":null,"nowTime":null,"countyName":null,"streetName":null,"villageName":null,"roadName":null,"communityName":null,"tranName":null,"sdLineName":null,"cityCode":"1340621","cityName":"国网顺平县电力局","provinceCode":null,"stopTime":"2019-11-12 19:30:00","powerType":"全部","powerOffArea":"【全线路停电】停唐行店村南新增综合5870,玉山店村西综合5868,王银全综合9472,唐行店村东综合,正童村西新增综合3369,唐行店村新增综合2394,玉山店西-23000820|23000820,正童新增综合5872,玉山店南-23001640|23001640,北伍侯村新增综合2393,唐行店新增综合3号3489,北伍侯-23001930|23001930,正童-23003920|23003920,海家庄-23001970|23001970,唐行店-23003910|23003910,新增庄村西新增综合7981,新增庄-23001250|23001250,唐行店东-23001990|23001990,正童村南-23003830|23003830,新增庄村东新增综合6380,海家庄综合新建4936,正童村东南新增综合5884,正童村西-23001060|23001060,北伍候新架5874,玉山店-23003760|23003760,正童村东-23001100|23001100,玉山店新增综合1号2211,北伍侯-23003460|23003460,唐行店村西新增综合5867,唐行店村新增综合2号5882,唐行店西-23001330|23001330,正童村西北新增综合2399,正童村村东南新增综合0943,唐行店村南综合,唐行店村新增综合1号6391","powerOffReason":"【停电原因】由于保护更换、改定值导致３５ＫＶ腰山变电站１０ＫＶ５２３伍侯线路全线停电【变更送电】无【发布渠道】保定市顺平电视台（１０月２９日至１１月１１日２０时至２１时之间）屏幕上方滚动字幕","powerOffId":"2019102813000326"},{"poweroffId":2019102813000310,"sgpoweroffId":null,"subsName":"","lineName":"狮后街线552","pubTranName":"河北高碑店市经济开发管理委员会100变压器,八堵墙南台变压器,高碑店市星光玻璃幕墙工程有限公司变压器,高碑店市硕恒门窗制造有限责任公司变压器,高碑店市坤达房地产开发有限公司3,高碑店市坤达房地产开发有限公司,高碑店市坤达房地产开发有限公司2,高碑店市星光玻璃幕墙工程有限公司2,河北巨能锅炉集团有限公司,高碑店市坤达房地产开发有限公司备用3,高碑店市铁岩钢板桩有限公司1,高碑店市星光玻璃幕墙工程有限公司1,龚永旗八堵墙砖厂,河北高碑店市经济开发管理委员会变压器,高碑店市昆仲伟业机械制造有限公司变压器,高碑店市坤达房地产开发有限公司4,高碑店市坤达房地产开发有限公司备用2,河北群翔采暖设备有限公司1#变压器,高碑店市坤达房地产开发有限公司备用1,河北博克力佳电器有限公司变压器,八堵墙新变压器,高碑店市高碑店鑫达模具加工部变压器,高碑店市方隆电气设备有限公司变压器,高碑店市铁岩钢板桩有限公司变压器01,高碑店市铁岩钢板桩有限公司变压器02,高碑店市铁岩钢板桩有限公司2,河北群翔采暖设备有限公司2#变压器,河北群翔采暖设备有限公司3#变压器,高碑店市铁岩钢板桩有限公司3,高碑店市坤达房地产开发有限公司备用4,高碑店市铁岩钢板桩有限公司变压器03,","scope":"【影响街道/乡镇】方官镇 【高危重要客户】气象局、隆兴搅拌站 【影响客户】八堵墙村、河北博克力佳电器有限公司、胜利化工设备有限公司、方隆电气设备有限公司、经济开发管理委员会、河北群翔采暖设备有限公司、高碑店市铁岩钢板桩有限公司、河北优品科技有限公司、高碑店鑫达模具加工部、高碑店市昆仲伟业机械制造有限公司、河北巨能锅炉集团、高碑店市星光玻璃幕墙工程有限公司、高碑店市硕恒门窗制造有限责任公司、坤达房地产","startTime":"2019-10-28 15:30:00","stopDate":"2019-10-28 17:00:00","orgNo":"1340612","typeCode":"其他临时停电","poweroffArea":"【分支停电】停河北高碑店市经济开发管理委员会100变压器,八堵墙南台变压器,高碑店市星光玻璃幕墙工程有限公司变压器,高碑店市硕恒门窗制造有限责任公司变压器,高碑店市坤达房地产开发有限公司3,高碑店市坤达房地产开发有限公司,高碑店市坤达房地产开发有限公司2,高碑店市星光玻璃幕墙工程有限公司2,河北巨能锅炉集团有限公司,高碑店市坤达房地产开发有限公司备用3,高碑店市铁岩钢板桩有限公司1,高碑店市坤达房地产开发有限公司备用2,河北群翔采暖设备有限公司1#变压器,高碑店市坤达房地产开发有限公司备用1,河北博克力佳电器有限公司变压器,八堵墙新变压器,高碑店市高碑店鑫达模具加工部变压器,高碑店市方隆电气设备有限公司变压器,高碑店市铁岩钢板桩有限公司变压器01,高碑店市铁岩钢板桩有限公司变压器02,高碑店市铁岩钢板桩有限公司2,河北群翔采暖设备有限公司2#变压器,河北群翔采暖设备有限公司3#变压器,高碑店市铁岩钢板桩有限公司3,高碑店市坤达房地产开发有限公司备用4,高碑店市铁岩钢板桩有限公司变压器03,高碑店市星光玻璃幕墙工程有限公司1,龚永旗八堵墙砖厂,河北高碑店市经济开发管理委员会变压器,高碑店市昆仲伟业机械制造有限公司变压器,高碑店市坤达房地产开发有限公司4","poweroffReason":"【停电原因】由于高压计量线夹打火需紧急处理导致１１０ＫＶ方官变电站１０ＫＶ狮后街５５２线路０２号断路器以下停电 【变更送电】无 【发布渠道】通过９５５９８发布","powerTime":"2019-10-28 16:29:11","powerComm":"已送电","subsNo":"","lineNo":"","tgNo":"","tgName":null,"infoStatus":"1","orgName":"国网高碑店市供电公司","typeName":null,"infoStatusName":null,"dateDay":null,"orgNos":null,"nowTime":null,"countyName":null,"streetName":null,"villageName":null,"roadName":null,"communityName":null,"tranName":null,"sdLineName":null,"cityCode":"1340612","cityName":"国网高碑店市供电公司","provinceCode":null,"stopTime":"2019-10-28 17:00:00","powerType":"全部","powerOffArea":"【分支停电】停河北高碑店市经济开发管理委员会100变压器,八堵墙南台变压器,高碑店市星光玻璃幕墙工程有限公司变压器,高碑店市硕恒门窗制造有限责任公司变压器,高碑店市坤达房地产开发有限公司3,高碑店市坤达房地产开发有限公司,高碑店市坤达房地产开发有限公司2,高碑店市星光玻璃幕墙工程有限公司2,河北巨能锅炉集团有限公司,高碑店市坤达房地产开发有限公司备用3,高碑店市铁岩钢板桩有限公司1,高碑店市坤达房地产开发有限公司备用2,河北群翔采暖设备有限公司1#变压器,高碑店市坤达房地产开发有限公司备用1,河北博克力佳电器有限公司变压器,八堵墙新变压器,高碑店市高碑店鑫达模具加工部变压器,高碑店市方隆电气设备有限公司变压器,高碑店市铁岩钢板桩有限公司变压器01,高碑店市铁岩钢板桩有限公司变压器02,高碑店市铁岩钢板桩有限公司2,河北群翔采暖设备有限公司2#变压器,河北群翔采暖设备有限公司3#变压器,高碑店市铁岩钢板桩有限公司3,高碑店市坤达房地产开发有限公司备用4,高碑店市铁岩钢板桩有限公司变压器03,高碑店市星光玻璃幕墙工程有限公司1,龚永旗八堵墙砖厂,河北高碑店市经济开发管理委员会变压器,高碑店市昆仲伟业机械制造有限公司变压器,高碑店市坤达房地产开发有限公司4","powerOffReason":"【停电原因】由于高压计量线夹打火需紧急处理导致１１０ＫＶ方官变电站１０ＫＶ狮后街５５２线路０２号断路器以下停电 【变更送电】无 【发布渠道】通过９５５９８发布","powerOffId":"2019102813000310"}],"pageModel":{"pageNow":434,"totalCount":10973,"totalPage":1098,"tableRows":0,"pageCount":10,"beginCount":4330},"isExperi":"1"}