{"message":"","today":"2020-06-15","seleList":[{"poweroffId":2019102813000297,"sgpoweroffId":null,"subsName":"","lineName":"工业线517","pubTranName":"小李家村新上配变,兴泰园箱变配电变压器,李家村家属院混,李家村幼儿园配变,244225624河北智联房地产开发有限公司(柠檬小镇二区),0469550492-河北智联房地产开发有限公司(柠檬小镇二区)-专变-204276034-河北智联房地产开发有限公司(柠檬小镇二区),0469550492-河北智联房地产开发有限公司(柠檬小镇二区)-专变-204273594-河北智联房地产开发有限公司(柠檬小镇二区),0469550492-河北智联房地产开发有限公司(柠檬小镇二区)-专变-204272980-河北智联房地产开发有限公司(柠檬小镇二区),0469550492-河北智联房地产开发有限公司(柠檬小镇二区)-专变-204273274-河北智联房地产开发有限公司(柠檬小镇二区),0469550492-河北智联房地产开发有限公司(柠檬小镇二区)-专变-204273252-河北智联房地产开发有限公司(柠檬小镇二区),244226994河北智联房地产开发有限公司(柠檬小镇二区),0469550492-河北智联房地产开发有限公司(柠檬小镇二区)-专变-46837213-柠檬小镇,0469550492-河北智联房地产开发有限公司(柠檬小镇二区)-专变-204276048-河北智联房地产开发有限公司(柠檬小镇二区),244228425河北智联房地产开发有限公司(柠檬小镇二区),244228423河北智联房地产开发有限公司(柠檬小镇二区),244228440河北智联房地产开发有限公司(柠檬小镇二区),0469550492-河北智联房地产开发有限公司(柠檬小镇二区)-专变-204276072-河北智联房地产开发有限公司(柠檬小镇二区),244228586河北智联房地产开发有限公司(柠檬小镇二区),","scope":"【影响街道/乡镇】望都镇、高岭乡 【高危重要客户】无 【影响客户】兴泰园、李家村、柠檬小镇","startTime":"2019-10-28 13:00:34","stopDate":"2019-10-28 18:00:00","orgNo":"1340623","typeCode":"电网故障停限电","poweroffArea":"【全线路停电】停小李家村新上配变,兴泰园箱变配电变压器,李家村家属院混,李家村幼儿园配变,244225624河北智联房地产开发有限公司(柠檬小镇二区),0469550492-河北智联房地产开发有限公司(柠檬小镇二区)-专变-204276034-河北智联房地产开发有限公司(柠檬小镇二区),0469550492-河北智联房地产开发有限公司(柠檬小镇二区)-专变-204273594-河北智联房地产开发有限公司(柠檬小镇二区),0469550492-河北智联房地产开发有限公司(柠檬小镇二区)-专变-204272980-河北智联房地产开发有限公司(柠檬小镇二区),0469550492-河北智联房地产开发有限公司(柠檬小镇二区)-专变-204273274-河北智联房地产开发有限公司(柠檬小镇二区),0469550492-河北智联房地产开发有限公司(柠檬小镇二区)-专变-204273252-河北智联房地产开发有限公司(柠檬小镇二区),244226994河北智联房地产开发有限公司(柠檬小镇二区),0469550492-河北智联房地产开发有限公司(柠檬小镇二区)-专变-46837213-柠檬小镇,0469550492-河北智联房地产开发有限公司(柠檬小镇二区)-专变-204276048-河北智联房地产开发有限公司(柠檬小镇二区),244228425河北智联房地产开发有限公司(柠檬小镇二区),244228423河北智联房地产开发有限公司(柠檬小镇二区),244228440河北智联房地产开发有限公司(柠檬小镇二区),0469550492-河北智联房地产开发有限公司(柠檬小镇二区)-专变-204276072-河北智联房地产开发有限公司(柠檬小镇二区),244228586河北智联房地产开发有限公司(柠檬小镇二区)","poweroffReason":"【停电原因】由于线路接地导致３５ＫＶ工业变电站工业线５１７线路全线停电 【变更送电】因抢修进度加快原因，送电时间由２２：００变更为１８：００ 【发布渠道】通过９５５９８发布","powerTime":"2019-10-28 17:23:58","powerComm":"已送电","subsNo":"","lineNo":"","tgNo":"","tgName":null,"infoStatus":"1","orgName":"国网望都县供电公司","typeName":null,"infoStatusName":null,"dateDay":null,"orgNos":null,"nowTime":null,"countyName":null,"streetName":null,"villageName":null,"roadName":null,"communityName":null,"tranName":null,"sdLineName":null,"cityCode":"1340623","cityName":"国网望都县供电公司","provinceCode":null,"stopTime":"2019-10-28 18:00:00","powerType":"全部","powerOffArea":"【全线路停电】停小李家村新上配变,兴泰园箱变配电变压器,李家村家属院混,李家村幼儿园配变,244225624河北智联房地产开发有限公司(柠檬小镇二区),0469550492-河北智联房地产开发有限公司(柠檬小镇二区)-专变-204276034-河北智联房地产开发有限公司(柠檬小镇二区),0469550492-河北智联房地产开发有限公司(柠檬小镇二区)-专变-204273594-河北智联房地产开发有限公司(柠檬小镇二区),0469550492-河北智联房地产开发有限公司(柠檬小镇二区)-专变-204272980-河北智联房地产开发有限公司(柠檬小镇二区),0469550492-河北智联房地产开发有限公司(柠檬小镇二区)-专变-204273274-河北智联房地产开发有限公司(柠檬小镇二区),0469550492-河北智联房地产开发有限公司(柠檬小镇二区)-专变-204273252-河北智联房地产开发有限公司(柠檬小镇二区),244226994河北智联房地产开发有限公司(柠檬小镇二区),0469550492-河北智联房地产开发有限公司(柠檬小镇二区)-专变-46837213-柠檬小镇,0469550492-河北智联房地产开发有限公司(柠檬小镇二区)-专变-204276048-河北智联房地产开发有限公司(柠檬小镇二区),244228425河北智联房地产开发有限公司(柠檬小镇二区),244228423河北智联房地产开发有限公司(柠檬小镇二区),244228440河北智联房地产开发有限公司(柠檬小镇二区),0469550492-河北智联房地产开发有限公司(柠檬小镇二区)-专变-204276072-河北智联房地产开发有限公司(柠檬小镇二区),244228586河北智联房地产开发有限公司(柠檬小镇二区)","powerOffReason":"【停电原因】由于线路接地导致３５ＫＶ工业变电站工业线５１７线路全线停电 【变更送电】因抢修进度加快原因，送电时间由２２：００变更为１８：００ 【发布渠道】通过９５５９８发布","powerOffId":"2019102813000297"},{"poweroffId":2019102813000259,"sgpoweroffId":null,"subsName":"","lineName":"10kV杨漫撒线535","pubTranName":"杨漫撒39号变压器,杨漫撒37号变压器,杨漫撒33号变压器,杨漫撒07号变压器,杨漫撒36号变压器,杨漫撒10号变压器,杨漫撒17号变压器,杨漫撒25号变压器,杨漫撒27号变压器,杨漫撒16号变压器,杨漫撒14号变压器,杨漫撒21号变压器,杨漫撒24号变压器,杨漫撒12号变压器,杨漫撒22号变压器,杨漫撒20号变压器,杨漫撒32号变压器,杨漫撒15号变压器,杨漫撒01号变压器,杨漫撒18号变压器,杨漫撒35号变压器,杨漫撒31号变压器,杨漫撒02号变压器,杨漫撒23号变压器,杨漫撒26号变压器,杨漫撒09号变压器,杨漫撒30号变压器,杨漫撒小学,杨漫撒38号变压器,杨漫撒11号变压器,杨漫撒03号变压器,杨漫撒05号变压器,杨漫撒13号变压器,杨漫撒34号变压器,杨漫撒28号变压器,杨漫撒08号变压器,杨漫撒06号变压器,杨漫撒29号变压器,杨漫撒19号变压器,杨漫撒04号变压器,","scope":"【影响街道/乡镇】北城办事处、北城路 【高危重要客户】无 【影响客户】杨漫撒村","startTime":"2019-11-06 07:00:00","stopDate":"2019-11-06 12:00:00","orgNo":"1340612","typeCode":"计划停电","poweroffArea":"【全线路停电】停杨漫撒03号变压器,杨漫撒19号变压器,杨漫撒09号变压器,杨漫撒26号变压器,杨漫撒17号变压器,杨漫撒16号变压器,0387450160-高碑店市宏济医院-专变-45283410-杨炳成,杨漫撒14号变压器,杨漫撒21号变压器,杨漫撒24号变压器,杨漫撒04号变压器,杨漫撒30号变压器,杨漫撒38号变压器,杨漫撒39号变压器,杨漫撒20号变压器,杨漫撒32号变压器,杨漫撒01号变压器,杨漫撒18号变压器,杨漫撒35号变压器,杨漫撒31号变压器,杨漫撒23号变压器,杨漫撒33号变压器,杨漫撒36号变压器,杨漫撒10号变压器,杨漫撒25号变压器,杨漫撒27号变压器,杨漫撒28号变压器,杨漫撒北地变压器【纯农排变】,杨漫撒22号变压器,河北帅旗房地产开发有限公司,杨漫撒05号变压器,杨漫撒13号变压器,杨漫撒西地变压器【纯农排变】,杨漫撒34号变压器,杨漫撒08号变压器,杨漫撒06号变压器,杨漫撒29号变压器,杨漫撒12号变压器,杨漫撒北西地变压器【纯农排变】,杨漫撒15号变压器,杨漫撒02号变压器,杨漫撒37号变压器,杨漫撒07号变压器,杨漫撒小学,杨漫撒11号变压器","poweroffReason":"【停电原因】由于尚豪置业新增配变电源接引导致１１０ＫＶ各庄变电站１０ＫＶ杨漫撒５３５线路全线停电 【变更送电】无 【发布渠道】高碑店市高碑店电视台（１０月２９日０８时至１１月０５日１８时之间）屏幕上方滚动","powerTime":"2019-11-06 11:06:20","powerComm":"已送电","subsNo":"","lineNo":"","tgNo":"","tgName":null,"infoStatus":"1","orgName":"国网高碑店市供电公司","typeName":null,"infoStatusName":null,"dateDay":null,"orgNos":null,"nowTime":null,"countyName":null,"streetName":null,"villageName":null,"roadName":null,"communityName":null,"tranName":null,"sdLineName":null,"cityCode":"1340612","cityName":"国网高碑店市供电公司","provinceCode":null,"stopTime":"2019-11-06 12:00:00","powerType":"全部","powerOffArea":"【全线路停电】停杨漫撒03号变压器,杨漫撒19号变压器,杨漫撒09号变压器,杨漫撒26号变压器,杨漫撒17号变压器,杨漫撒16号变压器,0387450160-高碑店市宏济医院-专变-45283410-杨炳成,杨漫撒14号变压器,杨漫撒21号变压器,杨漫撒24号变压器,杨漫撒04号变压器,杨漫撒30号变压器,杨漫撒38号变压器,杨漫撒39号变压器,杨漫撒20号变压器,杨漫撒32号变压器,杨漫撒01号变压器,杨漫撒18号变压器,杨漫撒35号变压器,杨漫撒31号变压器,杨漫撒23号变压器,杨漫撒33号变压器,杨漫撒36号变压器,杨漫撒10号变压器,杨漫撒25号变压器,杨漫撒27号变压器,杨漫撒28号变压器,杨漫撒北地变压器【纯农排变】,杨漫撒22号变压器,河北帅旗房地产开发有限公司,杨漫撒05号变压器,杨漫撒13号变压器,杨漫撒西地变压器【纯农排变】,杨漫撒34号变压器,杨漫撒08号变压器,杨漫撒06号变压器,杨漫撒29号变压器,杨漫撒12号变压器,杨漫撒北西地变压器【纯农排变】,杨漫撒15号变压器,杨漫撒02号变压器,杨漫撒37号变压器,杨漫撒07号变压器,杨漫撒小学,杨漫撒11号变压器","powerOffReason":"【停电原因】由于尚豪置业新增配变电源接引导致１１０ＫＶ各庄变电站１０ＫＶ杨漫撒５３５线路全线停电 【变更送电】无 【发布渠道】高碑店市高碑店电视台（１０月２９日０８时至１１月０５日１８时之间）屏幕上方滚动","powerOffId":"2019102813000259"},{"poweroffId":2019102813000257,"sgpoweroffId":null,"subsName":"","lineName":"10kV孙漫撒线536","pubTranName":"孙漫撒16变压器,孙漫撒08变压器,孙漫撒04变压器,孙漫撒07变压器,孙漫撒17变压器,孙漫撒20变压器,孙漫撒05变压器,孙漫撒01变压器,孙漫撒12变压器,孙漫撒10变压器,孙漫撒15变压器,孙漫撒13变压器,孙漫撒18变压器,孙漫撒14变压器,孙漫撒11变压器,孙漫撒03变压器,孙漫撒02变压器,孙漫撒06变压器,孙漫撒09变压器,孙漫撒19变压器,","scope":"【影响街道/乡镇】北城办事处 【高危重要客户】无 【影响客户】孙漫撒村","startTime":"2019-11-06 07:00:00","stopDate":"2019-11-06 12:00:00","orgNo":"1340612","typeCode":"计划停电","poweroffArea":"【全线路停电】停孙漫撒13变压器,孙漫撒18变压器,高碑店市华宇燃气开发有限公司,孙漫撒14变压器,孙漫撒11变压器,孙漫撒03变压器,孙漫撒02变压器,宏伟达橡塑1,孙漫撒06变压器,孙漫撒09变压器,宏伟达橡塑3,河北戌兴投资有限公司变压器,孙漫撒04变压器,孙漫撒07变压器,杨漫撒排灌东2（磁卡）【纯农排变】,孙漫撒北地变压器【纯农排变】,河北路路通物流有限公司变压器,杨漫东地（磁卡）【纯农排变】,孙漫撒东2地变压器【纯农排变】,孙漫撒12变压器,杨漫撒南东地变压器【纯农排变】,杨漫撒东北地变压器【纯农排变】,高碑店市北城晟奇锅炉制造有限公司变压器,孙漫撒10变压器,高碑店市路灯管理办公室,孙漫撒15变压器,高碑店市北城晟奇锅炉制造有限公司,孙漫撒17变压器,河北戌兴实业有限公司2,孙漫撒20变压器,孙漫撒05变压器,保定尚豪置地房地产开发有限责任公司,孙漫撒01变压器,杨漫撒南西地变压器【纯农排变】,孙漫撒19变压器,合圃畜牧养殖厂变压器,孙漫撒16变压器,孙漫撒08变压器,河北戌兴实业有限公司","poweroffReason":"【停电原因】由于尚豪置业新增配变电源接引导致１１０ＫＶ各庄变电站１０ＫＶ孙漫撒５３６线路全线停电 【变更送电】无 【发布渠道】高碑店市高碑店电视台（１０月２９日０８时至１１月０５日１８时之间）屏幕上方滚动","powerTime":"2019-11-06 11:07:36","powerComm":"已送电","subsNo":"","lineNo":"","tgNo":"","tgName":null,"infoStatus":"1","orgName":"国网高碑店市供电公司","typeName":null,"infoStatusName":null,"dateDay":null,"orgNos":null,"nowTime":null,"countyName":null,"streetName":null,"villageName":null,"roadName":null,"communityName":null,"tranName":null,"sdLineName":null,"cityCode":"1340612","cityName":"国网高碑店市供电公司","provinceCode":null,"stopTime":"2019-11-06 12:00:00","powerType":"全部","powerOffArea":"【全线路停电】停孙漫撒13变压器,孙漫撒18变压器,高碑店市华宇燃气开发有限公司,孙漫撒14变压器,孙漫撒11变压器,孙漫撒03变压器,孙漫撒02变压器,宏伟达橡塑1,孙漫撒06变压器,孙漫撒09变压器,宏伟达橡塑3,河北戌兴投资有限公司变压器,孙漫撒04变压器,孙漫撒07变压器,杨漫撒排灌东2（磁卡）【纯农排变】,孙漫撒北地变压器【纯农排变】,河北路路通物流有限公司变压器,杨漫东地（磁卡）【纯农排变】,孙漫撒东2地变压器【纯农排变】,孙漫撒12变压器,杨漫撒南东地变压器【纯农排变】,杨漫撒东北地变压器【纯农排变】,高碑店市北城晟奇锅炉制造有限公司变压器,孙漫撒10变压器,高碑店市路灯管理办公室,孙漫撒15变压器,高碑店市北城晟奇锅炉制造有限公司,孙漫撒17变压器,河北戌兴实业有限公司2,孙漫撒20变压器,孙漫撒05变压器,保定尚豪置地房地产开发有限责任公司,孙漫撒01变压器,杨漫撒南西地变压器【纯农排变】,孙漫撒19变压器,合圃畜牧养殖厂变压器,孙漫撒16变压器,孙漫撒08变压器,河北戌兴实业有限公司","powerOffReason":"【停电原因】由于尚豪置业新增配变电源接引导致１１０ＫＶ各庄变电站１０ＫＶ孙漫撒５３６线路全线停电 【变更送电】无 【发布渠道】高碑店市高碑店电视台（１０月２９日０８时至１１月０５日１８时之间）屏幕上方滚动","powerOffId":"2019102813000257"},{"poweroffId":2019102813000240,"sgpoweroffId":null,"subsName":"","lineName":"久安I线526","pubTranName":"西白陀南混合配变,田庄路边混配变,小张家村混合配变,西白陀内北混配变,西白陀村东混配变,西白陀西混配变,高速引线路边配变,小张家村南混,","scope":"【影响街道/乡镇】中韩庄乡、高岭乡　 【高危重要客户】无　　 【影响客户】小张家村、西白陀村、田庄部分、高速引线","startTime":"2019-11-07 06:00:00","stopDate":"2019-11-07 18:00:00","orgNo":"1340623","typeCode":"计划停电","poweroffArea":"【全线路停电】停西白陀南混合配变,田庄路边混配变,小张家村混合配变,西白陀内北混配变,西白陀村东混配变,西白陀西混配变,高速引线路边配变,小张家村南混","poweroffReason":"【停电原因】由于安装开关、更换开关导致１１０ＫＶ望都变电站久安Ｉ线５２６线路全线停电 【变更送电】无 【发布渠道】保定市望都有线电视台（１０月２９日至１１月０６日１９时００分至２０时００分之间）屏幕上方滚动","powerTime":"2019-11-07 17:22:18","powerComm":"已送电","subsNo":"","lineNo":"","tgNo":"","tgName":null,"infoStatus":"1","orgName":"国网望都县供电公司","typeName":null,"infoStatusName":null,"dateDay":null,"orgNos":null,"nowTime":null,"countyName":null,"streetName":null,"villageName":null,"roadName":null,"communityName":null,"tranName":null,"sdLineName":null,"cityCode":"1340623","cityName":"国网望都县供电公司","provinceCode":null,"stopTime":"2019-11-07 18:00:00","powerType":"全部","powerOffArea":"【全线路停电】停西白陀南混合配变,田庄路边混配变,小张家村混合配变,西白陀内北混配变,西白陀村东混配变,西白陀西混配变,高速引线路边配变,小张家村南混","powerOffReason":"【停电原因】由于安装开关、更换开关导致１１０ＫＶ望都变电站久安Ｉ线５２６线路全线停电 【变更送电】无 【发布渠道】保定市望都有线电视台（１０月２９日至１１月０６日１９时００分至２０时００分之间）屏幕上方滚动","powerOffId":"2019102813000240"},{"poweroffId":2019102813000215,"sgpoweroffId":null,"subsName":"","lineName":"南环路581线路","pubTranName":"0562415146-唐县众源供水有限责任公司-专变-200955322-唐县众源自来水有限责任公司,0574445665-唐县隆泰百货商厦有限责任公司-专变-123342272-唐县隆泰百货商厦有限责任公司配变,河北宝裕房地产开发有限公司3178,唐县住房和城乡建设局XZ7828,园子东南0090变压器,仁明公用0241变压器,园子村南0027箱变,园子村学校7405变压器,唐县文华印刷厂XZ7389,甄增祥0097,园子村北0029出线间隔配电变压器,粮食局1934,社保局公用0038变压器,唐县京尧房地产开发有限责任公司计量点7869,土地局家属院变压器,左北京新建变压器,粮局家属0201,保定泰利面业有限公司2342,0551582332-唐县唐商购物广场-专变-49852744-唐县商场股份合作公司,唐中公用箱式变,唐县天泰酒店XZ7992,土地局家属变压器,粮食局新变压器,唐县市场建设服务中心计量点P7372,园子村西7404台区高压出线间隔配电变压器,园子东新增变压器,唐县隆泰百货商厦有限责任公司配变,定州市广源房地产开发有限公司配变,园子村1402,薛振敏1857,唐中家属变压器,文录电锯0245,防疫站公用变压器,","scope":"【影响街道/乡镇】仁厚镇、唐尧西路、南环路、向阳街、仁厚东路、仁厚西路【高危重要客户】无【影响客户】唐县商场股份合作公司、园子村、盛唐花园、疾控中心、妇幼医院、新农合中心、唐中家属院、社保局家属院、唐县中学、粮食局、九门轩涮肉酒店、玉莹小区、河北宝裕房地产开发有限公司、定州市广源房地产开发有限公司、唐县隆泰百货商厦有限责任公司、唐县水利局、粮食局、保定市泰利面业有限公司、农机监理、新华书店、唐县社保局、唐县医保所、南坛村、大唐会馆、粮局家属院、唐县众源供水有限责任公司、唐县李光辉管厂、太行篷布厂、富信羊绒制品有限公司","startTime":"2019-10-28 11:20:00","stopDate":"2019-10-28 15:00:00","orgNo":"1340622","typeCode":"其他临时停电","poweroffArea":"【分支停电】停园子东南0090变压器,仁明公用0241变压器,园子村南0027箱变,园子村学校7405变压器,唐县文华印刷厂XZ7389,甄增祥0097,园子村北0029出线间隔配电变压器,粮食局1934,社保局公用0038变压器,唐县京尧房地产开发有限责任公司计量点7869,土地局家属院变压器,左北京新建变压器,粮局家属0201,保定泰利面业有限公司2342,0551582332-唐县唐商购物广场-专变-49852744-唐县商场股份合作公司,唐中公用箱式变,唐县天泰酒店XZ7992,土地局家属变压器,粮食局新变压器,唐县市场建设服务中心计量点P7372,园子村西7404台区高压出线间隔配电变压器,园子东新增变压器,唐县隆泰百货商厦有限责任公司配变,定州市广源房地产开发有限公司配变,园子村1402,薛振敏1857,唐中家属变压器,文录电锯0245,防疫站公用变压器,0562415146-唐县众源供水有限责任公司-专变-200955322-唐县众源自来水有限责任公司,0574445665-唐县隆泰百货商厦有限责任公司-专变-123342272-唐县隆泰百货商厦有限责任公司配变,河北宝裕房地产开发有限公司3178,唐县住房和城乡建设局XZ7828","poweroffReason":"【停电原因】由于处理紧急缺陷导致１１０ＫＶ城南站南环路５８１线路向阳南街分支０１号环网柜以下线路停电【变更送电】无【发布渠道】通过９５５９８发布","powerTime":"2019-10-28 14:35:09","powerComm":"已送电","subsNo":"","lineNo":"","tgNo":"","tgName":null,"infoStatus":"1","orgName":"国网唐县供电公司","typeName":null,"infoStatusName":null,"dateDay":null,"orgNos":null,"nowTime":null,"countyName":null,"streetName":null,"villageName":null,"roadName":null,"communityName":null,"tranName":null,"sdLineName":null,"cityCode":"1340622","cityName":"国网唐县供电公司","provinceCode":null,"stopTime":"2019-10-28 15:00:00","powerType":"全部","powerOffArea":"【分支停电】停园子东南0090变压器,仁明公用0241变压器,园子村南0027箱变,园子村学校7405变压器,唐县文华印刷厂XZ7389,甄增祥0097,园子村北0029出线间隔配电变压器,粮食局1934,社保局公用0038变压器,唐县京尧房地产开发有限责任公司计量点7869,土地局家属院变压器,左北京新建变压器,粮局家属0201,保定泰利面业有限公司2342,0551582332-唐县唐商购物广场-专变-49852744-唐县商场股份合作公司,唐中公用箱式变,唐县天泰酒店XZ7992,土地局家属变压器,粮食局新变压器,唐县市场建设服务中心计量点P7372,园子村西7404台区高压出线间隔配电变压器,园子东新增变压器,唐县隆泰百货商厦有限责任公司配变,定州市广源房地产开发有限公司配变,园子村1402,薛振敏1857,唐中家属变压器,文录电锯0245,防疫站公用变压器,0562415146-唐县众源供水有限责任公司-专变-200955322-唐县众源自来水有限责任公司,0574445665-唐县隆泰百货商厦有限责任公司-专变-123342272-唐县隆泰百货商厦有限责任公司配变,河北宝裕房地产开发有限公司3178,唐县住房和城乡建设局XZ7828","powerOffReason":"【停电原因】由于处理紧急缺陷导致１１０ＫＶ城南站南环路５８１线路向阳南街分支０１号环网柜以下线路停电【变更送电】无【发布渠道】通过９５５９８发布","powerOffId":"2019102813000215"},{"poweroffId":2019102813000210,"sgpoweroffId":null,"subsName":"","lineName":"山南线517","pubTranName":"陈旺村1#,陈旺村10#村西,石赛9#,陈旺村11#村北变压器,陈旺村13#,陈旺村14#,陈旺村2#,陈旺村3#,陈旺村4#,陈旺村5#【纯农排变】,陈旺村7#,陈旺村9#村东,东茹堡11#（光伏）,东茹堡村1#,石赛村6#变压器,陈旺12村号变压器,石赛村7#,石赛村8#,东茹堡村7#村南,东茹堡村8#村东（综）变压器,摇头村7#,","scope":"【影响街道/乡镇】桥头乡、易州镇【高危重要客户】无【影响客户】石赛村、摇头村、陈旺村、东茹堡村","startTime":"2019-10-28 09:57:51","stopDate":"2019-10-28 17:00:00","orgNo":"1340625","typeCode":"电网故障停限电","poweroffArea":"【分支停电】停陈旺12村号变压器,陈旺村1#,陈旺村10#村西,陈旺村11#村北变压器,陈旺村13#,陈旺村14#,陈旺村2#,陈旺村3#,陈旺村4#,陈旺村5#【纯农排变】,陈旺村6#【纯农排变】,陈旺村7#,陈旺村8#村南,陈旺村9#村东,东茹堡10#【纯农排变】,东茹堡11#（光伏）,东茹堡村1#,东茹堡村2#,东茹堡村3#【纯农排变】,东茹堡村4#【纯农排变】,东茹堡村5#【纯农排变】,东茹堡村6#,东茹堡村7#村南,东茹堡村8#村东（综）变压器,东茹堡村9#,石赛9#,石赛村1#,石赛村2#【纯农排变】,石赛村3#,石赛村4#村西南变压器,石赛村5#村南变压器,石赛村6#变压器,石赛村7#,石赛村8#,摇头村1#,摇头村2#,摇头村3#,摇头村4#,摇头村5#,摇头村6#村东变压器,摇头村7#","poweroffReason":"【停电原因】由于大风天气导致１１０ＫＶ易县变电站山南５１７线路０２５号杆至０８９号杆之间线路停电【变更送电】因抢修进度加快原因，送电时间由１９:００变更为１７:００【发布渠道】通过９５５９８发布","powerTime":"2019-10-28 16:44:07","powerComm":"已送电","subsNo":"","lineNo":"","tgNo":"","tgName":null,"infoStatus":"1","orgName":"国网易县供电公司","typeName":null,"infoStatusName":null,"dateDay":null,"orgNos":null,"nowTime":null,"countyName":null,"streetName":null,"villageName":null,"roadName":null,"communityName":null,"tranName":null,"sdLineName":null,"cityCode":"1340625","cityName":"国网易县供电公司","provinceCode":null,"stopTime":"2019-10-28 17:00:00","powerType":"全部","powerOffArea":"【分支停电】停陈旺12村号变压器,陈旺村1#,陈旺村10#村西,陈旺村11#村北变压器,陈旺村13#,陈旺村14#,陈旺村2#,陈旺村3#,陈旺村4#,陈旺村5#【纯农排变】,陈旺村6#【纯农排变】,陈旺村7#,陈旺村8#村南,陈旺村9#村东,东茹堡10#【纯农排变】,东茹堡11#（光伏）,东茹堡村1#,东茹堡村2#,东茹堡村3#【纯农排变】,东茹堡村4#【纯农排变】,东茹堡村5#【纯农排变】,东茹堡村6#,东茹堡村7#村南,东茹堡村8#村东（综）变压器,东茹堡村9#,石赛9#,石赛村1#,石赛村2#【纯农排变】,石赛村3#,石赛村4#村西南变压器,石赛村5#村南变压器,石赛村6#变压器,石赛村7#,石赛村8#,摇头村1#,摇头村2#,摇头村3#,摇头村4#,摇头村5#,摇头村6#村东变压器,摇头村7#","powerOffReason":"【停电原因】由于大风天气导致１１０ＫＶ易县变电站山南５１７线路０２５号杆至０８９号杆之间线路停电【变更送电】因抢修进度加快原因，送电时间由１９:００变更为１７:００【发布渠道】通过９５５９８发布","powerOffId":"2019102813000210"},{"poweroffId":2019102813000209,"sgpoweroffId":null,"subsName":"","lineName":"10kV大阳站557线路","pubTranName":"C425柱上变压器,","scope":"【影响街道/乡镇】焦庄乡 【高危重要客户】无 【影响客户】焦庄","startTime":"2019-10-28 10:00:00","stopDate":"2019-10-28 11:30:00","orgNo":"13406","typeCode":"电网故障停限电","poweroffArea":"【单台区停电】停C425柱上变压器","poweroffReason":"【停电原因】由于低压线烧导致１０ＫＶ大阳变电站５５７线路Ｃ４２５公变台区停电【变更送电】无【发布渠道】通过９５５９８发布","powerTime":"2019-10-28 11:20:58","powerComm":"已送电","subsNo":"","lineNo":"","tgNo":"","tgName":null,"infoStatus":"1","orgName":"保定供电公司","typeName":null,"infoStatusName":null,"dateDay":null,"orgNos":null,"nowTime":null,"countyName":null,"streetName":null,"villageName":null,"roadName":null,"communityName":null,"tranName":null,"sdLineName":null,"cityCode":"13406","cityName":"保定供电公司","provinceCode":null,"stopTime":"2019-10-28 11:30:00","powerType":"全部","powerOffArea":"【单台区停电】停C425柱上变压器","powerOffReason":"【停电原因】由于低压线烧导致１０ＫＶ大阳变电站５５７线路Ｃ４２５公变台区停电【变更送电】无【发布渠道】通过９５５９８发布","powerOffId":"2019102813000209"},{"poweroffId":2019102813000192,"sgpoweroffId":null,"subsName":"","lineName":"曹工线516","pubTranName":"西屯河内西配变,西屯河混合1号配变,东屯河混合1号配变,东屯河内南配变,北曹庄西边内配变,东屯河内东配变,西屯河村内2号配变,","scope":"【影响街道/乡镇】中韩庄乡 【高危重要客户】无　　 【影响客户】东屯河、西屯河村、北曹庄村西边内","startTime":"2019-11-05 06:00:00","stopDate":"2019-11-05 16:00:00","orgNo":"1340623","typeCode":"临时停电","poweroffArea":"【全线路停电】停西屯河村内2号配变,西屯河内西配变,西屯河混合1号配变,东屯河混合1号配变,东屯河内南配变,北曹庄西边内配变,东屯河内东配变","poweroffReason":"【停电原因】由于供电设备临时检修导致３５ＫＶ曹庄变电站曹工线５１６线路全线停电 【变更送电】因工作提前完工原因，送电时间由１８：００变更为１６：００ 【发布渠道】通过９５５９８发布","powerTime":"2019-11-05 15:35:32","powerComm":"已送电","subsNo":"","lineNo":"","tgNo":"","tgName":null,"infoStatus":"1","orgName":"国网望都县供电公司","typeName":null,"infoStatusName":null,"dateDay":null,"orgNos":null,"nowTime":null,"countyName":null,"streetName":null,"villageName":null,"roadName":null,"communityName":null,"tranName":null,"sdLineName":null,"cityCode":"1340623","cityName":"国网望都县供电公司","provinceCode":null,"stopTime":"2019-11-05 16:00:00","powerType":"全部","powerOffArea":"【全线路停电】停西屯河村内2号配变,西屯河内西配变,西屯河混合1号配变,东屯河混合1号配变,东屯河内南配变,北曹庄西边内配变,东屯河内东配变","powerOffReason":"【停电原因】由于供电设备临时检修导致３５ＫＶ曹庄变电站曹工线５１６线路全线停电 【变更送电】因工作提前完工原因，送电时间由１８：００变更为１６：００ 【发布渠道】通过９５５９８发布","powerOffId":"2019102813000192"},{"poweroffId":2019102813000188,"sgpoweroffId":null,"subsName":"","lineName":"10kV515农场线","pubTranName":"屯里农排16台区【纯农排变】,屯里综合5台区,屯里农排6台区【纯农排变】,三队综合1台区,屯里农排10台区【纯农排变】,屯里综合8台区,屯里综合2台区,二队农排1台区【纯农排变】,屯里农排17台区【纯农排变】,屯里综合4台区,屯里综合3台区,南庄农排1台区【纯农排变】,三队农排2台区【纯农排变】,屯里综合1台区,南庄农排8台区【纯农排变】,屯里农排2台区【纯农排变】,屯里综合6台区,二队农排3台区【纯农排变】,五队农排1台区【纯农排变】,二队综合1台区,屯里农排15台区【纯农排变】,三队农排3台区【纯农排变】,屯里综合7台区,屯里农排18台区,一队综合1台区,屯里农排3台区【纯农排变】,屯里农排4台区【纯农排变】,后市农排2台区【纯农排变】,屯里农排5台区【纯农排变】,二队农排4台区【纯农排变】,二队农排2台区【纯农排变】,","scope":"【影响街道/乡镇】南庄镇【高危重要客户】无【影响客户】屯里村、农场（一队、二队、三队）、前市、南庄村、南庄胶厂","startTime":"2019-11-06 13:30:00","stopDate":"2019-11-06 17:00:00","orgNo":"1340616","typeCode":"计划停电","poweroffArea":"【全线路停电】停三队农排3台区【纯农排变】,南庄农排2台区【纯农排变】,屯里农排8台区【纯农排变】,五队农排1台区【纯农排变】,屯里农排13台区【纯农排变】,屯里农排9台区【纯农排变】,农场三队2,南庄农排1台区【纯农排变】,五坊农排1台区【纯农排变】,前市农排3台区【纯农排变】,屯里农排4台区【纯农排变】,五队农排2台区【纯农排变】,屯里农排16台区【纯农排变】,一队农排1台区【纯农排变】,二队农排2台区【纯农排变】,一队农排3台区【纯农排变】,屯里农排7台区【纯农排变】,屯里综合2台区,蠡县张七幸贤绳带,屯里农排15台区【纯农排变】,屯里综合3台区,后市农排9台区【纯农排变】,屯里农排10台区【纯农排变】,一队农排2台区【纯农排变】,屯里农排17台区【纯农排变】,一队农排4台区【纯农排变】,屯里农排6台区【纯农排变】,三队综合1台区,屯里综合8台区,屯里综合6台区,三队农排1台区【纯农排变】,屯里农排5台区【纯农排变】,前市农排7台区【纯农排变】,屯里农排1台区【纯农排变】,一队综合1台区,南庄农排7台区【纯农排变】,五坊农排8台区【纯农排变】,屯里综合1台区,二队农排3台区【纯农排变】,屯里农排12台区【纯农排变】,三队农排2台区【纯农排变】,屯里综合5台区,屯里综合4台区,屯里综合7台区,五坊村东,屯里农排14台区【纯农排变】,南庄树苗厂,农场五队,屯里农排11台区【纯农排变】,南庄农排8台区【纯农排变】,后市农排2台区【纯农排变】,农砖厂小,二队综合1台区,五坊东二,五坊农四,屯里农排2台区【纯农排变】,屯里农排3台区【纯农排变】,农砖厂大,二队农排1台区【纯农排变】,屯里农排18台区,二队农排4台区【纯农排变】","poweroffReason":"【停电原因】由于倒供电方式导致３５ＫＶ洪善堡变电站１０ＫＶ农场５１５线路全线停电【变更送电】因工作进度加快原因，送电时间由１８：３０变更为１７：００【发布渠道】河北省保定市蠡县电视台（１０月２８日至１１月０５日２０：００至２２：００之间）屏幕上方滚动","powerTime":"2019-11-06 16:54:15","powerComm":"已送电","subsNo":"","lineNo":"","tgNo":"","tgName":null,"infoStatus":"1","orgName":"国网蠡县供电公司","typeName":null,"infoStatusName":null,"dateDay":null,"orgNos":null,"nowTime":null,"countyName":null,"streetName":null,"villageName":null,"roadName":null,"communityName":null,"tranName":null,"sdLineName":null,"cityCode":"1340616","cityName":"国网蠡县供电公司","provinceCode":null,"stopTime":"2019-11-06 17:00:00","powerType":"全部","powerOffArea":"【全线路停电】停三队农排3台区【纯农排变】,南庄农排2台区【纯农排变】,屯里农排8台区【纯农排变】,五队农排1台区【纯农排变】,屯里农排13台区【纯农排变】,屯里农排9台区【纯农排变】,农场三队2,南庄农排1台区【纯农排变】,五坊农排1台区【纯农排变】,前市农排3台区【纯农排变】,屯里农排4台区【纯农排变】,五队农排2台区【纯农排变】,屯里农排16台区【纯农排变】,一队农排1台区【纯农排变】,二队农排2台区【纯农排变】,一队农排3台区【纯农排变】,屯里农排7台区【纯农排变】,屯里综合2台区,蠡县张七幸贤绳带,屯里农排15台区【纯农排变】,屯里综合3台区,后市农排9台区【纯农排变】,屯里农排10台区【纯农排变】,一队农排2台区【纯农排变】,屯里农排17台区【纯农排变】,一队农排4台区【纯农排变】,屯里农排6台区【纯农排变】,三队综合1台区,屯里综合8台区,屯里综合6台区,三队农排1台区【纯农排变】,屯里农排5台区【纯农排变】,前市农排7台区【纯农排变】,屯里农排1台区【纯农排变】,一队综合1台区,南庄农排7台区【纯农排变】,五坊农排8台区【纯农排变】,屯里综合1台区,二队农排3台区【纯农排变】,屯里农排12台区【纯农排变】,三队农排2台区【纯农排变】,屯里综合5台区,屯里综合4台区,屯里综合7台区,五坊村东,屯里农排14台区【纯农排变】,南庄树苗厂,农场五队,屯里农排11台区【纯农排变】,南庄农排8台区【纯农排变】,后市农排2台区【纯农排变】,农砖厂小,二队综合1台区,五坊东二,五坊农四,屯里农排2台区【纯农排变】,屯里农排3台区【纯农排变】,农砖厂大,二队农排1台区【纯农排变】,屯里农排18台区,二队农排4台区【纯农排变】","powerOffReason":"【停电原因】由于倒供电方式导致３５ＫＶ洪善堡变电站１０ＫＶ农场５１５线路全线停电【变更送电】因工作进度加快原因，送电时间由１８：３０变更为１７：００【发布渠道】河北省保定市蠡县电视台（１０月２８日至１１月０５日２０：００至２２：００之间）屏幕上方滚动","powerOffId":"2019102813000188"},{"poweroffId":2019102813000185,"sgpoweroffId":null,"subsName":"","lineName":"北河线521","pubTranName":"北河光13变压器,三里铺光,红树营光9,北河光7变压器,北河光2变压器,北河光15变压器,北河供电所公用,北河光金三角,红树营光6变压器,红树营光4变压器,北河市场光1【2018年节能变】,北河光4变压器,北河光3变压器,北河光8变压器,北河供电所光,北河光3-2,北河光12变压器,红树营光3变压器,北河光4,北河光9变压器,红树营光3,北河虚拟（变）,北河光10,禾兴养猪厂分户公用,","scope":"【影响街道/乡镇】北河镇 【高危重要客户】无 【影响客户】红术营、北河中学、三里铺、北河镇政府、火车站、北河市场、６６１５７家属院、忠义仙庄小区、禾兴养猪厂、定兴县明城恒盛机动车检测有限公司、冠旭物业、佳鑫房地产、河北精益食品有限公司定兴分公司、民政局北河福利社、光明煤厂、史清军颗粒、保定华北环保工税技术有限责任公司","startTime":"2019-10-28 09:31:12","stopDate":"2019-10-28 14:00:00","orgNo":"1340609","typeCode":"电网故障停限电","poweroffArea":"【全线路停电】停*北河镇政府,北河市场光1【2018年节能变】,北河光4变压器,北河光3变压器,北河中学1,北河排2【纯农排变】,北河光4,北河光9变压器,66157家属院,定兴县明城恒盛机动车检测有限公司-400,冠旭物业-1600,北河中学2,佳鑫房地产-630,*河北精益食品有限公司定兴分公司,红树营光3,红树营光3变压器,北河光13变压器,三里铺光,红树营光9,北河光7变压器,北河光2变压器,北河中学-400,民政局北河福利社,北河光15变压器,北河供电所公用,石家庄工务段,光明煤厂,保定华北环保工税技术有限责任公司,*耿东艳,北河虚拟（变）,*北河中学,北河光10,禾兴养猪厂分户公用,史清军颗粒厂,*忠义仙庄小区,北河光金三角,石家庄供电段-250,红树营光6变压器,红树营光4变压器,许昆-50,北河光8变压器,北河供电所光,北河光3-2,北河光12变压器","poweroffReason":"【停电原因】由于腐竹厂分支避雷器引线搭担导致１１０ＫＶ北河变电站北河线５２１线路全线停电 【变更送电】无 【发布渠道】通过９５５９８发布","powerTime":"2019-10-28 13:17:55","powerComm":"已送电","subsNo":"","lineNo":"","tgNo":"","tgName":null,"infoStatus":"1","orgName":"国网定兴县供电公司","typeName":null,"infoStatusName":null,"dateDay":null,"orgNos":null,"nowTime":null,"countyName":null,"streetName":null,"villageName":null,"roadName":null,"communityName":null,"tranName":null,"sdLineName":null,"cityCode":"1340609","cityName":"国网定兴县供电公司","provinceCode":null,"stopTime":"2019-10-28 14:00:00","powerType":"全部","powerOffArea":"【全线路停电】停*北河镇政府,北河市场光1【2018年节能变】,北河光4变压器,北河光3变压器,北河中学1,北河排2【纯农排变】,北河光4,北河光9变压器,66157家属院,定兴县明城恒盛机动车检测有限公司-400,冠旭物业-1600,北河中学2,佳鑫房地产-630,*河北精益食品有限公司定兴分公司,红树营光3,红树营光3变压器,北河光13变压器,三里铺光,红树营光9,北河光7变压器,北河光2变压器,北河中学-400,民政局北河福利社,北河光15变压器,北河供电所公用,石家庄工务段,光明煤厂,保定华北环保工税技术有限责任公司,*耿东艳,北河虚拟（变）,*北河中学,北河光10,禾兴养猪厂分户公用,史清军颗粒厂,*忠义仙庄小区,北河光金三角,石家庄供电段-250,红树营光6变压器,红树营光4变压器,许昆-50,北河光8变压器,北河供电所光,北河光3-2,北河光12变压器","powerOffReason":"【停电原因】由于腐竹厂分支避雷器引线搭担导致１１０ＫＶ北河变电站北河线５２１线路全线停电 【变更送电】无 【发布渠道】通过９５５９８发布","powerOffId":"2019102813000185"}],"pageModel":{"pageNow":435,"totalCount":10973,"totalPage":1098,"tableRows":0,"pageCount":10,"beginCount":4340},"isExperi":"1"}