{"message":"","today":"2020-06-15","seleList":[{"poweroffId":2019102813000120,"sgpoweroffId":null,"subsName":"","lineName":"东西水512","pubTranName":"东西水村8#,东西水村12#【纯农排变】,岭东村10#【纯农排变】,东西水村10【纯农排变】,岭东村2#|村内,岭东村9#,东西水村4#,岭东村3#,东西水村6#,岭东村1#|村内,东西水村9#【纯农排变】,岭东村4#,东西水村1#,东西水村2#,东西水14号变压器,岭东村8#【纯农排变】,东西水村3#,岭东村14#【纯农排变】,岭东村7#韩家峪,东西水村5#,岭东18号变压器,","scope":"【影响街道/乡镇】狼牙山镇【高危重要客户】无【影响客户】岭东村、东西水村","startTime":"2019-10-28 07:24:55","stopDate":"2019-10-28 09:00:00","orgNo":"1340625","typeCode":"电网故障停限电","poweroffArea":"【分支停电】停岭东村2#|村内,东西水村1#,岭东村3#,东西水14号变压器,东西水村10【纯农排变】,东西水村12#【纯农排变】,东西水村9#【纯农排变】,东西水村2#,东西水村3#,东西水村4#,东西水村5#,东西水村6#,东西水村8#,岭东18号变压器,岭东村14#【纯农排变】,岭东村1#|村内,岭东村4#,岭东村8#【纯农排变】,岭东村9#,岭东村7#韩家峪,岭东村10#【纯农排变】","poweroffReason":"【停电原因】由于速断跳闸导致３５ＫＶ狼牙山变电站东西水５１２线路００５号杆至０１０号杆之间停电【变更送电】因抢修进度加快原因，送电时间由１６：００变更为０９：００【发布渠道】通过９５５９８发布","powerTime":"2019-10-28 08:10:07","powerComm":"已送电","subsNo":"","lineNo":"","tgNo":"","tgName":null,"infoStatus":"1","orgName":"国网易县供电公司","typeName":null,"infoStatusName":null,"dateDay":null,"orgNos":null,"nowTime":null,"countyName":null,"streetName":null,"villageName":null,"roadName":null,"communityName":null,"tranName":null,"sdLineName":null,"cityCode":"1340625","cityName":"国网易县供电公司","provinceCode":null,"stopTime":"2019-10-28 09:00:00","powerType":"全部","powerOffArea":"【分支停电】停岭东村2#|村内,东西水村1#,岭东村3#,东西水14号变压器,东西水村10【纯农排变】,东西水村12#【纯农排变】,东西水村9#【纯农排变】,东西水村2#,东西水村3#,东西水村4#,东西水村5#,东西水村6#,东西水村8#,岭东18号变压器,岭东村14#【纯农排变】,岭东村1#|村内,岭东村4#,岭东村8#【纯农排变】,岭东村9#,岭东村7#韩家峪,岭东村10#【纯农排变】","powerOffReason":"【停电原因】由于速断跳闸导致３５ＫＶ狼牙山变电站东西水５１２线路００５号杆至０１０号杆之间停电【变更送电】因抢修进度加快原因，送电时间由１６：００变更为０９：００【发布渠道】通过９５５９８发布","powerOffId":"2019102813000120"},{"poweroffId":2019102813000111,"sgpoweroffId":null,"subsName":"","lineName":"西古线512","pubTranName":"东古县村4#村北（综）,东古县3#村南,孟津岭2#,西古县村4#|村西,金坡村8号变压器,胜利村5#,上陈驿村4#村南,东古县村2#|村西,孟津岭村5#,鸭子沟村4#|村西,泥瓦铺村2#|村北,西古县村3#|村中,孟津岭村1#|村中,西古县村2#|村南,金坡村2#|村东,坡下村4#,鸭子沟村2#|村中,坡下村1#|村北,坡下村5#,泥瓦铺村1#|村南,西古县村6#村中,西古县村5#村西,胜利村3#村中,上陈驿村3#村北,西古县村1#|村东,孟津岭村4#,坡下村2#|村南,坡下村3#村北,胜利村2#|村南,鸭子沟6#,东古县村1#|村东,胜利村4#,鸭子沟7号变压器,胜利村1#|村北,金坡村9号变压器,鸭子沟5#村南庄,鸭子沟村3#|村东,鸭子沟村1#|村南,金坡村6#|村中,上陈驿村2#村北,西古县7#,金坡村1#|村中,","scope":"【影响街道/乡镇】紫荆关镇、安格庄乡、大龙华乡【高危重要客户】无【影响客户】胜利村、鸭子沟村、泥瓦铺村、坡下村、东古县村、西古县村、金坡村、孟津岭村","startTime":"2019-10-28 06:49:31","stopDate":"2019-10-28 09:00:00","orgNo":"1340625","typeCode":"电网故障停限电","poweroffArea":"【全线路停电】停金坡村8号变压器,泥瓦铺村2#|村北,胜利村2#|村南,鸭子沟7号变压器,胜利村1#|村北,鸭子沟5#村南庄,西古县村3#|村中,孟津岭村1#|村中,西古县村2#|村南,金坡村2#|村东,坡下村1#|村北,坡下村3#村北,鸭子沟6#,东古县村2#|村西,东古县村1#|村东,胜利村4#,金坡村9号变压器,金坡村1#|村中,东古县3#村南,金坡村6#|村中,西古县7#,鸭子沟村4#|村西,坡下村4#,鸭子沟村2#|村中,胜利村3#村中,上陈驿村3#村北,西古县村1#|村东,鸭子沟村3#|村东,金坡村迎宾阁饭店,易县鑫福源晟矿业有限公司(2510),易县鑫福源晟矿业有限公司(50),易县鑫福源晟矿业有限公司,保定申城路桥有限责任公司张石高速公路涞源至涞水段第LJM-N13项目部变压器,胜利村5#,上陈驿村4#村南,鸭子沟村1#|村南,坡下村2#|村南,西古山庄,孟津岭村5#,坡下村5#,泥瓦铺村1#|村南,金坡村郝天社变压器,0469486096-易县南湖山铁选厂(杜晓东)-专变-46819946-易县南湖山铁选厂(杜晓东),0469486269-保定市张石高速公路紫荆关收费站-专变-46819940-张石高速LJM-N12标(东沟),金坡村佟士新变压器,西古县村4#|村西,孟津岭村4#,孟津岭3#【纯农排变】,上陈驿村2#村北,易县华地山庄酒店有限公司250,东古县村4#村北（综）,孟津岭2#,张石高速LJM-N13标(坡下),上陈驿石材厂,0688753885-易县三利生态旅游开发有限公司-专变-228796369-易县三利生态旅游开发有限公司2号-1250KVA,移动基站孟津岭50,西古县村6#村中,西古县村5#村西,东古县村桑建志200,易县力达铁选厂,易县力达铁选厂变压器,易县紫荆关中心小学上陈驿小学200KVA,易县三利生态旅游开发有限公司200KVA,东古山庄","poweroffReason":"【停电原因】由于速断跳闸导致１１０ＫＶ上陈驿变电站西古线５１２线路全线停电【变更送电】因抢修进度加快原因，送电时间由１６：００变更为０９：００【发布渠道】通过９５５９８发布","powerTime":"2019-10-28 08:10:32","powerComm":"已送电","subsNo":"","lineNo":"","tgNo":"","tgName":null,"infoStatus":"1","orgName":"国网易县供电公司","typeName":null,"infoStatusName":null,"dateDay":null,"orgNos":null,"nowTime":null,"countyName":null,"streetName":null,"villageName":null,"roadName":null,"communityName":null,"tranName":null,"sdLineName":null,"cityCode":"1340625","cityName":"国网易县供电公司","provinceCode":null,"stopTime":"2019-10-28 09:00:00","powerType":"全部","powerOffArea":"【全线路停电】停金坡村8号变压器,泥瓦铺村2#|村北,胜利村2#|村南,鸭子沟7号变压器,胜利村1#|村北,鸭子沟5#村南庄,西古县村3#|村中,孟津岭村1#|村中,西古县村2#|村南,金坡村2#|村东,坡下村1#|村北,坡下村3#村北,鸭子沟6#,东古县村2#|村西,东古县村1#|村东,胜利村4#,金坡村9号变压器,金坡村1#|村中,东古县3#村南,金坡村6#|村中,西古县7#,鸭子沟村4#|村西,坡下村4#,鸭子沟村2#|村中,胜利村3#村中,上陈驿村3#村北,西古县村1#|村东,鸭子沟村3#|村东,金坡村迎宾阁饭店,易县鑫福源晟矿业有限公司(2510),易县鑫福源晟矿业有限公司(50),易县鑫福源晟矿业有限公司,保定申城路桥有限责任公司张石高速公路涞源至涞水段第LJM-N13项目部变压器,胜利村5#,上陈驿村4#村南,鸭子沟村1#|村南,坡下村2#|村南,西古山庄,孟津岭村5#,坡下村5#,泥瓦铺村1#|村南,金坡村郝天社变压器,0469486096-易县南湖山铁选厂(杜晓东)-专变-46819946-易县南湖山铁选厂(杜晓东),0469486269-保定市张石高速公路紫荆关收费站-专变-46819940-张石高速LJM-N12标(东沟),金坡村佟士新变压器,西古县村4#|村西,孟津岭村4#,孟津岭3#【纯农排变】,上陈驿村2#村北,易县华地山庄酒店有限公司250,东古县村4#村北（综）,孟津岭2#,张石高速LJM-N13标(坡下),上陈驿石材厂,0688753885-易县三利生态旅游开发有限公司-专变-228796369-易县三利生态旅游开发有限公司2号-1250KVA,移动基站孟津岭50,西古县村6#村中,西古县村5#村西,东古县村桑建志200,易县力达铁选厂,易县力达铁选厂变压器,易县紫荆关中心小学上陈驿小学200KVA,易县三利生态旅游开发有限公司200KVA,东古山庄","powerOffReason":"【停电原因】由于速断跳闸导致１１０ＫＶ上陈驿变电站西古线５１２线路全线停电【变更送电】因抢修进度加快原因，送电时间由１６：００变更为０９：００【发布渠道】通过９５５９８发布","powerOffId":"2019102813000111"},{"poweroffId":2019102813000104,"sgpoweroffId":null,"subsName":"","lineName":"白洋580","pubTranName":"夏庄村8#,徐家厂2#,石门店村7#,夏庄村5#,夏庄13台区,夏庄村1#,夏庄6,徐家厂4#,徐家厂村3#,夏庄村2#,徐家厂村1#,夏庄村11#,徐家厂5台区变压器,夏庄7#,夏庄村9#,夏庄村4#,夏庄村10#,石门店村6#,夏庄村3#,夏庄村12#,石门店村1#,石门店村2#村内,","scope":"【影响街道/乡镇】梁格庄镇 【高危重要客户】无 【影响客户】徐家厂村、夏庄村、石门店村","startTime":"2019-10-28 06:38:33","stopDate":"2019-10-28 10:00:00","orgNo":"1340625","typeCode":"电网故障停限电","poweroffArea":"【分支停电】停54001990|养路工区(3#*200KVA),石门店村1#,夏庄村2#,电力线材厂(50KVA),石门店砖厂(吴永财),夏庄村1#,夏庄村9#,易县景安广告服务有限公司变压器,变压器,易县鑫圣达天然气销售有限公司变压器,夏庄6,徐家厂村3#,夏庄砖厂,保定市交通运输局公路管理处易县养路工区变压器,夏庄村8#,纸箱厂,省技术开发公司大理石厂(马建军),易县收费站,西陵审计培训中心(迎宾花园),石油物探局地调五处易县加油站,石门店伊永红,天工石材加工厂,夏庄村11#,徐家厂5台区变压器,清源大理石厂(俞),夏庄13台区,易县清源大理石厂,易县永昌石质工艺品加工厂,易通天然石材厂,易县福胜文化石厂（五厂）,夏庄7#,下庄砖厂,张建杰,易县梁格庄镇石门店村民委员会变压器,易县交通局运管站,石门店村6#,电力线材厂(250KVA),夏庄村俞洪春变压器,夏庄村3#,徐家厂4#,易县保江液化气站变压器,石门店村7#,夏庄村4#,王建石材厂,易县富胜文化石厂(张贵福),石门店村2#村内,夏庄村12#,夏庄村10#,54001280|养路工区(2#*250KVA),赵振满石板厂,高涛大理石厂,太行石材厂,徐家厂2#,易县景安中医医院1000KVA,易县福胜文化石,夏庄村5#,徐家厂村1#,石门店石料厂(杨春生)","poweroffReason":"【停电原因】由于速断跳闸导致１１０ＫＶ店北变电站白洋５８０线路００５号杆至０１５号杆之间停电【变更送电】因抢修进度加快原因，送电时间由１６：００变更为１０：００【发布渠道】通过９５５９８发布","powerTime":"2019-10-28 09:53:10","powerComm":"已送电","subsNo":"","lineNo":"","tgNo":"","tgName":null,"infoStatus":"1","orgName":"国网易县供电公司","typeName":null,"infoStatusName":null,"dateDay":null,"orgNos":null,"nowTime":null,"countyName":null,"streetName":null,"villageName":null,"roadName":null,"communityName":null,"tranName":null,"sdLineName":null,"cityCode":"1340625","cityName":"国网易县供电公司","provinceCode":null,"stopTime":"2019-10-28 10:00:00","powerType":"全部","powerOffArea":"【分支停电】停54001990|养路工区(3#*200KVA),石门店村1#,夏庄村2#,电力线材厂(50KVA),石门店砖厂(吴永财),夏庄村1#,夏庄村9#,易县景安广告服务有限公司变压器,变压器,易县鑫圣达天然气销售有限公司变压器,夏庄6,徐家厂村3#,夏庄砖厂,保定市交通运输局公路管理处易县养路工区变压器,夏庄村8#,纸箱厂,省技术开发公司大理石厂(马建军),易县收费站,西陵审计培训中心(迎宾花园),石油物探局地调五处易县加油站,石门店伊永红,天工石材加工厂,夏庄村11#,徐家厂5台区变压器,清源大理石厂(俞),夏庄13台区,易县清源大理石厂,易县永昌石质工艺品加工厂,易通天然石材厂,易县福胜文化石厂（五厂）,夏庄7#,下庄砖厂,张建杰,易县梁格庄镇石门店村民委员会变压器,易县交通局运管站,石门店村6#,电力线材厂(250KVA),夏庄村俞洪春变压器,夏庄村3#,徐家厂4#,易县保江液化气站变压器,石门店村7#,夏庄村4#,王建石材厂,易县富胜文化石厂(张贵福),石门店村2#村内,夏庄村12#,夏庄村10#,54001280|养路工区(2#*250KVA),赵振满石板厂,高涛大理石厂,太行石材厂,徐家厂2#,易县景安中医医院1000KVA,易县福胜文化石,夏庄村5#,徐家厂村1#,石门店石料厂(杨春生)","powerOffReason":"【停电原因】由于速断跳闸导致１１０ＫＶ店北变电站白洋５８０线路００５号杆至０１５号杆之间停电【变更送电】因抢修进度加快原因，送电时间由１６：００变更为１０：００【发布渠道】通过９５５９８发布","powerOffId":"2019102813000104"},{"poweroffId":2019102813000100,"sgpoweroffId":null,"subsName":"","lineName":"于城岭515","pubTranName":"口子村2#,大岭沟村1#学校,口子村1#,桥家河村1#村中,大岭沟村2#,桥家河4#,桥家河村2#,桥家河村3#,","scope":"【影响街道/乡镇】桥家河乡【高危重要客户】无【影响客户】桥家河村、口子村、大岭沟村","startTime":"2019-10-28 06:31:24","stopDate":"2019-10-28 09:00:00","orgNo":"1340625","typeCode":"电网故障停限电","poweroffArea":"【分支停电】停(赵玉江),泰岩石材加工厂(王东全),0469489893-易县金山矿业有限公司-专变-47815904-金山矿业有限公司(2300KVA),于城30KVA,桥家河村2#,大岭沟村1#学校,易县洪起土地整理有限公司100KVA,洪财铁选厂,口子村2#,口子村1#,桥家河4#,0469489893-易县金山矿业有限公司-专变-47815892-金山矿业有限公司(2300KVA),于城800,桥家河村1#村中,0469489893-易县金山矿业有限公司-专变-47815898-金山矿业有限公司(2300KVA)","poweroffReason":"【停电原因】由于过流跳闸导致３５ＫＶ桥家河变电站于城岭５１５线路０１０号杆至０２５号杆之间停电【变更送电】因抢修进度加快原因，送电时间由１６：００变更为０９：００【发布渠道】通过９５５９８发布","powerTime":"2019-10-28 08:15:36","powerComm":"已送电","subsNo":"","lineNo":"","tgNo":"","tgName":null,"infoStatus":"1","orgName":"国网易县供电公司","typeName":null,"infoStatusName":null,"dateDay":null,"orgNos":null,"nowTime":null,"countyName":null,"streetName":null,"villageName":null,"roadName":null,"communityName":null,"tranName":null,"sdLineName":null,"cityCode":"1340625","cityName":"国网易县供电公司","provinceCode":null,"stopTime":"2019-10-28 09:00:00","powerType":"全部","powerOffArea":"【分支停电】停(赵玉江),泰岩石材加工厂(王东全),0469489893-易县金山矿业有限公司-专变-47815904-金山矿业有限公司(2300KVA),于城30KVA,桥家河村2#,大岭沟村1#学校,易县洪起土地整理有限公司100KVA,洪财铁选厂,口子村2#,口子村1#,桥家河4#,0469489893-易县金山矿业有限公司-专变-47815892-金山矿业有限公司(2300KVA),于城800,桥家河村1#村中,0469489893-易县金山矿业有限公司-专变-47815898-金山矿业有限公司(2300KVA)","powerOffReason":"【停电原因】由于过流跳闸导致３５ＫＶ桥家河变电站于城岭５１５线路０１０号杆至０２５号杆之间停电【变更送电】因抢修进度加快原因，送电时间由１６：００变更为０９：００【发布渠道】通过９５５９８发布","powerOffId":"2019102813000100"},{"poweroffId":2019102813000097,"sgpoweroffId":null,"subsName":"","lineName":"东扬515","pubTranName":"练台庄村1#,中杨威城16号,中杨威城19号,东杨威城村3#,西杨威城17号,大北城村1号,练台村5#,东杨威城8号,中杨威城15号,大北城村4#,东杨威城村4#,西杨威城14号,北东村5#商,练台庄村6#,中杨威城村7#【纯农排变】,西杨威城村2#,大北城村3#,东杨威城12号,东杨威城13号,西杨威城10号,练台庄村4#,北东19#,东杨威城18号,西杨威城18号,中杨威城村1#,大北城12#,练台庄村3#,北东小学,中杨威城村2#,中杨威城9号,练台村1#,西杨威城13号,小北城村1#,练台村6#村东,西杨威城8号,北东村6#,东杨威城11号,西杨威城村1#,中杨威城14号,大北城村10#,中杨威城村4#【纯农排变】,东杨威城16号,小北城村2#,西杨威城16号,北东村7#,练台村7#,东杨威城14号,大北城村11#,西杨威城12号,大北城村13#,北东村8#,东杨威城村2#,练台村3#,练台村2#,东杨威城9号,东杨威城15号,东杨威城10号,大北城小学,中杨威城12号,西杨威城9号,西杨威城11号,中杨威城13号,中杨威城村8#,东杨威城17号,中杨威城10号,中杨威城17号,中杨威城11号,东杨威城村1#,西杨威城村7#,大北城村9#,西杨威城15号,大北城村2#,中杨威城18号,大北城村8#,西杨威城村6#,西杨威城19号,","scope":"【影响街道/乡镇】高陌乡【高危重要客户】无【影响客户】西杨威城村、大北城村、练台庄村、中杨威城村、北东村、东杨威城村、小北城村","startTime":"2019-10-28 06:27:07","stopDate":"2019-10-28 09:00:00","orgNo":"1340625","typeCode":"电网故障停限电","poweroffArea":"【分支停电】停西杨威城村7#,大北城村4#,大北城村6#【纯农排变】,练台庄村4#,中杨威城10号,西杨威城5#【纯农排变】,扬中砖厂(刘平),董淑青,西杨威城18号,北东村18#,西杨威城10号,东杨威城8号,东杨威城村2#,东杨威城村7#【纯农排变】,西杨威城村3#【纯农排变】,大北城村郭强,大北城村13#,练台面粉厂,练台庄村2#,大北城面粉厂,中杨威城15号,中杨威城19号,北东村9#【纯农排变】,西杨威城8号,西杨威城11号,大北城村1号,中杨威城12号,东杨威城村4#,中杨威城村7#【纯农排变】,练台庄村7#|村北,练台庄村6#,大北城村9#,东杨威城17号,佟维(加油站),中杨威城13号,大北城收费站,中杨威城村6#【纯农排变】,北东村8#,西杨威城17号,西杨威城15号,东杨威城14号,大北城村2#,东杨威城5#【纯农排变】,练台庄村3#,东杨威城村6#【纯农排变】,中杨威城9号,北东村7#,东杨威城12号,练台村6#村东,练台村1#,西杨威城村6#,练台村3#,西杨威城村4#【纯农排变】,小北城村1#,大北城小学,东杨威城9号,东杨威城15号,练台庄村1#,北东19#,西杨威城13号,西杨威城14号,练台村4#,中杨威城16号,中杨威城村2#,东杨威城18号,大北城村10#,西杨威城16号,北东村5#商,练台村2#,易县广源养殖服务中心变压器,大北城村11#,北东村3#【纯农排变】,中杨威城村5#【纯农排变】,中杨威城村3#【纯农排变】,西杨威城村2#,西杨威城9号,易县顺利畜牧养殖有限公司变压器,小北城村3#,中杨威城村4#【纯农排变】,北东村6#,东杨威城16号,小北城村4#,练台村7#,小北城村2#,东杨威城11号,大北城村7#【纯农排变】,北东小学,王玉凤变压器,西杨威城12号,大北城村8#,易县志豪加油站变压器,东杨威城10号,中杨威城村8#,中杨威城18号,中杨威城11号,东杨威城13号,大北城村3#,中杨威城14号,大北城12#,练台村5#,西杨威城19号,东杨威城村3#,中杨威城17号,大北城村5#,练台庄村5#,东杨威城村1#,中杨威城村1#,西杨威城村1#,练台村8#","poweroffReason":"【停电原因】由于速断跳闸导致３５ＫＶ高陌变电站东扬５１５线路００５号杆至０３５号杆之间停电【变更送电】因抢修进度加快原因，送电时间由１６：００变更为０９：００【发布渠道】通过９５５９８发布","powerTime":"2019-10-28 08:38:51","powerComm":"已送电","subsNo":"","lineNo":"","tgNo":"","tgName":null,"infoStatus":"1","orgName":"国网易县供电公司","typeName":null,"infoStatusName":null,"dateDay":null,"orgNos":null,"nowTime":null,"countyName":null,"streetName":null,"villageName":null,"roadName":null,"communityName":null,"tranName":null,"sdLineName":null,"cityCode":"1340625","cityName":"国网易县供电公司","provinceCode":null,"stopTime":"2019-10-28 09:00:00","powerType":"全部","powerOffArea":"【分支停电】停西杨威城村7#,大北城村4#,大北城村6#【纯农排变】,练台庄村4#,中杨威城10号,西杨威城5#【纯农排变】,扬中砖厂(刘平),董淑青,西杨威城18号,北东村18#,西杨威城10号,东杨威城8号,东杨威城村2#,东杨威城村7#【纯农排变】,西杨威城村3#【纯农排变】,大北城村郭强,大北城村13#,练台面粉厂,练台庄村2#,大北城面粉厂,中杨威城15号,中杨威城19号,北东村9#【纯农排变】,西杨威城8号,西杨威城11号,大北城村1号,中杨威城12号,东杨威城村4#,中杨威城村7#【纯农排变】,练台庄村7#|村北,练台庄村6#,大北城村9#,东杨威城17号,佟维(加油站),中杨威城13号,大北城收费站,中杨威城村6#【纯农排变】,北东村8#,西杨威城17号,西杨威城15号,东杨威城14号,大北城村2#,东杨威城5#【纯农排变】,练台庄村3#,东杨威城村6#【纯农排变】,中杨威城9号,北东村7#,东杨威城12号,练台村6#村东,练台村1#,西杨威城村6#,练台村3#,西杨威城村4#【纯农排变】,小北城村1#,大北城小学,东杨威城9号,东杨威城15号,练台庄村1#,北东19#,西杨威城13号,西杨威城14号,练台村4#,中杨威城16号,中杨威城村2#,东杨威城18号,大北城村10#,西杨威城16号,北东村5#商,练台村2#,易县广源养殖服务中心变压器,大北城村11#,北东村3#【纯农排变】,中杨威城村5#【纯农排变】,中杨威城村3#【纯农排变】,西杨威城村2#,西杨威城9号,易县顺利畜牧养殖有限公司变压器,小北城村3#,中杨威城村4#【纯农排变】,北东村6#,东杨威城16号,小北城村4#,练台村7#,小北城村2#,东杨威城11号,大北城村7#【纯农排变】,北东小学,王玉凤变压器,西杨威城12号,大北城村8#,易县志豪加油站变压器,东杨威城10号,中杨威城村8#,中杨威城18号,中杨威城11号,东杨威城13号,大北城村3#,中杨威城14号,大北城12#,练台村5#,西杨威城19号,东杨威城村3#,中杨威城17号,大北城村5#,练台庄村5#,东杨威城村1#,中杨威城村1#,西杨威城村1#,练台村8#","powerOffReason":"【停电原因】由于速断跳闸导致３５ＫＶ高陌变电站东扬５１５线路００５号杆至０３５号杆之间停电【变更送电】因抢修进度加快原因，送电时间由１６：００变更为０９：００【发布渠道】通过９５５９８发布","powerOffId":"2019102813000097"},{"poweroffId":2019102813000095,"sgpoweroffId":null,"subsName":"","lineName":"田岗514","pubTranName":"黄路元1#,田岗2#,碾子台1#,大峪沟1#,柳树片1#,大元1#,大峪沟3#,武家沟1#,黄路元3#,赵岗2#,东杜岗6#,柳树片2#,大元2#,赵岗3#,田岗1#,东杜岗8#,富岗中心小学变压器,东杜岗2#,田岗4#,大元村3#,东杜岗4#,武家沟3#,花安1#,台底1#,东杜岗5#,黄路元2#,富岗供电所变压器,东杜岗7#,武家沟5#,碾子台村3#,东杜岗3#,田岗3#,大峪沟村4#,东杜岗1#,赵岗1#【纯农排变】,大峪沟2#,田岗村5#,台底4#,华安2#,台底3#,柳树片3#,武家沟4#,上铺2#,碾子台2#,武家沟2#,台底2#,","scope":"【影响街道/乡镇】牛岗乡、富岗乡、安格庄乡【高危重要客户】无【影响客户】黄路元村、柳树片村、台底村、碾子台村、大元村、大峪沟村、武家沟村、东杜岗村、赵岗村、西古县村、田岗村","startTime":"2019-10-28 06:12:31","stopDate":"2019-10-28 12:00:00","orgNo":"1340625","typeCode":"电网故障停限电","poweroffArea":"【分支停电】停田岗4#,鑫源矿业有限公司,大元村3#,易县西陵建柱养殖场变压器,东杜岗4#,武家沟3#,中富石材加工厂变压器,花安1#,易县中凯石材加工厂,台底1#,大峪沟1#,福岗河沙开发有限公司,东杜岗5#,黄路元2#,武文成,富岗供电所变压器,鑫源矿业有限公司(200),黄路元1#,田岗2#,田岗3#,东杜岗7#,武家沟5#,碾子台村3#,东杜岗3#,宋晓卫变压器,易县大泽玄武岩加工有限公司变压器,大峪沟村4#,东杜岗1#,赵岗1#【纯农排变】,大峪沟2#,田岗村5#,河北建设集团有限公司-三尖岭630KVA,台底4#,华安2#,台底3#,0688749459-易县三利生态旅游开发有限公司-专变-228795079-易县三利生态旅游开发有限公司1号-400KVA,柳树片3#,易县天一石材加工厂200KVA,易县利国土地整理有限公司变压器,武家沟4#,上铺2#,碾子台2#,武家沟2#,台底2#,富岗永泰石料加工厂,易县金鑫石材加工厂变压器,东杜岗2#,安格庄乡下铺村程龙1号50KVA,碾子台1#,柳树片1#,田岗村郝洪新100KVA,0688749459-易县三利生态旅游开发有限公司-专变-228795081-易县三利生态旅游开发有限公司2号-400KVA,大元2#,鑫辰铁选厂,66003100|鑫辰铁选厂(30KVA）,大元1#,大峪沟3#,武家沟1#,黄路元3#,赵岗2#,东杜岗6#,柳树片2#,安格庄乡下铺村程龙2号80KVA,安格庄乡下铺村民委员会50KVA,赵岗3#,田岗1#,山水山庄,变压器,东杜岗8#,富岗中心小学变压器,墨韩山庄","poweroffReason":"【停电原因】由于速断跳闸导致３５ＫＶ双峰变电站田岗５１４线路００５号杆至０３０号杆之间停电【变更送电】因抢修进度加快原因，送电时间由２０：００变更为１２：００【发布渠道】通过９５５９８发布","powerTime":"2019-10-28 11:42:27","powerComm":"已送电","subsNo":"","lineNo":"","tgNo":"","tgName":null,"infoStatus":"1","orgName":"国网易县供电公司","typeName":null,"infoStatusName":null,"dateDay":null,"orgNos":null,"nowTime":null,"countyName":null,"streetName":null,"villageName":null,"roadName":null,"communityName":null,"tranName":null,"sdLineName":null,"cityCode":"1340625","cityName":"国网易县供电公司","provinceCode":null,"stopTime":"2019-10-28 12:00:00","powerType":"全部","powerOffArea":"【分支停电】停田岗4#,鑫源矿业有限公司,大元村3#,易县西陵建柱养殖场变压器,东杜岗4#,武家沟3#,中富石材加工厂变压器,花安1#,易县中凯石材加工厂,台底1#,大峪沟1#,福岗河沙开发有限公司,东杜岗5#,黄路元2#,武文成,富岗供电所变压器,鑫源矿业有限公司(200),黄路元1#,田岗2#,田岗3#,东杜岗7#,武家沟5#,碾子台村3#,东杜岗3#,宋晓卫变压器,易县大泽玄武岩加工有限公司变压器,大峪沟村4#,东杜岗1#,赵岗1#【纯农排变】,大峪沟2#,田岗村5#,河北建设集团有限公司-三尖岭630KVA,台底4#,华安2#,台底3#,0688749459-易县三利生态旅游开发有限公司-专变-228795079-易县三利生态旅游开发有限公司1号-400KVA,柳树片3#,易县天一石材加工厂200KVA,易县利国土地整理有限公司变压器,武家沟4#,上铺2#,碾子台2#,武家沟2#,台底2#,富岗永泰石料加工厂,易县金鑫石材加工厂变压器,东杜岗2#,安格庄乡下铺村程龙1号50KVA,碾子台1#,柳树片1#,田岗村郝洪新100KVA,0688749459-易县三利生态旅游开发有限公司-专变-228795081-易县三利生态旅游开发有限公司2号-400KVA,大元2#,鑫辰铁选厂,66003100|鑫辰铁选厂(30KVA）,大元1#,大峪沟3#,武家沟1#,黄路元3#,赵岗2#,东杜岗6#,柳树片2#,安格庄乡下铺村程龙2号80KVA,安格庄乡下铺村民委员会50KVA,赵岗3#,田岗1#,山水山庄,变压器,东杜岗8#,富岗中心小学变压器,墨韩山庄","powerOffReason":"【停电原因】由于速断跳闸导致３５ＫＶ双峰变电站田岗５１４线路００５号杆至０３０号杆之间停电【变更送电】因抢修进度加快原因，送电时间由２０：００变更为１２：００【发布渠道】通过９５５９８发布","powerOffId":"2019102813000095"},{"poweroffId":2019102813000089,"sgpoweroffId":null,"subsName":"","lineName":"10kV523上庄线","pubTranName":"义合庄2,紫石口小南庄,上庄二台区,义合庄台区,","scope":"【影响街道/乡镇】三坡镇 【高危重要客户】无 【影响客户】上庄村、义合庄村、紫石口小南台村、鹏渤房地产","startTime":"2019-10-28 05:50:08","stopDate":"2019-10-28 11:00:00","orgNo":"1340614","typeCode":"电网故障停限电","poweroffArea":"【全线路停电】停义合庄2,0681499722-涞水县星辰酒店-专变-219745609-涞水县星辰酒店315KV变压器专变,紫石口小南庄,0684527800-河北野三坡旅游投资有限公司-专变-223614548-河北野三坡旅游投资有限公司100KVA专变,上庄二台区,路政50,0643630565-涞水鹏渤房地产开发有限公司-专变-161912061-鹏渤房地产250KVA变压器,交通局大坝2,上庄村,天硕大酒店,义合庄台区,天硕大酒店2,京通水上乐园,上庄新井台区,段春雨,南极科普800KVA专变","poweroffReason":"【停电原因】由于Ａ相接地导致１１０ＫＶ三坡变电站１０ＫＶ上庄５２３线路全线停电 【变更送电】因抢修进度加快原因，送电时间由１２：００变更为１１：００ 【发布渠道】通过９５５９８发布","powerTime":"2019-10-28 10:35:01","powerComm":"已送电","subsNo":"","lineNo":"","tgNo":"","tgName":null,"infoStatus":"1","orgName":"国网涞水县供电公司","typeName":null,"infoStatusName":null,"dateDay":null,"orgNos":null,"nowTime":null,"countyName":null,"streetName":null,"villageName":null,"roadName":null,"communityName":null,"tranName":null,"sdLineName":null,"cityCode":"1340614","cityName":"国网涞水县供电公司","provinceCode":null,"stopTime":"2019-10-28 11:00:00","powerType":"全部","powerOffArea":"【全线路停电】停义合庄2,0681499722-涞水县星辰酒店-专变-219745609-涞水县星辰酒店315KV变压器专变,紫石口小南庄,0684527800-河北野三坡旅游投资有限公司-专变-223614548-河北野三坡旅游投资有限公司100KVA专变,上庄二台区,路政50,0643630565-涞水鹏渤房地产开发有限公司-专变-161912061-鹏渤房地产250KVA变压器,交通局大坝2,上庄村,天硕大酒店,义合庄台区,天硕大酒店2,京通水上乐园,上庄新井台区,段春雨,南极科普800KVA专变","powerOffReason":"【停电原因】由于Ａ相接地导致１１０ＫＶ三坡变电站１０ＫＶ上庄５２３线路全线停电 【变更送电】因抢修进度加快原因，送电时间由１２：００变更为１１：００ 【发布渠道】通过９５５９８发布","powerOffId":"2019102813000089"},{"poweroffId":2019102813000086,"sgpoweroffId":null,"subsName":"","lineName":"牌坊线511","pubTranName":"511牌坊线北上屯3,国网河北省电力公司涞源县供电分公司(北石佛所)变压器,511南上屯6,511牌坊线张家裕3,511牌坊线马庄4,511南上屯5,511牌坊线张家裕村,涞源县北石佛乡卫生院变压器,511牌坊线沿村1,511牌坊线北上屯7,511牌坊线沿村7,追风养殖场变压器2,511牌坊线龙虎寺,511北石佛4,涞源县北石佛乡北上屯村村民委员会变压器,511牌坊线马庄5,变压器004#,511北石佛3,北上屯光伏1,北上屯光伏5,511牌坊线水泉,北上屯光伏3,南上屯光伏1,北上屯光伏4,牌坊1,北上屯光伏2,涞源县涞源镇北韩村村民委员会变压器,涞源县北石佛乡南上屯村村民委员会变压器,511牌坊线石道沟3,赵家井1号【2018光伏扶贫电站】,511牌坊线南石佛2,南上屯光伏2,涞源县北石佛乡北石佛村村民委员会变压器,511南上屯2,511北石佛8,511牌坊线马庄,511牌坊线北上屯8,511牌坊线沿村9号,牌坊2,南上屯7【三批中心村】,511牌坊线北上屯5,511牌坊线沿村4号,511牌坊线石道沟东,涞源县涞源镇东夹山村村民委员会变压器,涞源站511南上屯3#,511南上屯10,石道沟4,联通保定分公司,龙虎寺机井,南上屯村机井2,511牌坊线沿村6,511牌坊线南石佛,扯拽沟水利,北上屯机井,牌坊机井,石道沟5,中国人民解放军93618部队变压器,511牌坊线香炉屯2,石道沟碎石厂-46721171,涞源县北石佛乡牌坊村村民委员会变压器-900025173837,511牌坊线香炉屯1,511牌坊线马庄3,牌坊6,赵家井2号【2018光伏扶贫电站】,南上屯砖厂,511北石佛1,南上屯机井,涞源县涞源镇沿村村民委员会变压器,涞源县涞源镇甲村村民委员会变压器,涞源县沃泰土地整理有限责任公司变压器-900025266507,力生石材经销厂,511牌坊线北上屯4,511牌坊线赵家井,511牌坊线沿村3号,涞源县涞源镇龙虎寺村村民委员会变压器,陈保军碎石厂,511北石佛10,牌坊5,511牌坊线沿村5,涞源县北石佛乡中心小学变压器3,涞源县北石佛乡北上屯村村民委员会变压器1,涞源县城全砂石有限公司变压器1,511北石佛11,511牌坊线西道沟光,511南上屯1,涞源县农村信用联社股份有限公司变压器,511牌坊线马庄2,511牌坊线南上屯,511牌坊线龙虎寺2,511牌坊线南上屯13,511牌坊线北石佛村,涞源县北石佛乡牌坊村村民委员会变压器-900026801589,511牌坊线西道沟2,保定市锐拓工程有限责任公司变压器1,511牌坊线沿村2,涞源县北石佛乡张家峪村村民委员会变压器,511牌坊线北上屯1,北石佛乡政府,涞源县涞源镇三甲村村民委员会变压器,机井,511牌坊线张家裕,511牌坊线沿村8,511牌坊线北上屯6,511牌坊线牌坊2,涞源县北石佛乡石道沟村村民委员会变压器,511南上屯9,涞源县涞源镇扯拽沟村村民委员会变压器,511牌坊线小西庄2,河北鸿顺土地开发整理有限公司变压器5,变压器003#,511牌坊线张家裕4,涞源县涞源镇小西庄村村民委员会变压器,511牌坊线北上屯2,511牌坊线冀家会,511北石佛9","scope":"【影响街道/乡镇】北石佛乡、涞源镇【高危重要客户】无【影响客户】牌坊、张家峪、石道沟、南石佛、马庄、北石佛、南上屯、北上屯、赵家井、香炉屯、小西庄、扯拽沟、水泉、龙虎寺、沿村、冀家会、西道沟、北石佛乡政府、北石佛中学、北石佛派出所、导弹营部队、东石佛","startTime":"2019-10-28 05:32:33","stopDate":"2019-10-28 07:40:00","orgNo":"1340615","typeCode":"电网故障停限电","poweroffArea":"【全线路停电】停石道沟6,511牌坊线扯拽沟,511牌坊线石道沟西,511南上屯12,石道沟7,511牌坊线东石佛2,牌坊4,511牌坊线东石佛,511牌坊线小西庄,511南上屯8,511南上屯4,涞源县北石佛乡北上屯村村民委员会变压器,511牌坊线北上屯3,国网河北省电力公司涞源县供电分公司(北石佛所)变压器,511南上屯6,511牌坊线张家裕3,511牌坊线马庄4,511南上屯5,511牌坊线张家裕村,涞源县北石佛乡卫生院变压器,511牌坊线沿村1,511牌坊线北上屯7,511牌坊线沿村7,追风养殖场变压器2,511牌坊线龙虎寺,511北石佛4,511牌坊线石道沟东,511牌坊线马庄5,变压器004#,511北石佛3,北上屯光伏1,北上屯光伏5,511牌坊线水泉,北上屯光伏3,南上屯光伏1,北上屯光伏4,牌坊1,北上屯光伏2,涞源县涞源镇北韩村村民委员会变压器,涞源县北石佛乡南上屯村村民委员会变压器,511牌坊线石道沟3,511牌坊线北上屯5,511牌坊线沿村4号,涞源县涞源镇东夹山村村民委员会变压器,涞源站511南上屯3#,511南上屯10,赵家井1号【2018光伏扶贫电站】,511牌坊线南石佛2,南上屯光伏2,涞源县北石佛乡北石佛村村民委员会变压器,511南上屯2,511北石佛8,511牌坊线马庄,511牌坊线北上屯8,511牌坊线沿村9号,牌坊2,南上屯7【三批中心村】,石道沟4,联通保定分公司,龙虎寺机井,南上屯村机井2,511牌坊线沿村6,511牌坊线南石佛,扯拽沟水利,北上屯机井,牌坊机井,石道沟5,中国人民解放军93618部队变压器,511牌坊线香炉屯2,石道沟碎石厂-46721171,涞源县北石佛乡牌坊村村民委员会变压器-900025173837,511牌坊线香炉屯1,511牌坊线马庄3,牌坊6,赵家井2号【2018光伏扶贫电站】,南上屯砖厂,511北石佛1,南上屯机井,涞源县涞源镇沿村村民委员会变压器,涞源县涞源镇甲村村民委员会变压器,涞源县沃泰土地整理有限责任公司变压器-900025266507,力生石材经销厂,511牌坊线北上屯4,511牌坊线赵家井,511牌坊线沿村3号,涞源县涞源镇龙虎寺村村民委员会变压器,陈保军碎石厂,511北石佛10,牌坊5,511牌坊线沿村5,涞源县北石佛乡中心小学变压器3,涞源县北石佛乡北上屯村村民委员会变压器1,涞源县城全砂石有限公司变压器1,511北石佛11,511牌坊线西道沟光,511南上屯1,涞源县农村信用联社股份有限公司变压器,511牌坊线马庄2,511牌坊线南上屯,511牌坊线龙虎寺2,511牌坊线南上屯13,511牌坊线北石佛村,涞源县北石佛乡牌坊村村民委员会变压器-900026801589,511牌坊线西道沟2,保定市锐拓工程有限责任公司变压器1,511牌坊线沿村2,涞源县北石佛乡张家峪村村民委员会变压器,511牌坊线北上屯1,北石佛乡政府,涞源县涞源镇三甲村村民委员会变压器,机井,511牌坊线张家裕,511牌坊线沿村8,511牌坊线北上屯6,511牌坊线牌坊2,涞源县北石佛乡石道沟村村民委员会变压器,511南上屯9,涞源县涞源镇扯拽沟村村民委员会变压器,511牌坊线小西庄2,河北鸿顺土地开发整理有限公司变压器5,变压器003#,511牌坊线张家裕4,涞源县涞源镇小西庄村村民委员会变压器,511牌坊线北上屯2,511牌坊线冀家会,511北石佛9,涞源县北石佛乡中心小学变压器4,牌坊3,北上屯村光伏变压器【光伏】,石道沟碎石厂（照明）,李银利养鸡场,龙虎寺水利,原种厂砖厂,邓建国空心砖厂,涞源县涞源镇辛庄村村民委员会变压器,511南上屯3,511南上屯11,511牌坊线北石佛,511牌坊线冀家会2","poweroffReason":"【停电原因】由于过流３段掉闸导致１１０ＫＶ涞源变电站１０ＫＶ牌坊线５１１线路全线停电【变更送电】因抢修进度加快，原定１１：３０送电现计划０７：４０送电【发布渠道】通过９５５９８发布","powerTime":"2019-10-28 07:09:04","powerComm":"已送电","subsNo":"","lineNo":"","tgNo":"","tgName":null,"infoStatus":"1","orgName":"国网涞源县供电公司","typeName":null,"infoStatusName":null,"dateDay":null,"orgNos":null,"nowTime":null,"countyName":null,"streetName":null,"villageName":null,"roadName":null,"communityName":null,"tranName":null,"sdLineName":null,"cityCode":"1340615","cityName":"国网涞源县供电公司","provinceCode":null,"stopTime":"2019-10-28 07:40:00","powerType":"全部","powerOffArea":"【全线路停电】停石道沟6,511牌坊线扯拽沟,511牌坊线石道沟西,511南上屯12,石道沟7,511牌坊线东石佛2,牌坊4,511牌坊线东石佛,511牌坊线小西庄,511南上屯8,511南上屯4,涞源县北石佛乡北上屯村村民委员会变压器,511牌坊线北上屯3,国网河北省电力公司涞源县供电分公司(北石佛所)变压器,511南上屯6,511牌坊线张家裕3,511牌坊线马庄4,511南上屯5,511牌坊线张家裕村,涞源县北石佛乡卫生院变压器,511牌坊线沿村1,511牌坊线北上屯7,511牌坊线沿村7,追风养殖场变压器2,511牌坊线龙虎寺,511北石佛4,511牌坊线石道沟东,511牌坊线马庄5,变压器004#,511北石佛3,北上屯光伏1,北上屯光伏5,511牌坊线水泉,北上屯光伏3,南上屯光伏1,北上屯光伏4,牌坊1,北上屯光伏2,涞源县涞源镇北韩村村民委员会变压器,涞源县北石佛乡南上屯村村民委员会变压器,511牌坊线石道沟3,511牌坊线北上屯5,511牌坊线沿村4号,涞源县涞源镇东夹山村村民委员会变压器,涞源站511南上屯3#,511南上屯10,赵家井1号【2018光伏扶贫电站】,511牌坊线南石佛2,南上屯光伏2,涞源县北石佛乡北石佛村村民委员会变压器,511南上屯2,511北石佛8,511牌坊线马庄,511牌坊线北上屯8,511牌坊线沿村9号,牌坊2,南上屯7【三批中心村】,石道沟4,联通保定分公司,龙虎寺机井,南上屯村机井2,511牌坊线沿村6,511牌坊线南石佛,扯拽沟水利,北上屯机井,牌坊机井,石道沟5,中国人民解放军93618部队变压器,511牌坊线香炉屯2,石道沟碎石厂-46721171,涞源县北石佛乡牌坊村村民委员会变压器-900025173837,511牌坊线香炉屯1,511牌坊线马庄3,牌坊6,赵家井2号【2018光伏扶贫电站】,南上屯砖厂,511北石佛1,南上屯机井,涞源县涞源镇沿村村民委员会变压器,涞源县涞源镇甲村村民委员会变压器,涞源县沃泰土地整理有限责任公司变压器-900025266507,力生石材经销厂,511牌坊线北上屯4,511牌坊线赵家井,511牌坊线沿村3号,涞源县涞源镇龙虎寺村村民委员会变压器,陈保军碎石厂,511北石佛10,牌坊5,511牌坊线沿村5,涞源县北石佛乡中心小学变压器3,涞源县北石佛乡北上屯村村民委员会变压器1,涞源县城全砂石有限公司变压器1,511北石佛11,511牌坊线西道沟光,511南上屯1,涞源县农村信用联社股份有限公司变压器,511牌坊线马庄2,511牌坊线南上屯,511牌坊线龙虎寺2,511牌坊线南上屯13,511牌坊线北石佛村,涞源县北石佛乡牌坊村村民委员会变压器-900026801589,511牌坊线西道沟2,保定市锐拓工程有限责任公司变压器1,511牌坊线沿村2,涞源县北石佛乡张家峪村村民委员会变压器,511牌坊线北上屯1,北石佛乡政府,涞源县涞源镇三甲村村民委员会变压器,机井,511牌坊线张家裕,511牌坊线沿村8,511牌坊线北上屯6,511牌坊线牌坊2,涞源县北石佛乡石道沟村村民委员会变压器,511南上屯9,涞源县涞源镇扯拽沟村村民委员会变压器,511牌坊线小西庄2,河北鸿顺土地开发整理有限公司变压器5,变压器003#,511牌坊线张家裕4,涞源县涞源镇小西庄村村民委员会变压器,511牌坊线北上屯2,511牌坊线冀家会,511北石佛9,涞源县北石佛乡中心小学变压器4,牌坊3,北上屯村光伏变压器【光伏】,石道沟碎石厂（照明）,李银利养鸡场,龙虎寺水利,原种厂砖厂,邓建国空心砖厂,涞源县涞源镇辛庄村村民委员会变压器,511南上屯3,511南上屯11,511牌坊线北石佛,511牌坊线冀家会2","powerOffReason":"【停电原因】由于过流３段掉闸导致１１０ＫＶ涞源变电站１０ＫＶ牌坊线５１１线路全线停电【变更送电】因抢修进度加快，原定１１：３０送电现计划０７：４０送电【发布渠道】通过９５５９８发布","powerOffId":"2019102813000086"},{"poweroffId":2019102813000072,"sgpoweroffId":null,"subsName":"","lineName":"大任线514","pubTranName":"吴村新排3【纯农排变】,五里窑光5,吴村排5【纯农排变】,落堡公用4,西陈庄光3,吴村新光4,吴村光9,落堡公用【2018年重过载】,大田新光2,五里窑新混1,吴村新光8,大任光1,东相盖光4【2018年美丽乡村】,吴村新光1,西陈庄光5,吴村新光6,西陈庄光2,东相盖光1,吴村排2变【纯农排变】,西陈庄光4,西相盖光5【2018年美丽乡村】,北大位排林场【纯农排变】,大任光4,究室新排1【纯农排变】,田候光9【2018年美丽乡村】,田侯光3【2018年四批补强】,吴村新光7,北大位排5【纯农排变】,东相盖光5【2018年美丽乡村】,北大位排4【纯农排变】,落堡光6【2018年四批补强】,大田新光8,究室光6,田候光1,南大位光7,大田新光5,大任市场公用,南大位排8【纯农排变】,南大位光6,吴村排8【纯农排变】,田候光7【2018年美丽乡村】,北大位光2,南大位光3,大田新光6,吴村排7【纯农排变】,南大位排7【纯农排变】,田候光5,东相盖光2,西陈庄光1,田候光2,北大位光6,吴村排6【纯农排变】,北大位光3,落堡公用2【2018年节能变】,大任新光2,东相盖光6【2018年美丽乡村】,大任光6【2018年四批补强】,大田新光1,新田候光4,五里窑光4,大田新光4,吴村排3变【纯农排变】,大任光5【2018年四批补强】,吴村排4【纯农排变】,小任光2【2018年四批补强】,交警大队公用,小任村内光,田候光8【2018年美丽乡村】,西厢盖光1,东相盖光3,落堡公用5【2018年重过载】,吴村新光10,田候养殖小区公用,大田新混3,吴村新光3,五里窑光2,南大位光5,吴村新光2,北大位光4,五里窑光1,南大位光4,五里窑光3,大田新光7,大田新光3,西相盖光3【2018年美丽乡村】,吴村新光5,新落堡公用1,","scope":"【影响街道/乡镇】落堡乡 【高危重要客户】无 【影响客户】陈庄、东相盖、西相盖、东落堡、南大位、北大位、大任村、小任村、吴村、田候、五里窑、大田、职中、郭坊、郭家亭、古桑","startTime":"2019-10-28 05:11:49","stopDate":"2019-10-28 10:30:00","orgNo":"1340609","typeCode":"电网故障停限电","poweroffArea":"【全线路停电】停大任排3【纯农排变】,西陈庄光3,北大位光4,五里窑光1,大任光3,北大位光6,宏洁服饰-200,0694660128-定兴县职业技术教育中心-专变-237548911-职教中心1,吴村新光3,落堡公用2【2018年节能变】,万通蔬菜100变压器,田候排1【纯农排变】,大任新光2,亨通面粉厂100,小任排【纯农排变】,田候混3,交警大队公用,田候排7【纯农排变】,北大位排4【纯农排变】,0691830072-定兴县东落堡乡中心小学-专变-235623362-东落堡中心小学-1250,兴澄萝卜合作社,东相盖排2【纯农排变】,大任市场公用,大田新光6,南大位排7【纯农排变】,小任光2【2018年四批补强】,南大位排4【纯农排变】,西厢盖排5【纯农排变】,吴村新排3【纯农排变】,新落堡公用1,东相盖光1,雄浩宇纸制品—400,南大位排8【纯农排变】,田候光9【2018年美丽乡村】,燕园牛肉饲养厂-200,160,究室新排1【纯农排变】,南大位光5,吴村排6【纯农排变】,北大位光3,富友蔬菜销售合作社,究室光6,究室排2【纯农排变】,南大位排3【纯农排变】,田候排5【纯农排变】,落堡排12【纯农排变】,常兴加油站,*昌胜煤厂,*南大养殖厂,五里窑光3,北大位光1,大田新光7,亨利面粉厂,大田新光3,田候光6,北大位光2,田候光1,北大位混1,大任排1【纯农排变】,大任排4【纯农排变】,定兴县联谊机械加工部,田候光5,南大位排1【纯农排变】,西陈庄光4,田候光8【2018年美丽乡村】,田侯面粉厂,大田新混3,落堡公用5【2018年重过载】,田候养殖小区公用,西相盖光3【2018年美丽乡村】,田候排2【纯农排变】,吴村新光8,西关排排【纯农排变】,李旭东-排,东相盖光4【2018年美丽乡村】,南大位光7,南大位光6,大田混3,100配变,古桑排7【纯农排变】,奥朗天然气-160,盛典广告装饰,职中3,吴村排5【纯农排变】,落堡公用4,田候排4【纯农排变】,落堡排13【纯农排变】,西相盖光5【2018年美丽乡村】,大任光4,田侯光3【2018年四批补强】,大田排2【纯农排变】,大田新光4,*保定恒兴食品有限公司1000,大任光5【2018年四批补强】,落堡混1,南大位光3,五里窑排2【纯农排变】,*职中2,富友蔬菜2号变-315,中国网通（集团）有限公司定兴县分公司,东相盖光5【2018年美丽乡村】,五里窑混1,吴村新光10,0694660128-定兴县职业技术教育中心-专变-237550487-职教中心2,燕城物业250,五里窑光2,古桑排2【纯农排变】,吴村新光2,南大位排5【纯农排变】,南大位光4,南大位排2【纯农排变】,吴村新光5,东相盖光2,西陈庄光1,田候光2,大任排2【纯农排变】,西陈庄光5,吴村新光6,小任光1,北大位排5【纯农排变】,大田排1【纯农排变】,汇农农牧专业合作社200,落堡光6【2018年四批补强】,田候排8【纯农排变】,大田新光8,落堡混11,北大位光5,东相盖排1【纯农排变】,吴村新光1,北大位排林场【纯农排变】,五里窑排3【纯农排变】,田候光7【2018年美丽乡村】,0694744479-定兴县东落堡乡田侯小学-专变-238553620-田侯小学,大田新光5,亿飞腾水泥制品-200,吴村排8【纯农排变】,吴村排7【纯农排变】,吴村新光4,定兴县速凝商品混凝土制造有限公司-250,吴村光9,田候混6,落堡公用【2018年重过载】,大田新光2,北大位排2【纯农排变】,落堡新村排2【纯农排变】,大任光1,北大位新混1,大任光6【2018年四批补强】,大田新光1,新田候光4,同舟粮食购销公司100,西陈庄光2,五里窑光4,东相盖光6【2018年美丽乡村】,吴村排4【纯农排变】,佳兴玉米加工厂-250,吴村排2变【纯农排变】,吴村新光7,落堡排15【纯农排变】,东相盖光3,吴村排3变【纯农排变】,落堡新村排1【纯农排变】,诚德胜家庭牧场-250,五里窑光5,古桑排1【纯农排变","poweroffReason":"【停电原因】由于东相盖排１分支４号杆避雷器引线搭担导致３５ＫＶ景安变电站大任线５１４线路全线停电 【变更送电】因抢修进度加快原因，送电时间由１２：００变更为１０：３０ 【发布渠道】通过９５５９８发布","powerTime":"2019-10-28 09:51:07","powerComm":"已送电","subsNo":"","lineNo":"","tgNo":"","tgName":null,"infoStatus":"1","orgName":"国网定兴县供电公司","typeName":null,"infoStatusName":null,"dateDay":null,"orgNos":null,"nowTime":null,"countyName":null,"streetName":null,"villageName":null,"roadName":null,"communityName":null,"tranName":null,"sdLineName":null,"cityCode":"1340609","cityName":"国网定兴县供电公司","provinceCode":null,"stopTime":"2019-10-28 10:30:00","powerType":"全部","powerOffArea":"【全线路停电】停大任排3【纯农排变】,西陈庄光3,北大位光4,五里窑光1,大任光3,北大位光6,宏洁服饰-200,0694660128-定兴县职业技术教育中心-专变-237548911-职教中心1,吴村新光3,落堡公用2【2018年节能变】,万通蔬菜100变压器,田候排1【纯农排变】,大任新光2,亨通面粉厂100,小任排【纯农排变】,田候混3,交警大队公用,田候排7【纯农排变】,北大位排4【纯农排变】,0691830072-定兴县东落堡乡中心小学-专变-235623362-东落堡中心小学-1250,兴澄萝卜合作社,东相盖排2【纯农排变】,大任市场公用,大田新光6,南大位排7【纯农排变】,小任光2【2018年四批补强】,南大位排4【纯农排变】,西厢盖排5【纯农排变】,吴村新排3【纯农排变】,新落堡公用1,东相盖光1,雄浩宇纸制品—400,南大位排8【纯农排变】,田候光9【2018年美丽乡村】,燕园牛肉饲养厂-200,160,究室新排1【纯农排变】,南大位光5,吴村排6【纯农排变】,北大位光3,富友蔬菜销售合作社,究室光6,究室排2【纯农排变】,南大位排3【纯农排变】,田候排5【纯农排变】,落堡排12【纯农排变】,常兴加油站,*昌胜煤厂,*南大养殖厂,五里窑光3,北大位光1,大田新光7,亨利面粉厂,大田新光3,田候光6,北大位光2,田候光1,北大位混1,大任排1【纯农排变】,大任排4【纯农排变】,定兴县联谊机械加工部,田候光5,南大位排1【纯农排变】,西陈庄光4,田候光8【2018年美丽乡村】,田侯面粉厂,大田新混3,落堡公用5【2018年重过载】,田候养殖小区公用,西相盖光3【2018年美丽乡村】,田候排2【纯农排变】,吴村新光8,西关排排【纯农排变】,李旭东-排,东相盖光4【2018年美丽乡村】,南大位光7,南大位光6,大田混3,100配变,古桑排7【纯农排变】,奥朗天然气-160,盛典广告装饰,职中3,吴村排5【纯农排变】,落堡公用4,田候排4【纯农排变】,落堡排13【纯农排变】,西相盖光5【2018年美丽乡村】,大任光4,田侯光3【2018年四批补强】,大田排2【纯农排变】,大田新光4,*保定恒兴食品有限公司1000,大任光5【2018年四批补强】,落堡混1,南大位光3,五里窑排2【纯农排变】,*职中2,富友蔬菜2号变-315,中国网通（集团）有限公司定兴县分公司,东相盖光5【2018年美丽乡村】,五里窑混1,吴村新光10,0694660128-定兴县职业技术教育中心-专变-237550487-职教中心2,燕城物业250,五里窑光2,古桑排2【纯农排变】,吴村新光2,南大位排5【纯农排变】,南大位光4,南大位排2【纯农排变】,吴村新光5,东相盖光2,西陈庄光1,田候光2,大任排2【纯农排变】,西陈庄光5,吴村新光6,小任光1,北大位排5【纯农排变】,大田排1【纯农排变】,汇农农牧专业合作社200,落堡光6【2018年四批补强】,田候排8【纯农排变】,大田新光8,落堡混11,北大位光5,东相盖排1【纯农排变】,吴村新光1,北大位排林场【纯农排变】,五里窑排3【纯农排变】,田候光7【2018年美丽乡村】,0694744479-定兴县东落堡乡田侯小学-专变-238553620-田侯小学,大田新光5,亿飞腾水泥制品-200,吴村排8【纯农排变】,吴村排7【纯农排变】,吴村新光4,定兴县速凝商品混凝土制造有限公司-250,吴村光9,田候混6,落堡公用【2018年重过载】,大田新光2,北大位排2【纯农排变】,落堡新村排2【纯农排变】,大任光1,北大位新混1,大任光6【2018年四批补强】,大田新光1,新田候光4,同舟粮食购销公司100,西陈庄光2,五里窑光4,东相盖光6【2018年美丽乡村】,吴村排4【纯农排变】,佳兴玉米加工厂-250,吴村排2变【纯农排变】,吴村新光7,落堡排15【纯农排变】,东相盖光3,吴村排3变【纯农排变】,落堡新村排1【纯农排变】,诚德胜家庭牧场-250,五里窑光5,古桑排1【纯农排变","powerOffReason":"【停电原因】由于东相盖排１分支４号杆避雷器引线搭担导致３５ＫＶ景安变电站大任线５１４线路全线停电 【变更送电】因抢修进度加快原因，送电时间由１２：００变更为１０：３０ 【发布渠道】通过９５５９８发布","powerOffId":"2019102813000072"},{"poweroffId":2019102813000061,"sgpoweroffId":null,"subsName":"","lineName":"10KV魏村551","pubTranName":"魏村东台区变压器,西水北南台区变压器,薛家庄高速西台区,魏村西井变压器,东水北村内台区变压器,魏村西台区变压器【冬季供暖设施】,西水北东台区变压器,魏村村北变压器,薛家庄村内变压器,魏村西南台区变压器,魏村村南2台区变压器,薛家庄东井变压器,西水北北台区变压器,魏村南台区变压器,魏村村西二台区变压器,魏村村北井变压器,魏村张玉江台区变压器,西水北砖厂台区1变压器,薛家庄高速东台区,魏村西北台区变压器,","scope":"【影响街道/乡镇】涞水镇 【高危重要客户】无 【影响客户】西水北村、东水北村、薛家庄村村内、魏村","startTime":"2019-10-28 05:05:28","stopDate":"2019-10-28 10:00:00","orgNo":"1340614","typeCode":"电网故障停限电","poweroffArea":"【全线路停电】停国兴兆烨建材公司630KVA专变,西水北村内变压器,魏村张玉江台区变压器,西水北山坡顶变压器,西水北砖厂台区1变压器,薛家庄高速东台区,水北建筑水泥制品厂,魏村东台区变压器,涞水国兴兆烨建筑材料制造有限公司630KVA专变,西水北南台区变压器,魏村西北台区变压器,东水北东台区变压器,魏村西南台区变压器,薛家庄高速西台区,魏村西井变压器,东水北村内台区变压器,水北水泥制品厂250KVA专变,付铁刚变压器,魏村西台区变压器【冬季供暖设施】,西水北东台区变压器,魏村村北变压器,东水北南台区变压器,薛家庄村内变压器,魏村村南2台区变压器,西水北果园变压器,水北加油站,薛家庄东井变压器,西水北北台区变压器,张文坡面粉厂,魏村南台区变压器,西水北中学变压器,魏村村西二台区变压器,魏村村北井变压器","poweroffReason":"【停电原因】由于断路器跳闸导致２２０ＫＶ涞阳变电站１０ＫＶ魏村５５１线路全线停电 【变更送电】因抢修进度加快原因，送电时间由１２：００变更为１０：００ 【发布渠道】通过９５５９８发布","powerTime":"2019-10-28 09:06:44","powerComm":"已送电","subsNo":"","lineNo":"","tgNo":"","tgName":null,"infoStatus":"1","orgName":"国网涞水县供电公司","typeName":null,"infoStatusName":null,"dateDay":null,"orgNos":null,"nowTime":null,"countyName":null,"streetName":null,"villageName":null,"roadName":null,"communityName":null,"tranName":null,"sdLineName":null,"cityCode":"1340614","cityName":"国网涞水县供电公司","provinceCode":null,"stopTime":"2019-10-28 10:00:00","powerType":"全部","powerOffArea":"【全线路停电】停国兴兆烨建材公司630KVA专变,西水北村内变压器,魏村张玉江台区变压器,西水北山坡顶变压器,西水北砖厂台区1变压器,薛家庄高速东台区,水北建筑水泥制品厂,魏村东台区变压器,涞水国兴兆烨建筑材料制造有限公司630KVA专变,西水北南台区变压器,魏村西北台区变压器,东水北东台区变压器,魏村西南台区变压器,薛家庄高速西台区,魏村西井变压器,东水北村内台区变压器,水北水泥制品厂250KVA专变,付铁刚变压器,魏村西台区变压器【冬季供暖设施】,西水北东台区变压器,魏村村北变压器,东水北南台区变压器,薛家庄村内变压器,魏村村南2台区变压器,西水北果园变压器,水北加油站,薛家庄东井变压器,西水北北台区变压器,张文坡面粉厂,魏村南台区变压器,西水北中学变压器,魏村村西二台区变压器,魏村村北井变压器","powerOffReason":"【停电原因】由于断路器跳闸导致２２０ＫＶ涞阳变电站１０ＫＶ魏村５５１线路全线停电 【变更送电】因抢修进度加快原因，送电时间由１２：００变更为１０：００ 【发布渠道】通过９５５９８发布","powerOffId":"2019102813000061"}],"pageModel":{"pageNow":437,"totalCount":10973,"totalPage":1098,"tableRows":0,"pageCount":10,"beginCount":4360},"isExperi":"1"}