{"message":"","today":"2020-06-15","seleList":[{"poweroffId":2019102713000062,"sgpoweroffId":null,"subsName":"","lineName":"10kV513新兴线","pubTranName":"西新兴村西南综合5433,西新兴新增综合0082,东赵庄综合2830|27002830,西新兴1200|27001200,新兴村内5465,西新兴综合2840|27002840,西新兴村内新增综合,南新兴村内2530|27002530,赵家庄1320|27001320,西新兴村南新增综合2879,南新兴1260|27001260,东赵庄1370|27001370,东新兴村南综合,六四庄1110|27001110,西新兴1140|27001140,南新兴2240|27002240,西新兴村西新增综合,六四庄2720|27002720,西新兴北综合2650|27002650,六四庄村西北综合6406,东赵庄村2670|27002670,东新兴新增综合1365,东赵庄新增综合0086,东赵庄西南综合0703,南新兴1250|27001250,西新兴1160|27001160,","scope":"【影响街道/乡镇】腰山镇、高于铺镇【高危重要客户】无【影响客户】六四庄、西新兴、南新兴、东赵庄","startTime":"2019-11-06 06:00:00","stopDate":"2019-11-06 19:30:00","orgNo":"1340621","typeCode":"计划停电","poweroffArea":"【全线路停电】停西新兴1140|27001140,东赵庄西南综合0703,南新兴2240|27002240,西新兴村西新增综合,六四庄2720|27002720,西新兴北综合2650|27002650,南新兴1250|27001250,西新兴1160|27001160,西新兴综合2840|27002840,西新兴村西南综合5433,西新兴新增综合0082,东赵庄综合2830|27002830,西新兴1200|27001200,新兴村内5465,西新兴村内新增综合,南新兴村内2530|27002530,赵家庄1320|27001320,西新兴村南新增综合2879,南新兴1260|27001260,东赵庄1370|27001370,东新兴村南综合,六四庄1110|27001110,六四庄村西北综合6406,东赵庄村2670|27002670,东新兴新增综合1365,东赵庄新增综合0086","poweroffReason":"【停电原因】由于电力电缆例行试验、线路综检导致３５ＫＶ四通变电站１０ＫＶ５１３新兴线路全线停电【变更送电】因计划工作进度加快原因，送电时间由２０：００变更为１９：３０【发布渠道】顺平县电视台（１０月２８日至１１月０５日２０时至２１时之间）屏幕上方滚动字幕","powerTime":"2019-11-06 18:50:07","powerComm":"已送电","subsNo":"","lineNo":"","tgNo":"","tgName":null,"infoStatus":"1","orgName":"国网顺平县电力局","typeName":null,"infoStatusName":null,"dateDay":null,"orgNos":null,"nowTime":null,"countyName":null,"streetName":null,"villageName":null,"roadName":null,"communityName":null,"tranName":null,"sdLineName":null,"cityCode":"1340621","cityName":"国网顺平县电力局","provinceCode":null,"stopTime":"2019-11-06 19:30:00","powerType":"全部","powerOffArea":"【全线路停电】停西新兴1140|27001140,东赵庄西南综合0703,南新兴2240|27002240,西新兴村西新增综合,六四庄2720|27002720,西新兴北综合2650|27002650,南新兴1250|27001250,西新兴1160|27001160,西新兴综合2840|27002840,西新兴村西南综合5433,西新兴新增综合0082,东赵庄综合2830|27002830,西新兴1200|27001200,新兴村内5465,西新兴村内新增综合,南新兴村内2530|27002530,赵家庄1320|27001320,西新兴村南新增综合2879,南新兴1260|27001260,东赵庄1370|27001370,东新兴村南综合,六四庄1110|27001110,六四庄村西北综合6406,东赵庄村2670|27002670,东新兴新增综合1365,东赵庄新增综合0086","powerOffReason":"【停电原因】由于电力电缆例行试验、线路综检导致３５ＫＶ四通变电站１０ＫＶ５１３新兴线路全线停电【变更送电】因计划工作进度加快原因，送电时间由２０：００变更为１９：３０【发布渠道】顺平县电视台（１０月２８日至１１月０５日２０时至２１时之间）屏幕上方滚动字幕","powerOffId":"2019102713000062"},{"poweroffId":2019102713000059,"sgpoweroffId":null,"subsName":"","lineName":"10kV514北堡线","pubTranName":"东韩童村中新增综合0090,东北堡村内新增综合,苏家营村东新增综合0198,西北堡1580|27001580,北新兴1490|27001490,永旺村西综合2870|27002870,永旺新增综合0380,东新兴村新增综合1841,东北堡村南综合,南营村内新增综合,辛阳1620|27001620,东韩童2940|27002940,东韩童村南新增综合1367,苏家营村西1810|27001810,永旺村西1750|27001750,东北堡新增综合0919,苏家营村内综合5378,西北堡村内综合5376,南营2960|27002960,南营1560|27001560,西北堡新增综合0378,南营村西综合0381,东韩童村东新增综合,东北堡1690|27001690,东韩童内综合1880|27001880,东韩童村东综合2680|27002680,东北堡1660|27001660,东韩童村南1820|27001820,东韩童村北新增综合0091,南营1510|27001510,东韩童综合4台区5975,东新兴1440|27001440,2210,新兴村西内5461,北新兴宝栓2010|27002010,南营村新增综合1840,北新兴1450|27001450,辛阳1630|27001630,","scope":"【影响街道/乡镇】腰山镇【高危重要客户】无【影响客户】东北堡、西北堡、南营、北新兴、东韩童、东新兴、永旺、苏家营、辛阳","startTime":"2019-11-06 06:00:00","stopDate":"2019-11-06 19:30:00","orgNo":"1340621","typeCode":"计划停电","poweroffArea":"【全线路停电】停东韩童村中新增综合0090,东北堡村内新增综合,苏家营村东新增综合0198,西北堡1580|27001580,北新兴1490|27001490,永旺村西综合2870|27002870,永旺新增综合0380,东新兴村新增综合1841,东北堡村南综合,南营村内新增综合,辛阳1620|27001620,东韩童2940|27002940,东韩童村南新增综合1367,苏家营村西1810|27001810,永旺村西1750|27001750,东北堡新增综合0919,苏家营村内综合5378,西北堡村内综合5376,南营2960|27002960,南营1560|27001560,西北堡新增综合0378,南营村西综合0381,东韩童村东新增综合,东北堡1690|27001690,东韩童内综合1880|27001880,东韩童村东综合2680|27002680,东北堡1660|27001660,东韩童村南1820|27001820,东韩童村北新增综合0091,南营1510|27001510,东韩童综合4台区5975,东新兴1440|27001440,2210,新兴村西内5461,北新兴宝栓2010|27002010,南营村新增综合1840,北新兴1450|27001450,辛阳1630|27001630","poweroffReason":"【停电原因】由于电力电缆例行试验、线路综检导致３５ＫＶ四通变电站１０ＫＶ５１４北堡线路全线停电【变更送电】因计划工作进度加快原因，送电时间由２０：００变更为１９：３０【发布渠道】顺平县电视台（１０月２８日至１１月０５日２０时至２１时之间）屏幕上方滚动字幕","powerTime":"2019-11-06 18:52:33","powerComm":"已送电","subsNo":"","lineNo":"","tgNo":"","tgName":null,"infoStatus":"1","orgName":"国网顺平县电力局","typeName":null,"infoStatusName":null,"dateDay":null,"orgNos":null,"nowTime":null,"countyName":null,"streetName":null,"villageName":null,"roadName":null,"communityName":null,"tranName":null,"sdLineName":null,"cityCode":"1340621","cityName":"国网顺平县电力局","provinceCode":null,"stopTime":"2019-11-06 19:30:00","powerType":"全部","powerOffArea":"【全线路停电】停东韩童村中新增综合0090,东北堡村内新增综合,苏家营村东新增综合0198,西北堡1580|27001580,北新兴1490|27001490,永旺村西综合2870|27002870,永旺新增综合0380,东新兴村新增综合1841,东北堡村南综合,南营村内新增综合,辛阳1620|27001620,东韩童2940|27002940,东韩童村南新增综合1367,苏家营村西1810|27001810,永旺村西1750|27001750,东北堡新增综合0919,苏家营村内综合5378,西北堡村内综合5376,南营2960|27002960,南营1560|27001560,西北堡新增综合0378,南营村西综合0381,东韩童村东新增综合,东北堡1690|27001690,东韩童内综合1880|27001880,东韩童村东综合2680|27002680,东北堡1660|27001660,东韩童村南1820|27001820,东韩童村北新增综合0091,南营1510|27001510,东韩童综合4台区5975,东新兴1440|27001440,2210,新兴村西内5461,北新兴宝栓2010|27002010,南营村新增综合1840,北新兴1450|27001450,辛阳1630|27001630","powerOffReason":"【停电原因】由于电力电缆例行试验、线路综检导致３５ＫＶ四通变电站１０ＫＶ５１４北堡线路全线停电【变更送电】因计划工作进度加快原因，送电时间由２０：００变更为１９：３０【发布渠道】顺平县电视台（１０月２８日至１１月０５日２０时至２１时之间）屏幕上方滚动字幕","powerOffId":"2019102713000059"},{"poweroffId":2019102713000051,"sgpoweroffId":null,"subsName":"","lineName":"10kV511才良线","pubTranName":"才良村北综合2860|27002860,才良270|27000270,西韩童20综合|27000020,西韩童60|27000060,才良村西新建综合5388,才良学校综合1850,西韩童2330综合|27002330,韩新庄综合2号7672,才良村170|27000170,才良村180|27000180,才良村西新增综合2号,才良村北新增综合1432,才良2760|27002760,西韩童村北新增综合1169,西韩童村内新增综合1172,旧西庄140|27000140,韩新庄100|27000100,西韩童南综合2850|27002850,旧西庄130|27000130,西韩童村东综合1855,才良村160|27000160,西韩童东南综合0390,才良村东新增综合,韩旧庄综合1842,韩新庄村东综合7776,西韩童50|27000050,","scope":"【影响街道/乡镇】腰山镇【高危重要客户】无【影响客户】才良、西韩童、韩新庄、韩旧庄","startTime":"2019-11-06 06:00:00","stopDate":"2019-11-06 19:30:00","orgNo":"1340621","typeCode":"计划停电","poweroffArea":"【全线路停电】停才良村北综合2860|27002860,才良270|27000270,西韩童20综合|27000020,西韩童60|27000060,才良村西新建综合5388,才良学校综合1850,西韩童2330综合|27002330,韩新庄综合2号7672,才良村170|27000170,才良村180|27000180,才良村西新增综合2号,才良村北新增综合1432,才良2760|27002760,西韩童村北新增综合1169,西韩童村内新增综合1172,旧西庄140|27000140,韩新庄100|27000100,西韩童南综合2850|27002850,旧西庄130|27000130,西韩童村东综合1855,才良村160|27000160,西韩童东南综合0390,才良村东新增综合,韩旧庄综合1842,韩新庄村东综合7776,西韩童50|27000050","poweroffReason":"【停电原因】由于电力电缆例行试验、线路综检导致３５ＫＶ四通变电站１０ＫＶ５１１才良线路全线停电【变更送电】因计划工作进度加快原因，送电时间由２０：００变更为１９：３０【发布渠道】顺平县电视台（１０月２８日至１１月０５日２０时至２１时之间）屏幕上方滚动字幕","powerTime":"2019-11-06 18:55:24","powerComm":"已送电","subsNo":"","lineNo":"","tgNo":"","tgName":null,"infoStatus":"1","orgName":"国网顺平县电力局","typeName":null,"infoStatusName":null,"dateDay":null,"orgNos":null,"nowTime":null,"countyName":null,"streetName":null,"villageName":null,"roadName":null,"communityName":null,"tranName":null,"sdLineName":null,"cityCode":"1340621","cityName":"国网顺平县电力局","provinceCode":null,"stopTime":"2019-11-06 19:30:00","powerType":"全部","powerOffArea":"【全线路停电】停才良村北综合2860|27002860,才良270|27000270,西韩童20综合|27000020,西韩童60|27000060,才良村西新建综合5388,才良学校综合1850,西韩童2330综合|27002330,韩新庄综合2号7672,才良村170|27000170,才良村180|27000180,才良村西新增综合2号,才良村北新增综合1432,才良2760|27002760,西韩童村北新增综合1169,西韩童村内新增综合1172,旧西庄140|27000140,韩新庄100|27000100,西韩童南综合2850|27002850,旧西庄130|27000130,西韩童村东综合1855,才良村160|27000160,西韩童东南综合0390,才良村东新增综合,韩旧庄综合1842,韩新庄村东综合7776,西韩童50|27000050","powerOffReason":"【停电原因】由于电力电缆例行试验、线路综检导致３５ＫＶ四通变电站１０ＫＶ５１１才良线路全线停电【变更送电】因计划工作进度加快原因，送电时间由２０：００变更为１９：３０【发布渠道】顺平县电视台（１０月２８日至１１月０５日２０时至２１时之间）屏幕上方滚动字幕","powerOffId":"2019102713000051"},{"poweroffId":2019102713000049,"sgpoweroffId":null,"subsName":"","lineName":"10kV东闾二街529线","pubTranName":"1东吕三街内4,东吕三街内6,东吕小学1,东吕乡政府2,东吕小学2,1东吕二街内4,东吕三街内1,东吕二街内2,1东吕二街内5,1张登中学东吕分校2,东吕乡政府,东吕小学3,1张登中学东吕分校1,1东吕二街内7,东吕三街内7,","scope":"【影响街道/乡镇】东吕乡 【高危重要客户】无 【影响客户】东吕三街村、东吕二街村","startTime":"2019-11-05 06:30:00","stopDate":"2019-11-05 21:00:00","orgNo":"1340618","typeCode":"计划停电","poweroffArea":"【全线路停电】停清苑县玉田起重设备有限公司04,清苑鑫川崎起重机械有限公司01,东吕二街村北1,清苑鑫川崎起重机械制造有限公司,清苑县川岛起重机械制造有限公司,东吕三街内1,清苑县海源起重滑车厂,0646533346-保定源爱商贸有限公司-专变-169920345-保定源爱商贸有限公司,东吕蔡克亮配件加工,东吕二街内2,东吕中学,清苑县玉田起重设备有限公司,河北神力索具集团有限公司,1张登中学东吕分校2,东吕蔡双柱配件加工,0387489795-保定东方机械有限公司-专变-45315218-保定东方机械有限公司,东吕张景跃配件加工,东吕乡政府,清苑县臣力起重吊索具制造有限公司,清苑冀力起重索具制造有限公司-900028541564-柱上-用户变压器2,保定市东方机械有限公司,东吕小学3,清苑臣力起重吊索具制造有限公司,清苑县臣力起重吊索具制造有限公司01,1东吕二街内7,东吕三街内7,河北诺诺起重设备制造有限公司,清苑县玉田起重设备有限公司01,中国移动通信集团河北有限公司保定分公司,清苑县神力起重机械厂,清苑鑫川崎起重机械有限公司,清苑县天诚起重设备厂,清苑县老山机械加工厂,1东吕二街内4,东吕三街村北,1张登中学东吕分校1,东吕苏满收配件加工,清苑东吕营业部,0598423133-清苑县博海起重机械厂-专变-126432923-清苑县博海起重机械厂,清苑臣力起重吊索具制造有限公司1,保定京鸽起重机械制造有限公司,东吕崔新成配件加工,东吕五花起重设备公司,东吕苏佩中配件加工,保定恒力起重机械厂有限公司,东吕西一,东吕崔玉兴配件加工,保定凯诚纤维科技有限公司,东吕小学2,东吕教堂,保定市华欣起重机械制造有限公司,保定起重运输设备厂,保定恒力起重机械有限公司,河北神力索具有限公司,1东吕二街内5,公路西,0666477592-保定市清苑区昱力特电力机具制造厂-专变-208302402-保定市清苑区昱力特电力机具制造厂,东吕营头道东,河北凯澄起重机械有限公司,清苑县玉田起重设备有限公司03,0387493075-中国电信股份有限公司保定分公司-专变-45315581-中国电信集团公司河北网络资产分公司,清苑伟业起重机械制造有限公司,河北辰力吊索具制造有限公司,保定市华欣起重机械制造有限公司01,保定恒力起重机械有限公司01,东吕乡政府2,0598428268-清苑县津工机械有限公司-专变-126432828-清苑县津工机械有限公司,清苑县臣力起重吊索具制造有限公司02,东吕华欣起重设备公司,清苑县天诚起重机械设备有限公司,清苑县玉田起重设备有限公司02,东吕三星配件厂,0554488806-河北神力索具集团有限公司-专变-77785653-河北神力索具有限公司,1东吕三街内4,清苑县川岛起重机械制造有限公司01,0387491255-东吕东一-专变-45315500-东吕东一,0387493091-清苑县神力起重机械厂-专变-45315425-清苑县神力起重机械厂,保定京鸽起重机械制造有限公司01,东吕三街内6,清苑县圣牌起重设备厂,东吕二街村东,清苑冀力起重索具制造有限公司-900028336571-柱上-用户变压器1,东吕小学1,0478109058-东吕村委会二街-专变-46910849-东吕村委会二街","poweroffReason":"【停电原因】由于换杆、换线导致１１０ＫＶ东闾变电站１０ＫＶ东闾二街５２９线路全线停电 【变更送电】因工作量大，送电时间由１８：００变更为２１：００ 【发布渠道】保定市清苑区电视台（２０１９年１０月２８日１９时至１１月０４日２０时之间）屏幕上方滚动","powerTime":"2019-11-05 20:22:50","powerComm":"王建英通知已送电","subsNo":"","lineNo":"","tgNo":"","tgName":null,"infoStatus":"1","orgName":"国网清苑县供电公司","typeName":null,"infoStatusName":null,"dateDay":null,"orgNos":null,"nowTime":null,"countyName":null,"streetName":null,"villageName":null,"roadName":null,"communityName":null,"tranName":null,"sdLineName":null,"cityCode":"1340618","cityName":"国网清苑县供电公司","provinceCode":null,"stopTime":"2019-11-05 21:00:00","powerType":"全部","powerOffArea":"【全线路停电】停清苑县玉田起重设备有限公司04,清苑鑫川崎起重机械有限公司01,东吕二街村北1,清苑鑫川崎起重机械制造有限公司,清苑县川岛起重机械制造有限公司,东吕三街内1,清苑县海源起重滑车厂,0646533346-保定源爱商贸有限公司-专变-169920345-保定源爱商贸有限公司,东吕蔡克亮配件加工,东吕二街内2,东吕中学,清苑县玉田起重设备有限公司,河北神力索具集团有限公司,1张登中学东吕分校2,东吕蔡双柱配件加工,0387489795-保定东方机械有限公司-专变-45315218-保定东方机械有限公司,东吕张景跃配件加工,东吕乡政府,清苑县臣力起重吊索具制造有限公司,清苑冀力起重索具制造有限公司-900028541564-柱上-用户变压器2,保定市东方机械有限公司,东吕小学3,清苑臣力起重吊索具制造有限公司,清苑县臣力起重吊索具制造有限公司01,1东吕二街内7,东吕三街内7,河北诺诺起重设备制造有限公司,清苑县玉田起重设备有限公司01,中国移动通信集团河北有限公司保定分公司,清苑县神力起重机械厂,清苑鑫川崎起重机械有限公司,清苑县天诚起重设备厂,清苑县老山机械加工厂,1东吕二街内4,东吕三街村北,1张登中学东吕分校1,东吕苏满收配件加工,清苑东吕营业部,0598423133-清苑县博海起重机械厂-专变-126432923-清苑县博海起重机械厂,清苑臣力起重吊索具制造有限公司1,保定京鸽起重机械制造有限公司,东吕崔新成配件加工,东吕五花起重设备公司,东吕苏佩中配件加工,保定恒力起重机械厂有限公司,东吕西一,东吕崔玉兴配件加工,保定凯诚纤维科技有限公司,东吕小学2,东吕教堂,保定市华欣起重机械制造有限公司,保定起重运输设备厂,保定恒力起重机械有限公司,河北神力索具有限公司,1东吕二街内5,公路西,0666477592-保定市清苑区昱力特电力机具制造厂-专变-208302402-保定市清苑区昱力特电力机具制造厂,东吕营头道东,河北凯澄起重机械有限公司,清苑县玉田起重设备有限公司03,0387493075-中国电信股份有限公司保定分公司-专变-45315581-中国电信集团公司河北网络资产分公司,清苑伟业起重机械制造有限公司,河北辰力吊索具制造有限公司,保定市华欣起重机械制造有限公司01,保定恒力起重机械有限公司01,东吕乡政府2,0598428268-清苑县津工机械有限公司-专变-126432828-清苑县津工机械有限公司,清苑县臣力起重吊索具制造有限公司02,东吕华欣起重设备公司,清苑县天诚起重机械设备有限公司,清苑县玉田起重设备有限公司02,东吕三星配件厂,0554488806-河北神力索具集团有限公司-专变-77785653-河北神力索具有限公司,1东吕三街内4,清苑县川岛起重机械制造有限公司01,0387491255-东吕东一-专变-45315500-东吕东一,0387493091-清苑县神力起重机械厂-专变-45315425-清苑县神力起重机械厂,保定京鸽起重机械制造有限公司01,东吕三街内6,清苑县圣牌起重设备厂,东吕二街村东,清苑冀力起重索具制造有限公司-900028336571-柱上-用户变压器1,东吕小学1,0478109058-东吕村委会二街-专变-46910849-东吕村委会二街","powerOffReason":"【停电原因】由于换杆、换线导致１１０ＫＶ东闾变电站１０ＫＶ东闾二街５２９线路全线停电 【变更送电】因工作量大，送电时间由１８：００变更为２１：００ 【发布渠道】保定市清苑区电视台（２０１９年１０月２８日１９时至１１月０４日２０时之间）屏幕上方滚动","powerOffId":"2019102713000049"},{"poweroffId":2019102713000046,"sgpoweroffId":null,"subsName":"","lineName":"龙堂546线路","pubTranName":"庄伙11号变压器,龙堂03号变压器,龙堂16号变压器,龙堂15号变压器,龙堂09号变压器,龙堂12号变压器,龙堂07号变压器,龙堂10号变压器,龙堂11号变压器,龙堂08号变压器,龙堂13号变压器,龙堂14号变压器,庄伙04号变压器,庄伙07号变压器,庄伙09号变压器,0743759135-高碑店市中誉房地产开发有限公司02,龙堂06号变压器,庄伙08号变压器,庄伙01号变压器,庄伙02号变压器,龙堂04号变压器,龙堂01号变压器,庄伙05号变压器,庄伙03号变压器,龙堂05号变压器,0743759135-高碑店市中誉房地产开发有限公司01,庄伙10号变压器,龙堂02号变压器,庄伙06号变压器,","scope":"【影响街道/乡镇】东盛办事处、梁家营乡 【高危重要客户】无 【影响客户】龙堂村、庄伙村","startTime":"2019-11-05 06:00:00","stopDate":"2019-11-05 10:00:00","orgNo":"1340612","typeCode":"计划停电","poweroffArea":"【分支停电】停龙堂16号变压器,龙堂15号变压器,龙堂09号变压器,龙堂12号变压器,龙堂07号变压器,龙堂10号变压器,龙堂11号变压器,龙堂08号变压器,龙堂13号变压器,龙堂14号变压器,庄伙04号变压器,庄伙07号变压器,庄伙09号变压器,0743759135-高碑店市中誉房地产开发有限公司02,龙堂01号变压器,庄伙05号变压器,庄伙03号变压器,龙堂05号变压器,0743759135-高碑店市中誉房地产开发有限公司01,庄伙10号变压器,龙堂02号变压器,庄伙06号变压器,庄伙11号变压器,龙堂03号变压器,龙堂06号变压器,庄伙08号变压器,庄伙01号变压器,庄伙02号变压器,龙堂04号变压器","poweroffReason":"【停电原因】由于配变接引导致１１０ＫＶ方官变电站１０ＫＶ龙堂５４６线路０５号刀闸以下停电 【变更送电】因抢修进度加快原因，送电时间由１２：００变更为１０：００ 【发布渠道】高碑店市高碑店电视台（１０月２８日０８时至１１月０４日１８时之间）屏幕上方滚动","powerTime":"2019-11-05 09:58:48","powerComm":"已送电","subsNo":"","lineNo":"","tgNo":"","tgName":null,"infoStatus":"1","orgName":"国网高碑店市供电公司","typeName":null,"infoStatusName":null,"dateDay":null,"orgNos":null,"nowTime":null,"countyName":null,"streetName":null,"villageName":null,"roadName":null,"communityName":null,"tranName":null,"sdLineName":null,"cityCode":"1340612","cityName":"国网高碑店市供电公司","provinceCode":null,"stopTime":"2019-11-05 10:00:00","powerType":"全部","powerOffArea":"【分支停电】停龙堂16号变压器,龙堂15号变压器,龙堂09号变压器,龙堂12号变压器,龙堂07号变压器,龙堂10号变压器,龙堂11号变压器,龙堂08号变压器,龙堂13号变压器,龙堂14号变压器,庄伙04号变压器,庄伙07号变压器,庄伙09号变压器,0743759135-高碑店市中誉房地产开发有限公司02,龙堂01号变压器,庄伙05号变压器,庄伙03号变压器,龙堂05号变压器,0743759135-高碑店市中誉房地产开发有限公司01,庄伙10号变压器,龙堂02号变压器,庄伙06号变压器,庄伙11号变压器,龙堂03号变压器,龙堂06号变压器,庄伙08号变压器,庄伙01号变压器,庄伙02号变压器,龙堂04号变压器","powerOffReason":"【停电原因】由于配变接引导致１１０ＫＶ方官变电站１０ＫＶ龙堂５４６线路０５号刀闸以下停电 【变更送电】因抢修进度加快原因，送电时间由１２：００变更为１０：００ 【发布渠道】高碑店市高碑店电视台（１０月２８日０８时至１１月０４日１８时之间）屏幕上方滚动","powerOffId":"2019102713000046"},{"poweroffId":2019102713000044,"sgpoweroffId":null,"subsName":"","lineName":"10kV东闾北一街530线","pubTranName":"1东吕一街内1,1东吕一街内8,1东吕二街内6,1东吕一街内6,1东吕一街内7,1东吕一街内2,1东吕三街内8,1东吕一街内11,1东吕一街内9,1东吕一街内12,东吕二街内3,1东吕三街内5,东吕二街内1,1东吕一街内10,东吕三街内2,1东吕一街内3,1东吕一街内5,1东吕一街内13,1东吕三街内3,","scope":"【影响街道/乡镇】东吕乡 【高危重要客户】无 【影响客户】东吕一街村、东吕二街村、东吕三街村","startTime":"2019-11-05 06:30:00","stopDate":"2019-11-05 21:00:00","orgNo":"1340618","typeCode":"计划停电","poweroffArea":"【全线路停电】停保定市清苑区艾菲特起重机械厂,东吕杨恩占配件加工,东吕付彦微配件加工,东吕三街内2,东吕杨蕴辉,东吕东威工具公司,1东吕一街内3,清苑县凯利特起重机械厂,河北双业起重机械有限公司01,东吕苏立成配件加工,清苑县双业起重机械有限公司01,1东吕一街内5,1东吕一街内8,1东吕二街内6,清苑县威龙起重机械有限公司,保定巨鹰起重机械制造有限公司1,河北巨威起重机械制造有限公司,保定市清苑区天润娇纺织厂,1东吕三街内5,清苑县东吕小康链条加工厂,东吕三街村西,0575136047-清苑县威龙起重机械有限公司-专变-123928961-清苑县威龙起重机械有限公司,清苑县超凡起重设备厂,张树昌配件加工厂,东吕果园,0549287867-清苑县伟力起重机械制造有限公司-专变-175498337-清苑县伟力起重机械制造有限公司,杭州双力起重机械有限公司清苑分公司,东吕二街内1,1东吕一街内10,保定巨鹰起重机械制造有限公司-1,保定市清苑区东闾乡小天使幼儿园,清苑县旭光起重机械配件厂,河北蒙德起重机械制造有限公司,清苑县龙腾配件厂,河北凯澄起重机械有限公司,1东吕一街内2,1东吕三街内8,天航机械,东吕苏佩中配件加工,河北双业起重机械有限公司,河北维大力起重设备制造有限公司,清苑县五环起重机械制造有限公司,1东吕一街内11,清苑县新宇起重机械有限公司,东吕二街村外,0575136047-清苑县威龙起重机械有限公司-专变-123928567-清苑县威龙起重机械有限公司,清苑县伟力起重机械制造有限公司东吕分公司,0387491893-清苑县巨力起重机械有限公司-专变-192915897-清苑县洪飞链条厂,1东吕一街内9,保定安泰起重机械有限公司,1东吕一街内12,清苑县绍华起重机械厂,保定三龙起重机械有限公司,0555744594-东吕村委会-专变-94729171-东吕村委会,河北佳帅起重机械制造有限公司,保定市清苑区森杰纺织厂,东吕三街村西北,1东吕一街内1,东吕杜大青配件加工,东吕李长龙配件加工,东吕东八,0387491196-东吕东三-专变-45315502-东吕东三,东吕东二,0387490470-河北佳力起重索具制造有限公司-专变-45315520-清苑县威龙起重机械有限公司1,金龙手拉葫芦配件厂,1东吕一街内6,0575136047-清苑县威龙起重机械有限公司-专变-123928595-清苑县威龙起重机械有限公司,清苑县双业起重机械有限公司,河北庆泰起重机械制造有限公司,清苑县东广起重配件厂,清苑县联合起重机械厂,0387491806-河北东特起重机械制造有限公司-专变-45315516-东吕王凤池配件加工,清苑县天航机械有限公司2,清苑县天航机械有限公司1,东吕苏占良配件加工,0387489867-河北东特起重机械制造有限公司-专变-45315515-清苑县腾飞起重设备厂,东吕二街野外,保定京鸽起重机械制造有限公司,河北宇雕起重设备有限公司,保定市清苑区艾菲特起重机械厂01,清苑县鸣宇起重设备厂,东吕杨华池配件加工01,清苑县北极星起重机械厂,清苑县东闾水厂,东吕崔同芬配件加工,东吕杨华池配件加工,保定市立荣纺织厂,1东吕一街内7,清苑县威腾起重设备制造有限公,河北巨人起重机械有限公司,保定诚然起重机械制造有限公司,东吕村委会,清苑县军民起重机械有限公司,东吕二街内3,1东吕一街内13,东吕西二,保定庆泰起重机械制造有限公司,1东吕三街内3","poweroffReason":"【停电原因】由于换杆、换线导致１１０ＫＶ东闾变电站１０ＫＶ东闾北一街５３０线路全线停电 【变更送电】因工作量大，送电时间由１８：００变更为２１：００ 【发布渠道】保定市清苑区电视台（２０１９年１０月２８日１９时至１１月０４日２０时之间）屏幕上方滚动","powerTime":"2019-11-05 20:23:36","powerComm":"王建英通知已送电","subsNo":"","lineNo":"","tgNo":"","tgName":null,"infoStatus":"1","orgName":"国网清苑县供电公司","typeName":null,"infoStatusName":null,"dateDay":null,"orgNos":null,"nowTime":null,"countyName":null,"streetName":null,"villageName":null,"roadName":null,"communityName":null,"tranName":null,"sdLineName":null,"cityCode":"1340618","cityName":"国网清苑县供电公司","provinceCode":null,"stopTime":"2019-11-05 21:00:00","powerType":"全部","powerOffArea":"【全线路停电】停保定市清苑区艾菲特起重机械厂,东吕杨恩占配件加工,东吕付彦微配件加工,东吕三街内2,东吕杨蕴辉,东吕东威工具公司,1东吕一街内3,清苑县凯利特起重机械厂,河北双业起重机械有限公司01,东吕苏立成配件加工,清苑县双业起重机械有限公司01,1东吕一街内5,1东吕一街内8,1东吕二街内6,清苑县威龙起重机械有限公司,保定巨鹰起重机械制造有限公司1,河北巨威起重机械制造有限公司,保定市清苑区天润娇纺织厂,1东吕三街内5,清苑县东吕小康链条加工厂,东吕三街村西,0575136047-清苑县威龙起重机械有限公司-专变-123928961-清苑县威龙起重机械有限公司,清苑县超凡起重设备厂,张树昌配件加工厂,东吕果园,0549287867-清苑县伟力起重机械制造有限公司-专变-175498337-清苑县伟力起重机械制造有限公司,杭州双力起重机械有限公司清苑分公司,东吕二街内1,1东吕一街内10,保定巨鹰起重机械制造有限公司-1,保定市清苑区东闾乡小天使幼儿园,清苑县旭光起重机械配件厂,河北蒙德起重机械制造有限公司,清苑县龙腾配件厂,河北凯澄起重机械有限公司,1东吕一街内2,1东吕三街内8,天航机械,东吕苏佩中配件加工,河北双业起重机械有限公司,河北维大力起重设备制造有限公司,清苑县五环起重机械制造有限公司,1东吕一街内11,清苑县新宇起重机械有限公司,东吕二街村外,0575136047-清苑县威龙起重机械有限公司-专变-123928567-清苑县威龙起重机械有限公司,清苑县伟力起重机械制造有限公司东吕分公司,0387491893-清苑县巨力起重机械有限公司-专变-192915897-清苑县洪飞链条厂,1东吕一街内9,保定安泰起重机械有限公司,1东吕一街内12,清苑县绍华起重机械厂,保定三龙起重机械有限公司,0555744594-东吕村委会-专变-94729171-东吕村委会,河北佳帅起重机械制造有限公司,保定市清苑区森杰纺织厂,东吕三街村西北,1东吕一街内1,东吕杜大青配件加工,东吕李长龙配件加工,东吕东八,0387491196-东吕东三-专变-45315502-东吕东三,东吕东二,0387490470-河北佳力起重索具制造有限公司-专变-45315520-清苑县威龙起重机械有限公司1,金龙手拉葫芦配件厂,1东吕一街内6,0575136047-清苑县威龙起重机械有限公司-专变-123928595-清苑县威龙起重机械有限公司,清苑县双业起重机械有限公司,河北庆泰起重机械制造有限公司,清苑县东广起重配件厂,清苑县联合起重机械厂,0387491806-河北东特起重机械制造有限公司-专变-45315516-东吕王凤池配件加工,清苑县天航机械有限公司2,清苑县天航机械有限公司1,东吕苏占良配件加工,0387489867-河北东特起重机械制造有限公司-专变-45315515-清苑县腾飞起重设备厂,东吕二街野外,保定京鸽起重机械制造有限公司,河北宇雕起重设备有限公司,保定市清苑区艾菲特起重机械厂01,清苑县鸣宇起重设备厂,东吕杨华池配件加工01,清苑县北极星起重机械厂,清苑县东闾水厂,东吕崔同芬配件加工,东吕杨华池配件加工,保定市立荣纺织厂,1东吕一街内7,清苑县威腾起重设备制造有限公,河北巨人起重机械有限公司,保定诚然起重机械制造有限公司,东吕村委会,清苑县军民起重机械有限公司,东吕二街内3,1东吕一街内13,东吕西二,保定庆泰起重机械制造有限公司,1东吕三街内3","powerOffReason":"【停电原因】由于换杆、换线导致１１０ＫＶ东闾变电站１０ＫＶ东闾北一街５３０线路全线停电 【变更送电】因工作量大，送电时间由１８：００变更为２１：００ 【发布渠道】保定市清苑区电视台（２０１９年１０月２８日１９时至１１月０４日２０时之间）屏幕上方滚动","powerOffId":"2019102713000044"},{"poweroffId":2019102713000033,"sgpoweroffId":null,"subsName":"","lineName":"温家庄线516","pubTranName":"温家庄1061变压器,温家庄2030变压器,","scope":"【影响街道/乡镇】北罗镇【高危重要客户】无【影响客户】温家庄村","startTime":"2019-11-07 06:30:00","stopDate":"2019-11-07 18:00:00","orgNo":"1340622","typeCode":"计划停电","poweroffArea":"【分支停电】停温家庄2030变压器,温家庄1061变压器","poweroffReason":"【停电原因】由于线路检修导致３５ＫＶ北罗变电站温家庄线５１６线路７０号杆断路器以下线路停电【变更送电】无【发布渠道】保定市唐县电视台（１０月２７日至１１月０６日的２０：００时至２０：３０时之间）屏幕上方滚动字幕","powerTime":"2019-11-07 17:06:41","powerComm":"已送电","subsNo":"","lineNo":"","tgNo":"","tgName":null,"infoStatus":"1","orgName":"国网唐县供电公司","typeName":null,"infoStatusName":null,"dateDay":null,"orgNos":null,"nowTime":null,"countyName":null,"streetName":null,"villageName":null,"roadName":null,"communityName":null,"tranName":null,"sdLineName":null,"cityCode":"1340622","cityName":"国网唐县供电公司","provinceCode":null,"stopTime":"2019-11-07 18:00:00","powerType":"全部","powerOffArea":"【分支停电】停温家庄2030变压器,温家庄1061变压器","powerOffReason":"【停电原因】由于线路检修导致３５ＫＶ北罗变电站温家庄线５１６线路７０号杆断路器以下线路停电【变更送电】无【发布渠道】保定市唐县电视台（１０月２７日至１１月０６日的２０：００时至２０：３０时之间）屏幕上方滚动字幕","powerOffId":"2019102713000033"},{"poweroffId":2019102713000030,"sgpoweroffId":null,"subsName":"","lineName":"10KV徐里营531","pubTranName":"徐一村西,","scope":"【影响街道/乡镇】刁窝乡 【高危重要客户】无 【影响客户】徐一村","startTime":"2019-11-06 08:00:00","stopDate":"2019-11-06 17:00:00","orgNo":"1340626","typeCode":"计划停电","poweroffArea":"【单台区停电】停徐一村西","poweroffReason":"【停电原因】由于电杆组立导致１１０ＫＶ刁窝变电站１０ＫＶ徐里营５３１线路徐一村西公变台区停电 【变更送电】无 【发布渠道】涿州电视台（１０月２７日至１１月０５日２１：００播放２次）屏幕上方滚动","powerTime":"2019-11-06 16:40:15","powerComm":"恢复送电","subsNo":"","lineNo":"","tgNo":"","tgName":null,"infoStatus":"1","orgName":"国网涿州市供电公司","typeName":null,"infoStatusName":null,"dateDay":null,"orgNos":null,"nowTime":null,"countyName":null,"streetName":null,"villageName":null,"roadName":null,"communityName":null,"tranName":null,"sdLineName":null,"cityCode":"1340626","cityName":"国网涿州市供电公司","provinceCode":null,"stopTime":"2019-11-06 17:00:00","powerType":"全部","powerOffArea":"【单台区停电】停徐一村西","powerOffReason":"【停电原因】由于电杆组立导致１１０ＫＶ刁窝变电站１０ＫＶ徐里营５３１线路徐一村西公变台区停电 【变更送电】无 【发布渠道】涿州电视台（１０月２７日至１１月０５日２１：００播放２次）屏幕上方滚动","powerOffId":"2019102713000030"},{"poweroffId":2019102713000026,"sgpoweroffId":null,"subsName":"","lineName":"513丰源庄线","pubTranName":"罗营村东7929,","scope":"【影响街道/乡镇】义和庄乡 【高危重要客户】无 【影响客户】罗营村","startTime":"2019-11-06 08:00:00","stopDate":"2019-11-06 18:00:00","orgNo":"1340626","typeCode":"计划停电","poweroffArea":"【单台区停电】停罗营村东7929","poweroffReason":"【停电原因】由于更换电杆、金具、导线导致３５ＫＶ码头变电站５１３丰源庄线路罗营村东７９２９公变台区停电 【变更送电】无 【发布渠道】涿州电视台（１０月２７日至１１月０５日２１：００播放２次）屏幕上方滚动","powerTime":"2019-11-06 17:40:24","powerComm":"恢复送电","subsNo":"","lineNo":"","tgNo":"","tgName":null,"infoStatus":"1","orgName":"国网涿州市供电公司","typeName":null,"infoStatusName":null,"dateDay":null,"orgNos":null,"nowTime":null,"countyName":null,"streetName":null,"villageName":null,"roadName":null,"communityName":null,"tranName":null,"sdLineName":null,"cityCode":"1340626","cityName":"国网涿州市供电公司","provinceCode":null,"stopTime":"2019-11-06 18:00:00","powerType":"全部","powerOffArea":"【单台区停电】停罗营村东7929","powerOffReason":"【停电原因】由于更换电杆、金具、导线导致３５ＫＶ码头变电站５１３丰源庄线路罗营村东７９２９公变台区停电 【变更送电】无 【发布渠道】涿州电视台（１０月２７日至１１月０５日２１：００播放２次）屏幕上方滚动","powerOffId":"2019102713000026"},{"poweroffId":2019102713000025,"sgpoweroffId":null,"subsName":"","lineName":"10KV沿鲁532","pubTranName":"沿鲁村内南,","scope":"【影响街道/乡镇】刁窝乡 【高危重要客户】无 【影响客户】沿鲁村","startTime":"2019-11-06 07:00:00","stopDate":"2019-11-06 18:00:00","orgNo":"1340626","typeCode":"计划停电","poweroffArea":"【单台区停电】停沿鲁村内南","poweroffReason":"【停电原因】由于架设导线导致１１０ＫＶ刁窝变电站１０ＫＶ沿鲁５３２线路沿鲁村内南公变台区停电 【变更送电】无 【发布渠道】涿州电视台（１０月２７日至１１月０５日２１：００播放２次）屏幕上方滚动","powerTime":"2019-11-06 17:40:40","powerComm":"恢复送电","subsNo":"","lineNo":"","tgNo":"","tgName":null,"infoStatus":"1","orgName":"国网涿州市供电公司","typeName":null,"infoStatusName":null,"dateDay":null,"orgNos":null,"nowTime":null,"countyName":null,"streetName":null,"villageName":null,"roadName":null,"communityName":null,"tranName":null,"sdLineName":null,"cityCode":"1340626","cityName":"国网涿州市供电公司","provinceCode":null,"stopTime":"2019-11-06 18:00:00","powerType":"全部","powerOffArea":"【单台区停电】停沿鲁村内南","powerOffReason":"【停电原因】由于架设导线导致１１０ＫＶ刁窝变电站１０ＫＶ沿鲁５３２线路沿鲁村内南公变台区停电 【变更送电】无 【发布渠道】涿州电视台（１０月２７日至１１月０５日２１：００播放２次）屏幕上方滚动","powerOffId":"2019102713000025"}],"pageModel":{"pageNow":441,"totalCount":10973,"totalPage":1098,"tableRows":0,"pageCount":10,"beginCount":4400},"isExperi":"1"}