{"message":"","today":"2020-06-15","seleList":[{"poweroffId":2019102713000024,"sgpoweroffId":null,"subsName":"","lineName":"北罗线511","pubTranName":"西下素2890变压器,东下素4502变压器,","scope":"【影响街道/乡镇】北罗镇【高危重要客户】无【影响客户】东下素村、西下素村","startTime":"2019-11-07 06:30:00","stopDate":"2019-11-07 18:00:00","orgNo":"1340622","typeCode":"计划停电","poweroffArea":"【分支停电】停西下素2890变压器,东下素4502变压器","poweroffReason":"【停电原因】由于线路检修导致３５ＫＶ北罗变电站北罗线５１１线路０９０号杆断路器以下线路停电【变更送电】无【发布渠道】保定市唐县电视台（１０月２７日至１１月０６日的２０：００时至２０：３０时之间）屏幕上方滚动字幕","powerTime":"2019-11-07 17:06:27","powerComm":"已送电","subsNo":"","lineNo":"","tgNo":"","tgName":null,"infoStatus":"1","orgName":"国网唐县供电公司","typeName":null,"infoStatusName":null,"dateDay":null,"orgNos":null,"nowTime":null,"countyName":null,"streetName":null,"villageName":null,"roadName":null,"communityName":null,"tranName":null,"sdLineName":null,"cityCode":"1340622","cityName":"国网唐县供电公司","provinceCode":null,"stopTime":"2019-11-07 18:00:00","powerType":"全部","powerOffArea":"【分支停电】停西下素2890变压器,东下素4502变压器","powerOffReason":"【停电原因】由于线路检修导致３５ＫＶ北罗变电站北罗线５１１线路０９０号杆断路器以下线路停电【变更送电】无【发布渠道】保定市唐县电视台（１０月２７日至１１月０６日的２０：００时至２０：３０时之间）屏幕上方滚动字幕","powerOffId":"2019102713000024"},{"poweroffId":2019102713000022,"sgpoweroffId":null,"subsName":"","lineName":"10KV塔上乡526","pubTranName":"卢场村中,屈家街4435,马坊村0498,莲池村0466,陈家坟0465,清凉寺塔西村,塔西4178,清凉寺马坊,莲池小学煤配电变压器,清凉寺供电所塔西幼儿园,梁场4141,清凉寺供电所马坊村南,涿州市海康宏发房地产公司变压器2,塔西村中,大沙坎0507,莲池村0495,卢家场村北变台,屈家街0453,莲池4142,大沙坎5050,陈家坟村,莲池村西（清凉寺供电所）,大沙坎村内变台,清凉寺供电所塔西村,马坊村0502,涿州市海康宏发房地产公司变压器1,塔西0476,涿州市海康宏发房地产公司2间隔配电变压器,","scope":"【影响街道/乡镇】清凉寺城区 【高危重要客户】无 【影响客户】陈家坟、大沙坎、梁场、卢场、马坊、塔西、莲池、天伦湾小区、涿州中石油昆仑燃气有限公司、屈家街村、梁场村小区（海康宏发房地产）","startTime":"2019-11-06 05:00:00","stopDate":"2019-11-06 18:00:00","orgNo":"1340626","typeCode":"计划停电","poweroffArea":"【全线路停电】停涿州市马坊面粉厂,马坊村0502,华阳面粉厂,卢场0461【纯农排变】,塔西村中,卢场4926【纯农排变】,清凉寺马坊,马坊村北,马坊村0498,卢场4927【纯农排变】,清凉寺供电所塔西村,屈家街0453,0630665059-河北京石高速公路开发有限公司-专变-141710239-河北省高速公路京石改扩建筹建处,大沙坎0507,马坊村0473【纯农排变】,涿州石油昆仑燃气有限公司,马坊中学,塔西4178,梁场0463,梁场河边【纯农排变】,河北省涿州开发区管理委员会,大沙坎村东北台区【纯农排变】,清凉寺供电所马坊村南,大沙坎4052,陈家坟0465,梁家场村南地【纯农排变】,马坊村浇地公变（清凉寺所）,涿州市京热热力有限责任公司,梁场4141,莲池（村东）,莲池（村南）,清凉寺塔西村,河北润卓房地产开发有限公司,屈家街4435,0551704990-涿州市城市投资发展有限公司-专变-49797574-涿州市城市投资发展有限公司,河北润卓房地产开发有限公司1,河北润卓房地产开发有限公司2,塔西0476,莲池村0495,卢家场村北变台,涿州凯达窗业有限公司,卢场村中,陈家坟村,清凉寺供电所塔西幼儿园,涿州市李工工贸有限公司,涿州市海康宏发房地产公司变压器1,大沙坎村内变台,莲池村西（清凉寺供电所）,涿州市清凉寺马坊村,莲池4142,大沙坎村北变压器,莲池村0466,涿州市海康宏发房地产公司2间隔配电变压器,塔西,大沙坎5050,马坊村0472【纯农排变】,涿州市海康宏发房地产公司变压器2,莲池小学煤配电变压器","poweroffReason":"【停电原因】由于更换导线及金具、安装开关及断路器导致１１０ＫＶ塔上变电站１０ＫＶ塔上乡５２６线路全线停电 【变更送电】无 【发布渠道】涿州电视台（１０月２７日至１１月０５日２１：００播放２次）屏幕上方滚动","powerTime":"2019-11-06 17:11:28","powerComm":"恢复送电","subsNo":"","lineNo":"","tgNo":"","tgName":null,"infoStatus":"1","orgName":"国网涿州市供电公司","typeName":null,"infoStatusName":null,"dateDay":null,"orgNos":null,"nowTime":null,"countyName":null,"streetName":null,"villageName":null,"roadName":null,"communityName":null,"tranName":null,"sdLineName":null,"cityCode":"1340626","cityName":"国网涿州市供电公司","provinceCode":null,"stopTime":"2019-11-06 18:00:00","powerType":"全部","powerOffArea":"【全线路停电】停涿州市马坊面粉厂,马坊村0502,华阳面粉厂,卢场0461【纯农排变】,塔西村中,卢场4926【纯农排变】,清凉寺马坊,马坊村北,马坊村0498,卢场4927【纯农排变】,清凉寺供电所塔西村,屈家街0453,0630665059-河北京石高速公路开发有限公司-专变-141710239-河北省高速公路京石改扩建筹建处,大沙坎0507,马坊村0473【纯农排变】,涿州石油昆仑燃气有限公司,马坊中学,塔西4178,梁场0463,梁场河边【纯农排变】,河北省涿州开发区管理委员会,大沙坎村东北台区【纯农排变】,清凉寺供电所马坊村南,大沙坎4052,陈家坟0465,梁家场村南地【纯农排变】,马坊村浇地公变（清凉寺所）,涿州市京热热力有限责任公司,梁场4141,莲池（村东）,莲池（村南）,清凉寺塔西村,河北润卓房地产开发有限公司,屈家街4435,0551704990-涿州市城市投资发展有限公司-专变-49797574-涿州市城市投资发展有限公司,河北润卓房地产开发有限公司1,河北润卓房地产开发有限公司2,塔西0476,莲池村0495,卢家场村北变台,涿州凯达窗业有限公司,卢场村中,陈家坟村,清凉寺供电所塔西幼儿园,涿州市李工工贸有限公司,涿州市海康宏发房地产公司变压器1,大沙坎村内变台,莲池村西（清凉寺供电所）,涿州市清凉寺马坊村,莲池4142,大沙坎村北变压器,莲池村0466,涿州市海康宏发房地产公司2间隔配电变压器,塔西,大沙坎5050,马坊村0472【纯农排变】,涿州市海康宏发房地产公司变压器2,莲池小学煤配电变压器","powerOffReason":"【停电原因】由于更换导线及金具、安装开关及断路器导致１１０ＫＶ塔上变电站１０ＫＶ塔上乡５２６线路全线停电 【变更送电】无 【发布渠道】涿州电视台（１０月２７日至１１月０５日２１：００播放２次）屏幕上方滚动","powerOffId":"2019102713000022"},{"poweroffId":2019102713000020,"sgpoweroffId":null,"subsName":"","lineName":"懋源线513","pubTranName":"铁路东公变,","scope":"【影响街道/乡镇】军城办事处 【高危重要客户】无 【影响客户】鑫华新、正运保温材料、懋源水泥、河北旭龙液压、军城铜山化工、方铸、勃发电器、陈面粉、李书英、元鑫机械厂、宝忠农具、通达鸡场、张继春、万通加油站、博发橡塑、北京鼓引风机厂、中铁、义青厂、养路工区、中国石油、二小沥青、建设局","startTime":"2019-11-05 06:00:00","stopDate":"2019-11-05 10:00:00","orgNo":"1340612","typeCode":"计划停电","poweroffArea":"【全线路停电】停高碑店市铜山化工厂,河北旭龙液压密封公司变压器,北京鼓引风机厂,鑫华新,高碑店市泗庄心滨塑料制品厂,高碑店市铜山化工厂变压器,宝中农具厂,李书英,靳中铁,高碑店市懋源水泥有限责任公司商品混凝土分公司变压器,通达鸡厂,勃发电器2,勃发电器化公司,河北鑫华新锅炉制造有限公司变压器02,博发橡塑制品,高碑店市路灯管理办公室（幸福北路路灯）变压器,河北鑫华新锅炉制造有限公司变压器01,中油130加油站,高碑店市路灯管理办公室变压器,高碑店市城市管理综合执法局107国道,高碑店市路灯管理办公室（新华鑫路灯）变压器,变压器,高碑店市惠贤居餐饮有限公司,高碑店市百国极乐寺,方铸,0200005206|茂源水泥630变压器,陈面粉厂,二小沥青,万通加油站,养路公区,铁路东公变,河北旭龙液压密封件有限公司变压器,义青厂,高碑店市滨立机械制造有限公司,高碑店市建朝建材销售有限公司变压器,李文,高碑店市博发橡塑制品有限责任公司,元鑫机械加工厂,高碑店市城市管理综合执法局幸福路3号,高碑店市建设局变压器,高碑店市高碑店春满园海鲜城","poweroffReason":"【停电原因】由于新增配变接引导致１１０ＫＶ方家务变电站１０ＫＶ懋源５１３线路全线停电 【变更送电】无 【发布渠道】高碑店市高碑店电视台（１０月２８日０８时至１１月０４日１８时之间）屏幕上方滚动","powerTime":"2019-11-05 09:28:46","powerComm":"已送电","subsNo":"","lineNo":"","tgNo":"","tgName":null,"infoStatus":"1","orgName":"国网高碑店市供电公司","typeName":null,"infoStatusName":null,"dateDay":null,"orgNos":null,"nowTime":null,"countyName":null,"streetName":null,"villageName":null,"roadName":null,"communityName":null,"tranName":null,"sdLineName":null,"cityCode":"1340612","cityName":"国网高碑店市供电公司","provinceCode":null,"stopTime":"2019-11-05 10:00:00","powerType":"全部","powerOffArea":"【全线路停电】停高碑店市铜山化工厂,河北旭龙液压密封公司变压器,北京鼓引风机厂,鑫华新,高碑店市泗庄心滨塑料制品厂,高碑店市铜山化工厂变压器,宝中农具厂,李书英,靳中铁,高碑店市懋源水泥有限责任公司商品混凝土分公司变压器,通达鸡厂,勃发电器2,勃发电器化公司,河北鑫华新锅炉制造有限公司变压器02,博发橡塑制品,高碑店市路灯管理办公室（幸福北路路灯）变压器,河北鑫华新锅炉制造有限公司变压器01,中油130加油站,高碑店市路灯管理办公室变压器,高碑店市城市管理综合执法局107国道,高碑店市路灯管理办公室（新华鑫路灯）变压器,变压器,高碑店市惠贤居餐饮有限公司,高碑店市百国极乐寺,方铸,0200005206|茂源水泥630变压器,陈面粉厂,二小沥青,万通加油站,养路公区,铁路东公变,河北旭龙液压密封件有限公司变压器,义青厂,高碑店市滨立机械制造有限公司,高碑店市建朝建材销售有限公司变压器,李文,高碑店市博发橡塑制品有限责任公司,元鑫机械加工厂,高碑店市城市管理综合执法局幸福路3号,高碑店市建设局变压器,高碑店市高碑店春满园海鲜城","powerOffReason":"【停电原因】由于新增配变接引导致１１０ＫＶ方家务变电站１０ＫＶ懋源５１３线路全线停电 【变更送电】无 【发布渠道】高碑店市高碑店电视台（１０月２８日０８时至１１月０４日１８时之间）屏幕上方滚动","powerOffId":"2019102713000020"},{"poweroffId":2019102713000009,"sgpoweroffId":null,"subsName":"","lineName":"10kV黄陀线528","pubTranName":"1大福村内13,","scope":"【影响街道/乡镇】清苑镇 【高危重要客户】无 【影响客户】大福村","startTime":"2019-10-27 06:42:43","stopDate":"2019-10-27 08:20:00","orgNo":"1340618","typeCode":"电网故障停限电","poweroffArea":"【单台区停电】停1大福村内13","poweroffReason":"【停电原因】由于变压器烧毁导致１１０ＫＶ中冉变电站１０ＫＶ黄陀线５２８线路１大福村内１３号公变台区停电 【变更送电】因抢修进度加快原因，送电时间由１２：００变更为０８：２０ 【发布渠道】通过９５５９８发布","powerTime":"2019-10-27 07:52:40","powerComm":"黎铁通知已送电","subsNo":"","lineNo":"","tgNo":"","tgName":null,"infoStatus":"1","orgName":"国网清苑县供电公司","typeName":null,"infoStatusName":null,"dateDay":null,"orgNos":null,"nowTime":null,"countyName":null,"streetName":null,"villageName":null,"roadName":null,"communityName":null,"tranName":null,"sdLineName":null,"cityCode":"1340618","cityName":"国网清苑县供电公司","provinceCode":null,"stopTime":"2019-10-27 08:20:00","powerType":"全部","powerOffArea":"【单台区停电】停1大福村内13","powerOffReason":"【停电原因】由于变压器烧毁导致１１０ＫＶ中冉变电站１０ＫＶ黄陀线５２８线路１大福村内１３号公变台区停电 【变更送电】因抢修进度加快原因，送电时间由１２：００变更为０８：２０ 【发布渠道】通过９５５９８发布","powerOffId":"2019102713000009"},{"poweroffId":2019102613000290,"sgpoweroffId":null,"subsName":"","lineName":"10kV512车站线","pubTranName":"10KV512车站线南刘陀05101台区变压器【纯农排变】,10KV512车站线南街05241台区变压器【纯农排变】,10KV512车站线28016台区变压器,10KV512车站线05090台区变压器【纯农排变】,0469534030-南小王砖厂-专变-46833743-南小王砖厂05016,10KV512车站线南刘陀05064台区变压器,宇丰橡胶有限公司,10KV512车站线南刘陀05086台区变压器【纯农排变】,南刘陀轴厂,10KV512车站线南刘陀05238台区变压器【纯农排变】,南刘陀511线海通路灯,博野镇中学05031,10KV512车站线南街05066台区变压器,污水处理厂,10KV512车站线05071台区变压器【纯农排变】,0647195132-河北金草药业有限公司-专变-169949859-河北金草药业有限公司,10KV512车站线05264台区变压器【纯农排变】,10KV512车站线刘陀店53414台区变压器,10KV512车站线05104台区变压器【纯农排变】,10KV512车站线南刘陀05055台区变压器【纯农排变】,10KV512车站线05060台区变压器【纯农排变】,宝丰硝化棉公司,10kV512车站线南刘陀线51105059柱上变压器【纯农排变】,10KV512车站线南刘陀05213台区变压器【纯农排变】,河北秋收农业开发集团有限公司,10KV512车站线外贸公用变压器,张占军家属院,10KV512车站线南刘陀05093台区新变压器【纯农排变】,10KV512车站线刘陀店村05242台区变压器,保定金昊石油机械有限公,0640169453-河北光隆房地产开发有限公司-专变-149027936-河北光隆房地产开发有限公司,博野县聚能洁净燃料制造有限公司,河北亿宏橡胶有限公司,10KV512车站线05091台区变压器【纯农排变】,保定仲景药业有限公司,10Kv车站512线消防队公用变压器,0622037330-河北中耐输送机械制造有限公司-专变-130012869-保定三禾输送设备制造有限公司,南刘陀砖厂,10KV512车站线南刘陀05103台区变压器【纯农排变】,树凯养殖厂（05060分户）,博野国家粮食储备库,10KV512车站线南刘陀05265台区变压器【纯农排变】,10KV512车站线42850台区变压器,保定麦可绿色食品有限公司2,10KV512车站线05008台区变压器【纯农排变】,10KV512车站线南刘陀05130台区变压器,东街村刘国珍,10KV512车站线南刘陀05099台区变压器【纯农排变】,0645852268-河北春风衬布有限公司-专变-169632588-河北春风衬布有限公司,南白沙纤维厂,10KV512车站线南刘陀05089台区变压器,国网河北省电力有限公司博野供电分公司,变压器,0683560844-保定力德尔吊索具制造有限公司-专变-223596799-保定力德尔吊索具制造有限公司,0469534027-保定新奥化工有限公司-专变-46834002-博野县永恒橡胶厂,10KV512车站线南刘陀05100台区变压器,10KV512车站线南刘陀05258台区区变","scope":"【影响街道/乡镇】博野镇【高危重要客户】无【影响客户】东街村、南街村、西街村、刘陀店、南刘陀、城关中学、麦可有限公司、城南工业区、消防队、污水处理厂、博悦府、亿宏有限公司","startTime":"2019-10-26 21:49:00","stopDate":"2019-10-26 23:50:00","orgNo":"1340608","typeCode":"电网故障停限电","poweroffArea":"【全线路停电】停南刘陀砖厂,10KV512车站线南街05241台区变压器【纯农排变】,10KV512车站线05008台区变压器【纯农排变】,10KV512车站线南刘陀05213台区变压器【纯农排变】,10KV512车站线南刘陀05093台区新变压器【纯农排变】,10KV512车站线外贸公用变压器,0683560844-保定力德尔吊索具制造有限公司-专变-223596799-保定力德尔吊索具制造有限公司,10KV512车站线05007台区变压器【纯农排变】,10kV车站512线东街村05023台区变压器,0615220510-河北现代电力变压器有限公司-专变-128237363-河北现代电力变压器有限公司,0647195132-河北金草药业有限公司-专变-169949859-河北金草药业有限公司,变压器,保定仲景药业有限公司,10KV512车站线05060台区变压器【纯农排变】,博野国家粮食储备库,0469534870-南小王砖厂-专变-46833698-南小王砖厂05015,10KV512车站线南刘陀05064台区变压器,保定麦可绿色食品有限公司,10KV512车站线南刘陀05100台区变压器,南刘陀511线大成路灯,保定麦可绿色食品有限公司2,10KV512车站线南街村05009台区变压器【纯农排变】,树凯养殖厂（05060分户）,污水处理厂,0645852268-河北春风衬布有限公司-专变-169632588-河北春风衬布有限公司,宝丰硝化棉公司,博野通博加工厂,10KV512车站线05071台区变压器【纯农排变】,国网河北省电力有限公司博野供电分公司,0683560844-保定力德尔吊索具制造有限公司-专变-223596802-保定力德尔吊索具制造有限公司,10KV512车站线南刘陀05070台区变压器【纯农排变】,10KV512车站线南刘陀05238台区变压器【纯农排变】,10Kv车站512线消防队公用变压器,小光养殖厂,0469534027-保定新奥化工有限公司-专变-46834002-博野县永恒橡胶厂,10KV512车站线南刘陀05101台区变压器【纯农排变】,10KV512车站线南街05066台区变压器,10KV512车站线南刘陀05130台区变压器,10KV512车站线05264台区变压器【纯农排变】,10KV512车站线05104台区变压器【纯农排变】,10KV512车站线42850台区变压器,10KV512车站线28016台区变压器,0469534030-南小王砖厂-专变-46833743-南小王砖厂05016,0622037330-河北中耐输送机械制造有限公司-专变-130012869-保定三禾输送设备制造有限公司,10KV512车站线刘陀店村05242台区变压器,10KV512车站线南刘陀05099台区变压器【纯农排变】,东街村刘国珍,博野镇中学05031,河北秋收农业开发集团有限公司,10kV512车站线南刘陀线51105059柱上变压器【纯农排变】,张占军家属院,10KV512车站线南刘陀05086台区变压器【纯农排变】,10KV512车站线南刘陀05089台区变压器,0640169453-河北光隆房地产开发有限公司-专变-149027936-河北光隆房地产开发有限公司,10KV512车站线南刘陀05055台区变压器【纯农排变】,10KV512车站线南刘陀05265台区变压器【纯农排变】,南刘陀511线消防路灯,博野县聚能洁净燃料制造有限公司,河北亿宏橡胶有限公司,博野县垃圾转运站,宇丰橡胶有限公司,南刘陀轴厂,10KV512车站线05091台区变压器【纯农排变】,10KV512车站线刘陀店53414台区变压器,10KV512车站线05090台区变压器【纯农排变】,南白沙纤维厂,10KV512车站线南刘陀05103台区变压器【纯农排变】,10KV512车站线05006台区变压器【纯农排变】,10KV512车站线南刘陀05258台区区变压器【纯农排变】,10KV512车站线南刘陀05058台区变压器【纯农排变】,保定金昊石油机械有限公,0645852268-河北春风衬布有限公司-专变-169901146-河北春风衬布有限公司,10KV512车站线南刘陀051024台区变压器【纯农排变】,南刘陀511线海通路灯","poweroffReason":"【停电原因】由于站内开关跳闸导致３５ＫＶ南白沙变电站车站５１２线路全线停电【变更送电】因抢修进度加快原因，送电时间由２７日０８：００变更为２６日２３：５０【发布渠道】通过９５５９８发布","powerTime":"2019-10-26 23:20:00","powerComm":"已送电","subsNo":"","lineNo":"","tgNo":"","tgName":null,"infoStatus":"1","orgName":"国网博野县供电公司","typeName":null,"infoStatusName":null,"dateDay":null,"orgNos":null,"nowTime":null,"countyName":null,"streetName":null,"villageName":null,"roadName":null,"communityName":null,"tranName":null,"sdLineName":null,"cityCode":"1340608","cityName":"国网博野县供电公司","provinceCode":null,"stopTime":"2019-10-26 23:50:00","powerType":"全部","powerOffArea":"【全线路停电】停南刘陀砖厂,10KV512车站线南街05241台区变压器【纯农排变】,10KV512车站线05008台区变压器【纯农排变】,10KV512车站线南刘陀05213台区变压器【纯农排变】,10KV512车站线南刘陀05093台区新变压器【纯农排变】,10KV512车站线外贸公用变压器,0683560844-保定力德尔吊索具制造有限公司-专变-223596799-保定力德尔吊索具制造有限公司,10KV512车站线05007台区变压器【纯农排变】,10kV车站512线东街村05023台区变压器,0615220510-河北现代电力变压器有限公司-专变-128237363-河北现代电力变压器有限公司,0647195132-河北金草药业有限公司-专变-169949859-河北金草药业有限公司,变压器,保定仲景药业有限公司,10KV512车站线05060台区变压器【纯农排变】,博野国家粮食储备库,0469534870-南小王砖厂-专变-46833698-南小王砖厂05015,10KV512车站线南刘陀05064台区变压器,保定麦可绿色食品有限公司,10KV512车站线南刘陀05100台区变压器,南刘陀511线大成路灯,保定麦可绿色食品有限公司2,10KV512车站线南街村05009台区变压器【纯农排变】,树凯养殖厂（05060分户）,污水处理厂,0645852268-河北春风衬布有限公司-专变-169632588-河北春风衬布有限公司,宝丰硝化棉公司,博野通博加工厂,10KV512车站线05071台区变压器【纯农排变】,国网河北省电力有限公司博野供电分公司,0683560844-保定力德尔吊索具制造有限公司-专变-223596802-保定力德尔吊索具制造有限公司,10KV512车站线南刘陀05070台区变压器【纯农排变】,10KV512车站线南刘陀05238台区变压器【纯农排变】,10Kv车站512线消防队公用变压器,小光养殖厂,0469534027-保定新奥化工有限公司-专变-46834002-博野县永恒橡胶厂,10KV512车站线南刘陀05101台区变压器【纯农排变】,10KV512车站线南街05066台区变压器,10KV512车站线南刘陀05130台区变压器,10KV512车站线05264台区变压器【纯农排变】,10KV512车站线05104台区变压器【纯农排变】,10KV512车站线42850台区变压器,10KV512车站线28016台区变压器,0469534030-南小王砖厂-专变-46833743-南小王砖厂05016,0622037330-河北中耐输送机械制造有限公司-专变-130012869-保定三禾输送设备制造有限公司,10KV512车站线刘陀店村05242台区变压器,10KV512车站线南刘陀05099台区变压器【纯农排变】,东街村刘国珍,博野镇中学05031,河北秋收农业开发集团有限公司,10kV512车站线南刘陀线51105059柱上变压器【纯农排变】,张占军家属院,10KV512车站线南刘陀05086台区变压器【纯农排变】,10KV512车站线南刘陀05089台区变压器,0640169453-河北光隆房地产开发有限公司-专变-149027936-河北光隆房地产开发有限公司,10KV512车站线南刘陀05055台区变压器【纯农排变】,10KV512车站线南刘陀05265台区变压器【纯农排变】,南刘陀511线消防路灯,博野县聚能洁净燃料制造有限公司,河北亿宏橡胶有限公司,博野县垃圾转运站,宇丰橡胶有限公司,南刘陀轴厂,10KV512车站线05091台区变压器【纯农排变】,10KV512车站线刘陀店53414台区变压器,10KV512车站线05090台区变压器【纯农排变】,南白沙纤维厂,10KV512车站线南刘陀05103台区变压器【纯农排变】,10KV512车站线05006台区变压器【纯农排变】,10KV512车站线南刘陀05258台区区变压器【纯农排变】,10KV512车站线南刘陀05058台区变压器【纯农排变】,保定金昊石油机械有限公,0645852268-河北春风衬布有限公司-专变-169901146-河北春风衬布有限公司,10KV512车站线南刘陀051024台区变压器【纯农排变】,南刘陀511线海通路灯","powerOffReason":"【停电原因】由于站内开关跳闸导致３５ＫＶ南白沙变电站车站５１２线路全线停电【变更送电】因抢修进度加快原因，送电时间由２７日０８：００变更为２６日２３：５０【发布渠道】通过９５５９８发布","powerOffId":"2019102613000290"},{"poweroffId":2019102613000286,"sgpoweroffId":null,"subsName":"","lineName":"10kV511兴华线","pubTranName":"10KV511兴华线西街村35004分支西街村35004柱上变压器,10KV511兴华线劳动局公用34887分支劳动局公用34887变压器,10KV511兴华线照明分支南白沙35022柱上变压器,10kV兴华线511桂竹苑变压器,10KV511兴华线35018分支南街35107变压器,10KV511兴华线水利局家属院分支水利局35024柱上变压器,10KV511兴华线35018分支南街照明35018柱上变压器,10KV511兴华线劳动局公用34887分支市场35002柱上变压器,10KV511兴华线职教中心分支职教公用34893变压器,10KV511兴华线西街浇地35061分支西街浇地35061变压器【纯农排变】,10KV511兴华线照明分支南白沙43414变压器,10KV511兴华线劳动局公用34887分支吉林家属院35006变压器,10KV511兴华线兴华鸿景17363分支兴华鸿景17363变压器,10KV511兴华线郑保昌35105分支南街浇地35057变压器,10KV511兴华线劳动局公用34887分支军转家属院34026变压器,10KV511兴华线主干南环公用照明50248台区变压器,10KV511兴华线35117分支南白沙35021柱上变压器,10KV511兴华线照明分支南白沙35023柱上变压器,10KV511兴华线主干西街96102变压器,10KV511兴华线郑保昌35105分支郑保昌35105柱上变压器,10KV511兴华线中泰泵业家属院分支中泰泵业家属院变压器,10KV511兴华线西街34016分支西街浇地34016柱上变压器【纯农排变】,10KV511兴华线西街浇地35059分支西街浇地35059变压器【纯农排变】,10KV511兴华线丽景枫亭分支丽景枫亭柱上变压器,10KV511兴华线35117分支南白沙35117柱上变压器,10KV511兴华线兴华鸿景17355分支兴华鸿景17355变压器,10KV511兴华线35118分支南白沙35118柱上变压器,10KV511兴华线西街浇地35061分支西街浇地35058变压器【纯农排变】,10KV511兴华线劳动局公用34887分支兴华小学公用34890变压器,10KV511兴华线丽景枫亭分支南白沙35119柱上变压器,10KV511兴华线南街浇地35067分支南街浇地35067柱上变压器【纯农排变】,","scope":"【影响街道/乡镇】博野镇【高危重要客户】无【影响客户】西街村、南白沙、南街村、水利局家属院、教育局、桂竹苑、土地局家属院、劳动局、军转家属院、郑保昌家属院、兴华鸿景、吉林家属院、丽景枫庭、中泰家属院、集贸市场附近、职教中心、盛世家园、蓝点纺织、大成南环工业区、城南工业区、裕景家园、锦绣花园、公交公司","startTime":"2019-10-26 21:45:00","stopDate":"2019-10-26 23:50:00","orgNo":"1340608","typeCode":"电网故障停限电","poweroffArea":"【全线路停电】停老们养殖厂,河北蓝点纺织品制造有限公司,孟成军家属院,10KV511兴华线35018分支南街照明35018柱上变压器,兴华511线35202台区路灯,10KV511兴华线南街浇地35067分支南街浇地35067柱上变压器【纯农排变】,10KV511兴华线劳动局公用34887分支吉林家属院35006变压器,10KV511兴华线35117分支南白沙35117柱上变压器,华润橡胶厂,10KV511兴华线中泰泵业家属院分支中泰泵业家属院变压器,10KV511兴华线西街34016分支西街浇地34016柱上变压器【纯农排变】,博野县安达橡塑有限公司,10KV511兴华线35117分支南白沙35021柱上变压器,河北中泰泵业有限公司6,10KV511兴华线劳动局公用34887分支市场35002柱上变压器,10KV511兴华线劳动局公用34887分支兴华小学公用34890变压器,10KV511兴华线劳动局公用34887分支劳动局公用34887变压器,10KV511兴华线兴华鸿景17355分支兴华鸿景17355变压器,10KV511兴华线劳动局公用34887分支军转家属院34026变压器,0675278605-保定泰华房地产开发有限公司-专变-216165816-保定泰华房地产开发有限公司,李小亚浇地,大成（博野）机械有限公司,西街养殖厂,东旭电子,10KV511兴华线郑保昌35105分支郑保昌35105柱上变压器,博野县光荣院,博野县阁雅家居装饰有限公司,杨继周养殖厂,民政局家属院,0469531275-中国移动通信集团河北有限公司保定分公司-专变-46833748-移动公司,博野县瑞达建材销售处,保定市春诚房地产开发有限公司,兴华511线35204台区路灯,博野县安普输送机械制造有限公司,保定鼎汇房地产开发有限公司,10KV511兴华线照明分支南白沙43414变压器,李马家属院,博野县博兴公交客运有限公司,10KV511兴华线职教中心分支职教公用34893变压器,10KV511兴华线35018分支南街35107变压器,10KV511兴华线兴华鸿景17363分支兴华鸿景17363变压器,10KV511兴华线西街浇地35059分支西街浇地35059变压器【纯农排变】,10KV511兴华线西街浇地35061分支西街浇地35058变压器【纯农排变】,10KV511兴华线照明分支南白沙35023柱上变压器,10kV兴华线511桂竹苑变压器,10KV511兴华线西街浇地35061分支西街浇地35061变压器【纯农排变】,10KV511兴华线丽景枫亭分支丽景枫亭柱上变压器,10KV511兴华线水利局家属院分支水利局35024柱上变压器,河北天爱服饰有限公司,兴华511线35203台区路灯,南白沙村（博力）35011,10KV511兴华线35118分支南白沙35118柱上变压器,10KV511兴华线丽景枫亭分支南白沙35119柱上变压器,博野县美图房地产开发有限公司,10KV511兴华线西街村35004分支西街村35004柱上变压器,10KV511兴华线郑保昌35105分支南街浇地35057变压器,企业局家属院,0667418747-博野县博兴公交客运有限公司-专变-208399478-博野县博兴公交客运有限公司,10KV511兴华线主干南环公用照明50248台区变压器,10KV511兴华线照明分支南白沙35022柱上变压器,10KV511兴华线主干西街96102变压器,0595757062-保定泰华房地产开发有限公司-专变-126114054-保定泰华房地产开发有限公司,博野县至晟纺织厂","poweroffReason":"【停电原因】由于站内开关跳闸导致３５ＫＶ南白沙变电站兴华５１１线路全线停电【变更送电】因抢修进度加快原因，送电时间由２７日０８：００变更为２６日２３：５０【发布渠道】通过９５５９８发布","powerTime":"2019-10-26 23:23:00","powerComm":"已送电","subsNo":"","lineNo":"","tgNo":"","tgName":null,"infoStatus":"1","orgName":"国网博野县供电公司","typeName":null,"infoStatusName":null,"dateDay":null,"orgNos":null,"nowTime":null,"countyName":null,"streetName":null,"villageName":null,"roadName":null,"communityName":null,"tranName":null,"sdLineName":null,"cityCode":"1340608","cityName":"国网博野县供电公司","provinceCode":null,"stopTime":"2019-10-26 23:50:00","powerType":"全部","powerOffArea":"【全线路停电】停老们养殖厂,河北蓝点纺织品制造有限公司,孟成军家属院,10KV511兴华线35018分支南街照明35018柱上变压器,兴华511线35202台区路灯,10KV511兴华线南街浇地35067分支南街浇地35067柱上变压器【纯农排变】,10KV511兴华线劳动局公用34887分支吉林家属院35006变压器,10KV511兴华线35117分支南白沙35117柱上变压器,华润橡胶厂,10KV511兴华线中泰泵业家属院分支中泰泵业家属院变压器,10KV511兴华线西街34016分支西街浇地34016柱上变压器【纯农排变】,博野县安达橡塑有限公司,10KV511兴华线35117分支南白沙35021柱上变压器,河北中泰泵业有限公司6,10KV511兴华线劳动局公用34887分支市场35002柱上变压器,10KV511兴华线劳动局公用34887分支兴华小学公用34890变压器,10KV511兴华线劳动局公用34887分支劳动局公用34887变压器,10KV511兴华线兴华鸿景17355分支兴华鸿景17355变压器,10KV511兴华线劳动局公用34887分支军转家属院34026变压器,0675278605-保定泰华房地产开发有限公司-专变-216165816-保定泰华房地产开发有限公司,李小亚浇地,大成（博野）机械有限公司,西街养殖厂,东旭电子,10KV511兴华线郑保昌35105分支郑保昌35105柱上变压器,博野县光荣院,博野县阁雅家居装饰有限公司,杨继周养殖厂,民政局家属院,0469531275-中国移动通信集团河北有限公司保定分公司-专变-46833748-移动公司,博野县瑞达建材销售处,保定市春诚房地产开发有限公司,兴华511线35204台区路灯,博野县安普输送机械制造有限公司,保定鼎汇房地产开发有限公司,10KV511兴华线照明分支南白沙43414变压器,李马家属院,博野县博兴公交客运有限公司,10KV511兴华线职教中心分支职教公用34893变压器,10KV511兴华线35018分支南街35107变压器,10KV511兴华线兴华鸿景17363分支兴华鸿景17363变压器,10KV511兴华线西街浇地35059分支西街浇地35059变压器【纯农排变】,10KV511兴华线西街浇地35061分支西街浇地35058变压器【纯农排变】,10KV511兴华线照明分支南白沙35023柱上变压器,10kV兴华线511桂竹苑变压器,10KV511兴华线西街浇地35061分支西街浇地35061变压器【纯农排变】,10KV511兴华线丽景枫亭分支丽景枫亭柱上变压器,10KV511兴华线水利局家属院分支水利局35024柱上变压器,河北天爱服饰有限公司,兴华511线35203台区路灯,南白沙村（博力）35011,10KV511兴华线35118分支南白沙35118柱上变压器,10KV511兴华线丽景枫亭分支南白沙35119柱上变压器,博野县美图房地产开发有限公司,10KV511兴华线西街村35004分支西街村35004柱上变压器,10KV511兴华线郑保昌35105分支南街浇地35057变压器,企业局家属院,0667418747-博野县博兴公交客运有限公司-专变-208399478-博野县博兴公交客运有限公司,10KV511兴华线主干南环公用照明50248台区变压器,10KV511兴华线照明分支南白沙35022柱上变压器,10KV511兴华线主干西街96102变压器,0595757062-保定泰华房地产开发有限公司-专变-126114054-保定泰华房地产开发有限公司,博野县至晟纺织厂","powerOffReason":"【停电原因】由于站内开关跳闸导致３５ＫＶ南白沙变电站兴华５１１线路全线停电【变更送电】因抢修进度加快原因，送电时间由２７日０８：００变更为２６日２３：５０【发布渠道】通过９５５９８发布","powerOffId":"2019102613000286"},{"poweroffId":2019102613000269,"sgpoweroffId":null,"subsName":"","lineName":"10kV512祁口线","pubTranName":"祁口综合3台区,祁口综合10台区,辇庄大洋农排1台区【纯农排变】,志东综合2台区,辇庄综合11台区,辇庄综合2台区,辇庄综合1台区,辇庄大洋农排2台区【纯农排变】,辇庄综合8台区,祁口综合11台区,北丹农排7台区【纯农排变】,祁口综合6台区,辇庄综合9台区,祁口综合9台区,祁口综合2台区,辇庄综合3台区,志西综合3台区,祁口综合1台区,辇庄大洋农排3台区【纯农排变】,辇庄综合10台区,祁口综合4台区,志西综合5台区,辇庄综合5台区,辇庄综合4台区,志西综合7台区,辇庄综合7台区,辇庄综合6台区,祁口综合5台区,祁口综合7台区,","scope":"【影响街道/乡镇】北郭丹镇【高危重要客户】无【影响客户】辇庄村、北郭丹村（北丹）、东志愿村、志东村、西志愿村、志西村、南辛庄村、季家佐村、祁家口村、祁口村","startTime":"2019-10-26 19:14:20","stopDate":"2019-10-26 20:30:00","orgNo":"1340616","typeCode":"电网故障停限电","poweroffArea":"【全线路停电】停华中西厂,天信绒毛厂,蠡县恒通纺织有限公司变压器400KVA,蠡县安居物业服务有限公司变压器,志西综合5台区,辇庄综合5台区,辇庄综合4台区,祁口五欣染整厂,和平纺织变压器,志西综合7台区,祁口综合5台区,蠡县恒通纺织有限公司变压器630KVA1号,辇庄综合7台区,立永养殖场,祁口阳光毛纺厂,蠡县恒通纺织有限公司630KVA2号,辇庄综合6台区,东房,吴金马开花厂,原料加工厂,祁口农排1台区【纯农排变】,辇庄友谊地毯纱厂,辇庄综合9台区,祁口综合6台区,地毯纱纺织厂,志东综合2台区,蠡县恒通纺织有限公司,祁口综合9台区,辇庄综合11台区,辇庄综合2台区,辇庄综合1台区,辇庄大洋农排2台区【纯农排变】,0469440919-蠡县鸿途纺织有限公司-专变-227146956-鸿途变压器,祁口综合11台区,祁口综合2台区,辇庄综合3台区,蠡县辇庄殿召针刺厂,志西综合3台区,蠡县辇庄占熬开花厂,辇庄大洋农排3台区【纯农排变】,东申,蠡县恒通纺织有限公司630,北辛庄板厂,会胜面粉厂,德华洗毛,德华地毯沙厂,创业有限公司,辇庄综合8台区,祁口综合3台区,吴殿壮,纺织厂,刘顺昌,河山,平安厂,祁口综合4台区,蠡县五鑫毛纺染厂,蠡县辇庄殿军开花厂变压器,祁口综合1台区,祁口综合7台区,祁口综合10台区,辇庄大洋农排1台区【纯农排变】,辇庄皮毛厂,北丹农排7台区【纯农排变】,吴建芬,吴振军,振东开花厂,辇庄面粉厂,志东北地纱,辇庄地毯沙,和平皮毛厂,辇庄同雷开花厂,辇庄村北板厂,和平西厂,和平东厂,蠡县新建纺织厂,0469438996-蠡县辇庄发达针刺厂-专变-46810907-和平纺织厂,吴士杰,0469440629-会胜-专变-46810896-会胜,刘兰僧,辇庄综合10台区,立新,辇庄万达开花厂变压器,蠡县辇庄地毯纺织厂变压器","poweroffReason":"【停电原因】由于站内开关掉闸导致３５ＫＶ郭丹变电站１０ＫＶ祁口５１２线路全线停电【变更送电】因抢修进度加快原因，送电时间由２３：５９变更为２０：３０【发布渠道】通过９５５９８发布","powerTime":"2019-10-26 19:54:30","powerComm":"已送电","subsNo":"","lineNo":"","tgNo":"","tgName":null,"infoStatus":"1","orgName":"国网蠡县供电公司","typeName":null,"infoStatusName":null,"dateDay":null,"orgNos":null,"nowTime":null,"countyName":null,"streetName":null,"villageName":null,"roadName":null,"communityName":null,"tranName":null,"sdLineName":null,"cityCode":"1340616","cityName":"国网蠡县供电公司","provinceCode":null,"stopTime":"2019-10-26 20:30:00","powerType":"全部","powerOffArea":"【全线路停电】停华中西厂,天信绒毛厂,蠡县恒通纺织有限公司变压器400KVA,蠡县安居物业服务有限公司变压器,志西综合5台区,辇庄综合5台区,辇庄综合4台区,祁口五欣染整厂,和平纺织变压器,志西综合7台区,祁口综合5台区,蠡县恒通纺织有限公司变压器630KVA1号,辇庄综合7台区,立永养殖场,祁口阳光毛纺厂,蠡县恒通纺织有限公司630KVA2号,辇庄综合6台区,东房,吴金马开花厂,原料加工厂,祁口农排1台区【纯农排变】,辇庄友谊地毯纱厂,辇庄综合9台区,祁口综合6台区,地毯纱纺织厂,志东综合2台区,蠡县恒通纺织有限公司,祁口综合9台区,辇庄综合11台区,辇庄综合2台区,辇庄综合1台区,辇庄大洋农排2台区【纯农排变】,0469440919-蠡县鸿途纺织有限公司-专变-227146956-鸿途变压器,祁口综合11台区,祁口综合2台区,辇庄综合3台区,蠡县辇庄殿召针刺厂,志西综合3台区,蠡县辇庄占熬开花厂,辇庄大洋农排3台区【纯农排变】,东申,蠡县恒通纺织有限公司630,北辛庄板厂,会胜面粉厂,德华洗毛,德华地毯沙厂,创业有限公司,辇庄综合8台区,祁口综合3台区,吴殿壮,纺织厂,刘顺昌,河山,平安厂,祁口综合4台区,蠡县五鑫毛纺染厂,蠡县辇庄殿军开花厂变压器,祁口综合1台区,祁口综合7台区,祁口综合10台区,辇庄大洋农排1台区【纯农排变】,辇庄皮毛厂,北丹农排7台区【纯农排变】,吴建芬,吴振军,振东开花厂,辇庄面粉厂,志东北地纱,辇庄地毯沙,和平皮毛厂,辇庄同雷开花厂,辇庄村北板厂,和平西厂,和平东厂,蠡县新建纺织厂,0469438996-蠡县辇庄发达针刺厂-专变-46810907-和平纺织厂,吴士杰,0469440629-会胜-专变-46810896-会胜,刘兰僧,辇庄综合10台区,立新,辇庄万达开花厂变压器,蠡县辇庄地毯纺织厂变压器","powerOffReason":"【停电原因】由于站内开关掉闸导致３５ＫＶ郭丹变电站１０ＫＶ祁口５１２线路全线停电【变更送电】因抢修进度加快原因，送电时间由２３：５９变更为２０：３０【发布渠道】通过９５５９８发布","powerOffId":"2019102613000269"},{"poweroffId":2019102613000232,"sgpoweroffId":null,"subsName":"","lineName":"工业园563","pubTranName":"五一路公变,京白路3号公变,露易豪丹皮具有限公司变台,0549631983-保定互赢物业服务有限公司-专变-127156794-变压器1,变压器500,保定白沟新城慈仁中医院变压器,变压器-037,变压器-039,保定永猛商贸有限公司变压器,保定白沟新城崔文箱包配件厂变压器,保定白沟新城玲勇日用百货商行,白沟新城规划建设局五一路2号路灯,保定白沟新城旺百伦物业服务有限公司变压器,昊明皮革200,仙迪皮具厂,侯大午,变压器-038,保定牧森箱包制造有限公司,张志兴,杨书江变压器,高碑店市白沟永兴革业有限责任公司变压器,张军变压器,久鼎鑫电气变台,0562855243-梁国兴-专变-118494079-梁国兴变台,王秋生变台,时艳清1,于振,王洪峰,西江环保变压器,市政路灯变台2,焦桂玲,变压器400,保定白沟新城互相居民服务部,庞大力变压器,赵建辉,马春友,汽贸城5小区,回顺民,李立民,尤铁冀,保定途洒箱包制造有限公司,宋章平100,昊明皮革,河北祥宏箱包配件制造有限公司变压器,张利民,洪峰工业有限公司变台,王路政,王新学,高文宝变压器,郎景亮,卡迪兰变压器,保定白沟新城圣乾箱包配件加工厂变压器,张春来,杨文革,变压器-036,王建国,高恩晋,","scope":"【影响街道/乡镇】白沟镇、五一东路、兴盛大街 【高危重要客户】无 【影响客户】工业园区、白沟盛泰罗箱包制品有限公司、恒益物业、鑫纳箱包制造有限公司、铭磊加油站、雄皓箱包、静超织绳厂、布拉诺塑胶制造有限公司、河北西江环保科技有限公司、白沟吉忠热力有限责任公司、姜德强、杨书江、贯士威、梦思旅箱包制品厂、白沟爱神箱包、中国铁塔股份有限公司保定市分公司、保定开拓精密仪器制造有限责任公司、高文宝、中拓河北乳胶科技发展有限公司、赵建辉、谭文远、杨文革、河北达辉皮革制品有限公司、王新学、张志兴、空中鸟皮具有限公司、马春友、尤铁冀改宋秀实业、侯大午、广顺箱包工业、宋章平、焦桂玲、张利民、高恩晋、河北昊明人造皮革有限公司、善泽物业、保定奥宝特皮具工贸有限公司、汽贸城小区、王建国、白沟春彩皮具厂、保定烁格织带有限公司、卡迪兰皮具有限公司、张军、白沟永兴革业有限责任公司、梁国兴、白沟市政公司、保定市洪峰工业有限公司、崔文、保定白沟俊曦箱包加工厂、哈密袋鼠皮具有限公司、保定白沟新城川冀酒店","startTime":"2019-11-04 07:00:00","stopDate":"2019-11-04 18:00:00","orgNo":"1340612","typeCode":"计划停电","poweroffArea":"【全线路停电】停五一路公变,京白路3号公变,露易豪丹皮具有限公司变台,0549631983-保定互赢物业服务有限公司-专变-127156794-变压器1,变压器500,保定白沟新城慈仁中医院变压器,变压器-037,变压器-039,保定永猛商贸有限公司变压器,保定白沟新城崔文箱包配件厂变压器,保定白沟新城玲勇日用百货商行,白沟新城规划建设局五一路2号路灯,保定白沟新城旺百伦物业服务有限公司变压器,昊明皮革200,仙迪皮具厂,侯大午,变压器-038,保定牧森箱包制造有限公司,张志兴,杨书江变压器,高碑店市白沟永兴革业有限责任公司变压器,张军变压器,久鼎鑫电气变台,0562855243-梁国兴-专变-118494079-梁国兴变台,王秋生变台,时艳清1,于振,王洪峰,西江环保变压器,市政路灯变台2,焦桂玲,变压器400,保定白沟新城互相居民服务部,庞大力变压器,赵建辉,马春友,汽贸城5小区,回顺民,李立民,尤铁冀,保定途洒箱包制造有限公司,宋章平100,昊明皮革,河北祥宏箱包配件制造有限公司变压器,张利民,洪峰工业有限公司变台,王路政,王新学,高文宝变压器,郎景亮,卡迪兰变压器,保定白沟新城圣乾箱包配件加工厂变压器,张春来,杨文革,变压器-036,王建国,高恩晋","poweroffReason":"【停电原因】由于电源接引导致１１０ＫＶ南留变电站１０ＫＶ工业园５６３线路全线停电 【变更送电】无 【发布渠道】高碑店市高碑店电视台（１０月２７日０８时至１１月０３日１８时之间）屏幕上方滚动","powerTime":"2019-11-04 17:26:25","powerComm":"已送电","subsNo":"","lineNo":"","tgNo":"","tgName":null,"infoStatus":"1","orgName":"国网高碑店市供电公司","typeName":null,"infoStatusName":null,"dateDay":null,"orgNos":null,"nowTime":null,"countyName":null,"streetName":null,"villageName":null,"roadName":null,"communityName":null,"tranName":null,"sdLineName":null,"cityCode":"1340612","cityName":"国网高碑店市供电公司","provinceCode":null,"stopTime":"2019-11-04 18:00:00","powerType":"全部","powerOffArea":"【全线路停电】停五一路公变,京白路3号公变,露易豪丹皮具有限公司变台,0549631983-保定互赢物业服务有限公司-专变-127156794-变压器1,变压器500,保定白沟新城慈仁中医院变压器,变压器-037,变压器-039,保定永猛商贸有限公司变压器,保定白沟新城崔文箱包配件厂变压器,保定白沟新城玲勇日用百货商行,白沟新城规划建设局五一路2号路灯,保定白沟新城旺百伦物业服务有限公司变压器,昊明皮革200,仙迪皮具厂,侯大午,变压器-038,保定牧森箱包制造有限公司,张志兴,杨书江变压器,高碑店市白沟永兴革业有限责任公司变压器,张军变压器,久鼎鑫电气变台,0562855243-梁国兴-专变-118494079-梁国兴变台,王秋生变台,时艳清1,于振,王洪峰,西江环保变压器,市政路灯变台2,焦桂玲,变压器400,保定白沟新城互相居民服务部,庞大力变压器,赵建辉,马春友,汽贸城5小区,回顺民,李立民,尤铁冀,保定途洒箱包制造有限公司,宋章平100,昊明皮革,河北祥宏箱包配件制造有限公司变压器,张利民,洪峰工业有限公司变台,王路政,王新学,高文宝变压器,郎景亮,卡迪兰变压器,保定白沟新城圣乾箱包配件加工厂变压器,张春来,杨文革,变压器-036,王建国,高恩晋","powerOffReason":"【停电原因】由于电源接引导致１１０ＫＶ南留变电站１０ＫＶ工业园５６３线路全线停电 【变更送电】无 【发布渠道】高碑店市高碑店电视台（１０月２７日０８时至１１月０３日１８时之间）屏幕上方滚动","powerOffId":"2019102613000232"},{"poweroffId":2019102613000230,"sgpoweroffId":null,"subsName":"","lineName":"备用571","pubTranName":"许庄北,许庄东,许庄北2,许庄西,许庄中,许庄西2,","scope":"【影响街道/乡镇】白沟镇、兴盛大街、团结东路 【高危重要客户】名典苑小区 【影响客户】工业园区、互赢物业、中国建设银行保定分行、白沟成正物业、陈建坤、张建坡、保定森腾皮具制造有限公司、李永旺、魏双喜、王秋生、张洪良、张慧、力皇胶带厂","startTime":"2019-11-04 07:00:00","stopDate":"2019-11-04 18:00:00","orgNo":"1340612","typeCode":"计划停电","poweroffArea":"【全线路停电】停鹏润名典苑2,许庄安置区3-2变压器,规划建设局（兴胜街路灯）变压器,张建坡变压器,0628815404-保定润和房地产开发有限公司中天鞋城-专变-141336151-变压器,许庄北,许庄东,鹏润名典苑1,许庄北2,许庄西,工业园区路灯3-3,许庄安置区3-1变压器,许庄安置区2变压器,0552299974-高碑店市白沟镇许庄村(许庄安置小区)-专变-50703846-高碑店市白沟镇许庄村（许庄安置小区）变压器,河北鹏润房地产开发有限公司（美墅家）变压器,变压器-040,保定富地城房地产开发有限公司,变压器500,许庄中,保定白沟新城博炎箱包配件加工厂,天棚500,变压器-041,变压器400,许庄安置区4变压器,张洪良,保定白沟联兴塑料批发行变压器,许庄西2,保定白沟新城中茂箱包配件加工厂变压器","poweroffReason":"【停电原因】由于电源接引导致１１０ＫＶ南留变电站１０ＫＶ备用５７１线路全线停电 【变更送电】无 【发布渠道】高碑店市高碑店电视台（１０月２７日０８时至１１月０３日１８时之间）屏幕上方滚动","powerTime":"2019-11-04 17:25:09","powerComm":"已送电","subsNo":"","lineNo":"","tgNo":"","tgName":null,"infoStatus":"1","orgName":"国网高碑店市供电公司","typeName":null,"infoStatusName":null,"dateDay":null,"orgNos":null,"nowTime":null,"countyName":null,"streetName":null,"villageName":null,"roadName":null,"communityName":null,"tranName":null,"sdLineName":null,"cityCode":"1340612","cityName":"国网高碑店市供电公司","provinceCode":null,"stopTime":"2019-11-04 18:00:00","powerType":"全部","powerOffArea":"【全线路停电】停鹏润名典苑2,许庄安置区3-2变压器,规划建设局（兴胜街路灯）变压器,张建坡变压器,0628815404-保定润和房地产开发有限公司中天鞋城-专变-141336151-变压器,许庄北,许庄东,鹏润名典苑1,许庄北2,许庄西,工业园区路灯3-3,许庄安置区3-1变压器,许庄安置区2变压器,0552299974-高碑店市白沟镇许庄村(许庄安置小区)-专变-50703846-高碑店市白沟镇许庄村（许庄安置小区）变压器,河北鹏润房地产开发有限公司（美墅家）变压器,变压器-040,保定富地城房地产开发有限公司,变压器500,许庄中,保定白沟新城博炎箱包配件加工厂,天棚500,变压器-041,变压器400,许庄安置区4变压器,张洪良,保定白沟联兴塑料批发行变压器,许庄西2,保定白沟新城中茂箱包配件加工厂变压器","powerOffReason":"【停电原因】由于电源接引导致１１０ＫＶ南留变电站１０ＫＶ备用５７１线路全线停电 【变更送电】无 【发布渠道】高碑店市高碑店电视台（１０月２７日０８时至１１月０３日１８时之间）屏幕上方滚动","powerOffId":"2019102613000230"},{"poweroffId":2019102613000229,"sgpoweroffId":null,"subsName":"","lineName":"许庄564","pubTranName":"0490434431-高碑店市鸿鹏箱包有限公司01,0490434431-高碑店市鸿鹏箱包有限公司02,变压器400,鸿鹏箱包有限公司01,保定圣亚凯特商贸有限公司,高碑店市白沟王海水铝塑门窗店变压器,高碑店市鸿鹏箱包有限公司变压器,变压器250,吴成勇,李双来,变压器-067,0669288984-保定白沟新城旺百伦物业服务公司-专变-212144004-变压器,旭昇小学变压器,森贝变压器,鑫汇压铸厂,时飞,0741304030-河北鹏润房地产开发有限公司01,保定洁聪箱包配件制造有限公司,周素清,鸿鹏箱包有限公司02,保定九营箱包制造有限公司变压器,变压器-070,藏春田,变压器-068,变压器-069,保定白沟新城建明箱包配件厂变压器,高碑店市金利达革塑有限责任公司变压器,0741304030-河北鹏润房地产开发有限公司02,变压器,","scope":"【影响街道/乡镇】白沟镇、兴盛大街、北环路 【高危重要客户】无 【影响客户】工业园区、保定泰祥富娱乐服务有限公司、河北金利达革塑有限责任公司(生活区)、白沟王海水铝塑门窗店、河北春丽皮具有限公司、保定铂耀箱包制造有限公司、时飞、恒隆物业、李双来、吴成勇、鑫汇压铸厂、藏春田、高碑店市鸿鹏箱包有限公司、周素清、蓝末、河北广电网络集团、保定卓华箱包配件制造有限公司、白沟新城旭昇小学、鸿鹏、白沟新城建明箱包配件厂、保定九营箱包制造有限公司、互赢物业、白沟成正物业(名典苑小区)、陈建坤、张建坡、张洪良、白沟爱神箱包、张慧、李永旺","startTime":"2019-11-04 07:00:00","stopDate":"2019-11-04 18:00:00","orgNo":"1340612","typeCode":"计划停电","poweroffArea":"【全线路停电】停0741304030-河北鹏润房地产开发有限公司01,0490434431-高碑店市鸿鹏箱包有限公司01,0490434431-高碑店市鸿鹏箱包有限公司02,变压器400,鸿鹏箱包有限公司01,保定圣亚凯特商贸有限公司,高碑店市白沟王海水铝塑门窗店变压器,高碑店市鸿鹏箱包有限公司变压器,变压器250,吴成勇,李双来,变压器-067,0669288984-保定白沟新城旺百伦物业服务公司-专变-212144004-变压器,旭昇小学变压器,森贝变压器,鑫汇压铸厂,时飞,保定洁聪箱包配件制造有限公司,周素清,鸿鹏箱包有限公司02,保定九营箱包制造有限公司变压器,变压器-070,藏春田,变压器-068,变压器,变压器-069,保定白沟新城建明箱包配件厂变压器,高碑店市金利达革塑有限责任公司变压器,0741304030-河北鹏润房地产开发有限公司02","poweroffReason":"【停电原因】由于电源接引导致１１０ＫＶ南留变电站１０ＫＶ许庄５６４线路全线停电 【变更送电】无 【发布渠道】高碑店市高碑店电视台（１０月２７日０８时至１１月０３日１８时之间）屏幕上方滚动","powerTime":"2019-11-04 17:25:40","powerComm":"已送电","subsNo":"","lineNo":"","tgNo":"","tgName":null,"infoStatus":"1","orgName":"国网高碑店市供电公司","typeName":null,"infoStatusName":null,"dateDay":null,"orgNos":null,"nowTime":null,"countyName":null,"streetName":null,"villageName":null,"roadName":null,"communityName":null,"tranName":null,"sdLineName":null,"cityCode":"1340612","cityName":"国网高碑店市供电公司","provinceCode":null,"stopTime":"2019-11-04 18:00:00","powerType":"全部","powerOffArea":"【全线路停电】停0741304030-河北鹏润房地产开发有限公司01,0490434431-高碑店市鸿鹏箱包有限公司01,0490434431-高碑店市鸿鹏箱包有限公司02,变压器400,鸿鹏箱包有限公司01,保定圣亚凯特商贸有限公司,高碑店市白沟王海水铝塑门窗店变压器,高碑店市鸿鹏箱包有限公司变压器,变压器250,吴成勇,李双来,变压器-067,0669288984-保定白沟新城旺百伦物业服务公司-专变-212144004-变压器,旭昇小学变压器,森贝变压器,鑫汇压铸厂,时飞,保定洁聪箱包配件制造有限公司,周素清,鸿鹏箱包有限公司02,保定九营箱包制造有限公司变压器,变压器-070,藏春田,变压器-068,变压器,变压器-069,保定白沟新城建明箱包配件厂变压器,高碑店市金利达革塑有限责任公司变压器,0741304030-河北鹏润房地产开发有限公司02","powerOffReason":"【停电原因】由于电源接引导致１１０ＫＶ南留变电站１０ＫＶ许庄５６４线路全线停电 【变更送电】无 【发布渠道】高碑店市高碑店电视台（１０月２７日０８时至１１月０３日１８时之间）屏幕上方滚动","powerOffId":"2019102613000229"}],"pageModel":{"pageNow":442,"totalCount":10973,"totalPage":1098,"tableRows":0,"pageCount":10,"beginCount":4410},"isExperi":"1"}