{"message":"","today":"2020-06-15","seleList":[{"poweroffId":2019102613000100,"sgpoweroffId":null,"subsName":"","lineName":"固酒线564","pubTranName":"曹家营光6【2019年预安排】,魏家庄光3【2019第一批预安排】,西陶沈光4【2018年四批补强】,魏家庄光4,中陶沈排8【纯农排变】,新魏庄光2,魏家庄光1,中陶沈光6,东陶沈光5,东陶沈排2【纯农排变】,西魏家庄排1【纯农排变】,曹家营排4【纯农排变】,中陶沈排5【纯农排变】,魏家庄排3【纯农排变】,西陶沈光5,中陶沈光1【2018年第二批应急工程】,曹家营排5【纯农排变】,曹家营排6【纯农排变】,曹家营排7【纯农排变】,西陶沈光2,东陶沈排3【纯农排变】,曹家营排2【纯农排变】,北大牛排5【纯农排变】,中陶沈光7,东陶沈光6,西陶沈排4【纯农排变】,魏家庄排4【纯农排变】,中陶沈光3,中陶沈排6【纯农排变】,曹家营光1,北大牛排2【纯农排变】,魏家庄排2【纯农排变】,西陶沈排5【纯农排变】,曹家营排3【纯农排变】,曹家营光4,中陶沈排2【纯农排变】,北大牛排7【纯农排变】,东陶沈排4【纯农排变】,西陶沈排6【纯农排变】,中陶沈光2,曹家营排1【纯农排变】,中陶沈排3【纯农排变】,魏家庄排5【纯农排变】,东陶沈排6【纯农排变】,东陶沈光7变压器,西陶沈排2【纯农排变】,中陶沈排4【纯农排变】,西陶沈光1,西陶沈光3,西陶沈排1【纯农排变】,东陶沈光1,东陶沈光2,北大牛排1【纯农排变】,北大牛排6【纯农排变】,曹家营光3,西陶沈排3【纯农排变】,东陶沈光3,中陶沈排7【纯农排变】,东陶沈村排8【纯农排变】,东陶沈光4变压器,东陶沈村排5【纯农排变】,曹家营光2【2018年重过载】,中陶沈光4【2018年第二批应急工程】,东陶沈排7【纯农排变】,曹家营光5,中陶沈排1【纯农排变】,魏家庄光5,中陶沈光5,","scope":"【影响街道/乡镇】张家庄乡 【高危重要客户】无 【影响客户】西陶沈、西魏家庄、曹家营、中陶沈部分用户、北大牛部分用户、中兴饲料、沽酒小学、东陶沈幼儿园、移动公司固店机站、移动通信集团河北有限公司定兴分公司西陶沈机站","startTime":"2019-11-06 07:30:00","stopDate":"2019-11-06 17:00:00","orgNo":"1340609","typeCode":"计划停电","poweroffArea":"【全线路停电】停中陶沈光1【2018年第二批应急工程】,曹家营光6【2019年预安排】,魏家庄光3【2019第一批预安排】,西陶沈光4【2018年四批补强】,魏家庄光4,中陶沈排8【纯农排变】,新魏庄光2,魏家庄光1,中陶沈光6,东陶沈光5,东陶沈排2【纯农排变】,西魏家庄排1【纯农排变】,曹家营排4【纯农排变】,中陶沈排5【纯农排变】,魏家庄排3【纯农排变】,西陶沈光5,曹家营排5【纯农排变】,曹家营排6【纯农排变】,曹家营排7【纯农排变】,西陶沈光2,东陶沈排3【纯农排变】,曹家营排2【纯农排变】,北大牛排5【纯农排变】,中陶沈光7,东陶沈光6,西陶沈排4【纯农排变】,魏家庄排4【纯农排变】,中陶沈光3,中陶沈排6【纯农排变】, 曹家营光1,北大牛排2【纯农排变】,魏家庄排2【纯农排变】,西陶沈排5【纯农排变】,曹家营排3【纯农排变】,曹家营光4,中陶沈排2【纯农排变】,北大牛排7【纯农排变】,东陶沈排4【纯农排变】,西陶沈排6【纯农排变】,中陶沈光2,曹家营排1【纯农排变】,中陶沈排3【纯农排变】,魏家庄排5【纯农排变】,东陶沈排6【纯农排变】,东陶沈光7变压器,西陶沈排2【纯农排变】,中陶沈排4【纯农排变】,西陶沈光1,西陶沈光3,西陶沈排1【纯农排变】,东陶沈光1,东陶沈光2,北大牛排1【纯农排变】,北大牛排6【纯农排变】,曹家营光3,西陶沈排3【纯农排变】,东陶沈光3,中陶沈排7【纯农排变】,东陶沈村排8【纯农排变】,东陶沈光4变压器,东陶沈村排5【纯农排变】,曹家营光2【2018年重过载】,中陶沈光4【2018年第二批应急工程】,东陶沈排7【纯农排变】,曹家营光5,中陶沈排1【纯农排变】,魏家庄光5,中陶沈光5","poweroffReason":"【停电原因】由于主干６８号杆安装隔离开关导致１１０ＫＶ贤寓变电站固酒线５６４线路全线停电 【变更送电】无 【发布渠道】保定市定兴县电视台（１０月２９日９时１０分至２３时２０分之间）屏幕上方滚动播放","powerTime":"2019-11-06 16:50:18","powerComm":"已送电","subsNo":"","lineNo":"","tgNo":"","tgName":null,"infoStatus":"1","orgName":"国网定兴县供电公司","typeName":null,"infoStatusName":null,"dateDay":null,"orgNos":null,"nowTime":null,"countyName":null,"streetName":null,"villageName":null,"roadName":null,"communityName":null,"tranName":null,"sdLineName":null,"cityCode":"1340609","cityName":"国网定兴县供电公司","provinceCode":null,"stopTime":"2019-11-06 17:00:00","powerType":"全部","powerOffArea":"【全线路停电】停中陶沈光1【2018年第二批应急工程】,曹家营光6【2019年预安排】,魏家庄光3【2019第一批预安排】,西陶沈光4【2018年四批补强】,魏家庄光4,中陶沈排8【纯农排变】,新魏庄光2,魏家庄光1,中陶沈光6,东陶沈光5,东陶沈排2【纯农排变】,西魏家庄排1【纯农排变】,曹家营排4【纯农排变】,中陶沈排5【纯农排变】,魏家庄排3【纯农排变】,西陶沈光5,曹家营排5【纯农排变】,曹家营排6【纯农排变】,曹家营排7【纯农排变】,西陶沈光2,东陶沈排3【纯农排变】,曹家营排2【纯农排变】,北大牛排5【纯农排变】,中陶沈光7,东陶沈光6,西陶沈排4【纯农排变】,魏家庄排4【纯农排变】,中陶沈光3,中陶沈排6【纯农排变】, 曹家营光1,北大牛排2【纯农排变】,魏家庄排2【纯农排变】,西陶沈排5【纯农排变】,曹家营排3【纯农排变】,曹家营光4,中陶沈排2【纯农排变】,北大牛排7【纯农排变】,东陶沈排4【纯农排变】,西陶沈排6【纯农排变】,中陶沈光2,曹家营排1【纯农排变】,中陶沈排3【纯农排变】,魏家庄排5【纯农排变】,东陶沈排6【纯农排变】,东陶沈光7变压器,西陶沈排2【纯农排变】,中陶沈排4【纯农排变】,西陶沈光1,西陶沈光3,西陶沈排1【纯农排变】,东陶沈光1,东陶沈光2,北大牛排1【纯农排变】,北大牛排6【纯农排变】,曹家营光3,西陶沈排3【纯农排变】,东陶沈光3,中陶沈排7【纯农排变】,东陶沈村排8【纯农排变】,东陶沈光4变压器,东陶沈村排5【纯农排变】,曹家营光2【2018年重过载】,中陶沈光4【2018年第二批应急工程】,东陶沈排7【纯农排变】,曹家营光5,中陶沈排1【纯农排变】,魏家庄光5,中陶沈光5","powerOffReason":"【停电原因】由于主干６８号杆安装隔离开关导致１１０ＫＶ贤寓变电站固酒线５６４线路全线停电 【变更送电】无 【发布渠道】保定市定兴县电视台（１０月２９日９时１０分至２３时２０分之间）屏幕上方滚动播放","powerOffId":"2019102613000100"},{"poweroffId":2019102613000098,"sgpoweroffId":null,"subsName":"","lineName":"王京线516","pubTranName":"陶邱公用3137,","scope":"【影响街道/乡镇】王京镇【高危重要客户】无【影响客户】北陶邱村","startTime":"2019-11-05 06:30:00","stopDate":"2019-11-05 18:00:00","orgNo":"1340622","typeCode":"计划停电","poweroffArea":"【分支停电】停陶邱公用3137","poweroffReason":"【停电原因】由于更换电杆导致３５ＫＶ王京变电站王京线５１６线路北陶邱３１３７台区分支００１号杆刀闸以下线路停电【变更送电】无【发布渠道】保定市唐县电视台（１０月２６日至１１月０４日的２０：００时至２０：３０时之间）屏幕上方滚动字幕","powerTime":"2019-11-05 17:03:37","powerComm":"已送电","subsNo":"","lineNo":"","tgNo":"","tgName":null,"infoStatus":"1","orgName":"国网唐县供电公司","typeName":null,"infoStatusName":null,"dateDay":null,"orgNos":null,"nowTime":null,"countyName":null,"streetName":null,"villageName":null,"roadName":null,"communityName":null,"tranName":null,"sdLineName":null,"cityCode":"1340622","cityName":"国网唐县供电公司","provinceCode":null,"stopTime":"2019-11-05 18:00:00","powerType":"全部","powerOffArea":"【分支停电】停陶邱公用3137","powerOffReason":"【停电原因】由于更换电杆导致３５ＫＶ王京变电站王京线５１６线路北陶邱３１３７台区分支００１号杆刀闸以下线路停电【变更送电】无【发布渠道】保定市唐县电视台（１０月２６日至１１月０４日的２０：００时至２０：３０时之间）屏幕上方滚动字幕","powerOffId":"2019102613000098"},{"poweroffId":2019102613000087,"sgpoweroffId":null,"subsName":"","lineName":"天宫寺线515","pubTranName":"闫家营光3,闫家营5,闫家营光6,闫家营光2|07095152015,闫家营光4,界河铺村光4,界河铺村光7,闫家营光7,闫家营光1,","scope":"【影响街道/乡镇】天宫寺乡 【高危重要客户】无 【影响客户】界河铺、闫家营","startTime":"2019-11-06 08:00:00","stopDate":"2019-11-06 12:00:00","orgNo":"1340609","typeCode":"计划停电","poweroffArea":"【分支停电】停闫家营光7,闫家营排3【纯农排变】,闫家营光1,闫家营光3,闫家营混2|07095152066,闫家营排1|07095152065【纯农排变】,闫家营5,闫家营光6,闫家营光2|07095152015,闫家营光4,界河铺排4|07095152063【纯农排变】,界河铺排7【纯农排变】,界河铺排3|07095152062【纯农排变】,界河铺村光4,界河铺村光7,界河铺排2|07095152061【纯农排变】","poweroffReason":"【停电原因】由于界河铺排４分支０９号杆安装隔离开关导致３５ＫＶ彭各庄变电站天宫寺线５１５线路主干６９号杆５１５－０４号断路器以下线路停电 【变更送电】无 【发布渠道】保定市定兴县电视台（１０月２９日９时１０分至２３时２０分之间）屏幕上方滚动播放","powerTime":"2019-11-06 11:51:56","powerComm":"已送电","subsNo":"","lineNo":"","tgNo":"","tgName":null,"infoStatus":"1","orgName":"国网定兴县供电公司","typeName":null,"infoStatusName":null,"dateDay":null,"orgNos":null,"nowTime":null,"countyName":null,"streetName":null,"villageName":null,"roadName":null,"communityName":null,"tranName":null,"sdLineName":null,"cityCode":"1340609","cityName":"国网定兴县供电公司","provinceCode":null,"stopTime":"2019-11-06 12:00:00","powerType":"全部","powerOffArea":"【分支停电】停闫家营光7,闫家营排3【纯农排变】,闫家营光1,闫家营光3,闫家营混2|07095152066,闫家营排1|07095152065【纯农排变】,闫家营5,闫家营光6,闫家营光2|07095152015,闫家营光4,界河铺排4|07095152063【纯农排变】,界河铺排7【纯农排变】,界河铺排3|07095152062【纯农排变】,界河铺村光4,界河铺村光7,界河铺排2|07095152061【纯农排变】","powerOffReason":"【停电原因】由于界河铺排４分支０９号杆安装隔离开关导致３５ＫＶ彭各庄变电站天宫寺线５１５线路主干６９号杆５１５－０４号断路器以下线路停电 【变更送电】无 【发布渠道】保定市定兴县电视台（１０月２９日９时１０分至２３时２０分之间）屏幕上方滚动播放","powerOffId":"2019102613000087"},{"poweroffId":2019102613000046,"sgpoweroffId":null,"subsName":"","lineName":"10KV城西农业519","pubTranName":"太平庄村内5375 增,西坛2299增,西坛村西变压器,东沙沟村北新,杨庄村西2296增,小马村2308,东沙沟村南商业街【纯农排变】,小马村北新,西坛村内东增,西坛西2370增,小马村东北2428,太平庄井4951【纯农排变】,西坛南新【纯农排变】,东沙沟西2895,小马村5349,杨庄村北2297,西坛村西新1444,小马村2417,太平庄2295增,东沙沟内2400,太平庄西北增,小马村2376,小马村商业街,杨庄村西南增,西坛西二变压器增,东沙沟2894,西坛村北3753,西坛村北新变压器增,东沙沟村北,","scope":"【影响街道/乡镇】东城坊镇 【高危重要客户】无 【影响客户】小马村、东沙沟、西坛村、杨庄、太平庄","startTime":"2019-11-05 00:30:00","stopDate":"2019-11-05 05:30:00","orgNo":"1340626","typeCode":"计划停电","poweroffArea":"【分支停电】停西坛村西变压器,西坛新型岩棉厂,东沙沟村北新,西坛村内东增,西坛西2370增,西坛南新【纯农排变】,西坛2299增,杨庄村西2296增,小马村2308,西坛村南5200【纯农排变】,东沙沟村南商业街【纯农排变】,小马村北新,小马村东北2428,东沙沟西2895,西坛村西北4607,小马村5349,杨庄村北2297,东沙沟村北,西坛水泥厂,西坛村西新1444,小马村2417,太平庄2295增,东沙沟内2400,太平庄西北增,东沙沟南2323,小马村2376,小马村商业街,东城坊供电所（东沙沟西南）,杨庄村西南增,西坛西二变压器增,东沙沟2894,西坛村北3753,西坛村北新变压器增,太平庄井4951【纯农排变】,太平庄村内5375 增,西坛村西南4606【纯农排变】","poweroffReason":"【停电原因】由于新增配变工程导致１１０ＫＶ涿县变电站１０ＫＶ城西农业５１９线路０４号杆以下线路停电 【变更送电】无 【发布渠道】涿州电视台（１０月２６日至１１月０４日２１：００播放２次）屏幕上方滚动","powerTime":"2019-11-05 05:15:39","powerComm":"恢复送电","subsNo":"","lineNo":"","tgNo":"","tgName":null,"infoStatus":"1","orgName":"国网涿州市供电公司","typeName":null,"infoStatusName":null,"dateDay":null,"orgNos":null,"nowTime":null,"countyName":null,"streetName":null,"villageName":null,"roadName":null,"communityName":null,"tranName":null,"sdLineName":null,"cityCode":"1340626","cityName":"国网涿州市供电公司","provinceCode":null,"stopTime":"2019-11-05 05:30:00","powerType":"全部","powerOffArea":"【分支停电】停西坛村西变压器,西坛新型岩棉厂,东沙沟村北新,西坛村内东增,西坛西2370增,西坛南新【纯农排变】,西坛2299增,杨庄村西2296增,小马村2308,西坛村南5200【纯农排变】,东沙沟村南商业街【纯农排变】,小马村北新,小马村东北2428,东沙沟西2895,西坛村西北4607,小马村5349,杨庄村北2297,东沙沟村北,西坛水泥厂,西坛村西新1444,小马村2417,太平庄2295增,东沙沟内2400,太平庄西北增,东沙沟南2323,小马村2376,小马村商业街,东城坊供电所（东沙沟西南）,杨庄村西南增,西坛西二变压器增,东沙沟2894,西坛村北3753,西坛村北新变压器增,太平庄井4951【纯农排变】,太平庄村内5375 增,西坛村西南4606【纯农排变】","powerOffReason":"【停电原因】由于新增配变工程导致１１０ＫＶ涿县变电站１０ＫＶ城西农业５１９线路０４号杆以下线路停电 【变更送电】无 【发布渠道】涿州电视台（１０月２６日至１１月０４日２１：００播放２次）屏幕上方滚动","powerOffId":"2019102613000046"},{"poweroffId":2019102613000037,"sgpoweroffId":null,"subsName":"","lineName":"10kV523万安东线","pubTranName":"东辛庄综合4台区,东建华农排7台区【纯农排变】,东辛庄综合3台区,北辛庄综合17台区,北辛庄农排十台区【纯农排变】,东辛庄综合18台区,东建华综合4台区,北辛庄综合14台区,东辛庄综合16台区,东辛庄综合19台区,东辛庄综合20台区,北辛庄综合一台区,北辛庄综合15台区,东辛庄农排五台区【纯农排变】,北辛庄农排七台区【纯农排变】,东辛庄综合17台区,北辛庄综合16台区,东辛庄综合十一台区,东辛庄综合八台区,东辛庄综合一台区,北辛庄综合13台区,东辛庄综合二台区,东辛庄农排九台区【纯农排变】,东辛庄综合十五台区,东建华综合一台区,北辛庄综合二台区,北辛庄农排九台区【纯农排变】,北辛庄农排六台区【纯农排变】,北辛庄综合三台区,","scope":"【影响街道/乡镇】万安镇【高危重要客户】无【影响客户】东辛庄村、北辛庄村、东建华村","startTime":"2019-10-26 14:00:00","stopDate":"2019-10-26 18:00:00","orgNo":"1340616","typeCode":"其他临时停电","poweroffArea":"【分支停电】停北辛庄农排三台区【纯农排变】,长城地毯纱厂,中国移动通信集团河北有限公司蠡县分公司,东辛庄综合18台区,蠡县辛庄絮片厂变压器,华伟皮草,王占芳,东辛庄洗毛厂德国,东辛庄综合4台区,东建华农排7台区【纯农排变】,辛庄开花针刺厂变压器,蠡县北辛庄海军开花厂,建华新区变压器,北辛庄农排四台区【纯农排变】,北辛庄农排五台区【纯农排变】,北辛庄农排十一台区【纯农排变】,北辛庄农排十二台区【纯农排变】,保定蒲公英纺织品制造有限公司变压器,网通万安东辛庄变压器,王广辉,北辛庄综合17台区,北辛庄农排十台区【纯农排变】,北辛庄毛昵厂,建强面粉厂,0469440326-会卯-专变-46810897-会卯,占英纺纱厂,北辛庄布厂,东建华综合4台区,北辛庄综合14台区,北辛庄田新忠羊毛软化厂,东辛庄综合20台区,北辛庄综合一台区,北辛庄综合15台区,东辛庄农排五台区【纯农排变】,北辛庄农排七台区【纯农排变】,东辛庄综合17台区,辉宏合线厂,保定东明纺织品工贸有限公司,北辛庄综合16台区,森源纺织有限公司,金志花开花厂,东辛庄综合十一台区,东辛庄综合八台区,东辛庄综合一台区,东辛庄农排九台区【纯农排变】,东辛庄综合十五台区,亚辉毛昵厂,蠡县祥宏毛纺厂,蠡县含情纺织,东辛庄村南农业,东建华综合一台区,北辛庄综合二台区,北辛庄农排九台区【纯农排变】,北辛庄农排六台区【纯农排变】,北辛庄综合三台区,东辛庄农排2台区【纯农排变】,东辛庄综合3台区,东辛庄合绒厂,东辛庄综合16台区,伟业养殖场变压器,东辛庄综合19台区,北辛庄毛纺厂,北辛庄农排八台区【纯农排变】,北辛庄综合13台区,蠡县万安镇东辛庄小学变压器,北辛庄海林开花厂,建华合线厂,东辛庄综合二台区","poweroffReason":"【停电原因】由于线路严重缺陷，需停电进行紧急消缺导致１１０ＫＶ刘铭庄变电站１０ＫＶ万安东５２３线路０７７号杆０６号刀闸０２号开关以下停电【变更送电】无【发布渠道】通过９５５９８发布","powerTime":"2019-10-26 17:06:35","powerComm":"已送电","subsNo":"","lineNo":"","tgNo":"","tgName":null,"infoStatus":"1","orgName":"国网蠡县供电公司","typeName":null,"infoStatusName":null,"dateDay":null,"orgNos":null,"nowTime":null,"countyName":null,"streetName":null,"villageName":null,"roadName":null,"communityName":null,"tranName":null,"sdLineName":null,"cityCode":"1340616","cityName":"国网蠡县供电公司","provinceCode":null,"stopTime":"2019-10-26 18:00:00","powerType":"全部","powerOffArea":"【分支停电】停北辛庄农排三台区【纯农排变】,长城地毯纱厂,中国移动通信集团河北有限公司蠡县分公司,东辛庄综合18台区,蠡县辛庄絮片厂变压器,华伟皮草,王占芳,东辛庄洗毛厂德国,东辛庄综合4台区,东建华农排7台区【纯农排变】,辛庄开花针刺厂变压器,蠡县北辛庄海军开花厂,建华新区变压器,北辛庄农排四台区【纯农排变】,北辛庄农排五台区【纯农排变】,北辛庄农排十一台区【纯农排变】,北辛庄农排十二台区【纯农排变】,保定蒲公英纺织品制造有限公司变压器,网通万安东辛庄变压器,王广辉,北辛庄综合17台区,北辛庄农排十台区【纯农排变】,北辛庄毛昵厂,建强面粉厂,0469440326-会卯-专变-46810897-会卯,占英纺纱厂,北辛庄布厂,东建华综合4台区,北辛庄综合14台区,北辛庄田新忠羊毛软化厂,东辛庄综合20台区,北辛庄综合一台区,北辛庄综合15台区,东辛庄农排五台区【纯农排变】,北辛庄农排七台区【纯农排变】,东辛庄综合17台区,辉宏合线厂,保定东明纺织品工贸有限公司,北辛庄综合16台区,森源纺织有限公司,金志花开花厂,东辛庄综合十一台区,东辛庄综合八台区,东辛庄综合一台区,东辛庄农排九台区【纯农排变】,东辛庄综合十五台区,亚辉毛昵厂,蠡县祥宏毛纺厂,蠡县含情纺织,东辛庄村南农业,东建华综合一台区,北辛庄综合二台区,北辛庄农排九台区【纯农排变】,北辛庄农排六台区【纯农排变】,北辛庄综合三台区,东辛庄农排2台区【纯农排变】,东辛庄综合3台区,东辛庄合绒厂,东辛庄综合16台区,伟业养殖场变压器,东辛庄综合19台区,北辛庄毛纺厂,北辛庄农排八台区【纯农排变】,北辛庄综合13台区,蠡县万安镇东辛庄小学变压器,北辛庄海林开花厂,建华合线厂,东辛庄综合二台区","powerOffReason":"【停电原因】由于线路严重缺陷，需停电进行紧急消缺导致１１０ＫＶ刘铭庄变电站１０ＫＶ万安东５２３线路０７７号杆０６号刀闸０２号开关以下停电【变更送电】无【发布渠道】通过９５５９８发布","powerOffId":"2019102613000037"},{"poweroffId":2019102613000036,"sgpoweroffId":null,"subsName":"","lineName":"10kV511扈营线","pubTranName":"户营综合7台区,户营综合9台区,户营综合8台区,农场综合3台区,户营综合1台区,户营农排1台区【纯农排变】,户营综合5台区,户营综合4台区,户营综合10台区,户营综合3台区,户营综合2台区,农场农排5台区【纯农排变】,户营综合6台区,","scope":"【影响街道/乡镇】北埝头乡【高危重要客户】无【影响客户】扈营村","startTime":"2019-10-26 10:32:00","stopDate":"2019-10-26 13:00:00","orgNo":"1340616","typeCode":"电网故障停限电","poweroffArea":"【全线路停电】停户夫永,张敦,户营农排1台区【纯农排变】,户营综合10台区,户营综合3台区,农场农排5台区【纯农排变】,农场综合3台区,户营综合4台区,志芬,谭大,建修,大胜,刘牛,谭大轻,兴茂,汉臣,户营综合1台区,建昆,户营综合9台区,王中和,万东,大根,广杰,户营综合2台区,贵州,亚明,户营综合5台区,户营综合7台区,户营综合6台区,谭清源,谭整岁,谭瑞欣,小丑,户营综合8台区,户计栓,蠡县利民辣椒大蒜专业合作社,学康,小周","poweroffReason":"【停电原因】由于线路Ａ相接地导致３５ＫＶ李岗变电站１０ＫＶ扈营５１１线路全线停电【变更送电】因抢修进度加快原因，送电时间由１６：００变更为１３：００【发布渠道】通过９５５９８发布","powerTime":"2019-10-26 12:01:00","powerComm":"已送电","subsNo":"","lineNo":"","tgNo":"","tgName":null,"infoStatus":"1","orgName":"国网蠡县供电公司","typeName":null,"infoStatusName":null,"dateDay":null,"orgNos":null,"nowTime":null,"countyName":null,"streetName":null,"villageName":null,"roadName":null,"communityName":null,"tranName":null,"sdLineName":null,"cityCode":"1340616","cityName":"国网蠡县供电公司","provinceCode":null,"stopTime":"2019-10-26 13:00:00","powerType":"全部","powerOffArea":"【全线路停电】停户夫永,张敦,户营农排1台区【纯农排变】,户营综合10台区,户营综合3台区,农场农排5台区【纯农排变】,农场综合3台区,户营综合4台区,志芬,谭大,建修,大胜,刘牛,谭大轻,兴茂,汉臣,户营综合1台区,建昆,户营综合9台区,王中和,万东,大根,广杰,户营综合2台区,贵州,亚明,户营综合5台区,户营综合7台区,户营综合6台区,谭清源,谭整岁,谭瑞欣,小丑,户营综合8台区,户计栓,蠡县利民辣椒大蒜专业合作社,学康,小周","powerOffReason":"【停电原因】由于线路Ａ相接地导致３５ＫＶ李岗变电站１０ＫＶ扈营５１１线路全线停电【变更送电】因抢修进度加快原因，送电时间由１６：００变更为１３：００【发布渠道】通过９５５９８发布","powerOffId":"2019102613000036"},{"poweroffId":2019102613000023,"sgpoweroffId":null,"subsName":"","lineName":"10kV宋高和514","pubTranName":"宋高和142变压器,","scope":"【影响街道/乡镇】都亭乡【高危重要客户】无【影响客户】宋高和","startTime":"2019-11-05 06:30:00","stopDate":"2019-11-05 18:00:00","orgNo":"1340622","typeCode":"计划停电","poweroffArea":"【分支停电】停宋高和142变压器","poweroffReason":"【停电原因】由于更换电杆导致１１０ＫＶ唐县变电站１０ＫＶ宋高和５１４线路１２１号杆宋高和村西分支刀闸以下线路停电【变更送电】无【发布渠道】保定市唐县电视台（１０月２６日至１１月０４日的２０：００时至２０：３０时之间）屏幕上方滚动字幕","powerTime":"2019-11-05 17:55:33","powerComm":"已送电","subsNo":"","lineNo":"","tgNo":"","tgName":null,"infoStatus":"1","orgName":"国网唐县供电公司","typeName":null,"infoStatusName":null,"dateDay":null,"orgNos":null,"nowTime":null,"countyName":null,"streetName":null,"villageName":null,"roadName":null,"communityName":null,"tranName":null,"sdLineName":null,"cityCode":"1340622","cityName":"国网唐县供电公司","provinceCode":null,"stopTime":"2019-11-05 18:00:00","powerType":"全部","powerOffArea":"【分支停电】停宋高和142变压器","powerOffReason":"【停电原因】由于更换电杆导致１１０ＫＶ唐县变电站１０ＫＶ宋高和５１４线路１２１号杆宋高和村西分支刀闸以下线路停电【变更送电】无【发布渠道】保定市唐县电视台（１０月２６日至１１月０４日的２０：００时至２０：３０时之间）屏幕上方滚动字幕","powerOffId":"2019102613000023"},{"poweroffId":2019102613000018,"sgpoweroffId":null,"subsName":"","lineName":"10KV东方515","pubTranName":"八家窑3307,","scope":"【影响街道/乡镇】桃园城区 【高危重要客户】无 【影响客户】八家窑","startTime":"2019-11-05 07:00:00","stopDate":"2019-11-05 17:00:00","orgNo":"1340626","typeCode":"计划停电","poweroffArea":"【单台区停电】停八家窑3307","poweroffReason":"【停电原因】由于立杆、架线工程导致１１０ＫＶ涿县变电站１０ＫＶ东方５１５线路八家窑３３０７公变台区停电 【变更送电】无 【发布渠道】涿州电视台（１０月２６日至１１月０４日２１：００播放２次）屏幕上方滚动","powerTime":"2019-11-05 16:40:52","powerComm":"恢复送电","subsNo":"","lineNo":"","tgNo":"","tgName":null,"infoStatus":"1","orgName":"国网涿州市供电公司","typeName":null,"infoStatusName":null,"dateDay":null,"orgNos":null,"nowTime":null,"countyName":null,"streetName":null,"villageName":null,"roadName":null,"communityName":null,"tranName":null,"sdLineName":null,"cityCode":"1340626","cityName":"国网涿州市供电公司","provinceCode":null,"stopTime":"2019-11-05 17:00:00","powerType":"全部","powerOffArea":"【单台区停电】停八家窑3307","powerOffReason":"【停电原因】由于立杆、架线工程导致１１０ＫＶ涿县变电站１０ＫＶ东方５１５线路八家窑３３０７公变台区停电 【变更送电】无 【发布渠道】涿州电视台（１０月２６日至１１月０４日２１：００播放２次）屏幕上方滚动","powerOffId":"2019102613000018"},{"poweroffId":2019102613000012,"sgpoweroffId":null,"subsName":"","lineName":"城北523线","pubTranName":"三曲庄北4887,北环路2号路灯变7548变压器,山南庄西南,北环公用2594,交警大队7495变压器,山南庄水0126变压器,消防大队7560变压器,新交警公用5247,消防大队一7561变压器,富华公用变压器,山南庄村东4584,水利站公用7781变压器【改电】,曲庄村内0103,县北村北4954变压器,养老院公用7835柱上变压器,山南庄东南4950,山南庄大队4574,曲庄西2669,曲庄村东0478,小王京0086,山南庄村北6957,交警公用（新）变压器,山南庄村东0007,曲庄村6559变压器,北环公用2#4069变压器,钟鸣山庄,山南庄村西0105,北环路1号路灯变7547高压出线间隔配电变压器,","scope":"【影响街道/乡镇】仁厚镇、向阳街【高危重要客户】无【影响客户】山南庄村、钟鸣山庄、三曲庄村、福康养老院、保阜公路新安气体有限公司、深奥水厂、深奥水厂周边用户、消防大队、交警大队、城关派出所、六一小学、王保庄园、白求恩纪念馆、唐县汽车综合性能检测站、唐县安宁物业管理服务有限公司、唐县五保敬老院、民爆公司、国群石子机、唐县第一中学北校区、河北韩达铸造有限公司、中国石油化工股份有限公司河北唐县石油分公司、定州市冀东兴业汽车贸易有限公司唐县分公司、保定奔腾汽车贸易有限公司、小王京村、鑫铎花园、看守所、北庄子村、中山新村、北城枫景、计生站","startTime":"2019-10-26 16:50:00","stopDate":"2019-10-26 18:00:00","orgNo":"1340622","typeCode":"其他临时停电","poweroffArea":"【分支停电】停保定奔腾汽车贸易有限公司3247,交警大队7495变压器,唐县启明学校6907.6908,山南庄水0126变压器,唐县启明学校6906,曲庄村内0103,新交警公用5247,河北启明房地产开发有限公司6905,北环路1号路灯变7547高压出线间隔配电变压器,唐县启明高级中学XZ7414,唐县六一小学5254,河北保厦房地产开发集团有限公司计量点P6579,消防大队7560变压器,民爆公司1938,唐县安宁物业管理服务有限公司5214,唐县六一小学10KV新建,敬老院0073,纪念馆0015,北环路2号路灯变7548变压器,配变,三曲庄北4887,山南庄西南,唐县恒通天然气销售有限公司,河北省唐县第一中学7413,唐县金苗煤炭有限公司2948,唐县福顺百货门市部3227,北环公用2594,消防大队一7561变压器,富华公用变压器,唐县六一小学6607,唐县保庄山园餐饮有限公司10KV新建工程,山南庄村东4584,水利站公用7781变压器【改电】,县北村北4954变压器,河北保厦房地产开发集团有限公司计量点P6590,养老院公用7835柱上变压器,山南庄东南4950,山南庄大队4574,唐县六一小学,曲庄西2669,曲庄村东0478,国群石子机2037,小王京0086,唐县六一小学7140,山南庄村北6957,0387516226-保定金坝塑业有限公司-专变-45334437-金坝塑业0002,交警公用（新）变压器,唐县六一小学160KVA,山南庄村东0007,曲庄村6559变压器,北环公用2#4069变压器,山南庄村西0105,唐县安宁物业管理服务有限公司5218,钟鸣山庄","poweroffReason":"【停电原因】由于紧急消缺导致１１０ＫＶ唐县变电站城北５２３线路０２８号杆断路器以下线路停电【变更送电】无【发布渠道】通过９５５９８发布","powerTime":"2019-10-26 17:40:06","powerComm":"已送电","subsNo":"","lineNo":"","tgNo":"","tgName":null,"infoStatus":"1","orgName":"国网唐县供电公司","typeName":null,"infoStatusName":null,"dateDay":null,"orgNos":null,"nowTime":null,"countyName":null,"streetName":null,"villageName":null,"roadName":null,"communityName":null,"tranName":null,"sdLineName":null,"cityCode":"1340622","cityName":"国网唐县供电公司","provinceCode":null,"stopTime":"2019-10-26 18:00:00","powerType":"全部","powerOffArea":"【分支停电】停保定奔腾汽车贸易有限公司3247,交警大队7495变压器,唐县启明学校6907.6908,山南庄水0126变压器,唐县启明学校6906,曲庄村内0103,新交警公用5247,河北启明房地产开发有限公司6905,北环路1号路灯变7547高压出线间隔配电变压器,唐县启明高级中学XZ7414,唐县六一小学5254,河北保厦房地产开发集团有限公司计量点P6579,消防大队7560变压器,民爆公司1938,唐县安宁物业管理服务有限公司5214,唐县六一小学10KV新建,敬老院0073,纪念馆0015,北环路2号路灯变7548变压器,配变,三曲庄北4887,山南庄西南,唐县恒通天然气销售有限公司,河北省唐县第一中学7413,唐县金苗煤炭有限公司2948,唐县福顺百货门市部3227,北环公用2594,消防大队一7561变压器,富华公用变压器,唐县六一小学6607,唐县保庄山园餐饮有限公司10KV新建工程,山南庄村东4584,水利站公用7781变压器【改电】,县北村北4954变压器,河北保厦房地产开发集团有限公司计量点P6590,养老院公用7835柱上变压器,山南庄东南4950,山南庄大队4574,唐县六一小学,曲庄西2669,曲庄村东0478,国群石子机2037,小王京0086,唐县六一小学7140,山南庄村北6957,0387516226-保定金坝塑业有限公司-专变-45334437-金坝塑业0002,交警公用（新）变压器,唐县六一小学160KVA,山南庄村东0007,曲庄村6559变压器,北环公用2#4069变压器,山南庄村西0105,唐县安宁物业管理服务有限公司5218,钟鸣山庄","powerOffReason":"【停电原因】由于紧急消缺导致１１０ＫＶ唐县变电站城北５２３线路０２８号杆断路器以下线路停电【变更送电】无【发布渠道】通过９５５９８发布","powerOffId":"2019102613000012"},{"poweroffId":2019102613000010,"sgpoweroffId":null,"subsName":"","lineName":"10KV石佛533","pubTranName":"东里池村内西,西沙沟村内2896,东里池村南2316,东里池2317,小洛村2324,东城坊供电所西里池小学B柱上变压器,西沙沟内南,大洛西4275,大洛村南重建变压器,西沙沟村南BQ台区,大洛村2515,西沙沟东2501,大洛村南新井通变压器【纯农排变】,东城坊供电所东里池村西,东城坊供电所小洛村西,东城坊供电所大洛大队院内,西沙沟村西新2321变压器【纯农排变】,","scope":"【影响街道/乡镇】东城坊镇 【高危重要客户】无 【影响客户】大洛、小洛、东里池 、西沙沟","startTime":"2019-11-05 07:00:00","stopDate":"2019-11-05 13:00:00","orgNo":"1340626","typeCode":"计划停电","poweroffArea":"【分支停电】停西沙沟村西新2321变压器【纯农排变】,小洛庄面粉厂,东里池村内西,西沙沟南3152,西沙沟村内2896,东里池村南2316,东里池2317,东城坊西沙沟村北,小洛村2324,东城坊供电所西里池小学B柱上变压器,西沙沟内南,大洛西4275,大洛村南重建变压器,西沙沟村南BQ台区,东城坊西沙沟村南,东城坊供电所(东里池村北),大洛村2515,西沙沟东2501,大洛村南新井通变压器【纯农排变】,东城坊供电所东里池村西,大洛井4663,东城坊供电所小洛村西,东城坊供电所大洛大队院内,小洛2419,西沙沟西2312","poweroffReason":"【停电原因】由于线路接引、新增配变工程导致１１０ＫＶ宋营变电站１０ＫＶ石佛５３３线路５７号杆以下线路停电 【变更送电】无 【发布渠道】涿州电视台（１０月２６日至１１月０４日２１：００播放２次）屏幕上方滚动","powerTime":"2019-11-05 12:20:27","powerComm":"恢复送电","subsNo":"","lineNo":"","tgNo":"","tgName":null,"infoStatus":"1","orgName":"国网涿州市供电公司","typeName":null,"infoStatusName":null,"dateDay":null,"orgNos":null,"nowTime":null,"countyName":null,"streetName":null,"villageName":null,"roadName":null,"communityName":null,"tranName":null,"sdLineName":null,"cityCode":"1340626","cityName":"国网涿州市供电公司","provinceCode":null,"stopTime":"2019-11-05 13:00:00","powerType":"全部","powerOffArea":"【分支停电】停西沙沟村西新2321变压器【纯农排变】,小洛庄面粉厂,东里池村内西,西沙沟南3152,西沙沟村内2896,东里池村南2316,东里池2317,东城坊西沙沟村北,小洛村2324,东城坊供电所西里池小学B柱上变压器,西沙沟内南,大洛西4275,大洛村南重建变压器,西沙沟村南BQ台区,东城坊西沙沟村南,东城坊供电所(东里池村北),大洛村2515,西沙沟东2501,大洛村南新井通变压器【纯农排变】,东城坊供电所东里池村西,大洛井4663,东城坊供电所小洛村西,东城坊供电所大洛大队院内,小洛2419,西沙沟西2312","powerOffReason":"【停电原因】由于线路接引、新增配变工程导致１１０ＫＶ宋营变电站１０ＫＶ石佛５３３线路５７号杆以下线路停电 【变更送电】无 【发布渠道】涿州电视台（１０月２６日至１１月０４日２１：００播放２次）屏幕上方滚动","powerOffId":"2019102613000010"}],"pageModel":{"pageNow":445,"totalCount":10973,"totalPage":1098,"tableRows":0,"pageCount":10,"beginCount":4440},"isExperi":"1"}