{"message":"","today":"2020-06-15","seleList":[{"poweroffId":2019102513000486,"sgpoweroffId":null,"subsName":"","lineName":"南大牛线565","pubTranName":"小牛光3,南大牛光5【2018年四批补强】,北大牛村光9变压器,北大牛光11变压器,北大牛村光2变压器,北大牛村光4变压器,北大牛村光1变压器,小牛光6,北大牛光10变压器,小牛光,北大牛村光6变压器,北大牛村光3变压器,北大牛光12变压器,小牛光2,新南大牛光6,小牛排10【纯农排变】,北大牛村光5变压器,小牛光7,小牛光4,南大牛光2,南大牛排5 【纯农排变】,北大牛光13变压器,北大牛光7变压器,北大牛光8变压器,小牛光5,小牛光8,南大牛光4,南大牛光7【灾后重建】,小牛光9变压器,小牛光1,新南大牛光3,南大牛光1,","scope":"【影响街道/乡镇】贤寓镇 【高危重要客户】无 【影响客户】百楼、南大牛、小牛、北大牛、鼎辉食品、西幸部分用户、保定金拓、南章部分用户、沽酒部分用户、捷瑞建材、南大牛乡政府、广大建材、卓越养鸡场、东方面粉厂、李春凤彩印厂、小牛昌宁面粉厂、常乐富部分用户、福荣彩印、福明印刷厂、西落堡部分用户、宏盛锻造有限公司、双利养殖场、大牛小学、小牛村小学、南大牛粮站、保定金拓机房设备有限公司、国启食品加工厂","startTime":"2019-11-05 07:30:00","stopDate":"2019-11-05 15:00:00","orgNo":"1340609","typeCode":"计划停电","poweroffArea":"【全线路停电】停小牛光,小牛光3,小牛排9【纯农排变】,250,南大牛排8【纯农排变】,南大牛光4,南大牛排4【纯农排变】,小牛排3【纯农排变】,南大牛光7【灾后重建】,小牛光9变压器,小牛光1,南大牛光5【2018年四批补强】,北大牛村光9变压器,北大牛光11变压器,北大牛村光2变压器,北大牛村光4变压器,大牛小学-500,小牛排8【纯农排变】,南大牛排1【纯农排变】,北大牛排8【纯农排变】,小牛光6,北大牛排9【纯农排变】,小牛排1【纯农排变】,北大牛排14【纯农排变】,保定金拓100,北大牛光10变压器,北大牛村光6变压器,北大牛村光3变压器,北大牛光12变压器,小牛昌鸣面粉厂,南章村排6【纯农排变】,0694656532-定兴县贤寓镇小牛村小学-专变-239110650-小牛村小学,北大牛排15【纯农排变】,南大牛排7【纯农排变】,南大牛排6【纯农排变】,北大牛排13【纯农排变】,小牛光2,常乐富排2【纯农排变】,南大牛排10【纯农排变】,新南大牛光6,南大牛排2【纯农排变】,南大牛粮站-250,小牛排10【纯农排变】,南大牛排5【纯农排变】,北大牛村光5变压器,沽酒排6【纯农排变】,小牛排7【纯农排变】,0694656949-定兴县贤寓镇大牛中心幼儿园-专变-239110611-大牛中心幼儿园,小牛光7,小牛光4,百楼排15【纯农排变】,北大牛光7变压器,小牛排5【纯农排变】,北大牛光13变压器,北大牛排12【纯农排变】,南大牛排5 【纯农排变】,北大牛村排10【纯农排变】,北大牛排17【纯农排变】,北大牛村光1变压器,南大牛排9【纯农排变】,南大牛排3【纯农排变】,小牛光5,西落堡排2【纯农排变】,小牛光8,北大牛排16【纯农排变】,*保定金拓机房设备有限公司,国启食品加工厂-250,小牛排6【纯农排变】,北大牛光8变压器,新南大牛光3,双利养殖厂,南大牛粮站-50,北大牛排11【纯农排变】,南大牛光1,小牛排2【纯农排变】,小牛排4【纯农排变】,南大牛光2,西幸排1【纯农排变】","poweroffReason":"【停电原因】由于０２３号杆安装隔离开关导致１１０ＫＶ贤寓变电站南大牛线５６５线路全线停电 【变更送电】因工作进度加快原因送电时间由１７：００变更为１５：００ 【发布渠道】保定市定兴县电视台（１０月２８日０９时１０分至２３时５０分之间）屏幕上方滚动播放","powerTime":"2019-11-05 14:04:13","powerComm":"已送电","subsNo":"","lineNo":"","tgNo":"","tgName":null,"infoStatus":"1","orgName":"国网定兴县供电公司","typeName":null,"infoStatusName":null,"dateDay":null,"orgNos":null,"nowTime":null,"countyName":null,"streetName":null,"villageName":null,"roadName":null,"communityName":null,"tranName":null,"sdLineName":null,"cityCode":"1340609","cityName":"国网定兴县供电公司","provinceCode":null,"stopTime":"2019-11-05 15:00:00","powerType":"全部","powerOffArea":"【全线路停电】停小牛光,小牛光3,小牛排9【纯农排变】,250,南大牛排8【纯农排变】,南大牛光4,南大牛排4【纯农排变】,小牛排3【纯农排变】,南大牛光7【灾后重建】,小牛光9变压器,小牛光1,南大牛光5【2018年四批补强】,北大牛村光9变压器,北大牛光11变压器,北大牛村光2变压器,北大牛村光4变压器,大牛小学-500,小牛排8【纯农排变】,南大牛排1【纯农排变】,北大牛排8【纯农排变】,小牛光6,北大牛排9【纯农排变】,小牛排1【纯农排变】,北大牛排14【纯农排变】,保定金拓100,北大牛光10变压器,北大牛村光6变压器,北大牛村光3变压器,北大牛光12变压器,小牛昌鸣面粉厂,南章村排6【纯农排变】,0694656532-定兴县贤寓镇小牛村小学-专变-239110650-小牛村小学,北大牛排15【纯农排变】,南大牛排7【纯农排变】,南大牛排6【纯农排变】,北大牛排13【纯农排变】,小牛光2,常乐富排2【纯农排变】,南大牛排10【纯农排变】,新南大牛光6,南大牛排2【纯农排变】,南大牛粮站-250,小牛排10【纯农排变】,南大牛排5【纯农排变】,北大牛村光5变压器,沽酒排6【纯农排变】,小牛排7【纯农排变】,0694656949-定兴县贤寓镇大牛中心幼儿园-专变-239110611-大牛中心幼儿园,小牛光7,小牛光4,百楼排15【纯农排变】,北大牛光7变压器,小牛排5【纯农排变】,北大牛光13变压器,北大牛排12【纯农排变】,南大牛排5 【纯农排变】,北大牛村排10【纯农排变】,北大牛排17【纯农排变】,北大牛村光1变压器,南大牛排9【纯农排变】,南大牛排3【纯农排变】,小牛光5,西落堡排2【纯农排变】,小牛光8,北大牛排16【纯农排变】,*保定金拓机房设备有限公司,国启食品加工厂-250,小牛排6【纯农排变】,北大牛光8变压器,新南大牛光3,双利养殖厂,南大牛粮站-50,北大牛排11【纯农排变】,南大牛光1,小牛排2【纯农排变】,小牛排4【纯农排变】,南大牛光2,西幸排1【纯农排变】","powerOffReason":"【停电原因】由于０２３号杆安装隔离开关导致１１０ＫＶ贤寓变电站南大牛线５６５线路全线停电 【变更送电】因工作进度加快原因送电时间由１７：００变更为１５：００ 【发布渠道】保定市定兴县电视台（１０月２８日０９时１０分至２３时５０分之间）屏幕上方滚动播放","powerOffId":"2019102513000486"},{"poweroffId":2019102513000471,"sgpoweroffId":null,"subsName":"","lineName":"大洋线513","pubTranName":"大长峪5236变压器,东长店0777变压器,石南坡6568变压器,中长店5083变压器,东大洋东1226变压器,北岗北扶贫排灌变压器0863,北大洋村东2011变压器,山南庄3314变压器,蔡庄村浇地变压器1270,山南庄村西1213变压器,郑家庄1206变压器,中长店内0778变压器,陈计山石料厂5090,唐县恒旺畜禽养殖服务农民专业合作社6612,东岳口4880变压器,唐县王各庄石料厂3221,大长峪4679变压器,蔡庄1183变压器,北大洋4965变压器,石南坡4152变压器,山南庄4962变压器,北大洋村南水利变压器1215,山南庄6572变压器,蔡庄陈记石料厂1232,石南坡1236变压器,中长店4041变压器,唐县保毅矿业有限公司3436,中长店西1222变压器,东岳口2008,东大洋4969变压器,西大洋3326变压器,西岳口6072变压器,吕家庄河北1204变压器,西大洋北0754变压器,蔡庄村北6073,0671194725-于学良-专变-212150932-于学良,吕家庄4058变压器,","scope":"【影响街道/乡镇】大洋乡、雹水乡、北店头乡【高危重要客户】无【影响客户】吕家庄、北大洋、北岗北、西岳口、蔡庄、万里村、郑家庄、大洋庄、东大洋、东岳口、西大洋、大长峪、中长店、山南庄、东长店、石南坡、黄金峪、北店头村北","startTime":"2019-11-03 06:30:00","stopDate":"2019-11-03 18:00:00","orgNo":"1340622","typeCode":"计划停电","poweroffArea":"【分支停电】停大长峪5236变压器,西大洋北0754变压器,蔡庄村北6073,0671194725-于学良-专变-212150932-于学良,吕家庄4058变压器,东长店0777变压器,石南坡6568变压器,中长店5083变压器,东大洋东1226变压器,北岗北扶贫排灌变压器0863,北大洋村东2011变压器,山南庄3314变压器,蔡庄村浇地变压器1270,山南庄村西1213变压器,郑家庄1206变压器,中长店内0778变压器,陈计山石料厂5090,唐县恒旺畜禽养殖服务农民专业合作社6612,东岳口4880变压器,唐县王各庄石料厂3221,大长峪4679变压器,蔡庄1183变压器,北大洋4965变压器,石南坡4152变压器,山南庄4962变压器,北大洋村南水利变压器1215,山南庄6572变压器,蔡庄陈记石料厂1232,石南坡1236变压器,中长店4041变压器,唐县保毅矿业有限公司3436,中长店西1222变压器,东岳口2008,东大洋4969变压器,西大洋3326变压器,西岳口6072变压器,吕家庄河北1204变压器","poweroffReason":"【停电原因】由于组立电杆导致３５ＫＶ西大洋变电站大洋线５１３线路０４８号杆以下线路停电【变更送电】无【发布渠道】保定市唐县电视台（１０月２５日至１１月０２日的２０：００时至２０：３０时之间）屏幕上方滚动字幕","powerTime":"2019-11-03 17:04:05","powerComm":"已送电","subsNo":"","lineNo":"","tgNo":"","tgName":null,"infoStatus":"1","orgName":"国网唐县供电公司","typeName":null,"infoStatusName":null,"dateDay":null,"orgNos":null,"nowTime":null,"countyName":null,"streetName":null,"villageName":null,"roadName":null,"communityName":null,"tranName":null,"sdLineName":null,"cityCode":"1340622","cityName":"国网唐县供电公司","provinceCode":null,"stopTime":"2019-11-03 18:00:00","powerType":"全部","powerOffArea":"【分支停电】停大长峪5236变压器,西大洋北0754变压器,蔡庄村北6073,0671194725-于学良-专变-212150932-于学良,吕家庄4058变压器,东长店0777变压器,石南坡6568变压器,中长店5083变压器,东大洋东1226变压器,北岗北扶贫排灌变压器0863,北大洋村东2011变压器,山南庄3314变压器,蔡庄村浇地变压器1270,山南庄村西1213变压器,郑家庄1206变压器,中长店内0778变压器,陈计山石料厂5090,唐县恒旺畜禽养殖服务农民专业合作社6612,东岳口4880变压器,唐县王各庄石料厂3221,大长峪4679变压器,蔡庄1183变压器,北大洋4965变压器,石南坡4152变压器,山南庄4962变压器,北大洋村南水利变压器1215,山南庄6572变压器,蔡庄陈记石料厂1232,石南坡1236变压器,中长店4041变压器,唐县保毅矿业有限公司3436,中长店西1222变压器,东岳口2008,东大洋4969变压器,西大洋3326变压器,西岳口6072变压器,吕家庄河北1204变压器","powerOffReason":"【停电原因】由于组立电杆导致３５ＫＶ西大洋变电站大洋线５１３线路０４８号杆以下线路停电【变更送电】无【发布渠道】保定市唐县电视台（１０月２５日至１１月０２日的２０：００时至２０：３０时之间）屏幕上方滚动字幕","powerOffId":"2019102513000471"},{"poweroffId":2019102513000395,"sgpoweroffId":null,"subsName":"","lineName":"10kV利民路站571线路","pubTranName":"变压器,","scope":"【影响街道/乡镇】灵雨寺街、三丰路、利民路 【高危重要客户】无 【影响客户】中广核保定新能源有限公司、农大电锅炉","startTime":"2019-10-31 07:00:00","stopDate":"2019-10-31 18:00:00","orgNo":"13406","typeCode":"临时停电","poweroffArea":"【全线路停电】停农大电锅炉变压器","poweroffReason":"【停电原因】由于供电设备临时检修导致１０ＫＶ利民路变电站５７１线路全线停电【变更送电】无【发布渠道】保定市保定有线电视台（１０月２８日２０时１５分至２１时４５分之间）屏幕上滚动","powerTime":"2019-10-31 17:52:15","powerComm":"已送电","subsNo":"","lineNo":"","tgNo":"","tgName":null,"infoStatus":"1","orgName":"保定供电公司","typeName":null,"infoStatusName":null,"dateDay":null,"orgNos":null,"nowTime":null,"countyName":null,"streetName":null,"villageName":null,"roadName":null,"communityName":null,"tranName":null,"sdLineName":null,"cityCode":"13406","cityName":"保定供电公司","provinceCode":null,"stopTime":"2019-10-31 18:00:00","powerType":"全部","powerOffArea":"【全线路停电】停农大电锅炉变压器","powerOffReason":"【停电原因】由于供电设备临时检修导致１０ＫＶ利民路变电站５７１线路全线停电【变更送电】无【发布渠道】保定市保定有线电视台（１０月２８日２０时１５分至２１时４５分之间）屏幕上滚动","powerOffId":"2019102513000395"},{"poweroffId":2019102513000393,"sgpoweroffId":null,"subsName":"","lineName":"10kV利民路站520线路","pubTranName":"0697784492-中广核保定新能源有限公司,","scope":"【影响街道/乡镇】灵雨寺街、利民路、三丰路 【高危重要客户】无 【影响客户】农大电锅炉、中广核保定新能源有限公司","startTime":"2019-10-31 07:00:00","stopDate":"2019-10-31 18:00:00","orgNo":"13406","typeCode":"临时停电","poweroffArea":"【全线路停电】停0697784492-中广核保定新能源有限公司","poweroffReason":"【停电原因】由于供电设备临时检修导致１０ＫＶ利民路站变电站５２０线路全线停电【变更送电】无【发布渠道】保定市保定有线电视台（１０月２８日２０时１５分至２１时４５分之间）屏幕上滚动","powerTime":"2019-10-31 17:54:01","powerComm":"已送电","subsNo":"","lineNo":"","tgNo":"","tgName":null,"infoStatus":"1","orgName":"保定供电公司","typeName":null,"infoStatusName":null,"dateDay":null,"orgNos":null,"nowTime":null,"countyName":null,"streetName":null,"villageName":null,"roadName":null,"communityName":null,"tranName":null,"sdLineName":null,"cityCode":"13406","cityName":"保定供电公司","provinceCode":null,"stopTime":"2019-10-31 18:00:00","powerType":"全部","powerOffArea":"【全线路停电】停0697784492-中广核保定新能源有限公司","powerOffReason":"【停电原因】由于供电设备临时检修导致１０ＫＶ利民路站变电站５２０线路全线停电【变更送电】无【发布渠道】保定市保定有线电视台（１０月２８日２０时１５分至２１时４５分之间）屏幕上滚动","powerOffId":"2019102513000393"},{"poweroffId":2019102513000389,"sgpoweroffId":null,"subsName":"","lineName":"10kV利民路站521线路","pubTranName":"变压器,","scope":"【影响街道/乡镇】灵雨寺街、三丰路、利民路 【高危重要客户】无 【影响客户】农大电锅炉","startTime":"2019-10-31 07:00:00","stopDate":"2019-10-31 18:00:00","orgNo":"13406","typeCode":"临时停电","poweroffArea":"【全线路停电】停农大变压器","poweroffReason":"【停电原因】由于供电设备临时检修导致１０ＫＶ利民路站变电站５２１线路全线停电【变更送电】无【发布渠道】保定市保定有线电视台（１０月２７日２０时１５分至２１时４５分之间）屏幕上滚动","powerTime":"2019-10-31 17:53:39","powerComm":"已送电","subsNo":"","lineNo":"","tgNo":"","tgName":null,"infoStatus":"1","orgName":"保定供电公司","typeName":null,"infoStatusName":null,"dateDay":null,"orgNos":null,"nowTime":null,"countyName":null,"streetName":null,"villageName":null,"roadName":null,"communityName":null,"tranName":null,"sdLineName":null,"cityCode":"13406","cityName":"保定供电公司","provinceCode":null,"stopTime":"2019-10-31 18:00:00","powerType":"全部","powerOffArea":"【全线路停电】停农大变压器","powerOffReason":"【停电原因】由于供电设备临时检修导致１０ＫＶ利民路站变电站５２１线路全线停电【变更送电】无【发布渠道】保定市保定有线电视台（１０月２７日２０时１５分至２１时４５分之间）屏幕上滚动","powerOffId":"2019102513000389"},{"poweroffId":2019102513000387,"sgpoweroffId":null,"subsName":"","lineName":"10kV七一路站540线路","pubTranName":"0696351064-保定市发投热力有限公司-专变-1,","scope":"【影响街道/乡镇】永华北大街 【高危重要客户】无 【影响客户】保定市发投热力有限公司","startTime":"2019-10-28 09:00:00","stopDate":"2019-10-28 20:00:00","orgNo":"13406","typeCode":"临时停电","poweroffArea":"【全线路停电】停0696351064-保定市发投热力有限公司-专变-1,0696351064-保定市发投热力有限公司-专变-2","poweroffReason":"【停电原因】由于供电设备临时检修导致１０ＫＶ七一路变电站５４０线路全线停电【变更送电】无【发布渠道】保定市保定有线电视台（１０月２５日２０时１５分至２１时４５分之间）屏幕上滚动","powerTime":"2019-10-28 19:38:07","powerComm":"已送电","subsNo":"","lineNo":"","tgNo":"","tgName":null,"infoStatus":"1","orgName":"保定供电公司","typeName":null,"infoStatusName":null,"dateDay":null,"orgNos":null,"nowTime":null,"countyName":null,"streetName":null,"villageName":null,"roadName":null,"communityName":null,"tranName":null,"sdLineName":null,"cityCode":"13406","cityName":"保定供电公司","provinceCode":null,"stopTime":"2019-10-28 20:00:00","powerType":"全部","powerOffArea":"【全线路停电】停0696351064-保定市发投热力有限公司-专变-1,0696351064-保定市发投热力有限公司-专变-2","powerOffReason":"【停电原因】由于供电设备临时检修导致１０ＫＶ七一路变电站５４０线路全线停电【变更送电】无【发布渠道】保定市保定有线电视台（１０月２５日２０时１５分至２１时４５分之间）屏幕上滚动","powerOffId":"2019102513000387"},{"poweroffId":2019102513000386,"sgpoweroffId":null,"subsName":"","lineName":"陈庄线517","pubTranName":"梁庄13号,史端供电所39号,","scope":"【影响街道/乡镇】史端乡 【高危重要客户】无 【影响客户】东史端、梁庄、陈庄、刘庄、北营","startTime":"2019-11-10 07:00:00","stopDate":"2019-11-10 22:00:00","orgNo":"1340605","typeCode":"计划停电","poweroffArea":"【全线路停电】停史端供电所38号,供电所17号,史端供电所39号,供电所60号,东史端2号【纯农排变】,史端供电所9号,梁庄13号,梁庄7号,供电所91号,陈庄13号,史端供电所8号,陈庄4号【纯农排变】,陈庄5号,徐水县鑫泽商品混泥土有限公司变压器,史端供19号,徐水县伟业精密铸造有限公司2号,农田作业综合服务点,徐水县天丰苗木种植公司,梁庄6号,徐水县伟业精密铸造有限公司1号,供电所88号,东史端1号,徐水县巨达焊管厂,梁庄2号,徐水县中泰钢管制造厂,史端供电所4号,北营11号,史端供电所12号【纯农排变】,供电所82号,陈庄16号【纯农排变】,供电所83号,史端供电所23号,供电所3号,陈庄供37号,长征水泥构件厂,陈庄17号,梁庄12号,梁庄5号【纯农排变】,梁庄9号,保定皓辰木业有限公司,刘庄供29号,史端供电所46号【纯农排变】,东史端8号,陈庄14号,梁庄8号,东史端10号,刘庄8号【纯农排变】,陈庄6号,陈庄村7号【纯农排变】,史端供11号,北营8号【纯农排变】,陈庄8号【纯农排变】,陈庄供30号【纯农排变】,梁庄供90号,陈庄12号,梁庄3号,梁庄11号,供电所43号","poweroffReason":"【停电原因】由于计划检修导致３５ＫＶ史端变电站１０ＫＶ陈庄线５１７线路全线停电 【变更送电】因工作未完成原因，送电时间由１８:００变更为２２:００ 【发布渠道】通过徐水电视台游走滚动字幕播放（２０１９年１１月０３日０８:００至１１月０９日２０:００）","powerTime":"2019-11-10 21:01:33","powerComm":"已送电","subsNo":"","lineNo":"","tgNo":"","tgName":null,"infoStatus":"1","orgName":"国网徐水县供电公司","typeName":null,"infoStatusName":null,"dateDay":null,"orgNos":null,"nowTime":null,"countyName":null,"streetName":null,"villageName":null,"roadName":null,"communityName":null,"tranName":null,"sdLineName":null,"cityCode":"1340605","cityName":"国网徐水县供电公司","provinceCode":null,"stopTime":"2019-11-10 22:00:00","powerType":"全部","powerOffArea":"【全线路停电】停史端供电所38号,供电所17号,史端供电所39号,供电所60号,东史端2号【纯农排变】,史端供电所9号,梁庄13号,梁庄7号,供电所91号,陈庄13号,史端供电所8号,陈庄4号【纯农排变】,陈庄5号,徐水县鑫泽商品混泥土有限公司变压器,史端供19号,徐水县伟业精密铸造有限公司2号,农田作业综合服务点,徐水县天丰苗木种植公司,梁庄6号,徐水县伟业精密铸造有限公司1号,供电所88号,东史端1号,徐水县巨达焊管厂,梁庄2号,徐水县中泰钢管制造厂,史端供电所4号,北营11号,史端供电所12号【纯农排变】,供电所82号,陈庄16号【纯农排变】,供电所83号,史端供电所23号,供电所3号,陈庄供37号,长征水泥构件厂,陈庄17号,梁庄12号,梁庄5号【纯农排变】,梁庄9号,保定皓辰木业有限公司,刘庄供29号,史端供电所46号【纯农排变】,东史端8号,陈庄14号,梁庄8号,东史端10号,刘庄8号【纯农排变】,陈庄6号,陈庄村7号【纯农排变】,史端供11号,北营8号【纯农排变】,陈庄8号【纯农排变】,陈庄供30号【纯农排变】,梁庄供90号,陈庄12号,梁庄3号,梁庄11号,供电所43号","powerOffReason":"【停电原因】由于计划检修导致３５ＫＶ史端变电站１０ＫＶ陈庄线５１７线路全线停电 【变更送电】因工作未完成原因，送电时间由１８:００变更为２２:００ 【发布渠道】通过徐水电视台游走滚动字幕播放（２０１９年１１月０３日０８:００至１１月０９日２０:００）","powerOffId":"2019102513000386"},{"poweroffId":2019102513000378,"sgpoweroffId":null,"subsName":"","lineName":"10kV七一路站538线路","pubTranName":"变压器,","scope":"【影响街道/乡镇】五四路、七一路 【高危重要客户】无 【影响客户】建兴小区","startTime":"2019-10-28 09:00:00","stopDate":"2019-10-28 20:00:00","orgNo":"13406","typeCode":"临时停电","poweroffArea":"【全线路停电】停变压器","poweroffReason":"【停电原因】由于供电设备临时检修导致１０ＫＶ七一变电站５３８线路全线停电【变更送电】无【发布渠道】保定市保定有线电视台（１０月２５日２０时３０分至２１时３０分之间）屏幕上滚动","powerTime":"2019-10-28 19:43:13","powerComm":"已送电","subsNo":"","lineNo":"","tgNo":"","tgName":null,"infoStatus":"1","orgName":"保定供电公司","typeName":null,"infoStatusName":null,"dateDay":null,"orgNos":null,"nowTime":null,"countyName":null,"streetName":null,"villageName":null,"roadName":null,"communityName":null,"tranName":null,"sdLineName":null,"cityCode":"13406","cityName":"保定供电公司","provinceCode":null,"stopTime":"2019-10-28 20:00:00","powerType":"全部","powerOffArea":"【全线路停电】停变压器","powerOffReason":"【停电原因】由于供电设备临时检修导致１０ＫＶ七一变电站５３８线路全线停电【变更送电】无【发布渠道】保定市保定有线电视台（１０月２５日２０时３０分至２１时３０分之间）屏幕上滚动","powerOffId":"2019102513000378"},{"poweroffId":2019102513000375,"sgpoweroffId":null,"subsName":"","lineName":"10kV崔闸站567线路","pubTranName":"0696403589-保定市发投热力有限公司-专变-3,","scope":"【影响街道/乡镇】阳光北大街 【高危重要客户】无 【影响客户】保定市发投热力有限公司","startTime":"2019-10-29 09:00:00","stopDate":"2019-10-31 16:00:00","orgNo":"13406","typeCode":"临时停电","poweroffArea":"【全线路停电】停0696403589-保定市发投热力有限公司-专变-2,0696403589-保定市发投热力有限公司-专变-3","poweroffReason":"【停电原因】由于供电设备临时检修导致１０ＫＶ崔闸变电站５６７线路全线停电【变更送电】因抢修进度加快，原定18:00送电现计划16:00送电【发布渠道】通过９５５９８发布","powerTime":"2019-10-31 15:34:43","powerComm":"已送电","subsNo":"","lineNo":"","tgNo":"","tgName":null,"infoStatus":"1","orgName":"保定供电公司","typeName":null,"infoStatusName":null,"dateDay":null,"orgNos":null,"nowTime":null,"countyName":null,"streetName":null,"villageName":null,"roadName":null,"communityName":null,"tranName":null,"sdLineName":null,"cityCode":"13406","cityName":"保定供电公司","provinceCode":null,"stopTime":"2019-10-31 16:00:00","powerType":"全部","powerOffArea":"【全线路停电】停0696403589-保定市发投热力有限公司-专变-2,0696403589-保定市发投热力有限公司-专变-3","powerOffReason":"【停电原因】由于供电设备临时检修导致１０ＫＶ崔闸变电站５６７线路全线停电【变更送电】因抢修进度加快，原定18:00送电现计划16:00送电【发布渠道】通过９５５９８发布","powerOffId":"2019102513000375"},{"poweroffId":2019102513000374,"sgpoweroffId":null,"subsName":"","lineName":"南胡线518","pubTranName":"史端供电所39号,梁庄13号,北胡供电所92号配变,南胡4号,","scope":"【影响街道/乡镇】史端乡 【高危重要客户】无 【影响客户】南胡渠、北北里、北胡渠、陈庄、刘庄、梁庄、东史端","startTime":"2019-11-10 07:00:00","stopDate":"2019-11-10 22:00:00","orgNo":"1340605","typeCode":"计划停电","poweroffArea":"【全线路停电】停南胡4号,北北里6号【纯农排变】,河北海意机械制造有限公司,北胡供电所79号,供电所17号,徐水县联创塑粉制造有限公司,北胡13号,北胡15号配变,南胡6号,供电所60号,北胡8号,史端供电所10号,史端供电所9号,北胡3号配变【纯农排变】,陈庄13号,北胡供电所55号配变,南胡14号,徐水县鑫泽商品混泥土有限公司变压器,北胡2号,史端供19号,南胡10号【纯农排变】,徐水县伟业精密铸造有限公司2号,北胡供电所92号配变,北北里供64号,南胡供电所65号,北胡渠村14号,南胡供14号,供电所82号,北胡1号,南胡1号配变,北北里5号,供电所83号,史端供电所23号,郑庄1号【纯农排变】,陈庄供37号,北北里3号,北北里供54号,南胡16号,南北里供47号,南胡丽莎毛织品公司,南胡11号配变,徐水县南胡渠东砖厂2号,北北里9号【纯农排变】,北胡7号【纯农排变】,供电所南胡66号,北北里4号,南胡2号,南北里8号,史端供电所46号【纯农排变】,刘庄供29号,陈庄14号,南胡7号配变,北北里8号【纯农排变】,北胡11号,保定润泰房地产开发有限公司,梁庄8号,南胡17号,北胡12号配变,南胡5号,史端供11号,北营8号【纯农排变】,陈庄供30号【纯农排变】,梁庄供90号,北胡5号,梁庄3号,梁庄11号,南胡15号,史端供电所38号,北胡17号,南胡供电所22号【纯农排变】,北北里供80号【纯农排变】,南胡12号【纯农排变】,史端供电所39号,南北里2号配变【纯农排变】,梁庄13号,东史端2号【纯农排变】,史端供电所5号【纯农排变】,梁庄7号,徐水县和顺建材有限公司,南胡13号,北北里7号,供电所91号,史端供电所8号,陈庄5号,陈庄4号【纯农排变】,南胡3号,南北里10号【纯农排变】,南胡8号【纯农排变】,徐水县科峰机械制造厂3号,农田作业综合服务点,徐水县天丰苗木种植公司,供电所88号,徐水县伟业精密铸造有限公司1号,梁庄6号,供电所南胡62号,东史端1号,徐水县巨达焊管厂,梁庄2号,徐水县中泰钢管制造厂,南胡9号【纯农排变】,南胡东砖厂1号,北北里供电所34号,史端供电所4号,北胡6号配变,北胡9号【纯农排变】,南北里4号【纯农排变】,北营11号,史端供电所12号【纯农排变】,陈庄16号【纯农排变】,史端供电所31号【纯农排变】,供电所3号,徐水县金路精密构件制造有限公司,供电所72号【纯农排变】,史端供电所42号【纯农排变】,徐水县科峰机械制造厂2号,北胡渠西砖厂2号,北胡19号配变【纯农排变】,北胡渠西砖厂1号,南北里供44号,保定秦汉新型建材有限公司,长征水泥构件厂,梁庄12号,陈庄17号,梁庄5号【纯农排变】,北胡18号【纯农排变】,南北里供电所25号,南北里6号,梁庄9号,北胡供电所73号【纯农排变】,保定皓辰木业有限公司,南北里供87号,北北里供45号,东史端8号,北北里2号,供电所20号,史端供电所13号配变【纯农排变】,北胡10号【纯农排变】,南北里3号【纯农排变】,供电所41号,东史端10号,刘庄8号【纯农排变】,北北里1号,北胡21号【纯农排变】,北胡供74【纯农排变】,陈庄6号,陈庄村7号【纯农排变】,北胡4号【纯农排变】,南北里1号,陈庄8号【纯农排变】,北胡16号,陈庄12号,南北里供81号【纯农排变】,供电所43号","poweroffReason":"【停电原因】由于计划检修导致３５ＫＶ史端变电站１０ＫＶ南胡线５１８线路全线停电 【变更送电】因工作未完成原因，送电时间由１８:００变更为２２:００ 【发布渠道】通过徐水电视台游走滚动字幕播放（２０１９年１１月０３日０８:００至１１月０９日２０:００）","powerTime":"2019-11-10 21:01:47","powerComm":"已送电","subsNo":"","lineNo":"","tgNo":"","tgName":null,"infoStatus":"1","orgName":"国网徐水县供电公司","typeName":null,"infoStatusName":null,"dateDay":null,"orgNos":null,"nowTime":null,"countyName":null,"streetName":null,"villageName":null,"roadName":null,"communityName":null,"tranName":null,"sdLineName":null,"cityCode":"1340605","cityName":"国网徐水县供电公司","provinceCode":null,"stopTime":"2019-11-10 22:00:00","powerType":"全部","powerOffArea":"【全线路停电】停南胡4号,北北里6号【纯农排变】,河北海意机械制造有限公司,北胡供电所79号,供电所17号,徐水县联创塑粉制造有限公司,北胡13号,北胡15号配变,南胡6号,供电所60号,北胡8号,史端供电所10号,史端供电所9号,北胡3号配变【纯农排变】,陈庄13号,北胡供电所55号配变,南胡14号,徐水县鑫泽商品混泥土有限公司变压器,北胡2号,史端供19号,南胡10号【纯农排变】,徐水县伟业精密铸造有限公司2号,北胡供电所92号配变,北北里供64号,南胡供电所65号,北胡渠村14号,南胡供14号,供电所82号,北胡1号,南胡1号配变,北北里5号,供电所83号,史端供电所23号,郑庄1号【纯农排变】,陈庄供37号,北北里3号,北北里供54号,南胡16号,南北里供47号,南胡丽莎毛织品公司,南胡11号配变,徐水县南胡渠东砖厂2号,北北里9号【纯农排变】,北胡7号【纯农排变】,供电所南胡66号,北北里4号,南胡2号,南北里8号,史端供电所46号【纯农排变】,刘庄供29号,陈庄14号,南胡7号配变,北北里8号【纯农排变】,北胡11号,保定润泰房地产开发有限公司,梁庄8号,南胡17号,北胡12号配变,南胡5号,史端供11号,北营8号【纯农排变】,陈庄供30号【纯农排变】,梁庄供90号,北胡5号,梁庄3号,梁庄11号,南胡15号,史端供电所38号,北胡17号,南胡供电所22号【纯农排变】,北北里供80号【纯农排变】,南胡12号【纯农排变】,史端供电所39号,南北里2号配变【纯农排变】,梁庄13号,东史端2号【纯农排变】,史端供电所5号【纯农排变】,梁庄7号,徐水县和顺建材有限公司,南胡13号,北北里7号,供电所91号,史端供电所8号,陈庄5号,陈庄4号【纯农排变】,南胡3号,南北里10号【纯农排变】,南胡8号【纯农排变】,徐水县科峰机械制造厂3号,农田作业综合服务点,徐水县天丰苗木种植公司,供电所88号,徐水县伟业精密铸造有限公司1号,梁庄6号,供电所南胡62号,东史端1号,徐水县巨达焊管厂,梁庄2号,徐水县中泰钢管制造厂,南胡9号【纯农排变】,南胡东砖厂1号,北北里供电所34号,史端供电所4号,北胡6号配变,北胡9号【纯农排变】,南北里4号【纯农排变】,北营11号,史端供电所12号【纯农排变】,陈庄16号【纯农排变】,史端供电所31号【纯农排变】,供电所3号,徐水县金路精密构件制造有限公司,供电所72号【纯农排变】,史端供电所42号【纯农排变】,徐水县科峰机械制造厂2号,北胡渠西砖厂2号,北胡19号配变【纯农排变】,北胡渠西砖厂1号,南北里供44号,保定秦汉新型建材有限公司,长征水泥构件厂,梁庄12号,陈庄17号,梁庄5号【纯农排变】,北胡18号【纯农排变】,南北里供电所25号,南北里6号,梁庄9号,北胡供电所73号【纯农排变】,保定皓辰木业有限公司,南北里供87号,北北里供45号,东史端8号,北北里2号,供电所20号,史端供电所13号配变【纯农排变】,北胡10号【纯农排变】,南北里3号【纯农排变】,供电所41号,东史端10号,刘庄8号【纯农排变】,北北里1号,北胡21号【纯农排变】,北胡供74【纯农排变】,陈庄6号,陈庄村7号【纯农排变】,北胡4号【纯农排变】,南北里1号,陈庄8号【纯农排变】,北胡16号,陈庄12号,南北里供81号【纯农排变】,供电所43号","powerOffReason":"【停电原因】由于计划检修导致３５ＫＶ史端变电站１０ＫＶ南胡线５１８线路全线停电 【变更送电】因工作未完成原因，送电时间由１８:００变更为２２:００ 【发布渠道】通过徐水电视台游走滚动字幕播放（２０１９年１１月０３日０８:００至１１月０９日２０:００）","powerOffId":"2019102513000374"}],"pageModel":{"pageNow":451,"totalCount":10973,"totalPage":1098,"tableRows":0,"pageCount":10,"beginCount":4500},"isExperi":"1"}