{"message":"","today":"2020-06-15","seleList":[{"poweroffId":2019102513000276,"sgpoweroffId":null,"subsName":"","lineName":"向阳会线512","pubTranName":"望天岭东坡变压器,松树坨西,燕窝变压器,沙子地变压器,小关城石道变压器,菜树台变压器【三批中心村】,小关城北变压器,桑树堰变压器,河北台变压器,小关城南台变压器,松树坨光伏1,吕家庄西变压器,漏井台变压器【三批中心村】,龙王庙变压器【三批中心村】,向阳会变压器,向阳会南变压器,石湖沟变压器【三批中心村】,松树坨变压器,黄柏寺变压器,七亩台变压器,南坡根变压器,吕家庄变压器,二台卧变压器,四道岭变压器【三批中心村】,松树坨光伏2,小黄峪变压器,512向阳会线望天岭公用变压器,郭家河滩变压器,","scope":"【影响街道/乡镇】马庄乡【高危重要客户】无【影响客户】南马庄村、小关城村、望天岭村、马跑泉村、桑树堰村、燕窝村、向阳会村、松树柁村、吕家庄村、黄柏寺村","startTime":"2019-10-25 16:00:00","stopDate":"2019-10-25 17:30:00","orgNo":"1340615","typeCode":"其他临时停电","poweroffArea":"【全线路停电】停吕家庄西变压器,望天岭东坡变压器,松树坨西,涞源县南马庄乡人民政府变压器1,燕窝变压器,沙子地变压器,小关城石道变压器,菜树台变压器【三批中心村】,邓春利矿山,小关城部队,松树坨变压器,黄柏寺变压器,涞源县达延沙石材销售,涞源县南马庄乡小关城村村民委员会变压器,七亩台变压器,涞源县走马驿镇吕家庄村村民委员会变压器,南坡根变压器,涞源县走马驿镇松树陀村村民委员会变压器,涞源县走马驿镇松树柁村村民委员会变压器1,小关城北变压器,桑树堰变压器,涞源县南马庄乡人民政府变压器2,河北台变压器,小关城南台变压器,松树坨光伏1,漏井台变压器【三批中心村】,龙王庙变压器【三批中心村】,向阳会变压器,涞源县长峰石材有限公司变压器,向阳会南变压器,涞源县南马庄乡南马庄村村民委员会变压器,南坡根大理石厂,石湖沟变压器【三批中心村】,吕家庄变压器,涞源县走马驿镇松树坨村村民委员会变压器,二台卧变压器,四道岭变压器【三批中心村】,松树坨光伏2,涞源县起发畜禽农民专业合作社变压器,小黄峪变压器,512向阳会线望天岭公用变压器,郭家河滩变压器,涞源县走马驿镇松树柁村村民委员会2","poweroffReason":"【停电原因】由于方式调整导致３５ＫＶ马庄变电站１０ＫＶ向阳会线５１２线路全线停电【变更送电】因工作进度加快，原定２０：００送电现计划１７：３０送电【发布渠道】通过９５５９８发布","powerTime":"2019-10-25 16:39:57","powerComm":"已送电","subsNo":"","lineNo":"","tgNo":"","tgName":null,"infoStatus":"1","orgName":"国网涞源县供电公司","typeName":null,"infoStatusName":null,"dateDay":null,"orgNos":null,"nowTime":null,"countyName":null,"streetName":null,"villageName":null,"roadName":null,"communityName":null,"tranName":null,"sdLineName":null,"cityCode":"1340615","cityName":"国网涞源县供电公司","provinceCode":null,"stopTime":"2019-10-25 17:30:00","powerType":"全部","powerOffArea":"【全线路停电】停吕家庄西变压器,望天岭东坡变压器,松树坨西,涞源县南马庄乡人民政府变压器1,燕窝变压器,沙子地变压器,小关城石道变压器,菜树台变压器【三批中心村】,邓春利矿山,小关城部队,松树坨变压器,黄柏寺变压器,涞源县达延沙石材销售,涞源县南马庄乡小关城村村民委员会变压器,七亩台变压器,涞源县走马驿镇吕家庄村村民委员会变压器,南坡根变压器,涞源县走马驿镇松树陀村村民委员会变压器,涞源县走马驿镇松树柁村村民委员会变压器1,小关城北变压器,桑树堰变压器,涞源县南马庄乡人民政府变压器2,河北台变压器,小关城南台变压器,松树坨光伏1,漏井台变压器【三批中心村】,龙王庙变压器【三批中心村】,向阳会变压器,涞源县长峰石材有限公司变压器,向阳会南变压器,涞源县南马庄乡南马庄村村民委员会变压器,南坡根大理石厂,石湖沟变压器【三批中心村】,吕家庄变压器,涞源县走马驿镇松树坨村村民委员会变压器,二台卧变压器,四道岭变压器【三批中心村】,松树坨光伏2,涞源县起发畜禽农民专业合作社变压器,小黄峪变压器,512向阳会线望天岭公用变压器,郭家河滩变压器,涞源县走马驿镇松树柁村村民委员会2","powerOffReason":"【停电原因】由于方式调整导致３５ＫＶ马庄变电站１０ＫＶ向阳会线５１２线路全线停电【变更送电】因工作进度加快，原定２０：００送电现计划１７：３０送电【发布渠道】通过９５５９８发布","powerOffId":"2019102513000276"},{"poweroffId":2019102513000271,"sgpoweroffId":null,"subsName":"","lineName":"梁家营线511","pubTranName":"高碑店市奥伟工业有限公司,贾家营排灌变压器【纯农排变】,王家营排灌南变压器【纯农排变】,东黄河排灌变压器【纯农排变】,大商排灌1变压器【纯农排变】,变压器,东黄河变压器,东黄河排灌东变压器【纯农排变】,城东排灌变压器【纯农排变】,巨水营地变压器,大商北变压器,贾家营变压器,小商新变压器,0387439237-首特华峰机械设备制造有限公司-专变-45276312-华峰钢厂,巨水营变压器,高碑店市梁家营乡王家营小学,巨水营排灌变压器【纯农排变】,永欣加油站,华峰,城内西排灌变压器,小商变压器,孙马庄西变压器,小商排灌变压器【纯农排变】,巨水营东,孙马庄变压器,杨北2变压器【纯农排变】,蔡庄排灌变压器【纯农排变】,大商排灌变压器【纯农排变】,梁南地变压器【纯农排变】,黄玉江,小商排灌2变压器【纯农排变】,西黄河2,杨北排灌变压器【纯农排变】,华峰钢厂,东黄河北变压器,王家营排灌东变压器【纯农排变】,大商南变压器,杨北3变压器【纯农排变】,小商排灌3变压器【纯农排变】,孙马庄排灌变压器【纯农排变】,","scope":"【影响街道/乡镇】梁家营乡 【高危重要客户】华丰首特 【影响客户】大商村、小商村、巨水营村、东黄河村、贾家营村、孙马庄村","startTime":"2019-10-25 15:30:00","stopDate":"2019-10-25 16:30:00","orgNo":"1340612","typeCode":"其他临时停电","poweroffArea":"【全线路停电】停贾家营排灌变压器【纯农排变】,大商排灌1变压器【纯农排变】,城东排灌变压器【纯农排变】,小商新变压器,高碑店市梁家营乡王家营小学,巨水营排灌变压器【纯农排变】,梁南地变压器【纯农排变】,黄玉江,小商排灌2变压器【纯农排变】,西黄河2,杨北排灌变压器【纯农排变】,华峰钢厂,东黄河北变压器,王家营排灌东变压器【纯农排变】,大商南变压器,城内西排灌变压器,高碑店市奥伟工业有限公司,王家营排灌南变压器【纯农排变】,东黄河排灌变压器【纯农排变】,变压器,东黄河变压器,东黄河排灌东变压器【纯农排变】,巨水营地变压器,大商北变压器,杨北3变压器【纯农排变】,小商排灌3变压器【纯农排变】,孙马庄排灌变压器【纯农排变】,小商排灌变压器【纯农排变】,巨水营东,孙马庄变压器,杨北2变压器【纯农排变】,大商排灌变压器【纯农排变】,永欣加油站,华峰,小商变压器,孙马庄西变压器,蔡庄排灌变压器【纯农排变】,贾家营变压器,0387439237-首特华峰机械设备制造有限公司-专变-45276312-华峰钢厂,巨水营变压器","poweroffReason":"【停电原因】由于刀闸打火需紧急处理导致１１０ＫＶ太平庄变电站１０ＫＶ梁家营５１１线路全线停电 【变更送电】无 【发布渠道】通过９５５９８发布","powerTime":"2019-10-25 16:22:56","powerComm":"已送电","subsNo":"","lineNo":"","tgNo":"","tgName":null,"infoStatus":"1","orgName":"国网高碑店市供电公司","typeName":null,"infoStatusName":null,"dateDay":null,"orgNos":null,"nowTime":null,"countyName":null,"streetName":null,"villageName":null,"roadName":null,"communityName":null,"tranName":null,"sdLineName":null,"cityCode":"1340612","cityName":"国网高碑店市供电公司","provinceCode":null,"stopTime":"2019-10-25 16:30:00","powerType":"全部","powerOffArea":"【全线路停电】停贾家营排灌变压器【纯农排变】,大商排灌1变压器【纯农排变】,城东排灌变压器【纯农排变】,小商新变压器,高碑店市梁家营乡王家营小学,巨水营排灌变压器【纯农排变】,梁南地变压器【纯农排变】,黄玉江,小商排灌2变压器【纯农排变】,西黄河2,杨北排灌变压器【纯农排变】,华峰钢厂,东黄河北变压器,王家营排灌东变压器【纯农排变】,大商南变压器,城内西排灌变压器,高碑店市奥伟工业有限公司,王家营排灌南变压器【纯农排变】,东黄河排灌变压器【纯农排变】,变压器,东黄河变压器,东黄河排灌东变压器【纯农排变】,巨水营地变压器,大商北变压器,杨北3变压器【纯农排变】,小商排灌3变压器【纯农排变】,孙马庄排灌变压器【纯农排变】,小商排灌变压器【纯农排变】,巨水营东,孙马庄变压器,杨北2变压器【纯农排变】,大商排灌变压器【纯农排变】,永欣加油站,华峰,小商变压器,孙马庄西变压器,蔡庄排灌变压器【纯农排变】,贾家营变压器,0387439237-首特华峰机械设备制造有限公司-专变-45276312-华峰钢厂,巨水营变压器","powerOffReason":"【停电原因】由于刀闸打火需紧急处理导致１１０ＫＶ太平庄变电站１０ＫＶ梁家营５１１线路全线停电 【变更送电】无 【发布渠道】通过９５５９８发布","powerOffId":"2019102513000271"},{"poweroffId":2019102513000266,"sgpoweroffId":null,"subsName":"","lineName":"水泥厂线517","pubTranName":"徐水县孟村宏业采石厂2号,河北通阳路桥有限公司,北龙山16号1,大仕庄3号1,北龙山015号,骆庄03号【纯农排变】,孟村06号,北龙山09号,大仕庄05号,0690551325-保定市徐水区金天地大酒店-专变-232323607-保定市徐水区金天地大酒店,骆庄04号【纯农排变】,大王店南街01号,大仕庄 6号,宏岳采石厂3号,大仕庄2号（新）,孟村7号1,徐水县公共交通有限公司,宏业采石厂3号,保定雷通商贸有限公司大王店分公,保定双玲汽车零部件制造有限公司,北龙山2号1,孟村3号1,大仕庄面粉厂,0679729673-保定市徐水区双龙快捷宾馆-专变-219406240-保定市徐水区双龙快捷宾馆,骆庄01号,0685371378-徐水县晟峰物流服务部-专变-223638360-徐水县晟峰物流服务部变压器,徐水县宏羿新型建筑材料厂,新华民爆公司,徐水县孟村宏业采石厂1号,骆庄5号1,保定海滨商品混凝土制造有限公司,宏岳采石厂1号,孟村砖厂1号,孟村2号1,徐水区雪洲粮油店,北龙山7号1,孟村05号,北龙山8号1,孟村10号1,峰峰农机具修配厂,大王店南街04号,北龙山03号,骆庄06号,宏岳采石厂2号（建华）,北龙山10号1,孟村砖厂2号,大仕庄01号,北龙山12号1,大王店南街03号【纯农排变】,大仕庄 10号,0675484059-徐水县龙成混凝土制造有限公司-专变-216135618-徐水县龙成混凝土制造有限公司,大仕庄11号1,大王店南街02号,大仕庄4号1,北龙山014号,大仕庄9号1,0679798576-保定市徐水区双龙快捷宾馆-专变-219401895-保定市徐水区双龙快捷宾馆,大王店南街06号,骆庄2号1,孟村08号,大仕庄07号,","scope":"【影响街道/乡镇】大王店镇 【高危重要客户】无 【影响客户】大仕庄、骆庄、大王店南街村、孟村、北龙山村","startTime":"2019-11-05 07:00:00","stopDate":"2019-11-05 18:00:00","orgNo":"1340605","typeCode":"计划停电","poweroffArea":"【全线路停电】停孟村7号,北龙山014号,徐水县公共交通有限公司,保定雷通商贸有限公司大王店分公,大王店南街04号,孟村05号,徐水县孟村宏业采石厂1号,保定双玲汽车零部件制造有限公司,骆庄06号,河北通阳路桥有限公司,孟村砖厂2号,大仕庄面粉厂,0679798576-保定市徐水区双龙快捷宾馆-专变-219401895-保定市徐水区双龙快捷宾馆,大仕庄11号,大仕庄05号,北龙山015号,大仕庄2号（新）,0679729673-保定市徐水区双龙快捷宾馆-专变-219406240-保定市徐水区双龙快捷宾馆,大仕庄07号,骆庄03号【纯农排变】,孟村2号,骆庄01号","poweroffReason":"【停电原因】由于计划检修导致３５ＫＶ大王店变电站水泥厂线５１７线路全线停电 【变更送电】无 【发布渠道】通过河北省保定市徐水电视台游走滚动字幕播放（２０１９年１０月２９日０８:００至１１月０４日２０:００）","powerTime":"2019-11-05 17:51:38","powerComm":"已送电","subsNo":"","lineNo":"","tgNo":"","tgName":null,"infoStatus":"1","orgName":"国网徐水县供电公司","typeName":null,"infoStatusName":null,"dateDay":null,"orgNos":null,"nowTime":null,"countyName":null,"streetName":null,"villageName":null,"roadName":null,"communityName":null,"tranName":null,"sdLineName":null,"cityCode":"1340605","cityName":"国网徐水县供电公司","provinceCode":null,"stopTime":"2019-11-05 18:00:00","powerType":"全部","powerOffArea":"【全线路停电】停孟村7号,北龙山014号,徐水县公共交通有限公司,保定雷通商贸有限公司大王店分公,大王店南街04号,孟村05号,徐水县孟村宏业采石厂1号,保定双玲汽车零部件制造有限公司,骆庄06号,河北通阳路桥有限公司,孟村砖厂2号,大仕庄面粉厂,0679798576-保定市徐水区双龙快捷宾馆-专变-219401895-保定市徐水区双龙快捷宾馆,大仕庄11号,大仕庄05号,北龙山015号,大仕庄2号（新）,0679729673-保定市徐水区双龙快捷宾馆-专变-219406240-保定市徐水区双龙快捷宾馆,大仕庄07号,骆庄03号【纯农排变】,孟村2号,骆庄01号","powerOffReason":"【停电原因】由于计划检修导致３５ＫＶ大王店变电站水泥厂线５１７线路全线停电 【变更送电】无 【发布渠道】通过河北省保定市徐水电视台游走滚动字幕播放（２０１９年１０月２９日０８:００至１１月０４日２０:００）","powerOffId":"2019102513000266"},{"poweroffId":2019102513000264,"sgpoweroffId":null,"subsName":"","lineName":"正村区线511","pubTranName":"大次良9号【纯农排变】,大次良28号,大次良20号,","scope":"【影响街道/乡镇】遂城镇 【高危重要客户】无 【影响客户】大次良","startTime":"2019-11-05 07:00:00","stopDate":"2019-11-05 18:00:00","orgNo":"1340605","typeCode":"计划停电","poweroffArea":"【全线路停电】停大次良28号,大次良20号,大次良9号【纯农排变】","poweroffReason":"【停电原因】由于计划检修导致３５ＫＶ大王店变电站正村区线５１１线路全线停电 【变更送电】无 【发布渠道】通过河北省保定市徐水电视台游走滚动字幕播放（２０１９年１０月２９日０８:００至１１月０４日２０:００）","powerTime":"2019-11-05 17:50:31","powerComm":"已送电","subsNo":"","lineNo":"","tgNo":"","tgName":null,"infoStatus":"1","orgName":"国网徐水县供电公司","typeName":null,"infoStatusName":null,"dateDay":null,"orgNos":null,"nowTime":null,"countyName":null,"streetName":null,"villageName":null,"roadName":null,"communityName":null,"tranName":null,"sdLineName":null,"cityCode":"1340605","cityName":"国网徐水县供电公司","provinceCode":null,"stopTime":"2019-11-05 18:00:00","powerType":"全部","powerOffArea":"【全线路停电】停大次良28号,大次良20号,大次良9号【纯农排变】","powerOffReason":"【停电原因】由于计划检修导致３５ＫＶ大王店变电站正村区线５１１线路全线停电 【变更送电】无 【发布渠道】通过河北省保定市徐水电视台游走滚动字幕播放（２０１９年１０月２９日０８:００至１１月０４日２０:００）","powerOffId":"2019102513000264"},{"poweroffId":2019102513000260,"sgpoweroffId":null,"subsName":"","lineName":"小仕庄线516","pubTranName":"大王店饲料厂,小仕庄4号,小仕庄6号,小仕庄5号【纯农排变】,小仕庄2号,小仕庄7号,小仕庄3号【纯农排变】,","scope":"【影响街道/乡镇】大王店镇 【高危重要客户】无 【影响客户】小仕庄村","startTime":"2019-11-05 07:00:00","stopDate":"2019-11-05 18:00:00","orgNo":"1340605","typeCode":"计划停电","poweroffArea":"【全线路停电】停小仕庄5号【纯农排变】,小仕庄2号,大王店饲料厂,小仕庄6号,小仕庄3号【纯农排变】,小仕庄7号,小仕庄4号","poweroffReason":"【停电原因】由于计划检修导致３５ＫＶ大王店变电站小仕庄线５１６线路全线停电 【变更送电】无 【发布渠道】通过河北省保定市徐水电视台游走滚动字幕播放（２０１９年１０月２９日０８:００至１１月０４日２０:００）","powerTime":"2019-11-05 17:51:26","powerComm":"已送电","subsNo":"","lineNo":"","tgNo":"","tgName":null,"infoStatus":"1","orgName":"国网徐水县供电公司","typeName":null,"infoStatusName":null,"dateDay":null,"orgNos":null,"nowTime":null,"countyName":null,"streetName":null,"villageName":null,"roadName":null,"communityName":null,"tranName":null,"sdLineName":null,"cityCode":"1340605","cityName":"国网徐水县供电公司","provinceCode":null,"stopTime":"2019-11-05 18:00:00","powerType":"全部","powerOffArea":"【全线路停电】停小仕庄5号【纯农排变】,小仕庄2号,大王店饲料厂,小仕庄6号,小仕庄3号【纯农排变】,小仕庄7号,小仕庄4号","powerOffReason":"【停电原因】由于计划检修导致３５ＫＶ大王店变电站小仕庄线５１６线路全线停电 【变更送电】无 【发布渠道】通过河北省保定市徐水电视台游走滚动字幕播放（２０１９年１０月２９日０８:００至１１月０４日２０:００）","powerOffId":"2019102513000260"},{"poweroffId":2019102513000254,"sgpoweroffId":null,"subsName":"","lineName":"孟官营线513","pubTranName":"中公村1号,","scope":"【影响街道/乡镇】正村乡 【高危重要客户】无 【影响客户】东公村、韩家营、于坊、正村、中公村","startTime":"2019-11-05 07:00:00","stopDate":"2019-11-05 18:00:00","orgNo":"1340605","typeCode":"计划停电","poweroffArea":"【全线路停电】停东公村4号,东公村5号【纯农排变】,东公村6号,东公村7号【纯农排变】,东公村9号,韩家营7号,韩家营11号,韩家营14号,韩家营3号,于坊20号,正村22号【纯农排变】,中公村1号,中公村3号,中公村5号","poweroffReason":"【停电原因】由于计划检修导致３５ＫＶ王庄变电站孟官营线５１３线路全线停电 【变更送电】因抢修进度加快原因，送电时间由１９:００变更为１８:００ 【发布渠道】通过河北保定徐水区电视台游走滚动字幕播放（２０１９年１０月２９日０７:００至１１月０４日２０:００）","powerTime":"2019-11-05 17:35:43","powerComm":"已送电","subsNo":"","lineNo":"","tgNo":"","tgName":null,"infoStatus":"1","orgName":"国网徐水县供电公司","typeName":null,"infoStatusName":null,"dateDay":null,"orgNos":null,"nowTime":null,"countyName":null,"streetName":null,"villageName":null,"roadName":null,"communityName":null,"tranName":null,"sdLineName":null,"cityCode":"1340605","cityName":"国网徐水县供电公司","provinceCode":null,"stopTime":"2019-11-05 18:00:00","powerType":"全部","powerOffArea":"【全线路停电】停东公村4号,东公村5号【纯农排变】,东公村6号,东公村7号【纯农排变】,东公村9号,韩家营7号,韩家营11号,韩家营14号,韩家营3号,于坊20号,正村22号【纯农排变】,中公村1号,中公村3号,中公村5号","powerOffReason":"【停电原因】由于计划检修导致３５ＫＶ王庄变电站孟官营线５１３线路全线停电 【变更送电】因抢修进度加快原因，送电时间由１９:００变更为１８:００ 【发布渠道】通过河北保定徐水区电视台游走滚动字幕播放（２０１９年１０月２９日０７:００至１１月０４日２０:００）","powerOffId":"2019102513000254"},{"poweroffId":2019102513000231,"sgpoweroffId":null,"subsName":"","lineName":"10kV祝泽站519线路","pubTranName":"B1277柱上变压器,","scope":"【影响街道/乡镇】龙泉路 【高危重要客户】无 【影响客户】后屯小区","startTime":"2019-10-25 12:20:00","stopDate":"2019-10-25 14:30:00","orgNo":"13406","typeCode":"电网故障停限电","poweroffArea":"【单台区停电】停B1277柱上变压器","poweroffReason":"【停电原因】由于低压刀闸烧导致１０ＫＶ祝泽变电站５１９线路Ｂ１２７７公变台区停电【变更送电】无【发布渠道】通过９５５９８发布","powerTime":"2019-10-25 13:41:15","powerComm":"已送电","subsNo":"","lineNo":"","tgNo":"","tgName":null,"infoStatus":"1","orgName":"保定供电公司","typeName":null,"infoStatusName":null,"dateDay":null,"orgNos":null,"nowTime":null,"countyName":null,"streetName":null,"villageName":null,"roadName":null,"communityName":null,"tranName":null,"sdLineName":null,"cityCode":"13406","cityName":"保定供电公司","provinceCode":null,"stopTime":"2019-10-25 14:30:00","powerType":"全部","powerOffArea":"【单台区停电】停B1277柱上变压器","powerOffReason":"【停电原因】由于低压刀闸烧导致１０ＫＶ祝泽变电站５１９线路Ｂ１２７７公变台区停电【变更送电】无【发布渠道】通过９５５９８发布","powerOffId":"2019102513000231"},{"poweroffId":2019102513000202,"sgpoweroffId":null,"subsName":"","lineName":"10kV七一路站532线路","pubTranName":"B516柱上变压器,","scope":"【影响街道/乡镇】五一九路 【高危重要客户】无 【影响客户】543厂宿舍、农贸市场","startTime":"2019-11-08 08:30:00","stopDate":"2019-11-08 13:00:00","orgNo":"13406","typeCode":"计划停电","poweroffArea":"【单台区停电】停B516柱上变压器","poweroffReason":"【停电原因】由于供电设备临时检修导致１０ＫＶ七一变电站５３２线路Ｂ５１６公变台区停电【变更送电】因抢修进度加快，原定15:30送电现计划13:00送电。【发布渠道】保定市保定有线电视台（１１月１日２０时１５分至２１时４５分之间）屏幕上滚动","powerTime":"2019-11-08 12:22:31","powerComm":"已送电","subsNo":"","lineNo":"","tgNo":"","tgName":null,"infoStatus":"1","orgName":"保定供电公司","typeName":null,"infoStatusName":null,"dateDay":null,"orgNos":null,"nowTime":null,"countyName":null,"streetName":null,"villageName":null,"roadName":null,"communityName":null,"tranName":null,"sdLineName":null,"cityCode":"13406","cityName":"保定供电公司","provinceCode":null,"stopTime":"2019-11-08 13:00:00","powerType":"全部","powerOffArea":"【单台区停电】停B516柱上变压器","powerOffReason":"【停电原因】由于供电设备临时检修导致１０ＫＶ七一变电站５３２线路Ｂ５１６公变台区停电【变更送电】因抢修进度加快，原定15:30送电现计划13:00送电。【发布渠道】保定市保定有线电视台（１１月１日２０时１５分至２１时４５分之间）屏幕上滚动","powerOffId":"2019102513000202"},{"poweroffId":2019102513000192,"sgpoweroffId":null,"subsName":"","lineName":"10kV联盟路站518线路","pubTranName":"10kVB043箱式变电站B043配电变压器,","scope":"【影响街道/乡镇】莲池南大街、支农路、朝阳路、南大园乡 【高危重要客户】无 【影响客户】南大园村","startTime":"2019-11-08 07:30:00","stopDate":"2019-11-08 17:00:00","orgNo":"13406","typeCode":"计划停电","poweroffArea":"【单台区停电】停10kVB043箱式变电站B043配电变压器","poweroffReason":"【停电原因】由于供电设备临时检修导致１０ＫＶ联盟变电站５１８线路Ｂ０４３公变台区停电【变更送电】无【发布渠道】保定市保定有线电视台（１１月１日２０时１５分至２１时４５分之间）屏幕上滚动","powerTime":"2019-11-08 16:40:37","powerComm":"已送电","subsNo":"","lineNo":"","tgNo":"","tgName":null,"infoStatus":"1","orgName":"保定供电公司","typeName":null,"infoStatusName":null,"dateDay":null,"orgNos":null,"nowTime":null,"countyName":null,"streetName":null,"villageName":null,"roadName":null,"communityName":null,"tranName":null,"sdLineName":null,"cityCode":"13406","cityName":"保定供电公司","provinceCode":null,"stopTime":"2019-11-08 17:00:00","powerType":"全部","powerOffArea":"【单台区停电】停10kVB043箱式变电站B043配电变压器","powerOffReason":"【停电原因】由于供电设备临时检修导致１０ＫＶ联盟变电站５１８线路Ｂ０４３公变台区停电【变更送电】无【发布渠道】保定市保定有线电视台（１１月１日２０时１５分至２１时４５分之间）屏幕上滚动","powerOffId":"2019102513000192"},{"poweroffId":2019102513000189,"sgpoweroffId":null,"subsName":"","lineName":"10kV联盟路站524线路","pubTranName":"10kVB640配电室B640配电变压器,","scope":"【影响街道/乡镇】联盟路 【高危重要客户】无 【影响客户】红联小区","startTime":"2019-11-07 07:00:00","stopDate":"2019-11-07 12:00:00","orgNo":"13406","typeCode":"计划停电","poweroffArea":"【单台区停电】停10kVB640配电室B640配电变压器","poweroffReason":"【停电原因】由于供电设备临时检修导致１０ＫＶ联盟路变电站５２４线路Ｂ６４０公变台区停电【变更送电】无【发布渠道】保定市保定有线电视台（１１月１日２０时１５分至２１时４５分之间）屏幕上滚动","powerTime":"2019-11-07 11:45:13","powerComm":"已送电","subsNo":"","lineNo":"","tgNo":"","tgName":null,"infoStatus":"1","orgName":"保定供电公司","typeName":null,"infoStatusName":null,"dateDay":null,"orgNos":null,"nowTime":null,"countyName":null,"streetName":null,"villageName":null,"roadName":null,"communityName":null,"tranName":null,"sdLineName":null,"cityCode":"13406","cityName":"保定供电公司","provinceCode":null,"stopTime":"2019-11-07 12:00:00","powerType":"全部","powerOffArea":"【单台区停电】停10kVB640配电室B640配电变压器","powerOffReason":"【停电原因】由于供电设备临时检修导致１０ＫＶ联盟路变电站５２４线路Ｂ６４０公变台区停电【变更送电】无【发布渠道】保定市保定有线电视台（１１月１日２０时１５分至２１时４５分之间）屏幕上滚动","powerOffId":"2019102513000189"}],"pageModel":{"pageNow":453,"totalCount":10973,"totalPage":1098,"tableRows":0,"pageCount":10,"beginCount":4520},"isExperi":"1"}