{"message":"","today":"2020-06-15","seleList":[{"poweroffId":2020060113000484,"sgpoweroffId":null,"subsName":"","lineName":"10kV何桥线523","pubTranName":"何桥小学,石头桥内13,07何桥村内8号,07杨村内1号,07何桥内10号,1何桥内12,07何桥内6,07何桥内9,1史家桥内12,1史家桥内6,07石头桥内4号,07张桥内2,1张桥内4,1何桥内21,1史家桥内5,石头桥中学1,2何桥外33【纯农排变】,石头桥中学,1石头桥内1,07李桥内2号,1石头桥内8,1石头桥内11,1何桥内19,1何桥内2,07石头桥内3号,1石头桥内15,石头桥内12,1何桥内18,1张桥内3,2何桥外1【纯农排变】,1何桥内22台区,07何桥内7,1史家桥内4,07李桥内1号,1良庙内1,1何桥内15,李胡桥小学,1石头桥内14台区,07何桥内4号,1何桥内16台区,1石头桥内10,07石头桥内7,客户投资_07何桥内5,2石头桥外20台区【纯农排变】,1何桥内17,史家桥小学2,1何桥内11,07何桥内3号,1郭村内2,07石头桥内6,1石头桥内9,07史家桥内7,1何桥内14,07张桥内1号,1良庙内2,1李胡桥内4,李胡桥内3,1何桥内20,07何桥内1号,1何桥内13,","scope":"【影响街道/乡镇】何桥乡 【高危重要客户】无 【影响客户】何桥、石头桥、李胡桥（李桥）、张桥、良庙、杨村、史家桥、郭村","startTime":"2020-06-01 18:10:39","stopDate":"2020-06-01 19:30:00","orgNo":"1340618","typeCode":"电网故障停限电","poweroffArea":"【全线路停电】停110kV草桥变电站10kV何桥线523线路全线，07杨村内1号,07何桥内10号,1何桥内12,07何桥内6,07何桥内9,1史家桥内12,1史家桥内6,07石头桥内4号,07张桥内2,1张桥内4,安新县鑫月纺织厂,良庙津丰化工厂,清苑县环球锌业有限公司,清苑县金盛铜业有限公司,李黑子,清苑县中天锌业有限公司,清苑县津冀硫酸铜厂,1何桥内21,李艳飞,0579520552-清苑县银池机床加工厂-专变-124419111-清苑县银池机床加工厂,2史家桥外9【纯农排变】,良庙化工厂,清苑县合力有色金属加工厂,1史家桥内5,安新县华胜有色金属制造有限公司,1何桥内14,2石头桥外17【纯农排变】,2李胡桥外3【纯农排变】,清苑县何桥预制构件厂,2史家桥外41【纯农排变】,0620658272-清苑县金华熔炼厂-专变-129235897-清苑县金华熔炼厂,2石头桥外10【纯农排变】,安新县正大糖果食品厂,安新县正大糖果食品厂03,白东喜1,07张桥内1号,良庙村东,清苑县中圣铜业有限公司,1良庙内2,07张桥外2【纯农排变】,安新县双迎有色金属加工有限公司,1李胡桥内4,李胡桥内3,1何桥内20,清苑县腾宇铝业有限公司,07何桥内1号,安新县二彬氧化锌加工厂01,2李胡桥外6【纯农排变】,1何桥内13,2何桥外27【纯农排变】,清苑县皆诚锌业有限公司,保定市日超新型合金制造有限公司02,2何桥外25【纯农排变】,07石头桥5号,0387496146-清苑县向东化工有限公司-专变-45317129-清苑县来胜化工有限公司,1史家桥内4,2石头桥外18【纯农排变】,07李桥内1号,1良庙内1,安新县正大糖果食品厂04,2张桥外1【纯农排变】,07石头桥2号,0387496553-清苑县腾达金属有限公司-专变-223573775-清苑县腾达金属有限公司,1何桥内15,李胡桥小学,1石头桥内14台区,保定市清苑区何侨乡石头桥小学,0387494414-清苑县鑫苑铜业有限公司-专变-45317200-清苑县鑫苑铜业有限公司,07何桥内4号,2何桥外3号【纯农排变】,2张桥外7【纯农排变】,2何桥外28【纯农排变】,2何桥外30【纯农排变】,清苑县诚信水洗厂,1何桥内16台区,石头桥中学1,清苑县鑫宇铜业有限公司01,2何桥外23【纯农排变】,2李胡桥外5【纯农排变】,2何桥外24【纯农排变】,2何桥外33【纯农排变】,2何桥外10【纯农排变】,2李胡桥外2【纯农排变】,保定诚信铁塔有限公司,清苑县燕赵加油站,石头桥中学,清苑县皆诚锌业有限公司01,2何桥外21【纯农排变】,07石头桥外4【纯农排变】,2李胡桥外1【纯农排变】,清苑县腾达金属有限公司,2史家桥外38【纯农排变】,清苑县合力有色金属加工厂01,2何桥外1【纯农排变】,清苑县华赢金属有限公司,2杨村外2【纯农排变】,2良庙外1【纯农排变】,1石头桥内1,07李桥内2号,保定市升亿新型合金有限公司,1石头桥内8,1石头桥内11,保定市清苑区润兰洗浴中心,0667546037-清苑县宏豪金属加工厂(普通合伙)-专变-208426008-清苑县宏豪金属加工厂,1何桥内19,1何桥内2,2石头桥外7【纯农排变】,07石头桥内3号,1石头桥内15,石头桥内12,2何桥外32【纯农排变】,1何桥内18,0599520138-清苑县金华熔炼厂-专变-126577686-清苑县金华熔炼厂,清苑县石头桥勇跃炼油锌厂,史成群,1张桥内3,2张桥外6【纯农排变】,0387496029-清苑县石头桥利民面粉厂-专变-45316984-清苑县石头桥利民面粉厂,中国农业银行股份有限公司清苑县支行,保定市锦城精密制件有限公司,1何桥内22台区,2张桥外8【纯农排变】,安新县正大糖果食品厂02,2何桥外2【纯农排变】,1石头桥内10,保定市晨鸟商贸有限公司,07石头桥内7,客户投资_07何桥内5,07何桥外5【纯农排变】,王继东,2史家桥外39【纯农排变】,保定奥琦圣新型金属材料制造有限公司,2石头桥外20台区【纯农","poweroffReason":"【停电原因】由于主干１３号杆开关掉闸导致１１０ＫＶ草桥变电站１０ＫＶ何桥线５２３线路全线停电 【变更送电】因抢修进度加快原因，送电时间由２３：５９变更为１９：３０ 【发布渠道】通过９５５９８发布","powerTime":"2020-06-01 18:53:53","powerComm":"齐超通知已送电","subsNo":"","lineNo":"","tgNo":"","tgName":null,"infoStatus":"1","orgName":"国网清苑县供电公司","typeName":null,"infoStatusName":null,"dateDay":null,"orgNos":null,"nowTime":null,"countyName":null,"streetName":null,"villageName":null,"roadName":null,"communityName":null,"tranName":null,"sdLineName":null,"cityCode":"1340618","cityName":"国网清苑县供电公司","provinceCode":null,"stopTime":"2020-06-01 19:30:00","powerType":"全部","powerOffArea":"【全线路停电】停110kV草桥变电站10kV何桥线523线路全线，07杨村内1号,07何桥内10号,1何桥内12,07何桥内6,07何桥内9,1史家桥内12,1史家桥内6,07石头桥内4号,07张桥内2,1张桥内4,安新县鑫月纺织厂,良庙津丰化工厂,清苑县环球锌业有限公司,清苑县金盛铜业有限公司,李黑子,清苑县中天锌业有限公司,清苑县津冀硫酸铜厂,1何桥内21,李艳飞,0579520552-清苑县银池机床加工厂-专变-124419111-清苑县银池机床加工厂,2史家桥外9【纯农排变】,良庙化工厂,清苑县合力有色金属加工厂,1史家桥内5,安新县华胜有色金属制造有限公司,1何桥内14,2石头桥外17【纯农排变】,2李胡桥外3【纯农排变】,清苑县何桥预制构件厂,2史家桥外41【纯农排变】,0620658272-清苑县金华熔炼厂-专变-129235897-清苑县金华熔炼厂,2石头桥外10【纯农排变】,安新县正大糖果食品厂,安新县正大糖果食品厂03,白东喜1,07张桥内1号,良庙村东,清苑县中圣铜业有限公司,1良庙内2,07张桥外2【纯农排变】,安新县双迎有色金属加工有限公司,1李胡桥内4,李胡桥内3,1何桥内20,清苑县腾宇铝业有限公司,07何桥内1号,安新县二彬氧化锌加工厂01,2李胡桥外6【纯农排变】,1何桥内13,2何桥外27【纯农排变】,清苑县皆诚锌业有限公司,保定市日超新型合金制造有限公司02,2何桥外25【纯农排变】,07石头桥5号,0387496146-清苑县向东化工有限公司-专变-45317129-清苑县来胜化工有限公司,1史家桥内4,2石头桥外18【纯农排变】,07李桥内1号,1良庙内1,安新县正大糖果食品厂04,2张桥外1【纯农排变】,07石头桥2号,0387496553-清苑县腾达金属有限公司-专变-223573775-清苑县腾达金属有限公司,1何桥内15,李胡桥小学,1石头桥内14台区,保定市清苑区何侨乡石头桥小学,0387494414-清苑县鑫苑铜业有限公司-专变-45317200-清苑县鑫苑铜业有限公司,07何桥内4号,2何桥外3号【纯农排变】,2张桥外7【纯农排变】,2何桥外28【纯农排变】,2何桥外30【纯农排变】,清苑县诚信水洗厂,1何桥内16台区,石头桥中学1,清苑县鑫宇铜业有限公司01,2何桥外23【纯农排变】,2李胡桥外5【纯农排变】,2何桥外24【纯农排变】,2何桥外33【纯农排变】,2何桥外10【纯农排变】,2李胡桥外2【纯农排变】,保定诚信铁塔有限公司,清苑县燕赵加油站,石头桥中学,清苑县皆诚锌业有限公司01,2何桥外21【纯农排变】,07石头桥外4【纯农排变】,2李胡桥外1【纯农排变】,清苑县腾达金属有限公司,2史家桥外38【纯农排变】,清苑县合力有色金属加工厂01,2何桥外1【纯农排变】,清苑县华赢金属有限公司,2杨村外2【纯农排变】,2良庙外1【纯农排变】,1石头桥内1,07李桥内2号,保定市升亿新型合金有限公司,1石头桥内8,1石头桥内11,保定市清苑区润兰洗浴中心,0667546037-清苑县宏豪金属加工厂(普通合伙)-专变-208426008-清苑县宏豪金属加工厂,1何桥内19,1何桥内2,2石头桥外7【纯农排变】,07石头桥内3号,1石头桥内15,石头桥内12,2何桥外32【纯农排变】,1何桥内18,0599520138-清苑县金华熔炼厂-专变-126577686-清苑县金华熔炼厂,清苑县石头桥勇跃炼油锌厂,史成群,1张桥内3,2张桥外6【纯农排变】,0387496029-清苑县石头桥利民面粉厂-专变-45316984-清苑县石头桥利民面粉厂,中国农业银行股份有限公司清苑县支行,保定市锦城精密制件有限公司,1何桥内22台区,2张桥外8【纯农排变】,安新县正大糖果食品厂02,2何桥外2【纯农排变】,1石头桥内10,保定市晨鸟商贸有限公司,07石头桥内7,客户投资_07何桥内5,07何桥外5【纯农排变】,王继东,2史家桥外39【纯农排变】,保定奥琦圣新型金属材料制造有限公司,2石头桥外20台区【纯农","powerOffReason":"【停电原因】由于主干１３号杆开关掉闸导致１１０ＫＶ草桥变电站１０ＫＶ何桥线５２３线路全线停电 【变更送电】因抢修进度加快原因，送电时间由２３：５９变更为１９：３０ 【发布渠道】通过９５５９８发布","powerOffId":"2020060113000484"},{"poweroffId":2020060113000483,"sgpoweroffId":null,"subsName":"","lineName":"10kV南段庄线512","pubTranName":"大树村外10【纯农排变】,1大柳树内10,1南和庄内6,蔡营内2区,南和庄内4,大柳树内3,1大柳树内5,大兴庄内2,大柳树内1,1南和庄内5,南和庄小学配变,1大柳树内9,蔡营内3,1大柳树内8,1大柳树内4,南和庄内2,大柳树小学配变,1南和庄内3,1大柳树内7,和庄外12【纯农排变】,蔡营内4,南和庄内12,1南和庄内7,大柳树2号,南和庄内1,大柳树幼儿园配变,1南和庄内8,1南和庄内10,1大兴庄内1,南和庄外18,1大柳树内6,蔡营内1,1南和庄内9,","scope":"【影响街道/乡镇】温仁乡 【高危重要客户】无 【影响客户】大柳树村、蔡营、大兴庄、南和庄","startTime":"2020-06-01 18:09:56","stopDate":"2020-06-01 20:40:00","orgNo":"1340618","typeCode":"电网故障停限电","poweroffArea":"【全线路停电】停35kV王盘变电站10kV南段庄线512线路全线，蠡县华泽针棉织厂,蠡县宋庄金鑫纺织厂,蔡营内4,蔡营季兴纺纱厂,南和庄内12,清苑县南和庄泰林车床加工门市部,清苑县蔡营国强棉纺织厂,宋庄砖厂,和庄外9【纯农排变】,大柳树外7【纯农排变】,2大兴庄外3【纯农排变】,1南和庄内7,南和庄内1,南和庄外17【纯农排变】,和庄外3【纯农排变】,保定市清苑区辉煌纺织厂01,大柳树外13【纯农排变】,大柳树外12【纯农排变】,大树村外8【纯农排变】,大树外4【纯农排变】,大柳树2号,保定市清苑区辉煌纺织厂,大柳树兴华织布厂,南和庄外1【纯农排变】,1南和庄内8,大柳树外9【纯农排变】,1大兴庄内1,清苑县锦绣纺织有限公司,1大柳树内6,南和庄外16【纯农排变】,清苑县南和庄泰林车床加工门市部01,保定百佳纺织有限公司,大柳树面粉厂,保定市弘织纺织厂,和庄外10【纯农排变】,大柳树外6【纯农排变】,南和庄外14【纯农排变】,大柳树外11【纯农排变】,蔡营内1,南和庄面粉厂,2南和庄外5【纯农排变】,大树村外10【纯农排变】,1大柳树内10,清苑县蔡家营恒达绒线加工厂,南和庄拔丝厂,大柳树幼儿园配变,南邓村外1【纯农排变】,1南和庄内10,南和庄外18,和庄外2【纯农排变】,清苑县鑫丰轧花有限公司,和庄外13【纯农排变】,大柳树织布厂,1南和庄内9,清苑县宏宇纺织有限公司,1南和庄内6,清苑县大柳树永兴织布厂,蔡营内2区,南和庄内4,大柳树内3,1大柳树内5,大兴庄内2,南和庄建国面粉厂,大柳树内1,保定市盛寻纺织品制造有限公司,和庄外4【纯农排变】,1南和庄内5,南和庄小学配变,大树外5【纯农排变】,1大柳树内9,蔡营内3,保定柳丰轧花有限公司,腾达毛纺厂,1大柳树内8,1大柳树内4,2南和庄外6【纯农排变】,清苑县宏强砼业有限公司,蔡营外2区【纯农排变】,2南和庄外7【纯农排变】,南和庄内2,2南和庄外8【纯农排变】,南和庄外15【纯农排变】,大柳树小学配变,南和庄李广兴板厂,南和庄李建兴织布厂,1南和庄内3,1大柳树内7,和庄外12【纯农排变】,2大兴庄外2【纯农排变】,南和庄外11【纯农排变】,蔡营外1区【纯农排变】,2大兴庄外4【纯农排变】","poweroffReason":"【停电原因】由于主干１号杆开关掉闸导致３５ＫＶ王盘变电站１０ＫＶ南段庄线５１２线路全线停电 【变更送电】因抢修进度加快原因，送电时间由２３：５９变更为２０：４０ 【发布渠道】通过９５５９８发布","powerTime":"2020-06-01 20:29:01","powerComm":"齐超通知已送电","subsNo":"","lineNo":"","tgNo":"","tgName":null,"infoStatus":"1","orgName":"国网清苑县供电公司","typeName":null,"infoStatusName":null,"dateDay":null,"orgNos":null,"nowTime":null,"countyName":null,"streetName":null,"villageName":null,"roadName":null,"communityName":null,"tranName":null,"sdLineName":null,"cityCode":"1340618","cityName":"国网清苑县供电公司","provinceCode":null,"stopTime":"2020-06-01 20:40:00","powerType":"全部","powerOffArea":"【全线路停电】停35kV王盘变电站10kV南段庄线512线路全线，蠡县华泽针棉织厂,蠡县宋庄金鑫纺织厂,蔡营内4,蔡营季兴纺纱厂,南和庄内12,清苑县南和庄泰林车床加工门市部,清苑县蔡营国强棉纺织厂,宋庄砖厂,和庄外9【纯农排变】,大柳树外7【纯农排变】,2大兴庄外3【纯农排变】,1南和庄内7,南和庄内1,南和庄外17【纯农排变】,和庄外3【纯农排变】,保定市清苑区辉煌纺织厂01,大柳树外13【纯农排变】,大柳树外12【纯农排变】,大树村外8【纯农排变】,大树外4【纯农排变】,大柳树2号,保定市清苑区辉煌纺织厂,大柳树兴华织布厂,南和庄外1【纯农排变】,1南和庄内8,大柳树外9【纯农排变】,1大兴庄内1,清苑县锦绣纺织有限公司,1大柳树内6,南和庄外16【纯农排变】,清苑县南和庄泰林车床加工门市部01,保定百佳纺织有限公司,大柳树面粉厂,保定市弘织纺织厂,和庄外10【纯农排变】,大柳树外6【纯农排变】,南和庄外14【纯农排变】,大柳树外11【纯农排变】,蔡营内1,南和庄面粉厂,2南和庄外5【纯农排变】,大树村外10【纯农排变】,1大柳树内10,清苑县蔡家营恒达绒线加工厂,南和庄拔丝厂,大柳树幼儿园配变,南邓村外1【纯农排变】,1南和庄内10,南和庄外18,和庄外2【纯农排变】,清苑县鑫丰轧花有限公司,和庄外13【纯农排变】,大柳树织布厂,1南和庄内9,清苑县宏宇纺织有限公司,1南和庄内6,清苑县大柳树永兴织布厂,蔡营内2区,南和庄内4,大柳树内3,1大柳树内5,大兴庄内2,南和庄建国面粉厂,大柳树内1,保定市盛寻纺织品制造有限公司,和庄外4【纯农排变】,1南和庄内5,南和庄小学配变,大树外5【纯农排变】,1大柳树内9,蔡营内3,保定柳丰轧花有限公司,腾达毛纺厂,1大柳树内8,1大柳树内4,2南和庄外6【纯农排变】,清苑县宏强砼业有限公司,蔡营外2区【纯农排变】,2南和庄外7【纯农排变】,南和庄内2,2南和庄外8【纯农排变】,南和庄外15【纯农排变】,大柳树小学配变,南和庄李广兴板厂,南和庄李建兴织布厂,1南和庄内3,1大柳树内7,和庄外12【纯农排变】,2大兴庄外2【纯农排变】,南和庄外11【纯农排变】,蔡营外1区【纯农排变】,2大兴庄外4【纯农排变】","powerOffReason":"【停电原因】由于主干１号杆开关掉闸导致３５ＫＶ王盘变电站１０ＫＶ南段庄线５１２线路全线停电 【变更送电】因抢修进度加快原因，送电时间由２３：５９变更为２０：４０ 【发布渠道】通过９５５９８发布","powerOffId":"2020060113000483"},{"poweroffId":2020060113000479,"sgpoweroffId":null,"subsName":"","lineName":"十里铺线513","pubTranName":"东马营李庄,田西排灌变压器,前孟变压器,大屯南变压器,曲桥东变压器,保定营排灌变压器,客户投资_曲辛庄变压器,东马营小陈庄,大王庄北变压器,曲桥变压器,田东混用变压器,郝庄北变压器,宇航织带变压器,大屯村东变压器,东马营李庄西变压器,朱庄西变压器,李庄东变压器,后孟变压器,曲辛庄西变压器,胡街地西变压器【纯农排变】,十里铺西变压器,十里铺北变压器,曲桥南变压器,大屯北地变压器【纯农排变】,田西混用柱上变压器,梁庄南变压器,大屯内变压器,大王庄东变压器,田东北变压器,后孟西变压器,武家村南变压器,大王庄西变压器,田宜屯东村变压器,大屯西地变压器,梁庄变压器,朱庄东变压器,郝庄变压器,十里铺公变,十里铺东变压器,田西中变压器,大王庄新架变压器,前孟东变压器,田东东变压器,武家村变压器,田西南变压器,田西北变压器,田东南变压器,十里铺中变压器,","scope":"【影响街道/乡镇】新城镇、东马营镇 【高危重要客户】无 【影响客户】良庄村、大屯村、武家村、朱庄村、十里铺村、曲桥村、曲辛庄村、前孟村、后孟村、小陈庄村、李庄村、大王庄村、郝庄村、田宜屯东村、田宜屯西村、大屯垃圾场、大屯小学、河北艾莫森通用机场、水办处、大屯扬水机站、平建军搅拌站、宇建尚砼、东马营村、马文武箱包加工厂、大屯煤场、东马营镇春顺养猪场、十里铺收费站、硕康食品调料有限公司、诚真海绵纸厂、保定德意隆箱包制造有限公司、王海彬、恒海压铸厂、孙凤田、中国移动高碑店分公司郝庄基站","startTime":"2020-06-01 18:11:27","stopDate":"2020-06-01 20:30:00","orgNo":"1340612","typeCode":"电网故障停限电","poweroffArea":"【全线路停电】停郝庄北变压器,大屯排灌8变压器,曲辛庄地北变压器【纯农排变】,曲桥排灌3变压器【纯农排变】,孙凤田变压器,线庄排灌变压器【纯农排变】,高碑店市东马营马文武箱包加工厂变压器,曲桥排灌2变压器【纯农排变】,朱庄地东变压器【纯农排变】,平建军搅拌站变压器,大屯排灌变压器,梁庄南变压器,大屯内变压器,十里铺中变压器,平泽华面粉厂,大屯垃圾场,高碑店市水利局变压器,郭街砖厂2,大王庄地北变压器【纯农排变】,十里铺排灌3变压器【纯农排变】,中国移动通信集体河北有限公司高碑店分公司,田西排灌变压器,前孟变压器,李庄南变压器,大屯西南地（磁卡）变压器,朱庄排灌1变压器【纯农排变】,田东南变压器,丰元庄排灌变压器,田东排灌1变压器【纯农排变】,曲桥变压器,武家村排灌变压器【纯农排变】,永固水泥制品变压器,大王庄东变压器,田东北变压器,后孟西变压器,武家村南变压器,许立强变压器,东马营李庄,高碑店市栎荧餐厨废弃物回收有限公司,大王庄地南变压器【纯农排变】,高碑店市丰民农业服务农民专业合作社变压器,田东东变压器,十里铺地中变压器,十里铺西地1变压器【纯农排变】,郭街北排灌变压器【纯农排变】,大屯南排灌变压器【纯农排变】,大屯南变压器,大王庄北变压器,张秀生,孙建华变压器,朱庄变压器,大王庄西变压器,前孟东变压器,大屯南地,曲桥东变压器,保定德意隆箱包制造有限公司,田东地南2变压器【纯农排变】,大屯村东变压器,大屯东排灌变压器【纯农排变】,朱庄西变压器,高碑店市东马营春顺养猪场,后孟浇地,高碑店市东马营诚真海绵纸厂变压器,河北艾莫森通用航空有限公司,武家村南排灌变压器【纯农排变】,李庄东变压器,保定锐麒金属制品有限公司,武家村变压器,田西北变压器,梁庄西地变压器【纯农排变】,大屯北变压器,宇航织带变压器,王海彬变压器,变压器,郭街砖厂,田西地北变压器【纯农排变】,曲辛庄地南变压器【纯农排变】,河北永固水泥制品有限公司高碑店分公司,十里铺北变压器,田东混用变压器,郝庄排灌变压器【纯农排变】,十里铺公变,曲辛庄西变压器,保定营排灌变压器,客户投资_曲辛庄变压器,朱庄东变压器,十里铺东变压器,田西中变压器,十里铺南变压器,大屯北地变压器【纯农排变】,田东排灌2变压器【纯农排变】,徐建变压器,田宜屯东村变压器,大屯西地变压器,王宾,梁庄变压器,郝庄变压器,朱庄排灌2变压器【纯农排变】,郝庄地变压器【纯农排变】,李庄排灌1变压器【纯农排变】,东马营李庄西变压器,大屯面,李庄果园变压器【纯农排变】,田西南变压器,田东地南1变压器【纯农排变】,曲桥地变压器,高碑店市鑫树山建材销售处变压器,大王庄新架变压器,曲桥南变压器,十里铺西地2变压器【纯农排变】,西张庄地变压器【纯农排变】,收费站,田西地南变压器【纯农排变】,田东地北变压器【纯农排变】,高碑店市东马营恒海压铸厂,高碑店市新城镇大屯中心小学,保定铭信商砼有限公司,李庄排灌2变压器【纯农排变】,高碑店市铭信建筑材料销售有限公司,梁庄东地2变压器【纯农排变】,后孟变压器,梁庄东地1变压器【纯农排变】,胡街地西变压器【纯农排变】,十里铺排灌5变压器【纯农排变】,十里铺西变压器,十里铺地东变压器【纯农排变】,东五地北变压器【纯农排变】,东马营小陈庄,曲桥排灌1变压器【纯农排变】,十里铺排灌4变压器【纯农排变】,高碑店市水利局河防办事处,田西混用柱上变压器,高碑店市宏明远土地整理工程有限公司变压器","poweroffReason":"【停电原因】由于田东北分支高速施工大车碰断线导致１１０ＫＶ太平庄变电站１０ＫＶ十里铺５１３线路全线停电 【变更送电】因抢修进度加快原因，送电时间由２３：５９变更为２０：３０ 【发布渠道】通过９５５９８发布","powerTime":"2020-06-01 20:07:07","powerComm":"已送电","subsNo":"","lineNo":"","tgNo":"","tgName":null,"infoStatus":"1","orgName":"国网高碑店市供电公司","typeName":null,"infoStatusName":null,"dateDay":null,"orgNos":null,"nowTime":null,"countyName":null,"streetName":null,"villageName":null,"roadName":null,"communityName":null,"tranName":null,"sdLineName":null,"cityCode":"1340612","cityName":"国网高碑店市供电公司","provinceCode":null,"stopTime":"2020-06-01 20:30:00","powerType":"全部","powerOffArea":"【全线路停电】停郝庄北变压器,大屯排灌8变压器,曲辛庄地北变压器【纯农排变】,曲桥排灌3变压器【纯农排变】,孙凤田变压器,线庄排灌变压器【纯农排变】,高碑店市东马营马文武箱包加工厂变压器,曲桥排灌2变压器【纯农排变】,朱庄地东变压器【纯农排变】,平建军搅拌站变压器,大屯排灌变压器,梁庄南变压器,大屯内变压器,十里铺中变压器,平泽华面粉厂,大屯垃圾场,高碑店市水利局变压器,郭街砖厂2,大王庄地北变压器【纯农排变】,十里铺排灌3变压器【纯农排变】,中国移动通信集体河北有限公司高碑店分公司,田西排灌变压器,前孟变压器,李庄南变压器,大屯西南地（磁卡）变压器,朱庄排灌1变压器【纯农排变】,田东南变压器,丰元庄排灌变压器,田东排灌1变压器【纯农排变】,曲桥变压器,武家村排灌变压器【纯农排变】,永固水泥制品变压器,大王庄东变压器,田东北变压器,后孟西变压器,武家村南变压器,许立强变压器,东马营李庄,高碑店市栎荧餐厨废弃物回收有限公司,大王庄地南变压器【纯农排变】,高碑店市丰民农业服务农民专业合作社变压器,田东东变压器,十里铺地中变压器,十里铺西地1变压器【纯农排变】,郭街北排灌变压器【纯农排变】,大屯南排灌变压器【纯农排变】,大屯南变压器,大王庄北变压器,张秀生,孙建华变压器,朱庄变压器,大王庄西变压器,前孟东变压器,大屯南地,曲桥东变压器,保定德意隆箱包制造有限公司,田东地南2变压器【纯农排变】,大屯村东变压器,大屯东排灌变压器【纯农排变】,朱庄西变压器,高碑店市东马营春顺养猪场,后孟浇地,高碑店市东马营诚真海绵纸厂变压器,河北艾莫森通用航空有限公司,武家村南排灌变压器【纯农排变】,李庄东变压器,保定锐麒金属制品有限公司,武家村变压器,田西北变压器,梁庄西地变压器【纯农排变】,大屯北变压器,宇航织带变压器,王海彬变压器,变压器,郭街砖厂,田西地北变压器【纯农排变】,曲辛庄地南变压器【纯农排变】,河北永固水泥制品有限公司高碑店分公司,十里铺北变压器,田东混用变压器,郝庄排灌变压器【纯农排变】,十里铺公变,曲辛庄西变压器,保定营排灌变压器,客户投资_曲辛庄变压器,朱庄东变压器,十里铺东变压器,田西中变压器,十里铺南变压器,大屯北地变压器【纯农排变】,田东排灌2变压器【纯农排变】,徐建变压器,田宜屯东村变压器,大屯西地变压器,王宾,梁庄变压器,郝庄变压器,朱庄排灌2变压器【纯农排变】,郝庄地变压器【纯农排变】,李庄排灌1变压器【纯农排变】,东马营李庄西变压器,大屯面,李庄果园变压器【纯农排变】,田西南变压器,田东地南1变压器【纯农排变】,曲桥地变压器,高碑店市鑫树山建材销售处变压器,大王庄新架变压器,曲桥南变压器,十里铺西地2变压器【纯农排变】,西张庄地变压器【纯农排变】,收费站,田西地南变压器【纯农排变】,田东地北变压器【纯农排变】,高碑店市东马营恒海压铸厂,高碑店市新城镇大屯中心小学,保定铭信商砼有限公司,李庄排灌2变压器【纯农排变】,高碑店市铭信建筑材料销售有限公司,梁庄东地2变压器【纯农排变】,后孟变压器,梁庄东地1变压器【纯农排变】,胡街地西变压器【纯农排变】,十里铺排灌5变压器【纯农排变】,十里铺西变压器,十里铺地东变压器【纯农排变】,东五地北变压器【纯农排变】,东马营小陈庄,曲桥排灌1变压器【纯农排变】,十里铺排灌4变压器【纯农排变】,高碑店市水利局河防办事处,田西混用柱上变压器,高碑店市宏明远土地整理工程有限公司变压器","powerOffReason":"【停电原因】由于田东北分支高速施工大车碰断线导致１１０ＫＶ太平庄变电站１０ＫＶ十里铺５１３线路全线停电 【变更送电】因抢修进度加快原因，送电时间由２３：５９变更为２０：３０ 【发布渠道】通过９５５９８发布","powerOffId":"2020060113000479"},{"poweroffId":2020060113000478,"sgpoweroffId":null,"subsName":"","lineName":"10kV北各堡511线","pubTranName":"北各堡农3台区,北各堡综合3台区,北各堡综合2变压器,北各堡综合1变压器,","scope":"【影响街道/乡镇】西伏落乡 【高危重要客户】无 【影响客户】北各堡村","startTime":"2020-06-01 18:40:00","stopDate":"2020-06-01 20:00:00","orgNo":"1340606","typeCode":"电网故障停限电","poweroffArea":"【全线路停电】停３５ＫＶ北各堡变电站１０ＫＶ北各堡５１１线路全线，北各堡综合1变压器,北各堡农3台区,北各堡综合3台区,北各堡综合2变压器","poweroffReason":"【停电原因】由于站内３５ＫＶ开关掉闸导致３５ＫＶ北各堡变电站１０ＫＶ北各堡５１１线路全线停电 【变更送电】因抢修进度加快原因，送电时间由２３：５０变更为２０：００ 【发布渠道】通过９５５９８发布","powerTime":"2020-06-01 19:43:46","powerComm":"已送电","subsNo":"","lineNo":"","tgNo":"","tgName":null,"infoStatus":"1","orgName":"国网安国市供电公司","typeName":null,"infoStatusName":null,"dateDay":null,"orgNos":null,"nowTime":null,"countyName":null,"streetName":null,"villageName":null,"roadName":null,"communityName":null,"tranName":null,"sdLineName":null,"cityCode":"1340606","cityName":"国网安国市供电公司","provinceCode":null,"stopTime":"2020-06-01 20:00:00","powerType":"全部","powerOffArea":"【全线路停电】停３５ＫＶ北各堡变电站１０ＫＶ北各堡５１１线路全线，北各堡综合1变压器,北各堡农3台区,北各堡综合3台区,北各堡综合2变压器","powerOffReason":"【停电原因】由于站内３５ＫＶ开关掉闸导致３５ＫＶ北各堡变电站１０ＫＶ北各堡５１１线路全线停电 【变更送电】因抢修进度加快原因，送电时间由２３：５０变更为２０：００ 【发布渠道】通过９５５９８发布","powerOffId":"2020060113000478"},{"poweroffId":2020060113000467,"sgpoweroffId":null,"subsName":"","lineName":"10kV固上线543","pubTranName":"1藏村内6,1臧村内1,1臧村内13台区,1崔庄内2,臧村中学2,客户投资_1臧村内9,臧村中学7,臧村小学,1臧村内5,臧村中学6,1臧村内4,臧村中学5,中心幼儿园,1臧村内3,1臧村内2,1藏村内10,臧村中学4,臧村中学1,1藏村内7,1臧村内12,1臧村内11,臧村中学3,臧村中学8,","scope":"【影响街道/乡镇】臧村乡 【高危重要客户】无 【影响客户】西臧（臧村）、崔庄、中村","startTime":"2020-06-01 18:00:02","stopDate":"2020-06-01 21:30:00","orgNo":"1340618","typeCode":"电网故障停限电","poweroffArea":"【全线路停电】停110kV臧村变电站10kV固上线543线路全线，臧村中学2,藏村北鸡厂,1臧村内1,国网河北清苑县供电公司臧村供电所,1藏村内6,保定市清苑区刘家雅苑酒店,臧村水厂,0387488880-清苑县藏村中心卫生院-专变-118525797-清苑县臧村中心卫生院,1臧村内13台区,藏村面厂鸡,1崔庄内2,2藏村外7【纯农排变】,0654929809-清苑县润发屠宰场-专变-185509232-清苑县润发屠宰场,客户投资_1臧村内9,臧村中学7,2藏村外6【纯农排变】,臧村小学,1臧村内5,臧村鸡厂,清苑县红升通风管道加工厂,2藏村外1【纯农排变】,2中村外10【纯农排变】,保定市清苑区汇恒模具机械加工厂,清苑县藏村镇拔丝制钉厂,臧村中学6,臧村刘永岐园艺,保定市清苑区臧村镇中心卫生院,藏村村委会,清苑县永岐工贸有限公司,1臧村内4,中村三农公司,保定辉煌电气设备制造有限公司,臧村中学5,永岐工贸公司2,中心幼儿园,1臧村内3,1臧村内2,保定市清苑区雅军百货商店,保定市清苑区聚磊养殖场,1藏村内10,保定市清苑区碧海龙湾洗浴中心,2臧村外2【纯农排变】,2臧村外9【纯农排变】,2臧村外5【纯农排变】,臧村供电所,0562648841-藏村村委会-专变-118514114-藏村村委会,保定市清苑区臧村中学,臧村中学4,0387487281-中国联合网络通信有限公司清苑县分公司-专变-45313528-中国联合网络通信有限公司清苑县分公司,臧村中学1,2臧村外3【纯农排变】,清苑县西臧村慧丰生态养殖基地,1藏村内7,保定市鑫豪鹏粮油加工有限公司,崔庄村南,1臧村内12,2臧村外4【纯农排变】,1臧村内11,2中村外9【纯农排变】,中国移动通信集团河北有限公司清苑分公司,2藏村外8【纯农排变】,保定市清苑区宏达塑料包装厂,清苑县西臧村慧丰生态养殖基地01,清苑县臧村占军蛋鸡养殖场,臧村中学3,臧村铁木社,臧村中学8,臧村中学,保定市清苑区贾家驴肉铺","poweroffReason":"【停电原因】由于主干１９号杆南分支７号杆臧村村委会Ｂ相避雷器着火导致１１０ＫＶ臧村变电站１０ＫＶ固上线５４３线路全线停电 【变更送电】因抢修进度加快原因，送电时间由２３：５９变更为２１：３０ 【发布渠道】通过９５５９８发布","powerTime":"2020-06-01 21:00:46","powerComm":"陈云涛通知已送电","subsNo":"","lineNo":"","tgNo":"","tgName":null,"infoStatus":"1","orgName":"国网清苑县供电公司","typeName":null,"infoStatusName":null,"dateDay":null,"orgNos":null,"nowTime":null,"countyName":null,"streetName":null,"villageName":null,"roadName":null,"communityName":null,"tranName":null,"sdLineName":null,"cityCode":"1340618","cityName":"国网清苑县供电公司","provinceCode":null,"stopTime":"2020-06-01 21:30:00","powerType":"全部","powerOffArea":"【全线路停电】停110kV臧村变电站10kV固上线543线路全线，臧村中学2,藏村北鸡厂,1臧村内1,国网河北清苑县供电公司臧村供电所,1藏村内6,保定市清苑区刘家雅苑酒店,臧村水厂,0387488880-清苑县藏村中心卫生院-专变-118525797-清苑县臧村中心卫生院,1臧村内13台区,藏村面厂鸡,1崔庄内2,2藏村外7【纯农排变】,0654929809-清苑县润发屠宰场-专变-185509232-清苑县润发屠宰场,客户投资_1臧村内9,臧村中学7,2藏村外6【纯农排变】,臧村小学,1臧村内5,臧村鸡厂,清苑县红升通风管道加工厂,2藏村外1【纯农排变】,2中村外10【纯农排变】,保定市清苑区汇恒模具机械加工厂,清苑县藏村镇拔丝制钉厂,臧村中学6,臧村刘永岐园艺,保定市清苑区臧村镇中心卫生院,藏村村委会,清苑县永岐工贸有限公司,1臧村内4,中村三农公司,保定辉煌电气设备制造有限公司,臧村中学5,永岐工贸公司2,中心幼儿园,1臧村内3,1臧村内2,保定市清苑区雅军百货商店,保定市清苑区聚磊养殖场,1藏村内10,保定市清苑区碧海龙湾洗浴中心,2臧村外2【纯农排变】,2臧村外9【纯农排变】,2臧村外5【纯农排变】,臧村供电所,0562648841-藏村村委会-专变-118514114-藏村村委会,保定市清苑区臧村中学,臧村中学4,0387487281-中国联合网络通信有限公司清苑县分公司-专变-45313528-中国联合网络通信有限公司清苑县分公司,臧村中学1,2臧村外3【纯农排变】,清苑县西臧村慧丰生态养殖基地,1藏村内7,保定市鑫豪鹏粮油加工有限公司,崔庄村南,1臧村内12,2臧村外4【纯农排变】,1臧村内11,2中村外9【纯农排变】,中国移动通信集团河北有限公司清苑分公司,2藏村外8【纯农排变】,保定市清苑区宏达塑料包装厂,清苑县西臧村慧丰生态养殖基地01,清苑县臧村占军蛋鸡养殖场,臧村中学3,臧村铁木社,臧村中学8,臧村中学,保定市清苑区贾家驴肉铺","powerOffReason":"【停电原因】由于主干１９号杆南分支７号杆臧村村委会Ｂ相避雷器着火导致１１０ＫＶ臧村变电站１０ＫＶ固上线５４３线路全线停电 【变更送电】因抢修进度加快原因，送电时间由２３：５９变更为２１：３０ 【发布渠道】通过９５５９８发布","powerOffId":"2020060113000467"},{"poweroffId":2020060113000464,"sgpoweroffId":null,"subsName":"","lineName":"防陵线515","pubTranName":"小因1号【纯农排变】,大因供电所1号【纯农排变】,防陵19号【纯农排变】,防陵25号【纯农排变】,防陵26号【纯农排变】,防陵28号,防陵4号,客户投资_防陵2号,任庄9号【纯农排变】,小因10号,小因11号,防陵21号,小因13号,小因4号【纯农排变】,防陵24号,防陵1号,小因14号,防陵5号,小因7号,","scope":"【影响街道/乡镇】大因镇 【高危重要客户】无 【影响客户】大东张、小东张、防陵、小因、任庄、王村","startTime":"2020-06-01 18:02:22","stopDate":"2020-06-01 20:00:00","orgNo":"1340605","typeCode":"电网故障停限电","poweroffArea":"【全线路停电】停防陵25号【纯农排变】,防陵26号【纯农排变】,防陵28号,防陵4号,客户投资_防陵2号,任庄9号【纯农排变】,小因10号,小因11号,防陵21号,小因13号,小因4号【纯农排变】,防陵24号,防陵1号,小因14号,防陵5号,大东张22号【纯农排变】,保定中茂能源有限公司,防陵22号【纯农排变】,防陵14号【纯农排变】,防陵10号,大东张21号【纯农排变】,王村3号【纯农排变】,小因5号【纯农排变】,大东张4号,大东张9号【纯农排变】,防陵16号【纯农排变】,防陵31号,小因15号,防陵15号【纯农排变】,防陵12号【纯农排变】,小因4号,防陵8号【纯农排变】,客户投资_防陵25号,保定市徐水区大因镇小因幼儿园,小因2号【纯农排变】,小因7号,防陵18号【纯农排变】,河北新大畜牧有限公司,防陵17号【纯农排变】,小因18号,小因9号【纯农排变】,防陵7号【纯农排变】,小因6号【纯农排变】,防陵30号,防陵6号【纯农排变】,小因8号,小因16号,0550908711-900023497362河北新大畜牧有限公司001,小因1号【纯农排变】,大东张18号,防陵20号【纯农排变】,大东张15号,0469266577-徐水县天辅煜管件制造有限公司-专变-46768976-徐水县天辅煜管件制造有限公司,任庄6号【纯农排变】,保定市徐水区大因镇防陵小学,任庄14号【纯农排变】,小因3号【纯农排变】,大东张10号【纯农排变】,小因17号【纯农排变】,防陵23号【纯农排变】,防陵13号【纯农排变】,0595122327-徐水县天辅煜管件制造有限公司-专变-126037694-徐水县天辅煜管件制造有限公司,防陵29号,大因供电所1号【纯农排变】,防陵19号【纯农排变】,大东张2号,防陵3号,保定市徐水区大因镇大东张小学,王村5号【纯农排变】,防陵27号,小因12号,防陵11号【纯农排变】,防陵9号【纯农排变】","poweroffReason":"【停电原因】由于Ｂ相接地导致３５ＫＶ大因变电站防陵线５１５线路全线停电 【变更送电】因抢修进度加快原因，送电时间由２３:５９变更为２０:００ 【发布渠道】通过９５５９８发布","powerTime":"2020-06-01 19:29:41","powerComm":"已送电","subsNo":"","lineNo":"","tgNo":"","tgName":null,"infoStatus":"1","orgName":"国网徐水县供电公司","typeName":null,"infoStatusName":null,"dateDay":null,"orgNos":null,"nowTime":null,"countyName":null,"streetName":null,"villageName":null,"roadName":null,"communityName":null,"tranName":null,"sdLineName":null,"cityCode":"1340605","cityName":"国网徐水县供电公司","provinceCode":null,"stopTime":"2020-06-01 20:00:00","powerType":"全部","powerOffArea":"【全线路停电】停防陵25号【纯农排变】,防陵26号【纯农排变】,防陵28号,防陵4号,客户投资_防陵2号,任庄9号【纯农排变】,小因10号,小因11号,防陵21号,小因13号,小因4号【纯农排变】,防陵24号,防陵1号,小因14号,防陵5号,大东张22号【纯农排变】,保定中茂能源有限公司,防陵22号【纯农排变】,防陵14号【纯农排变】,防陵10号,大东张21号【纯农排变】,王村3号【纯农排变】,小因5号【纯农排变】,大东张4号,大东张9号【纯农排变】,防陵16号【纯农排变】,防陵31号,小因15号,防陵15号【纯农排变】,防陵12号【纯农排变】,小因4号,防陵8号【纯农排变】,客户投资_防陵25号,保定市徐水区大因镇小因幼儿园,小因2号【纯农排变】,小因7号,防陵18号【纯农排变】,河北新大畜牧有限公司,防陵17号【纯农排变】,小因18号,小因9号【纯农排变】,防陵7号【纯农排变】,小因6号【纯农排变】,防陵30号,防陵6号【纯农排变】,小因8号,小因16号,0550908711-900023497362河北新大畜牧有限公司001,小因1号【纯农排变】,大东张18号,防陵20号【纯农排变】,大东张15号,0469266577-徐水县天辅煜管件制造有限公司-专变-46768976-徐水县天辅煜管件制造有限公司,任庄6号【纯农排变】,保定市徐水区大因镇防陵小学,任庄14号【纯农排变】,小因3号【纯农排变】,大东张10号【纯农排变】,小因17号【纯农排变】,防陵23号【纯农排变】,防陵13号【纯农排变】,0595122327-徐水县天辅煜管件制造有限公司-专变-126037694-徐水县天辅煜管件制造有限公司,防陵29号,大因供电所1号【纯农排变】,防陵19号【纯农排变】,大东张2号,防陵3号,保定市徐水区大因镇大东张小学,王村5号【纯农排变】,防陵27号,小因12号,防陵11号【纯农排变】,防陵9号【纯农排变】","powerOffReason":"【停电原因】由于Ｂ相接地导致３５ＫＶ大因变电站防陵线５１５线路全线停电 【变更送电】因抢修进度加快原因，送电时间由２３:５９变更为２０:００ 【发布渠道】通过９５５９８发布","powerOffId":"2020060113000464"},{"poweroffId":2020060113000461,"sgpoweroffId":null,"subsName":"","lineName":"10kV温仁线514","pubTranName":"1良寨内20,1良寨内19,1罗营内8,1罗营内4,1罗营内3,罗家营幼儿园,1良寨内9,1罗营内11,罗家营小学,1罗营内7,1罗营内5,1良寨内3,1罗营内10,1罗营内2,1罗营内6,","scope":"【影响街道/乡镇】温仁乡 【高危重要客户】无 【影响客户】罗家营、良寨","startTime":"2020-06-01 17:55:36","stopDate":"2020-06-01 19:10:00","orgNo":"1340618","typeCode":"电网故障停限电","poweroffArea":"【全线路停电】停35kV罗家营变电站10kV温仁线514线路全线，2罗营外18,2罗营外19,1良寨内20,清苑县俊生皮革制衣加工厂01,罗营唐铁乱养猪厂,1良寨内19,1罗营内8,2罗营外6【纯农排变】,2罗营外3【纯农排变】,永会面粉厂,2良寨外1【纯农排变】,保定市恒锦丝线有限公司01,2罗营外9【纯农排变】,保定市茂顺纺织有限公司,1罗营内4,1罗营内3,2罗营外11【纯农排变】,秦盼立,2罗营外10【纯农排变】,2罗营外8【纯农排变】,2罗营外4【纯农排变】,保定市恒锦丝线有限公司,2罗营外7【纯农排变】,2罗营外14【纯农排变】,罗家营幼儿园,1良寨内9,1罗营内11,2罗营外12【纯农排变】,2罗营外13【纯农排变】,2良寨外18【纯农排变】,罗家营小学,1罗营内7,2良寨外2【纯农排变】,1罗营内5,保定市清苑区聚源化纤丝加工厂,1良寨内3,2良寨外3【纯农排变】,2罗营外16,2良寨外15【纯农排变】,2罗营外17,清苑县红升木器加工厂,2良寨外17【纯农排变】,1罗营内10,2罗营外5【纯农排变】,1罗营内2,1罗营内6,2罗营外15【纯农排变】,2罗营外2【纯农排变】,保定惠泽医院","poweroffReason":"【停电原因】由于主干１号杆树搭线导致３５ＫＶ罗家营变电站１０ＫＶ温仁线５１４线路全线停电 【变更送电】因抢修进度加快原因，送电时间由２３：５９变更为１９：１０ 【发布渠道】通过９５５９８发布","powerTime":"2020-06-01 18:44:00","powerComm":"齐超通知已送电","subsNo":"","lineNo":"","tgNo":"","tgName":null,"infoStatus":"1","orgName":"国网清苑县供电公司","typeName":null,"infoStatusName":null,"dateDay":null,"orgNos":null,"nowTime":null,"countyName":null,"streetName":null,"villageName":null,"roadName":null,"communityName":null,"tranName":null,"sdLineName":null,"cityCode":"1340618","cityName":"国网清苑县供电公司","provinceCode":null,"stopTime":"2020-06-01 19:10:00","powerType":"全部","powerOffArea":"【全线路停电】停35kV罗家营变电站10kV温仁线514线路全线，2罗营外18,2罗营外19,1良寨内20,清苑县俊生皮革制衣加工厂01,罗营唐铁乱养猪厂,1良寨内19,1罗营内8,2罗营外6【纯农排变】,2罗营外3【纯农排变】,永会面粉厂,2良寨外1【纯农排变】,保定市恒锦丝线有限公司01,2罗营外9【纯农排变】,保定市茂顺纺织有限公司,1罗营内4,1罗营内3,2罗营外11【纯农排变】,秦盼立,2罗营外10【纯农排变】,2罗营外8【纯农排变】,2罗营外4【纯农排变】,保定市恒锦丝线有限公司,2罗营外7【纯农排变】,2罗营外14【纯农排变】,罗家营幼儿园,1良寨内9,1罗营内11,2罗营外12【纯农排变】,2罗营外13【纯农排变】,2良寨外18【纯农排变】,罗家营小学,1罗营内7,2良寨外2【纯农排变】,1罗营内5,保定市清苑区聚源化纤丝加工厂,1良寨内3,2良寨外3【纯农排变】,2罗营外16,2良寨外15【纯农排变】,2罗营外17,清苑县红升木器加工厂,2良寨外17【纯农排变】,1罗营内10,2罗营外5【纯农排变】,1罗营内2,1罗营内6,2罗营外15【纯农排变】,2罗营外2【纯农排变】,保定惠泽医院","powerOffReason":"【停电原因】由于主干１号杆树搭线导致３５ＫＶ罗家营变电站１０ＫＶ温仁线５１４线路全线停电 【变更送电】因抢修进度加快原因，送电时间由２３：５９变更为１９：１０ 【发布渠道】通过９５５９８发布","powerOffId":"2020060113000461"},{"poweroffId":2020060113000460,"sgpoweroffId":null,"subsName":"","lineName":"正村线525","pubTranName":"杨庄19号,小公村10号【纯农排变】,高各庄14号,高各庄16号,杨庄14号,高各庄2号,杨庄20号,小公村8号,王辛庄14号,","scope":"【影响街道/乡镇】正村乡、遂城镇 【高危重要客户】无 【影响客户】正村、高各庄、杨庄、曹庄、小公村、王辛庄、元头、牛辛庄、遂城","startTime":"2020-06-01 17:43:02","stopDate":"2020-06-01 20:00:00","orgNo":"1340605","typeCode":"电网故障停限电","poweroffArea":"【全线路停电】停杨庄20号,杨庄19号,小公村10号【纯农排变】,高各庄14号,高各庄16号,杨庄14号,高各庄2号,小公村8号,正村10号,高各庄23号【纯农排变】,杨庄9号,保定海康食品制造有限公司,杨庄5号,曹各庄2号【纯农排变】,高各庄9号【纯农排变】,小公村3号,杨庄3号,正村35号,高各庄3号,正村供电所6号,高各庄7号,杨庄7号【纯农排变】,王辛庄8号【纯农排变】,小公村2号【纯农排变】,元头9号【纯农排变】,王辛庄12号【纯农排变】,供电所4号【纯农排变】,王辛庄3号【纯农排变】,杨庄8号【纯农排变】,牛辛庄2号【纯农排变】,正村25号【纯农排变】,遂城11号【纯农排变】,王辛庄11号【纯农排变】,王辛庄4号【纯农排变】,正村17号,保定市徐水区正村乡小公村幼儿园,元头8号【纯农排变】,高各庄27号,高各庄8号【纯农排变】,高各庄5号,正村26号【纯农排变】,小公村4号【纯农排变】,杨庄6号,高各庄22号【纯农排变】,杨庄18号【纯农排变】,高各庄25号,小公村7号,小公村11号,小公村9号【纯农排变】,正村21号【纯农排变】,杨庄10号,高各庄26号,王辛庄9号【纯农排变】,正村32号【纯农排变】,正村31号【纯农排变】,高各庄24号,杨庄村12号【纯农排变】,高各庄13号【纯农排变】,杨庄11号【纯农排变】,元头11号,曹各庄4号,元头10号【纯农排变】,高各庄18号【纯农排变】,王辛庄2号,高各庄1号,杨庄15号【纯农排变】,高各庄12号【纯农排变】,高各庄17号【纯农排变】,王辛庄1号,高各庄10号【纯农排变】,元头5号,元头7号,高各庄4号【纯农排变】,正村11号【纯农排变】,保定市徐水区正村乡高各庄小学,曹各庄1号,王辛庄10号【纯农排变】,牛辛庄3号【纯农排变】,高各庄11号【纯农排变】,高各庄6号【纯农排变】,杨庄2号,变压器,王辛庄7号,元头2号,小公村6号【纯农排变】,高各庄21号【纯农排变】,正村供电所3号【纯农排变】,曹各庄3号,小公村5号,高各庄20号【纯农排变】,王辛庄14号,客户投资_小公村1号,高各庄15号【纯农排变】,杨庄17号【纯农排变】,元头1号,元头6号【纯农排变】,元头3号【纯农排变】,杨庄4号,牛辛庄1号,高各庄19号【纯农排变】,杨庄16号【纯农排变】,杨庄1号,正村12号,王辛庄6号【纯农排变】,元头4号【纯农排变】,王辛庄13号【纯农排变】,中国移动通信集团河北有限公司徐水分公司,牛辛庄4号【纯农排变】","poweroffReason":"【停电原因】由于Ｂ相接地导致１１０ＫＶ遂城变电站正村线５２５线路全线停电 【变更送电】因抢修进度加快原因，送电时间由２３:５９变更为２０:００ 【发布渠道】通过９５５９８发布","powerTime":"2020-06-01 19:33:55","powerComm":"已送电","subsNo":"","lineNo":"","tgNo":"","tgName":null,"infoStatus":"1","orgName":"国网徐水县供电公司","typeName":null,"infoStatusName":null,"dateDay":null,"orgNos":null,"nowTime":null,"countyName":null,"streetName":null,"villageName":null,"roadName":null,"communityName":null,"tranName":null,"sdLineName":null,"cityCode":"1340605","cityName":"国网徐水县供电公司","provinceCode":null,"stopTime":"2020-06-01 20:00:00","powerType":"全部","powerOffArea":"【全线路停电】停杨庄20号,杨庄19号,小公村10号【纯农排变】,高各庄14号,高各庄16号,杨庄14号,高各庄2号,小公村8号,正村10号,高各庄23号【纯农排变】,杨庄9号,保定海康食品制造有限公司,杨庄5号,曹各庄2号【纯农排变】,高各庄9号【纯农排变】,小公村3号,杨庄3号,正村35号,高各庄3号,正村供电所6号,高各庄7号,杨庄7号【纯农排变】,王辛庄8号【纯农排变】,小公村2号【纯农排变】,元头9号【纯农排变】,王辛庄12号【纯农排变】,供电所4号【纯农排变】,王辛庄3号【纯农排变】,杨庄8号【纯农排变】,牛辛庄2号【纯农排变】,正村25号【纯农排变】,遂城11号【纯农排变】,王辛庄11号【纯农排变】,王辛庄4号【纯农排变】,正村17号,保定市徐水区正村乡小公村幼儿园,元头8号【纯农排变】,高各庄27号,高各庄8号【纯农排变】,高各庄5号,正村26号【纯农排变】,小公村4号【纯农排变】,杨庄6号,高各庄22号【纯农排变】,杨庄18号【纯农排变】,高各庄25号,小公村7号,小公村11号,小公村9号【纯农排变】,正村21号【纯农排变】,杨庄10号,高各庄26号,王辛庄9号【纯农排变】,正村32号【纯农排变】,正村31号【纯农排变】,高各庄24号,杨庄村12号【纯农排变】,高各庄13号【纯农排变】,杨庄11号【纯农排变】,元头11号,曹各庄4号,元头10号【纯农排变】,高各庄18号【纯农排变】,王辛庄2号,高各庄1号,杨庄15号【纯农排变】,高各庄12号【纯农排变】,高各庄17号【纯农排变】,王辛庄1号,高各庄10号【纯农排变】,元头5号,元头7号,高各庄4号【纯农排变】,正村11号【纯农排变】,保定市徐水区正村乡高各庄小学,曹各庄1号,王辛庄10号【纯农排变】,牛辛庄3号【纯农排变】,高各庄11号【纯农排变】,高各庄6号【纯农排变】,杨庄2号,变压器,王辛庄7号,元头2号,小公村6号【纯农排变】,高各庄21号【纯农排变】,正村供电所3号【纯农排变】,曹各庄3号,小公村5号,高各庄20号【纯农排变】,王辛庄14号,客户投资_小公村1号,高各庄15号【纯农排变】,杨庄17号【纯农排变】,元头1号,元头6号【纯农排变】,元头3号【纯农排变】,杨庄4号,牛辛庄1号,高各庄19号【纯农排变】,杨庄16号【纯农排变】,杨庄1号,正村12号,王辛庄6号【纯农排变】,元头4号【纯农排变】,王辛庄13号【纯农排变】,中国移动通信集团河北有限公司徐水分公司,牛辛庄4号【纯农排变】","powerOffReason":"【停电原因】由于Ｂ相接地导致１１０ＫＶ遂城变电站正村线５２５线路全线停电 【变更送电】因抢修进度加快原因，送电时间由２３:５９变更为２０:００ 【发布渠道】通过９５５９８发布","powerOffId":"2020060113000460"},{"poweroffId":2020060113000457,"sgpoweroffId":null,"subsName":"","lineName":"大次良线511","pubTranName":"小次良5号,","scope":"【影响街道/乡镇】遂城镇 【高危重要客户】无 【影响客户】大次良、小次良、曲城","startTime":"2020-06-01 17:44:14","stopDate":"2020-06-01 20:00:00","orgNo":"1340605","typeCode":"电网故障停限电","poweroffArea":"【全线路停电】停大次良1号,大次良15号,大次良34号,大次良17号,大次良16号,小次良5号,小次良4号,大次良31号,大次良23号,大次良5号,曲城15号,大次良面粉厂1号,小次良机加工厂,小次良3号【纯农排变】,大次良面粉厂2号,小次良2号,徐水县长青车床加工厂,胜利加工厂,大次良11号,曲城塑料厂,大次良19号,大次良14号,小次良1号,大次良27号,河北德耐美康投资有限公司,保定市徐水区遂城镇大次良幼儿园,徐水县新华车床加工厂,大次良30号,大次良21号,徐水县庆隆管件加工厂","poweroffReason":"【停电原因】由于Ｂ相接地导致３５ＫＶ广门变电站大次良５１１线路全线停电 【变更送电】因抢修进度加快原因，送电时间由２３:５９变更为２０:００ 【发布渠道】通过９５５９８发布","powerTime":"2020-06-01 19:07:42","powerComm":"已送电","subsNo":"","lineNo":"","tgNo":"","tgName":null,"infoStatus":"1","orgName":"国网徐水县供电公司","typeName":null,"infoStatusName":null,"dateDay":null,"orgNos":null,"nowTime":null,"countyName":null,"streetName":null,"villageName":null,"roadName":null,"communityName":null,"tranName":null,"sdLineName":null,"cityCode":"1340605","cityName":"国网徐水县供电公司","provinceCode":null,"stopTime":"2020-06-01 20:00:00","powerType":"全部","powerOffArea":"【全线路停电】停大次良1号,大次良15号,大次良34号,大次良17号,大次良16号,小次良5号,小次良4号,大次良31号,大次良23号,大次良5号,曲城15号,大次良面粉厂1号,小次良机加工厂,小次良3号【纯农排变】,大次良面粉厂2号,小次良2号,徐水县长青车床加工厂,胜利加工厂,大次良11号,曲城塑料厂,大次良19号,大次良14号,小次良1号,大次良27号,河北德耐美康投资有限公司,保定市徐水区遂城镇大次良幼儿园,徐水县新华车床加工厂,大次良30号,大次良21号,徐水县庆隆管件加工厂","powerOffReason":"【停电原因】由于Ｂ相接地导致３５ＫＶ广门变电站大次良５１１线路全线停电 【变更送电】因抢修进度加快原因，送电时间由２３:５９变更为２０:００ 【发布渠道】通过９５５９８发布","powerOffId":"2020060113000457"},{"poweroffId":2020060113000453,"sgpoweroffId":null,"subsName":"","lineName":"10KV东城坊512","pubTranName":"西疃村南新,西城坊1791,西城坊1755变压器,西瞳村西5480变压器,西城坊5066,西城坊农开E变压器【纯农排变】,西城坊村南商业街,西城坊村东BQ台区,东城坊供电所东城坊小学B柱上变压器,马踏营农开L变压器,西疃村东北BQ1台区,西城坊村内（东城坊所）,西城坊村东新【纯农排变】,东城坊供电所西疃小学（煤）箱式变电站配电变压器,西城坊村南沟帮井通变压器,马踏营农开D【纯农排变】,西疃村南BQ3台区,马踏营农开J变压器,西瞳村1815变压器,西疃大队ML变压器,西瞳村东5481变压器,西疃村东南BQ2台区,西疃村1811,东城坊供电所东城坊小学A柱上变压器,西城坊徐家坟新井通【纯农排变】,","scope":"【影响街道/乡镇】东城坊镇 【影响客户】西城坊、西疃、郝家庄、马踏营、史家铺","startTime":"2020-06-01 17:51:20","stopDate":"2020-06-01 21:00:00","orgNo":"1340626","typeCode":"电网故障停限电","poweroffArea":"【全线路停电】停３５ＫＶ东城坊变电站１０ＫＶ东城坊５１２线路全线，涿州市春丰果品专业合作社,东城坊供电所西城坊幼儿园柱上变压器,河北水务集团,西城坊面粉厂,涿州市教育局（东城坊）,马踏营农开L变压器,马踏营孙庄道井,马踏营大井,西疃村东北BQ1台区,马踏营西井,西城坊（徐家坟井）,马踏营7号井,涿州市西城坊村委会,西城坊村内（东城坊所）,西城坊村东新【纯农排变】,东城坊供电所西疃小学（煤）箱式变电站配电变压器,东城坊农开F,西瞳村1757【纯农排变】,涿州市东城坊镇鑫磊水泥制品加工厂,杨立明,涿州市国锋水泥制品加工厂1,西城坊村南沟帮井通变压器,西城坊村西新增配变工程农开D【纯农排变】,马踏营二坨子,小北河沙厂,马踏营农开D【纯农排变】,西疃村南BQ3台区,东城坊西道井,马踏营农开J变压器,马踏营八队井,马踏营西河井,西瞳村1815变压器,马踏营北河井,马踏营庄子井,西疃村南新,河北省涿州开发区管理委员会,西城坊1791,梁国庆建材厂,西城坊红果地井（村西）,马踏营南道井（村南）,西城坊农开A,西城坊1755变压器,马踏营村村北新增配变工程农开F【纯农排变】,马踏营农开E,西瞳村南5482变压器,西瞳村西5480变压器,西城坊村南新51963,西城坊5066,西城坊东井,0575943085-涿州市东城坊镇西城坊村村民委员会-专变-124025097-涿州市东城坊镇西城坊村村民委员会,涿州市东城坊镇西城坊村村民委员会,涿州市京输油品经销处,西城坊农开E变压器【纯农排变】,尹金宝,西城坊村南商业街,西城坊农开C变压器,涿州市西町村崔长海猪厂,西城坊村东BQ台区,西町六跌水新增（村西）,西城坊西南井,东城坊供电所东城坊小学B柱上变压器,西城坊农开B,马踏营1号,西町二农,东城坊镇西疃村委会,西疃大队ML变压器,西瞳村东5481变压器,西疃村东南BQ2台区,西疃村1811,东城坊北八十,东城坊供电所东城坊小学A柱上变压器,涿州市华茂建材厂,西町二三十斗,西城坊徐家坟新井通【纯农排变】,涿州市大丰农业技术开发有限公司","poweroffReason":"【停电原因】由于速断跳闸导致３５ＫＶ东城坊变电站１０ＫＶ东城坊５１２线路全线停电 【变更送电】因抢修进度加快原因，送电时间由０２日０９：００变更为０１日２１：００ 【发布渠道】通过９５５９８发布","powerTime":"2020-06-01 20:06:45","powerComm":"恢复送电","subsNo":"","lineNo":"","tgNo":"","tgName":null,"infoStatus":"1","orgName":"国网涿州市供电公司","typeName":null,"infoStatusName":null,"dateDay":null,"orgNos":null,"nowTime":null,"countyName":null,"streetName":null,"villageName":null,"roadName":null,"communityName":null,"tranName":null,"sdLineName":null,"cityCode":"1340626","cityName":"国网涿州市供电公司","provinceCode":null,"stopTime":"2020-06-01 21:00:00","powerType":"全部","powerOffArea":"【全线路停电】停３５ＫＶ东城坊变电站１０ＫＶ东城坊５１２线路全线，涿州市春丰果品专业合作社,东城坊供电所西城坊幼儿园柱上变压器,河北水务集团,西城坊面粉厂,涿州市教育局（东城坊）,马踏营农开L变压器,马踏营孙庄道井,马踏营大井,西疃村东北BQ1台区,马踏营西井,西城坊（徐家坟井）,马踏营7号井,涿州市西城坊村委会,西城坊村内（东城坊所）,西城坊村东新【纯农排变】,东城坊供电所西疃小学（煤）箱式变电站配电变压器,东城坊农开F,西瞳村1757【纯农排变】,涿州市东城坊镇鑫磊水泥制品加工厂,杨立明,涿州市国锋水泥制品加工厂1,西城坊村南沟帮井通变压器,西城坊村西新增配变工程农开D【纯农排变】,马踏营二坨子,小北河沙厂,马踏营农开D【纯农排变】,西疃村南BQ3台区,东城坊西道井,马踏营农开J变压器,马踏营八队井,马踏营西河井,西瞳村1815变压器,马踏营北河井,马踏营庄子井,西疃村南新,河北省涿州开发区管理委员会,西城坊1791,梁国庆建材厂,西城坊红果地井（村西）,马踏营南道井（村南）,西城坊农开A,西城坊1755变压器,马踏营村村北新增配变工程农开F【纯农排变】,马踏营农开E,西瞳村南5482变压器,西瞳村西5480变压器,西城坊村南新51963,西城坊5066,西城坊东井,0575943085-涿州市东城坊镇西城坊村村民委员会-专变-124025097-涿州市东城坊镇西城坊村村民委员会,涿州市东城坊镇西城坊村村民委员会,涿州市京输油品经销处,西城坊农开E变压器【纯农排变】,尹金宝,西城坊村南商业街,西城坊农开C变压器,涿州市西町村崔长海猪厂,西城坊村东BQ台区,西町六跌水新增（村西）,西城坊西南井,东城坊供电所东城坊小学B柱上变压器,西城坊农开B,马踏营1号,西町二农,东城坊镇西疃村委会,西疃大队ML变压器,西瞳村东5481变压器,西疃村东南BQ2台区,西疃村1811,东城坊北八十,东城坊供电所东城坊小学A柱上变压器,涿州市华茂建材厂,西町二三十斗,西城坊徐家坟新井通【纯农排变】,涿州市大丰农业技术开发有限公司","powerOffReason":"【停电原因】由于速断跳闸导致３５ＫＶ东城坊变电站１０ＫＶ东城坊５１２线路全线停电 【变更送电】因抢修进度加快原因，送电时间由０２日０９：００变更为０１日２１：００ 【发布渠道】通过９５５９８发布","powerOffId":"2020060113000453"}],"pageModel":{"pageNow":27,"totalCount":10973,"totalPage":1098,"tableRows":0,"pageCount":10,"beginCount":260},"isExperi":"1"}