{"message":"","today":"2020-06-15","seleList":[{"poweroffId":2019102513000051,"sgpoweroffId":null,"subsName":"","lineName":"10kV516高门屯线","pubTranName":"管头供电所统管变压器,","scope":"【影响街道/乡镇】东旺乡【高危重要客户】无【影响客户】曲阳县万龙金属制品有限公司、管头供电所","startTime":"2019-11-08 07:00:00","stopDate":"2019-11-08 19:00:00","orgNo":"1340619","typeCode":"计划停电","poweroffArea":"【全线路停电】停曲阳县万龙金属制品有限公司,管头供电所统管变压器","poweroffReason":"【停电原因】由于线路大修技改导致３５ＫＶ管头变电站１０ＫＶ５１６高门屯线路全线停电【变更送电】因工作未完工原因，送电时间由１８：００变更为１９：００【发布渠道】保定市曲阳县电视台（１０月２５日至１０月２７日１８时至２０时之间）屏幕上方滚动","powerTime":"2019-11-08 18:09:18","powerComm":"已送电","subsNo":"","lineNo":"","tgNo":"","tgName":null,"infoStatus":"1","orgName":"国网曲阳县供电公司","typeName":null,"infoStatusName":null,"dateDay":null,"orgNos":null,"nowTime":null,"countyName":null,"streetName":null,"villageName":null,"roadName":null,"communityName":null,"tranName":null,"sdLineName":null,"cityCode":"1340619","cityName":"国网曲阳县供电公司","provinceCode":null,"stopTime":"2019-11-08 19:00:00","powerType":"全部","powerOffArea":"【全线路停电】停曲阳县万龙金属制品有限公司,管头供电所统管变压器","powerOffReason":"【停电原因】由于线路大修技改导致３５ＫＶ管头变电站１０ＫＶ５１６高门屯线路全线停电【变更送电】因工作未完工原因，送电时间由１８：００变更为１９：００【发布渠道】保定市曲阳县电视台（１０月２５日至１０月２７日１８时至２０时之间）屏幕上方滚动","powerOffId":"2019102513000051"},{"poweroffId":2019102513000050,"sgpoweroffId":null,"subsName":"","lineName":"城内513线","pubTranName":"唐盛佳苑4649箱式变出线间隔配电变压器,唐盛佳苑箱式变4564出线间隔配电变压器,唐县金泰花园酒店新装配变,国防路土地家属公用2274变压器,四城涧砖厂0014,0689504035-河北尧天房地产开发有限公司-专变-230646914-河北尧天房地产开发有限公司10配变,南坛村内4377,粮局公用0017变压器,唐县金泰花园酒店3184,西关村北0076变压器,南关小区0006变压器,七公司0081,美珠药业照明变压器,钻石铭城3399变压器,唐县天宝房地产开发有限公司4913,理想集团0042,南关东南,城西公用5145变压器,","scope":"【影响街道/乡镇】仁厚镇、国防路【高危重要客户】无【影响客户】南坛村、鑫鑫家园、南关村、西苑小区、西关村、怡心园小区、电厂家属院、一建家属院、房产家属楼、东牛市、西牛市、钻石名城、交通局西南方用户、富昌小区、城内村、红十字医院、理想集团周边用户、煤建家属院、唐尧西路第一小学、第一小学周边、工商局家属院、水利局、教堂、灌渠、县砖厂家属院、泗城涧村、交通局对面用户、七公司以北用户、灌渠以南用户、仁厚新区家属、御景西城小区、漫水桥烧烤城、石油小区、福康小区、天使之城、唐盛佳苑、北京滕航房地产开发有限公司、唐县金泰花园酒店、保定旭龙商贸有限公司、保定金坝塑业有限公司、河北保定运输集团有限责任公司第七运输分公司、唐县顺安建筑器材租赁站、汽车队、唐县天皓食品有限公司、唐县四城涧砖厂、河北美珠生物技术有限公司、唐县滕航房地产开发有限公司、河北唐明房地产开发有限公司、中国石油天然气股份有限公司河北保定销售分公司第一百一十八加油站、唐县恒谊玻璃制品有限公司","startTime":"2019-11-04 06:30:00","stopDate":"2019-11-04 18:00:00","orgNo":"1340622","typeCode":"计划停电","poweroffArea":"【全线路停电】停唐县金泰花园酒店3184,唐盛佳苑4649箱式变出线间隔配电变压器,西关村北0076变压器,南关东南,唐县金泰花园酒店新装配变,国防路土地家属公用2274变压器,美珠药业照明变压器,唐县天宝房地产开发有限公司4913,理想集团0042,南关小区0006变压器,钻石铭城3399变压器,城西公用5145变压器,七公司0081,南坛村内4377,230646914-河北尧天房地产开发有限公司10配变,唐盛佳苑箱式变4564出线间隔配电变压器,粮局公用0017变压器,四城涧砖厂0014","poweroffReason":"【停电原因】由于线路检修导致１１０ＫＶ唐县变电站城内５１３线路全线停电【变更送电】无【发布渠道】保定市唐县电视台（１０月２５日至１１月０３日的２０：００时至２０：３０时之间）屏幕上方滚动字幕","powerTime":"2019-11-04 17:51:27","powerComm":"已送电","subsNo":"","lineNo":"","tgNo":"","tgName":null,"infoStatus":"1","orgName":"国网唐县供电公司","typeName":null,"infoStatusName":null,"dateDay":null,"orgNos":null,"nowTime":null,"countyName":null,"streetName":null,"villageName":null,"roadName":null,"communityName":null,"tranName":null,"sdLineName":null,"cityCode":"1340622","cityName":"国网唐县供电公司","provinceCode":null,"stopTime":"2019-11-04 18:00:00","powerType":"全部","powerOffArea":"【全线路停电】停唐县金泰花园酒店3184,唐盛佳苑4649箱式变出线间隔配电变压器,西关村北0076变压器,南关东南,唐县金泰花园酒店新装配变,国防路土地家属公用2274变压器,美珠药业照明变压器,唐县天宝房地产开发有限公司4913,理想集团0042,南关小区0006变压器,钻石铭城3399变压器,城西公用5145变压器,七公司0081,南坛村内4377,230646914-河北尧天房地产开发有限公司10配变,唐盛佳苑箱式变4564出线间隔配电变压器,粮局公用0017变压器,四城涧砖厂0014","powerOffReason":"【停电原因】由于线路检修导致１１０ＫＶ唐县变电站城内５１３线路全线停电【变更送电】无【发布渠道】保定市唐县电视台（１０月２５日至１１月０３日的２０：００时至２０：３０时之间）屏幕上方滚动字幕","powerOffId":"2019102513000050"},{"poweroffId":2019102513000048,"sgpoweroffId":null,"subsName":"","lineName":"微波站517线","pubTranName":"李家庄1417,李家庄8273变压器,都亭乡第四幼儿园 7471变压器,","scope":"【影响街道/乡镇】仁厚镇、都亭乡【高危重要客户】无【影响客户】李家庄、第四幼儿园","startTime":"2019-11-04 06:30:00","stopDate":"2019-11-04 18:00:00","orgNo":"1340622","typeCode":"计划停电","poweroffArea":"【分支停电】停李家庄1417,李家庄8273变压器, 都亭乡第四幼儿园 7471变压器","poweroffReason":"【停电原因】由于更换电杆导致１１０ＫＶ唐县变电站微波站５１７线路李家庄１４１７台区分支以下线路停电【变更送电】无【发布渠道】保定市唐县电视台（１０月２５日至１１月０３日的２０：００时至２０：３０时之间）屏幕上方滚动字幕","powerTime":"2019-11-04 17:02:24","powerComm":"已送电","subsNo":"","lineNo":"","tgNo":"","tgName":null,"infoStatus":"1","orgName":"国网唐县供电公司","typeName":null,"infoStatusName":null,"dateDay":null,"orgNos":null,"nowTime":null,"countyName":null,"streetName":null,"villageName":null,"roadName":null,"communityName":null,"tranName":null,"sdLineName":null,"cityCode":"1340622","cityName":"国网唐县供电公司","provinceCode":null,"stopTime":"2019-11-04 18:00:00","powerType":"全部","powerOffArea":"【分支停电】停李家庄1417,李家庄8273变压器, 都亭乡第四幼儿园 7471变压器","powerOffReason":"【停电原因】由于更换电杆导致１１０ＫＶ唐县变电站微波站５１７线路李家庄１４１７台区分支以下线路停电【变更送电】无【发布渠道】保定市唐县电视台（１０月２５日至１１月０３日的２０：００时至２０：３０时之间）屏幕上方滚动字幕","powerOffId":"2019102513000048"},{"poweroffId":2019102513000047,"sgpoweroffId":null,"subsName":"","lineName":"10kV515东旺线","pubTranName":"0000006408北管头统管东农5#变压器【纯农排变】,0000005601北管头统管北农3号变压器,0014331042北管头中区变压器,北管头农6变压器,0000004953北管头变压器,0012630044北管头西区变压器,0000006327北管头东区变压器,北管头统管西农2号变压器,北管头中2区变压器,北管头农8变压器【纯农排变】,北管头小学变压器,","scope":"【影响街道/乡镇】燕赵镇【高危重要客户】无【影响客户】中管头部分、北管头","startTime":"2019-11-08 07:00:00","stopDate":"2019-11-08 19:00:00","orgNo":"1340619","typeCode":"计划停电","poweroffArea":"【全线路停电】停中管头农1变压器【纯农排变】,0000004953北管头变压器,0000005600北管头统管北农4号变压器,0012630044北管头西区变压器,0000006327北管头东区变压器,北管头统管西农2号变压器,0000005939北管头统管西农变压器,北管头中2区变压器,北管头农8变压器【纯农排变】,北管头小学变压器,0000006408北管头统管东农5#变压器【纯农排变】,0000005601北管头统管北农3号变压器,0014331042北管头中区变压器,北管头农6变压器,0000005873北管头统管东农1号变压器","poweroffReason":"【停电原因】由于线路大修技改导致３５ＫＶ管头变电站１０ＫＶ５１５东旺线路全线停电【变更送电】因工作未完工原因，送电时间由１８：００变更为１９：００【发布渠道】保定市曲阳县电视台（１０月２５日至１０月２７日１８时至２０时之间）屏幕上方滚动","powerTime":"2019-11-08 18:11:10","powerComm":"已送电","subsNo":"","lineNo":"","tgNo":"","tgName":null,"infoStatus":"1","orgName":"国网曲阳县供电公司","typeName":null,"infoStatusName":null,"dateDay":null,"orgNos":null,"nowTime":null,"countyName":null,"streetName":null,"villageName":null,"roadName":null,"communityName":null,"tranName":null,"sdLineName":null,"cityCode":"1340619","cityName":"国网曲阳县供电公司","provinceCode":null,"stopTime":"2019-11-08 19:00:00","powerType":"全部","powerOffArea":"【全线路停电】停中管头农1变压器【纯农排变】,0000004953北管头变压器,0000005600北管头统管北农4号变压器,0012630044北管头西区变压器,0000006327北管头东区变压器,北管头统管西农2号变压器,0000005939北管头统管西农变压器,北管头中2区变压器,北管头农8变压器【纯农排变】,北管头小学变压器,0000006408北管头统管东农5#变压器【纯农排变】,0000005601北管头统管北农3号变压器,0014331042北管头中区变压器,北管头农6变压器,0000005873北管头统管东农1号变压器","powerOffReason":"【停电原因】由于线路大修技改导致３５ＫＶ管头变电站１０ＫＶ５１５东旺线路全线停电【变更送电】因工作未完工原因，送电时间由１８：００变更为１９：００【发布渠道】保定市曲阳县电视台（１０月２５日至１０月２７日１８时至２０时之间）屏幕上方滚动","powerOffId":"2019102513000047"},{"poweroffId":2019102513000043,"sgpoweroffId":null,"subsName":"","lineName":"南环东路线517","pubTranName":"雅致丽园7329配电变压器,东二环2号6837,东二环1号6834,北马辛村西4941变压器变压器,房庄学校0821变压器,徐家庄村北4740变压器,房庄村南2911变压器变压器,薛庄子小学7555变压器,大马庄村东4943变压器,房庄新区5143变压器,北马辛变压器0835变压器,薛庄子沟西3130变压器,小马庄羊厂2号7785变压器,薛庄子村西0408变压器,风景天成5242变压器出线间隔配电变压器,房庄大队变压器0871,房庄东南3216变压器,小马庄羊厂7784变压器,房庄村北7967变压器,小马庄村南4093,薛庄子沟西3113变压器,房庄东北水3364变压器,薛庄子西北水变压器2224,薛庄子村东0406变压器,房庄村东0820变压器,宏旺小学7554变压器,房庄村西0819变压器,房庄西北4711变压器,薛庄子学校4940变压器,坛下辛北公用7097,风景天成5279变压器出线间隔配电变压器,大马庄南2644压器变压器,小马庄4074变压器,大马庄村南0399变压器变压器,大马庄村内0899变压器,雅致丽园7330箱变出线间隔配电变压器,薛庄子村北变压器,房庄6565台区变压器,房庄小学7556变压器,房庄南2变压器,小马庄1713变压器,","scope":"【影响街道/乡镇】仁厚镇【高危重要客户】无【影响客户】风景天城、雅致丽园、徐家庄、北马辛、薛庄子、大马庄、小马庄、房庄村、坛下辛村、全友家私、唐县洁源垃圾处置有限公司、河北沃隆房地产开发有限公司、唐县坛下张联营面粉厂、唐县益凝商砼有限责任公司、聂克青面粉厂、唐县腾达纸箱包装有限公司、唐县天鹏塑料制品制造有限公司","startTime":"2019-11-04 06:30:00","stopDate":"2019-11-04 18:00:00","orgNo":"1340622","typeCode":"计划停电","poweroffArea":"【全线路停电】停小马庄4074变压器,雅致丽园7330箱变出线间隔配电变压器,占维面粉厂1732,薛庄子村北变压器,风景天成5279变压器出线间隔配电变压器,大马庄南2644压器变压器,大马庄村南0399变压器变压器,唐县辉鸿黄粉虫养殖场XZ7788,大马庄村内0899变压器,徐家庄0411变压器,客户投资,房庄6565台区变压器,房庄小学7556变压器,房庄南2变压器,唐县东环精制面粉厂2642,东二环2号6837,房庄村南2911变压器变压器,大马庄村东4943变压器,唐县益凝商砼有限责任公司,房庄新区5143变压器,北马辛变压器0835变压器,小马庄羊厂2号7785变压器,薛庄子村西0408变压器,房庄大队变压器0871,小马庄羊厂7784变压器,房庄村北7967变压器,房庄东北水3364变压器,薛庄子修配厂0805,雅致丽园7329配电变压器,唐县洁源垃圾处置有限公司,唐县中燃城市燃气发展有限公司,小马庄北水3131变压器,唐县国润发投热力有限公司新装10KV变压器,东二环1号6834,北马辛村西4941变压器变压器,房庄学校0821变压器,保定市润发热力有限公司10KV新装配变,河北吉磊建材有限公司高压新装7496,徐家庄村北4740变压器,薛庄子小学7555变压器,大马庄水塔变压器0811变压器,薛庄子沟西3130变压器,唐县军财蔬菜种植园,坛下张联营面粉厂2314,风景天成5242变压器出线间隔配电变压器,房庄东南3216变压器,小马庄村南4093,薛庄子沟西3113变压器,唐县腾达纸箱包装有限公司,小马庄1713变压器,薛庄子西北水变压器2224,薛庄子村东0406变压器,唐县中宝新能源开发有限公司计量点P7085,房庄村东0820变压器,宏旺小学7554变压器,房庄村西0819变压器,唐县国润发投热力有限公司,房庄西北4711变压器,唐县顺通黄粉虫养殖场250KVA,薛庄子学校4940变压器,聂克青面粉厂0812,唐县污水处理厂2771,坛下辛北公用7097","poweroffReason":"【停电原因】由于线路改造导致３５ＫＶ城南变电站南环东路５１７线路全线停电【变更送电】无【发布渠道】保定市唐县电视台（１０月２５日至１１月０３日的２０：００时至２０：３０时之间）屏幕上方滚动字幕","powerTime":"2019-11-04 17:51:40","powerComm":"已送电","subsNo":"","lineNo":"","tgNo":"","tgName":null,"infoStatus":"1","orgName":"国网唐县供电公司","typeName":null,"infoStatusName":null,"dateDay":null,"orgNos":null,"nowTime":null,"countyName":null,"streetName":null,"villageName":null,"roadName":null,"communityName":null,"tranName":null,"sdLineName":null,"cityCode":"1340622","cityName":"国网唐县供电公司","provinceCode":null,"stopTime":"2019-11-04 18:00:00","powerType":"全部","powerOffArea":"【全线路停电】停小马庄4074变压器,雅致丽园7330箱变出线间隔配电变压器,占维面粉厂1732,薛庄子村北变压器,风景天成5279变压器出线间隔配电变压器,大马庄南2644压器变压器,大马庄村南0399变压器变压器,唐县辉鸿黄粉虫养殖场XZ7788,大马庄村内0899变压器,徐家庄0411变压器,客户投资,房庄6565台区变压器,房庄小学7556变压器,房庄南2变压器,唐县东环精制面粉厂2642,东二环2号6837,房庄村南2911变压器变压器,大马庄村东4943变压器,唐县益凝商砼有限责任公司,房庄新区5143变压器,北马辛变压器0835变压器,小马庄羊厂2号7785变压器,薛庄子村西0408变压器,房庄大队变压器0871,小马庄羊厂7784变压器,房庄村北7967变压器,房庄东北水3364变压器,薛庄子修配厂0805,雅致丽园7329配电变压器,唐县洁源垃圾处置有限公司,唐县中燃城市燃气发展有限公司,小马庄北水3131变压器,唐县国润发投热力有限公司新装10KV变压器,东二环1号6834,北马辛村西4941变压器变压器,房庄学校0821变压器,保定市润发热力有限公司10KV新装配变,河北吉磊建材有限公司高压新装7496,徐家庄村北4740变压器,薛庄子小学7555变压器,大马庄水塔变压器0811变压器,薛庄子沟西3130变压器,唐县军财蔬菜种植园,坛下张联营面粉厂2314,风景天成5242变压器出线间隔配电变压器,房庄东南3216变压器,小马庄村南4093,薛庄子沟西3113变压器,唐县腾达纸箱包装有限公司,小马庄1713变压器,薛庄子西北水变压器2224,薛庄子村东0406变压器,唐县中宝新能源开发有限公司计量点P7085,房庄村东0820变压器,宏旺小学7554变压器,房庄村西0819变压器,唐县国润发投热力有限公司,房庄西北4711变压器,唐县顺通黄粉虫养殖场250KVA,薛庄子学校4940变压器,聂克青面粉厂0812,唐县污水处理厂2771,坛下辛北公用7097","powerOffReason":"【停电原因】由于线路改造导致３５ＫＶ城南变电站南环东路５１７线路全线停电【变更送电】无【发布渠道】保定市唐县电视台（１０月２５日至１１月０３日的２０：００时至２０：３０时之间）屏幕上方滚动字幕","powerOffId":"2019102513000043"},{"poweroffId":2019102513000042,"sgpoweroffId":null,"subsName":"","lineName":"10kV513燕赵线","pubTranName":"北留营农20变压器,0012646108燕赵农12变压器,0000006786郑留营北区,北留营农16变压器【纯农排变】,第五中学1变压器,0000006459燕赵北2区变压器,燕赵农22变压器【纯农排变】,0000006732刘堡内东区变压器,0000005792郑留营统管东农1号变压器,西沟南小学变压器,燕赵派出所变压器,0012689961北留营东2区变压器,0000004948燕赵南区变压器,燕赵农19变压器【纯农排变】,0014448825东沟南新增,北留营农19变压器【纯农排变】,0014325935刘堡内北2区变压器,郑留营东1区变压器,0000004946燕赵东区变压器,0012742818燕赵中2区变压器,曲阳县第五中学变压器,0012891923中管头南2变压器,0000005993燕赵1变压器,0014324755燕赵北4区变压器,北留营农22变压器【纯农排变】,西沟南北区变压器,北留营农18变压器【纯农排变】,堡内幼儿园变压器,燕赵中学2变压器,刘堡内农6变压器【纯农排变】,刘堡内东3变压器,郑留营小学变压器,0014418536刘堡内西区,西沟南农4变压器【纯农排变】,西沟南农3变压器【纯农排变】,0000004942北留营北变压器,北留营小学变压器,北留营北2区变压器,燕赵农17变压器【纯农排变】,0000005602西沟南北(混)变压器,北留营农13变压器【纯农排变】,0000004960燕赵西区变压器,刘堡内西2变压器,0000004943刘堡内中区变压器,0014324756燕赵西南区变压器,0000005793西沟南统管南农1号变压器,燕赵农18变压器【纯农排变】,0014444182北留营西南区,燕赵小学变压器,0000004975西沟南南区变压器,0013158427燕赵北3区变压器,0012892424北留营西区变压器,北留营农17变压器【纯农排变】,0012685601西沟南东区变压器,0000004957郑留营村变压器,北留营农21变压器1【纯农排变】,0000004941北留营南变压器,燕赵地税分局变压器,刘堡内农5变压器【纯农排变】,0000004954刘堡内北区变压器,燕赵医院变压器,燕赵北统管配电变压器,0000005636燕赵中区变压器,0000006581北留营中区变压器,第五中学2变压器,燕赵镇人民政府变压器,0000006276北留营东,0014436405刘堡内东2区变压器,燕赵农20变压器【纯农排变】,0012907904郑留营东区变压器,0000006411北留营统管农8#变压器,0000004968燕赵北区变压器,燕赵中学1变压器,燕赵南4区变压器,0014324754燕赵中3区变压器,燕赵中4区变压器,北留营西2区变压器,0000005797燕赵统管南农5号变压器【纯农排变】,0014466787燕赵西2区,北留营南2变压器,燕赵中学变压器,西沟南北2区,","scope":"【影响街道/乡镇】燕赵镇【高危重要客户】无【影响客户】燕赵、北留营、郑留营、东沟南、西沟南、中管头部分、刘堡内","startTime":"2019-11-08 07:00:00","stopDate":"2019-11-08 19:00:00","orgNo":"1340619","typeCode":"计划停电","poweroffArea":"【全线路停电】停0000004975西沟南南区变压器,第五中学1变压器,0000006459燕赵北2区变压器,燕赵农22变压器【纯农排变】,燕赵派出所变压器,0012689961北留营东2区变压器,0000004948燕赵南区变压器,燕赵农19变压器【纯农排变】,北留营农19变压器【纯农排变】,0014325935刘堡内北2区变压器,郑留营东1区变压器,0000004946燕赵东区变压器,0012742818燕赵中2区变压器,曲阳县第五中学变压器,0012891923中管头南2变压器,0000005993燕赵1变压器,0014324755燕赵北4区变压器,北留营农22变压器【纯农排变】,0013158427燕赵北3区变压器,0012892424北留营西区变压器,0000004943刘堡内中区变压器,0014324756燕赵西南区变压器,0000005793西沟南统管南农1号变压器,燕赵农18变压器【纯农排变】,0014444182北留营西南区,燕赵小学变压器,0000006786郑留营北区,北留营农16变压器【纯农排变】,0000006732刘堡内东区变压器,0000005792郑留营统管东农1号变压器,西沟南小学变压器,0014448825东沟南新增,西沟南北区变压器,北留营农18变压器【纯农排变】,堡内幼儿园变压器,刘堡内东3变压器,0000004957郑留营村变压器,北留营农17变压器【纯农排变】,0012685601西沟南东区变压器,北留营农21变压器1【纯农排变】,0000004941北留营南变压器,燕赵地税分局变压器,刘堡内农5变压器【纯农排变】,0000006276北留营东,0000004954刘堡内北区变压器,燕赵医院变压器,燕赵北统管配电变压器,0000005636燕赵中区变压器,0000006581北留营中区变压器,第五中学2变压器,燕赵镇人民政府变压器,0014436405刘堡内东2区变压器,燕赵农20变压器【纯农排变】,0012907904郑留营东区变压器,0000006411北留营统管农8#变压器,0000004968燕赵北区变压器,燕赵中学1变压器,燕赵南4区变压器,0014324754燕赵中3区变压器,燕赵中4区变压器,北留营西2区变压器,0000005797燕赵统管南农5号变压器【纯农排变】,0014466787燕赵西2区,北留营南2变压器,燕赵中学变压器,西沟南北2区,燕赵中学2变压器,刘堡内农6变压器【纯农排变】,0014418536刘堡内西区,西沟南农4变压器【纯农排变】,北留营小学变压器,0000005602西沟南北(混)变压器,北留营农13变压器【纯农排变】,0000004960燕赵西区变压器,刘堡内西2变压器,北留营农20变压器,郑留营小学变压器,西沟南农3变压器【纯农排变】,0000004942北留营北变压器,北留营北2区变压器,燕赵农17变压器【纯农排变】,0012646108燕赵农12变压器","poweroffReason":"【停电原因】由于线路大修技改导致３５ＫＶ管头变电站１０ＫＶ５１３燕赵线路全线停电【变更送电】因工作未完工原因，送电时间由１８：００变更为１９：００【发布渠道】保定市曲阳县电视台（１０月２５日至１０月２７日１８时至２０时之间）屏幕上方滚动","powerTime":"2019-11-08 18:11:28","powerComm":"已送电","subsNo":"","lineNo":"","tgNo":"","tgName":null,"infoStatus":"1","orgName":"国网曲阳县供电公司","typeName":null,"infoStatusName":null,"dateDay":null,"orgNos":null,"nowTime":null,"countyName":null,"streetName":null,"villageName":null,"roadName":null,"communityName":null,"tranName":null,"sdLineName":null,"cityCode":"1340619","cityName":"国网曲阳县供电公司","provinceCode":null,"stopTime":"2019-11-08 19:00:00","powerType":"全部","powerOffArea":"【全线路停电】停0000004975西沟南南区变压器,第五中学1变压器,0000006459燕赵北2区变压器,燕赵农22变压器【纯农排变】,燕赵派出所变压器,0012689961北留营东2区变压器,0000004948燕赵南区变压器,燕赵农19变压器【纯农排变】,北留营农19变压器【纯农排变】,0014325935刘堡内北2区变压器,郑留营东1区变压器,0000004946燕赵东区变压器,0012742818燕赵中2区变压器,曲阳县第五中学变压器,0012891923中管头南2变压器,0000005993燕赵1变压器,0014324755燕赵北4区变压器,北留营农22变压器【纯农排变】,0013158427燕赵北3区变压器,0012892424北留营西区变压器,0000004943刘堡内中区变压器,0014324756燕赵西南区变压器,0000005793西沟南统管南农1号变压器,燕赵农18变压器【纯农排变】,0014444182北留营西南区,燕赵小学变压器,0000006786郑留营北区,北留营农16变压器【纯农排变】,0000006732刘堡内东区变压器,0000005792郑留营统管东农1号变压器,西沟南小学变压器,0014448825东沟南新增,西沟南北区变压器,北留营农18变压器【纯农排变】,堡内幼儿园变压器,刘堡内东3变压器,0000004957郑留营村变压器,北留营农17变压器【纯农排变】,0012685601西沟南东区变压器,北留营农21变压器1【纯农排变】,0000004941北留营南变压器,燕赵地税分局变压器,刘堡内农5变压器【纯农排变】,0000006276北留营东,0000004954刘堡内北区变压器,燕赵医院变压器,燕赵北统管配电变压器,0000005636燕赵中区变压器,0000006581北留营中区变压器,第五中学2变压器,燕赵镇人民政府变压器,0014436405刘堡内东2区变压器,燕赵农20变压器【纯农排变】,0012907904郑留营东区变压器,0000006411北留营统管农8#变压器,0000004968燕赵北区变压器,燕赵中学1变压器,燕赵南4区变压器,0014324754燕赵中3区变压器,燕赵中4区变压器,北留营西2区变压器,0000005797燕赵统管南农5号变压器【纯农排变】,0014466787燕赵西2区,北留营南2变压器,燕赵中学变压器,西沟南北2区,燕赵中学2变压器,刘堡内农6变压器【纯农排变】,0014418536刘堡内西区,西沟南农4变压器【纯农排变】,北留营小学变压器,0000005602西沟南北(混)变压器,北留营农13变压器【纯农排变】,0000004960燕赵西区变压器,刘堡内西2变压器,北留营农20变压器,郑留营小学变压器,西沟南农3变压器【纯农排变】,0000004942北留营北变压器,北留营北2区变压器,燕赵农17变压器【纯农排变】,0012646108燕赵农12变压器","powerOffReason":"【停电原因】由于线路大修技改导致３５ＫＶ管头变电站１０ＫＶ５１３燕赵线路全线停电【变更送电】因工作未完工原因，送电时间由１８：００变更为１９：００【发布渠道】保定市曲阳县电视台（１０月２５日至１０月２７日１８时至２０时之间）屏幕上方滚动","powerOffId":"2019102513000042"},{"poweroffId":2019102513000041,"sgpoweroffId":null,"subsName":"","lineName":"10KV徐里营531","pubTranName":"刁窝供电所（徐一村）【纯农排变】,","scope":"【影响街道/乡镇】刁窝乡 【高危重要客户】无 【影响客户】徐一村","startTime":"2019-11-04 08:00:00","stopDate":"2019-11-04 17:00:00","orgNo":"1340626","typeCode":"计划停电","poweroffArea":"【单台区停电】停刁窝供电所（徐一村）【纯农排变】","poweroffReason":"【停电原因】由于架设导线工程导致１１０ＫＶ刁窝变电站１０ＫＶ徐里营５３１线路刁窝供电所（徐一村）公变台区停电 【变更送电】无 【发布渠道】涿州电视台（１０月２５日至１１月０３日２１：００播放２次）屏幕上方滚动","powerTime":"2019-11-04 16:45:20","powerComm":"恢复送电","subsNo":"","lineNo":"","tgNo":"","tgName":null,"infoStatus":"1","orgName":"国网涿州市供电公司","typeName":null,"infoStatusName":null,"dateDay":null,"orgNos":null,"nowTime":null,"countyName":null,"streetName":null,"villageName":null,"roadName":null,"communityName":null,"tranName":null,"sdLineName":null,"cityCode":"1340626","cityName":"国网涿州市供电公司","provinceCode":null,"stopTime":"2019-11-04 17:00:00","powerType":"全部","powerOffArea":"【单台区停电】停刁窝供电所（徐一村）【纯农排变】","powerOffReason":"【停电原因】由于架设导线工程导致１１０ＫＶ刁窝变电站１０ＫＶ徐里营５３１线路刁窝供电所（徐一村）公变台区停电 【变更送电】无 【发布渠道】涿州电视台（１０月２５日至１１月０３日２１：００播放２次）屏幕上方滚动","powerOffId":"2019102513000041"},{"poweroffId":2019102513000037,"sgpoweroffId":null,"subsName":"","lineName":"10kV511中管头线","pubTranName":"0000005473中管头中区变压器,0000005474中管头南区变压器,中管头小学变压器,中管头中3区变压器,0000005472中管头北区变压器,中管头西2区变压器,中管头农8变压器【纯农排变】,0012742813中管头中2区变压器,0000005471中管头西区变压器,中管头中4区变压器,","scope":"【影响街道/乡镇】燕赵镇【高危重要客户】无【影响客户】中管头","startTime":"2019-11-08 07:00:00","stopDate":"2019-11-08 19:00:00","orgNo":"1340619","typeCode":"计划停电","poweroffArea":"【全线路停电】停0000005782中管头统管南农4号变压器,保定市南水北调工程建设委员会办公室变压器,中管头西2区变压器,0664931274-保定市南水北调工程建设委员会办公室-专变-201062655-保定市南水北调工程建设委员会办公室变压器,中管头农8变压器【纯农排变】,0000005781中管头统管北农3号变压器【纯农排变】,0000005780中管头统管西北农2号变压器,0000005783中管头统管西农5号变压器【纯农排变】,0000005471中管头西区变压器,中管头中4区变压器,0012742813中管头中2区变压器,0000005473中管头中区变压器,0000005474中管头南区变压器,袁分树冷库,中管头小学变压器,中管头中3区变压器,中管头第二冷库,中管头第一冷库,0000005472中管头北区变压器,0000006456中管头统管农6#变压器","poweroffReason":"【停电原因】由于线路大修技改导致３５ＫＶ管头变电站１０ＫＶ５１１中管头线路全线停电【变更送电】因工作未完工原因，送电时间由１８：００变更为１９：００【发布渠道】保定市曲阳县电视台（１０月２５日至１０月２７日１８时至２０时之间）屏幕上方滚动","powerTime":"2019-11-08 18:10:17","powerComm":"已送电","subsNo":"","lineNo":"","tgNo":"","tgName":null,"infoStatus":"1","orgName":"国网曲阳县供电公司","typeName":null,"infoStatusName":null,"dateDay":null,"orgNos":null,"nowTime":null,"countyName":null,"streetName":null,"villageName":null,"roadName":null,"communityName":null,"tranName":null,"sdLineName":null,"cityCode":"1340619","cityName":"国网曲阳县供电公司","provinceCode":null,"stopTime":"2019-11-08 19:00:00","powerType":"全部","powerOffArea":"【全线路停电】停0000005782中管头统管南农4号变压器,保定市南水北调工程建设委员会办公室变压器,中管头西2区变压器,0664931274-保定市南水北调工程建设委员会办公室-专变-201062655-保定市南水北调工程建设委员会办公室变压器,中管头农8变压器【纯农排变】,0000005781中管头统管北农3号变压器【纯农排变】,0000005780中管头统管西北农2号变压器,0000005783中管头统管西农5号变压器【纯农排变】,0000005471中管头西区变压器,中管头中4区变压器,0012742813中管头中2区变压器,0000005473中管头中区变压器,0000005474中管头南区变压器,袁分树冷库,中管头小学变压器,中管头中3区变压器,中管头第二冷库,中管头第一冷库,0000005472中管头北区变压器,0000006456中管头统管农6#变压器","powerOffReason":"【停电原因】由于线路大修技改导致３５ＫＶ管头变电站１０ＫＶ５１１中管头线路全线停电【变更送电】因工作未完工原因，送电时间由１８：００变更为１９：００【发布渠道】保定市曲阳县电视台（１０月２５日至１０月２７日１８时至２０时之间）屏幕上方滚动","powerOffId":"2019102513000037"},{"poweroffId":2019102513000032,"sgpoweroffId":null,"subsName":"","lineName":"10KV润禾街515","pubTranName":"沿鲁4441台区柱变,","scope":"【影响街道/乡镇】刁窝乡 【高危重要客户】无 【影响客户】沿鲁村","startTime":"2019-11-04 07:00:00","stopDate":"2019-11-04 18:00:00","orgNo":"1340626","typeCode":"计划停电","poweroffArea":"【单台区停电】停沿鲁4441台区柱变","poweroffReason":"【停电原因】由于更换导线导致３５ＫＶ徐里营变电站１０ＫＶ润禾街５１５线路沿鲁４４４１公变台区停电 【变更送电】无 【发布渠道】涿州电视台（１０月２５日至１１月０３日２１：００播放２次）屏幕上方滚动","powerTime":"2019-11-04 17:34:47","powerComm":"恢复送电","subsNo":"","lineNo":"","tgNo":"","tgName":null,"infoStatus":"1","orgName":"国网涿州市供电公司","typeName":null,"infoStatusName":null,"dateDay":null,"orgNos":null,"nowTime":null,"countyName":null,"streetName":null,"villageName":null,"roadName":null,"communityName":null,"tranName":null,"sdLineName":null,"cityCode":"1340626","cityName":"国网涿州市供电公司","provinceCode":null,"stopTime":"2019-11-04 18:00:00","powerType":"全部","powerOffArea":"【单台区停电】停沿鲁4441台区柱变","powerOffReason":"【停电原因】由于更换导线导致３５ＫＶ徐里营变电站１０ＫＶ润禾街５１５线路沿鲁４４４１公变台区停电 【变更送电】无 【发布渠道】涿州电视台（１０月２５日至１１月０３日２１：００播放２次）屏幕上方滚动","powerOffId":"2019102513000032"},{"poweroffId":2019102513000030,"sgpoweroffId":null,"subsName":"","lineName":"10KV冠云路516","pubTranName":"八家窑107路边,","scope":"【影响街道/乡镇】桃园城区１０７路西 【高危重要客户】无 【影响客户】八家窑","startTime":"2019-11-04 07:00:00","stopDate":"2019-11-04 17:00:00","orgNo":"1340626","typeCode":"计划停电","poweroffArea":"【单台区停电】停八家窑107路边","poweroffReason":"【停电原因】由于立杆工程导致１１０ＫＶ涿县变电站１０ＫＶ冠云路５１６线路八家窑１０７路边公变台区停电 【变更送电】无 【发布渠道】涿州电视台（１０月２５日至１１月０３日２１：００播放２次）屏幕上方滚动","powerTime":"2019-11-04 16:45:43","powerComm":"恢复送电","subsNo":"","lineNo":"","tgNo":"","tgName":null,"infoStatus":"1","orgName":"国网涿州市供电公司","typeName":null,"infoStatusName":null,"dateDay":null,"orgNos":null,"nowTime":null,"countyName":null,"streetName":null,"villageName":null,"roadName":null,"communityName":null,"tranName":null,"sdLineName":null,"cityCode":"1340626","cityName":"国网涿州市供电公司","provinceCode":null,"stopTime":"2019-11-04 17:00:00","powerType":"全部","powerOffArea":"【单台区停电】停八家窑107路边","powerOffReason":"【停电原因】由于立杆工程导致１１０ＫＶ涿县变电站１０ＫＶ冠云路５１６线路八家窑１０７路边公变台区停电 【变更送电】无 【发布渠道】涿州电视台（１０月２５日至１１月０３日２１：００播放２次）屏幕上方滚动","powerOffId":"2019102513000030"}],"pageModel":{"pageNow":455,"totalCount":10973,"totalPage":1098,"tableRows":0,"pageCount":10,"beginCount":4540},"isExperi":"1"}