{"message":"","today":"2020-06-15","seleList":[{"poweroffId":2019102413000558,"sgpoweroffId":null,"subsName":"","lineName":"10KV西垒子511","pubTranName":"东垒子南台区变压器,坛山村西北道边变压器,西垒子村南2,东垒子1村北0671,西垒子村南1变压器,西垒子村东变压器,坛山西二台区,","scope":"【影响街道/乡镇】永阳镇 【高危重要客户】无 【影响客户】西垒子村、东垒子村、檀山村西北","startTime":"2019-10-29 07:00:00","stopDate":"2019-10-29 20:30:00","orgNo":"1340614","typeCode":"临时停电","poweroffArea":"【全线路停电】停10kV永阳511金源水泥厂1#,10kV永阳511金源水泥厂,坛山西二台区,三友灰粉厂,财贸灰粉厂,东垒子南台区变压器,永兴灰厂,坛山村西北道边变压器,联合2号,煤矿生活区,天源灰厂,涞水煤矿生活二区,冀文生灰粉厂,西垒子村南2,东垒子1村北0671,西垒子村南1变压器,西垒子村东变压器,涞水煤矿生活二区1#","poweroffReason":"【停电原因】由于站内预试导致３５ＫＶ永阳变电站１０ＫＶ西垒子５１１线路全线停电 【变更送电】因工作进度加快原因，送电时间由２２：００变更为２０：３０ 【发布渠道】通过９５５９８发布","powerTime":"2019-10-29 20:04:04","powerComm":"已送电","subsNo":"","lineNo":"","tgNo":"","tgName":null,"infoStatus":"1","orgName":"国网涞水县供电公司","typeName":null,"infoStatusName":null,"dateDay":null,"orgNos":null,"nowTime":null,"countyName":null,"streetName":null,"villageName":null,"roadName":null,"communityName":null,"tranName":null,"sdLineName":null,"cityCode":"1340614","cityName":"国网涞水县供电公司","provinceCode":null,"stopTime":"2019-10-29 20:30:00","powerType":"全部","powerOffArea":"【全线路停电】停10kV永阳511金源水泥厂1#,10kV永阳511金源水泥厂,坛山西二台区,三友灰粉厂,财贸灰粉厂,东垒子南台区变压器,永兴灰厂,坛山村西北道边变压器,联合2号,煤矿生活区,天源灰厂,涞水煤矿生活二区,冀文生灰粉厂,西垒子村南2,东垒子1村北0671,西垒子村南1变压器,西垒子村东变压器,涞水煤矿生活二区1#","powerOffReason":"【停电原因】由于站内预试导致３５ＫＶ永阳变电站１０ＫＶ西垒子５１１线路全线停电 【变更送电】因工作进度加快原因，送电时间由２２：００变更为２０：３０ 【发布渠道】通过９５５９８发布","powerOffId":"2019102413000558"},{"poweroffId":2019102413000557,"sgpoweroffId":null,"subsName":"","lineName":"10KV东永阳515","pubTranName":"东永阳西台区,周家庄村东变压器,东永阳村东台区,周家庄村南2台区,东永阳1村北|0681,居士村东井2台区,铺头村西变压器,周家庄村南变压器,周家庄村北2【纯农排变】,永阳卫生院,东永阳村南,永阳镇政府台区【冬季供暖设施】,西永阳大棚二,二十里铺2变压器,西永阳村内二台区变压器,居士村西2,南庞村南专用井|0703,东永阳2变压器,居士大棚菜2,二十里铺市场,西永阳村内,南庞村南二,周家庄村西变压器,南庞村西2#,居士村西南箱变间隔配电变压器,二十里铺村内1变压器,居士大棚菜,东永阳村南2台区,周家庄村南专用,铺头村内2,西永阳村东,南庞村西变压器,居士肖树安大棚井,居士南园子井台区,永阳中学台区【冬季供暖设施】,二十里铺机井构件厂变压器,二十里铺村西变压器,居士村东井,西永阳大棚菜,东永阳大街|0685,南庞村南变压器,居士村西1,","scope":"【影响街道/乡镇】永阳镇 【高危重要客户】无 【影响客户】二十里铺村、铺头村、居士村、西永阳村、东永阳村、南庞村、周家庄村","startTime":"2019-10-31 05:00:00","stopDate":"2019-10-31 06:00:00","orgNo":"1340614","typeCode":"临时停电","poweroffArea":"【全线路停电】停南庞村南专用井|0703,居士大棚菜2,二十里铺市场,南庞村西2#,西永阳大棚二,二十里铺2变压器,0694302594-中国邮政集团公司河北省涞水县分公司-专变-237547948-中国邮政集团公司河北省涞水县分公司100KVA专变,西永阳村内二台区变压器,居士村西2,东永阳2变压器,居士村南井【纯农排变】,二十里铺机井变压器【纯农排变】,西永阳村内,居士南园子井台区,南庞村南二,周家庄村西变压器,中亚灰厂2,居士村西南箱变间隔配电变压器,二十里铺村内1变压器,居士大棚菜,东永阳村南2台区,周家庄村南变压器,周家庄村北2【纯农排变】,周家庄村南专用,西永阳村西井【纯农排变】,东永阳村西井【纯农排变】,居士村东1【纯农排变】,永阳信用社,南庞村南变压器,居士村东井2台区,国华塑料颗粒,铺头村西变压器,铺头村内2,西永阳村东,南庞村西变压器,永兴钙粉厂,涞水邮政,居士肖树安大棚井,永阳中学台区【冬季供暖设施】,二十里铺机井构件厂变压器,二十里铺村西变压器,居士村东井,西永阳大棚菜,东永阳大街|0685,居士村东2【纯农排变】,居士村西1,东永阳村南,南庞灰厂,周家庄砖厂,永阳镇政府台区【冬季供暖设施】,东福灰厂,升源公司,二十里铺大棚菜【纯农排变】,永阳卫生院,西永阳村南井【纯农排变】,西垒子村南麻核桃基地【纯农排变】,东永阳西台区,东永阳村北井4变压器【纯农排变】,周家庄村东变压器,东永阳村东台区,周家庄村南2台区,信丰瑞通630KVA专变,东永阳1村北|0681,永阳中学(1),周家庄砖厂2","poweroffReason":"【停电原因】由于站内倒运行方式导致３５ＫＶ明义变电站１０ＫＶ东永阳５１５线路全线停电 【变更送电】无 【发布渠道】通过９５５９８发布","powerTime":"2019-10-31 05:53:00","powerComm":"已送电","subsNo":"","lineNo":"","tgNo":"","tgName":null,"infoStatus":"1","orgName":"国网涞水县供电公司","typeName":null,"infoStatusName":null,"dateDay":null,"orgNos":null,"nowTime":null,"countyName":null,"streetName":null,"villageName":null,"roadName":null,"communityName":null,"tranName":null,"sdLineName":null,"cityCode":"1340614","cityName":"国网涞水县供电公司","provinceCode":null,"stopTime":"2019-10-31 06:00:00","powerType":"全部","powerOffArea":"【全线路停电】停南庞村南专用井|0703,居士大棚菜2,二十里铺市场,南庞村西2#,西永阳大棚二,二十里铺2变压器,0694302594-中国邮政集团公司河北省涞水县分公司-专变-237547948-中国邮政集团公司河北省涞水县分公司100KVA专变,西永阳村内二台区变压器,居士村西2,东永阳2变压器,居士村南井【纯农排变】,二十里铺机井变压器【纯农排变】,西永阳村内,居士南园子井台区,南庞村南二,周家庄村西变压器,中亚灰厂2,居士村西南箱变间隔配电变压器,二十里铺村内1变压器,居士大棚菜,东永阳村南2台区,周家庄村南变压器,周家庄村北2【纯农排变】,周家庄村南专用,西永阳村西井【纯农排变】,东永阳村西井【纯农排变】,居士村东1【纯农排变】,永阳信用社,南庞村南变压器,居士村东井2台区,国华塑料颗粒,铺头村西变压器,铺头村内2,西永阳村东,南庞村西变压器,永兴钙粉厂,涞水邮政,居士肖树安大棚井,永阳中学台区【冬季供暖设施】,二十里铺机井构件厂变压器,二十里铺村西变压器,居士村东井,西永阳大棚菜,东永阳大街|0685,居士村东2【纯农排变】,居士村西1,东永阳村南,南庞灰厂,周家庄砖厂,永阳镇政府台区【冬季供暖设施】,东福灰厂,升源公司,二十里铺大棚菜【纯农排变】,永阳卫生院,西永阳村南井【纯农排变】,西垒子村南麻核桃基地【纯农排变】,东永阳西台区,东永阳村北井4变压器【纯农排变】,周家庄村东变压器,东永阳村东台区,周家庄村南2台区,信丰瑞通630KVA专变,东永阳1村北|0681,永阳中学(1),周家庄砖厂2","powerOffReason":"【停电原因】由于站内倒运行方式导致３５ＫＶ明义变电站１０ＫＶ东永阳５１５线路全线停电 【变更送电】无 【发布渠道】通过９５５９８发布","powerOffId":"2019102413000557"},{"poweroffId":2019102413000554,"sgpoweroffId":null,"subsName":"","lineName":"10KV明义514","pubTranName":"台头苗圃厂变压器【纯农排变】,南桥头村东2变压器,台头苗圃厂2变压器,南桥头村东3台区变压器,南北庄村东三台区,台头村东2变压器,南桥头村内3变压器,南桥头村南三台区,丁家洼村北1变压器,精神病医院配电变压器,西明义村西变压器,三沟子村西北变压器,南桥头村西变压器,南桥头村南变压器,西明义村内3台区变压器,南桥头村内变压器,南桥头村南2变压器,丁家洼村南变压器,西明义村北变压器,南桥头村西2变压器,台头苗圃厂3台区,南桥头村内2变压器,西明义村北2变压器,台头村南1变压器,西明义村内变压器,抬头村西南2台区变压器,西明义村南2台区,西明义村内2台区变压器,南桥头村西3台区变压器,二十里铺村南变压器,","scope":"【影响街道/乡镇】明义镇 【高危重要客户】无 【影响客户】西明义村、西官庄村、南北庄村、丁家洼村、三沟子村、南桥头村、樊家台村、台头村、二十里铺村","startTime":"2019-10-31 05:00:00","stopDate":"2019-10-31 06:00:00","orgNo":"1340614","typeCode":"临时停电","poweroffArea":"【全线路停电】停涞水县福泰石灰制造有限公司新增变压器250KVA,台头村东南专变压器,西明义村西水100变压器,南北庄村东1变压器,樊家台村南水变压器【纯农排变】,台头苗圃厂变压器【纯农排变】,南桥头村南变压器,丁家洼村南变压器,西明义村北变压器,南桥头村西2变压器,三沟子村南变压器,变压器,津同加油站,台头苗圃厂3台区,西明义村北水变压器,西明义村南变压器,三沟子村内变压器,南桥头村内2变压器,南北庄村北水变压器【纯农排变】,西明义村北2变压器,南北庄村内二变压器,西明义村西北井变压器,兴牧矿物饲料100,东顺英合水泥砖制造有限公司250KVA专变,台头村南1变压器,台头村西北专变压器【纯农排变】,福泰石灰制造有限公司315KVA专变,任辉石粉厂,西明义村内变压器,涞水枢纽互通,朝运红盛250KVA专变,抬头村西南2台区变压器,西明义村南2台区,二十里铺村南变压器,南北庄村东2变压器,通达矿物加工,南桥头村西北变压器,南桥头村东2变压器,西明义村内3台区变压器,晓良钙粉一二厂新,南北庄村南变压器,南桥头村内变压器,南桥头村西变压器,西明义村内2台区变压器,丁家洼村南二变压器【纯农排变】,三沟子村东变压器,南桥头村西3台区变压器,南桥头村东3台区变压器,台头村北变压器,丁家洼村内变压器,南桥头村南2变压器,丁家洼村西变压器,建良印刷有限公司315KVA专变,朝运红盛石灰厂400KVA专变,台头村东南专2变压器,丁家洼村北2变压器,南北庄村东三台区,涞水精神病医,南桥头村内3变压器,丁家洼村西北变压器,西明义村西水变压器,三沟子村北变压器,西官庄村西专变压器【纯农排变】,朝运红盛315KVA变压器,樊家台村内2变压器,南桥头村南三台区,冉冉幼儿园变压器,丁家洼村北1变压器,西明义村西变压器,宏潮钙粉厂,丁家洼村内2变压器,三沟子村西北变压器,樊家台村西混用变压器,兴牧矿物饲料,台头村南2变压器,南北庄村内变压器,南北庄村北变压器,涞水县福泰石灰制造有限公司新增变压器400KVA,南桥头村西180变压器,台头村北专变压器,长顺钙粉200KVA专变,台头村东变压器,台头村东2变压器,南北庄村南水变压器【纯农排变】,南桥头村西水变压器,樊家台村南变压器,台头村西南专变压器【纯农排变】,南桥头村东变压器,精神病医院配电变压器,兴牧矿物饲料200,樊家台村西水变压器【纯农排变】,台头苗圃厂2变压器","poweroffReason":"【停电原因】由于倒运行方式导致３５ＫＶ明义变电站１０ＫＶ明义５１４线路全线停电 【变更送电】无 【发布渠道】通过９５５９８发布","powerTime":"2019-10-31 05:54:01","powerComm":"已送电","subsNo":"","lineNo":"","tgNo":"","tgName":null,"infoStatus":"1","orgName":"国网涞水县供电公司","typeName":null,"infoStatusName":null,"dateDay":null,"orgNos":null,"nowTime":null,"countyName":null,"streetName":null,"villageName":null,"roadName":null,"communityName":null,"tranName":null,"sdLineName":null,"cityCode":"1340614","cityName":"国网涞水县供电公司","provinceCode":null,"stopTime":"2019-10-31 06:00:00","powerType":"全部","powerOffArea":"【全线路停电】停涞水县福泰石灰制造有限公司新增变压器250KVA,台头村东南专变压器,西明义村西水100变压器,南北庄村东1变压器,樊家台村南水变压器【纯农排变】,台头苗圃厂变压器【纯农排变】,南桥头村南变压器,丁家洼村南变压器,西明义村北变压器,南桥头村西2变压器,三沟子村南变压器,变压器,津同加油站,台头苗圃厂3台区,西明义村北水变压器,西明义村南变压器,三沟子村内变压器,南桥头村内2变压器,南北庄村北水变压器【纯农排变】,西明义村北2变压器,南北庄村内二变压器,西明义村西北井变压器,兴牧矿物饲料100,东顺英合水泥砖制造有限公司250KVA专变,台头村南1变压器,台头村西北专变压器【纯农排变】,福泰石灰制造有限公司315KVA专变,任辉石粉厂,西明义村内变压器,涞水枢纽互通,朝运红盛250KVA专变,抬头村西南2台区变压器,西明义村南2台区,二十里铺村南变压器,南北庄村东2变压器,通达矿物加工,南桥头村西北变压器,南桥头村东2变压器,西明义村内3台区变压器,晓良钙粉一二厂新,南北庄村南变压器,南桥头村内变压器,南桥头村西变压器,西明义村内2台区变压器,丁家洼村南二变压器【纯农排变】,三沟子村东变压器,南桥头村西3台区变压器,南桥头村东3台区变压器,台头村北变压器,丁家洼村内变压器,南桥头村南2变压器,丁家洼村西变压器,建良印刷有限公司315KVA专变,朝运红盛石灰厂400KVA专变,台头村东南专2变压器,丁家洼村北2变压器,南北庄村东三台区,涞水精神病医,南桥头村内3变压器,丁家洼村西北变压器,西明义村西水变压器,三沟子村北变压器,西官庄村西专变压器【纯农排变】,朝运红盛315KVA变压器,樊家台村内2变压器,南桥头村南三台区,冉冉幼儿园变压器,丁家洼村北1变压器,西明义村西变压器,宏潮钙粉厂,丁家洼村内2变压器,三沟子村西北变压器,樊家台村西混用变压器,兴牧矿物饲料,台头村南2变压器,南北庄村内变压器,南北庄村北变压器,涞水县福泰石灰制造有限公司新增变压器400KVA,南桥头村西180变压器,台头村北专变压器,长顺钙粉200KVA专变,台头村东变压器,台头村东2变压器,南北庄村南水变压器【纯农排变】,南桥头村西水变压器,樊家台村南变压器,台头村西南专变压器【纯农排变】,南桥头村东变压器,精神病医院配电变压器,兴牧矿物饲料200,樊家台村西水变压器【纯农排变】,台头苗圃厂2变压器","powerOffReason":"【停电原因】由于倒运行方式导致３５ＫＶ明义变电站１０ＫＶ明义５１４线路全线停电 【变更送电】无 【发布渠道】通过９５５９８发布","powerOffId":"2019102413000554"},{"poweroffId":2019102413000553,"sgpoweroffId":null,"subsName":"","lineName":"西关线515","pubTranName":"企业局公用,四街公用,南肖庄光2,西关村光1,南关村光3,南肖庄光1,北肖庄村光2,","scope":"【影响街道/乡镇】定兴镇 【高危重要客户】无 【影响客户】西关村、园丁小区、南肖庄、北肖庄、定兴一中、四街村、企业局家属院、西苑小区、宏屹房地产、溪水湾小区、康城房地产、北京世代小区、文化园、行政执法局","startTime":"2019-10-24 20:08:52","stopDate":"2019-10-24 22:10:00","orgNo":"1340609","typeCode":"电网故障停限电","poweroffArea":"【全线路停电】停文化园-315,北肖庄村光3,1250KVA,兴瑞房地产2号配变,城市管理行政执法局南肖庄路灯-100,100,企业局公用,河北宏屹房地产2号变-1250,北肖庄村光1,康城3号地块2号变-630,*园丁小区,四街公用,文化园,南肖庄光2,河北贯鸿房地产开发有限公司-1250A,贯鸿房地产-1000,兴瑞房地产1号配变,河北贯鸿房地产开发有限公司-1250B,0654413629-河北宏屹房地产开发有限公司定兴分公司-专变-183741370-河北宏屹房地产-1250,定兴中学-500-01,园丁小区公用,定兴中学-1250,河北宏屹房地产4-1000,河北定兴中学1250,北肖庄村光2,西关村光1,和平路路灯-100,河北定兴中学500,康城3号地块1号变—630,河北宏屹房地产-1250,西关村光2,0655986142-河北贯鸿房地产开发有限公司-专变-185565209-贯鸿房地产1号变-1000,贯鸿2号变-1000,定兴中学-500-02,康城3号地块1号箱变2—630,厚德房地产-1250,河北定兴中学-1000,南关村光3,河北宏屹房地产1250,河北定兴中学-500,南肖庄光1,康城3号地块3号变—315,0655986142-河北贯鸿房地产开发有限公司-专变-185565217-贯鸿房地产2号变-1000,*康城建筑公司,河北宏屹房地产3-1000","poweroffReason":"【停电原因】由于北京世代南区电缆被施工车辆挖断导致３５ＫＶ城关变电站西关线５１５线路全线停电 【变更送电】因抢修进度加快原因，送电时间由２５日００：００变更为２４日２２：１０ 【发布渠道】通过９５５９８发布","powerTime":"2019-10-24 21:17:28","powerComm":"已送电","subsNo":"","lineNo":"","tgNo":"","tgName":null,"infoStatus":"1","orgName":"国网定兴县供电公司","typeName":null,"infoStatusName":null,"dateDay":null,"orgNos":null,"nowTime":null,"countyName":null,"streetName":null,"villageName":null,"roadName":null,"communityName":null,"tranName":null,"sdLineName":null,"cityCode":"1340609","cityName":"国网定兴县供电公司","provinceCode":null,"stopTime":"2019-10-24 22:10:00","powerType":"全部","powerOffArea":"【全线路停电】停文化园-315,北肖庄村光3,1250KVA,兴瑞房地产2号配变,城市管理行政执法局南肖庄路灯-100,100,企业局公用,河北宏屹房地产2号变-1250,北肖庄村光1,康城3号地块2号变-630,*园丁小区,四街公用,文化园,南肖庄光2,河北贯鸿房地产开发有限公司-1250A,贯鸿房地产-1000,兴瑞房地产1号配变,河北贯鸿房地产开发有限公司-1250B,0654413629-河北宏屹房地产开发有限公司定兴分公司-专变-183741370-河北宏屹房地产-1250,定兴中学-500-01,园丁小区公用,定兴中学-1250,河北宏屹房地产4-1000,河北定兴中学1250,北肖庄村光2,西关村光1,和平路路灯-100,河北定兴中学500,康城3号地块1号变—630,河北宏屹房地产-1250,西关村光2,0655986142-河北贯鸿房地产开发有限公司-专变-185565209-贯鸿房地产1号变-1000,贯鸿2号变-1000,定兴中学-500-02,康城3号地块1号箱变2—630,厚德房地产-1250,河北定兴中学-1000,南关村光3,河北宏屹房地产1250,河北定兴中学-500,南肖庄光1,康城3号地块3号变—315,0655986142-河北贯鸿房地产开发有限公司-专变-185565217-贯鸿房地产2号变-1000,*康城建筑公司,河北宏屹房地产3-1000","powerOffReason":"【停电原因】由于北京世代南区电缆被施工车辆挖断导致３５ＫＶ城关变电站西关线５１５线路全线停电 【变更送电】因抢修进度加快原因，送电时间由２５日００：００变更为２４日２２：１０ 【发布渠道】通过９５５９８发布","powerOffId":"2019102413000553"},{"poweroffId":2019102413000552,"sgpoweroffId":null,"subsName":"","lineName":"10KV檀山512","pubTranName":"永阳供电所变压器,北秋兰村南养殖场变压器,北秋兰村内西台区变压器,坛山村内变压器,北秋兰市场变压器,二十里铺村东北,北秋兰村东变压器,铺头村北井|0704,北秋兰西南台区,行宫1村南|0737,北秋兰市场2台区,丛西村中台区,二十里铺村东二,铺头村南,坛山村西北变压器,十里铺西井,坛山村西台区变压器,丛西村南（西）变压器,铺头村东二,丛西村南专用变压器,铺头村内|0706,北秋兰村东2#,南庞村东专用井|0702,铺头村东变压器,行宫北（内）台区变压器,北秋兰村西,南庞村东变压器,铺头村北2台区,","scope":"【影响街道/乡镇】永阳镇 【高危重要客户】无 【影响客户】北秋兰村、丛西村、檀山村、南庞村、铺头村、行宫村、二十里铺村","startTime":"2019-10-31 05:00:00","stopDate":"2019-10-31 06:00:00","orgNo":"1340614","typeCode":"临时停电","poweroffArea":"【全线路停电】停汇源灰粉厂,丛西村西台区【纯农排变】,涞富灰粉厂,福海灰粉厂,联合灰粉厂,铺头村北2台区,玉成灰粉厂,华林实业公司,北秋兰村西,北秋兰面粉厂,宏达水泥厂,王俊力灰粉厂,南庞村东变压器,永阳供电所变压器,建辉灰粉厂,张增军灰粉厂,同顺钙粉厂,顺发灰粉厂,高科电力,北秋兰村南养殖场变压器,北秋兰村内西台区变压器,涞水县凤福灰粉厂新增变压器,古艺坊家俱厂,坛山村内变压器,北秋兰市场变压器,刘福灰粉厂,铺头士江塑料,涞水金招水泥砖制造有限公司,涞水县德强加工250KVA专变,涞水县宝幢水泥砖厂新增变压器,二十里铺村东北,涞水县泰和灰粉厂315KVA专变,北秋兰西南台区,丛西村中台区,海开办,铺头村南,中亚灰粉厂,玉明灰粉厂,高旭灰粉厂,涞水县宗元钙粉厂200KVA专变,胜达永强公司1,洪建修配厂,0469321799-涞水县泰和灰粉厂-专变-46775202-泰岳灰粉厂,永阳供电所2,北秋兰桥西变压器【纯农排变】,坛山赵志英,铺头村东二,周磊杰灰粉厂,丛西村南专用变压器,变压器,福鑫灰厂,铺头村内|0706,北秋兰村东2#,南庞村东专用井|0702,金星石业250KVA专变,铺头村东变压器,坛山村西北变压器,北秋兰桥东【纯农排变】,十里铺西井,坛山村西台区变压器,丛西村南（西）变压器,行宫村西专用|0739【纯农排变】,行宫北（内）台区变压器,亚平灰厂,张凤福灰粉厂,涞水县明新水泥砖厂200KVA专变,北秋兰西南井【纯农排变】,北秋兰村东变压器,坛山工艺美术,海龙修配厂,高峰灰粉厂250KVA专变,铺头村北井|0704,北秋兰村西井【纯农排变】,凤福灰粉厂200KVA专变,行宫1村南|0737,北秋兰市场2台区,二十里铺村东二,联富灰粉厂2","poweroffReason":"【停电原因】由于站内倒运行方式导致３５ＫＶ明义变电站１０ＫＶ檀山５１２线路全线停电 【变更送电】无 【发布渠道】通过９５５９８发布","powerTime":"2019-10-31 05:52:35","powerComm":"已送电","subsNo":"","lineNo":"","tgNo":"","tgName":null,"infoStatus":"1","orgName":"国网涞水县供电公司","typeName":null,"infoStatusName":null,"dateDay":null,"orgNos":null,"nowTime":null,"countyName":null,"streetName":null,"villageName":null,"roadName":null,"communityName":null,"tranName":null,"sdLineName":null,"cityCode":"1340614","cityName":"国网涞水县供电公司","provinceCode":null,"stopTime":"2019-10-31 06:00:00","powerType":"全部","powerOffArea":"【全线路停电】停汇源灰粉厂,丛西村西台区【纯农排变】,涞富灰粉厂,福海灰粉厂,联合灰粉厂,铺头村北2台区,玉成灰粉厂,华林实业公司,北秋兰村西,北秋兰面粉厂,宏达水泥厂,王俊力灰粉厂,南庞村东变压器,永阳供电所变压器,建辉灰粉厂,张增军灰粉厂,同顺钙粉厂,顺发灰粉厂,高科电力,北秋兰村南养殖场变压器,北秋兰村内西台区变压器,涞水县凤福灰粉厂新增变压器,古艺坊家俱厂,坛山村内变压器,北秋兰市场变压器,刘福灰粉厂,铺头士江塑料,涞水金招水泥砖制造有限公司,涞水县德强加工250KVA专变,涞水县宝幢水泥砖厂新增变压器,二十里铺村东北,涞水县泰和灰粉厂315KVA专变,北秋兰西南台区,丛西村中台区,海开办,铺头村南,中亚灰粉厂,玉明灰粉厂,高旭灰粉厂,涞水县宗元钙粉厂200KVA专变,胜达永强公司1,洪建修配厂,0469321799-涞水县泰和灰粉厂-专变-46775202-泰岳灰粉厂,永阳供电所2,北秋兰桥西变压器【纯农排变】,坛山赵志英,铺头村东二,周磊杰灰粉厂,丛西村南专用变压器,变压器,福鑫灰厂,铺头村内|0706,北秋兰村东2#,南庞村东专用井|0702,金星石业250KVA专变,铺头村东变压器,坛山村西北变压器,北秋兰桥东【纯农排变】,十里铺西井,坛山村西台区变压器,丛西村南（西）变压器,行宫村西专用|0739【纯农排变】,行宫北（内）台区变压器,亚平灰厂,张凤福灰粉厂,涞水县明新水泥砖厂200KVA专变,北秋兰西南井【纯农排变】,北秋兰村东变压器,坛山工艺美术,海龙修配厂,高峰灰粉厂250KVA专变,铺头村北井|0704,北秋兰村西井【纯农排变】,凤福灰粉厂200KVA专变,行宫1村南|0737,北秋兰市场2台区,二十里铺村东二,联富灰粉厂2","powerOffReason":"【停电原因】由于站内倒运行方式导致３５ＫＶ明义变电站１０ＫＶ檀山５１２线路全线停电 【变更送电】无 【发布渠道】通过９５５９８发布","powerOffId":"2019102413000552"},{"poweroffId":2019102413000551,"sgpoweroffId":null,"subsName":"","lineName":"大鹿庄线511","pubTranName":"西建阳照明2台区,","scope":"【影响街道/乡镇】大鹿庄乡【高危重要客户】无【影响客户】西建阳","startTime":"2019-11-05 06:30:00","stopDate":"2019-11-05 18:30:00","orgNo":"1340610","typeCode":"计划停电","poweroffArea":"【分支停电】停西建阳照明2台区","poweroffReason":"【停电原因】由于更换变压器导致３５ＫＶ移动变电站１０ＫＶ５１１大鹿庄线路主干１１号杆２５号隔离开关以下线路停电 【变更送电】因抢修进度加快原因，送电时间由１９：３０变更为１８：３０ 【发布渠道】河北省定州市定州日报第三版（２０１９年１０月２５日）","powerTime":"2019-11-05 18:18:21","powerComm":"已送电","subsNo":"","lineNo":"","tgNo":"","tgName":null,"infoStatus":"1","orgName":"国网定州市供电公司","typeName":null,"infoStatusName":null,"dateDay":null,"orgNos":null,"nowTime":null,"countyName":null,"streetName":null,"villageName":null,"roadName":null,"communityName":null,"tranName":null,"sdLineName":null,"cityCode":"1340610","cityName":"国网定州市供电公司","provinceCode":null,"stopTime":"2019-11-05 18:30:00","powerType":"全部","powerOffArea":"【分支停电】停西建阳照明2台区","powerOffReason":"【停电原因】由于更换变压器导致３５ＫＶ移动变电站１０ＫＶ５１１大鹿庄线路主干１１号杆２５号隔离开关以下线路停电 【变更送电】因抢修进度加快原因，送电时间由１９：３０变更为１８：３０ 【发布渠道】河北省定州市定州日报第三版（２０１９年１０月２５日）","powerOffId":"2019102413000551"},{"poweroffId":2019102413000512,"sgpoweroffId":null,"subsName":"","lineName":"10kV561吴王庄线","pubTranName":"10kV561吴王庄线吴王庄20023台区变压器,10kV561吴王庄线吴王庄22101台区变压器,10kV561吴王庄线胡庄20069台区变压器【纯农排变】,10kV561吴王庄线胡庄20100台区变压器【纯农排变】,10kV561吴王庄线周于庄新增97955台区变压器【纯农排变】,10kV561吴王庄线吴王庄20114IC卡台区变压器【纯农排变】,10kV561吴王庄线吴王庄20115IC卡台区变压器【纯农排变】,10kV561吴王庄线20021台区变压器【纯农排变】,","scope":"【影响街道/乡镇】小店镇【高危重要客户】无【影响客户】肖庄、未庄、吴王庄","startTime":"2019-10-24 19:12:51","stopDate":"2019-10-24 21:30:00","orgNo":"1340608","typeCode":"电网故障停限电","poweroffArea":"【全线路停电】停10kV561吴王庄线20062台区变压器,10kV561吴王庄线吴王庄20050台区变压器【纯农排变】,10kV561吴王庄线吴王庄20066台区变压器【纯农排变】,10kV561吴王庄线魏庄20027台区变压器,10kV561吴王庄线吴王庄20114IC卡台区变压器【纯农排变】,博野县可可纺织品商贸有限公司,博野县鸿实布业有限公司,10kV561吴王庄线99348台区变压器,10kV561吴王庄线20021台区变压器【纯农排变】,10kV561吴王庄线胡庄20069台区变压器【纯农排变】,10kV561吴王庄线魏庄20026台区变压器,10kV561吴王庄线吴王庄20090台区变压器【纯农排变】,10kV561吴王庄线吴王庄20112IC卡台区变压器【纯农排变】,10kV561吴王庄线肖庄20020台区变压器,祥宇浆纱厂,10kV561吴王庄线吴王庄20115IC卡台区变压器【纯农排变】,博野利达纺织厂,10kV561吴王庄线魏庄20025台区变压器,10kV561吴王庄线胡庄20092台区变压器【纯农排变】,10kV561吴王庄线周于庄20065台区变压器【纯农排变】,10kV561吴王庄线吴王庄20098台区变压器,10kV561吴王庄线肖庄99347台区变压器,永丰织布厂,10kV561吴王庄线魏庄42616台区变压器,未庄未同会,博野县中天纺织有限公司,10kV561吴王庄线吴王庄20099台区变压器,10kV561吴王庄线胡庄20100台区变压器【纯农排变】,10kV561吴王庄线周于庄新增97955台区变压器【纯农排变】,10kV561吴王庄线魏庄20067台区变压器,10kV561吴王庄线20113IC卡台区变压器,三祥织布厂,10kV561吴王庄线吴王庄20023台区变压器,鑫鑫印花厂,10kV561吴王庄线吴王庄22101台区变压器,10kV561吴王庄线吴王庄20022台区变压器,陈占常织布厂,清苑县政航纺织厂","poweroffReason":"【停电原因】由于线路接地导致１１０ＫＶ胡庄变电站吴王庄５６１线路全线停电【变更送电】因抢修进度加快原因，送电时间由２３：３０变更为２１：３０【发布渠道】通过９５５９８发布","powerTime":"2019-10-24 20:56:51","powerComm":"已送电","subsNo":"","lineNo":"","tgNo":"","tgName":null,"infoStatus":"1","orgName":"国网博野县供电公司","typeName":null,"infoStatusName":null,"dateDay":null,"orgNos":null,"nowTime":null,"countyName":null,"streetName":null,"villageName":null,"roadName":null,"communityName":null,"tranName":null,"sdLineName":null,"cityCode":"1340608","cityName":"国网博野县供电公司","provinceCode":null,"stopTime":"2019-10-24 21:30:00","powerType":"全部","powerOffArea":"【全线路停电】停10kV561吴王庄线20062台区变压器,10kV561吴王庄线吴王庄20050台区变压器【纯农排变】,10kV561吴王庄线吴王庄20066台区变压器【纯农排变】,10kV561吴王庄线魏庄20027台区变压器,10kV561吴王庄线吴王庄20114IC卡台区变压器【纯农排变】,博野县可可纺织品商贸有限公司,博野县鸿实布业有限公司,10kV561吴王庄线99348台区变压器,10kV561吴王庄线20021台区变压器【纯农排变】,10kV561吴王庄线胡庄20069台区变压器【纯农排变】,10kV561吴王庄线魏庄20026台区变压器,10kV561吴王庄线吴王庄20090台区变压器【纯农排变】,10kV561吴王庄线吴王庄20112IC卡台区变压器【纯农排变】,10kV561吴王庄线肖庄20020台区变压器,祥宇浆纱厂,10kV561吴王庄线吴王庄20115IC卡台区变压器【纯农排变】,博野利达纺织厂,10kV561吴王庄线魏庄20025台区变压器,10kV561吴王庄线胡庄20092台区变压器【纯农排变】,10kV561吴王庄线周于庄20065台区变压器【纯农排变】,10kV561吴王庄线吴王庄20098台区变压器,10kV561吴王庄线肖庄99347台区变压器,永丰织布厂,10kV561吴王庄线魏庄42616台区变压器,未庄未同会,博野县中天纺织有限公司,10kV561吴王庄线吴王庄20099台区变压器,10kV561吴王庄线胡庄20100台区变压器【纯农排变】,10kV561吴王庄线周于庄新增97955台区变压器【纯农排变】,10kV561吴王庄线魏庄20067台区变压器,10kV561吴王庄线20113IC卡台区变压器,三祥织布厂,10kV561吴王庄线吴王庄20023台区变压器,鑫鑫印花厂,10kV561吴王庄线吴王庄22101台区变压器,10kV561吴王庄线吴王庄20022台区变压器,陈占常织布厂,清苑县政航纺织厂","powerOffReason":"【停电原因】由于线路接地导致１１０ＫＶ胡庄变电站吴王庄５６１线路全线停电【变更送电】因抢修进度加快原因，送电时间由２３：３０变更为２１：３０【发布渠道】通过９５５９８发布","powerOffId":"2019102413000512"},{"poweroffId":2019102413000498,"sgpoweroffId":null,"subsName":"","lineName":"10kV551董家庄线","pubTranName":"董家庄0430|20000430,北下叔村内8444,东下叔中0600|20000600,东下叔东20|20000020,北下叔西北140|20000140,董家庄9970|20009970,董家庄新增综合0118,北下叔0130|20000130,北下叔新1号,东下叔南9330|20009330,董家庄430,东下叔新增1号综合83598359,东下叔学校8930|20008930,东下叔南30|20000030,北下叔新综合3号,董家庄新增1号8356,东下叔村东综合8437,东下叔村南综合7919,东下叔新增综合0117,吴家庄综合7614,东下叔新增1号综合2797,东下叔村西新增综合5388,东下叔村北9310|20009310,","scope":"【影响街道/乡镇】蒲阳镇【高危重要客户】无【影响客户】东下叔、北下叔、董家庄、东下叔学校、吴家庄、小宝鸡场","startTime":"2019-10-24 18:38:11","stopDate":"2019-10-24 22:00:00","orgNo":"1340621","typeCode":"电网故障停限电","poweroffArea":"【全线路停电】停东下叔村南综合7919,东下叔3660#农排|20003660【纯农排变】,北下叔农厂610#农排|20000610【纯农排变】,东下叔新增农业3875【纯农排变】,东下叔新增1号综合2797,北下叔新增农业1号5877【纯农排变】,东下叔东20|20000020,北下叔8590#农排|20008590【纯农排变】,东下叔10370农排|20010370【纯农排变】,东下叔60#农排|20000060【纯农排变】,董家庄0430|20000430,北下叔120#农排|20000120【纯农排变】,北下叔村内8444,东下叔70#农排|20000070【纯农排变】,北下叔西北140|20000140","poweroffReason":"【停电原因】由于东下叔１号农排跌落烧毁导致２２０ＫＶ吴家庄变电站１０ＫＶ５５１董家庄线路全线停电【变更送电】因抢修进度加快原因，送电时间由２３：３０变更为２２：００【发布渠道】通过９５５９８发布","powerTime":"2019-10-24 21:15:42","powerComm":"已送电","subsNo":"","lineNo":"","tgNo":"","tgName":null,"infoStatus":"1","orgName":"国网顺平县电力局","typeName":null,"infoStatusName":null,"dateDay":null,"orgNos":null,"nowTime":null,"countyName":null,"streetName":null,"villageName":null,"roadName":null,"communityName":null,"tranName":null,"sdLineName":null,"cityCode":"1340621","cityName":"国网顺平县电力局","provinceCode":null,"stopTime":"2019-10-24 22:00:00","powerType":"全部","powerOffArea":"【全线路停电】停东下叔村南综合7919,东下叔3660#农排|20003660【纯农排变】,北下叔农厂610#农排|20000610【纯农排变】,东下叔新增农业3875【纯农排变】,东下叔新增1号综合2797,北下叔新增农业1号5877【纯农排变】,东下叔东20|20000020,北下叔8590#农排|20008590【纯农排变】,东下叔10370农排|20010370【纯农排变】,东下叔60#农排|20000060【纯农排变】,董家庄0430|20000430,北下叔120#农排|20000120【纯农排变】,北下叔村内8444,东下叔70#农排|20000070【纯农排变】,北下叔西北140|20000140","powerOffReason":"【停电原因】由于东下叔１号农排跌落烧毁导致２２０ＫＶ吴家庄变电站１０ＫＶ５５１董家庄线路全线停电【变更送电】因抢修进度加快原因，送电时间由２３：３０变更为２２：００【发布渠道】通过９５５９８发布","powerOffId":"2019102413000498"},{"poweroffId":2019102413000479,"sgpoweroffId":null,"subsName":"","lineName":"长古城584线","pubTranName":"大白尧幼儿园变压器7934,玻璃厂0638,大白尧小学变压器7932,大白尧新增混7915,河北恒昌泰铜雕有限公司4398,唐县利鑫工艺品有限公司10KV配变-50,东冯村2168变压器,东足里学校新增7905,银浪棉业,西足里新建分支变压器,河北民辉电气设备制造有限公司新装5208,大白尧3240变压器,大白尧0594变压器,唐县东方加油站5183,西足里0608变压器,唐县汇银木业有限公司,河北民辉电气设备制造有限公司10KV配变7865,西足里0607变压器,0387517492-河北银浪棉业有限公司-专变-45335732-唐县银浪棉业有限公司3388,大白尧0599变压器,东冯村0639变压器,欣业煤场2807,大白尧村2654变压器,大白尧村西6541变压器,大白尧小学变压器7928,唐县利鑫工艺品有限公司10KV配变-250,西足里学校水4590变压器,大白尧0598变压器,大洋店新增变压器,东足里自来水变压器7939,河北梅纳雪企业管理服务有限公司6960,东冯村2734变压器,河北梅纳雪家居饰品制造有限公司新装配变,0557154557-河北银浪棉业有限公司-专变-106066146-唐县思坦达化工有限公司,大白尧0602变压器,大白尧村2685变压器,0557154557-河北银浪棉业有限公司-专变-124046062-唐县斯坦达化工有限公司,东足里砖厂1331,河北文博雕塑工艺品制造有限公司新装6821,东足里0308变压器,大白尧0631变压器,唐县汇银木业有限公司新装6688,东足里0603变压器,大白尧东北混6540变压器,河北梅纳雪家居饰品制造有限公司,大白尧面粉厂0335,大白尧0630变压器,大白尧0596变压器,西足里4715变压器,永合机械厂0490,中国移动通信集团河北有限公司唐县分公司新装6647,西足里0611台区分支,河北舒洁床上用品有限公司新装,西足里2171变压器,河北凯威饲料加工有限公司高压增容,长古城乡西足里村4735,河北恒昌泰铜雕有限公司,大洋店0303变压器,长古城西足里村4715,唐县恒昌泰铜雕有限公司4482,大白尧新增混7916,白尧新增分变压器,西足里0613变压器,","scope":"【影响街道/乡镇】长古城乡【高危重要客户】无【影响客户】大白尧、大洋店、东冯村、西足里、东足里","startTime":"2019-11-02 07:00:00","stopDate":"2019-11-02 18:00:00","orgNo":"1340622","typeCode":"计划停电","poweroffArea":"【分支停电】停大白尧幼儿园变压器7934,玻璃厂0638,大白尧小学变压器7932,大白尧新增混7915,河北恒昌泰铜雕有限公司4398,唐县利鑫工艺品有限公司10KV配变-50,东冯村2168变压器,东足里学校新增7905,银浪棉业,西足里新建分支变压器,河北民辉电气设备制造有限公司新装5208,大白尧3240变压器,大白尧0594变压器,唐县东方加油站5183,西足里0608变压器,唐县汇银木业有限公司,河北民辉电气设备制造有限公司10KV配变7865,西足里0607变压器,0387517492-河北银浪棉业有限公司-专变-45335732-唐县银浪棉业有限公司3388,大白尧0599变压器,东冯村0639变压器,欣业煤场2807,大白尧村2654变压器,大白尧村西6541变压器,大白尧小学变压器7928,唐县利鑫工艺品有限公司10KV配变-250,西足里学校水4590变压器,大白尧0598变压器,大洋店新增变压器,东足里自来水变压器7939,河北梅纳雪企业管理服务有限公司6960,东冯村2734变压器,河北梅纳雪家居饰品制造有限公司新装配变,0557154557-河北银浪棉业有限公司-专变-106066146-唐县思坦达化工有限公司,大白尧0602变压器,大白尧村2685变压器,0557154557-河北银浪棉业有限公司-专变-124046062-唐县斯坦达化工有限公司,东足里砖厂1331,河北文博雕塑工艺品制造有限公司新装6821,东足里0308变压器,大白尧0631变压器,唐县汇银木业有限公司新装6688,东足里0603变压器,大白尧东北混6540变压器,河北梅纳雪家居饰品制造有限公司,大白尧面粉厂0335,大白尧0630变压器,大白尧0596变压器,西足里4715变压器,永合机械厂0490,中国移动通信集团河北有限公司唐县分公司新装6647,西足里0611台区分支,河北舒洁床上用品有限公司新装,西足里2171变压器,河北凯威饲料加工有限公司高压增容,长古城乡西足里村4735,河北恒昌泰铜雕有限公司,大洋店0303变压器,长古城西足里村4715,唐县恒昌泰铜雕有限公司4482,大白尧新增混7916,白尧新增分变压器,西足里0613变压器","poweroffReason":"【停电原因】由于更换导线导致１１０ＫＶ拔茄变电站长古城５８４线路０２８号杆断路器以下线路停电【变更送电】无【发布渠道】保定市唐县电视台（１０月２４日至１１月０１日的２０：００时至２０：３０时之间）屏幕上方滚动字幕","powerTime":"2019-11-02 17:38:22","powerComm":"已送电","subsNo":"","lineNo":"","tgNo":"","tgName":null,"infoStatus":"1","orgName":"国网唐县供电公司","typeName":null,"infoStatusName":null,"dateDay":null,"orgNos":null,"nowTime":null,"countyName":null,"streetName":null,"villageName":null,"roadName":null,"communityName":null,"tranName":null,"sdLineName":null,"cityCode":"1340622","cityName":"国网唐县供电公司","provinceCode":null,"stopTime":"2019-11-02 18:00:00","powerType":"全部","powerOffArea":"【分支停电】停大白尧幼儿园变压器7934,玻璃厂0638,大白尧小学变压器7932,大白尧新增混7915,河北恒昌泰铜雕有限公司4398,唐县利鑫工艺品有限公司10KV配变-50,东冯村2168变压器,东足里学校新增7905,银浪棉业,西足里新建分支变压器,河北民辉电气设备制造有限公司新装5208,大白尧3240变压器,大白尧0594变压器,唐县东方加油站5183,西足里0608变压器,唐县汇银木业有限公司,河北民辉电气设备制造有限公司10KV配变7865,西足里0607变压器,0387517492-河北银浪棉业有限公司-专变-45335732-唐县银浪棉业有限公司3388,大白尧0599变压器,东冯村0639变压器,欣业煤场2807,大白尧村2654变压器,大白尧村西6541变压器,大白尧小学变压器7928,唐县利鑫工艺品有限公司10KV配变-250,西足里学校水4590变压器,大白尧0598变压器,大洋店新增变压器,东足里自来水变压器7939,河北梅纳雪企业管理服务有限公司6960,东冯村2734变压器,河北梅纳雪家居饰品制造有限公司新装配变,0557154557-河北银浪棉业有限公司-专变-106066146-唐县思坦达化工有限公司,大白尧0602变压器,大白尧村2685变压器,0557154557-河北银浪棉业有限公司-专变-124046062-唐县斯坦达化工有限公司,东足里砖厂1331,河北文博雕塑工艺品制造有限公司新装6821,东足里0308变压器,大白尧0631变压器,唐县汇银木业有限公司新装6688,东足里0603变压器,大白尧东北混6540变压器,河北梅纳雪家居饰品制造有限公司,大白尧面粉厂0335,大白尧0630变压器,大白尧0596变压器,西足里4715变压器,永合机械厂0490,中国移动通信集团河北有限公司唐县分公司新装6647,西足里0611台区分支,河北舒洁床上用品有限公司新装,西足里2171变压器,河北凯威饲料加工有限公司高压增容,长古城乡西足里村4735,河北恒昌泰铜雕有限公司,大洋店0303变压器,长古城西足里村4715,唐县恒昌泰铜雕有限公司4482,大白尧新增混7916,白尧新增分变压器,西足里0613变压器","powerOffReason":"【停电原因】由于更换导线导致１１０ＫＶ拔茄变电站长古城５８４线路０２８号杆断路器以下线路停电【变更送电】无【发布渠道】保定市唐县电视台（１０月２４日至１１月０１日的２０：００时至２０：３０时之间）屏幕上方滚动字幕","powerOffId":"2019102413000479"},{"poweroffId":2019102413000478,"sgpoweroffId":null,"subsName":"","lineName":"10kV559屯头线","pubTranName":"向阳综合3号1441,向阳新综合7360|22007360,屯头综合5号1438,向阳综合4号1925,屯头5570综合|22005570,向阳综合2号2370,屯头综合1号1392,向阳混用1390|22001390,苏头综合1220|22001220,向阳村综合6号新增200,屯头7480综合,屯头1040综合|22001040,向阳综合1号新1390,屯头综合4号1436,向阳1130综合|22001130,向阳6910|22006910,屯头7490综合,屯头1100综合|22001100,向阳综合5号2936,屯头综合3号1397,屯头综合6号1923,屯头综合2号1393,白家庄7270（综合）|22007270,屯头7500综合,向阳村综合7#,屯头5580综合|22005580,","scope":"【影响街道/乡镇】高于铺镇【高危重要客户】无【影响客户】屯头、向阳","startTime":"2019-10-25 00:30:00","stopDate":"2019-10-25 03:30:00","orgNo":"1340621","typeCode":"其他临时停电","poweroffArea":"【全线路停电】停向阳村综合7#,屯头5580综合|22005580,向阳综合3号1441,向阳新综合7360|22007360,屯头综合5号1438,向阳综合4号1925,屯头5570综合|22005570,向阳综合2号2370,屯头综合1号1392,向阳混用1390|22001390,苏头综合1220|22001220,向阳村综合6号新增200,屯头7480综合,屯头1040综合|22001040,向阳综合1号新1390,屯头综合4号1436,向阳1130综合|22001130,向阳6910|22006910,屯头7490综合,屯头1100综合|22001100,向阳综合5号2936,屯头综合3号1397,屯头综合6号1923,屯头综合2号1393,白家庄7270（综合）|22007270,屯头7500综合","poweroffReason":"【停电原因】由于与本线路同杆架设的５５７苏头线路刀闸严重缺陷需停电进行紧急消缺导致１１０ＫＶ王各庄变电站１０ＫＶ５５９屯头线路全线停电【变更送电】无【发布渠道】通过９５５９８发布","powerTime":"2019-10-25 02:32:57","powerComm":"已送电","subsNo":"","lineNo":"","tgNo":"","tgName":null,"infoStatus":"1","orgName":"国网顺平县电力局","typeName":null,"infoStatusName":null,"dateDay":null,"orgNos":null,"nowTime":null,"countyName":null,"streetName":null,"villageName":null,"roadName":null,"communityName":null,"tranName":null,"sdLineName":null,"cityCode":"1340621","cityName":"国网顺平县电力局","provinceCode":null,"stopTime":"2019-10-25 03:30:00","powerType":"全部","powerOffArea":"【全线路停电】停向阳村综合7#,屯头5580综合|22005580,向阳综合3号1441,向阳新综合7360|22007360,屯头综合5号1438,向阳综合4号1925,屯头5570综合|22005570,向阳综合2号2370,屯头综合1号1392,向阳混用1390|22001390,苏头综合1220|22001220,向阳村综合6号新增200,屯头7480综合,屯头1040综合|22001040,向阳综合1号新1390,屯头综合4号1436,向阳1130综合|22001130,向阳6910|22006910,屯头7490综合,屯头1100综合|22001100,向阳综合5号2936,屯头综合3号1397,屯头综合6号1923,屯头综合2号1393,白家庄7270（综合）|22007270,屯头7500综合","powerOffReason":"【停电原因】由于与本线路同杆架设的５５７苏头线路刀闸严重缺陷需停电进行紧急消缺导致１１０ＫＶ王各庄变电站１０ＫＶ５５９屯头线路全线停电【变更送电】无【发布渠道】通过９５５９８发布","powerOffId":"2019102413000478"}],"pageModel":{"pageNow":457,"totalCount":10973,"totalPage":1098,"tableRows":0,"pageCount":10,"beginCount":4560},"isExperi":"1"}