{"message":"","today":"2020-06-15","seleList":[{"poweroffId":2019102413000471,"sgpoweroffId":null,"subsName":"","lineName":"10kV557苏头线","pubTranName":"苏头综合11号1919,高三九综合|22004850,苏头1190综合|22001190,苏头6180综合|22006180,苏头综合10号1922,苏头村综合12#台区7976,苏头综合20号,苏头1270综合|22001270,苏头综合14号3450,苏头综合6号9380,苏头1280综合|22001280,苏头综合2号0345,苏头1260综合|22001260,苏头综合5号0351,苏头7470综合|22007470,苏头综合8号0355,苏头7300 综合22007300,苏头1230综合|22001230,苏头综合7号0354,苏头7420综合|22007420,苏头综合3号9376,苏头综合13号2945,苏头综合1号0343,苏头综合4号9378,苏头21#综合,苏头7460综合|22007460,","scope":"【影响街道/乡镇】高于铺镇【高危重要客户】无【影响客户】苏头","startTime":"2019-10-25 00:30:00","stopDate":"2019-10-25 03:30:00","orgNo":"1340621","typeCode":"其他临时停电","poweroffArea":"【全线路停电】停苏头综合11号1919,高三九综合|22004850,苏头1190综合|22001190,苏头6180综合|22006180,苏头综合10号1922,苏头村综合12#台区7976,苏头综合20号,苏头1270综合|22001270,苏头综合14号3450,苏头综合6号9380,苏头1280综合|22001280,苏头综合2号0345,苏头1260综合|22001260,苏头综合5号0351,苏头7470综合|22007470,苏头综合8号0355,苏头7300 综合22007300,苏头1230综合|22001230,苏头综合7号0354,苏头7420综合|22007420,苏头综合3号9376,苏头综合13号2945,苏头综合1号0343,苏头综合4号9378,苏头21#综合,苏头7460综合|22007460","poweroffReason":"【停电原因】由于刀闸严重缺陷，需停电进行紧急消缺导致１１０ＫＶ王各庄变电站１０ＫＶ５５７苏头线路全线停电【变更送电】无【发布渠道】通过９５５９８发布","powerTime":"2019-10-25 02:33:20","powerComm":"已送电","subsNo":"","lineNo":"","tgNo":"","tgName":null,"infoStatus":"1","orgName":"国网顺平县电力局","typeName":null,"infoStatusName":null,"dateDay":null,"orgNos":null,"nowTime":null,"countyName":null,"streetName":null,"villageName":null,"roadName":null,"communityName":null,"tranName":null,"sdLineName":null,"cityCode":"1340621","cityName":"国网顺平县电力局","provinceCode":null,"stopTime":"2019-10-25 03:30:00","powerType":"全部","powerOffArea":"【全线路停电】停苏头综合11号1919,高三九综合|22004850,苏头1190综合|22001190,苏头6180综合|22006180,苏头综合10号1922,苏头村综合12#台区7976,苏头综合20号,苏头1270综合|22001270,苏头综合14号3450,苏头综合6号9380,苏头1280综合|22001280,苏头综合2号0345,苏头1260综合|22001260,苏头综合5号0351,苏头7470综合|22007470,苏头综合8号0355,苏头7300 综合22007300,苏头1230综合|22001230,苏头综合7号0354,苏头7420综合|22007420,苏头综合3号9376,苏头综合13号2945,苏头综合1号0343,苏头综合4号9378,苏头21#综合,苏头7460综合|22007460","powerOffReason":"【停电原因】由于刀闸严重缺陷，需停电进行紧急消缺导致１１０ＫＶ王各庄变电站１０ＫＶ５５７苏头线路全线停电【变更送电】无【发布渠道】通过９５５９８发布","powerOffId":"2019102413000471"},{"poweroffId":2019102413000469,"sgpoweroffId":null,"subsName":"","lineName":"川倒线516","pubTranName":"南下沟5167变压器,川里新增4051变压器,南上沟1779变压器,民安庄4944变压器,东庄子1767变压器,刘家庄6566变压器,大石峪4739变压器,刘家庄1769变压器,南下沟1778变压器,西苇子1766变压器,红花1768变压器,南下沟4011变压器,涧子沟1654变压器,西苇子5171变压器,上村口1776变压器,新城1785变压器,虫王沟1773变压器,黑龙洞1784变压器,倒马关4949变压器,刘家沟1771变压器,大石峪4177变压器,段庄子1783变压器,五家铺1781变压器,川里西2794变压器,大石峪1782变压器,刘家庄1774变压器,望尔峪6657变压器,倒马关1777变压器,西苇子4388变压器,东庄子6632变压器,倒马关4784变压器,民安庄1764变压器,东庄子水1847变压器,西苇子6595变压器,东庄子南2622变压器,","scope":"【影响街道/乡镇】倒马关乡、川里镇【高危重要客户】无【影响客户】上城口、牛家庄、大石峪村、南上沟村、刘家沟、虫王沟、刘家庄、倒马关村、南下沟村、东庄子、红花、石北、川里村、西苇子村、民安庄村","startTime":"2019-10-24 16:50:23","stopDate":"2019-10-24 21:00:00","orgNo":"1340622","typeCode":"电网故障停限电","poweroffArea":"【全线路停电】停0387525758-大石峪金矿-专变-125432801-大石峪金矿,陈志云煤厂2830,马保国10KV新建,大石峪4177变压器,龙鑫选矿厂2038,上村口1776变压器,0549345798-唐县大石峪金矿有限公司-专变-48243973-唐县大石峪金矿有限公司3439,永康选矿厂2873,五家铺1781变压器,川里村荒山开发2939,凯达选厂1739,东庄子南2622变压器,西苇子4388变压器,倒马关1777变压器,黑龙洞1784变压器,隆基水电,永盛制砖有限公司3070,0565327387-唐县大石峪金矿有限公司-专变-118673351-唐县大石峪金矿有限公司变压器,西苇子1766变压器,温州水电4003,东庄子1767变压器,东庄子6632变压器,唐县锦隆选矿厂2998,大石峪1782变压器,川西选矿厂2905,铁十三局水电4001-1,铁十三局4004,民安庄4944变压器,金泰选矿厂2945,西苇子5171变压器,隆基水电4002,新城1785变压器,倒马关4949变压器,段庄子1783变压器,南下沟4011变压器,鑫丰选厂,永盛制砖有限公司3069,刘家庄1769变压器,广益加油站1810,恒达免烧砖厂3008,涧子沟1654变压器,刘家庄1774变压器,川里面粉厂1240,唐县川里加油站2876,南下沟5167变压器,兴达煤场2779,天用选矿厂2988,0387525732-唐县永旺选矿厂-专变-45341938-唐县永旺选矿厂3143,虫王沟1773变压器,望尔峪6657变压器,小朋选矿厂用水,磊鑫选矿厂2987,大石峪景区2653,倒马关4784变压器,金大地选厂,西苇子6595变压器,川里西2794变压器,南上沟1779变压器,唐县龙鑫选矿厂新装变台,民安庄1764变压器,东庄子水1847变压器,红花1768变压器,刘家沟1771变压器,大石峪4739变压器,唐县恒川水泥砖厂,川里新增4051变压器,唐县联通公司2977,南下沟1778变压器,唐县地天泰煤厂,徐唐选矿厂1820,刘家庄6566变压器,川里太行加油站2075,双飞选矿厂2313,大石峪金矿2364\\2364,利达选矿厂2378,移动基站2399,大石峪金矿2475","poweroffReason":"【停电原因】由于线路接地导致３５ＫＶ川里变电站川倒线５１６线路全线停电【变更送电】因抢修进度加快原因，送电时间由２５日０９：００变更为２４日２１：００【发布渠道】通过９５５９８发布","powerTime":"2019-10-24 20:29:58","powerComm":"已送电","subsNo":"","lineNo":"","tgNo":"","tgName":null,"infoStatus":"1","orgName":"国网唐县供电公司","typeName":null,"infoStatusName":null,"dateDay":null,"orgNos":null,"nowTime":null,"countyName":null,"streetName":null,"villageName":null,"roadName":null,"communityName":null,"tranName":null,"sdLineName":null,"cityCode":"1340622","cityName":"国网唐县供电公司","provinceCode":null,"stopTime":"2019-10-24 21:00:00","powerType":"全部","powerOffArea":"【全线路停电】停0387525758-大石峪金矿-专变-125432801-大石峪金矿,陈志云煤厂2830,马保国10KV新建,大石峪4177变压器,龙鑫选矿厂2038,上村口1776变压器,0549345798-唐县大石峪金矿有限公司-专变-48243973-唐县大石峪金矿有限公司3439,永康选矿厂2873,五家铺1781变压器,川里村荒山开发2939,凯达选厂1739,东庄子南2622变压器,西苇子4388变压器,倒马关1777变压器,黑龙洞1784变压器,隆基水电,永盛制砖有限公司3070,0565327387-唐县大石峪金矿有限公司-专变-118673351-唐县大石峪金矿有限公司变压器,西苇子1766变压器,温州水电4003,东庄子1767变压器,东庄子6632变压器,唐县锦隆选矿厂2998,大石峪1782变压器,川西选矿厂2905,铁十三局水电4001-1,铁十三局4004,民安庄4944变压器,金泰选矿厂2945,西苇子5171变压器,隆基水电4002,新城1785变压器,倒马关4949变压器,段庄子1783变压器,南下沟4011变压器,鑫丰选厂,永盛制砖有限公司3069,刘家庄1769变压器,广益加油站1810,恒达免烧砖厂3008,涧子沟1654变压器,刘家庄1774变压器,川里面粉厂1240,唐县川里加油站2876,南下沟5167变压器,兴达煤场2779,天用选矿厂2988,0387525732-唐县永旺选矿厂-专变-45341938-唐县永旺选矿厂3143,虫王沟1773变压器,望尔峪6657变压器,小朋选矿厂用水,磊鑫选矿厂2987,大石峪景区2653,倒马关4784变压器,金大地选厂,西苇子6595变压器,川里西2794变压器,南上沟1779变压器,唐县龙鑫选矿厂新装变台,民安庄1764变压器,东庄子水1847变压器,红花1768变压器,刘家沟1771变压器,大石峪4739变压器,唐县恒川水泥砖厂,川里新增4051变压器,唐县联通公司2977,南下沟1778变压器,唐县地天泰煤厂,徐唐选矿厂1820,刘家庄6566变压器,川里太行加油站2075,双飞选矿厂2313,大石峪金矿2364\\2364,利达选矿厂2378,移动基站2399,大石峪金矿2475","powerOffReason":"【停电原因】由于线路接地导致３５ＫＶ川里变电站川倒线５１６线路全线停电【变更送电】因抢修进度加快原因，送电时间由２５日０９：００变更为２４日２１：００【发布渠道】通过９５５９８发布","powerOffId":"2019102413000469"},{"poweroffId":2019102413000465,"sgpoweroffId":null,"subsName":"","lineName":"齐家佐线514","pubTranName":"全胜庄1299台区变压器,唐县齐家佐乡全胜庄村村民委员会8285,全胜庄3163台区变压器,全胜庄5034台区变压器,全胜庄7160台区,全胜庄7662变压器,","scope":"【影响街道/乡镇】齐家佐乡【高危重要客户】无【影响客户】全胜庄","startTime":"2019-11-02 06:30:00","stopDate":"2019-11-02 18:00:00","orgNo":"1340622","typeCode":"计划停电","poweroffArea":"【分支停电】停全胜庄1299台区变压器,唐县齐家佐乡全胜庄村村民委员会8285,全胜庄3163台区变压器,全胜庄5034台区变压器,全胜庄7160台区,全胜庄7662变压器","poweroffReason":"【停电原因】由于更换电杆导致３５ＫＶ齐家佐变电站齐家佐５１４线路全胜庄１２９９台区００１号杆以下线路停电【变更送电】无【发布渠道】保定市唐县电视台（１０月２４日至１１月０１日的２０：００时至２０：３０时之间）屏幕上方滚动字幕","powerTime":"2019-11-02 17:04:05","powerComm":"已送电","subsNo":"","lineNo":"","tgNo":"","tgName":null,"infoStatus":"1","orgName":"国网唐县供电公司","typeName":null,"infoStatusName":null,"dateDay":null,"orgNos":null,"nowTime":null,"countyName":null,"streetName":null,"villageName":null,"roadName":null,"communityName":null,"tranName":null,"sdLineName":null,"cityCode":"1340622","cityName":"国网唐县供电公司","provinceCode":null,"stopTime":"2019-11-02 18:00:00","powerType":"全部","powerOffArea":"【分支停电】停全胜庄1299台区变压器,唐县齐家佐乡全胜庄村村民委员会8285,全胜庄3163台区变压器,全胜庄5034台区变压器,全胜庄7160台区,全胜庄7662变压器","powerOffReason":"【停电原因】由于更换电杆导致３５ＫＶ齐家佐变电站齐家佐５１４线路全胜庄１２９９台区００１号杆以下线路停电【变更送电】无【发布渠道】保定市唐县电视台（１０月２４日至１１月０１日的２０：００时至２０：３０时之间）屏幕上方滚动字幕","powerOffId":"2019102413000465"},{"poweroffId":2019102413000424,"sgpoweroffId":null,"subsName":"","lineName":"庆都山线512","pubTranName":"贾庄4597变压器,北高昌混839变压器,东高昌混4405变压器,南高昌836变压器,高昌镇政府6674变压器,高昌庄混用557变压器,南放水868变压器,高昌店混用826变压器,东高昌7946变压器,庄头混7048变压器,高昌店西水0876变压器,北高昌中心小学7591变压器,东高昌立功水1842变压器,东高昌7418变压器,东高昌混864变压器,北高昌混4518变压器,贾庄837变压器,高昌店粮站481变压器,贾庄小学7594变压器,南高昌7668变压器,高昌初级中学7567变压器,高昌屯4073变压器,北高昌混3166变压器,高昌初级中学7566变压器,高昌店4035变压器,供电所专用6030变压器,东高昌小学7593变压器,10kV512庆都山线南放水6087台区,10kV512庆都山线北高昌6090台区,庄头村4045变压器,南高昌3430变压器,高昌庄6149台区变压器,高昌店混5084变压器,北高昌混4970变压器,高昌屯833变压器,东高昌混1979变压器,马兴庄4629台区变压器,高昌初级中学7568变压器,马兴庄教学点7580变压器,马兴庄4645变压器,庄头村486变压器,北高昌混841变压器,东高昌混825变压器,高昌店水5026变压器,北高昌838变压器,高昌店西6695变压器,东高昌水4458变压器,贾庄487变压器,南放水混用869变压器,高昌屯0832变压器,高昌中心卫生院7597变压器,","scope":"【影响街道/乡镇】高昌镇【高危重要客户】无【影响客户】高昌店、东高昌、高昌庄、北放水、北高昌、庆都山上、山阳庄、南放水、庄头、贾庄、马兴庄、南高昌、高昌屯、高昌镇政府、高昌卫生院、高昌派出所、高昌镇中学、东高昌小学、北高昌小学","startTime":"2019-11-02 07:00:00","stopDate":"2019-11-02 18:00:00","orgNo":"1340622","typeCode":"计划停电","poweroffArea":"【分支停电】停贾庄487变压器,高昌庄混用557变压器,南放水868变压器,高昌店混用826变压器,东高昌7946变压器,庄头混7048变压器,高昌店西水0876变压器,北高昌中心小学7591变压器,东高昌立功水1842变压器,东高昌7418变压器,东高昌混864变压器,北高昌混4518变压器,贾庄837变压器,高昌店粮站481变压器,贾庄小学7594变压器,南高昌7668变压器,高昌初级中学7567变压器,高昌屯4073变压器,北高昌混3166变压器,高昌初级中学7566变压器,10kV512庆都山线南放水6087台区,庄头村4045变压器,马兴庄4629台区变压器,高昌初级中学7568变压器,马兴庄教学点7580变压器,马兴庄4645变压器,庄头村486变压器,北高昌混841变压器,东高昌混825变压器,高昌店水5026变压器,北高昌838变压器,高昌店西6695变压器,东高昌水4458变压器,南放水混用869变压器,高昌屯0832变压器,高昌店4035变压器,供电所专用6030变压器,东高昌小学7593变压器,10kV512庆都山线北高昌6090台区,南高昌3430变压器,高昌庄6149台区变压器,高昌店混5084变压器,北高昌混4970变压器,高昌屯833变压器,东高昌混1979变压器,高昌中心卫生院7597变压器 ,贾庄4597变压器,北高昌混839变压器,东高昌混4405变压器,南高昌836变压器,高昌镇政府6674变压器","poweroffReason":"【停电原因】由于组立电杆导致３５ＫＶ山阳变电站庆都山线５１２线路０３２号杆以下线路停电【变更送电】无【发布渠道】保定市唐县电视台（１０月２４日至１１月０１日的２０：００时至２０：３０时之间）屏幕上方滚动字幕","powerTime":"2019-11-02 17:49:50","powerComm":"已送电","subsNo":"","lineNo":"","tgNo":"","tgName":null,"infoStatus":"1","orgName":"国网唐县供电公司","typeName":null,"infoStatusName":null,"dateDay":null,"orgNos":null,"nowTime":null,"countyName":null,"streetName":null,"villageName":null,"roadName":null,"communityName":null,"tranName":null,"sdLineName":null,"cityCode":"1340622","cityName":"国网唐县供电公司","provinceCode":null,"stopTime":"2019-11-02 18:00:00","powerType":"全部","powerOffArea":"【分支停电】停贾庄487变压器,高昌庄混用557变压器,南放水868变压器,高昌店混用826变压器,东高昌7946变压器,庄头混7048变压器,高昌店西水0876变压器,北高昌中心小学7591变压器,东高昌立功水1842变压器,东高昌7418变压器,东高昌混864变压器,北高昌混4518变压器,贾庄837变压器,高昌店粮站481变压器,贾庄小学7594变压器,南高昌7668变压器,高昌初级中学7567变压器,高昌屯4073变压器,北高昌混3166变压器,高昌初级中学7566变压器,10kV512庆都山线南放水6087台区,庄头村4045变压器,马兴庄4629台区变压器,高昌初级中学7568变压器,马兴庄教学点7580变压器,马兴庄4645变压器,庄头村486变压器,北高昌混841变压器,东高昌混825变压器,高昌店水5026变压器,北高昌838变压器,高昌店西6695变压器,东高昌水4458变压器,南放水混用869变压器,高昌屯0832变压器,高昌店4035变压器,供电所专用6030变压器,东高昌小学7593变压器,10kV512庆都山线北高昌6090台区,南高昌3430变压器,高昌庄6149台区变压器,高昌店混5084变压器,北高昌混4970变压器,高昌屯833变压器,东高昌混1979变压器,高昌中心卫生院7597变压器 ,贾庄4597变压器,北高昌混839变压器,东高昌混4405变压器,南高昌836变压器,高昌镇政府6674变压器","powerOffReason":"【停电原因】由于组立电杆导致３５ＫＶ山阳变电站庆都山线５１２线路０３２号杆以下线路停电【变更送电】无【发布渠道】保定市唐县电视台（１０月２４日至１１月０１日的２０：００时至２０：３０时之间）屏幕上方滚动字幕","powerOffId":"2019102413000424"},{"poweroffId":2019102413000379,"sgpoweroffId":null,"subsName":"","lineName":"10kV558大寺头线","pubTranName":"小疃村公用照明2台区,新民庄公用照明2台区,孟家庄公用照明15台区,大寺头公用照明6台区,胡家佐公用照明2台区,胡家佐公用照明3台区,客户投资_胡家佐公用照明9台区,新合庄公用照明5台区,辛店子公用照明7台区,大寺头公用照明4台区,辛店子公用照明9台区,辛店子公用照明5台区,孟家庄公用照明1台区,新合庄公用照明3台区,辛店子公用照明6台区,新合庄公用照明11台区,新民庄公用照明3台区,辛店子公用照明8台区,新合庄公用照明4台区,辛店子公用照明1台区,新合庄公用照明7台区,新合庄公用照明12台区,新合庄公用照明6台区,大寺头公用照明5台区,新合庄公用照明1台区,胡家佐公用照明1台区,胡家佐公用照明4台区,胡家佐公用照明7台区,小町公用照明1台区,小町公用照明3台区,大寺头公用照明2台区,小町卫生院公用照明1台区,新合庄公用照明10台区,新合庄公用照明9台区,胡家佐公用照明5台区,大寺头公用照明3台区,大寺头公用照明1台区,新合庄公用照明8台区,胡家佐公用照明8台区,客户投资_新合庄公用照明2台区,辛店子公用照明3台区,辛店子公用照明4台区,辛店子公用照明2台区,新合庄公用照明13台区,胡家佐公用照明6台区,","scope":"【影响街道/乡镇】赵村乡【高危重要客户】无【影响客户】大寺头、辛店子、新合庄、胡家佐、小堡自町、新民庄、永安公墓、大堡自町村委会、孟家庄庄尔、神宇体育用品配件厂、华安体育用品配件厂、华林体育用品配件厂、园艺厂、汇丰包装厂、鑫达机械厂、同创汽车配件厂、胡家佐面粉厂、老卜冷库、宗千冷库","startTime":"2019-11-05 06:50:00","stopDate":"2019-11-05 18:30:00","orgNo":"1340610","typeCode":"计划停电","poweroffArea":"【全线路停电】停新民庄公用照明3台区,辛店子公用照明8台区,辛店子公用照明1台区,新合庄公用照明7台区,新合庄公用照明12台区,新合庄公用照明6台区,胡家佐公用照明1台区,胡家佐公用照明4台区,胡家佐公用照明7台区,小町公用照明1台区,小町公用照明3台区,辛店子公用照明5台区,孟家庄公用照明1台区,新合庄公用照明3台区,辛店子公用照明6台区,新合庄公用照明11台区,新合庄公用照明4台区,大寺头公用照明5台区,新合庄公用照明1台区,大寺头公用照明2台区,小町卫生院公用照明1台区,新合庄公用照明10台区,新合庄公用照明9台区,胡家佐公用照明5台区,大寺头公用照明3台区,大寺头公用照明1台区,新合庄公用照明8台区,客户投资_新合庄公用照明2台区,辛店子公用照明3台区,辛店子公用照明4台区,辛店子公用照明2台区,孟家庄公用照明15台区,大寺头公用照明6台区,胡家佐公用照明2台区,胡家佐公用照明3台区,客户投资_胡家佐公用照明9台区,新合庄公用照明5台区,辛店子公用照明7台区,大寺头公用照明4台区,辛店子公用照明9台区,新合庄公用照明13台区,胡家佐公用照明6台区,胡家佐公用照明8台区,小疃村公用照明2台区,新民庄公用照明2台区","poweroffReason":"【停电原因】由于更换导线导致１１０ＫＶ新民庄变电站１０ＫＶ５５８大寺头线路全线停电 【变更送电】因抢修进度加快原因，送电时间由１９：３０变更为１８：３０ 【发布渠道】河北省定州市定州日报第三版（２０１９年１０月２５日）","powerTime":"2019-11-05 18:12:54","powerComm":"已送电","subsNo":"","lineNo":"","tgNo":"","tgName":null,"infoStatus":"1","orgName":"国网定州市供电公司","typeName":null,"infoStatusName":null,"dateDay":null,"orgNos":null,"nowTime":null,"countyName":null,"streetName":null,"villageName":null,"roadName":null,"communityName":null,"tranName":null,"sdLineName":null,"cityCode":"1340610","cityName":"国网定州市供电公司","provinceCode":null,"stopTime":"2019-11-05 18:30:00","powerType":"全部","powerOffArea":"【全线路停电】停新民庄公用照明3台区,辛店子公用照明8台区,辛店子公用照明1台区,新合庄公用照明7台区,新合庄公用照明12台区,新合庄公用照明6台区,胡家佐公用照明1台区,胡家佐公用照明4台区,胡家佐公用照明7台区,小町公用照明1台区,小町公用照明3台区,辛店子公用照明5台区,孟家庄公用照明1台区,新合庄公用照明3台区,辛店子公用照明6台区,新合庄公用照明11台区,新合庄公用照明4台区,大寺头公用照明5台区,新合庄公用照明1台区,大寺头公用照明2台区,小町卫生院公用照明1台区,新合庄公用照明10台区,新合庄公用照明9台区,胡家佐公用照明5台区,大寺头公用照明3台区,大寺头公用照明1台区,新合庄公用照明8台区,客户投资_新合庄公用照明2台区,辛店子公用照明3台区,辛店子公用照明4台区,辛店子公用照明2台区,孟家庄公用照明15台区,大寺头公用照明6台区,胡家佐公用照明2台区,胡家佐公用照明3台区,客户投资_胡家佐公用照明9台区,新合庄公用照明5台区,辛店子公用照明7台区,大寺头公用照明4台区,辛店子公用照明9台区,新合庄公用照明13台区,胡家佐公用照明6台区,胡家佐公用照明8台区,小疃村公用照明2台区,新民庄公用照明2台区","powerOffReason":"【停电原因】由于更换导线导致１１０ＫＶ新民庄变电站１０ＫＶ５５８大寺头线路全线停电 【变更送电】因抢修进度加快原因，送电时间由１９：３０变更为１８：３０ 【发布渠道】河北省定州市定州日报第三版（２０１９年１０月２５日）","powerOffId":"2019102413000379"},{"poweroffId":2019102413000375,"sgpoweroffId":null,"subsName":"","lineName":"10kV562南王吕线","pubTranName":"乡敬老院公用照明1台区,连仲村公用照明3台区,侯辛庄公用照明2台区,小市邑公用照明2台区,南王吕公用照明3台区,东市邑公用照明8台区,连仲公用照明10台区,西市邑村公用照明1台区,南王吕村公用照明1台区,南王吕公用照明2台区,西王吕村公用照明1台区,东市邑村公用照明4台区,席家庄公用照明5台区,南王吕公用照明5台区,东市邑公用照明6台区,席家庄公用照明2台区,侯辛庄村公用照明1台区,东市邑公用照明5台区,东市邑村小市邑公用照明1台区,席家庄公用照明3台区,西市邑公用照明6台区,西市邑村公用照明14台区,东市邑村公用照明3台区,席家庄村公用照明1台区,连仲公用照明5台区,东市邑公用照明7台区,东市邑村公用照明2台区,东市邑村公用照明1台区,连仲村公用照明2台区,席家庄公用照明4台区,南王吕公用照明4台区,","scope":"【影响街道/乡镇】清风店镇【高危重要客户】无【影响客户】席家庄村、东市邑村、西王吕村、南王吕村、连仲村、小市邑村、侯辛庄村","startTime":"2019-11-05 07:00:00","stopDate":"2019-11-05 18:00:00","orgNo":"1340610","typeCode":"计划停电","poweroffArea":"【全线路停电】停东市邑村公用照明2台区,东市邑村公用照明4台区,席家庄公用照明5台区,南王吕公用照明5台区,东市邑公用照明6台区,席家庄公用照明2台区,侯辛庄村公用照明1台区,东市邑公用照明5台区,东市邑村小市邑公用照明1台区,席家庄公用照明3台区,西市邑公用照明6台区,西市邑村公用照明14台区,东市邑村公用照明3台区,席家庄村公用照明1台区,连仲公用照明5台区,东市邑公用照明7台区,东市邑村公用照明1台区,连仲村公用照明2台区,席家庄公用照明4台区,南王吕公用照明4台区,侯辛庄公用照明2台区,小市邑公用照明2台区,南王吕公用照明3台区,东市邑公用照明8台区,连仲公用照明10台区,西市邑村公用照明1台区,南王吕村公用照明1台区,南王吕公用照明2台区,西王吕村公用照明1台区,乡敬老院公用照明1台区,连仲村公用照明3台区","poweroffReason":"【停电原因】由于更换导线导致１１０ＫＶ清风店变电站１０ＫＶ５６２南王吕线路全线停电 【变更送电】无 【发布渠道】河北省定州市定州日报第三版（２０１９年１０月２５日）","powerTime":"2019-11-05 17:23:46","powerComm":"已送电","subsNo":"","lineNo":"","tgNo":"","tgName":null,"infoStatus":"1","orgName":"国网定州市供电公司","typeName":null,"infoStatusName":null,"dateDay":null,"orgNos":null,"nowTime":null,"countyName":null,"streetName":null,"villageName":null,"roadName":null,"communityName":null,"tranName":null,"sdLineName":null,"cityCode":"1340610","cityName":"国网定州市供电公司","provinceCode":null,"stopTime":"2019-11-05 18:00:00","powerType":"全部","powerOffArea":"【全线路停电】停东市邑村公用照明2台区,东市邑村公用照明4台区,席家庄公用照明5台区,南王吕公用照明5台区,东市邑公用照明6台区,席家庄公用照明2台区,侯辛庄村公用照明1台区,东市邑公用照明5台区,东市邑村小市邑公用照明1台区,席家庄公用照明3台区,西市邑公用照明6台区,西市邑村公用照明14台区,东市邑村公用照明3台区,席家庄村公用照明1台区,连仲公用照明5台区,东市邑公用照明7台区,东市邑村公用照明1台区,连仲村公用照明2台区,席家庄公用照明4台区,南王吕公用照明4台区,侯辛庄公用照明2台区,小市邑公用照明2台区,南王吕公用照明3台区,东市邑公用照明8台区,连仲公用照明10台区,西市邑村公用照明1台区,南王吕村公用照明1台区,南王吕公用照明2台区,西王吕村公用照明1台区,乡敬老院公用照明1台区,连仲村公用照明3台区","powerOffReason":"【停电原因】由于更换导线导致１１０ＫＶ清风店变电站１０ＫＶ５６２南王吕线路全线停电 【变更送电】无 【发布渠道】河北省定州市定州日报第三版（２０１９年１０月２５日）","powerOffId":"2019102413000375"},{"poweroffId":2019102413000367,"sgpoweroffId":null,"subsName":"","lineName":"10kV564南支合线","pubTranName":"北支合公用照明6台区,南支合公用照明7台区,北支合村公用照明3台区,北支合村公用照明1台区,南支合公用照明4台区,北支合公用照明4台区,东三路村公用照明1台区,东三路公用照明2台区,北支合公用照明5台区,南支合村公用照明1台区,东三路公用照明3台区,南支合公用照明6台区,北支合村公用照明2台区,南支合公用照明5台区,南支合村公用照明3台区,太平庄村公用照明1台区,南支合村公用照明2台区,","scope":"【影响街道/乡镇】清风店镇【高危重要客户】无【影响客户】南支合村、北支合村、太平庄村、东三路","startTime":"2019-11-08 06:30:00","stopDate":"2019-11-08 18:00:00","orgNo":"1340610","typeCode":"计划停电","poweroffArea":"【分支停电】停东三路公用照明2台区,北支合公用照明5台区,南支合村公用照明1台区,东三路公用照明3台区,南支合公用照明6台区,北支合村公用照明3台区,北支合村公用照明1台区,南支合公用照明4台区,北支合公用照明4台区,东三路村公用照明1台区,北支合村公用照明2台区,南支合公用照明5台区,南支合村公用照明3台区,太平庄村公用照明1台区,南支合村公用照明2台区,北支合公用照明6台区,南支合公用照明7台区","poweroffReason":"【停电原因】由于配变改造导致１１０ＫＶ清风店变电站１０ＫＶ５６４南支合线路主干１９号杆０１号断路器以下线路停电 【变更送电】因抢修进度加快原因，送电时间由１９：３０变更为１８：００ 【发布渠道】河北省定州市定州日报第三版（２０１９年１０月２５日）","powerTime":"2019-11-08 17:51:21","powerComm":"已送电","subsNo":"","lineNo":"","tgNo":"","tgName":null,"infoStatus":"1","orgName":"国网定州市供电公司","typeName":null,"infoStatusName":null,"dateDay":null,"orgNos":null,"nowTime":null,"countyName":null,"streetName":null,"villageName":null,"roadName":null,"communityName":null,"tranName":null,"sdLineName":null,"cityCode":"1340610","cityName":"国网定州市供电公司","provinceCode":null,"stopTime":"2019-11-08 18:00:00","powerType":"全部","powerOffArea":"【分支停电】停东三路公用照明2台区,北支合公用照明5台区,南支合村公用照明1台区,东三路公用照明3台区,南支合公用照明6台区,北支合村公用照明3台区,北支合村公用照明1台区,南支合公用照明4台区,北支合公用照明4台区,东三路村公用照明1台区,北支合村公用照明2台区,南支合公用照明5台区,南支合村公用照明3台区,太平庄村公用照明1台区,南支合村公用照明2台区,北支合公用照明6台区,南支合公用照明7台区","powerOffReason":"【停电原因】由于配变改造导致１１０ＫＶ清风店变电站１０ＫＶ５６４南支合线路主干１９号杆０１号断路器以下线路停电 【变更送电】因抢修进度加快原因，送电时间由１９：３０变更为１８：００ 【发布渠道】河北省定州市定州日报第三版（２０１９年１０月２５日）","powerOffId":"2019102413000367"},{"poweroffId":2019102413000366,"sgpoweroffId":null,"subsName":"","lineName":"10kV521武装部线","pubTranName":"东里元公用照明8台区,","scope":"【影响街道/乡镇】北城区【高危重要客户】无【影响客户】东里元","startTime":"2019-11-05 06:20:00","stopDate":"2019-11-05 19:30:00","orgNo":"1340610","typeCode":"计划停电","poweroffArea":"【分支停电】停东里元公用照明8台区","poweroffReason":"【停电原因】由于更换变压器导致１１０ＫＶ总司屯变电站１０ＫＶ５２１武装部线路主干５７号杆８３号隔离开关以下线路停电 【变更送电】无 【发布渠道】河北省定州市定州日报第三版（２０１９年１０月２５日）","powerTime":"2019-11-05 18:40:12","powerComm":"已送电","subsNo":"","lineNo":"","tgNo":"","tgName":null,"infoStatus":"1","orgName":"国网定州市供电公司","typeName":null,"infoStatusName":null,"dateDay":null,"orgNos":null,"nowTime":null,"countyName":null,"streetName":null,"villageName":null,"roadName":null,"communityName":null,"tranName":null,"sdLineName":null,"cityCode":"1340610","cityName":"国网定州市供电公司","provinceCode":null,"stopTime":"2019-11-05 19:30:00","powerType":"全部","powerOffArea":"【分支停电】停东里元公用照明8台区","powerOffReason":"【停电原因】由于更换变压器导致１１０ＫＶ总司屯变电站１０ＫＶ５２１武装部线路主干５７号杆８３号隔离开关以下线路停电 【变更送电】无 【发布渠道】河北省定州市定州日报第三版（２０１９年１０月２５日）","powerOffId":"2019102413000366"},{"poweroffId":2019102413000360,"sgpoweroffId":null,"subsName":"","lineName":"10kV553杨家庄线","pubTranName":"东马家寨公用照明6台区,","scope":"【影响街道/乡镇】南城区【高危重要客户】无【影响客户】东马家寨","startTime":"2019-11-05 06:10:00","stopDate":"2019-11-05 19:30:00","orgNo":"1340610","typeCode":"计划停电","poweroffArea":"【分支停电】停东马家寨公用照明6台区","poweroffReason":"【停电原因】由于更换变压器导致１１０ＫＶ叮咛店变电站１０ＫＶ５５３杨家庄线路马家寨分支０４号杆１９号隔离开关以下线路停电 【变更送电】无 【发布渠道】河北省定州市定州日报第三版（２０１９年１０月２５日）","powerTime":"2019-11-05 19:01:27","powerComm":"已送电","subsNo":"","lineNo":"","tgNo":"","tgName":null,"infoStatus":"1","orgName":"国网定州市供电公司","typeName":null,"infoStatusName":null,"dateDay":null,"orgNos":null,"nowTime":null,"countyName":null,"streetName":null,"villageName":null,"roadName":null,"communityName":null,"tranName":null,"sdLineName":null,"cityCode":"1340610","cityName":"国网定州市供电公司","provinceCode":null,"stopTime":"2019-11-05 19:30:00","powerType":"全部","powerOffArea":"【分支停电】停东马家寨公用照明6台区","powerOffReason":"【停电原因】由于更换变压器导致１１０ＫＶ叮咛店变电站１０ＫＶ５５３杨家庄线路马家寨分支０４号杆１９号隔离开关以下线路停电 【变更送电】无 【发布渠道】河北省定州市定州日报第三版（２０１９年１０月２５日）","powerOffId":"2019102413000360"},{"poweroffId":2019102413000359,"sgpoweroffId":null,"subsName":"","lineName":"南沙线516","pubTranName":"南关2#大队综合,10091|南街二队综合,","scope":"【影响街道/乡镇】城关镇、高阳镇 【高危重要客户】无 【影响客户】南关村村西南部分、南街二队、明珠A区、南苑小区、明珠C区","startTime":"2019-11-13 07:30:00","stopDate":"2019-11-13 17:30:00","orgNo":"1340613","typeCode":"计划停电","poweroffArea":"【全线路停电】停保定正昊房地产开发有限公司变压器,0586294901-保定正昊房地产开发有限公司-专变-125123699-保定正昊房地产开发有限公司变压器,南关大队630,南关2#大队综合,泽乐巾被厂,南关大队,10091|南街二队综合,杨二龙,南关大队1600,南关大队800","poweroffReason":"【停电原因】由于检查消缺导致３５ＫＶ城南变电站南沙５１６线路全线停电【变更送电】无【发布渠道】高阳县电视台（１０月２５日１９时至２１时之间）屏幕下方滚动播出","powerTime":"2019-11-13 17:17:07","powerComm":"已送电","subsNo":"","lineNo":"","tgNo":"","tgName":null,"infoStatus":"1","orgName":"国网高阳县供电公司","typeName":null,"infoStatusName":null,"dateDay":null,"orgNos":null,"nowTime":null,"countyName":null,"streetName":null,"villageName":null,"roadName":null,"communityName":null,"tranName":null,"sdLineName":null,"cityCode":"1340613","cityName":"国网高阳县供电公司","provinceCode":null,"stopTime":"2019-11-13 17:30:00","powerType":"全部","powerOffArea":"【全线路停电】停保定正昊房地产开发有限公司变压器,0586294901-保定正昊房地产开发有限公司-专变-125123699-保定正昊房地产开发有限公司变压器,南关大队630,南关2#大队综合,泽乐巾被厂,南关大队,10091|南街二队综合,杨二龙,南关大队1600,南关大队800","powerOffReason":"【停电原因】由于检查消缺导致３５ＫＶ城南变电站南沙５１６线路全线停电【变更送电】无【发布渠道】高阳县电视台（１０月２５日１９时至２１时之间）屏幕下方滚动播出","powerOffId":"2019102413000359"}],"pageModel":{"pageNow":458,"totalCount":10973,"totalPage":1098,"tableRows":0,"pageCount":10,"beginCount":4570},"isExperi":"1"}