{"message":"","today":"2020-06-15","seleList":[{"poweroffId":2019102413000358,"sgpoweroffId":null,"subsName":"","lineName":"10kV512子位线","pubTranName":"子位三村公用照明5台区,客户投资_西丁庄公用照明1台区,子位三村公用照明6台区,子位二村公用照明10台区,子位二村公用照明12台区,寨里公用照明7台区,西丁庄公用照明2台区,子位三村公用照明3台区,子位二村公用照明13台区,子位二村公用照明2台区,子位二村公用照明1台区,子位一村公用照明3台区,子位二村公用照明4台区,子位二村公用照明3台区,子位三村公用照明4台区,子位一村公用照明1台区,寨里公用照明10台区,子位一村公用照明8台区,寨里公用照明2台区,寨里公用照明9台区,子位二村公用照明14台区,子位二村公用照明16台区,寨里公用照明6台区,子位一村公用照明9台区,子位一村小庄公用照明2台区,子位三村公用照明1台区,子位一村公用照明6台区,寨里公用照明1台区,子位二村公用照明6台区,寨里公用照明5台区,子位二村公用照明9台区,子位三村公用照明7台区,子位一村小庄公用照明1台区,子位三村公用照明9台区,寨里公用照明8台区,子位三村公用照明2台区,寨里公用照明3台区,子位三村公用照明11台区0,子位一村公用照明4台区,子位二村公用照明15台区,寨里公用照明4台区,子位三村公用照明10台区,子位二村公用照明11台区,子位一村公用照明2台区,子位二村公用照明7台区,子位一村公用照明5台区,子位一村公用照明7台区,西丁庄公用照明3台区,子位二村公用照明5台区,子位二村公用照明8台区,","scope":"【影响街道/乡镇】子位镇【高危重要客户】无【影响客户】西丁庄村、子位一村、子位二村、子位三村、寨里村、东丁村、西丁村","startTime":"2019-11-07 06:10:00","stopDate":"2019-11-07 20:00:00","orgNo":"1340610","typeCode":"计划停电","poweroffArea":"【全线路停电】停子位三村公用照明5台区,客户投资_西丁庄公用照明1台区,子位三村公用照明6台区,子位二村公用照明10台区,子位二村公用照明12台区,寨里公用照明7台区,西丁庄公用照明2台区,子位三村公用照明3台区,子位二村公用照明13台区,子位二村公用照明2台区,子位二村公用照明1台区,子位一村公用照明3台区,子位二村公用照明4台区,子位二村公用照明3台区,子位三村公用照明4台区,子位一村公用照明1台区,寨里公用照明10台区,子位一村公用照明8台区,寨里公用照明2台区,寨里公用照明9台区,子位二村公用照明14台区,子位二村公用照明16台区,寨里公用照明6台区,子位一村公用照明9台区,子位一村小庄公用照明2台区,子位三村公用照明1台区,子位一村公用照明6台区,寨里公用照明1台区,子位二村公用照明6台区,寨里公用照明5台区,子位二村公用照明9台区,子位三村公用照明7台区,子位一村小庄公用照明1台区,子位三村公用照明9台区,寨里公用照明8台区,子位三村公用照明2台区,寨里公用照明3台区,子位三村公用照明11台区0,子位一村公用照明4台区,子位二村公用照明15台区,寨里公用照明4台区,子位三村公用照明10台区,子位二村公用照明11台区,子位一村公用照明2台区,子位二村公用照明7台区,子位一村公用照明5台区,子位一村公用照明7台区,西丁庄公用照明3台区,子位二村公用照明5台区,子位二村公用照明8台区","poweroffReason":"【停电原因】由于更换断路器导致３５ＫＶ丁村变电站１０ＫＶ５１２子位线路全线停电 【变更送电】无 【发布渠道】河北省定州市定州日报第三版（２０１９年１０月２５日）","powerTime":"2019-11-07 19:40:10","powerComm":"已送电","subsNo":"","lineNo":"","tgNo":"","tgName":null,"infoStatus":"1","orgName":"国网定州市供电公司","typeName":null,"infoStatusName":null,"dateDay":null,"orgNos":null,"nowTime":null,"countyName":null,"streetName":null,"villageName":null,"roadName":null,"communityName":null,"tranName":null,"sdLineName":null,"cityCode":"1340610","cityName":"国网定州市供电公司","provinceCode":null,"stopTime":"2019-11-07 20:00:00","powerType":"全部","powerOffArea":"【全线路停电】停子位三村公用照明5台区,客户投资_西丁庄公用照明1台区,子位三村公用照明6台区,子位二村公用照明10台区,子位二村公用照明12台区,寨里公用照明7台区,西丁庄公用照明2台区,子位三村公用照明3台区,子位二村公用照明13台区,子位二村公用照明2台区,子位二村公用照明1台区,子位一村公用照明3台区,子位二村公用照明4台区,子位二村公用照明3台区,子位三村公用照明4台区,子位一村公用照明1台区,寨里公用照明10台区,子位一村公用照明8台区,寨里公用照明2台区,寨里公用照明9台区,子位二村公用照明14台区,子位二村公用照明16台区,寨里公用照明6台区,子位一村公用照明9台区,子位一村小庄公用照明2台区,子位三村公用照明1台区,子位一村公用照明6台区,寨里公用照明1台区,子位二村公用照明6台区,寨里公用照明5台区,子位二村公用照明9台区,子位三村公用照明7台区,子位一村小庄公用照明1台区,子位三村公用照明9台区,寨里公用照明8台区,子位三村公用照明2台区,寨里公用照明3台区,子位三村公用照明11台区0,子位一村公用照明4台区,子位二村公用照明15台区,寨里公用照明4台区,子位三村公用照明10台区,子位二村公用照明11台区,子位一村公用照明2台区,子位二村公用照明7台区,子位一村公用照明5台区,子位一村公用照明7台区,西丁庄公用照明3台区,子位二村公用照明5台区,子位二村公用照明8台区","powerOffReason":"【停电原因】由于更换断路器导致３５ＫＶ丁村变电站１０ＫＶ５１２子位线路全线停电 【变更送电】无 【发布渠道】河北省定州市定州日报第三版（２０１９年１０月２５日）","powerOffId":"2019102413000358"},{"poweroffId":2019102413000354,"sgpoweroffId":null,"subsName":"","lineName":"县医院线511","pubTranName":"10088|烟草公司综合,10085|商贸城小区1号综合,客户投资_高阳县七彩家园二期贰号综合箱变配变配电变压器,10050|南环路配变综合,10051|大布站综合,北圈头4#村北综合,SQ商业街2#综合,10003|工商银行小区综合,南街2#村北综合,南街1#村南综合,10065|种子公司小区综合,南关1#南关桥综合,北圈头5#东北综合,10052|商业街配变综合,北圈头3#村北综合,10107|南关小区综合,北圈头大队1#综合,客户投资_河北省保定市高阳县高阳镇七彩家园东台区出线配电变压器,北圈头2#村北综合,","scope":"【影响街道/乡镇】城关镇、高阳镇、南街、南环路、商业街 【高危重要客户】无 【影响客户】南关、烟草公司、商贸城小区、种子公司小区、大布站、南关小区、工商银行小区、七彩家园、染厂家属院、北圈头、花市街村","startTime":"2019-11-13 07:30:00","stopDate":"2019-11-13 17:30:00","orgNo":"1340613","typeCode":"计划停电","poweroffArea":"【全线路停电】停SQ商业街2#综合,南街1#村南综合,10065|种子公司小区综合,客户投资_河北省保定市高阳县高阳镇七彩家园东台区出线配电变压器,染厂家属东院,北圈头3#村北综合,10052|商业街配变综合,北圈头大队1#综合,10050|南环路配变综合,10003|工商银行小区综合,南街2#村北综合,10107|南关小区综合,10088|烟草公司综合,宋虹鑫,保定正昊房地产开发有限公司变压器,北圈头益民毛巾厂减容,南关中学,卢春林,10085|商贸城小区1号综合,客户投资_高阳县七彩家园二期贰号综合箱变配变配电变压器,陈丽娜,南关1#南关桥综合,宋三胖毛巾厂,北圈头5#东北综合,高阳县城东纺织站变压器,烟草公司保定市公司,高阳县秋实物业服务有限公司变压器,高阳县住房和城乡建设局变压器,北圈头2#村北综合,10051|大布站综合,北圈头张峻,北圈头4#村北综合","poweroffReason":"【停电原因】由于检查消缺导致３５ＫＶ城南变电站县医院５１１线路全线停电【变更送电】无【发布渠道】高阳县电视台（１０月２５日１９时至２１时之间）屏幕下方滚动播出","powerTime":"2019-11-13 17:17:29","powerComm":"已送电","subsNo":"","lineNo":"","tgNo":"","tgName":null,"infoStatus":"1","orgName":"国网高阳县供电公司","typeName":null,"infoStatusName":null,"dateDay":null,"orgNos":null,"nowTime":null,"countyName":null,"streetName":null,"villageName":null,"roadName":null,"communityName":null,"tranName":null,"sdLineName":null,"cityCode":"1340613","cityName":"国网高阳县供电公司","provinceCode":null,"stopTime":"2019-11-13 17:30:00","powerType":"全部","powerOffArea":"【全线路停电】停SQ商业街2#综合,南街1#村南综合,10065|种子公司小区综合,客户投资_河北省保定市高阳县高阳镇七彩家园东台区出线配电变压器,染厂家属东院,北圈头3#村北综合,10052|商业街配变综合,北圈头大队1#综合,10050|南环路配变综合,10003|工商银行小区综合,南街2#村北综合,10107|南关小区综合,10088|烟草公司综合,宋虹鑫,保定正昊房地产开发有限公司变压器,北圈头益民毛巾厂减容,南关中学,卢春林,10085|商贸城小区1号综合,客户投资_高阳县七彩家园二期贰号综合箱变配变配电变压器,陈丽娜,南关1#南关桥综合,宋三胖毛巾厂,北圈头5#东北综合,高阳县城东纺织站变压器,烟草公司保定市公司,高阳县秋实物业服务有限公司变压器,高阳县住房和城乡建设局变压器,北圈头2#村北综合,10051|大布站综合,北圈头张峻,北圈头4#村北综合","powerOffReason":"【停电原因】由于检查消缺导致３５ＫＶ城南变电站县医院５１１线路全线停电【变更送电】无【发布渠道】高阳县电视台（１０月２５日１９时至２１时之间）屏幕下方滚动播出","powerOffId":"2019102413000354"},{"poweroffId":2019102413000350,"sgpoweroffId":null,"subsName":"","lineName":"10kV531四家庄线","pubTranName":"（35）尧方头村公用照明4台区,南关北公用照明3台区,（35）尧方头村公用照明3台区,客户投资_（29）南关园林小区公用照明台区,（80）建材市场公用照明台区,尧方头公用照明11台区,园林小区公用照明2台区,红星小区公用照明2台区,（165）药棉厂院公用照明台区,（35）尧方头村公用照明5台区,南关派出所公用照明2台区,建材市场公用照明2台区,（72）沙河灌区公用照明台区,（115）南关派出所公用照明台区,（35）尧方头公用照明7台区,（90）光荣院公用照明台区,光荣院公用照明2台区,（29）南关园林处小区公用照明台区,（29）南关北公用照明台区,（66）红星小区公用照明台区,（29）南关南公用照明台区,南关北公用照明2台区,（79）农业局院公用照明台区,南关南公用照明3台区,（189）南城社区院公用照明台区,（35）尧方头村公用照明1台区,尧方头公用照明10台区,（18）马道街公用照明台区,（29）南关瓜市公用照明台区,（20）都府营公用照明1台区,南关瓜市公用照明2台区,","scope":"【影响街道/乡镇】西马道街、南环路、中兴东路【高危重要客户】无【影响客户】南关、尧方头、沙河灌区家属院、农业局院、红星小区、民政局、药棉厂家属院、芳林小区、中兴路卫材家属院、南关桥头、种子公司、印刷厂家属院、天成花园小区、华龙苑小区、南关邮政局、清风园小区、南城社区楼、公安局东侧、安佳市场、１０７国道、南城派出所","startTime":"2019-11-07 06:00:00","stopDate":"2019-11-07 19:30:00","orgNo":"1340610","typeCode":"计划停电","poweroffArea":"【全线路停电】停南关派出所公用照明2台区,（35）尧方头村公用照明4台区,南关北公用照明3台区,（35）尧方头村公用照明3台区,客户投资_（29）南关园林小区公用照明台区,（80）建材市场公用照明台区,尧方头公用照明11台区,园林小区公用照明2台区,红星小区公用照明2台区,（165）药棉厂院公用照明台区,（35）尧方头村公用照明5台区,建材市场公用照明2台区,（72）沙河灌区公用照明台区,（115）南关派出所公用照明台区,（35）尧方头公用照明7台区,（90）光荣院公用照明台区,光荣院公用照明2台区,（29）南关园林处小区公用照明台区,（29）南关北公用照明台区,（66）红星小区公用照明台区,（29）南关南公用照明台区,南关北公用照明2台区,（79）农业局院公用照明台区,南关南公用照明3台区,（189）南城社区院公用照明台区,（35）尧方头村公用照明1台区,尧方头公用照明10台区,（18）马道街公用照明台区,（29）南关瓜市公用照明台区,（20）都府营公用照明1台区,南关瓜市公用照明2台区","poweroffReason":"【停电原因】由于更换变压器导致１１０ＫＶ定县站变电站１０ＫＶ５３１四家庄线路全线停电 【变更送电】无 【发布渠道】河北省定州市定州日报第三版（２０１９年１０月２５日）","powerTime":"2019-11-07 19:26:44","powerComm":"已送电","subsNo":"","lineNo":"","tgNo":"","tgName":null,"infoStatus":"1","orgName":"国网定州市供电公司","typeName":null,"infoStatusName":null,"dateDay":null,"orgNos":null,"nowTime":null,"countyName":null,"streetName":null,"villageName":null,"roadName":null,"communityName":null,"tranName":null,"sdLineName":null,"cityCode":"1340610","cityName":"国网定州市供电公司","provinceCode":null,"stopTime":"2019-11-07 19:30:00","powerType":"全部","powerOffArea":"【全线路停电】停南关派出所公用照明2台区,（35）尧方头村公用照明4台区,南关北公用照明3台区,（35）尧方头村公用照明3台区,客户投资_（29）南关园林小区公用照明台区,（80）建材市场公用照明台区,尧方头公用照明11台区,园林小区公用照明2台区,红星小区公用照明2台区,（165）药棉厂院公用照明台区,（35）尧方头村公用照明5台区,建材市场公用照明2台区,（72）沙河灌区公用照明台区,（115）南关派出所公用照明台区,（35）尧方头公用照明7台区,（90）光荣院公用照明台区,光荣院公用照明2台区,（29）南关园林处小区公用照明台区,（29）南关北公用照明台区,（66）红星小区公用照明台区,（29）南关南公用照明台区,南关北公用照明2台区,（79）农业局院公用照明台区,南关南公用照明3台区,（189）南城社区院公用照明台区,（35）尧方头村公用照明1台区,尧方头公用照明10台区,（18）马道街公用照明台区,（29）南关瓜市公用照明台区,（20）都府营公用照明1台区,南关瓜市公用照明2台区","powerOffReason":"【停电原因】由于更换变压器导致１１０ＫＶ定县站变电站１０ＫＶ５３１四家庄线路全线停电 【变更送电】无 【发布渠道】河北省定州市定州日报第三版（２０１９年１０月２５日）","powerOffId":"2019102413000350"},{"poweroffId":2019102413000345,"sgpoweroffId":null,"subsName":"","lineName":"10kV553杨家庄线","pubTranName":"马家寨公用照明4台区1,","scope":"【影响街道/乡镇】南城区【高危重要客户】无【影响客户】马家寨","startTime":"2019-11-05 06:00:00","stopDate":"2019-11-05 18:30:00","orgNo":"1340610","typeCode":"计划停电","poweroffArea":"【分支停电】停马家寨公用照明4台区","poweroffReason":"【停电原因】由于更换变压器导致１１０ＫＶ叮咛店变电站１０ＫＶ５５３杨家庄线路主干７２号杆１４号隔离开关以下线路停电 【变更送电】因抢修进度加快原因，送电时间由１９：３０变更为１８：３０ 【发布渠道】河北省定州市定州日报第三版（２０１９年１０月２５日）","powerTime":"2019-11-05 18:18:40","powerComm":"已送电","subsNo":"","lineNo":"","tgNo":"","tgName":null,"infoStatus":"1","orgName":"国网定州市供电公司","typeName":null,"infoStatusName":null,"dateDay":null,"orgNos":null,"nowTime":null,"countyName":null,"streetName":null,"villageName":null,"roadName":null,"communityName":null,"tranName":null,"sdLineName":null,"cityCode":"1340610","cityName":"国网定州市供电公司","provinceCode":null,"stopTime":"2019-11-05 18:30:00","powerType":"全部","powerOffArea":"【分支停电】停马家寨公用照明4台区","powerOffReason":"【停电原因】由于更换变压器导致１１０ＫＶ叮咛店变电站１０ＫＶ５５３杨家庄线路主干７２号杆１４号隔离开关以下线路停电 【变更送电】因抢修进度加快原因，送电时间由１９：３０变更为１８：３０ 【发布渠道】河北省定州市定州日报第三版（２０１９年１０月２５日）","powerOffId":"2019102413000345"},{"poweroffId":2019102413000337,"sgpoweroffId":null,"subsName":"","lineName":"10kV513商业街线","pubTranName":"客户投资_（145）大道观公用照明5台区,大道观公用照明8台区,（55）大道观公用照明3台区,","scope":"【影响街道/乡镇】北城区、商业北街、北环路、大道观街、大道观后街、女人后街【高危重要客户】无【影响客户】大道观、二中家属院、三中","startTime":"2019-11-06 00:30:00","stopDate":"2019-11-06 04:20:00","orgNo":"1340610","typeCode":"计划停电","poweroffArea":"【分支停电】停三中客户投资_（145）大道观公用照明5台区,大道观公用照明8台区,（55）大道观公用照明3台区","poweroffReason":"【停电原因】由于高压引线接引导致１１０ＫＶ总司屯变电站１０ＫＶ５１３商业街线路０６号断路器以下线路停电 【变更送电】因抢修进度加快原因，送电时间由０５：３０变更为０４：２０ 【发布渠道】河北省定州市定州日报第三版（２０１９年１０月２５日）","powerTime":"2019-11-06 04:05:18","powerComm":"已送电","subsNo":"","lineNo":"","tgNo":"","tgName":null,"infoStatus":"1","orgName":"国网定州市供电公司","typeName":null,"infoStatusName":null,"dateDay":null,"orgNos":null,"nowTime":null,"countyName":null,"streetName":null,"villageName":null,"roadName":null,"communityName":null,"tranName":null,"sdLineName":null,"cityCode":"1340610","cityName":"国网定州市供电公司","provinceCode":null,"stopTime":"2019-11-06 04:20:00","powerType":"全部","powerOffArea":"【分支停电】停三中客户投资_（145）大道观公用照明5台区,大道观公用照明8台区,（55）大道观公用照明3台区","powerOffReason":"【停电原因】由于高压引线接引导致１１０ＫＶ总司屯变电站１０ＫＶ５１３商业街线路０６号断路器以下线路停电 【变更送电】因抢修进度加快原因，送电时间由０５：３０变更为０４：２０ 【发布渠道】河北省定州市定州日报第三版（２０１９年１０月２５日）","powerOffId":"2019102413000337"},{"poweroffId":2019102413000336,"sgpoweroffId":null,"subsName":"","lineName":"电力局线512","pubTranName":"10089|东环路配变综合,10023|东街2号综合,10079|防疫站综合,10026|县社生活小区综合,10029|东街大楼综合,10086|商贸城小区2号综合,10040|五金小区综合,10049|保险局家属院综合,","scope":"【影响街道/乡镇】高阳镇、城关镇、商业街、东街、东环路 【高危重要客户】县医院、职工医院 【影响客户】保险局家属院、县社生活小区、五金小区、东街大楼、商贸城小区、防疫站、巨马宾馆","startTime":"2019-11-13 07:30:00","stopDate":"2019-11-13 17:30:00","orgNo":"1340613","typeCode":"计划停电","poweroffArea":"【全线路停电】停高阳县水利局,10089|东环路配变综合,李占峰,高阳县纺织商贸管理委员会2#,10023|东街2号综合,南关社区,新南环路灯,10079|防疫站综合,新毛巾市场(3#),10026|县社生活小区综合,10029|东街大楼综合,水务局,商贸城锅炉2#,工商局,河北宏润新型面料有限公司,高阳县纺织商贸城管理委员会变压器,高阳县纺织商贸城管理委员会,高阳县医院变压器,张彦明,10086|商贸城小区2号综合,电力局旧2#,黄卫民,职工医院,10040|五金小区综合,县医院,高阳县医院,黄新民,五金公司,高阳县供销合作社联合社变压器,县医院X光,10049|保险局家属院综合","poweroffReason":"【停电原因】由于更换电流互感器导致３５ＫＶ城南变电站电力局５１２线路全线停电【变更送电】无【发布渠道】高阳县电视台（１０月２５日１９时至２１时之间）屏幕下方滚动播出","powerTime":"2019-11-13 17:17:44","powerComm":"已送电","subsNo":"","lineNo":"","tgNo":"","tgName":null,"infoStatus":"1","orgName":"国网高阳县供电公司","typeName":null,"infoStatusName":null,"dateDay":null,"orgNos":null,"nowTime":null,"countyName":null,"streetName":null,"villageName":null,"roadName":null,"communityName":null,"tranName":null,"sdLineName":null,"cityCode":"1340613","cityName":"国网高阳县供电公司","provinceCode":null,"stopTime":"2019-11-13 17:30:00","powerType":"全部","powerOffArea":"【全线路停电】停高阳县水利局,10089|东环路配变综合,李占峰,高阳县纺织商贸管理委员会2#,10023|东街2号综合,南关社区,新南环路灯,10079|防疫站综合,新毛巾市场(3#),10026|县社生活小区综合,10029|东街大楼综合,水务局,商贸城锅炉2#,工商局,河北宏润新型面料有限公司,高阳县纺织商贸城管理委员会变压器,高阳县纺织商贸城管理委员会,高阳县医院变压器,张彦明,10086|商贸城小区2号综合,电力局旧2#,黄卫民,职工医院,10040|五金小区综合,县医院,高阳县医院,黄新民,五金公司,高阳县供销合作社联合社变压器,县医院X光,10049|保险局家属院综合","powerOffReason":"【停电原因】由于更换电流互感器导致３５ＫＶ城南变电站电力局５１２线路全线停电【变更送电】无【发布渠道】高阳县电视台（１０月２５日１９时至２１时之间）屏幕下方滚动播出","powerOffId":"2019102413000336"},{"poweroffId":2019102413000329,"sgpoweroffId":null,"subsName":"","lineName":"10kV519新一中线","pubTranName":"南角羊照明3台区,南角羊公用照明4台区,客户投资_南角羊(004):照明1台区,南角羊(004):照明2台区,","scope":"【影响街道/乡镇】杨家庄乡【高危重要客户】无 【影响客户】南角羊","startTime":"2019-11-06 06:00:00","stopDate":"2019-11-06 20:00:00","orgNo":"1340610","typeCode":"计划停电","poweroffArea":"【分支停电】停南角羊照明3台区,南角羊公用照明4台区,客户投资_南角羊(004):照明1台区,南角羊(004):照明2台区","poweroffReason":"【停电原因】由于更换变压器、ＪＰ柜导致１１０ＫＶ总司屯变电站１０ＫＶ５１９新一中线路主干１２３号杆７５号隔离开关以下线路停电 【变更送电】无 【发布渠道】河北省定州市定州日报第三版（２０１９年１０月２５日）","powerTime":"2019-11-06 19:09:31","powerComm":"已送电","subsNo":"","lineNo":"","tgNo":"","tgName":null,"infoStatus":"1","orgName":"国网定州市供电公司","typeName":null,"infoStatusName":null,"dateDay":null,"orgNos":null,"nowTime":null,"countyName":null,"streetName":null,"villageName":null,"roadName":null,"communityName":null,"tranName":null,"sdLineName":null,"cityCode":"1340610","cityName":"国网定州市供电公司","provinceCode":null,"stopTime":"2019-11-06 20:00:00","powerType":"全部","powerOffArea":"【分支停电】停南角羊照明3台区,南角羊公用照明4台区,客户投资_南角羊(004):照明1台区,南角羊(004):照明2台区","powerOffReason":"【停电原因】由于更换变压器、ＪＰ柜导致１１０ＫＶ总司屯变电站１０ＫＶ５１９新一中线路主干１２３号杆７５号隔离开关以下线路停电 【变更送电】无 【发布渠道】河北省定州市定州日报第三版（２０１９年１０月２５日）","powerOffId":"2019102413000329"},{"poweroffId":2019102413000323,"sgpoweroffId":null,"subsName":"","lineName":"大鹿庄线511","pubTranName":"西建阳公用照明4台区,","scope":"【影响街道/乡镇】大鹿庄乡【高危重要客户】无【影响客户】西建阳","startTime":"2019-11-06 06:10:00","stopDate":"2019-11-06 19:30:00","orgNo":"1340610","typeCode":"计划停电","poweroffArea":"【分支停电】停西建阳公用照明4台区","poweroffReason":"【停电原因】由于更换变压器、ＪＰ柜、低压导线导致３５ＫＶ移动变电站１０ＫＶ大鹿庄线５１１线路主干０７号杆５２号隔离开关以下线路停电 【变更送电】无 【发布渠道】河北省定州市定州日报第三版（２０１９年１０月２５日）","powerTime":"2019-11-06 18:44:02","powerComm":"已送电","subsNo":"","lineNo":"","tgNo":"","tgName":null,"infoStatus":"1","orgName":"国网定州市供电公司","typeName":null,"infoStatusName":null,"dateDay":null,"orgNos":null,"nowTime":null,"countyName":null,"streetName":null,"villageName":null,"roadName":null,"communityName":null,"tranName":null,"sdLineName":null,"cityCode":"1340610","cityName":"国网定州市供电公司","provinceCode":null,"stopTime":"2019-11-06 19:30:00","powerType":"全部","powerOffArea":"【分支停电】停西建阳公用照明4台区","powerOffReason":"【停电原因】由于更换变压器、ＪＰ柜、低压导线导致３５ＫＶ移动变电站１０ＫＶ大鹿庄线５１１线路主干０７号杆５２号隔离开关以下线路停电 【变更送电】无 【发布渠道】河北省定州市定州日报第三版（２０１９年１０月２５日）","powerOffId":"2019102413000323"},{"poweroffId":2019102413000316,"sgpoweroffId":null,"subsName":"","lineName":"拥城线513","pubTranName":"拥城农业7#【纯农排变】,拥城大队(水),北蒲口村东南综合,高阳县天旺达坐垫厂变压器,拥城村东南综合,南马机毡厂,北蒲口村西2号综合,牛路平2号,泽琦纺织有限公司,南马村西北综合,泽琦纺织品有限公司（赵艳青）,南马村西3#综合,拥城农业8#【纯农排变】,高阳县南蒲口乡南马村委会二变压器,北蒲口村东综合,南马村南2号综合,河北花海农业科技有限公司变压器,高阳县南蒲口乡北蒲口村一号变压器,南马农业3号,高阳县郭二粮食购销点变压器,成都华川公路建设集团有限公司变压器,高阳县喆阔纺织品制造有限公司变压器,拥城村东南3号变压器,南马砖厂,拥城农业11#【纯农排变】,高阳县南蒲口乡北蒲口村三号变压器,拥城农业6#【纯农排变】,南马大队变压器,拥城排水点变压器,南马村西2#综合,高阳县南蒲口乡北蒲口村二号变压器,北蒲口村西综合,北蒲口村西北综合,高阳县南蒲口乡赵口村二号变压器,南马村西北2号综合,南马农业4号,高阳县南蒲口乡南马村委会五变压器,高阳县泽琦纺织品有限公司变压器,拥城村里2号综合,拥城村北综合,南马村南综合,拥城农业2#【纯农排变】,南马正北2号综合,高阳县璐哲海绵加工厂变压器,南马农业8【纯农排变】,拥城学校综合,0678806195-高阳县益发粮食贸易有限公司-专变-219371933-高阳县益发粮食贸易有限公司变压器,高阳县鑫达毛纺厂（北蒲口大队）,北蒲口农业1号,拥城村西南综合,南马村西4号综合,拥城村西综合,拥城农业3#【纯农排变】,高阳县南蒲口乡南马村委会四变压器,南马村正北综合,北蒲口村西(水),北蒲口农业2号,南马农业6【纯农排变】,南马村北综合,南马农业2号,高阳县南蒲口乡南马村委会三变压器,拥城农业1#【纯农排变】,水利局扬水站变压器,南马村里变压器,南马村西北3号变压器,北蒲口村北,高阳县南蒲口乡南马村委会一变压器,牛许辉纺纱厂,拥城村西2号综合变压器,南马农业5号,拥城东南2号综合变压器,拥城村北2号综合,拥城农业9#【纯农排变】,南马村西南5号变压器,南马村南3号变压器,李艳申,北蒲口村东北2号变压器,拥城西远综合,南马村西综合,北蒲口砖厂,高阳县南蒲口乡北蒲口村四号变压器,拥城村里3号综合,拥城农业5#【纯农排变】,南马农业7【纯农排变】,拥城村东北综合,河北依派汽车用品制造有限公司变压器,北蒲口村东北综合,北蒲口农业3号,拥城农业10#【纯农排变】,华北油田采油一厂（63-85＃）,拥城村里综合,远其纺织厂,南马东综合,宏鑫纱厂,拥城农业4#【纯农排变】,拥城鸡厂,","scope":"【影响街道/乡镇】蒲口乡、龙化乡 【高危重要客户】无 【影响客户】北蒲口、南马、拥城村","startTime":"2019-11-06 07:30:00","stopDate":"2019-11-06 17:00:00","orgNo":"1340613","typeCode":"计划停电","poweroffArea":"【全线路停电】停拥城农业11#【纯农排变】,高阳县南蒲口乡赵口村二号变压器,南马砖厂,牛路平2号,拥城村里3号综合,南马农业3号,南马村西北2号综合,北蒲口村北,拥城村北2号综合,南马农业6【纯农排变】,北蒲口村东南综合,拥城村西南综合,拥城村西综合,高阳县喆阔纺织品制造有限公司变压器,南马村南综合,南马东综合,拥城农业7#【纯农排变】,南马农业8【纯农排变】,南马农业2号,高阳县泽琦纺织品有限公司变压器,拥城村里综合,南马农业4号,南马机毡厂,北蒲口村西(水),河北花海农业科技有限公司变压器,拥城村北综合,南马正北2号综合,拥城农业5#【纯农排变】,水利局扬水站变压器,宏鑫纱厂,北蒲口农业1号,拥城村里2号综合,南马村西南5号变压器,成都华川公路建设集团有限公司变压器,拥城农业1#【纯农排变】,南马村西北3号变压器,0678806195-高阳县益发粮食贸易有限公司-专变-219371933-高阳县益发粮食贸易有限公司变压器,南马村西2#综合,拥城农业8#【纯农排变】,高阳县南蒲口乡南马村委会五变压器,拥城农业6#【纯农排变】,拥城大队(水),南马村西4号综合,高阳县南蒲口乡北蒲口村三号变压器,高阳县南蒲口乡北蒲口村二号变压器,拥城排水点变压器,拥城农业2#【纯农排变】,拥城鸡厂,牛许辉纺纱厂,北蒲口农业2号,远其纺织厂,高阳县璐哲海绵加工厂变压器,北蒲口村西综合,拥城农业10#【纯农排变】,南马村南3号变压器,北蒲口村西北综合,泽琦纺织品有限公司（赵艳青）,高阳县南蒲口乡北蒲口村一号变压器,高阳县南蒲口乡南马村委会二变压器,高阳县郭二粮食购销点变压器,南马村西综合,李艳申,拥城村东南3号变压器,高阳县鑫达毛纺厂（北蒲口大队）,拥城村东北综合,华北油田采油一厂（63-85＃）,拥城村西2号综合变压器,南马村北综合,北蒲口村东北2号变压器,南马村西北综合,拥城村东南综合,拥城西远综合,南马村里变压器,南马村正北综合,北蒲口农业3号,拥城农业4#【纯农排变】,南马村西3#综合,南马村南2号综合,南马农业5号,拥城学校综合,高阳县天旺达坐垫厂变压器,拥城农业9#【纯农排变】,高阳县南蒲口乡北蒲口村四号变压器,北蒲口村东综合,南马大队变压器,泽琦纺织有限公司,拥城农业3#【纯农排变】,河北依派汽车用品制造有限公司变压器,北蒲口砖厂,北蒲口村东北综合,北蒲口村西2号综合,高阳县南蒲口乡南马村委会三变压器,高阳县南蒲口乡南马村委会一变压器,拥城东南2号综合变压器,南马农业7【纯农排变】,高阳县南蒲口乡南马村委会四变压器","poweroffReason":"【停电原因】由于更换电流互感器导致３５ＫＶ赵口变电站拥城５１３线路全线停电【变更送电】因抢修进度加快原因，送电时间由１８：３０变更为１７：００【发布渠道】高阳县电视台（１０月２５日１９时至２１时之间）屏幕下方滚动播出","powerTime":"2019-11-06 16:08:42","powerComm":"已送电","subsNo":"","lineNo":"","tgNo":"","tgName":null,"infoStatus":"1","orgName":"国网高阳县供电公司","typeName":null,"infoStatusName":null,"dateDay":null,"orgNos":null,"nowTime":null,"countyName":null,"streetName":null,"villageName":null,"roadName":null,"communityName":null,"tranName":null,"sdLineName":null,"cityCode":"1340613","cityName":"国网高阳县供电公司","provinceCode":null,"stopTime":"2019-11-06 17:00:00","powerType":"全部","powerOffArea":"【全线路停电】停拥城农业11#【纯农排变】,高阳县南蒲口乡赵口村二号变压器,南马砖厂,牛路平2号,拥城村里3号综合,南马农业3号,南马村西北2号综合,北蒲口村北,拥城村北2号综合,南马农业6【纯农排变】,北蒲口村东南综合,拥城村西南综合,拥城村西综合,高阳县喆阔纺织品制造有限公司变压器,南马村南综合,南马东综合,拥城农业7#【纯农排变】,南马农业8【纯农排变】,南马农业2号,高阳县泽琦纺织品有限公司变压器,拥城村里综合,南马农业4号,南马机毡厂,北蒲口村西(水),河北花海农业科技有限公司变压器,拥城村北综合,南马正北2号综合,拥城农业5#【纯农排变】,水利局扬水站变压器,宏鑫纱厂,北蒲口农业1号,拥城村里2号综合,南马村西南5号变压器,成都华川公路建设集团有限公司变压器,拥城农业1#【纯农排变】,南马村西北3号变压器,0678806195-高阳县益发粮食贸易有限公司-专变-219371933-高阳县益发粮食贸易有限公司变压器,南马村西2#综合,拥城农业8#【纯农排变】,高阳县南蒲口乡南马村委会五变压器,拥城农业6#【纯农排变】,拥城大队(水),南马村西4号综合,高阳县南蒲口乡北蒲口村三号变压器,高阳县南蒲口乡北蒲口村二号变压器,拥城排水点变压器,拥城农业2#【纯农排变】,拥城鸡厂,牛许辉纺纱厂,北蒲口农业2号,远其纺织厂,高阳县璐哲海绵加工厂变压器,北蒲口村西综合,拥城农业10#【纯农排变】,南马村南3号变压器,北蒲口村西北综合,泽琦纺织品有限公司（赵艳青）,高阳县南蒲口乡北蒲口村一号变压器,高阳县南蒲口乡南马村委会二变压器,高阳县郭二粮食购销点变压器,南马村西综合,李艳申,拥城村东南3号变压器,高阳县鑫达毛纺厂（北蒲口大队）,拥城村东北综合,华北油田采油一厂（63-85＃）,拥城村西2号综合变压器,南马村北综合,北蒲口村东北2号变压器,南马村西北综合,拥城村东南综合,拥城西远综合,南马村里变压器,南马村正北综合,北蒲口农业3号,拥城农业4#【纯农排变】,南马村西3#综合,南马村南2号综合,南马农业5号,拥城学校综合,高阳县天旺达坐垫厂变压器,拥城农业9#【纯农排变】,高阳县南蒲口乡北蒲口村四号变压器,北蒲口村东综合,南马大队变压器,泽琦纺织有限公司,拥城农业3#【纯农排变】,河北依派汽车用品制造有限公司变压器,北蒲口砖厂,北蒲口村东北综合,北蒲口村西2号综合,高阳县南蒲口乡南马村委会三变压器,高阳县南蒲口乡南马村委会一变压器,拥城东南2号综合变压器,南马农业7【纯农排变】,高阳县南蒲口乡南马村委会四变压器","powerOffReason":"【停电原因】由于更换电流互感器导致３５ＫＶ赵口变电站拥城５１３线路全线停电【变更送电】因抢修进度加快原因，送电时间由１８：３０变更为１７：００【发布渠道】高阳县电视台（１０月２５日１９时至２１时之间）屏幕下方滚动播出","powerOffId":"2019102413000316"},{"poweroffId":2019102413000315,"sgpoweroffId":null,"subsName":"","lineName":"佰堡线512","pubTranName":"大鹿庄公用照明7台区,","scope":"【影响街道/乡镇】大鹿庄乡【高危重要客户】无【影响客户】大鹿庄","startTime":"2019-11-06 06:20:00","stopDate":"2019-11-06 18:00:00","orgNo":"1340610","typeCode":"计划停电","poweroffArea":"【分支停电】停大鹿庄公用照明7台区","poweroffReason":"【停电原因】由于更换变压器导致３５ＫＶ移动变电站１０ＫＶ佰堡线５１２线路主干４３号杆５５号隔离开关以下线路停电 【变更送电】因抢修进度加快原因，送电时间由１９：３０变更为１８：００ 【发布渠道】河北省定州市定州日报第三版（１０月２５日）","powerTime":"2019-11-06 17:16:05","powerComm":"已送电","subsNo":"","lineNo":"","tgNo":"","tgName":null,"infoStatus":"1","orgName":"国网定州市供电公司","typeName":null,"infoStatusName":null,"dateDay":null,"orgNos":null,"nowTime":null,"countyName":null,"streetName":null,"villageName":null,"roadName":null,"communityName":null,"tranName":null,"sdLineName":null,"cityCode":"1340610","cityName":"国网定州市供电公司","provinceCode":null,"stopTime":"2019-11-06 18:00:00","powerType":"全部","powerOffArea":"【分支停电】停大鹿庄公用照明7台区","powerOffReason":"【停电原因】由于更换变压器导致３５ＫＶ移动变电站１０ＫＶ佰堡线５１２线路主干４３号杆５５号隔离开关以下线路停电 【变更送电】因抢修进度加快原因，送电时间由１９：３０变更为１８：００ 【发布渠道】河北省定州市定州日报第三版（１０月２５日）","powerOffId":"2019102413000315"}],"pageModel":{"pageNow":459,"totalCount":10973,"totalPage":1098,"tableRows":0,"pageCount":10,"beginCount":4580},"isExperi":"1"}