{"message":"","today":"2020-06-15","seleList":[{"poweroffId":2019102413000212,"sgpoweroffId":null,"subsName":"","lineName":"大鹿庄线511","pubTranName":"大鹿庄公用照明10台区,大鹿庄公用照明5台区,","scope":"【影响街道/乡镇】大鹿庄乡【高危重要客户】无【影响客户】大鹿庄","startTime":"2019-11-04 06:00:00","stopDate":"2019-11-04 18:30:00","orgNo":"1340610","typeCode":"计划停电","poweroffArea":"【分支停电】停大鹿庄公用照明5台区,大鹿庄公用照明10台区","poweroffReason":"【停电原因】由于更换变压器导致３５ＫＶ移动变电站１０ＫＶ５１１大鹿庄线路主杆３５号杆２２号隔离开关以下线路停电 【变更送电】无 【发布渠道】河北省定州市定州日报第三版（２０１９年１０月２５日）","powerTime":"2019-11-04 18:14:55","powerComm":"已送电","subsNo":"","lineNo":"","tgNo":"","tgName":null,"infoStatus":"1","orgName":"国网定州市供电公司","typeName":null,"infoStatusName":null,"dateDay":null,"orgNos":null,"nowTime":null,"countyName":null,"streetName":null,"villageName":null,"roadName":null,"communityName":null,"tranName":null,"sdLineName":null,"cityCode":"1340610","cityName":"国网定州市供电公司","provinceCode":null,"stopTime":"2019-11-04 18:30:00","powerType":"全部","powerOffArea":"【分支停电】停大鹿庄公用照明5台区,大鹿庄公用照明10台区","powerOffReason":"【停电原因】由于更换变压器导致３５ＫＶ移动变电站１０ＫＶ５１１大鹿庄线路主杆３５号杆２２号隔离开关以下线路停电 【变更送电】无 【发布渠道】河北省定州市定州日报第三版（２０１９年１０月２５日）","powerOffId":"2019102413000212"},{"poweroffId":2019102413000211,"sgpoweroffId":null,"subsName":"","lineName":"留百户线512","pubTranName":"0000006211留百户统管农9#变压器,0012887047留百户南2区变压器,0000006646留百户统管农16#变压器【纯农排变】,0000004660留百户西区变压器,0000004665留百户东南区变压器,留百户幼儿园变压器,0014331067留百户南1区变压器,0000006553留百户统管农14#变压器,留百户北4区变压器,留百户小学2变压器,留百户北区小学变压器,留百户北1区变压器,留百户农21变压器,0000005964留百户统管农6#变压器【纯农排变】,0012887529留百户西2区变压器,0012735110留百户东区变压器,0000006060留百户统管农灌8#变压器,0013343410留百户农19变压器,0000006647留百户统管农15#变压器【纯农排变】,0000006775留百户西北区变压器,0000006415留百户统管农10#变压器,留百户中区变压器,留百户农22变压器,留百户农20变压器,留百户小学变压器,0013144905留百户北3变压器,0000004656留百户南区变压器,0000007212留百户北2区变压器,","scope":"【影响街道/乡镇】邸村乡【高危重要客户】无【影响客户】留百户村","startTime":"2019-11-06 05:00:00","stopDate":"2019-11-06 18:00:00","orgNo":"1340619","typeCode":"计划停电","poweroffArea":"【分支停电】停留百户农22变压器,留百户小学变压器,0013144905留百户北3变压器,0000004656留百户南区变压器,0000007212留百户北2区变压器,0000006211留百户统管农9#变压器,0012887047留百户南2区变压器,0000006646留百户统管农16#变压器【纯农排变】,0000004660留百户西区变压器,0000004665留百户东南区变压器,留百户幼儿园变压器,0014331067留百户南1区变压器,0000006553留百户统管农14#变压器,留百户北4区变压器,留百户小学2变压器,留百户北区小学变压器,留百户北1区变压器,留百户农20变压器,留百户农21变压器,0000005964留百户统管农6#变压器【纯农排变】,0012887529留百户西2区变压器,0012735110留百户东区变压器,0000006060留百户统管农灌8#变压器,0000006647留百户统管农15#变压器【纯农排变】,0000006775留百户西北区变压器,0000006415留百户统管农10#变压器,留百户中区变压器,留百户王建轻石板厂,0013341985留百户农18变压器,留百户东南（王保勋）,0544637322-曲阳县永盛雕刻石材厂-专变-47416842-曲阳县永盛雕刻石材厂变压器,王增贤,曲阳县轩达雕塑石材有限公司变压器,曲阳县勤龙石材雕刻厂变压器,曲阳县利桥石材雕刻厂变压器,曲阳县玉华风水球石材雕刻厂变压器,留百户刘现民,曲阳县云祥鑫盛石业雕刻变压器,王会儒石粉厂,曲阳县英利雕塑建材厂变压器,留百户王建保1＃,曲阳县聚众石材厂变压器,曲阳县秀辉石材加工厂,王文兴2,立春石材雕刻厂,曲阳县大春石材雕刻厂变压器,0013343410留百户农19变压器,曲阳县燕楠园林雕塑有限公司变压器,曲阳县利欣石材工艺雕刻厂变压器,王立如(2),鑫发石材雕刻厂,留百户村北,华贤工艺石材厂,南故张刘增学,留百户王英利东,留百户王英利西,王文兴,宏达石材工艺雕刻厂,东风艺术石材厂,0000004648留百户北区变压器,曲阳县超艺雕刻石材有限公司变压器,留百户王建保2＃,杨运杰石板厂,曲阳县华通加油站变压器,杨保周,留百户王凯勋,留百户王永杰,曲阳县云祥雕刻艺术有限公司变压器,龙迟石材加工,曲阳县金梦石材雕刻厂001,曲阳县宏辉石材艺术雕刻厂,曲阳县轻工雕塑厂变压器,曲阳县兴丰石材雕刻厂变压器,曲阳县恒达石材经销处变压器,0000005963留百户统管农5#变压器【纯农排变】,曲阳县增轩石材加工厂变压器,留百户王立乾(2）,曲阳县玺钰仿古雕刻厂变压器,曲阳县福石石材雕刻厂,王东贤（2）,王成立,0013260966留百户农17变压器,留百户王立儒,曲阳县远大石料厂,曲阳县百信石材雕刻厂,曲阳县飞达石业雕刻厂,鑫阳福利石材厂,曲阳县增良石材加工厂变压器,留百户王小卢,0000005965留百户统管农7#变压器,曲阳县老多石材雕刻销售部变压器","poweroffReason":"【停电原因】由于线路换线导致３５ＫＶ邸村变电站１０ＫＶ留百户５１２线路主干４２号杆以下停电【变更送电】无【发布渠道】保定市曲阳县电视台（１０月２４日至１０月２６日１８时至２０时之间）屏幕上方滚动","powerTime":"2019-11-06 17:50:08","powerComm":"已送电","subsNo":"","lineNo":"","tgNo":"","tgName":null,"infoStatus":"1","orgName":"国网曲阳县供电公司","typeName":null,"infoStatusName":null,"dateDay":null,"orgNos":null,"nowTime":null,"countyName":null,"streetName":null,"villageName":null,"roadName":null,"communityName":null,"tranName":null,"sdLineName":null,"cityCode":"1340619","cityName":"国网曲阳县供电公司","provinceCode":null,"stopTime":"2019-11-06 18:00:00","powerType":"全部","powerOffArea":"【分支停电】停留百户农22变压器,留百户小学变压器,0013144905留百户北3变压器,0000004656留百户南区变压器,0000007212留百户北2区变压器,0000006211留百户统管农9#变压器,0012887047留百户南2区变压器,0000006646留百户统管农16#变压器【纯农排变】,0000004660留百户西区变压器,0000004665留百户东南区变压器,留百户幼儿园变压器,0014331067留百户南1区变压器,0000006553留百户统管农14#变压器,留百户北4区变压器,留百户小学2变压器,留百户北区小学变压器,留百户北1区变压器,留百户农20变压器,留百户农21变压器,0000005964留百户统管农6#变压器【纯农排变】,0012887529留百户西2区变压器,0012735110留百户东区变压器,0000006060留百户统管农灌8#变压器,0000006647留百户统管农15#变压器【纯农排变】,0000006775留百户西北区变压器,0000006415留百户统管农10#变压器,留百户中区变压器,留百户王建轻石板厂,0013341985留百户农18变压器,留百户东南（王保勋）,0544637322-曲阳县永盛雕刻石材厂-专变-47416842-曲阳县永盛雕刻石材厂变压器,王增贤,曲阳县轩达雕塑石材有限公司变压器,曲阳县勤龙石材雕刻厂变压器,曲阳县利桥石材雕刻厂变压器,曲阳县玉华风水球石材雕刻厂变压器,留百户刘现民,曲阳县云祥鑫盛石业雕刻变压器,王会儒石粉厂,曲阳县英利雕塑建材厂变压器,留百户王建保1＃,曲阳县聚众石材厂变压器,曲阳县秀辉石材加工厂,王文兴2,立春石材雕刻厂,曲阳县大春石材雕刻厂变压器,0013343410留百户农19变压器,曲阳县燕楠园林雕塑有限公司变压器,曲阳县利欣石材工艺雕刻厂变压器,王立如(2),鑫发石材雕刻厂,留百户村北,华贤工艺石材厂,南故张刘增学,留百户王英利东,留百户王英利西,王文兴,宏达石材工艺雕刻厂,东风艺术石材厂,0000004648留百户北区变压器,曲阳县超艺雕刻石材有限公司变压器,留百户王建保2＃,杨运杰石板厂,曲阳县华通加油站变压器,杨保周,留百户王凯勋,留百户王永杰,曲阳县云祥雕刻艺术有限公司变压器,龙迟石材加工,曲阳县金梦石材雕刻厂001,曲阳县宏辉石材艺术雕刻厂,曲阳县轻工雕塑厂变压器,曲阳县兴丰石材雕刻厂变压器,曲阳县恒达石材经销处变压器,0000005963留百户统管农5#变压器【纯农排变】,曲阳县增轩石材加工厂变压器,留百户王立乾(2）,曲阳县玺钰仿古雕刻厂变压器,曲阳县福石石材雕刻厂,王东贤（2）,王成立,0013260966留百户农17变压器,留百户王立儒,曲阳县远大石料厂,曲阳县百信石材雕刻厂,曲阳县飞达石业雕刻厂,鑫阳福利石材厂,曲阳县增良石材加工厂变压器,留百户王小卢,0000005965留百户统管农7#变压器,曲阳县老多石材雕刻销售部变压器","powerOffReason":"【停电原因】由于线路换线导致３５ＫＶ邸村变电站１０ＫＶ留百户５１２线路主干４２号杆以下停电【变更送电】无【发布渠道】保定市曲阳县电视台（１０月２４日至１０月２６日１８时至２０时之间）屏幕上方滚动","powerOffId":"2019102413000211"},{"poweroffId":2019102413000207,"sgpoweroffId":null,"subsName":"","lineName":"10kV515大王庄线","pubTranName":"北辛庄公用照明2台区,姜钮庄公用照明2台区,姜钮庄公用照明5台区,北辛庄公用照明1台区,姜钮庄公用照明9台区,大王庄公用照明5台区,大王庄公用照明2台区,姜钮庄公用照明8台区,北辛庄公用照明5台区,北辛庄公用照明3台区,北辛庄公用照明4台区,姜钮庄公用照明4台区,姜钮庄公用照明6台区,姜钮庄公用照明7台区,南辛庄公用照明2台区,姜钮庄公用照明1台区,南辛庄公用照明3台区,大王庄公用照明3台区,大王庄公用照明4台区,中辛庄公用照明1台区,南辛庄公用照明1台区,姜钮庄公用照明3台区,大王庄公用照明1台区,中辛庄公用照明2台区,","scope":"【影响街道/乡镇】东旺镇【高危重要客户】无【影响客户】大王庄、姜钮庄、中辛庄、北辛庄、南辛庄、城旺村南、李村店村南、赵祚村南","startTime":"2019-11-08 10:00:00","stopDate":"2019-11-08 12:30:00","orgNo":"1340610","typeCode":"计划停电","poweroffArea":"【全线路停电】停北辛庄公用照明2台区,姜钮庄公用照明1台区,南辛庄公用照明4台区1,南辛庄公用照明3台区,大王庄公用照明3台区,大王庄公用照明4台区,中辛庄公用照明4台区,中辛庄公用照明1台区,南辛庄公用照明1台区,北辛庄公用照明6台区,姜钮庄公用照明3台区,大王庄公用照明1台区,中辛庄公用照明2台区,姜钮庄公用照明2台区,姜钮庄公用照明5台区,北辛庄公用照明1台区,姜钮庄公用照明9台区,大王庄公用照明5台区,大王庄公用照明2台区,大王庄公用照明6台区,姜钮庄公用照明8台区,中辛庄公用照明3台区1,北辛庄公用照明5台区,北辛庄公用照明3台区,北辛庄公用照明4台区,姜钮庄公用照明4台区,姜钮庄公用照明6台区,姜钮庄公用照明7台区,南辛庄公用照明2台区","poweroffReason":"【停电原因】由于保护改定值导致３５ＫＶ东旺变电站１０ＫＶ５１５大王庄线路全线停电 【变更送电】无 【发布渠道】河北省定州市定州日报第三版（２０１９年１０月２５日）","powerTime":"2019-11-08 12:13:33","powerComm":"已送电","subsNo":"","lineNo":"","tgNo":"","tgName":null,"infoStatus":"1","orgName":"国网定州市供电公司","typeName":null,"infoStatusName":null,"dateDay":null,"orgNos":null,"nowTime":null,"countyName":null,"streetName":null,"villageName":null,"roadName":null,"communityName":null,"tranName":null,"sdLineName":null,"cityCode":"1340610","cityName":"国网定州市供电公司","provinceCode":null,"stopTime":"2019-11-08 12:30:00","powerType":"全部","powerOffArea":"【全线路停电】停北辛庄公用照明2台区,姜钮庄公用照明1台区,南辛庄公用照明4台区1,南辛庄公用照明3台区,大王庄公用照明3台区,大王庄公用照明4台区,中辛庄公用照明4台区,中辛庄公用照明1台区,南辛庄公用照明1台区,北辛庄公用照明6台区,姜钮庄公用照明3台区,大王庄公用照明1台区,中辛庄公用照明2台区,姜钮庄公用照明2台区,姜钮庄公用照明5台区,北辛庄公用照明1台区,姜钮庄公用照明9台区,大王庄公用照明5台区,大王庄公用照明2台区,大王庄公用照明6台区,姜钮庄公用照明8台区,中辛庄公用照明3台区1,北辛庄公用照明5台区,北辛庄公用照明3台区,北辛庄公用照明4台区,姜钮庄公用照明4台区,姜钮庄公用照明6台区,姜钮庄公用照明7台区,南辛庄公用照明2台区","powerOffReason":"【停电原因】由于保护改定值导致３５ＫＶ东旺变电站１０ＫＶ５１５大王庄线路全线停电 【变更送电】无 【发布渠道】河北省定州市定州日报第三版（２０１９年１０月２５日）","powerOffId":"2019102413000207"},{"poweroffId":2019102413000206,"sgpoweroffId":null,"subsName":"","lineName":"10KV东兴南街546","pubTranName":"商业局家属院(新),","scope":"【影响街道/乡镇】清凉寺城区 【高危重要客户】无 【影响客户】商业局家属院","startTime":"2019-10-24 11:45:42","stopDate":"2019-10-24 13:00:00","orgNo":"1340626","typeCode":"电网故障停限电","poweroffArea":"【单台区停电】停商业局家属院(新)","poweroffReason":"【停电原因】由于低压空开烧毁导致１１０ＫＶ安泰变电站１０ＫＶ东兴南街５４６线路商业局家属院（新）公变台区停电 【变更送电】因抢修进度加快原因，送电时间由１８：００变更为１３：００ 【发布渠道】通过９５５９８发布","powerTime":"2019-10-24 12:39:53","powerComm":"已送电","subsNo":"","lineNo":"","tgNo":"","tgName":null,"infoStatus":"1","orgName":"国网涿州市供电公司","typeName":null,"infoStatusName":null,"dateDay":null,"orgNos":null,"nowTime":null,"countyName":null,"streetName":null,"villageName":null,"roadName":null,"communityName":null,"tranName":null,"sdLineName":null,"cityCode":"1340626","cityName":"国网涿州市供电公司","provinceCode":null,"stopTime":"2019-10-24 13:00:00","powerType":"全部","powerOffArea":"【单台区停电】停商业局家属院(新)","powerOffReason":"【停电原因】由于低压空开烧毁导致１１０ＫＶ安泰变电站１０ＫＶ东兴南街５４６线路商业局家属院（新）公变台区停电 【变更送电】因抢修进度加快原因，送电时间由１８：００变更为１３：００ 【发布渠道】通过９５５９８发布","powerOffId":"2019102413000206"},{"poweroffId":2019102413000200,"sgpoweroffId":null,"subsName":"","lineName":"10kV553杨家庄线","pubTranName":"东马家寨公用照明7台区,杨家庄公用照明2台区,（34）石板村公用照明3台区,杨家庄公用照明3台区,马家寨公用照明3台区1,提催邱公用照明2台区,石板村公用照明2台区,八里店公用照明15台区,杨家庄公用照明7台区,东马家寨公用照明6台区,东马家寨公用照明1台区,（3）霍羊平村公用照明1台区,石板公用照明1台区,提催邱公用照明1台区,彭家庄公用照明2台区,吴羊平公用照明1台区,仝家庄公用照明10台区,霍羊平村公用照明2台区,石板公用照明5台区,吴羊平公用照明2台区,马家寨公用照明5台区1,杨家庄公用照明4台区,（67）刘催邱村公用照明2台区,（15）杨家庄村公用照明1台区,石板公用照明4台区,杨家庄公用照明8台区,马家寨公用照明8台区,东马家寨公用照明2台区,杨家庄公用照明6台区,刘催邱公用照明1台区,马家寨公用照明10台区,马家寨公用照明4台区1,杨家庄公用照明5台区,","scope":"【影响街道/乡镇】南城区、杨家庄乡【高危重要客户】无【影响客户】刘崔邱、杨家庄、吴羊平、霍阳平、东马家寨、石板、提催邱、彭家庄、东汶村、八里店、仝家庄","startTime":"2019-11-08 06:00:00","stopDate":"2019-11-08 20:00:00","orgNo":"1340610","typeCode":"计划停电","poweroffArea":"【全线路停电】停东马家寨公用照明7台区,杨家庄公用照明2台区,（34）石板村公用照明3台区,杨家庄公用照明3台区,马家寨公用照明3台区1,提催邱公用照明2台区,石板村公用照明2台区,杨家庄公用照明5台区,八里店公用照明15台区,杨家庄公用照明7台区,东马家寨公用照明6台区,东马家寨公用照明1台区,（3）霍羊平村公用照明1台区,石板公用照明1台区,提催邱公用照明1台区,彭家庄公用照明2台区,吴羊平公用照明1台区,仝家庄公用照明10台区,霍羊平村公用照明2台区,石板公用照明5台区,吴羊平公用照明2台区,马家寨公用照明5台区1,杨家庄公用照明4台区,（67）刘催邱村公用照明2台区,（15）杨家庄村公用照明1台区,石板公用照明4台区,杨家庄公用照明8台区,马家寨公用照明8台区,东马家寨公用照明2台区,杨家庄公用照明6台区,刘催邱公用照明1台区,马家寨公用照明10台区,马家寨公用照明4台区1","poweroffReason":"【停电原因】由于更换变压器、ＪＰ柜导致１１０ＫＶ叮咛店变电站１０ＫＶ５５３杨家庄线路全线停电 【变更送电】无 【发布渠道】河北省定州市定州日报第三版（２０１９年１０月２５日）","powerTime":"2019-11-08 19:10:22","powerComm":"已送电","subsNo":"","lineNo":"","tgNo":"","tgName":null,"infoStatus":"1","orgName":"国网定州市供电公司","typeName":null,"infoStatusName":null,"dateDay":null,"orgNos":null,"nowTime":null,"countyName":null,"streetName":null,"villageName":null,"roadName":null,"communityName":null,"tranName":null,"sdLineName":null,"cityCode":"1340610","cityName":"国网定州市供电公司","provinceCode":null,"stopTime":"2019-11-08 20:00:00","powerType":"全部","powerOffArea":"【全线路停电】停东马家寨公用照明7台区,杨家庄公用照明2台区,（34）石板村公用照明3台区,杨家庄公用照明3台区,马家寨公用照明3台区1,提催邱公用照明2台区,石板村公用照明2台区,杨家庄公用照明5台区,八里店公用照明15台区,杨家庄公用照明7台区,东马家寨公用照明6台区,东马家寨公用照明1台区,（3）霍羊平村公用照明1台区,石板公用照明1台区,提催邱公用照明1台区,彭家庄公用照明2台区,吴羊平公用照明1台区,仝家庄公用照明10台区,霍羊平村公用照明2台区,石板公用照明5台区,吴羊平公用照明2台区,马家寨公用照明5台区1,杨家庄公用照明4台区,（67）刘催邱村公用照明2台区,（15）杨家庄村公用照明1台区,石板公用照明4台区,杨家庄公用照明8台区,马家寨公用照明8台区,东马家寨公用照明2台区,杨家庄公用照明6台区,刘催邱公用照明1台区,马家寨公用照明10台区,马家寨公用照明4台区1","powerOffReason":"【停电原因】由于更换变压器、ＪＰ柜导致１１０ＫＶ叮咛店变电站１０ＫＶ５５３杨家庄线路全线停电 【变更送电】无 【发布渠道】河北省定州市定州日报第三版（２０１９年１０月２５日）","powerOffId":"2019102413000200"},{"poweroffId":2019102413000199,"sgpoweroffId":null,"subsName":"","lineName":"台北线513","pubTranName":"0000006084东邸村农十一变压器【纯农排变】,0012887524东邸村西北区变压器,0000006074东邸村农一变压器【纯农排变】,东邸村中学2变压器,0000005433东邸村东区变压器,东邸村小学2变压器,东邸村东2区变压器,东邸村东3区变压器,东邸村中区配电变压器,0000006316北东郭西2变压器,邸村乡政府变压器,0000006076东邸村农三变压器,0012330757东邸村南区变压器,东邸村中学变压器,0000006075东邸村农二变压器【纯农排变】,东邸村小学变压器,0000005858东邸村统管变压器,","scope":"【影响街道/乡镇】邸村乡【高危重要客户】无【影响客户】南东郭部分、东邸村","startTime":"2019-11-05 05:00:00","stopDate":"2019-11-05 18:00:00","orgNo":"1340619","typeCode":"计划停电","poweroffArea":"【分支停电】停曲阳县东邸村老李免烧砖厂,0000006077东邸村农四变压器,0000005433东邸村东区变压器,曲阳县奇新石材销售部变压器,东邸村小学2变压器,东邸村东2区变压器,东邸村东3区变压器,东邸村中区配电变压器,0000006316北东郭西2变压器,邸村乡政府变压器,0000006076东邸村农三变压器,0012330757东邸村南区变压器,0000006628南东郭农8号变压器,东邸村中学变压器,0000006075东邸村农二变压器【纯农排变】,0671345019-曲阳县京世粮食贸易有限公司-专变-212317181-曲阳县京世粮食贸易有限公司变压器,东邸村小学变压器,曲阳县泽睿农机配件有限公司变压器2,0000005858东邸村统管变压器,0000006084东邸村农十一变压器【纯农排变】,0012887524东邸村西北区变压器,0000006074东邸村农一变压器【纯农排变】,东邸村中学2变压器,东邸村乡东邸村委会,东邸村乡东邸村委会（东）","poweroffReason":"【停电原因】由于线路换线导致３５ＫＶ邸村变电站１０ＫＶ台北５１３线路东邸村支线００３号杆ＤＣ５１３－０１断路器以下停电【变更送电】无【发布渠道】保定市曲阳县电视台（１０月２４日至１０月２６日１８时至２０时之间）屏幕上方滚动","powerTime":"2019-11-05 17:49:31","powerComm":"已送电","subsNo":"","lineNo":"","tgNo":"","tgName":null,"infoStatus":"1","orgName":"国网曲阳县供电公司","typeName":null,"infoStatusName":null,"dateDay":null,"orgNos":null,"nowTime":null,"countyName":null,"streetName":null,"villageName":null,"roadName":null,"communityName":null,"tranName":null,"sdLineName":null,"cityCode":"1340619","cityName":"国网曲阳县供电公司","provinceCode":null,"stopTime":"2019-11-05 18:00:00","powerType":"全部","powerOffArea":"【分支停电】停曲阳县东邸村老李免烧砖厂,0000006077东邸村农四变压器,0000005433东邸村东区变压器,曲阳县奇新石材销售部变压器,东邸村小学2变压器,东邸村东2区变压器,东邸村东3区变压器,东邸村中区配电变压器,0000006316北东郭西2变压器,邸村乡政府变压器,0000006076东邸村农三变压器,0012330757东邸村南区变压器,0000006628南东郭农8号变压器,东邸村中学变压器,0000006075东邸村农二变压器【纯农排变】,0671345019-曲阳县京世粮食贸易有限公司-专变-212317181-曲阳县京世粮食贸易有限公司变压器,东邸村小学变压器,曲阳县泽睿农机配件有限公司变压器2,0000005858东邸村统管变压器,0000006084东邸村农十一变压器【纯农排变】,0012887524东邸村西北区变压器,0000006074东邸村农一变压器【纯农排变】,东邸村中学2变压器,东邸村乡东邸村委会,东邸村乡东邸村委会（东）","powerOffReason":"【停电原因】由于线路换线导致３５ＫＶ邸村变电站１０ＫＶ台北５１３线路东邸村支线００３号杆ＤＣ５１３－０１断路器以下停电【变更送电】无【发布渠道】保定市曲阳县电视台（１０月２４日至１０月２６日１８时至２０时之间）屏幕上方滚动","powerOffId":"2019102413000199"},{"poweroffId":2019102413000195,"sgpoweroffId":null,"subsName":"","lineName":"10kV554庞家佐线","pubTranName":"东汶公用照明2台区,西汶村公用照明3台区,西汶村公用照明4台区,庞家佐村公用照明2台区,庞家佐公用照明5台区,（61）东朱谷村公用照明4台区,石家佐公用照明1台区,东汶村公用照明3台区,东汶公用照明1台区,庞家佐村公用照明3台区,庞家佐公用照明4台区,石家佐公用照明2台区,西汶村公用照明2台区,庞家佐公用照明7台区,（198）庞家佐村公用照明1台区,牛村公用照明8台区,（5）西汶村公用照明1台区,东朱谷公用照明8台区,庞家佐公用照明6台区,","scope":"【影响街道/乡镇】南城区【高危重要客户】无【影响客户】东朱谷、庞家佐、石家佐、东汶村、西汶村、牛村","startTime":"2019-11-08 06:00:00","stopDate":"2019-11-08 20:00:00","orgNo":"1340610","typeCode":"计划停电","poweroffArea":"【全线路停电】停东汶公用照明2台区,西汶村公用照明3台区,西汶村公用照明4台区,庞家佐村公用照明2台区,庞家佐公用照明5台区,（61）东朱谷村公用照明4台区,石家佐公用照明1台区,东汶村公用照明3台区,东汶公用照明1台区,庞家佐村公用照明3台区,庞家佐公用照明4台区,石家佐公用照明2台区,西汶村公用照明2台区,庞家佐公用照明7台区,（198）庞家佐村公用照明1台区,牛村公用照明8台区,（5）西汶村公用照明1台区,东朱谷公用照明8台区,庞家佐公用照明6台区","poweroffReason":"【停电原因】由于更换变压器、ＪＰ柜导致１１０ＫＶ叮咛店变电站１０ＫＶ５５４庞家佐线路全线停电 【变更送电】无 【发布渠道】河北省定州市定州日报第三版（２０１９年１０月２５日）","powerTime":"2019-11-08 19:10:40","powerComm":"已送电","subsNo":"","lineNo":"","tgNo":"","tgName":null,"infoStatus":"1","orgName":"国网定州市供电公司","typeName":null,"infoStatusName":null,"dateDay":null,"orgNos":null,"nowTime":null,"countyName":null,"streetName":null,"villageName":null,"roadName":null,"communityName":null,"tranName":null,"sdLineName":null,"cityCode":"1340610","cityName":"国网定州市供电公司","provinceCode":null,"stopTime":"2019-11-08 20:00:00","powerType":"全部","powerOffArea":"【全线路停电】停东汶公用照明2台区,西汶村公用照明3台区,西汶村公用照明4台区,庞家佐村公用照明2台区,庞家佐公用照明5台区,（61）东朱谷村公用照明4台区,石家佐公用照明1台区,东汶村公用照明3台区,东汶公用照明1台区,庞家佐村公用照明3台区,庞家佐公用照明4台区,石家佐公用照明2台区,西汶村公用照明2台区,庞家佐公用照明7台区,（198）庞家佐村公用照明1台区,牛村公用照明8台区,（5）西汶村公用照明1台区,东朱谷公用照明8台区,庞家佐公用照明6台区","powerOffReason":"【停电原因】由于更换变压器、ＪＰ柜导致１１０ＫＶ叮咛店变电站１０ＫＶ５５４庞家佐线路全线停电 【变更送电】无 【发布渠道】河北省定州市定州日报第三版（２０１９年１０月２５日）","powerOffId":"2019102413000195"},{"poweroffId":2019102413000181,"sgpoweroffId":null,"subsName":"","lineName":"10kV539羊平线","pubTranName":"大羊平公用照明3台区,小陈村公用照明4台区,大陈村公用照明7台区,客户投资_大陈村公用照明一台区,小陈村公用照明5台区,客户投资_大陈村公用照明二台区,大羊平公用照明4台区,寺羊平村公用照明一台区,大陈村公用照明9台区,小陈村公用照明二台区,大陈村公用照明3台区,大陈村公用照明4台区,小陈村公用照明7台区,寺羊平公用照明2台区,大陈村公用照明6台区,大羊平村公用照明二台区,大陈村公用照明8台区,小陈村公用照明6台区,大陈村公用照明5台区,小陈村公用照明3台区,大羊平村公用照明一台区,小陈村公用照明一台区,","scope":"【影响街道/乡镇】杨家庄乡、东亭镇【高危重要客户】无【影响客户】大羊平、寺羊平、大陈村、小陈村、东亭","startTime":"2019-11-08 07:00:00","stopDate":"2019-11-08 19:30:00","orgNo":"1340610","typeCode":"计划停电","poweroffArea":"【全线路停电】停客户投资_大陈村公用照明一台区,客户投资_大陈村公用照明二台区,大陈村公用照明9台区,大羊平公用照明3台区,小陈村公用照明4台区,大陈村公用照明7台区,小陈村公用照明5台区,大羊平公用照明4台区,寺羊平村公用照明一台区,小陈村公用照明二台区,大陈村公用照明3台区,大陈村公用照明4台区,小陈村公用照明7台区,寺羊平公用照明2台区,大陈村公用照明6台区,大羊平村公用照明二台区,大陈村公用照明8台区,小陈村公用照明6台区,大陈村公用照明5台区,小陈村公用照明3台区,大羊平村公用照明一台区,小陈村公用照明一台区","poweroffReason":"【停电原因】由于更换变压器、ＪＰ柜导致１１０ＫＶ东亭变电站１０ＫＶ５３９羊平线路全线停电 【变更送电】无 【发布渠道】河北省定州市定州日报第三版（２０１９年１０月２５日）","powerTime":"2019-11-08 18:40:46","powerComm":"已送电","subsNo":"","lineNo":"","tgNo":"","tgName":null,"infoStatus":"1","orgName":"国网定州市供电公司","typeName":null,"infoStatusName":null,"dateDay":null,"orgNos":null,"nowTime":null,"countyName":null,"streetName":null,"villageName":null,"roadName":null,"communityName":null,"tranName":null,"sdLineName":null,"cityCode":"1340610","cityName":"国网定州市供电公司","provinceCode":null,"stopTime":"2019-11-08 19:30:00","powerType":"全部","powerOffArea":"【全线路停电】停客户投资_大陈村公用照明一台区,客户投资_大陈村公用照明二台区,大陈村公用照明9台区,大羊平公用照明3台区,小陈村公用照明4台区,大陈村公用照明7台区,小陈村公用照明5台区,大羊平公用照明4台区,寺羊平村公用照明一台区,小陈村公用照明二台区,大陈村公用照明3台区,大陈村公用照明4台区,小陈村公用照明7台区,寺羊平公用照明2台区,大陈村公用照明6台区,大羊平村公用照明二台区,大陈村公用照明8台区,小陈村公用照明6台区,大陈村公用照明5台区,小陈村公用照明3台区,大羊平村公用照明一台区,小陈村公用照明一台区","powerOffReason":"【停电原因】由于更换变压器、ＪＰ柜导致１１０ＫＶ东亭变电站１０ＫＶ５３９羊平线路全线停电 【变更送电】无 【发布渠道】河北省定州市定州日报第三版（２０１９年１０月２５日）","powerOffId":"2019102413000181"},{"poweroffId":2019102413000176,"sgpoweroffId":null,"subsName":"","lineName":"10kV516镇政府线","pubTranName":"大辛庄中学公用照明1台区,大辛庄镇政府公用照明1台区,东四旺公用照明4台区,大辛庄镇政府公用照明2台区,","scope":"【影响街道/乡镇】大辛庄镇【高危重要客户】无【影响客户】镇政府、 大辛庄中学","startTime":"2019-11-03 07:00:00","stopDate":"2019-11-03 17:00:00","orgNo":"1340610","typeCode":"计划停电","poweroffArea":"【全线路停电】停大辛庄中学公用照明1台区,大辛庄镇政府公用照明1台区,东四旺公用照明4台区,大辛庄镇政府公用照明2台区","poweroffReason":"【停电原因】由于站内设备例行试验导致３５ＫＶ大辛庄变电站１０ＫＶ５１６镇政府线路全线停电 【变更送电】因抢修进度加快原因，送电时间由１８：００变更为１７：００ 【发布渠道】河北省定州市定州日报第三版（２０１９年１０月２５日）","powerTime":"2019-11-03 16:41:03","powerComm":"已送电","subsNo":"","lineNo":"","tgNo":"","tgName":null,"infoStatus":"1","orgName":"国网定州市供电公司","typeName":null,"infoStatusName":null,"dateDay":null,"orgNos":null,"nowTime":null,"countyName":null,"streetName":null,"villageName":null,"roadName":null,"communityName":null,"tranName":null,"sdLineName":null,"cityCode":"1340610","cityName":"国网定州市供电公司","provinceCode":null,"stopTime":"2019-11-03 17:00:00","powerType":"全部","powerOffArea":"【全线路停电】停大辛庄中学公用照明1台区,大辛庄镇政府公用照明1台区,东四旺公用照明4台区,大辛庄镇政府公用照明2台区","powerOffReason":"【停电原因】由于站内设备例行试验导致３５ＫＶ大辛庄变电站１０ＫＶ５１６镇政府线路全线停电 【变更送电】因抢修进度加快原因，送电时间由１８：００变更为１７：００ 【发布渠道】河北省定州市定州日报第三版（２０１９年１０月２５日）","powerOffId":"2019102413000176"},{"poweroffId":2019102413000172,"sgpoweroffId":null,"subsName":"","lineName":"10kV512西柴里线","pubTranName":"佛店公用照明5台区,西柴里公用照明11台区,西柴里公用照明1台区,西柴里公用照明5台区,曲头村公用照明1台区,佛店村公用照明4台区,佛店村公用照明3台区,佛店公用照明6台区,西柴里公用照明3台区,西柴里公用照明4台区,佛店村公用照明2台区,西柴里公用照明10台区,西柴里公用照明9台区,西柴里公用照明7台区,西柴里公用照明2台区,佛店公用照明7台区,曲头公用照明3台区,曲头公用照明2台区,佛店公用照明9台区,佛店村公用照明1台区,佛店公用照明8台区,西柴里公用照明6台区,西柴里公用照明8台区,","scope":"【影响街道/乡镇】东留春乡、号头庄乡【高危重要客户】无【影响客户】曲头、西柴里、佛店","startTime":"2019-11-09 06:50:00","stopDate":"2019-11-09 16:30:00","orgNo":"1340610","typeCode":"计划停电","poweroffArea":"【分支停电】停曲头公用照明2台区,西柴里公用照明12台区,","poweroffReason":"【停电原因】由于更换导线导致３５ＫＶ刘良庄变电站１０ＫＶ５１２西柴里线路主干８９号杆０１号断路器以下线路停电 【变更送电】因抢修进度加快原因，送电时间由１７：３０变更为１６：３０ 【发布渠道】河北省定州市定州日报第三版（２０１９年１０月２５日）","powerTime":"2019-11-09 16:10:18","powerComm":"已送电","subsNo":"","lineNo":"","tgNo":"","tgName":null,"infoStatus":"1","orgName":"国网定州市供电公司","typeName":null,"infoStatusName":null,"dateDay":null,"orgNos":null,"nowTime":null,"countyName":null,"streetName":null,"villageName":null,"roadName":null,"communityName":null,"tranName":null,"sdLineName":null,"cityCode":"1340610","cityName":"国网定州市供电公司","provinceCode":null,"stopTime":"2019-11-09 16:30:00","powerType":"全部","powerOffArea":"【分支停电】停曲头公用照明2台区,西柴里公用照明12台区,","powerOffReason":"【停电原因】由于更换导线导致３５ＫＶ刘良庄变电站１０ＫＶ５１２西柴里线路主干８９号杆０１号断路器以下线路停电 【变更送电】因抢修进度加快原因，送电时间由１７：３０变更为１６：３０ 【发布渠道】河北省定州市定州日报第三版（２０１９年１０月２５日）","powerOffId":"2019102413000172"}],"pageModel":{"pageNow":462,"totalCount":10973,"totalPage":1098,"tableRows":0,"pageCount":10,"beginCount":4610},"isExperi":"1"}