{"message":"","today":"2020-06-15","seleList":[{"poweroffId":2019102313000014,"sgpoweroffId":null,"subsName":"","lineName":"阳光线521","pubTranName":"建安变压器,付庄变压器,电力花园2号箱变间隔配电变压器,付庄小区变压器,付庄北台变压器,付庄3变压器,职中变压器,闫家务东1变压器,付庄2变压器,锅炉厂公变,环岛公变变压器,付庄1变压器,闫家务南1变压器,富民路公变变压器,检察院公变1,电力花园3号箱变间隔配电变压器,闫家务南变压器,电力花园1号箱变间隔配电变压器,农发行公变,付庄小区箱变变压器,老地税公变,付庄东变压器,新世纪公变,","scope":"【影响街道/乡镇】迎宾东路、新昌大街、光华南大街、兴文街、文苑路、富民路、民欣胡同 【高危重要客户】无 【影响客户】付庄村、闫家务村、电力花园小区、付庄小区、地税小区、新检察院小区、中国人行小区、锅炉辅机平房、建安公寓、职中门脸、农行家属楼、公园大道小区、金都小区、诺林湾三期、邮政小区、天平小区、新城国税所平房、职中家属楼、职中平房、阳光商厦、河北向鑫机电设备有限公司、家兴商贸、兴泰房地产、双硕物业、实达物业、检察院、李小北、锅炉辅机厂、中国邮政集团高碑店市分公司、付庄面粉厂、福利风机厂、五处大修厂（游乐堡）、高建集团建装公司、付庄基地（十八局四处基地）、河北鼎誉房地产、河北创世房地产（安洁物业）、徐金峰、人民防空办公室、高碑店明仁眼科医院、中国石油保定１１９站、河北高碑店农村商业银行（张八屯信用社）、新华书店、卫生和计划生育局、中国人民银行","startTime":"2019-11-01 06:30:00","stopDate":"2019-11-01 13:30:00","orgNo":"1340612","typeCode":"计划停电","poweroffArea":"【全线路停电】停0562791183-保定津联物业服务有限公司-专变-118501320-天津市兴建房地产开发公司（金都3号）2#,职中变压器,高碑店市人民防空办公室变压器,天津市兴建房地产开发公司（金都3号）5#,高碑店市人民法院变压器,农发行公变,河北宝姚水泵制造有限公司,高碑店市兴泰房地产开发有限公司1,付庄3变压器,河北华达公路工程咨询监理有限公司变压器01,河北创世房地产开发有限公司变压器02,高碑店市强林物业服务有限公司变压器,高碑店市路灯管理办公室（东环岛路灯）变压器,闫家务东1变压器,高碑店市鑫远房地产开发有限公司变压器02,高碑店市人民法院,闫家务东变压器,天津市兴建房地产开发公司（金都3号）6#,电力花园1号箱变间隔配电变压器,付庄小区箱变变压器,高碑店市路灯管理办公室变压器,建安变压器,高碑店市路灯管理办公室（富民路路灯变压器,付庄2变压器,锅炉厂公变,天津市兴建房地产开发公司（金都3号）7#,高碑店市城市管理综合执法局迎宾路2号,高碑店市国家税务局,环岛公变变压器,付庄1变压器,付庄基地,邮政局,高碑店市地方税务局,徐金峰变压器,人行,闫家务南1变压器,河北创世房地产开发有限公司变压器01,锅炉辅机厂,检察院,天津市兴建房地产开发公司（金都3号）3#变压器,高碑店市鑫远房地产开发有限公司变压器04,高碑店市鑫远房地产开发有限公司变压器03,福利风机厂,高碑店市兴泰房地产开发有限公司2,富民路公变变压器,检察院公变1,高碑店市鑫远房地产开发有限公司变压器01,河北创世房地产开发有限公司(安洁物业),0696412691-高碑店市德安房地产开发有限公司02,张八屯信用社,诺林湾3期,天奕商厦2号箱变,高碑店明仁眼科医院,电力花园3号箱变间隔配电变压器,闫家务南变压器,0562791066-保定津联物业服务有限公司-专变-118501293-天津市兴建房地产开发公司（金都花园2号）变压器,环岛高杆灯,天奕商厦1#,高建集团建装公司,新华书店,天津市兴建房地产开发公司（金都花园2号）变压器,中国石油保定119站,付庄变压器,电力花园2号箱变间隔配电变压器,付庄面粉厂,高碑店市卫生和计划生育局,新世纪公变,李小北,河北华达公路工程咨询监理有限公司变压器02,付庄小区变压器,付庄北台变压器,老地税公变,天津市兴建房地产开发公司（金都3号）1#,0696412691-高碑店市德安房地产开发有限公司01,0696412691-高碑店市德安房地产开发有限公司03,付庄东变压器,付庄面粉厂2,天津市兴建房地产开发公司（金都3号）4#,五处大修厂","poweroffReason":"【停电原因】由于更换电缆、安装刀闸导致１１０ＫＶ马庄变电站１０ＫＶ阳光５２１线路全线停电 【变更送电】因抢修进度加快原因，送电时间由１５：００变更为１３：３０ 【发布渠道】高碑店市高碑店电视台（１０月２４日０８时至１０月３１日１８时之间）屏幕上方滚动","powerTime":"2019-11-01 13:00:35","powerComm":"已送电","subsNo":"","lineNo":"","tgNo":"","tgName":null,"infoStatus":"1","orgName":"国网高碑店市供电公司","typeName":null,"infoStatusName":null,"dateDay":null,"orgNos":null,"nowTime":null,"countyName":null,"streetName":null,"villageName":null,"roadName":null,"communityName":null,"tranName":null,"sdLineName":null,"cityCode":"1340612","cityName":"国网高碑店市供电公司","provinceCode":null,"stopTime":"2019-11-01 13:30:00","powerType":"全部","powerOffArea":"【全线路停电】停0562791183-保定津联物业服务有限公司-专变-118501320-天津市兴建房地产开发公司（金都3号）2#,职中变压器,高碑店市人民防空办公室变压器,天津市兴建房地产开发公司（金都3号）5#,高碑店市人民法院变压器,农发行公变,河北宝姚水泵制造有限公司,高碑店市兴泰房地产开发有限公司1,付庄3变压器,河北华达公路工程咨询监理有限公司变压器01,河北创世房地产开发有限公司变压器02,高碑店市强林物业服务有限公司变压器,高碑店市路灯管理办公室（东环岛路灯）变压器,闫家务东1变压器,高碑店市鑫远房地产开发有限公司变压器02,高碑店市人民法院,闫家务东变压器,天津市兴建房地产开发公司（金都3号）6#,电力花园1号箱变间隔配电变压器,付庄小区箱变变压器,高碑店市路灯管理办公室变压器,建安变压器,高碑店市路灯管理办公室（富民路路灯变压器,付庄2变压器,锅炉厂公变,天津市兴建房地产开发公司（金都3号）7#,高碑店市城市管理综合执法局迎宾路2号,高碑店市国家税务局,环岛公变变压器,付庄1变压器,付庄基地,邮政局,高碑店市地方税务局,徐金峰变压器,人行,闫家务南1变压器,河北创世房地产开发有限公司变压器01,锅炉辅机厂,检察院,天津市兴建房地产开发公司（金都3号）3#变压器,高碑店市鑫远房地产开发有限公司变压器04,高碑店市鑫远房地产开发有限公司变压器03,福利风机厂,高碑店市兴泰房地产开发有限公司2,富民路公变变压器,检察院公变1,高碑店市鑫远房地产开发有限公司变压器01,河北创世房地产开发有限公司(安洁物业),0696412691-高碑店市德安房地产开发有限公司02,张八屯信用社,诺林湾3期,天奕商厦2号箱变,高碑店明仁眼科医院,电力花园3号箱变间隔配电变压器,闫家务南变压器,0562791066-保定津联物业服务有限公司-专变-118501293-天津市兴建房地产开发公司（金都花园2号）变压器,环岛高杆灯,天奕商厦1#,高建集团建装公司,新华书店,天津市兴建房地产开发公司（金都花园2号）变压器,中国石油保定119站,付庄变压器,电力花园2号箱变间隔配电变压器,付庄面粉厂,高碑店市卫生和计划生育局,新世纪公变,李小北,河北华达公路工程咨询监理有限公司变压器02,付庄小区变压器,付庄北台变压器,老地税公变,天津市兴建房地产开发公司（金都3号）1#,0696412691-高碑店市德安房地产开发有限公司01,0696412691-高碑店市德安房地产开发有限公司03,付庄东变压器,付庄面粉厂2,天津市兴建房地产开发公司（金都3号）4#,五处大修厂","powerOffReason":"【停电原因】由于更换电缆、安装刀闸导致１１０ＫＶ马庄变电站１０ＫＶ阳光５２１线路全线停电 【变更送电】因抢修进度加快原因，送电时间由１５：００变更为１３：３０ 【发布渠道】高碑店市高碑店电视台（１０月２４日０８时至１０月３１日１８时之间）屏幕上方滚动","powerOffId":"2019102313000014"},{"poweroffId":2019102313000010,"sgpoweroffId":null,"subsName":"","lineName":"10kV中相578","pubTranName":"王各庄0975,","scope":"【影响街道/乡镇】豆庄乡 【高危重要客户】无 【影响客户】王各庄","startTime":"2019-11-02 07:30:00","stopDate":"2019-11-02 18:00:00","orgNo":"1340626","typeCode":"计划停电","poweroffArea":"【单台区停电】停王各庄0975","poweroffReason":"【停电原因】由于架设导线工程导致２２０ＫＶ豆庄变电站１０ＫＶ中相５７８线路王各庄０９７５公变台区停电 【变更送电】无 【发布渠道】涿州电视台（１０月２３日至１１月０１日２１：００播放２次）屏幕上方滚动","powerTime":"2019-11-02 17:34:52","powerComm":"恢复送电","subsNo":"","lineNo":"","tgNo":"","tgName":null,"infoStatus":"1","orgName":"国网涿州市供电公司","typeName":null,"infoStatusName":null,"dateDay":null,"orgNos":null,"nowTime":null,"countyName":null,"streetName":null,"villageName":null,"roadName":null,"communityName":null,"tranName":null,"sdLineName":null,"cityCode":"1340626","cityName":"国网涿州市供电公司","provinceCode":null,"stopTime":"2019-11-02 18:00:00","powerType":"全部","powerOffArea":"【单台区停电】停王各庄0975","powerOffReason":"【停电原因】由于架设导线工程导致２２０ＫＶ豆庄变电站１０ＫＶ中相５７８线路王各庄０９７５公变台区停电 【变更送电】无 【发布渠道】涿州电视台（１０月２３日至１１月０１日２１：００播放２次）屏幕上方滚动","powerOffId":"2019102313000010"},{"poweroffId":2019102313000007,"sgpoweroffId":null,"subsName":"","lineName":"10kV东北郊站529线路","pubTranName":"C378柱上变压器,","scope":"【影响街道/乡镇】东金庄乡 【高危重要客户】无 【影响客户】后辛庄","startTime":"2019-10-23 08:20:00","stopDate":"2019-10-23 10:00:00","orgNo":"13406","typeCode":"电网故障停限电","poweroffArea":"【单台区停电】停C378柱上变压器","poweroffReason":"【停电原因】由于低压保险片烧导致１０ＫＶ东北郊变电站５２９线路Ｃ３７８公变台区停电【变更送电】无【发布渠道】通过９５５９８发布","powerTime":"2019-10-23 09:50:19","powerComm":"已送电","subsNo":"","lineNo":"","tgNo":"","tgName":null,"infoStatus":"1","orgName":"保定供电公司","typeName":null,"infoStatusName":null,"dateDay":null,"orgNos":null,"nowTime":null,"countyName":null,"streetName":null,"villageName":null,"roadName":null,"communityName":null,"tranName":null,"sdLineName":null,"cityCode":"13406","cityName":"保定供电公司","provinceCode":null,"stopTime":"2019-10-23 10:00:00","powerType":"全部","powerOffArea":"【单台区停电】停C378柱上变压器","powerOffReason":"【停电原因】由于低压保险片烧导致１０ＫＶ东北郊变电站５２９线路Ｃ３７８公变台区停电【变更送电】无【发布渠道】通过９５５９８发布","powerOffId":"2019102313000007"},{"poweroffId":2019102313000005,"sgpoweroffId":null,"subsName":"","lineName":"山南线517","pubTranName":"麻屋庄3#村南,","scope":"【影响街道/乡镇】桥头乡【高危重要客户】无【影响客户】麻屋庄村","startTime":"2019-10-23 08:11:26","stopDate":"2019-10-23 12:00:00","orgNo":"1340625","typeCode":"电网故障停限电","poweroffArea":"【单台区停电】停麻屋庄3#村南","poweroffReason":"【停电原因】由于低压线路故障导致１１０ＫＶ易县变电站山南５１７线路麻屋庄村３＃公变台区停电【变更送电】无【发布渠道】通过９５５９８发布","powerTime":"2019-10-23 11:28:37","powerComm":"已送电","subsNo":"","lineNo":"","tgNo":"","tgName":null,"infoStatus":"1","orgName":"国网易县供电公司","typeName":null,"infoStatusName":null,"dateDay":null,"orgNos":null,"nowTime":null,"countyName":null,"streetName":null,"villageName":null,"roadName":null,"communityName":null,"tranName":null,"sdLineName":null,"cityCode":"1340625","cityName":"国网易县供电公司","provinceCode":null,"stopTime":"2019-10-23 12:00:00","powerType":"全部","powerOffArea":"【单台区停电】停麻屋庄3#村南","powerOffReason":"【停电原因】由于低压线路故障导致１１０ＫＶ易县变电站山南５１７线路麻屋庄村３＃公变台区停电【变更送电】无【发布渠道】通过９５５９８发布","powerOffId":"2019102313000005"},{"poweroffId":2019102213000416,"sgpoweroffId":null,"subsName":"","lineName":"10kV羊道548线","pubTranName":"下庄8#公用配变,花山公用,下庄7#公用配变,花山1#,菜池9#公用配变,菜池2#公用配变,菜池12#公用配变,菜池5#公用配变,二道庄2#公用配变,二道庄3#公用配变,大岸底7#公用配变,","scope":"【影响街道/乡镇】城南庄镇、下庄乡 【高危重要客户】无 【影响客户】干石沟、湾子、下庄村、面盆、羊道、花塔、旧营、二道庄、锯齿沟、大沙地、桑林坪、河北坡、口上村","startTime":"2019-11-09 06:30:00","stopDate":"2019-11-09 17:00:00","orgNo":"1340611","typeCode":"计划停电","poweroffArea":"【分支停电】停下庄7#公用配变,二道庄2#公用配变,二道庄3#公用配变,下庄8#公用配变,菜池5#公用配变,菜池9#公用配变","poweroffReason":"【停电原因】由于引线搭接导致１１０ＫＶ桑地变电站１０ＫＶ羊道５４８线路主干１１６号杆５４８－４号刀闸动触头及以下线路停电 【变更送电】无 【发布渠道】保定市阜平电视台（１０月２３日０９时至１１月８日１１时）飞播","powerTime":"2019-11-09 16:48:37","powerComm":"全部恢复送电","subsNo":"","lineNo":"","tgNo":"","tgName":null,"infoStatus":"1","orgName":"国网阜平县供电公司","typeName":null,"infoStatusName":null,"dateDay":null,"orgNos":null,"nowTime":null,"countyName":null,"streetName":null,"villageName":null,"roadName":null,"communityName":null,"tranName":null,"sdLineName":null,"cityCode":"1340611","cityName":"国网阜平县供电公司","provinceCode":null,"stopTime":"2019-11-09 17:00:00","powerType":"全部","powerOffArea":"【分支停电】停下庄7#公用配变,二道庄2#公用配变,二道庄3#公用配变,下庄8#公用配变,菜池5#公用配变,菜池9#公用配变","powerOffReason":"【停电原因】由于引线搭接导致１１０ＫＶ桑地变电站１０ＫＶ羊道５４８线路主干１１６号杆５４８－４号刀闸动触头及以下线路停电 【变更送电】无 【发布渠道】保定市阜平电视台（１０月２３日０９时至１１月８日１１时）飞播","powerOffId":"2019102213000416"},{"poweroffId":2019102213000411,"sgpoweroffId":null,"subsName":"","lineName":"10kV东城铺511线","pubTranName":"东城铺3#配变,小花沟1#配变,小花沟2#配变,李家庄2#配变,营岗1#配变,革新庄2#配变,光城4#配变,黄连峪2#配变,黄连峪3#配变,魏家峪2#配变,贾牛镇村西配变,魏家峪1#配变,水泉1#公用配变,李家庄3#配变,小花沟3变压器,下庄1#配变,半沟2#配变,李家庄1#配变,半沟1#配变,东城铺2#配变,卞家峪5#配变,魏家峪8#配变,东山1#配变,上古洞配变,革新庄1#配变,李家庄4#配变,卞家峪3#配变,魏家峪6#配变,卞家峪6#配变,卞家峪1#配变,东山3#配变,龙窝配变,魏家峪5#配变,崔家庄3#配变,黄连峪1#配变,魏家峪4#配变,北古洞1#配变,卞家峪4#配变,丁家庄配变,下庄3#配变,北果园2#配变,东城铺4#配变,营岗3#配变,北古洞5#配变,下庄2#配变,光城1#配变,卞家峪2#配变,营岗2#配变,光城2#配变,崔家庄9#配变,北古洞2#配变,光城5#配变,革新庄3#配变,光成3#变,魏家峪7#配变,北古洞6#配变,光城6#配变,北果园站511线东城铺1#公用,","scope":"【影响街道/乡镇】北果园乡 【高危重要客户】无 【影响客户】营岗村、李家庄、贾沟村、卞家峪村、园子沟村、徐家沟、假葬沟、半沟村、贾牛镇村、小花沟、北古洞、南古洞、南古洞水、大花沟、水泉村、边界口村、魏家峪村、革新庄村、东城铺村、北庄村、黄连峪、东山村、广城村、冯家沟、下庄村、东城铺小学、魏家峪小学、东城铺移动通信、北果园供电所、半沟矿山、 宏达铁选厂、冀源铁选场、大花沟铁矿、剑峰铁选厂、王力矿山、盛鑫树木种植站 、桥东铁选厂、乾元农业开发有限公司","startTime":"2019-11-07 10:00:00","stopDate":"2019-11-07 17:00:00","orgNo":"1340611","typeCode":"计划停电","poweroffArea":"【全线路停电】停北果园站511线东城铺1#公用,黄连峪1#配变,下庄1#配变,半沟1#配变,光城1#配变,小花沟2#配变","poweroffReason":"【停电原因】由于引线搭接导致３５ＫＶ北果园变电站１０ＫＶ东城铺５１１线路全线停电 【变更送电】无 【发布渠道】保定市阜平电视台（１０月２５日０９时至１１月６日１２时）飞播","powerTime":"2019-11-07 16:12:02","powerComm":"已送电","subsNo":"","lineNo":"","tgNo":"","tgName":null,"infoStatus":"1","orgName":"国网阜平县供电公司","typeName":null,"infoStatusName":null,"dateDay":null,"orgNos":null,"nowTime":null,"countyName":null,"streetName":null,"villageName":null,"roadName":null,"communityName":null,"tranName":null,"sdLineName":null,"cityCode":"1340611","cityName":"国网阜平县供电公司","provinceCode":null,"stopTime":"2019-11-07 17:00:00","powerType":"全部","powerOffArea":"【全线路停电】停北果园站511线东城铺1#公用,黄连峪1#配变,下庄1#配变,半沟1#配变,光城1#配变,小花沟2#配变","powerOffReason":"【停电原因】由于引线搭接导致３５ＫＶ北果园变电站１０ＫＶ东城铺５１１线路全线停电 【变更送电】无 【发布渠道】保定市阜平电视台（１０月２５日０９时至１１月６日１２时）飞播","powerOffId":"2019102213000411"},{"poweroffId":2019102213000391,"sgpoweroffId":null,"subsName":"","lineName":"泰元街线515","pubTranName":"丁街4#,一中直供,团结路3#,安各庄水库家属院,东环路3#,团结路2#,泰元街直供1#,教育局家属楼,丁街1#,电厂楼直供,木器厂直供,泰元街直供2#,畜牧局直供,东环路6#,鸿华小区1配电变压器,","scope":"【影响街道/乡镇】易州镇【高危重要客户】无【影响客户】东关新村、领尚城小区、亚澜家苑、锦芳园家属楼、教育局家属楼","startTime":"2019-10-25 00:00:00","stopDate":"2019-10-25 02:00:00","orgNo":"1340625","typeCode":"临时停电","poweroffArea":"【全线路停电】停一中直供,丁街4#,易县教育局630KVA-1号,泰元街直供1#,教育局家属楼,易县明军圣达房地产开发有限公司变压器,丁街1#,易县鸿华房地产开发有限公司,电厂楼直供,木器厂直供,0660325824-易县铸成房地产开发有限公司-专变-194541910-易县铸成房地产开发有限公司400KVA,易县第一小学,易县教育局变压器,河北易县中学变压器,王敬变压器,易县中学(南),移动公司总部315,易县教育局630KVA-3号,易县天泰房地产开发有限公司变压器,团结路2#,易县明军圣达房地产开发有限公司（领尚城）B-2000KVA,泰元街直供2#,畜牧局直供,龙烁供热80kva-一中宿舍楼,东环路6#,鸿华小区1配电变压器,团结路3#,安各庄水库家属院,沃美超市变压器,易县明军圣达房地产开发有限公司（领尚城）A-2000KVA,石庄村董华变压器,东环路3#,易县龙烁供热有限责任公司变压器,电视台,长安路蔡海连80,易县教育局-630KVA-2号","poweroffReason":"【停电原因】由于站内消缺导致１１０ＫＶ易县站泰元街５１５线路全线停电【变更送电】无【发布渠道】通过９５５９８发布","powerTime":"2019-10-25 01:34:32","powerComm":"已送电","subsNo":"","lineNo":"","tgNo":"","tgName":null,"infoStatus":"1","orgName":"国网易县供电公司","typeName":null,"infoStatusName":null,"dateDay":null,"orgNos":null,"nowTime":null,"countyName":null,"streetName":null,"villageName":null,"roadName":null,"communityName":null,"tranName":null,"sdLineName":null,"cityCode":"1340625","cityName":"国网易县供电公司","provinceCode":null,"stopTime":"2019-10-25 02:00:00","powerType":"全部","powerOffArea":"【全线路停电】停一中直供,丁街4#,易县教育局630KVA-1号,泰元街直供1#,教育局家属楼,易县明军圣达房地产开发有限公司变压器,丁街1#,易县鸿华房地产开发有限公司,电厂楼直供,木器厂直供,0660325824-易县铸成房地产开发有限公司-专变-194541910-易县铸成房地产开发有限公司400KVA,易县第一小学,易县教育局变压器,河北易县中学变压器,王敬变压器,易县中学(南),移动公司总部315,易县教育局630KVA-3号,易县天泰房地产开发有限公司变压器,团结路2#,易县明军圣达房地产开发有限公司（领尚城）B-2000KVA,泰元街直供2#,畜牧局直供,龙烁供热80kva-一中宿舍楼,东环路6#,鸿华小区1配电变压器,团结路3#,安各庄水库家属院,沃美超市变压器,易县明军圣达房地产开发有限公司（领尚城）A-2000KVA,石庄村董华变压器,东环路3#,易县龙烁供热有限责任公司变压器,电视台,长安路蔡海连80,易县教育局-630KVA-2号","powerOffReason":"【停电原因】由于站内消缺导致１１０ＫＶ易县站泰元街５１５线路全线停电【变更送电】无【发布渠道】通过９５５９８发布","powerOffId":"2019102213000391"},{"poweroffId":2019102213000387,"sgpoweroffId":null,"subsName":"","lineName":"广场线521","pubTranName":"南环路5#,文化2配电变压器,朝阳4号5分配电变压器,友谊路1#,易水3分配电变压器,信用社家属楼,友谊路4#,南环路1#,团结路1#,新华新1配电变压器,土地开发1,南环路4#,武装2分配电变压器,迎宾路2#,南环路2#,路家庄村4#,迎宾小区3#,友谊路3,路家庄村2#,路家庄村6#,网通家属楼直供,","scope":"【影响街道/乡镇】团结路、迎宾路、友谊路、阳元北大街、易兴路、朝阳路【高危重要客户】无【影响客户】路家庄村","startTime":"2019-10-25 00:00:00","stopDate":"2019-10-25 02:00:00","orgNo":"1340625","typeCode":"临时停电","poweroffArea":"【全线路停电】停友谊路1#,南环路1#,网通家属楼直供,鸿华房地产变压器,南环路2#,南环路4#,云蒙家园,路家庄村6#,河北智联房地产开发有限公司变压器,人民银行,迎宾路2#,变压器,0553895854-易县金塘物业服务有限公司-专变-70269892-变压器 ,河北普华房地产开发有限公司,路家庄村2#,云蒙嘉园二期,新华新1配电变压器,县政府2#配变,董振水锅炉,中国人民财产保险股份有限公司易县支公司变压器,河北华宇房地产开发有限公司变压器,天房宾馆,检察院,易洲镇政府(家属楼),信用社家属楼,易县金塘物业服务有限公司2000KVA,文化广场,易水3分配电变压器,政府家属楼,迎宾小区3#,河北省易县中医院变压器,文化2配电变压器,武装2分配电变压器,云蒙嘉园小区(宏宇房地产),土地开发1,易县农村信用合作社,保险公司家属院,宏宇小区变压器,财达证券,0553895854-易县金塘物业服务有限公司-专变-70071833-变压器,友谊路4#,南环路5#,路家庄村4#,友谊路3,团结路1#,县政府1#配变,朝阳4号5分配电变压器","poweroffReason":"【停电原因】由于站内消缺导致１１０ＫＶ易县变电站广场５２１线路全线停电【变更送电】无【发布渠道】通过９５５９８发布","powerTime":"2019-10-25 01:34:54","powerComm":"已送电","subsNo":"","lineNo":"","tgNo":"","tgName":null,"infoStatus":"1","orgName":"国网易县供电公司","typeName":null,"infoStatusName":null,"dateDay":null,"orgNos":null,"nowTime":null,"countyName":null,"streetName":null,"villageName":null,"roadName":null,"communityName":null,"tranName":null,"sdLineName":null,"cityCode":"1340625","cityName":"国网易县供电公司","provinceCode":null,"stopTime":"2019-10-25 02:00:00","powerType":"全部","powerOffArea":"【全线路停电】停友谊路1#,南环路1#,网通家属楼直供,鸿华房地产变压器,南环路2#,南环路4#,云蒙家园,路家庄村6#,河北智联房地产开发有限公司变压器,人民银行,迎宾路2#,变压器,0553895854-易县金塘物业服务有限公司-专变-70269892-变压器 ,河北普华房地产开发有限公司,路家庄村2#,云蒙嘉园二期,新华新1配电变压器,县政府2#配变,董振水锅炉,中国人民财产保险股份有限公司易县支公司变压器,河北华宇房地产开发有限公司变压器,天房宾馆,检察院,易洲镇政府(家属楼),信用社家属楼,易县金塘物业服务有限公司2000KVA,文化广场,易水3分配电变压器,政府家属楼,迎宾小区3#,河北省易县中医院变压器,文化2配电变压器,武装2分配电变压器,云蒙嘉园小区(宏宇房地产),土地开发1,易县农村信用合作社,保险公司家属院,宏宇小区变压器,财达证券,0553895854-易县金塘物业服务有限公司-专变-70071833-变压器,友谊路4#,南环路5#,路家庄村4#,友谊路3,团结路1#,县政府1#配变,朝阳4号5分配电变压器","powerOffReason":"【停电原因】由于站内消缺导致１１０ＫＶ易县变电站广场５２１线路全线停电【变更送电】无【发布渠道】通过９５５９８发布","powerOffId":"2019102213000387"},{"poweroffId":2019102213000382,"sgpoweroffId":null,"subsName":"","lineName":"山南线517","pubTranName":"陈旺村7#,陈旺村11#村北变压器,东茹堡村1#,陈旺村3#,西茹堡村9变压器,陈旺村10#村西,陈旺村2#,石赛村6#变压器,西茹堡10#,陈旺村4#,七里亭村1#,西茹堡11#,西茹堡村8#村内（综）变压器,摇头村7#,西茹堡村2#,西茹堡1#,陈旺12村号变压器,东茹堡村8#村东（综）变压器,麻屋庄村4#村东|,南山南12#,南山南村2#,陈旺村1#,东茹堡村7#村南,陈旺村5#【纯农排变】,麻屋庄1#路南西,陈旺村9#村东,西茹堡3#,南山南村10#村东,陈旺村13#,南山南9号,南山南村6#,麻屋庄6#,","scope":"【影响街道/乡镇】桥头乡、易州镇【高危重要客户】无【影响客户】麻屋庄村、南山南村、中山南村、石赛村、摇头村、陈旺村、东茹堡村、宋村、东范村、七里亭村、西茹堡村","startTime":"2019-10-25 00:00:00","stopDate":"2019-10-25 02:00:00","orgNo":"1340625","typeCode":"临时停电","poweroffArea":"【全线路停电】停东茹堡村9#,南山南12#,东茹堡村1#,韩家庄水泥预制板厂(范志军),摇头村4#,麻屋庄5#村南【纯农排变】,西茹堡3#,东茹堡村5#【纯农排变】,陈旺村3#,南山南村4#【纯农排变】,摇头村6#村东变压器,东茹堡村4#【纯农排变】,南山南村3#【纯农排变】,东范村2#,摇头村2#,摇头村1#,南山南村2#,易县山南矿产品加工厂,西茹堡村6#【纯农排变】,陈旺村5#【纯农排变】,西茹堡村8#村内（综）变压器,陈旺村1#,麻屋庄3#村南,陈旺村7#,七里亭村2#,东范村3#,陈旺村2#,石赛村4#村西南变压器,变压器,中山南村4#,西范村,陈旺村李海涛,南山南村8#村北,李春堂,东茹堡10#【纯农排变】,陈旺村6#【纯农排变】,麻屋庄村4#村东|,摇头村5#,东范村1#,东茹堡村7#村南,麻屋庄6#,麻屋庄1#路南西,石赛村2#【纯农排变】,李树面粉厂(山南面粉厂),立源钙粉厂(李树),西茹堡村9变压器,易县润佳园林苗木种植有限公司3号-100KVA,金星工艺品厂(国春荣),陈旺面粉厂,陈旺12村号变压器,石赛玻璃厂,仁来钙粉厂,中山南砖厂,易县润佳苗木园林种植有限公司-2号-100KVA,山南面粉厂,西茹堡村7#【纯农排变】,宋村1#,东茹堡村6#,蚕场种苗场(西),南山南9号,蚕场种苗场(东),七里亭村1#,西茹堡1#,陈旺村4#,东茹堡村8#村东（综）变压器,东茹堡村2#,石赛村3#,西茹堡砖厂,电信大理石厂,西茹堡村2#,摇头村3#,陈旺村10#村西,陈旺村13#,天泰房地产开发有限公司变压器,麻屋庄村2#,易县南山南矿产品经销处变压器,桂子渠村连小军变压器,西茹堡11#,易县正四方牧业有限公司变压器,南山南村5#【纯农排变】,南山南村10#村东,陈旺村11#村北变压器,0668621441-易县润佳园林苗木种植有限公司-专变-208462250-易县润佳园林苗木种植有限公司1号-100KVA,石赛村6#变压器,西茹堡村4#【纯农排变】,中山南村2#,南山南村7#村东南,南山南村1#,陈旺村9#村东,南山南村6#,摇头村7#,西茹堡10#,0619919348-河北珠峰石业有限公司-专变-129034978-河北珠峰石业有限公司变压器,东茹堡村3#【纯农排变】,陈旺村8#村南,西茹堡养殖场,南山南村11#村东,中山南灰粉厂(王中),易县老韩世家富民服装有限公司,原种场(场外),石赛村5#村南变压器,原种场(场内),中山南村1#,石赛村1#","poweroffReason":"【停电原因】由于站内消缺导致１１０ＫＶ易县变电站山南５１７线路全线停电【变更送电】无【发布渠道】通过９５５９８发布","powerTime":"2019-10-25 01:35:09","powerComm":"已送电","subsNo":"","lineNo":"","tgNo":"","tgName":null,"infoStatus":"1","orgName":"国网易县供电公司","typeName":null,"infoStatusName":null,"dateDay":null,"orgNos":null,"nowTime":null,"countyName":null,"streetName":null,"villageName":null,"roadName":null,"communityName":null,"tranName":null,"sdLineName":null,"cityCode":"1340625","cityName":"国网易县供电公司","provinceCode":null,"stopTime":"2019-10-25 02:00:00","powerType":"全部","powerOffArea":"【全线路停电】停东茹堡村9#,南山南12#,东茹堡村1#,韩家庄水泥预制板厂(范志军),摇头村4#,麻屋庄5#村南【纯农排变】,西茹堡3#,东茹堡村5#【纯农排变】,陈旺村3#,南山南村4#【纯农排变】,摇头村6#村东变压器,东茹堡村4#【纯农排变】,南山南村3#【纯农排变】,东范村2#,摇头村2#,摇头村1#,南山南村2#,易县山南矿产品加工厂,西茹堡村6#【纯农排变】,陈旺村5#【纯农排变】,西茹堡村8#村内（综）变压器,陈旺村1#,麻屋庄3#村南,陈旺村7#,七里亭村2#,东范村3#,陈旺村2#,石赛村4#村西南变压器,变压器,中山南村4#,西范村,陈旺村李海涛,南山南村8#村北,李春堂,东茹堡10#【纯农排变】,陈旺村6#【纯农排变】,麻屋庄村4#村东|,摇头村5#,东范村1#,东茹堡村7#村南,麻屋庄6#,麻屋庄1#路南西,石赛村2#【纯农排变】,李树面粉厂(山南面粉厂),立源钙粉厂(李树),西茹堡村9变压器,易县润佳园林苗木种植有限公司3号-100KVA,金星工艺品厂(国春荣),陈旺面粉厂,陈旺12村号变压器,石赛玻璃厂,仁来钙粉厂,中山南砖厂,易县润佳苗木园林种植有限公司-2号-100KVA,山南面粉厂,西茹堡村7#【纯农排变】,宋村1#,东茹堡村6#,蚕场种苗场(西),南山南9号,蚕场种苗场(东),七里亭村1#,西茹堡1#,陈旺村4#,东茹堡村8#村东（综）变压器,东茹堡村2#,石赛村3#,西茹堡砖厂,电信大理石厂,西茹堡村2#,摇头村3#,陈旺村10#村西,陈旺村13#,天泰房地产开发有限公司变压器,麻屋庄村2#,易县南山南矿产品经销处变压器,桂子渠村连小军变压器,西茹堡11#,易县正四方牧业有限公司变压器,南山南村5#【纯农排变】,南山南村10#村东,陈旺村11#村北变压器,0668621441-易县润佳园林苗木种植有限公司-专变-208462250-易县润佳园林苗木种植有限公司1号-100KVA,石赛村6#变压器,西茹堡村4#【纯农排变】,中山南村2#,南山南村7#村东南,南山南村1#,陈旺村9#村东,南山南村6#,摇头村7#,西茹堡10#,0619919348-河北珠峰石业有限公司-专变-129034978-河北珠峰石业有限公司变压器,东茹堡村3#【纯农排变】,陈旺村8#村南,西茹堡养殖场,南山南村11#村东,中山南灰粉厂(王中),易县老韩世家富民服装有限公司,原种场(场外),石赛村5#村南变压器,原种场(场内),中山南村1#,石赛村1#","powerOffReason":"【停电原因】由于站内消缺导致１１０ＫＶ易县变电站山南５１７线路全线停电【变更送电】无【发布渠道】通过９５５９８发布","powerOffId":"2019102213000382"},{"poweroffId":2019102213000378,"sgpoweroffId":null,"subsName":"","lineName":"东环线513","pubTranName":"中亢村5#,劳动局直供,西亢5#,中亢村1#,石庄村2#,西亢村3#,中亢村2#,董家楼村1#,中亢村3#,石庄【纯农排变】,西亢村4#,西亢村1#,中亢村4#,西亢村2#,电南院直供,路家庄村3#,石庄1#,","scope":"【影响街道/乡镇】易州镇 【高危重要客户】无 【影响客户】东亢村、中亢村、石庄村、路家庄村、西亢村、董家楼村、易县裕和房地产开发有限公司、易县金沐汤泉洗浴有限公司、易县杏林医院、电南院","startTime":"2019-10-25 00:00:00","stopDate":"2019-10-25 02:00:00","orgNo":"1340625","typeCode":"临时停电","poweroffArea":"【全线路停电】停李淑芳石板厂,石庄村4#【纯农排变】,西亢村1#,石庄村7#【纯农排变】,易河酒厂,中油保定116加油站,董家楼村1#,石庄村2#,石庄村6#,中亢村1#,劳动局直供,电南院直供,东亢村4#,石庄村5#,易县创意文化石有限公司1#,0469135321-易县泰丰恒石材厂-专变-46725417-易县泰丰恒石材厂,0676633306-易县裕和房地产开发有限公司-专变-216199783-易县裕和房地产开发有限公司1600KVA,路家庄村3#,刘永利,易县森都园园林绿化工程有限公司-200KVA,国有粮库一库变压器,石庄1#,中亢村2#,石庄村3#,东亢村1#,易县金沐汤泉洗浴有限公司,西亢村2#,易县民意城内公共汽车服务中心630KVA,西亢村4#,西亢5#,中亢村4#,东亢村2#,0555681730-中国移动通信集团河北有限公司保定分公司-专变-94363996-中国移动通信集团河北有限公司易县分公司变压器,西亢村3#,易县兴发建材有限公司,民政事业服务中心,易县交通局料厂(250KVA),易县杏林医院2500,桂子渠面粉厂(郭义江),易县交通局料厂(100KVA),东亢村5#,中亢村3#,东亢村3#,石庄村1#,中亢村5#,石庄【纯农排变】","poweroffReason":"【停电原因】由于站内消缺导致１１０ＫＶ易县变电站东环线５１３线路全线停电【变更送电】无【发布渠道】通过９５５９８发布","powerTime":"2019-10-25 01:35:22","powerComm":"已送电","subsNo":"","lineNo":"","tgNo":"","tgName":null,"infoStatus":"1","orgName":"国网易县供电公司","typeName":null,"infoStatusName":null,"dateDay":null,"orgNos":null,"nowTime":null,"countyName":null,"streetName":null,"villageName":null,"roadName":null,"communityName":null,"tranName":null,"sdLineName":null,"cityCode":"1340625","cityName":"国网易县供电公司","provinceCode":null,"stopTime":"2019-10-25 02:00:00","powerType":"全部","powerOffArea":"【全线路停电】停李淑芳石板厂,石庄村4#【纯农排变】,西亢村1#,石庄村7#【纯农排变】,易河酒厂,中油保定116加油站,董家楼村1#,石庄村2#,石庄村6#,中亢村1#,劳动局直供,电南院直供,东亢村4#,石庄村5#,易县创意文化石有限公司1#,0469135321-易县泰丰恒石材厂-专变-46725417-易县泰丰恒石材厂,0676633306-易县裕和房地产开发有限公司-专变-216199783-易县裕和房地产开发有限公司1600KVA,路家庄村3#,刘永利,易县森都园园林绿化工程有限公司-200KVA,国有粮库一库变压器,石庄1#,中亢村2#,石庄村3#,东亢村1#,易县金沐汤泉洗浴有限公司,西亢村2#,易县民意城内公共汽车服务中心630KVA,西亢村4#,西亢5#,中亢村4#,东亢村2#,0555681730-中国移动通信集团河北有限公司保定分公司-专变-94363996-中国移动通信集团河北有限公司易县分公司变压器,西亢村3#,易县兴发建材有限公司,民政事业服务中心,易县交通局料厂(250KVA),易县杏林医院2500,桂子渠面粉厂(郭义江),易县交通局料厂(100KVA),东亢村5#,中亢村3#,东亢村3#,石庄村1#,中亢村5#,石庄【纯农排变】","powerOffReason":"【停电原因】由于站内消缺导致１１０ＫＶ易县变电站东环线５１３线路全线停电【变更送电】无【发布渠道】通过９５５９８发布","powerOffId":"2019102213000378"}],"pageModel":{"pageNow":470,"totalCount":10973,"totalPage":1098,"tableRows":0,"pageCount":10,"beginCount":4690},"isExperi":"1"}