{"message":"","today":"2020-06-15","seleList":[{"poweroffId":2019102213000322,"sgpoweroffId":null,"subsName":"","lineName":"山南线517","pubTranName":"陈旺村11#村北变压器,东茹堡村1#,陈旺村3#,西茹堡村9变压器,陈旺村4#,陈旺村2#,石赛村6#变压器,西茹堡10#,七里亭村1#,西茹堡11#,西茹堡村8#村内（综）变压器,摇头村7#,西茹堡村2#,西茹堡1#,麻屋庄6#,陈旺12村号变压器,东茹堡村8#村东（综）变压器,麻屋庄村4#村东|,南山南12#,南山南村2#,陈旺村1#,东茹堡村7#村南,陈旺村5#【纯农排变】,麻屋庄1#路南西,陈旺村9#村东,西茹堡3#,南山南村10#村东,陈旺村13#,南山南9号,南山南村6#,陈旺村10#村西,陈旺村7#,","scope":"【影响街道/乡镇】桥头乡、易州镇【高危重要客户】无【影响客户】麻屋庄村、南山南村、中山南村、石赛村、摇头村、陈旺村、东茹堡村、宋村、东范村、七里亭村、西茹堡村","startTime":"2019-10-24 00:00:00","stopDate":"2019-10-24 02:00:00","orgNo":"1340625","typeCode":"临时停电","poweroffArea":"【全线路停电】停东茹堡村9#,南山南12#,东茹堡村1#,韩家庄水泥预制板厂(范志军),摇头村4#,麻屋庄5#村南【纯农排变】,西茹堡3#,东茹堡村5#【纯农排变】,陈旺村3#,南山南村4#【纯农排变】,摇头村6#村东变压器,东茹堡村4#【纯农排变】,南山南村3#【纯农排变】,东范村2#,摇头村2#,摇头村1#,南山南村2#,易县山南矿产品加工厂,西茹堡村6#【纯农排变】,陈旺村5#【纯农排变】,西茹堡村8#村内（综）变压器,陈旺村1#,麻屋庄3#村南,陈旺村7#,七里亭村2#,东范村3#,陈旺村2#,石赛村4#村西南变压器,变压器,中山南村4#,西范村,陈旺村李海涛,南山南村8#村北,李春堂,东茹堡10#【纯农排变】,陈旺村6#【纯农排变】,麻屋庄村4#村东|,摇头村5#,东范村1#,东茹堡村7#村南,麻屋庄6#,麻屋庄1#路南西,石赛村2#【纯农排变】,李树面粉厂(山南面粉厂),立源钙粉厂(李树),西茹堡村9变压器,易县润佳园林苗木种植有限公司3号-100KVA,金星工艺品厂(国春荣),陈旺面粉厂,陈旺12村号变压器,石赛玻璃厂,仁来钙粉厂,中山南砖厂,易县润佳苗木园林种植有限公司-2号-100KVA,山南面粉厂,西茹堡村7#【纯农排变】,宋村1#,东茹堡村6#,蚕场种苗场(西),南山南9号,蚕场种苗场(东),七里亭村1#,西茹堡1#,陈旺村4#,东茹堡村8#村东（综）变压器,东茹堡村2#,石赛村3#,西茹堡砖厂,电信大理石厂,西茹堡村2#,摇头村3#,陈旺村10#村西,陈旺村13#,天泰房地产开发有限公司变压器,麻屋庄村2#,易县南山南矿产品经销处变压器,桂子渠村连小军变压器,西茹堡11#,易县正四方牧业有限公司变压器,南山南村5#【纯农排变】,南山南村10#村东,陈旺村11#村北变压器,0668621441-易县润佳园林苗木种植有限公司-专变-208462250-易县润佳园林苗木种植有限公司1号-100KVA,石赛村6#变压器,西茹堡村4#【纯农排变】,中山南村2#,南山南村7#村东南,南山南村1#,陈旺村9#村东,南山南村6#,摇头村7#,西茹堡10#,0619919348-河北珠峰石业有限公司-专变-129034978-河北珠峰石业有限公司变压器,东茹堡村3#【纯农排变】,陈旺村8#村南,西茹堡养殖场,南山南村11#村东,中山南灰粉厂(王中),易县老韩世家富民服装有限公司,原种场(场外),石赛村5#村南变压器,原种场(场内),中山南村1#,石赛村1#","poweroffReason":"【停电原因】由于站内消缺导致１１０ＫＶ易县变电站山南５１７线路全线停电【变更送电】无【发布渠道】通过９５５９８发布","powerTime":"2019-10-24 01:07:42","powerComm":"已送电","subsNo":"","lineNo":"","tgNo":"","tgName":null,"infoStatus":"1","orgName":"国网易县供电公司","typeName":null,"infoStatusName":null,"dateDay":null,"orgNos":null,"nowTime":null,"countyName":null,"streetName":null,"villageName":null,"roadName":null,"communityName":null,"tranName":null,"sdLineName":null,"cityCode":"1340625","cityName":"国网易县供电公司","provinceCode":null,"stopTime":"2019-10-24 02:00:00","powerType":"全部","powerOffArea":"【全线路停电】停东茹堡村9#,南山南12#,东茹堡村1#,韩家庄水泥预制板厂(范志军),摇头村4#,麻屋庄5#村南【纯农排变】,西茹堡3#,东茹堡村5#【纯农排变】,陈旺村3#,南山南村4#【纯农排变】,摇头村6#村东变压器,东茹堡村4#【纯农排变】,南山南村3#【纯农排变】,东范村2#,摇头村2#,摇头村1#,南山南村2#,易县山南矿产品加工厂,西茹堡村6#【纯农排变】,陈旺村5#【纯农排变】,西茹堡村8#村内（综）变压器,陈旺村1#,麻屋庄3#村南,陈旺村7#,七里亭村2#,东范村3#,陈旺村2#,石赛村4#村西南变压器,变压器,中山南村4#,西范村,陈旺村李海涛,南山南村8#村北,李春堂,东茹堡10#【纯农排变】,陈旺村6#【纯农排变】,麻屋庄村4#村东|,摇头村5#,东范村1#,东茹堡村7#村南,麻屋庄6#,麻屋庄1#路南西,石赛村2#【纯农排变】,李树面粉厂(山南面粉厂),立源钙粉厂(李树),西茹堡村9变压器,易县润佳园林苗木种植有限公司3号-100KVA,金星工艺品厂(国春荣),陈旺面粉厂,陈旺12村号变压器,石赛玻璃厂,仁来钙粉厂,中山南砖厂,易县润佳苗木园林种植有限公司-2号-100KVA,山南面粉厂,西茹堡村7#【纯农排变】,宋村1#,东茹堡村6#,蚕场种苗场(西),南山南9号,蚕场种苗场(东),七里亭村1#,西茹堡1#,陈旺村4#,东茹堡村8#村东（综）变压器,东茹堡村2#,石赛村3#,西茹堡砖厂,电信大理石厂,西茹堡村2#,摇头村3#,陈旺村10#村西,陈旺村13#,天泰房地产开发有限公司变压器,麻屋庄村2#,易县南山南矿产品经销处变压器,桂子渠村连小军变压器,西茹堡11#,易县正四方牧业有限公司变压器,南山南村5#【纯农排变】,南山南村10#村东,陈旺村11#村北变压器,0668621441-易县润佳园林苗木种植有限公司-专变-208462250-易县润佳园林苗木种植有限公司1号-100KVA,石赛村6#变压器,西茹堡村4#【纯农排变】,中山南村2#,南山南村7#村东南,南山南村1#,陈旺村9#村东,南山南村6#,摇头村7#,西茹堡10#,0619919348-河北珠峰石业有限公司-专变-129034978-河北珠峰石业有限公司变压器,东茹堡村3#【纯农排变】,陈旺村8#村南,西茹堡养殖场,南山南村11#村东,中山南灰粉厂(王中),易县老韩世家富民服装有限公司,原种场(场外),石赛村5#村南变压器,原种场(场内),中山南村1#,石赛村1#","powerOffReason":"【停电原因】由于站内消缺导致１１０ＫＶ易县变电站山南５１７线路全线停电【变更送电】无【发布渠道】通过９５５９８发布","powerOffId":"2019102213000322"},{"poweroffId":2019102213000316,"sgpoweroffId":null,"subsName":"","lineName":"东环线513","pubTranName":"0469135321-易县泰丰恒石材厂-专变-46725417-易县泰丰恒石材厂,东亢村5#,0555681730-中国移动通信集团河北有限公司保定分公司-专变-94363996-中国移动通信集团河北有限公司易县分公司变压器,电南院直供,东亢村1#,刘永利,石庄1#,易县民意城内公共汽车服务中心630KVA,石庄村1#,中亢村5#,东亢村4#,石庄村6#,易县森都园园林绿化工程有限公司-200KVA,李淑芳石板厂,东亢村2#,易县创意文化石有限公司1#,劳动局直供,石庄村5#,易县交通局料厂(100KVA),国有粮库一库变压器,中亢村2#,董家楼村1#,中亢村3#,民政事业服务中心,石庄【纯农排变】,西亢村4#,易河酒厂,西亢村1#,中油保定116加油站,中亢村4#,西亢村2#,石庄村7#【纯农排变】,0676633306-易县裕和房地产开发有限公司-专变-216199783-易县裕和房地产开发有限公司1600KVA,路家庄村3#,东亢村3#,桂子渠面粉厂(郭义江),易县交通局料厂(250KVA),西亢5#,中亢村1#,石庄村2#,易县杏林医院2500,易县兴发建材有限公司,石庄村4#【纯农排变】,石庄村3#,易县金沐汤泉洗浴有限公司,西亢村3#,","scope":"【影响街道/乡镇】易州镇 【高危重要客户】无 【影响客户】东亢村、中亢村、石庄村、路家庄村、西亢村、董家楼村、易县裕和房地产开发有限公司、易县金沐汤泉洗浴有限公司、易县杏林医院、电南院","startTime":"2019-10-24 00:00:00","stopDate":"2019-10-24 02:00:00","orgNo":"1340625","typeCode":"临时停电","poweroffArea":"【全线路停电】停李淑芳石板厂,石庄村4#【纯农排变】,西亢村1#,石庄村7#【纯农排变】,易河酒厂,中油保定116加油站,董家楼村1#,石庄村2#,石庄村6#,中亢村1#,劳动局直供,电南院直供,东亢村4#,石庄村5#,易县创意文化石有限公司1#,0469135321-易县泰丰恒石材厂-专变-46725417-易县泰丰恒石材厂,0676633306-易县裕和房地产开发有限公司-专变-216199783-易县裕和房地产开发有限公司1600KVA,路家庄村3#,刘永利,易县森都园园林绿化工程有限公司-200KVA,国有粮库一库变压器,石庄1#,中亢村2#,石庄村3#,东亢村1#,易县金沐汤泉洗浴有限公司,西亢村2#,易县民意城内公共汽车服务中心630KVA,西亢村4#,西亢5#,中亢村4#,东亢村2#,0555681730-中国移动通信集团河北有限公司保定分公司-专变-94363996-中国移动通信集团河北有限公司易县分公司变压器,西亢村3#,易县兴发建材有限公司,民政事业服务中心,易县交通局料厂(250KVA),易县杏林医院2500,桂子渠面粉厂(郭义江),易县交通局料厂(100KVA),东亢村5#,中亢村3#,东亢村3#,石庄村1#,中亢村5#,石庄【纯农排变】","poweroffReason":"【停电原因】由于站内消缺导致１１０ＫＶ易县变电站东环线５１３线路全线停电【变更送电】无【发布渠道】通过９５５９８发布","powerTime":"2019-10-24 01:08:29","powerComm":"已送电","subsNo":"","lineNo":"","tgNo":"","tgName":null,"infoStatus":"1","orgName":"国网易县供电公司","typeName":null,"infoStatusName":null,"dateDay":null,"orgNos":null,"nowTime":null,"countyName":null,"streetName":null,"villageName":null,"roadName":null,"communityName":null,"tranName":null,"sdLineName":null,"cityCode":"1340625","cityName":"国网易县供电公司","provinceCode":null,"stopTime":"2019-10-24 02:00:00","powerType":"全部","powerOffArea":"【全线路停电】停李淑芳石板厂,石庄村4#【纯农排变】,西亢村1#,石庄村7#【纯农排变】,易河酒厂,中油保定116加油站,董家楼村1#,石庄村2#,石庄村6#,中亢村1#,劳动局直供,电南院直供,东亢村4#,石庄村5#,易县创意文化石有限公司1#,0469135321-易县泰丰恒石材厂-专变-46725417-易县泰丰恒石材厂,0676633306-易县裕和房地产开发有限公司-专变-216199783-易县裕和房地产开发有限公司1600KVA,路家庄村3#,刘永利,易县森都园园林绿化工程有限公司-200KVA,国有粮库一库变压器,石庄1#,中亢村2#,石庄村3#,东亢村1#,易县金沐汤泉洗浴有限公司,西亢村2#,易县民意城内公共汽车服务中心630KVA,西亢村4#,西亢5#,中亢村4#,东亢村2#,0555681730-中国移动通信集团河北有限公司保定分公司-专变-94363996-中国移动通信集团河北有限公司易县分公司变压器,西亢村3#,易县兴发建材有限公司,民政事业服务中心,易县交通局料厂(250KVA),易县杏林医院2500,桂子渠面粉厂(郭义江),易县交通局料厂(100KVA),东亢村5#,中亢村3#,东亢村3#,石庄村1#,中亢村5#,石庄【纯农排变】","powerOffReason":"【停电原因】由于站内消缺导致１１０ＫＶ易县变电站东环线５１３线路全线停电【变更送电】无【发布渠道】通过９５５９８发布","powerOffId":"2019102213000316"},{"poweroffId":2019102213000313,"sgpoweroffId":null,"subsName":"","lineName":"坟庄线515","pubTranName":"建新村4#,上白羊村8#,源泉村2#,马家庄8号【纯农排变】,主良8号,马头村8#,孙家庄村3#,马头村2#,合利金属160KVA,主良村3#,西流井村2#,上黄蒿村4#,东白马村6#,南白羊村5#,北白马村5#,西白羊村2#,主良6号,建新村5#,西流井村1#,南白羊村6#,河北省洪崖山国有林场管理局变压器,马家庄10号,0680605801-易县绿泽农林果种植有限责任公司-专变-219705076-易县绿泽农林果种植有限责任公司-3-50KVA,主良村2#,易县安平土地整理服务有限公司5号100KVA,建新村2#,北白马7号,全山庄村5#,主良7号,易县安禄土地整理有限公司3号100KVA,东白马机井5#,源泉村5#,上白羊村2#,盘神庙村7#,中黄蒿村4#,涞水县文山供水有限公司630KVA专变,盘神庙村3#,0469479528-河北省洪崖山国有林场管理局-专变-46817902-白马林场,主良1号,孙家庄村1#,真武庙村1#,马家庄村3#,主良村(砖厂),上黄蒿村1#,张大勇变压器,和利金属制品有限公司,易县绿泽农林果种植有限责任公司500,马头村18#,上黄蒿村2#,易县安平土地整理服务有限公司6号100KVA,马头村9#,南流井村2#,中黄蒿村1#,马头村3#,上白羊村4#,真武庙村6#,建新村3#,北六井五台,马家庄村1#【纯农排变】,上黄蒿村3#,西白羊蔡永贵面粉厂,南流井村8#,马家庄7号,马头村5#,易县安平土地整理服务有限公司2号100KVA,西白羊村3#,易县安平土地整理服务有限公司4号100KVA,马家庄11号【纯农排变】,上白羊村7#,马家庄村2#,全山庄村3#,源泉村4#,流井小学,马头村16#,易县安平土地整理服务有限公司3号100KVA,建新村6#,西流井村3#,千佛山开发处,全山庄村2#,易县乾鼎商品混凝土有限公司变压器,马头村14#,南流井村9#,西白羊4#,源泉村(刘水),马头村1#,许树义,全山庄村4#,南白羊村2#|,马头村15#,源泉村3#,建新村马平变压器,盘神庙村1#,马头村17#,东白羊村5#【纯农排变】,洪崖山索道有限公司,全山庄1#,0680607722-易县绿泽农林果种植有限责任公司-专变-219705072-易县绿泽农林果种植有限责任公司-2-50KVA,南流井村10#,南流井村7#,盘神庙村2#,上白羊村6#,马头水库,0635310273-易县农旺苗木种植农民专业合作社-专变-225175957-易县农旺苗木种植农民专业合作社-增容250KVA,河北鑫路石料有限公司变压器,马家庄村4#,易县中易板材有限公司变压器,上白羊村9#,北流井村3#,上白羊村5#,源泉村6#【纯农排变】,东白羊村1#,南流井6#,马头村13#,中黄蒿村2#,马头村7#,北白马6号,马头村19#,上白羊村3#,南流井村6#,南流井村1#,建新村1#,易县中能太阳能有限公司250KVA,真武庙村2#,南白羊村1#,上白羊村1#,马头村11#,保定和利金属制品有限公司变压器,马头村20#,主良5号,马家庄6号【纯农排变】,中黄蒿村3#,主良村4#,盘神庙村5#,李家坟村6#【纯农排变】","scope":"【影响街道/乡镇】流井乡、易州镇、白马乡、梁格庄镇【高危重要客户】无【影响客户】建新村、全山庄村、主良村、马头村、李家坟村、西流井村、南流井村、北流井村、孙家庄村、西白羊村、南白羊村、东白羊村、马家庄村、源泉村、盘神庙村、真武庙村、上白羊村、上黄蒿村、北白马村、中黄蒿村","startTime":"2019-10-25 00:00:00","stopDate":"2019-10-25 02:00:00","orgNo":"1340625","typeCode":"临时停电","poweroffArea":"【全线路停电】停马家庄7号,上白羊村4#,马头村1#,西白羊村3#,易县农旺苗木种植农民专业合作社变压器,马头村13#,南流井6#,建新村马平变压器,河北省洪崖山国有林场管理局变压器,马头村14#,北白马6号,马家庄8号【纯农排变】,上黄蒿村1#,南白羊村7#【纯农排变】,马家庄村4#,马头村7#,西白羊5号,马家庄10号,张大勇变压器,和利金属制品有限公司,马家庄村5#,0680605801-易县绿泽农林果种植有限责任公司-专变-219705076-易县绿泽农林果种植有限责任公司-3-50KVA,源泉村6#【纯农排变】,全山庄村4#,0680607722-易县绿泽农林果种植有限责任公司-专变-219705072-易县绿泽农林果种植有限责任公司-2-50KVA,西白羊蔡永贵面粉厂,全山庄村3#,主良6号,源泉村(刘水),马头村18#,中黄蒿村4#,中黄蒿村2#,建新村2#,马家庄村2#,上黄蒿村4#,源泉村4#,西流井村1#,保定和利金属制品有限公司变压器,东白羊村1#,西流井村3#,马家庄村1#【纯农排变】,上黄蒿村3#,刘桂军变压器,盘神庙村3#,盘神庙村4#,易县中易板材有限公司变压器,东白羊村4#,西流井村2#,马头村20#,南流井村10#,易县安平土地整理服务有限公司7号50KVA,牛云田变压器,上白羊村7#,许树义,南流井村1#,北白马村5#,建新村6#,上白羊村5#,南白羊村6#,北流井村3#,上白羊村1#,马头村2#,主良村张树贵变压器,易县安平土地整理服务有限公司5号100KVA,建新村5#,真武庙村6#,中黄蒿村1#,东白羊村2#,主良村3#,马家庄9号【纯农排变】,东流井村3#,全山庄1#,众信石材有限公司,马头村10#,千佛山开发处,孙家庄村3#,盘神庙村2#,真武庙村4#,真武庙村1#,上白羊村2#,马头6#,建新村3#,0469479528-河北省洪崖山国有林场管理局-专变-46817902-白马林场,易县安禄土地整理有限公司4号50KVA,马头水库,马头村5#,建新村4#,马家庄6号【纯农排变】,主良村2#,马头村15#,主良1号,全山庄村2#,易县安禄土地整理有限公司2号-50KVA,李家坟村6#【纯农排变】,流井小学,易县安禄土地整理有限公司1号-160KVA,马头村19#,东白马机井5#,全山庄村1#,南白羊村2#|,马家庄村3#,合利金属160KVA,源泉村3#,盘神庙村6#,南流井村8#,马家庄11号【纯农排变】,上白羊村6#,孙家庄村1#,盘神庙村5#,易县安禄土地整理有限公司3号100KVA,孙家庄2#,北六井五台,上白羊村3#,洪崖山索道有限公司,南流井村6#,易县中能太阳能有限公司250KVA,马头村9#,流井中学,真武庙村2#,易县安平土地整理服务有限公司4号100KVA,主良村(砖厂),西白羊村2#,易县安平土地整理服务有限公司3号100KVA,中黄蒿村3#,南白羊村5#,南白羊村4#,东白羊村5#【纯农排变】,上白羊村9#,东白马村6#,易县乾鼎商品混凝土有限公司变压器,盘神庙村7#,马头村4#,主良7号,南流井村7#,马头村3#,主良5号,南白羊村1#,上黄蒿村2#,马头村17#,南流井村2#,主良8号,建新村1#,马头村16#,全山庄村5#,易县绿泽农林果种植有限责任公司500,河北鑫路石料有限公司变压器,西白羊4#,主良村4#,0635310273-易县农旺苗木种植农民专业合作社-专变-225175957-易县农旺苗木种植农民专业合作社-增容250KVA,南流井村5#,源泉村1#,南流井村9#,上白羊村8#,南流井村4#,南流井村3#,马头村8#,涞水县文山供水有限公司630KVA专变,易县安平土地整理服务有限公司2号100KVA,南白羊村3#,真武庙村7#,北白马7号,真武庙村5#,马头村11#,易县安平土地整理服务有限公司6号100KVA,马头村12#,真武庙村3#,西白羊村1#,源泉村2#,源泉村5#,盘神庙村1#","poweroffReason":"【停电原因】由于站内消缺导致３５ＫＶ李家坟变电站坟庄线５１５线路全线停电【变更送电】无【发布渠道】通过９５５９８发布","powerTime":"2019-10-25 01:38:21","powerComm":"已送电","subsNo":"","lineNo":"","tgNo":"","tgName":null,"infoStatus":"1","orgName":"国网易县供电公司","typeName":null,"infoStatusName":null,"dateDay":null,"orgNos":null,"nowTime":null,"countyName":null,"streetName":null,"villageName":null,"roadName":null,"communityName":null,"tranName":null,"sdLineName":null,"cityCode":"1340625","cityName":"国网易县供电公司","provinceCode":null,"stopTime":"2019-10-25 02:00:00","powerType":"全部","powerOffArea":"【全线路停电】停马家庄7号,上白羊村4#,马头村1#,西白羊村3#,易县农旺苗木种植农民专业合作社变压器,马头村13#,南流井6#,建新村马平变压器,河北省洪崖山国有林场管理局变压器,马头村14#,北白马6号,马家庄8号【纯农排变】,上黄蒿村1#,南白羊村7#【纯农排变】,马家庄村4#,马头村7#,西白羊5号,马家庄10号,张大勇变压器,和利金属制品有限公司,马家庄村5#,0680605801-易县绿泽农林果种植有限责任公司-专变-219705076-易县绿泽农林果种植有限责任公司-3-50KVA,源泉村6#【纯农排变】,全山庄村4#,0680607722-易县绿泽农林果种植有限责任公司-专变-219705072-易县绿泽农林果种植有限责任公司-2-50KVA,西白羊蔡永贵面粉厂,全山庄村3#,主良6号,源泉村(刘水),马头村18#,中黄蒿村4#,中黄蒿村2#,建新村2#,马家庄村2#,上黄蒿村4#,源泉村4#,西流井村1#,保定和利金属制品有限公司变压器,东白羊村1#,西流井村3#,马家庄村1#【纯农排变】,上黄蒿村3#,刘桂军变压器,盘神庙村3#,盘神庙村4#,易县中易板材有限公司变压器,东白羊村4#,西流井村2#,马头村20#,南流井村10#,易县安平土地整理服务有限公司7号50KVA,牛云田变压器,上白羊村7#,许树义,南流井村1#,北白马村5#,建新村6#,上白羊村5#,南白羊村6#,北流井村3#,上白羊村1#,马头村2#,主良村张树贵变压器,易县安平土地整理服务有限公司5号100KVA,建新村5#,真武庙村6#,中黄蒿村1#,东白羊村2#,主良村3#,马家庄9号【纯农排变】,东流井村3#,全山庄1#,众信石材有限公司,马头村10#,千佛山开发处,孙家庄村3#,盘神庙村2#,真武庙村4#,真武庙村1#,上白羊村2#,马头6#,建新村3#,0469479528-河北省洪崖山国有林场管理局-专变-46817902-白马林场,易县安禄土地整理有限公司4号50KVA,马头水库,马头村5#,建新村4#,马家庄6号【纯农排变】,主良村2#,马头村15#,主良1号,全山庄村2#,易县安禄土地整理有限公司2号-50KVA,李家坟村6#【纯农排变】,流井小学,易县安禄土地整理有限公司1号-160KVA,马头村19#,东白马机井5#,全山庄村1#,南白羊村2#|,马家庄村3#,合利金属160KVA,源泉村3#,盘神庙村6#,南流井村8#,马家庄11号【纯农排变】,上白羊村6#,孙家庄村1#,盘神庙村5#,易县安禄土地整理有限公司3号100KVA,孙家庄2#,北六井五台,上白羊村3#,洪崖山索道有限公司,南流井村6#,易县中能太阳能有限公司250KVA,马头村9#,流井中学,真武庙村2#,易县安平土地整理服务有限公司4号100KVA,主良村(砖厂),西白羊村2#,易县安平土地整理服务有限公司3号100KVA,中黄蒿村3#,南白羊村5#,南白羊村4#,东白羊村5#【纯农排变】,上白羊村9#,东白马村6#,易县乾鼎商品混凝土有限公司变压器,盘神庙村7#,马头村4#,主良7号,南流井村7#,马头村3#,主良5号,南白羊村1#,上黄蒿村2#,马头村17#,南流井村2#,主良8号,建新村1#,马头村16#,全山庄村5#,易县绿泽农林果种植有限责任公司500,河北鑫路石料有限公司变压器,西白羊4#,主良村4#,0635310273-易县农旺苗木种植农民专业合作社-专变-225175957-易县农旺苗木种植农民专业合作社-增容250KVA,南流井村5#,源泉村1#,南流井村9#,上白羊村8#,南流井村4#,南流井村3#,马头村8#,涞水县文山供水有限公司630KVA专变,易县安平土地整理服务有限公司2号100KVA,南白羊村3#,真武庙村7#,北白马7号,真武庙村5#,马头村11#,易县安平土地整理服务有限公司6号100KVA,马头村12#,真武庙村3#,西白羊村1#,源泉村2#,源泉村5#,盘神庙村1#","powerOffReason":"【停电原因】由于站内消缺导致３５ＫＶ李家坟变电站坟庄线５１５线路全线停电【变更送电】无【发布渠道】通过９５５９８发布","powerOffId":"2019102213000313"},{"poweroffId":2019102213000308,"sgpoweroffId":null,"subsName":"","lineName":"流井线513","pubTranName":"匡山村10#,匡山村9#村北,坟庄11#村东,李家坟村2#村东,坟庄村16#,李家坟面粉厂,东留召村2#大队,51033部队,李家坟村1#村北,易县匡泰矿粉有限公司变压器,李家坟8号,北留召村4#村南,李家坟村7#村东,东留召村3#村北,李家坟村5#村南,东留召小学变压器,北留召村1#村内,东留召村5#村西【纯农排变】,北留召村2#村东,坟庄村8#村东北,东留召7#村东北,匡山村2#村西,东留召村6#村东【纯农排变】,李家坟小学变压器,易县匡山涌泉橡胶 经销部变压器,张义,李家坟村3#村西,李家坟10西北井【纯农排变】,匡山村4#村南,坟庄村6#村北,匡山村7#村北,坟庄村15#,坟庄14#村东【纯农排变】,龙泉石材厂,生活垃圾场变压器,坟庄村7#|村东,坟庄村9#村西,易县天达蔬菜种植园变压器,坟庄10#村西北,东留召村1#村内,坟庄村1#|村内,北留召村3#村南,北留召村5#村西,坟庄村12#,坟庄村5#村西,坟庄村2#村南,东留召村4#村南,匡山村5#村北,坟庄13#村南,李家坟村4#村中,坟庄村张宝海,北留召村7#村西,匡山村8#村北,匡山村1#村内,0555679212-中国铁塔股份有限公司保定市分公司-专变-94779843-中国移动通信集团河北有限公司易县分公司变压器,修配厂,李家坟饮料厂(保运矿业),李家坟16号,坟庄村3#村东,匡山村6#村东【纯农排变】,李家坟村9#村西,匡山村3#村东,立邦橡胶厂,坟庄村4#学校,北留召村6#村东,","scope":"【影响街道/乡镇】桥头乡、流井乡 【高危重要客户】无 【影响客户】坟庄村、匡山村、北留召村、东留召村、李家坟村","startTime":"2019-10-25 00:00:00","stopDate":"2019-10-25 02:00:00","orgNo":"1340625","typeCode":"临时停电","poweroffArea":"【全线路停电】停易县匡泰矿粉有限公司变压器,匡山村6#村东【纯农排变】,匡山村4#村南,易县匡山涌泉橡胶 经销部变压器,李家坟16号,李家坟村3#村西,坟庄13#村南,李家坟村2#村东,东留召小学变压器,东留召村1#村内,李家坟8号,坟庄村8#村东北,东留召村3#村北,东留召村2#大队,坟庄村1#|村内,坟庄村3#村东,坟庄村16#,匡山村7#村北,东留召村4#村南,李家坟饮料厂(保运矿业),生活垃圾场变压器,东留召村6#村东【纯农排变】,龙泉石材厂,北留召村4#村南,李家坟村4#村中,坟庄14#村东【纯农排变】,东留召村5#村西【纯农排变】,匡山村9#村北,坟庄村6#村北,51033部队,坟庄11#村东,李家坟小学变压器,坟庄10#村西北,李家坟面粉厂,修配厂,李家坟村9#村西,李家坟村5#村南,北留召村1#村内,坟庄村张宝海,李家坟10西北井【纯农排变】,东留召7#村东北,坟庄村7#|村东,坟庄村4#学校,李家坟村7#村东,北留召村2#村东,北留召村5#村西,0555679212-中国铁塔股份有限公司保定市分公司-专变-94779843-中国移动通信集团河北有限公司易县分公司变压器,匡山村1#村内,匡山村8#村北,张义,坟庄村12#,立邦橡胶厂,匡山村3#村东,匡山村5#村北,易县天达蔬菜种植园变压器,坟庄村5#村西,匡山村10#,北留召村7#村西,坟庄村2#村南,北留召村6#村东,坟庄村15#,坟庄村9#村西,李家坟村1#村北,北留召村3#村南,匡山村2#村西","poweroffReason":"【停电原因】由于站内消缺导致３５ＫＶ李家坟变电站流井５１３线路全线停电【变更送电】无【发布渠道】通过９５５９８发布","powerTime":"2019-10-25 01:37:22","powerComm":"已送电","subsNo":"","lineNo":"","tgNo":"","tgName":null,"infoStatus":"1","orgName":"国网易县供电公司","typeName":null,"infoStatusName":null,"dateDay":null,"orgNos":null,"nowTime":null,"countyName":null,"streetName":null,"villageName":null,"roadName":null,"communityName":null,"tranName":null,"sdLineName":null,"cityCode":"1340625","cityName":"国网易县供电公司","provinceCode":null,"stopTime":"2019-10-25 02:00:00","powerType":"全部","powerOffArea":"【全线路停电】停易县匡泰矿粉有限公司变压器,匡山村6#村东【纯农排变】,匡山村4#村南,易县匡山涌泉橡胶 经销部变压器,李家坟16号,李家坟村3#村西,坟庄13#村南,李家坟村2#村东,东留召小学变压器,东留召村1#村内,李家坟8号,坟庄村8#村东北,东留召村3#村北,东留召村2#大队,坟庄村1#|村内,坟庄村3#村东,坟庄村16#,匡山村7#村北,东留召村4#村南,李家坟饮料厂(保运矿业),生活垃圾场变压器,东留召村6#村东【纯农排变】,龙泉石材厂,北留召村4#村南,李家坟村4#村中,坟庄14#村东【纯农排变】,东留召村5#村西【纯农排变】,匡山村9#村北,坟庄村6#村北,51033部队,坟庄11#村东,李家坟小学变压器,坟庄10#村西北,李家坟面粉厂,修配厂,李家坟村9#村西,李家坟村5#村南,北留召村1#村内,坟庄村张宝海,李家坟10西北井【纯农排变】,东留召7#村东北,坟庄村7#|村东,坟庄村4#学校,李家坟村7#村东,北留召村2#村东,北留召村5#村西,0555679212-中国铁塔股份有限公司保定市分公司-专变-94779843-中国移动通信集团河北有限公司易县分公司变压器,匡山村1#村内,匡山村8#村北,张义,坟庄村12#,立邦橡胶厂,匡山村3#村东,匡山村5#村北,易县天达蔬菜种植园变压器,坟庄村5#村西,匡山村10#,北留召村7#村西,坟庄村2#村南,北留召村6#村东,坟庄村15#,坟庄村9#村西,李家坟村1#村北,北留召村3#村南,匡山村2#村西","powerOffReason":"【停电原因】由于站内消缺导致３５ＫＶ李家坟变电站流井５１３线路全线停电【变更送电】无【发布渠道】通过９５５９８发布","powerOffId":"2019102213000308"},{"poweroffId":2019102213000304,"sgpoweroffId":null,"subsName":"","lineName":"大巨线512","pubTranName":"东韩村2#,贾庄村7号,东邵新6号,涞山12#变压器,东邵中村2#,东韩村3#,东邵东村6#,东邵东村9#【纯农排变】,涞山村4#,东邵新村4#,涞山村7#,东邵中村8#,东邵东村7#变压器,东邵中村9#,10kV东邵514线路涞山11号变压器,涞山村1号变压器,东邵新村1#,东邵中村7#,涞山村2#,东邵东村3#,东邵新村2#,涞山村3#,东邵东村5#,东邵中村5#,涞山村6#,东邵新7号,10kV东邵514线路涞山10号变压器,东邵东村2#,东邵东村4#,东邵中村6#,贾庄村8号【纯农排变】,涞山村8#,南韩村1#配变【纯农排变】,东邵中村10号变压器,东邵中村1#,东邵新村5#,东邵新村3号,","scope":"【影响街道/乡镇】凌云册乡【高危重要客户】无【影响客户】涞山村、东韩村、贾庄村、东邵新村、东邵中村、东邵东村","startTime":"2019-10-24 00:00:00","stopDate":"2019-10-24 02:00:00","orgNo":"1340625","typeCode":"临时停电","poweroffArea":"【全线路停电】停涞山村贾红文,涞山村6#,贾庄村1号【纯农排变】,易县靠山新型建材制造有限公司250,东韩村3#,东韩村2#,贾庄村7号,东邵新6号,易县凌云册石灰厂(280KVA),涞山12#变压器,东邵东村1#【纯农排变】,东邵中村2#,东邵东村6#,易县涞山医院变压器,东邵东村9#【纯农排变】,涞山村4#,东邵新村4#,涞山村7#,东邵中村8#,东邵东村7#变压器,易县贺春石材经销处变压器,东邵中村9#,10kV东邵514线路涞山11号变压器,0469488018-66336部队凤凰山庄-专变-46820532-涞山果园,东邵中村4#,涞山村1号变压器,东邵新村1#,东邵中村7#,涞山村2#,东邵中村3#【纯农排变】,易县凡杰石材经销处,东邵东村3#,东邵新村2#,东邵中心小学变压器,涞山村3#,东邵东村5#,东邵中村5#,东邵新7号,10kV东邵514线路涞山10号变压器,东邵东村2#,东邵东村4#,东邵中村6#,贾庄村8号【纯农排变】,涞山村8#,北京地矿东邵50,南韩村1#配变【纯农排变】,赵洪涛板厂,东邵中村10号变压器,东邵中村1#,东邵新村5#,东邵新村3号","poweroffReason":"【停电原因】由于站内消缺导致３５ＫＶ凌云册变电站大巨线５１２线路全线停电【变更送电】无【发布渠道】通过９５５９８发布","powerTime":"2019-10-24 01:10:09","powerComm":"已送电","subsNo":"","lineNo":"","tgNo":"","tgName":null,"infoStatus":"1","orgName":"国网易县供电公司","typeName":null,"infoStatusName":null,"dateDay":null,"orgNos":null,"nowTime":null,"countyName":null,"streetName":null,"villageName":null,"roadName":null,"communityName":null,"tranName":null,"sdLineName":null,"cityCode":"1340625","cityName":"国网易县供电公司","provinceCode":null,"stopTime":"2019-10-24 02:00:00","powerType":"全部","powerOffArea":"【全线路停电】停涞山村贾红文,涞山村6#,贾庄村1号【纯农排变】,易县靠山新型建材制造有限公司250,东韩村3#,东韩村2#,贾庄村7号,东邵新6号,易县凌云册石灰厂(280KVA),涞山12#变压器,东邵东村1#【纯农排变】,东邵中村2#,东邵东村6#,易县涞山医院变压器,东邵东村9#【纯农排变】,涞山村4#,东邵新村4#,涞山村7#,东邵中村8#,东邵东村7#变压器,易县贺春石材经销处变压器,东邵中村9#,10kV东邵514线路涞山11号变压器,0469488018-66336部队凤凰山庄-专变-46820532-涞山果园,东邵中村4#,涞山村1号变压器,东邵新村1#,东邵中村7#,涞山村2#,东邵中村3#【纯农排变】,易县凡杰石材经销处,东邵东村3#,东邵新村2#,东邵中心小学变压器,涞山村3#,东邵东村5#,东邵中村5#,东邵新7号,10kV东邵514线路涞山10号变压器,东邵东村2#,东邵东村4#,东邵中村6#,贾庄村8号【纯农排变】,涞山村8#,北京地矿东邵50,南韩村1#配变【纯农排变】,赵洪涛板厂,东邵中村10号变压器,东邵中村1#,东邵新村5#,东邵新村3号","powerOffReason":"【停电原因】由于站内消缺导致３５ＫＶ凌云册变电站大巨线５１２线路全线停电【变更送电】无【发布渠道】通过９５５９８发布","powerOffId":"2019102213000304"},{"poweroffId":2019102213000303,"sgpoweroffId":null,"subsName":"","lineName":"10kV吴家庄515线","pubTranName":"吴家庄3#配变,台峪站515线吴家庄2#公用配变,平方6#配变,平房食用菌公用配变,吴家庄6#分支,吴家庄1#配变,吴家庄5#配变,平房3#配变,吴家庄8#配变【18M】,吴家庄9#配变,平房7#公用配变,吴家庄7#公用配变,平房4#配变,平房2#配变,吴家庄4#配变,","scope":"【影响街道/乡镇】台峪乡 【高危重要客户】无 【影响客户】上平房村、下平房村、龙堂沟门、吴家庄、北法台、上交支沟、下交支沟、胡林沟、石猴寺、阜平县台峪乡上交支沟铁矿、阜平县陆通矿业有限公司、阜平县正恒铁选厂、阜平县陈源发台铁金矿","startTime":"2019-11-14 07:00:00","stopDate":"2019-11-14 18:00:00","orgNo":"1340611","typeCode":"计划停电","poweroffArea":"【全线路停电】停吴家庄5#配变,平房3#配变","poweroffReason":"【停电原因】由于引线搭接导致３５ＫＶ台峪变电站１０ＫＶ吴家庄５１５线路全线停电 【变更送电】无 【发布渠道】保定市阜平电视台（１０月２５日０９时至１１月１４日１２时）飞播","powerTime":"2019-11-14 17:32:56","powerComm":"全部送电","subsNo":"","lineNo":"","tgNo":"","tgName":null,"infoStatus":"1","orgName":"国网阜平县供电公司","typeName":null,"infoStatusName":null,"dateDay":null,"orgNos":null,"nowTime":null,"countyName":null,"streetName":null,"villageName":null,"roadName":null,"communityName":null,"tranName":null,"sdLineName":null,"cityCode":"1340611","cityName":"国网阜平县供电公司","provinceCode":null,"stopTime":"2019-11-14 18:00:00","powerType":"全部","powerOffArea":"【全线路停电】停吴家庄5#配变,平房3#配变","powerOffReason":"【停电原因】由于引线搭接导致３５ＫＶ台峪变电站１０ＫＶ吴家庄５１５线路全线停电 【变更送电】无 【发布渠道】保定市阜平电视台（１０月２５日０９时至１１月１４日１２时）飞播","powerOffId":"2019102213000303"},{"poweroffId":2019102213000302,"sgpoweroffId":null,"subsName":"","lineName":"金家庄线516","pubTranName":"西豹泉村4#,易县岩锋建材有限公司变压器,西豹泉变压器5,东流井变压器1,东流井变压器2,东豹泉村5#【纯农排变】,西豹泉张恒军(生淇),金家庄变压器5,西豹泉机井变压器2【纯农排变】,南豹泉村2#,金家庄7号变压器,金家庄变压器4,东豹泉变压器8,北豹泉村5#,北流井变压器1,李秀江,北豹泉变压器3,南豹泉变压器6,北豹泉变压器4,南豹泉村5#,东豹泉村1#,金家庄变压器2,东豹泉村2#,北豹泉村1,北流井变压器4,易县广荣猪饲养有限公司变压器,北豹泉变压器6,东豹泉村10#,易县岩峰建材有限公司变压器,西豹泉变压器5#,绿苑养猪厂,西豹泉变压器1,金家庄变压器6,金家庄变压器1,西豹泉变压器3#,变压器,东豹泉村7#,河北京煤太行化工有限公司变压器,东豹泉机井变压器6,北豹泉变压器2,东豹泉村3#,东豹泉变压器9,东豹泉村4#,北流井变压器2,南豹泉变压器3#,高维有东流井,金家庄机井变压器3,0660809076-易县中悦同兴混凝土制造有限公司-专变-195780480-易县中悦同兴混凝土制造有限公司315KVA,南豹泉村4#【纯农排变】,","scope":"【影响街道/乡镇】流井乡【高危重要客户】无【影响客户】东豹泉村、西豹泉村、南豹泉村、北豹泉村、金家庄村、东流井村、北流井村","startTime":"2019-10-25 00:00:00","stopDate":"2019-10-25 02:00:00","orgNo":"1340625","typeCode":"临时停电","poweroffArea":"【全线路停电】停西豹泉机井变压器2【纯农排变】,西豹泉变压器5,东豹泉机井变压器6,北豹泉变压器6,变压器,易县岩峰建材有限公司变压器,东豹泉村4#,金家庄变压器5,易县广荣猪饲养有限公司变压器,易县岩锋建材有限公司变压器,西豹泉变压器3#,东豹泉村10#,北豹泉村1,东豹泉村5#【纯农排变】,李秀江,西豹泉变压器5#,南豹泉村4#【纯农排变】,西豹泉张恒军(生淇),高维有东流井,金家庄机井变压器3,西豹泉村4#,东豹泉村3#,金家庄变压器2,北流井变压器1,东流井变压器1,南豹泉村5#,北豹泉变压器2,北豹泉村5#,北流井变压器4,东豹泉变压器8,河北京煤太行化工有限公司变压器,南豹泉变压器6,北豹泉变压器3,北豹泉变压器4,金家庄7号变压器,东流井变压器2,东豹泉村2#,绿苑养猪厂,0660809076-易县中悦同兴混凝土制造有限公司-专变-195780480-易县中悦同兴混凝土制造有限公司315KVA,北流井变压器2,金家庄变压器6,金家庄变压器1,东豹泉村1#,西豹泉变压器1,东豹泉村7#,东豹泉变压器9,南豹泉变压器3#,南豹泉村2#,金家庄变压器4","poweroffReason":"【停电原因】由于站内消缺导致３５ＫＶ李家坟变电站金家庄线５１６线路全线停电【变更送电】无【发布渠道】通过９５５９８发布","powerTime":"2019-10-25 01:37:40","powerComm":"已送电","subsNo":"","lineNo":"","tgNo":"","tgName":null,"infoStatus":"1","orgName":"国网易县供电公司","typeName":null,"infoStatusName":null,"dateDay":null,"orgNos":null,"nowTime":null,"countyName":null,"streetName":null,"villageName":null,"roadName":null,"communityName":null,"tranName":null,"sdLineName":null,"cityCode":"1340625","cityName":"国网易县供电公司","provinceCode":null,"stopTime":"2019-10-25 02:00:00","powerType":"全部","powerOffArea":"【全线路停电】停西豹泉机井变压器2【纯农排变】,西豹泉变压器5,东豹泉机井变压器6,北豹泉变压器6,变压器,易县岩峰建材有限公司变压器,东豹泉村4#,金家庄变压器5,易县广荣猪饲养有限公司变压器,易县岩锋建材有限公司变压器,西豹泉变压器3#,东豹泉村10#,北豹泉村1,东豹泉村5#【纯农排变】,李秀江,西豹泉变压器5#,南豹泉村4#【纯农排变】,西豹泉张恒军(生淇),高维有东流井,金家庄机井变压器3,西豹泉村4#,东豹泉村3#,金家庄变压器2,北流井变压器1,东流井变压器1,南豹泉村5#,北豹泉变压器2,北豹泉村5#,北流井变压器4,东豹泉变压器8,河北京煤太行化工有限公司变压器,南豹泉变压器6,北豹泉变压器3,北豹泉变压器4,金家庄7号变压器,东流井变压器2,东豹泉村2#,绿苑养猪厂,0660809076-易县中悦同兴混凝土制造有限公司-专变-195780480-易县中悦同兴混凝土制造有限公司315KVA,北流井变压器2,金家庄变压器6,金家庄变压器1,东豹泉村1#,西豹泉变压器1,东豹泉村7#,东豹泉变压器9,南豹泉变压器3#,南豹泉村2#,金家庄变压器4","powerOffReason":"【停电原因】由于站内消缺导致３５ＫＶ李家坟变电站金家庄线５１６线路全线停电【变更送电】无【发布渠道】通过９５５９８发布","powerOffId":"2019102213000302"},{"poweroffId":2019102213000300,"sgpoweroffId":null,"subsName":"","lineName":"北山南线518","pubTranName":"良村9#,人民银行家属楼,宋村2#【纯农排变】,麻屋庄村3#,中山南村,","scope":"【影响街道/乡镇】桥头乡、易州镇、城管处、迎晖北大街【高危重要客户】无【影响客户】麻屋庄村、北山南村、宋村、五里河村、章村、七里亭村、良村","startTime":"2019-10-24 00:00:00","stopDate":"2019-10-24 02:00:00","orgNo":"1340625","typeCode":"临时停电","poweroffArea":"【全线路停电】停麻屋庄村3#,良村1#,易县龙腾运销有限公司变压器,昌盛钙粉厂,章村3#,人民银行家属楼,良村村北,中山南村,七里亭4#,易县昆仑石材厂变压器,易县顺达钙粉厂（张杰）,维峰机械厂（李维军）,良村3#,河北金泰矿业有限公司315KVA,何晓明,杨九江石板厂（50KVA）,中山南村西,北山南村3#,轧钢厂,北山南村5#,0675751245-易县嘉德房地产开发有限公司-专变-216164639-易县嘉德房地产开发有限公司315KVA,南山北钙粉厂,周树恒水磨石厂,麻屋庄村西,南山南村雪花钙粉厂,北山南钙粉厂（刘宝珠）,张贵球墨灰厂,袁芹（农机站）,河北省易县白水泥厂变压器,章村2#,河北通泽混凝土有限公司,五里河村2#,易县蓝天小学400KVA,易县新荣面粉厂,易县富石达石材有限责任公司,良村5#【纯农排变】,易县康隆新型建材有限公司变压器,0675751245-易县嘉德房地产开发有限公司-专变-216162117-易县嘉德房地产开发有限公司2000KVA,桥头网通,泰山顺达石板厂,石油物探局加油站,五里河5号,五里河村3#,蓝天小学,北山南村4#,易县曙光矿产建材,良村2#,张贵下,徐利,章村1#,天山石材,木器厂,北山南2#,桂子渠村东,七里亭村3#,良村9#,河北六合生物科技有限公司,良村7#,中北石材厂（王怀春）,杨九江石材厂(100KVA),良村6#,宋村3#,易县泰丰恒石材厂,桂子渠村东(80KVA),麻屋庄村4#,北山南村1#,0469134012-易县双民石料购销处-专变-46725379-易县双民石料购销处(成星高),五里河村1#,变戏法,宋村2#【纯农排变】,易县气象局100KVA,良村张永利变压器,良村4#,0606269681-易县石兴钙粉厂-专变-127271039-易县石兴钙粉厂变压器,五里河6号变压器,五里河村4#,章村5#,桥头乡政府,宇奥灰粉厂,易县文义苗圃厂,易县交通加油站变压器,良村8#,易县昌泽盛苗圃场变压器","poweroffReason":"【停电原因】由于站内消缺导致１１０ＫＶ易县变电站北山南５１８线路全线停电【变更送电】无【发布渠道】通过９５５９８发布","powerTime":"2019-10-24 01:10:22","powerComm":"已送电","subsNo":"","lineNo":"","tgNo":"","tgName":null,"infoStatus":"1","orgName":"国网易县供电公司","typeName":null,"infoStatusName":null,"dateDay":null,"orgNos":null,"nowTime":null,"countyName":null,"streetName":null,"villageName":null,"roadName":null,"communityName":null,"tranName":null,"sdLineName":null,"cityCode":"1340625","cityName":"国网易县供电公司","provinceCode":null,"stopTime":"2019-10-24 02:00:00","powerType":"全部","powerOffArea":"【全线路停电】停麻屋庄村3#,良村1#,易县龙腾运销有限公司变压器,昌盛钙粉厂,章村3#,人民银行家属楼,良村村北,中山南村,七里亭4#,易县昆仑石材厂变压器,易县顺达钙粉厂（张杰）,维峰机械厂（李维军）,良村3#,河北金泰矿业有限公司315KVA,何晓明,杨九江石板厂（50KVA）,中山南村西,北山南村3#,轧钢厂,北山南村5#,0675751245-易县嘉德房地产开发有限公司-专变-216164639-易县嘉德房地产开发有限公司315KVA,南山北钙粉厂,周树恒水磨石厂,麻屋庄村西,南山南村雪花钙粉厂,北山南钙粉厂（刘宝珠）,张贵球墨灰厂,袁芹（农机站）,河北省易县白水泥厂变压器,章村2#,河北通泽混凝土有限公司,五里河村2#,易县蓝天小学400KVA,易县新荣面粉厂,易县富石达石材有限责任公司,良村5#【纯农排变】,易县康隆新型建材有限公司变压器,0675751245-易县嘉德房地产开发有限公司-专变-216162117-易县嘉德房地产开发有限公司2000KVA,桥头网通,泰山顺达石板厂,石油物探局加油站,五里河5号,五里河村3#,蓝天小学,北山南村4#,易县曙光矿产建材,良村2#,张贵下,徐利,章村1#,天山石材,木器厂,北山南2#,桂子渠村东,七里亭村3#,良村9#,河北六合生物科技有限公司,良村7#,中北石材厂（王怀春）,杨九江石材厂(100KVA),良村6#,宋村3#,易县泰丰恒石材厂,桂子渠村东(80KVA),麻屋庄村4#,北山南村1#,0469134012-易县双民石料购销处-专变-46725379-易县双民石料购销处(成星高),五里河村1#,变戏法,宋村2#【纯农排变】,易县气象局100KVA,良村张永利变压器,良村4#,0606269681-易县石兴钙粉厂-专变-127271039-易县石兴钙粉厂变压器,五里河6号变压器,五里河村4#,章村5#,桥头乡政府,宇奥灰粉厂,易县文义苗圃厂,易县交通加油站变压器,良村8#,易县昌泽盛苗圃场变压器","powerOffReason":"【停电原因】由于站内消缺导致１１０ＫＶ易县变电站北山南５１８线路全线停电【变更送电】无【发布渠道】通过９５５９８发布","powerOffId":"2019102213000300"},{"poweroffId":2019102213000296,"sgpoweroffId":null,"subsName":"","lineName":"10kV白石台512线","pubTranName":"井尔沟5#配变变压器,营尔2#变压器,井尔沟1#配变变压器,白石台1#公用配变变压器,白石台7#配变变压器,白石台9#配变变压器,白石台10#配变变压器,营尔食用菌公用配变,白石台4#公用配变变压器,白石台11#公用配变变压器,台峪村黑木耳种植基地公用配变,井尔沟3#配变变压器,台峪5#公用配变变压器,白石台8#配变变压器,营尔6号公用配变,井尔沟6#配变变压器,井尔沟8#配变变压器,井尔沟7#变压器,台峪4#变压器,台峪1#公用配变变压器【18M】,台峪3#配变,营尔5#变压器,营尔4#变压器,白石台6#公用配变变压器,白石台5#公用配变变压器,井尔沟9#变压器,台峪站512线营尔1#公用配变【18M】,白石台3#公用配变变压器,营尔3#变压器,井尔沟4#配变变压器,台峪站512线台峪2#公用配变,百石台12#公用配变变压器,白石台2#公用配变变压器,井尔沟2#配变变压器,","scope":"【影响街道/乡镇】台峪乡 【高危重要客户】无 【影响客户】营尔村、河西村、路途村、韩家湾、北扎拉、黑石头、黑石头沟门、分白村、井儿沟、台峪村、井尓沟水专、台台村、旧木、上店村、石角台、上寺村、白石台、千家沟、高贡村、排茶安、南营、齐家庄户、杨树湾、阜平陈源发台铁金矿、阜平县鑫矿源矿业有限公司、阜平县金财水泥砖厂、石家庄市新坦洋贸易有限公司、庙台水用、阜平县台安铁选厂、阜平县旺鑫总厂甲盛分厂、阜平县金鼎选铁有限公司、东勋修理铺、阜平县恒祥铁选厂、双利铁选厂、阜平县百石拉石英矿开采加工厂","startTime":"2019-11-14 07:00:00","stopDate":"2019-11-14 18:00:00","orgNo":"1340611","typeCode":"计划停电","poweroffArea":"【全线路停电】停井尔沟4#配变变压器,白石台11#公用配变变压器","poweroffReason":"【停电原因】由于引线搭接导致３５ＫＶ台峪变电站１０ＫＶ白石台５１２线路全线停电 【变更送电】无 【发布渠道】保定市阜平电视台（１０月２５日０９时至１１月１４日１２时）飞播","powerTime":"2019-11-14 17:32:00","powerComm":"全部送电","subsNo":"","lineNo":"","tgNo":"","tgName":null,"infoStatus":"1","orgName":"国网阜平县供电公司","typeName":null,"infoStatusName":null,"dateDay":null,"orgNos":null,"nowTime":null,"countyName":null,"streetName":null,"villageName":null,"roadName":null,"communityName":null,"tranName":null,"sdLineName":null,"cityCode":"1340611","cityName":"国网阜平县供电公司","provinceCode":null,"stopTime":"2019-11-14 18:00:00","powerType":"全部","powerOffArea":"【全线路停电】停井尔沟4#配变变压器,白石台11#公用配变变压器","powerOffReason":"【停电原因】由于引线搭接导致３５ＫＶ台峪变电站１０ＫＶ白石台５１２线路全线停电 【变更送电】无 【发布渠道】保定市阜平电视台（１０月２５日０９时至１１月１４日１２时）飞播","powerOffId":"2019102213000296"},{"poweroffId":2019102213000295,"sgpoweroffId":null,"subsName":"","lineName":"流井线513","pubTranName":"李家坟村7#村东,李家坟村3#村西,李家坟10西北井【纯农排变】,匡山村4#村南,坟庄村6#村北,匡山村7#村北,坟庄村15#,坟庄14#村东【纯农排变】,龙泉石材厂,生活垃圾场变压器,坟庄村7#|村东,坟庄村9#村西,易县天达蔬菜种植园变压器,坟庄10#村西北,东留召村1#村内,坟庄村1#|村内,北留召村3#村南,北留召村5#村西,坟庄村12#,坟庄村5#村西,坟庄村2#村南,东留召村4#村南,匡山村5#村北,坟庄13#村南,李家坟村4#村中,坟庄村张宝海,北留召村7#村西,匡山村8#村北,匡山村1#村内,0555679212-中国铁塔股份有限公司保定市分公司-专变-94779843-中国移动通信集团河北有限公司易县分公司变压器,修配厂,李家坟饮料厂(保运矿业),李家坟16号,坟庄村3#村东,匡山村6#村东【纯农排变】,李家坟村9#村西,匡山村3#村东,立邦橡胶厂,坟庄村4#学校,北留召村6#村东,匡山村10#,匡山村9#村北,坟庄11#村东,李家坟村2#村东,坟庄村16#,李家坟面粉厂,东留召村2#大队,51033部队,李家坟村1#村北,易县匡泰矿粉有限公司变压器,李家坟8号,北留召村4#村南,东留召村3#村北,李家坟村5#村南,东留召小学变压器,坟庄村8#村东北,东留召7#村东北,匡山村2#村西,东留召村6#村东【纯农排变】,李家坟小学变压器,易县匡山涌泉橡胶 经销部变压器,张义,北留召村1#村内,东留召村5#村西【纯农排变】,北留召村2#村东,","scope":"【影响街道/乡镇】桥头乡、流井乡 【高危重要客户】无 【影响客户】坟庄村、匡山村、北留召村、东留召村、李家坟村","startTime":"2019-10-24 00:00:00","stopDate":"2019-10-24 02:00:00","orgNo":"1340625","typeCode":"临时停电","poweroffArea":"【全线路停电】停易县匡泰矿粉有限公司变压器,匡山村6#村东【纯农排变】,匡山村4#村南,易县匡山涌泉橡胶 经销部变压器,李家坟16号,李家坟村3#村西,坟庄13#村南,李家坟村2#村东,东留召小学变压器,东留召村1#村内,李家坟8号,坟庄村8#村东北,东留召村3#村北,东留召村2#大队,坟庄村1#|村内,坟庄村3#村东,坟庄村16#,匡山村7#村北,东留召村4#村南,李家坟饮料厂(保运矿业),生活垃圾场变压器,东留召村6#村东【纯农排变】,龙泉石材厂,北留召村4#村南,李家坟村4#村中,坟庄14#村东【纯农排变】,东留召村5#村西【纯农排变】,匡山村9#村北,坟庄村6#村北,51033部队,坟庄11#村东,李家坟小学变压器,坟庄10#村西北,李家坟面粉厂,修配厂,李家坟村9#村西,李家坟村5#村南,北留召村1#村内,坟庄村张宝海,李家坟10西北井【纯农排变】,东留召7#村东北,坟庄村7#|村东,坟庄村4#学校,李家坟村7#村东,北留召村2#村东,北留召村5#村西,0555679212-中国铁塔股份有限公司保定市分公司-专变-94779843-中国移动通信集团河北有限公司易县分公司变压器,匡山村1#村内,匡山村8#村北,张义,坟庄村12#,立邦橡胶厂,匡山村3#村东,匡山村5#村北,易县天达蔬菜种植园变压器,坟庄村5#村西,匡山村10#,北留召村7#村西,坟庄村2#村南,北留召村6#村东,坟庄村15#,坟庄村9#村西,李家坟村1#村北,北留召村3#村南,匡山村2#村西","poweroffReason":"【停电原因】由于站内消缺导致３５ＫＶ李家坟变电站流井５１３线路全线停电【变更送电】无【发布渠道】通过９５５９８发布","powerTime":"2019-10-24 01:11:36","powerComm":"已送电","subsNo":"","lineNo":"","tgNo":"","tgName":null,"infoStatus":"1","orgName":"国网易县供电公司","typeName":null,"infoStatusName":null,"dateDay":null,"orgNos":null,"nowTime":null,"countyName":null,"streetName":null,"villageName":null,"roadName":null,"communityName":null,"tranName":null,"sdLineName":null,"cityCode":"1340625","cityName":"国网易县供电公司","provinceCode":null,"stopTime":"2019-10-24 02:00:00","powerType":"全部","powerOffArea":"【全线路停电】停易县匡泰矿粉有限公司变压器,匡山村6#村东【纯农排变】,匡山村4#村南,易县匡山涌泉橡胶 经销部变压器,李家坟16号,李家坟村3#村西,坟庄13#村南,李家坟村2#村东,东留召小学变压器,东留召村1#村内,李家坟8号,坟庄村8#村东北,东留召村3#村北,东留召村2#大队,坟庄村1#|村内,坟庄村3#村东,坟庄村16#,匡山村7#村北,东留召村4#村南,李家坟饮料厂(保运矿业),生活垃圾场变压器,东留召村6#村东【纯农排变】,龙泉石材厂,北留召村4#村南,李家坟村4#村中,坟庄14#村东【纯农排变】,东留召村5#村西【纯农排变】,匡山村9#村北,坟庄村6#村北,51033部队,坟庄11#村东,李家坟小学变压器,坟庄10#村西北,李家坟面粉厂,修配厂,李家坟村9#村西,李家坟村5#村南,北留召村1#村内,坟庄村张宝海,李家坟10西北井【纯农排变】,东留召7#村东北,坟庄村7#|村东,坟庄村4#学校,李家坟村7#村东,北留召村2#村东,北留召村5#村西,0555679212-中国铁塔股份有限公司保定市分公司-专变-94779843-中国移动通信集团河北有限公司易县分公司变压器,匡山村1#村内,匡山村8#村北,张义,坟庄村12#,立邦橡胶厂,匡山村3#村东,匡山村5#村北,易县天达蔬菜种植园变压器,坟庄村5#村西,匡山村10#,北留召村7#村西,坟庄村2#村南,北留召村6#村东,坟庄村15#,坟庄村9#村西,李家坟村1#村北,北留召村3#村南,匡山村2#村西","powerOffReason":"【停电原因】由于站内消缺导致３５ＫＶ李家坟变电站流井５１３线路全线停电【变更送电】无【发布渠道】通过９５５９８发布","powerOffId":"2019102213000295"}],"pageModel":{"pageNow":472,"totalCount":10973,"totalPage":1098,"tableRows":0,"pageCount":10,"beginCount":4710},"isExperi":"1"}