{"message":"","today":"2020-06-15","seleList":[{"poweroffId":2020060113000229,"sgpoweroffId":null,"subsName":"","lineName":"宋桥线516","pubTranName":"北晋庄村北农排3#【纯农排变】,三岔口4#农排【纯农排变】,07042|三岔口村东综合3673,07238|北晋庄村北新增综合5576,07045|三岔口综合3619,三岔口正南综合,07090|北晋庄村北综合3728,07091|北晋庄村西综合3729,三岔口正北综合,07082|北晋庄村西2综合3565,07043|三岔口村西南综合3672,北晋庄羊场新增综合,07044|三岔口村西北综合3736,","scope":"【影响街道/乡镇】晋庄乡 【高危重要客户】无 【影响客户】北晋庄村北部分、三岔口村","startTime":"2020-06-01 13:46:31","stopDate":"2020-06-01 18:00:00","orgNo":"1340613","typeCode":"电网故障停限电","poweroffArea":"【全线路停电】停高阳县凯通织物厂变压器,高阳县晋庄镇北晋庄村四变压器,东方皮毛厂,晋庄中学变压器,三岔口正北综合,李红格织布厂,北晋庄16号农排【纯农排变】,北晋庄12号农排【纯农排变】,070016|北晋庄村西农排（5）5146【纯农排变】,义兴毛纺厂,北晋庄11号农排【纯农排变】,三岔口5号农排【纯农排变】,高阳县晋庄镇北晋庄村一变压器,昌旗佳润纺织品有限公司,晁小燕合线厂,金丰毛纺厂,07082|北晋庄村西2综合3565,07043|三岔口村西南综合3672,北晋庄村北农排4#【纯农排变】,北晋庄17号农排【纯农排变】,晁燕合线厂,三岔口3#农排【纯农排变】,保定凯曼毛纺织品制造有限公司变压器,三岔口1#农排【纯农排变】,高阳县盛鸿纺织品制造有限公司变压器,北晋庄村西北农排5#【纯农排变】,高阳县明远纺织有限公司变压器,苇元屯面粉厂,振华皮毛厂,王刚,北晋庄羊场新增综合,07044|三岔口村西北综合3736,北晋庄村北农排3#【纯农排变】,曙光北毛巾厂,北晋庄13号农排【纯农排变】,三岔口4#农排【纯农排变】,北晋庄18号农排【纯农排变】,蒋小贺地毯厂,高阳县朋乐纺织厂变压器,07042|三岔口村东综合3673,07238|北晋庄村北新增综合5576,高阳县晋庄镇北晋庄村二变压器,三岔口2#农排【纯农排变】,07045|三岔口综合3619,三岔口8#农排【纯农排变】,三岔口正南综合,07090|北晋庄村北综合3728,07091|北晋庄村西综合3729,北晋庄2号农排【纯农排变】","poweroffReason":"【停电原因】由于汽车撞杆导致３５ＫＶ杨佐变电站宋桥５１６线路全线停电【变更送电】无【发布渠道】通过９５５９８发布","powerTime":"2020-06-01 17:00:00","powerComm":"已送电","subsNo":"","lineNo":"","tgNo":"","tgName":null,"infoStatus":"1","orgName":"国网高阳县供电公司","typeName":null,"infoStatusName":null,"dateDay":null,"orgNos":null,"nowTime":null,"countyName":null,"streetName":null,"villageName":null,"roadName":null,"communityName":null,"tranName":null,"sdLineName":null,"cityCode":"1340613","cityName":"国网高阳县供电公司","provinceCode":null,"stopTime":"2020-06-01 18:00:00","powerType":"全部","powerOffArea":"【全线路停电】停高阳县凯通织物厂变压器,高阳县晋庄镇北晋庄村四变压器,东方皮毛厂,晋庄中学变压器,三岔口正北综合,李红格织布厂,北晋庄16号农排【纯农排变】,北晋庄12号农排【纯农排变】,070016|北晋庄村西农排（5）5146【纯农排变】,义兴毛纺厂,北晋庄11号农排【纯农排变】,三岔口5号农排【纯农排变】,高阳县晋庄镇北晋庄村一变压器,昌旗佳润纺织品有限公司,晁小燕合线厂,金丰毛纺厂,07082|北晋庄村西2综合3565,07043|三岔口村西南综合3672,北晋庄村北农排4#【纯农排变】,北晋庄17号农排【纯农排变】,晁燕合线厂,三岔口3#农排【纯农排变】,保定凯曼毛纺织品制造有限公司变压器,三岔口1#农排【纯农排变】,高阳县盛鸿纺织品制造有限公司变压器,北晋庄村西北农排5#【纯农排变】,高阳县明远纺织有限公司变压器,苇元屯面粉厂,振华皮毛厂,王刚,北晋庄羊场新增综合,07044|三岔口村西北综合3736,北晋庄村北农排3#【纯农排变】,曙光北毛巾厂,北晋庄13号农排【纯农排变】,三岔口4#农排【纯农排变】,北晋庄18号农排【纯农排变】,蒋小贺地毯厂,高阳县朋乐纺织厂变压器,07042|三岔口村东综合3673,07238|北晋庄村北新增综合5576,高阳县晋庄镇北晋庄村二变压器,三岔口2#农排【纯农排变】,07045|三岔口综合3619,三岔口8#农排【纯农排变】,三岔口正南综合,07090|北晋庄村北综合3728,07091|北晋庄村西综合3729,北晋庄2号农排【纯农排变】","powerOffReason":"【停电原因】由于汽车撞杆导致３５ＫＶ杨佐变电站宋桥５１６线路全线停电【变更送电】无【发布渠道】通过９５５９８发布","powerOffId":"2020060113000229"},{"poweroffId":2020060113000228,"sgpoweroffId":null,"subsName":"","lineName":"辛告线549","pubTranName":"西辛告光9,西辛告光11,西辛告光8,西辛告光7,西辛告光16,西辛告光12,西辛告光15,西辛告新光7,西辛告光14,西辛告光4,西辛告光13,西辛告光10,","scope":"【影响街道/乡镇】定兴镇、育才路 【影响客户】保定龙源裕宝水泥制品制造有限公司、建兴陶粒厂、河北海天板业有限公司、强盛水泥制品厂、保定中博华泰汽车贸易公司、保定威科特塑料制品有限公司、粤大饲料厂、玉伟水泥制品厂、粤兴饲料有限公司、定兴县永胜机械加工厂、保定鑫涛机械制造有限公司、河北建设集团有限公司定兴混凝土分公司、光大包装制品有限公司、河北恒牌商品混凝土制造有限公司、俊龙肉羊饲养有限公司、越辉仓储服务有限公司、河北大利汽车零件贸易有限公司、石家庄思凯电力建设有限公司、乐松木包装制品制造有限公司、新世纪包装彩印厂、西辛告部分用户、小北头部分用户","startTime":"2020-06-01 13:50:51","stopDate":"2020-06-01 16:30:00","orgNo":"1340609","typeCode":"电网故障停限电","poweroffArea":"【全线路停电】停１１０ＫＶ兴北变电站辛告线５４９线路全线，0011676707定兴县强盛水泥制品厂,0011676708*保定中博华泰汽车贸易公司,0011676712小北头村混2,0645588970-定兴县城市管理行政执法局小北头段路灯-专变-169546293-小北头路灯1-30,越辉仓储-630,建岩机械制造-250,西辛告光14,光大包装,河北海天板业有限公司-250,越辉仓储服务有限公司-1000,西辛告光4,定兴县建兴陶粒厂分户,西辛告光13,0691885867-定兴县定兴镇西幸告明德小学-专变-235695523-明德小学-200,西辛告光10,小北头排10【纯农排变】,西辛告新光7,0011676747定兴县玉伟水泥制品厂,粤大饲料厂-200,0694788765-定兴县三告幼儿园-专变-237560958-三告幼儿园-160,西辛告光12,0011676728小北头饲料厂,强力水泥200,0011676740定兴县永胜机械加工厂,0011676731*保定振兴焊接材料有限公司,大利汽车零件贸易有限公司-250,西辛告光15,西辛告排4【纯农排变】,0011676713小北头村排3,0011676745河北海天板业有限公司（北变）,西辛告光9,小北头排9【纯农排变】,西辛告光11,0671597869-定兴县新世纪包装彩印厂-专变-212169170-新世纪包装彩印厂-160,定兴县乐松木包装制品制造有限公司,龙源裕宝水泥制品-200,保定威科特塑料制品有限公司,同德昌塑料制品-200,河北建设集团有限公司定兴混凝土分公司,西辛告排2【纯农排变】,0011676736小北头村排2,变压器,0645601411-定兴县城市管理行政执法局小北头段路灯-专变-169547234-小北头路灯2-30,保定恒源房地产315,西辛告光8,西辛告光7,西辛告光16,小北头排11【纯农排变】","poweroffReason":"【停电原因】由于小北头饲料厂分支２号杆电缆烧毁导致１１０ＫＶ兴北变电站辛告线５４９线路全线停电 【变更送电】因抢修进度加快原因，送电时间由１８：００变更为１６：３０ 【发布渠道】通过９５５９８发布","powerTime":"2020-06-01 15:43:11","powerComm":"已送电","subsNo":"","lineNo":"","tgNo":"","tgName":null,"infoStatus":"1","orgName":"国网定兴县供电公司","typeName":null,"infoStatusName":null,"dateDay":null,"orgNos":null,"nowTime":null,"countyName":null,"streetName":null,"villageName":null,"roadName":null,"communityName":null,"tranName":null,"sdLineName":null,"cityCode":"1340609","cityName":"国网定兴县供电公司","provinceCode":null,"stopTime":"2020-06-01 16:30:00","powerType":"全部","powerOffArea":"【全线路停电】停１１０ＫＶ兴北变电站辛告线５４９线路全线，0011676707定兴县强盛水泥制品厂,0011676708*保定中博华泰汽车贸易公司,0011676712小北头村混2,0645588970-定兴县城市管理行政执法局小北头段路灯-专变-169546293-小北头路灯1-30,越辉仓储-630,建岩机械制造-250,西辛告光14,光大包装,河北海天板业有限公司-250,越辉仓储服务有限公司-1000,西辛告光4,定兴县建兴陶粒厂分户,西辛告光13,0691885867-定兴县定兴镇西幸告明德小学-专变-235695523-明德小学-200,西辛告光10,小北头排10【纯农排变】,西辛告新光7,0011676747定兴县玉伟水泥制品厂,粤大饲料厂-200,0694788765-定兴县三告幼儿园-专变-237560958-三告幼儿园-160,西辛告光12,0011676728小北头饲料厂,强力水泥200,0011676740定兴县永胜机械加工厂,0011676731*保定振兴焊接材料有限公司,大利汽车零件贸易有限公司-250,西辛告光15,西辛告排4【纯农排变】,0011676713小北头村排3,0011676745河北海天板业有限公司（北变）,西辛告光9,小北头排9【纯农排变】,西辛告光11,0671597869-定兴县新世纪包装彩印厂-专变-212169170-新世纪包装彩印厂-160,定兴县乐松木包装制品制造有限公司,龙源裕宝水泥制品-200,保定威科特塑料制品有限公司,同德昌塑料制品-200,河北建设集团有限公司定兴混凝土分公司,西辛告排2【纯农排变】,0011676736小北头村排2,变压器,0645601411-定兴县城市管理行政执法局小北头段路灯-专变-169547234-小北头路灯2-30,保定恒源房地产315,西辛告光8,西辛告光7,西辛告光16,小北头排11【纯农排变】","powerOffReason":"【停电原因】由于小北头饲料厂分支２号杆电缆烧毁导致１１０ＫＶ兴北变电站辛告线５４９线路全线停电 【变更送电】因抢修进度加快原因，送电时间由１８：００变更为１６：３０ 【发布渠道】通过９５５９８发布","powerOffId":"2020060113000228"},{"poweroffId":2020060113000220,"sgpoweroffId":null,"subsName":"","lineName":"丁申线514","pubTranName":"10Kv514丁申线丁庄1号,郎五庄小学丁庄教学点,10Kv514丁申线丁庄6号,翟庄21号,10kV514丁申线丁庄18号,10Kv514丁申线翟庄20号【纯农排变】,10kV514丁申线丁庄17号,0739998829河北大午农牧集团食品有限公司900029020645,10Kv514丁申线丁庄1号【纯农排变】,10Kv514丁申线翟庄4号,10kV514丁申线郎伍庄16号,10Kv514丁申线翟庄8号【纯农排变】,10Kv514丁申线翟庄7号【纯农排变】,10Kv514丁申线翟庄12号,保定市方大木材加工有限公司,10Kv514丁申线丁庄12号,10Kv514丁申线丁庄14号【纯农排变】,10Kv514丁申线翟庄2号【纯农排变】,10Kv514丁申线丁庄8号【纯农排变】,10Kv514丁申线翟庄6号【纯农排变】,农场二队1号,大午农牧集团公司葡萄基地4号,河北大午农牧有限公司,10Kv514丁申线翟庄1号,农场一队1号,农场一分场4号,农场二队5号,10Kv514丁申线翟庄14号【纯农排变】,10kV514丁申线丁庄3号【纯农排变】,0548854370-河北大午农牧集团有限公司-专变-48191429-河北大午农牧集团有限公司14号,10Kv514丁申线丁庄4号,河北大午农牧集团种禽有限公司,10Kv514丁申线丁庄16号,10Kv514丁申线丁庄2号,10Kv514丁申线翟庄5号,10Kv514丁申线丁庄5号,保定农场二分场,河北大午农牧集团公司6号,10Kv514丁申线翟庄3号,大午葡萄基地9号,河北大午农牧集团肥业有限公司,10Kv514丁申线丁庄11号,0749680235保定市国合农垦发展有限公司900029028122,10Kv514丁申线翟庄15号,0469088090-农场二队-专变-81426832-农场二队,10Kv514丁申线丁庄7号【纯农排变】,河北省南水北调工程建设管理中心,10kV514丁申线丁庄15号【纯农排变】,10Kv514丁申线丁庄9号【纯农排变】,10Kv514丁申线翟庄19号,0469088061-农场二队-专变-129044336-农场二队,10Kv514丁申线翟庄16号,10Kv514丁申线丁庄10号【纯农排变】,0739998829河北大午农牧有限公司900028919794,0739998829河北大午农牧有限公司900028923773,10Kv514丁申线丁庄13号【纯农排变】,","scope":"【影响街道/乡镇】高林村镇 【高危重要客户】无 【影响客户】翟庄、郎伍庄、丁庄、农场一队、农场二队、农场一分厂、农场二分厂","startTime":"2020-06-01 13:28:56","stopDate":"2020-06-01 15:00:00","orgNo":"1340605","typeCode":"电网故障停限电","poweroffArea":"【全线路停电】停10Kv514丁申线丁庄1号,郎五庄小学丁庄教学点, 10Kv514丁申线丁庄6号,翟庄21号,10kV514丁申线丁庄18号,10Kv514丁申线翟庄20号【纯农排变】,10kV514丁申线丁庄17号,0739998829河北大午农牧集团食品有限公司900029020645,10Kv514丁申线丁庄1号【纯农排变】, 10Kv514丁申线翟庄4号,10kV514丁申线郎伍庄16号,10Kv514丁申线翟庄8号【纯农排变】,10Kv514丁申线翟庄7号【纯农排变】, 10Kv514丁申线翟庄12号,保定市方大木材加工有限公司, 10Kv514丁申线丁庄12号, 10Kv514丁申线丁庄14号【纯农排变】,10Kv514丁申线翟庄2号【纯农排变】, 10Kv514丁申线丁庄8号【纯农排变】, 10Kv514丁申线翟庄6号【纯农排变】,农场二队1号,大午农牧集团公司葡萄基地4号,河北大午农牧有限公司, 10Kv514丁申线翟庄1号,农场一队1号,农场一分场4号,农场二队5号,10Kv514丁申线翟庄14号【纯农排变】,10kV514丁申线丁庄3号【纯农排变】,0548854370-河北大午农牧集团有限公司-专变-48191429-河北大午农牧集团有限公司14号, 10Kv514丁申线丁庄4号,河北大午农牧集团种禽有限公司, 10Kv514丁申线丁庄16号, 10Kv514丁申线丁庄2号, 10Kv514丁申线翟庄5号, 10Kv514丁申线丁庄5号,保定农场二分场,河北大午农牧集团公司6号, 10Kv514丁申线翟庄3号,大午葡萄基地9号,河北大午农牧集团肥业有限公司, 10Kv514丁申线丁庄11号,0749680235保定市国合农垦发展有限公司900029028122, 10Kv514丁申线翟庄15号,0469088090-农场二队-专变-81426832-农场二队,10Kv514丁申线丁庄7号【纯农排变】,河北省南水北调工程建设管理中心,10kV514丁申线丁庄15号【纯农排变】, 10Kv514丁申线丁庄9号【纯农排变】, 10Kv514丁申线翟庄19号,0469088061-农场二队-专变-129044336-农场二队, 10Kv514丁申线翟庄16号, 10Kv514丁申线丁庄10号【纯农排变】,0739998829河北大午农牧有限公司900028919794,0739998829河北大午农牧有限公司900028923773, 10Kv514丁申线丁庄13号【纯农排变】","poweroffReason":"【停电原因】由于Ｂ相接地导致３５ＫＶ郎五庄变电站丁申５１４线路全线停电 【变更送电】无 【发布渠道】通过９５５９８发布","powerTime":"2020-06-01 14:13:13","powerComm":"已送电","subsNo":"","lineNo":"","tgNo":"","tgName":null,"infoStatus":"1","orgName":"国网徐水县供电公司","typeName":null,"infoStatusName":null,"dateDay":null,"orgNos":null,"nowTime":null,"countyName":null,"streetName":null,"villageName":null,"roadName":null,"communityName":null,"tranName":null,"sdLineName":null,"cityCode":"1340605","cityName":"国网徐水县供电公司","provinceCode":null,"stopTime":"2020-06-01 15:00:00","powerType":"全部","powerOffArea":"【全线路停电】停10Kv514丁申线丁庄1号,郎五庄小学丁庄教学点, 10Kv514丁申线丁庄6号,翟庄21号,10kV514丁申线丁庄18号,10Kv514丁申线翟庄20号【纯农排变】,10kV514丁申线丁庄17号,0739998829河北大午农牧集团食品有限公司900029020645,10Kv514丁申线丁庄1号【纯农排变】, 10Kv514丁申线翟庄4号,10kV514丁申线郎伍庄16号,10Kv514丁申线翟庄8号【纯农排变】,10Kv514丁申线翟庄7号【纯农排变】, 10Kv514丁申线翟庄12号,保定市方大木材加工有限公司, 10Kv514丁申线丁庄12号, 10Kv514丁申线丁庄14号【纯农排变】,10Kv514丁申线翟庄2号【纯农排变】, 10Kv514丁申线丁庄8号【纯农排变】, 10Kv514丁申线翟庄6号【纯农排变】,农场二队1号,大午农牧集团公司葡萄基地4号,河北大午农牧有限公司, 10Kv514丁申线翟庄1号,农场一队1号,农场一分场4号,农场二队5号,10Kv514丁申线翟庄14号【纯农排变】,10kV514丁申线丁庄3号【纯农排变】,0548854370-河北大午农牧集团有限公司-专变-48191429-河北大午农牧集团有限公司14号, 10Kv514丁申线丁庄4号,河北大午农牧集团种禽有限公司, 10Kv514丁申线丁庄16号, 10Kv514丁申线丁庄2号, 10Kv514丁申线翟庄5号, 10Kv514丁申线丁庄5号,保定农场二分场,河北大午农牧集团公司6号, 10Kv514丁申线翟庄3号,大午葡萄基地9号,河北大午农牧集团肥业有限公司, 10Kv514丁申线丁庄11号,0749680235保定市国合农垦发展有限公司900029028122, 10Kv514丁申线翟庄15号,0469088090-农场二队-专变-81426832-农场二队,10Kv514丁申线丁庄7号【纯农排变】,河北省南水北调工程建设管理中心,10kV514丁申线丁庄15号【纯农排变】, 10Kv514丁申线丁庄9号【纯农排变】, 10Kv514丁申线翟庄19号,0469088061-农场二队-专变-129044336-农场二队, 10Kv514丁申线翟庄16号, 10Kv514丁申线丁庄10号【纯农排变】,0739998829河北大午农牧有限公司900028919794,0739998829河北大午农牧有限公司900028923773, 10Kv514丁申线丁庄13号【纯农排变】","powerOffReason":"【停电原因】由于Ｂ相接地导致３５ＫＶ郎五庄变电站丁申５１４线路全线停电 【变更送电】无 【发布渠道】通过９５５９８发布","powerOffId":"2020060113000220"},{"poweroffId":2020060113000180,"sgpoweroffId":null,"subsName":"","lineName":"10KV冠云路516","pubTranName":"铝厂南院,","scope":"【影响街道/乡镇】桃园城区 【影响客户】铝厂南院","startTime":"2020-06-11 07:00:00","stopDate":"2020-06-11 18:00:00","orgNo":"1340626","typeCode":"计划停电","poweroffArea":"【单台区停电】停１１０ＫＶ涿县变电站１０ＫＶ冠云路５１６线路铝厂南院公变台区，铝厂南院","poweroffReason":"【停电原因】由于线路切改工程导致１１０ＫＶ涿县变电站１０ＫＶ冠云路５１６线路铝厂南院公变台区停电 【变更送电】无 【发布渠道】涿州市涿州电视台（０６月０１日至０６月１０日２１：００播放２次）屏幕上方滚动","powerTime":"2020-06-11 17:44:15","powerComm":"恢复送电","subsNo":"","lineNo":"","tgNo":"","tgName":null,"infoStatus":"1","orgName":"国网涿州市供电公司","typeName":null,"infoStatusName":null,"dateDay":null,"orgNos":null,"nowTime":null,"countyName":null,"streetName":null,"villageName":null,"roadName":null,"communityName":null,"tranName":null,"sdLineName":null,"cityCode":"1340626","cityName":"国网涿州市供电公司","provinceCode":null,"stopTime":"2020-06-11 18:00:00","powerType":"全部","powerOffArea":"【单台区停电】停１１０ＫＶ涿县变电站１０ＫＶ冠云路５１６线路铝厂南院公变台区，铝厂南院","powerOffReason":"【停电原因】由于线路切改工程导致１１０ＫＶ涿县变电站１０ＫＶ冠云路５１６线路铝厂南院公变台区停电 【变更送电】无 【发布渠道】涿州市涿州电视台（０６月０１日至０６月１０日２１：００播放２次）屏幕上方滚动","powerOffId":"2020060113000180"},{"poweroffId":2020060113000174,"sgpoweroffId":null,"subsName":"","lineName":"10KV冠云路516","pubTranName":"铝厂南院,","scope":"【影响街道/乡镇】桃园城区 【影响客户】铝厂南院","startTime":"2020-06-10 07:00:00","stopDate":"2020-06-10 18:00:00","orgNo":"1340626","typeCode":"计划停电","poweroffArea":"【单台区停电】停１１０ＫＶ涿县变电站１０ＫＶ冠云路５１６线路铝厂南院公变台区，铝厂南院","poweroffReason":"【停电原因】由于线路切改工程导致１１０ＫＶ涿县变电站１０ＫＶ冠云路５１６线路铝厂南院公变台区停电 【变更送电】无 【发布渠道】涿州市涿州电视台（０６月０１日至０６月０９日２１：００播放２次）屏幕上方滚动","powerTime":"2020-06-10 17:40:19","powerComm":"已送电","subsNo":"","lineNo":"","tgNo":"","tgName":null,"infoStatus":"1","orgName":"国网涿州市供电公司","typeName":null,"infoStatusName":null,"dateDay":null,"orgNos":null,"nowTime":null,"countyName":null,"streetName":null,"villageName":null,"roadName":null,"communityName":null,"tranName":null,"sdLineName":null,"cityCode":"1340626","cityName":"国网涿州市供电公司","provinceCode":null,"stopTime":"2020-06-10 18:00:00","powerType":"全部","powerOffArea":"【单台区停电】停１１０ＫＶ涿县变电站１０ＫＶ冠云路５１６线路铝厂南院公变台区，铝厂南院","powerOffReason":"【停电原因】由于线路切改工程导致１１０ＫＶ涿县变电站１０ＫＶ冠云路５１６线路铝厂南院公变台区停电 【变更送电】无 【发布渠道】涿州市涿州电视台（０６月０１日至０６月０９日２１：００播放２次）屏幕上方滚动","powerOffId":"2020060113000174"},{"poweroffId":2020060113000080,"sgpoweroffId":null,"subsName":"","lineName":"10kV各庄线523","pubTranName":"陈各庄23变压器,陈各庄25变压器,陈各庄24变压器,陈各庄12变压器,陈各庄06变压器,陈各庄20变压器,陈各庄22变压器,陈各庄16变压器,陈各庄04变压器,陈各庄13变压器,刘漫撒西台变压器,陈各庄05变压器,陈各庄14变压器,陈各庄03变压器,陈各庄19变压器,陈各庄02变压器,陈各庄01变压器,陈各庄11变压器,陈各庄09变压器,杨漫撒南台变压器,陈各庄18变压器,刘漫撒变压器,陈各庄08变压器,陈各庄15变压器,陈各庄17变压器,方东北地磁卡,安乐庄西变压器,陈各庄21变压器,陈各庄10变压器,陈各庄07变压器,","scope":"【影响街道/乡镇】北城办事处 【高危重要客户】无 【影响客户】陈各庄村、江健医疗、宏宇橡胶、旭龙液压、新旭龙腾机械、葛军沙石、泰筑混凝土","startTime":"2020-06-01 09:30:31","stopDate":"2020-06-01 12:00:00","orgNo":"1340612","typeCode":"电网故障停限电","poweroffArea":"【全线路停电】停陈各庄15变压器,陈各庄17变压器,方东北地磁卡,安乐庄西变压器,葛军砂石料厂变压器,陈各庄23变压器,陈各庄25变压器,鑫龙,陈各庄24变压器,河北新旭龙腾机械装备有限公司2#变压器,陈各庄12变压器,陈各庄06变压器,陈各庄20变压器,陈各庄22变压器,河北泰筑商品混凝土有限公司,陈各庄10变压器,陈各庄07变压器,陈各庄13变压器,刘漫撒西台变压器,陈各庄05变压器,河北新旭龙腾机械装备有限公司1#变压器,陈各庄14变压器,陈各庄北地变压器【纯农排变】,陈各庄03变压器,陈各庄08变压器,高碑店市北城办事处陈各庄学校,刘漫撒东地变压器【纯农排变】,陈各庄21变压器,陈各庄02变压器,陈各庄01变压器,陈各庄11变压器,陈各庄09变压器,陈各庄19变压器,永利铸造厂,陈各庄西地变压器【纯农排变】,陈各庄16变压器,陈各庄04变压器,杨漫撒南台变压器,陈各庄18变压器,刘漫撒变压器","poweroffReason":"【停电原因】由于引线烧断导致１１０ＫＶ各庄变电站１０ＫＶ各庄５２３线路全线停电 【变更送电】因抢修进度加快原因，送电时间由１３：００变更为１２：００ 【发布渠道】通过９５５９８发布","powerTime":"2020-06-01 11:34:46","powerComm":"已送电","subsNo":"","lineNo":"","tgNo":"","tgName":null,"infoStatus":"1","orgName":"国网高碑店市供电公司","typeName":null,"infoStatusName":null,"dateDay":null,"orgNos":null,"nowTime":null,"countyName":null,"streetName":null,"villageName":null,"roadName":null,"communityName":null,"tranName":null,"sdLineName":null,"cityCode":"1340612","cityName":"国网高碑店市供电公司","provinceCode":null,"stopTime":"2020-06-01 12:00:00","powerType":"全部","powerOffArea":"【全线路停电】停陈各庄15变压器,陈各庄17变压器,方东北地磁卡,安乐庄西变压器,葛军砂石料厂变压器,陈各庄23变压器,陈各庄25变压器,鑫龙,陈各庄24变压器,河北新旭龙腾机械装备有限公司2#变压器,陈各庄12变压器,陈各庄06变压器,陈各庄20变压器,陈各庄22变压器,河北泰筑商品混凝土有限公司,陈各庄10变压器,陈各庄07变压器,陈各庄13变压器,刘漫撒西台变压器,陈各庄05变压器,河北新旭龙腾机械装备有限公司1#变压器,陈各庄14变压器,陈各庄北地变压器【纯农排变】,陈各庄03变压器,陈各庄08变压器,高碑店市北城办事处陈各庄学校,刘漫撒东地变压器【纯农排变】,陈各庄21变压器,陈各庄02变压器,陈各庄01变压器,陈各庄11变压器,陈各庄09变压器,陈各庄19变压器,永利铸造厂,陈各庄西地变压器【纯农排变】,陈各庄16变压器,陈各庄04变压器,杨漫撒南台变压器,陈各庄18变压器,刘漫撒变压器","powerOffReason":"【停电原因】由于引线烧断导致１１０ＫＶ各庄变电站１０ＫＶ各庄５２３线路全线停电 【变更送电】因抢修进度加快原因，送电时间由１３：００变更为１２：００ 【发布渠道】通过９５５９８发布","powerOffId":"2020060113000080"},{"poweroffId":2020060113000076,"sgpoweroffId":null,"subsName":"","lineName":"机床厂515","pubTranName":"高三六队变压器,高三村市场变压器,高三街西变压器,高三街东变压器,高一大方变压器,高三新变压器,高三大队变压器,街里南变压器,街里北变压器,","scope":"【影响街道/乡镇】和平办事处 【高危重要客户】无 【影响客户】高三村、人和茂盛、北京第一机床锻造、赵新禾、燕南、一机床铸造、春晖新吉、自来水、特种铸造、瑞仁厂、三聚厂、北一重型、冠力厂、金桥汽车、高碑店祥和瑞成、机床厂路灯","startTime":"2020-06-10 05:30:00","stopDate":"2020-06-10 08:30:00","orgNo":"1340612","typeCode":"计划停电","poweroffArea":"【全线路停电】停街里北变压器,高三新变压器,高三大队变压器,街里南变压器,高三六队变压器,高三村市场变压器,高三街西变压器,高三街东变压器,高碑店市金桥汽车服务公司,0387436023-高碑店市益友工业有限责任公司06,0600672300-高碑店市益友工业有限责任公司03,高碑店市贤合瑞成废旧物资回收有限公司变压器01,0600672300-高碑店市益友工业有限责任公司04,燕南机械厂,0387436645-高碑店市益友工业有限公司05,特种铸造厂,北一重型机械铸造股份有限公司2,赵辛禾,高碑店市高碑店龙泉浴池变压器,春晖新吉机械制造有限公司,杨卫强变压器,0600672300-高碑店市益友工业有限责任公司01,高一大方变压器,0600672300-高碑店市益友工业有限责任公司02,0546632231-河北人和茂盛商混砼有限责任公司-专变-47889511-变压器,高碑店市贤合瑞成废旧物资回收有限公司变压器02,保定冠力工程机械,北一重型机械铸造股份有限公司1,三聚工业有限公司,一机床2,一机床2 南,瑞仁公司,自来水2,高一3变压器,高碑店市路灯管理办公室变压器,高三大方变压器","poweroffReason":"【停电原因】由于电源接引导致２２０ＫＶ高碑店变电站１０ＫＶ机床厂５１５线路全线停电 【变更送电】因抢修进度加快原因，送电时间由１０：３０变更为０８：３０ 【发布渠道】高碑店市高碑店电视台（０６月０２日０８时至０６月０９日１８时之间）屏幕上方滚动","powerTime":"2020-06-10 07:50:58","powerComm":"已送电","subsNo":"","lineNo":"","tgNo":"","tgName":null,"infoStatus":"1","orgName":"国网高碑店市供电公司","typeName":null,"infoStatusName":null,"dateDay":null,"orgNos":null,"nowTime":null,"countyName":null,"streetName":null,"villageName":null,"roadName":null,"communityName":null,"tranName":null,"sdLineName":null,"cityCode":"1340612","cityName":"国网高碑店市供电公司","provinceCode":null,"stopTime":"2020-06-10 08:30:00","powerType":"全部","powerOffArea":"【全线路停电】停街里北变压器,高三新变压器,高三大队变压器,街里南变压器,高三六队变压器,高三村市场变压器,高三街西变压器,高三街东变压器,高碑店市金桥汽车服务公司,0387436023-高碑店市益友工业有限责任公司06,0600672300-高碑店市益友工业有限责任公司03,高碑店市贤合瑞成废旧物资回收有限公司变压器01,0600672300-高碑店市益友工业有限责任公司04,燕南机械厂,0387436645-高碑店市益友工业有限公司05,特种铸造厂,北一重型机械铸造股份有限公司2,赵辛禾,高碑店市高碑店龙泉浴池变压器,春晖新吉机械制造有限公司,杨卫强变压器,0600672300-高碑店市益友工业有限责任公司01,高一大方变压器,0600672300-高碑店市益友工业有限责任公司02,0546632231-河北人和茂盛商混砼有限责任公司-专变-47889511-变压器,高碑店市贤合瑞成废旧物资回收有限公司变压器02,保定冠力工程机械,北一重型机械铸造股份有限公司1,三聚工业有限公司,一机床2,一机床2 南,瑞仁公司,自来水2,高一3变压器,高碑店市路灯管理办公室变压器,高三大方变压器","powerOffReason":"【停电原因】由于电源接引导致２２０ＫＶ高碑店变电站１０ＫＶ机床厂５１５线路全线停电 【变更送电】因抢修进度加快原因，送电时间由１０：３０变更为０８：３０ 【发布渠道】高碑店市高碑店电视台（０６月０２日０８时至０６月０９日１８时之间）屏幕上方滚动","powerOffId":"2020060113000076"},{"poweroffId":2020060113000065,"sgpoweroffId":null,"subsName":"","lineName":"10KV冠云路516","pubTranName":"铝厂北院南,","scope":"【影响街道/乡镇】桃园城区 【影响客户】铝厂北院","startTime":"2020-06-11 07:00:00","stopDate":"2020-06-11 18:00:00","orgNo":"1340626","typeCode":"计划停电","poweroffArea":"【单台区停电】停１１０ＫＶ涿县变电站１０ＫＶ冠云路５１６线路铝厂北院南公变台区，铝厂北院南","poweroffReason":"【停电原因】由于线路切改工程导致１１０ＫＶ涿县变电站１０ＫＶ冠云路５１６线路铝厂北院南公变台区停电 【变更送电】无 【发布渠道】涿州市涿州电视台（０６月０１日至０６月１０日２１：００播放２次）屏幕上方滚动","powerTime":"2020-06-11 17:43:35","powerComm":"恢复送电","subsNo":"","lineNo":"","tgNo":"","tgName":null,"infoStatus":"1","orgName":"国网涿州市供电公司","typeName":null,"infoStatusName":null,"dateDay":null,"orgNos":null,"nowTime":null,"countyName":null,"streetName":null,"villageName":null,"roadName":null,"communityName":null,"tranName":null,"sdLineName":null,"cityCode":"1340626","cityName":"国网涿州市供电公司","provinceCode":null,"stopTime":"2020-06-11 18:00:00","powerType":"全部","powerOffArea":"【单台区停电】停１１０ＫＶ涿县变电站１０ＫＶ冠云路５１６线路铝厂北院南公变台区，铝厂北院南","powerOffReason":"【停电原因】由于线路切改工程导致１１０ＫＶ涿县变电站１０ＫＶ冠云路５１６线路铝厂北院南公变台区停电 【变更送电】无 【发布渠道】涿州市涿州电视台（０６月０１日至０６月１０日２１：００播放２次）屏幕上方滚动","powerOffId":"2020060113000065"},{"poweroffId":2020060113000033,"sgpoweroffId":null,"subsName":"","lineName":"10kV兴屯524线","pubTranName":"兴屯东北,兴屯北地磁卡【纯农排变】,兴隆屯1,兴屯西北（2户）,陈各庄西台变压器,兴隆屯7,兴隆屯9,兴隆屯4,","scope":"【影响街道/乡镇】１０７国道 【高危重要客户】无 【影响客户】陈各庄、兴屯村、杨漫撒砖厂、地暖锅炉、京华橡胶、广润液压、星鼎机械、泰鑫机械、海顺机械、贾慧斌、峰业橡胶3、合众商混、兴屯地、天鳌机电、华阳油缸、合信地产、路灯、烁石银丰机械、同创橡胶、喜郎里建筑、中国移动、长虹风机、玉轮橡胶、水韵农庄、中诚华宇矿业","startTime":"2020-06-01 06:45:17","stopDate":"2020-06-01 12:00:00","orgNo":"1340612","typeCode":"电网故障停限电","poweroffArea":"【全线路停电】停兴屯东北,河北佳暖锅炉制造有限公司变压器02,0640290595-北京合信房地产开发有限公司03,高碑店市海顺船泊配件有限责任公司,保定邦宁商贸有限责任公司变压器,兴屯北地磁卡【纯农排变】,中国移动通信集体河北有限公司高碑店分公司,葛洪亮西北,0640290595-北京合信房地产开发有限公司04,高碑店市杨漫撒砖厂,高碑店市长虹通风机厂,养殖厂,海顺船泊,陈各庄东台磁卡【纯农排变】,高碑店市路灯管理办公室变压器,乡砖,高碑店市铄石银丰机械设备制造有限公司变压器,闫金刚变压器,兴屯西北（2户）,高碑店市峰业橡胶制品有限责任公司变压器,贾慧斌变压器,陈各庄西台变压器,兴隆屯7,同创,高碑店市广润液压橡塑制品有限公司,0640290595-北京合信房地产开发有限公司01,兴屯东1（2户）,兴隆屯9,兴隆屯8,兴隆屯4,兴隆屯3,高碑店市峰业橡胶制品有限责任公司,兴隆屯2,田凤平2变压器,兴隆屯5,0640290595-北京合信房地产开发有限公司02,高碑店市圣亚泰汽车模具有限公司,河北天鳌机电设备有限公司变压器,兴隆屯6,兴隆屯1,高碑店市华扬油缸有限责任公司,涿州市喜朗建筑工程有限公司,玉轮变压器,兴屯地,泰鑫机械,河北佳暖锅炉制造有限公司变压器01","poweroffReason":"【停电原因】由于引线烧断导致１１０ＫＶ各庄变电站１０ＫＶ兴屯５２４线路全线停电 【变更送电】无 【发布渠道】通过９５５９８发布","powerTime":"2020-06-01 11:33:00","powerComm":"已送电","subsNo":"","lineNo":"","tgNo":"","tgName":null,"infoStatus":"1","orgName":"国网高碑店市供电公司","typeName":null,"infoStatusName":null,"dateDay":null,"orgNos":null,"nowTime":null,"countyName":null,"streetName":null,"villageName":null,"roadName":null,"communityName":null,"tranName":null,"sdLineName":null,"cityCode":"1340612","cityName":"国网高碑店市供电公司","provinceCode":null,"stopTime":"2020-06-01 12:00:00","powerType":"全部","powerOffArea":"【全线路停电】停兴屯东北,河北佳暖锅炉制造有限公司变压器02,0640290595-北京合信房地产开发有限公司03,高碑店市海顺船泊配件有限责任公司,保定邦宁商贸有限责任公司变压器,兴屯北地磁卡【纯农排变】,中国移动通信集体河北有限公司高碑店分公司,葛洪亮西北,0640290595-北京合信房地产开发有限公司04,高碑店市杨漫撒砖厂,高碑店市长虹通风机厂,养殖厂,海顺船泊,陈各庄东台磁卡【纯农排变】,高碑店市路灯管理办公室变压器,乡砖,高碑店市铄石银丰机械设备制造有限公司变压器,闫金刚变压器,兴屯西北（2户）,高碑店市峰业橡胶制品有限责任公司变压器,贾慧斌变压器,陈各庄西台变压器,兴隆屯7,同创,高碑店市广润液压橡塑制品有限公司,0640290595-北京合信房地产开发有限公司01,兴屯东1（2户）,兴隆屯9,兴隆屯8,兴隆屯4,兴隆屯3,高碑店市峰业橡胶制品有限责任公司,兴隆屯2,田凤平2变压器,兴隆屯5,0640290595-北京合信房地产开发有限公司02,高碑店市圣亚泰汽车模具有限公司,河北天鳌机电设备有限公司变压器,兴隆屯6,兴隆屯1,高碑店市华扬油缸有限责任公司,涿州市喜朗建筑工程有限公司,玉轮变压器,兴屯地,泰鑫机械,河北佳暖锅炉制造有限公司变压器01","powerOffReason":"【停电原因】由于引线烧断导致１１０ＫＶ各庄变电站１０ＫＶ兴屯５２４线路全线停电 【变更送电】无 【发布渠道】通过９５５９８发布","powerOffId":"2020060113000033"},{"poweroffId":2020053113000281,"sgpoweroffId":null,"subsName":"","lineName":"北胡线511","pubTranName":"北胡供电所92号配变,","scope":"【影响街道/乡镇】史端乡 【高危重要客户】无 【影响客户】北胡渠、南胡渠","startTime":"2020-05-31 22:38:47","stopDate":"2020-06-01 04:00:00","orgNo":"1340605","typeCode":"电网故障停限电","poweroffArea":"【全线路停电】停北胡17号,北胡供电所79号,供电所72号【纯农排变】,史端供电所42号【纯农排变】,北胡13号,北胡19号配变【纯农排变】,保定秦汉新型建材有限公司,北胡15号配变,北胡8号,史端供电所10号,史端供电所5号【纯农排变】,北胡18号【纯农排变】,北胡3号配变【纯农排变】,北胡7号【纯农排变】,北胡供电所73号【纯农排变】,南胡2号,北胡供电所55号配变,北胡2号,史端供电所13号配变【纯农排变】,南胡10号【纯农排变】,供电所20号,北胡10号【纯农排变】,供电所41号,北胡21号【纯农排变】,北胡12号配变,北胡供电所92号配变,南胡9号【纯农排变】,南胡供电所65号,北胡4号【纯农排变】,北胡渠村14号,北胡6号配变,北胡9号【纯农排变】,北胡16号,北胡5号,南胡供14号,南胡15号","poweroffReason":"【停电原因】由于Ｂ相接地导致３５ＫＶ史端变电站北胡线５１１线路全线停电 【变更送电】因抢修进度加快原因，送电时间由０９:００变更为０４:００ 【发布渠道】通过９５５９８发布","powerTime":"2020-06-01 03:01:42","powerComm":"已送电","subsNo":"","lineNo":"","tgNo":"","tgName":null,"infoStatus":"1","orgName":"国网徐水县供电公司","typeName":null,"infoStatusName":null,"dateDay":null,"orgNos":null,"nowTime":null,"countyName":null,"streetName":null,"villageName":null,"roadName":null,"communityName":null,"tranName":null,"sdLineName":null,"cityCode":"1340605","cityName":"国网徐水县供电公司","provinceCode":null,"stopTime":"2020-06-01 04:00:00","powerType":"全部","powerOffArea":"【全线路停电】停北胡17号,北胡供电所79号,供电所72号【纯农排变】,史端供电所42号【纯农排变】,北胡13号,北胡19号配变【纯农排变】,保定秦汉新型建材有限公司,北胡15号配变,北胡8号,史端供电所10号,史端供电所5号【纯农排变】,北胡18号【纯农排变】,北胡3号配变【纯农排变】,北胡7号【纯农排变】,北胡供电所73号【纯农排变】,南胡2号,北胡供电所55号配变,北胡2号,史端供电所13号配变【纯农排变】,南胡10号【纯农排变】,供电所20号,北胡10号【纯农排变】,供电所41号,北胡21号【纯农排变】,北胡12号配变,北胡供电所92号配变,南胡9号【纯农排变】,南胡供电所65号,北胡4号【纯农排变】,北胡渠村14号,北胡6号配变,北胡9号【纯农排变】,北胡16号,北胡5号,南胡供14号,南胡15号","powerOffReason":"【停电原因】由于Ｂ相接地导致３５ＫＶ史端变电站北胡线５１１线路全线停电 【变更送电】因抢修进度加快原因，送电时间由０９:００变更为０４:００ 【发布渠道】通过９５５９８发布","powerOffId":"2020053113000281"}],"pageModel":{"pageNow":29,"totalCount":10973,"totalPage":1098,"tableRows":0,"pageCount":10,"beginCount":280},"isExperi":"1"}