{"message":"","today":"2020-06-15","seleList":[{"poweroffId":2019102113000320,"sgpoweroffId":null,"subsName":"","lineName":"10KV渡假村514","pubTranName":"下庄村台区,三坡镇卫生院315KVA专变,配变,下庄六队4#台区,下庄商业街5号台区,北京铁路局北京供电段新增,下庄商业街2台区,下庄商业街6号台区,李桂山,下庄六队6台区,科苑宾馆,下庄村3号台区,下庄5队台区,广源公司1,波峰宾馆,绿野仙中酒店,联通(下庄),度假村,金鑫山庄,三坡客栈(2),加油站,检察院宾馆,涞水网通公司,金鑫宾馆,下庄商业街3号配电变压器,庄子路路灯,波峰假日(2),下庄6队2号台区,龚建永,恒业假日,三坡次生森林,下庄商业街4号台区,下庄6队后山台区,下庄后山台区,配变002#,松树口新村二号台区,下庄商业街台区,上庄四队1#台区,李春波50KVA专变,下庄6队1号台区,广源公司,波峰宾馆(1),中菲宾馆,三坡圣洁供水200KVA专变,民族园度假村,陶贻志,","scope":"【影响街道/乡镇】三坡镇 【高危重要客户】无 【影响客户】下庄村","startTime":"2019-10-21 19:58:27","stopDate":"2019-10-21 21:00:00","orgNo":"1340614","typeCode":"电网故障停限电","poweroffArea":"【全线路停电】停下庄村台区,三坡镇卫生院315KVA专变,配变,下庄六队4#台区,下庄商业街5号台区,北京铁路局北京供电段新增,下庄商业街2台区,下庄商业街6号台区,李桂山,下庄六队6台区,科苑宾馆,下庄村3号台区,下庄5队台区,广源公司1,波峰宾馆,绿野仙中酒店,联通(下庄),度假村,金鑫山庄,三坡客栈(2),加油站,检察院宾馆,涞水网通公司,金鑫宾馆,下庄商业街3号配电变压器,庄子路路灯,波峰假日(2),下庄6队2号台区,龚建永,恒业假日,三坡次生森林,下庄商业街4号台区,下庄6队后山台区,下庄后山台区,配变002#,松树口新村二号台区,下庄商业街台区,上庄四队1#台区,李春波50KVA专变,下庄6队1号台区,广源公司,波峰宾馆(1),中菲宾馆,三坡圣洁供水200KVA专变,民族园度假村,陶贻志","poweroffReason":"【停电原因】由于设备线夹烧毁导致３５ＫＶ三坡变电站１０ＫＶ度假村５１４线路全线停电 【变更送电】无 【发布渠道】通过９５５９８发布","powerTime":"2019-10-21 20:55:36","powerComm":"已送电","subsNo":"","lineNo":"","tgNo":"","tgName":null,"infoStatus":"1","orgName":"国网涞水县供电公司","typeName":null,"infoStatusName":null,"dateDay":null,"orgNos":null,"nowTime":null,"countyName":null,"streetName":null,"villageName":null,"roadName":null,"communityName":null,"tranName":null,"sdLineName":null,"cityCode":"1340614","cityName":"国网涞水县供电公司","provinceCode":null,"stopTime":"2019-10-21 21:00:00","powerType":"全部","powerOffArea":"【全线路停电】停下庄村台区,三坡镇卫生院315KVA专变,配变,下庄六队4#台区,下庄商业街5号台区,北京铁路局北京供电段新增,下庄商业街2台区,下庄商业街6号台区,李桂山,下庄六队6台区,科苑宾馆,下庄村3号台区,下庄5队台区,广源公司1,波峰宾馆,绿野仙中酒店,联通(下庄),度假村,金鑫山庄,三坡客栈(2),加油站,检察院宾馆,涞水网通公司,金鑫宾馆,下庄商业街3号配电变压器,庄子路路灯,波峰假日(2),下庄6队2号台区,龚建永,恒业假日,三坡次生森林,下庄商业街4号台区,下庄6队后山台区,下庄后山台区,配变002#,松树口新村二号台区,下庄商业街台区,上庄四队1#台区,李春波50KVA专变,下庄6队1号台区,广源公司,波峰宾馆(1),中菲宾馆,三坡圣洁供水200KVA专变,民族园度假村,陶贻志","powerOffReason":"【停电原因】由于设备线夹烧毁导致３５ＫＶ三坡变电站１０ＫＶ度假村５１４线路全线停电 【变更送电】无 【发布渠道】通过９５５９８发布","powerOffId":"2019102113000320"},{"poweroffId":2019102113000317,"sgpoweroffId":null,"subsName":"","lineName":"10kV明官店517线","pubTranName":"西王奇综合5变压器,南仕庄综合4,","scope":"【影响街道/乡镇】明官店乡 【高危重要客户】无 【影响客户】南仕庄、西仕庄、西王奇","startTime":"2019-11-03 08:30:00","stopDate":"2019-11-03 10:50:00","orgNo":"1340606","typeCode":"计划停电","poweroffArea":"【分支停电】停南仕庄综合4,西王奇综合5变压器","poweroffReason":"【停电原因】由于线路改造导致１１０ＫＶ东河变电站１０ＫＶ明官店５１７线路西王奇分支１号杆刀闸以下线路停电 【变更送电】因抢修工作加快原因，送电时间由１７：３０变更为１０：５０ 【发布渠道】保定市安国电视台（１０月２２日００时至２４时之间）屏幕上方滚动","powerTime":"2019-11-03 10:18:16","powerComm":"已送电","subsNo":"","lineNo":"","tgNo":"","tgName":null,"infoStatus":"1","orgName":"国网安国市供电公司","typeName":null,"infoStatusName":null,"dateDay":null,"orgNos":null,"nowTime":null,"countyName":null,"streetName":null,"villageName":null,"roadName":null,"communityName":null,"tranName":null,"sdLineName":null,"cityCode":"1340606","cityName":"国网安国市供电公司","provinceCode":null,"stopTime":"2019-11-03 10:50:00","powerType":"全部","powerOffArea":"【分支停电】停南仕庄综合4,西王奇综合5变压器","powerOffReason":"【停电原因】由于线路改造导致１１０ＫＶ东河变电站１０ＫＶ明官店５１７线路西王奇分支１号杆刀闸以下线路停电 【变更送电】因抢修工作加快原因，送电时间由１７：３０变更为１０：５０ 【发布渠道】保定市安国电视台（１０月２２日００时至２４时之间）屏幕上方滚动","powerOffId":"2019102113000317"},{"poweroffId":2019102113000310,"sgpoweroffId":null,"subsName":"","lineName":"10kV大章579线","pubTranName":"大章内3,大章综合4台区变压器,","scope":"【影响街道/乡镇】伍仁桥镇 【高危重要客户】无 【影响客户】大章村、伍仁村","startTime":"2019-11-09 07:00:00","stopDate":"2019-11-09 15:00:00","orgNo":"1340606","typeCode":"计划停电","poweroffArea":"【全线路停电】停大章综合4台区变压器,大章内1,大章内3","poweroffReason":"【停电原因】由于线路改造导致１１０ＫＶ伍仁桥变电站１０ＫＶ大章５７９线路全线停电 【变更送电】无 【发布渠道】保定市安国电视台（１０月２２日００时至２４时之间）屏幕上方滚动","powerTime":"2019-11-09 14:37:42","powerComm":"已送电","subsNo":"","lineNo":"","tgNo":"","tgName":null,"infoStatus":"1","orgName":"国网安国市供电公司","typeName":null,"infoStatusName":null,"dateDay":null,"orgNos":null,"nowTime":null,"countyName":null,"streetName":null,"villageName":null,"roadName":null,"communityName":null,"tranName":null,"sdLineName":null,"cityCode":"1340606","cityName":"国网安国市供电公司","provinceCode":null,"stopTime":"2019-11-09 15:00:00","powerType":"全部","powerOffArea":"【全线路停电】停大章综合4台区变压器,大章内1,大章内3","powerOffReason":"【停电原因】由于线路改造导致１１０ＫＶ伍仁桥变电站１０ＫＶ大章５７９线路全线停电 【变更送电】无 【发布渠道】保定市安国电视台（１０月２２日００时至２４时之间）屏幕上方滚动","powerOffId":"2019102113000310"},{"poweroffId":2019102113000294,"sgpoweroffId":null,"subsName":"","lineName":"10kV郭村566线","pubTranName":"军诜综合10号,新军诜综合3台区,郭村内3,","scope":"【影响街道/乡镇】伍仁桥镇 【高危重要客户】无 【影响客户】军诜村、新军诜村、郭村","startTime":"2019-11-09 07:00:00","stopDate":"2019-11-09 15:00:00","orgNo":"1340606","typeCode":"计划停电","poweroffArea":"【全线路停电】停郭村内3,军诜综合10号,新军诜综合3台区","poweroffReason":"【停电原因】由于更换变压器导致１１０ＫＶ伍仁桥变电站１０ＫＶ郭村５６６线路全线停电 【变更送电】无 【发布渠道】保定市安国电视台（１０月２２日００时至２４时之间）屏幕上方滚动","powerTime":"2019-11-09 14:38:02","powerComm":"已送电","subsNo":"","lineNo":"","tgNo":"","tgName":null,"infoStatus":"1","orgName":"国网安国市供电公司","typeName":null,"infoStatusName":null,"dateDay":null,"orgNos":null,"nowTime":null,"countyName":null,"streetName":null,"villageName":null,"roadName":null,"communityName":null,"tranName":null,"sdLineName":null,"cityCode":"1340606","cityName":"国网安国市供电公司","provinceCode":null,"stopTime":"2019-11-09 15:00:00","powerType":"全部","powerOffArea":"【全线路停电】停郭村内3,军诜综合10号,新军诜综合3台区","powerOffReason":"【停电原因】由于更换变压器导致１１０ＫＶ伍仁桥变电站１０ＫＶ郭村５６６线路全线停电 【变更送电】无 【发布渠道】保定市安国电视台（１０月２２日００时至２４时之间）屏幕上方滚动","powerOffId":"2019102113000294"},{"poweroffId":2019102113000282,"sgpoweroffId":null,"subsName":"","lineName":"10kV东桄513线","pubTranName":"西桄综合1变压器,营二里综合2变压器,侯村综合1变压器,东桄综合八,侯村综合三台区,东桄综合四,","scope":"【影响街道/乡镇】郑章镇 【高危重要客户】无 【影响客户】东桄村、西桄村、东柴村、西李村、西娄底村、东李村、营二里村、候村","startTime":"2019-11-01 08:00:00","stopDate":"2019-11-01 19:30:00","orgNo":"1340606","typeCode":"计划停电","poweroffArea":"【全线路停电】停侯村综合三台区,东桄综合四,西桄综合1变压器,营二里综合2变压器,侯村综合1变压器,东桄综合八","poweroffReason":"【停电原因】由于秋季检修导致３５ＫＶ常庄变电站１０ＫＶ东桄５１３线路全线停电 【变更送电】因工作未完成原因，送电时间由１７：３０变更为１９：３０ 【发布渠道】保定市安国电视台（１０月２２日００时至２４时之间）屏幕上方滚动","powerTime":"2019-11-01 19:16:32","powerComm":"已送电","subsNo":"","lineNo":"","tgNo":"","tgName":null,"infoStatus":"1","orgName":"国网安国市供电公司","typeName":null,"infoStatusName":null,"dateDay":null,"orgNos":null,"nowTime":null,"countyName":null,"streetName":null,"villageName":null,"roadName":null,"communityName":null,"tranName":null,"sdLineName":null,"cityCode":"1340606","cityName":"国网安国市供电公司","provinceCode":null,"stopTime":"2019-11-01 19:30:00","powerType":"全部","powerOffArea":"【全线路停电】停侯村综合三台区,东桄综合四,西桄综合1变压器,营二里综合2变压器,侯村综合1变压器,东桄综合八","powerOffReason":"【停电原因】由于秋季检修导致３５ＫＶ常庄变电站１０ＫＶ东桄５１３线路全线停电 【变更送电】因工作未完成原因，送电时间由１７：３０变更为１９：３０ 【发布渠道】保定市安国电视台（１０月２２日００时至２４时之间）屏幕上方滚动","powerOffId":"2019102113000282"},{"poweroffId":2019102113000239,"sgpoweroffId":null,"subsName":"","lineName":"10kV韩村512线","pubTranName":"路根综合五号J,韩村综合8,辛安综合四,梨园村内综合1变压器,","scope":"【影响街道/乡镇】郑章镇 【高危重要客户】无 【影响客户】辛安村、路根村、韩村、梨园村","startTime":"2019-10-30 08:00:00","stopDate":"2019-10-30 17:30:00","orgNo":"1340606","typeCode":"计划停电","poweroffArea":"【全线路停电】停路根综合五号J,韩村综合8,辛安综合四,梨园村内综合1变压器","poweroffReason":"【停电原因】由于秋季检修导致３５ＫＶ常庄变电站１０ＫＶ韩村５１２线路全线停电 【变更送电】无 【发布渠道】保定市安国电视台（１０月２１日００时至２４时之间）屏幕上方滚动","powerTime":"2019-10-30 17:12:22","powerComm":"已送电","subsNo":"","lineNo":"","tgNo":"","tgName":null,"infoStatus":"1","orgName":"国网安国市供电公司","typeName":null,"infoStatusName":null,"dateDay":null,"orgNos":null,"nowTime":null,"countyName":null,"streetName":null,"villageName":null,"roadName":null,"communityName":null,"tranName":null,"sdLineName":null,"cityCode":"1340606","cityName":"国网安国市供电公司","provinceCode":null,"stopTime":"2019-10-30 17:30:00","powerType":"全部","powerOffArea":"【全线路停电】停路根综合五号J,韩村综合8,辛安综合四,梨园村内综合1变压器","powerOffReason":"【停电原因】由于秋季检修导致３５ＫＶ常庄变电站１０ＫＶ韩村５１２线路全线停电 【变更送电】无 【发布渠道】保定市安国电视台（１０月２１日００时至２４时之间）屏幕上方滚动","powerOffId":"2019102113000239"},{"poweroffId":2019102113000212,"sgpoweroffId":null,"subsName":"","lineName":"10kV东北郊站519线路","pubTranName":"10kVB486箱式变电站B486配电变压器,","scope":"【影响街道/乡镇】长城北大街、前卫路 【高危重要客户】无 【影响客户】前卫小学宿舍、工人宿舍","startTime":"2019-10-21 16:20:00","stopDate":"2019-10-21 17:30:00","orgNo":"13406","typeCode":"电网故障停限电","poweroffArea":"【单台区停电】停10kVB486箱式变电站B486配电变压器","poweroffReason":"【停电原因】由于低压刀闸烧导致１０ＫＶ东北郊变电站５１９线路Ｂ４８６公变台区停电【变更送电】无【发布渠道】通过９５５９８发布","powerTime":"2019-10-21 16:53:52","powerComm":"已送电","subsNo":"","lineNo":"","tgNo":"","tgName":null,"infoStatus":"1","orgName":"保定供电公司","typeName":null,"infoStatusName":null,"dateDay":null,"orgNos":null,"nowTime":null,"countyName":null,"streetName":null,"villageName":null,"roadName":null,"communityName":null,"tranName":null,"sdLineName":null,"cityCode":"13406","cityName":"保定供电公司","provinceCode":null,"stopTime":"2019-10-21 17:30:00","powerType":"全部","powerOffArea":"【单台区停电】停10kVB486箱式变电站B486配电变压器","powerOffReason":"【停电原因】由于低压刀闸烧导致１０ＫＶ东北郊变电站５１９线路Ｂ４８６公变台区停电【变更送电】无【发布渠道】通过９５５９８发布","powerOffId":"2019102113000212"},{"poweroffId":2019102113000172,"sgpoweroffId":null,"subsName":"","lineName":"小北头线559","pubTranName":"庞各庄光2,周家庄光4【2018年节能变】,周家庄光10,周家庄光1,周家庄光3,周家庄光6,周家庄光5,周家庄光9,周家庄光8,周家庄光7,周家庄光2,周家庄光11,李庄光1,李庄光5,李庄光8,庞各庄光6,庞各庄光3,庞各庄光7【2018年四批补强】,庞各庄光4,","scope":"【影响街道/乡镇】定兴镇 【高危重要客户】无 【影响客户】周家庄、李庄、庞各庄","startTime":"2019-11-03 07:30:00","stopDate":"2019-11-03 12:00:00","orgNo":"1340609","typeCode":"计划停电","poweroffArea":"【分支停电】停周家庄光4【2018年节能变】,周家庄光10,周家庄光1,周家庄光3,周家庄光6,周家庄光5,周家庄光9,周家庄光8,周家庄光7,周家庄光2,周家庄光11,李庄光1,李庄光5,李庄光8,庞各庄排2【纯农排变】,庞各庄光6,庞各庄光3,庞各庄光7【2018年四批补强】,庞各庄光4,庞各庄排1【纯农排变】,庞各庄光2","poweroffReason":"【停电原因】由于线路主干１０９号杆安装断路器导致１１０ＫＶ兴北变电站小北头线５５９线路主干０７４号杆以下线路停电 【变更送电】无 【发布渠道】保定市定兴县电视台（１０月２６日０９时１０分至２３时５０分之间）屏幕上方滚动播放","powerTime":"2019-11-03 11:48:16","powerComm":"已送电","subsNo":"","lineNo":"","tgNo":"","tgName":null,"infoStatus":"1","orgName":"国网定兴县供电公司","typeName":null,"infoStatusName":null,"dateDay":null,"orgNos":null,"nowTime":null,"countyName":null,"streetName":null,"villageName":null,"roadName":null,"communityName":null,"tranName":null,"sdLineName":null,"cityCode":"1340609","cityName":"国网定兴县供电公司","provinceCode":null,"stopTime":"2019-11-03 12:00:00","powerType":"全部","powerOffArea":"【分支停电】停周家庄光4【2018年节能变】,周家庄光10,周家庄光1,周家庄光3,周家庄光6,周家庄光5,周家庄光9,周家庄光8,周家庄光7,周家庄光2,周家庄光11,李庄光1,李庄光5,李庄光8,庞各庄排2【纯农排变】,庞各庄光6,庞各庄光3,庞各庄光7【2018年四批补强】,庞各庄光4,庞各庄排1【纯农排变】,庞各庄光2","powerOffReason":"【停电原因】由于线路主干１０９号杆安装断路器导致１１０ＫＶ兴北变电站小北头线５５９线路主干０７４号杆以下线路停电 【变更送电】无 【发布渠道】保定市定兴县电视台（１０月２６日０９时１０分至２３时５０分之间）屏幕上方滚动播放","powerOffId":"2019102113000172"},{"poweroffId":2019102113000165,"sgpoweroffId":null,"subsName":"","lineName":"北河线521","pubTranName":"北河光7变压器,北河光4,北河光13变压器,北河光15变压器,北河供电所光,北河光4变压器,北河光金三角,北河光9变压器,北河市场光1【2018年节能变】,北河光8变压器,北河光12变压器,北河光2变压器,北河光3变压器,北河供电所公用,","scope":"【影响街道/乡镇】北河镇 【高危重要客户】无 【影响客户】北河、北河市场、北河车站、北河驾校、北河供电所","startTime":"2019-11-02 01:00:00","stopDate":"2019-11-02 05:00:00","orgNo":"1340609","typeCode":"计划停电","poweroffArea":"【分支停电】停北河光7变压器,北河排2【纯农排变】,北河光4,北河光13变压器,北河光15变压器,北河供电所光,北河光4变压器,北河光金三角,北河光9变压器,北河市场光1【2018年节能变】,北河光8变压器,北河光12变压器,北河光2变压器,北河光3变压器,北河供电所公用","poweroffReason":"【停电原因】由于华海分支９号杆至凯蒂建筑公司分支１号杆安装隔离开关导致１１０ＫＶ北河变电站北河线５２１线路主干５７号杆以下线路停电 【变更送电】无 【发布渠道】保定市定兴县电视台（１０月２５日０９时１０分至２３时５０分之间）屏幕上方滚动播放","powerTime":"2019-11-02 04:35:19","powerComm":"已送电","subsNo":"","lineNo":"","tgNo":"","tgName":null,"infoStatus":"1","orgName":"国网定兴县供电公司","typeName":null,"infoStatusName":null,"dateDay":null,"orgNos":null,"nowTime":null,"countyName":null,"streetName":null,"villageName":null,"roadName":null,"communityName":null,"tranName":null,"sdLineName":null,"cityCode":"1340609","cityName":"国网定兴县供电公司","provinceCode":null,"stopTime":"2019-11-02 05:00:00","powerType":"全部","powerOffArea":"【分支停电】停北河光7变压器,北河排2【纯农排变】,北河光4,北河光13变压器,北河光15变压器,北河供电所光,北河光4变压器,北河光金三角,北河光9变压器,北河市场光1【2018年节能变】,北河光8变压器,北河光12变压器,北河光2变压器,北河光3变压器,北河供电所公用","powerOffReason":"【停电原因】由于华海分支９号杆至凯蒂建筑公司分支１号杆安装隔离开关导致１１０ＫＶ北河变电站北河线５２１线路主干５７号杆以下线路停电 【变更送电】无 【发布渠道】保定市定兴县电视台（１０月２５日０９时１０分至２３时５０分之间）屏幕上方滚动播放","powerOffId":"2019102113000165"},{"poweroffId":2019102113000147,"sgpoweroffId":null,"subsName":"","lineName":"10kV常庄511线","pubTranName":"常庄综合四台区,常庄综合2变压器,常庄综合3变压器,常庄综合五台区,常庄综合1变压器,","scope":"【影响街道/乡镇】常庄乡 【高危重要客户】无 【影响客户】常庄村","startTime":"2019-10-31 08:00:00","stopDate":"2019-10-31 17:30:00","orgNo":"1340606","typeCode":"计划停电","poweroffArea":"【全线路停电】停常庄综合四台区,常庄综合2变压器,常庄综合1变压器,常庄综合3变压器,常庄综合五台区","poweroffReason":"【停电原因】由于线路秋季检修导致３５ＫＶ常庄变电站１０ＫＶ常庄５１１线路全线停电 【变更送电】无 【发布渠道】保定市安国电视台（１０月２１日００时至２４时之间）屏幕上方滚动","powerTime":"2019-10-31 16:48:42","powerComm":"已送电","subsNo":"","lineNo":"","tgNo":"","tgName":null,"infoStatus":"1","orgName":"国网安国市供电公司","typeName":null,"infoStatusName":null,"dateDay":null,"orgNos":null,"nowTime":null,"countyName":null,"streetName":null,"villageName":null,"roadName":null,"communityName":null,"tranName":null,"sdLineName":null,"cityCode":"1340606","cityName":"国网安国市供电公司","provinceCode":null,"stopTime":"2019-10-31 17:30:00","powerType":"全部","powerOffArea":"【全线路停电】停常庄综合四台区,常庄综合2变压器,常庄综合1变压器,常庄综合3变压器,常庄综合五台区","powerOffReason":"【停电原因】由于线路秋季检修导致３５ＫＶ常庄变电站１０ＫＶ常庄５１１线路全线停电 【变更送电】无 【发布渠道】保定市安国电视台（１０月２１日００时至２４时之间）屏幕上方滚动","powerOffId":"2019102113000147"}],"pageModel":{"pageNow":478,"totalCount":10973,"totalPage":1098,"tableRows":0,"pageCount":10,"beginCount":4770},"isExperi":"1"}