{"message":"","today":"2020-06-15","seleList":[{"poweroffId":2019102113000140,"sgpoweroffId":null,"subsName":"","lineName":"北店线545","pubTranName":"西城光16,西城光11,南侯新光1,南侯新光2,侯村营光15,北侯新光3,郝家房光4,郝家房光6,西城光19,北祖村店光11,永兴庄光6,北侯新光1,南祖村店光7,北侯新光4,北侯村光2,南侯村光3,南侯村光5,北祖村店光12,郝家房光5,北祖村店光17,北祖村店排7【纯农排变】,北祖村店排9【纯农排变】,北祖村店排4【纯农排变】,南祖村店光14,南祖村店光15,侯村营光7,侯村营光3,北侯村光4,郝家房村光3,郝家房村光2,北侯村光3,西城光3,北祖村店光16,侯村营光13,永兴庄光4,北侯新光11,南祖村店光17,北侯新光2,南祖村店光13,南侯新光3,北祖村店排5【纯农排变】,侯村营光11,侯村营光12,南祖村店光8,西城光18,北侯村光9,北侯村光1,北祖村店光7,侯村营光9,南祖村店光18,南祖村店光9,西城光9,南祖村店光12,南祖村店光11,西城光15,南祖村店光2,南侯村光4,北侯新光8,北祖村店光18,侯村营光16,北侯新光9,永兴庄光5,南祖村店光10,南祖村店光1,南祖村店光16,北祖村店光8,北祖村店光10,西城光10,北祖村店光9,南侯新光4,北侯新光12,南祖村店光3,南祖村店光4,北侯村光7,侯村营光2,西城光6,侯村营光5,侯村营光8,西城光14,北祖村店排8【纯农排变】,北祖村店排6【纯农排变】,侯村营光4,永兴庄光2,北侯村光8,郝家房村光1,永光庄光1,西城光5,南祖村店光6,南祖村店排3【纯农排变】,北侯新光5,北祖村店光14,北祖村店光13,北祖村店光19,北侯新光7,北祖村店光15,南侯新光5,西城光12,侯村营光14,北侯新光6,侯村营光6,西关村光3,北侯村光6,北关大棚排1【纯农排变】,西城光17,西城光20,北侯新光10,侯村营光10,西城光13,","scope":"【影响街道/乡镇】定兴镇 【高危重要客户】无 【影响客户】南侯、北侯、北关村部分用户、西关村部分用户、侯村营、西城村、三街村、北祖村店、南祖村店、永兴庄、许继正渔厂、郝家房","startTime":"2019-11-03 07:00:00","stopDate":"2019-11-03 16:00:00","orgNo":"1340609","typeCode":"计划停电","poweroffArea":"【全线路停电】停南祖村店光7,北祖村店光12,郝家房光5,北祖村店光17,北祖村店排7【纯农排变】,北祖村店排9【纯农排变】,北祖村店排4【纯农排变】,南祖村店光14,南祖村店光15,南祖村店光16,永兴庄光5,南祖村店光10,南祖村店光1,北祖村店光8,北祖村店光10,西城光10,北祖村店光9,南侯新光4,西城光16,西城光11,南侯新光1,南侯新光2,侯村营光15,北侯新光3,郝家房光4,郝家房光6,西城光19,北祖村店光11,永兴庄光6,北侯新光7,北祖村店光15,南侯新光5,西城光12,侯村营光14,西城光17,西城光20,北侯新光10,侯村营光10,西城光13,北侯新光1,北侯新光4,北侯新光6,北侯新光8,北祖村店光18,侯村营光16,北侯新光9,西城光3,北祖村店光16,侯村营光13,永兴庄光4,北侯新光11,南祖村店光17,北侯新光2,南祖村店光13,南侯新光3,北祖村店排5【纯农排变】,侯村营光11,侯村营光12,北侯新光12,西城光14,北祖村店排8【纯农排变】,北祖村店排6【纯农排变】,南侯村光5,南祖村店光8,北侯新光5,北祖村店光14,北祖村店光13,北祖村店光19,侯村营光9,南祖村店光18,南祖村店光9,西城光9,南祖村店光12,南祖村店光11,西城光15,西城光18,北侯村光9,北侯村排3【纯农排变】,北侯村排2【纯农排变】,北侯村排6【纯农排变】,北侯村光1,北关村排1【纯农排变】,侯村营光6,西关村光3,北关排5变【纯农排变】,北侯村光6,北关大棚排1【纯农排变】,西城排4【纯农排变】,南祖村店光3,三街村排1【纯农排变】,南祖村店光4,北侯村光7,北祖村店排1【纯农排变】,侯村营光2,西城光6,三街村排2【纯农排变】,侯村营光5,南祖村店排1【纯农排变】,侯村营光8,侯村营光4,永兴庄光2,北侯村光8,郝家房村光1,永光庄光1,西城光5,西辛告排1【纯农排变】,南侯村排【纯农排变】,南祖村店光6,南祖村店排3【纯农排变】,南祖村店排2【纯农排变】,北关村排5【纯农排变】,南祖村店光2,侯村营排5【纯农排变】,侯村营排3【纯农排变】,侯村营排2【纯农排变】,侯村营排1【纯农排变】,南侯村光4,西城排3【纯农排变】,西城排2【纯农排变】,侯村营光7,西辛告排3【纯农排变】,侯村营光3,郝家房村光3,郝家房村光2,北侯村光3,北侯村排5【纯农排变】,北侯村排1【纯农排变】,北侯村光2,北侯村排4【纯农排变】,北关村排3【纯农排变】,北祖村店排3【纯农排变】,北祖村店排2【纯农排变】,北祖村店光7,北侯村光4,南侯村排1【纯农排变】,南侯村光3,北关村排2【纯农排变】,永兴庄排1【纯农排变】,西城排1【纯农排变】,许继正渔厂-排【纯农排变】,北关村排4【纯农排变】","poweroffReason":"【停电原因】由于北侯排３分支０７号杆至１０号杆更换导线导致１１０ＫＶ兴北变电站北店线５４５线路全线停电 【变更送电】无 【发布渠道】保定市定兴县电视台（１０月２６日０９时１０分至２３时５０分之间）屏幕上方滚动播放","powerTime":"2019-11-03 15:46:34","powerComm":"已送电","subsNo":"","lineNo":"","tgNo":"","tgName":null,"infoStatus":"1","orgName":"国网定兴县供电公司","typeName":null,"infoStatusName":null,"dateDay":null,"orgNos":null,"nowTime":null,"countyName":null,"streetName":null,"villageName":null,"roadName":null,"communityName":null,"tranName":null,"sdLineName":null,"cityCode":"1340609","cityName":"国网定兴县供电公司","provinceCode":null,"stopTime":"2019-11-03 16:00:00","powerType":"全部","powerOffArea":"【全线路停电】停南祖村店光7,北祖村店光12,郝家房光5,北祖村店光17,北祖村店排7【纯农排变】,北祖村店排9【纯农排变】,北祖村店排4【纯农排变】,南祖村店光14,南祖村店光15,南祖村店光16,永兴庄光5,南祖村店光10,南祖村店光1,北祖村店光8,北祖村店光10,西城光10,北祖村店光9,南侯新光4,西城光16,西城光11,南侯新光1,南侯新光2,侯村营光15,北侯新光3,郝家房光4,郝家房光6,西城光19,北祖村店光11,永兴庄光6,北侯新光7,北祖村店光15,南侯新光5,西城光12,侯村营光14,西城光17,西城光20,北侯新光10,侯村营光10,西城光13,北侯新光1,北侯新光4,北侯新光6,北侯新光8,北祖村店光18,侯村营光16,北侯新光9,西城光3,北祖村店光16,侯村营光13,永兴庄光4,北侯新光11,南祖村店光17,北侯新光2,南祖村店光13,南侯新光3,北祖村店排5【纯农排变】,侯村营光11,侯村营光12,北侯新光12,西城光14,北祖村店排8【纯农排变】,北祖村店排6【纯农排变】,南侯村光5,南祖村店光8,北侯新光5,北祖村店光14,北祖村店光13,北祖村店光19,侯村营光9,南祖村店光18,南祖村店光9,西城光9,南祖村店光12,南祖村店光11,西城光15,西城光18,北侯村光9,北侯村排3【纯农排变】,北侯村排2【纯农排变】,北侯村排6【纯农排变】,北侯村光1,北关村排1【纯农排变】,侯村营光6,西关村光3,北关排5变【纯农排变】,北侯村光6,北关大棚排1【纯农排变】,西城排4【纯农排变】,南祖村店光3,三街村排1【纯农排变】,南祖村店光4,北侯村光7,北祖村店排1【纯农排变】,侯村营光2,西城光6,三街村排2【纯农排变】,侯村营光5,南祖村店排1【纯农排变】,侯村营光8,侯村营光4,永兴庄光2,北侯村光8,郝家房村光1,永光庄光1,西城光5,西辛告排1【纯农排变】,南侯村排【纯农排变】,南祖村店光6,南祖村店排3【纯农排变】,南祖村店排2【纯农排变】,北关村排5【纯农排变】,南祖村店光2,侯村营排5【纯农排变】,侯村营排3【纯农排变】,侯村营排2【纯农排变】,侯村营排1【纯农排变】,南侯村光4,西城排3【纯农排变】,西城排2【纯农排变】,侯村营光7,西辛告排3【纯农排变】,侯村营光3,郝家房村光3,郝家房村光2,北侯村光3,北侯村排5【纯农排变】,北侯村排1【纯农排变】,北侯村光2,北侯村排4【纯农排变】,北关村排3【纯农排变】,北祖村店排3【纯农排变】,北祖村店排2【纯农排变】,北祖村店光7,北侯村光4,南侯村排1【纯农排变】,南侯村光3,北关村排2【纯农排变】,永兴庄排1【纯农排变】,西城排1【纯农排变】,许继正渔厂-排【纯农排变】,北关村排4【纯农排变】","powerOffReason":"【停电原因】由于北侯排３分支０７号杆至１０号杆更换导线导致１１０ＫＶ兴北变电站北店线５４５线路全线停电 【变更送电】无 【发布渠道】保定市定兴县电视台（１０月２６日０９时１０分至２３时５０分之间）屏幕上方滚动播放","powerOffId":"2019102113000140"},{"poweroffId":2019102113000139,"sgpoweroffId":null,"subsName":"","lineName":"北城574线","pubTranName":"北城光4,姚村光17,仪封光2【2018年重过载】,姚村光13,姚村光14,姚村光6,姚村光7,姚村排15,姚村光15,姚村乡政府公用,姚村光2【2018年节能变】,仪封光3变压器,姚村光4【2018年节能变】,仪封光4,北城光5,北城排7【纯农排变】,辛木光8,辛木光3,北城村光3,姚村光3,姚村光18变压器,北城光2,姚村光11,北城光1,姚村光5,姚村光9,姚村光10,仪封光1,北城光6,姚村光9变,姚村光8,姚村光16,姚村光12,姚村光1,","scope":"【影响街道/乡镇】张家庄乡、贤寓镇 【高危重要客户】无 【影响客户】姚村、仪封、北城、陈村、马家庄、陈村营","startTime":"2019-11-03 07:30:00","stopDate":"2019-11-03 17:00:00","orgNo":"1340609","typeCode":"计划停电","poweroffArea":"【全线路停电】停北城光4,仪封光2【2018年重过载】,姚村光13,姚村光14,姚村光6,姚村光7,姚村排15,姚村光15,姚村乡政府公用,姚村光2【2018年节能变】,仪封光3变压器,姚村排2【纯农排变】,姚村光4【2018年节能变】,仪封光4,北城排10【纯农排变】,北城排15【纯农排变】,姚村排5【纯农排变】,北城光5,北城排4【纯农排变】,北城排7【纯农排变】,北城排14【纯农排变】,辛木光8,姚村排4【纯农排变】,辛木光3,仪封排4【纯农排变】,仪封排2【纯农排变】,北城排9【纯农排变】,北城村光3,姚村光3,北城排6【纯农排变】,姚村排8【纯农排变】,姚村光18变压器,北城排13【纯农排变】,北城光2,姚村光11,北城光1,姚村光5,姚村光9,姚村排1【纯农排变】,北城排3【纯农排变】,北城排11【纯农排变】,姚村排14【纯农排变】,姚村光10,北城光7,姚村光17,仪封光1,北城排5【纯农排变】,姚村排3【纯农排变】,北城排12【纯农排变】,姚村排6【纯农排变】,北城光6,北城排8【纯农排变】,姚村排7【纯农排变】,北城排1【纯农排变】,北城排2【纯农排变】,姚村光9变,姚村光8,姚村光16,仪封排1【纯农排变】,仪封排3【纯农排变】,姚村光12,姚村排9【纯农排变】,姚村光1","poweroffReason":"【停电原因】由于仪封大分支００１号杆安装隔离开关、断路器导致１１０ＫＶ贤寓变电站北城线５７４线路全线停电 【变更送电】无 【发布渠道】保定市定兴县电视台（１０月２６日０９时１０分至２３时５０分之间）屏幕上方滚动播放","powerTime":"2019-11-03 16:05:22","powerComm":"已送电","subsNo":"","lineNo":"","tgNo":"","tgName":null,"infoStatus":"1","orgName":"国网定兴县供电公司","typeName":null,"infoStatusName":null,"dateDay":null,"orgNos":null,"nowTime":null,"countyName":null,"streetName":null,"villageName":null,"roadName":null,"communityName":null,"tranName":null,"sdLineName":null,"cityCode":"1340609","cityName":"国网定兴县供电公司","provinceCode":null,"stopTime":"2019-11-03 17:00:00","powerType":"全部","powerOffArea":"【全线路停电】停北城光4,仪封光2【2018年重过载】,姚村光13,姚村光14,姚村光6,姚村光7,姚村排15,姚村光15,姚村乡政府公用,姚村光2【2018年节能变】,仪封光3变压器,姚村排2【纯农排变】,姚村光4【2018年节能变】,仪封光4,北城排10【纯农排变】,北城排15【纯农排变】,姚村排5【纯农排变】,北城光5,北城排4【纯农排变】,北城排7【纯农排变】,北城排14【纯农排变】,辛木光8,姚村排4【纯农排变】,辛木光3,仪封排4【纯农排变】,仪封排2【纯农排变】,北城排9【纯农排变】,北城村光3,姚村光3,北城排6【纯农排变】,姚村排8【纯农排变】,姚村光18变压器,北城排13【纯农排变】,北城光2,姚村光11,北城光1,姚村光5,姚村光9,姚村排1【纯农排变】,北城排3【纯农排变】,北城排11【纯农排变】,姚村排14【纯农排变】,姚村光10,北城光7,姚村光17,仪封光1,北城排5【纯农排变】,姚村排3【纯农排变】,北城排12【纯农排变】,姚村排6【纯农排变】,北城光6,北城排8【纯农排变】,姚村排7【纯农排变】,北城排1【纯农排变】,北城排2【纯农排变】,姚村光9变,姚村光8,姚村光16,仪封排1【纯农排变】,仪封排3【纯农排变】,姚村光12,姚村排9【纯农排变】,姚村光1","powerOffReason":"【停电原因】由于仪封大分支００１号杆安装隔离开关、断路器导致１１０ＫＶ贤寓变电站北城线５７４线路全线停电 【变更送电】无 【发布渠道】保定市定兴县电视台（１０月２６日０９时１０分至２３时５０分之间）屏幕上方滚动播放","powerOffId":"2019102113000139"},{"poweroffId":2019102113000134,"sgpoweroffId":null,"subsName":"","lineName":"闫台线516","pubTranName":"陈村营光20,陈村光6,陈村光2【2018年四批补强】,陈村营光7,陈村营光8,陈村光4,陈村光7变压器,陈村光12,陈村营光21,陈村村内1,陈村营光12,陈村营光5,陈村营光15,陈村营光2,陈村营光10,陈村光10,陈村营光9,陈村营光16,陈村光9,陈村村光8,陈村营光11,陈村营光6【2018年第二批应急工程】,陈村营光18,陈村营光13,陈村营光1,陈村光11,陈村营光19,陈村营光3,陈村光5,陈村营光14,陈村光13,","scope":"【影响街道/乡镇】贤寓镇 【高危重要客户】无 【影响客户】陈村营、陈村、贤寓、博峰建筑配件加工厂、恒升机械","startTime":"2019-11-02 07:30:00","stopDate":"2019-11-02 12:00:00","orgNo":"1340609","typeCode":"计划停电","poweroffArea":"【全线路停电】停陈村营光1,陈村排1【纯农排变】,陈村光11,陈村营排9【纯农排变】,陈村营光19,陈村排7【纯农排变】,陈村排5【纯农排变】,陈村营排1【纯农排变】,陈村营光3,陈村营排2【纯农排变】,陈村光5,陈村营排4【纯农排变】,0011676993贤寓排3,陈村营光14,0695365226-定兴县南陈村小学-专变-239163120-100,陈村光13,陈村光6,陈村营光7,陈村营光8,陈村光4,陈村光7变压器,陈村营排7【纯农排变】,陈村营光21,陈村排10【纯农排变】,陈村村内1,陈村营光12,陈村营光5,陈村营光15,陈村营光2,陈村排9【纯农排变】,博峰建筑-500,博峰建筑250,陈村排6【纯农排变】,陈村营光6【2018年第二批应急工程】,陈村营光18,陈村排8【纯农排变】,陈村营排3【纯农排变】,陈村营光13,陈村营排6【纯农排变】,0011676986贤寓排5,陈村光12,陈村营光20,陈村光2【2018年四批补强】,陈村营光10,陈村光10,陈村排2【纯农排变】,0011676988*冷冻厂,陈村营光9,恒升机械-250,陈村营光16,陈村光9,陈村村光8,陈村排4【纯农排变】,陈村营排8【纯农排变】,陈村营排5【纯农排变】,陈村营光11,陈村排3【纯农排变】","poweroffReason":"【停电原因】由于安装隔离开关导致３５ＫＶ贤寓变电站闫台线５１６线路全线停电 【变更送电】因工作进度加快原因，送电时间由１４：００变更为１２：００ 【发布渠道】保定市定兴县电视台（１０月２５日０９时１０分至２３时５０分之间）屏幕上方滚动播放","powerTime":"2019-11-02 11:34:31","powerComm":"已送电","subsNo":"","lineNo":"","tgNo":"","tgName":null,"infoStatus":"1","orgName":"国网定兴县供电公司","typeName":null,"infoStatusName":null,"dateDay":null,"orgNos":null,"nowTime":null,"countyName":null,"streetName":null,"villageName":null,"roadName":null,"communityName":null,"tranName":null,"sdLineName":null,"cityCode":"1340609","cityName":"国网定兴县供电公司","provinceCode":null,"stopTime":"2019-11-02 12:00:00","powerType":"全部","powerOffArea":"【全线路停电】停陈村营光1,陈村排1【纯农排变】,陈村光11,陈村营排9【纯农排变】,陈村营光19,陈村排7【纯农排变】,陈村排5【纯农排变】,陈村营排1【纯农排变】,陈村营光3,陈村营排2【纯农排变】,陈村光5,陈村营排4【纯农排变】,0011676993贤寓排3,陈村营光14,0695365226-定兴县南陈村小学-专变-239163120-100,陈村光13,陈村光6,陈村营光7,陈村营光8,陈村光4,陈村光7变压器,陈村营排7【纯农排变】,陈村营光21,陈村排10【纯农排变】,陈村村内1,陈村营光12,陈村营光5,陈村营光15,陈村营光2,陈村排9【纯农排变】,博峰建筑-500,博峰建筑250,陈村排6【纯农排变】,陈村营光6【2018年第二批应急工程】,陈村营光18,陈村排8【纯农排变】,陈村营排3【纯农排变】,陈村营光13,陈村营排6【纯农排变】,0011676986贤寓排5,陈村光12,陈村营光20,陈村光2【2018年四批补强】,陈村营光10,陈村光10,陈村排2【纯农排变】,0011676988*冷冻厂,陈村营光9,恒升机械-250,陈村营光16,陈村光9,陈村村光8,陈村排4【纯农排变】,陈村营排8【纯农排变】,陈村营排5【纯农排变】,陈村营光11,陈村排3【纯农排变】","powerOffReason":"【停电原因】由于安装隔离开关导致３５ＫＶ贤寓变电站闫台线５１６线路全线停电 【变更送电】因工作进度加快原因，送电时间由１４：００变更为１２：００ 【发布渠道】保定市定兴县电视台（１０月２５日０９时１０分至２３时５０分之间）屏幕上方滚动播放","powerOffId":"2019102113000134"},{"poweroffId":2019102113000130,"sgpoweroffId":null,"subsName":"","lineName":"10KV南款512","pubTranName":"安子沟变压器,安子沟2台区变压器,金水口光伏2号,金水口大北峪变压器,安妥岭三台区,安妥岭东沟变压器,西河山井变压器,东河山变压器,金水口光伏6号,金水口光伏3号,金水口变压器,金水口光伏4号,安妥岭上片,东河山2台区变压器,安妥岭下片变压器,南款大树台变压器,板道台变压器,青崖片变压器,东河山（村东）变压器,金水口2台区变压器,安子沟三台区,东河山大南沟变压器,安子沟2台区,杨树沟2台区变压器,金水口光伏5号,南款西岭沟变压器,其中口窝落变压器,金水口光伏7号,黄花滩变压器,西河山变压器,东河山井变压器,金水口光伏1号,印花台变压器,杨树沟变压器,金水口幼儿园台区【冬季供暖设施】,南款牛场西,","scope":"【影响街道/乡镇】其中口乡 【高危重要客户】无 【影响客户】安子沟村、南款村、金水口村、安妥岭村、其中口窝落村、东河山村","startTime":"2019-10-21 17:00:00","stopDate":"2019-10-21 18:00:00","orgNo":"1340614","typeCode":"其他临时停电","poweroffArea":"【全线路停电】停杨树沟2台区变压器,金水口变压器,金水口光伏4号,安子沟变压器,安子沟2台区变压器,金水口光伏2号,金水口大北峪变压器,美亚金铁选厂250,安妥岭三台区,安妥岭东沟变压器,西河山井变压器,东河山变压器,金华隆公司,金华隆公司4,金华隆公司3,金华隆公司1,金水口光伏6号,金水口光伏3号,安妥岭上片,金水口2台区变压器,安子沟三台区,东河山大南沟变压器,金华隆公司2,安子沟2台区,金水口光伏5号,南款变压器,金水口大北峪2台区变压器,南款西岭沟变压器,其中口窝落变压器,金水口光伏7号,黄花滩变压器,西河山变压器,东河山井变压器,东河山村,东河山2台区变压器,中桥,安妥岭下片变压器,风帆公司50KVA专变,南款大树台变压器,板道台变压器,1美亚金铁选厂160,青崖片变压器,东河山（村东）变压器,养路工区（安子沟）50KVA专变,安妥岭2台区,美亚金铁选厂160,金水口光伏1号,涞水县星河建材厂新增变压器,印花台变压器,杨树沟变压器,金水口幼儿园台区【冬季供暖设施】,涞水县养路工区50KVA专变,南款牛场西,城乡建设投资有限公司100KVA专变","poweroffReason":"【停电原因】由于站内电压互感器温度过高，需停电进行紧急消缺导致３５ＫＶ其中口变电站１０ＫＶ南款５１２线路全线停电 【变更送电】因工作进度加快原因，送电时间由２０：００变更为１８：００ 【发布渠道】通过９５５９８发布","powerTime":"2019-10-21 17:43:50","powerComm":"已送电","subsNo":"","lineNo":"","tgNo":"","tgName":null,"infoStatus":"1","orgName":"国网涞水县供电公司","typeName":null,"infoStatusName":null,"dateDay":null,"orgNos":null,"nowTime":null,"countyName":null,"streetName":null,"villageName":null,"roadName":null,"communityName":null,"tranName":null,"sdLineName":null,"cityCode":"1340614","cityName":"国网涞水县供电公司","provinceCode":null,"stopTime":"2019-10-21 18:00:00","powerType":"全部","powerOffArea":"【全线路停电】停杨树沟2台区变压器,金水口变压器,金水口光伏4号,安子沟变压器,安子沟2台区变压器,金水口光伏2号,金水口大北峪变压器,美亚金铁选厂250,安妥岭三台区,安妥岭东沟变压器,西河山井变压器,东河山变压器,金华隆公司,金华隆公司4,金华隆公司3,金华隆公司1,金水口光伏6号,金水口光伏3号,安妥岭上片,金水口2台区变压器,安子沟三台区,东河山大南沟变压器,金华隆公司2,安子沟2台区,金水口光伏5号,南款变压器,金水口大北峪2台区变压器,南款西岭沟变压器,其中口窝落变压器,金水口光伏7号,黄花滩变压器,西河山变压器,东河山井变压器,东河山村,东河山2台区变压器,中桥,安妥岭下片变压器,风帆公司50KVA专变,南款大树台变压器,板道台变压器,1美亚金铁选厂160,青崖片变压器,东河山（村东）变压器,养路工区（安子沟）50KVA专变,安妥岭2台区,美亚金铁选厂160,金水口光伏1号,涞水县星河建材厂新增变压器,印花台变压器,杨树沟变压器,金水口幼儿园台区【冬季供暖设施】,涞水县养路工区50KVA专变,南款牛场西,城乡建设投资有限公司100KVA专变","powerOffReason":"【停电原因】由于站内电压互感器温度过高，需停电进行紧急消缺导致３５ＫＶ其中口变电站１０ＫＶ南款５１２线路全线停电 【变更送电】因工作进度加快原因，送电时间由２０：００变更为１８：００ 【发布渠道】通过９５５９８发布","powerOffId":"2019102113000130"},{"poweroffId":2019102113000129,"sgpoweroffId":null,"subsName":"","lineName":"10KV下明峪511","pubTranName":"吕家铺3台区,吕家铺新建台区,红卫庄二台区,交界口二台区,红卫庄三台区,西角三台区,红卫庄村中变压器,烟口子变压器,其中变压器,炮尔上变压器,吕家铺4台区,其中口北涧蘑菇井,西交界口3台区,吕家铺变压器,其中口南涧变压器,西角变压器,吕家铺6台区,交界口变压器,泡儿上三台区,南涧河变压器,炮尔上水利【纯农排变】,西角幼儿园台区【冬季供暖设施】,红卫庄井,吕家铺5台区,吕家铺9台区,吕家铺7台区,","scope":"【影响街道/乡镇】其中口乡、赵各庄镇 【高危重要客户】无 【影响客户】吕家铺村、交界口村、红卫庄村、泡儿上村、其中口村、西角村","startTime":"2019-10-21 17:00:00","stopDate":"2019-10-21 18:00:00","orgNo":"1340614","typeCode":"其他临时停电","poweroffArea":"【全线路停电】停红卫庄二台区,天源矿业,张沛成,红卫庄村中变压器,烟口子变压器,其中变压器,炮尔上变压器,吕家铺8台区,吕家铺4台区,吕家铺3台区,吕家铺新建台区,交界口二台区,西角二台区,红卫庄三台区,交界口石材厂,西角三台区,其中口北涧,其中口北涧蘑菇井,西交界口3台区,吕家铺变压器,其中口南涧变压器,西角变压器,大昌石粉加工厂315KVA专变,吕家铺6台区,交界口变压器,泡儿上三台区,中国移动通信河北有限公司新增变压器50KVA,南涧河变压器,天源选厂,炮尔上水利【纯农排变】,西角幼儿园台区【冬季供暖设施】,红卫庄井,吕家铺5台区,吕家铺9台区,吕家铺7台区","poweroffReason":"【停电原因】由于站内电压互感器温度过高，需停电进行紧急消缺导致３５ＫＶ其中口变电站１０ＫＶ下明峪５１１线路全线停电 【变更送电】无因工作进度加快原因，送电时间由２０：００变更为１８：００ 【发布渠道】通过９５５９８发布","powerTime":"2019-10-21 17:44:05","powerComm":"已送电","subsNo":"","lineNo":"","tgNo":"","tgName":null,"infoStatus":"1","orgName":"国网涞水县供电公司","typeName":null,"infoStatusName":null,"dateDay":null,"orgNos":null,"nowTime":null,"countyName":null,"streetName":null,"villageName":null,"roadName":null,"communityName":null,"tranName":null,"sdLineName":null,"cityCode":"1340614","cityName":"国网涞水县供电公司","provinceCode":null,"stopTime":"2019-10-21 18:00:00","powerType":"全部","powerOffArea":"【全线路停电】停红卫庄二台区,天源矿业,张沛成,红卫庄村中变压器,烟口子变压器,其中变压器,炮尔上变压器,吕家铺8台区,吕家铺4台区,吕家铺3台区,吕家铺新建台区,交界口二台区,西角二台区,红卫庄三台区,交界口石材厂,西角三台区,其中口北涧,其中口北涧蘑菇井,西交界口3台区,吕家铺变压器,其中口南涧变压器,西角变压器,大昌石粉加工厂315KVA专变,吕家铺6台区,交界口变压器,泡儿上三台区,中国移动通信河北有限公司新增变压器50KVA,南涧河变压器,天源选厂,炮尔上水利【纯农排变】,西角幼儿园台区【冬季供暖设施】,红卫庄井,吕家铺5台区,吕家铺9台区,吕家铺7台区","powerOffReason":"【停电原因】由于站内电压互感器温度过高，需停电进行紧急消缺导致３５ＫＶ其中口变电站１０ＫＶ下明峪５１１线路全线停电 【变更送电】无因工作进度加快原因，送电时间由２０：００变更为１８：００ 【发布渠道】通过９５５９８发布","powerOffId":"2019102113000129"},{"poweroffId":2019102113000127,"sgpoweroffId":null,"subsName":"","lineName":"固店线563","pubTranName":"固店光11,南营邱光3,固店光9变,固店光1,固店排18【纯农排变】,南营邱光2,固店排16【纯农排变】,张家庄排28【纯农排变】,固店光3,固店光8,固店光12,张家庄排24【纯农排变】,固店光5,固店排15【纯农排变】,固店排17【纯农排变】,固店光2,北营邱光3,固店光7,南营邱光1,固店光5变,北营邱光1,固店光10,固店光4,固店光9,北营邱光2,固店光6,","scope":"【影响街道/乡镇】张家庄乡 【高危重要客户】无 【影响客户】固店、南营邱部分用户、北营邱部分用户、南营邱种鸡厂、牛树奎养鸡厂、张家庄部分用户、中国移动通信集团河北有限公司定兴分公司、易县大巨志林页岩砖厂、固店小学","startTime":"2019-11-01 07:30:00","stopDate":"2019-11-01 14:00:00","orgNo":"1340609","typeCode":"计划停电","poweroffArea":"【全线路停电】停固店排14【纯农排变】,南营邱排1【纯农排变】,固店排3【纯农排变】,北营邱光3,固店排10【纯农排变】,北营邱光2,固店排6【纯农排变】,固店光3,*南营邱种鸡厂,北营邱排2【纯农排变】,牛树奎养鸡厂,固店光8,固店光12,张家庄排24【纯农排变】,中国移动通信集团河北有限公司定兴分公司（北营丘基站）,固店排8【纯农排变】,固店光5,固店排15【纯农排变】,固店排17【纯农排变】,固店排1【纯农排变】,固店排4【纯农排变】,固店光2,固店光9,固店光7,南营邱光1,固店光5变,北营邱光1,固店光10,南营邱排5【纯农排变】,固店光4,北营邱排3【纯农排变】,固店光6,张家庄排22【纯农排变】,南营邱排3【纯农排变】,易县大巨志林页岩砖厂-630,南营邱排4【纯农排变】,固店排13【纯农排变】,固店排11【纯农排变】,张家庄排4【纯农排变】,固店排7【纯农排变】,北营邱排1【纯农排变】,南营邱排2【纯农排变】,固店光11,南营邱光3,张家庄排1【纯农排变】,张家庄排21【纯农排变】,张家庄排2【纯农排变】,固店光9变,张家庄排3【纯农排变】,固店小学-315,固店排12【纯农排变】,固店光1,固店排18【纯农排变】,南营邱排6【纯农排变】,北营邱排4【纯农排变】,南营邱光2,固店排16【纯农排变】,固店排5【纯农排变】,张家庄排28【纯农排变】,固店排2【纯农排变】","poweroffReason":"【停电原因】由于营邱分支００２号杆安装隔离开关、断路器导致１１０ＫＶ贤寓变电站固店线５６３线路全线停电 【变更送电】无 【发布渠道】保定市定兴县电视台（１０月２４日０９时１０分至２３时５０分之间）屏幕上方滚动播放","powerTime":"2019-11-01 13:50:28","powerComm":"已送电","subsNo":"","lineNo":"","tgNo":"","tgName":null,"infoStatus":"1","orgName":"国网定兴县供电公司","typeName":null,"infoStatusName":null,"dateDay":null,"orgNos":null,"nowTime":null,"countyName":null,"streetName":null,"villageName":null,"roadName":null,"communityName":null,"tranName":null,"sdLineName":null,"cityCode":"1340609","cityName":"国网定兴县供电公司","provinceCode":null,"stopTime":"2019-11-01 14:00:00","powerType":"全部","powerOffArea":"【全线路停电】停固店排14【纯农排变】,南营邱排1【纯农排变】,固店排3【纯农排变】,北营邱光3,固店排10【纯农排变】,北营邱光2,固店排6【纯农排变】,固店光3,*南营邱种鸡厂,北营邱排2【纯农排变】,牛树奎养鸡厂,固店光8,固店光12,张家庄排24【纯农排变】,中国移动通信集团河北有限公司定兴分公司（北营丘基站）,固店排8【纯农排变】,固店光5,固店排15【纯农排变】,固店排17【纯农排变】,固店排1【纯农排变】,固店排4【纯农排变】,固店光2,固店光9,固店光7,南营邱光1,固店光5变,北营邱光1,固店光10,南营邱排5【纯农排变】,固店光4,北营邱排3【纯农排变】,固店光6,张家庄排22【纯农排变】,南营邱排3【纯农排变】,易县大巨志林页岩砖厂-630,南营邱排4【纯农排变】,固店排13【纯农排变】,固店排11【纯农排变】,张家庄排4【纯农排变】,固店排7【纯农排变】,北营邱排1【纯农排变】,南营邱排2【纯农排变】,固店光11,南营邱光3,张家庄排1【纯农排变】,张家庄排21【纯农排变】,张家庄排2【纯农排变】,固店光9变,张家庄排3【纯农排变】,固店小学-315,固店排12【纯农排变】,固店光1,固店排18【纯农排变】,南营邱排6【纯农排变】,北营邱排4【纯农排变】,南营邱光2,固店排16【纯农排变】,固店排5【纯农排变】,张家庄排28【纯农排变】,固店排2【纯农排变】","powerOffReason":"【停电原因】由于营邱分支００２号杆安装隔离开关、断路器导致１１０ＫＶ贤寓变电站固店线５６３线路全线停电 【变更送电】无 【发布渠道】保定市定兴县电视台（１０月２４日０９时１０分至２３时５０分之间）屏幕上方滚动播放","powerOffId":"2019102113000127"},{"poweroffId":2019102113000125,"sgpoweroffId":null,"subsName":"","lineName":"10KV西角513","pubTranName":"其中口乡政府台区,其中口村中台区,其中口七台区,其中口乡卫生院台区,西角大弓窑变压器,其中口乡派出所台区,61469部队,其中口村,中国人民解放军61469部队34分队1000KVA,其中口杏园变压器,","scope":"【影响街道/乡镇】其中口乡 【高危重要客户】无 【影响客户】其中口村、西角村、其中口部队","startTime":"2019-10-21 17:00:00","stopDate":"2019-10-21 18:00:00","orgNo":"1340614","typeCode":"其他临时停电","poweroffArea":"【全线路停电】停其中口乡政府台区,其中口村中台区,其中口七台区,其中口乡卫生院台区,西角大弓窑变压器,其中口乡派出所台区,其中口村,61469部队,中国人民解放军61469部队34分队1000KVA,其中口杏园变压器","poweroffReason":"【停电原因】由于站内电压互感器温度过高，需停电进行紧急消缺导致３５ＫＶ其中口变电站１０ＫＶ西角５１３线路全线停电 【变更送电】因工作进度加快原因，送电时间由２０：００变更为１８：００ 【发布渠道】通过９５５９８发布","powerTime":"2019-10-21 17:44:36","powerComm":"已送电","subsNo":"","lineNo":"","tgNo":"","tgName":null,"infoStatus":"1","orgName":"国网涞水县供电公司","typeName":null,"infoStatusName":null,"dateDay":null,"orgNos":null,"nowTime":null,"countyName":null,"streetName":null,"villageName":null,"roadName":null,"communityName":null,"tranName":null,"sdLineName":null,"cityCode":"1340614","cityName":"国网涞水县供电公司","provinceCode":null,"stopTime":"2019-10-21 18:00:00","powerType":"全部","powerOffArea":"【全线路停电】停其中口乡政府台区,其中口村中台区,其中口七台区,其中口乡卫生院台区,西角大弓窑变压器,其中口乡派出所台区,其中口村,61469部队,中国人民解放军61469部队34分队1000KVA,其中口杏园变压器","powerOffReason":"【停电原因】由于站内电压互感器温度过高，需停电进行紧急消缺导致３５ＫＶ其中口变电站１０ＫＶ西角５１３线路全线停电 【变更送电】因工作进度加快原因，送电时间由２０：００变更为１８：００ 【发布渠道】通过９５５９８发布","powerOffId":"2019102113000125"},{"poweroffId":2019102113000123,"sgpoweroffId":null,"subsName":"","lineName":"10kV恒开515线","pubTranName":"515槐场3#配变,515史家寨1#配变,阜平110站恒开515线凹里3#公用配变,515凹里1#配变,515槐场4#配变,515辛庄5#配变,515槐场6#配变,凹里5#公用配变,照旺台23#公用配变,515槐场5#配变,515槐场1#配变,辛庄6#公用配变,阜平110站恒开515线凹里4#公用配变,史家寨7#公用配变,凹里6#公用配变,515史家寨4号配变,515凹里2#配变,","scope":"【影响街道/乡镇】王林口镇、史家寨乡 【高危重要客户】无 【影响客户】土岭、王长沟、吉了庵、世纪华庭小区、庄上、史家寨、东台、笛子口、西笛子口、东笛子口、庙台、家北、吉家台、凹里、西凹、北凹、东凹、张家凹、下庄、红土山、槐庄、小条村、李家台、草家台、董家村、岭根、小工、七亩地、槐场、雷堡、上雷堡、下雷堡、口上、山峪、北木石、南木石、大南地、圣水岭、李家沟、龙火、苏家台、沙角湾、保竹、桑林沟门、红岗地、苹果石、小火岭、南湾、北湾、辛庄、榆林沟、柳峪、马驹石、叼窝口村、南叼窝、北叼窝、大沟、别石沟、上庄、东湾、史家寨美丽乡村、史家寨蘑菇棚、凹里蘑菇棚、下庄蘑菇棚、红土山蘑菇棚、董家村蘑菇棚、西家凹养鸡场、白家台养鸡场、马驹石养鸡场、南湾养鸡场、马驹石美丽乡村、雷堡蘑菇棚、史家寨乡政府、笛子口蘑菇棚、雷堡养鸡场、史家寨派出所、史家寨医院、史家寨信用社、史家寨中学、马驹石小学、下庄小学、凹里小学、红土山小学、南湾小学、土岭小学、庄上小学","startTime":"2019-11-05 06:00:00","stopDate":"2019-11-05 18:00:00","orgNo":"1340611","typeCode":"计划停电","poweroffArea":"【全线路停电】停515槐场5#配变,515凹里1#配变,515史家寨4号配变,515史家寨1#配变,515槐场6#配变,凹里5#公用配变,515辛庄5#配变","poweroffReason":"【停电原因】由于引线搭接导致３５ＫＶ城北变电站１０ＫＶ恒开５１５线路全线停电 【变更送电】无 【发布渠道】保定市阜平电视台（１０月２２日１６时至１１月４日０９时）飞播","powerTime":"2019-11-05 17:50:40","powerComm":"全部送电","subsNo":"","lineNo":"","tgNo":"","tgName":null,"infoStatus":"1","orgName":"国网阜平县供电公司","typeName":null,"infoStatusName":null,"dateDay":null,"orgNos":null,"nowTime":null,"countyName":null,"streetName":null,"villageName":null,"roadName":null,"communityName":null,"tranName":null,"sdLineName":null,"cityCode":"1340611","cityName":"国网阜平县供电公司","provinceCode":null,"stopTime":"2019-11-05 18:00:00","powerType":"全部","powerOffArea":"【全线路停电】停515槐场5#配变,515凹里1#配变,515史家寨4号配变,515史家寨1#配变,515槐场6#配变,凹里5#公用配变,515辛庄5#配变","powerOffReason":"【停电原因】由于引线搭接导致３５ＫＶ城北变电站１０ＫＶ恒开５１５线路全线停电 【变更送电】无 【发布渠道】保定市阜平电视台（１０月２２日１６时至１１月４日０９时）飞播","powerOffId":"2019102113000123"},{"poweroffId":2019102113000119,"sgpoweroffId":null,"subsName":"","lineName":"兰沟564","pubTranName":"新巨兰沟光11【煤改电】,新巨兰沟光8【煤改电】,常家营光1,焦兰沟光5,巨兰沟村光3,新王兰沟光2【2018年重过载】,新常家营光2【2018年重过载】,高兰沟光3,高兰沟光2,新巨兰沟光4【煤改电】,新王兰沟光1,尹黄营光2,新巨兰沟光5【煤改电】,焦兰沟光2,刘兰沟光2,高兰沟光1,夏家营排5【纯农排变】,新巨兰沟光7【煤改电】,王兰沟光3,焦兰沟光4,王兰沟光2,新巨兰沟光3【煤改电】,新巨兰沟光1【煤改电】,新巨兰沟光2【煤改电】,刘兰沟光1,","scope":"【影响街道/乡镇】小朱庄乡 【高危重要客户】无 【影响客户】夏家营部分用户、高兰沟部分用户、焦兰沟部分用户、尹黄营、常家营、巨兰沟部分用户、刘兰沟部分用户、王兰沟部分用户","startTime":"2019-11-01 08:00:00","stopDate":"2019-11-01 17:30:00","orgNo":"1340609","typeCode":"计划停电","poweroffArea":"【全线路停电】停尹黄营排3【纯农排变】,高兰沟光4,王兰沟光2,尹黄营排1【纯农排变】,巨兰沟排7【纯农排变】,夏家营小学-160,夏家营光3,焦兰沟光6,0695365314-定兴县高兰沟幼儿园-专变-239160117-50,新高兰沟光3【2018年重过载】,常家营光4,新巨兰沟光11【煤改电】,新巨兰沟光8【煤改电】,常家营光1,刘兰沟排5【纯农排变】,焦兰沟光5,新巨兰沟光7【煤改电】,巨兰沟村光3,新常家营光2【2018年重过载】,焦兰沟光1,高兰沟光3,高兰沟光2,新巨兰沟光4【煤改电】,常家营排2【纯农排变】,焦兰沟排1【纯农排变】,新王兰沟光5【2018年重过载】,焦兰沟排5【纯农排变】,高兰沟光6,新王兰沟光1,王兰沟排6【纯农排变】,新巨兰沟光3【煤改电】,尹黄营光1,夏家营光1,焦兰沟光2,变压器,尹黄营排2【纯农排变】,焦兰沟光3,尹黄营光2,刘兰沟光2,夏家营排2【纯农排变】,高兰沟光1,夏家营排5【纯农排变】,刘兰沟光3,王兰沟光4,0011688799刘兰沟机站,焦兰沟排4【纯农排变】,新巨兰沟光5【煤改电】,0011688784*巨兰沟面粉厂,王兰沟光3,常家营排1【纯农排变】,新巨兰沟光2【煤改电】,尹黄营排4【纯农排变】,兰沟小学-630,0696769377-定兴县小朱庄焦兰沟小学-专变-240815690-160,常家营排3【纯农排变】,双龙新型建材,王兰沟排4【纯农排变】,焦兰沟光4,高兰沟光5,王兰沟排5【纯农排变】,新王兰沟光2【2018年重过载】,新巨兰沟光1【煤改电】,刘兰沟光1,刘兰沟光4","poweroffReason":"【停电原因】由于线路清扫检修导致１１０ＫＶ小朱庄变电站兰沟线５６４线路全线停电 【变更送电】无 【发布渠道】保定市定兴县电视台（１０月２４日０９时１０分至２３时５０分之间）屏幕上方滚动播放","powerTime":"2019-11-01 17:20:12","powerComm":"已送电","subsNo":"","lineNo":"","tgNo":"","tgName":null,"infoStatus":"1","orgName":"国网定兴县供电公司","typeName":null,"infoStatusName":null,"dateDay":null,"orgNos":null,"nowTime":null,"countyName":null,"streetName":null,"villageName":null,"roadName":null,"communityName":null,"tranName":null,"sdLineName":null,"cityCode":"1340609","cityName":"国网定兴县供电公司","provinceCode":null,"stopTime":"2019-11-01 17:30:00","powerType":"全部","powerOffArea":"【全线路停电】停尹黄营排3【纯农排变】,高兰沟光4,王兰沟光2,尹黄营排1【纯农排变】,巨兰沟排7【纯农排变】,夏家营小学-160,夏家营光3,焦兰沟光6,0695365314-定兴县高兰沟幼儿园-专变-239160117-50,新高兰沟光3【2018年重过载】,常家营光4,新巨兰沟光11【煤改电】,新巨兰沟光8【煤改电】,常家营光1,刘兰沟排5【纯农排变】,焦兰沟光5,新巨兰沟光7【煤改电】,巨兰沟村光3,新常家营光2【2018年重过载】,焦兰沟光1,高兰沟光3,高兰沟光2,新巨兰沟光4【煤改电】,常家营排2【纯农排变】,焦兰沟排1【纯农排变】,新王兰沟光5【2018年重过载】,焦兰沟排5【纯农排变】,高兰沟光6,新王兰沟光1,王兰沟排6【纯农排变】,新巨兰沟光3【煤改电】,尹黄营光1,夏家营光1,焦兰沟光2,变压器,尹黄营排2【纯农排变】,焦兰沟光3,尹黄营光2,刘兰沟光2,夏家营排2【纯农排变】,高兰沟光1,夏家营排5【纯农排变】,刘兰沟光3,王兰沟光4,0011688799刘兰沟机站,焦兰沟排4【纯农排变】,新巨兰沟光5【煤改电】,0011688784*巨兰沟面粉厂,王兰沟光3,常家营排1【纯农排变】,新巨兰沟光2【煤改电】,尹黄营排4【纯农排变】,兰沟小学-630,0696769377-定兴县小朱庄焦兰沟小学-专变-240815690-160,常家营排3【纯农排变】,双龙新型建材,王兰沟排4【纯农排变】,焦兰沟光4,高兰沟光5,王兰沟排5【纯农排变】,新王兰沟光2【2018年重过载】,新巨兰沟光1【煤改电】,刘兰沟光1,刘兰沟光4","powerOffReason":"【停电原因】由于线路清扫检修导致１１０ＫＶ小朱庄变电站兰沟线５６４线路全线停电 【变更送电】无 【发布渠道】保定市定兴县电视台（１０月２４日０９时１０分至２３时５０分之间）屏幕上方滚动播放","powerOffId":"2019102113000119"},{"poweroffId":2019102113000095,"sgpoweroffId":null,"subsName":"","lineName":"10kV联盟路站531线路","pubTranName":"B780柱上变压器,B1285柱上变压器,B1060柱上变压器,10kVB1464配电室B1464配电变压器,10kVB1197配电室B1197配电变压器,10kVY0033配电室Y0033配电变压器,10kVY0328.Y0329配电室Y0328配电变压器,10kVB003箱式变电站B003配电变压器,10kVZ0059.Z0060配电室Z0059配电变压器,B1055柱上变压器,B637柱上变压器,10kVZ0059.Z0060配电室Z0060配电变压器,B020柱上变压器,B001柱上变压器,10kVY0328.Y0329配电室Y0329配电变压器,10kVB037箱式变电站B037配电变压器,B638柱上变压器,","scope":"【影响街道/乡镇】三丰东路、支农路、凌云街、三丰中路 【高危重要客户】无 【影响客户】糖厂宿舍、窑上村、铸造厂宿舍、幸福小区、汽改公司、南菜园、外贸宿舍、吉祥小区、二建宿舍、运输公司宿舍、玫瑰园","startTime":"2019-10-21 12:50:00","stopDate":"2019-10-21 14:30:00","orgNo":"13406","typeCode":"电网故障停限电","poweroffArea":"【全线路停电】停B001柱上变压器,0371502817-保定市广原地产有限公司-5#专变,10kVY0328.Y0329配电室Y0329配电变压器,变压器,0371502817-保定市广原地产有限公司-4#专变,0356326742-保定市南市区洪生机械厂-专变,0371502817-保定市广原地产有限公司-1#专变,10kVB1197配电室B1197配电变压器,10kVY0033配电室Y0033配电变压器,10kVY0328.Y0329配电室Y0328配电变压器,0356321138-保定市华盛电力设备厂-专变,10kVB003箱式变电站B003配电变压器,10kVZ0059.Z0060配电室Z0059配电变压器,0636989898-保定市运输总公司八公司-专变-148277434-变压器,0356183714-保定建业集团有限公司-专变,0356236375-保定红星高频设备有限公司-13397054-1#专变,B637柱上变压器,10kVZ0059.Z0060配电室Z0060配电变压器,0696338803-河北德建养老服务有限公司-630变压器,10kVB037箱式变电站B037配电变压器,B638柱上变压器,0356234715-保定市糖厂-专变,0356503763-保定建业集团有限公司-1-配电室-变压器-1,0356236375-保定红星高频设备有限公司-13398591-2#专变,0357470264-保定市路灯管理处-1-箱式变-变压器-1,0371502817-保定市广原地产有限公司-2#专变,0356229155-中国农业银行股份有限公司保定分行,B1055柱上变压器,B780柱上变压器,B1285柱上变压器,0546675074-保定市骨科医院-专变,B1060柱上变压器,0723910088-保定市莲池区宝贝幼儿园-315KVA变压器,10kVB1464配电室B1464配电变压器,0356314963-保定市电力互感器厂-专变,0356173250-保定启源罐头食品有限公司-专变,B020柱上变压器,0371502817-保定市广原地产有限公司-3#专变,0356234816-保定市电力互感器厂-专变,0356234829-保定市电力互感器厂-专变","poweroffReason":"【停电原因】由于过流跳闸导致１０ＫＶ联盟路变电站５３１线路全线停电【变更送电】因抢修进度加快，原定１７:００送电现计划１４:３０送电【发布渠道】通过９５５９８发布","powerTime":"2019-10-21 14:01:00","powerComm":"已送电","subsNo":"","lineNo":"","tgNo":"","tgName":null,"infoStatus":"1","orgName":"保定供电公司","typeName":null,"infoStatusName":null,"dateDay":null,"orgNos":null,"nowTime":null,"countyName":null,"streetName":null,"villageName":null,"roadName":null,"communityName":null,"tranName":null,"sdLineName":null,"cityCode":"13406","cityName":"保定供电公司","provinceCode":null,"stopTime":"2019-10-21 14:30:00","powerType":"全部","powerOffArea":"【全线路停电】停B001柱上变压器,0371502817-保定市广原地产有限公司-5#专变,10kVY0328.Y0329配电室Y0329配电变压器,变压器,0371502817-保定市广原地产有限公司-4#专变,0356326742-保定市南市区洪生机械厂-专变,0371502817-保定市广原地产有限公司-1#专变,10kVB1197配电室B1197配电变压器,10kVY0033配电室Y0033配电变压器,10kVY0328.Y0329配电室Y0328配电变压器,0356321138-保定市华盛电力设备厂-专变,10kVB003箱式变电站B003配电变压器,10kVZ0059.Z0060配电室Z0059配电变压器,0636989898-保定市运输总公司八公司-专变-148277434-变压器,0356183714-保定建业集团有限公司-专变,0356236375-保定红星高频设备有限公司-13397054-1#专变,B637柱上变压器,10kVZ0059.Z0060配电室Z0060配电变压器,0696338803-河北德建养老服务有限公司-630变压器,10kVB037箱式变电站B037配电变压器,B638柱上变压器,0356234715-保定市糖厂-专变,0356503763-保定建业集团有限公司-1-配电室-变压器-1,0356236375-保定红星高频设备有限公司-13398591-2#专变,0357470264-保定市路灯管理处-1-箱式变-变压器-1,0371502817-保定市广原地产有限公司-2#专变,0356229155-中国农业银行股份有限公司保定分行,B1055柱上变压器,B780柱上变压器,B1285柱上变压器,0546675074-保定市骨科医院-专变,B1060柱上变压器,0723910088-保定市莲池区宝贝幼儿园-315KVA变压器,10kVB1464配电室B1464配电变压器,0356314963-保定市电力互感器厂-专变,0356173250-保定启源罐头食品有限公司-专变,B020柱上变压器,0371502817-保定市广原地产有限公司-3#专变,0356234816-保定市电力互感器厂-专变,0356234829-保定市电力互感器厂-专变","powerOffReason":"【停电原因】由于过流跳闸导致１０ＫＶ联盟路变电站５３１线路全线停电【变更送电】因抢修进度加快，原定１７:００送电现计划１４:３０送电【发布渠道】通过９５５９８发布","powerOffId":"2019102113000095"}],"pageModel":{"pageNow":479,"totalCount":10973,"totalPage":1098,"tableRows":0,"pageCount":10,"beginCount":4780},"isExperi":"1"}