{"message":"","today":"2020-06-15","seleList":[{"poweroffId":2019102013000259,"sgpoweroffId":null,"subsName":"","lineName":"北淇村536","pubTranName":"西步乐村11#村北（综）,","scope":"【影响街道/乡镇】西山北乡【高危重要客户】无【影响客户】西步乐村","startTime":"2019-10-21 08:00:00","stopDate":"2019-10-21 12:00:00","orgNo":"1340625","typeCode":"其他临时停电","poweroffArea":"【单台区停电】停西步乐村11#村北（综）","poweroffReason":"【停电原因】由于临时消缺导致３５ＫＶ步乐变电站北淇村５３６线路西步乐村１１＃公变台区停电【变更送电】无【发布渠道】通过９５５９８发布","powerTime":"2019-10-21 11:38:06","powerComm":"已送电","subsNo":"","lineNo":"","tgNo":"","tgName":null,"infoStatus":"1","orgName":"国网易县供电公司","typeName":null,"infoStatusName":null,"dateDay":null,"orgNos":null,"nowTime":null,"countyName":null,"streetName":null,"villageName":null,"roadName":null,"communityName":null,"tranName":null,"sdLineName":null,"cityCode":"1340625","cityName":"国网易县供电公司","provinceCode":null,"stopTime":"2019-10-21 12:00:00","powerType":"全部","powerOffArea":"【单台区停电】停西步乐村11#村北（综）","powerOffReason":"【停电原因】由于临时消缺导致３５ＫＶ步乐变电站北淇村５３６线路西步乐村１１＃公变台区停电【变更送电】无【发布渠道】通过９５５９８发布","powerOffId":"2019102013000259"},{"poweroffId":2019102013000257,"sgpoweroffId":null,"subsName":"","lineName":"韩家庄577","pubTranName":"石炕村5#,","scope":"【影响街道/乡镇】易州镇【高危重要客户】无【影响客户】石炕村","startTime":"2019-10-21 06:30:00","stopDate":"2019-10-21 12:00:00","orgNo":"1340625","typeCode":"其他临时停电","poweroffArea":"【单台区停电】停石炕村5#","poweroffReason":"【停电原因】由于紧急消缺导致１１０ＫＶ店北变电站韩家庄５７７线路石炕村５＃公变台区停电【变更送电】无【发布渠道】通过９５５９８发布","powerTime":"2019-10-21 11:17:42","powerComm":"已送电","subsNo":"","lineNo":"","tgNo":"","tgName":null,"infoStatus":"1","orgName":"国网易县供电公司","typeName":null,"infoStatusName":null,"dateDay":null,"orgNos":null,"nowTime":null,"countyName":null,"streetName":null,"villageName":null,"roadName":null,"communityName":null,"tranName":null,"sdLineName":null,"cityCode":"1340625","cityName":"国网易县供电公司","provinceCode":null,"stopTime":"2019-10-21 12:00:00","powerType":"全部","powerOffArea":"【单台区停电】停石炕村5#","powerOffReason":"【停电原因】由于紧急消缺导致１１０ＫＶ店北变电站韩家庄５７７线路石炕村５＃公变台区停电【变更送电】无【发布渠道】通过９５５９８发布","powerOffId":"2019102013000257"},{"poweroffId":2019102013000240,"sgpoweroffId":null,"subsName":"","lineName":"北山南线518","pubTranName":"北山南村4#,","scope":"【影响街道/乡镇】易州镇【高危重要客户】无【影响客户】北山南村","startTime":"2019-10-21 06:30:00","stopDate":"2019-10-21 12:00:00","orgNo":"1340625","typeCode":"其他临时停电","poweroffArea":"【单台区停电】停北山南村4#","poweroffReason":"【停电原因】由于临时消缺导致１１０ＫＶ易县变电站北山南线５１８线路北山南村４＃公变台区停电【变更送电】无【发布渠道】通过９５５９８发布","powerTime":"2019-10-21 11:18:02","powerComm":"已送电","subsNo":"","lineNo":"","tgNo":"","tgName":null,"infoStatus":"1","orgName":"国网易县供电公司","typeName":null,"infoStatusName":null,"dateDay":null,"orgNos":null,"nowTime":null,"countyName":null,"streetName":null,"villageName":null,"roadName":null,"communityName":null,"tranName":null,"sdLineName":null,"cityCode":"1340625","cityName":"国网易县供电公司","provinceCode":null,"stopTime":"2019-10-21 12:00:00","powerType":"全部","powerOffArea":"【单台区停电】停北山南村4#","powerOffReason":"【停电原因】由于临时消缺导致１１０ＫＶ易县变电站北山南线５１８线路北山南村４＃公变台区停电【变更送电】无【发布渠道】通过９５５９８发布","powerOffId":"2019102013000240"},{"poweroffId":2019102013000192,"sgpoweroffId":null,"subsName":"","lineName":"10kV522服务区线","pubTranName":"紫石口村北,紫石口南台2,紫石口南河渠东台区,紫石口东坡根,紫石口东井,紫石口曹北岗机井,交界口村内,紫石口南河渠2台区变压器,交界口大队台区变压器,曹北港2台区,张涿野三坡服务区北充电桩母线间隔配电变压器,交界口桥头,三坡山泉水厂【纯农排变】,紫石口村内,紫石口小学台区,紫石口路西台区,张涿野三坡服务区南充电桩母线间隔配电变压器,紫石口南河渠,紫石口下坡跟台区,紫石口六亩地,紫石口东北井,紫石口南台,交界口庄子湾,紫石口南台3,紫石口上坡跟,交界口东港,交界口西河滩台区,紫石口新民居变压器,紫石口曹北港,交界口阻断井,紫石口东井台区,紫石口大峪港2台区,紫石口大桥机井,","scope":"【影响街道/乡镇】三坡镇 【高危重要客户】无 【影响客户】紫石口村、交界口村、张涿高速","startTime":"2019-10-20 16:59:06","stopDate":"2019-10-20 18:30:00","orgNo":"1340614","typeCode":"电网故障停限电","poweroffArea":"【全线路停电】停紫石口东北井,紫石口南台,交界口庄子湾,紫石口南台3,马术河养殖场,紫石口上坡跟,野三坡旅游投资有限公司200KVA专变,水泥厂采矿,交界口东港,紫石口服务区1000KVA专变,交界口西河滩台区,紫石口新民居变压器,紫石口收费站630KVA专变,紫石口服务区630KVA专变,紫石口曹北港,交界口阻断井,紫石口东井台区,紫石口大峪港2台区,紫石口大桥机井,紫石口村北,紫石口南台2,紫石口南河渠东台区,紫石口东坡根,交界口机井,紫石口东井,紫石口曹北岗机井,交界口村内,曹北港2台区,张涿野三坡服务区北充电桩母线间隔配电变压器,交界口桥头,三坡山泉水厂【纯农排变】,紫石口村内,杨彪专变100,紫石口小学台区,紫石口路西台区,紫石口南河渠2台区变压器,交界口大队台区变压器,张涿野三坡服务区南充电桩母线间隔配电变压器,紫石口南河渠,紫石口下坡跟台区,紫石口六亩地","poweroffReason":"【停电原因】由于过流跳闸导致１１０ＫＶ三坡变电站１０ＫＶ服务区５２２线路全线停电 【变更送电】因抢修进度加快原因，送电时间由２０：００变更为１８：３０ 【发布渠道】通过９５５９８发布","powerTime":"2019-10-20 17:51:19","powerComm":"已送电","subsNo":"","lineNo":"","tgNo":"","tgName":null,"infoStatus":"1","orgName":"国网涞水县供电公司","typeName":null,"infoStatusName":null,"dateDay":null,"orgNos":null,"nowTime":null,"countyName":null,"streetName":null,"villageName":null,"roadName":null,"communityName":null,"tranName":null,"sdLineName":null,"cityCode":"1340614","cityName":"国网涞水县供电公司","provinceCode":null,"stopTime":"2019-10-20 18:30:00","powerType":"全部","powerOffArea":"【全线路停电】停紫石口东北井,紫石口南台,交界口庄子湾,紫石口南台3,马术河养殖场,紫石口上坡跟,野三坡旅游投资有限公司200KVA专变,水泥厂采矿,交界口东港,紫石口服务区1000KVA专变,交界口西河滩台区,紫石口新民居变压器,紫石口收费站630KVA专变,紫石口服务区630KVA专变,紫石口曹北港,交界口阻断井,紫石口东井台区,紫石口大峪港2台区,紫石口大桥机井,紫石口村北,紫石口南台2,紫石口南河渠东台区,紫石口东坡根,交界口机井,紫石口东井,紫石口曹北岗机井,交界口村内,曹北港2台区,张涿野三坡服务区北充电桩母线间隔配电变压器,交界口桥头,三坡山泉水厂【纯农排变】,紫石口村内,杨彪专变100,紫石口小学台区,紫石口路西台区,紫石口南河渠2台区变压器,交界口大队台区变压器,张涿野三坡服务区南充电桩母线间隔配电变压器,紫石口南河渠,紫石口下坡跟台区,紫石口六亩地","powerOffReason":"【停电原因】由于过流跳闸导致１１０ＫＶ三坡变电站１０ＫＶ服务区５２２线路全线停电 【变更送电】因抢修进度加快原因，送电时间由２０：００变更为１８：３０ 【发布渠道】通过９５５９８发布","powerOffId":"2019102013000192"},{"poweroffId":2019102013000175,"sgpoweroffId":null,"subsName":"","lineName":"北店线514","pubTranName":"小店光7,小店光4,辛庄村光3,辛庄村光4,嘉会庄光,非遗小镇公用2,","scope":"【影响街道/乡镇】定兴镇 【高危重要客户】无 【影响客户】公租房小区、第二实验幼儿园、执法局、吉忠热力公司、博物馆、非遗小镇、二中、定兴四中、交通局公路管理处、小店泵站、杜庄村、小店村、辛庄村、加会庄、污水处理厂、华兴橡塑、文化广电新闻出版局","startTime":"2019-10-20 16:33:14","stopDate":"2019-10-20 18:00:00","orgNo":"1340609","typeCode":"电网故障停限电","poweroffArea":"【全线路停电】停0637194048-定兴县住房和城乡建设局公共租赁住房项目-专变-148283317-定兴县住房和城乡建设局公共租赁住房项目-630A,辛庄村光3,嘉会庄光3,博物馆-630,紫玉府西区-315,小店光1,河北康城房地产二号地块-1000,小店光5,小店光4,南关路灯1-160,小店光2,南关路灯2-100,0672525317-定兴县吉忠热力有限公司-专变-214305083-吉忠热力公司-200,辛庄村光2【纯农排变】,贯鸿房地产状元府-315,0637194048-定兴县住房和城乡建设局公共租赁住房项目-专变-148279640-定兴县住房和城乡建设局公共租赁住房项目-630B,杜庄村排【纯农排变】,贯鸿房地产-630二期,非遗小镇公用1,辛庄村光4,紫玉府西区-315临变,小店泵站,城市管理执法局路-100,嘉会庄光,0676144477-河北康城房地产开发有限公司-专变-216183107-康城房地产-315,0687327070-定兴县吉忠热力有限公司-专变-227172342-吉忠热力-2000,二中-400,0687327070-定兴县吉忠热力有限公司-专变-227170709-吉忠热力-2000,0667214518-定兴县第二实验幼儿园-专变-208411085-第二幼儿园-800,非遗小镇公用2,辛庄村光1,定兴镇污水处理厂315,杜庄光2,0596020563-*河北康城房地产开发有限公司-专变-127079851-康城房地产临建2号变,四中—500,定兴县城市管理行政执法局-50,二中-315,小店光7,河北康城房地产2号地块-1000","poweroffReason":"【停电原因】由于嘉会庄分支电缆挖断导致３５ＫＶ城关变电站北店线５１４线路全线停电 【变更送电】因抢修进度加快原因，送电时间由２０：００变更为１８：００ 【发布渠道】通过９５５９８发布","powerTime":"2019-10-20 17:19:46","powerComm":"已送电","subsNo":"","lineNo":"","tgNo":"","tgName":null,"infoStatus":"1","orgName":"国网定兴县供电公司","typeName":null,"infoStatusName":null,"dateDay":null,"orgNos":null,"nowTime":null,"countyName":null,"streetName":null,"villageName":null,"roadName":null,"communityName":null,"tranName":null,"sdLineName":null,"cityCode":"1340609","cityName":"国网定兴县供电公司","provinceCode":null,"stopTime":"2019-10-20 18:00:00","powerType":"全部","powerOffArea":"【全线路停电】停0637194048-定兴县住房和城乡建设局公共租赁住房项目-专变-148283317-定兴县住房和城乡建设局公共租赁住房项目-630A,辛庄村光3,嘉会庄光3,博物馆-630,紫玉府西区-315,小店光1,河北康城房地产二号地块-1000,小店光5,小店光4,南关路灯1-160,小店光2,南关路灯2-100,0672525317-定兴县吉忠热力有限公司-专变-214305083-吉忠热力公司-200,辛庄村光2【纯农排变】,贯鸿房地产状元府-315,0637194048-定兴县住房和城乡建设局公共租赁住房项目-专变-148279640-定兴县住房和城乡建设局公共租赁住房项目-630B,杜庄村排【纯农排变】,贯鸿房地产-630二期,非遗小镇公用1,辛庄村光4,紫玉府西区-315临变,小店泵站,城市管理执法局路-100,嘉会庄光,0676144477-河北康城房地产开发有限公司-专变-216183107-康城房地产-315,0687327070-定兴县吉忠热力有限公司-专变-227172342-吉忠热力-2000,二中-400,0687327070-定兴县吉忠热力有限公司-专变-227170709-吉忠热力-2000,0667214518-定兴县第二实验幼儿园-专变-208411085-第二幼儿园-800,非遗小镇公用2,辛庄村光1,定兴镇污水处理厂315,杜庄光2,0596020563-*河北康城房地产开发有限公司-专变-127079851-康城房地产临建2号变,四中—500,定兴县城市管理行政执法局-50,二中-315,小店光7,河北康城房地产2号地块-1000","powerOffReason":"【停电原因】由于嘉会庄分支电缆挖断导致３５ＫＶ城关变电站北店线５１４线路全线停电 【变更送电】因抢修进度加快原因，送电时间由２０：００变更为１８：００ 【发布渠道】通过９５５９８发布","powerOffId":"2019102013000175"},{"poweroffId":2019102013000112,"sgpoweroffId":null,"subsName":"","lineName":"荣域567线","pubTranName":"白四街1,高速引线公变,白辛庄,白辛庄2,白芙蓉公变3,夜市公变2,停车场公变,南留村东,木器厂公变2,夜市公变,白芙蓉公变,白芙蓉公变2,桥头公变,白三停车场2号公变,毛绒玩具公变,木器厂公变,","scope":"【影响街道/乡镇】白沟镇、津保路、富强路 【高危重要客户】污水处理厂、排水站 【影响客户】南留村、白二村、白四村、白辛庄村、白三村、金润房地产、幸福里小区、荣域小区、李大生（华珠）、宜家旺商厦、津保路肯德基、鞋帽城高层、金润物业、天德供水、刘国强、李福明（汽车站）、精品鞋帽城、建设银行、南水北调（办公室）、王立新、鼎创（张瑞华）、建设银行南物流、逸景丁香、黄秋生（南物流）、刘宝刚、吕宝刚、派出所、白二开发区","startTime":"2019-10-20 13:06:50","stopDate":"2019-10-20 23:30:00","orgNo":"1340612","typeCode":"电网故障停限电","poweroffArea":"【全线路停电】停0544849396-保定白沟成正物业服务有限公司(荣域小区)-专变-47788472-变压器1,0683959099-仁和庄7号变台-专变-223535962-变压器,木器厂公变2,0387441090-排水站2-专变-45278561-排水站2,0387442787-高碑店市天奕商厦有限公司白沟新城第三公司-专变-212349141-变压器3,夜市公变,白芙蓉公变,0387442905-白一市场西小区-专变-126037058-变压器500,0686701202-保定天德供水有限公司-专变-226881863-变压器,南水北调变压器主用100,白芙蓉公变2,南水北调变压器主用,变压器,白三停车场2号公变,0387442240-兴华小区-专变-45278555-回制钢,精品鞋帽城,0387441377-高碑店市华珠工业有限责任公司(出租屋)-专变-45278559-华珠海绵厂,南留小区变压器,毛绒玩具公变,白一市场东,高速引线公变,仁合庄12,白辛庄2,罗海伍（白沟幸福里小区）变压器,鞋帽城2,夜市公变2,白一市场南,停车场公变,白二小区,南留村东,0671682387-保定白沟新城鼎创皮革商行-专变-212350997-变压器,木器厂公变,0588749386-南水北调中线干线工程建设管理局天津分局-专变-125352322-变压器,白四街1,0546495100-鞋城高层-专变-47874406-鞋城高层变压器,白辛庄,刘国强,河北保定运输集团有限责任公司白沟汽车站,白芙蓉公变3,白二开发区,0387442787-高碑店市天奕商厦有限公司白沟新城第三公司-专变-212349139-变压器1,桥头公变,白沟新城公安分局富强路派出所,市政路灯1,白沟污水处理厂,污水处理变压器","poweroffReason":"【停电原因】由于Ｂ相接地导致１１０ＫＶ南留变电站１０ＫＶ荣域５６７线路全线停电 【变更送电】因抢修进度加快原因，送电时间由２１日０１：００变更为２０日２３：３０ 【发布渠道】通过９５５９８发布","powerTime":"2019-10-20 23:23:01","powerComm":"已送电","subsNo":"","lineNo":"","tgNo":"","tgName":null,"infoStatus":"1","orgName":"国网高碑店市供电公司","typeName":null,"infoStatusName":null,"dateDay":null,"orgNos":null,"nowTime":null,"countyName":null,"streetName":null,"villageName":null,"roadName":null,"communityName":null,"tranName":null,"sdLineName":null,"cityCode":"1340612","cityName":"国网高碑店市供电公司","provinceCode":null,"stopTime":"2019-10-20 23:30:00","powerType":"全部","powerOffArea":"【全线路停电】停0544849396-保定白沟成正物业服务有限公司(荣域小区)-专变-47788472-变压器1,0683959099-仁和庄7号变台-专变-223535962-变压器,木器厂公变2,0387441090-排水站2-专变-45278561-排水站2,0387442787-高碑店市天奕商厦有限公司白沟新城第三公司-专变-212349141-变压器3,夜市公变,白芙蓉公变,0387442905-白一市场西小区-专变-126037058-变压器500,0686701202-保定天德供水有限公司-专变-226881863-变压器,南水北调变压器主用100,白芙蓉公变2,南水北调变压器主用,变压器,白三停车场2号公变,0387442240-兴华小区-专变-45278555-回制钢,精品鞋帽城,0387441377-高碑店市华珠工业有限责任公司(出租屋)-专变-45278559-华珠海绵厂,南留小区变压器,毛绒玩具公变,白一市场东,高速引线公变,仁合庄12,白辛庄2,罗海伍（白沟幸福里小区）变压器,鞋帽城2,夜市公变2,白一市场南,停车场公变,白二小区,南留村东,0671682387-保定白沟新城鼎创皮革商行-专变-212350997-变压器,木器厂公变,0588749386-南水北调中线干线工程建设管理局天津分局-专变-125352322-变压器,白四街1,0546495100-鞋城高层-专变-47874406-鞋城高层变压器,白辛庄,刘国强,河北保定运输集团有限责任公司白沟汽车站,白芙蓉公变3,白二开发区,0387442787-高碑店市天奕商厦有限公司白沟新城第三公司-专变-212349139-变压器1,桥头公变,白沟新城公安分局富强路派出所,市政路灯1,白沟污水处理厂,污水处理变压器","powerOffReason":"【停电原因】由于Ｂ相接地导致１１０ＫＶ南留变电站１０ＫＶ荣域５６７线路全线停电 【变更送电】因抢修进度加快原因，送电时间由２１日０１：００变更为２０日２３：３０ 【发布渠道】通过９５５９８发布","powerOffId":"2019102013000112"},{"poweroffId":2019102013000104,"sgpoweroffId":null,"subsName":"","lineName":"力强557","pubTranName":"耿庄西北,宋辛北,冯家营西排灌【纯农排变】,南菜北,冯家营南,耿庄3号地【纯农排变】,宋辛中,力强南变压器,宋辛西北,力强北,十里铺西地【纯农排变】,宋辛中二变压器,220KV河北省送变电公司公变,宋辛北地【纯农排变】,耿庄西排灌变压器,","scope":"【影响街道/乡镇】泗庄镇、东马营镇 【高危重要客户】无 【影响客户】宋辛村、十里铺村、力强村、赵庄村、金庄村、小陈庄村、大陈庄村、耿庄村、楮官营村、冯家营村、南菜村、德林庄村、碧照轩观光园有限公司、宋辛小学、冯家营小学、宋辛面粉厂、河北金利达塑胶制品有限公司、孙建华中、孙建华东、田国辉","startTime":"2019-10-20 12:03:27","stopDate":"2019-10-20 13:30:00","orgNo":"1340612","typeCode":"电网故障停限电","poweroffArea":"【全线路停电】停南菜村,褚官营1号地【纯农排变】,耿庄3号地【纯农排变】,孙建华中,冯家营南,泗庄小陈庄东变压器,河北金利达塑胶制品有限公司,冯家营西,宋辛3号地,冯家营西排灌【纯农排变】,力强2号地变压器,宋辛中,金庄地变压器,0387440244-宋辛海绵纸厂-专变-45277368-田德春,泗庄大陈庄,力强西,耿庄地【纯农排变】,耿庄2号地【纯农排变】,南菜西北地【纯农排变】,十里铺1号地【纯农排变】,宋辛西北地【纯农排变】,高碑店市泗庄镇冯家营学校,冯家营东台,冯家营1号地【纯农排变】,德林庄1号地,力强北,十里铺西地【纯农排变】,冯家营3号地【纯农排变】,赵庄地变压器【纯农排变】,南菜东北地【纯农排变】,0643978403-河北金利达塑胶制品有限公司-专变-161950501-河北金利达塑胶制品有限公司200KVA变压器,耿庄排灌【纯农排变】,德林庄北,耿庄西,小陈庄地【纯农排变】,宋辛北地【纯农排变】,宋辛北,宋辛4号地变压器【纯农排变】,中国石油天然气股份有限公司管道分公司,耿庄村,金庄,宋辛面,十里铺东地【纯农排变】,孙建华东,海威拉链有限责任公司,德林庄西北地【纯农排变】,高碑店市泗庄镇宋辛庄窠小学变压器,耿庄西排灌变压器,宋辛2号地【纯农排变】,力强1号地变压器,耿庄西北,大陈庄地【纯农排变】,冯家营4号地【纯农排变】,力强3号地变压器【纯农排变】,德林庄村,褚官营2号地【纯农排变】,冯家营北,南菜北,宋辛中二变压器,0643978403-河北金利达塑胶制品有限公司-专变-161935481-河北金利达塑胶制品有限公司1000KVA变压器,南菜1号地【纯农排变】,宋辛西北,褚官营西,冯家营2号地【纯农排变】,安海林变压器,客户投资_泗庄赵庄,力强东变压器,力强南变压器,小陈庄西,0387451189-田国辉-专变-45283233-党校,褚官营村,德林庄北地【纯农排变】,宋辛东北地变压器【纯农排变】,宋辛1号地【纯农排变】,宋辛东地【纯农排变】,褚官营地【纯农排变】,冯家营西排灌1【纯农排变】,高碑店市碧照轩观光园有限公司变压器,220KV河北省送变电公司公变,十里铺2号地【纯农排变】","poweroffReason":"【停电原因】由于德林庄分支电缆爆导致２２０ＫＶ力强变电站１０ＫＶ力强５５７线路全线停电 【变更送电】因抢修进度加快原因，送电时间由１７：００变更为１３：３０ 【发布渠道】通过９５５９８发布","powerTime":"2019-10-20 13:16:30","powerComm":"已送电","subsNo":"","lineNo":"","tgNo":"","tgName":null,"infoStatus":"1","orgName":"国网高碑店市供电公司","typeName":null,"infoStatusName":null,"dateDay":null,"orgNos":null,"nowTime":null,"countyName":null,"streetName":null,"villageName":null,"roadName":null,"communityName":null,"tranName":null,"sdLineName":null,"cityCode":"1340612","cityName":"国网高碑店市供电公司","provinceCode":null,"stopTime":"2019-10-20 13:30:00","powerType":"全部","powerOffArea":"【全线路停电】停南菜村,褚官营1号地【纯农排变】,耿庄3号地【纯农排变】,孙建华中,冯家营南,泗庄小陈庄东变压器,河北金利达塑胶制品有限公司,冯家营西,宋辛3号地,冯家营西排灌【纯农排变】,力强2号地变压器,宋辛中,金庄地变压器,0387440244-宋辛海绵纸厂-专变-45277368-田德春,泗庄大陈庄,力强西,耿庄地【纯农排变】,耿庄2号地【纯农排变】,南菜西北地【纯农排变】,十里铺1号地【纯农排变】,宋辛西北地【纯农排变】,高碑店市泗庄镇冯家营学校,冯家营东台,冯家营1号地【纯农排变】,德林庄1号地,力强北,十里铺西地【纯农排变】,冯家营3号地【纯农排变】,赵庄地变压器【纯农排变】,南菜东北地【纯农排变】,0643978403-河北金利达塑胶制品有限公司-专变-161950501-河北金利达塑胶制品有限公司200KVA变压器,耿庄排灌【纯农排变】,德林庄北,耿庄西,小陈庄地【纯农排变】,宋辛北地【纯农排变】,宋辛北,宋辛4号地变压器【纯农排变】,中国石油天然气股份有限公司管道分公司,耿庄村,金庄,宋辛面,十里铺东地【纯农排变】,孙建华东,海威拉链有限责任公司,德林庄西北地【纯农排变】,高碑店市泗庄镇宋辛庄窠小学变压器,耿庄西排灌变压器,宋辛2号地【纯农排变】,力强1号地变压器,耿庄西北,大陈庄地【纯农排变】,冯家营4号地【纯农排变】,力强3号地变压器【纯农排变】,德林庄村,褚官营2号地【纯农排变】,冯家营北,南菜北,宋辛中二变压器,0643978403-河北金利达塑胶制品有限公司-专变-161935481-河北金利达塑胶制品有限公司1000KVA变压器,南菜1号地【纯农排变】,宋辛西北,褚官营西,冯家营2号地【纯农排变】,安海林变压器,客户投资_泗庄赵庄,力强东变压器,力强南变压器,小陈庄西,0387451189-田国辉-专变-45283233-党校,褚官营村,德林庄北地【纯农排变】,宋辛东北地变压器【纯农排变】,宋辛1号地【纯农排变】,宋辛东地【纯农排变】,褚官营地【纯农排变】,冯家营西排灌1【纯农排变】,高碑店市碧照轩观光园有限公司变压器,220KV河北省送变电公司公变,十里铺2号地【纯农排变】","powerOffReason":"【停电原因】由于德林庄分支电缆爆导致２２０ＫＶ力强变电站１０ＫＶ力强５５７线路全线停电 【变更送电】因抢修进度加快原因，送电时间由１７：００变更为１３：３０ 【发布渠道】通过９５５９８发布","powerOffId":"2019102013000104"},{"poweroffId":2019102013000076,"sgpoweroffId":null,"subsName":"","lineName":"10kV513三埝线","pubTranName":"北埝乡,北埝农排5台区【纯农排变】,北埝农排2台区【纯农排变】,蠡县农惠粮食农民专业合作社变压器,南埝农排1台区【纯农排变】,南埝综合4台区,南埝综合3台区,中埝农排3台区【纯农排变】,北埝综合5台区,中埝综合4台区,中埝农排1台区【纯农排变】,南埝农排3台区【纯农排变】,北埝粮站,北埝小伟,北埝综合2台区,蠡县荣光棉花有限公司,北埝综合12台区,北埝农排3台区【纯农排变】,北埝综合8台区,南埝农排2台区【纯农排变】,北埝农排9台区【纯农排变】,南埝农排4台区【纯农排变】,中埝综合2台区,北埝综合13台区变压器,北埝综合6台区,北埝华松制香厂,北埝综合7台区,北埝农排8台区【纯农排变】,北埝综合4台区,南埝西2,南埝综合1台区,北埝综合9台区,中埝农排2台区【纯农排变】,中埝农排4台区【纯农排变】,北埝综合11台区,北埝综合10台区,北埝农排6台区【纯农排变】,北埝中学,中埝农排6台区【纯农排变】,北埝农排7台区【纯农排变】,中埝综合1台区,北埝综合1台区,北埝综合3台区,河北蠡县华龙福利化工厂,中埝农排5台区【纯农排变】,南埝综合2台区,中埝综合3台区,北埝农排4台区【纯农排变】,北埝魏俊卿,南埝农排5台区【纯农排变】,","scope":"【影响街道/乡镇】北埝头乡【高危重要客户】无【影响客户】北埝村、南埝村、中埝村","startTime":"2019-10-20 12:00:00","stopDate":"2019-10-20 17:00:00","orgNo":"1340616","typeCode":"其他临时停电","poweroffArea":"【全线路停电】停北埝综合4台区,中埝综合4台区,北埝综合13台区变压器,南埝西2,北埝综合2台区,北埝综合8台区,北埝综合3台区,南埝综合3台区,南埝农排5台区【纯农排变】,中埝农排5台区【纯农排变】,中埝农排1台区【纯农排变】,南埝农排1台区【纯农排变】,中埝农排3台区【纯农排变】,中埝综合1台区,北埝综合9台区,北埝农排3台区【纯农排变】,中埝农排2台区【纯农排变】,北埝中学,北埝华松制香厂,北埝乡,南埝农排2台区【纯农排变】,北埝综合6台区,蠡县农惠粮食农民专业合作社变压器,北埝农排4台区【纯农排变】,中埝综合3台区,北埝农排9台区【纯农排变】,北埝综合12台区,北埝综合1台区,北埝综合11台区,南埝综合1台区,南埝综合4台区,北埝综合10台区,南埝农排4台区【纯农排变】,蠡县荣光棉花有限公司,北埝农排5台区【纯农排变】,北埝粮站,北埝农排2台区【纯农排变】,中埝综合2台区,北埝魏俊卿,中埝农排6台区【纯农排变】,北埝小伟,北埝综合7台区,南埝综合2台区,北埝综合5台区,北埝农排6台区【纯农排变】,北埝农排8台区【纯农排变】,中埝农排4台区【纯农排变】,河北蠡县华龙福利化工厂,北埝农排7台区【纯农排变】,南埝农排3台区【纯农排变】","poweroffReason":"【停电原因】由于线夹接虚过热，需停电进行紧急消缺导致３５ＫＶ李岗变电站１０ＫＶ三埝５１３线路全线停电【变更送电】无【发布渠道】通过９５５９８发布","powerTime":"2019-10-20 16:46:13","powerComm":"已送电","subsNo":"","lineNo":"","tgNo":"","tgName":null,"infoStatus":"1","orgName":"国网蠡县供电公司","typeName":null,"infoStatusName":null,"dateDay":null,"orgNos":null,"nowTime":null,"countyName":null,"streetName":null,"villageName":null,"roadName":null,"communityName":null,"tranName":null,"sdLineName":null,"cityCode":"1340616","cityName":"国网蠡县供电公司","provinceCode":null,"stopTime":"2019-10-20 17:00:00","powerType":"全部","powerOffArea":"【全线路停电】停北埝综合4台区,中埝综合4台区,北埝综合13台区变压器,南埝西2,北埝综合2台区,北埝综合8台区,北埝综合3台区,南埝综合3台区,南埝农排5台区【纯农排变】,中埝农排5台区【纯农排变】,中埝农排1台区【纯农排变】,南埝农排1台区【纯农排变】,中埝农排3台区【纯农排变】,中埝综合1台区,北埝综合9台区,北埝农排3台区【纯农排变】,中埝农排2台区【纯农排变】,北埝中学,北埝华松制香厂,北埝乡,南埝农排2台区【纯农排变】,北埝综合6台区,蠡县农惠粮食农民专业合作社变压器,北埝农排4台区【纯农排变】,中埝综合3台区,北埝农排9台区【纯农排变】,北埝综合12台区,北埝综合1台区,北埝综合11台区,南埝综合1台区,南埝综合4台区,北埝综合10台区,南埝农排4台区【纯农排变】,蠡县荣光棉花有限公司,北埝农排5台区【纯农排变】,北埝粮站,北埝农排2台区【纯农排变】,中埝综合2台区,北埝魏俊卿,中埝农排6台区【纯农排变】,北埝小伟,北埝综合7台区,南埝综合2台区,北埝综合5台区,北埝农排6台区【纯农排变】,北埝农排8台区【纯农排变】,中埝农排4台区【纯农排变】,河北蠡县华龙福利化工厂,北埝农排7台区【纯农排变】,南埝农排3台区【纯农排变】","powerOffReason":"【停电原因】由于线夹接虚过热，需停电进行紧急消缺导致３５ＫＶ李岗变电站１０ＫＶ三埝５１３线路全线停电【变更送电】无【发布渠道】通过９５５９８发布","powerOffId":"2019102013000076"},{"poweroffId":2019102013000074,"sgpoweroffId":null,"subsName":"","lineName":"10kV515三泊线","pubTranName":"泊东农排6台区【纯农排变】,泊北综合6台区,泊北综合1台区,农场综合1台区,泊东综合4台区,泊南综合4台区,泊南农排7台区【纯农排变】,泊东综合3台区,泊东农排3台区【纯农排变】,泊东综合5台区,泊北综合5台区,农场农排7台区【纯农排变】,泊东农排2台区【纯农排变】,泊北综合4台区,泊北综合2台区,泊北农排4台区【纯农排变】,泊北综合7台区,泊南农排1台区【纯农排变】,泊东综合2台区,泊北农排2台区【纯农排变】,泊南综合5台区,泊南综合1台区,泊南综合3台区,泊东综合1台区,泊北农排8台区【纯农排变】,泊北农排1台区【纯农排变】,农场农排3台区【纯农排变】,泊北综合3台区,泊南综合2台区,泊东农排5台区【纯农排变】,泊东综合6台区,","scope":"【影响街道/乡镇】北埝头乡【高危重要客户】无【影响客户】泊庄北村、泊庄东村、泊庄南村、农场四队","startTime":"2019-10-20 12:00:00","stopDate":"2019-10-20 17:00:00","orgNo":"1340616","typeCode":"其他临时停电","poweroffArea":"【全线路停电】停泊南农排3台区【纯农排变】,农场农排3台区【纯农排变】,泊北农排1台区【纯农排变】,泊南农排6台区【纯农排变】,泊南综合1台区,泊南综合2台区,农场综合1台区,泊北综合2台区,泊北农排6台区【纯农排变】,泊北农排5台区【纯农排变】,泊南农排4台区【纯农排变】,泊北农排8台区【纯农排变】,农场农排7台区【纯农排变】,泊东综合5台区,泊南农排2台区【纯农排变】,农场农排4台区【纯农排变】,泊北综合7台区,泊北综合1台区,泊北综合6台区,泊南综合4台区,泊北农排7台区【纯农排变】,农场农排1台区【纯农排变】,泊南农排7台区【纯农排变】,泊东农排7台区【纯农排变】,泊南农排1台区【纯农排变】,北埝农排12台区【纯农排变】,泊东综合4台区,泊北综合3台区,泊北综合5台区,中建路桥集团有限公司变压器,泊北农排9台区【纯农排变】,泊南面粉厂,北埝果园,泊南综合3台区,泊南村西南,泊南综合5台区,泊东综合1台区,泊东农排8台区【纯农排变】,泊东农排4台区【纯农排变】,泊东农排2台区【纯农排变】,泊北农排2台区【纯农排变】,北埝农排10台区【纯农排变】,泊北综合4台区,泊东综合6台区,北埝农排11台区【纯农排变】,泊东农排3台区【纯农排变】,泊北农排4台区【纯农排变】,泊南农排8台区【纯农排变】,泊东农排1台区【纯农排变】,泊东综合3台区,泊东农排5台区【纯农排变】,泊东综合2台区,农场农排2台区【纯农排变】,农场农排6台区【纯农排变】,泊东农排6台区【纯农排变】,泊北农排3台区【纯农排变】,泊南农排5台区【纯农排变】","poweroffReason":"【停电原因】由于线夹接虚过热，需停电进行紧急消缺导致３５ＫＶ李岗变电站１０ＫＶ三泊５１５线路全线停电【变更送电】无【发布渠道】通过９５５９８发布","powerTime":"2019-10-20 16:46:27","powerComm":"已送电","subsNo":"","lineNo":"","tgNo":"","tgName":null,"infoStatus":"1","orgName":"国网蠡县供电公司","typeName":null,"infoStatusName":null,"dateDay":null,"orgNos":null,"nowTime":null,"countyName":null,"streetName":null,"villageName":null,"roadName":null,"communityName":null,"tranName":null,"sdLineName":null,"cityCode":"1340616","cityName":"国网蠡县供电公司","provinceCode":null,"stopTime":"2019-10-20 17:00:00","powerType":"全部","powerOffArea":"【全线路停电】停泊南农排3台区【纯农排变】,农场农排3台区【纯农排变】,泊北农排1台区【纯农排变】,泊南农排6台区【纯农排变】,泊南综合1台区,泊南综合2台区,农场综合1台区,泊北综合2台区,泊北农排6台区【纯农排变】,泊北农排5台区【纯农排变】,泊南农排4台区【纯农排变】,泊北农排8台区【纯农排变】,农场农排7台区【纯农排变】,泊东综合5台区,泊南农排2台区【纯农排变】,农场农排4台区【纯农排变】,泊北综合7台区,泊北综合1台区,泊北综合6台区,泊南综合4台区,泊北农排7台区【纯农排变】,农场农排1台区【纯农排变】,泊南农排7台区【纯农排变】,泊东农排7台区【纯农排变】,泊南农排1台区【纯农排变】,北埝农排12台区【纯农排变】,泊东综合4台区,泊北综合3台区,泊北综合5台区,中建路桥集团有限公司变压器,泊北农排9台区【纯农排变】,泊南面粉厂,北埝果园,泊南综合3台区,泊南村西南,泊南综合5台区,泊东综合1台区,泊东农排8台区【纯农排变】,泊东农排4台区【纯农排变】,泊东农排2台区【纯农排变】,泊北农排2台区【纯农排变】,北埝农排10台区【纯农排变】,泊北综合4台区,泊东综合6台区,北埝农排11台区【纯农排变】,泊东农排3台区【纯农排变】,泊北农排4台区【纯农排变】,泊南农排8台区【纯农排变】,泊东农排1台区【纯农排变】,泊东综合3台区,泊东农排5台区【纯农排变】,泊东综合2台区,农场农排2台区【纯农排变】,农场农排6台区【纯农排变】,泊东农排6台区【纯农排变】,泊北农排3台区【纯农排变】,泊南农排5台区【纯农排变】","powerOffReason":"【停电原因】由于线夹接虚过热，需停电进行紧急消缺导致３５ＫＶ李岗变电站１０ＫＶ三泊５１５线路全线停电【变更送电】无【发布渠道】通过９５５９８发布","powerOffId":"2019102013000074"},{"poweroffId":2019102013000073,"sgpoweroffId":null,"subsName":"","lineName":"10kV北王力线512","pubTranName":"1北王力内4,1西王力内10,1西王力内1,1西王力内6,客户投资_1西王力内2,1北王力内16,1北王力内3,1西王力内8,北王力内11,北王力中学2,1北王力内12,北王力中学1,2西王力外13,西王力小学,1北王力内15,1北王力内7,1北王力内17,1罗营内1,1东王力内2,1西王力内4,1北王力内14,1北王力内6,1北王力内9,1东王力内1,1北王力内10,1西王力内11,1西王力内9,1东王力内3,1西王力内5,北王力乡中心幼儿园,1北王力内2,1西王力内3,北王力中学3,1北王力内13,1罗营内9,1西王力内7,1北王力内8,2北王力外22,1北王力内5,1北王力内1,","scope":"【影响街道/乡镇】北王力乡 【高危重要客户】无 【影响客户】东王力、西王力、北王力、罗家营","startTime":"2019-10-22 05:00:00","stopDate":"2019-10-22 22:00:00","orgNo":"1340618","typeCode":"临时停电","poweroffArea":"【全线路停电】停2西王力外4【纯农排变】,1西王力内7,2北王力外2【纯农排变】,2东王力外4【纯农排变】,清苑县西王力鑫利面粉厂,1西王力内1,2北王力外12【纯农排变】,1西王力内6,2北王力外6【纯农排变】,客户投资_1西王力内2,2西王力外1【纯农排变】,2东王力外1【纯农排变】,北王力村委会,2北王力外14【纯农排变】,2西王力外12【纯农排变】,1北王力内16,2北王力外9【纯农排变】,2西王力外5【纯农排变】,1北王力内3,2北王力外13【纯农排变】,1东王力内1,1北王力内10,1西王力内11,北王力东2,0387497080-北王力东-专变-45318667-北王力东1,北王力村村东,保定市清苑区增亮废旧木材加工处,李建雄猪场,西王力冰棍房,2西王力外7【纯农排变】,北王力西1,2北王力外15【纯农排变】,2西王力外11【纯农排变】,保定富泰隆服装有限公司,东王力付俊峰猪场,1西王力内9,1东王力内3,北王力砖厂东,1西王力内5,2北王力外18【纯农排变】,2北王力外20【纯农排变】,北王力乡中心幼儿园,1北王力内2,1西王力内3,北王力中学3,1北王力内13,1罗营内9,1北王力内8,0387497211-北王力西-专变-45318669-北王力西2,2罗营外1【纯农排变】,2北王力外10【纯农排变】,2北王力外8【纯农排变】,2西王力外2【纯农排变】,2西王力外9【纯农排变】,北王力堤北,2北王力外17【纯农排变】,东王力外5【纯农排变】,1北王力内5,2北王力外4【纯农排变】,2北王力外5【纯农排变】,2北王力外11【纯农排变】,北王力中学2,1北王力内12,2北王力外21【纯农排变】,2西王力外3【纯农排变】,北王力中学1,2西王力外13,2北王力外3【纯农排变】,2北王力外7【纯农排变】,2西王力外8【纯农排变】,2东王力外6【纯农排变】,2北王力外22,2西王力外10【纯农排变】,2北王力外16【纯农排变】,2东王力外3【纯农排变】,西王力小学,2西王力外6【纯农排变】,2北王力外1【纯农排变】,1北王力内15,1北王力内7,2东王力外7【纯农排变】,1罗营内1,1东王力内2,2东王力外2【纯农排变】,保定市清苑区北王力中学,保定市清苑区顺腾木器加工厂,2北王力外19【纯农排变】,1北王力内9,1北王力内1,北王力内11,1北王力内17,1西王力内4,国网河北清苑县供电公司罗家营供电所,1北王力内14,1北王力内6,1西王力内10,北王力村村西,1西王力内8,1北王力内4","poweroffReason":"【停电原因】由于配合保定市局工作导致３５ＫＶ罗家营变电站１０ＫＶ北王力线５１２线路全线停电 【变更送电】因工作量大，送电时间由２１：００变更为２２：００ 【发布渠道】通过９５５９８发布","powerTime":"2019-10-22 21:03:28","powerComm":"杨红梅通知已送电","subsNo":"","lineNo":"","tgNo":"","tgName":null,"infoStatus":"1","orgName":"国网清苑县供电公司","typeName":null,"infoStatusName":null,"dateDay":null,"orgNos":null,"nowTime":null,"countyName":null,"streetName":null,"villageName":null,"roadName":null,"communityName":null,"tranName":null,"sdLineName":null,"cityCode":"1340618","cityName":"国网清苑县供电公司","provinceCode":null,"stopTime":"2019-10-22 22:00:00","powerType":"全部","powerOffArea":"【全线路停电】停2西王力外4【纯农排变】,1西王力内7,2北王力外2【纯农排变】,2东王力外4【纯农排变】,清苑县西王力鑫利面粉厂,1西王力内1,2北王力外12【纯农排变】,1西王力内6,2北王力外6【纯农排变】,客户投资_1西王力内2,2西王力外1【纯农排变】,2东王力外1【纯农排变】,北王力村委会,2北王力外14【纯农排变】,2西王力外12【纯农排变】,1北王力内16,2北王力外9【纯农排变】,2西王力外5【纯农排变】,1北王力内3,2北王力外13【纯农排变】,1东王力内1,1北王力内10,1西王力内11,北王力东2,0387497080-北王力东-专变-45318667-北王力东1,北王力村村东,保定市清苑区增亮废旧木材加工处,李建雄猪场,西王力冰棍房,2西王力外7【纯农排变】,北王力西1,2北王力外15【纯农排变】,2西王力外11【纯农排变】,保定富泰隆服装有限公司,东王力付俊峰猪场,1西王力内9,1东王力内3,北王力砖厂东,1西王力内5,2北王力外18【纯农排变】,2北王力外20【纯农排变】,北王力乡中心幼儿园,1北王力内2,1西王力内3,北王力中学3,1北王力内13,1罗营内9,1北王力内8,0387497211-北王力西-专变-45318669-北王力西2,2罗营外1【纯农排变】,2北王力外10【纯农排变】,2北王力外8【纯农排变】,2西王力外2【纯农排变】,2西王力外9【纯农排变】,北王力堤北,2北王力外17【纯农排变】,东王力外5【纯农排变】,1北王力内5,2北王力外4【纯农排变】,2北王力外5【纯农排变】,2北王力外11【纯农排变】,北王力中学2,1北王力内12,2北王力外21【纯农排变】,2西王力外3【纯农排变】,北王力中学1,2西王力外13,2北王力外3【纯农排变】,2北王力外7【纯农排变】,2西王力外8【纯农排变】,2东王力外6【纯农排变】,2北王力外22,2西王力外10【纯农排变】,2北王力外16【纯农排变】,2东王力外3【纯农排变】,西王力小学,2西王力外6【纯农排变】,2北王力外1【纯农排变】,1北王力内15,1北王力内7,2东王力外7【纯农排变】,1罗营内1,1东王力内2,2东王力外2【纯农排变】,保定市清苑区北王力中学,保定市清苑区顺腾木器加工厂,2北王力外19【纯农排变】,1北王力内9,1北王力内1,北王力内11,1北王力内17,1西王力内4,国网河北清苑县供电公司罗家营供电所,1北王力内14,1北王力内6,1西王力内10,北王力村村西,1西王力内8,1北王力内4","powerOffReason":"【停电原因】由于配合保定市局工作导致３５ＫＶ罗家营变电站１０ＫＶ北王力线５１２线路全线停电 【变更送电】因工作量大，送电时间由２１：００变更为２２：００ 【发布渠道】通过９５５９８发布","powerOffId":"2019102013000073"}],"pageModel":{"pageNow":481,"totalCount":10973,"totalPage":1098,"tableRows":0,"pageCount":10,"beginCount":4800},"isExperi":"1"}