{"message":"","today":"2020-06-15","seleList":[{"poweroffId":2020053113000278,"sgpoweroffId":null,"subsName":"","lineName":"南胡线518","pubTranName":"北胡供电所92号配变,史端供电所39号,南胡4号,梁庄13号,","scope":"【影响街道/乡镇】史端乡 【高危重要客户】无 【影响客户】南胡渠、北北里、北胡渠、陈庄、刘庄、梁庄、东史端","startTime":"2020-05-31 22:35:37","stopDate":"2020-06-01 04:00:00","orgNo":"1340605","typeCode":"电网故障停限电","poweroffArea":"【全线路停电】停南胡4号,北北里6号【纯农排变】,河北海意机械制造有限公司,北胡供电所79号,供电所17号,徐水县联创塑粉制造有限公司,北胡13号,北胡15号配变,南胡6号,供电所60号,北胡8号,史端供电所10号,史端供电所9号,北胡3号配变【纯农排变】,陈庄13号,北胡供电所55号配变,南胡14号,徐水县鑫泽商品混泥土有限公司变压器,北胡2号,史端供19号,南胡10号【纯农排变】,徐水县伟业精密铸造有限公司2号,北胡供电所92号配变,北北里供64号,南胡供电所65号,北胡渠村14号,南胡供14号,供电所82号,北胡1号,南胡1号配变,北北里5号,供电所83号,史端供电所23号,郑庄1号【纯农排变】,陈庄供37号,北北里3号,北北里供54号,南胡16号,南北里供47号,南胡丽莎毛织品公司,南胡11号配变,徐水县南胡渠东砖厂2号,北北里9号【纯农排变】,北胡7号【纯农排变】,供电所南胡66号,北北里4号,南胡2号,南北里8号,史端供电所46号【纯农排变】,刘庄供29号,陈庄14号,南胡7号配变,北北里8号【纯农排变】,北胡11号,保定润泰房地产开发有限公司,梁庄8号,南胡17号,北胡12号配变,南胡5号,史端供11号,北营8号【纯农排变】,陈庄供30号【纯农排变】,梁庄供90号,北胡5号,梁庄3号,梁庄11号,南胡15号,史端供电所38号,北胡17号,南胡供电所22号【纯农排变】,北北里供80号【纯农排变】,南胡12号【纯农排变】,史端供电所39号,南北里2号配变【纯农排变】,梁庄13号,东史端2号【纯农排变】,史端供电所5号【纯农排变】,梁庄7号,徐水县和顺建材有限公司,南胡13号,北北里7号,供电所91号,史端供电所8号,陈庄5号,陈庄4号【纯农排变】,南胡3号,南北里10号【纯农排变】,南胡8号【纯农排变】,徐水县科峰机械制造厂3号,农田作业综合服务点,徐水县天丰苗木种植公司,供电所88号,徐水县伟业精密铸造有限公司1号,梁庄6号,供电所南胡62号,东史端1号,徐水县巨达焊管厂,梁庄2号,徐水县中泰钢管制造厂,南胡9号【纯农排变】,南胡东砖厂1号,北北里供电所34号,史端供电所4号,北胡6号配变,北胡9号【纯农排变】,南北里4号【纯农排变】,北营11号,史端供电所12号【纯农排变】,陈庄16号【纯农排变】,史端供电所31号【纯农排变】,供电所3号,徐水县金路精密构件制造有限公司,供电所72号【纯农排变】,史端供电所42号【纯农排变】,徐水县科峰机械制造厂2号,北胡渠西砖厂2号,北胡19号配变【纯农排变】,北胡渠西砖厂1号,南北里供44号,保定秦汉新型建材有限公司,长征水泥构件厂,梁庄12号,陈庄17号,梁庄5号【纯农排变】,北胡18号【纯农排变】,南北里供电所25号,南北里6号,梁庄9号,北胡供电所73号【纯农排变】,保定皓辰木业有限公司,南北里供87号,北北里供45号,东史端8号,北北里2号,供电所20号,史端供电所13号配变【纯农排变】,北胡10号【纯农排变】,南北里3号【纯农排变】,供电所41号,东史端10号,刘庄8号【纯农排变】,北北里1号,北胡21号【纯农排变】,北胡供74【纯农排变】,陈庄6号,陈庄村7号【纯农排变】,北胡4号【纯农排变】,南北里1号,陈庄8号【纯农排变】,北胡16号,陈庄12号,南北里供81号【纯农排变】,供电所43号","poweroffReason":"【停电原因】由于Ｂ相接地导致３５ＫＶ史端变电站南胡线５１８线路全线停电 【变更送电】因抢修进度加快原因，送电时间由０９:００变更为０４:００ 【发布渠道】通过９５５９８发布","powerTime":"2020-06-01 03:02:06","powerComm":"已送电","subsNo":"","lineNo":"","tgNo":"","tgName":null,"infoStatus":"1","orgName":"国网徐水县供电公司","typeName":null,"infoStatusName":null,"dateDay":null,"orgNos":null,"nowTime":null,"countyName":null,"streetName":null,"villageName":null,"roadName":null,"communityName":null,"tranName":null,"sdLineName":null,"cityCode":"1340605","cityName":"国网徐水县供电公司","provinceCode":null,"stopTime":"2020-06-01 04:00:00","powerType":"全部","powerOffArea":"【全线路停电】停南胡4号,北北里6号【纯农排变】,河北海意机械制造有限公司,北胡供电所79号,供电所17号,徐水县联创塑粉制造有限公司,北胡13号,北胡15号配变,南胡6号,供电所60号,北胡8号,史端供电所10号,史端供电所9号,北胡3号配变【纯农排变】,陈庄13号,北胡供电所55号配变,南胡14号,徐水县鑫泽商品混泥土有限公司变压器,北胡2号,史端供19号,南胡10号【纯农排变】,徐水县伟业精密铸造有限公司2号,北胡供电所92号配变,北北里供64号,南胡供电所65号,北胡渠村14号,南胡供14号,供电所82号,北胡1号,南胡1号配变,北北里5号,供电所83号,史端供电所23号,郑庄1号【纯农排变】,陈庄供37号,北北里3号,北北里供54号,南胡16号,南北里供47号,南胡丽莎毛织品公司,南胡11号配变,徐水县南胡渠东砖厂2号,北北里9号【纯农排变】,北胡7号【纯农排变】,供电所南胡66号,北北里4号,南胡2号,南北里8号,史端供电所46号【纯农排变】,刘庄供29号,陈庄14号,南胡7号配变,北北里8号【纯农排变】,北胡11号,保定润泰房地产开发有限公司,梁庄8号,南胡17号,北胡12号配变,南胡5号,史端供11号,北营8号【纯农排变】,陈庄供30号【纯农排变】,梁庄供90号,北胡5号,梁庄3号,梁庄11号,南胡15号,史端供电所38号,北胡17号,南胡供电所22号【纯农排变】,北北里供80号【纯农排变】,南胡12号【纯农排变】,史端供电所39号,南北里2号配变【纯农排变】,梁庄13号,东史端2号【纯农排变】,史端供电所5号【纯农排变】,梁庄7号,徐水县和顺建材有限公司,南胡13号,北北里7号,供电所91号,史端供电所8号,陈庄5号,陈庄4号【纯农排变】,南胡3号,南北里10号【纯农排变】,南胡8号【纯农排变】,徐水县科峰机械制造厂3号,农田作业综合服务点,徐水县天丰苗木种植公司,供电所88号,徐水县伟业精密铸造有限公司1号,梁庄6号,供电所南胡62号,东史端1号,徐水县巨达焊管厂,梁庄2号,徐水县中泰钢管制造厂,南胡9号【纯农排变】,南胡东砖厂1号,北北里供电所34号,史端供电所4号,北胡6号配变,北胡9号【纯农排变】,南北里4号【纯农排变】,北营11号,史端供电所12号【纯农排变】,陈庄16号【纯农排变】,史端供电所31号【纯农排变】,供电所3号,徐水县金路精密构件制造有限公司,供电所72号【纯农排变】,史端供电所42号【纯农排变】,徐水县科峰机械制造厂2号,北胡渠西砖厂2号,北胡19号配变【纯农排变】,北胡渠西砖厂1号,南北里供44号,保定秦汉新型建材有限公司,长征水泥构件厂,梁庄12号,陈庄17号,梁庄5号【纯农排变】,北胡18号【纯农排变】,南北里供电所25号,南北里6号,梁庄9号,北胡供电所73号【纯农排变】,保定皓辰木业有限公司,南北里供87号,北北里供45号,东史端8号,北北里2号,供电所20号,史端供电所13号配变【纯农排变】,北胡10号【纯农排变】,南北里3号【纯农排变】,供电所41号,东史端10号,刘庄8号【纯农排变】,北北里1号,北胡21号【纯农排变】,北胡供74【纯农排变】,陈庄6号,陈庄村7号【纯农排变】,北胡4号【纯农排变】,南北里1号,陈庄8号【纯农排变】,北胡16号,陈庄12号,南北里供81号【纯农排变】,供电所43号","powerOffReason":"【停电原因】由于Ｂ相接地导致３５ＫＶ史端变电站南胡线５１８线路全线停电 【变更送电】因抢修进度加快原因，送电时间由０９:００变更为０４:００ 【发布渠道】通过９５５９８发布","powerOffId":"2020053113000278"},{"poweroffId":2020053113000276,"sgpoweroffId":null,"subsName":"","lineName":"陈庄线517","pubTranName":"史端供电所39号,梁庄13号,","scope":"【影响街道/乡镇】史端乡 【高危重要客户】无 【影响客户】东史端村、梁庄村、陈庄村、北营村","startTime":"2020-05-31 22:32:45","stopDate":"2020-06-01 04:00:00","orgNo":"1340605","typeCode":"电网故障停限电","poweroffArea":"【全线路停电】停史端供电所38号,供电所17号,史端供电所39号,供电所60号,东史端2号【纯农排变】,史端供电所9号,梁庄13号,梁庄7号,供电所91号,陈庄13号,史端供电所8号,陈庄4号【纯农排变】,陈庄5号,徐水县鑫泽商品混泥土有限公司变压器,史端供19号,徐水县伟业精密铸造有限公司2号,农田作业综合服务点,徐水县天丰苗木种植公司,梁庄6号,徐水县伟业精密铸造有限公司1号,供电所88号,东史端1号,徐水县巨达焊管厂,梁庄2号,徐水县中泰钢管制造厂,史端供电所4号,北营11号,史端供电所12号【纯农排变】,供电所82号,陈庄16号【纯农排变】,供电所83号,史端供电所23号,供电所3号,陈庄供37号,长征水泥构件厂,陈庄17号,梁庄12号,梁庄5号【纯农排变】,梁庄9号,保定皓辰木业有限公司,刘庄供29号,史端供电所46号【纯农排变】,东史端8号,陈庄14号,梁庄8号,东史端10号,刘庄8号【纯农排变】,陈庄6号,陈庄村7号【纯农排变】,史端供11号,北营8号【纯农排变】,陈庄8号【纯农排变】,陈庄供30号【纯农排变】,梁庄供90号,陈庄12号,梁庄3号,梁庄11号,供电所43号","poweroffReason":"【停电原因】由于Ｂ相接地导致３５ＫＶ史端变电站陈庄线５１７线路全线停电 【变更送电】因抢修进度加快原因，送电时间由０９:００变更为０４:００ 【发布渠道】通过９５５９８发布","powerTime":"2020-06-01 03:02:27","powerComm":"已送电","subsNo":"","lineNo":"","tgNo":"","tgName":null,"infoStatus":"1","orgName":"国网徐水县供电公司","typeName":null,"infoStatusName":null,"dateDay":null,"orgNos":null,"nowTime":null,"countyName":null,"streetName":null,"villageName":null,"roadName":null,"communityName":null,"tranName":null,"sdLineName":null,"cityCode":"1340605","cityName":"国网徐水县供电公司","provinceCode":null,"stopTime":"2020-06-01 04:00:00","powerType":"全部","powerOffArea":"【全线路停电】停史端供电所38号,供电所17号,史端供电所39号,供电所60号,东史端2号【纯农排变】,史端供电所9号,梁庄13号,梁庄7号,供电所91号,陈庄13号,史端供电所8号,陈庄4号【纯农排变】,陈庄5号,徐水县鑫泽商品混泥土有限公司变压器,史端供19号,徐水县伟业精密铸造有限公司2号,农田作业综合服务点,徐水县天丰苗木种植公司,梁庄6号,徐水县伟业精密铸造有限公司1号,供电所88号,东史端1号,徐水县巨达焊管厂,梁庄2号,徐水县中泰钢管制造厂,史端供电所4号,北营11号,史端供电所12号【纯农排变】,供电所82号,陈庄16号【纯农排变】,供电所83号,史端供电所23号,供电所3号,陈庄供37号,长征水泥构件厂,陈庄17号,梁庄12号,梁庄5号【纯农排变】,梁庄9号,保定皓辰木业有限公司,刘庄供29号,史端供电所46号【纯农排变】,东史端8号,陈庄14号,梁庄8号,东史端10号,刘庄8号【纯农排变】,陈庄6号,陈庄村7号【纯农排变】,史端供11号,北营8号【纯农排变】,陈庄8号【纯农排变】,陈庄供30号【纯农排变】,梁庄供90号,陈庄12号,梁庄3号,梁庄11号,供电所43号","powerOffReason":"【停电原因】由于Ｂ相接地导致３５ＫＶ史端变电站陈庄线５１７线路全线停电 【变更送电】因抢修进度加快原因，送电时间由０９:００变更为０４:００ 【发布渠道】通过９５５９８发布","powerOffId":"2020053113000276"},{"poweroffId":2020053113000264,"sgpoweroffId":null,"subsName":"","lineName":"林庄线516","pubTranName":"10kV516林庄线刘庄供69号,","scope":"【影响街道/乡镇】史端乡 【高危重要客户】无 【影响客户】林庄、刘庄","startTime":"2020-05-31 22:17:30","stopDate":"2020-06-01 04:00:00","orgNo":"1340605","typeCode":"电网故障停限电","poweroffArea":"【全线路停电】停10kV516林庄线刘庄10号,10kV516林庄线刘庄供18号【纯农排变】,10kV516林庄线刘庄9号【纯农排变】,10kV516林庄线刘庄3号,10kV516林庄线刘庄5号【纯农排变】,10kV516林庄线刘庄6号【纯农排变】,10kV516林庄线林庄供33号【纯农排变】,10kV516林庄线林庄3号,10kV516林庄线林庄供32号【纯农排变】,10kV516林庄线林庄供59号,10kV516林庄线刘庄供69号,10kV516林庄线刘庄2号,10kV516林庄线刘庄1号【纯农排变】,10kV516林庄线林庄1号【纯农排变】,10kV516林庄线林庄4号,10kV516林庄线刘庄4号【纯农排变】,10kV516林庄线林庄2号【纯农排变】,10kV516林庄线刘庄7号","poweroffReason":"【停电原因】由于Ｂ相接地导致３５ＫＶ史端变电站林庄线５１６线路全线停电 【变更送电】因抢修进度加快原因，送电时间由０９:００变更为０４:００ 【发布渠道】通过９５５９８发布","powerTime":"2020-06-01 03:02:49","powerComm":"已送电","subsNo":"","lineNo":"","tgNo":"","tgName":null,"infoStatus":"1","orgName":"国网徐水县供电公司","typeName":null,"infoStatusName":null,"dateDay":null,"orgNos":null,"nowTime":null,"countyName":null,"streetName":null,"villageName":null,"roadName":null,"communityName":null,"tranName":null,"sdLineName":null,"cityCode":"1340605","cityName":"国网徐水县供电公司","provinceCode":null,"stopTime":"2020-06-01 04:00:00","powerType":"全部","powerOffArea":"【全线路停电】停10kV516林庄线刘庄10号,10kV516林庄线刘庄供18号【纯农排变】,10kV516林庄线刘庄9号【纯农排变】,10kV516林庄线刘庄3号,10kV516林庄线刘庄5号【纯农排变】,10kV516林庄线刘庄6号【纯农排变】,10kV516林庄线林庄供33号【纯农排变】,10kV516林庄线林庄3号,10kV516林庄线林庄供32号【纯农排变】,10kV516林庄线林庄供59号,10kV516林庄线刘庄供69号,10kV516林庄线刘庄2号,10kV516林庄线刘庄1号【纯农排变】,10kV516林庄线林庄1号【纯农排变】,10kV516林庄线林庄4号,10kV516林庄线刘庄4号【纯农排变】,10kV516林庄线林庄2号【纯农排变】,10kV516林庄线刘庄7号","powerOffReason":"【停电原因】由于Ｂ相接地导致３５ＫＶ史端变电站林庄线５１６线路全线停电 【变更送电】因抢修进度加快原因，送电时间由０９:００变更为０４:００ 【发布渠道】通过９５５９８发布","powerOffId":"2020053113000264"},{"poweroffId":2020053113000258,"sgpoweroffId":null,"subsName":"","lineName":"10kV511高蓬线","pubTranName":"马村公用照明3台区,李家庄公用农业4台区【纯农排变】,马村公用照明4台区,孙家庄公用农业4台区【纯农排变】,小章村公用照明4台区,小章公用照明3台区,孙家庄公用农业1台区【纯农排变】,小章公用照明8台区,小章公用照明10台区,李辛庄公用农业14台区,王家庄公用照明6台区,李家庄公用农业2台区【纯农排变】,孙家庄公用农业5台区【纯农排变】,李家庄公用照明2台区1,小章公用照明7台区,王家庄公用照明8台区,王家庄公用照明3台区,王家庄公用照明5台区,孙家庄公用照明2台区,王家庄公用照明4台区,小章公用照明5台区,孙家庄公用照明3台区,孙家庄公用照明1台区,马村公用照明2台区,马村公用照明7台区,王家庄公用照明9台区,李家庄公用照明4台区,马村公用照明5台区,王家庄公用照明2台区,小章公用照明9台区,马村公用照明1台区,王家庄公用照明7台区,王家庄村公用照明1台区,李家庄公用照明1台区,马村公用照明6台区,马村公用照明8台区,小章村公用照明2台区,小章公用照明6台区,李家庄公用照明3台区,小章村公用照明1台区,","scope":"【影响街道/乡镇】高蓬镇【影响客户】马村、孙家庄、李家庄、小章、王家庄","startTime":"2020-05-31 21:06:08","stopDate":"2020-06-01 03:00:00","orgNo":"1340610","typeCode":"电网故障停限电","poweroffArea":"【全线路停电】停１１０ＫＶ李亲顾变电站１０ＫＶ５１１高蓬线路全线，马村沙内一号变压器,马村公用照明5台区,王家庄公用照明2台区,王家庄沙河内二号变压器,定州市高蓬镇小章村村委会变压器,马村沙内二号变压器,0665906352-定州市高蓬镇南王家庄村村民委员会-专变-202688333-定州市高蓬镇南王家庄村村民委员会变压器,留宿村南一号变压器,李家庄公用农业3台区,小章公用照明9台区,马村公用照明1台区,李家庄公用农业4台区,王家庄公用照明7台区,王家庄村公用照明1台区,留宿村南二号变压器,李家庄公用照明1台区,小章村南公路边,李家庄公用农业7台区,小章村公用照明2台区,小章公用照明6台区,李辛庄公用农业8台区,李家庄公用照明3台区,马村公用照明6台区,小章村面粉厂,马村公用照明8台区,马村南二号台,小章村公用照明1台区,王家庄公用照明9台区,李家庄公用农业2台区,定州市东盛金属制品有限公司变压器,李家庄公用照明4台区,0664225056-定州市高蓬镇位村村民委员会-专变-199252399-定州市高蓬镇村民委员会变压器,李家庄公用农业5台区,小章村南二号,李家庄公用农业1台区,0664247911-定州市高蓬镇马村村民委员会-专变-199238412-定州市高蓬镇马村村民委员会变压器,0664223249-定州市高蓬镇马村村民委员会-专变-199237797-定州市高蓬镇六家庄村村民委员会变压器,李家庄公用照明2台区1,马村南三号台,定州市晟坤金属制品有限公司变压器,孙家庄公用农业1台区,小章村南3号变压器,小章公用照明7台区,王家庄公用照明8台区,王家庄公用照明3台区,定州市高蓬镇南王家庄村民委员会变压器,王家庄公用照明5台区,孙家庄公用照明2台区,小章村沙河北东,马村南四号台,0664225984-定州市高蓬镇马村村民委员会-专变-199242517-定州市高蓬镇马村村民委员会变压器,李辛庄公用农业6台区,0664246309-定州市高蓬镇马村村民委员会-专变-199237686-定州市高蓬镇马村村民委员会变压器,小章公用照明5台区,孙家庄公用农业6台区,砖厂,孙家庄公用照明3台区,孙家庄公用农业3台区,孙家庄公用照明1台区,小章村沙河北西,马村公用照明2台区,李家庄公用农业6台区,马村公用照明7台区,龙泉奶牛养殖有限公司,王家庄公用照明4台区,马村公用照明3台区,0664214661-定州市高蓬镇小章村民委员会-专变-199238281-定州市高蓬镇小章村村民委员会变压器,丰华线材厂,孙家庄西南二,留宿公用农业4台区【纯农排变】,留宿公用农业5台区【纯农排变】,定州市中兴蜂业有限公司,李家庄公用农业4台区【纯农排变】,南王家庄公用农业8台区【纯农排变】,0664593984-定州市高蓬镇小章村村民委员会-专变-200982251-定州市高蓬镇小章村村民委员会变压器,南王家庄公用农业14台区【纯农排变】,马村公用照明4台区,南王家庄公用农业7台区【纯农排变】,留宿公用农业7台区【纯农排变】,南王家庄公用农业15台区【纯农排变】,南王家庄公用农业3台区【纯农排变】,南王家庄公用照明10台区,定州市高蓬镇卫生院南王家庄分院预防接种门诊变压器,孙家庄公用农业4台区【纯农排变】,南王家庄公用照明11台区,小章村公用照明4台区,李辛庄公用农业6台区【纯农排变】,小章公用照明3台区,南王家庄公用农业2台区【纯农排变】,李辛庄公用农业5台区【纯农排变】,南王家庄公用农业11台区【纯农排变】,南王家庄公用农业10台区【纯农排变】,南王家庄公用农业13台区【纯农排变】,定州市金燕商贸有限公司,孙家庄公用农业1台区【纯农排变】,小章村东南变压器,位村公用农业7台区【纯农排变】,南王家庄公用农","poweroffReason":"【停电原因】由于小章村南农业专变烧毁导致１１０ＫＶ李亲顾变电站１０ＫＶ５１１高蓬线路全线停电 【变更送电】因抢修进度加快原因，送电时间由１２：００变更为０３：００ 【发布渠道】９５５９８","powerTime":"2020-06-01 02:54:27","powerComm":"已送电","subsNo":"","lineNo":"","tgNo":"","tgName":null,"infoStatus":"1","orgName":"国网定州市供电公司","typeName":null,"infoStatusName":null,"dateDay":null,"orgNos":null,"nowTime":null,"countyName":null,"streetName":null,"villageName":null,"roadName":null,"communityName":null,"tranName":null,"sdLineName":null,"cityCode":"1340610","cityName":"国网定州市供电公司","provinceCode":null,"stopTime":"2020-06-01 03:00:00","powerType":"全部","powerOffArea":"【全线路停电】停１１０ＫＶ李亲顾变电站１０ＫＶ５１１高蓬线路全线，马村沙内一号变压器,马村公用照明5台区,王家庄公用照明2台区,王家庄沙河内二号变压器,定州市高蓬镇小章村村委会变压器,马村沙内二号变压器,0665906352-定州市高蓬镇南王家庄村村民委员会-专变-202688333-定州市高蓬镇南王家庄村村民委员会变压器,留宿村南一号变压器,李家庄公用农业3台区,小章公用照明9台区,马村公用照明1台区,李家庄公用农业4台区,王家庄公用照明7台区,王家庄村公用照明1台区,留宿村南二号变压器,李家庄公用照明1台区,小章村南公路边,李家庄公用农业7台区,小章村公用照明2台区,小章公用照明6台区,李辛庄公用农业8台区,李家庄公用照明3台区,马村公用照明6台区,小章村面粉厂,马村公用照明8台区,马村南二号台,小章村公用照明1台区,王家庄公用照明9台区,李家庄公用农业2台区,定州市东盛金属制品有限公司变压器,李家庄公用照明4台区,0664225056-定州市高蓬镇位村村民委员会-专变-199252399-定州市高蓬镇村民委员会变压器,李家庄公用农业5台区,小章村南二号,李家庄公用农业1台区,0664247911-定州市高蓬镇马村村民委员会-专变-199238412-定州市高蓬镇马村村民委员会变压器,0664223249-定州市高蓬镇马村村民委员会-专变-199237797-定州市高蓬镇六家庄村村民委员会变压器,李家庄公用照明2台区1,马村南三号台,定州市晟坤金属制品有限公司变压器,孙家庄公用农业1台区,小章村南3号变压器,小章公用照明7台区,王家庄公用照明8台区,王家庄公用照明3台区,定州市高蓬镇南王家庄村民委员会变压器,王家庄公用照明5台区,孙家庄公用照明2台区,小章村沙河北东,马村南四号台,0664225984-定州市高蓬镇马村村民委员会-专变-199242517-定州市高蓬镇马村村民委员会变压器,李辛庄公用农业6台区,0664246309-定州市高蓬镇马村村民委员会-专变-199237686-定州市高蓬镇马村村民委员会变压器,小章公用照明5台区,孙家庄公用农业6台区,砖厂,孙家庄公用照明3台区,孙家庄公用农业3台区,孙家庄公用照明1台区,小章村沙河北西,马村公用照明2台区,李家庄公用农业6台区,马村公用照明7台区,龙泉奶牛养殖有限公司,王家庄公用照明4台区,马村公用照明3台区,0664214661-定州市高蓬镇小章村民委员会-专变-199238281-定州市高蓬镇小章村村民委员会变压器,丰华线材厂,孙家庄西南二,留宿公用农业4台区【纯农排变】,留宿公用农业5台区【纯农排变】,定州市中兴蜂业有限公司,李家庄公用农业4台区【纯农排变】,南王家庄公用农业8台区【纯农排变】,0664593984-定州市高蓬镇小章村村民委员会-专变-200982251-定州市高蓬镇小章村村民委员会变压器,南王家庄公用农业14台区【纯农排变】,马村公用照明4台区,南王家庄公用农业7台区【纯农排变】,留宿公用农业7台区【纯农排变】,南王家庄公用农业15台区【纯农排变】,南王家庄公用农业3台区【纯农排变】,南王家庄公用照明10台区,定州市高蓬镇卫生院南王家庄分院预防接种门诊变压器,孙家庄公用农业4台区【纯农排变】,南王家庄公用照明11台区,小章村公用照明4台区,李辛庄公用农业6台区【纯农排变】,小章公用照明3台区,南王家庄公用农业2台区【纯农排变】,李辛庄公用农业5台区【纯农排变】,南王家庄公用农业11台区【纯农排变】,南王家庄公用农业10台区【纯农排变】,南王家庄公用农业13台区【纯农排变】,定州市金燕商贸有限公司,孙家庄公用农业1台区【纯农排变】,小章村东南变压器,位村公用农业7台区【纯农排变】,南王家庄公用农","powerOffReason":"【停电原因】由于小章村南农业专变烧毁导致１１０ＫＶ李亲顾变电站１０ＫＶ５１１高蓬线路全线停电 【变更送电】因抢修进度加快原因，送电时间由１２：００变更为０３：００ 【发布渠道】９５５９８","powerOffId":"2020053113000258"},{"poweroffId":2020053113000257,"sgpoweroffId":null,"subsName":"","lineName":"北北里线513","pubTranName":"10kV513北北里线北北里供54号,","scope":"【影响街道/乡镇】史端乡 【高危重要客户】无 【影响客户】北北里村、郑庄村、南北里村、北胡村、南胡村","startTime":"2020-05-31 22:21:23","stopDate":"2020-06-01 04:00:00","orgNo":"1340605","typeCode":"电网故障停限电","poweroffArea":"【全线路停电】停10kV513北北里线郑庄1号【纯农排变】,10kV513北北里线北北里6号【纯农排变】,河北海意机械制造有限公司,徐水县金路精密构件制造有限公司,10kV513北北里线北北里供80号【纯农排变】,徐水县联创塑粉制造有限公司,10kV513北北里线北北里3号【纯农排变】,徐水县科峰机械制造厂2号,北胡渠西砖厂2号,北胡渠西砖厂1号,10kV513北北里线南北里供44号【纯农排变】,10kV513北北里线南北里2号【纯农排变】,10kV513北北里线南北里供47号【纯农排变】,徐水县和顺建材有限公司,10kV513北北里线北北里9号【纯农排变】,10kV513北北里线南北里6号【纯农排变】,10kV513北北里线南北里供25号,10kV513北北里线南胡13号【纯农排变】,10kV513北北里线南北里供87号,10kV513北北里线北北里4号【纯农排变】,10kV513北北里线北北里7号,10kV513北北里线南北里8号,10kV513北北里线北北里11号,10kV513北北里线北北里供45号,10kV513北北里线北北里2号【纯农排变】,10kV513北北里线北北里8号【纯农排变】,10kV513北北里线北胡11号【纯农排变】,10kV513北北里线南北里10号【纯农排变】,10kV513北北里线南胡8号【纯农排变】,徐水县科峰机械制造厂3号,10kV513北北里线南北里3号【纯农排变】,10kV513北北里线北北里1号,10kV513北北里线北胡供74【纯农排变】,10kV513北北里线北北里供54号,10kV513北北里线北北里供64号,10kV513北北里线北北里供34号【纯农排变】,10kV513北北里线南北里1号【纯农排变】,10kV513北北里线北北里10号,10kV513北北里线南北里4号【纯农排变】,10kV513北北里线南北里供81号【纯农排变】,10kV513北北里线北胡1号,10kV513北北里线北北里5号【纯农排变】","poweroffReason":"【停电原因】由于Ｂ相接地导致３５ＫＶ史端变电站北北里线５１３线路全线停电 【变更送电】因抢修进度加快原因，送电时间由０９:００变更为０４:００ 【发布渠道】通过９５５９８发布","powerTime":"2020-06-01 03:04:03","powerComm":"已送电","subsNo":"","lineNo":"","tgNo":"","tgName":null,"infoStatus":"1","orgName":"国网徐水县供电公司","typeName":null,"infoStatusName":null,"dateDay":null,"orgNos":null,"nowTime":null,"countyName":null,"streetName":null,"villageName":null,"roadName":null,"communityName":null,"tranName":null,"sdLineName":null,"cityCode":"1340605","cityName":"国网徐水县供电公司","provinceCode":null,"stopTime":"2020-06-01 04:00:00","powerType":"全部","powerOffArea":"【全线路停电】停10kV513北北里线郑庄1号【纯农排变】,10kV513北北里线北北里6号【纯农排变】,河北海意机械制造有限公司,徐水县金路精密构件制造有限公司,10kV513北北里线北北里供80号【纯农排变】,徐水县联创塑粉制造有限公司,10kV513北北里线北北里3号【纯农排变】,徐水县科峰机械制造厂2号,北胡渠西砖厂2号,北胡渠西砖厂1号,10kV513北北里线南北里供44号【纯农排变】,10kV513北北里线南北里2号【纯农排变】,10kV513北北里线南北里供47号【纯农排变】,徐水县和顺建材有限公司,10kV513北北里线北北里9号【纯农排变】,10kV513北北里线南北里6号【纯农排变】,10kV513北北里线南北里供25号,10kV513北北里线南胡13号【纯农排变】,10kV513北北里线南北里供87号,10kV513北北里线北北里4号【纯农排变】,10kV513北北里线北北里7号,10kV513北北里线南北里8号,10kV513北北里线北北里11号,10kV513北北里线北北里供45号,10kV513北北里线北北里2号【纯农排变】,10kV513北北里线北北里8号【纯农排变】,10kV513北北里线北胡11号【纯农排变】,10kV513北北里线南北里10号【纯农排变】,10kV513北北里线南胡8号【纯农排变】,徐水县科峰机械制造厂3号,10kV513北北里线南北里3号【纯农排变】,10kV513北北里线北北里1号,10kV513北北里线北胡供74【纯农排变】,10kV513北北里线北北里供54号,10kV513北北里线北北里供64号,10kV513北北里线北北里供34号【纯农排变】,10kV513北北里线南北里1号【纯农排变】,10kV513北北里线北北里10号,10kV513北北里线南北里4号【纯农排变】,10kV513北北里线南北里供81号【纯农排变】,10kV513北北里线北胡1号,10kV513北北里线北北里5号【纯农排变】","powerOffReason":"【停电原因】由于Ｂ相接地导致３５ＫＶ史端变电站北北里线５１３线路全线停电 【变更送电】因抢修进度加快原因，送电时间由０９:００变更为０４:００ 【发布渠道】通过９５５９８发布","powerOffId":"2020053113000257"},{"poweroffId":2020053113000238,"sgpoweroffId":null,"subsName":"","lineName":"林庄线516","pubTranName":"10kV516林庄线刘庄供69号,","scope":"【影响街道/乡镇】史端乡 【高危重要客户】无 【影响客户】林庄、刘庄","startTime":"2020-05-31 19:12:45","stopDate":"2020-05-31 20:00:00","orgNo":"1340605","typeCode":"电网故障停限电","poweroffArea":"【全线路停电】停10kV516林庄线刘庄10号,10kV516林庄线刘庄供18号【纯农排变】,10kV516林庄线刘庄9号【纯农排变】,10kV516林庄线刘庄3号,10kV516林庄线刘庄5号【纯农排变】,10kV516林庄线刘庄6号【纯农排变】,10kV516林庄线林庄供33号【纯农排变】,10kV516林庄线林庄3号,10kV516林庄线林庄供32号【纯农排变】,10kV516林庄线林庄供59号,10kV516林庄线刘庄供69号,10kV516林庄线刘庄2号,10kV516林庄线刘庄1号【纯农排变】,10kV516林庄线林庄1号【纯农排变】,10kV516林庄线林庄4号,10kV516林庄线刘庄4号【纯农排变】,10kV516林庄线林庄2号【纯农排变】,10kV516林庄线刘庄7号","poweroffReason":"【停电原因】由于Ｂ相接地导致３５ＫＶ史端变电站林庄线５１６线路全线停电 【变更送电】因抢修进度加快原因，送电时间由２３:００变更为２０:００ 【发布渠道】通过９５５９８发布","powerTime":"2020-05-31 19:38:34","powerComm":"已送电","subsNo":"","lineNo":"","tgNo":"","tgName":null,"infoStatus":"1","orgName":"国网徐水县供电公司","typeName":null,"infoStatusName":null,"dateDay":null,"orgNos":null,"nowTime":null,"countyName":null,"streetName":null,"villageName":null,"roadName":null,"communityName":null,"tranName":null,"sdLineName":null,"cityCode":"1340605","cityName":"国网徐水县供电公司","provinceCode":null,"stopTime":"2020-05-31 20:00:00","powerType":"全部","powerOffArea":"【全线路停电】停10kV516林庄线刘庄10号,10kV516林庄线刘庄供18号【纯农排变】,10kV516林庄线刘庄9号【纯农排变】,10kV516林庄线刘庄3号,10kV516林庄线刘庄5号【纯农排变】,10kV516林庄线刘庄6号【纯农排变】,10kV516林庄线林庄供33号【纯农排变】,10kV516林庄线林庄3号,10kV516林庄线林庄供32号【纯农排变】,10kV516林庄线林庄供59号,10kV516林庄线刘庄供69号,10kV516林庄线刘庄2号,10kV516林庄线刘庄1号【纯农排变】,10kV516林庄线林庄1号【纯农排变】,10kV516林庄线林庄4号,10kV516林庄线刘庄4号【纯农排变】,10kV516林庄线林庄2号【纯农排变】,10kV516林庄线刘庄7号","powerOffReason":"【停电原因】由于Ｂ相接地导致３５ＫＶ史端变电站林庄线５１６线路全线停电 【变更送电】因抢修进度加快原因，送电时间由２３:００变更为２０:００ 【发布渠道】通过９５５９８发布","powerOffId":"2020053113000238"},{"poweroffId":2020053113000226,"sgpoweroffId":null,"subsName":"","lineName":"井尔峪线511","pubTranName":"井尔峪村4#,东大北头7台区变压器,神石庄村13#,北白涧8台区变压器,井尔峪2号变压器,柏木井村6台区机井变压器,柏木井村5号光伏变压器,柳林庄5台区,北白涧6台区,北东庄1台,神石庄村11#,柳林庄村3#【纯农排变】,西大北头6#区机井变压器,柏木井村8号光伏变压器,西大北头7#机井变压器,东大北头5#,神石庄村5#,柏木井村9号光伏变压器,柏木井村7号光伏变压器,井尔峪村6#,柏木井村3号光伏变压器,神石庄村4#,井尔峪1号变压器,易县万意达建筑装饰用石开采有限责任公司B250,王胜利养猪厂,易县得文矿产400,东大北头村3#,柳林庄村2#,东大北头村1#,西大北头4#,柏木井村10号光伏变压器,易县德文矿产品开发公司2,易县得文矿产品开发有限公司变压器2,易县鼎鑫矿产品开发有限公司变压器3,柏木井村3#【纯农排变】,井尔峪9台区（综合）变压器,西大北头村2#南,神石庄9#,柳林庄7台区变压器,柏木井村1#,井尔峪村1#,东大北头村2#,保定市张石高速公路筹建处,易县北白涧村延会运通砖厂变压器2,神石庄村委会5号,神石庄18#【纯农排变】,柏木井村6号光伏变压器,北白涧村4#村东变压器,东大北头村王学武变压器,北白涧村2#,易县宝山物资经销处,柳林庄村1#,神石庄17#【纯农排变】,东大北头村6#,西大北头村1#,易县得文矿产品开发有限公司变压器3,柏木井5台区,易县大鹏石料厂315,井尔峪5#,柏木井村2号光伏变压器,神石庄村12#,北白涧村5#,井尔峪村7#,北白涧3#,柏木井村2#|北,井尔峪3号变压器,柏木井村4号光伏变压器,西大北头村5#,","scope":"【影响街道/乡镇】西陵镇、高村乡【高危重要客户】无【影响客户】北白涧村、西大北头村、柳林庄村、东大北头村、神石庄村、井尔峪村","startTime":"2020-05-31 17:57:32","stopDate":"2020-05-31 19:30:00","orgNo":"1340625","typeCode":"电网故障停限电","poweroffArea":"【全线路停电】停井尔峪9台区（综合）变压器,井尔峪3号变压器,易县北白涧村延会运通砖厂变压器1,西大北头4#,柏木井村4号光伏变压器,易县建立鞋厂变压器,西大北头村5#,柏木井村10号光伏变压器,西大北头村2#南,神石庄9#,柳林庄7台区变压器,柏木井村1#,柏木井村5号光伏变压器,北白涧8台区变压器,柏木井村2号光伏变压器,柳林庄村4#,张晓杰,柏木井村7号光伏变压器,井尔峪村6#,柏木井村9号光伏变压器,神石庄村4#,井尔峪1号变压器,井尔峪村1#,0588882601-易县隆鑫膨润土矿-专变-125370179-易县隆鑫膨润土矿变压器,东大北头村2#,北白涧6台区,北东庄1台,易县万意达建筑装饰用石开采有限责任公司A800,易县鼎鑫矿产品开发有限公司变压器2,神石庄村11#,北白涧3#,柳林庄村3#【纯农排变】,西大北头6#区机井变压器,柏木井村8号光伏变压器,井尔峪村4#,东大北头7台区变压器,神石庄村13#,井尔峪2号变压器,易县德文矿产品开发公司1,柏木井村4#,柏木井村6台区机井变压器,柳林庄村2#,柏木井村2#|北,综|10030,易县鼎鑫矿产品开发有限公司变压器1,易县德文矿产品开发公司2,柏木井村3#【纯农排变】,柳林庄5台区,东大北头村3#,东大北头村1#,神石庄村3#,易县得文矿产品开发有限公司变压器1,北东庄村武国栋变压器,易县得文矿产品开发有限公司变压器2,北白涧村7台区机井变压器,王胜利养猪厂,北东庄村2#,北福地村(李贺军),仁忠山石球厂,易县井尔峪桂芹石料加工厂200,易县大鹏石料厂200,易县得文矿产400,柳林庄6#变压器,易县高村镇柏木井村民委员会200KVA,易县宝山物资经销处160KVA,神石庄15台区【纯农排变】,易县大鹏石料厂315,神石庄村6#,易县鼎鑫矿产品开发有限公司变压器3,北白涧村1#,易县万意达建筑装饰用石开采有限责任公司B250,井尔峪村7#,柏木井村1号光伏变压器,神石庄村委会5号,神石庄14台区,东大北头村4#【纯农排变】,保定市张石高速公路筹建处,井尔峪村8#,易县北白涧村延会运通砖厂变压器2,神石庄18#【纯农排变】,北白涧村4#村东变压器,柏木井村3号光伏变压器,柏木井村6号光伏变压器,井尔峪村2#,柳林庄村牛宝仓100KVA,东大北头村王学武变压器,北白涧村2#,西大北头村3#,易县宝山物资经销处,柳林庄村1#,神石庄17#【纯农排变】,东大北头村6#,西大北头村1#,西大北头8#机井变压器,神石庄村委会4号,易县得文矿产品开发有限公司变压器3,柏木井5台区,北白涧村5#,井尔峪5#,神石庄村12#,西大北头7#机井变压器,东大北头5#,神石庄村5#,井尔峪村3#,易县德文矿产品开发公司石料加工厂","poweroffReason":"【停电原因】由于鼎鑫矿业分支００３号杆断线导致１１０ＫＶ西陵变电站井尔峪５１１线路全线停电【变更送电】因抢修进度加快原因，送电时间由２３：００变更为１９：３０【发布渠道】通过９５５９８发布","powerTime":"2020-05-31 19:20:56","powerComm":"已送电","subsNo":"","lineNo":"","tgNo":"","tgName":null,"infoStatus":"1","orgName":"国网易县供电公司","typeName":null,"infoStatusName":null,"dateDay":null,"orgNos":null,"nowTime":null,"countyName":null,"streetName":null,"villageName":null,"roadName":null,"communityName":null,"tranName":null,"sdLineName":null,"cityCode":"1340625","cityName":"国网易县供电公司","provinceCode":null,"stopTime":"2020-05-31 19:30:00","powerType":"全部","powerOffArea":"【全线路停电】停井尔峪9台区（综合）变压器,井尔峪3号变压器,易县北白涧村延会运通砖厂变压器1,西大北头4#,柏木井村4号光伏变压器,易县建立鞋厂变压器,西大北头村5#,柏木井村10号光伏变压器,西大北头村2#南,神石庄9#,柳林庄7台区变压器,柏木井村1#,柏木井村5号光伏变压器,北白涧8台区变压器,柏木井村2号光伏变压器,柳林庄村4#,张晓杰,柏木井村7号光伏变压器,井尔峪村6#,柏木井村9号光伏变压器,神石庄村4#,井尔峪1号变压器,井尔峪村1#,0588882601-易县隆鑫膨润土矿-专变-125370179-易县隆鑫膨润土矿变压器,东大北头村2#,北白涧6台区,北东庄1台,易县万意达建筑装饰用石开采有限责任公司A800,易县鼎鑫矿产品开发有限公司变压器2,神石庄村11#,北白涧3#,柳林庄村3#【纯农排变】,西大北头6#区机井变压器,柏木井村8号光伏变压器,井尔峪村4#,东大北头7台区变压器,神石庄村13#,井尔峪2号变压器,易县德文矿产品开发公司1,柏木井村4#,柏木井村6台区机井变压器,柳林庄村2#,柏木井村2#|北,综|10030,易县鼎鑫矿产品开发有限公司变压器1,易县德文矿产品开发公司2,柏木井村3#【纯农排变】,柳林庄5台区,东大北头村3#,东大北头村1#,神石庄村3#,易县得文矿产品开发有限公司变压器1,北东庄村武国栋变压器,易县得文矿产品开发有限公司变压器2,北白涧村7台区机井变压器,王胜利养猪厂,北东庄村2#,北福地村(李贺军),仁忠山石球厂,易县井尔峪桂芹石料加工厂200,易县大鹏石料厂200,易县得文矿产400,柳林庄6#变压器,易县高村镇柏木井村民委员会200KVA,易县宝山物资经销处160KVA,神石庄15台区【纯农排变】,易县大鹏石料厂315,神石庄村6#,易县鼎鑫矿产品开发有限公司变压器3,北白涧村1#,易县万意达建筑装饰用石开采有限责任公司B250,井尔峪村7#,柏木井村1号光伏变压器,神石庄村委会5号,神石庄14台区,东大北头村4#【纯农排变】,保定市张石高速公路筹建处,井尔峪村8#,易县北白涧村延会运通砖厂变压器2,神石庄18#【纯农排变】,北白涧村4#村东变压器,柏木井村3号光伏变压器,柏木井村6号光伏变压器,井尔峪村2#,柳林庄村牛宝仓100KVA,东大北头村王学武变压器,北白涧村2#,西大北头村3#,易县宝山物资经销处,柳林庄村1#,神石庄17#【纯农排变】,东大北头村6#,西大北头村1#,西大北头8#机井变压器,神石庄村委会4号,易县得文矿产品开发有限公司变压器3,柏木井5台区,北白涧村5#,井尔峪5#,神石庄村12#,西大北头7#机井变压器,东大北头5#,神石庄村5#,井尔峪村3#,易县德文矿产品开发公司石料加工厂","powerOffReason":"【停电原因】由于鼎鑫矿业分支００３号杆断线导致１１０ＫＶ西陵变电站井尔峪５１１线路全线停电【变更送电】因抢修进度加快原因，送电时间由２３：００变更为１９：３０【发布渠道】通过９５５９８发布","powerOffId":"2020053113000226"},{"poweroffId":2020053113000216,"sgpoweroffId":null,"subsName":"","lineName":"10KV范阳南路520","pubTranName":"国贸小区(新)柱上变压器,水利局小区（新）,冠云路520公用（新）,十八局三处仁和小区A箱02配电变压器,十八局三处新星小区02#配电变压器,十八局三处仁和小区A箱01配电变压器,十八局三处仁和小区B箱02配电变压器,十八局三处仁和小区B箱01配电变压器,双塔范阳33路（新）,十八局三处新星小区01#配电变压器,涿州市环境卫生管理站车队,老交通局家属院（新）,","scope":"【影响街道/乡镇】双塔城区范阳路、冠云路 【影响客户】市医院、国贸小区、市政府、老交通局小区、粮食局小区、水利局小区、华冠超市、购物中心、金街商城、十八局一处、十八局三处、物探局外招、中国联通、汇金广场、十八局幸福小区、北京供电段铁路小区、新星小区、香港豪庭、网通公司、汇金超市、仁和小区","startTime":"2020-05-31 17:11:00","stopDate":"2020-05-31 18:30:00","orgNo":"1340626","typeCode":"电网故障停限电","poweroffArea":"【全线路停电】停１１０ＫＶ涿县变电站１０ＫＶ范阳南路５２０线路全线，0550743046-中铁十八局集团第三工程有限公司-专变-49038763-中铁十八局集团第三工程有限公司,十八局三处仁和小区A箱02配电变压器,十八局三处新星小区02#配电变压器,涿州市京热热力有限责任公司,十八局三处仁和小区A箱01配电变压器,涿州金邦房地产开发有限公司-变压器3,十八局三处仁和小区B箱02配电变压器,0387561327-中国石油集团东方地球物理勘探有限责任公司-专变-45357700-东方外宾宾馆524,涿州市华冠超市有限公司东,十八局三处仁和小区B箱01配电变压器,涿州市华冠超市有限公司西,0740195846_涿州市汇金广场商贸有限公司,十八局三处机关,涿州市金街物业服务有限公司,涿州金邦房地产开发有限公司-变压器1,涿州市华冠超市有限公司,涿州市市政设施管理站十八局墙外,0387560207-市政二环路路灯-专变-45357550-路灯1,路灯2,0387560597-汇金广场-专变-45357552-汇金广场,双塔范阳33路（新）,十八局三处新星小区01#配电变压器,涿州市环境卫生管理站车队,0714011907-涿州市润嘉建安房地产开发有限公司3,购物中心-变压器2,购物中心-变压器1,涿州市医院5519变台2,老交通局家属院（新）,0387560571-涿州市医院-专变-45357612-涿州市医院,0578258546-中铁十八局集团第三工程有限公司-专变-124277222-中铁十八局集团第三工程有限公司新星小区,十八局一处,010003321|金街商城1,鹏渤房地产开发有限公司,冠云路520公用（新）,国贸小区(新)柱上变压器,0387561327-中国石油集团东方地球物理勘探有限责任公司-专变-45357562-中国石油集团东方地球物理勘探有限责任公司,0387559939-涿州市金街物业服务有限公司-专变-94410838-涿州市金街物业服务有限公司,水利局小区（新）,涿州金邦房地产开发有限公司-变压器2","poweroffReason":"【停电原因】由于电缆磁头烧毁导致１１０ＫＶ涿县变电站１０ＫＶ范阳南路５２０线路全线停电 【变更送电】因抢修进度加快原因，送电时间由２３：３０变更为１８：３０ 【发布渠道】通过９５５９８发布","powerTime":"2020-05-31 18:04:12","powerComm":"恢复送电","subsNo":"","lineNo":"","tgNo":"","tgName":null,"infoStatus":"1","orgName":"国网涿州市供电公司","typeName":null,"infoStatusName":null,"dateDay":null,"orgNos":null,"nowTime":null,"countyName":null,"streetName":null,"villageName":null,"roadName":null,"communityName":null,"tranName":null,"sdLineName":null,"cityCode":"1340626","cityName":"国网涿州市供电公司","provinceCode":null,"stopTime":"2020-05-31 18:30:00","powerType":"全部","powerOffArea":"【全线路停电】停１１０ＫＶ涿县变电站１０ＫＶ范阳南路５２０线路全线，0550743046-中铁十八局集团第三工程有限公司-专变-49038763-中铁十八局集团第三工程有限公司,十八局三处仁和小区A箱02配电变压器,十八局三处新星小区02#配电变压器,涿州市京热热力有限责任公司,十八局三处仁和小区A箱01配电变压器,涿州金邦房地产开发有限公司-变压器3,十八局三处仁和小区B箱02配电变压器,0387561327-中国石油集团东方地球物理勘探有限责任公司-专变-45357700-东方外宾宾馆524,涿州市华冠超市有限公司东,十八局三处仁和小区B箱01配电变压器,涿州市华冠超市有限公司西,0740195846_涿州市汇金广场商贸有限公司,十八局三处机关,涿州市金街物业服务有限公司,涿州金邦房地产开发有限公司-变压器1,涿州市华冠超市有限公司,涿州市市政设施管理站十八局墙外,0387560207-市政二环路路灯-专变-45357550-路灯1,路灯2,0387560597-汇金广场-专变-45357552-汇金广场,双塔范阳33路（新）,十八局三处新星小区01#配电变压器,涿州市环境卫生管理站车队,0714011907-涿州市润嘉建安房地产开发有限公司3,购物中心-变压器2,购物中心-变压器1,涿州市医院5519变台2,老交通局家属院（新）,0387560571-涿州市医院-专变-45357612-涿州市医院,0578258546-中铁十八局集团第三工程有限公司-专变-124277222-中铁十八局集团第三工程有限公司新星小区,十八局一处,010003321|金街商城1,鹏渤房地产开发有限公司,冠云路520公用（新）,国贸小区(新)柱上变压器,0387561327-中国石油集团东方地球物理勘探有限责任公司-专变-45357562-中国石油集团东方地球物理勘探有限责任公司,0387559939-涿州市金街物业服务有限公司-专变-94410838-涿州市金街物业服务有限公司,水利局小区（新）,涿州金邦房地产开发有限公司-变压器2","powerOffReason":"【停电原因】由于电缆磁头烧毁导致１１０ＫＶ涿县变电站１０ＫＶ范阳南路５２０线路全线停电 【变更送电】因抢修进度加快原因，送电时间由２３：３０变更为１８：３０ 【发布渠道】通过９５５９８发布","powerOffId":"2020053113000216"},{"poweroffId":2020053113000199,"sgpoweroffId":null,"subsName":"","lineName":"望双线518","pubTranName":"900027704003河北钢山房地产开发集团有限公司（名都一品C区),河北宏屹房地产开发有限公司望都第二分公司,葛家村南2号农【纯农排变】,望都县高岭乡卫生院,葛家村南混合,李家村南混,900027877808河北宏屹房地产开发有限公司望都第二分公司,葛家村新上北混,小李家村南混1号配变,马家村内混,李家村南边2号混,马家村新区,900027702576河北钢山房地产开发集团有限公司（名都一品C区）,900027877946河北宏屹房地产开发有限公司望都第二分公司,河北宏屹房地产开发有限公司望都第二分公司01,高岭卫生院配变,900027734374望都县清源污水处理有限公司2,","scope":"【影响街道/乡镇】高岭乡、望都镇 【高危重要客户】无 【影响客户】葛家村、李家村、马家村、河北宏屹房地产开发有限公司望都第二分公司、河北钢山房地产开发集团有限公司（名都一品Ｃ区）、望都县高岭乡卫生院","startTime":"2020-05-31 16:00:00","stopDate":"2020-05-31 18:40:00","orgNo":"1340623","typeCode":"电网故障停限电","poweroffArea":"【全线路停电】停１１０ＫＶ望都变电站望双线５１８线路全线李家村南混,900027877808河北宏屹房地产开发有限公司望都第二分公司,葛家村新上北混,小李家村南混1号配变,马家村内混,李家村南边2号混,马家村新区,900027702576河北钢山房地产开发集团有限公司（名都一品C区）,900027877946河北宏屹房地产开发有限公司望都第二分公司,河北宏屹房地产开发有限公司望都第二分公司01,葛家村南混合,900027704003河北钢山房地产开发集团有限公司（名都一品C区),河北宏屹房地产开发有限公司望都第二分公司,葛家村南2号农【纯农排变】,望都县高岭乡卫生院,高岭卫生院配变,900027734374望都县清源污水处理有限公司2","poweroffReason":"【停电原因】由于Ｃ相弓子线断导致１１０ＫＶ望都变电站望双线５１８线路全线停电 【变更送电】因抢修进度加快原因，送电时间由０６月０１日１１：３０变更为０５月３１日１８：４０ 【发布渠道】通过９５５９８发布","powerTime":"2020-05-31 18:20:11","powerComm":"已送电","subsNo":"","lineNo":"","tgNo":"","tgName":null,"infoStatus":"1","orgName":"国网望都县供电公司","typeName":null,"infoStatusName":null,"dateDay":null,"orgNos":null,"nowTime":null,"countyName":null,"streetName":null,"villageName":null,"roadName":null,"communityName":null,"tranName":null,"sdLineName":null,"cityCode":"1340623","cityName":"国网望都县供电公司","provinceCode":null,"stopTime":"2020-05-31 18:40:00","powerType":"全部","powerOffArea":"【全线路停电】停１１０ＫＶ望都变电站望双线５１８线路全线李家村南混,900027877808河北宏屹房地产开发有限公司望都第二分公司,葛家村新上北混,小李家村南混1号配变,马家村内混,李家村南边2号混,马家村新区,900027702576河北钢山房地产开发集团有限公司（名都一品C区）,900027877946河北宏屹房地产开发有限公司望都第二分公司,河北宏屹房地产开发有限公司望都第二分公司01,葛家村南混合,900027704003河北钢山房地产开发集团有限公司（名都一品C区),河北宏屹房地产开发有限公司望都第二分公司,葛家村南2号农【纯农排变】,望都县高岭乡卫生院,高岭卫生院配变,900027734374望都县清源污水处理有限公司2","powerOffReason":"【停电原因】由于Ｃ相弓子线断导致１１０ＫＶ望都变电站望双线５１８线路全线停电 【变更送电】因抢修进度加快原因，送电时间由０６月０１日１１：３０变更为０５月３１日１８：４０ 【发布渠道】通过９５５９８发布","powerOffId":"2020053113000199"},{"poweroffId":2020053113000176,"sgpoweroffId":null,"subsName":"","lineName":"正村专线518","pubTranName":"正村4号【纯农排变】,正村19号,","scope":"【影响街道/乡镇】正村乡 【高危重要客户】无 【影响客户】正村、王辛庄","startTime":"2020-05-31 14:11:22","stopDate":"2020-05-31 16:30:00","orgNo":"1340605","typeCode":"电网故障停限电","poweroffArea":"【全线路停电】停正村19号,正村7号,正村15号【纯农排变】,正村23号,正村5号【纯农排变】,正村6号【纯农排变】,正村28号【纯农排变】,正村34号,正村18号【纯农排变】,正村16号【纯农排变】,正村供电所1号,正村3号,正村29号【纯农排变】,正村27号【纯农排变】,王辛庄5号,正村14号【纯农排变】,正村24号【纯农排变】,正村30号【纯农排变】,正村1号,正村8号,正村4号【纯农排变】,正村33号,正村20号,正村9号【纯农排变】,正村供电所2号,正村13号【纯农排变】","poweroffReason":"【停电原因】由于Ｂ相接地导致３５ＫＶ王庄变电站正村专线５１８线路全线停电 【变更送电】因抢修进度加快原因，送电时间由２３:００变更为１６:３０ 【发布渠道】通过９５５９８发布","powerTime":"2020-05-31 15:56:11","powerComm":"已送电","subsNo":"","lineNo":"","tgNo":"","tgName":null,"infoStatus":"1","orgName":"国网徐水县供电公司","typeName":null,"infoStatusName":null,"dateDay":null,"orgNos":null,"nowTime":null,"countyName":null,"streetName":null,"villageName":null,"roadName":null,"communityName":null,"tranName":null,"sdLineName":null,"cityCode":"1340605","cityName":"国网徐水县供电公司","provinceCode":null,"stopTime":"2020-05-31 16:30:00","powerType":"全部","powerOffArea":"【全线路停电】停正村19号,正村7号,正村15号【纯农排变】,正村23号,正村5号【纯农排变】,正村6号【纯农排变】,正村28号【纯农排变】,正村34号,正村18号【纯农排变】,正村16号【纯农排变】,正村供电所1号,正村3号,正村29号【纯农排变】,正村27号【纯农排变】,王辛庄5号,正村14号【纯农排变】,正村24号【纯农排变】,正村30号【纯农排变】,正村1号,正村8号,正村4号【纯农排变】,正村33号,正村20号,正村9号【纯农排变】,正村供电所2号,正村13号【纯农排变】","powerOffReason":"【停电原因】由于Ｂ相接地导致３５ＫＶ王庄变电站正村专线５１８线路全线停电 【变更送电】因抢修进度加快原因，送电时间由２３:００变更为１６:３０ 【发布渠道】通过９５５９８发布","powerOffId":"2020053113000176"}],"pageModel":{"pageNow":30,"totalCount":10973,"totalPage":1098,"tableRows":0,"pageCount":10,"beginCount":290},"isExperi":"1"}