{"message":"","today":"2020-06-15","seleList":[{"poweroffId":2019101913000175,"sgpoweroffId":null,"subsName":"","lineName":"周庄线524","pubTranName":"东任町西北混,东任町村混,大辛庄北混,付庄西混,东任町内西混,西任疃村北,西任町外西混合,西任疃西南混,大辛庄东南混配变,西任町大队混合,东任疃内东,小辛庄西北3号,付庄村内北混合,东任町村内混,东任町内北混,大辛庄内东混,小辛庄村西混合,小辛庄村东混合,西任疃东北混,东任疃南混2号配变,大辛庄内西混合2号,西任町村西混合,西任町村内混合,大辛庄内西混,付庄村内东2号配变,大辛庄南混,西任疃西北混配变,小辛庄内东2号,付庄村内东混合,","scope":"【影响街道/乡镇】赵庄乡、寺庄乡 【高危重要客户】无　　 【影响客户】东任町、西任町、小辛庄、付庄村、大辛庄","startTime":"2019-10-31 06:00:00","stopDate":"2019-10-31 18:00:00","orgNo":"1340623","typeCode":"计划停电","poweroffArea":"【分支停电】停大辛庄内东混,小辛庄村西混合,小辛庄村东混合,西任疃东北混,东任疃南混2号配变,大辛庄内西混合2号,西任町村西混合,西任町村内混合,大辛庄内西混,付庄村内东2号配变,大辛庄南混,西任疃西北混配变,小辛庄内东2号,付庄村内东混合,小辛庄西北3号,付庄村内北混合,东任町村内混,东任町内北混,东任町西北混,东任町村混,大辛庄北混,付庄西混,东任町内西混,西任疃村北,西任町外西混合,西任疃西南混,大辛庄东南混配变,西任町大队混合,东任疃内东","poweroffReason":"【停电原因】由于更换弓子线，加装支瓶护套导致１１０ＫＶ八里庄变电站周庄线５２４线路５２４２号开关以下线路停电 【变更送电】无 【发布渠道】保定市望都有线电视台（１０月２０日至１０月３０日１９时００分至２０时００分之间）屏幕上方滚动","powerTime":"2019-10-31 17:30:45","powerComm":"已送电","subsNo":"","lineNo":"","tgNo":"","tgName":null,"infoStatus":"1","orgName":"国网望都县供电公司","typeName":null,"infoStatusName":null,"dateDay":null,"orgNos":null,"nowTime":null,"countyName":null,"streetName":null,"villageName":null,"roadName":null,"communityName":null,"tranName":null,"sdLineName":null,"cityCode":"1340623","cityName":"国网望都县供电公司","provinceCode":null,"stopTime":"2019-10-31 18:00:00","powerType":"全部","powerOffArea":"【分支停电】停大辛庄内东混,小辛庄村西混合,小辛庄村东混合,西任疃东北混,东任疃南混2号配变,大辛庄内西混合2号,西任町村西混合,西任町村内混合,大辛庄内西混,付庄村内东2号配变,大辛庄南混,西任疃西北混配变,小辛庄内东2号,付庄村内东混合,小辛庄西北3号,付庄村内北混合,东任町村内混,东任町内北混,东任町西北混,东任町村混,大辛庄北混,付庄西混,东任町内西混,西任疃村北,西任町外西混合,西任疃西南混,大辛庄东南混配变,西任町大队混合,东任疃内东","powerOffReason":"【停电原因】由于更换弓子线，加装支瓶护套导致１１０ＫＶ八里庄变电站周庄线５２４线路５２４２号开关以下线路停电 【变更送电】无 【发布渠道】保定市望都有线电视台（１０月２０日至１０月３０日１９时００分至２０时００分之间）屏幕上方滚动","powerOffId":"2019101913000175"},{"poweroffId":2019101913000157,"sgpoweroffId":null,"subsName":"","lineName":"10kV东文山517","pubTranName":"东长堤村西台区变压器,","scope":"【影响街道/乡镇】东文山乡 【高危重要客户】无 【影响客户】东长堤村","startTime":"2019-10-19 16:09:45","stopDate":"2019-10-19 18:30:00","orgNo":"1340614","typeCode":"电网故障停限电","poweroffArea":"【单台区停电】停东长堤村西台区变压器","poweroffReason":"【停电原因】由于ＪＰ柜空开烧毁导致１１０ＫＶ涞水变电站１０ＫＶ东文山５１７线路东长提村西公变台区停电 【变更送电】无 【发布渠道】通过９５５９８发布","powerTime":"2019-10-19 17:31:42","powerComm":"已送电","subsNo":"","lineNo":"","tgNo":"","tgName":null,"infoStatus":"1","orgName":"国网涞水县供电公司","typeName":null,"infoStatusName":null,"dateDay":null,"orgNos":null,"nowTime":null,"countyName":null,"streetName":null,"villageName":null,"roadName":null,"communityName":null,"tranName":null,"sdLineName":null,"cityCode":"1340614","cityName":"国网涞水县供电公司","provinceCode":null,"stopTime":"2019-10-19 18:30:00","powerType":"全部","powerOffArea":"【单台区停电】停东长堤村西台区变压器","powerOffReason":"【停电原因】由于ＪＰ柜空开烧毁导致１１０ＫＶ涞水变电站１０ＫＶ东文山５１７线路东长提村西公变台区停电 【变更送电】无 【发布渠道】通过９５５９８发布","powerOffId":"2019101913000157"},{"poweroffId":2019101913000139,"sgpoweroffId":null,"subsName":"","lineName":"10KV南款512","pubTranName":"安妥岭下片变压器,南款大树台变压器,板道台变压器,杨树沟2台区变压器,金水口变压器,金水口光伏4号,安子沟变压器,安子沟2台区变压器,金水口光伏2号,金水口大北峪变压器,安妥岭三台区,安妥岭东沟变压器,西河山井变压器,东河山变压器,金水口光伏6号,金水口光伏3号,安妥岭上片,金水口2台区变压器,安子沟三台区,青崖片变压器,东河山（村东）变压器,金水口光伏1号,印花台变压器,杨树沟变压器,金水口幼儿园台区【冬季供暖设施】,南款牛场西,东河山大南沟变压器,安子沟2台区,金水口光伏5号,南款西岭沟变压器,其中口窝落变压器,金水口光伏7号,黄花滩变压器,西河山变压器,东河山井变压器,东河山2台区变压器,","scope":"【影响街道/乡镇】其中口乡 【高危重要客户】无 【影响客户】安子沟村、南款村、金水口村、安妥岭村、其中口窝落村、东河山村","startTime":"2019-10-19 15:30:28","stopDate":"2019-10-19 18:00:00","orgNo":"1340614","typeCode":"电网故障停限电","poweroffArea":"【全线路停电】停杨树沟2台区变压器,金水口变压器,金水口光伏4号,安子沟变压器,安子沟2台区变压器,金水口光伏2号,金水口大北峪变压器,美亚金铁选厂250,安妥岭三台区,安妥岭东沟变压器,西河山井变压器,东河山变压器,金华隆公司,金华隆公司4,金华隆公司3,金华隆公司1,金水口光伏6号,金水口光伏3号,安妥岭上片,金水口2台区变压器,安子沟三台区,东河山大南沟变压器,金华隆公司2,安子沟2台区,金水口光伏5号,南款变压器,金水口大北峪2台区变压器,南款西岭沟变压器,其中口窝落变压器,金水口光伏7号,黄花滩变压器,西河山变压器,东河山井变压器,东河山村,东河山2台区变压器,中桥,安妥岭下片变压器,风帆公司50KVA专变,南款大树台变压器,板道台变压器,1美亚金铁选厂160,青崖片变压器,东河山（村东）变压器,养路工区（安子沟）50KVA专变,安妥岭2台区,美亚金铁选厂160,金水口光伏1号,涞水县星河建材厂新增变压器,印花台变压器,杨树沟变压器,金水口幼儿园台区【冬季供暖设施】,涞水县养路工区50KVA专变,南款牛场西,城乡建设投资有限公司100KVA专变","poweroffReason":"【停电原因】由于过流跳闸导致３５ＫＶ其中口变电站１０ＫＶ南款５１２线路全线停电 【变更送电】因抢修进度加快原因，送电时间由２１：００变更为１８：００ 【发布渠道】通过９５５９８发布","powerTime":"2019-10-19 17:36:46","powerComm":"已送电","subsNo":"","lineNo":"","tgNo":"","tgName":null,"infoStatus":"1","orgName":"国网涞水县供电公司","typeName":null,"infoStatusName":null,"dateDay":null,"orgNos":null,"nowTime":null,"countyName":null,"streetName":null,"villageName":null,"roadName":null,"communityName":null,"tranName":null,"sdLineName":null,"cityCode":"1340614","cityName":"国网涞水县供电公司","provinceCode":null,"stopTime":"2019-10-19 18:00:00","powerType":"全部","powerOffArea":"【全线路停电】停杨树沟2台区变压器,金水口变压器,金水口光伏4号,安子沟变压器,安子沟2台区变压器,金水口光伏2号,金水口大北峪变压器,美亚金铁选厂250,安妥岭三台区,安妥岭东沟变压器,西河山井变压器,东河山变压器,金华隆公司,金华隆公司4,金华隆公司3,金华隆公司1,金水口光伏6号,金水口光伏3号,安妥岭上片,金水口2台区变压器,安子沟三台区,东河山大南沟变压器,金华隆公司2,安子沟2台区,金水口光伏5号,南款变压器,金水口大北峪2台区变压器,南款西岭沟变压器,其中口窝落变压器,金水口光伏7号,黄花滩变压器,西河山变压器,东河山井变压器,东河山村,东河山2台区变压器,中桥,安妥岭下片变压器,风帆公司50KVA专变,南款大树台变压器,板道台变压器,1美亚金铁选厂160,青崖片变压器,东河山（村东）变压器,养路工区（安子沟）50KVA专变,安妥岭2台区,美亚金铁选厂160,金水口光伏1号,涞水县星河建材厂新增变压器,印花台变压器,杨树沟变压器,金水口幼儿园台区【冬季供暖设施】,涞水县养路工区50KVA专变,南款牛场西,城乡建设投资有限公司100KVA专变","powerOffReason":"【停电原因】由于过流跳闸导致３５ＫＶ其中口变电站１０ＫＶ南款５１２线路全线停电 【变更送电】因抢修进度加快原因，送电时间由２１：００变更为１８：００ 【发布渠道】通过９５５９８发布","powerOffId":"2019101913000139"},{"poweroffId":2019101913000137,"sgpoweroffId":null,"subsName":"","lineName":"10kV522未佐线","pubTranName":"魏佐综合12台区,魏佐综合16台区,魏佐综合8台区,魏佐综合14台区,魏佐综合5台区,魏佐综合10台区,魏佐综合13台区,魏佐综合11台区,魏佐综合7台区,魏佐综合9台区,魏佐综合3台区,魏佐综合15台区,魏佐综合4台区,魏佐综合6台区,魏佐综合1台区,魏佐综合2台区,","scope":"【影响街道/乡镇】百尺镇【高危重要客户】无【影响客户】魏佐村","startTime":"2019-10-19 16:40:00","stopDate":"2019-10-19 19:00:00","orgNo":"1340616","typeCode":"其他临时停电","poweroffArea":"【全线路停电】停魏佐综合5台区,蠡县荣邦绒毛制品有限公司,魏佐综合11台区,魏佐综合6台区,未佐砖厂,蠡县永昌农垦有限公司,县砖厂高计,棉种厂高计,魏佐综合8台区,魏佐综合3台区,魏佐农排5台区【纯农排变】,魏佐农排4台区【纯农排变】,五洲精细化工厂,魏佐综合1台区,蠡县魏家佐超达绒毛合线厂变压器,蠡县百丰农产品开发有限公司变压器,魏佐综合10台区,魏佐综合7台区,河北百丰农产品开发有限公司变压器,蠡县雅居佳苑变压器,鸿润羊绒厂,魏佐综合4台区,革兴毛皮制品厂,魏佐综合9台区,魏佐农排2台区【纯农排变】,魏佐综合16台区,魏佐农排1台区【纯农排变】,圣绒羊绒有限公司,魏佐综合12台区,魏佐综合14台区,魏佐综合15台区,魏佐综合13台区,崔军房,魏佐农排7台区【纯农排变】,蠡县魏家佐农场小区变压器,蠡县润邦绒毛制品制造厂变压器,魏佐农排3台区【纯农排变】,魏佐综合2台区,魏佐农排6台区【纯农排变】,县农场,彦普绒厂,北沙口菜园,蠡县奥尔捷陶瓷纤维有限公司变压器","poweroffReason":"【停电原因】由于站内保护装置缺陷，需停电进行紧急消缺导致１１０ＫＶ留史变电站１０ＫＶ未佐５２２线路全线停电【变更送电】因工作进度加快原因，送电时间由２０：００变更为１９：００【发布渠道】通过９５５９８发布","powerTime":"2019-10-19 18:16:19","powerComm":"已送电","subsNo":"","lineNo":"","tgNo":"","tgName":null,"infoStatus":"1","orgName":"国网蠡县供电公司","typeName":null,"infoStatusName":null,"dateDay":null,"orgNos":null,"nowTime":null,"countyName":null,"streetName":null,"villageName":null,"roadName":null,"communityName":null,"tranName":null,"sdLineName":null,"cityCode":"1340616","cityName":"国网蠡县供电公司","provinceCode":null,"stopTime":"2019-10-19 19:00:00","powerType":"全部","powerOffArea":"【全线路停电】停魏佐综合5台区,蠡县荣邦绒毛制品有限公司,魏佐综合11台区,魏佐综合6台区,未佐砖厂,蠡县永昌农垦有限公司,县砖厂高计,棉种厂高计,魏佐综合8台区,魏佐综合3台区,魏佐农排5台区【纯农排变】,魏佐农排4台区【纯农排变】,五洲精细化工厂,魏佐综合1台区,蠡县魏家佐超达绒毛合线厂变压器,蠡县百丰农产品开发有限公司变压器,魏佐综合10台区,魏佐综合7台区,河北百丰农产品开发有限公司变压器,蠡县雅居佳苑变压器,鸿润羊绒厂,魏佐综合4台区,革兴毛皮制品厂,魏佐综合9台区,魏佐农排2台区【纯农排变】,魏佐综合16台区,魏佐农排1台区【纯农排变】,圣绒羊绒有限公司,魏佐综合12台区,魏佐综合14台区,魏佐综合15台区,魏佐综合13台区,崔军房,魏佐农排7台区【纯农排变】,蠡县魏家佐农场小区变压器,蠡县润邦绒毛制品制造厂变压器,魏佐农排3台区【纯农排变】,魏佐综合2台区,魏佐农排6台区【纯农排变】,县农场,彦普绒厂,北沙口菜园,蠡县奥尔捷陶瓷纤维有限公司变压器","powerOffReason":"【停电原因】由于站内保护装置缺陷，需停电进行紧急消缺导致１１０ＫＶ留史变电站１０ＫＶ未佐５２２线路全线停电【变更送电】因工作进度加快原因，送电时间由２０：００变更为１９：００【发布渠道】通过９５５９８发布","powerOffId":"2019101913000137"},{"poweroffId":2019101913000092,"sgpoweroffId":null,"subsName":"","lineName":"南大牛线565","pubTranName":"小牛光6,北大牛光10变压器,北大牛村光6变压器,北大牛村光3变压器,北大牛光12变压器,小牛光2,新南大牛光6,小牛排10【纯农排变】,小牛光,小牛光3,北大牛村光5变压器,小牛光7,小牛光4,北大牛光8变压器,新南大牛光3,南大牛光1,南大牛光4,南大牛光7【灾后重建】,小牛光9变压器,小牛光1,南大牛光5【2018年四批补强】,北大牛村光9变压器,北大牛光11变压器,北大牛村光2变压器,北大牛村光4变压器,南大牛光2,北大牛光7变压器,北大牛光13变压器,南大牛排5 【纯农排变】,北大牛村光1变压器,小牛光5,小牛光8,","scope":"【影响街道/乡镇】贤寓镇 【高危重要客户】无 【影响客户】百楼、南大牛、小牛、北大牛、鼎辉食品、西幸部分用户、保定金拓、南章部分用户、沽酒部分用户、捷瑞建材、南大牛乡政府、广大建材、卓越养鸡场、东方面粉厂、李春凤彩印厂、小牛昌宁面粉厂、常乐富部分用户、福荣彩印、福明印刷厂、西落堡部分用户、宏盛锻造有限公司、双利养殖场、大牛小学、小牛村小学、南大牛粮站、保定金拓机房设备有限公司、国启食品加工厂","startTime":"2019-10-19 12:28:12","stopDate":"2019-10-19 16:00:00","orgNo":"1340609","typeCode":"电网故障停限电","poweroffArea":"【全线路停电】停小牛光,小牛光3,小牛排9【纯农排变】,250,南大牛排8【纯农排变】,南大牛光4,南大牛排4【纯农排变】,小牛排3【纯农排变】,南大牛光7【灾后重建】,小牛光9变压器,小牛光1,南大牛光5【2018年四批补强】,北大牛村光9变压器,北大牛光11变压器,北大牛村光2变压器,北大牛村光4变压器,大牛小学-500,小牛排8【纯农排变】,南大牛排1【纯农排变】,北大牛排8【纯农排变】,小牛光6,北大牛排9【纯农排变】,小牛排1【纯农排变】,北大牛排14【纯农排变】,保定金拓100,北大牛光10变压器,北大牛村光6变压器,北大牛村光3变压器,北大牛光12变压器,小牛昌鸣面粉厂,南章村排6【纯农排变】,0694656532-定兴县贤寓镇小牛村小学-专变-239110650-小牛村小学,北大牛排15【纯农排变】,南大牛排7【纯农排变】,南大牛排6【纯农排变】,北大牛排13【纯农排变】,小牛光2,常乐富排2【纯农排变】,南大牛排10【纯农排变】,新南大牛光6,南大牛排2【纯农排变】,南大牛粮站-250,小牛排10【纯农排变】,南大牛排5【纯农排变】,北大牛村光5变压器,沽酒排6【纯农排变】,小牛排7【纯农排变】,0694656949-定兴县贤寓镇大牛中心幼儿园-专变-239110611-大牛中心幼儿园,小牛光7,小牛光4,百楼排15【纯农排变】,北大牛光7变压器,小牛排5【纯农排变】,北大牛光13变压器,北大牛排12【纯农排变】,南大牛排5 【纯农排变】,北大牛村排10【纯农排变】,北大牛排17【纯农排变】,北大牛村光1变压器,南大牛排9【纯农排变】,南大牛排3【纯农排变】,小牛光5,西落堡排2【纯农排变】,小牛光8,北大牛排16【纯农排变】,*保定金拓机房设备有限公司,国启食品加工厂-250,小牛排6【纯农排变】,北大牛光8变压器,新南大牛光3,双利养殖厂,南大牛粮站-50,北大牛排11【纯农排变】,南大牛光1,小牛排2【纯农排变】,小牛排4【纯农排变】,南大牛光2,西幸排1【纯农排变】","poweroffReason":"【停电原因】由于金拓机房分支１号杆避雷器烧毁导致１１０ＫＶ贤寓变电站南大牛线５６５线路全线停电 【变更送电】因抢修进度加快原因，送电时间由１８：００变更为１６：００ 【发布渠道】通过９５５９８发布","powerTime":"2019-10-19 15:26:55","powerComm":"已送电","subsNo":"","lineNo":"","tgNo":"","tgName":null,"infoStatus":"1","orgName":"国网定兴县供电公司","typeName":null,"infoStatusName":null,"dateDay":null,"orgNos":null,"nowTime":null,"countyName":null,"streetName":null,"villageName":null,"roadName":null,"communityName":null,"tranName":null,"sdLineName":null,"cityCode":"1340609","cityName":"国网定兴县供电公司","provinceCode":null,"stopTime":"2019-10-19 16:00:00","powerType":"全部","powerOffArea":"【全线路停电】停小牛光,小牛光3,小牛排9【纯农排变】,250,南大牛排8【纯农排变】,南大牛光4,南大牛排4【纯农排变】,小牛排3【纯农排变】,南大牛光7【灾后重建】,小牛光9变压器,小牛光1,南大牛光5【2018年四批补强】,北大牛村光9变压器,北大牛光11变压器,北大牛村光2变压器,北大牛村光4变压器,大牛小学-500,小牛排8【纯农排变】,南大牛排1【纯农排变】,北大牛排8【纯农排变】,小牛光6,北大牛排9【纯农排变】,小牛排1【纯农排变】,北大牛排14【纯农排变】,保定金拓100,北大牛光10变压器,北大牛村光6变压器,北大牛村光3变压器,北大牛光12变压器,小牛昌鸣面粉厂,南章村排6【纯农排变】,0694656532-定兴县贤寓镇小牛村小学-专变-239110650-小牛村小学,北大牛排15【纯农排变】,南大牛排7【纯农排变】,南大牛排6【纯农排变】,北大牛排13【纯农排变】,小牛光2,常乐富排2【纯农排变】,南大牛排10【纯农排变】,新南大牛光6,南大牛排2【纯农排变】,南大牛粮站-250,小牛排10【纯农排变】,南大牛排5【纯农排变】,北大牛村光5变压器,沽酒排6【纯农排变】,小牛排7【纯农排变】,0694656949-定兴县贤寓镇大牛中心幼儿园-专变-239110611-大牛中心幼儿园,小牛光7,小牛光4,百楼排15【纯农排变】,北大牛光7变压器,小牛排5【纯农排变】,北大牛光13变压器,北大牛排12【纯农排变】,南大牛排5 【纯农排变】,北大牛村排10【纯农排变】,北大牛排17【纯农排变】,北大牛村光1变压器,南大牛排9【纯农排变】,南大牛排3【纯农排变】,小牛光5,西落堡排2【纯农排变】,小牛光8,北大牛排16【纯农排变】,*保定金拓机房设备有限公司,国启食品加工厂-250,小牛排6【纯农排变】,北大牛光8变压器,新南大牛光3,双利养殖厂,南大牛粮站-50,北大牛排11【纯农排变】,南大牛光1,小牛排2【纯农排变】,小牛排4【纯农排变】,南大牛光2,西幸排1【纯农排变】","powerOffReason":"【停电原因】由于金拓机房分支１号杆避雷器烧毁导致１１０ＫＶ贤寓变电站南大牛线５６５线路全线停电 【变更送电】因抢修进度加快原因，送电时间由１８：００变更为１６：００ 【发布渠道】通过９５５９８发布","powerOffId":"2019101913000092"},{"poweroffId":2019101913000050,"sgpoweroffId":null,"subsName":"","lineName":"10kV549工业区西线","pubTranName":"西尧城1号1234,南尧城新增1号综合8363,南常丰8260,南常丰370综合|20000370,西尧城12160|20010260,西尧城学校混用8950|20008950,北常丰3520|20003520,南常丰570|20000570,西尧城8830|20008830,南常丰380|20000380,512南常丰村南新增综合4338,魏爱军混用8230|20008230,南常丰620|20000620,路灯变压器3号8379,南常丰8670|20008670,北常丰新10310|20010310,西尧城2号2345,公路养护综合3440#|20003440,南常丰8510|20008510,西尧城新增综合7227,512南常丰村北新增综合4340,南尧城20010340,西尧城0280|20000280,南常丰8680|20008680,南常丰8690|20008690,西尧城8940|20008940,北常丰新增综合1389,北常丰新增1号7870,南尧城西630|20000630,","scope":"【影响街道/乡镇】蒲阳镇【高危重要客户】无【影响客户】南尧城、西尧城、北尧城、南常丰、北常丰、南环公路养护中心","startTime":"2019-10-19 08:58:48","stopDate":"2019-10-19 16:00:00","orgNo":"1340621","typeCode":"电网故障停限电","poweroffArea":"【分支停电】停南常丰8510|20008510,南常丰村南新增农业2号5915【纯农排变】,中国移动河北公司顺平分公司,南常丰村南农业东7924【纯农排变】,南尧城270#农排|20000270【纯农排变】,北常丰新增农业6号（TD）2383【纯农排变】,北常丰新增农业7号（TD）1452【纯农排变】,西尧城新增综合7227,512南常丰村北新增综合4340,南尧城新增农业5565【纯农排变】,北常丰新增农业8号（TD）2387【纯农排变】,北常丰3530#农排|20003530【纯农排变】,南尧城村北农排【纯农排变】,北尧城340#农业|20000340【纯农排变】,南常丰8210#农业|20008210【纯农排变】,西尧城0280|20000280,西尧城670#农业|20000670【纯农排变】,北常丰新增农业1号（TD）1435【纯农排变】,南常丰8680|20008680,南常丰8690|20008690,西尧城8940|20008940,北常丰新增综合1389,北常丰新增1号7870,西尧城8480#农业|20008480【纯农排变】,东尧城240#农排|20000240【纯农排变】,北常丰新增农业2号（TD）1437【纯农排变】,南尧城1号农排【纯农排变】,南常丰8180#农业|20008180【纯农排变】,西尧城290#农业|20000290【纯农排变】,0469126176-保定申成路桥有限责任公司高速公路养护中心-专变-46723613-保定市保阜高速公路筹建处,南尧城西630|20000630,东尧城9640#农排|20009640【纯农排变】,西尧城1号1234,南常丰410#农业|20000410【纯农排变】,南尧城20010340,北尧城360#农业|20000360【纯农排变】,南常丰420#农业|20000420【纯农排变】,南常丰牛厂8250#农排|20008250【纯农排变】,东尧城9620#农排|20009620【纯农排变】,北常丰地板革厂,北尧城8530#农业|20008530【纯农排变】,南尧城新增1号综合8363,四红鸡厂8060#农排|20008060【纯农排变】,南常丰8260,西尧城300#农业|20000300【纯农排变】,北尧城8490#农业|20008490【纯农排变】,南常丰370综合|20000370,南常丰400#农业|20000400【纯农排变】,北常丰8770#农排|20008770【纯农排变】,南常丰390#农业|20000390【纯农排变】,西尧城12160|20010260,西尧城学校混用8950|20008950,北常丰3520|20003520,北常丰新增农业3号（TD）1439【纯农排变】,南常丰570|20000570,顺平县华康肠衣厂,西尧城8830|20008830,南常丰380|20000380,512南常丰村南新增综合4338,北尧城650#农排|20000650【纯农排变】,构件厂,魏爱军混用8230|20008230,北常丰奶牛厂7880#农排|20007880【纯农排变】,南常丰620|20000620,路灯变压器3号8379,北尧城350#农业|20000350【纯农排变】,北常丰新增农业4号（TD）1441【纯农排变】,南常丰8670|20008670,北常丰新10310|20010310,东尧城3460#农排|20003460【纯农排变】,西尧城2号2345,西尧城4800#农业|20004800【纯农排变】,南尧城260#农排|20000260【纯农排变】,北常丰新增农业5号（TD）1444【纯农排变】,公路养护综合3440#|20003440","poweroffReason":"【停电原因】由于大车撞断电杆导致２２０ＫＶ吴家庄变电站１０ＫＶ５４９工业区西线路５０号杆断路器以下线路停电【变更送电】因抢修进度加快原因，送电时间由１８：００变更为１６：００【发布渠道】通过９５５９８发布","powerTime":"2019-10-19 15:20:29","powerComm":"已送电","subsNo":"","lineNo":"","tgNo":"","tgName":null,"infoStatus":"1","orgName":"国网顺平县电力局","typeName":null,"infoStatusName":null,"dateDay":null,"orgNos":null,"nowTime":null,"countyName":null,"streetName":null,"villageName":null,"roadName":null,"communityName":null,"tranName":null,"sdLineName":null,"cityCode":"1340621","cityName":"国网顺平县电力局","provinceCode":null,"stopTime":"2019-10-19 16:00:00","powerType":"全部","powerOffArea":"【分支停电】停南常丰8510|20008510,南常丰村南新增农业2号5915【纯农排变】,中国移动河北公司顺平分公司,南常丰村南农业东7924【纯农排变】,南尧城270#农排|20000270【纯农排变】,北常丰新增农业6号（TD）2383【纯农排变】,北常丰新增农业7号（TD）1452【纯农排变】,西尧城新增综合7227,512南常丰村北新增综合4340,南尧城新增农业5565【纯农排变】,北常丰新增农业8号（TD）2387【纯农排变】,北常丰3530#农排|20003530【纯农排变】,南尧城村北农排【纯农排变】,北尧城340#农业|20000340【纯农排变】,南常丰8210#农业|20008210【纯农排变】,西尧城0280|20000280,西尧城670#农业|20000670【纯农排变】,北常丰新增农业1号（TD）1435【纯农排变】,南常丰8680|20008680,南常丰8690|20008690,西尧城8940|20008940,北常丰新增综合1389,北常丰新增1号7870,西尧城8480#农业|20008480【纯农排变】,东尧城240#农排|20000240【纯农排变】,北常丰新增农业2号（TD）1437【纯农排变】,南尧城1号农排【纯农排变】,南常丰8180#农业|20008180【纯农排变】,西尧城290#农业|20000290【纯农排变】,0469126176-保定申成路桥有限责任公司高速公路养护中心-专变-46723613-保定市保阜高速公路筹建处,南尧城西630|20000630,东尧城9640#农排|20009640【纯农排变】,西尧城1号1234,南常丰410#农业|20000410【纯农排变】,南尧城20010340,北尧城360#农业|20000360【纯农排变】,南常丰420#农业|20000420【纯农排变】,南常丰牛厂8250#农排|20008250【纯农排变】,东尧城9620#农排|20009620【纯农排变】,北常丰地板革厂,北尧城8530#农业|20008530【纯农排变】,南尧城新增1号综合8363,四红鸡厂8060#农排|20008060【纯农排变】,南常丰8260,西尧城300#农业|20000300【纯农排变】,北尧城8490#农业|20008490【纯农排变】,南常丰370综合|20000370,南常丰400#农业|20000400【纯农排变】,北常丰8770#农排|20008770【纯农排变】,南常丰390#农业|20000390【纯农排变】,西尧城12160|20010260,西尧城学校混用8950|20008950,北常丰3520|20003520,北常丰新增农业3号（TD）1439【纯农排变】,南常丰570|20000570,顺平县华康肠衣厂,西尧城8830|20008830,南常丰380|20000380,512南常丰村南新增综合4338,北尧城650#农排|20000650【纯农排变】,构件厂,魏爱军混用8230|20008230,北常丰奶牛厂7880#农排|20007880【纯农排变】,南常丰620|20000620,路灯变压器3号8379,北尧城350#农业|20000350【纯农排变】,北常丰新增农业4号（TD）1441【纯农排变】,南常丰8670|20008670,北常丰新10310|20010310,东尧城3460#农排|20003460【纯农排变】,西尧城2号2345,西尧城4800#农业|20004800【纯农排变】,南尧城260#农排|20000260【纯农排变】,北常丰新增农业5号（TD）1444【纯农排变】,公路养护综合3440#|20003440","powerOffReason":"【停电原因】由于大车撞断电杆导致２２０ＫＶ吴家庄变电站１０ＫＶ５４９工业区西线路５０号杆断路器以下线路停电【变更送电】因抢修进度加快原因，送电时间由１８：００变更为１６：００【发布渠道】通过９５５９８发布","powerOffId":"2019101913000050"},{"poweroffId":2019101913000037,"sgpoweroffId":null,"subsName":"","lineName":"10KV褚村572","pubTranName":"北相0967,","scope":"【影响街道/乡镇】豆庄乡 【高危重要客户】无 【影响客户】北相村","startTime":"2019-10-29 07:30:00","stopDate":"2019-10-29 18:00:00","orgNo":"1340626","typeCode":"计划停电","poweroffArea":"【单台区停电】停北相0967","poweroffReason":"【停电原因】由于架设导线工程导致２２０ＫＶ豆庄变电站１０ＫＶ褚村５７２线路北相０９６７公变台区停电 【变更送电】无 【发布渠道】涿州电视台（１０月１９日至１０月２８日２１：００播放２次）屏幕上方滚动","powerTime":"2019-10-29 17:41:17","powerComm":"已送电","subsNo":"","lineNo":"","tgNo":"","tgName":null,"infoStatus":"1","orgName":"国网涿州市供电公司","typeName":null,"infoStatusName":null,"dateDay":null,"orgNos":null,"nowTime":null,"countyName":null,"streetName":null,"villageName":null,"roadName":null,"communityName":null,"tranName":null,"sdLineName":null,"cityCode":"1340626","cityName":"国网涿州市供电公司","provinceCode":null,"stopTime":"2019-10-29 18:00:00","powerType":"全部","powerOffArea":"【单台区停电】停北相0967","powerOffReason":"【停电原因】由于架设导线工程导致２２０ＫＶ豆庄变电站１０ＫＶ褚村５７２线路北相０９６７公变台区停电 【变更送电】无 【发布渠道】涿州电视台（１０月１９日至１０月２８日２１：００播放２次）屏幕上方滚动","powerOffId":"2019101913000037"},{"poweroffId":2019101913000024,"sgpoweroffId":null,"subsName":"","lineName":"西王庄线521","pubTranName":"西王庄村南综合,西王庄村东综合23,安庄村西新增综合,安庄10综合,西演村东东南综合,安庄村东北新增综合,西演村东新增综合,安庄学校村北综合,西演新79综合,西演村南46综合,连庄村南综合,姜齐庄村北新增综合,安庄村东综合73,西演官坑综合,西王庄村西新增综合台区,西王庄西南农业【纯农排变】,西王庄村南综合65,连庄村北综合80,西演南3综合,连庄书记综合,西王庄村东新增综合台区,安庄村东南新增综合,连庄大队综合,安庄村北新增综合,西王庄村北综合72,连庄村北新增综合82,连庄村西综合81,西王庄村西综合24,连庄村北新增1号综合,连庄村西北新增综合,","scope":"【影响街道/乡镇】西演镇、庞口镇 【高危重要客户】无 【影响客户】安庄村、连庄村、西王庄村、姜齐庄村北","startTime":"2019-11-01 07:00:00","stopDate":"2019-11-01 13:00:00","orgNo":"1340613","typeCode":"计划停电","poweroffArea":"【分支停电】停高阳县东兴机械厂变压器,河北省大广高速公路京衡段筹建处变压器,安庄59#农业【纯农排变】,高阳县雄鹰扣板厂变压器,西演村东东南综合,安庄村东北新增综合,安庄学校村北综合,高阳县众德蔬菜农民专业合作社变压器,安庄9#农业【纯农排变】,孙永跃50,西王庄西大方11#农业【纯农排变】,河北省大广高速公路京衡段筹建处变压器01,王爱民,西王庄村南综合,安庄60#农业【纯农排变】,王保亮,西演村南46综合,高阳县宏柱冲压件厂变压器,高阳县汇通机械厂变压器03,中国移动通信集团河北有限公司高阳分公司,西王庄孙永跃,西王庄眼镜厂,高阳县中燃能源发展有限公司变压器,连庄村南综合,姜齐庄村北新增综合,王振农场,安庄农业生态开发,安庄村西(李石香),刘伟4号,西演官坑综合,75#西演农业2#【纯农排变】,西王庄毛纺厂,连庄农排新增1号【纯农排变】,西王庄村西新增综合台区,北柳庄,刘志海,西王庄西南农业【纯农排变】,王庄钢厂(子),高阳县兴达液压件厂变压器,高阳县虓志燃气销售有限公司变压器,尤五面厂,边渡口包地,西王庄村南综合65,连庄村北综合80,安庄6#农业【纯农排变】,安庄村东综合73,连庄28#农业【纯农排变】,王立明变压器,西演南3综合,连庄57#农业【纯农排变】,王仙,王震浇地01,西王庄村西12#农业【纯农排变】,姜齐庄42#农业【纯农排变】,安庄8#农业【纯农排变】,高阳县亚飞农用汽车销售有限公司台区,安庄村东南新增综合,连庄大队综合,西演供电所250KVA,高阳县庞口镇西王庄村变压器,高阳县汇通机械厂变压器,高阳县桥东粮油加工厂变压器,安庄村北新增综合,西演村南(牛世民),西演供电所,78#西演农业3#【纯农排变】,连庄村北新增综合82,西演高压1#农业85【纯农排变】,连庄冲床,连庄32#农业【纯农排变】,连庄村北新增1号综合,王震浇地,高阳县华谊内燃机配件经销处变压器,西王庄村北34#农业【纯农排变】,西王庄农业77#【纯农排变】,连庄村西北新增综合,高阳县汇通机械厂变压器01,高阳县汇通机械厂变压器02,西王庄孙永和,西王庄村东22#农业【纯农排变】,西演村东新增综合,西王庄东南21#农业【纯农排变】,西王庄北大方农排【纯农排变】,连庄书记综合,西王庄村东新增综合台区,连庄58#农业【纯农排变】,石文利,广汇纺织印染公司,西王庄村北综合72,高阳县广汇纺织印染有限公司变压器01,连庄村西综合81,西王庄村西综合24,西王庄农业76#【纯农排变】,高阳县广汇纺织印染有限公司变压器1,连庄农排新增2号【纯农排变】,西演新79综合,西王庄村东综合23,安庄村西新增综合,安庄10综合,食用菌种殖厂","poweroffReason":"【停电原因】由于秋季检修导致１１０ＫＶ西演变电站西王庄５２１线路主线３２号杆３２号开关以下停电【变更送电】因抢修进度加快原因，送电时间由１４：００变更为１３：００【发布渠道】高阳县电视台（１０月２０日１９时至２１时之间）屏幕下方滚动播出","powerTime":"2019-11-01 12:49:52","powerComm":"已送电","subsNo":"","lineNo":"","tgNo":"","tgName":null,"infoStatus":"1","orgName":"国网高阳县供电公司","typeName":null,"infoStatusName":null,"dateDay":null,"orgNos":null,"nowTime":null,"countyName":null,"streetName":null,"villageName":null,"roadName":null,"communityName":null,"tranName":null,"sdLineName":null,"cityCode":"1340613","cityName":"国网高阳县供电公司","provinceCode":null,"stopTime":"2019-11-01 13:00:00","powerType":"全部","powerOffArea":"【分支停电】停高阳县东兴机械厂变压器,河北省大广高速公路京衡段筹建处变压器,安庄59#农业【纯农排变】,高阳县雄鹰扣板厂变压器,西演村东东南综合,安庄村东北新增综合,安庄学校村北综合,高阳县众德蔬菜农民专业合作社变压器,安庄9#农业【纯农排变】,孙永跃50,西王庄西大方11#农业【纯农排变】,河北省大广高速公路京衡段筹建处变压器01,王爱民,西王庄村南综合,安庄60#农业【纯农排变】,王保亮,西演村南46综合,高阳县宏柱冲压件厂变压器,高阳县汇通机械厂变压器03,中国移动通信集团河北有限公司高阳分公司,西王庄孙永跃,西王庄眼镜厂,高阳县中燃能源发展有限公司变压器,连庄村南综合,姜齐庄村北新增综合,王振农场,安庄农业生态开发,安庄村西(李石香),刘伟4号,西演官坑综合,75#西演农业2#【纯农排变】,西王庄毛纺厂,连庄农排新增1号【纯农排变】,西王庄村西新增综合台区,北柳庄,刘志海,西王庄西南农业【纯农排变】,王庄钢厂(子),高阳县兴达液压件厂变压器,高阳县虓志燃气销售有限公司变压器,尤五面厂,边渡口包地,西王庄村南综合65,连庄村北综合80,安庄6#农业【纯农排变】,安庄村东综合73,连庄28#农业【纯农排变】,王立明变压器,西演南3综合,连庄57#农业【纯农排变】,王仙,王震浇地01,西王庄村西12#农业【纯农排变】,姜齐庄42#农业【纯农排变】,安庄8#农业【纯农排变】,高阳县亚飞农用汽车销售有限公司台区,安庄村东南新增综合,连庄大队综合,西演供电所250KVA,高阳县庞口镇西王庄村变压器,高阳县汇通机械厂变压器,高阳县桥东粮油加工厂变压器,安庄村北新增综合,西演村南(牛世民),西演供电所,78#西演农业3#【纯农排变】,连庄村北新增综合82,西演高压1#农业85【纯农排变】,连庄冲床,连庄32#农业【纯农排变】,连庄村北新增1号综合,王震浇地,高阳县华谊内燃机配件经销处变压器,西王庄村北34#农业【纯农排变】,西王庄农业77#【纯农排变】,连庄村西北新增综合,高阳县汇通机械厂变压器01,高阳县汇通机械厂变压器02,西王庄孙永和,西王庄村东22#农业【纯农排变】,西演村东新增综合,西王庄东南21#农业【纯农排变】,西王庄北大方农排【纯农排变】,连庄书记综合,西王庄村东新增综合台区,连庄58#农业【纯农排变】,石文利,广汇纺织印染公司,西王庄村北综合72,高阳县广汇纺织印染有限公司变压器01,连庄村西综合81,西王庄村西综合24,西王庄农业76#【纯农排变】,高阳县广汇纺织印染有限公司变压器1,连庄农排新增2号【纯农排变】,西演新79综合,西王庄村东综合23,安庄村西新增综合,安庄10综合,食用菌种殖厂","powerOffReason":"【停电原因】由于秋季检修导致１１０ＫＶ西演变电站西王庄５２１线路主线３２号杆３２号开关以下停电【变更送电】因抢修进度加快原因，送电时间由１４：００变更为１３：００【发布渠道】高阳县电视台（１０月２０日１９时至２１时之间）屏幕下方滚动播出","powerOffId":"2019101913000024"},{"poweroffId":2019101913000023,"sgpoweroffId":null,"subsName":"","lineName":"菜园537","pubTranName":"菜园村8#三队西,菜园村3#,西山北村6#,长峪村9#南井,北娄山村5#,南娄山村1#,长峪村8#【纯农排变】,沙岭村4#村中,长峪8队西变,于家庄村3#村北,西山北村3#,西山北村1#,长峪村5#,长峪村3#,长峪6队井变压器【纯农排变】,西步乐10#村南,北娄山村7#村中,长峪村1#,长峪村4#,于家庄村6#村北,沙岭村3#,西山北村2#,团山村1#,于家庄村2#,菜园村4#【纯农排变】,于家庄村1#,南娄山村8#村西,西山北村5#,长峪村10#,长峪村6#|8队,","scope":"【影响街道/乡镇】西山北乡 【高危重要客户】无 【影响客户】西山北村、西步乐村、东步乐村、团山村、于家庄村、南娄山村、长峪村、菜园村、沙岭村、北娄山村、西娄山村","startTime":"2019-10-19 08:58:32","stopDate":"2019-10-19 10:00:00","orgNo":"1340625","typeCode":"电网故障停限电","poweroffArea":"【全线路停电】停西山北村2#,长峪村6#|8队,南娄山村10#【纯农排变】,河北青山种禽有限公司高压器,长峪8队西变,易县宏发钙粉厂(许建民),长峪8队北井【纯农排变】,易县通亿石材厂(郭连成),长峪村7#【纯农排变】,易县邮政局山北邮政支局,学峰养鸡厂,长峪村5#,易县永兴石材加工厂315KVA,西山北村6#,沙岭村3#,于家庄村1#,菜园村新井7#【纯农排变】,西山北乡人民政府变压器,于家庄村3#村北,长峪村1#,菜园村3#,于家庄村巩宝田西岗变压器,北娄山村7#村中,菜园村4#【纯农排变】,长峪6队井变压器【纯农排变】,于家庄村4#【纯农排变】,长峪村3#,磊鑫石材厂2#变,西步乐10#村南,长峪村10#,河北建设集团有限公司-长峪630KVA,北娄山林场,鹏程石板厂(隰连国),沙岭村4#村中,菜园村杨宁变压器,龙树石材厂,西步乐村8#新井【纯农排变】,菜园杨树岭,西山北村3#,易县西山北春山石材加工厂变压器,长峪村4#,西山北中心小学变压器,于家庄村6#村北,港里村卢忠凯变压器,0674599321-西山北村敬洪利-专变-215869052-西山北村敬洪利250KVA,敬玉河石板厂(丰磊),团山村1#,长峪村8#【纯农排变】,敬玉河石板厂2#,信诚石材厂(隰富山),0681103885-易县讴文农业开发有限责任公司-专变-219717662-易县讴文农业开发有限责任公司100KVA,菜园1队北井【纯农排变】,易县永幸石材厂,黄忠石材加工厂(80KVA),长峪村9#南井,西山北兄弟石板厂,合利石板厂(李连合),中国移动通信集团河北有限公司易县分公司安装变压器,顺达造纸厂,西山北宇达石材厂(王福详),五一面粉厂(南井),易县青山种禽有限公司变压器,北娄山村8#村北【纯农排变】,西步乐村9#【纯农排变】,敬玉河石板厂3#,西山北村10#【纯农排变】,五一面粉厂(50),西山北村郭成群变压器,易县西山北乡人民政府变压器,0677996301-南娄山村牛宝同-专变-219383403-南娄山村牛宝同50KVA,于家庄村2#,西山北石板厂(郭士彪),于家庄南石材厂,易县扶贫福利配件厂(赵海山),程宏石材长(李春喜),南娄山村1#,丰磊石板厂100(敬玉河),郭伟忠石板厂,于家庄村巩宝田北岗变压器,北娄山村5#,菜园村8#三队西,黄忠石材加工厂(50KVA),黄虎石板厂,南娄山村8#村西,保定泽疆旅游开发有限公司变压器,西山北村5#,西山北村1#,沙岭村2#【纯农排变】,南娄山村3#【纯农排变】,南娄山村7#【纯农排变】","poweroffReason":"【停电原因】由于电缆被车刮断导致３５ＫＶ步乐变电站菜园５３７线路全线停电【变更送电】因抢修进度加快原因，送电时间由１２：００变更为１０：００【发布渠道】通过９５５９８发布","powerTime":"2019-10-19 09:36:44","powerComm":"已送电","subsNo":"","lineNo":"","tgNo":"","tgName":null,"infoStatus":"1","orgName":"国网易县供电公司","typeName":null,"infoStatusName":null,"dateDay":null,"orgNos":null,"nowTime":null,"countyName":null,"streetName":null,"villageName":null,"roadName":null,"communityName":null,"tranName":null,"sdLineName":null,"cityCode":"1340625","cityName":"国网易县供电公司","provinceCode":null,"stopTime":"2019-10-19 10:00:00","powerType":"全部","powerOffArea":"【全线路停电】停西山北村2#,长峪村6#|8队,南娄山村10#【纯农排变】,河北青山种禽有限公司高压器,长峪8队西变,易县宏发钙粉厂(许建民),长峪8队北井【纯农排变】,易县通亿石材厂(郭连成),长峪村7#【纯农排变】,易县邮政局山北邮政支局,学峰养鸡厂,长峪村5#,易县永兴石材加工厂315KVA,西山北村6#,沙岭村3#,于家庄村1#,菜园村新井7#【纯农排变】,西山北乡人民政府变压器,于家庄村3#村北,长峪村1#,菜园村3#,于家庄村巩宝田西岗变压器,北娄山村7#村中,菜园村4#【纯农排变】,长峪6队井变压器【纯农排变】,于家庄村4#【纯农排变】,长峪村3#,磊鑫石材厂2#变,西步乐10#村南,长峪村10#,河北建设集团有限公司-长峪630KVA,北娄山林场,鹏程石板厂(隰连国),沙岭村4#村中,菜园村杨宁变压器,龙树石材厂,西步乐村8#新井【纯农排变】,菜园杨树岭,西山北村3#,易县西山北春山石材加工厂变压器,长峪村4#,西山北中心小学变压器,于家庄村6#村北,港里村卢忠凯变压器,0674599321-西山北村敬洪利-专变-215869052-西山北村敬洪利250KVA,敬玉河石板厂(丰磊),团山村1#,长峪村8#【纯农排变】,敬玉河石板厂2#,信诚石材厂(隰富山),0681103885-易县讴文农业开发有限责任公司-专变-219717662-易县讴文农业开发有限责任公司100KVA,菜园1队北井【纯农排变】,易县永幸石材厂,黄忠石材加工厂(80KVA),长峪村9#南井,西山北兄弟石板厂,合利石板厂(李连合),中国移动通信集团河北有限公司易县分公司安装变压器,顺达造纸厂,西山北宇达石材厂(王福详),五一面粉厂(南井),易县青山种禽有限公司变压器,北娄山村8#村北【纯农排变】,西步乐村9#【纯农排变】,敬玉河石板厂3#,西山北村10#【纯农排变】,五一面粉厂(50),西山北村郭成群变压器,易县西山北乡人民政府变压器,0677996301-南娄山村牛宝同-专变-219383403-南娄山村牛宝同50KVA,于家庄村2#,西山北石板厂(郭士彪),于家庄南石材厂,易县扶贫福利配件厂(赵海山),程宏石材长(李春喜),南娄山村1#,丰磊石板厂100(敬玉河),郭伟忠石板厂,于家庄村巩宝田北岗变压器,北娄山村5#,菜园村8#三队西,黄忠石材加工厂(50KVA),黄虎石板厂,南娄山村8#村西,保定泽疆旅游开发有限公司变压器,西山北村5#,西山北村1#,沙岭村2#【纯农排变】,南娄山村3#【纯农排变】,南娄山村7#【纯农排变】","powerOffReason":"【停电原因】由于电缆被车刮断导致３５ＫＶ步乐变电站菜园５３７线路全线停电【变更送电】因抢修进度加快原因，送电时间由１２：００变更为１０：００【发布渠道】通过９５５９８发布","powerOffId":"2019101913000023"},{"poweroffId":2019101913000022,"sgpoweroffId":null,"subsName":"","lineName":"10KV徐里营531","pubTranName":"徐一村西,","scope":"【影响街道/乡镇】刁窝乡 【高危重要客户】无 【影响客户】徐一村","startTime":"2019-10-29 08:00:00","stopDate":"2019-10-29 17:00:00","orgNo":"1340626","typeCode":"计划停电","poweroffArea":"【单台区停电】停徐一村西","poweroffReason":"【停电原因】由于电杆组立，架设导线工程导致１１０ＫＶ刁窝变电站１０ＫＶ徐里营５３１线路徐一村西公变台区停电 【变更送电】无 【发布渠道】涿州电视台（１０月１９日至１０月２８日２１：００播放２次）屏幕上方滚动","powerTime":"2019-10-29 16:44:04","powerComm":"已送电","subsNo":"","lineNo":"","tgNo":"","tgName":null,"infoStatus":"1","orgName":"国网涿州市供电公司","typeName":null,"infoStatusName":null,"dateDay":null,"orgNos":null,"nowTime":null,"countyName":null,"streetName":null,"villageName":null,"roadName":null,"communityName":null,"tranName":null,"sdLineName":null,"cityCode":"1340626","cityName":"国网涿州市供电公司","provinceCode":null,"stopTime":"2019-10-29 17:00:00","powerType":"全部","powerOffArea":"【单台区停电】停徐一村西","powerOffReason":"【停电原因】由于电杆组立，架设导线工程导致１１０ＫＶ刁窝变电站１０ＫＶ徐里营５３１线路徐一村西公变台区停电 【变更送电】无 【发布渠道】涿州电视台（１０月１９日至１０月２８日２１：００播放２次）屏幕上方滚动","powerOffId":"2019101913000022"}],"pageModel":{"pageNow":484,"totalCount":10973,"totalPage":1098,"tableRows":0,"pageCount":10,"beginCount":4830},"isExperi":"1"}