{"message":"","today":"2020-06-15","seleList":[{"poweroffId":2019101813000249,"sgpoweroffId":null,"subsName":"","lineName":"10kV523南庄线","pubTranName":"南青阳贯东区变压器,南青阳贯3区变压器,北青阳贯幼儿园变压器,北青阳贯5区变压器,0000004825南清阳贯变压器,北青阳贯农灌1变压器,北青阳贯变压器【光伏】,0000006821北青阳贯2区变压器,0000007128南青阳贯二区增容变压器,南青阳贯光伏变压器【光伏】,0000004824北青阳贯1区变压器,0012457420北青阳贯4区,0013362875南青阳贯农灌【纯农排变】,0012479016北青阳贯3区变压器,南青阳贯小学变压器,","scope":"【影响街道/乡镇】孝墓乡【高危重要客户】无【影响客户】南青阳贯、北青阳贯","startTime":"2019-10-31 06:30:00","stopDate":"2019-10-31 17:30:00","orgNo":"1340619","typeCode":"计划停电","poweroffArea":"【分支停电】停北青阳贯幼儿园变压器,南青阳贯东区变压器,南青阳贯3区变压器,北青阳贯5区变压器,0000004825南清阳贯变压器,北青阳贯农灌1变压器,北青阳贯变压器【光伏】,0000006821北青阳贯2区变压器,0000007128南青阳贯二区增容变压器,南青阳贯光伏变压器【光伏】,0000004824北青阳贯1区变压器,0012457420北青阳贯4区,0013362875南青阳贯农灌【纯农排变】,0012479016北青阳贯3区变压器,南青阳贯小学变压器","poweroffReason":"【停电原因】由于线路更换导线、电杆导致３５ＫＶ东口南变电站１０ＫＶ５２３南庄线路北青阳贯支线００１号杆ＤＫＮ５２３－０３断路器以下停电【变更送电】无【发布渠道】保定市曲阳县电视台（１０月１８日至１０月２０日１８时至２０时之间）屏幕上方滚动","powerTime":"2019-10-31 17:20:07","powerComm":"已送电","subsNo":"","lineNo":"","tgNo":"","tgName":null,"infoStatus":"1","orgName":"国网曲阳县供电公司","typeName":null,"infoStatusName":null,"dateDay":null,"orgNos":null,"nowTime":null,"countyName":null,"streetName":null,"villageName":null,"roadName":null,"communityName":null,"tranName":null,"sdLineName":null,"cityCode":"1340619","cityName":"国网曲阳县供电公司","provinceCode":null,"stopTime":"2019-10-31 17:30:00","powerType":"全部","powerOffArea":"【分支停电】停北青阳贯幼儿园变压器,南青阳贯东区变压器,南青阳贯3区变压器,北青阳贯5区变压器,0000004825南清阳贯变压器,北青阳贯农灌1变压器,北青阳贯变压器【光伏】,0000006821北青阳贯2区变压器,0000007128南青阳贯二区增容变压器,南青阳贯光伏变压器【光伏】,0000004824北青阳贯1区变压器,0012457420北青阳贯4区,0013362875南青阳贯农灌【纯农排变】,0012479016北青阳贯3区变压器,南青阳贯小学变压器","powerOffReason":"【停电原因】由于线路更换导线、电杆导致３５ＫＶ东口南变电站１０ＫＶ５２３南庄线路北青阳贯支线００１号杆ＤＫＮ５２３－０３断路器以下停电【变更送电】无【发布渠道】保定市曲阳县电视台（１０月１８日至１０月２０日１８时至２０时之间）屏幕上方滚动","powerOffId":"2019101813000249"},{"poweroffId":2019101813000245,"sgpoweroffId":null,"subsName":"","lineName":"10kV崔闸站562线路","pubTranName":"C633柱上变压器,C073柱上变压器,","scope":"【影响街道/乡镇】南齐乡 【高危重要客户】无 【影响客户】蛮子营村","startTime":"2019-10-30 07:00:00","stopDate":"2019-10-30 11:00:00","orgNo":"13406","typeCode":"计划停电","poweroffArea":"【分支停电】停C633柱上变压器,C073柱上变压器","poweroffReason":"【停电原因】由于供电设备临时检修导致１０ＫＶ崔闸变电站５６２线路１０７号南分支２９号杆以下停电【变更送电】无【发布渠道】保定市保定有线电视台（１０月２２日２０时１５分至２１时４５分之间）屏幕上滚动","powerTime":"2019-10-30 10:52:27","powerComm":"已送电","subsNo":"","lineNo":"","tgNo":"","tgName":null,"infoStatus":"1","orgName":"保定供电公司","typeName":null,"infoStatusName":null,"dateDay":null,"orgNos":null,"nowTime":null,"countyName":null,"streetName":null,"villageName":null,"roadName":null,"communityName":null,"tranName":null,"sdLineName":null,"cityCode":"13406","cityName":"保定供电公司","provinceCode":null,"stopTime":"2019-10-30 11:00:00","powerType":"全部","powerOffArea":"【分支停电】停C633柱上变压器,C073柱上变压器","powerOffReason":"【停电原因】由于供电设备临时检修导致１０ＫＶ崔闸变电站５６２线路１０７号南分支２９号杆以下停电【变更送电】无【发布渠道】保定市保定有线电视台（１０月２２日２０时１５分至２１时４５分之间）屏幕上滚动","powerOffId":"2019101813000245"},{"poweroffId":2019101813000160,"sgpoweroffId":null,"subsName":"","lineName":"前营线548电力电缆","pubTranName":"前营5号,前营6号,前营7号,前营8号,前营村15号台【纯农排变】,岳家营14号,岳家营16号,岳家营18号,前营9号,前营10号,前营11号【纯农排变】,前营12号,前营13号,前营14号,前营1号【纯农排变】,前营2号,前营3号,前营4号【纯农排变】,岳家营3号,岳家营4号【纯农排变】,岳家营5号【纯农排变】,岳家营6号【纯农排变】,岳家营7号【纯农排变】,岳家营8号【纯农排变】,岳营10号,岳营11号,岳营12号,岳营13号【纯农排变】,岳营15号,岳营17号,岳营1号,岳营2号,","scope":"【影响街道/乡镇】安肃镇 【高危重要客户】无 【影响客户】前营、岳家营","startTime":"2019-11-03 05:00:00","stopDate":"2019-11-03 12:00:00","orgNo":"1340605","typeCode":"计划停电","poweroffArea":"【分支停电】停前营9号,前营10号,前营11号【纯农排变】,前营12号,前营13号,前营14号,前营1号【纯农排变】,前营2号,前营3号,前营4号【纯农排变】,前营5号,前营6号,前营7号,前营8号,前营村15号台【纯农排变】,岳家营14号,岳家营16号,岳家营18号,岳家营3号,岳家营4号【纯农排变】,岳家营5号【纯农排变】,岳家营6号【纯农排变】,岳家营7号【纯农排变】,岳家营8号【纯农排变】,岳营10号,岳营11号,岳营12号,岳营13号【纯农排变】,岳营15号,岳营17号,岳营1号,岳营2号","poweroffReason":"【停电原因】由于线路检修导致２２０ＫＶ张丰变电站１０ＫＶ前营５４８线路９号分段开关以下线路停电 【变更送电】无 【发布渠道】通过河北省保定市徐水区电视台游走滚动字幕播放（２０１９年１０月２６日０８:００至１１月０２日２０:００）","powerTime":"2019-11-03 11:28:56","powerComm":"已送电","subsNo":"","lineNo":"","tgNo":"","tgName":null,"infoStatus":"1","orgName":"国网徐水县供电公司","typeName":null,"infoStatusName":null,"dateDay":null,"orgNos":null,"nowTime":null,"countyName":null,"streetName":null,"villageName":null,"roadName":null,"communityName":null,"tranName":null,"sdLineName":null,"cityCode":"1340605","cityName":"国网徐水县供电公司","provinceCode":null,"stopTime":"2019-11-03 12:00:00","powerType":"全部","powerOffArea":"【分支停电】停前营9号,前营10号,前营11号【纯农排变】,前营12号,前营13号,前营14号,前营1号【纯农排变】,前营2号,前营3号,前营4号【纯农排变】,前营5号,前营6号,前营7号,前营8号,前营村15号台【纯农排变】,岳家营14号,岳家营16号,岳家营18号,岳家营3号,岳家营4号【纯农排变】,岳家营5号【纯农排变】,岳家营6号【纯农排变】,岳家营7号【纯农排变】,岳家营8号【纯农排变】,岳营10号,岳营11号,岳营12号,岳营13号【纯农排变】,岳营15号,岳营17号,岳营1号,岳营2号","powerOffReason":"【停电原因】由于线路检修导致２２０ＫＶ张丰变电站１０ＫＶ前营５４８线路９号分段开关以下线路停电 【变更送电】无 【发布渠道】通过河北省保定市徐水区电视台游走滚动字幕播放（２０１９年１０月２６日０８:００至１１月０２日２０:００）","powerOffId":"2019101813000160"},{"poweroffId":2019101813000159,"sgpoweroffId":null,"subsName":"","lineName":"10kV524李亲顾线","pubTranName":"李亲顾村公用照明12台区,李亲顾公用照明13台区,李亲顾公用照明17台区,李亲顾村公用照明2台区,李亲顾公用照明18台区,李亲顾公用照明10台区,李亲顾公用照明23台区,李亲顾公用照明22台区,李亲顾村公用照明8台区,李亲顾公用照明20台区,李亲顾公用照明21台区,李亲顾公用照明14台区,李亲顾公用照明6台区,李亲顾公用照明19台区,李亲顾公用照明3台区,李亲顾村公用照明11台区,李亲顾公用照明9台区,李亲顾公用照明5台区,李亲顾村李亲顾庄公用照明7台区,李亲顾公用照明15台区,李亲顾公用照明16台区,李亲顾公用照明1台区,","scope":"【影响街道/乡镇】李亲顾镇【高危重要客户】无【影响客户】李亲顾村","startTime":"2019-10-18 11:45:23","stopDate":"2019-10-18 13:30:00","orgNo":"1340610","typeCode":"电网故障停限电","poweroffArea":"【全线路停电】停李亲顾公用照明1台区,李亲顾公用照明3台区,李亲顾村公用照明11台区,李亲顾公用照明10台区,李亲顾村公用照明2台区,李亲顾公用照明15台区,李亲顾村公用照明12台区,李亲顾公用照明4台区,李亲顾公用照明6台区,李亲顾公用照明5台区,李亲顾公用照明14台区,李亲顾公用照明16台区,李亲顾公用照明13台区,李亲顾公用照明19台区,李亲顾公用照明21台区,李亲顾公用照明22台区,李亲顾公用照明23台区,李亲顾村公用农业1台区,李亲顾村李亲顾庄公用照明7台区,李亲顾村公用照明8台区,李亲顾公用照明9台区,李亲顾公用照明20台区,李亲顾公用照明17台区,李亲顾公用照明18台区","poweroffReason":"【停电原因】由于树碰线导致１１０ＫＶ李亲顾变电站１０ＫＶ５２４李亲顾线路全线停电 【变更送电】因抢修进度加快原因，送电时间由１８：００变更为１３：３０ 【发布渠道】９５５９８","powerTime":"2019-10-18 12:52:47","powerComm":"已送电","subsNo":"","lineNo":"","tgNo":"","tgName":null,"infoStatus":"1","orgName":"国网定州市供电公司","typeName":null,"infoStatusName":null,"dateDay":null,"orgNos":null,"nowTime":null,"countyName":null,"streetName":null,"villageName":null,"roadName":null,"communityName":null,"tranName":null,"sdLineName":null,"cityCode":"1340610","cityName":"国网定州市供电公司","provinceCode":null,"stopTime":"2019-10-18 13:30:00","powerType":"全部","powerOffArea":"【全线路停电】停李亲顾公用照明1台区,李亲顾公用照明3台区,李亲顾村公用照明11台区,李亲顾公用照明10台区,李亲顾村公用照明2台区,李亲顾公用照明15台区,李亲顾村公用照明12台区,李亲顾公用照明4台区,李亲顾公用照明6台区,李亲顾公用照明5台区,李亲顾公用照明14台区,李亲顾公用照明16台区,李亲顾公用照明13台区,李亲顾公用照明19台区,李亲顾公用照明21台区,李亲顾公用照明22台区,李亲顾公用照明23台区,李亲顾村公用农业1台区,李亲顾村李亲顾庄公用照明7台区,李亲顾村公用照明8台区,李亲顾公用照明9台区,李亲顾公用照明20台区,李亲顾公用照明17台区,李亲顾公用照明18台区","powerOffReason":"【停电原因】由于树碰线导致１１０ＫＶ李亲顾变电站１０ＫＶ５２４李亲顾线路全线停电 【变更送电】因抢修进度加快原因，送电时间由１８：００变更为１３：３０ 【发布渠道】９５５９８","powerOffId":"2019101813000159"},{"poweroffId":2019101813000152,"sgpoweroffId":null,"subsName":"","lineName":"田庄526电力电缆","pubTranName":"青鸟火柴厂,李庄供68号变压器,李庄5号变压器【纯农排变】,田庄供73号变压器【纯农排变】,田庄供54号变压器,商庄10号,沿村8号,李庄1号变压器,河北省高速公路禄发实业总公司崔庄服务区,沿村6号,商庄14号【纯农排变】,建新冷食部,商庄17号【纯农排变】,田庄8号变压器,田庄供148号变压器,田庄供74变压器【纯农排变】,北徐城（供电所2号）,商庄6号【纯农排变】,田庄供72号变压器,田庄供134号变压器,徐水县永存塑料包装厂,商庄9号,商庄18号,沿村3号【纯农排变】,商庄3号【纯农排变】,李庄3号变压器,田庄6号变压器,李庄供49号变压器,田庄5号变压器,李庄供144号变压器,北徐城1号【纯农排变】,李庄田庄合用变压器,田庄7号变压器,北徐城5号,振奎胶帽厂,国网河北电动汽车服务有限公司,商庄2号【纯农排变】,商庄1号【纯农排变】,田庄供18号变压器,田庄供105号变压器,田庄供12号变压器,商庄4号,津保高速公路徐水服务站,商庄12号【纯农排变】,商庄7号【纯农排变】,徐水县盛芳园花卉有限公司,沿村7号,李庄供137号变压器【纯农排变】,田庄供16号变压器,商庄11号,田庄与李庄合用变压器,李庄2号变压器【纯农排变】,沿村9号,客户投资_ 商庄16号,田庄3号变压器,田庄供133号变压器,北徐城2号,沿村4号【纯农排变】,田庄4号变压器,田庄供136号变压器【纯农排变】,商庄8号【纯农排变】,商庄13号【纯农排变】,","scope":"【影响街道/乡镇】崔庄镇 【高危重要客户】无 【影响客户】李庄、田庄、北徐城、商庄、沿村","startTime":"2019-10-31 07:00:00","stopDate":"2019-10-31 18:00:00","orgNo":"1340605","typeCode":"计划停电","poweroffArea":"【全线路停电】停李庄供68号变压器,田庄7号变压器,田庄供134号变压器,田庄供72号变压器,李庄1号变压器,李庄供49号变压器,田庄4号变压器,田庄供136号变压器【纯农排变】,田庄3号变压器,田庄供74变压器【纯农排变】,李庄供137号变压器【纯农排变】,北徐城1号【纯农排变】,田庄供54号变压器,李庄3号变压器,河北省高速公路禄发实业总公司崔庄服务区,李庄5号变压器【纯农排变】,田庄供16号变压器,李庄田庄合用变压器,田庄供133号变压器,田庄供18号变压器,沿村6号,商庄12号【纯农排变】,商庄9号,商庄11号,北徐城2号,商庄2号【纯农排变】,田庄供73号变压器【纯农排变】,田庄供12号变压器,商庄14号【纯农排变】,商庄7号【纯农排变】,商庄18号,田庄与李庄合用变压器,商庄1号【纯农排变】,商庄13号【纯农排变】,田庄6号变压器,北徐城5号,沿村8号,建新冷食部,北徐城（供电所2号）,徐水县盛芳园花卉有限公司,徐水县永存塑料包装厂,振奎胶帽厂,津保高速公路徐水服务站,田庄供148号变压器,商庄8号【纯农排变】,国网河北电动汽车服务有限公司,商庄6号【纯农排变】,田庄5号变压器,李庄2号变压器【纯农排变】,沿村3号【纯农排变】,商庄4号,青鸟火柴厂,商庄17号【纯农排变】,沿村7号,沿村9号,沿村4号【纯农排变】,李庄供144号变压器,商庄10号,商庄3号【纯农排变】,客户投资_ 商庄16号,田庄8号变压器,田庄供105号变压器","poweroffReason":"【停电原因】由于计划检修导致１１０ＫＶ下河西变电站田庄５２６线路全线停电 【变更送电】无 【发布渠道】通过河北省保定市徐水区电视台游走滚动字幕播放（２０１９年１０月２３日０８：００至１０月３０日２０：００）","powerTime":"2019-10-31 17:40:05","powerComm":"已送电","subsNo":"","lineNo":"","tgNo":"","tgName":null,"infoStatus":"1","orgName":"国网徐水县供电公司","typeName":null,"infoStatusName":null,"dateDay":null,"orgNos":null,"nowTime":null,"countyName":null,"streetName":null,"villageName":null,"roadName":null,"communityName":null,"tranName":null,"sdLineName":null,"cityCode":"1340605","cityName":"国网徐水县供电公司","provinceCode":null,"stopTime":"2019-10-31 18:00:00","powerType":"全部","powerOffArea":"【全线路停电】停李庄供68号变压器,田庄7号变压器,田庄供134号变压器,田庄供72号变压器,李庄1号变压器,李庄供49号变压器,田庄4号变压器,田庄供136号变压器【纯农排变】,田庄3号变压器,田庄供74变压器【纯农排变】,李庄供137号变压器【纯农排变】,北徐城1号【纯农排变】,田庄供54号变压器,李庄3号变压器,河北省高速公路禄发实业总公司崔庄服务区,李庄5号变压器【纯农排变】,田庄供16号变压器,李庄田庄合用变压器,田庄供133号变压器,田庄供18号变压器,沿村6号,商庄12号【纯农排变】,商庄9号,商庄11号,北徐城2号,商庄2号【纯农排变】,田庄供73号变压器【纯农排变】,田庄供12号变压器,商庄14号【纯农排变】,商庄7号【纯农排变】,商庄18号,田庄与李庄合用变压器,商庄1号【纯农排变】,商庄13号【纯农排变】,田庄6号变压器,北徐城5号,沿村8号,建新冷食部,北徐城（供电所2号）,徐水县盛芳园花卉有限公司,徐水县永存塑料包装厂,振奎胶帽厂,津保高速公路徐水服务站,田庄供148号变压器,商庄8号【纯农排变】,国网河北电动汽车服务有限公司,商庄6号【纯农排变】,田庄5号变压器,李庄2号变压器【纯农排变】,沿村3号【纯农排变】,商庄4号,青鸟火柴厂,商庄17号【纯农排变】,沿村7号,沿村9号,沿村4号【纯农排变】,李庄供144号变压器,商庄10号,商庄3号【纯农排变】,客户投资_ 商庄16号,田庄8号变压器,田庄供105号变压器","powerOffReason":"【停电原因】由于计划检修导致１１０ＫＶ下河西变电站田庄５２６线路全线停电 【变更送电】无 【发布渠道】通过河北省保定市徐水区电视台游走滚动字幕播放（２０１９年１０月２３日０８：００至１０月３０日２０：００）","powerOffId":"2019101813000152"},{"poweroffId":2019101813000148,"sgpoweroffId":null,"subsName":"","lineName":"城北520电力电缆","pubTranName":"迁民庄6号【纯农排变】,徐水县永安玛钢厂2号,迁民庄2号【纯农排变】,保定市宏宾机械厂,迁民庄7号,迁民庄8号,徐水县综合高中3号,保定东峰铸造有限公司,徐水县再实铸造有限公司,徐水县长城机床铸造有限公司,迁民庄4号,保定东峰铸造有限公司5号,变压器,徐水县丽华塑料包装厂2号,迁民庄9号,徐水综合高中2号,徐水县宏利机械制造有限公司,徐水综合高中1号,徐水县康铭养殖有限公司变压器,徐水县中医医院,迁民庄1号,徐水县兴华铸造有限公司1号,迁民庄14号,徐水县再实铸造有限责任公司变压器,0672385766-徐水县永佳超市-专变-213320572-徐水县永佳超市,0673545802-保定徐方液压机械设备有限公司-专变-214325634-保定徐方液压机械设备有限公司,迁民庄11号,迁民庄10号【纯农排变】,迁民庄5号,迁民庄3号,徐水县安肃镇迁民庄小学变压器,徐水县建工远大新型建材,河北万瑞医疗器械有限公司,徐水县万达铸造有限公司,迁民庄13号,徐水县兴华铸造有限公司4号,保定东峰铸造有限公司4号,徐水县长城铸造厂,徐水县兴华铸造有限公司2号,保定市徐水区瑞面激光切割部,徐水县兴华铸造有限公司,徐水县中医院,徐水县永安玛钢厂1号,徐水县丽华塑料包装厂,保定东峰铸造有限公司3号,保定东峰铸造有限公司1号,","scope":"【影响街道/乡镇】安肃镇 【高危重要客户】无 【影响客户】迁民庄","startTime":"2019-10-31 07:00:00","stopDate":"2019-10-31 19:00:00","orgNo":"1340605","typeCode":"计划停电","poweroffArea":"【全线路停电】停徐水县再实铸造有限公司,徐水县建工远大新型建材,徐水县丽华塑料包装厂,徐水综合高中2号,河北万瑞医疗器械有限公司,徐水县兴华铸造有限公司4号,保定东峰铸造有限公司4号,徐水县综合高中3号,徐水县长城铸造厂,保定东峰铸造有限公司,徐水县永安玛钢厂1号,徐水县兴华铸造有限公司2号,迁民庄13号,徐水县长城机床铸造有限公司,迁民庄3号,保定市徐水区瑞面激光切割部,徐水县中医医院,徐水县兴华铸造有限公司,保定东峰铸造有限公司1号,徐水综合高中1号,迁民庄6号【纯农排变】,徐水县兴华铸造有限公司1号,徐水县万达铸造有限公司,迁民庄4号,迁民庄14号,徐水县永安玛钢厂2号,0673545802-保定徐方液压机械设备有限公司-专变-214325634-保定徐方液压机械设备有限公司,迁民庄5号,徐水县康铭养殖有限公司变压器,0672385766-徐水县永佳超市-专变-213320572-徐水县永佳超市,迁民庄2号【纯农排变】,保定东峰铸造有限公司5号,变压器,迁民庄8号,徐水县再实铸造有限责任公司变压器,迁民庄1号,保定东峰铸造有限公司3号,徐水县丽华塑料包装厂2号,迁民庄11号,迁民庄7号,徐水县中医院,徐水县安肃镇迁民庄小学变压器,迁民庄10号【纯农排变】,保定市宏宾机械厂,迁民庄9号,徐水县宏利机械制造有限公司","poweroffReason":"【停电原因】由于计划检修导致１１０ＫＶ下河西变电站城北５２０线路全线停电 【变更送电】因抢修进度加快原因，送电时间由２０:００变更为１９:００ 【发布渠道】通过徐水区电视台游走滚动字幕播放（２０１９年１０月２３日０８:００至１０月３０日２０:００）","powerTime":"2019-10-31 18:31:08","powerComm":"已送电","subsNo":"","lineNo":"","tgNo":"","tgName":null,"infoStatus":"1","orgName":"国网徐水县供电公司","typeName":null,"infoStatusName":null,"dateDay":null,"orgNos":null,"nowTime":null,"countyName":null,"streetName":null,"villageName":null,"roadName":null,"communityName":null,"tranName":null,"sdLineName":null,"cityCode":"1340605","cityName":"国网徐水县供电公司","provinceCode":null,"stopTime":"2019-10-31 19:00:00","powerType":"全部","powerOffArea":"【全线路停电】停徐水县再实铸造有限公司,徐水县建工远大新型建材,徐水县丽华塑料包装厂,徐水综合高中2号,河北万瑞医疗器械有限公司,徐水县兴华铸造有限公司4号,保定东峰铸造有限公司4号,徐水县综合高中3号,徐水县长城铸造厂,保定东峰铸造有限公司,徐水县永安玛钢厂1号,徐水县兴华铸造有限公司2号,迁民庄13号,徐水县长城机床铸造有限公司,迁民庄3号,保定市徐水区瑞面激光切割部,徐水县中医医院,徐水县兴华铸造有限公司,保定东峰铸造有限公司1号,徐水综合高中1号,迁民庄6号【纯农排变】,徐水县兴华铸造有限公司1号,徐水县万达铸造有限公司,迁民庄4号,迁民庄14号,徐水县永安玛钢厂2号,0673545802-保定徐方液压机械设备有限公司-专变-214325634-保定徐方液压机械设备有限公司,迁民庄5号,徐水县康铭养殖有限公司变压器,0672385766-徐水县永佳超市-专变-213320572-徐水县永佳超市,迁民庄2号【纯农排变】,保定东峰铸造有限公司5号,变压器,迁民庄8号,徐水县再实铸造有限责任公司变压器,迁民庄1号,保定东峰铸造有限公司3号,徐水县丽华塑料包装厂2号,迁民庄11号,迁民庄7号,徐水县中医院,徐水县安肃镇迁民庄小学变压器,迁民庄10号【纯农排变】,保定市宏宾机械厂,迁民庄9号,徐水县宏利机械制造有限公司","powerOffReason":"【停电原因】由于计划检修导致１１０ＫＶ下河西变电站城北５２０线路全线停电 【变更送电】因抢修进度加快原因，送电时间由２０:００变更为１９:００ 【发布渠道】通过徐水区电视台游走滚动字幕播放（２０１９年１０月２３日０８:００至１０月３０日２０:００）","powerOffId":"2019101813000148"},{"poweroffId":2019101813000146,"sgpoweroffId":null,"subsName":"","lineName":"北关518电力电缆","pubTranName":"盛源67号（欧韵3期南箱变）,盛源7号（石油公司）,永兴45号箱变(安顺八号),盛源66号（欧韵3期北箱变）,","scope":"【影响街道/乡镇】安肃镇 【高危重要客户】无 【影响客户】欧韵３期、安顺苑、石油公司、安顺八号","startTime":"2019-10-31 07:00:00","stopDate":"2019-10-31 19:00:00","orgNo":"1340605","typeCode":"计划停电","poweroffArea":"【全线路停电】停历城刚健鞋业有限公司,新洋鞋业有限公司,徐水建明西路83号家属院,盛源67号（欧韵3期南箱变）,历城鞋厂,0555835544-徐水县恒星防腐材料厂-专变-94363926-徐水县恒星防腐材料厂,永兴12号(安顺苑),盛源7号（石油公司）,河北中恒泰达粮油贸易有限公司,永兴45号箱变(安顺八号),高庄7号高庄、【纯农排变】,中国石油保定162加油站,河北天行健房地产开发集团有限公司3号,徐水县京贸纸盒厂,徐水县建设局建明路路灯1号,河北天行健房地产开发集团有限公司4号,河北天行健房地产开发集团有限公司5号,徐水县伟业五金橡胶制造有限公司,盛源66号（欧韵3期北箱变）,河北万瑞医疗器材有限公司变压器,中国石油河北徐水石油公司,徐水县天行健物业管理有限公司,徐水县平安房地产开发有限公司,徐水县家安物业运行有限公司,高庄4号,徐水县居然房地产发展有限公司,河北天行健房地产开发集团有限公司,徐水县恒星防腐材料厂1号","poweroffReason":"【停电原因】由于计划检修导致１１０ＫＶ下河西变电站北关５１８线路全线停电 【变更送电】因抢修进度加快原因，送电时间由２０:００变更为１９:００ 【发布渠道】通过徐水电视台游走滚动字幕播放（２０１９年１０月２３日０８:００至１０月３０日２０:００）","powerTime":"2019-10-31 18:32:08","powerComm":"已送电","subsNo":"","lineNo":"","tgNo":"","tgName":null,"infoStatus":"1","orgName":"国网徐水县供电公司","typeName":null,"infoStatusName":null,"dateDay":null,"orgNos":null,"nowTime":null,"countyName":null,"streetName":null,"villageName":null,"roadName":null,"communityName":null,"tranName":null,"sdLineName":null,"cityCode":"1340605","cityName":"国网徐水县供电公司","provinceCode":null,"stopTime":"2019-10-31 19:00:00","powerType":"全部","powerOffArea":"【全线路停电】停历城刚健鞋业有限公司,新洋鞋业有限公司,徐水建明西路83号家属院,盛源67号（欧韵3期南箱变）,历城鞋厂,0555835544-徐水县恒星防腐材料厂-专变-94363926-徐水县恒星防腐材料厂,永兴12号(安顺苑),盛源7号（石油公司）,河北中恒泰达粮油贸易有限公司,永兴45号箱变(安顺八号),高庄7号高庄、【纯农排变】,中国石油保定162加油站,河北天行健房地产开发集团有限公司3号,徐水县京贸纸盒厂,徐水县建设局建明路路灯1号,河北天行健房地产开发集团有限公司4号,河北天行健房地产开发集团有限公司5号,徐水县伟业五金橡胶制造有限公司,盛源66号（欧韵3期北箱变）,河北万瑞医疗器材有限公司变压器,中国石油河北徐水石油公司,徐水县天行健物业管理有限公司,徐水县平安房地产开发有限公司,徐水县家安物业运行有限公司,高庄4号,徐水县居然房地产发展有限公司,河北天行健房地产开发集团有限公司,徐水县恒星防腐材料厂1号","powerOffReason":"【停电原因】由于计划检修导致１１０ＫＶ下河西变电站北关５１８线路全线停电 【变更送电】因抢修进度加快原因，送电时间由２０:００变更为１９:００ 【发布渠道】通过徐水电视台游走滚动字幕播放（２０１９年１０月２３日０８:００至１０月３０日２０:００）","powerOffId":"2019101813000146"},{"poweroffId":2019101813000141,"sgpoweroffId":null,"subsName":"","lineName":"10kV东环511","pubTranName":"永兴62号箱变(尚城2号),永兴63号箱变(尚城3号),永兴75号箱变(东方红城20号楼),永兴48号箱变(东方红城西),永兴71号箱变（东方红城1号楼）,永兴74号箱变(东方红城5号楼),永兴49号箱变(东方红城东),绿墅蓝湾（供电所3号）高压间隔配电变压器,永兴61号箱变(尚城1号),永兴72号箱变(东方红城3号楼),","scope":"【影响街道/乡镇】安肃镇 【高危重要客户】无 【影响客户】东方红城小区、尚城小区、绿墅蓝湾小区","startTime":"2019-10-31 07:00:00","stopDate":"2019-10-31 18:00:00","orgNo":"1340605","typeCode":"计划停电","poweroffArea":"【全线路停电】停徐水县华建物业管理有限公司,河北晨阳工贸集团有限公司计量点,永兴61号箱变(尚城1号),巨力集团徐水物业管理有限公司2号（1250KVA门帘）,保定华晨机械制造有限公司变压器2,保定华晨机械制造有限公司变压器,巨力物业1号,永兴49号箱变(东方红城东),河北晨阳工贸集团有限公司,巨力物业6号,永兴72号箱变(东方红城3号楼),永兴48号箱变(东方红城西),永兴71号箱变（东方红城1号楼）,永兴74号箱变(东方红城5号楼),巨力物业2号,永兴63号箱变(尚城3号),永兴62号箱变(尚城2号),河北天疆房地产开发有限公司,巨力尚城物业管理部4号(1000KVA)(2/3/4/6号合算),绿墅蓝湾（供电所3号）高压间隔配电变压器,巨力集团徐水物业管理有限公司3号(1000KVA),0657448617-保定市徐水区高尚物业管理有限公司-专变-190459953-河北巨力房地产开发有限公司,0630057098-保定市徐水区住房和城乡建设局路灯-专变-141640677-徐水县住房和城乡建设局路灯,永兴75号箱变(东方红城20号楼),0685065804-徐水县兴盛物业管理有限公司-专变-223616139-徐水县兴盛物业管理有限公司变压器,0594102933-徐水县华忠房地产开发有限公司-专变-125919656-徐水县华忠房地产开发有限公司,巨力物业3号,巨力尚城物业管理部","poweroffReason":"【停电原因】由于计划检修导致１１０ＫＶ下河西变电站东环５１１线路全线停电 【变更送电】无 【发布渠道】通过河北省保定市徐水电视台游走滚动字幕播放（２０１９年１０月２３日０７:００至１０月３０日２０:００）","powerTime":"2019-10-31 17:40:42","powerComm":"已送电","subsNo":"","lineNo":"","tgNo":"","tgName":null,"infoStatus":"1","orgName":"国网徐水县供电公司","typeName":null,"infoStatusName":null,"dateDay":null,"orgNos":null,"nowTime":null,"countyName":null,"streetName":null,"villageName":null,"roadName":null,"communityName":null,"tranName":null,"sdLineName":null,"cityCode":"1340605","cityName":"国网徐水县供电公司","provinceCode":null,"stopTime":"2019-10-31 18:00:00","powerType":"全部","powerOffArea":"【全线路停电】停徐水县华建物业管理有限公司,河北晨阳工贸集团有限公司计量点,永兴61号箱变(尚城1号),巨力集团徐水物业管理有限公司2号（1250KVA门帘）,保定华晨机械制造有限公司变压器2,保定华晨机械制造有限公司变压器,巨力物业1号,永兴49号箱变(东方红城东),河北晨阳工贸集团有限公司,巨力物业6号,永兴72号箱变(东方红城3号楼),永兴48号箱变(东方红城西),永兴71号箱变（东方红城1号楼）,永兴74号箱变(东方红城5号楼),巨力物业2号,永兴63号箱变(尚城3号),永兴62号箱变(尚城2号),河北天疆房地产开发有限公司,巨力尚城物业管理部4号(1000KVA)(2/3/4/6号合算),绿墅蓝湾（供电所3号）高压间隔配电变压器,巨力集团徐水物业管理有限公司3号(1000KVA),0657448617-保定市徐水区高尚物业管理有限公司-专变-190459953-河北巨力房地产开发有限公司,0630057098-保定市徐水区住房和城乡建设局路灯-专变-141640677-徐水县住房和城乡建设局路灯,永兴75号箱变(东方红城20号楼),0685065804-徐水县兴盛物业管理有限公司-专变-223616139-徐水县兴盛物业管理有限公司变压器,0594102933-徐水县华忠房地产开发有限公司-专变-125919656-徐水县华忠房地产开发有限公司,巨力物业3号,巨力尚城物业管理部","powerOffReason":"【停电原因】由于计划检修导致１１０ＫＶ下河西变电站东环５１１线路全线停电 【变更送电】无 【发布渠道】通过河北省保定市徐水电视台游走滚动字幕播放（２０１９年１０月２３日０７:００至１０月３０日２０:００）","powerOffId":"2019101813000141"},{"poweroffId":2019101813000137,"sgpoweroffId":null,"subsName":"","lineName":"10kV赵庄线530","pubTranName":"1鲁庄内1,青堡村内3,1青堡内7,聂庄1号,1赵庄内7,1鲁庄内2,1赵庄美景东方内4,青堡内8台区,1毕庄内4,1赵庄内6,1青堡内6,1聂庄内3,赵庄内1,赵庄村2号,1毕庄内3,赵庄村3号,1青堡内5,1赵庄内9,1聂庄内2,铸钱庄内1,1赵庄美景东方内3,1毕庄内2,1青堡内2,1赵庄美景东方内2,鲁庄村内3台区,毕庄内1号,1赵庄内4,1青堡内9,青堡内1号,赵庄内8台区,青堡内4号,1赵庄内5,1赵庄美景东方内1,","scope":"【影响街道/乡镇】焦庄乡 【高危重要客户】无 【影响客户】毕庄、鲁庄、聂庄、青堡、赵庄、铸钱庄、赵庄美景东方","startTime":"2019-10-20 06:30:00","stopDate":"2019-10-20 14:30:00","orgNo":"1340618","typeCode":"临时停电","poweroffArea":"【分支停电】停1毕庄内3,毕庄邮局,赵庄赵大宏,赵庄村3号,赵进,赵庄王增寿,1青堡内5,聂庄村东边,青堡村南,青堡村西,青堡桥东4号,青堡东边,青堡北边,1赵庄内9,青堡村委会,铸钱庄西,青堡村委会01,青堡5号,赵庄内8台区,青堡内4号,青堡东南,1赵庄内5,1赵庄美景东方内1,聂庄东北,鲁庄3号,赵庄村委会,赵庄村东南台,鲁庄南2号台,赵庄村2号,1毕庄内2,1青堡内2,1赵庄美景东方内2,0600084370-聂庄村委会-专变-126658975-聂庄村委会6,毕庄菜市场,鲁庄村内3台区,聂庄村委会3,赵庄村北,毕庄内1号,赵庄村南南台,赵庄东北台,赵庄村南边,聂庄村委会4,1赵庄内4,1鲁庄内1,青堡村内3,1青堡内7,聂庄1号,1青堡内9,青堡内1号,1聂庄内3,1聂庄内2,铸钱庄内1,1赵庄美景东方内3,鲁庄村南南台,赵庄内1,0615694739-美景东方-专变-128294019-美景东方,聂庄村委会5,1赵庄内7,1鲁庄内2,1赵庄美景东方内4,青堡内8台区,1毕庄内4,赵庄机站,毕庄村北,1赵庄内6,1青堡内6","poweroffReason":"【停电原因】由于更换电杆导致１１０ＫＶ阮庄变电站１０ＫＶ赵庄线５３０线路主干５１号杆分支２４号杆至９３号杆停电 【变更送电】无 【发布渠道】通过９５５９８发布","powerTime":"2019-10-20 14:05:19","powerComm":"范春满通知已送电","subsNo":"","lineNo":"","tgNo":"","tgName":null,"infoStatus":"1","orgName":"国网清苑县供电公司","typeName":null,"infoStatusName":null,"dateDay":null,"orgNos":null,"nowTime":null,"countyName":null,"streetName":null,"villageName":null,"roadName":null,"communityName":null,"tranName":null,"sdLineName":null,"cityCode":"1340618","cityName":"国网清苑县供电公司","provinceCode":null,"stopTime":"2019-10-20 14:30:00","powerType":"全部","powerOffArea":"【分支停电】停1毕庄内3,毕庄邮局,赵庄赵大宏,赵庄村3号,赵进,赵庄王增寿,1青堡内5,聂庄村东边,青堡村南,青堡村西,青堡桥东4号,青堡东边,青堡北边,1赵庄内9,青堡村委会,铸钱庄西,青堡村委会01,青堡5号,赵庄内8台区,青堡内4号,青堡东南,1赵庄内5,1赵庄美景东方内1,聂庄东北,鲁庄3号,赵庄村委会,赵庄村东南台,鲁庄南2号台,赵庄村2号,1毕庄内2,1青堡内2,1赵庄美景东方内2,0600084370-聂庄村委会-专变-126658975-聂庄村委会6,毕庄菜市场,鲁庄村内3台区,聂庄村委会3,赵庄村北,毕庄内1号,赵庄村南南台,赵庄东北台,赵庄村南边,聂庄村委会4,1赵庄内4,1鲁庄内1,青堡村内3,1青堡内7,聂庄1号,1青堡内9,青堡内1号,1聂庄内3,1聂庄内2,铸钱庄内1,1赵庄美景东方内3,鲁庄村南南台,赵庄内1,0615694739-美景东方-专变-128294019-美景东方,聂庄村委会5,1赵庄内7,1鲁庄内2,1赵庄美景东方内4,青堡内8台区,1毕庄内4,赵庄机站,毕庄村北,1赵庄内6,1青堡内6","powerOffReason":"【停电原因】由于更换电杆导致１１０ＫＶ阮庄变电站１０ＫＶ赵庄线５３０线路主干５１号杆分支２４号杆至９３号杆停电 【变更送电】无 【发布渠道】通过９５５９８发布","powerOffId":"2019101813000137"},{"poweroffId":2019101813000132,"sgpoweroffId":null,"subsName":"","lineName":"三岔口516电力电缆","pubTranName":"高庄11号,高庄1号,高庄1号【纯农排变】,高庄5号,高庄6号,客户投资_高庄8号,迁民庄12号【纯农排变】,迁民庄1号,迁民庄供电所10号（八四幼儿园）,永兴59号箱变(迁民新区1号),永兴60号箱变(迁民新区2号),大寺各庄4号,大寺各庄6号,大寺各庄7号,大寺各庄10号,大寺各庄9号,","scope":"【影响街道/乡镇】安肃镇 【高危重要客户】无 【影响客户】高庄、迁民庄、大寺各庄、迁民新区","startTime":"2019-10-31 07:00:00","stopDate":"2019-10-31 18:00:00","orgNo":"1340605","typeCode":"计划停电","poweroffArea":"【全线路停电】停大寺各庄10号,大寺各庄4号,大寺各庄6号,大寺各庄7号,大寺各庄9号,高庄11号,高庄1号,高庄1号【纯农排变】,高庄5号,高庄6号,客户投资_高庄8号,迁民庄12号【纯农排变】,迁民庄1号,迁民庄供电所10号（八四幼儿园）,永兴59号箱变(迁民新区1号),永兴60号箱变(迁民新区2号)","poweroffReason":"【停电原因】由于计划检修导致１１０ＫＶ下河西变电站三岔口５１６线路全线停电 【变更送电】无 【发布渠道】通过河北省保定市徐水电视台游走滚动字幕播放（２０１９年１０月２３日０７:００至１０月３０日２０:００）","powerTime":"2019-10-31 17:41:02","powerComm":"已送电","subsNo":"","lineNo":"","tgNo":"","tgName":null,"infoStatus":"1","orgName":"国网徐水县供电公司","typeName":null,"infoStatusName":null,"dateDay":null,"orgNos":null,"nowTime":null,"countyName":null,"streetName":null,"villageName":null,"roadName":null,"communityName":null,"tranName":null,"sdLineName":null,"cityCode":"1340605","cityName":"国网徐水县供电公司","provinceCode":null,"stopTime":"2019-10-31 18:00:00","powerType":"全部","powerOffArea":"【全线路停电】停大寺各庄10号,大寺各庄4号,大寺各庄6号,大寺各庄7号,大寺各庄9号,高庄11号,高庄1号,高庄1号【纯农排变】,高庄5号,高庄6号,客户投资_高庄8号,迁民庄12号【纯农排变】,迁民庄1号,迁民庄供电所10号（八四幼儿园）,永兴59号箱变(迁民新区1号),永兴60号箱变(迁民新区2号)","powerOffReason":"【停电原因】由于计划检修导致１１０ＫＶ下河西变电站三岔口５１６线路全线停电 【变更送电】无 【发布渠道】通过河北省保定市徐水电视台游走滚动字幕播放（２０１９年１０月２３日０７:００至１０月３０日２０:００）","powerOffId":"2019101813000132"}],"pageModel":{"pageNow":486,"totalCount":10973,"totalPage":1098,"tableRows":0,"pageCount":10,"beginCount":4850},"isExperi":"1"}