{"message":"","today":"2020-06-15","seleList":[{"poweroffId":2019101813000118,"sgpoweroffId":null,"subsName":"","lineName":"10kV朝阳路站525线路","pubTranName":"H0005柱上变压器,B340柱上变压器,10kVB1250配电室B1250配电变压器,H0004柱上变压器,H0010柱上变压器,H0009柱上变压器,H0006柱上变压器,H0011柱上变压器,H0008柱上变压器,B1005柱上变压器,10kVB763配电室B763配电变压器,10kVB671配电室B671配电变压器,H0007柱上变压器,10kVB1256配电室B1256配电变压器,","scope":"【影响街道/乡镇】富阳路 【高危重要客户】无 【影响客户】金纶公司宿舍，司法局宿舍、富昌乡政府宿舍、工行宿舍、西大洋水库宿舍、市政府理处宿舍、乐凯三区、市容大队宿舍、富阳路市场、富阳路373号","startTime":"2019-10-29 07:00:00","stopDate":"2019-10-29 12:00:00","orgNo":"13406","typeCode":"计划停电","poweroffArea":"【分支停电】停H0005柱上变压器,B340柱上变压器,10kVB1250配电室B1250配电变压器,H0004柱上变压器,H0010柱上变压器,H0009柱上变压器,H0006柱上变压器,H0011柱上变压器,H0008柱上变压器,B1005柱上变压器,10kVB763配电室B763配电变压器,10kVB671配电室B671配电变压器,H0007柱上变压器,10kVB1256配电室B1256配电变压器","poweroffReason":"【停电原因】由于供电设备临时检修导致１０ＫＶ朝阳变电站５２５线路天威路１４８号北分支１号杆开关以下停电【变更送电】无【发布渠道】保定市保定有线电视台（１０月２１日２０时１５分至２１时４５分之间）屏幕上滚动","powerTime":"2019-10-29 11:50:42","powerComm":"已送电","subsNo":"","lineNo":"","tgNo":"","tgName":null,"infoStatus":"1","orgName":"保定供电公司","typeName":null,"infoStatusName":null,"dateDay":null,"orgNos":null,"nowTime":null,"countyName":null,"streetName":null,"villageName":null,"roadName":null,"communityName":null,"tranName":null,"sdLineName":null,"cityCode":"13406","cityName":"保定供电公司","provinceCode":null,"stopTime":"2019-10-29 12:00:00","powerType":"全部","powerOffArea":"【分支停电】停H0005柱上变压器,B340柱上变压器,10kVB1250配电室B1250配电变压器,H0004柱上变压器,H0010柱上变压器,H0009柱上变压器,H0006柱上变压器,H0011柱上变压器,H0008柱上变压器,B1005柱上变压器,10kVB763配电室B763配电变压器,10kVB671配电室B671配电变压器,H0007柱上变压器,10kVB1256配电室B1256配电变压器","powerOffReason":"【停电原因】由于供电设备临时检修导致１０ＫＶ朝阳变电站５２５线路天威路１４８号北分支１号杆开关以下停电【变更送电】无【发布渠道】保定市保定有线电视台（１０月２１日２０时１５分至２１时４５分之间）屏幕上滚动","powerOffId":"2019101813000118"},{"poweroffId":2019101813000115,"sgpoweroffId":null,"subsName":"","lineName":"10kV朝阳路站516线路","pubTranName":"B1907柱上变压器,B288柱上变压器,B1737柱上变压器,B287柱上变压器,B331柱上变压器,10kVB3005箱式变电站B3005配电变压器,B471柱上变压器,B1738柱上变压器,B790柱上变压器,10kVB1739箱式变电站B1739配电变压器,B440柱上变压器,10kVB1736.B1740配电室B1736配电变压器,10kVB738配电室B738配电变压器,B330柱上变压器,10kVB1308配电室B1308配电变压器,10kVB404配电室B404配电变压器,B479柱上变压器,10kVB285箱式变电站B285配电变压器,B317柱上变压器,B316柱上变压器,B772柱上变压器,客户投资 D016柱上变压器,10kVB972配电室B972配电变压器,B326柱上变压器,B1735柱上变压器,B414柱上变压器,B1734柱上变压器,B1908柱上变压器,10kVB1736.B1740配电室B1740配电变压器,B1319柱上变压器,B3004柱上变压器,B3006柱上变压器,B784柱上变压器,B329柱上变压器,","scope":"【影响街道/乡镇】裕隆街、韩村南路、话剧院街、百花东路、东风中路 【高危重要客户】无 【影响客户】四里营铁路宿舍、田野宿舍、铁路十二房舍、大世界小区、西大园、农机小区、东风中路1684号院、四里营小区","startTime":"2019-10-18 10:44:30","stopDate":"2019-10-18 11:40:47","orgNo":"13406","typeCode":"电网故障停限电","poweroffArea":"【全线路停电】停0356237668-保定地质工程勘查院-专变,10kVB404配电室B404配电变压器,B1734柱上变压器,B479柱上变压器,0631993649-保定市广原地产有限公司-专变-144707200-变压器,变压器,10kVB1736.B1740配电室B1740配电变压器,0356222037-河北中兴汽车制造有限公司-1-配电室-变压器-2,10kVB3005箱式变电站B3005配电变压器,10kVB972配电室B972配电变压器,B317柱上变压器,10kVB1739箱式变电站B1739配电变压器,B316柱上变压器,B784柱上变压器,B329柱上变压器,0357716281-保定市职业技术教育中心-专变,B326柱上变压器,0631993649-保定市广原地产有限公司-专变-144707203-变压器,B330柱上变压器,B1319柱上变压器,B331柱上变压器,0356185101-市农委-专变,B287柱上变压器,B1908柱上变压器,10kVB738配电室B738配电变压器,B1737柱上变压器,B471柱上变压器,客户投资 D016柱上变压器,0356174338-中铁电气化局集团保定铁道变压器有限公司-1-配电室-变压器-2,B440柱上变压器,B288柱上变压器,0356232692-1保定通用热力有限公司-1-配电室-变压器-2,B1907柱上变压器,0549870977-交通银行股份有限公司保定分行-1-箱式变-变压器-1,10kVB1736.B1740配电室B1736配电变压器,B772柱上变压器,10kVB285箱式变电站B285配电变压器,B3006柱上变压器,B790柱上变压器,B1735柱上变压器,B414柱上变压器,B1738柱上变压器,B3004柱上变压器,0356237642-中铁电气化局集团北京建筑工程有限公司保定分公司-专变-185498030-变压器,10kVB1308配电室B1308配电变压器","poweroffReason":"【停电原因】由于站内开关掉闸导致１０ＫＶ朝阳路变电站５１６线路全线停电【变更送电】无【发布渠道】通过９５５９８发布","powerTime":"2019-10-18 11:21:44","powerComm":"已送电","subsNo":"","lineNo":"","tgNo":"","tgName":null,"infoStatus":"1","orgName":"保定供电公司","typeName":null,"infoStatusName":null,"dateDay":null,"orgNos":null,"nowTime":null,"countyName":null,"streetName":null,"villageName":null,"roadName":null,"communityName":null,"tranName":null,"sdLineName":null,"cityCode":"13406","cityName":"保定供电公司","provinceCode":null,"stopTime":"2019-10-18 11:40:47","powerType":"全部","powerOffArea":"【全线路停电】停0356237668-保定地质工程勘查院-专变,10kVB404配电室B404配电变压器,B1734柱上变压器,B479柱上变压器,0631993649-保定市广原地产有限公司-专变-144707200-变压器,变压器,10kVB1736.B1740配电室B1740配电变压器,0356222037-河北中兴汽车制造有限公司-1-配电室-变压器-2,10kVB3005箱式变电站B3005配电变压器,10kVB972配电室B972配电变压器,B317柱上变压器,10kVB1739箱式变电站B1739配电变压器,B316柱上变压器,B784柱上变压器,B329柱上变压器,0357716281-保定市职业技术教育中心-专变,B326柱上变压器,0631993649-保定市广原地产有限公司-专变-144707203-变压器,B330柱上变压器,B1319柱上变压器,B331柱上变压器,0356185101-市农委-专变,B287柱上变压器,B1908柱上变压器,10kVB738配电室B738配电变压器,B1737柱上变压器,B471柱上变压器,客户投资 D016柱上变压器,0356174338-中铁电气化局集团保定铁道变压器有限公司-1-配电室-变压器-2,B440柱上变压器,B288柱上变压器,0356232692-1保定通用热力有限公司-1-配电室-变压器-2,B1907柱上变压器,0549870977-交通银行股份有限公司保定分行-1-箱式变-变压器-1,10kVB1736.B1740配电室B1736配电变压器,B772柱上变压器,10kVB285箱式变电站B285配电变压器,B3006柱上变压器,B790柱上变压器,B1735柱上变压器,B414柱上变压器,B1738柱上变压器,B3004柱上变压器,0356237642-中铁电气化局集团北京建筑工程有限公司保定分公司-专变-185498030-变压器,10kVB1308配电室B1308配电变压器","powerOffReason":"【停电原因】由于站内开关掉闸导致１０ＫＶ朝阳路变电站５１６线路全线停电【变更送电】无【发布渠道】通过９５５９８发布","powerOffId":"2019101813000115"},{"poweroffId":2019101813000081,"sgpoweroffId":null,"subsName":"","lineName":"10kV薛留营站527线路","pubTranName":"B097柱上变压器,","scope":"【影响街道/乡镇】西关大街、光华路 【高危重要客户】无 【影响客户】银行宿舍、光华小区","startTime":"2019-10-29 09:00:00","stopDate":"2019-10-29 13:00:00","orgNo":"13406","typeCode":"计划停电","poweroffArea":"【单台区停电】停B097柱上变压器","poweroffReason":"【停电原因】由于供电设备临时检修导致１０ＫＶ薛留营变电站５２７线路Ｂ０９７公变台区停电【变更送电】因抢修进度加快，原定１６:００送电现计划１３:００送电【发布渠道】保定市保定有线电视台（１０月２１日２０时１５分至２１时４５分之间）屏幕上滚动","powerTime":"2019-10-29 12:35:55","powerComm":"已送电","subsNo":"","lineNo":"","tgNo":"","tgName":null,"infoStatus":"1","orgName":"保定供电公司","typeName":null,"infoStatusName":null,"dateDay":null,"orgNos":null,"nowTime":null,"countyName":null,"streetName":null,"villageName":null,"roadName":null,"communityName":null,"tranName":null,"sdLineName":null,"cityCode":"13406","cityName":"保定供电公司","provinceCode":null,"stopTime":"2019-10-29 13:00:00","powerType":"全部","powerOffArea":"【单台区停电】停B097柱上变压器","powerOffReason":"【停电原因】由于供电设备临时检修导致１０ＫＶ薛留营变电站５２７线路Ｂ０９７公变台区停电【变更送电】因抢修进度加快，原定１６:００送电现计划１３:００送电【发布渠道】保定市保定有线电视台（１０月２１日２０时１５分至２１时４５分之间）屏幕上滚动","powerOffId":"2019101813000081"},{"poweroffId":2019101813000055,"sgpoweroffId":null,"subsName":"","lineName":"房家庄线511","pubTranName":"房家庄光3,房家庄光11,新杨庄光4,新卷子光5,西重楼排3【纯农排变】,北重楼光1【2018年技改】,北谢光3,房家庄光4,北重楼光1,南重楼排1【纯农排变】,房家庄光10,南谢光1,房家庄光6,北谢光2,房家庄光8,南谢光2,南重楼光6,西重楼光1,北重楼光3,西重楼光5,房家庄光7,房家庄光2,北重楼光4,西重楼排5【纯农排变】,新房家庄光10【2018年四批补强】,南谢光6,南谢光4,房家庄光9,房家庄光5,西重楼光3,杨庄光1,北谢光1,南谢光5,杨庄光3,新北谢排1【纯农排变】,杨庄光2,北重楼光2,北重楼光5,西重楼混2,房家庄光1,","scope":"【影响街道/乡镇】杨村乡 【高危重要客户】无 【影响客户】房家庄、杨庄、北重楼、南谢、北谢、西重楼、东江村部分用户、南重楼部分用户、永鑫食品厂、房家庄幼儿园、南重楼幼儿园","startTime":"2019-10-18 09:29:50","stopDate":"2019-10-18 12:00:00","orgNo":"1340609","typeCode":"电网故障停限电","poweroffArea":"【全线路停电】停北重楼排3【纯农排变】,南谢排1【纯农排变】,北谢排2【纯农排变】,新杨庄光4,北重楼光1,西重楼混1,0694650970-定兴县南重楼幼儿园-专变-239106696-南重楼幼儿园,杨庄光1,杨庄光3,杨庄光2,西重楼排3【纯农排变】,北重楼光1【2018年技改】,房家庄光3,北谢光2,东江村排【纯农排变】,北重楼排4【纯农排变】,马大姐第三分公司（1000）,南重楼排1【纯农排变】,房家庄光10,北重楼排5【纯农排变】,南谢光1,房家庄光11,南谢排4【纯农排变】,西重楼光5,房家庄光6,北重楼排2【纯农排变】,房家庄排6【纯农排变】,新卷子光5,房家庄排3【纯农排变】,南谢排7【纯农排变】,永鑫食品厂315-1,房家庄排7【纯农排变】,房家庄排2【纯农排变】,房家庄光2,西重楼排5【纯农排变】,北重楼光2,北谢排1【纯农排变】,0011676821南重楼综合厂,房家庄光8,南谢光2,0011676822京兴磨石厂,房家庄光9,南谢光4,北谢光1,南谢光5,新北谢排1【纯农排变】,房家庄光5,杨庄排1【纯农排变】,南谢光6,南重楼光6,明德小学-400,西重楼光1,房家庄排8【纯农排变】,北重楼光3,北重楼光4,杨庄排2【纯农排变】,0691927613-定兴县房家庄幼儿园-专变-235695139-房家庄幼儿园-200,房家庄光7,永鑫食品厂315-2,房家庄排1【纯农排变】,房家庄排5【纯农排变】,新房家庄光10【2018年四批补强】,房家庄排4【纯农排变】,北谢光3,房家庄光4,新房家庄光3,北重楼光5,永鑫食品厂315-3,北重楼排1【纯农排变】,西重楼混2,杨庄排3【纯农排变】,房家庄光1,西重楼光3,西重楼排2【纯农排变】","poweroffReason":"【停电原因】由于北重楼鸡场分支电缆挖断导致３５ＫＶ杨村变电站房家庄线５１１线路全线停电 【变更送电】无 【发布渠道】通过９５５９８发布","powerTime":"2019-10-18 11:05:44","powerComm":"已送电","subsNo":"","lineNo":"","tgNo":"","tgName":null,"infoStatus":"1","orgName":"国网定兴县供电公司","typeName":null,"infoStatusName":null,"dateDay":null,"orgNos":null,"nowTime":null,"countyName":null,"streetName":null,"villageName":null,"roadName":null,"communityName":null,"tranName":null,"sdLineName":null,"cityCode":"1340609","cityName":"国网定兴县供电公司","provinceCode":null,"stopTime":"2019-10-18 12:00:00","powerType":"全部","powerOffArea":"【全线路停电】停北重楼排3【纯农排变】,南谢排1【纯农排变】,北谢排2【纯农排变】,新杨庄光4,北重楼光1,西重楼混1,0694650970-定兴县南重楼幼儿园-专变-239106696-南重楼幼儿园,杨庄光1,杨庄光3,杨庄光2,西重楼排3【纯农排变】,北重楼光1【2018年技改】,房家庄光3,北谢光2,东江村排【纯农排变】,北重楼排4【纯农排变】,马大姐第三分公司（1000）,南重楼排1【纯农排变】,房家庄光10,北重楼排5【纯农排变】,南谢光1,房家庄光11,南谢排4【纯农排变】,西重楼光5,房家庄光6,北重楼排2【纯农排变】,房家庄排6【纯农排变】,新卷子光5,房家庄排3【纯农排变】,南谢排7【纯农排变】,永鑫食品厂315-1,房家庄排7【纯农排变】,房家庄排2【纯农排变】,房家庄光2,西重楼排5【纯农排变】,北重楼光2,北谢排1【纯农排变】,0011676821南重楼综合厂,房家庄光8,南谢光2,0011676822京兴磨石厂,房家庄光9,南谢光4,北谢光1,南谢光5,新北谢排1【纯农排变】,房家庄光5,杨庄排1【纯农排变】,南谢光6,南重楼光6,明德小学-400,西重楼光1,房家庄排8【纯农排变】,北重楼光3,北重楼光4,杨庄排2【纯农排变】,0691927613-定兴县房家庄幼儿园-专变-235695139-房家庄幼儿园-200,房家庄光7,永鑫食品厂315-2,房家庄排1【纯农排变】,房家庄排5【纯农排变】,新房家庄光10【2018年四批补强】,房家庄排4【纯农排变】,北谢光3,房家庄光4,新房家庄光3,北重楼光5,永鑫食品厂315-3,北重楼排1【纯农排变】,西重楼混2,杨庄排3【纯农排变】,房家庄光1,西重楼光3,西重楼排2【纯农排变】","powerOffReason":"【停电原因】由于北重楼鸡场分支电缆挖断导致３５ＫＶ杨村变电站房家庄线５１１线路全线停电 【变更送电】无 【发布渠道】通过９５５９８发布","powerOffId":"2019101813000055"},{"poweroffId":2019101813000042,"sgpoweroffId":null,"subsName":"","lineName":"10KV徐里营531","pubTranName":"刁窝供电所（徐一村）【纯农排变】,","scope":"【影响街道/乡镇】刁窝乡 【高危重要客户】无 【影响客户】徐一村","startTime":"2019-10-28 08:00:00","stopDate":"2019-10-28 17:00:00","orgNo":"1340626","typeCode":"计划停电","poweroffArea":"【单台区停电】停刁窝供电所（徐一村）【纯农排变】","poweroffReason":"【停电原因】由于架设导线工程导致１１０ＫＶ刁窝变电站１０ＫＶ徐里营５３１线路刁窝供电所（徐一村）公变台区停电 【变更送电】无 【发布渠道】涿州电视台（１０月１８日至１０月２７日２１：００播放２次）屏幕上方滚动","powerTime":"2019-10-28 16:35:34","powerComm":"恢复送电","subsNo":"","lineNo":"","tgNo":"","tgName":null,"infoStatus":"1","orgName":"国网涿州市供电公司","typeName":null,"infoStatusName":null,"dateDay":null,"orgNos":null,"nowTime":null,"countyName":null,"streetName":null,"villageName":null,"roadName":null,"communityName":null,"tranName":null,"sdLineName":null,"cityCode":"1340626","cityName":"国网涿州市供电公司","provinceCode":null,"stopTime":"2019-10-28 17:00:00","powerType":"全部","powerOffArea":"【单台区停电】停刁窝供电所（徐一村）【纯农排变】","powerOffReason":"【停电原因】由于架设导线工程导致１１０ＫＶ刁窝变电站１０ＫＶ徐里营５３１线路刁窝供电所（徐一村）公变台区停电 【变更送电】无 【发布渠道】涿州电视台（１０月１８日至１０月２７日２１：００播放２次）屏幕上方滚动","powerOffId":"2019101813000042"},{"poweroffId":2019101813000038,"sgpoweroffId":null,"subsName":"","lineName":"10KV工业园Ⅰ线553","pubTranName":"史各庄村西1493,","scope":"【影响街道/乡镇】松林店镇 【高危重要客户】无 【影响客户】史各庄","startTime":"2019-10-28 07:00:00","stopDate":"2019-10-28 17:00:00","orgNo":"1340626","typeCode":"计划停电","poweroffArea":"【单台区停电】停史各庄村西1493","poweroffReason":"【停电原因】由于安装金具、架设导线工程导致１１０ＫＶ松林店变电站１０ＫＶ工业园Ｉ线５５３线路史各庄村西１４９３公变台区停电 【变更送电】无 【发布渠道】涿州电视台（１０月１８日至１０月２７日２１：００播放２次）屏幕上方滚动","powerTime":"2019-10-28 16:45:23","powerComm":"恢复送电","subsNo":"","lineNo":"","tgNo":"","tgName":null,"infoStatus":"1","orgName":"国网涿州市供电公司","typeName":null,"infoStatusName":null,"dateDay":null,"orgNos":null,"nowTime":null,"countyName":null,"streetName":null,"villageName":null,"roadName":null,"communityName":null,"tranName":null,"sdLineName":null,"cityCode":"1340626","cityName":"国网涿州市供电公司","provinceCode":null,"stopTime":"2019-10-28 17:00:00","powerType":"全部","powerOffArea":"【单台区停电】停史各庄村西1493","powerOffReason":"【停电原因】由于安装金具、架设导线工程导致１１０ＫＶ松林店变电站１０ＫＶ工业园Ｉ线５５３线路史各庄村西１４９３公变台区停电 【变更送电】无 【发布渠道】涿州电视台（１０月１８日至１０月２７日２１：００播放２次）屏幕上方滚动","powerOffId":"2019101813000038"},{"poweroffId":2019101813000033,"sgpoweroffId":null,"subsName":"","lineName":"10KV石屯574","pubTranName":"柳河村,","scope":"【影响街道/乡镇】豆庄乡 【高危重要客户】无 【影响客户】柳河村","startTime":"2019-10-28 07:30:00","stopDate":"2019-10-28 18:00:00","orgNo":"1340626","typeCode":"计划停电","poweroffArea":"【单台区停电】停柳河村","poweroffReason":"【停电原因】由于导线架设工程导致２２０ＫＶ豆庄变电站１０ＫＶ石屯５７４线路柳河村公变台区停电 【变更送电】无 【发布渠道】涿州电视台（１０月１８日至１０月２７日２１：００播放２次）屏幕上方滚动","powerTime":"2019-10-28 17:41:00","powerComm":"恢复送电","subsNo":"","lineNo":"","tgNo":"","tgName":null,"infoStatus":"1","orgName":"国网涿州市供电公司","typeName":null,"infoStatusName":null,"dateDay":null,"orgNos":null,"nowTime":null,"countyName":null,"streetName":null,"villageName":null,"roadName":null,"communityName":null,"tranName":null,"sdLineName":null,"cityCode":"1340626","cityName":"国网涿州市供电公司","provinceCode":null,"stopTime":"2019-10-28 18:00:00","powerType":"全部","powerOffArea":"【单台区停电】停柳河村","powerOffReason":"【停电原因】由于导线架设工程导致２２０ＫＶ豆庄变电站１０ＫＶ石屯５７４线路柳河村公变台区停电 【变更送电】无 【发布渠道】涿州电视台（１０月１８日至１０月２７日２１：００播放２次）屏幕上方滚动","powerOffId":"2019101813000033"},{"poweroffId":2019101813000032,"sgpoweroffId":null,"subsName":"","lineName":"10kV512杨东线","pubTranName":"杨东综合6台区,杨东综合4台区,杨东综合8台区,杨东综合1台区,老宽鸡厂,杨东综合2台区,杨东综合5台区,杨东综合9台区,杨东农排1台区【纯农排变】,通达针织厂,杨东综合7台区,杨东综合10台区,杨东综合3台区,鑫辉毛纺厂,","scope":"【影响街道/乡镇】桑元镇【高危重要客户】无【影响客户】杨东村","startTime":"2019-10-18 08:48:29","stopDate":"2019-10-18 13:30:00","orgNo":"1340616","typeCode":"电网故障停限电","poweroffArea":"【全线路停电】停通达针织厂,老宽鸡厂,杨东综合10台区,杨东综合4台区,杨东综合3台区,杨东综合8台区,杨东综合7台区,杨东综合6台区,杨东综合5台区,杨东综合1台区,鑫辉毛纺厂,杨东农排1台区【纯农排变】,杨东综合9台区,杨东综合2台区","poweroffReason":"【停电原因】由于站内开关掉闸导致３５ＫＶ桑园变电站１０ＫＶ杨东５１２线路全线停电【变更送电】因抢修进度加快原因，送电时间由１８:００变更为１３:３０【发布渠道】通过９５５９８发布","powerTime":"2019-10-18 12:43:23","powerComm":"已送电","subsNo":"","lineNo":"","tgNo":"","tgName":null,"infoStatus":"1","orgName":"国网蠡县供电公司","typeName":null,"infoStatusName":null,"dateDay":null,"orgNos":null,"nowTime":null,"countyName":null,"streetName":null,"villageName":null,"roadName":null,"communityName":null,"tranName":null,"sdLineName":null,"cityCode":"1340616","cityName":"国网蠡县供电公司","provinceCode":null,"stopTime":"2019-10-18 13:30:00","powerType":"全部","powerOffArea":"【全线路停电】停通达针织厂,老宽鸡厂,杨东综合10台区,杨东综合4台区,杨东综合3台区,杨东综合8台区,杨东综合7台区,杨东综合6台区,杨东综合5台区,杨东综合1台区,鑫辉毛纺厂,杨东农排1台区【纯农排变】,杨东综合9台区,杨东综合2台区","powerOffReason":"【停电原因】由于站内开关掉闸导致３５ＫＶ桑园变电站１０ＫＶ杨东５１２线路全线停电【变更送电】因抢修进度加快原因，送电时间由１８:００变更为１３:３０【发布渠道】通过９５５９８发布","powerOffId":"2019101813000032"},{"poweroffId":2019101813000016,"sgpoweroffId":null,"subsName":"","lineName":"10kV524白云线","pubTranName":"阳辛庄村光伏扶贫变压器【光伏】,东阳各庄综合,阳辛庄南3420|21003420,淋间村北新增综合1号7983,阳辛庄村中综合7585,林涧村东综合,淋涧3500|21003500,西阳各庄综合2号5378,阳辛庄北3430|21003430,东阳各庄东3210|21003210,西阳各庄3310|21003310,淋涧西综合,峨山村北综合,下庄3380|21003380,东阳各庄村西新增综合,峨山村西10810|21010810,峨山北3360|21003360,峨山南10640|21010640,西阳各庄村东新增综合,东阳各庄北3220|21003220,南吕村西综合0007,东阳各庄村光伏扶贫变压器【光伏】,峨山中3350|21003350,下庄南综合,东阳各庄中3200|21003200,峨山村东综合2859,东阳各庄西9680|21009680,南吕南3190|21003190,南吕村西新增综合0914,","scope":"【影响街道/乡镇】白云乡【高危重要客户】无【影响客户】东阳各庄村、西阳各庄村、峨山、南吕、下庄、阳辛庄、林涧、白大村、中国电信、顺平县路通水泥砖销售处","startTime":"2019-10-18 06:07:51","stopDate":"2019-10-18 10:00:00","orgNo":"1340621","typeCode":"电网故障停限电","poweroffArea":"【全线路停电】停东阳各庄小雷3240农排|21003240【纯农排变】,峨山中3350|21003350,顺平县路通水泥砖销售处,西阳各庄3340农排|21003340【纯农排变】,阳辛庄村中综合7585,东阳各庄村西新增综合,淋涧3500|21003500,淋间村北新增综合1号7983,阳辛庄村北农排【纯农排变】,阳辛庄鸡厂9960农排|21009960【纯农排变】","poweroffReason":"【停电原因】由于飞鸟触线造成跳闸导致１１０ＫＶ甘城变电站１０ＫＶ５２４白云线路全线停电【变更送电】因抢修进度加快原因，送电时间由１７：００变更为１０：００【发布渠道】通过９５５９８发布","powerTime":"2019-10-18 09:11:45","powerComm":"已送电","subsNo":"","lineNo":"","tgNo":"","tgName":null,"infoStatus":"1","orgName":"国网顺平县电力局","typeName":null,"infoStatusName":null,"dateDay":null,"orgNos":null,"nowTime":null,"countyName":null,"streetName":null,"villageName":null,"roadName":null,"communityName":null,"tranName":null,"sdLineName":null,"cityCode":"1340621","cityName":"国网顺平县电力局","provinceCode":null,"stopTime":"2019-10-18 10:00:00","powerType":"全部","powerOffArea":"【全线路停电】停东阳各庄小雷3240农排|21003240【纯农排变】,峨山中3350|21003350,顺平县路通水泥砖销售处,西阳各庄3340农排|21003340【纯农排变】,阳辛庄村中综合7585,东阳各庄村西新增综合,淋涧3500|21003500,淋间村北新增综合1号7983,阳辛庄村北农排【纯农排变】,阳辛庄鸡厂9960农排|21009960【纯农排变】","powerOffReason":"【停电原因】由于飞鸟触线造成跳闸导致１１０ＫＶ甘城变电站１０ＫＶ５２４白云线路全线停电【变更送电】因抢修进度加快原因，送电时间由１７：００变更为１０：００【发布渠道】通过９５５９８发布","powerOffId":"2019101813000016"},{"poweroffId":2019101713000432,"sgpoweroffId":null,"subsName":"","lineName":"10kV朝阳路站517线路","pubTranName":"10kVY0289.Y0290配电室Y0290配电变压器,10kVY0289.Y0290配电室Y0289配电变压器,B390柱上变压器,","scope":"【影响街道/乡镇】灵雨寺街、桥口街、朝阳南路 【高危重要客户】无 【影响客户】亢龙盛景、灵雨寺村","startTime":"2019-10-17 22:00:00","stopDate":"2019-10-17 23:00:00","orgNo":"13406","typeCode":"电网故障停限电","poweroffArea":"【全线路停电】停0358021766-保定职业技术学院-2#专变,0356172954-保定市冶炼厂-专变,B390柱上变压器,0356341534-保定市路灯管理处-专变,0356523925-保定市交通局-2#专变,0627313183-河北广厦物业服务有限公司-专变-139257731-变压器,10kVY0289.Y0290配电室Y0290配电变压器,10kVY0289.Y0290配电室Y0289配电变压器","poweroffReason":"【停电原因】由于分支开关短路导致１０ＫＶ朝阳路变电站５１７线路全线停电【变更送电】无【发布渠道】通过９５５９８发布","powerTime":"2019-10-17 22:31:19","powerComm":"已送电","subsNo":"","lineNo":"","tgNo":"","tgName":null,"infoStatus":"1","orgName":"保定供电公司","typeName":null,"infoStatusName":null,"dateDay":null,"orgNos":null,"nowTime":null,"countyName":null,"streetName":null,"villageName":null,"roadName":null,"communityName":null,"tranName":null,"sdLineName":null,"cityCode":"13406","cityName":"保定供电公司","provinceCode":null,"stopTime":"2019-10-17 23:00:00","powerType":"全部","powerOffArea":"【全线路停电】停0358021766-保定职业技术学院-2#专变,0356172954-保定市冶炼厂-专变,B390柱上变压器,0356341534-保定市路灯管理处-专变,0356523925-保定市交通局-2#专变,0627313183-河北广厦物业服务有限公司-专变-139257731-变压器,10kVY0289.Y0290配电室Y0290配电变压器,10kVY0289.Y0290配电室Y0289配电变压器","powerOffReason":"【停电原因】由于分支开关短路导致１０ＫＶ朝阳路变电站５１７线路全线停电【变更送电】无【发布渠道】通过９５５９８发布","powerOffId":"2019101713000432"}],"pageModel":{"pageNow":487,"totalCount":10973,"totalPage":1098,"tableRows":0,"pageCount":10,"beginCount":4860},"isExperi":"1"}