{"message":"","today":"2020-06-15","seleList":[{"poweroffId":2019101713000301,"sgpoweroffId":null,"subsName":"","lineName":"10kV557西疃线","pubTranName":"内化公用照明11台区,内化公用照明12台区,西疃公用照明8台区,内化公用照明2台区,内化公用照明8台区,内化公用照明4台区,杨庄屯公用照明3台区,大杨庄公用照明2台区,内化公用照明1台区,内化公用照明6台区,内化公用照明10台区,西町公用照明4台区,内化公用照明9台区,杨庄屯公用照明2台区,西疃公用照明5台区,杨庄屯公用照明1台区,内化公用照明3台区,西町公用照明3台区,内化公用照明13台区,内化公用照明5台区,大杨庄公用照明3台区,大杨庄公用照明1台区,西疃公用照明9台区,大杨庄公用照明4台区,西疃公用照明6台区,西疃公用照明7台区,内化公用照明7台区,西町公用照明2台区,","scope":"【影响街道/乡镇】开元镇【高危重要客户】无【影响客户】大杨庄、杨庄屯、内化、西念自疃（西疃）","startTime":"2019-11-02 07:00:00","stopDate":"2019-11-02 17:30:00","orgNo":"1340610","typeCode":"计划停电","poweroffArea":"【全线路停电】停内化公用照明11台区,内化公用照明12台区,西疃公用照明8台区,内化公用照明2台区,内化公用照明8台区,内化公用照明4台区,杨庄屯公用照明3台区,大杨庄公用照明2台区,内化公用照明1台区,内化公用照明6台区,内化公用照明10台区,西町公用照明4台区,内化公用照明9台区,杨庄屯公用照明2台区,西疃公用照明5台区,杨庄屯公用照明1台区,内化公用照明3台区,西町公用照明3台区,内化公用照明13台区,内化公用照明5台区,大杨庄公用照明3台区,大杨庄公用照明1台区,西疃公用照明9台区,大杨庄公用照明4台区,西疃公用照明6台区,西疃公用照明7台区,内化公用照明7台区,西町公用照明2台区","poweroffReason":"【停电原因】由于新立电杆、新架导线、高压引线接引导致１１０ＫＶ新民变电站１０ＫＶ５５７西疃线路全线停电 【变更送电】无 【发布渠道】河北省定州市定州日报第三版（２０１９年１０月１８日）","powerTime":"2019-11-02 16:48:08","powerComm":"已送电","subsNo":"","lineNo":"","tgNo":"","tgName":null,"infoStatus":"1","orgName":"国网定州市供电公司","typeName":null,"infoStatusName":null,"dateDay":null,"orgNos":null,"nowTime":null,"countyName":null,"streetName":null,"villageName":null,"roadName":null,"communityName":null,"tranName":null,"sdLineName":null,"cityCode":"1340610","cityName":"国网定州市供电公司","provinceCode":null,"stopTime":"2019-11-02 17:30:00","powerType":"全部","powerOffArea":"【全线路停电】停内化公用照明11台区,内化公用照明12台区,西疃公用照明8台区,内化公用照明2台区,内化公用照明8台区,内化公用照明4台区,杨庄屯公用照明3台区,大杨庄公用照明2台区,内化公用照明1台区,内化公用照明6台区,内化公用照明10台区,西町公用照明4台区,内化公用照明9台区,杨庄屯公用照明2台区,西疃公用照明5台区,杨庄屯公用照明1台区,内化公用照明3台区,西町公用照明3台区,内化公用照明13台区,内化公用照明5台区,大杨庄公用照明3台区,大杨庄公用照明1台区,西疃公用照明9台区,大杨庄公用照明4台区,西疃公用照明6台区,西疃公用照明7台区,内化公用照明7台区,西町公用照明2台区","powerOffReason":"【停电原因】由于新立电杆、新架导线、高压引线接引导致１１０ＫＶ新民变电站１０ＫＶ５５７西疃线路全线停电 【变更送电】无 【发布渠道】河北省定州市定州日报第三版（２０１９年１０月１８日）","powerOffId":"2019101713000301"},{"poweroffId":2019101713000297,"sgpoweroffId":null,"subsName":"","lineName":"10kV519新一中线","pubTranName":"南角羊公用照明6台区,南角羊公用照明7台区,","scope":"【影响街道/乡镇】杨家庄乡【高危重要客户】无【影响客户】南角羊","startTime":"2019-11-02 06:40:00","stopDate":"2019-11-02 20:30:00","orgNo":"1340610","typeCode":"计划停电","poweroffArea":"【分支停电】停南角羊公用照明7台区,南角羊公用照明6台区","poweroffReason":"【停电原因】由于更换变压器导致１１０ＫＶ总司屯变电站１０ＫＶ５１９新一中线路乡政府分支０４号杆７９号隔离开关以下线路停电 【变更送电】无 【发布渠道】河北省定州市定州日报第三版（２０１９年１０月１８日）","powerTime":"2019-11-02 20:03:33","powerComm":"已送电","subsNo":"","lineNo":"","tgNo":"","tgName":null,"infoStatus":"1","orgName":"国网定州市供电公司","typeName":null,"infoStatusName":null,"dateDay":null,"orgNos":null,"nowTime":null,"countyName":null,"streetName":null,"villageName":null,"roadName":null,"communityName":null,"tranName":null,"sdLineName":null,"cityCode":"1340610","cityName":"国网定州市供电公司","provinceCode":null,"stopTime":"2019-11-02 20:30:00","powerType":"全部","powerOffArea":"【分支停电】停南角羊公用照明7台区,南角羊公用照明6台区","powerOffReason":"【停电原因】由于更换变压器导致１１０ＫＶ总司屯变电站１０ＫＶ５１９新一中线路乡政府分支０４号杆７９号隔离开关以下线路停电 【变更送电】无 【发布渠道】河北省定州市定州日报第三版（２０１９年１０月１８日）","powerOffId":"2019101713000297"},{"poweroffId":2019101713000296,"sgpoweroffId":null,"subsName":"","lineName":"10kV519新一中线","pubTranName":"八里店(002):照明1台区,八里店公用照明10台区,八里店(002):照明2台区,","scope":"【影响街道/乡镇】杨家庄乡【高危重要客户】无【影响客户】八里店","startTime":"2019-11-03 06:00:00","stopDate":"2019-11-03 19:30:00","orgNo":"1340610","typeCode":"计划停电","poweroffArea":"【分支停电】停八里店(002):照明2台区,八里店(002):照明1台区,八里店公用照明10台区","poweroffReason":"【停电原因】由于更换变压器导致１１０ＫＶ总司屯变电站１０ＫＶ５１９新一中线路八里店村内分支１７号杆７１号隔离开关以下线路停电 【变更送电】无 【发布渠道】河北省定州市定州日报第三版（２０１９年１０月１８日）","powerTime":"2019-11-03 19:07:23","powerComm":"已送电","subsNo":"","lineNo":"","tgNo":"","tgName":null,"infoStatus":"1","orgName":"国网定州市供电公司","typeName":null,"infoStatusName":null,"dateDay":null,"orgNos":null,"nowTime":null,"countyName":null,"streetName":null,"villageName":null,"roadName":null,"communityName":null,"tranName":null,"sdLineName":null,"cityCode":"1340610","cityName":"国网定州市供电公司","provinceCode":null,"stopTime":"2019-11-03 19:30:00","powerType":"全部","powerOffArea":"【分支停电】停八里店(002):照明2台区,八里店(002):照明1台区,八里店公用照明10台区","powerOffReason":"【停电原因】由于更换变压器导致１１０ＫＶ总司屯变电站１０ＫＶ５１９新一中线路八里店村内分支１７号杆７１号隔离开关以下线路停电 【变更送电】无 【发布渠道】河北省定州市定州日报第三版（２０１９年１０月１８日）","powerOffId":"2019101713000296"},{"poweroffId":2019101713000295,"sgpoweroffId":null,"subsName":"","lineName":"明开575","pubTranName":"营房村1#,","scope":"【影响街道/乡镇】易州镇【高危重要客户】无【影响客户】营房村","startTime":"2019-10-18 05:00:00","stopDate":"2019-10-18 12:00:00","orgNo":"1340625","typeCode":"其他临时停电","poweroffArea":"【单台区停电】停营房村1#","poweroffReason":"【停电原因】由于紧急消缺导致１１０ＫＶ店北变电站明开５７５线路营房村１＃公变台区停电【变更送电】无【发布渠道】通过９５５９８发布","powerTime":"2019-10-18 11:33:25","powerComm":"已送电","subsNo":"","lineNo":"","tgNo":"","tgName":null,"infoStatus":"1","orgName":"国网易县供电公司","typeName":null,"infoStatusName":null,"dateDay":null,"orgNos":null,"nowTime":null,"countyName":null,"streetName":null,"villageName":null,"roadName":null,"communityName":null,"tranName":null,"sdLineName":null,"cityCode":"1340625","cityName":"国网易县供电公司","provinceCode":null,"stopTime":"2019-10-18 12:00:00","powerType":"全部","powerOffArea":"【单台区停电】停营房村1#","powerOffReason":"【停电原因】由于紧急消缺导致１１０ＫＶ店北变电站明开５７５线路营房村１＃公变台区停电【变更送电】无【发布渠道】通过９５５９８发布","powerOffId":"2019101713000295"},{"poweroffId":2019101713000281,"sgpoweroffId":null,"subsName":"","lineName":"10kV553杨家庄线","pubTranName":"霍羊平村公用照明2台区,","scope":"【影响街道/乡镇】杨家庄乡【高危重要客户】无【影响客户】霍阳平","startTime":"2019-11-02 06:30:00","stopDate":"2019-11-02 18:20:00","orgNo":"1340610","typeCode":"计划停电","poweroffArea":"【分支停电】停霍羊平村公用照明2台区","poweroffReason":"【停电原因】由于更换变压器导致１１０ＫＶ叮咛店变电站１０ＫＶ５５３杨家庄线路霍羊平分支１３号杆６１号隔离开关以下线路停电 【变更送电】因抢修进度加快原因，送电时间由１９：３０变更为１８：２０ 【发布渠道】河北省定州市定州日报第三版（２０１９年１０月１８日）","powerTime":"2019-11-02 18:12:19","powerComm":"已送电","subsNo":"","lineNo":"","tgNo":"","tgName":null,"infoStatus":"1","orgName":"国网定州市供电公司","typeName":null,"infoStatusName":null,"dateDay":null,"orgNos":null,"nowTime":null,"countyName":null,"streetName":null,"villageName":null,"roadName":null,"communityName":null,"tranName":null,"sdLineName":null,"cityCode":"1340610","cityName":"国网定州市供电公司","provinceCode":null,"stopTime":"2019-11-02 18:20:00","powerType":"全部","powerOffArea":"【分支停电】停霍羊平村公用照明2台区","powerOffReason":"【停电原因】由于更换变压器导致１１０ＫＶ叮咛店变电站１０ＫＶ５５３杨家庄线路霍羊平分支１３号杆６１号隔离开关以下线路停电 【变更送电】因抢修进度加快原因，送电时间由１９：３０变更为１８：２０ 【发布渠道】河北省定州市定州日报第三版（２０１９年１０月１８日）","powerOffId":"2019101713000281"},{"poweroffId":2019101713000277,"sgpoweroffId":null,"subsName":"","lineName":"10kV553杨家庄线","pubTranName":"（3）霍羊平村公用照明1台区,","scope":"【影响街道/乡镇】南城区、杨家庄乡【高危重要客户】无【影响客户】霍阳平","startTime":"2019-11-02 06:20:00","stopDate":"2019-11-02 18:10:00","orgNo":"1340610","typeCode":"计划停电","poweroffArea":"【分支停电】停（3）霍羊平村公用照明1台区","poweroffReason":"【停电原因】由于更换变压器导致１１０ＫＶ叮咛店变电站１０ＫＶ５５３杨家庄线路霍羊平分支１６号杆６２号隔离开关以下线路停电 【变更送电】因抢修进度加快原因，送电时间由１９：３０变更为１８：１０ 【发布渠道】河北省定州市定州日报第三版（２０１９年１０月１８日）","powerTime":"2019-11-02 17:55:36","powerComm":"已送电","subsNo":"","lineNo":"","tgNo":"","tgName":null,"infoStatus":"1","orgName":"国网定州市供电公司","typeName":null,"infoStatusName":null,"dateDay":null,"orgNos":null,"nowTime":null,"countyName":null,"streetName":null,"villageName":null,"roadName":null,"communityName":null,"tranName":null,"sdLineName":null,"cityCode":"1340610","cityName":"国网定州市供电公司","provinceCode":null,"stopTime":"2019-11-02 18:10:00","powerType":"全部","powerOffArea":"【分支停电】停（3）霍羊平村公用照明1台区","powerOffReason":"【停电原因】由于更换变压器导致１１０ＫＶ叮咛店变电站１０ＫＶ５５３杨家庄线路霍羊平分支１６号杆６２号隔离开关以下线路停电 【变更送电】因抢修进度加快原因，送电时间由１９：３０变更为１８：１０ 【发布渠道】河北省定州市定州日报第三版（２０１９年１０月１８日）","powerOffId":"2019101713000277"},{"poweroffId":2019101713000276,"sgpoweroffId":null,"subsName":"","lineName":"10kV519新一中线","pubTranName":"西里元(027):照明2台区,西里元(027):照明1台区,西里元照明4台区,西里元照明5台区,","scope":"【影响街道/乡镇】北城区【高危重要客户】无【影响客户】西里元","startTime":"2019-11-03 06:10:00","stopDate":"2019-11-03 20:00:00","orgNo":"1340610","typeCode":"计划停电","poweroffArea":"【分支停电】停西里元(027):照明2台区,西里元(027):照明1台区,西里元照明4台区,西里元照明5台区","poweroffReason":"【停电原因】由于更换电杆导致１１０ＫＶ总司屯变电站１０ＫＶ５１９新一中线路主干３０号杆２０号隔离开关以下线路停电 【变更送电】无 【发布渠道】河北省定州市定州日报第三版（２０１９年１０月１８日）","powerTime":"2019-11-03 19:31:12","powerComm":"已送电","subsNo":"","lineNo":"","tgNo":"","tgName":null,"infoStatus":"1","orgName":"国网定州市供电公司","typeName":null,"infoStatusName":null,"dateDay":null,"orgNos":null,"nowTime":null,"countyName":null,"streetName":null,"villageName":null,"roadName":null,"communityName":null,"tranName":null,"sdLineName":null,"cityCode":"1340610","cityName":"国网定州市供电公司","provinceCode":null,"stopTime":"2019-11-03 20:00:00","powerType":"全部","powerOffArea":"【分支停电】停西里元(027):照明2台区,西里元(027):照明1台区,西里元照明4台区,西里元照明5台区","powerOffReason":"【停电原因】由于更换电杆导致１１０ＫＶ总司屯变电站１０ＫＶ５１９新一中线路主干３０号杆２０号隔离开关以下线路停电 【变更送电】无 【发布渠道】河北省定州市定州日报第三版（２０１９年１０月１８日）","powerOffId":"2019101713000276"},{"poweroffId":2019101713000269,"sgpoweroffId":null,"subsName":"","lineName":"10kV569于家佐线","pubTranName":"高家庄公用照明1台区,","scope":"【影响街道/乡镇】开元镇【高危重要客户】无【影响客户】高家庄","startTime":"2019-11-04 06:50:00","stopDate":"2019-11-04 18:00:00","orgNo":"1340610","typeCode":"计划停电","poweroffArea":"【分支停电】停高家庄公用照明1台区","poweroffReason":"【停电原因】由于更换变压器导致１１０ＫＶ明月店变电站１０ＫＶ５６９于家佐线路高家庄１分支０３号杆０７号隔离开关以下线路停电 【变更送电】因抢修进度加快原因，送电时间由１８：３０变更为１８：００ 【发布渠道】河北省定州市定州日报第三版（１０月１８日）","powerTime":"2019-11-04 17:25:01","powerComm":"已送电","subsNo":"","lineNo":"","tgNo":"","tgName":null,"infoStatus":"1","orgName":"国网定州市供电公司","typeName":null,"infoStatusName":null,"dateDay":null,"orgNos":null,"nowTime":null,"countyName":null,"streetName":null,"villageName":null,"roadName":null,"communityName":null,"tranName":null,"sdLineName":null,"cityCode":"1340610","cityName":"国网定州市供电公司","provinceCode":null,"stopTime":"2019-11-04 18:00:00","powerType":"全部","powerOffArea":"【分支停电】停高家庄公用照明1台区","powerOffReason":"【停电原因】由于更换变压器导致１１０ＫＶ明月店变电站１０ＫＶ５６９于家佐线路高家庄１分支０３号杆０７号隔离开关以下线路停电 【变更送电】因抢修进度加快原因，送电时间由１８：３０变更为１８：００ 【发布渠道】河北省定州市定州日报第三版（１０月１８日）","powerOffId":"2019101713000269"},{"poweroffId":2019101713000268,"sgpoweroffId":null,"subsName":"","lineName":"10kV553杨家庄线","pubTranName":"刘催邱公用照明1台区,（67）刘催邱村公用照明2台区,","scope":"【影响街道/乡镇】南城区、杨家庄乡【高危重要客户】无【影响客户】刘崔邱","startTime":"2019-11-02 06:30:00","stopDate":"2019-11-02 18:00:00","orgNo":"1340610","typeCode":"计划停电","poweroffArea":"【分支停电】停刘催邱公用照明1台区,（67）刘催邱村公用照明2台区","poweroffReason":"【停电原因】由于更换变压器导致１１０ＫＶ叮咛店变电站１０ＫＶ５５３杨家庄线路刘崔邱０１号杆５４号隔离开关以下线路停电 【变更送电】因抢修进度加快原因，送电时间由１９：３０变更为１８：００ 【发布渠道】河北省定州市定州日报第三版（２０１９年１０月１８日）","powerTime":"2019-11-02 17:22:24","powerComm":"已送电","subsNo":"","lineNo":"","tgNo":"","tgName":null,"infoStatus":"1","orgName":"国网定州市供电公司","typeName":null,"infoStatusName":null,"dateDay":null,"orgNos":null,"nowTime":null,"countyName":null,"streetName":null,"villageName":null,"roadName":null,"communityName":null,"tranName":null,"sdLineName":null,"cityCode":"1340610","cityName":"国网定州市供电公司","provinceCode":null,"stopTime":"2019-11-02 18:00:00","powerType":"全部","powerOffArea":"【分支停电】停刘催邱公用照明1台区,（67）刘催邱村公用照明2台区","powerOffReason":"【停电原因】由于更换变压器导致１１０ＫＶ叮咛店变电站１０ＫＶ５５３杨家庄线路刘崔邱０１号杆５４号隔离开关以下线路停电 【变更送电】因抢修进度加快原因，送电时间由１９：３０变更为１８：００ 【发布渠道】河北省定州市定州日报第三版（２０１９年１０月１８日）","powerOffId":"2019101713000268"},{"poweroffId":2019101713000261,"sgpoweroffId":null,"subsName":"","lineName":"10kV576大近同线","pubTranName":"东疃公用照明13台区,东町公用照明3台区,东疃公用照明9台区,东疃公用照明8台区,东疃公用照明6台区,东町公用照明1台区,东疃公用照明10台区,东町公用照明5台区,东疃公用照明4台区,东疃公用照明11台区,东町公用照明2台区,东疃公用照明7台区,东疃公用照明12台区,","scope":"【影响街道/乡镇】开元镇、赵村乡【高危重要客户】无【影响客户】东念自疃村（东疃、东町）","startTime":"2019-11-01 09:00:00","stopDate":"2019-11-01 13:00:00","orgNo":"1340610","typeCode":"计划停电","poweroffArea":"【分支停电】停东疃公用照明13台区,东町公用照明3台区,东疃公用照明9台区,东疃公用照明8台区,东疃公用照明6台区,东町公用照明1台区,东疃公用照明10台区,东町公用照明5台区,东疃公用照明4台区,东疃公用照明11台区,东町公用照明2台区,东疃公用照明7台区,东疃公用照明12台区","poweroffReason":"【停电原因】由于新架导线、高压引线接引导致１１０ＫＶ明月店变电站１０ＫＶ５７６大近同线路东疃街南分支０１号杆０２号断路器以下线路停电 【变更送电】无 【发布渠道】河北省定州市定州日报第三版（２０１９年１０月１８日）","powerTime":"2019-11-01 12:37:40","powerComm":"已送电","subsNo":"","lineNo":"","tgNo":"","tgName":null,"infoStatus":"1","orgName":"国网定州市供电公司","typeName":null,"infoStatusName":null,"dateDay":null,"orgNos":null,"nowTime":null,"countyName":null,"streetName":null,"villageName":null,"roadName":null,"communityName":null,"tranName":null,"sdLineName":null,"cityCode":"1340610","cityName":"国网定州市供电公司","provinceCode":null,"stopTime":"2019-11-01 13:00:00","powerType":"全部","powerOffArea":"【分支停电】停东疃公用照明13台区,东町公用照明3台区,东疃公用照明9台区,东疃公用照明8台区,东疃公用照明6台区,东町公用照明1台区,东疃公用照明10台区,东町公用照明5台区,东疃公用照明4台区,东疃公用照明11台区,东町公用照明2台区,东疃公用照明7台区,东疃公用照明12台区","powerOffReason":"【停电原因】由于新架导线、高压引线接引导致１１０ＫＶ明月店变电站１０ＫＶ５７６大近同线路东疃街南分支０１号杆０２号断路器以下线路停电 【变更送电】无 【发布渠道】河北省定州市定州日报第三版（２０１９年１０月１８日）","powerOffId":"2019101713000261"}],"pageModel":{"pageNow":489,"totalCount":10973,"totalPage":1098,"tableRows":0,"pageCount":10,"beginCount":4880},"isExperi":"1"}