{"message":"","today":"2020-06-15","seleList":[{"poweroffId":2019101713000198,"sgpoweroffId":null,"subsName":"","lineName":"10kV512周村工业线","pubTranName":"周村公用照明16台区,周村公用照明15台区,周村村南口,周村正南,周村路西,","scope":"【影响街道/乡镇】周村乡【高危重要客户】无【影响客户】周村","startTime":"2019-10-31 05:00:00","stopDate":"2019-10-31 18:00:00","orgNo":"1340610","typeCode":"计划停电","poweroffArea":"【全线路停电】停周村公用照明16台区,周村公用照明15台区,周村村南口,周村正南,周村路西","poweroffReason":"【停电原因】由于更换开关导致３５ＫＶ周村变电站１０ＫＶ５１２周村工业线路全线停电 【变更送电】无 【发布渠道】河北省定州市定州日报第三版（２０１９年１０月１８日）","powerTime":"2019-10-31 17:55:19","powerComm":"已送电","subsNo":"","lineNo":"","tgNo":"","tgName":null,"infoStatus":"1","orgName":"国网定州市供电公司","typeName":null,"infoStatusName":null,"dateDay":null,"orgNos":null,"nowTime":null,"countyName":null,"streetName":null,"villageName":null,"roadName":null,"communityName":null,"tranName":null,"sdLineName":null,"cityCode":"1340610","cityName":"国网定州市供电公司","provinceCode":null,"stopTime":"2019-10-31 18:00:00","powerType":"全部","powerOffArea":"【全线路停电】停周村公用照明16台区,周村公用照明15台区,周村村南口,周村正南,周村路西","powerOffReason":"【停电原因】由于更换开关导致３５ＫＶ周村变电站１０ＫＶ５１２周村工业线路全线停电 【变更送电】无 【发布渠道】河北省定州市定州日报第三版（２０１９年１０月１８日）","powerOffId":"2019101713000198"},{"poweroffId":2019101713000197,"sgpoweroffId":null,"subsName":"","lineName":"10kV548六家村线","pubTranName":"南高蓬村公用照明1台区,南高蓬村公用照明2台区,南高蓬公用照明3台区,","scope":"【影响街道/乡镇】高蓬镇【高危重要客户】无【影响客户】南高蓬","startTime":"2019-10-27 07:20:00","stopDate":"2019-10-27 17:20:00","orgNo":"1340610","typeCode":"计划停电","poweroffArea":"【分支停电】停南高蓬村公用照明1台区,南高蓬村公用照明2台区,南高蓬公用照明3台区","poweroffReason":"【停电原因】由于更换导线、更换电杆导致１１０ＫＶ庞村变电站１０ＫＶ５４８六家村线路北高蓬１分支２３号杆４１号隔离开关以下线路停电 【变更送电】无 【发布渠道】河北省定州市定州日报第三版（２０１９年１０月１８日）","powerTime":"2019-10-27 16:44:52","powerComm":"已送电","subsNo":"","lineNo":"","tgNo":"","tgName":null,"infoStatus":"1","orgName":"国网定州市供电公司","typeName":null,"infoStatusName":null,"dateDay":null,"orgNos":null,"nowTime":null,"countyName":null,"streetName":null,"villageName":null,"roadName":null,"communityName":null,"tranName":null,"sdLineName":null,"cityCode":"1340610","cityName":"国网定州市供电公司","provinceCode":null,"stopTime":"2019-10-27 17:20:00","powerType":"全部","powerOffArea":"【分支停电】停南高蓬村公用照明1台区,南高蓬村公用照明2台区,南高蓬公用照明3台区","powerOffReason":"【停电原因】由于更换导线、更换电杆导致１１０ＫＶ庞村变电站１０ＫＶ５４８六家村线路北高蓬１分支２３号杆４１号隔离开关以下线路停电 【变更送电】无 【发布渠道】河北省定州市定州日报第三版（２０１９年１０月１８日）","powerOffId":"2019101713000197"},{"poweroffId":2019101713000128,"sgpoweroffId":null,"subsName":"","lineName":"10kV白城线514","pubTranName":"2白团东街外8【纯农排变】,","scope":"【影响街道/乡镇】白团乡 【高危重要客户】无 【影响客户】白团东街村","startTime":"2019-10-26 05:00:00","stopDate":"2019-10-26 08:00:00","orgNo":"1340618","typeCode":"计划停电","poweroffArea":"【分支停电】停2白团东街外12【纯农排变】,2白团东街外11【纯农排变】,2白团东街外8【纯农排变】,2白团东街外6【纯农排变】,2白团东街外13【纯农排变】","poweroffReason":"【停电原因】由于线路检修导致３５ＫＶ白团变电站１０ＫＶ白城线５１４线路主干２６号杆分支５１号杆至６９号杆停电 【变更送电】无 【发布渠道】保定市清苑区电视台（２０１９年１０月１８日１９时至２０１９年１０月２５日２０时之间）屏幕上方滚动","powerTime":"2019-10-26 07:18:50","powerComm":"温筝通知已送电","subsNo":"","lineNo":"","tgNo":"","tgName":null,"infoStatus":"1","orgName":"国网清苑县供电公司","typeName":null,"infoStatusName":null,"dateDay":null,"orgNos":null,"nowTime":null,"countyName":null,"streetName":null,"villageName":null,"roadName":null,"communityName":null,"tranName":null,"sdLineName":null,"cityCode":"1340618","cityName":"国网清苑县供电公司","provinceCode":null,"stopTime":"2019-10-26 08:00:00","powerType":"全部","powerOffArea":"【分支停电】停2白团东街外12【纯农排变】,2白团东街外11【纯农排变】,2白团东街外8【纯农排变】,2白团东街外6【纯农排变】,2白团东街外13【纯农排变】","powerOffReason":"【停电原因】由于线路检修导致３５ＫＶ白团变电站１０ＫＶ白城线５１４线路主干２６号杆分支５１号杆至６９号杆停电 【变更送电】无 【发布渠道】保定市清苑区电视台（２０１９年１０月１８日１９时至２０１９年１０月２５日２０时之间）屏幕上方滚动","powerOffId":"2019101713000128"},{"poweroffId":2019101713000123,"sgpoweroffId":null,"subsName":"","lineName":"孔家佐583线路","pubTranName":"长古城村村委会4新装10KV配变,西南京0320变压器,长古城0344变压器,长古城村村委会5新装10KV配变,西南京1457变压器,长古城中学变压器7924,长古城村北新增混7918,长古城4547变压器,长古城0341变压器,西南京0591变压器,西南京2656变压器,长古城村村委会2新装10KV配变,长古城2110变压器,长古城0340变压器,长古城新民居4087变压器,长古城岳烟村北农业灌溉新装配变,长古城东北混4504变压器,长古城小学变压器7926,长古城面粉厂0584,西南京0329变压器,西南京2161变压器,西南京小学变压器7931,长古城村村委会1新装10KV配变,长古城0339变压器,长古城卫生院变压器7925,长古城中学变压器7936,长古城乡岳烟村南新装配变,长古城乡西南京城农业灌溉新装配变,","scope":"【影响街道/乡镇】仁厚镇、长古城乡【高危重要客户】无【影响客户】长古城村、西南京村","startTime":"2019-10-27 06:30:00","stopDate":"2019-10-27 17:30:00","orgNo":"1340622","typeCode":"计划停电","poweroffArea":"【分支停电】停长古城村北新增混7918,长古城4547变压器,长古城0341变压器,西南京0591变压器,西南京2656变压器,长古城村村委会2新装10KV配变,长古城2110变压器,长古城0340变压器,长古城新民居4087变压器,长古城岳烟村北农业灌溉新装配变,长古城村村委会4新装10KV配变,西南京0320变压器,长古城0344变压器,长古城村村委会5新装10KV配变,西南京1457变压器,长古城中学变压器7924,长古城小学变压器7926,长古城面粉厂0584,西南京0329变压器,西南京2161变压器,西南京小学变压器7931,长古城村村委会1新装10KV配变,长古城0339变压器,长古城卫生院变压器7925,长古城中学变压器7936,长古城乡岳烟村南新装配变,长古城乡西南京城农业灌溉新装配变,长古城东北混4504变压器","poweroffReason":"【停电原因】由于线路工作导致１１０ＫＶ城南变电站孔家佐５８３线路岳烟分支０５３号杆以下线路停电【变更送电】无【发布渠道】保定市唐县电视台（１０月１７日至１０月２６日的２０：００时至２０：３０时之间）屏幕上方滚动字幕","powerTime":"2019-10-27 16:47:01","powerComm":"已送电","subsNo":"","lineNo":"","tgNo":"","tgName":null,"infoStatus":"1","orgName":"国网唐县供电公司","typeName":null,"infoStatusName":null,"dateDay":null,"orgNos":null,"nowTime":null,"countyName":null,"streetName":null,"villageName":null,"roadName":null,"communityName":null,"tranName":null,"sdLineName":null,"cityCode":"1340622","cityName":"国网唐县供电公司","provinceCode":null,"stopTime":"2019-10-27 17:30:00","powerType":"全部","powerOffArea":"【分支停电】停长古城村北新增混7918,长古城4547变压器,长古城0341变压器,西南京0591变压器,西南京2656变压器,长古城村村委会2新装10KV配变,长古城2110变压器,长古城0340变压器,长古城新民居4087变压器,长古城岳烟村北农业灌溉新装配变,长古城村村委会4新装10KV配变,西南京0320变压器,长古城0344变压器,长古城村村委会5新装10KV配变,西南京1457变压器,长古城中学变压器7924,长古城小学变压器7926,长古城面粉厂0584,西南京0329变压器,西南京2161变压器,西南京小学变压器7931,长古城村村委会1新装10KV配变,长古城0339变压器,长古城卫生院变压器7925,长古城中学变压器7936,长古城乡岳烟村南新装配变,长古城乡西南京城农业灌溉新装配变,长古城东北混4504变压器","powerOffReason":"【停电原因】由于线路工作导致１１０ＫＶ城南变电站孔家佐５８３线路岳烟分支０５３号杆以下线路停电【变更送电】无【发布渠道】保定市唐县电视台（１０月１７日至１０月２６日的２０：００时至２０：３０时之间）屏幕上方滚动字幕","powerOffId":"2019101713000123"},{"poweroffId":2019101713000067,"sgpoweroffId":null,"subsName":"","lineName":"10kV北张各庄514线","pubTranName":"北张各庄综10变压器,北张各庄综2变压器,北张各庄综7变压器,","scope":"【影响街道/乡镇】南娄底乡 【高危重要客户】无 【影响客户】北张各庄村、南马村、西北马村","startTime":"2019-10-24 07:00:00","stopDate":"2019-10-24 17:30:00","orgNo":"1340606","typeCode":"临时停电","poweroffArea":"【全线路停电】停北张各庄综7变压器,北张各庄综10变压器,北张各庄综2变压器","poweroffReason":"【停电原因】由于更换配变导致３５ＫＶ南娄底变电站１０ＫＶ北张各庄５１４线路全线停电 【变更送电】无 【发布渠道】保定市安国电视台（１０月２２日００时至２４时之间）屏幕上方滚动","powerTime":"2019-10-24 17:03:40","powerComm":"已送电","subsNo":"","lineNo":"","tgNo":"","tgName":null,"infoStatus":"1","orgName":"国网安国市供电公司","typeName":null,"infoStatusName":null,"dateDay":null,"orgNos":null,"nowTime":null,"countyName":null,"streetName":null,"villageName":null,"roadName":null,"communityName":null,"tranName":null,"sdLineName":null,"cityCode":"1340606","cityName":"国网安国市供电公司","provinceCode":null,"stopTime":"2019-10-24 17:30:00","powerType":"全部","powerOffArea":"【全线路停电】停北张各庄综7变压器,北张各庄综10变压器,北张各庄综2变压器","powerOffReason":"【停电原因】由于更换配变导致３５ＫＶ南娄底变电站１０ＫＶ北张各庄５１４线路全线停电 【变更送电】无 【发布渠道】保定市安国电视台（１０月２２日００时至２４时之间）屏幕上方滚动","powerOffId":"2019101713000067"},{"poweroffId":2019101713000060,"sgpoweroffId":null,"subsName":"","lineName":"10kV东河525线","pubTranName":"伏村综合三台区,西长仕综合1号变压器,西河综合4号变压器,","scope":"【影响街道/乡镇】明官店乡 【高危重要客户】无 【影响客户】西长仕村、伏村、西河村","startTime":"2019-10-26 08:00:00","stopDate":"2019-10-26 17:30:00","orgNo":"1340606","typeCode":"计划停电","poweroffArea":"【全线路停电】停西长仕综合1号变压器,伏村综合三台区,西河综合4号变压器","poweroffReason":"【停电原因】由于秋季检修导致１１０ＫＶ东河变电站１０ＫＶ东河５２５线路全线停电 【变更送电】无 【发布渠道】保定市安国电视台（１０月１９日００时至２４时之间）屏幕上方滚动","powerTime":"2019-10-26 16:35:22","powerComm":"已送电","subsNo":"","lineNo":"","tgNo":"","tgName":null,"infoStatus":"1","orgName":"国网安国市供电公司","typeName":null,"infoStatusName":null,"dateDay":null,"orgNos":null,"nowTime":null,"countyName":null,"streetName":null,"villageName":null,"roadName":null,"communityName":null,"tranName":null,"sdLineName":null,"cityCode":"1340606","cityName":"国网安国市供电公司","provinceCode":null,"stopTime":"2019-10-26 17:30:00","powerType":"全部","powerOffArea":"【全线路停电】停西长仕综合1号变压器,伏村综合三台区,西河综合4号变压器","powerOffReason":"【停电原因】由于秋季检修导致１１０ＫＶ东河变电站１０ＫＶ东河５２５线路全线停电 【变更送电】无 【发布渠道】保定市安国电视台（１０月１９日００时至２４时之间）屏幕上方滚动","powerOffId":"2019101713000060"},{"poweroffId":2019101713000053,"sgpoweroffId":null,"subsName":"","lineName":"10KV褚村572","pubTranName":"高村村内,","scope":"【影响街道/乡镇】豆庄乡 【高危重要客户】无 【影响客户】高村","startTime":"2019-10-27 08:00:00","stopDate":"2019-10-27 18:00:00","orgNo":"1340626","typeCode":"计划停电","poweroffArea":"【单台区停电】停高村村内","poweroffReason":"【停电原因】由于导线架设工程导致２２０ＫＶ豆庄变电站１０ＫＶ褚村５７２线路高村村内公变台区停电 【变更送电】无 【发布渠道】涿州电视台（１０月１７日至１０月２６日２１：００播放２次）屏幕上方滚动","powerTime":"2019-10-27 17:41:57","powerComm":"恢复送电","subsNo":"","lineNo":"","tgNo":"","tgName":null,"infoStatus":"1","orgName":"国网涿州市供电公司","typeName":null,"infoStatusName":null,"dateDay":null,"orgNos":null,"nowTime":null,"countyName":null,"streetName":null,"villageName":null,"roadName":null,"communityName":null,"tranName":null,"sdLineName":null,"cityCode":"1340626","cityName":"国网涿州市供电公司","provinceCode":null,"stopTime":"2019-10-27 18:00:00","powerType":"全部","powerOffArea":"【单台区停电】停高村村内","powerOffReason":"【停电原因】由于导线架设工程导致２２０ＫＶ豆庄变电站１０ＫＶ褚村５７２线路高村村内公变台区停电 【变更送电】无 【发布渠道】涿州电视台（１０月１７日至１０月２６日２１：００播放２次）屏幕上方滚动","powerOffId":"2019101713000053"},{"poweroffId":2019101713000049,"sgpoweroffId":null,"subsName":"","lineName":"10kV子娄515线","pubTranName":"子娄综合4变压器,子娄综1台区,子娄综合2变压器,","scope":"【影响街道/乡镇】祁州镇 【高危重要客户】无 【影响客户】子娄村","startTime":"2019-10-26 08:00:00","stopDate":"2019-10-26 17:30:00","orgNo":"1340606","typeCode":"计划停电","poweroffArea":"【全线路停电】停子娄综合4变压器,子娄综1台区,子娄综合2变压器","poweroffReason":"【停电原因】由于秋季检修导致１１０ＫＶ东河变电站１０ＫＶ子娄５１５线路全线停电 【变更送电】无 【发布渠道】保定市安国电视台（１０月１９日００时至２４时之间）屏幕上方滚动","powerTime":"2019-10-26 16:36:13","powerComm":"已送电","subsNo":"","lineNo":"","tgNo":"","tgName":null,"infoStatus":"1","orgName":"国网安国市供电公司","typeName":null,"infoStatusName":null,"dateDay":null,"orgNos":null,"nowTime":null,"countyName":null,"streetName":null,"villageName":null,"roadName":null,"communityName":null,"tranName":null,"sdLineName":null,"cityCode":"1340606","cityName":"国网安国市供电公司","provinceCode":null,"stopTime":"2019-10-26 17:30:00","powerType":"全部","powerOffArea":"【全线路停电】停子娄综合4变压器,子娄综1台区,子娄综合2变压器","powerOffReason":"【停电原因】由于秋季检修导致１１０ＫＶ东河变电站１０ＫＶ子娄５１５线路全线停电 【变更送电】无 【发布渠道】保定市安国电视台（１０月１９日００时至２４时之间）屏幕上方滚动","powerOffId":"2019101713000049"},{"poweroffId":2019101713000037,"sgpoweroffId":null,"subsName":"","lineName":"10KV沿鲁532","pubTranName":"沿鲁2931台区,","scope":"【影响街道/乡镇】刁窝乡 【高危重要客户】无 【影响客户】沿鲁村","startTime":"2019-10-27 07:00:00","stopDate":"2019-10-27 18:00:00","orgNo":"1340626","typeCode":"计划停电","poweroffArea":"【单台区停电】停沿鲁2931台区","poweroffReason":"【停电原因】由于更换电杆、金具、导线导致１１０ＫＶ刁窝变电站１０ＫＶ沿鲁５３２线路沿鲁２９３１公变台区停电 【变更送电】无 【发布渠道】涿州电视台（１０月１７日至１０月２６日２１：００播放２次）屏幕上方滚动","powerTime":"2019-10-27 17:41:40","powerComm":"恢复送电","subsNo":"","lineNo":"","tgNo":"","tgName":null,"infoStatus":"1","orgName":"国网涿州市供电公司","typeName":null,"infoStatusName":null,"dateDay":null,"orgNos":null,"nowTime":null,"countyName":null,"streetName":null,"villageName":null,"roadName":null,"communityName":null,"tranName":null,"sdLineName":null,"cityCode":"1340626","cityName":"国网涿州市供电公司","provinceCode":null,"stopTime":"2019-10-27 18:00:00","powerType":"全部","powerOffArea":"【单台区停电】停沿鲁2931台区","powerOffReason":"【停电原因】由于更换电杆、金具、导线导致１１０ＫＶ刁窝变电站１０ＫＶ沿鲁５３２线路沿鲁２９３１公变台区停电 【变更送电】无 【发布渠道】涿州电视台（１０月１７日至１０月２６日２１：００播放２次）屏幕上方滚动","powerOffId":"2019101713000037"},{"poweroffId":2019101713000033,"sgpoweroffId":null,"subsName":"","lineName":"10KV工业园Ⅰ线553","pubTranName":"史各庄小区5731,","scope":"【影响街道/乡镇】松林店镇 【高危重要客户】无 【影响客户】史各庄小区","startTime":"2019-10-27 07:00:00","stopDate":"2019-10-27 17:00:00","orgNo":"1340626","typeCode":"计划停电","poweroffArea":"【单台区停电】停史各庄小区5731","poweroffReason":"【停电原因】由于挖杆、立杆工程导致１１０ＫＶ松林店变电站１０ＫＶ工业园Ｉ线５５３线路史各庄小区５７３１公变台区停电 【变更送电】无 【发布渠道】涿州电视台（１０月１７日至１０月２６日２１：００播放２次）屏幕上方滚动","powerTime":"2019-10-27 16:45:20","powerComm":"恢复送电","subsNo":"","lineNo":"","tgNo":"","tgName":null,"infoStatus":"1","orgName":"国网涿州市供电公司","typeName":null,"infoStatusName":null,"dateDay":null,"orgNos":null,"nowTime":null,"countyName":null,"streetName":null,"villageName":null,"roadName":null,"communityName":null,"tranName":null,"sdLineName":null,"cityCode":"1340626","cityName":"国网涿州市供电公司","provinceCode":null,"stopTime":"2019-10-27 17:00:00","powerType":"全部","powerOffArea":"【单台区停电】停史各庄小区5731","powerOffReason":"【停电原因】由于挖杆、立杆工程导致１１０ＫＶ松林店变电站１０ＫＶ工业园Ｉ线５５３线路史各庄小区５７３１公变台区停电 【变更送电】无 【发布渠道】涿州电视台（１０月１７日至１０月２６日２１：００播放２次）屏幕上方滚动","powerOffId":"2019101713000033"}],"pageModel":{"pageNow":492,"totalCount":10973,"totalPage":1098,"tableRows":0,"pageCount":10,"beginCount":4910},"isExperi":"1"}