{"message":"","today":"2020-06-15","seleList":[{"poweroffId":2019101613000321,"sgpoweroffId":null,"subsName":"","lineName":"东邵514","pubTranName":"大巨村16#,大方村1#,黄山村2#,大方村9#,黄山村7#,大巨村4#,大巨村17#,大巨村15#,黄山村8#,黄山村10#,黄山村5#,大巨村8#,黄山村9#,大巨村1#,大方村14#,大巨村11#,大方村15#,大巨村18#,黄山村6#,大巨村3#,大巨村14#,黄山村4#,新庄村6#,大巨村12#,黄山村1#,大方村7#,大巨村10#,大方村8#,大方村2#,","scope":"【影响街道/乡镇】凌云册乡【高危重要客户】无【影响客户】黄山村、大巨村、新庄村、大方村","startTime":"2019-10-16 18:04:35","stopDate":"2019-10-16 19:10:00","orgNo":"1340625","typeCode":"电网故障停限电","poweroffArea":"【分支停电】停黄山村6#,大巨村1#,大方村14#,大巨村11#,大方村15#,大巨村18#,大巨村3#,大巨村14#,黄山村4#,新庄村6#,大巨村12#,黄山村1#,大方村7#,大巨村10#,大方村8#,大方村2#,大巨村16#,大方村1#,黄山村2#,大方村9#,黄山村7#,大巨村4#,大巨村17#,大巨村15#,黄山村8#,黄山村10#,黄山村5#,大巨村8#,黄山村9#","poweroffReason":"【停电原因】由于速断跳闸导致３５ＫＶ凌云册变电站东邵５１４线路００３号杆至０６７号杆之间停电【变更送电】因抢修进度加快原因，送电时间由２３：００变更为１９：１０【发布渠道】通过９５５９８发布","powerTime":"2019-10-16 18:44:47","powerComm":"已送电","subsNo":"","lineNo":"","tgNo":"","tgName":null,"infoStatus":"1","orgName":"国网易县供电公司","typeName":null,"infoStatusName":null,"dateDay":null,"orgNos":null,"nowTime":null,"countyName":null,"streetName":null,"villageName":null,"roadName":null,"communityName":null,"tranName":null,"sdLineName":null,"cityCode":"1340625","cityName":"国网易县供电公司","provinceCode":null,"stopTime":"2019-10-16 19:10:00","powerType":"全部","powerOffArea":"【分支停电】停黄山村6#,大巨村1#,大方村14#,大巨村11#,大方村15#,大巨村18#,大巨村3#,大巨村14#,黄山村4#,新庄村6#,大巨村12#,黄山村1#,大方村7#,大巨村10#,大方村8#,大方村2#,大巨村16#,大方村1#,黄山村2#,大方村9#,黄山村7#,大巨村4#,大巨村17#,大巨村15#,黄山村8#,黄山村10#,黄山村5#,大巨村8#,黄山村9#","powerOffReason":"【停电原因】由于速断跳闸导致３５ＫＶ凌云册变电站东邵５１４线路００３号杆至０６７号杆之间停电【变更送电】因抢修进度加快原因，送电时间由２３：００变更为１９：１０【发布渠道】通过９５５９８发布","powerOffId":"2019101613000321"},{"poweroffId":2019101613000250,"sgpoweroffId":null,"subsName":"","lineName":"义联庄线515","pubTranName":"五香坡(供3号),枣园2号【纯农排变】,崔庄6号【纯农排变】,义联庄马庄1号,白莲峪1号,白莲峪4号,白莲峪2号【纯农排变】,义联庄刘庄6号,西黑山4号【纯农排变】,景庄5号【纯农排变】,义联庄刘庄1号,赵庄1号,义联庄供电所4号,侯庄5号,马庄4#,义联庄丁庄1号,崔庄2号,崔庄3号,景庄1号,五香坡5号,枣园1号,义联庄崔庄5号,白莲峪3号,景庄3号,枣园4号,义联庄田庄3号,义联庄崔庄1号,赵庄2号,义联庄丁庄4号,候庄3号,义联庄东庄1号,义联庄丁庄2号【纯农排变】,义王庄1号,白莲峪6号【纯农排变】,五香坡供电所2号,五香坡2号,义联庄田庄2号,张庄1号,义联庄刘庄4号,义联庄刘庄2号,义联庄田庄1号,刘林庄2号,五香坡4号,枣园3号,义联庄马庄3号,候庄2号,西黑山2号,马庄供电所1号,候庄4号,义联庄刘庄7号,周庄1号,义联庄刘庄5号【纯农排变】,崔庄4号,义王庄3号,义联庄丁庄6号,义联庄马庄2号,义联庄刘庄3号【纯农排变】,候庄6号【纯农排变】,白莲峪5号【纯农排变】,义王庄2号,五香坡3号,候庄1号,义联庄丁庄3号,候庄3队,义联庄丁庄5号,周庄2号,景庄4号,大王店西街5号【纯农排变】,景庄2号,","scope":"【影响街道/乡镇】义联庄乡 【高危重要客户】无 【影响客户】大王店西街、刘庄、枣园、义联庄、西黑山、崔庄、周庄、侯庄、白莲峪、五香破、丁庄、田庄、景庄、义王庄、张庄","startTime":"2019-10-16 15:22:41","stopDate":"2019-10-16 17:00:00","orgNo":"1340605","typeCode":"电网故障停限电","poweroffArea":"【全线路停电】停大王店西街5号【纯农排变】,义联庄刘庄4号,义联庄丁庄2号【纯农排变】,枣园3号,徐水县国兴装饰材料加工厂1号,徐水县义联庄超细钙粉厂,义联庄田庄3号,西黑山2号,徐水县太行山矿业厂（周庄）,崔庄3号,徐水县盛宇豪石料加工厂1号,五香坡2号,鑫磊有限公司,义联庄刘庄6号,候庄6号【纯农排变】,周庄2号,白莲峪5号【纯农排变】,五香坡4号,变压器,义联庄丁庄4号,义联庄田庄2号,白莲峪1号,福雨加工厂,义联庄供电所4号,辉煌石料厂,崔庄6号【纯农排变】,义联庄刘庄7号,候庄1号,义联庄丁庄6号,赵庄1号,枣园1号,候庄3号,义联庄东庄1号,景庄3号,景庄5号【纯农排变】,马庄4#,义联庄田庄1号,五香坡(供3号),徐水县太行山选矿厂（马庄）,徐水县京西装饰材料厂,义王庄1号,侯庄5号,徐水县明珠超细矿粉厂,义联庄刘庄3号【纯农排变】,徐水县福雨建材粉剂加工,马庄供电所1号,徐水县白玉化工涂料有限公司,候庄2号,义联庄崔庄5号,义王庄3号,保义精选厂,西黑山养鸡厂,徐水县白雪腻子粉厂,徐水县宏大采石厂2号,五香坡供电所2号,义联庄刘庄5号【纯农排变】,义联庄马庄3号,五香坡5号,景庄2号,赵庄2号,枣园2号【纯农排变】,义联庄丁庄1号,张庄2号【纯农排变】,白莲峪6号【纯农排变】,义联庄丁庄5号,白莲峪3号,五香坡1号,景庄1号,义联庄丁庄3号,白莲峪2号【纯农排变】,张庄1号,义联庄马庄2号,徐水县旺吉超细矿粉加工厂,景庄4号,徐水县宝珠超细矿粉厂变压器,五香坡3号,枣园4号,西黑山4号【纯农排变】,候庄3队,徐水县新发装饰材料厂,振兴建材厂,徐水县宏大采石厂,辉煌选厂,徐水县义联庄龙祥采石厂4号,徐水县义联庄龙祥采石厂3号,徐水县义联庄龙祥采石厂1号,候庄4号,白莲峪4号,徐水县义联庄龙祥采石厂2号,义联庄崔庄1号,周庄1号,义联庄刘庄1号,刘林庄2号,崔庄4号,义联庄环美涂料厂,太行建材厂,徐水县盛宇豪石料加工场2号,福利氢钙厂,保定市道路开发中心,义联庄综合加工厂,崔庄2号,义联庄刘庄2号,义王庄2号,义联庄马庄1号","poweroffReason":"【停电原因】由于Ｂ相接地导致３５ＫＶ黑山变电站义联庄线５１５线路全线停电 【变更送电】因抢修进度加快原因，送电时间由２３:００变更为１７:００ 【发布渠道】通过９５５９８发布","powerTime":"2019-10-16 16:02:32","powerComm":"已送电","subsNo":"","lineNo":"","tgNo":"","tgName":null,"infoStatus":"1","orgName":"国网徐水县供电公司","typeName":null,"infoStatusName":null,"dateDay":null,"orgNos":null,"nowTime":null,"countyName":null,"streetName":null,"villageName":null,"roadName":null,"communityName":null,"tranName":null,"sdLineName":null,"cityCode":"1340605","cityName":"国网徐水县供电公司","provinceCode":null,"stopTime":"2019-10-16 17:00:00","powerType":"全部","powerOffArea":"【全线路停电】停大王店西街5号【纯农排变】,义联庄刘庄4号,义联庄丁庄2号【纯农排变】,枣园3号,徐水县国兴装饰材料加工厂1号,徐水县义联庄超细钙粉厂,义联庄田庄3号,西黑山2号,徐水县太行山矿业厂（周庄）,崔庄3号,徐水县盛宇豪石料加工厂1号,五香坡2号,鑫磊有限公司,义联庄刘庄6号,候庄6号【纯农排变】,周庄2号,白莲峪5号【纯农排变】,五香坡4号,变压器,义联庄丁庄4号,义联庄田庄2号,白莲峪1号,福雨加工厂,义联庄供电所4号,辉煌石料厂,崔庄6号【纯农排变】,义联庄刘庄7号,候庄1号,义联庄丁庄6号,赵庄1号,枣园1号,候庄3号,义联庄东庄1号,景庄3号,景庄5号【纯农排变】,马庄4#,义联庄田庄1号,五香坡(供3号),徐水县太行山选矿厂（马庄）,徐水县京西装饰材料厂,义王庄1号,侯庄5号,徐水县明珠超细矿粉厂,义联庄刘庄3号【纯农排变】,徐水县福雨建材粉剂加工,马庄供电所1号,徐水县白玉化工涂料有限公司,候庄2号,义联庄崔庄5号,义王庄3号,保义精选厂,西黑山养鸡厂,徐水县白雪腻子粉厂,徐水县宏大采石厂2号,五香坡供电所2号,义联庄刘庄5号【纯农排变】,义联庄马庄3号,五香坡5号,景庄2号,赵庄2号,枣园2号【纯农排变】,义联庄丁庄1号,张庄2号【纯农排变】,白莲峪6号【纯农排变】,义联庄丁庄5号,白莲峪3号,五香坡1号,景庄1号,义联庄丁庄3号,白莲峪2号【纯农排变】,张庄1号,义联庄马庄2号,徐水县旺吉超细矿粉加工厂,景庄4号,徐水县宝珠超细矿粉厂变压器,五香坡3号,枣园4号,西黑山4号【纯农排变】,候庄3队,徐水县新发装饰材料厂,振兴建材厂,徐水县宏大采石厂,辉煌选厂,徐水县义联庄龙祥采石厂4号,徐水县义联庄龙祥采石厂3号,徐水县义联庄龙祥采石厂1号,候庄4号,白莲峪4号,徐水县义联庄龙祥采石厂2号,义联庄崔庄1号,周庄1号,义联庄刘庄1号,刘林庄2号,崔庄4号,义联庄环美涂料厂,太行建材厂,徐水县盛宇豪石料加工场2号,福利氢钙厂,保定市道路开发中心,义联庄综合加工厂,崔庄2号,义联庄刘庄2号,义王庄2号,义联庄马庄1号","powerOffReason":"【停电原因】由于Ｂ相接地导致３５ＫＶ黑山变电站义联庄线５１５线路全线停电 【变更送电】因抢修进度加快原因，送电时间由２３:００变更为１７:００ 【发布渠道】通过９５５９８发布","powerOffId":"2019101613000250"},{"poweroffId":2019101613000243,"sgpoweroffId":null,"subsName":"","lineName":"李家营524","pubTranName":"郭屯05变压器,郭屯02变压器,838充电站变压器,东盛马庄变压器,东盛张八屯南变压器,东盛城南供电所变压器,东盛温屯北变压器,郭屯01变压器,东盛温屯北公变,石家庄2#公变变压器,东盛马庄2变,郭屯03变压器,东盛阎王庄南变压器,八方达客运有限公司天桥分公司变压器,石家庄14号变压器,东盛马庄1变,东盛马庄4变,东盛马庄5变,郭屯04变压器,东盛马庄3变,东盛张八屯变压器,温屯北变压器新架,东盛张八屯地变压器【纯农排变】,","scope":"【影响街道/乡镇】东盛办事处 【高危重要客户】无 【影响客户】郭家屯村、马庄村、河北隆泰物业高碑店分公司、河北欣知语服饰有限公司、顶津饮品有限公司、河北旭坤房地产、万通发展有限责任公司、华永房地产、路灯管理办公室、河北鹏达房地产、高碑店市中房嘉业房地产、高碑店市诚惠家庭农场、天天一泉水厂、高碑店市永安印铁制罐有限责任公司、王克录、自来水公司、高碑店白象食品有限公司、高碑店市华创房地产、河北北方风机制造有限公司、交通局、明合彩钢有限公司、中国石油保定第105站、838车站、机动车驾驶员培训学校、昊青物业、高碑店市建筑集团公司、豆豆食品(集团)、河北鼎泰华奥投资有限公司、龙安泰房地产、经济开发管理委员会、高碑店市园林局、高碑店市京津风机厂、平生环保设备制造有限公司、贾志明、李中新、华欣水泥、建安公司菜园、海宏工业有限公司、华强制冷工程高碑店分公司、北京风机四厂、华彩装订有限责任公司、石家庄小区、高桂茹、亿博豪轩","startTime":"2019-10-16 15:17:41","stopDate":"2019-10-16 21:00:00","orgNo":"1340612","typeCode":"电网故障停限电","poweroffArea":"【全线路停电】停永安印铁变压器3,东盛阎王庄南变压器,高碑店市路灯管理办公室变压器,高桂茹变压器,河北鹏达房地产开发有限公司变压器,0554901958-河北鼎泰华奥投资有限公司-专变-82386833-河北鼎泰华奥投资有限公司变压器,高碑店市诚惠家庭农场变压器,0554901958-河北鼎泰华奥投资有限公司-专变-82386835-河北鼎泰华奥投资有限公司变压器,高碑店市城市管理综合执法局112国道2号,中国石化销售有限公司河北保定高碑店石油分公司,河北鹏达房地产开发有限公司,八方达客运有限公司天桥分公司变压器,高碑店市欣知语服饰有限公司变压器,河北北方风机制造有限公司,高碑店市华彩装订有限公司变压器,万通加油站,李中新,豆豆集团,贾志明,高碑店市自来水公司变压器,李凯风机厂西,交通局,高碑店市顶津饮品有限公司1#变压器,变压器,石家庄14号变压器,东盛马庄1变,郭屯05变压器,高碑店市平生环保设备制造有限公司,河北高碑店市经济开发管理委员会变压器,东盛马庄4变,郭屯04变压器,河北隆泰物业变压器,高碑店白象食品有限公司变压器,河北京石高速公路开发有限公司,0665520963-高碑店顶津饮品有限公司-专变-201103001-高碑店市顶津饮品有限公司2#变压器,0665520963-高碑店顶津饮品有限公司-专变-201103003-高碑店市顶津饮品有限公司3#变压器,东盛马庄3变,高碑店市建筑集团公司变压器,高碑店市天天一泉水厂2,保定中油石油销售有限公司第二加油站,0387437765-高碑店市海轮风机制造有限责任公司-专变-45274527-海轮风机厂,吉亚无纺布厂,0609130229-河北高碑店市豆豆食品(集团)有限公司-专变-127561667-河北高碑店市豆豆食品（集团）有限公司变压器,东盛张八屯变压器,华欣水泥2,温屯北变压器新架,永安印铁变压器2,高碑店市龙安泰房地产开发有限公司3号变压器,高碑店市龙安泰房地产开发有限公司2号变压器,东盛张八屯地变压器【纯农排变】,高碑店市电业局变压器,郭屯02变压器,欣欣水泥机械厂,李凯风机厂,保定隆和房地产开发有限公司,高碑店市永杰汽车销售公司,温屯窗纱厂,建安公司,东盛马庄5变,高碑店市万通发展有限责任公司变压器,高碑店市龙安泰房地产开发有限公司变压器,中亚东,河北旭坤房地产开发有限公司,河北旭坤房地产开发有限公司2#变压器,高碑店市华创房地产开发有限公司,华铝,高碑店市凯龙房地产开发有限公司8#变压器,838充电站变压器,0585511104-高碑店市路灯管理办公室-专变-125093165-高碑店市路灯管理办公室变压器,高碑店市凯龙房地产开发有限公司3#变压器,杨宝坤,东盛马庄变压器,华欣水泥,河北旭坤房地产开发有限公司3#变压器,东盛张八屯南变压器,王克录,永安印铁,冀东商业公司,河北旭坤房地产开发有限公司4#变压器,东盛城南供电所变压器,碑店市凯龙房地产开发有限公司变压器,高碑店市园林局变压器,河北隆泰物业服务有限责任公司高碑店分公司1#变压器,中国石油保定第105站,东盛温屯北变压器,郭屯01变压器,高碑店市康美舒空气净化设备科技有限公司,东盛温屯北公变,石家庄2#公变变压器,高碑店市凯龙房地产开发有限公司7#变压器,高碑店市凯龙房地产开发有限公司6#变压器,温屯公变,东盛马庄2变,高碑店市凯龙房地产开发有限公司5#变压器,郭屯03变压器,高碑店市凯龙房地产开发有限公司4#变压器","poweroffReason":"【停电原因】由于蓝山花语小区电缆被挖断导致１１０ＫＶ马庄变电站１０ＫＶ李家营５２４线路全线停电 【变更送电】因工作量大原因，送电时间由２０：００变更为２１：００ 【发布渠道】通过９５５９８发布","powerTime":"2019-10-16 20:56:23","powerComm":"已送电","subsNo":"","lineNo":"","tgNo":"","tgName":null,"infoStatus":"1","orgName":"国网高碑店市供电公司","typeName":null,"infoStatusName":null,"dateDay":null,"orgNos":null,"nowTime":null,"countyName":null,"streetName":null,"villageName":null,"roadName":null,"communityName":null,"tranName":null,"sdLineName":null,"cityCode":"1340612","cityName":"国网高碑店市供电公司","provinceCode":null,"stopTime":"2019-10-16 21:00:00","powerType":"全部","powerOffArea":"【全线路停电】停永安印铁变压器3,东盛阎王庄南变压器,高碑店市路灯管理办公室变压器,高桂茹变压器,河北鹏达房地产开发有限公司变压器,0554901958-河北鼎泰华奥投资有限公司-专变-82386833-河北鼎泰华奥投资有限公司变压器,高碑店市诚惠家庭农场变压器,0554901958-河北鼎泰华奥投资有限公司-专变-82386835-河北鼎泰华奥投资有限公司变压器,高碑店市城市管理综合执法局112国道2号,中国石化销售有限公司河北保定高碑店石油分公司,河北鹏达房地产开发有限公司,八方达客运有限公司天桥分公司变压器,高碑店市欣知语服饰有限公司变压器,河北北方风机制造有限公司,高碑店市华彩装订有限公司变压器,万通加油站,李中新,豆豆集团,贾志明,高碑店市自来水公司变压器,李凯风机厂西,交通局,高碑店市顶津饮品有限公司1#变压器,变压器,石家庄14号变压器,东盛马庄1变,郭屯05变压器,高碑店市平生环保设备制造有限公司,河北高碑店市经济开发管理委员会变压器,东盛马庄4变,郭屯04变压器,河北隆泰物业变压器,高碑店白象食品有限公司变压器,河北京石高速公路开发有限公司,0665520963-高碑店顶津饮品有限公司-专变-201103001-高碑店市顶津饮品有限公司2#变压器,0665520963-高碑店顶津饮品有限公司-专变-201103003-高碑店市顶津饮品有限公司3#变压器,东盛马庄3变,高碑店市建筑集团公司变压器,高碑店市天天一泉水厂2,保定中油石油销售有限公司第二加油站,0387437765-高碑店市海轮风机制造有限责任公司-专变-45274527-海轮风机厂,吉亚无纺布厂,0609130229-河北高碑店市豆豆食品(集团)有限公司-专变-127561667-河北高碑店市豆豆食品（集团）有限公司变压器,东盛张八屯变压器,华欣水泥2,温屯北变压器新架,永安印铁变压器2,高碑店市龙安泰房地产开发有限公司3号变压器,高碑店市龙安泰房地产开发有限公司2号变压器,东盛张八屯地变压器【纯农排变】,高碑店市电业局变压器,郭屯02变压器,欣欣水泥机械厂,李凯风机厂,保定隆和房地产开发有限公司,高碑店市永杰汽车销售公司,温屯窗纱厂,建安公司,东盛马庄5变,高碑店市万通发展有限责任公司变压器,高碑店市龙安泰房地产开发有限公司变压器,中亚东,河北旭坤房地产开发有限公司,河北旭坤房地产开发有限公司2#变压器,高碑店市华创房地产开发有限公司,华铝,高碑店市凯龙房地产开发有限公司8#变压器,838充电站变压器,0585511104-高碑店市路灯管理办公室-专变-125093165-高碑店市路灯管理办公室变压器,高碑店市凯龙房地产开发有限公司3#变压器,杨宝坤,东盛马庄变压器,华欣水泥,河北旭坤房地产开发有限公司3#变压器,东盛张八屯南变压器,王克录,永安印铁,冀东商业公司,河北旭坤房地产开发有限公司4#变压器,东盛城南供电所变压器,碑店市凯龙房地产开发有限公司变压器,高碑店市园林局变压器,河北隆泰物业服务有限责任公司高碑店分公司1#变压器,中国石油保定第105站,东盛温屯北变压器,郭屯01变压器,高碑店市康美舒空气净化设备科技有限公司,东盛温屯北公变,石家庄2#公变变压器,高碑店市凯龙房地产开发有限公司7#变压器,高碑店市凯龙房地产开发有限公司6#变压器,温屯公变,东盛马庄2变,高碑店市凯龙房地产开发有限公司5#变压器,郭屯03变压器,高碑店市凯龙房地产开发有限公司4#变压器","powerOffReason":"【停电原因】由于蓝山花语小区电缆被挖断导致１１０ＫＶ马庄变电站１０ＫＶ李家营５２４线路全线停电 【变更送电】因工作量大原因，送电时间由２０：００变更为２１：００ 【发布渠道】通过９５５９８发布","powerOffId":"2019101613000243"},{"poweroffId":2019101613000214,"sgpoweroffId":null,"subsName":"","lineName":"北圈头线513","pubTranName":"北圈头8#东南综合,北圈头9#村西南综合,北圈头11#综合,北圈头村西13号综合,北圈头10#中心街综合,北圈头12#综合,北圈头7#村东南综合,","scope":"【影响街道/乡镇】城关镇 【高危重要客户】无 【影响客户】北圈头村里、北圈头村西、北圈头村南、北圈头村东南部分","startTime":"2019-11-13 06:00:00","stopDate":"2019-11-13 19:00:00","orgNo":"1340613","typeCode":"计划停电","poweroffArea":"【全线路停电】停北圈头郭春雷,陈俊,宋贝,北圈头宋清波,北圈头10#中心街综合,北圈头宋球,北圈头12#综合,北圈头张顺,高阳县高沧路农机加油站,北圈头宋小卯,北圈头7#村东南综合,陈亚辉,北圈头8#东南综合,北圈头村西13号综合,北圈头9#村西南综合,高阳县北秀毛巾厂变压器,北圈头张国辉,北圈头11#综合,北圈头刘虎","poweroffReason":"【停电原因】由于更换断路器导致３５ＫＶ城南变电站北圈头５１３线路全线停电【变更送电】因抢修进度加快原因，送电时间由２０：００变更为１９：００【发布渠道】高阳县电视台（１０月１７日１９时至２１时之间）屏幕下方滚动播出","powerTime":"2019-11-13 18:47:47","powerComm":"已送电","subsNo":"","lineNo":"","tgNo":"","tgName":null,"infoStatus":"1","orgName":"国网高阳县供电公司","typeName":null,"infoStatusName":null,"dateDay":null,"orgNos":null,"nowTime":null,"countyName":null,"streetName":null,"villageName":null,"roadName":null,"communityName":null,"tranName":null,"sdLineName":null,"cityCode":"1340613","cityName":"国网高阳县供电公司","provinceCode":null,"stopTime":"2019-11-13 19:00:00","powerType":"全部","powerOffArea":"【全线路停电】停北圈头郭春雷,陈俊,宋贝,北圈头宋清波,北圈头10#中心街综合,北圈头宋球,北圈头12#综合,北圈头张顺,高阳县高沧路农机加油站,北圈头宋小卯,北圈头7#村东南综合,陈亚辉,北圈头8#东南综合,北圈头村西13号综合,北圈头9#村西南综合,高阳县北秀毛巾厂变压器,北圈头张国辉,北圈头11#综合,北圈头刘虎","powerOffReason":"【停电原因】由于更换断路器导致３５ＫＶ城南变电站北圈头５１３线路全线停电【变更送电】因抢修进度加快原因，送电时间由２０：００变更为１９：００【发布渠道】高阳县电视台（１０月１７日１９时至２１时之间）屏幕下方滚动播出","powerOffId":"2019101613000214"},{"poweroffId":2019101613000211,"sgpoweroffId":null,"subsName":"","lineName":"东绪口线515","pubTranName":"小团丁村西南综合,杨家务新增88号综合,小团丁校边综合,小团丁村村里综合,利口村北新增综合,东绪口村北新增48综合,利口村东新增综合,杨家务村南综合68,八果庄大队4综合,东绪口村东2号综合,杨家务3号农业,利口村东综合49,利口村南综合45,团丁庄综合（17）,八果庄大队2号综合,东绪口村东新增综合,利口村南新增1号,团丁庄新增综合73,小团丁村里新增综合,利口村西综合48,东绪口村北新增综合,小团丁村南综合71,东绪口村北综合,八果庄村南综合70,利口村北综合44,团丁庄51#农业【纯农排变】,利口村南新增综合,小团丁村北综合47,利口村新综合,八果庄村西综合46,东绪口村里综合,东绪口村西南综合,","scope":"【影响街道/乡镇】西演镇 【高危重要客户】无 【影响客户】利口村、东绪口村、小团丁村、八果庄村、团丁庄村、杨家务村南","startTime":"2019-11-02 07:00:00","stopDate":"2019-11-02 12:40:00","orgNo":"1340613","typeCode":"计划停电","poweroffArea":"【分支停电】停鲁宏宾,团丁庄新增综合73,八果庄拔丝厂,利口58#农业【纯农排变】,邮政储蓄银行高阳县支行,杨家务西南,小团丁36#农业【纯农排变】,小团丁37农业【纯农排变】,东绪口村西南综合,东绪口56#农业【纯农排变】,小团丁村西南综合,小团丁23#农业【纯农排变】,东绪口57#农业【纯农排变】,杨家务新增88号综合,小团丁校边综合,小团丁村村里综合,八果庄63#农业【纯农排变】,八果庄1#农业【纯农排变】,王双峰,利口村北新增综合,佳宝提花织物厂,利口6#农业【纯农排变】,东绪口村北新增48综合,利口村东新增综合,东绪口13#农业【纯农排变】,东绪口11#农业【纯农排变】,杨家务村南综合68,李更生,利口10#农业【纯农排变】,东绪口14#农业【纯农排变】,泷硕公司,保定乐家纺织有限公司变压器,八果庄大队4综合,利口8#农业【纯农排变】,东绪口16#农业【纯农排变】,东绪口村东2号综合,杨家务3号农业,利口村东综合49,利口村南综合45,团丁庄综合（17）,八果庄61#农业【纯农排变】,利口面粉厂,八果庄大队2号综合,利口59#农业【纯农排变】,东绪口村东新增综合,利口村南新增1号,张跃进,小团丁村里新增综合,小团丁张青松,八果庄39#农业【纯农排变】,八果庄3#农业【纯农排变】,任佐农业1号【纯农排变】,东绪口村北综合,高阳县双峰合线厂变压器,利口5#农业【纯农排变】,团丁庄52#农业【纯农排变】,小团丁25#农业【纯农排变】,八果庄村南综合70,利口村北综合44,小团定(六),利口村南新增综合,西演皮厂,小团丁村北综合47,利口60#农业【纯农排变】,八果庄2#农业【纯农排变】,利口村新综合,八果庄村西综合46,东绪口村里综合,八果庄62#农业【纯农排变】,利口7#农业【纯农排变】,利口村西综合48,鲁冬梅,东绪口村北新增综合,小团丁村南综合71,东绪口55#农业【纯农排变】,小团丁24#农业【纯农排变】,东绪口15#农业【纯农排变】,团丁庄51#农业【纯农排变】,东绪口54#农业【纯农排变】,贾大东,小团丁毛巾厂,团丁庄18#农业【纯农排变】,华北油田,东绪口40#农业【纯农排变】,小团定(贾)","poweroffReason":"【停电原因】由于秋季检修导致１１０ＫＶ西演变电站东绪口５１５线路主线５号杆５号开关以下停电【变更送电】因抢修进度加快原因，送电时间由１４：００变更为１２：４０【发布渠道】高阳县电视台（１０月１７日１９时至２１时之间）屏幕下方滚动播出","powerTime":"2019-11-02 12:24:32","powerComm":"已送电","subsNo":"","lineNo":"","tgNo":"","tgName":null,"infoStatus":"1","orgName":"国网高阳县供电公司","typeName":null,"infoStatusName":null,"dateDay":null,"orgNos":null,"nowTime":null,"countyName":null,"streetName":null,"villageName":null,"roadName":null,"communityName":null,"tranName":null,"sdLineName":null,"cityCode":"1340613","cityName":"国网高阳县供电公司","provinceCode":null,"stopTime":"2019-11-02 12:40:00","powerType":"全部","powerOffArea":"【分支停电】停鲁宏宾,团丁庄新增综合73,八果庄拔丝厂,利口58#农业【纯农排变】,邮政储蓄银行高阳县支行,杨家务西南,小团丁36#农业【纯农排变】,小团丁37农业【纯农排变】,东绪口村西南综合,东绪口56#农业【纯农排变】,小团丁村西南综合,小团丁23#农业【纯农排变】,东绪口57#农业【纯农排变】,杨家务新增88号综合,小团丁校边综合,小团丁村村里综合,八果庄63#农业【纯农排变】,八果庄1#农业【纯农排变】,王双峰,利口村北新增综合,佳宝提花织物厂,利口6#农业【纯农排变】,东绪口村北新增48综合,利口村东新增综合,东绪口13#农业【纯农排变】,东绪口11#农业【纯农排变】,杨家务村南综合68,李更生,利口10#农业【纯农排变】,东绪口14#农业【纯农排变】,泷硕公司,保定乐家纺织有限公司变压器,八果庄大队4综合,利口8#农业【纯农排变】,东绪口16#农业【纯农排变】,东绪口村东2号综合,杨家务3号农业,利口村东综合49,利口村南综合45,团丁庄综合（17）,八果庄61#农业【纯农排变】,利口面粉厂,八果庄大队2号综合,利口59#农业【纯农排变】,东绪口村东新增综合,利口村南新增1号,张跃进,小团丁村里新增综合,小团丁张青松,八果庄39#农业【纯农排变】,八果庄3#农业【纯农排变】,任佐农业1号【纯农排变】,东绪口村北综合,高阳县双峰合线厂变压器,利口5#农业【纯农排变】,团丁庄52#农业【纯农排变】,小团丁25#农业【纯农排变】,八果庄村南综合70,利口村北综合44,小团定(六),利口村南新增综合,西演皮厂,小团丁村北综合47,利口60#农业【纯农排变】,八果庄2#农业【纯农排变】,利口村新综合,八果庄村西综合46,东绪口村里综合,八果庄62#农业【纯农排变】,利口7#农业【纯农排变】,利口村西综合48,鲁冬梅,东绪口村北新增综合,小团丁村南综合71,东绪口55#农业【纯农排变】,小团丁24#农业【纯农排变】,东绪口15#农业【纯农排变】,团丁庄51#农业【纯农排变】,东绪口54#农业【纯农排变】,贾大东,小团丁毛巾厂,团丁庄18#农业【纯农排变】,华北油田,东绪口40#农业【纯农排变】,小团定(贾)","powerOffReason":"【停电原因】由于秋季检修导致１１０ＫＶ西演变电站东绪口５１５线路主线５号杆５号开关以下停电【变更送电】因抢修进度加快原因，送电时间由１４：００变更为１２：４０【发布渠道】高阳县电视台（１０月１７日１９时至２１时之间）屏幕下方滚动播出","powerOffId":"2019101613000211"},{"poweroffId":2019101613000183,"sgpoweroffId":null,"subsName":"","lineName":"李各庄线527","pubTranName":"大十五计东南混配变,大十五计外西混2号配变,南无村西混合配变,北李各庄村外西混配变,北李各庄北混2号,大十五计南混2号配变,大十五计南混配变,大十五计外西混配变,大十五计内西混配变,姜庄村内东混配变,北李各庄西北混配变,南李各庄北混合配变,南李各庄南混,南李各庄新民居2号,十里铺混合配变,南李各庄内混合配变,北李各庄西混配变,太平庄村内混合配变,南李各庄混合配变,南李各庄村西混合配变,南无南混,姜庄村东南混配变,南李各庄新混配变,北李各庄北混,大十五计新民居3号配变,八里庄新区配变,太平庄新混配变,姜庄村内西混配变,八里庄西混,北李各庄东混配变,姜庄南混,南无东混2号,李各庄外西3混配变,南无村东混合配变,大十五计新民居2号配变,十里铺新民居配变,十里铺东混配变,南李各庄西南混配变,大十五计东混配变,大十五计大队混配变,","scope":"【影响街道/乡镇】赵庄乡、望都镇 【高危重要客户】无　　 【影响客户】南无村、大十五计、太平庄、南李各庄、北李各庄、姜庄村、十里铺、八里庄","startTime":"2019-10-16 12:32:34","stopDate":"2019-10-16 14:30:00","orgNo":"1340623","typeCode":"电网故障停限电","poweroffArea":"【全线路停电】停南无南混,大十五计东南混配变,大十五计外西混2号配变,南无村西混合配变,北李各庄村外西混配变,北李各庄北混2号,大十五计南混2号配变,大十五计南混配变,大十五计外西混配变,大十五计内西混配变,姜庄村内东混配变,北李各庄西北混配变,南李各庄北混合配变,南李各庄南混,南李各庄新民居2号,十里铺混合配变,南李各庄内混合配变,北李各庄西混配变,太平庄村内混合配变,南李各庄混合配变,南李各庄村西混合配变,姜庄村东南混配变,南李各庄新混配变,北李各庄北混,大十五计新民居3号配变,八里庄新区配变,太平庄新混配变,姜庄村内西混配变,八里庄西混,北李各庄东混配变,姜庄南混,南无东混2号,李各庄外西3混配变,南无村东混合配变,大十五计新民居2号配变,十里铺新民居配变,十里铺东混配变,南李各庄西南混配变,大十五计东混配变,大十五计大队混配变","poweroffReason":"【停电原因】由于站内开关跳闸导致１１０ＫＶ八里庄变电站李各庄线５２７线路全线停电 【变更送电】因抢修进度加快原因，送电时间由２２：００变更为１４：３０ 【发布渠道】通过９５５９８发布","powerTime":"2019-10-16 13:55:40","powerComm":"已送电","subsNo":"","lineNo":"","tgNo":"","tgName":null,"infoStatus":"1","orgName":"国网望都县供电公司","typeName":null,"infoStatusName":null,"dateDay":null,"orgNos":null,"nowTime":null,"countyName":null,"streetName":null,"villageName":null,"roadName":null,"communityName":null,"tranName":null,"sdLineName":null,"cityCode":"1340623","cityName":"国网望都县供电公司","provinceCode":null,"stopTime":"2019-10-16 14:30:00","powerType":"全部","powerOffArea":"【全线路停电】停南无南混,大十五计东南混配变,大十五计外西混2号配变,南无村西混合配变,北李各庄村外西混配变,北李各庄北混2号,大十五计南混2号配变,大十五计南混配变,大十五计外西混配变,大十五计内西混配变,姜庄村内东混配变,北李各庄西北混配变,南李各庄北混合配变,南李各庄南混,南李各庄新民居2号,十里铺混合配变,南李各庄内混合配变,北李各庄西混配变,太平庄村内混合配变,南李各庄混合配变,南李各庄村西混合配变,姜庄村东南混配变,南李各庄新混配变,北李各庄北混,大十五计新民居3号配变,八里庄新区配变,太平庄新混配变,姜庄村内西混配变,八里庄西混,北李各庄东混配变,姜庄南混,南无东混2号,李各庄外西3混配变,南无村东混合配变,大十五计新民居2号配变,十里铺新民居配变,十里铺东混配变,南李各庄西南混配变,大十五计东混配变,大十五计大队混配变","powerOffReason":"【停电原因】由于站内开关跳闸导致１１０ＫＶ八里庄变电站李各庄线５２７线路全线停电 【变更送电】因抢修进度加快原因，送电时间由２２：００变更为１４：３０ 【发布渠道】通过９５５９８发布","powerOffId":"2019101613000183"},{"poweroffId":2019101613000143,"sgpoweroffId":null,"subsName":"","lineName":"10kV南郊站514线路","pubTranName":"C440柱上变压器,","scope":"【影响街道/乡镇】于家庄乡 【高危重要客户】无 【影响客户】郭村","startTime":"2019-10-16 10:00:00","stopDate":"2019-10-16 12:00:00","orgNo":"13406","typeCode":"电网故障停限电","poweroffArea":"【单台区停电】停C440柱上变压器","poweroffReason":"【停电原因】由于低压保险片烧导致１０ＫＶ南郊变电站５１４线路Ｃ４４０公变台区停电【变更送电】无【发布渠道】通过９５５９８发布","powerTime":"2019-10-16 11:07:00","powerComm":"已送电","subsNo":"","lineNo":"","tgNo":"","tgName":null,"infoStatus":"1","orgName":"保定供电公司","typeName":null,"infoStatusName":null,"dateDay":null,"orgNos":null,"nowTime":null,"countyName":null,"streetName":null,"villageName":null,"roadName":null,"communityName":null,"tranName":null,"sdLineName":null,"cityCode":"13406","cityName":"保定供电公司","provinceCode":null,"stopTime":"2019-10-16 12:00:00","powerType":"全部","powerOffArea":"【单台区停电】停C440柱上变压器","powerOffReason":"【停电原因】由于低压保险片烧导致１０ＫＶ南郊变电站５１４线路Ｃ４４０公变台区停电【变更送电】无【发布渠道】通过９５５９８发布","powerOffId":"2019101613000143"},{"poweroffId":2019101613000121,"sgpoweroffId":null,"subsName":"","lineName":"眺山营线517","pubTranName":"北厂路边,北队家属楼2号,北队家属楼1号,冀中监狱台区柱上变压器,北辛庄村内,公产新增,北辛庄新增,共产院,","scope":"【影响街道/乡镇】满城镇 【高危重要客户】无 【影响客户】冀中监狱,城北公产院,城北村,北辛庄村,容和家园,燕南中学,在水一方小区","startTime":"2019-10-25 07:00:00","stopDate":"2019-10-25 18:00:00","orgNo":"1340617","typeCode":"计划停电","poweroffArea":"【全线路停电】停满城县海富纸业加工厂,北关青儿洗浴,保定清华房地产开发有限公司500,加油站,城北新增,北厂路边,满城县润达混凝土搅拌有限公司,燕赵北街一号路灯,容和家园,通途橡胶制品有限公司,北辛庄大队,燕南中学,城东鸡场,北队家属楼2号,眺山营纸箱厂,北队家属楼1号,建材二车间,保定满通实业有限公司,城东电焊网厂,曹春江锻造厂,海富纸业,宏光纸厂,奉天酒店,北辛庄新增,城关镇纸厂,城北村内台区柱上变压器,冀中监狱台区柱上变压器,丁建文,新华文龙家具,保定清华房地产开发有限公司630,润达混凝土搅拌有限公司,北辛庄村南变压器,容和小区,公产新增,共产院,北辛庄村内,北辛庄村南井,野山村南井,恒通造纸机械有限公司,保定市银燕预应力公程有限公司,水利局,城东修配厂,满城县海富纸业加工厂1250,城北大队村南（统管）,保定市满城恒生经贸有限公司","poweroffReason":"【停电原因】由于线路检修导致１１０ＫＶ眺山营变电站眺山营线５１７线路全线停电 【变更送电】无 【发布渠道】保定市满城电视台（１０月１６日１９：００－２０：００至１０月２４日１９：００－２０：００之间）屏幕上方滚动。","powerTime":"2019-10-25 17:51:38","powerComm":"已送电","subsNo":"","lineNo":"","tgNo":"","tgName":null,"infoStatus":"1","orgName":"国网满城县供电公司","typeName":null,"infoStatusName":null,"dateDay":null,"orgNos":null,"nowTime":null,"countyName":null,"streetName":null,"villageName":null,"roadName":null,"communityName":null,"tranName":null,"sdLineName":null,"cityCode":"1340617","cityName":"国网满城县供电公司","provinceCode":null,"stopTime":"2019-10-25 18:00:00","powerType":"全部","powerOffArea":"【全线路停电】停满城县海富纸业加工厂,北关青儿洗浴,保定清华房地产开发有限公司500,加油站,城北新增,北厂路边,满城县润达混凝土搅拌有限公司,燕赵北街一号路灯,容和家园,通途橡胶制品有限公司,北辛庄大队,燕南中学,城东鸡场,北队家属楼2号,眺山营纸箱厂,北队家属楼1号,建材二车间,保定满通实业有限公司,城东电焊网厂,曹春江锻造厂,海富纸业,宏光纸厂,奉天酒店,北辛庄新增,城关镇纸厂,城北村内台区柱上变压器,冀中监狱台区柱上变压器,丁建文,新华文龙家具,保定清华房地产开发有限公司630,润达混凝土搅拌有限公司,北辛庄村南变压器,容和小区,公产新增,共产院,北辛庄村内,北辛庄村南井,野山村南井,恒通造纸机械有限公司,保定市银燕预应力公程有限公司,水利局,城东修配厂,满城县海富纸业加工厂1250,城北大队村南（统管）,保定市满城恒生经贸有限公司","powerOffReason":"【停电原因】由于线路检修导致１１０ＫＶ眺山营变电站眺山营线５１７线路全线停电 【变更送电】无 【发布渠道】保定市满城电视台（１０月１６日１９：００－２０：００至１０月２４日１９：００－２０：００之间）屏幕上方滚动。","powerOffId":"2019101613000121"},{"poweroffId":2019101613000115,"sgpoweroffId":null,"subsName":"","lineName":"市头村线515","pubTranName":"新增谒山村北,谒山七号,市头村老学堂,市头村大坡,谒山村内,市头村村西,谒山村南新增,谒山1号,市头村村北井,市头村村南,市头村车站新增,谒山大队（村南）,","scope":"【影响街道/乡镇】神星镇 【高危重要客户】无 【影响客户】市头村、谒山","startTime":"2019-10-25 07:00:00","stopDate":"2019-10-25 18:00:00","orgNo":"1340617","typeCode":"计划停电","poweroffArea":"【全线路停电】停保定市满城县白云造纸厂800,市头村新增,新北方洗浴,满城县新龙源化工有限公司,史艳清塑料加工厂,0387454188-保定市富民纸业有限公司-专变-45285396-满城县富民纸业有限公司,保定市鑫洋实业有限公司,谒山村内,市头村学校台区变压器,市头村村东井,保定市满城县白云造纸厂500,鑫润纸业有限公司,市头村大坡,宏达水泥砖厂,谒山村南新增,双洋化工厂,市头村车站,满城县宝马加油站,新增谒山村北,建新灰粉厂变压器,也山村南井,华安面粉厂,虎占井,市头村村北井,满通刘虎占,燕北矿产品化工厂,谒山大队（村南）,满城县建友钙粉经销处,市头村大坡2号,市头村村内,燕赵北街二号路灯,市头村大井台区变压器,王建军灰厂,也山七号吃水井,谒山七号,二号水泥（虹安纸业）,市头村山南2号,一号水泥厂,范永录粉灰厂,谒山1号,冯祥粉灰厂,满城县神星镇市头村新民居,市头村村南,市头村新润化工厂,市头村南方,市头村山南,保定市满城兴达灰粉厂,砖厂新增,市头村车站新增,市头村梨树坟,市头村村西,市头村老学堂","poweroffReason":"【停电原因】由于线路检修导致１１０ＫＶ眺山营变电站市头村线５１５线路全线停电 【变更送电】无 【发布渠道】满城县有线电视台（１０月１６日１９：００－２０：００至１０月２４日１９：００－２０：００）屏幕上方滚动","powerTime":"2019-10-25 18:00:00","powerComm":"已送电","subsNo":"","lineNo":"","tgNo":"","tgName":null,"infoStatus":"1","orgName":"国网满城县供电公司","typeName":null,"infoStatusName":null,"dateDay":null,"orgNos":null,"nowTime":null,"countyName":null,"streetName":null,"villageName":null,"roadName":null,"communityName":null,"tranName":null,"sdLineName":null,"cityCode":"1340617","cityName":"国网满城县供电公司","provinceCode":null,"stopTime":"2019-10-25 18:00:00","powerType":"全部","powerOffArea":"【全线路停电】停保定市满城县白云造纸厂800,市头村新增,新北方洗浴,满城县新龙源化工有限公司,史艳清塑料加工厂,0387454188-保定市富民纸业有限公司-专变-45285396-满城县富民纸业有限公司,保定市鑫洋实业有限公司,谒山村内,市头村学校台区变压器,市头村村东井,保定市满城县白云造纸厂500,鑫润纸业有限公司,市头村大坡,宏达水泥砖厂,谒山村南新增,双洋化工厂,市头村车站,满城县宝马加油站,新增谒山村北,建新灰粉厂变压器,也山村南井,华安面粉厂,虎占井,市头村村北井,满通刘虎占,燕北矿产品化工厂,谒山大队（村南）,满城县建友钙粉经销处,市头村大坡2号,市头村村内,燕赵北街二号路灯,市头村大井台区变压器,王建军灰厂,也山七号吃水井,谒山七号,二号水泥（虹安纸业）,市头村山南2号,一号水泥厂,范永录粉灰厂,谒山1号,冯祥粉灰厂,满城县神星镇市头村新民居,市头村村南,市头村新润化工厂,市头村南方,市头村山南,保定市满城兴达灰粉厂,砖厂新增,市头村车站新增,市头村梨树坟,市头村村西,市头村老学堂","powerOffReason":"【停电原因】由于线路检修导致１１０ＫＶ眺山营变电站市头村线５１５线路全线停电 【变更送电】无 【发布渠道】满城县有线电视台（１０月１６日１９：００－２０：００至１０月２４日１９：００－２０：００）屏幕上方滚动","powerOffId":"2019101613000115"},{"poweroffId":2019101613000110,"sgpoweroffId":null,"subsName":"","lineName":"10kV517桑园营线","pubTranName":"元北综合2台区,元营综合9台区,元北综合17台区,元营综合6台区,元南农排9台区【纯农排变】,杨北农排1台区【纯农排变】,元北农排5台区【纯农排变】,元南农排10台区【纯农排变】,杨东农排5台区【纯农排变】,元北农排3台区【纯农排变】,元营综合1台区,杨西农排8台区【纯农排变】,元北农排2台区【纯农排变】,元营综合5台区,元东农排7台区【纯农排变】,元北综合9台区,杨西农排5台区【纯农排变】,杨东农排3台区【纯农排变】,杨北农排3台区【纯农排变】,元北综合14台区,元营农排6台区【纯农排变】,元北综合13台区,元北综合1台区,元北综合16台区,元北综合15台区,元东农排8台区【纯农排变】,元营综合4台区,元营综合8台区,元营综合7台区,元营农排2台区【纯农排变】,元营农排4台区【纯农排变】,杨北农排2台区【纯农排变】,杨东农排4台区【纯农排变】,元北农排1台区【纯农排变】,元北农排7台区【纯农排变】,元北农排6台区【纯农排变】,元营农排3台区【纯农排变】,元北综合3台区,元营农排7台区【纯农排变】,杨西农排9台区【纯农排变】,元北农排4台区【纯农排变】,杨西农排2台区【纯农排变】,元北综合7台区,元营综合2台区,元北综合5台区,元北综合11台区,元北综合8台区,杨西农排3台区【纯农排变】,元营农排5台区【纯农排变】,元北综合6台区,杨北农排5台区【纯农排变】,元北综合4台区,杨北农排4台区【纯农排变】,元营综合3台区,元营农排1台区【纯农排变】,元北综合12台区,","scope":"【影响街道/乡镇】桑元镇【高危重要客户】无【影响客户】元营村、元北村、杨东村、杨西村、元南村","startTime":"2019-10-16 09:55:28","stopDate":"2019-10-16 11:40:00","orgNo":"1340616","typeCode":"电网故障停限电","poweroffArea":"【全线路停电】停李占江,元北面粉厂,刘铭庄砖厂,中信公司,元北综合7台区,云国经编厂,杨西农排5台区【纯农排变】,春光染厂,杨东农排4台区【纯农排变】,元北纬编厂,二兵经编厂,元北综合8台区,元北农排6台区【纯农排变】,占海纬编厂,元北农排2台区【纯农排变】,元北农排4台区【纯农排变】,小马经编厂,元北综合9台区,元营综合3台区,元南农排9台区【纯农排变】,元营农排2台区【纯农排变】,元营综合2台区,元东农排7台区【纯农排变】,元北综合3台区,元北综合14台区,元东农排8台区【纯农排变】,元营综合7台区,彦水,元南农排10台区【纯农排变】,元北综合2台区,元营综合5台区,杨东农排3台区【纯农排变】,元北综合16台区,杨西农排2台区【纯农排变】,元北农排3台区【纯农排变】,元北农排7台区【纯农排变】,元北综合11台区,杨东梨园（黄庄）,杨西农排9台区【纯农排变】,元营农排6台区【纯农排变】,杨北农排2台区【纯农排变】,元北综合6台区,元北综合13台区,蠡县乐朋起绒厂变压器,杨北农排4台区【纯农排变】,蠡县商标印刷厂,杨北农排5台区【纯农排变】,杨东农排5台区【纯农排变】,元营综合9台区,一鸣印刷厂,老虎,元营综合6台区,小学经编厂,蠡县桑园针织染整厂,杨西农排3台区【纯农排变】,元营农排4台区【纯农排变】,元营农排7台区【纯农排变】,蠡县桑园博远针织厂,杨北农排1台区【纯农排变】,元北综合12台区,元营综合10台区,元北经编厂,杨西农排8台区【纯农排变】,杨东梨园（大亮）,元北农排1台区【纯农排变】,李云平,元营综合4台区,元北冷库,杨北大队梨园,元北综合15台区,元营综合8台区,范建军,元营农排1台区【纯农排变】,元营农排5台区【纯农排变】,蠡县众诚纺织公司,元营农排3台区【纯农排变】,元北农排5台区【纯农排变】,元北综合4台区,元北综合5台区,杨北农排3台区【纯农排变】,元营综合1台区,元北综合1台区,元北综合17台区","poweroffReason":"【停电原因】由于站内开关掉闸导致３５ＫＶ桑园变电站１０ＫＶ桑园营５１７线路全线停电【变更送电】因抢修进度加快原因，送电时间由２０:００变更为１１:４０【发布渠道】通过９５５９８发布","powerTime":"2019-10-16 11:06:44","powerComm":"已送电","subsNo":"","lineNo":"","tgNo":"","tgName":null,"infoStatus":"1","orgName":"国网蠡县供电公司","typeName":null,"infoStatusName":null,"dateDay":null,"orgNos":null,"nowTime":null,"countyName":null,"streetName":null,"villageName":null,"roadName":null,"communityName":null,"tranName":null,"sdLineName":null,"cityCode":"1340616","cityName":"国网蠡县供电公司","provinceCode":null,"stopTime":"2019-10-16 11:40:00","powerType":"全部","powerOffArea":"【全线路停电】停李占江,元北面粉厂,刘铭庄砖厂,中信公司,元北综合7台区,云国经编厂,杨西农排5台区【纯农排变】,春光染厂,杨东农排4台区【纯农排变】,元北纬编厂,二兵经编厂,元北综合8台区,元北农排6台区【纯农排变】,占海纬编厂,元北农排2台区【纯农排变】,元北农排4台区【纯农排变】,小马经编厂,元北综合9台区,元营综合3台区,元南农排9台区【纯农排变】,元营农排2台区【纯农排变】,元营综合2台区,元东农排7台区【纯农排变】,元北综合3台区,元北综合14台区,元东农排8台区【纯农排变】,元营综合7台区,彦水,元南农排10台区【纯农排变】,元北综合2台区,元营综合5台区,杨东农排3台区【纯农排变】,元北综合16台区,杨西农排2台区【纯农排变】,元北农排3台区【纯农排变】,元北农排7台区【纯农排变】,元北综合11台区,杨东梨园（黄庄）,杨西农排9台区【纯农排变】,元营农排6台区【纯农排变】,杨北农排2台区【纯农排变】,元北综合6台区,元北综合13台区,蠡县乐朋起绒厂变压器,杨北农排4台区【纯农排变】,蠡县商标印刷厂,杨北农排5台区【纯农排变】,杨东农排5台区【纯农排变】,元营综合9台区,一鸣印刷厂,老虎,元营综合6台区,小学经编厂,蠡县桑园针织染整厂,杨西农排3台区【纯农排变】,元营农排4台区【纯农排变】,元营农排7台区【纯农排变】,蠡县桑园博远针织厂,杨北农排1台区【纯农排变】,元北综合12台区,元营综合10台区,元北经编厂,杨西农排8台区【纯农排变】,杨东梨园（大亮）,元北农排1台区【纯农排变】,李云平,元营综合4台区,元北冷库,杨北大队梨园,元北综合15台区,元营综合8台区,范建军,元营农排1台区【纯农排变】,元营农排5台区【纯农排变】,蠡县众诚纺织公司,元营农排3台区【纯农排变】,元北农排5台区【纯农排变】,元北综合4台区,元北综合5台区,杨北农排3台区【纯农排变】,元营综合1台区,元北综合1台区,元北综合17台区","powerOffReason":"【停电原因】由于站内开关掉闸导致３５ＫＶ桑园变电站１０ＫＶ桑园营５１７线路全线停电【变更送电】因抢修进度加快原因，送电时间由２０:００变更为１１:４０【发布渠道】通过９５５９８发布","powerOffId":"2019101613000110"}],"pageModel":{"pageNow":494,"totalCount":10973,"totalPage":1098,"tableRows":0,"pageCount":10,"beginCount":4930},"isExperi":"1"}