{"message":"","today":"2020-06-15","seleList":[{"poweroffId":2019101613000102,"sgpoweroffId":null,"subsName":"","lineName":"环网五回线521","pubTranName":"两鱼8号,两渔村北变压器,两渔1号变压器,两渔2号变压器,两渔西变压器,北庄村东变压器,两渔5号,两渔村6号,","scope":"【影响街道/乡镇】满城镇 【高危重要客户】无 【影响客户】两渔村","startTime":"2019-10-25 08:00:00","stopDate":"2019-10-25 16:30:00","orgNo":"1340617","typeCode":"计划停电","poweroffArea":"【全线路停电】停豪达纸厂,要庄1号,0387457392-刘美然养殖厂-专变-45289081-刘美然养殖厂,北庄村东变压器,高雷照明,两渔3号变压器,保定润达纸业有限公司,两鱼8号,0387457015-满城县玉泉水务有限公司-专变-126411620-玉泉水务有限公司,满城县新豪达涂布纸厂,保定中天隆兴鸭业有限公司,两渔村东新增变压器,0387459529-北庄村委会井-专变-45289086-北庄村委会（统管）,两渔5号,庆丰北马养殖厂,0387458180-北庄村委会四号井-专变-45288949-北庄四号,满城县外环维护管理处,两渔西变压器,创新造纸有限公司,河北华奔机械制造有限公司,两渔村南变压器,两渔村6号,0681005686-满城县冰源冷库-专变-219717764-满城县冰源冷库,两渔1号变压器,两渔4号变压器,广达铸造,佳益食品,杰达食品,两渔村北变压器,一亩泉食品厂,保定市满城区城建房地产开发有限责任公司,两渔2号变压器,两渔7号,满城县住房和城乡建设局,裕发新厂","poweroffReason":"【停电原因】由于线路检修导致１１０ＫＶ眺山营变电站环网五回线５２１线路全线停电 【变更送电】无 【发布渠道】满城有线电视台（１０月１６日１９：００－２０：００至１０月２４日１９：００－２０：００）屏幕滚动","powerTime":"2019-10-25 16:25:07","powerComm":"已送电","subsNo":"","lineNo":"","tgNo":"","tgName":null,"infoStatus":"1","orgName":"国网满城县供电公司","typeName":null,"infoStatusName":null,"dateDay":null,"orgNos":null,"nowTime":null,"countyName":null,"streetName":null,"villageName":null,"roadName":null,"communityName":null,"tranName":null,"sdLineName":null,"cityCode":"1340617","cityName":"国网满城县供电公司","provinceCode":null,"stopTime":"2019-10-25 16:30:00","powerType":"全部","powerOffArea":"【全线路停电】停豪达纸厂,要庄1号,0387457392-刘美然养殖厂-专变-45289081-刘美然养殖厂,北庄村东变压器,高雷照明,两渔3号变压器,保定润达纸业有限公司,两鱼8号,0387457015-满城县玉泉水务有限公司-专变-126411620-玉泉水务有限公司,满城县新豪达涂布纸厂,保定中天隆兴鸭业有限公司,两渔村东新增变压器,0387459529-北庄村委会井-专变-45289086-北庄村委会（统管）,两渔5号,庆丰北马养殖厂,0387458180-北庄村委会四号井-专变-45288949-北庄四号,满城县外环维护管理处,两渔西变压器,创新造纸有限公司,河北华奔机械制造有限公司,两渔村南变压器,两渔村6号,0681005686-满城县冰源冷库-专变-219717764-满城县冰源冷库,两渔1号变压器,两渔4号变压器,广达铸造,佳益食品,杰达食品,两渔村北变压器,一亩泉食品厂,保定市满城区城建房地产开发有限责任公司,两渔2号变压器,两渔7号,满城县住房和城乡建设局,裕发新厂","powerOffReason":"【停电原因】由于线路检修导致１１０ＫＶ眺山营变电站环网五回线５２１线路全线停电 【变更送电】无 【发布渠道】满城有线电视台（１０月１６日１９：００－２０：００至１０月２４日１９：００－２０：００）屏幕滚动","powerOffId":"2019101613000102"},{"poweroffId":2019101613000100,"sgpoweroffId":null,"subsName":"","lineName":"10kV白团线515","pubTranName":"1白团东街内4,","scope":"【影响街道/乡镇】白团乡 【高危重要客户】无 【影响客户】白团东街村","startTime":"2019-10-16 09:43:06","stopDate":"2019-10-16 11:00:00","orgNo":"1340618","typeCode":"电网故障停限电","poweroffArea":"【单台区停电】停1白团东街内4","poweroffReason":"【停电原因】由于低压杆被车撞断导致３５ＫＶ白团变电站１０ＫＶ白团线５１５线路１白团东街内４号公变台区停电 【变更送电】因抢修进度加快原因，送电时间由１５：００变更为１１：００ 【发布渠道】通过９５５９８发布","powerTime":"2019-10-16 10:35:46","powerComm":"刘志强通知已送电","subsNo":"","lineNo":"","tgNo":"","tgName":null,"infoStatus":"1","orgName":"国网清苑县供电公司","typeName":null,"infoStatusName":null,"dateDay":null,"orgNos":null,"nowTime":null,"countyName":null,"streetName":null,"villageName":null,"roadName":null,"communityName":null,"tranName":null,"sdLineName":null,"cityCode":"1340618","cityName":"国网清苑县供电公司","provinceCode":null,"stopTime":"2019-10-16 11:00:00","powerType":"全部","powerOffArea":"【单台区停电】停1白团东街内4","powerOffReason":"【停电原因】由于低压杆被车撞断导致３５ＫＶ白团变电站１０ＫＶ白团线５１５线路１白团东街内４号公变台区停电 【变更送电】因抢修进度加快原因，送电时间由１５：００变更为１１：００ 【发布渠道】通过９５５９８发布","powerOffId":"2019101613000100"},{"poweroffId":2019101613000097,"sgpoweroffId":null,"subsName":"","lineName":"工业线520","pubTranName":"王各庄6号,王各庄5号配变,王各庄铺3号,王各庄4号,城东野外2号变压器【纯农排变】,两渔村西新增,胡町3号,","scope":"【影响街道/乡镇】要庄乡 【高危重要客户】无 【影响客户】胡町、王各庄","startTime":"2019-10-25 08:00:00","stopDate":"2019-10-25 16:30:00","orgNo":"1340617","typeCode":"计划停电","poweroffArea":"【全线路停电】停满城县政和养殖场,保定亿佳纸业有限公司,城东纸业有限公司二车间变压器,恒达纸业有限公司,城东野外4#变压器【纯农排变】,保定野马体育用品制造有限公司,胡町3号,两渔村西新增,满城县恒达纸业有限公司,胡町村北,王各庄铺3号,王各庄2号,保定中天隆兴鸭业有限公司,保定市满城城东纸业有限公司,王各庄4号,满城县祥泽畜禽饲养农民专业合作社,保定市满城县恒达造纸厂（630）,王各庄6号,保定市满城县恒达造纸厂,城东野外3#变压器【纯农排变】,城东野外2号变压器【纯农排变】,王各庄5号配变,城东野外1号变压器【纯农排变】,电友公司第二施工队,胡町2号,满城县晨松造纸厂","poweroffReason":"【停电原因】由于线路检修导致１１０ＫＶ眺山营变电站工业线５２０线路全线停电 【变更送电】无 【发布渠道】保定市满城电视台（１０月１６日１９：００－２０：００至１０月２４日１９：００－２０：００之间）屏幕上方滚动。","powerTime":"2019-10-25 16:25:26","powerComm":"已送电","subsNo":"","lineNo":"","tgNo":"","tgName":null,"infoStatus":"1","orgName":"国网满城县供电公司","typeName":null,"infoStatusName":null,"dateDay":null,"orgNos":null,"nowTime":null,"countyName":null,"streetName":null,"villageName":null,"roadName":null,"communityName":null,"tranName":null,"sdLineName":null,"cityCode":"1340617","cityName":"国网满城县供电公司","provinceCode":null,"stopTime":"2019-10-25 16:30:00","powerType":"全部","powerOffArea":"【全线路停电】停满城县政和养殖场,保定亿佳纸业有限公司,城东纸业有限公司二车间变压器,恒达纸业有限公司,城东野外4#变压器【纯农排变】,保定野马体育用品制造有限公司,胡町3号,两渔村西新增,满城县恒达纸业有限公司,胡町村北,王各庄铺3号,王各庄2号,保定中天隆兴鸭业有限公司,保定市满城城东纸业有限公司,王各庄4号,满城县祥泽畜禽饲养农民专业合作社,保定市满城县恒达造纸厂（630）,王各庄6号,保定市满城县恒达造纸厂,城东野外3#变压器【纯农排变】,城东野外2号变压器【纯农排变】,王各庄5号配变,城东野外1号变压器【纯农排变】,电友公司第二施工队,胡町2号,满城县晨松造纸厂","powerOffReason":"【停电原因】由于线路检修导致１１０ＫＶ眺山营变电站工业线５２０线路全线停电 【变更送电】无 【发布渠道】保定市满城电视台（１０月１６日１９：００－２０：００至１０月２４日１９：００－２０：００之间）屏幕上方滚动。","powerOffId":"2019101613000097"},{"poweroffId":2019101613000093,"sgpoweroffId":null,"subsName":"","lineName":"胡町线519","pubTranName":"王各庄1号,","scope":"【影响街道/乡镇】要庄乡 【高危重要客户】无 【影响客户】胡町村、王各庄村","startTime":"2019-10-25 08:00:00","stopDate":"2019-10-25 16:30:00","orgNo":"1340617","typeCode":"计划停电","poweroffArea":"【全线路停电】停保定市满城永利造纸厂,秋海纸厂,金升纸厂,保定市满城金光纸业有限公司,王各庄1号,满城县泰达纸制品,方上蛋托厂,方上大队村南,满城县正大纸业有限公司,永利纸厂,0387461135-李井刚-专变-45290518-富华纸厂,|满城县正大纸业有限公司1250,李国才猪厂,红运纸厂,方上村委会,满城县聚兴纸制品加工厂","poweroffReason":"【停电原因】由于线路检修导致１１０ＫＶ眺山营变电站胡町线５１９线路全线停电 【变更送电】无 【发布渠道】保定市满城电视台（１０月１６日１９：００－２０：００至１０月２４日１９：００－２０：００之间）屏幕上方滚动。","powerTime":"2019-10-25 16:25:39","powerComm":"已送电","subsNo":"","lineNo":"","tgNo":"","tgName":null,"infoStatus":"1","orgName":"国网满城县供电公司","typeName":null,"infoStatusName":null,"dateDay":null,"orgNos":null,"nowTime":null,"countyName":null,"streetName":null,"villageName":null,"roadName":null,"communityName":null,"tranName":null,"sdLineName":null,"cityCode":"1340617","cityName":"国网满城县供电公司","provinceCode":null,"stopTime":"2019-10-25 16:30:00","powerType":"全部","powerOffArea":"【全线路停电】停保定市满城永利造纸厂,秋海纸厂,金升纸厂,保定市满城金光纸业有限公司,王各庄1号,满城县泰达纸制品,方上蛋托厂,方上大队村南,满城县正大纸业有限公司,永利纸厂,0387461135-李井刚-专变-45290518-富华纸厂,|满城县正大纸业有限公司1250,李国才猪厂,红运纸厂,方上村委会,满城县聚兴纸制品加工厂","powerOffReason":"【停电原因】由于线路检修导致１１０ＫＶ眺山营变电站胡町线５１９线路全线停电 【变更送电】无 【发布渠道】保定市满城电视台（１０月１６日１９：００－２０：００至１０月２４日１９：００－２０：００之间）屏幕上方滚动。","powerOffId":"2019101613000093"},{"poweroffId":2019101613000088,"sgpoweroffId":null,"subsName":"","lineName":"10KV南三店555","pubTranName":"酱各庄村,","scope":"【影响街道/乡镇】高官庄镇 【高危重要客户】无 【影响客户】酱各庄","startTime":"2019-10-26 07:30:00","stopDate":"2019-10-26 18:00:00","orgNo":"1340626","typeCode":"计划停电","poweroffArea":"【单台区停电】停酱各庄村","poweroffReason":"【停电原因】由于组装金具、架设导线工程导致１１０ＫＶ松林店变电站１０ＫＶ南三店５５５线路酱各庄村公变台区停电 【变更送电】无 【发布渠道】涿州电视台（１０月１６日至１０月２５日２１：００播放２次）屏幕上方滚动","powerTime":"2019-10-26 17:45:14","powerComm":"恢复送电","subsNo":"","lineNo":"","tgNo":"","tgName":null,"infoStatus":"1","orgName":"国网涿州市供电公司","typeName":null,"infoStatusName":null,"dateDay":null,"orgNos":null,"nowTime":null,"countyName":null,"streetName":null,"villageName":null,"roadName":null,"communityName":null,"tranName":null,"sdLineName":null,"cityCode":"1340626","cityName":"国网涿州市供电公司","provinceCode":null,"stopTime":"2019-10-26 18:00:00","powerType":"全部","powerOffArea":"【单台区停电】停酱各庄村","powerOffReason":"【停电原因】由于组装金具、架设导线工程导致１１０ＫＶ松林店变电站１０ＫＶ南三店５５５线路酱各庄村公变台区停电 【变更送电】无 【发布渠道】涿州电视台（１０月１６日至１０月２５日２１：００播放２次）屏幕上方滚动","powerOffId":"2019101613000088"},{"poweroffId":2019101613000086,"sgpoweroffId":null,"subsName":"","lineName":"10kV541佟村线路","pubTranName":"大柳村西南,","scope":"【影响街道/乡镇】刁窝乡 【高危重要客户】无 【影响客户】大柳村","startTime":"2019-10-26 06:30:00","stopDate":"2019-10-26 18:00:00","orgNo":"1340626","typeCode":"计划停电","poweroffArea":"【单台区停电】停大柳村西南","poweroffReason":"【停电原因】由于更换电杆、架设导线工程导致１１０ＫＶ刁窝变电站１０ＫＶ５４１佟村线路大柳村西南公变台区停电 【变更送电】无 【发布渠道】涿州电视台（１０月１６日至１０月２５日２１：００播放２次）屏幕上方滚动","powerTime":"2019-10-26 17:45:48","powerComm":"恢复送电","subsNo":"","lineNo":"","tgNo":"","tgName":null,"infoStatus":"1","orgName":"国网涿州市供电公司","typeName":null,"infoStatusName":null,"dateDay":null,"orgNos":null,"nowTime":null,"countyName":null,"streetName":null,"villageName":null,"roadName":null,"communityName":null,"tranName":null,"sdLineName":null,"cityCode":"1340626","cityName":"国网涿州市供电公司","provinceCode":null,"stopTime":"2019-10-26 18:00:00","powerType":"全部","powerOffArea":"【单台区停电】停大柳村西南","powerOffReason":"【停电原因】由于更换电杆、架设导线工程导致１１０ＫＶ刁窝变电站１０ＫＶ５４１佟村线路大柳村西南公变台区停电 【变更送电】无 【发布渠道】涿州电视台（１０月１６日至１０月２５日２１：００播放２次）屏幕上方滚动","powerOffId":"2019101613000086"},{"poweroffId":2019101613000080,"sgpoweroffId":null,"subsName":"","lineName":"潘各庄线539","pubTranName":"潘各庄村南内,","scope":"【影响街道/乡镇】刁窝乡 【高危重要客户】无 【影响客户】潘各庄村","startTime":"2019-10-26 07:00:00","stopDate":"2019-10-26 18:00:00","orgNo":"1340626","typeCode":"计划停电","poweroffArea":"【单台区停电】停潘各庄村南内","poweroffReason":"【停电原因】由于更换金具、架设导线工程导致１１０ＫＶ刁窝变电站潘各庄线５３９线路潘各庄村南内公变台区停电 【变更送电】无 【发布渠道】涿州电视台（１０月１６日至１０月２５日２１：００播放２次）屏幕上方滚动","powerTime":"2019-10-26 17:46:07","powerComm":"恢复送电","subsNo":"","lineNo":"","tgNo":"","tgName":null,"infoStatus":"1","orgName":"国网涿州市供电公司","typeName":null,"infoStatusName":null,"dateDay":null,"orgNos":null,"nowTime":null,"countyName":null,"streetName":null,"villageName":null,"roadName":null,"communityName":null,"tranName":null,"sdLineName":null,"cityCode":"1340626","cityName":"国网涿州市供电公司","provinceCode":null,"stopTime":"2019-10-26 18:00:00","powerType":"全部","powerOffArea":"【单台区停电】停潘各庄村南内","powerOffReason":"【停电原因】由于更换金具、架设导线工程导致１１０ＫＶ刁窝变电站潘各庄线５３９线路潘各庄村南内公变台区停电 【变更送电】无 【发布渠道】涿州电视台（１０月１６日至１０月２５日２１：００播放２次）屏幕上方滚动","powerOffId":"2019101613000080"},{"poweroffId":2019101613000057,"sgpoweroffId":null,"subsName":"","lineName":"10KV工业园Ⅰ线553","pubTranName":"史各庄村东1492,史各庄新增2号变压器工程,","scope":"【影响街道/乡镇】松林店镇 【高危重要客户】无 【影响客户】史各庄村","startTime":"2019-10-26 07:00:00","stopDate":"2019-10-26 17:00:00","orgNo":"1340626","typeCode":"计划停电","poweroffArea":"【分支停电】停史各庄村东1492,史各庄新增2号变压器工程","poweroffReason":"【停电原因】由于挖坑、立杆工程导致１１０ＫＶ松林店变电站１０ＫＶ工业园Ｉ线５５３线路史各庄分支０１号杆以下线路停电 【变更送电】无 【发布渠道】涿州电视台（１０月１６日至１０月２５日２１：００播放２次）屏幕上方滚动","powerTime":"2019-10-26 16:34:43","powerComm":"恢复送电","subsNo":"","lineNo":"","tgNo":"","tgName":null,"infoStatus":"1","orgName":"国网涿州市供电公司","typeName":null,"infoStatusName":null,"dateDay":null,"orgNos":null,"nowTime":null,"countyName":null,"streetName":null,"villageName":null,"roadName":null,"communityName":null,"tranName":null,"sdLineName":null,"cityCode":"1340626","cityName":"国网涿州市供电公司","provinceCode":null,"stopTime":"2019-10-26 17:00:00","powerType":"全部","powerOffArea":"【分支停电】停史各庄村东1492,史各庄新增2号变压器工程","powerOffReason":"【停电原因】由于挖坑、立杆工程导致１１０ＫＶ松林店变电站１０ＫＶ工业园Ｉ线５５３线路史各庄分支０１号杆以下线路停电 【变更送电】无 【发布渠道】涿州电视台（１０月１６日至１０月２５日２１：００播放２次）屏幕上方滚动","powerOffId":"2019101613000057"},{"poweroffId":2019101613000055,"sgpoweroffId":null,"subsName":"","lineName":"10kV中相578","pubTranName":"东代屯南,","scope":"【影响街道/乡镇】豆庄乡 【高危重要客户】无 【影响客户】东代屯","startTime":"2019-10-26 08:00:00","stopDate":"2019-10-26 18:00:00","orgNo":"1340626","typeCode":"计划停电","poweroffArea":"【单台区停电】停东代屯南","poweroffReason":"【停电原因】由于导线架设工程导致２２０ＫＶ豆庄变电站１０ＫＶ中相５７８线路东代屯南公变台区停电 【变更送电】无 【发布渠道】涿州电视台（１０月１６日至１０月２５日２１：００播放２次）屏幕上方滚动","powerTime":"2019-10-26 17:46:26","powerComm":"恢复送电","subsNo":"","lineNo":"","tgNo":"","tgName":null,"infoStatus":"1","orgName":"国网涿州市供电公司","typeName":null,"infoStatusName":null,"dateDay":null,"orgNos":null,"nowTime":null,"countyName":null,"streetName":null,"villageName":null,"roadName":null,"communityName":null,"tranName":null,"sdLineName":null,"cityCode":"1340626","cityName":"国网涿州市供电公司","provinceCode":null,"stopTime":"2019-10-26 18:00:00","powerType":"全部","powerOffArea":"【单台区停电】停东代屯南","powerOffReason":"【停电原因】由于导线架设工程导致２２０ＫＶ豆庄变电站１０ＫＶ中相５７８线路东代屯南公变台区停电 【变更送电】无 【发布渠道】涿州电视台（１０月１６日至１０月２５日２１：００播放２次）屏幕上方滚动","powerOffId":"2019101613000055"},{"poweroffId":2019101613000048,"sgpoweroffId":null,"subsName":"","lineName":"10kV南段庄线512","pubTranName":"1南和庄内7,南和庄内1,大柳树2号,1南和庄内8,1大兴庄内1,1大柳树内6,蔡营内1,大树村外10【纯农排变】,1大柳树内10,1南和庄内10,大柳树幼儿园配变,1南和庄内9,1南和庄内6,蔡营内2区,南和庄内4,大柳树内3,1大柳树内5,大兴庄内2,大柳树内1,1南和庄内5,1大柳树内9,蔡营内3,1大柳树内8,1大柳树内4,南和庄内2,大柳树小学配变,1南和庄内3,1大柳树内7,和庄外12【纯农排变】,南和庄小学配变,","scope":"【影响街道/乡镇】温仁乡 【高危重要客户】无 【影响客户】大柳树村、蔡营、大兴庄、南和庄","startTime":"2019-10-25 05:30:00","stopDate":"2019-10-25 18:00:00","orgNo":"1340618","typeCode":"计划停电","poweroffArea":"【全线路停电】停蠡县华泽针棉织厂,蠡县宋庄金鑫纺织厂,蔡营季兴纺纱厂,清苑县南和庄泰林车床加工门市部,清苑县蔡营国强棉纺织厂,宋庄砖厂,和庄外9【纯农排变】,大柳树外7【纯农排变】,2大兴庄外3【纯农排变】,1南和庄内7,南和庄外17【纯农排变】,南和庄内1,和庄外3【纯农排变】,保定市清苑区辉煌纺织厂01,大柳树外13【纯农排变】,大柳树外12【纯农排变】,大树村外8【纯农排变】,大树外4【纯农排变】,大柳树2号,保定市清苑区辉煌纺织厂,大柳树兴华织布厂,南和庄外1【纯农排变】,1南和庄内8,大柳树外9【纯农排变】,1大兴庄内1,清苑县锦绣纺织有限公司,1大柳树内6,南和庄外16【纯农排变】,清苑县南和庄泰林车床加工门市部01,保定百佳纺织有限公司,大柳树面粉厂,保定市弘织纺织厂,和庄外10【纯农排变】,大柳树外6【纯农排变】,南和庄外14【纯农排变】,大柳树外11【纯农排变】,蔡营内1,南和庄面粉厂,2南和庄外5【纯农排变】,大树村外10【纯农排变】,1大柳树内10,清苑县蔡家营恒达绒线加工厂,南和庄拔丝厂,大柳树幼儿园配变,南邓村外1【纯农排变】,1南和庄内10,清苑县鑫丰轧花有限公司,和庄外2【纯农排变】,和庄外13【纯农排变】,大柳树织布厂,1南和庄内9,清苑县宏宇纺织有限公司,1南和庄内6,清苑县大柳树永兴织布厂,蔡营内2区,南和庄内4,大柳树内3,1大柳树内5,大兴庄内2,南和庄建国面粉厂,大柳树内1,保定市盛寻纺织品制造有限公司,和庄外4【纯农排变】,1南和庄内5,南和庄小学配变,大树外5【纯农排变】,1大柳树内9,蔡营内3,保定柳丰轧花有限公司,腾达毛纺厂,1大柳树内8,1大柳树内4,2南和庄外6【纯农排变】,清苑县宏强砼业有限公司,蔡营外2区【纯农排变】,2南和庄外7【纯农排变】,南和庄内2,2南和庄外8【纯农排变】,南和庄外15【纯农排变】,大柳树小学配变,南和庄李广兴板厂,南和庄李建兴织布厂,1南和庄内3,1大柳树内7,和庄外12【纯农排变】,2大兴庄外2【纯农排变】,南和庄外11【纯农排变】,蔡营外1区【纯农排变】,2大兴庄外4【纯农排变】","poweroffReason":"【停电原因】由于线路改造工程导致３５ＫＶ王盘变电站１０ＫＶ南段庄线５１２线路全线停电 【变更送电】无 【发布渠道】保定市清苑区电视台（２０１９年１０月１７日１９时至２０１９年１０月２４日２０时之间）屏幕上方滚动","powerTime":"2019-10-25 17:53:52","powerComm":"李森通知已送电","subsNo":"","lineNo":"","tgNo":"","tgName":null,"infoStatus":"1","orgName":"国网清苑县供电公司","typeName":null,"infoStatusName":null,"dateDay":null,"orgNos":null,"nowTime":null,"countyName":null,"streetName":null,"villageName":null,"roadName":null,"communityName":null,"tranName":null,"sdLineName":null,"cityCode":"1340618","cityName":"国网清苑县供电公司","provinceCode":null,"stopTime":"2019-10-25 18:00:00","powerType":"全部","powerOffArea":"【全线路停电】停蠡县华泽针棉织厂,蠡县宋庄金鑫纺织厂,蔡营季兴纺纱厂,清苑县南和庄泰林车床加工门市部,清苑县蔡营国强棉纺织厂,宋庄砖厂,和庄外9【纯农排变】,大柳树外7【纯农排变】,2大兴庄外3【纯农排变】,1南和庄内7,南和庄外17【纯农排变】,南和庄内1,和庄外3【纯农排变】,保定市清苑区辉煌纺织厂01,大柳树外13【纯农排变】,大柳树外12【纯农排变】,大树村外8【纯农排变】,大树外4【纯农排变】,大柳树2号,保定市清苑区辉煌纺织厂,大柳树兴华织布厂,南和庄外1【纯农排变】,1南和庄内8,大柳树外9【纯农排变】,1大兴庄内1,清苑县锦绣纺织有限公司,1大柳树内6,南和庄外16【纯农排变】,清苑县南和庄泰林车床加工门市部01,保定百佳纺织有限公司,大柳树面粉厂,保定市弘织纺织厂,和庄外10【纯农排变】,大柳树外6【纯农排变】,南和庄外14【纯农排变】,大柳树外11【纯农排变】,蔡营内1,南和庄面粉厂,2南和庄外5【纯农排变】,大树村外10【纯农排变】,1大柳树内10,清苑县蔡家营恒达绒线加工厂,南和庄拔丝厂,大柳树幼儿园配变,南邓村外1【纯农排变】,1南和庄内10,清苑县鑫丰轧花有限公司,和庄外2【纯农排变】,和庄外13【纯农排变】,大柳树织布厂,1南和庄内9,清苑县宏宇纺织有限公司,1南和庄内6,清苑县大柳树永兴织布厂,蔡营内2区,南和庄内4,大柳树内3,1大柳树内5,大兴庄内2,南和庄建国面粉厂,大柳树内1,保定市盛寻纺织品制造有限公司,和庄外4【纯农排变】,1南和庄内5,南和庄小学配变,大树外5【纯农排变】,1大柳树内9,蔡营内3,保定柳丰轧花有限公司,腾达毛纺厂,1大柳树内8,1大柳树内4,2南和庄外6【纯农排变】,清苑县宏强砼业有限公司,蔡营外2区【纯农排变】,2南和庄外7【纯农排变】,南和庄内2,2南和庄外8【纯农排变】,南和庄外15【纯农排变】,大柳树小学配变,南和庄李广兴板厂,南和庄李建兴织布厂,1南和庄内3,1大柳树内7,和庄外12【纯农排变】,2大兴庄外2【纯农排变】,南和庄外11【纯农排变】,蔡营外1区【纯农排变】,2大兴庄外4【纯农排变】","powerOffReason":"【停电原因】由于线路改造工程导致３５ＫＶ王盘变电站１０ＫＶ南段庄线５１２线路全线停电 【变更送电】无 【发布渠道】保定市清苑区电视台（２０１９年１０月１７日１９时至２０１９年１０月２４日２０时之间）屏幕上方滚动","powerOffId":"2019101613000048"}],"pageModel":{"pageNow":495,"totalCount":10973,"totalPage":1098,"tableRows":0,"pageCount":10,"beginCount":4940},"isExperi":"1"}