{"message":"","today":"2020-06-15","seleList":[{"poweroffId":2019101413000023,"sgpoweroffId":null,"subsName":"","lineName":"10KV魏村551","pubTranName":"魏村张玉江台区变压器,西水北砖厂台区1变压器,魏村西台区变压器,魏村村南2台区变压器,东水北村内台区变压器,魏村村西二台区变压器,魏村东台区变压器,魏村南台区变压器,魏村村北井变压器,西水北北台区变压器,薛家庄高速东台区,魏村西北台区变压器,魏村村北变压器,魏村西坡井变压器【纯农排变】,薛家庄村内变压器,魏村西井变压器,西水北东台区变压器,薛家庄东井变压器,薛家庄高速西台区,西水北南台区变压器,魏村西南台区变压器,","scope":"【影响街道/乡镇】涞水镇 【高危重要客户】无 【影响客户】西水北村、东水北村、薛家庄村、魏村","startTime":"2019-10-14 06:40:45","stopDate":"2019-10-14 10:30:00","orgNo":"1340614","typeCode":"电网故障停限电","poweroffArea":"【全线路停电】停国兴兆烨建材公司630KVA专变,西水北村内变压器,涞水国兴兆烨建筑材料制造有限公司250KVA专变,魏村张玉江台区变压器,魏村西南台区变压器,西水北山坡顶变压器,薛家庄高速东台区,西水北砖厂台区1变压器,水北建筑水泥制品厂,魏村东台区变压器,西水北南台区变压器,魏村西北台区变压器,东水北东台区变压器,薛家庄高速西台区,魏村西井变压器,东水北村内台区变压器,水北水泥制品厂250KVA专变,魏村西坡井变压器【纯农排变】,付铁刚变压器,魏村西台区变压器,西水北东台区变压器,魏村村北变压器,东水北南台区变压器,薛家庄村内变压器,魏村村南2台区变压器,西水北果园变压器,水北加油站,薛家庄东井变压器,西水北北台区变压器,张文坡面粉厂,魏村南台区变压器,西水北中学变压器,魏村村西二台区变压器,魏村村北井变压器","poweroffReason":"【停电原因】由于断路器跳闸导致２２０ＫＶ涞阳变电站１０ＫＶ魏村５５１线路全线停电 【变更送电】因抢修进度加快原因，送电时间由１２：００变更为１０：３０ 【发布渠道】通过９５５９８发布","powerTime":"2019-10-14 10:01:45","powerComm":"已送电","subsNo":"","lineNo":"","tgNo":"","tgName":null,"infoStatus":"1","orgName":"国网涞水县供电公司","typeName":null,"infoStatusName":null,"dateDay":null,"orgNos":null,"nowTime":null,"countyName":null,"streetName":null,"villageName":null,"roadName":null,"communityName":null,"tranName":null,"sdLineName":null,"cityCode":"1340614","cityName":"国网涞水县供电公司","provinceCode":null,"stopTime":"2019-10-14 10:30:00","powerType":"全部","powerOffArea":"【全线路停电】停国兴兆烨建材公司630KVA专变,西水北村内变压器,涞水国兴兆烨建筑材料制造有限公司250KVA专变,魏村张玉江台区变压器,魏村西南台区变压器,西水北山坡顶变压器,薛家庄高速东台区,西水北砖厂台区1变压器,水北建筑水泥制品厂,魏村东台区变压器,西水北南台区变压器,魏村西北台区变压器,东水北东台区变压器,薛家庄高速西台区,魏村西井变压器,东水北村内台区变压器,水北水泥制品厂250KVA专变,魏村西坡井变压器【纯农排变】,付铁刚变压器,魏村西台区变压器,西水北东台区变压器,魏村村北变压器,东水北南台区变压器,薛家庄村内变压器,魏村村南2台区变压器,西水北果园变压器,水北加油站,薛家庄东井变压器,西水北北台区变压器,张文坡面粉厂,魏村南台区变压器,西水北中学变压器,魏村村西二台区变压器,魏村村北井变压器","powerOffReason":"【停电原因】由于断路器跳闸导致２２０ＫＶ涞阳变电站１０ＫＶ魏村５５１线路全线停电 【变更送电】因抢修进度加快原因，送电时间由１２：００变更为１０：３０ 【发布渠道】通过９５５９８发布","powerOffId":"2019101413000023"},{"poweroffId":2019101413000019,"sgpoweroffId":null,"subsName":"","lineName":"造纸厂线514","pubTranName":"南曹庄内中,黄土岗村内1号配变,小西新村村内配变,北曹庄村内配变,南曹庄内西变压器,北曹庄村内3号,尧庄内西配变,黄土岗村内配变,北曹庄内北配变,尧庄村内配变,薛庄村内西变压器,薛庄村内变压器,南曹庄内南配变,尧庄内东配变,尧庄村内2号配变,南曹庄村内变压器,北曹庄内东配变,薛庄村内新增变压器,","scope":"【影响街道/乡镇】中韩庄乡　 【高危重要客户】无　　 【影响客户】北曹庄村、薛庄村、尧庄村、黄土岗村、小西新村、南曹庄","startTime":"2019-10-14 08:30:00","stopDate":"2019-10-14 12:30:00","orgNo":"1340623","typeCode":"其他临时停电","poweroffArea":"【分支停电】停南曹庄内中,黄土岗村内1号配变,小西新村村内配变,北曹庄村内配变,南曹庄内西变压器,北曹庄村内3号,尧庄内西配变,黄土岗村内配变,北曹庄内北配变,尧庄村内配变,薛庄村内西变压器,薛庄村内变压器,南曹庄内南配变,薛庄村内新增变压器,尧庄内东配变,尧庄村内2号配变,南曹庄村内变压器,北曹庄内东配变","poweroffReason":"【停电原因】由于电杆有裂纹，需停电进行紧急消缺导致３５ＫＶ曹庄变电站造纸厂线５１４线路０７７号杆５１４３号开关以下线路停电 【变更送电】无 【发布渠道】通过９５５９８发布","powerTime":"2019-10-14 12:21:06","powerComm":"已送电","subsNo":"","lineNo":"","tgNo":"","tgName":null,"infoStatus":"1","orgName":"国网望都县供电公司","typeName":null,"infoStatusName":null,"dateDay":null,"orgNos":null,"nowTime":null,"countyName":null,"streetName":null,"villageName":null,"roadName":null,"communityName":null,"tranName":null,"sdLineName":null,"cityCode":"1340623","cityName":"国网望都县供电公司","provinceCode":null,"stopTime":"2019-10-14 12:30:00","powerType":"全部","powerOffArea":"【分支停电】停南曹庄内中,黄土岗村内1号配变,小西新村村内配变,北曹庄村内配变,南曹庄内西变压器,北曹庄村内3号,尧庄内西配变,黄土岗村内配变,北曹庄内北配变,尧庄村内配变,薛庄村内西变压器,薛庄村内变压器,南曹庄内南配变,薛庄村内新增变压器,尧庄内东配变,尧庄村内2号配变,南曹庄村内变压器,北曹庄内东配变","powerOffReason":"【停电原因】由于电杆有裂纹，需停电进行紧急消缺导致３５ＫＶ曹庄变电站造纸厂线５１４线路０７７号杆５１４３号开关以下线路停电 【变更送电】无 【发布渠道】通过９５５９８发布","powerOffId":"2019101413000019"},{"poweroffId":2019101413000003,"sgpoweroffId":null,"subsName":"","lineName":"晋庄线511","pubTranName":"佐庄肖振强,振阳染厂(子),07220|佐庄村东南农排5495,宇康纺织有限公司,佐庄村东南新增综合,保定合力达包装公,飞英毛纺有限公司,保定凯曼毛纺织品制造有限公司变压器,袁树来纸箱厂,河北金温迪纺织有限公司,晋庄信用社,07029|乡政府综合3738,河北宇康纺织有限公司变压器,宇康,金温迪纺织有限公司,保定飞英毛纺有限公司变压器,温泉养殖厂,振阳染织厂,","scope":"【影响街道/乡镇】晋庄乡 【高危重要客户】无 【影响客户】杨佐村北、南晋庄村东部分、佐庄村南","startTime":"2019-10-14 00:30:33","stopDate":"2019-10-14 09:00:00","orgNo":"1340613","typeCode":"电网故障停限电","poweroffArea":"【全线路停电】停宇康,河北宇康纺织有限公司变压器,保定凯曼毛纺织品制造有限公司变压器,袁树来纸箱厂,飞英毛纺有限公司,保定合力达包装公,振阳染织厂,晋庄信用社,宇康纺织有限公司,07220|佐庄村东南农排5495,温泉养殖厂,河北金温迪纺织有限公司,07029|乡政府综合3738,金温迪纺织有限公司,佐庄肖振强,保定飞英毛纺有限公司变压器,佐庄村东南新增综合,振阳染厂(子)","poweroffReason":"【停电原因】由于汽车撞杆导致３５ＫＶ杨佐变电站晋庄５１１线路全线停电【变更送电】无【发布渠道】通过９５５９８发布","powerTime":"2019-10-14 08:59:52","powerComm":"已送电","subsNo":"","lineNo":"","tgNo":"","tgName":null,"infoStatus":"1","orgName":"国网高阳县供电公司","typeName":null,"infoStatusName":null,"dateDay":null,"orgNos":null,"nowTime":null,"countyName":null,"streetName":null,"villageName":null,"roadName":null,"communityName":null,"tranName":null,"sdLineName":null,"cityCode":"1340613","cityName":"国网高阳县供电公司","provinceCode":null,"stopTime":"2019-10-14 09:00:00","powerType":"全部","powerOffArea":"【全线路停电】停宇康,河北宇康纺织有限公司变压器,保定凯曼毛纺织品制造有限公司变压器,袁树来纸箱厂,飞英毛纺有限公司,保定合力达包装公,振阳染织厂,晋庄信用社,宇康纺织有限公司,07220|佐庄村东南农排5495,温泉养殖厂,河北金温迪纺织有限公司,07029|乡政府综合3738,金温迪纺织有限公司,佐庄肖振强,保定飞英毛纺有限公司变压器,佐庄村东南新增综合,振阳染厂(子)","powerOffReason":"【停电原因】由于汽车撞杆导致３５ＫＶ杨佐变电站晋庄５１１线路全线停电【变更送电】无【发布渠道】通过９５５９８发布","powerOffId":"2019101413000003"},{"poweroffId":2019101313000233,"sgpoweroffId":null,"subsName":"","lineName":"王各庄线516","pubTranName":"闫庄子小学7283变压器,老姑小学6940变压器,王合庄小学7282变压器,三道岗小学7281变压器,豆铺1319变压器,北长峪小学6922变压器,管家佐小学6939变压器,柏山0784变压器,侯合庄4577变压器,葛庄小学6937变压器,齐家佐中学6925变压器,豆铺村7616变压器【光伏】,葛庄7432变压器,候合庄小学6938变压器,闫庄子1322变压器【纯农排变】,豆铺村7617变压器【光伏】,北长峪3160变压器,王各庄1314变压器,管家佐0829变压器,豆铺5038变压器,全胜庄7034变压器【光伏】,北长峪0816变压器,三道岗7057变压器,南齐家佐3162变压器,王各庄4930变压器,管家佐1419变压器,闫庄子2627变压器,北庄子0806变压器,河南村7003变压器【光伏】,侯合庄1315变压器,葛庄6129变压器,老姑4781变压器,王合庄6942变压器,齐家佐中学6924变压器,豆铺村4717变压器,闫庄子4931变压器,葛庄7157变压器【纯农排变】,北长峪7006变压器【纯农排变】,葛庄7156变压器【纯农排变】,管家佐4668变压器,葛庄1318变压器,管家佐4630变压器,葛庄2123变压器,侯合庄1316变压器,闫庄子1321变压器,北长峪村西水利变压器,王合庄6941变压器,豆铺小学6936变压器,葛庄1317台区变压器,北长峪7033变压器【光伏】,柏山6943变压器,老姑0810变压器,豆铺水利6660变压器【纯农排变】,王各庄1313变压器,老姑4758变压器,葛庄5233变压器,北长峪7039变压器【光伏】,","scope":"【影响街道/乡镇】白合镇【高危重要客户】无【影响客户】柏山村、各庄村、北长峪村、南齐家佐村、后各庄村、老姑村、北庄子村、阎庄子村、管家佐村、王各庄村、豆铺村","startTime":"2019-10-13 19:20:32","stopDate":"2019-10-14 02:10:00","orgNo":"1340622","typeCode":"电网故障停限电","poweroffArea":"【全线路停电】停管家佐小学6939变压器,北庄子2186变压器,保定雄盛建材加工有限公司ZR7650,唐县博鑫加油站10KV配电工程4844,侯合庄4577变压器,葛庄小学6937变压器,卧佛寺水库,唐县齐家佐乡马家峪村农业排灌计量点P7056,齐家佐中学6925变压器,唐县盛玉石料厂3324,保定雄盛建材加工有限公司计量点7994,唐县齐家佐乡王合庄村村民委员,侯合庄1315变压器,葛庄6129变压器,唐县王各庄石料厂3256,老姑4781变压器,齐家佐中学6924变压器,唐县国泰建材销售有限公司5180,唐县白合镇白合碎石场,北长峪3160变压器,唐县鑫冀建材加工有限公司新装6682,北长峪0816变压器,南齐家佐3162变压器,唐县葛庄兴民建材有限公司2921,王各庄4930变压器,卧佛寺灰粉厂2604,豆铺村4717变压器,闫庄子4931变压器,王合庄石料厂1871,唐县白合镇柏江村村民委员会10KV配变,李建国1754,王各庄1312变压器【纯农排变】,唐县国泰建材销售有限公司唐县雅天分公司新装6558,葛庄1317台区变压器,唐县和泰高钙石粉加工厂10KV配变,管家佐1419变压器,保能唐县光伏电力开发有限公司5300,唐县齐家佐乡管家佐村村民委员会10KV配变,闫庄子2627变压器,北庄子0806变压器,唐县白合镇白合碎石厂增容6672,南齐家佐1843变压器,河南村7003变压器【光伏】,唐县齐家佐乡豆铺村,唐县齐家佐乡闫家庄村民委员会新装7769,盛玉石料厂1329,保定雄盛建材加工有限公司XZ7343,保定雄盛建材加工有限公司XZ7342,葛庄7157变压器【纯农排变】,豆铺村7616变压器【光伏】,北长峪7006变压器【纯农排变】,葛庄7156变压器【纯农排变】,管家佐4668变压器,唐县齐家佐乡北长峪村,葛庄1318变压器,唐县祥宇水泥砖厂变压器,管家佐4630变压器,豆铺村7617变压器【光伏】,王各庄1314变压器,河北唐盛畜禽饲养有限公司计量点,管家佐0829变压器,豆铺水利6660变压器【纯农排变】,王各庄1313变压器,豆铺2893变压器【纯农排变】,唐县白合镇歇马村村民委员会7843,北长峪7039变压器【光伏】,河北交建工程有限公司计量点3171,唐县益民石材有限公司2792,管家佐张小月1761,唐县齐家佐乡闫家庄村民委员会XZ7782,中国移动通信集团河北有限公司唐县分公司新装6975,北长峪小学6922变压器,王合庄6942变压器,豆铺5038变压器,全胜庄7034变压器【光伏】,唐县豆明矿产品加工厂,三道岗7057变压器,葛庄2123变压器,侯合庄1316变压器,唐县齐家佐乡王合庄村民委员会10KV配变,葛庄7432变压器,老姑0810变压器,葛庄5233变压器,闫庄子1321变压器,王合庄6941变压器,豆铺小学6936变压器,北长峪7033变压器【光伏】,唐县京远矿产品销售有限公司10KV配变,老姑小学6940变压器,王合庄小学7282变压器,三道岗小学7281变压器,候合庄小学6938变压器,闫庄子1322变压器【纯农排变】,唐县益民石材有限公司,闫庄子小学7283变压器,柏山0784变压器,中开胜达加工厂10KV配变,北长峪4792变压器,恒山庄园,红星木工厂0831,胜利砖厂0828,利民面粉厂0918,柏山6943变压器,老姑4758变压器,北长峪村西水利变压器,齐家佐三道岗村委会7057,豆铺1319变压器","poweroffReason":"【停电原因】由于老姑分支００３号杆断路器击穿导致３５ＫＶ齐家佐变电站王各庄线５１６线路全线停电【变更送电】因抢修进度加快原因，送电时间由１６：００变更为０２：１０【发布渠道】通过９５５９８发布","powerTime":"2019-10-14 01:45:46","powerComm":"已送电","subsNo":"","lineNo":"","tgNo":"","tgName":null,"infoStatus":"1","orgName":"国网唐县供电公司","typeName":null,"infoStatusName":null,"dateDay":null,"orgNos":null,"nowTime":null,"countyName":null,"streetName":null,"villageName":null,"roadName":null,"communityName":null,"tranName":null,"sdLineName":null,"cityCode":"1340622","cityName":"国网唐县供电公司","provinceCode":null,"stopTime":"2019-10-14 02:10:00","powerType":"全部","powerOffArea":"【全线路停电】停管家佐小学6939变压器,北庄子2186变压器,保定雄盛建材加工有限公司ZR7650,唐县博鑫加油站10KV配电工程4844,侯合庄4577变压器,葛庄小学6937变压器,卧佛寺水库,唐县齐家佐乡马家峪村农业排灌计量点P7056,齐家佐中学6925变压器,唐县盛玉石料厂3324,保定雄盛建材加工有限公司计量点7994,唐县齐家佐乡王合庄村村民委员,侯合庄1315变压器,葛庄6129变压器,唐县王各庄石料厂3256,老姑4781变压器,齐家佐中学6924变压器,唐县国泰建材销售有限公司5180,唐县白合镇白合碎石场,北长峪3160变压器,唐县鑫冀建材加工有限公司新装6682,北长峪0816变压器,南齐家佐3162变压器,唐县葛庄兴民建材有限公司2921,王各庄4930变压器,卧佛寺灰粉厂2604,豆铺村4717变压器,闫庄子4931变压器,王合庄石料厂1871,唐县白合镇柏江村村民委员会10KV配变,李建国1754,王各庄1312变压器【纯农排变】,唐县国泰建材销售有限公司唐县雅天分公司新装6558,葛庄1317台区变压器,唐县和泰高钙石粉加工厂10KV配变,管家佐1419变压器,保能唐县光伏电力开发有限公司5300,唐县齐家佐乡管家佐村村民委员会10KV配变,闫庄子2627变压器,北庄子0806变压器,唐县白合镇白合碎石厂增容6672,南齐家佐1843变压器,河南村7003变压器【光伏】,唐县齐家佐乡豆铺村,唐县齐家佐乡闫家庄村民委员会新装7769,盛玉石料厂1329,保定雄盛建材加工有限公司XZ7343,保定雄盛建材加工有限公司XZ7342,葛庄7157变压器【纯农排变】,豆铺村7616变压器【光伏】,北长峪7006变压器【纯农排变】,葛庄7156变压器【纯农排变】,管家佐4668变压器,唐县齐家佐乡北长峪村,葛庄1318变压器,唐县祥宇水泥砖厂变压器,管家佐4630变压器,豆铺村7617变压器【光伏】,王各庄1314变压器,河北唐盛畜禽饲养有限公司计量点,管家佐0829变压器,豆铺水利6660变压器【纯农排变】,王各庄1313变压器,豆铺2893变压器【纯农排变】,唐县白合镇歇马村村民委员会7843,北长峪7039变压器【光伏】,河北交建工程有限公司计量点3171,唐县益民石材有限公司2792,管家佐张小月1761,唐县齐家佐乡闫家庄村民委员会XZ7782,中国移动通信集团河北有限公司唐县分公司新装6975,北长峪小学6922变压器,王合庄6942变压器,豆铺5038变压器,全胜庄7034变压器【光伏】,唐县豆明矿产品加工厂,三道岗7057变压器,葛庄2123变压器,侯合庄1316变压器,唐县齐家佐乡王合庄村民委员会10KV配变,葛庄7432变压器,老姑0810变压器,葛庄5233变压器,闫庄子1321变压器,王合庄6941变压器,豆铺小学6936变压器,北长峪7033变压器【光伏】,唐县京远矿产品销售有限公司10KV配变,老姑小学6940变压器,王合庄小学7282变压器,三道岗小学7281变压器,候合庄小学6938变压器,闫庄子1322变压器【纯农排变】,唐县益民石材有限公司,闫庄子小学7283变压器,柏山0784变压器,中开胜达加工厂10KV配变,北长峪4792变压器,恒山庄园,红星木工厂0831,胜利砖厂0828,利民面粉厂0918,柏山6943变压器,老姑4758变压器,北长峪村西水利变压器,齐家佐三道岗村委会7057,豆铺1319变压器","powerOffReason":"【停电原因】由于老姑分支００３号杆断路器击穿导致３５ＫＶ齐家佐变电站王各庄线５１６线路全线停电【变更送电】因抢修进度加快原因，送电时间由１６：００变更为０２：１０【发布渠道】通过９５５９８发布","powerOffId":"2019101313000233"},{"poweroffId":2019101313000230,"sgpoweroffId":null,"subsName":"","lineName":"金台南583","pubTranName":"厂东关村7#,靖远北大街5#,泰元北大街4#,金台路2#,金台路4#,靖远北大街1#,金台路6#,泰元北大街3#,金台路12#,厂东关村9#,靖远北大街4#,养路工区,靖远北大街2#,金台路10#,厂东关12#,泰元北大街6#,靖远北大街3#,电力局充电桩配电变压器,厂东关村3#,泰元北大街5#,厂东关村2#,厂东关村1#,金台路8#,","scope":"【影响街道/乡镇】城管处、泰元北大街、金台路、靖远北大街 【高危重要客户】无 【影响客户】厂东关村","startTime":"2019-10-13 19:12:51","stopDate":"2019-10-13 21:00:00","orgNo":"1340625","typeCode":"电网故障停限电","poweroffArea":"【全线路停电】停厂东关村1#,泰元北大街5#,养路工区,厂东关村7#,靖远北大街5#,泰元北大街4#,金台路2#,金台路4#,易县易水医院变压器,靖远北大街1#,金台路6#,泰元北大街3#,河北兰姆大叔食品科技有限公司200,金台路12#,厂东关村9#,易县一千零一夜商务酒店有限公司,靖远北大街4#,易县海铭湾洗浴服务部250,金台路10#,河北易县医院,厂东关12#,泰元北大街6#,靖远北大街3#,电力局充电桩配电变压器,厂东关村3#,百益城,景安物业增容1号-1000KVA,和平小区(于占河),靖远北大街2#,0586857887-易县景安物业服务有限公司-专变-125162662-易县景安物业服务有限公司变压器,厂东关村2#,河北景安房地产开发有限公司800KVA-易县520线,燕都名苑小区,金台路8#,景安物业增容2号-1000KVA","poweroffReason":"【停电原因】由于速断掉闸导致１１０ＫＶ店北变电站金台南５８３线路全线停电【变更送电】因抢修进度加快原因，送电时间由２３：００变更为２１：００【发布渠道】通过９５５９８发布","powerTime":"2019-10-13 20:31:06","powerComm":"已送电","subsNo":"","lineNo":"","tgNo":"","tgName":null,"infoStatus":"1","orgName":"国网易县供电公司","typeName":null,"infoStatusName":null,"dateDay":null,"orgNos":null,"nowTime":null,"countyName":null,"streetName":null,"villageName":null,"roadName":null,"communityName":null,"tranName":null,"sdLineName":null,"cityCode":"1340625","cityName":"国网易县供电公司","provinceCode":null,"stopTime":"2019-10-13 21:00:00","powerType":"全部","powerOffArea":"【全线路停电】停厂东关村1#,泰元北大街5#,养路工区,厂东关村7#,靖远北大街5#,泰元北大街4#,金台路2#,金台路4#,易县易水医院变压器,靖远北大街1#,金台路6#,泰元北大街3#,河北兰姆大叔食品科技有限公司200,金台路12#,厂东关村9#,易县一千零一夜商务酒店有限公司,靖远北大街4#,易县海铭湾洗浴服务部250,金台路10#,河北易县医院,厂东关12#,泰元北大街6#,靖远北大街3#,电力局充电桩配电变压器,厂东关村3#,百益城,景安物业增容1号-1000KVA,和平小区(于占河),靖远北大街2#,0586857887-易县景安物业服务有限公司-专变-125162662-易县景安物业服务有限公司变压器,厂东关村2#,河北景安房地产开发有限公司800KVA-易县520线,燕都名苑小区,金台路8#,景安物业增容2号-1000KVA","powerOffReason":"【停电原因】由于速断掉闸导致１１０ＫＶ店北变电站金台南５８３线路全线停电【变更送电】因抢修进度加快原因，送电时间由２３：００变更为２１：００【发布渠道】通过９５５９８发布","powerOffId":"2019101313000230"},{"poweroffId":2019101313000221,"sgpoweroffId":null,"subsName":"","lineName":"荆山口线559","pubTranName":"沿仓台区,插箭岭站559白石口2台区,白石山舍充电桩箱变出线间隔配电变压器,513白石山线白石口新村,513白石山线下北头3,513白石山线金山口1,513白石山线菜村岗3,马庄村光伏变压器【光伏】,513白石山线金山口2,白石口新村2台区,","scope":"【影响街道/乡镇】白石山镇【高危重要客户】无【影响客户】金山口、白石口新村、白石口、沿仓、菜村岗、下北头","startTime":"2019-10-13 18:45:00","stopDate":"2019-10-13 21:20:00","orgNo":"1340615","typeCode":"电网故障停限电","poweroffArea":"【全线路停电】停沿仓台区,513白石山线白石口新村,513白石山线下北头3,513白石山线金山口1,513白石山线菜村岗3,80,涞源县住房和城乡建设局变压器14,0684526591-涞源白石山旅游开发有限公司-专变-228764840-涞源白石山旅游开发有限公司变压器2,马庄村光伏变压器【光伏】,0691800372-涞源县住房和城乡建设局-专变-234151051-涞源县住房和城乡建设局变压器,0691805175-涞源县住房和城乡建设局-专变-234148285-涞源县住房和城乡建设局变压器,513白石山线金山口2,白石口新村2台区,0581062868-涞源县供电有限责任公司菜村岗物资仓库-专变-124661162-王东养殖场变压器,涞源县住房和城乡建设局变压器13,变压器,涞源县住房和城乡建设局变压器15,中国移动通信集团河北有限公司涞源分公司变压器,涞源县住房和城乡建设局变压器12,白石山电视台变压器,涞源县住房和城乡建设局变压器16,0684526591-涞源白石山旅游开发有限公司-专变-223599016-涞源白石山旅游开发有限公司变压器,涞源县建桥铁选厂2,赵爱成石子厂,涞源县硕凯混凝土有限公司变压器1,涞源县安厦城乡发展有限公司变压器,涞源白石山旅游开发有限公司变压器1,白石山旅游开发有限公司,涞源县山顶宾馆有限公司变压器,涞源白石山旅游开发有限公司变压器,涞源易维户外休闲用品有限公司变压器,天宏铁选厂,白石口福利社,旅游用品厂,涞源县森林公安局变压器,八三四发射台,涞源县硕凯混凝土有限公司变压器2,涞源县庆凯沙石购销有限责任公司变压器,东沟养鸡厂1,插箭岭站559白石口2台区,矿泉水厂,亚平（林场）,涞源县建桥铁选厂1,白石旅游开发有限公司变压器,白石山舍充电桩箱变出线间隔配电变压器","poweroffReason":"【停电原因】由于线路Ａ相接地导致３５ＫＶ插箭岭变电站１０ＫＶ荆山口线５５９线路全线停电【变更送电】因抢修进度加快，原定１４日０８：３０送电现计划１３日２１：２０送电【发布渠道】通过９５５９８发布","powerTime":"2019-10-13 20:46:16","powerComm":"已送电","subsNo":"","lineNo":"","tgNo":"","tgName":null,"infoStatus":"1","orgName":"国网涞源县供电公司","typeName":null,"infoStatusName":null,"dateDay":null,"orgNos":null,"nowTime":null,"countyName":null,"streetName":null,"villageName":null,"roadName":null,"communityName":null,"tranName":null,"sdLineName":null,"cityCode":"1340615","cityName":"国网涞源县供电公司","provinceCode":null,"stopTime":"2019-10-13 21:20:00","powerType":"全部","powerOffArea":"【全线路停电】停沿仓台区,513白石山线白石口新村,513白石山线下北头3,513白石山线金山口1,513白石山线菜村岗3,80,涞源县住房和城乡建设局变压器14,0684526591-涞源白石山旅游开发有限公司-专变-228764840-涞源白石山旅游开发有限公司变压器2,马庄村光伏变压器【光伏】,0691800372-涞源县住房和城乡建设局-专变-234151051-涞源县住房和城乡建设局变压器,0691805175-涞源县住房和城乡建设局-专变-234148285-涞源县住房和城乡建设局变压器,513白石山线金山口2,白石口新村2台区,0581062868-涞源县供电有限责任公司菜村岗物资仓库-专变-124661162-王东养殖场变压器,涞源县住房和城乡建设局变压器13,变压器,涞源县住房和城乡建设局变压器15,中国移动通信集团河北有限公司涞源分公司变压器,涞源县住房和城乡建设局变压器12,白石山电视台变压器,涞源县住房和城乡建设局变压器16,0684526591-涞源白石山旅游开发有限公司-专变-223599016-涞源白石山旅游开发有限公司变压器,涞源县建桥铁选厂2,赵爱成石子厂,涞源县硕凯混凝土有限公司变压器1,涞源县安厦城乡发展有限公司变压器,涞源白石山旅游开发有限公司变压器1,白石山旅游开发有限公司,涞源县山顶宾馆有限公司变压器,涞源白石山旅游开发有限公司变压器,涞源易维户外休闲用品有限公司变压器,天宏铁选厂,白石口福利社,旅游用品厂,涞源县森林公安局变压器,八三四发射台,涞源县硕凯混凝土有限公司变压器2,涞源县庆凯沙石购销有限责任公司变压器,东沟养鸡厂1,插箭岭站559白石口2台区,矿泉水厂,亚平（林场）,涞源县建桥铁选厂1,白石旅游开发有限公司变压器,白石山舍充电桩箱变出线间隔配电变压器","powerOffReason":"【停电原因】由于线路Ａ相接地导致３５ＫＶ插箭岭变电站１０ＫＶ荆山口线５５９线路全线停电【变更送电】因抢修进度加快，原定１４日０８：３０送电现计划１３日２１：２０送电【发布渠道】通过９５５９８发布","powerOffId":"2019101313000221"},{"poweroffId":2019101313000210,"sgpoweroffId":null,"subsName":"","lineName":"军农场线511","pubTranName":"北王疃内南2,","scope":"【影响街道/乡镇】中韩庄乡 【高危重要客户】无　　 【影响客户】北王疃村","startTime":"2019-10-13 18:30:30","stopDate":"2019-10-13 20:20:00","orgNo":"1340623","typeCode":"电网故障停限电","poweroffArea":"【单台区停电】停北王疃内南2","poweroffReason":"【停电原因】由于低压刀闸烧导致３５ＫＶ曹庄变电站军农场线５１１线路北王疃内南２号公变台区停电 【变更送电】因抢修进度加快原因，送电时间由２１：３０变更为２０：２０ 【发布渠道】通过９５５９８发布","powerTime":"2019-10-13 19:54:51","powerComm":"已送电","subsNo":"","lineNo":"","tgNo":"","tgName":null,"infoStatus":"1","orgName":"国网望都县供电公司","typeName":null,"infoStatusName":null,"dateDay":null,"orgNos":null,"nowTime":null,"countyName":null,"streetName":null,"villageName":null,"roadName":null,"communityName":null,"tranName":null,"sdLineName":null,"cityCode":"1340623","cityName":"国网望都县供电公司","provinceCode":null,"stopTime":"2019-10-13 20:20:00","powerType":"全部","powerOffArea":"【单台区停电】停北王疃内南2","powerOffReason":"【停电原因】由于低压刀闸烧导致３５ＫＶ曹庄变电站军农场线５１１线路北王疃内南２号公变台区停电 【变更送电】因抢修进度加快原因，送电时间由２１：３０变更为２０：２０ 【发布渠道】通过９５５９８发布","powerOffId":"2019101313000210"},{"poweroffId":2019101313000206,"sgpoweroffId":null,"subsName":"","lineName":"韩家庄577","pubTranName":"石炕村6#,石炕村4#,石炕村2#,石炕村5#,后部村5#,韩家庄村3#,石炕村3#,韩家庄村4#,后部8#,石炕村1#,厂城村10#,","scope":"【影响街道/乡镇】易州镇【高危重要客户】无【影响客户】厂城村、韩家庄村、后部村、石亢村","startTime":"2019-10-13 18:23:27","stopDate":"2019-10-13 21:00:00","orgNo":"1340625","typeCode":"电网故障停限电","poweroffArea":"【全线路停电】停后部村2#,后部7#,新星面粉厂,交通局养路稽征站,编织厂,双民石料购销处(王军),李俊海石子厂,易县玉桥金属工艺品制造有限公司200KVA,后部村(大理石厂),农机加油站,石炕村2#,厂城村11#,后部8#,韩家庄玉桥工艺品厂,苗圃场山上,河北浩智房地产开发有限责任公司变压器,苗圃场内,瑞荣实业有限公司,易县中立石渣厂经销处(程新高),后部村6#,厂城村2#,厂城村8#,易州镇韩家庄村赵智慧,石炕村3#,后部村4#,韩家庄村3#,易县友谊路(回民公墓),易州镇后部村(张振军),石炕村5#,0469134490-易县双民矿业有限公司-专变-46725332-易县双民石料购销处(吴进民),石炕村1#,石炕村4#,易县黄山蜂产品有限公司,易县双民矿业有限公司500KVA,厂城村4#,韩家庄村1#,昆泰石材工艺品厂,后部村5#,石炕村6#,厂城村5#,易县双民矿业有限公司315KVA,厂城村3#,易县燕都铜雕艺术文化有限公司变压器,易县振永洗涤坊变压器,陶瓷厂,中油保定第四十一加油站,石亢村(50万),泰利工艺品厂(马洪文),韩家庄村6#,易县易通农资经营部变压器,石亢四队,厂城村12#,石亢五队,绞胎瓷希望公司,厂城村6#,易县福胜文化石厂(张贵福),厂城村7#,韩家庄5#,万祥汽车修理有限公司,后部村1#,韩家庄村4#,厂城村10#,韩家庄村2#","poweroffReason":"【停电原因】由于速断跳闸导致１１０ＫＶ店北变电站韩家庄５７７线路全线停电【变更送电】因抢修进度加快原因，送电时间由２３：００变更为２１：００【发布渠道】通过９５５９８发布","powerTime":"2019-10-13 20:31:22","powerComm":"已送电","subsNo":"","lineNo":"","tgNo":"","tgName":null,"infoStatus":"1","orgName":"国网易县供电公司","typeName":null,"infoStatusName":null,"dateDay":null,"orgNos":null,"nowTime":null,"countyName":null,"streetName":null,"villageName":null,"roadName":null,"communityName":null,"tranName":null,"sdLineName":null,"cityCode":"1340625","cityName":"国网易县供电公司","provinceCode":null,"stopTime":"2019-10-13 21:00:00","powerType":"全部","powerOffArea":"【全线路停电】停后部村2#,后部7#,新星面粉厂,交通局养路稽征站,编织厂,双民石料购销处(王军),李俊海石子厂,易县玉桥金属工艺品制造有限公司200KVA,后部村(大理石厂),农机加油站,石炕村2#,厂城村11#,后部8#,韩家庄玉桥工艺品厂,苗圃场山上,河北浩智房地产开发有限责任公司变压器,苗圃场内,瑞荣实业有限公司,易县中立石渣厂经销处(程新高),后部村6#,厂城村2#,厂城村8#,易州镇韩家庄村赵智慧,石炕村3#,后部村4#,韩家庄村3#,易县友谊路(回民公墓),易州镇后部村(张振军),石炕村5#,0469134490-易县双民矿业有限公司-专变-46725332-易县双民石料购销处(吴进民),石炕村1#,石炕村4#,易县黄山蜂产品有限公司,易县双民矿业有限公司500KVA,厂城村4#,韩家庄村1#,昆泰石材工艺品厂,后部村5#,石炕村6#,厂城村5#,易县双民矿业有限公司315KVA,厂城村3#,易县燕都铜雕艺术文化有限公司变压器,易县振永洗涤坊变压器,陶瓷厂,中油保定第四十一加油站,石亢村(50万),泰利工艺品厂(马洪文),韩家庄村6#,易县易通农资经营部变压器,石亢四队,厂城村12#,石亢五队,绞胎瓷希望公司,厂城村6#,易县福胜文化石厂(张贵福),厂城村7#,韩家庄5#,万祥汽车修理有限公司,后部村1#,韩家庄村4#,厂城村10#,韩家庄村2#","powerOffReason":"【停电原因】由于速断跳闸导致１１０ＫＶ店北变电站韩家庄５７７线路全线停电【变更送电】因抢修进度加快原因，送电时间由２３：００变更为２１：００【发布渠道】通过９５５９８发布","powerOffId":"2019101313000206"},{"poweroffId":2019101313000182,"sgpoweroffId":null,"subsName":"","lineName":"军农场线511","pubTranName":"北王疃村内东,北王疃村内北,北王疃村内西3号配变,田庄村内西1配变,南陈庄内东2号,田庄内东,田庄村内东1配变,北王疃内南2,中韩庄村内,中韩庄内西,北王疃村内西2号,北王疃村内南,田庄内西,南陈庄内西2号,南陈庄内东,南陈庄内西,田庄村内东2配变,北王疃村内西,","scope":"【影响街道/乡镇】中韩庄乡 【高危重要客户】无　　 【影响客户】南陈庄、中韩庄村、北王疃村、田庄村","startTime":"2019-10-13 16:47:06","stopDate":"2019-10-13 19:00:00","orgNo":"1340623","typeCode":"电网故障停限电","poweroffArea":"【全线路停电】停北王疃村内东,北王疃村内北,北王疃村内西3号配变,田庄村内西1配变,南陈庄内东2号,田庄内东,田庄村内东1配变,北王疃内南2,中韩庄村内,中韩庄内西,田庄内西,北王疃村内西,北王疃村内西2号,北王疃村内南,南陈庄内西2号,南陈庄内东,南陈庄内西,田庄村内东2配变","poweroffReason":"【停电原因】由于Ｂ相接地导致３５ＫＶ曹庄变电站军农场线５１１线路全线停电 【变更送电】因抢修进度加快原因，送电时间由１４日１０：００变更为１３日１９：００ 【发布渠道】通过９５５９８发布","powerTime":"2019-10-13 18:28:50","powerComm":"已送电","subsNo":"","lineNo":"","tgNo":"","tgName":null,"infoStatus":"1","orgName":"国网望都县供电公司","typeName":null,"infoStatusName":null,"dateDay":null,"orgNos":null,"nowTime":null,"countyName":null,"streetName":null,"villageName":null,"roadName":null,"communityName":null,"tranName":null,"sdLineName":null,"cityCode":"1340623","cityName":"国网望都县供电公司","provinceCode":null,"stopTime":"2019-10-13 19:00:00","powerType":"全部","powerOffArea":"【全线路停电】停北王疃村内东,北王疃村内北,北王疃村内西3号配变,田庄村内西1配变,南陈庄内东2号,田庄内东,田庄村内东1配变,北王疃内南2,中韩庄村内,中韩庄内西,田庄内西,北王疃村内西,北王疃村内西2号,北王疃村内南,南陈庄内西2号,南陈庄内东,南陈庄内西,田庄村内东2配变","powerOffReason":"【停电原因】由于Ｂ相接地导致３５ＫＶ曹庄变电站军农场线５１１线路全线停电 【变更送电】因抢修进度加快原因，送电时间由１４日１０：００变更为１３日１９：００ 【发布渠道】通过９５５９８发布","powerOffId":"2019101313000182"},{"poweroffId":2019101313000174,"sgpoweroffId":null,"subsName":"","lineName":"10kV511清醒线","pubTranName":"北清醒村光伏扶贫电变压器【光伏】,隘门口2混用|26000200,隘门口1混用|26000220,宁家庄3混用|26000190,北清醒武军混用|26001650,宁家庄2|26000180,南清醒（万里）|26000090,南清醒|26000100,北清醒1|26000110,北清醒26002060,解放新建综合2号6983,刘家庄混用|26000080,解放2混用|26000040,解放混用|26000020,宁家庄村西2号综合7381,王家庄混用|26000250,南清醒村南新增综合2753,宁家庄|26000330,北清醒2|26001730,刘家庄混用|26000080,庞玉保混用|26000360,隘门口1混用|26000220,","scope":"【影响街道/乡镇】大悲乡【高危重要客户】无【影响客户】解放、天井沟、刘家庄、南清醒、北清醒、宁家庄、隘门口、王家庄、顺平县南华能源环保矿业有限公司","startTime":"2019-10-13 16:29:59","stopDate":"2019-10-13 18:40:00","orgNo":"1340621","typeCode":"电网故障停限电","poweroffArea":"【全线路停电】停刘家庄混用|26000080,隘门口1500农排|26001500【纯农排变】,隘门口2混用|26000200,刘家庄320农排|26000320【纯农排变】,隘门口210农排|26000210【纯农排变】,隘门口1420农排|26001420【纯农排变】,隘门口1混用|26000220,隘门口210农排|26000210【纯农排变】","poweroffReason":"【停电原因】由于雷击变压器导致３５ＫＶ大悲变电站１０ＫＶ５１１清醒线路全线停电【变更送电】因抢修进度加快原因，送电时间由２３：００变更为１８：４０【发布渠道】通过９５５９８发布","powerTime":"2019-10-13 18:03:49","powerComm":"已送电","subsNo":"","lineNo":"","tgNo":"","tgName":null,"infoStatus":"1","orgName":"国网顺平县电力局","typeName":null,"infoStatusName":null,"dateDay":null,"orgNos":null,"nowTime":null,"countyName":null,"streetName":null,"villageName":null,"roadName":null,"communityName":null,"tranName":null,"sdLineName":null,"cityCode":"1340621","cityName":"国网顺平县电力局","provinceCode":null,"stopTime":"2019-10-13 18:40:00","powerType":"全部","powerOffArea":"【全线路停电】停刘家庄混用|26000080,隘门口1500农排|26001500【纯农排变】,隘门口2混用|26000200,刘家庄320农排|26000320【纯农排变】,隘门口210农排|26000210【纯农排变】,隘门口1420农排|26001420【纯农排变】,隘门口1混用|26000220,隘门口210农排|26000210【纯农排变】","powerOffReason":"【停电原因】由于雷击变压器导致３５ＫＶ大悲变电站１０ＫＶ５１１清醒线路全线停电【变更送电】因抢修进度加快原因，送电时间由２３：００变更为１８：４０【发布渠道】通过９５５９８发布","powerOffId":"2019101313000174"}],"pageModel":{"pageNow":504,"totalCount":10973,"totalPage":1098,"tableRows":0,"pageCount":10,"beginCount":5030},"isExperi":"1"}