{"message":"","today":"2020-06-15","seleList":[{"poweroffId":2019101313000064,"sgpoweroffId":null,"subsName":"","lineName":"北关518电力电缆","pubTranName":"河北天行健房地产开发集团有限公司,徐水县建设局建明路路灯1号,徐水县家安物业运行有限公司,徐水县京贸纸盒厂,徐水县平安房地产开发有限公司,盛源67号（欧韵3期南箱变）,徐水县天行健物业管理有限公司,0555835544-徐水县恒星防腐材料厂-专变-94363926-徐水县恒星防腐材料厂,徐水县恒星防腐材料厂1号,徐水县居然房地产发展有限公司,永兴45号箱变(安顺八号),河北天行健房地产开发集团有限公司5号,徐水建明西路83号家属院,中国石油保定162加油站,盛源66号（欧韵3期北箱变）,高庄7号,河北天行健房地产开发集团有限公司3号,永兴12号(安顺苑),河北天行健房地产开发集团有限公司4号,新洋鞋业有限公司,河北万瑞医疗器材有限公司变压器,历城鞋厂,历城刚健鞋业有限公司,河北中恒泰达粮油贸易有限公司,盛源7号（石油公司）,徐水县伟业五金橡胶制造有限公司,中国石油河北徐水石油公司,高庄4号,","scope":"【影响街道/乡镇】安肃镇 【高危重要客户】无 【影响客户】安顺苑小区、安顺八号、石油公司、高庄、欧韵华庭小区、阳光水畔A区","startTime":"2019-10-13 09:26:38","stopDate":"2019-10-13 11:00:00","orgNo":"1340605","typeCode":"电网故障停限电","poweroffArea":"【全线路停电】停历城刚健鞋业有限公司,新洋鞋业有限公司,徐水建明西路83号家属院,盛源67号（欧韵3期南箱变）,历城鞋厂,0555835544-徐水县恒星防腐材料厂-专变-94363926-徐水县恒星防腐材料厂,永兴12号(安顺苑),盛源7号（石油公司）,河北中恒泰达粮油贸易有限公司,永兴45号箱变(安顺八号),高庄7号,中国石油保定162加油站,河北天行健房地产开发集团有限公司3号,徐水县京贸纸盒厂,徐水县建设局建明路路灯1号,河北天行健房地产开发集团有限公司4号,河北天行健房地产开发集团有限公司5号,徐水县伟业五金橡胶制造有限公司,盛源66号（欧韵3期北箱变）,河北万瑞医疗器材有限公司变压器","poweroffReason":"【停电原因】由于Ｂ相接地导致１１０ＫＶ下河西变电站北关５１８线路全线停电 【变更送电】因抢修进度加快原因，送电时间由２３:００变更为１１:００ 【发布渠道】通过９５５９８发布","powerTime":"2019-10-13 10:14:39","powerComm":"已送电","subsNo":"","lineNo":"","tgNo":"","tgName":null,"infoStatus":"1","orgName":"国网徐水县供电公司","typeName":null,"infoStatusName":null,"dateDay":null,"orgNos":null,"nowTime":null,"countyName":null,"streetName":null,"villageName":null,"roadName":null,"communityName":null,"tranName":null,"sdLineName":null,"cityCode":"1340605","cityName":"国网徐水县供电公司","provinceCode":null,"stopTime":"2019-10-13 11:00:00","powerType":"全部","powerOffArea":"【全线路停电】停历城刚健鞋业有限公司,新洋鞋业有限公司,徐水建明西路83号家属院,盛源67号（欧韵3期南箱变）,历城鞋厂,0555835544-徐水县恒星防腐材料厂-专变-94363926-徐水县恒星防腐材料厂,永兴12号(安顺苑),盛源7号（石油公司）,河北中恒泰达粮油贸易有限公司,永兴45号箱变(安顺八号),高庄7号,中国石油保定162加油站,河北天行健房地产开发集团有限公司3号,徐水县京贸纸盒厂,徐水县建设局建明路路灯1号,河北天行健房地产开发集团有限公司4号,河北天行健房地产开发集团有限公司5号,徐水县伟业五金橡胶制造有限公司,盛源66号（欧韵3期北箱变）,河北万瑞医疗器材有限公司变压器","powerOffReason":"【停电原因】由于Ｂ相接地导致１１０ＫＶ下河西变电站北关５１８线路全线停电 【变更送电】因抢修进度加快原因，送电时间由２３:００变更为１１:００ 【发布渠道】通过９５５９８发布","powerOffId":"2019101313000064"},{"poweroffId":2019101313000051,"sgpoweroffId":null,"subsName":"","lineName":"10kV549工业区西线","pubTranName":"南尧城20010340,南尧城新增1号综合8363,南常丰8260,南常丰370综合|20000370,西尧城12160|20010260,西尧城学校混用8950|20008950,北常丰3520|20003520,南常丰570|20000570,西尧城8830|20008830,南常丰380|20000380,512南常丰村南新增综合4338,魏爱军混用8230|20008230,南常丰620|20000620,路灯变压器3号8379,南常丰8670|20008670,北常丰新10310|20010310,西尧城2号2345,公路养护综合3440#|20003440,南常丰8510|20008510,西尧城新增综合7227,512南常丰村北新增综合4340,西尧城0280|20000280,南常丰8680|20008680,南常丰8690|20008690,西尧城8940|20008940,北常丰新增综合1389,北常丰新增1号7870,南尧城西630|20000630,西尧城1号1234,","scope":"【影响街道/乡镇】蒲阳镇【高危重要客户】无【影响客户】南尧城、西尧城、北尧城、南常丰、北常丰、南环公路养护中心","startTime":"2019-10-13 09:04:55","stopDate":"2019-10-13 11:40:00","orgNo":"1340621","typeCode":"电网故障停限电","poweroffArea":"【分支停电】停南常丰8510|20008510,南常丰村南新增农业2号5915【纯农排变】,中国移动河北公司顺平分公司,南常丰村南农业东7924【纯农排变】,南尧城270#农排|20000270【纯农排变】,北常丰新增农业6号（TD）2383【纯农排变】,北常丰新增农业7号（TD）1452【纯农排变】,西尧城新增综合7227,512南常丰村北新增综合4340,南尧城新增农业5565【纯农排变】,北常丰新增农业8号（TD）2387【纯农排变】,北常丰3530#农排|20003530【纯农排变】,南尧城村北农排【纯农排变】,北尧城340#农业|20000340【纯农排变】,南常丰8210#农业|20008210【纯农排变】,西尧城0280|20000280,西尧城670#农业|20000670【纯农排变】,北常丰新增农业1号（TD）1435【纯农排变】,南常丰8680|20008680,南常丰8690|20008690,西尧城8940|20008940,北常丰新增综合1389,北常丰新增1号7870,西尧城8480#农业|20008480【纯农排变】,东尧城240#农排|20000240【纯农排变】,北常丰新增农业2号（TD）1437【纯农排变】,南尧城1号农排【纯农排变】,南常丰8180#农业|20008180【纯农排变】,西尧城290#农业|20000290【纯农排变】,0469126176-保定申成路桥有限责任公司高速公路养护中心-专变-46723613-保定市保阜高速公路筹建处,南尧城西630|20000630,东尧城9640#农排|20009640【纯农排变】,西尧城1号1234,南常丰410#农业|20000410【纯农排变】,南尧城20010340,北尧城360#农业|20000360【纯农排变】,南常丰420#农业|20000420【纯农排变】,南常丰牛厂8250#农排|20008250【纯农排变】,东尧城9620#农排|20009620【纯农排变】,北常丰地板革厂,北尧城8530#农业|20008530【纯农排变】,南尧城新增1号综合8363,四红鸡厂8060#农排|20008060【纯农排变】,南常丰8260,西尧城300#农业|20000300【纯农排变】,北尧城8490#农业|20008490【纯农排变】,南常丰370综合|20000370,南常丰400#农业|20000400【纯农排变】,北常丰8770#农排|20008770【纯农排变】,南常丰390#农业|20000390【纯农排变】,西尧城12160|20010260,西尧城学校混用8950|20008950,北常丰3520|20003520,北常丰新增农业3号（TD）1439【纯农排变】,南常丰570|20000570,顺平县华康肠衣厂,西尧城8830|20008830,南常丰380|20000380,512南常丰村南新增综合4338,北尧城650#农排|20000650【纯农排变】,构件厂,魏爱军混用8230|20008230,北常丰奶牛厂7880#农排|20007880【纯农排变】,南常丰620|20000620,路灯变压器3号8379,北尧城350#农业|20000350【纯农排变】,北常丰新增农业4号（TD）1441【纯农排变】,南常丰8670|20008670,北常丰新10310|20010310,东尧城3460#农排|20003460【纯农排变】,西尧城2号2345,西尧城4800#农业|20004800【纯农排变】,南尧城260#农排|20000260【纯农排变】,北常丰新增农业5号（TD）1444【纯农排变】,公路养护综合3440#|20003440","poweroffReason":"【停电原因】由于大车撞断电杆导致２２０ＫＶ吴家庄变电站１０ＫＶ５４９工业区西线路５０号杆断路器以下线路停电【变更送电】因抢修进度加快原因，送电时间由１８：００变更为１１：４０【发布渠道】通过９５５９８发布","powerTime":"2019-10-13 11:04:26","powerComm":"已送电","subsNo":"","lineNo":"","tgNo":"","tgName":null,"infoStatus":"1","orgName":"国网顺平县电力局","typeName":null,"infoStatusName":null,"dateDay":null,"orgNos":null,"nowTime":null,"countyName":null,"streetName":null,"villageName":null,"roadName":null,"communityName":null,"tranName":null,"sdLineName":null,"cityCode":"1340621","cityName":"国网顺平县电力局","provinceCode":null,"stopTime":"2019-10-13 11:40:00","powerType":"全部","powerOffArea":"【分支停电】停南常丰8510|20008510,南常丰村南新增农业2号5915【纯农排变】,中国移动河北公司顺平分公司,南常丰村南农业东7924【纯农排变】,南尧城270#农排|20000270【纯农排变】,北常丰新增农业6号（TD）2383【纯农排变】,北常丰新增农业7号（TD）1452【纯农排变】,西尧城新增综合7227,512南常丰村北新增综合4340,南尧城新增农业5565【纯农排变】,北常丰新增农业8号（TD）2387【纯农排变】,北常丰3530#农排|20003530【纯农排变】,南尧城村北农排【纯农排变】,北尧城340#农业|20000340【纯农排变】,南常丰8210#农业|20008210【纯农排变】,西尧城0280|20000280,西尧城670#农业|20000670【纯农排变】,北常丰新增农业1号（TD）1435【纯农排变】,南常丰8680|20008680,南常丰8690|20008690,西尧城8940|20008940,北常丰新增综合1389,北常丰新增1号7870,西尧城8480#农业|20008480【纯农排变】,东尧城240#农排|20000240【纯农排变】,北常丰新增农业2号（TD）1437【纯农排变】,南尧城1号农排【纯农排变】,南常丰8180#农业|20008180【纯农排变】,西尧城290#农业|20000290【纯农排变】,0469126176-保定申成路桥有限责任公司高速公路养护中心-专变-46723613-保定市保阜高速公路筹建处,南尧城西630|20000630,东尧城9640#农排|20009640【纯农排变】,西尧城1号1234,南常丰410#农业|20000410【纯农排变】,南尧城20010340,北尧城360#农业|20000360【纯农排变】,南常丰420#农业|20000420【纯农排变】,南常丰牛厂8250#农排|20008250【纯农排变】,东尧城9620#农排|20009620【纯农排变】,北常丰地板革厂,北尧城8530#农业|20008530【纯农排变】,南尧城新增1号综合8363,四红鸡厂8060#农排|20008060【纯农排变】,南常丰8260,西尧城300#农业|20000300【纯农排变】,北尧城8490#农业|20008490【纯农排变】,南常丰370综合|20000370,南常丰400#农业|20000400【纯农排变】,北常丰8770#农排|20008770【纯农排变】,南常丰390#农业|20000390【纯农排变】,西尧城12160|20010260,西尧城学校混用8950|20008950,北常丰3520|20003520,北常丰新增农业3号（TD）1439【纯农排变】,南常丰570|20000570,顺平县华康肠衣厂,西尧城8830|20008830,南常丰380|20000380,512南常丰村南新增综合4338,北尧城650#农排|20000650【纯农排变】,构件厂,魏爱军混用8230|20008230,北常丰奶牛厂7880#农排|20007880【纯农排变】,南常丰620|20000620,路灯变压器3号8379,北尧城350#农业|20000350【纯农排变】,北常丰新增农业4号（TD）1441【纯农排变】,南常丰8670|20008670,北常丰新10310|20010310,东尧城3460#农排|20003460【纯农排变】,西尧城2号2345,西尧城4800#农业|20004800【纯农排变】,南尧城260#农排|20000260【纯农排变】,北常丰新增农业5号（TD）1444【纯农排变】,公路养护综合3440#|20003440","powerOffReason":"【停电原因】由于大车撞断电杆导致２２０ＫＶ吴家庄变电站１０ＫＶ５４９工业区西线路５０号杆断路器以下线路停电【变更送电】因抢修进度加快原因，送电时间由１８：００变更为１１：４０【发布渠道】通过９５５９８发布","powerOffId":"2019101313000051"},{"poweroffId":2019101313000041,"sgpoweroffId":null,"subsName":"","lineName":"10KV沿鲁532","pubTranName":"沿鲁492,","scope":"【影响街道/乡镇】刁窝乡 【高危重要客户】无 【影响客户】沿鲁村","startTime":"2019-10-23 07:00:00","stopDate":"2019-10-23 18:00:00","orgNo":"1340626","typeCode":"计划停电","poweroffArea":"【单台区停电】停沿鲁492","poweroffReason":"【停电原因】由于更换电杆、金具、导线导致１１０ＫＶ刁窝变电站１０ＫＶ沿鲁５３２线路沿鲁４９２公变台区停电 【变更送电】无 【发布渠道】涿州电视台（１０月１３日至１０月２２日２１：００播放２次）屏幕上方滚动","powerTime":"2019-10-23 17:43:15","powerComm":"恢复送电","subsNo":"","lineNo":"","tgNo":"","tgName":null,"infoStatus":"1","orgName":"国网涿州市供电公司","typeName":null,"infoStatusName":null,"dateDay":null,"orgNos":null,"nowTime":null,"countyName":null,"streetName":null,"villageName":null,"roadName":null,"communityName":null,"tranName":null,"sdLineName":null,"cityCode":"1340626","cityName":"国网涿州市供电公司","provinceCode":null,"stopTime":"2019-10-23 18:00:00","powerType":"全部","powerOffArea":"【单台区停电】停沿鲁492","powerOffReason":"【停电原因】由于更换电杆、金具、导线导致１１０ＫＶ刁窝变电站１０ＫＶ沿鲁５３２线路沿鲁４９２公变台区停电 【变更送电】无 【发布渠道】涿州电视台（１０月１３日至１０月２２日２１：００播放２次）屏幕上方滚动","powerOffId":"2019101313000041"},{"poweroffId":2019101313000039,"sgpoweroffId":null,"subsName":"","lineName":"10kV541佟村线路","pubTranName":"大柳5535,","scope":"【影响街道/乡镇】刁窝乡 【高危重要客户】无 【影响客户】大柳村","startTime":"2019-10-23 06:30:00","stopDate":"2019-10-23 18:00:00","orgNo":"1340626","typeCode":"计划停电","poweroffArea":"【单台区停电】停大柳5535","poweroffReason":"【停电原因】由于更换电杆、导线工程导致１１０ＫＶ刁窝变电站１０ＫＶ５４１佟村线路大柳５５３５公变台区停电 【变更送电】无 【发布渠道】涿州电视台（１０月１３日至１０月２２日２１：００播放２次）屏幕上方滚动","powerTime":"2019-10-23 17:41:22","powerComm":"恢复送电","subsNo":"","lineNo":"","tgNo":"","tgName":null,"infoStatus":"1","orgName":"国网涿州市供电公司","typeName":null,"infoStatusName":null,"dateDay":null,"orgNos":null,"nowTime":null,"countyName":null,"streetName":null,"villageName":null,"roadName":null,"communityName":null,"tranName":null,"sdLineName":null,"cityCode":"1340626","cityName":"国网涿州市供电公司","provinceCode":null,"stopTime":"2019-10-23 18:00:00","powerType":"全部","powerOffArea":"【单台区停电】停大柳5535","powerOffReason":"【停电原因】由于更换电杆、导线工程导致１１０ＫＶ刁窝变电站１０ＫＶ５４１佟村线路大柳５５３５公变台区停电 【变更送电】无 【发布渠道】涿州电视台（１０月１３日至１０月２２日２１：００播放２次）屏幕上方滚动","powerOffId":"2019101313000039"},{"poweroffId":2019101313000038,"sgpoweroffId":null,"subsName":"","lineName":"潘各庄线539","pubTranName":"1357潘各庄,","scope":"【影响街道/乡镇】刁窝乡 【高危重要客户】无 【影响客户】潘各庄村","startTime":"2019-10-23 07:00:00","stopDate":"2019-10-23 18:00:00","orgNo":"1340626","typeCode":"计划停电","poweroffArea":"【单台区停电】停1357潘各庄","poweroffReason":"【停电原因】由于更换金具、架设导线导致１１０ＫＶ刁窝变电站潘各庄线５３９线路１３５７潘各庄公变台区停电 【变更送电】无 【发布渠道】涿州电视台（１０月１３日至１０月２２日２１：００播放２次）屏幕上方滚动","powerTime":"2019-10-23 17:43:47","powerComm":"恢复送电","subsNo":"","lineNo":"","tgNo":"","tgName":null,"infoStatus":"1","orgName":"国网涿州市供电公司","typeName":null,"infoStatusName":null,"dateDay":null,"orgNos":null,"nowTime":null,"countyName":null,"streetName":null,"villageName":null,"roadName":null,"communityName":null,"tranName":null,"sdLineName":null,"cityCode":"1340626","cityName":"国网涿州市供电公司","provinceCode":null,"stopTime":"2019-10-23 18:00:00","powerType":"全部","powerOffArea":"【单台区停电】停1357潘各庄","powerOffReason":"【停电原因】由于更换金具、架设导线导致１１０ＫＶ刁窝变电站潘各庄线５３９线路１３５７潘各庄公变台区停电 【变更送电】无 【发布渠道】涿州电视台（１０月１３日至１０月２２日２１：００播放２次）屏幕上方滚动","powerOffId":"2019101313000038"},{"poweroffId":2019101313000037,"sgpoweroffId":null,"subsName":"","lineName":"10KV南三店555","pubTranName":"酱各庄村东,","scope":"【影响街道/乡镇】高官庄镇 【高危重要客户】无 【影响客户】酱各庄村","startTime":"2019-10-23 07:30:00","stopDate":"2019-10-23 18:00:00","orgNo":"1340626","typeCode":"计划停电","poweroffArea":"【单台区停电】停酱各庄村东","poweroffReason":"【停电原因】由于导线架设工程导致１１０ＫＶ松林店变电站１０ＫＶ南三店５５５线路酱各庄村东公变台区停电 【变更送电】无 【发布渠道】涿州电视台（１０月１３日至１０月２２日２１：００播放２次）屏幕上方滚动","powerTime":"2019-10-23 17:42:47","powerComm":"恢复送电","subsNo":"","lineNo":"","tgNo":"","tgName":null,"infoStatus":"1","orgName":"国网涿州市供电公司","typeName":null,"infoStatusName":null,"dateDay":null,"orgNos":null,"nowTime":null,"countyName":null,"streetName":null,"villageName":null,"roadName":null,"communityName":null,"tranName":null,"sdLineName":null,"cityCode":"1340626","cityName":"国网涿州市供电公司","provinceCode":null,"stopTime":"2019-10-23 18:00:00","powerType":"全部","powerOffArea":"【单台区停电】停酱各庄村东","powerOffReason":"【停电原因】由于导线架设工程导致１１０ＫＶ松林店变电站１０ＫＶ南三店５５５线路酱各庄村东公变台区停电 【变更送电】无 【发布渠道】涿州电视台（１０月１３日至１０月２２日２１：００播放２次）屏幕上方滚动","powerOffId":"2019101313000037"},{"poweroffId":2019101313000034,"sgpoweroffId":null,"subsName":"","lineName":"10kV中相578","pubTranName":"东岱屯1027,","scope":"【影响街道/乡镇】豆庄乡 【高危重要客户】无 【影响客户】东岱屯村","startTime":"2019-10-23 08:00:00","stopDate":"2019-10-23 18:00:00","orgNo":"1340626","typeCode":"计划停电","poweroffArea":"【单台区停电】停东岱屯1027","poweroffReason":"【停电原因】由于导线架设工程导致２２０ＫＶ豆庄变电站１０ＫＶ中相５７８线路东岱屯１０２７公变台区停电 【变更送电】无 【发布渠道】涿州电视台（１０月１３日至１０月２２日２１：００播放２次）屏幕上方滚动","powerTime":"2019-10-23 17:42:27","powerComm":"恢复送电","subsNo":"","lineNo":"","tgNo":"","tgName":null,"infoStatus":"1","orgName":"国网涿州市供电公司","typeName":null,"infoStatusName":null,"dateDay":null,"orgNos":null,"nowTime":null,"countyName":null,"streetName":null,"villageName":null,"roadName":null,"communityName":null,"tranName":null,"sdLineName":null,"cityCode":"1340626","cityName":"国网涿州市供电公司","provinceCode":null,"stopTime":"2019-10-23 18:00:00","powerType":"全部","powerOffArea":"【单台区停电】停东岱屯1027","powerOffReason":"【停电原因】由于导线架设工程导致２２０ＫＶ豆庄变电站１０ＫＶ中相５７８线路东岱屯１０２７公变台区停电 【变更送电】无 【发布渠道】涿州电视台（１０月１３日至１０月２２日２１：００播放２次）屏幕上方滚动","powerOffId":"2019101313000034"},{"poweroffId":2019101313000032,"sgpoweroffId":null,"subsName":"","lineName":"10KV义和庄514","pubTranName":"中任西堤1445,","scope":"【影响街道/乡镇】义和庄乡 【高危重要客户】无 【影响客户】中任村","startTime":"2019-10-23 08:00:00","stopDate":"2019-10-23 18:00:00","orgNo":"1340626","typeCode":"计划停电","poweroffArea":"【单台区停电】停中任西堤1445","poweroffReason":"【停电原因】由于挖杆、立杆、架设导线导致３５ＫＶ码头变电站１０ＫＶ义和庄５１４线路中任西堤１４４５公变台区停电 【变更送电】无 【发布渠道】涿州电视台（１０月１３日至１０月２２日２１：００播放２次）屏幕上方滚动","powerTime":"2019-10-23 17:44:19","powerComm":"恢复送电","subsNo":"","lineNo":"","tgNo":"","tgName":null,"infoStatus":"1","orgName":"国网涿州市供电公司","typeName":null,"infoStatusName":null,"dateDay":null,"orgNos":null,"nowTime":null,"countyName":null,"streetName":null,"villageName":null,"roadName":null,"communityName":null,"tranName":null,"sdLineName":null,"cityCode":"1340626","cityName":"国网涿州市供电公司","provinceCode":null,"stopTime":"2019-10-23 18:00:00","powerType":"全部","powerOffArea":"【单台区停电】停中任西堤1445","powerOffReason":"【停电原因】由于挖杆、立杆、架设导线导致３５ＫＶ码头变电站１０ＫＶ义和庄５１４线路中任西堤１４４５公变台区停电 【变更送电】无 【发布渠道】涿州电视台（１０月１３日至１０月２２日２１：００播放２次）屏幕上方滚动","powerOffId":"2019101313000032"},{"poweroffId":2019101313000021,"sgpoweroffId":null,"subsName":"","lineName":"10kV514井营线","pubTranName":"井营农排1台区【纯农排变】,井营农排5台区【纯农排变】,井营农排二台区【纯农排变】,西建华综合一台区,李庄综合一台区,西建华综合十四台区,河西农排1台区【纯农排变】,西建华综合十二台区,井营综合三台区,孟庄农排十一台区【纯农排变】,西建华农排五台区【纯农排变】,井营综合6台区【冬季供暖设施】,李庄综合3台区,李庄综合二台区,西建华农排七台区【纯农排变】,化庄综合4台区,西建华综合17台区,东建华综合14台区,河西综合14台区,东辛庄农排1台区【纯农排变】,孟庄农排五台区【纯农排变】,井营综合5台区,孟庄农排1台区【纯农排变】,蔡庄农排四台区【纯农排变】,西建华综合16台区,井营综合一台区,孟庄农排四台区【纯农排变】,西建华农排八台区【纯农排变】,河西综合17台区,河西农排2台区【纯农排变】,河西综合15台区,化庄综合7台区,西建华农排三台区【纯农排变】,蔡庄综合7台区,西建华农排六台区【纯农排变】,孟庄综合一台区,河西综合十三台区,河西综合3台区,河西综合16台区,东建华综合三台区,东辛庄农排六台区【纯农排变】,蔡庄综合一台区,东建华综合5台区,东建华农排十二台区【纯农排变】,河西综合一台区,东辛庄农排10台区【纯农排变】,孟庄综合3台区,河西综合18台区,邱庄农排1台区【纯农排变】,西建华农排四台区【纯农排变】,河西综合4台区,西建华农排十一台区【纯农排变】,井营综合4台区,蔡庄农排三台区【纯农排变】,东辛庄农排三台区【纯农排变】,李庄综合4台区,东建华农排六台区【纯农排变】,河西综合二台区,东建华综合13台区,东建华综合二台区,化庄综二台，化庄综一台,西建华综合二台区,蔡庄农排二台区【纯农排变】,化庄农排一台区【纯农排变】,西建华综合15台区,李庄农排1台区【纯农排变】,","scope":"【影响街道/乡镇】万安镇【高危重要客户】无【影响客户】李庄村、井营村、东辛庄村、孟庄村、东建华村、西建华村、河西村、蔡家庄、化家庄村、邱庄村","startTime":"2019-10-13 08:33:33","stopDate":"2019-10-13 16:00:00","orgNo":"1340616","typeCode":"电网故障停限电","poweroffArea":"【全线路停电】停东建华农排十二台区【纯农排变】,河西综合一台区,东辛庄农排10台区【纯农排变】,河西综合3台区,孟庄综合一台区,邱庄农排1台区【纯农排变】,孟庄农排1台区【纯农排变】,11525万安镇建业合线厂,东建华综合14台区,河西村农排三台区【纯农排变】,万安腾飞合线厂变压器,河西综合14台区,东辛庄农排1台区【纯农排变】,孟庄农排五台区【纯农排变】,河西综合十三台区,孟庄农排十一台区【纯农排变】,东建华农排五台区【纯农排变】,泰达合线厂,河西综合4台区,孟庄农排二台区【纯农排变】,东建华农排十一台区【纯农排变】,河西综合18台区,东建华农排六台区【纯农排变】,河西综合17台区,河西综合16台区,东建华综合三台区,东辛庄农排六台区【纯农排变】,鹏达合线厂,东建华综合5台区,孟庄综合3台区,邱庄农排5台区【纯农排变】,河西农排2台区【纯农排变】,河西综合15台区,东辛庄农排三台区【纯农排变】,河西腾飞合股厂,河西综合二台区,东建华综合13台区,东建华综合二台区,河西冉军田,建华针织厂,宏达梳绒厂,河西农排1台区【纯农排变】,麦香面粉厂变压器,西建华综合十二台区,井营综合三台区,西建华农排五台区【纯农排变】,井营综合6台区【冬季供暖设施】,李庄综合3台区,李庄综合二台区,化庄综合7台区,西建华农排七台区【纯农排变】,化庄综合4台区,西建华综合17台区,李庄综合4台区,井营综合一台区,井营综合5台区,西建华农排四台区【纯农排变】,李庄综合一台区,西建华综合十四台区,蔡庄综合7台区,西建华农排六台区【纯农排变】,蔡庄综合一台区,西建华农排十一台区【纯农排变】,井营综合4台区,蔡庄农排三台区【纯农排变】,蔡庄农排四台区【纯农排变】,西建华农排八台区【纯农排变】,井营农排1台区【纯农排变】,井营农排5台区【纯农排变】,井营农排二台区【纯农排变】,西建华综合一台区,西建华综合16台区,西建华农排十三台区【纯农排变】,孟庄农排四台区【纯农排变】,西建华农排三台区【纯农排变】,化庄综二台，化庄综一台,西建华农排十台区【纯农排变】,西建华综合二台区,蔡庄农排二台区【纯农排变】,化庄农排一台区【纯农排变】,西建华综合15台区,李庄农排1台区【纯农排变】","poweroffReason":"【停电原因】由于线路接地导致１１０ＫＶ刘铭庄变电站１０ＫＶ井营５１４线路全线停电【变更送电】无【发布渠道】通过９５５９８发布","powerTime":"2019-10-13 15:03:39","powerComm":"已送电","subsNo":"","lineNo":"","tgNo":"","tgName":null,"infoStatus":"1","orgName":"国网蠡县供电公司","typeName":null,"infoStatusName":null,"dateDay":null,"orgNos":null,"nowTime":null,"countyName":null,"streetName":null,"villageName":null,"roadName":null,"communityName":null,"tranName":null,"sdLineName":null,"cityCode":"1340616","cityName":"国网蠡县供电公司","provinceCode":null,"stopTime":"2019-10-13 16:00:00","powerType":"全部","powerOffArea":"【全线路停电】停东建华农排十二台区【纯农排变】,河西综合一台区,东辛庄农排10台区【纯农排变】,河西综合3台区,孟庄综合一台区,邱庄农排1台区【纯农排变】,孟庄农排1台区【纯农排变】,11525万安镇建业合线厂,东建华综合14台区,河西村农排三台区【纯农排变】,万安腾飞合线厂变压器,河西综合14台区,东辛庄农排1台区【纯农排变】,孟庄农排五台区【纯农排变】,河西综合十三台区,孟庄农排十一台区【纯农排变】,东建华农排五台区【纯农排变】,泰达合线厂,河西综合4台区,孟庄农排二台区【纯农排变】,东建华农排十一台区【纯农排变】,河西综合18台区,东建华农排六台区【纯农排变】,河西综合17台区,河西综合16台区,东建华综合三台区,东辛庄农排六台区【纯农排变】,鹏达合线厂,东建华综合5台区,孟庄综合3台区,邱庄农排5台区【纯农排变】,河西农排2台区【纯农排变】,河西综合15台区,东辛庄农排三台区【纯农排变】,河西腾飞合股厂,河西综合二台区,东建华综合13台区,东建华综合二台区,河西冉军田,建华针织厂,宏达梳绒厂,河西农排1台区【纯农排变】,麦香面粉厂变压器,西建华综合十二台区,井营综合三台区,西建华农排五台区【纯农排变】,井营综合6台区【冬季供暖设施】,李庄综合3台区,李庄综合二台区,化庄综合7台区,西建华农排七台区【纯农排变】,化庄综合4台区,西建华综合17台区,李庄综合4台区,井营综合一台区,井营综合5台区,西建华农排四台区【纯农排变】,李庄综合一台区,西建华综合十四台区,蔡庄综合7台区,西建华农排六台区【纯农排变】,蔡庄综合一台区,西建华农排十一台区【纯农排变】,井营综合4台区,蔡庄农排三台区【纯农排变】,蔡庄农排四台区【纯农排变】,西建华农排八台区【纯农排变】,井营农排1台区【纯农排变】,井营农排5台区【纯农排变】,井营农排二台区【纯农排变】,西建华综合一台区,西建华综合16台区,西建华农排十三台区【纯农排变】,孟庄农排四台区【纯农排变】,西建华农排三台区【纯农排变】,化庄综二台，化庄综一台,西建华农排十台区【纯农排变】,西建华综合二台区,蔡庄农排二台区【纯农排变】,化庄农排一台区【纯农排变】,西建华综合15台区,李庄农排1台区【纯农排变】","powerOffReason":"【停电原因】由于线路接地导致１１０ＫＶ刘铭庄变电站１０ＫＶ井营５１４线路全线停电【变更送电】无【发布渠道】通过９５５９８发布","powerOffId":"2019101313000021"},{"poweroffId":2019101213000331,"sgpoweroffId":null,"subsName":"","lineName":"方顺桥线515","pubTranName":"南固店北3号【纯农排变】,南固店东北【纯农排变】,太平庄村内2号,工业区,南固店北【纯农排变】,南固店东南【纯农排变】,南固店村南2号【纯农排变】,方顺桥桥头,决堤南,鑫增有色金属,保定方顺有色金属,方顺桥恒泰熔炼有限公司,方顺桥高标准农田2号【纯农排变】,腾达有色金属,方顺桥龙泉河【纯农排变】,夏庄2号,南固店村西新增,谭头村东【纯农排变】,太平庄高标准农田3号【纯农排变】,方顺桥北【纯农排变】,满城县十万亩基本农田建设第七标段决堤新增2号,南固店村东,太平庄高标准农田2号【纯农排变】,南固店未俊得,鑫宇有色金属熔炼厂,谭头村内,方顺桥南,方顺桥学校新增200,南固店高标准农田4号【纯农排变】,方顺桥村南坝上,太平庄西,南固店北5号,方顺桥庙台,方顺桥西北1号【纯农排变】,鹏辉橡胶造粒厂变压器,南固店沟南,方顺桥羊圈3号【纯农排变】,南固店村南【纯农排变】,南固店沟南新增3号,工业区1号,方顺桥学校东【纯农排变】,方顺桥羊圈2号【纯农排变】,保定市博洋精细化工有限公司,方顺桥南庙台,南固店果园2号,南固店西南2号【纯农排变】,南固店东北水【纯农排变】,太平庄高标准农田1号【纯农排变】,南固店村内新增,太平庄新增3号,方顺桥村委会,南固店高标准农田3号【纯农排变】,大墩台【纯农排变】,夏庄,南固店沟南2号,满城县顺达马钢管件,武装警察8641部队家属,谭头村北新增,龙泉河3号,南固店市场【纯农排变】,工业区2号,刘干饭店,南固店村南新增3号,南固店村东新增,金龙马铝业,大站2号100,南固店营房南200新增,方顺桥新增,方顺桥西北大坝,方顺桥高标准农田5号【纯农排变】,南固店村西,南固店奶牛厂,南固店西南【纯农排变】,南固店村西大坝【纯农排变】,南固店果园,南固店1号【纯农排变】,方顺桥,太平庄新增,谭头村新增,南固店村内【纯农排变】,方顺桥钱坡,南固店西南3号【纯农排变】,李玉扑塑料加工厂,8641部队,南固店边庄,龙泉河2号【纯农排变】,南固店学校东,方顺桥刘金路照明,太平庄村东新增【纯农排变】,南固店边庄2号,鑫坊养殖公司,方顺桥高标准农田1号【纯农排变】,太平庄村东1号,太平庄高标准农田4号【纯农排变】,太平庄新增西南,方顺桥高标准农田6号【纯农排变】,谭头新增1,方顺桥东北2号【纯农排变】,拓华铝材厂,方顺桥高标准农田3号【纯农排变】,南固店高标准农田2号【纯农排变】,方顺桥村内,决堤西南,金达有色金属,谭头高标准农田1号【纯农排变】,部队菜园,方顺桥西北2号【纯农排变】,南固店高标准农田1号【纯农排变】,方顺桥东北【纯农排变】,满城县拓兴金属铸造有限公司,方顺桥8号,方顺桥大队,谭头西,南固店新增2号,谭头新增,决堤西北,方顺桥村西,","scope":"【影响街道/乡镇】方顺桥乡 【高危重要客户】无 【影响客户】南固店、方顺桥、谭头、太平庄","startTime":"2019-10-12 23:00:00","stopDate":"2019-10-13 00:20:00","orgNo":"1340617","typeCode":"其他临时停电","poweroffArea":"【全线路停电】停太平庄高标准农田3号【纯农排变】,方顺桥南庙台,方顺桥大队,夏庄,南固店边庄2号,南固店西南2号【纯农排变】,太平庄高标准农田4号【纯农排变】,太平庄村内2号,夏庄2号,方顺桥桥头,龙泉河2号【纯农排变】,南固店村西大坝【纯农排变】,南固店沟南,南固店沟南新增3号,保定市博洋精细化工有限公司,南固店北5号,南固店高标准农田4号【纯农排变】,方顺桥高标准农田3号【纯农排变】,南固店村西,决堤南,谭头高标准农田1号【纯农排变】,太平庄村东新增【纯农排变】,保定方顺有色金属,南固店东北水【纯农排变】,太平庄高标准农田1号【纯农排变】,方顺桥西北大坝,谭头新增1,南固店沟南2号,南固店市场【纯农排变】,太平庄新增西南,方顺桥东北【纯农排变】,南固店新增2号,太平庄西,南固店高标准农田3号【纯农排变】,方顺桥庙台,南固店高标准农田1号【纯农排变】,方顺桥高标准农田1号【纯农排变】,方顺桥村内,满城县拓兴金属铸造有限公司,南固店果园,太平庄新增,南固店未俊得,方顺桥恒泰熔炼有限公司,谭头村新增,南固店西南3号【纯农排变】,南固店学校东,南固店边庄,太平庄高标准农田2号【纯农排变】,方顺桥羊圈3号【纯农排变】,南固店北【纯农排变】,方顺桥羊圈2号【纯农排变】,谭头村内,工业区2号,方顺桥高标准农田5号【纯农排变】,方顺桥高标准农田6号【纯农排变】,方顺桥龙泉河【纯农排变】,腾达有色金属,拓华铝材厂,南固店村内【纯农排变】,南固店北3号【纯农排变】,部队菜园,南固店村内新增,方顺桥高标准农田2号【纯农排变】,方顺桥村南坝上,工业区1号,南固店东南【纯农排变】,8641部队,工业区,南固店村南2号【纯农排变】,南固店村东,满城县顺达马钢管件,满城县十万亩基本农田建设第七标段决堤新增2号,金达有色金属,鑫宇有色金属熔炼厂,大站2号100,谭头村北新增,方顺桥北【纯农排变】,南固店村南【纯农排变】,南固店营房南200新增,大墩台【纯农排变】,谭头村东【纯农排变】,南固店村西新增,方顺桥南,南固店高标准农田2号【纯农排变】,决堤西南,决堤西北,方顺桥8号,武装警察8641部队家属,李玉扑塑料加工厂,方顺桥村西,南固店西南【纯农排变】,鑫增有色金属,方顺桥学校新增200,南固店村东新增,方顺桥新增,方顺桥刘金路照明,太平庄新增3号,方顺桥村委会,金龙马铝业,方顺桥西北1号【纯农排变】,南固店奶牛厂,南固店1号【纯农排变】,太平庄村东1号,鹏辉橡胶造粒厂变压器,方顺桥学校东【纯农排变】,南固店东北【纯农排变】,龙泉河3号,方顺桥钱坡,方顺桥,方顺桥西北2号【纯农排变】,方顺桥东北2号【纯农排变】,谭头新增,刘干饭店,南固店村南新增3号,谭头西,鑫坊养殖公司,南固店果园2号","poweroffReason":"【停电原因】由于紧急消缺导致１１０ＫＶ西原变电站方顺桥线５１５线路全线停电 【变更送电】因抢修进度加快原因，送电时间由１３日０２：００变更为１３日００：２０ 【发布渠道】通过９５５９８发布","powerTime":"2019-10-12 23:46:31","powerComm":"已送电","subsNo":"","lineNo":"","tgNo":"","tgName":null,"infoStatus":"1","orgName":"国网满城县供电公司","typeName":null,"infoStatusName":null,"dateDay":null,"orgNos":null,"nowTime":null,"countyName":null,"streetName":null,"villageName":null,"roadName":null,"communityName":null,"tranName":null,"sdLineName":null,"cityCode":"1340617","cityName":"国网满城县供电公司","provinceCode":null,"stopTime":"2019-10-13 00:20:00","powerType":"全部","powerOffArea":"【全线路停电】停太平庄高标准农田3号【纯农排变】,方顺桥南庙台,方顺桥大队,夏庄,南固店边庄2号,南固店西南2号【纯农排变】,太平庄高标准农田4号【纯农排变】,太平庄村内2号,夏庄2号,方顺桥桥头,龙泉河2号【纯农排变】,南固店村西大坝【纯农排变】,南固店沟南,南固店沟南新增3号,保定市博洋精细化工有限公司,南固店北5号,南固店高标准农田4号【纯农排变】,方顺桥高标准农田3号【纯农排变】,南固店村西,决堤南,谭头高标准农田1号【纯农排变】,太平庄村东新增【纯农排变】,保定方顺有色金属,南固店东北水【纯农排变】,太平庄高标准农田1号【纯农排变】,方顺桥西北大坝,谭头新增1,南固店沟南2号,南固店市场【纯农排变】,太平庄新增西南,方顺桥东北【纯农排变】,南固店新增2号,太平庄西,南固店高标准农田3号【纯农排变】,方顺桥庙台,南固店高标准农田1号【纯农排变】,方顺桥高标准农田1号【纯农排变】,方顺桥村内,满城县拓兴金属铸造有限公司,南固店果园,太平庄新增,南固店未俊得,方顺桥恒泰熔炼有限公司,谭头村新增,南固店西南3号【纯农排变】,南固店学校东,南固店边庄,太平庄高标准农田2号【纯农排变】,方顺桥羊圈3号【纯农排变】,南固店北【纯农排变】,方顺桥羊圈2号【纯农排变】,谭头村内,工业区2号,方顺桥高标准农田5号【纯农排变】,方顺桥高标准农田6号【纯农排变】,方顺桥龙泉河【纯农排变】,腾达有色金属,拓华铝材厂,南固店村内【纯农排变】,南固店北3号【纯农排变】,部队菜园,南固店村内新增,方顺桥高标准农田2号【纯农排变】,方顺桥村南坝上,工业区1号,南固店东南【纯农排变】,8641部队,工业区,南固店村南2号【纯农排变】,南固店村东,满城县顺达马钢管件,满城县十万亩基本农田建设第七标段决堤新增2号,金达有色金属,鑫宇有色金属熔炼厂,大站2号100,谭头村北新增,方顺桥北【纯农排变】,南固店村南【纯农排变】,南固店营房南200新增,大墩台【纯农排变】,谭头村东【纯农排变】,南固店村西新增,方顺桥南,南固店高标准农田2号【纯农排变】,决堤西南,决堤西北,方顺桥8号,武装警察8641部队家属,李玉扑塑料加工厂,方顺桥村西,南固店西南【纯农排变】,鑫增有色金属,方顺桥学校新增200,南固店村东新增,方顺桥新增,方顺桥刘金路照明,太平庄新增3号,方顺桥村委会,金龙马铝业,方顺桥西北1号【纯农排变】,南固店奶牛厂,南固店1号【纯农排变】,太平庄村东1号,鹏辉橡胶造粒厂变压器,方顺桥学校东【纯农排变】,南固店东北【纯农排变】,龙泉河3号,方顺桥钱坡,方顺桥,方顺桥西北2号【纯农排变】,方顺桥东北2号【纯农排变】,谭头新增,刘干饭店,南固店村南新增3号,谭头西,鑫坊养殖公司,南固店果园2号","powerOffReason":"【停电原因】由于紧急消缺导致１１０ＫＶ西原变电站方顺桥线５１５线路全线停电 【变更送电】因抢修进度加快原因，送电时间由１３日０２：００变更为１３日００：２０ 【发布渠道】通过９５５９８发布","powerOffId":"2019101213000331"}],"pageModel":{"pageNow":506,"totalCount":10973,"totalPage":1098,"tableRows":0,"pageCount":10,"beginCount":5050},"isExperi":"1"}