{"message":"","today":"2020-06-15","seleList":[{"poweroffId":2019101113000029,"sgpoweroffId":null,"subsName":"","lineName":"10KV祖各庄514","pubTranName":"祖各庄东坑台区变压器,王村供电所,北辛庄村南台区,王村中学箱变间隔配电变压器,祖各庄南台区,吴各庄村内2台区,吴各庄村西,北辛庄河套井台区（西）,祖各庄村内台区,北辛庄村西海峰,下庄西台区,张翠台村内台区,吴各庄小学院内变压器,北辛庄公路边台区,祖各庄新东台区,吴各庄公路边变压器,张翠台村北台区,北辛庄东台区,南横七北井变压器,北辛庄西台区,祖各庄村配变柱上变压器,张翠台村内2,张翠台东台区,张翠台高速井,张翠台变压器,吴各庄北台区,吴各庄村南台区,张翠台村北2号台区,北辛庄村西北台区,吴各庄村内,","scope":"【影响街道/乡镇】王村镇 【高危重要客户】无 【影响客户】祖各庄村、吴各庄村、张翠台村、下庄村、北辛庄村","startTime":"2019-10-16 06:00:00","stopDate":"2019-10-16 22:00:00","orgNo":"1340614","typeCode":"临时停电","poweroffArea":"【全线路停电】停张翠台村北2号台区,张翠台砖厂井变压器,0611825203-保定翔海旅游开发有限公司-专变-127816772-翔海旅游315KVA专变,祖各庄西南台区,涞水龙博建材有限公司新增250KVA专变,北辛庄村西北台区,涞水双开饲养有限公司新增变压器,涞水润鑫建材二分厂250,吴各庄村内,0646673503-涞水县航航水泥制品厂-专变-169896449-涞水县航航水泥制品厂新增变压器315KVA,北辛庄西台区,张翠台面粉厂,祖各庄砖厂,承装公司杆厂,祖各庄村配变柱上变压器,张翠台村内2,祖各庄砖厂2,张翠台东台区,祖各庄楼板厂,张翠台高速井,张翠台变压器,吴各庄北台区,吴各庄村南台区,下庄西井【纯农排变】,北辛庄公路边台区,祖各庄新东台区,下庄,祖各庄西北变压器,长和水泥构件,吴各庄公路边变压器,涞水县保北电气安装有限公司200KVA专变,鑫磊石粉厂,张翠台村北8号井变压器,张涿高速涞水互通收费站630KVA专变,张翠台村北台区,北辛庄五方井变压器【纯农排变】,北辛庄东台区,北辛庄三岔井变压器,0469315631-王村粮站-专变-46774540-王村粮站,南横七北井变压器,北辛庄河套井台区（西）,张翠台2号井变压器,下庄北井2变压器【纯农排变】,北辛庄北井变压器,祖各庄村内台区,新兴纸箱厂,北辛庄村西海峰,北辛庄村东北台区,瑞兴隆建材厂,下庄西台区,祖各庄东南台区变压器,张翠台村内台区,吴各庄小学院内变压器,涞水涞聚再生资源利用有限公司2000KVA专变,张翠台万红光机井变压器,0469315367-王村中学-专变-46774539-王村中学,张翠台所北台区,祖各庄东坑台区变压器,王村供电所,北辛庄村南台区,0679135049-涞水龙博建材有限公司-专变-218835593-涞水龙博建材有限公司800KVA专变,国网河北省电力有限公司涿州市供电分公司200KVA专变,王村中学箱变间隔配电变压器,祖各庄南台区,吴各庄村内2台区,吴各庄村西,张翠台村北3,张翠台北井变压器,涿州市供电有限责任公司","poweroffReason":"【停电原因】由于站内检修导致３５ＫＶ王村变电站１０ＫＶ祖各庄５１４线路全线停电 【变更送电】无 【发布渠道】通过９５５９８发布","powerTime":"2019-10-16 21:19:47","powerComm":"已送电","subsNo":"","lineNo":"","tgNo":"","tgName":null,"infoStatus":"1","orgName":"国网涞水县供电公司","typeName":null,"infoStatusName":null,"dateDay":null,"orgNos":null,"nowTime":null,"countyName":null,"streetName":null,"villageName":null,"roadName":null,"communityName":null,"tranName":null,"sdLineName":null,"cityCode":"1340614","cityName":"国网涞水县供电公司","provinceCode":null,"stopTime":"2019-10-16 22:00:00","powerType":"全部","powerOffArea":"【全线路停电】停张翠台村北2号台区,张翠台砖厂井变压器,0611825203-保定翔海旅游开发有限公司-专变-127816772-翔海旅游315KVA专变,祖各庄西南台区,涞水龙博建材有限公司新增250KVA专变,北辛庄村西北台区,涞水双开饲养有限公司新增变压器,涞水润鑫建材二分厂250,吴各庄村内,0646673503-涞水县航航水泥制品厂-专变-169896449-涞水县航航水泥制品厂新增变压器315KVA,北辛庄西台区,张翠台面粉厂,祖各庄砖厂,承装公司杆厂,祖各庄村配变柱上变压器,张翠台村内2,祖各庄砖厂2,张翠台东台区,祖各庄楼板厂,张翠台高速井,张翠台变压器,吴各庄北台区,吴各庄村南台区,下庄西井【纯农排变】,北辛庄公路边台区,祖各庄新东台区,下庄,祖各庄西北变压器,长和水泥构件,吴各庄公路边变压器,涞水县保北电气安装有限公司200KVA专变,鑫磊石粉厂,张翠台村北8号井变压器,张涿高速涞水互通收费站630KVA专变,张翠台村北台区,北辛庄五方井变压器【纯农排变】,北辛庄东台区,北辛庄三岔井变压器,0469315631-王村粮站-专变-46774540-王村粮站,南横七北井变压器,北辛庄河套井台区（西）,张翠台2号井变压器,下庄北井2变压器【纯农排变】,北辛庄北井变压器,祖各庄村内台区,新兴纸箱厂,北辛庄村西海峰,北辛庄村东北台区,瑞兴隆建材厂,下庄西台区,祖各庄东南台区变压器,张翠台村内台区,吴各庄小学院内变压器,涞水涞聚再生资源利用有限公司2000KVA专变,张翠台万红光机井变压器,0469315367-王村中学-专变-46774539-王村中学,张翠台所北台区,祖各庄东坑台区变压器,王村供电所,北辛庄村南台区,0679135049-涞水龙博建材有限公司-专变-218835593-涞水龙博建材有限公司800KVA专变,国网河北省电力有限公司涿州市供电分公司200KVA专变,王村中学箱变间隔配电变压器,祖各庄南台区,吴各庄村内2台区,吴各庄村西,张翠台村北3,张翠台北井变压器,涿州市供电有限责任公司","powerOffReason":"【停电原因】由于站内检修导致３５ＫＶ王村变电站１０ＫＶ祖各庄５１４线路全线停电 【变更送电】无 【发布渠道】通过９５５９８发布","powerOffId":"2019101113000029"},{"poweroffId":2019101113000025,"sgpoweroffId":null,"subsName":"","lineName":"10KV辛庄头512","pubTranName":"赵各庄新村内台区,辛庄头村西2变压器,王村村南【纯农排变】,沈家台村内2台区变压器,同心街村内,代庄南井,杨家台村内台区,杨家台西台区,东王庄村西,辛庄头北台区,赵各庄新东,辛庄头1#变压器,王村大集机井【纯农排变】,辛庄头东台区,张翠台村机井【纯农排变】,沈家台西南台区,辛庄头武装部专变,东十里铺村内,赵各庄东台区变压器,辛庄头村机井【纯农排变】,同心街村西北,代庄东井2号【纯农排变】,王村北2,沈家台南台区,辛庄头河套南井【纯农排变】,王村镇政府箱变配电变压器,辛庄头南2台区,沈家台东台区【纯农排变】,东王庄高速西井【纯农排变】,辛庄头西北,王村东大道1#台区,王村西台区,孔村机井【纯农排变】,王村板厂村机井【纯农排变】,沈家台机井30kVA新建,代庄新东台区,辛庄头南台区,王村东大道2#台区,王村楼板厂机井台区变压器,城内大桥东变压器,王村南井机井【纯农排变】,北关大桥城内村,辛庄头村西,张翠台西北台区,东王庄北井,杨家台村南台区柱上变压器,辛庄头村2#柱上变压器,东十里铺村西井【纯农排变】,同心街村东,沈家台何卫军【纯农排变】,辛庄头村内2变压器,赵各庄中井台区,东王庄高速东井【纯农排变】,王村西二台区,孔村3号井【纯农排变】,沈家台村机井【纯农排变】,城内大桥东台区,王村北台区,吴各庄东南台区,王村南台区,赵各庄村机井【纯农排变】,赵各庄西台区,辛庄头村东2变压器,东王庄高速北井,","scope":"【影响街道/乡镇】王村镇 【高危重要客户】无 【影响客户】王村、孔村、东王庄村、赵各庄村、辛庄头村、同心街村、代庄村、东十里铺村、杨家台村、沈家台村、城内大桥附近北关用户","startTime":"2019-10-16 06:00:00","stopDate":"2019-10-16 22:00:00","orgNo":"1340614","typeCode":"临时停电","poweroffArea":"【全线路停电】停辛庄头村西,东王庄西井【纯农排变】,沈家台新南台区,张翠台西北台区,辛庄头北井2号变压器,王村老南井【纯农排变】,东王庄北井,王村村南【纯农排变】,沈家台村内2台区变压器,王村老西井【纯农排变】,同心街村内,代庄南井,东王庄大队台区,杨家台村内台区,杨家台西台区,东王庄村西,孔村村北,辛庄头北台区,赵各庄新东,辛庄头1#变压器,0670992458-涞水县辛庄头金良水泥制品有限公司-专变-212136071-金良水泥制品有限公司200KVA专变,辛庄头李树林井变压器,王村大集机井【纯农排变】,王村东南井【纯农排变】,辛庄头东台区,赵各庄新村内台区,杨家台村南台区柱上变压器,东王庄东南井【纯农排变】,沈家台机井30kVA新建,孔村4号井【纯农排变】,辛庄头河套东井【纯农排变】,沈家台村内变压器,东十里铺井,代庄新东台区,辛庄头村内台区,王村西二台区,孔村3号井【纯农排变】,沈家台村机井【纯农排变】,城内大桥东台区,王村北台区,杨家台杨保朋井,董德臣井【纯农排变】,沈家台西南井,张翠台新西台区变压器,春烨食用菌农民专业合作社630KVA专变002#,吴各庄东南台区,张翠台果园南井,东王庄村内台区,王村东井【纯农排变】,辛庄头东北井【纯农排变】,0637031226-涞水崑泰商品混凝土有限公司-专变-148264483-崑泰混凝土315KVA专变,赵各庄村南井,王村南台区,沈家台张振国井变压器【纯农排变】,张翠台7队井变压器,王村中台区,郑玉才,王村老东井【纯农排变】,辛庄头村西2变压器,张翠台村机井【纯农排变】,沈家台西南台区,宏瑞石材公司,交通局搅拌站,杨家台果园井,武装部,英利玻璃制品,涞水县住房和城乡建设局50KVA专变,沈家台河套井变压器,辛庄头武装部专变,赵各庄南井2号【纯农排变】,东十里铺村内,王村南井【纯农排变】,东十里铺西台区,赵各庄东台区变压器,辛庄头村机井【纯农排变】,沈家台西井变压器,代庄东井3号【纯农排变】,同心街村西北,代庄东井2号【纯农排变】,沈家台西北井【纯农排变】,辛庄头河套中井【纯农排变】,王村北2,张翠台村果园井变压器【纯农排变】,辛庄头卢金井【纯农排变】,辛庄头东井【纯农排变】,王村东台区,赵各庄村内变压器,沈家台南台区,辛庄头河套南井【纯农排变】,王村镇政府箱变配电变压器,北辛庄二方井变压器,联通公司,辛庄头南2台区,沈家台东台区【纯农排变】,东王庄高速西井【纯农排变】,沈家台西北井2号,东王庄果园井【纯农排变】,辛庄头西北,辛庄头梁启井变压器【纯农排变】,杨家台西井,杨家台王会民井,赵各庄村机井【纯农排变】,沈家台东井,玉财水泥制品厂200KVA专变,赵各庄西台区,辛庄头村东2变压器,东王庄高速北井,王村西井，联通公司,辛庄头村2#柱上变压器,春烨食用菌农民专业合作社630KVA专变,东十里铺村西井【纯农排变】,孔村2号井,同心街村东,辛庄头河套西井【纯农排变】,赵各庄开发区,0659981473-涞水县农村信用合作联社-专变-194288975-涞水县农村信用合作联社新增变压器100KVA,沈家台何卫军【纯农排变】,孔村1号井【纯农排变】,辛庄头村内2变压器,代庄村内,赵各庄中井台区,董英井【纯农排变】,赵各庄新北台区,辛庄头北井 【纯农排变】,北关大桥城内村,春烨食用菌农民专业合作社630KVA专001#,王村东大道1#台区,东王西庄南井【纯农排变】,王村西台区,孔村机井【纯农排变】,杨家台西北井【纯农排变】,王村板厂村机井【纯农排变】,杨家台东井2#【纯农排变】,东王庄横头井【纯农排变】,沈家台南井,辛庄头南台区,王村东大道2#台区,王村楼板","poweroffReason":"【停电原因】由于站内检修导致３５ＫＶ王村变电站１０ＫＶ辛庄头５１２线路全线停电 【变更送电】无 【发布渠道】通过９５５９８发布","powerTime":"2019-10-16 21:19:16","powerComm":"已送电","subsNo":"","lineNo":"","tgNo":"","tgName":null,"infoStatus":"1","orgName":"国网涞水县供电公司","typeName":null,"infoStatusName":null,"dateDay":null,"orgNos":null,"nowTime":null,"countyName":null,"streetName":null,"villageName":null,"roadName":null,"communityName":null,"tranName":null,"sdLineName":null,"cityCode":"1340614","cityName":"国网涞水县供电公司","provinceCode":null,"stopTime":"2019-10-16 22:00:00","powerType":"全部","powerOffArea":"【全线路停电】停辛庄头村西,东王庄西井【纯农排变】,沈家台新南台区,张翠台西北台区,辛庄头北井2号变压器,王村老南井【纯农排变】,东王庄北井,王村村南【纯农排变】,沈家台村内2台区变压器,王村老西井【纯农排变】,同心街村内,代庄南井,东王庄大队台区,杨家台村内台区,杨家台西台区,东王庄村西,孔村村北,辛庄头北台区,赵各庄新东,辛庄头1#变压器,0670992458-涞水县辛庄头金良水泥制品有限公司-专变-212136071-金良水泥制品有限公司200KVA专变,辛庄头李树林井变压器,王村大集机井【纯农排变】,王村东南井【纯农排变】,辛庄头东台区,赵各庄新村内台区,杨家台村南台区柱上变压器,东王庄东南井【纯农排变】,沈家台机井30kVA新建,孔村4号井【纯农排变】,辛庄头河套东井【纯农排变】,沈家台村内变压器,东十里铺井,代庄新东台区,辛庄头村内台区,王村西二台区,孔村3号井【纯农排变】,沈家台村机井【纯农排变】,城内大桥东台区,王村北台区,杨家台杨保朋井,董德臣井【纯农排变】,沈家台西南井,张翠台新西台区变压器,春烨食用菌农民专业合作社630KVA专变002#,吴各庄东南台区,张翠台果园南井,东王庄村内台区,王村东井【纯农排变】,辛庄头东北井【纯农排变】,0637031226-涞水崑泰商品混凝土有限公司-专变-148264483-崑泰混凝土315KVA专变,赵各庄村南井,王村南台区,沈家台张振国井变压器【纯农排变】,张翠台7队井变压器,王村中台区,郑玉才,王村老东井【纯农排变】,辛庄头村西2变压器,张翠台村机井【纯农排变】,沈家台西南台区,宏瑞石材公司,交通局搅拌站,杨家台果园井,武装部,英利玻璃制品,涞水县住房和城乡建设局50KVA专变,沈家台河套井变压器,辛庄头武装部专变,赵各庄南井2号【纯农排变】,东十里铺村内,王村南井【纯农排变】,东十里铺西台区,赵各庄东台区变压器,辛庄头村机井【纯农排变】,沈家台西井变压器,代庄东井3号【纯农排变】,同心街村西北,代庄东井2号【纯农排变】,沈家台西北井【纯农排变】,辛庄头河套中井【纯农排变】,王村北2,张翠台村果园井变压器【纯农排变】,辛庄头卢金井【纯农排变】,辛庄头东井【纯农排变】,王村东台区,赵各庄村内变压器,沈家台南台区,辛庄头河套南井【纯农排变】,王村镇政府箱变配电变压器,北辛庄二方井变压器,联通公司,辛庄头南2台区,沈家台东台区【纯农排变】,东王庄高速西井【纯农排变】,沈家台西北井2号,东王庄果园井【纯农排变】,辛庄头西北,辛庄头梁启井变压器【纯农排变】,杨家台西井,杨家台王会民井,赵各庄村机井【纯农排变】,沈家台东井,玉财水泥制品厂200KVA专变,赵各庄西台区,辛庄头村东2变压器,东王庄高速北井,王村西井，联通公司,辛庄头村2#柱上变压器,春烨食用菌农民专业合作社630KVA专变,东十里铺村西井【纯农排变】,孔村2号井,同心街村东,辛庄头河套西井【纯农排变】,赵各庄开发区,0659981473-涞水县农村信用合作联社-专变-194288975-涞水县农村信用合作联社新增变压器100KVA,沈家台何卫军【纯农排变】,孔村1号井【纯农排变】,辛庄头村内2变压器,代庄村内,赵各庄中井台区,董英井【纯农排变】,赵各庄新北台区,辛庄头北井 【纯农排变】,北关大桥城内村,春烨食用菌农民专业合作社630KVA专001#,王村东大道1#台区,东王西庄南井【纯农排变】,王村西台区,孔村机井【纯农排变】,杨家台西北井【纯农排变】,王村板厂村机井【纯农排变】,杨家台东井2#【纯农排变】,东王庄横头井【纯农排变】,沈家台南井,辛庄头南台区,王村东大道2#台区,王村楼板","powerOffReason":"【停电原因】由于站内检修导致３５ＫＶ王村变电站１０ＫＶ辛庄头５１２线路全线停电 【变更送电】无 【发布渠道】通过９５５９８发布","powerOffId":"2019101113000025"},{"poweroffId":2019101013000449,"sgpoweroffId":null,"subsName":"","lineName":"10kV联盟路站530线路","pubTranName":"C040柱上变压器,","scope":"【影响街道/乡镇】焦庄乡 【高危重要客户】无 【影响客户】西韩蒋","startTime":"2019-10-10 21:00:00","stopDate":"2019-10-10 23:00:00","orgNo":"13406","typeCode":"电网故障停限电","poweroffArea":"【单台区停电】停C040柱上变压器","poweroffReason":"【停电原因】由于低压电缆断导致１０ＫＶ联盟变电站５３０线路Ｃ０４０公变台区停电【变更送电】因工作正在处理中，送电时间由２２:３０变更为００:００，因抢修进度加快，原定００:００送电现计划２３:００送电【发布渠道】通过９５５９８发布","powerTime":"2019-10-10 22:25:39","powerComm":"已送电","subsNo":"","lineNo":"","tgNo":"","tgName":null,"infoStatus":"1","orgName":"保定供电公司","typeName":null,"infoStatusName":null,"dateDay":null,"orgNos":null,"nowTime":null,"countyName":null,"streetName":null,"villageName":null,"roadName":null,"communityName":null,"tranName":null,"sdLineName":null,"cityCode":"13406","cityName":"保定供电公司","provinceCode":null,"stopTime":"2019-10-10 23:00:00","powerType":"全部","powerOffArea":"【单台区停电】停C040柱上变压器","powerOffReason":"【停电原因】由于低压电缆断导致１０ＫＶ联盟变电站５３０线路Ｃ０４０公变台区停电【变更送电】因工作正在处理中，送电时间由２２:３０变更为００:００，因抢修进度加快，原定００:００送电现计划２３:００送电【发布渠道】通过９５５９８发布","powerOffId":"2019101013000449"},{"poweroffId":2019101013000445,"sgpoweroffId":null,"subsName":"","lineName":"10kV576大近同线","pubTranName":"东町公用照明2台区,东町公用照明5台区,","scope":"【影响街道/乡镇】开元镇【高危重要客户】无【影响客户】东疃（东念自疃村）","startTime":"2019-10-11 06:40:00","stopDate":"2019-10-11 18:00:00","orgNo":"1340610","typeCode":"其他临时停电","poweroffArea":"【分支停电】停东町公用照明2台区,东町公用照明5台区","poweroffReason":"【停电原因】由于电杆倾斜需停电进行紧急检修导致１１０ＫＶ明月店变电站１０ＫＶ５７６大近同线路东疃街南分支０１号杆０２号断路器以下线路停电 【变更送电】无 【发布渠道】９５５９８","powerTime":"2019-10-11 17:17:34","powerComm":"已送电","subsNo":"","lineNo":"","tgNo":"","tgName":null,"infoStatus":"1","orgName":"国网定州市供电公司","typeName":null,"infoStatusName":null,"dateDay":null,"orgNos":null,"nowTime":null,"countyName":null,"streetName":null,"villageName":null,"roadName":null,"communityName":null,"tranName":null,"sdLineName":null,"cityCode":"1340610","cityName":"国网定州市供电公司","provinceCode":null,"stopTime":"2019-10-11 18:00:00","powerType":"全部","powerOffArea":"【分支停电】停东町公用照明2台区,东町公用照明5台区","powerOffReason":"【停电原因】由于电杆倾斜需停电进行紧急检修导致１１０ＫＶ明月店变电站１０ＫＶ５７６大近同线路东疃街南分支０１号杆０２号断路器以下线路停电 【变更送电】无 【发布渠道】９５５９８","powerOffId":"2019101013000445"},{"poweroffId":2019101013000363,"sgpoweroffId":null,"subsName":"","lineName":"10kV517东坂线","pubTranName":"大西丈公用农业5台区【纯农排变】,西南宋公用农业3台区【纯农排变】,定州市庞村镇庞村砖厂,客户投资_东南宋公用照明5台区,西南宋公用照明4台区,大西丈村公用照明4台区,大西丈公用照明14台区,大西丈公用农业4台区【纯农排变】,北庞村公用照明14台区,西南宋公用照明2台区,大西丈公用照明10台区,庞村公用照明10台区1,东坂村公用照明2台区,东坂村公用照明1台区,东南宋公用照明7台区,西南宋公用照明3台区,西南宋公用照明6台区,张家庄村公用照明1台区,客户投资_大西仗村公用照明1台区,庞村公用照明4台区,大西丈公用照明8台区,大西丈公用照明13台区,东南宋公用照明6台区,东坂公用照明3台区,庞村公用照明5台区,定州市光明体品公司,大西丈公用照明12台区,东南宋公用照明4台区,庞村公用照明11台区1,庞村公用照明1台区,大西仗村公用照明3台区,庞村公用照明3台区,大西丈公用照明6台区,西南宋村公用照明1台区,庞村公用照明8台区1,东南宋公用农业4台区【纯农排变】,大西丈公用农业3台区【纯农排变】,北庞村公用照明13台区,东南宋公用农业3台区【纯农排变】,张家庄公用农业1台区【纯农排变】,大西丈公用农业9台区【纯农排变】,定州市庞村镇庞村社区村民委员会变压器,定州市庞村镇庞村村民委员会（庞村村南）,东坂公用照明4台区,大西丈公用照明11台区,东南宋公用照明2台区,东南宋公用照明1台区,东南宋公用照明3台区,张家庄公用照明2台区,大西丈公用照明9台区,大西丈公用照明7台区,定州市庞村镇东南宋体育用品厂,","scope":"【影响街道/乡镇】砖路镇、庞村镇【高危重要客户】无【影响客户】张家庄村、东南宋村、西南宋村、大西丈村、东坂村、北庞村","startTime":"2019-10-23 06:10:00","stopDate":"2019-10-23 16:30:00","orgNo":"1340610","typeCode":"计划停电","poweroffArea":"【全线路停电】停西南宋公用照明3台区,西南宋公用照明6台区,张家庄村公用照明1台区,客户投资_大西仗村公用照明1台区,庞村公用照明4台区,大西丈公用照明8台区,大西丈公用照明13台区,东南宋公用照明6台区,东坂公用照明3台区,庞村公用照明5台区,定州市光明体品公司,大西丈公用照明12台区,东南宋公用照明4台区,庞村公用照明11台区1,庞村公用照明1台区,大西仗村公用照明3台区,庞村公用照明3台区,大西丈公用照明6台区,西南宋村公用照明1台区,北庞村公用照明14台区,西南宋公用照明2台区,大西丈公用照明10台区,庞村公用照明10台区1,东坂村公用照明2台区,东坂村公用照明1台区,东南宋公用照明7台区,东坂公用照明4台区,大西丈公用照明11台区,东南宋公用照明2台区,东南宋公用照明1台区,东南宋公用照明3台区,张家庄公用照明2台区,大西丈公用照明9台区,大西丈公用照明7台区,定州市庞村镇东南宋体育用品厂,庞村公用照明8台区1,东南宋公用农业4台区【纯农排变】,大西丈公用农业3台区【纯农排变】,北庞村公用照明13台区,东南宋公用农业3台区【纯农排变】,张家庄公用农业1台区【纯农排变】,大西丈公用农业9台区【纯农排变】,定州市庞村镇庞村社区村民委员会变压器,定州市庞村镇庞村村民委员会（庞村村南）,大西丈公用农业5台区【纯农排变】,西南宋公用农业3台区【纯农排变】,定州市庞村镇庞村砖厂,客户投资_东南宋公用照明5台区,西南宋公用照明4台区,大西丈村公用照明4台区,大西丈公用照明14台区,大西丈公用农业4台区【纯农排变】","poweroffReason":"【停电原因】由于更换电杆导致３５ＫＶ北庞村变电站１０ＫＶ５１７东坂线路全线停电 【变更送电】无 【发布渠道】河北省定州市定州日报第三版（２０１９年１０月１１日） 　","powerTime":"2019-10-23 16:24:40","powerComm":"已送电","subsNo":"","lineNo":"","tgNo":"","tgName":null,"infoStatus":"1","orgName":"国网定州市供电公司","typeName":null,"infoStatusName":null,"dateDay":null,"orgNos":null,"nowTime":null,"countyName":null,"streetName":null,"villageName":null,"roadName":null,"communityName":null,"tranName":null,"sdLineName":null,"cityCode":"1340610","cityName":"国网定州市供电公司","provinceCode":null,"stopTime":"2019-10-23 16:30:00","powerType":"全部","powerOffArea":"【全线路停电】停西南宋公用照明3台区,西南宋公用照明6台区,张家庄村公用照明1台区,客户投资_大西仗村公用照明1台区,庞村公用照明4台区,大西丈公用照明8台区,大西丈公用照明13台区,东南宋公用照明6台区,东坂公用照明3台区,庞村公用照明5台区,定州市光明体品公司,大西丈公用照明12台区,东南宋公用照明4台区,庞村公用照明11台区1,庞村公用照明1台区,大西仗村公用照明3台区,庞村公用照明3台区,大西丈公用照明6台区,西南宋村公用照明1台区,北庞村公用照明14台区,西南宋公用照明2台区,大西丈公用照明10台区,庞村公用照明10台区1,东坂村公用照明2台区,东坂村公用照明1台区,东南宋公用照明7台区,东坂公用照明4台区,大西丈公用照明11台区,东南宋公用照明2台区,东南宋公用照明1台区,东南宋公用照明3台区,张家庄公用照明2台区,大西丈公用照明9台区,大西丈公用照明7台区,定州市庞村镇东南宋体育用品厂,庞村公用照明8台区1,东南宋公用农业4台区【纯农排变】,大西丈公用农业3台区【纯农排变】,北庞村公用照明13台区,东南宋公用农业3台区【纯农排变】,张家庄公用农业1台区【纯农排变】,大西丈公用农业9台区【纯农排变】,定州市庞村镇庞村社区村民委员会变压器,定州市庞村镇庞村村民委员会（庞村村南）,大西丈公用农业5台区【纯农排变】,西南宋公用农业3台区【纯农排变】,定州市庞村镇庞村砖厂,客户投资_东南宋公用照明5台区,西南宋公用照明4台区,大西丈村公用照明4台区,大西丈公用照明14台区,大西丈公用农业4台区【纯农排变】","powerOffReason":"【停电原因】由于更换电杆导致３５ＫＶ北庞村变电站１０ＫＶ５１７东坂线路全线停电 【变更送电】无 【发布渠道】河北省定州市定州日报第三版（２０１９年１０月１１日） 　","powerOffId":"2019101013000363"},{"poweroffId":2019101013000350,"sgpoweroffId":null,"subsName":"","lineName":"10kV瓦子里512线","pubTranName":"瓦子里综合20号变压器,瓦子里综合3号变压器,瓦子里综合4号,","scope":"【影响街道/乡镇】段村乡 【高危重要客户】无 【影响客户】瓦子里村","startTime":"2019-10-18 06:30:00","stopDate":"2019-10-18 18:00:00","orgNo":"1340606","typeCode":"临时停电","poweroffArea":"【全线路停电】停瓦子里综合20号变压器,瓦子里综合3号变压器,瓦子里综合4号","poweroffReason":"【停电原因】由于线路检修导致３５ＫＶ边三庄变电站１０ＫＶ瓦子里５１２线路全线停电 【变更送电】无 【发布渠道】保定市安国电视台（１０月１６日００时至２４时之间）屏幕上方滚动","powerTime":"2019-10-18 17:30:24","powerComm":"已送电","subsNo":"","lineNo":"","tgNo":"","tgName":null,"infoStatus":"1","orgName":"国网安国市供电公司","typeName":null,"infoStatusName":null,"dateDay":null,"orgNos":null,"nowTime":null,"countyName":null,"streetName":null,"villageName":null,"roadName":null,"communityName":null,"tranName":null,"sdLineName":null,"cityCode":"1340606","cityName":"国网安国市供电公司","provinceCode":null,"stopTime":"2019-10-18 18:00:00","powerType":"全部","powerOffArea":"【全线路停电】停瓦子里综合20号变压器,瓦子里综合3号变压器,瓦子里综合4号","powerOffReason":"【停电原因】由于线路检修导致３５ＫＶ边三庄变电站１０ＫＶ瓦子里５１２线路全线停电 【变更送电】无 【发布渠道】保定市安国电视台（１０月１６日００时至２４时之间）屏幕上方滚动","powerOffId":"2019101013000350"},{"poweroffId":2019101013000339,"sgpoweroffId":null,"subsName":"","lineName":"10kV段村513线","pubTranName":"北段村综合5号变压器,北段综合7号,边三庄综1变压器,","scope":"【影响街道/乡镇】段村乡 【高危重要客户】无 【影响客户】北段村，南段村，边三庄村，翟营村","startTime":"2019-10-18 06:30:00","stopDate":"2019-10-18 18:00:00","orgNo":"1340606","typeCode":"临时停电","poweroffArea":"【全线路停电】停北段村综合5号变压器,北段综合7号,边三庄综1变压器","poweroffReason":"【停电原因】由于线路检修导致３５ＫＶ边三庄变电站１０ＫＶ段村５１３线路全线停电 【变更送电】无 【发布渠道】保定市安国电视台（１０月１６日００时至２４时之间）屏幕上方滚动","powerTime":"2019-10-18 17:30:09","powerComm":"已送电","subsNo":"","lineNo":"","tgNo":"","tgName":null,"infoStatus":"1","orgName":"国网安国市供电公司","typeName":null,"infoStatusName":null,"dateDay":null,"orgNos":null,"nowTime":null,"countyName":null,"streetName":null,"villageName":null,"roadName":null,"communityName":null,"tranName":null,"sdLineName":null,"cityCode":"1340606","cityName":"国网安国市供电公司","provinceCode":null,"stopTime":"2019-10-18 18:00:00","powerType":"全部","powerOffArea":"【全线路停电】停北段村综合5号变压器,北段综合7号,边三庄综1变压器","powerOffReason":"【停电原因】由于线路检修导致３５ＫＶ边三庄变电站１０ＫＶ段村５１３线路全线停电 【变更送电】无 【发布渠道】保定市安国电视台（１０月１６日００时至２４时之间）屏幕上方滚动","powerOffId":"2019101013000339"},{"poweroffId":2019101013000332,"sgpoweroffId":null,"subsName":"","lineName":"10kV北都511线","pubTranName":"小内综合3号,中照综合5号,西照综合4号变压器,","scope":"【影响街道/乡镇】段村乡 【高危重要客户】无 【影响客户】小内村，中照村，西照村","startTime":"2019-10-18 06:30:00","stopDate":"2019-10-18 18:00:00","orgNo":"1340606","typeCode":"临时停电","poweroffArea":"【全线路停电】停小内综合3号,中照综合5号,西照综合4号变压器","poweroffReason":"【停电原因】由于线路检修导致３５ＫＶ边三庄变电站１０ＫＶ北都５１１线路全线停电 【变更送电】无 【发布渠道】保定市安国电视台（１０月１６日００时至２４时之间）屏幕上方滚动","powerTime":"2019-10-18 17:30:36","powerComm":"已送电","subsNo":"","lineNo":"","tgNo":"","tgName":null,"infoStatus":"1","orgName":"国网安国市供电公司","typeName":null,"infoStatusName":null,"dateDay":null,"orgNos":null,"nowTime":null,"countyName":null,"streetName":null,"villageName":null,"roadName":null,"communityName":null,"tranName":null,"sdLineName":null,"cityCode":"1340606","cityName":"国网安国市供电公司","provinceCode":null,"stopTime":"2019-10-18 18:00:00","powerType":"全部","powerOffArea":"【全线路停电】停小内综合3号,中照综合5号,西照综合4号变压器","powerOffReason":"【停电原因】由于线路检修导致３５ＫＶ边三庄变电站１０ＫＶ北都５１１线路全线停电 【变更送电】无 【发布渠道】保定市安国电视台（１０月１６日００时至２４时之间）屏幕上方滚动","powerOffId":"2019101013000332"},{"poweroffId":2019101013000305,"sgpoweroffId":null,"subsName":"","lineName":"10kV薛留营站513线路","pubTranName":"B1069柱上变压器,","scope":"【影响街道/乡镇】新北街 【高危重要客户】无 【影响客户】邮电器材机械厂、新北街121号","startTime":"2019-10-10 16:20:00","stopDate":"2019-10-10 20:00:00","orgNo":"13406","typeCode":"电网故障停限电","poweroffArea":"【单台区停电】停B1069柱上变压器","poweroffReason":"【停电原因】由于变压器打火导致１０ＫＶ薛留营变电站５１３线路Ｂ１０６９公变台区停电【变更送电】因抢修进度加快，原定２３:００送电现计划２０:００送电【发布渠道】通过９５５９８发布","powerTime":"2019-10-10 19:51:08","powerComm":"已送电","subsNo":"","lineNo":"","tgNo":"","tgName":null,"infoStatus":"1","orgName":"保定供电公司","typeName":null,"infoStatusName":null,"dateDay":null,"orgNos":null,"nowTime":null,"countyName":null,"streetName":null,"villageName":null,"roadName":null,"communityName":null,"tranName":null,"sdLineName":null,"cityCode":"13406","cityName":"保定供电公司","provinceCode":null,"stopTime":"2019-10-10 20:00:00","powerType":"全部","powerOffArea":"【单台区停电】停B1069柱上变压器","powerOffReason":"【停电原因】由于变压器打火导致１０ＫＶ薛留营变电站５１３线路Ｂ１０６９公变台区停电【变更送电】因抢修进度加快，原定２３:００送电现计划２０:００送电【发布渠道】通过９５５９８发布","powerOffId":"2019101013000305"},{"poweroffId":2019101013000302,"sgpoweroffId":null,"subsName":"","lineName":"10kV鲁岗站532线路","pubTranName":"10kVB1082.B1083箱式变电站B1083配电变压器,","scope":"【影响街道/乡镇】隆兴西路 【高危重要客户】无 【影响客户】新世纪花园","startTime":"2019-10-16 06:30:00","stopDate":"2019-10-16 15:00:00","orgNo":"13406","typeCode":"临时停电","poweroffArea":"【分支停电】停10kVB1082.B1083箱式变电站B1083配电变压器","poweroffReason":"【停电原因】由于制作电缆头导致１０ＫＶ鲁岗站５３２线路隆兴路ＨＫ－１２环网柜３号间隔１号开关以下停电【变更送电】无【发布渠道】通过９５５９８发布","powerTime":"2019-10-16 14:48:00","powerComm":"已送电","subsNo":"","lineNo":"","tgNo":"","tgName":null,"infoStatus":"1","orgName":"保定供电公司","typeName":null,"infoStatusName":null,"dateDay":null,"orgNos":null,"nowTime":null,"countyName":null,"streetName":null,"villageName":null,"roadName":null,"communityName":null,"tranName":null,"sdLineName":null,"cityCode":"13406","cityName":"保定供电公司","provinceCode":null,"stopTime":"2019-10-16 15:00:00","powerType":"全部","powerOffArea":"【分支停电】停10kVB1082.B1083箱式变电站B1083配电变压器","powerOffReason":"【停电原因】由于制作电缆头导致１０ＫＶ鲁岗站５３２线路隆兴路ＨＫ－１２环网柜３号间隔１号开关以下停电【变更送电】无【发布渠道】通过９５５９８发布","powerOffId":"2019101013000302"}],"pageModel":{"pageNow":512,"totalCount":10973,"totalPage":1098,"tableRows":0,"pageCount":10,"beginCount":5110},"isExperi":"1"}