{"message":"","today":"2020-06-15","seleList":[{"poweroffId":2020053013000175,"sgpoweroffId":null,"subsName":"","lineName":"东关I线531","pubTranName":"电力局东【纯农排变】,","scope":"【影响街道/乡镇】望都镇　　 【高危重要客户】无　　 【影响客户】电力局东","startTime":"2020-05-30 15:00:12","stopDate":"2020-05-30 17:20:00","orgNo":"1340623","typeCode":"电网故障停限电","poweroffArea":"【全线路停电】停１１０ＫＶ八里庄变电站东关Ｉ线５３１线路全线电力局东【纯农排变】","poweroffReason":"【停电原因】由于站内开关跳闸导致１１０ＫＶ八里庄变电站东关Ｉ线５３１线路全线停电 【变更送电】因抢修进度加快原因，送电时间由３１日１１：００变更为３０日１７：２０ 【发布渠道】通过９５５９８发布","powerTime":"2020-05-30 16:50:26","powerComm":"已送电","subsNo":"","lineNo":"","tgNo":"","tgName":null,"infoStatus":"1","orgName":"国网望都县供电公司","typeName":null,"infoStatusName":null,"dateDay":null,"orgNos":null,"nowTime":null,"countyName":null,"streetName":null,"villageName":null,"roadName":null,"communityName":null,"tranName":null,"sdLineName":null,"cityCode":"1340623","cityName":"国网望都县供电公司","provinceCode":null,"stopTime":"2020-05-30 17:20:00","powerType":"全部","powerOffArea":"【全线路停电】停１１０ＫＶ八里庄变电站东关Ｉ线５３１线路全线电力局东【纯农排变】","powerOffReason":"【停电原因】由于站内开关跳闸导致１１０ＫＶ八里庄变电站东关Ｉ线５３１线路全线停电 【变更送电】因抢修进度加快原因，送电时间由３１日１１：００变更为３０日１７：２０ 【发布渠道】通过９５５９８发布","powerOffId":"2020053013000175"},{"poweroffId":2020053013000165,"sgpoweroffId":null,"subsName":"","lineName":"东关II线526","pubTranName":"东关内东2,所药混合,所药村配变,东关公园配变,所药社区配电变压器,昌兴家园配电变压器,东关村南混合,人行联社院,机械厂南,昌平路配变,旧局院内配变,师馨家园配电变压器,东关村南混3,翠庭院配电变压器,东关新民居北,昌平路2号变压器,所药新民居,所药内西2,所药社区1号,昌平路南2号配变,昌平路北2号新上,东关新民居南,东关大沟,所药村西1|,大水泥家属院,化工家属院,师馨家园2配电变压器,电力局东院,","scope":"【影响街道/乡镇】望都镇、昌平路　 【高危重要客户】无　　 【影响客户】东关村、东关新民居、所药村、所药新民居、师馨家园、化肥家属院、化工家属院、大水泥家属院、机械厂南、人行联社院、盛景园小区、电力局东院、翠庭院、文教局家属院、杏林苑（中医院家属楼）、名仕苑小区、中医院、文体中心楼、钢山房地产开发有限公司、望都镇卫生院","startTime":"2020-05-30 14:53:06","stopDate":"2020-05-30 17:30:00","orgNo":"1340623","typeCode":"电网故障停限电","poweroffArea":"【全线路停电】停１１０ＫＶ八里庄变电站东关ＩＩ线５２６线路全线昌平路南2号配变,昌平路北2号新上,东关新民居南,东关大沟,所药村西1|,大水泥家属院,化工家属院,东关内东2,所药混合,望都县望都镇卫生院2,所药村配变,变压器002#,文教局家属院,望都县都捞火锅店,东关公园配变,所药社区配电变压器,中医院,东关村东,昌兴家园配电变压器,东关村南混合,人行联社院,机械厂南,明仕苑小区001#,明仕苑小区,保定诚铭房地产开发有限公司,中医院家属楼,昌平路配变,旧局院内配变,望都县教育局,师馨家园配电变压器,东关村南混3,盛景园小区,翠庭院配电变压器,东关新民居北,昌平路2号变压器,所药新民居,所药内西2,所药社区1号,东关村南,师馨家园2配电变压器,电力局东院,化肥家属院变压器","poweroffReason":"【停电原因】由于站内开关跳闸导致１１０ＫＶ八里庄变电站东关ＩＩ线５２６线路全线停电 【变更送电】因抢修进度加快原因，送电时间由３１日１１：００变更为３０日１７：３０ 【发布渠道】通过９５５９８发布","powerTime":"2020-05-30 17:03:33","powerComm":"已送电","subsNo":"","lineNo":"","tgNo":"","tgName":null,"infoStatus":"1","orgName":"国网望都县供电公司","typeName":null,"infoStatusName":null,"dateDay":null,"orgNos":null,"nowTime":null,"countyName":null,"streetName":null,"villageName":null,"roadName":null,"communityName":null,"tranName":null,"sdLineName":null,"cityCode":"1340623","cityName":"国网望都县供电公司","provinceCode":null,"stopTime":"2020-05-30 17:30:00","powerType":"全部","powerOffArea":"【全线路停电】停１１０ＫＶ八里庄变电站东关ＩＩ线５２６线路全线昌平路南2号配变,昌平路北2号新上,东关新民居南,东关大沟,所药村西1|,大水泥家属院,化工家属院,东关内东2,所药混合,望都县望都镇卫生院2,所药村配变,变压器002#,文教局家属院,望都县都捞火锅店,东关公园配变,所药社区配电变压器,中医院,东关村东,昌兴家园配电变压器,东关村南混合,人行联社院,机械厂南,明仕苑小区001#,明仕苑小区,保定诚铭房地产开发有限公司,中医院家属楼,昌平路配变,旧局院内配变,望都县教育局,师馨家园配电变压器,东关村南混3,盛景园小区,翠庭院配电变压器,东关新民居北,昌平路2号变压器,所药新民居,所药内西2,所药社区1号,东关村南,师馨家园2配电变压器,电力局东院,化肥家属院变压器","powerOffReason":"【停电原因】由于站内开关跳闸导致１１０ＫＶ八里庄变电站东关ＩＩ线５２６线路全线停电 【变更送电】因抢修进度加快原因，送电时间由３１日１１：００变更为３０日１７：３０ 【发布渠道】通过９５５９８发布","powerOffId":"2020053013000165"},{"poweroffId":2020053013000143,"sgpoweroffId":null,"subsName":"","lineName":"王安镇线514","pubTranName":"514下卜荷配变,514鲍家路村南台区配变,514鲍家路村中配变,514双坨村中配变,514黄台院西庄配变,514黄台院村2#变配变,杜家台大楞【三批中心村】,514鲍家路大沙地配变,黄台院高速充电桩514线路北箱变出线间隔配电变压器,514鲍家路大沟台区配变,514杜家台大楞庄配变,514鲍家路窑沟配变,514鲍家路北配变,514卜荷村中配变,514塔崖驿交货台配变,514双坨村西配变,514杜家台村中配变,514卜荷村南配变,514杜家台芒沟配变,514黄台院村中配变,514鲍家路北河配变,514鲍家路柳湾配变,【光伏】杜家台村光伏变压器,514双坨杨角台配变,514黄台院东玉沟配变,514卜荷八岔配变,","scope":"【影响街道/乡镇】王安镇镇【高危重要客户】无【影响客户】鲍家路、卜荷、杜家台、双坨、黄台院","startTime":"2020-05-30 13:55:00","stopDate":"2020-05-30 20:00:00","orgNo":"1340615","typeCode":"电网故障停限电","poweroffArea":"【全线路停电】停３５ＫＶ乌龙沟变电站１０ＫＶ王安镇线５１４线路全线,514杜家台大楞庄配变,514下卜荷配变,涞源县森扬矿业有限公司变压器,涞源县王安镇中心小学鲍家路小学变压器,涞源县??鑫选矿厂,514鲍家路村南台区配变,514鲍家路村中配变,河北金谷矿业有限责任公司变压器,涞源县王安镇双坨村村民委员会,涞源县塔崖驿乡卜荷村村民委员会变压器,514双坨村中配变,涞源县富田土地整理有限公司变压器001#,涞源县银乾砂石销售有限公司变压器,514黄台院西庄配变,514黄台院村2#变配变,杜家台大楞【三批中心村】,涞源县航飞水泥制品有限公司变压器,0469331383-涞源县银山口庆喜铅锌选厂-专变-46777338-李新中矿山,涞源县新建石材有限公司变压器,514鲍家路大沙地配变,黄台院高速充电桩514线路北箱变出线间隔配电变压器,514杜家台村中配变,514杜家台芒沟配变,514黄台院村中配变,514鲍家路北河配变,514鲍家路柳湾配变,河北建设集团有限公司张石高速涞源至涞水段第LJM-N9项目部,【光伏】杜家台村光伏变压器,514双坨杨角台配变,514黄台院东玉沟配变,514卜荷八岔配变,涞源县富田土地整理有限公司变压器,河北建设集团有限公司张石高速涞源至涞水段第LJM-N9项目部变压器001,涞源县碧峰园家庭农场变压器,514鲍家路大沟台区配变,碧峰园鹿厂,河北建设集团有限公司张石高速涞源至涞水段第LJM-N9项目部变压器002,河北建设集团有限公司张石高速涞源至涞水段第LJM-N9项目部变压器,514鲍家路窑沟配变,涞源县王安镇中心小学黄台院小学变压器,涞源县航飞制品有限公司变压器,514鲍家路北配变,514卜荷村中配变,514塔崖驿交货台配变,514双坨村西配变,514卜荷村南配变,张桂兰选厂","poweroffReason":"【停电原因】由于速断掉闸导致３５ＫＶ乌龙沟变电站１０ＫＶ王安镇线５１４线路全线停电【变更送电】因抢修进度加快原因，送电时间由２２：３０变更为２０：００送电【发布渠道】通过９５５９８发布","powerTime":"2020-05-30 19:19:36","powerComm":"已送电","subsNo":"","lineNo":"","tgNo":"","tgName":null,"infoStatus":"1","orgName":"国网涞源县供电公司","typeName":null,"infoStatusName":null,"dateDay":null,"orgNos":null,"nowTime":null,"countyName":null,"streetName":null,"villageName":null,"roadName":null,"communityName":null,"tranName":null,"sdLineName":null,"cityCode":"1340615","cityName":"国网涞源县供电公司","provinceCode":null,"stopTime":"2020-05-30 20:00:00","powerType":"全部","powerOffArea":"【全线路停电】停３５ＫＶ乌龙沟变电站１０ＫＶ王安镇线５１４线路全线,514杜家台大楞庄配变,514下卜荷配变,涞源县森扬矿业有限公司变压器,涞源县王安镇中心小学鲍家路小学变压器,涞源县??鑫选矿厂,514鲍家路村南台区配变,514鲍家路村中配变,河北金谷矿业有限责任公司变压器,涞源县王安镇双坨村村民委员会,涞源县塔崖驿乡卜荷村村民委员会变压器,514双坨村中配变,涞源县富田土地整理有限公司变压器001#,涞源县银乾砂石销售有限公司变压器,514黄台院西庄配变,514黄台院村2#变配变,杜家台大楞【三批中心村】,涞源县航飞水泥制品有限公司变压器,0469331383-涞源县银山口庆喜铅锌选厂-专变-46777338-李新中矿山,涞源县新建石材有限公司变压器,514鲍家路大沙地配变,黄台院高速充电桩514线路北箱变出线间隔配电变压器,514杜家台村中配变,514杜家台芒沟配变,514黄台院村中配变,514鲍家路北河配变,514鲍家路柳湾配变,河北建设集团有限公司张石高速涞源至涞水段第LJM-N9项目部,【光伏】杜家台村光伏变压器,514双坨杨角台配变,514黄台院东玉沟配变,514卜荷八岔配变,涞源县富田土地整理有限公司变压器,河北建设集团有限公司张石高速涞源至涞水段第LJM-N9项目部变压器001,涞源县碧峰园家庭农场变压器,514鲍家路大沟台区配变,碧峰园鹿厂,河北建设集团有限公司张石高速涞源至涞水段第LJM-N9项目部变压器002,河北建设集团有限公司张石高速涞源至涞水段第LJM-N9项目部变压器,514鲍家路窑沟配变,涞源县王安镇中心小学黄台院小学变压器,涞源县航飞制品有限公司变压器,514鲍家路北配变,514卜荷村中配变,514塔崖驿交货台配变,514双坨村西配变,514卜荷村南配变,张桂兰选厂","powerOffReason":"【停电原因】由于速断掉闸导致３５ＫＶ乌龙沟变电站１０ＫＶ王安镇线５１４线路全线停电【变更送电】因抢修进度加快原因，送电时间由２２：３０变更为２０：００送电【发布渠道】通过９５５９８发布","powerOffId":"2020053013000143"},{"poweroffId":2020053013000128,"sgpoweroffId":null,"subsName":"","lineName":"10kV513崔黄庄线","pubTranName":"崔庄农排十二台区,中亿纺织原料变压器,崔庄农排七台区,鑫源纺织厂,变压器,河北三旭毛纺有限公司变压器,崔庄农排十四台区,崔庄农排十三台区,妆丽绒线,崔庄综合17台区,黄庄农排三台区,黄庄颗料厂,崔庄南染厂,黄庄综合二台区,黄庄木花厂,崔庄砖厂西,黄庄综合六台区,黄庄农排五台区,崔庄布厂,黄庄村北,崔庄综合16台区,崔庄综合18台区,崔庄第三棉织厂,崔庄综合3台区【冬季供暖设施】,黄庄农排11台区,黄庄综合14台区,黄庄红旗毛绒织物厂,崔庄砖厂,崔庄综合19台区,汇丰纺织厂,河北宏昌毛纺有限公司,蠡县天合盛景物业服务有限公司1000KVA,黄庄综合12台区（万安）,黄庄综合15台区,河北宏昌毛纺有限公司315,铭锐有限公司,崔庄综合21台区、,崔庄综合20台区,河北宏昌毛纺有限公司400,黄庄综合三台区,崔庄农排九台区,崔庄农排八台区,黄庄综合12台区,三新棉织厂,黄庄农排4台区,黄庄农排10台区,崔庄棉织厂,蠡县天合盛景物业服务有限公司变压器,崔庄农排三台区,崔庄团绒厂,蠡县崔庄染织厂变压器,崔庄二染厂,保定鑫鸿绒毛有限公司变压器,崔庄综合一台区,黄庄刘双厂,蠡县红旗毛绒织物厂,崔庄印刷厂,黄庄综合一台区,黄庄农排9台区,明星绒线厂,崔庄综合二台区,火炬皮毛,崔庄根旺,崔庄农排四台区,崔庄综合五台区,蠡县伟业地毯纱厂,昌宏毛纺厂,崔庄农排十一台区,崔庄国会棉织厂,黄庄农排8台区,黄庄农排7台区,万安供电所,崔庄综合15台区,崔庄农排十台区,黄庄综合13台区,","scope":"【影响街道/乡镇】万安镇【高危重要客户】无【影响客户】崔庄村、黄庄村、万安供电所、三旭毛纺有限公司","startTime":"2020-06-08 06:00:00","stopDate":"2020-06-08 11:00:00","orgNo":"1340616","typeCode":"计划停电","poweroffArea":"【全线路停电】停１１０ＫＶ刘铭庄变电站１０ＫＶ崔黄庄５１３线路全线，黄庄综合13台区,蠡县伟业地毯纱厂,昌宏毛纺厂,崔庄农排十一台区,崔庄国会棉织厂,黄庄农排8台区,黄庄农排7台区,万安供电所,崔庄综合15台区,崔庄农排十台区,黄庄综合12台区,黄庄农排4台区,蠡县天合盛景物业服务有限公司变压器,崔庄农排三台区,崔庄团绒厂,蠡县崔庄染织厂变压器,崔庄二染厂,保定鑫鸿绒毛有限公司变压器,黄庄刘双厂,蠡县红旗毛绒织物厂,黄庄综合一台区,黄庄农排9台区,明星绒线厂,崔庄农排九台区,崔庄农排八台区,三新棉织厂,黄庄农排10台区,崔庄棉织厂,崔庄综合一台区,崔庄印刷厂,崔庄综合二台区,火炬皮毛,崔庄根旺,崔庄农排四台区,崔庄综合五台区,崔庄农排七台区,鑫源纺织厂,变压器,河北三旭毛纺有限公司变压器,崔庄农排十三台区,崔庄综合17台区,黄庄颗料厂,黄庄综合二台区,崔庄砖厂西,崔庄农排十二台区,中亿纺织原料变压器,崔庄农排十四台区,妆丽绒线,黄庄农排三台区,崔庄南染厂,黄庄木花厂,黄庄综合六台区,黄庄农排五台区,崔庄布厂,崔庄综合16台区,黄庄村北,崔庄综合18台区,崔庄第三棉织厂,崔庄综合3台区【冬季供暖设施】,黄庄农排11台区,黄庄综合14台区,黄庄红旗毛绒织物厂,崔庄砖厂,崔庄综合19台区,汇丰纺织厂,河北宏昌毛纺有限公司,蠡县天合盛景物业服务有限公司1000KVA,黄庄综合12台区（万安）,黄庄综合15台区,河北宏昌毛纺有限公司315,铭锐有限公司,崔庄综合21台区、,崔庄综合20台区,河北宏昌毛纺有限公司400,黄庄综合三台区","poweroffReason":"【停电原因】由于安装开关导致１１０ＫＶ刘铭庄变电站１０ＫＶ崔黄庄５１３线路全线停电【变更送电】无【发布渠道】蠡县电视台（２０２０年０５月３０日至２０２０年０６月０７日２０：００至２２：００之间）屏幕上方滚动","powerTime":"2020-06-08 10:39:33","powerComm":"已送电","subsNo":"","lineNo":"","tgNo":"","tgName":null,"infoStatus":"1","orgName":"国网蠡县供电公司","typeName":null,"infoStatusName":null,"dateDay":null,"orgNos":null,"nowTime":null,"countyName":null,"streetName":null,"villageName":null,"roadName":null,"communityName":null,"tranName":null,"sdLineName":null,"cityCode":"1340616","cityName":"国网蠡县供电公司","provinceCode":null,"stopTime":"2020-06-08 11:00:00","powerType":"全部","powerOffArea":"【全线路停电】停１１０ＫＶ刘铭庄变电站１０ＫＶ崔黄庄５１３线路全线，黄庄综合13台区,蠡县伟业地毯纱厂,昌宏毛纺厂,崔庄农排十一台区,崔庄国会棉织厂,黄庄农排8台区,黄庄农排7台区,万安供电所,崔庄综合15台区,崔庄农排十台区,黄庄综合12台区,黄庄农排4台区,蠡县天合盛景物业服务有限公司变压器,崔庄农排三台区,崔庄团绒厂,蠡县崔庄染织厂变压器,崔庄二染厂,保定鑫鸿绒毛有限公司变压器,黄庄刘双厂,蠡县红旗毛绒织物厂,黄庄综合一台区,黄庄农排9台区,明星绒线厂,崔庄农排九台区,崔庄农排八台区,三新棉织厂,黄庄农排10台区,崔庄棉织厂,崔庄综合一台区,崔庄印刷厂,崔庄综合二台区,火炬皮毛,崔庄根旺,崔庄农排四台区,崔庄综合五台区,崔庄农排七台区,鑫源纺织厂,变压器,河北三旭毛纺有限公司变压器,崔庄农排十三台区,崔庄综合17台区,黄庄颗料厂,黄庄综合二台区,崔庄砖厂西,崔庄农排十二台区,中亿纺织原料变压器,崔庄农排十四台区,妆丽绒线,黄庄农排三台区,崔庄南染厂,黄庄木花厂,黄庄综合六台区,黄庄农排五台区,崔庄布厂,崔庄综合16台区,黄庄村北,崔庄综合18台区,崔庄第三棉织厂,崔庄综合3台区【冬季供暖设施】,黄庄农排11台区,黄庄综合14台区,黄庄红旗毛绒织物厂,崔庄砖厂,崔庄综合19台区,汇丰纺织厂,河北宏昌毛纺有限公司,蠡县天合盛景物业服务有限公司1000KVA,黄庄综合12台区（万安）,黄庄综合15台区,河北宏昌毛纺有限公司315,铭锐有限公司,崔庄综合21台区、,崔庄综合20台区,河北宏昌毛纺有限公司400,黄庄综合三台区","powerOffReason":"【停电原因】由于安装开关导致１１０ＫＶ刘铭庄变电站１０ＫＶ崔黄庄５１３线路全线停电【变更送电】无【发布渠道】蠡县电视台（２０２０年０５月３０日至２０２０年０６月０７日２０：００至２２：００之间）屏幕上方滚动","powerOffId":"2020053013000128"},{"poweroffId":2020053013000061,"sgpoweroffId":null,"subsName":"","lineName":"10kV范阳西路528线路","pubTranName":"建厂局小区(新)柱上变压器,","scope":"【影响街道/乡镇】双塔城区 【影响客户】建厂局小区","startTime":"2020-06-09 07:00:00","stopDate":"2020-06-09 18:00:00","orgNo":"1340626","typeCode":"计划停电","poweroffArea":"【单台区停电】停１１０ＫＶ涿县变电站１０ＫＶ范阳西路５２８线路建厂局小区（新）公变台区，建厂局小区(新)柱上变压器","poweroffReason":"【停电原因】由于低压线路改造导致１１０ＫＶ涿县变电站１０ＫＶ范阳西路５２８线路建厂局小区（新）公变台区停电 【变更送电】无 【发布渠道】涿州市涿州电视台（０５月３０日至０６月０８日２１：００播放２次）屏幕上方滚动","powerTime":"2020-06-09 17:46:52","powerComm":"已送电","subsNo":"","lineNo":"","tgNo":"","tgName":null,"infoStatus":"1","orgName":"国网涿州市供电公司","typeName":null,"infoStatusName":null,"dateDay":null,"orgNos":null,"nowTime":null,"countyName":null,"streetName":null,"villageName":null,"roadName":null,"communityName":null,"tranName":null,"sdLineName":null,"cityCode":"1340626","cityName":"国网涿州市供电公司","provinceCode":null,"stopTime":"2020-06-09 18:00:00","powerType":"全部","powerOffArea":"【单台区停电】停１１０ＫＶ涿县变电站１０ＫＶ范阳西路５２８线路建厂局小区（新）公变台区，建厂局小区(新)柱上变压器","powerOffReason":"【停电原因】由于低压线路改造导致１１０ＫＶ涿县变电站１０ＫＶ范阳西路５２８线路建厂局小区（新）公变台区停电 【变更送电】无 【发布渠道】涿州市涿州电视台（０５月３０日至０６月０８日２１：００播放２次）屏幕上方滚动","powerOffId":"2020053013000061"},{"poweroffId":2020053013000060,"sgpoweroffId":null,"subsName":"","lineName":"10kV东吕I线540线路","pubTranName":"河北佳力起重索具制造有限公司,","scope":"【影响街道/乡镇】东吕乡 【高危重要客户】无 【影响客户】东吕四街村","startTime":"2020-06-08 06:00:00","stopDate":"2020-06-08 18:00:00","orgNo":"1340618","typeCode":"计划停电","poweroffArea":"【全线路停电】停110kV东闾变电站10kV东吕I线540线路全线，0556973793-东吕一街头村委会村西-专变-104865832-东吕一街村委会村西,0387489896-清苑县鑫力起重索具制造厂-专变-45315538-清苑县鑫力起重索具制造厂,东吕杜成立配件加工,保定鼎力索具有限公司,东吕一街村委会东,清苑县志发链条加工厂,上海轶鹰机械有限公司清苑分公司,东吕东四,河北恩派克起重液压机械有限公司,清苑县飞翔起重机械厂,0658714380-清苑县宇航起重机械制造有限公司-专变-202679187-清苑县宇航起重机械制造有限公司,清苑县宏利锚链厂,保定大力起重机械有限公司,保定鼎力索具有限公司01,河北力雕起重设备制造有限公司,0646559580-中国铁塔股份有限公司保定市分公司-专变-169916015-中国移动通信集团河北有限公司保定分公司,河北佳力起重索具制造有限公司,保定巨鹰起重机械制造有限公司,东吕四街野外,东吕四街野外新增,清苑县东吕月宽配件加工厂,东吕村西,杨继军,东吕畜牧场,东吕寇建生配件加工,河北神雕起重设备制造有限公司,东吕西六,佳力起重001,东吕西五,东吕四街村西南,东吕一街野外,上海轶鹰起重机械有限公司清苑分公司,河北君达起重机械制造有限公司","poweroffReason":"【停电原因】由于线路切改导致１１０ＫＶ东闾变电站１０ＫＶ东吕Ｉ线５４０线路全线停电 【变更送电】无 【发布渠道】保定市清苑区电视台（２０２０年０５月３１日１９时至２０２０年０６月０７日２０时之间）屏幕上方滚动","powerTime":"2020-06-08 17:44:26","powerComm":"刘丰收通知已送电","subsNo":"","lineNo":"","tgNo":"","tgName":null,"infoStatus":"1","orgName":"国网清苑县供电公司","typeName":null,"infoStatusName":null,"dateDay":null,"orgNos":null,"nowTime":null,"countyName":null,"streetName":null,"villageName":null,"roadName":null,"communityName":null,"tranName":null,"sdLineName":null,"cityCode":"1340618","cityName":"国网清苑县供电公司","provinceCode":null,"stopTime":"2020-06-08 18:00:00","powerType":"全部","powerOffArea":"【全线路停电】停110kV东闾变电站10kV东吕I线540线路全线，0556973793-东吕一街头村委会村西-专变-104865832-东吕一街村委会村西,0387489896-清苑县鑫力起重索具制造厂-专变-45315538-清苑县鑫力起重索具制造厂,东吕杜成立配件加工,保定鼎力索具有限公司,东吕一街村委会东,清苑县志发链条加工厂,上海轶鹰机械有限公司清苑分公司,东吕东四,河北恩派克起重液压机械有限公司,清苑县飞翔起重机械厂,0658714380-清苑县宇航起重机械制造有限公司-专变-202679187-清苑县宇航起重机械制造有限公司,清苑县宏利锚链厂,保定大力起重机械有限公司,保定鼎力索具有限公司01,河北力雕起重设备制造有限公司,0646559580-中国铁塔股份有限公司保定市分公司-专变-169916015-中国移动通信集团河北有限公司保定分公司,河北佳力起重索具制造有限公司,保定巨鹰起重机械制造有限公司,东吕四街野外,东吕四街野外新增,清苑县东吕月宽配件加工厂,东吕村西,杨继军,东吕畜牧场,东吕寇建生配件加工,河北神雕起重设备制造有限公司,东吕西六,佳力起重001,东吕西五,东吕四街村西南,东吕一街野外,上海轶鹰起重机械有限公司清苑分公司,河北君达起重机械制造有限公司","powerOffReason":"【停电原因】由于线路切改导致１１０ＫＶ东闾变电站１０ＫＶ东吕Ｉ线５４０线路全线停电 【变更送电】无 【发布渠道】保定市清苑区电视台（２０２０年０５月３１日１９时至２０２０年０６月０７日２０时之间）屏幕上方滚动","powerOffId":"2020053013000060"},{"poweroffId":2020053013000055,"sgpoweroffId":null,"subsName":"","lineName":"10kV东吕南线539线路","pubTranName":"1东吕一街内14,东吕四街内10,1东吕四街内7,1东吕四街内5,1东吕一街内15,东吕四街内4,东吕四街内1,东吕四街内3,1东吕四街内8,1东吕一街内4,","scope":"【影响街道/乡镇】东吕乡 【高危重要客户】无 【影响客户】东吕四街村、东吕一街村","startTime":"2020-06-08 06:00:00","stopDate":"2020-06-08 18:00:00","orgNo":"1340618","typeCode":"计划停电","poweroffArea":"【全线路停电】停110kV东闾变电站10kV东吕南线539线路全线，东吕四街内4,河北黑狮机械有限公司,1东吕一街内15,东吕南1,保定宇力起重机械制造有限公司01,河北神雕起重设备制造有限公司01,清苑臣力起重吊索具制造有限公司01,0617341523-河北诺友起重机械制造有限公司-专变-128614809-河北诺友起重机械制造有限公司,东吕张民更配件加工,东吕西八,河北神雕起重设备制造有限公司,清苑县军民起重机械有限公司01,东吕宋村道西,东吕张新发配件加工,保定市清苑区东闾乡卫生院,河北诺邦吊索具制造有限公司,河北天宇起重机械制造有限公司,东吕赵从会配件加工,东吕四街内10,石屯冀新纸业,1东吕四街内7,东吕王红配件加工,东吕张景波配件加工,保定大力起重机械有限公司,0387491457-东吕王志强配件加工-专变-127831813-东吕王志强配件加工,保定怀鸽起重机械制造有限公司,保定市宇鹰起重机械制造有限公司01,清苑玉蝶起重机械制造有限公司,保定华澳起重设备有限公司,1东吕四街内5,保定宇力起重机械制造有限公司,东吕赵永虎配件加工,张继强养殖场,保定华澳起重设备有限公司4,保定大力起重机械有限公司01,保定市华欣起重机械制造有限公司01,东吕张会田配件加工,北京猎鹰国际重工机械有限公司保定分公司,保定悍美机制链制造有限公司,保定华澳起重设备有限公司02,保定市华欣起重机械制造有限公司,清苑县鑫盛起重配件厂,河北宇雕起重设备制造有限公司01,1东吕一街内14,河北东特起重机械制造有限公司,保定市海旭纺织厂,清苑县东吕国强起重链条厂,上海轶鹰起重机械有限公司清苑分公司,0469655139-清苑县余粮配件加工厂-专变-46901784-余粮配件加工,0387492681-清苑县飞翔起重机械厂-专变-45315302-清苑县飞翔起重机械厂,0646665696-清苑县金搏起重设备制造有限公司-专变-169898783-清苑县金搏起重设备制造有限公司,东吕赵永虎配件加工01,保定邦强起重吊索具制造有限公司,杭州双力起重机械有限公司清苑分公司,东吕赵增瑞配件加工,0454858064-清苑县华航起重机械厂-专变-126309789-清苑县世友起重机械厂,东吕四街,东吕四街内1,东吕刘梅配件加工,东吕王红配件加工01,河北宇雕起重设备制造有限公司02,东吕古楼养鸡场,保定大力起重机械有限公司02,河北迈普顿机电有限公司,北京市凌鹰起重机械厂清苑分厂,清苑县巨力起重机械有限公司,东吕四街内3,清苑县长城起重设备厂,河北宇雕起重设备制造有限公司,清苑县红松装饰链条厂,1东吕四街内8,1东吕一街内4,清苑县东吕景会罩壳加工厂,清苑县宗广起重工具厂,东吕赵永生配件加工,保定市宇鹰起重机械制造有限公司,清苑县宏利锚链厂,东吕杨恩保配件加工","poweroffReason":"【停电原因】由于线路切改导致１１０ＫＶ东闾变电站１０ＫＶ东吕南线５３９线路全线停电 【变更送电】无 【发布渠道】保定市清苑区电视台（２０２０年０５月３１日１９时至２０２０年０６月０７日２０时之间）屏幕上方滚动","powerTime":"2020-06-08 17:43:26","powerComm":"刘丰收通知已送电","subsNo":"","lineNo":"","tgNo":"","tgName":null,"infoStatus":"1","orgName":"国网清苑县供电公司","typeName":null,"infoStatusName":null,"dateDay":null,"orgNos":null,"nowTime":null,"countyName":null,"streetName":null,"villageName":null,"roadName":null,"communityName":null,"tranName":null,"sdLineName":null,"cityCode":"1340618","cityName":"国网清苑县供电公司","provinceCode":null,"stopTime":"2020-06-08 18:00:00","powerType":"全部","powerOffArea":"【全线路停电】停110kV东闾变电站10kV东吕南线539线路全线，东吕四街内4,河北黑狮机械有限公司,1东吕一街内15,东吕南1,保定宇力起重机械制造有限公司01,河北神雕起重设备制造有限公司01,清苑臣力起重吊索具制造有限公司01,0617341523-河北诺友起重机械制造有限公司-专变-128614809-河北诺友起重机械制造有限公司,东吕张民更配件加工,东吕西八,河北神雕起重设备制造有限公司,清苑县军民起重机械有限公司01,东吕宋村道西,东吕张新发配件加工,保定市清苑区东闾乡卫生院,河北诺邦吊索具制造有限公司,河北天宇起重机械制造有限公司,东吕赵从会配件加工,东吕四街内10,石屯冀新纸业,1东吕四街内7,东吕王红配件加工,东吕张景波配件加工,保定大力起重机械有限公司,0387491457-东吕王志强配件加工-专变-127831813-东吕王志强配件加工,保定怀鸽起重机械制造有限公司,保定市宇鹰起重机械制造有限公司01,清苑玉蝶起重机械制造有限公司,保定华澳起重设备有限公司,1东吕四街内5,保定宇力起重机械制造有限公司,东吕赵永虎配件加工,张继强养殖场,保定华澳起重设备有限公司4,保定大力起重机械有限公司01,保定市华欣起重机械制造有限公司01,东吕张会田配件加工,北京猎鹰国际重工机械有限公司保定分公司,保定悍美机制链制造有限公司,保定华澳起重设备有限公司02,保定市华欣起重机械制造有限公司,清苑县鑫盛起重配件厂,河北宇雕起重设备制造有限公司01,1东吕一街内14,河北东特起重机械制造有限公司,保定市海旭纺织厂,清苑县东吕国强起重链条厂,上海轶鹰起重机械有限公司清苑分公司,0469655139-清苑县余粮配件加工厂-专变-46901784-余粮配件加工,0387492681-清苑县飞翔起重机械厂-专变-45315302-清苑县飞翔起重机械厂,0646665696-清苑县金搏起重设备制造有限公司-专变-169898783-清苑县金搏起重设备制造有限公司,东吕赵永虎配件加工01,保定邦强起重吊索具制造有限公司,杭州双力起重机械有限公司清苑分公司,东吕赵增瑞配件加工,0454858064-清苑县华航起重机械厂-专变-126309789-清苑县世友起重机械厂,东吕四街,东吕四街内1,东吕刘梅配件加工,东吕王红配件加工01,河北宇雕起重设备制造有限公司02,东吕古楼养鸡场,保定大力起重机械有限公司02,河北迈普顿机电有限公司,北京市凌鹰起重机械厂清苑分厂,清苑县巨力起重机械有限公司,东吕四街内3,清苑县长城起重设备厂,河北宇雕起重设备制造有限公司,清苑县红松装饰链条厂,1东吕四街内8,1东吕一街内4,清苑县东吕景会罩壳加工厂,清苑县宗广起重工具厂,东吕赵永生配件加工,保定市宇鹰起重机械制造有限公司,清苑县宏利锚链厂,东吕杨恩保配件加工","powerOffReason":"【停电原因】由于线路切改导致１１０ＫＶ东闾变电站１０ＫＶ东吕南线５３９线路全线停电 【变更送电】无 【发布渠道】保定市清苑区电视台（２０２０年０５月３１日１９时至２０２０年０６月０７日２０时之间）屏幕上方滚动","powerOffId":"2020053013000055"},{"poweroffId":2020053013000054,"sgpoweroffId":null,"subsName":"","lineName":"10kV东闾北一街530线","pubTranName":"东吕二街内3,1东吕一街内13,1东吕三街内3,东吕二街内1,1东吕一街内10,1东吕一街内2,1东吕三街内8,东吕三街内2,1东吕一街内3,1东吕一街内5,1东吕一街内8,1东吕二街内6,1东吕三街内5,1东吕一街内7,1东吕一街内11,1东吕一街内9,1东吕一街内12,1东吕一街内1,1东吕一街内6,","scope":"【影响街道/乡镇】东吕乡 【高危重要客户】无 【影响客户】东吕一街村、东吕二街村、东吕三街村","startTime":"2020-06-08 06:00:00","stopDate":"2020-06-08 18:00:00","orgNo":"1340618","typeCode":"计划停电","poweroffArea":"【全线路停电】停110kV东闾变电站10kV东闾北一街530线路全线，保定市清苑区艾菲特起重机械厂,东吕杨恩占配件加工,东吕付彦微配件加工,东吕三街内2,东吕杨蕴辉,东吕东威工具公司,1东吕一街内3,清苑县凯利特起重机械厂,河北双业起重机械有限公司01,东吕苏立成配件加工,清苑县双业起重机械有限公司01,1东吕一街内5,1东吕一街内8,1东吕二街内6,保定巨鹰起重机械制造有限公司1,河北巨威起重机械制造有限公司,0387491675-东吕苏佩中配件加工-专变-45315207-东吕苏佩中配件加工,保定市清苑区天润娇纺织厂,1东吕三街内5,清苑县东吕小康链条加工厂,东吕三街村西,0575136047-清苑县威龙起重机械有限公司-专变-123928961-清苑县威龙起重机械有限公司,清苑县超凡起重设备厂,河北佳力起重索具制造有限公司,张树昌配件加工厂,东吕果园,0549287867-清苑县伟力起重机械制造有限公司-专变-175498337-清苑县伟力起重机械制造有限公司,杭州双力起重机械有限公司清苑分公司,东吕二街内1,1东吕一街内10,保定巨鹰起重机械制造有限公司-1,保定市清苑区东闾乡小天使幼儿园,清苑县旭光起重机械配件厂,河北蒙德起重机械制造有限公司,清苑县龙腾配件厂,河北凯澄起重机械有限公司,1东吕一街内2,1东吕三街内8,河北双业起重机械有限公司,河北维大力起重设备制造有限公司,清苑县五环起重机械制造有限公司,河北三龙起重机械有限公司,1东吕一街内11,清苑县新宇起重机械有限公司,东吕二街村外,0575136047-清苑县威龙起重机械有限公司-专变-123928567-清苑县威龙起重机械有限公司,清苑县伟力起重机械制造有限公司东吕分公司,0387491893-清苑县巨力起重机械有限公司-专变-192915897-清苑县洪飞链条厂,1东吕一街内9,保定安泰起重机械有限公司,1东吕一街内12,清苑县绍华起重机械厂,保定三龙起重机械有限公司,0555744594-东吕村委会-专变-94729171-东吕村委会,河北佳帅起重机械制造有限公司,保定市清苑区森杰纺织厂,东吕三街村西北,1东吕一街内1,东吕杜大青配件加工,东吕李长龙配件加工,东吕东八,0387491196-东吕东三-专变-45315502-东吕东三,东吕东二,0387490470-河北佳力起重索具制造有限公司-专变-45315520-清苑县威龙起重机械有限公司1,金龙手拉葫芦配件厂,1东吕一街内6,0575136047-清苑县威龙起重机械有限公司-专变-123928595-清苑县威龙起重机械有限公司,清苑县双业起重机械有限公司,清苑县东广起重配件厂,清苑县联合起重机械厂,0387491806-河北东特起重机械制造有限公司-专变-45315516-东吕王凤池配件加工,清苑县天航机械有限公司2,清苑县天航机械有限公司1,东吕苏占良配件加工,0387489867-河北东特起重机械制造有限公司-专变-45315515-清苑县腾飞起重设备厂,东吕二街野外,保定京鸽起重机械制造有限公司,河北宇雕起重设备有限公司,保定市清苑区艾菲特起重机械厂01,清苑县鸣宇起重设备厂,东吕杨华池配件加工01,清苑县北极星起重机械厂,清苑县东闾水厂,东吕崔同芬配件加工,东吕杨华池配件加工,保定市立荣纺织厂,1东吕一街内7,清苑县威腾起重设备制造有限公,河北巨人起重机械有限公司,保定诚然起重机械制造有限公司,东吕村委会,清苑县军民起重机械有限公司,东吕二街内3,1东吕一街内13,东吕西二,保定庆泰起重机械制造有限公司,1东吕三街内3","poweroffReason":"【停电原因】由于线路切改导致１１０ＫＶ东闾变电站１０ＫＶ东闾北一街５３０线路全线停电 【变更送电】无 【发布渠道】保定市清苑区电视台（２０２０年０５月３１日１９时至２０２０年０６月０７日２０时之间）屏幕上方滚动","powerTime":"2020-06-08 17:45:18","powerComm":"刘丰收通知已送电","subsNo":"","lineNo":"","tgNo":"","tgName":null,"infoStatus":"1","orgName":"国网清苑县供电公司","typeName":null,"infoStatusName":null,"dateDay":null,"orgNos":null,"nowTime":null,"countyName":null,"streetName":null,"villageName":null,"roadName":null,"communityName":null,"tranName":null,"sdLineName":null,"cityCode":"1340618","cityName":"国网清苑县供电公司","provinceCode":null,"stopTime":"2020-06-08 18:00:00","powerType":"全部","powerOffArea":"【全线路停电】停110kV东闾变电站10kV东闾北一街530线路全线，保定市清苑区艾菲特起重机械厂,东吕杨恩占配件加工,东吕付彦微配件加工,东吕三街内2,东吕杨蕴辉,东吕东威工具公司,1东吕一街内3,清苑县凯利特起重机械厂,河北双业起重机械有限公司01,东吕苏立成配件加工,清苑县双业起重机械有限公司01,1东吕一街内5,1东吕一街内8,1东吕二街内6,保定巨鹰起重机械制造有限公司1,河北巨威起重机械制造有限公司,0387491675-东吕苏佩中配件加工-专变-45315207-东吕苏佩中配件加工,保定市清苑区天润娇纺织厂,1东吕三街内5,清苑县东吕小康链条加工厂,东吕三街村西,0575136047-清苑县威龙起重机械有限公司-专变-123928961-清苑县威龙起重机械有限公司,清苑县超凡起重设备厂,河北佳力起重索具制造有限公司,张树昌配件加工厂,东吕果园,0549287867-清苑县伟力起重机械制造有限公司-专变-175498337-清苑县伟力起重机械制造有限公司,杭州双力起重机械有限公司清苑分公司,东吕二街内1,1东吕一街内10,保定巨鹰起重机械制造有限公司-1,保定市清苑区东闾乡小天使幼儿园,清苑县旭光起重机械配件厂,河北蒙德起重机械制造有限公司,清苑县龙腾配件厂,河北凯澄起重机械有限公司,1东吕一街内2,1东吕三街内8,河北双业起重机械有限公司,河北维大力起重设备制造有限公司,清苑县五环起重机械制造有限公司,河北三龙起重机械有限公司,1东吕一街内11,清苑县新宇起重机械有限公司,东吕二街村外,0575136047-清苑县威龙起重机械有限公司-专变-123928567-清苑县威龙起重机械有限公司,清苑县伟力起重机械制造有限公司东吕分公司,0387491893-清苑县巨力起重机械有限公司-专变-192915897-清苑县洪飞链条厂,1东吕一街内9,保定安泰起重机械有限公司,1东吕一街内12,清苑县绍华起重机械厂,保定三龙起重机械有限公司,0555744594-东吕村委会-专变-94729171-东吕村委会,河北佳帅起重机械制造有限公司,保定市清苑区森杰纺织厂,东吕三街村西北,1东吕一街内1,东吕杜大青配件加工,东吕李长龙配件加工,东吕东八,0387491196-东吕东三-专变-45315502-东吕东三,东吕东二,0387490470-河北佳力起重索具制造有限公司-专变-45315520-清苑县威龙起重机械有限公司1,金龙手拉葫芦配件厂,1东吕一街内6,0575136047-清苑县威龙起重机械有限公司-专变-123928595-清苑县威龙起重机械有限公司,清苑县双业起重机械有限公司,清苑县东广起重配件厂,清苑县联合起重机械厂,0387491806-河北东特起重机械制造有限公司-专变-45315516-东吕王凤池配件加工,清苑县天航机械有限公司2,清苑县天航机械有限公司1,东吕苏占良配件加工,0387489867-河北东特起重机械制造有限公司-专变-45315515-清苑县腾飞起重设备厂,东吕二街野外,保定京鸽起重机械制造有限公司,河北宇雕起重设备有限公司,保定市清苑区艾菲特起重机械厂01,清苑县鸣宇起重设备厂,东吕杨华池配件加工01,清苑县北极星起重机械厂,清苑县东闾水厂,东吕崔同芬配件加工,东吕杨华池配件加工,保定市立荣纺织厂,1东吕一街内7,清苑县威腾起重设备制造有限公,河北巨人起重机械有限公司,保定诚然起重机械制造有限公司,东吕村委会,清苑县军民起重机械有限公司,东吕二街内3,1东吕一街内13,东吕西二,保定庆泰起重机械制造有限公司,1东吕三街内3","powerOffReason":"【停电原因】由于线路切改导致１１０ＫＶ东闾变电站１０ＫＶ东闾北一街５３０线路全线停电 【变更送电】无 【发布渠道】保定市清苑区电视台（２０２０年０５月３１日１９时至２０２０年０６月０７日２０时之间）屏幕上方滚动","powerOffId":"2020053013000054"},{"poweroffId":2020053013000052,"sgpoweroffId":null,"subsName":"","lineName":"10kV东闾二街529线","pubTranName":"东吕二街内2,东吕乡政府,东吕小学3,1东吕二街内7,东吕三街内7,1东吕二街内4,东吕小学2,东吕乡政府2,1东吕三街内4,东吕三街内6,东吕小学1,东吕三街内1,","scope":"【影响街道/乡镇】东吕乡 【高危重要客户】无 【影响客户】东吕三街村、东吕二街村","startTime":"2020-06-08 06:00:00","stopDate":"2020-06-08 18:00:00","orgNo":"1340618","typeCode":"计划停电","poweroffArea":"【全线路停电】停110kV东闾变电站10kV东闾二街529线路全线，清苑县玉田起重设备有限公司04,东吕三街内1,0646533346-保定源爱商贸有限公司-专变-169920345-保定源爱商贸有限公司,东吕二街内2,清苑县玉田起重设备有限公司,河北神力索具集团有限公司,东吕蔡双柱配件加工,0387489795-保定东方机械有限公司-专变-45315218-保定东方机械有限公司,东吕张景跃配件加工,东吕乡政府,清苑县臣力起重吊索具制造有限公司,东吕小学3,1东吕二街内7,清苑县臣力起重吊索具制造有限公司01,清苑县玉田起重设备有限公司01,河北诺诺起重设备制造有限公司,东吕三街内7,清苑县神力起重机械厂,中国移动通信集团河北有限公司保定分公司,清苑县天诚起重设备厂,清苑县老山机械加工厂,1东吕二街内4,东吕三街村北,东吕苏满收配件加工,清苑东吕营业部,0598423133-清苑县博海起重机械厂-专变-126432923-清苑县博海起重机械厂,保定京鸽起重机械制造有限公司,东吕西一,保定恒力起重机械厂有限公司,东吕崔玉兴配件加工,东吕小学2,东吕教堂,保定市华欣起重机械制造有限公司,保定起重运输设备厂,河北神力索具有限公司,0666477592-保定市清苑区昱力特电力机具制造厂-专变-208302402-保定市清苑区昱力特电力机具制造厂,东吕营头道东,清苑县玉田起重设备有限公司03,0387493075-中国电信股份有限公司保定分公司-专变-45315581-中国电信集团公司河北网络资产分公司,河北辰力吊索具制造有限公司,保定市华欣起重机械制造有限公司01,东吕乡政府2,保定恒力起重机械有限公司01,0598428268-清苑县津工机械有限公司-专变-126432828-清苑县津工机械有限公司,清苑县臣力起重吊索具制造有限公司02,东吕华欣起重设备公司,清苑县天诚起重机械设备有限公司,清苑县玉田起重设备有限公司02,东吕三星配件厂,0554488806-河北神力索具集团有限公司-专变-77785653-河北神力索具有限公司,1东吕三街内4,0387493091-清苑县神力起重机械厂-专变-45315425-清苑县神力起重机械厂,0387489809-东吕苏佩中配件加工-专变-45315426-东吕苏佩中配件加工,保定京鸽起重机械制造有限公司01,东吕三街内6,清苑县圣牌起重设备厂,东吕小学1,0478109058-东吕村委会二街-专变-46910849-东吕村委会二街","poweroffReason":"【停电原因】由于线路切改导致１１０ＫＶ东闾变电站１０ＫＶ东闾二街５２９线路全线停电 【变更送电】无 【发布渠道】保定市清苑区电视台（２０２０年０５月３１日１９时至２０２０年０６月０７日２０时之间）屏幕上方滚动","powerTime":"2020-06-08 17:44:34","powerComm":"刘丰收通知已送电","subsNo":"","lineNo":"","tgNo":"","tgName":null,"infoStatus":"1","orgName":"国网清苑县供电公司","typeName":null,"infoStatusName":null,"dateDay":null,"orgNos":null,"nowTime":null,"countyName":null,"streetName":null,"villageName":null,"roadName":null,"communityName":null,"tranName":null,"sdLineName":null,"cityCode":"1340618","cityName":"国网清苑县供电公司","provinceCode":null,"stopTime":"2020-06-08 18:00:00","powerType":"全部","powerOffArea":"【全线路停电】停110kV东闾变电站10kV东闾二街529线路全线，清苑县玉田起重设备有限公司04,东吕三街内1,0646533346-保定源爱商贸有限公司-专变-169920345-保定源爱商贸有限公司,东吕二街内2,清苑县玉田起重设备有限公司,河北神力索具集团有限公司,东吕蔡双柱配件加工,0387489795-保定东方机械有限公司-专变-45315218-保定东方机械有限公司,东吕张景跃配件加工,东吕乡政府,清苑县臣力起重吊索具制造有限公司,东吕小学3,1东吕二街内7,清苑县臣力起重吊索具制造有限公司01,清苑县玉田起重设备有限公司01,河北诺诺起重设备制造有限公司,东吕三街内7,清苑县神力起重机械厂,中国移动通信集团河北有限公司保定分公司,清苑县天诚起重设备厂,清苑县老山机械加工厂,1东吕二街内4,东吕三街村北,东吕苏满收配件加工,清苑东吕营业部,0598423133-清苑县博海起重机械厂-专变-126432923-清苑县博海起重机械厂,保定京鸽起重机械制造有限公司,东吕西一,保定恒力起重机械厂有限公司,东吕崔玉兴配件加工,东吕小学2,东吕教堂,保定市华欣起重机械制造有限公司,保定起重运输设备厂,河北神力索具有限公司,0666477592-保定市清苑区昱力特电力机具制造厂-专变-208302402-保定市清苑区昱力特电力机具制造厂,东吕营头道东,清苑县玉田起重设备有限公司03,0387493075-中国电信股份有限公司保定分公司-专变-45315581-中国电信集团公司河北网络资产分公司,河北辰力吊索具制造有限公司,保定市华欣起重机械制造有限公司01,东吕乡政府2,保定恒力起重机械有限公司01,0598428268-清苑县津工机械有限公司-专变-126432828-清苑县津工机械有限公司,清苑县臣力起重吊索具制造有限公司02,东吕华欣起重设备公司,清苑县天诚起重机械设备有限公司,清苑县玉田起重设备有限公司02,东吕三星配件厂,0554488806-河北神力索具集团有限公司-专变-77785653-河北神力索具有限公司,1东吕三街内4,0387493091-清苑县神力起重机械厂-专变-45315425-清苑县神力起重机械厂,0387489809-东吕苏佩中配件加工-专变-45315426-东吕苏佩中配件加工,保定京鸽起重机械制造有限公司01,东吕三街内6,清苑县圣牌起重设备厂,东吕小学1,0478109058-东吕村委会二街-专变-46910849-东吕村委会二街","powerOffReason":"【停电原因】由于线路切改导致１１０ＫＶ东闾变电站１０ＫＶ东闾二街５２９线路全线停电 【变更送电】无 【发布渠道】保定市清苑区电视台（２０２０年０５月３１日１９时至２０２０年０６月０７日２０时之间）屏幕上方滚动","powerOffId":"2020053013000052"},{"poweroffId":2020053013000020,"sgpoweroffId":null,"subsName":"","lineName":"10kV570四鲍墟线","pubTranName":"南鲍墟综合8台区,北鲍墟综合10台区【冬季供暖设施】,西鲍墟综合6台区,北鲍墟综合9台区,北鲍墟综合4台区,南鲍墟综合4台区,西保去综合3台区,南保去综合2台区,南鲍墟综合6台区,西鲍墟综合9台区【冬季供暖设施】,东鲍墟综合6台区,西保去综合1台区,南鲍墟农排8台区,东保去综合3台区,西保去综合4台区,北鲍墟综合5台区,南保去综合1台区,西鲍墟综合7台区,北鲍墟综合8台区,南鲍墟综合9台区,西鲍墟综合8台区,南保去综合3台区,东保去综合4台区,北保去综合1台区,东鲍墟综合5台区,东保去综合2台区,东鲍墟综合7台区,北保去综合2台区,客户投资_北保去综合3台区,北鲍墟综合6台区,南鲍墟综合5台区,南鲍墟综合10台区,东保去综合1台区,西保去综合2台区,西保去综合5台区,北鲍墟综合7台区,南鲍墟综合7台区,","scope":"【影响街道/乡镇】鲍墟乡【高危重要客户】无【影响客户】东鲍墟村、西鲍墟村、南鲍墟村、北鲍墟村","startTime":"2020-05-30 05:00:21","stopDate":"2020-05-30 07:10:00","orgNo":"1340616","typeCode":"电网故障停限电","poweroffArea":"【全线路停电】停１１０ＫＶ南庄变电站１０ＫＶ四鲍墟５７０线路全线，进托,东鲍墟综合7台区,南鲍墟综合7台区,东保去综合4台区,西鲍墟综合7台区,北鲍墟综合8台区,南保去综合1台区,西鲍墟综合6台区,西鲍墟综合8台区,北鲍墟综合9台区,北鲍墟综合10台区【冬季供暖设施】,东保去综合3台区,西保去综合1台区,瑞兴宏景变压器500,南保去综合2台区,西保去综合2台区,西保去综合5台区,南鲍墟综合6台区,西鲍墟综合9台区【冬季供暖设施】,北鲍墟综合4台区,蠡县亿帮洁日化有限公司,北鲍墟综合6台区,南鲍墟综合5台区,南鲍墟综合8台区,东鲍墟综合5台区,东保去综合2台区,客户投资_北保去综合3台区,南鲍墟农排8台区,北鲍墟综合5台区,保去社办厂,北鲍墟综合7台区,保定江雄商品混凝土有限公司变压器,南保去综合3台区,南鲍墟综合9台区,东保去综合1台区,南保红亮,保去中学变压器,南鲍墟综合10台区,瑞兴宏景变压器315,种子站,东鲍墟综合6台区,文瑞,南鲍墟综合4台区,北保去综合2台区,西保去综合4台区,西保去综合3台区,北保去综合1台区","poweroffReason":"【停电原因】由于站内开关掉闸导致１１０ＫＶ南庄变电站１０ＫＶ四鲍墟５７０线路全线停电【变更送电】因抢修进度加快原因，送电时间由１０：００变更为０７：１０【发布渠道】通过９５５９８发布","powerTime":"2020-05-30 06:53:16","powerComm":"已送电","subsNo":"","lineNo":"","tgNo":"","tgName":null,"infoStatus":"1","orgName":"国网蠡县供电公司","typeName":null,"infoStatusName":null,"dateDay":null,"orgNos":null,"nowTime":null,"countyName":null,"streetName":null,"villageName":null,"roadName":null,"communityName":null,"tranName":null,"sdLineName":null,"cityCode":"1340616","cityName":"国网蠡县供电公司","provinceCode":null,"stopTime":"2020-05-30 07:10:00","powerType":"全部","powerOffArea":"【全线路停电】停１１０ＫＶ南庄变电站１０ＫＶ四鲍墟５７０线路全线，进托,东鲍墟综合7台区,南鲍墟综合7台区,东保去综合4台区,西鲍墟综合7台区,北鲍墟综合8台区,南保去综合1台区,西鲍墟综合6台区,西鲍墟综合8台区,北鲍墟综合9台区,北鲍墟综合10台区【冬季供暖设施】,东保去综合3台区,西保去综合1台区,瑞兴宏景变压器500,南保去综合2台区,西保去综合2台区,西保去综合5台区,南鲍墟综合6台区,西鲍墟综合9台区【冬季供暖设施】,北鲍墟综合4台区,蠡县亿帮洁日化有限公司,北鲍墟综合6台区,南鲍墟综合5台区,南鲍墟综合8台区,东鲍墟综合5台区,东保去综合2台区,客户投资_北保去综合3台区,南鲍墟农排8台区,北鲍墟综合5台区,保去社办厂,北鲍墟综合7台区,保定江雄商品混凝土有限公司变压器,南保去综合3台区,南鲍墟综合9台区,东保去综合1台区,南保红亮,保去中学变压器,南鲍墟综合10台区,瑞兴宏景变压器315,种子站,东鲍墟综合6台区,文瑞,南鲍墟综合4台区,北保去综合2台区,西保去综合4台区,西保去综合3台区,北保去综合1台区","powerOffReason":"【停电原因】由于站内开关掉闸导致１１０ＫＶ南庄变电站１０ＫＶ四鲍墟５７０线路全线停电【变更送电】因抢修进度加快原因，送电时间由１０：００变更为０７：１０【发布渠道】通过９５５９８发布","powerOffId":"2020053013000020"}],"pageModel":{"pageNow":33,"totalCount":10973,"totalPage":1098,"tableRows":0,"pageCount":10,"beginCount":320},"isExperi":"1"}