{"message":"","today":"2020-06-15","seleList":[{"poweroffId":2019101013000193,"sgpoweroffId":null,"subsName":"","lineName":"10kV569于家佐线","pubTranName":"西町公用照明1台区,","scope":"【影响街道/乡镇】开元镇【高危重要客户】无【影响客户】西町","startTime":"2019-10-10 13:00:00","stopDate":"2019-10-10 18:00:00","orgNo":"1340610","typeCode":"其他临时停电","poweroffArea":"【单台区停电】停西町公用照明1台区","poweroffReason":"【停电原因】由于电杆倾斜需停电进行紧急检修导致１１０ＫＶ明月店变电站１０ＫＶ５６９于家佐线路西町公用照明１台区停电 【变更送电】无 【发布渠道】９５５９８","powerTime":"2019-10-10 17:55:17","powerComm":"已送电","subsNo":"","lineNo":"","tgNo":"","tgName":null,"infoStatus":"1","orgName":"国网定州市供电公司","typeName":null,"infoStatusName":null,"dateDay":null,"orgNos":null,"nowTime":null,"countyName":null,"streetName":null,"villageName":null,"roadName":null,"communityName":null,"tranName":null,"sdLineName":null,"cityCode":"1340610","cityName":"国网定州市供电公司","provinceCode":null,"stopTime":"2019-10-10 18:00:00","powerType":"全部","powerOffArea":"【单台区停电】停西町公用照明1台区","powerOffReason":"【停电原因】由于电杆倾斜需停电进行紧急检修导致１１０ＫＶ明月店变电站１０ＫＶ５６９于家佐线路西町公用照明１台区停电 【变更送电】无 【发布渠道】９５５９８","powerOffId":"2019101013000193"},{"poweroffId":2019101013000185,"sgpoweroffId":null,"subsName":"","lineName":"10kV568车寄线","pubTranName":"东车寄村公用照明3台区,","scope":"【影响街道/乡镇】叮咛店镇【高危重要客户】无【影响客户】东车寄","startTime":"2019-10-23 07:00:00","stopDate":"2019-10-23 18:30:00","orgNo":"1340610","typeCode":"计划停电","poweroffArea":"【分支停电】停东车寄村公用照明3台区","poweroffReason":"【停电原因】由于新增配变导致１１０ＫＶ叮咛店变电站１０ＫＶ５６８车寄线路主干７８号杆１８号隔离开关以下线路停电 【变更送电】因抢修进度加快原因，送电时间由１９：３０变更为１８：３０ 【发布渠道】河北省定州市定州日报第三版（２０１９年１０月１１日）","powerTime":"2019-10-23 18:02:36","powerComm":"已送电","subsNo":"","lineNo":"","tgNo":"","tgName":null,"infoStatus":"1","orgName":"国网定州市供电公司","typeName":null,"infoStatusName":null,"dateDay":null,"orgNos":null,"nowTime":null,"countyName":null,"streetName":null,"villageName":null,"roadName":null,"communityName":null,"tranName":null,"sdLineName":null,"cityCode":"1340610","cityName":"国网定州市供电公司","provinceCode":null,"stopTime":"2019-10-23 18:30:00","powerType":"全部","powerOffArea":"【分支停电】停东车寄村公用照明3台区","powerOffReason":"【停电原因】由于新增配变导致１１０ＫＶ叮咛店变电站１０ＫＶ５６８车寄线路主干７８号杆１８号隔离开关以下线路停电 【变更送电】因抢修进度加快原因，送电时间由１９：３０变更为１８：３０ 【发布渠道】河北省定州市定州日报第三版（２０１９年１０月１１日）","powerOffId":"2019101013000185"},{"poweroffId":2019101013000180,"sgpoweroffId":null,"subsName":"","lineName":"10kV568车寄线","pubTranName":"东车寄公用照明7台区,东车寄公用照明6台区,","scope":"【影响街道/乡镇】叮咛店镇【高危重要客户】无【影响客户】东车寄","startTime":"2019-10-23 06:20:00","stopDate":"2019-10-23 20:00:00","orgNo":"1340610","typeCode":"计划停电","poweroffArea":"【分支停电】停东车寄公用照明7台区,东车寄公用照明6台区","poweroffReason":"【停电原因】由于更换变压器导致１１０ＫＶ叮咛店变电站１０ＫＶ５６８车寄线路主干８５号杆２０号隔离开关以下线路停电 【变更送电】无 【发布渠道】河北省定州市定州日报第三版（２０１９年１０月１１日）","powerTime":"2019-10-23 19:03:47","powerComm":"已送电","subsNo":"","lineNo":"","tgNo":"","tgName":null,"infoStatus":"1","orgName":"国网定州市供电公司","typeName":null,"infoStatusName":null,"dateDay":null,"orgNos":null,"nowTime":null,"countyName":null,"streetName":null,"villageName":null,"roadName":null,"communityName":null,"tranName":null,"sdLineName":null,"cityCode":"1340610","cityName":"国网定州市供电公司","provinceCode":null,"stopTime":"2019-10-23 20:00:00","powerType":"全部","powerOffArea":"【分支停电】停东车寄公用照明7台区,东车寄公用照明6台区","powerOffReason":"【停电原因】由于更换变压器导致１１０ＫＶ叮咛店变电站１０ＫＶ５６８车寄线路主干８５号杆２０号隔离开关以下线路停电 【变更送电】无 【发布渠道】河北省定州市定州日报第三版（２０１９年１０月１１日）","powerOffId":"2019101013000180"},{"poweroffId":2019101013000175,"sgpoweroffId":null,"subsName":"","lineName":"10KV541张村线","pubTranName":"东旺公用照明7台区,东旺公用照明5台区,东旺公用照明3台区,","scope":"【影响街道/乡镇】东旺镇【高危重要客户】无【影响客户】东旺","startTime":"2019-10-23 07:10:00","stopDate":"2019-10-23 17:30:00","orgNo":"1340610","typeCode":"计划停电","poweroffArea":"【分支停电】停东旺公用照明7台区,东旺公用照明5台区,东旺公用照明3台区","poweroffReason":"【停电原因】由于更换导线导致１１０ＫＶ东亭变电站１０ＫＶ５４１张村线路主干１０９号杆０３号断路器以下线路停电 【变更送电】无 【发布渠道】河北省定州市定州日报第三版（２０１９年１０月１１日）","powerTime":"2019-10-23 17:18:49","powerComm":"已送电","subsNo":"","lineNo":"","tgNo":"","tgName":null,"infoStatus":"1","orgName":"国网定州市供电公司","typeName":null,"infoStatusName":null,"dateDay":null,"orgNos":null,"nowTime":null,"countyName":null,"streetName":null,"villageName":null,"roadName":null,"communityName":null,"tranName":null,"sdLineName":null,"cityCode":"1340610","cityName":"国网定州市供电公司","provinceCode":null,"stopTime":"2019-10-23 17:30:00","powerType":"全部","powerOffArea":"【分支停电】停东旺公用照明7台区,东旺公用照明5台区,东旺公用照明3台区","powerOffReason":"【停电原因】由于更换导线导致１１０ＫＶ东亭变电站１０ＫＶ５４１张村线路主干１０９号杆０３号断路器以下线路停电 【变更送电】无 【发布渠道】河北省定州市定州日报第三版（２０１９年１０月１１日）","powerOffId":"2019101013000175"},{"poweroffId":2019101013000170,"sgpoweroffId":null,"subsName":"","lineName":"10kV上车亭526","pubTranName":"西租村西北,","scope":"【影响街道/乡镇】涞水镇 【高危重要客户】无 【影响客户】西租村","startTime":"2019-10-10 11:22:08","stopDate":"2019-10-10 15:30:00","orgNo":"1340614","typeCode":"电网故障停限电","poweroffArea":"【单台区停电】停西租村西北","poweroffReason":"【停电原因】由于设备线夹烧毁导致１１０ＫＶ涞水变电站１０ＫＶ上车亭５２６线路西租村西北公变台区停电 【变更送电】无 【发布渠道】通过９５５９８发布","powerTime":"2019-10-10 14:32:05","powerComm":"已送电","subsNo":"","lineNo":"","tgNo":"","tgName":null,"infoStatus":"1","orgName":"国网涞水县供电公司","typeName":null,"infoStatusName":null,"dateDay":null,"orgNos":null,"nowTime":null,"countyName":null,"streetName":null,"villageName":null,"roadName":null,"communityName":null,"tranName":null,"sdLineName":null,"cityCode":"1340614","cityName":"国网涞水县供电公司","provinceCode":null,"stopTime":"2019-10-10 15:30:00","powerType":"全部","powerOffArea":"【单台区停电】停西租村西北","powerOffReason":"【停电原因】由于设备线夹烧毁导致１１０ＫＶ涞水变电站１０ＫＶ上车亭５２６线路西租村西北公变台区停电 【变更送电】无 【发布渠道】通过９５５９８发布","powerOffId":"2019101013000170"},{"poweroffId":2019101013000157,"sgpoweroffId":null,"subsName":"","lineName":"10kV568车寄线","pubTranName":"客户投资_东车寄村公用照明4台区,东车寄公用照明10台区,","scope":"【影响街道/乡镇】叮咛店镇【高危重要客户】无【影响客户】东车寄","startTime":"2019-10-24 06:30:00","stopDate":"2019-10-24 19:40:00","orgNo":"1340610","typeCode":"计划停电","poweroffArea":"【分支停电】停客户投资_东车寄村公用照明4台区,东车寄公用照明10台区","poweroffReason":"【停电原因】由于更换变压器导致１１０ＫＶ叮咛店变电站１０ＫＶ５６８车寄线路车寄村西分支２４号杆４２号隔离开关以下线路停电 【变更送电】无 【发布渠道】河北省定州市定州日报第三版（２０１９年１０月１１日）","powerTime":"2019-10-24 18:45:26","powerComm":"已送电","subsNo":"","lineNo":"","tgNo":"","tgName":null,"infoStatus":"1","orgName":"国网定州市供电公司","typeName":null,"infoStatusName":null,"dateDay":null,"orgNos":null,"nowTime":null,"countyName":null,"streetName":null,"villageName":null,"roadName":null,"communityName":null,"tranName":null,"sdLineName":null,"cityCode":"1340610","cityName":"国网定州市供电公司","provinceCode":null,"stopTime":"2019-10-24 19:40:00","powerType":"全部","powerOffArea":"【分支停电】停客户投资_东车寄村公用照明4台区,东车寄公用照明10台区","powerOffReason":"【停电原因】由于更换变压器导致１１０ＫＶ叮咛店变电站１０ＫＶ５６８车寄线路车寄村西分支２４号杆４２号隔离开关以下线路停电 【变更送电】无 【发布渠道】河北省定州市定州日报第三版（２０１９年１０月１１日）","powerOffId":"2019101013000157"},{"poweroffId":2019101013000150,"sgpoweroffId":null,"subsName":"","lineName":"10kV538土厚线","pubTranName":"土厚村公用照明四台区,曹村公用照明3台区,翟城村公用照明一台区,","scope":"【影响街道/乡镇】东亭镇【高危重要客户】无【影响客户】土厚村、翟城村、曹村","startTime":"2019-10-22 07:00:00","stopDate":"2019-10-22 17:00:00","orgNo":"1340610","typeCode":"计划停电","poweroffArea":"【分支停电】停土厚村公用照明四台区,曹村公用照明3台区,翟城村公用照明一台区","poweroffReason":"【停电原因】由于更换导线导致１１０ＫＶ东亭变电站１０ＫＶ５３８土厚线路主干５２号杆０３号断路器以下线路停电 【变更送电】无 【发布渠道】河北省定州市定州日报第三版（２０１９年１０月１１日）","powerTime":"2019-10-22 16:04:36","powerComm":"已送电","subsNo":"","lineNo":"","tgNo":"","tgName":null,"infoStatus":"1","orgName":"国网定州市供电公司","typeName":null,"infoStatusName":null,"dateDay":null,"orgNos":null,"nowTime":null,"countyName":null,"streetName":null,"villageName":null,"roadName":null,"communityName":null,"tranName":null,"sdLineName":null,"cityCode":"1340610","cityName":"国网定州市供电公司","provinceCode":null,"stopTime":"2019-10-22 17:00:00","powerType":"全部","powerOffArea":"【分支停电】停土厚村公用照明四台区,曹村公用照明3台区,翟城村公用照明一台区","powerOffReason":"【停电原因】由于更换导线导致１１０ＫＶ东亭变电站１０ＫＶ５３８土厚线路主干５２号杆０３号断路器以下线路停电 【变更送电】无 【发布渠道】河北省定州市定州日报第三版（２０１９年１０月１１日）","powerOffId":"2019101013000150"},{"poweroffId":2019101013000144,"sgpoweroffId":null,"subsName":"","lineName":"10kV526曹庄子线","pubTranName":"八兄公用照明8台区,八兄公用照明6台区,八兄公用照明5台区,","scope":"【影响街道/乡镇】西城区【高危重要客户】无【影响客户】八兄","startTime":"2019-10-24 06:40:00","stopDate":"2019-10-24 17:00:00","orgNo":"1340610","typeCode":"计划停电","poweroffArea":"【分支停电】停八兄公用照明8台区,八兄公用照明6台区,八兄公用照明5台区","poweroffReason":"【停电原因】由于更换导线导致１１０ＫＶ定县变电站１０ＫＶ５２６曹庄子线路主干２９号杆０９号隔离开关以下线路停电 【变更送电】无 【发布渠道】河北省定州市定州日报第三版（２０１９年１０月１１日）","powerTime":"2019-10-24 16:56:19","powerComm":"已送电","subsNo":"","lineNo":"","tgNo":"","tgName":null,"infoStatus":"1","orgName":"国网定州市供电公司","typeName":null,"infoStatusName":null,"dateDay":null,"orgNos":null,"nowTime":null,"countyName":null,"streetName":null,"villageName":null,"roadName":null,"communityName":null,"tranName":null,"sdLineName":null,"cityCode":"1340610","cityName":"国网定州市供电公司","provinceCode":null,"stopTime":"2019-10-24 17:00:00","powerType":"全部","powerOffArea":"【分支停电】停八兄公用照明8台区,八兄公用照明6台区,八兄公用照明5台区","powerOffReason":"【停电原因】由于更换导线导致１１０ＫＶ定县变电站１０ＫＶ５２６曹庄子线路主干２９号杆０９号隔离开关以下线路停电 【变更送电】无 【发布渠道】河北省定州市定州日报第三版（２０１９年１０月１１日）","powerOffId":"2019101013000144"},{"poweroffId":2019101013000140,"sgpoweroffId":null,"subsName":"","lineName":"10kV544河西线","pubTranName":"北庞10号,北庞11号【纯农排变】,北庞4号,北庞6号,北庞1号,河西2号,马官营11号【纯农排变】,河西1号,北庞2号【纯农排变】,北庞3号【纯农排变】,河西10号【纯农排变】,马官营3号【纯农排变】,马官营13号【纯农排变】,马官营4号【纯农排变】,马官营5号【纯农排变】,马官营1号,马官营6号,马官营7号【纯农排变】,马官营9号【纯农排变】,","scope":"【影响街道/乡镇】漕河镇 【高危重要客户】无 【影响客户】北庞村，河西村，马官营","startTime":"2019-10-11 07:30:00","stopDate":"2019-10-11 10:00:00","orgNo":"1340605","typeCode":"其他临时停电","poweroffArea":"【分支停电】停北庞10号,北庞11号【纯农排变】,北庞12号,北庞13号,北庞14号,北庞1号,北庞2号【纯农排变】,北庞3号【纯农排变】,北庞4号,北庞6号,北庞7号,北庞9号,河西10号【纯农排变】,河西11号,河西1号,河西2号,马官营11号【纯农排变】,马官营12号【纯农排变】,马官营13号【纯农排变】,马官营14号,马官营1号,马官营2号【纯农排变】,马官营3号【纯农排变】,马官营4号【纯农排变】,马官营5号【纯农排变】,马官营6号,马官营7号【纯农排变】,马官营8号,马官营9号【纯农排变】","poweroffReason":"【停电原因】由于处理紧急缺陷导致１１０ＫＶ留村变电站１０ＫＶ５４４河西线６９号杆分段开关以下线路停电 【变更送电】无 【发布渠道】通过９５５９８发布","powerTime":"2019-10-11 09:49:03","powerComm":"已送电","subsNo":"","lineNo":"","tgNo":"","tgName":null,"infoStatus":"1","orgName":"国网徐水县供电公司","typeName":null,"infoStatusName":null,"dateDay":null,"orgNos":null,"nowTime":null,"countyName":null,"streetName":null,"villageName":null,"roadName":null,"communityName":null,"tranName":null,"sdLineName":null,"cityCode":"1340605","cityName":"国网徐水县供电公司","provinceCode":null,"stopTime":"2019-10-11 10:00:00","powerType":"全部","powerOffArea":"【分支停电】停北庞10号,北庞11号【纯农排变】,北庞12号,北庞13号,北庞14号,北庞1号,北庞2号【纯农排变】,北庞3号【纯农排变】,北庞4号,北庞6号,北庞7号,北庞9号,河西10号【纯农排变】,河西11号,河西1号,河西2号,马官营11号【纯农排变】,马官营12号【纯农排变】,马官营13号【纯农排变】,马官营14号,马官营1号,马官营2号【纯农排变】,马官营3号【纯农排变】,马官营4号【纯农排变】,马官营5号【纯农排变】,马官营6号,马官营7号【纯农排变】,马官营8号,马官营9号【纯农排变】","powerOffReason":"【停电原因】由于处理紧急缺陷导致１１０ＫＶ留村变电站１０ＫＶ５４４河西线６９号杆分段开关以下线路停电 【变更送电】无 【发布渠道】通过９５５９８发布","powerOffId":"2019101013000140"},{"poweroffId":2019101013000139,"sgpoweroffId":null,"subsName":"","lineName":"10kV544牛村线","pubTranName":"牛村庄公用照明1台区,","scope":"【影响街道/乡镇】息仲镇【高危重要客户】无【影响客户】牛村庄","startTime":"2019-10-22 06:50:00","stopDate":"2019-10-22 17:20:00","orgNo":"1340610","typeCode":"计划停电","poweroffArea":"【分支停电】停牛村庄公用照明1台区","poweroffReason":"【停电原因】由于更换电杆、新立电杆导致１１０ＫＶ庞村变电站１０ＫＶ５４４牛村线路牛村庄分支０１号杆１４号隔离开关以下线路停电 【变更送电】无 【发布渠道】河北省定州市定州日报第三版（２０１９年１０月１１日）","powerTime":"2019-10-22 17:09:44","powerComm":"已送电","subsNo":"","lineNo":"","tgNo":"","tgName":null,"infoStatus":"1","orgName":"国网定州市供电公司","typeName":null,"infoStatusName":null,"dateDay":null,"orgNos":null,"nowTime":null,"countyName":null,"streetName":null,"villageName":null,"roadName":null,"communityName":null,"tranName":null,"sdLineName":null,"cityCode":"1340610","cityName":"国网定州市供电公司","provinceCode":null,"stopTime":"2019-10-22 17:20:00","powerType":"全部","powerOffArea":"【分支停电】停牛村庄公用照明1台区","powerOffReason":"【停电原因】由于更换电杆、新立电杆导致１１０ＫＶ庞村变电站１０ＫＶ５４４牛村线路牛村庄分支０１号杆１４号隔离开关以下线路停电 【变更送电】无 【发布渠道】河北省定州市定州日报第三版（２０１９年１０月１１日）","powerOffId":"2019101013000139"}],"pageModel":{"pageNow":514,"totalCount":10973,"totalPage":1098,"tableRows":0,"pageCount":10,"beginCount":5130},"isExperi":"1"}