{"message":"","today":"2020-06-15","seleList":[{"poweroffId":2019101013000135,"sgpoweroffId":null,"subsName":"","lineName":"10kV545钮店线","pubTranName":"钮店公用照明6台区(1),钮店公用照明9台区,钮店公用照明5台区(3),钮店公用照明8台区,钮店公用照明7台区(2),钮店公用照明3台区(5),钮店公用照明13台区,钮店公用照明14台区,钮店公用照明4台区(5),钮店公用照明11台区,钮店公用照明12台区,钮店公用照明1台区(7),钮店公用照明2台区(6),钮店公用照明17台区1,钮店公用照明10台区,","scope":"【影响街道/乡镇】高蓬镇【高危重要客户】无【影响客户】钮店、东王郝村东北、牛村庄","startTime":"2019-10-24 07:00:00","stopDate":"2019-10-24 17:30:00","orgNo":"1340610","typeCode":"计划停电","poweroffArea":"【全线路停电】停钮店公用照明10台区,钮店公用照明6台区(1),钮店公用照明9台区,钮店公用照明5台区(3),钮店公用照明8台区,钮店公用照明7台区(2),钮店公用照明3台区(5),钮店公用照明13台区,钮店公用照明14台区,钮店公用照明4台区(5),钮店公用照明11台区,钮店公用照明12台区,钮店公用照明1台区(7),钮店公用照明2台区(6),钮店公用照明17台区1","poweroffReason":"【停电原因】由于更换导线导致１１０ＫＶ庞村变电站１０ＫＶ５４５钮店线路全线停电 【变更送电】无 【发布渠道】河北省定州市定州日报第三版（２０１９年１０月１１日）","powerTime":"2019-10-24 16:40:11","powerComm":"已送电","subsNo":"","lineNo":"","tgNo":"","tgName":null,"infoStatus":"1","orgName":"国网定州市供电公司","typeName":null,"infoStatusName":null,"dateDay":null,"orgNos":null,"nowTime":null,"countyName":null,"streetName":null,"villageName":null,"roadName":null,"communityName":null,"tranName":null,"sdLineName":null,"cityCode":"1340610","cityName":"国网定州市供电公司","provinceCode":null,"stopTime":"2019-10-24 17:30:00","powerType":"全部","powerOffArea":"【全线路停电】停钮店公用照明10台区,钮店公用照明6台区(1),钮店公用照明9台区,钮店公用照明5台区(3),钮店公用照明8台区,钮店公用照明7台区(2),钮店公用照明3台区(5),钮店公用照明13台区,钮店公用照明14台区,钮店公用照明4台区(5),钮店公用照明11台区,钮店公用照明12台区,钮店公用照明1台区(7),钮店公用照明2台区(6),钮店公用照明17台区1","powerOffReason":"【停电原因】由于更换导线导致１１０ＫＶ庞村变电站１０ＫＶ５４５钮店线路全线停电 【变更送电】无 【发布渠道】河北省定州市定州日报第三版（２０１９年１０月１１日）","powerOffId":"2019101013000135"},{"poweroffId":2019101013000130,"sgpoweroffId":null,"subsName":"","lineName":"10kV568车寄线","pubTranName":"新城村公用照明3台区,新城村公用照明1台区,","scope":"【影响街道/乡镇】叮咛店镇【高危重要客户】无【影响客户】新城村","startTime":"2019-10-22 06:40:00","stopDate":"2019-10-22 19:00:00","orgNo":"1340610","typeCode":"计划停电","poweroffArea":"【分支停电】停新城村公用照明3台区,新城村公用照明1台区","poweroffReason":"【停电原因】由于更换电杆导致１１０ＫＶ叮咛店变电站１０ＫＶ５６８车寄线路车寄村西分支０９号杆３０号隔离开关以下线路停电 【变更送电】因抢修进度加快原因，送电时间由２０：００变更为１９：００ 【发布渠道】河北省定州市定州日报第三版（２０１９年１０月１１日）","powerTime":"2019-10-22 18:41:04","powerComm":"已送电","subsNo":"","lineNo":"","tgNo":"","tgName":null,"infoStatus":"1","orgName":"国网定州市供电公司","typeName":null,"infoStatusName":null,"dateDay":null,"orgNos":null,"nowTime":null,"countyName":null,"streetName":null,"villageName":null,"roadName":null,"communityName":null,"tranName":null,"sdLineName":null,"cityCode":"1340610","cityName":"国网定州市供电公司","provinceCode":null,"stopTime":"2019-10-22 19:00:00","powerType":"全部","powerOffArea":"【分支停电】停新城村公用照明3台区,新城村公用照明1台区","powerOffReason":"【停电原因】由于更换电杆导致１１０ＫＶ叮咛店变电站１０ＫＶ５６８车寄线路车寄村西分支０９号杆３０号隔离开关以下线路停电 【变更送电】因抢修进度加快原因，送电时间由２０：００变更为１９：００ 【发布渠道】河北省定州市定州日报第三版（２０１９年１０月１１日）","powerOffId":"2019101013000130"},{"poweroffId":2019101013000116,"sgpoweroffId":null,"subsName":"","lineName":"10kV564南支合线","pubTranName":"太平庄村公用照明1台区,","scope":"【影响街道/乡镇】清风店镇【高危重要客户】无【影响客户】太平庄","startTime":"2019-10-22 06:30:00","stopDate":"2019-10-22 16:30:00","orgNo":"1340610","typeCode":"计划停电","poweroffArea":"【分支停电】停太平庄村公用照明1台区","poweroffReason":"【停电原因】由于新增电杆导致１１０ＫＶ清风店变电站１０ＫＶ５６４南支合线路主干２２号杆０４号隔离开关以下线路停电 【变更送电】无 【发布渠道】河北省定州市定州日报第三版（２０１９年１０月１１日）","powerTime":"2019-10-22 16:22:55","powerComm":"已送电","subsNo":"","lineNo":"","tgNo":"","tgName":null,"infoStatus":"1","orgName":"国网定州市供电公司","typeName":null,"infoStatusName":null,"dateDay":null,"orgNos":null,"nowTime":null,"countyName":null,"streetName":null,"villageName":null,"roadName":null,"communityName":null,"tranName":null,"sdLineName":null,"cityCode":"1340610","cityName":"国网定州市供电公司","provinceCode":null,"stopTime":"2019-10-22 16:30:00","powerType":"全部","powerOffArea":"【分支停电】停太平庄村公用照明1台区","powerOffReason":"【停电原因】由于新增电杆导致１１０ＫＶ清风店变电站１０ＫＶ５６４南支合线路主干２２号杆０４号隔离开关以下线路停电 【变更送电】无 【发布渠道】河北省定州市定州日报第三版（２０１９年１０月１１日）","powerOffId":"2019101013000116"},{"poweroffId":2019101013000112,"sgpoweroffId":null,"subsName":"","lineName":"10kV551阳暮线","pubTranName":"北王宿公用照明6台区,北王宿公用照明3台区(3),北王宿公用照明1台区(1),","scope":"【影响街道/乡镇】邢邑镇【高危重要客户】无【影响客户】北王宿","startTime":"2019-10-25 07:00:00","stopDate":"2019-10-25 17:30:00","orgNo":"1340610","typeCode":"计划停电","poweroffArea":"【分支停电】停北王宿公用照明6台区,北王宿公用照明3台区(3),北王宿公用照明1台区(1)","poweroffReason":"【停电原因】由于更换导线导致１１０ＫＶ庞村变电站１０ＫＶ５５１阳暮线路南王宿分支０１杆号０２号断路器以下线路停电 【变更送电】无 【发布渠道】河北省定州市定州日报第三版（２０１９年１０月１１日）","powerTime":"2019-10-25 17:25:26","powerComm":"已送电","subsNo":"","lineNo":"","tgNo":"","tgName":null,"infoStatus":"1","orgName":"国网定州市供电公司","typeName":null,"infoStatusName":null,"dateDay":null,"orgNos":null,"nowTime":null,"countyName":null,"streetName":null,"villageName":null,"roadName":null,"communityName":null,"tranName":null,"sdLineName":null,"cityCode":"1340610","cityName":"国网定州市供电公司","provinceCode":null,"stopTime":"2019-10-25 17:30:00","powerType":"全部","powerOffArea":"【分支停电】停北王宿公用照明6台区,北王宿公用照明3台区(3),北王宿公用照明1台区(1)","powerOffReason":"【停电原因】由于更换导线导致１１０ＫＶ庞村变电站１０ＫＶ５５１阳暮线路南王宿分支０１杆号０２号断路器以下线路停电 【变更送电】无 【发布渠道】河北省定州市定州日报第三版（２０１９年１０月１１日）","powerOffId":"2019101013000112"},{"poweroffId":2019101013000104,"sgpoweroffId":null,"subsName":"","lineName":"10kV521武装部线","pubTranName":"鲍市邑(014):照明3台区,大渡河照明5台区,大渡河(017):照明1台区,大渡河公用照明9台区,总司屯公用照明13台区,总司屯公用照明8台区,西里元公用照明14台区,西里元公用照明9台区,东里元公用照明8台区,大渡河公用照明12台区,鲍市邑(014):公用照明6台区,鲍市邑公用照明10台区,鲍市邑公用照明8台区,总司屯公用照明7台区,大渡河公用照明11台区,高头公用照明5台区,总司屯(006):照明1台区,高头(007):照明2台区,东里元公用照明9台区,东里元公用照明6台区,大渡河公用照明14台区,总司屯公用照明9台区,大渡河公用照明6台区,鲍市邑公用照明9台区,市场社变公用照明2台区,总司屯公用照明5台区,鲍市邑公用照明11台区,寺市邑(011):照明1台区,东里元公用照明7台区,大渡河公用照明15台区,鲍市邑公用照明7台区,东里元(012):照明1台区,大渡河公用照明8台区,西里元公用照明10台区,总司屯(006):照明2台区,大渡河照明4台区,高头公用照明3台区,鲍市邑(014):照明1台区,总司屯公用照明10台区,北门街公用照明11台区,寺市邑公用照明3台区,东里元(012):照明3台区,大渡河(017):照明2台区,鲍市邑(014):照明2台区,大渡河(017):公用照明10台区,寺市邑公用照明2台区,鲍市邑公用照明5台区,东里元公用照明5台区,大渡河公用照明13台区,大渡河(017):照明3台区,东里元照明4台区,鲍市邑公用照明4台区,","scope":"【影响街道/乡镇】北门街、大鹿庄乡、清风店镇、杨家庄乡、北城区【高危重要客户】无【影响客户】鲍市邑、大渡河、大鹿庄、西里元、东里元、总司屯、高头、大洼里、寺市邑、河北省高速公路公安交通警察总队保定支队定州大队","startTime":"2019-10-27 06:30:00","stopDate":"2019-10-27 19:30:00","orgNo":"1340610","typeCode":"计划停电","poweroffArea":"【全线路停电】停鲍市邑公用照明11台区,寺市邑(011):照明1台区,东里元公用照明7台区,大渡河公用照明15台区,鲍市邑公用照明7台区,东里元(012):照明1台区,大渡河公用照明8台区,西里元公用照明10台区,总司屯(006):照明2台区,大渡河照明4台区,高头公用照明3台区,鲍市邑(014):照明1台区,总司屯公用照明10台区,北门街公用照明11台区,寺市邑公用照明3台区,东里元(012):照明3台区,大渡河(017):照明2台区,鲍市邑(014):照明2台区,大渡河(017):公用照明10台区,寺市邑公用照明2台区,鲍市邑公用照明5台区,东里元公用照明5台区,大渡河公用照明13台区,大渡河(017):照明3台区,东里元照明4台区,鲍市邑公用照明4台区,鲍市邑(014):照明3台区,大渡河照明5台区,大渡河(017):照明1台区,大渡河公用照明9台区,总司屯公用照明13台区,总司屯公用照明8台区,西里元公用照明14台区,西里元公用照明9台区,东里元公用照明8台区,大渡河公用照明12台区,鲍市邑(014):公用照明6台区,鲍市邑公用照明10台区,鲍市邑公用照明8台区,总司屯公用照明7台区,大渡河公用照明11台区,高头公用照明5台区,总司屯(006):照明1台区,高头(007):照明2台区,东里元公用照明9台区,东里元公用照明6台区,大渡河公用照明14台区,总司屯公用照明9台区,大渡河公用照明6台区,鲍市邑公用照明9台区,市场社变公用照明2台区,总司屯公用照明5台区","poweroffReason":"【停电原因】由于更换拉线导致１１０ＫＶ总司屯变电站１０ＫＶ５２１武装部线路全线停电 【变更送电】无 【发布渠道】河北省定州市定州日报第三版（２０１９年１０月１１日）","powerTime":"2019-10-27 19:09:31","powerComm":"已送电","subsNo":"","lineNo":"","tgNo":"","tgName":null,"infoStatus":"1","orgName":"国网定州市供电公司","typeName":null,"infoStatusName":null,"dateDay":null,"orgNos":null,"nowTime":null,"countyName":null,"streetName":null,"villageName":null,"roadName":null,"communityName":null,"tranName":null,"sdLineName":null,"cityCode":"1340610","cityName":"国网定州市供电公司","provinceCode":null,"stopTime":"2019-10-27 19:30:00","powerType":"全部","powerOffArea":"【全线路停电】停鲍市邑公用照明11台区,寺市邑(011):照明1台区,东里元公用照明7台区,大渡河公用照明15台区,鲍市邑公用照明7台区,东里元(012):照明1台区,大渡河公用照明8台区,西里元公用照明10台区,总司屯(006):照明2台区,大渡河照明4台区,高头公用照明3台区,鲍市邑(014):照明1台区,总司屯公用照明10台区,北门街公用照明11台区,寺市邑公用照明3台区,东里元(012):照明3台区,大渡河(017):照明2台区,鲍市邑(014):照明2台区,大渡河(017):公用照明10台区,寺市邑公用照明2台区,鲍市邑公用照明5台区,东里元公用照明5台区,大渡河公用照明13台区,大渡河(017):照明3台区,东里元照明4台区,鲍市邑公用照明4台区,鲍市邑(014):照明3台区,大渡河照明5台区,大渡河(017):照明1台区,大渡河公用照明9台区,总司屯公用照明13台区,总司屯公用照明8台区,西里元公用照明14台区,西里元公用照明9台区,东里元公用照明8台区,大渡河公用照明12台区,鲍市邑(014):公用照明6台区,鲍市邑公用照明10台区,鲍市邑公用照明8台区,总司屯公用照明7台区,大渡河公用照明11台区,高头公用照明5台区,总司屯(006):照明1台区,高头(007):照明2台区,东里元公用照明9台区,东里元公用照明6台区,大渡河公用照明14台区,总司屯公用照明9台区,大渡河公用照明6台区,鲍市邑公用照明9台区,市场社变公用照明2台区,总司屯公用照明5台区","powerOffReason":"【停电原因】由于更换拉线导致１１０ＫＶ总司屯变电站１０ＫＶ５２１武装部线路全线停电 【变更送电】无 【发布渠道】河北省定州市定州日报第三版（２０１９年１０月１１日）","powerOffId":"2019101013000104"},{"poweroffId":2019101013000102,"sgpoweroffId":null,"subsName":"","lineName":"10kV569双屯线","pubTranName":"中平谷公用照明2台区,中平谷公用照明3台区,中平古村公用照明1台区,","scope":"【影响街道/乡镇】叮咛店镇【高危重要客户】无【影响客户】中平谷","startTime":"2019-10-22 06:10:00","stopDate":"2019-10-22 19:00:00","orgNo":"1340610","typeCode":"计划停电","poweroffArea":"【分支停电】停中平谷公用照明2台区,中平谷公用照明3台区,中平古村公用照明1台区","poweroffReason":"【停电原因】由于更换配变导致１１０ＫＶ叮咛店变电站１０ＫＶ５６９双屯线路北平谷村北分支０７号杆２１号隔离开关以下线路停电 【变更送电】因抢修进度加快原因，送电时间由２０：００变更为１９：００ 【发布渠道】河北省定州市定州日报第三版（２０１９年１０月１１日）","powerTime":"2019-10-22 18:45:22","powerComm":"已送电","subsNo":"","lineNo":"","tgNo":"","tgName":null,"infoStatus":"1","orgName":"国网定州市供电公司","typeName":null,"infoStatusName":null,"dateDay":null,"orgNos":null,"nowTime":null,"countyName":null,"streetName":null,"villageName":null,"roadName":null,"communityName":null,"tranName":null,"sdLineName":null,"cityCode":"1340610","cityName":"国网定州市供电公司","provinceCode":null,"stopTime":"2019-10-22 19:00:00","powerType":"全部","powerOffArea":"【分支停电】停中平谷公用照明2台区,中平谷公用照明3台区,中平古村公用照明1台区","powerOffReason":"【停电原因】由于更换配变导致１１０ＫＶ叮咛店变电站１０ＫＶ５６９双屯线路北平谷村北分支０７号杆２１号隔离开关以下线路停电 【变更送电】因抢修进度加快原因，送电时间由２０：００变更为１９：００ 【发布渠道】河北省定州市定州日报第三版（２０１９年１０月１１日）","powerOffId":"2019101013000102"},{"poweroffId":2019101013000095,"sgpoweroffId":null,"subsName":"","lineName":"10kV512台头线","pubTranName":"台头公用照明9台区,","scope":"【影响街道/乡镇】砖路镇【高危重要客户】无【影响客户】台头村","startTime":"2019-10-25 07:00:00","stopDate":"2019-10-25 18:30:00","orgNo":"1340610","typeCode":"计划停电","poweroffArea":"【单台区停电】停台头公用照明9台区","poweroffReason":"【停电原因】由于更换下引线导致３５ＫＶ吴家庄变电站１０ＫＶ５１２台头线路台头公用照明９台区停电 【变更送电】无 【发布渠道】河北省定州市定州日报第三版（２０１９年１０月１１日）","powerTime":"2019-10-25 18:25:14","powerComm":"已送电","subsNo":"","lineNo":"","tgNo":"","tgName":null,"infoStatus":"1","orgName":"国网定州市供电公司","typeName":null,"infoStatusName":null,"dateDay":null,"orgNos":null,"nowTime":null,"countyName":null,"streetName":null,"villageName":null,"roadName":null,"communityName":null,"tranName":null,"sdLineName":null,"cityCode":"1340610","cityName":"国网定州市供电公司","provinceCode":null,"stopTime":"2019-10-25 18:30:00","powerType":"全部","powerOffArea":"【单台区停电】停台头公用照明9台区","powerOffReason":"【停电原因】由于更换下引线导致３５ＫＶ吴家庄变电站１０ＫＶ５１２台头线路台头公用照明９台区停电 【变更送电】无 【发布渠道】河北省定州市定州日报第三版（２０１９年１０月１１日）","powerOffId":"2019101013000095"},{"poweroffId":2019101013000089,"sgpoweroffId":null,"subsName":"","lineName":"10kV568车寄线","pubTranName":"新城屯公用照明3台区,新城屯公用照明4台区,新城屯村公用照明1台区,新城屯村公用照明2台区,","scope":"【影响街道/乡镇】叮咛店镇【高危重要客户】无【影响客户】新城屯","startTime":"2019-10-21 07:00:00","stopDate":"2019-10-21 19:30:00","orgNo":"1340610","typeCode":"计划停电","poweroffArea":"【分支停电】停新城屯公用照明3台区,新城屯公用照明4台区,新城屯村公用照明1台区,新城屯村公用照明2台区","poweroffReason":"【停电原因】由于新增配变导致１１０ＫＶ叮咛店变电站１０ＫＶ５６８车寄线路主干４６号杆０１号断路器以下线路停电 【变更送电】无 【发布渠道】河北省定州市定州日报第三版（２０１９年１０月１１日）","powerTime":"2019-10-21 19:19:13","powerComm":"已送电","subsNo":"","lineNo":"","tgNo":"","tgName":null,"infoStatus":"1","orgName":"国网定州市供电公司","typeName":null,"infoStatusName":null,"dateDay":null,"orgNos":null,"nowTime":null,"countyName":null,"streetName":null,"villageName":null,"roadName":null,"communityName":null,"tranName":null,"sdLineName":null,"cityCode":"1340610","cityName":"国网定州市供电公司","provinceCode":null,"stopTime":"2019-10-21 19:30:00","powerType":"全部","powerOffArea":"【分支停电】停新城屯公用照明3台区,新城屯公用照明4台区,新城屯村公用照明1台区,新城屯村公用照明2台区","powerOffReason":"【停电原因】由于新增配变导致１１０ＫＶ叮咛店变电站１０ＫＶ５６８车寄线路主干４６号杆０１号断路器以下线路停电 【变更送电】无 【发布渠道】河北省定州市定州日报第三版（２０１９年１０月１１日）","powerOffId":"2019101013000089"},{"poweroffId":2019101013000080,"sgpoweroffId":null,"subsName":"","lineName":"10kV571八兄线","pubTranName":"刘家庄公用照明5台区1,刘家庄公用照明3台区1,","scope":"【影响街道/乡镇】南城区【高危重要客户】无【影响客户】刘家庄（南刘家庄）","startTime":"2019-10-21 06:50:00","stopDate":"2019-10-21 16:50:00","orgNo":"1340610","typeCode":"计划停电","poweroffArea":"【分支停电】停刘家庄公用照明5台区1,刘家庄公用照明3台区1","poweroffReason":"【停电原因】由于更换电杆导致１１０ＫＶ明月店变电站１０ＫＶ５７１八兄线路刘家庄分支１４号杆０３号隔离开关以下线路停电 【变更送电】无 【发布渠道】河北省定州市定州日报第三版（２０１９年１０月１１日）","powerTime":"2019-10-21 16:13:37","powerComm":"已送电","subsNo":"","lineNo":"","tgNo":"","tgName":null,"infoStatus":"1","orgName":"国网定州市供电公司","typeName":null,"infoStatusName":null,"dateDay":null,"orgNos":null,"nowTime":null,"countyName":null,"streetName":null,"villageName":null,"roadName":null,"communityName":null,"tranName":null,"sdLineName":null,"cityCode":"1340610","cityName":"国网定州市供电公司","provinceCode":null,"stopTime":"2019-10-21 16:50:00","powerType":"全部","powerOffArea":"【分支停电】停刘家庄公用照明5台区1,刘家庄公用照明3台区1","powerOffReason":"【停电原因】由于更换电杆导致１１０ＫＶ明月店变电站１０ＫＶ５７１八兄线路刘家庄分支１４号杆０３号隔离开关以下线路停电 【变更送电】无 【发布渠道】河北省定州市定州日报第三版（２０１９年１０月１１日）","powerOffId":"2019101013000080"},{"poweroffId":2019101013000074,"sgpoweroffId":null,"subsName":"","lineName":"10kV514王庄子线","pubTranName":"杨庄子五队公用照明1台区,健身家属院公用照明1台区,","scope":"【影响街道/乡镇】西城区【高危重要客户】无【影响客户】杨庄子五队、健身家属院、保定红宇健身有限公司、丽静肉食","startTime":"2019-10-21 06:40:00","stopDate":"2019-10-21 17:40:00","orgNo":"1340610","typeCode":"计划停电","poweroffArea":"【分支停电】停杨庄子五队公用照明1台区,健身家属院公用照明1台区","poweroffReason":"【停电原因】由于更换导线导致１１０ＫＶ客车厂变电站１０ＫＶ５１４王庄子线路健身分支０５号杆０９号断路器以下线路停电 【变更送电】无 【发布渠道】河北省定州市定州日报第三版（２０１９年１０月１１日）","powerTime":"2019-10-21 17:28:47","powerComm":"已送电","subsNo":"","lineNo":"","tgNo":"","tgName":null,"infoStatus":"1","orgName":"国网定州市供电公司","typeName":null,"infoStatusName":null,"dateDay":null,"orgNos":null,"nowTime":null,"countyName":null,"streetName":null,"villageName":null,"roadName":null,"communityName":null,"tranName":null,"sdLineName":null,"cityCode":"1340610","cityName":"国网定州市供电公司","provinceCode":null,"stopTime":"2019-10-21 17:40:00","powerType":"全部","powerOffArea":"【分支停电】停杨庄子五队公用照明1台区,健身家属院公用照明1台区","powerOffReason":"【停电原因】由于更换导线导致１１０ＫＶ客车厂变电站１０ＫＶ５１４王庄子线路健身分支０５号杆０９号断路器以下线路停电 【变更送电】无 【发布渠道】河北省定州市定州日报第三版（２０１９年１０月１１日）","powerOffId":"2019101013000074"}],"pageModel":{"pageNow":515,"totalCount":10973,"totalPage":1098,"tableRows":0,"pageCount":10,"beginCount":5140},"isExperi":"1"}