{"message":"","today":"2020-06-15","seleList":[{"poweroffId":2019100913000059,"sgpoweroffId":null,"subsName":"","lineName":"柴厂511","pubTranName":"旺龙村1#,旺龙村2#村北,娄亭村7#小鱼沟,娄亭村5#,柴厂村1#,柴厂村6#村东,娄亭10#,旺龙村5#村东,娄亭村6#,娄亭村8台区变压器,柴厂5#,旺龙村6#,旺龙村3#,娄亭村4#|3队,娄亭扬水站,柴厂村2#|村下,柴厂村3#|村中,柴厂村4#,娄亭村3台区,旺龙村4#村南新,娄亭村1#,娄亭村2#变压器,","scope":"【影响街道/乡镇】梁格庄镇【高危重要客户】无【影响客户】柴厂村、娄亭村、旺龙村","startTime":"2019-10-09 09:30:00","stopDate":"2019-10-09 10:40:00","orgNo":"1340625","typeCode":"电网故障停限电","poweroffArea":"【分支停电】停旺龙村6#,0672256112-中国电建集团北京勘测设计研究院有限公司-专变-213884191-中国电建集团北京勘测设计研究院有限公司250KVA,变压器,易县天伟矿产品有限公司(郭保良),娄亭扬水站,娄亭村2#变压器,柴厂村6#村东,娄亭村5#,旺龙村2#村北,柴厂村4#,旺龙村4#村南新,娄亭村1#,娄亭10#,柴厂5#,娄亭村4#|3队,惠东房地产(托斯卡纳庄园),龙湖碧枫轩度假村,旺龙村3#,河北誉龙圣世房地产开发有限公司,旺龙村1#,桂龙公司,旺龙村5#村东,娄亭村8台区变压器,梁建国变压器,柴厂村2#|村下,柴厂村3#|村中,0469484377-易县桂隆房地产开发有限公司-专变-46819469-易县桂隆房地产开发有限公司,娄亭村7#小鱼沟,娄亭村6#,柴厂村1#,娄亭村3台区,红豆山庄,易县董军玄武岩石料厂,保定伍建房地产开发有限公司","poweroffReason":"【停电原因】由于Ｂ相跌落线夹断导致３５ＫＶ龙湖变电站柴厂５１１线路００５号杆至０３０号杆之间停电【变更送电】因抢修进度加快原因，送电时间由１１:３０变更为１０:４０【发布渠道】通过９５５９８发布","powerTime":"2019-10-09 10:15:41","powerComm":"已送电","subsNo":"","lineNo":"","tgNo":"","tgName":null,"infoStatus":"1","orgName":"国网易县供电公司","typeName":null,"infoStatusName":null,"dateDay":null,"orgNos":null,"nowTime":null,"countyName":null,"streetName":null,"villageName":null,"roadName":null,"communityName":null,"tranName":null,"sdLineName":null,"cityCode":"1340625","cityName":"国网易县供电公司","provinceCode":null,"stopTime":"2019-10-09 10:40:00","powerType":"全部","powerOffArea":"【分支停电】停旺龙村6#,0672256112-中国电建集团北京勘测设计研究院有限公司-专变-213884191-中国电建集团北京勘测设计研究院有限公司250KVA,变压器,易县天伟矿产品有限公司(郭保良),娄亭扬水站,娄亭村2#变压器,柴厂村6#村东,娄亭村5#,旺龙村2#村北,柴厂村4#,旺龙村4#村南新,娄亭村1#,娄亭10#,柴厂5#,娄亭村4#|3队,惠东房地产(托斯卡纳庄园),龙湖碧枫轩度假村,旺龙村3#,河北誉龙圣世房地产开发有限公司,旺龙村1#,桂龙公司,旺龙村5#村东,娄亭村8台区变压器,梁建国变压器,柴厂村2#|村下,柴厂村3#|村中,0469484377-易县桂隆房地产开发有限公司-专变-46819469-易县桂隆房地产开发有限公司,娄亭村7#小鱼沟,娄亭村6#,柴厂村1#,娄亭村3台区,红豆山庄,易县董军玄武岩石料厂,保定伍建房地产开发有限公司","powerOffReason":"【停电原因】由于Ｂ相跌落线夹断导致３５ＫＶ龙湖变电站柴厂５１１线路００５号杆至０３０号杆之间停电【变更送电】因抢修进度加快原因，送电时间由１１:３０变更为１０:４０【发布渠道】通过９５５９８发布","powerOffId":"2019100913000059"},{"poweroffId":2019100913000040,"sgpoweroffId":null,"subsName":"","lineName":"大龙华线517","pubTranName":"大龙华5#,野里店村村北2#,杨格庄村6#变压器,尧舜口村1#|村中,尧舜口村8#,大南头村4#变压器,杨格庄村5#变压器,大龙华村7#,大南头村5#,鹁鸽岩村2#|村中,尧舜口村9#,大南头村3#变压器,河北村3#村南,大龙华6#村北,大南头村1#|村南,杨格庄村2#|村北,大龙华村8#,龙塘村2#村东,尧舜口村5#村南,河北村2#|村西,河北村1#|村东,大龙华村3#|村东,鹁鸽岩村4#村东,杨格庄村1#|村中,大南头村2#村东,龙堂村1#|村北,大龙华村2#|村北,小南头村1#|村东,大龙华村4#|村东,大龙华村1#|村南,尧舜口村4#村东,鹁鸽岩村3#|村南,野里店村1#|村西,鹁鸽岩村1#|村北,杨格庄村3#村北,尧舜口村10#,尧舜口村3#|村东,","scope":"【影响街道/乡镇】大龙华乡【高危重要客户】无【影响客户】大龙华村、野里店村、大南头村、尧舜口村、河北村、杨各庄村、龙塘村、鹁鸪岩村、小南头村","startTime":"2019-10-11 01:00:00","stopDate":"2019-10-11 08:30:00","orgNo":"1340625","typeCode":"临时停电","poweroffArea":"【分支停电】停河北村3#村南,大龙华6#村北,大南头村1#|村南,杨格庄村2#|村北,大龙华村8#,龙塘村2#村东,尧舜口村5#村南,大南头村2#村东,鹁鸽岩村2#|村中,鹁鸽岩村4#村东,杨格庄村1#|村中,龙堂村1#|村北,大龙华村2#|村北,小南头村1#|村东,大龙华村4#|村东,大龙华村1#|村南,尧舜口村4#村东,鹁鸽岩村3#|村南,野里店村1#|村西,鹁鸽岩村1#|村北,杨格庄村3#村北,大龙华5#,河北村2#|村西,河北村1#|村东,大龙华村3#|村东,尧舜口村3#|村东,尧舜口村1#|村中,大龙华中心小学1250KVA,大龙华教学点100KVA,尧舜口村8#,龙塘村3#【纯农排变】,大龙华乡卫生院野里店分院80KVA,尧舜口村7#【纯农排变】,大南头村4#变压器,杨格庄村5#变压器,大龙华村7#,大龙华新建饭店,大南头村5#,大龙华水泥砖厂(廉力),野里店村村北2#,杨格庄村6#变压器,尧舜口村10#,大南头村3#变压器,易县大龙华服装厂,杨格庄村4#村南【纯农排变】,尧舜口村9#","poweroffReason":"【停电原因】由于线路切改导致１１０ＫＶ西陵变电站大龙华线５１７线路尧舜口分支０１９号杆０２号真空开关０２号刀闸以下停电【变更送电】无【发布渠道】通过９５５９８发布","powerTime":"2019-10-11 08:22:17","powerComm":"已送电","subsNo":"","lineNo":"","tgNo":"","tgName":null,"infoStatus":"1","orgName":"国网易县供电公司","typeName":null,"infoStatusName":null,"dateDay":null,"orgNos":null,"nowTime":null,"countyName":null,"streetName":null,"villageName":null,"roadName":null,"communityName":null,"tranName":null,"sdLineName":null,"cityCode":"1340625","cityName":"国网易县供电公司","provinceCode":null,"stopTime":"2019-10-11 08:30:00","powerType":"全部","powerOffArea":"【分支停电】停河北村3#村南,大龙华6#村北,大南头村1#|村南,杨格庄村2#|村北,大龙华村8#,龙塘村2#村东,尧舜口村5#村南,大南头村2#村东,鹁鸽岩村2#|村中,鹁鸽岩村4#村东,杨格庄村1#|村中,龙堂村1#|村北,大龙华村2#|村北,小南头村1#|村东,大龙华村4#|村东,大龙华村1#|村南,尧舜口村4#村东,鹁鸽岩村3#|村南,野里店村1#|村西,鹁鸽岩村1#|村北,杨格庄村3#村北,大龙华5#,河北村2#|村西,河北村1#|村东,大龙华村3#|村东,尧舜口村3#|村东,尧舜口村1#|村中,大龙华中心小学1250KVA,大龙华教学点100KVA,尧舜口村8#,龙塘村3#【纯农排变】,大龙华乡卫生院野里店分院80KVA,尧舜口村7#【纯农排变】,大南头村4#变压器,杨格庄村5#变压器,大龙华村7#,大龙华新建饭店,大南头村5#,大龙华水泥砖厂(廉力),野里店村村北2#,杨格庄村6#变压器,尧舜口村10#,大南头村3#变压器,易县大龙华服装厂,杨格庄村4#村南【纯农排变】,尧舜口村9#","powerOffReason":"【停电原因】由于线路切改导致１１０ＫＶ西陵变电站大龙华线５１７线路尧舜口分支０１９号杆０２号真空开关０２号刀闸以下停电【变更送电】无【发布渠道】通过９５５９８发布","powerOffId":"2019100913000040"},{"poweroffId":2019100913000021,"sgpoweroffId":null,"subsName":"","lineName":"10kV515东召线","pubTranName":"10kV515东召线32007变压器,10KV515东召线95029变压器,10KV515东召线32064变压器【纯农排变】,10kV515东召线32057变压器【纯农排变】,10KV515东召线41002变压器,10KV515东召线42910变压器【纯农排变】,10KV515东召线4868变压器,10KV515东召线32016变压器0【纯农排变】,10KV515东召线32018变压器,10KV515东召线32012变压器,10kV515东召线32005变压器0【纯农排变】,东呈召西北32017IC卡【纯农排变】,10KV515东召线32054变压器,10kv515东召线32010变压器,10kV515东召线32011变压器0【纯农排变】,10kV515东召线32060变压器0【纯农排变】,10kV515东召线程什伍照明84322变压器,10KV515东召线32013变压器,10kV515东召线32062变压器0【纯农排变】,10KV515东召线32014变压器【纯农排变】,10KV515东召线32022变压器,10kV515东召线32020变压器【纯农排变】,10KV515东召线42906变压器,10kV515东召线南林新增变压器,10KV515东召线40549变压器,10KV515东召线32049变压器【纯农排变】,10KV515东召线西呈召新增变压器,10KV515东召线32009变压器【纯农排变】,10kv528解村线宋村14号小屋【纯农排变】,10kV515东召线95027变压器,10KV515东召线40994变压器,10KV515东召线32041变压器,10KV515东召线32008。变压器【纯农排变】,10KV515东召线32002变压器,张庄猪厂32001,10KV515东召线32003变压器【纯农排变】,10kV515东召线40550变压器0,","scope":"【影响街道/乡镇】大程委镇【高危重要客户】无【影响客户】张庄、西召、东召、南林、程什伍","startTime":"2019-10-09 07:50:00","stopDate":"2019-10-09 09:30:00","orgNo":"1340608","typeCode":"电网故障停限电","poweroffArea":"【全线路停电】停10KV515东召线95029变压器,10KV515东召线32021变压器【纯农排变】,10KV515东召线32064变压器【纯农排变】,10kV515东召线32057变压器【纯农排变】,10KV515东召线32006变压器0【纯农排变】,东呈召32046IC卡【纯农排变】,博野县粮棉轧花厂,10KV515东召线42910变压器【纯农排变】,10KV515东召线4868变压器,10KV515东召线32022变压器,10kV515东召线32020变压器【纯农排变】,10kV515东召线南林新增变压器,10KV515东召线32049变压器【纯农排变】,10KV515东召线32009变压器【纯农排变】,博野县军威塑料制品销售有限公司,10KV515东召线32019变压器【纯农排变】,10kV515东召线程什伍照明84322变压器,杜铁孟,10KV515东召线32013变压器,10KV515东召线32014变压器【纯农排变】,10KV515东召线32047变压器【纯农排变】,10KV515东召线42906变压器,10KV515东召线40549变压器,10KV515东召线西呈召新增变压器,10kv528解村线宋村14号小屋【纯农排变】,10KV515东召线32041变压器,10kv515东召线32010变压器,10kV515东召线32060变压器0【纯农排变】,10KV515东召线32058变压器,张庄猪厂32001,10KV515东召线32003变压器【纯农排变】,10kV515东召线40550变压器0,10kV515东召线32007变压器,10KV515东召线41002变压器,10KV515东召线32004变压器【纯农排变】,10KV515东召线32018变压器,东呈召西北32017IC卡【纯农排变】,10KV515东召线32016变压器0【纯农排变】,10KV515东召线32059变压器【纯农排变】,10KV515东召线32061变压器【纯农排变】,10KV515东召线32012变压器,10kV515东召线32005变压器0【纯农排变】,连发钛厂100KVA,10kV515东召线32062变压器0【纯农排变】,10KV515东召【全线路停电】停10kV515东召线32011变压器0【纯农排变】,10kV515东召线95027变压器,10KV515东召线40994变压器,10KV515东召线东呈召村北32015IC卡【纯农排变】,10KV515东召线32008。变压器【纯农排变】,10KV515东召线32002变压器,10KV515东召线32048变压器【纯农排变】,孟强拔丝厂","poweroffReason":"【停电原因】由于线路接地导致１１０ＫＶ程委变电站东召５１５线路全线停电【变更送电】因抢修进度加快原因，送电时间由１９：００变更为０９：３０【发布渠道】通过９５５９８发布","powerTime":"2019-10-09 08:55:45","powerComm":"已送电","subsNo":"","lineNo":"","tgNo":"","tgName":null,"infoStatus":"1","orgName":"国网博野县供电公司","typeName":null,"infoStatusName":null,"dateDay":null,"orgNos":null,"nowTime":null,"countyName":null,"streetName":null,"villageName":null,"roadName":null,"communityName":null,"tranName":null,"sdLineName":null,"cityCode":"1340608","cityName":"国网博野县供电公司","provinceCode":null,"stopTime":"2019-10-09 09:30:00","powerType":"全部","powerOffArea":"【全线路停电】停10KV515东召线95029变压器,10KV515东召线32021变压器【纯农排变】,10KV515东召线32064变压器【纯农排变】,10kV515东召线32057变压器【纯农排变】,10KV515东召线32006变压器0【纯农排变】,东呈召32046IC卡【纯农排变】,博野县粮棉轧花厂,10KV515东召线42910变压器【纯农排变】,10KV515东召线4868变压器,10KV515东召线32022变压器,10kV515东召线32020变压器【纯农排变】,10kV515东召线南林新增变压器,10KV515东召线32049变压器【纯农排变】,10KV515东召线32009变压器【纯农排变】,博野县军威塑料制品销售有限公司,10KV515东召线32019变压器【纯农排变】,10kV515东召线程什伍照明84322变压器,杜铁孟,10KV515东召线32013变压器,10KV515东召线32014变压器【纯农排变】,10KV515东召线32047变压器【纯农排变】,10KV515东召线42906变压器,10KV515东召线40549变压器,10KV515东召线西呈召新增变压器,10kv528解村线宋村14号小屋【纯农排变】,10KV515东召线32041变压器,10kv515东召线32010变压器,10kV515东召线32060变压器0【纯农排变】,10KV515东召线32058变压器,张庄猪厂32001,10KV515东召线32003变压器【纯农排变】,10kV515东召线40550变压器0,10kV515东召线32007变压器,10KV515东召线41002变压器,10KV515东召线32004变压器【纯农排变】,10KV515东召线32018变压器,东呈召西北32017IC卡【纯农排变】,10KV515东召线32016变压器0【纯农排变】,10KV515东召线32059变压器【纯农排变】,10KV515东召线32061变压器【纯农排变】,10KV515东召线32012变压器,10kV515东召线32005变压器0【纯农排变】,连发钛厂100KVA,10kV515东召线32062变压器0【纯农排变】,10KV515东召【全线路停电】停10kV515东召线32011变压器0【纯农排变】,10kV515东召线95027变压器,10KV515东召线40994变压器,10KV515东召线东呈召村北32015IC卡【纯农排变】,10KV515东召线32008。变压器【纯农排变】,10KV515东召线32002变压器,10KV515东召线32048变压器【纯农排变】,孟强拔丝厂","powerOffReason":"【停电原因】由于线路接地导致１１０ＫＶ程委变电站东召５１５线路全线停电【变更送电】因抢修进度加快原因，送电时间由１９：００变更为０９：３０【发布渠道】通过９５５９８发布","powerOffId":"2019100913000021"},{"poweroffId":2019100913000018,"sgpoweroffId":null,"subsName":"","lineName":"10kV515新天地线","pubTranName":"（109）经委院公用照明台区,（143）商业街东公用照明台区,（43）商业街西公用照明台区,商业街东公用照明2台区,商业街西公用照明2台区,商业街公用照明3台区,","scope":"【影响街道/乡镇】大道观街、鼓楼街、商业街、女人街【高危重要客户】无【影响客户】大世界、国税局、中山新天地、中国网络通信公司、老干部活动中心、经委家属院、阳光２００９小区、大道观社区、李家湾、紫锦园","startTime":"2019-10-09 07:23:20","stopDate":"2019-10-09 10:30:00","orgNo":"1340610","typeCode":"电网故障停限电","poweroffArea":"【全线路停电】停（143）商业街东公用照明台区,（43）商业街西公用照明台区,商业街东公用照明2台区,商业街西公用照明2台区,商业街公用照明3台区,（109）经委院公用照明台区","poweroffReason":"【停电原因】由于阳光２００９小区电缆分接箱烧毁导致１１０ＫＶ定县变电站１０ＫＶ５１５新天地线路全线停电 【变更送电】因抢修进度加快原因，送电时间由１８：００变更为１０：３０ 【发布渠道】９５５９８","powerTime":"2019-10-09 09:52:25","powerComm":"已送电","subsNo":"","lineNo":"","tgNo":"","tgName":null,"infoStatus":"1","orgName":"国网定州市供电公司","typeName":null,"infoStatusName":null,"dateDay":null,"orgNos":null,"nowTime":null,"countyName":null,"streetName":null,"villageName":null,"roadName":null,"communityName":null,"tranName":null,"sdLineName":null,"cityCode":"1340610","cityName":"国网定州市供电公司","provinceCode":null,"stopTime":"2019-10-09 10:30:00","powerType":"全部","powerOffArea":"【全线路停电】停（143）商业街东公用照明台区,（43）商业街西公用照明台区,商业街东公用照明2台区,商业街西公用照明2台区,商业街公用照明3台区,（109）经委院公用照明台区","powerOffReason":"【停电原因】由于阳光２００９小区电缆分接箱烧毁导致１１０ＫＶ定县变电站１０ＫＶ５１５新天地线路全线停电 【变更送电】因抢修进度加快原因，送电时间由１８：００变更为１０：３０ 【发布渠道】９５５９８","powerOffId":"2019100913000018"},{"poweroffId":2019100913000006,"sgpoweroffId":null,"subsName":"","lineName":"城内513线","pubTranName":"南关东南,国防路土地家属公用2274变压器,西关村北0076变压器,唐盛佳苑4649箱式变出线间隔配电变压器,粮局公用0017变压器,唐盛佳苑箱式变4564出线间隔配电变压器,南关小区0006变压器,南坛村内4377,钻石铭城3399变压器,城西公用5145变压器,","scope":"【影响街道/乡镇】仁厚镇、国防路【高危重要客户】无【影响客户】南坛村、鑫鑫家园、南关村、西苑小区、西关村、怡心园小区、电厂家属院、一建家属院、房产家属楼、东牛市、西牛市、钻石名城、交通局西南方用户、富昌小区、城内村、红十字医院、理想集团周边用户、煤建家属院、唐尧西路第一小学、第一小学周边、工商局家属院、水利局、教堂、灌渠、县砖厂家属院、泗城涧村、交通局对面用户、七公司以北用户、灌渠以南用户、仁厚新区家属、御景西城小区、漫水桥烧烤城、石油小区、福康小区、天使之城、唐盛佳苑、北京滕航房地产开发有限公司、唐县金泰花园酒店、保定旭龙商贸有限公司、保定金坝塑业有限公司、河北保定运输集团有限责任公司第七运输分公司、唐县顺安建筑器材租赁站、汽车队、唐县天皓食品有限公司、唐县四城涧砖厂、河北美珠生物技术有限公司、唐县滕航房地产开发有限公司、河北唐明房地产开发有限公司、中国石油天然气股份有限公司河北保定销售分公司第一百一十八加油站、唐县恒谊玻璃制品有限公司","startTime":"2019-10-09 01:57:20","stopDate":"2019-10-09 03:00:00","orgNo":"1340622","typeCode":"电网故障停限电","poweroffArea":"【全线路停电】停唐县金泰花园酒店3184,唐盛佳苑4649箱式变出线间隔配电变压器,西关村北0076变压器,南关东南,唐县金泰花园酒店新装配变,国防路土地家属公用2274变压器,美珠药业照明变压器,唐县天宝房地产开发有限公司4913,理想集团0042,南关小区0006变压器,钻石铭城3399变压器,城西公用5145变压器,七公司0081,南坛村内4377,0689504035-河北尧天房地产开发有限公司-专变-230646914-河北尧天房地产开发有限公司10配变,唐盛佳苑箱式变4564出线间隔配电变压器,粮局公用0017变压器,四城涧砖厂0014","poweroffReason":"【停电原因】由于煤建分支０３号杆弓子线断导致１１０ＫＶ唐县变电站城内５１３线路全线停电【变更送电】因抢修进度加快原因，送电时间由１２：３０变更为０３：００【发布渠道】通过９５５９８发布","powerTime":"2019-10-09 02:22:23","powerComm":"已送电","subsNo":"","lineNo":"","tgNo":"","tgName":null,"infoStatus":"1","orgName":"国网唐县供电公司","typeName":null,"infoStatusName":null,"dateDay":null,"orgNos":null,"nowTime":null,"countyName":null,"streetName":null,"villageName":null,"roadName":null,"communityName":null,"tranName":null,"sdLineName":null,"cityCode":"1340622","cityName":"国网唐县供电公司","provinceCode":null,"stopTime":"2019-10-09 03:00:00","powerType":"全部","powerOffArea":"【全线路停电】停唐县金泰花园酒店3184,唐盛佳苑4649箱式变出线间隔配电变压器,西关村北0076变压器,南关东南,唐县金泰花园酒店新装配变,国防路土地家属公用2274变压器,美珠药业照明变压器,唐县天宝房地产开发有限公司4913,理想集团0042,南关小区0006变压器,钻石铭城3399变压器,城西公用5145变压器,七公司0081,南坛村内4377,0689504035-河北尧天房地产开发有限公司-专变-230646914-河北尧天房地产开发有限公司10配变,唐盛佳苑箱式变4564出线间隔配电变压器,粮局公用0017变压器,四城涧砖厂0014","powerOffReason":"【停电原因】由于煤建分支０３号杆弓子线断导致１１０ＫＶ唐县变电站城内５１３线路全线停电【变更送电】因抢修进度加快原因，送电时间由１２：３０变更为０３：００【发布渠道】通过９５５９８发布","powerOffId":"2019100913000006"},{"poweroffId":2019100813000597,"sgpoweroffId":null,"subsName":"","lineName":"10kV柏崖515线","pubTranName":"0684944876-河北光存生物科技有限公司-专变-223617394-河北光存生物科技有限公司,坊里4#变压器,大连地3#变压器【18M】,","scope":"【影响街道/乡镇】大台乡 【高危重要客户】无 【影响客户】西板峪店、大台下、桃园、瓦窑、坊里、韦子沟、河北沟、押车口、大连地、田子口、河滩、周家湾、刘家沟、墨砚沟、柏崖、康儿沟上、康儿沟下、陈家沟村、高速、阜平东收费站、石猴岭隧道、大台中学","startTime":"2019-10-08 23:20:00","stopDate":"2019-10-09 09:00:00","orgNo":"1340611","typeCode":"其他临时停电","poweroffArea":"【全线路停电】停大连地3#变压器【18M】,0684944876-河北光存生物科技有限公司-专变-223617394-河北光存生物科技有限公司,坊里4#变压器","poweroffReason":"【停电原因】由于刀闸过热需停电进行紧急消缺导致３５ＫＶ大台变电站１０ＫＶ柏崖５１５线路全线停电 【变更送电】因工作量大，送电时间由０４：００变更为０９：００ 【发布渠道】９５５９８","powerTime":"2019-10-09 08:37:24","powerComm":"全部送电","subsNo":"","lineNo":"","tgNo":"","tgName":null,"infoStatus":"1","orgName":"国网阜平县供电公司","typeName":null,"infoStatusName":null,"dateDay":null,"orgNos":null,"nowTime":null,"countyName":null,"streetName":null,"villageName":null,"roadName":null,"communityName":null,"tranName":null,"sdLineName":null,"cityCode":"1340611","cityName":"国网阜平县供电公司","provinceCode":null,"stopTime":"2019-10-09 09:00:00","powerType":"全部","powerOffArea":"【全线路停电】停大连地3#变压器【18M】,0684944876-河北光存生物科技有限公司-专变-223617394-河北光存生物科技有限公司,坊里4#变压器","powerOffReason":"【停电原因】由于刀闸过热需停电进行紧急消缺导致３５ＫＶ大台变电站１０ＫＶ柏崖５１５线路全线停电 【变更送电】因工作量大，送电时间由０４：００变更为０９：００ 【发布渠道】９５５９８","powerOffId":"2019100813000597"},{"poweroffId":2019100813000580,"sgpoweroffId":null,"subsName":"","lineName":"留家庄线512","pubTranName":"迁建区1#箱变出线间隔配电变压器,迁建区10#箱变出线间隔配电变压器,变压器24,涞源县大工商品混凝土有限责任公司变压器1,迁建区2#箱变出线间隔配电变压器,河北建设集团安装工程有限公司变压器29,迁建区3#箱变出线间隔配电变压器,迁建区4#箱变出线间隔配电变压器,河北建设集团安装工程有限公司变压器26,河北建设集团安装工程有限公司变压器28,涞源县大工商品混凝土有限责任公司变压器,河北建设集团安装工程有限公司变压器27,迁建区5#箱变出线间隔配电变压器,河北建设集团安装工程有限公司变压器25,变压器23,变压器22,迁建区6#箱变出线间隔配电变压器,迁建区7#箱变出线间隔配电变压器,迁建区8#箱变出线间隔配电变压器,迁建区9#箱变出线间隔配电变压器,","scope":"【影响街道/乡镇】涞源镇【高危重要客户】无【影响客户】７２１迁建区、福泽园、燕赵小学附近","startTime":"2019-10-18 08:00:00","stopDate":"2019-10-18 11:00:00","orgNo":"1340615","typeCode":"计划停电","poweroffArea":"【全线路停电】停迁建区1#箱变出线间隔配电变压器,迁建区10#箱变出线间隔配电变压器,迁建区2#箱变出线间隔配电变压器,迁建区3#箱变出线间隔配电变压器,迁建区4#箱变出线间隔配电变压器,迁建区5#箱变出线间隔配电变压器,迁建区6#箱变出线间隔配电变压器,迁建区7#箱变出线间隔配电变压器,迁建区8#箱变出线间隔配电变压器,迁建区9#箱变出线间隔配电变压器,变压器24,涞源县大工商品混凝土有限责任公司变压器1,河北建设集团安装工程有限公司变压器29,河北建设集团安装工程有限公司变压器26,河北建设集团安装工程有限公司变压器28,涞源县大工商品混凝土有限责任公司变压器,河北建设集团安装工程有限公司变压器27,河北建设集团安装工程有限公司变压器25,变压器23,变压器22","poweroffReason":"【停电原因】由于电缆分支接引导致１１０ＫＶ涞源变电站１０ＫＶ留家庄线５１２线路全线停电【变更送电】无【发布渠道】涞源电视台（２０１９年１０月０９日至２０１９年１０月１７日）屏幕上方滚动","powerTime":"2019-10-18 10:23:56","powerComm":"已送电","subsNo":"","lineNo":"","tgNo":"","tgName":null,"infoStatus":"1","orgName":"国网涞源县供电公司","typeName":null,"infoStatusName":null,"dateDay":null,"orgNos":null,"nowTime":null,"countyName":null,"streetName":null,"villageName":null,"roadName":null,"communityName":null,"tranName":null,"sdLineName":null,"cityCode":"1340615","cityName":"国网涞源县供电公司","provinceCode":null,"stopTime":"2019-10-18 11:00:00","powerType":"全部","powerOffArea":"【全线路停电】停迁建区1#箱变出线间隔配电变压器,迁建区10#箱变出线间隔配电变压器,迁建区2#箱变出线间隔配电变压器,迁建区3#箱变出线间隔配电变压器,迁建区4#箱变出线间隔配电变压器,迁建区5#箱变出线间隔配电变压器,迁建区6#箱变出线间隔配电变压器,迁建区7#箱变出线间隔配电变压器,迁建区8#箱变出线间隔配电变压器,迁建区9#箱变出线间隔配电变压器,变压器24,涞源县大工商品混凝土有限责任公司变压器1,河北建设集团安装工程有限公司变压器29,河北建设集团安装工程有限公司变压器26,河北建设集团安装工程有限公司变压器28,涞源县大工商品混凝土有限责任公司变压器,河北建设集团安装工程有限公司变压器27,河北建设集团安装工程有限公司变压器25,变压器23,变压器22","powerOffReason":"【停电原因】由于电缆分支接引导致１１０ＫＶ涞源变电站１０ＫＶ留家庄线５１２线路全线停电【变更送电】无【发布渠道】涞源电视台（２０１９年１０月０９日至２０１９年１０月１７日）屏幕上方滚动","powerOffId":"2019100813000580"},{"poweroffId":2019100813000572,"sgpoweroffId":null,"subsName":"","lineName":"10kV513前屯线","pubTranName":"朱家庄公用照明1台区,北子京公用照明11台区,前屯公用照明1台区【煤改电】,北子京公用照明6台区,朱家庄公用照明8台区,疙瘩头公用照明5台区,北子京公用照明4台区,疙瘩头公用照明3台区,疙瘩头公用照明1台区,北子京公用照明10台区,北子京公用照明3台区,前屯公用照明3台区,疙瘩头公用照明2台区,朱家庄公用照明2台区,北子京公用照明2台区,朱家庄公用照明5台区,朱家庄公用照明4台区,疙瘩头公用照明4台区,前屯公用照明2台区,北子京公用照明9台区,朱家庄公用照明3台区,北子京公用照明7台区,朱家庄公用照明6台区,朱家庄公用照明7台区,客户投资_北子京公用照明5台区,客户投资_北子京公用照明1台区,","scope":"【影响街道/乡镇】周村乡【高危重要客户】无【影响客户】前屯村、疙瘩头村、北子京、朱家庄村","startTime":"2019-10-08 19:50:00","stopDate":"2019-10-09 04:00:00","orgNo":"1340610","typeCode":"其他临时停电","poweroffArea":"【全线路停电】停朱家庄公用照明8台区,北子京公用照明9台区,朱家庄公用照明3台区,北子京公用照明7台区,朱家庄公用照明6台区,朱家庄公用照明7台区,客户投资_北子京公用照明5台区,客户投资_北子京公用照明1台区,朱家庄公用照明1台区,北子京公用照明11台区,前屯公用照明1台区【煤改电】,北子京公用照明6台区,疙瘩头公用照明5台区,北子京公用照明4台区,疙瘩头公用照明3台区,疙瘩头公用照明1台区,北子京公用照明10台区,北子京公用照明3台区,前屯公用照明3台区,疙瘩头公用照明2台区,朱家庄公用照明2台区,北子京公用照明2台区,朱家庄公用照明5台区,朱家庄公用照明4台区,疙瘩头公用照明4台区,前屯公用照明2台区","poweroffReason":"【停电原因】由于电杆倾斜需停电进行紧急检修导致３５ＫＶ车寄变电站１０ＫＶ５１３前屯线路全线停电 【变更送电】因抢修进度加快原因，送电时间由０６：３０变更为０４：００ 【发布渠道】９５５９８","powerTime":"2019-10-09 03:06:00","powerComm":"已送电","subsNo":"","lineNo":"","tgNo":"","tgName":null,"infoStatus":"1","orgName":"国网定州市供电公司","typeName":null,"infoStatusName":null,"dateDay":null,"orgNos":null,"nowTime":null,"countyName":null,"streetName":null,"villageName":null,"roadName":null,"communityName":null,"tranName":null,"sdLineName":null,"cityCode":"1340610","cityName":"国网定州市供电公司","provinceCode":null,"stopTime":"2019-10-09 04:00:00","powerType":"全部","powerOffArea":"【全线路停电】停朱家庄公用照明8台区,北子京公用照明9台区,朱家庄公用照明3台区,北子京公用照明7台区,朱家庄公用照明6台区,朱家庄公用照明7台区,客户投资_北子京公用照明5台区,客户投资_北子京公用照明1台区,朱家庄公用照明1台区,北子京公用照明11台区,前屯公用照明1台区【煤改电】,北子京公用照明6台区,疙瘩头公用照明5台区,北子京公用照明4台区,疙瘩头公用照明3台区,疙瘩头公用照明1台区,北子京公用照明10台区,北子京公用照明3台区,前屯公用照明3台区,疙瘩头公用照明2台区,朱家庄公用照明2台区,北子京公用照明2台区,朱家庄公用照明5台区,朱家庄公用照明4台区,疙瘩头公用照明4台区,前屯公用照明2台区","powerOffReason":"【停电原因】由于电杆倾斜需停电进行紧急检修导致３５ＫＶ车寄变电站１０ＫＶ５１３前屯线路全线停电 【变更送电】因抢修进度加快原因，送电时间由０６：３０变更为０４：００ 【发布渠道】９５５９８","powerOffId":"2019100813000572"},{"poweroffId":2019100813000559,"sgpoweroffId":null,"subsName":"","lineName":"10KV大团柳511","pubTranName":"宁村村东,","scope":"【影响街道/乡镇】东城坊镇 【高危重要客户】无 【影响客户】宁村","startTime":"2019-10-08 18:17:44","stopDate":"2019-10-08 21:30:00","orgNo":"1340626","typeCode":"电网故障停限电","poweroffArea":"【单台区停电】停宁村村东","poweroffReason":"【停电原因】由于低压线断线导致３５ＫＶ劳动学院变电站１０ＫＶ大团柳５１１线路宁村村东公变台区停电 【变更送电】因抢修进度加快原因，送电时间由２３：３０变更为２１：３０ 【发布渠道】通过９５５９８发布","powerTime":"2019-10-08 21:09:47","powerComm":"恢复送电","subsNo":"","lineNo":"","tgNo":"","tgName":null,"infoStatus":"1","orgName":"国网涿州市供电公司","typeName":null,"infoStatusName":null,"dateDay":null,"orgNos":null,"nowTime":null,"countyName":null,"streetName":null,"villageName":null,"roadName":null,"communityName":null,"tranName":null,"sdLineName":null,"cityCode":"1340626","cityName":"国网涿州市供电公司","provinceCode":null,"stopTime":"2019-10-08 21:30:00","powerType":"全部","powerOffArea":"【单台区停电】停宁村村东","powerOffReason":"【停电原因】由于低压线断线导致３５ＫＶ劳动学院变电站１０ＫＶ大团柳５１１线路宁村村东公变台区停电 【变更送电】因抢修进度加快原因，送电时间由２３：３０变更为２１：３０ 【发布渠道】通过９５５９８发布","powerOffId":"2019100813000559"},{"poweroffId":2019100813000541,"sgpoweroffId":null,"subsName":"","lineName":"贾南线514","pubTranName":"王文内西配变,建安西北内配变,张挝内配变,小建安村内配变,大建安内西南2号,王文内东配变,大建安内西配变,王文内东2号配变,大建安内东北2号配变,小建安村西【纯农排变】,建安内东南配变,大建安内东南2号配变,大建安内中配变,王文内南2号配变,大建安村北内配变,张挝内西配变,建安内东北配变,小寨子内西北配变,王文内南配变,建安内西南配变,小寨子内北配变,小寨子内东配变,大建安内北2号,","scope":"【影响街道/乡镇】贾村乡　　 【高危重要客户】无　　 【影响客户】张挝、大建安、小建安、王文、小寨子","startTime":"2019-10-08 17:45:43","stopDate":"2019-10-08 19:30:00","orgNo":"1340623","typeCode":"电网故障停限电","poweroffArea":"【全线路停电】停建安西北内配变,张挝内配变,小建安村内配变,大建安内西南2号,王文内东配变,大建安内西配变,王文内东2号配变,大建安内东北2号配变,小建安村西【纯农排变】,建安内东南配变,大建安内东南2号配变,大建安内中配变,王文内南2号配变,大建安村北内配变,张挝内西配变,建安内东北配变,小寨子内西北配变,王文内南配变,建安内西南配变,小寨子内北配变,小寨子内东配变,大建安内北2号,王文内西配变","poweroffReason":"【停电原因】由于站内开关跳闸导致３５ＫＶ贾村变电站贾南线５１４线路全线停电 【变更送电】因抢修进度加快原因，送电时间由０９日１２：００变更为０８日１９：３０ 【发布渠道】通过９５５９８发布","powerTime":"2019-10-08 19:01:11","powerComm":"已送电","subsNo":"","lineNo":"","tgNo":"","tgName":null,"infoStatus":"1","orgName":"国网望都县供电公司","typeName":null,"infoStatusName":null,"dateDay":null,"orgNos":null,"nowTime":null,"countyName":null,"streetName":null,"villageName":null,"roadName":null,"communityName":null,"tranName":null,"sdLineName":null,"cityCode":"1340623","cityName":"国网望都县供电公司","provinceCode":null,"stopTime":"2019-10-08 19:30:00","powerType":"全部","powerOffArea":"【全线路停电】停建安西北内配变,张挝内配变,小建安村内配变,大建安内西南2号,王文内东配变,大建安内西配变,王文内东2号配变,大建安内东北2号配变,小建安村西【纯农排变】,建安内东南配变,大建安内东南2号配变,大建安内中配变,王文内南2号配变,大建安村北内配变,张挝内西配变,建安内东北配变,小寨子内西北配变,王文内南配变,建安内西南配变,小寨子内北配变,小寨子内东配变,大建安内北2号,王文内西配变","powerOffReason":"【停电原因】由于站内开关跳闸导致３５ＫＶ贾村变电站贾南线５１４线路全线停电 【变更送电】因抢修进度加快原因，送电时间由０９日１２：００变更为０８日１９：３０ 【发布渠道】通过９５５９８发布","powerOffId":"2019100813000541"}],"pageModel":{"pageNow":518,"totalCount":10973,"totalPage":1098,"tableRows":0,"pageCount":10,"beginCount":5170},"isExperi":"1"}