{"message":"","today":"2020-06-15","seleList":[{"poweroffId":2019100813000296,"sgpoweroffId":null,"subsName":"","lineName":"10kV520韩家洼线","pubTranName":"孟良桥公用照明二台区,孟良桥公用照明一台区(2),孟良桥公用照明3台区,","scope":"【影响街道/乡镇】西城区【高危重要客户】无【影响客户】孟良桥","startTime":"2019-10-18 06:30:00","stopDate":"2019-10-18 18:00:00","orgNo":"1340610","typeCode":"计划停电","poweroffArea":"【分支停电】停孟良桥公用照明二台区,孟良桥公用照明一台区(2),孟良桥公用照明3台区","poweroffReason":"【停电原因】由于更换下引线导致１１０ＫＶ定县变电站１０ＫＶ５２０韩家洼线路孟良桥分支２７号杆３７号隔离开关以下线路停电 【变更送电】无 【发布渠道】河北省定州市定州日报第三版（２０１９年１０月０９日）","powerTime":"2019-10-18 17:09:51","powerComm":"已送电","subsNo":"","lineNo":"","tgNo":"","tgName":null,"infoStatus":"1","orgName":"国网定州市供电公司","typeName":null,"infoStatusName":null,"dateDay":null,"orgNos":null,"nowTime":null,"countyName":null,"streetName":null,"villageName":null,"roadName":null,"communityName":null,"tranName":null,"sdLineName":null,"cityCode":"1340610","cityName":"国网定州市供电公司","provinceCode":null,"stopTime":"2019-10-18 18:00:00","powerType":"全部","powerOffArea":"【分支停电】停孟良桥公用照明二台区,孟良桥公用照明一台区(2),孟良桥公用照明3台区","powerOffReason":"【停电原因】由于更换下引线导致１１０ＫＶ定县变电站１０ＫＶ５２０韩家洼线路孟良桥分支２７号杆３７号隔离开关以下线路停电 【变更送电】无 【发布渠道】河北省定州市定州日报第三版（２０１９年１０月０９日）","powerOffId":"2019100813000296"},{"poweroffId":2019100813000291,"sgpoweroffId":null,"subsName":"","lineName":"10kV516留春线","pubTranName":"东留春公用照明8台区,东留春公用照明10台区,","scope":"【影响街道/乡镇】东留春乡、号头庄乡【高危重要客户】无【影响客户】东留春、西留春、邵村","startTime":"2019-10-15 07:10:00","stopDate":"2019-10-15 17:30:00","orgNo":"1340610","typeCode":"临时停电","poweroffArea":"【分支停电】停东留春公用照明10台区,东留春公用照明8台区","poweroffReason":"【停电原因】由于更换拉线导致３５ＫＶ刘良庄变电站１０ＫＶ５１６留春线路主干５４号杆０２号断路器以下线路停电 【变更送电】无 【发布渠道】河北省定州市定州日报第三版（２０１９年１０月０９日）","powerTime":"2019-10-15 16:41:16","powerComm":"已送电","subsNo":"","lineNo":"","tgNo":"","tgName":null,"infoStatus":"1","orgName":"国网定州市供电公司","typeName":null,"infoStatusName":null,"dateDay":null,"orgNos":null,"nowTime":null,"countyName":null,"streetName":null,"villageName":null,"roadName":null,"communityName":null,"tranName":null,"sdLineName":null,"cityCode":"1340610","cityName":"国网定州市供电公司","provinceCode":null,"stopTime":"2019-10-15 17:30:00","powerType":"全部","powerOffArea":"【分支停电】停东留春公用照明10台区,东留春公用照明8台区","powerOffReason":"【停电原因】由于更换拉线导致３５ＫＶ刘良庄变电站１０ＫＶ５１６留春线路主干５４号杆０２号断路器以下线路停电 【变更送电】无 【发布渠道】河北省定州市定州日报第三版（２０１９年１０月０９日）","powerOffId":"2019100813000291"},{"poweroffId":2019100813000289,"sgpoweroffId":null,"subsName":"","lineName":"10kV580大奇连线","pubTranName":"大奇连公用照明4台区,大奇连公用照明2台区,小奇连公用照明1台区,大奇连公用照明6台区,小奇连公用照明2台区,大奇连公用照明5台区,大奇连新民居公用照明1台区,","scope":"【影响街道/乡镇】西城区【高危重要客户】无【影响客户】大奇连、小奇连","startTime":"2019-10-18 06:40:00","stopDate":"2019-10-18 17:30:00","orgNo":"1340610","typeCode":"计划停电","poweroffArea":"【分支停电】停小奇连公用照明1台区,大奇连公用照明6台区,小奇连公用照明2台区,大奇连公用照明5台区,大奇连新民居公用照明1台区,大奇连南庄,大奇连公用照明4台区,大奇连公用照明2台区","poweroffReason":"【停电原因】由于更换下引线导致１１０ＫＶ焦化厂变电站１０ＫＶ５８０大奇连线路主干５６号杆０２号断路器以下线路停电 【变更送电】无 【发布渠道】河北省定州市定州日报第三版（２０１９年１０月０９日）","powerTime":"2019-10-18 17:23:41","powerComm":"已送电","subsNo":"","lineNo":"","tgNo":"","tgName":null,"infoStatus":"1","orgName":"国网定州市供电公司","typeName":null,"infoStatusName":null,"dateDay":null,"orgNos":null,"nowTime":null,"countyName":null,"streetName":null,"villageName":null,"roadName":null,"communityName":null,"tranName":null,"sdLineName":null,"cityCode":"1340610","cityName":"国网定州市供电公司","provinceCode":null,"stopTime":"2019-10-18 17:30:00","powerType":"全部","powerOffArea":"【分支停电】停小奇连公用照明1台区,大奇连公用照明6台区,小奇连公用照明2台区,大奇连公用照明5台区,大奇连新民居公用照明1台区,大奇连南庄,大奇连公用照明4台区,大奇连公用照明2台区","powerOffReason":"【停电原因】由于更换下引线导致１１０ＫＶ焦化厂变电站１０ＫＶ５８０大奇连线路主干５６号杆０２号断路器以下线路停电 【变更送电】无 【发布渠道】河北省定州市定州日报第三版（２０１９年１０月０９日）","powerOffId":"2019100813000289"},{"poweroffId":2019100813000288,"sgpoweroffId":null,"subsName":"","lineName":"10kV511西朱谷线","pubTranName":"客户投资_西朱谷公用照明3台区,客户投资_西朱谷公用照明1台区,西朱谷公用照明6台区,西朱谷公用照明4台区,西朱谷公用照明9台区,西朱谷公用照明2台区,西朱谷公用照明7台区,西朱谷公用照明5台区,客户投资_南陵头公用照明1台区,西朱谷公用照明8台区,西朱谷公用照明10台区,西朱谷公用照明11台区【煤改电】,南陵头公用照明2台区,","scope":"【影响街道/乡镇】南城区、周村乡【高危重要客户】无【影响客户】西朱谷村、南陵头村、北车寄","startTime":"2019-10-15 07:00:00","stopDate":"2019-10-15 17:30:00","orgNo":"1340610","typeCode":"临时停电","poweroffArea":"【全线路停电】停南陵头公用照明2台区,客户投资_西朱谷公用照明3台区,客户投资_西朱谷公用照明1台区,西朱谷公用照明6台区,西朱谷公用照明4台区,西朱谷公用照明9台区,西朱谷公用照明2台区,西朱谷公用照明7台区,西朱谷公用照明5台区,客户投资_南陵头公用照明1台区,西朱谷公用照明8台区,西朱谷公用照明10台区,西朱谷公用照明11台区【煤改电】","poweroffReason":"【停电原因】由于更换导线导致３５ＫＶ车寄变电站１０ＫＶ５１１西朱谷线路全线停电 【变更送电】无 【发布渠道】河北省定州市定州日报第三版（２０１９年１０月０９日）","powerTime":"2019-10-15 17:10:13","powerComm":"已送电","subsNo":"","lineNo":"","tgNo":"","tgName":null,"infoStatus":"1","orgName":"国网定州市供电公司","typeName":null,"infoStatusName":null,"dateDay":null,"orgNos":null,"nowTime":null,"countyName":null,"streetName":null,"villageName":null,"roadName":null,"communityName":null,"tranName":null,"sdLineName":null,"cityCode":"1340610","cityName":"国网定州市供电公司","provinceCode":null,"stopTime":"2019-10-15 17:30:00","powerType":"全部","powerOffArea":"【全线路停电】停南陵头公用照明2台区,客户投资_西朱谷公用照明3台区,客户投资_西朱谷公用照明1台区,西朱谷公用照明6台区,西朱谷公用照明4台区,西朱谷公用照明9台区,西朱谷公用照明2台区,西朱谷公用照明7台区,西朱谷公用照明5台区,客户投资_南陵头公用照明1台区,西朱谷公用照明8台区,西朱谷公用照明10台区,西朱谷公用照明11台区【煤改电】","powerOffReason":"【停电原因】由于更换导线导致３５ＫＶ车寄变电站１０ＫＶ５１１西朱谷线路全线停电 【变更送电】无 【发布渠道】河北省定州市定州日报第三版（２０１９年１０月０９日）","powerOffId":"2019100813000288"},{"poweroffId":2019100813000284,"sgpoweroffId":null,"subsName":"","lineName":"10kV514北车寄线","pubTranName":"南车寄公用照明2台区,","scope":"【影响街道/乡镇】叮咛店镇【高危重要客户】无【影响客户】南车寄村","startTime":"2019-10-15 06:50:00","stopDate":"2019-10-15 18:00:00","orgNo":"1340610","typeCode":"临时停电","poweroffArea":"【分支停电】停南车寄公用照明2台区","poweroffReason":"【停电原因】由于更换低压导线导致３５ＫＶ车寄变电站１０ＫＶ５１４北车寄线路南车寄分支１７号杆０９号隔离开关以下线路停电 【变更送电】因抢修进度加快原因，送电时间由１９：３０变更为１８：００ 【发布渠道】河北省定州市定州日报第三版（２０１９年１０月０９日）","powerTime":"2019-10-15 17:47:23","powerComm":"已送电","subsNo":"","lineNo":"","tgNo":"","tgName":null,"infoStatus":"1","orgName":"国网定州市供电公司","typeName":null,"infoStatusName":null,"dateDay":null,"orgNos":null,"nowTime":null,"countyName":null,"streetName":null,"villageName":null,"roadName":null,"communityName":null,"tranName":null,"sdLineName":null,"cityCode":"1340610","cityName":"国网定州市供电公司","provinceCode":null,"stopTime":"2019-10-15 18:00:00","powerType":"全部","powerOffArea":"【分支停电】停南车寄公用照明2台区","powerOffReason":"【停电原因】由于更换低压导线导致３５ＫＶ车寄变电站１０ＫＶ５１４北车寄线路南车寄分支１７号杆０９号隔离开关以下线路停电 【变更送电】因抢修进度加快原因，送电时间由１９：３０变更为１８：００ 【发布渠道】河北省定州市定州日报第三版（２０１９年１０月０９日）","powerOffId":"2019100813000284"},{"poweroffId":2019100813000282,"sgpoweroffId":null,"subsName":"","lineName":"10kV518唐河线","pubTranName":"总司屯公用照明11台区,","scope":"【影响街道/乡镇】北城区【高危重要客户】无【影响客户】总司屯","startTime":"2019-10-18 06:50:00","stopDate":"2019-10-18 20:00:00","orgNo":"1340610","typeCode":"计划停电","poweroffArea":"【分支停电】停总司屯公用照明11台区","poweroffReason":"【停电原因】由于更换低压导线导致１１０ＫＶ总司屯变电站１０ＫＶ５１８唐河线路总司屯５分支０１号杆４６号隔离开关以下线路停电 【变更送电】无 【发布渠道】河北省定州市定州日报第三版（２０１９年１０月０９日）","powerTime":"2019-10-18 19:10:21","powerComm":"已送电","subsNo":"","lineNo":"","tgNo":"","tgName":null,"infoStatus":"1","orgName":"国网定州市供电公司","typeName":null,"infoStatusName":null,"dateDay":null,"orgNos":null,"nowTime":null,"countyName":null,"streetName":null,"villageName":null,"roadName":null,"communityName":null,"tranName":null,"sdLineName":null,"cityCode":"1340610","cityName":"国网定州市供电公司","provinceCode":null,"stopTime":"2019-10-18 20:00:00","powerType":"全部","powerOffArea":"【分支停电】停总司屯公用照明11台区","powerOffReason":"【停电原因】由于更换低压导线导致１１０ＫＶ总司屯变电站１０ＫＶ５１８唐河线路总司屯５分支０１号杆４６号隔离开关以下线路停电 【变更送电】无 【发布渠道】河北省定州市定州日报第三版（２０１９年１０月０９日）","powerOffId":"2019100813000282"},{"poweroffId":2019100813000252,"sgpoweroffId":null,"subsName":"","lineName":"10kV571席家庄线","pubTranName":"西市邑村公用照明3台区,西市邑公用照明7台区,西市邑村公用照明13台区,新立庄村公用照明3台区,西市邑公用照明15台区,新立庄村公用照明2台区,西市邑公用照明11台区,二十里铺村公用照明1台区,罗家庄公用照明3台区,西市邑村公用照明2台区,连仲公用照明4台区,西市邑村公用照明4台区,新立庄公用照明4台区,连仲公用照明8台区,二十里铺村公用照明2台区,二十里铺公用照明4台区,西市邑公用照明9台区,西市邑村公用照明5台区,罗家庄公用照明4台区,新立庄村公用照明1台区,新立庄公用照明6台区,罗家庄村公用照明2台区,西市邑公用照明10台区,二十里铺照明5台区,西市邑公用照明8台区,西市邑公用照明12台区,二十里铺公用照明3台区,新立庄公用照明5台区,罗家庄村公用照明1台区,","scope":"【影响街道/乡镇】清风店镇【高危重要客户】无【影响客户】二十里铺村、罗家庄村、新立庄村、连仲村、西市邑村、东丈","startTime":"2019-10-18 07:00:00","stopDate":"2019-10-18 17:00:00","orgNo":"1340610","typeCode":"计划停电","poweroffArea":"【全线路停电】停西市邑公用照明8台区,西市邑公用照明12台区,二十里铺公用照明3台区,新立庄公用照明5台区,罗家庄村公用照明1台区,西市邑村公用照明3台区,西市邑公用照明7台区,西市邑村公用照明13台区,新立庄村公用照明3台区,西市邑公用照明15台区,新立庄村公用照明2台区,西市邑公用照明11台区,二十里铺村公用照明1台区,罗家庄公用照明3台区,西市邑村公用照明2台区,连仲公用照明4台区,西市邑村公用照明4台区,新立庄公用照明4台区,连仲公用照明8台区,二十里铺村公用照明2台区,二十里铺公用照明4台区,西市邑公用照明9台区,西市邑村公用照明5台区,罗家庄公用照明4台区,新立庄村公用照明1台区,新立庄公用照明6台区,罗家庄村公用照明2台区,西市邑公用照明10台区,二十里铺照明5台区","poweroffReason":"【停电原因】由于新立电杆导致１１０ＫＶ清风店变电站１０ＫＶ５７１席家庄线路全线停电 【变更送电】无 【发布渠道】河北省定州市定州日报第三版（２０１９年１０月０９日）","powerTime":"2019-10-18 16:47:26","powerComm":"已送电","subsNo":"","lineNo":"","tgNo":"","tgName":null,"infoStatus":"1","orgName":"国网定州市供电公司","typeName":null,"infoStatusName":null,"dateDay":null,"orgNos":null,"nowTime":null,"countyName":null,"streetName":null,"villageName":null,"roadName":null,"communityName":null,"tranName":null,"sdLineName":null,"cityCode":"1340610","cityName":"国网定州市供电公司","provinceCode":null,"stopTime":"2019-10-18 17:00:00","powerType":"全部","powerOffArea":"【全线路停电】停西市邑公用照明8台区,西市邑公用照明12台区,二十里铺公用照明3台区,新立庄公用照明5台区,罗家庄村公用照明1台区,西市邑村公用照明3台区,西市邑公用照明7台区,西市邑村公用照明13台区,新立庄村公用照明3台区,西市邑公用照明15台区,新立庄村公用照明2台区,西市邑公用照明11台区,二十里铺村公用照明1台区,罗家庄公用照明3台区,西市邑村公用照明2台区,连仲公用照明4台区,西市邑村公用照明4台区,新立庄公用照明4台区,连仲公用照明8台区,二十里铺村公用照明2台区,二十里铺公用照明4台区,西市邑公用照明9台区,西市邑村公用照明5台区,罗家庄公用照明4台区,新立庄村公用照明1台区,新立庄公用照明6台区,罗家庄村公用照明2台区,西市邑公用照明10台区,二十里铺照明5台区","powerOffReason":"【停电原因】由于新立电杆导致１１０ＫＶ清风店变电站１０ＫＶ５７１席家庄线路全线停电 【变更送电】无 【发布渠道】河北省定州市定州日报第三版（２０１９年１０月０９日）","powerOffId":"2019100813000252"},{"poweroffId":2019100813000236,"sgpoweroffId":null,"subsName":"","lineName":"谢房营523电缆","pubTranName":"谢坊营26号,","scope":"【影响街道/乡镇】遂城镇 【高危重要客户】无 【影响客户】付村、谢坊营村、谢坊村","startTime":"2019-10-08 12:56:03","stopDate":"2019-10-08 15:00:00","orgNo":"1340605","typeCode":"电网故障停限电","poweroffArea":"【全线路停电】停付村10号,谢坊20号【纯农排变】,谢坊16号,谢坊27号,谢坊26号,谢坊营29号,谢坊营27号,谢坊营7号【纯农排变】,谢坊营21号,谢坊营19号,谢坊营4号,谢坊营5号,谢坊营28号,谢坊营3号,谢坊5号,谢坊营24号【纯农排变】,谢坊营17号【纯农排变】,谢坊10号,付村2号,付村4号【纯农排变】,谢坊24号【纯农排变】,付村14号,谢坊23号,谢坊营9号,谢坊2号,付村6号【纯农排变】,谢坊17号【纯农排变】,付村8号【纯农排变】,付村9号【纯农排变】,谢坊14号,谢坊营16号【纯农排变】,谢坊营12号【纯农排变】,谢坊7号,谢坊营1号【纯农排变】,谢坊营18号【纯农排变】,谢坊营8号【纯农排变】,谢坊营23号【纯农排变】,谢坊4号【纯农排变】,付村16台区【纯农排变】,谢坊营10号,谢坊营13号,谢坊营20号,谢坊营15号【纯农排变】,谢坊营14号【纯农排变】,谢坊营25号,谢坊8号,谢坊营26号,谢坊营2号","poweroffReason":"【停电原因】由于Ｂ相接地导致１１０ＫＶ遂城变电站谢坊营５２３线路全线停电 【变更送电】因抢修进度加快原因，送电时间由２１:００变更为１５:００ 【发布渠道】通过９５５９８发布","powerTime":"2019-10-08 14:10:36","powerComm":"已送电","subsNo":"","lineNo":"","tgNo":"","tgName":null,"infoStatus":"1","orgName":"国网徐水县供电公司","typeName":null,"infoStatusName":null,"dateDay":null,"orgNos":null,"nowTime":null,"countyName":null,"streetName":null,"villageName":null,"roadName":null,"communityName":null,"tranName":null,"sdLineName":null,"cityCode":"1340605","cityName":"国网徐水县供电公司","provinceCode":null,"stopTime":"2019-10-08 15:00:00","powerType":"全部","powerOffArea":"【全线路停电】停付村10号,谢坊20号【纯农排变】,谢坊16号,谢坊27号,谢坊26号,谢坊营29号,谢坊营27号,谢坊营7号【纯农排变】,谢坊营21号,谢坊营19号,谢坊营4号,谢坊营5号,谢坊营28号,谢坊营3号,谢坊5号,谢坊营24号【纯农排变】,谢坊营17号【纯农排变】,谢坊10号,付村2号,付村4号【纯农排变】,谢坊24号【纯农排变】,付村14号,谢坊23号,谢坊营9号,谢坊2号,付村6号【纯农排变】,谢坊17号【纯农排变】,付村8号【纯农排变】,付村9号【纯农排变】,谢坊14号,谢坊营16号【纯农排变】,谢坊营12号【纯农排变】,谢坊7号,谢坊营1号【纯农排变】,谢坊营18号【纯农排变】,谢坊营8号【纯农排变】,谢坊营23号【纯农排变】,谢坊4号【纯农排变】,付村16台区【纯农排变】,谢坊营10号,谢坊营13号,谢坊营20号,谢坊营15号【纯农排变】,谢坊营14号【纯农排变】,谢坊营25号,谢坊8号,谢坊营26号,谢坊营2号","powerOffReason":"【停电原因】由于Ｂ相接地导致１１０ＫＶ遂城变电站谢坊营５２３线路全线停电 【变更送电】因抢修进度加快原因，送电时间由２１:００变更为１５:００ 【发布渠道】通过９５５９８发布","powerOffId":"2019100813000236"},{"poweroffId":2019100813000225,"sgpoweroffId":null,"subsName":"","lineName":"辛桥线557","pubTranName":"孤株北台变压器,杜辛庄西3号排灌变压器【纯农排变】,罗里庄北2号排灌变压器【纯农排变】,太平庄北水变压器,赵庄内变压器,太平庄内变压器,太平庄北,汤家营南变压器,华晨彩钢责任有限公司(北）,赵庄西水变压器,太平庄南,田瑞昌,太平庄西3号公变变压器,陈八庄磁卡变压器【纯农排变】,杜辛庄西变压器,王庄变压器,赵庄南水变压器,赵庄西南水变压器【纯农排变】,辛桥磁卡变压器【纯农排变】,高碑店市辛桥镇总校徐家营幼儿园,汤家营学校变压器,辛桥乡政府变压器,高碑店市众鑫机动车驾驶员培训学校,陈八庄面粉厂,陈八庄北2号排灌变压器【纯农排变】,高碑店市乡土六坊农产品购销农民专业合作社,太平庄北3号排灌变压器【纯农排变】,赵庄西变压器,田茂,高碑店市海飞食品有限公司变压器,河北高碑店农村商业银行股份有限公司,杜书良变压器,太平庄东4号公变,高碑店市辛桥初级中学,陈八庄东变压器,李文江（果木基地）变压器,刘国强,辛桥北变压器,辛桥东变压器,太平庄西,太平庄内2号公变变压器,华晨彩钢责任有限公司（南）,中国移动通信集团河北有限公司高碑店分公司,客户投资_陈八庄西变压器,辛桥2号公变变压器,豆腐营南1号排灌变压器【纯农排变】,陈八庄南变压器,辛桥南3号公变变压器,高碑店市辛桥镇赵庄中心小学变压器,太平庄磁卡变压器,辛桥公变变压器,李文良,高碑店市会青新型建筑材料有限公司,杜辛庄北变压器,高碑店市世纪学校,太平庄东变压器变压器,河北如海玻璃科技有限公司,风机厂,汤家营西变压器,辛桥营业厅,赵庄东水变压器【纯农排变】,孤株西农变压器,河北摩尔戴克纱窗制造有限公司,汤家营变压器,刘普,孤株南台变压器,辛桥南台变压器,汤家营北变压器,杜辛庄变压器,太平庄东1号排灌变压器【纯农排变】,河北华晨门窗有限公司,辛桥制线厂,豆腐营变压器,太平庄北4号排灌变压器【纯农排变】,高碑店市海飞食品有限公司,陈八庄西南变压器,赵庄北变压器,高碑店市水利变压器,太平庄南2号排灌变压器【纯农排变】,高碑店民康医院,高碑店市辛桥太平庄幼儿园,陈八庄西1号排灌变压器【纯农排变】,高碑店市正好乐器箱包有限公司变压器,辛桥供电所变压器,豆腐营水变压器【纯农排变】,太平庄北5号排灌变压器【纯农排变】,陈八庄水变压器【纯农排变】,","scope":"【影响街道/乡镇】辛桥乡 【高危重要客户】辛桥乡政府、太平庄天然气站 【影响客户】陈八庄村、太平庄村、豆腐营村、赵庄村、孤株村、辛桥村、汤家营村、杜辛庄村、王庄村、昊青、陈八庄面粉厂、杜书良、海飞食品厂、华晨彩钢责任有限公司、李文江果木基地、李文良、刘国强、刘普、马金坡、田茂、田瑞昌、田瑞强、辛桥水站、辛苑塑木加工厂、邮局、汤家营学校、辛桥水厂、正好乐器箱包厂、辛桥中学、徐家营幼儿园","startTime":"2019-10-08 12:35:11","stopDate":"2019-10-08 13:30:00","orgNo":"1340612","typeCode":"电网故障停限电","poweroffArea":"【全线路停电】停中国移动通信集团河北有限公司高碑店分公司,客户投资_陈八庄西变压器,太平庄西,辛桥2号公变变压器,辛桥北变压器,辛桥公变变压器,豆腐营南1号排灌变压器【纯农排变】,陈八庄南变压器,高碑店市辛桥镇赵庄中心小学变压器,太平庄南,高碑店市乡土六坊农产品购销农民专业合作社,太平庄北4号排灌变压器【纯农排变】,辛桥营业厅,赵庄东水变压器【纯农排变】,孤株西农变压器,河北摩尔戴克纱窗制造有限公司,汤家营变压器,刘普,孤株南台变压器,辛桥南台变压器,汤家营北变压器,杜辛庄变压器,太平庄东1号排灌变压器【纯农排变】,河北华晨门窗有限公司,辛桥制线厂,高碑店市海飞食品有限公司,豆腐营变压器,陈八庄西1号排灌变压器【纯农排变】,陈八庄西南变压器,高碑店市辛桥初级中学,陈八庄东变压器,李文江（果木基地）变压器,太平庄内2号公变变压器,华晨彩钢责任有限公司（南）,辛桥南3号公变变压器,河北如海玻璃科技有限公司,风机厂,赵庄北变压器,李文良,高碑店市会青新型建筑材料有限公司,杜辛庄北变压器,高碑店市世纪学校,太平庄东变压器变压器,太平庄北,汤家营南变压器,华晨彩钢责任有限公司(北）,赵庄西水变压器,田瑞昌,太平庄西3号公变变压器,陈八庄磁卡变压器【纯农排变】,杜辛庄西变压器,王庄变压器,赵庄南水变压器,辛桥磁卡变压器【纯农排变】,高碑店市辛桥镇总校徐家营幼儿园,汤家营学校变压器,辛桥乡政府变压器,高碑店市众鑫机动车驾驶员培训学校,赵庄西南水变压器【纯农排变】,太平庄磁卡变压器,高碑店市水利变压器,太平庄南2号排灌变压器【纯农排变】,高碑店民康医院,高碑店市辛桥太平庄幼儿园,陈八庄面粉厂,太平庄北3号排灌变压器【纯农排变】,赵庄西变压器,田茂,高碑店市海飞食品有限公司变压器,河北高碑店农村商业银行股份有限公司,杜书良变压器,汤家营西变压器,辛桥东变压器,太平庄东4号公变,高碑店市正好乐器箱包有限公司变压器,辛桥供电所变压器,豆腐营水变压器【纯农排变】,太平庄北5号排灌变压器【纯农排变】,陈八庄北2号排灌变压器【纯农排变】,陈八庄水变压器【纯农排变】,孤株北台变压器,杜辛庄西3号排灌变压器【纯农排变】,罗里庄北2号排灌变压器【纯农排变】,太平庄北水变压器,赵庄内变压器,太平庄内变压器,刘国强","poweroffReason":"【停电原因】由于汤家营分支电缆被挖断导致１１０ＫＶ陈八庄变电站１０ＫＶ辛桥５５７线路全线停电 【变更送电】因抢修进度加快原因，送电时间由１６：００变更为１３：３０ 【发布渠道】通过９５５９８发布","powerTime":"2019-10-08 13:14:22","powerComm":"已送电","subsNo":"","lineNo":"","tgNo":"","tgName":null,"infoStatus":"1","orgName":"国网高碑店市供电公司","typeName":null,"infoStatusName":null,"dateDay":null,"orgNos":null,"nowTime":null,"countyName":null,"streetName":null,"villageName":null,"roadName":null,"communityName":null,"tranName":null,"sdLineName":null,"cityCode":"1340612","cityName":"国网高碑店市供电公司","provinceCode":null,"stopTime":"2019-10-08 13:30:00","powerType":"全部","powerOffArea":"【全线路停电】停中国移动通信集团河北有限公司高碑店分公司,客户投资_陈八庄西变压器,太平庄西,辛桥2号公变变压器,辛桥北变压器,辛桥公变变压器,豆腐营南1号排灌变压器【纯农排变】,陈八庄南变压器,高碑店市辛桥镇赵庄中心小学变压器,太平庄南,高碑店市乡土六坊农产品购销农民专业合作社,太平庄北4号排灌变压器【纯农排变】,辛桥营业厅,赵庄东水变压器【纯农排变】,孤株西农变压器,河北摩尔戴克纱窗制造有限公司,汤家营变压器,刘普,孤株南台变压器,辛桥南台变压器,汤家营北变压器,杜辛庄变压器,太平庄东1号排灌变压器【纯农排变】,河北华晨门窗有限公司,辛桥制线厂,高碑店市海飞食品有限公司,豆腐营变压器,陈八庄西1号排灌变压器【纯农排变】,陈八庄西南变压器,高碑店市辛桥初级中学,陈八庄东变压器,李文江（果木基地）变压器,太平庄内2号公变变压器,华晨彩钢责任有限公司（南）,辛桥南3号公变变压器,河北如海玻璃科技有限公司,风机厂,赵庄北变压器,李文良,高碑店市会青新型建筑材料有限公司,杜辛庄北变压器,高碑店市世纪学校,太平庄东变压器变压器,太平庄北,汤家营南变压器,华晨彩钢责任有限公司(北）,赵庄西水变压器,田瑞昌,太平庄西3号公变变压器,陈八庄磁卡变压器【纯农排变】,杜辛庄西变压器,王庄变压器,赵庄南水变压器,辛桥磁卡变压器【纯农排变】,高碑店市辛桥镇总校徐家营幼儿园,汤家营学校变压器,辛桥乡政府变压器,高碑店市众鑫机动车驾驶员培训学校,赵庄西南水变压器【纯农排变】,太平庄磁卡变压器,高碑店市水利变压器,太平庄南2号排灌变压器【纯农排变】,高碑店民康医院,高碑店市辛桥太平庄幼儿园,陈八庄面粉厂,太平庄北3号排灌变压器【纯农排变】,赵庄西变压器,田茂,高碑店市海飞食品有限公司变压器,河北高碑店农村商业银行股份有限公司,杜书良变压器,汤家营西变压器,辛桥东变压器,太平庄东4号公变,高碑店市正好乐器箱包有限公司变压器,辛桥供电所变压器,豆腐营水变压器【纯农排变】,太平庄北5号排灌变压器【纯农排变】,陈八庄北2号排灌变压器【纯农排变】,陈八庄水变压器【纯农排变】,孤株北台变压器,杜辛庄西3号排灌变压器【纯农排变】,罗里庄北2号排灌变压器【纯农排变】,太平庄北水变压器,赵庄内变压器,太平庄内变压器,刘国强","powerOffReason":"【停电原因】由于汤家营分支电缆被挖断导致１１０ＫＶ陈八庄变电站１０ＫＶ辛桥５５７线路全线停电 【变更送电】因抢修进度加快原因，送电时间由１６：００变更为１３：３０ 【发布渠道】通过９５５９８发布","powerOffId":"2019100813000225"},{"poweroffId":2019100813000173,"sgpoweroffId":null,"subsName":"","lineName":"10kV水源站526线路","pubTranName":"C217柱上变压器,C246柱上变压器,C346柱上变压器,0356319229-南奇-专变,C397柱上变压器,C347柱上变压器,0356242518-北奇-专变,C399柱上变压器,C167柱上变压器,C219柱上变压器,C244柱上变压器,C398柱上变压器,0356186872-要庄乡贾庄村-专变,C218柱上变压器,C245柱上变压器,0649315552-保定市竞秀区南奇乡北奇村村民委员会-专变-174421322-变压器,","scope":"【影响街道/乡镇】大马坊乡 【高危重要客户】无 【影响客户】温屯、要庄、贾庄、北奇、南奇","startTime":"2019-10-08 11:15:00","stopDate":"2019-10-08 13:30:00","orgNo":"13406","typeCode":"电网故障停限电","poweroffArea":"【分支停电】停C398柱上变压器,0356186872-要庄乡贾庄村-专变,C218柱上变压器,C245柱上变压器,0649315552-保定市竞秀区南奇乡北奇村村民委员会-专变-174421322-变压器,C217柱上变压器,C246柱上变压器,C346柱上变压器,0356319229-南奇-专变,C397柱上变压器,C347柱上变压器,0356242518-北奇-专变,C399柱上变压器,C167柱上变压器,C219柱上变压器,C244柱上变压器","poweroffReason":"【停电原因】由于分支开关短路导致１０ＫＶ水源变电站５２６线路３７号开关以下停电【变更送电】无【发布渠道】通过９５５９８发布","powerTime":"2019-10-08 12:43:29","powerComm":"已送电","subsNo":"","lineNo":"","tgNo":"","tgName":null,"infoStatus":"1","orgName":"保定供电公司","typeName":null,"infoStatusName":null,"dateDay":null,"orgNos":null,"nowTime":null,"countyName":null,"streetName":null,"villageName":null,"roadName":null,"communityName":null,"tranName":null,"sdLineName":null,"cityCode":"13406","cityName":"保定供电公司","provinceCode":null,"stopTime":"2019-10-08 13:30:00","powerType":"全部","powerOffArea":"【分支停电】停C398柱上变压器,0356186872-要庄乡贾庄村-专变,C218柱上变压器,C245柱上变压器,0649315552-保定市竞秀区南奇乡北奇村村民委员会-专变-174421322-变压器,C217柱上变压器,C246柱上变压器,C346柱上变压器,0356319229-南奇-专变,C397柱上变压器,C347柱上变压器,0356242518-北奇-专变,C399柱上变压器,C167柱上变压器,C219柱上变压器,C244柱上变压器","powerOffReason":"【停电原因】由于分支开关短路导致１０ＫＶ水源变电站５２６线路３７号开关以下停电【变更送电】无【发布渠道】通过９５５９８发布","powerOffId":"2019100813000173"}],"pageModel":{"pageNow":522,"totalCount":10973,"totalPage":1098,"tableRows":0,"pageCount":10,"beginCount":5210},"isExperi":"1"}