{"message":"","today":"2020-06-15","seleList":[{"poweroffId":2019100813000025,"sgpoweroffId":null,"subsName":"","lineName":"10kV东张村线550","pubTranName":"中胶人才家园B变压器母线间隔配电变压器,中胶人才家园C变压器母线间隔配电变压器,中胶人才家园A变压器母线间隔配电变压器,","scope":"【影响街道/乡镇】刁窝乡华阳东路、腾飞大街、阳光大街 【高危重要客户】无 【影响客户】塔西、沿鲁、塔东","startTime":"2019-10-18 06:30:00","stopDate":"2019-10-18 21:00:00","orgNo":"1340626","typeCode":"计划停电","poweroffArea":"【全线路停电】停0636029156-涿州市恒通荣盛房地产开发有限公司-专变-148178365-涿州市恒通荣盛房地产开发有限公司2,涿州歌华有线电视网络有限公司2,涿州超达塑胶有限公司,塔东村【纯农排变】,沿鲁村（二）,沿鲁村（三）,中胶人才家园A变压器母线间隔配电变压器,河北路蓬塑胶有限公司,中交第三公路工程局有限公司京石改扩建工程JS1项目部,塔东村（村东）,开发区市政路灯,河北中胶国际胶带有限公司,0676928367-涿州市荣安管业有限公司-专变-217765611-涿州市荣安管业有限公司,北京朗威达科技发展有限公司涿州分公司,0586418448-航天科工惯性技术有限公司涿州分公司-专变-125123639-航天科工惯性技术有限公司涿州分公司3,涿州市荣安成套设备制造有限公司,涿州瑞安化工机械有限公司1,中胶人才家园C变压器母线间隔配电变压器,京津冀中冶名信基础设施建设有限公司,涿州大童融商企业管理有限公司,中胶人才家园B变压器母线间隔配电变压器,河北省涿州开发区管理委员会,中煤地质工程总公司,涿州歌华有线电视网络有限公司1,0586418448-航天科工惯性技术有限公司涿州分公司-专变-169902775-航天科工惯性技术有限公司涿州分公司6,塔西地,河北国朔泵业有限公司,0660691424-河北省涿州开发区管理委员会-专变-197236858-河北省涿州开发区管理委员会,涿州中石油昆仑燃气有限公司,0586418448-航天科工惯性技术有限公司涿州分公司-专变-125129511-航天科工惯性技术有限公司涿州分公司4,涿州开发区市政工程处,河北省涿州开发区管理委员会（华阳路口）,卢场面粉厂,南皮县兴华建筑安装工程有限公司,涿州市中环机械厂,涿州市广汇金属结构制造有限公司","poweroffReason":"【停电原因】由于线路检修导致１１０ＫＶ新业变电站１０ＫＶ东张村５５０线路全线停电 【变更送电】无 【发布渠道】涿州电视台（１０月０８日至１０月１７日２１：００播放２次）屏幕上方滚动","powerTime":"2019-10-18 20:45:58","powerComm":"恢复送电","subsNo":"","lineNo":"","tgNo":"","tgName":null,"infoStatus":"1","orgName":"国网涿州市供电公司","typeName":null,"infoStatusName":null,"dateDay":null,"orgNos":null,"nowTime":null,"countyName":null,"streetName":null,"villageName":null,"roadName":null,"communityName":null,"tranName":null,"sdLineName":null,"cityCode":"1340626","cityName":"国网涿州市供电公司","provinceCode":null,"stopTime":"2019-10-18 21:00:00","powerType":"全部","powerOffArea":"【全线路停电】停0636029156-涿州市恒通荣盛房地产开发有限公司-专变-148178365-涿州市恒通荣盛房地产开发有限公司2,涿州歌华有线电视网络有限公司2,涿州超达塑胶有限公司,塔东村【纯农排变】,沿鲁村（二）,沿鲁村（三）,中胶人才家园A变压器母线间隔配电变压器,河北路蓬塑胶有限公司,中交第三公路工程局有限公司京石改扩建工程JS1项目部,塔东村（村东）,开发区市政路灯,河北中胶国际胶带有限公司,0676928367-涿州市荣安管业有限公司-专变-217765611-涿州市荣安管业有限公司,北京朗威达科技发展有限公司涿州分公司,0586418448-航天科工惯性技术有限公司涿州分公司-专变-125123639-航天科工惯性技术有限公司涿州分公司3,涿州市荣安成套设备制造有限公司,涿州瑞安化工机械有限公司1,中胶人才家园C变压器母线间隔配电变压器,京津冀中冶名信基础设施建设有限公司,涿州大童融商企业管理有限公司,中胶人才家园B变压器母线间隔配电变压器,河北省涿州开发区管理委员会,中煤地质工程总公司,涿州歌华有线电视网络有限公司1,0586418448-航天科工惯性技术有限公司涿州分公司-专变-169902775-航天科工惯性技术有限公司涿州分公司6,塔西地,河北国朔泵业有限公司,0660691424-河北省涿州开发区管理委员会-专变-197236858-河北省涿州开发区管理委员会,涿州中石油昆仑燃气有限公司,0586418448-航天科工惯性技术有限公司涿州分公司-专变-125129511-航天科工惯性技术有限公司涿州分公司4,涿州开发区市政工程处,河北省涿州开发区管理委员会（华阳路口）,卢场面粉厂,南皮县兴华建筑安装工程有限公司,涿州市中环机械厂,涿州市广汇金属结构制造有限公司","powerOffReason":"【停电原因】由于线路检修导致１１０ＫＶ新业变电站１０ＫＶ东张村５５０线路全线停电 【变更送电】无 【发布渠道】涿州电视台（１０月０８日至１０月１７日２１：００播放２次）屏幕上方滚动","powerOffId":"2019100813000025"},{"poweroffId":2019100813000024,"sgpoweroffId":null,"subsName":"","lineName":"10kV开发区线544","pubTranName":"张段庄611台区,赵各庄村内2号台区,政法街公用1号柱上变压器,张段庄611台区2号变,六间房(开发区所）,塔东661,1军欣593,六间房599台区,赵各庄598台区,张段庄村南（开发区所）,赵各庄4519台区,六间房村北台区,清凉寺小区2号变,塔东622台区,10kv清凉寺小区0641箱变母线间隔配电变压器,2军欣3690,","scope":"【影响街道/乡镇】徐里营城区政法街 【高危重要客户】无 【影响客户】六间房、塔东、赵各庄、张段庄、欣欣庄园、燕赵花园、水乡园、农行小区、汇元国际小区、军欣家园、计划生育局、清凉寺小区、三五四三厂、鹏润小区、工商小区、涿州市联合实业集团有限公司、清凉寺小区门脸、电力局仪表室、工商行政管理局、涿州市万顺实业有限公司、涿州开发区市政工程处、工商局小区、金色家园小区、涿州鑫京味食府餐饮有限公司","startTime":"2019-10-18 06:30:00","stopDate":"2019-10-18 21:00:00","orgNo":"1340626","typeCode":"计划停电","poweroffArea":"【全线路停电】停涿州市京热热力有限责任公司,涿州市汇元房地产开发有限公司,清凉寺小区2号变,清凉寺小区门脸,涿州开发区筹建处,计划生育局,涿州市 工商小区,0387555621-际华三五四三针织服饰有限公司-专变-45355836-际华三五四三针织服饰有限公司1,燕赵花园1,2军欣3690,河北燕赵房地产有限公司1,槐林村(水乡园),张段庄611台区,涿州市宏晟房地产开发有限公司2,开发区路灯-变压器1,涿州市朝晖物业管理有限公司,涿州开发区市政工程处-变压器1,赵各庄村内2号台区,涿州市联合实业集团有限公司,涿州市宏晟房地产开发有限公司,政法街公用1号柱上变压器,张段庄611台区2号变,燕赵花园3,六间房(开发区所）,涿州开发区市政工程处-变压器2,塔东661,农行小区,1军欣593,农发行,热电厂,0387555621-际华三五四三针织服饰有限公司-专变-125129323-际华三五四三针织服饰有限公司4,清凉寺熔炼厂,六间房599台区,开发区路灯-变压器2,赵各庄598台区,0387555621-际华三五四三针织服饰有限公司-专变-47037909-际华三五四三针织服饰有限公司3,涿州市华泰房地产开发有限公司,河北燕赵房地产有限公司2,燕赵花园2,涿州市工商行政管理局,0632531893-涿州市万顺实业有限公司-专变-144783292-涿州市万顺实业有限公司,0387555621-际华三五四三针织服饰有限公司-专变-47017802-际华三五四三针织服饰有限公司2,张段庄村南（开发区所）,赵各庄4519台区,六间房村北台区,塔东622台区,河北燕赵房地产有限公司3,电力局仪表室,涿州鹏润房地产开发有限公司,10kv清凉寺小区0641箱变母线间隔配电变压器","poweroffReason":"【停电原因】由于新增配变工程导致１１０ＫＶ新业变电站１０ＫＶ开发区５４４线路全线停电 【变更送电】无 【发布渠道】涿州电视台（１０月０８日至１０月１７日２１：００播放２次）屏幕上方滚动","powerTime":"2019-10-18 20:45:37","powerComm":"恢复送电","subsNo":"","lineNo":"","tgNo":"","tgName":null,"infoStatus":"1","orgName":"国网涿州市供电公司","typeName":null,"infoStatusName":null,"dateDay":null,"orgNos":null,"nowTime":null,"countyName":null,"streetName":null,"villageName":null,"roadName":null,"communityName":null,"tranName":null,"sdLineName":null,"cityCode":"1340626","cityName":"国网涿州市供电公司","provinceCode":null,"stopTime":"2019-10-18 21:00:00","powerType":"全部","powerOffArea":"【全线路停电】停涿州市京热热力有限责任公司,涿州市汇元房地产开发有限公司,清凉寺小区2号变,清凉寺小区门脸,涿州开发区筹建处,计划生育局,涿州市 工商小区,0387555621-际华三五四三针织服饰有限公司-专变-45355836-际华三五四三针织服饰有限公司1,燕赵花园1,2军欣3690,河北燕赵房地产有限公司1,槐林村(水乡园),张段庄611台区,涿州市宏晟房地产开发有限公司2,开发区路灯-变压器1,涿州市朝晖物业管理有限公司,涿州开发区市政工程处-变压器1,赵各庄村内2号台区,涿州市联合实业集团有限公司,涿州市宏晟房地产开发有限公司,政法街公用1号柱上变压器,张段庄611台区2号变,燕赵花园3,六间房(开发区所）,涿州开发区市政工程处-变压器2,塔东661,农行小区,1军欣593,农发行,热电厂,0387555621-际华三五四三针织服饰有限公司-专变-125129323-际华三五四三针织服饰有限公司4,清凉寺熔炼厂,六间房599台区,开发区路灯-变压器2,赵各庄598台区,0387555621-际华三五四三针织服饰有限公司-专变-47037909-际华三五四三针织服饰有限公司3,涿州市华泰房地产开发有限公司,河北燕赵房地产有限公司2,燕赵花园2,涿州市工商行政管理局,0632531893-涿州市万顺实业有限公司-专变-144783292-涿州市万顺实业有限公司,0387555621-际华三五四三针织服饰有限公司-专变-47017802-际华三五四三针织服饰有限公司2,张段庄村南（开发区所）,赵各庄4519台区,六间房村北台区,塔东622台区,河北燕赵房地产有限公司3,电力局仪表室,涿州鹏润房地产开发有限公司,10kv清凉寺小区0641箱变母线间隔配电变压器","powerOffReason":"【停电原因】由于新增配变工程导致１１０ＫＶ新业变电站１０ＫＶ开发区５４４线路全线停电 【变更送电】无 【发布渠道】涿州电视台（１０月０８日至１０月１７日２１：００播放２次）屏幕上方滚动","powerOffId":"2019100813000024"},{"poweroffId":2019100813000023,"sgpoweroffId":null,"subsName":"","lineName":"10KV人民广场518","pubTranName":"中国银行股份有限公司涿州支行变压器,广场511公用3841,槐林小区名流0356【纯农排变】,","scope":"【影响街道/乡镇】徐里营城区 【高危重要客户】无 【影响客户】槐林小区名流、惠友生活广场、肯德基、市政管理处、红蕃、中行、宜家旺、涿州市中医院、６２３１６部队、北鑫家居、天外天酒店、弘德缘小区、范阳公寓小区、名流３号楼、中心广场","startTime":"2019-10-18 06:30:00","stopDate":"2019-10-18 17:00:00","orgNo":"1340626","typeCode":"计划停电","poweroffArea":"【全线路停电】停开发区供电所公用,0387559131-涿州市友邦世纪物业服务有限公司-专变-124861934-涿州市鸿盛房地产开有限公司2,李新,0387559131-涿州市友邦世纪物业服务有限公司-专变-124861937-涿州市鸿盛房地产开有限公司3,涿州市伯力恒集团房地产开发有限公司3,槐林小区名流0356【纯农排变】,0387555487-涿州市开发区北鑫家居广场-专变-45355762-北鑫家居,0387553915-涿州市南海鱼村房地产开发有限公司-专变-45355764-涿州市华融商贸有限公司,0387559131-涿州市友邦世纪物业服务有限公司-专变-192910593-涿州市鸿盛房地产开发有限公司10,0387559131-涿州市友邦世纪物业服务有限公司-专变-124861931-涿州市鸿盛房地产开有限公司1,涿州市宜佳旺购物广场商贸有限公司1,0387559131-涿州市友邦世纪物业服务有限公司-专变-192908364-涿州市鸿盛房地产开发有限公司9,天外天酒店,0387559131-涿州市友邦世纪物业服务有限公司-专变-192908368-涿州市鸿盛房地产开发有限公司11,市政管理处,0387559131-涿州市友邦世纪物业服务有限公司-专变-124856806-涿州市鸿盛房地产开有限公司7,0575228263-涿州市新立马房地产开发有限公司-专变-123954623-涿州市新立马房地产开发有限公司2,0646712754-涿州市南海鱼村房地产开发有限公司-专变-169949792-涿州市南海鱼村房地产开发有限公司,0575228263-涿州市新立马房地产开发有限公司-专变-123954630-涿州市新立马房地产开发有限公司1,0551286739-河北省涿州市远方名流房地产开发有限公司-专变-172480633-河北省涿州市远方名流房地产开发有限公司2,0646711634-涿州市南海鱼村房地产开发有限公司-专变-169947302-涿州市南海鱼村房地产开发有限公司,0551286739-河北省涿州市远方名流房地产开发有限公司-专变-172480635-河北省涿州市远方名流房地产开发有限公司1,0387559131-涿州市友邦世纪物业服务有限公司-专变-124861965-涿州市鸿盛房地产开有限公司8,0387559131-涿州市友邦世纪物业服务有限公司-专变-124861947-涿州市鸿盛房地产开有限公司6,涿州市京热热力有限责任公司,0387559131-涿州市友邦世纪物业服务有限公司-专变-124861945-涿州市鸿盛房地产开有限公司5,涿州市博纳高品科技有限公司,涿州市宜佳旺购物广场商贸有限公司2,62316部队,保定市民生房地产开发有限公司,中国银行股份有限公司涿州支行变压器,0387554325-河北惠友商业连锁发展有限公司-专变-45355729-河北惠友商业连锁发展有限公司,广场511公用3841,0387559131-涿州市友邦世纪物业服务有限公司-专变-124856796-涿州市鸿盛房地产开有限公司4,0387559131-涿州市友邦世纪物业服务有限公司-专变-192908370-涿州市鸿盛房地产开发有限公司12","poweroffReason":"【停电原因】由于线路检修导致１１０ＫＶ塔上变电站１０ＫＶ人民广场５１８线路全线停电 【变更送电】无 【发布渠道】涿州电视台（１０月０８日至１０月１７日２１：００播放２次）屏幕上方滚动","powerTime":"2019-10-18 17:00:00","powerComm":"恢复送电","subsNo":"","lineNo":"","tgNo":"","tgName":null,"infoStatus":"1","orgName":"国网涿州市供电公司","typeName":null,"infoStatusName":null,"dateDay":null,"orgNos":null,"nowTime":null,"countyName":null,"streetName":null,"villageName":null,"roadName":null,"communityName":null,"tranName":null,"sdLineName":null,"cityCode":"1340626","cityName":"国网涿州市供电公司","provinceCode":null,"stopTime":"2019-10-18 17:00:00","powerType":"全部","powerOffArea":"【全线路停电】停开发区供电所公用,0387559131-涿州市友邦世纪物业服务有限公司-专变-124861934-涿州市鸿盛房地产开有限公司2,李新,0387559131-涿州市友邦世纪物业服务有限公司-专变-124861937-涿州市鸿盛房地产开有限公司3,涿州市伯力恒集团房地产开发有限公司3,槐林小区名流0356【纯农排变】,0387555487-涿州市开发区北鑫家居广场-专变-45355762-北鑫家居,0387553915-涿州市南海鱼村房地产开发有限公司-专变-45355764-涿州市华融商贸有限公司,0387559131-涿州市友邦世纪物业服务有限公司-专变-192910593-涿州市鸿盛房地产开发有限公司10,0387559131-涿州市友邦世纪物业服务有限公司-专变-124861931-涿州市鸿盛房地产开有限公司1,涿州市宜佳旺购物广场商贸有限公司1,0387559131-涿州市友邦世纪物业服务有限公司-专变-192908364-涿州市鸿盛房地产开发有限公司9,天外天酒店,0387559131-涿州市友邦世纪物业服务有限公司-专变-192908368-涿州市鸿盛房地产开发有限公司11,市政管理处,0387559131-涿州市友邦世纪物业服务有限公司-专变-124856806-涿州市鸿盛房地产开有限公司7,0575228263-涿州市新立马房地产开发有限公司-专变-123954623-涿州市新立马房地产开发有限公司2,0646712754-涿州市南海鱼村房地产开发有限公司-专变-169949792-涿州市南海鱼村房地产开发有限公司,0575228263-涿州市新立马房地产开发有限公司-专变-123954630-涿州市新立马房地产开发有限公司1,0551286739-河北省涿州市远方名流房地产开发有限公司-专变-172480633-河北省涿州市远方名流房地产开发有限公司2,0646711634-涿州市南海鱼村房地产开发有限公司-专变-169947302-涿州市南海鱼村房地产开发有限公司,0551286739-河北省涿州市远方名流房地产开发有限公司-专变-172480635-河北省涿州市远方名流房地产开发有限公司1,0387559131-涿州市友邦世纪物业服务有限公司-专变-124861965-涿州市鸿盛房地产开有限公司8,0387559131-涿州市友邦世纪物业服务有限公司-专变-124861947-涿州市鸿盛房地产开有限公司6,涿州市京热热力有限责任公司,0387559131-涿州市友邦世纪物业服务有限公司-专变-124861945-涿州市鸿盛房地产开有限公司5,涿州市博纳高品科技有限公司,涿州市宜佳旺购物广场商贸有限公司2,62316部队,保定市民生房地产开发有限公司,中国银行股份有限公司涿州支行变压器,0387554325-河北惠友商业连锁发展有限公司-专变-45355729-河北惠友商业连锁发展有限公司,广场511公用3841,0387559131-涿州市友邦世纪物业服务有限公司-专变-124856796-涿州市鸿盛房地产开有限公司4,0387559131-涿州市友邦世纪物业服务有限公司-专变-192908370-涿州市鸿盛房地产开发有限公司12","powerOffReason":"【停电原因】由于线路检修导致１１０ＫＶ塔上变电站１０ＫＶ人民广场５１８线路全线停电 【变更送电】无 【发布渠道】涿州电视台（１０月０８日至１０月１７日２１：００播放２次）屏幕上方滚动","powerOffId":"2019100813000023"},{"poweroffId":2019100813000019,"sgpoweroffId":null,"subsName":"","lineName":"华梓营574","pubTranName":"义合庄村（东北地）【纯农排变】,保定白沟吉忠热力有限公司变压器,于庄5号,于庄西,兴建强,于庄南,许场浇地西,义合庄面粉厂,花梓营9号变压器,0692496147-保定白沟新城杜香伟皮革商行-专变-235641338-变压器,花梓营东2,义合庄南二台区,于庄村（东地）【纯农排变】,姜德清,义合庄西台区,东芦北2,许场浇地东,姜振清,黄宝兴,变压器-043,新兴皮件厂,高碑店市恒昱凯达包装制品有限公司变压器,义合庄南一台区,黄庄,许场西,迪爵箱包商行,永兴皮件厂,于庄村（东南地）【纯农排变】,花梓营南2,姜会军,花梓营中台,花梓营东1,于庄6号,义合庄中台区,于庄8号变压器,保定白沟吉忠热力有限责任公司变压器01,变压器,花梓营东3变压器,变压器-044,花梓营西北,花梓营西台区,义合庄西地,于庄北,0387445409-张喜东-专变-221241006-变压器250,义合庄西2台区,花梓营西（浇地）【纯农排变】,义合庄村（东南地）【纯农排变】,许场中2,于庄村（东北地）【纯农排变】,保定白沟吉忠热力有限责任公司变压器02,于庄东,黄克良,黄军占,许场中,义合庄北二台区,义合庄浇地东台区,黄庄2号,东芦北,于庄7号,义合庄北一台区,雄县义盛电器线材有限公司,许场南,许场东2,花梓营南,西芦浇地,变压器-045,","scope":"【影响街道/乡镇】白沟镇、东一环 【高危重要客户】无 【影响客户】黄庄村、华梓营村、义合庄村、许场村、于庄村、热力公司、东芦村、保定白沟吉忠热力公司、保定白沟新城中通加油站、保定白沟新城杜香伟皮革商行、黄克良、兴建强、新兴皮件厂、黄宝兴、姜会军、李风水、永兴皮件厂、姜振清、于庄砖厂（鼎奎）","startTime":"2019-10-08 08:34:34","stopDate":"2019-10-08 11:00:00","orgNo":"1340612","typeCode":"电网故障停限电","poweroffArea":"【全线路停电】停义合庄村（东北地）【纯农排变】,保定白沟吉忠热力有限公司变压器,于庄5号,于庄西,兴建强,于庄南,许场浇地西,义合庄面粉厂,花梓营9号变压器,0692496147-保定白沟新城杜香伟皮革商行-专变-235641338-变压器,花梓营东2,义合庄南二台区,于庄村（东地）【纯农排变】,姜德清,义合庄西台区,东芦北2,新兴皮件厂,高碑店市恒昱凯达包装制品有限公司变压器,义合庄南一台区,黄庄,许场西,迪爵箱包商行,永兴皮件厂,于庄村（东南地）【纯农排变】,花梓营南2,姜会军,许场浇地东,姜振清,黄宝兴,变压器-043,花梓营中台,花梓营东1,花梓营西（浇地）【纯农排变】,义合庄村（东南地）【纯农排变】,许场中2,于庄村（东北地）【纯农排变】,保定白沟吉忠热力有限责任公司变压器02,义合庄北二台区,义合庄浇地东台区,黄庄2号,东芦北,于庄7号,义合庄北一台区,雄县义盛电器线材有限公司,许场南,许场东2,花梓营南,于庄6号,义合庄中台区,于庄8号变压器,保定白沟吉忠热力有限责任公司变压器01,变压器,花梓营东3变压器,变压器-044,花梓营西北,花梓营西台区,义合庄西地,于庄北,0387445409-张喜东-专变-221241006-变压器250,义合庄西2台区,西芦浇地,变压器-045,于庄东,黄克良,黄军占,许场中","poweroffReason":"【停电原因】由于电缆被挖断导致１１０ＫＶ南留变电站１０ＫＶ华梓营５７４线路全线停电 【变更送电】因抢修进度加快原因，送电时间由１２：００变更为１１：００ 【发布渠道】通过９５５９８发布","powerTime":"2019-10-08 10:43:12","powerComm":"已送电","subsNo":"","lineNo":"","tgNo":"","tgName":null,"infoStatus":"1","orgName":"国网高碑店市供电公司","typeName":null,"infoStatusName":null,"dateDay":null,"orgNos":null,"nowTime":null,"countyName":null,"streetName":null,"villageName":null,"roadName":null,"communityName":null,"tranName":null,"sdLineName":null,"cityCode":"1340612","cityName":"国网高碑店市供电公司","provinceCode":null,"stopTime":"2019-10-08 11:00:00","powerType":"全部","powerOffArea":"【全线路停电】停义合庄村（东北地）【纯农排变】,保定白沟吉忠热力有限公司变压器,于庄5号,于庄西,兴建强,于庄南,许场浇地西,义合庄面粉厂,花梓营9号变压器,0692496147-保定白沟新城杜香伟皮革商行-专变-235641338-变压器,花梓营东2,义合庄南二台区,于庄村（东地）【纯农排变】,姜德清,义合庄西台区,东芦北2,新兴皮件厂,高碑店市恒昱凯达包装制品有限公司变压器,义合庄南一台区,黄庄,许场西,迪爵箱包商行,永兴皮件厂,于庄村（东南地）【纯农排变】,花梓营南2,姜会军,许场浇地东,姜振清,黄宝兴,变压器-043,花梓营中台,花梓营东1,花梓营西（浇地）【纯农排变】,义合庄村（东南地）【纯农排变】,许场中2,于庄村（东北地）【纯农排变】,保定白沟吉忠热力有限责任公司变压器02,义合庄北二台区,义合庄浇地东台区,黄庄2号,东芦北,于庄7号,义合庄北一台区,雄县义盛电器线材有限公司,许场南,许场东2,花梓营南,于庄6号,义合庄中台区,于庄8号变压器,保定白沟吉忠热力有限责任公司变压器01,变压器,花梓营东3变压器,变压器-044,花梓营西北,花梓营西台区,义合庄西地,于庄北,0387445409-张喜东-专变-221241006-变压器250,义合庄西2台区,西芦浇地,变压器-045,于庄东,黄克良,黄军占,许场中","powerOffReason":"【停电原因】由于电缆被挖断导致１１０ＫＶ南留变电站１０ＫＶ华梓营５７４线路全线停电 【变更送电】因抢修进度加快原因，送电时间由１２：００变更为１１：００ 【发布渠道】通过９５５９８发布","powerOffId":"2019100813000019"},{"poweroffId":2019100813000012,"sgpoweroffId":null,"subsName":"","lineName":"10kV江城站512线路","pubTranName":"C314柱上变压器,","scope":"【影响街道/乡镇】颉庄乡 【高危重要客户】无 【影响客户】康庄","startTime":"2019-10-08 08:15:00","stopDate":"2019-10-08 10:15:00","orgNo":"13406","typeCode":"电网故障停限电","poweroffArea":"【单台区停电】停C314柱上变压器","poweroffReason":"【停电原因】由于低压主线断导致１０ＫＶ江城变电站５１２线路Ｃ３１４公变台区停电【变更送电】无【发布渠道】通过９５５９８发布","powerTime":"2019-10-08 09:44:25","powerComm":"已送电","subsNo":"","lineNo":"","tgNo":"","tgName":null,"infoStatus":"1","orgName":"保定供电公司","typeName":null,"infoStatusName":null,"dateDay":null,"orgNos":null,"nowTime":null,"countyName":null,"streetName":null,"villageName":null,"roadName":null,"communityName":null,"tranName":null,"sdLineName":null,"cityCode":"13406","cityName":"保定供电公司","provinceCode":null,"stopTime":"2019-10-08 10:15:00","powerType":"全部","powerOffArea":"【单台区停电】停C314柱上变压器","powerOffReason":"【停电原因】由于低压主线断导致１０ＫＶ江城变电站５１２线路Ｃ３１４公变台区停电【变更送电】无【发布渠道】通过９５５９８发布","powerOffId":"2019100813000012"},{"poweroffId":2019100813000009,"sgpoweroffId":null,"subsName":"","lineName":"热力580","pubTranName":"西芦4,西芦4,","scope":"【影响街道/乡镇】白沟镇、东一环 【高危重要客户】热力公司 【影响客户】工业园区、高碑店航城机械厂、保定茂乾箱包配件制造有限公司、鹏润MINI工社二期、汤敏军、保定成正物业、迷你工社小区、白沟新城规划建设局(东一环路灯)、保定白沟新城神宝箱包配件加工厂、高碑店市美达斯皮具有限公司、 保定市食品药品监督管理局、 新城互信居民服务部(幸福小区)、 盛翔革厂、顺凯箱包","startTime":"2019-10-08 07:52:02","stopDate":"2019-10-08 11:00:00","orgNo":"1340612","typeCode":"电网故障停限电","poweroffArea":"【全线路停电】停河北奇领文化传媒有限公司变压器,变压器3,变压器,变压器1,于庄砖厂,航城机械厂变台,保定白沟新城顺凯箱包配件加工厂变压器,保定白沟新城神宝箱包配件加工厂变压器,变压器2,豪爽变压器,0636158016-河北弘之木环保科技股份有限公司-专变-169891940-变压器2000,景观灯,建设局景观灯,美达斯皮具有限公司变台,高碑店市白沟盛翔塑料厂,西芦4,0601641477-保定白沟新城融创万商企业管理服务有限公司-专变-126764271-2号线变压器2,0601641477-保定白沟新城融创万商企业管理服务有限公司-专变-126767179-2号线变压器3,保定白沟新城旺佰伦物业服务有限责任公司变压器,李欣变压器","poweroffReason":"【停电原因】由于电缆被挖断导致１１０ＫＶ南留变电站１０ＫＶ热力５８０线路全线停电 【变更送电】因抢修进度加快原因，送电时间由１２：００变更为１１：００ 【发布渠道】通过９５５９８发布","powerTime":"2019-10-08 10:43:40","powerComm":"已送电","subsNo":"","lineNo":"","tgNo":"","tgName":null,"infoStatus":"1","orgName":"国网高碑店市供电公司","typeName":null,"infoStatusName":null,"dateDay":null,"orgNos":null,"nowTime":null,"countyName":null,"streetName":null,"villageName":null,"roadName":null,"communityName":null,"tranName":null,"sdLineName":null,"cityCode":"1340612","cityName":"国网高碑店市供电公司","provinceCode":null,"stopTime":"2019-10-08 11:00:00","powerType":"全部","powerOffArea":"【全线路停电】停河北奇领文化传媒有限公司变压器,变压器3,变压器,变压器1,于庄砖厂,航城机械厂变台,保定白沟新城顺凯箱包配件加工厂变压器,保定白沟新城神宝箱包配件加工厂变压器,变压器2,豪爽变压器,0636158016-河北弘之木环保科技股份有限公司-专变-169891940-变压器2000,景观灯,建设局景观灯,美达斯皮具有限公司变台,高碑店市白沟盛翔塑料厂,西芦4,0601641477-保定白沟新城融创万商企业管理服务有限公司-专变-126764271-2号线变压器2,0601641477-保定白沟新城融创万商企业管理服务有限公司-专变-126767179-2号线变压器3,保定白沟新城旺佰伦物业服务有限责任公司变压器,李欣变压器","powerOffReason":"【停电原因】由于电缆被挖断导致１１０ＫＶ南留变电站１０ＫＶ热力５８０线路全线停电 【变更送电】因抢修进度加快原因，送电时间由１２：００变更为１１：００ 【发布渠道】通过９５５９８发布","powerOffId":"2019100813000009"},{"poweroffId":2019100713000184,"sgpoweroffId":null,"subsName":"","lineName":"10kV杨翟515线","pubTranName":"杨宅农业2台区【纯农排变】,杨宅农业7台区【纯农排变】,侯村综合5台区,杨翟综合6台区,杨翟综合1变压器,侯村农业2台区【纯农排变】,杨翟综合3,杨翟农业十三台区,常庄小区综合变压器,杨宅农业5台区【纯农排变】,杨翟农业3变压器,杨翟农业十二台区,杨宅农业8台区【纯农排变】,杨宅农业1台区【纯农排变】,杨宅农业十,杨翟综合2变压器,杨翟农业9变压器,侯村农业3变压器,杨翟综合4台区,杨翟综合五变台,杨宅农业6台区【纯农排变】,杨翟农业十一台区,候村综合四,常庄农业1变压器,杨宅农业4台区【纯农排变】,","scope":"【影响街道/乡镇】常庄乡 【高危重要客户】无 【影响客户】杨翟村、侯村、景苑家园","startTime":"2019-10-15 08:00:00","stopDate":"2019-10-15 17:30:00","orgNo":"1340606","typeCode":"临时停电","poweroffArea":"【全线路停电】停候村综合四,杨翟综合五变台","poweroffReason":"【停电原因】由于秋季检修导致３５ＫＶ常庄变电站１０ＫＶ杨翟５１５线路全线停电 【变更送电】无 【发布渠道】保定市安国电视台（１０月１０日００时至２４时之间）屏幕上方滚动","powerTime":"2019-10-15 17:23:27","powerComm":"已送电","subsNo":"","lineNo":"","tgNo":"","tgName":null,"infoStatus":"1","orgName":"国网安国市供电公司","typeName":null,"infoStatusName":null,"dateDay":null,"orgNos":null,"nowTime":null,"countyName":null,"streetName":null,"villageName":null,"roadName":null,"communityName":null,"tranName":null,"sdLineName":null,"cityCode":"1340606","cityName":"国网安国市供电公司","provinceCode":null,"stopTime":"2019-10-15 17:30:00","powerType":"全部","powerOffArea":"【全线路停电】停候村综合四,杨翟综合五变台","powerOffReason":"【停电原因】由于秋季检修导致３５ＫＶ常庄变电站１０ＫＶ杨翟５１５线路全线停电 【变更送电】无 【发布渠道】保定市安国电视台（１０月１０日００时至２４时之间）屏幕上方滚动","powerOffId":"2019100713000184"},{"poweroffId":2019100713000180,"sgpoweroffId":null,"subsName":"","lineName":"10kV安兴大街582（移动变）","pubTranName":"客户投资_经济社区综合变压器,农机厂 2,药威公用1箱式变电站间隔配电变压器,兴安锅炉东变压器,农机厂变压器,药威家园2号箱式变电站间隔配电变压器,集贸市场综合柱上变压器,兴安小区1,兴安小区2,客户投资_西关十字路口公用变压器,西关十字路口变压器,南关农机公司综合变压器,碧水华庭2台区,西关印刷厂变压器,光明街院变压器,庆丰路综合变压器,","scope":"【影响街道/乡镇】农民街 【高危重要客户】无 【影响客户】南关经济小区、药威家园、兴安小区、碧水华庭","startTime":"2019-10-17 08:00:00","stopDate":"2019-10-17 14:00:00","orgNo":"1340606","typeCode":"计划停电","poweroffArea":"【全线路停电】停光明街院变压器,兴安小区2,集贸市场综合柱上变压器,庆丰路综合变压器","poweroffReason":"【停电原因】由于秋季检修导致１１０ＫＶ东河变电站１０ＫＶ安兴大街５８２（移动变）线路全线停电 【变更送电】因工作进度加快原因，送电时间由１５：００变更为１４：００ 【发布渠道】保定市安国电视台（１０月１２日００时至２４时之间）屏幕上方滚动","powerTime":"2019-10-17 13:35:15","powerComm":"已送电","subsNo":"","lineNo":"","tgNo":"","tgName":null,"infoStatus":"1","orgName":"国网安国市供电公司","typeName":null,"infoStatusName":null,"dateDay":null,"orgNos":null,"nowTime":null,"countyName":null,"streetName":null,"villageName":null,"roadName":null,"communityName":null,"tranName":null,"sdLineName":null,"cityCode":"1340606","cityName":"国网安国市供电公司","provinceCode":null,"stopTime":"2019-10-17 14:00:00","powerType":"全部","powerOffArea":"【全线路停电】停光明街院变压器,兴安小区2,集贸市场综合柱上变压器,庆丰路综合变压器","powerOffReason":"【停电原因】由于秋季检修导致１１０ＫＶ东河变电站１０ＫＶ安兴大街５８２（移动变）线路全线停电 【变更送电】因工作进度加快原因，送电时间由１５：００变更为１４：００ 【发布渠道】保定市安国电视台（１０月１２日００时至２４时之间）屏幕上方滚动","powerOffId":"2019100713000180"},{"poweroffId":2019100713000179,"sgpoweroffId":null,"subsName":"","lineName":"10kV西环581（移动变）","pubTranName":"大众汽修2综合,西关50变压器.,南大街村边综合1变压器,兴安路西变压器,镇中变压器,西关160变压器,西关街村边综合1变压器,水厂家属院,北大街村边综合3,大众汽修变压器,农民街综合2,北大街村边综合2变压器,新大地房地产开发有限公司,兴安锅炉西,农民街综合变压器,农民街综合3台区,西关家属院变压器,北大街村边综合1变压器,","scope":"【影响街道/乡镇】西关街 【高危重要客户】无 【影响客户】祁州中学、光荣院、西关十字路口、大众汽修、华凡世纪城、烟草公司、江南风景城","startTime":"2019-10-17 08:00:00","stopDate":"2019-10-17 14:00:00","orgNo":"1340606","typeCode":"计划停电","poweroffArea":"【全线路停电】停西关160变压器,大众汽修2综合,西关50变压器.,南大街村边综合1变压器,兴安路西变压器,镇中变压器,西关街村边综合1变压器,水厂家属院,北大街村边综合3,大众汽修变压器,农民街综合2,北大街村边综合2变压器,新大地房地产开发有限公司,兴安锅炉西,农民街综合变压器,农民街综合3台区,西关家属院变压器,北大街村边综合1变压器","poweroffReason":"【停电原因】由于安装开关及电缆接引导致１１０ＫＶ东河变电站１０ＫＶ西环５８１（移动变）线路全线停电 【变更送电】因工作进度加快原因，送电时间由１５：００变更为１４：００ 【发布渠道】保定市安国电视台（１０月１２日００时至２４时之间）屏幕上方滚动","powerTime":"2019-10-17 13:35:03","powerComm":"已送电","subsNo":"","lineNo":"","tgNo":"","tgName":null,"infoStatus":"1","orgName":"国网安国市供电公司","typeName":null,"infoStatusName":null,"dateDay":null,"orgNos":null,"nowTime":null,"countyName":null,"streetName":null,"villageName":null,"roadName":null,"communityName":null,"tranName":null,"sdLineName":null,"cityCode":"1340606","cityName":"国网安国市供电公司","provinceCode":null,"stopTime":"2019-10-17 14:00:00","powerType":"全部","powerOffArea":"【全线路停电】停西关160变压器,大众汽修2综合,西关50变压器.,南大街村边综合1变压器,兴安路西变压器,镇中变压器,西关街村边综合1变压器,水厂家属院,北大街村边综合3,大众汽修变压器,农民街综合2,北大街村边综合2变压器,新大地房地产开发有限公司,兴安锅炉西,农民街综合变压器,农民街综合3台区,西关家属院变压器,北大街村边综合1变压器","powerOffReason":"【停电原因】由于安装开关及电缆接引导致１１０ＫＶ东河变电站１０ＫＶ西环５８１（移动变）线路全线停电 【变更送电】因工作进度加快原因，送电时间由１５：００变更为１４：００ 【发布渠道】保定市安国电视台（１０月１２日００时至２４时之间）屏幕上方滚动","powerOffId":"2019100713000179"},{"poweroffId":2019100713000177,"sgpoweroffId":null,"subsName":"","lineName":"10kV庞各庄515线","pubTranName":"北卜内东新综合4台区变压器,南卜综合4台区,西街内北综合1台区变压器,东街内西综合2,南卜内东综合1,东街综合4台区,南街内西综合2,北街内东北综4,北卜农业7台区【纯农排变】,南卜内西综合2号,南街西北农业3号【纯农排变】,南街村西农业2号【纯农排变】,南卜内中综合3,北街内东综6柱上变压器,西街综合4台区,西街综合二台区变压器,东街内南综合3,西街内西北综合3,南街农业四台区【纯农排变】,北街鸡中综合4号,北街内西综合1号,北卜内西新综合,北卜内东综合1,南街村西新增农业变压器【纯农排变】,南街内东综合1,北街内东综合2,北街农业8台区【纯农排变】,北卜农业9台区【纯农排变】,南卜内北综合5台区,北卜西北农业【纯农排变】,北卜内中新综合3,北卜农业8台区【纯农排变】,东街村内东综合1,北街内西北综合3,","scope":"【影响街道/乡镇】西安国城乡 【高危重要客户】无 【影响客户】北卜村、南街村、东街村、南卜村、西街村、北街村","startTime":"2019-10-18 08:00:00","stopDate":"2019-10-18 18:00:00","orgNo":"1340606","typeCode":"计划停电","poweroffArea":"【全线路停电】停南街内东综合1,北街内东综6柱上变压器,西街内西北综合3,南卜内中综合3,东街综合4台区,北卜内西新综合","poweroffReason":"【停电原因】由于秋季检修导致３５ＫＶ庞各庄变电站１０ＫＶ庞各庄５１５线路全线停电 【变更送电】无 【发布渠道】保定市安国电视台（１０月１４日００时至２４时之间）屏幕上方滚动","powerTime":"2019-10-18 11:39:49","powerComm":"已送电","subsNo":"","lineNo":"","tgNo":"","tgName":null,"infoStatus":"1","orgName":"国网安国市供电公司","typeName":null,"infoStatusName":null,"dateDay":null,"orgNos":null,"nowTime":null,"countyName":null,"streetName":null,"villageName":null,"roadName":null,"communityName":null,"tranName":null,"sdLineName":null,"cityCode":"1340606","cityName":"国网安国市供电公司","provinceCode":null,"stopTime":"2019-10-18 18:00:00","powerType":"全部","powerOffArea":"【全线路停电】停南街内东综合1,北街内东综6柱上变压器,西街内西北综合3,南卜内中综合3,东街综合4台区,北卜内西新综合","powerOffReason":"【停电原因】由于秋季检修导致３５ＫＶ庞各庄变电站１０ＫＶ庞各庄５１５线路全线停电 【变更送电】无 【发布渠道】保定市安国电视台（１０月１４日００时至２４时之间）屏幕上方滚动","powerOffId":"2019100713000177"}],"pageModel":{"pageNow":524,"totalCount":10973,"totalPage":1098,"tableRows":0,"pageCount":10,"beginCount":5230},"isExperi":"1"}