{"message":"","today":"2020-06-15","seleList":[{"poweroffId":2019100713000173,"sgpoweroffId":null,"subsName":"","lineName":"10kV子娄515线","pubTranName":"子娄综1台区,子娄综合2变压器,子娄综合7,子娄综合4变压器,","scope":"【影响街道/乡镇】祁州镇 【高危重要客户】无 【影响客户】子娄村","startTime":"2019-10-16 08:00:00","stopDate":"2019-10-16 10:30:00","orgNo":"1340606","typeCode":"计划停电","poweroffArea":"【全线路停电】停子娄综合4变压器,子娄综1台区,子娄综合2变压器,子娄综合7","poweroffReason":"【停电原因】由于秋季检修导致１１０ＫＶ东河变电站１０ＫＶ子娄５１５线路全线停电 【变更送电】因工作进度加快原因，送电时间由１７：３０变更为１０：３０ 【发布渠道】保定市安国电视台（１０月１２日００时至２４时之间）屏幕上方滚动","powerTime":"2019-10-16 10:10:32","powerComm":"已送电","subsNo":"","lineNo":"","tgNo":"","tgName":null,"infoStatus":"1","orgName":"国网安国市供电公司","typeName":null,"infoStatusName":null,"dateDay":null,"orgNos":null,"nowTime":null,"countyName":null,"streetName":null,"villageName":null,"roadName":null,"communityName":null,"tranName":null,"sdLineName":null,"cityCode":"1340606","cityName":"国网安国市供电公司","provinceCode":null,"stopTime":"2019-10-16 10:30:00","powerType":"全部","powerOffArea":"【全线路停电】停子娄综合4变压器,子娄综1台区,子娄综合2变压器,子娄综合7","powerOffReason":"【停电原因】由于秋季检修导致１１０ＫＶ东河变电站１０ＫＶ子娄５１５线路全线停电 【变更送电】因工作进度加快原因，送电时间由１７：３０变更为１０：３０ 【发布渠道】保定市安国电视台（１０月１２日００时至２４时之间）屏幕上方滚动","powerOffId":"2019100713000173"},{"poweroffId":2019100713000172,"sgpoweroffId":null,"subsName":"","lineName":"10kV东河525线","pubTranName":"伏村综合三台区,西长仕综合1号变压器,西河综合4号变压器,","scope":"【影响街道/乡镇】明官店乡 【高危重要客户】无 【影响客户】西长仕村、伏村、西河村","startTime":"2019-10-16 08:00:00","stopDate":"2019-10-16 10:50:00","orgNo":"1340606","typeCode":"计划停电","poweroffArea":"【全线路停电】停西长仕综合1号变压器,伏村综合三台区,西河综合4号变压器","poweroffReason":"【停电原因】由于秋季检修导致１１０ＫＶ东河变电站１０ＫＶ东河５２５线路全线停电 【变更送电】因工作进度加快原因，送电时间由１７：３０变更为１０：５０ 【发布渠道】保定市安国电视台（１０月１２日００时至２４时之间）屏幕上方滚动","powerTime":"2019-10-16 10:16:39","powerComm":"已送电","subsNo":"","lineNo":"","tgNo":"","tgName":null,"infoStatus":"1","orgName":"国网安国市供电公司","typeName":null,"infoStatusName":null,"dateDay":null,"orgNos":null,"nowTime":null,"countyName":null,"streetName":null,"villageName":null,"roadName":null,"communityName":null,"tranName":null,"sdLineName":null,"cityCode":"1340606","cityName":"国网安国市供电公司","provinceCode":null,"stopTime":"2019-10-16 10:50:00","powerType":"全部","powerOffArea":"【全线路停电】停西长仕综合1号变压器,伏村综合三台区,西河综合4号变压器","powerOffReason":"【停电原因】由于秋季检修导致１１０ＫＶ东河变电站１０ＫＶ东河５２５线路全线停电 【变更送电】因工作进度加快原因，送电时间由１７：３０变更为１０：５０ 【发布渠道】保定市安国电视台（１０月１２日００时至２４时之间）屏幕上方滚动","powerOffId":"2019100713000172"},{"poweroffId":2019100713000168,"sgpoweroffId":null,"subsName":"","lineName":"山南线517","pubTranName":"东茹堡村9#,东茹堡村6#,东茹堡村2#,","scope":"【影响街道/乡镇】桥头乡【高危重要客户】无【影响客户】东茹堡村","startTime":"2019-10-08 06:30:00","stopDate":"2019-10-08 11:00:00","orgNo":"1340625","typeCode":"其他临时停电","poweroffArea":"【分支停电】停东茹堡村9#,东茹堡村6#,东茹堡村2#","poweroffReason":"【停电原因】由于紧急消缺导致１１０ＫＶ易县变电站山南５１７线路００６号杆至０２２号杆之间停电【变更送电】因抢修进度加快原因，送电时间由１２：００变更为１１：００【发布渠道】通过９５５９８发布","powerTime":"2019-10-08 10:45:21","powerComm":"已送电","subsNo":"","lineNo":"","tgNo":"","tgName":null,"infoStatus":"1","orgName":"国网易县供电公司","typeName":null,"infoStatusName":null,"dateDay":null,"orgNos":null,"nowTime":null,"countyName":null,"streetName":null,"villageName":null,"roadName":null,"communityName":null,"tranName":null,"sdLineName":null,"cityCode":"1340625","cityName":"国网易县供电公司","provinceCode":null,"stopTime":"2019-10-08 11:00:00","powerType":"全部","powerOffArea":"【分支停电】停东茹堡村9#,东茹堡村6#,东茹堡村2#","powerOffReason":"【停电原因】由于紧急消缺导致１１０ＫＶ易县变电站山南５１７线路００６号杆至０２２号杆之间停电【变更送电】因抢修进度加快原因，送电时间由１２：００变更为１１：００【发布渠道】通过９５５９８发布","powerOffId":"2019100713000168"},{"poweroffId":2019100713000127,"sgpoweroffId":null,"subsName":"","lineName":"苑庄线513","pubTranName":"石井泰占,王社子井,石井粉条厂,石井柿子沟井【纯农排变】,国庆石厂,石井村西井,石井柿子沟2号（统管）,","scope":"【影响街道/乡镇】石井乡 【高危重要客户】无 【影响客户】老王加油站、国庆加油站、柿子沟饭店、乐逍遥饭店","startTime":"2019-10-16 06:30:00","stopDate":"2019-10-16 18:00:00","orgNo":"1340617","typeCode":"计划停电","poweroffArea":"【分支停电】停石井柿子沟2号（统管）,石井泰占,王社子井,石井粉条厂,石井柿子沟井【纯农排变】,国庆石厂,石井村西井","poweroffReason":"【停电原因】由于配变接火导致３５ＫＶ石井变电站苑庄线５１３线路０４号杆北分支停电 【变更送电】无 【发布渠道】满城县有线电视台（１０月０７日１９：００－２０：００至１０月１５日１９：００－２０：００）屏幕上方滚动","powerTime":"2019-10-16 18:00:00","powerComm":"已送电","subsNo":"","lineNo":"","tgNo":"","tgName":null,"infoStatus":"1","orgName":"国网满城县供电公司","typeName":null,"infoStatusName":null,"dateDay":null,"orgNos":null,"nowTime":null,"countyName":null,"streetName":null,"villageName":null,"roadName":null,"communityName":null,"tranName":null,"sdLineName":null,"cityCode":"1340617","cityName":"国网满城县供电公司","provinceCode":null,"stopTime":"2019-10-16 18:00:00","powerType":"全部","powerOffArea":"【分支停电】停石井柿子沟2号（统管）,石井泰占,王社子井,石井粉条厂,石井柿子沟井【纯农排变】,国庆石厂,石井村西井","powerOffReason":"【停电原因】由于配变接火导致３５ＫＶ石井变电站苑庄线５１３线路０４号杆北分支停电 【变更送电】无 【发布渠道】满城县有线电视台（１０月０７日１９：００－２０：００至１０月１５日１９：００－２０：００）屏幕上方滚动","powerOffId":"2019100713000127"},{"poweroffId":2019100713000124,"sgpoweroffId":null,"subsName":"","lineName":"开元街571","pubTranName":"网通直供变压器,丁街3#,工商行1配电变压器,电北院直供,迎宾小区2#,清建公司楼,店北直供,食品院直供,邮局直供,石油公司家属院,迎宾庄园,农行楼1分配电变压器,迎宾小区1#,农贸市场,农机局家属楼,城隍庙直供,保定供电公司,旅游局直供,丁街2#,","scope":"【影响街道/乡镇】易州镇、城管处、迎宾路、长安路、金台路、开元路【高危重要客户】无【影响客户】店北村","startTime":"2019-10-07 16:32:54","stopDate":"2019-10-07 18:40:00","orgNo":"1340625","typeCode":"电网故障停限电","poweroffArea":"【全线路停电】停修造厂家属楼(125KVA),电力局,易县中学(北315KVA),县医院家属楼,修造厂(太平洋),修造厂家属楼(315KVA),103家属院(华宇双拥),易县中学影剧院,丁街2#,丁街3#,0469136799-长安住宅小区-专变-46725797-长安住宅小区,易县中学(北100KVA),众程房地产开发有限公司计量点,0469136816-金台商厦-专变-46725850-金台商厦,地税局,食品院直供,电北院直供,北京华煜都房地产开发有限公司,易水金街(永忠商贸),恒发石材厂(郭艳辉),易县医院变压器1,药材公司,营房村,迎宾路西(100KVA),易县红梅信誉楼,0687170010-易县百货大楼商贸有限公司-专变-227118220-易县百货大楼商贸有限公司500KVA,易县城区居民管理处迎宾路居民委员会变压器,清建公司楼,河北华宇房地产开发有限公司变压器,城隍庙直供,易县水务局变压器,店北直供,迎宾小区1#,易县华宇房地产开发有限公司,龙烁供热80KVA-迎宾小区锅炉房,易县鸿华房地产开发有限公司2000KVA,农机局家属楼,保定安达制动有限公司,农行楼1分配电变压器,迎宾庄园,石油公司家属院,保定供电公司,迎宾小区2#,王府酒店(建行),农行,易县夏威夷休闲会馆变压器,工商行1配电变压器,旅游局直供,中国网通集团有限公司易县分公司,工商银行易县支行,网通直供变压器,易县华宇房地产开发（新港湾小区）,邮局直供,华宇新港湾,农贸市场","poweroffReason":"【停电原因】由于速断跳闸导致１１０ＫＶ店北变电站开元街５７１线路全线停电【变更送电】由于抢修进度加快原因，送电时间由２３：００变更为１８：４０【发布渠道】通过９５５９８发布","powerTime":"2019-10-07 18:19:05","powerComm":"已送电","subsNo":"","lineNo":"","tgNo":"","tgName":null,"infoStatus":"1","orgName":"国网易县供电公司","typeName":null,"infoStatusName":null,"dateDay":null,"orgNos":null,"nowTime":null,"countyName":null,"streetName":null,"villageName":null,"roadName":null,"communityName":null,"tranName":null,"sdLineName":null,"cityCode":"1340625","cityName":"国网易县供电公司","provinceCode":null,"stopTime":"2019-10-07 18:40:00","powerType":"全部","powerOffArea":"【全线路停电】停修造厂家属楼(125KVA),电力局,易县中学(北315KVA),县医院家属楼,修造厂(太平洋),修造厂家属楼(315KVA),103家属院(华宇双拥),易县中学影剧院,丁街2#,丁街3#,0469136799-长安住宅小区-专变-46725797-长安住宅小区,易县中学(北100KVA),众程房地产开发有限公司计量点,0469136816-金台商厦-专变-46725850-金台商厦,地税局,食品院直供,电北院直供,北京华煜都房地产开发有限公司,易水金街(永忠商贸),恒发石材厂(郭艳辉),易县医院变压器1,药材公司,营房村,迎宾路西(100KVA),易县红梅信誉楼,0687170010-易县百货大楼商贸有限公司-专变-227118220-易县百货大楼商贸有限公司500KVA,易县城区居民管理处迎宾路居民委员会变压器,清建公司楼,河北华宇房地产开发有限公司变压器,城隍庙直供,易县水务局变压器,店北直供,迎宾小区1#,易县华宇房地产开发有限公司,龙烁供热80KVA-迎宾小区锅炉房,易县鸿华房地产开发有限公司2000KVA,农机局家属楼,保定安达制动有限公司,农行楼1分配电变压器,迎宾庄园,石油公司家属院,保定供电公司,迎宾小区2#,王府酒店(建行),农行,易县夏威夷休闲会馆变压器,工商行1配电变压器,旅游局直供,中国网通集团有限公司易县分公司,工商银行易县支行,网通直供变压器,易县华宇房地产开发（新港湾小区）,邮局直供,华宇新港湾,农贸市场","powerOffReason":"【停电原因】由于速断跳闸导致１１０ＫＶ店北变电站开元街５７１线路全线停电【变更送电】由于抢修进度加快原因，送电时间由２３：００变更为１８：４０【发布渠道】通过９５５９８发布","powerOffId":"2019100713000124"},{"poweroffId":2019100713000091,"sgpoweroffId":null,"subsName":"","lineName":"北芦庄541","pubTranName":"浮洛营村北0772,","scope":"【影响街道/乡镇】向阳乡 【高危重要客户】无 【影响客户】浮洛营村","startTime":"2019-10-07 15:06:21","stopDate":"2019-10-07 16:30:00","orgNo":"1340626","typeCode":"电网故障停限电","poweroffArea":"【单台区停电】停浮洛营村北0772","poweroffReason":"【停电原因】由于低压刀闸烧毁导致２２０ＫＶ党庄变电站北芦庄５４１线路浮洛营村北０７７２公变台区停电 【变更送电】因抢修进度加快原因，送电时间由２１：００变更为１６：３０ 【发布渠道】通过９５５９８发布","powerTime":"2019-10-07 16:14:25","powerComm":"恢复送电","subsNo":"","lineNo":"","tgNo":"","tgName":null,"infoStatus":"1","orgName":"国网涿州市供电公司","typeName":null,"infoStatusName":null,"dateDay":null,"orgNos":null,"nowTime":null,"countyName":null,"streetName":null,"villageName":null,"roadName":null,"communityName":null,"tranName":null,"sdLineName":null,"cityCode":"1340626","cityName":"国网涿州市供电公司","provinceCode":null,"stopTime":"2019-10-07 16:30:00","powerType":"全部","powerOffArea":"【单台区停电】停浮洛营村北0772","powerOffReason":"【停电原因】由于低压刀闸烧毁导致２２０ＫＶ党庄变电站北芦庄５４１线路浮洛营村北０７７２公变台区停电 【变更送电】因抢修进度加快原因，送电时间由２１：００变更为１６：３０ 【发布渠道】通过９５５９８发布","powerOffId":"2019100713000091"},{"poweroffId":2019100713000077,"sgpoweroffId":null,"subsName":"","lineName":"北高515","pubTranName":"西北奇村9#【纯农排变】,中北奇村5#,血山村5#,西北奇12#村,西北奇14#,东北奇村4#,中高村12#村边,西北奇村22#村,中北奇村4#【纯农排变】,西北奇村4#,血山村9#,西北奇村3#,东北奇村5#,中北奇村1#,卓家庄村5#,中北奇村6#村中,西北奇村16#,中北奇村3#,卓家庄村11#,血山村2#,血山村3#村北,东北奇村2#,卓家庄1#变压器,西北奇村6#,卓家庄村8#,东北奇村3#,西北奇20#变压器,西北奇村21#,卓家庄村2#村东,西北奇纸厂,民爆公司,卓家庄村9#【纯农排变】,西北奇村23#,北高4,血山村1#,西北奇11#【纯农排变】,卓家庄村10#,卓家庄村4#,东北奇村1#,血山村4#村南,北高村8#村山坡,卓家庄12#变压器,西北奇村13#,西北奇村2#,西北奇村5#村西,西北奇10#,西市6#,血山10#变压器,西市村9#,血山村7#,血山村8#,西北奇村15#,西北奇村17#,卓家庄村7#,西市村5#,卓家庄村6#,卓家庄村3#,中北奇村2#,卓家庄村13#,西北奇村1#,","scope":"【影响街道/乡镇】高村乡【高危重要客户】无【影响客户】东北奇村、西北奇村、西市村、血山村、卓家庄村","startTime":"2019-10-07 14:07:57","stopDate":"2019-10-07 17:30:00","orgNo":"1340625","typeCode":"电网故障停限电","poweroffArea":"【全线路停电】停中北奇村5#,0469480014-西北奇张春芳面粉厂-专变-46818171-西北奇张春芳面粉厂,西北奇村23#,东北奇村4#,易县顺达石材厂变压器,中高村12#村边,中海石材,中海石材(学校),卓家庄面粉厂(卓庆林),河北易达矿业有限责任公司变压器,西北奇纸厂,西市村9#,血山村赵树奇变压器,易县卓家庄春龙灰厂,易县北方伟业石材有限公司,血山村2#,西北奇村5#村西,卓家庄村11#,变压器,易县天然石材工业园(1#),易县天然石材工业园(3#),易县龙山石材变压器,西北奇村17#,中北奇村6#村中,东北奇村1#,西北奇钙粉厂,血山村1#,燕龙石材有限公司,西北奇村21#,0554167424-北市村任保祥-专变-73908832-变压器,0593743360-易县龙山石材有限公司-专变-125906046-易县龙山石材有限公司变压器,中北奇村4#【纯农排变】,西北奇12#村,卓家庄村3#,血山村翟保华变压器,卓家庄村6#,东北奇村5#,卓家庄村5#,西北奇11#【纯农排变】,北高村8#村山坡,西市6#,易县明宇钙粉加工有限公司变压器,中北奇村2#,血山村4#村南,西市村5#,血山村9#,西北奇村13#,易县龙山石材有限公司变压器,东北奇村2#,血山村8#,血山10#变压器,西北奇村22#村,铭宇钙粉厂变压器,西北奇村1#,西北奇村6#,0668619301-易县鑫威家庭农场-专变-208447517-易县鑫威家庭农场50KVA,血山村5#,0469480375-珂利达石业有限公司-专变-46818143-长河石业有限公司,河北豫旺百创防水材料有限公司变压器,西北奇村4#,卓家庄村10#,卓家庄12#变压器,易县天然石材工业园(5#),卓家庄村4#,王志成,李彦芳养鸡厂,血山村3#村北,中国石化销售有限公司河北保定易县石油分公司变压器,卓家庄村7#,民爆公司,西北奇14#,西北奇村3#,西北奇村15#,卓家庄1#变压器,西北奇村16#,易县西北奇龙海石材厂变压器,易县天然石材工业园(2#),血山村7#,西北奇10#,易县金驰商品混凝土有限公司变压器,易县永泰筑路材料有限责任公司,中北奇村3#,西北奇村9#【纯农排变】,0546380563-高村供电所-专变-47853168-白马供电所,易县天然石材工业园(4#),易县龙山石材有限公司,西北奇20#变压器,龙山石材变压器,卓家庄村9#【纯农排变】,中北奇村1#,卓家庄村8#,血山袁学辉面粉厂,龙山石材集团公司(100KVA),龙山石材集团公司(80KVA),龙山石材集团公司(200KVA),卓家庄村2#村东,卓家庄水泥构件厂,0551702268-易县宇泽商贸有限责任公司-专变-49852424-变压器,西北奇村7#【纯农排变】,北京易水奇石仿古雕刻工艺品厂易县石材厂,北高4,东北奇村3#,易县长锁建材经销处变压器,卓家庄村13#,西北奇村2#","poweroffReason":"【停电原因】由于速断跳闸导致３５ＫＶ易水变电站北高５１５线路全线停电【变更送电】由于抢修进度加快原因，送电时间由２０：００变更为１７：３０【发布渠道】通过９５５９８发布","powerTime":"2019-10-07 17:07:37","powerComm":"已送电","subsNo":"","lineNo":"","tgNo":"","tgName":null,"infoStatus":"1","orgName":"国网易县供电公司","typeName":null,"infoStatusName":null,"dateDay":null,"orgNos":null,"nowTime":null,"countyName":null,"streetName":null,"villageName":null,"roadName":null,"communityName":null,"tranName":null,"sdLineName":null,"cityCode":"1340625","cityName":"国网易县供电公司","provinceCode":null,"stopTime":"2019-10-07 17:30:00","powerType":"全部","powerOffArea":"【全线路停电】停中北奇村5#,0469480014-西北奇张春芳面粉厂-专变-46818171-西北奇张春芳面粉厂,西北奇村23#,东北奇村4#,易县顺达石材厂变压器,中高村12#村边,中海石材,中海石材(学校),卓家庄面粉厂(卓庆林),河北易达矿业有限责任公司变压器,西北奇纸厂,西市村9#,血山村赵树奇变压器,易县卓家庄春龙灰厂,易县北方伟业石材有限公司,血山村2#,西北奇村5#村西,卓家庄村11#,变压器,易县天然石材工业园(1#),易县天然石材工业园(3#),易县龙山石材变压器,西北奇村17#,中北奇村6#村中,东北奇村1#,西北奇钙粉厂,血山村1#,燕龙石材有限公司,西北奇村21#,0554167424-北市村任保祥-专变-73908832-变压器,0593743360-易县龙山石材有限公司-专变-125906046-易县龙山石材有限公司变压器,中北奇村4#【纯农排变】,西北奇12#村,卓家庄村3#,血山村翟保华变压器,卓家庄村6#,东北奇村5#,卓家庄村5#,西北奇11#【纯农排变】,北高村8#村山坡,西市6#,易县明宇钙粉加工有限公司变压器,中北奇村2#,血山村4#村南,西市村5#,血山村9#,西北奇村13#,易县龙山石材有限公司变压器,东北奇村2#,血山村8#,血山10#变压器,西北奇村22#村,铭宇钙粉厂变压器,西北奇村1#,西北奇村6#,0668619301-易县鑫威家庭农场-专变-208447517-易县鑫威家庭农场50KVA,血山村5#,0469480375-珂利达石业有限公司-专变-46818143-长河石业有限公司,河北豫旺百创防水材料有限公司变压器,西北奇村4#,卓家庄村10#,卓家庄12#变压器,易县天然石材工业园(5#),卓家庄村4#,王志成,李彦芳养鸡厂,血山村3#村北,中国石化销售有限公司河北保定易县石油分公司变压器,卓家庄村7#,民爆公司,西北奇14#,西北奇村3#,西北奇村15#,卓家庄1#变压器,西北奇村16#,易县西北奇龙海石材厂变压器,易县天然石材工业园(2#),血山村7#,西北奇10#,易县金驰商品混凝土有限公司变压器,易县永泰筑路材料有限责任公司,中北奇村3#,西北奇村9#【纯农排变】,0546380563-高村供电所-专变-47853168-白马供电所,易县天然石材工业园(4#),易县龙山石材有限公司,西北奇20#变压器,龙山石材变压器,卓家庄村9#【纯农排变】,中北奇村1#,卓家庄村8#,血山袁学辉面粉厂,龙山石材集团公司(100KVA),龙山石材集团公司(80KVA),龙山石材集团公司(200KVA),卓家庄村2#村东,卓家庄水泥构件厂,0551702268-易县宇泽商贸有限责任公司-专变-49852424-变压器,西北奇村7#【纯农排变】,北京易水奇石仿古雕刻工艺品厂易县石材厂,北高4,东北奇村3#,易县长锁建材经销处变压器,卓家庄村13#,西北奇村2#","powerOffReason":"【停电原因】由于速断跳闸导致３５ＫＶ易水变电站北高５１５线路全线停电【变更送电】由于抢修进度加快原因，送电时间由２０：００变更为１７：３０【发布渠道】通过９５５９８发布","powerOffId":"2019100713000077"},{"poweroffId":2019100713000027,"sgpoweroffId":null,"subsName":"","lineName":"10kV517郑村线","pubTranName":"东河综合10台区,东河综合3台区,东河综合12台区,东河综合7台区,东河综合9台区,东河综合5台区,东河综合11台区,东河综合8台区,东河综合13台区,东河综合2台区,东河综合4台区,东河综合6台区,东河综合1台区,","scope":"【影响街道/乡镇】辛兴镇【高危重要客户】无【影响客户】东河村","startTime":"2019-10-16 07:00:00","stopDate":"2019-10-16 14:30:00","orgNo":"1340616","typeCode":"计划停电","poweroffArea":"【分支停电】停东河农排13台区【纯农排变】,东河农排2台区【纯农排变】,东河世纪毛纺厂,东河农排9台区【纯农排变】,东河农排12台区【纯农排变】,东河农排4台区【纯农排变】,东河南面粉厂,东河农排16台区【纯农排变】,东河板厂,东河综合1台区,东河综合10台区,东河综合3台区,东河农排1台区【纯农排变】,东河农排6台区【纯农排变】,东河农排15台区【纯农排变】,东河恒通皮毛厂,东河农排14台区【纯农排变】,东河农排5台区【纯农排变】,东河综合12台区,东河综合7台区,东河赵新乐毛纺厂,东河东升皮毛厂,东河农排18台区【纯农排变】,东河农排17台区【纯农排变】,东河综合9台区,东河丽华皮毛厂,东河农排3台区【纯农排变】,东河恒通皮毛2厂,东河综合5台区,东河占军毛条厂,东河农排11台区【纯农排变】,蠡县东河亚赛纸箱包装,东河综合11台区,东河农排20台区【纯农排变】,东河村委会,东河农排8台区【纯农排变】,东河农排10台区【纯农排变】,东河李建河,东河医院,东河综合8台区,东河农排7台区【纯农排变】,东河综合13台区,东河综合2台区,东河综合4台区,东河综合6台区,东河和顺佳苑小区变压器","poweroffReason":"【停电原因】由于变台改造导致１１０ＫＶ辛兴变电站１０ＫＶ郑村５１７线路１０３号杆０９号开关以下停电【变更送电】因工作进度加快原因，送电时间由１８:００变更为１４:３０【发布渠道】蠡县电视台（１０月０７日至１０月１５日２０：００至２２：００之间）屏幕上方滚动","powerTime":"2019-10-16 14:00:47","powerComm":"已送电","subsNo":"","lineNo":"","tgNo":"","tgName":null,"infoStatus":"1","orgName":"国网蠡县供电公司","typeName":null,"infoStatusName":null,"dateDay":null,"orgNos":null,"nowTime":null,"countyName":null,"streetName":null,"villageName":null,"roadName":null,"communityName":null,"tranName":null,"sdLineName":null,"cityCode":"1340616","cityName":"国网蠡县供电公司","provinceCode":null,"stopTime":"2019-10-16 14:30:00","powerType":"全部","powerOffArea":"【分支停电】停东河农排13台区【纯农排变】,东河农排2台区【纯农排变】,东河世纪毛纺厂,东河农排9台区【纯农排变】,东河农排12台区【纯农排变】,东河农排4台区【纯农排变】,东河南面粉厂,东河农排16台区【纯农排变】,东河板厂,东河综合1台区,东河综合10台区,东河综合3台区,东河农排1台区【纯农排变】,东河农排6台区【纯农排变】,东河农排15台区【纯农排变】,东河恒通皮毛厂,东河农排14台区【纯农排变】,东河农排5台区【纯农排变】,东河综合12台区,东河综合7台区,东河赵新乐毛纺厂,东河东升皮毛厂,东河农排18台区【纯农排变】,东河农排17台区【纯农排变】,东河综合9台区,东河丽华皮毛厂,东河农排3台区【纯农排变】,东河恒通皮毛2厂,东河综合5台区,东河占军毛条厂,东河农排11台区【纯农排变】,蠡县东河亚赛纸箱包装,东河综合11台区,东河农排20台区【纯农排变】,东河村委会,东河农排8台区【纯农排变】,东河农排10台区【纯农排变】,东河李建河,东河医院,东河综合8台区,东河农排7台区【纯农排变】,东河综合13台区,东河综合2台区,东河综合4台区,东河综合6台区,东河和顺佳苑小区变压器","powerOffReason":"【停电原因】由于变台改造导致１１０ＫＶ辛兴变电站１０ＫＶ郑村５１７线路１０３号杆０９号开关以下停电【变更送电】因工作进度加快原因，送电时间由１８:００变更为１４:３０【发布渠道】蠡县电视台（１０月０７日至１０月１５日２０：００至２２：００之间）屏幕上方滚动","powerOffId":"2019100713000027"},{"poweroffId":2019100713000022,"sgpoweroffId":null,"subsName":"","lineName":"10kV512来合庄线","pubTranName":"来合庄公用照明5台区,东街公用照明6台区,大兴庄村公用照明2台区,周家庄公用照明3台区,周家庄公用照明2台区,留早北街公用照明1台区,留早北街公用照明2台区,中心街村公用照明1台区,东街公用照明4台区,留早中心街公用照明4台区,来合庄村公用照明2台区,高就公用照明16台区,来合庄公用照明3台区,北高就村公用照明1台区,北街公用照明4台区,中心街公用照明7台区,大兴庄公用照明4台区,周家庄村公用照明1台区,中心街公用照明5台区,大兴庄公用照明3台区,四合庄公用照明2台区新建工程,东街村公用照明1台区,大兴庄村公用照明1台区,留早东街公用照明2台区,高就公用照明14台区,来合庄村公用照明1台区,留早北街公用照明3台区,东街公用照明5台区,来合庄公用照明4台区,北高就公用照明2台区,留早四合庄村公用照明1台区,留早东街公用照明3台区,小留早公用照明1台区,北高就公用照明3台区,","scope":"【影响街道/乡镇】留早镇【高危重要客户】无【影响客户】周家庄、北高就、四合庄、来合庄、大兴庄、留早北街、留早东街村、留早中心街村、小留早、高就","startTime":"2019-10-07 08:33:30","stopDate":"2019-10-07 11:00:00","orgNo":"1340610","typeCode":"电网故障停限电","poweroffArea":"【全线路停电】停来合庄公用照明5台区,大兴庄村公用照明2台区,周家庄公用照明3台区,周家庄公用照明2台区,留早北街公用照明1台区,留早北街公用照明2台区,中心街村公用照明1台区,东街公用照明4台区,留早中心街公用照明4台区,来合庄村公用照明2台区,高就公用照明16台区,来合庄公用照明3台区,北高就村公用照明1台区,北街公用照明4台区,大兴庄公用照明4台区,中心街公用照明5台区,大兴庄公用照明3台区,四合庄公用照明2台区新建工程,东街村公用照明1台区,大兴庄村公用照明1台区,留早东街公用照明2台区,高就公用照明14台区,东街公用照明6台区,中心街公用照明7台区,周家庄村公用照明1台区,来合庄村公用照明1台区,留早北街公用照明3台区,东街公用照明5台区,来合庄公用照明4台区,北高就公用照明2台区,留早四合庄村公用照明1台区,留早东街公用照明3台区,小留早公用照明1台区,北高就公用照明3台区","poweroffReason":"【停电原因】由于电杆被车撞断导致３５ＫＶ留早变电站１０ＫＶ５１２来合庄线路全线停电 【变更送电】因抢修进度加快原因，送电时间由１８：００变更为１１：００ 【发布渠道】９５５９８","powerTime":"2019-10-07 10:37:18","powerComm":"已送电","subsNo":"","lineNo":"","tgNo":"","tgName":null,"infoStatus":"1","orgName":"国网定州市供电公司","typeName":null,"infoStatusName":null,"dateDay":null,"orgNos":null,"nowTime":null,"countyName":null,"streetName":null,"villageName":null,"roadName":null,"communityName":null,"tranName":null,"sdLineName":null,"cityCode":"1340610","cityName":"国网定州市供电公司","provinceCode":null,"stopTime":"2019-10-07 11:00:00","powerType":"全部","powerOffArea":"【全线路停电】停来合庄公用照明5台区,大兴庄村公用照明2台区,周家庄公用照明3台区,周家庄公用照明2台区,留早北街公用照明1台区,留早北街公用照明2台区,中心街村公用照明1台区,东街公用照明4台区,留早中心街公用照明4台区,来合庄村公用照明2台区,高就公用照明16台区,来合庄公用照明3台区,北高就村公用照明1台区,北街公用照明4台区,大兴庄公用照明4台区,中心街公用照明5台区,大兴庄公用照明3台区,四合庄公用照明2台区新建工程,东街村公用照明1台区,大兴庄村公用照明1台区,留早东街公用照明2台区,高就公用照明14台区,东街公用照明6台区,中心街公用照明7台区,周家庄村公用照明1台区,来合庄村公用照明1台区,留早北街公用照明3台区,东街公用照明5台区,来合庄公用照明4台区,北高就公用照明2台区,留早四合庄村公用照明1台区,留早东街公用照明3台区,小留早公用照明1台区,北高就公用照明3台区","powerOffReason":"【停电原因】由于电杆被车撞断导致３５ＫＶ留早变电站１０ＫＶ５１２来合庄线路全线停电 【变更送电】因抢修进度加快原因，送电时间由１８：００变更为１１：００ 【发布渠道】９５５９８","powerOffId":"2019100713000022"},{"poweroffId":2019100713000017,"sgpoweroffId":null,"subsName":"","lineName":"阳光线521","pubTranName":"职中变压器,","scope":"【影响街道/乡镇】兴文街 【高危重要客户】无 【影响客户】职中家属楼、职中平房、建安公寓","startTime":"2019-10-07 08:00:10","stopDate":"2019-10-07 09:00:00","orgNo":"1340612","typeCode":"电网故障停限电","poweroffArea":"【单台区停电】停职中变压器","poweroffReason":"【停电原因】由于开关烧毁导致１１０ＫＶ马庄变电站１０ＫＶ阳光５２１线路职中公变台区停电 【变更送电】因抢修进度加快原因，送电时间由１２：００变更为０９：００ 【发布渠道】通过９５５９８发布","powerTime":"2019-10-07 08:35:24","powerComm":"已送电","subsNo":"","lineNo":"","tgNo":"","tgName":null,"infoStatus":"1","orgName":"国网高碑店市供电公司","typeName":null,"infoStatusName":null,"dateDay":null,"orgNos":null,"nowTime":null,"countyName":null,"streetName":null,"villageName":null,"roadName":null,"communityName":null,"tranName":null,"sdLineName":null,"cityCode":"1340612","cityName":"国网高碑店市供电公司","provinceCode":null,"stopTime":"2019-10-07 09:00:00","powerType":"全部","powerOffArea":"【单台区停电】停职中变压器","powerOffReason":"【停电原因】由于开关烧毁导致１１０ＫＶ马庄变电站１０ＫＶ阳光５２１线路职中公变台区停电 【变更送电】因抢修进度加快原因，送电时间由１２：００变更为０９：００ 【发布渠道】通过９５５９８发布","powerOffId":"2019100713000017"}],"pageModel":{"pageNow":525,"totalCount":10973,"totalPage":1098,"tableRows":0,"pageCount":10,"beginCount":5240},"isExperi":"1"}