{"message":"","today":"2020-06-15","seleList":[{"poweroffId":2019100713000011,"sgpoweroffId":null,"subsName":"","lineName":"10kV521塔宣村线","pubTranName":"塔宣村公用照明3台区1,塔宣村公用照明4台区1,杨庄子照明6台区4队(3),","scope":"【影响街道/乡镇】西城区、赵村镇【高危重要客户】无【影响客户】杨庄子、塔宣村","startTime":"2019-10-07 09:00:00","stopDate":"2019-10-07 13:00:00","orgNo":"1340610","typeCode":"其他临时停电","poweroffArea":"【分支停电】停杨庄子照明6台区4队(3),塔宣村公用照明3台区1,塔宣村公用照明4台区1,塔宣村公用照明1台区1,塔宣村公用照明5台区1,塔宣村公用照明2台区1","poweroffReason":"【停电原因】由于电杆倾斜需停电进行紧急检修导致１１０ＫＶ定县变电站１０ＫＶ５２１塔宣村线路主干５２号杆２号断路器以下线路停电 【变更送电】无 【发布渠道】９５５９８　","powerTime":"2019-10-07 12:26:42","powerComm":"已送电","subsNo":"","lineNo":"","tgNo":"","tgName":null,"infoStatus":"1","orgName":"国网定州市供电公司","typeName":null,"infoStatusName":null,"dateDay":null,"orgNos":null,"nowTime":null,"countyName":null,"streetName":null,"villageName":null,"roadName":null,"communityName":null,"tranName":null,"sdLineName":null,"cityCode":"1340610","cityName":"国网定州市供电公司","provinceCode":null,"stopTime":"2019-10-07 13:00:00","powerType":"全部","powerOffArea":"【分支停电】停杨庄子照明6台区4队(3),塔宣村公用照明3台区1,塔宣村公用照明4台区1,塔宣村公用照明1台区1,塔宣村公用照明5台区1,塔宣村公用照明2台区1","powerOffReason":"【停电原因】由于电杆倾斜需停电进行紧急检修导致１１０ＫＶ定县变电站１０ＫＶ５２１塔宣村线路主干５２号杆２号断路器以下线路停电 【变更送电】无 【发布渠道】９５５９８　","powerOffId":"2019100713000011"},{"poweroffId":2019100713000008,"sgpoweroffId":null,"subsName":"","lineName":"阳光线521","pubTranName":"农发行公变,付庄3变压器,职中变压器,闫家务东1变压器,付庄2变压器,锅炉厂公变,环岛公变变压器,付庄1变压器,闫家务南1变压器,富民路公变变压器,检察院公变1,电力花园3号箱变间隔配电变压器,闫家务南变压器,电力花园1号箱变间隔配电变压器,付庄小区箱变变压器,建安变压器,付庄变压器,电力花园2号箱变间隔配电变压器,新世纪公变,付庄小区变压器,付庄北台变压器,老地税公变,付庄东变压器,","scope":"【影响街道/乡镇】迎宾东路、新昌大街、光华南大街、兴文街、文苑路、富民路、民欣胡同 【高危重要客户】无 【影响客户】付庄村、闫家务村、电力花园小区、付庄小区、地税小区、新检察院小区、中国人行小区、锅炉辅机平房、建安公寓、职中门脸、农行家属楼、公园大道小区、金都小区、诺林湾三期、邮政小区、天平小区、新城国税所平房、职中家属楼、职中平房、阳光商厦、河北向鑫机电设备有限公司、家兴商贸、兴泰房地产、双硕物业、实达物业、检察院、李小北、锅炉辅机厂、中国邮政集团高碑店市分公司、付庄面粉厂、福利风机厂、五处大修厂（游乐堡）、高建集团建装公司、付庄基地（十八局四处基地）、河北鼎誉房地产、河北创世房地产(安洁物业)、徐金峰、人民防空办公室、高碑店明仁眼科医院、中国石油保定１１９站、河北高碑店农村商业银行（张八屯信用社）、新华书店、卫生和计划生育局、中国人民银行","startTime":"2019-10-07 06:26:48","stopDate":"2019-10-07 08:00:00","orgNo":"1340612","typeCode":"电网故障停限电","poweroffArea":"【全线路停电】停0562791183-保定津联物业服务有限公司-专变-118501320-天津市兴建房地产开发公司（金都3号）2#,职中变压器,高碑店市人民防空办公室变压器,天津市兴建房地产开发公司（金都3号）5#,高碑店市人民法院变压器,农发行公变,河北宝姚水泵制造有限公司,高碑店市兴泰房地产开发有限公司1,付庄3变压器,河北华达公路工程咨询监理有限公司变压器01,河北创世房地产开发有限公司变压器02,高碑店市强林物业服务有限公司变压器,高碑店市路灯管理办公室（东环岛路灯）变压器,闫家务东1变压器,高碑店市鑫远房地产开发有限公司变压器02,高碑店市人民法院,闫家务东变压器,天津市兴建房地产开发公司（金都3号）6#,电力花园1号箱变间隔配电变压器,付庄小区箱变变压器,高碑店市路灯管理办公室变压器,建安变压器,高碑店市路灯管理办公室（富民路路灯变压器,付庄2变压器,锅炉厂公变,天津市兴建房地产开发公司（金都3号）7#,高碑店市城市管理综合执法局迎宾路2号,高碑店市国家税务局,环岛公变变压器,付庄1变压器,付庄基地,邮政局,高碑店市地方税务局,徐金峰变压器,人行,闫家务南1变压器,河北创世房地产开发有限公司变压器01,锅炉辅机厂,检察院,天津市兴建房地产开发公司（金都3号）3#变压器,高碑店市鑫远房地产开发有限公司变压器04,高碑店市鑫远房地产开发有限公司变压器03,福利风机厂,高碑店市兴泰房地产开发有限公司2,富民路公变变压器,检察院公变1,高碑店市鑫远房地产开发有限公司变压器01,河北创世房地产开发有限公司(安洁物业),0696412691-高碑店市德安房地产开发有限公司02,张八屯信用社,诺林湾3期,天奕商厦2号箱变,高碑店明仁眼科医院,电力花园3号箱变间隔配电变压器,闫家务南变压器,0562791066-保定津联物业服务有限公司-专变-118501293-天津市兴建房地产开发公司（金都花园2号）变压器,环岛高杆灯,天奕商厦1#,高建集团建装公司,新华书店,天津市兴建房地产开发公司（金都花园2号）变压器,中国石油保定119站,付庄变压器,电力花园2号箱变间隔配电变压器,付庄面粉厂,高碑店市卫生和计划生育局,新世纪公变,李小北,河北华达公路工程咨询监理有限公司变压器02,付庄小区变压器,付庄北台变压器,老地税公变,天津市兴建房地产开发公司（金都3号）1#,0696412691-高碑店市德安房地产开发有限公司01,0696412691-高碑店市德安房地产开发有限公司03,付庄东变压器,付庄面粉厂2,天津市兴建房地产开发公司（金都3号）4#,五处大修厂","poweroffReason":"【停电原因】由于主干４０号杆开关烧毁导致１１０ＫＶ马庄变电站１０ＫＶ阳光５２１线路全线停电 【变更送电】因抢修进度加快原因，送电时间由１２：００变更为０８：００ 【发布渠道】通过９５５９８发布","powerTime":"2019-10-07 07:26:25","powerComm":"已送电","subsNo":"","lineNo":"","tgNo":"","tgName":null,"infoStatus":"1","orgName":"国网高碑店市供电公司","typeName":null,"infoStatusName":null,"dateDay":null,"orgNos":null,"nowTime":null,"countyName":null,"streetName":null,"villageName":null,"roadName":null,"communityName":null,"tranName":null,"sdLineName":null,"cityCode":"1340612","cityName":"国网高碑店市供电公司","provinceCode":null,"stopTime":"2019-10-07 08:00:00","powerType":"全部","powerOffArea":"【全线路停电】停0562791183-保定津联物业服务有限公司-专变-118501320-天津市兴建房地产开发公司（金都3号）2#,职中变压器,高碑店市人民防空办公室变压器,天津市兴建房地产开发公司（金都3号）5#,高碑店市人民法院变压器,农发行公变,河北宝姚水泵制造有限公司,高碑店市兴泰房地产开发有限公司1,付庄3变压器,河北华达公路工程咨询监理有限公司变压器01,河北创世房地产开发有限公司变压器02,高碑店市强林物业服务有限公司变压器,高碑店市路灯管理办公室（东环岛路灯）变压器,闫家务东1变压器,高碑店市鑫远房地产开发有限公司变压器02,高碑店市人民法院,闫家务东变压器,天津市兴建房地产开发公司（金都3号）6#,电力花园1号箱变间隔配电变压器,付庄小区箱变变压器,高碑店市路灯管理办公室变压器,建安变压器,高碑店市路灯管理办公室（富民路路灯变压器,付庄2变压器,锅炉厂公变,天津市兴建房地产开发公司（金都3号）7#,高碑店市城市管理综合执法局迎宾路2号,高碑店市国家税务局,环岛公变变压器,付庄1变压器,付庄基地,邮政局,高碑店市地方税务局,徐金峰变压器,人行,闫家务南1变压器,河北创世房地产开发有限公司变压器01,锅炉辅机厂,检察院,天津市兴建房地产开发公司（金都3号）3#变压器,高碑店市鑫远房地产开发有限公司变压器04,高碑店市鑫远房地产开发有限公司变压器03,福利风机厂,高碑店市兴泰房地产开发有限公司2,富民路公变变压器,检察院公变1,高碑店市鑫远房地产开发有限公司变压器01,河北创世房地产开发有限公司(安洁物业),0696412691-高碑店市德安房地产开发有限公司02,张八屯信用社,诺林湾3期,天奕商厦2号箱变,高碑店明仁眼科医院,电力花园3号箱变间隔配电变压器,闫家务南变压器,0562791066-保定津联物业服务有限公司-专变-118501293-天津市兴建房地产开发公司（金都花园2号）变压器,环岛高杆灯,天奕商厦1#,高建集团建装公司,新华书店,天津市兴建房地产开发公司（金都花园2号）变压器,中国石油保定119站,付庄变压器,电力花园2号箱变间隔配电变压器,付庄面粉厂,高碑店市卫生和计划生育局,新世纪公变,李小北,河北华达公路工程咨询监理有限公司变压器02,付庄小区变压器,付庄北台变压器,老地税公变,天津市兴建房地产开发公司（金都3号）1#,0696412691-高碑店市德安房地产开发有限公司01,0696412691-高碑店市德安房地产开发有限公司03,付庄东变压器,付庄面粉厂2,天津市兴建房地产开发公司（金都3号）4#,五处大修厂","powerOffReason":"【停电原因】由于主干４０号杆开关烧毁导致１１０ＫＶ马庄变电站１０ＫＶ阳光５２１线路全线停电 【变更送电】因抢修进度加快原因，送电时间由１２：００变更为０８：００ 【发布渠道】通过９５５９８发布","powerOffId":"2019100713000008"},{"poweroffId":2019100613000104,"sgpoweroffId":null,"subsName":"","lineName":"显口线511","pubTranName":"西显口4207变压器,10kV511显口线中显口6095台区,张显口4391变压器,北山阳2309变压器,北山阳591变压器,10kV511显口线东显口6098台区,西显口935变压器,西山阳4409变压器,中显口597变压器,东显口4975变压器,张显口915变压器,东显口905变压器,西显口936变压器,西山阳1471变压器,10kV511显口线西显口6097台区,西山阳5002变压器,东显口4059变压器,中山阳1701变压器,中显口4136变压器,北山阳0947变压器,张显口917变压器,中山阳948变压器,10kV511显口线中山阳6096台区,东显口600变压器,","scope":"【影响街道/乡镇】北店头乡、高昌镇、白合镇【高危重要客户】无【影响客户】中山阳、张显口、西显口、中显口、东显口、北山阳、西山阳、歇马","startTime":"2019-10-06 16:00:00","stopDate":"2019-10-06 19:00:00","orgNo":"1340622","typeCode":"电网故障停限电","poweroffArea":"【全线路停电】停张显口917变压器,高昌镇北山阳村农业灌溉4565配变,中显口933变压器,振兴绒厂0919,西显口935变压器,西显口4207变压器,高昌镇西山阳村农业灌溉4598配变,西显口水582变压器,中显口4136变压器,东显口4975变压器,中山阳948变压器,张显口2989,中山阳面粉厂0938,高昌镇北山阳村农业灌溉4572配变,东显口600变压器,西山阳1471变压器,唐县瑞丰绒业有限公司0506,10kV511显口线中显口6095台区,张显口坝上593变压器,唐县德瑞新型建材制造有限公司新装6608,北山阳2309变压器,10kV511显口线东显口6098台区,西山阳5002变压器,中山阳1701变压器,北山阳0947变压器,西山阳4409变压器,中显口597变压器,东显口水908变压器,10kV511显口线中山阳6096台区,西显口936变压器,张显口坝下916变压器,张显口4391变压器,北山阳0499变压器,西山阳943变压器,唐县北店头乡东显口村水利灌溉新装4859,东显口905变压器,唐县泰兴羊城制品有限公司1697-2,北山阳0944,高昌镇北山阳村农业灌溉4530配变,东显口大队砖厂2255,唐县振兴装饰材料加工厂新装10KV配变,东显口4059变压器,中显口水934变压器,西山阳水1691变压器,10kV511显口线西显口6097台区,高昌镇西山阳村农业灌溉4633配变,张显口915变压器,北山阳591变压器,力达绒厂1864","poweroffReason":"【停电原因】由于开关掉闸导致３５ＫＶ山阳变电站显口线５１１线路全线停电【变更送电】因抢修进度加快原因，送电时间由２２：００变更为１９：００【发布渠道】通过９５５９８发布","powerTime":"2019-10-06 18:40:12","powerComm":"已送电","subsNo":"","lineNo":"","tgNo":"","tgName":null,"infoStatus":"1","orgName":"国网唐县供电公司","typeName":null,"infoStatusName":null,"dateDay":null,"orgNos":null,"nowTime":null,"countyName":null,"streetName":null,"villageName":null,"roadName":null,"communityName":null,"tranName":null,"sdLineName":null,"cityCode":"1340622","cityName":"国网唐县供电公司","provinceCode":null,"stopTime":"2019-10-06 19:00:00","powerType":"全部","powerOffArea":"【全线路停电】停张显口917变压器,高昌镇北山阳村农业灌溉4565配变,中显口933变压器,振兴绒厂0919,西显口935变压器,西显口4207变压器,高昌镇西山阳村农业灌溉4598配变,西显口水582变压器,中显口4136变压器,东显口4975变压器,中山阳948变压器,张显口2989,中山阳面粉厂0938,高昌镇北山阳村农业灌溉4572配变,东显口600变压器,西山阳1471变压器,唐县瑞丰绒业有限公司0506,10kV511显口线中显口6095台区,张显口坝上593变压器,唐县德瑞新型建材制造有限公司新装6608,北山阳2309变压器,10kV511显口线东显口6098台区,西山阳5002变压器,中山阳1701变压器,北山阳0947变压器,西山阳4409变压器,中显口597变压器,东显口水908变压器,10kV511显口线中山阳6096台区,西显口936变压器,张显口坝下916变压器,张显口4391变压器,北山阳0499变压器,西山阳943变压器,唐县北店头乡东显口村水利灌溉新装4859,东显口905变压器,唐县泰兴羊城制品有限公司1697-2,北山阳0944,高昌镇北山阳村农业灌溉4530配变,东显口大队砖厂2255,唐县振兴装饰材料加工厂新装10KV配变,东显口4059变压器,中显口水934变压器,西山阳水1691变压器,10kV511显口线西显口6097台区,高昌镇西山阳村农业灌溉4633配变,张显口915变压器,北山阳591变压器,力达绒厂1864","powerOffReason":"【停电原因】由于开关掉闸导致３５ＫＶ山阳变电站显口线５１１线路全线停电【变更送电】因抢修进度加快原因，送电时间由２２：００变更为１９：００【发布渠道】通过９５５９８发布","powerOffId":"2019100613000104"},{"poweroffId":2019100613000099,"sgpoweroffId":null,"subsName":"","lineName":"庆都山线512","pubTranName":"贾庄487变压器,高昌屯2812变压器【纯农排变】,峪山庄东坡6696变压器,高昌庄混用557变压器,南放水868变压器,高昌店混用826变压器,东高昌7946变压器,庄头混7048变压器,南高昌5023变压器【纯农排变】,高昌初级中学7567变压器,高昌屯4073变压器,庄头水8227【纯农排变】,北高昌混3166变压器,高昌初级中学7566变压器,东高昌水7047变压器【纯农排变】,10kV512庆都山线南放水6087台区,峪山庄东水4530变压器,贾庄水4707变压器【纯农排变】,庄头村4045变压器,马兴庄4629台区变压器,10kV512庆都山线峪山庄6101台区,高昌初级中学7568变压器,马兴庄教学点7580变压器,马兴庄4645变压器,庄头村486变压器,北高昌混841变压器,高昌店西水0876变压器,高昌屯水5028变压器【纯农排变】,高昌屯5027变压器【纯农排变】,北高昌中心小学7591变压器,庄头水1673变压器【纯农排变】,东高昌水6143变压器【纯农排变】,东高昌立功水1842变压器,东高昌7418变压器,东高昌混864变压器,峪山庄教学点7582变压器,东高昌水6159台区变压器【纯农排变】,北高昌混4518变压器,贾庄837变压器,高昌店粮站481变压器,高昌屯834变压器【纯农排变】,贾庄小学7594变压器,南高昌7668变压器,东高昌小学7593变压器,10kV512庆都山线北高昌6090台区,南高昌3430变压器,庄头水6128变压器【纯农排变】,高昌庄6149台区变压器,高昌店混5084变压器,北高昌混4970变压器,高昌屯833变压器,东高昌混1979变压器,高昌中心卫生院7597变压器,庄头村东水7042变压器【纯农排变】,贾庄4597变压器,北高昌混839变压器,东高昌南水0858变压器【纯农排变】,淑吕7683【纯农排变】,东高昌混4405变压器,南高昌836变压器,南高昌水882变压器【纯农排变】,高昌镇政府6674变压器,龙山开发园1855变压器【纯农排变】,东高昌混825变压器,高昌店水5026变压器,北高昌838变压器,高昌店西6695变压器,东高昌水4458变压器,南放水混用869变压器,庄头水4674变压器【纯农排变】,高昌屯0832变压器,高昌店4035变压器,供电所专用6030变压器,北放水水利4863变压器【纯农排变】,","scope":"【影响街道/乡镇】高昌镇【高危重要客户】无【影响客户】高昌店、东高昌、高昌庄、北放水、北高昌、庆都山上、峪山庄、山阳庄、南放水、庄头、贾庄、马兴庄、南高昌、高昌屯、高昌镇政府、高昌卫生院、高昌派出所、高昌镇中学、东高昌小学、北高昌小学","startTime":"2019-10-06 15:30:00","stopDate":"2019-10-06 19:00:00","orgNo":"1340622","typeCode":"电网故障停限电","poweroffArea":"【全线路停电】停冯振彪水泥砖厂2445,南放水3165变压器,梦会面粉厂1849,东高昌水859变压器【纯农排变】,高昌初级中学7566变压器,高昌庄水857变压器,马兴庄教学点7580变压器,马兴庄4645变压器,东高昌水利10KV配变工程1新建工程,庄头村486变压器,北高昌混841变压器,龙山开发园1855变压器【纯农排变】,东高昌混825变压器,高昌店水5026变压器,北高昌838变压器,庄头水6125变压器【纯农排变】,高昌店西6695变压器,高昌屯0832变压器,东高昌水4458变压器,马兴庄848变压器【纯农排变】,庆都山水840变压器【纯农排变】,高昌庄水5025变压器【纯农排变】,南放水混用869变压器,永红砖厂0559,高昌屯3016变压器,庄头水4674变压器【纯农排变】,南放水868变压器,高昌店混用826变压器,河北景奥旅游开发有限公司新装7155,南放水水854变压器【纯农排变】,高昌店4035变压器,供电所专用6030变压器,北放水水利4863变压器【纯农排变】,北高昌水5241变压器【纯农排变】,东高昌水利10KV配变,唐县通源粮油购销有限公司新装6623,东高昌小学7593变压器,10kV512庆都山线北高昌6090台区,南高昌3430变压器,庄头水6128变压器【纯农排变】,高昌庄6149台区变压器,高昌店混5084变压器,贾庄水4516变压器【纯农排变】,北高昌混4970变压器,高昌屯833变压器,0673793126-唐县高昌镇北高昌村西水-专变-214342989-唐县高昌镇北高昌村西水高压新装6146,高昌水库0875,马兴庄827变压器,东高昌水4836变压器,东高昌水860变压器,庄头村823变压器,北高昌公墓6170台区变压器,马兴庄水4702变压器【纯农排变】,东高昌混1979变压器,高昌中心卫生院7597变压器 ,淑吕7683【纯农排变】,北放水855变压器【纯农排变】,南高昌水5024变压器【纯农排变】,庄头水4581变压器【纯农排变】,庆运水883变压器【纯农排变】,东高昌混4405变压器,南高昌836变压器,贾庄水4226变压器【纯农排变】,南高昌水882变压器【纯农排变】,马兴庄4749变压器【纯农排变】,高昌屯4640变压器【纯农排变】,庄头村东水7042变压器【纯农排变】,东高昌3345变压器【纯农排变】,峪山庄东坡6696变压器,高昌庄混用557变压器,老于砖厂0561,东高昌7946变压器,建民水845变压器【纯农排变】,庄头混7048变压器,南高昌5023变压器【纯农排变】,高昌店西水0876变压器,0387519326-保定市西大洋供水有限公司-专变-219675452-保定市西大洋供水有限公司10KV配电增容工程,高昌屯水5028变压器【纯农排变】,贾庄4703变压器【纯农排变】,高昌屯5027变压器【纯农排变】,北高昌中心小学7591变压器,庄头水1673变压器【纯农排变】,东高昌水6143变压器【纯农排变】,庆都山水4840变压器【纯农排变】,东高昌立功水1842变压器,东高昌7418变压器,贾庄4597变压器,北高昌混839变压器,东高昌南水0858变压器【纯农排变】,高昌镇政府6674变压器,贾庄487变压器,高昌屯2812变压器【纯农排变】,东高昌水7047变压器【纯农排变】,贾庄水4601变压器【纯农排变】,庄头村4045变压器,10kV512庆都山线南放水6087台区,峪山庄东水4530变压器,马兴庄4729变压器【纯农排变】,贾庄水4707变压器【纯农排变】,马兴庄4629台区变压器,山东水利工程局南水北调27标项目部2472,贾庄水2232变压器【纯农排变】,10kV512庆都山线峪山庄6101台区,南放水水4542变压器,经销公司0842,高昌初级中学7568变压器,唐县高昌水泥制品厂配变,高昌镇南放水村配变,东高昌混864变压器,保定市南水北调工程建设委员会办公室10KV配变,马兴庄847变压器【纯农排变】,峪山庄教学点7582变压器,东高昌水6159台区变压器【纯农排变】,高昌屯4073变压器,庄头水8227【纯农排变","poweroffReason":"【停电原因】由于线路接地导致３５ＫＶ山阳变电站庆都山线５１２线路全线停电【变更送电】因抢修进度加快原因，送电时间由２２：００变更为１９：００【发布渠道】通过９５５９８发布","powerTime":"2019-10-06 18:40:31","powerComm":"已送电","subsNo":"","lineNo":"","tgNo":"","tgName":null,"infoStatus":"1","orgName":"国网唐县供电公司","typeName":null,"infoStatusName":null,"dateDay":null,"orgNos":null,"nowTime":null,"countyName":null,"streetName":null,"villageName":null,"roadName":null,"communityName":null,"tranName":null,"sdLineName":null,"cityCode":"1340622","cityName":"国网唐县供电公司","provinceCode":null,"stopTime":"2019-10-06 19:00:00","powerType":"全部","powerOffArea":"【全线路停电】停冯振彪水泥砖厂2445,南放水3165变压器,梦会面粉厂1849,东高昌水859变压器【纯农排变】,高昌初级中学7566变压器,高昌庄水857变压器,马兴庄教学点7580变压器,马兴庄4645变压器,东高昌水利10KV配变工程1新建工程,庄头村486变压器,北高昌混841变压器,龙山开发园1855变压器【纯农排变】,东高昌混825变压器,高昌店水5026变压器,北高昌838变压器,庄头水6125变压器【纯农排变】,高昌店西6695变压器,高昌屯0832变压器,东高昌水4458变压器,马兴庄848变压器【纯农排变】,庆都山水840变压器【纯农排变】,高昌庄水5025变压器【纯农排变】,南放水混用869变压器,永红砖厂0559,高昌屯3016变压器,庄头水4674变压器【纯农排变】,南放水868变压器,高昌店混用826变压器,河北景奥旅游开发有限公司新装7155,南放水水854变压器【纯农排变】,高昌店4035变压器,供电所专用6030变压器,北放水水利4863变压器【纯农排变】,北高昌水5241变压器【纯农排变】,东高昌水利10KV配变,唐县通源粮油购销有限公司新装6623,东高昌小学7593变压器,10kV512庆都山线北高昌6090台区,南高昌3430变压器,庄头水6128变压器【纯农排变】,高昌庄6149台区变压器,高昌店混5084变压器,贾庄水4516变压器【纯农排变】,北高昌混4970变压器,高昌屯833变压器,0673793126-唐县高昌镇北高昌村西水-专变-214342989-唐县高昌镇北高昌村西水高压新装6146,高昌水库0875,马兴庄827变压器,东高昌水4836变压器,东高昌水860变压器,庄头村823变压器,北高昌公墓6170台区变压器,马兴庄水4702变压器【纯农排变】,东高昌混1979变压器,高昌中心卫生院7597变压器 ,淑吕7683【纯农排变】,北放水855变压器【纯农排变】,南高昌水5024变压器【纯农排变】,庄头水4581变压器【纯农排变】,庆运水883变压器【纯农排变】,东高昌混4405变压器,南高昌836变压器,贾庄水4226变压器【纯农排变】,南高昌水882变压器【纯农排变】,马兴庄4749变压器【纯农排变】,高昌屯4640变压器【纯农排变】,庄头村东水7042变压器【纯农排变】,东高昌3345变压器【纯农排变】,峪山庄东坡6696变压器,高昌庄混用557变压器,老于砖厂0561,东高昌7946变压器,建民水845变压器【纯农排变】,庄头混7048变压器,南高昌5023变压器【纯农排变】,高昌店西水0876变压器,0387519326-保定市西大洋供水有限公司-专变-219675452-保定市西大洋供水有限公司10KV配电增容工程,高昌屯水5028变压器【纯农排变】,贾庄4703变压器【纯农排变】,高昌屯5027变压器【纯农排变】,北高昌中心小学7591变压器,庄头水1673变压器【纯农排变】,东高昌水6143变压器【纯农排变】,庆都山水4840变压器【纯农排变】,东高昌立功水1842变压器,东高昌7418变压器,贾庄4597变压器,北高昌混839变压器,东高昌南水0858变压器【纯农排变】,高昌镇政府6674变压器,贾庄487变压器,高昌屯2812变压器【纯农排变】,东高昌水7047变压器【纯农排变】,贾庄水4601变压器【纯农排变】,庄头村4045变压器,10kV512庆都山线南放水6087台区,峪山庄东水4530变压器,马兴庄4729变压器【纯农排变】,贾庄水4707变压器【纯农排变】,马兴庄4629台区变压器,山东水利工程局南水北调27标项目部2472,贾庄水2232变压器【纯农排变】,10kV512庆都山线峪山庄6101台区,南放水水4542变压器,经销公司0842,高昌初级中学7568变压器,唐县高昌水泥制品厂配变,高昌镇南放水村配变,东高昌混864变压器,保定市南水北调工程建设委员会办公室10KV配变,马兴庄847变压器【纯农排变】,峪山庄教学点7582变压器,东高昌水6159台区变压器【纯农排变】,高昌屯4073变压器,庄头水8227【纯农排变","powerOffReason":"【停电原因】由于线路接地导致３５ＫＶ山阳变电站庆都山线５１２线路全线停电【变更送电】因抢修进度加快原因，送电时间由２２：００变更为１９：００【发布渠道】通过９５５９８发布","powerOffId":"2019100613000099"},{"poweroffId":2019100613000069,"sgpoweroffId":null,"subsName":"","lineName":"苑庄线513","pubTranName":"石井泰占,王社子井,石井粉条厂,石井柿子沟井【纯农排变】,国庆石厂,石井村西井,石井柿子沟2号（统管）,","scope":"【影响街道/乡镇】石井乡 【高危重要客户】无 【影响客户】老王加油站、国庆加油站、柿子沟饭店、乐逍遥饭店","startTime":"2019-10-15 06:30:00","stopDate":"2019-10-15 18:00:00","orgNo":"1340617","typeCode":"计划停电","poweroffArea":"【分支停电】停石井柿子沟2号（统管）,石井泰占,王社子井,石井粉条厂,石井柿子沟井【纯农排变】,国庆石厂,石井村西井","poweroffReason":"【停电原因】由于配变接火导致３５ＫＶ石井变电站苑庄线５１３线路０４号杆北分支停电 【变更送电】无 【发布渠道】满城县有线电视台（１０月０６日１９：００－２０：００至１０月１４日１９：００－２０：００）屏幕上方滚动","powerTime":"2019-10-15 17:55:02","powerComm":"已送电","subsNo":"","lineNo":"","tgNo":"","tgName":null,"infoStatus":"1","orgName":"国网满城县供电公司","typeName":null,"infoStatusName":null,"dateDay":null,"orgNos":null,"nowTime":null,"countyName":null,"streetName":null,"villageName":null,"roadName":null,"communityName":null,"tranName":null,"sdLineName":null,"cityCode":"1340617","cityName":"国网满城县供电公司","provinceCode":null,"stopTime":"2019-10-15 18:00:00","powerType":"全部","powerOffArea":"【分支停电】停石井柿子沟2号（统管）,石井泰占,王社子井,石井粉条厂,石井柿子沟井【纯农排变】,国庆石厂,石井村西井","powerOffReason":"【停电原因】由于配变接火导致３５ＫＶ石井变电站苑庄线５１３线路０４号杆北分支停电 【变更送电】无 【发布渠道】满城县有线电视台（１０月０６日１９：００－２０：００至１０月１４日１９：００－２０：００）屏幕上方滚动","powerOffId":"2019100613000069"},{"poweroffId":2019100613000050,"sgpoweroffId":null,"subsName":"","lineName":"10kV516营北庄线","pubTranName":"怀德营公用照明8台区,怀德营公用照明7台区,怀德营公用照明2台区,","scope":"【影响街道/乡镇】叮咛店镇【高危重要客户】无【影响客户】怀德营村","startTime":"2019-10-06 12:30:00","stopDate":"2019-10-06 15:30:00","orgNo":"1340610","typeCode":"其他临时停电","poweroffArea":"【分支停电】停怀德营公用照明7台区,怀德营公用照明2台区,怀德营公用照明8台区","poweroffReason":"【停电原因】由于电杆倾斜需停电进行紧急检修导致３５ＫＶ周村变电站１０ＫＶ５１６营北庄线路怀德营村南分支０８号杆０９号隔离开关以下线路停电 【变更送电】因抢修进度加快原因，送电时间由１７：００变更为１５：３０ 【发布渠道】９５５９８","powerTime":"2019-10-06 14:58:42","powerComm":"已送电","subsNo":"","lineNo":"","tgNo":"","tgName":null,"infoStatus":"1","orgName":"国网定州市供电公司","typeName":null,"infoStatusName":null,"dateDay":null,"orgNos":null,"nowTime":null,"countyName":null,"streetName":null,"villageName":null,"roadName":null,"communityName":null,"tranName":null,"sdLineName":null,"cityCode":"1340610","cityName":"国网定州市供电公司","provinceCode":null,"stopTime":"2019-10-06 15:30:00","powerType":"全部","powerOffArea":"【分支停电】停怀德营公用照明7台区,怀德营公用照明2台区,怀德营公用照明8台区","powerOffReason":"【停电原因】由于电杆倾斜需停电进行紧急检修导致３５ＫＶ周村变电站１０ＫＶ５１６营北庄线路怀德营村南分支０８号杆０９号隔离开关以下线路停电 【变更送电】因抢修进度加快原因，送电时间由１７：００变更为１５：３０ 【发布渠道】９５５９８","powerOffId":"2019100613000050"},{"poweroffId":2019100613000049,"sgpoweroffId":null,"subsName":"","lineName":"王各庄线516","pubTranName":"管家佐0829变压器,豆铺水利6660变压器【纯农排变】,王各庄1313变压器,北长峪7039变压器【光伏】,王合庄小学7282变压器,三道岗小学7281变压器,老姑4758变压器,北长峪村西水利变压器,豆铺1319变压器,北长峪小学6922变压器,王合庄6942变压器,豆铺5038变压器,全胜庄7034变压器【光伏】,三道岗7057变压器,闫庄子小学7283变压器,柏山0784变压器,柏山6943变压器,老姑0810变压器,葛庄5233变压器,闫庄子1321变压器,王合庄6941变压器,豆铺小学6936变压器,葛庄1317台区变压器,北长峪7033变压器【光伏】,老姑小学6940变压器,管家佐小学6939变压器,侯合庄4577变压器,葛庄小学6937变压器,齐家佐中学6925变压器,北长峪3160变压器,北长峪0816变压器,南齐家佐3162变压器,王各庄4930变压器,管家佐1419变压器,闫庄子2627变压器,北庄子0806变压器,河南村7003变压器【光伏】,侯合庄1315变压器,葛庄6129变压器,老姑4781变压器,齐家佐中学6924变压器,豆铺村4717变压器,闫庄子4931变压器,葛庄7157变压器【纯农排变】,豆铺村7616变压器【光伏】,北长峪7006变压器【纯农排变】,葛庄7156变压器【纯农排变】,管家佐4668变压器,葛庄1318变压器,管家佐4630变压器,葛庄2123变压器,侯合庄1316变压器,葛庄7432变压器,候合庄小学6938变压器,闫庄子1322变压器【纯农排变】,豆铺村7617变压器【光伏】,王各庄1314变压器,","scope":"【影响街道/乡镇】白合镇【高危重要客户】无【影响客户】柏山村、各庄村、北长峪村、南齐家佐村、后各庄村、老姑村、北庄子村、阎庄子村、管家佐村、王各庄村、豆铺村","startTime":"2019-10-06 10:30:00","stopDate":"2019-10-06 11:30:00","orgNo":"1340622","typeCode":"电网故障停限电","poweroffArea":"【全线路停电】停管家佐小学6939变压器,北庄子2186变压器,保定雄盛建材加工有限公司ZR7650,唐县博鑫加油站10KV配电工程4844,侯合庄4577变压器,葛庄小学6937变压器,卧佛寺水库,唐县齐家佐乡马家峪村农业排灌计量点P7056,齐家佐中学6925变压器,唐县盛玉石料厂3324,保定雄盛建材加工有限公司计量点7994,唐县齐家佐乡王合庄村村民委员,侯合庄1315变压器,葛庄6129变压器,唐县王各庄石料厂3256,老姑4781变压器,齐家佐中学6924变压器,唐县国泰建材销售有限公司5180,唐县白合镇白合碎石场,北长峪3160变压器,唐县鑫冀建材加工有限公司新装6682,北长峪0816变压器,南齐家佐3162变压器,唐县葛庄兴民建材有限公司2921,王各庄4930变压器,卧佛寺灰粉厂2604,豆铺村4717变压器,闫庄子4931变压器,王合庄石料厂1871,唐县白合镇柏江村村民委员会10KV配变,李建国1754,王各庄1312变压器【纯农排变】,唐县国泰建材销售有限公司唐县雅天分公司新装6558,葛庄1317台区变压器,唐县和泰高钙石粉加工厂10KV配变,管家佐1419变压器,保能唐县光伏电力开发有限公司5300,唐县齐家佐乡管家佐村村民委员会10KV配变,闫庄子2627变压器,北庄子0806变压器,唐县白合镇白合碎石厂增容6672,南齐家佐1843变压器,河南村7003变压器【光伏】,唐县齐家佐乡豆铺村,唐县齐家佐乡闫家庄村民委员会新装7769,盛玉石料厂1329,保定雄盛建材加工有限公司XZ7343,保定雄盛建材加工有限公司XZ7342,葛庄7157变压器【纯农排变】,豆铺村7616变压器【光伏】,北长峪7006变压器【纯农排变】,葛庄7156变压器【纯农排变】,管家佐4668变压器,唐县齐家佐乡北长峪村,葛庄1318变压器,唐县祥宇水泥砖厂变压器,管家佐4630变压器,豆铺村7617变压器【光伏】,王各庄1314变压器,河北唐盛畜禽饲养有限公司计量点,管家佐0829变压器,豆铺水利6660变压器【纯农排变】,王各庄1313变压器,豆铺2893变压器【纯农排变】,唐县白合镇歇马村村民委员会7843,北长峪7039变压器【光伏】,河北交建工程有限公司计量点3171,唐县益民石材有限公司2792,管家佐张小月1761,唐县齐家佐乡闫家庄村民委员会XZ7782,中国移动通信集团河北有限公司唐县分公司新装6975,北长峪小学6922变压器,王合庄6942变压器,豆铺5038变压器,全胜庄7034变压器【光伏】,唐县豆明矿产品加工厂,三道岗7057变压器,葛庄2123变压器,侯合庄1316变压器,唐县齐家佐乡王合庄村民委员会10KV配变,葛庄7432变压器,老姑0810变压器,葛庄5233变压器,闫庄子1321变压器,王合庄6941变压器,豆铺小学6936变压器,北长峪7033变压器【光伏】,唐县京远矿产品销售有限公司10KV配变,老姑小学6940变压器,王合庄小学7282变压器,三道岗小学7281变压器,候合庄小学6938变压器,闫庄子1322变压器【纯农排变】,唐县益民石材有限公司,闫庄子小学7283变压器,柏山0784变压器,中开胜达加工厂10KV配变,北长峪4792变压器,恒山庄园,红星木工厂0831,胜利砖厂0828,利民面粉厂0918,柏山6943变压器,老姑4758变压器,北长峪村西水利变压器,齐家佐三道岗村委会7057,豆铺1319变压器","poweroffReason":"【停电原因】由于宋立砖厂避雷器击穿导致３５ＫＶ齐家佐变电站王各庄线５１６线路全线停电【变更送电】因抢修进度加快原因，送电时间由２０：００变更为１１：３０【发布渠道】通过９５５９８发布","powerTime":"2019-10-06 10:56:34","powerComm":"已送电","subsNo":"","lineNo":"","tgNo":"","tgName":null,"infoStatus":"1","orgName":"国网唐县供电公司","typeName":null,"infoStatusName":null,"dateDay":null,"orgNos":null,"nowTime":null,"countyName":null,"streetName":null,"villageName":null,"roadName":null,"communityName":null,"tranName":null,"sdLineName":null,"cityCode":"1340622","cityName":"国网唐县供电公司","provinceCode":null,"stopTime":"2019-10-06 11:30:00","powerType":"全部","powerOffArea":"【全线路停电】停管家佐小学6939变压器,北庄子2186变压器,保定雄盛建材加工有限公司ZR7650,唐县博鑫加油站10KV配电工程4844,侯合庄4577变压器,葛庄小学6937变压器,卧佛寺水库,唐县齐家佐乡马家峪村农业排灌计量点P7056,齐家佐中学6925变压器,唐县盛玉石料厂3324,保定雄盛建材加工有限公司计量点7994,唐县齐家佐乡王合庄村村民委员,侯合庄1315变压器,葛庄6129变压器,唐县王各庄石料厂3256,老姑4781变压器,齐家佐中学6924变压器,唐县国泰建材销售有限公司5180,唐县白合镇白合碎石场,北长峪3160变压器,唐县鑫冀建材加工有限公司新装6682,北长峪0816变压器,南齐家佐3162变压器,唐县葛庄兴民建材有限公司2921,王各庄4930变压器,卧佛寺灰粉厂2604,豆铺村4717变压器,闫庄子4931变压器,王合庄石料厂1871,唐县白合镇柏江村村民委员会10KV配变,李建国1754,王各庄1312变压器【纯农排变】,唐县国泰建材销售有限公司唐县雅天分公司新装6558,葛庄1317台区变压器,唐县和泰高钙石粉加工厂10KV配变,管家佐1419变压器,保能唐县光伏电力开发有限公司5300,唐县齐家佐乡管家佐村村民委员会10KV配变,闫庄子2627变压器,北庄子0806变压器,唐县白合镇白合碎石厂增容6672,南齐家佐1843变压器,河南村7003变压器【光伏】,唐县齐家佐乡豆铺村,唐县齐家佐乡闫家庄村民委员会新装7769,盛玉石料厂1329,保定雄盛建材加工有限公司XZ7343,保定雄盛建材加工有限公司XZ7342,葛庄7157变压器【纯农排变】,豆铺村7616变压器【光伏】,北长峪7006变压器【纯农排变】,葛庄7156变压器【纯农排变】,管家佐4668变压器,唐县齐家佐乡北长峪村,葛庄1318变压器,唐县祥宇水泥砖厂变压器,管家佐4630变压器,豆铺村7617变压器【光伏】,王各庄1314变压器,河北唐盛畜禽饲养有限公司计量点,管家佐0829变压器,豆铺水利6660变压器【纯农排变】,王各庄1313变压器,豆铺2893变压器【纯农排变】,唐县白合镇歇马村村民委员会7843,北长峪7039变压器【光伏】,河北交建工程有限公司计量点3171,唐县益民石材有限公司2792,管家佐张小月1761,唐县齐家佐乡闫家庄村民委员会XZ7782,中国移动通信集团河北有限公司唐县分公司新装6975,北长峪小学6922变压器,王合庄6942变压器,豆铺5038变压器,全胜庄7034变压器【光伏】,唐县豆明矿产品加工厂,三道岗7057变压器,葛庄2123变压器,侯合庄1316变压器,唐县齐家佐乡王合庄村民委员会10KV配变,葛庄7432变压器,老姑0810变压器,葛庄5233变压器,闫庄子1321变压器,王合庄6941变压器,豆铺小学6936变压器,北长峪7033变压器【光伏】,唐县京远矿产品销售有限公司10KV配变,老姑小学6940变压器,王合庄小学7282变压器,三道岗小学7281变压器,候合庄小学6938变压器,闫庄子1322变压器【纯农排变】,唐县益民石材有限公司,闫庄子小学7283变压器,柏山0784变压器,中开胜达加工厂10KV配变,北长峪4792变压器,恒山庄园,红星木工厂0831,胜利砖厂0828,利民面粉厂0918,柏山6943变压器,老姑4758变压器,北长峪村西水利变压器,齐家佐三道岗村委会7057,豆铺1319变压器","powerOffReason":"【停电原因】由于宋立砖厂避雷器击穿导致３５ＫＶ齐家佐变电站王各庄线５１６线路全线停电【变更送电】因抢修进度加快原因，送电时间由２０：００变更为１１：３０【发布渠道】通过９５５９８发布","powerOffId":"2019100613000049"},{"poweroffId":2019100613000043,"sgpoweroffId":null,"subsName":"","lineName":"10kV518桑园工业线","pubTranName":"杨北针织厂,杨北地毯纱厂,保定美雅纺织有限公司,保定美雅,杨北农排6台区【纯农排变】,保定双兴包装制品有限公司,","scope":"【影响街道/乡镇】桑元镇【高危重要客户】无【影响客户】桑元工业区","startTime":"2019-10-15 07:30:00","stopDate":"2019-10-15 18:00:00","orgNo":"1340616","typeCode":"计划停电","poweroffArea":"【全线路停电】停保定美雅纺织有限公司,杨北地毯纱厂,保定美雅,杨北针织厂,保定双兴包装制品有限公司,杨北农排6台区【纯农排变】","poweroffReason":"【停电原因】由于保护装置插件更换导致３５ＫＶ桑园变电站１０ＫＶ桑园工业５１８线路全线停电【变更送电】无【发布渠道】蠡县电视台（２０１９年１０月０６日至２０１９年１０月１４日２０：００至２２：００之间）屏幕上方滚动","powerTime":"2019-10-15 17:05:22","powerComm":"已送电","subsNo":"","lineNo":"","tgNo":"","tgName":null,"infoStatus":"1","orgName":"国网蠡县供电公司","typeName":null,"infoStatusName":null,"dateDay":null,"orgNos":null,"nowTime":null,"countyName":null,"streetName":null,"villageName":null,"roadName":null,"communityName":null,"tranName":null,"sdLineName":null,"cityCode":"1340616","cityName":"国网蠡县供电公司","provinceCode":null,"stopTime":"2019-10-15 18:00:00","powerType":"全部","powerOffArea":"【全线路停电】停保定美雅纺织有限公司,杨北地毯纱厂,保定美雅,杨北针织厂,保定双兴包装制品有限公司,杨北农排6台区【纯农排变】","powerOffReason":"【停电原因】由于保护装置插件更换导致３５ＫＶ桑园变电站１０ＫＶ桑园工业５１８线路全线停电【变更送电】无【发布渠道】蠡县电视台（２０１９年１０月０６日至２０１９年１０月１４日２０：００至２２：００之间）屏幕上方滚动","powerOffId":"2019100613000043"},{"poweroffId":2019100613000023,"sgpoweroffId":null,"subsName":"","lineName":"申庄线513","pubTranName":"10Kv513申庄线郎五庄12号【纯农排变】,10Kv513申庄线申庄15号,10Kv513申庄线马庄9号,10Kv513申庄线申庄12号,10Kv513申庄线高林村13号,10Kv513申庄线翟庄11号【纯农排变】,10Kv513申庄线申庄3号,10Kv513申庄线申庄19号,10Kv513申庄线侯家窑2号,10Kv513申庄线马庄10号【纯农排变】,10Kv513申庄线高林村17号【纯农排变】,10Kv513申庄线侯家窑1号,10Kv513申庄线申庄20号,10Kv513申庄线翟庄17号【纯农排变】,徐水县四通散热器制造有限公司,10Kv513申庄线翟庄10号,10Kv513申庄线翟庄13号【纯农排变】,10Kv513申庄线申庄14号,高林村镇申庄小学,10Kv513申庄线马庄2号,10Kv513申庄线申庄11号,10Kv513申庄线马庄8号,10Kv513申庄线申庄5号,10Kv513申庄线申庄6号【纯农排变】,高顺录养猪厂,10Kv513申庄线申庄7号,10Kv513申庄线马庄5号,10Kv513申庄线马庄3号,高林村砖厂,10Kv513申庄线马庄6号,10Kv513申庄线申庄20号【纯农排变】,10Kv513申庄线马庄7号,10Kv513申庄线冯庄1号,10Kv513申庄线翟庄18号,10Kv513申庄线申庄22号,10Kv513申庄线马庄4号,10Kv513申庄线高林村16号,10Kv513申庄线翟庄9号【纯农排变】,10Kv513申庄线申庄18号【纯农排变】,10Kv513申庄线申庄2号【纯农排变】,10Kv513申庄线申庄16号,10Kv513申庄线申庄2号,10kV513申庄线马庄12号,10Kv513申庄线马庄1号,10Kv513申庄线申庄13号,保定市徐水区高林村镇申庄幼儿园,10Kv513申庄线高林村12号,10Kv513申庄线高林村15号变压器,中国移动通信集团河北有限公司徐水分公司,10Kv513申庄线申庄9号【纯农排变】,10Kv513申庄线申庄4号,10Kv513申庄线高林村14号,10Kv513申庄线侯家窑3号【纯农排变】,10Kv513申庄线申庄10号,10Kv513申庄线冯庄3号,10Kv513申庄线申庄14号,10Kv513申庄线申庄15号【纯农排变】,10Kv513申庄线马庄3号【纯农排变】,10kV513申庄线马庄11号,10Kv513申庄线高林村14号【纯农排变】,10Kv513申庄线郎五庄7号,10Kv513申庄线申庄1号,10Kv513申庄线冯庄4号【纯农排变】,10Kv513申庄线申庄17号,10Kv513申庄线冯庄2号,10Kv513申庄线高林村10号变压器,10Kv513申庄线申庄8号,10Kv513申庄线申庄21号【纯农排变】,","scope":"【影响街道/乡镇】史端乡 【高危重要客户】无 【影响客户】冯庄、马庄、翟庄、高林村、侯家窑、申庄","startTime":"2019-10-06 07:10:36","stopDate":"2019-10-06 13:30:00","orgNo":"1340605","typeCode":"电网故障停限电","poweroffArea":"【全线路停电】停 10Kv513申庄线郎五庄7号, 10Kv513申庄线申庄1号, 10Kv513申庄线冯庄4号【纯农排变】, 10Kv513申庄线申庄17号, 10Kv513申庄线冯庄2号,10Kv513申庄线高林村10号变压器, 10Kv513申庄线申庄8号, 10Kv513申庄线申庄21号【纯农排变】, 10Kv513申庄线申庄16号, 10Kv513申庄线申庄2号, 10Kv513申庄线马庄1号, 10Kv513申庄线申庄13号, 10Kv513申庄线高林村15号变压器, 10Kv513申庄线申庄9号【纯农排变】, 10Kv513申庄线申庄4号, 10Kv513申庄线高林村14号, 10Kv513申庄线侯家窑3号【纯农排变】, 10Kv513申庄线申庄10号, 10Kv513申庄线冯庄3号, 10Kv513申庄线马庄7号, 10Kv513申庄线翟庄11号【纯农排变】, 10Kv513申庄线郎五庄12号【纯农排变】, 10Kv513申庄线申庄15号, 10Kv513申庄线马庄9号, 10Kv513申庄线申庄12号,10Kv513申庄线高林村13号, 10Kv513申庄线侯家窑2号, 10Kv513申庄线马庄10号【纯农排变】,10Kv513申庄线高林村17号【纯农排变】, 10Kv513申庄线侯家窑1号, 10Kv513申庄线申庄20号,徐水县四通散热器制造有限公司, 10Kv513申庄线翟庄10号, 10Kv513申庄线申庄14号, 10Kv513申庄线马庄2号, 10Kv513申庄线马庄8号, 10Kv513申庄线申庄5号,高顺录养猪厂, 10Kv513申庄线马庄5号,高林村砖厂, 10Kv513申庄线马庄6号, 10Kv513申庄线冯庄1号, 10Kv513申庄线翟庄18号, 10Kv513申庄线马庄4号,10Kv513申庄线高林村12号, 10Kv513申庄线高林村16号,10Kv513申庄线翟庄9号【纯农排变】, 10Kv513申庄线申庄18号【纯农排变】, 10Kv513申庄线申庄3号, 10Kv513申庄线申庄19号, 10Kv513申庄线翟庄17号【纯农排变】, 10Kv513申庄线翟庄13号【纯农排变】,高林村镇申庄小学, 10Kv513申庄线申庄11号, 10Kv513申庄线申庄6号【纯农排变】, 10Kv513申庄线申庄7号, 10Kv513申庄线马庄3号,10Kv513申庄线申庄20号【纯农排变】,10Kv513申庄线申庄22号,10Kv513申庄线申庄2号【纯农排变】,10kV513申庄线马庄12号,保定市徐水区高林村镇申庄幼儿园,中国移动通信集团河北有限公司徐水分公司,10Kv513申庄线申庄14号,10Kv513申庄线申庄15号【纯农排变】,10Kv513申庄线马庄3号【纯农排变】,10kV513申庄线马庄11号,10Kv513申庄线高林村14号【纯农排变】","poweroffReason":"【停电原因】由于Ｂ相接地导致３５ＫＶ郎五庄变电站申庄５１３线路全线停电 【变更送电】因抢修进度加快原因，送电时间由１６:００变更为１３:３０ 【发布渠道】通过９５５９８发布","powerTime":"2019-10-06 13:05:50","powerComm":"已送电","subsNo":"","lineNo":"","tgNo":"","tgName":null,"infoStatus":"1","orgName":"国网徐水县供电公司","typeName":null,"infoStatusName":null,"dateDay":null,"orgNos":null,"nowTime":null,"countyName":null,"streetName":null,"villageName":null,"roadName":null,"communityName":null,"tranName":null,"sdLineName":null,"cityCode":"1340605","cityName":"国网徐水县供电公司","provinceCode":null,"stopTime":"2019-10-06 13:30:00","powerType":"全部","powerOffArea":"【全线路停电】停 10Kv513申庄线郎五庄7号, 10Kv513申庄线申庄1号, 10Kv513申庄线冯庄4号【纯农排变】, 10Kv513申庄线申庄17号, 10Kv513申庄线冯庄2号,10Kv513申庄线高林村10号变压器, 10Kv513申庄线申庄8号, 10Kv513申庄线申庄21号【纯农排变】, 10Kv513申庄线申庄16号, 10Kv513申庄线申庄2号, 10Kv513申庄线马庄1号, 10Kv513申庄线申庄13号, 10Kv513申庄线高林村15号变压器, 10Kv513申庄线申庄9号【纯农排变】, 10Kv513申庄线申庄4号, 10Kv513申庄线高林村14号, 10Kv513申庄线侯家窑3号【纯农排变】, 10Kv513申庄线申庄10号, 10Kv513申庄线冯庄3号, 10Kv513申庄线马庄7号, 10Kv513申庄线翟庄11号【纯农排变】, 10Kv513申庄线郎五庄12号【纯农排变】, 10Kv513申庄线申庄15号, 10Kv513申庄线马庄9号, 10Kv513申庄线申庄12号,10Kv513申庄线高林村13号, 10Kv513申庄线侯家窑2号, 10Kv513申庄线马庄10号【纯农排变】,10Kv513申庄线高林村17号【纯农排变】, 10Kv513申庄线侯家窑1号, 10Kv513申庄线申庄20号,徐水县四通散热器制造有限公司, 10Kv513申庄线翟庄10号, 10Kv513申庄线申庄14号, 10Kv513申庄线马庄2号, 10Kv513申庄线马庄8号, 10Kv513申庄线申庄5号,高顺录养猪厂, 10Kv513申庄线马庄5号,高林村砖厂, 10Kv513申庄线马庄6号, 10Kv513申庄线冯庄1号, 10Kv513申庄线翟庄18号, 10Kv513申庄线马庄4号,10Kv513申庄线高林村12号, 10Kv513申庄线高林村16号,10Kv513申庄线翟庄9号【纯农排变】, 10Kv513申庄线申庄18号【纯农排变】, 10Kv513申庄线申庄3号, 10Kv513申庄线申庄19号, 10Kv513申庄线翟庄17号【纯农排变】, 10Kv513申庄线翟庄13号【纯农排变】,高林村镇申庄小学, 10Kv513申庄线申庄11号, 10Kv513申庄线申庄6号【纯农排变】, 10Kv513申庄线申庄7号, 10Kv513申庄线马庄3号,10Kv513申庄线申庄20号【纯农排变】,10Kv513申庄线申庄22号,10Kv513申庄线申庄2号【纯农排变】,10kV513申庄线马庄12号,保定市徐水区高林村镇申庄幼儿园,中国移动通信集团河北有限公司徐水分公司,10Kv513申庄线申庄14号,10Kv513申庄线申庄15号【纯农排变】,10Kv513申庄线马庄3号【纯农排变】,10kV513申庄线马庄11号,10Kv513申庄线高林村14号【纯农排变】","powerOffReason":"【停电原因】由于Ｂ相接地导致３５ＫＶ郎五庄变电站申庄５１３线路全线停电 【变更送电】因抢修进度加快原因，送电时间由１６:００变更为１３:３０ 【发布渠道】通过９５５９８发布","powerOffId":"2019100613000023"},{"poweroffId":2019100613000021,"sgpoweroffId":null,"subsName":"","lineName":"袁辛线518","pubTranName":"10Kv518袁辛线小庄1号,","scope":"【影响街道/乡镇】高林村镇、安肃镇 【高危重要客户】无 【影响客户】大庄村、小庄村、北孤庄营村、南孤庄营村、中孤庄营、白塔铺村、小辛安村、袁家坟","startTime":"2019-10-06 07:10:00","stopDate":"2019-10-06 13:50:00","orgNo":"1340605","typeCode":"电网故障停限电","poweroffArea":"【全线路停电】停保定市徐水区住房和城乡建设局,北孤庄营4号【纯农排变】,河北科华防静电地板制造有限公司,徐水县平易路石油天然气配件有限公司3号,徐水县来宾水泥制品变压器,徐水县交通运输局,10Kv518袁辛线大庄11号,10Kv518袁辛线白塔铺12号,10Kv518袁辛线小庄6号,10Kv518袁辛线大庄9号,河北徐水新洋丰肥业有限公司,徐水县平易路石油天然气配件有限公司1号,南孤庄营11号【纯农排变】,10Kv518袁辛线大庄1号,10Kv518袁辛线大庄12号,10Kv518袁辛线大庄6号,中孤庄营3号,10Kv518袁辛线大庄3号,10Kv518袁辛线小庄7号【纯农排变】,10Kv518袁辛线小庄3号【纯农排变】,10Kv518袁辛线大庄4号【纯农排变】, 10Kv518袁辛线小辛安3号,10Kv518袁辛线小庄2号,10Kv518袁辛线大庄14号【纯农排变】,10Kv518袁辛线袁家坟2号,10Kv518袁辛线袁家坟3号,南孤庄营7号,北孤庄营1号【纯农排变】,徐水县平易路石油天然气配件有限公司2号, 10Kv518袁辛线白塔铺8号【纯农排变】,北孤营3号【纯农排变】,10Kv518袁辛线白塔铺7号,徐水县荣泰新型建材有限公司,10Kv518袁辛线大庄8号,10Kv518袁辛线小庄4号【纯农排变】,10Kv518袁辛线大庄2号,10Kv518袁辛线袁家坟1号,10Kv518袁辛线白塔铺17号,南孤庄营6号,10Kv518袁辛线小庄5号,徐水县平易路石油天然气配件有限公司,10Kv518袁辛线白塔铺13号,河北德力食品有限公司,10Kv518袁辛线白塔铺6号,10Kv518袁辛线大庄10号,10Kv518袁辛线大庄5号,10Kv518袁辛线大庄7号,10Kv518袁辛线小庄1号,变压器,10Kv518袁辛线小庄9号,10Kv518袁辛线大庄13号【纯农排变】, 10Kv518袁辛线小辛安4号【纯农排变】,10Kv518袁辛线小庄8号【纯农排变】","poweroffReason":"【停电原因】由于Ｂ相接地导致３５ＫＶ郎五庄变电站袁辛线５１８线路全线停电 【变更送电】因抢修进度加快原因，送电时间由１６:００变更为１３:５０ 【发布渠道】通过９５５９８发布","powerTime":"2019-10-06 13:12:53","powerComm":"已送电","subsNo":"","lineNo":"","tgNo":"","tgName":null,"infoStatus":"1","orgName":"国网徐水县供电公司","typeName":null,"infoStatusName":null,"dateDay":null,"orgNos":null,"nowTime":null,"countyName":null,"streetName":null,"villageName":null,"roadName":null,"communityName":null,"tranName":null,"sdLineName":null,"cityCode":"1340605","cityName":"国网徐水县供电公司","provinceCode":null,"stopTime":"2019-10-06 13:50:00","powerType":"全部","powerOffArea":"【全线路停电】停保定市徐水区住房和城乡建设局,北孤庄营4号【纯农排变】,河北科华防静电地板制造有限公司,徐水县平易路石油天然气配件有限公司3号,徐水县来宾水泥制品变压器,徐水县交通运输局,10Kv518袁辛线大庄11号,10Kv518袁辛线白塔铺12号,10Kv518袁辛线小庄6号,10Kv518袁辛线大庄9号,河北徐水新洋丰肥业有限公司,徐水县平易路石油天然气配件有限公司1号,南孤庄营11号【纯农排变】,10Kv518袁辛线大庄1号,10Kv518袁辛线大庄12号,10Kv518袁辛线大庄6号,中孤庄营3号,10Kv518袁辛线大庄3号,10Kv518袁辛线小庄7号【纯农排变】,10Kv518袁辛线小庄3号【纯农排变】,10Kv518袁辛线大庄4号【纯农排变】, 10Kv518袁辛线小辛安3号,10Kv518袁辛线小庄2号,10Kv518袁辛线大庄14号【纯农排变】,10Kv518袁辛线袁家坟2号,10Kv518袁辛线袁家坟3号,南孤庄营7号,北孤庄营1号【纯农排变】,徐水县平易路石油天然气配件有限公司2号, 10Kv518袁辛线白塔铺8号【纯农排变】,北孤营3号【纯农排变】,10Kv518袁辛线白塔铺7号,徐水县荣泰新型建材有限公司,10Kv518袁辛线大庄8号,10Kv518袁辛线小庄4号【纯农排变】,10Kv518袁辛线大庄2号,10Kv518袁辛线袁家坟1号,10Kv518袁辛线白塔铺17号,南孤庄营6号,10Kv518袁辛线小庄5号,徐水县平易路石油天然气配件有限公司,10Kv518袁辛线白塔铺13号,河北德力食品有限公司,10Kv518袁辛线白塔铺6号,10Kv518袁辛线大庄10号,10Kv518袁辛线大庄5号,10Kv518袁辛线大庄7号,10Kv518袁辛线小庄1号,变压器,10Kv518袁辛线小庄9号,10Kv518袁辛线大庄13号【纯农排变】, 10Kv518袁辛线小辛安4号【纯农排变】,10Kv518袁辛线小庄8号【纯农排变】","powerOffReason":"【停电原因】由于Ｂ相接地导致３５ＫＶ郎五庄变电站袁辛线５１８线路全线停电 【变更送电】因抢修进度加快原因，送电时间由１６:００变更为１３:５０ 【发布渠道】通过９５５９８发布","powerOffId":"2019100613000021"}],"pageModel":{"pageNow":526,"totalCount":10973,"totalPage":1098,"tableRows":0,"pageCount":10,"beginCount":5250},"isExperi":"1"}