{"message":"","today":"2020-06-15","seleList":[{"poweroffId":2019100613000019,"sgpoweroffId":null,"subsName":"","lineName":"丁申线514","pubTranName":"10kV514丁申线丁庄18号,10Kv514丁申线翟庄20号【纯农排变】,10kV514丁申线丁庄17号,10Kv514丁申线丁庄1号,郎五庄小学丁庄教学点,10Kv514丁申线丁庄6号,翟庄21号,","scope":"【影响街道/乡镇】高林村镇 【高危重要客户】无 【影响客户】翟庄、郎伍庄、丁庄","startTime":"2019-10-06 07:10:38","stopDate":"2019-10-06 13:50:00","orgNo":"1340605","typeCode":"电网故障停限电","poweroffArea":"【全线路停电】停 10Kv514丁申线丁庄1号,10Kv514丁申线丁庄1号【纯农排变】, 10Kv514丁申线翟庄4号,10kV514丁申线郎伍庄16号,10Kv514丁申线翟庄8号【纯农排变】,10Kv514丁申线翟庄7号【纯农排变】,郎五庄小学丁庄教学点, 10Kv514丁申线翟庄12号,保定市方大木材加工有限公司, 10Kv514丁申线丁庄12号, 10Kv514丁申线丁庄14号【纯农排变】,10Kv514丁申线翟庄2号【纯农排变】, 10Kv514丁申线丁庄8号【纯农排变】, 10Kv514丁申线翟庄6号【纯农排变】,农场二队1号,大午农牧集团公司葡萄基地4号,河北大午农牧有限公司, 10Kv514丁申线翟庄1号,农场一分场5号,农场一队1号,农场一分场4号,农场二队5号,10Kv514丁申线翟庄14号【纯农排变】,10kV514丁申线丁庄3号【纯农排变】,翟庄21号,0548854370-河北大午农牧集团有限公司-专变-48191429-河北大午农牧集团有限公司14号, 10Kv514丁申线丁庄4号, 10Kv514丁申线丁庄16号, 10Kv514丁申线丁庄2号, 10Kv514丁申线翟庄5号, 10Kv514丁申线丁庄5号,保定农场二分场,河北大午农牧集团公司6号, 10Kv514丁申线翟庄3号,大午葡萄基地9号,河北大午农牧集团肥业有限公司, 10Kv514丁申线丁庄6号, 10Kv514丁申线丁庄11号, 10Kv514丁申线翟庄15号,0469088090-农场二队-专变-81426832-农场二队,10Kv514丁申线丁庄7号【纯农排变】,河北省南水北调工程建设管理中心,河北大午农牧集团种禽有限公司,10kV514丁申线丁庄15号【纯农排变】, 10Kv514丁申线丁庄9号【纯农排变】, 10Kv514丁申线翟庄19号,10kV514丁申线丁庄18号,0469088061-农场二队-专变-129044336-农场二队,10Kv514丁申线翟庄20号【纯农排变】, 10Kv514丁申线翟庄16号, 10Kv514丁申线丁庄10号【纯农排变】,10kV514丁申线丁庄17号, 10Kv514丁申线丁庄13号【纯农排变】","poweroffReason":"【停电原因】由于Ｂ相接地导致３５ＫＶ郎五庄变电站丁申５１４线路全线停电 【变更送电】因抢修进度加快原因，送电时间由１６:００变更为１３:５０ 【发布渠道】通过９５５９８发布","powerTime":"2019-10-06 13:13:16","powerComm":"已送电","subsNo":"","lineNo":"","tgNo":"","tgName":null,"infoStatus":"1","orgName":"国网徐水县供电公司","typeName":null,"infoStatusName":null,"dateDay":null,"orgNos":null,"nowTime":null,"countyName":null,"streetName":null,"villageName":null,"roadName":null,"communityName":null,"tranName":null,"sdLineName":null,"cityCode":"1340605","cityName":"国网徐水县供电公司","provinceCode":null,"stopTime":"2019-10-06 13:50:00","powerType":"全部","powerOffArea":"【全线路停电】停 10Kv514丁申线丁庄1号,10Kv514丁申线丁庄1号【纯农排变】, 10Kv514丁申线翟庄4号,10kV514丁申线郎伍庄16号,10Kv514丁申线翟庄8号【纯农排变】,10Kv514丁申线翟庄7号【纯农排变】,郎五庄小学丁庄教学点, 10Kv514丁申线翟庄12号,保定市方大木材加工有限公司, 10Kv514丁申线丁庄12号, 10Kv514丁申线丁庄14号【纯农排变】,10Kv514丁申线翟庄2号【纯农排变】, 10Kv514丁申线丁庄8号【纯农排变】, 10Kv514丁申线翟庄6号【纯农排变】,农场二队1号,大午农牧集团公司葡萄基地4号,河北大午农牧有限公司, 10Kv514丁申线翟庄1号,农场一分场5号,农场一队1号,农场一分场4号,农场二队5号,10Kv514丁申线翟庄14号【纯农排变】,10kV514丁申线丁庄3号【纯农排变】,翟庄21号,0548854370-河北大午农牧集团有限公司-专变-48191429-河北大午农牧集团有限公司14号, 10Kv514丁申线丁庄4号, 10Kv514丁申线丁庄16号, 10Kv514丁申线丁庄2号, 10Kv514丁申线翟庄5号, 10Kv514丁申线丁庄5号,保定农场二分场,河北大午农牧集团公司6号, 10Kv514丁申线翟庄3号,大午葡萄基地9号,河北大午农牧集团肥业有限公司, 10Kv514丁申线丁庄6号, 10Kv514丁申线丁庄11号, 10Kv514丁申线翟庄15号,0469088090-农场二队-专变-81426832-农场二队,10Kv514丁申线丁庄7号【纯农排变】,河北省南水北调工程建设管理中心,河北大午农牧集团种禽有限公司,10kV514丁申线丁庄15号【纯农排变】, 10Kv514丁申线丁庄9号【纯农排变】, 10Kv514丁申线翟庄19号,10kV514丁申线丁庄18号,0469088061-农场二队-专变-129044336-农场二队,10Kv514丁申线翟庄20号【纯农排变】, 10Kv514丁申线翟庄16号, 10Kv514丁申线丁庄10号【纯农排变】,10kV514丁申线丁庄17号, 10Kv514丁申线丁庄13号【纯农排变】","powerOffReason":"【停电原因】由于Ｂ相接地导致３５ＫＶ郎五庄变电站丁申５１４线路全线停电 【变更送电】因抢修进度加快原因，送电时间由１６:００变更为１３:５０ 【发布渠道】通过９５５９８发布","powerOffId":"2019100613000019"},{"poweroffId":2019100613000017,"sgpoweroffId":null,"subsName":"","lineName":"郎伍庄线516","pubTranName":"郎伍庄新居民进线间隔配电变压器,","scope":"【影响街道/乡镇】高林村镇 【高危重要客户】无 【影响客户】郎五庄村","startTime":"2019-10-06 07:10:30","stopDate":"2019-10-06 13:50:00","orgNo":"1340605","typeCode":"电网故障停限电","poweroffArea":"【全线路停电】停河北大午农牧集团公司1号,10Kv516郎伍庄线郎五庄9号,保定市徐水区大午水厂,保定市徐水区大午温泉酒店有限公司,徐水县大午温泉度假村有限公司,10Kv516郎伍庄线郎五庄4号, 10Kv516郎伍庄线郎五庄20号【纯农排变】, 10Kv516郎伍庄线郎五庄6号【纯农排变】,徐水大午中学,大午集团公司7号,河北大午农牧集团种禽有限公司,10Kv516郎伍庄线郎五庄8号, 10Kv516郎伍庄线郎五庄19号,10Kv516郎伍庄线郎五庄11号【纯农排变】,大午集团公司8号（温泉）,徐水大午中学3号,10Kv516郎伍庄线郎五庄17号,河北大午集团公司5号,郎伍庄新居民进线间隔配电变压器,10Kv516郎伍庄线郎五庄18号,10Kv516郎伍庄线郎五庄10号【纯农排变】,10Kv516郎伍庄线郎五庄5号,10Kv516郎伍庄线郎五庄14号,10Kv516郎伍庄线郎五庄13号,10Kv516郎伍庄线郎五庄1号,10Kv516郎伍庄线郎五庄3号,10Kv516郎伍庄线郎五庄2号,徐水县大午温泉酒店,10Kv516郎伍庄线郎五庄15号","poweroffReason":"【停电原因】由于Ｂ相接地导致３５ＫＶ郎五庄变电站郎伍庄线５１６线路全线停电 【变更送电】因抢修进度加快原因，送电时间由１６:００变更为１３:５０ 【发布渠道】通过９５５９８发布","powerTime":"2019-10-06 13:14:04","powerComm":"已送电","subsNo":"","lineNo":"","tgNo":"","tgName":null,"infoStatus":"1","orgName":"国网徐水县供电公司","typeName":null,"infoStatusName":null,"dateDay":null,"orgNos":null,"nowTime":null,"countyName":null,"streetName":null,"villageName":null,"roadName":null,"communityName":null,"tranName":null,"sdLineName":null,"cityCode":"1340605","cityName":"国网徐水县供电公司","provinceCode":null,"stopTime":"2019-10-06 13:50:00","powerType":"全部","powerOffArea":"【全线路停电】停河北大午农牧集团公司1号,10Kv516郎伍庄线郎五庄9号,保定市徐水区大午水厂,保定市徐水区大午温泉酒店有限公司,徐水县大午温泉度假村有限公司,10Kv516郎伍庄线郎五庄4号, 10Kv516郎伍庄线郎五庄20号【纯农排变】, 10Kv516郎伍庄线郎五庄6号【纯农排变】,徐水大午中学,大午集团公司7号,河北大午农牧集团种禽有限公司,10Kv516郎伍庄线郎五庄8号, 10Kv516郎伍庄线郎五庄19号,10Kv516郎伍庄线郎五庄11号【纯农排变】,大午集团公司8号（温泉）,徐水大午中学3号,10Kv516郎伍庄线郎五庄17号,河北大午集团公司5号,郎伍庄新居民进线间隔配电变压器,10Kv516郎伍庄线郎五庄18号,10Kv516郎伍庄线郎五庄10号【纯农排变】,10Kv516郎伍庄线郎五庄5号,10Kv516郎伍庄线郎五庄14号,10Kv516郎伍庄线郎五庄13号,10Kv516郎伍庄线郎五庄1号,10Kv516郎伍庄线郎五庄3号,10Kv516郎伍庄线郎五庄2号,徐水县大午温泉酒店,10Kv516郎伍庄线郎五庄15号","powerOffReason":"【停电原因】由于Ｂ相接地导致３５ＫＶ郎五庄变电站郎伍庄线５１６线路全线停电 【变更送电】因抢修进度加快原因，送电时间由１６:００变更为１３:５０ 【发布渠道】通过９５５９８发布","powerOffId":"2019100613000017"},{"poweroffId":2019100613000015,"sgpoweroffId":null,"subsName":"","lineName":"城内520线","pubTranName":"泰元北大街6#,金台路4#,和平小区(于占河),河北景安房地产开发有限公司800KVA-易县520线,泰元北大街5#,靖远北大街1#,易县第二幼儿园变压器,迎晖北大街3#,养路工区,金台路12#,丁街铸造厂,电力局,东关村1#,易县易水医院变压器,金台路2#,泰元北大街4#,桂子渠村3#,易县景安物业服务有限公司变压器,金台路6#,金台路8#,厂东关村3#,厂东关村7#,0469134357-易县易州会馆餐饮有限责任公司-专变-46725335-易县易州会馆餐饮有限责任公司,燕都名苑小区,迎晖北大街4#,厂东关村2#,桂子渠村2#,易县易州会馆餐饮有限责任公司变压器,厂东关村9#,河北易县医院,易县京易职业培训学校,靖远北大街3#,易县兰宝商务酒店有限公司1000KVA,靖远北大街4#,靖远北大街5#,易县一千零一夜商务酒店有限公司,百益城,靖远北大街2#,厂东关村1#,金台路10#,云燕面粉厂,桂子渠村4,桂子渠1#,易县东剑家俱建材商贸有限公司,泰元北大街3#,易县创意文化石有限公司2#,","scope":"【影响街道/乡镇】易州镇、金台路、迎晖北大街、靖远北大街、泰元街【高危重要客户】无【影响客户】桂子渠村、厂城村、厂东关村","startTime":"2019-10-06 07:09:32","stopDate":"2019-10-06 09:40:00","orgNo":"1340625","typeCode":"电网故障停限电","poweroffArea":"【全线路停电】停易县东剑家俱建材商贸有限公司,泰元北大街5#,厂东关村7#,靖远北大街5#,泰元北大街4#,金台路2#,泰元北大街6#,易县易水医院变压器,靖远北大街1#,易县创意文化石有限公司2#,桂子渠村2#,易县京易职业培训学校,养路工区,金台路12#,厂东关村9#,易县一千零一夜商务酒店有限公司,靖远北大街4#,电力局,厂东关村1#,丁街铸造厂,金台路10#,桂子渠村4,河北易县医院,迎晖北大街3#,迎晖北大街4#,金台路4#,0469134357-易县易州会馆餐饮有限责任公司-专变-46725335-易县易州会馆餐饮有限责任公司,易县第二幼儿园变压器,东关村1#,易县兰宝商务酒店有限公司1000KVA,泰元北大街3#,桂子渠村3#,靖远北大街3#,厂东关村3#,百益城,金台路6#,桂子渠1#,和平小区(于占河),靖远北大街2#,易县景安物业服务有限公司变压器,厂东关村2#,河北景安房地产开发有限公司800KVA-易县520线,燕都名苑小区,云燕面粉厂,易县易州会馆餐饮有限责任公司变压器,金台路8#","poweroffReason":"【停电原因】由于速断跳闸导致１１０ＫＶ易县变电站城内５２０线路全线停电【变更送电】因抢修进度加快原因，送电时间由１７:００变更为０９:４０【发布渠道】通过９５５９８发布","powerTime":"2019-10-06 09:07:16","powerComm":"已送电","subsNo":"","lineNo":"","tgNo":"","tgName":null,"infoStatus":"1","orgName":"国网易县供电公司","typeName":null,"infoStatusName":null,"dateDay":null,"orgNos":null,"nowTime":null,"countyName":null,"streetName":null,"villageName":null,"roadName":null,"communityName":null,"tranName":null,"sdLineName":null,"cityCode":"1340625","cityName":"国网易县供电公司","provinceCode":null,"stopTime":"2019-10-06 09:40:00","powerType":"全部","powerOffArea":"【全线路停电】停易县东剑家俱建材商贸有限公司,泰元北大街5#,厂东关村7#,靖远北大街5#,泰元北大街4#,金台路2#,泰元北大街6#,易县易水医院变压器,靖远北大街1#,易县创意文化石有限公司2#,桂子渠村2#,易县京易职业培训学校,养路工区,金台路12#,厂东关村9#,易县一千零一夜商务酒店有限公司,靖远北大街4#,电力局,厂东关村1#,丁街铸造厂,金台路10#,桂子渠村4,河北易县医院,迎晖北大街3#,迎晖北大街4#,金台路4#,0469134357-易县易州会馆餐饮有限责任公司-专变-46725335-易县易州会馆餐饮有限责任公司,易县第二幼儿园变压器,东关村1#,易县兰宝商务酒店有限公司1000KVA,泰元北大街3#,桂子渠村3#,靖远北大街3#,厂东关村3#,百益城,金台路6#,桂子渠1#,和平小区(于占河),靖远北大街2#,易县景安物业服务有限公司变压器,厂东关村2#,河北景安房地产开发有限公司800KVA-易县520线,燕都名苑小区,云燕面粉厂,易县易州会馆餐饮有限责任公司变压器,金台路8#","powerOffReason":"【停电原因】由于速断跳闸导致１１０ＫＶ易县变电站城内５２０线路全线停电【变更送电】因抢修进度加快原因，送电时间由１７:００变更为０９:４０【发布渠道】通过９５５９８发布","powerOffId":"2019100613000015"},{"poweroffId":2019100613000001,"sgpoweroffId":null,"subsName":"","lineName":"迎宾大街516","pubTranName":"城建路灯,东环公用4013变压器,唐县隆昌假日酒店新装4798,城建局0162,淑吕村西7684变压器,东城国际7141高压出线间隔配电变压器,东城国际5272箱变出线间隔配电变压器,东城国际7142高压出线间隔配电变压器,唐县顺达煤厂,唐县住房和城乡建设局,淑吕水5063变压器,迎宾大街公用6185出线间隔配电变压器,淑吕小学7595变压器,联社家属2206,唐县亿鑫房地产开发有限公司配变,东城国家5276箱变出线间隔配电变压器,0387519980-河北交通投资集团张石高速公路保定段有限公司-专变-45337369-保定市张石高速公路唐县北收费站,唐县国润发投热力有限公司新装6640,康定医院0151,康定花园B座4113箱变出线间隔配电变压器,部队843变压器,东环公用4759箱变出线间隔配电变压器,城建路灯C2052,淑吕村1695变压器,淑吕6676变压器,水库家属2403,东城国际5275箱变出线间隔配电变压器,康定医院,庄头西北6675变压器,康定花园3146,贾庄水4441变压器【纯农排变】,唐县诺佳建材加工有限公司,唐县鑫建建筑机械设备租赁有限公司,庄头水4690变压器【纯农排变】,河北省公安厅高速公路交通警察总队5299,康定花园3147,迎宾大街公用6188出线间隔配电变压器,0692192074-唐县中宝新能源开发有限公司-专变-234172059-唐县国润发投热力有限公司新装6639,南庄子箱变6114出线间隔配电变压器,迎宾大街公用6187出线间隔配电变压器,高昌镇第一幼儿园7592变压器,东城国际5273箱变出线间隔配电变压器,交通局家属0155,唐县英刚畜禽养殖服务农民专业合作社,配变,淑吕878变压器,唐县盛源建筑劳务有限公司计量点7972,淑吕873变压器,东城国际7144高压出线间隔配电变压器,唐县康定医院6994,东城国际7143高压出线间隔配电变压器,信用社0152,唐县国润发投热力有限公司新装6641,唐县盛源建筑劳务有限公司8221,贾庄2824变压器,淑吕874变压器,迎宾大街公用6189出线间隔配电变压器,淑吕4620变压器,国税局家属2404,淑吕村5089变压器,淑吕2111变压器,检察院公用力2127,唐县盛源建筑劳务有限公司计量点P7130,唐县隆昌假日酒店新装4696,东环公用4012变压器,东环公用4720箱变出线间隔配电变压器,唐县安定精神病医院高压新装XZ1852,阳光蓝座4517出线间隔配电变压器,迎宾大街公用6186出线间隔配电变压器,阳光蓝座4342出线间隔配电变压器,国税局公用0153,庄头5080变压器,0387519847-唐县顺祥纺织有限公司-专变-45337367-淑吕冰棍房0885,庄头村西水7044变压器【纯农排变】,检察院家属院,庄头小学7583变压器,","scope":"【影响街道/乡镇】仁厚镇、高昌镇、国防东路【高危重要客户】无【影响客户】南庄子村、贾庄村、淑吕村、庄头村、康定花园B区、东城国际小区、国税局家属院、国税局、明仁医院、交通局家属院、联社家属院、康定花园A区、365驿家、水库家属院、检察院家属院、阳光蓝座、唐县亿鑫房地产开发有限公司、唐县兴业房地产开发有限公司康定医院、唐县农村信用合作联社仁厚镇信用社、唐县住房和城乡建设局、唐县国土资源局、唐县人民检察院、尚客优快捷酒店","startTime":"2019-10-06 00:10:43","stopDate":"2019-10-06 01:20:00","orgNo":"1340622","typeCode":"电网故障停限电","poweroffArea":"【全线路停电】停唐县诺佳建材加工有限公司,唐县顺达煤厂,城建路灯,东环公用4013变压器,唐县隆昌假日酒店新装4798,城建局0162,淑吕村西7684变压器,淑吕水5063变压器,迎宾大街公用6185出线间隔配电变压器,淑吕小学7595变压器,联社家属2206,唐县亿鑫房地产开发有限公司配变,东城国家5276箱变出线间隔配电变压器,0387519980-河北交通投资集团张石高速公路保定段有限公司-专变-45337369-保定市张石高速公路唐县北收费站,唐县国润发投热力有限公司新装6640,东城国际7141高压出线间隔配电变压器,东城国际5272箱变出线间隔配电变压器,东城国际7142高压出线间隔配电变压器,唐县住房和城乡建设局,康定花园B座4113箱变出线间隔配电变压器,康定医院0151,淑吕村1695变压器,淑吕6676变压器,东城国际5275箱变出线间隔配电变压器,康定医院,阳光蓝座4342出线间隔配电变压器,国税局公用0153,庄头5080变压器,庄头西北6675变压器,康定花园3146,贾庄水4441变压器【纯农排变】,唐县鑫建建筑机械设备租赁有限公司,庄头水4690变压器【纯农排变】,河北省公安厅高速公路交通警察总队5299,康定花园3147,迎宾大街公用6188出线间隔配电变压器,0692192074-唐县中宝新能源开发有限公司-专变-234172059-唐县国润发投热力有限公司新装6639,南庄子箱变6114出线间隔配电变压器,迎宾大街公用6187出线间隔配电变压器,高昌镇第一幼儿园7592变压器,东城国际5273箱变出线间隔配电变压器,交通局家属0155,淑吕874变压器,迎宾大街公用6189出线间隔配电变压器,淑吕4620变压器,淑吕村5089变压器,部队843变压器,东环公用4759箱变出线间隔配电变压器,城建路灯C2052,水库家属2403,淑吕2111变压器,检察院公用力2127,唐县盛源建筑劳务有限公司计量点P7130,唐县隆昌假日酒店新装4696,东环公用4012变压器,东环公用4720箱变出线间隔配电变压器,唐县安定精神病医院高压新装XZ1852,阳光蓝座4517出线间隔配电变压器,迎宾大街公用6186出线间隔配电变压器,0387519847-唐县顺祥纺织有限公司-专变-45337367-淑吕冰棍房0885,淑吕878变压器,唐县盛源建筑劳务有限公司计量点7972,淑吕873变压器,东城国际7144高压出线间隔配电变压器,唐县康定医院6994,东城国际7143高压出线间隔配电变压器,信用社0152,唐县国润发投热力有限公司新装6641,唐县盛源建筑劳务有限公司8221,贾庄2824变压器,庄头村西水7044变压器【纯农排变】,检察院家属院,庄头小学7583变压器,唐县英刚畜禽养殖服务农民专业合作社,国税局家属2404,配变","poweroffReason":"【停电原因】由于城建路灯３４２０变压器喷油导致３５ＫＶ城南变电站迎宾大街５１６线路全线停电【变更送电】因抢修进度加快原因，送电时间由１６：００变更为１：２０【发布渠道】通过９５５９８发布","powerTime":"2019-10-06 00:48:32","powerComm":"已送电","subsNo":"","lineNo":"","tgNo":"","tgName":null,"infoStatus":"1","orgName":"国网唐县供电公司","typeName":null,"infoStatusName":null,"dateDay":null,"orgNos":null,"nowTime":null,"countyName":null,"streetName":null,"villageName":null,"roadName":null,"communityName":null,"tranName":null,"sdLineName":null,"cityCode":"1340622","cityName":"国网唐县供电公司","provinceCode":null,"stopTime":"2019-10-06 01:20:00","powerType":"全部","powerOffArea":"【全线路停电】停唐县诺佳建材加工有限公司,唐县顺达煤厂,城建路灯,东环公用4013变压器,唐县隆昌假日酒店新装4798,城建局0162,淑吕村西7684变压器,淑吕水5063变压器,迎宾大街公用6185出线间隔配电变压器,淑吕小学7595变压器,联社家属2206,唐县亿鑫房地产开发有限公司配变,东城国家5276箱变出线间隔配电变压器,0387519980-河北交通投资集团张石高速公路保定段有限公司-专变-45337369-保定市张石高速公路唐县北收费站,唐县国润发投热力有限公司新装6640,东城国际7141高压出线间隔配电变压器,东城国际5272箱变出线间隔配电变压器,东城国际7142高压出线间隔配电变压器,唐县住房和城乡建设局,康定花园B座4113箱变出线间隔配电变压器,康定医院0151,淑吕村1695变压器,淑吕6676变压器,东城国际5275箱变出线间隔配电变压器,康定医院,阳光蓝座4342出线间隔配电变压器,国税局公用0153,庄头5080变压器,庄头西北6675变压器,康定花园3146,贾庄水4441变压器【纯农排变】,唐县鑫建建筑机械设备租赁有限公司,庄头水4690变压器【纯农排变】,河北省公安厅高速公路交通警察总队5299,康定花园3147,迎宾大街公用6188出线间隔配电变压器,0692192074-唐县中宝新能源开发有限公司-专变-234172059-唐县国润发投热力有限公司新装6639,南庄子箱变6114出线间隔配电变压器,迎宾大街公用6187出线间隔配电变压器,高昌镇第一幼儿园7592变压器,东城国际5273箱变出线间隔配电变压器,交通局家属0155,淑吕874变压器,迎宾大街公用6189出线间隔配电变压器,淑吕4620变压器,淑吕村5089变压器,部队843变压器,东环公用4759箱变出线间隔配电变压器,城建路灯C2052,水库家属2403,淑吕2111变压器,检察院公用力2127,唐县盛源建筑劳务有限公司计量点P7130,唐县隆昌假日酒店新装4696,东环公用4012变压器,东环公用4720箱变出线间隔配电变压器,唐县安定精神病医院高压新装XZ1852,阳光蓝座4517出线间隔配电变压器,迎宾大街公用6186出线间隔配电变压器,0387519847-唐县顺祥纺织有限公司-专变-45337367-淑吕冰棍房0885,淑吕878变压器,唐县盛源建筑劳务有限公司计量点7972,淑吕873变压器,东城国际7144高压出线间隔配电变压器,唐县康定医院6994,东城国际7143高压出线间隔配电变压器,信用社0152,唐县国润发投热力有限公司新装6641,唐县盛源建筑劳务有限公司8221,贾庄2824变压器,庄头村西水7044变压器【纯农排变】,检察院家属院,庄头小学7583变压器,唐县英刚畜禽养殖服务农民专业合作社,国税局家属2404,配变","powerOffReason":"【停电原因】由于城建路灯３４２０变压器喷油导致３５ＫＶ城南变电站迎宾大街５１６线路全线停电【变更送电】因抢修进度加快原因，送电时间由１６：００变更为１：２０【发布渠道】通过９５５９８发布","powerOffId":"2019100613000001"},{"poweroffId":2019100513000212,"sgpoweroffId":null,"subsName":"","lineName":"10kV苑桥线520","pubTranName":"07苑桥内1,","scope":"【影响街道/乡镇】何桥乡 【高危重要客户】无 【影响客户】苑桥","startTime":"2019-10-05 23:26:38","stopDate":"2019-10-06 03:00:00","orgNo":"1340618","typeCode":"电网故障停限电","poweroffArea":"【单台区停电】停07苑桥内1","poweroffReason":"【停电原因】由于ＪＰ柜烧毁导致１１０ＫＶ草桥变电站１０ＫＶ苑桥线５２０线路０７苑桥内１号公变台区停电 【变更送电】因抢修进度加快原因，送电时间由０８：００变更为０３：００ 【发布渠道】通过９５５９８发布","powerTime":"2019-10-06 02:28:23","powerComm":"张建来通知已送电","subsNo":"","lineNo":"","tgNo":"","tgName":null,"infoStatus":"1","orgName":"国网清苑县供电公司","typeName":null,"infoStatusName":null,"dateDay":null,"orgNos":null,"nowTime":null,"countyName":null,"streetName":null,"villageName":null,"roadName":null,"communityName":null,"tranName":null,"sdLineName":null,"cityCode":"1340618","cityName":"国网清苑县供电公司","provinceCode":null,"stopTime":"2019-10-06 03:00:00","powerType":"全部","powerOffArea":"【单台区停电】停07苑桥内1","powerOffReason":"【停电原因】由于ＪＰ柜烧毁导致１１０ＫＶ草桥变电站１０ＫＶ苑桥线５２０线路０７苑桥内１号公变台区停电 【变更送电】因抢修进度加快原因，送电时间由０８：００变更为０３：００ 【发布渠道】通过９５５９８发布","powerOffId":"2019100513000212"},{"poweroffId":2019100513000196,"sgpoweroffId":null,"subsName":"","lineName":"10kV御城线542","pubTranName":"小望亭外4【纯农排变】,御城外10【纯农排变】,大候村外18【纯农排变】,1御城内12,1御城内14,仙人桥外11【纯农排变】,小候村外4【纯农排变】,大望亭外5号【纯农排变】,御城内17台区,御城外1【纯农排变】,1御城内6,大侯村外20【纯农排变】,大侯村外13号【纯农排变】,御城小学柱上变压器,大望亭4号,大望亭内10,1大望亭内7,1御城内11.,大望亭外10号【纯农排变】,1御城内3柱上变压器,客户投资_1御城内1号,大侯村外15【纯农排变】,大望亭外6号【纯农排变】,御城外3【纯农排变】,御城内18台区,大候村外14【纯农排变】,1大望亭内14,御城外9【纯农排变】,御城外7号【纯农排变】,1御城内16,1御城内19,御城外14【纯农排变】,小候村外3【纯农排变】,大望亭外4【纯农排变】,1小望亭内4,1御城内13,大望亭外9号【纯农排变】,2大侯村外24,2仙人桥外10【纯农排变】,2御城外12【纯农排变】,大望亭外13【纯农排变】,小望亭外5【纯农排变】,1御城内4,大望亭外11号【纯农排变】,御城内10,1御城内7,1大望亭内17,大侯村外19【纯农排变】,1御城内2号,大望亭3号,大望亭外7号【纯农排变】,1御城内9,御城外11【纯农排变】,大望亭外12号【纯农排变】,御城外6【纯农排变】,2小望亭外6【纯农排变】,1小望亭新民居内1,大望亭外8号【纯农排变】,御城外2【纯农排变】,2御城外13【纯农排变】,御城内8,1御城内15,2大望亭外14【纯农排变】,1大望亭内11,2御城外15【纯农排变】,1小望亭内3,","scope":"【影响街道/乡镇】望亭乡、孙村乡、石桥乡 【高危重要客户】无 【影响客户】玉城、大望亭、小望亭、大候村、小候村、仙人桥","startTime":"2019-10-05 18:43:15","stopDate":"2019-10-05 23:59:00","orgNo":"1340618","typeCode":"电网故障停限电","poweroffArea":"【全线路停电】停大侯村外19【纯农排变】,御城外7号【纯农排变】,大望亭外6号【纯农排变】,0387505873-中节能(保定)环保能源有限公司-专变-49039117-河北建投灵峰环保发电有限公司,小候村外3【纯农排变】,大望亭外4【纯农排变】,保定市水利局,1小望亭内4,1御城内13,大望亭外9号【纯农排变】,2大侯村外24,2仙人桥外10【纯农排变】,2御城外12【纯农排变】,大望亭外13【纯农排变】,小望亭外5【纯农排变】,1御城内4,大望亭外11号【纯农排变】,御城内10,1御城内7,1大望亭内17,1御城内2号,大望亭3号,大望亭外7号【纯农排变】,1御城内9,御城外11【纯农排变】,大望亭外12号【纯农排变】,御城外6【纯农排变】,2小望亭外6【纯农排变】,1小望亭新民居内1,大望亭外8号【纯农排变】,御城外2【纯农排变】,2御城外13【纯农排变】,御城内8,1御城内15,2大望亭外14【纯农排变】,1大望亭内11,2御城外15【纯农排变】,大望亭村委会,1小望亭内3,御城外3【纯农排变】,御城内18台区,0387505118-御城董占义-专变-124028079-御城董占义,大候村外14【纯农排变】,1大望亭内14,御城外9【纯农排变】,大侯村外15【纯农排变】,1御城内16,1御城内19,御城外14【纯农排变】,1御城内6,侯村农场河边西台,小望亭外4【纯农排变】,御城外10【纯农排变】,0387505150-大望亭孟成福沙厂-专变-45325219-大望亭孟成福沙厂,大候村外18【纯农排变】,1御城内12,0649076901-清苑县国兵机械配件加工有限公司-专变-174391202-清苑县国兵机械配件加工有限公司,1御城内14,仙人桥外11【纯农排变】,小候村外4【纯农排变】,大望亭外5号【纯农排变】,御城内17台区,御城外1【纯农排变】,大侯村外20【纯农排变】,大侯村外13号【纯农排变】,御城小学柱上变压器,大望亭4号,屹立卓郡小区,大望亭内10,1大望亭内7,1御城内11.,大望亭外10号【纯农排变】,0387506414-侯村农场内-专变-124027280-侯村农场内,1御城内3柱上变压器,客户投资_1御城内1号,0387505059-大侯村南砖厂-专变-45325238-大侯村南砖厂","poweroffReason":"【停电原因】由于主干３４号杆Ｔ２１号杆Ｔ８号杆段志佳养羊厂配变烧毁导致１０ＫＶ戎官营开关变电站１０ＫＶ御城线５４２线路全线停电 【变更送电】无 【发布渠道】通过９５５９８发布","powerTime":"2019-10-05 23:07:37","powerComm":"高丽杰通知已送电","subsNo":"","lineNo":"","tgNo":"","tgName":null,"infoStatus":"1","orgName":"国网清苑县供电公司","typeName":null,"infoStatusName":null,"dateDay":null,"orgNos":null,"nowTime":null,"countyName":null,"streetName":null,"villageName":null,"roadName":null,"communityName":null,"tranName":null,"sdLineName":null,"cityCode":"1340618","cityName":"国网清苑县供电公司","provinceCode":null,"stopTime":"2019-10-05 23:59:00","powerType":"全部","powerOffArea":"【全线路停电】停大侯村外19【纯农排变】,御城外7号【纯农排变】,大望亭外6号【纯农排变】,0387505873-中节能(保定)环保能源有限公司-专变-49039117-河北建投灵峰环保发电有限公司,小候村外3【纯农排变】,大望亭外4【纯农排变】,保定市水利局,1小望亭内4,1御城内13,大望亭外9号【纯农排变】,2大侯村外24,2仙人桥外10【纯农排变】,2御城外12【纯农排变】,大望亭外13【纯农排变】,小望亭外5【纯农排变】,1御城内4,大望亭外11号【纯农排变】,御城内10,1御城内7,1大望亭内17,1御城内2号,大望亭3号,大望亭外7号【纯农排变】,1御城内9,御城外11【纯农排变】,大望亭外12号【纯农排变】,御城外6【纯农排变】,2小望亭外6【纯农排变】,1小望亭新民居内1,大望亭外8号【纯农排变】,御城外2【纯农排变】,2御城外13【纯农排变】,御城内8,1御城内15,2大望亭外14【纯农排变】,1大望亭内11,2御城外15【纯农排变】,大望亭村委会,1小望亭内3,御城外3【纯农排变】,御城内18台区,0387505118-御城董占义-专变-124028079-御城董占义,大候村外14【纯农排变】,1大望亭内14,御城外9【纯农排变】,大侯村外15【纯农排变】,1御城内16,1御城内19,御城外14【纯农排变】,1御城内6,侯村农场河边西台,小望亭外4【纯农排变】,御城外10【纯农排变】,0387505150-大望亭孟成福沙厂-专变-45325219-大望亭孟成福沙厂,大候村外18【纯农排变】,1御城内12,0649076901-清苑县国兵机械配件加工有限公司-专变-174391202-清苑县国兵机械配件加工有限公司,1御城内14,仙人桥外11【纯农排变】,小候村外4【纯农排变】,大望亭外5号【纯农排变】,御城内17台区,御城外1【纯农排变】,大侯村外20【纯农排变】,大侯村外13号【纯农排变】,御城小学柱上变压器,大望亭4号,屹立卓郡小区,大望亭内10,1大望亭内7,1御城内11.,大望亭外10号【纯农排变】,0387506414-侯村农场内-专变-124027280-侯村农场内,1御城内3柱上变压器,客户投资_1御城内1号,0387505059-大侯村南砖厂-专变-45325238-大侯村南砖厂","powerOffReason":"【停电原因】由于主干３４号杆Ｔ２１号杆Ｔ８号杆段志佳养羊厂配变烧毁导致１０ＫＶ戎官营开关变电站１０ＫＶ御城线５４２线路全线停电 【变更送电】无 【发布渠道】通过９５５９８发布","powerOffId":"2019100513000196"},{"poweroffId":2019100513000184,"sgpoweroffId":null,"subsName":"","lineName":"10kV515马阜才线","pubTranName":"马阜才村公用照明2台区,马阜才村公用照明3台区,马阜才公用照明6台区,东阜才公用照明4台区,北大定村公用照明1台区,马阜才公用照明5台区,东阜才公用照明5台区,大王耨公用照明5台区,东阜才村公用照明1台区,西王耨公用照明11台区,大王耨公用照明4台区,大王耨村公用照明3台区,西王耨公用照明7台区,大王耨村公用照明1台区,大王耨公用照明8台区,北大定公用照明2台区,西王耨公用照明9台区,大王耨公用照明6台区,齐家庄公用照明6台区,西王耨公用照明4台区,西王耨公用照明6台区,西王耨公用照明3台区,西王耨村公用照明1台区,齐家庄公用照明3台区,董家庄村公用照明1台区,吴家庄村公用照明2台区,齐家庄公用照明5台区,吴家庄公用照明4台区,吴家庄公用照明5台区,马阜才村公用照明1台区,马阜才公用照明7台区,大王耨公用照明9台区,吴家庄公用照明1台区,西王耨公用照明10台区,刘家店村公用照明1台区,大王耨公用照明12台区,大王耨公用照明10台区,吴家庄公用照明3台区,西王耨公用照明8台区,东阜才公用照明2台区,大王耨公用照明11台区,马阜才公用照明4台区,齐家庄公用照明1台区,西王耨公用照明2台区,大王耨公用照明13台区,大王耨公用照明7台区,大王耨村公用照明2台区,西王耨村公用照明5台区,齐家庄公用照明4台区,齐家庄村公用照明2台区,","scope":"【影响街道/乡镇】东留春乡、号头庄乡【高危重要客户】无【影响客户】马阜才、东阜才、吴家庄、大王耨、西王耨、董家庄、刘家店、北大定、齐家庄、南大定、南大定碑楼北、南大定碑楼","startTime":"2019-10-05 17:00:00","stopDate":"2019-10-05 19:30:00","orgNo":"1340610","typeCode":"其他临时停电","poweroffArea":"【全线路停电】停马阜才村公用照明2台区,马阜才村公用照明3台区,马阜才公用照明6台区,东阜才公用照明4台区,北大定村公用照明1台区,马阜才公用照明5台区,东阜才公用照明5台区,大王耨公用照明5台区,东阜才村公用照明1台区,西王耨公用照明11台区,大王耨公用照明4台区,大王耨村公用照明3台区,西王耨公用照明7台区,大王耨村公用照明1台区,大王耨公用照明8台区,北大定公用照明2台区,西王耨公用照明9台区,大王耨公用照明6台区,西王耨公用照明4台区,西王耨公用照明6台区,西王耨公用照明3台区,西王耨村公用照明1台区,齐家庄公用照明3台区,董家庄村公用照明1台区,吴家庄村公用照明2台区,齐家庄公用照明5台区,吴家庄公用照明4台区,吴家庄公用照明5台区,马阜才村公用照明1台区,马阜才公用照明7台区,大王耨公用照明9台区,吴家庄公用照明1台区,西王耨公用照明10台区,刘家店村公用照明1台区,大王耨公用照明12台区,大王耨公用照明10台区,吴家庄公用照明3台区,西王耨公用照明8台区,东阜才公用照明2台区,大王耨公用照明11台区,马阜才公用照明4台区,齐家庄公用照明1台区,西王耨公用照明2台区,大王耨公用照明13台区,大王耨公用照明7台区,大王耨村公用照明2台区,西王耨村公用照明5台区,齐家庄公用照明4台区,齐家庄村公用照明2台区,齐家庄公用照明6台区","poweroffReason":"【停电原因】由于弓子线打火需停电进行紧急检修导致３５ＫＶ刘良庄变电站１０ＫＶ５１５马阜才线路全线停电 【变更送电】无 【发布渠道】９５５９８","powerTime":"2019-10-05 18:40:05","powerComm":"已送电","subsNo":"","lineNo":"","tgNo":"","tgName":null,"infoStatus":"1","orgName":"国网定州市供电公司","typeName":null,"infoStatusName":null,"dateDay":null,"orgNos":null,"nowTime":null,"countyName":null,"streetName":null,"villageName":null,"roadName":null,"communityName":null,"tranName":null,"sdLineName":null,"cityCode":"1340610","cityName":"国网定州市供电公司","provinceCode":null,"stopTime":"2019-10-05 19:30:00","powerType":"全部","powerOffArea":"【全线路停电】停马阜才村公用照明2台区,马阜才村公用照明3台区,马阜才公用照明6台区,东阜才公用照明4台区,北大定村公用照明1台区,马阜才公用照明5台区,东阜才公用照明5台区,大王耨公用照明5台区,东阜才村公用照明1台区,西王耨公用照明11台区,大王耨公用照明4台区,大王耨村公用照明3台区,西王耨公用照明7台区,大王耨村公用照明1台区,大王耨公用照明8台区,北大定公用照明2台区,西王耨公用照明9台区,大王耨公用照明6台区,西王耨公用照明4台区,西王耨公用照明6台区,西王耨公用照明3台区,西王耨村公用照明1台区,齐家庄公用照明3台区,董家庄村公用照明1台区,吴家庄村公用照明2台区,齐家庄公用照明5台区,吴家庄公用照明4台区,吴家庄公用照明5台区,马阜才村公用照明1台区,马阜才公用照明7台区,大王耨公用照明9台区,吴家庄公用照明1台区,西王耨公用照明10台区,刘家店村公用照明1台区,大王耨公用照明12台区,大王耨公用照明10台区,吴家庄公用照明3台区,西王耨公用照明8台区,东阜才公用照明2台区,大王耨公用照明11台区,马阜才公用照明4台区,齐家庄公用照明1台区,西王耨公用照明2台区,大王耨公用照明13台区,大王耨公用照明7台区,大王耨村公用照明2台区,西王耨村公用照明5台区,齐家庄公用照明4台区,齐家庄村公用照明2台区,齐家庄公用照明6台区","powerOffReason":"【停电原因】由于弓子线打火需停电进行紧急检修导致３５ＫＶ刘良庄变电站１０ＫＶ５１５马阜才线路全线停电 【变更送电】无 【发布渠道】９５５９８","powerOffId":"2019100513000184"},{"poweroffId":2019100513000118,"sgpoweroffId":null,"subsName":"","lineName":"商业区线538","pubTranName":"河北奥润顺达窗业有限公司,河北奥润顺达创业有限公司变压器,0654043271-河北鼎泰华奥投资有限公司-专变-183661612-河北鼎泰华奥投资有限公司3#变压器,0654043271-河北鼎泰华奥投资有限公司-专变-183664054-河北鼎泰华奥投资有限公司2#变压器,河北奥润顺达窗业有限公司二期2#变压器,高碑店市昆仑房地产开发有限公司6,河北奥润顺达窗业有限公司二期1#变压器,高碑店市昆仑房地产开发有限公司5,高碑店市昆仑房地产开发有限公司2,高碑店市昆仑房地产开发有限公司4,河北奥润顺达窗业有限公司二期3#变压器,高碑店市昆仑房地产开发有限公司3,河北奥润顺达窗业有限公司1#变压器,河北奥润顺达窗业有限公司二期4#变压器,高碑店市路灯管理办公室1#变压器,0654043271-河北鼎泰华奥投资有限公司-专变-183661579-河北鼎泰华奥投资有限公司1#变压器,高碑店市昆仑房地产开发有限公司1,河北奥润顺达窗业有限公司二期5#变压器,0652546505-高碑店市路灯管理办公室-专变-197625591-高碑店市路灯管理办公室2#变压器,","scope":"【影响街道/乡镇】方官镇 【高危重要客户】无 【影响客户】昆仑房地产开发有限公司、河北奥润顺达窗业有限公司一期、二期、河北鼎泰华奥投资有限公司","startTime":"2019-10-05 18:00:00","stopDate":"2019-10-05 21:00:00","orgNo":"1340612","typeCode":"其他临时停电","poweroffArea":"【全线路停电】停河北奥润顺达窗业有限公司,河北奥润顺达创业有限公司变压器,0654043271-河北鼎泰华奥投资有限公司-专变-183661612-河北鼎泰华奥投资有限公司3#变压器,0654043271-河北鼎泰华奥投资有限公司-专变-183664054-河北鼎泰华奥投资有限公司2#变压器,河北奥润顺达窗业有限公司二期2#变压器,高碑店市昆仑房地产开发有限公司6,河北奥润顺达窗业有限公司二期1#变压器,高碑店市昆仑房地产开发有限公司5,高碑店市昆仑房地产开发有限公司2,高碑店市昆仑房地产开发有限公司4,河北奥润顺达窗业有限公司二期3#变压器,高碑店市昆仑房地产开发有限公司3,河北奥润顺达窗业有限公司1#变压器,河北奥润顺达窗业有限公司二期4#变压器,高碑店市路灯管理办公室1#变压器,0654043271-河北鼎泰华奥投资有限公司-专变-183661579-河北鼎泰华奥投资有限公司1#变压器,高碑店市昆仑房地产开发有限公司1,河北奥润顺达窗业有限公司二期5#变压器,0652546505-高碑店市路灯管理办公室-专变-197625591-高碑店市路灯管理办公室2#变压器","poweroffReason":"【停电原因】由于设备线夹打火需紧急处理导致１１０ＫＶ方官变电站１０ＫＶ商业区５３８线路全线停电 【变更送电】无 【发布渠道】通过９５５９８发布","powerTime":"2019-10-05 20:52:45","powerComm":"已送电","subsNo":"","lineNo":"","tgNo":"","tgName":null,"infoStatus":"1","orgName":"国网高碑店市供电公司","typeName":null,"infoStatusName":null,"dateDay":null,"orgNos":null,"nowTime":null,"countyName":null,"streetName":null,"villageName":null,"roadName":null,"communityName":null,"tranName":null,"sdLineName":null,"cityCode":"1340612","cityName":"国网高碑店市供电公司","provinceCode":null,"stopTime":"2019-10-05 21:00:00","powerType":"全部","powerOffArea":"【全线路停电】停河北奥润顺达窗业有限公司,河北奥润顺达创业有限公司变压器,0654043271-河北鼎泰华奥投资有限公司-专变-183661612-河北鼎泰华奥投资有限公司3#变压器,0654043271-河北鼎泰华奥投资有限公司-专变-183664054-河北鼎泰华奥投资有限公司2#变压器,河北奥润顺达窗业有限公司二期2#变压器,高碑店市昆仑房地产开发有限公司6,河北奥润顺达窗业有限公司二期1#变压器,高碑店市昆仑房地产开发有限公司5,高碑店市昆仑房地产开发有限公司2,高碑店市昆仑房地产开发有限公司4,河北奥润顺达窗业有限公司二期3#变压器,高碑店市昆仑房地产开发有限公司3,河北奥润顺达窗业有限公司1#变压器,河北奥润顺达窗业有限公司二期4#变压器,高碑店市路灯管理办公室1#变压器,0654043271-河北鼎泰华奥投资有限公司-专变-183661579-河北鼎泰华奥投资有限公司1#变压器,高碑店市昆仑房地产开发有限公司1,河北奥润顺达窗业有限公司二期5#变压器,0652546505-高碑店市路灯管理办公室-专变-197625591-高碑店市路灯管理办公室2#变压器","powerOffReason":"【停电原因】由于设备线夹打火需紧急处理导致１１０ＫＶ方官变电站１０ＫＶ商业区５３８线路全线停电 【变更送电】无 【发布渠道】通过９５５９８发布","powerOffId":"2019100513000118"},{"poweroffId":2019100513000104,"sgpoweroffId":null,"subsName":"","lineName":"10KV中加工业515","pubTranName":"中迈机电公司,现代农装科技(南区2#)500,河北中迈机电设备有限公司1000KVA专变,现代农装科技(北区1#)630,南关东南井2台区,保野路机井变压器,现代农装科技(南区1#)500,河北中迈机电200KVA专变,","scope":"【影响街道/乡镇】涞水镇 【高危重要客户】无 【影响客户】中迈机电、中加工业园、车辆检测线附近","startTime":"2019-10-05 14:00:00","stopDate":"2019-10-05 17:00:00","orgNo":"1340614","typeCode":"其他临时停电","poweroffArea":"【全线路停电】停河北中迈机电200KVA专变,中迈机电公司,现代农装科技(南区2#)500,河北中迈机电设备有限公司1000KVA专变,现代农装科技(北区1#)630,南关东南井2台区,保野路机井变压器,现代农装科技(南区1#)500","poweroffReason":"【停电原因】由于设备线夹温度过高，需停电进行紧急消缺导致３５ＫＶ城东变电站１０ＫＶ中加工业５１５线路全线停电 【变更送电】无 【发布渠道】通过９５５９８发布","powerTime":"2019-10-05 16:19:39","powerComm":"已送电","subsNo":"","lineNo":"","tgNo":"","tgName":null,"infoStatus":"1","orgName":"国网涞水县供电公司","typeName":null,"infoStatusName":null,"dateDay":null,"orgNos":null,"nowTime":null,"countyName":null,"streetName":null,"villageName":null,"roadName":null,"communityName":null,"tranName":null,"sdLineName":null,"cityCode":"1340614","cityName":"国网涞水县供电公司","provinceCode":null,"stopTime":"2019-10-05 17:00:00","powerType":"全部","powerOffArea":"【全线路停电】停河北中迈机电200KVA专变,中迈机电公司,现代农装科技(南区2#)500,河北中迈机电设备有限公司1000KVA专变,现代农装科技(北区1#)630,南关东南井2台区,保野路机井变压器,现代农装科技(南区1#)500","powerOffReason":"【停电原因】由于设备线夹温度过高，需停电进行紧急消缺导致３５ＫＶ城东变电站１０ＫＶ中加工业５１５线路全线停电 【变更送电】无 【发布渠道】通过９５５９８发布","powerOffId":"2019100513000104"},{"poweroffId":2019100513000086,"sgpoweroffId":null,"subsName":"","lineName":"10kV段庄511线","pubTranName":"厂房6#变压器,铁岭2#变压器,厂房1#变压器,老路2#变压器,段庄3#变压器,口子1#变压器,老路1#变压器,东台1#变压器,","scope":"【影响街道/乡镇】大台乡 【高危重要客户】无 【影响客户】亭子沟村、老路渠、东台村、计马石、高家庄、场房、出一朝、段村、对子、七里沟、铁岭口村、夹石窑村、口子头、岭底村、段庄、大道沟、红花、灰窑、闪子村、三道河村、铁林奎、枣林台、岭底、小岭子、草垛沟、对子、大河林、征兵石、上口子头、香沟、老路口、大道沟、吕八岗、眼药、段庄秦衡铁选厂、通平铁选厂、草垛沟铁选厂","startTime":"2019-10-17 05:00:00","stopDate":"2019-10-17 23:00:00","orgNo":"1340611","typeCode":"计划停电","poweroffArea":"【全线路停电】停段庄3#变压器,口子1#变压器,老路1#变压器,东台1#变压器,厂房6#变压器,铁岭2#变压器,厂房1#变压器,老路2#变压器","poweroffReason":"【停电原因】由于引线搭接导致３５ＫＶ大台变电站１０ＫＶ段庄５１１线路全线停电 【变更送电】无 【发布渠道】保定市阜平电视台（１０月５日２０时至１０月１４日１８时）飞播","powerTime":"2019-10-17 22:08:43","powerComm":"全部送电","subsNo":"","lineNo":"","tgNo":"","tgName":null,"infoStatus":"1","orgName":"国网阜平县供电公司","typeName":null,"infoStatusName":null,"dateDay":null,"orgNos":null,"nowTime":null,"countyName":null,"streetName":null,"villageName":null,"roadName":null,"communityName":null,"tranName":null,"sdLineName":null,"cityCode":"1340611","cityName":"国网阜平县供电公司","provinceCode":null,"stopTime":"2019-10-17 23:00:00","powerType":"全部","powerOffArea":"【全线路停电】停段庄3#变压器,口子1#变压器,老路1#变压器,东台1#变压器,厂房6#变压器,铁岭2#变压器,厂房1#变压器,老路2#变压器","powerOffReason":"【停电原因】由于引线搭接导致３５ＫＶ大台变电站１０ＫＶ段庄５１１线路全线停电 【变更送电】无 【发布渠道】保定市阜平电视台（１０月５日２０时至１０月１４日１８时）飞播","powerOffId":"2019100513000086"}],"pageModel":{"pageNow":527,"totalCount":10973,"totalPage":1098,"tableRows":0,"pageCount":10,"beginCount":5260},"isExperi":"1"}