{"message":"","today":"2020-06-15","seleList":[{"poweroffId":2019100413000486,"sgpoweroffId":null,"subsName":"","lineName":"10kV558祥顺线","pubTranName":"河北凯诗蓝德服饰有限公司315,","scope":"【影响街道/乡镇】蠡吾镇【高危重要客户】无 【影响客户】河北凯诗蓝德服饰有限公司、河北凯诗蓝德服饰有限公司、河北祥顺羊绒纺织有限公司、河北凯诗蓝德服饰有限公司、蠡县富利革基布有限公司、蠡县龙利达纺织有限公司","startTime":"2019-10-04 19:40:00","stopDate":"2019-10-05 02:00:00","orgNo":"1340616","typeCode":"其他临时停电","poweroffArea":"【全线路停电】停河北凯诗蓝德服饰有限公司315,蠡县英瑞纺织有限公司变压器800,河北祥顺羊绒纺织有限公司500,河北祥顺羊绒纺织有限公司变压器630,变压器富利1600KVA,蠡县英瑞纺织有限公司变压器,河北凯诗蓝德服饰有限公司,变压器富利1000KVA,蠡县富利革基布有限公司变压器,河北凯诗蓝德服饰有限公司变压器,蠡县富利革基布变压器","poweroffReason":"【停电原因】由于线路严重缺陷,需停电进行紧急消缺导致１１０ＫＶ中滑变电站１０ＫＶ祥顺５５８线路全线停电【变更送电】因抢修进度加快原因，送电时间由０６：００变更为０２：００【发布渠道】通过９５５９８发布","powerTime":"2019-10-05 01:36:31","powerComm":"已送电","subsNo":"","lineNo":"","tgNo":"","tgName":null,"infoStatus":"1","orgName":"国网蠡县供电公司","typeName":null,"infoStatusName":null,"dateDay":null,"orgNos":null,"nowTime":null,"countyName":null,"streetName":null,"villageName":null,"roadName":null,"communityName":null,"tranName":null,"sdLineName":null,"cityCode":"1340616","cityName":"国网蠡县供电公司","provinceCode":null,"stopTime":"2019-10-05 02:00:00","powerType":"全部","powerOffArea":"【全线路停电】停河北凯诗蓝德服饰有限公司315,蠡县英瑞纺织有限公司变压器800,河北祥顺羊绒纺织有限公司500,河北祥顺羊绒纺织有限公司变压器630,变压器富利1600KVA,蠡县英瑞纺织有限公司变压器,河北凯诗蓝德服饰有限公司,变压器富利1000KVA,蠡县富利革基布有限公司变压器,河北凯诗蓝德服饰有限公司变压器,蠡县富利革基布变压器","powerOffReason":"【停电原因】由于线路严重缺陷,需停电进行紧急消缺导致１１０ＫＶ中滑变电站１０ＫＶ祥顺５５８线路全线停电【变更送电】因抢修进度加快原因，送电时间由０６：００变更为０２：００【发布渠道】通过９５５９８发布","powerOffId":"2019100413000486"},{"poweroffId":2019100413000481,"sgpoweroffId":null,"subsName":"","lineName":"10kV中相578","pubTranName":"桥屯村内1001,","scope":"【影响街道/乡镇】豆庄乡 【高危重要客户】无 【影响客户】桥屯村","startTime":"2019-10-04 18:01:10","stopDate":"2019-10-04 19:40:00","orgNo":"1340626","typeCode":"电网故障停限电","poweroffArea":"【单台区停电】停桥屯村内1001","poweroffReason":"【停电原因】由于低压空开烧毁导致２２０ＫＶ豆庄变电站１０ＫＶ中相５７８线路桥屯村内１００１公变台区停电 【变更送电】因抢修进度加快原因，送电时间由０５日１０：００变更为０４日１９：４０ 【发布渠道】通过９５５９８发布","powerTime":"2019-10-04 19:31:12","powerComm":"恢复送电","subsNo":"","lineNo":"","tgNo":"","tgName":null,"infoStatus":"1","orgName":"国网涿州市供电公司","typeName":null,"infoStatusName":null,"dateDay":null,"orgNos":null,"nowTime":null,"countyName":null,"streetName":null,"villageName":null,"roadName":null,"communityName":null,"tranName":null,"sdLineName":null,"cityCode":"1340626","cityName":"国网涿州市供电公司","provinceCode":null,"stopTime":"2019-10-04 19:40:00","powerType":"全部","powerOffArea":"【单台区停电】停桥屯村内1001","powerOffReason":"【停电原因】由于低压空开烧毁导致２２０ＫＶ豆庄变电站１０ＫＶ中相５７８线路桥屯村内１００１公变台区停电 【变更送电】因抢修进度加快原因，送电时间由０５日１０：００变更为０４日１９：４０ 【发布渠道】通过９５５９８发布","powerOffId":"2019100413000481"},{"poweroffId":2019100413000470,"sgpoweroffId":null,"subsName":"","lineName":"10kV547刘村线","pubTranName":"南漳综合2台区,宋庄农排1台区【纯农排变】,随东农排19台区【纯农排变】,随东农排14台区【纯农排变】,随东农排18台区【纯农排变】,刘村综合20台区变压器,南漳综合4台区,新乡综合13台区,刘村综合3台区,随东农排5台区【纯农排变】,新乡农排4台区【纯农排变】,随东农排17台区【纯农排变】,刘村农排3台区【纯农排变】,刘村综合16台区,刘村综合21台区变压器,宋庄农排8台区【纯农排变】,南漳综合5台区变压器,新乡农排3台区【纯农排变】,新乡综合2台区,刘村综合4台区,刘村农排22台区【纯农排变】,随东农排16台区【纯农排变】,刘村农排18台区【纯农排变】,随东综合3台区,刘村综合19台区变压器,刘村综合8台区,随东农排11台区【纯农排变】,随东农排20台区【纯农排变】,刘村综合22台区变压器,随东综合2台区,随东综合13台区,刘村农排10台区【纯农排变】,随东综合12台区,刘村综合9台区,新乡综合9台区,陈村农排10台区【纯农排变】,刘村综合5台区,随东综合5台区,随东综合9台区,随东综合11台区,北漳农排15台区【纯农排变】,随东农排2台区【纯农排变】,刘村农排15台区【纯农排变】,随东农排13台区【纯农排变】,新乡综合1台区,随东农排7台区【纯农排变】,547线宋庄综合2台区,刘村农排4台区【纯农排变】,随东农排21台区变压器,刘村综合18台区变压器,新乡综合5台区,随东农排8台区【纯农排变】,随东农排9台区【纯农排变】,刘村综合10台区,随东综合8台区,刘村综合15台区【冬季供暖设施】,南漳综合3台区,刘村综合17台区变压器,刘村农排11台区【纯农排变】,刘村农排13台区【纯农排变】,刘村综合7台区,新乡综合11台区,北漳农排3台区【纯农排变】,随东综合10台区,客户投资_新乡综合7台区,刘村综合11台区,随东综合7台区,刘村农排7台区【纯农排变】,南漳农排4台区【纯农排变】,宋庄农排3台区【纯农排变】,刘村农排17台区【纯农排变】,随东综合14台区,随东综合16台区变压器,新乡综合12台区【冬季供暖设施】,547线宋庄综合3台区,刘村农排16台区【纯农排变】,刘村农排19台区【纯农排变】,刘村综合6台区,547线宋庄综合1台区,新乡综合6台区,北漳农排5台区【纯农排变】,随东农排4台区【纯农排变】,刘村综合12台区,新乡综合4台区,随东农排12台区【纯农排变】,新乡农排1台区【纯农排变】,刘村综合2台区,刘村综合14台区,刘村综合13台区,南漳综合1台区,刘村农排21台区【纯农排变】,东滑农排1台区【纯农排变】,随东农排15台区【纯农排变】,随东综合4台区,新乡综合3台区,宋庄农排7台区【纯农排变】,随东综合15台区,随东综合1台区,刘村综合1台区,新乡综合10台区,新乡综合8台区,","scope":"【影响街道/乡镇】蠡吾镇【高危重要客户】无【影响客户】刘村、新乡村、南漳村、宋庄村、随东村","startTime":"2019-10-04 19:20:00","stopDate":"2019-10-04 21:30:00","orgNo":"1340616","typeCode":"其他临时停电","poweroffArea":"【全线路停电】停刘村综合10台区,随东综合1台区,刘村综合1台区,新乡综合10台区,新乡综合8台区,随东农排13台区【纯农排变】,随东农排17台区【纯农排变】,随东农排19台区【纯农排变】,随东农排14台区【纯农排变】,蠡县盛宇纺纱厂变压器,随东农排18台区【纯农排变】,随东农排6台区【纯农排变】,刘村综合20台区变压器,刘村农排2台区【纯农排变】,南漳综合4台区,随东农排5台区【纯农排变】,南漳综合2台区,0683454741-保定市南水北调工程建设委员会办公室-专变-223624965-保定南水北调工程建设委员会办公室变压器,宋庄农排1台区【纯农排变】,新乡综合13台区,刘村综合3台区,刘村农排4台区【纯农排变】,随东农排21台区变压器,刘村综合18台区变压器,新乡综合5台区,随东农排8台区【纯农排变】,随东农排9台区【纯农排变】,随中面粉厂,宋庄农排8台区【纯农排变】,南漳村西塑料厂,刘村农排8台区【纯农排变】,保定朝雄电气化电力器材有限公司变压器,刘村颗粒厂,随东综合15台区,南漳综合5台区变压器,新乡农排2台区【纯农排变】,新乡农排3台区【纯农排变】,新乡农排4台区【纯农排变】,外贸冷冻厂,刘村农排3台区【纯农排变】,刘村综合16台区,随东综合9台区,随东综合11台区,北漳农排15台区【纯农排变】,保定恒世荣达电子科技有限公司变压器630,随东农排2台区【纯农排变】,刘村农排15台区【纯农排变】,南漳农排2台区【纯农排变】,刘村农排6台区【纯农排变】,新乡综合1台区,随东农排7台区【纯农排变】,547线宋庄综合2台区,刘村综合21台区变压器,新乡综合2台区,刘村综合4台区,刘村农排22台区【纯农排变】,随东农排16台区【纯农排变】,天祥化工厂,随东综合3台区,刘村综合19台区变压器,随东农排11台区【纯农排变】,刘村综合22台区变压器,随东综合2台区,随东综合12台区,新乡综合9台区,新乡站变,变压器,随东综合5台区,随东农排1台区【纯农排变】,随东综合8台区,刘村综合15台区【冬季供暖设施】,新乡农排8台区【纯农排变】,南漳综合3台区,刘村综合17台区变压器,刘村农排11台区【纯农排变】,刘村农排13台区【纯农排变】,刘村农排12台区【纯农排变】,刘村农排14台区【纯农排变】,陈村农排10台区【纯农排变】,刘村综合5台区,刘村综合7台区,随东综合7台区,蠡县宇大房地产开发有限公司变压器,刘村农排1台区【纯农排变】,南漳农排4台区【纯农排变】,宋庄农排3台区【纯农排变】,刘村农排17台区【纯农排变】,随东综合14台区,随东综合16台区变压器,新乡农排9台区【纯农排变】,蠡县中小麻山药专业合作社,刘村农排18台区【纯农排变】,随东东面粉厂,刘村综合8台区,随东农排20台区【纯农排变】,新乡综合11台区,随东综合10台区,蠡县工商行政管理局蠡州工商分局变压器,随东综合13台区,刘村农排10台区【纯农排变】,新乡面粉厂,刘村农排9台区【纯农排变】,刘村综合9台区,刘村农排16台区【纯农排变】,蠡县鑫宇纺纱厂变压器,刘村农排19台区【纯农排变】,刘村综合6台区,新乡综合6台区,蠡县新乡免烧砖厂变压器,北漳农排5台区【纯农排变】,宋庄建军天鹅绒厂,中国移动通信集团河北有限公司蠡县分公司变压器,新乡综合4台区,随东农排12台区【纯农排变】,新乡农排1台区【纯农排变】,刘村综合2台区,刘村农排5台区【纯农排变】,刘村农排20台区【纯农排变】,刘村综合14台区,刘村综合13台区,北漳农排3台区【纯农排变】,客户投资_新乡综合7台区,刘村综合11台区,刘村农排7台区【纯农排变】,随东农排15台区【纯农排变】,新乡综合12台区【冬季","poweroffReason":"【停电原因】由于刀闸线夹处打火，需停电进行紧急检修导致１１０ＫＶ中滑变电站１０ＫＶ刘村５４７线路全线停电【变更送电】因抢修进度加快原因，送电时间由２３：００变更为２１：３０【发布渠道】通过９５５９８发布","powerTime":"2019-10-04 21:07:55","powerComm":"已送电","subsNo":"","lineNo":"","tgNo":"","tgName":null,"infoStatus":"1","orgName":"国网蠡县供电公司","typeName":null,"infoStatusName":null,"dateDay":null,"orgNos":null,"nowTime":null,"countyName":null,"streetName":null,"villageName":null,"roadName":null,"communityName":null,"tranName":null,"sdLineName":null,"cityCode":"1340616","cityName":"国网蠡县供电公司","provinceCode":null,"stopTime":"2019-10-04 21:30:00","powerType":"全部","powerOffArea":"【全线路停电】停刘村综合10台区,随东综合1台区,刘村综合1台区,新乡综合10台区,新乡综合8台区,随东农排13台区【纯农排变】,随东农排17台区【纯农排变】,随东农排19台区【纯农排变】,随东农排14台区【纯农排变】,蠡县盛宇纺纱厂变压器,随东农排18台区【纯农排变】,随东农排6台区【纯农排变】,刘村综合20台区变压器,刘村农排2台区【纯农排变】,南漳综合4台区,随东农排5台区【纯农排变】,南漳综合2台区,0683454741-保定市南水北调工程建设委员会办公室-专变-223624965-保定南水北调工程建设委员会办公室变压器,宋庄农排1台区【纯农排变】,新乡综合13台区,刘村综合3台区,刘村农排4台区【纯农排变】,随东农排21台区变压器,刘村综合18台区变压器,新乡综合5台区,随东农排8台区【纯农排变】,随东农排9台区【纯农排变】,随中面粉厂,宋庄农排8台区【纯农排变】,南漳村西塑料厂,刘村农排8台区【纯农排变】,保定朝雄电气化电力器材有限公司变压器,刘村颗粒厂,随东综合15台区,南漳综合5台区变压器,新乡农排2台区【纯农排变】,新乡农排3台区【纯农排变】,新乡农排4台区【纯农排变】,外贸冷冻厂,刘村农排3台区【纯农排变】,刘村综合16台区,随东综合9台区,随东综合11台区,北漳农排15台区【纯农排变】,保定恒世荣达电子科技有限公司变压器630,随东农排2台区【纯农排变】,刘村农排15台区【纯农排变】,南漳农排2台区【纯农排变】,刘村农排6台区【纯农排变】,新乡综合1台区,随东农排7台区【纯农排变】,547线宋庄综合2台区,刘村综合21台区变压器,新乡综合2台区,刘村综合4台区,刘村农排22台区【纯农排变】,随东农排16台区【纯农排变】,天祥化工厂,随东综合3台区,刘村综合19台区变压器,随东农排11台区【纯农排变】,刘村综合22台区变压器,随东综合2台区,随东综合12台区,新乡综合9台区,新乡站变,变压器,随东综合5台区,随东农排1台区【纯农排变】,随东综合8台区,刘村综合15台区【冬季供暖设施】,新乡农排8台区【纯农排变】,南漳综合3台区,刘村综合17台区变压器,刘村农排11台区【纯农排变】,刘村农排13台区【纯农排变】,刘村农排12台区【纯农排变】,刘村农排14台区【纯农排变】,陈村农排10台区【纯农排变】,刘村综合5台区,刘村综合7台区,随东综合7台区,蠡县宇大房地产开发有限公司变压器,刘村农排1台区【纯农排变】,南漳农排4台区【纯农排变】,宋庄农排3台区【纯农排变】,刘村农排17台区【纯农排变】,随东综合14台区,随东综合16台区变压器,新乡农排9台区【纯农排变】,蠡县中小麻山药专业合作社,刘村农排18台区【纯农排变】,随东东面粉厂,刘村综合8台区,随东农排20台区【纯农排变】,新乡综合11台区,随东综合10台区,蠡县工商行政管理局蠡州工商分局变压器,随东综合13台区,刘村农排10台区【纯农排变】,新乡面粉厂,刘村农排9台区【纯农排变】,刘村综合9台区,刘村农排16台区【纯农排变】,蠡县鑫宇纺纱厂变压器,刘村农排19台区【纯农排变】,刘村综合6台区,新乡综合6台区,蠡县新乡免烧砖厂变压器,北漳农排5台区【纯农排变】,宋庄建军天鹅绒厂,中国移动通信集团河北有限公司蠡县分公司变压器,新乡综合4台区,随东农排12台区【纯农排变】,新乡农排1台区【纯农排变】,刘村综合2台区,刘村农排5台区【纯农排变】,刘村农排20台区【纯农排变】,刘村综合14台区,刘村综合13台区,北漳农排3台区【纯农排变】,客户投资_新乡综合7台区,刘村综合11台区,刘村农排7台区【纯农排变】,随东农排15台区【纯农排变】,新乡综合12台区【冬季","powerOffReason":"【停电原因】由于刀闸线夹处打火，需停电进行紧急检修导致１１０ＫＶ中滑变电站１０ＫＶ刘村５４７线路全线停电【变更送电】因抢修进度加快原因，送电时间由２３：００变更为２１：３０【发布渠道】通过９５５９８发布","powerOffId":"2019100413000470"},{"poweroffId":2019100413000468,"sgpoweroffId":null,"subsName":"","lineName":"10kV东官庄557","pubTranName":"董家庄村东混,南瓦宅村西北2台区,北瓦宅村内混变压器,司徒村东50专,北丰村村东一,北瓦宅北三台区,司徒村东200【纯农排变】,东南租村南专【纯农排变】,南瓦宅村西专变压器【纯农排变】,北丰村村东二,东南租村内台区,东南租村南3台区,南瓦宅学校台区,南瓦宅东南专,北汝河村北专2台区【纯农排变】,南秋兰马路边台区,北瓦宅村北混变压器,北南租村西混变压器,南秋兰村西混变压器,司徒村东北|0827【纯农排变】,南秋兰村南台区,董家庄村东专【纯农排变】,司徒村内100,张家洼村南混用变压器,西南租村内混变压器,南秋兰村北混变压器,司徒村东混用台区,司徒村南混变压器,董家庄大队台区变压器,北瓦宅村西混变压器,北瓦宅村西2变压器【纯农排变】,西南租村西台区,北封村内变压器,南瓦宅村北2台区,张家洼村东台区,南瓦宅村西混变压器,南瓦宅村西2台区,西南租村内新建,南瓦宅村南混变压器,东南租村东混变压器,董家庄村南,南瓦宅村东混变压器,北南租村中,南瓦宅村内2,北南租村西南,王各庄村北专变压器【纯农排变】,南瓦宅村东2,北南租村北2,西南租广场台区,司徒村东南1台区【纯农排变】,北瓦宅大队台区变压器,南瓦宅村西南专【纯农排变】,司徒村北专变压器,司徒村内50,南瓦宅东北专变压器,司徒村内专50,北瓦宅村东混变压器,董家庄村东北,司徒村内2,南瓦宅村内混变压器,","scope":"【影响街道/乡镇】涞水镇、明义镇、胡家庄乡 【高危重要客户】无 【影响客户】南瓦宅村、北瓦宅村、南郭下村、欧美亚附近、南秋兰村、北封村、张家洼村、北南租村、东南租村、西南租村、曹家庄村、司徒村、董家庄村、王各庄村","startTime":"2019-10-04 17:47:39","stopDate":"2019-10-04 22:10:00","orgNo":"1340614","typeCode":"电网故障停限电","poweroffArea":"【全线路停电】停北南租村北专变压器【纯农排变】,南瓦宅村东混变压器,北瓦宅村北2台区,北南租村中,南瓦宅村内2,北南租村西南,王各庄村北专变压器【纯农排变】,南瓦宅村东2,北南租村北2,西南租广场台区,北瓦宅村东北变压器,北南租村北混变压器,北京公交集团资产管理涞水有限公司315KVA专变,司徒村东南1台区【纯农排变】,北瓦宅大队台区变压器,南瓦宅村西南专【纯农排变】,司徒村北专变压器,司徒村内50,0469096675-东明义面粉厂-专变-46718866-东明义面粉厂,北京市政建设集团有限责任公司315KVA专变,南瓦宅东北专变压器,经济开发区管委会315KVA专变,城西污水处理,南瓦宅村北混变压器,张志安机井,训林灰厂2,南互通收费站,司徒村内专50,训林灰粉厂,北瓦宅村东混变压器,涞水县国土资源局新增100KVA变压器,董家庄村东北,司徒村内2,南瓦宅村内混变压器,涞水京涞易轻200KVA专变,涞水中港电子科技有限公司200KVA专变,0619340779-涞水县圣鑫石灰厂-专变-128938100-圣鑫石灰厂200KVA专变,董家庄村东混,封村100KVA路灯变,陶立厂,南瓦宅村西北2台区,北瓦宅村内混变压器,北瓦宅面粉厂,张志安灰粉厂,司徒村东50专,司徒村东200【纯农排变】,东南租村南专【纯农排变】,变压器,南瓦宅村西专变压器【纯农排变】,北丰村村东二,东南租村内台区,东南租村南3台区,南瓦宅学校台区,南瓦宅东南专,董家庄村西混,瓦宅100KVA路灯变,北汝河村北专2台区【纯农排变】,华恒商贸有限公司100KVA专变,南秋兰马路边台区,北瓦宅村北混变压器,北南租村西混变压器,0627226874-河北涞博传动机械制造有限公司-专变-139258158-涞博传动机械制造有限公司250KVA变压器专变,董家庄村东南专【纯农排变】,南秋兰村西混变压器,河北涞博传动机械制造有限公司250KVA 专变,司徒村东北|0827【纯农排变】,南秋兰村南台区,董家庄村东北专变压器【纯农排变】,董家庄村东专【纯农排变】,司徒村内100,张家洼村南混用变压器,西南租村内混变压器,南秋兰村北混变压器,东南租村东新,司徒村东混用台区,司徒村南混变压器,董家庄大队台区变压器,北瓦宅村西混变压器,北瓦宅村西2变压器【纯农排变】,南秋兰村东混变压器,西南租村西台区,西南租村东混变压器,河北涞博传动机械制造有限公司1#250KVA 专变,张家洼村北混用变压器,北丰村村东一,北瓦宅北三台区,北封村内变压器,南瓦宅村北2台区,张家洼村东台区,南瓦宅村西混变压器,南瓦宅村西2台区,东南租东南专变压器,西南租村内新建,南瓦宅村南混变压器,东南租村东混变压器,董家庄村南,北瓦宅村西北混变压器","poweroffReason":"【停电原因】由于Ｂ相接地导致１１０ＫＶ郭下变电站１０ＫＶ东官庄５５７线路全线停电 【变更送电】因抢修进度加快原因，送电时间由２３：５０变更为２２：１０ 【发布渠道】通过９５５９８发布","powerTime":"2019-10-04 21:42:02","powerComm":"已送电","subsNo":"","lineNo":"","tgNo":"","tgName":null,"infoStatus":"1","orgName":"国网涞水县供电公司","typeName":null,"infoStatusName":null,"dateDay":null,"orgNos":null,"nowTime":null,"countyName":null,"streetName":null,"villageName":null,"roadName":null,"communityName":null,"tranName":null,"sdLineName":null,"cityCode":"1340614","cityName":"国网涞水县供电公司","provinceCode":null,"stopTime":"2019-10-04 22:10:00","powerType":"全部","powerOffArea":"【全线路停电】停北南租村北专变压器【纯农排变】,南瓦宅村东混变压器,北瓦宅村北2台区,北南租村中,南瓦宅村内2,北南租村西南,王各庄村北专变压器【纯农排变】,南瓦宅村东2,北南租村北2,西南租广场台区,北瓦宅村东北变压器,北南租村北混变压器,北京公交集团资产管理涞水有限公司315KVA专变,司徒村东南1台区【纯农排变】,北瓦宅大队台区变压器,南瓦宅村西南专【纯农排变】,司徒村北专变压器,司徒村内50,0469096675-东明义面粉厂-专变-46718866-东明义面粉厂,北京市政建设集团有限责任公司315KVA专变,南瓦宅东北专变压器,经济开发区管委会315KVA专变,城西污水处理,南瓦宅村北混变压器,张志安机井,训林灰厂2,南互通收费站,司徒村内专50,训林灰粉厂,北瓦宅村东混变压器,涞水县国土资源局新增100KVA变压器,董家庄村东北,司徒村内2,南瓦宅村内混变压器,涞水京涞易轻200KVA专变,涞水中港电子科技有限公司200KVA专变,0619340779-涞水县圣鑫石灰厂-专变-128938100-圣鑫石灰厂200KVA专变,董家庄村东混,封村100KVA路灯变,陶立厂,南瓦宅村西北2台区,北瓦宅村内混变压器,北瓦宅面粉厂,张志安灰粉厂,司徒村东50专,司徒村东200【纯农排变】,东南租村南专【纯农排变】,变压器,南瓦宅村西专变压器【纯农排变】,北丰村村东二,东南租村内台区,东南租村南3台区,南瓦宅学校台区,南瓦宅东南专,董家庄村西混,瓦宅100KVA路灯变,北汝河村北专2台区【纯农排变】,华恒商贸有限公司100KVA专变,南秋兰马路边台区,北瓦宅村北混变压器,北南租村西混变压器,0627226874-河北涞博传动机械制造有限公司-专变-139258158-涞博传动机械制造有限公司250KVA变压器专变,董家庄村东南专【纯农排变】,南秋兰村西混变压器,河北涞博传动机械制造有限公司250KVA 专变,司徒村东北|0827【纯农排变】,南秋兰村南台区,董家庄村东北专变压器【纯农排变】,董家庄村东专【纯农排变】,司徒村内100,张家洼村南混用变压器,西南租村内混变压器,南秋兰村北混变压器,东南租村东新,司徒村东混用台区,司徒村南混变压器,董家庄大队台区变压器,北瓦宅村西混变压器,北瓦宅村西2变压器【纯农排变】,南秋兰村东混变压器,西南租村西台区,西南租村东混变压器,河北涞博传动机械制造有限公司1#250KVA 专变,张家洼村北混用变压器,北丰村村东一,北瓦宅北三台区,北封村内变压器,南瓦宅村北2台区,张家洼村东台区,南瓦宅村西混变压器,南瓦宅村西2台区,东南租东南专变压器,西南租村内新建,南瓦宅村南混变压器,东南租村东混变压器,董家庄村南,北瓦宅村西北混变压器","powerOffReason":"【停电原因】由于Ｂ相接地导致１１０ＫＶ郭下变电站１０ＫＶ东官庄５５７线路全线停电 【变更送电】因抢修进度加快原因，送电时间由２３：５０变更为２２：１０ 【发布渠道】通过９５５９８发布","powerOffId":"2019100413000468"},{"poweroffId":2019100413000437,"sgpoweroffId":null,"subsName":"","lineName":"铁厂521线","pubTranName":"西同龙0930变压器,宋庄混用4973变压器,东杨庄6093台区变压器,中同龙4046变压器,宋庄1476变压器,北城子6694变压器,西同龙0590变压器,东同龙6702变压器,水头0893变压器,东同龙小学7569变压器【煤改电】,张显口7756变压器,东同龙4600变压器,东同龙0888变压器,游家佐6010变压器,水头0895变压器,东杨庄小学7585【煤改电】,幺家佐4705变压器,游家佐0925变压器,水头4655变压器,麻黄头2657变压器,水头南水5061变压器,西同龙1679变压器,东杨庄0715变压器,东杨庄4617变压器,马家佐0922变压器,水头0579变压器,水头6959变压器,南城子7483变压器,东同龙北光0887变压器,中同龙2903变压器,南城子0717变压器,10kV521铁厂线西同龙6094台区,宋庄北公用4043变压器,10kV521铁厂线东同龙6091台区,马家佐混用4262变压器,水头公用4055变压器,北城子4198变压器,西同龙小学7587变压器【煤改电】,游家佐7780变压器,中同龙0898变压器,同龙分院7576【煤改电】,西同龙果园6703变压器,幺家佐1772变压器,东杨庄0798变压器,北城子0716变压器,东同龙山上水5246变压器,水头小学7571变压器【煤改电】,麻黄头公用4032变压器,水头鑫唐水5060变压器,西同龙5285变压器,","scope":"【影响街道/乡镇】北店头乡、仁厚镇【高危重要客户】无【影响客户】西同龙村、马家佐村、北城子村、么家佐村、游家佐村、水头村、宋庄村、西沟村、中同龙村、东阳庄村、东同龙村、南城子村、中显口村、麻黄头村","startTime":"2019-10-05 01:00:00","stopDate":"2019-10-05 03:00:00","orgNo":"1340622","typeCode":"其他临时停电","poweroffArea":"【全线路停电】停西同龙1679变压器,西同龙0930变压器,宋庄混用4973变压器,东杨庄6093台区变压器,中同龙4046变压器,宋庄1476变压器,北城子6694变压器,西同龙0590变压器,东同龙6702变压器,水头0893变压器,东同龙小学7569变压器【煤改电】,张显口7756变压器,东同龙4600变压器,东同龙0888变压器,游家佐6010变压器,水头0895变压器,东杨庄小学7585【煤改电】,幺家佐4705变压器,游家佐0925变压器,水头4655变压器,麻黄头2657变压器,水头南水5061变压器,10kV521铁厂线东同龙6091台区,东杨庄0715变压器,东杨庄4617变压器,马家佐0922变压器,水头0579变压器,水头6959变压器,南城子7483变压器,东同龙北光0887变压器,中同龙2903变压器,南城子0717变压器,10kV521铁厂线西同龙6094台区,宋庄北公用4043变压器,马家佐混用4262变压器,水头公用4055变压器,北城子4198变压器,西同龙小学7587变压器【煤改电】,游家佐7780变压器,中同龙0898变压器,同龙分院7576【煤改电】,西同龙果园6703变压器,西同龙5285变压器,幺家佐1772变压器,东杨庄0798变压器,北城子0716变压器,东同龙山上水5246变压器,水头小学7571变压器【煤改电】,麻黄头公用4032变压器,水头鑫唐水5060变压器","poweroffReason":"【停电原因】由于紧急消缺导致１１０ＫＶ唐县变电站铁厂５２１线路全线停电【变更送电】无【发布渠道】通过９５５９８发布","powerTime":"2019-10-05 02:34:34","powerComm":"已送电","subsNo":"","lineNo":"","tgNo":"","tgName":null,"infoStatus":"1","orgName":"国网唐县供电公司","typeName":null,"infoStatusName":null,"dateDay":null,"orgNos":null,"nowTime":null,"countyName":null,"streetName":null,"villageName":null,"roadName":null,"communityName":null,"tranName":null,"sdLineName":null,"cityCode":"1340622","cityName":"国网唐县供电公司","provinceCode":null,"stopTime":"2019-10-05 03:00:00","powerType":"全部","powerOffArea":"【全线路停电】停西同龙1679变压器,西同龙0930变压器,宋庄混用4973变压器,东杨庄6093台区变压器,中同龙4046变压器,宋庄1476变压器,北城子6694变压器,西同龙0590变压器,东同龙6702变压器,水头0893变压器,东同龙小学7569变压器【煤改电】,张显口7756变压器,东同龙4600变压器,东同龙0888变压器,游家佐6010变压器,水头0895变压器,东杨庄小学7585【煤改电】,幺家佐4705变压器,游家佐0925变压器,水头4655变压器,麻黄头2657变压器,水头南水5061变压器,10kV521铁厂线东同龙6091台区,东杨庄0715变压器,东杨庄4617变压器,马家佐0922变压器,水头0579变压器,水头6959变压器,南城子7483变压器,东同龙北光0887变压器,中同龙2903变压器,南城子0717变压器,10kV521铁厂线西同龙6094台区,宋庄北公用4043变压器,马家佐混用4262变压器,水头公用4055变压器,北城子4198变压器,西同龙小学7587变压器【煤改电】,游家佐7780变压器,中同龙0898变压器,同龙分院7576【煤改电】,西同龙果园6703变压器,西同龙5285变压器,幺家佐1772变压器,东杨庄0798变压器,北城子0716变压器,东同龙山上水5246变压器,水头小学7571变压器【煤改电】,麻黄头公用4032变压器,水头鑫唐水5060变压器","powerOffReason":"【停电原因】由于紧急消缺导致１１０ＫＶ唐县变电站铁厂５２１线路全线停电【变更送电】无【发布渠道】通过９５５９８发布","powerOffId":"2019100413000437"},{"poweroffId":2019100413000430,"sgpoweroffId":null,"subsName":"","lineName":"10kV549翔宇线","pubTranName":"蠡县翔宇羊绒制品有限公司变压器,蠡县平安路联友塑钢门窗组装部,蠡县奥德燃气有限公司变压器,蠡县东泰建筑材料制品有限公司变压器,保定顺邦门窗制造有限公司变压器,蠡县万隆汽车修理厂变压器,蠡县郑村经联面粉厂,蠡县鑫源人造皮毛厂变压器,蠡县恒泰嘉业化纤制品有限公司变压器,蠡县消防大队综合一台区,蠡县恒泰嘉业化纤制品有限公司变压器1000,","scope":"【影响街道/乡镇】蠡吾镇【高危重要客户】无 【影响客户】蠡县恒泰嘉业化纤制品有限公司、蠡县平安路联友塑钢门窗组装部、蠡县万隆汽车修理厂、蠡县恒泰嘉业化纤制品有限公司、蠡县恒泰嘉业化纤制品有限公司、蠡县翔宇羊绒制品有限公司、蠡县奥德燃气有限公司、蠡县东泰建筑材料制造有限公司、保定顺邦门窗制造有限公司、保定盛世金源化纤有限公司、蠡县消防大队","startTime":"2019-10-04 16:57:17","stopDate":"2019-10-05 02:00:00","orgNo":"1340616","typeCode":"电网故障停限电","poweroffArea":"【全线路停电】停蠡县翔宇羊绒制品有限公司变压器,蠡县平安路联友塑钢门窗组装部,蠡县奥德燃气有限公司变压器,保定顺邦门窗制造有限公司变压器,蠡县万隆汽车修理厂变压器,蠡县郑村经联面粉厂,蠡县鑫源人造皮毛厂变压器,蠡县恒泰嘉业化纤制品有限公司变压器,蠡县消防大队综合一台区,蠡县恒泰嘉业化纤制品有限公司变压器1000,蠡县东泰建筑材料制品有限公司变压器","poweroffReason":"【停电原因】由于站内开关掉闸导致１１０ＫＶ中滑变电站１０ＫＶ翔宇５４９线路全线停电【变更送电】因抢修进度加快原因，送电时间由０６：００变更为０２：００【发布渠道】通过９５５９８发布","powerTime":"2019-10-05 01:36:53","powerComm":"已送电","subsNo":"","lineNo":"","tgNo":"","tgName":null,"infoStatus":"1","orgName":"国网蠡县供电公司","typeName":null,"infoStatusName":null,"dateDay":null,"orgNos":null,"nowTime":null,"countyName":null,"streetName":null,"villageName":null,"roadName":null,"communityName":null,"tranName":null,"sdLineName":null,"cityCode":"1340616","cityName":"国网蠡县供电公司","provinceCode":null,"stopTime":"2019-10-05 02:00:00","powerType":"全部","powerOffArea":"【全线路停电】停蠡县翔宇羊绒制品有限公司变压器,蠡县平安路联友塑钢门窗组装部,蠡县奥德燃气有限公司变压器,保定顺邦门窗制造有限公司变压器,蠡县万隆汽车修理厂变压器,蠡县郑村经联面粉厂,蠡县鑫源人造皮毛厂变压器,蠡县恒泰嘉业化纤制品有限公司变压器,蠡县消防大队综合一台区,蠡县恒泰嘉业化纤制品有限公司变压器1000,蠡县东泰建筑材料制品有限公司变压器","powerOffReason":"【停电原因】由于站内开关掉闸导致１１０ＫＶ中滑变电站１０ＫＶ翔宇５４９线路全线停电【变更送电】因抢修进度加快原因，送电时间由０６：００变更为０２：００【发布渠道】通过９５５９８发布","powerOffId":"2019100413000430"},{"poweroffId":2019100413000412,"sgpoweroffId":null,"subsName":"","lineName":"孟村线511","pubTranName":"北龙山6号【纯农排变】,兴隆庄4号,孟村12号【纯农排变】,它里5号,兴隆庄2号,它里2号,它里3号,它里1号,小北庄1号【纯农排变】,它里12号,它里9号,王庄3号d【纯农排变】,孟村1号,小北庄2号,它里6号【纯农排变】,它里7号【纯农排变】,它里10号【纯农排变】,它里14号【纯农排变】,兴隆庄1号,孟村11号,北龙山5号,兴隆庄3号,它里15号,孟村9号【纯农排变】,它里8号【纯农排变】,北龙山1号,它里11号【纯农排变】,它里13号,小北庄3号,","scope":"【影响街道/乡镇】大王店镇 【高危重要客户】无 【影响客户】小北庄、它里、王庄、北龙山、兴隆庄、孟村","startTime":"2019-10-04 16:35:59","stopDate":"2019-10-04 18:30:00","orgNo":"1340605","typeCode":"电网故障停限电","poweroffArea":"【全线路停电】停小北庄3号,它里9号,它里6号【纯农排变】,王庄3号d【纯农排变】,徐水县天宇床垫加工厂,北龙山6号【纯农排变】,徐水县建华采石厂（二采区2号）,它里7号【纯农排变】,孟村果园,兴隆庄4号,孟村11号,满城县义兴纸箱厂,北龙山5号,它里3号,兴隆庄3号,它里1号,它里15号,红岩采石厂3号,王庄采石厂3号,昌盛纸箱厂,宏岩采石厂2号,小北庄1号【纯农排变】,孟村9号【纯农排变】,它里12号,它里8号【纯农排变】,宏昌石渣厂1号,徐水县孟村红岩采石厂,徐水县占平石渣厂2号,徐水县建华采石厂占平采区3号,宏昌采石厂2号,孟村1号,宏昌采石厂3号,小北庄2号,孟村12号【纯农排变】,它里10号【纯农排变】,它里5号,它里14号【纯农排变】,王庄采石厂1号,兴隆庄1号,兴隆庄2号,兴隆庄管厂,它里2号,北龙山1号,兴隆庄塑料厂,王庄采石场2号（建华）,孟村4号【纯农排变】,孟村石渣厂二厂,它里11号【纯农排变】,它里4号【纯农排变】,它里13号","poweroffReason":"【停电原因】由于Ｂ相接地导致３５ＫＶ童庄变电站孟村线５１１线路全线停电 【变更送电】因工作未完成原因，送电时间由１８:００变更为１８:３０ 【发布渠道】通过９５５９８发布","powerTime":"2019-10-04 18:09:06","powerComm":"已送电","subsNo":"","lineNo":"","tgNo":"","tgName":null,"infoStatus":"1","orgName":"国网徐水县供电公司","typeName":null,"infoStatusName":null,"dateDay":null,"orgNos":null,"nowTime":null,"countyName":null,"streetName":null,"villageName":null,"roadName":null,"communityName":null,"tranName":null,"sdLineName":null,"cityCode":"1340605","cityName":"国网徐水县供电公司","provinceCode":null,"stopTime":"2019-10-04 18:30:00","powerType":"全部","powerOffArea":"【全线路停电】停小北庄3号,它里9号,它里6号【纯农排变】,王庄3号d【纯农排变】,徐水县天宇床垫加工厂,北龙山6号【纯农排变】,徐水县建华采石厂（二采区2号）,它里7号【纯农排变】,孟村果园,兴隆庄4号,孟村11号,满城县义兴纸箱厂,北龙山5号,它里3号,兴隆庄3号,它里1号,它里15号,红岩采石厂3号,王庄采石厂3号,昌盛纸箱厂,宏岩采石厂2号,小北庄1号【纯农排变】,孟村9号【纯农排变】,它里12号,它里8号【纯农排变】,宏昌石渣厂1号,徐水县孟村红岩采石厂,徐水县占平石渣厂2号,徐水县建华采石厂占平采区3号,宏昌采石厂2号,孟村1号,宏昌采石厂3号,小北庄2号,孟村12号【纯农排变】,它里10号【纯农排变】,它里5号,它里14号【纯农排变】,王庄采石厂1号,兴隆庄1号,兴隆庄2号,兴隆庄管厂,它里2号,北龙山1号,兴隆庄塑料厂,王庄采石场2号（建华）,孟村4号【纯农排变】,孟村石渣厂二厂,它里11号【纯农排变】,它里4号【纯农排变】,它里13号","powerOffReason":"【停电原因】由于Ｂ相接地导致３５ＫＶ童庄变电站孟村线５１１线路全线停电 【变更送电】因工作未完成原因，送电时间由１８:００变更为１８:３０ 【发布渠道】通过９５５９８发布","powerOffId":"2019100413000412"},{"poweroffId":2019100413000409,"sgpoweroffId":null,"subsName":"","lineName":"10KV洛平513","pubTranName":"南洛平村南井,东洛平村东2,南洛平村北变压器,南洛平南双山变压器,南洛平东庄变压器,东洛平1.2号变压器,南洛平东坡井变压器,南洛平村南变压器,南洛平村西2,东洛平光伏2号,东洛平光伏1号变,东洛平南坡井变压器,东洛平村北井,南洛平村北台区,东洛平村西台区,东洛平光伏三号,东洛平村内2|0677,东洛平怪草沟|0678,东洛平金家坟井,东洛平村南台区,东洛平鬼市坡井,东洛平光伏5号,东洛平光伏4号,东洛平村北,南洛平幼儿园,南洛平南坡1号井,","scope":"【影响街道/乡镇】永阳镇 【高危重要客户】无 【影响客户】东洛平村、南洛平村","startTime":"2019-10-04 16:25:50","stopDate":"2019-10-04 18:00:00","orgNo":"1340614","typeCode":"电网故障停限电","poweroffArea":"【分支停电】停南洛平南坡1号井,南洛平南双山变压器,南洛平东庄变压器,东洛平1.2号变压器,南洛平东坡井变压器,南洛平村南变压器,南洛平村西2,东洛平光伏2号,东洛平光伏1号变,东洛平南坡井变压器,东洛平村北井,南洛平村北台区,东洛平村西台区,东洛平光伏三号,东洛平村内2|0677,南洛平村南井,东洛平村东2,南洛平村北变压器,东洛平怪草沟|0678,东洛平金家坟井,东洛平村南台区,东洛平鬼市坡井,东洛平光伏5号,东洛平光伏4号,东洛平村北,南洛平幼儿园","poweroffReason":"【停电原因】由于设备线夹烧毁导致３５ＫＶ永阳变电站１０ＫＶ洛平５１３线路南洛平分支７０号杆至８６号杆停电 【变更送电】因抢修进度加快原因，送电时间由１９：００变更为１８：００ 【发布渠道】通过９５５９８发布","powerTime":"2019-10-04 17:10:20","powerComm":"已送电","subsNo":"","lineNo":"","tgNo":"","tgName":null,"infoStatus":"1","orgName":"国网涞水县供电公司","typeName":null,"infoStatusName":null,"dateDay":null,"orgNos":null,"nowTime":null,"countyName":null,"streetName":null,"villageName":null,"roadName":null,"communityName":null,"tranName":null,"sdLineName":null,"cityCode":"1340614","cityName":"国网涞水县供电公司","provinceCode":null,"stopTime":"2019-10-04 18:00:00","powerType":"全部","powerOffArea":"【分支停电】停南洛平南坡1号井,南洛平南双山变压器,南洛平东庄变压器,东洛平1.2号变压器,南洛平东坡井变压器,南洛平村南变压器,南洛平村西2,东洛平光伏2号,东洛平光伏1号变,东洛平南坡井变压器,东洛平村北井,南洛平村北台区,东洛平村西台区,东洛平光伏三号,东洛平村内2|0677,南洛平村南井,东洛平村东2,南洛平村北变压器,东洛平怪草沟|0678,东洛平金家坟井,东洛平村南台区,东洛平鬼市坡井,东洛平光伏5号,东洛平光伏4号,东洛平村北,南洛平幼儿园","powerOffReason":"【停电原因】由于设备线夹烧毁导致３５ＫＶ永阳变电站１０ＫＶ洛平５１３线路南洛平分支７０号杆至８６号杆停电 【变更送电】因抢修进度加快原因，送电时间由１９：００变更为１８：００ 【发布渠道】通过９５５９８发布","powerOffId":"2019100413000409"},{"poweroffId":2019100413000398,"sgpoweroffId":null,"subsName":"","lineName":"10kV西环路515","pubTranName":"西环中医院变压器出线间隔配电变压器,阳光鑫园小区315,西环一号井,兴华房地产,西环林业局变压器出线间隔配电变压器,阳光鑫园小区,文山路南公用出线间隔配电变压器,三里铺村东变压器出线间隔配电变压器,汇通房地产2*500KVA专变01#,住建局100KVA专变,涞水县住房和城乡建设局200KVA专变,三里铺村混用变压器,中盛房地产开发有限公司新增变压器,东方万泰公司,中盛房地产开发有限公司新增变压器630KVA一台,永泰房地产祥和苑小区B1250,家兴超市,三里铺村西变压器,永泰房地产祥和苑小区A1250,局大楼用电2#变,地税门口变压器出线间隔配电变压器,汇通房地产2*500KVA专变1#,涞水县住房和城乡建设局200KVA专变1#,三里铺村内2,七二六家属院公用变压器,西环南口公用变压器出线间隔配电变压器,","scope":"【影响街道/乡镇】涞水镇 【高危重要客户】无 【影响客户】西环路、三里铺村、地税局、林业局、畜牧局、筑建局、祥和苑、中医院、西苑华庭小区、阳光欣园、汇通房地产、汇通小区、726家属院、富民小区、文山路口以南西环两侧、盛世对面、家兴超市、兴华房地产、东方万泰公司、检察院、检察院家属楼、蜀风苑饭店","startTime":"2019-10-05 02:30:00","stopDate":"2019-10-05 05:30:00","orgNo":"1340614","typeCode":"其他临时停电","poweroffArea":"【全线路停电】停阳光鑫园小区315,西环中医院变压器出线间隔配电变压器,西环一号井,兴华房地产,西环林业局变压器出线间隔配电变压器,阳光鑫园小区,文山路南公用出线间隔配电变压器,三里铺村东变压器出线间隔配电变压器,汇通房地产2*500KVA专变01#,住建局100KVA专变,涞水县住房和城乡建设局200KVA专变,三里铺村混用变压器,中盛房地产开发有限公司新增变压器,东方万泰公司,中盛房地产开发有限公司新增变压器630KVA一台,永泰房地产祥和苑小区B1250,家兴超市,三里铺村西变压器,永泰房地产祥和苑小区A1250,局大楼用电2#变,地税门口变压器出线间隔配电变压器,汇通房地产2*500KVA专变1#,涞水县住房和城乡建设局200KVA专变1#,三里铺村内2,七二六家属院公用变压器,西环南口公用变压器出线间隔配电变压器","poweroffReason":"【停电原因】由于刀闸温度过高，需停电进行紧急消缺导致１１０ＫＶ涞水变电站１０ＫＶ西环路５１５线路全线停电 【变更送电】无 【发布渠道】通过９５５９８发布","powerTime":"2019-10-05 05:08:57","powerComm":"已送电","subsNo":"","lineNo":"","tgNo":"","tgName":null,"infoStatus":"1","orgName":"国网涞水县供电公司","typeName":null,"infoStatusName":null,"dateDay":null,"orgNos":null,"nowTime":null,"countyName":null,"streetName":null,"villageName":null,"roadName":null,"communityName":null,"tranName":null,"sdLineName":null,"cityCode":"1340614","cityName":"国网涞水县供电公司","provinceCode":null,"stopTime":"2019-10-05 05:30:00","powerType":"全部","powerOffArea":"【全线路停电】停阳光鑫园小区315,西环中医院变压器出线间隔配电变压器,西环一号井,兴华房地产,西环林业局变压器出线间隔配电变压器,阳光鑫园小区,文山路南公用出线间隔配电变压器,三里铺村东变压器出线间隔配电变压器,汇通房地产2*500KVA专变01#,住建局100KVA专变,涞水县住房和城乡建设局200KVA专变,三里铺村混用变压器,中盛房地产开发有限公司新增变压器,东方万泰公司,中盛房地产开发有限公司新增变压器630KVA一台,永泰房地产祥和苑小区B1250,家兴超市,三里铺村西变压器,永泰房地产祥和苑小区A1250,局大楼用电2#变,地税门口变压器出线间隔配电变压器,汇通房地产2*500KVA专变1#,涞水县住房和城乡建设局200KVA专变1#,三里铺村内2,七二六家属院公用变压器,西环南口公用变压器出线间隔配电变压器","powerOffReason":"【停电原因】由于刀闸温度过高，需停电进行紧急消缺导致１１０ＫＶ涞水变电站１０ＫＶ西环路５１５线路全线停电 【变更送电】无 【发布渠道】通过９５５９８发布","powerOffId":"2019100413000398"},{"poweroffId":2019100413000360,"sgpoweroffId":null,"subsName":"","lineName":"10kV514导务线","pubTranName":"麦旺730|24000730,康北庄西综合8373,康北庄0950|24000950,导务2740,柴各庄综合6015,燕子水0800|24000800,小掌,北康关东北综合8456,北康关东庄0860|24000860,南康关2460|24002460,东白司城综合7836,柴各庄北2150|24002150,柴各庄南2160|24002160,南康关东庄0830|24000830,导务西0910|24000910,南康关0820|24000820,南康关东综合8368,北康关2580|24002580,北康关村西0990|24000990,麦旺750|24000750,导务东0770|24000770,柴各庄综合8340,北康关村0870|24000870,南康关南综合7861,导务村南2610|24002610,南康关村西1000|24001000,康关北综合2127,小掌东综合,","scope":"【影响街道/乡镇】台鱼乡【高危重要客户】无【影响客户】麦旺、导务、燕子水、南康关、南康关、北康关东庄、北康关、小掌村、康关北庄、柴各庄、东白司城、东安阳、东柏山、西柏山、秀兰庄园、台鱼乡政府","startTime":"2019-10-04 15:04:06","stopDate":"2019-10-04 18:30:00","orgNo":"1340621","typeCode":"电网故障停限电","poweroffArea":"【全线路停电】停燕子水0800|24000800,柴各庄十亩湾2120#农排|24002120,小掌,北康关东北综合8456,北康关东庄0860|24000860,南康关2460|24002460,东白司城综合7836,保定太行肠衣有限公司,燕子水农业7927,柴各庄南2160|24002160,南康关东庄0830|24000830,台鱼乡政府,导务西0910|24000910,北康关2580|24002580,北康关村西0990|24000990,导务村南2610|24002610,柴各庄北2150|24002150,0684640732-佛光寺-专变-225174026-佛光寺200,南康关0820|24000820,南康关东综合8368,东安阳综合8335,南康关村西1000|24001000,柴各庄西燕坡2110#农排|24002110,康关北综合2127,小掌东综合,麦旺730|24000730,康北庄西综合8373,康北庄0950|24000950,东安阳西北2240#农排|24002240,康北庄东综合7869,导务2740,柴各庄综合6015,0469472093-中国铁塔股份有限公司保定市分公司-专变-46816867-中国移动,柴各庄村内农业2844,麦旺750|24000750,导务东0770|24000770,柴各庄综合8340,北康关村0870|24000870,南康关南综合7861","poweroffReason":"【停电原因】由于太行肠衣变压器跌落烧毁导致３５ＫＶ安阳变电站１０ＫＶ５１４导务线路全线停电【变更送电】因抢修进度加快原因，送电时间由２２：００变更为１８：３０【发布渠道】通过９５５９８发布","powerTime":"2019-10-04 17:57:07","powerComm":"已送电","subsNo":"","lineNo":"","tgNo":"","tgName":null,"infoStatus":"1","orgName":"国网顺平县电力局","typeName":null,"infoStatusName":null,"dateDay":null,"orgNos":null,"nowTime":null,"countyName":null,"streetName":null,"villageName":null,"roadName":null,"communityName":null,"tranName":null,"sdLineName":null,"cityCode":"1340621","cityName":"国网顺平县电力局","provinceCode":null,"stopTime":"2019-10-04 18:30:00","powerType":"全部","powerOffArea":"【全线路停电】停燕子水0800|24000800,柴各庄十亩湾2120#农排|24002120,小掌,北康关东北综合8456,北康关东庄0860|24000860,南康关2460|24002460,东白司城综合7836,保定太行肠衣有限公司,燕子水农业7927,柴各庄南2160|24002160,南康关东庄0830|24000830,台鱼乡政府,导务西0910|24000910,北康关2580|24002580,北康关村西0990|24000990,导务村南2610|24002610,柴各庄北2150|24002150,0684640732-佛光寺-专变-225174026-佛光寺200,南康关0820|24000820,南康关东综合8368,东安阳综合8335,南康关村西1000|24001000,柴各庄西燕坡2110#农排|24002110,康关北综合2127,小掌东综合,麦旺730|24000730,康北庄西综合8373,康北庄0950|24000950,东安阳西北2240#农排|24002240,康北庄东综合7869,导务2740,柴各庄综合6015,0469472093-中国铁塔股份有限公司保定市分公司-专变-46816867-中国移动,柴各庄村内农业2844,麦旺750|24000750,导务东0770|24000770,柴各庄综合8340,北康关村0870|24000870,南康关南综合7861","powerOffReason":"【停电原因】由于太行肠衣变压器跌落烧毁导致３５ＫＶ安阳变电站１０ＫＶ５１４导务线路全线停电【变更送电】因抢修进度加快原因，送电时间由２２：００变更为１８：３０【发布渠道】通过９５５９８发布","powerOffId":"2019100413000360"}],"pageModel":{"pageNow":529,"totalCount":10973,"totalPage":1098,"tableRows":0,"pageCount":10,"beginCount":5280},"isExperi":"1"}