{"message":"","today":"2020-06-15","seleList":[{"poweroffId":2019100413000341,"sgpoweroffId":null,"subsName":"","lineName":"10KV丛西线514","pubTranName":"周家庄村北变压器,","scope":"【影响街道/乡镇】永阳镇 【高危重要客户】无 【影响客户】周家庄村","startTime":"2019-10-04 14:38:59","stopDate":"2019-10-04 16:30:00","orgNo":"1340614","typeCode":"电网故障停限电","poweroffArea":"【单台区停电】停周家庄村北变压器","poweroffReason":"【停电原因】由于设备线夹烧毁导致３５ＫＶ永阳变电站１０ＫＶ丛西线５１４线路周家庄村北公变台区停电 【变更送电】无 【发布渠道】通过９５５９８发布","powerTime":"2019-10-04 15:33:15","powerComm":"已送电","subsNo":"","lineNo":"","tgNo":"","tgName":null,"infoStatus":"1","orgName":"国网涞水县供电公司","typeName":null,"infoStatusName":null,"dateDay":null,"orgNos":null,"nowTime":null,"countyName":null,"streetName":null,"villageName":null,"roadName":null,"communityName":null,"tranName":null,"sdLineName":null,"cityCode":"1340614","cityName":"国网涞水县供电公司","provinceCode":null,"stopTime":"2019-10-04 16:30:00","powerType":"全部","powerOffArea":"【单台区停电】停周家庄村北变压器","powerOffReason":"【停电原因】由于设备线夹烧毁导致３５ＫＶ永阳变电站１０ＫＶ丛西线５１４线路周家庄村北公变台区停电 【变更送电】无 【发布渠道】通过９５５９８发布","powerOffId":"2019100413000341"},{"poweroffId":2019100413000334,"sgpoweroffId":null,"subsName":"","lineName":"10kV北王力线512","pubTranName":"1西王力内1,1西王力内6,客户投资_1西王力内2,1北王力内16,1东王力内1,1北王力内10,1西王力内11,1北王力内3,1西王力内9,1东王力内3,1西王力内5,北王力乡中心幼儿园,1北王力内2,1西王力内3,北王力中学3,1北王力内13,1罗营内9,1北王力内8,1北王力内5,1西王力内7,北王力中学2,1北王力内12,北王力中学1,2西王力外13,2北王力外22,西王力小学,1北王力内15,1北王力内7,1罗营内1,1东王力内2,1北王力内9,1北王力内1,北王力内11,1北王力内17,1西王力内4,1北王力内14,1北王力内6,1西王力内10,1西王力内8,1北王力内4,","scope":"【影响街道/乡镇】北王力乡 【高危重要客户】无 【影响客户】东王力、西王力、北王力、罗家营","startTime":"2019-10-04 14:34:48","stopDate":"2019-10-04 17:30:00","orgNo":"1340618","typeCode":"电网故障停限电","poweroffArea":"【全线路停电】停2西王力外4【纯农排变】,1西王力内7,2北王力外2【纯农排变】,2东王力外4【纯农排变】,清苑县西王力鑫利面粉厂,1西王力内1,2北王力外12【纯农排变】,1西王力内6,2北王力外6【纯农排变】,客户投资_1西王力内2,2西王力外1【纯农排变】,2北王力外14【纯农排变】,2东王力外1【纯农排变】,2西王力外12【纯农排变】,1北王力内16,2北王力外9【纯农排变】,2西王力外5【纯农排变】,1北王力内3,2北王力外13【纯农排变】,1东王力内1,1北王力内10,1西王力内11,北王力东2,0387497080-北王力东-专变-45318667-北王力东1,北王力村村东,保定市清苑区增亮废旧木材加工处,李建雄猪场,西王力冰棍房,2西王力外7【纯农排变】,北王力西1,2北王力外15【纯农排变】,2西王力外11【纯农排变】,保定富泰隆服装有限公司,东王力付俊峰猪场,1西王力内9,1东王力内3,北王力砖厂东,1西王力内5,2北王力外18【纯农排变】,2北王力外20【纯农排变】,北王力乡中心幼儿园,1北王力内2,1西王力内3,北王力中学3,1北王力内13,1罗营内9,1北王力内8,0387497211-北王力西-专变-45318669-北王力西2,2罗营外1【纯农排变】,2北王力外10【纯农排变】,2北王力外8【纯农排变】,2西王力外2【纯农排变】,2西王力外9【纯农排变】,北王力堤北,2北王力外17【纯农排变】,东王力外5【纯农排变】,1北王力内5,2北王力外4【纯农排变】,2北王力外5【纯农排变】,2北王力外11【纯农排变】,北王力中学2,1北王力内12,2北王力外21【纯农排变】,2西王力外3【纯农排变】,北王力中学1,2西王力外13,2北王力外3【纯农排变】,2北王力外7【纯农排变】,2西王力外8【纯农排变】,2东王力外6【纯农排变】,2北王力外22,2西王力外10【纯农排变】,2北王力外16【纯农排变】,2东王力外3【纯农排变】,西王力小学,2西王力外6【纯农排变】,2北王力外1【纯农排变】,1北王力内15,1北王力内7,2东王力外7【纯农排变】,1罗营内1,1东王力内2,2东王力外2【纯农排变】,保定市清苑区北王力中学,保定市清苑区顺腾木器加工厂,2北王力外19【纯农排变】,1北王力内9,1北王力内1,北王力内11,1北王力内17,1西王力内4,国网河北清苑县供电公司罗家营供电所,1北王力内14,1北王力内6,1西王力内10,北王力村村西,1西王力内8,1北王力内4","poweroffReason":"【停电原因】由于主干１号杆开关掉闸导致３５ＫＶ罗家营变电站１０ＫＶ北王力线５１２线路全线停电 【变更送电】因抢修进度加快原因，送电时间由２１：００变更为１７：３０ 【发布渠道】通过９５５９８发布","powerTime":"2019-10-04 17:07:32","powerComm":"霍争强通知已送电","subsNo":"","lineNo":"","tgNo":"","tgName":null,"infoStatus":"1","orgName":"国网清苑县供电公司","typeName":null,"infoStatusName":null,"dateDay":null,"orgNos":null,"nowTime":null,"countyName":null,"streetName":null,"villageName":null,"roadName":null,"communityName":null,"tranName":null,"sdLineName":null,"cityCode":"1340618","cityName":"国网清苑县供电公司","provinceCode":null,"stopTime":"2019-10-04 17:30:00","powerType":"全部","powerOffArea":"【全线路停电】停2西王力外4【纯农排变】,1西王力内7,2北王力外2【纯农排变】,2东王力外4【纯农排变】,清苑县西王力鑫利面粉厂,1西王力内1,2北王力外12【纯农排变】,1西王力内6,2北王力外6【纯农排变】,客户投资_1西王力内2,2西王力外1【纯农排变】,2北王力外14【纯农排变】,2东王力外1【纯农排变】,2西王力外12【纯农排变】,1北王力内16,2北王力外9【纯农排变】,2西王力外5【纯农排变】,1北王力内3,2北王力外13【纯农排变】,1东王力内1,1北王力内10,1西王力内11,北王力东2,0387497080-北王力东-专变-45318667-北王力东1,北王力村村东,保定市清苑区增亮废旧木材加工处,李建雄猪场,西王力冰棍房,2西王力外7【纯农排变】,北王力西1,2北王力外15【纯农排变】,2西王力外11【纯农排变】,保定富泰隆服装有限公司,东王力付俊峰猪场,1西王力内9,1东王力内3,北王力砖厂东,1西王力内5,2北王力外18【纯农排变】,2北王力外20【纯农排变】,北王力乡中心幼儿园,1北王力内2,1西王力内3,北王力中学3,1北王力内13,1罗营内9,1北王力内8,0387497211-北王力西-专变-45318669-北王力西2,2罗营外1【纯农排变】,2北王力外10【纯农排变】,2北王力外8【纯农排变】,2西王力外2【纯农排变】,2西王力外9【纯农排变】,北王力堤北,2北王力外17【纯农排变】,东王力外5【纯农排变】,1北王力内5,2北王力外4【纯农排变】,2北王力外5【纯农排变】,2北王力外11【纯农排变】,北王力中学2,1北王力内12,2北王力外21【纯农排变】,2西王力外3【纯农排变】,北王力中学1,2西王力外13,2北王力外3【纯农排变】,2北王力外7【纯农排变】,2西王力外8【纯农排变】,2东王力外6【纯农排变】,2北王力外22,2西王力外10【纯农排变】,2北王力外16【纯农排变】,2东王力外3【纯农排变】,西王力小学,2西王力外6【纯农排变】,2北王力外1【纯农排变】,1北王力内15,1北王力内7,2东王力外7【纯农排变】,1罗营内1,1东王力内2,2东王力外2【纯农排变】,保定市清苑区北王力中学,保定市清苑区顺腾木器加工厂,2北王力外19【纯农排变】,1北王力内9,1北王力内1,北王力内11,1北王力内17,1西王力内4,国网河北清苑县供电公司罗家营供电所,1北王力内14,1北王力内6,1西王力内10,北王力村村西,1西王力内8,1北王力内4","powerOffReason":"【停电原因】由于主干１号杆开关掉闸导致３５ＫＶ罗家营变电站１０ＫＶ北王力线５１２线路全线停电 【变更送电】因抢修进度加快原因，送电时间由２１：００变更为１７：３０ 【发布渠道】通过９５５９８发布","powerOffId":"2019100413000334"},{"poweroffId":2019100413000308,"sgpoweroffId":null,"subsName":"","lineName":"正村线525","pubTranName":"杨庄20号,","scope":"【影响街道/乡镇】正村乡 【高危重要客户】无 【影响客户】杨庄、高各庄、曹各庄、正村、元头、杨庄","startTime":"2019-10-04 13:58:18","stopDate":"2019-10-04 16:00:00","orgNo":"1340605","typeCode":"电网故障停限电","poweroffArea":"【全线路停电】停正村11号【纯农排变】,杨庄1号,高各庄5号,曹各庄1号,曹各庄3号,曹各庄2号【纯农排变】,曹各庄4号,高各庄12号,高各庄13号【纯农排变】,高各庄16号,高各庄9号【纯农排变】,高各庄8号【纯农排变】,高各庄6号【纯农排变】,高各庄21号【纯农排变】,高各庄24号,高各庄26号,高各庄10号【纯农排变】,高各庄17号【纯农排变】,高各庄7号,正村供电所3号【纯农排变】,正村31号,正村25号【纯农排变】,正村21号【纯农排变】,正村10号,元头6号【纯农排变】,元头5号,元头10号【纯农排变】,杨庄2号,杨庄3号,杨庄7号【纯农排变】,杨庄4号,杨庄20号,供电所4号【纯农排变】,杨庄19号,杨庄17号【纯农排变】,杨庄18号【纯农排变】,杨庄16号【纯农排变】,杨庄15号【纯农排变】,杨庄10号","poweroffReason":"【停电原因】由于Ｂ相接地导致１１０ＫＶ遂城变电站正村线５２５线路全线停电 【变更送电】因抢修进度加快原因，送电时间由２３:００变更为１６:００ 【发布渠道】通过９５５９８发布","powerTime":"2019-10-04 15:13:17","powerComm":"已送电","subsNo":"","lineNo":"","tgNo":"","tgName":null,"infoStatus":"1","orgName":"国网徐水县供电公司","typeName":null,"infoStatusName":null,"dateDay":null,"orgNos":null,"nowTime":null,"countyName":null,"streetName":null,"villageName":null,"roadName":null,"communityName":null,"tranName":null,"sdLineName":null,"cityCode":"1340605","cityName":"国网徐水县供电公司","provinceCode":null,"stopTime":"2019-10-04 16:00:00","powerType":"全部","powerOffArea":"【全线路停电】停正村11号【纯农排变】,杨庄1号,高各庄5号,曹各庄1号,曹各庄3号,曹各庄2号【纯农排变】,曹各庄4号,高各庄12号,高各庄13号【纯农排变】,高各庄16号,高各庄9号【纯农排变】,高各庄8号【纯农排变】,高各庄6号【纯农排变】,高各庄21号【纯农排变】,高各庄24号,高各庄26号,高各庄10号【纯农排变】,高各庄17号【纯农排变】,高各庄7号,正村供电所3号【纯农排变】,正村31号,正村25号【纯农排变】,正村21号【纯农排变】,正村10号,元头6号【纯农排变】,元头5号,元头10号【纯农排变】,杨庄2号,杨庄3号,杨庄7号【纯农排变】,杨庄4号,杨庄20号,供电所4号【纯农排变】,杨庄19号,杨庄17号【纯农排变】,杨庄18号【纯农排变】,杨庄16号【纯农排变】,杨庄15号【纯农排变】,杨庄10号","powerOffReason":"【停电原因】由于Ｂ相接地导致１１０ＫＶ遂城变电站正村线５２５线路全线停电 【变更送电】因抢修进度加快原因，送电时间由２３:００变更为１６:００ 【发布渠道】通过９５５９８发布","powerOffId":"2019100413000308"},{"poweroffId":2019100413000290,"sgpoweroffId":null,"subsName":"","lineName":"10kV548北王线","pubTranName":"南王综合2台区,陈村综合1台区,中滑综合7台区,陈村综合3台区,南王农排2台区【纯农排变】,东滑农排2台区【纯农排变】,北王农排6台区【纯农排变】,东滑综合6台区,南王综合3台区,南王农排9台区【纯农排变】,中滑综合3台区,东滑综合11台区,南王综合7台区,北王综合4台区,南王综合5台区,陈村农排11台区【纯农排变】,陈村综合4台区,客户投资_中滑综合6台区,陈村综合6台区,北王农排4台区【纯农排变】,中滑农排1台区【纯农排变】,陈村综合7台区（小学）,北王综合1台区,南王综合1台区,陈村农排9台区【纯农排变】,蠡吾镇三中【冬季供暖设施】,北王综合2台区,东滑综合9台区,北王综合6台区,北王农排1台区【纯农排变】,东滑综合7台区,南王农排10台区【纯农排变】,南王综合6台区,东滑综合5台区,南王农排6台区【纯农排变】,东滑综合4台区,客户投资_陈村综合2台区,南王综合4台区,北王综合7台区,北王农排5台区【纯农排变】,北王综合3台区,北王综合5台区,中滑综合8台区,东滑综合10台区,南王农排7台区【纯农排变】,陈村综合5台区,南王综合9台区,东滑综合2台区,北王综合9台区变压器,东滑综合3台区【新乡】,陈村农排6台区【纯农排变】,北王综合10台区,南王综合10台区（小学）,南王农排1台区【纯农排变】,南王综合8台区,北王综合11台区,东滑综合1台区,东滑综合8台区,北王综合8台区（小学）,陈村农排8台区【纯农排变】,陈村农排4台区【纯农排变】,","scope":"【影响街道/乡镇】蠡吾镇【高危重要客户】无【影响客户】陈村（北陈村）、北王村、南王村、东滑村","startTime":"2019-10-04 13:12:02","stopDate":"2019-10-04 21:40:00","orgNo":"1340616","typeCode":"电网故障停限电","poweroffArea":"【全线路停电】停东滑综合6台区,南王农排4台区【纯农排变】,变压器,陈村综合1台区,中滑综合7台区,陈村综合3台区,东滑农排2台区【纯农排变】,北王农排6台区【纯农排变】,陈村农排9台区【纯农排变】,南王农排8台区【纯农排变】,南王综合2台区,南王农排2台区【纯农排变】,河北鹏宇商品混凝土有限公司,南王综合3台区,中滑综合3台区,东滑综合11台区,蠡县东滑永发板厂变压器,南王农排5台区【纯农排变】,南王综合7台区,北王综合4台区,陈村综合4台区,陈村综合6台区,陈村农排5台区【纯农排变】,中滑农排1台区【纯农排变】,陈村综合7台区（小学）,北王农排7台区【纯农排变】,北王综合1台区,南王综合1台区,蠡吾镇三中【冬季供暖设施】,东滑综合9台区,北王综合6台区,南王农排6台区【纯农排变】,陈村大壮,陈村农排7台区【纯农排变】,陈村农排1台区【纯农排变】,蠡县明盛毛纺厂变压器,新乡农排10台区【纯农排变】,保定嵘玥房地产开发有限公司,东滑综合2台区,南王农排9台区【纯农排变】,南王综合5台区,陈村农排11台区【纯农排变】,陈村农排3台区【纯农排变】,客户投资_中滑综合6台区,东滑农排3台区【纯农排变】,北王农排4台区【纯农排变】,北王综合2台区,南王农排3台区【纯农排变】,蠡县公交客运有限责任公司变压器,北王农排1台区【纯农排变】,蠡县鑫恒,东滑综合5台区,客户投资_陈村综合2台区,北王综合3台区,北王综合5台区,陈村农排2台区【纯农排变】,东滑综合7台区,南王农排10台区【纯农排变】,南王综合6台区,东滑综合4台区,南王综合4台区,北王综合7台区,北王农排5台区【纯农排变】,南王农排7台区【纯农排变】,东滑农排4台区【纯农排变】,北王农排8台区【纯农排变】,中滑综合8台区,东滑综合10台区,陈村综合5台区,南王综合9台区,北王综合9台区变压器,蠡县蠡吾镇北陈村永顺纺织厂变压器,东滑综合3台区【新乡】,陈村农排6台区【纯农排变】,北王综合10台区,南王综合10台区（小学）,南王综合8台区,南王农排1台区【纯农排变】,北王综合11台区,东滑综合1台区,东滑综合8台区,蠡县新乡新诚彩钢厂变压器,北王综合8台区（小学）,陈村农排8台区【纯农排变】,陈村农排4台区【纯农排变】,北王农排2台区【纯农排变】","poweroffReason":"【停电原因】由于线路接地导致１１０ＫＶ中滑变电站１０ＫＶ北王５４８线路全线停电【变更送电】因抢修进度加快原因，送电时间由２３：００变更为２１：４０【发布渠道】通过９５５９８发布","powerTime":"2019-10-04 21:08:17","powerComm":"已送电","subsNo":"","lineNo":"","tgNo":"","tgName":null,"infoStatus":"1","orgName":"国网蠡县供电公司","typeName":null,"infoStatusName":null,"dateDay":null,"orgNos":null,"nowTime":null,"countyName":null,"streetName":null,"villageName":null,"roadName":null,"communityName":null,"tranName":null,"sdLineName":null,"cityCode":"1340616","cityName":"国网蠡县供电公司","provinceCode":null,"stopTime":"2019-10-04 21:40:00","powerType":"全部","powerOffArea":"【全线路停电】停东滑综合6台区,南王农排4台区【纯农排变】,变压器,陈村综合1台区,中滑综合7台区,陈村综合3台区,东滑农排2台区【纯农排变】,北王农排6台区【纯农排变】,陈村农排9台区【纯农排变】,南王农排8台区【纯农排变】,南王综合2台区,南王农排2台区【纯农排变】,河北鹏宇商品混凝土有限公司,南王综合3台区,中滑综合3台区,东滑综合11台区,蠡县东滑永发板厂变压器,南王农排5台区【纯农排变】,南王综合7台区,北王综合4台区,陈村综合4台区,陈村综合6台区,陈村农排5台区【纯农排变】,中滑农排1台区【纯农排变】,陈村综合7台区（小学）,北王农排7台区【纯农排变】,北王综合1台区,南王综合1台区,蠡吾镇三中【冬季供暖设施】,东滑综合9台区,北王综合6台区,南王农排6台区【纯农排变】,陈村大壮,陈村农排7台区【纯农排变】,陈村农排1台区【纯农排变】,蠡县明盛毛纺厂变压器,新乡农排10台区【纯农排变】,保定嵘玥房地产开发有限公司,东滑综合2台区,南王农排9台区【纯农排变】,南王综合5台区,陈村农排11台区【纯农排变】,陈村农排3台区【纯农排变】,客户投资_中滑综合6台区,东滑农排3台区【纯农排变】,北王农排4台区【纯农排变】,北王综合2台区,南王农排3台区【纯农排变】,蠡县公交客运有限责任公司变压器,北王农排1台区【纯农排变】,蠡县鑫恒,东滑综合5台区,客户投资_陈村综合2台区,北王综合3台区,北王综合5台区,陈村农排2台区【纯农排变】,东滑综合7台区,南王农排10台区【纯农排变】,南王综合6台区,东滑综合4台区,南王综合4台区,北王综合7台区,北王农排5台区【纯农排变】,南王农排7台区【纯农排变】,东滑农排4台区【纯农排变】,北王农排8台区【纯农排变】,中滑综合8台区,东滑综合10台区,陈村综合5台区,南王综合9台区,北王综合9台区变压器,蠡县蠡吾镇北陈村永顺纺织厂变压器,东滑综合3台区【新乡】,陈村农排6台区【纯农排变】,北王综合10台区,南王综合10台区（小学）,南王综合8台区,南王农排1台区【纯农排变】,北王综合11台区,东滑综合1台区,东滑综合8台区,蠡县新乡新诚彩钢厂变压器,北王综合8台区（小学）,陈村农排8台区【纯农排变】,陈村农排4台区【纯农排变】,北王农排2台区【纯农排变】","powerOffReason":"【停电原因】由于线路接地导致１１０ＫＶ中滑变电站１０ＫＶ北王５４８线路全线停电【变更送电】因抢修进度加快原因，送电时间由２３：００变更为２１：４０【发布渠道】通过９５５９８发布","powerOffId":"2019100413000290"},{"poweroffId":2019100413000274,"sgpoweroffId":null,"subsName":"","lineName":"贾西线515","pubTranName":"北柳絮内西北,北柳絮内西,南柳絮村内1号配变,北柳絮北中,南柳絮村东2配变,北柳絮村内,","scope":"【影响街道/乡镇】贾村乡 【高危重要客户】无 【影响客户】南柳絮、北柳絮","startTime":"2019-10-04 13:04:42","stopDate":"2019-10-04 15:20:00","orgNo":"1340623","typeCode":"电网故障停限电","poweroffArea":"【全线路停电】停北柳絮内西北,北柳絮内西,南柳絮村内1号配变,北柳絮北中,南柳絮村东2配变,北柳絮村内","poweroffReason":"【停电原因】由于Ｂ相接地导致３５ＫＶ贾村变电站贾西线５１５线路全线停电 【变更送电】因抢修进度加快原因，送电时间由２２：００变更为１５：２０ 【发布渠道】通过９５５９８发布","powerTime":"2019-10-04 14:45:25","powerComm":"已送电","subsNo":"","lineNo":"","tgNo":"","tgName":null,"infoStatus":"1","orgName":"国网望都县供电公司","typeName":null,"infoStatusName":null,"dateDay":null,"orgNos":null,"nowTime":null,"countyName":null,"streetName":null,"villageName":null,"roadName":null,"communityName":null,"tranName":null,"sdLineName":null,"cityCode":"1340623","cityName":"国网望都县供电公司","provinceCode":null,"stopTime":"2019-10-04 15:20:00","powerType":"全部","powerOffArea":"【全线路停电】停北柳絮内西北,北柳絮内西,南柳絮村内1号配变,北柳絮北中,南柳絮村东2配变,北柳絮村内","powerOffReason":"【停电原因】由于Ｂ相接地导致３５ＫＶ贾村变电站贾西线５１５线路全线停电 【变更送电】因抢修进度加快原因，送电时间由２２：００变更为１５：２０ 【发布渠道】通过９５５９８发布","powerOffId":"2019100413000274"},{"poweroffId":2019100413000238,"sgpoweroffId":null,"subsName":"","lineName":"遂城农业线521","pubTranName":"城北庄12号【纯农排变】,","scope":"【影响街道/乡镇】遂城镇 【高危重要客户】无 【影响客户】大庞村、东关村、巩固庄、城西村、张华村、谢坊村、城北庄、北马营、石桥村","startTime":"2019-10-04 11:50:02","stopDate":"2019-10-04 16:00:00","orgNo":"1340605","typeCode":"电网故障停限电","poweroffArea":"【全线路停电】停大庞村25号【纯农排变】,东关4号【纯农排变】,大庞村1号,巩固庄2号,城西2号,张华村4号,谢坊12号,东关8号【纯农排变】,城北庄7号【纯农排变】,城北庄4号【纯农排变】,城北庄12号【纯农排变】,北马营1号,变压器,石桥7号,城北庄10号,城北庄5号,城北庄3号【纯农排变】,大庞村面粉厂,城西面粉厂,古遂造纸厂,巩固庄采暖设备厂,石桥新兴印刷厂,今明后饮料公司,徐水县永昌法兰厂,保定市道路开发中心变压器,龙须面厂,遂城9号【纯农排变】,谢坊9号【纯农排变】,城北7号,城北庄11号,张华村1号,八达工艺品厂,久久集团乳业有限公司,徐水县邮政局遂城支局,徐水三生管件厂,刘山纸膜包装厂,永昌法兰长2号,遂城法兰加工厂,康进卫生巾厂,北马营2号,遂城镇政府,大庞村22号,石桥8号【纯农排变】,城西13号【纯农排变】,城北6号,城北9号【纯农排变】,河北徐水经济开发区管委会,大庞村11号,东关5号,张华村9号,大庞村26号,谢坊21号【纯农排变】,城北2号【纯农排变】,城西8号,东关7号,谢坊6号【纯农排变】,谢坊1号,城西7号,石桥3号,巩固庄15号,城北8号【纯农排变】,北马营7号,城西10号,石桥2号,城西5号【纯农排变】,北马营5号【纯农排变】,北马营6号,城西3号,城西1号,城北庄8号【纯农排变】,东关1号,奥峰锻造厂,城北庄6号【纯农排变】,石桥10号【纯农排变】,徐水颐和园酒厂,城西12号【纯农排变】,河北诗林醉酿酒有限公司,徐水县新泰工贸有限公司,河北青竹酿酒有限公司,城西6号【纯农排变】,城西4号【纯农排变】,张华村7号,遂城14号,城北庄1号,东关2号【纯农排变】,巩固庄11号,城北3号【纯农排变】,大庞村24号,石桥4号【纯农排变】,城西15号【纯农排变】,石桥1号,城西16号,城北庄9号,城北庄2号,遂城18号,城西9号,石桥5号【纯农排变】,北马营4号【纯农排变】,东关6号,石桥6号【纯农排变】,东关3号【纯农排变】,城北5号,城北4号【纯农排变】,城西11号,城北1号,北马营3号【纯农排变】,石桥9号,谢坊11号,城西14号【纯农排变】,张华村6号【纯农排变】,谢坊25号","poweroffReason":"【停电原因】由于Ｂ相接地导致１１０ＫＶ遂城变电站遂城农业线５２１线路全线停电 【变更送电】因抢修进度加快原因，送电时间由２３:００变更为１６:００ 【发布渠道】通过９５５９８发布","powerTime":"2019-10-04 15:37:24","powerComm":"已送电","subsNo":"","lineNo":"","tgNo":"","tgName":null,"infoStatus":"1","orgName":"国网徐水县供电公司","typeName":null,"infoStatusName":null,"dateDay":null,"orgNos":null,"nowTime":null,"countyName":null,"streetName":null,"villageName":null,"roadName":null,"communityName":null,"tranName":null,"sdLineName":null,"cityCode":"1340605","cityName":"国网徐水县供电公司","provinceCode":null,"stopTime":"2019-10-04 16:00:00","powerType":"全部","powerOffArea":"【全线路停电】停大庞村25号【纯农排变】,东关4号【纯农排变】,大庞村1号,巩固庄2号,城西2号,张华村4号,谢坊12号,东关8号【纯农排变】,城北庄7号【纯农排变】,城北庄4号【纯农排变】,城北庄12号【纯农排变】,北马营1号,变压器,石桥7号,城北庄10号,城北庄5号,城北庄3号【纯农排变】,大庞村面粉厂,城西面粉厂,古遂造纸厂,巩固庄采暖设备厂,石桥新兴印刷厂,今明后饮料公司,徐水县永昌法兰厂,保定市道路开发中心变压器,龙须面厂,遂城9号【纯农排变】,谢坊9号【纯农排变】,城北7号,城北庄11号,张华村1号,八达工艺品厂,久久集团乳业有限公司,徐水县邮政局遂城支局,徐水三生管件厂,刘山纸膜包装厂,永昌法兰长2号,遂城法兰加工厂,康进卫生巾厂,北马营2号,遂城镇政府,大庞村22号,石桥8号【纯农排变】,城西13号【纯农排变】,城北6号,城北9号【纯农排变】,河北徐水经济开发区管委会,大庞村11号,东关5号,张华村9号,大庞村26号,谢坊21号【纯农排变】,城北2号【纯农排变】,城西8号,东关7号,谢坊6号【纯农排变】,谢坊1号,城西7号,石桥3号,巩固庄15号,城北8号【纯农排变】,北马营7号,城西10号,石桥2号,城西5号【纯农排变】,北马营5号【纯农排变】,北马营6号,城西3号,城西1号,城北庄8号【纯农排变】,东关1号,奥峰锻造厂,城北庄6号【纯农排变】,石桥10号【纯农排变】,徐水颐和园酒厂,城西12号【纯农排变】,河北诗林醉酿酒有限公司,徐水县新泰工贸有限公司,河北青竹酿酒有限公司,城西6号【纯农排变】,城西4号【纯农排变】,张华村7号,遂城14号,城北庄1号,东关2号【纯农排变】,巩固庄11号,城北3号【纯农排变】,大庞村24号,石桥4号【纯农排变】,城西15号【纯农排变】,石桥1号,城西16号,城北庄9号,城北庄2号,遂城18号,城西9号,石桥5号【纯农排变】,北马营4号【纯农排变】,东关6号,石桥6号【纯农排变】,东关3号【纯农排变】,城北5号,城北4号【纯农排变】,城西11号,城北1号,北马营3号【纯农排变】,石桥9号,谢坊11号,城西14号【纯农排变】,张华村6号【纯农排变】,谢坊25号","powerOffReason":"【停电原因】由于Ｂ相接地导致１１０ＫＶ遂城变电站遂城农业线５２１线路全线停电 【变更送电】因抢修进度加快原因，送电时间由２３:００变更为１６:００ 【发布渠道】通过９５５９８发布","powerOffId":"2019100413000238"},{"poweroffId":2019100413000218,"sgpoweroffId":null,"subsName":"","lineName":"西环路516","pubTranName":"西环路直供4#,","scope":"【影响街道/乡镇】易州镇【高危重要客户】无【影响客户】西环路","startTime":"2019-10-04 11:44:26","stopDate":"2019-10-04 14:00:00","orgNo":"1340625","typeCode":"电网故障停限电","poweroffArea":"【单台区停电】停西环路直供4#","poweroffReason":"【停电原因】由于隔离开关烧毁导致３５ＫＶ易水变电站西环路５１６线路西环路直供４＃公变台区停电【变更送电】因抢修进度加快原因，送电时间由１７：００变更为１４：００【发布渠道】通过９５５９８发布","powerTime":"2019-10-04 13:54:45","powerComm":"已送电","subsNo":"","lineNo":"","tgNo":"","tgName":null,"infoStatus":"1","orgName":"国网易县供电公司","typeName":null,"infoStatusName":null,"dateDay":null,"orgNos":null,"nowTime":null,"countyName":null,"streetName":null,"villageName":null,"roadName":null,"communityName":null,"tranName":null,"sdLineName":null,"cityCode":"1340625","cityName":"国网易县供电公司","provinceCode":null,"stopTime":"2019-10-04 14:00:00","powerType":"全部","powerOffArea":"【单台区停电】停西环路直供4#","powerOffReason":"【停电原因】由于隔离开关烧毁导致３５ＫＶ易水变电站西环路５１６线路西环路直供４＃公变台区停电【变更送电】因抢修进度加快原因，送电时间由１７：００变更为１４：００【发布渠道】通过９５５９８发布","powerOffId":"2019100413000218"},{"poweroffId":2019100413000217,"sgpoweroffId":null,"subsName":"","lineName":"韩家庄577","pubTranName":"石炕村5#,石炕村6#,石炕村4#,石炕村2#,石炕村3#,后部村2#,石炕村1#,","scope":"【影响街道/乡镇】易州镇【高危重要客户】无【影响客户】后部村、石亢村","startTime":"2019-10-04 11:43:53","stopDate":"2019-10-04 16:00:00","orgNo":"1340625","typeCode":"电网故障停限电","poweroffArea":"【分支停电】停石炕村5#,石炕村6#,石炕村4#,石炕村2#,石炕村3#,后部村2#,石炕村1#","poweroffReason":"【停电原因】由于低压线断导致１１０ＫＶ店北变电站韩家庄５７７线路００５号杆至０３５号杆之间停电【变更送电】因抢修进度加快原因，送电时间由１８：００变更为１６：００【发布渠道】通过９５５９８发布","powerTime":"2019-10-04 15:19:49","powerComm":"已送电","subsNo":"","lineNo":"","tgNo":"","tgName":null,"infoStatus":"1","orgName":"国网易县供电公司","typeName":null,"infoStatusName":null,"dateDay":null,"orgNos":null,"nowTime":null,"countyName":null,"streetName":null,"villageName":null,"roadName":null,"communityName":null,"tranName":null,"sdLineName":null,"cityCode":"1340625","cityName":"国网易县供电公司","provinceCode":null,"stopTime":"2019-10-04 16:00:00","powerType":"全部","powerOffArea":"【分支停电】停石炕村5#,石炕村6#,石炕村4#,石炕村2#,石炕村3#,后部村2#,石炕村1#","powerOffReason":"【停电原因】由于低压线断导致１１０ＫＶ店北变电站韩家庄５７７线路００５号杆至０３５号杆之间停电【变更送电】因抢修进度加快原因，送电时间由１８：００变更为１６：００【发布渠道】通过９５５９８发布","powerOffId":"2019100413000217"},{"poweroffId":2019100413000195,"sgpoweroffId":null,"subsName":"","lineName":"10kV569赵村线","pubTranName":"孟家庄公用照明18台区,韩家庄公用照明2台区,赵村乡政府公用照明1台区,孟家庄公用照明16台区,韩家庄公用照明4台区,孟家庄公用照明11台区,韩家庄公用照明3台区,孟家庄公用照明7台区,西甘德公用照明2台区,孟家庄公用照明2台区,孟家庄公用照明17台区,孟家庄公用照明5台区【纯农排变】,孟家庄公用照明9台区,孟家庄公用照明6台区,孟家庄公用照明14台区,孟家庄公用照明13台区,赵村公用照明4台区,赵村公用照明1台区,西甘德公用照明1台区,西甘德公用照明5台区,孟家庄公用照明10台区【纯农排变】,客户投资_西南佐公用照明2台区,西甘德公用照明6台区,西南佐公用照明1台区,韩家庄公用照明1台区,客户投资_孟家庄公用照明4台区,赵村公用照明3台区,西甘德公用照明4台区,韩家庄公用照明7台区,西甘德公用照明3台区,赵村公用照明5台区,韩家庄公用照明5台区,赵村公用照明6台区,赵村公用照明2台区,韩家庄公用照明6台区,孟家庄公用照明20台区,孟家庄公用照明3台区,孟家庄公用照明12台区,","scope":"【影响街道/乡镇】赵村乡【高危重要客户】无【影响客户】西甘德、赵村、西南佐、韩家庄、孟家庄、鸿鑫铸造、省天燃气、定皇加油站、京阳加油站","startTime":"2019-10-04 11:08:44","stopDate":"2019-10-04 13:00:00","orgNo":"1340610","typeCode":"电网故障停限电","poweroffArea":"【全线路停电】停赵村公用照明3台区,韩家庄公用照明1台区,韩家庄公用照明5台区,韩家庄公用照明6台区,孟家庄公用照明12台区,赵村公用照明1台区,孟家庄公用照明18台区,西甘德公用照明2台区,孟家庄公用照明6台区,韩家庄公用照明4台区,客户投资_孟家庄公用照明4台区,韩家庄公用照明7台区,孟家庄公用照明19台区,西甘德公用照明3台区,赵村公用照明2台区,孟家庄公用照明20台区,孟家庄公用照明3台区,西甘德公用照明1台区,赵村乡政府公用照明1台区,韩家庄公用照明3台区,孟家庄公用照明17台区,西甘德公用照明6台区,西甘德公用照明4台区,赵村公用照明5台区,赵村公用照明6台区,孟家庄公用照明13台区,孟家庄公用照明21台区,赵村公用照明4台区,西甘德公用照明5台区,孟家庄公用照明11台区,孟家庄公用照明2台区,孟家庄公用照明5台区【纯农排变】,孟家庄公用照明9台区,孟家庄公用照明14台区,孟家庄公用照明10台区【纯农排变】,客户投资_西南佐公用照明2台区,韩家庄公用照明2台区,孟家庄公用照明16台区,孟家庄公用照明7台区,西南佐公用照明1台区","poweroffReason":"【停电原因】由于西甘德公用照明１台区避雷器击穿导致１１０ＫＶ焦化厂变电站１０ＫＶ５６９赵村线路全线停电 【变更送电】因抢修进度加快原因，送电时间由２０：００变更为１３：００ 【发布渠道】９５５９８　　","powerTime":"2019-10-04 12:29:47","powerComm":"已送电","subsNo":"","lineNo":"","tgNo":"","tgName":null,"infoStatus":"1","orgName":"国网定州市供电公司","typeName":null,"infoStatusName":null,"dateDay":null,"orgNos":null,"nowTime":null,"countyName":null,"streetName":null,"villageName":null,"roadName":null,"communityName":null,"tranName":null,"sdLineName":null,"cityCode":"1340610","cityName":"国网定州市供电公司","provinceCode":null,"stopTime":"2019-10-04 13:00:00","powerType":"全部","powerOffArea":"【全线路停电】停赵村公用照明3台区,韩家庄公用照明1台区,韩家庄公用照明5台区,韩家庄公用照明6台区,孟家庄公用照明12台区,赵村公用照明1台区,孟家庄公用照明18台区,西甘德公用照明2台区,孟家庄公用照明6台区,韩家庄公用照明4台区,客户投资_孟家庄公用照明4台区,韩家庄公用照明7台区,孟家庄公用照明19台区,西甘德公用照明3台区,赵村公用照明2台区,孟家庄公用照明20台区,孟家庄公用照明3台区,西甘德公用照明1台区,赵村乡政府公用照明1台区,韩家庄公用照明3台区,孟家庄公用照明17台区,西甘德公用照明6台区,西甘德公用照明4台区,赵村公用照明5台区,赵村公用照明6台区,孟家庄公用照明13台区,孟家庄公用照明21台区,赵村公用照明4台区,西甘德公用照明5台区,孟家庄公用照明11台区,孟家庄公用照明2台区,孟家庄公用照明5台区【纯农排变】,孟家庄公用照明9台区,孟家庄公用照明14台区,孟家庄公用照明10台区【纯农排变】,客户投资_西南佐公用照明2台区,韩家庄公用照明2台区,孟家庄公用照明16台区,孟家庄公用照明7台区,西南佐公用照明1台区","powerOffReason":"【停电原因】由于西甘德公用照明１台区避雷器击穿导致１１０ＫＶ焦化厂变电站１０ＫＶ５６９赵村线路全线停电 【变更送电】因抢修进度加快原因，送电时间由２０：００变更为１３：００ 【发布渠道】９５５９８　　","powerOffId":"2019100413000195"},{"poweroffId":2019100413000183,"sgpoweroffId":null,"subsName":"","lineName":"长古城584线","pubTranName":"大白尧0596变压器,","scope":"【影响街道/乡镇】长古城乡【高危重要客户】无【影响客户】大白尧","startTime":"2019-10-04 10:50:00","stopDate":"2019-10-04 18:00:00","orgNo":"1340622","typeCode":"电网故障停限电","poweroffArea":"【单台区停电】停大白尧0596变压器","poweroffReason":"【停电原因】由于变压器跌落烧毁导致１１０ＫＶ拔茄变电站长古城５８４线路大白尧０５９６公变台区停电【变更送电】无【发布渠道】通过９５５９８发布","powerTime":"2019-10-04 17:21:57","powerComm":"已送电","subsNo":"","lineNo":"","tgNo":"","tgName":null,"infoStatus":"1","orgName":"国网唐县供电公司","typeName":null,"infoStatusName":null,"dateDay":null,"orgNos":null,"nowTime":null,"countyName":null,"streetName":null,"villageName":null,"roadName":null,"communityName":null,"tranName":null,"sdLineName":null,"cityCode":"1340622","cityName":"国网唐县供电公司","provinceCode":null,"stopTime":"2019-10-04 18:00:00","powerType":"全部","powerOffArea":"【单台区停电】停大白尧0596变压器","powerOffReason":"【停电原因】由于变压器跌落烧毁导致１１０ＫＶ拔茄变电站长古城５８４线路大白尧０５９６公变台区停电【变更送电】无【发布渠道】通过９５５９８发布","powerOffId":"2019100413000183"}],"pageModel":{"pageNow":530,"totalCount":10973,"totalPage":1098,"tableRows":0,"pageCount":10,"beginCount":5290},"isExperi":"1"}