{"message":"","today":"2020-06-15","seleList":[{"poweroffId":2019100413000104,"sgpoweroffId":null,"subsName":"","lineName":"10kV511电力新村线","pubTranName":"电力新村综合1台区,0469339055-六号照明变压器-专变-46778861-六号变压器,电力新村2备用,电力新村三台区出线间隔配电变压器,电力新村综合6台区箱变10KV出线间隔3号配电变压器,电力新村综合2台区,电力新村综合6台区箱变10KV出线间隔2号配电变压器,电力新村1备用,电力新村综合6台区箱变10KV出线间隔1号配电变压器,","scope":"【影响街道/乡镇】蠡吾镇【高危重要客户】无【影响客户】电力新村、蠡县供电公司","startTime":"2019-10-13 07:00:00","stopDate":"2019-10-13 11:00:00","orgNo":"1340616","typeCode":"计划停电","poweroffArea":"【全线路停电】停电力新村1备用,电力新村综合6台区箱变10KV出线间隔3号配电变压器,电力新村三台区出线间隔配电变压器,电力新村综合6台区箱变10KV出线间隔2号配电变压器,电力新村2备用,电力新村综合2台区,电力新村综合6台区箱变10KV出线间隔1号配电变压器,0469339055-六号照明变压器-专变-46778861-六号变压器,电力新村综合1台区","poweroffReason":"【停电原因】由于变台改造导致３５ＫＶ王庄变电站１０ＫＶ电力新村５１１线路全线停电【变更送电】因工作进度加快原因，送电时间由１８：００变更为１１：００【发布渠道】蠡县电视台（２０１９年１０月０４日至２０１９年１０月１２日２０：００至２２：００）屏幕上方滚动","powerTime":"2019-10-13 10:18:15","powerComm":"已送电","subsNo":"","lineNo":"","tgNo":"","tgName":null,"infoStatus":"1","orgName":"国网蠡县供电公司","typeName":null,"infoStatusName":null,"dateDay":null,"orgNos":null,"nowTime":null,"countyName":null,"streetName":null,"villageName":null,"roadName":null,"communityName":null,"tranName":null,"sdLineName":null,"cityCode":"1340616","cityName":"国网蠡县供电公司","provinceCode":null,"stopTime":"2019-10-13 11:00:00","powerType":"全部","powerOffArea":"【全线路停电】停电力新村1备用,电力新村综合6台区箱变10KV出线间隔3号配电变压器,电力新村三台区出线间隔配电变压器,电力新村综合6台区箱变10KV出线间隔2号配电变压器,电力新村2备用,电力新村综合2台区,电力新村综合6台区箱变10KV出线间隔1号配电变压器,0469339055-六号照明变压器-专变-46778861-六号变压器,电力新村综合1台区","powerOffReason":"【停电原因】由于变台改造导致３５ＫＶ王庄变电站１０ＫＶ电力新村５１１线路全线停电【变更送电】因工作进度加快原因，送电时间由１８：００变更为１１：００【发布渠道】蠡县电视台（２０１９年１０月０４日至２０１９年１０月１２日２０：００至２２：００）屏幕上方滚动","powerOffId":"2019100413000104"},{"poweroffId":2019100413000098,"sgpoweroffId":null,"subsName":"","lineName":"10kV郎庄线574","pubTranName":"1郎庄内5,","scope":"【影响街道/乡镇】 清苑镇 【高危重要客户】无 【影响客户】郎庄","startTime":"2019-10-04 09:12:22","stopDate":"2019-10-04 11:00:00","orgNo":"1340618","typeCode":"电网故障停限电","poweroffArea":"【单台区停电】停1郎庄内5","poweroffReason":"【停电原因】由于低压线被树障砸断导致１１０ＫＶ赵庄变电站１０ＫＶ郎庄线５７４线路１郎庄内５号公变台区停电 【变更送电】因抢修进度加快原因，送电时间由１５：００变更为１１：００ 【发布渠道】通过９５５９８发布","powerTime":"2019-10-04 10:50:12","powerComm":"王长革通知已送电","subsNo":"","lineNo":"","tgNo":"","tgName":null,"infoStatus":"1","orgName":"国网清苑县供电公司","typeName":null,"infoStatusName":null,"dateDay":null,"orgNos":null,"nowTime":null,"countyName":null,"streetName":null,"villageName":null,"roadName":null,"communityName":null,"tranName":null,"sdLineName":null,"cityCode":"1340618","cityName":"国网清苑县供电公司","provinceCode":null,"stopTime":"2019-10-04 11:00:00","powerType":"全部","powerOffArea":"【单台区停电】停1郎庄内5","powerOffReason":"【停电原因】由于低压线被树障砸断导致１１０ＫＶ赵庄变电站１０ＫＶ郎庄线５７４线路１郎庄内５号公变台区停电 【变更送电】因抢修进度加快原因，送电时间由１５：００变更为１１：００ 【发布渠道】通过９５５９８发布","powerOffId":"2019100413000098"},{"poweroffId":2019100413000097,"sgpoweroffId":null,"subsName":"","lineName":"力强557","pubTranName":"宋辛北地【纯农排变】,宋辛北,冯家营西排灌【纯农排变】,南菜北,冯家营南,耿庄3号地【纯农排变】,宋辛中,力强南变压器,宋辛西北,力强北,十里铺西地【纯农排变】,宋辛中二变压器,220KV河北省送变电公司公变,耿庄西排灌变压器,耿庄西北,","scope":"【影响街道/乡镇】泗庄镇、东马营镇 【高危重要客户】无 【影响客户】宋辛村、十里铺村、力强村、赵庄村、金庄村、小陈庄村、大陈庄村、耿庄村、楮官营村、冯家营村、南菜村、德林庄村、碧照轩观光园有限公司、宋辛小学、冯家营小学、宋辛面粉厂、河北金利达塑胶制品有限公司、孙建华中、孙建华东、田国辉","startTime":"2019-10-04 09:20:12","stopDate":"2019-10-04 13:00:00","orgNo":"1340612","typeCode":"电网故障停限电","poweroffArea":"【全线路停电】停南菜村,褚官营1号地【纯农排变】,耿庄3号地【纯农排变】,孙建华中,冯家营南,泗庄小陈庄东变压器,河北金利达塑胶制品有限公司,冯家营西,宋辛3号地,冯家营西排灌【纯农排变】,力强2号地变压器,宋辛中,金庄地变压器,0387440244-宋辛海绵纸厂-专变-45277368-田德春,泗庄大陈庄,力强西,耿庄地【纯农排变】,耿庄2号地【纯农排变】,南菜西北地【纯农排变】,十里铺1号地【纯农排变】,宋辛西北地【纯农排变】,高碑店市泗庄镇冯家营学校,冯家营东台,冯家营1号地【纯农排变】,德林庄1号地,力强北,十里铺西地【纯农排变】,冯家营3号地【纯农排变】,赵庄地变压器【纯农排变】,南菜东北地【纯农排变】,0643978403-河北金利达塑胶制品有限公司-专变-161950501-河北金利达塑胶制品有限公司200KVA变压器,耿庄排灌【纯农排变】,德林庄北,耿庄西,小陈庄地【纯农排变】,宋辛北地【纯农排变】,宋辛北,宋辛4号地变压器【纯农排变】,中国石油天然气股份有限公司管道分公司,耿庄村,金庄,宋辛面,十里铺东地【纯农排变】,孙建华东,海威拉链有限责任公司,德林庄西北地【纯农排变】,高碑店市泗庄镇宋辛庄窠小学变压器,耿庄西排灌变压器,宋辛2号地【纯农排变】,力强1号地变压器,耿庄西北,大陈庄地【纯农排变】,冯家营4号地【纯农排变】,力强3号地变压器【纯农排变】,德林庄村,褚官营2号地【纯农排变】,冯家营北,南菜北,宋辛中二变压器,0643978403-河北金利达塑胶制品有限公司-专变-161935481-河北金利达塑胶制品有限公司1000KVA变压器,南菜1号地【纯农排变】,宋辛西北,褚官营西,冯家营2号地【纯农排变】,安海林变压器,客户投资_泗庄赵庄,力强东变压器,力强南变压器,小陈庄西,0387451189-田国辉-专变-45283233-党校,褚官营村,德林庄北地【纯农排变】,宋辛东北地变压器【纯农排变】,宋辛1号地【纯农排变】,宋辛东地【纯农排变】,褚官营地【纯农排变】,冯家营西排灌1【纯农排变】,高碑店市碧照轩观光园有限公司变压器,220KV河北省送变电公司公变,十里铺2号地【纯农排变】","poweroffReason":"【停电原因】由于０号杆Ａ相刀闸烧毁导致２２０ＫＶ力强变电站１０ＫＶ力强５５７线路全线停电 【变更送电】无 【发布渠道】通过９５５９８发布","powerTime":"2019-10-04 12:56:52","powerComm":"已送电","subsNo":"","lineNo":"","tgNo":"","tgName":null,"infoStatus":"1","orgName":"国网高碑店市供电公司","typeName":null,"infoStatusName":null,"dateDay":null,"orgNos":null,"nowTime":null,"countyName":null,"streetName":null,"villageName":null,"roadName":null,"communityName":null,"tranName":null,"sdLineName":null,"cityCode":"1340612","cityName":"国网高碑店市供电公司","provinceCode":null,"stopTime":"2019-10-04 13:00:00","powerType":"全部","powerOffArea":"【全线路停电】停南菜村,褚官营1号地【纯农排变】,耿庄3号地【纯农排变】,孙建华中,冯家营南,泗庄小陈庄东变压器,河北金利达塑胶制品有限公司,冯家营西,宋辛3号地,冯家营西排灌【纯农排变】,力强2号地变压器,宋辛中,金庄地变压器,0387440244-宋辛海绵纸厂-专变-45277368-田德春,泗庄大陈庄,力强西,耿庄地【纯农排变】,耿庄2号地【纯农排变】,南菜西北地【纯农排变】,十里铺1号地【纯农排变】,宋辛西北地【纯农排变】,高碑店市泗庄镇冯家营学校,冯家营东台,冯家营1号地【纯农排变】,德林庄1号地,力强北,十里铺西地【纯农排变】,冯家营3号地【纯农排变】,赵庄地变压器【纯农排变】,南菜东北地【纯农排变】,0643978403-河北金利达塑胶制品有限公司-专变-161950501-河北金利达塑胶制品有限公司200KVA变压器,耿庄排灌【纯农排变】,德林庄北,耿庄西,小陈庄地【纯农排变】,宋辛北地【纯农排变】,宋辛北,宋辛4号地变压器【纯农排变】,中国石油天然气股份有限公司管道分公司,耿庄村,金庄,宋辛面,十里铺东地【纯农排变】,孙建华东,海威拉链有限责任公司,德林庄西北地【纯农排变】,高碑店市泗庄镇宋辛庄窠小学变压器,耿庄西排灌变压器,宋辛2号地【纯农排变】,力强1号地变压器,耿庄西北,大陈庄地【纯农排变】,冯家营4号地【纯农排变】,力强3号地变压器【纯农排变】,德林庄村,褚官营2号地【纯农排变】,冯家营北,南菜北,宋辛中二变压器,0643978403-河北金利达塑胶制品有限公司-专变-161935481-河北金利达塑胶制品有限公司1000KVA变压器,南菜1号地【纯农排变】,宋辛西北,褚官营西,冯家营2号地【纯农排变】,安海林变压器,客户投资_泗庄赵庄,力强东变压器,力强南变压器,小陈庄西,0387451189-田国辉-专变-45283233-党校,褚官营村,德林庄北地【纯农排变】,宋辛东北地变压器【纯农排变】,宋辛1号地【纯农排变】,宋辛东地【纯农排变】,褚官营地【纯农排变】,冯家营西排灌1【纯农排变】,高碑店市碧照轩观光园有限公司变压器,220KV河北省送变电公司公变,十里铺2号地【纯农排变】","powerOffReason":"【停电原因】由于０号杆Ａ相刀闸烧毁导致２２０ＫＶ力强变电站１０ＫＶ力强５５７线路全线停电 【变更送电】无 【发布渠道】通过９５５９８发布","powerOffId":"2019100413000097"},{"poweroffId":2019100413000083,"sgpoweroffId":null,"subsName":"","lineName":"10kV南营线511","pubTranName":"1南营内4,南营内2,2南营外23【纯农排变】,1南营内3,2北营外12【纯农排变】,2南营外25【纯农排变】,2北营外10【纯农排变】,2南营外21【纯农排变】,2北营外5【纯农排变】,2北营外11【纯农排变】,2南营外14【纯农排变】,2南营外12【纯农排变】,2北营外13【纯农排变】,南营小学,2北营外14【纯农排变】,2南营外6【纯农排变】,2南营外26【纯农排变】,2南营外20【纯农排变】,2南营外16【纯农排变】,2南营外3【纯农排变】,2北营外7【纯农排变】,2北营外8【纯农排变】,2南营外22【纯农排变】,2南营外24【纯农排变】,2南营外11【纯农排变】,1南营内1,2南营外5【纯农排变】,2北营外17【纯农排变】,2南营外9【纯农排变】,1北营内5,2北营外3【纯农排变】,2南营外15【纯农排变】,2北营外2【纯农排变】,2北营外1【纯农排变】,2北营外4【纯农排变】,1南营内8,1北营内6,2北营外15【纯农排变】,2南营外10【纯农排变】,2南营外18【纯农排变】,2北营外9【纯农排变】,2南营外7【纯农排变】,1南营内7,1南营内9,1南营内5,2南营外19【纯农排变】,2南营外8【纯农排变】,1北营内1,1南营内6,北营内3,2南营外4【纯农排变】,1北营内7,北营内2号,2南营外17【纯农排变】,2北营外6【纯农排变】,北蛮营幼儿园,2北营外16【纯农排变】,2北营外18【纯农排变】,","scope":"【影响街道/乡镇】白团乡 【高危重要客户】无 【影响客户】南营、北营","startTime":"2019-10-13 05:00:00","stopDate":"2019-10-13 18:00:00","orgNo":"1340618","typeCode":"计划停电","poweroffArea":"【分支停电】停1南营内1,1南营内4,南营内2,2南营外23【纯农排变】,1南营内3,2北营外12【纯农排变】,2南营外25【纯农排变】,2北营外10【纯农排变】,2南营外21【纯农排变】,2北营外5【纯农排变】,2北营外11【纯农排变】,2南营外14【纯农排变】,2南营外12【纯农排变】,2北营外13【纯农排变】,南营小学,2北营外14【纯农排变】,2南营外6【纯农排变】,2南营外26【纯农排变】,2南营外20【纯农排变】,2南营外16【纯农排变】,2南营外3【纯农排变】,2北营外7【纯农排变】,2北营外8【纯农排变】,2南营外22【纯农排变】,2南营外24【纯农排变】,2南营外11【纯农排变】,2南营外5【纯农排变】,2南营外9【纯农排变】,2北营外17【纯农排变】,1北营内5,2北营外3【纯农排变】,2南营外15【纯农排变】,2北营外2【纯农排变】,2北营外1【纯农排变】,2北营外4【纯农排变】,1南营内8,1北营内6,2北营外15【纯农排变】,2南营外10【纯农排变】,2南营外18【纯农排变】,2北营外9【纯农排变】,2南营外7【纯农排变】,1南营内7,1南营内9,1南营内5,2南营外19【纯农排变】,2南营外8【纯农排变】,1北营内1,1南营内6,北营内3,2南营外4【纯农排变】,1北营内7,北营内2号,2南营外17【纯农排变】,2北营外6【纯农排变】,北蛮营幼儿园,2北营外16【纯农排变】,2北营外18【纯农排变】","poweroffReason":"【停电原因】由于更换电杆、导线导致１１０ＫＶ中冉变电站１０ＫＶ南营线５１１线路主干９７号杆至１１０号杆停电 【变更送电】无 【发布渠道】保定市清苑区电视台（２０１９年１０月０５日１９时至２０１９年１０月１２日２０时之间）屏幕上方滚动","powerTime":"2019-10-13 17:50:19","powerComm":"杨昭通知已送电","subsNo":"","lineNo":"","tgNo":"","tgName":null,"infoStatus":"1","orgName":"国网清苑县供电公司","typeName":null,"infoStatusName":null,"dateDay":null,"orgNos":null,"nowTime":null,"countyName":null,"streetName":null,"villageName":null,"roadName":null,"communityName":null,"tranName":null,"sdLineName":null,"cityCode":"1340618","cityName":"国网清苑县供电公司","provinceCode":null,"stopTime":"2019-10-13 18:00:00","powerType":"全部","powerOffArea":"【分支停电】停1南营内1,1南营内4,南营内2,2南营外23【纯农排变】,1南营内3,2北营外12【纯农排变】,2南营外25【纯农排变】,2北营外10【纯农排变】,2南营外21【纯农排变】,2北营外5【纯农排变】,2北营外11【纯农排变】,2南营外14【纯农排变】,2南营外12【纯农排变】,2北营外13【纯农排变】,南营小学,2北营外14【纯农排变】,2南营外6【纯农排变】,2南营外26【纯农排变】,2南营外20【纯农排变】,2南营外16【纯农排变】,2南营外3【纯农排变】,2北营外7【纯农排变】,2北营外8【纯农排变】,2南营外22【纯农排变】,2南营外24【纯农排变】,2南营外11【纯农排变】,2南营外5【纯农排变】,2南营外9【纯农排变】,2北营外17【纯农排变】,1北营内5,2北营外3【纯农排变】,2南营外15【纯农排变】,2北营外2【纯农排变】,2北营外1【纯农排变】,2北营外4【纯农排变】,1南营内8,1北营内6,2北营外15【纯农排变】,2南营外10【纯农排变】,2南营外18【纯农排变】,2北营外9【纯农排变】,2南营外7【纯农排变】,1南营内7,1南营内9,1南营内5,2南营外19【纯农排变】,2南营外8【纯农排变】,1北营内1,1南营内6,北营内3,2南营外4【纯农排变】,1北营内7,北营内2号,2南营外17【纯农排变】,2北营外6【纯农排变】,北蛮营幼儿园,2北营外16【纯农排变】,2北营外18【纯农排变】","powerOffReason":"【停电原因】由于更换电杆、导线导致１１０ＫＶ中冉变电站１０ＫＶ南营线５１１线路主干９７号杆至１１０号杆停电 【变更送电】无 【发布渠道】保定市清苑区电视台（２０１９年１０月０５日１９时至２０１９年１０月１２日２０时之间）屏幕上方滚动","powerOffId":"2019100413000083"},{"poweroffId":2019100413000079,"sgpoweroffId":null,"subsName":"","lineName":"兵营线517","pubTranName":"河北恒志房地产开发有限公司望都分公司(凯旋城5),河北恒志房地产开发有限公司望都分公司(凯旋城2),河北恒志房地产开发有限公司望都分公司(凯旋城4),韩庄混4,韩庄村东混合8号,","scope":"【影响街道/乡镇】望都镇 【高危重要客户】无 【影响客户】韩庄部分、河北恒志房地产公司(凯旋城)","startTime":"2019-10-04 08:49:51","stopDate":"2019-10-04 12:30:00","orgNo":"1340623","typeCode":"电网故障停限电","poweroffArea":"【全线路停电】停河北恒志房地产开发有限公司望都分公司(凯旋城4),河北恒志房地产开发有限公司望都分公司(凯旋城5),河北恒志房地产开发有限公司望都分公司(凯旋城2),韩庄混4,韩庄村东混合8号","poweroffReason":"【停电原因】由于Ａ相接地导致３５ＫＶ白岳变电站兵营线５１７线路全线停电 【变更送电】因抢修进度加快原因，送电时间由２２：００变更为１２：３０ 【发布渠道】通过９５５９８发布","powerTime":"2019-10-04 12:00:25","powerComm":"已送电","subsNo":"","lineNo":"","tgNo":"","tgName":null,"infoStatus":"1","orgName":"国网望都县供电公司","typeName":null,"infoStatusName":null,"dateDay":null,"orgNos":null,"nowTime":null,"countyName":null,"streetName":null,"villageName":null,"roadName":null,"communityName":null,"tranName":null,"sdLineName":null,"cityCode":"1340623","cityName":"国网望都县供电公司","provinceCode":null,"stopTime":"2019-10-04 12:30:00","powerType":"全部","powerOffArea":"【全线路停电】停河北恒志房地产开发有限公司望都分公司(凯旋城4),河北恒志房地产开发有限公司望都分公司(凯旋城5),河北恒志房地产开发有限公司望都分公司(凯旋城2),韩庄混4,韩庄村东混合8号","powerOffReason":"【停电原因】由于Ａ相接地导致３５ＫＶ白岳变电站兵营线５１７线路全线停电 【变更送电】因抢修进度加快原因，送电时间由２２：００变更为１２：３０ 【发布渠道】通过９５５９８发布","powerOffId":"2019100413000079"},{"poweroffId":2019100413000059,"sgpoweroffId":null,"subsName":"","lineName":"贾南线514","pubTranName":"建安内东南配变,王文内南2号配变,建安内西南配变,小寨子村配变,王文内东2号配变,王文内南配变,建安内东北配变,张挝内西配变,小寨子内西北配变,王文内西配变,大建安内西配变,大建安内东南2号配变,小寨子内北配变,小寨子内东配变,大建安内北2号,建安西北内配变,张挝内配变,小建安村内配变,大建安内西南2号,王文内东配变,小寨子小区配变,大建安内中配变,大建安村北内配变,","scope":"【影响街道/乡镇】贾村乡　　 【高危重要客户】无　　 【影响客户】西贾村、张挝、大建安、小建安、王文、小寨子","startTime":"2019-10-04 08:18:18","stopDate":"2019-10-04 12:30:00","orgNo":"1340623","typeCode":"电网故障停限电","poweroffArea":"【全线路停电】停建安内东南配变,王文内南2号配变,建安内西南配变,小寨子村配变,王文内东2号配变,王文内南配变,建安内东北配变,张挝内西配变,小寨子内西北配变,王文内西配变,大建安内西配变,大建安内东南2号配变,小寨子内北配变,小寨子内东配变,大建安内北2号,建安西北内配变,张挝内配变,小建安村内配变,大建安内西南2号,王文内东配变,小寨子小区配变,大建安内中配变,大建安村北内配变","poweroffReason":"【停电原因】由于Ａ相接地导致３５ＫＶ贾村变电站贾南线５１４线路全线停电 【变更送电】因抢修进度加快原因，送电时间由２０：００变更为１２：３０ 【发布渠道】通过９５５９８发布","powerTime":"2019-10-04 11:50:23","powerComm":"已送电","subsNo":"","lineNo":"","tgNo":"","tgName":null,"infoStatus":"1","orgName":"国网望都县供电公司","typeName":null,"infoStatusName":null,"dateDay":null,"orgNos":null,"nowTime":null,"countyName":null,"streetName":null,"villageName":null,"roadName":null,"communityName":null,"tranName":null,"sdLineName":null,"cityCode":"1340623","cityName":"国网望都县供电公司","provinceCode":null,"stopTime":"2019-10-04 12:30:00","powerType":"全部","powerOffArea":"【全线路停电】停建安内东南配变,王文内南2号配变,建安内西南配变,小寨子村配变,王文内东2号配变,王文内南配变,建安内东北配变,张挝内西配变,小寨子内西北配变,王文内西配变,大建安内西配变,大建安内东南2号配变,小寨子内北配变,小寨子内东配变,大建安内北2号,建安西北内配变,张挝内配变,小建安村内配变,大建安内西南2号,王文内东配变,小寨子小区配变,大建安内中配变,大建安村北内配变","powerOffReason":"【停电原因】由于Ａ相接地导致３５ＫＶ贾村变电站贾南线５１４线路全线停电 【变更送电】因抢修进度加快原因，送电时间由２０：００变更为１２：３０ 【发布渠道】通过９５５９８发布","powerOffId":"2019100413000059"},{"poweroffId":2019100413000054,"sgpoweroffId":null,"subsName":"","lineName":"10kV569赵村线","pubTranName":"孟家庄公用照明13台区,赵村公用照明4台区,赵村公用照明1台区,西甘德公用照明1台区,西甘德公用照明5台区,孟家庄公用照明18台区,赵村乡政府公用照明1台区,孟家庄公用照明11台区,韩家庄公用照明3台区,西甘德公用照明2台区,孟家庄公用照明2台区,孟家庄公用照明17台区,孟家庄公用照明5台区【纯农排变】,孟家庄公用照明9台区,孟家庄公用照明6台区,孟家庄公用照明14台区,孟家庄公用照明10台区【纯农排变】,客户投资_西南佐公用照明2台区,韩家庄公用照明2台区,孟家庄公用照明16台区,韩家庄公用照明4台区,孟家庄公用照明7台区,西甘德公用照明6台区,西南佐公用照明1台区,韩家庄公用照明1台区,客户投资_孟家庄公用照明4台区,赵村公用照明3台区,西甘德公用照明4台区,韩家庄公用照明7台区,西甘德公用照明3台区,赵村公用照明5台区,韩家庄公用照明5台区,赵村公用照明6台区,赵村公用照明2台区,韩家庄公用照明6台区,孟家庄公用照明20台区,孟家庄公用照明3台区,孟家庄公用照明12台区,","scope":"【影响街道/乡镇】赵村乡【高危重要客户】无【影响客户】西甘德、赵村、西南佐、韩家庄、孟家庄、鸿鑫铸造、省天燃气、定皇加油站、京阳加油站","startTime":"2019-10-04 08:19:33","stopDate":"2019-10-04 09:30:00","orgNo":"1340610","typeCode":"电网故障停限电","poweroffArea":"【全线路停电】停赵村公用照明3台区,韩家庄公用照明1台区,韩家庄公用照明5台区,韩家庄公用照明6台区,孟家庄公用照明12台区,赵村公用照明1台区,孟家庄公用照明18台区,西甘德公用照明2台区,孟家庄公用照明6台区,韩家庄公用照明4台区,客户投资_孟家庄公用照明4台区,韩家庄公用照明7台区,孟家庄公用照明19台区,西甘德公用照明3台区,赵村公用照明2台区,孟家庄公用照明20台区,孟家庄公用照明3台区,西甘德公用照明1台区,赵村乡政府公用照明1台区,韩家庄公用照明3台区,孟家庄公用照明17台区,西甘德公用照明6台区,西甘德公用照明4台区,赵村公用照明5台区,赵村公用照明6台区,孟家庄公用照明13台区,孟家庄公用照明21台区,赵村公用照明4台区,西甘德公用照明5台区,孟家庄公用照明11台区,孟家庄公用照明2台区,孟家庄公用照明5台区【纯农排变】,孟家庄公用照明9台区,孟家庄公用照明14台区,孟家庄公用照明10台区【纯农排变】,客户投资_西南佐公用照明2台区,韩家庄公用照明2台区,孟家庄公用照明16台区,孟家庄公用照明7台区,西南佐公用照明1台区","poweroffReason":"【停电原因】由于东方供水厂分支避雷器弓子线打火导致１１０ＫＶ焦化厂变电站１０ＫＶ５６９赵村线路全线停电 【变更送电】因抢修进度加快原因，送电时间由２０：００变更为０９：３０ 【发布渠道】９５５９８　　","powerTime":"2019-10-04 09:07:38","powerComm":"已送电","subsNo":"","lineNo":"","tgNo":"","tgName":null,"infoStatus":"1","orgName":"国网定州市供电公司","typeName":null,"infoStatusName":null,"dateDay":null,"orgNos":null,"nowTime":null,"countyName":null,"streetName":null,"villageName":null,"roadName":null,"communityName":null,"tranName":null,"sdLineName":null,"cityCode":"1340610","cityName":"国网定州市供电公司","provinceCode":null,"stopTime":"2019-10-04 09:30:00","powerType":"全部","powerOffArea":"【全线路停电】停赵村公用照明3台区,韩家庄公用照明1台区,韩家庄公用照明5台区,韩家庄公用照明6台区,孟家庄公用照明12台区,赵村公用照明1台区,孟家庄公用照明18台区,西甘德公用照明2台区,孟家庄公用照明6台区,韩家庄公用照明4台区,客户投资_孟家庄公用照明4台区,韩家庄公用照明7台区,孟家庄公用照明19台区,西甘德公用照明3台区,赵村公用照明2台区,孟家庄公用照明20台区,孟家庄公用照明3台区,西甘德公用照明1台区,赵村乡政府公用照明1台区,韩家庄公用照明3台区,孟家庄公用照明17台区,西甘德公用照明6台区,西甘德公用照明4台区,赵村公用照明5台区,赵村公用照明6台区,孟家庄公用照明13台区,孟家庄公用照明21台区,赵村公用照明4台区,西甘德公用照明5台区,孟家庄公用照明11台区,孟家庄公用照明2台区,孟家庄公用照明5台区【纯农排变】,孟家庄公用照明9台区,孟家庄公用照明14台区,孟家庄公用照明10台区【纯农排变】,客户投资_西南佐公用照明2台区,韩家庄公用照明2台区,孟家庄公用照明16台区,孟家庄公用照明7台区,西南佐公用照明1台区","powerOffReason":"【停电原因】由于东方供水厂分支避雷器弓子线打火导致１１０ＫＶ焦化厂变电站１０ＫＶ５６９赵村线路全线停电 【变更送电】因抢修进度加快原因，送电时间由２０：００变更为０９：３０ 【发布渠道】９５５９８　　","powerOffId":"2019100413000054"},{"poweroffId":2019100413000050,"sgpoweroffId":null,"subsName":"","lineName":"10kV北王力线512","pubTranName":"1北王力内5,1东王力内2,北王力中学2,1北王力内12,1北王力内9,北王力中学1,2西王力外13,1北王力内1,1北王力内17,1西王力内4,2北王力外22,1北王力内14,1北王力内6,西王力小学,1西王力内10,1西王力内8,1北王力内4,1北王力内15,1北王力内7,1罗营内1,1西王力内7,1西王力内1,1西王力内6,客户投资_1西王力内2,1西王力内9,1北王力内16,1东王力内3,1西王力内5,北王力乡中心幼儿园,1北王力内3,1东王力内1,1北王力内10,1西王力内11,1北王力内2,1西王力内3,北王力中学3,1北王力内13,1罗营内9,1北王力内8,北王力内11,","scope":"【影响街道/乡镇】北王力乡 【高危重要客户】无 【影响客户】东王力、西王力、北王力、罗家营","startTime":"2019-10-04 08:10:11","stopDate":"2019-10-04 11:30:00","orgNo":"1340618","typeCode":"电网故障停限电","poweroffArea":"【全线路停电】停2西王力外4【纯农排变】,1西王力内7,2北王力外2【纯农排变】,2东王力外4【纯农排变】,清苑县西王力鑫利面粉厂,1西王力内1,2北王力外12【纯农排变】,1西王力内6,2北王力外6【纯农排变】,客户投资_1西王力内2,2西王力外1【纯农排变】,2北王力外14【纯农排变】,2东王力外1【纯农排变】,2西王力外12【纯农排变】,1北王力内16,2北王力外9【纯农排变】,2西王力外5【纯农排变】,1北王力内3,2北王力外13【纯农排变】,1东王力内1,1北王力内10,1西王力内11,北王力东2,0387497080-北王力东-专变-45318667-北王力东1,北王力村村东,保定市清苑区增亮废旧木材加工处,李建雄猪场,西王力冰棍房,2西王力外7【纯农排变】,北王力西1,2北王力外15【纯农排变】,2西王力外11【纯农排变】,保定富泰隆服装有限公司,东王力付俊峰猪场,1西王力内9,1东王力内3,北王力砖厂东,1西王力内5,2北王力外18【纯农排变】,2北王力外20【纯农排变】,北王力乡中心幼儿园,1北王力内2,1西王力内3,北王力中学3,1北王力内13,1罗营内9,1北王力内8,0387497211-北王力西-专变-45318669-北王力西2,2罗营外1【纯农排变】,2北王力外10【纯农排变】,2北王力外8【纯农排变】,2西王力外2【纯农排变】,2西王力外9【纯农排变】,北王力堤北,2北王力外17【纯农排变】,东王力外5【纯农排变】,1北王力内5,2北王力外4【纯农排变】,2北王力外5【纯农排变】,2北王力外11【纯农排变】,北王力中学2,1北王力内12,2北王力外21【纯农排变】,2西王力外3【纯农排变】,北王力中学1,2西王力外13,2北王力外3【纯农排变】,2北王力外7【纯农排变】,2西王力外8【纯农排变】,2东王力外6【纯农排变】,2北王力外22,2西王力外10【纯农排变】,2北王力外16【纯农排变】,2东王力外3【纯农排变】,西王力小学,2西王力外6【纯农排变】,2北王力外1【纯农排变】,1北王力内15,1北王力内7,2东王力外7【纯农排变】,1罗营内1,1东王力内2,2东王力外2【纯农排变】,保定市清苑区北王力中学,保定市清苑区顺腾木器加工厂,2北王力外19【纯农排变】,1北王力内9,1北王力内1,北王力内11,1北王力内17,1西王力内4,国网河北清苑县供电公司罗家营供电所,1北王力内14,1北王力内6,1西王力内10,北王力村村西,1西王力内8,1北王力内4","poweroffReason":"【停电原因】由于主干１号杆开关掉闸导致３５ＫＶ罗家营变电站１０ＫＶ北王力线５１２线路全线停电 【变更送电】因抢修进度加快原因，送电时间由１５：００变更为１１：３０ 【发布渠道】通过９５５９８发布","powerTime":"2019-10-04 11:00:12","powerComm":"武建军通知已送电","subsNo":"","lineNo":"","tgNo":"","tgName":null,"infoStatus":"1","orgName":"国网清苑县供电公司","typeName":null,"infoStatusName":null,"dateDay":null,"orgNos":null,"nowTime":null,"countyName":null,"streetName":null,"villageName":null,"roadName":null,"communityName":null,"tranName":null,"sdLineName":null,"cityCode":"1340618","cityName":"国网清苑县供电公司","provinceCode":null,"stopTime":"2019-10-04 11:30:00","powerType":"全部","powerOffArea":"【全线路停电】停2西王力外4【纯农排变】,1西王力内7,2北王力外2【纯农排变】,2东王力外4【纯农排变】,清苑县西王力鑫利面粉厂,1西王力内1,2北王力外12【纯农排变】,1西王力内6,2北王力外6【纯农排变】,客户投资_1西王力内2,2西王力外1【纯农排变】,2北王力外14【纯农排变】,2东王力外1【纯农排变】,2西王力外12【纯农排变】,1北王力内16,2北王力外9【纯农排变】,2西王力外5【纯农排变】,1北王力内3,2北王力外13【纯农排变】,1东王力内1,1北王力内10,1西王力内11,北王力东2,0387497080-北王力东-专变-45318667-北王力东1,北王力村村东,保定市清苑区增亮废旧木材加工处,李建雄猪场,西王力冰棍房,2西王力外7【纯农排变】,北王力西1,2北王力外15【纯农排变】,2西王力外11【纯农排变】,保定富泰隆服装有限公司,东王力付俊峰猪场,1西王力内9,1东王力内3,北王力砖厂东,1西王力内5,2北王力外18【纯农排变】,2北王力外20【纯农排变】,北王力乡中心幼儿园,1北王力内2,1西王力内3,北王力中学3,1北王力内13,1罗营内9,1北王力内8,0387497211-北王力西-专变-45318669-北王力西2,2罗营外1【纯农排变】,2北王力外10【纯农排变】,2北王力外8【纯农排变】,2西王力外2【纯农排变】,2西王力外9【纯农排变】,北王力堤北,2北王力外17【纯农排变】,东王力外5【纯农排变】,1北王力内5,2北王力外4【纯农排变】,2北王力外5【纯农排变】,2北王力外11【纯农排变】,北王力中学2,1北王力内12,2北王力外21【纯农排变】,2西王力外3【纯农排变】,北王力中学1,2西王力外13,2北王力外3【纯农排变】,2北王力外7【纯农排变】,2西王力外8【纯农排变】,2东王力外6【纯农排变】,2北王力外22,2西王力外10【纯农排变】,2北王力外16【纯农排变】,2东王力外3【纯农排变】,西王力小学,2西王力外6【纯农排变】,2北王力外1【纯农排变】,1北王力内15,1北王力内7,2东王力外7【纯农排变】,1罗营内1,1东王力内2,2东王力外2【纯农排变】,保定市清苑区北王力中学,保定市清苑区顺腾木器加工厂,2北王力外19【纯农排变】,1北王力内9,1北王力内1,北王力内11,1北王力内17,1西王力内4,国网河北清苑县供电公司罗家营供电所,1北王力内14,1北王力内6,1西王力内10,北王力村村西,1西王力内8,1北王力内4","powerOffReason":"【停电原因】由于主干１号杆开关掉闸导致３５ＫＶ罗家营变电站１０ＫＶ北王力线５１２线路全线停电 【变更送电】因抢修进度加快原因，送电时间由１５：００变更为１１：３０ 【发布渠道】通过９５５９８发布","powerOffId":"2019100413000050"},{"poweroffId":2019100413000046,"sgpoweroffId":null,"subsName":"","lineName":"10kV朝阳路线558","pubTranName":"聚泽园小区A2000,南关小学门口公用,清真寺公用变压器,计量局公用变压器,聚泽园小区B2000,水泥路口变压器,","scope":"【影响街道/乡镇】涞水镇、广华寺街、清真寺街、南关大街 【高危重要客户】无 【影响客户】计量局附近、怡海小区附近、雅特小区、聚泽园小区","startTime":"2019-10-04 07:57:17","stopDate":"2019-10-04 11:00:00","orgNo":"1340614","typeCode":"电网故障停限电","poweroffArea":"【分支停电】停聚泽园小区A2000,南关小学门口公用,清真寺公用变压器,计量局公用变压器,聚泽园小区B2000,水泥路口变压器","poweroffReason":"【停电原因】由于设备线夹烧毁导致１１０ＫＶ郭下变电站１０ＫＶ朝阳路５５８线路南关分支０４号杆至２５号杆停电 【变更送电】因抢修进度加快原因，送电时间由１２：００变更为１１：００ 【发布渠道】通过９５５９８发布","powerTime":"2019-10-04 10:26:58","powerComm":"已送电","subsNo":"","lineNo":"","tgNo":"","tgName":null,"infoStatus":"1","orgName":"国网涞水县供电公司","typeName":null,"infoStatusName":null,"dateDay":null,"orgNos":null,"nowTime":null,"countyName":null,"streetName":null,"villageName":null,"roadName":null,"communityName":null,"tranName":null,"sdLineName":null,"cityCode":"1340614","cityName":"国网涞水县供电公司","provinceCode":null,"stopTime":"2019-10-04 11:00:00","powerType":"全部","powerOffArea":"【分支停电】停聚泽园小区A2000,南关小学门口公用,清真寺公用变压器,计量局公用变压器,聚泽园小区B2000,水泥路口变压器","powerOffReason":"【停电原因】由于设备线夹烧毁导致１１０ＫＶ郭下变电站１０ＫＶ朝阳路５５８线路南关分支０４号杆至２５号杆停电 【变更送电】因抢修进度加快原因，送电时间由１２：００变更为１１：００ 【发布渠道】通过９５５９８发布","powerOffId":"2019100413000046"},{"poweroffId":2019100413000032,"sgpoweroffId":null,"subsName":"","lineName":"安仁线558","pubTranName":"岐山庄东北变压器,岐山庄东2号排灌变压器【纯农排变】,徐家营南台变压器,岐山庄北3号排灌变压器【纯农排变】,董家营东1号排灌变压器【纯农排变】,徐家营东1号排灌变压器【纯农排变】,小青仲西3号公变,徐家营北变压器,大青仲东变压器,小青仲北2号公变变压器,岐山庄南4号排灌变压器【纯农排变】,岐山庄西南变压器,","scope":"【影响街道/乡镇】辛桥乡 【高危重要客户】无 【影响客户】泗水营村、安仁村、小青仲村、大青仲村、董家营村、徐家营村、岐山庄村、梁家营村、韩立珍、李文江、小青仲农场、辛桥中心卫生院、岐山庄面粉厂、岐山庄小学、乡土六坊农业合作社","startTime":"2019-10-04 07:27:18","stopDate":"2019-10-04 09:00:00","orgNo":"1340612","typeCode":"电网故障停限电","poweroffArea":"【分支停电】停岐山庄东2号排灌变压器【纯农排变】,岐山庄水变压器【纯农排变】,董家营东1号排灌变压器【纯农排变】,徐家营东1号排灌变压器【纯农排变】,0683322778-高碑店市乡土六坊农产品购销农民专业合作社-专变-222788076-高碑店市乡土六坊农产品购销农民专业合作社变压器,岐山庄东北变压器,李文江,高碑店市辛桥镇岐山庄小学变压器,韩立珍,大青仲南水变压器【纯农排变】,徐家营南台变压器,泗水营水变压器【纯农排变】,泗水营北水变压器【纯农排变】,泗水营变压器,岐山庄北3号排灌变压器【纯农排变】,大青仲东磁卡变压器【纯农排变】,岐山庄东变压器,小青仲南4号排灌变压器【纯农排变】,徐家营南磁卡变压器【纯农排变】,梁家营内变压器,小青仲北2号公变变压器,岐山庄北变压器,小青仲北1号排灌变压器【纯农排变】,董家营南台变压器【纯农排变】,泗水营东北台变压器,小青仲西水变压器【纯农排变】,岐山庄南1号排灌变压器【纯农排变】,徐家营东磁卡变压器【纯农排变】,大青仲北1号排灌变压器【纯农排变】,泗水营南水变压器【纯农排变】,小青仲农场,梁家营磁卡变压器【纯农排变】,小青仲西5号排灌变压器【纯农排变】,小青仲西3号公变,徐家营北变压器,大青仲东变压器,大青仲南2号排灌变压器【纯农排变】,梁家营南水变压器【纯农排变】,岐山庄西南变压器,大青仲西磁卡变压器【纯农排变】,岐山庄南4号排灌变压器【纯农排变】,小青仲南变压器,安仁村东变压器,岐山庄东南水变压器【纯农排变】,小青仲排灌变压器【纯农排变】,岐山庄内变压器,辛桥中心卫生院,小青仲南3号排灌变压器【纯农排变】,大青仲变压器,小青仲内变压器","poweroffReason":"【停电原因】由于岐山庄面粉厂变压器支瓶坏导致１１０ＫＶ陈八庄变电站１０ＫＶ安仁５５８线路２号断路器以下停电 【变更送电】因抢修进度加快原因，送电时间由１７：００变更为９：００ 【发布渠道】通过９５５９８发布","powerTime":"2019-10-04 08:38:21","powerComm":"已送电","subsNo":"","lineNo":"","tgNo":"","tgName":null,"infoStatus":"1","orgName":"国网高碑店市供电公司","typeName":null,"infoStatusName":null,"dateDay":null,"orgNos":null,"nowTime":null,"countyName":null,"streetName":null,"villageName":null,"roadName":null,"communityName":null,"tranName":null,"sdLineName":null,"cityCode":"1340612","cityName":"国网高碑店市供电公司","provinceCode":null,"stopTime":"2019-10-04 09:00:00","powerType":"全部","powerOffArea":"【分支停电】停岐山庄东2号排灌变压器【纯农排变】,岐山庄水变压器【纯农排变】,董家营东1号排灌变压器【纯农排变】,徐家营东1号排灌变压器【纯农排变】,0683322778-高碑店市乡土六坊农产品购销农民专业合作社-专变-222788076-高碑店市乡土六坊农产品购销农民专业合作社变压器,岐山庄东北变压器,李文江,高碑店市辛桥镇岐山庄小学变压器,韩立珍,大青仲南水变压器【纯农排变】,徐家营南台变压器,泗水营水变压器【纯农排变】,泗水营北水变压器【纯农排变】,泗水营变压器,岐山庄北3号排灌变压器【纯农排变】,大青仲东磁卡变压器【纯农排变】,岐山庄东变压器,小青仲南4号排灌变压器【纯农排变】,徐家营南磁卡变压器【纯农排变】,梁家营内变压器,小青仲北2号公变变压器,岐山庄北变压器,小青仲北1号排灌变压器【纯农排变】,董家营南台变压器【纯农排变】,泗水营东北台变压器,小青仲西水变压器【纯农排变】,岐山庄南1号排灌变压器【纯农排变】,徐家营东磁卡变压器【纯农排变】,大青仲北1号排灌变压器【纯农排变】,泗水营南水变压器【纯农排变】,小青仲农场,梁家营磁卡变压器【纯农排变】,小青仲西5号排灌变压器【纯农排变】,小青仲西3号公变,徐家营北变压器,大青仲东变压器,大青仲南2号排灌变压器【纯农排变】,梁家营南水变压器【纯农排变】,岐山庄西南变压器,大青仲西磁卡变压器【纯农排变】,岐山庄南4号排灌变压器【纯农排变】,小青仲南变压器,安仁村东变压器,岐山庄东南水变压器【纯农排变】,小青仲排灌变压器【纯农排变】,岐山庄内变压器,辛桥中心卫生院,小青仲南3号排灌变压器【纯农排变】,大青仲变压器,小青仲内变压器","powerOffReason":"【停电原因】由于岐山庄面粉厂变压器支瓶坏导致１１０ＫＶ陈八庄变电站１０ＫＶ安仁５５８线路２号断路器以下停电 【变更送电】因抢修进度加快原因，送电时间由１７：００变更为９：００ 【发布渠道】通过９５５９８发布","powerOffId":"2019100413000032"}],"pageModel":{"pageNow":531,"totalCount":10973,"totalPage":1098,"tableRows":0,"pageCount":10,"beginCount":5300},"isExperi":"1"}