{"message":"","today":"2020-06-15","seleList":[{"poweroffId":2019093013000079,"sgpoweroffId":null,"subsName":"","lineName":"力强557","pubTranName":"冯家营西排灌【纯农排变】,冯家营南,耿庄3号地【纯农排变】,宋辛中,力强南变压器,宋辛西北,力强北,十里铺西地【纯农排变】,宋辛北地【纯农排变】,宋辛北,南菜北,宋辛中二变压器,220KV河北省送变电公司公变,耿庄西排灌变压器,耿庄西北,","scope":"【影响街道/乡镇】泗庄镇、东马营镇 【高危重要客户】无 【影响客户】宋辛村、十里铺村、力强村、赵庄村、金庄村、小陈庄村、大陈庄村、耿庄村、楮官营村、冯家营村、南菜村、德林庄村、碧照轩观光园有限公司、宋辛小学、冯家营小学、宋辛面粉厂、河北金利达塑胶制品有限公司、孙建华中、孙建华东、田国辉","startTime":"2019-09-30 09:30:13","stopDate":"2019-09-30 11:30:00","orgNo":"1340612","typeCode":"电网故障停限电","poweroffArea":"【全线路停电】停南菜村,褚官营1号地【纯农排变】,耿庄3号地【纯农排变】,孙建华中,冯家营南,泗庄小陈庄东变压器,河北金利达塑胶制品有限公司,冯家营西,宋辛3号地,冯家营西排灌【纯农排变】,力强2号地变压器,宋辛中,金庄地变压器,0387440244-宋辛海绵纸厂-专变-45277368-田德春,泗庄大陈庄,力强西,耿庄地【纯农排变】,耿庄2号地【纯农排变】,南菜西北地【纯农排变】,十里铺1号地【纯农排变】,宋辛西北地【纯农排变】,高碑店市泗庄镇冯家营学校,冯家营东台,冯家营1号地【纯农排变】,德林庄1号地,力强北,十里铺西地【纯农排变】,冯家营3号地【纯农排变】,赵庄地变压器【纯农排变】,南菜东北地【纯农排变】,0643978403-河北金利达塑胶制品有限公司-专变-161950501-河北金利达塑胶制品有限公司200KVA变压器,耿庄排灌【纯农排变】,德林庄北,耿庄西,小陈庄地【纯农排变】,宋辛北地【纯农排变】,宋辛北,宋辛4号地变压器【纯农排变】,中国石油天然气股份有限公司管道分公司,耿庄村,金庄,宋辛面,十里铺东地【纯农排变】,孙建华东,海威拉链有限责任公司,德林庄西北地【纯农排变】,高碑店市泗庄镇宋辛庄窠小学变压器,耿庄西排灌变压器,宋辛2号地【纯农排变】,力强1号地变压器,耿庄西北,大陈庄地【纯农排变】,冯家营4号地【纯农排变】,力强3号地变压器【纯农排变】,德林庄村,褚官营2号地【纯农排变】,冯家营北,南菜北,宋辛中二变压器,0643978403-河北金利达塑胶制品有限公司-专变-161935481-河北金利达塑胶制品有限公司1000KVA变压器,南菜1号地【纯农排变】,宋辛西北,褚官营西,冯家营2号地【纯农排变】,安海林变压器,客户投资_泗庄赵庄,力强东变压器,力强南变压器,小陈庄西,0387451189-田国辉-专变-45283233-党校,褚官营村,德林庄北地【纯农排变】,宋辛东北地变压器【纯农排变】,宋辛1号地【纯农排变】,宋辛东地【纯农排变】,褚官营地【纯农排变】,冯家营西排灌1【纯农排变】,高碑店市碧照轩观光园有限公司变压器,220KV河北省送变电公司公变,十里铺2号地【纯农排变】","poweroffReason":"【停电原因】由于碧照轩分支砍树刮到线导致２２０ＫＶ力强变电站１０ＫＶ力强５５７线路全线停电 【变更送电】因抢修进度加快原因，送电时间由１４：００变更为１１：３０ 【发布渠道】通过９５５９８发布","powerTime":"2019-09-30 11:00:24","powerComm":"已送电","subsNo":"","lineNo":"","tgNo":"","tgName":null,"infoStatus":"1","orgName":"国网高碑店市供电公司","typeName":null,"infoStatusName":null,"dateDay":null,"orgNos":null,"nowTime":null,"countyName":null,"streetName":null,"villageName":null,"roadName":null,"communityName":null,"tranName":null,"sdLineName":null,"cityCode":"1340612","cityName":"国网高碑店市供电公司","provinceCode":null,"stopTime":"2019-09-30 11:30:00","powerType":"全部","powerOffArea":"【全线路停电】停南菜村,褚官营1号地【纯农排变】,耿庄3号地【纯农排变】,孙建华中,冯家营南,泗庄小陈庄东变压器,河北金利达塑胶制品有限公司,冯家营西,宋辛3号地,冯家营西排灌【纯农排变】,力强2号地变压器,宋辛中,金庄地变压器,0387440244-宋辛海绵纸厂-专变-45277368-田德春,泗庄大陈庄,力强西,耿庄地【纯农排变】,耿庄2号地【纯农排变】,南菜西北地【纯农排变】,十里铺1号地【纯农排变】,宋辛西北地【纯农排变】,高碑店市泗庄镇冯家营学校,冯家营东台,冯家营1号地【纯农排变】,德林庄1号地,力强北,十里铺西地【纯农排变】,冯家营3号地【纯农排变】,赵庄地变压器【纯农排变】,南菜东北地【纯农排变】,0643978403-河北金利达塑胶制品有限公司-专变-161950501-河北金利达塑胶制品有限公司200KVA变压器,耿庄排灌【纯农排变】,德林庄北,耿庄西,小陈庄地【纯农排变】,宋辛北地【纯农排变】,宋辛北,宋辛4号地变压器【纯农排变】,中国石油天然气股份有限公司管道分公司,耿庄村,金庄,宋辛面,十里铺东地【纯农排变】,孙建华东,海威拉链有限责任公司,德林庄西北地【纯农排变】,高碑店市泗庄镇宋辛庄窠小学变压器,耿庄西排灌变压器,宋辛2号地【纯农排变】,力强1号地变压器,耿庄西北,大陈庄地【纯农排变】,冯家营4号地【纯农排变】,力强3号地变压器【纯农排变】,德林庄村,褚官营2号地【纯农排变】,冯家营北,南菜北,宋辛中二变压器,0643978403-河北金利达塑胶制品有限公司-专变-161935481-河北金利达塑胶制品有限公司1000KVA变压器,南菜1号地【纯农排变】,宋辛西北,褚官营西,冯家营2号地【纯农排变】,安海林变压器,客户投资_泗庄赵庄,力强东变压器,力强南变压器,小陈庄西,0387451189-田国辉-专变-45283233-党校,褚官营村,德林庄北地【纯农排变】,宋辛东北地变压器【纯农排变】,宋辛1号地【纯农排变】,宋辛东地【纯农排变】,褚官营地【纯农排变】,冯家营西排灌1【纯农排变】,高碑店市碧照轩观光园有限公司变压器,220KV河北省送变电公司公变,十里铺2号地【纯农排变】","powerOffReason":"【停电原因】由于碧照轩分支砍树刮到线导致２２０ＫＶ力强变电站１０ＫＶ力强５５７线路全线停电 【变更送电】因抢修进度加快原因，送电时间由１４：００变更为１１：３０ 【发布渠道】通过９５５９８发布","powerOffId":"2019093013000079"},{"poweroffId":2019093013000014,"sgpoweroffId":null,"subsName":"","lineName":"10kV513玉田线","pubTranName":"北玉田农排8台区【纯农排变】,北玉田综合4台区变压器,北玉田综合5台区变压器,北玉田农排1台区【纯农排变】,北玉田农排2台区【纯农排变】,北玉农排12台区【纯农排变】,北玉综合11台区变压器,北玉田综合2台区变压器,北玉田农排3台区【纯农排变】,北玉田综合8台区变压器,北玉田综合9台区变压器,北玉田综合3台区变压器,北玉综合12台区变压器,北玉田农排7台区【纯农排变】,北玉田综合6台区变压器,北玉农排10台区【纯农排变】,北玉田综合7台区变压器,北玉综合10台区变压器,北玉田综合1台区变压器,北玉农排13台区【纯农排变】,北玉田综合13台区变压器,","scope":"【影响街道/乡镇】大百尺镇【高危重要客户】无【影响客户】北玉田村","startTime":"2019-09-30 07:16:00","stopDate":"2019-09-30 11:00:00","orgNo":"1340616","typeCode":"电网故障停限电","poweroffArea":"【分支停电】停北玉田综合2台区变压器,北玉田农排3台区【纯农排变】,北玉综合12台区变压器,北玉农排10台区【纯农排变】,北玉田综合7台区变压器,北玉田综合13台区变压器,北玉综合10台区变压器,北玉田综合1台区变压器,北玉农排13台区【纯农排变】,北玉田综合5台区变压器,北玉田农排1台区【纯农排变】,北玉综合11台区变压器,北玉田综合8台区变压器,北玉田综合9台区变压器,北玉田综合3台区变压器,北玉田农排7台区【纯农排变】,北玉田综合6台区变压器,北玉田农排8台区【纯农排变】,北玉田综合4台区变压器,北玉田农排2台区【纯农排变】,北玉农排12台区【纯农排变】","poweroffReason":"【停电原因】由于电杆断裂导致３５ＫＶ握纽庄变电站１０ＫＶ玉田５１３线路５３号杆至１０５号杆之间停电【变更送电】因抢修进度加快原因，送电时间由１５：００变更为１１：００【发布渠道】通过９５５９８发","powerTime":"2019-09-30 11:00:00","powerComm":"已送电","subsNo":"","lineNo":"","tgNo":"","tgName":null,"infoStatus":"1","orgName":"国网蠡县供电公司","typeName":null,"infoStatusName":null,"dateDay":null,"orgNos":null,"nowTime":null,"countyName":null,"streetName":null,"villageName":null,"roadName":null,"communityName":null,"tranName":null,"sdLineName":null,"cityCode":"1340616","cityName":"国网蠡县供电公司","provinceCode":null,"stopTime":"2019-09-30 11:00:00","powerType":"全部","powerOffArea":"【分支停电】停北玉田综合2台区变压器,北玉田农排3台区【纯农排变】,北玉综合12台区变压器,北玉农排10台区【纯农排变】,北玉田综合7台区变压器,北玉田综合13台区变压器,北玉综合10台区变压器,北玉田综合1台区变压器,北玉农排13台区【纯农排变】,北玉田综合5台区变压器,北玉田农排1台区【纯农排变】,北玉综合11台区变压器,北玉田综合8台区变压器,北玉田综合9台区变压器,北玉田综合3台区变压器,北玉田农排7台区【纯农排变】,北玉田综合6台区变压器,北玉田农排8台区【纯农排变】,北玉田综合4台区变压器,北玉田农排2台区【纯农排变】,北玉农排12台区【纯农排变】","powerOffReason":"【停电原因】由于电杆断裂导致３５ＫＶ握纽庄变电站１０ＫＶ玉田５１３线路５３号杆至１０５号杆之间停电【变更送电】因抢修进度加快原因，送电时间由１５：００变更为１１：００【发布渠道】通过９５５９８发","powerOffId":"2019093013000014"},{"poweroffId":2019093013000001,"sgpoweroffId":null,"subsName":"","lineName":"10kV513玉田线","pubTranName":"南玉田农排6台区【纯农排变】,中玉田综合6台区变压器,北玉田综合2台区变压器,南玉农排10台区【纯农排变】,北玉田农排3台区【纯农排变】,南玉综合2台区变压器,北玉综合12台区变压器,北玉农排10台区【纯农排变】,南玉综合1台区变压器,北玉田综合7台区变压器,北玉田综合13台区变压器,北玉综合10台区变压器,中玉综合2台区变压器,北玉田综合1台区变压器,南玉综合5台区变压器,北玉农排13台区【纯农排变】,北玉田综合5台区变压器,中玉田农排3台区【纯农排变】,中玉田农排6台区【纯农排变】,北玉田农排1台区【纯农排变】,南玉田农排7台区【纯农排变】,北玉综合11台区变压器,中玉田农排2台区【纯农排变】,南玉综合3台区变压器,中玉综合1台区变压器,中玉综合5台区变压器,中玉综合3台区变压器,北玉田综合8台区变压器,北玉田综合9台区变压器,中玉综合4台区变压器,北玉田综合3台区变压器,南玉田综合8台区变压器,北玉田农排7台区【纯农排变】,北玉田综合6台区变压器,南玉综合4台区变压器,北玉田农排8台区【纯农排变】,南玉综合6台区变压器,北玉田综合4台区变压器,南玉综合7台区变压器,北玉田农排2台区【纯农排变】,北玉农排12台区【纯农排变】,中玉农排7台区【纯农排变】,南玉田农排8台区【纯农排变】,","scope":"【影响街道/乡镇】大百尺镇【高危重要客户】无【影响客户】北玉田村、南玉田村、中玉田村","startTime":"2019-09-30 00:16:26","stopDate":"2019-09-30 07:20:00","orgNo":"1340616","typeCode":"电网故障停限电","poweroffArea":"【全线路停电】停南玉农排10台区【纯农排变】,中玉田农排5台区【纯农排变】,握纽庄农排9台区【纯农排变】,北玉田农排9台区【纯农排变】,北玉田农排8台区【纯农排变】,北玉田农排6台区【纯农排变】,中玉综合4台区变压器,北玉农排13台区【纯农排变】,中玉田综合6台区变压器,南玉综合1台区变压器,北玉田综合3台区变压器,南玉田综合8台区变压器,北玉田综合8台区变压器,北玉农排14台区【纯农排变】,南玉综合2台区变压器,中玉综合2台区变压器,北玉田综合5台区变压器,北玉田综合13台区变压器,中玉综合1台区变压器,北玉田综合7台区变压器,蠡县派康皮具有限公司,0469432275-蠡县轩达纺织品有限公司-专变-46810356-蠡县轩达纺织品有限公司,中玉综合5台区变压器,北玉田综合9台区变压器,北玉农排12台区【纯农排变】,北玉农排10台区【纯农排变】,南玉综合5台区变压器,南玉综合7台区变压器,中国移动通信集团河北有限公司蠡县分公司变压器,南玉田农排6台区【纯农排变】,南玉综合3台区变压器,北玉田综合1台区变压器,北玉田农排2台区【纯农排变】,中玉农排7台区【纯农排变】,北玉田农排4台区【纯农排变】,北玉田综合2台区变压器,北玉田农排5台区【纯农排变】,北玉综合11台区变压器,北玉农排11台区【纯农排变】,保定六合皮件有限公司,0555883426-中国移动通信集团河北有限公司蠡县分公司-专变-95790837-中国移动通信集团河北有限公司蠡县分公司变压器,北玉田农排7台区【纯农排变】,保定金若兰皮具有限公司2号,保定派总皮具有限公司,0664651004-保定强胜水利工程有限公司-专变-201057949-保定强胜水利工程有限公司变压器,南玉综合6台区变压器,0544816554-刘杰养猪场-专变-118577728-刘杰养猪场,0469432637-蠡县振华毛巾厂-专变-46810238-南玉永强面粉厂,南玉综合4台区变压器,北玉田综合4台区变压器,北玉田农排1台区【纯农排变】,中玉田农排1台区【纯农排变】,中玉综合3台区变压器,中玉田农排4台区【纯农排变】,中玉田农排3台区【纯农排变】,南玉田农排7台区【纯农排变】,北玉综合12台区变压器,北玉田综合6台区变压器,中玉田农排2台区【纯农排变】,南玉田农排8台区【纯农排变】,北玉田农排3台区【纯农排变】,中玉田农排6台区【纯农排变】,北玉综合10台区变压器","poweroffReason":"【停电原因】由于站内开关掉闸导致３５ＫＶ握纽庄变电站１０ＫＶ玉田５１３线路全线停电【变更送电】因抢修进度加快原因，送电时间由１０：００变更为０７:２０【发布渠道】通过９５５９８发","powerTime":"2019-09-30 06:42:35","powerComm":"已送电","subsNo":"","lineNo":"","tgNo":"","tgName":null,"infoStatus":"1","orgName":"国网蠡县供电公司","typeName":null,"infoStatusName":null,"dateDay":null,"orgNos":null,"nowTime":null,"countyName":null,"streetName":null,"villageName":null,"roadName":null,"communityName":null,"tranName":null,"sdLineName":null,"cityCode":"1340616","cityName":"国网蠡县供电公司","provinceCode":null,"stopTime":"2019-09-30 07:20:00","powerType":"全部","powerOffArea":"【全线路停电】停南玉农排10台区【纯农排变】,中玉田农排5台区【纯农排变】,握纽庄农排9台区【纯农排变】,北玉田农排9台区【纯农排变】,北玉田农排8台区【纯农排变】,北玉田农排6台区【纯农排变】,中玉综合4台区变压器,北玉农排13台区【纯农排变】,中玉田综合6台区变压器,南玉综合1台区变压器,北玉田综合3台区变压器,南玉田综合8台区变压器,北玉田综合8台区变压器,北玉农排14台区【纯农排变】,南玉综合2台区变压器,中玉综合2台区变压器,北玉田综合5台区变压器,北玉田综合13台区变压器,中玉综合1台区变压器,北玉田综合7台区变压器,蠡县派康皮具有限公司,0469432275-蠡县轩达纺织品有限公司-专变-46810356-蠡县轩达纺织品有限公司,中玉综合5台区变压器,北玉田综合9台区变压器,北玉农排12台区【纯农排变】,北玉农排10台区【纯农排变】,南玉综合5台区变压器,南玉综合7台区变压器,中国移动通信集团河北有限公司蠡县分公司变压器,南玉田农排6台区【纯农排变】,南玉综合3台区变压器,北玉田综合1台区变压器,北玉田农排2台区【纯农排变】,中玉农排7台区【纯农排变】,北玉田农排4台区【纯农排变】,北玉田综合2台区变压器,北玉田农排5台区【纯农排变】,北玉综合11台区变压器,北玉农排11台区【纯农排变】,保定六合皮件有限公司,0555883426-中国移动通信集团河北有限公司蠡县分公司-专变-95790837-中国移动通信集团河北有限公司蠡县分公司变压器,北玉田农排7台区【纯农排变】,保定金若兰皮具有限公司2号,保定派总皮具有限公司,0664651004-保定强胜水利工程有限公司-专变-201057949-保定强胜水利工程有限公司变压器,南玉综合6台区变压器,0544816554-刘杰养猪场-专变-118577728-刘杰养猪场,0469432637-蠡县振华毛巾厂-专变-46810238-南玉永强面粉厂,南玉综合4台区变压器,北玉田综合4台区变压器,北玉田农排1台区【纯农排变】,中玉田农排1台区【纯农排变】,中玉综合3台区变压器,中玉田农排4台区【纯农排变】,中玉田农排3台区【纯农排变】,南玉田农排7台区【纯农排变】,北玉综合12台区变压器,北玉田综合6台区变压器,中玉田农排2台区【纯农排变】,南玉田农排8台区【纯农排变】,北玉田农排3台区【纯农排变】,中玉田农排6台区【纯农排变】,北玉综合10台区变压器","powerOffReason":"【停电原因】由于站内开关掉闸导致３５ＫＶ握纽庄变电站１０ＫＶ玉田５１３线路全线停电【变更送电】因抢修进度加快原因，送电时间由１０：００变更为０７:２０【发布渠道】通过９５５９８发","powerOffId":"2019093013000001"},{"poweroffId":2019092913000365,"sgpoweroffId":null,"subsName":"","lineName":"10kV南营线511","pubTranName":"1南营内7,1南营内9,1南营内5,1北营内1,林水屯内1,1南营内6,北营内3,1北营内7,北营内2号,1南营内1,1南营内4,南营内2,1中林水内2,1西林水内6,1南营内3,中林水1号,2南营外25【纯农排变】,西林水小学,南营小学,2南营外26【纯农排变】,1西林水内5,张登中学林水分校2,东林水内2,2西顾庄外12【纯农排变】,西林水内1号,客户投资_1北营内4,客户投资_1林水屯内2,1东林水内4,西林水内3台区,1北营内5,东林水小学,1南营内8,张登中学林水分校1,1北营内6,东林水内1号,西林水内2,西林水内4台区,北蛮营幼儿园,1东林水内5,","scope":"【影响街道/乡镇】白团乡 【高危重要客户】无 【影响客户】南营、北营、东林水、西林水、林水屯、中林水、辛庄、西顾庄","startTime":"2019-09-29 17:50:07","stopDate":"2019-09-29 19:00:00","orgNo":"1340618","typeCode":"电网故障停限电","poweroffArea":"【全线路停电】停1南营内1,1南营内4,保定市好梦林水农业科技有限公司,南营内2,1中林水内2,2南营外23【纯农排变】,1西林水内6,保定市清苑区新华世纪中学,1南营内3,2北营外12【纯农排变】,保定绿视野林业发展有限公司,中林水1号,保定市鸿运秋益建筑安装有限公司,2南营外25【纯农排变】,2北营外10【纯农排变】,2南营外21【纯农排变】,2北营外5【纯农排变】,2北营外11【纯农排变】,2西林水外3【纯农排变】,2南营外14【纯农排变】,2南营外12【纯农排变】,2西林水外10【纯农排变】,2北营外13【纯农排变】,2西林水外8【纯农排变】,南营小学,保定宝钻机械制造有限公司,2北营外14【纯农排变】,西林水安置楼,0668872748-河北建设集团有限公司朝阳大街南延项目经理部-专变-210339870-河北建设集团有限公司朝阳大街南延项目经理部,好梦林水观光大道路灯,2南营外6【纯农排变】,1西林水内5,2林水屯外2【纯农排变】,西林水小学,2南营外26【纯农排变】,清苑县北营新家园钻头厂,2南营外20【纯农排变】,2西顾庄外11【纯农排变】,2南营外16【纯农排变】,宝钻桩孔机械加工厂,2西顾庄外6【纯农排变】,清苑县鑫华钻机厂,2南营外3【纯农排变】,2北营外7【纯农排变】,2西林水外2【纯农排变】,2西顾庄外12【纯农排变】,西林水内1号,2北营外8【纯农排变】,2林水屯外3【纯农排变】,2南营外22【纯农排变】,河北雨农灌溉设备制造有限公司,2南营外24【纯农排变】,西林水内3台区,河北建设集团有限公司,2南营外11【纯农排变】,2南营外5【纯农排变】,2南营外9【纯农排变】,2北营外17【纯农排变】,1北营内5,张登中学林水分校2,东林水内2,2北营外3【纯农排变】,2西林水外9【纯农排变】,客户投资_1林水屯内2,1东林水内4,2南营外15【纯农排变】,保定市清苑区北店乡东林水小学,2北营外2【纯农排变】,东林水小学,2西顾庄外8【纯农排变】,清苑县鑫隆机械制造有限公司,保定市顺昶水泵制造有限公司,2中林水外3【纯农排变】,2北营外1【纯农排变】,2北营外4【纯农排变】,1南营内8,0550746221-保定市气象局-专变-213875681-保定市气象局,张登中学林水分校1,1北营内6,2西林水外7【纯农排变】,2北营外15【纯农排变】,东林水内1号,西林水内2,2南营外10【纯农排变】,2南营外18【纯农排变】,2西林水外6【纯农排变】,2北营外9【纯农排变】,2南营外7【纯农排变】,2西林水外1【纯农排变】,1南营内7,2西顾庄外9【纯农排变】,1南营内9,1南营内5,2东林水外1【纯农排变】,2南营外19【纯农排变】,2南营外8【纯农排变】,1北营内1,河北北工特机械科技有限公司,林水屯内1,1南营内6,辛庄外4【纯农排变】,北营内3,2南营外4【纯农排变】,1北营内7,北营内2号,2西顾庄外5【纯农排变】,客户投资_1北营内4,2南营外17【纯农排变】,西林水中学,清苑县鑫洋钻机厂,2中林水外2【纯农排变】,2西林水外5【纯农排变】,2西林水外4【纯农排变】,1东林水内5,2北营外6【纯农排变】,清苑县金顺钻头门市部,西林水内4台区,北蛮营幼儿园,2北营外16【纯农排变】,2北营外18【纯农排变】,2南营外13【纯农排变】","poweroffReason":"【停电原因】由于主干７０号杆北分支７号杆好梦林水观光大道路灯电缆挖断导致１１０ＫＶ中冉变电站１０ＫＶ南营线５１１线路全线停电 【变更送电】因抢修进度加快原因，送电时间由２３：００变更为１９：００ 【发布渠道】通过９５５９８发布","powerTime":"2019-09-29 18:41:17","powerComm":"王凯通知已送电","subsNo":"","lineNo":"","tgNo":"","tgName":null,"infoStatus":"1","orgName":"国网清苑县供电公司","typeName":null,"infoStatusName":null,"dateDay":null,"orgNos":null,"nowTime":null,"countyName":null,"streetName":null,"villageName":null,"roadName":null,"communityName":null,"tranName":null,"sdLineName":null,"cityCode":"1340618","cityName":"国网清苑县供电公司","provinceCode":null,"stopTime":"2019-09-29 19:00:00","powerType":"全部","powerOffArea":"【全线路停电】停1南营内1,1南营内4,保定市好梦林水农业科技有限公司,南营内2,1中林水内2,2南营外23【纯农排变】,1西林水内6,保定市清苑区新华世纪中学,1南营内3,2北营外12【纯农排变】,保定绿视野林业发展有限公司,中林水1号,保定市鸿运秋益建筑安装有限公司,2南营外25【纯农排变】,2北营外10【纯农排变】,2南营外21【纯农排变】,2北营外5【纯农排变】,2北营外11【纯农排变】,2西林水外3【纯农排变】,2南营外14【纯农排变】,2南营外12【纯农排变】,2西林水外10【纯农排变】,2北营外13【纯农排变】,2西林水外8【纯农排变】,南营小学,保定宝钻机械制造有限公司,2北营外14【纯农排变】,西林水安置楼,0668872748-河北建设集团有限公司朝阳大街南延项目经理部-专变-210339870-河北建设集团有限公司朝阳大街南延项目经理部,好梦林水观光大道路灯,2南营外6【纯农排变】,1西林水内5,2林水屯外2【纯农排变】,西林水小学,2南营外26【纯农排变】,清苑县北营新家园钻头厂,2南营外20【纯农排变】,2西顾庄外11【纯农排变】,2南营外16【纯农排变】,宝钻桩孔机械加工厂,2西顾庄外6【纯农排变】,清苑县鑫华钻机厂,2南营外3【纯农排变】,2北营外7【纯农排变】,2西林水外2【纯农排变】,2西顾庄外12【纯农排变】,西林水内1号,2北营外8【纯农排变】,2林水屯外3【纯农排变】,2南营外22【纯农排变】,河北雨农灌溉设备制造有限公司,2南营外24【纯农排变】,西林水内3台区,河北建设集团有限公司,2南营外11【纯农排变】,2南营外5【纯农排变】,2南营外9【纯农排变】,2北营外17【纯农排变】,1北营内5,张登中学林水分校2,东林水内2,2北营外3【纯农排变】,2西林水外9【纯农排变】,客户投资_1林水屯内2,1东林水内4,2南营外15【纯农排变】,保定市清苑区北店乡东林水小学,2北营外2【纯农排变】,东林水小学,2西顾庄外8【纯农排变】,清苑县鑫隆机械制造有限公司,保定市顺昶水泵制造有限公司,2中林水外3【纯农排变】,2北营外1【纯农排变】,2北营外4【纯农排变】,1南营内8,0550746221-保定市气象局-专变-213875681-保定市气象局,张登中学林水分校1,1北营内6,2西林水外7【纯农排变】,2北营外15【纯农排变】,东林水内1号,西林水内2,2南营外10【纯农排变】,2南营外18【纯农排变】,2西林水外6【纯农排变】,2北营外9【纯农排变】,2南营外7【纯农排变】,2西林水外1【纯农排变】,1南营内7,2西顾庄外9【纯农排变】,1南营内9,1南营内5,2东林水外1【纯农排变】,2南营外19【纯农排变】,2南营外8【纯农排变】,1北营内1,河北北工特机械科技有限公司,林水屯内1,1南营内6,辛庄外4【纯农排变】,北营内3,2南营外4【纯农排变】,1北营内7,北营内2号,2西顾庄外5【纯农排变】,客户投资_1北营内4,2南营外17【纯农排变】,西林水中学,清苑县鑫洋钻机厂,2中林水外2【纯农排变】,2西林水外5【纯农排变】,2西林水外4【纯农排变】,1东林水内5,2北营外6【纯农排变】,清苑县金顺钻头门市部,西林水内4台区,北蛮营幼儿园,2北营外16【纯农排变】,2北营外18【纯农排变】,2南营外13【纯农排变】","powerOffReason":"【停电原因】由于主干７０号杆北分支７号杆好梦林水观光大道路灯电缆挖断导致１１０ＫＶ中冉变电站１０ＫＶ南营线５１１线路全线停电 【变更送电】因抢修进度加快原因，送电时间由２３：００变更为１９：００ 【发布渠道】通过９５５９８发布","powerOffId":"2019092913000365"},{"poweroffId":2019092913000308,"sgpoweroffId":null,"subsName":"","lineName":"尚家柳线522","pubTranName":"南尖农排5台区【纯农排变】,南尖农排8台区【纯农排变】,尚家柳村东新增综合,杨庄综合0402,070006|六合庄农业3#4976【纯农排变】,070010|六合庄农业1#4974【纯农排变】,070013|六合庄农业2#4975【纯农排变】,07131|尚家柳综合0503,07140|北尖5#综合0505,07141|北尖大队综合0435,07142|北尖4变综合0419,07143|北尖东南农排0516【纯农排变】,07145|北尖村中农排0517【纯农排变】,07146|北尖东北农排0519【纯农排变】,07243|尚家柳农业村南1#农排5648【纯农排变】,07244|尚家柳农业村中2#农排5649【纯农排变】,07245|尚家柳农业村北3#农排5651【纯农排变】,0727|尚家柳1#综合0399,0728|尚家柳2#综合0400,北尖大队综合0394,北尖东北新增综合,北尖公路北综合,北尖西北农排【纯农排变】,南尖村东综合,南尖道北综合,南尖农排2台区【纯农排变】,南尖农排3台区【纯农排变】,","scope":"【影响街道/乡镇】晋庄乡、邢南乡 【高危重要客户】无 【影响客户】杨庄（杨家庄）、尚家柳","startTime":"2019-09-29 16:20:00","stopDate":"2019-09-29 21:00:00","orgNo":"1340613","typeCode":"电网故障停限电","poweroffArea":"【分支停电】停070006|六合庄农业3#4976【纯农排变】,070010|六合庄农业1#4974【纯农排变】,070013|六合庄农业2#4975【纯农排变】,07131|尚家柳综合0503,07140|北尖5#综合0505,07141|北尖大队综合0435,07142|北尖4变综合0419,07143|北尖东南农排0516【纯农排变】,07145|北尖村中农排0517【纯农排变】,07146|北尖东北农排0519【纯农排变】,07243|尚家柳农业村南1#农排5648【纯农排变】,07244|尚家柳农业村中2#农排5649【纯农排变】,07245|尚家柳农业村北3#农排5651【纯农排变】,0727|尚家柳1#综合0399,0728|尚家柳2#综合0400,北尖大队综合0394,北尖东北新增综合,北尖公路北综合,北尖西北农排【纯农排变】,南尖村东综合,南尖道北综合,南尖农排2台区【纯农排变】,南尖农排3台区【纯农排变】,南尖农排5台区【纯农排变】,南尖农排8台区【纯农排变】,尚家柳村东新增综合,杨庄综合0402","poweroffReason":"【停电原因】由于汽车撞杆导致２２０ＫＶ高阳变电站尚家柳５２２线路主线１号杆１号开关以下停电【变更送电】因抢修进度加快原因，送电时间由２２：００变更为２１：００【发布渠道】通过９５５９８发布","powerTime":"2019-09-29 20:25:25","powerComm":"已送电","subsNo":"","lineNo":"","tgNo":"","tgName":null,"infoStatus":"1","orgName":"国网高阳县供电公司","typeName":null,"infoStatusName":null,"dateDay":null,"orgNos":null,"nowTime":null,"countyName":null,"streetName":null,"villageName":null,"roadName":null,"communityName":null,"tranName":null,"sdLineName":null,"cityCode":"1340613","cityName":"国网高阳县供电公司","provinceCode":null,"stopTime":"2019-09-29 21:00:00","powerType":"全部","powerOffArea":"【分支停电】停070006|六合庄农业3#4976【纯农排变】,070010|六合庄农业1#4974【纯农排变】,070013|六合庄农业2#4975【纯农排变】,07131|尚家柳综合0503,07140|北尖5#综合0505,07141|北尖大队综合0435,07142|北尖4变综合0419,07143|北尖东南农排0516【纯农排变】,07145|北尖村中农排0517【纯农排变】,07146|北尖东北农排0519【纯农排变】,07243|尚家柳农业村南1#农排5648【纯农排变】,07244|尚家柳农业村中2#农排5649【纯农排变】,07245|尚家柳农业村北3#农排5651【纯农排变】,0727|尚家柳1#综合0399,0728|尚家柳2#综合0400,北尖大队综合0394,北尖东北新增综合,北尖公路北综合,北尖西北农排【纯农排变】,南尖村东综合,南尖道北综合,南尖农排2台区【纯农排变】,南尖农排3台区【纯农排变】,南尖农排5台区【纯农排变】,南尖农排8台区【纯农排变】,尚家柳村东新增综合,杨庄综合0402","powerOffReason":"【停电原因】由于汽车撞杆导致２２０ＫＶ高阳变电站尚家柳５２２线路主线１号杆１号开关以下停电【变更送电】因抢修进度加快原因，送电时间由２２：００变更为２１：００【发布渠道】通过９５５９８发布","powerOffId":"2019092913000308"},{"poweroffId":2019092913000248,"sgpoweroffId":null,"subsName":"","lineName":"10kV512周村工业线","pubTranName":"周村公用照明15台区,周村公用照明16台区,","scope":"【影响街道/乡镇】周村乡【高危重要客户】无【影响客户】周村","startTime":"2019-09-29 15:22:15","stopDate":"2019-09-29 20:00:00","orgNo":"1340610","typeCode":"电网故障停限电","poweroffArea":"【全线路停电】停周村公用照明15台区,周村公用照明16台区","poweroffReason":"【停电原因】由于吊车碰线导致３５ＫＶ周村变电站１０ＫＶ５１２周村工业线路全线停电 【变更送电】无 【发布渠道】９５５９８","powerTime":"2019-09-29 19:09:27","powerComm":"已送电","subsNo":"","lineNo":"","tgNo":"","tgName":null,"infoStatus":"1","orgName":"国网定州市供电公司","typeName":null,"infoStatusName":null,"dateDay":null,"orgNos":null,"nowTime":null,"countyName":null,"streetName":null,"villageName":null,"roadName":null,"communityName":null,"tranName":null,"sdLineName":null,"cityCode":"1340610","cityName":"国网定州市供电公司","provinceCode":null,"stopTime":"2019-09-29 20:00:00","powerType":"全部","powerOffArea":"【全线路停电】停周村公用照明15台区,周村公用照明16台区","powerOffReason":"【停电原因】由于吊车碰线导致３５ＫＶ周村变电站１０ＫＶ５１２周村工业线路全线停电 【变更送电】无 【发布渠道】９５５９８","powerOffId":"2019092913000248"},{"poweroffId":2019092913000218,"sgpoweroffId":null,"subsName":"","lineName":"前营线548电力电缆","pubTranName":"祥达康城东区1号高压间隔配电变压器,前营13号,安肃供电所9号,盛源120号（机械厂小区中）,岳营11号,徐水县前所营新民居（1000）高压间隔配电变压器,前营村15号台【纯农排变】,岳家营3号,盛源48号（检察院）,徐水前所营新民居（630）,盛源79号（新西市场）,祥达康城西区1号变压器高压间隔配电变压器,岳家营14号,盛源119号（机械厂小区北）,前营5号,盛源135号（物探3号配）配电变压器,安肃供电所3号,前营9号,前营10号,岳营13号【纯农排变】,岳家营新民居1号箱变高压间隔配电变压器,前营7号,盛源134号（物探2号配）配电变压器,盛源9号（西市场）,盛源121号（机械厂小区南）,前营2号,盛源133号(物探中心配)配电变压器,前营3号,北京东方新星石化公司（家属院）,前营11号【纯农排变】,徐水知感庄园小区,盛源72号（内燃机厂箱变）,岳营2号,景观河畔小区【纯农排变】,岳营1号,","scope":"【影响街道/乡镇】安肃镇 【高危重要客户】无 【影响客户】岳家营、岳营、物探、西市场、前营、妇幼医院、增华新区、机械厂小区、石化公司家属院、知感庄园小区、南张丰信用社、十里铺、景观河畔小区、前所营新民居、祥达康城、嘉禾名城、何家店","startTime":"2019-09-29 14:52:40","stopDate":"2019-09-29 20:00:00","orgNo":"1340605","typeCode":"电网故障停限电","poweroffArea":"【全线路停电】停岳家营5号【纯农排变】,岳营13号【纯农排变】,岳家营新民居1号箱变高压间隔配电变压器,岳家营18号,前营7号,岳家营6号【纯农排变】,盛源134号（物探2号配）配电变压器,河北白杨床业制造厂,盛源9号（西市场）,前营14号,徐水县第二人民医院,盛源121号（机械厂小区南）,安肃供电所7号,前营第一面粉厂,前营13号,徐水县益民煤厂,安肃供电所9号,增华新区（徐水尚源房地产）,前营10号,盛源120号（机械厂小区中）,城建局路灯,北京东方新星石化公司（家属院）,徐水县金汇工贸有限公司,前营11号【纯农排变】,岳营15号,徐水知感庄园小区,盛源72号（内燃机厂箱变）,岳营10号,安洪雷,岳家营16号,南张丰信用社,岳营2号,十里铺5号,保定运通异型钢管有限公司,徐水县永安建材商店,景观河畔小区【纯农排变】,物探局徐水基地处,祥达康城东区1号高压间隔配电变压器,徐水县白杨物业管理有限公司,岳家营14号,盛源48号（检察院）,徐水县洪儒珠兰加工厂,前营1号【纯农排变】,岳家营8号【纯农排变】,岳家营7号【纯农排变】,前营2号,保定市徐水区元帅阁饭店,前营农业机械修配厂,徐水桥西冲压件厂,盛源133号(物探中心配)配电变压器,岳营11号,徐水县前所营新民居（1000）高压间隔配电变压器,前营建军冲压厂,前营冷库,前营4号【纯农排变】,前营健身球厂,保定市嘉乐达房地产开发有限公司,岳家营4号【纯农排变】,徐水前所营新民居（630）,盛源79号（新西市场）,岳营17号,祥达康城西区1号变压器高压间隔配电变压器,盛源119号（机械厂小区北）,前营村15号台【纯农排变】,岳家营3号,岳营12号,前营3号,前营8号,前营12号,岳营1号,前营5号,盛源135号（物探3号配）配电变压器,安肃供电所3号,前营6号,前所营清真寺,何家店5号【纯农排变】,前营9号","poweroffReason":"【停电原因】由于Ｂ相接地导致２２０ＫＶ张丰变电站前营５４８线路全线停电 【变更送电】因工作未完成原因，送电时间由１９:００变更为２０:００ 【发布渠道】通过９５５９８发布","powerTime":"2019-09-29 19:02:32","powerComm":"已送电","subsNo":"","lineNo":"","tgNo":"","tgName":null,"infoStatus":"1","orgName":"国网徐水县供电公司","typeName":null,"infoStatusName":null,"dateDay":null,"orgNos":null,"nowTime":null,"countyName":null,"streetName":null,"villageName":null,"roadName":null,"communityName":null,"tranName":null,"sdLineName":null,"cityCode":"1340605","cityName":"国网徐水县供电公司","provinceCode":null,"stopTime":"2019-09-29 20:00:00","powerType":"全部","powerOffArea":"【全线路停电】停岳家营5号【纯农排变】,岳营13号【纯农排变】,岳家营新民居1号箱变高压间隔配电变压器,岳家营18号,前营7号,岳家营6号【纯农排变】,盛源134号（物探2号配）配电变压器,河北白杨床业制造厂,盛源9号（西市场）,前营14号,徐水县第二人民医院,盛源121号（机械厂小区南）,安肃供电所7号,前营第一面粉厂,前营13号,徐水县益民煤厂,安肃供电所9号,增华新区（徐水尚源房地产）,前营10号,盛源120号（机械厂小区中）,城建局路灯,北京东方新星石化公司（家属院）,徐水县金汇工贸有限公司,前营11号【纯农排变】,岳营15号,徐水知感庄园小区,盛源72号（内燃机厂箱变）,岳营10号,安洪雷,岳家营16号,南张丰信用社,岳营2号,十里铺5号,保定运通异型钢管有限公司,徐水县永安建材商店,景观河畔小区【纯农排变】,物探局徐水基地处,祥达康城东区1号高压间隔配电变压器,徐水县白杨物业管理有限公司,岳家营14号,盛源48号（检察院）,徐水县洪儒珠兰加工厂,前营1号【纯农排变】,岳家营8号【纯农排变】,岳家营7号【纯农排变】,前营2号,保定市徐水区元帅阁饭店,前营农业机械修配厂,徐水桥西冲压件厂,盛源133号(物探中心配)配电变压器,岳营11号,徐水县前所营新民居（1000）高压间隔配电变压器,前营建军冲压厂,前营冷库,前营4号【纯农排变】,前营健身球厂,保定市嘉乐达房地产开发有限公司,岳家营4号【纯农排变】,徐水前所营新民居（630）,盛源79号（新西市场）,岳营17号,祥达康城西区1号变压器高压间隔配电变压器,盛源119号（机械厂小区北）,前营村15号台【纯农排变】,岳家营3号,岳营12号,前营3号,前营8号,前营12号,岳营1号,前营5号,盛源135号（物探3号配）配电变压器,安肃供电所3号,前营6号,前所营清真寺,何家店5号【纯农排变】,前营9号","powerOffReason":"【停电原因】由于Ｂ相接地导致２２０ＫＶ张丰变电站前营５４８线路全线停电 【变更送电】因工作未完成原因，送电时间由１９:００变更为２０:００ 【发布渠道】通过９５５９８发布","powerOffId":"2019092913000218"},{"poweroffId":2019092913000181,"sgpoweroffId":null,"subsName":"","lineName":"南尖窝线521","pubTranName":"野王村东一号综合,邢南村东北新增综合,070035|野王村西综合5355,北尖村东新增综合,南尖村西新增1号综合,070064|野王村东南综合5351,南尖村西新增2号,070033|野王村西综合3763,南尖西北综合3833,南尖窝村里新增综合,070036|野王村正南综合5347,南尖学校综合3766,07113|南尖村里新增综合4784,070041|野王村东北综合5407,070034|野王村东综合3761,070040|野王村西北综合5348,070038|野王村北染厂综合5353,070032|野王村南综合5349,南尖村南综合4744,07047|南尖村北综合3765,南尖村里新增2号综合1,南尖西南新增综合,邢南村北2号综合,070037|野王村东综合5350,南尖村西综合3821,070039|野王村北综合5352,07112|南尖综合3791,","scope":"【影响街道/乡镇】晋庄乡、邢南乡 【高危重要客户】无 【影响客户】野王村全部、南尖村高保路南侧全部、邢南村东北、北尖村东南部分","startTime":"2019-09-29 13:10:00","stopDate":"2019-09-29 15:00:00","orgNo":"1340613","typeCode":"电网故障停限电","poweroffArea":"【全线路停电】停南尖村西新增1号综合,0683810587-高阳县兴军毛纺织有限公司-专变-223485075-高阳县兴军毛纺织有限公司变压器,河北三伟纺织有限公司,南尖农排7台区【纯农排变】,070035|野王村西综合5355,北尖村东新增综合,南尖远东毛纺厂,旺达织物厂,070064|野王村东南综合5351,南尖村西新增2号,河北飞雄织业有限公司,07150|六合屯农排4830【纯农排变】,070033|野王村西综合3763,南尖西北综合3833,南尖窝村里新增综合,赵杏刚,高阳县邢家南镇邢家南村村民委员会一变压器,070036|野王村正南综合5347,华玉纺织有限公司,杨国强,高阳县晋庄镇南尖窝村村民委员会变压器,程路强,高阳县众鑫纺织品工贸有限公司,河北飞雄织业有限公司变压器,河北三伟纺织有限公司变压器,南尖农排4台区【纯农排变】,雅信纺织有限公司,杨佐村北农排【纯农排变】,高阳县超华纺织印染有限公司变压器,南尖村北,保定宏沃汽车贸易服务有限公司变压器,保定鲁源纺织品有限公司,冯孟铎,雨桐纺织有限公司,鑫诚染织厂,保定伟腾纺织公司,070041|野王村东北综合5407,070034|野王村东综合3761,杨亚辉,万润合线厂,070032|野王村南综合5349,保定普棉纺织有限公司,野王村南农业,南尖大队,杨进峰,南尖村南综合4744,邢南,高阳县宏生棉织厂变压器,南尖村西1号,07047|南尖村北综合3765,南尖村里新增2号综合1,南尖西南新增综合,南尖农排6台区【纯农排变】,070037|野王村东综合5350,南尖国占毛纺厂,高阳县晋庄镇野王村村民委员会二变压器,邢南村北农业,南尖村西综合3821,代占良毛巾厂,甄小俊,谢志安毛巾厂,建新棉织厂,保定普棉纺织品有限公司,南尖学校综合3766,野王村东农业,07113|南尖村里新增综合4784,保定柏立信家纺有限公司,任红图,070038|野王村北染厂综合5353,野王村西农业,晋庄乡南尖窝村村民委员会变压器,高阳县野王鑫诚染织厂变压器,高阳华诺纺织厂变压器,河北天腾纺织品制造有限公司变压器,永强纺织品公司,野王毛纺厂,保定伟腾纺织公司变压器,高阳县晋庄镇野王村村民委员会一变压器,邢南村北2号综合,南尖毛纺厂,070039|野王村北综合5352,高阳县吉顺棉纱制造有限公司台区,杨丙信染厂,永强纺织品有限公,南尖村西农业,07112|南尖综合3791,也王染厂,070040|野王村西北综合5348,野王村东一号综合,邢南村东北新增综合","poweroffReason":"【停电原因】由于汽车撞杆导致２２０ＫＶ高阳变电站南尖窝５２１线路全线停电【变更送电】因抢修进度加快原因，送电时间由１８:００变更为１５:００【发布渠道】通过９５５９８发布","powerTime":"2019-09-29 14:46:44","powerComm":"已送电","subsNo":"","lineNo":"","tgNo":"","tgName":null,"infoStatus":"1","orgName":"国网高阳县供电公司","typeName":null,"infoStatusName":null,"dateDay":null,"orgNos":null,"nowTime":null,"countyName":null,"streetName":null,"villageName":null,"roadName":null,"communityName":null,"tranName":null,"sdLineName":null,"cityCode":"1340613","cityName":"国网高阳县供电公司","provinceCode":null,"stopTime":"2019-09-29 15:00:00","powerType":"全部","powerOffArea":"【全线路停电】停南尖村西新增1号综合,0683810587-高阳县兴军毛纺织有限公司-专变-223485075-高阳县兴军毛纺织有限公司变压器,河北三伟纺织有限公司,南尖农排7台区【纯农排变】,070035|野王村西综合5355,北尖村东新增综合,南尖远东毛纺厂,旺达织物厂,070064|野王村东南综合5351,南尖村西新增2号,河北飞雄织业有限公司,07150|六合屯农排4830【纯农排变】,070033|野王村西综合3763,南尖西北综合3833,南尖窝村里新增综合,赵杏刚,高阳县邢家南镇邢家南村村民委员会一变压器,070036|野王村正南综合5347,华玉纺织有限公司,杨国强,高阳县晋庄镇南尖窝村村民委员会变压器,程路强,高阳县众鑫纺织品工贸有限公司,河北飞雄织业有限公司变压器,河北三伟纺织有限公司变压器,南尖农排4台区【纯农排变】,雅信纺织有限公司,杨佐村北农排【纯农排变】,高阳县超华纺织印染有限公司变压器,南尖村北,保定宏沃汽车贸易服务有限公司变压器,保定鲁源纺织品有限公司,冯孟铎,雨桐纺织有限公司,鑫诚染织厂,保定伟腾纺织公司,070041|野王村东北综合5407,070034|野王村东综合3761,杨亚辉,万润合线厂,070032|野王村南综合5349,保定普棉纺织有限公司,野王村南农业,南尖大队,杨进峰,南尖村南综合4744,邢南,高阳县宏生棉织厂变压器,南尖村西1号,07047|南尖村北综合3765,南尖村里新增2号综合1,南尖西南新增综合,南尖农排6台区【纯农排变】,070037|野王村东综合5350,南尖国占毛纺厂,高阳县晋庄镇野王村村民委员会二变压器,邢南村北农业,南尖村西综合3821,代占良毛巾厂,甄小俊,谢志安毛巾厂,建新棉织厂,保定普棉纺织品有限公司,南尖学校综合3766,野王村东农业,07113|南尖村里新增综合4784,保定柏立信家纺有限公司,任红图,070038|野王村北染厂综合5353,野王村西农业,晋庄乡南尖窝村村民委员会变压器,高阳县野王鑫诚染织厂变压器,高阳华诺纺织厂变压器,河北天腾纺织品制造有限公司变压器,永强纺织品公司,野王毛纺厂,保定伟腾纺织公司变压器,高阳县晋庄镇野王村村民委员会一变压器,邢南村北2号综合,南尖毛纺厂,070039|野王村北综合5352,高阳县吉顺棉纱制造有限公司台区,杨丙信染厂,永强纺织品有限公,南尖村西农业,07112|南尖综合3791,也王染厂,070040|野王村西北综合5348,野王村东一号综合,邢南村东北新增综合","powerOffReason":"【停电原因】由于汽车撞杆导致２２０ＫＶ高阳变电站南尖窝５２１线路全线停电【变更送电】因抢修进度加快原因，送电时间由１８:００变更为１５:００【发布渠道】通过９５５９８发布","powerOffId":"2019092913000181"},{"poweroffId":2019092913000179,"sgpoweroffId":null,"subsName":"","lineName":"10kV529华盛线","pubTranName":"双龙橡胶厂,兑坎庄农机修理,千里马1,神州,鑫源,保定利鑫胶带制造有限公司,0469344556-保定天润橡胶机带有限公司-专变-221691127-保定天润胶带有限公司500,北忠卫农排2台区【纯农排变】,保定鑫源橡胶制品有限公司,保定隆宇橡胶纺织有限公司变压器,保定恒橡橡胶机带有限公司,0469342299-河北双龙橡胶有限公司-专变-225174070-河北双龙橡胶有限公司,北忠卫农排3台区【纯农排变】,信雅达,忠义输送带,中国石油,翔宇,河北千里马输送机械有限公司变压器,大宋小记浇地,蠡县红光橡胶厂,津联橡,大宋农排3台区【纯农排变】,南忠卫农排12台区【纯农排变】,润鑫,大庄头农排11台区【纯农排变】,华强橡胶机带厂,伟达,天润橡胶机带厂变压器,恒橡,","scope":"【影响街道/乡镇】蠡吾镇【高危重要客户】无【影响客户】兑坎庄工业区、北忠卫、大庄头","startTime":"2019-09-30 01:00:00","stopDate":"2019-09-30 02:00:00","orgNo":"1340616","typeCode":"其他临时停电","poweroffArea":"【全线路停电】停双龙橡胶厂,兑坎庄农机修理,千里马1,神州,鑫源,保定利鑫胶带制造有限公司,0469344556-保定天润橡胶机带有限公司-专变-221691127-保定天润胶带有限公司500,北忠卫农排2台区【纯农排变】,保定鑫源橡胶制品有限公司,保定隆宇橡胶纺织有限公司变压器,保定恒橡橡胶机带有限公司,0469342299-河北双龙橡胶有限公司-专变-225174070-河北双龙橡胶有限公司,北忠卫农排3台区【纯农排变】,信雅达,忠义输送带,中国石油,翔宇,河北千里马输送机械有限公司变压器,大宋小记浇地,蠡县红光橡胶厂,津联橡,大宋农排3台区【纯农排变】,南忠卫农排12台区【纯农排变】,润鑫,大庄头农排11台区【纯农排变】,华强橡胶机带厂,伟达,天润橡胶机带厂变压器,恒橡","poweroffReason":"【停电原因】由于２２０ＫＶ蠡县变电站３号母线缺陷，需停电进行紧急消缺导致２２０ＫＶ蠡县变电站１０ＫＶ华盛线５２９线路全线停电【变更送电】无【发布渠道】通过９５５９８发布","powerTime":"2019-09-30 01:43:10","powerComm":"已送电","subsNo":"","lineNo":"","tgNo":"","tgName":null,"infoStatus":"1","orgName":"国网蠡县供电公司","typeName":null,"infoStatusName":null,"dateDay":null,"orgNos":null,"nowTime":null,"countyName":null,"streetName":null,"villageName":null,"roadName":null,"communityName":null,"tranName":null,"sdLineName":null,"cityCode":"1340616","cityName":"国网蠡县供电公司","provinceCode":null,"stopTime":"2019-09-30 02:00:00","powerType":"全部","powerOffArea":"【全线路停电】停双龙橡胶厂,兑坎庄农机修理,千里马1,神州,鑫源,保定利鑫胶带制造有限公司,0469344556-保定天润橡胶机带有限公司-专变-221691127-保定天润胶带有限公司500,北忠卫农排2台区【纯农排变】,保定鑫源橡胶制品有限公司,保定隆宇橡胶纺织有限公司变压器,保定恒橡橡胶机带有限公司,0469342299-河北双龙橡胶有限公司-专变-225174070-河北双龙橡胶有限公司,北忠卫农排3台区【纯农排变】,信雅达,忠义输送带,中国石油,翔宇,河北千里马输送机械有限公司变压器,大宋小记浇地,蠡县红光橡胶厂,津联橡,大宋农排3台区【纯农排变】,南忠卫农排12台区【纯农排变】,润鑫,大庄头农排11台区【纯农排变】,华强橡胶机带厂,伟达,天润橡胶机带厂变压器,恒橡","powerOffReason":"【停电原因】由于２２０ＫＶ蠡县变电站３号母线缺陷，需停电进行紧急消缺导致２２０ＫＶ蠡县变电站１０ＫＶ华盛线５２９线路全线停电【变更送电】无【发布渠道】通过９５５９８发布","powerOffId":"2019092913000179"},{"poweroffId":2019092913000177,"sgpoweroffId":null,"subsName":"","lineName":"10kV527九州线","pubTranName":"兑坎庄综合4台区,蠡县恒鑫帆布厂,天河,保定保华橡胶机带有限公司,|森源,兑坎庄综合6台区,兑坎庄农排2台区【纯农排变】,兑坎庄综合9台区,兑坎庄农排1台区【纯农排变】,李永刚,兑坎庄综合3台区,氧气厂,河北一林输送设备有限公司,兑坎庄综合12台区,李占永,韩常青,大润橡胶机带制造有限公司,保定佳豪输送机械有限公司变压器,兑坎庄综合14台区,兑坎庄综合15台区,保定东川橡胶机带有限公司变压器,河北阳光胶带有限公司变压器,河北一林输送设备有限公司变压器安装,顺通,森源,李铁锤,保定佳旭橡胶输送设备有限公司变压器630,0010281200||2522兑坎庄,兑坎庄农排8台区,保定弘强橡胶机带有限公司,兑坎庄综合16台区,河北丰泰橡胶机带有限公司变压器,大宋农排9台区【纯农排变】,张占份,张志辉,兑坎庄农排4台区【纯农排变】,兑坎庄农排3台区【纯农排变】,兑坎庄综合7台区,兑坎庄农排6台区【纯农排变】,兑坎庄综合1台区,兑坎庄综合8台区,兑坎庄农排7台区【纯农排变】,兑坎庄农排5台区【纯农排变】,","scope":"【影响街道/乡镇】蠡吾镇【高危重要客户】无【影响客户】兑坎庄工业区","startTime":"2019-09-30 01:00:00","stopDate":"2019-09-30 02:00:00","orgNo":"1340616","typeCode":"其他临时停电","poweroffArea":"【全线路停电】停兑坎庄综合6台区,兑坎庄农排2台区【纯农排变】,兑坎庄综合9台区,兑坎庄农排1台区【纯农排变】,兑坎庄农排4台区【纯农排变】,兑坎庄农排3台区【纯农排变】,兑坎庄综合7台区,兑坎庄农排6台区【纯农排变】,兑坎庄综合1台区,兑坎庄综合8台区,兑坎庄农排7台区【纯农排变】,兑坎庄农排5台区【纯农排变】,兑坎庄综合4台区,蠡县恒鑫帆布厂,天河,保定保华橡胶机带有限公司,|森源,李永刚,兑坎庄综合3台区,氧气厂,河北一林输送设备有限公司,兑坎庄综合12台区,兑坎庄综合14台区,李占永,韩常青,大润橡胶机带制造有限公司,保定佳豪输送机械有限公司变压器,兑坎庄综合15台区,保定东川橡胶机带有限公司变压器,河北阳光胶带有限公司变压器,河北一林输送设备有限公司变压器安装,顺通,森源,李铁锤,保定佳旭橡胶输送设备有限公司变压器630,0010281200||2522兑坎庄,兑坎庄农排8台区,保定弘强橡胶机带有限公司,兑坎庄综合16台区,河北丰泰橡胶机带有限公司变压器,大宋农排9台区【纯农排变】,张占份,张志辉","poweroffReason":"【停电原因】由于２２０ＫＶ蠡县变电站３号母线缺陷，需停电进行紧急消缺导致２２０ＫＶ蠡县变电站１０ＫＶ九州５２７线路全线停电【变更送电】无【发布渠道】通过９５５９８发布","powerTime":"2019-09-30 01:43:38","powerComm":"已送电","subsNo":"","lineNo":"","tgNo":"","tgName":null,"infoStatus":"1","orgName":"国网蠡县供电公司","typeName":null,"infoStatusName":null,"dateDay":null,"orgNos":null,"nowTime":null,"countyName":null,"streetName":null,"villageName":null,"roadName":null,"communityName":null,"tranName":null,"sdLineName":null,"cityCode":"1340616","cityName":"国网蠡县供电公司","provinceCode":null,"stopTime":"2019-09-30 02:00:00","powerType":"全部","powerOffArea":"【全线路停电】停兑坎庄综合6台区,兑坎庄农排2台区【纯农排变】,兑坎庄综合9台区,兑坎庄农排1台区【纯农排变】,兑坎庄农排4台区【纯农排变】,兑坎庄农排3台区【纯农排变】,兑坎庄综合7台区,兑坎庄农排6台区【纯农排变】,兑坎庄综合1台区,兑坎庄综合8台区,兑坎庄农排7台区【纯农排变】,兑坎庄农排5台区【纯农排变】,兑坎庄综合4台区,蠡县恒鑫帆布厂,天河,保定保华橡胶机带有限公司,|森源,李永刚,兑坎庄综合3台区,氧气厂,河北一林输送设备有限公司,兑坎庄综合12台区,兑坎庄综合14台区,李占永,韩常青,大润橡胶机带制造有限公司,保定佳豪输送机械有限公司变压器,兑坎庄综合15台区,保定东川橡胶机带有限公司变压器,河北阳光胶带有限公司变压器,河北一林输送设备有限公司变压器安装,顺通,森源,李铁锤,保定佳旭橡胶输送设备有限公司变压器630,0010281200||2522兑坎庄,兑坎庄农排8台区,保定弘强橡胶机带有限公司,兑坎庄综合16台区,河北丰泰橡胶机带有限公司变压器,大宋农排9台区【纯农排变】,张占份,张志辉","powerOffReason":"【停电原因】由于２２０ＫＶ蠡县变电站３号母线缺陷，需停电进行紧急消缺导致２２０ＫＶ蠡县变电站１０ＫＶ九州５２７线路全线停电【变更送电】无【发布渠道】通过９５５９８发布","powerOffId":"2019092913000177"}],"pageModel":{"pageNow":537,"totalCount":10973,"totalPage":1098,"tableRows":0,"pageCount":10,"beginCount":5360},"isExperi":"1"}