{"message":"","today":"2020-06-15","seleList":[{"poweroffId":2019092913000034,"sgpoweroffId":null,"subsName":"","lineName":"黄花滩线557","pubTranName":"大草滩2台区,519下北头线大草滩,519下北头线雀儿林,519下北头线杨家川,519下北头线西庄铺2号,519下北头线南石盆,519下北头线草厂2,519下北头线十八彦,519下北头线插箭岭1,519下北头线大梁,519下北头线草厂3,519下北头线十八堰2,519下北头线草厂1,519下北头线插箭岭2,519下北头线西庄铺1,涞源站519插箭岭3号台区,","scope":"【影响街道/乡镇】白石山镇【高危重要客户】无【影响客户】雀儿林、南石盆、十八彦、杨家川、大梁、插箭岭、大草滩、草厂、西庄铺","startTime":"2019-10-11 07:00:00","stopDate":"2019-10-11 16:40:00","orgNo":"1340615","typeCode":"计划停电","poweroffArea":"【全线路停电】停519下北头线杨家川,涞源县阔宇房地产开发有限公司变压器,国营涞源县白石山林场变压器,涞源县住房和城乡建设局变压器,519下北头线草厂2,519下北头线十八彦,519下北头线插箭岭1,中国铁塔股份有限公司保定市分公司变压器,涞源县泰旺畜产品销售农民专业合作社变压器,519下北头线草厂3,涞源县顺平铁矿业有限公司变压器,涞源县光大峻电料劳保商店变压器,519下北头线十八堰2,变压器,519下北头线草厂1,519下北头线插箭岭2,福建路桥建设有限公司变压器,中国人民解放军61969部队变压器,涞源县炫明畜禽饲养厂变压器,河北龙昂房地产开发有限公司变压器,涞源站519插箭岭3号台区,519下北头线雀儿林,519下北头线西庄铺2号,国家新闻出版广电总局七八三台变压器,519下北头线南石盆,涞源白石山旅游开发有限公司变压器1,涞源白石山旅游开发有限公司变压器,519下北头线大梁,文华山庄,白石山林场,森林公园,保定中民信诚房地产开发有限公司变压器,涞源县基磊绿化苗木有限公司变压器,61969水,涞源县辛梅农家院变压器,519下北头线西庄铺1,涞源县福延土地整理有限公司变压器,大草滩2台区,61969部队,插箭岭村王煜虹变压器,保隆矿业2井变,519下北头线大草滩,涞源县白石山镇杨家川村村民委员会 吃水照明变压器,涞源县翠禾果树种植有限公司变压器,涞源县保隆矿业有限责任公司变压器,河北九宇鸿嘉航空科技发展有限公司变压器,涞源县六郎湾餐饮服务有限公司变压器","poweroffReason":"【停电原因】由于更换导线导致３５ＫＶ插箭岭变电站１０ＫＶ黄花滩线５５７线路全线停电【变更送电】因工作进度加快，原定１８：００送电现计划１６：４０送电【发布渠道】涞源电视台（２０１９年９月２９日至２０１９年１０月１０日）屏幕上方滚动","powerTime":"2019-10-11 15:58:13","powerComm":"已送电","subsNo":"","lineNo":"","tgNo":"","tgName":null,"infoStatus":"1","orgName":"国网涞源县供电公司","typeName":null,"infoStatusName":null,"dateDay":null,"orgNos":null,"nowTime":null,"countyName":null,"streetName":null,"villageName":null,"roadName":null,"communityName":null,"tranName":null,"sdLineName":null,"cityCode":"1340615","cityName":"国网涞源县供电公司","provinceCode":null,"stopTime":"2019-10-11 16:40:00","powerType":"全部","powerOffArea":"【全线路停电】停519下北头线杨家川,涞源县阔宇房地产开发有限公司变压器,国营涞源县白石山林场变压器,涞源县住房和城乡建设局变压器,519下北头线草厂2,519下北头线十八彦,519下北头线插箭岭1,中国铁塔股份有限公司保定市分公司变压器,涞源县泰旺畜产品销售农民专业合作社变压器,519下北头线草厂3,涞源县顺平铁矿业有限公司变压器,涞源县光大峻电料劳保商店变压器,519下北头线十八堰2,变压器,519下北头线草厂1,519下北头线插箭岭2,福建路桥建设有限公司变压器,中国人民解放军61969部队变压器,涞源县炫明畜禽饲养厂变压器,河北龙昂房地产开发有限公司变压器,涞源站519插箭岭3号台区,519下北头线雀儿林,519下北头线西庄铺2号,国家新闻出版广电总局七八三台变压器,519下北头线南石盆,涞源白石山旅游开发有限公司变压器1,涞源白石山旅游开发有限公司变压器,519下北头线大梁,文华山庄,白石山林场,森林公园,保定中民信诚房地产开发有限公司变压器,涞源县基磊绿化苗木有限公司变压器,61969水,涞源县辛梅农家院变压器,519下北头线西庄铺1,涞源县福延土地整理有限公司变压器,大草滩2台区,61969部队,插箭岭村王煜虹变压器,保隆矿业2井变,519下北头线大草滩,涞源县白石山镇杨家川村村民委员会 吃水照明变压器,涞源县翠禾果树种植有限公司变压器,涞源县保隆矿业有限责任公司变压器,河北九宇鸿嘉航空科技发展有限公司变压器,涞源县六郎湾餐饮服务有限公司变压器","powerOffReason":"【停电原因】由于更换导线导致３５ＫＶ插箭岭变电站１０ＫＶ黄花滩线５５７线路全线停电【变更送电】因工作进度加快，原定１８：００送电现计划１６：４０送电【发布渠道】涞源电视台（２０１９年９月２９日至２０１９年１０月１０日）屏幕上方滚动","powerOffId":"2019092913000034"},{"poweroffId":2019092913000032,"sgpoweroffId":null,"subsName":"","lineName":"寺庄线514","pubTranName":"三堤混3配变,三堤混2配变,三堤混1配变,三堤混合7号配变,三堤内东混5,寺庄内西配变,寺庄内西混合8号,","scope":"【影响街道/乡镇】寺庄乡 【高危重要客户】无　　 【影响客户】寺庄村、三堤村","startTime":"2019-10-11 07:00:00","stopDate":"2019-10-11 18:00:00","orgNo":"1340623","typeCode":"计划停电","poweroffArea":"【全线路停电】停三堤混3配变,三堤混2配变,三堤混1配变,三堤混合7号配变,三堤内东混5,寺庄内西配变,寺庄内西混合8号","poweroffReason":"【停电原因】由于更换电杆导致３５ＫＶ白岳变电站寺庄线５１４线路全线停电 【变更送电】无 【发布渠道】保定市望都有线电视台（０９月３０日至１０月１０日１９时００分至２０时００分之间）屏幕上方滚动","powerTime":"2019-10-11 17:54:42","powerComm":"已送电","subsNo":"","lineNo":"","tgNo":"","tgName":null,"infoStatus":"1","orgName":"国网望都县供电公司","typeName":null,"infoStatusName":null,"dateDay":null,"orgNos":null,"nowTime":null,"countyName":null,"streetName":null,"villageName":null,"roadName":null,"communityName":null,"tranName":null,"sdLineName":null,"cityCode":"1340623","cityName":"国网望都县供电公司","provinceCode":null,"stopTime":"2019-10-11 18:00:00","powerType":"全部","powerOffArea":"【全线路停电】停三堤混3配变,三堤混2配变,三堤混1配变,三堤混合7号配变,三堤内东混5,寺庄内西配变,寺庄内西混合8号","powerOffReason":"【停电原因】由于更换电杆导致３５ＫＶ白岳变电站寺庄线５１４线路全线停电 【变更送电】无 【发布渠道】保定市望都有线电视台（０９月３０日至１０月１０日１９时００分至２０时００分之间）屏幕上方滚动","powerOffId":"2019092913000032"},{"poweroffId":2019092913000029,"sgpoweroffId":null,"subsName":"","lineName":"10kV霍庄516线","pubTranName":"北辛庄综合四台区,霍庄综合1号变压器,大南流综合3号变压器,","scope":"【影响街道/乡镇】明官店乡 【高危重要客户】无 【影响客户】大南流村、霍庄村、北辛庄村","startTime":"2019-10-12 08:00:00","stopDate":"2019-10-12 17:30:00","orgNo":"1340606","typeCode":"计划停电","poweroffArea":"【全线路停电】停大南流综合3号变压器,北辛庄综合四台区,霍庄综合1号变压器","poweroffReason":"【停电原因】由于秋季检修导致３５ＫＶ明官店变电站１０ＫＶ霍庄５１６线路全线停电 【变更送电】无 【发布渠道】保定安国市电视台（１０月０４日００时至２４时之间）屏幕上方滚动","powerTime":"2019-10-12 17:07:51","powerComm":"已送电","subsNo":"","lineNo":"","tgNo":"","tgName":null,"infoStatus":"1","orgName":"国网安国市供电公司","typeName":null,"infoStatusName":null,"dateDay":null,"orgNos":null,"nowTime":null,"countyName":null,"streetName":null,"villageName":null,"roadName":null,"communityName":null,"tranName":null,"sdLineName":null,"cityCode":"1340606","cityName":"国网安国市供电公司","provinceCode":null,"stopTime":"2019-10-12 17:30:00","powerType":"全部","powerOffArea":"【全线路停电】停大南流综合3号变压器,北辛庄综合四台区,霍庄综合1号变压器","powerOffReason":"【停电原因】由于秋季检修导致３５ＫＶ明官店变电站１０ＫＶ霍庄５１６线路全线停电 【变更送电】无 【发布渠道】保定安国市电视台（１０月０４日００时至２４时之间）屏幕上方滚动","powerOffId":"2019092913000029"},{"poweroffId":2019092913000024,"sgpoweroffId":null,"subsName":"","lineName":"10kV韩村站522线路","pubTranName":"10kVB1342.B1343配电室B1343配电变压器,10kVB1348.B1349配电室B1348配电变压器,10kVB1342.B1343配电室B1342配电变压器,10kVB1346.B1347配电室B1346配电变压器,10kVB1469.B1470配电室B1470配电变压器,10kVB1467.B1468配电室B1468配电变压器,10kVB1471.B1472配电室B1471配电变压器,10kVB1467.B1468配电室B1467配电变压器,10kVB1471.B1472配电室B1472配电变压器,10kVB1473.B1474配电室B1473配电变压器,10kVB1346.B1347配电室B1347配电变压器,10kVB1344.B1345配电室B1344配电变压器,10kVB1469.B1470配电室B1469配电变压器,10kVB1348.B1349配电室B1349配电变压器,10kVB1344.B1345配电室B1345配电变压器,10kVB1473.B1474配电室B1474配电变压器,","scope":"【影响街道/乡镇】恒祥北大街、徐庄路 【高危重要客户】无 【影响客户】丽景蓝湾A区、华冠庄园","startTime":"2019-09-29 08:10:00","stopDate":"2019-09-29 09:30:00","orgNo":"13406","typeCode":"电网故障停限电","poweroffArea":"【全线路停电】停10kVB1473.B1474配电室B1473配电变压器,10kVB1471.B1472配电室B1472配电变压器,0680527561-保定市中翔房地产开发有限公司-专变-219719290-变压器,0605467257-中国人民解放军河北省保定军分区营建办公室-1#专变,10kVB1346.B1347配电室B1347配电变压器,0701564636-保定市中翔房地产开发有限公司-1,10kVB1342.B1343配电室B1343配电变压器,0356287982-满城县城内房地产开发有限公司-专变,10kVB1348.B1349配电室B1348配电变压器,10kVB1344.B1345配电室B1345配电变压器,0701564636-保定市中翔房地产开发有限公司-4,10kVB1348.B1349配电室B1349配电变压器,10kVB1342.B1343配电室B1342配电变压器,0701564636-保定市中翔房地产开发有限公司-2,0358250166-保定市市吉恒物业管理有限公司-专变,10kVB1467.B1468配电室B1468配电变压器,0680527561-保定市中翔房地产开发有限公司-专变-219719306-变压器,0680527561-保定市中翔房地产开发有限公司-专变-219717026-变压器,0701564636-保定市中翔房地产开发有限公司-3,10kVB1471.B1472配电室B1471配电变压器,10kVB1346.B1347配电室B1346配电变压器,10kVB1469.B1470配电室B1470配电变压器,10kVB1344.B1345配电室B1344配电变压器,10kVB1467.B1468配电室B1467配电变压器,0357920567-保定市卓正物业服务有限公司-1#专变,10kVB1473.B1474配电室B1474配电变压器,10kVB1469.B1470配电室B1469配电变压器","poweroffReason":"【停电原因】由于分支开关短路导致１０ＫＶ韩村变电站５２２线路全线停电【变更送电】因抢修进度加快，原定12:00送电现计划9:30送电【发布渠道】通过９５５９８发布","powerTime":"2019-09-29 08:54:07","powerComm":"已送电","subsNo":"","lineNo":"","tgNo":"","tgName":null,"infoStatus":"1","orgName":"保定供电公司","typeName":null,"infoStatusName":null,"dateDay":null,"orgNos":null,"nowTime":null,"countyName":null,"streetName":null,"villageName":null,"roadName":null,"communityName":null,"tranName":null,"sdLineName":null,"cityCode":"13406","cityName":"保定供电公司","provinceCode":null,"stopTime":"2019-09-29 09:30:00","powerType":"全部","powerOffArea":"【全线路停电】停10kVB1473.B1474配电室B1473配电变压器,10kVB1471.B1472配电室B1472配电变压器,0680527561-保定市中翔房地产开发有限公司-专变-219719290-变压器,0605467257-中国人民解放军河北省保定军分区营建办公室-1#专变,10kVB1346.B1347配电室B1347配电变压器,0701564636-保定市中翔房地产开发有限公司-1,10kVB1342.B1343配电室B1343配电变压器,0356287982-满城县城内房地产开发有限公司-专变,10kVB1348.B1349配电室B1348配电变压器,10kVB1344.B1345配电室B1345配电变压器,0701564636-保定市中翔房地产开发有限公司-4,10kVB1348.B1349配电室B1349配电变压器,10kVB1342.B1343配电室B1342配电变压器,0701564636-保定市中翔房地产开发有限公司-2,0358250166-保定市市吉恒物业管理有限公司-专变,10kVB1467.B1468配电室B1468配电变压器,0680527561-保定市中翔房地产开发有限公司-专变-219719306-变压器,0680527561-保定市中翔房地产开发有限公司-专变-219717026-变压器,0701564636-保定市中翔房地产开发有限公司-3,10kVB1471.B1472配电室B1471配电变压器,10kVB1346.B1347配电室B1346配电变压器,10kVB1469.B1470配电室B1470配电变压器,10kVB1344.B1345配电室B1344配电变压器,10kVB1467.B1468配电室B1467配电变压器,0357920567-保定市卓正物业服务有限公司-1#专变,10kVB1473.B1474配电室B1474配电变压器,10kVB1469.B1470配电室B1469配电变压器","powerOffReason":"【停电原因】由于分支开关短路导致１０ＫＶ韩村变电站５２２线路全线停电【变更送电】因抢修进度加快，原定12:00送电现计划9:30送电【发布渠道】通过９５５９８发布","powerOffId":"2019092913000024"},{"poweroffId":2019092913000012,"sgpoweroffId":null,"subsName":"","lineName":"10kV李麻营线514","pubTranName":"胡娄集西台变压器,李麻营排灌一变压器【纯农排变】,顿书军,良辛庄变压器,张勇面粉厂,尚垡排灌五变压器【纯农排变】,肖官营市场变压器,高碑店市腾达工业有限责任公司变压器,廊坊盛翔道桥工程有限公司,尚垡排灌三变压器【纯农排变】,尚垡南台变压器,0387439051-高碑店市仁达养殖有限责任公司-专变-45275636-王长春,辛龙庄南2变压器,孟良营排灌一变压器【纯农排变】,李麻营排灌二变压器【纯农排变】,变压器,高碑店市水利局受电点变压器,石料厂,高碑店市国有军粮供应有限公司,尚垡西台变压器,高碑店市肖官营洛津水泥制品厂,宋鱼池排灌三变压器【纯农排变】,乡政府,荒辛庄变压器,孟良营北台变压器,宋鱼池东南变压器,卓电强,宋鱼池西变压器,荒辛庄排灌二变压器【纯农排变】,肖官营砖厂（北）,荒辛庄排灌一变压器【纯农排变】,吴辉,河北禾木田农业发展有限公司,顿豆夏变压器,马官屯西台变压器,良辛庄东变台,李麻营西台变压器,宋鱼池东北台变压器,郭辛庄排灌二变压器【纯农排变】,高碑店市肖官营乡肖官营中学,高碑店市肖官营乡尚垡中心学校变压器,良辛庄排灌变压器【纯农排变】,马官屯南台变压器,高碑店市肖官营乡胡娄集幼儿园,高碑店市公安局变压器,胡娄集排灌二变压器【纯农排变】,郭辛庄变压器,兴隆庄南变压器,马官屯东南变压器,高碑店市肖官营乡兴隆庄中心小学,胡娄集排灌四变压器【纯农排变】,荒辛庄排灌三变压器【纯农排变】,宋鱼池排灌五变压器【纯农排变】,兴隆庄西南变压器,尚垡东北变压器,宋鱼池排灌二变压器【纯农排变】,肖官营东变压器,宋渔池西南,尚垡东南变压器,胡娄集排6柱上变压器,河北航行机械铸造有限公司西,胡娄集排灌五变压器【纯农排变】,尚垡排灌二变压器【纯农排变】,兴隆庄排灌变压器【纯农排变】,高碑店市广大新型建材有限公司变压器,李麻营变压器,顿豆夏排灌一变压器【纯农排变】,顿豆夏排灌三变压器【纯农排变】,荒辛庄东变压器,郭辛庄排灌一变压器【纯农排变】,顿书凯,孟良营南台变压器,尚垡排灌四变压器【纯农排变】,窦风林,胡娄集东台变压器,孟良营西南,胡娄集排灌三变压器【纯农排变】,国网高碑店市供电公司肖官营供电所变压器,肖官营排4柱上变压器,马官屯排灌二变压器【纯农排变】,吴恒,尚垡排灌一变压器,肖官营排5柱上变压器,胡娄集南变压器,郭辛庄西台变压器,马官屯排灌一变压器【纯农排变】,孟良营中变压器,孟良营排灌二变压器【纯农排变】,李麻营排灌三变压器【纯农排变】,顿豆夏北变压器,胡娄集排灌一变压器【纯农排变】,胡娄集西南柱上变压器,李麻营东台变压器,供电所变压器,兴隆庄北变压器,顿豆夏排灌二变压器【纯农排变】,尚垡西南变压器,马官屯东台变压器,肖官营排灌二变压器【纯农排变】,肖官营镇政府变压器,","scope":"【影响街道/乡镇】肖官营乡 【高危重要客户】水利局 【影响客户】顿豆夏村、郭辛庄村、胡娄集村、荒辛庄村、李麻营村、良辛庄村、马官屯村、孟良营村、尚垡村、宋鱼池村、肖官营村、肖官营市场、兴隆庄村、顿书凯、高碑店市辉煌伟业养殖有限公司、顿书军、张勇面粉厂、保定中油第三加油站、卓电强、乡政府、窦风林、河北航行机械铸造有限公司、仁达养殖厂、肖官营中学、高碑店市大广新型建材有限公司、高碑店市看守所、腾达工业、高碑店市公安局治安拘留所、廊坊盛翔道桥工程有限公司、肖官营洛津水泥制品厂、河北禾木田农业发展有限公司、尚垡中心学校","startTime":"2019-09-29 04:19:57","stopDate":"2019-09-29 06:30:00","orgNo":"1340612","typeCode":"电网故障停限电","poweroffArea":"【全线路停电】停国网高碑店市供电公司肖官营供电所变压器,荒辛庄排灌三变压器【纯农排变】,宋鱼池排灌五变压器【纯农排变】,兴隆庄西南变压器,宋鱼池排灌二变压器【纯农排变】,肖官营东变压器,宋渔池西南,尚垡东南变压器,胡娄集排6柱上变压器,胡娄集排灌五变压器【纯农排变】,兴隆庄排灌变压器【纯农排变】,高碑店市广大新型建材有限公司变压器,李麻营变压器,荒辛庄东变压器,郭辛庄排灌一变压器【纯农排变】,顿书凯,尚垡排灌四变压器【纯农排变】,窦风林,孟良营西南,胡娄集排灌三变压器【纯农排变】,肖官营排4柱上变压器,马官屯排灌二变压器【纯农排变】,吴恒,尚垡排灌一变压器,胡娄集南变压器,郭辛庄西台变压器,马官屯排灌一变压器【纯农排变】,孟良营中变压器,顿豆夏北变压器,胡娄集排灌一变压器【纯农排变】,尚垡东北变压器,河北航行机械铸造有限公司西,尚垡排灌二变压器【纯农排变】,顿豆夏排灌一变压器【纯农排变】,顿豆夏排灌三变压器【纯农排变】,孟良营南台变压器,胡娄集东台变压器,肖官营排5柱上变压器,孟良营排灌二变压器【纯农排变】,李麻营排灌三变压器【纯农排变】,胡娄集西南柱上变压器,李麻营东台变压器,供电所变压器,兴隆庄北变压器,顿豆夏排灌二变压器【纯农排变】,尚垡西南变压器,马官屯东台变压器,肖官营排灌二变压器【纯农排变】,肖官营镇政府变压器,胡娄集西台变压器,李麻营排灌一变压器【纯农排变】,顿书军,良辛庄变压器,张勇面粉厂,尚垡排灌五变压器【纯农排变】,肖官营市场变压器,高碑店市腾达工业有限责任公司变压器,廊坊盛翔道桥工程有限公司,尚垡排灌三变压器【纯农排变】,尚垡南台变压器,0387439051-高碑店市仁达养殖有限责任公司-专变-45275636-王长春,辛龙庄南2变压器,孟良营排灌一变压器【纯农排变】,李麻营排灌二变压器【纯农排变】,变压器,高碑店市水利局受电点变压器,石料厂,高碑店市国有军粮供应有限公司,尚垡西台变压器,高碑店市肖官营洛津水泥制品厂,宋鱼池排灌三变压器【纯农排变】,乡政府,荒辛庄变压器,孟良营北台变压器,宋鱼池东南变压器,卓电强,宋鱼池西变压器,荒辛庄排灌二变压器【纯农排变】,肖官营砖厂（北）,荒辛庄排灌一变压器【纯农排变】,吴辉,河北禾木田农业发展有限公司,顿豆夏变压器,马官屯西台变压器,良辛庄东变台,李麻营西台变压器,宋鱼池东北台变压器,郭辛庄排灌二变压器【纯农排变】,高碑店市肖官营乡肖官营中学,高碑店市肖官营乡尚垡中心学校变压器,良辛庄排灌变压器【纯农排变】,马官屯南台变压器,高碑店市肖官营乡胡娄集幼儿园,高碑店市公安局变压器,胡娄集排灌二变压器【纯农排变】,郭辛庄变压器,兴隆庄南变压器,马官屯东南变压器,高碑店市肖官营乡兴隆庄中心小学,胡娄集排灌四变压器【纯农排变】","poweroffReason":"【停电原因】由于砖厂分支电缆挖断导致３５ＫＶ方官变电站１０ＫＶ李麻营５１４线路全线停电 【变更送电】因抢修进度加快原因，送电时间由１２：００变更为０６：３０ 【发布渠道】通过９５５９８发布","powerTime":"2019-09-29 06:00:20","powerComm":"已送电","subsNo":"","lineNo":"","tgNo":"","tgName":null,"infoStatus":"1","orgName":"国网高碑店市供电公司","typeName":null,"infoStatusName":null,"dateDay":null,"orgNos":null,"nowTime":null,"countyName":null,"streetName":null,"villageName":null,"roadName":null,"communityName":null,"tranName":null,"sdLineName":null,"cityCode":"1340612","cityName":"国网高碑店市供电公司","provinceCode":null,"stopTime":"2019-09-29 06:30:00","powerType":"全部","powerOffArea":"【全线路停电】停国网高碑店市供电公司肖官营供电所变压器,荒辛庄排灌三变压器【纯农排变】,宋鱼池排灌五变压器【纯农排变】,兴隆庄西南变压器,宋鱼池排灌二变压器【纯农排变】,肖官营东变压器,宋渔池西南,尚垡东南变压器,胡娄集排6柱上变压器,胡娄集排灌五变压器【纯农排变】,兴隆庄排灌变压器【纯农排变】,高碑店市广大新型建材有限公司变压器,李麻营变压器,荒辛庄东变压器,郭辛庄排灌一变压器【纯农排变】,顿书凯,尚垡排灌四变压器【纯农排变】,窦风林,孟良营西南,胡娄集排灌三变压器【纯农排变】,肖官营排4柱上变压器,马官屯排灌二变压器【纯农排变】,吴恒,尚垡排灌一变压器,胡娄集南变压器,郭辛庄西台变压器,马官屯排灌一变压器【纯农排变】,孟良营中变压器,顿豆夏北变压器,胡娄集排灌一变压器【纯农排变】,尚垡东北变压器,河北航行机械铸造有限公司西,尚垡排灌二变压器【纯农排变】,顿豆夏排灌一变压器【纯农排变】,顿豆夏排灌三变压器【纯农排变】,孟良营南台变压器,胡娄集东台变压器,肖官营排5柱上变压器,孟良营排灌二变压器【纯农排变】,李麻营排灌三变压器【纯农排变】,胡娄集西南柱上变压器,李麻营东台变压器,供电所变压器,兴隆庄北变压器,顿豆夏排灌二变压器【纯农排变】,尚垡西南变压器,马官屯东台变压器,肖官营排灌二变压器【纯农排变】,肖官营镇政府变压器,胡娄集西台变压器,李麻营排灌一变压器【纯农排变】,顿书军,良辛庄变压器,张勇面粉厂,尚垡排灌五变压器【纯农排变】,肖官营市场变压器,高碑店市腾达工业有限责任公司变压器,廊坊盛翔道桥工程有限公司,尚垡排灌三变压器【纯农排变】,尚垡南台变压器,0387439051-高碑店市仁达养殖有限责任公司-专变-45275636-王长春,辛龙庄南2变压器,孟良营排灌一变压器【纯农排变】,李麻营排灌二变压器【纯农排变】,变压器,高碑店市水利局受电点变压器,石料厂,高碑店市国有军粮供应有限公司,尚垡西台变压器,高碑店市肖官营洛津水泥制品厂,宋鱼池排灌三变压器【纯农排变】,乡政府,荒辛庄变压器,孟良营北台变压器,宋鱼池东南变压器,卓电强,宋鱼池西变压器,荒辛庄排灌二变压器【纯农排变】,肖官营砖厂（北）,荒辛庄排灌一变压器【纯农排变】,吴辉,河北禾木田农业发展有限公司,顿豆夏变压器,马官屯西台变压器,良辛庄东变台,李麻营西台变压器,宋鱼池东北台变压器,郭辛庄排灌二变压器【纯农排变】,高碑店市肖官营乡肖官营中学,高碑店市肖官营乡尚垡中心学校变压器,良辛庄排灌变压器【纯农排变】,马官屯南台变压器,高碑店市肖官营乡胡娄集幼儿园,高碑店市公安局变压器,胡娄集排灌二变压器【纯农排变】,郭辛庄变压器,兴隆庄南变压器,马官屯东南变压器,高碑店市肖官营乡兴隆庄中心小学,胡娄集排灌四变压器【纯农排变】","powerOffReason":"【停电原因】由于砖厂分支电缆挖断导致３５ＫＶ方官变电站１０ＫＶ李麻营５１４线路全线停电 【变更送电】因抢修进度加快原因，送电时间由１２：００变更为０６：３０ 【发布渠道】通过９５５９８发布","powerOffId":"2019092913000012"},{"poweroffId":2019092813000130,"sgpoweroffId":null,"subsName":"","lineName":"龙堂546线路","pubTranName":"龙兆庄03号变压器,龙兆庄10号变压器,龙兆庄06号变压器,龙兆庄11号变压器,龙堂10号变压器,龙兆庄13号变压器,龙堂11号变压器,龙堂08号变压器,龙兆庄07号变压器,龙堂13号变压器,龙兆庄12号变压器,龙堂14号变压器,龙兆庄04号变压器,龙堂16号变压器,龙堂15号变压器,龙兆庄02号变压器,龙堂09号变压器,龙堂12号变压器,龙兆庄05号变压器,龙兆庄01号变压器,龙兆庄09号变压器,龙堂07号变压器,","scope":"【影响街道/乡镇】东盛办事处、方官镇 【高危重要客户】无 【影响客户】龙堂村、龙赵庄村","startTime":"2019-09-28 23:03:52","stopDate":"2019-09-29 01:00:00","orgNo":"1340612","typeCode":"电网故障停限电","poweroffArea":"【分支停电】停龙堂09号变压器,龙堂15号变压器,龙兆庄02号变压器,龙堂01号变压器,龙兆庄09号变压器,龙堂07号变压器,龙堂05号变压器,高碑店市东盛办事处龙赵庄小学,龙兆庄03号变压器,龙兆庄06号变压器,龙兆庄11号变压器,龙堂02号变压器,龙兆庄05号变压器,龙兆庄13号变压器,龙堂14号变压器,龙堂06号变压器,龙堂11号变压器,龙堂08号变压器,龙兆庄07号变压器,龙堂13号变压器,龙兆庄12号变压器,龙兆庄08号变压器,龙堂12号变压器,龙兆庄01号变压器,龙堂04号变压器,龙堂10号变压器,龙兆庄10号变压器,高碑店市中誉房地产开发有限公司,龙兆庄04号变压器,龙堂03号变压器,龙堂16号变压器","poweroffReason":"【停电原因】由于弓子线断导致１１０ＫＶ方官变电站１０ＫＶ龙堂５４６线路０１号断路器以下停电 【变更送电】无 【发布渠道】通过９５５９８发布","powerTime":"2019-09-29 00:03:07","powerComm":"已送电","subsNo":"","lineNo":"","tgNo":"","tgName":null,"infoStatus":"1","orgName":"国网高碑店市供电公司","typeName":null,"infoStatusName":null,"dateDay":null,"orgNos":null,"nowTime":null,"countyName":null,"streetName":null,"villageName":null,"roadName":null,"communityName":null,"tranName":null,"sdLineName":null,"cityCode":"1340612","cityName":"国网高碑店市供电公司","provinceCode":null,"stopTime":"2019-09-29 01:00:00","powerType":"全部","powerOffArea":"【分支停电】停龙堂09号变压器,龙堂15号变压器,龙兆庄02号变压器,龙堂01号变压器,龙兆庄09号变压器,龙堂07号变压器,龙堂05号变压器,高碑店市东盛办事处龙赵庄小学,龙兆庄03号变压器,龙兆庄06号变压器,龙兆庄11号变压器,龙堂02号变压器,龙兆庄05号变压器,龙兆庄13号变压器,龙堂14号变压器,龙堂06号变压器,龙堂11号变压器,龙堂08号变压器,龙兆庄07号变压器,龙堂13号变压器,龙兆庄12号变压器,龙兆庄08号变压器,龙堂12号变压器,龙兆庄01号变压器,龙堂04号变压器,龙堂10号变压器,龙兆庄10号变压器,高碑店市中誉房地产开发有限公司,龙兆庄04号变压器,龙堂03号变压器,龙堂16号变压器","powerOffReason":"【停电原因】由于弓子线断导致１１０ＫＶ方官变电站１０ＫＶ龙堂５４６线路０１号断路器以下停电 【变更送电】无 【发布渠道】通过９５５９８发布","powerOffId":"2019092813000130"},{"poweroffId":2019092813000127,"sgpoweroffId":null,"subsName":"","lineName":"龙堂546线路","pubTranName":"龙兆庄10号变压器,龙堂16号变压器,龙堂15号变压器,龙兆庄02号变压器,龙堂09号变压器,龙堂12号变压器,龙兆庄05号变压器,龙兆庄01号变压器,龙兆庄09号变压器,龙堂07号变压器,龙兆庄03号变压器,龙兆庄06号变压器,龙兆庄11号变压器,龙堂10号变压器,龙兆庄13号变压器,龙堂11号变压器,龙堂08号变压器,龙兆庄07号变压器,龙堂13号变压器,龙兆庄12号变压器,龙堂14号变压器,龙兆庄04号变压器,","scope":"【影响街道/乡镇】东盛办事处、方官镇 【高危重要客户】无 【影响客户】龙堂村、龙赵庄村","startTime":"2019-09-28 21:18:39","stopDate":"2019-09-28 22:30:00","orgNo":"1340612","typeCode":"电网故障停限电","poweroffArea":"【分支停电】停龙堂09号变压器,龙堂15号变压器,龙兆庄02号变压器,龙堂01号变压器,龙兆庄09号变压器,龙堂07号变压器,龙堂05号变压器,高碑店市东盛办事处龙赵庄小学,龙兆庄03号变压器,龙兆庄06号变压器,龙兆庄11号变压器,龙堂02号变压器,龙兆庄05号变压器,龙兆庄13号变压器,龙堂14号变压器,龙堂06号变压器,龙堂11号变压器,龙堂08号变压器,龙兆庄07号变压器,龙堂13号变压器,龙兆庄12号变压器,龙兆庄08号变压器,龙堂12号变压器,龙兆庄01号变压器,龙堂04号变压器,龙堂10号变压器,龙兆庄10号变压器,高碑店市中誉房地产开发有限公司,龙兆庄04号变压器,龙堂03号变压器,龙堂16号变压器","poweroffReason":"【停电原因】由于龙堂水厂分支电缆挖断导致１１０ＫＶ方官变电站１０ＫＶ龙堂５４６线路０１号断路器以下停电 【变更送电】因抢修进度加快原因，送电时间由２９日０８：００变更为２８日２２：３０ 【发布渠道】通过９５５９８发布","powerTime":"2019-09-28 22:00:03","powerComm":"已送电","subsNo":"","lineNo":"","tgNo":"","tgName":null,"infoStatus":"1","orgName":"国网高碑店市供电公司","typeName":null,"infoStatusName":null,"dateDay":null,"orgNos":null,"nowTime":null,"countyName":null,"streetName":null,"villageName":null,"roadName":null,"communityName":null,"tranName":null,"sdLineName":null,"cityCode":"1340612","cityName":"国网高碑店市供电公司","provinceCode":null,"stopTime":"2019-09-28 22:30:00","powerType":"全部","powerOffArea":"【分支停电】停龙堂09号变压器,龙堂15号变压器,龙兆庄02号变压器,龙堂01号变压器,龙兆庄09号变压器,龙堂07号变压器,龙堂05号变压器,高碑店市东盛办事处龙赵庄小学,龙兆庄03号变压器,龙兆庄06号变压器,龙兆庄11号变压器,龙堂02号变压器,龙兆庄05号变压器,龙兆庄13号变压器,龙堂14号变压器,龙堂06号变压器,龙堂11号变压器,龙堂08号变压器,龙兆庄07号变压器,龙堂13号变压器,龙兆庄12号变压器,龙兆庄08号变压器,龙堂12号变压器,龙兆庄01号变压器,龙堂04号变压器,龙堂10号变压器,龙兆庄10号变压器,高碑店市中誉房地产开发有限公司,龙兆庄04号变压器,龙堂03号变压器,龙堂16号变压器","powerOffReason":"【停电原因】由于龙堂水厂分支电缆挖断导致１１０ＫＶ方官变电站１０ＫＶ龙堂５４６线路０１号断路器以下停电 【变更送电】因抢修进度加快原因，送电时间由２９日０８：００变更为２８日２２：３０ 【发布渠道】通过９５５９８发布","powerOffId":"2019092813000127"},{"poweroffId":2019092813000102,"sgpoweroffId":null,"subsName":"","lineName":"10kV樊庄线567","pubTranName":"2白城四村外2,2白城四村外7,2张庄7内,2白城四村外4,1樊庄内3,1白城三村内6,1西白城内1,1白城三村内5,1张庄内3,2白城五村外7【纯农排变】,2张庄外8（纯农排）,1张庄内4,1白城三村内4,2白城三村外4【纯农排变】,1白城四村内1,1西白城内2,1张庄内5,2樊庄外11【纯农排变】,1樊庄内5,2白城三村外2【纯农排变】,1白城三村内3,1白城一村内2,2白城四村外1,1张庄内2,张庄小学,1西白城内3,1白城四村内2,樊庄小学变压器,1白城三村内1,2白城四村外3,2张庄外2【纯农排变】,白城幼儿园变压器,张庄幼儿园,2白城四村外6,白城四五村小学变压器,2白城四村外5,","scope":"【影响街道/乡镇】白团乡、魏村镇 【高危重要客户】无 【影响客户】白城一村、白城二村、白城三村、白城四村、白城五村、西白城、樊庄、张庄","startTime":"2019-09-28 18:58:16","stopDate":"2019-09-28 21:20:00","orgNo":"1340618","typeCode":"电网故障停限电","poweroffArea":"【全线路停电】停2张庄外3【纯农排变】,清苑县鑫恒达模板有限公司,2白城五村外7【纯农排变】,1白城二村内2,2白城四村外7,2白城三村外3【纯农排变】,2西白城外8【纯农排变】,2白城二村外3【纯农排变】,清苑县福字面粉厂,1张庄内1,清苑县民政局敬老院,1樊庄内3,2樊庄外1【纯农排变】,清苑县永辉太空棉厂,1西白城内1,1白城二村内1,李铁良,1白城三村内5,1张庄内3,2白城三村外6【纯农排变】,2白城四村外2,2张庄7内,保定康帝生态肥料有限公司,2白城四村外4,2白城五村外4【纯农排变】,1白城三村内6,2樊庄外8【纯农排变】,白城二村苗莆,2张庄外5【纯农排变】,2白城二村外4【纯农排变】,2白城四村外5,2张庄外8（纯农排）,2白城二村外1【纯农排变】,1樊庄内4,河北雨农灌溉设备制造有限公司,1张庄内4,2白城五村外1【纯农排变】,保定市清苑区白团乡白城四五村小学,2白城三村外4【纯农排变】,保定人民公交客运有限公司,1白城五村内1,1白城四村内1,2樊庄外3【纯农排变】,2白城三村外1【纯农排变】,1西白城内2,1张庄内5,2樊庄外11【纯农排变】,2樊庄外10【纯农排变】,2白城三村外2【纯农排变】,2白城一村外1【纯农排变】,1白城五村内3,2白城三村外5【纯农排变】,1白城三村内3,2白城二村外6【纯农排变】,2樊庄外5【纯农排变】,清苑县鑫钻钻头厂,保定煜德建筑工程有限公司,2白城四村外1,1张庄内2,0387503949-保定海航机械制造有限公司-专变-45324020-保定康帝生态肥料有限公司,张庄小学,2西白城外3【纯农排变】,1白城一村内1,1张庄内6,中国移动通信集团河北有限公司清苑分公司,2樊庄外4【纯农排变】,1白城三村内4,2樊庄外9【纯农排变】,1樊庄内5,保定市世航纺织品制造有限公司,2张庄外6【纯农排变】,2白城五村外3【纯农排变】,2西白城外2【纯农排变】,0387504362-保定海航机械制造有限公司-专变-45324019-保定康帝生态肥料有限公司,1白城一村内2,2白城二村外2【纯农排变】,2西白城外6【纯农排变】,2白城五村外5【纯农排变】,2白城一村外2【纯农排变】,1樊庄内2,1白城二村内3,1西白城内3,2白城五村外6【纯农排变】,1白城三村内2,2西白城外5【纯农排变】,祥和家园,1白城四村内2,2西白城外4【纯农排变】,2张庄外1【纯农排变】,2张庄外7【纯农排变】,白城一大队面粉厂,1白城三村内1,保定海航机械制造有限公司,2西白城外7【纯农排变】,2张庄外2【纯农排变】,2张庄外4【纯农排变】,白城幼儿园变压器,2白城五村外8【纯农排变】,客户投资_1樊庄内1,保定市清苑区金玉米粒粮食收购站,2白城五村外2【纯农排变】,张庄幼儿园,2白城二村外7【纯农排变】,2白城三村外7【纯农排变】,2白城四村外6,白城四五村小学变压器,2樊庄外2【纯农排变】,2西白城外1【纯农排变】,2樊庄外7【纯农排变】,樊庄小学变压器,2白城四村外3,1白城五村内2","poweroffReason":"【停电原因】由于主干１０１号杆南Ｔ１３号杆东Ｔ１５号杆南Ｔ９号杆惠康海绵厂杆断导致１１０ＫＶ罗侯变电站１０ＫＶ樊庄线５６７线路全线停电 【变更送电】因抢修进度加快原因，送电时间由２３：５９变更为２１：２０ 【发布渠道】通过９５５９８发布","powerTime":"2019-09-28 20:46:06","powerComm":"葛春景通知已送电","subsNo":"","lineNo":"","tgNo":"","tgName":null,"infoStatus":"1","orgName":"国网清苑县供电公司","typeName":null,"infoStatusName":null,"dateDay":null,"orgNos":null,"nowTime":null,"countyName":null,"streetName":null,"villageName":null,"roadName":null,"communityName":null,"tranName":null,"sdLineName":null,"cityCode":"1340618","cityName":"国网清苑县供电公司","provinceCode":null,"stopTime":"2019-09-28 21:20:00","powerType":"全部","powerOffArea":"【全线路停电】停2张庄外3【纯农排变】,清苑县鑫恒达模板有限公司,2白城五村外7【纯农排变】,1白城二村内2,2白城四村外7,2白城三村外3【纯农排变】,2西白城外8【纯农排变】,2白城二村外3【纯农排变】,清苑县福字面粉厂,1张庄内1,清苑县民政局敬老院,1樊庄内3,2樊庄外1【纯农排变】,清苑县永辉太空棉厂,1西白城内1,1白城二村内1,李铁良,1白城三村内5,1张庄内3,2白城三村外6【纯农排变】,2白城四村外2,2张庄7内,保定康帝生态肥料有限公司,2白城四村外4,2白城五村外4【纯农排变】,1白城三村内6,2樊庄外8【纯农排变】,白城二村苗莆,2张庄外5【纯农排变】,2白城二村外4【纯农排变】,2白城四村外5,2张庄外8（纯农排）,2白城二村外1【纯农排变】,1樊庄内4,河北雨农灌溉设备制造有限公司,1张庄内4,2白城五村外1【纯农排变】,保定市清苑区白团乡白城四五村小学,2白城三村外4【纯农排变】,保定人民公交客运有限公司,1白城五村内1,1白城四村内1,2樊庄外3【纯农排变】,2白城三村外1【纯农排变】,1西白城内2,1张庄内5,2樊庄外11【纯农排变】,2樊庄外10【纯农排变】,2白城三村外2【纯农排变】,2白城一村外1【纯农排变】,1白城五村内3,2白城三村外5【纯农排变】,1白城三村内3,2白城二村外6【纯农排变】,2樊庄外5【纯农排变】,清苑县鑫钻钻头厂,保定煜德建筑工程有限公司,2白城四村外1,1张庄内2,0387503949-保定海航机械制造有限公司-专变-45324020-保定康帝生态肥料有限公司,张庄小学,2西白城外3【纯农排变】,1白城一村内1,1张庄内6,中国移动通信集团河北有限公司清苑分公司,2樊庄外4【纯农排变】,1白城三村内4,2樊庄外9【纯农排变】,1樊庄内5,保定市世航纺织品制造有限公司,2张庄外6【纯农排变】,2白城五村外3【纯农排变】,2西白城外2【纯农排变】,0387504362-保定海航机械制造有限公司-专变-45324019-保定康帝生态肥料有限公司,1白城一村内2,2白城二村外2【纯农排变】,2西白城外6【纯农排变】,2白城五村外5【纯农排变】,2白城一村外2【纯农排变】,1樊庄内2,1白城二村内3,1西白城内3,2白城五村外6【纯农排变】,1白城三村内2,2西白城外5【纯农排变】,祥和家园,1白城四村内2,2西白城外4【纯农排变】,2张庄外1【纯农排变】,2张庄外7【纯农排变】,白城一大队面粉厂,1白城三村内1,保定海航机械制造有限公司,2西白城外7【纯农排变】,2张庄外2【纯农排变】,2张庄外4【纯农排变】,白城幼儿园变压器,2白城五村外8【纯农排变】,客户投资_1樊庄内1,保定市清苑区金玉米粒粮食收购站,2白城五村外2【纯农排变】,张庄幼儿园,2白城二村外7【纯农排变】,2白城三村外7【纯农排变】,2白城四村外6,白城四五村小学变压器,2樊庄外2【纯农排变】,2西白城外1【纯农排变】,2樊庄外7【纯农排变】,樊庄小学变压器,2白城四村外3,1白城五村内2","powerOffReason":"【停电原因】由于主干１０１号杆南Ｔ１３号杆东Ｔ１５号杆南Ｔ９号杆惠康海绵厂杆断导致１１０ＫＶ罗侯变电站１０ＫＶ樊庄线５６７线路全线停电 【变更送电】因抢修进度加快原因，送电时间由２３：５９变更为２１：２０ 【发布渠道】通过９５５９８发布","powerOffId":"2019092813000102"},{"poweroffId":2019092813000089,"sgpoweroffId":null,"subsName":"","lineName":"北城线521","pubTranName":"高碑店市万通发展有限责任公司万通加油站变压器,市政修路变压器,王克华,兴凯材料,安乐庄01号变压器,河北凯翔风汽车销售服务有限公司,安喜庄01号变压器,安乐庄04号变压器,河北鹏高盛厨房设备有限公司变压器,河北方晖房地产开发有限责任公司变压器,安乐庄07号变压器,高碑店市教育局,河北方晖房地产开发有限责任公司3#变压器,解家营地,河北方晖房地产开发有限责任公司4#变压器,河北方晖房地产开发有限责任公司2#变压器,河北方晖房地产开发有限责任公司5#变压器,高碑店市路灯管理办公室（安泰东路检查站南）,高碑店市路灯管理办公室,高碑店市筑鹏房地产开发有限公司,中煤神海石油变压器,高碑店市新春机动车检测有限公司变压器,高碑店市自来水公司,高碑店市华诺门业有限公司变压器,高碑店市生科采暖炉厂,高碑店市圣林花园酒店有限公司变压器,保定市中茂能源有限公司变压器,河北方晖房地产开发有限责任公司1#变压器,安乐庄03号变压器,河北方晖房地产开发有限责任公司6#变压器,农贸市场,高碑店市路灯管理办公室变压器,安乐庄02号变压器,高碑店市金岭机械厂变压器,方家务西南5变压器,高碑店市中平智信汽车销售服务有限责任公司变压器,高碑店市碧海天龙装饰工程有限公司变压器,安喜庄02号变压器,庞大汽贸集团股份有限公司高碑店分,李明章变压器,河北方晖房地产开发有限责任公司2,180000005517|高碑店市新春机动车检测有限公司,安乐庄06号变压器,方家务西南4变压器,高碑店市建设局变压器,高碑店市利永铸造有限公司,安乐庄05号变压器,新春机动车检测变压器315,河北方晖房地产开发有限责任公司变压器1,高碑店市路灯管理办公室（安泰东路检查站南）变压器,","scope":"【影响街道/乡镇】北城办事处、１１２线 【高危重要客户】无 【影响客户】新春驾校、庞大汽贸、安乐庄村、安喜庄村、京港国际小区、新科锅炉、凯祥丰汽贸","startTime":"2019-09-29 04:30:00","stopDate":"2019-09-29 06:30:00","orgNo":"1340612","typeCode":"其他临时停电","poweroffArea":"【全线路停电】停高碑店市筑鹏房地产开发有限公司,中煤神海石油变压器,高碑店市新春机动车检测有限公司变压器,高碑店市自来水公司,高碑店市华诺门业有限公司变压器,高碑店市生科采暖炉厂,高碑店市圣林花园酒店有限公司变压器,保定市中茂能源有限公司变压器,河北方晖房地产开发有限责任公司1#变压器,安乐庄03号变压器,河北方晖房地产开发有限责任公司6#变压器,农贸市场,高碑店市路灯管理办公室变压器,安乐庄02号变压器,高碑店市金岭机械厂变压器,方家务西南5变压器,高碑店市中平智信汽车销售服务有限责任公司变压器,高碑店市碧海天龙装饰工程有限公司变压器,安喜庄02号变压器,庞大汽贸集团股份有限公司高碑店分,李明章变压器,河北方晖房地产开发有限责任公司2,180000005517|高碑店市新春机动车检测有限公司,安乐庄06号变压器,方家务西南4变压器,高碑店市建设局变压器,高碑店市利永铸造有限公司,安乐庄05号变压器,新春机动车检测变压器315,河北方晖房地产开发有限责任公司变压器1,高碑店市路灯管理办公室（安泰东路检查站南）变压器,高碑店市万通发展有限责任公司万通加油站变压器,市政修路变压器,王克华,兴凯材料,安乐庄01号变压器,河北凯翔风汽车销售服务有限公司,安喜庄01号变压器,安乐庄04号变压器,河北鹏高盛厨房设备有限公司变压器,河北方晖房地产开发有限责任公司变压器,高碑店市路灯管理办公室,安乐庄07号变压器,高碑店市教育局,河北方晖房地产开发有限责任公司3#变压器,解家营地,河北方晖房地产开发有限责任公司4#变压器,河北方晖房地产开发有限责任公司2#变压器,河北方晖房地产开发有限责任公司5#变压器,高碑店市路灯管理办公室（安泰东路检查站南）","poweroffReason":"【停电原因】由于刀闸打火需紧急处理导致１１０ＫＶ方家务变电站１０ＫＶ北城５２１线路全线停电 【变更送电】无 【发布渠道】通过９５５９８发布","powerTime":"2019-09-29 06:02:07","powerComm":"已送电","subsNo":"","lineNo":"","tgNo":"","tgName":null,"infoStatus":"1","orgName":"国网高碑店市供电公司","typeName":null,"infoStatusName":null,"dateDay":null,"orgNos":null,"nowTime":null,"countyName":null,"streetName":null,"villageName":null,"roadName":null,"communityName":null,"tranName":null,"sdLineName":null,"cityCode":"1340612","cityName":"国网高碑店市供电公司","provinceCode":null,"stopTime":"2019-09-29 06:30:00","powerType":"全部","powerOffArea":"【全线路停电】停高碑店市筑鹏房地产开发有限公司,中煤神海石油变压器,高碑店市新春机动车检测有限公司变压器,高碑店市自来水公司,高碑店市华诺门业有限公司变压器,高碑店市生科采暖炉厂,高碑店市圣林花园酒店有限公司变压器,保定市中茂能源有限公司变压器,河北方晖房地产开发有限责任公司1#变压器,安乐庄03号变压器,河北方晖房地产开发有限责任公司6#变压器,农贸市场,高碑店市路灯管理办公室变压器,安乐庄02号变压器,高碑店市金岭机械厂变压器,方家务西南5变压器,高碑店市中平智信汽车销售服务有限责任公司变压器,高碑店市碧海天龙装饰工程有限公司变压器,安喜庄02号变压器,庞大汽贸集团股份有限公司高碑店分,李明章变压器,河北方晖房地产开发有限责任公司2,180000005517|高碑店市新春机动车检测有限公司,安乐庄06号变压器,方家务西南4变压器,高碑店市建设局变压器,高碑店市利永铸造有限公司,安乐庄05号变压器,新春机动车检测变压器315,河北方晖房地产开发有限责任公司变压器1,高碑店市路灯管理办公室（安泰东路检查站南）变压器,高碑店市万通发展有限责任公司万通加油站变压器,市政修路变压器,王克华,兴凯材料,安乐庄01号变压器,河北凯翔风汽车销售服务有限公司,安喜庄01号变压器,安乐庄04号变压器,河北鹏高盛厨房设备有限公司变压器,河北方晖房地产开发有限责任公司变压器,高碑店市路灯管理办公室,安乐庄07号变压器,高碑店市教育局,河北方晖房地产开发有限责任公司3#变压器,解家营地,河北方晖房地产开发有限责任公司4#变压器,河北方晖房地产开发有限责任公司2#变压器,河北方晖房地产开发有限责任公司5#变压器,高碑店市路灯管理办公室（安泰东路检查站南）","powerOffReason":"【停电原因】由于刀闸打火需紧急处理导致１１０ＫＶ方家务变电站１０ＫＶ北城５２１线路全线停电 【变更送电】无 【发布渠道】通过９５５９８发布","powerOffId":"2019092813000089"},{"poweroffId":2019092813000075,"sgpoweroffId":null,"subsName":"","lineName":"迎宾路线519","pubTranName":"阳光小区,市政公用,交通局公用1,市政公用2,民政局公用2,开放路东延公用,水泥厂公用,交警公用,种子公司公用,新振兴公用,人民银行公用,县委办.公用,劳动局公用2,县医院公用,公安局公用,农机监理公用,华建路东台公用,计委公用,劳动局公用,新兴华路路灯东,交通局公用2,三小公用【2018年节能变】,后所营公用,商务局公用,","scope":"【影响街道/乡镇】定兴镇、通兴东路、迎宾路、国泰北街、兴华东路、开放路 【高危重要客户】定兴县医院、定兴协和医院 【影响客户】网通、政府、银兴信用社、公安局、电力局、人民银行、幼师、三小、劳人局、交警、鑫帆、交通局、民政局、中信通讯、纪委家属院、种子公司家属楼、阳光小区、移动公司、商务局、恒通汽修、水泥厂家属院、网通家属院、公安局家属院、县医院家属院、电力局家属院、劳人局家属院、三小家属院、交通局家属院、裕兴园小区、商务局家属院、民政局家属院、加油站、百合城小区、润宏房地产、林鸿汽修、县委家属楼、定兴建设局市政公司、保定胜达铝塑门窗有限公司、农机监理、后所营","startTime":"2019-10-12 01:00:00","stopDate":"2019-10-12 05:00:00","orgNo":"1340609","typeCode":"计划停电","poweroffArea":"【全线路停电】停*县医院,农机监理公用,开放路东延公用,定兴县顺兴物业服务有限公司1000,保定鑫帆汽车座椅有限公司,0469094565-*定兴协和医院-专变-46718556-*金鹏商业有限公司,杨玉永,中国网通（集团）有限公司定兴县分公司,迎宾路灯（1）,*中国移动定兴分公司,迎宾路灯（2）,水泥厂公用,交警公用,定兴县人民政府,新北方饮食有限责任公司,*中国石油天燃气股份有限公司河北保定销售分公司38站,*银兴信用社（邮政分户）,种子公司公用,*保定胜达铝塑门窗有限公司,新振兴公用,*劳动人事局办公楼,人民银行公用,县委办.公用,劳动局公用2,0675842295-定兴县黄金房地产开发有限公司-专变-217779392-黄金房地产-1000,县医院公用,公安局公用,*梁江涛（个人）,县医院1600,保定师范专科学校涿州分校2,*保定师范专科学校涿州分校1(预付),华建路东台公用,县政府250-2,315,新兴华路路灯东,交通局公用2,网通公用,三小公用【2018年节能变】,0647391237-定兴县名仕物业服务有限公司-专变-171339472-河北华鲁房地产开发有限公司-800,后所营公用,商务局公用,定兴县顺兴物业服务有限公司630,计委公用,0469094552-定兴县乐驿快捷酒店-专变-127409701-恒通汽修,劳动局公用,0469095249-定兴县顺兴物业服务有限公司-专变-46718560-*保定润宏房地产开发公司2,顺兴物业(行政综合大厅)630,*定兴县顺兴物业服务有限公司1000,阳光小区,市政公用,兴华东路东边(路灯),交通局公用1,市政公用2,民政局公用2","poweroffReason":"【停电原因】由于主干１１号杆弓子线过热消缺导致１１０ＫＶ周家庄变电站迎宾路线５１９线路全线停电 【变更送电】无 【发布渠道】保定市定兴县电视台（１０月０４日０９时１０分至２３时５０分之间）屏幕上方滚动播放","powerTime":"2019-10-12 04:52:36","powerComm":"已送电","subsNo":"","lineNo":"","tgNo":"","tgName":null,"infoStatus":"1","orgName":"国网定兴县供电公司","typeName":null,"infoStatusName":null,"dateDay":null,"orgNos":null,"nowTime":null,"countyName":null,"streetName":null,"villageName":null,"roadName":null,"communityName":null,"tranName":null,"sdLineName":null,"cityCode":"1340609","cityName":"国网定兴县供电公司","provinceCode":null,"stopTime":"2019-10-12 05:00:00","powerType":"全部","powerOffArea":"【全线路停电】停*县医院,农机监理公用,开放路东延公用,定兴县顺兴物业服务有限公司1000,保定鑫帆汽车座椅有限公司,0469094565-*定兴协和医院-专变-46718556-*金鹏商业有限公司,杨玉永,中国网通（集团）有限公司定兴县分公司,迎宾路灯（1）,*中国移动定兴分公司,迎宾路灯（2）,水泥厂公用,交警公用,定兴县人民政府,新北方饮食有限责任公司,*中国石油天燃气股份有限公司河北保定销售分公司38站,*银兴信用社（邮政分户）,种子公司公用,*保定胜达铝塑门窗有限公司,新振兴公用,*劳动人事局办公楼,人民银行公用,县委办.公用,劳动局公用2,0675842295-定兴县黄金房地产开发有限公司-专变-217779392-黄金房地产-1000,县医院公用,公安局公用,*梁江涛（个人）,县医院1600,保定师范专科学校涿州分校2,*保定师范专科学校涿州分校1(预付),华建路东台公用,县政府250-2,315,新兴华路路灯东,交通局公用2,网通公用,三小公用【2018年节能变】,0647391237-定兴县名仕物业服务有限公司-专变-171339472-河北华鲁房地产开发有限公司-800,后所营公用,商务局公用,定兴县顺兴物业服务有限公司630,计委公用,0469094552-定兴县乐驿快捷酒店-专变-127409701-恒通汽修,劳动局公用,0469095249-定兴县顺兴物业服务有限公司-专变-46718560-*保定润宏房地产开发公司2,顺兴物业(行政综合大厅)630,*定兴县顺兴物业服务有限公司1000,阳光小区,市政公用,兴华东路东边(路灯),交通局公用1,市政公用2,民政局公用2","powerOffReason":"【停电原因】由于主干１１号杆弓子线过热消缺导致１１０ＫＶ周家庄变电站迎宾路线５１９线路全线停电 【变更送电】无 【发布渠道】保定市定兴县电视台（１０月０４日０９时１０分至２３时５０分之间）屏幕上方滚动播放","powerOffId":"2019092813000075"}],"pageModel":{"pageNow":539,"totalCount":10973,"totalPage":1098,"tableRows":0,"pageCount":10,"beginCount":5380},"isExperi":"1"}