{"message":"","today":"2020-06-15","seleList":[{"poweroffId":2019092713000213,"sgpoweroffId":null,"subsName":"","lineName":"10kV江城站520线路","pubTranName":"0616043688-保定市光明粉沫厂-专变-128348506-变压器,0357434220-河北嘉美印铁制罐有限公司-1-箱式变-变压器-2,0357434220-河北嘉美印铁制罐有限公司-1-箱式变-变压器-1,0357394018-保定市天一超能科技有限公司-1-配电室-变压器-1,","scope":"【影响街道/乡镇】生力街 【高危重要客户】无 【影响客户】光明粉沫厂、嘉美印铁制罐有限公司、嘉美印铁制罐有限公司、天一超能科技有限公司","startTime":"2019-10-12 07:00:00","stopDate":"2019-10-12 12:00:00","orgNo":"13406","typeCode":"计划停电","poweroffArea":"【分支停电】停0616043688-保定市光明粉沫厂-专变-128348506-变压器,0357434220-河北嘉美印铁制罐有限公司-1-箱式变-变压器-2,0357434220-河北嘉美印铁制罐有限公司-1-箱式变-变压器-1,0357394018-保定市天一超能科技有限公司-1-配电室-变压器-1","poweroffReason":"【停电原因】由于供电设备临时检修导致１０ＫＶ江城变电站５２０线路生力街１９号东分支１号开关以下停电【变更送电】无【发布渠道】保定市保定有线电视台（１０月４日２０时１５分至２１时４５分之间）屏幕上滚动","powerTime":"2019-10-12 11:56:39","powerComm":"已送电","subsNo":"","lineNo":"","tgNo":"","tgName":null,"infoStatus":"1","orgName":"保定供电公司","typeName":null,"infoStatusName":null,"dateDay":null,"orgNos":null,"nowTime":null,"countyName":null,"streetName":null,"villageName":null,"roadName":null,"communityName":null,"tranName":null,"sdLineName":null,"cityCode":"13406","cityName":"保定供电公司","provinceCode":null,"stopTime":"2019-10-12 12:00:00","powerType":"全部","powerOffArea":"【分支停电】停0616043688-保定市光明粉沫厂-专变-128348506-变压器,0357434220-河北嘉美印铁制罐有限公司-1-箱式变-变压器-2,0357434220-河北嘉美印铁制罐有限公司-1-箱式变-变压器-1,0357394018-保定市天一超能科技有限公司-1-配电室-变压器-1","powerOffReason":"【停电原因】由于供电设备临时检修导致１０ＫＶ江城变电站５２０线路生力街１９号东分支１号开关以下停电【变更送电】无【发布渠道】保定市保定有线电视台（１０月４日２０时１５分至２１时４５分之间）屏幕上滚动","powerOffId":"2019092713000213"},{"poweroffId":2019092713000208,"sgpoweroffId":null,"subsName":"","lineName":"10kV大阳站562线路","pubTranName":"C319柱上变压器,C320柱上变压器,C316柱上变压器,C126柱上变压器,C554,C127柱上变压器,C318柱上变压器,C566柱上变压器,C3035柱上变压器,C064柱上变压器,C137柱上变压器,C032柱上变压器,C034柱上变压器,C380柱上变压器,C066柱上变压器,C129柱上变压器,C071柱上变压器,C035柱上变压器,C317柱上变压器,C128柱上变压器,C065柱上变压器,C033柱上变压器,","scope":"【影响街道/乡镇】东金庄乡、杨庄乡、保新路、大阳东街、焦庄乡 【高危重要客户】无 【影响客户】付村、中阳、下闸村、东后营村","startTime":"2019-09-27 16:10:00","stopDate":"2019-09-27 23:30:00","orgNo":"13406","typeCode":"电网故障停限电","poweroffArea":"【全线路停电】停C320柱上变压器,C035柱上变压器,C317柱上变压器,C128柱上变压器,C066柱上变压器C032柱上变压器C316柱上变压器,变压器,C126柱上变压器,C566柱上变压器C554,C127柱上变压器,C3035柱上变压器,,C318柱上变压器,,C064柱上变压器,,C137柱上变压器,C129柱上变压器,C071柱上变压器,C034柱上变压器,C380柱上变压器,C319柱上变压器,C033柱上变压器,,C065柱上变压器,","poweroffReason":"【停电原因】由于分支开关短路导致１０ＫＶ大阳变电站５６２线路全线停电【变更送电】因抢修进度加快，送电时间由０１：００变更为２３:３０【发布渠道】通过９５５９８发布","powerTime":"2019-09-27 23:15:28","powerComm":"已送电","subsNo":"","lineNo":"","tgNo":"","tgName":null,"infoStatus":"1","orgName":"保定供电公司","typeName":null,"infoStatusName":null,"dateDay":null,"orgNos":null,"nowTime":null,"countyName":null,"streetName":null,"villageName":null,"roadName":null,"communityName":null,"tranName":null,"sdLineName":null,"cityCode":"13406","cityName":"保定供电公司","provinceCode":null,"stopTime":"2019-09-27 23:30:00","powerType":"全部","powerOffArea":"【全线路停电】停C320柱上变压器,C035柱上变压器,C317柱上变压器,C128柱上变压器,C066柱上变压器C032柱上变压器C316柱上变压器,变压器,C126柱上变压器,C566柱上变压器C554,C127柱上变压器,C3035柱上变压器,,C318柱上变压器,,C064柱上变压器,,C137柱上变压器,C129柱上变压器,C071柱上变压器,C034柱上变压器,C380柱上变压器,C319柱上变压器,C033柱上变压器,,C065柱上变压器,","powerOffReason":"【停电原因】由于分支开关短路导致１０ＫＶ大阳变电站５６２线路全线停电【变更送电】因抢修进度加快，送电时间由０１：００变更为２３:３０【发布渠道】通过９５５９８发布","powerOffId":"2019092713000208"},{"poweroffId":2019092713000203,"sgpoweroffId":null,"subsName":"","lineName":"10kV南郊站514线路","pubTranName":"C439柱上变压器,","scope":"【影响街道/乡镇】于家庄乡 【高危重要客户】无 【影响客户】郭村","startTime":"2019-10-11 06:00:00","stopDate":"2019-10-11 18:00:00","orgNo":"13406","typeCode":"计划停电","poweroffArea":"【单台区停电】停C439柱上变压器","poweroffReason":"【停电原因】由于供电设备临时检修导致１０ＫＶ南郊变电站５１４线路Ｃ４３９公变台区停电【变更送电】无【发布渠道】保定市保定有线电视台（１０月２日２０时３０分至２１时３０分之间）屏幕上滚动","powerTime":"2019-10-11 17:02:45","powerComm":"已送电","subsNo":"","lineNo":"","tgNo":"","tgName":null,"infoStatus":"1","orgName":"保定供电公司","typeName":null,"infoStatusName":null,"dateDay":null,"orgNos":null,"nowTime":null,"countyName":null,"streetName":null,"villageName":null,"roadName":null,"communityName":null,"tranName":null,"sdLineName":null,"cityCode":"13406","cityName":"保定供电公司","provinceCode":null,"stopTime":"2019-10-11 18:00:00","powerType":"全部","powerOffArea":"【单台区停电】停C439柱上变压器","powerOffReason":"【停电原因】由于供电设备临时检修导致１０ＫＶ南郊变电站５１４线路Ｃ４３９公变台区停电【变更送电】无【发布渠道】保定市保定有线电视台（１０月２日２０时３０分至２１时３０分之间）屏幕上滚动","powerOffId":"2019092713000203"},{"poweroffId":2019092713000192,"sgpoweroffId":null,"subsName":"","lineName":"10kV东尹庄站559线路","pubTranName":"0573777721-保定四方三伊电气有限公司-专变-148444838-变压器,","scope":"【影响街道/乡镇】北三环 【高危重要客户】无 【影响客户】四方三伊电气有限公司、同光晶体有限公司、恒达纸包装有限公司","startTime":"2019-10-18 06:00:00","stopDate":"2019-10-18 11:00:00","orgNo":"13406","typeCode":"计划停电","poweroffArea":"【分支停电】停0573777721-保定四方三伊电气有限公司-2#专变,0573777721-保定四方三伊电气有限公司-3#专变,0611120513-河北同光晶体有限公司-1-配电室－变压器－1,0357582684-保定市恒达纸包装有限公司-专变,0573777721-保定四方三伊电气有限公司-专变,0573777721-保定四方三伊电气有限公司-专变-148444838-变压器","poweroffReason":"【停电原因】由于供电设备临时检修导致１０ＫＶ东尹庄变电站５５９线路北三环ＨＫ-０８环网柜２号间隔开关以下停电【变更送电】因工作正在处理中，送电时间由10:00变更为11:00【发布渠道】保定市保定有线电视台（１０月１０日２０时１５分至２１时４５分之间）屏幕上滚动","powerTime":"2019-10-18 10:37:53","powerComm":"已送电","subsNo":"","lineNo":"","tgNo":"","tgName":null,"infoStatus":"1","orgName":"保定供电公司","typeName":null,"infoStatusName":null,"dateDay":null,"orgNos":null,"nowTime":null,"countyName":null,"streetName":null,"villageName":null,"roadName":null,"communityName":null,"tranName":null,"sdLineName":null,"cityCode":"13406","cityName":"保定供电公司","provinceCode":null,"stopTime":"2019-10-18 11:00:00","powerType":"全部","powerOffArea":"【分支停电】停0573777721-保定四方三伊电气有限公司-2#专变,0573777721-保定四方三伊电气有限公司-3#专变,0611120513-河北同光晶体有限公司-1-配电室－变压器－1,0357582684-保定市恒达纸包装有限公司-专变,0573777721-保定四方三伊电气有限公司-专变,0573777721-保定四方三伊电气有限公司-专变-148444838-变压器","powerOffReason":"【停电原因】由于供电设备临时检修导致１０ＫＶ东尹庄变电站５５９线路北三环ＨＫ-０８环网柜２号间隔开关以下停电【变更送电】因工作正在处理中，送电时间由10:00变更为11:00【发布渠道】保定市保定有线电视台（１０月１０日２０时１５分至２１时４５分之间）屏幕上滚动","powerOffId":"2019092713000192"},{"poweroffId":2019092713000188,"sgpoweroffId":null,"subsName":"","lineName":"10KV515王营线","pubTranName":"10kV515王营线大苑33021分支8#王营线515大苑33040台区,10kV515王营线王营线515大苑33018台区,10kV515王营线大苑33021分支16#王营线515大苑33021台区【纯农排变】,10kV515王营线徐营33012台区,10kV515王营线王营33008台区【纯农排变】,10KV王营515线徐营33057台区变压器,10KV王营515线东风33058台区变压器,10KV王营515线大苑33056台区变压器,10kv王营515线33041台区变压器,10kV515王营线王营33007台区,10KV王营515线大苑33055台区变压器,10kV515王营线主干108#杆,10KV王营515线东升33061台区变压器,10kV515王营线20389台区变压器,10kV515王营线徐营村东04429,10KV王营515线东风33059台区变压器,10kV515王营线王营线515徐营33014台区,10kV515王营线42846台区,10kV515王营线大苑33021分支3#王营线515大苑33020台区器,10kV515王营线东风33032台区,10KV王营515线东风33060台区变压器,10kV515王营线东风33048台区,10kV515王营线徐营33062台区变压器【纯农排变】,10kV515王营线20884台区,10kV515王营线王木33025台区,10kV515王营线东风33047台区,","scope":"【影响街道/乡镇】博野镇【高危重要客户】无【影响客户】王营、徐营、大苑、小苑、东风、东升、南白沙","startTime":"2019-10-26 07:00:00","stopDate":"2019-10-26 18:40:00","orgNo":"1340608","typeCode":"计划停电","poweroffArea":"【全线路停电】停河北红国园水泵厂,10kV515王营线王营线515徐营33015台区,10kV515王营线大苑新增分支 12#0359【纯农排变】,10kV515王营线33045台区【纯农排变】,10kV515王营线徐营33009台区【纯农排变】,10kV515王营线王营线515大苑33018台区,10kV515王营线东升33026台区【纯农排变】,10KV王营515线大苑33055台区变压器,10kV515王营线徐营33011台区,10kV515王营线王营线515徐营33049台区,10kV515王营线王营线515徐营33016台区【纯农排变】,王国彬塑料厂,10kV515王营线东风33031台区【纯农排变】,10kV515王营线王营线515徐营33013台区【纯农排变】,10kV515王营线东风33048台区,宁达无纺织品加工厂,10kV515王营线东风33036台区【纯农排变】,博野县利达车床加工厂,10kV515王营线33051台区,10kV515王营线大苑33038分支5#王营线515大苑33019台区【纯农排变】,徐营小学,10kV515王营线徐营33062台区变压器【纯农排变】,10kV515王营线东风33047台区,10kV515王营线东风33032台区,10kV515王营线徐营33012台区,10kV515王营线王营33007台区,10kV515王营线东风33028台区,博野县中兴车床加工厂,河北雄腾水泵制造有限公司,10kV515王营线王营线515线33050台区变【纯农排变】,10kV515王营线大苑33038分支13#王营线515大苑33038台区【纯农排变】,河北宇通泵业有限公司,10kV515王营线东升村北排灌18251台区【纯农排变】,徐营吴振地纺纱厂,10kV515王营线徐营33044台区【纯农排变】,南白沙塑料厂（与33042共用）,10kV515王营线大苑33021分支8#王营线515大苑33040台区,10kV515王营线大苑33021分支3#王营线515大苑33020台区器,10kV515王营线王营线515徐营33014台区,10kV515王营线徐营村东04429,10KV王营515线大苑33056台区变压器,10kV515王营线主干108#杆,10kV515王营线42846台区,10kV515王营线20884台区,中建路桥集团有限公司,10KV王营515线东风33060台区变压器,10kV515王营线王营33008台区【纯农排变】,博野县王营新民居改造工程,10kV515王营线王营33004台区,10KV王营515线徐营33057台区变压器,10kV515王营线大苑33021分支16#王营线515大苑33021台区【纯农排变】,10kV515王营线王木33025台区,津友化工涂料有限公司,10kV515王营线33046台区【纯农排变】,10kV515王营线东升33027台区【纯农排变】,徐营铸造厂,兴荣面粉厂,10kV515王营线20389台区变压器,10kv王营515线33041台区变压器,10kV515王营线东风33023台区【纯农排变】,10kV515王营线王营线515大苑33017台区【纯农排变】,10kV515王营线东风33022台区【纯农排变】,10kV515王营线大苑分支33#王营线515大苑33030台区【纯农排变】,10KV王营515线东风33059台区变压器,10KV王营515线东升33061台区变压器,10KV王营515线东风33058台区变压器,10kV515王营线王营线515徐营33010台区【纯农排变】","poweroffReason":"【停电原因】由于线路计划检修导致３５ＫＶ南白沙变电站王营５１５线路全线停电【变更送电】因工作进度加快原因，送电时间由２２：００变更为１８：４０【发布渠道】保定市博野电视台（０９月２７日１９时３０分至２０时３０分之间）屏幕上方滚动","powerTime":"2019-10-26 18:04:00","powerComm":"已送电","subsNo":"","lineNo":"","tgNo":"","tgName":null,"infoStatus":"1","orgName":"国网博野县供电公司","typeName":null,"infoStatusName":null,"dateDay":null,"orgNos":null,"nowTime":null,"countyName":null,"streetName":null,"villageName":null,"roadName":null,"communityName":null,"tranName":null,"sdLineName":null,"cityCode":"1340608","cityName":"国网博野县供电公司","provinceCode":null,"stopTime":"2019-10-26 18:40:00","powerType":"全部","powerOffArea":"【全线路停电】停河北红国园水泵厂,10kV515王营线王营线515徐营33015台区,10kV515王营线大苑新增分支 12#0359【纯农排变】,10kV515王营线33045台区【纯农排变】,10kV515王营线徐营33009台区【纯农排变】,10kV515王营线王营线515大苑33018台区,10kV515王营线东升33026台区【纯农排变】,10KV王营515线大苑33055台区变压器,10kV515王营线徐营33011台区,10kV515王营线王营线515徐营33049台区,10kV515王营线王营线515徐营33016台区【纯农排变】,王国彬塑料厂,10kV515王营线东风33031台区【纯农排变】,10kV515王营线王营线515徐营33013台区【纯农排变】,10kV515王营线东风33048台区,宁达无纺织品加工厂,10kV515王营线东风33036台区【纯农排变】,博野县利达车床加工厂,10kV515王营线33051台区,10kV515王营线大苑33038分支5#王营线515大苑33019台区【纯农排变】,徐营小学,10kV515王营线徐营33062台区变压器【纯农排变】,10kV515王营线东风33047台区,10kV515王营线东风33032台区,10kV515王营线徐营33012台区,10kV515王营线王营33007台区,10kV515王营线东风33028台区,博野县中兴车床加工厂,河北雄腾水泵制造有限公司,10kV515王营线王营线515线33050台区变【纯农排变】,10kV515王营线大苑33038分支13#王营线515大苑33038台区【纯农排变】,河北宇通泵业有限公司,10kV515王营线东升村北排灌18251台区【纯农排变】,徐营吴振地纺纱厂,10kV515王营线徐营33044台区【纯农排变】,南白沙塑料厂（与33042共用）,10kV515王营线大苑33021分支8#王营线515大苑33040台区,10kV515王营线大苑33021分支3#王营线515大苑33020台区器,10kV515王营线王营线515徐营33014台区,10kV515王营线徐营村东04429,10KV王营515线大苑33056台区变压器,10kV515王营线主干108#杆,10kV515王营线42846台区,10kV515王营线20884台区,中建路桥集团有限公司,10KV王营515线东风33060台区变压器,10kV515王营线王营33008台区【纯农排变】,博野县王营新民居改造工程,10kV515王营线王营33004台区,10KV王营515线徐营33057台区变压器,10kV515王营线大苑33021分支16#王营线515大苑33021台区【纯农排变】,10kV515王营线王木33025台区,津友化工涂料有限公司,10kV515王营线33046台区【纯农排变】,10kV515王营线东升33027台区【纯农排变】,徐营铸造厂,兴荣面粉厂,10kV515王营线20389台区变压器,10kv王营515线33041台区变压器,10kV515王营线东风33023台区【纯农排变】,10kV515王营线王营线515大苑33017台区【纯农排变】,10kV515王营线东风33022台区【纯农排变】,10kV515王营线大苑分支33#王营线515大苑33030台区【纯农排变】,10KV王营515线东风33059台区变压器,10KV王营515线东升33061台区变压器,10KV王营515线东风33058台区变压器,10kV515王营线王营线515徐营33010台区【纯农排变】","powerOffReason":"【停电原因】由于线路计划检修导致３５ＫＶ南白沙变电站王营５１５线路全线停电【变更送电】因工作进度加快原因，送电时间由２２：００变更为１８：４０【发布渠道】保定市博野电视台（０９月２７日１９时３０分至２０时３０分之间）屏幕上方滚动","powerOffId":"2019092713000188"},{"poweroffId":2019092713000182,"sgpoweroffId":null,"subsName":"","lineName":"10kV韩村站517线路","pubTranName":"C072柱上变压器,C564,C586,C587,C588,C589,","scope":"【影响街道/乡镇】韩庄乡、瑞祥大街 【高危重要客户】无 【影响客户】八里庄、蓝港超市、诚信房地产、风帆家园","startTime":"2019-10-10 06:00:00","stopDate":"2019-10-10 17:00:00","orgNo":"13406","typeCode":"计划停电","poweroffArea":"【分支停电】停C072柱上变压器,C564,C586,C587,C588,C589","poweroffReason":"【停电原因】由于供电设备临时检修导致１０ＫＶ韩村变电站５１７线路瑞祥大街ＨＫ-０１环网柜５号间隔开关以下停电【变更送电】因抢修进度加快，原定18：00送电现计划17：00送电【发布渠道】保定市保定有线电视台（１０月２日２０时１５分至２１时４５分之间）屏幕上滚动","powerTime":"2019-10-10 16:44:36","powerComm":"已送电","subsNo":"","lineNo":"","tgNo":"","tgName":null,"infoStatus":"1","orgName":"保定供电公司","typeName":null,"infoStatusName":null,"dateDay":null,"orgNos":null,"nowTime":null,"countyName":null,"streetName":null,"villageName":null,"roadName":null,"communityName":null,"tranName":null,"sdLineName":null,"cityCode":"13406","cityName":"保定供电公司","provinceCode":null,"stopTime":"2019-10-10 17:00:00","powerType":"全部","powerOffArea":"【分支停电】停C072柱上变压器,C564,C586,C587,C588,C589","powerOffReason":"【停电原因】由于供电设备临时检修导致１０ＫＶ韩村变电站５１７线路瑞祥大街ＨＫ-０１环网柜５号间隔开关以下停电【变更送电】因抢修进度加快，原定18：00送电现计划17：00送电【发布渠道】保定市保定有线电视台（１０月２日２０时１５分至２１时４５分之间）屏幕上滚动","powerOffId":"2019092713000182"},{"poweroffId":2019092713000172,"sgpoweroffId":null,"subsName":"","lineName":"10kV515北只东线","pubTranName":"西只东公用照明8台区,客户投资_西只东村公用照明4台区,西只东电锯,西只东公用农业3台区【纯农排变】,定州市鑫源肉类加工厂,北只东公用照明2台区,西只东公用农业6台区【纯农排变】,于只东公用农业2台区【纯农排变】,小西仗公用照明3台区,张只东公用农业2台区【纯农排变】,杨只东公用照明2台区,定州市庞村镇庞村社区变压器,西只东公用农业1台区【纯农排变】,西只东公用照明7台区,西只东面粉厂,西只东村公用照明3台区,小西丈公用照明4台区,北只东公用农业1台区【纯农排变】,小西丈村公用农业3台区【纯农排变】,庞村公用照明7台区1,张只东公用照明2台区,西只东公用农业8台区【纯农排变】,于只东公用照明2台区,东只东公用农业1台区1【纯农排变】,北只东电锯,北只东公用农业3台区【纯农排变】,西只东公用农业5台区【纯农排变】,庞村公用照明15台区,庞村邮政,0676840841-定州市张辉建材经销处-专变-217765743-定州市张辉建材经销处变压器,小西丈村公用农业1台区【纯农排变】,西只东公用农业4台区【纯农排变】,定州市腾飞影视道具厂,中国联合网络通信有限公司定州市分公司,定州市鑫桥焊材厂变压器,西只东公用照明5台区,庞村面粉厂,庞村公用照明6台区1,庞村公用照明2台区,小西丈公用农业4台区【纯农排变】,张只东村公用照明1台区,北只东公用照明3台区,西只东公用照明9台区,小西丈公用照明6台区,庞村公用照明12台区1,西只东公用照明10台区,定州市雄鹰体育健身器材厂变压器,杨只东公用照明1台区,杨只东公用农业1台区【纯农排变】,西只东村公用照明1台区,庞村村委会,杨只东公用农业3台区【纯农排变】,杨只东公用农业2台区【纯农排变】,于只东公用农业1台区【纯农排变】,西只东公用农业7台区【纯农排变】,张只东公用农业1台区【纯农排变】,小西丈公用照明7台区,变压器,镇砖厂,北只东公用照明1台区,西只东公用农业2台区【纯农排变】,于只东村公用照明1台区,小西丈村公用农业2台区【纯农排变】,小西仗公用照明2台区,小西仗公用照明1台区,庞村公用照明9台区1,大西仗公用照明5台区,西只东公用照明6台区,杨只东公用农业4台区【纯农排变】,大西丈公用农业6台区【纯农排变】,小西丈公用照明5台区,杨只东公用农业5台区【纯农排变】,定州鸿运沙石料场,西只东村公用照明2台区,西岗铁西变压器,北只东公用农业2台区【纯农排变】,","scope":"【影响街道/乡镇】庞村镇【高危重要客户】无【影响客户】西只东村、北只东村、张只东村、于只东村、庞村、小西丈村、杨只东村、东只东、大西丈","startTime":"2019-09-27 15:30:19","stopDate":"2019-09-27 19:30:00","orgNo":"1340610","typeCode":"电网故障停限电","poweroffArea":"【全线路停电】停小西丈公用照明7台区,庞村公用照明2台区,东只东公用农业1台区1【纯农排变】,小西仗公用照明3台区,定州市鑫源肉类加工厂,西只东公用农业7台区【纯农排变】,镇砖厂,西只东公用照明6台区,客户投资_西只东村公用照明4台区,庞村面粉厂,杨只东公用农业3台区【纯农排变】,庞村村委会,庞村邮政,定州市鑫桥焊材厂变压器,西只东公用农业2台区【纯农排变】,西只东公用农业4台区【纯农排变】,于只东公用农业2台区【纯农排变】,中国联合网络通信有限公司定州市分公司,北只东公用照明1台区,西只东村公用照明1台区,小西丈公用农业4台区【纯农排变】,张只东公用照明2台区,于只东公用照明2台区,杨只东公用照明1台区,小西丈村公用农业2台区【纯农排变】,北只东公用照明3台区,小西仗公用照明2台区,小西丈公用照明6台区,0676840841-定州市张辉建材经销处-专变-217765743-定州市张辉建材经销处变压器,小西仗公用照明1台区,大西仗公用照明5台区,西只东公用照明5台区,杨只东公用农业2台区【纯农排变】,杨只东公用农业1台区【纯农排变】,西只东面粉厂,小西丈公用照明5台区,西只东电锯,西只东公用农业5台区【纯农排变】,小西丈公用照明4台区,西只东公用农业3台区【纯农排变】,西只东公用照明10台区,西只东公用农业1台区【纯农排变】,变压器,于只东公用农业1台区【纯农排变】,大西丈公用农业6台区【纯农排变】,北只东公用农业3台区【纯农排变】,于只东村公用照明1台区,北只东公用农业1台区【纯农排变】,定州鸿运沙石料场,小西丈村公用农业1台区【纯农排变】,庞村公用照明7台区1,西只东村公用照明2台区,庞村公用照明12台区1,庞村公用照明6台区1,定州市雄鹰体育健身器材厂变压器,庞村公用照明9台区1,定州市庞村镇庞村社区变压器,小西丈村公用农业3台区【纯农排变】,西只东公用照明9台区,定州市腾飞影视道具厂,西岗铁西变压器,杨只东公用照明2台区,杨只东公用农业4台区【纯农排变】,张只东公用农业2台区【纯农排变】,西只东村公用照明3台区,北只东公用照明2台区,北只东公用农业2台区【纯农排变】,张只东村公用照明1台区,张只东公用农业1台区【纯农排变】,西只东公用农业8台区【纯农排变】,西只东公用照明7台区,杨只东公用农业5台区【纯农排变】,西只东公用照明8台区,北只东电锯,庞村公用照明15台区,西只东公用农业6台区【纯农排变】","poweroffReason":"【停电原因】由于小西丈大分支２４至２５号杆车挂断线导致３５ＫＶ北庞村变电站１０ＫＶ５１５北只东线路全线停电 【变更送电】因抢修进度加快原因，送电时间由２３：５５变更为１９：３０ 【发布渠道】９５５９８","powerTime":"2019-09-27 18:59:46","powerComm":"已送电","subsNo":"","lineNo":"","tgNo":"","tgName":null,"infoStatus":"1","orgName":"国网定州市供电公司","typeName":null,"infoStatusName":null,"dateDay":null,"orgNos":null,"nowTime":null,"countyName":null,"streetName":null,"villageName":null,"roadName":null,"communityName":null,"tranName":null,"sdLineName":null,"cityCode":"1340610","cityName":"国网定州市供电公司","provinceCode":null,"stopTime":"2019-09-27 19:30:00","powerType":"全部","powerOffArea":"【全线路停电】停小西丈公用照明7台区,庞村公用照明2台区,东只东公用农业1台区1【纯农排变】,小西仗公用照明3台区,定州市鑫源肉类加工厂,西只东公用农业7台区【纯农排变】,镇砖厂,西只东公用照明6台区,客户投资_西只东村公用照明4台区,庞村面粉厂,杨只东公用农业3台区【纯农排变】,庞村村委会,庞村邮政,定州市鑫桥焊材厂变压器,西只东公用农业2台区【纯农排变】,西只东公用农业4台区【纯农排变】,于只东公用农业2台区【纯农排变】,中国联合网络通信有限公司定州市分公司,北只东公用照明1台区,西只东村公用照明1台区,小西丈公用农业4台区【纯农排变】,张只东公用照明2台区,于只东公用照明2台区,杨只东公用照明1台区,小西丈村公用农业2台区【纯农排变】,北只东公用照明3台区,小西仗公用照明2台区,小西丈公用照明6台区,0676840841-定州市张辉建材经销处-专变-217765743-定州市张辉建材经销处变压器,小西仗公用照明1台区,大西仗公用照明5台区,西只东公用照明5台区,杨只东公用农业2台区【纯农排变】,杨只东公用农业1台区【纯农排变】,西只东面粉厂,小西丈公用照明5台区,西只东电锯,西只东公用农业5台区【纯农排变】,小西丈公用照明4台区,西只东公用农业3台区【纯农排变】,西只东公用照明10台区,西只东公用农业1台区【纯农排变】,变压器,于只东公用农业1台区【纯农排变】,大西丈公用农业6台区【纯农排变】,北只东公用农业3台区【纯农排变】,于只东村公用照明1台区,北只东公用农业1台区【纯农排变】,定州鸿运沙石料场,小西丈村公用农业1台区【纯农排变】,庞村公用照明7台区1,西只东村公用照明2台区,庞村公用照明12台区1,庞村公用照明6台区1,定州市雄鹰体育健身器材厂变压器,庞村公用照明9台区1,定州市庞村镇庞村社区变压器,小西丈村公用农业3台区【纯农排变】,西只东公用照明9台区,定州市腾飞影视道具厂,西岗铁西变压器,杨只东公用照明2台区,杨只东公用农业4台区【纯农排变】,张只东公用农业2台区【纯农排变】,西只东村公用照明3台区,北只东公用照明2台区,北只东公用农业2台区【纯农排变】,张只东村公用照明1台区,张只东公用农业1台区【纯农排变】,西只东公用农业8台区【纯农排变】,西只东公用照明7台区,杨只东公用农业5台区【纯农排变】,西只东公用照明8台区,北只东电锯,庞村公用照明15台区,西只东公用农业6台区【纯农排变】","powerOffReason":"【停电原因】由于小西丈大分支２４至２５号杆车挂断线导致３５ＫＶ北庞村变电站１０ＫＶ５１５北只东线路全线停电 【变更送电】因抢修进度加快原因，送电时间由２３：５５变更为１９：３０ 【发布渠道】９５５９８","powerOffId":"2019092713000172"},{"poweroffId":2019092713000158,"sgpoweroffId":null,"subsName":"","lineName":"10kV522市庄线","pubTranName":"西湖村公用照明1台区,西湖公用照明6台区,西湖村公用照明5台区,市庄公用照明14台区,市庄公用照明4台区,赵家庄公用照明一台区(1),西湖社区新民居公用照明2台区,市庄公用照明1台区,西湖村公用照明2台区,市庄公用照明3台区,市庄公用照明7台区,市庄公用照明5台区,赵家庄公用照明二台区(2),市庄公用照明16台区,西湖社区新民居1台区,西湖村公用照明3台区,西湖村公用照明4台区,西湖公用照明12台区,市庄公用照明17台区,西湖社区新民居公用照明3台区,市庄公用照明9台区,东湖庄村东湖庄公用农业1台区,市庄公用照明6台区,油味公用农业23台区【纯农排变】,市庄公用照明8台区,赵家庄公用照明4台区,市庄公用照明20台区,西湖公用照明8台区,西湖公用照明9台区,西湖公用照明7台区,市庄公用照明12台区,市庄公用照明11台区,西湖公用照明11台区,赵家庄公用照明6台区,油味公用农业22台区,市庄公用照明13台区,市庄公用照明10台区,赵家庄公用照明3台区,东湖庄公用照明2台区,新立庄公用照明1台区,西湖公用照明13台区,市庄公用照明18台区,东湖庄公用照明1台区,市庄公用照明15台区,市庄公用照明19台区,西湖公用照明10台区,市庄公用照明2台区,新立庄公用照明2台区,","scope":"【影响街道/乡镇】李亲顾镇【高危重要客户】无【影响客户】西湖、新立庄、东湖庄、市庄、赵家庄、油味","startTime":"2019-09-27 15:03:46","stopDate":"2019-09-27 22:00:00","orgNo":"1340610","typeCode":"电网故障停限电","poweroffArea":"【全线路停电】停东湖庄公用照明1台区,东湖庄村东湖庄公用农业1台区,东湖庄公用照明2台区,市庄公用照明3台区,市庄公用照明9台区,市庄公用照明8台区,市庄公用照明18台区,市庄公用照明15台区,市庄公用照明2台区,市庄公用照明7台区,市庄公用照明5台区,市庄公用照明10台区,市庄公用照明12台区,市庄公用照明13台区,市庄公用照明14台区,市庄公用照明19台区,市庄公用照明17台区,市庄公用照明16台区,市庄公用照明20台区,市庄公用照明1台区,市庄公用照明4台区,市庄公用照明6台区,市庄公用照明11台区,赵家庄公用照明6台区,西湖公用照明9台区,西湖公用照明10台区,西湖公用照明12台区,西湖公用照明13台区,西湖村公用照明2台区,西湖公用照明6台区,西湖公用照明11台区,西湖社区新民居公用照明2台区,西湖村公用照明1台区,西湖村公用照明3台区,西湖社区新民居公用照明3台区,西湖社区新民居1台区,西湖村公用照明4台区,西湖村公用照明5台区,西湖公用照明8台区,西湖公用照明7台区,新立庄公用照明1台区,新立庄公用照明2台区,油味公用农业22台区,油味公用农业23台区【纯农排变】,赵家庄公用照明二台区(2),赵家庄公用照明4台区,赵家庄公用照明一台区(1),赵家庄公用照明3台区","poweroffReason":"【停电原因】由于收割机撞坏主干５１、５２号杆导致１１０ＫＶ李亲顾变电站１０ＫＶ５２２市庄线路全线停电 【变更送电】无 【发布渠道】９５５９８","powerTime":"2019-09-27 21:53:43","powerComm":"已送电","subsNo":"","lineNo":"","tgNo":"","tgName":null,"infoStatus":"1","orgName":"国网定州市供电公司","typeName":null,"infoStatusName":null,"dateDay":null,"orgNos":null,"nowTime":null,"countyName":null,"streetName":null,"villageName":null,"roadName":null,"communityName":null,"tranName":null,"sdLineName":null,"cityCode":"1340610","cityName":"国网定州市供电公司","provinceCode":null,"stopTime":"2019-09-27 22:00:00","powerType":"全部","powerOffArea":"【全线路停电】停东湖庄公用照明1台区,东湖庄村东湖庄公用农业1台区,东湖庄公用照明2台区,市庄公用照明3台区,市庄公用照明9台区,市庄公用照明8台区,市庄公用照明18台区,市庄公用照明15台区,市庄公用照明2台区,市庄公用照明7台区,市庄公用照明5台区,市庄公用照明10台区,市庄公用照明12台区,市庄公用照明13台区,市庄公用照明14台区,市庄公用照明19台区,市庄公用照明17台区,市庄公用照明16台区,市庄公用照明20台区,市庄公用照明1台区,市庄公用照明4台区,市庄公用照明6台区,市庄公用照明11台区,赵家庄公用照明6台区,西湖公用照明9台区,西湖公用照明10台区,西湖公用照明12台区,西湖公用照明13台区,西湖村公用照明2台区,西湖公用照明6台区,西湖公用照明11台区,西湖社区新民居公用照明2台区,西湖村公用照明1台区,西湖村公用照明3台区,西湖社区新民居公用照明3台区,西湖社区新民居1台区,西湖村公用照明4台区,西湖村公用照明5台区,西湖公用照明8台区,西湖公用照明7台区,新立庄公用照明1台区,新立庄公用照明2台区,油味公用农业22台区,油味公用农业23台区【纯农排变】,赵家庄公用照明二台区(2),赵家庄公用照明4台区,赵家庄公用照明一台区(1),赵家庄公用照明3台区","powerOffReason":"【停电原因】由于收割机撞坏主干５１、５２号杆导致１１０ＫＶ李亲顾变电站１０ＫＶ５２２市庄线路全线停电 【变更送电】无 【发布渠道】９５５９８","powerOffId":"2019092713000158"},{"poweroffId":2019092713000124,"sgpoweroffId":null,"subsName":"","lineName":"10kV543侯家店线","pubTranName":"侯家店公用照明5台区,侯家店公用照明3台区,侯家店公用照明6台区,侯家店公用照明4台区,","scope":"【影响街道/乡镇】息仲镇【高危重要客户】无【影响客户】侯家店","startTime":"2019-09-27 14:30:00","stopDate":"2019-09-27 18:30:00","orgNo":"1340610","typeCode":"其他临时停电","poweroffArea":"【分支停电】停侯家店公用照明5台区,侯家店公用照明3台区,侯家店公用照明6台区,侯家店公用照明4台区","poweroffReason":"【停电原因】由于电杆倾斜需停电进行紧急检修导致１１０ＫＶ庞村变电站１０ＫＶ５４３侯家店线路主干３２号杆０２号断路器以下线路停电 【变更送电】无 【发布渠道】９５５９８","powerTime":"2019-09-27 17:33:48","powerComm":"已送电","subsNo":"","lineNo":"","tgNo":"","tgName":null,"infoStatus":"1","orgName":"国网定州市供电公司","typeName":null,"infoStatusName":null,"dateDay":null,"orgNos":null,"nowTime":null,"countyName":null,"streetName":null,"villageName":null,"roadName":null,"communityName":null,"tranName":null,"sdLineName":null,"cityCode":"1340610","cityName":"国网定州市供电公司","provinceCode":null,"stopTime":"2019-09-27 18:30:00","powerType":"全部","powerOffArea":"【分支停电】停侯家店公用照明5台区,侯家店公用照明3台区,侯家店公用照明6台区,侯家店公用照明4台区","powerOffReason":"【停电原因】由于电杆倾斜需停电进行紧急检修导致１１０ＫＶ庞村变电站１０ＫＶ５４３侯家店线路主干３２号杆０２号断路器以下线路停电 【变更送电】无 【发布渠道】９５５９８","powerOffId":"2019092713000124"},{"poweroffId":2019092713000119,"sgpoweroffId":null,"subsName":"","lineName":"安庄线519","pubTranName":"大杨青庄混合2号配变,大杨青庄南混6配变,大杨青庄西南混3配变,韩庄望唐路混5,大杨青庄正北混4配变,大杨青庄混合配变,望唐路混合6号,大杨青庄东混5配变,大苏疃混5,","scope":"【影响街道/乡镇】望都镇 【高危重要客户】无　　 【影响客户】大杨青庄、韩庄村部分、大苏疃部分","startTime":"2019-10-09 06:00:00","stopDate":"2019-10-09 11:30:00","orgNo":"1340623","typeCode":"计划停电","poweroffArea":"【分支停电】停大杨青庄混合2号配变,大杨青庄南混6配变,大杨青庄西南混3配变,韩庄望唐路混5,大杨青庄正北混4配变,大杨青庄混合配变,望唐路混合6号,大杨青庄东混5配变,大苏疃混5","poweroffReason":"【停电原因】由于拆除电杆导致１１０ＫＶ西堤变电站安庄线５１９线路５１９１号开关至５１９２号开关间线路停电 【变更送电】因工作提前完工原因，送电时间由１３：００变更为１１：３０ 【发布渠道】保定市望都有线电视台（10月08日19时00分至20时00分之间）屏幕上方滚动","powerTime":"2019-10-09 10:57:41","powerComm":"已送电","subsNo":"","lineNo":"","tgNo":"","tgName":null,"infoStatus":"1","orgName":"国网望都县供电公司","typeName":null,"infoStatusName":null,"dateDay":null,"orgNos":null,"nowTime":null,"countyName":null,"streetName":null,"villageName":null,"roadName":null,"communityName":null,"tranName":null,"sdLineName":null,"cityCode":"1340623","cityName":"国网望都县供电公司","provinceCode":null,"stopTime":"2019-10-09 11:30:00","powerType":"全部","powerOffArea":"【分支停电】停大杨青庄混合2号配变,大杨青庄南混6配变,大杨青庄西南混3配变,韩庄望唐路混5,大杨青庄正北混4配变,大杨青庄混合配变,望唐路混合6号,大杨青庄东混5配变,大苏疃混5","powerOffReason":"【停电原因】由于拆除电杆导致１１０ＫＶ西堤变电站安庄线５１９线路５１９１号开关至５１９２号开关间线路停电 【变更送电】因工作提前完工原因，送电时间由１３：００变更为１１：３０ 【发布渠道】保定市望都有线电视台（10月08日19时00分至20时00分之间）屏幕上方滚动","powerOffId":"2019092713000119"}],"pageModel":{"pageNow":542,"totalCount":10973,"totalPage":1098,"tableRows":0,"pageCount":10,"beginCount":5410},"isExperi":"1"}