{"message":"","today":"2020-06-15","seleList":[{"poweroffId":2019092613000096,"sgpoweroffId":null,"subsName":"","lineName":"旧城线540","pubTranName":"旧城东街综合,旧城新增10号综合,02071|旧城东街7台区综合,02028|旧城东街台区2农业【纯农排变】,旧城市场南,02050|旧城村东53综合,旧城西街口新增综合,旧城市场,02011|旧城村里4综合,旧城北街新增,02049|旧城南10综合,旧城1号农业新增变压器,02051|旧城村西54综合,02012|旧城乡院13综合,旧城公路南56新增变压器,旧城中学新增综合,02027|旧城公路西55综合,","scope":"【影响街道/乡镇】庞口镇、高阳镇、小王果庄乡 【高危重要客户】无 【影响客户】旧城村部分用户","startTime":"2019-10-17 05:00:00","stopDate":"2019-10-17 10:30:00","orgNo":"1340613","typeCode":"计划停电","poweroffArea":"【分支停电】停旧城北街新增,旧城西面粉厂,恒利面粉厂,旧城王横子,旧城东街综合,旧城村西10#农排【纯农排变】,旧城拔丝厂,旧城供电所,博力毛巾厂,高阳县进军纸箱厂变压器,旧城1#农排【纯农排变】,旧城毛巾厂,中国联合网络通信有限公司高阳县分公司变压器,张云飞配件厂,旧城医院,旧城中学,旧城新增10号综合,02071|旧城东街7台区综合,02028|旧城东街台区2农业【纯农排变】,河北省高阳县普慧寺变压器,张杰,旧城市场南,02050|旧城村东53综合,旧城冷冻厂,市厂南拔丝厂,旧城田露,旧城西街口新增综合,旧城市场,旧城带锯厂,高阳县永发农厂,02011|旧城村里4综合,旧城公路南56新增变压器,旧城新增13#农排【纯农排变】,华阳纸业有限公司,大鹰日用品有限公司,旧城村东南12#农排【纯农排变】,02049|旧城南10综合,旧城1号农业新增变压器,旧城秋生纸箱厂,02051|旧城村西54综合,高阳县安信塑料管件厂变压器,旧城桑园11#农排【纯农排变】,02012|旧城乡院13综合,旧城新增6#农排【纯农排变】,旧城红星纸箱厂,乡院拔丝厂,乡院纸箱厂,旧城中学新增综合,河北嘉丰食品有限公司变压器,02027|旧城公路西55综合","poweroffReason":"【停电原因】由于秋季检修导致１１０ＫＶ旧城变电站旧城５４０线路工业区分支６号杆６号开关以下线路停电【变更送电】因抢修进度加快原因，送电时间由１１：３０变更为１０：３０【发布渠道】高阳县电视台（９月２７日１９时至２１时之间）屏幕下方滚动播出","powerTime":"2019-10-17 09:53:26","powerComm":"已送电","subsNo":"","lineNo":"","tgNo":"","tgName":null,"infoStatus":"1","orgName":"国网高阳县供电公司","typeName":null,"infoStatusName":null,"dateDay":null,"orgNos":null,"nowTime":null,"countyName":null,"streetName":null,"villageName":null,"roadName":null,"communityName":null,"tranName":null,"sdLineName":null,"cityCode":"1340613","cityName":"国网高阳县供电公司","provinceCode":null,"stopTime":"2019-10-17 10:30:00","powerType":"全部","powerOffArea":"【分支停电】停旧城北街新增,旧城西面粉厂,恒利面粉厂,旧城王横子,旧城东街综合,旧城村西10#农排【纯农排变】,旧城拔丝厂,旧城供电所,博力毛巾厂,高阳县进军纸箱厂变压器,旧城1#农排【纯农排变】,旧城毛巾厂,中国联合网络通信有限公司高阳县分公司变压器,张云飞配件厂,旧城医院,旧城中学,旧城新增10号综合,02071|旧城东街7台区综合,02028|旧城东街台区2农业【纯农排变】,河北省高阳县普慧寺变压器,张杰,旧城市场南,02050|旧城村东53综合,旧城冷冻厂,市厂南拔丝厂,旧城田露,旧城西街口新增综合,旧城市场,旧城带锯厂,高阳县永发农厂,02011|旧城村里4综合,旧城公路南56新增变压器,旧城新增13#农排【纯农排变】,华阳纸业有限公司,大鹰日用品有限公司,旧城村东南12#农排【纯农排变】,02049|旧城南10综合,旧城1号农业新增变压器,旧城秋生纸箱厂,02051|旧城村西54综合,高阳县安信塑料管件厂变压器,旧城桑园11#农排【纯农排变】,02012|旧城乡院13综合,旧城新增6#农排【纯农排变】,旧城红星纸箱厂,乡院拔丝厂,乡院纸箱厂,旧城中学新增综合,河北嘉丰食品有限公司变压器,02027|旧城公路西55综合","powerOffReason":"【停电原因】由于秋季检修导致１１０ＫＶ旧城变电站旧城５４０线路工业区分支６号杆６号开关以下线路停电【变更送电】因抢修进度加快原因，送电时间由１１：３０变更为１０：３０【发布渠道】高阳县电视台（９月２７日１９时至２１时之间）屏幕下方滚动播出","powerOffId":"2019092613000096"},{"poweroffId":2019092613000088,"sgpoweroffId":null,"subsName":"","lineName":"邢南线533","pubTranName":"07070|六合庄综合1846,07072|六合庄三和道综合4219,0733|六合庄10#村南新增综合,070697242|六合庄荣仪综合6#4694,0734|六合庄11#村西南新增综合,0735|六合庄12#村西北新增综合,07071|六合庄村西北综合1817,何庄村东新增综合,07041|何庄大队综合4816,0732|六合庄9#村南西头综合,070697241|六合庄村西5#综合5693,六合庄村西新增综合,六合屯村东北新增综合,","scope":"【影响街道/乡镇】邢南乡 【高危重要客户】无 【影响客户】邢南村西、六合庄、六合屯村西南、何庄","startTime":"2019-10-16 07:00:00","stopDate":"2019-10-16 12:00:00","orgNo":"1340613","typeCode":"计划停电","poweroffArea":"【分支停电】停陈红乐,李向辉毛巾厂,07070|六合庄综合1846,高阳县邢家南镇西何家庄村村民委员会一变压器,07072|六合庄三和道综合4219,070012|六合庄农排3#4972【纯农排变】,07137|何庄农排3#4749【纯农排变】,0733|六合庄10#村南新增综合,振亚毛纺厂,景芳毛巾厂,070697242|六合庄荣仪综合6#4694,0734|六合庄11#村西南新增综合,高阳县亮标纺织厂减容,0735|六合庄12#村西北新增综合,07071|六合庄村西北综合1817,070011|六合庄农排4#4973【纯农排变】,宏志毛巾厂,高阳县佳圆利纺织品有限公司,何庄村东新增综合,07136|何庄农排1#4747【纯农排变】,07041|何庄大队综合4816,张四代,0732|六合庄9#村南西头综合,高阳县邢家南镇邢家南村村民委员会三变压器,070697241|六合庄村西5#综合5693,六合庄村西新增综合,07135|何庄农排2#4748【纯农排变】,高阳县邢家南镇西何家庄村村民委员会二变压器,六合屯村东北新增综合","poweroffReason":"【停电原因】由于安装拉线导致２２０ＫＶ高阳变电站邢南５３３线路主线５号杆５号开关以下停电【变更送电】因抢修进度加快原因，送电时间由１４：００变更为１２：００【发布渠道】高阳县电视台（９月２７日１９时至２１时之间）屏幕下方滚动播出","powerTime":"2019-10-16 11:41:29","powerComm":"已送电","subsNo":"","lineNo":"","tgNo":"","tgName":null,"infoStatus":"1","orgName":"国网高阳县供电公司","typeName":null,"infoStatusName":null,"dateDay":null,"orgNos":null,"nowTime":null,"countyName":null,"streetName":null,"villageName":null,"roadName":null,"communityName":null,"tranName":null,"sdLineName":null,"cityCode":"1340613","cityName":"国网高阳县供电公司","provinceCode":null,"stopTime":"2019-10-16 12:00:00","powerType":"全部","powerOffArea":"【分支停电】停陈红乐,李向辉毛巾厂,07070|六合庄综合1846,高阳县邢家南镇西何家庄村村民委员会一变压器,07072|六合庄三和道综合4219,070012|六合庄农排3#4972【纯农排变】,07137|何庄农排3#4749【纯农排变】,0733|六合庄10#村南新增综合,振亚毛纺厂,景芳毛巾厂,070697242|六合庄荣仪综合6#4694,0734|六合庄11#村西南新增综合,高阳县亮标纺织厂减容,0735|六合庄12#村西北新增综合,07071|六合庄村西北综合1817,070011|六合庄农排4#4973【纯农排变】,宏志毛巾厂,高阳县佳圆利纺织品有限公司,何庄村东新增综合,07136|何庄农排1#4747【纯农排变】,07041|何庄大队综合4816,张四代,0732|六合庄9#村南西头综合,高阳县邢家南镇邢家南村村民委员会三变压器,070697241|六合庄村西5#综合5693,六合庄村西新增综合,07135|何庄农排2#4748【纯农排变】,高阳县邢家南镇西何家庄村村民委员会二变压器,六合屯村东北新增综合","powerOffReason":"【停电原因】由于安装拉线导致２２０ＫＶ高阳变电站邢南５３３线路主线５号杆５号开关以下停电【变更送电】因抢修进度加快原因，送电时间由１４：００变更为１２：００【发布渠道】高阳县电视台（９月２７日１９时至２１时之间）屏幕下方滚动播出","powerOffId":"2019092613000088"},{"poweroffId":2019092613000070,"sgpoweroffId":null,"subsName":"","lineName":"钻床厂线528","pubTranName":"10080|迎宾路西关小区综合,建筑公司家属楼,10009|运西配变综合,环保局,靳伯欣,上林苑小区2号变压器,林业局,客户投资_高阳县正阳现代城2号综合出线配电变压器,中国银行股份有限公司保定分行变压器,10038|企业局综合,客户投资_上林苑7号综合箱变中压出线配电变压器,客户投资_上林苑4号综合出线配电变压器,客户投资_高阳县正阳现代城3号综合出线配电变压器,客户投资_上林苑9号综合箱变中压出线配电变压器,中国银行,上林苑小区变压器,赵树奎(阳城酒店),人民银行,10094|运输公司综合,高阳县邮电小区,朝阳毛纺厂,朝阳路路灯1号,中国银行家属院,信用社变压器,客户投资_上林苑5号综合箱变中压出线配电变压器,SQ邮局小区2#综合,10090|邓联营综合,工商局2号变压器,农业发展银行,10067|邮政局生活小区综合,【综合】上林苑３号综合,10092|建筑公司综合,高阳县云之尚宾馆变压器,上林苑小区1号变压器,客户投资_上林苑10号综合出线配电变压器,张新民,李安振,10073|人行家属院综合,10006|运西东配变综合,钻床厂家属院,唐国东,客户投资_上林苑8号综合箱变中压出线配电变压器,高阳县正阳现代城四号变压器,","scope":"【影响街道/乡镇】高阳镇、迎宾路 【高危重要客户】无 【影响客户】运西小区、邓联营小区、中国银行家属院、中国银行、正阳现代城部分、建筑公司小区、迎宾路西关小区、运输公司小区、邮局小区、中国邮政高阳分公司、建筑公司家属楼、农村信用社、人行家属院、企业局小区、上林苑部分、环保局、人民银行、农业发展银行、林业局","startTime":"2019-10-13 05:30:00","stopDate":"2019-10-13 11:00:00","orgNo":"1340613","typeCode":"计划停电","poweroffArea":"【全线路停电】停10080|迎宾路西关小区综合,建筑公司家属楼,10009|运西配变综合,环保局,靳伯欣,上林苑小区2号变压器,林业局,客户投资_高阳县正阳现代城2号综合出线配电变压器,中国银行股份有限公司保定分行变压器,10038|企业局综合,客户投资_上林苑7号综合箱变中压出线配电变压器,客户投资_上林苑4号综合出线配电变压器,客户投资_上林苑8号综合箱变中压出线配电变压器,高阳县正阳现代城四号变压器,客户投资_上林苑5号综合箱变中压出线配电变压器,SQ邮局小区2#综合,10090|邓联营综合,工商局2号变压器,农业发展银行,10067|邮政局生活小区综合,【综合】上林苑３号综合,10092|建筑公司综合,高阳县云之尚宾馆变压器,上林苑小区1号变压器,客户投资_上林苑10号综合出线配电变压器,张新民,李安振,10073|人行家属院综合,客户投资_高阳县正阳现代城3号综合出线配电变压器,客户投资_上林苑9号综合箱变中压出线配电变压器,中国银行,上林苑小区变压器,赵树奎(阳城酒店),人民银行,10094|运输公司综合,高阳县邮电小区,朝阳毛纺厂,朝阳路路灯1号,中国银行家属院,信用社变压器,10006|运西东配变综合,钻床厂家属院,唐国东","poweroffReason":"【停电原因】由于消缺导致１１０ＫＶ沙窝变电站钻床厂５２８线路全线停电【变更送电】无【发布渠道】高阳县电视台（９月２７日１９时至２１时之间）屏幕下方滚动播出","powerTime":"2019-10-13 10:46:00","powerComm":"已送电","subsNo":"","lineNo":"","tgNo":"","tgName":null,"infoStatus":"1","orgName":"国网高阳县供电公司","typeName":null,"infoStatusName":null,"dateDay":null,"orgNos":null,"nowTime":null,"countyName":null,"streetName":null,"villageName":null,"roadName":null,"communityName":null,"tranName":null,"sdLineName":null,"cityCode":"1340613","cityName":"国网高阳县供电公司","provinceCode":null,"stopTime":"2019-10-13 11:00:00","powerType":"全部","powerOffArea":"【全线路停电】停10080|迎宾路西关小区综合,建筑公司家属楼,10009|运西配变综合,环保局,靳伯欣,上林苑小区2号变压器,林业局,客户投资_高阳县正阳现代城2号综合出线配电变压器,中国银行股份有限公司保定分行变压器,10038|企业局综合,客户投资_上林苑7号综合箱变中压出线配电变压器,客户投资_上林苑4号综合出线配电变压器,客户投资_上林苑8号综合箱变中压出线配电变压器,高阳县正阳现代城四号变压器,客户投资_上林苑5号综合箱变中压出线配电变压器,SQ邮局小区2#综合,10090|邓联营综合,工商局2号变压器,农业发展银行,10067|邮政局生活小区综合,【综合】上林苑３号综合,10092|建筑公司综合,高阳县云之尚宾馆变压器,上林苑小区1号变压器,客户投资_上林苑10号综合出线配电变压器,张新民,李安振,10073|人行家属院综合,客户投资_高阳县正阳现代城3号综合出线配电变压器,客户投资_上林苑9号综合箱变中压出线配电变压器,中国银行,上林苑小区变压器,赵树奎(阳城酒店),人民银行,10094|运输公司综合,高阳县邮电小区,朝阳毛纺厂,朝阳路路灯1号,中国银行家属院,信用社变压器,10006|运西东配变综合,钻床厂家属院,唐国东","powerOffReason":"【停电原因】由于消缺导致１１０ＫＶ沙窝变电站钻床厂５２８线路全线停电【变更送电】无【发布渠道】高阳县电视台（９月２７日１９时至２１时之间）屏幕下方滚动播出","powerOffId":"2019092613000070"},{"poweroffId":2019092613000063,"sgpoweroffId":null,"subsName":"","lineName":"毛巾厂线524","pubTranName":"客户投资_SQ现代城小区4#中压出线配电变压器,东王3#西街口综合,客户投资_SQ现代城小区2#箱变配变配电变压器,东王4#敬老院综合,客户投资_高阳县太和风景3号综合箱变配变配电变压器,客户投资_SQ现代城二期中综合出线配电变压器,客户投资_SQ现代城二期南综合出线配电变压器,客户投资_高阳县太和风景2号综合箱变配变配电变压器,客户投资_SQ现代城二期北综合出线配电变压器,东王1#东北综合,10106|迎宾路东王小区综合,","scope":"【影响街道/乡镇】迎宾路、现代城大街、建新路 【高危重要客户】无 【影响客户】现代城小区部分、东王村部分、东王小区（迎宾路）、太和风景部分、金色家园部分、振华酒店、保定冀中动物保健品有限公司、正阳医院、河北春润建筑安装工程有限公司、超限超载检测站","startTime":"2019-10-13 05:30:00","stopDate":"2019-10-13 11:00:00","orgNo":"1340613","typeCode":"计划停电","poweroffArea":"【全线路停电】停客户投资_SQ现代城二期南综合出线配电变压器,柴新泽,田月然,客户投资_SQ现代城二期中综合出线配电变压器,东王4#敬老院综合,齐凤英,河北长润房地产开发有限公司变压器,兴华毛巾厂,高阳县振华毛纺织有限公司变压器,高阳县太和风景五号变压器,客户投资_SQ现代城小区4#中压出线配电变压器,中硕织业有限公司,东王3#西街口综合,河北田强纺织品有限责任公司变压器,客户投资_高阳县太和风景3号综合箱变配变配电变压器,高阳县咏春纺织品有限公司,崔大普毛巾厂,客户投资_高阳县太和风景2号综合箱变配变配电变压器,赵继同,保定优漫纺织品制造有限公司变压器,河北田强纺织有限责任公司变压器,客户投资_SQ现代城二期北综合出线配电变压器,光达绿洲科技公司,东王1#东北综合,10106|迎宾路东王小区综合,高阳安康医院变压器,东王大队西北大方,常萌,张长贺(金鑫),河北长润房地产开发有限公司设备,保定冀中动物保健品有限公司,客户投资_SQ现代城小区2#箱变配变配电变压器","poweroffReason":"【停电原因】由于消缺导致１１０ＫＶ沙窝变电站毛巾厂５２４线路全线停电【变更送电】无【发布渠道】高阳县电视台（９月２７日１９时至２１时之间）屏幕下方滚动播出","powerTime":"2019-10-13 10:46:41","powerComm":"已送电","subsNo":"","lineNo":"","tgNo":"","tgName":null,"infoStatus":"1","orgName":"国网高阳县供电公司","typeName":null,"infoStatusName":null,"dateDay":null,"orgNos":null,"nowTime":null,"countyName":null,"streetName":null,"villageName":null,"roadName":null,"communityName":null,"tranName":null,"sdLineName":null,"cityCode":"1340613","cityName":"国网高阳县供电公司","provinceCode":null,"stopTime":"2019-10-13 11:00:00","powerType":"全部","powerOffArea":"【全线路停电】停客户投资_SQ现代城二期南综合出线配电变压器,柴新泽,田月然,客户投资_SQ现代城二期中综合出线配电变压器,东王4#敬老院综合,齐凤英,河北长润房地产开发有限公司变压器,兴华毛巾厂,高阳县振华毛纺织有限公司变压器,高阳县太和风景五号变压器,客户投资_SQ现代城小区4#中压出线配电变压器,中硕织业有限公司,东王3#西街口综合,河北田强纺织品有限责任公司变压器,客户投资_高阳县太和风景3号综合箱变配变配电变压器,高阳县咏春纺织品有限公司,崔大普毛巾厂,客户投资_高阳县太和风景2号综合箱变配变配电变压器,赵继同,保定优漫纺织品制造有限公司变压器,河北田强纺织有限责任公司变压器,客户投资_SQ现代城二期北综合出线配电变压器,光达绿洲科技公司,东王1#东北综合,10106|迎宾路东王小区综合,高阳安康医院变压器,东王大队西北大方,常萌,张长贺(金鑫),河北长润房地产开发有限公司设备,保定冀中动物保健品有限公司,客户投资_SQ现代城小区2#箱变配变配电变压器","powerOffReason":"【停电原因】由于消缺导致１１０ＫＶ沙窝变电站毛巾厂５２４线路全线停电【变更送电】无【发布渠道】高阳县电视台（９月２７日１９时至２１时之间）屏幕下方滚动播出","powerOffId":"2019092613000063"},{"poweroffId":2019092613000061,"sgpoweroffId":null,"subsName":"","lineName":"10kV朝阳路站538线路","pubTranName":"0356282293-保定广电传媒有限公司-专变,0594265032-保定火车站改扩建工程建设办公室-1#专变,0356300377-保定有线广播电视台-3#专变,0594265032-保定火车站改扩建工程建设办公室-2#专变,0356220611-保定市财政局-专变,0356238560-保定市新市区九地物业管理部-专变,","scope":"【影响街道/乡镇】朝阳路 【高危重要客户】无 【影响客户】西大园、大世界广场南侧","startTime":"2019-10-17 02:00:00","stopDate":"2019-10-17 22:00:00","orgNo":"13406","typeCode":"计划停电","poweroffArea":"【全线路停电】停0594265032-保定火车站改扩建工程建设办公室-1#专变,0594265032-保定火车站改扩建工程建设办公室-2#专变,0356220611-保定市财政局-专变,0356238560-保定市新市区九地物业管理部-专变,0356282293-保定广电传媒有限公司-专变,0356300377-保定有线广播电视台-3#专变","poweroffReason":"【停电原因】因配合市政府乐凯大街南延工程建设导致１０ＫＶ朝阳路变电站５３８线路全线停电【变更送电】无【发布渠道】保定市保定有线电视台（１０月０９日２０时１５分至２１时４５分之间）屏幕上滚动","powerTime":"2019-10-17 21:54:13","powerComm":"已送电","subsNo":"","lineNo":"","tgNo":"","tgName":null,"infoStatus":"1","orgName":"保定供电公司","typeName":null,"infoStatusName":null,"dateDay":null,"orgNos":null,"nowTime":null,"countyName":null,"streetName":null,"villageName":null,"roadName":null,"communityName":null,"tranName":null,"sdLineName":null,"cityCode":"13406","cityName":"保定供电公司","provinceCode":null,"stopTime":"2019-10-17 22:00:00","powerType":"全部","powerOffArea":"【全线路停电】停0594265032-保定火车站改扩建工程建设办公室-1#专变,0594265032-保定火车站改扩建工程建设办公室-2#专变,0356220611-保定市财政局-专变,0356238560-保定市新市区九地物业管理部-专变,0356282293-保定广电传媒有限公司-专变,0356300377-保定有线广播电视台-3#专变","powerOffReason":"【停电原因】因配合市政府乐凯大街南延工程建设导致１０ＫＶ朝阳路变电站５３８线路全线停电【变更送电】无【发布渠道】保定市保定有线电视台（１０月０９日２０时１５分至２１时４５分之间）屏幕上滚动","powerOffId":"2019092613000061"},{"poweroffId":2019092613000047,"sgpoweroffId":null,"subsName":"","lineName":"10kV朝阳路站523线路","pubTranName":"B499柱上变压器,B1483柱上变压器,B995柱上变压器,B1230柱上变压器,B1642柱上变压器,10kVB403配电室B403配电变压器,10kVY0065.Y0066配电室Y0065配电变压器,10kVY0065.Y0066配电室Y0066配电变压器,B484柱上变压器,10kVB1418配电室B1418配电变压器,B1318柱上变压器,B851柱上变压器,","scope":"【影响街道/乡镇】德惠路、朝阳路、朝阳南大街 【高危重要客户】无 【影响客户】农业局宿舍、文澜阁小区、农专统计局宿舍、省建六公司、外贸小区、院林业局灵雨寺村、粮局宿舍、铁路农专机务段楼、农专北院购销公司","startTime":"2019-10-17 02:00:00","stopDate":"2019-10-17 22:00:00","orgNo":"13406","typeCode":"计划停电","poweroffArea":"【全线路停电】停0358021766-保定职业技术学院-2#专变,0356344719-保定市路灯管理处-专变,0356183251-联通公司-1-配电室-变压器-1,B1483柱上变压器,B851柱上变压器,B484柱上变压器,10kVB1418配电室B1418配电变压器,0356223421-河北保定市机电设备厂-1-配电室-变压器-1,B1642柱上变压器,0356237570-老槐树餐厅-专变,0356184759-保定职业技术学院-专变,0597335224-保定市盛泰房地产开发有限公司-2#专变,0356523925-保定市交通局-1#专变,B499柱上变压器,0556539548-保定市兴和交通物业服务有限公司-1#专变,0356288174-保定市北方房地产开发公司-专变,0356337720-保定市路灯管理处-专变,B995柱上变压器,0356189132-保定市农业局-专变,0554342814-保定市金阳房地产开发有限公司-1#专变,10kVB403配电室B403配电变压器,B1230柱上变压器,0356189161-地区外贸-专变,0356189103-康诚商贸有限公司-专变,0356232474-保定市盛泰房地产开发有限公司-专变,0356189129-省四建六分公司-专变,0356176321-地区林业局宿舍-专变,10kVY0065.Y0066配电室Y0066配电变压器,0358021766-保定职业技术学院-1#专变,0597335224-保定市盛泰房地产开发有限公司-1#专变,B1318柱上变压器,0617858230-亢龙集团博龙正方物业服务有限公司-专变-128642032-变压器,0611206017-保定市人民政府保定火车站改扩建拆迁指挥部-1#专变,0611206017-保定市人民政府保定火车站改扩建拆迁指挥部-2#专变,10kVY0065.Y0066配电室Y0065配电变压器,0356311300-保定市建银物业有限公司-1#专变","poweroffReason":"【停电原因】因配合市政府乐凯大街南延工程建设导致１０ＫＶ朝阳路变电站５２３线路全线停电【变更送电】无【发布渠道】保定市保定有线电视台（１０月０９日２０时１５分至２１时４５分之间）屏幕上滚动","powerTime":"2019-10-17 21:57:01","powerComm":"已送电","subsNo":"","lineNo":"","tgNo":"","tgName":null,"infoStatus":"1","orgName":"保定供电公司","typeName":null,"infoStatusName":null,"dateDay":null,"orgNos":null,"nowTime":null,"countyName":null,"streetName":null,"villageName":null,"roadName":null,"communityName":null,"tranName":null,"sdLineName":null,"cityCode":"13406","cityName":"保定供电公司","provinceCode":null,"stopTime":"2019-10-17 22:00:00","powerType":"全部","powerOffArea":"【全线路停电】停0358021766-保定职业技术学院-2#专变,0356344719-保定市路灯管理处-专变,0356183251-联通公司-1-配电室-变压器-1,B1483柱上变压器,B851柱上变压器,B484柱上变压器,10kVB1418配电室B1418配电变压器,0356223421-河北保定市机电设备厂-1-配电室-变压器-1,B1642柱上变压器,0356237570-老槐树餐厅-专变,0356184759-保定职业技术学院-专变,0597335224-保定市盛泰房地产开发有限公司-2#专变,0356523925-保定市交通局-1#专变,B499柱上变压器,0556539548-保定市兴和交通物业服务有限公司-1#专变,0356288174-保定市北方房地产开发公司-专变,0356337720-保定市路灯管理处-专变,B995柱上变压器,0356189132-保定市农业局-专变,0554342814-保定市金阳房地产开发有限公司-1#专变,10kVB403配电室B403配电变压器,B1230柱上变压器,0356189161-地区外贸-专变,0356189103-康诚商贸有限公司-专变,0356232474-保定市盛泰房地产开发有限公司-专变,0356189129-省四建六分公司-专变,0356176321-地区林业局宿舍-专变,10kVY0065.Y0066配电室Y0066配电变压器,0358021766-保定职业技术学院-1#专变,0597335224-保定市盛泰房地产开发有限公司-1#专变,B1318柱上变压器,0617858230-亢龙集团博龙正方物业服务有限公司-专变-128642032-变压器,0611206017-保定市人民政府保定火车站改扩建拆迁指挥部-1#专变,0611206017-保定市人民政府保定火车站改扩建拆迁指挥部-2#专变,10kVY0065.Y0066配电室Y0065配电变压器,0356311300-保定市建银物业有限公司-1#专变","powerOffReason":"【停电原因】因配合市政府乐凯大街南延工程建设导致１０ＫＶ朝阳路变电站５２３线路全线停电【变更送电】无【发布渠道】保定市保定有线电视台（１０月０９日２０时１５分至２１时４５分之间）屏幕上滚动","powerOffId":"2019092613000047"},{"poweroffId":2019092613000044,"sgpoweroffId":null,"subsName":"","lineName":"10kV朝阳路站585线路","pubTranName":"10kVZ0078.Z0079.Z0080配电室Z0080配电变压器,10kVY0322.Y0323配电室Y0323配电变压器,10kVY0320.Y0321.Z0081配电室Y0320配电变压器,10kVY0320.Y0321.Z0081配电室Z0081配电变压器,10kVZ0078.Z0079.Z0080配电室Z0079配电变压器,10kVY0320.Y0321.Z0081配电室Y0321配电变压器,10kVZ0078.Z0079.Z0080配电室Z0078配电变压器,10kVY0322.Y0323配电室Y0322配电变压器,","scope":"【影响街道/乡镇】百花东路 【高危重要客户】无 【影响客户】西大园片区小区","startTime":"2019-10-17 02:00:00","stopDate":"2019-10-17 22:00:00","orgNo":"13406","typeCode":"计划停电","poweroffArea":"【全线路停电】停变压器,10kVZ0078.Z0079.Z0080配电室Z0080配电变压器,10kVY0322.Y0323配电室Y0323配电变压器,10kVY0320.Y0321.Z0081配电室Y0320配电变压器,10kVY0320.Y0321.Z0081配电室Z0081配电变压器,10kVZ0078.Z0079.Z0080配电室Z0079配电变压器,10kVY0320.Y0321.Z0081配电室Y0321配电变压器,10kVZ0078.Z0079.Z0080配电室Z0078配电变压器,10kVY0322.Y0323配电室Y0322配电变压器","poweroffReason":"【停电原因】因配合市政府乐凯大街南延工程建设导致１０ＫＶ朝阳路变电站５８５线路全线停电【变更送电】无【发布渠道】保定市保定有线电视台（１０月０９日２０时１５分至２１时４５分之间）屏幕上滚动","powerTime":"2019-10-17 21:59:33","powerComm":"已送电","subsNo":"","lineNo":"","tgNo":"","tgName":null,"infoStatus":"1","orgName":"保定供电公司","typeName":null,"infoStatusName":null,"dateDay":null,"orgNos":null,"nowTime":null,"countyName":null,"streetName":null,"villageName":null,"roadName":null,"communityName":null,"tranName":null,"sdLineName":null,"cityCode":"13406","cityName":"保定供电公司","provinceCode":null,"stopTime":"2019-10-17 22:00:00","powerType":"全部","powerOffArea":"【全线路停电】停变压器,10kVZ0078.Z0079.Z0080配电室Z0080配电变压器,10kVY0322.Y0323配电室Y0323配电变压器,10kVY0320.Y0321.Z0081配电室Y0320配电变压器,10kVY0320.Y0321.Z0081配电室Z0081配电变压器,10kVZ0078.Z0079.Z0080配电室Z0079配电变压器,10kVY0320.Y0321.Z0081配电室Y0321配电变压器,10kVZ0078.Z0079.Z0080配电室Z0078配电变压器,10kVY0322.Y0323配电室Y0322配电变压器","powerOffReason":"【停电原因】因配合市政府乐凯大街南延工程建设导致１０ＫＶ朝阳路变电站５８５线路全线停电【变更送电】无【发布渠道】保定市保定有线电视台（１０月０９日２０时１５分至２１时４５分之间）屏幕上滚动","powerOffId":"2019092613000044"},{"poweroffId":2019092613000043,"sgpoweroffId":null,"subsName":"","lineName":"10kV朝阳路站513线路","pubTranName":"B1695柱上变压器,10kVB734配电室B734配电变压器,B344柱上变压器,B441柱上变压器,10kVB1407配电室B1407配电变压器,10kVB1059.B1058箱式变电站B1059配电变压器,B1824柱上变压器,10kVB914配电室B914配电变压器,10kVB913配电室B913配电变压器,10kVB915配电室B915配电变压器,10kVY0073箱式变电站Y0073配电变压器,B1825柱上变压器,10kVB1059.B1058箱式变电站B1058配电变压器,","scope":"【影响街道/乡镇】向阳大街、德惠路 【高危重要客户】无 【影响客户】阳光佳苑、向阳大街花园里教委宿舍、鑫盛电子宿舍、花园里南小房、德惠路南基地小区、燃气公司宿舍、向阳家园","startTime":"2019-10-17 02:00:00","stopDate":"2019-10-17 22:00:00","orgNo":"13406","typeCode":"计划停电","poweroffArea":"【全线路停电】停0356413875-保定市路灯管理处-1-箱式变-变压器-1,0356232689-保定市锦里星悦酒店管理有限公司-专变-147957187-变压器,10kVB913配电室B913配电变压器,B1695柱上变压器,B441柱上变压器,10kVB914配电室B914配电变压器,0356232722-中国人民解放军河北省保定军分区-专变,0356288624-保定新奥燃气有限公司-1-配电室-变压器-1,10kVB1407配电室B1407配电变压器,10kVB915配电室B915配电变压器,10kVB1059.B1058箱式变电站B1059配电变压器,B1824柱上变压器,0356290269-花园里美食乡-1-配电室-变压器-1,10kVY0073箱式变电站Y0073配电变压器,10kVB734配电室B734配电变压器,B1825柱上变压器,B344柱上变压器,10kVB1059.B1058箱式变电站B1058配电变压器,0356413888-保定市路灯管理处-1-箱式变-变压器-1,0363989022-保定市慧泽园餐饮服务有限公司-专变,0356232676-河北保塑集团有限公司-1-配电室-变压器-1","poweroffReason":"【停电原因】因配合市政府乐凯大街南延工程建设导致１０ＫＶ朝阳路变电站５１３线路全线停电【变更送电】无【发布渠道】保定市保定有线电视台（１０月０９日２０时１５分至２１时４５分之间）屏幕上滚动","powerTime":"2019-10-17 21:57:14","powerComm":"已送电","subsNo":"","lineNo":"","tgNo":"","tgName":null,"infoStatus":"1","orgName":"保定供电公司","typeName":null,"infoStatusName":null,"dateDay":null,"orgNos":null,"nowTime":null,"countyName":null,"streetName":null,"villageName":null,"roadName":null,"communityName":null,"tranName":null,"sdLineName":null,"cityCode":"13406","cityName":"保定供电公司","provinceCode":null,"stopTime":"2019-10-17 22:00:00","powerType":"全部","powerOffArea":"【全线路停电】停0356413875-保定市路灯管理处-1-箱式变-变压器-1,0356232689-保定市锦里星悦酒店管理有限公司-专变-147957187-变压器,10kVB913配电室B913配电变压器,B1695柱上变压器,B441柱上变压器,10kVB914配电室B914配电变压器,0356232722-中国人民解放军河北省保定军分区-专变,0356288624-保定新奥燃气有限公司-1-配电室-变压器-1,10kVB1407配电室B1407配电变压器,10kVB915配电室B915配电变压器,10kVB1059.B1058箱式变电站B1059配电变压器,B1824柱上变压器,0356290269-花园里美食乡-1-配电室-变压器-1,10kVY0073箱式变电站Y0073配电变压器,10kVB734配电室B734配电变压器,B1825柱上变压器,B344柱上变压器,10kVB1059.B1058箱式变电站B1058配电变压器,0356413888-保定市路灯管理处-1-箱式变-变压器-1,0363989022-保定市慧泽园餐饮服务有限公司-专变,0356232676-河北保塑集团有限公司-1-配电室-变压器-1","powerOffReason":"【停电原因】因配合市政府乐凯大街南延工程建设导致１０ＫＶ朝阳路变电站５１３线路全线停电【变更送电】无【发布渠道】保定市保定有线电视台（１０月０９日２０时１５分至２１时４５分之间）屏幕上滚动","powerOffId":"2019092613000043"},{"poweroffId":2019092613000042,"sgpoweroffId":null,"subsName":"","lineName":"10kV朝阳路站517线路","pubTranName":"10kVY0289.Y0290配电室Y0290配电变压器,10kVY0289.Y0290配电室Y0289配电变压器,B390柱上变压器,","scope":"【影响街道/乡镇】灵雨寺街、桥口街、朝阳南路 【高危重要客户】无 【影响客户】亢龙盛景、灵雨寺村","startTime":"2019-10-17 02:00:00","stopDate":"2019-10-17 22:00:00","orgNo":"13406","typeCode":"计划停电","poweroffArea":"【全线路停电】停0358021766-保定职业技术学院-2#专变,0356172954-保定市冶炼厂-专变,B390柱上变压器,0356341534-保定市路灯管理处-专变,0356523925-保定市交通局-2#专变,0627313183-河北广厦物业服务有限公司-专变-139257731-变压器,10kVY0289.Y0290配电室Y0290配电变压器,10kVY0289.Y0290配电室Y0289配电变压器","poweroffReason":"【停电原因】因配合市政府乐凯大街南延工程建设导致１０ＫＶ朝阳路变电站５１７线路全线停电【变更送电】无【发布渠道】保定市保定有线电视台（１０月０９日２０时１５分至２１时４５分之间）屏幕上滚动","powerTime":"2019-10-17 21:54:28","powerComm":"已送电","subsNo":"","lineNo":"","tgNo":"","tgName":null,"infoStatus":"1","orgName":"保定供电公司","typeName":null,"infoStatusName":null,"dateDay":null,"orgNos":null,"nowTime":null,"countyName":null,"streetName":null,"villageName":null,"roadName":null,"communityName":null,"tranName":null,"sdLineName":null,"cityCode":"13406","cityName":"保定供电公司","provinceCode":null,"stopTime":"2019-10-17 22:00:00","powerType":"全部","powerOffArea":"【全线路停电】停0358021766-保定职业技术学院-2#专变,0356172954-保定市冶炼厂-专变,B390柱上变压器,0356341534-保定市路灯管理处-专变,0356523925-保定市交通局-2#专变,0627313183-河北广厦物业服务有限公司-专变-139257731-变压器,10kVY0289.Y0290配电室Y0290配电变压器,10kVY0289.Y0290配电室Y0289配电变压器","powerOffReason":"【停电原因】因配合市政府乐凯大街南延工程建设导致１０ＫＶ朝阳路变电站５１７线路全线停电【变更送电】无【发布渠道】保定市保定有线电视台（１０月０９日２０时１５分至２１时４５分之间）屏幕上滚动","powerOffId":"2019092613000042"},{"poweroffId":2019092613000030,"sgpoweroffId":null,"subsName":"","lineName":"10KV522程委线","pubTranName":"10kV522程委线42078分支42078台区变压器,10kV522程委线26093分支26093台区变压器,10kV522程委线16448分支16448台区变压器,10kV522程委线26005分支26005台区变压器,10kV522程委线26093分支26092台区变压器【纯农排变】,10kV522程委线主干26006台区变压器,10kV522程委线主干26007台区变压器,10kV522程委线522分支40869台区变压器,10kV522程委线26004分支26004台区变压器,","scope":"【影响街道/乡镇】大程委镇【高危重要客户】无【影响客户】程委","startTime":"2019-09-26 10:00:00","stopDate":"2019-09-26 12:00:00","orgNo":"1340608","typeCode":"其他临时停电","poweroffArea":"【全线路停电】停10kV522程委线主干26007台区变压器,10kV522程委线42078分支42078台区变压器,博野县福源线材有限公司,博野县恒泰铜材有限公司,保定博鑫铜材有限公司,博野县程欢起铁丝经销处,变压器,10kV522程委线16448分支16448台区变压器,程委中学,博野县程委镇宏轩丝网加工厂,程委大六拔丝厂,刘永超,10kV522程委线522分支40869台区变压器,鑫奥线材有限公司,10kV522程委线26093分支26093台区变压器,博野县英达线材有限公司,10kV522程委线26004分支26004台区变压器,10kV522程委线26005分支26005台区变压器,海燕（汇发线缆）,10kV522程委线26093分支26092台区变压器【纯农排变】,10kV522程委线主干26006台区变压器,博野县刘亚明拔丝厂","poweroffReason":"【停电原因】由于电杆倾斜，需停电进行紧急消缺导致１１０ＫＶ程委变电站程委５２２线路全线停电【变更送电】无【发布渠道】通过９５５９８发布","powerTime":"2019-09-26 11:21:37","powerComm":"已送电","subsNo":"","lineNo":"","tgNo":"","tgName":null,"infoStatus":"1","orgName":"国网博野县供电公司","typeName":null,"infoStatusName":null,"dateDay":null,"orgNos":null,"nowTime":null,"countyName":null,"streetName":null,"villageName":null,"roadName":null,"communityName":null,"tranName":null,"sdLineName":null,"cityCode":"1340608","cityName":"国网博野县供电公司","provinceCode":null,"stopTime":"2019-09-26 12:00:00","powerType":"全部","powerOffArea":"【全线路停电】停10kV522程委线主干26007台区变压器,10kV522程委线42078分支42078台区变压器,博野县福源线材有限公司,博野县恒泰铜材有限公司,保定博鑫铜材有限公司,博野县程欢起铁丝经销处,变压器,10kV522程委线16448分支16448台区变压器,程委中学,博野县程委镇宏轩丝网加工厂,程委大六拔丝厂,刘永超,10kV522程委线522分支40869台区变压器,鑫奥线材有限公司,10kV522程委线26093分支26093台区变压器,博野县英达线材有限公司,10kV522程委线26004分支26004台区变压器,10kV522程委线26005分支26005台区变压器,海燕（汇发线缆）,10kV522程委线26093分支26092台区变压器【纯农排变】,10kV522程委线主干26006台区变压器,博野县刘亚明拔丝厂","powerOffReason":"【停电原因】由于电杆倾斜，需停电进行紧急消缺导致１１０ＫＶ程委变电站程委５２２线路全线停电【变更送电】无【发布渠道】通过９５５９８发布","powerOffId":"2019092613000030"}],"pageModel":{"pageNow":544,"totalCount":10973,"totalPage":1098,"tableRows":0,"pageCount":10,"beginCount":5430},"isExperi":"1"}