{"message":"","today":"2020-06-15","seleList":[{"poweroffId":2019092613000028,"sgpoweroffId":null,"subsName":"","lineName":"10KV520中学线","pubTranName":"10kV520中学线敬老院变压器,10kV520中学线56741台区变压器【纯农排变】,10kV520中学线30013变压器,","scope":"【影响街道/乡镇】大程委镇【高危重要客户】无【影响客户】程委、南堤圈","startTime":"2019-09-26 10:00:00","stopDate":"2019-09-26 12:00:00","orgNo":"1340608","typeCode":"其他临时停电","poweroffArea":"【全线路停电】停0469282069-程委粮站-专变-46771305-程委粮站,0574736015-博野县占斌丝网厂-专变-123915347-博野县占斌丝网厂,信用社,程盼增拔丝厂,刘建增拔丝厂,刘民英拔丝厂,0469282131-张龙电焊网厂-专变-46771161-张龙电焊网厂,李选成拔丝厂,程委小学IC,中国联合网络通信有限公司博野县分公司,李通茂面粉厂30046,0469284081-博野县光华拔丝厂-专变-46771182-保定金隆钛业有限公司,0469284919-河北首兴机械制造有限公司-专变-46771183-博野县坤盛达电器设备有限公司,博野县鑫源线材有限公司,程委医院,程树妙拔丝30001,0687142257-博野县顺达拔丝厂-专变-227138981-博野县顺达拔丝厂,0469286306-宋占成拔丝厂-专变-46771158-宋占成拔丝厂25001,10kV520中学线56741台区变压器【纯农排变】,0687142257-博野县顺达拔丝厂-专变-227139740-博野县顺达拔丝厂,南堤圈宋跟跃拔丝,博野县金盾铜材制品有限公司,博野县普力丰线材有限公司,吉运拔丝（温孟机）,博野县顺达拔丝厂,10kV520中学线30013变压器,博野县第二敬老院,0617832041-博野县荣光机械制造厂-专变-128723035-博野县博旺机械配件制造有限公司,杨长征拔丝厂,10kV520中学线敬老院变压器,博野宏业金属有限公司,博野县来运拔丝厂,保定科航金属制品有限公司,博野县益丰金属有限公司,0469281848-博野县顺达拔丝厂-专变-126836018-博野县顺达拔丝厂,保定卓盛工贸有限公司,博野县程委知须拔丝厂,0687142257-博野县顺达拔丝厂-专变-227139736-博野县顺达拔丝厂,0469284632-宋志房-专变-46771264-宋志房25102","poweroffReason":"【停电原因】由于电杆倾斜，需停电进行紧急消缺导致１１０ＫＶ程委变电站中学５２０线路全线停电【变更送电】无【发布渠道】通过９５５９８发布","powerTime":"2019-09-26 11:21:57","powerComm":"已送电","subsNo":"","lineNo":"","tgNo":"","tgName":null,"infoStatus":"1","orgName":"国网博野县供电公司","typeName":null,"infoStatusName":null,"dateDay":null,"orgNos":null,"nowTime":null,"countyName":null,"streetName":null,"villageName":null,"roadName":null,"communityName":null,"tranName":null,"sdLineName":null,"cityCode":"1340608","cityName":"国网博野县供电公司","provinceCode":null,"stopTime":"2019-09-26 12:00:00","powerType":"全部","powerOffArea":"【全线路停电】停0469282069-程委粮站-专变-46771305-程委粮站,0574736015-博野县占斌丝网厂-专变-123915347-博野县占斌丝网厂,信用社,程盼增拔丝厂,刘建增拔丝厂,刘民英拔丝厂,0469282131-张龙电焊网厂-专变-46771161-张龙电焊网厂,李选成拔丝厂,程委小学IC,中国联合网络通信有限公司博野县分公司,李通茂面粉厂30046,0469284081-博野县光华拔丝厂-专变-46771182-保定金隆钛业有限公司,0469284919-河北首兴机械制造有限公司-专变-46771183-博野县坤盛达电器设备有限公司,博野县鑫源线材有限公司,程委医院,程树妙拔丝30001,0687142257-博野县顺达拔丝厂-专变-227138981-博野县顺达拔丝厂,0469286306-宋占成拔丝厂-专变-46771158-宋占成拔丝厂25001,10kV520中学线56741台区变压器【纯农排变】,0687142257-博野县顺达拔丝厂-专变-227139740-博野县顺达拔丝厂,南堤圈宋跟跃拔丝,博野县金盾铜材制品有限公司,博野县普力丰线材有限公司,吉运拔丝（温孟机）,博野县顺达拔丝厂,10kV520中学线30013变压器,博野县第二敬老院,0617832041-博野县荣光机械制造厂-专变-128723035-博野县博旺机械配件制造有限公司,杨长征拔丝厂,10kV520中学线敬老院变压器,博野宏业金属有限公司,博野县来运拔丝厂,保定科航金属制品有限公司,博野县益丰金属有限公司,0469281848-博野县顺达拔丝厂-专变-126836018-博野县顺达拔丝厂,保定卓盛工贸有限公司,博野县程委知须拔丝厂,0687142257-博野县顺达拔丝厂-专变-227139736-博野县顺达拔丝厂,0469284632-宋志房-专变-46771264-宋志房25102","powerOffReason":"【停电原因】由于电杆倾斜，需停电进行紧急消缺导致１１０ＫＶ程委变电站中学５２０线路全线停电【变更送电】无【发布渠道】通过９５５９８发布","powerOffId":"2019092613000028"},{"poweroffId":2019092613000023,"sgpoweroffId":null,"subsName":"","lineName":"10KV松屯515","pubTranName":"大兴庄3078,","scope":"【影响街道/乡镇】林屯乡 【高危重要客户】无 【影响客户】大兴庄","startTime":"2019-09-26 08:10:10","stopDate":"2019-09-26 10:30:00","orgNo":"1340626","typeCode":"电网故障停限电","poweroffArea":"【单台区停电】停大兴庄3078","poweroffReason":"【停电原因】由于低压空开烧毁导致３５ＫＶ松林店变电站１０ＫＶ松屯５１５线路大兴庄３０７８公变台区停电 【变更送电】因抢修进度加快原因，送电时间由１８：００变更为１０：３０ 【发布渠道】通过９５５９８发布","powerTime":"2019-09-26 09:56:36","powerComm":"恢复送电","subsNo":"","lineNo":"","tgNo":"","tgName":null,"infoStatus":"1","orgName":"国网涿州市供电公司","typeName":null,"infoStatusName":null,"dateDay":null,"orgNos":null,"nowTime":null,"countyName":null,"streetName":null,"villageName":null,"roadName":null,"communityName":null,"tranName":null,"sdLineName":null,"cityCode":"1340626","cityName":"国网涿州市供电公司","provinceCode":null,"stopTime":"2019-09-26 10:30:00","powerType":"全部","powerOffArea":"【单台区停电】停大兴庄3078","powerOffReason":"【停电原因】由于低压空开烧毁导致３５ＫＶ松林店变电站１０ＫＶ松屯５１５线路大兴庄３０７８公变台区停电 【变更送电】因抢修进度加快原因，送电时间由１８：００变更为１０：３０ 【发布渠道】通过９５５９８发布","powerOffId":"2019092613000023"},{"poweroffId":2019092613000020,"sgpoweroffId":null,"subsName":"","lineName":"10KV520中学线","pubTranName":"10kV520中学线敬老院变压器,10kV520中学线56741台区变压器【纯农排变】,10kV520中学线30013变压器,","scope":"【影响街道/乡镇】大程委镇【高危重要客户】义利铜厂【影响客户】程委、南堤圈","startTime":"2019-09-26 08:04:50","stopDate":"2019-09-26 09:00:00","orgNo":"1340608","typeCode":"电网故障停限电","poweroffArea":"【全线路停电】停0469282069-程委粮站-专变-46771305-程委粮站,0574736015-博野县占斌丝网厂-专变-123915347-博野县占斌丝网厂,信用社,程盼增拔丝厂,刘建增拔丝厂,刘民英拔丝厂,0469282131-张龙电焊网厂-专变-46771161-张龙电焊网厂,李选成拔丝厂,程委小学IC,中国联合网络通信有限公司博野县分公司,李通茂面粉厂30046,0469284081-博野县光华拔丝厂-专变-46771182-保定金隆钛业有限公司,0469284919-河北首兴机械制造有限公司-专变-46771183-博野县坤盛达电器设备有限公司,博野县鑫源线材有限公司,程委医院,程树妙拔丝30001,0687142257-博野县顺达拔丝厂-专变-227138981-博野县顺达拔丝厂,0469286306-宋占成拔丝厂-专变-46771158-宋占成拔丝厂25001,10kV520中学线56741台区变压器【纯农排变】,0687142257-博野县顺达拔丝厂-专变-227139740-博野县顺达拔丝厂,南堤圈宋跟跃拔丝,博野县金盾铜材制品有限公司,博野县普力丰线材有限公司,吉运拔丝（温孟机）,博野县顺达拔丝厂,10kV520中学线30013变压器,博野县第二敬老院,0617832041-博野县荣光机械制造厂-专变-128723035-博野县博旺机械配件制造有限公司,杨长征拔丝厂,10kV520中学线敬老院变压器,博野宏业金属有限公司,博野县来运拔丝厂,保定科航金属制品有限公司,博野县益丰金属有限公司,0469281848-博野县顺达拔丝厂-专变-126836018-博野县顺达拔丝厂,保定卓盛工贸有限公司,博野县程委知须拔丝厂,0687142257-博野县顺达拔丝厂-专变-227139736-博野县顺达拔丝厂,0469284632-宋志房-专变-46771264-宋志房25102","poweroffReason":"【停电原因】由于站外开关掉闸导致１１０ＫＶ程委变电站中学５２０线路全线停电【变更送电】由于抢修进度加快原因，送电时间由１７：００变更为０９：００【发布渠道】通过９５５９８发布","powerTime":"2019-09-26 08:22:00","powerComm":"已送电","subsNo":"","lineNo":"","tgNo":"","tgName":null,"infoStatus":"1","orgName":"国网博野县供电公司","typeName":null,"infoStatusName":null,"dateDay":null,"orgNos":null,"nowTime":null,"countyName":null,"streetName":null,"villageName":null,"roadName":null,"communityName":null,"tranName":null,"sdLineName":null,"cityCode":"1340608","cityName":"国网博野县供电公司","provinceCode":null,"stopTime":"2019-09-26 09:00:00","powerType":"全部","powerOffArea":"【全线路停电】停0469282069-程委粮站-专变-46771305-程委粮站,0574736015-博野县占斌丝网厂-专变-123915347-博野县占斌丝网厂,信用社,程盼增拔丝厂,刘建增拔丝厂,刘民英拔丝厂,0469282131-张龙电焊网厂-专变-46771161-张龙电焊网厂,李选成拔丝厂,程委小学IC,中国联合网络通信有限公司博野县分公司,李通茂面粉厂30046,0469284081-博野县光华拔丝厂-专变-46771182-保定金隆钛业有限公司,0469284919-河北首兴机械制造有限公司-专变-46771183-博野县坤盛达电器设备有限公司,博野县鑫源线材有限公司,程委医院,程树妙拔丝30001,0687142257-博野县顺达拔丝厂-专变-227138981-博野县顺达拔丝厂,0469286306-宋占成拔丝厂-专变-46771158-宋占成拔丝厂25001,10kV520中学线56741台区变压器【纯农排变】,0687142257-博野县顺达拔丝厂-专变-227139740-博野县顺达拔丝厂,南堤圈宋跟跃拔丝,博野县金盾铜材制品有限公司,博野县普力丰线材有限公司,吉运拔丝（温孟机）,博野县顺达拔丝厂,10kV520中学线30013变压器,博野县第二敬老院,0617832041-博野县荣光机械制造厂-专变-128723035-博野县博旺机械配件制造有限公司,杨长征拔丝厂,10kV520中学线敬老院变压器,博野宏业金属有限公司,博野县来运拔丝厂,保定科航金属制品有限公司,博野县益丰金属有限公司,0469281848-博野县顺达拔丝厂-专变-126836018-博野县顺达拔丝厂,保定卓盛工贸有限公司,博野县程委知须拔丝厂,0687142257-博野县顺达拔丝厂-专变-227139736-博野县顺达拔丝厂,0469284632-宋志房-专变-46771264-宋志房25102","powerOffReason":"【停电原因】由于站外开关掉闸导致１１０ＫＶ程委变电站中学５２０线路全线停电【变更送电】由于抢修进度加快原因，送电时间由１７：００变更为０９：００【发布渠道】通过９５５９８发布","powerOffId":"2019092613000020"},{"poweroffId":2019092613000003,"sgpoweroffId":null,"subsName":"","lineName":"博旭线529","pubTranName":"阳光888北间隔配电,海洋花园西2号公变间隔配电变压器,海洋花园东1号公变间隔配电变压器,客户投资_五一南变压器,中海油小区6变压器,客户投资_闫家务西（村内400）,闫家务北变压器,看守所变压器,闫家务西公变（100）,三小公变变压器,中海油小区2变压器,新泰西路2号公变,阳光888南间隔配电变压器,闫家务西2变压器,中海油小区5变压器,112线公变变压器,五一路二幼公变,中海油小区1变压器,中海油小区8变压器,和平东路一号公变变压器,五一北变压器,中海油小区7变压器,闫家务东公变（200）,五一中变压器,中海油小区3变压器,中海油小区4变压器,","scope":"【影响街道/乡镇】国道１１２线、五一路 【高危重要客户】无 【影响客户】电业局小区、栋梁小区、海洋花园小区、阳光８８８小区、海洋花园Ａ、Ｂ、Ｄ区、闫家务村（村西部分）、闫家务安置区、世界城小区、消防中队、 盛欣化工厂、振兴铸造、北环路医院、东环路小学（三小）、二幼","startTime":"2019-09-26 00:52:01","stopDate":"2019-09-26 02:30:00","orgNo":"1340612","typeCode":"电网故障停限电","poweroffArea":"【全线路停电】停新新装饰处,0555535385-高碑店市兴泰房地产开发有限公司-专变-118521885-高碑店市和平办事处闫家务村变压器2,中海油小区5变压器,112线公变变压器,五一路二幼公变,中海油小区1变压器,高碑店市栋梁小区2,隆基泰和实业有限公司变压器,高碑店市兴泰房地产开发有限公司,中海油小区8变压器,0387437635-国网河北高碑店市供电公司-专变-45274394-电业局,隆基泰和实业有限公司（海洋花园D区）变压器,宏光塑料制品,和平东路一号公变变压器,河北隆泰物业服务有限责任公司变压器,路灯厂,高碑店市和平办事处闫家务村变压器1,闫家务东公变（200）,计量箱,五一北变压器,中海油小区7变压器,高碑店市栋梁小区3,五一中变压器,中海油小区3变压器,0387450665-东方伟业机械设备制造厂-专变-45283287-东方伟业机械设备制造,0387451163-高碑店市北环路社区卫生服务站-专变-45283284-北环路社区卫生服务站变压器,0564891104-河北隆泰物业服务有限责任公司高碑店分公司-专变-118624993-隆基泰和实业有限公司（世界城小区）变压器,中海油小区4变压器,盛欣化工厂,阳光888北间隔配电,阳光三期,海洋花园东1号公变间隔配电变压器,高碑店市路灯管理办公室变压器,中海实业公司高碑店基地分公司2#变压器,河北隆泰物业有限责任公司受电点变压器,客户投资_闫家务西（村内400）,高碑店市路灯管理办公室（电业局东）变压器,河北鹏润房地产开发有限公司高碑店分公司,闫家务北变压器,海洋花园西2号公变间隔配电变压器,高碑店市兴泰房地产开发有限公司变压器,高碑店市栋梁小区,客户投资_五一南变压器,中海油小区6变压器,0573430990-高碑店市兴泰房地产开发有限公司-专变-120547919-隆基泰和实业有限公司变压器,看守所变压器,高碑店市振兴盛业铸造有限责任公司,闫家务西公变（100）,三小公变变压器,中海实业公司高碑店基地分公司3#变压器,中海油小区2变压器,新泰西路2号公变,阳光888南间隔配电变压器,高碑店市九香食品有限公司,闫家务西2变压器","poweroffReason":"【停电原因】由于田星公变弓子线断导致１１０ＫＶ方家务变电站１０ＫＶ博旭５２９线路全线停电 【变更送电】无 【发布渠道】通过９５５９８发布","powerTime":"2019-09-26 01:42:54","powerComm":"已送电","subsNo":"","lineNo":"","tgNo":"","tgName":null,"infoStatus":"1","orgName":"国网高碑店市供电公司","typeName":null,"infoStatusName":null,"dateDay":null,"orgNos":null,"nowTime":null,"countyName":null,"streetName":null,"villageName":null,"roadName":null,"communityName":null,"tranName":null,"sdLineName":null,"cityCode":"1340612","cityName":"国网高碑店市供电公司","provinceCode":null,"stopTime":"2019-09-26 02:30:00","powerType":"全部","powerOffArea":"【全线路停电】停新新装饰处,0555535385-高碑店市兴泰房地产开发有限公司-专变-118521885-高碑店市和平办事处闫家务村变压器2,中海油小区5变压器,112线公变变压器,五一路二幼公变,中海油小区1变压器,高碑店市栋梁小区2,隆基泰和实业有限公司变压器,高碑店市兴泰房地产开发有限公司,中海油小区8变压器,0387437635-国网河北高碑店市供电公司-专变-45274394-电业局,隆基泰和实业有限公司（海洋花园D区）变压器,宏光塑料制品,和平东路一号公变变压器,河北隆泰物业服务有限责任公司变压器,路灯厂,高碑店市和平办事处闫家务村变压器1,闫家务东公变（200）,计量箱,五一北变压器,中海油小区7变压器,高碑店市栋梁小区3,五一中变压器,中海油小区3变压器,0387450665-东方伟业机械设备制造厂-专变-45283287-东方伟业机械设备制造,0387451163-高碑店市北环路社区卫生服务站-专变-45283284-北环路社区卫生服务站变压器,0564891104-河北隆泰物业服务有限责任公司高碑店分公司-专变-118624993-隆基泰和实业有限公司（世界城小区）变压器,中海油小区4变压器,盛欣化工厂,阳光888北间隔配电,阳光三期,海洋花园东1号公变间隔配电变压器,高碑店市路灯管理办公室变压器,中海实业公司高碑店基地分公司2#变压器,河北隆泰物业有限责任公司受电点变压器,客户投资_闫家务西（村内400）,高碑店市路灯管理办公室（电业局东）变压器,河北鹏润房地产开发有限公司高碑店分公司,闫家务北变压器,海洋花园西2号公变间隔配电变压器,高碑店市兴泰房地产开发有限公司变压器,高碑店市栋梁小区,客户投资_五一南变压器,中海油小区6变压器,0573430990-高碑店市兴泰房地产开发有限公司-专变-120547919-隆基泰和实业有限公司变压器,看守所变压器,高碑店市振兴盛业铸造有限责任公司,闫家务西公变（100）,三小公变变压器,中海实业公司高碑店基地分公司3#变压器,中海油小区2变压器,新泰西路2号公变,阳光888南间隔配电变压器,高碑店市九香食品有限公司,闫家务西2变压器","powerOffReason":"【停电原因】由于田星公变弓子线断导致１１０ＫＶ方家务变电站１０ＫＶ博旭５２９线路全线停电 【变更送电】无 【发布渠道】通过９５５９８发布","powerOffId":"2019092613000003"},{"poweroffId":2019092613000001,"sgpoweroffId":null,"subsName":"","lineName":"文苑线527","pubTranName":"中海油小区4变压器,中海油小区5变压器,中海油小区1变压器,中海油小区3变压器,肖风义公用变压器,水电家园5变压器,中海油小区8变压器,国税（线路）,水电家园3变压器,铁运处公变变压器,工行小区变压器,中海油小区6变压器,北后公变变压器,高洁变压器,中海油小区7变压器,水电家园4变压器,水电家园1变压器,中海油小区2变压器,田星小区公变变压器,水电家园2变压器,","scope":"【影响街道/乡镇】文苑路、迎宾路、五一路 【高危重要客户】无 【影响客户】高洁小区、水电家园小区、教育局小区(一小家属楼）、工行小区、肖凤仪小区、国税局小区、田星小区、天奕商厦、铁运处小区、工商银行、市医院、教育局","startTime":"2019-09-26 00:50:04","stopDate":"2019-09-26 02:30:00","orgNo":"1340612","typeCode":"电网故障停限电","poweroffArea":"【全线路停电】停北后,中海油小区3变压器,河北嘉德丽景房地产开发有限公司,中海油小区4变压器,国税局,中海油小区5变压器,中海油小区1变压器,迎宾中路路灯,变压器,河北嘉德丽景房地产开发有限公司变压器,肖风义公用变压器,水电家园5变压器,高洁变压器,北后公变变压器,水电家园2变压器,中海油小区8变压器,教委,国税（线路）,水电家园3变压器,铁运处公变变压器,高碑店市国家税务局,工行小区变压器,0601060205-高碑店市医院-专变-126754658-高碑店市医院变压器,中海油小区6变压器,高碑店市路灯管理办公室（五中路灯）变压器,高碑店市城市管理综合执法局五一路一号,中海油小区7变压器,水电家园4变压器,水电家园1变压器,中海油小区2变压器,魏华,田星小区公变变压器,新运处西,0387450245-高碑店市光明化工厂-专变-45283397-光明化工厂,中国工商银行股份有限公司高碑店支行","poweroffReason":"【停电原因】由于田星公变弓子线断导致１１０ＫＶ方家务变电站１０ＫＶ文苑５２７线路全线停电 【变更送电】无 【发布渠道】通过９５５９８发布","powerTime":"2019-09-26 01:42:26","powerComm":"已送电","subsNo":"","lineNo":"","tgNo":"","tgName":null,"infoStatus":"1","orgName":"国网高碑店市供电公司","typeName":null,"infoStatusName":null,"dateDay":null,"orgNos":null,"nowTime":null,"countyName":null,"streetName":null,"villageName":null,"roadName":null,"communityName":null,"tranName":null,"sdLineName":null,"cityCode":"1340612","cityName":"国网高碑店市供电公司","provinceCode":null,"stopTime":"2019-09-26 02:30:00","powerType":"全部","powerOffArea":"【全线路停电】停北后,中海油小区3变压器,河北嘉德丽景房地产开发有限公司,中海油小区4变压器,国税局,中海油小区5变压器,中海油小区1变压器,迎宾中路路灯,变压器,河北嘉德丽景房地产开发有限公司变压器,肖风义公用变压器,水电家园5变压器,高洁变压器,北后公变变压器,水电家园2变压器,中海油小区8变压器,教委,国税（线路）,水电家园3变压器,铁运处公变变压器,高碑店市国家税务局,工行小区变压器,0601060205-高碑店市医院-专变-126754658-高碑店市医院变压器,中海油小区6变压器,高碑店市路灯管理办公室（五中路灯）变压器,高碑店市城市管理综合执法局五一路一号,中海油小区7变压器,水电家园4变压器,水电家园1变压器,中海油小区2变压器,魏华,田星小区公变变压器,新运处西,0387450245-高碑店市光明化工厂-专变-45283397-光明化工厂,中国工商银行股份有限公司高碑店支行","powerOffReason":"【停电原因】由于田星公变弓子线断导致１１０ＫＶ方家务变电站１０ＫＶ文苑５２７线路全线停电 【变更送电】无 【发布渠道】通过９５５９８发布","powerOffId":"2019092613000001"},{"poweroffId":2019092513000151,"sgpoweroffId":null,"subsName":"","lineName":"龙堂546线路","pubTranName":"龙兆庄10号变压器,龙堂16号变压器,龙堂15号变压器,龙兆庄02号变压器,龙堂09号变压器,龙堂12号变压器,龙兆庄01号变压器,龙兆庄09号变压器,龙堂07号变压器,龙兆庄03号变压器,龙兆庄06号变压器,龙兆庄11号变压器,龙兆庄05号变压器,龙堂10号变压器,龙兆庄13号变压器,龙堂11号变压器,龙堂08号变压器,龙兆庄07号变压器,龙堂13号变压器,龙兆庄12号变压器,龙堂14号变压器,龙兆庄04号变压器,","scope":"【影响街道/乡镇】东盛办事处、方官镇 【高危重要客户】无 【影响客户】龙堂村、龙赵庄村","startTime":"2019-09-25 23:33:23","stopDate":"2019-09-26 01:00:00","orgNo":"1340612","typeCode":"电网故障停限电","poweroffArea":"【分支停电】停龙堂09号变压器,龙堂15号变压器,龙兆庄02号变压器,龙堂01号变压器,龙兆庄09号变压器,龙堂07号变压器,龙堂05号变压器,高碑店市东盛办事处龙赵庄小学,龙兆庄03号变压器,龙兆庄06号变压器,龙兆庄11号变压器,龙堂02号变压器,龙兆庄05号变压器,龙兆庄13号变压器,龙堂14号变压器,龙堂06号变压器,龙堂11号变压器,龙堂08号变压器,龙兆庄07号变压器,龙堂13号变压器,龙兆庄12号变压器,龙兆庄08号变压器,龙堂12号变压器,龙兆庄01号变压器,龙堂04号变压器,龙堂10号变压器,龙兆庄10号变压器,高碑店市中誉房地产开发有限公司,龙兆庄04号变压器,龙堂03号变压器,龙堂16号变压器","poweroffReason":"【停电原因】由于Ｂ相接地导致１１０ＫＶ方官变电站１０ＫＶ龙堂５４６线路０１号断路器以下停电 【变更送电】无 【发布渠道】通过９５５９８发布","powerTime":"2019-09-26 00:32:21","powerComm":"已送电","subsNo":"","lineNo":"","tgNo":"","tgName":null,"infoStatus":"1","orgName":"国网高碑店市供电公司","typeName":null,"infoStatusName":null,"dateDay":null,"orgNos":null,"nowTime":null,"countyName":null,"streetName":null,"villageName":null,"roadName":null,"communityName":null,"tranName":null,"sdLineName":null,"cityCode":"1340612","cityName":"国网高碑店市供电公司","provinceCode":null,"stopTime":"2019-09-26 01:00:00","powerType":"全部","powerOffArea":"【分支停电】停龙堂09号变压器,龙堂15号变压器,龙兆庄02号变压器,龙堂01号变压器,龙兆庄09号变压器,龙堂07号变压器,龙堂05号变压器,高碑店市东盛办事处龙赵庄小学,龙兆庄03号变压器,龙兆庄06号变压器,龙兆庄11号变压器,龙堂02号变压器,龙兆庄05号变压器,龙兆庄13号变压器,龙堂14号变压器,龙堂06号变压器,龙堂11号变压器,龙堂08号变压器,龙兆庄07号变压器,龙堂13号变压器,龙兆庄12号变压器,龙兆庄08号变压器,龙堂12号变压器,龙兆庄01号变压器,龙堂04号变压器,龙堂10号变压器,龙兆庄10号变压器,高碑店市中誉房地产开发有限公司,龙兆庄04号变压器,龙堂03号变压器,龙堂16号变压器","powerOffReason":"【停电原因】由于Ｂ相接地导致１１０ＫＶ方官变电站１０ＫＶ龙堂５４６线路０１号断路器以下停电 【变更送电】无 【发布渠道】通过９５５９８发布","powerOffId":"2019092513000151"},{"poweroffId":2019092513000139,"sgpoweroffId":null,"subsName":"","lineName":"10kV朝阳路站537线路","pubTranName":"B1846柱上变压器,B631柱上变压器,B334柱上变压器,","scope":"【影响街道/乡镇】朝阳中路、朝阳南大街、百花路 【高危重要客户】无 【影响客户】工商银行、税务局宿舍、儿童医院宿舍、螺丝庄、农委宿舍、环保局宿舍、中大针织宿舍、时代商厦、国贸大厦、新天地、市委、市政府","startTime":"2019-10-18 08:30:00","stopDate":"2019-10-18 09:00:00","orgNo":"13406","typeCode":"计划停电","poweroffArea":"【全线路停电】停B334柱上变压器,0356179320-保定大世界商业城-专变,0356234526-保定市中大企业发展有限公司-专变-130864654-变压器,0554343950-中共保定市委机关事务管理局-专变-149845957-变压器,0356224798-工商银行-1#专变,0356179333-保定大世界商业城-专变,0356183277-河北保定时代商厦有限公司-1#专变,B1846柱上变压器,B631柱上变压器,0554343950-中共保定市委机关事务管理局-专变-149846060-变压器,0356224798-工商银行-2#专变,0554343950-中共保定市委机关事务管理局-2#专变","poweroffReason":"【停电原因】由于供电设备临时检修导致１０ＫＶ朝阳路变电站５３７线路全线停电【变更送电】无【发布渠道】保定市保定有线电视台（１０月１０日２０时１５分至２１时４５分之间）屏幕上滚动","powerTime":"2019-10-18 08:40:44","powerComm":"已送电","subsNo":"","lineNo":"","tgNo":"","tgName":null,"infoStatus":"1","orgName":"保定供电公司","typeName":null,"infoStatusName":null,"dateDay":null,"orgNos":null,"nowTime":null,"countyName":null,"streetName":null,"villageName":null,"roadName":null,"communityName":null,"tranName":null,"sdLineName":null,"cityCode":"13406","cityName":"保定供电公司","provinceCode":null,"stopTime":"2019-10-18 09:00:00","powerType":"全部","powerOffArea":"【全线路停电】停B334柱上变压器,0356179320-保定大世界商业城-专变,0356234526-保定市中大企业发展有限公司-专变-130864654-变压器,0554343950-中共保定市委机关事务管理局-专变-149845957-变压器,0356224798-工商银行-1#专变,0356179333-保定大世界商业城-专变,0356183277-河北保定时代商厦有限公司-1#专变,B1846柱上变压器,B631柱上变压器,0554343950-中共保定市委机关事务管理局-专变-149846060-变压器,0356224798-工商银行-2#专变,0554343950-中共保定市委机关事务管理局-2#专变","powerOffReason":"【停电原因】由于供电设备临时检修导致１０ＫＶ朝阳路变电站５３７线路全线停电【变更送电】无【发布渠道】保定市保定有线电视台（１０月１０日２０时１５分至２１时４５分之间）屏幕上滚动","powerOffId":"2019092513000139"},{"poweroffId":2019092513000138,"sgpoweroffId":null,"subsName":"","lineName":"10kV朝阳路站532线路","pubTranName":"10kV朝阳路站532线路C463柱上变压器,10kVB498箱式变电站B498配电变压器,10kVB1748.B1749配电室B1748配电变压器,10kV朝阳路站532线路C020柱上变压器,10kVY0098.Y0099配电室Y0098配电变压器,10kVB289配电室B289配电变压器,10kV朝阳路站532线路B1275柱上变压器,10kV朝阳路站532线路B294柱上变压器,10kVB760配电室B760配电变压器,10kVB1752.B1753配电室B1753配电变压器,10kVB1750.B1751配电室B1751配电变压器,10kVY0098.Y0099配电室Y0099配电变压器,10kVB739配电室B739配电变压器,10kV朝阳路站532线路B291柱上变压器,10kV朝阳路站532线路B470柱上变压器,10kVB1752.B1753配电室B1752配电变压器,10kVB1748.B1749配电室B1749配电变压器,10kVB1750.B1751配电室B1750配电变压器,","scope":"【影响街道/乡镇】百花路、阳光南大街 【高危重要客户】无 【影响客户】都市春天小区、百安居小区、荣誉铂庭小区、西大园","startTime":"2019-10-18 09:00:00","stopDate":"2019-10-18 10:00:00","orgNo":"13406","typeCode":"计划停电","poweroffArea":"【全线路停电】停0547750550-保定市广原地产有限公司-2#专变,10kVB1752.B1753配电室B1753配电变压器,0547750550-保定市广原地产有限公司-1#专变,10kVB1748.B1749配电室B1748配电变压器,10kVY0098.Y0099配电室Y0099配电变压器,10kVB498箱式变电站B498配电变压器,0547747143-保定市广原地产有限公司-1#专变,10kVB739配电室B739配电变压器,10kV朝阳路站532线路B470柱上变压器,0580321380-保定火车站改扩建工程建设办公室-专变,0356414009-保定市路灯管理处-1-箱式变-变压器-1,变压器,0358521022-保定市嘉昌物业管理有限公司-1-配电室-变压器-1,0577964037-保定火车站改扩建工程建设办公室-3#专变,0696582819-保定市发投热力有限公司-变压器1,0356188331-保定火车站改扩建工程建设办公室-专变,10kVB1752.B1753配电室B1752配电变压器,0356173090-市药品检验所-专变,0648196468-保定伍建房地产开发有限责任公司-专变-172567587-变压器,10kVB760配电室B760配电变压器,0358239493-保定市第十七中学-1-箱式变-变压器-1,0356414012-保定市路灯管理处-1-箱式变-变压器-1,10kVY0098.Y0099配电室Y0098配电变压器,0356414025-保定市路灯管理处-1-箱式变-变压器-1,0580323849-保定火车站改扩建工程建设办公室-专变,10kVB1750.B1751配电室B1751配电变压器,0577964037-保定火车站改扩建工程建设办公室-2#专变,0547747143-保定市广原地产有限公司-2#专变,10kVB1748.B1749配电室B1749配电变压器,0696582819-保定市发投热力有限公司-变压器2,10kVB289配电室B289配电变压器,10kV朝阳路站532线路C020柱上变压器,10kVB1750.B1751配电室B1750配电变压器,10kV朝阳路站532线路B291柱上变压器,10kV朝阳路站532线路B1275柱上变压器,10kV朝阳路站532线路C463柱上变压器,10kV朝阳路站532线路B294柱上变压器,0577964037-保定火车站改扩建工程建设办公室-1#专变,0575430758-保定火车站改扩建工程建设办公室-专变","poweroffReason":"【停电原因】由于供电设备临时检修导致１０ＫＶ朝阳路变电站５３２线路全线停电【变更送电】无【发布渠道】保定市保定有线电视台（１０月１０日２０时１５分至２１时４５分之间）屏幕上滚动","powerTime":"2019-10-18 09:47:07","powerComm":"已送电","subsNo":"","lineNo":"","tgNo":"","tgName":null,"infoStatus":"1","orgName":"保定供电公司","typeName":null,"infoStatusName":null,"dateDay":null,"orgNos":null,"nowTime":null,"countyName":null,"streetName":null,"villageName":null,"roadName":null,"communityName":null,"tranName":null,"sdLineName":null,"cityCode":"13406","cityName":"保定供电公司","provinceCode":null,"stopTime":"2019-10-18 10:00:00","powerType":"全部","powerOffArea":"【全线路停电】停0547750550-保定市广原地产有限公司-2#专变,10kVB1752.B1753配电室B1753配电变压器,0547750550-保定市广原地产有限公司-1#专变,10kVB1748.B1749配电室B1748配电变压器,10kVY0098.Y0099配电室Y0099配电变压器,10kVB498箱式变电站B498配电变压器,0547747143-保定市广原地产有限公司-1#专变,10kVB739配电室B739配电变压器,10kV朝阳路站532线路B470柱上变压器,0580321380-保定火车站改扩建工程建设办公室-专变,0356414009-保定市路灯管理处-1-箱式变-变压器-1,变压器,0358521022-保定市嘉昌物业管理有限公司-1-配电室-变压器-1,0577964037-保定火车站改扩建工程建设办公室-3#专变,0696582819-保定市发投热力有限公司-变压器1,0356188331-保定火车站改扩建工程建设办公室-专变,10kVB1752.B1753配电室B1752配电变压器,0356173090-市药品检验所-专变,0648196468-保定伍建房地产开发有限责任公司-专变-172567587-变压器,10kVB760配电室B760配电变压器,0358239493-保定市第十七中学-1-箱式变-变压器-1,0356414012-保定市路灯管理处-1-箱式变-变压器-1,10kVY0098.Y0099配电室Y0098配电变压器,0356414025-保定市路灯管理处-1-箱式变-变压器-1,0580323849-保定火车站改扩建工程建设办公室-专变,10kVB1750.B1751配电室B1751配电变压器,0577964037-保定火车站改扩建工程建设办公室-2#专变,0547747143-保定市广原地产有限公司-2#专变,10kVB1748.B1749配电室B1749配电变压器,0696582819-保定市发投热力有限公司-变压器2,10kVB289配电室B289配电变压器,10kV朝阳路站532线路C020柱上变压器,10kVB1750.B1751配电室B1750配电变压器,10kV朝阳路站532线路B291柱上变压器,10kV朝阳路站532线路B1275柱上变压器,10kV朝阳路站532线路C463柱上变压器,10kV朝阳路站532线路B294柱上变压器,0577964037-保定火车站改扩建工程建设办公室-1#专变,0575430758-保定火车站改扩建工程建设办公室-专变","powerOffReason":"【停电原因】由于供电设备临时检修导致１０ＫＶ朝阳路变电站５３２线路全线停电【变更送电】无【发布渠道】保定市保定有线电视台（１０月１０日２０时１５分至２１时４５分之间）屏幕上滚动","powerOffId":"2019092513000138"},{"poweroffId":2019092513000137,"sgpoweroffId":null,"subsName":"","lineName":"10kV朝阳路站530线路","pubTranName":"B590柱上变压器,10kVB220配电室B220配电变压器,B1798柱上变压器,10kVB903配电室B903配电变压器,B591柱上变压器,B323柱上变压器,10kVB1675.B1676配电室B1676配电变压器,B587柱上变压器,B335柱上变压器,B518柱上变压器,B325柱上变压器,B588柱上变压器,10kVB1675.B1676配电室B1675配电变压器,B3007柱上变压器,B592柱上变压器,B324柱上变压器,B275柱上变压器,B589柱上变压器,B607柱上变压器,","scope":"【影响街道/乡镇】康乐路、朝阳大街、百花西路、裕康街、向阳南大街 【高危重要客户】无 【影响客户】工人新村、土地局宿舍、人保宿舍、交通局宿舍、百花园小区、棉纺宿舍、二医院宿舍、二轻宿舍楼、制桶厂宿舍、轻工业局宿舍、鑫丰集团宿舍、中燕宿舍楼、裕康嘉苑、邮电宿舍","startTime":"2019-10-18 10:00:00","stopDate":"2019-10-18 11:00:00","orgNo":"13406","typeCode":"计划停电","poweroffArea":"【全线路停电】停B275柱上变压器,B589柱上变压器,B607柱上变压器,0356238586-罗丝庄村委会-专变,0674173039-保定市白云房地产开发有限公司-专变-216173069-变压器,B590柱上变压器,0356225674-保定市女子职业中专-专变,0356186973-中国人民保险公司保定分公司-专变,变压器,10kVB220配电室B220配电变压器,B1798柱上变压器,0674173039-保定市白云房地产开发有限公司-专变-216172295-变压器,0674173039-保定市白云房地产开发有限公司-专变-216172291-变压器,B518柱上变压器,B325柱上变压器,0356273989-保定电视台-1-箱式变-变压器-1,B588柱上变压器,10kVB1675.B1676配电室B1675配电变压器,B3007柱上变压器,0356187035-保定市粮油贸易公司-1-配电室-变压器-1,B592柱上变压器,0356413934-保定市路灯管理处-专变,B324柱上变压器,10kVB903配电室B903配电变压器,B591柱上变压器,B323柱上变压器,0356213101-保定市恩客商贸有限公司-1-配电室-变压器-1,B587柱上变压器,0356232517-保定市九歌综合市场-专变,B335柱上变压器,10kVB1675.B1676配电室B1676配电变压器,0356231745-保定保利变压器冷却设备有限公司-专变,0356234470-保定市新市区九地物业管理部-专变,0593049110-保定市九歌综合市场-专变,0356234500-市工商局-1#专变","poweroffReason":"【停电原因】由于供电设备临时检修导致１０ＫＶ朝阳路变电站５３０线路全线停电【变更送电】无【发布渠道】保定市保定有线电视台（１０月１０日２０时１５分至２１时４５分之间）屏幕上滚动","powerTime":"2019-10-18 10:22:03","powerComm":"已送电","subsNo":"","lineNo":"","tgNo":"","tgName":null,"infoStatus":"1","orgName":"保定供电公司","typeName":null,"infoStatusName":null,"dateDay":null,"orgNos":null,"nowTime":null,"countyName":null,"streetName":null,"villageName":null,"roadName":null,"communityName":null,"tranName":null,"sdLineName":null,"cityCode":"13406","cityName":"保定供电公司","provinceCode":null,"stopTime":"2019-10-18 11:00:00","powerType":"全部","powerOffArea":"【全线路停电】停B275柱上变压器,B589柱上变压器,B607柱上变压器,0356238586-罗丝庄村委会-专变,0674173039-保定市白云房地产开发有限公司-专变-216173069-变压器,B590柱上变压器,0356225674-保定市女子职业中专-专变,0356186973-中国人民保险公司保定分公司-专变,变压器,10kVB220配电室B220配电变压器,B1798柱上变压器,0674173039-保定市白云房地产开发有限公司-专变-216172295-变压器,0674173039-保定市白云房地产开发有限公司-专变-216172291-变压器,B518柱上变压器,B325柱上变压器,0356273989-保定电视台-1-箱式变-变压器-1,B588柱上变压器,10kVB1675.B1676配电室B1675配电变压器,B3007柱上变压器,0356187035-保定市粮油贸易公司-1-配电室-变压器-1,B592柱上变压器,0356413934-保定市路灯管理处-专变,B324柱上变压器,10kVB903配电室B903配电变压器,B591柱上变压器,B323柱上变压器,0356213101-保定市恩客商贸有限公司-1-配电室-变压器-1,B587柱上变压器,0356232517-保定市九歌综合市场-专变,B335柱上变压器,10kVB1675.B1676配电室B1676配电变压器,0356231745-保定保利变压器冷却设备有限公司-专变,0356234470-保定市新市区九地物业管理部-专变,0593049110-保定市九歌综合市场-专变,0356234500-市工商局-1#专变","powerOffReason":"【停电原因】由于供电设备临时检修导致１０ＫＶ朝阳路变电站５３０线路全线停电【变更送电】无【发布渠道】保定市保定有线电视台（１０月１０日２０时１５分至２１时４５分之间）屏幕上滚动","powerOffId":"2019092513000137"},{"poweroffId":2019092513000136,"sgpoweroffId":null,"subsName":"","lineName":"10kV朝阳路站528线路","pubTranName":"10kVB882配电室B882配电变压器,C330柱上变压器,B345柱上变压器,B1589柱上变压器,B343柱上变压器,B1485柱上变压器,B327柱上变压器,B328柱上变压器,C616柱上变压器,10kV石油化工厂五一宿舍L0019配电室(三供一业)配电变压器,B973柱上变压器,B786柱上变压器,B595柱上变压器,B900柱上变压器,","scope":"【影响街道/乡镇】胜利南巷、颉庄乡、向阳南大街、先锋街、胜利巷、百花路 【高危重要客户】无 【影响客户】冷冻厂宿舍、物资局宿舍、水碾头村、工人新村、螺丝庄村、审计局宿舍、十四中宿舍、工商局宿舍","startTime":"2019-10-18 10:00:00","stopDate":"2019-10-18 11:00:00","orgNo":"13406","typeCode":"计划停电","poweroffArea":"【全线路停电】停B1589柱上变压器,B343柱上变压器,B1485柱上变压器,B327柱上变压器,0356337704-保定市路灯管理处-专变,变压器,0356231804-石油化工厂生活区-专变,B328柱上变压器,C616柱上变压器,10kV石油化工厂五一宿舍L0019配电室(三供一业)配电变压器,0356234500-市工商局-2#专变,B973柱上变压器,B786柱上变压器,0356237655-保定实验小学-专变,0356184313-水碾头-专变,0356230452-中国农业银行股份有限公司保定分行-专变,B595柱上变压器,B900柱上变压器,0356413862-保定市路灯管理处-1-箱式变-变压器-1,10kVB882配电室B882配电变压器,C330柱上变压器,0356265102-中国联合网络通信有限公司保定市分公司-1#专变,B345柱上变压器,0595246803-保定市康信房地产开发有限公司-专变","poweroffReason":"【停电原因】由于供电设备临时检修导致１０ＫＶ朝阳路变电站５２８线路全线停电【变更送电】无【发布渠道】保定市保定有线电视台（１０月１０日２０时１５分至２１时４５分之间）屏幕上滚动","powerTime":"2019-10-18 10:28:41","powerComm":"已送电","subsNo":"","lineNo":"","tgNo":"","tgName":null,"infoStatus":"1","orgName":"保定供电公司","typeName":null,"infoStatusName":null,"dateDay":null,"orgNos":null,"nowTime":null,"countyName":null,"streetName":null,"villageName":null,"roadName":null,"communityName":null,"tranName":null,"sdLineName":null,"cityCode":"13406","cityName":"保定供电公司","provinceCode":null,"stopTime":"2019-10-18 11:00:00","powerType":"全部","powerOffArea":"【全线路停电】停B1589柱上变压器,B343柱上变压器,B1485柱上变压器,B327柱上变压器,0356337704-保定市路灯管理处-专变,变压器,0356231804-石油化工厂生活区-专变,B328柱上变压器,C616柱上变压器,10kV石油化工厂五一宿舍L0019配电室(三供一业)配电变压器,0356234500-市工商局-2#专变,B973柱上变压器,B786柱上变压器,0356237655-保定实验小学-专变,0356184313-水碾头-专变,0356230452-中国农业银行股份有限公司保定分行-专变,B595柱上变压器,B900柱上变压器,0356413862-保定市路灯管理处-1-箱式变-变压器-1,10kVB882配电室B882配电变压器,C330柱上变压器,0356265102-中国联合网络通信有限公司保定市分公司-1#专变,B345柱上变压器,0595246803-保定市康信房地产开发有限公司-专变","powerOffReason":"【停电原因】由于供电设备临时检修导致１０ＫＶ朝阳路变电站５２８线路全线停电【变更送电】无【发布渠道】保定市保定有线电视台（１０月１０日２０时１５分至２１时４５分之间）屏幕上滚动","powerOffId":"2019092513000136"}],"pageModel":{"pageNow":545,"totalCount":10973,"totalPage":1098,"tableRows":0,"pageCount":10,"beginCount":5440},"isExperi":"1"}