{"message":"","today":"2020-06-15","seleList":[{"poweroffId":2019092513000135,"sgpoweroffId":null,"subsName":"","lineName":"10kV朝阳路站516线路","pubTranName":"B316柱上变压器,B772柱上变压器,客户投资 D016柱上变压器,10kVB972配电室B972配电变压器,B326柱上变压器,B1735柱上变压器,B414柱上变压器,B1734柱上变压器,B1908柱上变压器,10kVB1736.B1740配电室B1740配电变压器,B1319柱上变压器,B3004柱上变压器,B3006柱上变压器,B784柱上变压器,B329柱上变压器,B1907柱上变压器,B288柱上变压器,B1737柱上变压器,B287柱上变压器,B479柱上变压器,10kVB285箱式变电站B285配电变压器,B317柱上变压器,B1738柱上变压器,B790柱上变压器,10kVB1739箱式变电站B1739配电变压器,B440柱上变压器,10kVB1736.B1740配电室B1736配电变压器,10kVB738配电室B738配电变压器,B330柱上变压器,10kVB1308配电室B1308配电变压器,10kVB404配电室B404配电变压器,B331柱上变压器,10kVB3005箱式变电站B3005配电变压器,B471柱上变压器,","scope":"【影响街道/乡镇】裕隆街、韩村南路、话剧院街、百花东路、东风中路 【高危重要客户】无 【影响客户】四里营铁路宿舍、田野宿舍、铁路十二房舍、大世界小区、西大园、农机小区、东风中路1684号院、四里营小区","startTime":"2019-10-18 09:00:00","stopDate":"2019-10-18 10:00:00","orgNo":"13406","typeCode":"计划停电","poweroffArea":"【全线路停电】停0356237668-保定地质工程勘查院-专变,10kVB404配电室B404配电变压器,B1734柱上变压器,B479柱上变压器,0631993649-保定市广原地产有限公司-专变-144707200-变压器,变压器,10kVB1736.B1740配电室B1740配电变压器,0356222037-河北中兴汽车制造有限公司-1-配电室-变压器-2,10kVB3005箱式变电站B3005配电变压器,10kVB972配电室B972配电变压器,B317柱上变压器,10kVB1739箱式变电站B1739配电变压器,B316柱上变压器,B784柱上变压器,B329柱上变压器,0357716281-保定市职业技术教育中心-专变,B326柱上变压器,0631993649-保定市广原地产有限公司-专变-144707203-变压器,B330柱上变压器,B1319柱上变压器,B331柱上变压器,0356185101-市农委-专变,B287柱上变压器,B1908柱上变压器,10kVB738配电室B738配电变压器,B1737柱上变压器,B471柱上变压器,客户投资 D016柱上变压器,0356174338-中铁电气化局集团保定铁道变压器有限公司-1-配电室-变压器-2,B440柱上变压器,B288柱上变压器,0356232692-1保定通用热力有限公司-1-配电室-变压器-2,B1907柱上变压器,0549870977-交通银行股份有限公司保定分行-1-箱式变-变压器-1,10kVB1736.B1740配电室B1736配电变压器,B772柱上变压器,10kVB285箱式变电站B285配电变压器,B3006柱上变压器,B790柱上变压器,B1735柱上变压器,B414柱上变压器,B1738柱上变压器,B3004柱上变压器,0356237642-中铁电气化局集团北京建筑工程有限公司保定分公司-专变-185498030-变压器,10kVB1308配电室B1308配电变压器","poweroffReason":"【停电原因】由供电设备临时检修导致１０ＫＶ朝阳路变电站５１６线路全线停电【变更送电】无【发布渠道】保定市保定有线电视台（１０月１０日２０时１５分至２１时４５分之间）屏幕上滚动","powerTime":"2019-10-18 09:54:05","powerComm":"已送电","subsNo":"","lineNo":"","tgNo":"","tgName":null,"infoStatus":"1","orgName":"保定供电公司","typeName":null,"infoStatusName":null,"dateDay":null,"orgNos":null,"nowTime":null,"countyName":null,"streetName":null,"villageName":null,"roadName":null,"communityName":null,"tranName":null,"sdLineName":null,"cityCode":"13406","cityName":"保定供电公司","provinceCode":null,"stopTime":"2019-10-18 10:00:00","powerType":"全部","powerOffArea":"【全线路停电】停0356237668-保定地质工程勘查院-专变,10kVB404配电室B404配电变压器,B1734柱上变压器,B479柱上变压器,0631993649-保定市广原地产有限公司-专变-144707200-变压器,变压器,10kVB1736.B1740配电室B1740配电变压器,0356222037-河北中兴汽车制造有限公司-1-配电室-变压器-2,10kVB3005箱式变电站B3005配电变压器,10kVB972配电室B972配电变压器,B317柱上变压器,10kVB1739箱式变电站B1739配电变压器,B316柱上变压器,B784柱上变压器,B329柱上变压器,0357716281-保定市职业技术教育中心-专变,B326柱上变压器,0631993649-保定市广原地产有限公司-专变-144707203-变压器,B330柱上变压器,B1319柱上变压器,B331柱上变压器,0356185101-市农委-专变,B287柱上变压器,B1908柱上变压器,10kVB738配电室B738配电变压器,B1737柱上变压器,B471柱上变压器,客户投资 D016柱上变压器,0356174338-中铁电气化局集团保定铁道变压器有限公司-1-配电室-变压器-2,B440柱上变压器,B288柱上变压器,0356232692-1保定通用热力有限公司-1-配电室-变压器-2,B1907柱上变压器,0549870977-交通银行股份有限公司保定分行-1-箱式变-变压器-1,10kVB1736.B1740配电室B1736配电变压器,B772柱上变压器,10kVB285箱式变电站B285配电变压器,B3006柱上变压器,B790柱上变压器,B1735柱上变压器,B414柱上变压器,B1738柱上变压器,B3004柱上变压器,0356237642-中铁电气化局集团北京建筑工程有限公司保定分公司-专变-185498030-变压器,10kVB1308配电室B1308配电变压器","powerOffReason":"【停电原因】由供电设备临时检修导致１０ＫＶ朝阳路变电站５１６线路全线停电【变更送电】无【发布渠道】保定市保定有线电视台（１０月１０日２０时１５分至２１时４５分之间）屏幕上滚动","powerOffId":"2019092513000135"},{"poweroffId":2019092513000133,"sgpoweroffId":null,"subsName":"","lineName":"10kV朝阳路站537线路","pubTranName":"B1846柱上变压器,B631柱上变压器,B334柱上变压器,","scope":"【影响街道/乡镇】朝阳中路、朝阳南大街、百花路 【高危重要客户】无 【影响客户】工商银行、税务局宿舍、儿童医院宿舍、螺丝庄、农委宿舍、环保局宿舍、中大针织宿舍、时代商厦、国贸大厦、新天地、市委、市政府","startTime":"2019-10-16 08:30:00","stopDate":"2019-10-16 09:00:00","orgNo":"13406","typeCode":"计划停电","poweroffArea":"【全线路停电】停B334柱上变压器,0356179320-保定大世界商业城-专变,0356234526-保定市中大企业发展有限公司-专变-130864654-变压器,0554343950-中共保定市委机关事务管理局-专变-149845957-变压器,0356224798-工商银行-1#专变,0356179333-保定大世界商业城-专变,0356183277-河北保定时代商厦有限公司-1#专变,B1846柱上变压器,B631柱上变压器,0554343950-中共保定市委机关事务管理局-专变-149846060-变压器,0356224798-工商银行-2#专变,0554343950-中共保定市委机关事务管理局-2#专变","poweroffReason":"【停电原因】由于供电设备临时检修导致１０ＫＶ朝阳路变电站５３７线路全线停电【变更送电】无【发布渠道】保定市保定有线电视台（１０月０８日２０时１５分至２１时４５分之间）屏幕上滚动","powerTime":"2019-10-16 08:35:47","powerComm":"已送电","subsNo":"","lineNo":"","tgNo":"","tgName":null,"infoStatus":"1","orgName":"保定供电公司","typeName":null,"infoStatusName":null,"dateDay":null,"orgNos":null,"nowTime":null,"countyName":null,"streetName":null,"villageName":null,"roadName":null,"communityName":null,"tranName":null,"sdLineName":null,"cityCode":"13406","cityName":"保定供电公司","provinceCode":null,"stopTime":"2019-10-16 09:00:00","powerType":"全部","powerOffArea":"【全线路停电】停B334柱上变压器,0356179320-保定大世界商业城-专变,0356234526-保定市中大企业发展有限公司-专变-130864654-变压器,0554343950-中共保定市委机关事务管理局-专变-149845957-变压器,0356224798-工商银行-1#专变,0356179333-保定大世界商业城-专变,0356183277-河北保定时代商厦有限公司-1#专变,B1846柱上变压器,B631柱上变压器,0554343950-中共保定市委机关事务管理局-专变-149846060-变压器,0356224798-工商银行-2#专变,0554343950-中共保定市委机关事务管理局-2#专变","powerOffReason":"【停电原因】由于供电设备临时检修导致１０ＫＶ朝阳路变电站５３７线路全线停电【变更送电】无【发布渠道】保定市保定有线电视台（１０月０８日２０时１５分至２１时４５分之间）屏幕上滚动","powerOffId":"2019092513000133"},{"poweroffId":2019092513000132,"sgpoweroffId":null,"subsName":"","lineName":"10kV朝阳路站532线路","pubTranName":"10kV朝阳路站532线路B1275柱上变压器,10kV朝阳路站532线路B294柱上变压器,10kVB760配电室B760配电变压器,10kV朝阳路站532线路C020柱上变压器,10kV朝阳路站532线路C463柱上变压器,10kVB498箱式变电站B498配电变压器,10kVB1748.B1749配电室B1748配电变压器,10kVY0098.Y0099配电室Y0098配电变压器,10kVB289配电室B289配电变压器,10kVB739配电室B739配电变压器,10kVY0098.Y0099配电室Y0099配电变压器,10kV朝阳路站532线路B291柱上变压器,10kV朝阳路站532线路B470柱上变压器,10kVB1752.B1753配电室B1752配电变压器,10kVB1748.B1749配电室B1749配电变压器,10kVB1750.B1751配电室B1750配电变压器,10kVB1752.B1753配电室B1753配电变压器,10kVB1750.B1751配电室B1751配电变压器,","scope":"【影响街道/乡镇】百花路、阳光南大街 【高危重要客户】无 【影响客户】都市春天小区、百安居小区、荣誉铂庭小区、西大园","startTime":"2019-10-16 09:00:00","stopDate":"2019-10-16 10:00:00","orgNo":"13406","typeCode":"计划停电","poweroffArea":"【全线路停电】停0547750550-保定市广原地产有限公司-2#专变,10kVB1752.B1753配电室B1753配电变压器,0547750550-保定市广原地产有限公司-1#专变,10kVB1748.B1749配电室B1748配电变压器,10kVY0098.Y0099配电室Y0099配电变压器,10kVB498箱式变电站B498配电变压器,0547747143-保定市广原地产有限公司-1#专变,10kVB739配电室B739配电变压器,10kV朝阳路站532线路B470柱上变压器,0580321380-保定火车站改扩建工程建设办公室-专变,0356414009-保定市路灯管理处-1-箱式变-变压器-1,变压器,0358521022-保定市嘉昌物业管理有限公司-1-配电室-变压器-1,0577964037-保定火车站改扩建工程建设办公室-3#专变,0696582819-保定市发投热力有限公司-变压器1,0356188331-保定火车站改扩建工程建设办公室-专变,10kVB1752.B1753配电室B1752配电变压器,0356173090-市药品检验所-专变,0648196468-保定伍建房地产开发有限责任公司-专变-172567587-变压器,10kVB760配电室B760配电变压器,0358239493-保定市第十七中学-1-箱式变-变压器-1,0356414012-保定市路灯管理处-1-箱式变-变压器-1,10kVY0098.Y0099配电室Y0098配电变压器,0356414025-保定市路灯管理处-1-箱式变-变压器-1,0580323849-保定火车站改扩建工程建设办公室-专变,10kVB1750.B1751配电室B1751配电变压器,0577964037-保定火车站改扩建工程建设办公室-2#专变,0547747143-保定市广原地产有限公司-2#专变,10kVB1748.B1749配电室B1749配电变压器,0696582819-保定市发投热力有限公司-变压器2,10kVB289配电室B289配电变压器,10kV朝阳路站532线路C020柱上变压器,10kVB1750.B1751配电室B1750配电变压器,10kV朝阳路站532线路B291柱上变压器,10kV朝阳路站532线路B1275柱上变压器,10kV朝阳路站532线路C463柱上变压器,10kV朝阳路站532线路B294柱上变压器,0577964037-保定火车站改扩建工程建设办公室-1#专变,0575430758-保定火车站改扩建工程建设办公室-专变","poweroffReason":"【停电原因】由于供电设备临时检修导致１０ＫＶ朝阳路变电站５３２线路全线停电【变更送电】无【发布渠道】保定市保定有线电视台（１０月０８日２０时１５分至２１时４５分之间）屏幕上滚动","powerTime":"2019-10-16 09:26:37","powerComm":"已送电","subsNo":"","lineNo":"","tgNo":"","tgName":null,"infoStatus":"1","orgName":"保定供电公司","typeName":null,"infoStatusName":null,"dateDay":null,"orgNos":null,"nowTime":null,"countyName":null,"streetName":null,"villageName":null,"roadName":null,"communityName":null,"tranName":null,"sdLineName":null,"cityCode":"13406","cityName":"保定供电公司","provinceCode":null,"stopTime":"2019-10-16 10:00:00","powerType":"全部","powerOffArea":"【全线路停电】停0547750550-保定市广原地产有限公司-2#专变,10kVB1752.B1753配电室B1753配电变压器,0547750550-保定市广原地产有限公司-1#专变,10kVB1748.B1749配电室B1748配电变压器,10kVY0098.Y0099配电室Y0099配电变压器,10kVB498箱式变电站B498配电变压器,0547747143-保定市广原地产有限公司-1#专变,10kVB739配电室B739配电变压器,10kV朝阳路站532线路B470柱上变压器,0580321380-保定火车站改扩建工程建设办公室-专变,0356414009-保定市路灯管理处-1-箱式变-变压器-1,变压器,0358521022-保定市嘉昌物业管理有限公司-1-配电室-变压器-1,0577964037-保定火车站改扩建工程建设办公室-3#专变,0696582819-保定市发投热力有限公司-变压器1,0356188331-保定火车站改扩建工程建设办公室-专变,10kVB1752.B1753配电室B1752配电变压器,0356173090-市药品检验所-专变,0648196468-保定伍建房地产开发有限责任公司-专变-172567587-变压器,10kVB760配电室B760配电变压器,0358239493-保定市第十七中学-1-箱式变-变压器-1,0356414012-保定市路灯管理处-1-箱式变-变压器-1,10kVY0098.Y0099配电室Y0098配电变压器,0356414025-保定市路灯管理处-1-箱式变-变压器-1,0580323849-保定火车站改扩建工程建设办公室-专变,10kVB1750.B1751配电室B1751配电变压器,0577964037-保定火车站改扩建工程建设办公室-2#专变,0547747143-保定市广原地产有限公司-2#专变,10kVB1748.B1749配电室B1749配电变压器,0696582819-保定市发投热力有限公司-变压器2,10kVB289配电室B289配电变压器,10kV朝阳路站532线路C020柱上变压器,10kVB1750.B1751配电室B1750配电变压器,10kV朝阳路站532线路B291柱上变压器,10kV朝阳路站532线路B1275柱上变压器,10kV朝阳路站532线路C463柱上变压器,10kV朝阳路站532线路B294柱上变压器,0577964037-保定火车站改扩建工程建设办公室-1#专变,0575430758-保定火车站改扩建工程建设办公室-专变","powerOffReason":"【停电原因】由于供电设备临时检修导致１０ＫＶ朝阳路变电站５３２线路全线停电【变更送电】无【发布渠道】保定市保定有线电视台（１０月０８日２０时１５分至２１时４５分之间）屏幕上滚动","powerOffId":"2019092513000132"},{"poweroffId":2019092513000131,"sgpoweroffId":null,"subsName":"","lineName":"10kV朝阳路站530线路","pubTranName":"B275柱上变压器,B589柱上变压器,B607柱上变压器,B590柱上变压器,10kVB220配电室B220配电变压器,B1798柱上变压器,B518柱上变压器,B325柱上变压器,B588柱上变压器,10kVB1675.B1676配电室B1675配电变压器,B3007柱上变压器,B592柱上变压器,B324柱上变压器,10kVB903配电室B903配电变压器,B591柱上变压器,B323柱上变压器,B587柱上变压器,B335柱上变压器,10kVB1675.B1676配电室B1676配电变压器,","scope":"【影响街道/乡镇】康乐路、朝阳大街、百花西路、裕康街、向阳南大街 【高危重要客户】无 【影响客户】工人新村、土地局宿舍、人保宿舍、交通局宿舍、百花园小区、棉纺宿舍、二医院宿舍、二轻宿舍楼、制桶厂宿舍、轻工业局宿舍、鑫丰集团宿舍、中燕宿舍楼、裕康嘉苑、邮电宿舍","startTime":"2019-10-16 10:00:00","stopDate":"2019-10-16 11:00:00","orgNo":"13406","typeCode":"计划停电","poweroffArea":"【全线路停电】停B275柱上变压器,B589柱上变压器,B607柱上变压器,0356238586-罗丝庄村委会-专变,0674173039-保定市白云房地产开发有限公司-专变-216173069-变压器,B590柱上变压器,0356225674-保定市女子职业中专-专变,0356186973-中国人民保险公司保定分公司-专变,变压器,10kVB220配电室B220配电变压器,B1798柱上变压器,0674173039-保定市白云房地产开发有限公司-专变-216172295-变压器,0674173039-保定市白云房地产开发有限公司-专变-216172291-变压器,B518柱上变压器,B325柱上变压器,0356273989-保定电视台-1-箱式变-变压器-1,B588柱上变压器,10kVB1675.B1676配电室B1675配电变压器,B3007柱上变压器,0356187035-保定市粮油贸易公司-1-配电室-变压器-1,B592柱上变压器,0356413934-保定市路灯管理处-专变,B324柱上变压器,10kVB903配电室B903配电变压器,B591柱上变压器,B323柱上变压器,0356213101-保定市恩客商贸有限公司-1-配电室-变压器-1,B587柱上变压器,0356232517-保定市九歌综合市场-专变,B335柱上变压器,10kVB1675.B1676配电室B1676配电变压器,0356231745-保定保利变压器冷却设备有限公司-专变,0356234470-保定市新市区九地物业管理部-专变,0593049110-保定市九歌综合市场-专变,0356234500-市工商局-1#专变","poweroffReason":"【停电原因】由于供电设备临时检修导致１０ＫＶ朝阳路变电站５３０线路全线停电【变更送电】无【发布渠道】保定市保定有线电视台（１０月０８日２０时１５分至２１时４５分之间）屏幕上滚动","powerTime":"2019-10-16 10:37:31","powerComm":"已送电","subsNo":"","lineNo":"","tgNo":"","tgName":null,"infoStatus":"1","orgName":"保定供电公司","typeName":null,"infoStatusName":null,"dateDay":null,"orgNos":null,"nowTime":null,"countyName":null,"streetName":null,"villageName":null,"roadName":null,"communityName":null,"tranName":null,"sdLineName":null,"cityCode":"13406","cityName":"保定供电公司","provinceCode":null,"stopTime":"2019-10-16 11:00:00","powerType":"全部","powerOffArea":"【全线路停电】停B275柱上变压器,B589柱上变压器,B607柱上变压器,0356238586-罗丝庄村委会-专变,0674173039-保定市白云房地产开发有限公司-专变-216173069-变压器,B590柱上变压器,0356225674-保定市女子职业中专-专变,0356186973-中国人民保险公司保定分公司-专变,变压器,10kVB220配电室B220配电变压器,B1798柱上变压器,0674173039-保定市白云房地产开发有限公司-专变-216172295-变压器,0674173039-保定市白云房地产开发有限公司-专变-216172291-变压器,B518柱上变压器,B325柱上变压器,0356273989-保定电视台-1-箱式变-变压器-1,B588柱上变压器,10kVB1675.B1676配电室B1675配电变压器,B3007柱上变压器,0356187035-保定市粮油贸易公司-1-配电室-变压器-1,B592柱上变压器,0356413934-保定市路灯管理处-专变,B324柱上变压器,10kVB903配电室B903配电变压器,B591柱上变压器,B323柱上变压器,0356213101-保定市恩客商贸有限公司-1-配电室-变压器-1,B587柱上变压器,0356232517-保定市九歌综合市场-专变,B335柱上变压器,10kVB1675.B1676配电室B1676配电变压器,0356231745-保定保利变压器冷却设备有限公司-专变,0356234470-保定市新市区九地物业管理部-专变,0593049110-保定市九歌综合市场-专变,0356234500-市工商局-1#专变","powerOffReason":"【停电原因】由于供电设备临时检修导致１０ＫＶ朝阳路变电站５３０线路全线停电【变更送电】无【发布渠道】保定市保定有线电视台（１０月０８日２０时１５分至２１时４５分之间）屏幕上滚动","powerOffId":"2019092513000131"},{"poweroffId":2019092513000123,"sgpoweroffId":null,"subsName":"","lineName":"大次良线511","pubTranName":"河北德耐美康投资有限公司,大次良11号,小次良4号,小次良机加工厂,徐水县长青车床加工厂,大次良面粉厂1号,大次良面粉厂2号,小次良2号,徐水县新华车床加工厂,大次良27号,曲城15号,大次良34号,大次良19号,徐水县一帆机床加工厂,曲城塑料厂,大次良15号,小次良1号,大次良21号,大次良17号,大次良1号,大次良31号,大次良30号,大次良14号,徐水县庆隆管件加工厂,大次良5号,胜利加工厂,大次良23号,小次良3号,大次良16号,","scope":"【影响街道/乡镇】遂城镇 【高危重要客户】无 【影响客户】大次良、小次良","startTime":"2019-09-25 15:30:00","stopDate":"2019-09-25 20:00:00","orgNo":"1340605","typeCode":"其他临时停电","poweroffArea":"【全线路停电】停大次良1号,大次良15号,大次良30号,大次良34号,大次良17号,大次良16号,小次良4号,大次良31号,大次良23号,徐水县一帆机床加工厂,大次良5号,曲城15号,大次良面粉厂1号,小次良机加工厂,大次良面粉厂2号,小次良2号,徐水县长青车床加工厂,胜利加工厂,大次良11号,曲城塑料厂,大次良19号,大次良14号,小次良1号,大次良27号,小次良3号,河北德耐美康投资有限公司,徐水县新华车床加工厂,大次良21号,徐水县庆隆管件加工厂","poweroffReason":"【停电原因】由于处理紧急缺陷导致３５ＫＶ广门变电站大次良５１１线路全线停电 【变更送电】无 【发布渠道】通过９５５９８发布","powerTime":"2019-09-25 19:30:19","powerComm":"已送电","subsNo":"","lineNo":"","tgNo":"","tgName":null,"infoStatus":"1","orgName":"国网徐水县供电公司","typeName":null,"infoStatusName":null,"dateDay":null,"orgNos":null,"nowTime":null,"countyName":null,"streetName":null,"villageName":null,"roadName":null,"communityName":null,"tranName":null,"sdLineName":null,"cityCode":"1340605","cityName":"国网徐水县供电公司","provinceCode":null,"stopTime":"2019-09-25 20:00:00","powerType":"全部","powerOffArea":"【全线路停电】停大次良1号,大次良15号,大次良30号,大次良34号,大次良17号,大次良16号,小次良4号,大次良31号,大次良23号,徐水县一帆机床加工厂,大次良5号,曲城15号,大次良面粉厂1号,小次良机加工厂,大次良面粉厂2号,小次良2号,徐水县长青车床加工厂,胜利加工厂,大次良11号,曲城塑料厂,大次良19号,大次良14号,小次良1号,大次良27号,小次良3号,河北德耐美康投资有限公司,徐水县新华车床加工厂,大次良21号,徐水县庆隆管件加工厂","powerOffReason":"【停电原因】由于处理紧急缺陷导致３５ＫＶ广门变电站大次良５１１线路全线停电 【变更送电】无 【发布渠道】通过９５５９８发布","powerOffId":"2019092513000123"},{"poweroffId":2019092513000117,"sgpoweroffId":null,"subsName":"","lineName":"10kV朝阳路站528线路","pubTranName":"B345柱上变压器,B1589柱上变压器,C330柱上变压器,B343柱上变压器,B1485柱上变压器,B327柱上变压器,B328柱上变压器,C616柱上变压器,10kV石油化工厂五一宿舍L0019配电室(三供一业)配电变压器,B973柱上变压器,B786柱上变压器,B595柱上变压器,B900柱上变压器,10kVB882配电室B882配电变压器,","scope":"【影响街道/乡镇】胜利南巷、颉庄乡、向阳南大街、先锋街、胜利巷、百花路 【高危重要客户】无 【影响客户】冷冻厂宿舍、物资局宿舍、水碾头村、工人新村、螺丝庄村、审计局宿舍、十四中宿舍、工商局宿舍","startTime":"2019-10-16 10:00:00","stopDate":"2019-10-16 11:00:00","orgNo":"13406","typeCode":"计划停电","poweroffArea":"【全线路停电】停B1589柱上变压器,B343柱上变压器,B1485柱上变压器,B327柱上变压器,0356337704-保定市路灯管理处-专变,变压器,0356231804-石油化工厂生活区-专变,B328柱上变压器,C616柱上变压器,10kV石油化工厂五一宿舍L0019配电室(三供一业)配电变压器,0356234500-市工商局-2#专变,B973柱上变压器,B786柱上变压器,0356237655-保定实验小学-专变,0356184313-水碾头-专变,0356230452-中国农业银行股份有限公司保定分行-专变,B595柱上变压器,B900柱上变压器,0356413862-保定市路灯管理处-1-箱式变-变压器-1,10kVB882配电室B882配电变压器,C330柱上变压器,0356265102-中国联合网络通信有限公司保定市分公司-1#专变,B345柱上变压器,0595246803-保定市康信房地产开发有限公司-专变","poweroffReason":"【停电原因】由于供电设备临时检修导致１０ＫＶ朝阳路变电站５２８线路全线停电【变更送电】无【发布渠道】保定市保定有线电视台（１０月０８日２０时１５分至２１时４５分之间）屏幕上滚动","powerTime":"2019-10-16 10:36:55","powerComm":"已送电","subsNo":"","lineNo":"","tgNo":"","tgName":null,"infoStatus":"1","orgName":"保定供电公司","typeName":null,"infoStatusName":null,"dateDay":null,"orgNos":null,"nowTime":null,"countyName":null,"streetName":null,"villageName":null,"roadName":null,"communityName":null,"tranName":null,"sdLineName":null,"cityCode":"13406","cityName":"保定供电公司","provinceCode":null,"stopTime":"2019-10-16 11:00:00","powerType":"全部","powerOffArea":"【全线路停电】停B1589柱上变压器,B343柱上变压器,B1485柱上变压器,B327柱上变压器,0356337704-保定市路灯管理处-专变,变压器,0356231804-石油化工厂生活区-专变,B328柱上变压器,C616柱上变压器,10kV石油化工厂五一宿舍L0019配电室(三供一业)配电变压器,0356234500-市工商局-2#专变,B973柱上变压器,B786柱上变压器,0356237655-保定实验小学-专变,0356184313-水碾头-专变,0356230452-中国农业银行股份有限公司保定分行-专变,B595柱上变压器,B900柱上变压器,0356413862-保定市路灯管理处-1-箱式变-变压器-1,10kVB882配电室B882配电变压器,C330柱上变压器,0356265102-中国联合网络通信有限公司保定市分公司-1#专变,B345柱上变压器,0595246803-保定市康信房地产开发有限公司-专变","powerOffReason":"【停电原因】由于供电设备临时检修导致１０ＫＶ朝阳路变电站５２８线路全线停电【变更送电】无【发布渠道】保定市保定有线电视台（１０月０８日２０时１５分至２１时４５分之间）屏幕上滚动","powerOffId":"2019092513000117"},{"poweroffId":2019092513000114,"sgpoweroffId":null,"subsName":"","lineName":"10kV朝阳路站516线路","pubTranName":"B1734柱上变压器,B1908柱上变压器,10kVB1736.B1740配电室B1740配电变压器,B1319柱上变压器,B3004柱上变压器,B3006柱上变压器,B784柱上变压器,B329柱上变压器,B1907柱上变压器,B288柱上变压器,B1737柱上变压器,B287柱上变压器,B479柱上变压器,10kVB285箱式变电站B285配电变压器,B317柱上变压器,B1738柱上变压器,B790柱上变压器,10kVB1739箱式变电站B1739配电变压器,B440柱上变压器,10kVB3005箱式变电站B3005配电变压器,B471柱上变压器,B316柱上变压器,B772柱上变压器,客户投资 D016柱上变压器,10kVB972配电室B972配电变压器,B326柱上变压器,B1735柱上变压器,B414柱上变压器,10kVB1736.B1740配电室B1736配电变压器,10kVB738配电室B738配电变压器,B330柱上变压器,10kVB1308配电室B1308配电变压器,10kVB404配电室B404配电变压器,B331柱上变压器,","scope":"【影响街道/乡镇】裕隆街、韩村南路、话剧院街、百花东路、东风中路 【高危重要客户】无 【影响客户】四里营铁路宿舍、田野宿舍、铁路十二房舍、大世界小区、西大园、农机小区、东风中路1684号院、四里营小区","startTime":"2019-10-16 09:00:00","stopDate":"2019-10-16 10:00:00","orgNo":"13406","typeCode":"计划停电","poweroffArea":"【全线路停电】停0356237668-保定地质工程勘查院-专变,10kVB404配电室B404配电变压器,B1734柱上变压器,B479柱上变压器,0631993649-保定市广原地产有限公司-专变-144707200-变压器,变压器,10kVB1736.B1740配电室B1740配电变压器,0356222037-河北中兴汽车制造有限公司-1-配电室-变压器-2,10kVB3005箱式变电站B3005配电变压器,10kVB972配电室B972配电变压器,B317柱上变压器,10kVB1739箱式变电站B1739配电变压器,B316柱上变压器,B784柱上变压器,B329柱上变压器,0357716281-保定市职业技术教育中心-专变,B326柱上变压器,0631993649-保定市广原地产有限公司-专变-144707203-变压器,B330柱上变压器,B1319柱上变压器,B331柱上变压器,0356185101-市农委-专变,B287柱上变压器,B1908柱上变压器,10kVB738配电室B738配电变压器,B1737柱上变压器,B471柱上变压器,客户投资 D016柱上变压器,0356174338-中铁电气化局集团保定铁道变压器有限公司-1-配电室-变压器-2,B440柱上变压器,B288柱上变压器,0356232692-1保定通用热力有限公司-1-配电室-变压器-2,B1907柱上变压器,0549870977-交通银行股份有限公司保定分行-1-箱式变-变压器-1,10kVB1736.B1740配电室B1736配电变压器,B772柱上变压器,10kVB285箱式变电站B285配电变压器,B3006柱上变压器,B790柱上变压器,B1735柱上变压器,B414柱上变压器,B1738柱上变压器,B3004柱上变压器,0356237642-中铁电气化局集团北京建筑工程有限公司保定分公司-专变-185498030-变压器,10kVB1308配电室B1308配电变压器","poweroffReason":"【停电原因】由供电设备临时检修导致１０ＫＶ朝阳路变电站５１６线路全线停电【变更送电】无【发布渠道】保定市保定有线电视台（１０月０８日２０时１５分至２１时４５分之间）屏幕上滚动","powerTime":"2019-10-16 09:13:25","powerComm":"已送电","subsNo":"","lineNo":"","tgNo":"","tgName":null,"infoStatus":"1","orgName":"保定供电公司","typeName":null,"infoStatusName":null,"dateDay":null,"orgNos":null,"nowTime":null,"countyName":null,"streetName":null,"villageName":null,"roadName":null,"communityName":null,"tranName":null,"sdLineName":null,"cityCode":"13406","cityName":"保定供电公司","provinceCode":null,"stopTime":"2019-10-16 10:00:00","powerType":"全部","powerOffArea":"【全线路停电】停0356237668-保定地质工程勘查院-专变,10kVB404配电室B404配电变压器,B1734柱上变压器,B479柱上变压器,0631993649-保定市广原地产有限公司-专变-144707200-变压器,变压器,10kVB1736.B1740配电室B1740配电变压器,0356222037-河北中兴汽车制造有限公司-1-配电室-变压器-2,10kVB3005箱式变电站B3005配电变压器,10kVB972配电室B972配电变压器,B317柱上变压器,10kVB1739箱式变电站B1739配电变压器,B316柱上变压器,B784柱上变压器,B329柱上变压器,0357716281-保定市职业技术教育中心-专变,B326柱上变压器,0631993649-保定市广原地产有限公司-专变-144707203-变压器,B330柱上变压器,B1319柱上变压器,B331柱上变压器,0356185101-市农委-专变,B287柱上变压器,B1908柱上变压器,10kVB738配电室B738配电变压器,B1737柱上变压器,B471柱上变压器,客户投资 D016柱上变压器,0356174338-中铁电气化局集团保定铁道变压器有限公司-1-配电室-变压器-2,B440柱上变压器,B288柱上变压器,0356232692-1保定通用热力有限公司-1-配电室-变压器-2,B1907柱上变压器,0549870977-交通银行股份有限公司保定分行-1-箱式变-变压器-1,10kVB1736.B1740配电室B1736配电变压器,B772柱上变压器,10kVB285箱式变电站B285配电变压器,B3006柱上变压器,B790柱上变压器,B1735柱上变压器,B414柱上变压器,B1738柱上变压器,B3004柱上变压器,0356237642-中铁电气化局集团北京建筑工程有限公司保定分公司-专变-185498030-变压器,10kVB1308配电室B1308配电变压器","powerOffReason":"【停电原因】由供电设备临时检修导致１０ＫＶ朝阳路变电站５１６线路全线停电【变更送电】无【发布渠道】保定市保定有线电视台（１０月０８日２０时１５分至２１时４５分之间）屏幕上滚动","powerOffId":"2019092513000114"},{"poweroffId":2019092513000109,"sgpoweroffId":null,"subsName":"","lineName":"10kV祝泽站520线路","pubTranName":"C146柱上变压器,10kVB1612.B1613配电室B1613配电变压器,10kVB1612.B1613配电室B1612配电变压器,","scope":"【影响街道/乡镇】乐凯南大街、富昌乡 【高危重要客户】无 【影响客户】列电生活区、二台村、二台纸箱厂、前屯、中建交通、建材局","startTime":"2019-10-17 03:00:00","stopDate":"2019-10-17 22:40:00","orgNo":"13406","typeCode":"计划停电","poweroffArea":"【分支停电】停10kVB1612.B1613配电室B1612配电变压器,0357445804-保定市建材局铁木加工厂-专变,0356178819-保定市新市区二台纸箱厂-专变,0356178806-二台纸箱厂-专变,C146柱上变压器,0356178789-保定市新市区富昌乡二台村村民委员会-专变-169366872-变压器,10kVB1612.B1613配电室B1613配电变压器","poweroffReason":"【停电原因】由于供电设备临时检修导致１０ＫＶ祝泽变电站５２０线路三丰路ＨＫ－２２环网柜１号间隔开关以上停电【变更送电】因抢修进度加快，原定23:59送电现计划22:40送电【发布渠道】保定市保定有线电视台（１０月９日２０时１５分至２１时４５分之间）屏幕上滚动","powerTime":"2019-10-17 22:25:45","powerComm":"已送电","subsNo":"","lineNo":"","tgNo":"","tgName":null,"infoStatus":"1","orgName":"保定供电公司","typeName":null,"infoStatusName":null,"dateDay":null,"orgNos":null,"nowTime":null,"countyName":null,"streetName":null,"villageName":null,"roadName":null,"communityName":null,"tranName":null,"sdLineName":null,"cityCode":"13406","cityName":"保定供电公司","provinceCode":null,"stopTime":"2019-10-17 22:40:00","powerType":"全部","powerOffArea":"【分支停电】停10kVB1612.B1613配电室B1612配电变压器,0357445804-保定市建材局铁木加工厂-专变,0356178819-保定市新市区二台纸箱厂-专变,0356178806-二台纸箱厂-专变,C146柱上变压器,0356178789-保定市新市区富昌乡二台村村民委员会-专变-169366872-变压器,10kVB1612.B1613配电室B1613配电变压器","powerOffReason":"【停电原因】由于供电设备临时检修导致１０ＫＶ祝泽变电站５２０线路三丰路ＨＫ－２２环网柜１号间隔开关以上停电【变更送电】因抢修进度加快，原定23:59送电现计划22:40送电【发布渠道】保定市保定有线电视台（１０月９日２０时１５分至２１时４５分之间）屏幕上滚动","powerOffId":"2019092513000109"},{"poweroffId":2019092513000097,"sgpoweroffId":null,"subsName":"","lineName":"衣巾店线525","pubTranName":"徐家营3期,北衣巾东变压器,徐家营新民居1,幸福营20号变压器,岳家街06号变压器,陶辛庄小区2号箱变间隔配电变压器,徐家营新民居,梁北东台变压器,北衣巾南变压器,梁北北变压器,幸福营19号变压器,陶辛庄小区3号箱变配电变压器,岳家街排灌2变压器【纯农排变】,徐家营三期间隔配电变压器,梁北中,徐家营新民居2,陶辛庄小区1号箱变间隔配电变压器,陶辛庄小区5号箱变配电变压器,梁家营乡政府变压器,岳家街05号变压器,陶辛庄小区4号箱变配电变压器,","scope":"【影响街道/乡镇】梁家营乡、方官镇 【高危重要客户】无 【影响客户】天阔地产、中誉房地产、正德昊远房地产、昊龙、天筑建材、高德门窗、朝阳中学、高铁东站广场、龙堂水厂、大史村、小史村、蔡庄村、梁南村、梁北村、陶辛庄村、幸福营村、徐家营小区、塔楼村、薛庄村、岳家街村、北衣巾村","startTime":"2019-09-25 15:36:00","stopDate":"2019-09-26 01:00:00","orgNo":"1340612","typeCode":"电网故障停限电","poweroffArea":"【全线路停电】停小史变压器,塔楼变压器,河北汇佳房地产开发有限公司,高碑店市路灯管理办公室,高碑店市呈辉石材加工有限公司,岳家街排灌变压器【纯农排变】,薛庄东,大史东台变压器,大史南台变压器,岳家街06号变压器,徐家营新民居,昊龙2,高碑店市朝阳中学,河北汇佳房地产开发有限公司2,高碑店市建设局,赵庄排灌【纯农排变】,蔡庄变压器,河北驰通房地产开发有限公司,0700004214|昊龙公司,高碑店市中誉房地产开发有限公司1250,高碑店市中誉房地产开发有限公司1000,幸福营20号变压器,河北培鹏农业科技有限公司变压器,高碑店市中誉房地产开发有限公司800,河北杉浩房地产开发有限公司,岳家街05号变压器,河北汇佳房地产开发有限公司变压器,岳家街排灌2变压器【纯农排变】,徐家营新民居2,北衣巾内变压器,梁北北变压器,0580353363-高碑店市水利局龙堂水厂-专变-124550007-高碑店市水利局变压器,高碑店市中誉房地产开发有限公司630,梁北排灌2【纯农排变】,中铁一局2公司,高碑店市正德昊远房地产开发有限公司3,北衣巾北变压器,岳家街02号变压器,东升高计,东升3,塔楼排灌2变压器【纯农排变】,塔楼面2,中铁一局中心试验室,大史排灌2变压器【纯农排变】,北衣巾东变压器,薛庄排灌变压器【纯农排变】,高碑店市志豪机电设备有限公司,岳家街03号变压器,北衣巾排灌1变压器【纯农排变】,高碑店市天筑新型建材有限公司,梁北排灌1【纯农排变】,陶辛庄小区2号箱变间隔配电变压器,永兴加油站,徐家营新民居1,梁南变压器,岳家街04号变压器,小史排灌【纯农排变】,通盛水泥厂,梁北面粉厂,孵化厂,梁北西变压器,0662995733-国网高碑店市供电公司-专变-197606801-河北省保定市高碑店市梁家营乡梁家营供电所,北京华汇恒业投资有限公司变压器,高碑店市正德昊远房地产开发有限公司1#变压器,北衣巾排灌2变压器【纯农排变】,陶辛庄小区1号箱变间隔配电变压器,大史排灌,梁北排灌3【纯农排变】,陶辛庄小区5号箱变配电变压器,徐家营三期间隔配电变压器,梁北东台变压器,高碑店市晨阳橡塑制品有限公司,薛庄变压器,陶辛庄变压器,徐家营3期,塔楼排灌变压器【纯农排变】,高碑店市梁家营初级中学变压器,幸福营排【纯农排变】,陶辛庄小区4号箱变配电变压器,梁南排灌变压器【纯农排变】,幸福营19号变压器,陶辛庄小区3号箱变配电变压器,保定天阔房地产开发有限公司,岳家街01号变压器,太平庄排灌1号变压器【纯农排变】,塔楼新变压器,太平庄排灌2号变压器【纯农排变】,北衣巾养殖场,衣巾店农场,梁南新变压器,庄伙排灌变压器【纯农排变】,梁家营乡政府变压器,高碑店市正德昊远房地产开发有限公司2#变压器,陶辛庄北变压器,高碑店市正德昊远房地产开发有限公司4,梁北中,高碑店燕赵医院,幸福营排灌变压器【纯农排变】,农场2,高碑店市正德昊远房地产开发有限公司,粮站,高碑店市梁家营高德门窗加工厂,保定杰海箱包配件制造有限公司,北衣巾南变压器","poweroffReason":"【停电原因】由于Ｂ相接地导致１１０ＫＶ太平庄变电站１０ＫＶ衣巾店５２５线路全线停电 【变更送电】因抢修进度加快原因，送电时间由２６日０８：００变更为２６日０１：００ 【发布渠道】通过９５５９８发布","powerTime":"2019-09-26 00:35:49","powerComm":"已送电","subsNo":"","lineNo":"","tgNo":"","tgName":null,"infoStatus":"1","orgName":"国网高碑店市供电公司","typeName":null,"infoStatusName":null,"dateDay":null,"orgNos":null,"nowTime":null,"countyName":null,"streetName":null,"villageName":null,"roadName":null,"communityName":null,"tranName":null,"sdLineName":null,"cityCode":"1340612","cityName":"国网高碑店市供电公司","provinceCode":null,"stopTime":"2019-09-26 01:00:00","powerType":"全部","powerOffArea":"【全线路停电】停小史变压器,塔楼变压器,河北汇佳房地产开发有限公司,高碑店市路灯管理办公室,高碑店市呈辉石材加工有限公司,岳家街排灌变压器【纯农排变】,薛庄东,大史东台变压器,大史南台变压器,岳家街06号变压器,徐家营新民居,昊龙2,高碑店市朝阳中学,河北汇佳房地产开发有限公司2,高碑店市建设局,赵庄排灌【纯农排变】,蔡庄变压器,河北驰通房地产开发有限公司,0700004214|昊龙公司,高碑店市中誉房地产开发有限公司1250,高碑店市中誉房地产开发有限公司1000,幸福营20号变压器,河北培鹏农业科技有限公司变压器,高碑店市中誉房地产开发有限公司800,河北杉浩房地产开发有限公司,岳家街05号变压器,河北汇佳房地产开发有限公司变压器,岳家街排灌2变压器【纯农排变】,徐家营新民居2,北衣巾内变压器,梁北北变压器,0580353363-高碑店市水利局龙堂水厂-专变-124550007-高碑店市水利局变压器,高碑店市中誉房地产开发有限公司630,梁北排灌2【纯农排变】,中铁一局2公司,高碑店市正德昊远房地产开发有限公司3,北衣巾北变压器,岳家街02号变压器,东升高计,东升3,塔楼排灌2变压器【纯农排变】,塔楼面2,中铁一局中心试验室,大史排灌2变压器【纯农排变】,北衣巾东变压器,薛庄排灌变压器【纯农排变】,高碑店市志豪机电设备有限公司,岳家街03号变压器,北衣巾排灌1变压器【纯农排变】,高碑店市天筑新型建材有限公司,梁北排灌1【纯农排变】,陶辛庄小区2号箱变间隔配电变压器,永兴加油站,徐家营新民居1,梁南变压器,岳家街04号变压器,小史排灌【纯农排变】,通盛水泥厂,梁北面粉厂,孵化厂,梁北西变压器,0662995733-国网高碑店市供电公司-专变-197606801-河北省保定市高碑店市梁家营乡梁家营供电所,北京华汇恒业投资有限公司变压器,高碑店市正德昊远房地产开发有限公司1#变压器,北衣巾排灌2变压器【纯农排变】,陶辛庄小区1号箱变间隔配电变压器,大史排灌,梁北排灌3【纯农排变】,陶辛庄小区5号箱变配电变压器,徐家营三期间隔配电变压器,梁北东台变压器,高碑店市晨阳橡塑制品有限公司,薛庄变压器,陶辛庄变压器,徐家营3期,塔楼排灌变压器【纯农排变】,高碑店市梁家营初级中学变压器,幸福营排【纯农排变】,陶辛庄小区4号箱变配电变压器,梁南排灌变压器【纯农排变】,幸福营19号变压器,陶辛庄小区3号箱变配电变压器,保定天阔房地产开发有限公司,岳家街01号变压器,太平庄排灌1号变压器【纯农排变】,塔楼新变压器,太平庄排灌2号变压器【纯农排变】,北衣巾养殖场,衣巾店农场,梁南新变压器,庄伙排灌变压器【纯农排变】,梁家营乡政府变压器,高碑店市正德昊远房地产开发有限公司2#变压器,陶辛庄北变压器,高碑店市正德昊远房地产开发有限公司4,梁北中,高碑店燕赵医院,幸福营排灌变压器【纯农排变】,农场2,高碑店市正德昊远房地产开发有限公司,粮站,高碑店市梁家营高德门窗加工厂,保定杰海箱包配件制造有限公司,北衣巾南变压器","powerOffReason":"【停电原因】由于Ｂ相接地导致１１０ＫＶ太平庄变电站１０ＫＶ衣巾店５２５线路全线停电 【变更送电】因抢修进度加快原因，送电时间由２６日０８：００变更为２６日０１：００ 【发布渠道】通过９５５９８发布","powerOffId":"2019092513000097"},{"poweroffId":2019092513000083,"sgpoweroffId":null,"subsName":"","lineName":"大庞村线512","pubTranName":"大庞村6号,小庞村5号,","scope":"【影响街道/乡镇】遂城镇 【高危重要客户】无 【影响客户】大庞村、栗元庄、冯家町、小庞村","startTime":"2019-09-25 16:30:00","stopDate":"2019-09-25 18:30:00","orgNo":"1340605","typeCode":"其他临时停电","poweroffArea":"【全线路停电】停大庞村16号,栗园庄10号,大庞村20号,徐水县鑫丰管件1号,龙源造纸有限公司2号（315KV),大庞村19号,龙源纸业有限公司3号（315KVA）,大庞村12号,前进造纸厂2号,龙源造纸有限公司4号（315KVA）,冯家町3号【纯农排变】,大庞村21号【纯农排变】,大庞村18号,小庞村2号【纯农排变】,大庞村8号【纯农排变】,大庞村10号,大庞村17号,冯家町4号,冯家町5号,大庞村23号,栗园庄6号,大庞村7号,大庞村9号,大庞村龙帅卫生巾厂,冯家町6号,大庞村14号【纯农排变】,徐水康威药品包装有限公司,栗园庄5号,栗园庄7号,大庞村5号,小庞村4号,大庞富郦城,栗园庄8号,大庞村15号,大庞村3号,大庞村4号【纯农排变】,冯家町1号,小庞村3号,栗园庄1号,大庞村13号,大庞村6号,小庞村1号,冯家町2号【纯农排变】,小庞村5号,徐水县龙源纸业有限公司,大庞村2号,徐水县旭升管件制造厂2号,龙源造纸有限公司1号（200KVA）","poweroffReason":"【停电原因】由于处理紧急缺陷导致３５ＫＶ广门变电站大庞村线５１２线路全线停电 【变更送电】因抢修进度加快原因，送电时间由１９:３０变更为１８:３０ 【发布渠道】通过９５５９８发布","powerTime":"2019-09-25 18:22:16","powerComm":"已送电","subsNo":"","lineNo":"","tgNo":"","tgName":null,"infoStatus":"1","orgName":"国网徐水县供电公司","typeName":null,"infoStatusName":null,"dateDay":null,"orgNos":null,"nowTime":null,"countyName":null,"streetName":null,"villageName":null,"roadName":null,"communityName":null,"tranName":null,"sdLineName":null,"cityCode":"1340605","cityName":"国网徐水县供电公司","provinceCode":null,"stopTime":"2019-09-25 18:30:00","powerType":"全部","powerOffArea":"【全线路停电】停大庞村16号,栗园庄10号,大庞村20号,徐水县鑫丰管件1号,龙源造纸有限公司2号（315KV),大庞村19号,龙源纸业有限公司3号（315KVA）,大庞村12号,前进造纸厂2号,龙源造纸有限公司4号（315KVA）,冯家町3号【纯农排变】,大庞村21号【纯农排变】,大庞村18号,小庞村2号【纯农排变】,大庞村8号【纯农排变】,大庞村10号,大庞村17号,冯家町4号,冯家町5号,大庞村23号,栗园庄6号,大庞村7号,大庞村9号,大庞村龙帅卫生巾厂,冯家町6号,大庞村14号【纯农排变】,徐水康威药品包装有限公司,栗园庄5号,栗园庄7号,大庞村5号,小庞村4号,大庞富郦城,栗园庄8号,大庞村15号,大庞村3号,大庞村4号【纯农排变】,冯家町1号,小庞村3号,栗园庄1号,大庞村13号,大庞村6号,小庞村1号,冯家町2号【纯农排变】,小庞村5号,徐水县龙源纸业有限公司,大庞村2号,徐水县旭升管件制造厂2号,龙源造纸有限公司1号（200KVA）","powerOffReason":"【停电原因】由于处理紧急缺陷导致３５ＫＶ广门变电站大庞村线５１２线路全线停电 【变更送电】因抢修进度加快原因，送电时间由１９:３０变更为１８:３０ 【发布渠道】通过９５５９８发布","powerOffId":"2019092513000083"}],"pageModel":{"pageNow":546,"totalCount":10973,"totalPage":1098,"tableRows":0,"pageCount":10,"beginCount":5450},"isExperi":"1"}