{"message":"","today":"2020-06-15","seleList":[{"poweroffId":2019092113000136,"sgpoweroffId":null,"subsName":"","lineName":"城北线511","pubTranName":"河北利达矿材有限公司变压器,新汽车站公用变箱变出线间隔配电变压器,联合关转盘公用变,0469104787-河北保定运输集团有限责任公司第六运输分公司-专变-46719935-汽运新站,0609928949-涞源县宇安房地产开发有限公司-专变-127631482-涞源县宇安房地产开发有限公司变压器,0636590584-涞源县泽农温室花卉蔬菜种植园-专变-148258397-涞源县泽农温室花卉蔬菜种植园变压器,青年新城公用变出线间隔配电变压器,涞源县太行建筑有限公司（福源小区）,联合关新村变压器,0469106406-十里湾机井-专变-46719750-十里湾机井,大北关新村2公用变,第二小学,涞源县臧鑫冷库服务有限公司变压器,涞源县公安局变压器,涞源县亨锦房地产开发有限公司变压器,锦绣小区公用变,同裕佳苑（同裕佳苑）,61969部队车库变压器,涞源县第二幼儿园变压器,联合关小二院转盘1公用变,青年新城2出线间隔配电变压器,神邦公用变箱变出线间隔配电变压器,城东站511同裕佳苑小区1,大北关村3公用变,城东站511检察院公用变,0692733952-国网河北省电力公司涞源县供电分公司(联大所)-专变-237286830-国网河北省电力公司涞源县供电分公司(联大所)变压器,联合关北环片4公用变,冯村新片1变压器,河北省天然气有限责任公司涞源分公司变压器,城东站511锦绣家园公用变,锦绣家园2号公用变,二小2号公用变箱变出线间隔配电变压器,城东站511同裕佳苑小区2,太行建筑福源小区,东关北环路片3公用变,福源小区公用变,保定市九州房地产开发有限公司变压器,0469103205-同祥小区-专变-46719919-同祥小区,0469106477-第二小学新楼-专变-46719917-第二小学新楼,检察院公用变,0469101531-第二小学-专变-46719918-第二小学,0556767961-广平大街北延路灯-专变-102769274-变压器,涞源县人民法院变压器,变压器,0469102316-中国石化销售有限公司河北保定涞源石油分公司-专变-46719913-石油公司,福源东箱变出线间隔配电变压器,","scope":"【影响街道/乡镇】迎宾街、北环、北外环、城关镇、城区办【高危重要客户】无【影响客户】冯村新村、福源小区、青年新城、锦绣家园、锦绣小区、瑞馨小区、鸿阳小区、福源盛景、瑞康小区、东城文苑、大北关村、联合关村、东关村、同裕佳苑、同祥小区、二小、联合关小二院、联合关转盘、联合关北环新村","startTime":"2019-09-22 02:00:00","stopDate":"2019-09-22 04:40:00","orgNo":"1340615","typeCode":"其他临时停电","poweroffArea":"【全线路停电】停大北关新村2公用变,第二小学,锦绣小区公用变,61969部队车库变压器,青年新城2出线间隔配电变压器,城东站511同裕佳苑小区1,城东站511检察院公用变,0692733952-国网河北省电力公司涞源县供电分公司(联大所)-专变-237286830-国网河北省电力公司涞源县供电分公司(联大所)变压器,联合关北环片4公用变,冯村新片1变压器,河北省天然气有限责任公司涞源分公司变压器,城东站511锦绣家园公用变,锦绣家园2号公用变,二小2号公用变箱变出线间隔配电变压器,城东站511同裕佳苑小区2,太行建筑福源小区,东关北环路片3公用变,福源小区公用变,保定市九州房地产开发有限公司变压器,0469103205-同祥小区-专变-46719919-同祥小区,0469106477-第二小学新楼-专变-46719917-第二小学新楼,检察院公用变,0469101531-第二小学-专变-46719918-第二小学,0556767961-广平大街北延路灯-专变-102769274-变压器,涞源县人民法院变压器,变压器,0469102316-中国石化销售有限公司河北保定涞源石油分公司-专变-46719913-石油公司,福源东箱变出线间隔配电变压器,新汽车站公用变箱变出线间隔配电变压器,0469104787-河北保定运输集团有限责任公司第六运输分公司-专变-46719935-汽运新站,0636590584-涞源县泽农温室花卉蔬菜种植园-专变-148258397-涞源县泽农温室花卉蔬菜种植园变压器,联合关新村变压器,0469106406-十里湾机井-专变-46719750-十里湾机井,涞源县臧鑫冷库服务有限公司变压器,涞源县公安局变压器,涞源县亨锦房地产开发有限公司变压器,同裕佳苑（同裕佳苑）,涞源县第二幼儿园变压器,联合关小二院转盘1公用变,神邦公用变箱变出线间隔配电变压器,大北关村3公用变,河北利达矿材有限公司变压器,联合关转盘公用变,0609928949-涞源县宇安房地产开发有限公司-专变-127631482-涞源县宇安房地产开发有限公司变压器,青年新城公用变出线间隔配电变压器,涞源县太行建筑有限公司（福源小区）","poweroffReason":"【停电原因】由于１号杆Ａ相刀闸过热，需停电进行紧急消缺导致３５ＫＶ城东变电站１０ＫＶ城北线５１１线路全线停电【变更送电】因工作进度加快，原定０６：００送电现计划０４：４０送电【发布渠道】通过９５５９８发布","powerTime":"2019-09-22 04:08:12","powerComm":"已送电","subsNo":"","lineNo":"","tgNo":"","tgName":null,"infoStatus":"1","orgName":"国网涞源县供电公司","typeName":null,"infoStatusName":null,"dateDay":null,"orgNos":null,"nowTime":null,"countyName":null,"streetName":null,"villageName":null,"roadName":null,"communityName":null,"tranName":null,"sdLineName":null,"cityCode":"1340615","cityName":"国网涞源县供电公司","provinceCode":null,"stopTime":"2019-09-22 04:40:00","powerType":"全部","powerOffArea":"【全线路停电】停大北关新村2公用变,第二小学,锦绣小区公用变,61969部队车库变压器,青年新城2出线间隔配电变压器,城东站511同裕佳苑小区1,城东站511检察院公用变,0692733952-国网河北省电力公司涞源县供电分公司(联大所)-专变-237286830-国网河北省电力公司涞源县供电分公司(联大所)变压器,联合关北环片4公用变,冯村新片1变压器,河北省天然气有限责任公司涞源分公司变压器,城东站511锦绣家园公用变,锦绣家园2号公用变,二小2号公用变箱变出线间隔配电变压器,城东站511同裕佳苑小区2,太行建筑福源小区,东关北环路片3公用变,福源小区公用变,保定市九州房地产开发有限公司变压器,0469103205-同祥小区-专变-46719919-同祥小区,0469106477-第二小学新楼-专变-46719917-第二小学新楼,检察院公用变,0469101531-第二小学-专变-46719918-第二小学,0556767961-广平大街北延路灯-专变-102769274-变压器,涞源县人民法院变压器,变压器,0469102316-中国石化销售有限公司河北保定涞源石油分公司-专变-46719913-石油公司,福源东箱变出线间隔配电变压器,新汽车站公用变箱变出线间隔配电变压器,0469104787-河北保定运输集团有限责任公司第六运输分公司-专变-46719935-汽运新站,0636590584-涞源县泽农温室花卉蔬菜种植园-专变-148258397-涞源县泽农温室花卉蔬菜种植园变压器,联合关新村变压器,0469106406-十里湾机井-专变-46719750-十里湾机井,涞源县臧鑫冷库服务有限公司变压器,涞源县公安局变压器,涞源县亨锦房地产开发有限公司变压器,同裕佳苑（同裕佳苑）,涞源县第二幼儿园变压器,联合关小二院转盘1公用变,神邦公用变箱变出线间隔配电变压器,大北关村3公用变,河北利达矿材有限公司变压器,联合关转盘公用变,0609928949-涞源县宇安房地产开发有限公司-专变-127631482-涞源县宇安房地产开发有限公司变压器,青年新城公用变出线间隔配电变压器,涞源县太行建筑有限公司（福源小区）","powerOffReason":"【停电原因】由于１号杆Ａ相刀闸过热，需停电进行紧急消缺导致３５ＫＶ城东变电站１０ＫＶ城北线５１１线路全线停电【变更送电】因工作进度加快，原定０６：００送电现计划０４：４０送电【发布渠道】通过９５５９８发布","powerOffId":"2019092113000136"},{"poweroffId":2019092113000124,"sgpoweroffId":null,"subsName":"","lineName":"东环中路线518","pubTranName":"方舟新区4170出线间隔配电变压器,雅致丽都4403出线间隔配电变压器,枣园东新变压器3237,棉麻家属变压器2026,心阁公寓变压器2036,光明路东公用出线间隔配电变压器,隆昌分店变压器,财务局公用2441出线间隔配电变压器,东苑小区变压器2253,光明路东公用南6670变压器,方舟佳苑4086出线间隔配电变压器,邮局公用0088出线间隔配电变压器,雅致丽都4766出线间隔配电变压器,电力南院家属变压器2019,大马庄4045变压器,唐尧新庄变压器2286,农机家属变压器2248,东环公用变压器0161,武装部公用2287出线间隔配电变压器,邮政家属变压器1162,枣园东变压器0191,唐柴公用2401出线间隔配电变压器,企业局家属变压器0171,东城花园5155变压器,枣园公用变压器3265,枣园西6708变压器,方舟公用变压器3282,","scope":"【影响街道/乡镇】仁厚镇、唐尧东路、中山南大街、光明路【高危重要客户】无【影响客户】枣元村、唐尧新庄、君安小区、方舟小区南门周边用户、大马庄村、东苑小区、农机局家属院、邮政储蓄所、三丰灯饰城周边门市、枣元综合楼家属、武装部及周边门市、广播局、棉麻家属院,、菜市厂部分用户、心阁公寓及楼下门市、电力局家属南院、汇泽银行及周边门市、万宝利商厦周边用户、信用联社家属院、兴华家属楼、财政局家属院、供电公司及周边门市、邮政局家属院,企业局家属院、东方秀轩小区、中国银行、新华超市、财政局、河北省唐县农村信用合作社、邮政储蓄、都市118酒店、方舟佳苑、东城花园、雅致丽都、唐县第二小学、隆昌分店、河北景奥房地产开发有限公司、唐县荣秀房地产开发有限公司、河北启明房地产开发有限公司、唐县兴华大厦商贸有限公司、公安局、信访局","startTime":"2019-09-22 00:30:00","stopDate":"2019-09-22 03:30:00","orgNo":"1340622","typeCode":"其他临时停电","poweroffArea":"【全线路停电】停电力南院锅炉,光明路东公用南6670变压器,方舟佳苑4086出线间隔配电变压器,唐县建设局（临时）2302,邮局公用0088出线间隔配电变压器,雅致丽都4766出线间隔配电变压器,万宝利商贸有限公司,河北景奥房地产开发有限公司,河北宁旺商贸有限公司计量点P6576,电力南院家属变压器2019,公安局0205,大马庄4045变压器,唐尧新庄变压器2286,农机家属变压器2248,唐县国润发投热力有限公司新装6644,东环公用变压器0161,唐县万宝利商贸有限公司,武装部公用2287出线间隔配电变压器,邮政家属变压器1162,通城水泥制品公司0305,枣园东变压器0191,城南站锅炉2237,财务局公用2441出线间隔配电变压器,东苑小区变压器2253,唐柴公用2401出线间隔配电变压器,企业局家属变压器0171,东城花园5155变压器,枣园公用变压器3265,枣园西6708变压器,方舟公用变压器3282,方舟新区4170出线间隔配电变压器,雅致丽都4403出线间隔配电变压器,保定福唐房地产开发有限公司,枣园东新变压器3237,兴华0196,玻璃钢电表箱厂2217,唐县荣秀房地产开发有限公司10KV配变,棉麻家属变压器2026,电力南院2019-400,心阁公寓变压器2036,仁厚镇供电所,河北启明房地产开发有限公司5255,光明路东公用出线间隔配电变压器,唐县建设局2303,隆昌分店变压器","poweroffReason":"【停电原因】由于处理紧急缺陷导致３５ＫＶ城南变电站东环中路线５１８线路全线停电【变更送电】无【发布渠道】通过９５５９８发布","powerTime":"2019-09-22 03:15:06","powerComm":"已送电","subsNo":"","lineNo":"","tgNo":"","tgName":null,"infoStatus":"1","orgName":"国网唐县供电公司","typeName":null,"infoStatusName":null,"dateDay":null,"orgNos":null,"nowTime":null,"countyName":null,"streetName":null,"villageName":null,"roadName":null,"communityName":null,"tranName":null,"sdLineName":null,"cityCode":"1340622","cityName":"国网唐县供电公司","provinceCode":null,"stopTime":"2019-09-22 03:30:00","powerType":"全部","powerOffArea":"【全线路停电】停电力南院锅炉,光明路东公用南6670变压器,方舟佳苑4086出线间隔配电变压器,唐县建设局（临时）2302,邮局公用0088出线间隔配电变压器,雅致丽都4766出线间隔配电变压器,万宝利商贸有限公司,河北景奥房地产开发有限公司,河北宁旺商贸有限公司计量点P6576,电力南院家属变压器2019,公安局0205,大马庄4045变压器,唐尧新庄变压器2286,农机家属变压器2248,唐县国润发投热力有限公司新装6644,东环公用变压器0161,唐县万宝利商贸有限公司,武装部公用2287出线间隔配电变压器,邮政家属变压器1162,通城水泥制品公司0305,枣园东变压器0191,城南站锅炉2237,财务局公用2441出线间隔配电变压器,东苑小区变压器2253,唐柴公用2401出线间隔配电变压器,企业局家属变压器0171,东城花园5155变压器,枣园公用变压器3265,枣园西6708变压器,方舟公用变压器3282,方舟新区4170出线间隔配电变压器,雅致丽都4403出线间隔配电变压器,保定福唐房地产开发有限公司,枣园东新变压器3237,兴华0196,玻璃钢电表箱厂2217,唐县荣秀房地产开发有限公司10KV配变,棉麻家属变压器2026,电力南院2019-400,心阁公寓变压器2036,仁厚镇供电所,河北启明房地产开发有限公司5255,光明路东公用出线间隔配电变压器,唐县建设局2303,隆昌分店变压器","powerOffReason":"【停电原因】由于处理紧急缺陷导致３５ＫＶ城南变电站东环中路线５１８线路全线停电【变更送电】无【发布渠道】通过９５５９８发布","powerOffId":"2019092113000124"},{"poweroffId":2019092113000116,"sgpoweroffId":null,"subsName":"","lineName":"10kV563土地局线","pubTranName":"方园小区家属楼综合1台区,东环综合11台区,曹庄综合二台区,残联综合1台区,医院门脸一|03119,东环综合6台区,农发行家属楼综合1台区,垒德农排一台区【纯农排变】,方圆小区综合3台区,人行小区,东环综合9台区,水利局家属楼综合1台区,东环综合3台区,东环综合13台区,","scope":"【影响街道/乡镇】蠡吾镇【高危重要客户】无【影响客户】法院、地税局、国税局、技术监督局、中国联通、土地局、卫生局、医院门脸、中国移动通信、职教东路灯、中国石油加油站、蠡县春和物业公司、方圆小区、国税家属院、技术监督局家属院、蠡县医院、法院文体家属院、天平公寓、联通家属院、医院家属院、卫生局家属院、金地家园、土地局家属院、地税局家属院、方圆小区北、蓝天小区、农发行小区、人行小区、残联、财政局、民政局、义信小区、水利局小区、建行小区、检察院、第二实验小学、城关土地所小区、垒德村、冯广信家属院、北关砖厂、东环方圆小区、兴合巴士有限公司、德茂花炮二厂、德茂花炮厂、蠡中东路灯、果园东路灯、垒德吃水井、太行房地产、蠡县正骨医院、蠡县佳佰利服装制造、圣杰养植有限公司、城关土地所、李文会颗粒、板厂东浇地","startTime":"2019-09-21 16:30:51","stopDate":"2019-09-21 18:00:00","orgNo":"1340616","typeCode":"电网故障停限电","poweroffArea":"【全线路停电】停果园东4447,职教东路灯4244,东环综合9台区,垒德农排一台区【纯农排变】,农发行家属楼综合1台区,东环综合11台区,方圆小区综合3台区,0683189261-蠡县兴和巴士有限公司-专变-223584100-蠡县兴和巴士有限公司,东环综合3台区,东环综合6台区,里中东路灯,法院,土地局,土地局家属楼东,土地局家属楼西,方圆小区,地税局家属院,李文会颗粒,地税局,残联综合1台区,人行小区,曹庄综合二台区,方园小区家属楼综合1台区,民政局,水利局家属楼综合1台区,医院门脸一|03119,东环综合13台区,国税局","poweroffReason":"【停电原因】由于站外开关掉闸导致１１０ＫＶ中滑变电站１０ＫＶ土地局５６３线路全线停电【变更送电】因抢修进度加快原因，送电时间由２２：３０变更为１８：００【发布渠道】通过９５５９８发布","powerTime":"2019-09-21 17:16:04","powerComm":"已送电","subsNo":"","lineNo":"","tgNo":"","tgName":null,"infoStatus":"1","orgName":"国网蠡县供电公司","typeName":null,"infoStatusName":null,"dateDay":null,"orgNos":null,"nowTime":null,"countyName":null,"streetName":null,"villageName":null,"roadName":null,"communityName":null,"tranName":null,"sdLineName":null,"cityCode":"1340616","cityName":"国网蠡县供电公司","provinceCode":null,"stopTime":"2019-09-21 18:00:00","powerType":"全部","powerOffArea":"【全线路停电】停果园东4447,职教东路灯4244,东环综合9台区,垒德农排一台区【纯农排变】,农发行家属楼综合1台区,东环综合11台区,方圆小区综合3台区,0683189261-蠡县兴和巴士有限公司-专变-223584100-蠡县兴和巴士有限公司,东环综合3台区,东环综合6台区,里中东路灯,法院,土地局,土地局家属楼东,土地局家属楼西,方圆小区,地税局家属院,李文会颗粒,地税局,残联综合1台区,人行小区,曹庄综合二台区,方园小区家属楼综合1台区,民政局,水利局家属楼综合1台区,医院门脸一|03119,东环综合13台区,国税局","powerOffReason":"【停电原因】由于站外开关掉闸导致１１０ＫＶ中滑变电站１０ＫＶ土地局５６３线路全线停电【变更送电】因抢修进度加快原因，送电时间由２２：３０变更为１８：００【发布渠道】通过９５５９８发布","powerOffId":"2019092113000116"},{"poweroffId":2019092113000087,"sgpoweroffId":null,"subsName":"","lineName":"拒马源线533","pubTranName":"东内环箱变4#出线间隔配电变压器,新一中3号箱变出线间隔配电变压器,后泉坊箱变2#出线间隔（新）配电变压器,水云乡箱变10#出线间隔配电变压器,旅游局家属院出线间隔配电变压器,新一中5号箱变出线间隔配电变压器,新一中9号箱变出线间隔配电变压器,水云乡箱变7#出线间隔配电变压器,养路工区变压器,国土局箱变12#出线间隔配电变压器,后泉坊箱变3#出线间隔配电变压器,东内环6号箱变出线间隔配电变压器,东内环箱变3#出线间隔配电变压器,水云乡箱变8#出线间隔配电变压器,后泉坊配变1#,515东环线水云乡天利,新一中2号箱变出线间隔配电变压器,城区办公用变,山门底箱变13#出线间隔配电变压器,城区办（冬季取暖政府投资）,512麻圆线电力局家属楼1号台区,后泉坊箱变4#出线间隔（新）配电变压器,新一中7号箱变出线间隔配电变压器,515东环线水云乡乐满居,水云乡箱变11#出线间隔配电变压器,东内环箱变1#出线间隔配电变压器,新一中6号箱变出线间隔配电变压器,电力小区出线间隔配电变压器,同力医院公用变,东北环箱变2#出线间隔配电变压器,电力局加油站5#出线间隔配电变压器,公路站箱变6#出线间隔配电变压器,515东环线城建家属楼,乐满居配变（冬季取暖）,水云乡箱变9#出线间隔配电变压器,515东环线水云乡南河,新一中1号箱变出线间隔配电变压器,后泉坊箱变1#出线间隔配电变压器,新一中4号箱变出线间隔配电变压器,东内环箱变5#出线间隔配电变压器,水云乡电信,新一中8号箱变出线间隔配电变压器,白石山花园东小区箱变出线间隔配电变压器,","scope":"【影响街道/乡镇】１０８国道、２０７国道、城区办【高危重要客户】无【影响客户】后泉坊村、滨湖新区、水云乡村、电力局水云乡家属楼、电影公司家属楼、国土资源局、电影公司、城建小区家属楼、天利车业、顶利鲜超市、白石山大酒店、环保局、民政局、清香园饭店、壹捞饭店、药监局、交通局停车场、凉城美景一期、观湖景程、白石山花园东小区、政府小区、畜牧小区、同力医院、广平大街","startTime":"2019-09-21 11:50:01","stopDate":"2019-09-21 16:20:00","orgNo":"1340615","typeCode":"电网故障停限电","poweroffArea":"【全线路停电】停水云乡箱变11#出线间隔配电变压器,东内环箱变1#出线间隔配电变压器,新一中6号箱变出线间隔配电变压器,电力小区出线间隔配电变压器,同力医院公用变,0548700761-高和义-专变-48188751-变压器,东北环箱变2#出线间隔配电变压器,城区办公用变,东内环箱变4#出线间隔配电变压器,新一中3号箱变出线间隔配电变压器,后泉坊箱变2#出线间隔（新）配电变压器,水云乡箱变10#出线间隔配电变压器,旅游局家属院出线间隔配电变压器,新一中5号箱变出线间隔配电变压器,新一中9号箱变出线间隔配电变压器,水云乡箱变7#出线间隔配电变压器,养路工区变压器,国土局箱变12#出线间隔配电变压器,白石山大酒店1#,后泉坊箱变3#出线间隔配电变压器,涞源同力医院变压器,东内环6号箱变出线间隔配电变压器,东内环箱变3#出线间隔配电变压器,涞源县恒隆商贸有限责任公司变压器,水云乡箱变8#出线间隔配电变压器,后泉坊配变1#,涞源县旭鑫物资机电设备有限公司变压器,515东环线水云乡天利,新一中2号箱变出线间隔配电变压器,山门底箱变13#出线间隔配电变压器,城区办（冬季取暖政府投资）,512麻圆线电力局家属楼1号台区,后泉坊箱变4#出线间隔（新）配电变压器,新一中7号箱变出线间隔配电变压器,鼎祥家園变压器,涞源县腾亿汽车服务中心变压器,515东环线水云乡乐满居,涞源县太行建筑有限公司变压器,电力局加油站5#出线间隔配电变压器,公路站箱变6#出线间隔配电变压器,515东环线城建家属楼,乐满居配变（冬季取暖）,水云乡箱变9#出线间隔配电变压器,涞源县民政局,515东环线水云乡南河,新一中1号箱变出线间隔配电变压器,后泉坊箱变1#出线间隔配电变压器,河北省烟草公司,新一中4号箱变出线间隔配电变压器,东内环箱变5#出线间隔配电变压器,0469544477-涞源县天合利汽车服务有限责任公司-专变-46835639-张保太,水云乡电信,新一中8号箱变出线间隔配电变压器,白石山花园东小区箱变出线间隔配电变压器","poweroffReason":"【停电原因】由于过流１段掉闸导致１１０ＫＶ滨湖变电站１０ＫＶ拒马源线５３３线路全线停电【变更送电】因抢修进度加快，原定１７：３０送电现计划１６：２０送电【发布渠道】通过９５５９８发布","powerTime":"2019-09-21 15:47:30","powerComm":"已送电","subsNo":"","lineNo":"","tgNo":"","tgName":null,"infoStatus":"1","orgName":"国网涞源县供电公司","typeName":null,"infoStatusName":null,"dateDay":null,"orgNos":null,"nowTime":null,"countyName":null,"streetName":null,"villageName":null,"roadName":null,"communityName":null,"tranName":null,"sdLineName":null,"cityCode":"1340615","cityName":"国网涞源县供电公司","provinceCode":null,"stopTime":"2019-09-21 16:20:00","powerType":"全部","powerOffArea":"【全线路停电】停水云乡箱变11#出线间隔配电变压器,东内环箱变1#出线间隔配电变压器,新一中6号箱变出线间隔配电变压器,电力小区出线间隔配电变压器,同力医院公用变,0548700761-高和义-专变-48188751-变压器,东北环箱变2#出线间隔配电变压器,城区办公用变,东内环箱变4#出线间隔配电变压器,新一中3号箱变出线间隔配电变压器,后泉坊箱变2#出线间隔（新）配电变压器,水云乡箱变10#出线间隔配电变压器,旅游局家属院出线间隔配电变压器,新一中5号箱变出线间隔配电变压器,新一中9号箱变出线间隔配电变压器,水云乡箱变7#出线间隔配电变压器,养路工区变压器,国土局箱变12#出线间隔配电变压器,白石山大酒店1#,后泉坊箱变3#出线间隔配电变压器,涞源同力医院变压器,东内环6号箱变出线间隔配电变压器,东内环箱变3#出线间隔配电变压器,涞源县恒隆商贸有限责任公司变压器,水云乡箱变8#出线间隔配电变压器,后泉坊配变1#,涞源县旭鑫物资机电设备有限公司变压器,515东环线水云乡天利,新一中2号箱变出线间隔配电变压器,山门底箱变13#出线间隔配电变压器,城区办（冬季取暖政府投资）,512麻圆线电力局家属楼1号台区,后泉坊箱变4#出线间隔（新）配电变压器,新一中7号箱变出线间隔配电变压器,鼎祥家園变压器,涞源县腾亿汽车服务中心变压器,515东环线水云乡乐满居,涞源县太行建筑有限公司变压器,电力局加油站5#出线间隔配电变压器,公路站箱变6#出线间隔配电变压器,515东环线城建家属楼,乐满居配变（冬季取暖）,水云乡箱变9#出线间隔配电变压器,涞源县民政局,515东环线水云乡南河,新一中1号箱变出线间隔配电变压器,后泉坊箱变1#出线间隔配电变压器,河北省烟草公司,新一中4号箱变出线间隔配电变压器,东内环箱变5#出线间隔配电变压器,0469544477-涞源县天合利汽车服务有限责任公司-专变-46835639-张保太,水云乡电信,新一中8号箱变出线间隔配电变压器,白石山花园东小区箱变出线间隔配电变压器","powerOffReason":"【停电原因】由于过流１段掉闸导致１１０ＫＶ滨湖变电站１０ＫＶ拒马源线５３３线路全线停电【变更送电】因抢修进度加快，原定１７：３０送电现计划１６：２０送电【发布渠道】通过９５５９８发布","powerOffId":"2019092113000087"},{"poweroffId":2019092113000036,"sgpoweroffId":null,"subsName":"","lineName":"周任516","pubTranName":"新庄村2#,","scope":"【影响街道/乡镇】凌云册乡【高危重要客户】无【影响客户】新庄村","startTime":"2019-09-21 08:15:26","stopDate":"2019-09-21 13:40:00","orgNo":"1340625","typeCode":"电网故障停限电","poweroffArea":"【单台区停电】停新庄村2#","poweroffReason":"【停电原因】由于电缆烧毁导致３５ＫＶ凌云册变电站周任５１６线路新庄村２＃公变台区停电【变更送电】因抢修进度加快原因，送电时间由２１:００变更为１３:４０【发布渠道】通过９５５９８发布","powerTime":"2019-09-21 13:15:43","powerComm":"已送电","subsNo":"","lineNo":"","tgNo":"","tgName":null,"infoStatus":"1","orgName":"国网易县供电公司","typeName":null,"infoStatusName":null,"dateDay":null,"orgNos":null,"nowTime":null,"countyName":null,"streetName":null,"villageName":null,"roadName":null,"communityName":null,"tranName":null,"sdLineName":null,"cityCode":"1340625","cityName":"国网易县供电公司","provinceCode":null,"stopTime":"2019-09-21 13:40:00","powerType":"全部","powerOffArea":"【单台区停电】停新庄村2#","powerOffReason":"【停电原因】由于电缆烧毁导致３５ＫＶ凌云册变电站周任５１６线路新庄村２＃公变台区停电【变更送电】因抢修进度加快原因，送电时间由２１:００变更为１３:４０【发布渠道】通过９５５９８发布","powerOffId":"2019092113000036"},{"poweroffId":2019092113000033,"sgpoweroffId":null,"subsName":"","lineName":"潦水514","pubTranName":"辛旺村5#,向阳村5#,东火山9#,北街农业,向阳村3#,南庄村1#,南街村12#变压器,向阳村8#,东火山村8#,向阳村1#,北邵村3#,西火山村1#,南街村4#,潦水村4#,南韩村1#,北街村2#,潦水村2#,农科所1#【纯农排变】,东火山7#,潦水村11#【纯农排变】,西火山村6#,潦水村5#,潦水村10#【纯农排变】,南街3#,南庄村10#,西街村2#,北街村6#,南庄村8#,西火山村2#,向阳村4#,向阳村6#,向阳村7#,辛旺村3#,潦水13号变压器,潦水村7#,潦水村8#,南韩村5号,北邵村2#,南庄村2#,北邵村6#,北邵村5#,北邵7号变压器,向阳村10#,向阳村2#,南庄村7#【纯农排变】,西火山村7#,南庄村9#,潦水村1#,南庄村6#【纯农排变】,潦水村9#,潦水村6#,西火山9#,西火山10#,北邵村8#变压器,向阳村9#,西火山村8#,东火山5村#,潦水村3#,南庄村3#,","scope":"【影响街道/乡镇】裴山镇、塘湖镇、凌云册乡【高危重要客户】无【影响客户】南街村、西街村、北街村、南庄村、向阳村、西霍山村、东霍山村、北邵村、辛旺村、潦水村、南韩村","startTime":"2019-09-21 08:06:15","stopDate":"2019-09-21 10:30:00","orgNo":"1340625","typeCode":"电网故障停限电","poweroffArea":"【全线路停电】停南街村4#,潦水村10#【纯农排变】,北邵村2#,辛旺村2#【纯农排变】,建新板厂(王绘兵),南庄天源板厂,潦水砖厂,西火山李先明面粉厂,向阳村2#,北街村4#【纯农排变】,辛旺面粉厂变压器,东火山5村#,向阳村1#,西火山9#,南街村12#变压器,向阳村10#,南庄村3#,向阳村7#,潦水村11#【纯农排变】,辛旺村4#【纯农排变】,易县北邵会田石板厂变压器,潦水兴达面粉厂,潦水村9#,向阳小江石板厂,向阳面粉厂,南街3#,西火山村7#,北邵村5#,南庄村2#,西韩1#【纯农排变】,东火山9#,西火山村6#,北街村5#【纯农排变】,北街村6#,易县金玉龙石材加工厂变压器,北邵村4#【纯农排变】,易县裴山中心卫生院变压器,向阳村8#,易县北邵久刚木材加工厂,青花石材加工厂,南街村8#【纯农排变】,丰辉装饰,南韩4#【纯农排变】,潦水村12#【纯农排变】,收费站,南庄村9#,南街村5#【纯农排变】,易县裴山初级中学变压器,辛旺村1#【纯农排变】,潦水村7#,东火山7#,南庄村7#【纯农排变】,西火山10#,西火山村4#【纯农排变】,永兴鞋垫厂,南韩村1#,东霍山振欧石材销售部,北邵村6#,北邵7号变压器,西火山村8#,北邵村8#变压器,向阳村6#,农科所1#【纯农排变】,北邵村1#【纯农排变】,潦水13号变压器,向阳村3#,潦水村8#,向阳村9#,潦水村4#,0658712140-易县凤平橱柜经销处-专变-192886832-易县凤平橱柜经销处80KVA,西火山村5#【纯农排变】,易县京阳文教用品销售中心,西火山村1#,刘巨义煤厂,易县南韩村广海石料厂(姚文亮),潦水村1#,东火山村8#,南庄村8#,南韩学宾石子厂,辛旺村3#,向阳玻璃厂,易县永乐建材有限公司变压器,易县南韩村广海石料厂,易县东方石材厂变压器,北邵村3#,潦水村6#,0678209170-易县狼牙山中凯农副产品经销有限公司-专变-217787052-易县狼牙山中凯农副产品经销有限公司-200KVA.,南庄村6#【纯农排变】,尚文才鞋垫厂,张文月石板厂,南街村7#【纯农排变】,西街村2#,南庄村10#,辛旺村5#,易县泽锐石材厂,易县向阳三强石材厂,易县隆鑫石材厂,南庄村1#,易县潦水汇鸿石材销售处变压器,潦水村5#,北街农业,南韩3#,潦水村2#,南庄村5#【纯农排变】,南韩2#,易县天宏建材有限公司变压器,潦水村3#,易县南山石料厂,广海石料(赵天梅),西火山村2#,广海石料厂(4#),南韩村5号,北街村2#,向阳村5#,天宏建材有限公司,向阳村4#","poweroffReason":"【停电原因】由于速断跳闸导致３５ＫＶ裴山变电站潦水５１４线路全线停电【变更送电】因抢修进度加快原因，送电时间由１８:００变更为１０:３０【发布渠道】通过９５５９８发布","powerTime":"2019-09-21 10:03:54","powerComm":"已送电","subsNo":"","lineNo":"","tgNo":"","tgName":null,"infoStatus":"1","orgName":"国网易县供电公司","typeName":null,"infoStatusName":null,"dateDay":null,"orgNos":null,"nowTime":null,"countyName":null,"streetName":null,"villageName":null,"roadName":null,"communityName":null,"tranName":null,"sdLineName":null,"cityCode":"1340625","cityName":"国网易县供电公司","provinceCode":null,"stopTime":"2019-09-21 10:30:00","powerType":"全部","powerOffArea":"【全线路停电】停南街村4#,潦水村10#【纯农排变】,北邵村2#,辛旺村2#【纯农排变】,建新板厂(王绘兵),南庄天源板厂,潦水砖厂,西火山李先明面粉厂,向阳村2#,北街村4#【纯农排变】,辛旺面粉厂变压器,东火山5村#,向阳村1#,西火山9#,南街村12#变压器,向阳村10#,南庄村3#,向阳村7#,潦水村11#【纯农排变】,辛旺村4#【纯农排变】,易县北邵会田石板厂变压器,潦水兴达面粉厂,潦水村9#,向阳小江石板厂,向阳面粉厂,南街3#,西火山村7#,北邵村5#,南庄村2#,西韩1#【纯农排变】,东火山9#,西火山村6#,北街村5#【纯农排变】,北街村6#,易县金玉龙石材加工厂变压器,北邵村4#【纯农排变】,易县裴山中心卫生院变压器,向阳村8#,易县北邵久刚木材加工厂,青花石材加工厂,南街村8#【纯农排变】,丰辉装饰,南韩4#【纯农排变】,潦水村12#【纯农排变】,收费站,南庄村9#,南街村5#【纯农排变】,易县裴山初级中学变压器,辛旺村1#【纯农排变】,潦水村7#,东火山7#,南庄村7#【纯农排变】,西火山10#,西火山村4#【纯农排变】,永兴鞋垫厂,南韩村1#,东霍山振欧石材销售部,北邵村6#,北邵7号变压器,西火山村8#,北邵村8#变压器,向阳村6#,农科所1#【纯农排变】,北邵村1#【纯农排变】,潦水13号变压器,向阳村3#,潦水村8#,向阳村9#,潦水村4#,0658712140-易县凤平橱柜经销处-专变-192886832-易县凤平橱柜经销处80KVA,西火山村5#【纯农排变】,易县京阳文教用品销售中心,西火山村1#,刘巨义煤厂,易县南韩村广海石料厂(姚文亮),潦水村1#,东火山村8#,南庄村8#,南韩学宾石子厂,辛旺村3#,向阳玻璃厂,易县永乐建材有限公司变压器,易县南韩村广海石料厂,易县东方石材厂变压器,北邵村3#,潦水村6#,0678209170-易县狼牙山中凯农副产品经销有限公司-专变-217787052-易县狼牙山中凯农副产品经销有限公司-200KVA.,南庄村6#【纯农排变】,尚文才鞋垫厂,张文月石板厂,南街村7#【纯农排变】,西街村2#,南庄村10#,辛旺村5#,易县泽锐石材厂,易县向阳三强石材厂,易县隆鑫石材厂,南庄村1#,易县潦水汇鸿石材销售处变压器,潦水村5#,北街农业,南韩3#,潦水村2#,南庄村5#【纯农排变】,南韩2#,易县天宏建材有限公司变压器,潦水村3#,易县南山石料厂,广海石料(赵天梅),西火山村2#,广海石料厂(4#),南韩村5号,北街村2#,向阳村5#,天宏建材有限公司,向阳村4#","powerOffReason":"【停电原因】由于速断跳闸导致３５ＫＶ裴山变电站潦水５１４线路全线停电【变更送电】因抢修进度加快原因，送电时间由１８:００变更为１０:３０【发布渠道】通过９５５９８发布","powerOffId":"2019092113000033"},{"poweroffId":2019092113000008,"sgpoweroffId":null,"subsName":"","lineName":"城北线521","pubTranName":"大西堤村东混合配变,小西堤桥南混合,大西堤混合,保障性住房小区,","scope":"【影响街道/乡镇】望都镇　　 【高危重要客户】无　　 【影响客户】大西堤、小西堤、保障性住房小区","startTime":"2019-09-21 01:03:14","stopDate":"2019-09-21 08:00:00","orgNo":"1340623","typeCode":"电网故障停限电","poweroffArea":"【全线路停电】停大西堤村东混合配变,小西堤桥南混合,大西堤混合,保障性住房小区","poweroffReason":"【停电原因】由于站内开关跳闸导致１１０ＫＶ西堤变电站城北线５２１线路全线停电 【变更送电】因抢修进度加快原因，送电时间由１８：００变更为０８：００ 【发布渠道】通过９５５９８发布","powerTime":"2019-09-21 07:10:24","powerComm":"已送电","subsNo":"","lineNo":"","tgNo":"","tgName":null,"infoStatus":"1","orgName":"国网望都县供电公司","typeName":null,"infoStatusName":null,"dateDay":null,"orgNos":null,"nowTime":null,"countyName":null,"streetName":null,"villageName":null,"roadName":null,"communityName":null,"tranName":null,"sdLineName":null,"cityCode":"1340623","cityName":"国网望都县供电公司","provinceCode":null,"stopTime":"2019-09-21 08:00:00","powerType":"全部","powerOffArea":"【全线路停电】停大西堤村东混合配变,小西堤桥南混合,大西堤混合,保障性住房小区","powerOffReason":"【停电原因】由于站内开关跳闸导致１１０ＫＶ西堤变电站城北线５２１线路全线停电 【变更送电】因抢修进度加快原因，送电时间由１８：００变更为０８：００ 【发布渠道】通过９５５９８发布","powerOffId":"2019092113000008"},{"poweroffId":2019092013000154,"sgpoweroffId":null,"subsName":"","lineName":"10kV朝阳路站532线路","pubTranName":"10kVY0098.Y0099配电室Y0098配电变压器,","scope":"【影响街道/乡镇】百花路 【高危重要客户】无 【影响客户】百安居","startTime":"2019-09-20 19:40:00","stopDate":"2019-09-20 21:00:00","orgNo":"13406","typeCode":"电网故障停限电","poweroffArea":"【单台区停电】停10kVY0098.Y0099配电室Y0098配电变压器","poweroffReason":"【停电原因】由于低压刀闸烧导致１０ＫＶ朝阳变电站５３２线路Ｙ００９８公变台区停电【变更送电】无【发布渠道】通过９５５９８发布","powerTime":"2019-09-20 20:19:46","powerComm":"已送电","subsNo":"","lineNo":"","tgNo":"","tgName":null,"infoStatus":"1","orgName":"保定供电公司","typeName":null,"infoStatusName":null,"dateDay":null,"orgNos":null,"nowTime":null,"countyName":null,"streetName":null,"villageName":null,"roadName":null,"communityName":null,"tranName":null,"sdLineName":null,"cityCode":"13406","cityName":"保定供电公司","provinceCode":null,"stopTime":"2019-09-20 21:00:00","powerType":"全部","powerOffArea":"【单台区停电】停10kVY0098.Y0099配电室Y0098配电变压器","powerOffReason":"【停电原因】由于低压刀闸烧导致１０ＫＶ朝阳变电站５３２线路Ｙ００９８公变台区停电【变更送电】无【发布渠道】通过９５５９８发布","powerOffId":"2019092013000154"},{"poweroffId":2019092013000137,"sgpoweroffId":null,"subsName":"","lineName":"商平庄线512","pubTranName":"商平庄供53号变压器,","scope":"【影响街道/乡镇】崔庄镇 【高危重要客户】无 【影响客户】吴庄、商平庄、南邵庄","startTime":"2019-09-20 18:38:28","stopDate":"2019-09-20 20:00:00","orgNo":"1340605","typeCode":"电网故障停限电","poweroffArea":"【全线路停电】停徐水天源学校,商平庄供35号变压器,鑫隆饲料加工厂,徐水县商平庄砖厂3号,保定市徐水区民鑫水泥制品厂,吴庄供24号变压器,吴庄砖厂2号,诚信羽绒加工厂,保定宏宣畜牧养殖场,商平庄4号变压器,南邵庄供31号变压器【纯农排变】,商平庄供36号变压器,商平庄11号变压器【纯农排变】,商平庄西砖厂,吴庄供3号变压器【纯农排变】,南邵庄养猪厂,天源学校,吴庄砖厂1号,吴庄6号变压器【纯农排变】,吴庄供4号变压器,商平庄砖厂1号,徐水县百川养殖有限公司变压器,吴庄7号变压器,商平庄供53号变压器,南邵庄7号变压器,干沟4号变压器,干河沟9号变压器【纯农排变】,徐水县嘉铖制鞋厂,东方活性碳厂,南邵庄供38号变压器,商平庄面粉厂,干沟砖厂1号,商品庄砖厂,商平庄供132号变压器,徐水县汇邦羽绒制品有限公司,保定市徐水天源学校,商平庄供37号变压器,徐水县奥尔特鞋材厂2号,徐水县佰川羽绒制品有限公司,商平庄供56号变压器,商平庄供7号变压器,商平庄1号变压器,商平庄供57号变压器,商平庄供50号变压器,商平庄3号变压器,商平庄2号变压器,商平庄9号变压器,保定市徐水区贝尔耐鞋厂,商平庄8号变压器,吴庄供140号变压器,巨力集团有限公司变压器,干沟砖厂,张庄供114号变压器【纯农排变】,商平庄供130号变压器,商平庄7号变压器,干河沟供26号变压器【纯农排变】,商平庄供25号变压器【纯农排变】,商平庄5号变压器,徐水县润达海绵有限公司,商平庄供44号变压器,商平庄供94号变压器【纯农排变】,阔利达鞋服有限公司,商平庄10号变压器","poweroffReason":"【停电原因】由于Ｂ相接地导致３５ＫＶ崔庄变电站商平庄线５１２线路全线停电 【变更送电】因抢修进度加快原因，送电时间由２３:５９变更为２０:００ 【发布渠道】通过９５５９８发布","powerTime":"2019-09-20 19:16:09","powerComm":"已送电","subsNo":"","lineNo":"","tgNo":"","tgName":null,"infoStatus":"1","orgName":"国网徐水县供电公司","typeName":null,"infoStatusName":null,"dateDay":null,"orgNos":null,"nowTime":null,"countyName":null,"streetName":null,"villageName":null,"roadName":null,"communityName":null,"tranName":null,"sdLineName":null,"cityCode":"1340605","cityName":"国网徐水县供电公司","provinceCode":null,"stopTime":"2019-09-20 20:00:00","powerType":"全部","powerOffArea":"【全线路停电】停徐水天源学校,商平庄供35号变压器,鑫隆饲料加工厂,徐水县商平庄砖厂3号,保定市徐水区民鑫水泥制品厂,吴庄供24号变压器,吴庄砖厂2号,诚信羽绒加工厂,保定宏宣畜牧养殖场,商平庄4号变压器,南邵庄供31号变压器【纯农排变】,商平庄供36号变压器,商平庄11号变压器【纯农排变】,商平庄西砖厂,吴庄供3号变压器【纯农排变】,南邵庄养猪厂,天源学校,吴庄砖厂1号,吴庄6号变压器【纯农排变】,吴庄供4号变压器,商平庄砖厂1号,徐水县百川养殖有限公司变压器,吴庄7号变压器,商平庄供53号变压器,南邵庄7号变压器,干沟4号变压器,干河沟9号变压器【纯农排变】,徐水县嘉铖制鞋厂,东方活性碳厂,南邵庄供38号变压器,商平庄面粉厂,干沟砖厂1号,商品庄砖厂,商平庄供132号变压器,徐水县汇邦羽绒制品有限公司,保定市徐水天源学校,商平庄供37号变压器,徐水县奥尔特鞋材厂2号,徐水县佰川羽绒制品有限公司,商平庄供56号变压器,商平庄供7号变压器,商平庄1号变压器,商平庄供57号变压器,商平庄供50号变压器,商平庄3号变压器,商平庄2号变压器,商平庄9号变压器,保定市徐水区贝尔耐鞋厂,商平庄8号变压器,吴庄供140号变压器,巨力集团有限公司变压器,干沟砖厂,张庄供114号变压器【纯农排变】,商平庄供130号变压器,商平庄7号变压器,干河沟供26号变压器【纯农排变】,商平庄供25号变压器【纯农排变】,商平庄5号变压器,徐水县润达海绵有限公司,商平庄供44号变压器,商平庄供94号变压器【纯农排变】,阔利达鞋服有限公司,商平庄10号变压器","powerOffReason":"【停电原因】由于Ｂ相接地导致３５ＫＶ崔庄变电站商平庄线５１２线路全线停电 【变更送电】因抢修进度加快原因，送电时间由２３:５９变更为２０:００ 【发布渠道】通过９５５９８发布","powerOffId":"2019092013000137"},{"poweroffId":2019092013000133,"sgpoweroffId":null,"subsName":"","lineName":"10kV567食品园Ⅰ线","pubTranName":"唐城村(019):照明2台区,唐城新民居公用照明1台区中压出线间隔配电变压器,唐城照明4台区,客户投资_唐城村(019):照明1台区,唐城(019)：照明3台区,唐城新民居公用照明2台区中压出线间隔配电变压器,","scope":"【影响街道/乡镇】北城区【高危重要客户】无【影响客户】唐城、食品园、润州商贸、幸福鸟食品、新宗食品、豪派铁艺门、松本座椅、泰诚仓储、铁路桥梁工区、唐河桥收费站","startTime":"2019-09-20 18:04:23","stopDate":"2019-09-20 19:30:00","orgNo":"1340610","typeCode":"电网故障停限电","poweroffArea":"【全线路停电】停唐城新民居公用照明2台区中压出线间隔配电变压器,唐城村(019):照明2台区,唐城新民居公用照明1台区中压出线间隔配电变压器,唐城照明4台区,客户投资_唐城村(019):照明1台区,唐城(019)：照明3台区","poweroffReason":"【停电原因】由于食品园二期电缆被挖断导致１１０ＫＶ清风店变电站１０ＫＶ５６７食品园Ｉ线路全线停电 【变更送电】因抢修进度加快原因，送电时间由２３：５９变更为１９：３０ 【发布渠道】９５５９８","powerTime":"2019-09-20 19:07:56","powerComm":"已送电","subsNo":"","lineNo":"","tgNo":"","tgName":null,"infoStatus":"1","orgName":"国网定州市供电公司","typeName":null,"infoStatusName":null,"dateDay":null,"orgNos":null,"nowTime":null,"countyName":null,"streetName":null,"villageName":null,"roadName":null,"communityName":null,"tranName":null,"sdLineName":null,"cityCode":"1340610","cityName":"国网定州市供电公司","provinceCode":null,"stopTime":"2019-09-20 19:30:00","powerType":"全部","powerOffArea":"【全线路停电】停唐城新民居公用照明2台区中压出线间隔配电变压器,唐城村(019):照明2台区,唐城新民居公用照明1台区中压出线间隔配电变压器,唐城照明4台区,客户投资_唐城村(019):照明1台区,唐城(019)：照明3台区","powerOffReason":"【停电原因】由于食品园二期电缆被挖断导致１１０ＫＶ清风店变电站１０ＫＶ５６７食品园Ｉ线路全线停电 【变更送电】因抢修进度加快原因，送电时间由２３：５９变更为１９：３０ 【发布渠道】９５５９８","powerOffId":"2019092013000133"}],"pageModel":{"pageNow":550,"totalCount":10973,"totalPage":1098,"tableRows":0,"pageCount":10,"beginCount":5490},"isExperi":"1"}