{"message":"","today":"2020-06-15","seleList":[{"poweroffId":2019092013000129,"sgpoweroffId":null,"subsName":"","lineName":"东团堡线511","pubTranName":"东团堡南1变,东团堡村光伏变压器【光伏】,511东团堡线老营沟2号,北辛庄迁建区2号配变【三批中心村】,511东团堡线东团堡乡中,王家湾村光伏变压器【光伏】,511东团堡线杨庄村,北辛庄光伏2,北辛庄迁建区4号配变【三批中心村】,东团堡镇政府,北辛庄光伏3,511东团堡线北台村,511东团堡线西团堡西变,北辛庄迁建区1号配变【三批中心村】,北李庄台区,汤之岭3号变压器,511东团堡线东团堡南变,511东团堡线汤子岭西变,511东团堡线西团堡东变,511东团堡线卸甲沟2号,511东团堡线东团堡6号台区,511东团堡线王家湾2,511东团堡线北幸庄村,511东团堡线养老河,511东团堡线东坡北变,511东团堡线石山子2号,511东团堡线养老河2台区,卸甲沟村光伏变压器【光伏】,511东团堡线扦树底村,甸坡台区,511东团堡线袁家村1#,511东团堡线水磨滩,511东团堡线袁家村变压器,511东团堡线梁家庄2号,北辛庄光伏5,511东团堡线杆树底,511东团堡线东团堡8号台区,北辛庄光伏1,511东团堡线东团堡卫生院,511东团堡线王家湾,511东团堡线磨峪沟变压器,侯家沟迁建区2号配变【三批中心村】,卸甲沟迁建区2号配变【三批中心村】,红花峪迁建区2号配变【三批中心村】,511东团堡线渔场,汤之岭4号变压器,汤子岭村光伏变压器【光伏】,511东团堡线卸甲沟变压器,511东团堡线东坡南,511东团堡线老营沟,511东团堡线东团堡北变,候家沟村光伏变压器【光伏】,扦树底3号变压器,北辛庄村光伏变压器【光伏】,511东团堡线东坡水利,袁家村3号变压器,511东团堡线东团堡小学,511东团堡线红花峪,西团堡幼儿园,511东团堡线梁家庄,511东团堡线石山子,511东团堡线旧葫芦河村,511东团堡线大道变压器,511东团堡线五节崖,侯家沟迁建区1号配变【三批中心村】,红花峪迁建区1号配变【三批中心村】,西团堡站511袁家村水力,新葫芦河台区,511东团堡线老营沟3号,北辛庄迁建区3号配变【三批中心村】,北李庄村光伏变压器【光伏】,511东团堡线水沟,西团堡3号变压器,511东团堡线东团堡村变,卸甲沟迁建区1号配变【三批中心村】,北辛庄光伏4,511东团堡线汤子岭东变,","scope":"【影响街道/乡镇】东团堡乡【高危重要客户】无【影响客户】汤之岭村、西团堡村、养老河、王家湾村、扦树底、水沟村、袁家村、五节崖村、水磨滩村、老营沟村、梁家庄、东团堡村、东团堡小学、东团堡乡中、东团堡卫生院、北辛庄村、北台村、石山子村、东坡村、红花峪、连巴岭村、山羊池村、干之营村、大道村、南窑村、卸甲沟村、杨庄村、北李庄村、新葫芦河村、旧葫芦河村、甸坡村、桃木疙瘩村、南石塘村、东台沟村、流水沟、曹年村、峙院沟村、一倾地村、三台岭村、箭干河村","startTime":"2019-09-20 17:39:40","stopDate":"2019-09-20 23:31:07","orgNo":"1340615","typeCode":"电网故障停限电","poweroffArea":"【全线路停电】停511东团堡线养老河2台区,511东团堡线东团堡6号台区,老营沟沙场,511东团堡线王家湾2,涞源县东团堡乡东团堡村村民委员会变压器,中国移动通信集团河北有限公司涞源分公司变压器,511东团堡线北幸庄村,511东团堡线养老河,511东团堡线东坡北变,保定中和土地整理有限公司变压器,511东团堡线石山子2号,卸甲沟村光伏变压器【光伏】,511东团堡线扦树底村,甸坡台区,511东团堡线袁家村1#,涞源县旺绿农业开发有限公司变压器,511东团堡线水磨滩,511东团堡线袁家村变压器,涞源县东团堡乡袁家村村民委员会变压器,涞源县东团堡乡红花峪村村民委员会变压器,涞源县松景润砂石料有限公司变压器,涞源县首奥新能源发电有限公司变压器,511东团堡线梁家庄2号,变压器,北辛庄光伏5,涞源县东团堡乡养老河村村民委员会变压器,511东团堡线杆树底,511东团堡线东团堡8号台区,北辛庄光伏1,511东团堡线东团堡卫生院,511东团堡线王家湾,511东团堡线磨峪沟变压器,涞源县东团堡乡北辛庄村村民委员会变压器,侯家沟迁建区2号配变【三批中心村】,卸甲沟迁建区2号配变【三批中心村】,红花峪迁建区2号配变【三批中心村】,511东团堡线渔场,涞源县东团堡乡北梁家庄村村民委员会变压器,汤之岭4号变压器,汤子岭村光伏变压器【光伏】,511东团堡线卸甲沟变压器,511东团堡线东坡南,涞源首奥新能源发电有限公司变压器,511东团堡线老营沟,511东团堡线东团堡北变,国网河北省电力公司涞源县供电分公司(东团堡所)变压器,涞源县东团堡乡杨庄村村民委员会变压器,候家沟村光伏变压器【光伏】,扦树底3号变压器,涞源县东团堡乡北王家湾村村民委员会变压器,涞源县东团堡乡汤子岭村村民委员会变压器,北辛庄村光伏变压器【光伏】,511东团堡线东坡水利,袁家村3号变压器,511东团堡线东团堡小学,涞源县东团堡乡东坡村村民委员会变压器,511东团堡线红花峪,西团堡幼儿园,涞源县东团堡乡卸甲沟村村民委员会变压器,涞源县东团堡乡北辛庄村民委员会变压器,511东团堡线梁家庄,511东团堡线石山子,511东团堡线旧葫芦河村,511东团堡线大道变压器,511东团堡线五节崖,涞源县东团堡乡杄树底村村民委员会变压器,侯家沟迁建区1号配变【三批中心村】,红花峪迁建区1号配变【三批中心村】,通信集团河北有限公司,涞源县东团堡乡连巴岭村村民委员会变压器,西团堡站511袁家村水力,涞源县沃强土地整理有限公司变压器,涞源县东团堡乡北李庄村村民委员会变压器,新葫芦河台区,511东团堡线老营沟3号,北辛庄迁建区3号配变【三批中心村】,北李庄村光伏变压器【光伏】,511东团堡线水沟,西团堡3号变压器,511东团堡线东团堡村变,涞源县东团堡村村民委员会变压器,涞源县公安局东团堡派出所变压器,涞源县东团堡乡卫生院变压器,涞源县东团堡乡中心小学变压器,涞源县宇安房地产开发有限公司变压器,卸甲沟迁建区1号配变【三批中心村】,龙泉矿业西梁铁矿,北辛庄光伏4,511东团堡线汤子岭东变,511东团堡线卸甲沟2号,涞源县问客东方有机农庄变压器,东团堡南1变,东团堡村光伏变压器【光伏】,511东团堡线老营沟2号,北辛庄迁建区2号配变【三批中心村】,511东团堡线东团堡乡中,王家湾村光伏变压器【光伏】,511东团堡线杨庄村,中国移动通信集团河北有限公司涞源,北辛庄光伏2,北辛庄迁建区4号配变【三批中心村】,东团堡镇政府,北辛庄光伏3,511东团堡线北台村,511东团堡线西团堡西变,北辛庄迁建区1号配变【三批中心村】,北李庄台区,汤之岭3号变压器,511东团堡线东团","poweroffReason":"【停电原因】由于Ｔ接线夹烧毁，导致３５ＫＶ西团堡变电站１０ＫＶ东团堡线５１１线路全线停电【变更送电】无【发布渠道】通过９５５９８发布","powerTime":"2019-09-20 23:02:18","powerComm":"已送电","subsNo":"","lineNo":"","tgNo":"","tgName":null,"infoStatus":"1","orgName":"国网涞源县供电公司","typeName":null,"infoStatusName":null,"dateDay":null,"orgNos":null,"nowTime":null,"countyName":null,"streetName":null,"villageName":null,"roadName":null,"communityName":null,"tranName":null,"sdLineName":null,"cityCode":"1340615","cityName":"国网涞源县供电公司","provinceCode":null,"stopTime":"2019-09-20 23:31:07","powerType":"全部","powerOffArea":"【全线路停电】停511东团堡线养老河2台区,511东团堡线东团堡6号台区,老营沟沙场,511东团堡线王家湾2,涞源县东团堡乡东团堡村村民委员会变压器,中国移动通信集团河北有限公司涞源分公司变压器,511东团堡线北幸庄村,511东团堡线养老河,511东团堡线东坡北变,保定中和土地整理有限公司变压器,511东团堡线石山子2号,卸甲沟村光伏变压器【光伏】,511东团堡线扦树底村,甸坡台区,511东团堡线袁家村1#,涞源县旺绿农业开发有限公司变压器,511东团堡线水磨滩,511东团堡线袁家村变压器,涞源县东团堡乡袁家村村民委员会变压器,涞源县东团堡乡红花峪村村民委员会变压器,涞源县松景润砂石料有限公司变压器,涞源县首奥新能源发电有限公司变压器,511东团堡线梁家庄2号,变压器,北辛庄光伏5,涞源县东团堡乡养老河村村民委员会变压器,511东团堡线杆树底,511东团堡线东团堡8号台区,北辛庄光伏1,511东团堡线东团堡卫生院,511东团堡线王家湾,511东团堡线磨峪沟变压器,涞源县东团堡乡北辛庄村村民委员会变压器,侯家沟迁建区2号配变【三批中心村】,卸甲沟迁建区2号配变【三批中心村】,红花峪迁建区2号配变【三批中心村】,511东团堡线渔场,涞源县东团堡乡北梁家庄村村民委员会变压器,汤之岭4号变压器,汤子岭村光伏变压器【光伏】,511东团堡线卸甲沟变压器,511东团堡线东坡南,涞源首奥新能源发电有限公司变压器,511东团堡线老营沟,511东团堡线东团堡北变,国网河北省电力公司涞源县供电分公司(东团堡所)变压器,涞源县东团堡乡杨庄村村民委员会变压器,候家沟村光伏变压器【光伏】,扦树底3号变压器,涞源县东团堡乡北王家湾村村民委员会变压器,涞源县东团堡乡汤子岭村村民委员会变压器,北辛庄村光伏变压器【光伏】,511东团堡线东坡水利,袁家村3号变压器,511东团堡线东团堡小学,涞源县东团堡乡东坡村村民委员会变压器,511东团堡线红花峪,西团堡幼儿园,涞源县东团堡乡卸甲沟村村民委员会变压器,涞源县东团堡乡北辛庄村民委员会变压器,511东团堡线梁家庄,511东团堡线石山子,511东团堡线旧葫芦河村,511东团堡线大道变压器,511东团堡线五节崖,涞源县东团堡乡杄树底村村民委员会变压器,侯家沟迁建区1号配变【三批中心村】,红花峪迁建区1号配变【三批中心村】,通信集团河北有限公司,涞源县东团堡乡连巴岭村村民委员会变压器,西团堡站511袁家村水力,涞源县沃强土地整理有限公司变压器,涞源县东团堡乡北李庄村村民委员会变压器,新葫芦河台区,511东团堡线老营沟3号,北辛庄迁建区3号配变【三批中心村】,北李庄村光伏变压器【光伏】,511东团堡线水沟,西团堡3号变压器,511东团堡线东团堡村变,涞源县东团堡村村民委员会变压器,涞源县公安局东团堡派出所变压器,涞源县东团堡乡卫生院变压器,涞源县东团堡乡中心小学变压器,涞源县宇安房地产开发有限公司变压器,卸甲沟迁建区1号配变【三批中心村】,龙泉矿业西梁铁矿,北辛庄光伏4,511东团堡线汤子岭东变,511东团堡线卸甲沟2号,涞源县问客东方有机农庄变压器,东团堡南1变,东团堡村光伏变压器【光伏】,511东团堡线老营沟2号,北辛庄迁建区2号配变【三批中心村】,511东团堡线东团堡乡中,王家湾村光伏变压器【光伏】,511东团堡线杨庄村,中国移动通信集团河北有限公司涞源,北辛庄光伏2,北辛庄迁建区4号配变【三批中心村】,东团堡镇政府,北辛庄光伏3,511东团堡线北台村,511东团堡线西团堡西变,北辛庄迁建区1号配变【三批中心村】,北李庄台区,汤之岭3号变压器,511东团堡线东团","powerOffReason":"【停电原因】由于Ｔ接线夹烧毁，导致３５ＫＶ西团堡变电站１０ＫＶ东团堡线５１１线路全线停电【变更送电】无【发布渠道】通过９５５９８发布","powerOffId":"2019092013000129"},{"poweroffId":2019092013000127,"sgpoweroffId":null,"subsName":"","lineName":"10kV利民路站564线路","pubTranName":"C434柱上变压器,","scope":"【影响街道/乡镇】南大园乡 【高危重要客户】无 【影响客户】黄庄","startTime":"2019-09-20 17:30:00","stopDate":"2019-09-20 22:30:00","orgNo":"13406","typeCode":"电网故障停限电","poweroffArea":"【单台区停电】停C434柱上变压器","poweroffReason":"【停电原因】由于低压保险片烧导致１０ＫＶ利民变电站５６４线路Ｃ４３４公变台区停电【变更送电】因抢修进度加快，原定２１日００：３０送电现计划２２：３０送电。【发布渠道】通过９５５９８发布","powerTime":"2019-09-20 21:58:35","powerComm":"已送电","subsNo":"","lineNo":"","tgNo":"","tgName":null,"infoStatus":"1","orgName":"保定供电公司","typeName":null,"infoStatusName":null,"dateDay":null,"orgNos":null,"nowTime":null,"countyName":null,"streetName":null,"villageName":null,"roadName":null,"communityName":null,"tranName":null,"sdLineName":null,"cityCode":"13406","cityName":"保定供电公司","provinceCode":null,"stopTime":"2019-09-20 22:30:00","powerType":"全部","powerOffArea":"【单台区停电】停C434柱上变压器","powerOffReason":"【停电原因】由于低压保险片烧导致１０ＫＶ利民变电站５６４线路Ｃ４３４公变台区停电【变更送电】因抢修进度加快，原定２１日００：３０送电现计划２２：３０送电。【发布渠道】通过９５５９８发布","powerOffId":"2019092013000127"},{"poweroffId":2019092013000123,"sgpoweroffId":null,"subsName":"","lineName":"下北头线519","pubTranName":"519下北头线菜村岗1,斗军湾村1号【2018光伏扶贫电站】,菜村岗村光伏变压器【光伏】,石窝3台区,519下北头线菜村岗2,石窝2台区,斗军湾村5台区变压器,菜村岗4台区,519下北头线斗军湾1,519下北头线下北头北,519下北头线灵吉2,519下北头线庄伙4,斗军湾村4号【2018光伏扶贫电站】,519下北头线斗军湾4,白石山镇政府,斗军湾村2号【2018光伏扶贫电站】,519下北头线斗军湾2,519下北头线庄伙2,519下北头线灵吉1,519下北头线下北头5台区,石窝台区,斗军湾村3号【2018光伏扶贫电站】,519下北头线下北头南,519下北头线庄伙5,下北头村光伏变压器【光伏】,519下北头线庄伙1,519下北头线庄伙6,519下北头线庄伙3,519下北头线灵吉3,519下北头线斗军湾3,","scope":"【影响街道/乡镇】白石山镇【高危重要客户】无【影响客户】下北头村、庄伙、菜村岗、斗军湾、灵吉、石窝","startTime":"2019-09-20 17:07:48","stopDate":"2019-09-20 19:00:00","orgNo":"1340615","typeCode":"电网故障停限电","poweroffArea":"【全线路停电】停涞源华中房地产开发有限公司变压器,519下北头线菜村岗1,斗军湾村1号【2018光伏扶贫电站】,奥强铁选厂,菜村岗村光伏变压器【光伏】,涞源县白石山镇石窝村村民委员会变压器,涞源县白石山镇菜村岗村村民委员会变压器,涞源华中假日酒店有限公司变压器,石窝3台区,519下北头线菜村岗2,石窝2台区,民爆公司,斗军湾村5台区变压器,菜村岗4台区,金猪旺养殖公司,涞源县长信房地产开发有限公司变压器,宝泽峰矿业公司,天美旅游开发有限公司变压器,519下北头线斗军湾1,519下北头线下北头北,519下北头线灵吉2,519下北头线庄伙4,涞源县白石山镇卫生院变压器,斗军湾村4号【2018光伏扶贫电站】,519下北头线斗军湾4,涞源县森木养殖场变压器,白石山镇政府,冀北养殖园变压器,通达铸造厂,斗军湾村2号【2018光伏扶贫电站】,涞源县金猪旺畜禽养殖有限公司变压器,中国人民解放军61469部队32分队变压器,涞源县住房和城乡建设局变压器,变压器,涞源县白石山镇中心小学灵吉小学变压器,河北中凯建设工程有限公司变压器,519下北头线斗军湾2,中国移动通信集团河北有限公司涞源分公司变压器,华中云栖白桦温泉健身变压器,519下北头线下北头5台区,斗军湾草碳厂,61469营部,519下北头线庄伙1,519下北头线斗军湾3,涞源县谷润农副食品加工厂有限公司变压器,石窝台区,519下北头线庄伙2,519下北头线灵吉1,涞源县太行建筑有限公司变压器,河北华中物业服务有限公司涞源分公司变压器,斗军湾村3号【2018光伏扶贫电站】,下北头村光伏变压器【光伏】,519下北头线庄伙6,519下北头线庄伙3,519下北头线灵吉3,0687945250-涞源华中假日酒店有限公司-专变-228705676-涞源华中假日酒店有限公司变压器6,519下北头线下北头南,519下北头线庄伙5,涞源县明德小学变压器","poweroffReason":"【停电原因】由于Ｔ接线夹烧毁导致１１０ＫＶ涞源变电站１０ＫＶ下北头线５１９线路全线停电【变更送电】因抢修进度加快，原定２３：１１送电现计划１９：００送电【发布渠道】通过９５５９８发布","powerTime":"2019-09-20 18:36:54","powerComm":"已送电","subsNo":"","lineNo":"","tgNo":"","tgName":null,"infoStatus":"1","orgName":"国网涞源县供电公司","typeName":null,"infoStatusName":null,"dateDay":null,"orgNos":null,"nowTime":null,"countyName":null,"streetName":null,"villageName":null,"roadName":null,"communityName":null,"tranName":null,"sdLineName":null,"cityCode":"1340615","cityName":"国网涞源县供电公司","provinceCode":null,"stopTime":"2019-09-20 19:00:00","powerType":"全部","powerOffArea":"【全线路停电】停涞源华中房地产开发有限公司变压器,519下北头线菜村岗1,斗军湾村1号【2018光伏扶贫电站】,奥强铁选厂,菜村岗村光伏变压器【光伏】,涞源县白石山镇石窝村村民委员会变压器,涞源县白石山镇菜村岗村村民委员会变压器,涞源华中假日酒店有限公司变压器,石窝3台区,519下北头线菜村岗2,石窝2台区,民爆公司,斗军湾村5台区变压器,菜村岗4台区,金猪旺养殖公司,涞源县长信房地产开发有限公司变压器,宝泽峰矿业公司,天美旅游开发有限公司变压器,519下北头线斗军湾1,519下北头线下北头北,519下北头线灵吉2,519下北头线庄伙4,涞源县白石山镇卫生院变压器,斗军湾村4号【2018光伏扶贫电站】,519下北头线斗军湾4,涞源县森木养殖场变压器,白石山镇政府,冀北养殖园变压器,通达铸造厂,斗军湾村2号【2018光伏扶贫电站】,涞源县金猪旺畜禽养殖有限公司变压器,中国人民解放军61469部队32分队变压器,涞源县住房和城乡建设局变压器,变压器,涞源县白石山镇中心小学灵吉小学变压器,河北中凯建设工程有限公司变压器,519下北头线斗军湾2,中国移动通信集团河北有限公司涞源分公司变压器,华中云栖白桦温泉健身变压器,519下北头线下北头5台区,斗军湾草碳厂,61469营部,519下北头线庄伙1,519下北头线斗军湾3,涞源县谷润农副食品加工厂有限公司变压器,石窝台区,519下北头线庄伙2,519下北头线灵吉1,涞源县太行建筑有限公司变压器,河北华中物业服务有限公司涞源分公司变压器,斗军湾村3号【2018光伏扶贫电站】,下北头村光伏变压器【光伏】,519下北头线庄伙6,519下北头线庄伙3,519下北头线灵吉3,0687945250-涞源华中假日酒店有限公司-专变-228705676-涞源华中假日酒店有限公司变压器6,519下北头线下北头南,519下北头线庄伙5,涞源县明德小学变压器","powerOffReason":"【停电原因】由于Ｔ接线夹烧毁导致１１０ＫＶ涞源变电站１０ＫＶ下北头线５１９线路全线停电【变更送电】因抢修进度加快，原定２３：１１送电现计划１９：００送电【发布渠道】通过９５５９８发布","powerOffId":"2019092013000123"},{"poweroffId":2019092013000111,"sgpoweroffId":null,"subsName":"","lineName":"10kV北庄545线","pubTranName":"北庄食用菌公用配变,长角2#公用配变,东板峪3号公用配变,东板峪食用菌2#公用配变,阜平县大韩农业开发有限公司,北庄1#公用配变【18M】,土门8#公用配变,车道5#公用配变变压器,土门7#公用配变,石湖2#公用配变,车道2#公用配变变压器,土门6#公用配变,北庄5号公用配变,长角村食用菌1号公用配变变压器,长角1#公用配变,车道3#公用配变变压器【18M】,","scope":"【影响街道/乡镇】平阳镇 【高危重要客户】无 【影响客户】北庄村、金家口村、河泽村、半岛沟门村,黄岸村，东板峪村，长角村、朱岸村，车道村、大庙村、五支村、枣岸村，石湖村、唐野村、柳河村、坡子村、大湾村，土门村、南工村、桃河村、桃河沟村、阜平久丰农业科技有限公司、阜平县大韩农业开发有限公司、阜平县福东林果种植专业合作社、阜平县福寿山林果种植园、阜平县国有粮食购销一库、阜平县宁瑞畜牧饲养有限公司、阜平县鑫东建材购销有限公司、河北宝山农业科技有限公司、河北诚威建筑工程有限责任公司、河北冠阳农业科技开发有限公司、河北国和万霖农业科技有限公司、河北交通投资集团保阜高速公路有限公司、中国移动通信集团河北有限公司阜平分公司","startTime":"2019-10-19 04:30:00","stopDate":"2019-10-19 18:00:00","orgNo":"1340611","typeCode":"计划停电","poweroffArea":"【全线路停电】停北庄食用菌公用配变,长角2#公用配变,东板峪3号公用配变,东板峪食用菌2#公用配变,阜平县大韩农业开发有限公司,北庄1#公用配变【18M】,土门8#公用配变,车道5#公用配变变压器,土门7#公用配变,石湖2#公用配变,车道2#公用配变变压器,土门6#公用配变,北庄5号公用配变,长角村食用菌1号公用配变变压器,长角1#公用配变,车道3#公用配变变压器【18M】","poweroffReason":"【停电原因】由于引线搭接导致１１０ＫＶ平阳变电站１０ＫＶ北庄５４５线路全线停电 【变更送电】无 【发布渠道】保定市阜平电视台（１０月１０日０４时至１０月１９日１８时）飞播","powerTime":"2019-10-19 17:19:58","powerComm":"全部送电","subsNo":"","lineNo":"","tgNo":"","tgName":null,"infoStatus":"1","orgName":"国网阜平县供电公司","typeName":null,"infoStatusName":null,"dateDay":null,"orgNos":null,"nowTime":null,"countyName":null,"streetName":null,"villageName":null,"roadName":null,"communityName":null,"tranName":null,"sdLineName":null,"cityCode":"1340611","cityName":"国网阜平县供电公司","provinceCode":null,"stopTime":"2019-10-19 18:00:00","powerType":"全部","powerOffArea":"【全线路停电】停北庄食用菌公用配变,长角2#公用配变,东板峪3号公用配变,东板峪食用菌2#公用配变,阜平县大韩农业开发有限公司,北庄1#公用配变【18M】,土门8#公用配变,车道5#公用配变变压器,土门7#公用配变,石湖2#公用配变,车道2#公用配变变压器,土门6#公用配变,北庄5号公用配变,长角村食用菌1号公用配变变压器,长角1#公用配变,车道3#公用配变变压器【18M】","powerOffReason":"【停电原因】由于引线搭接导致１１０ＫＶ平阳变电站１０ＫＶ北庄５４５线路全线停电 【变更送电】无 【发布渠道】保定市阜平电视台（１０月１０日０４时至１０月１９日１８时）飞播","powerOffId":"2019092013000111"},{"poweroffId":2019092013000109,"sgpoweroffId":null,"subsName":"","lineName":"10kV平阳543线","pubTranName":"北水峪2号公用配变,北水峪3#公用配变,北水峪4号公用配变,北水峪5#公用配变,北水峪7#公用配变,北水峪8号公用配变,北水峪小学采暖1号变压器【18M】,北水峪小学采暖2号变压器【18M】,各老1号公用配变,各老2号公用配变,各老2号公用配变【18M】,各老3号公用配变,各老村公用配变【光伏】,各老村食用菌1#公用配变,平阳10号公用配变,平阳14号公用配变,","scope":"【影响街道/乡镇】平阳镇 【高危重要客户】无 【影响客户】平阳村、平阳东桥、平阳劳动沟、平阳大河窑、平阳镇政府、平阳北沟、平阳台南、平阳小区、各老村、羊角村、台南村、北水峪村、东水峪、南水峪、山咀头村、阜平县国泰果品有限责任公司、阜平县和谐水产养殖专业合作社、阜平县宏祥建筑工程有限责任公司、阜平县金成饭店、阜平县景泰矿产品经销有限公司、阜平县平阳石子加工厂、阜平县平阳镇平阳供销社小区、阜平县淇瑞祥混凝土搅拌有限公司、阜平县润沃煤炭购销有限公司、阜平县三岩寨敬老院、阜平县兴隆水泥砖厂、中国联合网络通信有限公司阜平县分公司、中国铁塔股份有限公司保定市分公司、中国移动通信集团河北有限公司阜平分公司","startTime":"2019-10-19 04:30:00","stopDate":"2019-10-19 18:00:00","orgNo":"1340611","typeCode":"计划停电","poweroffArea":"【全线路停电】停北水峪2号公用配变,北水峪3#公用配变,北水峪4号公用配变,北水峪5#公用配变,北水峪7#公用配变,北水峪8号公用配变,北水峪小学采暖1号变压器【18M】,北水峪小学采暖2号变压器【18M】,各老1号公用配变,各老2号公用配变,各老2号公用配变【18M】,各老3号公用配变,各老村公用配变【光伏】,各老村食用菌1#公用配变,平阳10号公用配变,平阳14号公用配变","poweroffReason":"【停电原因】由于引线搭接导致１１０ＫＶ平阳变电站１０ＫＶ平阳５４３线路全线停电 【变更送电】无 【发布渠道】保定市阜平电视台（１０月１０日０４时至１０月１９日１８时）飞播","powerTime":"2019-10-19 17:18:54","powerComm":"全部送电","subsNo":"","lineNo":"","tgNo":"","tgName":null,"infoStatus":"1","orgName":"国网阜平县供电公司","typeName":null,"infoStatusName":null,"dateDay":null,"orgNos":null,"nowTime":null,"countyName":null,"streetName":null,"villageName":null,"roadName":null,"communityName":null,"tranName":null,"sdLineName":null,"cityCode":"1340611","cityName":"国网阜平县供电公司","provinceCode":null,"stopTime":"2019-10-19 18:00:00","powerType":"全部","powerOffArea":"【全线路停电】停北水峪2号公用配变,北水峪3#公用配变,北水峪4号公用配变,北水峪5#公用配变,北水峪7#公用配变,北水峪8号公用配变,北水峪小学采暖1号变压器【18M】,北水峪小学采暖2号变压器【18M】,各老1号公用配变,各老2号公用配变,各老2号公用配变【18M】,各老3号公用配变,各老村公用配变【光伏】,各老村食用菌1#公用配变,平阳10号公用配变,平阳14号公用配变","powerOffReason":"【停电原因】由于引线搭接导致１１０ＫＶ平阳变电站１０ＫＶ平阳５４３线路全线停电 【变更送电】无 【发布渠道】保定市阜平电视台（１０月１０日０４时至１０月１９日１８时）飞播","powerOffId":"2019092013000109"},{"poweroffId":2019092013000105,"sgpoweroffId":null,"subsName":"","lineName":"10kV王林口540线","pubTranName":"刘家沟2#公用配变,马坊1#公用配变,马坊2#公用配变,马沙沟1#公用配变,马沙沟2#公用配变,平阳11#公用配变,白山1#公用配变,东王林口1#公用配变,东王林口2#公用配变,东王林口田野希望小学采暖1号变压器【18M】,刘家沟1#公用配变,前岭3#公用配变,前岭4#公用配变,马沙沟小区1号配变中压出线间隔配电变压器,前岭1#公用配变,前岭2#公用配变,前岭2#公用配变【18M】,","scope":"【影响街道/乡镇】平阳镇 【高危重要客户】无 【影响客户】铁岭村、铁岭西沟、王快村、后沟村、王快二十亩地村、单岗岭村、黄家坡村、王快土洞沟村、刘家峪村、核桃树沟村、王快石门沟村、王快大车峪村、刘树峪村、寨沟村、石门沟村、白山村、皂火峪村、五丈湾村、庙尔沟村、庙南村、保家庄村、鸭沟村、郄家沟村、上白岔村、下白岔村、坡河村、王快劳动沟村、前岭村、桑元村、樊家工村、杜木沟村、立北沟村、西王林口村、赵望沟村、马沙沟、马坊村、东王林口村、刘家沟村、保定申成路桥有限责任公司、保定市沃原农业科技有限公司、保定天航绿色食品保鲜有限公司、阜平县博嘉农业综合开发有限公司、阜平县仓房岭农牧业开发有限公司、阜平县昌盛水泥砖厂、阜平县东泰劳务服务处、阜平县福泉牧业有限公司、阜平县福瑞嘉食用菌专业合作社、阜平县阜裕投资有限责任公司、阜平县富因达斯水貂专业合作社、阜平县盖宇天然饮料食品有限公司、阜平县合盛食用菌种植专业合作社、阜平县亨瑞畜饲养有限公司、阜平县恒泰水貂养殖有限公司、阜平县交警大队平阳分队、阜平县教师发展中心、阜平县平阳中心卫生院、阜平县王林口乡人民政府、阜平县王林口乡卫生院、阜平县王林口乡西王林口小学、阜平县王林口镇小区","startTime":"2019-10-19 04:30:00","stopDate":"2019-10-19 18:00:00","orgNo":"1340611","typeCode":"计划停电","poweroffArea":"【全线路停电】停白山1#公用配变,东王林口1#公用配变,东王林口2#公用配变,东王林口田野希望小学采暖1号变压器【18M】,刘家沟1#公用配变,刘家沟2#公用配变,马坊1#公用配变,马坊2#公用配变,马沙沟1#公用配变,马沙沟2#公用配变,平阳11#公用配变,前岭1#公用配变,前岭2#公用配变,前岭2#公用配变【18M】,前岭3#公用配变,前岭4#公用配变,马沙沟小区1号配变中压出线间隔配电变压器","poweroffReason":"【停电原因】由于引线搭接导致１１０ＫＶ平阳变电站１０ＫＶ王林口５４０线路全线停电 【变更送电】无 【发布渠道】保定市阜平电视台（１０月１０日０４时至１０月１９日１８时）飞播","powerTime":"2019-10-19 17:21:00","powerComm":"全部送电","subsNo":"","lineNo":"","tgNo":"","tgName":null,"infoStatus":"1","orgName":"国网阜平县供电公司","typeName":null,"infoStatusName":null,"dateDay":null,"orgNos":null,"nowTime":null,"countyName":null,"streetName":null,"villageName":null,"roadName":null,"communityName":null,"tranName":null,"sdLineName":null,"cityCode":"1340611","cityName":"国网阜平县供电公司","provinceCode":null,"stopTime":"2019-10-19 18:00:00","powerType":"全部","powerOffArea":"【全线路停电】停白山1#公用配变,东王林口1#公用配变,东王林口2#公用配变,东王林口田野希望小学采暖1号变压器【18M】,刘家沟1#公用配变,刘家沟2#公用配变,马坊1#公用配变,马坊2#公用配变,马沙沟1#公用配变,马沙沟2#公用配变,平阳11#公用配变,前岭1#公用配变,前岭2#公用配变,前岭2#公用配变【18M】,前岭3#公用配变,前岭4#公用配变,马沙沟小区1号配变中压出线间隔配电变压器","powerOffReason":"【停电原因】由于引线搭接导致１１０ＫＶ平阳变电站１０ＫＶ王林口５４０线路全线停电 【变更送电】无 【发布渠道】保定市阜平电视台（１０月１０日０４时至１０月１９日１８时）飞播","powerOffId":"2019092013000105"},{"poweroffId":2019092013000101,"sgpoweroffId":null,"subsName":"","lineName":"10kV白家峪544线","pubTranName":"白家峪3#公用配变变压器,白家峪2井公用配变变压器,冯家口1#公用配变变压器,冯家口2#公用配变变压器,白家峪1#公用配变变压器,白家峪1#食用菌公用配变,白家峪2#食用菌公用配变,白家峪2井公用配变变压器【18M】,白家峪3号食用菌公用配变,白家峪村公用配变【光伏】,冯家6#公用配变变压器,冯家口1#公用配变变压器【18M】,","scope":"【影响街道/乡镇】平阳镇 【高危重要客户】无 【影响客户】平阳村北、白家峪村、白家峪新民居、上平阳村、上平阳小东沟村、冯家口村、吉利沟村、元子沟村、于家店村、土门村、杨树洼村、水么村、牛巴村、立彦头村、罗峪村下、阜平久丰农业科技有限公司、阜平县博嘉农业综合开发有限公司、阜平县富民林果种植专业合作社、阜平县平阳镇白家峪村村民委员会、阜平县平阳镇北沟小区、阜平县平阳镇中心小学、阜平县日月矿产品加工经销处、阜平县腾达高产奶牛养殖有限公司、阜平县鑫隆长石建材加工厂、阜平县宇金废菌棒加工厂、阜平英利光伏电力开发有限公司、国家电投集团阜平新能源发电有限公司、河北宝山农业科技有限公司、河北冠阳农业科技开发有限公司、河北建设集团股份有限公司阜平分公司、河北圣马皇冠皮具有限公司、平阳镇万顺养殖场、银泰葫芦峪(阜平)农业科技开发有限公司、中太建设集团股份有限公司","startTime":"2019-10-19 04:30:00","stopDate":"2019-10-19 18:00:00","orgNo":"1340611","typeCode":"计划停电","poweroffArea":"【全线路停电】停白家峪3#公用配变变压器,白家峪2井公用配变变压器,冯家口1#公用配变变压器,冯家口2#公用配变变压器,白家峪1#公用配变变压器,白家峪1#食用菌公用配变,白家峪2#食用菌公用配变,白家峪2井公用配变变压器【18M】,白家峪3号食用菌公用配变,白家峪村公用配变【光伏】,冯家6#公用配变变压器,冯家口1#公用配变变压器【18M】","poweroffReason":"【停电原因】由于引线搭接导致１１０ＫＶ平阳变电站１０ＫＶ白家峪５４４线路全线停电 【变更送电】无 【发布渠道】保定市阜平电视台（１０月１０日０４时至１０月１９日１８时）飞播","powerTime":"2019-10-19 17:21:42","powerComm":"全部送电","subsNo":"","lineNo":"","tgNo":"","tgName":null,"infoStatus":"1","orgName":"国网阜平县供电公司","typeName":null,"infoStatusName":null,"dateDay":null,"orgNos":null,"nowTime":null,"countyName":null,"streetName":null,"villageName":null,"roadName":null,"communityName":null,"tranName":null,"sdLineName":null,"cityCode":"1340611","cityName":"国网阜平县供电公司","provinceCode":null,"stopTime":"2019-10-19 18:00:00","powerType":"全部","powerOffArea":"【全线路停电】停白家峪3#公用配变变压器,白家峪2井公用配变变压器,冯家口1#公用配变变压器,冯家口2#公用配变变压器,白家峪1#公用配变变压器,白家峪1#食用菌公用配变,白家峪2#食用菌公用配变,白家峪2井公用配变变压器【18M】,白家峪3号食用菌公用配变,白家峪村公用配变【光伏】,冯家6#公用配变变压器,冯家口1#公用配变变压器【18M】","powerOffReason":"【停电原因】由于引线搭接导致１１０ＫＶ平阳变电站１０ＫＶ白家峪５４４线路全线停电 【变更送电】无 【发布渠道】保定市阜平电视台（１０月１０日０４时至１０月１９日１８时）飞播","powerOffId":"2019092013000101"},{"poweroffId":2019092013000082,"sgpoweroffId":null,"subsName":"","lineName":"10kV柏崖515线","pubTranName":"苇子沟1#变压器,苇子沟2#变压器,东板峪店11#公用配变,柏崖6#变压器,东板峪店4#变压器,柏崖19#公用配变,东板峪店7#变压器,柏崖7#变压器,柏崖15#公用配变,东板峪店5#变压器,柏崖18#公用配变,东板峪店6#变压器【18M】,柏崖8#变压器,柏崖13#变压器,东板峪店12#公用配变,柏崖配变10号变压器,柏崖12#公用配变,柏崖村公用配变【光伏】,柏崖1#变压器,柏崖11#变压器,","scope":"【影响街道/乡镇】大台乡 【高危重要客户】无 【影响客户】西板峪店、大台下、桃园、瓦窑、坊里、韦子沟、河北沟、押车口、大连地、田子口、河滩、周家湾、刘家沟、墨砚沟、柏崖、康儿沟上、康儿沟下、陈家沟村、高速、阜平东收费站、石猴岭隧道、大台中学","startTime":"2019-10-17 06:00:00","stopDate":"2019-10-17 10:30:00","orgNo":"1340611","typeCode":"计划停电","poweroffArea":"【分支停电】停柏崖7#变压器,柏崖15#公用配变,东板峪店5#变压器,苇子沟1#变压器,苇子沟2#变压器,东板峪店11#公用配变,柏崖6#变压器,柏崖11#变压器,柏崖18#公用配变,柏崖8#变压器,柏崖13#变压器,东板峪店12#公用配变,柏崖配变10号变压器,柏崖12#公用配变,","poweroffReason":"【停电原因】由于引线搭接导致３５ＫＶ大台变电站１０ＫＶ柏崖５１５线路主干０２号杆５１５－１号刀闸动触头及以下线路停电 【变更送电】无 【发布渠道】保定市阜平电视台（１０月１日１６时至１０月１７日１１时）飞播","powerTime":"2019-10-17 10:01:42","powerComm":"全部送电","subsNo":"","lineNo":"","tgNo":"","tgName":null,"infoStatus":"1","orgName":"国网阜平县供电公司","typeName":null,"infoStatusName":null,"dateDay":null,"orgNos":null,"nowTime":null,"countyName":null,"streetName":null,"villageName":null,"roadName":null,"communityName":null,"tranName":null,"sdLineName":null,"cityCode":"1340611","cityName":"国网阜平县供电公司","provinceCode":null,"stopTime":"2019-10-17 10:30:00","powerType":"全部","powerOffArea":"【分支停电】停柏崖7#变压器,柏崖15#公用配变,东板峪店5#变压器,苇子沟1#变压器,苇子沟2#变压器,东板峪店11#公用配变,柏崖6#变压器,柏崖11#变压器,柏崖18#公用配变,柏崖8#变压器,柏崖13#变压器,东板峪店12#公用配变,柏崖配变10号变压器,柏崖12#公用配变,","powerOffReason":"【停电原因】由于引线搭接导致３５ＫＶ大台变电站１０ＫＶ柏崖５１５线路主干０２号杆５１５－１号刀闸动触头及以下线路停电 【变更送电】无 【发布渠道】保定市阜平电视台（１０月１日１６时至１０月１７日１１时）飞播","powerOffId":"2019092013000082"},{"poweroffId":2019092013000080,"sgpoweroffId":null,"subsName":"","lineName":"10kV谷家庄515线","pubTranName":"塘沿口1号公用配变,城南庄10#公用配变,谷家庄10#公用配变,谷家庄6#公用配变,谷家庄9#公用配变,","scope":"【影响街道/乡镇】城南庄镇 【高危重要客户】无 【影响客户】谷家庄村、格拉沟村、塘沿口、孟家湾、藤子沟、陶文、阜平县田翔猪饲养专业合作社、阜平县胭脂河清林采砂场、阜平县森盛果木树种植有限公司、阜平县政丰葡萄种植专业合作社、阜平县犇企牲畜饲养有限公司、江苏圣通建设集团有限公司、阜平县田翔猪饲养专业合作社、阜平县澳晟建材销售有限公司、阜平县城南庄恒源石材厂、万利军石材厂、陶连石石材厂、城进面粉厂","startTime":"2019-10-15 05:30:00","stopDate":"2019-10-15 18:00:00","orgNo":"1340611","typeCode":"计划停电","poweroffArea":"【分支停电】停城南庄10#公用配变,谷家庄10#公用配变,谷家庄6#公用配变,谷家庄9#公用配变,塘沿口1号公用配变","poweroffReason":"【停电原因】由于导线架设导致３５ＫＶ城南庄变电站１０ＫＶ谷家庄５１５线路主干０１号杆５１５－０号刀闸动触头及以下线路停电 【变更送电】无 【发布渠道】保定市阜平电视台（１０月１日０９时至１０月１５日１８时）飞播","powerTime":"2019-10-15 17:46:05","powerComm":"全部送电","subsNo":"","lineNo":"","tgNo":"","tgName":null,"infoStatus":"1","orgName":"国网阜平县供电公司","typeName":null,"infoStatusName":null,"dateDay":null,"orgNos":null,"nowTime":null,"countyName":null,"streetName":null,"villageName":null,"roadName":null,"communityName":null,"tranName":null,"sdLineName":null,"cityCode":"1340611","cityName":"国网阜平县供电公司","provinceCode":null,"stopTime":"2019-10-15 18:00:00","powerType":"全部","powerOffArea":"【分支停电】停城南庄10#公用配变,谷家庄10#公用配变,谷家庄6#公用配变,谷家庄9#公用配变,塘沿口1号公用配变","powerOffReason":"【停电原因】由于导线架设导致３５ＫＶ城南庄变电站１０ＫＶ谷家庄５１５线路主干０１号杆５１５－０号刀闸动触头及以下线路停电 【变更送电】无 【发布渠道】保定市阜平电视台（１０月１日０９时至１０月１５日１８时）飞播","powerOffId":"2019092013000080"},{"poweroffId":2019092013000078,"sgpoweroffId":null,"subsName":"","lineName":"10kV下庄513线","pubTranName":"北桑地3#配变,井沟8号公用配变,井沟美丽乡村3号公用配变中压出线间隔配电变压器,万宝庄2#公用配变,易家庄2#公用配变,易家庄4#公用配变,易家庄6#公用配变,","scope":"【影响街道/乡镇】城南庄镇 【高危重要客户】无 【影响客户】万宝庄村、阜平禾木园农业开发有限公司、阜平县政丰葡萄种植专业合作社、阜平禾木园农业开发有限公司、阜平县亮国葡萄种植专业合作社、阜平县森盛果木树种植有限公司、阜平县博嘉农业综合开发有限公司、阜平县胭炎太阳能热水器厂、邢台路桥建设总公司","startTime":"2019-10-15 05:30:00","stopDate":"2019-10-15 18:00:00","orgNo":"1340611","typeCode":"计划停电","poweroffArea":"【分支停电】停北桑地3#配变,井沟8号公用配变,井沟美丽乡村3号公用配变中压出线间隔配电变压器,万宝庄2#公用配变,易家庄2#公用配变,易家庄4#公用配变,易家庄6#公用配变","poweroffReason":"【停电原因】由于导线架设导致３５ＫＶ城南庄变电站１０ＫＶ下庄５１３线路主干０１号杆５１３－０号刀闸动触头及以下线路停电 【变更送电】无 【发布渠道】保定市阜平电视台（１０月１日０９时至１０月１５日１８时）飞播","powerTime":"2019-10-15 17:46:34","powerComm":"全部送电","subsNo":"","lineNo":"","tgNo":"","tgName":null,"infoStatus":"1","orgName":"国网阜平县供电公司","typeName":null,"infoStatusName":null,"dateDay":null,"orgNos":null,"nowTime":null,"countyName":null,"streetName":null,"villageName":null,"roadName":null,"communityName":null,"tranName":null,"sdLineName":null,"cityCode":"1340611","cityName":"国网阜平县供电公司","provinceCode":null,"stopTime":"2019-10-15 18:00:00","powerType":"全部","powerOffArea":"【分支停电】停北桑地3#配变,井沟8号公用配变,井沟美丽乡村3号公用配变中压出线间隔配电变压器,万宝庄2#公用配变,易家庄2#公用配变,易家庄4#公用配变,易家庄6#公用配变","powerOffReason":"【停电原因】由于导线架设导致３５ＫＶ城南庄变电站１０ＫＶ下庄５１３线路主干０１号杆５１３－０号刀闸动触头及以下线路停电 【变更送电】无 【发布渠道】保定市阜平电视台（１０月１日０９时至１０月１５日１８时）飞播","powerOffId":"2019092013000078"}],"pageModel":{"pageNow":551,"totalCount":10973,"totalPage":1098,"tableRows":0,"pageCount":10,"beginCount":5500},"isExperi":"1"}