{"message":"","today":"2020-06-15","seleList":[{"poweroffId":2019092013000076,"sgpoweroffId":null,"subsName":"","lineName":"10kV南台512线","pubTranName":"八队十八队变压器,城南庄16#公用配变,城南庄中学采暖2#变压器【18M】,城南庄中学采暖新增1#变压器【18M】,后庄1#公用配变,后庄10#公用配变,后庄11#公用配变,后庄12#公用配变,后庄13#公用配变,后庄14#公用配变,后庄15#公用配变,","scope":"【影响街道/乡镇】城南庄镇 【高危重要客户】无 【影响客户】南台、八队十八队、台子沟、西大地、段庄村、王家庄、温塘、瓦房地村、桃园村、白家湾村、西沟村、城南庄中学、中国移动通信集团河北有限公司阜平分公司、保定金禾矿业有限公司、阜平华源矿产品购销有限公司、阜平县胜利板栗加工厂、阜平县牧旺羊饲养专业合作社、阜平县垚鑫土地整治有限公司、阜平县佳兰农业专业合作社、河北桐源农业开发有限责任公司、河北树业农业开发有限公司、阜平县兴磊石材厂、南台村小区","startTime":"2019-10-15 05:30:00","stopDate":"2019-10-15 18:00:00","orgNo":"1340611","typeCode":"计划停电","poweroffArea":"【分支停电】停八队十八队变压器,城南庄16#公用配变,城南庄中学采暖2#变压器【18M】,城南庄中学采暖新增1#变压器【18M】,后庄1#公用配变,后庄10#公用配变,后庄11#公用配变,后庄12#公用配变,后庄13#公用配变,后庄14#公用配变,后庄15#公用配变","poweroffReason":"【停电原因】由于导线架设导致３５ＫＶ城南庄变电站１０ＫＶ南台５１２线路主干０１号杆５１２－０号刀闸动触头及以下线路停电 【变更送电】无 【发布渠道】保定市阜平电视台（１０月１日０９时至１０月１５日１８时）飞播","powerTime":"2019-10-15 17:47:09","powerComm":"全部送电","subsNo":"","lineNo":"","tgNo":"","tgName":null,"infoStatus":"1","orgName":"国网阜平县供电公司","typeName":null,"infoStatusName":null,"dateDay":null,"orgNos":null,"nowTime":null,"countyName":null,"streetName":null,"villageName":null,"roadName":null,"communityName":null,"tranName":null,"sdLineName":null,"cityCode":"1340611","cityName":"国网阜平县供电公司","provinceCode":null,"stopTime":"2019-10-15 18:00:00","powerType":"全部","powerOffArea":"【分支停电】停八队十八队变压器,城南庄16#公用配变,城南庄中学采暖2#变压器【18M】,城南庄中学采暖新增1#变压器【18M】,后庄1#公用配变,后庄10#公用配变,后庄11#公用配变,后庄12#公用配变,后庄13#公用配变,后庄14#公用配变,后庄15#公用配变","powerOffReason":"【停电原因】由于导线架设导致３５ＫＶ城南庄变电站１０ＫＶ南台５１２线路主干０１号杆５１２－０号刀闸动触头及以下线路停电 【变更送电】无 【发布渠道】保定市阜平电视台（１０月１日０９时至１０月１５日１８时）飞播","powerOffId":"2019092013000076"},{"poweroffId":2019092013000048,"sgpoweroffId":null,"subsName":"","lineName":"10kV水源站517线路","pubTranName":"C091柱上变压器,","scope":"【影响街道/乡镇】南奇乡 【高危重要客户】无 【影响客户】夏庄村","startTime":"2019-09-20 11:20:00","stopDate":"2019-09-20 13:00:00","orgNo":"13406","typeCode":"电网故障停限电","poweroffArea":"【单台区停电】停C091柱上变压器","poweroffReason":"【停电原因】由于低压线烧导致１０ＫＶ水源变电站５１７线路Ｃ０９１公变台区停电【变更送电】无【发布渠道】通过９５５９８发布","powerTime":"2019-09-20 12:20:16","powerComm":"已送电","subsNo":"","lineNo":"","tgNo":"","tgName":null,"infoStatus":"1","orgName":"保定供电公司","typeName":null,"infoStatusName":null,"dateDay":null,"orgNos":null,"nowTime":null,"countyName":null,"streetName":null,"villageName":null,"roadName":null,"communityName":null,"tranName":null,"sdLineName":null,"cityCode":"13406","cityName":"保定供电公司","provinceCode":null,"stopTime":"2019-09-20 13:00:00","powerType":"全部","powerOffArea":"【单台区停电】停C091柱上变压器","powerOffReason":"【停电原因】由于低压线烧导致１０ＫＶ水源变电站５１７线路Ｃ０９１公变台区停电【变更送电】无【发布渠道】通过９５５９８发布","powerOffId":"2019092013000048"},{"poweroffId":2019092013000021,"sgpoweroffId":null,"subsName":"","lineName":"城西Ⅰ回线517","pubTranName":"生产公司,北陵山村内新增200,广场西,武装部新增,北陵山村东新增200,建委宿舍楼,北陵大队村内照明,北陵山学校东,北陵山村东,城内南关,新天地,北陵山村,城内李守敬台区变压器,武装部水泥厂楼,育才街公用台区变压器,粮局经委,中医院,城内大队2号,南陵山学校,财政局,北陵山新增2号柱上变压器,","scope":"【影响街道/乡镇】满城镇、通济街 【高危重要客户】无 【影响客户】城内村、中山路两侧、南陵山、广场附近、新天地、沃美超市附近、中医院附近、南关、公安局家属楼、党校、职教中心、职教中心家属楼、阳光城小区、京顺房地产、建设局、东亚小区、卫生监督所、新宝祥房地产、中国银行附近、永欣园、工业街附近、中山路政府宿舍楼、金融小区、四季花园、步行街附近、联通家属区、白云公寓、天天洗浴、安监局","startTime":"2019-09-20 10:12:32","stopDate":"2019-09-20 11:55:00","orgNo":"1340617","typeCode":"电网故障停限电","poweroffArea":"【全线路停电】停育才街公用台区变压器,城内南关,中医院,南陵山学校,武装部新增,武装部水泥厂楼,北陵山村内新增200,北陵山村东新增200,北陵山村东,北陵大队村内照明,北陵山村,北陵山新增2号柱上变压器,北陵山学校东,建委宿舍楼,财政局,城内大队2号,城内李守敬台区变压器,粮局经委,生产公司,新天地,广场西","poweroffReason":"【停电原因】由于线路速断导致１１０ＫＶ杨佐变电站城西Ｉ回线５１７线路全线停电 【变更送电】因抢修进度加快原因，送电时间由１３：００变更为１１：５５ 【发布渠道】通过９５５９８发布","powerTime":"2019-09-20 11:37:42","powerComm":"已送电","subsNo":"","lineNo":"","tgNo":"","tgName":null,"infoStatus":"1","orgName":"国网满城县供电公司","typeName":null,"infoStatusName":null,"dateDay":null,"orgNos":null,"nowTime":null,"countyName":null,"streetName":null,"villageName":null,"roadName":null,"communityName":null,"tranName":null,"sdLineName":null,"cityCode":"1340617","cityName":"国网满城县供电公司","provinceCode":null,"stopTime":"2019-09-20 11:55:00","powerType":"全部","powerOffArea":"【全线路停电】停育才街公用台区变压器,城内南关,中医院,南陵山学校,武装部新增,武装部水泥厂楼,北陵山村内新增200,北陵山村东新增200,北陵山村东,北陵大队村内照明,北陵山村,北陵山新增2号柱上变压器,北陵山学校东,建委宿舍楼,财政局,城内大队2号,城内李守敬台区变压器,粮局经委,生产公司,新天地,广场西","powerOffReason":"【停电原因】由于线路速断导致１１０ＫＶ杨佐变电站城西Ｉ回线５１７线路全线停电 【变更送电】因抢修进度加快原因，送电时间由１３：００变更为１１：５５ 【发布渠道】通过９５５９８发布","powerOffId":"2019092013000021"},{"poweroffId":2019092013000015,"sgpoweroffId":null,"subsName":"","lineName":"10kV南白堡线571","pubTranName":"南高洛西二台区变压器,南高洛西三台区变压器,南高洛村北变压器,南高洛南2台区变压器,北白堡村南台区,西义安牛街台区,北高洛村西,北白堡高速二台区变压器,南高洛张国立井台区,南高洛大队二台区配变,北白堡西南井变压器【纯农排变】,北高洛校东街台区变压器,南白堡东北台区变压器,北高洛校南街台区变压器,北白堡大队台区配变,西义安自来水台区,南高洛村西南变压器,史姑庄南台区变压器,北白堡扬水站井变压器【纯农排变】,北高洛村北,南高洛村南变压器,西义安村内,北白堡果园台区新建变压器,西义安村南混台区,北白堡北二台区变压器,南高洛村西2号井变压器【纯农排变】,南高洛西北变压器,北白堡村南三,史姑庄村内四台区,南白堡东南台区变压器,北高洛村东六台区变压器,南高洛村西变压器,风华环保公司2#,北白堡东南井变压器【纯农排变】,南高洛大队三台区配变,北高洛东井台区变压器【纯农排变】,北高洛村东2台区变压器,北高洛西井变压器【纯农排变】,南白堡村西二,南高洛南三台区配变,南高洛音乐会台区变压器,南高洛北三台区变压器,南高洛衡贵军配变变压器,北白堡河边井变压器【纯农排变】,南高洛东井台区变压器,南白堡村东变压器,北高洛小西高洛台区,北高洛村内变压器,南高洛北五台区变压器,北白堡北三台区变压器,北高洛西机井变压器【纯农排变】,南高洛大队台区变压器,南白堡村中心二,南高洛单志堂井变压器,南高洛北二台区变压器,南白堡西井变压器,南高洛张国利2变压器【纯农排变】,北白堡东北井变压器【纯农排变】,南白堡村南,北高洛村西二台区变压器,史姑庄村内二台区,南高洛西北二台区配变,西义安养老院街台区变压器,南高洛三叉口台区变压器,西义安村内二,南白堡南井变压器【纯农排变】,北高洛西三台区变压器,史姑庄西井2台区变压器【纯农排变】,北高洛村西四台区变压器,北高洛东机井变压器【纯农排变】,北高洛村东五台区变压器,史姑庄村内五台区,风化环保有限公司200KVA专变,北白堡南井变压器【纯农排变】,北白堡村北台区,史姑庄村内变压器,南白堡中心台区变压器,北白堡西北井变压器【纯农排变】,南白堡西北台区变压器,北高洛北井变压器【纯农排变】,史姑庄南井变压器【纯农排变】,北高洛村北二台区变压器,北白堡村东南台区,西义安村北二,北高洛东4台区变压器,伟创建材销售贸易有限公司,鑫发汽车部件,北高洛200专用井,南白堡东北二,北高洛村东三台区,北白堡村东北配变变压器,南高洛闫建启井变压器,北白堡村中心台区变压器,西义安学校,北白堡村东南二台区变压器,史姑庄西井变压器【纯农排变】,西义安2号井变压器【纯农排变】,南高洛村东内台区变压器,南高洛音乐会二台区变压器,南高洛北井台区变压器【纯农排变】,北白堡高速南井变压器,史姑庄北台区变压器,西义安村南,南高洛北四台区变压器,史姑庄村内一台区,西义安1号井变压器,单进宝250KVA专变,西义安广场台区,史姑庄村内三台区,南白堡村西变压器,北白堡村南二台区配变,西义安村西,南白堡东南二,","scope":"【影响街道/乡镇】义安镇 【高危重要客户】无 【影响客户】西义安村、史姑庄村、北白堡村、南白堡村、北高洛村、南高洛村、风华环保、庄疃村西","startTime":"2019-09-20 08:58:00","stopDate":"2019-09-20 11:00:00","orgNo":"1340614","typeCode":"电网故障停限电","poweroffArea":"【全线路停电】停南高洛西二台区变压器,南高洛西三台区变压器,南高洛村北变压器,南高洛南2台区变压器,北白堡村南台区,西义安牛街台区,北高洛村西,北白堡高速二台区变压器,南高洛张国立井台区,南高洛大队二台区配变,西义安村南混台区,北白堡西南井变压器【纯农排变】,北高洛校东街台区变压器,南白堡东北台区变压器,北高洛校南街台区变压器,北白堡大队台区配变,西义安自来水台区,南高洛村西南变压器,史姑庄南台区变压器,北白堡扬水站井变压器【纯农排变】,北高洛村北,南高洛村南变压器,西义安村内,北白堡果园台区新建变压器,史姑庄村内四台区,南白堡东南台区变压器,北高洛村东六台区变压器,南高洛村西变压器,风华环保公司2#,北白堡东南井变压器【纯农排变】,南高洛大队三台区配变,北高洛东井台区变压器【纯农排变】,北高洛村东2台区变压器,北高洛西井变压器【纯农排变】,南白堡村西二,南高洛南三台区配变,南高洛音乐会台区变压器,南高洛北三台区变压器,南高洛衡贵军配变变压器,北白堡河边井变压器【纯农排变】,南高洛东井台区变压器,南白堡村东变压器,北白堡北二台区变压器,南高洛村西2号井变压器【纯农排变】,南高洛西北变压器,北白堡村南三,北高洛小西高洛台区,北高洛村内变压器,南高洛北五台区变压器,北白堡北三台区变压器,北高洛西机井变压器【纯农排变】,南高洛大队台区变压器,南白堡村中心二,南高洛单志堂井变压器,南高洛北二台区变压器,南白堡西井变压器,南高洛张国利2变压器【纯农排变】,北白堡东北井变压器【纯农排变】,南白堡村南,北高洛村西二台区变压器,史姑庄村内二台区,南高洛西北二台区配变,西义安养老院街台区变压器,南高洛三叉口台区变压器,西义安村内二,南白堡南井变压器【纯农排变】,北高洛西三台区变压器,史姑庄西井2台区变压器【纯农排变】,北高洛村西四台区变压器,北高洛东机井变压器【纯农排变】,北高洛村东五台区变压器,史姑庄村内五台区,风化环保有限公司200KVA专变,北白堡南井变压器【纯农排变】,北白堡村北台区,史姑庄村内变压器,南白堡中心台区变压器,北白堡西北井变压器【纯农排变】,南白堡西北台区变压器,北高洛北井变压器【纯农排变】,史姑庄南井变压器【纯农排变】,北高洛村北二台区变压器,北白堡村东南台区,西义安村北二,北高洛东4台区变压器,伟创建材销售贸易有限公司,鑫发汽车部件,北高洛200专用井,南白堡东北二,北高洛村东三台区,北白堡村东北配变变压器,南高洛闫建启井变压器,北白堡村中心台区变压器,西义安学校,北白堡村东南二台区变压器,史姑庄西井变压器【纯农排变】,西义安2号井变压器【纯农排变】,南高洛村东内台区变压器,南高洛音乐会二台区变压器,南高洛北井台区变压器【纯农排变】,北白堡高速南井变压器,史姑庄北台区变压器,西义安村南,南高洛北四台区变压器,史姑庄村内一台区,西义安1号井变压器,单进宝250KVA专变,西义安广场台区,史姑庄村内三台区,南白堡村西变压器,北白堡村南二台区配变,西义安村西,南白堡东南二","poweroffReason":"【停电原因】由于刀闸烧毁导致１１０ＫＶ郭下变电站１０ＫＶ南白堡线５７１线路全线停电 【变更送电】无 【发布渠道】通过９５５９８发布","powerTime":"2019-09-20 10:25:22","powerComm":"已送电","subsNo":"","lineNo":"","tgNo":"","tgName":null,"infoStatus":"1","orgName":"国网涞水县供电公司","typeName":null,"infoStatusName":null,"dateDay":null,"orgNos":null,"nowTime":null,"countyName":null,"streetName":null,"villageName":null,"roadName":null,"communityName":null,"tranName":null,"sdLineName":null,"cityCode":"1340614","cityName":"国网涞水县供电公司","provinceCode":null,"stopTime":"2019-09-20 11:00:00","powerType":"全部","powerOffArea":"【全线路停电】停南高洛西二台区变压器,南高洛西三台区变压器,南高洛村北变压器,南高洛南2台区变压器,北白堡村南台区,西义安牛街台区,北高洛村西,北白堡高速二台区变压器,南高洛张国立井台区,南高洛大队二台区配变,西义安村南混台区,北白堡西南井变压器【纯农排变】,北高洛校东街台区变压器,南白堡东北台区变压器,北高洛校南街台区变压器,北白堡大队台区配变,西义安自来水台区,南高洛村西南变压器,史姑庄南台区变压器,北白堡扬水站井变压器【纯农排变】,北高洛村北,南高洛村南变压器,西义安村内,北白堡果园台区新建变压器,史姑庄村内四台区,南白堡东南台区变压器,北高洛村东六台区变压器,南高洛村西变压器,风华环保公司2#,北白堡东南井变压器【纯农排变】,南高洛大队三台区配变,北高洛东井台区变压器【纯农排变】,北高洛村东2台区变压器,北高洛西井变压器【纯农排变】,南白堡村西二,南高洛南三台区配变,南高洛音乐会台区变压器,南高洛北三台区变压器,南高洛衡贵军配变变压器,北白堡河边井变压器【纯农排变】,南高洛东井台区变压器,南白堡村东变压器,北白堡北二台区变压器,南高洛村西2号井变压器【纯农排变】,南高洛西北变压器,北白堡村南三,北高洛小西高洛台区,北高洛村内变压器,南高洛北五台区变压器,北白堡北三台区变压器,北高洛西机井变压器【纯农排变】,南高洛大队台区变压器,南白堡村中心二,南高洛单志堂井变压器,南高洛北二台区变压器,南白堡西井变压器,南高洛张国利2变压器【纯农排变】,北白堡东北井变压器【纯农排变】,南白堡村南,北高洛村西二台区变压器,史姑庄村内二台区,南高洛西北二台区配变,西义安养老院街台区变压器,南高洛三叉口台区变压器,西义安村内二,南白堡南井变压器【纯农排变】,北高洛西三台区变压器,史姑庄西井2台区变压器【纯农排变】,北高洛村西四台区变压器,北高洛东机井变压器【纯农排变】,北高洛村东五台区变压器,史姑庄村内五台区,风化环保有限公司200KVA专变,北白堡南井变压器【纯农排变】,北白堡村北台区,史姑庄村内变压器,南白堡中心台区变压器,北白堡西北井变压器【纯农排变】,南白堡西北台区变压器,北高洛北井变压器【纯农排变】,史姑庄南井变压器【纯农排变】,北高洛村北二台区变压器,北白堡村东南台区,西义安村北二,北高洛东4台区变压器,伟创建材销售贸易有限公司,鑫发汽车部件,北高洛200专用井,南白堡东北二,北高洛村东三台区,北白堡村东北配变变压器,南高洛闫建启井变压器,北白堡村中心台区变压器,西义安学校,北白堡村东南二台区变压器,史姑庄西井变压器【纯农排变】,西义安2号井变压器【纯农排变】,南高洛村东内台区变压器,南高洛音乐会二台区变压器,南高洛北井台区变压器【纯农排变】,北白堡高速南井变压器,史姑庄北台区变压器,西义安村南,南高洛北四台区变压器,史姑庄村内一台区,西义安1号井变压器,单进宝250KVA专变,西义安广场台区,史姑庄村内三台区,南白堡村西变压器,北白堡村南二台区配变,西义安村西,南白堡东南二","powerOffReason":"【停电原因】由于刀闸烧毁导致１１０ＫＶ郭下变电站１０ＫＶ南白堡线５７１线路全线停电 【变更送电】无 【发布渠道】通过９５５９８发布","powerOffId":"2019092013000015"},{"poweroffId":2019092013000006,"sgpoweroffId":null,"subsName":"","lineName":"10kV东北郊站525线路","pubTranName":"0668500296-保定隆瑞房地产开发有限公司-专变-210346972-变压器,0386899377-保定市路灯管理处-3#专变,0598169149-保定市就业服务局-1#专变,0573156584-保定新奥燃气有限公司-120082352-专变,0356330224-保定市路灯管理处-1-箱式变-变压器-1,0356374637-保定君乐宝乳业有限公司-专变-139273951-变压器,0366068166-保定市北市区东金庄乡梁庄村委会-专变,0668500296-保定隆瑞房地产开发有限公司-专变-210346980-变压器,0356242417-保定机械电子技工学校-专变,0356236838-中国人民解放军66165部队-专变,0547595410-保定市北市区银星电镀厂-专变,0356234236-保定市排水总公司-专变-148292485-变压器,0356566654-保定市北市区前卫路车辆修配厂-专变,0356393489-保定高新区公共事业管理处-1-箱式变-变压器-1,0668500296-保定隆瑞房地产开发有限公司-专变-210346996-变压器,变压器,0592508986-隆基泰和实业有限公司保定分公司-125762156-专变,0549119573-保定坤舆物业管理有限公司-2#专变,0356234236-保定市排水总公司-5#专变-11552313变压器,0598169149-保定市就业服务局-3#专变,0356229227-小堤村-专变,0356341619-保定市北市区银星电镀厂-专变,0356234236-保定市排水总公司-专变-148295145-变压器,0640779537-隆基泰和实业有限公司保定分公司-专变-153352650-变压器,0640779537-隆基泰和实业有限公司保定分公司-专变-153355648-变压器,0386899377-保定市路灯管理处-5#专变,C228柱上变压器,0594388081-保定市华中物业服务有限公司-2#专变,0668500296-保定隆瑞房地产开发有限公司-专变-210346998-变压器,0356330211-保定市路灯管理处-专变,0598169149-保定市就业服务局-2#专变,0356628284-保定市金泰花园酒店-专变,0668500296-保定隆瑞房地产开发有限公司-专变-210346994-变压器,C222柱上变压器,0356385471-中国人民解放军66165部队-专变,0356234236-保定市排水总公司-专变-148292569-变压器,0357549492-河北卓正国际酒店有限公司-2#专变,C229柱上变压器,0386899377-保定市路灯管理处-2#专变,0386899377-保定市路灯管理处-专变-139259122-变压器,0658851665-大唐保定供热有限责任公司-专变-192888554-变压器,0668500296-保定隆瑞房地产开发有限公司-专变-210344588- 变压器,0356234236-保定市排水总公司-2#专变-13400299变压器,0357388598-河北省高","scope":"【影响街道/乡镇】东金庄乡、龙飞路、焦银路、东风东路 【高危重要客户】无 【影响客户】银定庄村、民营园、梁庄、马庄、坤舆德翰园、小堤村、米加堤南郊、金泰花园酒店、保定就业服务局、军站、看守所、东金庄乡政府、66165部队、东湖雅居、隆基泰和、保定隆瑞房地产、卓正集团、银星碳素厂、三聚机械、银星电镀厂、天然气加气站、银定庄污水处理厂、永华集团、隆信房地产、华瑞房地产","startTime":"2019-09-20 07:30:00","stopDate":"2019-09-20 11:30:00","orgNo":"13406","typeCode":"电网故障停限电","poweroffArea":"【全线路停电】停0640779537-隆基泰和实业有限公司保定分公司-专变-153355648-变压器,0356628284-保定市金泰花园酒店-专变,0356242417-保定机械电子技工学校-专变,0668500296-保定隆瑞房地产开发有限公司-专变-210344588- 变压器,0386899377-保定市路灯管理处-4#专变,0386899377-保定市路灯管理处-2#专变,0356330224-保定市路灯管理处-1-箱式变-变压器-1,C228柱上变压器,0386899377-保定市路灯管理处-3#专变,0356234236-保定市排水总公司-专变-148295145-变压器,0594388081-保定市华中物业服务有限公司-2#专变,0549119573-保定坤舆物业管理有限公司-2#专变,0356342263-中国人民解放军66165部队-专变,0356234236-保定市排水总公司-专变-148292485-变压器,C229柱上变压器,0356229227-小堤村-专变,0658851665-大唐保定供热有限责任公司-专变-192888554-变压器,0356573278-杰威拉(保定)石材有限公司-专变,0356234236-保定市排水总公司-专变-148292569-变压器,0356330211-保定市路灯管理处-专变,0386899377-保定市路灯管理处-1#专变,0356234236-保定市排水总公司-3#专变-13400300变压器,0578030094-保定市盛和中水开发有限公司-专变,0356566654-保定市北市区前卫路车辆修配厂-专变,0356341619-保定市北市区银星电镀厂-专变,0356236971-保定市东方履带板制造厂-专变,0356374637-保定君乐宝乳业有限公司-专变-139273951-变压器,C222柱上变压器,0356236838-中国人民解放军66165部队-专变,0668500296-保定隆瑞房地产开发有限公司-专变-210346994-变压器,C3009柱上变压器,0668500296-保定隆瑞房地产开发有限公司-专变-210346996-变压器,0356282772-东金庄人民政府-13401790-专变,0668500296-保定隆瑞房地产开发有限公司-专变-210346998-变压器,0356234236-保定市排水总公司-5#专变-11552313变压器,C227柱上变压器,0356234236-保定市排水总公司-2#专变-13400299变压器,0566940983-保定市北市区宏业花卉种植园-专变,0386899377-保定市路灯管理处-专变-139259122-变压器,变压器,0598169149-保定市就业服务局-3#专变,0640779537-隆基泰和实业有限公司保定分公司-专变-153352650-变压器,0668500296-保定隆瑞房地产开发有限公司-专变-210346980-变压器,0366068166-保定市北市区东金庄乡梁庄村委会-专变,0357388598-河北省高速公路公安交通警察总队一支队保定大队-专变,0592508986-隆基泰和实业有限公司保定分公司-125762156-专变,0668500296-保定隆瑞房地产开发有限公司-专变-210346972-变压器,0547595410-保定市北市区银星电镀厂-专变,0356234236-保定市排水总公司-4#专变-13402374变压器,0357549492-河北卓正国际酒店有限公司-2#专变,0386899377-保定市路灯管理处-5#专变,0657285922-大唐保定供热有限责任公司-专变-192575899-变压器,0356393489-保定高新区公共事业管理处-1-箱式变-变压器-1,0598169149-保定市就业服务局-2#专变,0356385471-中国人民解放军66165部队-专变,0573156584-保定新奥燃气有限公司-120082352-专变,0356229214-金庄乡小堤村-专变,0598169149-保定市就业服务局-1#专变","poweroffReason":"【停电原因】由于分支开关短路导致１０ＫＶ东北郊变电站５２５线路全线停电【变更送电】无【发布渠道】通过９５５９８发布","powerTime":"2019-09-20 10:32:21","powerComm":"已送电","subsNo":"","lineNo":"","tgNo":"","tgName":null,"infoStatus":"1","orgName":"保定供电公司","typeName":null,"infoStatusName":null,"dateDay":null,"orgNos":null,"nowTime":null,"countyName":null,"streetName":null,"villageName":null,"roadName":null,"communityName":null,"tranName":null,"sdLineName":null,"cityCode":"13406","cityName":"保定供电公司","provinceCode":null,"stopTime":"2019-09-20 11:30:00","powerType":"全部","powerOffArea":"【全线路停电】停0640779537-隆基泰和实业有限公司保定分公司-专变-153355648-变压器,0356628284-保定市金泰花园酒店-专变,0356242417-保定机械电子技工学校-专变,0668500296-保定隆瑞房地产开发有限公司-专变-210344588- 变压器,0386899377-保定市路灯管理处-4#专变,0386899377-保定市路灯管理处-2#专变,0356330224-保定市路灯管理处-1-箱式变-变压器-1,C228柱上变压器,0386899377-保定市路灯管理处-3#专变,0356234236-保定市排水总公司-专变-148295145-变压器,0594388081-保定市华中物业服务有限公司-2#专变,0549119573-保定坤舆物业管理有限公司-2#专变,0356342263-中国人民解放军66165部队-专变,0356234236-保定市排水总公司-专变-148292485-变压器,C229柱上变压器,0356229227-小堤村-专变,0658851665-大唐保定供热有限责任公司-专变-192888554-变压器,0356573278-杰威拉(保定)石材有限公司-专变,0356234236-保定市排水总公司-专变-148292569-变压器,0356330211-保定市路灯管理处-专变,0386899377-保定市路灯管理处-1#专变,0356234236-保定市排水总公司-3#专变-13400300变压器,0578030094-保定市盛和中水开发有限公司-专变,0356566654-保定市北市区前卫路车辆修配厂-专变,0356341619-保定市北市区银星电镀厂-专变,0356236971-保定市东方履带板制造厂-专变,0356374637-保定君乐宝乳业有限公司-专变-139273951-变压器,C222柱上变压器,0356236838-中国人民解放军66165部队-专变,0668500296-保定隆瑞房地产开发有限公司-专变-210346994-变压器,C3009柱上变压器,0668500296-保定隆瑞房地产开发有限公司-专变-210346996-变压器,0356282772-东金庄人民政府-13401790-专变,0668500296-保定隆瑞房地产开发有限公司-专变-210346998-变压器,0356234236-保定市排水总公司-5#专变-11552313变压器,C227柱上变压器,0356234236-保定市排水总公司-2#专变-13400299变压器,0566940983-保定市北市区宏业花卉种植园-专变,0386899377-保定市路灯管理处-专变-139259122-变压器,变压器,0598169149-保定市就业服务局-3#专变,0640779537-隆基泰和实业有限公司保定分公司-专变-153352650-变压器,0668500296-保定隆瑞房地产开发有限公司-专变-210346980-变压器,0366068166-保定市北市区东金庄乡梁庄村委会-专变,0357388598-河北省高速公路公安交通警察总队一支队保定大队-专变,0592508986-隆基泰和实业有限公司保定分公司-125762156-专变,0668500296-保定隆瑞房地产开发有限公司-专变-210346972-变压器,0547595410-保定市北市区银星电镀厂-专变,0356234236-保定市排水总公司-4#专变-13402374变压器,0357549492-河北卓正国际酒店有限公司-2#专变,0386899377-保定市路灯管理处-5#专变,0657285922-大唐保定供热有限责任公司-专变-192575899-变压器,0356393489-保定高新区公共事业管理处-1-箱式变-变压器-1,0598169149-保定市就业服务局-2#专变,0356385471-中国人民解放军66165部队-专变,0573156584-保定新奥燃气有限公司-120082352-专变,0356229214-金庄乡小堤村-专变,0598169149-保定市就业服务局-1#专变","powerOffReason":"【停电原因】由于分支开关短路导致１０ＫＶ东北郊变电站５２５线路全线停电【变更送电】无【发布渠道】通过９５５９８发布","powerOffId":"2019092013000006"},{"poweroffId":2019091913000238,"sgpoweroffId":null,"subsName":"","lineName":"北关518电力电缆","pubTranName":"永兴45号箱变(安顺八号),盛源66号（欧韵3期北箱变）,盛源7号（石油公司）,盛源67号（欧韵3期南箱变）,","scope":"【影响街道/乡镇】安肃镇 【高危重要客户】无 【影响客户】欧韵３期、安顺苑、石油公司、安顺八号","startTime":"2019-09-19 22:00:00","stopDate":"2019-09-19 23:00:00","orgNo":"1340605","typeCode":"其他临时停电","poweroffArea":"【全线路停电】停历城刚健鞋业有限公司,新洋鞋业有限公司,徐水建明西路83号家属院,盛源67号（欧韵3期南箱变）,历城鞋厂,0555835544-徐水县恒星防腐材料厂-专变-94363926-徐水县恒星防腐材料厂,永兴12号(安顺苑),盛源7号（石油公司）,河北中恒泰达粮油贸易有限公司,永兴45号箱变(安顺八号),高庄7号高庄、【纯农排变】,中国石油保定162加油站,河北天行健房地产开发集团有限公司3号,徐水县京贸纸盒厂,徐水县建设局建明路路灯1号,河北天行健房地产开发集团有限公司4号,河北天行健房地产开发集团有限公司5号,徐水县伟业五金橡胶制造有限公司,盛源66号（欧韵3期北箱变）,河北万瑞医疗器材有限公司变压器,中国石油河北徐水石油公司,徐水县天行健物业管理有限公司,徐水县平安房地产开发有限公司,徐水县家安物业运行有限公司,高庄4号,徐水县居然房地产发展有限公司,河北天行健房地产开发集团有限公司,徐水县恒星防腐材料厂1号","poweroffReason":"【停电原因】由于处理紧急缺陷导致１１０ＫＶ下河西变电站北关５１８线路全线停电 【变更送电】因抢修进度加快原因，送电时间由２３:５９变更为２３:００ 【发布渠道】通过９５５９８发布","powerTime":"2019-09-19 22:50:52","powerComm":"已送电","subsNo":"","lineNo":"","tgNo":"","tgName":null,"infoStatus":"1","orgName":"国网徐水县供电公司","typeName":null,"infoStatusName":null,"dateDay":null,"orgNos":null,"nowTime":null,"countyName":null,"streetName":null,"villageName":null,"roadName":null,"communityName":null,"tranName":null,"sdLineName":null,"cityCode":"1340605","cityName":"国网徐水县供电公司","provinceCode":null,"stopTime":"2019-09-19 23:00:00","powerType":"全部","powerOffArea":"【全线路停电】停历城刚健鞋业有限公司,新洋鞋业有限公司,徐水建明西路83号家属院,盛源67号（欧韵3期南箱变）,历城鞋厂,0555835544-徐水县恒星防腐材料厂-专变-94363926-徐水县恒星防腐材料厂,永兴12号(安顺苑),盛源7号（石油公司）,河北中恒泰达粮油贸易有限公司,永兴45号箱变(安顺八号),高庄7号高庄、【纯农排变】,中国石油保定162加油站,河北天行健房地产开发集团有限公司3号,徐水县京贸纸盒厂,徐水县建设局建明路路灯1号,河北天行健房地产开发集团有限公司4号,河北天行健房地产开发集团有限公司5号,徐水县伟业五金橡胶制造有限公司,盛源66号（欧韵3期北箱变）,河北万瑞医疗器材有限公司变压器,中国石油河北徐水石油公司,徐水县天行健物业管理有限公司,徐水县平安房地产开发有限公司,徐水县家安物业运行有限公司,高庄4号,徐水县居然房地产发展有限公司,河北天行健房地产开发集团有限公司,徐水县恒星防腐材料厂1号","powerOffReason":"【停电原因】由于处理紧急缺陷导致１１０ＫＶ下河西变电站北关５１８线路全线停电 【变更送电】因抢修进度加快原因，送电时间由２３:５９变更为２３:００ 【发布渠道】通过９５５９８发布","powerOffId":"2019091913000238"},{"poweroffId":2019091913000235,"sgpoweroffId":null,"subsName":"","lineName":"城北520电力电缆","pubTranName":"迁民庄3号,","scope":"【影响街道/乡镇】安肃镇 【高危重要客户】无 【影响客户】迁民庄","startTime":"2019-09-19 22:00:00","stopDate":"2019-09-19 23:00:00","orgNo":"1340605","typeCode":"其他临时停电","poweroffArea":"【全线路停电】停徐水县再实铸造有限公司,徐水县建工远大新型建材,徐水县丽华塑料包装厂,徐水综合高中2号,河北万瑞医疗器械有限公司,徐水县兴华铸造有限公司4号,保定东峰铸造有限公司4号,徐水县综合高中3号,徐水县长城铸造厂,保定东峰铸造有限公司,徐水县永安玛钢厂1号,徐水县兴华铸造有限公司2号,迁民庄13号,徐水县长城机床铸造有限公司,迁民庄3号,保定市徐水区瑞面激光切割部,徐水县中医医院,徐水县兴华铸造有限公司,保定东峰铸造有限公司1号,徐水综合高中1号,迁民庄6号【纯农排变】,徐水县兴华铸造有限公司1号,徐水县万达铸造有限公司,迁民庄4号,迁民庄14号,徐水县永安玛钢厂2号,0673545802-保定徐方液压机械设备有限公司-专变-214325634-保定徐方液压机械设备有限公司,迁民庄5号,徐水县康铭养殖有限公司变压器,0672385766-徐水县永佳超市-专变-213320572-徐水县永佳超市,迁民庄2号【纯农排变】,保定东峰铸造有限公司5号,变压器,迁民庄8号,徐水县再实铸造有限责任公司变压器,迁民庄1号,保定东峰铸造有限公司3号,徐水县丽华塑料包装厂2号,迁民庄11号,迁民庄7号,徐水县中医院,徐水县安肃镇迁民庄小学变压器,迁民庄10号【纯农排变】,保定市宏宾机械厂,迁民庄9号,徐水县宏利机械制造有限公司","poweroffReason":"【停电原因】由于处理紧急缺陷导致１１０ＫＶ下河西变电站城北５２０线路全线停电 【变更送电】因抢修进度加快原因，送电时间由２３:５９变更为２３:００ 【发布渠道】通过９５５９８发布","powerTime":"2019-09-19 22:51:15","powerComm":"已送电","subsNo":"","lineNo":"","tgNo":"","tgName":null,"infoStatus":"1","orgName":"国网徐水县供电公司","typeName":null,"infoStatusName":null,"dateDay":null,"orgNos":null,"nowTime":null,"countyName":null,"streetName":null,"villageName":null,"roadName":null,"communityName":null,"tranName":null,"sdLineName":null,"cityCode":"1340605","cityName":"国网徐水县供电公司","provinceCode":null,"stopTime":"2019-09-19 23:00:00","powerType":"全部","powerOffArea":"【全线路停电】停徐水县再实铸造有限公司,徐水县建工远大新型建材,徐水县丽华塑料包装厂,徐水综合高中2号,河北万瑞医疗器械有限公司,徐水县兴华铸造有限公司4号,保定东峰铸造有限公司4号,徐水县综合高中3号,徐水县长城铸造厂,保定东峰铸造有限公司,徐水县永安玛钢厂1号,徐水县兴华铸造有限公司2号,迁民庄13号,徐水县长城机床铸造有限公司,迁民庄3号,保定市徐水区瑞面激光切割部,徐水县中医医院,徐水县兴华铸造有限公司,保定东峰铸造有限公司1号,徐水综合高中1号,迁民庄6号【纯农排变】,徐水县兴华铸造有限公司1号,徐水县万达铸造有限公司,迁民庄4号,迁民庄14号,徐水县永安玛钢厂2号,0673545802-保定徐方液压机械设备有限公司-专变-214325634-保定徐方液压机械设备有限公司,迁民庄5号,徐水县康铭养殖有限公司变压器,0672385766-徐水县永佳超市-专变-213320572-徐水县永佳超市,迁民庄2号【纯农排变】,保定东峰铸造有限公司5号,变压器,迁民庄8号,徐水县再实铸造有限责任公司变压器,迁民庄1号,保定东峰铸造有限公司3号,徐水县丽华塑料包装厂2号,迁民庄11号,迁民庄7号,徐水县中医院,徐水县安肃镇迁民庄小学变压器,迁民庄10号【纯农排变】,保定市宏宾机械厂,迁民庄9号,徐水县宏利机械制造有限公司","powerOffReason":"【停电原因】由于处理紧急缺陷导致１１０ＫＶ下河西变电站城北５２０线路全线停电 【变更送电】因抢修进度加快原因，送电时间由２３:５９变更为２３:００ 【发布渠道】通过９５５９８发布","powerOffId":"2019091913000235"},{"poweroffId":2019091913000225,"sgpoweroffId":null,"subsName":"","lineName":"佳龙线510","pubTranName":"保定正昊房地产开发有限公司变压器,佳龙公司,","scope":"【影响街道/乡镇】城关镇 【高危重要客户】无 【影响客户】佳龙公司、东方明珠","startTime":"2019-09-19 21:00:00","stopDate":"2019-09-19 22:00:00","orgNo":"1340613","typeCode":"其他临时停电","poweroffArea":"【全线路停电】停佳龙公司,保定正昊房地产开发有限公司变压器","poweroffReason":"【停电原因】由于站内检修导致３５ＫＶ城南变电站佳龙５１０线路全线停电【变更送电】无【发布渠道】通过９５５９８发布","powerTime":"2019-09-19 21:18:45","powerComm":"已送电","subsNo":"","lineNo":"","tgNo":"","tgName":null,"infoStatus":"1","orgName":"国网高阳县供电公司","typeName":null,"infoStatusName":null,"dateDay":null,"orgNos":null,"nowTime":null,"countyName":null,"streetName":null,"villageName":null,"roadName":null,"communityName":null,"tranName":null,"sdLineName":null,"cityCode":"1340613","cityName":"国网高阳县供电公司","provinceCode":null,"stopTime":"2019-09-19 22:00:00","powerType":"全部","powerOffArea":"【全线路停电】停佳龙公司,保定正昊房地产开发有限公司变压器","powerOffReason":"【停电原因】由于站内检修导致３５ＫＶ城南变电站佳龙５１０线路全线停电【变更送电】无【发布渠道】通过９５５９８发布","powerOffId":"2019091913000225"},{"poweroffId":2019091913000223,"sgpoweroffId":null,"subsName":"","lineName":"南关线518","pubTranName":"0376887915-河北向宇纺织印染有限公司-专变-44747325-河北向宇纺织印染有限公司2,河北向宇纺织印染有限公司变压器,河北向宇纺织印染有限公司,高阳县幼儿园综合,购销二库,高阳县中心粮油购销有限公司变压器,高阳县在水一方游泳池变压器,","scope":"【影响街道/乡镇】城关镇 【高危重要客户】无 【影响客户】县幼儿园、县幼儿园南、县幼儿园西","startTime":"2019-09-19 21:00:00","stopDate":"2019-09-19 22:00:00","orgNo":"1340613","typeCode":"其他临时停电","poweroffArea":"【全线路停电】停高阳县在水一方游泳池变压器,高阳县幼儿园综合,河北向宇纺织印染有限公司变压器,购销二库,0376887915-河北向宇纺织印染有限公司-专变-44747325-河北向宇纺织印染有限公司2,高阳县中心粮油购销有限公司变压器,河北向宇纺织印染有限公司","poweroffReason":"【停电原因】由于站内检修导致３５ＫＶ城南变电站南关５１８线路全线停电【变更送电】无【发布渠道】通过９５５９８发布","powerTime":"2019-09-19 21:21:01","powerComm":"已送电","subsNo":"","lineNo":"","tgNo":"","tgName":null,"infoStatus":"1","orgName":"国网高阳县供电公司","typeName":null,"infoStatusName":null,"dateDay":null,"orgNos":null,"nowTime":null,"countyName":null,"streetName":null,"villageName":null,"roadName":null,"communityName":null,"tranName":null,"sdLineName":null,"cityCode":"1340613","cityName":"国网高阳县供电公司","provinceCode":null,"stopTime":"2019-09-19 22:00:00","powerType":"全部","powerOffArea":"【全线路停电】停高阳县在水一方游泳池变压器,高阳县幼儿园综合,河北向宇纺织印染有限公司变压器,购销二库,0376887915-河北向宇纺织印染有限公司-专变-44747325-河北向宇纺织印染有限公司2,高阳县中心粮油购销有限公司变压器,河北向宇纺织印染有限公司","powerOffReason":"【停电原因】由于站内检修导致３５ＫＶ城南变电站南关５１８线路全线停电【变更送电】无【发布渠道】通过９５５９８发布","powerOffId":"2019091913000223"},{"poweroffId":2019091913000221,"sgpoweroffId":null,"subsName":"","lineName":"西田线517","pubTranName":"河北瑞春市场服务有限公司变压器,10036|农贸市场综合,10019|县社南粮库小综合,东田5#村东综合,东田8号新增综合变压器,河北乐肯肯饮用水有限公司变压器,东田2#大队南综合,东田6号新增综合配变,东田4#村北综合,高阳县光荣院,东田3#大队北综合,高阳县民政局,东田1#农排【纯农排变】,城关供电所,东田1#东南综合,东田7号新增综合配变,","scope":"【影响街道/乡镇】城关镇 【高危重要客户】无 【影响客户】东田村（东田果庄）、民政局（敬老院）","startTime":"2019-09-19 21:00:00","stopDate":"2019-09-19 22:00:00","orgNo":"1340613","typeCode":"其他临时停电","poweroffArea":"【全线路停电】停高阳县民政局,东田1#农排【纯农排变】,河北乐肯肯饮用水有限公司变压器,东田2#大队南综合,10036|农贸市场综合,10019|县社南粮库小综合,东田5#村东综合,东田8号新增综合变压器,东田6号新增综合配变,东田1#东南综合,东田7号新增综合配变,高阳县光荣院,东田4#村北综合,城关供电所,东田3#大队北综合,河北瑞春市场服务有限公司变压器","poweroffReason":"【停电原因】由于站内检修导致３５ＫＶ城南变电站西田５１７线路全线停电【变更送电】无【发布渠道】通过９５５９８发布","powerTime":"2019-09-19 21:21:21","powerComm":"已送电","subsNo":"","lineNo":"","tgNo":"","tgName":null,"infoStatus":"1","orgName":"国网高阳县供电公司","typeName":null,"infoStatusName":null,"dateDay":null,"orgNos":null,"nowTime":null,"countyName":null,"streetName":null,"villageName":null,"roadName":null,"communityName":null,"tranName":null,"sdLineName":null,"cityCode":"1340613","cityName":"国网高阳县供电公司","provinceCode":null,"stopTime":"2019-09-19 22:00:00","powerType":"全部","powerOffArea":"【全线路停电】停高阳县民政局,东田1#农排【纯农排变】,河北乐肯肯饮用水有限公司变压器,东田2#大队南综合,10036|农贸市场综合,10019|县社南粮库小综合,东田5#村东综合,东田8号新增综合变压器,东田6号新增综合配变,东田1#东南综合,东田7号新增综合配变,高阳县光荣院,东田4#村北综合,城关供电所,东田3#大队北综合,河北瑞春市场服务有限公司变压器","powerOffReason":"【停电原因】由于站内检修导致３５ＫＶ城南变电站西田５１７线路全线停电【变更送电】无【发布渠道】通过９５５９８发布","powerOffId":"2019091913000221"}],"pageModel":{"pageNow":552,"totalCount":10973,"totalPage":1098,"tableRows":0,"pageCount":10,"beginCount":5510},"isExperi":"1"}