{"message":"","today":"2020-06-15","seleList":[{"poweroffId":2019091913000219,"sgpoweroffId":null,"subsName":"","lineName":"南沙线516","pubTranName":"南关2#大队综合,泽乐巾被厂,0586294901-保定正昊房地产开发有限公司-专变-125123699-保定正昊房地产开发有限公司变压器,南关大队630,南关大队,10091|南街二队综合,南关大队800,保定正昊房地产开发有限公司变压器,杨二龙,南关大队1600,","scope":"【影响街道/乡镇】城关镇、高阳镇 【高危重要客户】无 【影响客户】南关村村西南部分、南街二队、明珠A区、南苑小区、明珠C区","startTime":"2019-09-19 21:00:00","stopDate":"2019-09-19 22:00:00","orgNo":"1340613","typeCode":"其他临时停电","poweroffArea":"【全线路停电】停保定正昊房地产开发有限公司变压器,0586294901-保定正昊房地产开发有限公司-专变-125123699-保定正昊房地产开发有限公司变压器,南关大队630,南关2#大队综合,泽乐巾被厂,南关大队,10091|南街二队综合,杨二龙,南关大队1600,南关大队800","poweroffReason":"【停电原因】由于站内检修导致３５ＫＶ城南变电站南沙５１６线路全线停电【变更送电】无【发布渠道】通过９５５９８发布","powerTime":"2019-09-19 21:21:37","powerComm":"已送电","subsNo":"","lineNo":"","tgNo":"","tgName":null,"infoStatus":"1","orgName":"国网高阳县供电公司","typeName":null,"infoStatusName":null,"dateDay":null,"orgNos":null,"nowTime":null,"countyName":null,"streetName":null,"villageName":null,"roadName":null,"communityName":null,"tranName":null,"sdLineName":null,"cityCode":"1340613","cityName":"国网高阳县供电公司","provinceCode":null,"stopTime":"2019-09-19 22:00:00","powerType":"全部","powerOffArea":"【全线路停电】停保定正昊房地产开发有限公司变压器,0586294901-保定正昊房地产开发有限公司-专变-125123699-保定正昊房地产开发有限公司变压器,南关大队630,南关2#大队综合,泽乐巾被厂,南关大队,10091|南街二队综合,杨二龙,南关大队1600,南关大队800","powerOffReason":"【停电原因】由于站内检修导致３５ＫＶ城南变电站南沙５１６线路全线停电【变更送电】无【发布渠道】通过９５５９８发布","powerOffId":"2019091913000219"},{"poweroffId":2019091913000216,"sgpoweroffId":null,"subsName":"","lineName":"南圈头线515","pubTranName":"南圈头4#综合,南圈头13#综合,南圈头村西18号综合,南圈头6#八十亩地65农排【纯农排变】,南圈头10#王家坟北农排【纯农排变】,南圈头2#公路边综合,南圈头8#村东综合,南圈头5#王家坟64农排【纯农排变】,南圈头11#东头农排【纯农排变】,任丘华北石油科信采油技术研究开发有限公司,南圈头10#桥头综合,南圈头8#学校东侧67农排【纯农排变】,南圈头6#村西综合,南圈头15#综合,马娃,南圈头11#综合,中国石油天然气股份有限公司华北油田分公司变压器,高阳县住房和城乡建设局变压器,南圈头5#村东综合,0122|南圈头西南头综合3#(23),南圈头12#综合,南圈头村西1#综合,南圈头9#油田68农排【纯农排变】,南圈头16#综合,南圈头7#浴池66农排【纯农排变】,南圈头4#苏家坟63农排【纯农排变】,南圈头9#村北综合,南圈头7#村内综合,农贸带锯厂,南圈头14#综合,","scope":"【影响街道/乡镇】城关镇 【高危重要客户】无 【影响客户】南圈头村、东田村（东田果庄）","startTime":"2019-09-19 21:00:00","stopDate":"2019-09-19 22:00:00","orgNo":"1340613","typeCode":"其他临时停电","poweroffArea":"【全线路停电】停南圈头13#综合,南圈头9#村北综合,南圈头4#苏家坟63农排【纯农排变】,南圈头6#八十亩地65农排【纯农排变】,南圈头11#东头农排【纯农排变】,南圈头7#村内综合,马娃,0122|南圈头西南头综合3#(23),南圈头9#油田68农排【纯农排变】,农贸带锯厂,南圈头15#综合,南圈头10#王家坟北农排【纯农排变】,任丘华北石油科信采油技术研究开发有限公司,南圈头11#综合,南圈头2#公路边综合,南圈头5#王家坟64农排【纯农排变】,南圈头8#村东综合,南圈头16#综合,中国石油天然气股份有限公司华北油田分公司变压器,南圈头14#综合,南圈头村西1#综合,南圈头12#综合,南圈头4#综合,南圈头7#浴池66农排【纯农排变】,南圈头10#桥头综合,高阳县住房和城乡建设局变压器,南圈头6#村西综合,南圈头村西18号综合,南圈头8#学校东侧67农排【纯农排变】,南圈头5#村东综合","poweroffReason":"【停电原因】由于站内检修导致３５ＫＶ城南变电站南圈头５１５线路全线停电【变更送电】无【发布渠道】通过９５５９８发布","powerTime":"2019-09-19 21:21:55","powerComm":"已送电","subsNo":"","lineNo":"","tgNo":"","tgName":null,"infoStatus":"1","orgName":"国网高阳县供电公司","typeName":null,"infoStatusName":null,"dateDay":null,"orgNos":null,"nowTime":null,"countyName":null,"streetName":null,"villageName":null,"roadName":null,"communityName":null,"tranName":null,"sdLineName":null,"cityCode":"1340613","cityName":"国网高阳县供电公司","provinceCode":null,"stopTime":"2019-09-19 22:00:00","powerType":"全部","powerOffArea":"【全线路停电】停南圈头13#综合,南圈头9#村北综合,南圈头4#苏家坟63农排【纯农排变】,南圈头6#八十亩地65农排【纯农排变】,南圈头11#东头农排【纯农排变】,南圈头7#村内综合,马娃,0122|南圈头西南头综合3#(23),南圈头9#油田68农排【纯农排变】,农贸带锯厂,南圈头15#综合,南圈头10#王家坟北农排【纯农排变】,任丘华北石油科信采油技术研究开发有限公司,南圈头11#综合,南圈头2#公路边综合,南圈头5#王家坟64农排【纯农排变】,南圈头8#村东综合,南圈头16#综合,中国石油天然气股份有限公司华北油田分公司变压器,南圈头14#综合,南圈头村西1#综合,南圈头12#综合,南圈头4#综合,南圈头7#浴池66农排【纯农排变】,南圈头10#桥头综合,高阳县住房和城乡建设局变压器,南圈头6#村西综合,南圈头村西18号综合,南圈头8#学校东侧67农排【纯农排变】,南圈头5#村东综合","powerOffReason":"【停电原因】由于站内检修导致３５ＫＶ城南变电站南圈头５１５线路全线停电【变更送电】无【发布渠道】通过９５５９８发布","powerOffId":"2019091913000216"},{"poweroffId":2019091913000214,"sgpoweroffId":null,"subsName":"","lineName":"岳佐线514","pubTranName":"北圈头6#东北角综合,岳佐10#村北综合,10108|书店小区综合,岳佐学校13号综合,岳佐2#村西综合,岳佐12＃综合台区,岳佐16号新增综合变压器,岳佐11#村北综合,岳佐17号新增综合变压器,岳佐9#学校西综合,岳佐4#大队院东南综合,骆屯2#综合,岳佐5#大队院东北综合,骆屯1#综合,岳佐3#大队院西综合,北圈头村东14号综合,岳佐15号村北综合,岳佐8#学校东综合,岳佐1#村西综合,岳佐村南14号综合,","scope":"【影响街道/乡镇】城关镇 【高危重要客户】无 【影响客户】北圈头村村南、东南、村东北部分、岳佐村村南、村西、村里、村北部分、骆屯村全村","startTime":"2019-09-19 21:00:00","stopDate":"2019-09-19 22:00:00","orgNo":"1340613","typeCode":"其他临时停电","poweroffArea":"【全线路停电】停万达染厂(子),任丘华北石油科信采油技术研究开发有限公司,骆屯2#综合,北圈头张广玉,海涛纺织品公司,土产建材公司,骆屯1#综合,岳佐10#村北综合,10108|书店小区综合,亚强纺织品公司,万达印染有限公司,岳佐3#大队院西综合,岳佐村南14号综合,高阳县星韬钢材经销部变压器,玉麒麟纺织有限公司,高阳县益康染织有限责任公司变压器,北圈头6#东北角综合,岳佐8#学校东综合,玉麒麟纺织有限公司变压器,岳佐4#大队院东南综合,宏兴染厂,岳佐毛巾一厂,北圈头2#村北124农排【纯农排变】,河北华北石油天成实业集团有限公司变压器,高阳县益康染织有限责任公司,高阳县颂和毛巾厂,高阳县万达印染有限公司变压器,岳佐12＃综合台区,高阳县利生纺织有限公司变压器,宋志刚,岳佐学校13号综合,北圈头村东14号综合,刘玉斋,高阳县高阳镇北圈头村村民委员会变压器2号【纯农排变】,岳佐2#村西综合,中国石油天然气股份有限公司华北油田分公司变压器,河北鼎韵电子有限公司变压器,高阳县高阳镇北圈头村村民委员会变压器1号【纯农排变】,北圈头3#村东南125农排【纯农排变】,雷雨纺织品有限公司,北圈头1#村西南123农排【纯农排变】,岳佐16号新增综合变压器,岳佐15号村北综合,岳佐5#大队院东北综合,恒润纺织有限公司,中国石油华北油田采油一厂,岳佐石豹,岳佐1#村西综合,高阳县光华毛巾厂,岳佐9#学校西综合,岳佐11#村北综合,岳佐17号新增综合变压器,岳佐2#村南107农排【纯农排变】","poweroffReason":"【停电原因】由于站内检修导致３５ＫＶ城南变电站岳佐５１４线路全线停电【变更送电】无【发布渠道】通过９５５９８发布","powerTime":"2019-09-19 21:23:16","powerComm":"已送电","subsNo":"","lineNo":"","tgNo":"","tgName":null,"infoStatus":"1","orgName":"国网高阳县供电公司","typeName":null,"infoStatusName":null,"dateDay":null,"orgNos":null,"nowTime":null,"countyName":null,"streetName":null,"villageName":null,"roadName":null,"communityName":null,"tranName":null,"sdLineName":null,"cityCode":"1340613","cityName":"国网高阳县供电公司","provinceCode":null,"stopTime":"2019-09-19 22:00:00","powerType":"全部","powerOffArea":"【全线路停电】停万达染厂(子),任丘华北石油科信采油技术研究开发有限公司,骆屯2#综合,北圈头张广玉,海涛纺织品公司,土产建材公司,骆屯1#综合,岳佐10#村北综合,10108|书店小区综合,亚强纺织品公司,万达印染有限公司,岳佐3#大队院西综合,岳佐村南14号综合,高阳县星韬钢材经销部变压器,玉麒麟纺织有限公司,高阳县益康染织有限责任公司变压器,北圈头6#东北角综合,岳佐8#学校东综合,玉麒麟纺织有限公司变压器,岳佐4#大队院东南综合,宏兴染厂,岳佐毛巾一厂,北圈头2#村北124农排【纯农排变】,河北华北石油天成实业集团有限公司变压器,高阳县益康染织有限责任公司,高阳县颂和毛巾厂,高阳县万达印染有限公司变压器,岳佐12＃综合台区,高阳县利生纺织有限公司变压器,宋志刚,岳佐学校13号综合,北圈头村东14号综合,刘玉斋,高阳县高阳镇北圈头村村民委员会变压器2号【纯农排变】,岳佐2#村西综合,中国石油天然气股份有限公司华北油田分公司变压器,河北鼎韵电子有限公司变压器,高阳县高阳镇北圈头村村民委员会变压器1号【纯农排变】,北圈头3#村东南125农排【纯农排变】,雷雨纺织品有限公司,北圈头1#村西南123农排【纯农排变】,岳佐16号新增综合变压器,岳佐15号村北综合,岳佐5#大队院东北综合,恒润纺织有限公司,中国石油华北油田采油一厂,岳佐石豹,岳佐1#村西综合,高阳县光华毛巾厂,岳佐9#学校西综合,岳佐11#村北综合,岳佐17号新增综合变压器,岳佐2#村南107农排【纯农排变】","powerOffReason":"【停电原因】由于站内检修导致３５ＫＶ城南变电站岳佐５１４线路全线停电【变更送电】无【发布渠道】通过９５５９８发布","powerOffId":"2019091913000214"},{"poweroffId":2019091913000212,"sgpoweroffId":null,"subsName":"","lineName":"北圈头线513","pubTranName":"北圈头12#综合,北圈头7#村东南综合,北圈头8#东南综合,北圈头9#村西南综合,北圈头11#综合,北圈头村西13号综合,北圈头10#中心街综合,","scope":"【影响街道/乡镇】城关镇 【高危重要客户】无 【影响客户】北圈头村","startTime":"2019-09-19 21:00:00","stopDate":"2019-09-19 22:00:00","orgNo":"1340613","typeCode":"其他临时停电","poweroffArea":"【全线路停电】停北圈头郭春雷,陈俊,宋贝,北圈头宋清波,北圈头10#中心街综合,北圈头宋球,北圈头12#综合,北圈头张顺,高阳县高沧路农机加油站,北圈头宋小卯,北圈头7#村东南综合,陈亚辉,北圈头8#东南综合,北圈头村西13号综合,北圈头9#村西南综合,高阳县北秀毛巾厂变压器,北圈头张国辉,北圈头11#综合,北圈头刘虎","poweroffReason":"【停电原因】由于站内检修导致３５ＫＶ城南变电站北圈头５１３线路全线停电【变更送电】无【发布渠道】通过９５５９８发布","powerTime":"2019-09-19 21:22:51","powerComm":"已送电","subsNo":"","lineNo":"","tgNo":"","tgName":null,"infoStatus":"1","orgName":"国网高阳县供电公司","typeName":null,"infoStatusName":null,"dateDay":null,"orgNos":null,"nowTime":null,"countyName":null,"streetName":null,"villageName":null,"roadName":null,"communityName":null,"tranName":null,"sdLineName":null,"cityCode":"1340613","cityName":"国网高阳县供电公司","provinceCode":null,"stopTime":"2019-09-19 22:00:00","powerType":"全部","powerOffArea":"【全线路停电】停北圈头郭春雷,陈俊,宋贝,北圈头宋清波,北圈头10#中心街综合,北圈头宋球,北圈头12#综合,北圈头张顺,高阳县高沧路农机加油站,北圈头宋小卯,北圈头7#村东南综合,陈亚辉,北圈头8#东南综合,北圈头村西13号综合,北圈头9#村西南综合,高阳县北秀毛巾厂变压器,北圈头张国辉,北圈头11#综合,北圈头刘虎","powerOffReason":"【停电原因】由于站内检修导致３５ＫＶ城南变电站北圈头５１３线路全线停电【变更送电】无【发布渠道】通过９５５９８发布","powerOffId":"2019091913000212"},{"poweroffId":2019091913000210,"sgpoweroffId":null,"subsName":"","lineName":"电力局线512","pubTranName":"10049|保险局家属院综合,10089|东环路配变综合,10023|东街2号综合,10079|防疫站综合,10026|县社生活小区综合,10029|东街大楼综合,10086|商贸城小区2号综合,10040|五金小区综合,","scope":"【影响街道/乡镇】高阳镇、城关镇、商业街、东街、东环路 【高危重要客户】县医院、职工医院 【影响客户】保险局家属院、县社生活小区、五金小区、东街大楼、商贸城小区、防疫站、巨马宾馆","startTime":"2019-09-19 21:00:00","stopDate":"2019-09-19 22:00:00","orgNo":"1340613","typeCode":"其他临时停电","poweroffArea":"【全线路停电】停高阳县水利局,10089|东环路配变综合,李占峰,高阳县纺织商贸管理委员会2#,10023|东街2号综合,南关社区,新南环路灯,10079|防疫站综合,新毛巾市场(3#),10026|县社生活小区综合,10029|东街大楼综合,水务局,商贸城锅炉2#,工商局,河北宏润新型面料有限公司,高阳县纺织商贸城管理委员会变压器,高阳县纺织商贸城管理委员会,高阳县医院变压器,张彦明,10086|商贸城小区2号综合,电力局旧2#,黄卫民,职工医院,10040|五金小区综合,县医院,高阳县医院,黄新民,五金公司,高阳县供销合作社联合社变压器,县医院X光,10049|保险局家属院综合","poweroffReason":"【停电原因】由于站内检修导致３５ＫＶ城南变电站电力局５１２线路全线停电【变更送电】无【发布渠道】通过９５５９８发布","powerTime":"2019-09-19 21:22:35","powerComm":"已送电","subsNo":"","lineNo":"","tgNo":"","tgName":null,"infoStatus":"1","orgName":"国网高阳县供电公司","typeName":null,"infoStatusName":null,"dateDay":null,"orgNos":null,"nowTime":null,"countyName":null,"streetName":null,"villageName":null,"roadName":null,"communityName":null,"tranName":null,"sdLineName":null,"cityCode":"1340613","cityName":"国网高阳县供电公司","provinceCode":null,"stopTime":"2019-09-19 22:00:00","powerType":"全部","powerOffArea":"【全线路停电】停高阳县水利局,10089|东环路配变综合,李占峰,高阳县纺织商贸管理委员会2#,10023|东街2号综合,南关社区,新南环路灯,10079|防疫站综合,新毛巾市场(3#),10026|县社生活小区综合,10029|东街大楼综合,水务局,商贸城锅炉2#,工商局,河北宏润新型面料有限公司,高阳县纺织商贸城管理委员会变压器,高阳县纺织商贸城管理委员会,高阳县医院变压器,张彦明,10086|商贸城小区2号综合,电力局旧2#,黄卫民,职工医院,10040|五金小区综合,县医院,高阳县医院,黄新民,五金公司,高阳县供销合作社联合社变压器,县医院X光,10049|保险局家属院综合","powerOffReason":"【停电原因】由于站内检修导致３５ＫＶ城南变电站电力局５１２线路全线停电【变更送电】无【发布渠道】通过９５５９８发布","powerOffId":"2019091913000210"},{"poweroffId":2019091913000203,"sgpoweroffId":null,"subsName":"","lineName":"县医院线511","pubTranName":"南关1#南关桥综合,北圈头5#东北综合,北圈头3#村北综合,10052|商业街配变综合,10088|烟草公司综合,10085|商贸城小区1号综合,客户投资_高阳县七彩家园二期贰号综合箱变配变配电变压器,10050|南环路配变综合,10051|大布站综合,北圈头4#村北综合,SQ商业街2#综合,10003|工商银行小区综合,南街2#村北综合,南街1#村南综合,10065|种子公司小区综合,10107|南关小区综合,北圈头大队1#综合,客户投资_河北省保定市高阳县高阳镇七彩家园东台区出线配电变压器,北圈头2#村北综合,","scope":"【影响街道/乡镇】城关镇、高阳镇、南街、南环路、商业街 【高危重要客户】无 【影响客户】南关、烟草公司、商贸城小区、种子公司小区、大布站、南关小区、工商银行小区、七彩家园、染厂家属院、北圈头、花市街村","startTime":"2019-09-19 21:00:00","stopDate":"2019-09-19 22:00:00","orgNo":"1340613","typeCode":"其他临时停电","poweroffArea":"【全线路停电】停SQ商业街2#综合,南街1#村南综合,10065|种子公司小区综合,客户投资_河北省保定市高阳县高阳镇七彩家园东台区出线配电变压器,染厂家属东院,北圈头3#村北综合,10052|商业街配变综合,北圈头大队1#综合,10050|南环路配变综合,10003|工商银行小区综合,南街2#村北综合,10107|南关小区综合,10088|烟草公司综合,宋虹鑫,保定正昊房地产开发有限公司变压器,北圈头益民毛巾厂减容,南关中学,卢春林,10085|商贸城小区1号综合,客户投资_高阳县七彩家园二期贰号综合箱变配变配电变压器,陈丽娜,南关1#南关桥综合,宋三胖毛巾厂,北圈头5#东北综合,高阳县城东纺织站变压器,烟草公司保定市公司,高阳县秋实物业服务有限公司变压器,高阳县住房和城乡建设局变压器,北圈头2#村北综合,10051|大布站综合,北圈头张峻,北圈头4#村北综合","poweroffReason":"【停电原因】由于站内检修导致３５ＫＶ城南变电站县医院５１１线路全线停电【变更送电】无【发布渠道】通过９５５９８发布","powerTime":"2019-09-19 21:22:14","powerComm":"已送电","subsNo":"","lineNo":"","tgNo":"","tgName":null,"infoStatus":"1","orgName":"国网高阳县供电公司","typeName":null,"infoStatusName":null,"dateDay":null,"orgNos":null,"nowTime":null,"countyName":null,"streetName":null,"villageName":null,"roadName":null,"communityName":null,"tranName":null,"sdLineName":null,"cityCode":"1340613","cityName":"国网高阳县供电公司","provinceCode":null,"stopTime":"2019-09-19 22:00:00","powerType":"全部","powerOffArea":"【全线路停电】停SQ商业街2#综合,南街1#村南综合,10065|种子公司小区综合,客户投资_河北省保定市高阳县高阳镇七彩家园东台区出线配电变压器,染厂家属东院,北圈头3#村北综合,10052|商业街配变综合,北圈头大队1#综合,10050|南环路配变综合,10003|工商银行小区综合,南街2#村北综合,10107|南关小区综合,10088|烟草公司综合,宋虹鑫,保定正昊房地产开发有限公司变压器,北圈头益民毛巾厂减容,南关中学,卢春林,10085|商贸城小区1号综合,客户投资_高阳县七彩家园二期贰号综合箱变配变配电变压器,陈丽娜,南关1#南关桥综合,宋三胖毛巾厂,北圈头5#东北综合,高阳县城东纺织站变压器,烟草公司保定市公司,高阳县秋实物业服务有限公司变压器,高阳县住房和城乡建设局变压器,北圈头2#村北综合,10051|大布站综合,北圈头张峻,北圈头4#村北综合","powerOffReason":"【停电原因】由于站内检修导致３５ＫＶ城南变电站县医院５１１线路全线停电【变更送电】无【发布渠道】通过９５５９８发布","powerOffId":"2019091913000203"},{"poweroffId":2019091913000202,"sgpoweroffId":null,"subsName":"","lineName":"10kV531四家庄线","pubTranName":"尧方头公用照明10台区,（29）南关南公用照明台区,红星小区公用照明2台区,（20）都府营公用照明1台区,（35）尧方头公用照明7台区,（35）尧方头村公用照明4台区,（35）尧方头村公用照明1台区,南关北公用照明2台区,（72）沙河灌区公用照明台区,（189）南城社区院公用照明台区,（115）南关派出所公用照明台区,（165）药棉厂院公用照明台区,（29）南关园林小区公用照明台区,（29）南关北公用照明台区,建材市场公用照明2台区,（79）农业局院公用照明台区,（18）马道街公用照明台区,园林小区公用照明2台区,光荣院公用照明2台区,南关派出所公用照明2台区,南关南公用照明3台区,（29）南关园林处小区公用照明台区,南关瓜市公用照明2台区,（29）南关瓜市公用照明台区,（35）尧方头村公用照明5台区,尧方头公用照明11台区,客户投资_（29）南关园林小区公用照明台区,（35）尧方头村公用照明3台区,（66）红星小区公用照明台区,南关北公用照明3台区,（80）建材市场公用照明台区,（90）光荣院公用照明台区,","scope":"【影响街道/乡镇】西马道街、南环路、中兴东路【高危重要客户】无【影响客户】南关、尧方头、沙河灌区家属院、农业局院、红星小区、民政局、药棉厂家属院、芳林小区、中兴路卫材家属院、南关桥头、种子公司、印刷厂家属院、天成花园小区、华龙苑小区、南关邮政局、清风园小区、南城社区楼、公安局东侧、安佳市场、１０７国道、南城派出所、上东国际、朝阳小区","startTime":"2019-09-19 19:07:33","stopDate":"2019-09-19 22:30:00","orgNo":"1340610","typeCode":"电网故障停限电","poweroffArea":"【全线路停电】停（72）沙河灌区公用照明台区,（189）南城社区院公用照明台区,（115）南关派出所公用照明台区,（165）药棉厂院公用照明台区,（29）南关园林小区公用照明台区,（29）南关北公用照明台区,建材市场公用照明2台区,（79）农业局院公用照明台区,（18）马道街公用照明台区,园林小区公用照明2台区,光荣院公用照明2台区,南关派出所公用照明2台区,南关南公用照明3台区,（29）南关园林处小区公用照明台区,南关瓜市公用照明2台区,（29）南关瓜市公用照明台区,（35）尧方头村公用照明5台区,尧方头公用照明11台区,客户投资_（29）南关园林小区公用照明台区,（35）尧方头村公用照明1台区,南关北公用照明2台区,（35）尧方头村公用照明3台区,（66）红星小区公用照明台区,南关北公用照明3台区,（80）建材市场公用照明台区,（90）光荣院公用照明台区,尧方头公用照明10台区,（29）南关南公用照明台区,红星小区公用照明2台区,（20）都府营公用照明1台区,（35）尧方头公用照明7台区,（35）尧方头村公用照明4台区","poweroffReason":"【停电原因】由于第三方施工变压器电缆被挖断导致１１０ＫＶ定县变电站１０ＫＶ５３１四家庄线路全线停电 【变更送电】因抢修进度加快原因，送电时间由２０日１２：００变更为１９日２２：３０ 【发布渠道】９５５９８","powerTime":"2019-09-19 22:05:38","powerComm":"已送电","subsNo":"","lineNo":"","tgNo":"","tgName":null,"infoStatus":"1","orgName":"国网定州市供电公司","typeName":null,"infoStatusName":null,"dateDay":null,"orgNos":null,"nowTime":null,"countyName":null,"streetName":null,"villageName":null,"roadName":null,"communityName":null,"tranName":null,"sdLineName":null,"cityCode":"1340610","cityName":"国网定州市供电公司","provinceCode":null,"stopTime":"2019-09-19 22:30:00","powerType":"全部","powerOffArea":"【全线路停电】停（72）沙河灌区公用照明台区,（189）南城社区院公用照明台区,（115）南关派出所公用照明台区,（165）药棉厂院公用照明台区,（29）南关园林小区公用照明台区,（29）南关北公用照明台区,建材市场公用照明2台区,（79）农业局院公用照明台区,（18）马道街公用照明台区,园林小区公用照明2台区,光荣院公用照明2台区,南关派出所公用照明2台区,南关南公用照明3台区,（29）南关园林处小区公用照明台区,南关瓜市公用照明2台区,（29）南关瓜市公用照明台区,（35）尧方头村公用照明5台区,尧方头公用照明11台区,客户投资_（29）南关园林小区公用照明台区,（35）尧方头村公用照明1台区,南关北公用照明2台区,（35）尧方头村公用照明3台区,（66）红星小区公用照明台区,南关北公用照明3台区,（80）建材市场公用照明台区,（90）光荣院公用照明台区,尧方头公用照明10台区,（29）南关南公用照明台区,红星小区公用照明2台区,（20）都府营公用照明1台区,（35）尧方头公用照明7台区,（35）尧方头村公用照明4台区","powerOffReason":"【停电原因】由于第三方施工变压器电缆被挖断导致１１０ＫＶ定县变电站１０ＫＶ５３１四家庄线路全线停电 【变更送电】因抢修进度加快原因，送电时间由２０日１２：００变更为１９日２２：３０ 【发布渠道】９５５９８","powerOffId":"2019091913000202"},{"poweroffId":2019091913000152,"sgpoweroffId":null,"subsName":"","lineName":"10kV前卫站586线路","pubTranName":"10kVB1550.B1551.B1552配电室B1551配电变压器,10kVB1550.B1551.B1552配电室B1552配电变压器,0356237264-徐庄村-专变,0685873669-河北力强农业科技开发有限公司-变压器,0627302642-保定市北市区任达游泳馆-专变-139259863-保定市北市区任达游泳馆,0652881949-保定市公共交通总公司-专变-180458110-变压器,C642柱上变压器,变压器,0356279613-保定市北市区前进纸箱厂-专变,C022柱上变压器,0356238964-保定市北市区前进纸箱厂-专变,0366928811-保定市供水总公司-1-箱式变-变压器,10kVY0184.Y0185配电室Y0184配电变压器,10kVB1550.B1551.B1552配电室B1550配电变压器,0357468485-保定市路灯管理处-1-箱式变-变压器,0369138156-保定市路灯管理处-专变,10kVC3026箱式变电站C3026配电变压器,0356237251-清苑县百楼乡北高庄-专变,10kVY0186.Y0187配电室Y0186配电变压器,0594114145-河北永筑房地产开发有限公司-1#专变,0602417288-保定市晨巍房地产开发有限公司-1#专变,0356240150-清苑柏楼乡高庄村-专变,0356240147-高庄村小学-专变,0719420221-保定轩宇俊鹏汽车销售服务有限公司-变压器-315KVA,0358213767-保定市鑫安物业管理有限公司-2#专变,C198柱上变压器,C021柱上变压器,0358213767-保定市鑫安物业管理有限公司-1#专变,0357468472-保定市路灯管理处-1-箱式变-变压器,10kVY0324.Y0325配电室Y0324配电变压器,C390柱上变压器,10kVY0326.Y0327配电室Y0326配电变压器,10kVB1546.B1547配电室B1546配电变压器,0554640989-保定市惠丰物业服务有限公司-1#专变,10kVB1546.B1547配电室B1547配电变压器,","scope":"【影响街道/乡镇】隆昌路、瑞安路、韩庄乡 【高危重要客户】无 【影响客户】北城枫景、北高庄、鑫和花园、复兴中路、徐庄村、晨巍金地","startTime":"2019-09-19 16:00:00","stopDate":"2019-09-19 18:30:00","orgNo":"13406","typeCode":"电网故障停限电","poweroffArea":"【全线路停电】停10kVB1550.B1551.B1552配电室B1551配电变压器,10kVB1550.B1551.B1552配电室B1552配电变压器,C642柱上变压器,变压器,C022柱上变压器,,C198柱上变压器,C021柱上变压器,0358213767-保定市鑫安物业管理有限公司-1#专变,0366928811-保定市供水总公司-1-箱式变-变压器,10kVY0184.Y0185配电室Y0184配电变压器,10kVB1550.B1551.B1552配电室B1550配电变压器,0357468472-保定市路灯管理处-1-箱式变-变压器,0357468485-保定市路灯管理处-1-箱式变-变压器,0369138156-保定市路灯管理处-专变,10kVC3026箱式变电站C3026配电变压器,0356237251-清苑县百楼乡北高庄-专变,10kVY0186.Y0187配电室Y0186配电变压器,10kVY0324.Y0325配电室Y0324配电变压器,C390柱上变压器,10kVY0326.Y0327配电室Y0326配电变压器,10kVB1546.B1547配电室B1546配电变压器,0554640989-保定市惠丰物业服务有限公司-1#专变,10kVB1546.B1547配电室B1547配电变压器","poweroffReason":"【停电原因】由于分支开关短路导致１０ＫＶ前卫变电站５８６线路全线停电【变更送电】因抢修进度加快，原定２０:００送电现计划１８:３０送电【发布渠道】通过９５５９８发布","powerTime":"2019-09-19 18:11:27","powerComm":"已送电","subsNo":"","lineNo":"","tgNo":"","tgName":null,"infoStatus":"1","orgName":"保定供电公司","typeName":null,"infoStatusName":null,"dateDay":null,"orgNos":null,"nowTime":null,"countyName":null,"streetName":null,"villageName":null,"roadName":null,"communityName":null,"tranName":null,"sdLineName":null,"cityCode":"13406","cityName":"保定供电公司","provinceCode":null,"stopTime":"2019-09-19 18:30:00","powerType":"全部","powerOffArea":"【全线路停电】停10kVB1550.B1551.B1552配电室B1551配电变压器,10kVB1550.B1551.B1552配电室B1552配电变压器,C642柱上变压器,变压器,C022柱上变压器,,C198柱上变压器,C021柱上变压器,0358213767-保定市鑫安物业管理有限公司-1#专变,0366928811-保定市供水总公司-1-箱式变-变压器,10kVY0184.Y0185配电室Y0184配电变压器,10kVB1550.B1551.B1552配电室B1550配电变压器,0357468472-保定市路灯管理处-1-箱式变-变压器,0357468485-保定市路灯管理处-1-箱式变-变压器,0369138156-保定市路灯管理处-专变,10kVC3026箱式变电站C3026配电变压器,0356237251-清苑县百楼乡北高庄-专变,10kVY0186.Y0187配电室Y0186配电变压器,10kVY0324.Y0325配电室Y0324配电变压器,C390柱上变压器,10kVY0326.Y0327配电室Y0326配电变压器,10kVB1546.B1547配电室B1546配电变压器,0554640989-保定市惠丰物业服务有限公司-1#专变,10kVB1546.B1547配电室B1547配电变压器","powerOffReason":"【停电原因】由于分支开关短路导致１０ＫＶ前卫变电站５８６线路全线停电【变更送电】因抢修进度加快，原定２０:００送电现计划１８:３０送电【发布渠道】通过９５５９８发布","powerOffId":"2019091913000152"},{"poweroffId":2019091913000140,"sgpoweroffId":null,"subsName":"","lineName":"北淇村536","pubTranName":"刘家庄村韩昌顺变压器,林泉村北井变压器【纯农排变】,刘家庄村1#|村中,远台村1#|村南,北河北村3#|村东,综|18035,综,远台村4#|村东,远台村3#|大峪,综|18082,农|18083【纯农排变】,综|18048,综,西渭庄村4#|村北,北河北敬金泉石板厂,林泉村8#村南（综）,综|18026,林泉村2#|村南,综|18037,综|18080,北河北村西变压器,综|18077,西渭庄村3#|村南,农|18078【纯农排变】,山西村1#|村中,综|18043,远台东2井变压器【纯农排变】,胡庄村1#|村中,","scope":"【影响街道/乡镇】西山北乡【高危重要客户】无【影响客户】西渭庄村、东渭庄村、刘家庄村、南河北村、北河北村、胡庄村、南淇村、山西村、东步乐村、西步乐村、林泉村、远台村","startTime":"2019-09-19 15:07:17","stopDate":"2019-09-19 17:00:25","orgNo":"1340625","typeCode":"电网故障停限电","poweroffArea":"【分支停电】停远台村1#|村南,综|18080,北河北村西变压器,西渭庄村2#|村东南,综|18077,西渭庄村3#|村南,农|18078【纯农排变】,刘家庄村1#|村中,综|18043,远台东2井变压器【纯农排变】,刘家庄村8号村北变压器,刘家庄村9号西南井2号变压器【纯农排变】,胡庄村1#|村中,综|18035,远台村3#|大峪,综|18082,刘家庄村韩昌顺变压器,林泉村北井变压器【纯农排变】,林泉村东变压器,南河北西井变压器【纯农排变】,北河北村3#|村东,综,山西村3#|村西,综|18112,东渭庄村1#|村中,综|18026,林泉村2#|村南,综|18037,远台村9#|大峪东,农|18088【纯农排变】,南淇村2#|村西,农|18050【纯农排变】,西渭庄村4#|村北,农|18079,林泉村8#村南（综）,远台村4#|村东,农|18083【纯农排变】,北河北敬金泉石板厂,西渭庄砖厂(50),南河北村3#|村中,综|18048,远台村2#|村北,综,山西村1#|村中,综|18058,东步乐村3#|村东北2号,农|18023【纯农排变】,东步乐村2#|村北,农|18022【纯农排变】,西步乐村7#|村4号,农|18067【纯农排变】,南河北村1#|村北,农|18046【纯农排变】,东渭庄村3#村南（综,林泉村3#|村西1,农|18038【纯农排变】,远台西井变压器【纯农排变】,东步乐村1#|村中,综|18021,西步乐村2#|村西,综|18062,刘家庄西南井变压器,西步乐村5#|村2号,农|18065【纯农排变】,东步乐村7#村南（农）【纯农排变】,北河北村1#|村中,综|18001,南河北村2#|村南,农|18047【纯农排变】,南淇村1#|村中,综|18049,胡庄西南井变压器,南淇村村民委员会胡庄100","poweroffReason":"【停电原因】由于过流跳闸导致３５ＫＶ步乐变电站北淇村５３６线路主干００７号杆以下线路停电【变更送电】由于抢修进度加快原因，送电时间由２０：００变更为１７：００【发布渠道】通过９５５９８发布","powerTime":"2019-09-19 16:38:11","powerComm":"已送电","subsNo":"","lineNo":"","tgNo":"","tgName":null,"infoStatus":"1","orgName":"国网易县供电公司","typeName":null,"infoStatusName":null,"dateDay":null,"orgNos":null,"nowTime":null,"countyName":null,"streetName":null,"villageName":null,"roadName":null,"communityName":null,"tranName":null,"sdLineName":null,"cityCode":"1340625","cityName":"国网易县供电公司","provinceCode":null,"stopTime":"2019-09-19 17:00:25","powerType":"全部","powerOffArea":"【分支停电】停远台村1#|村南,综|18080,北河北村西变压器,西渭庄村2#|村东南,综|18077,西渭庄村3#|村南,农|18078【纯农排变】,刘家庄村1#|村中,综|18043,远台东2井变压器【纯农排变】,刘家庄村8号村北变压器,刘家庄村9号西南井2号变压器【纯农排变】,胡庄村1#|村中,综|18035,远台村3#|大峪,综|18082,刘家庄村韩昌顺变压器,林泉村北井变压器【纯农排变】,林泉村东变压器,南河北西井变压器【纯农排变】,北河北村3#|村东,综,山西村3#|村西,综|18112,东渭庄村1#|村中,综|18026,林泉村2#|村南,综|18037,远台村9#|大峪东,农|18088【纯农排变】,南淇村2#|村西,农|18050【纯农排变】,西渭庄村4#|村北,农|18079,林泉村8#村南（综）,远台村4#|村东,农|18083【纯农排变】,北河北敬金泉石板厂,西渭庄砖厂(50),南河北村3#|村中,综|18048,远台村2#|村北,综,山西村1#|村中,综|18058,东步乐村3#|村东北2号,农|18023【纯农排变】,东步乐村2#|村北,农|18022【纯农排变】,西步乐村7#|村4号,农|18067【纯农排变】,南河北村1#|村北,农|18046【纯农排变】,东渭庄村3#村南（综,林泉村3#|村西1,农|18038【纯农排变】,远台西井变压器【纯农排变】,东步乐村1#|村中,综|18021,西步乐村2#|村西,综|18062,刘家庄西南井变压器,西步乐村5#|村2号,农|18065【纯农排变】,东步乐村7#村南（农）【纯农排变】,北河北村1#|村中,综|18001,南河北村2#|村南,农|18047【纯农排变】,南淇村1#|村中,综|18049,胡庄西南井变压器,南淇村村民委员会胡庄100","powerOffReason":"【停电原因】由于过流跳闸导致３５ＫＶ步乐变电站北淇村５３６线路主干００７号杆以下线路停电【变更送电】由于抢修进度加快原因，送电时间由２０：００变更为１７：００【发布渠道】通过９５５９８发布","powerOffId":"2019091913000140"},{"poweroffId":2019091913000117,"sgpoweroffId":null,"subsName":"","lineName":"加录线521","pubTranName":"南衣巾07号变压器,王马街03号变压器,南衣巾12号变压器,南衣巾10号变压器,南衣巾水变压器【纯农排变】,王马街西水变压器【纯农排变】,南衣巾06号变压器,王马街01号变压器,南衣巾04号变压器,南衣巾05号变压器,王马街05号变压器,南衣巾08号变压器,南衣巾03号变压器,南衣巾01号变压器,王马街02号变压器,南衣巾02号变压器,王马街06号变压器,南衣巾09号变压器,王马街04号变压器,南衣巾11号变压器,","scope":"【影响街道/乡镇】方官镇 【高危重要客户】无 【影响客户】方官镇南衣巾村、王马街村、高碑店市方官镇污水处理有限公司","startTime":"2019-09-19 14:50:00","stopDate":"2019-09-19 16:00:00","orgNo":"1340612","typeCode":"其他临时停电","poweroffArea":"【分支停电】停王马街01号变压器,南衣巾04号变压器,南衣巾05号变压器,王马街05号变压器,南衣巾08号变压器,南衣巾03号变压器,南衣巾01号变压器,王马街02号变压器,南衣巾02号变压器,王马街06号变压器,南衣巾09号变压器,王马街04号变压器,南衣巾11号变压器,南衣巾07号变压器,王马街03号变压器,南衣巾12号变压器,南衣巾10号变压器,南衣巾水变压器【纯农排变】,王马街西水变压器【纯农排变】,南衣巾06号变压器","poweroffReason":"【停电原因】由于弓子线打火需紧急处理导致１１０ＫＶ太平庄变电站１０ＫＶ加录５２１线路０４号断路器以下停电 【变更送电】无 【发布渠道】通过９５５９８发布","powerTime":"2019-09-19 15:56:18","powerComm":"已送电","subsNo":"","lineNo":"","tgNo":"","tgName":null,"infoStatus":"1","orgName":"国网高碑店市供电公司","typeName":null,"infoStatusName":null,"dateDay":null,"orgNos":null,"nowTime":null,"countyName":null,"streetName":null,"villageName":null,"roadName":null,"communityName":null,"tranName":null,"sdLineName":null,"cityCode":"1340612","cityName":"国网高碑店市供电公司","provinceCode":null,"stopTime":"2019-09-19 16:00:00","powerType":"全部","powerOffArea":"【分支停电】停王马街01号变压器,南衣巾04号变压器,南衣巾05号变压器,王马街05号变压器,南衣巾08号变压器,南衣巾03号变压器,南衣巾01号变压器,王马街02号变压器,南衣巾02号变压器,王马街06号变压器,南衣巾09号变压器,王马街04号变压器,南衣巾11号变压器,南衣巾07号变压器,王马街03号变压器,南衣巾12号变压器,南衣巾10号变压器,南衣巾水变压器【纯农排变】,王马街西水变压器【纯农排变】,南衣巾06号变压器","powerOffReason":"【停电原因】由于弓子线打火需紧急处理导致１１０ＫＶ太平庄变电站１０ＫＶ加录５２１线路０４号断路器以下停电 【变更送电】无 【发布渠道】通过９５５９８发布","powerOffId":"2019091913000117"}],"pageModel":{"pageNow":553,"totalCount":10973,"totalPage":1098,"tableRows":0,"pageCount":10,"beginCount":5520},"isExperi":"1"}