{"message":"","today":"2020-06-15","seleList":[{"poweroffId":2019091713000084,"sgpoweroffId":null,"subsName":"","lineName":"10kV512么罗线","pubTranName":"0014466782南留营东区,燕赵农13变压器【纯农排变】,燕赵农14变压器【纯农排变】,南留营北区变压器,留营庄农4变压器【纯农排变】,留营庄西2区变压器,0014466778南留营北2区,留营庄西区,留营庄小学变压器,留营庄幼儿园变压器,郑留营农6变压器【纯农排变】,南留营东3区变压器,留营庄农3变压器【纯农排变】,南管头西2变压器,南管头西3区变压器,南管头小学变压器,0000004950南管头南区变压器,南留营中2区变压器,0000004904留营庄北区变压器,0012743881西么罗西2区变压器,0012745831西么罗东2区变压器,南留营东2区变压器,0012691605南留营4区变压器,0012907905南留营南2区变压器,0000004973西么罗东区变压器,0000004974西么罗西区变压器,燕赵农21变压器【纯农排变】,0000006195留营庄东区变压器,南留营农12变压器,南留营农9变压器,南留营西南变压器,0012883939东么罗二中区,东么罗二北2区变压器,0000006621东么罗三队南区,0014418533东么罗三队北区,东么罗三小学变压器,0000004906南留营南区变压器,0000004907南留营统管北农1号变压器【纯农排变】,0000004908南留营北西区变压器,0000004951南管头东区变压器,0012735072燕赵东南区变压器,燕赵东3区,燕赵南3区变压器,0000006537南管头西区变压器,0012825625南管头4区变压器,0012884416南管头中区变压器,0014448831南管头新增,南管头南2变压器,南管头农5变压器【纯农排变】,南留营农10变压器,0013898411燕赵嘉园变压器,0014448539燕赵新增东,0000005731南留营统管东农3号变压器,0000006328南留营中区变压器,0000004955东么罗二变压器,0000004972东么罗二北变压器,0014436403西么罗中区变压器,西么罗农8变压器【纯农排变】,西么罗农9变压器【纯农排变】,西么罗小学变压器,0000006689燕赵农11#变压器,","scope":"【影响街道/乡镇】燕赵镇、东旺乡【高危重要客户】无【影响客户】西么罗、东么罗二、东么罗三、南留营、留营庄、郑留营、燕赵、南管头","startTime":"2019-09-17 14:00:00","stopDate":"2019-09-17 18:00:00","orgNo":"1340619","typeCode":"其他临时停电","poweroffArea":"【全线路停电】停0000004973西么罗东区变压器,0000004974西么罗西区变压器,0000005518西么罗统管南农4号变压器【纯农排变】,0000005732西么罗统管南农3号变压器【纯农排变】,0000005811西么罗统管西农5号变压器【纯农排变】,0000005812西么罗统管东农1号变压器,0000005813西么罗统管东农2号变压器,0000005877西么罗统管北农6号变压器,0012339746西么罗农7变压器【纯农排变】,0012743881西么罗西2区变压器,0012745831西么罗东2区变压器,0014436403西么罗中区变压器,西么罗农8变压器【纯农排变】,西么罗农9变压器【纯农排变】,西么罗小学变压器,0000004955东么罗二变压器,0000004972东么罗二北变压器,0012883939东么罗二中区,东么罗二北2区变压器,0000006621东么罗三队南区,0014418533东么罗三队北区,东么罗三小学变压器,0000004906南留营南区变压器,0000004907南留营统管北农1号变压器【纯农排变】,0000004908南留营北西区变压器,0000004909南留营统管东农2号变压器【纯农排变】,0000004910南留营统管东农4号变压器,0000004911南留营统管南农5号变压器【纯农排变】,0000005731南留营统管东农3号变压器,0000006328南留营中区变压器,0000006623南留营农6#变压器【纯农排变】,0012691605南留营4区变压器,0012907905南留营南2区变压器,0014466778南留营北2区,0014466782南留营东区,南留营北区变压器,南留营东2区变压器,南留营东3区变压器,南留营农10变压器,南留营农12变压器,南留营农7变压器【纯农排变】,南留营农9变压器,南留营西南变压器,南留营中2区变压器,0000004904留营庄北区变压器,0000005456留营庄统管北农1号,0000006195留营庄东区变压器,留营庄农2#变压器【纯农排变】,留营庄农3变压器【纯农排变】,留营庄农4变压器【纯农排变】,留营庄西2区变压器,留营庄西区,留营庄小学变压器,留营庄幼儿园变压器,0000006513郑留营农3＃变压器,0000006688郑留营农4#变压器,0012958949郑留营农5号变压器,郑留营农6变压器【纯农排变】,0000005870燕赵统管东农1号变压器,0000006689燕赵农11#变压器,0012339245燕赵东2区变压器,0012735072燕赵东南区变压器,0012912856燕赵南2区变压器,0013898411燕赵嘉园变压器,0014448539燕赵新增东,燕赵东3区,燕赵南3区变压器,燕赵农13变压器【纯农排变】,燕赵农14变压器【纯农排变】,燕赵农21变压器【纯农排变】,燕赵统管东农三号变压器【纯农排变】,燕赵统管南农四号变压器【纯农排变】,0000004950南管头南区变压器,0000004951南管头东区变压器,0000005627南管头统管南农4号变压器,0000005814南管头统管东农3号变压器,0000005815南管头统管东农2号变压器,0000005816南管头统管东农1号变压器【纯农排变】,0000006537南管头西区变压器,0012825625南管头4区变压器,0012884416南管头中区变压器,0014448831南管头新增,南管头南2变压器,南管头农5变压器【纯农排变】,南管头西2变压器,南管头西3区变压器,南管头小学变压器","poweroffReason":"【停电原因】由于站内开关的操作机构严重缺陷，需停电进行紧急消缺导致３５ＫＶ管头变电站１０ＫＶ５１２么罗线路全线停电【变更送电】因工作进度加快原因，送电时间由２０:００变更为１８:００【发布渠道】通过９５５９８发布","powerTime":"2019-09-17 17:36:47","powerComm":"已送电","subsNo":"","lineNo":"","tgNo":"","tgName":null,"infoStatus":"1","orgName":"国网曲阳县供电公司","typeName":null,"infoStatusName":null,"dateDay":null,"orgNos":null,"nowTime":null,"countyName":null,"streetName":null,"villageName":null,"roadName":null,"communityName":null,"tranName":null,"sdLineName":null,"cityCode":"1340619","cityName":"国网曲阳县供电公司","provinceCode":null,"stopTime":"2019-09-17 18:00:00","powerType":"全部","powerOffArea":"【全线路停电】停0000004973西么罗东区变压器,0000004974西么罗西区变压器,0000005518西么罗统管南农4号变压器【纯农排变】,0000005732西么罗统管南农3号变压器【纯农排变】,0000005811西么罗统管西农5号变压器【纯农排变】,0000005812西么罗统管东农1号变压器,0000005813西么罗统管东农2号变压器,0000005877西么罗统管北农6号变压器,0012339746西么罗农7变压器【纯农排变】,0012743881西么罗西2区变压器,0012745831西么罗东2区变压器,0014436403西么罗中区变压器,西么罗农8变压器【纯农排变】,西么罗农9变压器【纯农排变】,西么罗小学变压器,0000004955东么罗二变压器,0000004972东么罗二北变压器,0012883939东么罗二中区,东么罗二北2区变压器,0000006621东么罗三队南区,0014418533东么罗三队北区,东么罗三小学变压器,0000004906南留营南区变压器,0000004907南留营统管北农1号变压器【纯农排变】,0000004908南留营北西区变压器,0000004909南留营统管东农2号变压器【纯农排变】,0000004910南留营统管东农4号变压器,0000004911南留营统管南农5号变压器【纯农排变】,0000005731南留营统管东农3号变压器,0000006328南留营中区变压器,0000006623南留营农6#变压器【纯农排变】,0012691605南留营4区变压器,0012907905南留营南2区变压器,0014466778南留营北2区,0014466782南留营东区,南留营北区变压器,南留营东2区变压器,南留营东3区变压器,南留营农10变压器,南留营农12变压器,南留营农7变压器【纯农排变】,南留营农9变压器,南留营西南变压器,南留营中2区变压器,0000004904留营庄北区变压器,0000005456留营庄统管北农1号,0000006195留营庄东区变压器,留营庄农2#变压器【纯农排变】,留营庄农3变压器【纯农排变】,留营庄农4变压器【纯农排变】,留营庄西2区变压器,留营庄西区,留营庄小学变压器,留营庄幼儿园变压器,0000006513郑留营农3＃变压器,0000006688郑留营农4#变压器,0012958949郑留营农5号变压器,郑留营农6变压器【纯农排变】,0000005870燕赵统管东农1号变压器,0000006689燕赵农11#变压器,0012339245燕赵东2区变压器,0012735072燕赵东南区变压器,0012912856燕赵南2区变压器,0013898411燕赵嘉园变压器,0014448539燕赵新增东,燕赵东3区,燕赵南3区变压器,燕赵农13变压器【纯农排变】,燕赵农14变压器【纯农排变】,燕赵农21变压器【纯农排变】,燕赵统管东农三号变压器【纯农排变】,燕赵统管南农四号变压器【纯农排变】,0000004950南管头南区变压器,0000004951南管头东区变压器,0000005627南管头统管南农4号变压器,0000005814南管头统管东农3号变压器,0000005815南管头统管东农2号变压器,0000005816南管头统管东农1号变压器【纯农排变】,0000006537南管头西区变压器,0012825625南管头4区变压器,0012884416南管头中区变压器,0014448831南管头新增,南管头南2变压器,南管头农5变压器【纯农排变】,南管头西2变压器,南管头西3区变压器,南管头小学变压器","powerOffReason":"【停电原因】由于站内开关的操作机构严重缺陷，需停电进行紧急消缺导致３５ＫＶ管头变电站１０ＫＶ５１２么罗线路全线停电【变更送电】因工作进度加快原因，送电时间由２０:００变更为１８:００【发布渠道】通过９５５９８发布","powerOffId":"2019091713000084"},{"poweroffId":2019091713000079,"sgpoweroffId":null,"subsName":"","lineName":"10kV514洪德线","pubTranName":"0000006655杜村北农变压器,0014100457东流德,南洪德中学2变压器,慈顺南区变压器,杜村小学变压器,南洪德中学1变压器,南洪德农3变压器【纯农排变】,0000005452南洪德北区变压器,0000005343杜村变压器【纯农排变】,0013037895文德西农3【纯农排变】,洪德幼儿园变压器,东流德东3区变压器,0000005388牛堡内西区变压器,文德东3变压器,南洪德西2区变压器,0000006842东诸侯东区变压器,0012891918慈顺北2变压器,南洪德农4变压器【纯农排变】,南洪德农灌2变压器【纯农排变】,0014100458南洪德,南洪德小学变压器,慈顺小学变压器,0012883929文德东2区变压器,南洪德农灌1变压器【纯农排变】,0000006436杜村统管南农变压器,0014098168慈顺变压器,0000005389牛堡内北区变压器,0000006522南洪德东农变压器,0000005338北洪德变压器,0000005406慈顺村北区变压器,东流德小学变压器,0012891920杜村西区变压器,杜村中区变压器,牛堡内东2区变压器,东流德南2区变压器,0000005856南洪德统管农灌变压器,0000005387牛堡内南区变压器,0000006820慈顺东区变压器,0000005445南洪德南区变压器,0000006857南洪德北2区变压器,东诸侯新增配电变压器,0014418537南洪德南2区变压器,0012743367南洪德西区变压器,南洪德中学变压器,0000005486文德东区变压器,0012430770牛堡内中区变压器,慈顺小学1变压器,0012551388慈顺农2号变压器,北洪德北区变压器,0000006811文德东北区变压器,0013037902文德西农4【纯农排变】,牛堡内西3区变压器,东流德东2变压器,慈顺农灌1变压器,0014100456北洪德新建变压器,南洪德卫生院变压器,慈顺西区变压器,北管头农7变压器,牛堡内明德小学变压器,杜村农2变压器【纯农排变】,0014300455北洪德农4【纯农排变】,0014466780南留营南3区,东流德西区变压器,","scope":"【影响街道/乡镇】燕赵镇、文德乡【高危重要客户】无【影响客户】杜村、慈顺、牛堡内、南洪德、北洪德、文德东村、东诸侯东、东流德","startTime":"2019-09-17 14:00:00","stopDate":"2019-09-17 18:00:00","orgNo":"1340619","typeCode":"其他临时停电","poweroffArea":"【全线路停电】停文德东村农灌,东流德新建变压器,南洪德卫生院变压器,南洪德面粉厂,0000006523北洪德北农2＃变压器,牛堡石碑厂（1）,南洪德王进军,东流德面粉加工厂,0012958944牛堡内农4变压器,牛堡内统管东农变压器【纯农排变】,0000005389牛堡内北区变压器,0000006522南洪德东农变压器,牛堡内西3区变压器,0000006655杜村北农变压器,0014100457东流德,南洪德中学2变压器,慈顺南区变压器,杜村小学变压器,东流德农灌（王义苍）1号,东流德农灌（王义苍）3号,东流德农灌（王义苍）2号,南洪德中学1变压器,曲阳县盛达石材雕刻厂变压器,南洪德农3变压器【纯农排变】,杨顺民,0000005486文德东区变压器,0014300455北洪德农4【纯农排变】,慈顺南农灌(焦国庄),0014466780南留营南3区,东流德西区变压器,南洪德村委会农（1）,0000005338北洪德变压器,0000006525北洪德北农1＃变压器,慈顺西区变压器,慈顺面粉厂,北管头农7变压器,慈顺北农灌,河北省曲阳县清凉庵变压器,南洪德王天昆面粉厂,0012735063牛堡内农3变压器【纯农排变】,0000006653文德西村农1#|变压器【纯农排变】,甄志杰变压器,牛堡内明德小学变压器,杜村农2变压器【纯农排变】,0553463387-曲阳县东流德村农灌-专变-66255832-曲阳县文德乡东流德村变压器,0012230603东流德统管农1号变压器,南洪德小学变压器,0000007163牛堡内西2区增容变压器,慈顺小学变压器,0012883929文德东2区变压器,南洪德农灌1变压器【纯农排变】,0000006652慈顺东农变压器【纯农排变】,0000006436杜村统管南农变压器,0014098168慈顺变压器,0000005452南洪德北区变压器,0000005343杜村变压器【纯农排变】,0013037895文德西农3【纯农排变】,文德乡刘堡内昌顺面粉厂,洪德幼儿园变压器,东流德东3区变压器,0000005388牛堡内西区变压器,东流德面粉加工厂2,牛堡内农5变压器,0000006088杜村农灌变压器,文德东3变压器,0000006417牛堡内统管东农2#变压器【纯农排变】,南洪德西2区变压器,0000006842东诸侯东区变压器,慈顺东农灌(焦立明)变压器,0012891918慈顺北2变压器,南洪德农4变压器【纯农排变】,曲阳县洪德免烧砖厂,0000005386牛堡内东区变压器,南洪德农灌2变压器【纯农排变】,0014100458南洪德,0012430770牛堡内中区变压器,慈顺小学1变压器,0000006654文德西村农2#|变压器【纯农排变】,0012551388慈顺农2号变压器,曲阳县南洪德大和水果储存冷库变压器,0000005448东流德东区变压器,北洪德北区变压器,0000006811文德东北区变压器,0000005447东流德南区,0013037902文德西农4【纯农排变】,东流德东2变压器,慈顺农灌1变压器,0014100456北洪德新建变压器,0000005406慈顺村北区变压器,东流德小学变压器,0012891920杜村西区变压器,杜村中区变压器,牛堡内东2区变压器,东流德南2区变压器,0000005856南洪德统管农灌变压器,0000005387牛堡内南区变压器,0000006820慈顺东区变压器,0000005445南洪德南区变压器,0000006857南洪德北2区变压器,东诸侯新增配电变压器,0014418537南洪德南2区变压器,0012743367南洪德西区变压器,0012735871北洪德农3变压器,0000005855西流德统管农灌变压器【纯农排变】,0000005854牛堡内统管南农变压器,南洪德中学变压器","poweroffReason":"【停电原因】由于站内开关的操作机构严重缺陷，需停电进行紧急消缺导致３５ＫＶ管头变电站１０ＫＶ５１４洪德线路全线停电【变更送电】因工作进度加快原因，送电时间由２０:００变更为１８:００【发布渠道】通过９５５９８发布","powerTime":"2019-09-17 17:36:20","powerComm":"已送电","subsNo":"","lineNo":"","tgNo":"","tgName":null,"infoStatus":"1","orgName":"国网曲阳县供电公司","typeName":null,"infoStatusName":null,"dateDay":null,"orgNos":null,"nowTime":null,"countyName":null,"streetName":null,"villageName":null,"roadName":null,"communityName":null,"tranName":null,"sdLineName":null,"cityCode":"1340619","cityName":"国网曲阳县供电公司","provinceCode":null,"stopTime":"2019-09-17 18:00:00","powerType":"全部","powerOffArea":"【全线路停电】停文德东村农灌,东流德新建变压器,南洪德卫生院变压器,南洪德面粉厂,0000006523北洪德北农2＃变压器,牛堡石碑厂（1）,南洪德王进军,东流德面粉加工厂,0012958944牛堡内农4变压器,牛堡内统管东农变压器【纯农排变】,0000005389牛堡内北区变压器,0000006522南洪德东农变压器,牛堡内西3区变压器,0000006655杜村北农变压器,0014100457东流德,南洪德中学2变压器,慈顺南区变压器,杜村小学变压器,东流德农灌（王义苍）1号,东流德农灌（王义苍）3号,东流德农灌（王义苍）2号,南洪德中学1变压器,曲阳县盛达石材雕刻厂变压器,南洪德农3变压器【纯农排变】,杨顺民,0000005486文德东区变压器,0014300455北洪德农4【纯农排变】,慈顺南农灌(焦国庄),0014466780南留营南3区,东流德西区变压器,南洪德村委会农（1）,0000005338北洪德变压器,0000006525北洪德北农1＃变压器,慈顺西区变压器,慈顺面粉厂,北管头农7变压器,慈顺北农灌,河北省曲阳县清凉庵变压器,南洪德王天昆面粉厂,0012735063牛堡内农3变压器【纯农排变】,0000006653文德西村农1#|变压器【纯农排变】,甄志杰变压器,牛堡内明德小学变压器,杜村农2变压器【纯农排变】,0553463387-曲阳县东流德村农灌-专变-66255832-曲阳县文德乡东流德村变压器,0012230603东流德统管农1号变压器,南洪德小学变压器,0000007163牛堡内西2区增容变压器,慈顺小学变压器,0012883929文德东2区变压器,南洪德农灌1变压器【纯农排变】,0000006652慈顺东农变压器【纯农排变】,0000006436杜村统管南农变压器,0014098168慈顺变压器,0000005452南洪德北区变压器,0000005343杜村变压器【纯农排变】,0013037895文德西农3【纯农排变】,文德乡刘堡内昌顺面粉厂,洪德幼儿园变压器,东流德东3区变压器,0000005388牛堡内西区变压器,东流德面粉加工厂2,牛堡内农5变压器,0000006088杜村农灌变压器,文德东3变压器,0000006417牛堡内统管东农2#变压器【纯农排变】,南洪德西2区变压器,0000006842东诸侯东区变压器,慈顺东农灌(焦立明)变压器,0012891918慈顺北2变压器,南洪德农4变压器【纯农排变】,曲阳县洪德免烧砖厂,0000005386牛堡内东区变压器,南洪德农灌2变压器【纯农排变】,0014100458南洪德,0012430770牛堡内中区变压器,慈顺小学1变压器,0000006654文德西村农2#|变压器【纯农排变】,0012551388慈顺农2号变压器,曲阳县南洪德大和水果储存冷库变压器,0000005448东流德东区变压器,北洪德北区变压器,0000006811文德东北区变压器,0000005447东流德南区,0013037902文德西农4【纯农排变】,东流德东2变压器,慈顺农灌1变压器,0014100456北洪德新建变压器,0000005406慈顺村北区变压器,东流德小学变压器,0012891920杜村西区变压器,杜村中区变压器,牛堡内东2区变压器,东流德南2区变压器,0000005856南洪德统管农灌变压器,0000005387牛堡内南区变压器,0000006820慈顺东区变压器,0000005445南洪德南区变压器,0000006857南洪德北2区变压器,东诸侯新增配电变压器,0014418537南洪德南2区变压器,0012743367南洪德西区变压器,0012735871北洪德农3变压器,0000005855西流德统管农灌变压器【纯农排变】,0000005854牛堡内统管南农变压器,南洪德中学变压器","powerOffReason":"【停电原因】由于站内开关的操作机构严重缺陷，需停电进行紧急消缺导致３５ＫＶ管头变电站１０ＫＶ５１４洪德线路全线停电【变更送电】因工作进度加快原因，送电时间由２０:００变更为１８:００【发布渠道】通过９５５９８发布","powerOffId":"2019091713000079"},{"poweroffId":2019091713000040,"sgpoweroffId":null,"subsName":"","lineName":"10kV孙村东路线561","pubTranName":"1大侯村内5,大侯村内3,1大侯村内14,1大侯村内13,","scope":"【影响街道/乡镇】孙村乡 【高危重要客户】无 【影响客户】大侯村","startTime":"2019-09-19 05:00:00","stopDate":"2019-09-19 18:00:00","orgNo":"1340618","typeCode":"临时停电","poweroffArea":"【分支停电】停1大侯村内13,1大侯村内5,大侯村内3,1大侯村内14","poweroffReason":"【停电原因】由于大侯村配变低压改造工程导致１０ＫＶ戎官营开关变电站１０ＫＶ孙村东路线５６１线路主干５１号杆南分支１２号杆至１８号杆停电 【变更送电】无 【发布渠道】通过９５５９８发布","powerTime":"2019-09-19 17:45:34","powerComm":"许江红通知已送电","subsNo":"","lineNo":"","tgNo":"","tgName":null,"infoStatus":"1","orgName":"国网清苑县供电公司","typeName":null,"infoStatusName":null,"dateDay":null,"orgNos":null,"nowTime":null,"countyName":null,"streetName":null,"villageName":null,"roadName":null,"communityName":null,"tranName":null,"sdLineName":null,"cityCode":"1340618","cityName":"国网清苑县供电公司","provinceCode":null,"stopTime":"2019-09-19 18:00:00","powerType":"全部","powerOffArea":"【分支停电】停1大侯村内13,1大侯村内5,大侯村内3,1大侯村内14","powerOffReason":"【停电原因】由于大侯村配变低压改造工程导致１０ＫＶ戎官营开关变电站１０ＫＶ孙村东路线５６１线路主干５１号杆南分支１２号杆至１８号杆停电 【变更送电】无 【发布渠道】通过９５５９８发布","powerOffId":"2019091713000040"},{"poweroffId":2019091713000030,"sgpoweroffId":null,"subsName":"","lineName":"双河庄512","pubTranName":"双峰2#,","scope":"【影响街道/乡镇】富岗乡【高危重要客户】无【影响客户】双峰村","startTime":"2019-09-17 08:50:02","stopDate":"2019-09-17 10:30:00","orgNo":"1340625","typeCode":"电网故障停限电","poweroffArea":"【单台区停电】停双峰2#","poweroffReason":"【停电原因】由于集中器损坏导致３５ＫＶ双峰变电站双河庄５１２线路双峰村２＃公变台区停电【变更送电】无【发布渠道】通过９５５９８发布","powerTime":"2019-09-17 09:54:24","powerComm":"已送电","subsNo":"","lineNo":"","tgNo":"","tgName":null,"infoStatus":"1","orgName":"国网易县供电公司","typeName":null,"infoStatusName":null,"dateDay":null,"orgNos":null,"nowTime":null,"countyName":null,"streetName":null,"villageName":null,"roadName":null,"communityName":null,"tranName":null,"sdLineName":null,"cityCode":"1340625","cityName":"国网易县供电公司","provinceCode":null,"stopTime":"2019-09-17 10:30:00","powerType":"全部","powerOffArea":"【单台区停电】停双峰2#","powerOffReason":"【停电原因】由于集中器损坏导致３５ＫＶ双峰变电站双河庄５１２线路双峰村２＃公变台区停电【变更送电】无【发布渠道】通过９５５９８发布","powerOffId":"2019091713000030"},{"poweroffId":2019091713000011,"sgpoweroffId":null,"subsName":"","lineName":"10kV南郊站514线路","pubTranName":"C285柱上变压器,","scope":"【影响街道/乡镇】于家庄乡 【高危重要客户】无 【影响客户】郭村","startTime":"2019-09-17 06:00:00","stopDate":"2019-09-17 18:00:00","orgNo":"13406","typeCode":"电网故障停限电","poweroffArea":"【单台区停电】停C285柱上变压器","poweroffReason":"【停电原因】由于低压刀闸烧导致１０ＫＶ南郊变电站５１４线路Ｃ２８５公变台区停电【变更送电】无【发布渠道】通过９５５９８发布","powerTime":"2019-09-17 17:48:58","powerComm":"已送电","subsNo":"","lineNo":"","tgNo":"","tgName":null,"infoStatus":"1","orgName":"保定供电公司","typeName":null,"infoStatusName":null,"dateDay":null,"orgNos":null,"nowTime":null,"countyName":null,"streetName":null,"villageName":null,"roadName":null,"communityName":null,"tranName":null,"sdLineName":null,"cityCode":"13406","cityName":"保定供电公司","provinceCode":null,"stopTime":"2019-09-17 18:00:00","powerType":"全部","powerOffArea":"【单台区停电】停C285柱上变压器","powerOffReason":"【停电原因】由于低压刀闸烧导致１０ＫＶ南郊变电站５１４线路Ｃ２８５公变台区停电【变更送电】无【发布渠道】通过９５５９８发布","powerOffId":"2019091713000011"},{"poweroffId":2019091613000213,"sgpoweroffId":null,"subsName":"","lineName":"索庄562线路","pubTranName":"林水1号变压器,林水供15号变压器【纯农排变】,田庄供54号变压器,林水供8号变压器,田庄2号变压器,林水供156号变压器,","scope":"【影响街道/乡镇】崔庄镇 【高危重要客户】无 【影响客户】李庄、林水、王铁庄、田庄、索庄","startTime":"2019-09-16 21:40:50","stopDate":"2019-09-17 01:00:00","orgNo":"1340605","typeCode":"电网故障停限电","poweroffArea":"【全线路停电】停保定市徐水区保磊建材经销处,李庄供137号变压器【纯农排变】,保定市徐水区崔庄镇林水小学,李庄供49号变压器,李庄3号变压器,索庄1号变压器【纯农排变】,河北省高速公路禄发实业总公司崔庄服务区,田庄2号变压器,林水供48号变压器,林水供156号变压器,李庄5号变压器【纯农排变】,田庄供55号变压器,林水10号变压器,保定市徐水区崔庄镇王铁庄幼儿园,田庄供16号变压器,李庄田庄合用变压器,田庄供133号变压器,田庄供18号变压器,保定市徐水区帮农农资经销处,田庄供72号变压器,林水供135号变压器,林水11号变压器【纯农排变】,林水供8号变压器,田庄供73号变压器【纯农排变】,林水8号变压器,北徐城6号,林水供104号变压器【纯农排变】,田庄供12号变压器,林水4号变压器,林水供15号变压器【纯农排变】,李庄供68号变压器,田庄供54号变压器,王铁庄供112号变压器【纯农排变】,李庄1号变压器,田庄供136号变压器【纯农排变】,林水供14号变压器,王铁庄供98号变压器,田庄1号变压器,徐水县东升铸造厂,田庄7号变压器,田庄供134号变压器,林水供109 号变压器,田庄与李庄合用变压器,徐水县树海配件加工厂,徐水县建工商品混凝土有限公司,田庄6号变压器,林水供92号变压器,林水7号变压器,0683975800-徐水县树海液压机械配件加工厂-专变-223583804-徐水县树海液压机械配件加工厂变压器,北徐城4号,津保高速公路徐水服务站,田庄供148号变压器,索庄供139号变压器,田庄供11号变压器,王铁庄1号变压器,林水供122号变压器,林水供121 号变压器【纯农排变】,索庄2号变压器,林水供80号变压器,田庄5号变压器,林水9号变压器,田庄供74变压器【纯农排变】,李庄2号变压器【纯农排变】,林水2号变压器,河北亮剑金属制品有限公司,索庄供30号变压器,索庄供120号变压器,田庄供93号变压器,田庄3号变压器,林水1号变压器,林水杨同春面粉厂(原林水3号),林水砖厂1号,林水供66号变压器,林水砖厂2号,林水供138号变压器,保定彭泽水泥制品有限公司,徐水县万顺塑钢门窗厂配变,李庄供144号变压器,王铁庄2号变压器,王铁庄供79号变压器,田庄4号变压器,林水12号变压器【纯农排变】,林水供71号变压器,索庄供107号变压器,林水5号变压器【纯农排变】,田庄8号变压器,田庄供105号变压器","poweroffReason":"【停电原因】由于Ｂ相接地导致１１０ＫＶ沙口变电站索庄５６２线路全线停电 【变更送电】因抢修进度加快原因，送电时间由０９:００变更为０１:００ 【发布渠道】通过９５５９８发布","powerTime":"2019-09-17 00:45:35","powerComm":"已送电","subsNo":"","lineNo":"","tgNo":"","tgName":null,"infoStatus":"1","orgName":"国网徐水县供电公司","typeName":null,"infoStatusName":null,"dateDay":null,"orgNos":null,"nowTime":null,"countyName":null,"streetName":null,"villageName":null,"roadName":null,"communityName":null,"tranName":null,"sdLineName":null,"cityCode":"1340605","cityName":"国网徐水县供电公司","provinceCode":null,"stopTime":"2019-09-17 01:00:00","powerType":"全部","powerOffArea":"【全线路停电】停保定市徐水区保磊建材经销处,李庄供137号变压器【纯农排变】,保定市徐水区崔庄镇林水小学,李庄供49号变压器,李庄3号变压器,索庄1号变压器【纯农排变】,河北省高速公路禄发实业总公司崔庄服务区,田庄2号变压器,林水供48号变压器,林水供156号变压器,李庄5号变压器【纯农排变】,田庄供55号变压器,林水10号变压器,保定市徐水区崔庄镇王铁庄幼儿园,田庄供16号变压器,李庄田庄合用变压器,田庄供133号变压器,田庄供18号变压器,保定市徐水区帮农农资经销处,田庄供72号变压器,林水供135号变压器,林水11号变压器【纯农排变】,林水供8号变压器,田庄供73号变压器【纯农排变】,林水8号变压器,北徐城6号,林水供104号变压器【纯农排变】,田庄供12号变压器,林水4号变压器,林水供15号变压器【纯农排变】,李庄供68号变压器,田庄供54号变压器,王铁庄供112号变压器【纯农排变】,李庄1号变压器,田庄供136号变压器【纯农排变】,林水供14号变压器,王铁庄供98号变压器,田庄1号变压器,徐水县东升铸造厂,田庄7号变压器,田庄供134号变压器,林水供109 号变压器,田庄与李庄合用变压器,徐水县树海配件加工厂,徐水县建工商品混凝土有限公司,田庄6号变压器,林水供92号变压器,林水7号变压器,0683975800-徐水县树海液压机械配件加工厂-专变-223583804-徐水县树海液压机械配件加工厂变压器,北徐城4号,津保高速公路徐水服务站,田庄供148号变压器,索庄供139号变压器,田庄供11号变压器,王铁庄1号变压器,林水供122号变压器,林水供121 号变压器【纯农排变】,索庄2号变压器,林水供80号变压器,田庄5号变压器,林水9号变压器,田庄供74变压器【纯农排变】,李庄2号变压器【纯农排变】,林水2号变压器,河北亮剑金属制品有限公司,索庄供30号变压器,索庄供120号变压器,田庄供93号变压器,田庄3号变压器,林水1号变压器,林水杨同春面粉厂(原林水3号),林水砖厂1号,林水供66号变压器,林水砖厂2号,林水供138号变压器,保定彭泽水泥制品有限公司,徐水县万顺塑钢门窗厂配变,李庄供144号变压器,王铁庄2号变压器,王铁庄供79号变压器,田庄4号变压器,林水12号变压器【纯农排变】,林水供71号变压器,索庄供107号变压器,林水5号变压器【纯农排变】,田庄8号变压器,田庄供105号变压器","powerOffReason":"【停电原因】由于Ｂ相接地导致１１０ＫＶ沙口变电站索庄５６２线路全线停电 【变更送电】因抢修进度加快原因，送电时间由０９:００变更为０１:００ 【发布渠道】通过９５５９８发布","powerOffId":"2019091613000213"},{"poweroffId":2019091613000209,"sgpoweroffId":null,"subsName":"","lineName":"10kV570达子庄线","pubTranName":"赵村公用农业1台区【纯农排变】,定州市宏信冲压件有限公司变压器,定州市银铝混凝土制造有限公司变压器,中建路桥集团有限公司变压器,达子庄公用农业6台区【纯农排变】,定州市庞村镇西坂村村民委员会,定州市恒泰汽车配件厂变压器,庄头公用农业8台区【纯农排变】,定州市金立教学器材有限公司变压器,达子庄公用农业5台区【纯农排变】,定州市庞村镇西坂村村民委员会变压器,定州市庄头木材加工厂,定州市硕愿编织袋厂变压器,韩家庄公用农业8台区【纯农排变】,定州市腾越汽车车身制造有限公司变压器,庄头公用农业15台区【纯农排变】,定州市利生体育用品有限公司变压器,大流公用农业7台区【纯农排变】,定州市庞村镇西板村委会,0593173336-定州市庞村镇西坂村民委员会-专变-125829040-定州市庞村镇西坂村民委员会变压器,刘家庄公用农业6台区1【纯农排变】,达子庄公用农业2台区【纯农排变】,河北奥力体育用品有限公司变压器,大流农开办,大流公用照明1台区,达子庄公用农业9台区【纯农排变】,庄头村公用农业11台区【纯农排变】,达子庄公用农业11台区【纯农排变】,客户投资_刘家庄公用照明1台区,达子庄公用农业10台区【纯农排变】,定州市力增混凝土有限公司变压器,0636071203-定州市庞村镇西坂村民委员会-专变-148187317-定州市庞村镇西坂村村民委员会变压器,庄头村公用农业10台区【纯农排变】,大流公用农业1台区【纯农排变】,庄头村公用农业1台区【纯农排变】,达子庄公用农业1台区【纯农排变】,保定嘉业混凝土搅拌有限公司,刘家庄公用农业7台区1【纯农排变】,定州市中标节能技术服务有限公司变压器,定州市庞村镇西坂村民委员会变压器,达子庄公用农业3台区【纯农排变】,韩家庄公用农业9台区【纯农排变】,0593173336-定州市庞村镇西坂村民委员会-专变-125831351-定州市庞村镇西坂村民委员会变压器,韩家庄公用农业1台区【纯农排变】,张士龙,庄头公用农业13台区【纯农排变】,庄头公用农业5台区【纯农排变】,庄头公用照明3台区,庄头公用农业4台区【纯农排变】,西板村外七号,定州市利生体育用品有限公司,0593173336-定州市庞村镇西坂村民委员会-专变-125831271-定州市庞村镇西坂村民委员会变压器,定州金安通商贸有限公司变压器,大流公用农业6台区【纯农排变】,0593173336-定州市庞村镇西坂村民委员会-专变-125828305-定州市庞村镇西坂村民委员会变压器,西板村外九号,西板村外八号,燕东化工有限公司,庄头村公用农业7台区【纯农排变】,庄头公用农业12台区【纯农排变】,刘家庄公用农业1台区【纯农排变】,庄头村公用照明2台区,河北中山体育用品有限公司,大流公用农业8台区【纯农排变】,达子庄公用农业7台区【纯农排变】,庄头公用农业6台区【纯农排变】,0387393809-河北金特力斯体育设施有限公司-专变-123950371-定州市金特力斯体育设施有限公司变压器,定州市宏信冲压件有限公司,0387394336-西板外(一二)-专变-45252293-西坂外（一二）,0387394495-西坂沙厂-专变-45252292-","scope":"【影响街道/乡镇】赵村乡、庞村镇【高危重要客户】无【影响客户】庄头、大流、达子庄、刘家庄、韩家庄、西坂新民居、幸福新村","startTime":"2019-09-17 05:30:00","stopDate":"2019-09-17 18:00:00","orgNo":"1340610","typeCode":"其他临时停电","poweroffArea":"【全线路停电】停赵村公用农业1台区【纯农排变】,定州市宏信冲压件有限公司变压器,达子庄公用农业6台区【纯农排变】,定州市庞村镇西坂村村民委员会,定州市恒泰汽车配件厂变压器,庄头公用农业8台区【纯农排变】,定州市金立教学器材有限公司变压器,达子庄公用农业5台区【纯农排变】,定州市庞村镇西坂村村民委员会变压器,定州市庄头木材加工厂,定州市硕愿编织袋厂变压器,韩家庄公用农业8台区【纯农排变】,定州市腾越汽车车身制造有限公司变压器,庄头公用农业15台区【纯农排变】,定州市利生体育用品有限公司变压器,大流公用农业7台区【纯农排变】,定州市庞村镇西板村委会,0593173336-定州市庞村镇西坂村民委员会-专变-125829040-定州市庞村镇西坂村民委员会变压器,刘家庄公用农业6台区1【纯农排变】,达子庄公用农业2台区【纯农排变】,河北奥力体育用品有限公司变压器,大流农开办,大流公用照明1台区,达子庄公用农业9台区【纯农排变】,庄头村公用农业11台区【纯农排变】,达子庄公用农业11台区【纯农排变】,客户投资_刘家庄公用照明1台区,达子庄公用农业10台区【纯农排变】,定州市力增混凝土有限公司变压器,0636071203-定州市庞村镇西坂村民委员会-专变-148187317-定州市庞村镇西坂村村民委员会变压器,庄头村公用农业10台区【纯农排变】,大流公用农业1台区【纯农排变】,庄头村公用农业1台区【纯农排变】,达子庄公用农业1台区【纯农排变】,保定嘉业混凝土搅拌有限公司,刘家庄公用农业7台区1【纯农排变】,定州市中标节能技术服务有限公司变压器,定州市庞村镇西坂村民委员会变压器,达子庄公用农业3台区【纯农排变】,韩家庄公用农业9台区【纯农排变】,0593173336-定州市庞村镇西坂村民委员会-专变-125831351-定州市庞村镇西坂村民委员会变压器,韩家庄公用农业1台区【纯农排变】,张士龙,定州市银铝混凝土制造有限公司变压器,中建路桥集团有限公司变压器,庄头公用农业13台区【纯农排变】,庄头公用农业5台区【纯农排变】,庄头公用照明3台区,庄头公用农业4台区【纯农排变】,西板村外七号,定州市利生体育用品有限公司,0593173336-定州市庞村镇西坂村民委员会-专变-125831271-定州市庞村镇西坂村民委员会变压器,定州金安通商贸有限公司变压器,大流公用农业6台区【纯农排变】,0593173336-定州市庞村镇西坂村民委员会-专变-125828305-定州市庞村镇西坂村民委员会变压器,西板村外九号,西板村外八号,燕东化工有限公司,庄头村公用农业7台区【纯农排变】,庄头公用农业12台区【纯农排变】,刘家庄公用农业1台区【纯农排变】,庄头村公用照明2台区,河北中山体育用品有限公司,大流公用农业8台区【纯农排变】,达子庄公用农业7台区【纯农排变】,庄头公用农业6台区【纯农排变】,0387393809-河北金特力斯体育设施有限公司-专变-123950371-定州市金特力斯体育设施有限公司变压器,定州市宏信冲压件有限公司,0387394336-西板外(一二)-专变-45252293-西坂外（一二）,0387394495-西坂沙厂-专变-45252292-西坂沙厂,庄头村公用农业14台区【纯农排变】,达子庄公用农业4台区【纯农排变】,大流公用农业5台区【纯农排变】,大流公用农业3台区【纯农排变】,刘家庄公用照明2台区,河北双月保温材料有限公司变压器,刘家庄公用农业5台区1【纯农排变】,庄头公用照明1台区,刘家庄公用农业4台区【纯农排变】,大流公用照明3台区,河北拓宇公路工程有限公司,刘家庄公用农业3台区【纯农排变】,庄头公用农业9台区【纯农排变】,西板沙场,刘家庄公","poweroffReason":"【停电原因】由于弓子线打火需停电进行紧急检修导致１１０ＫＶ焦化厂变电站１０ＫＶ５７０达子庄线路全线停电 【变更送电】无 【发布渠道】９５５９８","powerTime":"2019-09-17 17:37:34","powerComm":"已送电","subsNo":"","lineNo":"","tgNo":"","tgName":null,"infoStatus":"1","orgName":"国网定州市供电公司","typeName":null,"infoStatusName":null,"dateDay":null,"orgNos":null,"nowTime":null,"countyName":null,"streetName":null,"villageName":null,"roadName":null,"communityName":null,"tranName":null,"sdLineName":null,"cityCode":"1340610","cityName":"国网定州市供电公司","provinceCode":null,"stopTime":"2019-09-17 18:00:00","powerType":"全部","powerOffArea":"【全线路停电】停赵村公用农业1台区【纯农排变】,定州市宏信冲压件有限公司变压器,达子庄公用农业6台区【纯农排变】,定州市庞村镇西坂村村民委员会,定州市恒泰汽车配件厂变压器,庄头公用农业8台区【纯农排变】,定州市金立教学器材有限公司变压器,达子庄公用农业5台区【纯农排变】,定州市庞村镇西坂村村民委员会变压器,定州市庄头木材加工厂,定州市硕愿编织袋厂变压器,韩家庄公用农业8台区【纯农排变】,定州市腾越汽车车身制造有限公司变压器,庄头公用农业15台区【纯农排变】,定州市利生体育用品有限公司变压器,大流公用农业7台区【纯农排变】,定州市庞村镇西板村委会,0593173336-定州市庞村镇西坂村民委员会-专变-125829040-定州市庞村镇西坂村民委员会变压器,刘家庄公用农业6台区1【纯农排变】,达子庄公用农业2台区【纯农排变】,河北奥力体育用品有限公司变压器,大流农开办,大流公用照明1台区,达子庄公用农业9台区【纯农排变】,庄头村公用农业11台区【纯农排变】,达子庄公用农业11台区【纯农排变】,客户投资_刘家庄公用照明1台区,达子庄公用农业10台区【纯农排变】,定州市力增混凝土有限公司变压器,0636071203-定州市庞村镇西坂村民委员会-专变-148187317-定州市庞村镇西坂村村民委员会变压器,庄头村公用农业10台区【纯农排变】,大流公用农业1台区【纯农排变】,庄头村公用农业1台区【纯农排变】,达子庄公用农业1台区【纯农排变】,保定嘉业混凝土搅拌有限公司,刘家庄公用农业7台区1【纯农排变】,定州市中标节能技术服务有限公司变压器,定州市庞村镇西坂村民委员会变压器,达子庄公用农业3台区【纯农排变】,韩家庄公用农业9台区【纯农排变】,0593173336-定州市庞村镇西坂村民委员会-专变-125831351-定州市庞村镇西坂村民委员会变压器,韩家庄公用农业1台区【纯农排变】,张士龙,定州市银铝混凝土制造有限公司变压器,中建路桥集团有限公司变压器,庄头公用农业13台区【纯农排变】,庄头公用农业5台区【纯农排变】,庄头公用照明3台区,庄头公用农业4台区【纯农排变】,西板村外七号,定州市利生体育用品有限公司,0593173336-定州市庞村镇西坂村民委员会-专变-125831271-定州市庞村镇西坂村民委员会变压器,定州金安通商贸有限公司变压器,大流公用农业6台区【纯农排变】,0593173336-定州市庞村镇西坂村民委员会-专变-125828305-定州市庞村镇西坂村民委员会变压器,西板村外九号,西板村外八号,燕东化工有限公司,庄头村公用农业7台区【纯农排变】,庄头公用农业12台区【纯农排变】,刘家庄公用农业1台区【纯农排变】,庄头村公用照明2台区,河北中山体育用品有限公司,大流公用农业8台区【纯农排变】,达子庄公用农业7台区【纯农排变】,庄头公用农业6台区【纯农排变】,0387393809-河北金特力斯体育设施有限公司-专变-123950371-定州市金特力斯体育设施有限公司变压器,定州市宏信冲压件有限公司,0387394336-西板外(一二)-专变-45252293-西坂外（一二）,0387394495-西坂沙厂-专变-45252292-西坂沙厂,庄头村公用农业14台区【纯农排变】,达子庄公用农业4台区【纯农排变】,大流公用农业5台区【纯农排变】,大流公用农业3台区【纯农排变】,刘家庄公用照明2台区,河北双月保温材料有限公司变压器,刘家庄公用农业5台区1【纯农排变】,庄头公用照明1台区,刘家庄公用农业4台区【纯农排变】,大流公用照明3台区,河北拓宇公路工程有限公司,刘家庄公用农业3台区【纯农排变】,庄头公用农业9台区【纯农排变】,西板沙场,刘家庄公","powerOffReason":"【停电原因】由于弓子线打火需停电进行紧急检修导致１１０ＫＶ焦化厂变电站１０ＫＶ５７０达子庄线路全线停电 【变更送电】无 【发布渠道】９５５９８","powerOffId":"2019091613000209"},{"poweroffId":2019091613000207,"sgpoweroffId":null,"subsName":"","lineName":"10kV打油庄线511","pubTranName":"1南闫庄内5,","scope":"【影响街道/乡镇】闫庄乡 【高危重要客户】无 【影响客户】南闫庄","startTime":"2019-09-16 20:17:26","stopDate":"2019-09-16 21:30:00","orgNo":"1340618","typeCode":"电网故障停限电","poweroffArea":"【单台区停电】停1南闫庄内5","poweroffReason":"【停电原因】由于接户线烧毁导致３５ＫＶ沙堤营变电站１０ＫＶ打油庄线５１１线路１南闫庄内５号公变台区停电 【变更送电】无 【发布渠道】通过９５５９８发布","powerTime":"2019-09-16 20:59:00","powerComm":"陈云涛通知已送电","subsNo":"","lineNo":"","tgNo":"","tgName":null,"infoStatus":"1","orgName":"国网清苑县供电公司","typeName":null,"infoStatusName":null,"dateDay":null,"orgNos":null,"nowTime":null,"countyName":null,"streetName":null,"villageName":null,"roadName":null,"communityName":null,"tranName":null,"sdLineName":null,"cityCode":"1340618","cityName":"国网清苑县供电公司","provinceCode":null,"stopTime":"2019-09-16 21:30:00","powerType":"全部","powerOffArea":"【单台区停电】停1南闫庄内5","powerOffReason":"【停电原因】由于接户线烧毁导致３５ＫＶ沙堤营变电站１０ＫＶ打油庄线５１１线路１南闫庄内５号公变台区停电 【变更送电】无 【发布渠道】通过９５５９８发布","powerOffId":"2019091613000207"},{"poweroffId":2019091613000202,"sgpoweroffId":null,"subsName":"","lineName":"南梨园561线路","pubTranName":"小辛庄7号,三岔口14号【纯农排变】,小辛庄2号,南梨园8号,南徐城8号,","scope":"【影响街道/乡镇】安肃镇 【高危重要客户】无 【影响客户】南徐城、三岔口、菱角桥、小辛庄、南梨园","startTime":"2019-09-16 19:15:03","stopDate":"2019-09-17 01:00:00","orgNo":"1340605","typeCode":"电网故障停限电","poweroffArea":"【全线路停电】停南徐城4号,三岔口25号,三岔口14号【纯农排变】,菱角桥6号,南梨园1号,小辛庄3号,三岔口13号,南梨园8号,南梨园5号【纯农排变】,小辛庄5号,保定市徐水区兄弟工程机械配件门市部,南徐城8号,徐水县庆大汽车配件经销处,南徐城6号,三岔口4号【纯农排变】,三岔口19号,三岔口17号,三岔口18号,菱角桥8号,保定天力金属结构有限公司,三岔口26号,南徐城10号,三岔口24号,南梨园3号,保定神骏运输设备有限公司受电点,三岔口16号,三岔口15号,三岔口10号【纯农排变】,菱角桥9号,南徐城2号,小辛庄6号,菱角桥3号,徐水基地处机厂小区5号变,菱角桥10号,徐水基地处机厂小区6号变,小辛庄2号,徐水县日力吊索具有限公司,菱角桥（供电所1号）,南徐城5号,徐水基地处机厂小区3号变,三岔口23号,小辛庄1号【纯农排变】,南徐城3号,保定市徐水区会通天然石材经销处,三岔口9号,0682550392-保定市徐水区迎新工程机械设备租赁处-专变-221690360-保定市徐水区迎新工程机械设备租赁处,保定市徐水区安肃镇三岔口小学,三岔口2号,三岔口22号,南梨园分箱(三岔口5号)变压器,菱角桥7号,三岔口7号,南梨园2号,南徐城7号,徐水基地处机厂小区4号变,三岔口21号,南徐城1号,三岔口1号,南徐城9号,小辛庄7号,徐水基地处机厂小区1号变,三岔口轧钢厂2号,菱角桥2号【纯农排变】,八四农机站,三岔口6号,三岔口8号,南梨园6号,南梨园4号,三岔口12号,小辛庄4号,徐水基地处机厂小区2号变,三岔口3号,三岔口20号,南梨园7号,菱角桥5号,河北驰力电机制造有限公司,菱角桥1号","poweroffReason":"【停电原因】由于Ｂ相接地导致１１０ＫＶ沙口变电站南梨园５６１线路全线停电 【变更送电】因抢修进度加快原因，送电时间由０９:００变更为０１:００ 【发布渠道】通过９５５９８发布","powerTime":"2019-09-17 00:46:27","powerComm":"已送电","subsNo":"","lineNo":"","tgNo":"","tgName":null,"infoStatus":"1","orgName":"国网徐水县供电公司","typeName":null,"infoStatusName":null,"dateDay":null,"orgNos":null,"nowTime":null,"countyName":null,"streetName":null,"villageName":null,"roadName":null,"communityName":null,"tranName":null,"sdLineName":null,"cityCode":"1340605","cityName":"国网徐水县供电公司","provinceCode":null,"stopTime":"2019-09-17 01:00:00","powerType":"全部","powerOffArea":"【全线路停电】停南徐城4号,三岔口25号,三岔口14号【纯农排变】,菱角桥6号,南梨园1号,小辛庄3号,三岔口13号,南梨园8号,南梨园5号【纯农排变】,小辛庄5号,保定市徐水区兄弟工程机械配件门市部,南徐城8号,徐水县庆大汽车配件经销处,南徐城6号,三岔口4号【纯农排变】,三岔口19号,三岔口17号,三岔口18号,菱角桥8号,保定天力金属结构有限公司,三岔口26号,南徐城10号,三岔口24号,南梨园3号,保定神骏运输设备有限公司受电点,三岔口16号,三岔口15号,三岔口10号【纯农排变】,菱角桥9号,南徐城2号,小辛庄6号,菱角桥3号,徐水基地处机厂小区5号变,菱角桥10号,徐水基地处机厂小区6号变,小辛庄2号,徐水县日力吊索具有限公司,菱角桥（供电所1号）,南徐城5号,徐水基地处机厂小区3号变,三岔口23号,小辛庄1号【纯农排变】,南徐城3号,保定市徐水区会通天然石材经销处,三岔口9号,0682550392-保定市徐水区迎新工程机械设备租赁处-专变-221690360-保定市徐水区迎新工程机械设备租赁处,保定市徐水区安肃镇三岔口小学,三岔口2号,三岔口22号,南梨园分箱(三岔口5号)变压器,菱角桥7号,三岔口7号,南梨园2号,南徐城7号,徐水基地处机厂小区4号变,三岔口21号,南徐城1号,三岔口1号,南徐城9号,小辛庄7号,徐水基地处机厂小区1号变,三岔口轧钢厂2号,菱角桥2号【纯农排变】,八四农机站,三岔口6号,三岔口8号,南梨园6号,南梨园4号,三岔口12号,小辛庄4号,徐水基地处机厂小区2号变,三岔口3号,三岔口20号,南梨园7号,菱角桥5号,河北驰力电机制造有限公司,菱角桥1号","powerOffReason":"【停电原因】由于Ｂ相接地导致１１０ＫＶ沙口变电站南梨园５６１线路全线停电 【变更送电】因抢修进度加快原因，送电时间由０９:００变更为０１:００ 【发布渠道】通过９５５９８发布","powerOffId":"2019091613000202"},{"poweroffId":2019091613000156,"sgpoweroffId":null,"subsName":"","lineName":"10kV512周村工业线","pubTranName":"周村公用照明15台区,周村公用照明16台区,","scope":"【影响街道/乡镇】周村乡【高危重要客户】无【影响客户】周村工业园区、周村村南","startTime":"2019-09-17 07:00:00","stopDate":"2019-09-17 19:00:00","orgNo":"1340610","typeCode":"其他临时停电","poweroffArea":"【全线路停电】停周村村南口,杨金恒,定州市国群木器加工厂,齐立宾,陈国群,定州市冀南鞋厂,周村西南,周村公用照明16台区,定州市立宾农机配件厂变压器,李建坡,周村公用照明15台区,定州市鑫峰源塑胶制品厂变压器,周村正南,周村路西,齐立社,张利明,王英军512线,0387430155-杨有伟-专变-45271906-杨有伟,陈金贵,周村粮站,陈建波,陈全贵,定州市杨宏民二厂,定州市周村黑白塑料布厂变压器,陈建良,定州市占秋木器厂,杨振学,杨志军,王俊权,杨云树,杨玖卫,杨会英,杨恩民,陈占秋,杨宝林,齐全占,杨站英,周村西南2,张振杰,周村西南512,张双站,齐永辉,陈满庄,周村东南,0387432917-定州市恒瑞塑业有限公司-专变-217788250-定州市恒瑞塑业有限公司变压器","poweroffReason":"【停电原因】由于电杆倾斜需停电进行紧急检修导致３５ＫＶ周村变电站１０ＫＶ５１２周村工业线路全线停电 【变更送电】因抢修进度加快原因，送电时间由２０：００变更为１９：００ 【发布渠道】９５５９８","powerTime":"2019-09-17 18:31:45","powerComm":"已送电","subsNo":"","lineNo":"","tgNo":"","tgName":null,"infoStatus":"1","orgName":"国网定州市供电公司","typeName":null,"infoStatusName":null,"dateDay":null,"orgNos":null,"nowTime":null,"countyName":null,"streetName":null,"villageName":null,"roadName":null,"communityName":null,"tranName":null,"sdLineName":null,"cityCode":"1340610","cityName":"国网定州市供电公司","provinceCode":null,"stopTime":"2019-09-17 19:00:00","powerType":"全部","powerOffArea":"【全线路停电】停周村村南口,杨金恒,定州市国群木器加工厂,齐立宾,陈国群,定州市冀南鞋厂,周村西南,周村公用照明16台区,定州市立宾农机配件厂变压器,李建坡,周村公用照明15台区,定州市鑫峰源塑胶制品厂变压器,周村正南,周村路西,齐立社,张利明,王英军512线,0387430155-杨有伟-专变-45271906-杨有伟,陈金贵,周村粮站,陈建波,陈全贵,定州市杨宏民二厂,定州市周村黑白塑料布厂变压器,陈建良,定州市占秋木器厂,杨振学,杨志军,王俊权,杨云树,杨玖卫,杨会英,杨恩民,陈占秋,杨宝林,齐全占,杨站英,周村西南2,张振杰,周村西南512,张双站,齐永辉,陈满庄,周村东南,0387432917-定州市恒瑞塑业有限公司-专变-217788250-定州市恒瑞塑业有限公司变压器","powerOffReason":"【停电原因】由于电杆倾斜需停电进行紧急检修导致３５ＫＶ周村变电站１０ＫＶ５１２周村工业线路全线停电 【变更送电】因抢修进度加快原因，送电时间由２０：００变更为１９：００ 【发布渠道】９５５９８","powerOffId":"2019091613000156"}],"pageModel":{"pageNow":559,"totalCount":10973,"totalPage":1098,"tableRows":0,"pageCount":10,"beginCount":5580},"isExperi":"1"}