{"message":"","today":"2020-06-15","seleList":[{"poweroffId":2019091413000048,"sgpoweroffId":null,"subsName":"","lineName":"东贯城512","pubTranName":"高陌村7#,北沈村8#,北沈村1#,北沈村2#,东沈村9#,西沈村2#,北沈村5#,西贯城村1#,高陌村6#,东贯城村5#,东贯城村1#,东沈村8#,高陌乡镇府9号,西贯城村5#,西贯城村6#,东沈村1#,东贯城村4#,东沈村10#,高陌村3#,西沈村1#,东沈村2#,西沈村6#,高陌村1#,北沈村7#,东贯城村2#,高陌村2#,郎井9号变压器,北沈村6#,","scope":"【影响街道/乡镇】高陌乡【高危重要客户】无【影响客户】高陌村、西贯城村、东贯城村、西沈村、北沈村、东沈村","startTime":"2019-09-14 10:05:00","stopDate":"2019-09-14 13:00:00","orgNo":"1340625","typeCode":"电网故障停限电","poweroffArea":"【全线路停电】停西沈村6#,东沈村10#,西贯城村2#,西贯城面粉厂(李富启),东沈村南榆皮厂(赵国),高陌村6#,东贯城村4#,东沈村4#【纯农排变】,高陌村5#【纯农排变】,西贯城村1#,东贯城村1#,变压器,西贯城村3#,郎井9号变压器,东贯城村2#,高陌10#【纯农排变】,北沈村7#,东贯城村7#,东沈村9#,东沈村7#【纯农排变】,北沈村6#,西沈村2#,北沈村4#,西沈村4#,东贯城村6#【纯农排变】,北东村10#,东贯城村5#,易县朋得畜牧业养殖有限公司变压器,东沈村6#【纯农排变】,西沈村5#,东贯城村3#,东沈村(赵云海),北沈龙源面粉厂,高陌乡镇府9号,李爱明,西贯城村5#,北沈村8#,东沈村桥南(赵建华),西沈村1#,易县联发砂石经销处,高陌村4#【纯农排变】,北沈村许文变压器,北沈村3#,西贯城村6#,郎井村4#,西贯城村4#,东贯城8#,西贯城村李贵变压器,北沈村1#,佳利面粉厂250KVA,北沈村2#,高陌村7#,高陌村8#,东沈村8#,高陌村3#,东沈村1#,东沈村3#【纯农排变】,东沈村5#【纯农排变】,北沈村5#,高陌村1#,高陌村2#,东沈村2#","poweroffReason":"【停电原因】由于线路接地导致３５ＫＶ高陌变电站东贯城５１２线路全线停电【变更送电】因抢修进度加快原因，送电时间由１８：００变更为１３：００【发布渠道】通过９５５９８发布","powerTime":"2019-09-14 12:14:33","powerComm":"已送电","subsNo":"","lineNo":"","tgNo":"","tgName":null,"infoStatus":"1","orgName":"国网易县供电公司","typeName":null,"infoStatusName":null,"dateDay":null,"orgNos":null,"nowTime":null,"countyName":null,"streetName":null,"villageName":null,"roadName":null,"communityName":null,"tranName":null,"sdLineName":null,"cityCode":"1340625","cityName":"国网易县供电公司","provinceCode":null,"stopTime":"2019-09-14 13:00:00","powerType":"全部","powerOffArea":"【全线路停电】停西沈村6#,东沈村10#,西贯城村2#,西贯城面粉厂(李富启),东沈村南榆皮厂(赵国),高陌村6#,东贯城村4#,东沈村4#【纯农排变】,高陌村5#【纯农排变】,西贯城村1#,东贯城村1#,变压器,西贯城村3#,郎井9号变压器,东贯城村2#,高陌10#【纯农排变】,北沈村7#,东贯城村7#,东沈村9#,东沈村7#【纯农排变】,北沈村6#,西沈村2#,北沈村4#,西沈村4#,东贯城村6#【纯农排变】,北东村10#,东贯城村5#,易县朋得畜牧业养殖有限公司变压器,东沈村6#【纯农排变】,西沈村5#,东贯城村3#,东沈村(赵云海),北沈龙源面粉厂,高陌乡镇府9号,李爱明,西贯城村5#,北沈村8#,东沈村桥南(赵建华),西沈村1#,易县联发砂石经销处,高陌村4#【纯农排变】,北沈村许文变压器,北沈村3#,西贯城村6#,郎井村4#,西贯城村4#,东贯城8#,西贯城村李贵变压器,北沈村1#,佳利面粉厂250KVA,北沈村2#,高陌村7#,高陌村8#,东沈村8#,高陌村3#,东沈村1#,东沈村3#【纯农排变】,东沈村5#【纯农排变】,北沈村5#,高陌村1#,高陌村2#,东沈村2#","powerOffReason":"【停电原因】由于线路接地导致３５ＫＶ高陌变电站东贯城５１２线路全线停电【变更送电】因抢修进度加快原因，送电时间由１８：００变更为１３：００【发布渠道】通过９５５９８发布","powerOffId":"2019091413000048"},{"poweroffId":2019091413000046,"sgpoweroffId":null,"subsName":"","lineName":"东于坻511","pubTranName":"北于坻村4#,郎井村7#,西于坻村2#,郎井庄村4#,武阳台村3#,东于坻村1#,西于坻村4#,武阳台9号,西于坻村1#,东于坻村6#,郎井村6#,郎井村1#,武阳台8号,郎井村2#,郎井庄村3#,东于坻村4#,武阳台村5#,北于坻村1#,西于坻村3#,武阳台村2#,武阳台村7#,郎井村3#,郎井庄村1#,","scope":"【影响街道/乡镇】高陌乡【高危重要客户】无【影响客户】西于坻村、东于坻村、北于坻村、郎井庄村、郎井村、武阳台村","startTime":"2019-09-14 10:05:05","stopDate":"2019-09-14 13:00:00","orgNo":"1340625","typeCode":"电网故障停限电","poweroffArea":"【全线路停电】停郎井庄村3#,北于坻村4#,奥杰制衣有限公司,武阳台村3#,变压器,西于坻村4#,东于坻村5#,郎井村7#,北于坻村1#,易县郎井庄村春江奶牛养殖厂,东于坻村4#,郎井村3#,武阳台8号,武阳台村2#,西于坻村3#,东于坻村6#,武阳台9号,武阳台村1#,西于坻村1#,西于坻村2#,武阳台村5#,郎井村2#,郎井庄村1#,郎井庄村4#,北于坻村3#【纯农排变】,郎井村6#,中国移动通信集团河北有限公司易县分公司变压器,郎井村1#,东于坻村3#,武阳台村4#,郎井庄村2#,东于坻村2#,郎井村5#,武阳台村7#,东于坻村1#,北于坻村2#【纯农排变】,西于坻村5#【纯农排变】","poweroffReason":"【停电原因】由于线路接地导致３５ＫＶ高陌变电站东于坻５１１线路全线停电【变更送电】因抢修进度加快原因，送电时间由１８：００变更为１３：００【发布渠道】通过９５５９８发布","powerTime":"2019-09-14 12:13:47","powerComm":"已送电","subsNo":"","lineNo":"","tgNo":"","tgName":null,"infoStatus":"1","orgName":"国网易县供电公司","typeName":null,"infoStatusName":null,"dateDay":null,"orgNos":null,"nowTime":null,"countyName":null,"streetName":null,"villageName":null,"roadName":null,"communityName":null,"tranName":null,"sdLineName":null,"cityCode":"1340625","cityName":"国网易县供电公司","provinceCode":null,"stopTime":"2019-09-14 13:00:00","powerType":"全部","powerOffArea":"【全线路停电】停郎井庄村3#,北于坻村4#,奥杰制衣有限公司,武阳台村3#,变压器,西于坻村4#,东于坻村5#,郎井村7#,北于坻村1#,易县郎井庄村春江奶牛养殖厂,东于坻村4#,郎井村3#,武阳台8号,武阳台村2#,西于坻村3#,东于坻村6#,武阳台9号,武阳台村1#,西于坻村1#,西于坻村2#,武阳台村5#,郎井村2#,郎井庄村1#,郎井庄村4#,北于坻村3#【纯农排变】,郎井村6#,中国移动通信集团河北有限公司易县分公司变压器,郎井村1#,东于坻村3#,武阳台村4#,郎井庄村2#,东于坻村2#,郎井村5#,武阳台村7#,东于坻村1#,北于坻村2#【纯农排变】,西于坻村5#【纯农排变】","powerOffReason":"【停电原因】由于线路接地导致３５ＫＶ高陌变电站东于坻５１１线路全线停电【变更送电】因抢修进度加快原因，送电时间由１８：００变更为１３：００【发布渠道】通过９５５９８发布","powerOffId":"2019091413000046"},{"poweroffId":2019091413000042,"sgpoweroffId":null,"subsName":"","lineName":"10kV镇政府565线","pubTranName":"北义安村内变压器,北义安3台区,北义安4台区,北义安5台区,北义安东南2台区变压器,南义安北台区变压器,南义安大队广场台区,南义安老大队台区,南义安村中台区,南义安西二台区,北义安村内058变压器,","scope":"【影响街道/乡镇】义安镇 【高危重要客户】无 【影响客户】南义安村、北义安村","startTime":"2019-09-14 10:12:12","stopDate":"2019-09-14 12:00:00","orgNo":"1340614","typeCode":"电网故障停限电","poweroffArea":"【分支停电】停北义安村内变压器,北义安3台区,北义安4台区,北义安5台区,北义安东南2台区变压器,南义安北台区变压器,南义安大队广场台区,南义安老大队台区,南义安村中台区,南义安西二台区,北义安村内058变压器","poweroffReason":"【停电原因】由于弓子线烧断导致１１０ＫＶ义安变电站１０ＫＶ镇政府５６５线路南义安大分支０１号杆至３３号杆停电 【变更送电】无 【发布渠道】通过９５５９８发布","powerTime":"2019-09-14 11:22:35","powerComm":"已送电","subsNo":"","lineNo":"","tgNo":"","tgName":null,"infoStatus":"1","orgName":"国网涞水县供电公司","typeName":null,"infoStatusName":null,"dateDay":null,"orgNos":null,"nowTime":null,"countyName":null,"streetName":null,"villageName":null,"roadName":null,"communityName":null,"tranName":null,"sdLineName":null,"cityCode":"1340614","cityName":"国网涞水县供电公司","provinceCode":null,"stopTime":"2019-09-14 12:00:00","powerType":"全部","powerOffArea":"【分支停电】停北义安村内变压器,北义安3台区,北义安4台区,北义安5台区,北义安东南2台区变压器,南义安北台区变压器,南义安大队广场台区,南义安老大队台区,南义安村中台区,南义安西二台区,北义安村内058变压器","powerOffReason":"【停电原因】由于弓子线烧断导致１１０ＫＶ义安变电站１０ＫＶ镇政府５６５线路南义安大分支０１号杆至３３号杆停电 【变更送电】无 【发布渠道】通过９５５９８发布","powerOffId":"2019091413000042"},{"poweroffId":2019091413000019,"sgpoweroffId":null,"subsName":"","lineName":"10kV518庄火头线","pubTranName":"王庄丝网厂,10kV518庄火头线24009变压器,10kV518庄火头线24065变压器,庞庄村西94087,10kV518庄火头线24023变压器,10kV518庄火头线43419变压器,10kV518庄火头线78357变压器,10kV518庄火头线41004变压器,北辛庄电焊网厂,博野县福顺财机制美格网厂,0469286058-博野县通信拔丝厂-专变-107232831-李通信拔丝厂,博野县亨通金属丝网制造有限公司,维新村杨喜朋,维辛村40824,杜占军25080,维新村拔丝厂,西程委小区,维辛村杨喜朋2电焊拨丝,博野县恒鑫美格网厂,南板桥西南24420,10kv518庄火头线新增1号变压器,维新村宋中民,博野县嘉华拔丝厂,10kV518庄火头线24032变压器,10KV518庄火头线北辛庄新增变压器,10kV518庄火头线42077变压器,庞庄面粉厂,10kV518庄火头线24049变压器,小强丝网厂,","scope":"【影响街道/乡镇】大程委镇【高危重要客户】无【影响客户】维新村、王庄、南辛庄、北辛庄、庞庄、夹河、南板桥、北板桥、甄庄、庄火头","startTime":"2019-09-14 07:05:23","stopDate":"2019-09-14 08:50:00","orgNo":"1340608","typeCode":"电网故障停限电","poweroffArea":"【全线路停电】停杜占军25080,南板桥西南24420,维新村拔丝厂,10kv518庄火头线新增1号变压器,10kV518庄火头线41004变压器,维新村宋中民,王庄丝网厂,博野县嘉华拔丝厂,10kV518庄火头线24009变压器,10kV518庄火头线24032变压器,10kV518庄火头线24065变压器,10KV518庄火头线北辛庄新增变压器,北辛庄电焊网厂,10kV518庄火头线42077变压器,博野县福顺财机制美格网厂,庞庄面粉厂,0469286058-博野县通信拔丝厂-专变-107232831-李通信拔丝厂,10kV518庄火头线24049变压器,博野县亨通金属丝网制造有限公司,小强丝网厂,维新村杨喜朋,庞庄村西94087,维辛村40824,10kV518庄火头线24023变压器,西程委小区,10kV518庄火头线43419变压器,维辛村杨喜朋2电焊拨丝,10kV518庄火头线78357变压器,博野县恒鑫美格网厂","poweroffReason":"【停电原因】由于站内开关跳闸导致１１０ＫＶ程委变电站庄火头５１８线路全线停电【变更送电】因抢修进度加快原因，送电时间由１２：００变更为０８：５０【发布渠道】通过９５５９８发布","powerTime":"2019-09-14 08:29:14","powerComm":"已送电","subsNo":"","lineNo":"","tgNo":"","tgName":null,"infoStatus":"1","orgName":"国网博野县供电公司","typeName":null,"infoStatusName":null,"dateDay":null,"orgNos":null,"nowTime":null,"countyName":null,"streetName":null,"villageName":null,"roadName":null,"communityName":null,"tranName":null,"sdLineName":null,"cityCode":"1340608","cityName":"国网博野县供电公司","provinceCode":null,"stopTime":"2019-09-14 08:50:00","powerType":"全部","powerOffArea":"【全线路停电】停杜占军25080,南板桥西南24420,维新村拔丝厂,10kv518庄火头线新增1号变压器,10kV518庄火头线41004变压器,维新村宋中民,王庄丝网厂,博野县嘉华拔丝厂,10kV518庄火头线24009变压器,10kV518庄火头线24032变压器,10kV518庄火头线24065变压器,10KV518庄火头线北辛庄新增变压器,北辛庄电焊网厂,10kV518庄火头线42077变压器,博野县福顺财机制美格网厂,庞庄面粉厂,0469286058-博野县通信拔丝厂-专变-107232831-李通信拔丝厂,10kV518庄火头线24049变压器,博野县亨通金属丝网制造有限公司,小强丝网厂,维新村杨喜朋,庞庄村西94087,维辛村40824,10kV518庄火头线24023变压器,西程委小区,10kV518庄火头线43419变压器,维辛村杨喜朋2电焊拨丝,10kV518庄火头线78357变压器,博野县恒鑫美格网厂","powerOffReason":"【停电原因】由于站内开关跳闸导致１１０ＫＶ程委变电站庄火头５１８线路全线停电【变更送电】因抢修进度加快原因，送电时间由１２：００变更为０８：５０【发布渠道】通过９５５９８发布","powerOffId":"2019091413000019"},{"poweroffId":2019091313000216,"sgpoweroffId":null,"subsName":"","lineName":"10KV南岐515","pubTranName":"杨康村东1710,","scope":"【影响街道/乡镇】松林店镇 【高危重要客户】无 【影响客户】杨康庄","startTime":"2019-09-13 17:34:23","stopDate":"2019-09-13 19:30:00","orgNo":"1340626","typeCode":"电网故障停限电","poweroffArea":"【单台区停电】停杨康村东1710","poweroffReason":"【停电原因】由于低压线断线导致３５ＫＶ南马变电站１０ＫＶ南岐５１５线路杨康村东１７１０公变台区停电 【变更送电】因抢修进度加快原因，送电时间由２３：３０变更为１９：３０ 【发布渠道】通过９５５９８发布","powerTime":"2019-09-13 19:15:21","powerComm":"恢复送电","subsNo":"","lineNo":"","tgNo":"","tgName":null,"infoStatus":"1","orgName":"国网涿州市供电公司","typeName":null,"infoStatusName":null,"dateDay":null,"orgNos":null,"nowTime":null,"countyName":null,"streetName":null,"villageName":null,"roadName":null,"communityName":null,"tranName":null,"sdLineName":null,"cityCode":"1340626","cityName":"国网涿州市供电公司","provinceCode":null,"stopTime":"2019-09-13 19:30:00","powerType":"全部","powerOffArea":"【单台区停电】停杨康村东1710","powerOffReason":"【停电原因】由于低压线断线导致３５ＫＶ南马变电站１０ＫＶ南岐５１５线路杨康村东１７１０公变台区停电 【变更送电】因抢修进度加快原因，送电时间由２３：３０变更为１９：３０ 【发布渠道】通过９５５９８发布","powerOffId":"2019091313000216"},{"poweroffId":2019091313000200,"sgpoweroffId":null,"subsName":"","lineName":"10kV北环线514","pubTranName":"求成中学东公用,北环路灯(北环公用处),第二中学100KVA专变,东租村内|0012,涞水县佳禾房地产开发有限公司,涞水慧时欣园小区315,北关4台区,河北尚霖文化产业园投资有限公司630KVA专变,东租村内2,东租南台区,涞水兴阳房地产开发有限公司630KVA,西租村东,北关机井变压器,北关北区变压器,93567部队配变,涞水慧时欣园小区250,保野路口公用变压器,0665883127-涞水县佳禾房地产开发有限公司-专变-204338327-涞水县佳禾房地产开发有限公司1250KVA专变,北关东井,0624171937-涞水县住房和城乡建设局-专变-133095069-住建局100KVA专变,东租南井变压器,二中100KVA专变,二中西侧公用变压器,保野路口西公用变压器,冲之北院变压器,涞水县金瓯建筑有限公司400KVA专变,涞水县公安消防大队100KVA专变,筑建局100KVA专变,北环公用变压器,佳禾房地产1250KVA专变,北关村中台区,涞水县红木艺馆家具店400KVA专变,求成中学专变,北关小学台区,城内管厂变压器,93567部队2,求成中学,","scope":"【影响街道/乡镇】涞水镇 【高危重要客户】无 【影响客户】城内村、管厂、北关村、东租村、东租村内机井、自来水公司、西租村、求成路附近、北环路、嘉兴园小区、慧时欣园小区、涞水县二中、93567部队、求城中学","startTime":"2019-09-13 15:30:00","stopDate":"2019-09-13 19:30:00","orgNo":"1340614","typeCode":"其他临时停电","poweroffArea":"【全线路停电】停涞水县公安消防大队100KVA专变,筑建局100KVA专变,北环公用变压器,佳禾房地产1250KVA专变,北关村中台区,涞水县红木艺馆家具店400KVA专变,求成中学专变,北关小学台区,城内管厂变压器,93567部队2,求成中学,东租村内|0012,求成中学东公用,北环路灯(北环公用处),第二中学100KVA专变,涞水县佳禾房地产开发有限公司,涞水慧时欣园小区315,北关4台区,河北尚霖文化产业园投资有限公司630KVA专变,东租村内2,东租南台区,涞水兴阳房地产开发有限公司630KVA,西租村东,北关机井变压器,北关北区变压器,93567部队配变,涞水慧时欣园小区250,保野路口公用变压器,0665883127-涞水县佳禾房地产开发有限公司-专变-204338327-涞水县佳禾房地产开发有限公司1250KVA专变,北关东井,0624171937-涞水县住房和城乡建设局-专变-133095069-住建局100KVA专变,东租南井变压器,二中100KVA专变,二中西侧公用变压器,保野路口西公用变压器,冲之北院变压器,涞水县金瓯建筑有限公司400KVA专变","poweroffReason":"【停电原因】由于外力破坏，需停电进行紧急消缺导致１１０ＫＶ涞水变电站１０ＫＶ北环５１４线路全线停电 【变更送电】无 【发布渠道】通过９５５９８发布","powerTime":"2019-09-13 18:49:50","powerComm":"已送电","subsNo":"","lineNo":"","tgNo":"","tgName":null,"infoStatus":"1","orgName":"国网涞水县供电公司","typeName":null,"infoStatusName":null,"dateDay":null,"orgNos":null,"nowTime":null,"countyName":null,"streetName":null,"villageName":null,"roadName":null,"communityName":null,"tranName":null,"sdLineName":null,"cityCode":"1340614","cityName":"国网涞水县供电公司","provinceCode":null,"stopTime":"2019-09-13 19:30:00","powerType":"全部","powerOffArea":"【全线路停电】停涞水县公安消防大队100KVA专变,筑建局100KVA专变,北环公用变压器,佳禾房地产1250KVA专变,北关村中台区,涞水县红木艺馆家具店400KVA专变,求成中学专变,北关小学台区,城内管厂变压器,93567部队2,求成中学,东租村内|0012,求成中学东公用,北环路灯(北环公用处),第二中学100KVA专变,涞水县佳禾房地产开发有限公司,涞水慧时欣园小区315,北关4台区,河北尚霖文化产业园投资有限公司630KVA专变,东租村内2,东租南台区,涞水兴阳房地产开发有限公司630KVA,西租村东,北关机井变压器,北关北区变压器,93567部队配变,涞水慧时欣园小区250,保野路口公用变压器,0665883127-涞水县佳禾房地产开发有限公司-专变-204338327-涞水县佳禾房地产开发有限公司1250KVA专变,北关东井,0624171937-涞水县住房和城乡建设局-专变-133095069-住建局100KVA专变,东租南井变压器,二中100KVA专变,二中西侧公用变压器,保野路口西公用变压器,冲之北院变压器,涞水县金瓯建筑有限公司400KVA专变","powerOffReason":"【停电原因】由于外力破坏，需停电进行紧急消缺导致１１０ＫＶ涞水变电站１０ＫＶ北环５１４线路全线停电 【变更送电】无 【发布渠道】通过９５５９８发布","powerOffId":"2019091313000200"},{"poweroffId":2019091313000186,"sgpoweroffId":null,"subsName":"","lineName":"10kV537后营线","pubTranName":"10kV537后营线东街浇地东31051柱上分支1号杆变压器,","scope":"【影响街道/乡镇】博野镇【高危重要客户】无【影响客户】三源胶带、力弘胶带、华阳制管、三利胶带、金维胶带","startTime":"2019-09-14 05:00:00","stopDate":"2019-09-14 06:30:00","orgNo":"1340608","typeCode":"其他临时停电","poweroffArea":"【全线路停电】停博野县华翼天然气销售有限公司,博野县住房和城乡建设局,河北信雅达橡胶机带有限公司,保定三源橡胶有限公司,10kV537后营线东街浇地西31050柱上分支2号杆变压器,博野县新豪橡胶机带制造有限公司,刘陀营514路灯2,保定昊野博道包装容器制造有限公司,博野县盛达马尾衬布有限公司,华亿胶带厂,0469534447-中国石油天然气股份有限公司河北保定销售分公司第六十一加油站-专变-46833833-中石油保定第十七加油站,保定力弘橡胶有限公司,保定顺达胶带有限公司,河北新安耐胶带有限公司2,0611203904-保定博运输送机械有限公司-专变-127722063-保定博运输送机械有限公司,保定宏宇达橡胶工业有限公司,博野县强力水泥制品制造有限公司,保定恒川输送设备制造有限公司,10kV537后营线东街浇地东31051柱上分支1号杆变压器,刘陀营514线路灯,保定三利胶带有限公司,河北中澳橡胶有限公司,河北联讯电子产品制造有限公司,河北新安耐胶带有限公司,0562685309-东街小林养殖场-专变-118448027-东街小林,博野镇刘陀营村张杏,博野镇刘陀营张杏,博野县华阳制管有限公司,北环路灯后营线,保定金腾输送设备有限公司 变,河北民安饲料有限公司,保定海川胶带制造有限公司,博野县新豪胶带制品厂,保定金腾输送设备有限公司,0469533402-保定金维胶带有限公司-专变-46833847-保定金维橡胶有限公司","poweroffReason":"【停电原因】由于电杆倾斜需紧急消缺导致１１０ＫＶ张岳变电站１０ＫＶ后营５３７线路全线停电【变更送电】无【发布渠道】通过９５５９８发布","powerTime":"2019-09-14 06:07:32","powerComm":"已送电","subsNo":"","lineNo":"","tgNo":"","tgName":null,"infoStatus":"1","orgName":"国网博野县供电公司","typeName":null,"infoStatusName":null,"dateDay":null,"orgNos":null,"nowTime":null,"countyName":null,"streetName":null,"villageName":null,"roadName":null,"communityName":null,"tranName":null,"sdLineName":null,"cityCode":"1340608","cityName":"国网博野县供电公司","provinceCode":null,"stopTime":"2019-09-14 06:30:00","powerType":"全部","powerOffArea":"【全线路停电】停博野县华翼天然气销售有限公司,博野县住房和城乡建设局,河北信雅达橡胶机带有限公司,保定三源橡胶有限公司,10kV537后营线东街浇地西31050柱上分支2号杆变压器,博野县新豪橡胶机带制造有限公司,刘陀营514路灯2,保定昊野博道包装容器制造有限公司,博野县盛达马尾衬布有限公司,华亿胶带厂,0469534447-中国石油天然气股份有限公司河北保定销售分公司第六十一加油站-专变-46833833-中石油保定第十七加油站,保定力弘橡胶有限公司,保定顺达胶带有限公司,河北新安耐胶带有限公司2,0611203904-保定博运输送机械有限公司-专变-127722063-保定博运输送机械有限公司,保定宏宇达橡胶工业有限公司,博野县强力水泥制品制造有限公司,保定恒川输送设备制造有限公司,10kV537后营线东街浇地东31051柱上分支1号杆变压器,刘陀营514线路灯,保定三利胶带有限公司,河北中澳橡胶有限公司,河北联讯电子产品制造有限公司,河北新安耐胶带有限公司,0562685309-东街小林养殖场-专变-118448027-东街小林,博野镇刘陀营村张杏,博野镇刘陀营张杏,博野县华阳制管有限公司,北环路灯后营线,保定金腾输送设备有限公司 变,河北民安饲料有限公司,保定海川胶带制造有限公司,博野县新豪胶带制品厂,保定金腾输送设备有限公司,0469533402-保定金维胶带有限公司-专变-46833847-保定金维橡胶有限公司","powerOffReason":"【停电原因】由于电杆倾斜需紧急消缺导致１１０ＫＶ张岳变电站１０ＫＶ后营５３７线路全线停电【变更送电】无【发布渠道】通过９５５９８发布","powerOffId":"2019091313000186"},{"poweroffId":2019091313000159,"sgpoweroffId":null,"subsName":"","lineName":"机床厂515","pubTranName":"街里北变压器,高三新变压器,高三大队变压器,街里南变压器,高三六队变压器,高三村市场变压器,高三街西变压器,高三街东变压器,","scope":"【影响街道/乡镇】和平办事处 【高危重要客户】无 【影响客户】高三村、人和茂盛、北京第一机床锻造、赵新禾、燕南、一机床铸造、春晖新吉、自来水、特种铸造、瑞仁厂、三聚厂、北一重型、冠力厂、金桥汽车、高碑店祥和瑞成、机床厂路灯","startTime":"2019-09-13 11:20:00","stopDate":"2019-09-13 13:00:00","orgNo":"1340612","typeCode":"其他临时停电","poweroffArea":"【全线路停电】停高三新变压器,高碑店市金桥汽车服务公司,高碑店市贤合瑞成废旧物资回收有限公司变压器,高三大队变压器,燕南机械厂,街里南变压器,特种铸造厂,北一重型机械铸造股份有限公司2,赵辛禾,春晖新吉机械制造有限公司,高碑店市高碑店龙泉浴池变压器,高三六队变压器,杨卫强变压器,高三村市场变压器,高三街西变压器,高三街东变压器,0546632231-河北人和茂盛商混砼有限责任公司-专变-47889511-变压器,保定冠力工程机械,北一重型机械铸造股份有限公司1,一机床2,一机床2 南,瑞仁公司,自来水2,高一3变压器,街里北变压器,高碑店市路灯管理办公室变压器,高三大方变压器","poweroffReason":"【停电原因】由于弓子线打火需紧急处理导致２２０ＫＶ高碑店变电站１０ＫＶ机床厂５１５线路全线停电 【变更送电】因工作进度加快原因，送电时间由１５：００变更为１３：００ 【发布渠道】通过９５５９８发布","powerTime":"2019-09-13 12:43:48","powerComm":"已送电","subsNo":"","lineNo":"","tgNo":"","tgName":null,"infoStatus":"1","orgName":"国网高碑店市供电公司","typeName":null,"infoStatusName":null,"dateDay":null,"orgNos":null,"nowTime":null,"countyName":null,"streetName":null,"villageName":null,"roadName":null,"communityName":null,"tranName":null,"sdLineName":null,"cityCode":"1340612","cityName":"国网高碑店市供电公司","provinceCode":null,"stopTime":"2019-09-13 13:00:00","powerType":"全部","powerOffArea":"【全线路停电】停高三新变压器,高碑店市金桥汽车服务公司,高碑店市贤合瑞成废旧物资回收有限公司变压器,高三大队变压器,燕南机械厂,街里南变压器,特种铸造厂,北一重型机械铸造股份有限公司2,赵辛禾,春晖新吉机械制造有限公司,高碑店市高碑店龙泉浴池变压器,高三六队变压器,杨卫强变压器,高三村市场变压器,高三街西变压器,高三街东变压器,0546632231-河北人和茂盛商混砼有限责任公司-专变-47889511-变压器,保定冠力工程机械,北一重型机械铸造股份有限公司1,一机床2,一机床2 南,瑞仁公司,自来水2,高一3变压器,街里北变压器,高碑店市路灯管理办公室变压器,高三大方变压器","powerOffReason":"【停电原因】由于弓子线打火需紧急处理导致２２０ＫＶ高碑店变电站１０ＫＶ机床厂５１５线路全线停电 【变更送电】因工作进度加快原因，送电时间由１５：００变更为１３：００ 【发布渠道】通过９５５９８发布","powerOffId":"2019091313000159"},{"poweroffId":2019091313000156,"sgpoweroffId":null,"subsName":"","lineName":"营房516","pubTranName":"撞河西南变压器,松林新变压器,茶棚店北变压器,高三分支变压器,撞河西北变压器,龚辛庄东台区,平安店北二变压器,高一村变压器,平安店东变压器,龚辛庄北浇变压器【纯农排变】,军城办公变变压器,南泽畔中,乔刘凡东北2变压器,南泽畔东北台区,","scope":"【影响街道/乡镇】军城办事处、和平办事处、北城办事处 【高危重要客户】无 【影响客户】茶棚店村、龚辛庄村、南泽畔村、平安店村、祁村、乔刘凡村、松林村、撞河村、高三村、高一村、益友工业（北厂）、佳兴工业、包安面粉厂、中安天德机动车检测场、红成模具厂、昌信物业、乾荣地产、利兴综合加工厂、银庭物业、高化工业气体、民悦模具、中国人民解放军９１２９２部队、长盛商砼混凝土、联众机械制造、国有粮食购销储运、三兴装饰材料、中国人民解放军６６３３６部队、浩邦牧业、中国人民解放军６６３３６部队（医院）、高一铁厂、中国人民解放军６６３３６部队（修理连）、达烨铸造加工厂、高碑店市民政事业服务中心、精工液压密封件厂、高碑店明泉铸造厂、高碑店燕桥水泥厂、晨航橡塑制品有限公司、路灯管理办公室、王永彬、保定森泽汽车销售有限公司、自来水公司、职教中心、华宇燃气、跃然文化传媒、乔刘凡二砖二、泰鑫溢润金属、龚辛庄泰兴苗圃场、人民武装部靶场、方家务村（部分）、河北兴达原种猪有限公司、生态园餐厅、军城绿科苗木种植农民专业合作社、同兴农林畜牧有限公司、姬金华、河北万达箱包制品有限公司","startTime":"2019-09-13 11:20:00","stopDate":"2019-09-13 13:00:00","orgNo":"1340612","typeCode":"其他临时停电","poweroffArea":"【全线路停电】停撞河中变压器,高碑店市军城绿科苗木种植农民专业合作社,兴达猪场,茶棚店北变压器,乔刘凡地南变压器【纯农排变】,乔刘凡地北变压器【纯农排变】,高碑店市三兴装饰材料有限公司变压器,祁村西变压器,撞河村内变压器,河北银庭物业服务有限公司,高碑店市救助管理站变压器,松林村变压器,高碑店市润兴物业服务有限公司2变压器,高碑店市润兴物业服务有限公司1变压器,乔刘凡地变压器【纯农排变】,冷库,民悦模具有限公司,胶合板,姬金华变压器,平安店东变压器,龚辛庄北浇变压器【纯农排变】,高一面粉厂,撞河东浇地变压器【纯农排变】,高碑店市利兴综合加工厂变压器,南泽畔中,祁村东变压器,平安店北二变压器,高一村变压器,乔二砖2,龚辛庄北变压器,乔刘凡乡二砖厂,石家庄乾荣房地产开发有限公司1,燕桥水泥厂,松林新变压器,0664684790-高碑店市泰鑫溢润金属制品有限公司-专变-201043231-高碑店市泰鑫溢润金属制品有限公司,高一西变压器,石家庄乾荣房地产开发有限公司变压器,军城办公变变压器,0585583208-高碑店市路灯管理办公室-专变-125094112-高碑店市路灯管理办公室变压器,石家庄乾荣房地产开发有限公司,氧气厂,变压器,平安店西变压器,杨振林,高三分支变压器,66336锅炉房,撞河西北变压器,高一王建国,河北豆想你食品有限公司,颜国红,石家庄乾荣房地产开发有限公司2,中国人民解放军66336部队变压器,平安店南变压器,高碑店市浩邦牧业有限公司变压器,撞河北变压器,南泽畔东变压器,高碑店市佳兴工业有限公司变压器,方家务浇地,龚辛庄东台区,平安店新变压器,松林地变压器【纯农排变】,平安店地南变压器,自来水北井,高碑店市北城办事处方家务村铁路西变台,高碑店市撞河中韵橡胶制品加工部变压器,撞河南变压器,河北洪豆食品科技有限公司,陈各庄西地1变压器【纯农排变】,平三变压器,龚辛庄南变压器,平安店西北变压器【纯农排变】,碑店市同兴农林畜牧有限公司变压器,乔刘凡东北2变压器,茶棚店村内变压器,县农场,蔬菜基地,平安店地北变压器【纯农排变】,陈各庄东地变压器【纯农排变】,华宇燃气,66336锅炉房（2）,河北亿松食品有限公司计,南泽畔地变压器【纯农排变】,0652546169-高碑店市路灯管理办公室-专变-178898805-高碑店市路灯管理办公室100变压器,撞河村东变压器,南泽畔东北台区,河北万达箱包制品有限公司变压器,高碑店市龚辛庄泰兴苗圃场变压器,河北新发地农副产品有限公司1,高碑店市国有粮食购销储运有限公司变压器,66336东宿,王永彬变压器,高一砖厂,高一铁厂,燕桥水泥厂2,南泽畔北变压器,92181部队,66336修理连,河北银庭物业服务有限公司2,武装部靶场,南泽畔西变压器,66336医院,0200002074|66336东宿,职教中心,龚辛庄村变压器,松林地二变压器【纯农排变】,南泽畔地南变压器,龚新庄地变压器【纯农排变】,撞河西南变压器,松林南变压器,军城办变压器,乔刘凡东北变压器,平安店北变压器","poweroffReason":"【停电原因】由于弓子线打火需紧急处理导致２２０ＫＶ高碑店变电站１０ＫＶ营房５１６线路全线停电 【变更送电】因工作进度加快原因，送电时间由１５：００变更为１３：００ 【发布渠道】通过９５５９８发布","powerTime":"2019-09-13 12:43:46","powerComm":"已送电","subsNo":"","lineNo":"","tgNo":"","tgName":null,"infoStatus":"1","orgName":"国网高碑店市供电公司","typeName":null,"infoStatusName":null,"dateDay":null,"orgNos":null,"nowTime":null,"countyName":null,"streetName":null,"villageName":null,"roadName":null,"communityName":null,"tranName":null,"sdLineName":null,"cityCode":"1340612","cityName":"国网高碑店市供电公司","provinceCode":null,"stopTime":"2019-09-13 13:00:00","powerType":"全部","powerOffArea":"【全线路停电】停撞河中变压器,高碑店市军城绿科苗木种植农民专业合作社,兴达猪场,茶棚店北变压器,乔刘凡地南变压器【纯农排变】,乔刘凡地北变压器【纯农排变】,高碑店市三兴装饰材料有限公司变压器,祁村西变压器,撞河村内变压器,河北银庭物业服务有限公司,高碑店市救助管理站变压器,松林村变压器,高碑店市润兴物业服务有限公司2变压器,高碑店市润兴物业服务有限公司1变压器,乔刘凡地变压器【纯农排变】,冷库,民悦模具有限公司,胶合板,姬金华变压器,平安店东变压器,龚辛庄北浇变压器【纯农排变】,高一面粉厂,撞河东浇地变压器【纯农排变】,高碑店市利兴综合加工厂变压器,南泽畔中,祁村东变压器,平安店北二变压器,高一村变压器,乔二砖2,龚辛庄北变压器,乔刘凡乡二砖厂,石家庄乾荣房地产开发有限公司1,燕桥水泥厂,松林新变压器,0664684790-高碑店市泰鑫溢润金属制品有限公司-专变-201043231-高碑店市泰鑫溢润金属制品有限公司,高一西变压器,石家庄乾荣房地产开发有限公司变压器,军城办公变变压器,0585583208-高碑店市路灯管理办公室-专变-125094112-高碑店市路灯管理办公室变压器,石家庄乾荣房地产开发有限公司,氧气厂,变压器,平安店西变压器,杨振林,高三分支变压器,66336锅炉房,撞河西北变压器,高一王建国,河北豆想你食品有限公司,颜国红,石家庄乾荣房地产开发有限公司2,中国人民解放军66336部队变压器,平安店南变压器,高碑店市浩邦牧业有限公司变压器,撞河北变压器,南泽畔东变压器,高碑店市佳兴工业有限公司变压器,方家务浇地,龚辛庄东台区,平安店新变压器,松林地变压器【纯农排变】,平安店地南变压器,自来水北井,高碑店市北城办事处方家务村铁路西变台,高碑店市撞河中韵橡胶制品加工部变压器,撞河南变压器,河北洪豆食品科技有限公司,陈各庄西地1变压器【纯农排变】,平三变压器,龚辛庄南变压器,平安店西北变压器【纯农排变】,碑店市同兴农林畜牧有限公司变压器,乔刘凡东北2变压器,茶棚店村内变压器,县农场,蔬菜基地,平安店地北变压器【纯农排变】,陈各庄东地变压器【纯农排变】,华宇燃气,66336锅炉房（2）,河北亿松食品有限公司计,南泽畔地变压器【纯农排变】,0652546169-高碑店市路灯管理办公室-专变-178898805-高碑店市路灯管理办公室100变压器,撞河村东变压器,南泽畔东北台区,河北万达箱包制品有限公司变压器,高碑店市龚辛庄泰兴苗圃场变压器,河北新发地农副产品有限公司1,高碑店市国有粮食购销储运有限公司变压器,66336东宿,王永彬变压器,高一砖厂,高一铁厂,燕桥水泥厂2,南泽畔北变压器,92181部队,66336修理连,河北银庭物业服务有限公司2,武装部靶场,南泽畔西变压器,66336医院,0200002074|66336东宿,职教中心,龚辛庄村变压器,松林地二变压器【纯农排变】,南泽畔地南变压器,龚新庄地变压器【纯农排变】,撞河西南变压器,松林南变压器,军城办变压器,乔刘凡东北变压器,平安店北变压器","powerOffReason":"【停电原因】由于弓子线打火需紧急处理导致２２０ＫＶ高碑店变电站１０ＫＶ营房５１６线路全线停电 【变更送电】因工作进度加快原因，送电时间由１５：００变更为１３：００ 【发布渠道】通过９５５９８发布","powerOffId":"2019091313000156"},{"poweroffId":2019091313000143,"sgpoweroffId":null,"subsName":"","lineName":"巩庄线514","pubTranName":"白布粮库门口,白布村南,白布龙王庙,白布南关堂,迅口新增,白布南元,白堡村西2号,乡政府新增,野里灰厂,京宇石材厂内（统管）,迅口村东/迅口2号,钟家店村内,钟家店村南,巩庄村南,钟家店新增,白布村西,东院新增,白布乡政府,野里村西,白布东院,远达度假村,白堡村东新增,白布粮库2号,","scope":"【影响街道/乡镇】白龙乡 【高危重要客户】无 【影响客户】巩庄、钟（中）家店、也（野）里、白堡、训口","startTime":"2019-09-13 09:45:38","stopDate":"2019-09-13 12:40:00","orgNo":"1340617","typeCode":"电网故障停限电","poweroffArea":"【全线路停电】停白布砖厂农用变压器,满城县庭院开发,野里灰厂,钟家店村内,富强灰厂,中家店大队,迈瑞达建材1厂,天宇石材,毛儿碾,长江加工厂,钟家店打井（统）,满城县华兴石材厂,白布李家峪,野里村东,白布南元,河北省高速公路荣乌管理处,白布岗头岭,白布南山井,中旺建材厂,野里村南,长江石材,野里村西,白堡村西2号,白布村西,迅口新增,钟家店照明,野里村内,白布连家,钟家店五队,崔路振,白布3和岭,远达度假村,白布南关堂,九龙山,白布12队,白布五分支,白堡吃水井（农网）,白布一分支打井,白布粮库门口,巩庄村南,京宇石材厂内（统管）,中家店打井,讯口2号,白布十四，十五队,石斗儿,野里村南新增,白布东院,巩庄机井,白堡村东新增,坎下村南井,未庄村南井,钟家店村南,巩庄村西2号,白布3分支,三分支双井,白布村南,0387465850-满城县大坎下张石坡石渣厂-专变-45295222-大坎下张石坡石渣厂,也里4队,神星果园,巩庄村西,巩庄村西3号,白布南大棚/毛儿碾,东院新增,钟家店新增,白布乡政府,迅口村东/迅口2号,一分支小井（农网）,白布粮库2号,乡政府新增,白布龙王庙,九龙面粉厂,中国联合网络通信有限公司满城县分,崔青波,野里石厂200KVA配变","poweroffReason":"【停电原因】由于高压线断导致３５ＫＶ龙门变电站巩庄线５１４线路全线停电 【变更送电】因抢修进度加快原因，送电时间由１５：００变更为１２：４０ 【发布渠道】通过９５５９８发布","powerTime":"2019-09-13 12:14:17","powerComm":"已送电","subsNo":"","lineNo":"","tgNo":"","tgName":null,"infoStatus":"1","orgName":"国网满城县供电公司","typeName":null,"infoStatusName":null,"dateDay":null,"orgNos":null,"nowTime":null,"countyName":null,"streetName":null,"villageName":null,"roadName":null,"communityName":null,"tranName":null,"sdLineName":null,"cityCode":"1340617","cityName":"国网满城县供电公司","provinceCode":null,"stopTime":"2019-09-13 12:40:00","powerType":"全部","powerOffArea":"【全线路停电】停白布砖厂农用变压器,满城县庭院开发,野里灰厂,钟家店村内,富强灰厂,中家店大队,迈瑞达建材1厂,天宇石材,毛儿碾,长江加工厂,钟家店打井（统）,满城县华兴石材厂,白布李家峪,野里村东,白布南元,河北省高速公路荣乌管理处,白布岗头岭,白布南山井,中旺建材厂,野里村南,长江石材,野里村西,白堡村西2号,白布村西,迅口新增,钟家店照明,野里村内,白布连家,钟家店五队,崔路振,白布3和岭,远达度假村,白布南关堂,九龙山,白布12队,白布五分支,白堡吃水井（农网）,白布一分支打井,白布粮库门口,巩庄村南,京宇石材厂内（统管）,中家店打井,讯口2号,白布十四，十五队,石斗儿,野里村南新增,白布东院,巩庄机井,白堡村东新增,坎下村南井,未庄村南井,钟家店村南,巩庄村西2号,白布3分支,三分支双井,白布村南,0387465850-满城县大坎下张石坡石渣厂-专变-45295222-大坎下张石坡石渣厂,也里4队,神星果园,巩庄村西,巩庄村西3号,白布南大棚/毛儿碾,东院新增,钟家店新增,白布乡政府,迅口村东/迅口2号,一分支小井（农网）,白布粮库2号,乡政府新增,白布龙王庙,九龙面粉厂,中国联合网络通信有限公司满城县分,崔青波,野里石厂200KVA配变","powerOffReason":"【停电原因】由于高压线断导致３５ＫＶ龙门变电站巩庄线５１４线路全线停电 【变更送电】因抢修进度加快原因，送电时间由１５：００变更为１２：４０ 【发布渠道】通过９５５９８发布","powerOffId":"2019091313000143"}],"pageModel":{"pageNow":563,"totalCount":10973,"totalPage":1098,"tableRows":0,"pageCount":10,"beginCount":5620},"isExperi":"1"}