{"message":"","today":"2020-06-15","seleList":[{"poweroffId":2019091113000362,"sgpoweroffId":null,"subsName":"","lineName":"10kV526小庄头线","pubTranName":"10kv526小庄头线01137台区变压器,10KV516东墟线01073台区变压器,10KV516东墟线大去01089台区变压器,10KV526小庄头线大去01089台区变压器,10KV526小庄头线55034台区台区变压器,","scope":"【影响街道/乡镇】北杨村乡【高危重要客户】无【影响客户】大墟","startTime":"2019-09-10 15:00:00","stopDate":"2019-09-10 19:00:00","orgNo":"1340608","typeCode":"其他临时停电","poweroffArea":"【分支停电】停10kv526小庄头线01137台区变压器,10KV516东墟线01073台区变压器,10KV516东墟线大去01089台区变压器,10KV526小庄头线大去01089台区变压器,10KV526小庄头线55034台区台区变压器,10KV526小庄头线大去村南01144台区变压器【纯农排变】","poweroffReason":"【停电原因】由于电杆倾斜需紧急消缺导致１１０ＫＶ张岳变电站小庄头５２６线路０１１４４台区分支０１号杆刀闸以下线路停电【变更送电】无【发布渠道】通过９５５９８发布","powerTime":"2019-09-10 18:50:00","powerComm":"已送电","subsNo":"","lineNo":"","tgNo":"","tgName":null,"infoStatus":"1","orgName":"国网博野县供电公司","typeName":null,"infoStatusName":null,"dateDay":null,"orgNos":null,"nowTime":null,"countyName":null,"streetName":null,"villageName":null,"roadName":null,"communityName":null,"tranName":null,"sdLineName":null,"cityCode":"1340608","cityName":"国网博野县供电公司","provinceCode":null,"stopTime":"2019-09-10 19:00:00","powerType":"全部","powerOffArea":"【分支停电】停10kv526小庄头线01137台区变压器,10KV516东墟线01073台区变压器,10KV516东墟线大去01089台区变压器,10KV526小庄头线大去01089台区变压器,10KV526小庄头线55034台区台区变压器,10KV526小庄头线大去村南01144台区变压器【纯农排变】","powerOffReason":"【停电原因】由于电杆倾斜需紧急消缺导致１１０ＫＶ张岳变电站小庄头５２６线路０１１４４台区分支０１号杆刀闸以下线路停电【变更送电】无【发布渠道】通过９５５９８发布","powerOffId":"2019091113000362"},{"poweroffId":2019091113000355,"sgpoweroffId":null,"subsName":"","lineName":"10kV利民路站529线路","pubTranName":"B433柱上变压器,","scope":"【影响街道/乡镇】三丰路 【高危重要客户】无 【影响客户】南金庄","startTime":"2019-09-11 14:30:00","stopDate":"2019-09-11 16:30:00","orgNo":"13406","typeCode":"电网故障停限电","poweroffArea":"【单台区停电】停B433柱上变压器","poweroffReason":"【停电原因】由于低压保险片烧导致１０ＫＶ利民路变电站５２９线路Ｂ４３３公变台区停电【变更送电】无【发布渠道】通过９５５９８发布","powerTime":"2019-09-11 16:01:29","powerComm":"已送电","subsNo":"","lineNo":"","tgNo":"","tgName":null,"infoStatus":"1","orgName":"保定供电公司","typeName":null,"infoStatusName":null,"dateDay":null,"orgNos":null,"nowTime":null,"countyName":null,"streetName":null,"villageName":null,"roadName":null,"communityName":null,"tranName":null,"sdLineName":null,"cityCode":"13406","cityName":"保定供电公司","provinceCode":null,"stopTime":"2019-09-11 16:30:00","powerType":"全部","powerOffArea":"【单台区停电】停B433柱上变压器","powerOffReason":"【停电原因】由于低压保险片烧导致１０ＫＶ利民路变电站５２９线路Ｂ４３３公变台区停电【变更送电】无【发布渠道】通过９５５９８发布","powerOffId":"2019091113000355"},{"poweroffId":2019091113000326,"sgpoweroffId":null,"subsName":"","lineName":"10kV571八兄线","pubTranName":"纸方头公用照明5台区,兰家佐公用农业3台区【纯农排变】,纸方头公用照明4台区,曹庄子公用照明二台区(010):,0628849308-定州市南城区刘家庄村村民委员会 菁菁小镇-专变-141337664-定州市南城区刘家庄村村民委员会 菁菁小镇1变压器2,皮庄子公用照明一台区,纸方头公用农业4台区【纯农排变】,定州市南城区南刘家庄村民委员会青青小镇供暖变压器,张同乐,纸坊头公用照明8台区,刘家庄公用照明5台区1,曹庄子公用照明5台区,皮庄子公用农业3台区【纯农排变】,定州市南城区刘家庄村村民委员会 菁菁小镇2变压器,曹庄子公用农业3台区【纯农排变】,纸方头公用农业5台区【纯农排变】,刘庄村委会变压器,北陵头公用农业4台区大锤【纯农排变】,纸方头公用照明2台区,定州市南城区南刘家庄村民委员会青青小镇照明1变压器,曹庄子公用照明6台区,张建民变压器,韩家洼公用农业2台区【纯农排变】,曹庄子公用照明一台区(010):,曹庄子公用照明3台区,定州市南城区南刘家庄村民委员会青青小镇照明2变压器,张伟,刘家庄公用照明3台区1,定州市永红汽车配件厂,北陵头公用照明4台区,皮庄子公用照明2台区,纸房头公用照明6台区,北陵头公用照明3台区,曹庄子公用农业2台区【纯农排变】,纸方头公用照明1台区,北陵头公用照明6台区,兰家佐公用农业一台区【纯农排变】,纸方头公用照明9台区,北陵头公用农业5台区大锤【纯农排变】,北陵头公用农业3台区占平【纯农排变】,纸房头公用农业1台区【纯农排变】,北陵头公用照明2台区,刘家庄公用照明2台区1,定州市辉煌车床加工厂变压器,北陵头公用农业1台区大锤区【纯农排变】,纸方头公用照明10台区,0628849308-定州市南城区刘家庄村村民委员会 菁菁小镇-专变-141337660-定州市南城区刘家庄村村民委员会 菁菁小镇1变压器1,纸方头公用农业6台区【纯农排变】,曹庄子公用农业1台区【纯农排变】,刘家庄公用照明4台区1,北陵头公用照明5台区,纸方头公用照明3台区,曹庄子公用农业4台区【纯农排变】,变压器,刘家庄公用照明一台区(012),定州市南城区纸方头村村民委员会变压器,北陵头公用照明1台区占平,兰家佐公用照明一台区(001),博源中学,纸方头公用农业3台区【纯农排变】,皮庄子公用农业1台区【纯农排变】,皮庄子公用农业2台区【纯农排变】,曹庄子公用照明4台区,兰家佐公用照明2台区,兰家佐公用农业二台区【纯农排变】,纸坊头公用照明7台区,定州市北陵头王老三面粉厂,韩家洼公用农业7台区【纯农排变】,","scope":"【影响街道/乡镇】南城区【高危重要客户】无【影响客户】皮家庄（皮庄子）、纸方头、曹庄子、北陵头、兰家佐、南刘家庄、韩家洼","startTime":"2019-09-11 15:30:00","stopDate":"2019-09-11 18:30:00","orgNo":"1340610","typeCode":"其他临时停电","poweroffArea":"【全线路停电】停张伟,刘家庄公用照明3台区1,定州市永红汽车配件厂,北陵头公用照明4台区,皮庄子公用照明2台区,纸房头公用照明6台区,北陵头公用照明3台区,曹庄子公用农业2台区【纯农排变】,纸方头公用照明1台区,北陵头公用照明6台区,兰家佐公用农业一台区【纯农排变】,纸方头公用照明9台区,北陵头公用农业5台区大锤【纯农排变】,北陵头公用农业3台区占平【纯农排变】,纸房头公用农业1台区【纯农排变】,纸方头公用照明10台区,纸方头公用农业6台区【纯农排变】,北陵头公用照明5台区,皮庄子公用照明一台区,定州市南城区南刘家庄村民委员会青青小镇供暖变压器,曹庄子公用照明5台区,刘庄村委会变压器,北陵头公用农业4台区大锤【纯农排变】,纸方头公用照明2台区,纸方头公用农业3台区【纯农排变】,皮庄子公用农业1台区【纯农排变】,皮庄子公用农业2台区【纯农排变】,曹庄子公用照明4台区,兰家佐公用农业二台区【纯农排变】,定州市北陵头王老三面粉厂,北陵头公用照明2台区,刘家庄公用照明2台区1,博源中学,北陵头公用农业1台区大锤区【纯农排变】,0628849308-定州市南城区刘家庄村村民委员会 菁菁小镇-专变-141337660-定州市南城区刘家庄村村民委员会 菁菁小镇1变压器1,曹庄子公用农业1台区【纯农排变】,刘家庄公用照明4台区1,纸坊头公用照明8台区,刘家庄公用照明5台区1,纸方头公用照明5台区,兰家佐公用农业3台区【纯农排变】,纸方头公用照明4台区,曹庄子公用照明二台区(010):,0628849308-定州市南城区刘家庄村村民委员会 菁菁小镇-专变-141337664-定州市南城区刘家庄村村民委员会 菁菁小镇1变压器2,纸方头公用农业4台区【纯农排变】,张同乐,皮庄子公用农业3台区【纯农排变】,定州市南城区刘家庄村村民委员会 菁菁小镇2变压器,曹庄子公用农业3台区【纯农排变】,纸方头公用农业5台区【纯农排变】,兰家佐公用照明2台区,纸坊头公用照明7台区,韩家洼公用农业7台区【纯农排变】,纸方头公用照明3台区,曹庄子公用农业4台区【纯农排变】,变压器,刘家庄公用照明一台区(012),定州市南城区纸方头村村民委员会变压器,北陵头公用照明1台区占平,兰家佐公用照明一台区(001),定州市辉煌车床加工厂变压器,定州市南城区南刘家庄村民委员会青青小镇照明1变压器,曹庄子公用照明6台区,张建民变压器,韩家洼公用农业2台区【纯农排变】,曹庄子公用照明一台区(010):,曹庄子公用照明3台区,定州市南城区南刘家庄村民委员会青青小镇照明2变压器","poweroffReason":"【停电原因】由于电杆倾斜需停电进行紧急检修导致１１０ＫＶ明月店变电站１０ＫＶ５７１八兄线路全线停电 【变更送电】无 【发布渠道】９５５９８","powerTime":"2019-09-11 17:35:21","powerComm":"已送电","subsNo":"","lineNo":"","tgNo":"","tgName":null,"infoStatus":"1","orgName":"国网定州市供电公司","typeName":null,"infoStatusName":null,"dateDay":null,"orgNos":null,"nowTime":null,"countyName":null,"streetName":null,"villageName":null,"roadName":null,"communityName":null,"tranName":null,"sdLineName":null,"cityCode":"1340610","cityName":"国网定州市供电公司","provinceCode":null,"stopTime":"2019-09-11 18:30:00","powerType":"全部","powerOffArea":"【全线路停电】停张伟,刘家庄公用照明3台区1,定州市永红汽车配件厂,北陵头公用照明4台区,皮庄子公用照明2台区,纸房头公用照明6台区,北陵头公用照明3台区,曹庄子公用农业2台区【纯农排变】,纸方头公用照明1台区,北陵头公用照明6台区,兰家佐公用农业一台区【纯农排变】,纸方头公用照明9台区,北陵头公用农业5台区大锤【纯农排变】,北陵头公用农业3台区占平【纯农排变】,纸房头公用农业1台区【纯农排变】,纸方头公用照明10台区,纸方头公用农业6台区【纯农排变】,北陵头公用照明5台区,皮庄子公用照明一台区,定州市南城区南刘家庄村民委员会青青小镇供暖变压器,曹庄子公用照明5台区,刘庄村委会变压器,北陵头公用农业4台区大锤【纯农排变】,纸方头公用照明2台区,纸方头公用农业3台区【纯农排变】,皮庄子公用农业1台区【纯农排变】,皮庄子公用农业2台区【纯农排变】,曹庄子公用照明4台区,兰家佐公用农业二台区【纯农排变】,定州市北陵头王老三面粉厂,北陵头公用照明2台区,刘家庄公用照明2台区1,博源中学,北陵头公用农业1台区大锤区【纯农排变】,0628849308-定州市南城区刘家庄村村民委员会 菁菁小镇-专变-141337660-定州市南城区刘家庄村村民委员会 菁菁小镇1变压器1,曹庄子公用农业1台区【纯农排变】,刘家庄公用照明4台区1,纸坊头公用照明8台区,刘家庄公用照明5台区1,纸方头公用照明5台区,兰家佐公用农业3台区【纯农排变】,纸方头公用照明4台区,曹庄子公用照明二台区(010):,0628849308-定州市南城区刘家庄村村民委员会 菁菁小镇-专变-141337664-定州市南城区刘家庄村村民委员会 菁菁小镇1变压器2,纸方头公用农业4台区【纯农排变】,张同乐,皮庄子公用农业3台区【纯农排变】,定州市南城区刘家庄村村民委员会 菁菁小镇2变压器,曹庄子公用农业3台区【纯农排变】,纸方头公用农业5台区【纯农排变】,兰家佐公用照明2台区,纸坊头公用照明7台区,韩家洼公用农业7台区【纯农排变】,纸方头公用照明3台区,曹庄子公用农业4台区【纯农排变】,变压器,刘家庄公用照明一台区(012),定州市南城区纸方头村村民委员会变压器,北陵头公用照明1台区占平,兰家佐公用照明一台区(001),定州市辉煌车床加工厂变压器,定州市南城区南刘家庄村民委员会青青小镇照明1变压器,曹庄子公用照明6台区,张建民变压器,韩家洼公用农业2台区【纯农排变】,曹庄子公用照明一台区(010):,曹庄子公用照明3台区,定州市南城区南刘家庄村民委员会青青小镇照明2变压器","powerOffReason":"【停电原因】由于电杆倾斜需停电进行紧急检修导致１１０ＫＶ明月店变电站１０ＫＶ５７１八兄线路全线停电 【变更送电】无 【发布渠道】９５５９８","powerOffId":"2019091113000326"},{"poweroffId":2019091113000298,"sgpoweroffId":null,"subsName":"","lineName":"管头511","pubTranName":"岩古岭村2#,岩古岭村民委员会,下隘刹村1#,长角村1#,岩古岭村民委员会变压器,长角村村2#,下隘刹村2#,岩古岭村1#,上隘刹村3#【纯农排变】,上隘刹村2#,上隘刹村1#,下隘刹村3#,","scope":"【影响街道/乡镇】狼牙山镇【高危重要客户】无【影响客户】下隘刹村、上隘刹村、长角村、岩古岭村","startTime":"2019-09-11 13:36:13","stopDate":"2019-09-11 20:00:00","orgNo":"1340625","typeCode":"电网故障停限电","poweroffArea":"【分支停电】停岩古岭村2#,下隘刹村1#,长角村1#,岩古岭村民委员会变压器,长角村村2#,下隘刹村2#,岩古岭村1#,上隘刹村3#【纯农排变】,上隘刹村2#,上隘刹村1#,下隘刹村3#,岩古岭村民委员会","poweroffReason":"【停电原因】由于车撞杆导致３５ＫＶ狼牙山变电站管头５１１线路０１０号杆至０３２号杆之间停电【变更送电】因抢修进度加快原因，送电时间由２２:００变更为２０:００【发布渠道】通过９５５９８发布","powerTime":"2019-09-11 19:29:39","powerComm":"已送电","subsNo":"","lineNo":"","tgNo":"","tgName":null,"infoStatus":"1","orgName":"国网易县供电公司","typeName":null,"infoStatusName":null,"dateDay":null,"orgNos":null,"nowTime":null,"countyName":null,"streetName":null,"villageName":null,"roadName":null,"communityName":null,"tranName":null,"sdLineName":null,"cityCode":"1340625","cityName":"国网易县供电公司","provinceCode":null,"stopTime":"2019-09-11 20:00:00","powerType":"全部","powerOffArea":"【分支停电】停岩古岭村2#,下隘刹村1#,长角村1#,岩古岭村民委员会变压器,长角村村2#,下隘刹村2#,岩古岭村1#,上隘刹村3#【纯农排变】,上隘刹村2#,上隘刹村1#,下隘刹村3#,岩古岭村民委员会","powerOffReason":"【停电原因】由于车撞杆导致３５ＫＶ狼牙山变电站管头５１１线路０１０号杆至０３２号杆之间停电【变更送电】因抢修进度加快原因，送电时间由２２:００变更为２０:００【发布渠道】通过９５５９８发布","powerOffId":"2019091113000298"},{"poweroffId":2019091113000237,"sgpoweroffId":null,"subsName":"","lineName":"10KV城西北526","pubTranName":"冯村北2781,挟河5373,冯村东北2777,小邵村2767,丁蒋庄西南地5370【纯农排变】,冯村大队2866,夹河东内,夹河西北内,丁蒋庄南内,丁蒋庄西南地5372【纯农排变】,夹河5368【纯农排变】,冯村西2867,夹河内2772【纯农排变】,小邵村东,冯村小学及幼儿园（煤）柱上变压器,夹河幼儿园（煤）柱上变压器,夹河北2773【纯农排变】,冯村村中2779,百尺竿冯村3622变压器,冯村村东内,","scope":"【影响街道/乡镇】百尺竿镇 【高危重要客户】无 【影响客户】冯村、夹河、丁蒋庄村、小邵村","startTime":"2019-09-10 09:14:00","stopDate":"2019-09-10 10:30:00","orgNo":"1340626","typeCode":"电网故障停限电","poweroffArea":"【分支停电】停小邵村2767,丁蒋庄西南地5370【纯农排变】,冯村大队2866,夹河东内,夹河西北内,冯村村中2779,百尺竿冯村3622变压器,冯村村东内,夹河内2772【纯农排变】,小邵村东,冯村小学及幼儿园（煤）柱上变压器,夹河幼儿园（煤）柱上变压器,夹河北2773【纯农排变】,冯村北2781,挟河5373,冯村东北2777,丁蒋庄南内,丁蒋庄西南地5372【纯农排变】,夹河5368【纯农排变】,冯村西2867","poweroffReason":"【停电原因】由于过流跳闸导致１１０ＫＶ下胡良变电站１０ＫＶ城西北５２６线路夹河分支２２０号杆以下线路停电 【变更送电】无 【发布渠道】通过９５５９８发布","powerTime":"2019-09-10 09:55:00","powerComm":"恢复送电","subsNo":"","lineNo":"","tgNo":"","tgName":null,"infoStatus":"1","orgName":"国网涿州市供电公司","typeName":null,"infoStatusName":null,"dateDay":null,"orgNos":null,"nowTime":null,"countyName":null,"streetName":null,"villageName":null,"roadName":null,"communityName":null,"tranName":null,"sdLineName":null,"cityCode":"1340626","cityName":"国网涿州市供电公司","provinceCode":null,"stopTime":"2019-09-10 10:30:00","powerType":"全部","powerOffArea":"【分支停电】停小邵村2767,丁蒋庄西南地5370【纯农排变】,冯村大队2866,夹河东内,夹河西北内,冯村村中2779,百尺竿冯村3622变压器,冯村村东内,夹河内2772【纯农排变】,小邵村东,冯村小学及幼儿园（煤）柱上变压器,夹河幼儿园（煤）柱上变压器,夹河北2773【纯农排变】,冯村北2781,挟河5373,冯村东北2777,丁蒋庄南内,丁蒋庄西南地5372【纯农排变】,夹河5368【纯农排变】,冯村西2867","powerOffReason":"【停电原因】由于过流跳闸导致１１０ＫＶ下胡良变电站１０ＫＶ城西北５２６线路夹河分支２２０号杆以下线路停电 【变更送电】无 【发布渠道】通过９５５９８发布","powerOffId":"2019091113000237"},{"poweroffId":2019091113000233,"sgpoweroffId":null,"subsName":"","lineName":"10KV华阳桥520","pubTranName":"涿州市翔天房地产有限公司1箱变母线间隔配电变压器,涿州市翔天房地产有限公司2箱变母线间隔配电变压器,杨楼村西,长岭村北,清凉寺供电所公用,10kV钢研院520线路槐林村内变压器,华阳监理小区,槐林村西,涿州市槐林小学柱上变压器,长岭3180,清凉寺供电所公用华阳路A,槐林商业街0915,官庄村西,长岭村南,涿州市翔天房地产开发有限公司1,涿州方圆天地房地产开发有限公司,起重厂家属院（新）,槐林村3112,老干部局（新）,长岭5138增【纯农排变】,清凉寺供电所华阳桥头公用变压器,东兴北街公用变压器,涿州市翔天房地产开发有限公司2,官庄0125,","scope":"【影响街道/乡镇】清凉寺城区华阳路、北二环路、东兴北街 【高危重要客户】无 【影响客户】中医院两侧用户、东关、槐林村、杨楼、长岭村、官庄、华阳小区、起重厂家属院、兴泰花园、老干部局、环保局、物探学校、东关社区居委会、华阳建材城、天龙物资、天保房地产、鸿盛房地产、河北天通房地产、平安房地产、翔天房地产、环宇房地产、建行物探支行、紫荆尚城、凯旋门小区、建行物探华阳小区、二康、军怡小区（武装部）、兴泰小区、华福家园、大沙坎村西","startTime":"2019-09-11 07:05:00","stopDate":"2019-09-11 09:00:00","orgNo":"1340626","typeCode":"电网故障停限电","poweroffArea":"【全线路停电】停涿州市双塔街道办事处东关社区居民委员会,清凉寺供电所华阳桥头公用变压器,东兴北街公用变压器,钻井队,槐林村3112,涿州市鼎鑫网城,涿州市华泰房地产开发有限公司,官庄,荣安成套设备制造有限公司,涿州市双塔低压配电设备厂,涿州市亿代先锋网络服务有限公司,涿州鑫凯清洗设备有限公司,涿州科华钢结构设备有限公司,中国建设银行股份有限公司涿州物探支行,涿州嘉华铝业有限公司,中国人民解放军61606部队5582变台1,涿州市翔天房地产开发有限公司1,涿州市第七建筑工程有限公司,杨楼村西,槐林村西,涿州市槐林小学柱上变压器,上念头5427,长岭3180,涿州市翔天房地产开发有限公司2,老干部局（新）,涿州市绅士城市房屋拆迁有限公司,涿州市融和味道饭店,涿州市京热热力有限责任公司,天保房地产开发有限公司,长岭5138增【纯农排变】,涿州兴泰房地产开发有限公司,官庄0125,清凉寺供电所公用华阳路A,槐林商业街0915,涿州市京源环保设备厂,官庄村西,中油涿州市石油销售公司,涿州市双和建工机械配件厂,涿州市荣利物业（兴泰花园）,涿州市万鑫金属结构有限公司,鹏渤房地产开发有限公司,长岭村北,涿州市环宇房地产开发有限公司,长岭0012,市政路灯,起重厂家属院（新）,杨楼0021,天通房地产开发有限公司5628变台1,杨楼村内,物探学校,0387556406-涿州市恒昌(集团)物业服务有限公司-专变-123990259-涿州市恒昌房地产开发有限公司,清凉寺供电所公用,10kV钢研院520线路槐林村内变压器,杨楼5072,北环泵站,北京城建北方德远涿州房地产开发有限公司1,华阳监理小区,华夏公司,涿州市翔天房地产有限公司1箱变母线间隔配电变压器,北京城建北方德远涿州房地产开发有限公司2,涿州市翔天房地产有限公司2箱变母线间隔配电变压器,环保局,东关,涿州市新林峰模具有限公司,天通房地产开发有限公司5628变台2,涿州市瑞和房地产开发有限公司,涿州市恒达技术工程有限公司,0387556406-涿州市恒昌(集团)物业服务有限公司-专变-45356658-涿州市恒昌房地产开发有限公司,北京铁路局北京供电段,涿州市范美机械制造有限责任公司,长岭村南,华晨门窗工程安装有限公司,华阳建材城,中国人民解放军61606部队5582变台2,长岭5138【纯农排变】,涿州方圆天地房地产开发有限公司","poweroffReason":"【停电原因】由于过流跳闸导致１１０ＫＶ塔上变电站１０ＫＶ华阳桥５２０线路全线停电 【变更送电】无 【发布渠道】通过９５５９８发布","powerTime":"2019-09-11 08:10:00","powerComm":"恢复送电","subsNo":"","lineNo":"","tgNo":"","tgName":null,"infoStatus":"1","orgName":"国网涿州市供电公司","typeName":null,"infoStatusName":null,"dateDay":null,"orgNos":null,"nowTime":null,"countyName":null,"streetName":null,"villageName":null,"roadName":null,"communityName":null,"tranName":null,"sdLineName":null,"cityCode":"1340626","cityName":"国网涿州市供电公司","provinceCode":null,"stopTime":"2019-09-11 09:00:00","powerType":"全部","powerOffArea":"【全线路停电】停涿州市双塔街道办事处东关社区居民委员会,清凉寺供电所华阳桥头公用变压器,东兴北街公用变压器,钻井队,槐林村3112,涿州市鼎鑫网城,涿州市华泰房地产开发有限公司,官庄,荣安成套设备制造有限公司,涿州市双塔低压配电设备厂,涿州市亿代先锋网络服务有限公司,涿州鑫凯清洗设备有限公司,涿州科华钢结构设备有限公司,中国建设银行股份有限公司涿州物探支行,涿州嘉华铝业有限公司,中国人民解放军61606部队5582变台1,涿州市翔天房地产开发有限公司1,涿州市第七建筑工程有限公司,杨楼村西,槐林村西,涿州市槐林小学柱上变压器,上念头5427,长岭3180,涿州市翔天房地产开发有限公司2,老干部局（新）,涿州市绅士城市房屋拆迁有限公司,涿州市融和味道饭店,涿州市京热热力有限责任公司,天保房地产开发有限公司,长岭5138增【纯农排变】,涿州兴泰房地产开发有限公司,官庄0125,清凉寺供电所公用华阳路A,槐林商业街0915,涿州市京源环保设备厂,官庄村西,中油涿州市石油销售公司,涿州市双和建工机械配件厂,涿州市荣利物业（兴泰花园）,涿州市万鑫金属结构有限公司,鹏渤房地产开发有限公司,长岭村北,涿州市环宇房地产开发有限公司,长岭0012,市政路灯,起重厂家属院（新）,杨楼0021,天通房地产开发有限公司5628变台1,杨楼村内,物探学校,0387556406-涿州市恒昌(集团)物业服务有限公司-专变-123990259-涿州市恒昌房地产开发有限公司,清凉寺供电所公用,10kV钢研院520线路槐林村内变压器,杨楼5072,北环泵站,北京城建北方德远涿州房地产开发有限公司1,华阳监理小区,华夏公司,涿州市翔天房地产有限公司1箱变母线间隔配电变压器,北京城建北方德远涿州房地产开发有限公司2,涿州市翔天房地产有限公司2箱变母线间隔配电变压器,环保局,东关,涿州市新林峰模具有限公司,天通房地产开发有限公司5628变台2,涿州市瑞和房地产开发有限公司,涿州市恒达技术工程有限公司,0387556406-涿州市恒昌(集团)物业服务有限公司-专变-45356658-涿州市恒昌房地产开发有限公司,北京铁路局北京供电段,涿州市范美机械制造有限责任公司,长岭村南,华晨门窗工程安装有限公司,华阳建材城,中国人民解放军61606部队5582变台2,长岭5138【纯农排变】,涿州方圆天地房地产开发有限公司","powerOffReason":"【停电原因】由于过流跳闸导致１１０ＫＶ塔上变电站１０ＫＶ华阳桥５２０线路全线停电 【变更送电】无 【发布渠道】通过９５５９８发布","powerOffId":"2019091113000233"},{"poweroffId":2019091113000228,"sgpoweroffId":null,"subsName":"","lineName":"10KV茂林庄531","pubTranName":"大泉庄杨家铺,北鲁坡内0153,北鲁坡村西北【纯农排变】,张庄村5199,冯村南内,小邵村西内,南鲁坡东3516,北鲁坡内4398,东秧坊村北【纯农排变】,张庄北二号,南鲁坡新增二号变,冯村西地西2868,张庄内0159,南鲁坡村北增,大泉庄南内,北鲁坡村南,南鲁坡新增5号变,百尺竿派出所柱上变压器,东秧坊村内0143,南鲁坡新增一号变,百尺竿镇政府煤箱式变电站母线间隔配电变压器【纯农排变】,北鲁坡村东（1）,大全庄2865,大全庄东内2770,东秧坊南3974,兰营新增5号变,大全庄西北2771,东秧坊西南内变压器,南鲁坡村西井增,冯村西地2778,张庄村北5198【纯农排变】,南鲁坡村内0157变压器,百尺杆水站变压器,大泉庄村5294,张庄村北,大泉庄村中,","scope":"【影响街道/乡镇】百尺竿乡荷花路 【高危重要客户】无 【影响客户】张庄村、西秧坊饭店、南鲁坡、北鲁坡、大泉庄、冯村、小邵村","startTime":"2019-09-11 00:27:00","stopDate":"2019-09-11 03:00:00","orgNo":"1340626","typeCode":"电网故障停限电","poweroffArea":"【全线路停电】停北鲁坡村东（1）,大全庄2865,北鲁坡村面粉厂,涿州市彩云涂料门市部,张庄村5199,涿州市鼎诚废旧物品回收站,张庄井5121,0387568360-张庄村-专变-45361038-张庄村西,涿州市金亮天鸿铸造有限公司,涿州市尚武收购站,南鲁坡东3516,010002796|白云涂料厂大全庄村西2,大泉庄杨家铺,北鲁坡内0153,北鲁坡村西北【纯农排变】,百尺竿派出所柱上变压器,东秧坊村内0143,南鲁坡新增一号变,涿州市世纪星商贸有限公司2,安顺达装饰材料厂,百尺竿镇政府煤箱式变电站母线间隔配电变压器【纯农排变】,百尺竿供电所东秧坊村东,河北建设集团靖源混凝土有限公司,西秧坊饭店,涿州市鑫海建材厂4,南鲁坡新增5号变 ,大全庄东内2770,东秧坊南3974,兰营新增5号变,大全庄西北2771,大泉庄水泥厂,东秧坊西南内变压器,涿州市鑫海建材厂5,南鲁坡村西井增,宏利水泥有限公司2,南鲁坡南井4579【纯农排变】,涿州市世纪星商贸有限公司1,河北涿州农村商业银行股份有限公司兰家营支行,涿州市交通运输局,冯村西地2778,张庄村北5198【纯农排变】,冯村南内,涿州市鑫海建材厂3,小邵村西内,北鲁坡村西井【纯农排变】,北鲁坡村东【纯农排变】,兰营供电所,北鲁坡内4398,豆庄5003【纯农排变】,徐书石粉厂,东秧坊村北【纯农排变】,利民面粉厂,涿州市泰吉模具厂,大泉庄村西地【纯农排变】,张庄北二号,南鲁坡新增二号变,冯村西地西2868,涿州市鑫海建材厂2,涿州市宏力水泥有限公司,张庄内0159,南鲁坡村北增,涿州市澍达建材经销处,大泉庄南内,北鲁坡村南,涿州市水利局百竿镇南鲁坡村,宏利水泥有限公司1,百尺竿大乡,南鲁坡村内0157变压器,涿州市鑫海建材厂1,涿州市振松石粉加工厂,观营（荷花路）,百尺杆水站变压器,北鲁坡村(南）,东秧坊面粉厂,大泉庄南地5028【纯农排变】,涿州市鑫海建材厂6,百尺竿北鲁坡【纯农排变】,大泉庄村5294,东秧坊村机井【纯农排变】,南鲁坡北井4581【纯农排变】,大泉庄北地5027【纯农排变】,涿州市人顺废旧物资回收站,张庄村北,大泉庄村中,北鲁坡井5122【纯农排变】","poweroffReason":"【停电原因】由于Ａ相接地导致１１０ＫＶ宋营变电站１０ＫＶ茂林庄５３１线路全线停电 【变更送电】无 【发布渠道】通过９５５９８发布","powerTime":"2019-09-11 02:30:00","powerComm":"恢复送电","subsNo":"","lineNo":"","tgNo":"","tgName":null,"infoStatus":"1","orgName":"国网涿州市供电公司","typeName":null,"infoStatusName":null,"dateDay":null,"orgNos":null,"nowTime":null,"countyName":null,"streetName":null,"villageName":null,"roadName":null,"communityName":null,"tranName":null,"sdLineName":null,"cityCode":"1340626","cityName":"国网涿州市供电公司","provinceCode":null,"stopTime":"2019-09-11 03:00:00","powerType":"全部","powerOffArea":"【全线路停电】停北鲁坡村东（1）,大全庄2865,北鲁坡村面粉厂,涿州市彩云涂料门市部,张庄村5199,涿州市鼎诚废旧物品回收站,张庄井5121,0387568360-张庄村-专变-45361038-张庄村西,涿州市金亮天鸿铸造有限公司,涿州市尚武收购站,南鲁坡东3516,010002796|白云涂料厂大全庄村西2,大泉庄杨家铺,北鲁坡内0153,北鲁坡村西北【纯农排变】,百尺竿派出所柱上变压器,东秧坊村内0143,南鲁坡新增一号变,涿州市世纪星商贸有限公司2,安顺达装饰材料厂,百尺竿镇政府煤箱式变电站母线间隔配电变压器【纯农排变】,百尺竿供电所东秧坊村东,河北建设集团靖源混凝土有限公司,西秧坊饭店,涿州市鑫海建材厂4,南鲁坡新增5号变 ,大全庄东内2770,东秧坊南3974,兰营新增5号变,大全庄西北2771,大泉庄水泥厂,东秧坊西南内变压器,涿州市鑫海建材厂5,南鲁坡村西井增,宏利水泥有限公司2,南鲁坡南井4579【纯农排变】,涿州市世纪星商贸有限公司1,河北涿州农村商业银行股份有限公司兰家营支行,涿州市交通运输局,冯村西地2778,张庄村北5198【纯农排变】,冯村南内,涿州市鑫海建材厂3,小邵村西内,北鲁坡村西井【纯农排变】,北鲁坡村东【纯农排变】,兰营供电所,北鲁坡内4398,豆庄5003【纯农排变】,徐书石粉厂,东秧坊村北【纯农排变】,利民面粉厂,涿州市泰吉模具厂,大泉庄村西地【纯农排变】,张庄北二号,南鲁坡新增二号变,冯村西地西2868,涿州市鑫海建材厂2,涿州市宏力水泥有限公司,张庄内0159,南鲁坡村北增,涿州市澍达建材经销处,大泉庄南内,北鲁坡村南,涿州市水利局百竿镇南鲁坡村,宏利水泥有限公司1,百尺竿大乡,南鲁坡村内0157变压器,涿州市鑫海建材厂1,涿州市振松石粉加工厂,观营（荷花路）,百尺杆水站变压器,北鲁坡村(南）,东秧坊面粉厂,大泉庄南地5028【纯农排变】,涿州市鑫海建材厂6,百尺竿北鲁坡【纯农排变】,大泉庄村5294,东秧坊村机井【纯农排变】,南鲁坡北井4581【纯农排变】,大泉庄北地5027【纯农排变】,涿州市人顺废旧物资回收站,张庄村北,大泉庄村中,北鲁坡井5122【纯农排变】","powerOffReason":"【停电原因】由于Ａ相接地导致１１０ＫＶ宋营变电站１０ＫＶ茂林庄５３１线路全线停电 【变更送电】无 【发布渠道】通过９５５９８发布","powerOffId":"2019091113000228"},{"poweroffId":2019091113000227,"sgpoweroffId":null,"subsName":"","lineName":"10kV512杨家台线","pubTranName":"北神南3|26002170,复兴混用|26000680,青榆沟混用|26000730,向明混用|26000600,神北混用26002020,北神南|26000750,娘娘宫混用|26000590,白福台新建混用,北神南胜杰综合2950,上齐河混用|26000640,神北道边综合6978,北神南4|26002180,南神南1|26001680,新华混用|26000520,寨沟野猪养殖,北神南村北综合6381,白福台新建混用,神北学校|26000430,娘娘宫松树台混用|26001860,神北李家庄|26000470,桑树营混用|26000700,百福台混用|26000620,北神南6|26001780,张家庄混用|26000690,杨家台混用|26000560,胜利26002080,顺利混用|26000460,神北村西|26001540,神北道边综合6978,北神南3|26002170,南神南1|26001680,大黄峪混用|26000500,上齐河混用|26000640,龙潭3综合,北神南村北综合6381,胜利|26000450,神北混用26002020,北神南综合段新秋9977,神北|26000510,青榆沟村光伏扶贫变压器【光伏】,北神南村东综合6972,龙潭混用|26000670,胜利26002080,刘家营2混用|26001840,南神南3|26001660,北神南5|26001550,七八七（杨家台）,杨家台混用|26000560,南神南2|26001670,龙潭湖采摘,顺利混用|26000460,杨家台东台综合6377,南神南南坡2号综合0355,南神南2|26001670,神北唐漂混用|26001710,峦头|26000370,神北李家庄|26000470,南神南南坡2号综合0355,北神南2|26002160,永兴混用|26000720,青榆沟混用|26000730,北神南村中新增综合0396,龙潭混用|26000670,观音堂混用|26000710,七八七（杨家台）,娘娘宫（八九队）混用|26000580,娘娘宫松树台混用|26001860,北神南6|26001780,胜利26001990,北神南村中新增综合0396,刘家营混用|26000480,神北学校|26000430,观音堂混用|26000710,下齐河混用|26000650,峦头混用26001990,北神南综合段新秋9977,","scope":"【影响街道/乡镇】大悲乡、神南镇【高危重要客户】无【影响客户】峦头、南神南、北神南、胜利、顺利、神北、李家庄、刘家营、大黄峪、新华、杨家台、娘娘宫、向明、百福台、上齐河、下齐河、龙谭、复兴、张家庄、桑家营、观音堂、永兴、唐河漂流、青榆沟","startTime":"2019-09-11 12:29:15","stopDate":"2019-09-11 17:00:00","orgNo":"1340621","typeCode":"电网故障停限电","poweroffArea":"【全线路停电】停北神南新增综合,张家庄混用|26000690,北大悲村西1号农业【纯农排变】,北神南村东综合6972,北神南村中新增综合0396,青榆沟混用|26000730,大悲供电所【纯农排变】,龙潭3综合,南神南1700农排|26001700【纯农排变】,神北学校|26000430,中国移动,南神南村东1号农业【纯农排变】","poweroffReason":"【停电原因】由于１３９号杆拉线搭在横担上造成Ａ相接地导致３５ＫＶ大悲变电站１０ＫＶ５１２杨家台线路全线停电【变更送电】因抢修进度加快原因，送电时间由１８：００变更为１７：００【发布渠道】通过９５５９８发布","powerTime":"2019-09-11 16:20:43","powerComm":"已送电","subsNo":"","lineNo":"","tgNo":"","tgName":null,"infoStatus":"1","orgName":"国网顺平县电力局","typeName":null,"infoStatusName":null,"dateDay":null,"orgNos":null,"nowTime":null,"countyName":null,"streetName":null,"villageName":null,"roadName":null,"communityName":null,"tranName":null,"sdLineName":null,"cityCode":"1340621","cityName":"国网顺平县电力局","provinceCode":null,"stopTime":"2019-09-11 17:00:00","powerType":"全部","powerOffArea":"【全线路停电】停北神南新增综合,张家庄混用|26000690,北大悲村西1号农业【纯农排变】,北神南村东综合6972,北神南村中新增综合0396,青榆沟混用|26000730,大悲供电所【纯农排变】,龙潭3综合,南神南1700农排|26001700【纯农排变】,神北学校|26000430,中国移动,南神南村东1号农业【纯农排变】","powerOffReason":"【停电原因】由于１３９号杆拉线搭在横担上造成Ａ相接地导致３５ＫＶ大悲变电站１０ＫＶ５１２杨家台线路全线停电【变更送电】因抢修进度加快原因，送电时间由１８：００变更为１７：００【发布渠道】通过９５５９８发布","powerOffId":"2019091113000227"},{"poweroffId":2019091113000225,"sgpoweroffId":null,"subsName":"","lineName":"10kV郎庄线574","pubTranName":"1西赵庄内2,1郎庄内6,1郎庄内5,1郎庄内14,西赵庄内1号,1管庄内2,郎庄幼儿园,1杨庄内2（郎庄线590）,郎庄内2,滕庄小学,1郎庄内16,1东五尧都市桃源内4,1东五尧都市桃源内2,1腾庄内4,2杨庄外3【纯农排变】,1滕庄内7,1腾庄内3,1郎庄内11,1郎庄内8,1郎庄内15,1管庄内6,1东五尧都市桃源内3,1郎庄内7(郎庄590）,1腾庄内6,郎庄外4【纯农排变】,1郎庄内10,郎庄内1号,1东五尧都市桃源内1,1东五尧都市桃源内5,1腾庄内5,1腾庄内1,1郎庄内9,1郎庄内13,1郎庄内12,1腾庄内2,郎庄内3,1杨庄内1,郎庄内4,","scope":"【影响街道/乡镇】 清苑镇、五尧乡 【高危重要客户】无 【影响客户】郎庄、西赵庄、腾庄、杨庄、管庄、都市桃源","startTime":"2019-09-10 02:20:00","stopDate":"2019-09-10 05:00:00","orgNo":"1340618","typeCode":"电网故障停限电","poweroffArea":"【全线路停电】停清苑县博皓塑料制品制造厂,2管庄外1【纯农排变】,1郎庄内6,西五尧李连祥草坪场,保定常青实业有限公司,2管庄外6【纯农排变】,2管庄外3【纯农排变】,1郎庄内5,保定市金水湾纸业有限公司,1郎庄内14,清苑县金水湾纸业有限公司,西赵庄内1号,2腾庄外3【纯农排变】,2腾庄外5【纯农排变】,1管庄内2,2西赵庄外2【纯农排变】,郎庄幼儿园,西五尧陈云才杆厂,郎庄外8【纯农排变】,1杨庄内2（郎庄线590）,2西赵庄外3【纯农排变】,2郎庄外13【纯农排变】,2杨庄外2【纯农排变】,2杨庄外5【纯农排变】,安庄外3【纯农排变】,郎庄内2,2杨庄外4【纯农排变】,郎庄外11【纯农排变】,滕庄小学,1郎庄内16,1东五尧都市桃源内4,顺发先进化工有限公司,1东五尧都市桃源内2,郎庄外10【纯农排变】,1腾庄内4,2郎庄外14【纯农排变】,2腾庄外8【纯农排变】,2腾庄外9【纯农排变】,安庄外1【纯农排变】,2管庄外5【纯农排变】,2郎庄外12【纯农排变】,郎庄外6【纯农排变】,清苑县兴旺氧化锌有限公司,滕庄郭红起养牛厂,袁进彪粉碎厂,2管庄外4【纯农排变】,1西赵庄内2,郎庄内1号,2杨庄外1【纯农排变】,2管庄外2【纯农排变】,1东五尧都市桃源内1,1东五尧都市桃源内5,1腾庄内5,1腾庄内1,2杨庄外3【纯农排变】,1滕庄内7,1腾庄内3,1郎庄内11,兴盛养牛场,清苑县格杰机械厂,1郎庄内8,1郎庄内15,1管庄内6,领峰绿源科技保定有限公司,保定常青实业集团有限公司,1东五尧都市桃源内3,1郎庄内7(郎庄590）,安庄外4【纯农排变】,1腾庄内6,2郎庄外7【纯农排变】,郎庄外4【纯农排变】,保定市南市区宇源园艺种植中心,1郎庄内10,1郎庄内9,0679869755-保定市宏图汽车零配件制造有限公司-专变-219725860-保定市宏图汽车零配件制造有限公司,2腾庄外4【纯农排变】,程长会,郎庄外9【纯农排变】,清苑县财政局,安庄外2【纯农排变】,农大2分厂仝保柱砖厂,郎庄外5【纯农排变】,2腾庄外2【纯农排变】,2腾庄外6【纯农排变】,郎庄内4,2腾庄外7【纯农排变】,2腾庄外10【纯农排变】,1郎庄内13,清苑县大兴奶牛养殖有限公司,1郎庄内12,2腾庄外1【纯农排变】,1腾庄内2,保定市清苑县中兴机械配件加工厂,郎庄内3,1杨庄内1","poweroffReason":"【停电原因】由于主干１号杆开关掉闸导致１１０ＫＶ赵庄变电站１０ＫＶ郎庄线５７４线路全线停电 【变更送电】因抢修进度加快原因，送电时间由１１日１３：００变更为１０日０５：００ 【发布渠道】通过９５５９８发布","powerTime":"2019-09-10 04:25:00","powerComm":"王凯通知已送电","subsNo":"","lineNo":"","tgNo":"","tgName":null,"infoStatus":"1","orgName":"国网清苑县供电公司","typeName":null,"infoStatusName":null,"dateDay":null,"orgNos":null,"nowTime":null,"countyName":null,"streetName":null,"villageName":null,"roadName":null,"communityName":null,"tranName":null,"sdLineName":null,"cityCode":"1340618","cityName":"国网清苑县供电公司","provinceCode":null,"stopTime":"2019-09-10 05:00:00","powerType":"全部","powerOffArea":"【全线路停电】停清苑县博皓塑料制品制造厂,2管庄外1【纯农排变】,1郎庄内6,西五尧李连祥草坪场,保定常青实业有限公司,2管庄外6【纯农排变】,2管庄外3【纯农排变】,1郎庄内5,保定市金水湾纸业有限公司,1郎庄内14,清苑县金水湾纸业有限公司,西赵庄内1号,2腾庄外3【纯农排变】,2腾庄外5【纯农排变】,1管庄内2,2西赵庄外2【纯农排变】,郎庄幼儿园,西五尧陈云才杆厂,郎庄外8【纯农排变】,1杨庄内2（郎庄线590）,2西赵庄外3【纯农排变】,2郎庄外13【纯农排变】,2杨庄外2【纯农排变】,2杨庄外5【纯农排变】,安庄外3【纯农排变】,郎庄内2,2杨庄外4【纯农排变】,郎庄外11【纯农排变】,滕庄小学,1郎庄内16,1东五尧都市桃源内4,顺发先进化工有限公司,1东五尧都市桃源内2,郎庄外10【纯农排变】,1腾庄内4,2郎庄外14【纯农排变】,2腾庄外8【纯农排变】,2腾庄外9【纯农排变】,安庄外1【纯农排变】,2管庄外5【纯农排变】,2郎庄外12【纯农排变】,郎庄外6【纯农排变】,清苑县兴旺氧化锌有限公司,滕庄郭红起养牛厂,袁进彪粉碎厂,2管庄外4【纯农排变】,1西赵庄内2,郎庄内1号,2杨庄外1【纯农排变】,2管庄外2【纯农排变】,1东五尧都市桃源内1,1东五尧都市桃源内5,1腾庄内5,1腾庄内1,2杨庄外3【纯农排变】,1滕庄内7,1腾庄内3,1郎庄内11,兴盛养牛场,清苑县格杰机械厂,1郎庄内8,1郎庄内15,1管庄内6,领峰绿源科技保定有限公司,保定常青实业集团有限公司,1东五尧都市桃源内3,1郎庄内7(郎庄590）,安庄外4【纯农排变】,1腾庄内6,2郎庄外7【纯农排变】,郎庄外4【纯农排变】,保定市南市区宇源园艺种植中心,1郎庄内10,1郎庄内9,0679869755-保定市宏图汽车零配件制造有限公司-专变-219725860-保定市宏图汽车零配件制造有限公司,2腾庄外4【纯农排变】,程长会,郎庄外9【纯农排变】,清苑县财政局,安庄外2【纯农排变】,农大2分厂仝保柱砖厂,郎庄外5【纯农排变】,2腾庄外2【纯农排变】,2腾庄外6【纯农排变】,郎庄内4,2腾庄外7【纯农排变】,2腾庄外10【纯农排变】,1郎庄内13,清苑县大兴奶牛养殖有限公司,1郎庄内12,2腾庄外1【纯农排变】,1腾庄内2,保定市清苑县中兴机械配件加工厂,郎庄内3,1杨庄内1","powerOffReason":"【停电原因】由于主干１号杆开关掉闸导致１１０ＫＶ赵庄变电站１０ＫＶ郎庄线５７４线路全线停电 【变更送电】因抢修进度加快原因，送电时间由１１日１３：００变更为１０日０５：００ 【发布渠道】通过９５５９８发布","powerOffId":"2019091113000225"},{"poweroffId":2019091113000223,"sgpoweroffId":null,"subsName":"","lineName":"10KV东兴南街546","pubTranName":"中心社人行(新),西辛庄0430【纯农排变】,辛庄村西台区,涿州市西辛庄中心学校煤箱式变电站配电变压器,商业局家属院(新),小吴村幼儿园,西辛庄0446【纯农排变】,汇元酒店式公寓箱变母线间隔配电变压器,东兴小区1#（清凉寺所）,中涿州建筑工程公司,涿州市远方名流房地产开发有限公司2,三台区0431,研制厂小区2间隔配电变压器,涿州市地方税务局,机械总队(新),涿州市远方名流房地产开发有限公司1,三台区0452,西辛庄0439,东兴小区2#（清凉寺所）,","scope":"【影响街道/乡镇】清凉寺城区建设路、范阳路、东兴南街 【高危重要客户】无 【影响客户】中煤一七三队、诚信大厦、财政局家属院、方正园小区、地震台、东兴小区、地方税务局、涿州市劳动技工学校、惠友橙园、惠友６２店、交通局、名流一品小区、新府阳光小区、温馨小区、宏远家园、东方家园、范阳小区、西辛庄村、商业局、配件厂小区、机械总队小区、汇元酒店式公寓、馨苑小区、中心社、桥东酒店、方正馨园小区、金正小区、人行家属院","startTime":"2019-09-10 09:02:00","stopDate":"2019-09-10 11:00:00","orgNo":"1340626","typeCode":"电网故障停限电","poweroffArea":"【全线路停电】停烟酒公司,西辛庄0439,东方家园2,中涿州建筑工程公司,范阳花园小区,市政路灯,涿州市远方名流房地产开发有限公司2,三台区0431,涿州市方正圆物业管理有限公司,0387557962-天马房地产开发有限公司-专变-45356712-天马房地产开发有限公司,涿州市时代汇元物业服务有限公司1,机械总队(新),三台区0452,0690525601-涿州市桥东餐饮服务有限公司-专变-232280637-涿州市桥东餐饮服务有限公司,东兴小区2#（清凉寺所）,涿州市地方税务局,河北惠友商业连锁发展有限公司范阳中路310号,西辛庄0430【纯农排变】,辛庄村西台区,涿州市弘昕房地产开发有限公司B,涿州市惠友房地产开发有限公司东兴南街,清凉寺供电所,小吴村幼儿园,河北惠友商业连锁发展有限公司,汇元酒店式公寓箱变母线间隔配电变压器,涿州市劳动技工学校,地震台,天马（交通局）,中煤建筑公司方正小区,研制厂小区2间隔配电变压器,涿州市远方名流房地产开发有限公司1,新府房地产开发有限公司,中心社人行(新),涿州市弘昕房地产开发有限公司,涿州市西辛庄中心学校煤箱式变电站配电变压器,涿州市京热热力有限责任公司,商业局家属院(新),城建公司,财政局家属院,新府阳光小区,市政设施管理处,涿州市时代汇元物业服务有限公司2,东方家园1,西辛庄0446【纯农排变】,0546354386-河北诚信大厦有限责任公司-专变-47849759-诚信大厦,馨苑小区,东兴小区1#（清凉寺所）,涿州市弘昕房地产开发有限公司A","poweroffReason":"【停电原因】由于Ｃ相接地导致１１０ＫＶ安泰变电站１０ＫＶ东兴南街５４６线路全线停电 【变更送电】无 【发布渠道】通过９５５９８发布","powerTime":"2019-09-10 10:30:00","powerComm":"恢复送电","subsNo":"","lineNo":"","tgNo":"","tgName":null,"infoStatus":"1","orgName":"国网涿州市供电公司","typeName":null,"infoStatusName":null,"dateDay":null,"orgNos":null,"nowTime":null,"countyName":null,"streetName":null,"villageName":null,"roadName":null,"communityName":null,"tranName":null,"sdLineName":null,"cityCode":"1340626","cityName":"国网涿州市供电公司","provinceCode":null,"stopTime":"2019-09-10 11:00:00","powerType":"全部","powerOffArea":"【全线路停电】停烟酒公司,西辛庄0439,东方家园2,中涿州建筑工程公司,范阳花园小区,市政路灯,涿州市远方名流房地产开发有限公司2,三台区0431,涿州市方正圆物业管理有限公司,0387557962-天马房地产开发有限公司-专变-45356712-天马房地产开发有限公司,涿州市时代汇元物业服务有限公司1,机械总队(新),三台区0452,0690525601-涿州市桥东餐饮服务有限公司-专变-232280637-涿州市桥东餐饮服务有限公司,东兴小区2#（清凉寺所）,涿州市地方税务局,河北惠友商业连锁发展有限公司范阳中路310号,西辛庄0430【纯农排变】,辛庄村西台区,涿州市弘昕房地产开发有限公司B,涿州市惠友房地产开发有限公司东兴南街,清凉寺供电所,小吴村幼儿园,河北惠友商业连锁发展有限公司,汇元酒店式公寓箱变母线间隔配电变压器,涿州市劳动技工学校,地震台,天马（交通局）,中煤建筑公司方正小区,研制厂小区2间隔配电变压器,涿州市远方名流房地产开发有限公司1,新府房地产开发有限公司,中心社人行(新),涿州市弘昕房地产开发有限公司,涿州市西辛庄中心学校煤箱式变电站配电变压器,涿州市京热热力有限责任公司,商业局家属院(新),城建公司,财政局家属院,新府阳光小区,市政设施管理处,涿州市时代汇元物业服务有限公司2,东方家园1,西辛庄0446【纯农排变】,0546354386-河北诚信大厦有限责任公司-专变-47849759-诚信大厦,馨苑小区,东兴小区1#（清凉寺所）,涿州市弘昕房地产开发有限公司A","powerOffReason":"【停电原因】由于Ｃ相接地导致１１０ＫＶ安泰变电站１０ＫＶ东兴南街５４６线路全线停电 【变更送电】无 【发布渠道】通过９５５９８发布","powerOffId":"2019091113000223"}],"pageModel":{"pageNow":568,"totalCount":10973,"totalPage":1098,"tableRows":0,"pageCount":10,"beginCount":5670},"isExperi":"1"}