{"message":"","today":"2020-06-15","seleList":[{"poweroffId":2019091013000590,"sgpoweroffId":null,"subsName":"","lineName":"10kV568食品园Ⅱ线","pubTranName":"清水河公用照明8台区,清水河(016):农业1台区【纯农排变】,北门街(009):公用照明13台区,清水河：照明5台区,清水河(016):照明4台区,清水河公用照明11台区出线间隔2配电变压器,清水河(016):照明1台区,清水河公用照明7台区,客户投资_清水河(016):照明2台区,北门街(009):照明3台区,清水河公用农业9台区【纯农排变】,北门街公用照明8台区,清水河(016):照明3台区,","scope":"【影响街道/乡镇】北城区【高危重要客户】无【影响客户】北门街七队（１０７国道以北）、清水河、４２团、御墅蓝山、第三运输公司、安通充电桩、衡展机械厂、黎明散热器厂、宏利棉织厂、利康养殖厂、１０７国道清水河养路工区、中农合公司、二职中、师范学校、 三仁建筑公司","startTime":"2019-09-10 01:30:00","stopDate":"2019-09-10 06:00:00","orgNo":"1340610","typeCode":"电网故障停限电","poweroffArea":"【全线路停电】停清水河公用照明11台区出线间隔2配电变压器,清水河(016):照明1台区,清水河公用照明7台区,客户投资_清水河(016):照明2台区,北门街(009):照明3台区,清水河公用农业9台区【纯农排变】,北门街公用照明8台区,清水河(016):照明3台区,清水河公用照明8台区,清水河(016):农业1台区【纯农排变】,北门街(009):公用照明13台区,清水河：照明5台区,清水河(016):照明4台区,建投能源定州热力有限责任公司_柱上变压器 ,清水河(016):农业7台区【纯农排变】,定州市北城区清水河社区污水处理厂变压器,靖成章,河北中诚安邦房地产开发有限公司变压器1,定州市钇轩汽车贸易有限公司变压器,0387417457-定州市职业技术教育中心-专变-45264323-定州市职业技术教育中心,0387417415-中国人民武装警察8643部队-专变-45264266-8643部队,0621494152-定州市中标节能技术服务有限公司-专变-129463653-定州市住房和城乡建设局 路灯107国道01 02 03号1变压器,定州市云天汽车贸易有限公司变压器,定州市铸达不锈钢制品有限公司变压器,唐城村(019):农业1台区【纯农排变】,保定师专定州分校,定州市永发诚信畜牧养殖有限公司,定州市滕海石材经销处,清水河(016):农业2台区【纯农排变】,0654673706-河北保定运输集团有限责任公司第三运输公司-专变-183754008-河北保定运输集团有限责任公司第三运输公司变压器,清水河(016):农业3台区【纯农排变】,河北保定运输集团有限责任公司第三运输公司,定州市北城区清水河村委会变压器,定州市宏利棉织厂,河北中合农产品市场管理有限公司变压器,河北中合农产品市场管理有限公司,0616759877-定州市北城区清水河村村民委员会(新民居二期)-专变-128470671-定州市北城区清水河村村民委员会（新民居二期）变压器,0617956471-定州市北城区唐城村民委员会(新民居)-专变-128651895-定州市北城区唐城村民委员会（新民居）2变压器2,清水河公用照明6台区,定州市职业技术教育中心变压器,河北三仁建筑装饰工程有限公司变压器,志远孵化场,保定交通局107国道定州养路工区,0616759877-定州市北城区清水河村村民委员会(新民居二期)-专变-128470667-定州市北城区清水河村村民委员会（新民居二期）变压器,河北中诚安邦房地产开发有限公司变压器2,0621494152-定州市中标节能技术服务有限公司-专变-129453497-定州市住房和城乡建设局 路灯107国道01 02 03号2变压器,定州市公共交通有限公司变压器1,0617956471-定州市北城区唐城村民委员会(新民居)-专变-128649090-定州市北城区唐城村民委员会（新民居）1,松本制衣公司,0621494152-定州市中标节能技术服务有限公司-专变-129463658-定州市住房和城乡建设局 路灯107国道01 02 03号3变压器,定州市公共交通有限公司变压器2,定州市北城区唐城村民委员会（新民居）3,0617956471-定州市北城区唐城村民委员会(新民居)-专变-128651889-定州市北城区唐城村民委员会（新民居）2变压器1,定州市利康养殖厂变压器,清水河(016):农业4台区【纯农排变】,定州市华都汽车配件表面处理厂,河北保定运输集团有限责任公司第三公司变压器,定州市黎明散热器厂变压器,清水河(016):农业5台区【纯农排变】,定州市长奥汽车配件有限公司","poweroffReason":"【停电原因】由于线路开关掉闸导致１１０ＫＶ清风店变电站１０ＫＶ５６８食品园ＩＩ线路全线停电 【变更送电】因抢修进度加快原因，送电时间由１８：００变更为０６：００ 【发布渠道】９５５９８","powerTime":"2019-09-10 05:26:00","powerComm":"已送电","subsNo":"","lineNo":"","tgNo":"","tgName":null,"infoStatus":"1","orgName":"国网定州市供电公司","typeName":null,"infoStatusName":null,"dateDay":null,"orgNos":null,"nowTime":null,"countyName":null,"streetName":null,"villageName":null,"roadName":null,"communityName":null,"tranName":null,"sdLineName":null,"cityCode":"1340610","cityName":"国网定州市供电公司","provinceCode":null,"stopTime":"2019-09-10 06:00:00","powerType":"全部","powerOffArea":"【全线路停电】停清水河公用照明11台区出线间隔2配电变压器,清水河(016):照明1台区,清水河公用照明7台区,客户投资_清水河(016):照明2台区,北门街(009):照明3台区,清水河公用农业9台区【纯农排变】,北门街公用照明8台区,清水河(016):照明3台区,清水河公用照明8台区,清水河(016):农业1台区【纯农排变】,北门街(009):公用照明13台区,清水河：照明5台区,清水河(016):照明4台区,建投能源定州热力有限责任公司_柱上变压器 ,清水河(016):农业7台区【纯农排变】,定州市北城区清水河社区污水处理厂变压器,靖成章,河北中诚安邦房地产开发有限公司变压器1,定州市钇轩汽车贸易有限公司变压器,0387417457-定州市职业技术教育中心-专变-45264323-定州市职业技术教育中心,0387417415-中国人民武装警察8643部队-专变-45264266-8643部队,0621494152-定州市中标节能技术服务有限公司-专变-129463653-定州市住房和城乡建设局 路灯107国道01 02 03号1变压器,定州市云天汽车贸易有限公司变压器,定州市铸达不锈钢制品有限公司变压器,唐城村(019):农业1台区【纯农排变】,保定师专定州分校,定州市永发诚信畜牧养殖有限公司,定州市滕海石材经销处,清水河(016):农业2台区【纯农排变】,0654673706-河北保定运输集团有限责任公司第三运输公司-专变-183754008-河北保定运输集团有限责任公司第三运输公司变压器,清水河(016):农业3台区【纯农排变】,河北保定运输集团有限责任公司第三运输公司,定州市北城区清水河村委会变压器,定州市宏利棉织厂,河北中合农产品市场管理有限公司变压器,河北中合农产品市场管理有限公司,0616759877-定州市北城区清水河村村民委员会(新民居二期)-专变-128470671-定州市北城区清水河村村民委员会（新民居二期）变压器,0617956471-定州市北城区唐城村民委员会(新民居)-专变-128651895-定州市北城区唐城村民委员会（新民居）2变压器2,清水河公用照明6台区,定州市职业技术教育中心变压器,河北三仁建筑装饰工程有限公司变压器,志远孵化场,保定交通局107国道定州养路工区,0616759877-定州市北城区清水河村村民委员会(新民居二期)-专变-128470667-定州市北城区清水河村村民委员会（新民居二期）变压器,河北中诚安邦房地产开发有限公司变压器2,0621494152-定州市中标节能技术服务有限公司-专变-129453497-定州市住房和城乡建设局 路灯107国道01 02 03号2变压器,定州市公共交通有限公司变压器1,0617956471-定州市北城区唐城村民委员会(新民居)-专变-128649090-定州市北城区唐城村民委员会（新民居）1,松本制衣公司,0621494152-定州市中标节能技术服务有限公司-专变-129463658-定州市住房和城乡建设局 路灯107国道01 02 03号3变压器,定州市公共交通有限公司变压器2,定州市北城区唐城村民委员会（新民居）3,0617956471-定州市北城区唐城村民委员会(新民居)-专变-128651889-定州市北城区唐城村民委员会（新民居）2变压器1,定州市利康养殖厂变压器,清水河(016):农业4台区【纯农排变】,定州市华都汽车配件表面处理厂,河北保定运输集团有限责任公司第三公司变压器,定州市黎明散热器厂变压器,清水河(016):农业5台区【纯农排变】,定州市长奥汽车配件有限公司","powerOffReason":"【停电原因】由于线路开关掉闸导致１１０ＫＶ清风店变电站１０ＫＶ５６８食品园ＩＩ线路全线停电 【变更送电】因抢修进度加快原因，送电时间由１８：００变更为０６：００ 【发布渠道】９５５９８","powerOffId":"2019091013000590"},{"poweroffId":2019091013000584,"sgpoweroffId":null,"subsName":"","lineName":"龙湾头537","pubTranName":"舍龙城村5#,","scope":"【影响街道/乡镇】凌云册乡【高危重要客户】无【影响客户】舍龙城村","startTime":"2019-09-19 05:00:00","stopDate":"2019-09-19 18:00:00","orgNo":"1340625","typeCode":"计划停电","poweroffArea":"【单台区停电】停舍龙城村5#","poweroffReason":"【停电原因】由于立杆、更换导线导致３５ＫＶ燕发变电站龙湾头５３７线路舍龙城村５＃公变台区停电【变更送电】无【发布渠道】保定市易县电视台（０９月１１日００：００时至０９月１８日２４:００时之间）屏幕上方滚动","powerTime":"2019-09-19 17:12:14","powerComm":"已送电","subsNo":"","lineNo":"","tgNo":"","tgName":null,"infoStatus":"1","orgName":"国网易县供电公司","typeName":null,"infoStatusName":null,"dateDay":null,"orgNos":null,"nowTime":null,"countyName":null,"streetName":null,"villageName":null,"roadName":null,"communityName":null,"tranName":null,"sdLineName":null,"cityCode":"1340625","cityName":"国网易县供电公司","provinceCode":null,"stopTime":"2019-09-19 18:00:00","powerType":"全部","powerOffArea":"【单台区停电】停舍龙城村5#","powerOffReason":"【停电原因】由于立杆、更换导线导致３５ＫＶ燕发变电站龙湾头５３７线路舍龙城村５＃公变台区停电【变更送电】无【发布渠道】保定市易县电视台（０９月１１日００：００时至０９月１８日２４:００时之间）屏幕上方滚动","powerOffId":"2019091013000584"},{"poweroffId":2019091013000572,"sgpoweroffId":null,"subsName":"","lineName":"10kV513商业街线","pubTranName":"（1）南庄子村公用照明1台区,客户投资_（145）大道观公用照明5台区,（33）武装部公用照明1台区,（55）大道观公用照明4台区,（183）市社院公用照明3台区,（116）安装公司公用照明台区,（179）市社院公用照明1台区,（148）北环院公用照明台区中压出线间隔配电变压器,（71）水暖器材院公用照明台区,大道观公用照明8台区,（1）南庄子村公用照明2台区,（55）大道观公用照明2台区,（181）市社院公用照明2台区,（156）工农行院公用照明台区,（152）大道观公用照明6台区,（75）标准件院公用照明1台区中压出线间隔配电变压器,（178）武装部公用照明2台区,（104）标准件院公用照明2台区,（55）大道观公用照明3台区,","scope":"【影响街道/乡镇】北城区、商业北街、北环路、大道观街、大道观后街、女人后街【高危重要客户】无【影响客户】南庄子、供电局、苏园、阀门厂家属院（水暖器材家属院）、华夏银行、实验中学、金田小区、市社院、电建公司家属院、明月豪苑二期、盛世豪庭小区、温馨家园二期（和力鑫区）、标准件家属院、交警大队、温馨家园小区、２００９小区、旭景园小区、二中家属院、金顺小区、中国网络通信公司","startTime":"2019-09-10 04:10:00","stopDate":"2019-09-10 08:30:00","orgNo":"1340610","typeCode":"电网故障停限电","poweroffArea":"【全线路停电】停定州市长城机械设备有限公司,英才中学路灯,0626374921-河北陈氏房地产开发有限公司 盛世豪庭-专变-137946805-河北陈氏房地产开发有限公司 盛世豪庭4变压器5,0565890968-河北东升房地产开发集团有限公司-专变-123681470-河北东升房地产开发集团有限公司变压器,温馨家园（二期）,定州市园林处变压器,河北荣烽房地产开发有限公司2变压器1,旭景园小区,金顺房地产,河北荣烽房地产开发有限公司3、4号楼配变1,河北东升房地产开发集团有限公司变压器,电信局,河北荣烽房地产开发有限公司2变压器2,（104）标准件院公用照明2台区,0565890968-河北东升房地产开发集团有限公司-专变-123745929-河北东升房地产开发集团有限公司变压器,河北荣烽房地产开发有限公司公用配变,0626374921-河北陈氏房地产开发有限公司 盛世豪庭-专变-137928833-河北陈氏房地产开发有限公司 盛世豪庭4变压器6,二中,（179）市社院公用照明1台区,河北陈氏房地产开发有限公司 盛世豪庭3变压器1,大道观街东路灯,（148）北环院公用照明台区中压出线间隔配电变压器,实验中学北,（71）水暖器材院公用照明台区,交警队,定州市经盛纬腾房地产开发有限公司变压器,定州市和力房地产开发有限公司,（1）南庄子村公用照明2台区,河北荣烽房地产开发有限公司 苏园供暖变压器,0626374921-河北陈氏房地产开发有限公司 盛世豪庭-专变-137946782-河北陈氏房地产开发有限公司 盛世豪庭3变压器2,定州市供电有限责任公司,定州市人民政府（市民中心）变压器,河北陈氏房地产开发有限公司 盛世豪庭4变压器1,河北陈氏房地产开发有限公司 盛世豪庭1变压器2,信用合作社,实验中学南,定州市和力房地产开发公司,0565890968-河北东升房地产开发集团有限公司-专变-123681458-河北东升房地产开发集团有限公司,定州市锦绣海悦酒店变压器,河北荣烽房地产开发有限公司 苏园南1、2号楼,河北华通建工集团有限公司,0626374921-河北陈氏房地产开发有限公司 盛世豪庭-专变-137946799-河北陈氏房地产开发有限公司 盛世豪庭4变压器3,市社院,（55）大道观公用照明2台区,河北海鹏房地产开发有限公司,（55）大道观公用照明3台区,0565890968-河北东升房地产开发集团有限公司-专变-118688035-河北东升房地产开发集团有限公司变压器,（152）大道观公用照明6台区,河北陈氏房地产开发有限公司 盛世豪庭2变压器,定州市宝塔物业管理有限公司变压器,张氏房地产开发公司,（1）南庄子村公用照明1台区,定州市中标节能技术服务有限公司变压器,客户投资_（145）大道观公用照明5台区,（33）武装部公用照明1台区,（55）大道观公用照明4台区,0626374921-河北陈氏房地产开发有限公司 盛世豪庭-专变-137946792-河北陈氏房地产开发有限公司 盛世豪庭4变压器2,（183）市社院公用照明3台区,河北荣烽房地产开发有限公司1变压器1,（116）安装公司公用照明台区,大道观公用照明8台区,（181）市社院公用照明2台区,河北荣烽房地产开发有限公司1变压器2,河北荣烽房地产开发有限公司3、4号楼配变2,（156）工农行院公用照明台区,（75）标准件院公用照明1台区中压出线间隔配电变压器,建投能源定州热力有限公司变压器,（178）武装部公用照明2台区,河北陈氏房地产开发有限公司 盛世豪庭1变压器1,武警8640部队（通讯营）,三中,新兴信用社,中药厂,大道观街西路灯,河北荣烽房地产开发有限公司 苏园南1、2号楼变压器2","poweroffReason":"【停电原因】由于水泥厂分支避雷器击穿导致１１０ＫＶ总司屯变电站１０ＫＶ５１３商业街线路全线停电 【变更送电】因抢修进度加快原因，送电时间由１８：００变更为０８：３０　 【发布渠道】９５５９８","powerTime":"2019-09-10 07:54:00","powerComm":"已送电","subsNo":"","lineNo":"","tgNo":"","tgName":null,"infoStatus":"1","orgName":"国网定州市供电公司","typeName":null,"infoStatusName":null,"dateDay":null,"orgNos":null,"nowTime":null,"countyName":null,"streetName":null,"villageName":null,"roadName":null,"communityName":null,"tranName":null,"sdLineName":null,"cityCode":"1340610","cityName":"国网定州市供电公司","provinceCode":null,"stopTime":"2019-09-10 08:30:00","powerType":"全部","powerOffArea":"【全线路停电】停定州市长城机械设备有限公司,英才中学路灯,0626374921-河北陈氏房地产开发有限公司 盛世豪庭-专变-137946805-河北陈氏房地产开发有限公司 盛世豪庭4变压器5,0565890968-河北东升房地产开发集团有限公司-专变-123681470-河北东升房地产开发集团有限公司变压器,温馨家园（二期）,定州市园林处变压器,河北荣烽房地产开发有限公司2变压器1,旭景园小区,金顺房地产,河北荣烽房地产开发有限公司3、4号楼配变1,河北东升房地产开发集团有限公司变压器,电信局,河北荣烽房地产开发有限公司2变压器2,（104）标准件院公用照明2台区,0565890968-河北东升房地产开发集团有限公司-专变-123745929-河北东升房地产开发集团有限公司变压器,河北荣烽房地产开发有限公司公用配变,0626374921-河北陈氏房地产开发有限公司 盛世豪庭-专变-137928833-河北陈氏房地产开发有限公司 盛世豪庭4变压器6,二中,（179）市社院公用照明1台区,河北陈氏房地产开发有限公司 盛世豪庭3变压器1,大道观街东路灯,（148）北环院公用照明台区中压出线间隔配电变压器,实验中学北,（71）水暖器材院公用照明台区,交警队,定州市经盛纬腾房地产开发有限公司变压器,定州市和力房地产开发有限公司,（1）南庄子村公用照明2台区,河北荣烽房地产开发有限公司 苏园供暖变压器,0626374921-河北陈氏房地产开发有限公司 盛世豪庭-专变-137946782-河北陈氏房地产开发有限公司 盛世豪庭3变压器2,定州市供电有限责任公司,定州市人民政府（市民中心）变压器,河北陈氏房地产开发有限公司 盛世豪庭4变压器1,河北陈氏房地产开发有限公司 盛世豪庭1变压器2,信用合作社,实验中学南,定州市和力房地产开发公司,0565890968-河北东升房地产开发集团有限公司-专变-123681458-河北东升房地产开发集团有限公司,定州市锦绣海悦酒店变压器,河北荣烽房地产开发有限公司 苏园南1、2号楼,河北华通建工集团有限公司,0626374921-河北陈氏房地产开发有限公司 盛世豪庭-专变-137946799-河北陈氏房地产开发有限公司 盛世豪庭4变压器3,市社院,（55）大道观公用照明2台区,河北海鹏房地产开发有限公司,（55）大道观公用照明3台区,0565890968-河北东升房地产开发集团有限公司-专变-118688035-河北东升房地产开发集团有限公司变压器,（152）大道观公用照明6台区,河北陈氏房地产开发有限公司 盛世豪庭2变压器,定州市宝塔物业管理有限公司变压器,张氏房地产开发公司,（1）南庄子村公用照明1台区,定州市中标节能技术服务有限公司变压器,客户投资_（145）大道观公用照明5台区,（33）武装部公用照明1台区,（55）大道观公用照明4台区,0626374921-河北陈氏房地产开发有限公司 盛世豪庭-专变-137946792-河北陈氏房地产开发有限公司 盛世豪庭4变压器2,（183）市社院公用照明3台区,河北荣烽房地产开发有限公司1变压器1,（116）安装公司公用照明台区,大道观公用照明8台区,（181）市社院公用照明2台区,河北荣烽房地产开发有限公司1变压器2,河北荣烽房地产开发有限公司3、4号楼配变2,（156）工农行院公用照明台区,（75）标准件院公用照明1台区中压出线间隔配电变压器,建投能源定州热力有限公司变压器,（178）武装部公用照明2台区,河北陈氏房地产开发有限公司 盛世豪庭1变压器1,武警8640部队（通讯营）,三中,新兴信用社,中药厂,大道观街西路灯,河北荣烽房地产开发有限公司 苏园南1、2号楼变压器2","powerOffReason":"【停电原因】由于水泥厂分支避雷器击穿导致１１０ＫＶ总司屯变电站１０ＫＶ５１３商业街线路全线停电 【变更送电】因抢修进度加快原因，送电时间由１８：００变更为０８：３０　 【发布渠道】９５５９８","powerOffId":"2019091013000572"},{"poweroffId":2019090913000407,"sgpoweroffId":null,"subsName":"","lineName":"10KV龙安544","pubTranName":"龙安西台区,东庄二台区2,悟空寺村内台区,龙安果园台区,沈家庵北三台区,沈家庵西沟一号台区【纯农排变】,沈家庵南二,东庄新增南台区,龙安北台区,沈家庵南一台区,东庄西台区,宋各庄村内,宋各庄珍珠沟台区变压器,王各庄东指甲台区【纯农排变】,沈家庵集贤小学台区变压器,龙安北二台区,王各庄南一台区,沈家庵南井【纯农排变】,沈家庵南台区,沈家庵北台区,悟空寺西井【纯农排变】,龙安村东北台区,龙安村内台区,王各庄村内台区,王各庄村西南台区变压器,郭各庄村内台区,龙安西二台区,东庄村内台区,沈家庵北2台区,沈家庵北井【纯农排变】,王各庄东井【纯农排变】,沈家庵仕林台区,龙安西三台区【冬季供暖设施】,龙安西四台区,宋各庄西台区,悟空寺三队台区,沈家庵西台区,一渡镇政府变压器,悟空寺西坡台区,宋各庄乡政府,宋各庄西四台区,东庄村西2台区,宋各庄村内2台区,王各庄北台区,龙安北三台区,王各庄小学台区变压器,宋各庄4队,沈家庵西沟台区,王各庄村南台区变压器,宋各庄西二台区,龙安南台区1,龙安桥西台区,宋各庄西三台区【纯农排变】,","scope":"【影响街道/乡镇】一渡镇 【高危重要客户】无 【影响客户】龙安村、西龙泉村、东庄村、悟空寺村、宋各庄村、郭各庄村、王各庄村、沈家庵村","startTime":"2019-09-19 07:00:00","stopDate":"2019-09-19 10:30:00","orgNo":"1340614","typeCode":"计划停电","poweroffArea":"【全线路停电】停华银房产D区,宋各庄村内2台区,95986部队2,史少磊别墅,95986部队(2),总参印刷厂,沈家庵西台区,95986部队,配变,悟空寺西坡台区,宋各庄南坡井2#【纯农排变】,301粮站,王各庄北台区,龙安北三台区,郭各庄西坡井1【纯农排变】,王各庄小学台区变压器,王各庄村南台区变压器,宋各庄西二台区,龙安西台区,龙安果园台区,沈家庵北三台区,刘俊生,农茂庄园,沈家庵南二,龙安西四台区,0468887700-中国联合网络通信有限公司涞水县分公司-专变-46618777-中国联通,宋各庄西台区,王各庄井【纯农排变】,悟空寺三队台区,中国人民解放军95986部队计100KVA 专变,鑫昌水泥制品厂315KVA专变,一渡镇政府变压器,0614822773-河北华银房地产开发有限公司-专变-128150112-华银房地产630KVA变压器专变,宋各庄乡政府,宋各庄西四台区,东庄村西2台区,华银地产（都衙狼河）315KVA专变,鑫昌水泥制品厂400KVA专变,东庄西井【纯农排变】,宋各庄4队,中国人民解放军95986部队计500KVA专变,沈家庵西沟台区,沈家庵2号井2【纯农排变】,龙安南台区1,0682615341-韩宝-专变-221628450-韩宝100KVA专变,东庄二台区2,悟空寺村内台区,沈家庵西沟一号台区【纯农排变】,刘宁,聚亨旅游公司250KVA专变,王各庄5号井【纯农排变】,东庄杨术好井【纯农排变】,光辉玻璃厂,东庄新增南台区,龙安北台区,一渡高尔夫3,王淑萍200KVA配变,华银房地产西沟,中国人民解放军95986部队400KVA专变,龙安西井【纯农排变】,华阳包装公司,一渡新新小镇630KVA专变,龙安桥西台区,王各庄村西北井【纯农排变】,东庄东坡井【纯农排变】,宋各庄西三台区【纯农排变】,沈家庵南一台区,王各庄大石堆【纯农排变】,华银房地产315KVA专变,聚亨旅游200KVA专变,东庄西台区,宋各庄村内,宋各庄珍珠沟台区变压器,宋各庄南坡井,王各庄东指甲台区【纯农排变】,沈家庵集贤小学台区变压器,东庄南井【纯农排变】,龙安北二台区,龙安东北井【纯农排变】,王各庄南一台区,沈家庵南井【纯农排变】,国达房地产1,0614822177-河北华银房地产开发有限公司-专变-128149919-华银房地产630KVA变压器专变,涞水聚亨房地产630专变,变压器,沈家庵南台区,中盛粮油仓储有限公司315KVA专变,0551123470-华银房地产二号桥-专变-49098997-华银房地产2#桥,宋各庄西北井【纯农排变】,沈家庵北台区,郭各庄六亩地台区【纯农排变】,郭各庄2台区,江水湾井【纯农排变】,悟空寺西井【纯农排变】,华银房地产西沟630KVA专变,杨路水泵房,龙安村东北台区,沈坡,李学华（龙安）【纯农排变】,龙安村内台区,王各庄村内台区,悟空寺自来水井,宋各庄黄庵井【纯农排变】,宋各庄黄庵2号井【纯农排变】,郭各庄西台区【纯农排变】,王各庄村西南台区变压器,郭各庄村内台区,龙安西二台区,东庄村内台区,三皇山花园,宋各庄信用社,刘海库别墅,0468887494-宋各庄水库-专变-46618793-宋各庄水库,李喜华林场,花园小区,北京岳恒房地产315KVA专变,沈家庵北2台区,沈家庵北井【纯农排变】,沈家庵北二井【纯农排变】,王各庄东井【纯农排变】,聚合房地产630KVA专变,河北中盛粮油仓储有限公司315KVA专变,万泉房地产开发有限公司630KVA专变,沈家庵仕林台区,龙安西三台区【冬季供暖设施】,杨路变压器,东庄西北井【纯农排变】,北京岳恒公司","poweroffReason":"【停电原因】由于线路检修导致３５ＫＶ宋各庄变电站１０ＫＶ龙安５４４线路全线停电 【变更送电】因工作进度加快原因，送电时间由１７：００变更为１０：３０ 【发布渠道】保定市涞水电视台（０９月１０日１７时至０９月１８日２３时之间）屏幕上方滚动","powerTime":"2019-09-19 10:18:10","powerComm":"已送电","subsNo":"","lineNo":"","tgNo":"","tgName":null,"infoStatus":"1","orgName":"国网涞水县供电公司","typeName":null,"infoStatusName":null,"dateDay":null,"orgNos":null,"nowTime":null,"countyName":null,"streetName":null,"villageName":null,"roadName":null,"communityName":null,"tranName":null,"sdLineName":null,"cityCode":"1340614","cityName":"国网涞水县供电公司","provinceCode":null,"stopTime":"2019-09-19 10:30:00","powerType":"全部","powerOffArea":"【全线路停电】停华银房产D区,宋各庄村内2台区,95986部队2,史少磊别墅,95986部队(2),总参印刷厂,沈家庵西台区,95986部队,配变,悟空寺西坡台区,宋各庄南坡井2#【纯农排变】,301粮站,王各庄北台区,龙安北三台区,郭各庄西坡井1【纯农排变】,王各庄小学台区变压器,王各庄村南台区变压器,宋各庄西二台区,龙安西台区,龙安果园台区,沈家庵北三台区,刘俊生,农茂庄园,沈家庵南二,龙安西四台区,0468887700-中国联合网络通信有限公司涞水县分公司-专变-46618777-中国联通,宋各庄西台区,王各庄井【纯农排变】,悟空寺三队台区,中国人民解放军95986部队计100KVA 专变,鑫昌水泥制品厂315KVA专变,一渡镇政府变压器,0614822773-河北华银房地产开发有限公司-专变-128150112-华银房地产630KVA变压器专变,宋各庄乡政府,宋各庄西四台区,东庄村西2台区,华银地产（都衙狼河）315KVA专变,鑫昌水泥制品厂400KVA专变,东庄西井【纯农排变】,宋各庄4队,中国人民解放军95986部队计500KVA专变,沈家庵西沟台区,沈家庵2号井2【纯农排变】,龙安南台区1,0682615341-韩宝-专变-221628450-韩宝100KVA专变,东庄二台区2,悟空寺村内台区,沈家庵西沟一号台区【纯农排变】,刘宁,聚亨旅游公司250KVA专变,王各庄5号井【纯农排变】,东庄杨术好井【纯农排变】,光辉玻璃厂,东庄新增南台区,龙安北台区,一渡高尔夫3,王淑萍200KVA配变,华银房地产西沟,中国人民解放军95986部队400KVA专变,龙安西井【纯农排变】,华阳包装公司,一渡新新小镇630KVA专变,龙安桥西台区,王各庄村西北井【纯农排变】,东庄东坡井【纯农排变】,宋各庄西三台区【纯农排变】,沈家庵南一台区,王各庄大石堆【纯农排变】,华银房地产315KVA专变,聚亨旅游200KVA专变,东庄西台区,宋各庄村内,宋各庄珍珠沟台区变压器,宋各庄南坡井,王各庄东指甲台区【纯农排变】,沈家庵集贤小学台区变压器,东庄南井【纯农排变】,龙安北二台区,龙安东北井【纯农排变】,王各庄南一台区,沈家庵南井【纯农排变】,国达房地产1,0614822177-河北华银房地产开发有限公司-专变-128149919-华银房地产630KVA变压器专变,涞水聚亨房地产630专变,变压器,沈家庵南台区,中盛粮油仓储有限公司315KVA专变,0551123470-华银房地产二号桥-专变-49098997-华银房地产2#桥,宋各庄西北井【纯农排变】,沈家庵北台区,郭各庄六亩地台区【纯农排变】,郭各庄2台区,江水湾井【纯农排变】,悟空寺西井【纯农排变】,华银房地产西沟630KVA专变,杨路水泵房,龙安村东北台区,沈坡,李学华（龙安）【纯农排变】,龙安村内台区,王各庄村内台区,悟空寺自来水井,宋各庄黄庵井【纯农排变】,宋各庄黄庵2号井【纯农排变】,郭各庄西台区【纯农排变】,王各庄村西南台区变压器,郭各庄村内台区,龙安西二台区,东庄村内台区,三皇山花园,宋各庄信用社,刘海库别墅,0468887494-宋各庄水库-专变-46618793-宋各庄水库,李喜华林场,花园小区,北京岳恒房地产315KVA专变,沈家庵北2台区,沈家庵北井【纯农排变】,沈家庵北二井【纯农排变】,王各庄东井【纯农排变】,聚合房地产630KVA专变,河北中盛粮油仓储有限公司315KVA专变,万泉房地产开发有限公司630KVA专变,沈家庵仕林台区,龙安西三台区【冬季供暖设施】,杨路变压器,东庄西北井【纯农排变】,北京岳恒公司","powerOffReason":"【停电原因】由于线路检修导致３５ＫＶ宋各庄变电站１０ＫＶ龙安５４４线路全线停电 【变更送电】因工作进度加快原因，送电时间由１７：００变更为１０：３０ 【发布渠道】保定市涞水电视台（０９月１０日１７时至０９月１８日２３时之间）屏幕上方滚动","powerOffId":"2019090913000407"},{"poweroffId":2019090913000385,"sgpoweroffId":null,"subsName":"","lineName":"白水港线521","pubTranName":"太平峪村9#,三尖峪村2#,龙泉庄12#,白水港村1#,太平峪村6#,太平峪村1#,太平峪村8#,南大地村3#,南大地村4#,袁振忠,东旮旯村3#,金龙庄3台区,金龙庄村1#,龙泉庄村2#,魏铁路变压器,白水港村4#,太平峪村7#,东旮旯村2#,太宁寺村4#,龙泉庄11台区,太宁寺村1#,耿小伟,白水港村3#,太平峪村5#,三尖峪村3#,东旮旯村1#,林学院,变压器,龙泉庄村3#,三尖峪村4#,新畔石村5#,南大地村李晓震变压器,南大地村6#,龙泉庄村6#,太宁寺村2#,龙泉庄村4#,太平峪村2#,龙泉庄村7#,太和庄村1#,太宁寺村5#,龙泉庄村10#,白水港村6#,南大地10台区,南大地9台区,太平峪村10#,南大地村2#,南大地村8#,白水港7#,新畔石村1#,南大地村1#,龙泉庄村9#,南大地铁选厂,太平峪村4#,新畔石3农村西,李振权变压器,南大地村5#,金龙庄村2#,龙泉庄村1#,龙泉庄村5#,东旮旯5#,白水港5#,龙泉庄村8#,白水港村2#,太平峪村3#,太宁寺村3#,三尖峪村1#,","scope":"【影响街道/乡镇】西陵镇【高危重要客户】无【影响客户】五道河村、金龙庄村、白水港村、三尖峪村、太平峪村、太宁寺村、龙泉庄村、南大地村、新畔石村、东旮旯村","startTime":"2019-09-09 16:05:56","stopDate":"2019-09-09 18:30:00","orgNo":"1340625","typeCode":"电网故障停限电","poweroffArea":"【全线路停电】停南大地村4#,龙泉庄11台区,太宁寺村3#,新畔石3农村西,太平峪村10#,龙泉庄村7#,太平峪村7#,龙泉庄村6#,南大地村2#,东旮旯村2#,南大地村3#,太平峪村8#,金龙庄3台区,李振权变压器,魏铁路变压器,金龙庄村2#,三尖峪村2#,南大地村8#,白水港村4#,白水港村2#,太平峪村4#,东旮旯村3#,南大地10台区,太宁寺村5#,金龙庄村1#,太平峪村9#,袁振忠,新畔石村1#,太平峪村1#,南大地9台区,南大地铁选厂,白水港村1#,太平峪村6#,林学院,太宁寺村1#,太宁寺村4#,南大地村6#,东旮旯5#,白水港7#,太宁寺村2#,白水港村6#,新畔石村5#,三尖峪村1#,白水港村3#,龙泉庄村8#,白水港5#,三尖峪村3#,东旮旯村1#,南大地村李晓震变压器,太平峪村5#,龙泉庄村4#,龙泉庄村9#,南大地村1#,耿小伟,变压器,龙泉庄12#,龙泉庄村2#,太平峪村3#,龙泉庄村1#,太平峪村2#,龙泉庄村3#,龙泉庄村10#,三尖峪村4#,太和庄村1#,南大地村5#,龙泉庄村5#","poweroffReason":"【停电原因】由于过流跳闸导致１１０ＫＶ西陵变电站白水港线５２１线路全线停电【变更送电】因抢修进度加快原因，送电时间由２３:００变更为１８:３０【发布渠道】通过９５５９８发布","powerTime":"2019-09-09 18:09:06","powerComm":"已送电","subsNo":"","lineNo":"","tgNo":"","tgName":null,"infoStatus":"1","orgName":"国网易县供电公司","typeName":null,"infoStatusName":null,"dateDay":null,"orgNos":null,"nowTime":null,"countyName":null,"streetName":null,"villageName":null,"roadName":null,"communityName":null,"tranName":null,"sdLineName":null,"cityCode":"1340625","cityName":"国网易县供电公司","provinceCode":null,"stopTime":"2019-09-09 18:30:00","powerType":"全部","powerOffArea":"【全线路停电】停南大地村4#,龙泉庄11台区,太宁寺村3#,新畔石3农村西,太平峪村10#,龙泉庄村7#,太平峪村7#,龙泉庄村6#,南大地村2#,东旮旯村2#,南大地村3#,太平峪村8#,金龙庄3台区,李振权变压器,魏铁路变压器,金龙庄村2#,三尖峪村2#,南大地村8#,白水港村4#,白水港村2#,太平峪村4#,东旮旯村3#,南大地10台区,太宁寺村5#,金龙庄村1#,太平峪村9#,袁振忠,新畔石村1#,太平峪村1#,南大地9台区,南大地铁选厂,白水港村1#,太平峪村6#,林学院,太宁寺村1#,太宁寺村4#,南大地村6#,东旮旯5#,白水港7#,太宁寺村2#,白水港村6#,新畔石村5#,三尖峪村1#,白水港村3#,龙泉庄村8#,白水港5#,三尖峪村3#,东旮旯村1#,南大地村李晓震变压器,太平峪村5#,龙泉庄村4#,龙泉庄村9#,南大地村1#,耿小伟,变压器,龙泉庄12#,龙泉庄村2#,太平峪村3#,龙泉庄村1#,太平峪村2#,龙泉庄村3#,龙泉庄村10#,三尖峪村4#,太和庄村1#,南大地村5#,龙泉庄村5#","powerOffReason":"【停电原因】由于过流跳闸导致１１０ＫＶ西陵变电站白水港线５２１线路全线停电【变更送电】因抢修进度加快原因，送电时间由２３:００变更为１８:３０【发布渠道】通过９５５９８发布","powerOffId":"2019090913000385"},{"poweroffId":2019090913000311,"sgpoweroffId":null,"subsName":"","lineName":"边家务线525","pubTranName":"北归还72综合,田佐村村西综合,贾务村北综合,湘连口东22综合,都曹口村西综合,庞佐村西新增综合,南辛庄村南新增综合,湘连口村东南道14号农业【纯农排变】,河西村信家地农业,湘连口村东北道3号农业【纯农排变】,河西村果园农业,湘连口村南新增综合,庄头综合,湘连口村东中道9号农业【纯农排变】,湘连口村西北新增综合,庞佐村南126综合,北归还村东南新增综合,河西村东方农业,辛丰庄58综合,庄头村西新增,北归还大槐树新增综合,贾务大队（东）综合,湘连口村北新增综合,北归还大队74综合,庄头村新增综合,贾务村北农业【纯农排变】,庞佐村南新增农业【纯农排变】,庞佐东5综合,湘连口70综合,北归还新增综合,贾务村南新增综合,湘连口村西新增综合,河西村西北综合,庞佐村西新增2号综合,庞佐综合（117）,河西村村边农业,南梁庄30综合,辛丰庄村东北综合,河西村收购点农业,庞佐西42综合,湘连口向阳街新增综合,河西村大道农业,河西村北新增综合,湘连口村东北新增综合,湘连口小康街中综合,庞佐村南新增综合,河西村收购点南农业,湘连口村西15号农业【纯农排变】,贾务村西北2号农业【纯农排变】,河西村阳光农业,贾务南(西）综合,河西村南综合,河西村板厂农业,辛丰庄村北新增综合,湘连口北20综合,河西村托坯坑农业,湘连口西16综合,湘连口新增综合,河西村综合,河西村赵坟农业,都曹口大队综合,庞佐村北新增综合,河西村东综合,都曹口36综合,北辛庄村西北新增综合,河西村变压器农业,庄头村新增综合(123),湘连口村东南新增综合,河西村村里综合,北归还村东北新增综合变压器,湘连口村东中道10号农业【纯农排变】,田佐综合,","scope":"【影响街道/乡镇】西演镇、庞口镇、庞佐乡 【高危重要客户】无 【影响客户】田佐、庞佐、都曹口、南梁庄、河西村、庄头、辛丰庄、北归还、湘涟口","startTime":"2019-09-09 15:10:26","stopDate":"2019-09-09 16:30:00","orgNo":"1340613","typeCode":"电网故障停限电","poweroffArea":"【全线路停电】停湘连口村北新增综合,保定双强电器设备有限公司变压器,天路公司牛场,湘连口红旗厂,河西村村,湘连口70综合,湘连口向阳街新增综合,河西村大道农业,贾务电缆厂,庞佐西面厂,湘连口村东北新增综合,庞佐村南新增综合,贾务南(西）综合,河西村南综合,河西村板厂农业,庞佐粮站,阳光电力设备公司,河北诚拓电力器材有限公司,双强电器设备公司,湘连口北20综合,河西村大庙东农业,庞佐联小,高阳县庞家佐中学变压器,河西村,河西村收购点农业,河西村北新增综合,河北京阳电气有限公司50,华北油田1号,湘连口小康街中综合,辛丰庄村北新增综合,北归还5#台区14#农业【纯农排变】,贾务村北综合,庞佐村西新增综合,保定永红电器设备有限公司,庞佐卫生院,湘连口村东南新增综合,北归还6#台区13#农业【纯农排变】,湘连口东2,续国建,0668400020-中国石油天然气股份有限公司华北油田分公司-专变-208440457-中国石油天然气股份有限公司华北油田分公司变压器,保定东华电力器材有限公司,辛丰庄村东北综合,永红电器设备公司,湘连口东洼,湘连口东洼2,李满常,贾务村南新增综合,河西村托坯坑农业,辛丰庄村西,南辛庄线厂,西演振兴电缆厂,湘连口新增综合,河北佳创电力器材制造有限公司变压器,保定阳光电力设备有限公司,河西村综合,河西村赵坟农业,都曹口36综合,华北油田第三采油厂,庞佐村委会,河北京阳电气有限公司,湘连口村西北新增综合,河西村西北综合,庞佐村西新增2号综合,庞佐综合（117）,河西村村里综合,湘连口东洼5,银河棉花有限公司,大东毛纺厂(子),北归还村东北新增综合变压器,河北同兴电气有限公司变压器,田佐综合,南梁庄30综合,庞佐西42综合,双龙巾被厂,0668423177-中国石油天然气股份有限公司华北油田分公司-专变-208440443-中国石油天然气股份有限公司华北油田分公司变压器,华兴电器厂,湘连口村东南道14号农业【纯农排变】,河西村信家地农业,通力电器设备公司,河西村果园农业,东信电力金具厂,河西村郭坟农业,庄头村新增综合(123),北归还大队74综合,湘连口村南新增综合,北归还7#台区10#农业【纯农排变】,湘连口村东中道9号农业【纯农排变】,高阳县宏达绝缘材料厂变压器,北归还村东南新增综合,湘莲口村东农业,辛丰庄58综合,贾务大队（东）综合,东华电力器材公司,湘连口西,湘连口大队,庄头村新增综合,北归还新增综合,北归还72综合,湘连口西16综合,湘连口村西新增综合,河北永安线路器材有限公司变压器,田佐村村西综合,南辛庄村南新增综合,保定安凯电器设备制造有限公司变压器,保定京阳立津线缆制造有限公司变压器,湘连口村东北道3号农业【纯农排变】,任长六,湘连口东22综合,张亚辉,中国石油天然气股份有限公司华北油田分公司变压器,庞佐59#农业【纯农排变】,都曹口村西综合,辛丰庄113#农业【纯农排变】,曙光电器厂,贾务村北农业【纯农排变】,南辛庄农业【纯农排变】,庞佐村南新增农业【纯农排变】,庄头农业93号【纯农排变】,湘连口永发热镀厂,河北同兴电气有限公司,利口98#农业【纯农排变】,庞佐东5综合,河西村收购点南农业,庞佐94#农业【纯农排变】,庞佐村南126综合,保定双强电器设备有限公司,庞佐乡政府小区,河西村东方农业,0681020579-中国石油天然气股份有限公司华北油田分公司-专变-219720605-中国石油天然气股份有限公司华北油田分公司变压器,庄头村西新增,庞佐2#农业【纯农排变】,北归还大槐树新增综合,湘连口,利口100#农业【纯农排变】,高阳县京硕毛巾厂变压器,庄头综合,0688118527-","poweroffReason":"【停电原因】由于汽车撞杆导致１１０ＫＶ西演变电站边家务５２５线路全线停电【变更送电】因抢修进度加快原因，送电时间由１８：００变更为１６：３０【发布渠道】通过９５５９８发布","powerTime":"2019-09-09 16:09:52","powerComm":"已送电","subsNo":"","lineNo":"","tgNo":"","tgName":null,"infoStatus":"1","orgName":"国网高阳县供电公司","typeName":null,"infoStatusName":null,"dateDay":null,"orgNos":null,"nowTime":null,"countyName":null,"streetName":null,"villageName":null,"roadName":null,"communityName":null,"tranName":null,"sdLineName":null,"cityCode":"1340613","cityName":"国网高阳县供电公司","provinceCode":null,"stopTime":"2019-09-09 16:30:00","powerType":"全部","powerOffArea":"【全线路停电】停湘连口村北新增综合,保定双强电器设备有限公司变压器,天路公司牛场,湘连口红旗厂,河西村村,湘连口70综合,湘连口向阳街新增综合,河西村大道农业,贾务电缆厂,庞佐西面厂,湘连口村东北新增综合,庞佐村南新增综合,贾务南(西）综合,河西村南综合,河西村板厂农业,庞佐粮站,阳光电力设备公司,河北诚拓电力器材有限公司,双强电器设备公司,湘连口北20综合,河西村大庙东农业,庞佐联小,高阳县庞家佐中学变压器,河西村,河西村收购点农业,河西村北新增综合,河北京阳电气有限公司50,华北油田1号,湘连口小康街中综合,辛丰庄村北新增综合,北归还5#台区14#农业【纯农排变】,贾务村北综合,庞佐村西新增综合,保定永红电器设备有限公司,庞佐卫生院,湘连口村东南新增综合,北归还6#台区13#农业【纯农排变】,湘连口东2,续国建,0668400020-中国石油天然气股份有限公司华北油田分公司-专变-208440457-中国石油天然气股份有限公司华北油田分公司变压器,保定东华电力器材有限公司,辛丰庄村东北综合,永红电器设备公司,湘连口东洼,湘连口东洼2,李满常,贾务村南新增综合,河西村托坯坑农业,辛丰庄村西,南辛庄线厂,西演振兴电缆厂,湘连口新增综合,河北佳创电力器材制造有限公司变压器,保定阳光电力设备有限公司,河西村综合,河西村赵坟农业,都曹口36综合,华北油田第三采油厂,庞佐村委会,河北京阳电气有限公司,湘连口村西北新增综合,河西村西北综合,庞佐村西新增2号综合,庞佐综合（117）,河西村村里综合,湘连口东洼5,银河棉花有限公司,大东毛纺厂(子),北归还村东北新增综合变压器,河北同兴电气有限公司变压器,田佐综合,南梁庄30综合,庞佐西42综合,双龙巾被厂,0668423177-中国石油天然气股份有限公司华北油田分公司-专变-208440443-中国石油天然气股份有限公司华北油田分公司变压器,华兴电器厂,湘连口村东南道14号农业【纯农排变】,河西村信家地农业,通力电器设备公司,河西村果园农业,东信电力金具厂,河西村郭坟农业,庄头村新增综合(123),北归还大队74综合,湘连口村南新增综合,北归还7#台区10#农业【纯农排变】,湘连口村东中道9号农业【纯农排变】,高阳县宏达绝缘材料厂变压器,北归还村东南新增综合,湘莲口村东农业,辛丰庄58综合,贾务大队（东）综合,东华电力器材公司,湘连口西,湘连口大队,庄头村新增综合,北归还新增综合,北归还72综合,湘连口西16综合,湘连口村西新增综合,河北永安线路器材有限公司变压器,田佐村村西综合,南辛庄村南新增综合,保定安凯电器设备制造有限公司变压器,保定京阳立津线缆制造有限公司变压器,湘连口村东北道3号农业【纯农排变】,任长六,湘连口东22综合,张亚辉,中国石油天然气股份有限公司华北油田分公司变压器,庞佐59#农业【纯农排变】,都曹口村西综合,辛丰庄113#农业【纯农排变】,曙光电器厂,贾务村北农业【纯农排变】,南辛庄农业【纯农排变】,庞佐村南新增农业【纯农排变】,庄头农业93号【纯农排变】,湘连口永发热镀厂,河北同兴电气有限公司,利口98#农业【纯农排变】,庞佐东5综合,河西村收购点南农业,庞佐94#农业【纯农排变】,庞佐村南126综合,保定双强电器设备有限公司,庞佐乡政府小区,河西村东方农业,0681020579-中国石油天然气股份有限公司华北油田分公司-专变-219720605-中国石油天然气股份有限公司华北油田分公司变压器,庄头村西新增,庞佐2#农业【纯农排变】,北归还大槐树新增综合,湘连口,利口100#农业【纯农排变】,高阳县京硕毛巾厂变压器,庄头综合,0688118527-","powerOffReason":"【停电原因】由于汽车撞杆导致１１０ＫＶ西演变电站边家务５２５线路全线停电【变更送电】因抢修进度加快原因，送电时间由１８：００变更为１６：３０【发布渠道】通过９５５９８发布","powerOffId":"2019090913000311"},{"poweroffId":2019090913000255,"sgpoweroffId":null,"subsName":"","lineName":"10kV516市场线","pubTranName":"阳光嘉园综合5台区,市场综合1台区,市场综合5出线间隔配电变压器,阳光嘉园综合4台区,阳光嘉园综合2台区,阳光嘉园综合1台区,市场综合4台区,阳光嘉园综合6台区,市场综合2台区,市场综合3台区,阳光嘉园综合7台区,阳光嘉园综合3台区,","scope":"【影响街道/乡镇】鲍墟乡【高危重要客户】无【影响客户】东口市场、阳光嘉园","startTime":"2019-09-09 16:30:00","stopDate":"2019-09-09 18:30:00","orgNo":"1340616","typeCode":"其他临时停电","poweroffArea":"【全线路停电】停友福,市场综合5出线间隔配电变压器,阳光嘉园综合1台区,阳光嘉园综合4台区,市场综合2台区,阳光嘉园综合6台区,市场综合4台区,阳光嘉园综合5台区,市场综合3台区,阳光嘉园综合3台区,友福皮毛有限公司变压器,阳光嘉园综合2台区,阳光嘉园综合7台区,市场综合1台区","poweroffReason":"【停电原因】由于线路缺陷，需停电进行紧急消缺导致３５ＫＶ鲍墟变电站１０ＫＶ市场５１６线路全线停电【变更送电】因工作进度加快原因，送电时间由２１:００变更为１８:３０【发布渠道】通过９５５９８发布","powerTime":"2019-09-09 17:58:40","powerComm":"已送电","subsNo":"","lineNo":"","tgNo":"","tgName":null,"infoStatus":"1","orgName":"国网蠡县供电公司","typeName":null,"infoStatusName":null,"dateDay":null,"orgNos":null,"nowTime":null,"countyName":null,"streetName":null,"villageName":null,"roadName":null,"communityName":null,"tranName":null,"sdLineName":null,"cityCode":"1340616","cityName":"国网蠡县供电公司","provinceCode":null,"stopTime":"2019-09-09 18:30:00","powerType":"全部","powerOffArea":"【全线路停电】停友福,市场综合5出线间隔配电变压器,阳光嘉园综合1台区,阳光嘉园综合4台区,市场综合2台区,阳光嘉园综合6台区,市场综合4台区,阳光嘉园综合5台区,市场综合3台区,阳光嘉园综合3台区,友福皮毛有限公司变压器,阳光嘉园综合2台区,阳光嘉园综合7台区,市场综合1台区","powerOffReason":"【停电原因】由于线路缺陷，需停电进行紧急消缺导致３５ＫＶ鲍墟变电站１０ＫＶ市场５１６线路全线停电【变更送电】因工作进度加快原因，送电时间由２１:００变更为１８:３０【发布渠道】通过９５５９８发布","powerOffId":"2019090913000255"},{"poweroffId":2019090913000251,"sgpoweroffId":null,"subsName":"","lineName":"10kV515齐营线","pubTranName":"齐营综合2台区,齐营农排11台区【纯农排变】,齐营综合9台区,刘佃庄综合4台区,刘佃庄农排8台区【纯农排变】,刘佃庄综合六台区,刘佃庄综合10台区,齐营农排4台区【纯农排变】,正南庄农排4台区【纯农排变】,南口农排4台区【纯农排变】,正南庄综合3台区,齐营综合10台区,齐营综合5台区,西南庄综合7台区,齐营综合3台区,刘佃庄综合9台区,刘佃庄综合8台区,西南庄综合3台区,正南庄综合4台区,齐营综合11台区,刘佃庄综合5台区,齐营农排3台区【纯农排变】,刘佃庄农排6台区【纯农排变】,正南庄综合8台区,正南庄农排2台区【纯农排变】,正南庄农排3台区【纯农排变】,西南庄农排1台区【纯农排变】,刘佃庄综合1台区,西南庄农排4台区【纯农排变】,正南庄综合9台区,刘佃庄综合7台区,齐营综合8台区,正南庄综合7台区,齐营综合12台区,齐营农排10台区【纯农排变】,刘佃庄农排3台区【纯农排变】,齐营综合6台区,正南庄综合6台区,齐营综合1台区,东口农排4台区【纯农排变】,刘佃庄综合2台区,正南庄综合1台区,正南庄综合5台区,东口综合20台区,齐营综合7台区,","scope":"【影响街道/乡镇】鲍墟乡【高危重要客户】无【影响客户】齐营村、东口村、刘佃庄村、西南庄村、正南庄村、南口村、西口村","startTime":"2019-09-09 16:30:00","stopDate":"2019-09-09 18:30:00","orgNo":"1340616","typeCode":"其他临时停电","poweroffArea":"【全线路停电】停正南庄农排1台区【纯农排变】,齐营农排6台区【纯农排变】,刘佃庄综合六台区,正南庄农排4台区【纯农排变】,东口农排5台区【纯农排变】,刘佃庄综合4台区,东口农排8台区【纯农排变】,齐营综合12台区,刘佃庄综合5台区,正南庄农排2台区【纯农排变】,齐营综合9台区,刘佃庄农排4台区【纯农排变】,齐营综合1台区,正南庄综合2台区,刘佃庄农排1台区【纯农排变】,冷冻厂,刘佃庄农排6台区【纯农排变】,刘佃庄农排10台区【纯农排变】,紫玉养殖厂,齐营农排5台区【纯农排变】,齐营综合7台区,齐营综合10台区,齐营综合11台区,西南庄综合3台区,东口综合20台区,齐营综合8台区,西南庄农排1台区【纯农排变】,齐营农排4台区【纯农排变】,正南庄综合9台区,中口农排2台区【纯农排变】,齐营农排3台区【纯农排变】,正南庄农排3台区【纯农排变】,蠡县东口利兆特种养殖厂变压器,刘佃庄农排5台区【纯农排变】,蠡县东口绿丹蓝养殖场变压器,东口农排4台区【纯农排变】,正南庄综合6台区,齐营农排1台区【纯农排变】,正南庄综合1台区,正南庄综合4台区,东口农排10台区【纯农排变】,正南庄综合7台区,正南庄综合8台区,西南庄农排2台区【纯农排变】,正南庄综合5台区,齐营农排10台区【纯农排变】,齐营综合5台区,中国移动通信集团河北有限公司蠡县分公司刘佃庄村变压器,齐营农排2台区【纯农排变】,齐营农排11台区【纯农排变】,东口农排6台区【纯农排变】,刘佃庄综合9台区,东口农排9台区【纯农排变】,齐营农排12台区【纯农排变】,刘佃庄综合1台区,刘佃庄农排3台区【纯农排变】,东口农排7台区【纯农排变】,刘佃庄农排9台区【纯农排变】,刘佃庄农排2台区【纯农排变】,东口地,齐营农排13台区【纯农排变】,蠡县东口第二饲养厂变压器,西南庄农排4台区【纯农排变】,刘佃庄综合8台区,刘佃庄农排8台区【纯农排变】,南口农排4台区【纯农排变】,齐营综合4台区,刘佃庄综合2台区,中口农排3台区【纯农排变】,齐营综合6台区,刘佃庄农排7台区【纯农排变】,刘佃庄综合7台区,正南庄综合3台区,刘佃庄综合10台区,蠡县东口第一养殖厂变压器,南口农排5台区【纯农排变】,南口农排2台区【纯农排变】,齐营农排8台区【纯农排变】,西南庄农排3台区【纯农排变】,齐营农排9台区【纯农排变】,齐营综合2台区,齐营农排7台区【纯农排变】,中国石油天然气股份有限公司华北油田分公司,西南庄综合7台区,齐营综合3台区,东口农排2台区【纯农排变】,南口农排3台区【纯农排变】,东口农排3台区【纯农排变】","poweroffReason":"【停电原因】由于线路缺陷，需停电进行紧急消缺导致３５ＫＶ鲍墟变电站１０ＫＶ齐营５１５线路全线停电【变更送电】因工作进度加快原因，送电时间由２１:００变更为１８:３０【发布渠道】通过９５５９８发布","powerTime":"2019-09-09 18:00:24","powerComm":"已送电","subsNo":"","lineNo":"","tgNo":"","tgName":null,"infoStatus":"1","orgName":"国网蠡县供电公司","typeName":null,"infoStatusName":null,"dateDay":null,"orgNos":null,"nowTime":null,"countyName":null,"streetName":null,"villageName":null,"roadName":null,"communityName":null,"tranName":null,"sdLineName":null,"cityCode":"1340616","cityName":"国网蠡县供电公司","provinceCode":null,"stopTime":"2019-09-09 18:30:00","powerType":"全部","powerOffArea":"【全线路停电】停正南庄农排1台区【纯农排变】,齐营农排6台区【纯农排变】,刘佃庄综合六台区,正南庄农排4台区【纯农排变】,东口农排5台区【纯农排变】,刘佃庄综合4台区,东口农排8台区【纯农排变】,齐营综合12台区,刘佃庄综合5台区,正南庄农排2台区【纯农排变】,齐营综合9台区,刘佃庄农排4台区【纯农排变】,齐营综合1台区,正南庄综合2台区,刘佃庄农排1台区【纯农排变】,冷冻厂,刘佃庄农排6台区【纯农排变】,刘佃庄农排10台区【纯农排变】,紫玉养殖厂,齐营农排5台区【纯农排变】,齐营综合7台区,齐营综合10台区,齐营综合11台区,西南庄综合3台区,东口综合20台区,齐营综合8台区,西南庄农排1台区【纯农排变】,齐营农排4台区【纯农排变】,正南庄综合9台区,中口农排2台区【纯农排变】,齐营农排3台区【纯农排变】,正南庄农排3台区【纯农排变】,蠡县东口利兆特种养殖厂变压器,刘佃庄农排5台区【纯农排变】,蠡县东口绿丹蓝养殖场变压器,东口农排4台区【纯农排变】,正南庄综合6台区,齐营农排1台区【纯农排变】,正南庄综合1台区,正南庄综合4台区,东口农排10台区【纯农排变】,正南庄综合7台区,正南庄综合8台区,西南庄农排2台区【纯农排变】,正南庄综合5台区,齐营农排10台区【纯农排变】,齐营综合5台区,中国移动通信集团河北有限公司蠡县分公司刘佃庄村变压器,齐营农排2台区【纯农排变】,齐营农排11台区【纯农排变】,东口农排6台区【纯农排变】,刘佃庄综合9台区,东口农排9台区【纯农排变】,齐营农排12台区【纯农排变】,刘佃庄综合1台区,刘佃庄农排3台区【纯农排变】,东口农排7台区【纯农排变】,刘佃庄农排9台区【纯农排变】,刘佃庄农排2台区【纯农排变】,东口地,齐营农排13台区【纯农排变】,蠡县东口第二饲养厂变压器,西南庄农排4台区【纯农排变】,刘佃庄综合8台区,刘佃庄农排8台区【纯农排变】,南口农排4台区【纯农排变】,齐营综合4台区,刘佃庄综合2台区,中口农排3台区【纯农排变】,齐营综合6台区,刘佃庄农排7台区【纯农排变】,刘佃庄综合7台区,正南庄综合3台区,刘佃庄综合10台区,蠡县东口第一养殖厂变压器,南口农排5台区【纯农排变】,南口农排2台区【纯农排变】,齐营农排8台区【纯农排变】,西南庄农排3台区【纯农排变】,齐营农排9台区【纯农排变】,齐营综合2台区,齐营农排7台区【纯农排变】,中国石油天然气股份有限公司华北油田分公司,西南庄综合7台区,齐营综合3台区,东口农排2台区【纯农排变】,南口农排3台区【纯农排变】,东口农排3台区【纯农排变】","powerOffReason":"【停电原因】由于线路缺陷，需停电进行紧急消缺导致３５ＫＶ鲍墟变电站１０ＫＶ齐营５１５线路全线停电【变更送电】因工作进度加快原因，送电时间由２１:００变更为１８:３０【发布渠道】通过９５５９８发布","powerOffId":"2019090913000251"},{"poweroffId":2019090913000170,"sgpoweroffId":null,"subsName":"","lineName":"10kV511电力新村线","pubTranName":"电力新村综合6台区箱变10KV出线间隔1号配电变压器,电力新村综合1台区,0469339055-六号照明变压器-专变-46778861-六号变压器,电力新村2备用,电力新村三台区出线间隔配电变压器,电力新村综合6台区箱变10KV出线间隔3号配电变压器,电力新村综合2台区,电力新村综合6台区箱变10KV出线间隔2号配电变压器,电力新村1备用,","scope":"【影响街道/乡镇】蠡吾镇【高危重要客户】无【影响客户】电力新村、蠡县供电公司","startTime":"2019-09-09 13:00:00","stopDate":"2019-09-09 14:30:00","orgNo":"1340616","typeCode":"其他临时停电","poweroffArea":"【全线路停电】停电力新村1备用,电力新村综合6台区箱变10KV出线间隔3号配电变压器,电力新村三台区出线间隔配电变压器,电力新村综合6台区箱变10KV出线间隔2号配电变压器,电力新村2备用,电力新村综合2台区,电力新村综合6台区箱变10KV出线间隔1号配电变压器,0469339055-六号照明变压器-专变-46778861-六号变压器,电力新村综合1台区","poweroffReason":"【停电原因】由于倒运行方式导致３５ＫＶ王庄变电站１０ＫＶ电力新村５１１线路全线停电【变更送电】无【发布渠道】通过９５５９８发布","powerTime":"2019-09-09 13:49:00","powerComm":"已送电","subsNo":"","lineNo":"","tgNo":"","tgName":null,"infoStatus":"1","orgName":"国网蠡县供电公司","typeName":null,"infoStatusName":null,"dateDay":null,"orgNos":null,"nowTime":null,"countyName":null,"streetName":null,"villageName":null,"roadName":null,"communityName":null,"tranName":null,"sdLineName":null,"cityCode":"1340616","cityName":"国网蠡县供电公司","provinceCode":null,"stopTime":"2019-09-09 14:30:00","powerType":"全部","powerOffArea":"【全线路停电】停电力新村1备用,电力新村综合6台区箱变10KV出线间隔3号配电变压器,电力新村三台区出线间隔配电变压器,电力新村综合6台区箱变10KV出线间隔2号配电变压器,电力新村2备用,电力新村综合2台区,电力新村综合6台区箱变10KV出线间隔1号配电变压器,0469339055-六号照明变压器-专变-46778861-六号变压器,电力新村综合1台区","powerOffReason":"【停电原因】由于倒运行方式导致３５ＫＶ王庄变电站１０ＫＶ电力新村５１１线路全线停电【变更送电】无【发布渠道】通过９５５９８发布","powerOffId":"2019090913000170"},{"poweroffId":2019090913000143,"sgpoweroffId":null,"subsName":"","lineName":"10kV白塔582线路","pubTranName":"北野羊北0215变压器,北野羊南0216变压器,白塔村东0207变压器,白塔西南0240变压器变压器,白塔小学7559变压器【煤改电】,南也羊南0424变压器,北野羊6058变压器,白塔内0212变压器,白塔西北0274变压器,南野羊村东0217,","scope":"【影响街道/乡镇】仁厚镇【高危重要客户】无【影响客户】野羊村、白塔村","startTime":"2019-09-10 07:00:00","stopDate":"2019-09-10 18:00:00","orgNo":"1340622","typeCode":"其他临时停电","poweroffArea":"【分支停电】停南也羊南0424变压器,北野羊6058变压器,白塔内0212变压器,白塔西北0274变压器,南野羊村东0217,北野羊北0215变压器,北野羊南0216变压器,白塔村东0207变压器,白塔西南0240变压器变压器,白塔小学7559变压器【煤改电】,白塔西南水变压器【纯农排变】,北野羊村北水0214变压器【纯农排变】","poweroffReason":"【停电原因】由于变压器增容导致１１０ＫＶ城南站白塔线５８２线路野牛分支０３４号杆断路器以下线路停电【变更送电】无【发布渠道】通过９５５９８发布","powerTime":"2019-09-10 10:00:00","powerComm":"已送电","subsNo":"","lineNo":"","tgNo":"","tgName":null,"infoStatus":"1","orgName":"国网唐县供电公司","typeName":null,"infoStatusName":null,"dateDay":null,"orgNos":null,"nowTime":null,"countyName":null,"streetName":null,"villageName":null,"roadName":null,"communityName":null,"tranName":null,"sdLineName":null,"cityCode":"1340622","cityName":"国网唐县供电公司","provinceCode":null,"stopTime":"2019-09-10 18:00:00","powerType":"全部","powerOffArea":"【分支停电】停南也羊南0424变压器,北野羊6058变压器,白塔内0212变压器,白塔西北0274变压器,南野羊村东0217,北野羊北0215变压器,北野羊南0216变压器,白塔村东0207变压器,白塔西南0240变压器变压器,白塔小学7559变压器【煤改电】,白塔西南水变压器【纯农排变】,北野羊村北水0214变压器【纯农排变】","powerOffReason":"【停电原因】由于变压器增容导致１１０ＫＶ城南站白塔线５８２线路野牛分支０３４号杆断路器以下线路停电【变更送电】无【发布渠道】通过９５５９８发布","powerOffId":"2019090913000143"}],"pageModel":{"pageNow":571,"totalCount":10973,"totalPage":1098,"tableRows":0,"pageCount":10,"beginCount":5700},"isExperi":"1"}