{"message":"","today":"2020-06-15","seleList":[{"poweroffId":2019090913000098,"sgpoweroffId":null,"subsName":"","lineName":"王安镇线514","pubTranName":"514杜家台大楞庄配变,514下卜荷配变,涞源县森扬矿业有限公司变压器,河北金谷矿业有限责任公司变压器,涞源县王安镇中心小学鲍家路小学变压器,涞源县王安镇双坨村村民委员会,涞源县??鑫选矿厂,涞源县塔崖驿乡卜荷村村民委员会变压器,514鲍家路村南台区配变,514鲍家路村中配变,514双坨村中配变,涞源县富田土地整理有限公司变压器,涞源县银乾砂石销售有限公司变压器,514黄台院西庄配变,杜家台大楞【三批中心村】,514黄台院村2#变配变,涞源县航飞水泥制品有限公司变压器,0469331383-涞源县银山口庆喜铅锌选厂-专变-46777338-李新中矿山,涞源县新建石材有限公司变压器,514鲍家路大沙地配变,黄台院高速充电桩514线路北箱变出线间隔配电变压器,514杜家台村中配变,514杜家台芒沟配变,514黄台院村中配变,514鲍家路北河配变,514鲍家路柳湾配变,河北建设集团有限公司张石高速涞源至涞水段第LJM-N9项目部,【光伏】杜家台村光伏变压器,514双坨杨角台配变,514黄台院东玉沟配变,514卜荷八岔配变,河北建设集团有限公司张石高速涞源至涞水段第LJM-N9项目部变压器,涞源县碧峰园家庭农场变压器,514鲍家路大沟台区配变,碧峰园鹿厂,514鲍家路窑沟配变,涞源县王安镇中心小学黄台院小学变压器,涞源县航飞制品有限公司变压器,514鲍家路北配变,514卜荷村中配变,514塔崖驿交货台配变,514双坨村西配变,514卜荷村南配变,张桂兰选厂,","scope":"【影响街道/乡镇】王安镇镇【高危重要客户】无【影响客户】鲍家路、卜荷、杜家台、双坨、黄台院","startTime":"2019-09-17 06:00:00","stopDate":"2019-09-17 12:00:00","orgNo":"1340615","typeCode":"临时停电","poweroffArea":"【全线路停电】停514杜家台大楞庄配变,514下卜荷配变,涞源县森扬矿业有限公司变压器,涞源县王安镇中心小学鲍家路小学变压器,涞源县??鑫选矿厂,514鲍家路村南台区配变,514鲍家路村中配变,河北金谷矿业有限责任公司变压器,涞源县王安镇双坨村村民委员会,涞源县塔崖驿乡卜荷村村民委员会变压器,514双坨村中配变,涞源县富田土地整理有限公司变压器,涞源县银乾砂石销售有限公司变压器,514黄台院西庄配变,杜家台大楞【三批中心村】,514黄台院村2#变配变,涞源县航飞水泥制品有限公司变压器,0469331383-涞源县银山口庆喜铅锌选厂-专变-46777338-李新中矿山,涞源县新建石材有限公司变压器,514鲍家路大沙地配变,黄台院高速充电桩514线路北箱变出线间隔配电变压器,514杜家台村中配变,514杜家台芒沟配变,514黄台院村中配变,514鲍家路北河配变,514鲍家路柳湾配变,河北建设集团有限公司张石高速涞源至涞水段第LJM-N9项目部,【光伏】杜家台村光伏变压器,514双坨杨角台配变,514黄台院东玉沟配变,514卜荷八岔配变,河北建设集团有限公司张石高速涞源至涞水段第LJM-N9项目部变压器,涞源县碧峰园家庭农场变压器,514鲍家路大沟台区配变,碧峰园鹿厂,514鲍家路窑沟配变,涞源县王安镇中心小学黄台院小学变压器,涞源县航飞制品有限公司变压器,514鲍家路北配变,514卜荷村中配变,514塔崖驿交货台配变,514双坨村西配变,514卜荷村南配变,张桂兰选厂","poweroffReason":"【停电原因】由于线路检修导致３５ＫＶ乌龙沟变电站１０ＫＶ王安镇线５１４线路全线停电【变更送电】无【发布渠道】通过９５５９８发布","powerTime":"2019-09-17 11:55:58","powerComm":"已送电","subsNo":"","lineNo":"","tgNo":"","tgName":null,"infoStatus":"1","orgName":"国网涞源县供电公司","typeName":null,"infoStatusName":null,"dateDay":null,"orgNos":null,"nowTime":null,"countyName":null,"streetName":null,"villageName":null,"roadName":null,"communityName":null,"tranName":null,"sdLineName":null,"cityCode":"1340615","cityName":"国网涞源县供电公司","provinceCode":null,"stopTime":"2019-09-17 12:00:00","powerType":"全部","powerOffArea":"【全线路停电】停514杜家台大楞庄配变,514下卜荷配变,涞源县森扬矿业有限公司变压器,涞源县王安镇中心小学鲍家路小学变压器,涞源县??鑫选矿厂,514鲍家路村南台区配变,514鲍家路村中配变,河北金谷矿业有限责任公司变压器,涞源县王安镇双坨村村民委员会,涞源县塔崖驿乡卜荷村村民委员会变压器,514双坨村中配变,涞源县富田土地整理有限公司变压器,涞源县银乾砂石销售有限公司变压器,514黄台院西庄配变,杜家台大楞【三批中心村】,514黄台院村2#变配变,涞源县航飞水泥制品有限公司变压器,0469331383-涞源县银山口庆喜铅锌选厂-专变-46777338-李新中矿山,涞源县新建石材有限公司变压器,514鲍家路大沙地配变,黄台院高速充电桩514线路北箱变出线间隔配电变压器,514杜家台村中配变,514杜家台芒沟配变,514黄台院村中配变,514鲍家路北河配变,514鲍家路柳湾配变,河北建设集团有限公司张石高速涞源至涞水段第LJM-N9项目部,【光伏】杜家台村光伏变压器,514双坨杨角台配变,514黄台院东玉沟配变,514卜荷八岔配变,河北建设集团有限公司张石高速涞源至涞水段第LJM-N9项目部变压器,涞源县碧峰园家庭农场变压器,514鲍家路大沟台区配变,碧峰园鹿厂,514鲍家路窑沟配变,涞源县王安镇中心小学黄台院小学变压器,涞源县航飞制品有限公司变压器,514鲍家路北配变,514卜荷村中配变,514塔崖驿交货台配变,514双坨村西配变,514卜荷村南配变,张桂兰选厂","powerOffReason":"【停电原因】由于线路检修导致３５ＫＶ乌龙沟变电站１０ＫＶ王安镇线５１４线路全线停电【变更送电】无【发布渠道】通过９５５９８发布","powerOffId":"2019090913000098"},{"poweroffId":2019090913000083,"sgpoweroffId":null,"subsName":"","lineName":"中庄村线512","pubTranName":"黄郊新村新增2台区,中庄512清风沟西,黄郊西新增,中庄512下老芳,清风沟2台区【三批中心村】,中庄512东泉头2台区,西泉头村光伏变压器【光伏】,胡子峪,中庄512中庄北3台区,清风沟1台区【三批中心村】,横山岭配变,庄火台2台区,中庄南台区变压器,中庄512峨头新村【三批中心村】,中庄512毕家庄单,中庄512上庄学校,横山岭2台区,中庄512上庄南2台区,中庄512黄郊新村,下老芳2台区,中庄512沙岭子,黄郊,狮子峪,中庄512李家黄,林业局扑火队营房,中庄512上庄,中庄512沙岭单,狮子峪南,中庄512跃子沟,中庄南2台区变压器,南阳峪新村2【三批中心村】,中庄512西泉头3台区,中庄512黄郊新2台区,庄火台配变,上庄水配变,中庄512麻库,中庄512清风沟中,东泉头配变,下老芳4台区,狮子峪北,小荒荒配变,中庄北台区变压器,中庄512峨头,中庄512上庄中计,上庄村光伏变压器【光伏】,中庄中台变压器,中庄512中庄学校户,上老芳村光伏变压器【光伏】,南阳峪新村【三批中心村】,中庄512万子沟2台区,中庄512上庄北2台区,中庄中2台区变压器,中庄512上老房,中庄512刘湖,羊圈配变,南阳峪旧村【三批中心村】,中庄512西泉头2台区,中庄512陈家庄,中庄512上庄东,中庄512上庄南,中庄512上庄中2台区,中庄512毕家庄,中庄512万子沟,土胡同配变,中庄512狮子峪单,附庄龙盘沟,中庄北2台区,上老芳2台区,中庄南3台区变压器,中庄北4台区,白杨村,下老芳3台区,清风沟村光伏变压器【光伏】,中庄512毕东沟,南阳峪村光伏变压器【光伏】,衙庭配变,上老芳3台区,","scope":"【影响街道/乡镇】上庄乡【高危重要客户】无【影响客户】狮子峪、黄郊、南阳峪、清风沟、中庄、上庄、上老房、下老房、万子沟、峨头、毕家庄、横山岭、东泉头、西泉头、跃子沟、衙庭、沙岭、李家黄、刘胡、上庄中学、上庄小学、铁塔公司、联通公司、移动公司、上庄乡政府","startTime":"2019-09-18 07:00:00","stopDate":"2019-09-18 18:00:00","orgNo":"1340615","typeCode":"计划停电","poweroffArea":"【全线路停电】停附庄龙盘沟,黄郊新村新增2台区,变压器,涞源县六旺川生态养殖有限公司变压器,中庄512清风沟西,黄郊西新增,中庄512下老芳,清风沟2台区【三批中心村】,涞源县上庄乡中心小学中庄小学变压器,高新民,涞源县上庄乡中心卫生院变压器,中庄512东泉头2台区,西泉头村光伏变压器【光伏】,创大乙炔气厂,任智,涞源县公安局上庄派出所变压器,胡子峪,南阳峪机井,西泉头水,中庄512中庄北3台区,中庄机井,河北中凯建设工程有限公司变压器,李文海,清风沟1台区【三批中心村】,涞源县上庄乡狮子峪村村民委员会变压器,横山岭配变,庄火台2台区,中庄南台区变压器,中庄512峨头新村【三批中心村】,中庄512毕家庄单,中庄512上庄学校,国网河北省电力公司涞源县供电分公司(甲村所)变压器,涞源县旭源煤站变压器,涞源县金家井乡泉峪村村民委员会变压器,横山岭2台区,中庄512上庄南2台区,中庄512上庄东,甲村林厂,富源加油站,涞源县农村信用联社股份有限公司变压器,中庄512上庄南,清风沟水变,中庄512上庄中2台区,中庄512毕家庄,涞源县上庄乡清风沟村村民委员会变压器,中庄512万子沟,玖兴农牧发展涞源有限公司变压器,土胡同配变,中庄512狮子峪单,上庄机井,涞源县上庄乡黄郊村村民委员会变压器,雨润集团,中庄北2台区,上老芳2台区,河北省涞源县上庄中学变压器,中庄南3台区变压器,上庄医院,中庄北4台区,国家电投集团涞源东方新能源发电有限公司变压器,白杨村,下老芳3台区,清风沟村光伏变压器【光伏】,涞源县聚强商品混凝土有限公司变压器,中庄512毕东沟,南阳峪村光伏变压器【光伏】,衙庭配变,上老芳3台区,中庄512沙岭单,庄火台配变,上庄水配变,甲村供电所,涞源县科瑞新能源发电有限公司变压器,中庄512黄郊新村,沙岭水,涞源县森林公安局变压器,下老芳2台区,中庄512沙岭子,黄郊,涞源县上庄乡中庄村村民委员会变压器,狮子峪,中庄512李家黄,林业局扑火队营房,华夏幸福涞源扶贫发展有限公司,河北雄威建筑工程有限公司变压器,中庄512上庄,河北沃茂牧业有限公司变压器,狮子峪南,涞源县昌虹农产品购销专业合作社变压器,中庄512跃子沟,涞源县上庄乡横山岭村村民委员会变压器,中庄南2台区变压器,南阳峪新村2【三批中心村】,0643436349-涞源县豪杰铁选厂-专变-161885199-涞源县广华水泥构件厂变压器,中庄512西泉头3台区,涞源县富民土地开发有限责任公司变压器,涞源县上庄乡中心小学变压器,中庄512黄郊新2台区,涞源县英利光伏电力开发有限公司变压器,中庄512麻库,中庄512陈家庄,中庄512清风沟中,东泉头配变,下老芳4台区,狮子峪北,小荒荒配变,中庄北台区变压器,涞源县上庄乡峨头村村民委员会变压器,中庄512峨头,中庄512上庄中计,上庄村光伏变压器【光伏】,中庄中台变压器,中国移动通信集团河北有限公司涞源,中庄512中庄学校户,上老芳村光伏变压器【光伏】,南阳峪新村【三批中心村】,中庄512万子沟2台区,中庄512上庄北2台区,中庄中2台区变压器,中庄512上老房,涞源县上庄乡西泉头村村民委员会变压器,中庄512刘湖,羊圈配变,森利选厂,南阳峪旧村【三批中心村】,涞源县上庄乡上老芳村变压器,0603049345-涞源县鑫满畜禽饲养有限公司-专变-126973882-涞源县鑫满畜禽饲养有限公司变压器,中庄512西泉头2台区","poweroffReason":"【停电原因】由于线路切改导致３５ＫＶ城关变电站１０ＫＶ中庄村线５１２线路全线停电【变更送电】无【发布渠道】涞源电视台（２０１９年９月９日至２０１９年９月１７日）屏幕上方滚动","powerTime":"2019-09-18 17:54:04","powerComm":"已送电","subsNo":"","lineNo":"","tgNo":"","tgName":null,"infoStatus":"1","orgName":"国网涞源县供电公司","typeName":null,"infoStatusName":null,"dateDay":null,"orgNos":null,"nowTime":null,"countyName":null,"streetName":null,"villageName":null,"roadName":null,"communityName":null,"tranName":null,"sdLineName":null,"cityCode":"1340615","cityName":"国网涞源县供电公司","provinceCode":null,"stopTime":"2019-09-18 18:00:00","powerType":"全部","powerOffArea":"【全线路停电】停附庄龙盘沟,黄郊新村新增2台区,变压器,涞源县六旺川生态养殖有限公司变压器,中庄512清风沟西,黄郊西新增,中庄512下老芳,清风沟2台区【三批中心村】,涞源县上庄乡中心小学中庄小学变压器,高新民,涞源县上庄乡中心卫生院变压器,中庄512东泉头2台区,西泉头村光伏变压器【光伏】,创大乙炔气厂,任智,涞源县公安局上庄派出所变压器,胡子峪,南阳峪机井,西泉头水,中庄512中庄北3台区,中庄机井,河北中凯建设工程有限公司变压器,李文海,清风沟1台区【三批中心村】,涞源县上庄乡狮子峪村村民委员会变压器,横山岭配变,庄火台2台区,中庄南台区变压器,中庄512峨头新村【三批中心村】,中庄512毕家庄单,中庄512上庄学校,国网河北省电力公司涞源县供电分公司(甲村所)变压器,涞源县旭源煤站变压器,涞源县金家井乡泉峪村村民委员会变压器,横山岭2台区,中庄512上庄南2台区,中庄512上庄东,甲村林厂,富源加油站,涞源县农村信用联社股份有限公司变压器,中庄512上庄南,清风沟水变,中庄512上庄中2台区,中庄512毕家庄,涞源县上庄乡清风沟村村民委员会变压器,中庄512万子沟,玖兴农牧发展涞源有限公司变压器,土胡同配变,中庄512狮子峪单,上庄机井,涞源县上庄乡黄郊村村民委员会变压器,雨润集团,中庄北2台区,上老芳2台区,河北省涞源县上庄中学变压器,中庄南3台区变压器,上庄医院,中庄北4台区,国家电投集团涞源东方新能源发电有限公司变压器,白杨村,下老芳3台区,清风沟村光伏变压器【光伏】,涞源县聚强商品混凝土有限公司变压器,中庄512毕东沟,南阳峪村光伏变压器【光伏】,衙庭配变,上老芳3台区,中庄512沙岭单,庄火台配变,上庄水配变,甲村供电所,涞源县科瑞新能源发电有限公司变压器,中庄512黄郊新村,沙岭水,涞源县森林公安局变压器,下老芳2台区,中庄512沙岭子,黄郊,涞源县上庄乡中庄村村民委员会变压器,狮子峪,中庄512李家黄,林业局扑火队营房,华夏幸福涞源扶贫发展有限公司,河北雄威建筑工程有限公司变压器,中庄512上庄,河北沃茂牧业有限公司变压器,狮子峪南,涞源县昌虹农产品购销专业合作社变压器,中庄512跃子沟,涞源县上庄乡横山岭村村民委员会变压器,中庄南2台区变压器,南阳峪新村2【三批中心村】,0643436349-涞源县豪杰铁选厂-专变-161885199-涞源县广华水泥构件厂变压器,中庄512西泉头3台区,涞源县富民土地开发有限责任公司变压器,涞源县上庄乡中心小学变压器,中庄512黄郊新2台区,涞源县英利光伏电力开发有限公司变压器,中庄512麻库,中庄512陈家庄,中庄512清风沟中,东泉头配变,下老芳4台区,狮子峪北,小荒荒配变,中庄北台区变压器,涞源县上庄乡峨头村村民委员会变压器,中庄512峨头,中庄512上庄中计,上庄村光伏变压器【光伏】,中庄中台变压器,中国移动通信集团河北有限公司涞源,中庄512中庄学校户,上老芳村光伏变压器【光伏】,南阳峪新村【三批中心村】,中庄512万子沟2台区,中庄512上庄北2台区,中庄中2台区变压器,中庄512上老房,涞源县上庄乡西泉头村村民委员会变压器,中庄512刘湖,羊圈配变,森利选厂,南阳峪旧村【三批中心村】,涞源县上庄乡上老芳村变压器,0603049345-涞源县鑫满畜禽饲养有限公司-专变-126973882-涞源县鑫满畜禽饲养有限公司变压器,中庄512西泉头2台区","powerOffReason":"【停电原因】由于线路切改导致３５ＫＶ城关变电站１０ＫＶ中庄村线５１２线路全线停电【变更送电】无【发布渠道】涞源电视台（２０１９年９月９日至２０１９年９月１７日）屏幕上方滚动","powerOffId":"2019090913000083"},{"poweroffId":2019090913000040,"sgpoweroffId":null,"subsName":"","lineName":"10kV512西柴里线","pubTranName":"佛店村公用照明4台区,马家庄村公用照明1台区,佛店公用照明9台区,马家庄村公用照明3台区,曲头村公用照明1台区,西柴里公用照明8台区,佛店村公用照明3台区,马家庄公用照明5台区,佛店公用照明6台区,西柴里公用照明9台区,马家庄村公用照明4台区,西柴里公用照明5台区,佛店村公用照明1台区,西柴里公用照明1台区,西柴里公用照明7台区,西柴里公用照明10台区,曲头公用照明2台区,西柴里公用照明11台区,西柴里公用照明3台区,马家庄公用照明6台区,佛店村公用照明2台区,佛店公用照明8台区,佛店公用照明7台区,曲头公用照明3台区,佛店公用照明5台区,西柴里公用照明6台区,西柴里公用照明2台区,马家庄村公用照明2台区,西柴里公用照明4台区,佛店公用照明10台区,马家庄公用照明7台区,","scope":"【影响街道/乡镇】东留春乡、号头庄乡【高危重要客户】无【影响客户】曲头、西柴里、马家庄、佛店","startTime":"2019-09-19 05:00:00","stopDate":"2019-09-19 18:00:00","orgNo":"1340610","typeCode":"计划停电","poweroffArea":"【全线路停电】停西柴里公用照明3台区,佛店村公用照明4台区,马家庄村公用照明1台区,佛店公用照明9台区,马家庄村公用照明3台区,曲头村公用照明1台区,西柴里公用照明8台区,佛店村公用照明3台区,马家庄公用照明5台区,佛店公用照明6台区,西柴里公用照明9台区,马家庄村公用照明4台区,西柴里公用照明5台区,佛店村公用照明1台区,西柴里公用照明1台区,西柴里公用照明7台区,西柴里公用照明10台区,曲头公用照明2台区,西柴里公用照明11台区,佛店公用照明8台区,佛店公用照明7台区,曲头公用照明3台区,佛店公用照明5台区,西柴里公用照明6台区,马家庄公用照明6台区,佛店村公用照明2台区,西柴里公用照明2台区,马家庄村公用照明2台区,西柴里公用照明4台区,佛店公用照明10台区,马家庄公用照明7台区","poweroffReason":"【停电原因】由于更换电杆导致３５ＫＶ刘良庄变电站１０ＫＶ５１２西柴里线路全线停电 【变更送电】无 【发布渠道】河北省定州市定州日报第三版（２０１９年０９月０６日）","powerTime":"2019-09-19 17:53:36","powerComm":"已送电","subsNo":"","lineNo":"","tgNo":"","tgName":null,"infoStatus":"1","orgName":"国网定州市供电公司","typeName":null,"infoStatusName":null,"dateDay":null,"orgNos":null,"nowTime":null,"countyName":null,"streetName":null,"villageName":null,"roadName":null,"communityName":null,"tranName":null,"sdLineName":null,"cityCode":"1340610","cityName":"国网定州市供电公司","provinceCode":null,"stopTime":"2019-09-19 18:00:00","powerType":"全部","powerOffArea":"【全线路停电】停西柴里公用照明3台区,佛店村公用照明4台区,马家庄村公用照明1台区,佛店公用照明9台区,马家庄村公用照明3台区,曲头村公用照明1台区,西柴里公用照明8台区,佛店村公用照明3台区,马家庄公用照明5台区,佛店公用照明6台区,西柴里公用照明9台区,马家庄村公用照明4台区,西柴里公用照明5台区,佛店村公用照明1台区,西柴里公用照明1台区,西柴里公用照明7台区,西柴里公用照明10台区,曲头公用照明2台区,西柴里公用照明11台区,佛店公用照明8台区,佛店公用照明7台区,曲头公用照明3台区,佛店公用照明5台区,西柴里公用照明6台区,马家庄公用照明6台区,佛店村公用照明2台区,西柴里公用照明2台区,马家庄村公用照明2台区,西柴里公用照明4台区,佛店公用照明10台区,马家庄公用照明7台区","powerOffReason":"【停电原因】由于更换电杆导致３５ＫＶ刘良庄变电站１０ＫＶ５１２西柴里线路全线停电 【变更送电】无 【发布渠道】河北省定州市定州日报第三版（２０１９年０９月０６日）","powerOffId":"2019090913000040"},{"poweroffId":2019090913000031,"sgpoweroffId":null,"subsName":"","lineName":"桥梁厂515","pubTranName":"东清源村3#,蔡家峪村7#,马圈子村4#,西清源10#,西清源村12#,山神庙村4#,山神庙村1#,马圈子村6#,马圈子村9#,蔡家峪村4#,西清源村1#,蔡家峪村2#,马圈子3#,西清源7#,西清源村2#,马圈子村8#,平顶山村2#,蔡家峪村5#,西清源3#,山神庙村2#,殷家沟村3#,西清源9#,西清源村8#,蔡家峪村1#,西清源村4#,平顶山村5#,马圈子村1#,东清源村5#,平顶山村1#,西清源村5#,马圈子村11#,殷家沟村2#,蔡家峪乡直,平顶山村4#,马圈子村5#,蔡家峪村3#,东清源村2#,马圈子村10#,西清源村11#,东清源村6#,马圈子2#,山神庙村5#,马圈子村7#,蔡家峪村6#,殷家沟村1#,西清源村6#,平顶山村3#,殷家沟村4#,山神庙村3#,","scope":"【影响街道/乡镇】紫荆关镇、蔡家峪乡【高危重要客户】无【影响客户】东清源村、西清源村、碾子沟村、蔡家峪村、山神庙村、殷家沟村、马圈子村、平顶山村","startTime":"2019-09-09 07:48:56","stopDate":"2019-09-09 09:30:00","orgNo":"1340625","typeCode":"电网故障停限电","poweroffArea":"【全线路停电】停西清源3#,0619915173-中国移动通信集团河北有限公司易县分公司-专变-129035100-中国移动通信集团河北有限公司易县分公司变压器,西清源村2#,蔡家峪村2#,0554193164-易县雷发顺天成石材加工厂-专变-75222837-易县雷发顺天成石材加工厂,平顶山村朱俊江变压器,马圈子3#,西清源10#,蔡家峪村6#,马圈子村10#,马圈子村11#,金属结构厂,平顶山村5#,马圈子村1#,西清源村6#,殷家沟村3#,东清源村5#,平顶山村4#,殷家沟村2#,马圈子村9#,西清源村5#,山神庙村2#,东清源村6#,蔡家峪村7#,西清源村8#,西清源村11#,马圈子2#,蔡家峪村3#,马圈子村6#,蔡家峪村4#,东清源村2#,蔡家峪村5#,山神庙村3#,蔡家峪村1#,0579388992-易县太行矿业有限公司-专变-124403513-易县太行矿业有限公司变压器,平顶山村2#,西清源村4#,西清源7#,殷家沟村1#,马圈子村5#,蔡家峪乡直,马圈子村8#,马圈子村4#,马圈子村7#,山神庙村5#,平顶山村3#,西清源村12#,山神庙村1#,东清源村3#,平顶山村1#,殷家沟村4#,西清源9#,山神庙村4#,西清源村1#","poweroffReason":"【停电原因】由于速断跳闸导致３５ＫＶ大兴安变电站桥梁厂５１５线路全线停电【变更送电】因抢修进度加快原因，送电时间由１８:００变更为０９:３０【发布渠道】通过９５５９８发布","powerTime":"2019-09-09 09:10:25","powerComm":"已送电","subsNo":"","lineNo":"","tgNo":"","tgName":null,"infoStatus":"1","orgName":"国网易县供电公司","typeName":null,"infoStatusName":null,"dateDay":null,"orgNos":null,"nowTime":null,"countyName":null,"streetName":null,"villageName":null,"roadName":null,"communityName":null,"tranName":null,"sdLineName":null,"cityCode":"1340625","cityName":"国网易县供电公司","provinceCode":null,"stopTime":"2019-09-09 09:30:00","powerType":"全部","powerOffArea":"【全线路停电】停西清源3#,0619915173-中国移动通信集团河北有限公司易县分公司-专变-129035100-中国移动通信集团河北有限公司易县分公司变压器,西清源村2#,蔡家峪村2#,0554193164-易县雷发顺天成石材加工厂-专变-75222837-易县雷发顺天成石材加工厂,平顶山村朱俊江变压器,马圈子3#,西清源10#,蔡家峪村6#,马圈子村10#,马圈子村11#,金属结构厂,平顶山村5#,马圈子村1#,西清源村6#,殷家沟村3#,东清源村5#,平顶山村4#,殷家沟村2#,马圈子村9#,西清源村5#,山神庙村2#,东清源村6#,蔡家峪村7#,西清源村8#,西清源村11#,马圈子2#,蔡家峪村3#,马圈子村6#,蔡家峪村4#,东清源村2#,蔡家峪村5#,山神庙村3#,蔡家峪村1#,0579388992-易县太行矿业有限公司-专变-124403513-易县太行矿业有限公司变压器,平顶山村2#,西清源村4#,西清源7#,殷家沟村1#,马圈子村5#,蔡家峪乡直,马圈子村8#,马圈子村4#,马圈子村7#,山神庙村5#,平顶山村3#,西清源村12#,山神庙村1#,东清源村3#,平顶山村1#,殷家沟村4#,西清源9#,山神庙村4#,西清源村1#","powerOffReason":"【停电原因】由于速断跳闸导致３５ＫＶ大兴安变电站桥梁厂５１５线路全线停电【变更送电】因抢修进度加快原因，送电时间由１８:００变更为０９:３０【发布渠道】通过９５５９８发布","powerOffId":"2019090913000031"},{"poweroffId":2019090813000278,"sgpoweroffId":null,"subsName":"","lineName":"10KV满金峪线573","pubTranName":"北庄村西井【纯农排变】,山后西井【纯农排变】,曲家磨井1,曲家磨大棚井变压器,石亭修配厂2,华筑房地产开发有限公司1600KVA专变,张坊钢窗厂1,立宇超然开发公司315KVA专变,石亭东石桥,龙安妇外医院,板城南上坎2台区,大世界洗浴中,山后北井1【纯农排变】,鑫旺沙石料厂,南大方井【纯农排变】,石亭供电所,诚信液化气站,石亭中学,0645638457-河北信嘉盈混凝土有限公司-专变-169626597-河北信嘉盈混凝土有限公司250KVA专变,涞水县利丰村镇银行有限责任公司100KVA专变,板城南2台区,板城东台区,石亭中学变压器,一渡派出所变压器,石亭老虎桥,板城东庄台区,王家碾东井【纯农排变】,北庄西坡台区【纯农排变】,刘春喜井【纯农排变】,板城北岗台区,刘海军,板城7、8队井【纯农排变】,镇政府台区,王家碾北井【纯农排变】,刘建玲(石亭供电所配变),石亭北2台区,北庄西北台区,板城百草坡井,张坊种植基地,北京东方凯瑞,恒川石材公司,石亭小学台区变压器,张坊村,曲家磨大棚菜,龙安村东1,板城北台区,满金峪北井【纯农排变】,中国邮政集团公司河北省涞水县分公司100KVA专变,聚泰石材厂,王家碾南台区,王家碾果园机井【纯农排变】,满金峪落宝滩,板城1、2队井,鑫顺圆度假村,石亭东台区,曲家磨村北水利【纯农排变】,北庄南2台区,龙安大桥台区变压器【纯农排变】,北庄南台区,石亭修配厂台区,曲家磨北台区,板城东北台区,王家碾村内,石亭村内2台区,昊天化工公司,板城5、6队井【纯农排变】,刘鹏里200KVA专变,石亭村内变压器,板城南台区,石亭梁家坟台区变压器,石亭西保野路台区,龙安东井【纯农排变】,山后北井2【纯农排变】,闫利华,燕龙加油站,北庄北井变压器,板城大队台区变压器,山后南台区,板城北井台区【纯农排变】,山后村内,许家磨河西,配变,涞水县永祥酒店新增变压器,板城北2台区,石亭北台区,板城北岗井变压器【纯农排变】,石亭大队台区柱上变压器,龙安东港二号台区变压器,落宝滩南台区,永昌碎石料厂,飞龙酒店用品,飞龙招待所,龙安福利包装,山后北台区,北庄北台区,王家碾大棚菜【纯农排变】,曲家磨东井【纯农排变】,石亭西台区,满金峪村内,满金峪扬水站【纯农排变】,京龙塑料包装,王家碾果园,龙安美食城,0675318703-涞水县明阳商品混凝土有限公司-专变-216009227-涞水县明阳商品混凝土有限公司新增变压器315KVA,金兴烤鸭店,王家碾北台区,山后东井【纯农排变】,石亭南台区,板城西井【纯农排变】,板城南上坎台区,涞水县明阳商品混凝土有限公司315KVA专变,涞水县农村信用合作联社新增160KVA变压器,石亭南台区2,板城西台区【冬季供暖设施】,北庄村北2台区变压器,石亭地税前变压器,石亭面粉厂井【纯农排变】,板城10队井【纯农排变】,河北华银房地产开发有限公司T573线路新增630KVA变压器一台,板城东井,涞水通信公司,","scope":"【影响街道/乡镇】石亭镇 【高危重要客户】无 【影响客户】石亭村、板城村、王家碾村、山后村、北庄村、满金峪村、许家磨河西村、落宝滩村","startTime":"2019-09-08 23:20:00","stopDate":"2019-09-09 01:30:00","orgNo":"1340614","typeCode":"其他临时停电","poweroffArea":"【全线路停电】停北庄村西井【纯农排变】,山后西井【纯农排变】,曲家磨井1,曲家磨大棚井变压器,石亭修配厂2,华筑房地产开发有限公司1600KVA专变,张坊钢窗厂1,立宇超然开发公司315KVA专变,石亭东石桥,龙安妇外医院,板城南上坎2台区,大世界洗浴中,山后北井1【纯农排变】,刘春喜井【纯农排变】,板城北岗台区,刘海军,板城7、8队井【纯农排变】,镇政府台区,王家碾北井【纯农排变】,刘建玲(石亭供电所配变),石亭北2台区,北庄西北台区,板城百草坡井,张坊种植基地,北京东方凯瑞,恒川石材公司,石亭小学台区变压器,张坊村,曲家磨大棚菜,龙安村东1,板城北台区,满金峪北井【纯农排变】,中国邮政集团公司河北省涞水县分公司100KVA专变,聚泰石材厂,鑫旺沙石料厂,南大方井【纯农排变】,石亭供电所,诚信液化气站,石亭中学,0645638457-河北信嘉盈混凝土有限公司-专变-169626597-河北信嘉盈混凝土有限公司250KVA专变,涞水县利丰村镇银行有限责任公司100KVA专变,板城南2台区,板城东台区,石亭中学变压器,一渡派出所变压器,石亭老虎桥,板城东庄台区,王家碾东井【纯农排变】,北庄西坡台区【纯农排变】,王家碾南台区,王家碾果园机井【纯农排变】,满金峪落宝滩,板城1、2队井,鑫顺圆度假村,石亭东台区,曲家磨村北水利【纯农排变】,北庄南2台区,龙安大桥台区变压器【纯农排变】,北庄南台区,石亭修配厂台区,曲家磨北台区,王家碾大棚菜【纯农排变】,板城东北台区,王家碾村内,石亭村内2台区,昊天化工公司,板城5、6队井【纯农排变】,刘鹏里200KVA专变,石亭村内变压器,板城南台区,石亭梁家坟台区变压器,石亭西保野路台区,龙安东井【纯农排变】,山后北井2【纯农排变】,闫利华,燕龙加油站,北庄北井变压器,板城大队台区变压器,山后南台区,板城北井台区【纯农排变】,山后村内,许家磨河西,配变,涞水县永祥酒店新增变压器,板城北2台区,石亭北台区,板城北岗井变压器【纯农排变】,石亭大队台区柱上变压器,龙安东港二号台区变压器,落宝滩南台区,永昌碎石料厂,飞龙酒店用品,飞龙招待所,龙安福利包装,山后北台区,北庄北台区,曲家磨东井【纯农排变】,石亭西台区,满金峪村内,满金峪扬水站【纯农排变】,京龙塑料包装,王家碾果园,龙安美食城,0675318703-涞水县明阳商品混凝土有限公司-专变-216009227-涞水县明阳商品混凝土有限公司新增变压器315KVA,金兴烤鸭店,王家碾北台区,山后东井【纯农排变】,石亭南台区,板城西井【纯农排变】,板城南上坎台区,涞水县明阳商品混凝土有限公司315KVA专变,涞水县农村信用合作联社新增160KVA变压器,石亭南台区2,板城西台区【冬季供暖设施】,北庄村北2台区变压器,石亭地税前变压器,石亭面粉厂井【纯农排变】,板城10队井【纯农排变】,河北华银房地产开发有限公司T573线路新增630KVA变压器一台,板城东井,涞水通信公司","poweroffReason":"【停电原因】由于弓子线打火，需停电进行紧急消缺导致１１０ＫＶ石亭变电站１０ＫＶ满金峪线５７３线路全线停电 【变更送电】无 【发布渠道】通过９５５９８发布","powerTime":"2019-09-09 00:36:08","powerComm":"已送电","subsNo":"","lineNo":"","tgNo":"","tgName":null,"infoStatus":"1","orgName":"国网涞水县供电公司","typeName":null,"infoStatusName":null,"dateDay":null,"orgNos":null,"nowTime":null,"countyName":null,"streetName":null,"villageName":null,"roadName":null,"communityName":null,"tranName":null,"sdLineName":null,"cityCode":"1340614","cityName":"国网涞水县供电公司","provinceCode":null,"stopTime":"2019-09-09 01:30:00","powerType":"全部","powerOffArea":"【全线路停电】停北庄村西井【纯农排变】,山后西井【纯农排变】,曲家磨井1,曲家磨大棚井变压器,石亭修配厂2,华筑房地产开发有限公司1600KVA专变,张坊钢窗厂1,立宇超然开发公司315KVA专变,石亭东石桥,龙安妇外医院,板城南上坎2台区,大世界洗浴中,山后北井1【纯农排变】,刘春喜井【纯农排变】,板城北岗台区,刘海军,板城7、8队井【纯农排变】,镇政府台区,王家碾北井【纯农排变】,刘建玲(石亭供电所配变),石亭北2台区,北庄西北台区,板城百草坡井,张坊种植基地,北京东方凯瑞,恒川石材公司,石亭小学台区变压器,张坊村,曲家磨大棚菜,龙安村东1,板城北台区,满金峪北井【纯农排变】,中国邮政集团公司河北省涞水县分公司100KVA专变,聚泰石材厂,鑫旺沙石料厂,南大方井【纯农排变】,石亭供电所,诚信液化气站,石亭中学,0645638457-河北信嘉盈混凝土有限公司-专变-169626597-河北信嘉盈混凝土有限公司250KVA专变,涞水县利丰村镇银行有限责任公司100KVA专变,板城南2台区,板城东台区,石亭中学变压器,一渡派出所变压器,石亭老虎桥,板城东庄台区,王家碾东井【纯农排变】,北庄西坡台区【纯农排变】,王家碾南台区,王家碾果园机井【纯农排变】,满金峪落宝滩,板城1、2队井,鑫顺圆度假村,石亭东台区,曲家磨村北水利【纯农排变】,北庄南2台区,龙安大桥台区变压器【纯农排变】,北庄南台区,石亭修配厂台区,曲家磨北台区,王家碾大棚菜【纯农排变】,板城东北台区,王家碾村内,石亭村内2台区,昊天化工公司,板城5、6队井【纯农排变】,刘鹏里200KVA专变,石亭村内变压器,板城南台区,石亭梁家坟台区变压器,石亭西保野路台区,龙安东井【纯农排变】,山后北井2【纯农排变】,闫利华,燕龙加油站,北庄北井变压器,板城大队台区变压器,山后南台区,板城北井台区【纯农排变】,山后村内,许家磨河西,配变,涞水县永祥酒店新增变压器,板城北2台区,石亭北台区,板城北岗井变压器【纯农排变】,石亭大队台区柱上变压器,龙安东港二号台区变压器,落宝滩南台区,永昌碎石料厂,飞龙酒店用品,飞龙招待所,龙安福利包装,山后北台区,北庄北台区,曲家磨东井【纯农排变】,石亭西台区,满金峪村内,满金峪扬水站【纯农排变】,京龙塑料包装,王家碾果园,龙安美食城,0675318703-涞水县明阳商品混凝土有限公司-专变-216009227-涞水县明阳商品混凝土有限公司新增变压器315KVA,金兴烤鸭店,王家碾北台区,山后东井【纯农排变】,石亭南台区,板城西井【纯农排变】,板城南上坎台区,涞水县明阳商品混凝土有限公司315KVA专变,涞水县农村信用合作联社新增160KVA变压器,石亭南台区2,板城西台区【冬季供暖设施】,北庄村北2台区变压器,石亭地税前变压器,石亭面粉厂井【纯农排变】,板城10队井【纯农排变】,河北华银房地产开发有限公司T573线路新增630KVA变压器一台,板城东井,涞水通信公司","powerOffReason":"【停电原因】由于弓子线打火，需停电进行紧急消缺导致１１０ＫＶ石亭变电站１０ＫＶ满金峪线５７３线路全线停电 【变更送电】无 【发布渠道】通过９５５９８发布","powerOffId":"2019090813000278"},{"poweroffId":2019090813000277,"sgpoweroffId":null,"subsName":"","lineName":"10KV西龙泉线566","pubTranName":"东龙泉北井【纯农排变】,大赤土5、6队,北龙泉东台区,沿庄南台区【冬季供暖设施】,大赤土东台区,东龙泉东台区,大赤土小学台区变压器,士庄砖厂,高庄村内,渐村村北二台区变压器,东赤土村内,士庄北井【纯农排变】,旭垚石粉加工,大赤土西3台区,沿庄砖厂,士庄西井【纯农排变】,大赤土北井【纯农排变】,沿庄西台区,东营房南2台区,沿庄南井【纯农排变】,0633976589-河北立宇超然房地产开发有限公司-专变-147935118-涞水县立宇超然房地产630KVA专变,大赤土南井1号【纯农排变】,大赤土自来水,沿庄东南井3【纯农排变】,石亭保野路西2台区变压器,中国电子科技集团公司电子科学研究院315KVA专变,东龙泉南2台区,大赤土7、8队井【纯农排变】,东营房牌楼井【纯农排变】,东营房村东【纯农排变】,士庄东井,东龙泉6号井【纯农排变】,大赤土东2台区,0674015397-北京建工集团有限责任公司-专变-215337230-北京建工集团有限责任公司800KVA专变,东龙泉北2台区,配变,大赤土官井台区【纯农排变】,东营房北台区,渐村村东二台区变压器,东营房北1台区,东龙泉南台区,东营房北2台区,大赤土村北,士庄大棚菜【纯农排变】,涞水新城收费站-专变-141355552-400KVA,北龙泉村内,东龙泉7号井【纯农排变】,0596087821-刘志俊-专变-126177416-刘志俊50KVA专变,北龙泉南井【纯农排变】,大赤土西2台区,东营房南台区,东龙泉2号井,东龙泉北台区,0672297887-河北京创投资有限公司-专变-212389580-河北京创投资公司630KVA专变,水泉井,东龙泉1井,东龙泉自来水,大赤土戏楼台区,东营房北井【纯农排变】,涞水县旭??石灰粉加工有限公司250KVA专变,东赤土东北井【纯农排变】,士庄北台区,大赤土北2台区,东龙泉村北机井【纯农排变】,东龙泉东北台区变压器,士庄西台区,东营房南1台区,北龙泉北台区,东营房村内,大赤土村内,土庄南台区,大赤土东北井,东营房大白桥【纯农排变】,东龙泉4号井【纯农排变】,0674011496-北京建工集团有限责任公司-专变-215339310-北京建工集团有限责任公司1000KVA专变,士庄东台区变压器,源涞土材二厂,东龙泉东井【纯农排变】,东赤土北井【纯农排变】,","scope":"【影响街道】石亭镇 【高危重要客户】无 【影响客户】士庄村、东龙泉村、北龙泉村、高庄村、大赤土村、沿庄村、东营房村、东赤土村","startTime":"2019-09-08 23:20:45","stopDate":"2019-09-09 01:30:00","orgNo":"1340614","typeCode":"其他临时停电","poweroffArea":"【全线路停电】停东龙泉北井【纯农排变】,北龙泉东台区,大赤土5、6队,沿庄南台区【冬季供暖设施】,大赤土东台区,东龙泉东台区,大赤土小学台区变压器,士庄砖厂,东赤土村内,大赤土西3台区,沿庄砖厂,沿庄西台区,沿庄南井【纯农排变】,0633976589-河北立宇超然房地产开发有限公司-专变-147935118-涞水县立宇超然房地产630KVA专变,大赤土南井1号【纯农排变】,沿庄东南井3【纯农排变】 ,石亭保野路西2台区变压器,中国电子科技集团公司电子科学研究院315KVA专变,东龙泉南2台区,大赤土7、8队井【纯农排变】,士庄东井,东龙泉6号井【纯农排变】,大赤土东2台区,0674015397-北京建工集团有限责任公司-专变-215337230-北京建工集团有限责任公司800KVA专变,配变,大赤土官井台区【纯农排变】,东龙泉7号井【纯农排变】,北龙泉南井【纯农排变】,高庄村内,渐村村北二台区变压器,士庄北井【纯农排变】,旭垚石粉加工,士庄西井【纯农排变】,大赤土北井【纯农排变】,东营房南2台区,大赤土自来水,东营房牌楼井【纯农排变】,东营房村东【纯农排变】,东龙泉北2台区,东营房北台区,渐村村东二台区变压器,东营房北1台区,东龙泉南台区,东营房北2台区,大赤土村北,士庄大棚菜【纯农排变】,涞水新城收费站-专变-141355552-400KVA,北龙泉村内,0596087821-刘志俊-专变-126177416-刘志俊50KVA专变,大赤土西2台区,东营房南台区,0672297887-河北京创投资有限公司-专变-212389580-河北京创投资公司630KVA专变,水泉井,东龙泉1井,东龙泉自来水,大赤土戏楼台区,东营房北井【纯农排变】,涞水县旭??石灰粉加工有限公司250KVA专变,东赤土东北井【纯农排变】,士庄北台区,大赤土北2台区,东龙泉村北机井【纯农排变】,东龙泉东北台区变压器,士庄西台区,东营房南1台区,北龙泉北台区,东营房村内,大赤土村内,土庄南台区,大赤土东北井,东营房大白桥【纯农排变】,东龙泉4号井【纯农排变】,0674011496-北京建工集团有限责任公司-专变-215339310-北京建工集团有限责任公司1000KVA专变,士庄东台区变压器,源涞土材二厂,东龙泉东井【纯农排变】,东赤土北井【纯农排变】,东龙泉2号井,东龙泉北台区","poweroffReason":"【停电原因】由于弓子线打火需停电进行紧急消缺导致１１０ＫＶ石亭变电站１０ＫＶ西龙泉５６６线路全线停电 【变更送电】无 【发布渠道】通过９５５９８发布","powerTime":"2019-09-09 00:34:47","powerComm":"已送电","subsNo":"","lineNo":"","tgNo":"","tgName":null,"infoStatus":"1","orgName":"国网涞水县供电公司","typeName":null,"infoStatusName":null,"dateDay":null,"orgNos":null,"nowTime":null,"countyName":null,"streetName":null,"villageName":null,"roadName":null,"communityName":null,"tranName":null,"sdLineName":null,"cityCode":"1340614","cityName":"国网涞水县供电公司","provinceCode":null,"stopTime":"2019-09-09 01:30:00","powerType":"全部","powerOffArea":"【全线路停电】停东龙泉北井【纯农排变】,北龙泉东台区,大赤土5、6队,沿庄南台区【冬季供暖设施】,大赤土东台区,东龙泉东台区,大赤土小学台区变压器,士庄砖厂,东赤土村内,大赤土西3台区,沿庄砖厂,沿庄西台区,沿庄南井【纯农排变】,0633976589-河北立宇超然房地产开发有限公司-专变-147935118-涞水县立宇超然房地产630KVA专变,大赤土南井1号【纯农排变】,沿庄东南井3【纯农排变】 ,石亭保野路西2台区变压器,中国电子科技集团公司电子科学研究院315KVA专变,东龙泉南2台区,大赤土7、8队井【纯农排变】,士庄东井,东龙泉6号井【纯农排变】,大赤土东2台区,0674015397-北京建工集团有限责任公司-专变-215337230-北京建工集团有限责任公司800KVA专变,配变,大赤土官井台区【纯农排变】,东龙泉7号井【纯农排变】,北龙泉南井【纯农排变】,高庄村内,渐村村北二台区变压器,士庄北井【纯农排变】,旭垚石粉加工,士庄西井【纯农排变】,大赤土北井【纯农排变】,东营房南2台区,大赤土自来水,东营房牌楼井【纯农排变】,东营房村东【纯农排变】,东龙泉北2台区,东营房北台区,渐村村东二台区变压器,东营房北1台区,东龙泉南台区,东营房北2台区,大赤土村北,士庄大棚菜【纯农排变】,涞水新城收费站-专变-141355552-400KVA,北龙泉村内,0596087821-刘志俊-专变-126177416-刘志俊50KVA专变,大赤土西2台区,东营房南台区,0672297887-河北京创投资有限公司-专变-212389580-河北京创投资公司630KVA专变,水泉井,东龙泉1井,东龙泉自来水,大赤土戏楼台区,东营房北井【纯农排变】,涞水县旭??石灰粉加工有限公司250KVA专变,东赤土东北井【纯农排变】,士庄北台区,大赤土北2台区,东龙泉村北机井【纯农排变】,东龙泉东北台区变压器,士庄西台区,东营房南1台区,北龙泉北台区,东营房村内,大赤土村内,土庄南台区,大赤土东北井,东营房大白桥【纯农排变】,东龙泉4号井【纯农排变】,0674011496-北京建工集团有限责任公司-专变-215339310-北京建工集团有限责任公司1000KVA专变,士庄东台区变压器,源涞土材二厂,东龙泉东井【纯农排变】,东赤土北井【纯农排变】,东龙泉2号井,东龙泉北台区","powerOffReason":"【停电原因】由于弓子线打火需停电进行紧急消缺导致１１０ＫＶ石亭变电站１０ＫＶ西龙泉５６６线路全线停电 【变更送电】无 【发布渠道】通过９５５９８发布","powerOffId":"2019090813000277"},{"poweroffId":2019090813000265,"sgpoweroffId":null,"subsName":"","lineName":"10kV韩村站537线路","pubTranName":"C175柱上变压器,","scope":"【影响街道/乡镇】韩村乡 【高危重要客户】无 【影响客户】韩村","startTime":"2019-09-08 20:00:00","stopDate":"2019-09-08 21:30:00","orgNo":"13406","typeCode":"电网故障停限电","poweroffArea":"【单台区停电】停C175柱上变压器","poweroffReason":"【停电原因】由于低压刀闸烧导致１０ＫＶ韩村变电站５３７线路Ｃ１７５公变台区停电【变更送电】因抢修进度加快，原定２３:００送电现计划２１:３０送电【发布渠道】通过９５５９８发布","powerTime":"2019-09-08 20:57:22","powerComm":"已送电","subsNo":"","lineNo":"","tgNo":"","tgName":null,"infoStatus":"1","orgName":"保定供电公司","typeName":null,"infoStatusName":null,"dateDay":null,"orgNos":null,"nowTime":null,"countyName":null,"streetName":null,"villageName":null,"roadName":null,"communityName":null,"tranName":null,"sdLineName":null,"cityCode":"13406","cityName":"保定供电公司","provinceCode":null,"stopTime":"2019-09-08 21:30:00","powerType":"全部","powerOffArea":"【单台区停电】停C175柱上变压器","powerOffReason":"【停电原因】由于低压刀闸烧导致１０ＫＶ韩村变电站５３７线路Ｃ１７５公变台区停电【变更送电】因抢修进度加快，原定２３:００送电现计划２１:３０送电【发布渠道】通过９５５９８发布","powerOffId":"2019090813000265"},{"poweroffId":2019090813000249,"sgpoweroffId":null,"subsName":"","lineName":"北山南线518","pubTranName":"章村3#,","scope":"【影响街道/乡镇】易州镇【高危重要客户】无【影响客户】章村","startTime":"2019-09-09 06:00:00","stopDate":"2019-09-09 10:00:00","orgNo":"1340625","typeCode":"其他临时停电","poweroffArea":"【单台区停电】停章村3#","poweroffReason":"【停电原因】由于清理树障导致１１０ＫＶ易县变电站北山南线５１８线路章村３＃公变台区停电【变更送电】因工作进度加快原因，送电时间由１２：００变更为１０：００【发布渠道】通过９５５９８发布","powerTime":"2019-09-09 09:36:19","powerComm":"已送电","subsNo":"","lineNo":"","tgNo":"","tgName":null,"infoStatus":"1","orgName":"国网易县供电公司","typeName":null,"infoStatusName":null,"dateDay":null,"orgNos":null,"nowTime":null,"countyName":null,"streetName":null,"villageName":null,"roadName":null,"communityName":null,"tranName":null,"sdLineName":null,"cityCode":"1340625","cityName":"国网易县供电公司","provinceCode":null,"stopTime":"2019-09-09 10:00:00","powerType":"全部","powerOffArea":"【单台区停电】停章村3#","powerOffReason":"【停电原因】由于清理树障导致１１０ＫＶ易县变电站北山南线５１８线路章村３＃公变台区停电【变更送电】因工作进度加快原因，送电时间由１２：００变更为１０：００【发布渠道】通过９５５９８发布","powerOffId":"2019090813000249"},{"poweroffId":2019090813000240,"sgpoweroffId":null,"subsName":"","lineName":"10kV513冯村线","pubTranName":"10KV513南白沙线小苑08038台区变压器,10KV513冯村线小苑18081台区,10KV513冯村线小苑18082台区,10kV513冯村线冯村08001台区变压器,10kV513南白沙线小苑18001台区变压器,","scope":"【影响街道/乡镇】博野镇【高危重要客户】无【影响客户】小苑","startTime":"2019-09-09 06:00:00","stopDate":"2019-09-09 12:00:00","orgNo":"1340608","typeCode":"其他临时停电","poweroffArea":"【分支停电】停10kV513南白沙线小苑18001台区变压器,10KV513南白沙线小苑08038台区变压器,10KV513冯村线小苑18081台区,10KV513冯村线小苑18082台区,10kV513冯村线冯村08001台区变压器","poweroffReason":"【停电原因】由于刀闸发热，需紧急消缺导致１１０ＫＶ博野变电站冯村５１３线路５３号杆０１号开关以下线路停电【变更送电】无【发布渠道】通过９５５９８发布","powerTime":"2019-09-09 11:53:00","powerComm":"已送电","subsNo":"","lineNo":"","tgNo":"","tgName":null,"infoStatus":"1","orgName":"国网博野县供电公司","typeName":null,"infoStatusName":null,"dateDay":null,"orgNos":null,"nowTime":null,"countyName":null,"streetName":null,"villageName":null,"roadName":null,"communityName":null,"tranName":null,"sdLineName":null,"cityCode":"1340608","cityName":"国网博野县供电公司","provinceCode":null,"stopTime":"2019-09-09 12:00:00","powerType":"全部","powerOffArea":"【分支停电】停10kV513南白沙线小苑18001台区变压器,10KV513南白沙线小苑08038台区变压器,10KV513冯村线小苑18081台区,10KV513冯村线小苑18082台区,10kV513冯村线冯村08001台区变压器","powerOffReason":"【停电原因】由于刀闸发热，需紧急消缺导致１１０ＫＶ博野变电站冯村５１３线路５３号杆０１号开关以下线路停电【变更送电】无【发布渠道】通过９５５９８发布","powerOffId":"2019090813000240"},{"poweroffId":2019090813000217,"sgpoweroffId":null,"subsName":"","lineName":"10kV上车亭526","pubTranName":"西租村西北,西租村南台区,安家洼村配变,东租村东井变压器【纯农排变】,北西租022-1,西租村南1号井【纯农排变】,东租机井1【纯农排变】,安家洼北台区,东租大棚,东租小学,北西租021-1|0560,东租村内台区变压器,西租村内变压器,","scope":"【影响街道/乡镇】涞水镇、东文山乡 【高危重要客户】无 【影响客户】西租村西、北西租村、安家洼村、东租村砖厂","startTime":"2019-09-08 17:57:22","stopDate":"2019-09-08 20:00:00","orgNo":"1340614","typeCode":"电网故障停限电","poweroffArea":"【全线路停电】停安家洼村配变,中国人民解放军93567部队630KVA专变,93577部队,东租村东井变压器【纯农排变】,66382部队（教导队）变压器200,闫广军,北西租022-1,西租村内变压器,保定众邦塑料薄膜加工有限公司新增变压器,西租村西北,西租村南台区,西租村南1号井【纯农排变】,东租机井1【纯农排变】,安家洼北台区,东租大棚,东租小学,北西租021-1|0560,西租村西变压器,东租村内台区变压器,93577部队1,配变","poweroffReason":"【停电原因】由于Ａ相接地导致１１０ＫＶ涞水变电站１０ＫＶ上车亭５２６线路全线停电 【变更送电】因抢修进度加快原因，送电时间由２２：００变更为２０：００ 【发布渠道】通过９５５９８发布","powerTime":"2019-09-08 19:16:59","powerComm":"已送电","subsNo":"","lineNo":"","tgNo":"","tgName":null,"infoStatus":"1","orgName":"国网涞水县供电公司","typeName":null,"infoStatusName":null,"dateDay":null,"orgNos":null,"nowTime":null,"countyName":null,"streetName":null,"villageName":null,"roadName":null,"communityName":null,"tranName":null,"sdLineName":null,"cityCode":"1340614","cityName":"国网涞水县供电公司","provinceCode":null,"stopTime":"2019-09-08 20:00:00","powerType":"全部","powerOffArea":"【全线路停电】停安家洼村配变,中国人民解放军93567部队630KVA专变,93577部队,东租村东井变压器【纯农排变】,66382部队（教导队）变压器200,闫广军,北西租022-1,西租村内变压器,保定众邦塑料薄膜加工有限公司新增变压器,西租村西北,西租村南台区,西租村南1号井【纯农排变】,东租机井1【纯农排变】,安家洼北台区,东租大棚,东租小学,北西租021-1|0560,西租村西变压器,东租村内台区变压器,93577部队1,配变","powerOffReason":"【停电原因】由于Ａ相接地导致１１０ＫＶ涞水变电站１０ＫＶ上车亭５２６线路全线停电 【变更送电】因抢修进度加快原因，送电时间由２２：００变更为２０：００ 【发布渠道】通过９５５９８发布","powerOffId":"2019090813000217"}],"pageModel":{"pageNow":572,"totalCount":10973,"totalPage":1098,"tableRows":0,"pageCount":10,"beginCount":5710},"isExperi":"1"}