{"message":"","today":"2020-06-15","seleList":[{"poweroffId":2019090813000098,"sgpoweroffId":null,"subsName":"","lineName":"黄村564","pubTranName":"西黄村2号,西黄村3号,道口二介地,南上坎1号,西黄村4号,西黄村村南台区变压器,西黄村村西台区变压器,西黄村机井新增台区变压器【纯农排变】,西黄村西南台区变压器,西黄村新增台区变压器,小马坊4号,小马坊村北台区变压器,小马坊新增2号配变,西黄村村北台区变压器,南上坎2号,南上坎村东北台区变压器,南上坎村南台区变压器,南上坎村南新增,南上坎村内新增变压器,南上坎台区变压器,西黄村1号,","scope":"【影响街道/乡镇】要庄乡 【高危重要客户】无 【影响客户】西黄村、南上坎","startTime":"2019-09-10 05:00:00","stopDate":"2019-09-11 04:00:00","orgNo":"1340617","typeCode":"临时停电","poweroffArea":"【全线路停电】停道口二介地,南上坎1号,南上坎2号,南上坎村东北台区变压器,南上坎村南台区变压器,南上坎村南新增,南上坎村内新增变压器,南上坎台区变压器,西黄村1号,西黄村2号,西黄村3号,西黄村4号,西黄村村北台区变压器,西黄村村南台区变压器,西黄村村西台区变压器,西黄村机井新增台区变压器【纯农排变】,西黄村西南台区变压器,西黄村新增台区变压器,小马坊4号,小马坊村北台区变压器,小马坊新增2号配变","poweroffReason":"【停电原因】由于变电站检修导致２２０ＫＶ电谷变电站１０ＫＶ黄村５６４线路全线停电 【变更送电】因工作量大原因，送电时间由２１：３０变更为次日０４：００ 【发布渠道】通过９５５９８发布","powerTime":"2019-09-11 03:50:33","powerComm":"已送电","subsNo":"","lineNo":"","tgNo":"","tgName":null,"infoStatus":"1","orgName":"国网满城县供电公司","typeName":null,"infoStatusName":null,"dateDay":null,"orgNos":null,"nowTime":null,"countyName":null,"streetName":null,"villageName":null,"roadName":null,"communityName":null,"tranName":null,"sdLineName":null,"cityCode":"1340617","cityName":"国网满城县供电公司","provinceCode":null,"stopTime":"2019-09-11 04:00:00","powerType":"全部","powerOffArea":"【全线路停电】停道口二介地,南上坎1号,南上坎2号,南上坎村东北台区变压器,南上坎村南台区变压器,南上坎村南新增,南上坎村内新增变压器,南上坎台区变压器,西黄村1号,西黄村2号,西黄村3号,西黄村4号,西黄村村北台区变压器,西黄村村南台区变压器,西黄村村西台区变压器,西黄村机井新增台区变压器【纯农排变】,西黄村西南台区变压器,西黄村新增台区变压器,小马坊4号,小马坊村北台区变压器,小马坊新增2号配变","powerOffReason":"【停电原因】由于变电站检修导致２２０ＫＶ电谷变电站１０ＫＶ黄村５６４线路全线停电 【变更送电】因工作量大原因，送电时间由２１：３０变更为次日０４：００ 【发布渠道】通过９５５９８发布","powerOffId":"2019090813000098"},{"poweroffId":2019090813000094,"sgpoweroffId":null,"subsName":"","lineName":"小马坊563","pubTranName":"小马坊1号,小马坊3号,小马坊村南台区变压器【纯农排变】,小马坊村内变压器,小马坊村西变压器,小马坊村西新增变压器,小马坊新增变压器,要庄乡政府,要庄中学,小马坊村南2号,","scope":"【影响街道/乡镇】要庄乡 【高危重要客户】无 【影响客户】小马坊、要庄乡政府","startTime":"2019-09-10 05:00:00","stopDate":"2019-09-11 04:00:00","orgNo":"1340617","typeCode":"临时停电","poweroffArea":"【全线路停电】停小马坊1号,小马坊3号,小马坊村南2号,小马坊村南台区变压器【纯农排变】,小马坊村内变压器,小马坊村西变压器,小马坊村西新增变压器,小马坊新增变压器,要庄乡政府,要庄中学","poweroffReason":"【停电原因】由于变电站检修导致２２０ＫＶ电谷变电站１０ＫＶ小马坊５６３线路全线停电 【变更送电】因工作量大原因，送电时间由２１：３０变更为次日０４：００ 【发布渠道】通过９５５９８发布","powerTime":"2019-09-11 03:50:53","powerComm":"已送电","subsNo":"","lineNo":"","tgNo":"","tgName":null,"infoStatus":"1","orgName":"国网满城县供电公司","typeName":null,"infoStatusName":null,"dateDay":null,"orgNos":null,"nowTime":null,"countyName":null,"streetName":null,"villageName":null,"roadName":null,"communityName":null,"tranName":null,"sdLineName":null,"cityCode":"1340617","cityName":"国网满城县供电公司","provinceCode":null,"stopTime":"2019-09-11 04:00:00","powerType":"全部","powerOffArea":"【全线路停电】停小马坊1号,小马坊3号,小马坊村南2号,小马坊村南台区变压器【纯农排变】,小马坊村内变压器,小马坊村西变压器,小马坊村西新增变压器,小马坊新增变压器,要庄乡政府,要庄中学","powerOffReason":"【停电原因】由于变电站检修导致２２０ＫＶ电谷变电站１０ＫＶ小马坊５６３线路全线停电 【变更送电】因工作量大原因，送电时间由２１：３０变更为次日０４：００ 【发布渠道】通过９５５９８发布","powerOffId":"2019090813000094"},{"poweroffId":2019090813000091,"sgpoweroffId":null,"subsName":"","lineName":"大留线562","pubTranName":"保定尼尔变压器有限公司1号计量点,后大留公路南2号变压器,河北邦泰氨纶科技有限公司1,前大留一号台区变压器,河北邦泰氨纶科技有限公司,河北邦泰氨纶科技有限公司2,河北邦泰氨纶科技有限公司3,康泰制香厂（原纸厂）,保定古堡香厂,西贤台道南,市政维护处(2号）,0468618625-保定容大体育文化发展有限公司-专变-127459827-保定市清华智宜科技有限公司630,郭宏泰,市正维护管理,东黄村鸡场,腾泰电力科技有限公司,保定寰怡网业制造有限公司,保定利达电力结构有限公司,0665638017-保定市鑫路通路桥工程有限公司-专变-202593331-保定市鑫路通路桥工程有限公司,保定德利盛电器有限公司,后大留公路南台区变压器,车床厂新增,0549327617-保定利达电力结构有限公司-专变-48250676-保定利达电力结构有限公司,保定市润恒星源电气设备有限公司,后大留公路南新增,0468618625-保定容大体育文化发展有限公司-专变-46542541-清华锂电1号,0648257460-河北省送变电公司-专变-172478517-河北省送变电公司,东黄村公路南（农网）,","scope":"【影响街道/乡镇】要庄乡 【高危重要客户】无 【影响客户】前大留、后大留、东黄村","startTime":"2019-09-10 05:00:00","stopDate":"2019-09-11 04:00:00","orgNo":"1340617","typeCode":"临时停电","poweroffArea":"【全线路停电】停后大留公路南2号变压器,河北邦泰氨纶科技有限公司1,前大留一号台区变压器,河北邦泰氨纶科技有限公司2,河北邦泰氨纶科技有限公司3,康泰制香厂（原纸厂）,保定古堡香厂,西贤台道南,市政维护处(2号）,东黄村鸡场,腾泰电力科技有限公司,保定寰怡网业制造有限公司,保定利达电力结构有限公司,0468618625-保定容大体育文化发展有限公司-专变-127459827-保定市清华智宜科技有限公司630,保定尼尔变压器有限公司1号计量点,郭宏泰,东黄村公路南（农网）,0665638017-保定市鑫路通路桥工程有限公司-专变-202593331-保定市鑫路通路桥工程有限公司,0648257460-河北省送变电公司-专变-172478517-河北省送变电公司,市正维护管理,保定德利盛电器有限公司,车床厂新增,0549327617-保定利达电力结构有限公司-专变-48250676-保定利达电力结构有限公司,后大留公路南新增,0468618625-保定容大体育文化发展有限公司-专变-46542541-清华锂电1号,河北邦泰氨纶科技有限公司,后大留公路南台区变压器,保定市润恒星源电气设备有限公司","poweroffReason":"【停电原因】由于变电站检修导致２２０ＫＶ电谷变电站大留线５６２线路全线停电 【变更送电】因工作量大原因，送电时间由２１：３０变更为次日０４：００ 【发布渠道】通过９５５９８发布","powerTime":"2019-09-11 03:51:13","powerComm":"已送电","subsNo":"","lineNo":"","tgNo":"","tgName":null,"infoStatus":"1","orgName":"国网满城县供电公司","typeName":null,"infoStatusName":null,"dateDay":null,"orgNos":null,"nowTime":null,"countyName":null,"streetName":null,"villageName":null,"roadName":null,"communityName":null,"tranName":null,"sdLineName":null,"cityCode":"1340617","cityName":"国网满城县供电公司","provinceCode":null,"stopTime":"2019-09-11 04:00:00","powerType":"全部","powerOffArea":"【全线路停电】停后大留公路南2号变压器,河北邦泰氨纶科技有限公司1,前大留一号台区变压器,河北邦泰氨纶科技有限公司2,河北邦泰氨纶科技有限公司3,康泰制香厂（原纸厂）,保定古堡香厂,西贤台道南,市政维护处(2号）,东黄村鸡场,腾泰电力科技有限公司,保定寰怡网业制造有限公司,保定利达电力结构有限公司,0468618625-保定容大体育文化发展有限公司-专变-127459827-保定市清华智宜科技有限公司630,保定尼尔变压器有限公司1号计量点,郭宏泰,东黄村公路南（农网）,0665638017-保定市鑫路通路桥工程有限公司-专变-202593331-保定市鑫路通路桥工程有限公司,0648257460-河北省送变电公司-专变-172478517-河北省送变电公司,市正维护管理,保定德利盛电器有限公司,车床厂新增,0549327617-保定利达电力结构有限公司-专变-48250676-保定利达电力结构有限公司,后大留公路南新增,0468618625-保定容大体育文化发展有限公司-专变-46542541-清华锂电1号,河北邦泰氨纶科技有限公司,后大留公路南台区变压器,保定市润恒星源电气设备有限公司","powerOffReason":"【停电原因】由于变电站检修导致２２０ＫＶ电谷变电站大留线５６２线路全线停电 【变更送电】因工作量大原因，送电时间由２１：３０变更为次日０４：００ 【发布渠道】通过９５５９８发布","powerOffId":"2019090813000091"},{"poweroffId":2019090813000087,"sgpoweroffId":null,"subsName":"","lineName":"岗头南522","pubTranName":"岗头13号,大册村7#,大册村8#,大册村9#,大册村25号,大册村22号,大册村16#,","scope":"【影响街道/乡镇】大册营镇 【高危重要客户】无 【影响客户】大册村、岗头村","startTime":"2019-09-10 05:00:00","stopDate":"2019-09-11 01:00:00","orgNo":"1340617","typeCode":"临时停电","poweroffArea":"【全线路停电】停大册村25号,大册村9#,大册村22号,大册村7#,大册村8#,岗头13号,大册村16#","poweroffReason":"【停电原因】由于变电站检修导致１１０ＫＶ夜借变电站岗头南５２２线路全线停电 【变更送电】因工作量大原因，送电时间由２１：３０变更为次日０１：００ 【发布渠道】通过９５５９８发布","powerTime":"2019-09-11 00:55:09","powerComm":"已送电","subsNo":"","lineNo":"","tgNo":"","tgName":null,"infoStatus":"1","orgName":"国网满城县供电公司","typeName":null,"infoStatusName":null,"dateDay":null,"orgNos":null,"nowTime":null,"countyName":null,"streetName":null,"villageName":null,"roadName":null,"communityName":null,"tranName":null,"sdLineName":null,"cityCode":"1340617","cityName":"国网满城县供电公司","provinceCode":null,"stopTime":"2019-09-11 01:00:00","powerType":"全部","powerOffArea":"【全线路停电】停大册村25号,大册村9#,大册村22号,大册村7#,大册村8#,岗头13号,大册村16#","powerOffReason":"【停电原因】由于变电站检修导致１１０ＫＶ夜借变电站岗头南５２２线路全线停电 【变更送电】因工作量大原因，送电时间由２１：３０变更为次日０１：００ 【发布渠道】通过９５５９８发布","powerOffId":"2019090813000087"},{"poweroffId":2019090813000079,"sgpoweroffId":null,"subsName":"","lineName":"10kV苏庄539","pubTranName":"苏庄4号,国利水泥厂,亨盛纸厂,苏庄村2号,0387462239-宝生纸箱厂-专变-45292320-宝生纸箱厂,苏庄五号【纯农排变】,大册营新增（统管）,满城县瑞丰纸业有限公司,苏庄8号,华龙纸厂,下紫口村南,永南庄5号,苏庄6号,苏庄7号【纯农排变】,大册营镇中学,满城县惠莱纸制品厂,保定市铭畅卫生用品有限公司,吉义清,保定市满城区浩泉纸制品厂,满城县美洁纸制品厂,苏庄三号【纯农排变】,永南三号,0387461786-新友石厂四号-专变-45292109-新友石厂4号,永南庄4号【纯农排变】,保定市满城顺心造纸有限公司,大册营双语幼儿园,冀兴纸厂,永南庄1号,保定雨森卫生用品有限公司,保定市利和高速公路经营有限公司,苏庄村内1号,","scope":"【影响街道/乡镇】大册营镇 【高危重要客户】无 【影响客户】大册营村东","startTime":"2019-09-10 05:00:00","stopDate":"2019-09-11 01:00:00","orgNo":"1340617","typeCode":"临时停电","poweroffArea":"【全线路停电】停华龙纸厂,永南庄1号,保定雨森卫生用品有限公司,保定市利和高速公路经营有限公司,苏庄村内1号,苏庄4号,国利水泥厂,亨盛纸厂,苏庄村2号,苏庄五号【纯农排变】,大册营新增（统管）,满城县瑞丰纸业有限公司,苏庄8号,下紫口村南,永南庄5号,苏庄6号,苏庄7号【纯农排变】,大册营镇中学,满城县惠莱纸制品厂,保定市铭畅卫生用品有限公司,吉义清,满城县美洁纸制品厂,0387462239-宝生纸箱厂-专变-45292320-宝生纸箱厂,保定市满城区浩泉纸制品厂,苏庄三号【纯农排变】,永南三号,0387461786-新友石厂四号-专变-45292109-新友石厂4号,永南庄4号【纯农排变】,保定市满城顺心造纸有限公司,大册营双语幼儿园,冀兴纸厂","poweroffReason":"【停电原因】由于变电站检修导致１１０ＫＶ夜借变电站１０ＫＶ苏庄５３９线路全线停电 【变更送电】因工作量大原因，送电时间由２１：３０变更为次日０１：００ 【发布渠道】通过９５５９８发布","powerTime":"2019-09-11 00:55:40","powerComm":"已送电","subsNo":"","lineNo":"","tgNo":"","tgName":null,"infoStatus":"1","orgName":"国网满城县供电公司","typeName":null,"infoStatusName":null,"dateDay":null,"orgNos":null,"nowTime":null,"countyName":null,"streetName":null,"villageName":null,"roadName":null,"communityName":null,"tranName":null,"sdLineName":null,"cityCode":"1340617","cityName":"国网满城县供电公司","provinceCode":null,"stopTime":"2019-09-11 01:00:00","powerType":"全部","powerOffArea":"【全线路停电】停华龙纸厂,永南庄1号,保定雨森卫生用品有限公司,保定市利和高速公路经营有限公司,苏庄村内1号,苏庄4号,国利水泥厂,亨盛纸厂,苏庄村2号,苏庄五号【纯农排变】,大册营新增（统管）,满城县瑞丰纸业有限公司,苏庄8号,下紫口村南,永南庄5号,苏庄6号,苏庄7号【纯农排变】,大册营镇中学,满城县惠莱纸制品厂,保定市铭畅卫生用品有限公司,吉义清,满城县美洁纸制品厂,0387462239-宝生纸箱厂-专变-45292320-宝生纸箱厂,保定市满城区浩泉纸制品厂,苏庄三号【纯农排变】,永南三号,0387461786-新友石厂四号-专变-45292109-新友石厂4号,永南庄4号【纯农排变】,保定市满城顺心造纸有限公司,大册营双语幼儿园,冀兴纸厂","powerOffReason":"【停电原因】由于变电站检修导致１１０ＫＶ夜借变电站１０ＫＶ苏庄５３９线路全线停电 【变更送电】因工作量大原因，送电时间由２１：３０变更为次日０１：００ 【发布渠道】通过９５５９８发布","powerOffId":"2019090813000079"},{"poweroffId":2019090813000077,"sgpoweroffId":null,"subsName":"","lineName":"西村538","pubTranName":"下紫口6号,大册营新增（统管）,西村山根,西村新增,西村8号,下紫口12号,下紫口9号,西村二号,苏庄8号,下紫口11号,下紫口2号新增,西村西山根新增2号,苏庄7号【纯农排变】,苏庄6号,下紫口14号,西村新增7号,下紫口村一号,下紫口8号,下紫口10号,下紫口三号,下紫口13号,","scope":"【影响街道/乡镇】大册营镇 【高危重要客户】无 【影响客户】西村、下子（紫）口、永南庄、苏庄","startTime":"2019-09-10 05:00:00","stopDate":"2019-09-11 01:00:00","orgNo":"1340617","typeCode":"临时停电","poweroffArea":"【全线路停电】停大册营新增（统管）,西村新增,下紫口16号【纯农排变】,西村山根,西村西山根新增2号,苏庄8号,苏庄村2号,苏庄五号【纯农排变】,永南庄1号,永南庄5号,苏庄村内1号,苏庄4号,苏庄7号【纯农排变】,西村8号,西村六号,下紫口10号,下紫口12号,下紫口13号,下紫口15号,下紫口8号,下紫口三号,西村3号,西村二号,下紫口17号【纯农排变】,下紫口2号新增,下紫口5号新增,下紫口6号,苏庄三号【纯农排变】,下紫口9号,永南三号,永南庄4号【纯农排变】,西村新增7号,下紫口11号,下紫口村一号,苏庄6号,下紫口14号","poweroffReason":"【停电原因】由于变电站检修导致１１０ＫＶ夜借变电站西村５３８线路全线停电 【变更送电】因工作量大原因，送电时间由２１：３０变更为次日０１：００ 【发布渠道】通过９５５９８发布","powerTime":"2019-09-11 00:55:24","powerComm":"已送电","subsNo":"","lineNo":"","tgNo":"","tgName":null,"infoStatus":"1","orgName":"国网满城县供电公司","typeName":null,"infoStatusName":null,"dateDay":null,"orgNos":null,"nowTime":null,"countyName":null,"streetName":null,"villageName":null,"roadName":null,"communityName":null,"tranName":null,"sdLineName":null,"cityCode":"1340617","cityName":"国网满城县供电公司","provinceCode":null,"stopTime":"2019-09-11 01:00:00","powerType":"全部","powerOffArea":"【全线路停电】停大册营新增（统管）,西村新增,下紫口16号【纯农排变】,西村山根,西村西山根新增2号,苏庄8号,苏庄村2号,苏庄五号【纯农排变】,永南庄1号,永南庄5号,苏庄村内1号,苏庄4号,苏庄7号【纯农排变】,西村8号,西村六号,下紫口10号,下紫口12号,下紫口13号,下紫口15号,下紫口8号,下紫口三号,西村3号,西村二号,下紫口17号【纯农排变】,下紫口2号新增,下紫口5号新增,下紫口6号,苏庄三号【纯农排变】,下紫口9号,永南三号,永南庄4号【纯农排变】,西村新增7号,下紫口11号,下紫口村一号,苏庄6号,下紫口14号","powerOffReason":"【停电原因】由于变电站检修导致１１０ＫＶ夜借变电站西村５３８线路全线停电 【变更送电】因工作量大原因，送电时间由２１：３０变更为次日０１：００ 【发布渠道】通过９５５９８发布","powerOffId":"2019090813000077"},{"poweroffId":2019090813000073,"sgpoweroffId":null,"subsName":"","lineName":"紫口Ⅱ线541","pubTranName":"大册营村1号,大册营2号,大册营14号,","scope":"【影响街道/乡镇】大册营镇 【高危重要客户】无 【影响客户】大册营村","startTime":"2019-09-10 05:00:00","stopDate":"2019-09-11 01:00:00","orgNo":"1340617","typeCode":"临时停电","poweroffArea":"【全线路停电】停姬发新装1000,0387462213-河北姬发造纸有限公司-专变-128237341-姬发纸厂1000KVA配变,0387462213-河北姬发造纸有限公司-专变-45292312-姬发纸厂二号,河北姬发造纸有限公司1250,复兴砖厂,保定市长山纸制品有限公司1600,姬发新装800,福利钢才厂,河北姬发造纸有限公司1600,大册营5号,保定市长山纸制品有限公司2000,大册营10号,大册营14号,满城县易德商贸有限公司临时变压器,夜借三号,大册营村1号,满城县宏达彩印有限公司,满城县易德商贸有限公司,大册营2号","poweroffReason":"【停电原因】由于变电站检修导致１１０ＫＶ夜借变电站紫口ＩＩ线５４１线路全线停电 【变更送电】因工作量大原因，送电时间由２１：３０变更为次日０１：００ 【发布渠道】通过９５５９８发布","powerTime":"2019-09-11 00:55:55","powerComm":"已送电","subsNo":"","lineNo":"","tgNo":"","tgName":null,"infoStatus":"1","orgName":"国网满城县供电公司","typeName":null,"infoStatusName":null,"dateDay":null,"orgNos":null,"nowTime":null,"countyName":null,"streetName":null,"villageName":null,"roadName":null,"communityName":null,"tranName":null,"sdLineName":null,"cityCode":"1340617","cityName":"国网满城县供电公司","provinceCode":null,"stopTime":"2019-09-11 01:00:00","powerType":"全部","powerOffArea":"【全线路停电】停姬发新装1000,0387462213-河北姬发造纸有限公司-专变-128237341-姬发纸厂1000KVA配变,0387462213-河北姬发造纸有限公司-专变-45292312-姬发纸厂二号,河北姬发造纸有限公司1250,复兴砖厂,保定市长山纸制品有限公司1600,姬发新装800,福利钢才厂,河北姬发造纸有限公司1600,大册营5号,保定市长山纸制品有限公司2000,大册营10号,大册营14号,满城县易德商贸有限公司临时变压器,夜借三号,大册营村1号,满城县宏达彩印有限公司,满城县易德商贸有限公司,大册营2号","powerOffReason":"【停电原因】由于变电站检修导致１１０ＫＶ夜借变电站紫口ＩＩ线５４１线路全线停电 【变更送电】因工作量大原因，送电时间由２１：３０变更为次日０１：００ 【发布渠道】通过９５５９８发布","powerOffId":"2019090813000073"},{"poweroffId":2019090813000067,"sgpoweroffId":null,"subsName":"","lineName":"紫口Ⅰ线540","pubTranName":"上紫口3号,上紫口2#,上紫口6#（统管）,上紫口15号,上紫口14#,上紫口13号,上紫口5#（统管）,上紫口16号,上紫口12号,上紫口17号,上紫口新增11号,上紫口10#,上紫口4#（统管）,","scope":"【影响街道/乡镇】大册营镇 【高危重要客户】无 【影响客户】大册营、上子（紫）口","startTime":"2019-09-10 05:00:00","stopDate":"2019-09-11 01:00:00","orgNo":"1340617","typeCode":"临时停电","poweroffArea":"【全线路停电】停上紫口7-8队,上紫口12号,保定市振巍纸业有限公司1,上紫口4#（统管）,保定市尚京纸制品加工有限公司,上紫口3-4队,大册营光华大理石,上紫口村西2号,保定市长山纸制品有限公司,大册营3号,大册营永红纸厂,上紫口17号,满城县轩雅纸制品厂,上子口八号,龙祥彩印厂,保定市振巍纸业有限公司2,满城县恒顺采石场,上紫口18号,上紫口6#（统管）,上紫口8#【纯农排变】,上紫口3号,0387461698-满城国美纸制品有限公司-专变-45292285-姬发纸厂,香丰果脯厂,保定爱森卫生纸制品有限公司,保定市满城国利造纸有限公司计量,0387461991-满城县悦诚纸制品厂-专变-45292334-前进石厂,满城县胜达造纸厂,上紫口7#【纯农排变】,上子口七号,上紫口村西新增,满城县水蜜源食品制造有限公司,上紫口2#,保定雨森卫生用品有限公司（25000,上紫口9#【纯农排变】,上紫口15号,上紫口14#,大册营16号,上紫口村1#,上紫口13号,上紫口5#（统管）,上紫口16号,0387461500-满城县华旭纸制品厂-专变-174424192-华旭纸制品厂200KVA变压器,上紫口10#,0387461627-王生林养猪场-专变-45292079-王生林养猪场,恒顺采石场3号,上紫口新增11号,保定市满城区感恩纸制品厂,赫天新型建材,西村四号","poweroffReason":"【停电原因】由于变电站检修导致１１０ＫＶ夜借变电站紫口Ｉ线５４０线路全线停电 【变更送电】因工作量大原因，送电时间由２１：３０变更为次日０１：００ 【发布渠道】通过９５５９８发布","powerTime":"2019-09-11 00:56:12","powerComm":"已送电","subsNo":"","lineNo":"","tgNo":"","tgName":null,"infoStatus":"1","orgName":"国网满城县供电公司","typeName":null,"infoStatusName":null,"dateDay":null,"orgNos":null,"nowTime":null,"countyName":null,"streetName":null,"villageName":null,"roadName":null,"communityName":null,"tranName":null,"sdLineName":null,"cityCode":"1340617","cityName":"国网满城县供电公司","provinceCode":null,"stopTime":"2019-09-11 01:00:00","powerType":"全部","powerOffArea":"【全线路停电】停上紫口7-8队,上紫口12号,保定市振巍纸业有限公司1,上紫口4#（统管）,保定市尚京纸制品加工有限公司,上紫口3-4队,大册营光华大理石,上紫口村西2号,保定市长山纸制品有限公司,大册营3号,大册营永红纸厂,上紫口17号,满城县轩雅纸制品厂,上子口八号,龙祥彩印厂,保定市振巍纸业有限公司2,满城县恒顺采石场,上紫口18号,上紫口6#（统管）,上紫口8#【纯农排变】,上紫口3号,0387461698-满城国美纸制品有限公司-专变-45292285-姬发纸厂,香丰果脯厂,保定爱森卫生纸制品有限公司,保定市满城国利造纸有限公司计量,0387461991-满城县悦诚纸制品厂-专变-45292334-前进石厂,满城县胜达造纸厂,上紫口7#【纯农排变】,上子口七号,上紫口村西新增,满城县水蜜源食品制造有限公司,上紫口2#,保定雨森卫生用品有限公司（25000,上紫口9#【纯农排变】,上紫口15号,上紫口14#,大册营16号,上紫口村1#,上紫口13号,上紫口5#（统管）,上紫口16号,0387461500-满城县华旭纸制品厂-专变-174424192-华旭纸制品厂200KVA变压器,上紫口10#,0387461627-王生林养猪场-专变-45292079-王生林养猪场,恒顺采石场3号,上紫口新增11号,保定市满城区感恩纸制品厂,赫天新型建材,西村四号","powerOffReason":"【停电原因】由于变电站检修导致１１０ＫＶ夜借变电站紫口Ｉ线５４０线路全线停电 【变更送电】因工作量大原因，送电时间由２１：３０变更为次日０１：００ 【发布渠道】通过９５５９８发布","powerOffId":"2019090813000067"},{"poweroffId":2019090813000050,"sgpoweroffId":null,"subsName":"","lineName":"10KV高渠511","pubTranName":"上庄4680,上庄新增4台区,上庄新增3台区,上庄新增2台区,上庄新增5台区,上庄新增6台区,西下庄海开水变台柱上变压器【纯农排变】,汪辛庄1086,上庄新增1台区,西下庄村北新增1台区,","scope":"【影响街道/乡镇】高官庄镇 【高危重要客户】无 【影响客户】汪辛庄、西下庄、上庄","startTime":"2019-09-18 00:30:00","stopDate":"2019-09-18 05:30:00","orgNo":"1340626","typeCode":"计划停电","poweroffArea":"【分支停电】停上庄4680,上庄新增2台区,上庄新增6台区,汪辛庄1086,上庄新增1台区,涿州市德天昌顺铸造有限公司2,上庄1073,汪辛庄村南,西下庄1088,西下庄村北新增1台区,上庄新增4台区,上庄1071,西下庄村东南,上庄村北1070,西下庄1165【纯农排变】,上庄村1072,高官庄镇上庄村东,西下庄海开水变台柱上变压器【纯农排变】,上庄村东,上庄1197,西下庄1123,上庄1119,涿州市永生铸造厂,西下庄村北,上庄新增3台区,西下庄村西,西下庄1166【纯农排变】,上庄村西,西下庄1167【纯农排变】,上庄1153【纯农排变】,上庄村东南【纯农排变】,上庄新增5台区","poweroffReason":"【停电原因】由于新增配变工程导致３５ＫＶ高官庄变电站１０ＫＶ高渠５１１线路５４号杆以下线路停电 【变更送电】无 【发布渠道】涿州电视台（０９月０８日至０９月１７日２１：００播放２次）屏幕上方滚动","powerTime":"2019-09-18 04:46:01","powerComm":"恢复送电","subsNo":"","lineNo":"","tgNo":"","tgName":null,"infoStatus":"1","orgName":"国网涿州市供电公司","typeName":null,"infoStatusName":null,"dateDay":null,"orgNos":null,"nowTime":null,"countyName":null,"streetName":null,"villageName":null,"roadName":null,"communityName":null,"tranName":null,"sdLineName":null,"cityCode":"1340626","cityName":"国网涿州市供电公司","provinceCode":null,"stopTime":"2019-09-18 05:30:00","powerType":"全部","powerOffArea":"【分支停电】停上庄4680,上庄新增2台区,上庄新增6台区,汪辛庄1086,上庄新增1台区,涿州市德天昌顺铸造有限公司2,上庄1073,汪辛庄村南,西下庄1088,西下庄村北新增1台区,上庄新增4台区,上庄1071,西下庄村东南,上庄村北1070,西下庄1165【纯农排变】,上庄村1072,高官庄镇上庄村东,西下庄海开水变台柱上变压器【纯农排变】,上庄村东,上庄1197,西下庄1123,上庄1119,涿州市永生铸造厂,西下庄村北,上庄新增3台区,西下庄村西,西下庄1166【纯农排变】,上庄村西,西下庄1167【纯农排变】,上庄1153【纯农排变】,上庄村东南【纯农排变】,上庄新增5台区","powerOffReason":"【停电原因】由于新增配变工程导致３５ＫＶ高官庄变电站１０ＫＶ高渠５１１线路５４号杆以下线路停电 【变更送电】无 【发布渠道】涿州电视台（０９月０８日至０９月１７日２１：００播放２次）屏幕上方滚动","powerOffId":"2019090813000050"},{"poweroffId":2019090813000046,"sgpoweroffId":null,"subsName":"","lineName":"10kV开发区线544","pubTranName":"张段庄611台区,","scope":"【影响街道/乡镇】徐里营城区 【高危重要客户】无 【影响客户】张段庄村","startTime":"2019-09-18 06:00:00","stopDate":"2019-09-18 18:00:00","orgNo":"1340626","typeCode":"计划停电","poweroffArea":"【单台区停电】停张段庄611台区","poweroffReason":"【停电原因】由于立杆、架设导线导致１１０ＫＶ新业变电站１０ＫＶ开发区线５４４线路张段庄６１１公变台区停电 【变更送电】无 【发布渠道】涿州电视台（０９月０８日至０９月１７日２１：００播放２次）屏幕上方滚动","powerTime":"2019-09-18 17:35:59","powerComm":"恢复送电","subsNo":"","lineNo":"","tgNo":"","tgName":null,"infoStatus":"1","orgName":"国网涿州市供电公司","typeName":null,"infoStatusName":null,"dateDay":null,"orgNos":null,"nowTime":null,"countyName":null,"streetName":null,"villageName":null,"roadName":null,"communityName":null,"tranName":null,"sdLineName":null,"cityCode":"1340626","cityName":"国网涿州市供电公司","provinceCode":null,"stopTime":"2019-09-18 18:00:00","powerType":"全部","powerOffArea":"【单台区停电】停张段庄611台区","powerOffReason":"【停电原因】由于立杆、架设导线导致１１０ＫＶ新业变电站１０ＫＶ开发区线５４４线路张段庄６１１公变台区停电 【变更送电】无 【发布渠道】涿州电视台（０９月０８日至０９月１７日２１：００播放２次）屏幕上方滚动","powerOffId":"2019090813000046"}],"pageModel":{"pageNow":574,"totalCount":10973,"totalPage":1098,"tableRows":0,"pageCount":10,"beginCount":5730},"isExperi":"1"}