{"message":"","today":"2020-06-15","seleList":[{"poweroffId":2019090613000199,"sgpoweroffId":null,"subsName":"","lineName":"10kV韩村站514线路","pubTranName":"0548033733-保定市北市区城市蒂锦洗浴中心-1-箱式变-变压器,","scope":"【影响街道/乡镇】恒祥北大街瑞安路 【高危重要客户】无 【影响客户】城市蒂锦洗浴中心、市政公用建设集团有限公司、徐庄村西","startTime":"2019-09-19 06:00:00","stopDate":"2019-09-19 16:00:00","orgNo":"13406","typeCode":"计划停电","poweroffArea":"【分支停电】停0548033733-保定市北市区城市蒂锦洗浴中心-1-箱式变-变压器,0356314354-保定市市政公用建设集团有限公司-1-配电室-变压器-1","poweroffReason":"【停电原因】由于供电设备临时检修导致１０ＫＶ韩村变电站５１４线路徐庄路ＨＫ-０９环网柜３号间隔开关以下停电【变更送电】因进度加快，定１８:００送电计划１６:００送电【发布渠道】保定市保定有线电视台（９月１１日２０时１５分至２１时４５分之间）屏幕上滚动","powerTime":"2019-09-19 15:21:59","powerComm":"已送电","subsNo":"","lineNo":"","tgNo":"","tgName":null,"infoStatus":"1","orgName":"保定供电公司","typeName":null,"infoStatusName":null,"dateDay":null,"orgNos":null,"nowTime":null,"countyName":null,"streetName":null,"villageName":null,"roadName":null,"communityName":null,"tranName":null,"sdLineName":null,"cityCode":"13406","cityName":"保定供电公司","provinceCode":null,"stopTime":"2019-09-19 16:00:00","powerType":"全部","powerOffArea":"【分支停电】停0548033733-保定市北市区城市蒂锦洗浴中心-1-箱式变-变压器,0356314354-保定市市政公用建设集团有限公司-1-配电室-变压器-1","powerOffReason":"【停电原因】由于供电设备临时检修导致１０ＫＶ韩村变电站５１４线路徐庄路ＨＫ-０９环网柜３号间隔开关以下停电【变更送电】因进度加快，定１８:００送电计划１６:００送电【发布渠道】保定市保定有线电视台（９月１１日２０时１５分至２１时４５分之间）屏幕上滚动","powerOffId":"2019090613000199"},{"poweroffId":2019090613000198,"sgpoweroffId":null,"subsName":"","lineName":"10kV韩村站518线路","pubTranName":"10kVY0189箱式变电站Y0189配电变压器,10kVY0191箱式变电站Y0191配电变压器,10kVY0188箱式变电站Y0188配电变压器,10kVB1391配电室B1391配电变压器,10kVY0190箱式变电站Y0190配电变压器,10kVB1392配电室B1392配电变压器,10kVB1390配电室B1390配电变压器,","scope":"【影响街道/乡镇】李庄路、恒祥北大街 【高危重要客户】无 【影响客户】晨巍金地、警盾家园","startTime":"2019-09-19 06:00:00","stopDate":"2019-09-19 16:00:00","orgNo":"13406","typeCode":"计划停电","poweroffArea":"【分支停电】停10kVY0189箱式变电站Y0189配电变压器,10kVY0191箱式变电站Y0191配电变压器,10kVY0188箱式变电站Y0188配电变压器,10kVB1391配电室B1391配电变压器,10kVY0190箱式变电站Y0190配电变压器,10kVB1392配电室B1392配电变压器,10kVB1390配电室B1390配电变压器","poweroffReason":"【停电原因】由于供电设备临时检修导致１０ＫＶ韩村变电站５１８线路徐庄路ＨＫ-１０环网柜３号间隔开关以下停电【变更送电】因进度加快，定１８:００送电计划１６:００送电【发布渠道】保定市保定有线电视台（９月１１日２０时１５分至２１时４５分之间）屏幕上滚动","powerTime":"2019-09-19 15:21:46","powerComm":"已送电","subsNo":"","lineNo":"","tgNo":"","tgName":null,"infoStatus":"1","orgName":"保定供电公司","typeName":null,"infoStatusName":null,"dateDay":null,"orgNos":null,"nowTime":null,"countyName":null,"streetName":null,"villageName":null,"roadName":null,"communityName":null,"tranName":null,"sdLineName":null,"cityCode":"13406","cityName":"保定供电公司","provinceCode":null,"stopTime":"2019-09-19 16:00:00","powerType":"全部","powerOffArea":"【分支停电】停10kVY0189箱式变电站Y0189配电变压器,10kVY0191箱式变电站Y0191配电变压器,10kVY0188箱式变电站Y0188配电变压器,10kVB1391配电室B1391配电变压器,10kVY0190箱式变电站Y0190配电变压器,10kVB1392配电室B1392配电变压器,10kVB1390配电室B1390配电变压器","powerOffReason":"【停电原因】由于供电设备临时检修导致１０ＫＶ韩村变电站５１８线路徐庄路ＨＫ-１０环网柜３号间隔开关以下停电【变更送电】因进度加快，定１８:００送电计划１６:００送电【发布渠道】保定市保定有线电视台（９月１１日２０时１５分至２１时４５分之间）屏幕上滚动","powerOffId":"2019090613000198"},{"poweroffId":2019090613000195,"sgpoweroffId":null,"subsName":"","lineName":"勺堤线514","pubTranName":"勺堤4022变压器,","scope":"【影响街道/乡镇】罗庄乡【高危重要客户】无【影响客户】勺堤","startTime":"2019-09-18 06:30:10","stopDate":"2019-09-18 11:00:00","orgNo":"1340622","typeCode":"临时停电","poweroffArea":"【单台区停电】停勺堤4022变压器","poweroffReason":"【停电原因】由于更换变压器导致３５ＫＶ伏城变电站勺堤５１４线路勺堤４０２２公变台区停电【变更送电】因工作进度加快原因，送电时间由１４：３０变更为１１：００【发布渠道】通过９５５９８发布","powerTime":"2019-09-18 10:49:35","powerComm":"已送电","subsNo":"","lineNo":"","tgNo":"","tgName":null,"infoStatus":"1","orgName":"国网唐县供电公司","typeName":null,"infoStatusName":null,"dateDay":null,"orgNos":null,"nowTime":null,"countyName":null,"streetName":null,"villageName":null,"roadName":null,"communityName":null,"tranName":null,"sdLineName":null,"cityCode":"1340622","cityName":"国网唐县供电公司","provinceCode":null,"stopTime":"2019-09-18 11:00:00","powerType":"全部","powerOffArea":"【单台区停电】停勺堤4022变压器","powerOffReason":"【停电原因】由于更换变压器导致３５ＫＶ伏城变电站勺堤５１４线路勺堤４０２２公变台区停电【变更送电】因工作进度加快原因，送电时间由１４：３０变更为１１：００【发布渠道】通过９５５９８发布","powerOffId":"2019090613000195"},{"poweroffId":2019090613000194,"sgpoweroffId":null,"subsName":"","lineName":"10kV前卫路站591线路","pubTranName":"10kVB1367.B1368箱式变电站B1368配电变压器,10kVB1369.B1370箱式变电站B1369配电变压器,10kVB1363.B1364箱式变电站B1363配电变压器,10kVB1363.B1364箱式变电站B1364配电变压器,10kVB1365.B1366箱式变电站B1365配电变压器,10kVB1365.B1366箱式变电站B1366配电变压器,10kVB1367.B1368箱式变电站B1367配电变压器,10kVB1369.B1370箱式变电站B1370配电变压器,10kVY0184.Y0185配电室Y0185配电变压器,10kVY0186.Y0187配电室Y0187配电变压器,10kVY0324.Y0325配电室Y0325配电变压器,10kVY0326.Y0327配电室Y0327配电变压器,","scope":"【影响街道/乡镇】瑞安路、沈庄路 【高危重要客户】无 【影响客户】北城枫景、钻石嘉园、任大房地产、任庄游泳馆","startTime":"2019-09-18 06:00:00","stopDate":"2019-09-18 18:00:00","orgNo":"13406","typeCode":"计划停电","poweroffArea":"【分支停电】停10kVB1363.B1364箱式变电站B1363配电变压器,10kVB1363.B1364箱式变电站B1364配电变压器,10kVB1365.B1366箱式变电站B1365配电变压器,10kVB1365.B1366箱式变电站B1366配电变压器,10kVB1367.B1368箱式变电站B1367配电变压器,10kVB1367.B1368箱式变电站B1368配电变压器,10kVB1369.B1370箱式变电站B1369配电变压器,10kVB1369.B1370箱式变电站B1370配电变压器,10kVY0184.Y0185配电室Y0185配电变压器,10kVY0186.Y0187配电室Y0187配电变压器,10kVY0324.Y0325配电室Y0325配电变压器,10kVY0326.Y0327配电室Y0327配电变压器","poweroffReason":"【停电原因】由于供电设备临时检修导致１０ＫＶ前卫变电站５９１出线ＨＫ-１２环网柜１号间隔开关以下停电 【变更送电】无【发布渠道】保定市保定有线电视台（９月１０日２０时１５分至２１时４５分之间）屏幕上滚动","powerTime":"2019-09-18 17:51:10","powerComm":"已送电","subsNo":"","lineNo":"","tgNo":"","tgName":null,"infoStatus":"1","orgName":"保定供电公司","typeName":null,"infoStatusName":null,"dateDay":null,"orgNos":null,"nowTime":null,"countyName":null,"streetName":null,"villageName":null,"roadName":null,"communityName":null,"tranName":null,"sdLineName":null,"cityCode":"13406","cityName":"保定供电公司","provinceCode":null,"stopTime":"2019-09-18 18:00:00","powerType":"全部","powerOffArea":"【分支停电】停10kVB1363.B1364箱式变电站B1363配电变压器,10kVB1363.B1364箱式变电站B1364配电变压器,10kVB1365.B1366箱式变电站B1365配电变压器,10kVB1365.B1366箱式变电站B1366配电变压器,10kVB1367.B1368箱式变电站B1367配电变压器,10kVB1367.B1368箱式变电站B1368配电变压器,10kVB1369.B1370箱式变电站B1369配电变压器,10kVB1369.B1370箱式变电站B1370配电变压器,10kVY0184.Y0185配电室Y0185配电变压器,10kVY0186.Y0187配电室Y0187配电变压器,10kVY0324.Y0325配电室Y0325配电变压器,10kVY0326.Y0327配电室Y0327配电变压器","powerOffReason":"【停电原因】由于供电设备临时检修导致１０ＫＶ前卫变电站５９１出线ＨＫ-１２环网柜１号间隔开关以下停电 【变更送电】无【发布渠道】保定市保定有线电视台（９月１０日２０时１５分至２１时４５分之间）屏幕上滚动","powerOffId":"2019090613000194"},{"poweroffId":2019090613000193,"sgpoweroffId":null,"subsName":"","lineName":"10kV前卫站586线路","pubTranName":"10kVB1550.B1551.B1552配电室B1552配电变压器,C642柱上变压器,C022柱上变压器,C198柱上变压器,C021柱上变压器,10kVY0184.Y0185配电室Y0184配电变压器,10kVB1550.B1551.B1552配电室B1550配电变压器,10kVC3026箱式变电站C3026配电变压器,10kVY0186.Y0187配电室Y0186配电变压器,10kVY0324.Y0325配电室Y0324配电变压器,C390柱上变压器,10kVY0326.Y0327配电室Y0326配电变压器,10kVB1546.B1547配电室B1546配电变压器,10kVB1546.B1547配电室B1547配电变压器,10kVB1550.B1551.B1552配电室B1551配电变压器,","scope":"【影响街道/乡镇】瑞安路、复兴中路、隆昌路、韩村乡 【高危重要客户】无 【影响客户】北城风景小区、北高庄村、徐庄村、鑫和花园、亢龙朗峯小区","startTime":"2019-09-17 06:00:00","stopDate":"2019-09-17 18:00:00","orgNo":"13406","typeCode":"计划停电","poweroffArea":"【分支停电】停10kVB1550.B1551.B1552配电室B1551配电变压器,10kVB1550.B1551.B1552配电室B1552配电变压器,0356237264-徐庄村-专变,0685873669-河北力强农业科技开发有限公司-变压器,0627302642-保定市北市区任达游泳馆-专变-139259863-保定市北市区任达游泳馆,0652881949-保定市公共交通总公司-专变-180458110-变压器,C642柱上变压器,变压器,0356279613-保定市北市区前进纸箱厂-专变,C022柱上变压器,0356238964-保定市北市区前进纸箱厂-专变,0594114145-河北永筑房地产开发有限公司-1#专变,0602417288-保定市晨巍房地产开发有限公司-1#专变,0356240150-清苑柏楼乡高庄村-专变,0356240147-高庄村小学-专变,0719420221-保定轩宇俊鹏汽车销售服务有限公司-变压器-315KVA,0358213767-保定市鑫安物业管理有限公司-2#专变,C198柱上变压器,C021柱上变压器,0358213767-保定市鑫安物业管理有限公司-1#专变,0366928811-保定市供水总公司-1-箱式变-变压器,10kVY0184.Y0185配电室Y0184配电变压器,10kVB1550.B1551.B1552配电室B1550配电变压器,0357468472-保定市路灯管理处-1-箱式变-变压器,0357468485-保定市路灯管理处-1-箱式变-变压器,0645440647-亢龙房地产集团有限公司-专变-169767537-变压器,0369138156-保定市路灯管理处-专变,10kVC3026箱式变电站C3026配电变压器,0356237251-清苑县百楼乡北高庄-专变,10kVY0186.Y0187配电室Y0186配电变压器,10kVY0324.Y0325配电室Y0324配电变压器,0645440647-亢龙房地产集团有限公司-专变-169805306-变压器,C390柱上变压器,10kVY0326.Y0327配电室Y0326配电变压器,10kVB1546.B1547配电室B1546配电变压器,0554640989-保定市惠丰物业服务有限公司-1#专变,10kVB1546.B1547配电室B1547配电变压器","poweroffReason":"【停电原因】由于供电设备临时检修导致１０ＫＶ前卫变电站５８６线路ＨＫ-０６环网柜４号间隔开关以下停电【变更送电】无【发布渠道】保定市保定有线电视台（９月９日２０时１５分至２１时４５分之间）屏幕上滚动","powerTime":"2019-09-17 17:50:20","powerComm":"已送电","subsNo":"","lineNo":"","tgNo":"","tgName":null,"infoStatus":"1","orgName":"保定供电公司","typeName":null,"infoStatusName":null,"dateDay":null,"orgNos":null,"nowTime":null,"countyName":null,"streetName":null,"villageName":null,"roadName":null,"communityName":null,"tranName":null,"sdLineName":null,"cityCode":"13406","cityName":"保定供电公司","provinceCode":null,"stopTime":"2019-09-17 18:00:00","powerType":"全部","powerOffArea":"【分支停电】停10kVB1550.B1551.B1552配电室B1551配电变压器,10kVB1550.B1551.B1552配电室B1552配电变压器,0356237264-徐庄村-专变,0685873669-河北力强农业科技开发有限公司-变压器,0627302642-保定市北市区任达游泳馆-专变-139259863-保定市北市区任达游泳馆,0652881949-保定市公共交通总公司-专变-180458110-变压器,C642柱上变压器,变压器,0356279613-保定市北市区前进纸箱厂-专变,C022柱上变压器,0356238964-保定市北市区前进纸箱厂-专变,0594114145-河北永筑房地产开发有限公司-1#专变,0602417288-保定市晨巍房地产开发有限公司-1#专变,0356240150-清苑柏楼乡高庄村-专变,0356240147-高庄村小学-专变,0719420221-保定轩宇俊鹏汽车销售服务有限公司-变压器-315KVA,0358213767-保定市鑫安物业管理有限公司-2#专变,C198柱上变压器,C021柱上变压器,0358213767-保定市鑫安物业管理有限公司-1#专变,0366928811-保定市供水总公司-1-箱式变-变压器,10kVY0184.Y0185配电室Y0184配电变压器,10kVB1550.B1551.B1552配电室B1550配电变压器,0357468472-保定市路灯管理处-1-箱式变-变压器,0357468485-保定市路灯管理处-1-箱式变-变压器,0645440647-亢龙房地产集团有限公司-专变-169767537-变压器,0369138156-保定市路灯管理处-专变,10kVC3026箱式变电站C3026配电变压器,0356237251-清苑县百楼乡北高庄-专变,10kVY0186.Y0187配电室Y0186配电变压器,10kVY0324.Y0325配电室Y0324配电变压器,0645440647-亢龙房地产集团有限公司-专变-169805306-变压器,C390柱上变压器,10kVY0326.Y0327配电室Y0326配电变压器,10kVB1546.B1547配电室B1546配电变压器,0554640989-保定市惠丰物业服务有限公司-1#专变,10kVB1546.B1547配电室B1547配电变压器","powerOffReason":"【停电原因】由于供电设备临时检修导致１０ＫＶ前卫变电站５８６线路ＨＫ-０６环网柜４号间隔开关以下停电【变更送电】无【发布渠道】保定市保定有线电视台（９月９日２０时１５分至２１时４５分之间）屏幕上滚动","powerOffId":"2019090613000193"},{"poweroffId":2019090613000180,"sgpoweroffId":null,"subsName":"","lineName":"10kV前卫站573线路","pubTranName":"C213柱上变压器,10kVC498.C499配电室C499配电变压器,10kVB795.B603箱式变电站B795配电变压器,10kVB815.B816箱式变电站B815配电变压器,10kVC498.C499配电室C498配电变压器,10kVB796.B797箱式变电站B796配电变压器,C364柱上变压器,C214柱上变压器,10kVB815.B816箱式变电站B816配电变压器,10kVB795.B603箱式变电站B603配电变压器,10kVB796.B797箱式变电站B797配电变压器,","scope":"【影响街道/乡镇】五一九路、天鹅中路、 【高危重要客户】无 【影响客户】秀兰花园、韩庄新区、亢龙骏景、中铁房地产、复兴苑小区","startTime":"2019-09-16 06:00:00","stopDate":"2019-09-16 18:00:00","orgNo":"13406","typeCode":"计划停电","poweroffArea":"【分支停电】停10kVB796.B797箱式变电站B797配电变压器,C213柱上变压器,10kVC498.C499配电室C499配电变压器,10kVB795.B603箱式变电站B795配电变压器,10kVB815.B816箱式变电站B815配电变压器,10kVC498.C499配电室C498配电变压器,10kVB796.B797箱式变电站B796配电变压器,C364柱上变压器,C214柱上变压器,10kVB815.B816箱式变电站B816配电变压器,10kVB795.B603箱式变电站B603配电变压器","poweroffReason":"【停电原因】由于供电设备临时检修导致１０ＫＶ前卫变电站５７３线路李庄路８号杆开关以下停电【变更送电】无【发布渠道】保定市保定有线电视台（０９月０８日２０时１５分至２１时４５分之间）屏幕上滚动","powerTime":"2019-09-16 17:41:50","powerComm":"已送电","subsNo":"","lineNo":"","tgNo":"","tgName":null,"infoStatus":"1","orgName":"保定供电公司","typeName":null,"infoStatusName":null,"dateDay":null,"orgNos":null,"nowTime":null,"countyName":null,"streetName":null,"villageName":null,"roadName":null,"communityName":null,"tranName":null,"sdLineName":null,"cityCode":"13406","cityName":"保定供电公司","provinceCode":null,"stopTime":"2019-09-16 18:00:00","powerType":"全部","powerOffArea":"【分支停电】停10kVB796.B797箱式变电站B797配电变压器,C213柱上变压器,10kVC498.C499配电室C499配电变压器,10kVB795.B603箱式变电站B795配电变压器,10kVB815.B816箱式变电站B815配电变压器,10kVC498.C499配电室C498配电变压器,10kVB796.B797箱式变电站B796配电变压器,C364柱上变压器,C214柱上变压器,10kVB815.B816箱式变电站B816配电变压器,10kVB795.B603箱式变电站B603配电变压器","powerOffReason":"【停电原因】由于供电设备临时检修导致１０ＫＶ前卫变电站５７３线路李庄路８号杆开关以下停电【变更送电】无【发布渠道】保定市保定有线电视台（０９月０８日２０时１５分至２１时４５分之间）屏幕上滚动","powerOffId":"2019090613000180"},{"poweroffId":2019090613000167,"sgpoweroffId":null,"subsName":"","lineName":"10kV前卫站584线路","pubTranName":"0714509859-亢龙房地产-315kVA专变,","scope":"【影响街道/乡镇】天鹅东路、任庄路 【高危重要客户】无 【影响客户】亢龙房地产开发有限公司","startTime":"2019-09-16 06:00:00","stopDate":"2019-09-16 18:00:00","orgNo":"13406","typeCode":"计划停电","poweroffArea":"【分支停电】停0714509859-亢龙房地产-315kVA专变,0580105195-亢龙房地产开发有限公司-2#专变,0580105195-亢龙房地产开发有限公司-1#专变","poweroffReason":"【停电原因】由于供电设备临时检修导致１０ＫＶ前卫变电站５８４线路天鹅路８号杆开关以下停电【变更送电】无【发布渠道】保定市保定有线电视台（９月８日２０时１５分至２１时４５分之间）屏幕上滚动","powerTime":"2019-09-16 17:42:57","powerComm":"已送电","subsNo":"","lineNo":"","tgNo":"","tgName":null,"infoStatus":"1","orgName":"保定供电公司","typeName":null,"infoStatusName":null,"dateDay":null,"orgNos":null,"nowTime":null,"countyName":null,"streetName":null,"villageName":null,"roadName":null,"communityName":null,"tranName":null,"sdLineName":null,"cityCode":"13406","cityName":"保定供电公司","provinceCode":null,"stopTime":"2019-09-16 18:00:00","powerType":"全部","powerOffArea":"【分支停电】停0714509859-亢龙房地产-315kVA专变,0580105195-亢龙房地产开发有限公司-2#专变,0580105195-亢龙房地产开发有限公司-1#专变","powerOffReason":"【停电原因】由于供电设备临时检修导致１０ＫＶ前卫变电站５８４线路天鹅路８号杆开关以下停电【变更送电】无【发布渠道】保定市保定有线电视台（９月８日２０时１５分至２１时４５分之间）屏幕上滚动","powerOffId":"2019090613000167"},{"poweroffId":2019090613000159,"sgpoweroffId":null,"subsName":"","lineName":"10kV东北郊站525线路","pubTranName":"C229柱上变压器,C227柱上变压器,C228柱上变压器,","scope":"【影响街道/乡镇】东金庄乡 【高危重要客户】无 【影响客户】银定庄、银星电镀厂、银星碳素厂、三聚机械","startTime":"2019-09-19 07:00:00","stopDate":"2019-09-19 14:00:00","orgNo":"13406","typeCode":"计划停电","poweroffArea":"【分支停电】停C228柱上变压器,C229柱上变压器,0356341619-保定市北市区银星电镀厂-专变,0547595410-保定市北市区银星电镀厂-专变,C227柱上变压器","poweroffReason":"【停电原因】由于供电设备临时检修导致１０ＫＶ东北郊变电站５２５线路出线ＨＫ-０７环网柜６号间隔出线９号开关以下停电【变更送电】无【发布渠道】保定市保定有线电视台（９月１１日２０时１５分至２１时４５分之间）屏幕上滚动","powerTime":"2019-09-19 13:42:24","powerComm":"已送电","subsNo":"","lineNo":"","tgNo":"","tgName":null,"infoStatus":"1","orgName":"保定供电公司","typeName":null,"infoStatusName":null,"dateDay":null,"orgNos":null,"nowTime":null,"countyName":null,"streetName":null,"villageName":null,"roadName":null,"communityName":null,"tranName":null,"sdLineName":null,"cityCode":"13406","cityName":"保定供电公司","provinceCode":null,"stopTime":"2019-09-19 14:00:00","powerType":"全部","powerOffArea":"【分支停电】停C228柱上变压器,C229柱上变压器,0356341619-保定市北市区银星电镀厂-专变,0547595410-保定市北市区银星电镀厂-专变,C227柱上变压器","powerOffReason":"【停电原因】由于供电设备临时检修导致１０ＫＶ东北郊变电站５２５线路出线ＨＫ-０７环网柜６号间隔出线９号开关以下停电【变更送电】无【发布渠道】保定市保定有线电视台（９月１１日２０时１５分至２１时４５分之间）屏幕上滚动","powerOffId":"2019090613000159"},{"poweroffId":2019090613000158,"sgpoweroffId":null,"subsName":"","lineName":"10kV固上线543","pubTranName":"1崔庄内2,1臧村内13台区,客户投资_1臧村内9,臧村中学7,臧村小学,1臧村内5,臧村中学6,1臧村内4,臧村中学5,中心幼儿园,1臧村内3,1臧村内2,1藏村内10,臧村中学4,臧村中学1,臧村中学2,1臧村内1,1藏村内6,1藏村内7,1臧村内12,1臧村内11,臧村中学3,臧村中学8,","scope":"【影响街道/乡镇】臧村乡 【高危重要客户】无 【影响客户】西臧（臧村）、崔庄、中村","startTime":"2019-09-06 10:07:58","stopDate":"2019-09-06 11:30:00","orgNo":"1340618","typeCode":"电网故障停限电","poweroffArea":"【全线路停电】停臧村中学2,藏村北鸡厂,1臧村内1,国网河北清苑县供电公司臧村供电所,1藏村内6,臧村水厂,保定市清苑区刘家雅苑酒店,0387488880-清苑县藏村中心卫生院-专变-118525797-清苑县臧村中心卫生院,1臧村内13台区,藏村面厂鸡,1崔庄内2,2藏村外7【纯农排变】,0654929809-清苑县润发屠宰场-专变-185509232-清苑县润发屠宰场,客户投资_1臧村内9,臧村中学7,2藏村外6【纯农排变】,臧村小学,1臧村内5,臧村鸡厂,清苑县红升通风管道加工厂,2藏村外1【纯农排变】,2中村外10【纯农排变】,保定市清苑区汇恒模具机械加工厂,清苑县藏村镇拔丝制钉厂,臧村中学6,臧村刘永岐园艺,保定市清苑区臧村镇中心卫生院,藏村村委会,清苑县永岐工贸有限公司,1臧村内4,中村三农公司,保定辉煌电气设备制造有限公司,臧村中学5,永岐工贸公司2,中心幼儿园,1臧村内3,1臧村内2,保定市清苑区聚磊养殖场,1藏村内10,2臧村外2【纯农排变】,2臧村外9【纯农排变】,2臧村外5【纯农排变】,臧村供电所,0562648841-藏村村委会-专变-118514114-藏村村委会,保定市清苑区臧村中学,臧村中学4,0387487281-中国联合网络通信有限公司清苑县分公司-专变-45313528-中国联合网络通信有限公司清苑县分公司,臧村中学1,2臧村外3【纯农排变】,清苑县西臧村慧丰生态养殖基地,1藏村内7,保定市鑫豪鹏粮油加工有限公司,崔庄村南,1臧村内12,2臧村外4【纯农排变】,1臧村内11,2中村外9【纯农排变】,中国移动通信集团河北有限公司清苑分公司,2藏村外8【纯农排变】,保定市清苑区宏达塑料包装厂,清苑县臧村占军蛋鸡养殖场,臧村中学3,臧村铁木社,臧村中学8,臧村中学,保定市清苑区贾家驴肉铺","poweroffReason":"【停电原因】由于主干８５号杆电死鸟导致１１０ＫＶ臧村变电站１０ＫＶ固上线５４３线路全线停电 【变更送电】因抢修进度加快原因，送电时间由１６：００变更为１１：３０ 【发布渠道】通过９５５９８发布","powerTime":"2019-09-06 11:00:17","powerComm":"陈云涛通知已送电","subsNo":"","lineNo":"","tgNo":"","tgName":null,"infoStatus":"1","orgName":"国网清苑县供电公司","typeName":null,"infoStatusName":null,"dateDay":null,"orgNos":null,"nowTime":null,"countyName":null,"streetName":null,"villageName":null,"roadName":null,"communityName":null,"tranName":null,"sdLineName":null,"cityCode":"1340618","cityName":"国网清苑县供电公司","provinceCode":null,"stopTime":"2019-09-06 11:30:00","powerType":"全部","powerOffArea":"【全线路停电】停臧村中学2,藏村北鸡厂,1臧村内1,国网河北清苑县供电公司臧村供电所,1藏村内6,臧村水厂,保定市清苑区刘家雅苑酒店,0387488880-清苑县藏村中心卫生院-专变-118525797-清苑县臧村中心卫生院,1臧村内13台区,藏村面厂鸡,1崔庄内2,2藏村外7【纯农排变】,0654929809-清苑县润发屠宰场-专变-185509232-清苑县润发屠宰场,客户投资_1臧村内9,臧村中学7,2藏村外6【纯农排变】,臧村小学,1臧村内5,臧村鸡厂,清苑县红升通风管道加工厂,2藏村外1【纯农排变】,2中村外10【纯农排变】,保定市清苑区汇恒模具机械加工厂,清苑县藏村镇拔丝制钉厂,臧村中学6,臧村刘永岐园艺,保定市清苑区臧村镇中心卫生院,藏村村委会,清苑县永岐工贸有限公司,1臧村内4,中村三农公司,保定辉煌电气设备制造有限公司,臧村中学5,永岐工贸公司2,中心幼儿园,1臧村内3,1臧村内2,保定市清苑区聚磊养殖场,1藏村内10,2臧村外2【纯农排变】,2臧村外9【纯农排变】,2臧村外5【纯农排变】,臧村供电所,0562648841-藏村村委会-专变-118514114-藏村村委会,保定市清苑区臧村中学,臧村中学4,0387487281-中国联合网络通信有限公司清苑县分公司-专变-45313528-中国联合网络通信有限公司清苑县分公司,臧村中学1,2臧村外3【纯农排变】,清苑县西臧村慧丰生态养殖基地,1藏村内7,保定市鑫豪鹏粮油加工有限公司,崔庄村南,1臧村内12,2臧村外4【纯农排变】,1臧村内11,2中村外9【纯农排变】,中国移动通信集团河北有限公司清苑分公司,2藏村外8【纯农排变】,保定市清苑区宏达塑料包装厂,清苑县臧村占军蛋鸡养殖场,臧村中学3,臧村铁木社,臧村中学8,臧村中学,保定市清苑区贾家驴肉铺","powerOffReason":"【停电原因】由于主干８５号杆电死鸟导致１１０ＫＶ臧村变电站１０ＫＶ固上线５４３线路全线停电 【变更送电】因抢修进度加快原因，送电时间由１６：００变更为１１：３０ 【发布渠道】通过９５５９８发布","powerOffId":"2019090613000158"},{"poweroffId":2019090613000103,"sgpoweroffId":null,"subsName":"","lineName":"10kV宋高和514","pubTranName":"宋高和142变压器,宋高和5195变压器,宗高和2724变压器,宋高和4998台区,西高和电锯0924,宗高和143变压器,杨高和6526变压器,宋高和小学 7462变压器,杨高和7381变压器,杨高和小学 7464变压器,西高和3318台区,娄高和4545变压器,宗高和4264变压器,宋高和3305变压器,杨高和141变压器,娄高和小学 7455变压器,娄高和村7542光伏变压器,娄高和2628变压器,娄高和7380变压器,娄高和1184变压器,西高和7826变压器,宋高和4220变压器,西高和1186变压器,宗高和小学 7466变压器,娄高和3187变压器,杨高和4552台区,宗高和7974变压器,宗高和144变压器,宗高和4999台区,西高和木材厂1188,","scope":"【影响街道/乡镇】都亭乡、南店头乡【高危重要客户】无【影响客户】宋高和、宗高和、杨高和、西高和、娄高和","startTime":"2019-09-10 06:30:00","stopDate":"2019-09-10 18:00:00","orgNo":"1340622","typeCode":"临时停电","poweroffArea":"【分支停电】停娄高和3187变压器,宋高和142变压器,宋高和5195变压器,宗高和2724变压器,宋高和4998台区,西高和电锯0924,宗高和143变压器,杨高和6526变压器, 宋高和小学 7462变压器,杨高和7381变压器, 杨高和小学 7464变压器,西高和3318台区,娄高和4545变压器,宗高和4264变压器,宋高和3305变压器,杨高和141变压器, 娄高和小学 7455变压器,娄高和村7542光伏变压器,娄高和2628变压器,娄高和7380变压器,娄高和1184变压器,西高和7826变压器,宋高和4220变压器,西高和1186变压器, 宗高和小学 7466变压器,杨高和4552台区,宗高和7974变压器,宗高和144变压器,宗高和4999台区,西高和木材厂1188","poweroffReason":"【停电原因】由于线路检修导致１１０ＫＶ唐县变电站宋高和５１４线路９１号杆以下线路停电【变更送电】无【发布渠道】通过９５５９８发布","powerTime":"2019-09-10 10:00:00","powerComm":"已送电","subsNo":"","lineNo":"","tgNo":"","tgName":null,"infoStatus":"1","orgName":"国网唐县供电公司","typeName":null,"infoStatusName":null,"dateDay":null,"orgNos":null,"nowTime":null,"countyName":null,"streetName":null,"villageName":null,"roadName":null,"communityName":null,"tranName":null,"sdLineName":null,"cityCode":"1340622","cityName":"国网唐县供电公司","provinceCode":null,"stopTime":"2019-09-10 18:00:00","powerType":"全部","powerOffArea":"【分支停电】停娄高和3187变压器,宋高和142变压器,宋高和5195变压器,宗高和2724变压器,宋高和4998台区,西高和电锯0924,宗高和143变压器,杨高和6526变压器, 宋高和小学 7462变压器,杨高和7381变压器, 杨高和小学 7464变压器,西高和3318台区,娄高和4545变压器,宗高和4264变压器,宋高和3305变压器,杨高和141变压器, 娄高和小学 7455变压器,娄高和村7542光伏变压器,娄高和2628变压器,娄高和7380变压器,娄高和1184变压器,西高和7826变压器,宋高和4220变压器,西高和1186变压器, 宗高和小学 7466变压器,杨高和4552台区,宗高和7974变压器,宗高和144变压器,宗高和4999台区,西高和木材厂1188","powerOffReason":"【停电原因】由于线路检修导致１１０ＫＶ唐县变电站宋高和５１４线路９１号杆以下线路停电【变更送电】无【发布渠道】通过９５５９８发布","powerOffId":"2019090613000103"}],"pageModel":{"pageNow":579,"totalCount":10973,"totalPage":1098,"tableRows":0,"pageCount":10,"beginCount":5780},"isExperi":"1"}