{"message":"","today":"2020-06-15","seleList":[{"poweroffId":2019090213000065,"sgpoweroffId":null,"subsName":"","lineName":"庆都山线512","pubTranName":"东高昌水4836变压器,东高昌水860变压器,北高昌公墓6170台区变压器,北高昌中心小学7591变压器,东高昌立功水1842变压器,东高昌7418变压器,北高昌混839变压器,北高昌混841变压器,东高昌混825变压器,高昌店水5026变压器,北高昌混3166变压器,东高昌水利10KV配变工程6新建,北高昌混4518变压器,高昌店粮站481变压器,北高昌838变压器,东高昌水利10KV配变工程1新建工程,高昌店西6695变压器,东高昌水4458变压器,高昌店4035变压器,东高昌水利10KV配变,高昌店混5084变压器,北高昌混4970变压器,","scope":"【影响街道/乡镇】高昌镇【高危重要客户】无【影响客户】高昌店、东高昌、北高昌","startTime":"2019-09-16 06:30:00","stopDate":"2019-09-16 18:00:00","orgNo":"1340622","typeCode":"计划停电","poweroffArea":"【分支停电】停东高昌水4836变压器,东高昌水860变压器,北高昌公墓6170台区变压器,北高昌中心小学7591变压器,东高昌立功水1842变压器,东高昌7418变压器,北高昌混839变压器,北高昌混841变压器,东高昌混825变压器,高昌店水5026变压器,北高昌混3166变压器,东高昌水利10KV配变工程6新建,北高昌混4518变压器,高昌店粮站481变压器,北高昌838变压器,东高昌水利10KV配变工程1新建工程,高昌店西6695变压器,东高昌水4458变压器,高昌店4035变压器,东高昌水利10KV配变,高昌店混5084变压器,北高昌混4970变压器","poweroffReason":"【停电原因】由于更换电杆导致３５ＫＶ山阳变电站庆都山线５１２线路０８９号杆断路器以下线路停电【变更送电】无【发布渠道】保定市唐县电视台（０９月２日至０９月１５日的２０：００时至２０：３０时之间）屏幕上方滚动字幕","powerTime":"2019-09-16 17:49:39","powerComm":"已送电","subsNo":"","lineNo":"","tgNo":"","tgName":null,"infoStatus":"1","orgName":"国网唐县供电公司","typeName":null,"infoStatusName":null,"dateDay":null,"orgNos":null,"nowTime":null,"countyName":null,"streetName":null,"villageName":null,"roadName":null,"communityName":null,"tranName":null,"sdLineName":null,"cityCode":"1340622","cityName":"国网唐县供电公司","provinceCode":null,"stopTime":"2019-09-16 18:00:00","powerType":"全部","powerOffArea":"【分支停电】停东高昌水4836变压器,东高昌水860变压器,北高昌公墓6170台区变压器,北高昌中心小学7591变压器,东高昌立功水1842变压器,东高昌7418变压器,北高昌混839变压器,北高昌混841变压器,东高昌混825变压器,高昌店水5026变压器,北高昌混3166变压器,东高昌水利10KV配变工程6新建,北高昌混4518变压器,高昌店粮站481变压器,北高昌838变压器,东高昌水利10KV配变工程1新建工程,高昌店西6695变压器,东高昌水4458变压器,高昌店4035变压器,东高昌水利10KV配变,高昌店混5084变压器,北高昌混4970变压器","powerOffReason":"【停电原因】由于更换电杆导致３５ＫＶ山阳变电站庆都山线５１２线路０８９号杆断路器以下线路停电【变更送电】无【发布渠道】保定市唐县电视台（０９月２日至０９月１５日的２０：００时至２０：３０时之间）屏幕上方滚动字幕","powerOffId":"2019090213000065"},{"poweroffId":2019090213000061,"sgpoweroffId":null,"subsName":"","lineName":"孙庄线528","pubTranName":"孙庄农1【纯农排变】,后庄子旧大队混合5号配变,长城机械,孙庄村混合6号配变,前庄子西农1【纯农排变】,大辛庄正北【纯农排变】,京艺制鞋厂,望都县锦运仓储服务部,后庄子鱼塘混3,后庄子混2,前庄子东混2号配变,前庄子东农3【纯农排变】,大辛庄村北农【纯农排变】,大辛庄红星机械厂,李立昌面粉厂,寺庄村东农业【纯农排变】,后庄子东混4号配变,前庄子西混4号配变,后庄子村北农5【纯农排变】,北韩庄混合2,彤霞农1【纯农排变】,前庄子东混3号配变,寺庄村大辛庄道农业【纯农排变】,彤霞农4【纯农排变】,大辛庄西农业,孙庄混合,寺庄西南配变【纯农排变】,前庄子北农2【纯农排变】,前庄子西农4【纯农排变】,后庄子混合,孙庄村混合4号配变,彤霞村北农3号【纯农排变】,北龙潭【纯农排变】,孙庄农2【纯农排变】,孙庄村混合5号配变,城内大队,孙庄混合2号,北关西北农【纯农排变】,北韩庄混合4号,寺庄村南,寺庄东南农【纯农排变】,后庄子村西混合6号配变,0667223040-望都县誉鑫铸造厂-专变-208410918-望都县誉鑫铸造厂,孙庄村混合3号配变,彤霞村路边农5号配变【纯农排变】,孙庄村东农3【纯农排变】,前庄子混合,寺庄农3【纯农排变】,大辛庄西北农业【纯农排变】,","scope":"【影响街道/乡镇】寺庄乡、望都镇　　 【高危重要客户】无　　 【影响客户】前庄子村、孙庄村、后庄子村、寺庄部分农业、大辛庄部分农业、彤霞村部分农业、北关西北农业、北韩庄村、北龙潭、城内大队、李立昌面粉厂、望都惠得祥鞋厂、大辛庄红星机械厂、京艺制鞋厂、长城机械、水库车床加工、望都县誉鑫铸造厂、康胜铸造","startTime":"2019-09-02 08:41:37","stopDate":"2019-09-02 12:00:00","orgNo":"1340623","typeCode":"电网故障停限电","poweroffArea":"【全线路停电】停长城机械,京艺制鞋厂,望都县锦运仓储服务部,后庄子鱼塘混3,后庄子混2,前庄子东混2号配变,前庄子东农3【纯农排变】,大辛庄村北农【纯农排变】,大辛庄红星机械厂,李立昌面粉厂,寺庄村东农业【纯农排变】,后庄子东混4号配变,前庄子西混4号配变,前庄子西农4【纯农排变】,后庄子混合,孙庄村混合4号配变,彤霞村北农3号【纯农排变】,北龙潭【纯农排变】,孙庄农2【纯农排变】,孙庄村混合5号配变,城内大队,孙庄混合2号,北关西北农【纯农排变】,北韩庄混合4号,寺庄村南,寺庄东南农【纯农排变】,后庄子村西混合6号配变,0667223040-望都县誉鑫铸造厂-专变-208410918-望都县誉鑫铸造厂,孙庄村混合3号配变,彤霞村路边农5号配变【纯农排变】,孙庄农1【纯农排变】,后庄子旧大队混合5号配变,孙庄村混合6号配变,前庄子西农1【纯农排变】,大辛庄正北【纯农排变】,后庄子村北农5【纯农排变】,北韩庄混合2,彤霞农1【纯农排变】,前庄子东混3号配变,寺庄村大辛庄道农业【纯农排变】,彤霞农4【纯农排变】,大辛庄西农业,孙庄混合,寺庄西南配变【纯农排变】,前庄子北农2【纯农排变】,孙庄村东农3【纯农排变】,前庄子混合,寺庄农3【纯农排变】,大辛庄西北农业【纯农排变】","poweroffReason":"【停电原因】由于站内开关跳闸导致１１０ＫＶ八里庄变电站孙庄线５２８线路全线停电 【变更送电】无 【发布渠道】通过９５５９８发布","powerTime":"2019-09-02 11:07:54","powerComm":"已送电","subsNo":"","lineNo":"","tgNo":"","tgName":null,"infoStatus":"1","orgName":"国网望都县供电公司","typeName":null,"infoStatusName":null,"dateDay":null,"orgNos":null,"nowTime":null,"countyName":null,"streetName":null,"villageName":null,"roadName":null,"communityName":null,"tranName":null,"sdLineName":null,"cityCode":"1340623","cityName":"国网望都县供电公司","provinceCode":null,"stopTime":"2019-09-02 12:00:00","powerType":"全部","powerOffArea":"【全线路停电】停长城机械,京艺制鞋厂,望都县锦运仓储服务部,后庄子鱼塘混3,后庄子混2,前庄子东混2号配变,前庄子东农3【纯农排变】,大辛庄村北农【纯农排变】,大辛庄红星机械厂,李立昌面粉厂,寺庄村东农业【纯农排变】,后庄子东混4号配变,前庄子西混4号配变,前庄子西农4【纯农排变】,后庄子混合,孙庄村混合4号配变,彤霞村北农3号【纯农排变】,北龙潭【纯农排变】,孙庄农2【纯农排变】,孙庄村混合5号配变,城内大队,孙庄混合2号,北关西北农【纯农排变】,北韩庄混合4号,寺庄村南,寺庄东南农【纯农排变】,后庄子村西混合6号配变,0667223040-望都县誉鑫铸造厂-专变-208410918-望都县誉鑫铸造厂,孙庄村混合3号配变,彤霞村路边农5号配变【纯农排变】,孙庄农1【纯农排变】,后庄子旧大队混合5号配变,孙庄村混合6号配变,前庄子西农1【纯农排变】,大辛庄正北【纯农排变】,后庄子村北农5【纯农排变】,北韩庄混合2,彤霞农1【纯农排变】,前庄子东混3号配变,寺庄村大辛庄道农业【纯农排变】,彤霞农4【纯农排变】,大辛庄西农业,孙庄混合,寺庄西南配变【纯农排变】,前庄子北农2【纯农排变】,孙庄村东农3【纯农排变】,前庄子混合,寺庄农3【纯农排变】,大辛庄西北农业【纯农排变】","powerOffReason":"【停电原因】由于站内开关跳闸导致１１０ＫＶ八里庄变电站孙庄线５２８线路全线停电 【变更送电】无 【发布渠道】通过９５５９８发布","powerOffId":"2019090213000061"},{"poweroffId":2019090213000060,"sgpoweroffId":null,"subsName":"","lineName":"阳光线521","pubTranName":"福利风机厂,高建集团建装公司,付庄面粉厂,付庄面粉厂2,五处大修厂,付庄基地,","scope":"【影响街道/乡镇】朝阳街 【高危重要客户】无 【影响客户】付庄面粉厂、福利风机厂、五处大修厂（游乐堡）、高建集团建装公司、付庄基地小区（十八局四处基地）","startTime":"2019-09-11 06:00:00","stopDate":"2019-09-11 11:00:00","orgNo":"1340612","typeCode":"计划停电","poweroffArea":"【分支停电】停付庄基地,福利风机厂,高建集团建装公司,付庄面粉厂,付庄面粉厂2,五处大修厂","poweroffReason":"【停电原因】由于电源接引导致１１０ＫＶ马庄变电站１０ＫＶ阳光５２１线路０３号断路器以下停电 【变更送电】无 【发布渠道】高碑店市高碑店电视台（９月３日０８时至９月１０日１８时之间）屏幕上方滚动","powerTime":"2019-09-11 10:50:51","powerComm":"已送电","subsNo":"","lineNo":"","tgNo":"","tgName":null,"infoStatus":"1","orgName":"国网高碑店市供电公司","typeName":null,"infoStatusName":null,"dateDay":null,"orgNos":null,"nowTime":null,"countyName":null,"streetName":null,"villageName":null,"roadName":null,"communityName":null,"tranName":null,"sdLineName":null,"cityCode":"1340612","cityName":"国网高碑店市供电公司","provinceCode":null,"stopTime":"2019-09-11 11:00:00","powerType":"全部","powerOffArea":"【分支停电】停付庄基地,福利风机厂,高建集团建装公司,付庄面粉厂,付庄面粉厂2,五处大修厂","powerOffReason":"【停电原因】由于电源接引导致１１０ＫＶ马庄变电站１０ＫＶ阳光５２１线路０３号断路器以下停电 【变更送电】无 【发布渠道】高碑店市高碑店电视台（９月３日０８时至９月１０日１８时之间）屏幕上方滚动","powerOffId":"2019090213000060"},{"poweroffId":2019090213000058,"sgpoweroffId":null,"subsName":"","lineName":"10kV田各庄线515","pubTranName":"1田各庄屯内4,1田各庄屯内3,2林水屯外7【纯农排变】,田各庄屯村内1号,东林水内3,李八庄内7,田各庄屯中心幼儿园,1田各庄内7,1田各庄内4,田各庄小学,1田各庄内3,国网河北电动汽车服务有限公司7,1林水屯内3,李八庄内1,李八庄村内2号,田各庄内1,田各庄内2,李八庄小学,田各庄屯内2,2田各庄屯外4【纯农排变】,李八庄内5,1田各庄内6,客户投资_1田各庄内5,","scope":"【影响街道/乡镇】 北店乡 【高危重要客户】无 【影响客户】田各庄村、田各庄屯、李八庄","startTime":"2019-09-02 08:32:35","stopDate":"2019-09-02 11:00:00","orgNo":"1340618","typeCode":"电网故障停限电","poweroffArea":"【全线路停电】停2田各庄外10【纯农排变】,田各庄屯村内1号,国义砖机配件,鑫苑香厂,2李八庄外5【纯农排变】,保定立中蒙养农场有限公司,东林水内3,2田各庄外13【纯农排变】,田各庄东砖厂,田各庄冷冻厂,2田各庄屯外1【纯农排变】,清苑县北店乡田各庄小学,中国石油化工股份有限公司河北清苑石油分司,2田各庄外9【纯农排变】,李八庄内1,国臣砖机配件厂,清苑县宏源机械制造有限公司,田各庄雷钢钻头厂,李八庄蛋托厂,保定天宁新型建材科技有限公司,1田各庄屯内4,2东林水外3【纯农排变】,2李八庄外6【纯农排变】,1田各庄屯内3,2田各庄屯外5【纯农排变】,2林水屯外7【纯农排变】,保定市清苑区久久加油站,田各庄屯中心幼儿园,交通局石料厂,保定振泰新型建筑材料制造有限公司,1田各庄内7,西古庄庆昌挂面房,天隆面粉厂,0387483146-田各庄宏鹤铁加工厂-专变-45310661-田各庄宏鹤铁加工厂,2李八庄外14【纯农排变】,2中林水外5【纯农排变】,国网河北电动汽车服务有限公司7,1林水屯内3,保定亿通公路工程有限公司,2东林水外4【纯农排变】,2田各庄外5【纯农排变】,2田各庄外14【纯农排变】,2田各庄外6【纯农排变】,河北建设集团有限公司,田各庄大田机械厂,2田各庄外8【纯农排变】,田各庄红伟钻头厂,0682386629-鑫景佳园-专变-221738469-鑫景佳园,李八庄兴达电气焊厂,保定市清苑区鑫通导管厂,南二站外5【纯农排变】,1田各庄内4,2林水屯外4【纯农排变】,李八庄宏业钻头厂,张宝合加工厂,保定市看守所,2林水屯外5【纯农排变】,田各庄小学,1田各庄内3,田各庄田成祥机加工,田各庄内2,河北大秋建材制造有限公司1,2田各庄外16【纯农排变】,李八庄小学,2田各庄屯外8【纯农排变】,田各庄屯内2,2田各庄屯外4【纯农排变】,2东林水外6【纯农排变】,2东林水外9【纯农排变】,河北大秋建材制造有限公司,2田各庄屯外3【纯农排变】,2李八庄外15【纯农排变】,清苑县腾达沙石料厂,2田各庄屯外6【纯农排变】,保定市恒福泰和活性炭厂,李八庄内5,2田各庄屯外7【纯农排变】,保定东方红机械制造有限公司,2田各庄外11【纯农排变】,2东林水外11【纯农排变】,1田各庄内6,2李八庄外4【纯农排变】,客户投资_1田各庄内5,2李八庄外7【纯农排变】,保定市清苑区水沐浴池服务部,清苑县宏鹤铁器加工门市部,保定万千饲料有限公司,2林水屯外6【纯农排变】,保定市清苑区建柱粮食经销处,2东林水外7【纯农排变】,保定市爱骑摩托车用品有限公司,2田各庄外15【纯农排变】,保定学峰有限公司,2田各庄外12【纯农排变】,2田各庄屯外2【纯农排变】,保定市清苑区京港加油站,2东林水外10【纯农排变】,李八庄村内2号,2田各庄外7【纯农排变】,田各庄内1,清苑县老虎钻头厂,宏鹤铁器加工门市部,2田各庄外4【纯农排变】,市政石料厂,保定苑新制香有限公司,2东林水外2【纯农排变】,清苑县清泉水泥制品有限公司,保定斯坦格金属热处理有限公司,2西林水外11【纯农排变】,2中林水外4【纯农排变】,东林水志辉机械厂,李八庄内7,2东林水外5【纯农排变】,2李八庄外10【纯农排变】","poweroffReason":"【停电原因】由于主干０号杆Ｃ相刀闸烧毁导致１１０ＫＶ中冉变电站１０ＫＶ田各庄线５１５线路全线停电 【变更送电】因抢修进度加快原因，送电时间由１３：００变更为１１：００ 【发布渠道】通过９５５９８发布","powerTime":"2019-09-02 10:23:26","powerComm":"王凯通知已送电","subsNo":"","lineNo":"","tgNo":"","tgName":null,"infoStatus":"1","orgName":"国网清苑县供电公司","typeName":null,"infoStatusName":null,"dateDay":null,"orgNos":null,"nowTime":null,"countyName":null,"streetName":null,"villageName":null,"roadName":null,"communityName":null,"tranName":null,"sdLineName":null,"cityCode":"1340618","cityName":"国网清苑县供电公司","provinceCode":null,"stopTime":"2019-09-02 11:00:00","powerType":"全部","powerOffArea":"【全线路停电】停2田各庄外10【纯农排变】,田各庄屯村内1号,国义砖机配件,鑫苑香厂,2李八庄外5【纯农排变】,保定立中蒙养农场有限公司,东林水内3,2田各庄外13【纯农排变】,田各庄东砖厂,田各庄冷冻厂,2田各庄屯外1【纯农排变】,清苑县北店乡田各庄小学,中国石油化工股份有限公司河北清苑石油分司,2田各庄外9【纯农排变】,李八庄内1,国臣砖机配件厂,清苑县宏源机械制造有限公司,田各庄雷钢钻头厂,李八庄蛋托厂,保定天宁新型建材科技有限公司,1田各庄屯内4,2东林水外3【纯农排变】,2李八庄外6【纯农排变】,1田各庄屯内3,2田各庄屯外5【纯农排变】,2林水屯外7【纯农排变】,保定市清苑区久久加油站,田各庄屯中心幼儿园,交通局石料厂,保定振泰新型建筑材料制造有限公司,1田各庄内7,西古庄庆昌挂面房,天隆面粉厂,0387483146-田各庄宏鹤铁加工厂-专变-45310661-田各庄宏鹤铁加工厂,2李八庄外14【纯农排变】,2中林水外5【纯农排变】,国网河北电动汽车服务有限公司7,1林水屯内3,保定亿通公路工程有限公司,2东林水外4【纯农排变】,2田各庄外5【纯农排变】,2田各庄外14【纯农排变】,2田各庄外6【纯农排变】,河北建设集团有限公司,田各庄大田机械厂,2田各庄外8【纯农排变】,田各庄红伟钻头厂,0682386629-鑫景佳园-专变-221738469-鑫景佳园,李八庄兴达电气焊厂,保定市清苑区鑫通导管厂,南二站外5【纯农排变】,1田各庄内4,2林水屯外4【纯农排变】,李八庄宏业钻头厂,张宝合加工厂,保定市看守所,2林水屯外5【纯农排变】,田各庄小学,1田各庄内3,田各庄田成祥机加工,田各庄内2,河北大秋建材制造有限公司1,2田各庄外16【纯农排变】,李八庄小学,2田各庄屯外8【纯农排变】,田各庄屯内2,2田各庄屯外4【纯农排变】,2东林水外6【纯农排变】,2东林水外9【纯农排变】,河北大秋建材制造有限公司,2田各庄屯外3【纯农排变】,2李八庄外15【纯农排变】,清苑县腾达沙石料厂,2田各庄屯外6【纯农排变】,保定市恒福泰和活性炭厂,李八庄内5,2田各庄屯外7【纯农排变】,保定东方红机械制造有限公司,2田各庄外11【纯农排变】,2东林水外11【纯农排变】,1田各庄内6,2李八庄外4【纯农排变】,客户投资_1田各庄内5,2李八庄外7【纯农排变】,保定市清苑区水沐浴池服务部,清苑县宏鹤铁器加工门市部,保定万千饲料有限公司,2林水屯外6【纯农排变】,保定市清苑区建柱粮食经销处,2东林水外7【纯农排变】,保定市爱骑摩托车用品有限公司,2田各庄外15【纯农排变】,保定学峰有限公司,2田各庄外12【纯农排变】,2田各庄屯外2【纯农排变】,保定市清苑区京港加油站,2东林水外10【纯农排变】,李八庄村内2号,2田各庄外7【纯农排变】,田各庄内1,清苑县老虎钻头厂,宏鹤铁器加工门市部,2田各庄外4【纯农排变】,市政石料厂,保定苑新制香有限公司,2东林水外2【纯农排变】,清苑县清泉水泥制品有限公司,保定斯坦格金属热处理有限公司,2西林水外11【纯农排变】,2中林水外4【纯农排变】,东林水志辉机械厂,李八庄内7,2东林水外5【纯农排变】,2李八庄外10【纯农排变】","powerOffReason":"【停电原因】由于主干０号杆Ｃ相刀闸烧毁导致１１０ＫＶ中冉变电站１０ＫＶ田各庄线５１５线路全线停电 【变更送电】因抢修进度加快原因，送电时间由１３：００变更为１１：００ 【发布渠道】通过９５５９８发布","powerOffId":"2019090213000058"},{"poweroffId":2019090213000034,"sgpoweroffId":null,"subsName":"","lineName":"南下叔线532","pubTranName":"南下叔南农4号配变,寺庄新民居配变,南下叔混合8号配变,南下叔混1配变,寺庄坟配变【纯农排变】,寺庄村混9配变,南下叔大队混6,寺庄乡政府配变,南下叔混合7号配变,寺庄混合6号变压器,寺庄乡卫生院配变,南下叔混2配变,南下叔混合9号配变,南下叔混合10号配变,南下叔东南农业10号【纯农排变】,","scope":"【影响街道/乡镇】寺庄乡　　 【高危重要客户】无　　 【影响客户】寺庄村、南下叔村、琉璃瓦厂、辉锦铸造厂、能顺面粉、鑫磊新型建材、保定海龙纺织厂、保定鑫达铸造","startTime":"2019-09-02 06:23:14","stopDate":"2019-09-02 11:30:00","orgNo":"1340623","typeCode":"电网故障停限电","poweroffArea":"【全线路停电】停寺庄村西北农10【纯农排变】,寺庄混合6号变压器,寺庄新民居配变,下叔农8配变【纯农排变】,南下叔西南50配变,南下叔混1配变,寺庄坟配变【纯农排变】,寺庄农5配变,寺庄村混9配变,南下叔村南混合4号,南下叔东南混5,下叔农7配变【纯农排变】,寺庄乡政府配变,大辛庄西南农【纯农排变】,南下叔混合7号配变,保定海龙纺织品有限公司,南下叔东农100配变【纯农排变】,南下叔东南农业10号【纯农排变】,南下叔混2配变,寺庄农7【纯农排变】,寺庄村北混合7号,寺庄大沟北农【纯农排变】,南下叔南农4号配变,南下叔混合8号配变,琉璃瓦厂,望都县辉锦铸造厂,望都县鑫磊新型建材,南下叔大队混6,寺庄桥头,寺庄社办南,寺庄乡卫生院配变,下叔农9配变,下叔村东农业5号配变【纯农排变】,南下叔混合9号配变,下叔农6配变【纯农排变】,寺庄村北,南下叔西北50配变,南下叔混合10号配变,南下叔西南混3","poweroffReason":"【停电原因】由于站内开关跳闸导致１１０ＫＶ八里庄变电站南下叔线５３２线路全线停电 【变更送电】因抢修进度加快原因，送电时间由２２：００变更为１１：３０ 【发布渠道】通过９５５９８发布","powerTime":"2019-09-02 11:11:46","powerComm":"已送电","subsNo":"","lineNo":"","tgNo":"","tgName":null,"infoStatus":"1","orgName":"国网望都县供电公司","typeName":null,"infoStatusName":null,"dateDay":null,"orgNos":null,"nowTime":null,"countyName":null,"streetName":null,"villageName":null,"roadName":null,"communityName":null,"tranName":null,"sdLineName":null,"cityCode":"1340623","cityName":"国网望都县供电公司","provinceCode":null,"stopTime":"2019-09-02 11:30:00","powerType":"全部","powerOffArea":"【全线路停电】停寺庄村西北农10【纯农排变】,寺庄混合6号变压器,寺庄新民居配变,下叔农8配变【纯农排变】,南下叔西南50配变,南下叔混1配变,寺庄坟配变【纯农排变】,寺庄农5配变,寺庄村混9配变,南下叔村南混合4号,南下叔东南混5,下叔农7配变【纯农排变】,寺庄乡政府配变,大辛庄西南农【纯农排变】,南下叔混合7号配变,保定海龙纺织品有限公司,南下叔东农100配变【纯农排变】,南下叔东南农业10号【纯农排变】,南下叔混2配变,寺庄农7【纯农排变】,寺庄村北混合7号,寺庄大沟北农【纯农排变】,南下叔南农4号配变,南下叔混合8号配变,琉璃瓦厂,望都县辉锦铸造厂,望都县鑫磊新型建材,南下叔大队混6,寺庄桥头,寺庄社办南,寺庄乡卫生院配变,下叔农9配变,下叔村东农业5号配变【纯农排变】,南下叔混合9号配变,下叔农6配变【纯农排变】,寺庄村北,南下叔西北50配变,南下叔混合10号配变,南下叔西南混3","powerOffReason":"【停电原因】由于站内开关跳闸导致１１０ＫＶ八里庄变电站南下叔线５３２线路全线停电 【变更送电】因抢修进度加快原因，送电时间由２２：００变更为１１：３０ 【发布渠道】通过９５５９８发布","powerOffId":"2019090213000034"},{"poweroffId":2019090213000026,"sgpoweroffId":null,"subsName":"","lineName":"10kV515造纸厂线","pubTranName":"南伍侯-23003930|23003930,海家庄村东新增综合7980,两分庄新增综合2417,南伍候村东新增综合2946,两分庄-23001540|23001540,南伍侯内-23001950|23001950,南伍候村北新增综合3453,南伍侯东-23001170|23001170,邵家庄北综合3855,邵家庄-23001940|23001940,","scope":"【影响街道/乡镇】腰山镇【高危重要客户】无【影响客户】海家庄、两分庄、南伍侯、奥宇公司、邵家庄、保定东禾塑业有限公司、保定八木化纤有限公司、保定恒远机械制件有限公司、保定杰达电力设备有限公司、保定开源热镀锌有限公司","startTime":"2019-09-02 03:50:07","stopDate":"2019-09-02 07:00:00","orgNo":"1340621","typeCode":"电网故障停限电","poweroffArea":"【全线路停电】停0684144322-顺平县亚江车床加工厂-专变-223573031-顺平县亚江车床加工厂315,南伍侯内-23001950|23001950,南伍侯1840农排|23001840【纯农排变】,南伍侯1230农排|23001230【纯农排变】,0469469657-何忠-专变-46816658-何忠,保定和璧通讯器材有限公司,保定市八木化纤有限公司,保定市恒远机械制件有限公司","poweroffReason":"【停电原因】由于树枝搭线自行脱落造成跳闸导致３５ＫＶ腰山变电站１０ＫＶ５１５造纸厂线路全线停电【变更送电】因抢修进度加快原因，送电时间由１４：００变更为０７：００【发布渠道】通过９５５９８发布","powerTime":"2019-09-02 06:21:55","powerComm":"已送电","subsNo":"","lineNo":"","tgNo":"","tgName":null,"infoStatus":"1","orgName":"国网顺平县电力局","typeName":null,"infoStatusName":null,"dateDay":null,"orgNos":null,"nowTime":null,"countyName":null,"streetName":null,"villageName":null,"roadName":null,"communityName":null,"tranName":null,"sdLineName":null,"cityCode":"1340621","cityName":"国网顺平县电力局","provinceCode":null,"stopTime":"2019-09-02 07:00:00","powerType":"全部","powerOffArea":"【全线路停电】停0684144322-顺平县亚江车床加工厂-专变-223573031-顺平县亚江车床加工厂315,南伍侯内-23001950|23001950,南伍侯1840农排|23001840【纯农排变】,南伍侯1230农排|23001230【纯农排变】,0469469657-何忠-专变-46816658-何忠,保定和璧通讯器材有限公司,保定市八木化纤有限公司,保定市恒远机械制件有限公司","powerOffReason":"【停电原因】由于树枝搭线自行脱落造成跳闸导致３５ＫＶ腰山变电站１０ＫＶ５１５造纸厂线路全线停电【变更送电】因抢修进度加快原因，送电时间由１４：００变更为０７：００【发布渠道】通过９５５９８发布","powerOffId":"2019090213000026"},{"poweroffId":2019090213000021,"sgpoweroffId":null,"subsName":"","lineName":"10kV吴家辛线519","pubTranName":"黄信庄内6,2东古庄外4【纯农排变】,国网河北电动汽车服务有限公司5,1吴家辛内2,1东顾庄内8,2东顾庄外12,2东顾庄外11,东古庄内3,吴家辛内1,1东顾庄内9,1东顾庄内6,1东古庄内5,1东顾庄内7,1大福村内11,2吴家辛外5【纯农排变】,东古庄内1号,黄信庄内1,4农林局东公用,东顾庄小学,东古庄内2号,1东顾庄内4,","scope":"【影响街道/乡镇】清苑镇 【高危重要客户】无 【影响客户】吴家辛、黄信庄、东顾庄、大福村","startTime":"2019-09-02 03:25:59","stopDate":"2019-09-02 11:00:00","orgNo":"1340618","typeCode":"电网故障停限电","poweroffArea":"【全线路停电】停中化道达尔燃油有限公司河北分公司,三林塑印厂,清苑县新兴机件加工部,清苑县天福铸造有限公司,2东顾庄外9【纯农排变】,0651481265-清苑县金卓阳铸造厂(普通合伙)-专变-178901897-清苑县金卓阳铸造厂(普通合伙),西福村外11号【纯农排变】,黄信庄内6,西福村外8号【纯农排变】,1吴家辛内2,2西福村外6【纯农排变】,1东顾庄内8,大福村外15【纯农排变】,2大福村外16【纯农排变】,2东顾庄外12,黄信庄砖厂,清苑县德丰果蔬销售有限公司,2东古庄外5【纯农排变】,2东顾庄外6【纯农排变】,2东顾庄外11,清苑县众诚汽修厂,杨国胜,0598363857-清苑县帅雅特木器加工厂-专变-126426674-清苑县帅雅特木器加工厂,2黄信庄外3【纯农排变】,大福村外13号【纯农排变】,2大福村外11【纯农排变】,2西福村外10【纯农排变】,东古庄内3,1大福村内4【纯农排变】,2东顾庄外10【纯农排变】,2南一村外6,保定市盛福宇威汽车贸易有限公司清苑分公司,东古庄冷冻厂,吴家辛内1,2南三村外1,保定市帅府粮食加工有限公司,保定南苑建材制造有限公司,吴家辛南台,2东古庄外4【纯农排变】,国网河北电动汽车服务有限公司5,2东古庄外3【纯农排变】,2黄信庄外2【纯农排变】,0591943524-清苑县供销社汽车修理厂-专变-125756333-清苑县供销社汽车修理厂,南冉养猪场,南四站村南,清苑县鑫锋机械厂,冀星公司清苑站,2黄信庄外5【纯农排变】,1东顾庄内9,1东顾庄内6,1东古庄内5,0387483830-中国电信集团公司保定市分公司-专变-45311011-保定电信分公司（试验组）,2吴家辛外3【纯农排变】,1东顾庄内7,1大福村内11,2西福村外7【纯农排变】,2东顾庄外8【纯农排变】,2西福村外9【纯农排变】,2大福村外12【纯农排变】,2吴家辛外5【纯农排变】,东古庄内1号,2南一村外5【纯农排变】,中国移动通信集团河北有限公司清苑分公司,2吴家辛外4【纯农排变】,清苑县绿农温室大棚设施销售有限公司,变压器,2东古庄外7【纯农排变】,黄信庄内1,2黄信庄外7【纯农排变】,4农林局东公用,东古庄砖厂小,东顾庄小学,东古庄内2号,2大福村外10【纯农排变】,京石高速保定服务区,1东顾庄内4,2黄信庄外4【纯农排变】,2吴家辛外2【纯农排变】","poweroffReason":"【停电原因】由于主干１号杆开关掉闸导致１１０ＫＶ中冉变电站１０ＫＶ吴家辛线５１９线路全线停电 【变更送电】因抢修进度加快原因，送电时间由１３：００变更为１１：００ 【发布渠道】通过９５５９８发布","powerTime":"2019-09-02 10:23:28","powerComm":"藉德会通知已送电","subsNo":"","lineNo":"","tgNo":"","tgName":null,"infoStatus":"1","orgName":"国网清苑县供电公司","typeName":null,"infoStatusName":null,"dateDay":null,"orgNos":null,"nowTime":null,"countyName":null,"streetName":null,"villageName":null,"roadName":null,"communityName":null,"tranName":null,"sdLineName":null,"cityCode":"1340618","cityName":"国网清苑县供电公司","provinceCode":null,"stopTime":"2019-09-02 11:00:00","powerType":"全部","powerOffArea":"【全线路停电】停中化道达尔燃油有限公司河北分公司,三林塑印厂,清苑县新兴机件加工部,清苑县天福铸造有限公司,2东顾庄外9【纯农排变】,0651481265-清苑县金卓阳铸造厂(普通合伙)-专变-178901897-清苑县金卓阳铸造厂(普通合伙),西福村外11号【纯农排变】,黄信庄内6,西福村外8号【纯农排变】,1吴家辛内2,2西福村外6【纯农排变】,1东顾庄内8,大福村外15【纯农排变】,2大福村外16【纯农排变】,2东顾庄外12,黄信庄砖厂,清苑县德丰果蔬销售有限公司,2东古庄外5【纯农排变】,2东顾庄外6【纯农排变】,2东顾庄外11,清苑县众诚汽修厂,杨国胜,0598363857-清苑县帅雅特木器加工厂-专变-126426674-清苑县帅雅特木器加工厂,2黄信庄外3【纯农排变】,大福村外13号【纯农排变】,2大福村外11【纯农排变】,2西福村外10【纯农排变】,东古庄内3,1大福村内4【纯农排变】,2东顾庄外10【纯农排变】,2南一村外6,保定市盛福宇威汽车贸易有限公司清苑分公司,东古庄冷冻厂,吴家辛内1,2南三村外1,保定市帅府粮食加工有限公司,保定南苑建材制造有限公司,吴家辛南台,2东古庄外4【纯农排变】,国网河北电动汽车服务有限公司5,2东古庄外3【纯农排变】,2黄信庄外2【纯农排变】,0591943524-清苑县供销社汽车修理厂-专变-125756333-清苑县供销社汽车修理厂,南冉养猪场,南四站村南,清苑县鑫锋机械厂,冀星公司清苑站,2黄信庄外5【纯农排变】,1东顾庄内9,1东顾庄内6,1东古庄内5,0387483830-中国电信集团公司保定市分公司-专变-45311011-保定电信分公司（试验组）,2吴家辛外3【纯农排变】,1东顾庄内7,1大福村内11,2西福村外7【纯农排变】,2东顾庄外8【纯农排变】,2西福村外9【纯农排变】,2大福村外12【纯农排变】,2吴家辛外5【纯农排变】,东古庄内1号,2南一村外5【纯农排变】,中国移动通信集团河北有限公司清苑分公司,2吴家辛外4【纯农排变】,清苑县绿农温室大棚设施销售有限公司,变压器,2东古庄外7【纯农排变】,黄信庄内1,2黄信庄外7【纯农排变】,4农林局东公用,东古庄砖厂小,东顾庄小学,东古庄内2号,2大福村外10【纯农排变】,京石高速保定服务区,1东顾庄内4,2黄信庄外4【纯农排变】,2吴家辛外2【纯农排变】","powerOffReason":"【停电原因】由于主干１号杆开关掉闸导致１１０ＫＶ中冉变电站１０ＫＶ吴家辛线５１９线路全线停电 【变更送电】因抢修进度加快原因，送电时间由１３：００变更为１１：００ 【发布渠道】通过９５５９８发布","powerOffId":"2019090213000021"},{"poweroffId":2019090113000236,"sgpoweroffId":null,"subsName":"","lineName":"10kV511洪善堡线","pubTranName":"一队农排5台区【纯农排变】,后市综合4台区,后市综合8台区,北刘佐农排2台区【纯农排变】,后市综合11台区变压器,北刘佐综合3台区,前市综合1台区,洪善堡综合11台区,洪善堡综合9台区,洪善堡农排16台区【纯农排变】,洪善堡综合12台区,北刘佐综合4台区,后市综合7台区,洪善堡综合7台区,洪堡农排1台区【纯农排变】,后市综合3台区,洪善堡综合4台区,后市综合1台区,北佐综合6台区,后市综合5台区,北刘佐综合2台区,前市综合2台区,齐村综合5台区,中佐农排13台区【纯农排变】,齐村综合2台区,洪善堡农排7台区【纯农排变】,前市综合3台区,后市农排9台区变压器【纯农排变】,后市农排5台区【纯农排变】,齐村综合6台区,后市综合10台区,后市农排1台区【纯农排变】,北刘佐综合1台区,齐村综合4台区,洪堡综合6台区,前市综合4台区,洪善堡综合3台区,后市综合9台区,后市综合2台区,洪善堡农排12台区【纯农排变】,后市农排3台区【纯农排变】,洪善堡综合1台区,洪善堡综合5台区,洪善堡综合2台区,后市综合6台区,后市农排4台区【纯农排变】,北刘佐综合5台区,洪善堡农排17台区【纯农排变】,洪善堡综合10台区,齐村综合3台区,齐村综合7台区,齐村综合1台区,北佐综合5台区,后市综合12台区变压器,","scope":"【影响街道/乡镇】南庄镇【高危重要客户】无【影响客户】洪善堡村、后刘市村、北刘佐村、齐村、前刘市村","startTime":"2019-09-01 20:35:00","stopDate":"2019-09-01 22:30:00","orgNo":"1340616","typeCode":"电网故障停限电","poweroffArea":"【全线路停电】停后市综合8台区,洪善堡综合7台区,后市综合11台区变压器,后市综合1台区,后市综合7台区,洪善堡综合3台区,洪善堡综合4台区,北刘佐综合3台区,后市综合3台区,洪善堡综合12台区,后市综合2台区,0469452349-洪堡孙彦卿农业台区-专变-46812916-花厂,洪善堡综合1台区,0469454329-后市宋树模农业台区-专变-46812911-后市宋树模,0469453384-冀宏橡胶制品厂-专变-46812912-洪堡胶厂,后市综合9台区,洪善堡人造皮毛厂,0469453010-中国联合网络通信有限公司蠡县分公司-专变-46812917-中国网通,北佐综合6台区,齐村综合3台区,洪善堡综合10台区,洪善堡农排16台区【纯农排变】,蠡县欧福特汽车用品厂,北刘佐农排2台区【纯农排变】,洪善堡农排4台区【纯农排变】,洪善堡综合11台区,洪善堡农排6台区【纯农排变】,前市综合4台区,后市农排9台区变压器【纯农排变】,后市农排5台区【纯农排变】,蠡县新民养猪场变压器,齐村综合7台区,前市农排1台区【纯农排变】,0469454316-后刘市面粉厂-专变-46812910-后市面粉厂,洪善堡综合5台区,一队农排5台区【纯农排变】,站变,北刘佐综合5台区,洪善堡农排12台区【纯农排变】,后市综合10台区,后市农排3台区【纯农排变】,齐村综合2台区,后市综合12台区变压器,后市综合4台区,齐村综合4台区,齐村农排1台区【纯农排变】,洪善堡综合2台区,洪善堡综合9台区,北刘佐综合2台区,后市综合6台区,中佐农排13台区【纯农排变】,后市农排1台区【纯农排变】,齐村综合6台区,齐村综合1台区,0593173310-蠡县后刘市兴光人造革废料加工厂-专变-125866393-蠡县后刘市兴光人造革废料加工厂,洪善堡农排17台区【纯农排变】,北刘佐综合1台区,洪善堡农排15台区【纯农排变】,洪堡综合6台区,后市综合5台区,北刘佐综合4台区,前市综合1台区,前市综合2台区,后市农排7台区【纯农排变】,洪善堡农排8台区【纯农排变】,齐村综合5台区,北佐综合5台区,洪善堡农排7台区【纯农排变】,0469454808-齐村段贯纯农业二台区-专变-46812914-齐村西北,前市综合3台区,后市农排4台区【纯农排变】,0469453788-齐村段贯纯农业一台区-专变-46812913-齐村东北,洪堡农排1台区【纯农排变】,0469454303-蠡县北刘佐面粉厂-专变-46812920-蠡县北刘佐面粉厂","poweroffReason":"【停电原因】由于线路接地导致３５ＫＶ洪善堡变电站１０ＫＶ洪善堡５１１线路全线停电【变更送电】因抢修进度加快原因，送电时间由９月２日０６：００变更为０９月０１日２２:３０【发布渠道】通过９５５９８发布","powerTime":"2019-09-01 21:42:13","powerComm":"已送电","subsNo":"","lineNo":"","tgNo":"","tgName":null,"infoStatus":"1","orgName":"国网蠡县供电公司","typeName":null,"infoStatusName":null,"dateDay":null,"orgNos":null,"nowTime":null,"countyName":null,"streetName":null,"villageName":null,"roadName":null,"communityName":null,"tranName":null,"sdLineName":null,"cityCode":"1340616","cityName":"国网蠡县供电公司","provinceCode":null,"stopTime":"2019-09-01 22:30:00","powerType":"全部","powerOffArea":"【全线路停电】停后市综合8台区,洪善堡综合7台区,后市综合11台区变压器,后市综合1台区,后市综合7台区,洪善堡综合3台区,洪善堡综合4台区,北刘佐综合3台区,后市综合3台区,洪善堡综合12台区,后市综合2台区,0469452349-洪堡孙彦卿农业台区-专变-46812916-花厂,洪善堡综合1台区,0469454329-后市宋树模农业台区-专变-46812911-后市宋树模,0469453384-冀宏橡胶制品厂-专变-46812912-洪堡胶厂,后市综合9台区,洪善堡人造皮毛厂,0469453010-中国联合网络通信有限公司蠡县分公司-专变-46812917-中国网通,北佐综合6台区,齐村综合3台区,洪善堡综合10台区,洪善堡农排16台区【纯农排变】,蠡县欧福特汽车用品厂,北刘佐农排2台区【纯农排变】,洪善堡农排4台区【纯农排变】,洪善堡综合11台区,洪善堡农排6台区【纯农排变】,前市综合4台区,后市农排9台区变压器【纯农排变】,后市农排5台区【纯农排变】,蠡县新民养猪场变压器,齐村综合7台区,前市农排1台区【纯农排变】,0469454316-后刘市面粉厂-专变-46812910-后市面粉厂,洪善堡综合5台区,一队农排5台区【纯农排变】,站变,北刘佐综合5台区,洪善堡农排12台区【纯农排变】,后市综合10台区,后市农排3台区【纯农排变】,齐村综合2台区,后市综合12台区变压器,后市综合4台区,齐村综合4台区,齐村农排1台区【纯农排变】,洪善堡综合2台区,洪善堡综合9台区,北刘佐综合2台区,后市综合6台区,中佐农排13台区【纯农排变】,后市农排1台区【纯农排变】,齐村综合6台区,齐村综合1台区,0593173310-蠡县后刘市兴光人造革废料加工厂-专变-125866393-蠡县后刘市兴光人造革废料加工厂,洪善堡农排17台区【纯农排变】,北刘佐综合1台区,洪善堡农排15台区【纯农排变】,洪堡综合6台区,后市综合5台区,北刘佐综合4台区,前市综合1台区,前市综合2台区,后市农排7台区【纯农排变】,洪善堡农排8台区【纯农排变】,齐村综合5台区,北佐综合5台区,洪善堡农排7台区【纯农排变】,0469454808-齐村段贯纯农业二台区-专变-46812914-齐村西北,前市综合3台区,后市农排4台区【纯农排变】,0469453788-齐村段贯纯农业一台区-专变-46812913-齐村东北,洪堡农排1台区【纯农排变】,0469454303-蠡县北刘佐面粉厂-专变-46812920-蠡县北刘佐面粉厂","powerOffReason":"【停电原因】由于线路接地导致３５ＫＶ洪善堡变电站１０ＫＶ洪善堡５１１线路全线停电【变更送电】因抢修进度加快原因，送电时间由９月２日０６：００变更为０９月０１日２２:３０【发布渠道】通过９５５９８发布","powerOffId":"2019090113000236"},{"poweroffId":2019090113000235,"sgpoweroffId":null,"subsName":"","lineName":"望双线518","pubTranName":"污水处理厂,葛家村新上北混,葛家村南2号农【纯农排变】,张家村西混合,张家村南混合,望都县高岭乡卫生院,高岭卫生院配变,望都县清源污水处理有限公司2,李家村猪厂农2号【纯农排变】,李家村南混,李家村猪厂农【纯农排变】,马家村内混,小李家村南混1号配变,辣都有限公司,望都县腾龙焊件厂,张家村北混,李家村南边2号混,马家村南农【纯农排变】,葛家村新上农【纯农排变】,河北钢山房地产开发集团有限公司（名都一品C区）,马家村新区,河北宏屹房地产开发有限公司望都第二分公司,葛家村南混合,杨家村信用社配变,望都县鑫鼎机械制造有限公司,河北钢山房地产开发集团有限公司（名都一品C区),张家村幼儿园配变,李家村大枣树农【纯农排变】,","scope":"【影响街道/乡镇】高岭乡、望都镇 【高危重要客户】无 【影响客户】张家村、葛家村、李家村、马家村、辣都有限公司、望都县高岭乡卫生院、望都县腾龙焊件厂、污水处理厂、望都县鑫鼎机械制造有限公司、河北宏屹房地产开发有限公司望都第二分公司、河北钢山房地产开发集团有限公司（名都一品Ｃ区）","startTime":"2019-09-02 00:00:00","stopDate":"2019-09-02 05:00:00","orgNo":"1340623","typeCode":"其他临时停电","poweroffArea":"【全线路停电】停李家村南混,葛家村新上北混,葛家村南2号农【纯农排变】,张家村西混合,望都县高岭乡卫生院,高岭卫生院配变,望都县清源污水处理有限公司2,李家村猪厂农【纯农排变】,小李家村南混1号配变,污水处理厂,张家村南混合,李家村猪厂农2号【纯农排变】,马家村内混,辣都有限公司,望都县腾龙焊件厂,张家村北混,李家村南边2号混,马家村南农【纯农排变】,葛家村新上农【纯农排变】,河北钢山房地产开发集团有限公司（名都一品C区）,马家村新区,河北宏屹房地产开发有限公司望都第二分公司,葛家村南混合,杨家村信用社配变,望都县鑫鼎机械制造有限公司,河北钢山房地产开发集团有限公司（名都一品C区),张家村幼儿园配变,李家村大枣树农【纯农排变】","poweroffReason":"【停电原因】由于望双线５１８线路００８号电杆倾斜，需停电进行紧急消缺导致１１０ＫＶ望都变电站望双线５１８线路全线停电 【变更送电】无 【发布渠道】通过９５５９８发布","powerTime":"2019-09-02 04:04:35","powerComm":"已送电","subsNo":"","lineNo":"","tgNo":"","tgName":null,"infoStatus":"1","orgName":"国网望都县供电公司","typeName":null,"infoStatusName":null,"dateDay":null,"orgNos":null,"nowTime":null,"countyName":null,"streetName":null,"villageName":null,"roadName":null,"communityName":null,"tranName":null,"sdLineName":null,"cityCode":"1340623","cityName":"国网望都县供电公司","provinceCode":null,"stopTime":"2019-09-02 05:00:00","powerType":"全部","powerOffArea":"【全线路停电】停李家村南混,葛家村新上北混,葛家村南2号农【纯农排变】,张家村西混合,望都县高岭乡卫生院,高岭卫生院配变,望都县清源污水处理有限公司2,李家村猪厂农【纯农排变】,小李家村南混1号配变,污水处理厂,张家村南混合,李家村猪厂农2号【纯农排变】,马家村内混,辣都有限公司,望都县腾龙焊件厂,张家村北混,李家村南边2号混,马家村南农【纯农排变】,葛家村新上农【纯农排变】,河北钢山房地产开发集团有限公司（名都一品C区）,马家村新区,河北宏屹房地产开发有限公司望都第二分公司,葛家村南混合,杨家村信用社配变,望都县鑫鼎机械制造有限公司,河北钢山房地产开发集团有限公司（名都一品C区),张家村幼儿园配变,李家村大枣树农【纯农排变】","powerOffReason":"【停电原因】由于望双线５１８线路００８号电杆倾斜，需停电进行紧急消缺导致１１０ＫＶ望都变电站望双线５１８线路全线停电 【变更送电】无 【发布渠道】通过９５５９８发布","powerOffId":"2019090113000235"},{"poweroffId":2019090113000224,"sgpoweroffId":null,"subsName":"","lineName":"十五计线511","pubTranName":"太平庄东农1号配变【纯农排变】,职教中心2号,实验学校电供暖2号配变,大十五计樱桃园2号农配变【纯农排变】,赵庄村北混配变,职业技术教育中心4号配变,职教中心1号,试验学校配变,大十五计东北混2号配变,职业技术教育中心3号配变,实验中学配变,","scope":"【影响街道/乡镇】赵庄乡 【高危重要客户】无 【影响客户】赵庄村部分农业、大十五计部分农业、太平庄部分农业、小十五计部分农业、河北民得富生物技术有限公司、保定民得富新型肥料有限公司、保定市科绿丰生化科技有限公司、望都县进拴养殖场、保定天川食品有限公司、凯恩机电设备有限公司、赵庄粮食购销站、河北省望都县职业技术教育中心、实验学校、泰利城金属结构构件公司、巨涛橡胶制品、第一电瓷电器厂、红星塑料市场、保定中科橡塑、周胜利塑料厂、河北甘露节水设备科技有限公司、望都县途步鞋材有限公司、河北钢山杭萧钢结构工程股份有限公司、保定大通铸锻有限公司、河北香辛调味品有限公司、大十五计塑料加工、望都县连生橡塑制品销售站、望都县旺绣园鞋厂、望都县天成塑业有限公司、实验中学、保定天宏食品有限公司、保定中科橡塑制品有限公司","startTime":"2019-09-01 19:34:22","stopDate":"2019-09-01 23:00:00","orgNo":"1340623","typeCode":"电网故障停限电","poweroffArea":"【全线路停电】停变压器,太平庄东农2号配变【纯农排变】,大十五计东农4号配变【纯农排变】,太平庄东农1号配变【纯农排变】,0679186180-河北钢山杭萧钢结构工程股份有限公司-专变-218832302-河北钢山杭萧钢结构工程股份有限公司,保定善本印刷有限公司,大十五计新农配变【纯农排变】,保定大通铸锻有限公司,大十五计东农配变【纯农排变】,赵庄粮食购销站,大十五计南农配变【纯农排变】,红星塑料市场,周胜利塑料厂,望都县连生橡塑制品销售站,大十五计塑料加工,望都县旺绣园鞋厂,望都县天成塑业有限公司,0469549081-河北甘露节水设备科技有限公司-专变-46837118-太平庄管厂2号,职教中心1号,赵庄村路边南农配变【纯农排变】,太平庄村东管农业【纯农排变】,大十五计东农3号配变【纯农排变】,实验中学配变,试验学校配变,保定天宏食品有限公司,大十五计东北混,职业技术教育中心4号配变,凯恩机电设备有限公司,保定天川食品有限公司,大十五计东北混2号配变,红星市场,职教中心2号,保定中科橡塑制品有限公司,赵庄村北混配变,河北香辛调味品有限公司,大十五计北混配变,职业技术教育中心3号配变,望都县进拴养殖场,河北钢山杭萧钢结构工程股份有限公司,赵庄果园农业配变【纯农排变】,望都县占武养鸡场,大十五计路东农业配变【纯农排变】,保定中科门窗制造有限公司,赵庄东南农业配变【纯农排变】,保定民得富新型肥料有限公司,大十五计东农2号配变【纯农排变】,河北民得富生物技术有限公司,赵庄村东混配变,赵庄村东农配变【纯农排变】,大十五计樱桃园2号农配变【纯农排变】,实验学校电供暖2号配变,河北省望都县职业技术教育中心,第一电瓷电器厂,保定市科绿丰生化科技有限公司,太平庄铁道东配变【纯农排变】","poweroffReason":"【停电原因】由于用户设备故障导致３５ＫＶ工业变电站十五计线５１１线路全线停电 【变更送电】因抢修进度加快原因，送电时间由０２日１８：００变更为０１日２３：００ 【发布渠道】通过９５５９８发布","powerTime":"2019-09-01 22:18:24","powerComm":"已送电","subsNo":"","lineNo":"","tgNo":"","tgName":null,"infoStatus":"1","orgName":"国网望都县供电公司","typeName":null,"infoStatusName":null,"dateDay":null,"orgNos":null,"nowTime":null,"countyName":null,"streetName":null,"villageName":null,"roadName":null,"communityName":null,"tranName":null,"sdLineName":null,"cityCode":"1340623","cityName":"国网望都县供电公司","provinceCode":null,"stopTime":"2019-09-01 23:00:00","powerType":"全部","powerOffArea":"【全线路停电】停变压器,太平庄东农2号配变【纯农排变】,大十五计东农4号配变【纯农排变】,太平庄东农1号配变【纯农排变】,0679186180-河北钢山杭萧钢结构工程股份有限公司-专变-218832302-河北钢山杭萧钢结构工程股份有限公司,保定善本印刷有限公司,大十五计新农配变【纯农排变】,保定大通铸锻有限公司,大十五计东农配变【纯农排变】,赵庄粮食购销站,大十五计南农配变【纯农排变】,红星塑料市场,周胜利塑料厂,望都县连生橡塑制品销售站,大十五计塑料加工,望都县旺绣园鞋厂,望都县天成塑业有限公司,0469549081-河北甘露节水设备科技有限公司-专变-46837118-太平庄管厂2号,职教中心1号,赵庄村路边南农配变【纯农排变】,太平庄村东管农业【纯农排变】,大十五计东农3号配变【纯农排变】,实验中学配变,试验学校配变,保定天宏食品有限公司,大十五计东北混,职业技术教育中心4号配变,凯恩机电设备有限公司,保定天川食品有限公司,大十五计东北混2号配变,红星市场,职教中心2号,保定中科橡塑制品有限公司,赵庄村北混配变,河北香辛调味品有限公司,大十五计北混配变,职业技术教育中心3号配变,望都县进拴养殖场,河北钢山杭萧钢结构工程股份有限公司,赵庄果园农业配变【纯农排变】,望都县占武养鸡场,大十五计路东农业配变【纯农排变】,保定中科门窗制造有限公司,赵庄东南农业配变【纯农排变】,保定民得富新型肥料有限公司,大十五计东农2号配变【纯农排变】,河北民得富生物技术有限公司,赵庄村东混配变,赵庄村东农配变【纯农排变】,大十五计樱桃园2号农配变【纯农排变】,实验学校电供暖2号配变,河北省望都县职业技术教育中心,第一电瓷电器厂,保定市科绿丰生化科技有限公司,太平庄铁道东配变【纯农排变】","powerOffReason":"【停电原因】由于用户设备故障导致３５ＫＶ工业变电站十五计线５１１线路全线停电 【变更送电】因抢修进度加快原因，送电时间由０２日１８：００变更为０１日２３：００ 【发布渠道】通过９５５９８发布","powerOffId":"2019090113000224"}],"pageModel":{"pageNow":592,"totalCount":10973,"totalPage":1098,"tableRows":0,"pageCount":10,"beginCount":5910},"isExperi":"1"}