{"message":"","today":"2020-06-15","seleList":[{"poweroffId":2019090113000055,"sgpoweroffId":null,"subsName":"","lineName":"王各庄线516","pubTranName":"北长峪0816变压器,豆铺1319变压器,葛庄5233变压器,豆铺村4717变压器,老姑4758变压器,闫庄子1321变压器,侯合庄1315变压器,王各庄1314变压器,柏山0784变压器,侯合庄1316变压器,豆铺水利变压器,北长峪3160变压器,葛庄1317台区变压器,南齐家佐3162变压器,管家佐4630变压器,闫庄子2627变压器,闫庄子4931变压器,管家佐0829变压器,豆铺5038变压器,管家佐1419变压器,王各庄1313变压器,闫庄子1322变压器,葛庄6129变压器,王各庄4930变压器,葛庄2123变压器,侯合庄4577变压器,葛庄1318变压器,老姑0810变压器,管家佐4668变压器,老姑4781变压器,北庄子0806变压器,","scope":"【影响街道/乡镇】白合镇【高危重要客户】无【影响客户】柏山村、各庄村、北长峪村、南齐家佐村、后各庄村、老姑村、北庄子村、阎庄子村、管家佐村、王各庄村、豆铺村","startTime":"2019-09-11 05:30:00","stopDate":"2019-09-11 18:00:00","orgNo":"1340622","typeCode":"计划停电","poweroffArea":"【全线路停电】停葛庄1318变压器,北庄子2186变压器,唐县祥宇水泥砖厂变压器,管家佐4630变压器,侯合庄4577变压器,卧佛寺水库,北长峪3160变压器,唐县盛玉石料厂3324,豆铺水利变压器,管家佐0829变压器,王各庄1313变压器,豆铺2893变压器,唐县益民石材有限公司2792,南齐家佐3162变压器,管家佐张小月1761,侯合庄1315变压器,葛庄6129变压器,唐县王各庄石料厂3256,老姑4781变压器,唐县国泰建材销售有限公司5180,唐县白合镇白合碎石场,豆铺5038变压器,唐县鑫鹏矿产品加工有限公司新装配变5011,唐县豆明矿产品加工厂,北长峪0816变压器,葛庄2123变压器,侯合庄1316变压器,唐县葛庄兴民建材有限公司2921,老姑0810变压器,葛庄5233变压器,闫庄子1321变压器,王各庄4930变压器,卧佛寺灰粉厂2604,唐县京远矿产品销售有限公司10KV配变,豆铺村4717变压器,闫庄子4931变压器,王合庄石料厂1871,李建国1754,河北交通工程建设有限公司3171,王各庄1312变压器,闫庄子1322变压器,唐县益民石材有限公司,葛庄1317台区变压器,保能唐县光伏电力开发有限公司5300,王各庄1314变压器,柏山0784变压器,闫庄子2627变压器,北庄子0806变压器,中开胜达加工厂10KV配变,南齐家佐1843变压器,管家佐1419变压器,北长峪4792变压器,恒山庄园,盛玉石料厂1329,红星木工厂0831,胜利砖厂0828,利民面粉厂0918,配变,老姑4758变压器,管家佐4668变压器,豆铺1319变压器","poweroffReason":"【停电原因】由于站内工作导致３５ＫＶ齐家佐变电站王各庄线５１６线路全线停电【变更送电】无【发布渠道】保定市唐县电视台（０９月０１日至０９月１０日的２０：００时至２０：３０时之间）屏幕上方滚动字幕","powerTime":"2019-09-11 17:47:01","powerComm":"已送电","subsNo":"","lineNo":"","tgNo":"","tgName":null,"infoStatus":"1","orgName":"国网唐县供电公司","typeName":null,"infoStatusName":null,"dateDay":null,"orgNos":null,"nowTime":null,"countyName":null,"streetName":null,"villageName":null,"roadName":null,"communityName":null,"tranName":null,"sdLineName":null,"cityCode":"1340622","cityName":"国网唐县供电公司","provinceCode":null,"stopTime":"2019-09-11 18:00:00","powerType":"全部","powerOffArea":"【全线路停电】停葛庄1318变压器,北庄子2186变压器,唐县祥宇水泥砖厂变压器,管家佐4630变压器,侯合庄4577变压器,卧佛寺水库,北长峪3160变压器,唐县盛玉石料厂3324,豆铺水利变压器,管家佐0829变压器,王各庄1313变压器,豆铺2893变压器,唐县益民石材有限公司2792,南齐家佐3162变压器,管家佐张小月1761,侯合庄1315变压器,葛庄6129变压器,唐县王各庄石料厂3256,老姑4781变压器,唐县国泰建材销售有限公司5180,唐县白合镇白合碎石场,豆铺5038变压器,唐县鑫鹏矿产品加工有限公司新装配变5011,唐县豆明矿产品加工厂,北长峪0816变压器,葛庄2123变压器,侯合庄1316变压器,唐县葛庄兴民建材有限公司2921,老姑0810变压器,葛庄5233变压器,闫庄子1321变压器,王各庄4930变压器,卧佛寺灰粉厂2604,唐县京远矿产品销售有限公司10KV配变,豆铺村4717变压器,闫庄子4931变压器,王合庄石料厂1871,李建国1754,河北交通工程建设有限公司3171,王各庄1312变压器,闫庄子1322变压器,唐县益民石材有限公司,葛庄1317台区变压器,保能唐县光伏电力开发有限公司5300,王各庄1314变压器,柏山0784变压器,闫庄子2627变压器,北庄子0806变压器,中开胜达加工厂10KV配变,南齐家佐1843变压器,管家佐1419变压器,北长峪4792变压器,恒山庄园,盛玉石料厂1329,红星木工厂0831,胜利砖厂0828,利民面粉厂0918,配变,老姑4758变压器,管家佐4668变压器,豆铺1319变压器","powerOffReason":"【停电原因】由于站内工作导致３５ＫＶ齐家佐变电站王各庄线５１６线路全线停电【变更送电】无【发布渠道】保定市唐县电视台（０９月０１日至０９月１０日的２０：００时至２０：３０时之间）屏幕上方滚动字幕","powerOffId":"2019090113000055"},{"poweroffId":2019090113000053,"sgpoweroffId":null,"subsName":"","lineName":"齐家佐线514","pubTranName":"全胜庄0789台区变压器,三道岗南1834台区变压器,北马峪北1306台区变压器,0546787771-中国铁塔股份有限公司保定分公司-专变-47914588-中国电信马家峪,南齐家佐村西1719台区变压器,泡水汪1303台区变压器,马家峪公用6142变压器,全胜庄1299台区变压器,马家峪4938台区变压器,杨家庵台区变压器,栗园庄村南1368台区变压器,全胜庄3163台区变压器,南齐家佐4528台区变压器,马家峪（白石沟）1307台区变压器,北齐家佐3049变压器,杨家庵水利0815台区变压器,三道岗北1308台区变压器,北齐家佐村东1696台区变压器,栗园庄1297台区变压器,北齐家佐4084台区变压器,全胜庄5034台区变压器,北齐家佐村西1296变压器,南齐家佐村东0830台区变压器,北齐家佐北水1311台区变压器,马家峪村东2187台区变压器,革命大渠0799,三道岗北2185台区变压器,保定旭通矿业有限公司3443,栗园庄村北0813台区变压器,岭儿北0790台区变压器,0681068795-葛公(清虚山)-专变-219719968-葛公(清虚山)10KV配变,马家峪4799台区变压器,马家峪东1304台区变压器,0387523013-唐县王各庄石料厂-专变-45340028-唐县王各庄石料厂3296,杨家庵0814台区变压器,马家峪东1305台区变压器,栗园庄台区变压器,","scope":"【影响街道/乡镇】齐家佐乡【高危重要客户】无【影响客户】大张合庄泡水旺、南齐家佐、三道岗、岭尔北、马家峪、栗元庄、杨家奄、全胜庄、北齐家佐、齐家佐","startTime":"2019-09-11 05:30:00","stopDate":"2019-09-11 18:00:00","orgNo":"1340622","typeCode":"计划停电","poweroffArea":"【全线路停电】停马家峪4938台区变压器,三道岗北1308台区变压器,南齐家佐4528台区变压器,北齐家佐3049变压器,0681068795-葛公(清虚山)-专变-219719968-葛公(清虚山)10KV配变,杨家庵水利0815台区变压器,栗园庄村北0813台区变压器,杨家庵0814台区变压器,革命大渠0799,栗园庄村南1368台区变压器,三道岗南1834台区变压器,马家峪（白石沟）1307台区变压器,全胜庄3163台区变压器,杨家庵台区变压器,全胜庄1299台区变压器,马家峪公用6142变压器,马家峪4799台区变压器,全胜庄5034台区变压器,马家峪东1304台区变压器,北齐家佐北水1311台区变压器,栗园庄1297台区变压器,马家峪村东2187台区变压器,保定旭通矿业有限公司3443,三道岗北2185台区变压器,北齐家佐村西1296变压器,岭儿北0790台区变压器,0387523013-唐县王各庄石料厂-专变-45340028-唐县王各庄石料厂3296,栗园庄台区变压器,北齐家佐4084台区变压器,南齐家佐村东0830台区变压器,北马峪北1306台区变压器,0546787771-中国铁塔股份有限公司保定分公司-专变-47914588-中国电信马家峪,马家峪东1305台区变压器,全胜庄0789台区变压器,泡水汪1303台区变压器,南齐家佐村西1719台区变压器,北齐家佐村东1696台区变压器","poweroffReason":"【停电原因】由于站内工作导致３５ＫＶ齐家佐变电站齐家佐线５１４线路全线停电【变更送电】无【发布渠道】保定市唐县电视台（０９月０１日至０９月１０日的２０：００时至２０：３０时之间）屏幕上方滚动字幕","powerTime":"2019-09-11 17:47:29","powerComm":"已送电","subsNo":"","lineNo":"","tgNo":"","tgName":null,"infoStatus":"1","orgName":"国网唐县供电公司","typeName":null,"infoStatusName":null,"dateDay":null,"orgNos":null,"nowTime":null,"countyName":null,"streetName":null,"villageName":null,"roadName":null,"communityName":null,"tranName":null,"sdLineName":null,"cityCode":"1340622","cityName":"国网唐县供电公司","provinceCode":null,"stopTime":"2019-09-11 18:00:00","powerType":"全部","powerOffArea":"【全线路停电】停马家峪4938台区变压器,三道岗北1308台区变压器,南齐家佐4528台区变压器,北齐家佐3049变压器,0681068795-葛公(清虚山)-专变-219719968-葛公(清虚山)10KV配变,杨家庵水利0815台区变压器,栗园庄村北0813台区变压器,杨家庵0814台区变压器,革命大渠0799,栗园庄村南1368台区变压器,三道岗南1834台区变压器,马家峪（白石沟）1307台区变压器,全胜庄3163台区变压器,杨家庵台区变压器,全胜庄1299台区变压器,马家峪公用6142变压器,马家峪4799台区变压器,全胜庄5034台区变压器,马家峪东1304台区变压器,北齐家佐北水1311台区变压器,栗园庄1297台区变压器,马家峪村东2187台区变压器,保定旭通矿业有限公司3443,三道岗北2185台区变压器,北齐家佐村西1296变压器,岭儿北0790台区变压器,0387523013-唐县王各庄石料厂-专变-45340028-唐县王各庄石料厂3296,栗园庄台区变压器,北齐家佐4084台区变压器,南齐家佐村东0830台区变压器,北马峪北1306台区变压器,0546787771-中国铁塔股份有限公司保定分公司-专变-47914588-中国电信马家峪,马家峪东1305台区变压器,全胜庄0789台区变压器,泡水汪1303台区变压器,南齐家佐村西1719台区变压器,北齐家佐村东1696台区变压器","powerOffReason":"【停电原因】由于站内工作导致３５ＫＶ齐家佐变电站齐家佐线５１４线路全线停电【变更送电】无【发布渠道】保定市唐县电视台（０９月０１日至０９月１０日的２０：００时至２０：３０时之间）屏幕上方滚动字幕","powerOffId":"2019090113000053"},{"poweroffId":2019090113000051,"sgpoweroffId":null,"subsName":"","lineName":"葛公线513","pubTranName":"大张合庄4953变压器,史家佐0808变压器,大张合庄4154变压器,北洪城2205变压器,史家佐6018变压器,史家佐3120变压器,南洪城4447变压器,葛公6604台区,史家佐东1290变压器,葛公5039变压器,葛公0865变压器,史家佐0803变压器,南洪城4785变压器,峰山0846变压器,史家佐3045变压器,史家佐5033变压器,范河1293变压器,大张合庄村西1291变压器,大张合庄村东0849变压器,葛公水5048变压器,南洪城4952变压器,史家佐6160台区,南洪城村北1294变压器,南洪城村西2188变压器,史家佐6017变压器,西胜沟4509变压器,北洪城0886变压器,西胜沟0863变压器,北洪城4172变压器,葛公2985变压器,南洪城6019变压器,葛公4289变压器,史家佐2819变压器,南洪城0891变压器,大张合庄4526变压器,葛公1292变压器,北洪城村北5037变压器,","scope":"【影响街道/乡镇】齐家佐乡【高危重要客户】无【影响客户】大张合庄村、南洪城村、史家佐村、北洪城村、范河村、西胜沟村、各公村","startTime":"2019-09-11 05:30:00","stopDate":"2019-09-11 18:00:00","orgNo":"1340622","typeCode":"计划停电","poweroffArea":"【全线路停电】停唐县范河农业灌溉1新装配变,唐县鸿泰石膏板厂计量点配变,史家佐2819变压器,葛公2985变压器,葛公水5048变压器,史家佐3120变压器,南洪城村北1294变压器,西胜沟风景名胜区2924,大张合庄村东0849变压器,南洪城0891变压器,北洪城0886变压器,史家佐6017变压器,峰山0846变压器,史家佐水泥砖厂2462,北洪城2205变压器,葛公1292变压器,唐县史家佐瓷土矿业有限公司10KV配变200KVA,南洪城4447变压器,史家佐3045变压器,唐县范河村农业灌溉3,史家佐0803变压器,西胜沟0863变压器,北洪城4172变压器,史家佐5033变压器,唐县森兴新能源开发有限公司10KV配变,史家佐3120,史家佐6018变压器,葛公0865变压器,大张合庄村西1291变压器,葛公6604台区,唐县胜鹏林果种植服务农民专业合作社10KV配变,史家佐东1290变压器,南洪城4785变压器,唐县北洪城农业灌溉2新装配变,唐县范河村农业灌溉2新装,大张合庄4526变压器,唐县北洪城农业灌溉1新装配变,北洪城村北5037变压器,南洪城6019变压器,南洪城4952变压器,葛公4289变压器,西胜沟4509变压器,北洪城0851变压器,史家佐水4206变压器,大张合庄4154变压器,大张合庄4953变压器,史家佐0808变压器,史家佐6160台区,范河1293变压器,葛公5039变压器,南洪城村西2188变压器,唐县史家佐瓷土矿业有限公司","poweroffReason":"【停电原因】由于站内工作导致３５ＫＶ齐家佐变电站葛公线５１３线路全线停电【变更送电】无【发布渠道】保定市唐县电视台（０９月０１日至０９月１０日的２０：００时至２０：３０时之间）屏幕上方滚动字幕","powerTime":"2019-09-11 17:48:52","powerComm":"已送电","subsNo":"","lineNo":"","tgNo":"","tgName":null,"infoStatus":"1","orgName":"国网唐县供电公司","typeName":null,"infoStatusName":null,"dateDay":null,"orgNos":null,"nowTime":null,"countyName":null,"streetName":null,"villageName":null,"roadName":null,"communityName":null,"tranName":null,"sdLineName":null,"cityCode":"1340622","cityName":"国网唐县供电公司","provinceCode":null,"stopTime":"2019-09-11 18:00:00","powerType":"全部","powerOffArea":"【全线路停电】停唐县范河农业灌溉1新装配变,唐县鸿泰石膏板厂计量点配变,史家佐2819变压器,葛公2985变压器,葛公水5048变压器,史家佐3120变压器,南洪城村北1294变压器,西胜沟风景名胜区2924,大张合庄村东0849变压器,南洪城0891变压器,北洪城0886变压器,史家佐6017变压器,峰山0846变压器,史家佐水泥砖厂2462,北洪城2205变压器,葛公1292变压器,唐县史家佐瓷土矿业有限公司10KV配变200KVA,南洪城4447变压器,史家佐3045变压器,唐县范河村农业灌溉3,史家佐0803变压器,西胜沟0863变压器,北洪城4172变压器,史家佐5033变压器,唐县森兴新能源开发有限公司10KV配变,史家佐3120,史家佐6018变压器,葛公0865变压器,大张合庄村西1291变压器,葛公6604台区,唐县胜鹏林果种植服务农民专业合作社10KV配变,史家佐东1290变压器,南洪城4785变压器,唐县北洪城农业灌溉2新装配变,唐县范河村农业灌溉2新装,大张合庄4526变压器,唐县北洪城农业灌溉1新装配变,北洪城村北5037变压器,南洪城6019变压器,南洪城4952变压器,葛公4289变压器,西胜沟4509变压器,北洪城0851变压器,史家佐水4206变压器,大张合庄4154变压器,大张合庄4953变压器,史家佐0808变压器,史家佐6160台区,范河1293变压器,葛公5039变压器,南洪城村西2188变压器,唐县史家佐瓷土矿业有限公司","powerOffReason":"【停电原因】由于站内工作导致３５ＫＶ齐家佐变电站葛公线５１３线路全线停电【变更送电】无【发布渠道】保定市唐县电视台（０９月０１日至０９月１０日的２０：００时至２０：３０时之间）屏幕上方滚动字幕","powerOffId":"2019090113000051"},{"poweroffId":2019090113000048,"sgpoweroffId":null,"subsName":"","lineName":"10kV516北高晃线","pubTranName":"北高晃综合6台区,西柳青综合8台区,西柳青综合7台区,北高晃综合5台区,沈庄综合2台区,北高晃综合4台区,北高晃农排2台区【纯农排变】,西柳青综合6台区,段庄农排2台区【纯农排变】,保定永祥橡胶输送设备制造有限公司500KVA,沈庄综合10台区,八里庄农排6台区【纯农排变】,西柳青农排11台区【纯农排变】,沈庄综合9台区,蠡县永丰再生胶315,西柳青农排14台区【纯农排变】,西柳青农排7台区【纯农排变】,北高晃综合16台区,沈庄综合7台区,北高晃农排8台区【纯农排变】,北高晃综合14台区,保定燕兆化工有限公司变压器,高晃农业高深南,西柳青农排10台区【纯农排变】,西柳青综合9台区,西柳青农排5台区【纯农排变】,蠡县永丰再生胶厂变压器,西柳青综合3台区,高晃农业高深北,西柳青河南南,西柳青农排6台区【纯农排变】,蠡县永丰再生胶500,北高晃第一纺织厂,蠡县西柳青华宇纺织厂,北高晃纺纱厂,沈庄农排2台区【纯农排变】,八里庄农排5台区【纯农排变】,沈庄农排3台区【纯农排变】,北高晃综合8台区,沈庄综合3台区,北高晃堤上农业,蠡县铭福通盛服装制造厂,北高晃综合13台区,北高晃农排7台区【纯农排变】,北高晃综合12台区,沈庄农排1台区【纯农排变】,沈庄综合1台区,保定永祥橡胶输送设备制造有限公司,洪江塑料厂,北高晃综合9台区,八里庄面粉厂,八里庄农排7台区【纯农排变】,北高晃综合15台区,北高晃综合7台区,西柳青农排12台区【纯农排变】,段庄综合2台区,北高晃农排3台区【纯农排变】,北高晃农排1台区【纯农排变】,段庄综合1台区,北高晃综合2台区,北高晃综合10台区,西柳青综合4台区,北高晃农排11台区【纯农排变】,西柳青综合2台区,河北云岭生物科技有限公司变压器,段庄综合3台区,北高晃综合1台区,沈庄开花厂,西柳青吃水井,沈庄综合6台区,西柳青农排8台区【纯农排变】,西柳青农排1台区【纯农排变】,北高晃综合11台区,蠡县航轩饲养场变压器,高晃鸡场,南板,西柳青综合1台区,沈庄综合5台区,蠡县纺纱厂变压器,北高晃农排4台区【纯农排变】,西柳青综合11台区,西柳青综合5台区,蠡县沈庄扎花厂变压器,北高晃农排9台区【纯农排变】,北高晃农排5台区【纯农排变】,高晃堤内农用,北高晃综合3台区,站变,西柳青农排13台区【纯农排变】,西柳青农排3台区【纯农排变】,西柳青农排9台区【纯农排变】,西柳青农排4台区【纯农排变】,西柳青综合10台区,北高晃农排6台区【纯农排变】,北高晃堤南农业,西柳青农排2台区【纯农排变】,北高晃农排10台区【纯农排变】,","scope":"【影响街道/乡镇】蠡吾镇【高危重要客户】无【影响客户】北高晃村、八里庄村、西柳青村、段庄村、沈庄村（沈河庄村）","startTime":"2019-09-01 09:00:00","stopDate":"2019-09-01 13:00:00","orgNo":"1340616","typeCode":"其他临时停电","poweroffArea":"【全线路停电】停西柳青综合5台区,北高晃综合9台区,西柳青农排2台区【纯农排变】,西柳青综合7台区,北高晃第一纺织厂,北高晃综合13台区,蠡县西柳青华宇纺织厂,西柳青河南南,西柳青农排11台区【纯农排变】八里庄农排7台区【纯农排变】,蠡县航轩饲养场变压器,西柳青农排8台区【纯农排变】,段庄综合1台区,西柳青综合1台区,保定永祥橡胶输送设备制造有限公司,西柳青农排13台区","poweroffReason":"【停电原因】由于线夹接虚过热，需停电进行紧急消缺导致３５ＫＶ王庄变电站１０ＫＶ北高晃５１６线路全线停电【变更送电】因工作进度加快原因，送电时间由１５：００变更为１３：００【发布渠道】通过９５５９８发布","powerTime":"2019-09-01 12:23:00","powerComm":"已送电","subsNo":"","lineNo":"","tgNo":"","tgName":null,"infoStatus":"1","orgName":"国网蠡县供电公司","typeName":null,"infoStatusName":null,"dateDay":null,"orgNos":null,"nowTime":null,"countyName":null,"streetName":null,"villageName":null,"roadName":null,"communityName":null,"tranName":null,"sdLineName":null,"cityCode":"1340616","cityName":"国网蠡县供电公司","provinceCode":null,"stopTime":"2019-09-01 13:00:00","powerType":"全部","powerOffArea":"【全线路停电】停西柳青综合5台区,北高晃综合9台区,西柳青农排2台区【纯农排变】,西柳青综合7台区,北高晃第一纺织厂,北高晃综合13台区,蠡县西柳青华宇纺织厂,西柳青河南南,西柳青农排11台区【纯农排变】八里庄农排7台区【纯农排变】,蠡县航轩饲养场变压器,西柳青农排8台区【纯农排变】,段庄综合1台区,西柳青综合1台区,保定永祥橡胶输送设备制造有限公司,西柳青农排13台区","powerOffReason":"【停电原因】由于线夹接虚过热，需停电进行紧急消缺导致３５ＫＶ王庄变电站１０ＫＶ北高晃５１６线路全线停电【变更送电】因工作进度加快原因，送电时间由１５：００变更为１３：００【发布渠道】通过９５５９８发布","powerOffId":"2019090113000048"},{"poweroffId":2019090113000026,"sgpoweroffId":null,"subsName":"","lineName":"太保营线514","pubTranName":"北高桥18号,徐水县祥久金属材料焊接加工厂,保定均合金属材料有限公司,南高桥11号,师庄6号【纯农排变】,河北爱博欣农业有限公司,南高桥4号【纯农排变】,留东营4号,常乐4号【纯农排变】,太保营10号,李丰收林业养殖场,东庄3号【纯农排变】,太保营23号,南高桥1号【纯农排变】,南高桥5号【纯农排变】,太保营14号,保定市徐水区留村乡中学,南庄1号,常乐10号,北高桥6号【纯农排变】,保定凯达石油产品销售有限公司,保定市徐水区二力钢结构制品经销处,保定市润丰实业有限公司,保定市亨通乐汽车贸易有限公司,师庄12号,太保营21号,太保营16号,北高桥19号,常乐2号,太保营1号,刘东营面粉二厂,变压器,太保营20号,东庄1号,保定市徐水区留村乡师庄小学,南高桥8号【纯农排变】,南高桥12号,师庄9号,南高桥16号,南高桥7号【纯农排变】,南高桥9号【纯农排变】,师庄1号,保定市徐水区北常保东奇五金建材经销处,太保营26号,保定五洲汽车销售服务有限公司,田庄4号【纯农排变】,师庄2号【纯农排变】,南高桥3号【纯农排变】,师庄16号,南高桥18号,常乐9号,常乐6号,南高桥15号,北高桥2号【纯农排变】,常乐14号,太保营13号,东庄4号【纯农排变】,保定轲龙废旧金属回收有限公司,师庄4号【纯农排变】,南高桥14号【纯农排变】,保定市徐水区全乐编制制品厂,客户投资_常乐12号,太保营18号,留东营2号,华威汽车装饰件厂,精华碳素厂,南高桥10号,保定市恒领汽车贸易有限公司,师庄3号,保定市德刚商贸有限公司,太保营5号,太保营7号,留东营3号【纯农排变】,师庄7号,保定市浩宇伟业汽车贸易有限公司,太保营4号,师庄11号,太保营17号,保定市津瑞建筑混凝土有限公司,太保营9号,保定是润丰实业有限公司,常乐11号,田庄3号,师庄10号,南高桥6号【纯农排变】,保定市正汇包装彩印有限公司,南高桥13号,保定市祥瑞制冷设备有限公司,南庄3号【纯农排变】,太保营3号,南高桥17号,常乐5号,保定市鑫茆达再生资源回收有限公司,南高桥2号,保定市徐水区正旭构件厂,太保营11号,太保营28号,太保营15号,太保营19号,常乐8号【纯农排变】,师庄14号,留东营1号,太保营12号,田庄1号【纯农排变】,留东营8号,太保营22号,师庄5号,常乐3号【纯农排变】,常乐7号【纯农排变】,太保营6号,师庄15号,太保营27号,留东营5号【纯农排变】,留东营7号【纯农排变】,徐水县新兴节能耐火材料厂,常乐13号,0682547015-河北悦康志德医药贸易有限公司-专变-221712106-河北悦康志德医药贸易有限公司,太保营8号【纯农排变】,保定市徐水区留村乡南高桥小学,常乐1号,师庄8号,留东营6号【纯农排变】,东庄5号,太保营24号,南庄2号【纯农排变】,太保营2号,南庄4号【纯农排变】,师庄13号,东庄2号,田庄2号,","scope":"【影响街道/乡镇】留村镇 【高危重要客户】无 【影响客户】北高桥村、南高桥村、留东营村、东庄村、南庄村、田庄村、师庄村、常乐村、太保营","startTime":"2019-09-01 07:12:00","stopDate":"2019-09-01 09:00:00","orgNo":"1340605","typeCode":"电网故障停限电","poweroffArea":"【全线路停电】停常乐10号,太保营15号,北高桥19号,常乐2号,太保营20号,南高桥14号【纯农排变】,太保营14号,保定市徐水区留村乡中学,北高桥18号,师庄6号【纯农排变】,田庄1号【纯农排变】,南庄4号【纯农排变】,东庄3号【纯农排变】,太保营18号,南高桥8号【纯农排变】,南高桥17号,太保营28号,变压器,东庄1号,保定市徐水区留村乡师庄小学,河北爱博欣农业有限公司,保定均合金属材料有限公司,太保营19号,南高桥12号,保定市润丰实业有限公司,保定市津瑞建筑混凝土有限公司,刘东营面粉二厂,客户投资_常乐12号,南高桥13号,常乐1号,东庄5号,留东营3号【纯农排变】,师庄7号,保定市浩宇伟业汽车贸易有限公司,太保营4号,师庄11号,太保营17号,留东营6号【纯农排变】,师庄10号,北高桥6号【纯农排变】,保定凯达石油产品销售有限公司,南庄2号【纯农排变】,保定市祥瑞制冷设备有限公司,太保营7号,保定市鑫茆达再生资源回收有限公司,南高桥2号,保定市徐水区正旭构件厂,太保营24号,保定市徐水区全乐编制制品厂,南高桥6号【纯农排变】,留东营2号,常乐11号,保定市正汇包装彩印有限公司,南庄1号,保定市徐水区二力钢结构制品经销处,保定市亨通乐汽车贸易有限公司,田庄2号,南庄3号【纯农排变】,太保营3号,师庄12号,太保营2号,常乐5号,太保营11号,东庄2号,徐水县祥久金属材料焊接加工厂, 师庄14号,师庄13号,南高桥5号【纯农排变】,0682547015-河北悦康志德医药贸易有限公司-专变-221712106-河北悦康志德医药贸易有限公司,南高桥15号,北高桥2号【纯农排变】,留东营5号【纯农排变】,留东营7号【纯农排变】,徐水县新兴节能耐火材料厂,太保营13号,太保营23号,留东营4号,常乐4号【纯农排变】,太保营10号,李丰收林业养殖场,常乐8号【纯农排变】,留东营1号,太保营12号,留东营8号,太保营16号,太保营1号,保定轲龙废旧金属回收有限公司,师庄4号【纯农排变】,常乐7号【纯农排变】,太保营21号,田庄3号,田庄4号【纯农排变】,师庄9号,华威汽车装饰件厂,精华碳素厂,东庄4号【纯农排变】,南高桥16号,南高桥4号【纯农排变】,太保营9号,保定是润丰实业有限公司,师庄8号,太保营6号,师庄15号,太保营27号,南高桥3号【纯农排变】,师庄16号,南高桥18号,常乐9号,常乐6号,南高桥1号【纯农排变】,师庄2号【纯农排变】,南高桥7号【纯农排变】,南高桥9号【纯农排变】,师庄1号,保定市徐水区北常保东奇五金建材经销处,太保营26号,保定五洲汽车销售服务有限公司,南高桥11号,师庄3号,常乐14号,保定市恒领汽车贸易有限公司,常乐13号,师庄5号,常乐3号【纯农排变】,南高桥10号,太保营8号【纯农排变】,保定市徐水区留村乡南高桥小学,太保营22号,保定市德刚商贸有限公司,太保营5号","poweroffReason":"【停电原因】由于Ｂ相接地导致３５ＫＶ漕河变电站太保营线５１４线路全线停电 【变更送电】因抢修进度加快原因，送电时间由１２:００变更为０９:００ 【发布渠道】通过９５５９８发布","powerTime":"2019-09-01 08:15:26","powerComm":"已送电","subsNo":"","lineNo":"","tgNo":"","tgName":null,"infoStatus":"1","orgName":"国网徐水县供电公司","typeName":null,"infoStatusName":null,"dateDay":null,"orgNos":null,"nowTime":null,"countyName":null,"streetName":null,"villageName":null,"roadName":null,"communityName":null,"tranName":null,"sdLineName":null,"cityCode":"1340605","cityName":"国网徐水县供电公司","provinceCode":null,"stopTime":"2019-09-01 09:00:00","powerType":"全部","powerOffArea":"【全线路停电】停常乐10号,太保营15号,北高桥19号,常乐2号,太保营20号,南高桥14号【纯农排变】,太保营14号,保定市徐水区留村乡中学,北高桥18号,师庄6号【纯农排变】,田庄1号【纯农排变】,南庄4号【纯农排变】,东庄3号【纯农排变】,太保营18号,南高桥8号【纯农排变】,南高桥17号,太保营28号,变压器,东庄1号,保定市徐水区留村乡师庄小学,河北爱博欣农业有限公司,保定均合金属材料有限公司,太保营19号,南高桥12号,保定市润丰实业有限公司,保定市津瑞建筑混凝土有限公司,刘东营面粉二厂,客户投资_常乐12号,南高桥13号,常乐1号,东庄5号,留东营3号【纯农排变】,师庄7号,保定市浩宇伟业汽车贸易有限公司,太保营4号,师庄11号,太保营17号,留东营6号【纯农排变】,师庄10号,北高桥6号【纯农排变】,保定凯达石油产品销售有限公司,南庄2号【纯农排变】,保定市祥瑞制冷设备有限公司,太保营7号,保定市鑫茆达再生资源回收有限公司,南高桥2号,保定市徐水区正旭构件厂,太保营24号,保定市徐水区全乐编制制品厂,南高桥6号【纯农排变】,留东营2号,常乐11号,保定市正汇包装彩印有限公司,南庄1号,保定市徐水区二力钢结构制品经销处,保定市亨通乐汽车贸易有限公司,田庄2号,南庄3号【纯农排变】,太保营3号,师庄12号,太保营2号,常乐5号,太保营11号,东庄2号,徐水县祥久金属材料焊接加工厂, 师庄14号,师庄13号,南高桥5号【纯农排变】,0682547015-河北悦康志德医药贸易有限公司-专变-221712106-河北悦康志德医药贸易有限公司,南高桥15号,北高桥2号【纯农排变】,留东营5号【纯农排变】,留东营7号【纯农排变】,徐水县新兴节能耐火材料厂,太保营13号,太保营23号,留东营4号,常乐4号【纯农排变】,太保营10号,李丰收林业养殖场,常乐8号【纯农排变】,留东营1号,太保营12号,留东营8号,太保营16号,太保营1号,保定轲龙废旧金属回收有限公司,师庄4号【纯农排变】,常乐7号【纯农排变】,太保营21号,田庄3号,田庄4号【纯农排变】,师庄9号,华威汽车装饰件厂,精华碳素厂,东庄4号【纯农排变】,南高桥16号,南高桥4号【纯农排变】,太保营9号,保定是润丰实业有限公司,师庄8号,太保营6号,师庄15号,太保营27号,南高桥3号【纯农排变】,师庄16号,南高桥18号,常乐9号,常乐6号,南高桥1号【纯农排变】,师庄2号【纯农排变】,南高桥7号【纯农排变】,南高桥9号【纯农排变】,师庄1号,保定市徐水区北常保东奇五金建材经销处,太保营26号,保定五洲汽车销售服务有限公司,南高桥11号,师庄3号,常乐14号,保定市恒领汽车贸易有限公司,常乐13号,师庄5号,常乐3号【纯农排变】,南高桥10号,太保营8号【纯农排变】,保定市徐水区留村乡南高桥小学,太保营22号,保定市德刚商贸有限公司,太保营5号","powerOffReason":"【停电原因】由于Ｂ相接地导致３５ＫＶ漕河变电站太保营线５１４线路全线停电 【变更送电】因抢修进度加快原因，送电时间由１２:００变更为０９:００ 【发布渠道】通过９５５９８发布","powerOffId":"2019090113000026"},{"poweroffId":2019090113000013,"sgpoweroffId":null,"subsName":"","lineName":"10KV中加工业515","pubTranName":"河北中迈机电200KVA专变,中迈机电公司,现代农装科技(南区2#)500,河北中迈机电设备有限公司1000KVA专变,现代农装科技(北区1#)630,南关东南井2台区,保野路机井变压器,现代农装科技(南区1#)500,","scope":"【影响街道】涞水镇 【高危重要客户】无 【影响客户】中迈机电、中加工业园、车辆检测线附近","startTime":"2019-09-01 05:55:31","stopDate":"2019-09-01 07:30:00","orgNo":"1340614","typeCode":"电网故障停限电","poweroffArea":"【全线路停电】停河北中迈机电200KVA专变,中迈机电公司,现代农装科技(南区2#)500,河北中迈机电设备有限公司1000KVA专变,现代农装科技(北区1#)630,南关东南井2台区,保野路机井变压器,现代农装科技(南区1#)500","poweroffReason":"【停电原因】由于设备线夹烧毁导致３５ＫＶ城东变电站１０ＫＶ中加工业５１５线路全线停电 【变更送电】因抢修进度加快原因，送电时间由０８：３０变更为０７：３０ 【发布渠道】通过９５５９８发布","powerTime":"2019-09-01 07:05:11","powerComm":"已送电","subsNo":"","lineNo":"","tgNo":"","tgName":null,"infoStatus":"1","orgName":"国网涞水县供电公司","typeName":null,"infoStatusName":null,"dateDay":null,"orgNos":null,"nowTime":null,"countyName":null,"streetName":null,"villageName":null,"roadName":null,"communityName":null,"tranName":null,"sdLineName":null,"cityCode":"1340614","cityName":"国网涞水县供电公司","provinceCode":null,"stopTime":"2019-09-01 07:30:00","powerType":"全部","powerOffArea":"【全线路停电】停河北中迈机电200KVA专变,中迈机电公司,现代农装科技(南区2#)500,河北中迈机电设备有限公司1000KVA专变,现代农装科技(北区1#)630,南关东南井2台区,保野路机井变压器,现代农装科技(南区1#)500","powerOffReason":"【停电原因】由于设备线夹烧毁导致３５ＫＶ城东变电站１０ＫＶ中加工业５１５线路全线停电 【变更送电】因抢修进度加快原因，送电时间由０８：３０变更为０７：３０ 【发布渠道】通过９５５９８发布","powerOffId":"2019090113000013"},{"poweroffId":2019090113000011,"sgpoweroffId":null,"subsName":"","lineName":"10kV512东城线","pubTranName":"10kV512东城线28003台区变压器,10kV512东城线28004台区变压器,10kV512东城线28005台区变压器,10KV东城线512小昌家属院28286台区变压器,10kV512东城线顺和小区变压器,","scope":"【影响街道/乡镇】博野镇【高危重要客户】无【影响客户】中医院部分、邮局家属院、东城郡、顺和小区","startTime":"2019-09-01 06:30:00","stopDate":"2019-09-01 07:30:00","orgNo":"1340608","typeCode":"其他临时停电","poweroffArea":"【分支停电】停10kV512东城线28003台区变压器,10kV512东城线28004台区变压器,10kV512东城线28005台区变压器,10KV东城线512小昌家属院28286台区变压器,10kV512东城线顺和小区变压器","poweroffReason":"【停电原因】由于电杆倾斜，需停电进行紧急消缺导致３５ＫＶ城关变电站东城５１２线路０４号开关以下线路停电【变更送电】无【发布渠道】通过９５５９８发布","powerTime":"2019-09-01 07:24:16","powerComm":"已送电","subsNo":"","lineNo":"","tgNo":"","tgName":null,"infoStatus":"1","orgName":"国网博野县供电公司","typeName":null,"infoStatusName":null,"dateDay":null,"orgNos":null,"nowTime":null,"countyName":null,"streetName":null,"villageName":null,"roadName":null,"communityName":null,"tranName":null,"sdLineName":null,"cityCode":"1340608","cityName":"国网博野县供电公司","provinceCode":null,"stopTime":"2019-09-01 07:30:00","powerType":"全部","powerOffArea":"【分支停电】停10kV512东城线28003台区变压器,10kV512东城线28004台区变压器,10kV512东城线28005台区变压器,10KV东城线512小昌家属院28286台区变压器,10kV512东城线顺和小区变压器","powerOffReason":"【停电原因】由于电杆倾斜，需停电进行紧急消缺导致３５ＫＶ城关变电站东城５１２线路０４号开关以下线路停电【变更送电】无【发布渠道】通过９５５９８发布","powerOffId":"2019090113000011"},{"poweroffId":2019090113000008,"sgpoweroffId":null,"subsName":"","lineName":"闫台线516","pubTranName":"陈村光12,陈村营光20,陈村光2【2018年四批补强】,陈村营光8,陈村光4,陈村光7变压器,陈村营光21,陈村村内1,陈村营光12,陈村营光5,陈村营光15,陈村营光2,陈村营光10,陈村光10,陈村营光9,陈村营光16,陈村光9,陈村村光8,陈村营光11,陈村营光6【2018年第二批应急工程】,陈村营光18,陈村营光13,陈村营光1,陈村光11,陈村营光19,陈村营光3,陈村光5,陈村营光14,陈村光13,陈村光6,陈村营光7,","scope":"【影响街道/乡镇】贤寓镇 【高危重要客户】无 【影响客户】陈村营、陈村、贤寓、博峰建筑配件加工厂、恒升机械","startTime":"2019-09-01 03:46:44","stopDate":"2019-09-01 08:00:00","orgNo":"1340609","typeCode":"电网故障停限电","poweroffArea":"【全线路停电】停陈村营光1,陈村排1【纯农排变】,陈村光11,陈村营排9【纯农排变】,陈村营光19,陈村排7【纯农排变】,陈村排5【纯农排变】,陈村营排1【纯农排变】,陈村营光3,陈村营排2【纯农排变】,陈村光5,陈村营排4【纯农排变】,0011676993贤寓排3,陈村营光14,0695365226-定兴县南陈村小学-专变-239163120-100,陈村光13,陈村光6,陈村营光7,陈村营光8,陈村光4,陈村光7变压器,陈村营排7【纯农排变】,陈村营光21,陈村排10【纯农排变】,陈村村内1,陈村营光12,陈村营光5,陈村营光15,陈村营光2,陈村排9【纯农排变】,博峰建筑-500,博峰建筑250,陈村排6【纯农排变】,陈村营光6【2018年第二批应急工程】,陈村营光18,陈村排8【纯农排变】,陈村营排3【纯农排变】,陈村营光13,陈村营排6【纯农排变】,0011676986贤寓排5,陈村光12,陈村营光20,陈村光2【2018年四批补强】,陈村营光10,陈村光10,陈村排2【纯农排变】,0011676988*冷冻厂,陈村营光9,恒升机械-250,陈村营光16,陈村光9,陈村村光8,陈村排4【纯农排变】,陈村营排8【纯农排变】,陈村营排5【纯农排变】,陈村营光11,陈村排3【纯农排变】","poweroffReason":"【停电原因】由于养猪场分支２号杆至３号杆树枝搭线导致３５ＫＶ贤寓变电站闫台线５１６线路全线停电 【变更送电】因抢修进度加快原因，送电时间由１３：００变更为０８：００ 【发布渠道】通过９５５９８发布","powerTime":"2019-09-01 07:31:38","powerComm":"已送电","subsNo":"","lineNo":"","tgNo":"","tgName":null,"infoStatus":"1","orgName":"国网定兴县供电公司","typeName":null,"infoStatusName":null,"dateDay":null,"orgNos":null,"nowTime":null,"countyName":null,"streetName":null,"villageName":null,"roadName":null,"communityName":null,"tranName":null,"sdLineName":null,"cityCode":"1340609","cityName":"国网定兴县供电公司","provinceCode":null,"stopTime":"2019-09-01 08:00:00","powerType":"全部","powerOffArea":"【全线路停电】停陈村营光1,陈村排1【纯农排变】,陈村光11,陈村营排9【纯农排变】,陈村营光19,陈村排7【纯农排变】,陈村排5【纯农排变】,陈村营排1【纯农排变】,陈村营光3,陈村营排2【纯农排变】,陈村光5,陈村营排4【纯农排变】,0011676993贤寓排3,陈村营光14,0695365226-定兴县南陈村小学-专变-239163120-100,陈村光13,陈村光6,陈村营光7,陈村营光8,陈村光4,陈村光7变压器,陈村营排7【纯农排变】,陈村营光21,陈村排10【纯农排变】,陈村村内1,陈村营光12,陈村营光5,陈村营光15,陈村营光2,陈村排9【纯农排变】,博峰建筑-500,博峰建筑250,陈村排6【纯农排变】,陈村营光6【2018年第二批应急工程】,陈村营光18,陈村排8【纯农排变】,陈村营排3【纯农排变】,陈村营光13,陈村营排6【纯农排变】,0011676986贤寓排5,陈村光12,陈村营光20,陈村光2【2018年四批补强】,陈村营光10,陈村光10,陈村排2【纯农排变】,0011676988*冷冻厂,陈村营光9,恒升机械-250,陈村营光16,陈村光9,陈村村光8,陈村排4【纯农排变】,陈村营排8【纯农排变】,陈村营排5【纯农排变】,陈村营光11,陈村排3【纯农排变】","powerOffReason":"【停电原因】由于养猪场分支２号杆至３号杆树枝搭线导致３５ＫＶ贤寓变电站闫台线５１６线路全线停电 【变更送电】因抢修进度加快原因，送电时间由１３：００变更为０８：００ 【发布渠道】通过９５５９８发布","powerOffId":"2019090113000008"},{"poweroffId":2019083113000179,"sgpoweroffId":null,"subsName":"","lineName":"10kV559南源线路","pubTranName":"河北新蓝汽车部件制造有限公司变压器,定州市恒泰机械零部件有限公司变压器,定州市废旧汽车拆解有限公司变压器,定州市永舟汽车零部件有限公司变压器,0616872015-定州驿达汽车销售有限公司-专变-128501540-定州市驿达汽车销售有限公司变压器,河北畅翼物流有限公司变压器,定州市弘大电力设备有限公司变压器,定州唐河循环经济产业开发有限公司六号路灯变压器,定州市长鹏汽车装饰件制造有限公司变压器,庞大汽贸集团股份有限公司定州分公司变压器,定州市万合汽车零部件制造有限公司变压器,河北途中宝机械零部件制造有限公司变压器,0583790190-定州市安江汽车部件有限公司-专变-124893100-定州市安江汽车部件有限公司变压器,0583790190-定州市安江汽车部件有限公司-专变-212142124-定州市安江汽车部件有限公司变压器,0649583575-河北金特力斯体育设施有限公司-专变-174457555-河北金特力斯体育设施有限公司变压器,河北宝塔卫生材料厂变压器,定州市志鸿钢铁板材有限公司变压器,0666137788-河北嘉驰门窗制造有限公司-专变-204198889-河北嘉驰门窗制造有限公司变压器,定州市赵村医院变压器,中外河北物流有限公司变压器,定州市鹤立汽车零部件有限公司变压器,","scope":"【影响街道/乡镇】赵村乡【高危重要客户】无【影响客户】赵村医院、冀环环境、嘉驰门窗、金特力斯体育用品、中外运物流、驿达汽车销售、庞大汽车销售、万和汽车配件厂","startTime":"2019-09-01 03:00:00","stopDate":"2019-09-01 06:00:00","orgNo":"1340610","typeCode":"其他临时停电","poweroffArea":"【全线路停电】停河北新蓝汽车部件制造有限公司变压器,定州市恒泰机械零部件有限公司变压器,定州市废旧汽车拆解有限公司变压器,定州市永舟汽车零部件有限公司变压器,0616872015-定州驿达汽车销售有限公司-专变-128501540-定州市驿达汽车销售有限公司变压器,0583790190-定州市安江汽车部件有限公司-专变-124893100-定州市安江汽车部件有限公司变压器,0583790190-定州市安江汽车部件有限公司-专变-212142124-定州市安江汽车部件有限公司变压器,0649583575-河北金特力斯体育设施有限公司-专变-174457555-河北金特力斯体育设施有限公司变压器,河北宝塔卫生材料厂变压器,定州市志鸿钢铁板材有限公司变压器,0666137788-河北嘉驰门窗制造有限公司-专变-204198889-河北嘉驰门窗制造有限公司变压器,定州市赵村医院变压器,中外河北物流有限公司变压器,定州市鹤立汽车零部件有限公司变压器,河北畅翼物流有限公司变压器,定州市弘大电力设备有限公司变压器,定州唐河循环经济产业开发有限公司六号路灯变压器,定州市长鹏汽车装饰件制造有限公司变压器,庞大汽贸集团股份有限公司定州分公司变压器,定州市万合汽车零部件制造有限公司变压器,河北途中宝机械零部件制造有限公司变压器","poweroffReason":"【停电原因】由于电杆倾斜需停电进行紧急检修导致１１０ＫＶ新民变电站１０ＫＶ５５９南源线路全线停电 【变更送电】无 【发布渠道】９５５９８","powerTime":"2019-09-01 05:58:20","powerComm":"已送电","subsNo":"","lineNo":"","tgNo":"","tgName":null,"infoStatus":"1","orgName":"国网定州市供电公司","typeName":null,"infoStatusName":null,"dateDay":null,"orgNos":null,"nowTime":null,"countyName":null,"streetName":null,"villageName":null,"roadName":null,"communityName":null,"tranName":null,"sdLineName":null,"cityCode":"1340610","cityName":"国网定州市供电公司","provinceCode":null,"stopTime":"2019-09-01 06:00:00","powerType":"全部","powerOffArea":"【全线路停电】停河北新蓝汽车部件制造有限公司变压器,定州市恒泰机械零部件有限公司变压器,定州市废旧汽车拆解有限公司变压器,定州市永舟汽车零部件有限公司变压器,0616872015-定州驿达汽车销售有限公司-专变-128501540-定州市驿达汽车销售有限公司变压器,0583790190-定州市安江汽车部件有限公司-专变-124893100-定州市安江汽车部件有限公司变压器,0583790190-定州市安江汽车部件有限公司-专变-212142124-定州市安江汽车部件有限公司变压器,0649583575-河北金特力斯体育设施有限公司-专变-174457555-河北金特力斯体育设施有限公司变压器,河北宝塔卫生材料厂变压器,定州市志鸿钢铁板材有限公司变压器,0666137788-河北嘉驰门窗制造有限公司-专变-204198889-河北嘉驰门窗制造有限公司变压器,定州市赵村医院变压器,中外河北物流有限公司变压器,定州市鹤立汽车零部件有限公司变压器,河北畅翼物流有限公司变压器,定州市弘大电力设备有限公司变压器,定州唐河循环经济产业开发有限公司六号路灯变压器,定州市长鹏汽车装饰件制造有限公司变压器,庞大汽贸集团股份有限公司定州分公司变压器,定州市万合汽车零部件制造有限公司变压器,河北途中宝机械零部件制造有限公司变压器","powerOffReason":"【停电原因】由于电杆倾斜需停电进行紧急检修导致１１０ＫＶ新民变电站１０ＫＶ５５９南源线路全线停电 【变更送电】无 【发布渠道】９５５９８","powerOffId":"2019083113000179"},{"poweroffId":2019083113000153,"sgpoweroffId":null,"subsName":"","lineName":"石岗线512","pubTranName":"南坡5#,石岗村3#,方岗村1#,石岗村1#,许家村2#,黄沙口村3#,黄沙口村6#,良岗村3#,良岗村8#,南坡村2#,良岗村5#,石岗村4#,河西村3#,石岗村2#,水口村1#,良岗村4#,许家村2#214,南坡村1#,许家村4#,黄沙口村7#,水口村3#,许家村3#,河西村1#,黄沙口4#,许家村1#,良岗村9#,黄沙口村2#,河西村4#,良岗村1#,良岗村7#,水口村4#【纯农排变】,良岗村6#,方岗村4#,南坡村4#,良岗村2#,方岗村3#,水口村2#,许家村7#,黄沙口村8#,南坡村3#,黄沙口村5#,河西村2#,黄沙口村1#,许家村5#,方岗村2#,","scope":"【影响街道/乡镇】坡仓乡、良岗镇【高危重要客户】无【影响客户】南杜岗村、水口村、黄沙口村、许家村、河西村、石岗村、南坡村、方岗村、良岗村","startTime":"2019-08-31 16:27:24","stopDate":"2019-08-31 18:10:00","orgNo":"1340625","typeCode":"电网故障停限电","poweroffArea":"【分支停电】停石岗村3#,良岗村1#,河西村1#,万鑫铁选厂,方岗村1#,聚金元铁选厂,良岗医院,黄沙口村7#,良岗镇政府,易县利来钙粉厂(100KVA),河西村4#,兴源铁选厂,南坡村4#,黄沙口村3#,良岗村6#,福龙铁选厂,变压器3,黄沙口村王保同变压器,易县水口村赵艺剪纸厂变压器,南坡村1#,良岗村4#,良岗村3#,许家村5#,黄沙口村6#,森阳铁选厂,腾飞钙粉1#160KVA,变压器,金冠铁选厂,易县安达燃气销售有限公司变压器,石岗村1#,易县文海建材销售有限公司变压器,南坡村3#,变压器2,易县银龙石材加工厂变压器,恒丰球团厂(500KVA),许家村1#,易县利来钙粉厂(500KVA),良岗村8#,许家村2#214,许家村7#,易县金鑫石材有限公司变压器,腾飞钙粉2#200KVA,方岗村3#,南坡村2#,0469487145-良岗中心小学-专变-150628977-良岗中心小学变压器,河西村2#,良岗村5#,华友钙粉厂250KVA-2号,易县良岗鑫跃饭店变压器,水口村3#,黄沙口村8#,良岗村7#,易县源通淡水鱼养殖有限公司变压器,良岗村2#,良岗村9#,河西村3#,水口村4#【纯农排变】,金泰铁选厂(50KVA),石岗村2#,华友钙粉厂250KVA-1号,许家村2#,许家村3#,许家村4#,易县宏安钙粉厂,黄沙口4#,黄沙口村5#,金冠铁选厂2*250KVA-2,方岗村4#,金冠铁选厂2*250KVA-1,水口村1#,造全铁选厂(160KVA),易县金冠铁选厂变压器,良岗钙粉厂(360KVA),水口村2#,易县华友钙粉厂变压器,黄沙口村2#,方岗村2#,赵廷刚,新双水泥制品厂变压器,良岗石板厂,黄沙口村1#,四通铁选厂,石岗村4#,南坡5#","poweroffReason":"【停电原因】由于线路接地导致１１０ＫＶ良岗变电站石岗５１２线路００３号杆至０３０号杆之间停电【变更送电】因抢修进度加快原因，送电时间由２３：５０变更为１８：１０【发布渠道】通过９５５９８发布","powerTime":"2019-08-31 17:42:33","powerComm":"已送电","subsNo":"","lineNo":"","tgNo":"","tgName":null,"infoStatus":"1","orgName":"国网易县供电公司","typeName":null,"infoStatusName":null,"dateDay":null,"orgNos":null,"nowTime":null,"countyName":null,"streetName":null,"villageName":null,"roadName":null,"communityName":null,"tranName":null,"sdLineName":null,"cityCode":"1340625","cityName":"国网易县供电公司","provinceCode":null,"stopTime":"2019-08-31 18:10:00","powerType":"全部","powerOffArea":"【分支停电】停石岗村3#,良岗村1#,河西村1#,万鑫铁选厂,方岗村1#,聚金元铁选厂,良岗医院,黄沙口村7#,良岗镇政府,易县利来钙粉厂(100KVA),河西村4#,兴源铁选厂,南坡村4#,黄沙口村3#,良岗村6#,福龙铁选厂,变压器3,黄沙口村王保同变压器,易县水口村赵艺剪纸厂变压器,南坡村1#,良岗村4#,良岗村3#,许家村5#,黄沙口村6#,森阳铁选厂,腾飞钙粉1#160KVA,变压器,金冠铁选厂,易县安达燃气销售有限公司变压器,石岗村1#,易县文海建材销售有限公司变压器,南坡村3#,变压器2,易县银龙石材加工厂变压器,恒丰球团厂(500KVA),许家村1#,易县利来钙粉厂(500KVA),良岗村8#,许家村2#214,许家村7#,易县金鑫石材有限公司变压器,腾飞钙粉2#200KVA,方岗村3#,南坡村2#,0469487145-良岗中心小学-专变-150628977-良岗中心小学变压器,河西村2#,良岗村5#,华友钙粉厂250KVA-2号,易县良岗鑫跃饭店变压器,水口村3#,黄沙口村8#,良岗村7#,易县源通淡水鱼养殖有限公司变压器,良岗村2#,良岗村9#,河西村3#,水口村4#【纯农排变】,金泰铁选厂(50KVA),石岗村2#,华友钙粉厂250KVA-1号,许家村2#,许家村3#,许家村4#,易县宏安钙粉厂,黄沙口4#,黄沙口村5#,金冠铁选厂2*250KVA-2,方岗村4#,金冠铁选厂2*250KVA-1,水口村1#,造全铁选厂(160KVA),易县金冠铁选厂变压器,良岗钙粉厂(360KVA),水口村2#,易县华友钙粉厂变压器,黄沙口村2#,方岗村2#,赵廷刚,新双水泥制品厂变压器,良岗石板厂,黄沙口村1#,四通铁选厂,石岗村4#,南坡5#","powerOffReason":"【停电原因】由于线路接地导致１１０ＫＶ良岗变电站石岗５１２线路００３号杆至０３０号杆之间停电【变更送电】因抢修进度加快原因，送电时间由２３：５０变更为１８：１０【发布渠道】通过９５５９８发布","powerOffId":"2019083113000153"}],"pageModel":{"pageNow":594,"totalCount":10973,"totalPage":1098,"tableRows":0,"pageCount":10,"beginCount":5930},"isExperi":"1"}