{"message":"","today":"2020-06-15","seleList":[{"poweroffId":2019083113000142,"sgpoweroffId":null,"subsName":"","lineName":"10kV518大洋厂线","pubTranName":"西丹农排3台区【纯农排变】,南丹农排4台区【纯农排变】,南丹农排1台区【纯农排变】,紫微山造药厂,蠡县和禄汽车检测有限公司,永胜开花,西丹浇地2,南丹农排3台区【纯农排变】,西丹农排4台区【纯农排变】,蠡县武营农机服务专业合作社,永腾洗毛厂,西丹浇地,蠡县精准机械制造厂变压器,南丹农排2台区【纯农排变】,南丹农排5台区【纯农排变】,大洋食品有限公司,","scope":"【影响街道/乡镇】北郭丹镇【高危重要客户】无【影响客户】南丹、大洋食品有限公司","startTime":"2019-08-31 22:00:00","stopDate":"2019-08-31 23:00:00","orgNo":"1340616","typeCode":"其他临时停电","poweroffArea":"【全线路停电】停南丹农排2台区【纯农排变】,南丹农排5台区【纯农排变】,大洋食品有限公司,西丹农排3台区【纯农排变】,南丹农排3台区【纯农排变】,蠡县和禄汽车检测有限公司,西丹农排4台区【纯农排变】,永胜开花,南丹农排4台区【纯农排变】,西丹浇地,南丹农排1台区【纯农排变】,蠡县精准机械制造厂变压器,紫微山造药厂,蠡县武营农机服务专业合作社,西丹浇地2,永腾洗毛厂","poweroffReason":"【停电原因】由于倒运行方式导致３５ＫＶ郭丹变电站１０ＫＶ大洋厂５１８线路全线停电【变更送电】无【发布渠道】通过９５５９８发布","powerTime":"2019-08-31 22:54:25","powerComm":"已送电","subsNo":"","lineNo":"","tgNo":"","tgName":null,"infoStatus":"1","orgName":"国网蠡县供电公司","typeName":null,"infoStatusName":null,"dateDay":null,"orgNos":null,"nowTime":null,"countyName":null,"streetName":null,"villageName":null,"roadName":null,"communityName":null,"tranName":null,"sdLineName":null,"cityCode":"1340616","cityName":"国网蠡县供电公司","provinceCode":null,"stopTime":"2019-08-31 23:00:00","powerType":"全部","powerOffArea":"【全线路停电】停南丹农排2台区【纯农排变】,南丹农排5台区【纯农排变】,大洋食品有限公司,西丹农排3台区【纯农排变】,南丹农排3台区【纯农排变】,蠡县和禄汽车检测有限公司,西丹农排4台区【纯农排变】,永胜开花,南丹农排4台区【纯农排变】,西丹浇地,南丹农排1台区【纯农排变】,蠡县精准机械制造厂变压器,紫微山造药厂,蠡县武营农机服务专业合作社,西丹浇地2,永腾洗毛厂","powerOffReason":"【停电原因】由于倒运行方式导致３５ＫＶ郭丹变电站１０ＫＶ大洋厂５１８线路全线停电【变更送电】无【发布渠道】通过９５５９８发布","powerOffId":"2019083113000142"},{"poweroffId":2019083113000137,"sgpoweroffId":null,"subsName":"","lineName":"10kV515美林线","pubTranName":"0469440209-保定海欣长毛绒有限公司-专变-78660830-保定海欣长毛绒有限公司100-2,0469440209-保定海欣长毛绒有限公司-专变-46810936-保定海欣长毛绒有限公司400,0469440209-保定海欣长毛绒有限公司-专变-132649651-保定海欣长毛绒有限公司800,0469440209-保定海欣长毛绒有限公司-专变-78630965-保定海欣长毛绒有限公司变压器,0469440209-保定海欣长毛绒有限公司-专变-47629011-保定海欣长毛绒有限公司200,0469440209-保定海欣长毛绒有限公司-专变-78630890-保定海欣长毛绒有限公司100,","scope":"【影响街道/乡镇】北郭丹镇【高危重要客户】无【影响客户】保定海欣长毛绒有限公司","startTime":"2019-08-31 22:00:00","stopDate":"2019-08-31 23:00:00","orgNo":"1340616","typeCode":"其他临时停电","poweroffArea":"【全线路停电】停0469440209-保定海欣长毛绒有限公司-专变-78660830-保定海欣长毛绒有限公司100-2,0469440209-保定海欣长毛绒有限公司-专变-78630965-保定海欣长毛绒有限公司变压器,0469440209-保定海欣长毛绒有限公司-专变-47629011-保定海欣长毛绒有限公司200,0469440209-保定海欣长毛绒有限公司-专变-46810936-保定海欣长毛绒有限公司400,0469440209-保定海欣长毛绒有限公司-专变-78630890-保定海欣长毛绒有限公司100,0469440209-保定海欣长毛绒有限公司-专变-132649651-保定海欣长毛绒有限公司800","poweroffReason":"【停电原因】由于倒运行方式导致３５ＫＶ郭丹变电站１０ＫＶ美林５１５线路全线停电【变更送电】无【发布渠道】通过９５５９８发布","powerTime":"2019-08-31 22:54:53","powerComm":"已送电","subsNo":"","lineNo":"","tgNo":"","tgName":null,"infoStatus":"1","orgName":"国网蠡县供电公司","typeName":null,"infoStatusName":null,"dateDay":null,"orgNos":null,"nowTime":null,"countyName":null,"streetName":null,"villageName":null,"roadName":null,"communityName":null,"tranName":null,"sdLineName":null,"cityCode":"1340616","cityName":"国网蠡县供电公司","provinceCode":null,"stopTime":"2019-08-31 23:00:00","powerType":"全部","powerOffArea":"【全线路停电】停0469440209-保定海欣长毛绒有限公司-专变-78660830-保定海欣长毛绒有限公司100-2,0469440209-保定海欣长毛绒有限公司-专变-78630965-保定海欣长毛绒有限公司变压器,0469440209-保定海欣长毛绒有限公司-专变-47629011-保定海欣长毛绒有限公司200,0469440209-保定海欣长毛绒有限公司-专变-46810936-保定海欣长毛绒有限公司400,0469440209-保定海欣长毛绒有限公司-专变-78630890-保定海欣长毛绒有限公司100,0469440209-保定海欣长毛绒有限公司-专变-132649651-保定海欣长毛绒有限公司800","powerOffReason":"【停电原因】由于倒运行方式导致３５ＫＶ郭丹变电站１０ＫＶ美林５１５线路全线停电【变更送电】无【发布渠道】通过９５５９８发布","powerOffId":"2019083113000137"},{"poweroffId":2019083113000134,"sgpoweroffId":null,"subsName":"","lineName":"10kV512祁口线","pubTranName":"辇庄大洋农排1台区【纯农排变】,志西综合5台区,辇庄大洋农排3台区【纯农排变】,辇庄综合5台区,辇庄综合8台区,辇庄综合6台区,辇庄综合9台区,辇庄地毯沙,辇庄综合7台区,蠡县辇庄殿军开花厂变压器,辇庄大洋农排2台区【纯农排变】,志西综合3台区,辇庄综合3台区,辇庄皮毛厂,志东北地纱,辇庄综合4台区,辇庄村北板厂,辇庄友谊地毯纱厂,辇庄综合1台区,辇庄万达开花厂变压器,志东综合2台区,辇庄综合10台区,辇庄同雷开花厂,蠡县辇庄占熬开花厂,蠡县辇庄殿召针刺厂,","scope":"【影响街道/乡镇】北郭丹镇【高危重要客户】无【影响客户】辇庄村、北郭丹村（北丹）、东志愿村、志东村、西志愿村、志西村、南辛庄村、季家佐村、祁家口村、祁口村","startTime":"2019-08-31 22:00:00","stopDate":"2019-08-31 23:00:00","orgNo":"1340616","typeCode":"其他临时停电","poweroffArea":"【全线路停电】停辇庄同雷开花厂,辇庄综合10台区,蠡县辇庄占熬开花厂,蠡县辇庄殿召针刺厂,辇庄大洋农排3台区【纯农排变】,辇庄大洋农排1台区【纯农排变】,志西综合5台区,辇庄综合5台区,辇庄综合8台区,辇庄综合6台区,辇庄综合9台区,辇庄地毯沙,辇庄综合7台区,蠡县辇庄殿军开花厂变压器,辇庄大洋农排2台区【纯农排变】,志西综合3台区,辇庄综合3台区,辇庄皮毛厂,志东北地纱,辇庄综合4台区,辇庄村北板厂,辇庄友谊地毯纱厂,辇庄综合1台区,辇庄万达开花厂变压器,志东综合2台区","poweroffReason":"【停电原因】由于倒运行方式导致３５ＫＶ郭丹变电站１０ＫＶ祁口５１２线路全线停电【变更送电】无【发布渠道】通过９５５９８发布","powerTime":"2019-08-31 22:55:06","powerComm":"已送电","subsNo":"","lineNo":"","tgNo":"","tgName":null,"infoStatus":"1","orgName":"国网蠡县供电公司","typeName":null,"infoStatusName":null,"dateDay":null,"orgNos":null,"nowTime":null,"countyName":null,"streetName":null,"villageName":null,"roadName":null,"communityName":null,"tranName":null,"sdLineName":null,"cityCode":"1340616","cityName":"国网蠡县供电公司","provinceCode":null,"stopTime":"2019-08-31 23:00:00","powerType":"全部","powerOffArea":"【全线路停电】停辇庄同雷开花厂,辇庄综合10台区,蠡县辇庄占熬开花厂,蠡县辇庄殿召针刺厂,辇庄大洋农排3台区【纯农排变】,辇庄大洋农排1台区【纯农排变】,志西综合5台区,辇庄综合5台区,辇庄综合8台区,辇庄综合6台区,辇庄综合9台区,辇庄地毯沙,辇庄综合7台区,蠡县辇庄殿军开花厂变压器,辇庄大洋农排2台区【纯农排变】,志西综合3台区,辇庄综合3台区,辇庄皮毛厂,志东北地纱,辇庄综合4台区,辇庄村北板厂,辇庄友谊地毯纱厂,辇庄综合1台区,辇庄万达开花厂变压器,志东综合2台区","powerOffReason":"【停电原因】由于倒运行方式导致３５ＫＶ郭丹变电站１０ＫＶ祁口５１２线路全线停电【变更送电】无【发布渠道】通过９５５９８发布","powerOffId":"2019083113000134"},{"poweroffId":2019083113000132,"sgpoweroffId":null,"subsName":"","lineName":"10kV516南郭丹线","pubTranName":"保定金若兰皮具有限公司,东丹综合9台区,东丹综合5台区,南丹综合2台区,南丹综合7台区,客户投资_西丹综合7台区,东丹农排2台区【纯农排变】,东丹综合13台区,客户投资_东丹综合2台区,东丹综合1台区,西丹农排1台区【纯农排变】,西丹综合1台区,蠡县鹤彩纺织品有限公司,东丹综合6台区,西丹浇地2,东丹综合8台区,蠡县杰欣毛纺厂,东丹浇地2,蠡县东丹第二纺织厂变压器,蠡县东丹第二毛纺厂,西丹农排5台区【纯农排变】,建秋厂,西丹综合3台区,西丹浇地,东丹综合11台区,东丹第一毛纺厂,南丹综合4台区,西丹综合4台区,西丹综合5台区,东丹史大通,东丹综合4台区,东丹第二毛纺织厂200变压器,客户投资_东丹综合3台区,南丹综合5台区,客户投资_西丹综合6台区,西丹综合2台区,中国移动通信集团河北有限公司蠡县分公司,蠡县春晟纺纱厂变压器,南丹综合3台区,东丹综合7台区,南丹综合1台区,蠡县朝庆纤维加工厂,东丹农排1台区【纯农排变】,南丹综合6台区,蠡县绿源科技养殖有限公司,大洋农排8台区【纯农排变】,客户投资_南丹综合11台区,？县旭日毛呢纺织厂,客户投资_南丹综合10台区,东丹第二毛纺厂,客户投资_南丹综合8台区,南丹农排6台区【纯农排变】,","scope":"【影响街道/乡镇】北郭丹镇【高危重要客户】无【影响客户】东郭丹村（东丹）、南郭丹村（南丹）、西郭丹村（西丹）","startTime":"2019-08-31 22:00:00","stopDate":"2019-08-31 23:00:00","orgNo":"1340616","typeCode":"其他临时停电","poweroffArea":"【全线路停电】停建秋厂,蠡县东丹第二毛纺厂,西丹农排1台区【纯农排变】,客户投资_南丹综合10台区,西丹综合1台区,中国移动通信集团河北有限公司蠡县分公司,南丹综合4台区,蠡县东丹第二纺织厂变压器,大洋农排8台区【纯农排变】,客户投资_东丹综合3台区,西丹综合4台区,蠡县春晟纺纱厂变压器,东丹综合11台区,东丹综合1台区,南丹综合3台区,西丹综合5台区,客户投资_南丹综合11台区,东丹综合6台区,东丹史大通,东丹综合7台区,？县旭日毛呢纺织厂,西丹浇地2,蠡县鹤彩纺织品有限公司,东丹综合8台区,东丹综合4台区,南丹综合1台区,东丹综合9台区,蠡县杰欣毛纺厂,东丹第二毛纺织厂200变压器,东丹综合5台区,南丹综合5台区,蠡县朝庆纤维加工厂,南丹综合2台区,东丹农排1台区【纯农排变】,南丹综合6台区,客户投资_西丹综合7台区,西丹综合2台区,蠡县绿源科技养殖有限公司,东丹农排2台区【纯农排变】,西丹浇地,东丹第二毛纺厂,东丹综合13台区,客户投资_南丹综合8台区,东丹第一毛纺厂,东丹浇地2,客户投资_东丹综合2台区,保定金若兰皮具有限公司,西丹综合3台区,西丹农排5台区【纯农排变】,客户投资_西丹综合6台区,南丹农排6台区【纯农排变】,南丹综合7台区","poweroffReason":"【停电原因】由于倒运行方式导致３５ＫＶ郭丹变电站１０ＫＶ南郭丹５１６线路全线停电【变更送电】无【发布渠道】通过９５５９８发布","powerTime":"2019-08-31 22:55:19","powerComm":"已送电","subsNo":"","lineNo":"","tgNo":"","tgName":null,"infoStatus":"1","orgName":"国网蠡县供电公司","typeName":null,"infoStatusName":null,"dateDay":null,"orgNos":null,"nowTime":null,"countyName":null,"streetName":null,"villageName":null,"roadName":null,"communityName":null,"tranName":null,"sdLineName":null,"cityCode":"1340616","cityName":"国网蠡县供电公司","provinceCode":null,"stopTime":"2019-08-31 23:00:00","powerType":"全部","powerOffArea":"【全线路停电】停建秋厂,蠡县东丹第二毛纺厂,西丹农排1台区【纯农排变】,客户投资_南丹综合10台区,西丹综合1台区,中国移动通信集团河北有限公司蠡县分公司,南丹综合4台区,蠡县东丹第二纺织厂变压器,大洋农排8台区【纯农排变】,客户投资_东丹综合3台区,西丹综合4台区,蠡县春晟纺纱厂变压器,东丹综合11台区,东丹综合1台区,南丹综合3台区,西丹综合5台区,客户投资_南丹综合11台区,东丹综合6台区,东丹史大通,东丹综合7台区,？县旭日毛呢纺织厂,西丹浇地2,蠡县鹤彩纺织品有限公司,东丹综合8台区,东丹综合4台区,南丹综合1台区,东丹综合9台区,蠡县杰欣毛纺厂,东丹第二毛纺织厂200变压器,东丹综合5台区,南丹综合5台区,蠡县朝庆纤维加工厂,南丹综合2台区,东丹农排1台区【纯农排变】,南丹综合6台区,客户投资_西丹综合7台区,西丹综合2台区,蠡县绿源科技养殖有限公司,东丹农排2台区【纯农排变】,西丹浇地,东丹第二毛纺厂,东丹综合13台区,客户投资_南丹综合8台区,东丹第一毛纺厂,东丹浇地2,客户投资_东丹综合2台区,保定金若兰皮具有限公司,西丹综合3台区,西丹农排5台区【纯农排变】,客户投资_西丹综合6台区,南丹农排6台区【纯农排变】,南丹综合7台区","powerOffReason":"【停电原因】由于倒运行方式导致３５ＫＶ郭丹变电站１０ＫＶ南郭丹５１６线路全线停电【变更送电】无【发布渠道】通过９５５９８发布","powerOffId":"2019083113000132"},{"poweroffId":2019083113000130,"sgpoweroffId":null,"subsName":"","lineName":"10kV518桑园工业线","pubTranName":"杨北农排6台区【纯农排变】,保定美雅,保定双兴包装制品有限公司,杨北针织厂,保定美雅纺织有限公司,杨北地毯纱厂,","scope":"【影响街道/乡镇】桑元镇【高危重要客户】无【影响客户】桑元工业区","startTime":"2019-08-31 22:00:00","stopDate":"2019-08-31 23:00:00","orgNo":"1340616","typeCode":"其他临时停电","poweroffArea":"【全线路停电】停保定美雅纺织有限公司,杨北地毯纱厂,保定美雅,杨北针织厂,保定双兴包装制品有限公司,杨北农排6台区【纯农排变】","poweroffReason":"【停电原因】由于倒运行方式导致３５ＫＶ桑园变电站１０ＫＶ桑园工业５１８线路全线停电【变更送电】无【发布渠道】通过９５５９８发布","powerTime":"2019-08-31 22:52:06","powerComm":"已送电","subsNo":"","lineNo":"","tgNo":"","tgName":null,"infoStatus":"1","orgName":"国网蠡县供电公司","typeName":null,"infoStatusName":null,"dateDay":null,"orgNos":null,"nowTime":null,"countyName":null,"streetName":null,"villageName":null,"roadName":null,"communityName":null,"tranName":null,"sdLineName":null,"cityCode":"1340616","cityName":"国网蠡县供电公司","provinceCode":null,"stopTime":"2019-08-31 23:00:00","powerType":"全部","powerOffArea":"【全线路停电】停保定美雅纺织有限公司,杨北地毯纱厂,保定美雅,杨北针织厂,保定双兴包装制品有限公司,杨北农排6台区【纯农排变】","powerOffReason":"【停电原因】由于倒运行方式导致３５ＫＶ桑园变电站１０ＫＶ桑园工业５１８线路全线停电【变更送电】无【发布渠道】通过９５５９８发布","powerOffId":"2019083113000130"},{"poweroffId":2019083113000128,"sgpoweroffId":null,"subsName":"","lineName":"10kV514北郭丹线","pubTranName":"大洋农排23台区【纯农排变】,北丹综合1台区,北丹农排2台区【纯农排变】,大洋农排17台区【纯农排变】,北丹综合22台区,大洋农排4台区【纯农排变】,高蠡公路1号路灯,北丹综合14台区,北丹综合4台区,北丹综合2台区,北丹综合10台区,大洋农排1台区【纯农排变】,北丹综合27台区,北丹农排3台区【纯农排变】,北丹综合15台区,大洋农排10台区【纯农排变】,大洋农排13台区【纯农排变】,北丹农排4台区【纯农排变】,北丹综合17台区,大洋农排12台区【纯农排变】,大洋农排19台区【纯农排变】,北丹综合6台区,北丹综合25台区,北丹综合7台区,北丹综合29台区,大洋农排15台区【纯农排变】,北丹综合28台区,北丹综合30台区,大洋农排5台区【纯农排变】,北丹综合9台区,大洋农排7台区【纯农排变】,北丹综合12台区,北丹综合32台区,北丹农排6台区【纯农排变】,大洋农排18台区【纯农排变】,北丹综合19台区,北丹农排5台区【纯农排变】,北丹综合24台区,北丹综合26台区,北丹综合18台区,北丹综合33台区,北丹综合31台区,北丹综合11台区,北丹综合13台区,北丹综合21台区,大洋农排26台区【纯农排变】,大洋农排9台区【纯农排变】,客户投资_北丹综合16台区,北丹综合23台区,大洋农排20台区【纯农排变】,北丹综合20台区,大洋农排6台区【纯农排变】,北丹综合3台区,北丹农排8台区【纯农排变】,大洋农排21台区【纯农排变】,大洋农排27台区【纯农排变】,北丹综合8台区,北丹综合5台区,","scope":"【影响街道/乡镇】北郭丹镇【高危重要客户】无【影响客户】北郭丹村、大洋","startTime":"2019-08-31 22:00:00","stopDate":"2019-08-31 23:00:00","orgNo":"1340616","typeCode":"其他临时停电","poweroffArea":"【全线路停电】停大洋农排21台区【纯农排变】,蠡县天成包装材料制造有限公司变压器,大洋农排20台区【纯农排变】,北丹综合20台区,北丹综合4台区,大洋农排6台区【纯农排变】,大洋农排14台区【纯农排变】,北丹综合3台区,蠡县宇祥纺织品制造有限公司变压器,蠡县鑫玲纺织有限公司,北丹农排8台区【纯农排变】,大洋农排27台区【纯农排变】,北丹综合8台区,北丹综合5台区,北丹综合13台区,大洋农排23台区【纯农排变】,北丹综合1台区,北丹农排2台区【纯农排变】,大洋农排17台区【纯农排变】,北丹综合22台区,大洋农排4台区【纯农排变】,北丹林业养殖场,0693489654-蠡县朝庆纤维加工厂-专变-237548034-蠡县朝庆纤维加工厂变压器,河北永诚食用菌科技有限公司变压器,邮电局,高蠡公路1号路灯,立永浇地,蠡县祁口世佳面粉厂,北丹综合14台区,北丹综合2台区,北丹综合10台区,大洋农排16台区【纯农排变】,大洋农排22台区【纯农排变】,维佳纺织股份有限公司,大洋农排25台区【纯农排变】,大洋农排1台区【纯农排变】,北丹综合27台区,北丹农排3台区【纯农排变】,北丹综合15台区,大洋农排3台区【纯农排变】,大洋农排10台区【纯农排变】,满红棉织厂变压器,大洋农排13台区【纯农排变】,北丹农排4台区【纯农排变】,高蠡獒园,养牛场3,中国石油天然气股份有限公司华北油田分公司变压器,林业综合养殖场,海龙纺织有限公司,北丹综合33台区,大洋农排11台区【纯农排变】,北丹综合31台区,北丹综合11台区,大洋农排12台区【纯农排变】,大洋农排19台区【纯农排变】,河北鸿飞纺织有限公司,北丹农排1台区【纯农排变】,大洋农排24台区【纯农排变】,北丹综合6台区,北丹综合21台区,油田北井,小年开花厂,养牛场,北丹村里水井,养牛场2,永贤毛绒厂,大洋农排26台区【纯农排变】,大洋农排9台区【纯农排变】,客户投资_北丹综合16台区,辰刚梳绒厂,北丹综合30台区,大洋农排5台区【纯农排变】,大洋农排18台区【纯农排变】,大洋农排2台区【纯农排变】,北丹综合19台区,蠡县信德纺织厂变压器,北丹综合23台区,三源厂,北丹北二砖厂,北丹综合9台区,北丹新世纪,农田示范基地变压器,宝生养殖场,小辉浇地,中国石油天然气股份有限公司华北油田分公司,北丹综合17台区,北丹综合25台区,北丹综合7台区,北丹综合29台区,大洋农排15台区【纯农排变】,北丹综合28台区,北丹农排6台区【纯农排变】,大洋农排7台区【纯农排变】,北丹综合12台区,北丹综合32台区,北丹农排5台区【纯农排变】,北丹综合24台区,北丹综合26台区,北丹综合18台区","poweroffReason":"【停电原因】由于倒运行方式导致３５ＫＶ郭丹变电站１０ＫＶ北郭丹５１４线路全线停电【变更送电】无【发布渠道】通过９５５９８发布","powerTime":"2019-08-31 22:54:39","powerComm":"已送电","subsNo":"","lineNo":"","tgNo":"","tgName":null,"infoStatus":"1","orgName":"国网蠡县供电公司","typeName":null,"infoStatusName":null,"dateDay":null,"orgNos":null,"nowTime":null,"countyName":null,"streetName":null,"villageName":null,"roadName":null,"communityName":null,"tranName":null,"sdLineName":null,"cityCode":"1340616","cityName":"国网蠡县供电公司","provinceCode":null,"stopTime":"2019-08-31 23:00:00","powerType":"全部","powerOffArea":"【全线路停电】停大洋农排21台区【纯农排变】,蠡县天成包装材料制造有限公司变压器,大洋农排20台区【纯农排变】,北丹综合20台区,北丹综合4台区,大洋农排6台区【纯农排变】,大洋农排14台区【纯农排变】,北丹综合3台区,蠡县宇祥纺织品制造有限公司变压器,蠡县鑫玲纺织有限公司,北丹农排8台区【纯农排变】,大洋农排27台区【纯农排变】,北丹综合8台区,北丹综合5台区,北丹综合13台区,大洋农排23台区【纯农排变】,北丹综合1台区,北丹农排2台区【纯农排变】,大洋农排17台区【纯农排变】,北丹综合22台区,大洋农排4台区【纯农排变】,北丹林业养殖场,0693489654-蠡县朝庆纤维加工厂-专变-237548034-蠡县朝庆纤维加工厂变压器,河北永诚食用菌科技有限公司变压器,邮电局,高蠡公路1号路灯,立永浇地,蠡县祁口世佳面粉厂,北丹综合14台区,北丹综合2台区,北丹综合10台区,大洋农排16台区【纯农排变】,大洋农排22台区【纯农排变】,维佳纺织股份有限公司,大洋农排25台区【纯农排变】,大洋农排1台区【纯农排变】,北丹综合27台区,北丹农排3台区【纯农排变】,北丹综合15台区,大洋农排3台区【纯农排变】,大洋农排10台区【纯农排变】,满红棉织厂变压器,大洋农排13台区【纯农排变】,北丹农排4台区【纯农排变】,高蠡獒园,养牛场3,中国石油天然气股份有限公司华北油田分公司变压器,林业综合养殖场,海龙纺织有限公司,北丹综合33台区,大洋农排11台区【纯农排变】,北丹综合31台区,北丹综合11台区,大洋农排12台区【纯农排变】,大洋农排19台区【纯农排变】,河北鸿飞纺织有限公司,北丹农排1台区【纯农排变】,大洋农排24台区【纯农排变】,北丹综合6台区,北丹综合21台区,油田北井,小年开花厂,养牛场,北丹村里水井,养牛场2,永贤毛绒厂,大洋农排26台区【纯农排变】,大洋农排9台区【纯农排变】,客户投资_北丹综合16台区,辰刚梳绒厂,北丹综合30台区,大洋农排5台区【纯农排变】,大洋农排18台区【纯农排变】,大洋农排2台区【纯农排变】,北丹综合19台区,蠡县信德纺织厂变压器,北丹综合23台区,三源厂,北丹北二砖厂,北丹综合9台区,北丹新世纪,农田示范基地变压器,宝生养殖场,小辉浇地,中国石油天然气股份有限公司华北油田分公司,北丹综合17台区,北丹综合25台区,北丹综合7台区,北丹综合29台区,大洋农排15台区【纯农排变】,北丹综合28台区,北丹农排6台区【纯农排变】,大洋农排7台区【纯农排变】,北丹综合12台区,北丹综合32台区,北丹农排5台区【纯农排变】,北丹综合24台区,北丹综合26台区,北丹综合18台区","powerOffReason":"【停电原因】由于倒运行方式导致３５ＫＶ郭丹变电站１０ＫＶ北郭丹５１４线路全线停电【变更送电】无【发布渠道】通过９５５９８发布","powerOffId":"2019083113000128"},{"poweroffId":2019083113000127,"sgpoweroffId":null,"subsName":"","lineName":"10kV512杨东线","pubTranName":"杨东综合3台区,鑫辉毛纺厂,杨东综合6台区,杨东综合4台区,杨东综合8台区,杨东综合1台区,老宽鸡厂,杨东综合2台区,杨东综合5台区,杨东综合9台区,杨东农排1台区【纯农排变】,通达针织厂,杨东综合7台区,杨东综合10台区,","scope":"【影响街道/乡镇】桑元镇【高危重要客户】无【影响客户】杨东村","startTime":"2019-08-31 22:00:00","stopDate":"2019-08-31 23:00:00","orgNo":"1340616","typeCode":"其他临时停电","poweroffArea":"【全线路停电】停通达针织厂,老宽鸡厂,杨东综合10台区,杨东综合4台区,杨东综合3台区,杨东综合8台区,杨东综合7台区,杨东综合6台区,杨东综合5台区,杨东综合1台区,鑫辉毛纺厂,杨东农排1台区【纯农排变】,杨东综合9台区,杨东综合2台区","poweroffReason":"【停电原因】由于倒运行方式导致３５ＫＶ桑园变电站１０ＫＶ杨东５１２线路全线停电【变更送电】无【发布渠道】通过９５５９８发布","powerTime":"2019-08-31 22:51:53","powerComm":"已送电","subsNo":"","lineNo":"","tgNo":"","tgName":null,"infoStatus":"1","orgName":"国网蠡县供电公司","typeName":null,"infoStatusName":null,"dateDay":null,"orgNos":null,"nowTime":null,"countyName":null,"streetName":null,"villageName":null,"roadName":null,"communityName":null,"tranName":null,"sdLineName":null,"cityCode":"1340616","cityName":"国网蠡县供电公司","provinceCode":null,"stopTime":"2019-08-31 23:00:00","powerType":"全部","powerOffArea":"【全线路停电】停通达针织厂,老宽鸡厂,杨东综合10台区,杨东综合4台区,杨东综合3台区,杨东综合8台区,杨东综合7台区,杨东综合6台区,杨东综合5台区,杨东综合1台区,鑫辉毛纺厂,杨东农排1台区【纯农排变】,杨东综合9台区,杨东综合2台区","powerOffReason":"【停电原因】由于倒运行方式导致３５ＫＶ桑园变电站１０ＫＶ杨东５１２线路全线停电【变更送电】无【发布渠道】通过９５５９８发布","powerOffId":"2019083113000127"},{"poweroffId":2019083113000124,"sgpoweroffId":null,"subsName":"","lineName":"10kV511杨南线","pubTranName":"杨南农排3台区【纯农排变】,蠡县光辉纺织厂,占文东,杨南综合2台区,杨南综合12台区,杨南综合8台区,宏业丝棉厂,杨南综合4台区,杨西综合2台区,杨西农排1台区【纯农排变】,树子,元南农排7台区【纯农排变】,杨南综合7台区,杨南面粉厂,杨南综合10台区,杨南养猪场,杨南综合11台区,杨南综合5台区,杨西综合7台区,蠡县泉润纺织有限公司,杨西农排7台区【纯农排变】,杨南农排1台区【纯农排变】,杨南农排4台区【纯农排变】,杨南综合1台区,杨南综合9台区,杨南综合3台区,杨南综合6台区,杨南综合13台区,元南综合13台区【冬季供暖设施】,客户投资_杨南综合12台区,杨东综合14台区,杨东综合4台区,杨东综合13台区,杨东综合8台区,蠡县桑园镇全宏纺织厂变压器,杨东综合1台区,杨南农排2台区【纯农排变】,泉润纺织新增160KVA变压器,杨南农排8台区【纯农排变】,","scope":"【影响街道/乡镇】桑元镇【高危重要客户】无【影响客户】杨南村、杨西村","startTime":"2019-08-31 22:00:00","stopDate":"2019-08-31 23:00:00","orgNo":"1340616","typeCode":"其他临时停电","poweroffArea":"【全线路停电】停蠡县光辉纺织厂,杨南农排3台区【纯农排变】,占文东,杨南综合2台区,杨南综合12台区,杨南综合8台区,宏业丝棉厂,杨南综合4台区,杨西综合2台区,杨西农排1台区【纯农排变】,树子,元南农排7台区【纯农排变】,杨南综合7台区,杨南面粉厂,杨南综合10台区,杨南养猪场,杨南综合11台区,杨南农排2台区【纯农排变】,杨南综合5台区,杨西综合7台区,蠡县泉润纺织有限公司,杨西农排7台区【纯农排变】,杨南农排1台区【纯农排变】,泉润纺织新增160KVA变压器,杨南农排4台区【纯农排变】,杨南农排8台区【纯农排变】,杨南综合1台区,杨南综合9台区,杨南综合3台区,杨南综合6台区,杨南综合13台区,元南综合13台区【冬季供暖设施】,客户投资_杨南综合12台区,杨东综合14台区,杨东综合4台区,杨东综合13台区,杨东综合8台区,蠡县桑园镇全宏纺织厂变压器,杨东综合1台区","poweroffReason":"【停电原因】由于倒运行方式导致３５ＫＶ桑园变电站１０ＫＶ杨南５１１线路全线停电【变更送电】无【发布渠道】通过９５５９８发布","powerTime":"2019-08-31 22:51:39","powerComm":"已送电","subsNo":"","lineNo":"","tgNo":"","tgName":null,"infoStatus":"1","orgName":"国网蠡县供电公司","typeName":null,"infoStatusName":null,"dateDay":null,"orgNos":null,"nowTime":null,"countyName":null,"streetName":null,"villageName":null,"roadName":null,"communityName":null,"tranName":null,"sdLineName":null,"cityCode":"1340616","cityName":"国网蠡县供电公司","provinceCode":null,"stopTime":"2019-08-31 23:00:00","powerType":"全部","powerOffArea":"【全线路停电】停蠡县光辉纺织厂,杨南农排3台区【纯农排变】,占文东,杨南综合2台区,杨南综合12台区,杨南综合8台区,宏业丝棉厂,杨南综合4台区,杨西综合2台区,杨西农排1台区【纯农排变】,树子,元南农排7台区【纯农排变】,杨南综合7台区,杨南面粉厂,杨南综合10台区,杨南养猪场,杨南综合11台区,杨南农排2台区【纯农排变】,杨南综合5台区,杨西综合7台区,蠡县泉润纺织有限公司,杨西农排7台区【纯农排变】,杨南农排1台区【纯农排变】,泉润纺织新增160KVA变压器,杨南农排4台区【纯农排变】,杨南农排8台区【纯农排变】,杨南综合1台区,杨南综合9台区,杨南综合3台区,杨南综合6台区,杨南综合13台区,元南综合13台区【冬季供暖设施】,客户投资_杨南综合12台区,杨东综合14台区,杨东综合4台区,杨东综合13台区,杨东综合8台区,蠡县桑园镇全宏纺织厂变压器,杨东综合1台区","powerOffReason":"【停电原因】由于倒运行方式导致３５ＫＶ桑园变电站１０ＫＶ杨南５１１线路全线停电【变更送电】无【发布渠道】通过９５５９８发布","powerOffId":"2019083113000124"},{"poweroffId":2019083113000121,"sgpoweroffId":null,"subsName":"","lineName":"10kV513宋庄工业线","pubTranName":"宋庄四台区,瑞天纺织,宏业纺织厂,威胜毛纺厂,蠡县宋庄益源棉织厂变压器,恒业纺织变压器1,华泰纺织有限公司,宋庄北二,|新金利纺织有限公司,大水,恒业纺织有限公司5,金鑫纺织有限公司变压器,二涛,鑫达,永发,恒业纺织有限公司变压器2,跃军,小刚织布厂,恒业纺织有限公司3,恒业纺织有限公司6,华泽纺织有限公司,新金利纺织有限公司,旭光毛纺厂,国中织布,顺成棉业,金鑫纺织有限公司,宋庄浇地,桂林,二团,宋庄北浇地,艳军,","scope":"【影响街道/乡镇】林堡乡【高危重要客户】无【影响客户】宋庄工业区","startTime":"2019-08-31 22:00:00","stopDate":"2019-08-31 23:00:00","orgNo":"1340616","typeCode":"其他临时停电","poweroffArea":"【全线路停电】停二涛,顺成棉业,艳军,华泰纺织有限公司,|新金利纺织有限公司,宋庄四台区,小刚织布厂,宋庄浇地,恒业纺织有限公司5,国中织布,二团,恒业纺织有限公司6,跃军,宏业纺织厂,威胜毛纺厂,金鑫纺织有限公司变压器,永发,大水,金鑫纺织有限公司,桂林,宋庄北浇地,新金利纺织有限公司,宋庄北二,鑫达,恒业纺织有限公司3,蠡县宋庄益源棉织厂变压器,恒业纺织有限公司变压器2,恒业纺织变压器1,瑞天纺织,华泽纺织有限公司,旭光毛纺厂","poweroffReason":"【停电原因】由于倒运行方式导致３５ＫＶ林堡变电站１０ＫＶ宋庄工业５１３线路全线停电【变更送电】无【发布渠道】通过９５５９８发布","powerTime":"2019-08-31 22:50:39","powerComm":"已送电","subsNo":"","lineNo":"","tgNo":"","tgName":null,"infoStatus":"1","orgName":"国网蠡县供电公司","typeName":null,"infoStatusName":null,"dateDay":null,"orgNos":null,"nowTime":null,"countyName":null,"streetName":null,"villageName":null,"roadName":null,"communityName":null,"tranName":null,"sdLineName":null,"cityCode":"1340616","cityName":"国网蠡县供电公司","provinceCode":null,"stopTime":"2019-08-31 23:00:00","powerType":"全部","powerOffArea":"【全线路停电】停二涛,顺成棉业,艳军,华泰纺织有限公司,|新金利纺织有限公司,宋庄四台区,小刚织布厂,宋庄浇地,恒业纺织有限公司5,国中织布,二团,恒业纺织有限公司6,跃军,宏业纺织厂,威胜毛纺厂,金鑫纺织有限公司变压器,永发,大水,金鑫纺织有限公司,桂林,宋庄北浇地,新金利纺织有限公司,宋庄北二,鑫达,恒业纺织有限公司3,蠡县宋庄益源棉织厂变压器,恒业纺织有限公司变压器2,恒业纺织变压器1,瑞天纺织,华泽纺织有限公司,旭光毛纺厂","powerOffReason":"【停电原因】由于倒运行方式导致３５ＫＶ林堡变电站１０ＫＶ宋庄工业５１３线路全线停电【变更送电】无【发布渠道】通过９５５９８发布","powerOffId":"2019083113000121"},{"poweroffId":2019083113000120,"sgpoweroffId":null,"subsName":"","lineName":"10kV519杨西线","pubTranName":"杨西综合5台区,杨西九龙毛纺厂,蠡县双建经编有限公司,同乐,何彦欣,春雅纺织有限公司,元北综合18台区,杨北综合5台区,张永兴,杨西农排6台区【纯农排变】,杨北综合8台区,杨西综合6台区,杨北综合7台区,元北综合10台区,杨北综合11台区,杨北综合9台区,杨西综合12台区,杨西综合9台区,杨西综合13台区,杨东农排8台区【纯农排变】,桑园镇政府,杨西综合11台区,华澳石材厂,杨西综合8台区,杨西综合10台区,杨东农排2台区【纯农排变】,蠡县杨西孕泽纺织厂变压器,杨北综合3台区,杨东综合11台区,杨北综合10台区,幼儿园,杨西针织厂,杨北综合2台区,0469348516-蠡县华兴纺织有限公司-专变-46780275-华兴纺织公司,杨西纺织经编厂,蔡团,杨北综合1台区,元东综合12台区,杨西综合4台区,杨西九龙,杨北方辰针织厂变压器,元东综合7台区,杨北综合4台区,杨北综合12台区,国庆农场,杨北综合13台区,杨西综合3台区,保定美雅纺织变压器,元东综合5台区,蠡园毛纺厂,杨西综合1台区,元东综合3台区,","scope":"【影响街道/乡镇】桑元镇 【高危重要客户】无 【影响客户】元北村、杨西村、杨北村、元东村、大杨庄村","startTime":"2019-08-31 22:00:00","stopDate":"2019-08-31 23:00:00","orgNo":"1340616","typeCode":"其他临时停电","poweroffArea":"【全线路停电】停杨西综合3台区,同乐,幼儿园,杨西综合9台区,杨东农排2台区【纯农排变】,杨东农排8台区【纯农排变】,元东综合12台区,0469348516-蠡县华兴纺织有限公司-专变-46780275-华兴纺织公司,杨西综合13台区,杨西综合10台区,杨西综合4台区,杨西综合6台区,杨北综合2台区,杨北综合13台区,杨北综合1台区,何彦欣,桑园镇政府,保定美雅纺织变压器,元北综合18台区,杨北综合8台区,蠡县双建经编有限公司,杨北综合9台区,华澳石材厂,蠡园毛纺厂,杨北综合7台区,杨西纺织经编厂,杨北综合4台区,杨西九龙,杨北综合5台区,杨北综合3台区,杨北综合12台区,元东综合3台区,杨北综合11台区,杨北综合10台区,蔡团,国庆农场,杨西综合11台区,杨西综合1台区,张永兴,杨西九龙毛纺厂,元东综合5台区,杨西综合5台区,杨西针织厂,蠡县杨西孕泽纺织厂变压器,元东综合7台区,春雅纺织有限公司,杨西农排6台区【纯农排变】,元北综合10台区,杨西综合8台区,杨西综合12台区,杨北方辰针织厂变压器,杨东综合11台区","poweroffReason":"【停电原因】由于倒运行方式导致３５ＫＶ桑园变电站１０ＫＶ杨西５１９线路全线停电【变更送电】无【发布渠道】通过９５５９８发布","powerTime":"2019-08-31 22:51:24","powerComm":"已送电","subsNo":"","lineNo":"","tgNo":"","tgName":null,"infoStatus":"1","orgName":"国网蠡县供电公司","typeName":null,"infoStatusName":null,"dateDay":null,"orgNos":null,"nowTime":null,"countyName":null,"streetName":null,"villageName":null,"roadName":null,"communityName":null,"tranName":null,"sdLineName":null,"cityCode":"1340616","cityName":"国网蠡县供电公司","provinceCode":null,"stopTime":"2019-08-31 23:00:00","powerType":"全部","powerOffArea":"【全线路停电】停杨西综合3台区,同乐,幼儿园,杨西综合9台区,杨东农排2台区【纯农排变】,杨东农排8台区【纯农排变】,元东综合12台区,0469348516-蠡县华兴纺织有限公司-专变-46780275-华兴纺织公司,杨西综合13台区,杨西综合10台区,杨西综合4台区,杨西综合6台区,杨北综合2台区,杨北综合13台区,杨北综合1台区,何彦欣,桑园镇政府,保定美雅纺织变压器,元北综合18台区,杨北综合8台区,蠡县双建经编有限公司,杨北综合9台区,华澳石材厂,蠡园毛纺厂,杨北综合7台区,杨西纺织经编厂,杨北综合4台区,杨西九龙,杨北综合5台区,杨北综合3台区,杨北综合12台区,元东综合3台区,杨北综合11台区,杨北综合10台区,蔡团,国庆农场,杨西综合11台区,杨西综合1台区,张永兴,杨西九龙毛纺厂,元东综合5台区,杨西综合5台区,杨西针织厂,蠡县杨西孕泽纺织厂变压器,元东综合7台区,春雅纺织有限公司,杨西农排6台区【纯农排变】,元北综合10台区,杨西综合8台区,杨西综合12台区,杨北方辰针织厂变压器,杨东综合11台区","powerOffReason":"【停电原因】由于倒运行方式导致３５ＫＶ桑园变电站１０ＫＶ杨西５１９线路全线停电【变更送电】无【发布渠道】通过９５５９８发布","powerOffId":"2019083113000120"}],"pageModel":{"pageNow":595,"totalCount":10973,"totalPage":1098,"tableRows":0,"pageCount":10,"beginCount":5940},"isExperi":"1"}