{"message":"","today":"2020-06-15","seleList":[{"poweroffId":2019083113000019,"sgpoweroffId":null,"subsName":"","lineName":"北山南线518","pubTranName":"章村2#,","scope":"【影响街道/乡镇】易州镇【高危重要客户】无【影响客户】章村","startTime":"2019-08-31 07:01:08","stopDate":"2019-08-31 10:10:00","orgNo":"1340625","typeCode":"电网故障停限电","poweroffArea":"【单台区停电】停章村2#","poweroffReason":"【停电原因】由于车撞杆导致１１０ＫＶ易县变电站北山南５１８线路章村２＃公变台区停电【变更送电】因抢修进度加快原因，送电时间由１２：００变更为１０：１０【发布渠道】通过９５５９８发布","powerTime":"2019-08-31 09:46:17","powerComm":"已送电","subsNo":"","lineNo":"","tgNo":"","tgName":null,"infoStatus":"1","orgName":"国网易县供电公司","typeName":null,"infoStatusName":null,"dateDay":null,"orgNos":null,"nowTime":null,"countyName":null,"streetName":null,"villageName":null,"roadName":null,"communityName":null,"tranName":null,"sdLineName":null,"cityCode":"1340625","cityName":"国网易县供电公司","provinceCode":null,"stopTime":"2019-08-31 10:10:00","powerType":"全部","powerOffArea":"【单台区停电】停章村2#","powerOffReason":"【停电原因】由于车撞杆导致１１０ＫＶ易县变电站北山南５１８线路章村２＃公变台区停电【变更送电】因抢修进度加快原因，送电时间由１２：００变更为１０：１０【发布渠道】通过９５５９８发布","powerOffId":"2019083113000019"},{"poweroffId":2019083113000014,"sgpoweroffId":null,"subsName":"","lineName":"尚品530","pubTranName":"河北元和房地产开发有限公司4#变压器,河北鼎誉房地产开发有限公司变压器,高碑店市昆仑房地产开发有限公司,高碑店市东盛办事处高镇中心学校变压器,河北元和房地产开发有限公司3#变压器,奥润顺达窗业公司西,河北元和房地产开发有限公司2#变压器,河北尚轩房地产开发有限公司,保定顺和房地产开发有限公司（西）变压器,高碑店市路灯管理办公室,高碑店市荣悦昌纸制品制造有限公司变压器,高碑店市昆仑房地产开发有限公司2#变压器,高碑店市昆仑房地产开发有限公司4#变压器,河北元和房地产开发有限公司6#变压器,0691031521-高碑店市普惠健康体检有限公司-专变-234122772-高碑店市普惠健康体检有限公司,高碑店市城市管理综合执法局世纪大道3号,高碑店市昆仑房地产开发有限公司1#变压器,高碑店市久筑物业服务有限公司2变压器,娃哈哈增容工程,高碑店市久筑物业服务有限公司1变压器,河北元和房地产开发有限公司1#变压器,好妈妈商业股份有限公司变压器400,保定顺和房地产开发有限公司(东),高碑店市昆仑房地产开发有限公司6#变压器,河北元和房地产开发有限公司5#变压器,高碑店市昆仑房地产开发有限公司3#变压器,植物园,高碑店市威盾电子设备有限公司,","scope":"【影响街道/乡镇】东盛办事处 【高危重要客户】无 【影响客户】尚轩房地产、人和物业、高镇中心学校、普惠健康体检、路灯管理办公室、保定顺和房地产、荣悦昌包装制品有限公司、鼎誉房地产、植物公园管理处、河北家兴商贸集团有限公司、河北华信锅炉集团有限公司、高碑店市久筑物业服务有限公司","startTime":"2019-08-31 09:00:00","stopDate":"2019-08-31 11:00:00","orgNo":"1340612","typeCode":"其他临时停电","poweroffArea":"【全线路停电】停高碑店市昆仑房地产开发有限公司,高碑店市威盾电子设备有限公司,河北元和房地产开发有限公司4#变压器,河北鼎誉房地产开发有限公司变压器,高碑店市东盛办事处高镇中心学校变压器,河北元和房地产开发有限公司3#变压器,奥润顺达窗业公司西,河北元和房地产开发有限公司2#变压器,河北尚轩房地产开发有限公司,保定顺和房地产开发有限公司（西）变压器,高碑店市路灯管理办公室,河北元和房地产开发有限公司1#变压器,好妈妈商业股份有限公司变压器400,保定顺和房地产开发有限公司(东),高碑店市昆仑房地产开发有限公司6#变压器,河北元和房地产开发有限公司5#变压器,高碑店市昆仑房地产开发有限公司3#变压器,高碑店市荣悦昌纸制品制造有限公司变压器,高碑店市昆仑房地产开发有限公司2#变压器,高碑店市昆仑房地产开发有限公司4#变压器,河北元和房地产开发有限公司6#变压器,0691031521-高碑店市普惠健康体检有限公司-专变-234122772-高碑店市普惠健康体检有限公司,高碑店市城市管理综合执法局世纪大道3号,高碑店市昆仑房地产开发有限公司1#变压器,高碑店市久筑物业服务有限公司2变压器,植物园,娃哈哈增容工程,高碑店市久筑物业服务有限公司1变压器","poweroffReason":"【停电原因】由于更换高压绝缘直瓶导致１１０ＫＶ马庄变电站１０ＫＶ尚品５３０线路全线停电 【变更送电】无 【发布渠道】通过９５５９８发布","powerTime":"2019-08-31 10:10:56","powerComm":"已送电","subsNo":"","lineNo":"","tgNo":"","tgName":null,"infoStatus":"1","orgName":"国网高碑店市供电公司","typeName":null,"infoStatusName":null,"dateDay":null,"orgNos":null,"nowTime":null,"countyName":null,"streetName":null,"villageName":null,"roadName":null,"communityName":null,"tranName":null,"sdLineName":null,"cityCode":"1340612","cityName":"国网高碑店市供电公司","provinceCode":null,"stopTime":"2019-08-31 11:00:00","powerType":"全部","powerOffArea":"【全线路停电】停高碑店市昆仑房地产开发有限公司,高碑店市威盾电子设备有限公司,河北元和房地产开发有限公司4#变压器,河北鼎誉房地产开发有限公司变压器,高碑店市东盛办事处高镇中心学校变压器,河北元和房地产开发有限公司3#变压器,奥润顺达窗业公司西,河北元和房地产开发有限公司2#变压器,河北尚轩房地产开发有限公司,保定顺和房地产开发有限公司（西）变压器,高碑店市路灯管理办公室,河北元和房地产开发有限公司1#变压器,好妈妈商业股份有限公司变压器400,保定顺和房地产开发有限公司(东),高碑店市昆仑房地产开发有限公司6#变压器,河北元和房地产开发有限公司5#变压器,高碑店市昆仑房地产开发有限公司3#变压器,高碑店市荣悦昌纸制品制造有限公司变压器,高碑店市昆仑房地产开发有限公司2#变压器,高碑店市昆仑房地产开发有限公司4#变压器,河北元和房地产开发有限公司6#变压器,0691031521-高碑店市普惠健康体检有限公司-专变-234122772-高碑店市普惠健康体检有限公司,高碑店市城市管理综合执法局世纪大道3号,高碑店市昆仑房地产开发有限公司1#变压器,高碑店市久筑物业服务有限公司2变压器,植物园,娃哈哈增容工程,高碑店市久筑物业服务有限公司1变压器","powerOffReason":"【停电原因】由于更换高压绝缘直瓶导致１１０ＫＶ马庄变电站１０ＫＶ尚品５３０线路全线停电 【变更送电】无 【发布渠道】通过９５５９８发布","powerOffId":"2019083113000014"},{"poweroffId":2019083013000480,"sgpoweroffId":null,"subsName":"","lineName":"10KV下明峪511","pubTranName":"吕家铺9台区,红卫庄村中变压器,烟口子变压器,其中变压器,炮尔上变压器,吕家铺4台区,吕家铺3台区,吕家铺新建台区,吕家铺7台区,交界口二台区,红卫庄三台区,西角三台区,其中口北涧蘑菇井,西交界口3台区,吕家铺变压器,其中口南涧变压器,西角变压器,吕家铺6台区,交界口变压器,红卫庄二台区,泡儿上三台区,炮尔上水利【纯农排变】,南涧河变压器,西角幼儿园台区【冬季供暖设施】,红卫庄井,吕家铺5台区,","scope":"【影响街道/乡镇】其中口乡、赵各庄镇 【高危重要客户】无 【影响客户】吕家铺村、交界口村、红卫庄村、泡儿上村、其中口村、西角村","startTime":"2019-08-30 21:21:02","stopDate":"2019-08-30 23:30:00","orgNo":"1340614","typeCode":"电网故障停限电","poweroffArea":"【全线路停电】停红卫庄二台区,天源矿业,张沛成,红卫庄村中变压器,烟口子变压器,其中变压器,炮尔上变压器,吕家铺8台区,吕家铺4台区,吕家铺3台区,吕家铺新建台区,交界口二台区,西角二台区,红卫庄三台区,交界口石材厂,西角三台区,其中口北涧,其中口北涧蘑菇井,西交界口3台区,吕家铺变压器,其中口南涧变压器,西角变压器,大昌石粉加工厂315KVA专变,吕家铺6台区,交界口变压器,泡儿上三台区,中国移动通信河北有限公司新增变压器50KVA,天源选厂,炮尔上水利【纯农排变】,南涧河变压器,西角幼儿园台区【冬季供暖设施】,红卫庄井,吕家铺5台区,吕家铺9台区,吕家铺7台区","poweroffReason":"【停电原因】由于Ａ相接地导致３５ＫＶ其中口变电站１０ＫＶ下明峪５１１线路全线停电 【变更送电】因抢修进度加快原因，送电时间由０８月３１日１０：００变更为０８月３０日２３：３０ 【发布渠道】通过９５５９８发布","powerTime":"2019-08-30 23:14:36","powerComm":"已送电","subsNo":"","lineNo":"","tgNo":"","tgName":null,"infoStatus":"1","orgName":"国网涞水县供电公司","typeName":null,"infoStatusName":null,"dateDay":null,"orgNos":null,"nowTime":null,"countyName":null,"streetName":null,"villageName":null,"roadName":null,"communityName":null,"tranName":null,"sdLineName":null,"cityCode":"1340614","cityName":"国网涞水县供电公司","provinceCode":null,"stopTime":"2019-08-30 23:30:00","powerType":"全部","powerOffArea":"【全线路停电】停红卫庄二台区,天源矿业,张沛成,红卫庄村中变压器,烟口子变压器,其中变压器,炮尔上变压器,吕家铺8台区,吕家铺4台区,吕家铺3台区,吕家铺新建台区,交界口二台区,西角二台区,红卫庄三台区,交界口石材厂,西角三台区,其中口北涧,其中口北涧蘑菇井,西交界口3台区,吕家铺变压器,其中口南涧变压器,西角变压器,大昌石粉加工厂315KVA专变,吕家铺6台区,交界口变压器,泡儿上三台区,中国移动通信河北有限公司新增变压器50KVA,天源选厂,炮尔上水利【纯农排变】,南涧河变压器,西角幼儿园台区【冬季供暖设施】,红卫庄井,吕家铺5台区,吕家铺9台区,吕家铺7台区","powerOffReason":"【停电原因】由于Ａ相接地导致３５ＫＶ其中口变电站１０ＫＶ下明峪５１１线路全线停电 【变更送电】因抢修进度加快原因，送电时间由０８月３１日１０：００变更为０８月３０日２３：３０ 【发布渠道】通过９５５９８发布","powerOffId":"2019083013000480"},{"poweroffId":2019083013000464,"sgpoweroffId":null,"subsName":"","lineName":"10kV521城南线","pubTranName":"东北寺面粉厂,天天面业,蠡县石油分公司,0682423366-河北长瑞房地产开发有限公司-专变-221693506-河北长瑞房地产开发有限公司,小朱皮毛厂4590,商城东北门脸综合二台区出线间隔配电变压器,0546031618-蠡县嘉合纺织有限公司-专变-47811109-蠡县信远新型建筑材料制品厂变压器,南大留加油站,0469340857-铝合金加工厂-专变-46778891-铝合金加工厂,蠡县兴达货运有限公司变压器,0648953720-蠡县安顺汽车商贸有限公司-专变-174065963-蠡县安顺汽车商贸有限公司变压器,亚峰皮厂,北关霸王锅炉厂,0469339462-建民织布厂-专变-46778890-建民织布厂,蠡县晨希纺纱厂,东北寺立忠无纺织物厂变压器,中国移动通信集团河北有限公司蠡县分公司,东北寺家俱厂,蠡县天慈团绒厂,王清源洗浴,王红建,邢台市龙翔钻探有限公司变压器,河北长瑞房地产开发有限公司变压器,永林面粉厂,春生面粉厂3535,0653789097-河北华萃房地产开发有限公司经济适用房-专变-183720926-河北华萃房地产开发有限公司经济适用房,0678851847-蠡县鑫诚房地产开发有限公司-专变-219697086-蠡县鑫诚房地产开发有限公司变压器,0678851847-蠡县鑫诚房地产开发有限公司-专变-219697094-蠡县鑫诚房地产开发有限公司变压器,商城西南门脸综合三台区箱变出线间隔配电变压器,第七十六加油站,蠡县公安局变压器,蠡县盛世鑫源人造皮毛厂,蠡县天佳人造皮毛厂变压器,陈占广织布,兴达货运变压器,蠡县北关进学织布厂,兴达铁芯厂,东北寺综合八台区变压器,蠡县东北寺永发建筑材料经销部变压器,里县佰丽纺织有限公司5955,0469339622-蠡县嘉合纺织有限公司-专变-46778955-蠡县佳利纺织有限公司,蠡县富美达手套厂变压器,0678851847-蠡县鑫诚房地产开发有限公司-专变-219697088-蠡县鑫诚房地产开发有限公司变压器,新华油毡厂,商城西北门脸综合四台区出线间隔配电变压器,亚军织布厂,0657268512-蠡县君鹏房地产开发有限公司-专变-191116389-蠡县君鹏房地产开发有限公司变压器,东方明珠,蠡县育才初级中学变压器,溢源棉织厂3232,0678851847-蠡县鑫诚房地产开发有限公司-专变-219697092-蠡县鑫诚房地产开发有限公司变压器,河北双丰饮品有限公司变压器,金都丽景综合一台区出线间隔配电变压器,崔小卓,长瑞小区北环综合6台区出线间隔配电变压器,蠡县东北寺正亮卫生纸分装厂变压器,保定泰华房地产开发有限公司变压器,东北寺综合11台区变压器,蠡县阳光纺纱厂,蠡县城北康源织布厂变压器,0678851847-蠡县鑫诚房地产开发有限公司-专变-219697090-蠡县鑫诚房地产开发有限公司变压器,0682423366-河北长瑞房地产开发有限公司-专变-221691236-河北长瑞房地产开发有限公司,保蠡皮毛厂,进学织布厂,","scope":"【影响街道/乡镇】蠡吾镇、北环大街【高危重要客户】无【影响客户】蠡州商城、鑫鑫小区、君鹏尚品小区、长瑞锦城三、四期、辛兴小区、金都丽景、东北寺村、蠡县第三实验小学、蠡县公安局（新楼）、蠡县阳光纺纱厂、蠡县育才初级中学、光明家具城、佰丽纺织有限公司、进学织布厂、兴达铁芯厂、康源织布厂、亚军织布厂、保蠡皮毛厂、保定永汇建筑工程有限公司、佳利纺织公司、蠡县盛世鑫源人造皮毛厂、小陈农村信用合作社、南大留加油站、蠡县电影院","startTime":"2019-08-31 01:00:00","stopDate":"2019-08-31 07:30:00","orgNo":"1340616","typeCode":"其他临时停电","poweroffArea":"【全线路停电】停蠡县东北寺正亮卫生纸分装厂变压器,春生面粉厂3535,北关霸王锅炉厂,东方明珠,蠡县城北康源织布厂变压器,蠡县阳光纺纱厂,亚军织布厂,0653789097-河北华萃房地产开发有限公司经济适用房-专变-183720926-河北华萃房地产开发有限公司经济适用房,蠡县晨希纺纱厂,兴达铁芯厂,0657268512-蠡县君鹏房地产开发有限公司-专变-191116389-蠡县君鹏房地产开发有限公司变压器,河北长瑞房地产开发有限公司变压器,王红建,新华油毡厂,蠡县育才初级中学变压器,保定泰华房地产开发有限公司变压器,0678851847-蠡县鑫诚房地产开发有限公司-专变-219697094-蠡县鑫诚房地产开发有限公司变压器,东北寺面粉厂,蠡县公安局变压器,0678851847-蠡县鑫诚房地产开发有限公司-专变-219697090-蠡县鑫诚房地产开发有限公司变压器,蠡县天慈团绒厂,王清源洗浴,蠡县盛世鑫源人造皮毛厂,东北寺综合八台区变压器,0546031618-蠡县嘉合纺织有限公司-专变-47811109-蠡县信远新型建筑材料制品厂变压器,保蠡皮毛厂,南大留加油站,陈占广织布,商城西北门脸综合四台区出线间隔配电变压器,商城西南门脸综合三台区箱变出线间隔配电变压器,小朱皮毛厂4590,永林面粉厂,蠡县北关进学织布厂,蠡县天佳人造皮毛厂变压器,长瑞小区北环综合6台区出线间隔配电变压器,天天面业,0678851847-蠡县鑫诚房地产开发有限公司-专变-219697086-蠡县鑫诚房地产开发有限公司变压器,溢源棉织厂3232,东北寺立忠无纺织物厂变压器,蠡县兴达货运有限公司变压器,兴达货运变压器,蠡县石油分公司,进学织布厂,0469340857-铝合金加工厂-专变-46778891-铝合金加工厂,金都丽景综合一台区出线间隔配电变压器,东北寺家俱厂,0678851847-蠡县鑫诚房地产开发有限公司-专变-219697092-蠡县鑫诚房地产开发有限公司变压器,蠡县东北寺永发建筑材料经销部变压器,蠡县富美达手套厂变压器,中国移动通信集团河北有限公司蠡县分公司,第七十六加油站,东北寺综合11台区变压器,商城东北门脸综合二台区出线间隔配电变压器,0648953720-蠡县安顺汽车商贸有限公司-专变-174065963-蠡县安顺汽车商贸有限公司变压器,0678851847-蠡县鑫诚房地产开发有限公司-专变-219697088-蠡县鑫诚房地产开发有限公司变压器,0682423366-河北长瑞房地产开发有限公司-专变-221691236-河北长瑞房地产开发有限公司,亚峰皮厂,0469339622-蠡县嘉合纺织有限公司-专变-46778955-蠡县佳利纺织有限公司,0469339462-建民织布厂-专变-46778890-建民织布厂,邢台市龙翔钻探有限公司变压器,河北双丰饮品有限公司变压器,里县佰丽纺织有限公司5955,0682423366-河北长瑞房地产开发有限公司-专变-221693506-河北长瑞房地产开发有限公司,崔小卓","poweroffReason":"【停电原因】由于城南５２１线开关的操作机构严重缺陷，需停电进行紧急消缺导致２２０ＫＶ蠡县变电站１０ＫＶ城南５２１线路全线停电【变更送电】无【发布渠道】通过９５５９８发布","powerTime":"2019-08-31 06:30:31","powerComm":"已送电","subsNo":"","lineNo":"","tgNo":"","tgName":null,"infoStatus":"1","orgName":"国网蠡县供电公司","typeName":null,"infoStatusName":null,"dateDay":null,"orgNos":null,"nowTime":null,"countyName":null,"streetName":null,"villageName":null,"roadName":null,"communityName":null,"tranName":null,"sdLineName":null,"cityCode":"1340616","cityName":"国网蠡县供电公司","provinceCode":null,"stopTime":"2019-08-31 07:30:00","powerType":"全部","powerOffArea":"【全线路停电】停蠡县东北寺正亮卫生纸分装厂变压器,春生面粉厂3535,北关霸王锅炉厂,东方明珠,蠡县城北康源织布厂变压器,蠡县阳光纺纱厂,亚军织布厂,0653789097-河北华萃房地产开发有限公司经济适用房-专变-183720926-河北华萃房地产开发有限公司经济适用房,蠡县晨希纺纱厂,兴达铁芯厂,0657268512-蠡县君鹏房地产开发有限公司-专变-191116389-蠡县君鹏房地产开发有限公司变压器,河北长瑞房地产开发有限公司变压器,王红建,新华油毡厂,蠡县育才初级中学变压器,保定泰华房地产开发有限公司变压器,0678851847-蠡县鑫诚房地产开发有限公司-专变-219697094-蠡县鑫诚房地产开发有限公司变压器,东北寺面粉厂,蠡县公安局变压器,0678851847-蠡县鑫诚房地产开发有限公司-专变-219697090-蠡县鑫诚房地产开发有限公司变压器,蠡县天慈团绒厂,王清源洗浴,蠡县盛世鑫源人造皮毛厂,东北寺综合八台区变压器,0546031618-蠡县嘉合纺织有限公司-专变-47811109-蠡县信远新型建筑材料制品厂变压器,保蠡皮毛厂,南大留加油站,陈占广织布,商城西北门脸综合四台区出线间隔配电变压器,商城西南门脸综合三台区箱变出线间隔配电变压器,小朱皮毛厂4590,永林面粉厂,蠡县北关进学织布厂,蠡县天佳人造皮毛厂变压器,长瑞小区北环综合6台区出线间隔配电变压器,天天面业,0678851847-蠡县鑫诚房地产开发有限公司-专变-219697086-蠡县鑫诚房地产开发有限公司变压器,溢源棉织厂3232,东北寺立忠无纺织物厂变压器,蠡县兴达货运有限公司变压器,兴达货运变压器,蠡县石油分公司,进学织布厂,0469340857-铝合金加工厂-专变-46778891-铝合金加工厂,金都丽景综合一台区出线间隔配电变压器,东北寺家俱厂,0678851847-蠡县鑫诚房地产开发有限公司-专变-219697092-蠡县鑫诚房地产开发有限公司变压器,蠡县东北寺永发建筑材料经销部变压器,蠡县富美达手套厂变压器,中国移动通信集团河北有限公司蠡县分公司,第七十六加油站,东北寺综合11台区变压器,商城东北门脸综合二台区出线间隔配电变压器,0648953720-蠡县安顺汽车商贸有限公司-专变-174065963-蠡县安顺汽车商贸有限公司变压器,0678851847-蠡县鑫诚房地产开发有限公司-专变-219697088-蠡县鑫诚房地产开发有限公司变压器,0682423366-河北长瑞房地产开发有限公司-专变-221691236-河北长瑞房地产开发有限公司,亚峰皮厂,0469339622-蠡县嘉合纺织有限公司-专变-46778955-蠡县佳利纺织有限公司,0469339462-建民织布厂-专变-46778890-建民织布厂,邢台市龙翔钻探有限公司变压器,河北双丰饮品有限公司变压器,里县佰丽纺织有限公司5955,0682423366-河北长瑞房地产开发有限公司-专变-221693506-河北长瑞房地产开发有限公司,崔小卓","powerOffReason":"【停电原因】由于城南５２１线开关的操作机构严重缺陷，需停电进行紧急消缺导致２２０ＫＶ蠡县变电站１０ＫＶ城南５２１线路全线停电【变更送电】无【发布渠道】通过９５５９８发布","powerOffId":"2019083013000464"},{"poweroffId":2019083013000461,"sgpoweroffId":null,"subsName":"","lineName":"阳元街579","pubTranName":"白水泥厂东家属院1#,","scope":"【影响街道/乡镇】城管处【高危重要客户】无【影响客户】白水泥厂东家属院","startTime":"2019-08-31 05:00:00","stopDate":"2019-08-31 08:00:00","orgNo":"1340625","typeCode":"其他临时停电","poweroffArea":"【单台区停电】停白水泥厂东家属院1#","poweroffReason":"【停电原因】由于清理树障导致１１０ＫＶ店北变电站阳元街５７９线路白水泥厂东家属院１＃公变台区停电【变更送电】因抢修进度加快原因，送电时间由０９：００变更为０８：００【发布渠道】通过９５５９８发布","powerTime":"2019-08-31 07:15:57","powerComm":"已送电","subsNo":"","lineNo":"","tgNo":"","tgName":null,"infoStatus":"1","orgName":"国网易县供电公司","typeName":null,"infoStatusName":null,"dateDay":null,"orgNos":null,"nowTime":null,"countyName":null,"streetName":null,"villageName":null,"roadName":null,"communityName":null,"tranName":null,"sdLineName":null,"cityCode":"1340625","cityName":"国网易县供电公司","provinceCode":null,"stopTime":"2019-08-31 08:00:00","powerType":"全部","powerOffArea":"【单台区停电】停白水泥厂东家属院1#","powerOffReason":"【停电原因】由于清理树障导致１１０ＫＶ店北变电站阳元街５７９线路白水泥厂东家属院１＃公变台区停电【变更送电】因抢修进度加快原因，送电时间由０９：００变更为０８：００【发布渠道】通过９５５９８发布","powerOffId":"2019083013000461"},{"poweroffId":2019083013000424,"sgpoweroffId":null,"subsName":"","lineName":"10kV瓦子里512线","pubTranName":"瓦子里农业3号变压器【纯农排变】,瓦子里农业6号变压器【纯农排变】,瓦子里农业2号变压器【纯农排变】,","scope":"【影响街道/乡镇】段村乡 【高危重要客户】无 【影响客户】瓦子里村","startTime":"2019-09-11 08:00:00","stopDate":"2019-09-11 10:00:00","orgNo":"1340606","typeCode":"计划停电","poweroffArea":"【分支停电】停瓦子里农业2号变压器【纯农排变】,瓦子里农业3号变压器【纯农排变】,瓦子里农业6号变压器【纯农排变】","poweroffReason":"【停电原因】由于线路检修导致３５ＫＶ边三庄变电站１０ＫＶ瓦子里５１２线瓦子里６分支００号杆刀闸以下线路停电 【变更送电】因工作进度加快原因，送电时间由１８：３０变更为１０：００ 【发布渠道】保定市安国电视台（０９月０５日００时至２４时之间）屏幕上方滚动","powerTime":"2019-09-11 09:29:53","powerComm":"已送电","subsNo":"","lineNo":"","tgNo":"","tgName":null,"infoStatus":"1","orgName":"国网安国市供电公司","typeName":null,"infoStatusName":null,"dateDay":null,"orgNos":null,"nowTime":null,"countyName":null,"streetName":null,"villageName":null,"roadName":null,"communityName":null,"tranName":null,"sdLineName":null,"cityCode":"1340606","cityName":"国网安国市供电公司","provinceCode":null,"stopTime":"2019-09-11 10:00:00","powerType":"全部","powerOffArea":"【分支停电】停瓦子里农业2号变压器【纯农排变】,瓦子里农业3号变压器【纯农排变】,瓦子里农业6号变压器【纯农排变】","powerOffReason":"【停电原因】由于线路检修导致３５ＫＶ边三庄变电站１０ＫＶ瓦子里５１２线瓦子里６分支００号杆刀闸以下线路停电 【变更送电】因工作进度加快原因，送电时间由１８：３０变更为１０：００ 【发布渠道】保定市安国电视台（０９月０５日００时至２４时之间）屏幕上方滚动","powerOffId":"2019083013000424"},{"poweroffId":2019083013000416,"sgpoweroffId":null,"subsName":"","lineName":"10kV南娄底512线","pubTranName":"茂山卫综合九台区,","scope":"【影响街道/乡镇】南娄底乡 【高危重要客户】无 【影响客户】毛山卫村、南娄底村、高业村","startTime":"2019-09-12 08:00:00","stopDate":"2019-09-12 14:30:00","orgNo":"1340606","typeCode":"计划停电","poweroffArea":"【分支停电】停高业农业1台区【纯农排变】,南娄底农业6台区变压器,南娄底农业12台区【纯农排变】,茂山卫综合九台区","poweroffReason":"【停电原因】由于线路检修导致３５ＫＶ南娄底变电站１０ＫＶ南娄底５１２线路主干５８号杆开关及刀闸以下线路停电 【变更送电】无 【发布渠道】保定市安国电视台（０９月０５日００时至２４时之间）屏幕上方滚动","powerTime":"2019-09-12 14:08:49","powerComm":"已送电","subsNo":"","lineNo":"","tgNo":"","tgName":null,"infoStatus":"1","orgName":"国网安国市供电公司","typeName":null,"infoStatusName":null,"dateDay":null,"orgNos":null,"nowTime":null,"countyName":null,"streetName":null,"villageName":null,"roadName":null,"communityName":null,"tranName":null,"sdLineName":null,"cityCode":"1340606","cityName":"国网安国市供电公司","provinceCode":null,"stopTime":"2019-09-12 14:30:00","powerType":"全部","powerOffArea":"【分支停电】停高业农业1台区【纯农排变】,南娄底农业6台区变压器,南娄底农业12台区【纯农排变】,茂山卫综合九台区","powerOffReason":"【停电原因】由于线路检修导致３５ＫＶ南娄底变电站１０ＫＶ南娄底５１２线路主干５８号杆开关及刀闸以下线路停电 【变更送电】无 【发布渠道】保定市安国电视台（０９月０５日００时至２４时之间）屏幕上方滚动","powerOffId":"2019083013000416"},{"poweroffId":2019083013000411,"sgpoweroffId":null,"subsName":"","lineName":"10kV段村513线","pubTranName":"南段综3变压器,南段综合4变压器,南段综10变压器,","scope":"【影响街道/乡镇】段村乡 【高危重要客户】无 【影响客户】南段村","startTime":"2019-09-12 08:00:00","stopDate":"2019-09-12 16:15:00","orgNo":"1340606","typeCode":"计划停电","poweroffArea":"【分支停电】停南段综合4变压器,南段综10变压器,南段综3变压器","poweroffReason":"【停电原因】由于线路检修导致３５ＫＶ边三庄变电站１０ＫＶ段村５１３线南段分支１２号杆开关及刀闸以下线路停电 【变更送电】因检修进度加快原因，送电时间由１８：３０变更为１６：１５ 【发布渠道】保定市安国电视台（０９月０４日００时至２４时之间）屏幕上方滚动","powerTime":"2019-09-12 16:05:00","powerComm":"已送电","subsNo":"","lineNo":"","tgNo":"","tgName":null,"infoStatus":"1","orgName":"国网安国市供电公司","typeName":null,"infoStatusName":null,"dateDay":null,"orgNos":null,"nowTime":null,"countyName":null,"streetName":null,"villageName":null,"roadName":null,"communityName":null,"tranName":null,"sdLineName":null,"cityCode":"1340606","cityName":"国网安国市供电公司","provinceCode":null,"stopTime":"2019-09-12 16:15:00","powerType":"全部","powerOffArea":"【分支停电】停南段综合4变压器,南段综10变压器,南段综3变压器","powerOffReason":"【停电原因】由于线路检修导致３５ＫＶ边三庄变电站１０ＫＶ段村５１３线南段分支１２号杆开关及刀闸以下线路停电 【变更送电】因检修进度加快原因，送电时间由１８：３０变更为１６：１５ 【发布渠道】保定市安国电视台（０９月０４日００时至２４时之间）屏幕上方滚动","powerOffId":"2019083013000411"},{"poweroffId":2019083013000398,"sgpoweroffId":null,"subsName":"","lineName":"10kV永乐572","pubTranName":"胡家庄村东南变压器,富位大队台区,胡家庄中学间隔配电变压器,南汝河村北混变压器,胡家庄小学台区变压器,永乐村东专变压器【纯农排变】,富位村东专1变压器,姜各庄村中2,富位村东混2台区,南辛庄派出所变压器,胡家庄村东2台区【纯农排变】变压器,南辛庄村内台区,东官庄村东【纯农排变】,富位东机井,富位村南专变压器【纯农排变】,富位村南专新,胡家庄村西机井新建【纯农排变】变压器,富位村东专六台区变压器,富位专七变压器,富位村西混变压器,胡家庄乡直,西武泉村中变压器,王各庄村中,姜各庄村中台区,姜各庄村东2|0794,永乐村专2台区,永乐大队台区,南辛庄驾校机井【纯农排变】变压器,胡家庄村南变压器,南辛庄村北专,富位小东街台区变压器,西武泉村南专2,姜各庄村东专|0795【冬季供暖设施】,姜各庄村内【冬季供暖设施】,西武泉村北专二,南辛庄村东三,永乐村南混变压器,富位村东庄2新,胡家庄村西机井,永乐村内1台区,胡家庄专用|0792【纯农排变】,东官庄村南1,胡家庄专用一,王各庄村东,姜各庄东北专变压器【纯农排变】,北汝河村内混变压器,富位东北井变压器,富位村南2,永乐村北专用变压器【纯农排变】,东官庄村南,王各庄村南|0836,富位村东专3新,永乐村内,永乐村东混,王各庄村北混变压器,南汝河村内混变压器,北汝河村东专二台区变压器,永乐村东1号井【纯农排变】,永乐村东北混1台区,富位村内混变压器,姜各庄村北混用台区变压器,南辛庄村东台区,永乐东北混变压器【纯农排变】,富位村西专,南汝河村北专变压器,永乐村南1台区,富位村南混变压器,西武泉村南变压器,姜各庄村西混变压器,南汝河村北专2【纯农排变】,北汝河村西北混变压器,姜各庄村东新增,北汝河大队台区,永乐村北2,富位村东南混,北汝河村西2台区,南辛庄村东【纯农排变】,富位东专变压器【纯农排变】,胡家庄村东北新【纯农排变】变压器,南汝河村东专2台区【纯农排变】,永乐路边混变压器,胡家庄广场台区,王各庄燃气站变压器,富位东专5变压器【纯农排变】,富位村东专4变压器【纯农排变】,西武泉村南专变压器【纯农排变】,胡家庄专用二变压器,西武泉村西混变压器,富位村东混变压器,富位村西二变压器,南汝河村南,胡家庄东北专变压器【纯农排变】,北汝河村东混,富位村东北专,王各庄村南二,北汝河东北专变压器区【纯农排变】,南辛庄原种厂西台区,富位东庄2变压器,富位村东专3变压器,西武泉东北专【纯农排变】,南汝河村西混变压器,王各庄村南专【纯农排变】,胡家庄村内变压器,","scope":"【影响街道/乡镇】胡家庄乡 【高危重要客户】无 【影响客户】东官庄村、富位村、胡家庄村、南辛庄村、西武泉村、王各庄村、永乐村、南汝河村、北汝河村、姜各庄村","startTime":"2019-09-11 04:00:00","stopDate":"2019-09-11 18:00:00","orgNo":"1340614","typeCode":"计划停电","poweroffArea":"【分支停电】停南辛庄原种厂西台区,富位东庄2变压器,张石3#路灯变,张石1#路灯变,变压器,南辛庄村东2,北汝河村东北专2台区,北汝河东北专变压器区【纯农排变】,富位村东专3变压器,富位村北井台区,西武泉东北专【纯农排变】,南汝河村西混变压器,王各庄村南专【纯农排变】,胡家庄村内变压器,富位大队台区,河北中北环科节能科技有限公司新增变压器,富位村东专1变压器,胡家庄村东南变压器,南汝河村北混变压器,中节能(涞水)环保能源有限公司1000KVA,胡家庄小学台区变压器,永乐村东专变压器【纯农排变】,胡家庄中学间隔配电变压器,富全蔬菜合作社200KVA专变,姜各庄村中2,富位村东混2台区,南辛庄派出所变压器,胡家庄村东2台区【纯农排变】变压器,永乐北专用变压器【纯农排变】,卢国华冷库160KVA专变,富位东机井,胡家庄村西机井新建【纯农排变】变压器,省扶贫基地2,张石2#路灯变,富位村东专六台区变压器,富位村西混变压器,南辛庄村内台区,东官庄村东【纯农排变】,富位村南专变压器【纯农排变】,北汝河村边专变压器【纯农排变】,西武泉村北专【纯农排变】,涞水县尚睿洗浴中心,富位村南专新,北汝河村西专【纯农排变】,富位专七变压器,永乐村专2台区,永乐大队台区,南辛庄驾校机井【纯农排变】变压器,南辛庄村北专,富位小东街台区变压器,姜各庄村东专|0795【冬季供暖设施】,南辛庄村东三,胡家庄村西机井,任东连灰厂,富民面粉厂,富位农场2,永乐村北专用变压器【纯农排变】,省扶贫基地养,王各庄面粉厂,胡家庄乡直,王各庄村北二台区,西武泉村中变压器,王各庄村中,姜各庄村中台区,涞水县农村信用合作联社新增100KVA变压器,姜各庄村东2|0794,胡家庄村南变压器,西武泉村南专2,富位村北台区,永乐村北混变压器,姜各庄村内【冬季供暖设施】,永乐村南混变压器,涞水县贵兴烧洁页岩砖有限公司新增变压器1000KVA,富位村东庄2新,永乐村内1台区,0648630919-涞水县汇通洁净型煤有限公司-专变-172540185-涞水县汇通洁净型煤有限公司新增630KVA,胡家庄专用|0792【纯农排变】,东官庄村南1,胡家庄专用一,王各庄村东,富位村南2,蔡联军100KVA专变,东官庄村南,王各庄村南|0836,富位村东专3新,永乐村内,永乐村东混,王各庄村北混变压器,0644356121-涞水县汇通洁净型煤有限公司-专变-162024032-汇通洁净型煤有限公司200KVA专变,南汝河村内混变压器,北汝河村东专二台区变压器,0552217055-北京八方达客运有限责任公司大兴分公司-专变-50303231-配变,胡家庄乡大众浴池250KVA专变,富位专3变压器【纯农排变】,富位村内混变压器,姜各庄村北混用台区变压器,永乐东北混变压器【纯农排变】,富位东专5变压器【纯农排变】,汇通洁净型煤1250KVA专变,姜各庄村东混变压器,涞水县汇豪酒店有限公司新增变压器,永乐村东1号井【纯农排变】,涞水县艳茹冷库服务部200KVA专变,永乐村东北混1台区,南辛庄村东台区,富位村西专,南汝河村北专变压器,永乐村南1台区,富位村南混变压器,西武泉村北专二,姜各庄东北专变压器【纯农排变】,北汝河村内混变压器,富位东北井变压器,胡家庄村东北新【纯农排变】变压器,南汝河村东专2台区【纯农排变】,永乐路边混变压器,胡家庄广场台区,保定驼王生物工程有限公司新增变压器,王各庄燃气站变压器,富位村东专4变压器【纯农排变】,西武泉村南专变压器【纯农排变】,西武泉村南变压器,姜各庄村西混变压器,南汝河村北专2【纯农排变】,北汝河村西北混变压器,0607025172-河北省公安厅高速公路交通警察总队保定支队涞水大队-专变-12","poweroffReason":"【停电原因】由于更换导线导致１１０ＫＶ郭下变电站１０ＫＶ永乐５７２线路２９号杆至７５号杆停电 【变更送电】无 【发布渠道】保定市涞水电视台（０８月３１日００时至０９月１０日２３时之间）屏幕上方滚动。","powerTime":"2019-09-11 17:54:58","powerComm":"已送电","subsNo":"","lineNo":"","tgNo":"","tgName":null,"infoStatus":"1","orgName":"国网涞水县供电公司","typeName":null,"infoStatusName":null,"dateDay":null,"orgNos":null,"nowTime":null,"countyName":null,"streetName":null,"villageName":null,"roadName":null,"communityName":null,"tranName":null,"sdLineName":null,"cityCode":"1340614","cityName":"国网涞水县供电公司","provinceCode":null,"stopTime":"2019-09-11 18:00:00","powerType":"全部","powerOffArea":"【分支停电】停南辛庄原种厂西台区,富位东庄2变压器,张石3#路灯变,张石1#路灯变,变压器,南辛庄村东2,北汝河村东北专2台区,北汝河东北专变压器区【纯农排变】,富位村东专3变压器,富位村北井台区,西武泉东北专【纯农排变】,南汝河村西混变压器,王各庄村南专【纯农排变】,胡家庄村内变压器,富位大队台区,河北中北环科节能科技有限公司新增变压器,富位村东专1变压器,胡家庄村东南变压器,南汝河村北混变压器,中节能(涞水)环保能源有限公司1000KVA,胡家庄小学台区变压器,永乐村东专变压器【纯农排变】,胡家庄中学间隔配电变压器,富全蔬菜合作社200KVA专变,姜各庄村中2,富位村东混2台区,南辛庄派出所变压器,胡家庄村东2台区【纯农排变】变压器,永乐北专用变压器【纯农排变】,卢国华冷库160KVA专变,富位东机井,胡家庄村西机井新建【纯农排变】变压器,省扶贫基地2,张石2#路灯变,富位村东专六台区变压器,富位村西混变压器,南辛庄村内台区,东官庄村东【纯农排变】,富位村南专变压器【纯农排变】,北汝河村边专变压器【纯农排变】,西武泉村北专【纯农排变】,涞水县尚睿洗浴中心,富位村南专新,北汝河村西专【纯农排变】,富位专七变压器,永乐村专2台区,永乐大队台区,南辛庄驾校机井【纯农排变】变压器,南辛庄村北专,富位小东街台区变压器,姜各庄村东专|0795【冬季供暖设施】,南辛庄村东三,胡家庄村西机井,任东连灰厂,富民面粉厂,富位农场2,永乐村北专用变压器【纯农排变】,省扶贫基地养,王各庄面粉厂,胡家庄乡直,王各庄村北二台区,西武泉村中变压器,王各庄村中,姜各庄村中台区,涞水县农村信用合作联社新增100KVA变压器,姜各庄村东2|0794,胡家庄村南变压器,西武泉村南专2,富位村北台区,永乐村北混变压器,姜各庄村内【冬季供暖设施】,永乐村南混变压器,涞水县贵兴烧洁页岩砖有限公司新增变压器1000KVA,富位村东庄2新,永乐村内1台区,0648630919-涞水县汇通洁净型煤有限公司-专变-172540185-涞水县汇通洁净型煤有限公司新增630KVA,胡家庄专用|0792【纯农排变】,东官庄村南1,胡家庄专用一,王各庄村东,富位村南2,蔡联军100KVA专变,东官庄村南,王各庄村南|0836,富位村东专3新,永乐村内,永乐村东混,王各庄村北混变压器,0644356121-涞水县汇通洁净型煤有限公司-专变-162024032-汇通洁净型煤有限公司200KVA专变,南汝河村内混变压器,北汝河村东专二台区变压器,0552217055-北京八方达客运有限责任公司大兴分公司-专变-50303231-配变,胡家庄乡大众浴池250KVA专变,富位专3变压器【纯农排变】,富位村内混变压器,姜各庄村北混用台区变压器,永乐东北混变压器【纯农排变】,富位东专5变压器【纯农排变】,汇通洁净型煤1250KVA专变,姜各庄村东混变压器,涞水县汇豪酒店有限公司新增变压器,永乐村东1号井【纯农排变】,涞水县艳茹冷库服务部200KVA专变,永乐村东北混1台区,南辛庄村东台区,富位村西专,南汝河村北专变压器,永乐村南1台区,富位村南混变压器,西武泉村北专二,姜各庄东北专变压器【纯农排变】,北汝河村内混变压器,富位东北井变压器,胡家庄村东北新【纯农排变】变压器,南汝河村东专2台区【纯农排变】,永乐路边混变压器,胡家庄广场台区,保定驼王生物工程有限公司新增变压器,王各庄燃气站变压器,富位村东专4变压器【纯农排变】,西武泉村南专变压器【纯农排变】,西武泉村南变压器,姜各庄村西混变压器,南汝河村北专2【纯农排变】,北汝河村西北混变压器,0607025172-河北省公安厅高速公路交通警察总队保定支队涞水大队-专变-12","powerOffReason":"【停电原因】由于更换导线导致１１０ＫＶ郭下变电站１０ＫＶ永乐５７２线路２９号杆至７５号杆停电 【变更送电】无 【发布渠道】保定市涞水电视台（０８月３１日００时至０９月１０日２３时之间）屏幕上方滚动。","powerOffId":"2019083013000398"},{"poweroffId":2019083013000379,"sgpoweroffId":null,"subsName":"","lineName":"10kV固西562线","pubTranName":"固城综合12台区,固城农业9台区【纯农排变】,","scope":"【影响街道/乡镇】伍仁桥镇 【高危重要客户】无 【影响客户】固城村","startTime":"2019-09-11 08:00:00","stopDate":"2019-09-11 11:30:00","orgNo":"1340606","typeCode":"计划停电","poweroffArea":"【分支停电】停固城综合12台区,固城农业9台区【纯农排变】","poweroffReason":"【停电原因】由于线路检修导致１１０ＫＶ伍仁桥变电站１０ＫＶ固西５６２线固城分支００号杆开关及刀闸以下线路停电 【变更送电】因工作进度加快原因，送电时间由１４：３０变更为１１：３０ 【发布渠道】保定市安国电视台（０９月０４日００时至２４时之间）屏幕上方滚动","powerTime":"2019-09-11 10:46:51","powerComm":"已送电","subsNo":"","lineNo":"","tgNo":"","tgName":null,"infoStatus":"1","orgName":"国网安国市供电公司","typeName":null,"infoStatusName":null,"dateDay":null,"orgNos":null,"nowTime":null,"countyName":null,"streetName":null,"villageName":null,"roadName":null,"communityName":null,"tranName":null,"sdLineName":null,"cityCode":"1340606","cityName":"国网安国市供电公司","provinceCode":null,"stopTime":"2019-09-11 11:30:00","powerType":"全部","powerOffArea":"【分支停电】停固城综合12台区,固城农业9台区【纯农排变】","powerOffReason":"【停电原因】由于线路检修导致１１０ＫＶ伍仁桥变电站１０ＫＶ固西５６２线固城分支００号杆开关及刀闸以下线路停电 【变更送电】因工作进度加快原因，送电时间由１４：３０变更为１１：３０ 【发布渠道】保定市安国电视台（０９月０４日００时至２４时之间）屏幕上方滚动","powerOffId":"2019083013000379"}],"pageModel":{"pageNow":597,"totalCount":10973,"totalPage":1098,"tableRows":0,"pageCount":10,"beginCount":5960},"isExperi":"1"}