{"message":"","today":"2020-06-15","seleList":[{"poweroffId":2019083013000378,"sgpoweroffId":null,"subsName":"","lineName":"10kV东官庄557","pubTranName":"北南租村北专变压器【纯农排变】,南瓦宅村东混变压器,北瓦宅村北2台区,北南租村中,南瓦宅村内2,南瓦宅村东2,北南租村北2,北瓦宅村东北变压器,北南租村北混变压器,北京公交集团资产管理涞水有限公司315KVA专变,司徒村东南1台区【纯农排变】,北瓦宅大队台区变压器,南瓦宅村西南专【纯农排变】,司徒村内50,司徒村北专变压器,0469096675-东明义面粉厂-专变-46718866-东明义面粉厂,北京市政建设集团有限责任公司315KVA专变,南瓦宅东北专变压器,经济开发区管委会315KVA专变,南瓦宅村北混变压器,张志安机井,训林灰厂2,南互通收费站,司徒村内专50,训林灰粉厂,北瓦宅村东混变压器,涞水县国土资源局新增100KVA变压器,董家庄村东北,司徒村内2,南瓦宅村内混变压器,涞水京涞易轻200KVA专变,涞水中港电子科技有限公司200KVA专变,0619340779-涞水县圣鑫石灰厂-专变-128938100-圣鑫石灰厂200KVA专变,董家庄村东混,封村100KVA路灯变,陶立厂,南瓦宅村西北2台区,北瓦宅面粉厂,北瓦宅村内混变压器,张志安灰粉厂,司徒村东50专,司徒村东200【纯农排变】,变压器,南瓦宅村西专变压器【纯农排变】,北丰村村东二,南瓦宅学校台区,南瓦宅东南专,董家庄村西混,瓦宅100KVA路灯变,华恒商贸有限公司100KVA专变,南秋兰马路边台区,北瓦宅村北混变压器,北南租村西混变压器,0627226874-河北涞博传动机械制造有限公司-专变-139258158-涞博传动机械制造有限公司250KVA变压器专变,董家庄村东南专【纯农排变】,南秋兰村西混变压器,河北涞博传动机械制造有限公司250KVA 专变,司徒村东北|0827【纯农排变】,司徒村内100,董家庄村东北专变压器【纯农排变】,董家庄村东专【纯农排变】,南秋兰村南台区,张家洼村南混用变压器,南秋兰村北混变压器,司徒村东混用台区,司徒村南混变压器,董家庄大队台区变压器,北瓦宅村西混变压器,北瓦宅村西2变压器【纯农排变】,南秋兰村东混变压器,张家洼村北混用变压器,北丰村村东一,北瓦宅北三台区,北封村内变压器,南瓦宅村北2台区,张家洼村东台区,南瓦宅村西混变压器,南瓦宅村西2台区,南瓦宅村南混变压器,董家庄村南,北瓦宅村西北混变压器,","scope":"【影响街道/乡镇】涞水镇、明义镇 【高危重要客户】无 【影响客户】北南租村、南瓦宅村、北瓦宅村、南秋兰村、北封村、张家洼村、司徒村、董家庄村","startTime":"2019-09-09 05:00:00","stopDate":"2019-09-09 18:00:00","orgNo":"1340614","typeCode":"计划停电","poweroffArea":"【分支停电】停北南租村北专变压器【纯农排变】,南瓦宅村东混变压器,北瓦宅村北2台区,北南租村中,南瓦宅村内2,南瓦宅村东2,北南租村北2,北瓦宅村东北变压器,北南租村北混变压器,北京公交集团资产管理涞水有限公司315KVA专变,司徒村东南1台区【纯农排变】,北瓦宅大队台区变压器,南瓦宅村西南专【纯农排变】,司徒村内50,司徒村北专变压器,0469096675-东明义面粉厂-专变-46718866-东明义面粉厂,北京市政建设集团有限责任公司315KVA专变,南瓦宅东北专变压器,经济开发区管委会315KVA专变,南瓦宅村北混变压器,张志安机井,训林灰厂2,南互通收费站,司徒村内专50,训林灰粉厂,北瓦宅村东混变压器,涞水县国土资源局新增100KVA变压器,董家庄村东北,司徒村内2,南瓦宅村内混变压器,涞水京涞易轻200KVA专变,涞水中港电子科技有限公司200KVA专变,0619340779-涞水县圣鑫石灰厂-专变-128938100-圣鑫石灰厂200KVA专变,董家庄村东混,封村100KVA路灯变,陶立厂,南瓦宅村西北2台区,北瓦宅面粉厂,北瓦宅村内混变压器,张志安灰粉厂,司徒村东50专,司徒村东200【纯农排变】,变压器,南瓦宅村西专变压器【纯农排变】,北丰村村东二,南瓦宅学校台区,南瓦宅东南专,董家庄村西混,瓦宅100KVA路灯变,华恒商贸有限公司100KVA专变,南秋兰马路边台区,北瓦宅村北混变压器,北南租村西混变压器,0627226874-河北涞博传动机械制造有限公司-专变-139258158-涞博传动机械制造有限公司250KVA变压器专变,董家庄村东南专【纯农排变】,南秋兰村西混变压器,河北涞博传动机械制造有限公司250KVA 专变,司徒村东北|0827【纯农排变】,司徒村内100,董家庄村东北专变压器【纯农排变】,董家庄村东专【纯农排变】,南秋兰村南台区,张家洼村南混用变压器,南秋兰村北混变压器,司徒村东混用台区,司徒村南混变压器,董家庄大队台区变压器,北瓦宅村西混变压器,北瓦宅村西2变压器【纯农排变】,南秋兰村东混变压器,张家洼村北混用变压器,北丰村村东一,北瓦宅北三台区,北封村内变压器,南瓦宅村北2台区,张家洼村东台区,南瓦宅村西混变压器,南瓦宅村西2台区,南瓦宅村南混变压器,董家庄村南,北瓦宅村西北混变压器","poweroffReason":"【停电原因】由于更换导线导致１１０ＫＶ郭下变电站１０ＫＶ东官庄５５７线路８７号杆至１２０号杆停电 【变更送电】无 【发布渠道】保定市涞水电视台（０８月３１日００时至０９月０８日２３时之间）屏幕上方滚动。","powerTime":"2019-09-09 17:46:59","powerComm":"已送电","subsNo":"","lineNo":"","tgNo":"","tgName":null,"infoStatus":"1","orgName":"国网涞水县供电公司","typeName":null,"infoStatusName":null,"dateDay":null,"orgNos":null,"nowTime":null,"countyName":null,"streetName":null,"villageName":null,"roadName":null,"communityName":null,"tranName":null,"sdLineName":null,"cityCode":"1340614","cityName":"国网涞水县供电公司","provinceCode":null,"stopTime":"2019-09-09 18:00:00","powerType":"全部","powerOffArea":"【分支停电】停北南租村北专变压器【纯农排变】,南瓦宅村东混变压器,北瓦宅村北2台区,北南租村中,南瓦宅村内2,南瓦宅村东2,北南租村北2,北瓦宅村东北变压器,北南租村北混变压器,北京公交集团资产管理涞水有限公司315KVA专变,司徒村东南1台区【纯农排变】,北瓦宅大队台区变压器,南瓦宅村西南专【纯农排变】,司徒村内50,司徒村北专变压器,0469096675-东明义面粉厂-专变-46718866-东明义面粉厂,北京市政建设集团有限责任公司315KVA专变,南瓦宅东北专变压器,经济开发区管委会315KVA专变,南瓦宅村北混变压器,张志安机井,训林灰厂2,南互通收费站,司徒村内专50,训林灰粉厂,北瓦宅村东混变压器,涞水县国土资源局新增100KVA变压器,董家庄村东北,司徒村内2,南瓦宅村内混变压器,涞水京涞易轻200KVA专变,涞水中港电子科技有限公司200KVA专变,0619340779-涞水县圣鑫石灰厂-专变-128938100-圣鑫石灰厂200KVA专变,董家庄村东混,封村100KVA路灯变,陶立厂,南瓦宅村西北2台区,北瓦宅面粉厂,北瓦宅村内混变压器,张志安灰粉厂,司徒村东50专,司徒村东200【纯农排变】,变压器,南瓦宅村西专变压器【纯农排变】,北丰村村东二,南瓦宅学校台区,南瓦宅东南专,董家庄村西混,瓦宅100KVA路灯变,华恒商贸有限公司100KVA专变,南秋兰马路边台区,北瓦宅村北混变压器,北南租村西混变压器,0627226874-河北涞博传动机械制造有限公司-专变-139258158-涞博传动机械制造有限公司250KVA变压器专变,董家庄村东南专【纯农排变】,南秋兰村西混变压器,河北涞博传动机械制造有限公司250KVA 专变,司徒村东北|0827【纯农排变】,司徒村内100,董家庄村东北专变压器【纯农排变】,董家庄村东专【纯农排变】,南秋兰村南台区,张家洼村南混用变压器,南秋兰村北混变压器,司徒村东混用台区,司徒村南混变压器,董家庄大队台区变压器,北瓦宅村西混变压器,北瓦宅村西2变压器【纯农排变】,南秋兰村东混变压器,张家洼村北混用变压器,北丰村村东一,北瓦宅北三台区,北封村内变压器,南瓦宅村北2台区,张家洼村东台区,南瓦宅村西混变压器,南瓦宅村西2台区,南瓦宅村南混变压器,董家庄村南,北瓦宅村西北混变压器","powerOffReason":"【停电原因】由于更换导线导致１１０ＫＶ郭下变电站１０ＫＶ东官庄５５７线路８７号杆至１２０号杆停电 【变更送电】无 【发布渠道】保定市涞水电视台（０８月３１日００时至０９月０８日２３时之间）屏幕上方滚动。","powerOffId":"2019083013000378"},{"poweroffId":2019083013000371,"sgpoweroffId":null,"subsName":"","lineName":"10kV环城516线","pubTranName":"观音堂综合10台区,杜庄综合一.,观音堂综合6号变压器,观音堂综9台区,","scope":"【影响街道/乡镇】药市街 【高危重要客户】无 【影响客户】观音堂村、盛景华庭、药都新城、数字中药都、地表水厂、消防大队、鸿翔欧景苑","startTime":"2019-09-11 08:00:00","stopDate":"2019-09-11 18:00:00","orgNo":"1340606","typeCode":"计划停电","poweroffArea":"【分支停电】停观音堂综9台区,观音堂综合10台区,杜庄综合一.,观音堂综合6号变压器","poweroffReason":"【停电原因】由于线路检修导致１１０ＫＶ药城变电站１０ＫＶ环城５１６线路观音堂分支０１号杆刀闸以下线路停电 【变更送电】因工作未完成原因，送电时间由１５：００变更为１８：００ 【发布渠道】保定市安国电视台（０９月０４日００时至２４时之间）屏幕上方滚动","powerTime":"2019-09-11 17:49:32","powerComm":"已送电","subsNo":"","lineNo":"","tgNo":"","tgName":null,"infoStatus":"1","orgName":"国网安国市供电公司","typeName":null,"infoStatusName":null,"dateDay":null,"orgNos":null,"nowTime":null,"countyName":null,"streetName":null,"villageName":null,"roadName":null,"communityName":null,"tranName":null,"sdLineName":null,"cityCode":"1340606","cityName":"国网安国市供电公司","provinceCode":null,"stopTime":"2019-09-11 18:00:00","powerType":"全部","powerOffArea":"【分支停电】停观音堂综9台区,观音堂综合10台区,杜庄综合一.,观音堂综合6号变压器","powerOffReason":"【停电原因】由于线路检修导致１１０ＫＶ药城变电站１０ＫＶ环城５１６线路观音堂分支０１号杆刀闸以下线路停电 【变更送电】因工作未完成原因，送电时间由１５：００变更为１８：００ 【发布渠道】保定市安国电视台（０９月０４日００时至２４时之间）屏幕上方滚动","powerOffId":"2019083013000371"},{"poweroffId":2019083013000368,"sgpoweroffId":null,"subsName":"","lineName":"10kV540东沟线","pubTranName":"四家井戏子沟口,野孤自来水变压器,万泉庄沟门台区,偏道子村北2,万全庄村井台区,偏道子村中变压器【冬季供暖设施】,偏道子卫生院台区,野狐扶贫井,赵家地机井变压器【冬季供暖设施】,大台永安镇沟口台区,野狐村北,四家井桦树峪变压器,偏道子村南台区,排角村中变压器,蛟龙口村东,蛟龙口村南,偏道子村北,四家井村北变压器,庄户村变压器,大台永安庄台区,赵家地3台区,庄户扶贫井1,赵家地四台区,庄户水窖台区,野孤村中变压器,大台芦沟口变压器,蛟龙口南二台区,排角四台区,店上扶贫井3号,万全庄3台区,万全庄机井变压器,四家井岭道沟变压器,万全庄村台区,蛟龙口村北,野孤七八队变压器,万全庄村中变压器,蛟龙口村中变压器,偏道子二台区变压器,四家井养老院台区,万全庄新2台区,大台扶贫井,排角二台区变压器,四家井杏树台,四家井村东,四家井自来水井,四家井小园台区,庄户机井台区,赵家地村中变压器,大台新村,","scope":"【影响街道/乡镇】龙门乡 【高危重要客户】无 【影响客户】野孤村、庄户村、万全庄村、四家井村、偏道子村、排角村、蛟龙口村、大台村、赵家地村","startTime":"2019-09-12 06:00:00","stopDate":"2019-09-12 18:00:00","orgNo":"1340614","typeCode":"计划停电","poweroffArea":"【分支停电】停四家井戏子沟口,野孤自来水变压器,万泉庄沟门台区,偏道子村北2,万全庄村井台区,偏道子村中变压器【冬季供暖设施】,偏道子卫生院台区,野狐扶贫井,赵家地机井变压器【冬季供暖设施】,大台永安镇沟口台区,四家井村南（2）变压器,野狐村北,四家井桦树峪变压器,偏道子村南台区,排角村中变压器,蛟龙口村东,蛟龙口村南,排角5台区,偏道子村北,四家井村北变压器,庄户村变压器,大台永安庄台区,万全庄村台区,蛟龙口村北,野孤七八队变压器,万全庄村中变压器,蛟龙口村中变压器,偏道子二台区变压器,四家井养老院台区,万全庄新2台区,大台扶贫井,大台村中变压器,排角二台区变压器,四家井杏树台,四家井村东,四家井自来水井,四家井小园台区,庄户机井台区,赵家地村中变压器,大台新村,赵家地3台区,庄户扶贫井1,赵家地四台区,庄户水窖台区,野孤村中变压器,大台芦沟口变压器,蛟龙口南二台区,排角四台区,店上扶贫井3号,万全庄3台区,万全庄机井变压器,四家井岭道沟变压器","poweroffReason":"【停电原因】由于更换导线导致１１０ＫＶ六顺变电站１０ＫＶ东沟５４０线路０２号杆至７１号杆停电 【变更送电】无 【发布渠道】保定市涞水电视台（０８月３１日００时至０９月１１日２３时之间）屏幕上方滚动","powerTime":"2019-09-12 17:04:52","powerComm":"已送电","subsNo":"","lineNo":"","tgNo":"","tgName":null,"infoStatus":"1","orgName":"国网涞水县供电公司","typeName":null,"infoStatusName":null,"dateDay":null,"orgNos":null,"nowTime":null,"countyName":null,"streetName":null,"villageName":null,"roadName":null,"communityName":null,"tranName":null,"sdLineName":null,"cityCode":"1340614","cityName":"国网涞水县供电公司","provinceCode":null,"stopTime":"2019-09-12 18:00:00","powerType":"全部","powerOffArea":"【分支停电】停四家井戏子沟口,野孤自来水变压器,万泉庄沟门台区,偏道子村北2,万全庄村井台区,偏道子村中变压器【冬季供暖设施】,偏道子卫生院台区,野狐扶贫井,赵家地机井变压器【冬季供暖设施】,大台永安镇沟口台区,四家井村南（2）变压器,野狐村北,四家井桦树峪变压器,偏道子村南台区,排角村中变压器,蛟龙口村东,蛟龙口村南,排角5台区,偏道子村北,四家井村北变压器,庄户村变压器,大台永安庄台区,万全庄村台区,蛟龙口村北,野孤七八队变压器,万全庄村中变压器,蛟龙口村中变压器,偏道子二台区变压器,四家井养老院台区,万全庄新2台区,大台扶贫井,大台村中变压器,排角二台区变压器,四家井杏树台,四家井村东,四家井自来水井,四家井小园台区,庄户机井台区,赵家地村中变压器,大台新村,赵家地3台区,庄户扶贫井1,赵家地四台区,庄户水窖台区,野孤村中变压器,大台芦沟口变压器,蛟龙口南二台区,排角四台区,店上扶贫井3号,万全庄3台区,万全庄机井变压器,四家井岭道沟变压器","powerOffReason":"【停电原因】由于更换导线导致１１０ＫＶ六顺变电站１０ＫＶ东沟５４０线路０２号杆至７１号杆停电 【变更送电】无 【发布渠道】保定市涞水电视台（０８月３１日００时至０９月１１日２３时之间）屏幕上方滚动","powerOffId":"2019083013000368"},{"poweroffId":2019083013000356,"sgpoweroffId":null,"subsName":"","lineName":"10kV水厂521线","pubTranName":"镀膜厂变压器,","scope":"【影响街道/乡镇】药市街 【高危重要客户】无 【影响客户】仁和小区、南关污水泵站","startTime":"2019-09-10 08:00:00","stopDate":"2019-09-10 13:00:00","orgNo":"1340606","typeCode":"计划停电","poweroffArea":"【分支停电】停镀膜厂变压器","poweroffReason":"【停电原因】由于线路检修导致１１０ＫＶ东河变电站１０ＫＶ水厂５２１线路镀膜厂分支００号杆刀闸以下线路停电 【变更送电】因工作进度加快原因，送电时间由１５：００变更为１３：００ 【发布渠道】保定市安国电视台（０９月０３日００时至２４时之间）屏幕上方滚动","powerTime":"2019-09-10 13:00:00","powerComm":"已送电","subsNo":"","lineNo":"","tgNo":"","tgName":null,"infoStatus":"1","orgName":"国网安国市供电公司","typeName":null,"infoStatusName":null,"dateDay":null,"orgNos":null,"nowTime":null,"countyName":null,"streetName":null,"villageName":null,"roadName":null,"communityName":null,"tranName":null,"sdLineName":null,"cityCode":"1340606","cityName":"国网安国市供电公司","provinceCode":null,"stopTime":"2019-09-10 13:00:00","powerType":"全部","powerOffArea":"【分支停电】停镀膜厂变压器","powerOffReason":"【停电原因】由于线路检修导致１１０ＫＶ东河变电站１０ＫＶ水厂５２１线路镀膜厂分支００号杆刀闸以下线路停电 【变更送电】因工作进度加快原因，送电时间由１５：００变更为１３：００ 【发布渠道】保定市安国电视台（０９月０３日００时至２４时之间）屏幕上方滚动","powerOffId":"2019083013000356"},{"poweroffId":2019083013000339,"sgpoweroffId":null,"subsName":"","lineName":"10kV东文山517","pubTranName":"南兵上西南台区变压器,东文山机井变压器,北七山蜂窝井变压器,北七山村东北变压器,东长堤村西北变压器,东长堤村西台区变压器,北兵上学校变压器,牛各庄村南变压器,北七山村北井变压器【纯农排变】,淮河村西台区变压器,上车亭村西南变压器,上车亭小南庄变压器【纯农排变】,淮河西北台区,西长堤村西台区变压器,京昆涞水服务区东充电桩母线间隔配电变压器,西长堤村东北变压器,北七山北台区变压器,南七山西台变压器,上车亭小东坡台区变压器,南兵上村西台区变压器,牛各庄村内变压器,北兵上村西变变压器,西武山东台变压器,西武山村北变压器,西武山小东台变压器,坛山村东井2变压器,南七山混用,北七山桑树坡,东文山乡政府变压器,北七山北山坡井【纯农排变】,南七山村村内变压器,东长堤炮厂变压器,坛山村东北变压器【纯农排变】,北七山王家大院变压器,北七山村东南变压器,安家洼收费站西井【纯农排变】,北七山村西果园台区变压器,北七山色坡井台区变压器【纯农排变】,淮河东台变压器,北七山西井,南七山南台区变压器,南七山村东井,东长堤北二台区,牛南台区变压器,南七山机井,京昆涞水服务区西充电桩母线间隔配电变压器,北七山东坡井变压器【纯农排变】,北兵上村南台区变压器,牛各庄村西变压器,北七山西台,淮河村北台区变压器,西武山村西台区变压器,北兵上村东变压器,上车亭大队石头坑变压器,南兵上村北台区,北七山大沟井台区变压器【纯农排变】,北七山村南变压器【冬季供暖设施】,淮河学校变压器,北七山村东台区变压器,牛各庄二大队台区变压器【纯农排变】,上车亭村南变变压器,西长堤村东台区变压器,西租村西南【纯农排变】,北七山西山坡井变压器【纯农排变】,北七山村东北井变压器【纯农排变】,北七山西南井变压器,","scope":"【影响街道/乡镇】东文山乡 【高危重要客户】无 【影响客户】南兵上村、北兵上村、东文山村东、西武山村、淮河村、南七山村、北七山村、东长堤村、西长堤村、牛各庄村、上车亭村南及西南用户","startTime":"2019-09-11 08:00:00","stopDate":"2019-09-11 18:00:00","orgNo":"1340614","typeCode":"计划停电","poweroffArea":"【全线路停电】停永乐水泥厂2,北七山北台区变压器,涞水研磊水泥制品有限责任公司,西长堤村东北变压器,恒盛建材有限公司400KVA专变,淮河北井变压器,南七山西台变压器,上车亭小东坡台区变压器,淮河村西南井变压器【纯农排变】,涞水县恒盛建材有限公司400KVA变压器,上车亭黑山变压器【纯农排变】,南兵上村西台区变压器,牛各庄村东阻断井变压器【纯农排变】,牛各庄村内变压器,北兵上村西变变压器,西武山东台变压器,西武山村北变压器,聚成石灰400KVA变压器专变,姬文成钙粉厂,西武山小东台变压器,坛山村东井2变压器,南七山混用,北七山桑树坡,东文山乡政府变压器,郭宝林,南七山桥南台区变压器,王金秋(3),涞水曙光化工,涞水县坤诚石灰制造有限公司250KVA专变,北七山南大扇51-1|0556,宝山灰粉厂,河北九达建工集团有限公司800KVA专变,王金秋灰粉二厂,万雄建材厂,东文山大棚菜变压器,东长堤北二台区,北七山北山坡井【纯农排变】,坛山村东北变压器【纯农排变】,顺通钙粉厂,北七山王家大院变压器,北七山村东南变压器,老铁自来水,安家洼收费站西井【纯农排变】,淮河村西南变压器,北七山村西果园台区变压器,北七山色坡井台区变压器【纯农排变】,淮河东台变压器,牛南台区变压器,南七山村东井,东文山机井变压器,河北九达建工新增变压器400KVA,0468881571-河北开源化工有限公司-专变-119551522-开源化工厂,西武山大坡井变压器【纯农排变】,北七山村东北变压器,顺通钙粉厂400KVA专变,涞水精顺滑石粉有限公司500KVA专变,东文山供电所,东文山东台,北兵上学校变压器,北兵上村内台区变压器,北七山西井,西长堤自来水台区变压器,涞水研磊水泥制品有限责任公司250KVA,东长堤村北台区变压器,南七山村村内变压器,东长堤炮厂变压器,南兵上西南台区变压器,鑫兴建材专变315,北七山蜂窝井变压器,涞水县天顺石灰制造有限公司200KVA专变,王金秋,西武山村南变压器,鑫兴建材专变200,东长堤村西北变压器,东长堤村东北变压器,东长堤村西台区变压器,北兵上村北变压器【纯农排变】,中凯建设（开源化工厂）50,南七山南台区变压器,京昆涞水服务区东充电桩母线间隔配电变压器,涞水县文山供水有限公司630KVA专变,南七山机井,变压器,京昆涞水服务区西充电桩母线间隔配电变压器,北七山东坡井变压器【纯农排变】,北兵上村南台区变压器,涞水县威鹏矿物饲料厂500KVA专变,牛各庄村西变压器,北七山西台,西长堤北井变压器【纯农排变】,淮河村北台区变压器,淮河西井变压器,西武山村西台区变压器,北兵上村东变压器,河北开源化工有限公司250KVA专变,上车亭大队石头坑变压器,西武山机井变压器,北七山西南井变压器,南兵上村北台区,北七山大沟井台区变压器【纯农排变】,北七山村南变压器【冬季供暖设施】,淮河学校变压器,北七山村东台区变压器,牛各庄二大队台区变压器【纯农排变】,东长堤刘俊井变压器【纯农排变】,上车亭村南变变压器,西长堤村东台区变压器,坤诚石灰制造有限公司400KVA专变,西租村西南【纯农排变】,北七山西山坡井变压器【纯农排变】,北七山村东北井变压器【纯农排变】,牛各庄村南变压器,0646299989-涞水县天顺石灰制造有限公司-专变-169827598-涞水县天顺石灰制造有限公司400KVA专变,涞水县残联福利纸箱厂,淮河面粉厂,北七山村北井变压器【纯农排变】,西长堤北山坡台区变压器,淮河村西台区变压器,上车亭村西南变压器,上车亭小南庄变压器【纯农排变】,东长堤村东台区变压器,涞水瑞鼎石灰制造有限公司200KVA,牛各庄机","poweroffReason":"【停电原因】由于更换电缆导致１１０ＫＶ涞水变电站１０ＫＶ东文山５１７线路全线停电 【变更送电】因工作量大原因，送电时间由１６：００变更为１８：００ 【发布渠道】保定市涞水电视台（０８月３１日００时至０９月１０日２３时之间）屏幕上方滚动","powerTime":"2019-09-11 17:55:11","powerComm":"已送电","subsNo":"","lineNo":"","tgNo":"","tgName":null,"infoStatus":"1","orgName":"国网涞水县供电公司","typeName":null,"infoStatusName":null,"dateDay":null,"orgNos":null,"nowTime":null,"countyName":null,"streetName":null,"villageName":null,"roadName":null,"communityName":null,"tranName":null,"sdLineName":null,"cityCode":"1340614","cityName":"国网涞水县供电公司","provinceCode":null,"stopTime":"2019-09-11 18:00:00","powerType":"全部","powerOffArea":"【全线路停电】停永乐水泥厂2,北七山北台区变压器,涞水研磊水泥制品有限责任公司,西长堤村东北变压器,恒盛建材有限公司400KVA专变,淮河北井变压器,南七山西台变压器,上车亭小东坡台区变压器,淮河村西南井变压器【纯农排变】,涞水县恒盛建材有限公司400KVA变压器,上车亭黑山变压器【纯农排变】,南兵上村西台区变压器,牛各庄村东阻断井变压器【纯农排变】,牛各庄村内变压器,北兵上村西变变压器,西武山东台变压器,西武山村北变压器,聚成石灰400KVA变压器专变,姬文成钙粉厂,西武山小东台变压器,坛山村东井2变压器,南七山混用,北七山桑树坡,东文山乡政府变压器,郭宝林,南七山桥南台区变压器,王金秋(3),涞水曙光化工,涞水县坤诚石灰制造有限公司250KVA专变,北七山南大扇51-1|0556,宝山灰粉厂,河北九达建工集团有限公司800KVA专变,王金秋灰粉二厂,万雄建材厂,东文山大棚菜变压器,东长堤北二台区,北七山北山坡井【纯农排变】,坛山村东北变压器【纯农排变】,顺通钙粉厂,北七山王家大院变压器,北七山村东南变压器,老铁自来水,安家洼收费站西井【纯农排变】,淮河村西南变压器,北七山村西果园台区变压器,北七山色坡井台区变压器【纯农排变】,淮河东台变压器,牛南台区变压器,南七山村东井,东文山机井变压器,河北九达建工新增变压器400KVA,0468881571-河北开源化工有限公司-专变-119551522-开源化工厂,西武山大坡井变压器【纯农排变】,北七山村东北变压器,顺通钙粉厂400KVA专变,涞水精顺滑石粉有限公司500KVA专变,东文山供电所,东文山东台,北兵上学校变压器,北兵上村内台区变压器,北七山西井,西长堤自来水台区变压器,涞水研磊水泥制品有限责任公司250KVA,东长堤村北台区变压器,南七山村村内变压器,东长堤炮厂变压器,南兵上西南台区变压器,鑫兴建材专变315,北七山蜂窝井变压器,涞水县天顺石灰制造有限公司200KVA专变,王金秋,西武山村南变压器,鑫兴建材专变200,东长堤村西北变压器,东长堤村东北变压器,东长堤村西台区变压器,北兵上村北变压器【纯农排变】,中凯建设（开源化工厂）50,南七山南台区变压器,京昆涞水服务区东充电桩母线间隔配电变压器,涞水县文山供水有限公司630KVA专变,南七山机井,变压器,京昆涞水服务区西充电桩母线间隔配电变压器,北七山东坡井变压器【纯农排变】,北兵上村南台区变压器,涞水县威鹏矿物饲料厂500KVA专变,牛各庄村西变压器,北七山西台,西长堤北井变压器【纯农排变】,淮河村北台区变压器,淮河西井变压器,西武山村西台区变压器,北兵上村东变压器,河北开源化工有限公司250KVA专变,上车亭大队石头坑变压器,西武山机井变压器,北七山西南井变压器,南兵上村北台区,北七山大沟井台区变压器【纯农排变】,北七山村南变压器【冬季供暖设施】,淮河学校变压器,北七山村东台区变压器,牛各庄二大队台区变压器【纯农排变】,东长堤刘俊井变压器【纯农排变】,上车亭村南变变压器,西长堤村东台区变压器,坤诚石灰制造有限公司400KVA专变,西租村西南【纯农排变】,北七山西山坡井变压器【纯农排变】,北七山村东北井变压器【纯农排变】,牛各庄村南变压器,0646299989-涞水县天顺石灰制造有限公司-专变-169827598-涞水县天顺石灰制造有限公司400KVA专变,涞水县残联福利纸箱厂,淮河面粉厂,北七山村北井变压器【纯农排变】,西长堤北山坡台区变压器,淮河村西台区变压器,上车亭村西南变压器,上车亭小南庄变压器【纯农排变】,东长堤村东台区变压器,涞水瑞鼎石灰制造有限公司200KVA,牛各庄机","powerOffReason":"【停电原因】由于更换电缆导致１１０ＫＶ涞水变电站１０ＫＶ东文山５１７线路全线停电 【变更送电】因工作量大原因，送电时间由１６：００变更为１８：００ 【发布渠道】保定市涞水电视台（０８月３１日００时至０９月１０日２３时之间）屏幕上方滚动","powerOffId":"2019083013000339"},{"poweroffId":2019083013000338,"sgpoweroffId":null,"subsName":"","lineName":"10kV郭村566线","pubTranName":"军诜综合9号,军诜内二综合,","scope":"【影响街道/乡镇】伍仁桥镇 【高危重要客户】无 【影响客户】军诜村","startTime":"2019-09-09 08:00:00","stopDate":"2019-09-09 15:20:00","orgNo":"1340606","typeCode":"计划停电","poweroffArea":"【分支停电】停军诜内二综合,军诜综合9号","poweroffReason":"【停电原因】由于线路检修导致１１０ＫＶ伍仁桥变电站１０ＫＶ郭村５６６线路军诜分支００号杆开关及刀闸以下线路停电 【变更送电】因工作进度加快原因，送电时间由１６：３０变更为１５：２０ 【发布渠道】保定市安国电视台（０９月０２日００时至２４时之间）屏幕上方滚动","powerTime":"2019-09-09 14:51:43","powerComm":"已送电","subsNo":"","lineNo":"","tgNo":"","tgName":null,"infoStatus":"1","orgName":"国网安国市供电公司","typeName":null,"infoStatusName":null,"dateDay":null,"orgNos":null,"nowTime":null,"countyName":null,"streetName":null,"villageName":null,"roadName":null,"communityName":null,"tranName":null,"sdLineName":null,"cityCode":"1340606","cityName":"国网安国市供电公司","provinceCode":null,"stopTime":"2019-09-09 15:20:00","powerType":"全部","powerOffArea":"【分支停电】停军诜内二综合,军诜综合9号","powerOffReason":"【停电原因】由于线路检修导致１１０ＫＶ伍仁桥变电站１０ＫＶ郭村５６６线路军诜分支００号杆开关及刀闸以下线路停电 【变更送电】因工作进度加快原因，送电时间由１６：３０变更为１５：２０ 【发布渠道】保定市安国电视台（０９月０２日００时至２４时之间）屏幕上方滚动","powerOffId":"2019083013000338"},{"poweroffId":2019083013000330,"sgpoweroffId":null,"subsName":"","lineName":"10kV南章令564线","pubTranName":"流昌综合15台区,流昌综合16台区,","scope":"【影响街道/乡镇】伍仁桥镇 【高危重要客户】无 【影响客户】流昌村、南章令村","startTime":"2019-09-09 08:00:00","stopDate":"2019-09-09 15:20:00","orgNo":"1340606","typeCode":"计划停电","poweroffArea":"【分支停电】停流昌综合15台区,流昌综合16台区,南章令综1","poweroffReason":"【停电原因】由于线路检修导致１１０ＫＶ伍仁桥变电站１０ＫＶ南章令５６４线路流昌分支００号杆刀闸以下线路停电 【变更送电】因工作进度加快原因，送电时间由１６：３０变更为１５：２０ 【发布渠道】保定市安国电视台（０９月０２日００时至２４时之间）屏幕上方滚动","powerTime":"2019-09-09 15:05:05","powerComm":"已送电","subsNo":"","lineNo":"","tgNo":"","tgName":null,"infoStatus":"1","orgName":"国网安国市供电公司","typeName":null,"infoStatusName":null,"dateDay":null,"orgNos":null,"nowTime":null,"countyName":null,"streetName":null,"villageName":null,"roadName":null,"communityName":null,"tranName":null,"sdLineName":null,"cityCode":"1340606","cityName":"国网安国市供电公司","provinceCode":null,"stopTime":"2019-09-09 15:20:00","powerType":"全部","powerOffArea":"【分支停电】停流昌综合15台区,流昌综合16台区,南章令综1","powerOffReason":"【停电原因】由于线路检修导致１１０ＫＶ伍仁桥变电站１０ＫＶ南章令５６４线路流昌分支００号杆刀闸以下线路停电 【变更送电】因工作进度加快原因，送电时间由１６：３０变更为１５：２０ 【发布渠道】保定市安国电视台（０９月０２日００时至２４时之间）屏幕上方滚动","powerOffId":"2019083013000330"},{"poweroffId":2019083013000327,"sgpoweroffId":null,"subsName":"","lineName":"10KV车厂511","pubTranName":"车厂村南变压器【纯农排变】,木井绿化井变压器,包家坟南台区变压器,木井2村南3配变,车厂北山光伏8号变压器,娄村高家巷变压器,南庄西井配变,南庄2台区配变,车厂北山光伏7号变压器,娄村西2台区变压器,车厂北山光伏3号变压器,木井西四台区变压器,半坡井变压器,娄村兰家巷二台区变压器,南庄西井2台区配变【纯农排变】,车厂七队变压器,包家坟北井变压器,车厂北山光伏5号变压器,娄村李占文|0478变压器,车厂村东变压器【冬季供暖设施】,南庄村南台区配变,木井村西变压器,木井桥沟台区变压器,娄村蝎子山台区变压器【纯农排变】,南庄村东配变,车厂西山庄三台区变压器,南庄村北台区配变,车厂北山光伏14号变压器,车厂村南山庄,南庄西三台区变压器,包家坟村东新,张凤坡机井变压器,釜山灵泉寺台区变压器,南庄西2台区配变,娄村大石槽井0473变压器,车厂北山光伏10号变压器,车厂西大井区变压器,张涿娄村服务区西充电桩配电变压器,木井南四台区配变,木井自来水井台区,车厂北山光伏11号变压器,包家坟村西井台区 变压器【纯农排变】,木井村【纯农排变】,娄村兰家巷4台区,木井西井变压器【纯农排变】,车厂北山光伏13号变压器,车厂南坡根井变压器,南庄东井配变,木井玉泉寺台区变压器,车厂南2台区变压器,木井村机井【纯农排变】,车厂捞洼井变压器,娄村果园井【纯农排变】,郑万顺2号井变压器【纯农排变】,南山庄2井变压器,娄村釜山顶变压器,张井恒机井变压器,娄村四队井变压器【纯农排变】,木井南2配变,车厂北山光伏4号变压器,南庄村西大棚菜配变,娄村道边井台区变压器,车厂北山光伏12号变压器,包家坟高速路边井变压器,娄村绿化井变压器,张涿娄村服务区东充电桩母线间隔配电变压器,车厂北山光伏9号变压器,包家坟村东变压器,木井大队台区变压器,木井学校台区配变,木井西3台区变压器,木井学校变压器,兰家巷三台区变压器,车厂西山庄1台区变压器,车厂北山光伏1号变压器,木井南1变压器,娄村孙家坟井台区变压器【纯农排变】,车厂北山光伏6号变压器,包家坟南井变压器【纯农排变】,车厂村内变压器,娄村西1台区变压器,车厂北山光伏2号变压器,兰家巷变压器,包家坟,木井西1变压器,车厂村东三台区变压器,","scope":"【影响街道/乡镇】娄村乡 【高危重要客户】无 【影响客户】包家坟村、车厂村、木井村、娄村、兰家巷、高家巷、西坡、高速服务区、高速充电桩、南庄村、海波建材、顺合建材","startTime":"2019-09-05 04:00:00","stopDate":"2019-09-05 07:00:00","orgNo":"1340614","typeCode":"临时停电","poweroffArea":"【全线路停电】停车厂村南变压器【纯农排变】,张俊金机井变压器【纯农排变】,木井绿化井变压器,包家坟南台区变压器,木井2村南3配变,车厂北山光伏8号变压器,苏金龙井变压器【纯农排变】,娄村高家巷变压器,南庄西井配变,南庄2台区配变,车厂北山光伏7号变压器,娄村西2台区变压器,车厂北山光伏3号变压器,木井西2变压器,河北信诺众帮科技有限公司160KVA专变,木井西四台区变压器,半坡井变压器,娄村兰家巷二台区变压器,点将台2台区变压器,南庄西井2台区配变【纯农排变】,车厂七队变压器,包家坟北井变压器,车厂北山光伏5号变压器,娄村李占文|0478变压器,车厂村东变压器【冬季供暖设施】,南庄村南台区配变,涞水海波建材有限公司200专变,木井村西变压器,木井桥沟台区变压器,娄村蝎子山台区变压器【纯农排变】,南庄村东配变,车厂西山庄三台区变压器,南庄村北台区配变,海波建材有限公司新增变压器,娄村李术江,涞水县顺合建材有限公司2000KVA专变,车厂北山光伏14号变压器,车厂村南山庄,南庄西三台区变压器,刘凤春化石厂,郑民机井0544变压器【纯农排变】,涞水海波建材有限公司630KVA专变,包家坟村东新,庞秀歧机井|0512变压器,娄村服务区630KVA专变,张凤坡机井变压器,河北正通翔市政道路315KVA专变,娄村服务区1000KVA专变,木井西井变压器【纯农排变】,车厂北山光伏13号变压器,包家坟村变压器,包家坟西井变压器【纯农排变】,车厂南坡根井变压器,南庄东井配变,木井玉泉寺台区变压器,车厂南2台区变压器,木井村机井【纯农排变】,果园井2#变压器,车厂捞洼井变压器,娄村果园井【纯农排变】,郑万顺2号井变压器【纯农排变】,南山庄2井变压器,娄村釜山顶变压器,车厂东井|0447变压器【纯农排变】,张井恒机井变压器,娄村四队井变压器【纯农排变】,包家坟北水泉井变压器,木井南2配变,车厂北山光伏4号变压器,车厂村东三台区变压器,涞水正通翔程市政道路630变压器专变,南庄村西大棚菜配变,娄村道边井台区变压器,釜山灵泉寺台区变压器,南庄西2台区配变,娄村大石槽井0473变压器,庞秀岐滑石厂,车厂北山光伏10号变压器,南庄村东2台区配变,0468883492-王国良滑石二厂-专变-46618532-王国良滑石2,车厂西大井区变压器,张涿娄村服务区西充电桩配电变压器,木井南四台区配变,木井自来水井台区,车厂北山光伏11号变压器,包家坟村西井台区 变压器【纯农排变】,木井村【纯农排变】,娄村兰家巷4台区,包家坟道边井台区变压器【纯农排变】,点将台井变压器,车厂北山光伏12号变压器,包家坟高速路边井变压器,娄村绿化井变压器,车厂西山庄一台区变压器,海波建材1260KVA专变,张涿娄村服务区东充电桩母线间隔配电变压器,车厂北山光伏9号变压器,包家坟村东变压器,海波建材200KVA专变,木井大队台区变压器,木井学校台区配变,木井西3台区变压器,木井学校变压器,兰家巷三台区变压器,车厂北山光伏1号变压器,车厂西山庄1台区变压器,木井南1变压器,娄村孙家坟井台区变压器【纯农排变】,车厂北山光伏6号变压器,包家坟南井变压器【纯农排变】,车厂村内变压器,娄村西1台区变压器,车厂北山光伏2号变压器,娄村西坡变压器,申城路桥木井250KVA专变,兰家巷变压器,包家坟,木井西1变压器","poweroffReason":"【停电原因】由于倒运行方式导致３５ＫＶ娄村变电站１０ＫＶ车厂５１１线路全线停电 【变更送电】因工作量大原因，送电时间由０５：３０变更为０７：００ 【发布渠道】通过９５５９８发布","powerTime":"2019-09-05 06:03:34","powerComm":"已送电","subsNo":"","lineNo":"","tgNo":"","tgName":null,"infoStatus":"1","orgName":"国网涞水县供电公司","typeName":null,"infoStatusName":null,"dateDay":null,"orgNos":null,"nowTime":null,"countyName":null,"streetName":null,"villageName":null,"roadName":null,"communityName":null,"tranName":null,"sdLineName":null,"cityCode":"1340614","cityName":"国网涞水县供电公司","provinceCode":null,"stopTime":"2019-09-05 07:00:00","powerType":"全部","powerOffArea":"【全线路停电】停车厂村南变压器【纯农排变】,张俊金机井变压器【纯农排变】,木井绿化井变压器,包家坟南台区变压器,木井2村南3配变,车厂北山光伏8号变压器,苏金龙井变压器【纯农排变】,娄村高家巷变压器,南庄西井配变,南庄2台区配变,车厂北山光伏7号变压器,娄村西2台区变压器,车厂北山光伏3号变压器,木井西2变压器,河北信诺众帮科技有限公司160KVA专变,木井西四台区变压器,半坡井变压器,娄村兰家巷二台区变压器,点将台2台区变压器,南庄西井2台区配变【纯农排变】,车厂七队变压器,包家坟北井变压器,车厂北山光伏5号变压器,娄村李占文|0478变压器,车厂村东变压器【冬季供暖设施】,南庄村南台区配变,涞水海波建材有限公司200专变,木井村西变压器,木井桥沟台区变压器,娄村蝎子山台区变压器【纯农排变】,南庄村东配变,车厂西山庄三台区变压器,南庄村北台区配变,海波建材有限公司新增变压器,娄村李术江,涞水县顺合建材有限公司2000KVA专变,车厂北山光伏14号变压器,车厂村南山庄,南庄西三台区变压器,刘凤春化石厂,郑民机井0544变压器【纯农排变】,涞水海波建材有限公司630KVA专变,包家坟村东新,庞秀歧机井|0512变压器,娄村服务区630KVA专变,张凤坡机井变压器,河北正通翔市政道路315KVA专变,娄村服务区1000KVA专变,木井西井变压器【纯农排变】,车厂北山光伏13号变压器,包家坟村变压器,包家坟西井变压器【纯农排变】,车厂南坡根井变压器,南庄东井配变,木井玉泉寺台区变压器,车厂南2台区变压器,木井村机井【纯农排变】,果园井2#变压器,车厂捞洼井变压器,娄村果园井【纯农排变】,郑万顺2号井变压器【纯农排变】,南山庄2井变压器,娄村釜山顶变压器,车厂东井|0447变压器【纯农排变】,张井恒机井变压器,娄村四队井变压器【纯农排变】,包家坟北水泉井变压器,木井南2配变,车厂北山光伏4号变压器,车厂村东三台区变压器,涞水正通翔程市政道路630变压器专变,南庄村西大棚菜配变,娄村道边井台区变压器,釜山灵泉寺台区变压器,南庄西2台区配变,娄村大石槽井0473变压器,庞秀岐滑石厂,车厂北山光伏10号变压器,南庄村东2台区配变,0468883492-王国良滑石二厂-专变-46618532-王国良滑石2,车厂西大井区变压器,张涿娄村服务区西充电桩配电变压器,木井南四台区配变,木井自来水井台区,车厂北山光伏11号变压器,包家坟村西井台区 变压器【纯农排变】,木井村【纯农排变】,娄村兰家巷4台区,包家坟道边井台区变压器【纯农排变】,点将台井变压器,车厂北山光伏12号变压器,包家坟高速路边井变压器,娄村绿化井变压器,车厂西山庄一台区变压器,海波建材1260KVA专变,张涿娄村服务区东充电桩母线间隔配电变压器,车厂北山光伏9号变压器,包家坟村东变压器,海波建材200KVA专变,木井大队台区变压器,木井学校台区配变,木井西3台区变压器,木井学校变压器,兰家巷三台区变压器,车厂北山光伏1号变压器,车厂西山庄1台区变压器,木井南1变压器,娄村孙家坟井台区变压器【纯农排变】,车厂北山光伏6号变压器,包家坟南井变压器【纯农排变】,车厂村内变压器,娄村西1台区变压器,车厂北山光伏2号变压器,娄村西坡变压器,申城路桥木井250KVA专变,兰家巷变压器,包家坟,木井西1变压器","powerOffReason":"【停电原因】由于倒运行方式导致３５ＫＶ娄村变电站１０ＫＶ车厂５１１线路全线停电 【变更送电】因工作量大原因，送电时间由０５：３０变更为０７：００ 【发布渠道】通过９５５９８发布","powerOffId":"2019083013000327"},{"poweroffId":2019083013000321,"sgpoweroffId":null,"subsName":"","lineName":"10KV庞家河514","pubTranName":"庞家河南坡井变压器,三义村光伏扶贫3#光伏变压器【光伏】,娄村中学台区变压器,庞家河村东变压器,南水东村内配变,庞家河高速南井变压器,娄村南山坡井变压器,娄村南4台区变压器,庞家河东南井变压器,娄村村东配变,娄村村东北配变,福山营村东南大棚菜变压器,腊厂|0463变压器,三义村光伏扶贫4#光伏变压器【光伏】,三义村光伏扶贫1#光伏变压器【光伏】,三义村北三变压器,娄村南2台区变压器,娄村南台区变压器,三义村南3台区变压器,娄村南六台区变压器,庞家河村北台区,三义村光伏扶贫2#光伏变压器【光伏】,三义村南2台区变压器,庞家河西南水利【纯农排变】,南水东东台区配变,庞家河南台区变压器,娄村乡直1台区变压器,庞家河阻断井2变压器,庞家河阻断井1台区变压器,燕翎村村南配变,庞家河村东新建变压器,三义村刘永富|0518变压器,福山营村西配变,乡直2变压器,娄村村内配变,娄村南五台区变压器,娄村南3台区变压器,娄村乡直三台区变压器,庞家河西台区变压器,福山营配变,罗真轮机井配变【纯农排变】,娄村村北3号配变,娄村西南水利【纯农排变】,南水东村西配变,","scope":"【影响街道/乡镇】娄村乡 【高危重要客户】无 【影响客户】娄村、庞家河村、三义村、乡直村、娄村沙子渠、福山营、南水东村、燕翎村村南、娄村中学、娄村幼儿园、娄村镇政府、娄村卫生院、娄村信用社、连利水泥制品厂","startTime":"2019-09-05 04:00:00","stopDate":"2019-09-05 07:00:00","orgNo":"1340614","typeCode":"临时停电","poweroffArea":"【全线路停电】停变压器,三义村光伏扶贫3#光伏变压器【光伏】,庞家河南山井变压器【纯农排变】,庞家河村东变压器,娄村沙子渠变压器,涞水连利水泥制品有限公司315KVA,南水东村内配变,庞家河南坡井变压器,娄村中学台区变压器,0468883607-中国联合网络通信有限公司涞水县分公司-专变-46618549-中国联通,三义村北2变压器,娄村东大渠|0474变压器【纯农排变】,庞家河高速南井变压器,娄村南山坡井变压器,娄村南4台区变压器,庞家河东南井变压器,娄村村东配变,娄村村东北配变,福山营村东南大棚菜变压器,腊厂|0463变压器,娄村村内配变,娄村南五台区变压器,娄村南3台区变压器,三义村刘永富|0518变压器,庞家河西井变压器【纯农排变】,庞家河南2台区变压器,0468884020-崔凤林滑石厂-专变-46618538-崔凤林(2),娄村乡直三台区变压器,庞家河西台区变压器,福山营配变,罗真轮机井配变【纯农排变】,娄村村北3号配变,庞家河村东新建变压器,南水东南井台区【纯农排变】,娄村西南水利【纯农排变】,南水东村西配变,三义村光伏扶贫4#光伏变压器【光伏】,娄村九队井变压器,0636072668-涞水县嘉鑫水泥制品加工厂-专变-148187345-涞水县嘉鑫水泥制品加工厂专变200KVA,三义村光伏扶贫1#光伏变压器【光伏】,三义村北三变压器,娄村南2台区变压器,娄村南台区变压器,三义村南3台区变压器,娄村南六台区变压器,庞家河村北台区,三义村光伏扶贫2#光伏变压器【光伏】,配变,三义村南2台区变压器,三义村西井变压器【纯农排变】,南水东南2台区配变,庞家河西南水利【纯农排变】,南水东道边井配变,南水东东台区配变,庞家河南台区变压器,刘庆合机井|0465变压器,三义村村南变压器,三义村南井变压器【纯农排变】,娄村乡直1台区变压器,庞家河阻断井2变压器,刘晓亮机井变压器【纯农排变】,庞家河阻断井1台区变压器,燕翎村村南配变,福山营村西配变,0468884264-王国良滑石一厂-专变-46618556-王国良滑石1,乡直2变压器,娄村机井【纯农排变】","poweroffReason":"【停电原因】由于倒运行方式导致３５ＫＶ娄村变电站１０ＫＶ庞家河５１４线路全线停电 【变更送电】因工作量大原因，送电时间由０５：３０变更为０７：００ 【发布渠道】通过９５５９８发布","powerTime":"2019-09-05 06:03:54","powerComm":"已送电","subsNo":"","lineNo":"","tgNo":"","tgName":null,"infoStatus":"1","orgName":"国网涞水县供电公司","typeName":null,"infoStatusName":null,"dateDay":null,"orgNos":null,"nowTime":null,"countyName":null,"streetName":null,"villageName":null,"roadName":null,"communityName":null,"tranName":null,"sdLineName":null,"cityCode":"1340614","cityName":"国网涞水县供电公司","provinceCode":null,"stopTime":"2019-09-05 07:00:00","powerType":"全部","powerOffArea":"【全线路停电】停变压器,三义村光伏扶贫3#光伏变压器【光伏】,庞家河南山井变压器【纯农排变】,庞家河村东变压器,娄村沙子渠变压器,涞水连利水泥制品有限公司315KVA,南水东村内配变,庞家河南坡井变压器,娄村中学台区变压器,0468883607-中国联合网络通信有限公司涞水县分公司-专变-46618549-中国联通,三义村北2变压器,娄村东大渠|0474变压器【纯农排变】,庞家河高速南井变压器,娄村南山坡井变压器,娄村南4台区变压器,庞家河东南井变压器,娄村村东配变,娄村村东北配变,福山营村东南大棚菜变压器,腊厂|0463变压器,娄村村内配变,娄村南五台区变压器,娄村南3台区变压器,三义村刘永富|0518变压器,庞家河西井变压器【纯农排变】,庞家河南2台区变压器,0468884020-崔凤林滑石厂-专变-46618538-崔凤林(2),娄村乡直三台区变压器,庞家河西台区变压器,福山营配变,罗真轮机井配变【纯农排变】,娄村村北3号配变,庞家河村东新建变压器,南水东南井台区【纯农排变】,娄村西南水利【纯农排变】,南水东村西配变,三义村光伏扶贫4#光伏变压器【光伏】,娄村九队井变压器,0636072668-涞水县嘉鑫水泥制品加工厂-专变-148187345-涞水县嘉鑫水泥制品加工厂专变200KVA,三义村光伏扶贫1#光伏变压器【光伏】,三义村北三变压器,娄村南2台区变压器,娄村南台区变压器,三义村南3台区变压器,娄村南六台区变压器,庞家河村北台区,三义村光伏扶贫2#光伏变压器【光伏】,配变,三义村南2台区变压器,三义村西井变压器【纯农排变】,南水东南2台区配变,庞家河西南水利【纯农排变】,南水东道边井配变,南水东东台区配变,庞家河南台区变压器,刘庆合机井|0465变压器,三义村村南变压器,三义村南井变压器【纯农排变】,娄村乡直1台区变压器,庞家河阻断井2变压器,刘晓亮机井变压器【纯农排变】,庞家河阻断井1台区变压器,燕翎村村南配变,福山营村西配变,0468884264-王国良滑石一厂-专变-46618556-王国良滑石1,乡直2变压器,娄村机井【纯农排变】","powerOffReason":"【停电原因】由于倒运行方式导致３５ＫＶ娄村变电站１０ＫＶ庞家河５１４线路全线停电 【变更送电】因工作量大原因，送电时间由０５：３０变更为０７：００ 【发布渠道】通过９５５９８发布","powerOffId":"2019083013000321"},{"poweroffId":2019083013000316,"sgpoweroffId":null,"subsName":"","lineName":"龙湾头537","pubTranName":"西牛村2#,","scope":"【影响街道/乡镇】凌云册乡【高危重要客户】无【影响客户】西牛村","startTime":"2019-08-30 15:57:54","stopDate":"2019-08-30 20:00:00","orgNo":"1340625","typeCode":"电网故障停限电","poweroffArea":"【单台区停电】停西牛村2#","poweroffReason":"【停电原因】由于车撞杆导致３５ＫＶ燕发变电站龙湾头５３７线路西牛村２＃公变台区停电【变更送电】无【发布渠道】通过９５５９８发布","powerTime":"2019-08-30 19:32:10","powerComm":"已送电","subsNo":"","lineNo":"","tgNo":"","tgName":null,"infoStatus":"1","orgName":"国网易县供电公司","typeName":null,"infoStatusName":null,"dateDay":null,"orgNos":null,"nowTime":null,"countyName":null,"streetName":null,"villageName":null,"roadName":null,"communityName":null,"tranName":null,"sdLineName":null,"cityCode":"1340625","cityName":"国网易县供电公司","provinceCode":null,"stopTime":"2019-08-30 20:00:00","powerType":"全部","powerOffArea":"【单台区停电】停西牛村2#","powerOffReason":"【停电原因】由于车撞杆导致３５ＫＶ燕发变电站龙湾头５３７线路西牛村２＃公变台区停电【变更送电】无【发布渠道】通过９５５９８发布","powerOffId":"2019083013000316"}],"pageModel":{"pageNow":598,"totalCount":10973,"totalPage":1098,"tableRows":0,"pageCount":10,"beginCount":5970},"isExperi":"1"}