{"message":"","today":"2020-06-15","seleList":[{"poweroffId":2019082513000068,"sgpoweroffId":null,"subsName":"","lineName":"10kV514南白楼线","pubTranName":"朱佐综合8台区变压器,亿德利,蠡县留史广岩冷库,杨昌,南白楼综合15台区变压器,杜鹏皮业有限公司变压器,冀冠,老掺（会强）,老张,杨文学,留史综合30台区变压器,永盛,田源北,朱佐综合3台区变压器,南楼综合12台区变压器,蠡县辉煌皮业有限公司,蠡县德胜皮革有限公司（南厂）,南楼农排4台区变压器【纯农排变】,卓奇,田源南,南楼农排2台区变压器【纯农排变】,南楼综合3台区变压器,金华,南楼综合10台区变压器,亚泰,南楼综合2台区变压器,南楼综合8台区变压器,泰阳,朱佐砖厂,老虎,慧发,0675575618-蠡县海星学校-专变-216183237-蠡县海星学校变压器,南楼农排1台区变压器【纯农排变】,南白楼农排5台区变压器【纯农排变】,祝军,南白楼综合18台区变压器,蠡县海星学校变压器,南楼综合11台区变压器,利欣,南楼综合16台区变压器,海星,南楼综合26台区变压器,蠡县富邦皮业有限公司,中圣皮业,崇刚,李胖,李国普,南白楼综合20台区变压器,南白楼综合21台区变压器,南白楼综合22台区变压器,联华,南楼综合1台区变压器,南楼综合4台区变压器,进州,南楼综合14台区变压器,蠡县德胜皮革有限公司（北厂）,南白楼综合19台区变压器,张鹏,0688550301-蠡县留史乌牛桥波喷浆厂-专变-230663091-蠡县留史乌牛桥波喷浆厂,南楼综合5台区变压器,南楼农排3台区变压器【纯农排变】,南楼综合7台区变压器,留史综合17台区变压器,南楼综合13台区变压器,南楼综合6台区变压器,南楼综合9台区变压器,","scope":"【影响街道/乡镇】留史镇 【高危重要客户】无 【影响客户】南白楼村、朱佐村","startTime":"2019-09-03 08:30:00","stopDate":"2019-09-03 16:00:00","orgNo":"1340616","typeCode":"计划停电","poweroffArea":"【全线路停电】停南白楼农排5台区变压器【纯农排变】,卓奇,蠡县海星学校变压器,南白楼综合15台区变压器,0688550301-蠡县留史乌牛桥波喷浆厂-专变-230663091-蠡县留史乌牛桥波喷浆厂,蠡县辉煌皮业有限公司,慧发,中圣皮业,南楼综合9台区变压器,南楼综合1台区变压器,南楼综合13台区变压器,杨文学,南楼综合4台区变压器,南楼农排3台区变压器【纯农排变】,南白楼综合20台区变压器,杨昌,亿德利,祝军,留史综合17台区变压器,南楼综合7台区变压器,田源北,南楼综合14台区变压器,留史综合30台区变压器,李胖,南楼农排4台区变压器【纯农排变】,张鹏,蠡县德胜皮革有限公司（南厂）,朱佐砖厂,利欣,永盛,李国普,杜鹏皮业有限公司变压器,亚泰,进州,田源南,南楼综合3台区变压器,南楼综合10台区变压器,南楼综合2台区变压器,南白楼综合21台区变压器,老张,泰阳,南楼综合11台区变压器,南白楼综合19台区变压器,南白楼综合18台区变压器,金华,南楼综合26台区变压器,海星,蠡县富邦皮业有限公司,老掺（会强）,南楼农排1台区变压器【纯农排变】,南楼综合8台区变压器,老虎,崇刚,南楼综合16台区变压器,冀冠,南楼综合6台区变压器,蠡县德胜皮革有限公司（北厂）,南白楼综合22台区变压器,南楼农排2台区变压器【纯农排变】,南楼综合5台区变压器,0675575618-蠡县海星学校-专变-216183237-蠡县海星学校变压器,蠡县留史广岩冷库,朱佐综合3台区变压器,朱佐综合8台区变压器,南楼综合12台区变压器,联华","poweroffReason":"【停电原因】由于拆除车载变导致１１０ＫＶ留史变电站１０ＫＶ南白楼５１４线路全线停电【变更送电】无【发布渠道】河北省保定市蠡县电视台（２０１９年０８月２５日至２０１９年０９月０２日２０：００至２２：００之间）屏幕上方滚动　　　","powerTime":"2019-09-03 15:56:25","powerComm":"已送电","subsNo":"","lineNo":"","tgNo":"","tgName":null,"infoStatus":"1","orgName":"国网蠡县供电公司","typeName":null,"infoStatusName":null,"dateDay":null,"orgNos":null,"nowTime":null,"countyName":null,"streetName":null,"villageName":null,"roadName":null,"communityName":null,"tranName":null,"sdLineName":null,"cityCode":"1340616","cityName":"国网蠡县供电公司","provinceCode":null,"stopTime":"2019-09-03 16:00:00","powerType":"全部","powerOffArea":"【全线路停电】停南白楼农排5台区变压器【纯农排变】,卓奇,蠡县海星学校变压器,南白楼综合15台区变压器,0688550301-蠡县留史乌牛桥波喷浆厂-专变-230663091-蠡县留史乌牛桥波喷浆厂,蠡县辉煌皮业有限公司,慧发,中圣皮业,南楼综合9台区变压器,南楼综合1台区变压器,南楼综合13台区变压器,杨文学,南楼综合4台区变压器,南楼农排3台区变压器【纯农排变】,南白楼综合20台区变压器,杨昌,亿德利,祝军,留史综合17台区变压器,南楼综合7台区变压器,田源北,南楼综合14台区变压器,留史综合30台区变压器,李胖,南楼农排4台区变压器【纯农排变】,张鹏,蠡县德胜皮革有限公司（南厂）,朱佐砖厂,利欣,永盛,李国普,杜鹏皮业有限公司变压器,亚泰,进州,田源南,南楼综合3台区变压器,南楼综合10台区变压器,南楼综合2台区变压器,南白楼综合21台区变压器,老张,泰阳,南楼综合11台区变压器,南白楼综合19台区变压器,南白楼综合18台区变压器,金华,南楼综合26台区变压器,海星,蠡县富邦皮业有限公司,老掺（会强）,南楼农排1台区变压器【纯农排变】,南楼综合8台区变压器,老虎,崇刚,南楼综合16台区变压器,冀冠,南楼综合6台区变压器,蠡县德胜皮革有限公司（北厂）,南白楼综合22台区变压器,南楼农排2台区变压器【纯农排变】,南楼综合5台区变压器,0675575618-蠡县海星学校-专变-216183237-蠡县海星学校变压器,蠡县留史广岩冷库,朱佐综合3台区变压器,朱佐综合8台区变压器,南楼综合12台区变压器,联华","powerOffReason":"【停电原因】由于拆除车载变导致１１０ＫＶ留史变电站１０ＫＶ南白楼５１４线路全线停电【变更送电】无【发布渠道】河北省保定市蠡县电视台（２０１９年０８月２５日至２０１９年０９月０２日２０：００至２２：００之间）屏幕上方滚动　　　","powerOffId":"2019082513000068"},{"poweroffId":2019082513000052,"sgpoweroffId":null,"subsName":"","lineName":"迪城线577","pubTranName":"李迪城4号【纯农排变】,","scope":"【影响街道/乡镇】大因镇 【高危重要客户】无 【影响客户】李迪城村","startTime":"2019-08-26 14:00:00","stopDate":"2019-08-26 18:00:00","orgNo":"1340605","typeCode":"临时停电","poweroffArea":"【单台区停电】停李迪城4号【纯农排变】","poweroffReason":"【停电原因】由于线路检修导致１１０ＫＶ沙口变电站迪城线５７７线路李迪城４号公变台区停电 【变更送电】无 【发布渠道】通过９５５９８发布","powerTime":"2019-08-26 17:46:15","powerComm":"已送电","subsNo":"","lineNo":"","tgNo":"","tgName":null,"infoStatus":"1","orgName":"国网徐水县供电公司","typeName":null,"infoStatusName":null,"dateDay":null,"orgNos":null,"nowTime":null,"countyName":null,"streetName":null,"villageName":null,"roadName":null,"communityName":null,"tranName":null,"sdLineName":null,"cityCode":"1340605","cityName":"国网徐水县供电公司","provinceCode":null,"stopTime":"2019-08-26 18:00:00","powerType":"全部","powerOffArea":"【单台区停电】停李迪城4号【纯农排变】","powerOffReason":"【停电原因】由于线路检修导致１１０ＫＶ沙口变电站迪城线５７７线路李迪城４号公变台区停电 【变更送电】无 【发布渠道】通过９５５９８发布","powerOffId":"2019082513000052"},{"poweroffId":2019082513000050,"sgpoweroffId":null,"subsName":"","lineName":"10KV南三店555","pubTranName":"酱各庄村东,","scope":"【影响街道/乡镇】高官庄镇 【高危重要客户】无 【影响客户】酱各庄村","startTime":"2019-09-04 08:00:00","stopDate":"2019-09-04 18:00:00","orgNo":"1340626","typeCode":"计划停电","poweroffArea":"【单台区停电】停酱各庄村东","poweroffReason":"【停电原因】由于导线架设工程导致１１０ＫＶ松林店变电站１０ＫＶ南三店５５５线路酱各庄村东公变台区停电 【变更送电】无 【发布渠道】涿州电视台（０８月２５日至０９月０３日２１：００播放２次）屏幕上方滚动","powerTime":"2019-09-04 17:41:24","powerComm":"已送电","subsNo":"","lineNo":"","tgNo":"","tgName":null,"infoStatus":"1","orgName":"国网涿州市供电公司","typeName":null,"infoStatusName":null,"dateDay":null,"orgNos":null,"nowTime":null,"countyName":null,"streetName":null,"villageName":null,"roadName":null,"communityName":null,"tranName":null,"sdLineName":null,"cityCode":"1340626","cityName":"国网涿州市供电公司","provinceCode":null,"stopTime":"2019-09-04 18:00:00","powerType":"全部","powerOffArea":"【单台区停电】停酱各庄村东","powerOffReason":"【停电原因】由于导线架设工程导致１１０ＫＶ松林店变电站１０ＫＶ南三店５５５线路酱各庄村东公变台区停电 【变更送电】无 【发布渠道】涿州电视台（０８月２５日至０９月０３日２１：００播放２次）屏幕上方滚动","powerOffId":"2019082513000050"},{"poweroffId":2019082513000032,"sgpoweroffId":null,"subsName":"","lineName":"10KV511城内线","pubTranName":"10kV511城内线油棉07025台区变压器,","scope":"【影响街道/乡镇】博野镇【高危重要客户】无【影响客户】老车站五金家属院","startTime":"2019-08-25 07:34:15","stopDate":"2019-08-25 11:00:00","orgNo":"1340608","typeCode":"电网故障停限电","poweroffArea":"【单台区停电】停10kV511城内线油棉07025台区变压器","poweroffReason":"【停电原因】由于低压线断导致１１０ＫＶ博野变电站５１１线路０７０２５公变台区停电【变更送电】因抢修进度加快原因，送电时间由１７：００变更为１１：００【发布渠道】通过９５５９８发布","powerTime":"2019-08-25 10:33:19","powerComm":"已送电","subsNo":"","lineNo":"","tgNo":"","tgName":null,"infoStatus":"1","orgName":"国网博野县供电公司","typeName":null,"infoStatusName":null,"dateDay":null,"orgNos":null,"nowTime":null,"countyName":null,"streetName":null,"villageName":null,"roadName":null,"communityName":null,"tranName":null,"sdLineName":null,"cityCode":"1340608","cityName":"国网博野县供电公司","provinceCode":null,"stopTime":"2019-08-25 11:00:00","powerType":"全部","powerOffArea":"【单台区停电】停10kV511城内线油棉07025台区变压器","powerOffReason":"【停电原因】由于低压线断导致１１０ＫＶ博野变电站５１１线路０７０２５公变台区停电【变更送电】因抢修进度加快原因，送电时间由１７：００变更为１１：００【发布渠道】通过９５５９８发布","powerOffId":"2019082513000032"},{"poweroffId":2019082413000323,"sgpoweroffId":null,"subsName":"","lineName":"衣巾店线525","pubTranName":"陶辛庄小区2号箱变间隔配电变压器,徐家营3期,陶辛庄小区4号箱变配电变压器,北衣巾东变压器,徐家营新民居1,幸福营20号变压器,岳家街06号变压器,徐家营新民居,徐家营三期间隔配电变压器,梁北东台变压器,北衣巾南变压器,梁北北变压器,幸福营19号变压器,陶辛庄小区3号箱变配电变压器,岳家街排灌2变压器【纯农排变】,梁北中,徐家营新民居2,陶辛庄小区1号箱变间隔配电变压器,陶辛庄小区5号箱变配电变压器,梁家营乡政府变压器,岳家街05号变压器,","scope":"【影响街道/乡镇】梁家营乡、方官镇 【高危重要客户】无 【影响客户】天阔地产、中誉房地产、正德昊远房地产、昊龙、天筑建材、高德门窗、朝阳中学、高铁东站广场、龙堂水厂、大史村、小史村、蔡庄村、梁南村、梁北村、陶辛庄村、幸福营村、徐家营小区、塔楼村、薛庄村、岳家街村、北衣巾村","startTime":"2019-08-24 23:04:27","stopDate":"2019-08-25 05:00:00","orgNo":"1340612","typeCode":"电网故障停限电","poweroffArea":"【全线路停电】停小史变压器,塔楼变压器,河北汇佳房地产开发有限公司,高碑店市路灯管理办公室,高碑店市呈辉石材加工有限公司,岳家街排灌变压器【纯农排变】,薛庄东,大史东台变压器,大史南台变压器,岳家街06号变压器,徐家营新民居,昊龙2,高碑店市朝阳中学,河北汇佳房地产开发有限公司2,高碑店市建设局,赵庄排灌【纯农排变】,蔡庄变压器,河北驰通房地产开发有限公司,0700004214|昊龙公司,高碑店市中誉房地产开发有限公司1250,高碑店市中誉房地产开发有限公司1000,幸福营20号变压器,河北培鹏农业科技有限公司变压器,高碑店市中誉房地产开发有限公司800,河北杉浩房地产开发有限公司,岳家街05号变压器,河北汇佳房地产开发有限公司变压器,岳家街排灌2变压器【纯农排变】,徐家营新民居2,北衣巾内变压器,梁北北变压器,0580353363-高碑店市水利局龙堂水厂-专变-124550007-高碑店市水利局变压器,高碑店市中誉房地产开发有限公司630,梁北排灌2【纯农排变】,中铁一局2公司,高碑店市正德昊远房地产开发有限公司3,北衣巾北变压器,岳家街02号变压器,东升高计,东升3,塔楼排灌2变压器【纯农排变】,塔楼面2,中铁一局中心试验室,大史排灌2变压器【纯农排变】,北衣巾东变压器,薛庄排灌变压器【纯农排变】,高碑店市志豪机电设备有限公司,岳家街03号变压器,北衣巾排灌1变压器【纯农排变】,高碑店市天筑新型建材有限公司,梁北排灌1【纯农排变】,陶辛庄小区2号箱变间隔配电变压器,永兴加油站,徐家营新民居1,梁南变压器,岳家街04号变压器,小史排灌【纯农排变】,通盛水泥厂,梁北面粉厂,孵化厂,梁北西变压器,0662995733-国网高碑店市供电公司-专变-197606801-河北省保定市高碑店市梁家营乡梁家营供电所,北京华汇恒业投资有限公司变压器,高碑店市正德昊远房地产开发有限公司1#变压器,北衣巾排灌2变压器【纯农排变】,陶辛庄小区1号箱变间隔配电变压器,大史排灌,梁北排灌3【纯农排变】,陶辛庄小区5号箱变配电变压器,徐家营三期间隔配电变压器,梁北东台变压器,高碑店市晨阳橡塑制品有限公司,薛庄变压器,陶辛庄变压器,徐家营3期,塔楼排灌变压器【纯农排变】,高碑店市梁家营初级中学变压器,幸福营排【纯农排变】,陶辛庄小区4号箱变配电变压器,梁南排灌变压器【纯农排变】,幸福营19号变压器,陶辛庄小区3号箱变配电变压器,保定天阔房地产开发有限公司,岳家街01号变压器,太平庄排灌1号变压器【纯农排变】,塔楼新变压器,太平庄排灌2号变压器【纯农排变】,北衣巾养殖场,衣巾店农场,梁南新变压器,庄伙排灌变压器【纯农排变】,梁家营乡政府变压器,高碑店市正德昊远房地产开发有限公司2#变压器,陶辛庄北变压器,高碑店市正德昊远房地产开发有限公司4,梁北中,高碑店燕赵医院,幸福营排灌变压器【纯农排变】,农场2,高碑店市正德昊远房地产开发有限公司,粮站,高碑店市梁家营高德门窗加工厂,保定杰海箱包配件制造有限公司,北衣巾南变压器","poweroffReason":"【停电原因】由于梁南分支０２号杆有绑线搭在上线上导致１１０ＫＶ太平庄变电站１０ＫＶ衣巾店５２５线路全线停电 【变更送电】因抢修进度加快原因，送电时间由２５日９：００变更为２５日５：００ 【发布渠道】通过９５５９８发布","powerTime":"2019-08-25 04:31:22","powerComm":"已送电","subsNo":"","lineNo":"","tgNo":"","tgName":null,"infoStatus":"1","orgName":"国网高碑店市供电公司","typeName":null,"infoStatusName":null,"dateDay":null,"orgNos":null,"nowTime":null,"countyName":null,"streetName":null,"villageName":null,"roadName":null,"communityName":null,"tranName":null,"sdLineName":null,"cityCode":"1340612","cityName":"国网高碑店市供电公司","provinceCode":null,"stopTime":"2019-08-25 05:00:00","powerType":"全部","powerOffArea":"【全线路停电】停小史变压器,塔楼变压器,河北汇佳房地产开发有限公司,高碑店市路灯管理办公室,高碑店市呈辉石材加工有限公司,岳家街排灌变压器【纯农排变】,薛庄东,大史东台变压器,大史南台变压器,岳家街06号变压器,徐家营新民居,昊龙2,高碑店市朝阳中学,河北汇佳房地产开发有限公司2,高碑店市建设局,赵庄排灌【纯农排变】,蔡庄变压器,河北驰通房地产开发有限公司,0700004214|昊龙公司,高碑店市中誉房地产开发有限公司1250,高碑店市中誉房地产开发有限公司1000,幸福营20号变压器,河北培鹏农业科技有限公司变压器,高碑店市中誉房地产开发有限公司800,河北杉浩房地产开发有限公司,岳家街05号变压器,河北汇佳房地产开发有限公司变压器,岳家街排灌2变压器【纯农排变】,徐家营新民居2,北衣巾内变压器,梁北北变压器,0580353363-高碑店市水利局龙堂水厂-专变-124550007-高碑店市水利局变压器,高碑店市中誉房地产开发有限公司630,梁北排灌2【纯农排变】,中铁一局2公司,高碑店市正德昊远房地产开发有限公司3,北衣巾北变压器,岳家街02号变压器,东升高计,东升3,塔楼排灌2变压器【纯农排变】,塔楼面2,中铁一局中心试验室,大史排灌2变压器【纯农排变】,北衣巾东变压器,薛庄排灌变压器【纯农排变】,高碑店市志豪机电设备有限公司,岳家街03号变压器,北衣巾排灌1变压器【纯农排变】,高碑店市天筑新型建材有限公司,梁北排灌1【纯农排变】,陶辛庄小区2号箱变间隔配电变压器,永兴加油站,徐家营新民居1,梁南变压器,岳家街04号变压器,小史排灌【纯农排变】,通盛水泥厂,梁北面粉厂,孵化厂,梁北西变压器,0662995733-国网高碑店市供电公司-专变-197606801-河北省保定市高碑店市梁家营乡梁家营供电所,北京华汇恒业投资有限公司变压器,高碑店市正德昊远房地产开发有限公司1#变压器,北衣巾排灌2变压器【纯农排变】,陶辛庄小区1号箱变间隔配电变压器,大史排灌,梁北排灌3【纯农排变】,陶辛庄小区5号箱变配电变压器,徐家营三期间隔配电变压器,梁北东台变压器,高碑店市晨阳橡塑制品有限公司,薛庄变压器,陶辛庄变压器,徐家营3期,塔楼排灌变压器【纯农排变】,高碑店市梁家营初级中学变压器,幸福营排【纯农排变】,陶辛庄小区4号箱变配电变压器,梁南排灌变压器【纯农排变】,幸福营19号变压器,陶辛庄小区3号箱变配电变压器,保定天阔房地产开发有限公司,岳家街01号变压器,太平庄排灌1号变压器【纯农排变】,塔楼新变压器,太平庄排灌2号变压器【纯农排变】,北衣巾养殖场,衣巾店农场,梁南新变压器,庄伙排灌变压器【纯农排变】,梁家营乡政府变压器,高碑店市正德昊远房地产开发有限公司2#变压器,陶辛庄北变压器,高碑店市正德昊远房地产开发有限公司4,梁北中,高碑店燕赵医院,幸福营排灌变压器【纯农排变】,农场2,高碑店市正德昊远房地产开发有限公司,粮站,高碑店市梁家营高德门窗加工厂,保定杰海箱包配件制造有限公司,北衣巾南变压器","powerOffReason":"【停电原因】由于梁南分支０２号杆有绑线搭在上线上导致１１０ＫＶ太平庄变电站１０ＫＶ衣巾店５２５线路全线停电 【变更送电】因抢修进度加快原因，送电时间由２５日９：００变更为２５日５：００ 【发布渠道】通过９５５９８发布","powerOffId":"2019082413000323"},{"poweroffId":2019082413000291,"sgpoweroffId":null,"subsName":"","lineName":"迪城线577","pubTranName":"于迪城18号【纯农排变】,","scope":"【影响街道/乡镇】大因镇 【高危重要客户】无 【影响客户】于迪城村","startTime":"2019-08-26 07:00:00","stopDate":"2019-08-26 18:00:00","orgNo":"1340605","typeCode":"临时停电","poweroffArea":"【单台区停电】停于迪城18号【纯农排变】","poweroffReason":"【停电原因】由于线路检修导致１１０ＫＶ沙口变电站迪城线５７７线路于迪城１８号公变台区停电 【变更送电】无 【发布渠道】通过９５５９８发布","powerTime":"2019-08-26 17:46:47","powerComm":"已送电","subsNo":"","lineNo":"","tgNo":"","tgName":null,"infoStatus":"1","orgName":"国网徐水县供电公司","typeName":null,"infoStatusName":null,"dateDay":null,"orgNos":null,"nowTime":null,"countyName":null,"streetName":null,"villageName":null,"roadName":null,"communityName":null,"tranName":null,"sdLineName":null,"cityCode":"1340605","cityName":"国网徐水县供电公司","provinceCode":null,"stopTime":"2019-08-26 18:00:00","powerType":"全部","powerOffArea":"【单台区停电】停于迪城18号【纯农排变】","powerOffReason":"【停电原因】由于线路检修导致１１０ＫＶ沙口变电站迪城线５７７线路于迪城１８号公变台区停电 【变更送电】无 【发布渠道】通过９５５９８发布","powerOffId":"2019082413000291"},{"poweroffId":2019082413000289,"sgpoweroffId":null,"subsName":"","lineName":"迪城线577","pubTranName":"于迪城14号【纯农排变】,","scope":"【影响街道/乡镇】大因镇 【高危重要客户】无 【影响客户】于迪城村","startTime":"2019-08-26 07:00:00","stopDate":"2019-08-26 18:00:00","orgNo":"1340605","typeCode":"临时停电","poweroffArea":"【单台区停电】停于迪城14号【纯农排变】","poweroffReason":"【停电原因】由于线路检修导致１１０ＫＶ沙口变电站迪城线５７７线路于迪城１４号公变台区停电 【变更送电】无 【发布渠道】通过９５５９８发布","powerTime":"2019-08-26 17:47:19","powerComm":"已送电","subsNo":"","lineNo":"","tgNo":"","tgName":null,"infoStatus":"1","orgName":"国网徐水县供电公司","typeName":null,"infoStatusName":null,"dateDay":null,"orgNos":null,"nowTime":null,"countyName":null,"streetName":null,"villageName":null,"roadName":null,"communityName":null,"tranName":null,"sdLineName":null,"cityCode":"1340605","cityName":"国网徐水县供电公司","provinceCode":null,"stopTime":"2019-08-26 18:00:00","powerType":"全部","powerOffArea":"【单台区停电】停于迪城14号【纯农排变】","powerOffReason":"【停电原因】由于线路检修导致１１０ＫＶ沙口变电站迪城线５７７线路于迪城１４号公变台区停电 【变更送电】无 【发布渠道】通过９５５９８发布","powerOffId":"2019082413000289"},{"poweroffId":2019082413000287,"sgpoweroffId":null,"subsName":"","lineName":"迪城线577","pubTranName":"于迪城13号【纯农排变】,","scope":"【影响街道/乡镇】大因镇 【高危重要客户】无 【影响客户】于迪城村","startTime":"2019-08-26 07:00:00","stopDate":"2019-08-26 18:00:00","orgNo":"1340605","typeCode":"临时停电","poweroffArea":"【单台区停电】停于迪城13号【纯农排变】","poweroffReason":"【停电原因】由于线路检修导致１１０ＫＶ沙口变电站迪城线５７７线路于迪城１３号公变台区停电 【变更送电】无 【发布渠道】通过９５５９８发布","powerTime":"2019-08-26 17:47:39","powerComm":"已送电","subsNo":"","lineNo":"","tgNo":"","tgName":null,"infoStatus":"1","orgName":"国网徐水县供电公司","typeName":null,"infoStatusName":null,"dateDay":null,"orgNos":null,"nowTime":null,"countyName":null,"streetName":null,"villageName":null,"roadName":null,"communityName":null,"tranName":null,"sdLineName":null,"cityCode":"1340605","cityName":"国网徐水县供电公司","provinceCode":null,"stopTime":"2019-08-26 18:00:00","powerType":"全部","powerOffArea":"【单台区停电】停于迪城13号【纯农排变】","powerOffReason":"【停电原因】由于线路检修导致１１０ＫＶ沙口变电站迪城线５７７线路于迪城１３号公变台区停电 【变更送电】无 【发布渠道】通过９５５９８发布","powerOffId":"2019082413000287"},{"poweroffId":2019082413000285,"sgpoweroffId":null,"subsName":"","lineName":"迪城线577","pubTranName":"崔迪城2号【纯农排变】,","scope":"【影响街道/乡镇】大因镇 【高危重要客户】无 【影响客户】崔迪城","startTime":"2019-08-25 08:00:00","stopDate":"2019-08-25 18:00:00","orgNo":"1340605","typeCode":"其他临时停电","poweroffArea":"【单台区停电】停崔迪城2号【纯农排变】","poweroffReason":"【停电原因】由于处理紧急缺陷导致１１０ＫＶ沙口变电站迪城线５７７线路崔迪城２号公变台区停电 【变更送电】无 【发布渠道】通过９５５９８发布","powerTime":"2019-08-25 17:36:31","powerComm":"已送电","subsNo":"","lineNo":"","tgNo":"","tgName":null,"infoStatus":"1","orgName":"国网徐水县供电公司","typeName":null,"infoStatusName":null,"dateDay":null,"orgNos":null,"nowTime":null,"countyName":null,"streetName":null,"villageName":null,"roadName":null,"communityName":null,"tranName":null,"sdLineName":null,"cityCode":"1340605","cityName":"国网徐水县供电公司","provinceCode":null,"stopTime":"2019-08-25 18:00:00","powerType":"全部","powerOffArea":"【单台区停电】停崔迪城2号【纯农排变】","powerOffReason":"【停电原因】由于处理紧急缺陷导致１１０ＫＶ沙口变电站迪城线５７７线路崔迪城２号公变台区停电 【变更送电】无 【发布渠道】通过９５５９８发布","powerOffId":"2019082413000285"},{"poweroffId":2019082413000282,"sgpoweroffId":null,"subsName":"","lineName":"迪城线577","pubTranName":"于迪城4号【纯农排变】,","scope":"【影响街道/乡镇】大因镇 【高危重要客户】无 【影响客户】于迪城","startTime":"2019-08-26 07:00:00","stopDate":"2019-08-26 18:00:00","orgNo":"1340605","typeCode":"临时停电","poweroffArea":"【单台区停电】停于迪城4号【纯农排变】","poweroffReason":"【停电原因】由于线路检修导致１１０ＫＶ沙口变电站迪城线５７７线路于迪城４号公变台区停电 【变更送电】无 【发布渠道】通过９５５９８发布","powerTime":"2019-08-26 17:48:04","powerComm":"已送电","subsNo":"","lineNo":"","tgNo":"","tgName":null,"infoStatus":"1","orgName":"国网徐水县供电公司","typeName":null,"infoStatusName":null,"dateDay":null,"orgNos":null,"nowTime":null,"countyName":null,"streetName":null,"villageName":null,"roadName":null,"communityName":null,"tranName":null,"sdLineName":null,"cityCode":"1340605","cityName":"国网徐水县供电公司","provinceCode":null,"stopTime":"2019-08-26 18:00:00","powerType":"全部","powerOffArea":"【单台区停电】停于迪城4号【纯农排变】","powerOffReason":"【停电原因】由于线路检修导致１１０ＫＶ沙口变电站迪城线５７７线路于迪城４号公变台区停电 【变更送电】无 【发布渠道】通过９５５９８发布","powerOffId":"2019082413000282"}],"pageModel":{"pageNow":616,"totalCount":10973,"totalPage":1098,"tableRows":0,"pageCount":10,"beginCount":6150},"isExperi":"1"}