{"message":"","today":"2020-06-15","seleList":[{"poweroffId":2019082413000130,"sgpoweroffId":null,"subsName":"","lineName":"10kV515横河口线","pubTranName":"0000005924岗北村东南区变压器,0000005925岗北东北区变压器,0012891903韩家村10区变压器,岗北东北2区变压器,韩家村中学变压器2,灵山25区变压器,韩家村中学变压器1,0000005932韩家村5区变压器,0000005930韩家村3区变压器,0000005562西庞家洼南区变压器,0000007156韩家村7区变压器,0012914404朱家峪东5变压器,0014453438韩家村农灌,0014094452灵山22区变压器,韩家村13区变压器,岗北东南2区变压器,东庞家洼西2变压器,0000005559灵山3区变压器,韩家村小学变压器,韩家村14区变压器,0012421899韩家村9区变压器,0000006928韩家村6区变压器,0000005616东庞家洼西区变压器,0000005929韩家村2区变压器,西庞家洼南2区变压器,0014469278韩家村12区,0000005928韩家村1区变压器,0012433959韩家村8区变压器,0000005931韩家村4区变压器,","scope":"【影响街道/乡镇】灵山镇【高危重要客户】无【影响客户】灵山、西庞家洼、东庞家洼、韩家村、岗北","startTime":"2019-09-04 05:30:00","stopDate":"2019-09-04 20:00:00","orgNo":"1340619","typeCode":"计划停电","poweroffArea":"【全线路停电】停中建路桥集团有限公司变压器,东庞家洼西2变压器,0000005559灵山3区变压器,韩家村小学变压器,韩家村14区变压器,0012421899韩家村9区变压器,0000006928韩家村6区变压器,灵山25区变压器,韩家村中学变压器1,0000005932韩家村5区变压器,0000005930韩家村3区变压器,0000005562西庞家洼南区变压器,0000007156韩家村7区变压器,韩登朝瓷厂,0012914404朱家峪东5变压器,0014453438韩家村农灌,0014094452灵山22区变压器,韩家村13区变压器,0000005616东庞家洼西区变压器,曲阳县冀科电瓷有限公司,0000005929韩家村2区变压器,西庞家洼南2区变压器,0014469278韩家村12区,永固瓷业分公司,曲阳县泰达石粉加工厂变压器,0000005928韩家村1区变压器,0012433959韩家村8区变压器,0000005931韩家村4区变压器,岗北东南2区变压器,岗北东北2区变压器,0000005924岗北村东南区变压器,0000005925岗北东北区变压器,0012891903韩家村10区变压器,韩家村中学变压器2","poweroffReason":"【停电原因】由于站内设备消缺导致３５ＫＶ灵山变电站１０ＫＶ５１５横河口线路全线停电【变更送电】因工作进度加快原因，送电时间由２３:３０变更为２０:００【发布渠道】保定市曲阳县电视台（８月２４日至８月２６日１８时至２０时之间）屏幕上方滚动","powerTime":"2019-09-04 19:24:24","powerComm":"已送电","subsNo":"","lineNo":"","tgNo":"","tgName":null,"infoStatus":"1","orgName":"国网曲阳县供电公司","typeName":null,"infoStatusName":null,"dateDay":null,"orgNos":null,"nowTime":null,"countyName":null,"streetName":null,"villageName":null,"roadName":null,"communityName":null,"tranName":null,"sdLineName":null,"cityCode":"1340619","cityName":"国网曲阳县供电公司","provinceCode":null,"stopTime":"2019-09-04 20:00:00","powerType":"全部","powerOffArea":"【全线路停电】停中建路桥集团有限公司变压器,东庞家洼西2变压器,0000005559灵山3区变压器,韩家村小学变压器,韩家村14区变压器,0012421899韩家村9区变压器,0000006928韩家村6区变压器,灵山25区变压器,韩家村中学变压器1,0000005932韩家村5区变压器,0000005930韩家村3区变压器,0000005562西庞家洼南区变压器,0000007156韩家村7区变压器,韩登朝瓷厂,0012914404朱家峪东5变压器,0014453438韩家村农灌,0014094452灵山22区变压器,韩家村13区变压器,0000005616东庞家洼西区变压器,曲阳县冀科电瓷有限公司,0000005929韩家村2区变压器,西庞家洼南2区变压器,0014469278韩家村12区,永固瓷业分公司,曲阳县泰达石粉加工厂变压器,0000005928韩家村1区变压器,0012433959韩家村8区变压器,0000005931韩家村4区变压器,岗北东南2区变压器,岗北东北2区变压器,0000005924岗北村东南区变压器,0000005925岗北东北区变压器,0012891903韩家村10区变压器,韩家村中学变压器2","powerOffReason":"【停电原因】由于站内设备消缺导致３５ＫＶ灵山变电站１０ＫＶ５１５横河口线路全线停电【变更送电】因工作进度加快原因，送电时间由２３:３０变更为２０:００【发布渠道】保定市曲阳县电视台（８月２４日至８月２６日１８时至２０时之间）屏幕上方滚动","powerOffId":"2019082413000130"},{"poweroffId":2019082413000127,"sgpoweroffId":null,"subsName":"","lineName":"白塔铺线521","pubTranName":"10Kv513白塔铺线白塔铺14号【纯农排变】,10Kv513白塔铺线白塔铺18号,10Kv513白塔铺线站里17号,10Kv513白塔铺线麒麟店4号,客户投资_站里21号,10Kv513白塔铺线白塔铺20号,10Kv513白塔铺线小辛安5号,10Kv513白塔铺线站里1号,10Kv513白塔铺线站里2号,10Kv513白塔铺线站里9号【纯农排变】,10Kv513白塔铺线白塔铺10号【纯农排变】,10Kv513白塔铺线站里5号【纯农排变】,10Kv513白塔铺线白塔铺5号,10Kv513白塔铺线站里15号,10Kv513白塔铺线白塔铺16号,10Kv513白塔铺线站里3号,10Kv513白塔铺线站里4号【纯农排变】,10Kv513白塔铺线白塔铺21号,10Kv513白塔铺线站里12号,10Kv513白塔铺线小辛安1号,10Kv513白塔铺线小辛安2号【纯农排变】,10kV513白塔铺线站里16号【纯农排变】,10Kv513白塔铺线站里7号,保定市徐水区高林营镇站里小学,小辛安面粉厂,10Kv513白塔铺线白塔铺2号【纯农排变】,白塔铺农机站,10Kv513白塔铺线白塔铺11号,10Kv513白塔铺线站里10号,10Kv513白塔铺线白塔铺23号,白塔铺24号,10Kv513白塔铺线站里19号,10Kv513白塔铺线白塔铺4号,站里22号,10Kv513白塔铺线白塔铺3号,10Kv513白塔铺线白塔铺9号【纯农排变】,10Kv513白塔铺线站里6号【纯农排变】,10Kv513白塔铺线白塔铺19号,10Kv513白塔铺线站里13号,10Kv513白塔铺线白塔铺15号,保定市徐水区高林村镇白塔铺幼儿园,客户投资_站里8号,10Kv513白塔铺线白塔铺22号,10kV513白塔铺线站里20号,10Kv513白塔铺线站里18号,10Kv513白塔铺线站里14号,10Kv513白塔铺线站里11号,10Kv513白塔铺线白塔铺1号,","scope":"【影响街道/乡镇】高林村镇 【高危重要客户】无 【影响客户】白塔铺、站里村、小辛安、麒麟店","startTime":"2019-09-08 06:00:00","stopDate":"2019-09-08 18:00:00","orgNo":"1340605","typeCode":"计划停电","poweroffArea":"【分支停电】停10Kv513白塔铺线白塔铺14号【纯农排变】,10Kv513白塔铺线白塔铺18号, 10Kv513白塔铺线站里17号, 10Kv513白塔铺线麒麟店4号,客户投资_站里21号,10Kv513白塔铺线白塔铺20号, 10Kv513白塔铺线小辛安5号, 10Kv513白塔铺线站里1号, 10Kv513白塔铺线站里2号, 10Kv513白塔铺线站里9号【纯农排变】,10Kv513白塔铺线白塔铺10号【纯农排变】,10Kv513白塔铺线站里5号【纯农排变】,10Kv513白塔铺线白塔铺5号, 10Kv513白塔铺线站里15号, 10Kv513白塔铺线白塔铺11号, 10Kv513白塔铺线站里10号,10Kv513白塔铺线白塔铺23号,白塔铺24号, 10Kv513白塔铺线站里19号,10Kv513白塔铺线白塔铺4号,站里22号,10Kv513白塔铺线白塔铺3号,10Kv513白塔铺线白塔铺9号【纯农排变】,10Kv513白塔铺线站里6号【纯农排变】, 10Kv513白塔铺线白塔铺19号, 10Kv513白塔铺线站里13号,10Kv513白塔铺线白塔铺15号,保定市徐水区高林村镇白塔铺幼儿园,客户投资_站里8号,10Kv513白塔铺线白塔铺22号,10kV513白塔铺线站里20号, 10Kv513白塔铺线站里18号, 10Kv513白塔铺线站里14号, 10Kv513白塔铺线站里11号,10Kv513白塔铺线白塔铺1号,10Kv513白塔铺线白塔铺16号, 10Kv513白塔铺线站里3号,10Kv513白塔铺线站里4号【纯农排变】,10Kv513白塔铺线白塔铺21号, 10Kv513白塔铺线站里12号, 10Kv513白塔铺线小辛安1号,10Kv513白塔铺线小辛安2号【纯农排变】,10kV513白塔铺线站里16号【纯农排变】, 10Kv513白塔铺线站里7号,保定市徐水区高林营镇站里小学,小辛安面粉厂,10Kv513白塔铺线白塔铺2号【纯农排变】,白塔铺农机站","poweroffReason":"【停电原因】由于线路更换导线导致３５ＫＶ高林营变电站白塔铺５２１线路０７号杆分段开关以下线路停电 【变更送电】无 【发布渠道】通过河北省保定市徐水电视台游走滚动字幕播放（２０１９年０９月０１日０７:００至０９月０７日２０:００）","powerTime":"2019-09-08 17:56:21","powerComm":"已送电","subsNo":"","lineNo":"","tgNo":"","tgName":null,"infoStatus":"1","orgName":"国网徐水县供电公司","typeName":null,"infoStatusName":null,"dateDay":null,"orgNos":null,"nowTime":null,"countyName":null,"streetName":null,"villageName":null,"roadName":null,"communityName":null,"tranName":null,"sdLineName":null,"cityCode":"1340605","cityName":"国网徐水县供电公司","provinceCode":null,"stopTime":"2019-09-08 18:00:00","powerType":"全部","powerOffArea":"【分支停电】停10Kv513白塔铺线白塔铺14号【纯农排变】,10Kv513白塔铺线白塔铺18号, 10Kv513白塔铺线站里17号, 10Kv513白塔铺线麒麟店4号,客户投资_站里21号,10Kv513白塔铺线白塔铺20号, 10Kv513白塔铺线小辛安5号, 10Kv513白塔铺线站里1号, 10Kv513白塔铺线站里2号, 10Kv513白塔铺线站里9号【纯农排变】,10Kv513白塔铺线白塔铺10号【纯农排变】,10Kv513白塔铺线站里5号【纯农排变】,10Kv513白塔铺线白塔铺5号, 10Kv513白塔铺线站里15号, 10Kv513白塔铺线白塔铺11号, 10Kv513白塔铺线站里10号,10Kv513白塔铺线白塔铺23号,白塔铺24号, 10Kv513白塔铺线站里19号,10Kv513白塔铺线白塔铺4号,站里22号,10Kv513白塔铺线白塔铺3号,10Kv513白塔铺线白塔铺9号【纯农排变】,10Kv513白塔铺线站里6号【纯农排变】, 10Kv513白塔铺线白塔铺19号, 10Kv513白塔铺线站里13号,10Kv513白塔铺线白塔铺15号,保定市徐水区高林村镇白塔铺幼儿园,客户投资_站里8号,10Kv513白塔铺线白塔铺22号,10kV513白塔铺线站里20号, 10Kv513白塔铺线站里18号, 10Kv513白塔铺线站里14号, 10Kv513白塔铺线站里11号,10Kv513白塔铺线白塔铺1号,10Kv513白塔铺线白塔铺16号, 10Kv513白塔铺线站里3号,10Kv513白塔铺线站里4号【纯农排变】,10Kv513白塔铺线白塔铺21号, 10Kv513白塔铺线站里12号, 10Kv513白塔铺线小辛安1号,10Kv513白塔铺线小辛安2号【纯农排变】,10kV513白塔铺线站里16号【纯农排变】, 10Kv513白塔铺线站里7号,保定市徐水区高林营镇站里小学,小辛安面粉厂,10Kv513白塔铺线白塔铺2号【纯农排变】,白塔铺农机站","powerOffReason":"【停电原因】由于线路更换导线导致３５ＫＶ高林营变电站白塔铺５２１线路０７号杆分段开关以下线路停电 【变更送电】无 【发布渠道】通过河北省保定市徐水电视台游走滚动字幕播放（２０１９年０９月０１日０７:００至０９月０７日２０:００）","powerOffId":"2019082413000127"},{"poweroffId":2019082413000124,"sgpoweroffId":null,"subsName":"","lineName":"10kV515开发区线","pubTranName":"羊平小区二期箱变中压出线间隔配电变压器,羊平北队统管2号配电变压器,羊平新城四号东院箱变中压出线间隔配电变压器,0000005439羊平北队西区变压器,羊平镇政府变压器,羊平中心卫生院变压器,羊平镇小学变压器,羊平镇政府新增变压器,羊平镇小学2变压器,0000005573羊平开发小区变压器,中铭集团中铭小区箱变中压出线间隔配电变压器,羊平北队统管1号配电变压器,羊平开发区6号院配电变压器,0012303066晨苑小区变压器,北队西3区变压器,0000006277羊平北队西2区变压器,","scope":"【影响街道/乡镇】羊平镇【高危重要客户】无【影响客户】羊平开发小区、晨苑小区、中铭小区、西羊平","startTime":"2019-09-03 04:00:00","stopDate":"2019-09-03 21:00:00","orgNo":"1340619","typeCode":"计划停电","poweroffArea":"【全线路停电】停曲阳县天工石木雕刻厂,曲阳县万佳石材工艺品有限公司2,曲阳县羊平镇北村新民居变压器,0000006277羊平北队西2区变压器,新京艺术雕刻厂,曲阳县佳润雕塑有限公司变压器,羊平小区二期箱变中压出线间隔配电变压器,高少永变压器,福磊公司,福磊雕刻工艺品有限公司,曲阳县京明雕塑有限公司变压器,曲阳县巨龙石材雕刻厂2,曲阳县刘占一雕刻厂,曲阳县永润雕塑有限公司变压器,广美雕刻艺术有限公司,曲阳县中泰石业有限公司,黄山雕刻石材公司(王秀哲),0000005439羊平北队西区变压器,0685900086-曲阳皇佳房地产开发有限公司-专变-225245083-曲阳皇佳房地产开发有限公司变压器,曲阳县铭德雕塑艺术有限公司变压器,0685900086-曲阳皇佳房地产开发有限公司-专变-225245085-曲阳皇佳房地产开发有限公司变压器,羊平镇政府变压器,曲阳县瀚美园林雕塑有限公司变压器,0685900086-曲阳皇佳房地产开发有限公司-专变-225245081-曲阳皇佳房地产开发有限公司变压器,羊平中心卫生院变压器,曲阳县新星雕刻厂变压器,羊平镇小学变压器,曲阳扣成石材加工厂变压器,羊平镇政府新增变压器,曲阳兴华石材雕刻有限公司,羊平镇小学2变压器,曲阳县平恩石材加工厂变压器,曲阳县嘉程石材雕刻有限公司变压器,曲阳高氏雕刻制造有限公司变压器,0000005573羊平开发小区变压器,曲阳县石华园林雕塑有限公司变压器,曲阳县大慈雕刻厂变压器,中铭集团中铭小区箱变中压出线间隔配电变压器,河北鑫特园林建筑雕塑有限公司变压器,羊平北队统管1号配电变压器,杨明勋雕刻厂,曲阳县越磊雕塑石材有限公司变压器,黄山雕刻石材有限公司,0557824874-曲阳县海涛石材雕刻厂-专变-112138081-曲阳县海涛石材雕刻厂变压器,西羊平刘恩会,亚华雕刻石材有限公司,宝联石材雕刻厂,曲阳县上星雕刻经销处变压器,中铭集团中铭小区,石曲联营雕刻厂,华阳雕刻石材公司,曲阳县羊平华艺雕刻厂,曲阳县英达雕塑有限公司,羊平新星雕刻石材厂（1）,曲阳县东方雕刻石材厂,曲阳县石材工艺雕刻厂,曲阳县金顺石材雕刻厂变压器,兴华石材雕刻厂,曲阳屹召雕塑有限公司变压器,曲阳县双晓石材雕刻厂变压器,高团信增容,曲阳县巨力建材有限公司1,河北省曲阳县振华雕刻建材厂,羊平北队统管2号配电变压器,曲阳县中铭物业有限公司变压器,曲阳县昌盛锯片厂,曲阳县宏大墓碑雕刻厂,曲阳县教育局（曲阳县羊平学校）变压器,曲阳县大理石板厂,羊平新城四号东院箱变中压出线间隔配电变压器,河北翰鼎雕塑集团有限公司变压器,0550407087-曲阳县正邦雕塑有限公司-专变-227175814-曲阳县正邦雕塑有限公司变压器,羊平棚改拆迁安置房一期变压器1,曲阳县利得木材加工厂变压器,曲阳县石材雕刻厂,曲阳县巨龙雕塑厂,开发区昌盛石板雕刻厂,鑫磊石材厂,花岗岩石料工艺雕刻厂,曲阳县黄山雕刻石材有限公司,中国联合网络通信有限公司曲阳县分,曲阳县艺特石材雕塑品销售部变压器,添宝石材厂,羊平开发区6号院配电变压器,曲阳县正邦雕塑有限公司变压器,0012303066晨苑小区变压器,羊平棚改拆迁安置房一期变压器2,保定华池集团有限公司（3）,曲阳县万佳石材工艺品有限公司,曲阳县大理石雕刻厂,曲阳县大理石雕刻厂2#,曲阳县铭洋雕塑有限公司变压器,0685393608-曲阳县林林石材雕塑有限公司-专变-225170153-曲阳县林林石材雕塑有限公司变压器,羊平建材理石雕刻厂,曲阳县张杰雕刻厂（2）,太行大理石厂,白玉大理石雕刻有限公司,曲阳县新星雕刻厂,交通设施雕刻石材有限公司,曲阳县石门建材厂,曲阳县","poweroffReason":"【停电原因】由于线路改造导致３５ＫＶ羊平变电站１０ＫＶ５１５开发区线路全线停电【变更送电】因工作未完工原因，送电时间由１８：００变更为２１：００【发布渠道】保定市曲阳县电视台（０８月２４日至０８月２６日１８时至２０时之间）屏幕上方滚动","powerTime":"2019-09-03 20:16:08","powerComm":"已送电","subsNo":"","lineNo":"","tgNo":"","tgName":null,"infoStatus":"1","orgName":"国网曲阳县供电公司","typeName":null,"infoStatusName":null,"dateDay":null,"orgNos":null,"nowTime":null,"countyName":null,"streetName":null,"villageName":null,"roadName":null,"communityName":null,"tranName":null,"sdLineName":null,"cityCode":"1340619","cityName":"国网曲阳县供电公司","provinceCode":null,"stopTime":"2019-09-03 21:00:00","powerType":"全部","powerOffArea":"【全线路停电】停曲阳县天工石木雕刻厂,曲阳县万佳石材工艺品有限公司2,曲阳县羊平镇北村新民居变压器,0000006277羊平北队西2区变压器,新京艺术雕刻厂,曲阳县佳润雕塑有限公司变压器,羊平小区二期箱变中压出线间隔配电变压器,高少永变压器,福磊公司,福磊雕刻工艺品有限公司,曲阳县京明雕塑有限公司变压器,曲阳县巨龙石材雕刻厂2,曲阳县刘占一雕刻厂,曲阳县永润雕塑有限公司变压器,广美雕刻艺术有限公司,曲阳县中泰石业有限公司,黄山雕刻石材公司(王秀哲),0000005439羊平北队西区变压器,0685900086-曲阳皇佳房地产开发有限公司-专变-225245083-曲阳皇佳房地产开发有限公司变压器,曲阳县铭德雕塑艺术有限公司变压器,0685900086-曲阳皇佳房地产开发有限公司-专变-225245085-曲阳皇佳房地产开发有限公司变压器,羊平镇政府变压器,曲阳县瀚美园林雕塑有限公司变压器,0685900086-曲阳皇佳房地产开发有限公司-专变-225245081-曲阳皇佳房地产开发有限公司变压器,羊平中心卫生院变压器,曲阳县新星雕刻厂变压器,羊平镇小学变压器,曲阳扣成石材加工厂变压器,羊平镇政府新增变压器,曲阳兴华石材雕刻有限公司,羊平镇小学2变压器,曲阳县平恩石材加工厂变压器,曲阳县嘉程石材雕刻有限公司变压器,曲阳高氏雕刻制造有限公司变压器,0000005573羊平开发小区变压器,曲阳县石华园林雕塑有限公司变压器,曲阳县大慈雕刻厂变压器,中铭集团中铭小区箱变中压出线间隔配电变压器,河北鑫特园林建筑雕塑有限公司变压器,羊平北队统管1号配电变压器,杨明勋雕刻厂,曲阳县越磊雕塑石材有限公司变压器,黄山雕刻石材有限公司,0557824874-曲阳县海涛石材雕刻厂-专变-112138081-曲阳县海涛石材雕刻厂变压器,西羊平刘恩会,亚华雕刻石材有限公司,宝联石材雕刻厂,曲阳县上星雕刻经销处变压器,中铭集团中铭小区,石曲联营雕刻厂,华阳雕刻石材公司,曲阳县羊平华艺雕刻厂,曲阳县英达雕塑有限公司,羊平新星雕刻石材厂（1）,曲阳县东方雕刻石材厂,曲阳县石材工艺雕刻厂,曲阳县金顺石材雕刻厂变压器,兴华石材雕刻厂,曲阳屹召雕塑有限公司变压器,曲阳县双晓石材雕刻厂变压器,高团信增容,曲阳县巨力建材有限公司1,河北省曲阳县振华雕刻建材厂,羊平北队统管2号配电变压器,曲阳县中铭物业有限公司变压器,曲阳县昌盛锯片厂,曲阳县宏大墓碑雕刻厂,曲阳县教育局（曲阳县羊平学校）变压器,曲阳县大理石板厂,羊平新城四号东院箱变中压出线间隔配电变压器,河北翰鼎雕塑集团有限公司变压器,0550407087-曲阳县正邦雕塑有限公司-专变-227175814-曲阳县正邦雕塑有限公司变压器,羊平棚改拆迁安置房一期变压器1,曲阳县利得木材加工厂变压器,曲阳县石材雕刻厂,曲阳县巨龙雕塑厂,开发区昌盛石板雕刻厂,鑫磊石材厂,花岗岩石料工艺雕刻厂,曲阳县黄山雕刻石材有限公司,中国联合网络通信有限公司曲阳县分,曲阳县艺特石材雕塑品销售部变压器,添宝石材厂,羊平开发区6号院配电变压器,曲阳县正邦雕塑有限公司变压器,0012303066晨苑小区变压器,羊平棚改拆迁安置房一期变压器2,保定华池集团有限公司（3）,曲阳县万佳石材工艺品有限公司,曲阳县大理石雕刻厂,曲阳县大理石雕刻厂2#,曲阳县铭洋雕塑有限公司变压器,0685393608-曲阳县林林石材雕塑有限公司-专变-225170153-曲阳县林林石材雕塑有限公司变压器,羊平建材理石雕刻厂,曲阳县张杰雕刻厂（2）,太行大理石厂,白玉大理石雕刻有限公司,曲阳县新星雕刻厂,交通设施雕刻石材有限公司,曲阳县石门建材厂,曲阳县","powerOffReason":"【停电原因】由于线路改造导致３５ＫＶ羊平变电站１０ＫＶ５１５开发区线路全线停电【变更送电】因工作未完工原因，送电时间由１８：００变更为２１：００【发布渠道】保定市曲阳县电视台（０８月２４日至０８月２６日１８时至２０时之间）屏幕上方滚动","powerOffId":"2019082413000124"},{"poweroffId":2019082413000122,"sgpoweroffId":null,"subsName":"","lineName":"西郭线516","pubTranName":"东羊平农灌变压器【纯农排变】,0000006808西郭村西2区变压器,西邸村东3区变压器,西邸村南区变压器,西邸村中区配电变压器,0000004729西邸村西区变压器,屯庄小学变压器,0000006517屯庄东农2变压器【纯农排变】,西邸村小学变压器,0000006485西邸村西2区变压器,西邸村北区变压器,西郭小学2变压器,0000004722西郭东区变压器,0014331045西郭东2区变压器,西郭北3区变压器,0012887532西邸村西北区变压器,0000004721西郭西区变压器,0000005879东羊平统管副业（2）变压器,西郭小学变压器,0012887531西郭中区变压器,东羊平统管副业(1)50变压器,0000004717屯庄变压器,东羊平水井变压器,0012887542西郭西北区,屯庄幼儿园变压器,0000006716屯庄2＃变压器,0000004728西邸村东区变压器,0013128398西郭北2区变压器,0012539370西邸村东2区变压器,屯庄小学2变压器,0000004724西郭南区变压器,0000004723西郭北区变压器,","scope":"【影响街道/乡镇】羊平镇、邸村乡【高危重要客户】无【影响客户】西邸村、屯庄、西郭、东羊平","startTime":"2019-09-03 04:00:00","stopDate":"2019-09-03 21:00:00","orgNo":"1340619","typeCode":"计划停电","poweroffArea":"【全线路停电】停0000006716屯庄2＃变压器,曲阳县雄达石板雕刻厂,曲阳县长城石材雕刻厂变压器,范登朝,0000005879东羊平统管副业（2）变压器,0000004728西邸村东区变压器,西郭村王少川2#,西郭村赵才立,0013128398西郭北2区变压器,0012539370西邸村东2区变压器,屯庄小学2变压器,0667825376-曲阳县博泰园林雕刻有限公司-专变-208428653-曲阳县博泰园林雕刻有限公司变压器,0000004724西郭南区变压器,河北高氏雕刻有限公司变压器,石洪章,0000005851屯庄东农变压器【纯农排变】,0000004723西郭北区变压器,曲阳县卢帅石材雕刻厂变压器,0469463646-王术杰-专变-46815676-王术杰,范旭明,东羊平石料加工厂,0000006517屯庄东农2变压器【纯农排变】,西邸村小学变压器,曲阳县磊鑫雕刻厂,西邸村中区配电变压器,李建成石板厂,曲阳县军峰雕刻石材加工厂,曲阳县广源雕刻石材开发有限公司变压器,0000004729西邸村西区变压器,屯庄小学变压器,0000006485西邸村西2区变压器,王淑贤王乱京采石厂,0673627229-曲阳县高权工艺石材雕刻厂-专变-214355774-曲阳县高权工艺石材雕刻厂变压器,西邸村北区变压器,翰润石材雕刻销售处变压器,羊平农灌变压器【纯农排变】,中国移动通信集团河北有限公司曲阳分公司变压器,0012887542西郭西北区,东羊平山坡农灌变压器【纯农排变】,曲阳县西郭石木雕刻石料厂,屯庄幼儿园变压器,西郭王江春,曲阳县东邸村乡西邸村西2,东羊平西农灌变压器【纯农排变】,曲阳县瑞合石材雕刻厂,东羊平曹跃如,冉泽民面粉厂,西郭小学2变压器,曲阳县江水雕刻石材厂,曲阳县润艺雕塑有限公司变压器,西郭村史风轩,0000004722西郭东区变压器,0014331045西郭东2区变压器,0000006627屯庄西农变压器【纯农排变】,西郭北3区变压器,西郭村王少川,西邸村西北农变压器【纯农排变】,0012887532西邸村西北区变压器,曲阳县璞琦园林雕塑有限公司变压器,0012887531西郭中区变压器,曲阳县巨龙石材雕刻厂3,河北卓艺园林雕塑工程有限公司变压器,东羊平统管副业(1)50变压器,河北中惠园林雕塑有限公司变压器,曲阳县双桥石材雕刻厂,曲阳县双霞餐饮服务有限公司羊平分公司变压器,0000004717屯庄变压器,东羊平水井变压器,曲阳县跃康雕刻石材销售部变压器,0000004721西郭西区变压器,0000005948西邸村东北农变压器【纯农排变】,东羊平农灌变压器【纯农排变】,0000005861西邸村统管西农变压器【纯农排变】,0000006808西郭村西2区变压器,西郭小学变压器,曲阳县爱国雕刻厂变压器,西邸村东3区变压器,西邸村南区变压器","poweroffReason":"【停电原因】由于线路改造导致３５ＫＶ羊平变电站１０ＫＶ西郭５１６线路全线停电【变更送电】因工作未完工原因，送电时间由１８：００变更为２１：００【发布渠道】保定市曲阳县电视台（０８月２４日至０８月２６日１８时至２０时之间）屏幕上方滚动","powerTime":"2019-09-03 20:16:23","powerComm":"已送电","subsNo":"","lineNo":"","tgNo":"","tgName":null,"infoStatus":"1","orgName":"国网曲阳县供电公司","typeName":null,"infoStatusName":null,"dateDay":null,"orgNos":null,"nowTime":null,"countyName":null,"streetName":null,"villageName":null,"roadName":null,"communityName":null,"tranName":null,"sdLineName":null,"cityCode":"1340619","cityName":"国网曲阳县供电公司","provinceCode":null,"stopTime":"2019-09-03 21:00:00","powerType":"全部","powerOffArea":"【全线路停电】停0000006716屯庄2＃变压器,曲阳县雄达石板雕刻厂,曲阳县长城石材雕刻厂变压器,范登朝,0000005879东羊平统管副业（2）变压器,0000004728西邸村东区变压器,西郭村王少川2#,西郭村赵才立,0013128398西郭北2区变压器,0012539370西邸村东2区变压器,屯庄小学2变压器,0667825376-曲阳县博泰园林雕刻有限公司-专变-208428653-曲阳县博泰园林雕刻有限公司变压器,0000004724西郭南区变压器,河北高氏雕刻有限公司变压器,石洪章,0000005851屯庄东农变压器【纯农排变】,0000004723西郭北区变压器,曲阳县卢帅石材雕刻厂变压器,0469463646-王术杰-专变-46815676-王术杰,范旭明,东羊平石料加工厂,0000006517屯庄东农2变压器【纯农排变】,西邸村小学变压器,曲阳县磊鑫雕刻厂,西邸村中区配电变压器,李建成石板厂,曲阳县军峰雕刻石材加工厂,曲阳县广源雕刻石材开发有限公司变压器,0000004729西邸村西区变压器,屯庄小学变压器,0000006485西邸村西2区变压器,王淑贤王乱京采石厂,0673627229-曲阳县高权工艺石材雕刻厂-专变-214355774-曲阳县高权工艺石材雕刻厂变压器,西邸村北区变压器,翰润石材雕刻销售处变压器,羊平农灌变压器【纯农排变】,中国移动通信集团河北有限公司曲阳分公司变压器,0012887542西郭西北区,东羊平山坡农灌变压器【纯农排变】,曲阳县西郭石木雕刻石料厂,屯庄幼儿园变压器,西郭王江春,曲阳县东邸村乡西邸村西2,东羊平西农灌变压器【纯农排变】,曲阳县瑞合石材雕刻厂,东羊平曹跃如,冉泽民面粉厂,西郭小学2变压器,曲阳县江水雕刻石材厂,曲阳县润艺雕塑有限公司变压器,西郭村史风轩,0000004722西郭东区变压器,0014331045西郭东2区变压器,0000006627屯庄西农变压器【纯农排变】,西郭北3区变压器,西郭村王少川,西邸村西北农变压器【纯农排变】,0012887532西邸村西北区变压器,曲阳县璞琦园林雕塑有限公司变压器,0012887531西郭中区变压器,曲阳县巨龙石材雕刻厂3,河北卓艺园林雕塑工程有限公司变压器,东羊平统管副业(1)50变压器,河北中惠园林雕塑有限公司变压器,曲阳县双桥石材雕刻厂,曲阳县双霞餐饮服务有限公司羊平分公司变压器,0000004717屯庄变压器,东羊平水井变压器,曲阳县跃康雕刻石材销售部变压器,0000004721西郭西区变压器,0000005948西邸村东北农变压器【纯农排变】,东羊平农灌变压器【纯农排变】,0000005861西邸村统管西农变压器【纯农排变】,0000006808西郭村西2区变压器,西郭小学变压器,曲阳县爱国雕刻厂变压器,西邸村东3区变压器,西邸村南区变压器","powerOffReason":"【停电原因】由于线路改造导致３５ＫＶ羊平变电站１０ＫＶ西郭５１６线路全线停电【变更送电】因工作未完工原因，送电时间由１８：００变更为２１：００【发布渠道】保定市曲阳县电视台（０８月２４日至０８月２６日１８时至２０时之间）屏幕上方滚动","powerOffId":"2019082413000122"},{"poweroffId":2019082413000121,"sgpoweroffId":null,"subsName":"","lineName":"10kV517羊平线","pubTranName":"0000005407羊平北队东区变压器,东羊平西2区变压器,东羊平北3区变压器,羊平南队南区变压器,羊平北队北区变压器,0013230010羊平南队北区变压器,0012788522东羊平东2区变压器,东羊平北2区变压器,羊平北队东2区变压器,0013119909中铭小区1号院变压器,0000005458东羊平西区变压器,0000005823羊平北队中区变压器,0014466252东羊平东南区,0000005460东羊平北区变压器,0012141057东羊平西2区变压器,羊平中队新增变压器,羊平北队西北区变压器,0000006263羊平中队南区变压器,0000005459东羊平东区变压器,0000005468羊平南队东区变压器,0000006134羊平南队东区（2）变压器,0000005439羊平北队西区新增变压器,西羊平农灌,羊平东区3变压器,0000005470羊平中队北区变压器,0014466251北队东3区,0014440144羊平中队东区,0000005467羊平南队西区变压器,0000005469羊平中队西区变压器,","scope":"【影响街道/乡镇】羊平镇【高危重要客户】无【影响客户】东羊平、西羊平中队、西羊平北队、西羊平南队、中铭小区","startTime":"2019-09-03 04:00:00","stopDate":"2019-09-03 21:00:00","orgNo":"1340619","typeCode":"计划停电","poweroffArea":"【全线路停电】停0000005459东羊平东区变压器,羊平南队高占京（2）,增洲,羊平石子石料厂,西羊平新星石板厂,0000005467羊平南队西区变压器,曲阳秀儒雕刻厂,曲阳县瑞晨园林石材有限公司变压器,0000005439羊平北队西区新增变压器,曲阳县冀矿开发石材厂,0012788522东羊平东2区变压器,阳光石粉厂,羊平南队南区变压器,李新双石粉厂,宏达石材工艺厂,0000005469羊平中队西区变压器,曲阳县宏峰雕刻石材有限公司变压器,太行中学,西羊平高宗秀,西羊平农灌,0000005823羊平北队中区变压器,羊平国税所,羊平北队东2区变压器,曲阳县冀矿开发石材厂2,0000005407羊平北队东区变压器,曲阳县雪阳工艺品销售部变压器,0000006134羊平南队东区（2）变压器,0000006263羊平中队南区变压器,0012141057东羊平西2区变压器,曲阳县李建辉石材雕刻销售部变压器,东羊平北3区变压器,0000005468羊平南队东区变压器,东羊平西2区变压器,0013230010羊平南队北区变压器,现代辉煌雕塑厂,曲阳县德益矿产品有限公司变压器,羊平南队高占京（1）,曲阳县环亚雕塑有限公司,黄山理石雕刻厂,羊平中队新增变压器,曲阳县深锐雕刻厂变压器,曲阳县宁园大酒店变压器,0014440144羊平中队东区,曲阳县羊平镇新民居5号院变压器,羊平北队北区变压器,0014466252东羊平东南区,东羊平北2区变压器,0014466251北队东3区,0000005470羊平中队北区变压器,羊平东区3变压器,0013119909中铭小区1号院变压器,0000005460东羊平北区变压器,曲阳县秀儒雕刻厂2,曲阳县瑞达雕刻厂,0000005458东羊平西区变压器,曲阳县辉煌雕塑有限公司变压器,羊平北队西北区变压器","poweroffReason":"【停电原因】由于线路改造导致３５ＫＶ羊平变电站１０ＫＶ５１７羊平线路全线停电【变更送电】因工作未完工原因，送电时间由１８：００变更为２１：００【发布渠道】保定市曲阳县电视台（０８月２４日至０８月２６日１８时至２０时之间）屏幕上方滚动","powerTime":"2019-09-03 20:16:38","powerComm":"已送电","subsNo":"","lineNo":"","tgNo":"","tgName":null,"infoStatus":"1","orgName":"国网曲阳县供电公司","typeName":null,"infoStatusName":null,"dateDay":null,"orgNos":null,"nowTime":null,"countyName":null,"streetName":null,"villageName":null,"roadName":null,"communityName":null,"tranName":null,"sdLineName":null,"cityCode":"1340619","cityName":"国网曲阳县供电公司","provinceCode":null,"stopTime":"2019-09-03 21:00:00","powerType":"全部","powerOffArea":"【全线路停电】停0000005459东羊平东区变压器,羊平南队高占京（2）,增洲,羊平石子石料厂,西羊平新星石板厂,0000005467羊平南队西区变压器,曲阳秀儒雕刻厂,曲阳县瑞晨园林石材有限公司变压器,0000005439羊平北队西区新增变压器,曲阳县冀矿开发石材厂,0012788522东羊平东2区变压器,阳光石粉厂,羊平南队南区变压器,李新双石粉厂,宏达石材工艺厂,0000005469羊平中队西区变压器,曲阳县宏峰雕刻石材有限公司变压器,太行中学,西羊平高宗秀,西羊平农灌,0000005823羊平北队中区变压器,羊平国税所,羊平北队东2区变压器,曲阳县冀矿开发石材厂2,0000005407羊平北队东区变压器,曲阳县雪阳工艺品销售部变压器,0000006134羊平南队东区（2）变压器,0000006263羊平中队南区变压器,0012141057东羊平西2区变压器,曲阳县李建辉石材雕刻销售部变压器,东羊平北3区变压器,0000005468羊平南队东区变压器,东羊平西2区变压器,0013230010羊平南队北区变压器,现代辉煌雕塑厂,曲阳县德益矿产品有限公司变压器,羊平南队高占京（1）,曲阳县环亚雕塑有限公司,黄山理石雕刻厂,羊平中队新增变压器,曲阳县深锐雕刻厂变压器,曲阳县宁园大酒店变压器,0014440144羊平中队东区,曲阳县羊平镇新民居5号院变压器,羊平北队北区变压器,0014466252东羊平东南区,东羊平北2区变压器,0014466251北队东3区,0000005470羊平中队北区变压器,羊平东区3变压器,0013119909中铭小区1号院变压器,0000005460东羊平北区变压器,曲阳县秀儒雕刻厂2,曲阳县瑞达雕刻厂,0000005458东羊平西区变压器,曲阳县辉煌雕塑有限公司变压器,羊平北队西北区变压器","powerOffReason":"【停电原因】由于线路改造导致３５ＫＶ羊平变电站１０ＫＶ５１７羊平线路全线停电【变更送电】因工作未完工原因，送电时间由１８：００变更为２１：００【发布渠道】保定市曲阳县电视台（０８月２４日至０８月２６日１８时至２０时之间）屏幕上方滚动","powerOffId":"2019082413000121"},{"poweroffId":2019082413000119,"sgpoweroffId":null,"subsName":"","lineName":"10kV518石门518线","pubTranName":"羊平供电所统管变压器,","scope":"【影响街道/乡镇】羊平镇、晓林乡【高危重要客户】无【影响客户】张爱成雕刻厂、曲阳亿龙石业有限公司、陈庆林石板厂、曲阳阳光石艺、羊平供电所附近、石门苏志好石粉厂、曲阳县纪元艺术雕刻厂","startTime":"2019-09-03 04:00:00","stopDate":"2019-09-03 21:00:00","orgNo":"1340619","typeCode":"计划停电","poweroffArea":"【全线路停电】停张爱成,曲阳亿龙石业有限公司,陈庆林石板厂,曲阳阳光石艺,羊平供电所统管变压器,石门苏志好,曲阳县纪元艺术雕刻厂","poweroffReason":"【停电原因】由于线路改造导致３５ＫＶ羊平变电站１０ＫＶ石门５１８线路全线停电【变更送电】因工作未完工原因，送电时间由１８：００变更为２１：００【发布渠道】保定市曲阳县电视台（０８月２４日至０８月２６日１８时至２０时之间）屏幕上方滚动","powerTime":"2019-09-03 20:16:53","powerComm":"已送电","subsNo":"","lineNo":"","tgNo":"","tgName":null,"infoStatus":"1","orgName":"国网曲阳县供电公司","typeName":null,"infoStatusName":null,"dateDay":null,"orgNos":null,"nowTime":null,"countyName":null,"streetName":null,"villageName":null,"roadName":null,"communityName":null,"tranName":null,"sdLineName":null,"cityCode":"1340619","cityName":"国网曲阳县供电公司","provinceCode":null,"stopTime":"2019-09-03 21:00:00","powerType":"全部","powerOffArea":"【全线路停电】停张爱成,曲阳亿龙石业有限公司,陈庆林石板厂,曲阳阳光石艺,羊平供电所统管变压器,石门苏志好,曲阳县纪元艺术雕刻厂","powerOffReason":"【停电原因】由于线路改造导致３５ＫＶ羊平变电站１０ＫＶ石门５１８线路全线停电【变更送电】因工作未完工原因，送电时间由１８：００变更为２１：００【发布渠道】保定市曲阳县电视台（０８月２４日至０８月２６日１８时至２０时之间）屏幕上方滚动","powerOffId":"2019082413000119"},{"poweroffId":2019082413000118,"sgpoweroffId":null,"subsName":"","lineName":"南营线518","pubTranName":"伍级6号,葛村3号,葛村4号【纯农排变】,伍级10号,南贺寿营7号,葛村7号,伍级9号,敬上19号,南贺寿营3号,葛村8号,南贺寿营6号,葛村10号【纯农排变】,葛村6号,葛村9号,伍级1号,南贺寿营8号,伍级4号,伍级8号,南贺寿营5号【纯农排变】,葛村5号,南贺寿营9号,南贺寿营10号,葛村2号,敬上1号,南贺寿营4号【纯农排变】,敬上8号【纯农排变】,南贺寿营2号,葛村1号【纯农排变】,伍级3号,","scope":"【影响街道/乡镇】大因镇 【高危重要客户】无 【影响客户】敬上村、葛村、伍级村、南贺寿营","startTime":"2019-09-07 05:00:00","stopDate":"2019-09-07 12:00:00","orgNo":"1340605","typeCode":"计划停电","poweroffArea":"【分支停电】停伍级6号,葛村3号,葛村4号【纯农排变】,伍级10号,南贺寿营7号,葛村7号,伍级9号,敬上19号,南贺寿营3号,葛村8号,南贺寿营6号,葛村10号【纯农排变】,葛村6号,葛村9号,伍级1号,南贺寿营8号,伍级4号,伍级8号,南贺寿营5号【纯农排变】,葛村5号,南贺寿营9号,南贺寿营10号,葛村2号,敬上1号,南贺寿营4号【纯农排变】,敬上8号【纯农排变】,南贺寿营2号,葛村1号【纯农排变】,伍级3号","poweroffReason":"【停电原因】由于新增配变接引导致３５ＫＶ大因变电站南营线５１８线路３１号杆分段开关以下线路停电 【变更送电】无 【发布渠道】通过河北省保定市徐水电视台游走滚动字幕播放（２０１９年０８月３１日０８:００至０９月０６日２０:００）","powerTime":"2019-09-07 11:34:37","powerComm":"已送电","subsNo":"","lineNo":"","tgNo":"","tgName":null,"infoStatus":"1","orgName":"国网徐水县供电公司","typeName":null,"infoStatusName":null,"dateDay":null,"orgNos":null,"nowTime":null,"countyName":null,"streetName":null,"villageName":null,"roadName":null,"communityName":null,"tranName":null,"sdLineName":null,"cityCode":"1340605","cityName":"国网徐水县供电公司","provinceCode":null,"stopTime":"2019-09-07 12:00:00","powerType":"全部","powerOffArea":"【分支停电】停伍级6号,葛村3号,葛村4号【纯农排变】,伍级10号,南贺寿营7号,葛村7号,伍级9号,敬上19号,南贺寿营3号,葛村8号,南贺寿营6号,葛村10号【纯农排变】,葛村6号,葛村9号,伍级1号,南贺寿营8号,伍级4号,伍级8号,南贺寿营5号【纯农排变】,葛村5号,南贺寿营9号,南贺寿营10号,葛村2号,敬上1号,南贺寿营4号【纯农排变】,敬上8号【纯农排变】,南贺寿营2号,葛村1号【纯农排变】,伍级3号","powerOffReason":"【停电原因】由于新增配变接引导致３５ＫＶ大因变电站南营线５１８线路３１号杆分段开关以下线路停电 【变更送电】无 【发布渠道】通过河北省保定市徐水电视台游走滚动字幕播放（２０１９年０８月３１日０８:００至０９月０６日２０:００）","powerOffId":"2019082413000118"},{"poweroffId":2019082413000108,"sgpoweroffId":null,"subsName":"","lineName":"10kV515沙沃线","pubTranName":"10KV沙沃线515千禧二区07308台区变压器,","scope":"【影响街道/乡镇】博野镇【高危重要客户】无【影响客户】千禧二区","startTime":"2019-08-24 11:20:49","stopDate":"2019-08-24 15:00:00","orgNo":"1340608","typeCode":"电网故障停限电","poweroffArea":"【单台区停电】停10KV沙沃线515千禧二区07308台区变压器","poweroffReason":"【停电原因】由于低压线断导致１１０ＫＶ博野变电站沙沃５１５线路０７３０８公变台区停电【变更送电】无【发布渠道】通过９５５９８发布","powerTime":"2019-08-24 14:22:56","powerComm":"已送电","subsNo":"","lineNo":"","tgNo":"","tgName":null,"infoStatus":"1","orgName":"国网博野县供电公司","typeName":null,"infoStatusName":null,"dateDay":null,"orgNos":null,"nowTime":null,"countyName":null,"streetName":null,"villageName":null,"roadName":null,"communityName":null,"tranName":null,"sdLineName":null,"cityCode":"1340608","cityName":"国网博野县供电公司","provinceCode":null,"stopTime":"2019-08-24 15:00:00","powerType":"全部","powerOffArea":"【单台区停电】停10KV沙沃线515千禧二区07308台区变压器","powerOffReason":"【停电原因】由于低压线断导致１１０ＫＶ博野变电站沙沃５１５线路０７３０８公变台区停电【变更送电】无【发布渠道】通过９５５９８发布","powerOffId":"2019082413000108"},{"poweroffId":2019082413000095,"sgpoweroffId":null,"subsName":"","lineName":"太保营线514","pubTranName":"保定市亨通乐汽车贸易有限公司,田庄2号,南庄3号【纯农排变】,师庄12号,常乐5号,东庄2号,徐水县祥久金属材料焊接加工厂,师庄14号,师庄13号,南高桥5号【纯农排变】,0682547015-河北悦康志德医药贸易有限公司-专变-221712106-河北悦康志德医药贸易有限公司,南高桥15号,北高桥2号【纯农排变】,留东营5号【纯农排变】,留东营7号【纯农排变】,徐水县新兴节能耐火材料厂,留东营4号,常乐4号【纯农排变】,李丰收林业养殖场,常乐8号【纯农排变】,留东营1号,留东营8号,保定轲龙废旧金属回收有限公司,师庄4号【纯农排变】,常乐7号【纯农排变】,南高桥4号【纯农排变】,保定是润丰实业有限公司,师庄8号,师庄15号,南高桥3号【纯农排变】,师庄16号,南高桥18号,常乐9号,常乐6号,南高桥1号【纯农排变】,师庄2号【纯农排变】,南高桥7号【纯农排变】,南高桥9号【纯农排变】,师庄1号,保定市徐水区北常保东奇五金建材经销处,保定五洲汽车销售服务有限公司,南高桥11号,师庄3号,常乐14号,保定市恒领汽车贸易有限公司,常乐13号,师庄5号,常乐3号【纯农排变】,南高桥10号,保定市徐水区留村乡南高桥小学,保定市德刚商贸有限公司,田庄3号,田庄4号【纯农排变】,师庄9号,华威汽车装饰件厂,精华碳素厂,东庄4号【纯农排变】,南高桥16号,常乐10号,北高桥19号,常乐2号,南高桥14号【纯农排变】,保定市徐水区留村乡中学,北高桥18号,师庄6号【纯农排变】,田庄1号【纯农排变】,南庄4号【纯农排变】,东庄3号【纯农排变】,南高桥8号【纯农排变】,南高桥17号,变压器,东庄1号,保定市徐水区留村乡师庄小学,河北爱博欣农业有限公司,保定均合金属材料有限公司,南高桥12号,保定市润丰实业有限公司,保定市津瑞建筑混凝土有限公司,刘东营面粉二厂,客户投资_常乐12号,南高桥13号,常乐1号,东庄5号,留东营3号【纯农排变】,师庄7号,保定市浩宇伟业汽车贸易有限公司,师庄11号,留东营6号【纯农排变】,师庄10号,北高桥6号【纯农排变】,保定凯达石油产品销售有限公司,南庄2号【纯农排变】,保定市祥瑞制冷设备有限公司,保定市鑫茆达再生资源回收有限公司,南高桥2号,保定市徐水区正旭构件厂,保定市徐水区全乐编制制品厂,南高桥6号【纯农排变】,留东营2号,常乐11号,保定市正汇包装彩印有限公司,南庄1号,保定市徐水区二力钢结构制品经销处,","scope":"【影响街道/乡镇】留村乡 【高危重要客户】无 【影响客户】常乐村、北高桥、南高桥、田庄、师庄、南庄、东庄、留东营","startTime":"2019-09-03 06:00:00","stopDate":"2019-09-03 18:00:00","orgNo":"1340605","typeCode":"计划停电","poweroffArea":"【分支停电】停常乐10号,北高桥19号,常乐2号,南高桥14号【纯农排变】,保定市徐水区留村乡中学,北高桥18号,师庄6号【纯农排变】,田庄1号【纯农排变】,南庄4号【纯农排变】,东庄3号【纯农排变】,南高桥8号【纯农排变】,南高桥17号,变压器,东庄1号,保定市徐水区留村乡师庄小学,河北爱博欣农业有限公司,保定均合金属材料有限公司,南高桥12号,保定市润丰实业有限公司,保定市津瑞建筑混凝土有限公司,刘东营面粉二厂,客户投资_常乐12号,南高桥13号,常乐1号,东庄5号,留东营3号【纯农排变】,师庄7号,保定市浩宇伟业汽车贸易有限公司,师庄11号,留东营6号【纯农排变】,师庄10号,北高桥6号【纯农排变】,保定凯达石油产品销售有限公司,南庄2号【纯农排变】,保定市祥瑞制冷设备有限公司,保定市鑫茆达再生资源回收有限公司,南高桥2号,保定市徐水区正旭构件厂,保定市徐水区全乐编制制品厂,南高桥6号【纯农排变】,留东营2号,常乐11号,保定市正汇包装彩印有限公司,南庄1号,保定市徐水区二力钢结构制品经销处,保定市亨通乐汽车贸易有限公司,田庄2号,南庄3号【纯农排变】,师庄12号,常乐5号,东庄2号,徐水县祥久金属材料焊接加工厂, 师庄14号,师庄13号,南高桥5号【纯农排变】,0682547015-河北悦康志德医药贸易有限公司-专变-221712106-河北悦康志德医药贸易有限公司,南高桥15号,北高桥2号【纯农排变】,留东营5号【纯农排变】,留东营7号【纯农排变】,徐水县新兴节能耐火材料厂,留东营4号,常乐4号【纯农排变】,李丰收林业养殖场,常乐8号【纯农排变】,留东营1号,留东营8号,保定轲龙废旧金属回收有限公司,师庄4号【纯农排变】,常乐7号【纯农排变】,田庄3号,田庄4号【纯农排变】,师庄9号,华威汽车装饰件厂,精华碳素厂,东庄4号【纯农排变】,南高桥16号,南高桥4号【纯农排变】,保定是润丰实业有限公司,师庄8号,师庄15号,南高桥3号【纯农排变】,师庄16号,南高桥18号,常乐9号,常乐6号,南高桥1号【纯农排变】,师庄2号【纯农排变】,南高桥7号【纯农排变】,南高桥9号【纯农排变】,师庄1号,保定市徐水区北常保东奇五金建材经销处,保定五洲汽车销售服务有限公司,南高桥11号,师庄3号,常乐14号,保定市恒领汽车贸易有限公司,常乐13号,师庄5号,常乐3号【纯农排变】,南高桥10号,保定市徐水区留村乡南高桥小学,保定市德刚商贸有限公司","poweroffReason":"【停电原因】由于东庄分支更换导线导致３５ＫＶ漕河变电站太保营５１４线路东庄分支７号分段开关以下线路停电 【变更送电】无 【发布渠道】通过河北省保定市徐水电视台游走滚动字幕播放（２０１９年０８月２７日０７:００至０９月０２日２０:００）","powerTime":"2019-09-03 17:51:33","powerComm":"已送电","subsNo":"","lineNo":"","tgNo":"","tgName":null,"infoStatus":"1","orgName":"国网徐水县供电公司","typeName":null,"infoStatusName":null,"dateDay":null,"orgNos":null,"nowTime":null,"countyName":null,"streetName":null,"villageName":null,"roadName":null,"communityName":null,"tranName":null,"sdLineName":null,"cityCode":"1340605","cityName":"国网徐水县供电公司","provinceCode":null,"stopTime":"2019-09-03 18:00:00","powerType":"全部","powerOffArea":"【分支停电】停常乐10号,北高桥19号,常乐2号,南高桥14号【纯农排变】,保定市徐水区留村乡中学,北高桥18号,师庄6号【纯农排变】,田庄1号【纯农排变】,南庄4号【纯农排变】,东庄3号【纯农排变】,南高桥8号【纯农排变】,南高桥17号,变压器,东庄1号,保定市徐水区留村乡师庄小学,河北爱博欣农业有限公司,保定均合金属材料有限公司,南高桥12号,保定市润丰实业有限公司,保定市津瑞建筑混凝土有限公司,刘东营面粉二厂,客户投资_常乐12号,南高桥13号,常乐1号,东庄5号,留东营3号【纯农排变】,师庄7号,保定市浩宇伟业汽车贸易有限公司,师庄11号,留东营6号【纯农排变】,师庄10号,北高桥6号【纯农排变】,保定凯达石油产品销售有限公司,南庄2号【纯农排变】,保定市祥瑞制冷设备有限公司,保定市鑫茆达再生资源回收有限公司,南高桥2号,保定市徐水区正旭构件厂,保定市徐水区全乐编制制品厂,南高桥6号【纯农排变】,留东营2号,常乐11号,保定市正汇包装彩印有限公司,南庄1号,保定市徐水区二力钢结构制品经销处,保定市亨通乐汽车贸易有限公司,田庄2号,南庄3号【纯农排变】,师庄12号,常乐5号,东庄2号,徐水县祥久金属材料焊接加工厂, 师庄14号,师庄13号,南高桥5号【纯农排变】,0682547015-河北悦康志德医药贸易有限公司-专变-221712106-河北悦康志德医药贸易有限公司,南高桥15号,北高桥2号【纯农排变】,留东营5号【纯农排变】,留东营7号【纯农排变】,徐水县新兴节能耐火材料厂,留东营4号,常乐4号【纯农排变】,李丰收林业养殖场,常乐8号【纯农排变】,留东营1号,留东营8号,保定轲龙废旧金属回收有限公司,师庄4号【纯农排变】,常乐7号【纯农排变】,田庄3号,田庄4号【纯农排变】,师庄9号,华威汽车装饰件厂,精华碳素厂,东庄4号【纯农排变】,南高桥16号,南高桥4号【纯农排变】,保定是润丰实业有限公司,师庄8号,师庄15号,南高桥3号【纯农排变】,师庄16号,南高桥18号,常乐9号,常乐6号,南高桥1号【纯农排变】,师庄2号【纯农排变】,南高桥7号【纯农排变】,南高桥9号【纯农排变】,师庄1号,保定市徐水区北常保东奇五金建材经销处,保定五洲汽车销售服务有限公司,南高桥11号,师庄3号,常乐14号,保定市恒领汽车贸易有限公司,常乐13号,师庄5号,常乐3号【纯农排变】,南高桥10号,保定市徐水区留村乡南高桥小学,保定市德刚商贸有限公司","powerOffReason":"【停电原因】由于东庄分支更换导线导致３５ＫＶ漕河变电站太保营５１４线路东庄分支７号分段开关以下线路停电 【变更送电】无 【发布渠道】通过河北省保定市徐水电视台游走滚动字幕播放（２０１９年０８月２７日０７:００至０９月０２日２０:００）","powerOffId":"2019082413000095"},{"poweroffId":2019082413000079,"sgpoweroffId":null,"subsName":"","lineName":"山南线517","pubTranName":"石赛村4#村西南变压器,","scope":"【影响街道/乡镇】桥头乡【高危重要客户】无【影响客户】石赛村","startTime":"2019-08-24 14:00:00","stopDate":"2019-08-24 19:00:00","orgNo":"1340625","typeCode":"其他临时停电","poweroffArea":"【单台区停电】停石赛村4#村西南变压器","poweroffReason":"【停电原因】由于机井低压线路新建导致１１０ＫＶ易县变电站山南线５１７线路石赛村４＃公变台区停电【变更送电】无【发布渠道】通过９５５９８发布","powerTime":"2019-08-24 18:31:41","powerComm":"已送电","subsNo":"","lineNo":"","tgNo":"","tgName":null,"infoStatus":"1","orgName":"国网易县供电公司","typeName":null,"infoStatusName":null,"dateDay":null,"orgNos":null,"nowTime":null,"countyName":null,"streetName":null,"villageName":null,"roadName":null,"communityName":null,"tranName":null,"sdLineName":null,"cityCode":"1340625","cityName":"国网易县供电公司","provinceCode":null,"stopTime":"2019-08-24 19:00:00","powerType":"全部","powerOffArea":"【单台区停电】停石赛村4#村西南变压器","powerOffReason":"【停电原因】由于机井低压线路新建导致１１０ＫＶ易县变电站山南线５１７线路石赛村４＃公变台区停电【变更送电】无【发布渠道】通过９５５９８发布","powerOffId":"2019082413000079"}],"pageModel":{"pageNow":619,"totalCount":10973,"totalPage":1098,"tableRows":0,"pageCount":10,"beginCount":6180},"isExperi":"1"}