{"message":"","today":"2020-06-15","seleList":[{"poweroffId":2019082313000216,"sgpoweroffId":null,"subsName":"","lineName":"肖村线511","pubTranName":"十五汲砖厂1,新十五汲光3,十五汲排10【纯农排变】,十五汲光7,十五汲光1,十五汲排9【纯农排变】,十五汲光9,十五汲光11【2019年预安排】,十五汲光2,十五汲排3【纯农排变】,十五汲排2【纯农排变】,十五汲光6,新十五汲光5,新十五汲光4,十五汲砖厂100,","scope":"【影响街道/乡镇】肖村乡 【高危重要客户】无 【影响客户】十五汲、十五汲砖厂、十五汲钢厂、新奥燃气公司","startTime":"2019-09-03 01:00:00","stopDate":"2019-09-03 06:00:00","orgNo":"1340609","typeCode":"计划停电","poweroffArea":"【分支停电】停十五汲砖厂1,新十五汲光3,十五汲排10【纯农排变】,十五汲光7,十五汲光1,十五汲排9【纯农排变】,十五汲光9,十五汲光11【2019年预安排】,十五汲光2,十五汲排3【纯农排变】,十五汲排2【纯农排变】,十五汲光6,新十五汲光5,新十五汲光4,十五汲砖厂100","poweroffReason":"【停电原因】由于十五汲分支０１号至０３号杆组立电杆导致１１０ＫＶ北河变电站肖村线５１１线路十五汲分支０４号杆５１１-０１号断路器以下线路停电 【变更送电】无 【发布渠道】保定市定兴县电视台（０８月２６日９时１０分至２３时２０分之间）屏幕上方滚动播放","powerTime":"2019-09-03 05:34:24","powerComm":"已送电","subsNo":"","lineNo":"","tgNo":"","tgName":null,"infoStatus":"1","orgName":"国网定兴县供电公司","typeName":null,"infoStatusName":null,"dateDay":null,"orgNos":null,"nowTime":null,"countyName":null,"streetName":null,"villageName":null,"roadName":null,"communityName":null,"tranName":null,"sdLineName":null,"cityCode":"1340609","cityName":"国网定兴县供电公司","provinceCode":null,"stopTime":"2019-09-03 06:00:00","powerType":"全部","powerOffArea":"【分支停电】停十五汲砖厂1,新十五汲光3,十五汲排10【纯农排变】,十五汲光7,十五汲光1,十五汲排9【纯农排变】,十五汲光9,十五汲光11【2019年预安排】,十五汲光2,十五汲排3【纯农排变】,十五汲排2【纯农排变】,十五汲光6,新十五汲光5,新十五汲光4,十五汲砖厂100","powerOffReason":"【停电原因】由于十五汲分支０１号至０３号杆组立电杆导致１１０ＫＶ北河变电站肖村线５１１线路十五汲分支０４号杆５１１-０１号断路器以下线路停电 【变更送电】无 【发布渠道】保定市定兴县电视台（０８月２６日９时１０分至２３时２０分之间）屏幕上方滚动播放","powerOffId":"2019082313000216"},{"poweroffId":2019082313000215,"sgpoweroffId":null,"subsName":"","lineName":"10kV512司仓线","pubTranName":"顺水泵业2320#农排|24002320【纯农排变】,雅子0500#农排|24000500【纯农排变】,永胜2队0600#农排|24000600【纯农排变】,丰泉南0490|24000490,0469473328-顺平县同辉石渣厂3-专变-46816862-顺平县同辉石渣厂3,雅子510|24000510,丰泉北0660|24000660,1顺水泵业2320#农排|24002320【纯农排变】,北湖0460#农排|24000460【纯农排变】,司仓570|24000570,青峰山庄2混用,司仓2700|24002700,顺平县鹏展矿产品加工有限公司,河北峻健建材有限公司,永胜杨家庄井【纯农排变】,北湖村东新增1号综合,丰泉1930#农排|24001930【纯农排变】,雅子0430#农排|24000430【纯农排变】,司仓0560#农排|24000560【纯农排变】,许献文1810#农排|24001810【纯农排变】,北湖村新增1号农业【纯农排变】,同辉石碴厂,雅子村北综合9941,永胜村东0390|24000390,北湖村西综合6389,永胜村新增1号农业【纯农排变】,北湖村西0670|24000670,永胜0580#农排|24000580【纯农排变】,北湖1830#农排|24001830【纯农排变】,青峰山庄0680#农排|24000680【纯农排变】,北湖0450#农排|24000450【纯农排变】,王霞2600#农排|24002600【纯农排变】,永胜村西0400|24000400,永胜0410#农排|24000410【纯农排变】,葛大雨石子厂,丰泉0480#农排|24000480【纯农排变】,丰泉村东2430|24002430,永胜村南综合8387,永胜石材厂,葛庄子村北综合8376,峰泉新增综合1356【纯农排变】,北湖2720|24002720,司仓0550#农排|24000550【纯农排变】,北湖0470|24000470,峰泉村村内综合8385,北湖1920#农排|24001920【纯农排变】,","scope":"【影响街道/乡镇】安阳乡【高危重要客户】无【影响客户】北湖、司仓、雅子、永胜、峰泉、青峰山庄、同辉石子厂、保定盛水建筑有限公司","startTime":"2019-09-03 06:00:00","stopDate":"2019-09-03 20:30:00","orgNo":"1340621","typeCode":"计划停电","poweroffArea":"【全线路停电】停峰泉村村内综合8385,顺水泵业2320#农排|24002320【纯农排变】,雅子0500#农排|24000500【纯农排变】,永胜2队0600#农排|24000600【纯农排变】,丰泉南0490|24000490,0469473328-顺平县同辉石渣厂3-专变-46816862-顺平县同辉石渣厂3,雅子510|24000510,丰泉北0660|24000660,1顺水泵业2320#农排|24002320【纯农排变】,北湖0460#农排|24000460【纯农排变】　","poweroffReason":"【停电原因】由于保护装置更换、改定值导致３５ＫＶ安阳变电站１０ＫＶ５１２司仓线路全线停电【变更送电】因计划工作进度加快原因，送电时间由２３：００变更为２０：３０【发布渠道】保定市顺平县电视台（８月２６日至９月２日２０时至２１时之间）屏幕上方滚动字幕","powerTime":"2019-09-03 19:43:27","powerComm":"已送电","subsNo":"","lineNo":"","tgNo":"","tgName":null,"infoStatus":"1","orgName":"国网顺平县电力局","typeName":null,"infoStatusName":null,"dateDay":null,"orgNos":null,"nowTime":null,"countyName":null,"streetName":null,"villageName":null,"roadName":null,"communityName":null,"tranName":null,"sdLineName":null,"cityCode":"1340621","cityName":"国网顺平县电力局","provinceCode":null,"stopTime":"2019-09-03 20:30:00","powerType":"全部","powerOffArea":"【全线路停电】停峰泉村村内综合8385,顺水泵业2320#农排|24002320【纯农排变】,雅子0500#农排|24000500【纯农排变】,永胜2队0600#农排|24000600【纯农排变】,丰泉南0490|24000490,0469473328-顺平县同辉石渣厂3-专变-46816862-顺平县同辉石渣厂3,雅子510|24000510,丰泉北0660|24000660,1顺水泵业2320#农排|24002320【纯农排变】,北湖0460#农排|24000460【纯农排变】　","powerOffReason":"【停电原因】由于保护装置更换、改定值导致３５ＫＶ安阳变电站１０ＫＶ５１２司仓线路全线停电【变更送电】因计划工作进度加快原因，送电时间由２３：００变更为２０：３０【发布渠道】保定市顺平县电视台（８月２６日至９月２日２０时至２１时之间）屏幕上方滚动字幕","powerOffId":"2019082313000215"},{"poweroffId":2019082313000207,"sgpoweroffId":null,"subsName":"","lineName":"10kV511贾各庄线","pubTranName":"贾各庄新增综合8447,西安阳1320#农排|24001320【纯农排变】,罗各庄南2020#农排|24002020【纯农排变】,南峪0250#农排|24000250【纯农排变】,贾西庄南沟0200#农排|24000200【纯农排变】,罗各庄村0030|24000030,南峪0120|24000120,贾各庄格朗峪2050#农排|24002050【纯农排变】,贾各庄村西0070|24000070,贾西庄新增综合配变0125,罗各庄0020#农排|24000020【纯农排变】,贾西庄侯家0270|24000270,南峪0130#农排|24000130【纯农排变】,南峪混用140|24000140,罗各庄大队井【纯农排变】,新建涝底1860#农排|24001860【纯农排变】,新建绸子岭2060#农排|24002060【纯农排变】,新建村偏郎峪井【纯农排变】,刘各庄南坡1870#农排|24001870【纯农排变】,贾各庄0080#农排|24000080【纯农排变】,新建偏郎峪0170|24000170,贾西庄南沟0260|24000260,刘各庄新增综合8449,贾西庄孟家0210|24000210,刘各庄0300#农排|24000300【纯农排变】,贾各庄格郎峪0190|24000190,贾各庄0330|24000330,南峪0110#农排|24000110【纯农排变】,贾各庄2480#农排|24002480【纯农排变】,新建村新增3号农业【纯农排变】,贾西庄刘金海农业6017【纯农排变】,贾各庄0320#农排|24000320【纯农排变】,陈联社2450#农排|24002450【纯农排变】,贾西庄大候家农业8455【纯农排变】,司仓0240#农排|24000240【纯农排变】,刘各庄0050|24000050,刘各庄村南井【纯农排变】,南峪0100#农排|24000100【纯农排变】,南峪2640|24002640,刘各庄0040#农排|24000040【纯农排变】,新建2440#农排|24002440【纯农排变】,贾各庄村北井【纯农排变】,司仓文凯100【纯农排变】,新建木兰沟混用0180|24000180,新建村西北井,刘各庄0060#农排|24000060【纯农排变】,贾各庄0090#农排|24000090【纯农排变】,贾西庄孟家0310#农排|24000310【纯农排变】,中国移动,贾西庄小侯家0290|24000290,新建涝底0150|24000150,新建绸子岭0160|24000160,贾西庄郝家农业8457【纯农排变】,贾西庄郝家0220|24000220,贾各庄新增农业8451【纯农排变】,","scope":"【影响街道/乡镇】安阳乡【高危重要客户】无【影响客户】罗各庄、刘各庄、贾各庄、贾西庄、南峪、新建、涝底、绸子岭、偏郎峪、木兰沟","startTime":"2019-09-03 06:00:00","stopDate":"2019-09-03 20:30:00","orgNo":"1340621","typeCode":"计划停电","poweroffArea":"【全线路停电】停刘各庄0300#农排|24000300【纯农排变】,贾各庄格郎峪0190|24000190,贾各庄0330|24000330,贾各庄2480#农排|24002480【纯农排变】,新建村新增3号农业【纯农排变】,贾各庄格朗峪2050#农排|24002050【纯农排变】,贾西庄侯家0270|24000270,贾各庄0320#农排|24000320【纯农排变】,陈联社2450#农排|24002450【纯农排变】","poweroffReason":"【停电原因】由于保护装置更换、改定值导致３５ＫＶ安阳变电站１０ＫＶ５１１贾各庄线路全线停电【变更送电】因计划工作进度加快原因，送电时间由２３：００变更为２０：３０【发布渠道】保定市顺平县电视台（８月２６日至９月２日２０时至２１时之间）屏幕上方滚动字幕","powerTime":"2019-09-03 19:43:42","powerComm":"已送电","subsNo":"","lineNo":"","tgNo":"","tgName":null,"infoStatus":"1","orgName":"国网顺平县电力局","typeName":null,"infoStatusName":null,"dateDay":null,"orgNos":null,"nowTime":null,"countyName":null,"streetName":null,"villageName":null,"roadName":null,"communityName":null,"tranName":null,"sdLineName":null,"cityCode":"1340621","cityName":"国网顺平县电力局","provinceCode":null,"stopTime":"2019-09-03 20:30:00","powerType":"全部","powerOffArea":"【全线路停电】停刘各庄0300#农排|24000300【纯农排变】,贾各庄格郎峪0190|24000190,贾各庄0330|24000330,贾各庄2480#农排|24002480【纯农排变】,新建村新增3号农业【纯农排变】,贾各庄格朗峪2050#农排|24002050【纯农排变】,贾西庄侯家0270|24000270,贾各庄0320#农排|24000320【纯农排变】,陈联社2450#农排|24002450【纯农排变】","powerOffReason":"【停电原因】由于保护装置更换、改定值导致３５ＫＶ安阳变电站１０ＫＶ５１１贾各庄线路全线停电【变更送电】因计划工作进度加快原因，送电时间由２３：００变更为２０：３０【发布渠道】保定市顺平县电视台（８月２６日至９月２日２０时至２１时之间）屏幕上方滚动字幕","powerOffId":"2019082313000207"},{"poweroffId":2019082313000193,"sgpoweroffId":null,"subsName":"","lineName":"礼帽厂线556","pubTranName":"丽华315,礼帽厂公用,丽华63,宇鹏废旧物资-200,丽瑞制绒有限公司,定兴丽达制帽有限公司1（下）,河北丽华制帽集团有限公司（下）315,","scope":"【影响街道/乡镇】定兴镇 【高危重要客户】无 【影响客户】丽华、丽瑞制绒、丽达制帽、礼帽厂家属院、宇鹏废旧物资","startTime":"2019-09-02 01:00:00","stopDate":"2019-09-02 05:30:00","orgNo":"1340609","typeCode":"计划停电","poweroffArea":"【分支停电】停丽华315,礼帽厂公用,丽华63,宇鹏废旧物资-200,丽瑞制绒有限公司,定兴丽达制帽有限公司1（下）,河北丽华制帽集团有限公司（下）315","poweroffReason":"【停电原因】由于０１号分支箱Ｔ接电缆导致１１０ＫＶ兴北变电站礼帽厂线５５６线路５５６-０２号开关柜以下线路停电 【变更送电】无 【发布渠道】保定市定兴县电视台（０８月２５日９时１０分至２３时２０分之间）屏幕上方滚动播放","powerTime":"2019-09-02 04:32:15","powerComm":"已送电","subsNo":"","lineNo":"","tgNo":"","tgName":null,"infoStatus":"1","orgName":"国网定兴县供电公司","typeName":null,"infoStatusName":null,"dateDay":null,"orgNos":null,"nowTime":null,"countyName":null,"streetName":null,"villageName":null,"roadName":null,"communityName":null,"tranName":null,"sdLineName":null,"cityCode":"1340609","cityName":"国网定兴县供电公司","provinceCode":null,"stopTime":"2019-09-02 05:30:00","powerType":"全部","powerOffArea":"【分支停电】停丽华315,礼帽厂公用,丽华63,宇鹏废旧物资-200,丽瑞制绒有限公司,定兴丽达制帽有限公司1（下）,河北丽华制帽集团有限公司（下）315","powerOffReason":"【停电原因】由于０１号分支箱Ｔ接电缆导致１１０ＫＶ兴北变电站礼帽厂线５５６线路５５６-０２号开关柜以下线路停电 【变更送电】无 【发布渠道】保定市定兴县电视台（０８月２５日９时１０分至２３时２０分之间）屏幕上方滚动播放","powerOffId":"2019082313000193"},{"poweroffId":2019082313000188,"sgpoweroffId":null,"subsName":"","lineName":"10kV东文山517","pubTranName":"北七山村南变压器【冬季供暖设施】,","scope":"【影响街道/乡镇】东文山乡 【高危重要客户】无 【影响客户】北七山村","startTime":"2019-08-23 14:41:10","stopDate":"2019-08-23 20:00:00","orgNo":"1340614","typeCode":"电网故障停限电","poweroffArea":"【单台区停电】停北七山村南变压器【冬季供暖设施】","poweroffReason":"【停电原因】由于弓子线烧毁导致１１０ＫＶ涞水变电站１０ＫＶ东文山５１７线路北七山村南公变台区停电 【变更送电】无 【发布渠道】通过９５５９８发布","powerTime":"2019-08-23 19:25:00","powerComm":"已送电","subsNo":"","lineNo":"","tgNo":"","tgName":null,"infoStatus":"1","orgName":"国网涞水县供电公司","typeName":null,"infoStatusName":null,"dateDay":null,"orgNos":null,"nowTime":null,"countyName":null,"streetName":null,"villageName":null,"roadName":null,"communityName":null,"tranName":null,"sdLineName":null,"cityCode":"1340614","cityName":"国网涞水县供电公司","provinceCode":null,"stopTime":"2019-08-23 20:00:00","powerType":"全部","powerOffArea":"【单台区停电】停北七山村南变压器【冬季供暖设施】","powerOffReason":"【停电原因】由于弓子线烧毁导致１１０ＫＶ涞水变电站１０ＫＶ东文山５１７线路北七山村南公变台区停电 【变更送电】无 【发布渠道】通过９５５９８发布","powerOffId":"2019082313000188"},{"poweroffId":2019082313000185,"sgpoweroffId":null,"subsName":"","lineName":"七里铺线540","pubTranName":"七里铺内西3配变,7里铺东【纯农排变】,七里铺内中2配变,鑫华粉丝厂,七里铺最西农业3号【纯农排变】,七里铺内西4配变,七里铺幼儿园配变,七里铺新107配变【纯农排变】,七里铺西北农业2号【纯农排变】,7里铺东北【纯农排变】,7里铺南【纯农排变】,七里铺内西2号,七里铺村内2配变,七里铺村内1,七里铺粉丝厂,0547018360-望都县志钢铸造有限公司-专变-226230881-望都县志钢铸造有限公司,保定腾源混凝土搅拌有限公司,七里铺东北农业3号,宏达养殖厂,七里铺西北农业【纯农排变】,0557001156-望都县宏圣电瓷电器有限公司-专变-105129942-变压器,7里铺107国道边【纯农排变】,崔庄107国道2号农【纯农排变】,7里铺最西,十五里铺路边农业2号【纯农排变】,七里铺正南农业2号【纯农排变】,崔庄107路南【纯农排变】,望都县泰合食品有限公司,十五里铺西北【纯农排变】,七里铺内东1,七里铺最东4号【纯农排变】,七里铺村内西,崔庄【纯农排变】,七里铺东北农业4号【纯农排变】,七里铺东北农业2号【纯农排变】,享通饲料厂,七里铺内东2配变,7里铺西南2【纯农排变】,七里铺内中1,7里铺最东【纯农排变】,七里铺最西2农业【纯农排变】,7铺西南【纯农排变】,七里铺东北农业5号,新星粉丝厂,","scope":"【影响街道/乡镇】固店镇、黑堡乡 【高危重要客户】无　　 【影响客户】七里铺、崔庄、十五里铺、泰合食品、长丰电瓷电器、腾源混凝土、新星粉丝厂、享通饲料厂、所林板厂、宏达养殖厂、志刚铸造、长丰电瓷电器、七里铺粉丝厂、红新面粉厂","startTime":"2019-09-06 06:00:00","stopDate":"2019-09-06 18:00:00","orgNo":"1340623","typeCode":"计划停电","poweroffArea":"【全线路停电】停七里铺东北农业3号,七里铺内西3配变,7里铺东【纯农排变】,七里铺内中2配变,鑫华粉丝厂,七里铺最西农业3号【纯农排变】,七里铺内西4配变,七里铺幼儿园配变,七里铺新107配变【纯农排变】,七里铺西北农业2号【纯农排变】,7里铺东北【纯农排变】,7里铺南【纯农排变】,七里铺内西2号,七里铺村内2配变,七里铺村内1,七里铺粉丝厂,0547018360-望都县志钢铸造有限公司-专变-226230881-望都县志钢铸造有限公司,保定腾源混凝土搅拌有限公司,宏达养殖厂,七里铺西北农业【纯农排变】,0557001156-望都县宏圣电瓷电器有限公司-专变-105129942-变压器,7里铺107国道边【纯农排变】,崔庄107国道2号农【纯农排变】,7里铺最西,十五里铺路边农业2号【纯农排变】,七里铺正南农业2号【纯农排变】,崔庄107路南【纯农排变】,望都县泰合食品有限公司,十五里铺西北【纯农排变】,七里铺内东1,七里铺最东4号【纯农排变】,七里铺村内西,崔庄【纯农排变】,七里铺东北农业4号【纯农排变】,七里铺东北农业2号【纯农排变】,享通饲料厂,七里铺内东2配变,7里铺西南2【纯农排变】,七里铺内中1,7里铺最东【纯农排变】,七里铺最西2农业【纯农排变】,7铺西南【纯农排变】,七里铺东北农业5号,新星粉丝厂","poweroffReason":"【停电原因】由于立杆、架线、拆除电杆、拆除开关、安装开关、更换导线导致２２０ＫＶ固店变电站七里铺线５４０线路全线停电 【变更送电】无 【发布渠道】保定市望都有线电视台（０８月２４日至０９月０５日１９时００分至２０时００分之间）屏幕上方滚动","powerTime":"2019-09-06 17:51:52","powerComm":"已送电","subsNo":"","lineNo":"","tgNo":"","tgName":null,"infoStatus":"1","orgName":"国网望都县供电公司","typeName":null,"infoStatusName":null,"dateDay":null,"orgNos":null,"nowTime":null,"countyName":null,"streetName":null,"villageName":null,"roadName":null,"communityName":null,"tranName":null,"sdLineName":null,"cityCode":"1340623","cityName":"国网望都县供电公司","provinceCode":null,"stopTime":"2019-09-06 18:00:00","powerType":"全部","powerOffArea":"【全线路停电】停七里铺东北农业3号,七里铺内西3配变,7里铺东【纯农排变】,七里铺内中2配变,鑫华粉丝厂,七里铺最西农业3号【纯农排变】,七里铺内西4配变,七里铺幼儿园配变,七里铺新107配变【纯农排变】,七里铺西北农业2号【纯农排变】,7里铺东北【纯农排变】,7里铺南【纯农排变】,七里铺内西2号,七里铺村内2配变,七里铺村内1,七里铺粉丝厂,0547018360-望都县志钢铸造有限公司-专变-226230881-望都县志钢铸造有限公司,保定腾源混凝土搅拌有限公司,宏达养殖厂,七里铺西北农业【纯农排变】,0557001156-望都县宏圣电瓷电器有限公司-专变-105129942-变压器,7里铺107国道边【纯农排变】,崔庄107国道2号农【纯农排变】,7里铺最西,十五里铺路边农业2号【纯农排变】,七里铺正南农业2号【纯农排变】,崔庄107路南【纯农排变】,望都县泰合食品有限公司,十五里铺西北【纯农排变】,七里铺内东1,七里铺最东4号【纯农排变】,七里铺村内西,崔庄【纯农排变】,七里铺东北农业4号【纯农排变】,七里铺东北农业2号【纯农排变】,享通饲料厂,七里铺内东2配变,7里铺西南2【纯农排变】,七里铺内中1,7里铺最东【纯农排变】,七里铺最西2农业【纯农排变】,7铺西南【纯农排变】,七里铺东北农业5号,新星粉丝厂","powerOffReason":"【停电原因】由于立杆、架线、拆除电杆、拆除开关、安装开关、更换导线导致２２０ＫＶ固店变电站七里铺线５４０线路全线停电 【变更送电】无 【发布渠道】保定市望都有线电视台（０８月２４日至０９月０５日１９时００分至２０时００分之间）屏幕上方滚动","powerOffId":"2019082313000185"},{"poweroffId":2019082313000177,"sgpoweroffId":null,"subsName":"","lineName":"10kV薛留营站535线路","pubTranName":"B1562柱上变压器,","scope":"【影响街道/乡镇】新北街、大纪家胡同、莲池南大街 【高危重要客户】无 【影响客户】新大陆酒家、春和园饭馆","startTime":"2019-08-23 14:00:00","stopDate":"2019-08-23 17:00:00","orgNo":"13406","typeCode":"电网故障停限电","poweroffArea":"【单台区停电】停B1562柱上变压器","poweroffReason":"【停电原因】由于接户电缆烧导致１０ＫＶ薛留营变电站５３５线路Ｂ１５６２公变台区停电【变更送电】无【发布渠道】通过９５５９８发布","powerTime":"2019-08-23 16:21:28","powerComm":"已送电","subsNo":"","lineNo":"","tgNo":"","tgName":null,"infoStatus":"1","orgName":"保定供电公司","typeName":null,"infoStatusName":null,"dateDay":null,"orgNos":null,"nowTime":null,"countyName":null,"streetName":null,"villageName":null,"roadName":null,"communityName":null,"tranName":null,"sdLineName":null,"cityCode":"13406","cityName":"保定供电公司","provinceCode":null,"stopTime":"2019-08-23 17:00:00","powerType":"全部","powerOffArea":"【单台区停电】停B1562柱上变压器","powerOffReason":"【停电原因】由于接户电缆烧导致１０ＫＶ薛留营变电站５３５线路Ｂ１５６２公变台区停电【变更送电】无【发布渠道】通过９５５９８发布","powerOffId":"2019082313000177"},{"poweroffId":2019082313000173,"sgpoweroffId":null,"subsName":"","lineName":"10kV东文山517","pubTranName":"北七山村东台区变压器,","scope":"【影响街道/乡镇】东文山乡 【高危重要客户】无 【影响客户】北七山村","startTime":"2019-08-23 13:43:31","stopDate":"2019-08-23 15:00:00","orgNo":"1340614","typeCode":"电网故障停限电","poweroffArea":"【单台区停电】停北七山村东台区变压器","poweroffReason":"【停电原因】由于电缆头烧毁导致１１０ＫＶ涞水变电站１０ＫＶ东文山５１７线路北七山村东公变台区停电 【变更送电】因抢修进度加快原因，送电时间由１７：００变更为１５：００ 【发布渠道】通过９５５９８发布","powerTime":"2019-08-23 14:32:45","powerComm":"已送电","subsNo":"","lineNo":"","tgNo":"","tgName":null,"infoStatus":"1","orgName":"国网涞水县供电公司","typeName":null,"infoStatusName":null,"dateDay":null,"orgNos":null,"nowTime":null,"countyName":null,"streetName":null,"villageName":null,"roadName":null,"communityName":null,"tranName":null,"sdLineName":null,"cityCode":"1340614","cityName":"国网涞水县供电公司","provinceCode":null,"stopTime":"2019-08-23 15:00:00","powerType":"全部","powerOffArea":"【单台区停电】停北七山村东台区变压器","powerOffReason":"【停电原因】由于电缆头烧毁导致１１０ＫＶ涞水变电站１０ＫＶ东文山５１７线路北七山村东公变台区停电 【变更送电】因抢修进度加快原因，送电时间由１７：００变更为１５：００ 【发布渠道】通过９５５９８发布","powerOffId":"2019082313000173"},{"poweroffId":2019082313000171,"sgpoweroffId":null,"subsName":"","lineName":"望市线522","pubTranName":"0672384936-河北尚科房地产开发有限公司-专变-214319494-河北尚科房地产开发有限公司,南关小学,保定玛德房地产开发有限公司3,南关村南2号混合,望都县易购商贸有限公司,0673764908-保定玛德物业服务有限公司-专变-215895275-保定玛德房地产开发有限公司,北陈庄开发区2号变压器,生活小区南配变,城建局,望都绿色化工商贸发展有限公司,北陈庄开发区,新城1号箱变间隔配电变压器,0682504230-保定玛德物业服务有限公司-专变-221249154-保定玛德房地产开发有限公司,望都县易购商贸有限公司变压器,生活小区1变压器,望都县教育局,红艳鞋厂,第二中学2号配变,望都县公安局,河北盛港房地产开发有限公司望都分公司,生活小区3,南关村内东,辛街新民居2号配变,祥和苑箱变配电变压器,生活小区2跌落开关,南关新民居,南关幼儿园,建行家属院,0682498124-保定玛德物业服务有限公司-专变-221245373-保定玛德房地产开发有限公司,二中,新城1号配变2配电变压器,建委,望都县二中配变,南关新上,0682497567-保定玛德物业服务有限公司-专变-221249139-保定玛德房地产开发有限公司,辛街,南关新民居2号,望都县福盛园鞋厂,南关村南【纯农排变】,辛街新居,谷家村南2号【纯农排变】,玛德房地产1,南关村内,","scope":"【影响街道/乡镇】望都镇　　 【高危重要客户】无　　 【影响客户】南关村、南关新民居、建行家属院、第一生活小区、城建局、城建局家属院、二建农业局、北陈庄开发区、辛街村、辛街新民居、福盛园鞋厂、红艳鞋厂、建委、二中、绿色化工商贸发展有限公司（尧韵饭店）、祥和苑、玛德房地产、易购、永昌机械、新城小学、新城１号小区、政府事物管理中心(县政府）、第一石膏厂、新城２号小区、盛港国际、尚科地产、南关幼儿园、教育局、南关小学","startTime":"2019-08-23 13:38:01","stopDate":"2019-08-23 16:00:00","orgNo":"1340623","typeCode":"电网故障停限电","poweroffArea":"【全线路停电】停望都县易购商贸有限公司,0673764908-保定玛德物业服务有限公司-专变-215895275-保定玛德房地产开发有限公司,北陈庄开发区2号变压器,生活小区南配变,辛街新居,谷家村南2号【纯农排变】,玛德房地产1,南关村内,0672384936-河北尚科房地产开发有限公司-专变-214319494-河北尚科房地产开发有限公司,南关小学,保定玛德房地产开发有限公司3,南关村南2号混合,城建局,望都绿色化工商贸发展有限公司,北陈庄开发区,新城1号箱变间隔配电变压器,0682504230-保定玛德物业服务有限公司-专变-221249154-保定玛德房地产开发有限公司,望都县易购商贸有限公司变压器,生活小区1变压器,望都县教育局,红艳鞋厂,第二中学2号配变,河北盛港房地产开发有限公司望都分公司,生活小区3,南关村内东,辛街新民居2号配变,祥和苑箱变配电变压器,生活小区2跌落开关,南关新民居,南关幼儿园,建行家属院,0682498124-保定玛德物业服务有限公司-专变-221245373-保定玛德房地产开发有限公司,二中,新城1号配变2配电变压器,建委,望都县二中配变,南关新上,0682497567-保定玛德物业服务有限公司-专变-221249139-保定玛德房地产开发有限公司,辛街,南关新民居2号,望都县福盛园鞋厂","poweroffReason":"【停电原因】由于站内开关跳闸导致１１０ＫＶ望都变电站望市线５２２线路全线停电 【变更送电】因抢修进度加快原因，送电时间由２２：００变更为１６：００ 【发布渠道】通过９５５９８发布","powerTime":"2019-08-23 15:12:15","powerComm":"已送电","subsNo":"","lineNo":"","tgNo":"","tgName":null,"infoStatus":"1","orgName":"国网望都县供电公司","typeName":null,"infoStatusName":null,"dateDay":null,"orgNos":null,"nowTime":null,"countyName":null,"streetName":null,"villageName":null,"roadName":null,"communityName":null,"tranName":null,"sdLineName":null,"cityCode":"1340623","cityName":"国网望都县供电公司","provinceCode":null,"stopTime":"2019-08-23 16:00:00","powerType":"全部","powerOffArea":"【全线路停电】停望都县易购商贸有限公司,0673764908-保定玛德物业服务有限公司-专变-215895275-保定玛德房地产开发有限公司,北陈庄开发区2号变压器,生活小区南配变,辛街新居,谷家村南2号【纯农排变】,玛德房地产1,南关村内,0672384936-河北尚科房地产开发有限公司-专变-214319494-河北尚科房地产开发有限公司,南关小学,保定玛德房地产开发有限公司3,南关村南2号混合,城建局,望都绿色化工商贸发展有限公司,北陈庄开发区,新城1号箱变间隔配电变压器,0682504230-保定玛德物业服务有限公司-专变-221249154-保定玛德房地产开发有限公司,望都县易购商贸有限公司变压器,生活小区1变压器,望都县教育局,红艳鞋厂,第二中学2号配变,河北盛港房地产开发有限公司望都分公司,生活小区3,南关村内东,辛街新民居2号配变,祥和苑箱变配电变压器,生活小区2跌落开关,南关新民居,南关幼儿园,建行家属院,0682498124-保定玛德物业服务有限公司-专变-221245373-保定玛德房地产开发有限公司,二中,新城1号配变2配电变压器,建委,望都县二中配变,南关新上,0682497567-保定玛德物业服务有限公司-专变-221249139-保定玛德房地产开发有限公司,辛街,南关新民居2号,望都县福盛园鞋厂","powerOffReason":"【停电原因】由于站内开关跳闸导致１１０ＫＶ望都变电站望市线５２２线路全线停电 【变更送电】因抢修进度加快原因，送电时间由２２：００变更为１６：００ 【发布渠道】通过９５５９８发布","powerOffId":"2019082313000171"},{"poweroffId":2019082313000158,"sgpoweroffId":null,"subsName":"","lineName":"坟庄线515","pubTranName":"马家庄村4#,易县中易板材有限公司变压器,上白羊村9#,上黄蒿村1#,张大勇变压器,和利金属制品有限公司,易县绿泽农林果种植有限责任公司500,马头村18#,上黄蒿村2#,易县安平土地整理服务有限公司6号100KVA,马头村9#,东白马村6#,南白羊村5#,北白马村5#,建新村马平变压器,盘神庙村1#,西白羊村2#,主良6号,建新村5#,西流井村1#,南白羊村6#,河北省洪崖山国有林场管理局变压器,刘桂军变压器,马家庄10号,0680605801-易县绿泽农林果种植有限责任公司-专变-219705076-易县绿泽农林果种植有限责任公司-3-50KVA,主良村2#,易县安平土地整理服务有限公司5号100KVA,建新村2#,北白马7号,全山庄村5#,主良7号,南流井村2#,中黄蒿村1#,西白羊村3#,马头村3#,上白羊村4#,真武庙村6#,建新村3#,北六井五台,马家庄村1#【纯农排变】,上黄蒿村3#,西白羊蔡永贵面粉厂,南流井村8#,马家庄7号,马头村5#,易县安平土地整理服务有限公司2号100KVA,易县安平土地整理服务有限公司4号100KVA,马家庄11号【纯农排变】,上白羊村7#,李家坟村6#【纯农排变】,0635310273-易县农旺苗木种植农民专业合作社-专变-225175957-易县农旺苗木种植农民专业合作社-增容250KVA,河北鑫路石料有限公司变压器,0680607722-易县绿泽农林果种植有限责任公司-专变-219705072-易县绿泽农林果种植有限责任公司-2-50KVA,南流井村10#,南流井村7#,建新村6#,主良村3#,源泉村2#,马家庄8号【纯农排变】,主良8号,马头村8#,孙家庄村3#,马头村2#,合利金属160KVA,西流井村2#,上黄蒿村4#,易县安平土地整理服务有限公司7号50KVA,盘神庙村4#,南白羊村3#,南流井村5#,流井中学,马头6#,易县安禄土地整理有限公司4号50KVA,易县安禄土地整理有限公司2号-50KVA,盘神庙村5#,上白羊村5#,西流井村3#,千佛山开发处,全山庄村2#,易县乾鼎商品混凝土有限公司变压器,北流井村3#,马家庄村2#,西白羊4#,源泉村(刘水),马头村1#,许树义,全山庄村4#,南白羊村2#|,马头村15#,源泉村3#,真武庙村4#,孙家庄2#,南白羊村4#,西白羊5号,真武庙村3#,易县农旺苗木种植农民专业合作社变压器,主良5号,马家庄6号【纯农排变】,中黄蒿村3#,主良村4#,马头村17#,东白羊村5#【纯农排变】,洪崖山索道有限公司,全山庄1#,南流井村9#,马头村14#,盘神庙村2#,上白羊村6#,马头水库,建新村4#,上白羊村8#,源泉村6#【纯农排变】,东白羊村1#,南流井6#,马头村13#,中黄蒿村2#,马头村7#,全山庄村3#,源泉村4#,流井小学,北白马6号,马头村19#,易县安禄土地整理有限公司1号-160KVA,马头村16#,易县安平土地整理服务有限公司3号100KVA,牛云田变压器,西白羊村1#,马头村4#,源泉村1#,真武庙村5#,全山庄村1#,东白羊村2#,南白羊村7#【纯农排变】,盘神庙村6#,马家庄村5#,真武庙村7","scope":"【影响街道/乡镇】流井乡、易州镇、白马乡、梁格庄镇【高危重要客户】无【影响客户】建新村、全山庄村、主良村、马头村、李家坟村、西流井村、南流井村、北流井村、孙家庄村、西白羊村、南白羊村、东白羊村、马家庄村、源泉村、盘神庙村、真武庙村、上白羊村、上黄蒿村、北白马村、中黄蒿村","startTime":"2019-08-24 03:00:00","stopDate":"2019-08-24 09:00:00","orgNo":"1340625","typeCode":"其他临时停电","poweroffArea":"【分支停电】停马家庄7号,上白羊村4#,马头村1#,西白羊村3#,易县农旺苗木种植农民专业合作社变压器,马头村13#,南流井6#,建新村马平变压器,河北省洪崖山国有林场管理局变压器,马头村14#,北白马6号,马家庄8号【纯农排变】,上黄蒿村1#,南白羊村7#【纯农排变】,马家庄村4#,马头村7#,西白羊5号,马家庄10号,张大勇变压器,和利金属制品有限公司,马家庄村5#,0680605801-易县绿泽农林果种植有限责任公司-专变-219705076-易县绿泽农林果种植有限责任公司-3-50KVA,源泉村6#【纯农排变】,全山庄村4#,0680607722-易县绿泽农林果种植有限责任公司-专变-219705072-易县绿泽农林果种植有限责任公司-2-50KVA,西白羊蔡永贵面粉厂,全山庄村3#,主良6号,源泉村(刘水),马头村18#,中黄蒿村4#,中黄蒿村2#,建新村2#,马家庄村2#,上黄蒿村4#,源泉村4#,西流井村1#,保定和利金属制品有限公司变压器,东白羊村1#,西流井村3#,马家庄村1#【纯农排变】,上黄蒿村3#,刘桂军变压器,盘神庙村3#,盘神庙村4#,易县中易板材有限公司变压器,东白羊村4#,西流井村2#,马头村20#,南流井村10#,易县安平土地整理服务有限公司7号50KVA,牛云田变压器,上白羊村7#,许树义,南流井村1#,北白马村5#,建新村6#,上白羊村5#,南白羊村6#,北流井村3#,上白羊村1#,马头村2#,主良村张树贵变压器,易县安平土地整理服务有限公司5号100KVA,建新村5#,真武庙村6#,中黄蒿村1#,东白羊村2#,主良村3#,马家庄9号【纯农排变】,东流井村3#,全山庄1#,众信石材有限公司,马头村10#,千佛山开发处,孙家庄村3#,盘神庙村2#,真武庙村4#,真武庙村1#,上白羊村2#,马头6#,建新村3#,0469479528-河北省洪崖山国有林场管理局-专变-46817902-白马林场,易县安禄土地整理有限公司4号50KVA,马头水库,马头村5#,建新村4#,马家庄6号【纯农排变】,主良村2#,马头村15#,主良1号,全山庄村2#,易县安禄土地整理有限公司2号-50KVA,李家坟村6#【纯农排变】,流井小学,易县安禄土地整理有限公司1号-160KVA,马头村19#,东白马机井5#,全山庄村1#,南白羊村2#|,马家庄村3#,合利金属160KVA,源泉村3#,盘神庙村6#,南流井村8#,马家庄11号【纯农排变】,上白羊村6#,孙家庄村1#,盘神庙村5#,易县安禄土地整理有限公司3号100KVA,孙家庄2#,北六井五台,上白羊村3#,洪崖山索道有限公司,南流井村6#,易县中能太阳能有限公司250KVA,马头村9#,流井中学,真武庙村2#,易县安平土地整理服务有限公司4号100KVA,主良村(砖厂),西白羊村2#,易县安平土地整理服务有限公司3号100KVA,中黄蒿村3#,南白羊村5#,南白羊村4#,东白羊村5#【纯农排变】,上白羊村9#,东白马村6#,易县乾鼎商品混凝土有限公司变压器,盘神庙村7#,马头村4#,主良7号,南流井村7#,马头村3#,主良5号,南白羊村1#,上黄蒿村2#,马头村17#,南流井村2#,主良8号,建新村1#,马头村16#,全山庄村5#,易县绿泽农林果种植有限责任公司500,河北鑫路石料有限公司变压器,西白羊4#,主良村4#,0635310273-易县农旺苗木种植农民专业合作社-专变-225175957-易县农旺苗木种植农民专业合作社-增容250KVA,南流井村5#,源泉村1#,南流井村9#,上白羊村8#,南流井村4#,南流井村3#,马头村8#,涞水县文山供水有限公司630KVA专变,易县安平土地整理服务有限公司2号100KVA,南白羊村3#,真武庙村7#,北白马7号,真武庙村5#,马头村11#,易县安平土地整理服务有限公司6号100KVA,马头村12#,真武庙村3#,西白羊村1#,源泉村2#,源泉村5#,盘神庙村1#","poweroffReason":"【停电原因】由于线路消缺导致３５ＫＶ李家坟变电站坟庄线５１５线路００３号杆至０２６号杆之间停电【变更送电】无【发布渠道】通过９５５９８发布","powerTime":"2019-08-24 09:00:00","powerComm":"已送电","subsNo":"","lineNo":"","tgNo":"","tgName":null,"infoStatus":"1","orgName":"国网易县供电公司","typeName":null,"infoStatusName":null,"dateDay":null,"orgNos":null,"nowTime":null,"countyName":null,"streetName":null,"villageName":null,"roadName":null,"communityName":null,"tranName":null,"sdLineName":null,"cityCode":"1340625","cityName":"国网易县供电公司","provinceCode":null,"stopTime":"2019-08-24 09:00:00","powerType":"全部","powerOffArea":"【分支停电】停马家庄7号,上白羊村4#,马头村1#,西白羊村3#,易县农旺苗木种植农民专业合作社变压器,马头村13#,南流井6#,建新村马平变压器,河北省洪崖山国有林场管理局变压器,马头村14#,北白马6号,马家庄8号【纯农排变】,上黄蒿村1#,南白羊村7#【纯农排变】,马家庄村4#,马头村7#,西白羊5号,马家庄10号,张大勇变压器,和利金属制品有限公司,马家庄村5#,0680605801-易县绿泽农林果种植有限责任公司-专变-219705076-易县绿泽农林果种植有限责任公司-3-50KVA,源泉村6#【纯农排变】,全山庄村4#,0680607722-易县绿泽农林果种植有限责任公司-专变-219705072-易县绿泽农林果种植有限责任公司-2-50KVA,西白羊蔡永贵面粉厂,全山庄村3#,主良6号,源泉村(刘水),马头村18#,中黄蒿村4#,中黄蒿村2#,建新村2#,马家庄村2#,上黄蒿村4#,源泉村4#,西流井村1#,保定和利金属制品有限公司变压器,东白羊村1#,西流井村3#,马家庄村1#【纯农排变】,上黄蒿村3#,刘桂军变压器,盘神庙村3#,盘神庙村4#,易县中易板材有限公司变压器,东白羊村4#,西流井村2#,马头村20#,南流井村10#,易县安平土地整理服务有限公司7号50KVA,牛云田变压器,上白羊村7#,许树义,南流井村1#,北白马村5#,建新村6#,上白羊村5#,南白羊村6#,北流井村3#,上白羊村1#,马头村2#,主良村张树贵变压器,易县安平土地整理服务有限公司5号100KVA,建新村5#,真武庙村6#,中黄蒿村1#,东白羊村2#,主良村3#,马家庄9号【纯农排变】,东流井村3#,全山庄1#,众信石材有限公司,马头村10#,千佛山开发处,孙家庄村3#,盘神庙村2#,真武庙村4#,真武庙村1#,上白羊村2#,马头6#,建新村3#,0469479528-河北省洪崖山国有林场管理局-专变-46817902-白马林场,易县安禄土地整理有限公司4号50KVA,马头水库,马头村5#,建新村4#,马家庄6号【纯农排变】,主良村2#,马头村15#,主良1号,全山庄村2#,易县安禄土地整理有限公司2号-50KVA,李家坟村6#【纯农排变】,流井小学,易县安禄土地整理有限公司1号-160KVA,马头村19#,东白马机井5#,全山庄村1#,南白羊村2#|,马家庄村3#,合利金属160KVA,源泉村3#,盘神庙村6#,南流井村8#,马家庄11号【纯农排变】,上白羊村6#,孙家庄村1#,盘神庙村5#,易县安禄土地整理有限公司3号100KVA,孙家庄2#,北六井五台,上白羊村3#,洪崖山索道有限公司,南流井村6#,易县中能太阳能有限公司250KVA,马头村9#,流井中学,真武庙村2#,易县安平土地整理服务有限公司4号100KVA,主良村(砖厂),西白羊村2#,易县安平土地整理服务有限公司3号100KVA,中黄蒿村3#,南白羊村5#,南白羊村4#,东白羊村5#【纯农排变】,上白羊村9#,东白马村6#,易县乾鼎商品混凝土有限公司变压器,盘神庙村7#,马头村4#,主良7号,南流井村7#,马头村3#,主良5号,南白羊村1#,上黄蒿村2#,马头村17#,南流井村2#,主良8号,建新村1#,马头村16#,全山庄村5#,易县绿泽农林果种植有限责任公司500,河北鑫路石料有限公司变压器,西白羊4#,主良村4#,0635310273-易县农旺苗木种植农民专业合作社-专变-225175957-易县农旺苗木种植农民专业合作社-增容250KVA,南流井村5#,源泉村1#,南流井村9#,上白羊村8#,南流井村4#,南流井村3#,马头村8#,涞水县文山供水有限公司630KVA专变,易县安平土地整理服务有限公司2号100KVA,南白羊村3#,真武庙村7#,北白马7号,真武庙村5#,马头村11#,易县安平土地整理服务有限公司6号100KVA,马头村12#,真武庙村3#,西白羊村1#,源泉村2#,源泉村5#,盘神庙村1#","powerOffReason":"【停电原因】由于线路消缺导致３５ＫＶ李家坟变电站坟庄线５１５线路００３号杆至０２６号杆之间停电【变更送电】无【发布渠道】通过９５５９８发布","powerOffId":"2019082313000158"}],"pageModel":{"pageNow":623,"totalCount":10973,"totalPage":1098,"tableRows":0,"pageCount":10,"beginCount":6220},"isExperi":"1"}