{"message":"","today":"2020-06-15","seleList":[{"poweroffId":2019081913000142,"sgpoweroffId":null,"subsName":"","lineName":"10kV北郭下线565","pubTranName":"林家庄村南2台区,胡振国面粉厂,林家庄村东混,南王庄村北专变压器【纯农排变】,林家庄变压器,南王庄村北专2变压器【纯农排变】,北郑村西,涞水县永泰房地产开发有限公司1250KVA,南王庄村南2,南王庄村南变压器,配变,北郑村东2台区,北郑村东,林家庄村西混,林家庄村东2台区,南王庄村北变压器,南王庄村东,南王庄村内,南王庄村西北混配变,","scope":"【影响街道/乡镇】涞水镇、义安镇 【高危重要客户】无 【影响客户】北郑各庄村、北郭下村、南王庄村、林家庄村","startTime":"2019-08-29 05:00:00","stopDate":"2019-08-29 12:00:00","orgNo":"1340614","typeCode":"计划停电","poweroffArea":"【全线路停电】停林家庄村南2台区,胡振国面粉厂,林家庄村东混,南王庄村北专变压器【纯农排变】,林家庄变压器,南王庄村北专2变压器【纯农排变】,北郑村西,涞水县永泰房地产开发有限公司1250KVA,南王庄村南2,南王庄村南变压器,配变,北郑村东2台区,北郑村东,林家庄村西混,林家庄村东2台区,南王庄村北变压器,南王庄村东,南王庄村内,南王庄村西北混配变","poweroffReason":"【停电原因】由于线路检修导致１１０ＫＶ郭下变电站１０ＫＶ北郭下线５６５线路全线停电 【变更送电】无 【发布渠道】保定市涞水电视台（０８月２０日１２时至０８月２８日２４时之间）屏幕上方滚动","powerTime":"2019-08-29 11:30:03","powerComm":"已送电","subsNo":"","lineNo":"","tgNo":"","tgName":null,"infoStatus":"1","orgName":"国网涞水县供电公司","typeName":null,"infoStatusName":null,"dateDay":null,"orgNos":null,"nowTime":null,"countyName":null,"streetName":null,"villageName":null,"roadName":null,"communityName":null,"tranName":null,"sdLineName":null,"cityCode":"1340614","cityName":"国网涞水县供电公司","provinceCode":null,"stopTime":"2019-08-29 12:00:00","powerType":"全部","powerOffArea":"【全线路停电】停林家庄村南2台区,胡振国面粉厂,林家庄村东混,南王庄村北专变压器【纯农排变】,林家庄变压器,南王庄村北专2变压器【纯农排变】,北郑村西,涞水县永泰房地产开发有限公司1250KVA,南王庄村南2,南王庄村南变压器,配变,北郑村东2台区,北郑村东,林家庄村西混,林家庄村东2台区,南王庄村北变压器,南王庄村东,南王庄村内,南王庄村西北混配变","powerOffReason":"【停电原因】由于线路检修导致１１０ＫＶ郭下变电站１０ＫＶ北郭下线５６５线路全线停电 【变更送电】无 【发布渠道】保定市涞水电视台（０８月２０日１２时至０８月２８日２４时之间）屏幕上方滚动","powerOffId":"2019081913000142"},{"poweroffId":2019081913000117,"sgpoweroffId":null,"subsName":"","lineName":"10kV江城站532线路","pubTranName":"0356187905-王七店-专变,H0055柱上变压器,0712456977-保定市城泰供热有限公司-400KVA-专变,10kV604生活区北区L0005箱式变电站(三供一业)配电变压器,0356187888-保定五洲驰翼汽车服务有限公司-1-配电室-变压器-1,0356212919-王七里店-专变,B976柱上变压器,0356187934-王七店村-专变,B1176柱上变压器,byq,10kVB1731.B1732箱式变电站B1732配电变压器,C084柱上变压器,10kV天威一区南区L0015箱式变电站(三供一业)配电变压器,C441柱上变压器,0672968237-保定市容大房地产集团有限公司-630KVA变压器,10kVB1731.B1732箱式变电站B1731配电变压器,10kV天威一区南区L0014配电室(三供一业)配电变压器,0357981276-保定市方正房地产开发有限公司-1#专变,10kVB1727.B1728箱式变电站B1727配电变压器,B975柱上变压器,C086柱上变压器,B267柱上变压器,10kV604生活区南区L0003配电室(三供一业)配电变压器,10kV604生活区北区L0006配电室(三供一业)配电变压器,10kV华北石油宿舍L0011配电室(三供一业)配电变压器,B354柱上变压器,10kV天威一区南区L0013配电室(三供一业)配电变压器,C085柱上变压器,B266柱上变压器,10kV秀园路电气化L0010配电室(三供一业)配电变压器,10kV秀园路电气化L0009配电室(三供一业)配电变压器,10kVB1725.B1726箱式变电站B1726配电变压器,10kVB993.B994配电室B993配电变压器,10kVB993.B994配电室B994配电变压器,变压器,10kVB1729.B1730箱式变电站B1729配电变压器,0356184195-中国联合网络通信有限公司保定市分公司-专变2,0356219385-新市区肿瘤医院-2#专变,10kVY0022.Y0023.Y0024.Y0025配电室Y0025配电变压器,10kVY0251.Y0252.Y0253配电室Y0252配电变压器,10kV604生活区北区L0021配电室(三供一业)配电变压器,B974柱上变压器,10kVY0251.Y0252.Y0253配电室Y0251配电变压器,10kVB991.B992配电室B992配电变压器,10kVY0251.Y0252.Y0253配电室Y0253配电变压器,10kV七一路邮电宿舍L0012配电室(三供一业)配电变压器,0356371292-保定富力工贸有限公司-专变,10kV天威二区L0002箱式变电站(三供一业)配电变压器,10kVB1725.B1726箱式变电站B1725配电变压器,10kV国信宿舍L0008配电室(三供一业)配电变压器,10kVZ0090.Z0091箱式变电站Z0091配电变压器,10kVY0022.Y0023.Y0024.Y0025配电室Y0024配电变压器,B353柱上变压器,B1770柱上变压器,10kV604生活区北区L0007配电室(三","scope":"【影响街道/乡镇】乐凯北大街、五四西路、天威西路、先锋路、乐凯北大街、江城路、富昌乡 【高危重要客户】无 【影响客户】震发园林小区、海怡佳苑、康欣园、水碾头村、水泥制品厂宿舍、王七里店、农机厂宿舍、华强宿舍、工业站、新型建材、王七店轧钢厂、农机公司、打井公司、华欣织布、土封厂、富昌乡政府、邮电局、肿瘤医院、铝型材厂、东方塑料厂、金百万酒店、佳局房地产","startTime":"2019-08-19 10:00:00","stopDate":"2019-08-19 14:30:00","orgNo":"13406","typeCode":"电网故障停限电","poweroffArea":"【全线路停电】停0356187905-王七店-专变,H0055柱上变压器,0712456977-保定市城泰供热有限公司-400KVA-专变,10kV604生活区北区L0005箱式变电站(三供一业)配电变压器,0356187888-保定五洲驰翼汽车服务有限公司-1-配电室-变压器-1,0356212919-王七里店-专变,B976柱上变压器,0356187934-王七店村-专变,B1176柱上变压器,byq,10kVB1731.B1732箱式变电站B1732配电变压器,C084柱上变压器,10kV天威一区南区L0015箱式变电站(三供一业)配电变压器,C441柱上变压器,0672968237-保定市容大房地产集团有限公司-630KVA变压器,10kVB1731.B1732箱式变电站B1731配电变压器,10kV天威一区南区L0014配电室(三供一业)配电变压器,0357981276-保定市方正房地产开发有限公司-1#专变,10kVB1727.B1728箱式变电站B1727配电变压器,B975柱上变压器,C086柱上变压器,B267柱上变压器,10kV604生活区南区L0003配电室(三供一业)配电变压器,10kV604生活区北区L0006配电室(三供一业)配电变压器,10kV华北石油宿舍L0011配电室(三供一业)配电变压器,B354柱上变压器,10kV天威一区南区L0013配电室(三供一业)配电变压器,C085柱上变压器,B266柱上变压器,10kVZ0090.Z0091箱式变电站Z0090配电变压器,0356281870-保定市润雨商贸有限公司-专变,10kVB1425.B1426配电室B1425配电变压器,0356177193-富昌乡王七店村-专变,0356240857-打井公司-专变,10kV秀园路电气化L0010配电室(三供一业)配电变压器,10kV秀园路电气化L0009配电室(三供一业)配电变压器,10kVB1725.B1726箱式变电站B1726配电变压器,10kVB993.B994配电室B993配电变压器,10kVB993.B994配电室B994配电变压器,变压器,10kVB1729.B1730箱式变电站B1729配电变压器,0356184195-中国联合网络通信有限公司保定市分公司-专变2,0356219385-新市区肿瘤医院-2#专变,10kVY0022.Y0023.Y0024.Y0025配电室Y0025配电变压器,10kVY0251.Y0252.Y0253配电室Y0252配电变压器,10kV604生活区北区L0021配电室(三供一业)配电变压器,B974柱上变压器,10kVY0251.Y0252.Y0253配电室Y0251配电变压器,10kVB991.B992配电室B992配电变压器,10kVY0251.Y0252.Y0253配电室Y0253配电变压器,10kV七一路邮电宿舍L0012配电室(三供一业)配电变压器,0356371292-保定富力工贸有限公司-专变,10kV天威二区L0002箱式变电站(三供一业)配电变压器,10kVB1725.B1726箱式变电站B1725配电变压器,10kV国信宿舍L0008配电室(三供一业)配电变压器,10kVZ0090.Z0091箱式变电站Z0091配电变压器,10kVY0022.Y0023.Y0024.Y0025配电室Y0024配电变压器,B353柱上变压器,B1770柱上变压器,10kV604生活区北区L0007配电室(三供一业)配电变压器,10kVB1425.B1426配电室B1426配电变压器,0587135775-保定市新市区富昌乡人民政府-1-箱式变-变压器-1,10kVB991.B992配电室B991配电变压器,10kV604生活区北区L0004配电室(三供一业)配电变压器,10kVB1729.B1730箱式变电站B1730配电变压器,10kVB1727.B1728箱式变电站B1728配电变压器","poweroffReason":"【停电原因】由于分支开关短路导致１０ＫＶ江城变电站５３２线路全线停电【变更送电】无【发布渠道】通过９５５９８发布","powerTime":"2019-08-19 12:40:44","powerComm":"已送电","subsNo":"","lineNo":"","tgNo":"","tgName":null,"infoStatus":"1","orgName":"保定供电公司","typeName":null,"infoStatusName":null,"dateDay":null,"orgNos":null,"nowTime":null,"countyName":null,"streetName":null,"villageName":null,"roadName":null,"communityName":null,"tranName":null,"sdLineName":null,"cityCode":"13406","cityName":"保定供电公司","provinceCode":null,"stopTime":"2019-08-19 14:30:00","powerType":"全部","powerOffArea":"【全线路停电】停0356187905-王七店-专变,H0055柱上变压器,0712456977-保定市城泰供热有限公司-400KVA-专变,10kV604生活区北区L0005箱式变电站(三供一业)配电变压器,0356187888-保定五洲驰翼汽车服务有限公司-1-配电室-变压器-1,0356212919-王七里店-专变,B976柱上变压器,0356187934-王七店村-专变,B1176柱上变压器,byq,10kVB1731.B1732箱式变电站B1732配电变压器,C084柱上变压器,10kV天威一区南区L0015箱式变电站(三供一业)配电变压器,C441柱上变压器,0672968237-保定市容大房地产集团有限公司-630KVA变压器,10kVB1731.B1732箱式变电站B1731配电变压器,10kV天威一区南区L0014配电室(三供一业)配电变压器,0357981276-保定市方正房地产开发有限公司-1#专变,10kVB1727.B1728箱式变电站B1727配电变压器,B975柱上变压器,C086柱上变压器,B267柱上变压器,10kV604生活区南区L0003配电室(三供一业)配电变压器,10kV604生活区北区L0006配电室(三供一业)配电变压器,10kV华北石油宿舍L0011配电室(三供一业)配电变压器,B354柱上变压器,10kV天威一区南区L0013配电室(三供一业)配电变压器,C085柱上变压器,B266柱上变压器,10kVZ0090.Z0091箱式变电站Z0090配电变压器,0356281870-保定市润雨商贸有限公司-专变,10kVB1425.B1426配电室B1425配电变压器,0356177193-富昌乡王七店村-专变,0356240857-打井公司-专变,10kV秀园路电气化L0010配电室(三供一业)配电变压器,10kV秀园路电气化L0009配电室(三供一业)配电变压器,10kVB1725.B1726箱式变电站B1726配电变压器,10kVB993.B994配电室B993配电变压器,10kVB993.B994配电室B994配电变压器,变压器,10kVB1729.B1730箱式变电站B1729配电变压器,0356184195-中国联合网络通信有限公司保定市分公司-专变2,0356219385-新市区肿瘤医院-2#专变,10kVY0022.Y0023.Y0024.Y0025配电室Y0025配电变压器,10kVY0251.Y0252.Y0253配电室Y0252配电变压器,10kV604生活区北区L0021配电室(三供一业)配电变压器,B974柱上变压器,10kVY0251.Y0252.Y0253配电室Y0251配电变压器,10kVB991.B992配电室B992配电变压器,10kVY0251.Y0252.Y0253配电室Y0253配电变压器,10kV七一路邮电宿舍L0012配电室(三供一业)配电变压器,0356371292-保定富力工贸有限公司-专变,10kV天威二区L0002箱式变电站(三供一业)配电变压器,10kVB1725.B1726箱式变电站B1725配电变压器,10kV国信宿舍L0008配电室(三供一业)配电变压器,10kVZ0090.Z0091箱式变电站Z0091配电变压器,10kVY0022.Y0023.Y0024.Y0025配电室Y0024配电变压器,B353柱上变压器,B1770柱上变压器,10kV604生活区北区L0007配电室(三供一业)配电变压器,10kVB1425.B1426配电室B1426配电变压器,0587135775-保定市新市区富昌乡人民政府-1-箱式变-变压器-1,10kVB991.B992配电室B991配电变压器,10kV604生活区北区L0004配电室(三供一业)配电变压器,10kVB1729.B1730箱式变电站B1730配电变压器,10kVB1727.B1728箱式变电站B1728配电变压器","powerOffReason":"【停电原因】由于分支开关短路导致１０ＫＶ江城变电站５３２线路全线停电【变更送电】无【发布渠道】通过９５５９８发布","powerOffId":"2019081913000117"},{"poweroffId":2019081913000106,"sgpoweroffId":null,"subsName":"","lineName":"10kV仙人桥线541","pubTranName":"平陵外9【纯农排变】,1平陵内32,清苑县平陵惠农奶牛养殖场,平陵外20【纯农排变】,2平陵外25【纯农排变】,1平陵内38,1平陵内33,1平陵内27,1平陵内34,2平陵外17【纯农排变】,0387505785-平陵田国胜托牛所-专变-121420986-平陵田国胜托牛所,平陵内3,0387506111-清苑县平陵惠农奶牛养殖场-专变-121403122-平陵养牛厂,0387506296-平陵下闸河边-专变-45324836-平陵下闸河边,0387505769-平陵张学志牛场-专变-45325127-平陵张学志牛场,1平陵内31,平陵外10号【纯农排变】,2平陵外24【纯农排变】,平陵2号,","scope":"【影响街道/乡镇】石桥乡 【高危重要客户】无 【影响客户】平陵","startTime":"2019-08-28 05:30:00","stopDate":"2019-08-28 18:00:00","orgNo":"1340618","typeCode":"计划停电","poweroffArea":"【分支停电】停平陵外9【纯农排变】,1平陵内32,清苑县平陵惠农奶牛养殖场,平陵外20【纯农排变】,2平陵外25【纯农排变】,1平陵内38,1平陵内33,1平陵内27,1平陵内34,2平陵外17【纯农排变】,0387505785-平陵田国胜托牛所-专变-121420986-平陵田国胜托牛所,平陵内3,0387506111-清苑县平陵惠农奶牛养殖场-专变-121403122-平陵养牛厂,0387506296-平陵下闸河边-专变-45324836-平陵下闸河边,0387505769-平陵张学志牛场-专变-45325127-平陵张学志牛场,1平陵内31,平陵外10号【纯农排变】,2平陵外24【纯农排变】,平陵2号","poweroffReason":"【停电原因】由于线路改造工程导致１０ＫＶ戎官营开关变电站１０ＫＶ仙人桥线５４１线路主干１３７号杆至１５５号杆停电 【变更送电】无 【发布渠道】保定市清苑区电视台（２０１９年０８月２０日１９时至２０１９年０８月２７日２０时之间）屏幕上方滚动","powerTime":"2019-08-28 17:41:20","powerComm":"刘振宁通知已送电","subsNo":"","lineNo":"","tgNo":"","tgName":null,"infoStatus":"1","orgName":"国网清苑县供电公司","typeName":null,"infoStatusName":null,"dateDay":null,"orgNos":null,"nowTime":null,"countyName":null,"streetName":null,"villageName":null,"roadName":null,"communityName":null,"tranName":null,"sdLineName":null,"cityCode":"1340618","cityName":"国网清苑县供电公司","provinceCode":null,"stopTime":"2019-08-28 18:00:00","powerType":"全部","powerOffArea":"【分支停电】停平陵外9【纯农排变】,1平陵内32,清苑县平陵惠农奶牛养殖场,平陵外20【纯农排变】,2平陵外25【纯农排变】,1平陵内38,1平陵内33,1平陵内27,1平陵内34,2平陵外17【纯农排变】,0387505785-平陵田国胜托牛所-专变-121420986-平陵田国胜托牛所,平陵内3,0387506111-清苑县平陵惠农奶牛养殖场-专变-121403122-平陵养牛厂,0387506296-平陵下闸河边-专变-45324836-平陵下闸河边,0387505769-平陵张学志牛场-专变-45325127-平陵张学志牛场,1平陵内31,平陵外10号【纯农排变】,2平陵外24【纯农排变】,平陵2号","powerOffReason":"【停电原因】由于线路改造工程导致１０ＫＶ戎官营开关变电站１０ＫＶ仙人桥线５４１线路主干１３７号杆至１５５号杆停电 【变更送电】无 【发布渠道】保定市清苑区电视台（２０１９年０８月２０日１９时至２０１９年０８月２７日２０时之间）屏幕上方滚动","powerOffId":"2019081913000106"},{"poweroffId":2019081913000095,"sgpoweroffId":null,"subsName":"","lineName":"10kV上车亭526","pubTranName":"93577部队,东租村东井变压器【纯农排变】,66382部队（教导队）变压器200,闫广军,北西租022-1,西租村内变压器,保定众邦塑料薄膜加工有限公司新增变压器,西租村西北,西租村南台区,西租村南1号井【纯农排变】,东租机井1【纯农排变】,安家洼北台区,东租大棚,东租小学,北西租021-1|0560,西租村西变压器,东租村内台区变压器,93577部队1,配变,中国人民解放军93567部队630KVA专变,","scope":"【影响街道/乡镇】涞水镇、东文山乡 【高危重要客户】无 【影响客户】西租村西、北西租村、安家洼村、东租村砖厂","startTime":"2019-09-08 06:00:00","stopDate":"2019-09-08 18:00:00","orgNo":"1340614","typeCode":"计划停电","poweroffArea":"【全线路停电】停中国人民解放军93567部队630KVA专变,93577部队,东租村东井变压器【纯农排变】,66382部队（教导队）变压器200,闫广军,北西租022-1,西租村内变压器,保定众邦塑料薄膜加工有限公司新增变压器,西租村西北,西租村南台区,西租村南1号井【纯农排变】,东租机井1【纯农排变】,安家洼北台区,东租大棚,东租小学,北西租021-1|0560,西租村西变压器,东租村内台区变压器,93577部队1,配变","poweroffReason":"【停电原因】由于线路检修导致１１０ＫＶ涞水变电站１０ＫＶ上车亭５２６线路全线停电 【变更送电】无 【发布渠道】保定市涞水电视台（０８月２１日１２时至０８月３１日２４时之间）屏幕上方滚动","powerTime":"2019-09-08 17:52:18","powerComm":"已送电","subsNo":"","lineNo":"","tgNo":"","tgName":null,"infoStatus":"1","orgName":"国网涞水县供电公司","typeName":null,"infoStatusName":null,"dateDay":null,"orgNos":null,"nowTime":null,"countyName":null,"streetName":null,"villageName":null,"roadName":null,"communityName":null,"tranName":null,"sdLineName":null,"cityCode":"1340614","cityName":"国网涞水县供电公司","provinceCode":null,"stopTime":"2019-09-08 18:00:00","powerType":"全部","powerOffArea":"【全线路停电】停中国人民解放军93567部队630KVA专变,93577部队,东租村东井变压器【纯农排变】,66382部队（教导队）变压器200,闫广军,北西租022-1,西租村内变压器,保定众邦塑料薄膜加工有限公司新增变压器,西租村西北,西租村南台区,西租村南1号井【纯农排变】,东租机井1【纯农排变】,安家洼北台区,东租大棚,东租小学,北西租021-1|0560,西租村西变压器,东租村内台区变压器,93577部队1,配变","powerOffReason":"【停电原因】由于线路检修导致１１０ＫＶ涞水变电站１０ＫＶ上车亭５２６线路全线停电 【变更送电】无 【发布渠道】保定市涞水电视台（０８月２１日１２时至０８月３１日２４时之间）屏幕上方滚动","powerOffId":"2019081913000095"},{"poweroffId":2019081913000094,"sgpoweroffId":null,"subsName":"","lineName":"石岗线512","pubTranName":"石岗村3#,","scope":"【影响街道/乡镇】良岗镇【高危重要客户】无【影响客户】石岗村","startTime":"2019-08-19 09:59:37","stopDate":"2019-08-19 16:50:00","orgNo":"1340625","typeCode":"电网故障停限电","poweroffArea":"【单台区停电】停石岗村3#","poweroffReason":"【停电原因】由于电线断线导致１１０ＫＶ良岗变电站石岗线５１２线路石岗村３＃公变台区停电【变更送电因抢修进度加快原因，送电时间由１９：００变更为１６：５０【发布渠道】通过９５５９８发布","powerTime":"2019-08-19 16:24:26","powerComm":"已送电","subsNo":"","lineNo":"","tgNo":"","tgName":null,"infoStatus":"1","orgName":"国网易县供电公司","typeName":null,"infoStatusName":null,"dateDay":null,"orgNos":null,"nowTime":null,"countyName":null,"streetName":null,"villageName":null,"roadName":null,"communityName":null,"tranName":null,"sdLineName":null,"cityCode":"1340625","cityName":"国网易县供电公司","provinceCode":null,"stopTime":"2019-08-19 16:50:00","powerType":"全部","powerOffArea":"【单台区停电】停石岗村3#","powerOffReason":"【停电原因】由于电线断线导致１１０ＫＶ良岗变电站石岗线５１２线路石岗村３＃公变台区停电【变更送电因抢修进度加快原因，送电时间由１９：００变更为１６：５０【发布渠道】通过９５５９８发布","powerOffId":"2019081913000094"},{"poweroffId":2019081913000056,"sgpoweroffId":null,"subsName":"","lineName":"10kV515造纸厂线","pubTranName":"保定东禾新型材料科技有限公司,保定长河塑料机械制造有限公司500,保定市东禾新型材料科技有限公司,80KVA配变,南伍侯内-23001950|23001950,南伍侯1220农业|23001220【纯农排变】,海家庄村南农排2【纯农排变】,保定吉华环保设备有限公司,唐行店1870农排|23001870【纯农排变】,顺平县兴宏水泥制品有限责任公司,两分庄1560农排|23001560【纯农排变】,保定恒远机械制件有限公司,银全合用,0684144322-顺平县亚江车床加工厂-专变-223573031-顺平县亚江车床加工厂315,唐行店1410农排|23001410【纯农排变】,南伍侯1840农排|23001840【纯农排变】,南伍侯1230农排|23001230【纯农排变】,0469469657-何忠-专变-46816658-何忠,保定和璧通讯器材有限公司,保定市八木化纤有限公司,保定市恒远机械制件有限公司,变压器,0469470039-中国铁塔股份有限公司保定市分公司-专变-46816716-中国移动,东禾塑业增容500,邵家庄-23001940|23001940,唐行店1400农排|23001400【纯农排变】,邵家庄新增农业7608【纯农排变】,长河塑料200,唐行店1360农排|23001360【纯农排变】,南伍侯1210农业|23001210【纯农排变】,保定长江聚氨酯有限公司,南伍侯-23003930|23003930,南伍侯1240农排|23001240【纯农排变】,保定东禾塑业有限公司,唐行店1390农排|23001390【纯农排变】,两分庄-23001540|23001540,邵家庄1510农排|23001510【纯农排变】,邵家庄1490农排|23001490【纯农排变】,南伍侯1200农排|23001200【纯农排变】,保定杰达电力设备有限公司,邵家庄1500农排|23001500【纯农排变】,顺平县盛润桥煤炭经销有限公司315,南伍侯东-23001170|23001170,保定开源热镀锌有限公司,0656374454-顺平县天润制香有限公司-专变-187314168-顺平县天润制香有限公司315,南伍候村北新增综合3453,两分庄1550农排|23001550【纯农排变】,南伍侯1180农排|23001180【纯农排变】,邵家庄北综合3855,唐行店1380农排|23001380【纯农排变】,海家庄村东新增综合7980,两分庄新增综合2417,唐行店1340农排|23001340【纯农排变】,顺平县联昌塑业有限公司500KVA,唐行店1370农排|23001370【纯农排变】,南伍候村东新增综合2946,两分庄2020农排|23002020【纯农排变】,","scope":"【影响街道/乡镇】腰山镇【高危重要客户】无【影响客户】海家庄、两分庄、南伍侯、奥宇公司、邵家庄、保定东禾塑业有限公司、保定八木化纤有限公司、保定恒远机械制件有限公司、保定杰达电力设备有限公司、保定开源热镀锌有限公司","startTime":"2019-08-29 06:00:00","stopDate":"2019-08-29 13:00:00","orgNo":"1340621","typeCode":"计划停电","poweroffArea":"【分支停电】停顺平县盛润桥煤炭经销有限公司315,唐行店1380农排|23001380【纯农排变】,海家庄村东新增综合7980,两分庄新增综合2417,唐行店1340农排|23001340【纯农排变】,顺平县联昌塑业有限公司500KVA,唐行店1370农排|23001370【纯农排变】,南伍候村东新增综合2946,两分庄2020农排|23002020【纯农排变】,南伍侯1200农排|23001200【纯农排变】,南伍侯1210农业|23001210【纯农排变】,保定长江聚氨酯有限公司,南伍侯-23003930|23003930,南伍侯1240农排|23001240【纯农排变】,保定东禾塑业有限公司,唐行店1390农排|23001390【纯农排变】,两分庄-23001540|23001540,邵家庄1510农排|23001510【纯农排变】,邵家庄1490农排|23001490【纯农排变】,保定杰达电力设备有限公司,邵家庄1500农排|23001500【纯农排变】,唐行店1360农排|23001360【纯农排变】,80KVA配变,南伍侯内-23001950|23001950,南伍侯1220农业|23001220【纯农排变】,海家庄村南农排2【纯农排变】,保定吉华环保设备有限公司,唐行店1870农排|23001870【纯农排变】,顺平县兴宏水泥制品有限责任公司,两分庄1560农排|23001560【纯农排变】,保定恒远机械制件有限公司,银全合用,0684144322-顺平县亚江车床加工厂-专变-223573031-顺平县亚江车床加工厂315,唐行店1410农排|23001410【纯农排变】,南伍侯1840农排|23001840【纯农排变】,南伍侯1230农排|23001230【纯农排变】,0469469657-何忠-专变-46816658-何忠,保定和璧通讯器材有限公司,保定市八木化纤有限公司,保定市恒远机械制件有限公司,变压器,南伍候村北新增综合3453,南伍侯东-23001170|23001170,保定开源热镀锌有限公司,0656374454-顺平县天润制香有限公司-专变-187314168-顺平县天润制香有限公司315,两分庄1550农排|23001550【纯农排变】,南伍侯1180农排|23001180【纯农排变】,邵家庄北综合3855,0469470039-中国铁塔股份有限公司保定市分公司-专变-46816716-中国移动,东禾塑业增容500,邵家庄-23001940|23001940,唐行店1400农排|23001400【纯农排变】,邵家庄新增农业7608【纯农排变】,长河塑料200,保定东禾新型材料科技有限公司,保定长河塑料机械制造有限公司500,保定市东禾新型材料科技有限公司","poweroffReason":"【停电原因】由于立杆、更换导线导致３５ＫＶ腰山变电站１０ＫＶ５１５造纸厂线路０号杆刀闸以下线路停电【变更送电】因计划工作进度加快原因，送电时间由１８：００变更为１３：００ 【发布渠道】顺平电视台８月２０日至２８日２０时至２１时之间屏幕上方滚动字幕","powerTime":"2019-08-29 12:25:30","powerComm":"已送电","subsNo":"","lineNo":"","tgNo":"","tgName":null,"infoStatus":"1","orgName":"国网顺平县电力局","typeName":null,"infoStatusName":null,"dateDay":null,"orgNos":null,"nowTime":null,"countyName":null,"streetName":null,"villageName":null,"roadName":null,"communityName":null,"tranName":null,"sdLineName":null,"cityCode":"1340621","cityName":"国网顺平县电力局","provinceCode":null,"stopTime":"2019-08-29 13:00:00","powerType":"全部","powerOffArea":"【分支停电】停顺平县盛润桥煤炭经销有限公司315,唐行店1380农排|23001380【纯农排变】,海家庄村东新增综合7980,两分庄新增综合2417,唐行店1340农排|23001340【纯农排变】,顺平县联昌塑业有限公司500KVA,唐行店1370农排|23001370【纯农排变】,南伍候村东新增综合2946,两分庄2020农排|23002020【纯农排变】,南伍侯1200农排|23001200【纯农排变】,南伍侯1210农业|23001210【纯农排变】,保定长江聚氨酯有限公司,南伍侯-23003930|23003930,南伍侯1240农排|23001240【纯农排变】,保定东禾塑业有限公司,唐行店1390农排|23001390【纯农排变】,两分庄-23001540|23001540,邵家庄1510农排|23001510【纯农排变】,邵家庄1490农排|23001490【纯农排变】,保定杰达电力设备有限公司,邵家庄1500农排|23001500【纯农排变】,唐行店1360农排|23001360【纯农排变】,80KVA配变,南伍侯内-23001950|23001950,南伍侯1220农业|23001220【纯农排变】,海家庄村南农排2【纯农排变】,保定吉华环保设备有限公司,唐行店1870农排|23001870【纯农排变】,顺平县兴宏水泥制品有限责任公司,两分庄1560农排|23001560【纯农排变】,保定恒远机械制件有限公司,银全合用,0684144322-顺平县亚江车床加工厂-专变-223573031-顺平县亚江车床加工厂315,唐行店1410农排|23001410【纯农排变】,南伍侯1840农排|23001840【纯农排变】,南伍侯1230农排|23001230【纯农排变】,0469469657-何忠-专变-46816658-何忠,保定和璧通讯器材有限公司,保定市八木化纤有限公司,保定市恒远机械制件有限公司,变压器,南伍候村北新增综合3453,南伍侯东-23001170|23001170,保定开源热镀锌有限公司,0656374454-顺平县天润制香有限公司-专变-187314168-顺平县天润制香有限公司315,两分庄1550农排|23001550【纯农排变】,南伍侯1180农排|23001180【纯农排变】,邵家庄北综合3855,0469470039-中国铁塔股份有限公司保定市分公司-专变-46816716-中国移动,东禾塑业增容500,邵家庄-23001940|23001940,唐行店1400农排|23001400【纯农排变】,邵家庄新增农业7608【纯农排变】,长河塑料200,保定东禾新型材料科技有限公司,保定长河塑料机械制造有限公司500,保定市东禾新型材料科技有限公司","powerOffReason":"【停电原因】由于立杆、更换导线导致３５ＫＶ腰山变电站１０ＫＶ５１５造纸厂线路０号杆刀闸以下线路停电【变更送电】因计划工作进度加快原因，送电时间由１８：００变更为１３：００ 【发布渠道】顺平电视台８月２０日至２８日２０时至２１时之间屏幕上方滚动字幕","powerOffId":"2019081913000056"},{"poweroffId":2019081913000053,"sgpoweroffId":null,"subsName":"","lineName":"10kV511才良线","pubTranName":"西韩童2310农业|27002310【纯农排变】,西韩童2340农业|27002340【纯农排变】,杨兴尔,韩新庄110农业|27000110【纯农排变】,西韩童2190农业|27002190【纯农排变】,西韩童新增农业2号（TD)4387【纯农排变】,韩新庄2810农业|27002810【纯农排变】,韩新庄100|27000100,才良村西南农业【纯农排变】,四通供电所,北新兴10农业|27000010【纯农排变】,韩新庄新增农业2号（TD）4386【纯农排变】,韩旧庄2020农业|27002020【纯农排变】,西韩童南综合2850|27002850,西韩童新增农业5号（TD）4381【纯农排变】,才良240农排【纯农排变】,0469468162-中国移动通信集团河北有限公司顺平分公司-专变-46816492-中国移动,才良村西北农业【纯农排变】,韩旧庄综合1842,才良2760|27002760,才良村180|27000180,才良村西新增综合2号,西韩童新增农业1号（TD)2473【纯农排变】,才良村西农业【纯农排变】,韩旧庄150农业|27000150【纯农排变】,才良村北新增综合1432,才良村东南农业【纯农排变】,西韩童新增农业4号（TD）4380【纯农排变】,西韩童村北新增综合1169,西韩童村内新增综合1172,韩新庄土地整改新增农业1号（TD）1409【纯农排变】,西韩童2320农业|27002320【纯农排变】,旧西庄140|27000140,北新兴土地整改新增农业7号（TD）7879【纯农排变】,西韩童面粉厂,韩旧庄2820农业|27002820【纯农排变】,西韩童新增农业3号（TD)4389【纯农排变】,才良210农业|27000210【纯农排变】,韩旧庄土地整改新增农业2号（TD）1427【纯农排变】,韩新庄新增农业1号（TD）4385【纯农排变】,旧西庄130|27000130,西韩童村东综合1855,才良村160|27000160,韩新庄2260农业|27002260【纯农排变】,才良水塔边农业【纯农排变】,西韩童70农业|27000070【纯农排变】,西韩童东南综合0390,才良村东新增综合,才良村北农业【纯农排变】,才良西南农业1【纯农排变】,才良西南农业2【纯农排变】,才良村北综合2860|27002860,才良270|27000270,才良面粉厂,西韩童20综合|27000020,韩新庄120农业|27000120【纯农排变】,韩旧庄土地整改新增农业1号（TD）1909【纯农排变】,才良250农业|27000250【纯农排变】,西韩童新增农业6号（TD）4384【纯农排变】,西韩童80农业|27000080【纯农排变】,西韩童30农业|27000030【纯农排变】,西韩童60|27000060,才良村西新建综合5388,才良230农业|27000230【纯农排变】,才良学校综合1850,西韩童2330综合|27002330,韩新庄综合2号7672,北新兴村东2180农业|27002180【纯农排变】,才良村170|27000170,","scope":"【影响街道/乡镇】腰山镇【高危重要客户】无【影响客户】才良、西韩童、韩新庄、韩旧庄","startTime":"2019-08-29 06:00:00","stopDate":"2019-08-29 18:00:00","orgNo":"1340621","typeCode":"计划停电","poweroffArea":"【全线路停电】停才良210农业|27000210【纯农排变】,才良村东新增综合,西韩童2190农业|27002190【纯农排变】,西韩童村内新增综合1172,韩新庄2810农业|27002810【纯农排变】,才良村西农业【纯农排变】,西韩童60|27000060,才良村西新建综合5388,才良村北农业【纯农排变】,才良240农排【纯农排变】,韩新庄110农业|27000110【纯农排变】","poweroffReason":"【停电原因】由于立杆、更换导线导致３５ＫＶ四通变电站１０ＫＶ５１１才良线路全线停电【变更送电】无【发布渠道】保定市顺平县电视台（８月２０日至２８日２０时至２１时之间）屏幕上方滚动字幕","powerTime":"2019-08-29 17:43:09","powerComm":"已送电","subsNo":"","lineNo":"","tgNo":"","tgName":null,"infoStatus":"1","orgName":"国网顺平县电力局","typeName":null,"infoStatusName":null,"dateDay":null,"orgNos":null,"nowTime":null,"countyName":null,"streetName":null,"villageName":null,"roadName":null,"communityName":null,"tranName":null,"sdLineName":null,"cityCode":"1340621","cityName":"国网顺平县电力局","provinceCode":null,"stopTime":"2019-08-29 18:00:00","powerType":"全部","powerOffArea":"【全线路停电】停才良210农业|27000210【纯农排变】,才良村东新增综合,西韩童2190农业|27002190【纯农排变】,西韩童村内新增综合1172,韩新庄2810农业|27002810【纯农排变】,才良村西农业【纯农排变】,西韩童60|27000060,才良村西新建综合5388,才良村北农业【纯农排变】,才良240农排【纯农排变】,韩新庄110农业|27000110【纯农排变】","powerOffReason":"【停电原因】由于立杆、更换导线导致３５ＫＶ四通变电站１０ＫＶ５１１才良线路全线停电【变更送电】无【发布渠道】保定市顺平县电视台（８月２０日至２８日２０时至２１时之间）屏幕上方滚动字幕","powerOffId":"2019081913000053"},{"poweroffId":2019081913000048,"sgpoweroffId":null,"subsName":"","lineName":"西环路516","pubTranName":"西庄道村2#,西庄道村4#,易河庄村2#,西环路直供2#,易河庄村1##,西环路村5#,尚城餐饮变压器,西庄道村1#,易水河西,西环路直供3#,惠东小区(315KVA),西环路直供1#,易河庄村1#,西环路村7#,西环路村3#,易水初级中学(50KVA),西环路直供4#,易河庄村3#,金驰悦达变压器,西庄道村3#,西环路村4#,易河庄4#,河北惠东房地产开发有限公司B-2000KVA,","scope":"【影响街道/乡镇】易州镇、西环路、靖远北大街【高危重要客户】无【影响客户】易河庄村、西庄道村","startTime":"2019-08-19 08:50:06","stopDate":"2019-08-19 10:50:00","orgNo":"1340625","typeCode":"电网故障停限电","poweroffArea":"【全线路停电】停西庄道村3#,西环路村5#,西环路直供2#,易水初级中学(50KVA),金驰悦达变压器,尚城餐饮变压器,西环路村3#,西庄道村1#,易水河西,易河庄村2#,西庄道村4#,易河庄村1##,河北惠东房地产开发有限公司B-2000KVA,西环路直供1#,易河庄4#,易河庄村3#,西环路村7#,易河庄村1#,西环路直供3#,惠东小区(315KVA),西环路直供4#,西庄道村2#,西环路村4#","poweroffReason":"【停电原因】由于线路接地导致３５ＫＶ易水变电站西环路５１６线路全线停电【变更送电】因抢修进度加快原因，送电时间由１８：００变更为１０：５０【发布渠道】通过９５５９８发布","powerTime":"2019-08-19 10:20:17","powerComm":"已送电","subsNo":"","lineNo":"","tgNo":"","tgName":null,"infoStatus":"1","orgName":"国网易县供电公司","typeName":null,"infoStatusName":null,"dateDay":null,"orgNos":null,"nowTime":null,"countyName":null,"streetName":null,"villageName":null,"roadName":null,"communityName":null,"tranName":null,"sdLineName":null,"cityCode":"1340625","cityName":"国网易县供电公司","provinceCode":null,"stopTime":"2019-08-19 10:50:00","powerType":"全部","powerOffArea":"【全线路停电】停西庄道村3#,西环路村5#,西环路直供2#,易水初级中学(50KVA),金驰悦达变压器,尚城餐饮变压器,西环路村3#,西庄道村1#,易水河西,易河庄村2#,西庄道村4#,易河庄村1##,河北惠东房地产开发有限公司B-2000KVA,西环路直供1#,易河庄4#,易河庄村3#,西环路村7#,易河庄村1#,西环路直供3#,惠东小区(315KVA),西环路直供4#,西庄道村2#,西环路村4#","powerOffReason":"【停电原因】由于线路接地导致３５ＫＶ易水变电站西环路５１６线路全线停电【变更送电】因抢修进度加快原因，送电时间由１８：００变更为１０：５０【发布渠道】通过９５５９８发布","powerOffId":"2019081913000048"},{"poweroffId":2019081913000044,"sgpoweroffId":null,"subsName":"","lineName":"10KV大团柳511","pubTranName":"大团柳村内2596,","scope":"【影响街道/乡镇】东城坊镇 【高危重要客户】无 【影响客户】大团柳","startTime":"2019-08-29 07:30:00","stopDate":"2019-08-29 17:00:00","orgNo":"1340626","typeCode":"计划停电","poweroffArea":"【单台区停电】停大团柳村内2596","poweroffReason":"【停电原因】由于挖坑立杆、架设导线导致３５ＫＶ劳动学院变电站１０ＫＶ大团柳５１１线路大团柳村内２５９６公变台区停电 【变更送电】无 【发布渠道】涿州电视台（０８月１９日至０８月２８日２１：００播放２次）屏幕上方滚动","powerTime":"2019-08-29 16:40:15","powerComm":"恢复送电","subsNo":"","lineNo":"","tgNo":"","tgName":null,"infoStatus":"1","orgName":"国网涿州市供电公司","typeName":null,"infoStatusName":null,"dateDay":null,"orgNos":null,"nowTime":null,"countyName":null,"streetName":null,"villageName":null,"roadName":null,"communityName":null,"tranName":null,"sdLineName":null,"cityCode":"1340626","cityName":"国网涿州市供电公司","provinceCode":null,"stopTime":"2019-08-29 17:00:00","powerType":"全部","powerOffArea":"【单台区停电】停大团柳村内2596","powerOffReason":"【停电原因】由于挖坑立杆、架设导线导致３５ＫＶ劳动学院变电站１０ＫＶ大团柳５１１线路大团柳村内２５９６公变台区停电 【变更送电】无 【发布渠道】涿州电视台（０８月１９日至０８月２８日２１：００播放２次）屏幕上方滚动","powerOffId":"2019081913000044"},{"poweroffId":2019081913000036,"sgpoweroffId":null,"subsName":"","lineName":"大龙华线517","pubTranName":"赵家沟村1#|村南,","scope":"【影响街道/乡镇】安格庄乡【高危重要客户】无【影响客户】赵家沟村","startTime":"2019-08-19 09:30:00","stopDate":"2019-08-19 20:00:00","orgNo":"1340625","typeCode":"其他临时停电","poweroffArea":"【单台区停电】停赵家沟村1#|村南","poweroffReason":"【停电原因】由于低压线路改造导致１１０ＫＶ西陵变电站大龙华线５１７线路赵家沟村１＃公变台区停电【变更送电】无【发布渠道】通过９５５９８发布","powerTime":"2019-08-19 19:07:18","powerComm":"已送电","subsNo":"","lineNo":"","tgNo":"","tgName":null,"infoStatus":"1","orgName":"国网易县供电公司","typeName":null,"infoStatusName":null,"dateDay":null,"orgNos":null,"nowTime":null,"countyName":null,"streetName":null,"villageName":null,"roadName":null,"communityName":null,"tranName":null,"sdLineName":null,"cityCode":"1340625","cityName":"国网易县供电公司","provinceCode":null,"stopTime":"2019-08-19 20:00:00","powerType":"全部","powerOffArea":"【单台区停电】停赵家沟村1#|村南","powerOffReason":"【停电原因】由于低压线路改造导致１１０ＫＶ西陵变电站大龙华线５１７线路赵家沟村１＃公变台区停电【变更送电】无【发布渠道】通过９５５９８发布","powerOffId":"2019081913000036"}],"pageModel":{"pageNow":638,"totalCount":10973,"totalPage":1098,"tableRows":0,"pageCount":10,"beginCount":6370},"isExperi":"1"}