{"message":"","today":"2020-06-15","seleList":[{"poweroffId":2019081813000061,"sgpoweroffId":null,"subsName":"","lineName":"10kV石桥线525","pubTranName":"西石桥小学,河北鹏志汽车贸易有限公司,1聂庄内2,瑞岩塑料厂,保定市南市区孚顺奶牛专业合作社,07西石桥外5【纯农排变】,西石桥内5,张村内2,0600207609-毕庄村委会-专变-126656111-毕庄村委会,鲁庄村南南台,聂庄村委会5,07纳贤7号,1西石桥内13,1西石桥内3,1张村内12,1西石桥内9台区,1鲁庄内2,中国移动通信集团河北有限公司保定分公司,上海和达汽车配件有限公司,变压器,1鲁庄内1,2西石桥外8【纯农排变】,保定鑫茂机械设备制造有限公司,西石桥河堤,0387495202-保定市清苑县吉祥面粉加工厂-专变-45317160-保定市清苑县吉祥面粉加工厂,保定运生精铸有限公司,保定市莲池区聂家小吃部,保定市瑞泰砼业有限公司,青堡村内3,1张村内8,保定市建寅养殖有限公司,1张村内16,光明合金厂,2张村外17【纯农排变】,07百中外7【纯农排变】,07纳贤外8【纯农排变】,张村打毛厂,1青堡内7,聂庄1号,1张村内7,0678425192-保定市佳康食品有限公司-专变-219633727-保定市佳康食品有限公司,1青堡内9,保定味佳调味品有限公司,张村小学,青堡内1号,1聂庄内3,0598528115-清苑县北方钢丝绒制造有限公司-专变-126439168-清苑县北方钢丝绒制造有限公司,1西石桥内10台区,07西石桥外7【纯农排变】,1西石桥内7,07张村外20【纯农排变】,1张村内14,清苑县红星岩棉制品厂,07张村内6,07张村外12【纯农排变】,07纳贤村内2号,1青堡内5,07纳贤6号【纯农排变】,纳贤幼儿园,2西石桥外10【纯农排变】,1西石桥内8,张村中学1,清苑县汇丽塑料包装制品厂,1纳贤内3台区,青堡村委会,1纳贤内5台区,清苑县顺通停车场,2纳贤外11台区【纯农排变】,2西石桥外9【纯农排变】,青堡5号,2西石桥外12【纯农排变】,保定市南市区柯达金属制品厂,0387493785-保定曙光毛纺有限公司-专变-45316965-保定曙光毛纺有限公司,王大雪养殖场,树立养殖场,保定市南市区联谊奶农专业合作社,青堡内4号,1张村内5,清苑县信德铝业有限公司,07纳贤4号【纯农排变】,07西石桥村内1号,0600201047-鲁庄村委会-专变-126616702-鲁庄村委会,1百中内21,青堡内8台区,西石桥内6,保定市鹏志物业管理有限公司,07张村内3号,毕庄村北,07西石桥外6【纯农排变】,1青堡内6,青堡东南,保定市南市区圣峰服装加工厂,西石桥腾飞纸箱厂,张村内10台区,1张村内13,西石桥幼儿园,0678143997-清苑县红星消声器材制造有限公司-专变-227130389-清苑县红星消声器材制造有限公司,1西石桥内11,保定市南市区宏光纸箱厂,1东石桥内15,2西石桥外11【纯农排变】,聂庄东北,鲁庄3号,保定市南市区青堡喜来养殖场,保定市南市区建寅奶牛养殖基地,保定仁润脑血管病医院,鲁庄南2号台,石桥养路工区,张村中学2,1西石桥内12,东石桥振东合金厂,07西石桥内4,07张村外14【纯农排变】,07张村外18【纯农排变】,1张村内11,1青堡内2,07纳贤3号【纯农排","scope":"【影响街道/乡镇】石桥乡、焦庄乡 【高危重要客户】无 【影响客户】纳贤、张村、西石桥、百中、毕庄、鲁庄、聂庄、青堡","startTime":"2019-08-27 06:00:00","stopDate":"2019-08-27 18:00:00","orgNo":"1340618","typeCode":"计划停电","poweroffArea":"【全线路停电】停1张村内14,清苑县红星岩棉制品厂,07张村内6,07张村外12【纯农排变】,07纳贤村内2号,1青堡内5,07纳贤6号【纯农排变】,纳贤幼儿园,2西石桥外10【纯农排变】,1西石桥内8,张村中学1,清苑县汇丽塑料包装制品厂,1纳贤内3台区,青堡村委会,1纳贤内5台区,清苑县顺通停车场,2纳贤外11台区【纯农排变】,2西石桥外9【纯农排变】,青堡5号,2西石桥外12【纯农排变】,保定市南市区柯达金属制品厂,0387493785-保定曙光毛纺有限公司-专变-45316965-保定曙光毛纺有限公司,王大雪养殖场,树立养殖场,保定市南市区联谊奶农专业合作社,青堡内4号,1张村内5,07纳贤4号【纯农排变】,07西石桥村内1号,青堡东南,保定市南市区圣峰服装加工厂,西石桥腾飞纸箱厂,张村内10台区,1张村内13,西石桥幼儿园,0678143997-清苑县红星消声器材制造有限公司-专变-227130389-清苑县红星消声器材制造有限公司,1西石桥内11,保定市南市区宏光纸箱厂,1东石桥内15,2西石桥外11【纯农排变】,聂庄东北,鲁庄3号,保定市南市区青堡喜来养殖场,保定市南市区建寅奶牛养殖基地,保定仁润脑血管病医院,鲁庄南2号台,石桥养路工区,张村中学2,1西石桥内12,东石桥振东合金厂,清苑县信德铝业有限公司,07西石桥内4,07张村外14【纯农排变】,07张村外18【纯农排变】,1张村内11,1青堡内2,07纳贤3号【纯农排变】,07张村外13【纯农排变】,07张村外16【纯农排变】,鲁庄野外,2西石桥外14台区,1西石桥内15,0600084370-聂庄村委会-专变-126658975-聂庄村委会6,胜利加油站,清苑县春佳金属有限公司,1纳贤村内1,保定市莲池区春南燕饭店,鲁庄村内3台区,1西石桥内14,李伟兵,保定金河铝业有限公司,清苑曙光包装制品有限公司,2西石桥外13台区,0387494629-清苑县红星消声器材制造有限公司-专变-45316925-清苑县红星消声器材制造有限公司,0387494788-清苑县曙光包装制品有限公司-专变-45316923-清苑县曙光包装制品有限公司,1纳贤内4台区,保定市南市区众鑫奶农专业合作社,07西石桥外3-1【纯农排变】,聂庄村委会3,0671344364-保定市南市区甲一奶农专业合作社-专变-212373610-保定市南市区甲一奶农专业合作社,07西石桥村内2号,毕庄内1号,07张村内4号,0616160105-清苑县红星消声器材制造有限公司-专变-128363532-清苑县红星消声器材制造有限公司,07东石桥内6号,聂庄村委会4,保定市清苑区浩然仓储物流,07西石桥外4【纯农排变】,07张村内1号,清苑县慧远有色金属购销站,1张村内9,0387485591-保定市佳康食品有限公司-专变-45312567-青堡东北,07纳贤5号【纯农排变】,07张村外7【纯农排变】,保定艳宁天然气销售有限公司,07张村外15【纯农排变】,2百中外31台区【纯农排变】,0683460421-清苑县永春路桥养护材料销售部-专变-223579543-清苑县永春路桥养护材料销售部,1张村内15,中国移动通信集团河北有限公司保定分公司,上海和达汽车配件有限公司,变压器,1鲁庄内1,2西石桥外8【纯农排变】,保定鑫茂机械设备制造有限公司,西石桥河堤,0387495202-保定市清苑县吉祥面粉加工厂-专变-45317160-保定市清苑县吉祥面粉加工厂,保定运生精铸有限公司,保定市莲池区聂家小吃部,保定市瑞泰砼业有限公司,青堡村内3,1张村内8,保定市建寅养殖有限公司,1张村内16,光明合金厂,2张村外17【纯农排变】,07百中外7【纯农排变】,07纳贤外8【纯农排变】,张村打毛厂,1青堡内7,聂庄1号,1张村内7,0678425192-保定市佳康食品有限公司-专变-219633727-保定市佳康食品有限公司,1青堡内9,保定味佳调味品有限公司,张村小学,青堡内1号,1聂庄内3,0598528115-清苑县北方钢丝绒制造有限公司-专变-1","poweroffReason":"【停电原因】由于线路改造工程导致１１０ＫＶ草桥变电站１０ＫＶ石桥线５２５线路全线停电 【变更送电】无 【发布渠道】保定市清苑区电视台（２０１９年０８月１９日１９时至２０１９年０８月２６日２０时之间）屏幕上方滚动","powerTime":"2019-08-27 17:37:07","powerComm":"段喜玲通知已送电","subsNo":"","lineNo":"","tgNo":"","tgName":null,"infoStatus":"1","orgName":"国网清苑县供电公司","typeName":null,"infoStatusName":null,"dateDay":null,"orgNos":null,"nowTime":null,"countyName":null,"streetName":null,"villageName":null,"roadName":null,"communityName":null,"tranName":null,"sdLineName":null,"cityCode":"1340618","cityName":"国网清苑县供电公司","provinceCode":null,"stopTime":"2019-08-27 18:00:00","powerType":"全部","powerOffArea":"【全线路停电】停1张村内14,清苑县红星岩棉制品厂,07张村内6,07张村外12【纯农排变】,07纳贤村内2号,1青堡内5,07纳贤6号【纯农排变】,纳贤幼儿园,2西石桥外10【纯农排变】,1西石桥内8,张村中学1,清苑县汇丽塑料包装制品厂,1纳贤内3台区,青堡村委会,1纳贤内5台区,清苑县顺通停车场,2纳贤外11台区【纯农排变】,2西石桥外9【纯农排变】,青堡5号,2西石桥外12【纯农排变】,保定市南市区柯达金属制品厂,0387493785-保定曙光毛纺有限公司-专变-45316965-保定曙光毛纺有限公司,王大雪养殖场,树立养殖场,保定市南市区联谊奶农专业合作社,青堡内4号,1张村内5,07纳贤4号【纯农排变】,07西石桥村内1号,青堡东南,保定市南市区圣峰服装加工厂,西石桥腾飞纸箱厂,张村内10台区,1张村内13,西石桥幼儿园,0678143997-清苑县红星消声器材制造有限公司-专变-227130389-清苑县红星消声器材制造有限公司,1西石桥内11,保定市南市区宏光纸箱厂,1东石桥内15,2西石桥外11【纯农排变】,聂庄东北,鲁庄3号,保定市南市区青堡喜来养殖场,保定市南市区建寅奶牛养殖基地,保定仁润脑血管病医院,鲁庄南2号台,石桥养路工区,张村中学2,1西石桥内12,东石桥振东合金厂,清苑县信德铝业有限公司,07西石桥内4,07张村外14【纯农排变】,07张村外18【纯农排变】,1张村内11,1青堡内2,07纳贤3号【纯农排变】,07张村外13【纯农排变】,07张村外16【纯农排变】,鲁庄野外,2西石桥外14台区,1西石桥内15,0600084370-聂庄村委会-专变-126658975-聂庄村委会6,胜利加油站,清苑县春佳金属有限公司,1纳贤村内1,保定市莲池区春南燕饭店,鲁庄村内3台区,1西石桥内14,李伟兵,保定金河铝业有限公司,清苑曙光包装制品有限公司,2西石桥外13台区,0387494629-清苑县红星消声器材制造有限公司-专变-45316925-清苑县红星消声器材制造有限公司,0387494788-清苑县曙光包装制品有限公司-专变-45316923-清苑县曙光包装制品有限公司,1纳贤内4台区,保定市南市区众鑫奶农专业合作社,07西石桥外3-1【纯农排变】,聂庄村委会3,0671344364-保定市南市区甲一奶农专业合作社-专变-212373610-保定市南市区甲一奶农专业合作社,07西石桥村内2号,毕庄内1号,07张村内4号,0616160105-清苑县红星消声器材制造有限公司-专变-128363532-清苑县红星消声器材制造有限公司,07东石桥内6号,聂庄村委会4,保定市清苑区浩然仓储物流,07西石桥外4【纯农排变】,07张村内1号,清苑县慧远有色金属购销站,1张村内9,0387485591-保定市佳康食品有限公司-专变-45312567-青堡东北,07纳贤5号【纯农排变】,07张村外7【纯农排变】,保定艳宁天然气销售有限公司,07张村外15【纯农排变】,2百中外31台区【纯农排变】,0683460421-清苑县永春路桥养护材料销售部-专变-223579543-清苑县永春路桥养护材料销售部,1张村内15,中国移动通信集团河北有限公司保定分公司,上海和达汽车配件有限公司,变压器,1鲁庄内1,2西石桥外8【纯农排变】,保定鑫茂机械设备制造有限公司,西石桥河堤,0387495202-保定市清苑县吉祥面粉加工厂-专变-45317160-保定市清苑县吉祥面粉加工厂,保定运生精铸有限公司,保定市莲池区聂家小吃部,保定市瑞泰砼业有限公司,青堡村内3,1张村内8,保定市建寅养殖有限公司,1张村内16,光明合金厂,2张村外17【纯农排变】,07百中外7【纯农排变】,07纳贤外8【纯农排变】,张村打毛厂,1青堡内7,聂庄1号,1张村内7,0678425192-保定市佳康食品有限公司-专变-219633727-保定市佳康食品有限公司,1青堡内9,保定味佳调味品有限公司,张村小学,青堡内1号,1聂庄内3,0598528115-清苑县北方钢丝绒制造有限公司-专变-1","powerOffReason":"【停电原因】由于线路改造工程导致１１０ＫＶ草桥变电站１０ＫＶ石桥线５２５线路全线停电 【变更送电】无 【发布渠道】保定市清苑区电视台（２０１９年０８月１９日１９时至２０１９年０８月２６日２０时之间）屏幕上方滚动","powerOffId":"2019081813000061"},{"poweroffId":2019081813000060,"sgpoweroffId":null,"subsName":"","lineName":"10KV大团柳511","pubTranName":"团柳村内东3247,大团柳大队BQ台区,","scope":"【影响街道/乡镇】东城坊镇 【高危重要客户】无 【影响客户】大团柳村","startTime":"2019-08-28 07:30:00","stopDate":"2019-08-28 17:00:00","orgNo":"1340626","typeCode":"计划停电","poweroffArea":"【分支停电】停团柳村内东3247,大团柳大队BQ台区","poweroffReason":"【停电原因】由于架设导线导致３５ＫＶ劳动学院变电站１０ＫＶ大团柳５１１线路大团柳村东分支０７号杆以下线路停电 【变更送电】无 【发布渠道】涿州电视台（０８月１８日至０８月２７日２１：００播放２次）屏幕上方滚动","powerTime":"2019-08-28 16:42:32","powerComm":"恢复送电","subsNo":"","lineNo":"","tgNo":"","tgName":null,"infoStatus":"1","orgName":"国网涿州市供电公司","typeName":null,"infoStatusName":null,"dateDay":null,"orgNos":null,"nowTime":null,"countyName":null,"streetName":null,"villageName":null,"roadName":null,"communityName":null,"tranName":null,"sdLineName":null,"cityCode":"1340626","cityName":"国网涿州市供电公司","provinceCode":null,"stopTime":"2019-08-28 17:00:00","powerType":"全部","powerOffArea":"【分支停电】停团柳村内东3247,大团柳大队BQ台区","powerOffReason":"【停电原因】由于架设导线导致３５ＫＶ劳动学院变电站１０ＫＶ大团柳５１１线路大团柳村东分支０７号杆以下线路停电 【变更送电】无 【发布渠道】涿州电视台（０８月１８日至０８月２７日２１：００播放２次）屏幕上方滚动","powerOffId":"2019081813000060"},{"poweroffId":2019081813000053,"sgpoweroffId":null,"subsName":"","lineName":"北芦庄541","pubTranName":"南芦0774,","scope":"【影响街道/乡镇】码头镇 【高危重要客户】无 【影响客户】南芦村","startTime":"2019-08-28 06:00:00","stopDate":"2019-08-28 18:00:00","orgNo":"1340626","typeCode":"计划停电","poweroffArea":"【单台区停电】停南芦0774","poweroffReason":"【停电原因】由于更换导线导致２２０ＫＶ党庄变电站北芦庄５４１线路南芦０７７４公变台区停电 【变更送电】无 【发布渠道】涿州电视台（０８月１８日至０８月２７日２１：００播放２次）屏幕上方滚动","powerTime":"2019-08-28 17:40:42","powerComm":"恢复送电","subsNo":"","lineNo":"","tgNo":"","tgName":null,"infoStatus":"1","orgName":"国网涿州市供电公司","typeName":null,"infoStatusName":null,"dateDay":null,"orgNos":null,"nowTime":null,"countyName":null,"streetName":null,"villageName":null,"roadName":null,"communityName":null,"tranName":null,"sdLineName":null,"cityCode":"1340626","cityName":"国网涿州市供电公司","provinceCode":null,"stopTime":"2019-08-28 18:00:00","powerType":"全部","powerOffArea":"【单台区停电】停南芦0774","powerOffReason":"【停电原因】由于更换导线导致２２０ＫＶ党庄变电站北芦庄５４１线路南芦０７７４公变台区停电 【变更送电】无 【发布渠道】涿州电视台（０８月１８日至０８月２７日２１：００播放２次）屏幕上方滚动","powerOffId":"2019081813000053"},{"poweroffId":2019081813000043,"sgpoweroffId":null,"subsName":"","lineName":"10kV523万安东线","pubTranName":"北辛庄综合16台区,东辛庄综合一台区,王广辉,北辛庄农排三台区【纯农排变】,东辛庄综合16台区,北辛庄田新忠羊毛软化厂,北辛庄毛昵厂,刘铭庄农排二十一台区【纯农排变】,北辛庄海林开花厂,蠡县北辛庄海军开花厂,东辛庄村南农业,长城地毯纱厂,北辛庄农排八台区【纯农排变】,东辛庄农排九台区【纯农排变】,辉宏合线厂,网通万安东辛庄变压器,建华新区变压器,北辛庄毛纺厂,东建华农排7台区【纯农排变】,东辛庄综合17台区,万安中学1,东辛庄农排五台区【纯农排变】,金志花开花厂,刘铭庄农排三十二台区【纯农排变】,东辛庄综合4台区,蠡县祥宏毛纺厂,北辛庄综合二台区,邱庄综合一台区,保定东明纺织品工贸有限公司,北辛庄农排四台区【纯农排变】,北辛庄综合一台区,万安中学,东辛庄综合二台区,北辛庄农排九台区【纯农排变】,东辛庄综合19台区,邱庄综合3台区,北辛庄综合15台区,刘铭庄综合42台区,保定蒲公英纺织品制造有限公司变压器,蠡县辛庄絮片厂变压器,蠡县含情纺织,东建华综合一台区,北辛庄农排十一台区【纯农排变】,东辛庄农排2台区【纯农排变】,东辛庄综合3台区,华伟皮草,邱庄农排3台区【纯农排变】,东辛庄综合20台区,东建华综合4台区,0469440326-会卯-专变-46810897-会卯,森源纺织有限公司,占英纺纱厂,辛庄开花针刺厂变压器,北辛庄综合17台区,东辛庄综合八台区,北辛庄农排五台区【纯农排变】,伟业养殖场变压器,东辛庄综合18台区,亚辉毛昵厂,北辛庄综合13台区,东辛庄综合十五台区,北辛庄农排十台区【纯农排变】,中国移动通信集团河北有限公司蠡县分公司,王占芳,北辛庄农排六台区【纯农排变】,北辛庄综合三台区,建华合线厂,北辛庄综合14台区,北辛庄农排七台区【纯农排变】,万安中学变压器,蠡县万安镇东辛庄小学变压器,万安中学2,东辛庄洗毛厂德国,北辛庄布厂,东辛庄综合十一台区,东辛庄合绒厂,北辛庄农排十二台区【纯农排变】,建强面粉厂,","scope":"【影响街道/乡镇】万安镇【高危重要客户】无【影响客户】东辛庄村、北辛庄村、东建华村、刘铭庄村、邱庄村、万安中学","startTime":"2019-08-18 07:42:49","stopDate":"2019-08-18 11:00:00","orgNo":"1340616","typeCode":"电网故障停限电","poweroffArea":"【全线路停电】停邱庄农排3台区【纯农排变】,北辛庄综合17台区,邱庄综合一台区,东辛庄综合十一台区,保定蒲公英纺织品制造有限公司变压器,长城地毯纱厂,华伟皮草,蠡县北辛庄海军开花厂,万安中学变压器,中国移动通信集团河北有限公司蠡县分公司,东辛庄农排五台区【纯农排变】,建华新区变压器,东辛庄综合4台区,北辛庄农排十二台区【纯农排变】,东建华农排7台区【纯农排变】,北辛庄农排四台区【纯农排变】,网通万安东辛庄变压器,刘铭庄农排三十二台区【纯农排变】,辛庄开花针刺厂变压器,北辛庄农排五台区【纯农排变】,邱庄综合3台区,北辛庄农排十台区【纯农排变】,东辛庄农排2台区【纯农排变】,北辛庄农排十一台区【纯农排变】,东辛庄综合18台区,万安中学1,北辛庄农排九台区【纯农排变】,伟业养殖场变压器,东辛庄综合20台区,北辛庄毛昵厂,东辛庄村南农业,万安中学2,北辛庄综合三台区,东建华综合4台区,北辛庄综合一台区,东建华综合一台区,东辛庄综合3台区,北辛庄农排三台区【纯农排变】,北辛庄综合15台区,辉宏合线厂,东辛庄合绒厂,北辛庄农排八台区【纯农排变】,万安中学,保定东明纺织品工贸有限公司,东辛庄综合16台区,北辛庄综合13台区,东辛庄综合八台区,北辛庄综合16台区,刘铭庄农排二十一台区【纯农排变】,蠡县万安镇东辛庄小学变压器,东辛庄综合一台区,北辛庄农排七台区【纯农排变】,刘铭庄综合42台区,东辛庄综合二台区,东辛庄农排九台区【纯农排变】,东辛庄综合17台区,东辛庄综合19台区,王广辉,东辛庄综合十五台区,北辛庄毛纺厂,东辛庄洗毛厂德国,蠡县辛庄絮片厂变压器,王占芳,金志花开花厂,建强面粉厂,建华合线厂,亚辉毛昵厂,北辛庄综合14台区,0469440326-会卯-专变-46810897-会卯,北辛庄综合二台区,蠡县祥宏毛纺厂,北辛庄田新忠羊毛软化厂,占英纺纱厂,北辛庄农排六台区【纯农排变】,蠡县含情纺织,森源纺织有限公司,北辛庄布厂,北辛庄海林开花厂","poweroffReason":"【停电原因】由于线路接地导致１１０ＫＶ刘铭庄变电站１０ＫＶ万安东５２３线路全线停电【变更送电】因抢修进度加快原因，送电时间由１８：００变更为１１：００【发布渠道】通过９５５９８发布","powerTime":"2019-08-18 10:32:11","powerComm":"已送电","subsNo":"","lineNo":"","tgNo":"","tgName":null,"infoStatus":"1","orgName":"国网蠡县供电公司","typeName":null,"infoStatusName":null,"dateDay":null,"orgNos":null,"nowTime":null,"countyName":null,"streetName":null,"villageName":null,"roadName":null,"communityName":null,"tranName":null,"sdLineName":null,"cityCode":"1340616","cityName":"国网蠡县供电公司","provinceCode":null,"stopTime":"2019-08-18 11:00:00","powerType":"全部","powerOffArea":"【全线路停电】停邱庄农排3台区【纯农排变】,北辛庄综合17台区,邱庄综合一台区,东辛庄综合十一台区,保定蒲公英纺织品制造有限公司变压器,长城地毯纱厂,华伟皮草,蠡县北辛庄海军开花厂,万安中学变压器,中国移动通信集团河北有限公司蠡县分公司,东辛庄农排五台区【纯农排变】,建华新区变压器,东辛庄综合4台区,北辛庄农排十二台区【纯农排变】,东建华农排7台区【纯农排变】,北辛庄农排四台区【纯农排变】,网通万安东辛庄变压器,刘铭庄农排三十二台区【纯农排变】,辛庄开花针刺厂变压器,北辛庄农排五台区【纯农排变】,邱庄综合3台区,北辛庄农排十台区【纯农排变】,东辛庄农排2台区【纯农排变】,北辛庄农排十一台区【纯农排变】,东辛庄综合18台区,万安中学1,北辛庄农排九台区【纯农排变】,伟业养殖场变压器,东辛庄综合20台区,北辛庄毛昵厂,东辛庄村南农业,万安中学2,北辛庄综合三台区,东建华综合4台区,北辛庄综合一台区,东建华综合一台区,东辛庄综合3台区,北辛庄农排三台区【纯农排变】,北辛庄综合15台区,辉宏合线厂,东辛庄合绒厂,北辛庄农排八台区【纯农排变】,万安中学,保定东明纺织品工贸有限公司,东辛庄综合16台区,北辛庄综合13台区,东辛庄综合八台区,北辛庄综合16台区,刘铭庄农排二十一台区【纯农排变】,蠡县万安镇东辛庄小学变压器,东辛庄综合一台区,北辛庄农排七台区【纯农排变】,刘铭庄综合42台区,东辛庄综合二台区,东辛庄农排九台区【纯农排变】,东辛庄综合17台区,东辛庄综合19台区,王广辉,东辛庄综合十五台区,北辛庄毛纺厂,东辛庄洗毛厂德国,蠡县辛庄絮片厂变压器,王占芳,金志花开花厂,建强面粉厂,建华合线厂,亚辉毛昵厂,北辛庄综合14台区,0469440326-会卯-专变-46810897-会卯,北辛庄综合二台区,蠡县祥宏毛纺厂,北辛庄田新忠羊毛软化厂,占英纺纱厂,北辛庄农排六台区【纯农排变】,蠡县含情纺织,森源纺织有限公司,北辛庄布厂,北辛庄海林开花厂","powerOffReason":"【停电原因】由于线路接地导致１１０ＫＶ刘铭庄变电站１０ＫＶ万安东５２３线路全线停电【变更送电】因抢修进度加快原因，送电时间由１８：００变更为１１：００【发布渠道】通过９５５９８发布","powerOffId":"2019081813000043"},{"poweroffId":2019081813000020,"sgpoweroffId":null,"subsName":"","lineName":"遂城线519电力电缆","pubTranName":"遂城12号【纯农排变】,遂城15号,徐水县遂城敬老院,巩固庄5号,遂城4号,遂城20号,遂城6号【纯农排变】,巩固庄7号,巩固庄1号,徐水县盈特水泥制品厂,遂城17号,巩固庄中学1号,遂城3号,巩固庄中学2号,遂城8号【纯农排变】,徐水县英奥阀门管件制造有限公司3号,巩固庄13号,巩固庄12号,遂城21号,徐水县英奥阀门管件制造有限公司1号,遂城7号【纯农排变】,巩固庄3号,抄表三队变压器,河北古遂醉酿酒总公司2号,巩固庄9号【纯农排变】,遂城16号【纯农排变】,遂城19号,遂城10号,遂城5号,巩固庄6号,遂城2号,巩固庄4号,遂城23号,巩固庄14号,巩固庄10号【纯农排变】,巩固庄8号【纯农排变】,遂城13号【纯农排变】,遂城1号,","scope":"【影响街道/乡镇】遂城镇 【高危重要客户】无 【影响客户】巩固庄、遂城","startTime":"2019-08-18 04:19:34","stopDate":"2019-08-18 07:00:00","orgNo":"1340605","typeCode":"电网故障停限电","poweroffArea":"【全线路停电】停巩固庄7号,抄表三队变压器,遂城7号【纯农排变】,遂城8号【纯农排变】,巩固庄13号,遂城23号,遂城3号,遂城12号【纯农排变】,徐水县盈特水泥制品厂,巩固庄3号,巩固庄14号,遂城13号【纯农排变】,徐水县遂城敬老院,遂城10号,遂城20号,巩固庄中学1号,巩固庄6号,巩固庄10号【纯农排变】,巩固庄12号,遂城1号,遂城6号【纯农排变】,巩固庄8号【纯农排变】,巩固庄5号,巩固庄1号,遂城5号,遂城21号,遂城19号,徐水县英奥阀门管件制造有限公司3号,巩固庄中学2号,遂城2号,徐水县英奥阀门管件制造有限公司1号,遂城17号,遂城16号【纯农排变】,巩固庄9号【纯农排变】,河北古遂醉酿酒总公司2号,遂城4号,遂城15号,巩固庄4号","poweroffReason":"【停电原因】由于Ｂ相接地导致１１０ＫＶ遂城变电站遂城线５１９线路全线停电 【变更送电】因抢修进度加快原因，送电时间由１８:００变更为０７:００ 【发布渠道】通过９５５９８发布","powerTime":"2019-08-18 06:54:29","powerComm":"已送电","subsNo":"","lineNo":"","tgNo":"","tgName":null,"infoStatus":"1","orgName":"国网徐水县供电公司","typeName":null,"infoStatusName":null,"dateDay":null,"orgNos":null,"nowTime":null,"countyName":null,"streetName":null,"villageName":null,"roadName":null,"communityName":null,"tranName":null,"sdLineName":null,"cityCode":"1340605","cityName":"国网徐水县供电公司","provinceCode":null,"stopTime":"2019-08-18 07:00:00","powerType":"全部","powerOffArea":"【全线路停电】停巩固庄7号,抄表三队变压器,遂城7号【纯农排变】,遂城8号【纯农排变】,巩固庄13号,遂城23号,遂城3号,遂城12号【纯农排变】,徐水县盈特水泥制品厂,巩固庄3号,巩固庄14号,遂城13号【纯农排变】,徐水县遂城敬老院,遂城10号,遂城20号,巩固庄中学1号,巩固庄6号,巩固庄10号【纯农排变】,巩固庄12号,遂城1号,遂城6号【纯农排变】,巩固庄8号【纯农排变】,巩固庄5号,巩固庄1号,遂城5号,遂城21号,遂城19号,徐水县英奥阀门管件制造有限公司3号,巩固庄中学2号,遂城2号,徐水县英奥阀门管件制造有限公司1号,遂城17号,遂城16号【纯农排变】,巩固庄9号【纯农排变】,河北古遂醉酿酒总公司2号,遂城4号,遂城15号,巩固庄4号","powerOffReason":"【停电原因】由于Ｂ相接地导致１１０ＫＶ遂城变电站遂城线５１９线路全线停电 【变更送电】因抢修进度加快原因，送电时间由１８:００变更为０７:００ 【发布渠道】通过９５５９８发布","powerOffId":"2019081813000020"},{"poweroffId":2019081713000231,"sgpoweroffId":null,"subsName":"","lineName":"10kV东文山517","pubTranName":"北七山北台区变压器,西长堤村东北变压器,淮河北井变压器,南七山西台变压器,淮河村西南井变压器【纯农排变】,上车亭黑山变压器【纯农排变】,西武山东台变压器,西武山村北变压器,西武山小东台变压器,南七山混用,北七山桑树坡,南七山桥南台区变压器,北七山南大扇51-1|0556,北七山北山坡井【纯农排变】,北七山王家大院变压器,北七山村东南变压器,淮河村西南变压器,北七山村西果园台区变压器,北七山色坡井台区变压器【纯农排变】,淮河东台变压器,南七山村东井,西武山大坡井变压器【纯农排变】,北七山村东北变压器,上车亭村西台区变压器,北七山西井,西长堤自来水台区变压器,南七山村村内变压器,北七山蜂窝井变压器,西武山村南变压器,南七山南台区变压器,南七山机井,北七山东坡井变压器【纯农排变】,北七山西台,西长堤北井变压器【纯农排变】,淮河村北台区变压器,淮河西井变压器,西武山村西台区变压器,上车亭大队石头坑变压器,西武山机井变压器,北七山西南井变压器,北七山大沟井台区变压器【纯农排变】,北七山村南变压器【冬季供暖设施】,淮河学校变压器,北七山村东台区变压器,上车亭村南变变压器,西长堤村东台区变压器,北七山西山坡井变压器【纯农排变】,北七山村东北井变压器【纯农排变】,淮河面粉厂,北七山村北井变压器【纯农排变】,西长堤北山坡台区变压器,淮河村西台区变压器,上车亭村西南变压器,上车亭小南庄变压器【纯农排变】,淮河西北台区,西长堤村西台区变压器,","scope":"【影响街道/乡镇】东文山乡 【高危重要客户】无 【影响客户】西武山村、淮河村、南七山村、北七山村、西长堤村、上车亭村","startTime":"2019-08-18 04:30:00","stopDate":"2019-08-18 07:00:00","orgNo":"1340614","typeCode":"其他临时停电","poweroffArea":"【分支停电】停北七山北台区变压器,西长堤村东北变压器,淮河北井变压器,南七山西台变压器,淮河村西南井变压器【纯农排变】,上车亭黑山变压器【纯农排变】,西武山东台变压器,西武山村北变压器,西武山小东台变压器,南七山混用,北七山桑树坡,南七山桥南台区变压器,北七山南大扇51-1|0556,北七山北山坡井【纯农排变】,北七山王家大院变压器,北七山村东南变压器,淮河村西南变压器,北七山村西果园台区变压器,北七山色坡井台区变压器【纯农排变】,淮河东台变压器,南七山村东井,西武山大坡井变压器【纯农排变】,北七山村东北变压器,上车亭村西台区变压器,北七山西井,西长堤自来水台区变压器,南七山村村内变压器,北七山蜂窝井变压器,西武山村南变压器,南七山南台区变压器,南七山机井,北七山东坡井变压器【纯农排变】,北七山西台,西长堤北井变压器【纯农排变】,淮河村北台区变压器,淮河西井变压器,西武山村西台区变压器,上车亭大队石头坑变压器,西武山机井变压器,北七山西南井变压器,北七山大沟井台区变压器【纯农排变】,北七山村南变压器【冬季供暖设施】,淮河学校变压器,北七山村东台区变压器,上车亭村南变变压器,西长堤村东台区变压器,北七山西山坡井变压器【纯农排变】,北七山村东北井变压器【纯农排变】,淮河面粉厂,北七山村北井变压器【纯农排变】,西长堤北山坡台区变压器,淮河村西台区变压器,上车亭村西南变压器,上车亭小南庄变压器【纯农排变】,淮河西北台区,西长堤村西台区变压器","poweroffReason":"【停电原因】由于线夹过热，需停电进行紧急消缺导致１１０ＫＶ涞水变电站１０ＫＶ东文山５１７线路０１号杆至４６号杆停电 【变更送电】无 【发布渠道】通过９５５９８发布","powerTime":"2019-08-18 06:05:09","powerComm":"已送电","subsNo":"","lineNo":"","tgNo":"","tgName":null,"infoStatus":"1","orgName":"国网涞水县供电公司","typeName":null,"infoStatusName":null,"dateDay":null,"orgNos":null,"nowTime":null,"countyName":null,"streetName":null,"villageName":null,"roadName":null,"communityName":null,"tranName":null,"sdLineName":null,"cityCode":"1340614","cityName":"国网涞水县供电公司","provinceCode":null,"stopTime":"2019-08-18 07:00:00","powerType":"全部","powerOffArea":"【分支停电】停北七山北台区变压器,西长堤村东北变压器,淮河北井变压器,南七山西台变压器,淮河村西南井变压器【纯农排变】,上车亭黑山变压器【纯农排变】,西武山东台变压器,西武山村北变压器,西武山小东台变压器,南七山混用,北七山桑树坡,南七山桥南台区变压器,北七山南大扇51-1|0556,北七山北山坡井【纯农排变】,北七山王家大院变压器,北七山村东南变压器,淮河村西南变压器,北七山村西果园台区变压器,北七山色坡井台区变压器【纯农排变】,淮河东台变压器,南七山村东井,西武山大坡井变压器【纯农排变】,北七山村东北变压器,上车亭村西台区变压器,北七山西井,西长堤自来水台区变压器,南七山村村内变压器,北七山蜂窝井变压器,西武山村南变压器,南七山南台区变压器,南七山机井,北七山东坡井变压器【纯农排变】,北七山西台,西长堤北井变压器【纯农排变】,淮河村北台区变压器,淮河西井变压器,西武山村西台区变压器,上车亭大队石头坑变压器,西武山机井变压器,北七山西南井变压器,北七山大沟井台区变压器【纯农排变】,北七山村南变压器【冬季供暖设施】,淮河学校变压器,北七山村东台区变压器,上车亭村南变变压器,西长堤村东台区变压器,北七山西山坡井变压器【纯农排变】,北七山村东北井变压器【纯农排变】,淮河面粉厂,北七山村北井变压器【纯农排变】,西长堤北山坡台区变压器,淮河村西台区变压器,上车亭村西南变压器,上车亭小南庄变压器【纯农排变】,淮河西北台区,西长堤村西台区变压器","powerOffReason":"【停电原因】由于线夹过热，需停电进行紧急消缺导致１１０ＫＶ涞水变电站１０ＫＶ东文山５１７线路０１号杆至４６号杆停电 【变更送电】无 【发布渠道】通过９５５９８发布","powerOffId":"2019081713000231"},{"poweroffId":2019081713000202,"sgpoweroffId":null,"subsName":"","lineName":"张天峪513","pubTranName":"北市村1#|村内,","scope":"【影响街道/乡镇】易州镇【高危重要客户】无【影响客户】北市村","startTime":"2019-08-18 06:30:00","stopDate":"2019-08-18 11:30:00","orgNo":"1340625","typeCode":"其他临时停电","poweroffArea":"【单台区停电】停北市村1#","poweroffReason":"【停电原因】由于低压线路紧急消缺导致３５ＫＶ易水变电站张天峪５１３线路北市村１＃公变台区停电【变更送电】因工作进度加快原因，送电时间由１２：３０变更为１１：３０【发布渠道】通过９５５９８发布","powerTime":"2019-08-18 11:10:37","powerComm":"已送电","subsNo":"","lineNo":"","tgNo":"","tgName":null,"infoStatus":"1","orgName":"国网易县供电公司","typeName":null,"infoStatusName":null,"dateDay":null,"orgNos":null,"nowTime":null,"countyName":null,"streetName":null,"villageName":null,"roadName":null,"communityName":null,"tranName":null,"sdLineName":null,"cityCode":"1340625","cityName":"国网易县供电公司","provinceCode":null,"stopTime":"2019-08-18 11:30:00","powerType":"全部","powerOffArea":"【单台区停电】停北市村1#","powerOffReason":"【停电原因】由于低压线路紧急消缺导致３５ＫＶ易水变电站张天峪５１３线路北市村１＃公变台区停电【变更送电】因工作进度加快原因，送电时间由１２：３０变更为１１：３０【发布渠道】通过９５５９８发布","powerOffId":"2019081713000202"},{"poweroffId":2019081713000193,"sgpoweroffId":null,"subsName":"","lineName":"城内520线","pubTranName":"迎晖北大街3#,","scope":"【影响街道/乡镇】易州镇、迎晖北大街【高危重要客户】无【影响客户】迎晖小区","startTime":"2019-08-17 17:25:56","stopDate":"2019-08-17 19:00:33","orgNo":"1340625","typeCode":"电网故障停限电","poweroffArea":"【单台区停电】停迎晖北大街3#","poweroffReason":"【停电原因】由于低压线路起火导致１１０ＫＶ易县变电站城内５２０线路迎晖北大街３＃公变台区停电【变更送电】无【发布渠道】通过９５５９８发布","powerTime":"2019-08-17 18:51:24","powerComm":"已送电","subsNo":"","lineNo":"","tgNo":"","tgName":null,"infoStatus":"1","orgName":"国网易县供电公司","typeName":null,"infoStatusName":null,"dateDay":null,"orgNos":null,"nowTime":null,"countyName":null,"streetName":null,"villageName":null,"roadName":null,"communityName":null,"tranName":null,"sdLineName":null,"cityCode":"1340625","cityName":"国网易县供电公司","provinceCode":null,"stopTime":"2019-08-17 19:00:33","powerType":"全部","powerOffArea":"【单台区停电】停迎晖北大街3#","powerOffReason":"【停电原因】由于低压线路起火导致１１０ＫＶ易县变电站城内５２０线路迎晖北大街３＃公变台区停电【变更送电】无【发布渠道】通过９５５９８发布","powerOffId":"2019081713000193"},{"poweroffId":2019081713000187,"sgpoweroffId":null,"subsName":"","lineName":"10kV西顾庄线517","pubTranName":"2西顾庄外2【纯农排变】,河北万方新型建材有限公司,1和谐小区12,1西顾庄和谐小区内1,西顾庄小学,清苑县祥太水务有限责任公司,0468616065-清苑县房地产开发有限公司-专变-46542565-屹立房地产,0387482475-保定振通市政路桥有限公司-专变-127715076-保定路新市政工程有限公司,保定路新市政工程有限公司1,保定屹立房地产开发有限公司,2西顾庄外1【纯农排变】,0678459067-清苑县房地产开发有限公司-专变-219717674-清苑县房地产开发有限公司,0628277150-和谐小区-专变-139787318-和谐小区,西顾庄新民居,1和谐四期诚信3号,2西顾庄外4【纯农排变】,1西顾庄和谐小区内7,1西顾庄和谐小区内4,保定路新2,保定路新3,1和谐园4号,西顾庄新面厂2,1西顾庄和谐小区内2,2西顾庄外7【纯农排变】,0669142787-和谐园五期工程-专变-210326552-和谐园五期工程,保定市朝辉房地产开发有限公司,清苑县房地产开发有限公司,1和谐四期诚信4号,1和谐四期诚信1号,2西顾庄外3【纯农排变】,1西顾庄和谐小区内9,1西顾庄和谐小区内6,西顾庄新面厂3,1西顾庄和谐小区内8,1和谐园5号,1和谐小区10,1西顾庄和谐小区内5,1西顾庄新民居1号,1和谐园1号,0387483175-保定屹立房地产开发有限公司-专变-216223177-保定屹立房地产开发有限公司,春光饮料厂,1和谐六期2号,西古庄新面厂,2西顾庄内2,1和谐四期诚信2号,1和谐六期1号,西顾庄内3,0387482912-西古庄东面厂-专变-45311021-西古庄东面厂,西古庄内1号,1西顾庄内4,1和谐园2号,1西顾庄和谐小区内3,和谐园四期工程,河北万方型建材有限公司,","scope":"【影响街道/乡镇】清苑镇 【高危重要客户】无 【影响客户】西顾庄、诚信园小区、新民居、和谐园","startTime":"2019-08-17 16:53:04","stopDate":"2019-08-17 18:00:00","orgNo":"1340618","typeCode":"电网故障停限电","poweroffArea":"【全线路停电】停1和谐园4号,1和谐小区10,1西顾庄和谐小区内5,1西顾庄和谐小区内7,1西顾庄和谐小区内4,保定路新2,保定路新3,西顾庄新面厂2,1西顾庄和谐小区内2,2西顾庄外7【纯农排变】,0669142787-和谐园五期工程-专变-210326552-和谐园五期工程,保定市朝辉房地产开发有限公司,2西顾庄外2【纯农排变】,河北万方新型建材有限公司,1和谐小区12,1西顾庄和谐小区内1,西顾庄小学,清苑县祥太水务有限责任公司,0468616065-清苑县房地产开发有限公司-专变-46542565-屹立房地产,0387482475-保定振通市政路桥有限公司-专变-127715076-保定路新市政工程有限公司,保定路新市政工程有限公司1,保定屹立房地产开发有限公司,2西顾庄外1【纯农排变】,0678459067-清苑县房地产开发有限公司-专变-219717674-清苑县房地产开发有限公司,0628277150-和谐小区-专变-139787318-和谐小区,西顾庄新民居,1和谐四期诚信3号,2西顾庄外4【纯农排变】,清苑县房地产开发有限公司,1和谐四期诚信4号,1和谐四期诚信1号,2西顾庄外3【纯农排变】,1西顾庄和谐小区内9,1西顾庄和谐小区内6,西顾庄新面厂3,1西顾庄和谐小区内8,1和谐园5号,1西顾庄新民居1号,1和谐园1号,0387483175-保定屹立房地产开发有限公司-专变-216223177-保定屹立房地产开发有限公司,河北万方型建材有限公司,春光饮料厂,1和谐六期2号,西古庄新面厂,2西顾庄内2,1和谐四期诚信2号,1和谐六期1号,西顾庄内3,0387482912-西古庄东面厂-专变-45311021-西古庄东面厂,西古庄内1号,1西顾庄内4,1和谐园2号,1西顾庄和谐小区内3,和谐园四期工程","poweroffReason":"【停电原因】由于主干３３号杆北Ｔ１号杆春光饮料厂避雷器击穿导致１１０ＫＶ中冉变电站１０ＫＶ西顾庄线５１７线路全线停电 【变更送电】因抢修进度加快原因，送电时间由２２：００变更为１８：００ 【发布渠道】通过９５５９８发布","powerTime":"2019-08-17 17:32:15","powerComm":"郝艳荣通知已送电","subsNo":"","lineNo":"","tgNo":"","tgName":null,"infoStatus":"1","orgName":"国网清苑县供电公司","typeName":null,"infoStatusName":null,"dateDay":null,"orgNos":null,"nowTime":null,"countyName":null,"streetName":null,"villageName":null,"roadName":null,"communityName":null,"tranName":null,"sdLineName":null,"cityCode":"1340618","cityName":"国网清苑县供电公司","provinceCode":null,"stopTime":"2019-08-17 18:00:00","powerType":"全部","powerOffArea":"【全线路停电】停1和谐园4号,1和谐小区10,1西顾庄和谐小区内5,1西顾庄和谐小区内7,1西顾庄和谐小区内4,保定路新2,保定路新3,西顾庄新面厂2,1西顾庄和谐小区内2,2西顾庄外7【纯农排变】,0669142787-和谐园五期工程-专变-210326552-和谐园五期工程,保定市朝辉房地产开发有限公司,2西顾庄外2【纯农排变】,河北万方新型建材有限公司,1和谐小区12,1西顾庄和谐小区内1,西顾庄小学,清苑县祥太水务有限责任公司,0468616065-清苑县房地产开发有限公司-专变-46542565-屹立房地产,0387482475-保定振通市政路桥有限公司-专变-127715076-保定路新市政工程有限公司,保定路新市政工程有限公司1,保定屹立房地产开发有限公司,2西顾庄外1【纯农排变】,0678459067-清苑县房地产开发有限公司-专变-219717674-清苑县房地产开发有限公司,0628277150-和谐小区-专变-139787318-和谐小区,西顾庄新民居,1和谐四期诚信3号,2西顾庄外4【纯农排变】,清苑县房地产开发有限公司,1和谐四期诚信4号,1和谐四期诚信1号,2西顾庄外3【纯农排变】,1西顾庄和谐小区内9,1西顾庄和谐小区内6,西顾庄新面厂3,1西顾庄和谐小区内8,1和谐园5号,1西顾庄新民居1号,1和谐园1号,0387483175-保定屹立房地产开发有限公司-专变-216223177-保定屹立房地产开发有限公司,河北万方型建材有限公司,春光饮料厂,1和谐六期2号,西古庄新面厂,2西顾庄内2,1和谐四期诚信2号,1和谐六期1号,西顾庄内3,0387482912-西古庄东面厂-专变-45311021-西古庄东面厂,西古庄内1号,1西顾庄内4,1和谐园2号,1西顾庄和谐小区内3,和谐园四期工程","powerOffReason":"【停电原因】由于主干３３号杆北Ｔ１号杆春光饮料厂避雷器击穿导致１１０ＫＶ中冉变电站１０ＫＶ西顾庄线５１７线路全线停电 【变更送电】因抢修进度加快原因，送电时间由２２：００变更为１８：００ 【发布渠道】通过９５５９８发布","powerOffId":"2019081713000187"},{"poweroffId":2019081713000156,"sgpoweroffId":null,"subsName":"","lineName":"北桥头515","pubTranName":"西留召村4#,南山北村4#村南【纯农排变】,龙王庙村5#村南,河北恩康牧业有限公司400,北山北村3#村西,南山北村2#变压器,东山北村7#村北,北山北村2#村西,北桥头村1#村东,东山北村1#村内,麻屋庄村北7号配变,北桥头村3#村西,东山北村3#村北,龙王庙村4#村北【纯农排变】,南山北村7#村北,北桥头村6#村内【纯农排变】,东山北村4#村东【纯农排变】,东山北村2#村东,南山北村5#村东,北桥头村2#村内,北桥头村7#【纯农排变】,西留召村1#村内,麻屋庄村3#村南（综）变压器,东山北9#台区,北桥头村8#村东,南山北村6#村北,麻屋庄路北东4#|,东山北村8#,北桥头村5#村南,南留召6号配变,北山南村1#村东,龙王庙村1#村东,龙王庙村6#村中,东山北村内10号配变,北桥头村10村内,北山北村1号村西,南山北村闫江变压器,南山北村1#村内,西留召村2#村内,西留召村3#村内【纯农排变】,易县公安局桥头派出所160KVA,北山北大队(蔺合春砖厂),麻屋庄村采矿1#,北桥头村12村东,麻屋庄村6号变压器,南山北钙粉厂(王术同),麻屋庄村路南2号,易县职教中心1000KVA-C,南留召村2#村北,北桥头村11村南,龙王庙村内2号,北桥头钙粉厂(王俊超),麻屋庄村5#路北,北山北村5号村东【纯农排变】,南留召村1#村内,南山北水泥厂(侯艳利),宗刚澎润土厂,南留召5号,南留召村3#村南【纯农排变】,南留召村4#村东,龙王庙村7#村东,麻屋庄村1#,北山北村4#村南,北山北村6#变压器,北桥头村4#河西,南山北村3#村东,北桥头村9#村北,龙王庙村3#村西【纯农排变】,东山北村6#村北,西留召5号配变,","scope":"【影响街道/乡镇】桥头乡【高危重要客户】无【影响客户】东张家庄、麻屋庄、龙王庙、南留召、西留召、南山北、东山北、北山北、北桥头","startTime":"2019-08-17 14:39:34","stopDate":"2019-08-17 16:00:00","orgNo":"1340625","typeCode":"电网故障停限电","poweroffArea":"【分支停电】停麻屋庄村采矿1#,北山北大队(蔺合春砖厂),北桥头村12村东,麻屋庄村6号变压器,南山北钙粉厂(王术同),麻屋庄村路南2号,易县职教中心1000KVA-C,南留召村2#村北,北桥头村11村南,龙王庙村内2号,北桥头钙粉厂(王俊超),麻屋庄村5#路北,北山北村5号村东【纯农排变】,南留召村1#村内,南山北水泥厂(侯艳利),宗刚澎润土厂,南留召5号,南留召村3#村南【纯农排变】,南留召村4#村东,南山北村3#村东,北桥头村9#村北,龙王庙村3#村西【纯农排变】,东山北村6#村北,西留召5号配变,北山北村1号村西,南山北村闫江变压器,南山北村1#村内,西留召村2#村内,西留召村3#村内【纯农排变】,易县公安局桥头派出所160KVA,东山北村2#村东,南山北村5#村东,东山北9#台区,北桥头村8#村东,南山北村6#村北,北桥头村10村内,龙王庙村7#村东,麻屋庄村1#,北山北村4#村南,北山北村6#变压器,北桥头村4#河西,麻屋庄路北东4#|,东山北村8#,北桥头村5#村南,南留召6号配变,北山南村1#村东,龙王庙村1#村东,龙王庙村6#村中,东山北村内10号配变,西留召村4#,南山北村4#村南【纯农排变】,龙王庙村5#村南,河北恩康牧业有限公司400,北山北村3#村西,南山北村2#变压器,东山北村7#村北,北山北村2#村西,北桥头村1#村东,东山北村1#村内,麻屋庄村北7号配变,北桥头村3#村西,东山北村3#村北,龙王庙村4#村北【纯农排变】,南山北村7#村北,北桥头村6#村内【纯农排变】,东山北村4#村东【纯农排变】,北桥头村2#村内,北桥头村7#【纯农排变】,西留召村1#村内,麻屋庄村3#村南（综）变压器","poweroffReason":"【停电原因】由于开关跳闸导致３５ＫＶ燕城变电站北桥头５１５线路００７号杆至０５７号杆之间停电【变更送电】因抢修进度加快原因，送电时间由１７：３０变更为１４：００【发布渠道】通过９５５９８发布","powerTime":"2019-08-17 15:19:17","powerComm":"已送电","subsNo":"","lineNo":"","tgNo":"","tgName":null,"infoStatus":"1","orgName":"国网易县供电公司","typeName":null,"infoStatusName":null,"dateDay":null,"orgNos":null,"nowTime":null,"countyName":null,"streetName":null,"villageName":null,"roadName":null,"communityName":null,"tranName":null,"sdLineName":null,"cityCode":"1340625","cityName":"国网易县供电公司","provinceCode":null,"stopTime":"2019-08-17 16:00:00","powerType":"全部","powerOffArea":"【分支停电】停麻屋庄村采矿1#,北山北大队(蔺合春砖厂),北桥头村12村东,麻屋庄村6号变压器,南山北钙粉厂(王术同),麻屋庄村路南2号,易县职教中心1000KVA-C,南留召村2#村北,北桥头村11村南,龙王庙村内2号,北桥头钙粉厂(王俊超),麻屋庄村5#路北,北山北村5号村东【纯农排变】,南留召村1#村内,南山北水泥厂(侯艳利),宗刚澎润土厂,南留召5号,南留召村3#村南【纯农排变】,南留召村4#村东,南山北村3#村东,北桥头村9#村北,龙王庙村3#村西【纯农排变】,东山北村6#村北,西留召5号配变,北山北村1号村西,南山北村闫江变压器,南山北村1#村内,西留召村2#村内,西留召村3#村内【纯农排变】,易县公安局桥头派出所160KVA,东山北村2#村东,南山北村5#村东,东山北9#台区,北桥头村8#村东,南山北村6#村北,北桥头村10村内,龙王庙村7#村东,麻屋庄村1#,北山北村4#村南,北山北村6#变压器,北桥头村4#河西,麻屋庄路北东4#|,东山北村8#,北桥头村5#村南,南留召6号配变,北山南村1#村东,龙王庙村1#村东,龙王庙村6#村中,东山北村内10号配变,西留召村4#,南山北村4#村南【纯农排变】,龙王庙村5#村南,河北恩康牧业有限公司400,北山北村3#村西,南山北村2#变压器,东山北村7#村北,北山北村2#村西,北桥头村1#村东,东山北村1#村内,麻屋庄村北7号配变,北桥头村3#村西,东山北村3#村北,龙王庙村4#村北【纯农排变】,南山北村7#村北,北桥头村6#村内【纯农排变】,东山北村4#村东【纯农排变】,北桥头村2#村内,北桥头村7#【纯农排变】,西留召村1#村内,麻屋庄村3#村南（综）变压器","powerOffReason":"【停电原因】由于开关跳闸导致３５ＫＶ燕城变电站北桥头５１５线路００７号杆至０５７号杆之间停电【变更送电】因抢修进度加快原因，送电时间由１７：３０变更为１４：００【发布渠道】通过９５５９８发布","powerOffId":"2019081713000156"}],"pageModel":{"pageNow":640,"totalCount":10973,"totalPage":1098,"tableRows":0,"pageCount":10,"beginCount":6390},"isExperi":"1"}