{"message":"","today":"2020-06-15","seleList":[{"poweroffId":2019081713000114,"sgpoweroffId":null,"subsName":"","lineName":"10KV东垒子515","pubTranName":"东垒子煤矿台区,","scope":"【影响街道/乡镇】永阳镇 【高危重要客户】无 【影响客户】东垒子村","startTime":"2019-08-17 10:54:54","stopDate":"2019-08-17 16:00:00","orgNo":"1340614","typeCode":"电网故障停限电","poweroffArea":"【单台区停电】停东垒子煤矿台区","poweroffReason":"【停电原因】由于电缆烧毁导致３５ＫＶ永阳变电站１０ＫＶ东垒子５１５线路东垒子煤矿公变台区停电 【变更送电】因抢修进度加快原因，送电时间由１８：３０变更为１６：００ 【发布渠道】通过９５５９８发布","powerTime":"2019-08-17 15:43:46","powerComm":"已送电","subsNo":"","lineNo":"","tgNo":"","tgName":null,"infoStatus":"1","orgName":"国网涞水县供电公司","typeName":null,"infoStatusName":null,"dateDay":null,"orgNos":null,"nowTime":null,"countyName":null,"streetName":null,"villageName":null,"roadName":null,"communityName":null,"tranName":null,"sdLineName":null,"cityCode":"1340614","cityName":"国网涞水县供电公司","provinceCode":null,"stopTime":"2019-08-17 16:00:00","powerType":"全部","powerOffArea":"【单台区停电】停东垒子煤矿台区","powerOffReason":"【停电原因】由于电缆烧毁导致３５ＫＶ永阳变电站１０ＫＶ东垒子５１５线路东垒子煤矿公变台区停电 【变更送电】因抢修进度加快原因，送电时间由１８：３０变更为１６：００ 【发布渠道】通过９５５９８发布","powerOffId":"2019081713000114"},{"poweroffId":2019081713000081,"sgpoweroffId":null,"subsName":"","lineName":"阳光线521","pubTranName":"富民路公变变压器,","scope":"【影响街道/乡镇】富民路 【高危重要客户】无 【影响客户】气象局平房、新华书店及门脸、武装部门脸","startTime":"2019-08-18 06:00:00","stopDate":"2019-08-18 16:00:00","orgNo":"1340612","typeCode":"其他临时停电","poweroffArea":"【单台区停电】停富民路公变变压器","poweroffReason":"【停电原因】由于更换低压导线导致１１０ＫＶ马庄变电站１０ＫＶ阳光５２１线路富民路公变台区停电 【变更送电】无 【发布渠道】通过９５５９８发布","powerTime":"2019-08-18 15:44:02","powerComm":"已送电","subsNo":"","lineNo":"","tgNo":"","tgName":null,"infoStatus":"1","orgName":"国网高碑店市供电公司","typeName":null,"infoStatusName":null,"dateDay":null,"orgNos":null,"nowTime":null,"countyName":null,"streetName":null,"villageName":null,"roadName":null,"communityName":null,"tranName":null,"sdLineName":null,"cityCode":"1340612","cityName":"国网高碑店市供电公司","provinceCode":null,"stopTime":"2019-08-18 16:00:00","powerType":"全部","powerOffArea":"【单台区停电】停富民路公变变压器","powerOffReason":"【停电原因】由于更换低压导线导致１１０ＫＶ马庄变电站１０ＫＶ阳光５２１线路富民路公变台区停电 【变更送电】无 【发布渠道】通过９５５９８发布","powerOffId":"2019081713000081"},{"poweroffId":2019081713000073,"sgpoweroffId":null,"subsName":"","lineName":"大盘石511","pubTranName":"南款村17#唐岭沟,三里铺2#,玉山铺村2#|村西,南款村16#学校,小盘石村3#|村西,南款村1#|村西,大盘石村1#|村内,白家庄村3#村北,南款村7#村南,大盘石村3#|村西,南款村19#唐家洼,玉山铺村13#,大盘石村8#村西,碾子沟村7#,大盘石村6#村北,南款村11#1队,玉山铺村9#南沟,南款村6#新坎上,小盘石村1#|村内,南款村13#3队,大盘石村9#村西,南款村8#村东,白家庄村1#|村内,碾子沟村5#,南款村15#5队,南款村10#村东,碾子沟村8#,玉山铺村12#片头,碾子沟1#|变压器,三里铺村1#|道班,南款村2#2队,玉山铺村11#园菜沟,三里铺村4#村北,小盘石村7#村内,玉山铺村5#村东,汉仗村1#|村内,玉山铺村4#村东,小盘石村5#村北,小盘石村2#|村东,南款村5#村内,玉山铺村1#|村东,白家庄村2#台区,小盘石村6#村东,汉仗村3#变压器,小盘石村8#村内,南款村12#,南款村3#|村东,三里铺村5#村南,大盘石村2#|村东,三里铺3#,大盘石村7#村南,南款村14#4队,汉仗村2#村东,碾子沟村4#村东,三里铺村6#桥,玉山铺村8#刁将会,三里铺7#,南款4#,紫荆关村11,汉仗村4#变压器,南款村9#村北,玉山铺村7#刁将会,白家庄村5#村南,玉山铺10#南沟,碾子沟村6#,南款村18#10队,","scope":"【影响街道/乡镇】紫荆关镇【高危重要客户】无【影响客户】三里铺村、南款村、玉山铺村、汉丈村、大盘石村、白家庄村、碾子沟村、小盘石村","startTime":"2019-08-17 09:18:49","stopDate":"2019-08-17 11:00:00","orgNo":"1340625","typeCode":"电网故障停限电","poweroffArea":"【分支停电】停三里铺村5#村南,大盘石村2#|村东,三里铺3#,大盘石村7#村南,南款村14#4队,汉仗村2#村东,碾子沟村4#村东,三里铺村6#桥,三里铺7#,南款4#,紫荆关村11,汉仗村4#变压器,南款村9#村北,玉山铺村7#刁将会,白家庄村5#村南,玉山铺10#南沟,碾子沟村6#,南款村18#10队,南款村16#学校,小盘石村3#|村西,南款村1#|村西,大盘石村1#|村内,白家庄村3#村北,南款村7#村南,大盘石村3#|村西,南款村19#唐家洼,玉山铺村13#,大盘石村8#村西,碾子沟村7#,大盘石村6#村北,南款村11#1队,玉山铺村9#南沟,三里铺2#,玉山铺村2#|村西,南款村17#唐岭沟,小盘石村1#|村内,南款村13#3队,大盘石村9#村西,南款村8#村东,白家庄村1#|村内,碾子沟村5#,南款村15#5队,南款村10#村东,碾子沟村8#,玉山铺村12#片头,碾子沟1#|变压器,三里铺村1#|道班,南款村2#2队,玉山铺村11#园菜沟,三里铺村4#村北,小盘石村7#村内,玉山铺村5#村东,汉仗村1#|村内,玉山铺村4#村东,小盘石村5#村北,小盘石村2#|村东,南款村5#村内,玉山铺村1#|村东,白家庄村2#台区,小盘石村6#村东,汉仗村3#变压器,小盘石村8#村内,南款村12#,南款村3#|村东,玉山铺村8#刁将会,南款村6#新坎上","poweroffReason":"【停电原因】由于树砸断线造成断路器跳闸导致３５ＫＶ大兴安变电站大盘石５１１线路主干０５７号杆０２号断路器以下线路停电【变更送电】因抢修进度加快原因，送电时间由１２：００变更为１１：００【发布渠道】通过９５５９８发布","powerTime":"2019-08-17 10:27:18","powerComm":"已送电","subsNo":"","lineNo":"","tgNo":"","tgName":null,"infoStatus":"1","orgName":"国网易县供电公司","typeName":null,"infoStatusName":null,"dateDay":null,"orgNos":null,"nowTime":null,"countyName":null,"streetName":null,"villageName":null,"roadName":null,"communityName":null,"tranName":null,"sdLineName":null,"cityCode":"1340625","cityName":"国网易县供电公司","provinceCode":null,"stopTime":"2019-08-17 11:00:00","powerType":"全部","powerOffArea":"【分支停电】停三里铺村5#村南,大盘石村2#|村东,三里铺3#,大盘石村7#村南,南款村14#4队,汉仗村2#村东,碾子沟村4#村东,三里铺村6#桥,三里铺7#,南款4#,紫荆关村11,汉仗村4#变压器,南款村9#村北,玉山铺村7#刁将会,白家庄村5#村南,玉山铺10#南沟,碾子沟村6#,南款村18#10队,南款村16#学校,小盘石村3#|村西,南款村1#|村西,大盘石村1#|村内,白家庄村3#村北,南款村7#村南,大盘石村3#|村西,南款村19#唐家洼,玉山铺村13#,大盘石村8#村西,碾子沟村7#,大盘石村6#村北,南款村11#1队,玉山铺村9#南沟,三里铺2#,玉山铺村2#|村西,南款村17#唐岭沟,小盘石村1#|村内,南款村13#3队,大盘石村9#村西,南款村8#村东,白家庄村1#|村内,碾子沟村5#,南款村15#5队,南款村10#村东,碾子沟村8#,玉山铺村12#片头,碾子沟1#|变压器,三里铺村1#|道班,南款村2#2队,玉山铺村11#园菜沟,三里铺村4#村北,小盘石村7#村内,玉山铺村5#村东,汉仗村1#|村内,玉山铺村4#村东,小盘石村5#村北,小盘石村2#|村东,南款村5#村内,玉山铺村1#|村东,白家庄村2#台区,小盘石村6#村东,汉仗村3#变压器,小盘石村8#村内,南款村12#,南款村3#|村东,玉山铺村8#刁将会,南款村6#新坎上","powerOffReason":"【停电原因】由于树砸断线造成断路器跳闸导致３５ＫＶ大兴安变电站大盘石５１１线路主干０５７号杆０２号断路器以下线路停电【变更送电】因抢修进度加快原因，送电时间由１２：００变更为１１：００【发布渠道】通过９５５９８发布","powerOffId":"2019081713000073"},{"poweroffId":2019081713000064,"sgpoweroffId":null,"subsName":"","lineName":"义和庄线524","pubTranName":"王迪,朱利民,华威皮革制品厂,李明亮,王永田,王铁军,郭建明,李二旺,李贺群,张老黑,变压器,张民（百得时代地下室区）变压器,0607976047-白金柱-专变-127454291-变压器,付宇,宋建辉变压器,0387441566-富润花园3-专变-45278687-吕锁成3,王玉才,永轩变压器,苏艳华,0387442048-海宏工业有限公司-专变-45278576-海宏工业有限公司,魏国旺,白沟土地分局,移动公司变压器,110站变,0387442426-公安局1-专变-45278785-公安局1,0387443230保定辰鼎物业服务有限公司,张民（百得时代西区）变压器,京呈口腔,0387441058-白沟镇富润花园小区-专变-45278645-白沟镇富润花园小区,张根青,公安局2,0387442006-高秋生-专变-45278565-高秋生,0387442396-富润花园4-专变-45278566-吕锁成4,变压器160,金开元二期,张春晖,吕锁成2,凤凰城物业2,凤凰城物业1,鹏飞伟业变台,凤凰城2,董振良（秀水华庭）变台,","scope":"【影响街道/乡镇】五一路、京白路、富民路、北一环 【高危重要客户】凤凰城小区、土地分局、公安小区、晨鼎小区、京呈口腔 【影响客户】保定辰鼎物业服务有限公司、王铁军、北京时代风尚房地产开发有限公司（时代东）、百德时代、高碑店市鹏飞伟业房地产开发有限公司、白金柱、中国铁塔股份有限公司保定市分公司、土普家园三期、土普家园二期、高秋生、保定市国土资源局白沟新城分局、公安局、中国移动通信集团河北有限公司保定分公司、现代城市花园、土普家园小区、宋建辉、土普家园二期商业、李二旺、郭建明、保定白沟吉兆隆无纺布厂、朱利民、魏建磊、保定黛莱箱包服饰制造有限公司（李贺群）、李明亮、王永田、高碑店市昌宏化纤有限公司、王迪、华威皮革制品厂、保定博永商贸有限公司、白沟巴拉都皮具有限公司、高碑店市白沟魏庄小区、高碑店市双力塑胶有限责任公司、保定白沟新城和同物业有限公司（秀水华庭小区）、高碑店市鑫远房地产开发有限公司（金开元小区）、河北格丽亚皮具有限公司、白沟新城建设规划局、保定白沟新城恒睿塑胶制品厂、张根青、金开元小区二期、张老黑、保定白沟新城和同物业有限公司、保定润和房地产开发有限公司（梧桐苑）、海宏","startTime":"2019-08-26 06:00:00","stopDate":"2019-08-26 16:00:00","orgNo":"1340612","typeCode":"计划停电","poweroffArea":"【全线路停电】停王迪,朱利民,华威皮革制品厂,李明亮,王永田,王铁军,郭建明,李二旺,李贺群,张老黑,变压器,张民（百得时代地下室区）变压器,0607976047-白金柱-专变-127454291-变压器,付宇,宋建辉变压器,0387441566-富润花园3-专变-45278687-吕锁成3,王玉才,永轩变压器,苏艳华,0387442048-海宏工业有限公司-专变-45278576-海宏工业有限公司,魏国旺,白沟土地分局,移动公司变压器,110站变,0387442426-公安局1-专变-45278785-公安局1,0387443230保定辰鼎物业服务有限公司,张民（百得时代西区）变压器,京呈口腔,0387441058-白沟镇富润花园小区-专变-45278645-白沟镇富润花园小区,张根青,公安局2,0387442006-高秋生-专变-45278565-高秋生,0387442396-富润花园4-专变-45278566-吕锁成4,变压器160,金开元二期,张春晖,吕锁成2,凤凰城物业2,凤凰城物业1,鹏飞伟业变台,凤凰城2,董振良（秀水华庭）变台","poweroffReason":"【停电原因】由于换线导致１１０ＫＶ白沟变电站１０ＫＶ义和庄５２４线路全线停电 【变更送电】无 【发布渠道】高碑店市高碑店电视台（８月１８日０８时至８月２５日１８时之间）屏幕上方滚动","powerTime":"2019-08-26 15:05:04","powerComm":"已送电","subsNo":"","lineNo":"","tgNo":"","tgName":null,"infoStatus":"1","orgName":"国网高碑店市供电公司","typeName":null,"infoStatusName":null,"dateDay":null,"orgNos":null,"nowTime":null,"countyName":null,"streetName":null,"villageName":null,"roadName":null,"communityName":null,"tranName":null,"sdLineName":null,"cityCode":"1340612","cityName":"国网高碑店市供电公司","provinceCode":null,"stopTime":"2019-08-26 16:00:00","powerType":"全部","powerOffArea":"【全线路停电】停王迪,朱利民,华威皮革制品厂,李明亮,王永田,王铁军,郭建明,李二旺,李贺群,张老黑,变压器,张民（百得时代地下室区）变压器,0607976047-白金柱-专变-127454291-变压器,付宇,宋建辉变压器,0387441566-富润花园3-专变-45278687-吕锁成3,王玉才,永轩变压器,苏艳华,0387442048-海宏工业有限公司-专变-45278576-海宏工业有限公司,魏国旺,白沟土地分局,移动公司变压器,110站变,0387442426-公安局1-专变-45278785-公安局1,0387443230保定辰鼎物业服务有限公司,张民（百得时代西区）变压器,京呈口腔,0387441058-白沟镇富润花园小区-专变-45278645-白沟镇富润花园小区,张根青,公安局2,0387442006-高秋生-专变-45278565-高秋生,0387442396-富润花园4-专变-45278566-吕锁成4,变压器160,金开元二期,张春晖,吕锁成2,凤凰城物业2,凤凰城物业1,鹏飞伟业变台,凤凰城2,董振良（秀水华庭）变台","powerOffReason":"【停电原因】由于换线导致１１０ＫＶ白沟变电站１０ＫＶ义和庄５２４线路全线停电 【变更送电】无 【发布渠道】高碑店市高碑店电视台（８月１８日０８时至８月２５日１８时之间）屏幕上方滚动","powerOffId":"2019081713000064"},{"poweroffId":2019081713000062,"sgpoweroffId":null,"subsName":"","lineName":"大高线522","pubTranName":"仁和小区北,仁和小区南,弘华伊顿(北京)国际教育投资有限公司变压器,王梦端,0683953046-仁和庄5号变台-专变-223537035-变压器,赵金山,0387444549-隆基泰和实业有限公司白沟分公司(汽配汽贸城大厅)-专变-45279414-隆基泰和实业有限公司白沟分公司（汽配汽贸城大厅）,0686701202-保定天德供水有限公司-专变-226885144-变压器,保定白沟新城二胖百货商贸经营部计量点,南留中,回顺民,河北乾城房地产开发有限公司变压器,南留南（2）,付英奎,肖小军,刘建民,刘声,雅典皇宫,刘宏生,白沟新城顺达织带厂变压器,政府办公楼,天桥东,变压器,凤凰城,南留南,天津街2,天奕,仁和庄10变台变压器,李玉山变压器,天津街3号公变,周新,天津街南,电子大厦东,保定恒勤房地产开发有限公司变压器,刘国强变压器,","scope":"【影响街道/乡镇】富民大街、京白路、五一路、天津街 【高危重要客户】白沟镇政府、仁和庄小区、凤凰城小区、政府小区 【影响客户】乾城地产、天奕商厦、鹏飞伟业、刘声（钟声革业)、王启龙（凤凰城）、董振良、综合办、永强塑胶、卓伟酒店、顺达辅料、肖小军、天德供水、刘宏生、合义轩李洪亮、回民刘国强、王立新、李辉(武警幼儿园）、李永旺、金山商标厂赵金山、富源厂刘建民、仁合家园小区、王梦端、泰鑫辅料、创实化纤厂、弘华伊顿","startTime":"2019-08-26 06:00:00","stopDate":"2019-08-26 16:00:00","orgNo":"1340612","typeCode":"计划停电","poweroffArea":"【全线路停电】停刘建民,仁和小区北,仁和小区南,弘华伊顿(北京)国际教育投资有限公司变压器,王梦端,0683953046-仁和庄5号变台-专变-223537035-变压器,赵金山,0387444549-隆基泰和实业有限公司白沟分公司(汽配汽贸城大厅)-专变-45279414-隆基泰和实业有限公司白沟分公司（汽配汽贸城大厅）,0686701202-保定天德供水有限公司-专变-226885144-变压器,保定白沟新城二胖百货商贸经营部计量点,南留中,回顺民,河北乾城房地产开发有限公司变压器,南留南（2）,付英奎,肖小军,刘声,雅典皇宫,刘宏生,白沟新城顺达织带厂变压器,政府办公楼,天桥东,变压器,凤凰城,南留南,天津街2,天奕,仁和庄10变台变压器,李玉山变压器,天津街3号公变,周新,天津街南,电子大厦东,保定恒勤房地产开发有限公司变压器,刘国强变压器","poweroffReason":"【停电原因】由于换线导致１１０ＫＶ白沟变电站１０ＫＶ大高５２２线路全线停电 【变更送电】无 【发布渠道】高碑店市高碑店电视台（８月１８日０８时至８月２５日１８时之间）屏幕上方滚动","powerTime":"2019-08-26 15:06:06","powerComm":"已送电","subsNo":"","lineNo":"","tgNo":"","tgName":null,"infoStatus":"1","orgName":"国网高碑店市供电公司","typeName":null,"infoStatusName":null,"dateDay":null,"orgNos":null,"nowTime":null,"countyName":null,"streetName":null,"villageName":null,"roadName":null,"communityName":null,"tranName":null,"sdLineName":null,"cityCode":"1340612","cityName":"国网高碑店市供电公司","provinceCode":null,"stopTime":"2019-08-26 16:00:00","powerType":"全部","powerOffArea":"【全线路停电】停刘建民,仁和小区北,仁和小区南,弘华伊顿(北京)国际教育投资有限公司变压器,王梦端,0683953046-仁和庄5号变台-专变-223537035-变压器,赵金山,0387444549-隆基泰和实业有限公司白沟分公司(汽配汽贸城大厅)-专变-45279414-隆基泰和实业有限公司白沟分公司（汽配汽贸城大厅）,0686701202-保定天德供水有限公司-专变-226885144-变压器,保定白沟新城二胖百货商贸经营部计量点,南留中,回顺民,河北乾城房地产开发有限公司变压器,南留南（2）,付英奎,肖小军,刘声,雅典皇宫,刘宏生,白沟新城顺达织带厂变压器,政府办公楼,天桥东,变压器,凤凰城,南留南,天津街2,天奕,仁和庄10变台变压器,李玉山变压器,天津街3号公变,周新,天津街南,电子大厦东,保定恒勤房地产开发有限公司变压器,刘国强变压器","powerOffReason":"【停电原因】由于换线导致１１０ＫＶ白沟变电站１０ＫＶ大高５２２线路全线停电 【变更送电】无 【发布渠道】高碑店市高碑店电视台（８月１８日０８时至８月２５日１８时之间）屏幕上方滚动","powerOffId":"2019081713000062"},{"poweroffId":2019081713000057,"sgpoweroffId":null,"subsName":"","lineName":"涿仝548","pubTranName":"南芦村东,","scope":"【影响街道/乡镇】码头镇 【高危重要客户】无 【影响客户】南芦村","startTime":"2019-08-27 06:00:00","stopDate":"2019-08-27 18:00:00","orgNo":"1340626","typeCode":"计划停电","poweroffArea":"【单台区停电】停南芦村东","poweroffReason":"【停电原因】由于更换金具及导线导致２２０ＫＶ党庄变电站涿仝５４８线路南芦村东公变台区停电 【变更送电】无 【发布渠道】涿州电视台（０８月１７日至０８月２６日２１：００播放２次）屏幕上方滚动","powerTime":"2019-08-27 17:40:27","powerComm":"恢复送电","subsNo":"","lineNo":"","tgNo":"","tgName":null,"infoStatus":"1","orgName":"国网涿州市供电公司","typeName":null,"infoStatusName":null,"dateDay":null,"orgNos":null,"nowTime":null,"countyName":null,"streetName":null,"villageName":null,"roadName":null,"communityName":null,"tranName":null,"sdLineName":null,"cityCode":"1340626","cityName":"国网涿州市供电公司","provinceCode":null,"stopTime":"2019-08-27 18:00:00","powerType":"全部","powerOffArea":"【单台区停电】停南芦村东","powerOffReason":"【停电原因】由于更换金具及导线导致２２０ＫＶ党庄变电站涿仝５４８线路南芦村东公变台区停电 【变更送电】无 【发布渠道】涿州电视台（０８月１７日至０８月２６日２１：００播放２次）屏幕上方滚动","powerOffId":"2019081713000057"},{"poweroffId":2019081713000055,"sgpoweroffId":null,"subsName":"","lineName":"东盛514","pubTranName":"东盛闫各庄东变压器,东盛闫各庄排灌变压器【纯农排变】,东盛闫各庄西变压器,张八屯水洗厂,高碑店市恒安房地产开发有限公司,高碑店市路灯管理办公室变压器,高碑店市山农生物有限公司变压器,高碑店市丰原汽车配件厂变压器,张八屯水洗,保定市隆和房地产开发有限公司,高碑店市路灯管理办公室（新华大街闫各庄西路灯）,高碑店市建设局,高碑店市路灯管理办公室（光华北大街路灯）变压器,","scope":"【影响街道/乡镇】东盛办事处 【高危重要客户】无 【影响客户】闫各庄村、路灯管理办公室、丰原汽车配件厂、高碑店市山农生物有限公司、高碑店市运恒土地整理有限公司、河北隆泰物业服务、宏德机加工综合厂、张八屯水洗厂、保定市隆和房地产、高碑店市建设局、恒安房地产、河北赢石建筑工程有限公司","startTime":"2019-08-26 04:00:00","stopDate":"2019-08-26 07:00:00","orgNo":"1340612","typeCode":"计划停电","poweroffArea":"【分支停电】停东盛闫各庄东变压器,东盛闫各庄排灌变压器【纯农排变】,东盛闫各庄西变压器,张八屯水洗厂,高碑店市恒安房地产开发有限公司,高碑店市路灯管理办公室变压器,高碑店市山农生物有限公司变压器,高碑店市丰原汽车配件厂变压器,张八屯水洗,保定市隆和房地产开发有限公司,高碑店市路灯管理办公室（新华大街闫各庄西路灯）,高碑店市建设局,高碑店市路灯管理办公室（光华北大街路灯）变压器","poweroffReason":"【停电原因】由于电源接引导致１１０ＫＶ方家务变电站１０ＫＶ东盛５１４线路０２号断路器以下停电 【变更送电】因抢修进度加快原因，送电时间由０８：００变更为０７：００ 【发布渠道】高碑店市高碑店电视台（８月１８日０８时至８月２５日１８时之间）屏幕上方滚动","powerTime":"2019-08-26 06:28:05","powerComm":"已送电","subsNo":"","lineNo":"","tgNo":"","tgName":null,"infoStatus":"1","orgName":"国网高碑店市供电公司","typeName":null,"infoStatusName":null,"dateDay":null,"orgNos":null,"nowTime":null,"countyName":null,"streetName":null,"villageName":null,"roadName":null,"communityName":null,"tranName":null,"sdLineName":null,"cityCode":"1340612","cityName":"国网高碑店市供电公司","provinceCode":null,"stopTime":"2019-08-26 07:00:00","powerType":"全部","powerOffArea":"【分支停电】停东盛闫各庄东变压器,东盛闫各庄排灌变压器【纯农排变】,东盛闫各庄西变压器,张八屯水洗厂,高碑店市恒安房地产开发有限公司,高碑店市路灯管理办公室变压器,高碑店市山农生物有限公司变压器,高碑店市丰原汽车配件厂变压器,张八屯水洗,保定市隆和房地产开发有限公司,高碑店市路灯管理办公室（新华大街闫各庄西路灯）,高碑店市建设局,高碑店市路灯管理办公室（光华北大街路灯）变压器","powerOffReason":"【停电原因】由于电源接引导致１１０ＫＶ方家务变电站１０ＫＶ东盛５１４线路０２号断路器以下停电 【变更送电】因抢修进度加快原因，送电时间由０８：００变更为０７：００ 【发布渠道】高碑店市高碑店电视台（８月１８日０８时至８月２５日１８时之间）屏幕上方滚动","powerOffId":"2019081713000055"},{"poweroffId":2019081713000054,"sgpoweroffId":null,"subsName":"","lineName":"城北534","pubTranName":"保定隆和房地产开发有限公司,","scope":"【影响街道/乡镇】东盛办事处 【高危重要客户】无 【影响客户】隆基泰和房地产开发有限公司","startTime":"2019-08-26 06:00:00","stopDate":"2019-08-26 08:00:00","orgNo":"1340612","typeCode":"计划停电","poweroffArea":"【全线路停电】停保定隆和房地产开发有限公司","poweroffReason":"【停电原因】由于电源接引导致１１０ＫＶ方官变电站１０ＫＶ城北５３４线路全线停电 【变更送电】无 【发布渠道】高碑店市高碑店电视台（８月１８日０８时至８月２５日１８时之间）屏幕上方滚动","powerTime":"2019-08-26 07:16:50","powerComm":"已送电","subsNo":"","lineNo":"","tgNo":"","tgName":null,"infoStatus":"1","orgName":"国网高碑店市供电公司","typeName":null,"infoStatusName":null,"dateDay":null,"orgNos":null,"nowTime":null,"countyName":null,"streetName":null,"villageName":null,"roadName":null,"communityName":null,"tranName":null,"sdLineName":null,"cityCode":"1340612","cityName":"国网高碑店市供电公司","provinceCode":null,"stopTime":"2019-08-26 08:00:00","powerType":"全部","powerOffArea":"【全线路停电】停保定隆和房地产开发有限公司","powerOffReason":"【停电原因】由于电源接引导致１１０ＫＶ方官变电站１０ＫＶ城北５３４线路全线停电 【变更送电】无 【发布渠道】高碑店市高碑店电视台（８月１８日０８时至８月２５日１８时之间）屏幕上方滚动","powerOffId":"2019081713000054"},{"poweroffId":2019081713000053,"sgpoweroffId":null,"subsName":"","lineName":"新发地533","pubTranName":"杜家营10变压器,东盛党家营地变压器【纯农排变】,0586499061-高碑店市路灯管理办公室-专变-125125578-高碑店市路灯管理办公室变压器,钱家营13号变压器,河北鼎誉房地产开发有限公司400KVA变压器,杜家营07变压器,隆基泰和置业有限公司高碑店分公司1,杜家营03变压器,杜家营04变压器,0387451512-河北英泰环境工程有限公司-专变-219728329-河北英泰环境工程有限公司2变压器,高碑店市华永房地产开发有限公司1,东盛冯漫撒东变压器【纯农排变】,钱家营11号变压器,东盛杜家营南地变压器【纯农排变】,隆基泰和置业有限公司高碑店分公司2,钱家营01号变压器,杜家营01变压器,高碑店市城市管理综合执法局兴隆1号,党家营01号变压器,河北弘盛实业有限公司变压器,河北路云乾房地产开发有限公司2变压器,钱家营07号变压器,河北鼎誉房地产开发有限公司100KVA变压器,钱家营14号变压器,隆基泰和置业有限公司高碑店分公司3,隆基泰和置业有限公司高碑店分公司,汇通路桥建设集团再生水建设有限公司1#变压器,杜家营08变压器,杜家营05变压器,钱家营08号变压器,汇通路桥建设集团再生水建设有限公司2#变压器,杜家营12变压器,高碑店市路灯管理办公室,钱家营17号变压器,钱家营05号变压器,河北英泰环境工程有限公司,钱家营02号变压器,河北路云乾房地产开发有限公司1变压器,0645126211-河北阿苏尔门窗材料科技有限公司-专变-169310323-河北阿苏尔门窗材料科技有限公司变压器,钱家营10号变压器,高碑店市城市管理综合执法局世纪大道2号,河北双欧房地产开发有限公司,东盛杜家营北变压器,0387451567-新凯汽车集团有限公司-专变-45283709-新凯汽车集团有限公司,东盛杜家营变压器,东盛杜家营西变压器,党家营02号变压器,高碑店市城市管理综合执法局112国道1号,汇通路桥建设集团有限公司变压器,高碑店市路灯管理办公室变压器,钱家营09号变压器,党家营04号变压器,高碑店市华永房地产开发有限公司2,高碑店市栋梁实业有限公司变压器,新凯汽车集团有限公司,杜家营09变压器,高碑店市建设局变压器,杜家营11变压器,钱家营03号变压器,隆基泰和实业有限公司,高碑店市东盛初级中学,高碑店市城市管理综合执法局112国道3号,高碑店市路灯管理办公室（世纪大道东侧）变压器,0575654804-高碑店市三义厚再生水建设有限公司-专变-123981594-汇通路桥建设集团有限公司变压器,东盛杜家营北地变压器【纯农排变】,杜家营02变压器,钱家营16号变压器,党家营05号变压器,杜家营06变压器,高碑店市华永房地产开发有限公司,钱家营12号变压器,钱家营06号变压器,东盛温屯南变压器,东盛国成玻璃变压器,刘长军,钱家营15号变压器,钱家营04号变压器,党家营03号变压器,","scope":"【影响街道/乡镇】东盛办事处 【高危重要客户】污水处理厂、新凯、汇通路桥 【影响客户】党家营村、杜家营村、钱家营村、相思泉饮料有限公司、恒安房地产、隆基泰和置业有限公司高碑店分公司、清波水务科技有限公司、建设局、栋梁实业有限公司、路灯管理办公室、人和物业、河北路云乾房地产、隆基泰和实业有限公司、河北弘盛实业有限公司、河北阿苏尔门窗材料科技有限公司、石家庄乾荣房地产、安洁物业、汇通图腾国际物流有限公司","startTime":"2019-08-26 06:00:00","stopDate":"2019-08-26 08:00:00","orgNo":"1340612","typeCode":"计划停电","poweroffArea":"【全线路停电】停钱家营09号变压器,党家营04号变压器,高碑店市华永房地产开发有限公司2,高碑店市栋梁实业有限公司变压器,新凯汽车集团有限公司,杜家营09变压器,隆基泰和置业有限公司高碑店分公司2,高碑店市建设局变压器,杜家营11变压器,钱家营03号变压器,隆基泰和实业有限公司,高碑店市东盛初级中学,隆基泰和置业有限公司高碑店分公司,汇通路桥建设集团再生水建设有限公司1#变压器,杜家营08变压器,杜家营05变压器,钱家营08号变压器,高碑店市路灯管理办公室（世纪大道东侧）变压器,高碑店市城市管理综合执法局112国道3号,钱家营16号变压器,党家营05号变压器,杜家营06变压器,高碑店市华永房地产开发有限公司,钱家营12号变压器,钱家营06号变压器,东盛温屯南变压器,东盛国成玻璃变压器,刘长军,钱家营15号变压器,党家营03号变压器,党家营02号变压器,0575654804-高碑店市三义厚再生水建设有限公司-专变-123981594-汇通路桥建设集团有限公司变压器,东盛杜家营北地变压器【纯农排变】,杜家营02变压器,钱家营04号变压器,汇通路桥建设集团再生水建设有限公司2#变压器,杜家营12变压器,杜家营10变压器,高碑店市路灯管理办公室,钱家营17号变压器,钱家营05号变压器,河北英泰环境工程有限公司,东盛杜家营变压器,东盛杜家营西变压器,高碑店市城市管理综合执法局112国道1号,汇通路桥建设集团有限公司变压器,高碑店市路灯管理办公室变压器,高碑店市华永房地产开发有限公司1,东盛党家营地变压器【纯农排变】,东盛杜家营北变压器,0387451567-新凯汽车集团有限公司-专变-45283709-新凯汽车集团有限公司,河北鼎誉房地产开发有限公司100KVA变压器,钱家营14号变压器,隆基泰和置业有限公司高碑店分公司3,河北鼎誉房地产开发有限公司400KVA变压器,杜家营07变压器,隆基泰和置业有限公司高碑店分公司1,杜家营03变压器,杜家营04变压器,0387451512-河北英泰环境工程有限公司-专变-219728329-河北英泰环境工程有限公司2变压器,东盛冯漫撒东变压器【纯农排变】,钱家营11号变压器,东盛杜家营南地变压器【纯农排变】,钱家营01号变压器,杜家营01变压器,高碑店市城市管理综合执法局兴隆1号,党家营01号变压器,河北弘盛实业有限公司变压器,河北路云乾房地产开发有限公司2变压器,钱家营13号变压器,钱家营07号变压器,钱家营02号变压器,河北路云乾房地产开发有限公司1变压器,0645126211-河北阿苏尔门窗材料科技有限公司-专变-169310323-河北阿苏尔门窗材料科技有限公司变压器,钱家营10号变压器,高碑店市城市管理综合执法局世纪大道2号,河北双欧房地产开发有限公司,0586499061-高碑店市路灯管理办公室-专变-125125578-高碑店市路灯管理办公室变压器","poweroffReason":"【停电原因】由于电源接引导致１１０ＫＶ方官变电站１０ＫＶ新发地５３３线路全线停电 【变更送电】无 【发布渠道】高碑店市高碑店电视台（８月１８日０８时至８月２５日１８时之间）屏幕上方滚动","powerTime":"2019-08-26 07:11:50","powerComm":"已送电","subsNo":"","lineNo":"","tgNo":"","tgName":null,"infoStatus":"1","orgName":"国网高碑店市供电公司","typeName":null,"infoStatusName":null,"dateDay":null,"orgNos":null,"nowTime":null,"countyName":null,"streetName":null,"villageName":null,"roadName":null,"communityName":null,"tranName":null,"sdLineName":null,"cityCode":"1340612","cityName":"国网高碑店市供电公司","provinceCode":null,"stopTime":"2019-08-26 08:00:00","powerType":"全部","powerOffArea":"【全线路停电】停钱家营09号变压器,党家营04号变压器,高碑店市华永房地产开发有限公司2,高碑店市栋梁实业有限公司变压器,新凯汽车集团有限公司,杜家营09变压器,隆基泰和置业有限公司高碑店分公司2,高碑店市建设局变压器,杜家营11变压器,钱家营03号变压器,隆基泰和实业有限公司,高碑店市东盛初级中学,隆基泰和置业有限公司高碑店分公司,汇通路桥建设集团再生水建设有限公司1#变压器,杜家营08变压器,杜家营05变压器,钱家营08号变压器,高碑店市路灯管理办公室（世纪大道东侧）变压器,高碑店市城市管理综合执法局112国道3号,钱家营16号变压器,党家营05号变压器,杜家营06变压器,高碑店市华永房地产开发有限公司,钱家营12号变压器,钱家营06号变压器,东盛温屯南变压器,东盛国成玻璃变压器,刘长军,钱家营15号变压器,党家营03号变压器,党家营02号变压器,0575654804-高碑店市三义厚再生水建设有限公司-专变-123981594-汇通路桥建设集团有限公司变压器,东盛杜家营北地变压器【纯农排变】,杜家营02变压器,钱家营04号变压器,汇通路桥建设集团再生水建设有限公司2#变压器,杜家营12变压器,杜家营10变压器,高碑店市路灯管理办公室,钱家营17号变压器,钱家营05号变压器,河北英泰环境工程有限公司,东盛杜家营变压器,东盛杜家营西变压器,高碑店市城市管理综合执法局112国道1号,汇通路桥建设集团有限公司变压器,高碑店市路灯管理办公室变压器,高碑店市华永房地产开发有限公司1,东盛党家营地变压器【纯农排变】,东盛杜家营北变压器,0387451567-新凯汽车集团有限公司-专变-45283709-新凯汽车集团有限公司,河北鼎誉房地产开发有限公司100KVA变压器,钱家营14号变压器,隆基泰和置业有限公司高碑店分公司3,河北鼎誉房地产开发有限公司400KVA变压器,杜家营07变压器,隆基泰和置业有限公司高碑店分公司1,杜家营03变压器,杜家营04变压器,0387451512-河北英泰环境工程有限公司-专变-219728329-河北英泰环境工程有限公司2变压器,东盛冯漫撒东变压器【纯农排变】,钱家营11号变压器,东盛杜家营南地变压器【纯农排变】,钱家营01号变压器,杜家营01变压器,高碑店市城市管理综合执法局兴隆1号,党家营01号变压器,河北弘盛实业有限公司变压器,河北路云乾房地产开发有限公司2变压器,钱家营13号变压器,钱家营07号变压器,钱家营02号变压器,河北路云乾房地产开发有限公司1变压器,0645126211-河北阿苏尔门窗材料科技有限公司-专变-169310323-河北阿苏尔门窗材料科技有限公司变压器,钱家营10号变压器,高碑店市城市管理综合执法局世纪大道2号,河北双欧房地产开发有限公司,0586499061-高碑店市路灯管理办公室-专变-125125578-高碑店市路灯管理办公室变压器","powerOffReason":"【停电原因】由于电源接引导致１１０ＫＶ方官变电站１０ＫＶ新发地５３３线路全线停电 【变更送电】无 【发布渠道】高碑店市高碑店电视台（８月１８日０８时至８月２５日１８时之间）屏幕上方滚动","powerOffId":"2019081713000053"},{"poweroffId":2019081713000050,"sgpoweroffId":null,"subsName":"","lineName":"10KV大团柳511","pubTranName":"宁村村西【纯农排变】,宁村村北,","scope":"【影响街道/乡镇】东城坊镇 【高危重要客户】无 【影响客户】宁村","startTime":"2019-08-27 07:30:00","stopDate":"2019-08-27 17:00:00","orgNo":"1340626","typeCode":"计划停电","poweroffArea":"【分支停电】停宁村村西【纯农排变】,宁村村北","poweroffReason":"【停电原因】由于挖坑立杆、架设导线、安装金具工程导致３５ＫＶ劳动学院变电站１０ＫＶ大团柳５１１线路２５号杆以下线路停电 【变更送电】无 【发布渠道】涿州电视台（０８月１７日至０８月２６日２１：００播放２次）屏幕上方滚动","powerTime":"2019-08-27 16:45:05","powerComm":"恢复送电","subsNo":"","lineNo":"","tgNo":"","tgName":null,"infoStatus":"1","orgName":"国网涿州市供电公司","typeName":null,"infoStatusName":null,"dateDay":null,"orgNos":null,"nowTime":null,"countyName":null,"streetName":null,"villageName":null,"roadName":null,"communityName":null,"tranName":null,"sdLineName":null,"cityCode":"1340626","cityName":"国网涿州市供电公司","provinceCode":null,"stopTime":"2019-08-27 17:00:00","powerType":"全部","powerOffArea":"【分支停电】停宁村村西【纯农排变】,宁村村北","powerOffReason":"【停电原因】由于挖坑立杆、架设导线、安装金具工程导致３５ＫＶ劳动学院变电站１０ＫＶ大团柳５１１线路２５号杆以下线路停电 【变更送电】无 【发布渠道】涿州电视台（０８月１７日至０８月２６日２１：００播放２次）屏幕上方滚动","powerOffId":"2019081713000050"}],"pageModel":{"pageNow":641,"totalCount":10973,"totalPage":1098,"tableRows":0,"pageCount":10,"beginCount":6400},"isExperi":"1"}