{"message":"","today":"2020-06-15","seleList":[{"poweroffId":2019081613000650,"sgpoweroffId":null,"subsName":"","lineName":"车站线513","pubTranName":"北常保3号,保定六合食品有限公司1号,中国邮政储蓄银行徐水县支行,漕河地税分局,0637414296-保定市徐水区住房和城乡建设局路灯-专变-148444957-徐水县住房和城乡建设局路灯,保定乾坤福商贸有限公司,留村5号,海燕电线二厂,保定天骏挂车制造有限公司,北常保8号,海燕电线厂,保定市公安头盔厂,留村4号,徐水县美好生活超市有限公司,留村医院,留村10号,留村8号【纯农排变】,徐水盛安精神病康复医院,北常保15号,保定六合食品有限公司,留村13号,裕泰管件有限公司2号,天意橡胶厂,北常保5号【纯农排变】,留村面粉厂,保定裕泰管件有限公司3号,云飞塑料制品厂,留村12号,南高桥木器厂,保定市天意橡胶厂分厂,留村6号,留村1号,北常保1号,留村3号,裕泰管件有限公司1号,中国移动通信集团河北有限公司徐水分公司留,留村信用社,北常保7号【纯农排变】,留村9号,保定天福泵阀制造有限公司,北常保2号【纯农排变】,北常保14号,水利局仓库,保定光阳天然气利用有限公司,北常保4号,北常保6号,海燕电线二厂2号,保定友星体育用品有限公司,留村11号,北常保10号,保定中盾塑胶有限公司变压器,","scope":"【影响街道/乡镇】留村镇 【高危重要客户】无 【影响客户】北常堡村、留村","startTime":"2019-08-19 16:00:00","stopDate":"2019-08-19 17:00:00","orgNo":"1340605","typeCode":"临时停电","poweroffArea":"【全线路停电】停留村12号,留村13号,徐水县美好生活超市有限公司,留村9号,海燕电线二厂,漕河地税分局,保定中盾塑胶有限公司变压器,留村1号,留村8号【纯农排变】,留村4号,北常保6号,北常保15号,留村3号,中国移动通信集团河北有限公司徐水分公司留,留村10号,留村医院,徐水盛安精神病康复医院,北常保2号【纯农排变】,保定光阳天然气利用有限公司,保定友星体育用品有限公司,北常保4号,北常保7号【纯农排变】,保定乾坤福商贸有限公司,保定天骏挂车制造有限公司,海燕电线二厂2号,中国邮政储蓄银行徐水县支行,北常保5号【纯农排变】,保定天福泵阀制造有限公司,保定市公安头盔厂,保定六合食品有限公司,保定六合食品有限公司1号,保定裕泰管件有限公司3号,裕泰管件有限公司2号,北常保14号,留村6号,北常保3号,北常保10号,0637414296-保定市徐水区住房和城乡建设局路灯-专变-148444957-徐水县住房和城乡建设局路灯,留村11号,天意橡胶厂,保定市天意橡胶厂分厂,裕泰管件有限公司1号,留村5号,云飞塑料制品厂,南高桥木器厂,水利局仓库,留村信用社,留村面粉厂,北常保1号,北常保8号,海燕电线厂","poweroffReason":"【停电原因】由于线路检修导致３５ＫＶ漕河变电站车站５１３线路全线停电 【变更送电】无 【发布渠道】通过９５５９８发布","powerTime":"2019-08-19 16:56:11","powerComm":"已送电","subsNo":"","lineNo":"","tgNo":"","tgName":null,"infoStatus":"1","orgName":"国网徐水县供电公司","typeName":null,"infoStatusName":null,"dateDay":null,"orgNos":null,"nowTime":null,"countyName":null,"streetName":null,"villageName":null,"roadName":null,"communityName":null,"tranName":null,"sdLineName":null,"cityCode":"1340605","cityName":"国网徐水县供电公司","provinceCode":null,"stopTime":"2019-08-19 17:00:00","powerType":"全部","powerOffArea":"【全线路停电】停留村12号,留村13号,徐水县美好生活超市有限公司,留村9号,海燕电线二厂,漕河地税分局,保定中盾塑胶有限公司变压器,留村1号,留村8号【纯农排变】,留村4号,北常保6号,北常保15号,留村3号,中国移动通信集团河北有限公司徐水分公司留,留村10号,留村医院,徐水盛安精神病康复医院,北常保2号【纯农排变】,保定光阳天然气利用有限公司,保定友星体育用品有限公司,北常保4号,北常保7号【纯农排变】,保定乾坤福商贸有限公司,保定天骏挂车制造有限公司,海燕电线二厂2号,中国邮政储蓄银行徐水县支行,北常保5号【纯农排变】,保定天福泵阀制造有限公司,保定市公安头盔厂,保定六合食品有限公司,保定六合食品有限公司1号,保定裕泰管件有限公司3号,裕泰管件有限公司2号,北常保14号,留村6号,北常保3号,北常保10号,0637414296-保定市徐水区住房和城乡建设局路灯-专变-148444957-徐水县住房和城乡建设局路灯,留村11号,天意橡胶厂,保定市天意橡胶厂分厂,裕泰管件有限公司1号,留村5号,云飞塑料制品厂,南高桥木器厂,水利局仓库,留村信用社,留村面粉厂,北常保1号,北常保8号,海燕电线厂","powerOffReason":"【停电原因】由于线路检修导致３５ＫＶ漕河变电站车站５１３线路全线停电 【变更送电】无 【发布渠道】通过９５５９８发布","powerOffId":"2019081613000650"},{"poweroffId":2019081613000648,"sgpoweroffId":null,"subsName":"","lineName":"南留线511","pubTranName":"北常堡11号箱变配电变压器新,北常堡12号箱变配电变压器,留村供电所,北常保13号高压配电变压器1,","scope":"【影响街道/乡镇】留村镇 【高危重要客户】无 【影响客户】北常堡村","startTime":"2019-08-19 16:00:00","stopDate":"2019-08-19 17:00:00","orgNo":"1340605","typeCode":"临时停电","poweroffArea":"【全线路停电】停留村供电所,北常堡11号箱变配电变压器新,北常保13号高压配电变压器1,北常堡12号箱变配电变压器","poweroffReason":"【停电原因】由于线路检修导致导致３５ＫＶ漕河变电站南留线５１１线路全线停电 【变更送电】无 【发布渠道】通过９５５９８发布","powerTime":"2019-08-19 16:56:25","powerComm":"已送电","subsNo":"","lineNo":"","tgNo":"","tgName":null,"infoStatus":"1","orgName":"国网徐水县供电公司","typeName":null,"infoStatusName":null,"dateDay":null,"orgNos":null,"nowTime":null,"countyName":null,"streetName":null,"villageName":null,"roadName":null,"communityName":null,"tranName":null,"sdLineName":null,"cityCode":"1340605","cityName":"国网徐水县供电公司","provinceCode":null,"stopTime":"2019-08-19 17:00:00","powerType":"全部","powerOffArea":"【全线路停电】停留村供电所,北常堡11号箱变配电变压器新,北常保13号高压配电变压器1,北常堡12号箱变配电变压器","powerOffReason":"【停电原因】由于线路检修导致导致３５ＫＶ漕河变电站南留线５１１线路全线停电 【变更送电】无 【发布渠道】通过９５５９８发布","powerOffId":"2019081613000648"},{"poweroffId":2019081613000645,"sgpoweroffId":null,"subsName":"","lineName":"南亭线515","pubTranName":"南亭14号,平家营3号,北高桥4号【纯农排变】,平家营5号,胡家营7号【纯农排变】,大营17号,河北国威塑料型材有限公司,北高桥10号【纯农排变】,北高桥12号,大营8号,河北金澳环境工程有限公司,南亭4号,北高桥9号,徐水县龙池水泥砖厂,胡家营2号,留村2号(1),平家营6号变压器,河北松正电子设备制造有限公司,北高桥13号,河北保定阳光精细华工有限公司,胡家营5号,北高桥14号,胡家营6号,保定冠博天然气能用有限公司,保定市北市区佳和食品厂,平家营7号变压器,南亭2号【纯农排变】,大营15号,北高桥11号,北高桥1号,南亭18号,胡家营4号【纯农排变】,徐水县水泥制品厂,大营6号【纯农排变】,南亭12号,北高桥8号【纯农排变】,平家营4号变压器,0637411431-保定市徐水区住房和城乡建设局路灯-专变-148444929-徐水县住房和城乡建设局路灯,北高桥5号,南亭9号【纯农排变】,大营7号【纯农排变】,胡家营3号,北高桥3号【纯农排变】,胡家营1号,北高桥7号【纯农排变】,大营5号【纯农排变】,","scope":"【影响街道/乡镇】留村乡、漕河镇 【高危重要客户】无 【影响客户】大营村、北高桥村、胡家营村、南亭村、平家营","startTime":"2019-08-19 16:00:00","stopDate":"2019-08-19 17:00:00","orgNo":"1340605","typeCode":"临时停电","poweroffArea":"【全线路停电】停平家营4号变压器,大营8号,北高桥14号,南亭14号,胡家营6号,保定冠博天然气能用有限公司,保定市北市区佳和食品厂,北高桥9号,平家营7号变压器,徐水县龙池水泥砖厂,南亭2号【纯农排变】,胡家营2号,大营15号,留村2号(1),北高桥11号,平家营6号变压器,北高桥1号,河北松正电子设备制造有限公司,南亭18号,北高桥13号,胡家营4号【纯农排变】,河北保定阳光精细华工有限公司,徐水县水泥制品厂,平家营3号,大营6号【纯农排变】,南亭4号,南亭12号,北高桥4号【纯农排变】,北高桥8号【纯农排变】,平家营5号,0637411431-保定市徐水区住房和城乡建设局路灯-专变-148444929-徐水县住房和城乡建设局路灯,胡家营7号【纯农排变】,北高桥5号,大营17号,南亭9号【纯农排变】,河北国威塑料型材有限公司,大营7号【纯农排变】,胡家营3号,胡家营5号,北高桥3号【纯农排变】,北高桥10号【纯农排变】,北高桥7号【纯农排变】,北高桥12号,大营5号【纯农排变】,河北金澳环境工程有限公司,胡家营1号","poweroffReason":"【停电原因】由于线路检修导致３５ＫＶ漕河变电站南亭线５１５线路全线停电 【变更送电】无 【发布渠道】通过９５５９８发布","powerTime":"2019-08-19 16:56:41","powerComm":"已送电","subsNo":"","lineNo":"","tgNo":"","tgName":null,"infoStatus":"1","orgName":"国网徐水县供电公司","typeName":null,"infoStatusName":null,"dateDay":null,"orgNos":null,"nowTime":null,"countyName":null,"streetName":null,"villageName":null,"roadName":null,"communityName":null,"tranName":null,"sdLineName":null,"cityCode":"1340605","cityName":"国网徐水县供电公司","provinceCode":null,"stopTime":"2019-08-19 17:00:00","powerType":"全部","powerOffArea":"【全线路停电】停平家营4号变压器,大营8号,北高桥14号,南亭14号,胡家营6号,保定冠博天然气能用有限公司,保定市北市区佳和食品厂,北高桥9号,平家营7号变压器,徐水县龙池水泥砖厂,南亭2号【纯农排变】,胡家营2号,大营15号,留村2号(1),北高桥11号,平家营6号变压器,北高桥1号,河北松正电子设备制造有限公司,南亭18号,北高桥13号,胡家营4号【纯农排变】,河北保定阳光精细华工有限公司,徐水县水泥制品厂,平家营3号,大营6号【纯农排变】,南亭4号,南亭12号,北高桥4号【纯农排变】,北高桥8号【纯农排变】,平家营5号,0637411431-保定市徐水区住房和城乡建设局路灯-专变-148444929-徐水县住房和城乡建设局路灯,胡家营7号【纯农排变】,北高桥5号,大营17号,南亭9号【纯农排变】,河北国威塑料型材有限公司,大营7号【纯农排变】,胡家营3号,胡家营5号,北高桥3号【纯农排变】,北高桥10号【纯农排变】,北高桥7号【纯农排变】,北高桥12号,大营5号【纯农排变】,河北金澳环境工程有限公司,胡家营1号","powerOffReason":"【停电原因】由于线路检修导致３５ＫＶ漕河变电站南亭线５１５线路全线停电 【变更送电】无 【发布渠道】通过９５５９８发布","powerOffId":"2019081613000645"},{"poweroffId":2019081613000643,"sgpoweroffId":null,"subsName":"","lineName":"东湖线516","pubTranName":"东湖庄园A区5号高压配电变压器,保定市冀龙物业管理有限公司观光园,东湖庄园B区2号高压配电变压器,东湖庄园B区4号高压间隔配电变压器,保定市莲池区鑫晶餐具消毒服务部,东湖庄园A区1号箱变配电变压器,东湖庄园A区2号配电变压器,东湖庄园A区3号高压配电变压器,东湖庄园A区4号高压配电变压器,东湖庄园B区1号高压配电变压器,东湖庄园A区6号高压配电变压器,东湖庄园B区3号高压配电变压器,","scope":"【影响街道/乡镇】留村乡 【高危重要客户】无 【影响客户】东湖庄园","startTime":"2019-08-19 16:00:00","stopDate":"2019-08-19 17:00:00","orgNo":"1340605","typeCode":"临时停电","poweroffArea":"【全线路停电】停东湖庄园B区1号高压配电变压器,保定市莲池区鑫晶餐具消毒服务部,东湖庄园A区5号高压配电变压器,保定市冀龙物业管理有限公司观光园,东湖庄园A区1号箱变配电变压器,东湖庄园A区4号高压配电变压器,东湖庄园B区2号高压配电变压器,东湖庄园A区6号高压配电变压器,东湖庄园B区4号高压间隔配电变压器,东湖庄园A区2号配电变压器,东湖庄园A区3号高压配电变压器,东湖庄园B区3号高压配电变压器","poweroffReason":"【停电原因】由于线路检修导致３５ＫＶ漕河变电站东湖线５１６线路全线停电 【变更送电】无 【发布渠道】通过９５５９８发布","powerTime":"2019-08-19 16:56:57","powerComm":"已送电","subsNo":"","lineNo":"","tgNo":"","tgName":null,"infoStatus":"1","orgName":"国网徐水县供电公司","typeName":null,"infoStatusName":null,"dateDay":null,"orgNos":null,"nowTime":null,"countyName":null,"streetName":null,"villageName":null,"roadName":null,"communityName":null,"tranName":null,"sdLineName":null,"cityCode":"1340605","cityName":"国网徐水县供电公司","provinceCode":null,"stopTime":"2019-08-19 17:00:00","powerType":"全部","powerOffArea":"【全线路停电】停东湖庄园B区1号高压配电变压器,保定市莲池区鑫晶餐具消毒服务部,东湖庄园A区5号高压配电变压器,保定市冀龙物业管理有限公司观光园,东湖庄园A区1号箱变配电变压器,东湖庄园A区4号高压配电变压器,东湖庄园B区2号高压配电变压器,东湖庄园A区6号高压配电变压器,东湖庄园B区4号高压间隔配电变压器,东湖庄园A区2号配电变压器,东湖庄园A区3号高压配电变压器,东湖庄园B区3号高压配电变压器","powerOffReason":"【停电原因】由于线路检修导致３５ＫＶ漕河变电站东湖线５１６线路全线停电 【变更送电】无 【发布渠道】通过９５５９８发布","powerOffId":"2019081613000643"},{"poweroffId":2019081613000627,"sgpoweroffId":null,"subsName":"","lineName":"南梨园561线路","pubTranName":"三岔口14号【纯农排变】,小辛庄3号,三岔口13号,南梨园8号,保定市徐水区兄弟工程机械配件门市部,小辛庄5号,南徐城8号,徐水县庆大汽车配件经销处,南徐城6号,三岔口19号,三岔口4号【纯农排变】,三岔口17号,三岔口18号,菱角桥8号,保定天力金属结构有限公司,三岔口26号,徐水基地处机厂小区5号变,菱角桥10号,徐水基地处机厂小区6号变,三岔口15号,小辛庄2号,三岔口25号,徐水县日力吊索具有限公司,南梨园3号,菱角桥（供电所1号）,南徐城4号,保定市徐水区安肃镇三岔口小学,三岔口2号,三岔口22号,三岔口8号,南梨园分箱(三岔口5号)变压器,菱角桥7号,三岔口7号,南徐城5号,徐水基地处机厂小区3号变,三岔口23号,小辛庄1号【纯农排变】,南徐城3号,菱角桥6号,小辛庄6号,0682550392-保定市徐水区迎新工程机械设备租赁处-专变-221690360-保定市徐水区迎新工程机械设备租赁处,三岔口9号,南梨园2号,南徐城7号,徐水基地处机厂小区4号变,三岔口21号,南徐城1号,三岔口1号,南徐城9号,八四农机站,三岔口6号,南梨园5号【纯农排变】,机厂小区1号配电变压器,南梨园6号,南梨园4号,南徐城10号,三岔口24号,保定神骏运输设备有限公司受电点,机厂小区2号配电变压器,三岔口16号,三岔口10号【纯农排变】,菱角桥9号,南徐城2号,菱角桥3号,菱角桥11号,三岔口12号,小辛庄4号,徐水基地处机厂小区2号变,三岔口3号,三岔口20号,南梨园7号,菱角桥5号,河北驰力电机制造有限公司,菱角桥1号,小辛庄7号,徐水基地处机厂小区1号变,三岔口轧钢厂2号,菱角桥2号【纯农排变】,南梨园1号,","scope":"【影响街道/乡镇】安肃镇 【高危重要客户】无 【影响客户】南徐城、三岔口、小辛庄、南梨园、菱角桥、八四农机站、机厂小区","startTime":"2019-08-20 02:30:00","stopDate":"2019-08-20 23:59:00","orgNo":"1340605","typeCode":"临时停电","poweroffArea":"【全线路停电】停南徐城4号,三岔口25号,三岔口14号【纯农排变】,小辛庄3号,三岔口13号,南梨园8号,保定市徐水区兄弟工程机械配件门市部,小辛庄5号,南徐城8号,徐水县庆大汽车配件经销处,南徐城6号,三岔口19号,三岔口4号【纯农排变】,三岔口17号,三岔口18号,菱角桥8号,保定天力金属结构有限公司,三岔口26号,南徐城10号,三岔口24号,保定神骏运输设备有限公司受电点,机厂小区2号配电变压器,三岔口16号,三岔口10号【纯农排变】,菱角桥9号,南徐城2号,小辛庄6号,菱角桥3号,徐水基地处机厂小区5号变,菱角桥10号,徐水基地处机厂小区6号变,三岔口15号,小辛庄2号,徐水县日力吊索具有限公司,南梨园3号,菱角桥（供电所1号）,南徐城5号,徐水基地处机厂小区3号变,三岔口23号,小辛庄1号【纯农排变】,南徐城3号,菱角桥6号,0682550392-保定市徐水区迎新工程机械设备租赁处-专变-221690360-保定市徐水区迎新工程机械设备租赁处,三岔口9号,保定市徐水区安肃镇三岔口小学,三岔口2号,三岔口22号,三岔口8号,南梨园分箱(三岔口5号)变压器,菱角桥7号,三岔口7号,南梨园2号,南徐城7号,徐水基地处机厂小区4号变,三岔口21号,南徐城1号,三岔口1号,南徐城9号,小辛庄7号,徐水基地处机厂小区1号变,三岔口轧钢厂2号,菱角桥2号【纯农排变】,南梨园1号,八四农机站,三岔口6号,南梨园5号【纯农排变】,机厂小区1号配电变压器,南梨园6号,南梨园4号,菱角桥11号,三岔口12号,小辛庄4号,徐水基地处机厂小区2号变,三岔口3号,三岔口20号,南梨园7号,菱角桥5号,河北驰力电机制造有限公司,菱角桥1号","poweroffReason":"【停电原因】由于线路检修导致１１０ＫＶ沙口变电站南梨园５６１线路全线停电 【变更送电】因工作未完成原因，送电时间由２２:３０变更为２３:５９ 【发布渠道】通过９５５９８发布","powerTime":"2019-08-20 23:01:36","powerComm":"已送电","subsNo":"","lineNo":"","tgNo":"","tgName":null,"infoStatus":"1","orgName":"国网徐水县供电公司","typeName":null,"infoStatusName":null,"dateDay":null,"orgNos":null,"nowTime":null,"countyName":null,"streetName":null,"villageName":null,"roadName":null,"communityName":null,"tranName":null,"sdLineName":null,"cityCode":"1340605","cityName":"国网徐水县供电公司","provinceCode":null,"stopTime":"2019-08-20 23:59:00","powerType":"全部","powerOffArea":"【全线路停电】停南徐城4号,三岔口25号,三岔口14号【纯农排变】,小辛庄3号,三岔口13号,南梨园8号,保定市徐水区兄弟工程机械配件门市部,小辛庄5号,南徐城8号,徐水县庆大汽车配件经销处,南徐城6号,三岔口19号,三岔口4号【纯农排变】,三岔口17号,三岔口18号,菱角桥8号,保定天力金属结构有限公司,三岔口26号,南徐城10号,三岔口24号,保定神骏运输设备有限公司受电点,机厂小区2号配电变压器,三岔口16号,三岔口10号【纯农排变】,菱角桥9号,南徐城2号,小辛庄6号,菱角桥3号,徐水基地处机厂小区5号变,菱角桥10号,徐水基地处机厂小区6号变,三岔口15号,小辛庄2号,徐水县日力吊索具有限公司,南梨园3号,菱角桥（供电所1号）,南徐城5号,徐水基地处机厂小区3号变,三岔口23号,小辛庄1号【纯农排变】,南徐城3号,菱角桥6号,0682550392-保定市徐水区迎新工程机械设备租赁处-专变-221690360-保定市徐水区迎新工程机械设备租赁处,三岔口9号,保定市徐水区安肃镇三岔口小学,三岔口2号,三岔口22号,三岔口8号,南梨园分箱(三岔口5号)变压器,菱角桥7号,三岔口7号,南梨园2号,南徐城7号,徐水基地处机厂小区4号变,三岔口21号,南徐城1号,三岔口1号,南徐城9号,小辛庄7号,徐水基地处机厂小区1号变,三岔口轧钢厂2号,菱角桥2号【纯农排变】,南梨园1号,八四农机站,三岔口6号,南梨园5号【纯农排变】,机厂小区1号配电变压器,南梨园6号,南梨园4号,菱角桥11号,三岔口12号,小辛庄4号,徐水基地处机厂小区2号变,三岔口3号,三岔口20号,南梨园7号,菱角桥5号,河北驰力电机制造有限公司,菱角桥1号","powerOffReason":"【停电原因】由于线路检修导致１１０ＫＶ沙口变电站南梨园５６１线路全线停电 【变更送电】因工作未完成原因，送电时间由２２:３０变更为２３:５９ 【发布渠道】通过９５５９８发布","powerOffId":"2019081613000627"},{"poweroffId":2019081613000624,"sgpoweroffId":null,"subsName":"","lineName":"索庄562线路","pubTranName":"0683975800-徐水县树海液压机械配件加工厂-专变-223583804-徐水县树海液压机械配件加工厂变压器,北徐城4号,津保高速公路徐水服务站,田庄供148号变压器,索庄供139号变压器,田庄供11号变压器,王铁庄1号变压器,林水供122号变压器,林水供121 号变压器【纯农排变】,索庄2号变压器,林水供80号变压器,田庄5号变压器,林水9号变压器,田庄供74变压器【纯农排变】,李庄2号变压器【纯农排变】,林水2号变压器,河北亮剑金属制品有限公司,索庄供30号变压器,索庄供120号变压器,田庄供93号变压器,田庄3号变压器,保定彭泽水泥制品有限公司,徐水县万顺塑钢门窗厂配变,李庄供144号变压器,王铁庄2号变压器,王铁庄供79号变压器,田庄4号变压器,林水12号变压器【纯农排变】,林水供71号变压器,索庄供107号变压器,林水5号变压器【纯农排变】,田庄8号变压器,田庄供105号变压器,林水砖厂2号,李庄供137号变压器【纯农排变】,保定市徐水区崔庄镇林水小学,李庄供49号变压器,李庄3号变压器,索庄1号变压器【纯农排变】,河北省高速公路禄发实业总公司崔庄服务区,保定市徐水区保磊建材经销处,田庄2号变压器,林水供48号变压器,林水供156号变压器,李庄5号变压器【纯农排变】,林水10号变压器,林水11号变压器【纯农排变】,林水供8号变压器,田庄供73号变压器【纯农排变】,林水8号变压器,北徐城6号,林水供104号变压器【纯农排变】,保定市徐水区崔庄镇王铁庄幼儿园,田庄供16号变压器,李庄田庄合用变压器,田庄供133号变压器,田庄供18号变压器,保定市徐水区帮农农资经销处,田庄供12号变压器,林水4号变压器,林水供15号变压器【纯农排变】,田庄供72号变压器,林水供138号变压器,林水供135号变压器,田庄供55号变压器,李庄供68号变压器,田庄供54号变压器,王铁庄供112号变压器【纯农排变】,李庄1号变压器,田庄供136号变压器【纯农排变】,林水供14号变压器,王铁庄供98号变压器,林水1号变压器,林水杨同春面粉厂(原林水3号),林水砖厂1号,林水供66号变压器,林水供109 号变压器,田庄与李庄合用变压器,徐水县树海配件加工厂,徐水县建工商品混凝土有限公司,田庄1号变压器,徐水县东升铸造厂,田庄7号变压器,田庄供134号变压器,田庄6号变压器,林水供92号变压器,林水7号变压器,","scope":"【影响街道/乡镇】崔庄镇、安肃镇 【高危重要客户】无 【影响客户】李庄、索庄、林水、田庄、北徐城、王铁庄","startTime":"2019-08-20 02:30:00","stopDate":"2019-08-20 23:59:00","orgNo":"1340605","typeCode":"临时停电","poweroffArea":"【全线路停电】停保定市徐水区保磊建材经销处,李庄供137号变压器【纯农排变】,保定市徐水区崔庄镇林水小学,李庄供49号变压器,李庄3号变压器,索庄1号变压器【纯农排变】,河北省高速公路禄发实业总公司崔庄服务区,田庄2号变压器,林水供48号变压器,林水供156号变压器,李庄5号变压器【纯农排变】,田庄供55号变压器,林水10号变压器,保定市徐水区崔庄镇王铁庄幼儿园,田庄供16号变压器,李庄田庄合用变压器,田庄供133号变压器,田庄供18号变压器,保定市徐水区帮农农资经销处,田庄供72号变压器,林水供135号变压器,林水11号变压器【纯农排变】,林水供8号变压器,田庄供73号变压器【纯农排变】,林水8号变压器,北徐城6号,林水供104号变压器【纯农排变】,田庄供12号变压器,林水4号变压器,林水供15号变压器【纯农排变】,李庄供68号变压器,田庄供54号变压器,王铁庄供112号变压器【纯农排变】,李庄1号变压器,田庄供136号变压器【纯农排变】,林水供14号变压器,王铁庄供98号变压器,田庄1号变压器,徐水县东升铸造厂,田庄7号变压器,田庄供134号变压器,林水供109 号变压器,田庄与李庄合用变压器,徐水县树海配件加工厂,徐水县建工商品混凝土有限公司,田庄6号变压器,林水供92号变压器,林水7号变压器,0683975800-徐水县树海液压机械配件加工厂-专变-223583804-徐水县树海液压机械配件加工厂变压器,北徐城4号,津保高速公路徐水服务站,田庄供148号变压器,索庄供139号变压器,田庄供11号变压器,王铁庄1号变压器,林水供122号变压器,林水供121 号变压器【纯农排变】,索庄2号变压器,林水供80号变压器,田庄5号变压器,林水9号变压器,田庄供74变压器【纯农排变】,李庄2号变压器【纯农排变】,林水2号变压器,河北亮剑金属制品有限公司,索庄供30号变压器,索庄供120号变压器,田庄供93号变压器,田庄3号变压器,林水1号变压器,林水杨同春面粉厂(原林水3号),林水砖厂1号,林水供66号变压器,林水砖厂2号,林水供138号变压器,保定彭泽水泥制品有限公司,徐水县万顺塑钢门窗厂配变,李庄供144号变压器,王铁庄2号变压器,王铁庄供79号变压器,田庄4号变压器,林水12号变压器【纯农排变】,林水供71号变压器,索庄供107号变压器,林水5号变压器【纯农排变】,田庄8号变压器,田庄供105号变压器","poweroffReason":"【停电原因】由于线路检修导致１１０ＫＶ沙口变电站索庄５６２线路全线停电 【变更送电】因工作未完成原因，送电时间由２２:３０变更为２３:５９ 【发布渠道】通过９５５９８发布","powerTime":"2019-08-20 23:02:01","powerComm":"已送电","subsNo":"","lineNo":"","tgNo":"","tgName":null,"infoStatus":"1","orgName":"国网徐水县供电公司","typeName":null,"infoStatusName":null,"dateDay":null,"orgNos":null,"nowTime":null,"countyName":null,"streetName":null,"villageName":null,"roadName":null,"communityName":null,"tranName":null,"sdLineName":null,"cityCode":"1340605","cityName":"国网徐水县供电公司","provinceCode":null,"stopTime":"2019-08-20 23:59:00","powerType":"全部","powerOffArea":"【全线路停电】停保定市徐水区保磊建材经销处,李庄供137号变压器【纯农排变】,保定市徐水区崔庄镇林水小学,李庄供49号变压器,李庄3号变压器,索庄1号变压器【纯农排变】,河北省高速公路禄发实业总公司崔庄服务区,田庄2号变压器,林水供48号变压器,林水供156号变压器,李庄5号变压器【纯农排变】,田庄供55号变压器,林水10号变压器,保定市徐水区崔庄镇王铁庄幼儿园,田庄供16号变压器,李庄田庄合用变压器,田庄供133号变压器,田庄供18号变压器,保定市徐水区帮农农资经销处,田庄供72号变压器,林水供135号变压器,林水11号变压器【纯农排变】,林水供8号变压器,田庄供73号变压器【纯农排变】,林水8号变压器,北徐城6号,林水供104号变压器【纯农排变】,田庄供12号变压器,林水4号变压器,林水供15号变压器【纯农排变】,李庄供68号变压器,田庄供54号变压器,王铁庄供112号变压器【纯农排变】,李庄1号变压器,田庄供136号变压器【纯农排变】,林水供14号变压器,王铁庄供98号变压器,田庄1号变压器,徐水县东升铸造厂,田庄7号变压器,田庄供134号变压器,林水供109 号变压器,田庄与李庄合用变压器,徐水县树海配件加工厂,徐水县建工商品混凝土有限公司,田庄6号变压器,林水供92号变压器,林水7号变压器,0683975800-徐水县树海液压机械配件加工厂-专变-223583804-徐水县树海液压机械配件加工厂变压器,北徐城4号,津保高速公路徐水服务站,田庄供148号变压器,索庄供139号变压器,田庄供11号变压器,王铁庄1号变压器,林水供122号变压器,林水供121 号变压器【纯农排变】,索庄2号变压器,林水供80号变压器,田庄5号变压器,林水9号变压器,田庄供74变压器【纯农排变】,李庄2号变压器【纯农排变】,林水2号变压器,河北亮剑金属制品有限公司,索庄供30号变压器,索庄供120号变压器,田庄供93号变压器,田庄3号变压器,林水1号变压器,林水杨同春面粉厂(原林水3号),林水砖厂1号,林水供66号变压器,林水砖厂2号,林水供138号变压器,保定彭泽水泥制品有限公司,徐水县万顺塑钢门窗厂配变,李庄供144号变压器,王铁庄2号变压器,王铁庄供79号变压器,田庄4号变压器,林水12号变压器【纯农排变】,林水供71号变压器,索庄供107号变压器,林水5号变压器【纯农排变】,田庄8号变压器,田庄供105号变压器","powerOffReason":"【停电原因】由于线路检修导致１１０ＫＶ沙口变电站索庄５６２线路全线停电 【变更送电】因工作未完成原因，送电时间由２２:３０变更为２３:５９ 【发布渠道】通过９５５９８发布","powerOffId":"2019081613000624"},{"poweroffId":2019081613000621,"sgpoweroffId":null,"subsName":"","lineName":"双河庄512","pubTranName":"河槽村2#,金宝砂场,龙门沟8#,丰达石材厂,双峰2#,东杜岗9#,东卫厂4#,易县龙门沟花岗石矿,双合庄2#,易县龙山振兴石材厂,易县诚惠林果种植农民专业合作社2号250KVA,富岗村2#,河槽1#,皮岗村1#,龙门沟1#,骆驼峪1#,刘立新板厂,骆驼峪村5#,易县滕海养鹅农民专业合作社B200,河槽3#,双合庄1#,龙门沟6#,李爱明变压器,郭振兴板厂(200),富岗乡河漕村刘顺利250KVA,双合庄4#,华龙石材厂变压器,易县鑫月牲畜饲养有限公司250KVA,瑞通公司(水),宋建清选矿,双合庄3#,龙门沟4#,0651772572-易县泰林安牧业有限公司-专变-177357561-易县泰林安牧业有限公司250KVA,易县忆缘河道铁选有限公司,龙门沟村3#,皮岗村3#,龙门沟贾振春,易县从众林果种植有限公司变压器,双合庄5#,易县铁？矿产建材有限公司,龙门沟村7#,东卫厂2#,牛岗2#,双峰村3号,皮岗2#,保定兴易钙石粉厂,骆驼峪2#,易县滕海养鹅农民专业合作社A200,龙门沟2#,牛岗村3#,龙门沟5#,座山台1#,惠达石材厂,易县诚惠林果种植农民专业合作社1号250KVA,双峰1#,东卫厂3#,骆驼峪3#,易县大牛牛饲养有限公司250KVA,田岗村郝海军变压器,龙门沟郭振兴板厂,座山台2#,富岗村1#,易县台裕福石材厂250KVA,牛岗1#,东卫厂1#,骆驼峪4#【纯农排变】,","scope":"【影响街道/乡镇】牛岗乡、富岗乡【高危重要客户】无【影响客户】骆驼峪村、东苇场村、皮岗村、牛岗村、座山台村、河漕村、富岗村、双峰村、双合庄村、龙门沟村","startTime":"2019-08-16 12:43:35","stopDate":"2019-08-16 20:20:00","orgNo":"1340625","typeCode":"电网故障停限电","poweroffArea":"【全线路停电】停易县忆缘河道铁选有限公司,东卫厂4#,河槽村2#,龙门沟村7#,0651772572-易县泰林安牧业有限公司-专变-177357561-易县泰林安牧业有限公司250KVA,双合庄1#,座山台2#,华龙石材厂变压器,龙门沟4#,双峰村3号,易县台裕福石材厂250KVA,皮岗村3#,双峰1#,易县铁？矿产建材有限公司,双合庄3#,富岗村2#,龙门沟5#,东卫厂1#,东杜岗9#,易县诚惠林果种植农民专业合作社1号250KVA,田岗村郝海军变压器,双合庄4#,易县大牛牛饲养有限公司250KVA,富岗乡河漕村刘顺利250KVA,龙门沟6#,易县鑫月牲畜饲养有限公司250KVA,龙门沟村3#,皮岗村1#,易县从众林果种植有限公司变压器,惠达石材厂,易县龙山振兴石材厂,易县诚惠林果种植农民专业合作社2号250KVA,保定兴易钙石粉厂,河槽3#,东卫厂3#,刘立新板厂,皮岗2#,金宝砂场,双合庄5#,龙门沟1#,李爱明变压器,双合庄2#,骆驼峪1#,瑞通公司(水),宋建清选矿,龙门沟8#,易县滕海养鹅农民专业合作社B200,双峰2#,易县滕海养鹅农民专业合作社A200,易县龙门沟花岗石矿,龙门沟郭振兴板厂,龙门沟贾振春,骆驼峪村5#,郭振兴板厂(200),骆驼峪4#【纯农排变】,丰达石材厂,牛岗村3#,牛岗1#,龙门沟2#,座山台1#,东卫厂2#,骆驼峪3#,牛岗2#,富岗村1#,骆驼峪2#,河槽1#","poweroffReason":"【停电原因】由于线路接地导致３５ＫＶ双峰变电站双河庄５１２线路全线停电【变更送电】因抢修进度加快原因，送电时间由２２：００变更为２０：２０【发布渠道】通过９５５９８发布","powerTime":"2019-08-16 20:02:56","powerComm":"已送电","subsNo":"","lineNo":"","tgNo":"","tgName":null,"infoStatus":"1","orgName":"国网易县供电公司","typeName":null,"infoStatusName":null,"dateDay":null,"orgNos":null,"nowTime":null,"countyName":null,"streetName":null,"villageName":null,"roadName":null,"communityName":null,"tranName":null,"sdLineName":null,"cityCode":"1340625","cityName":"国网易县供电公司","provinceCode":null,"stopTime":"2019-08-16 20:20:00","powerType":"全部","powerOffArea":"【全线路停电】停易县忆缘河道铁选有限公司,东卫厂4#,河槽村2#,龙门沟村7#,0651772572-易县泰林安牧业有限公司-专变-177357561-易县泰林安牧业有限公司250KVA,双合庄1#,座山台2#,华龙石材厂变压器,龙门沟4#,双峰村3号,易县台裕福石材厂250KVA,皮岗村3#,双峰1#,易县铁？矿产建材有限公司,双合庄3#,富岗村2#,龙门沟5#,东卫厂1#,东杜岗9#,易县诚惠林果种植农民专业合作社1号250KVA,田岗村郝海军变压器,双合庄4#,易县大牛牛饲养有限公司250KVA,富岗乡河漕村刘顺利250KVA,龙门沟6#,易县鑫月牲畜饲养有限公司250KVA,龙门沟村3#,皮岗村1#,易县从众林果种植有限公司变压器,惠达石材厂,易县龙山振兴石材厂,易县诚惠林果种植农民专业合作社2号250KVA,保定兴易钙石粉厂,河槽3#,东卫厂3#,刘立新板厂,皮岗2#,金宝砂场,双合庄5#,龙门沟1#,李爱明变压器,双合庄2#,骆驼峪1#,瑞通公司(水),宋建清选矿,龙门沟8#,易县滕海养鹅农民专业合作社B200,双峰2#,易县滕海养鹅农民专业合作社A200,易县龙门沟花岗石矿,龙门沟郭振兴板厂,龙门沟贾振春,骆驼峪村5#,郭振兴板厂(200),骆驼峪4#【纯农排变】,丰达石材厂,牛岗村3#,牛岗1#,龙门沟2#,座山台1#,东卫厂2#,骆驼峪3#,牛岗2#,富岗村1#,骆驼峪2#,河槽1#","powerOffReason":"【停电原因】由于线路接地导致３５ＫＶ双峰变电站双河庄５１２线路全线停电【变更送电】因抢修进度加快原因，送电时间由２２：００变更为２０：２０【发布渠道】通过９５５９８发布","powerOffId":"2019081613000621"},{"poweroffId":2019081613000616,"sgpoweroffId":null,"subsName":"","lineName":"大辛庄线573","pubTranName":"大辛庄羽绒加工厂,大辛庄4号,大辛庄37号,徐水县瑞达羽绒服加工厂变压器,徐水县海士杰羽绒制品经销处,徐水县延旗羽绒加工厂,徐水县顺发羽绒,保定市徐水区庆丰羽绒加工厂,徐水县鑫达羽绒加工厂,刘庄6号配变【纯农排变】,鑫锋羽绒厂,保定市昇华仓储有限公司,徐水县鑫丰羽绒制品经销处,徐水县祥羽粉碎加工厂,大辛庄供电所11号,大辛庄23号【纯农排变】,巨力集团有限公司,大辛庄34号,茂山卫9号,变压器,大辛庄5号【纯农排变】,大辛庄32号【纯农排变】,保定市徐水区羽丰羽绒加工厂,大辛庄17号【纯农排变】,大辛庄24号【纯农排变】,青年羽绒厂,保定市徐水区隆顺羽绒加工厂,保定市徐水区众合羽绒加工厂,茂山卫7号配变【纯农排变】,大辛庄30号【纯农排变】,保定市徐水区佰汇金属加工厂,徐水县福宝麻纺加工有限公司,河北佰川羽绒制品有限公司,大辛庄28号,保定市徐水区田安羽绒制品经销处,大辛庄16号,大辛庄13号【纯农排变】,永兴洗毛厂,大辛庄18号,大辛庄19号配变【纯农排变】,徐水县康兴羽绒厂,大辛庄6号【纯农排变】,大辛庄1号配变【纯农排变】,保定顺迈羽绒制品有限公司,徐水县春晖羽绒厂,保定羽丰羽绒制品有限公司,崔国良羽绒加工厂,大辛庄供电所10号,保定市徐水区麦得羽绒加工厂,徐水县新天地羽绒厂,徐水县春晖羽绒加工厂,茂山卫11号配变,河北新天地羽毛加工有限公司,徐水区众合羽绒加工厂200KVA,大辛庄14号【纯农排变】,茂山卫6号配变【纯农排变】,大辛庄7号配变,大辛庄12号配变【纯农排变】,大辛庄15号【纯农排变】,大辛庄27号,大辛庄11号【纯农排变】,","scope":"【影响街道/乡镇】崔庄镇 【高危重要客户】无 【影响客户】大辛庄、茂山卫、刘庄","startTime":"2019-08-20 02:30:00","stopDate":"2019-08-20 23:59:00","orgNo":"1340605","typeCode":"临时停电","poweroffArea":"【全线路停电】停保定市徐水区众合羽绒加工厂,茂山卫7号配变【纯农排变】,大辛庄30号【纯农排变】,保定市徐水区佰汇金属加工厂,河北佰川羽绒制品有限公司,大辛庄28号,保定市徐水区田安羽绒制品经销处,大辛庄16号,大辛庄13号【纯农排变】,大辛庄供电所10号,保定市徐水区麦得羽绒加工厂,徐水县新天地羽绒厂,徐水县春晖羽绒加工厂,茂山卫11号配变,河北新天地羽毛加工有限公司,徐水区众合羽绒加工厂200KVA,大辛庄14号【纯农排变】,茂山卫6号配变【纯农排变】,大辛庄7号配变,大辛庄12号配变【纯农排变】,大辛庄15号【纯农排变】,大辛庄27号,青年羽绒厂,保定市徐水区隆顺羽绒加工厂,大辛庄羽绒加工厂,大辛庄4号,大辛庄37号,徐水县瑞达羽绒服加工厂变压器,徐水县海士杰羽绒制品经销处,徐水县延旗羽绒加工厂,徐水县顺发羽绒,保定市徐水区庆丰羽绒加工厂,徐水县鑫达羽绒加工厂,刘庄6号配变【纯农排变】,鑫锋羽绒厂,保定市昇华仓储有限公司,徐水县福宝麻纺加工有限公司,永兴洗毛厂,大辛庄18号,大辛庄19号配变【纯农排变】,徐水县康兴羽绒厂,大辛庄6号【纯农排变】,大辛庄1号配变【纯农排变】,保定顺迈羽绒制品有限公司,徐水县春晖羽绒厂,保定羽丰羽绒制品有限公司,崔国良羽绒加工厂,徐水县鑫丰羽绒制品经销处,徐水县祥羽粉碎加工厂,大辛庄供电所11号,大辛庄11号【纯农排变】,大辛庄23号【纯农排变】,巨力集团有限公司,大辛庄34号,茂山卫9号,变压器,大辛庄5号【纯农排变】,大辛庄32号【纯农排变】,保定市徐水区羽丰羽绒加工厂,大辛庄17号【纯农排变】,大辛庄24号【纯农排变】","poweroffReason":"【停电原因】由于线路检修导致１１０ＫＶ沙口变电站大辛庄５７３线路全线停电 【变更送电】因工作未完成原因，送电时间由２２:３０变更为２３:５９ 【发布渠道】通过９５５９８发布","powerTime":"2019-08-20 23:02:19","powerComm":"已送电","subsNo":"","lineNo":"","tgNo":"","tgName":null,"infoStatus":"1","orgName":"国网徐水县供电公司","typeName":null,"infoStatusName":null,"dateDay":null,"orgNos":null,"nowTime":null,"countyName":null,"streetName":null,"villageName":null,"roadName":null,"communityName":null,"tranName":null,"sdLineName":null,"cityCode":"1340605","cityName":"国网徐水县供电公司","provinceCode":null,"stopTime":"2019-08-20 23:59:00","powerType":"全部","powerOffArea":"【全线路停电】停保定市徐水区众合羽绒加工厂,茂山卫7号配变【纯农排变】,大辛庄30号【纯农排变】,保定市徐水区佰汇金属加工厂,河北佰川羽绒制品有限公司,大辛庄28号,保定市徐水区田安羽绒制品经销处,大辛庄16号,大辛庄13号【纯农排变】,大辛庄供电所10号,保定市徐水区麦得羽绒加工厂,徐水县新天地羽绒厂,徐水县春晖羽绒加工厂,茂山卫11号配变,河北新天地羽毛加工有限公司,徐水区众合羽绒加工厂200KVA,大辛庄14号【纯农排变】,茂山卫6号配变【纯农排变】,大辛庄7号配变,大辛庄12号配变【纯农排变】,大辛庄15号【纯农排变】,大辛庄27号,青年羽绒厂,保定市徐水区隆顺羽绒加工厂,大辛庄羽绒加工厂,大辛庄4号,大辛庄37号,徐水县瑞达羽绒服加工厂变压器,徐水县海士杰羽绒制品经销处,徐水县延旗羽绒加工厂,徐水县顺发羽绒,保定市徐水区庆丰羽绒加工厂,徐水县鑫达羽绒加工厂,刘庄6号配变【纯农排变】,鑫锋羽绒厂,保定市昇华仓储有限公司,徐水县福宝麻纺加工有限公司,永兴洗毛厂,大辛庄18号,大辛庄19号配变【纯农排变】,徐水县康兴羽绒厂,大辛庄6号【纯农排变】,大辛庄1号配变【纯农排变】,保定顺迈羽绒制品有限公司,徐水县春晖羽绒厂,保定羽丰羽绒制品有限公司,崔国良羽绒加工厂,徐水县鑫丰羽绒制品经销处,徐水县祥羽粉碎加工厂,大辛庄供电所11号,大辛庄11号【纯农排变】,大辛庄23号【纯农排变】,巨力集团有限公司,大辛庄34号,茂山卫9号,变压器,大辛庄5号【纯农排变】,大辛庄32号【纯农排变】,保定市徐水区羽丰羽绒加工厂,大辛庄17号【纯农排变】,大辛庄24号【纯农排变】","powerOffReason":"【停电原因】由于线路检修导致１１０ＫＶ沙口变电站大辛庄５７３线路全线停电 【变更送电】因工作未完成原因，送电时间由２２:３０变更为２３:５９ 【发布渠道】通过９５５９８发布","powerOffId":"2019081613000616"},{"poweroffId":2019081613000612,"sgpoweroffId":null,"subsName":"","lineName":"10kV574大因线","pubTranName":"小千秋9号【纯农排变】,龙华17号,小千秋6号,小千秋10号,小千秋5号,小千秋11号,大千秋8号,龙华29号,南白塔29号【纯农排变】,小千秋7号,汉阳4号,龙华4号,大千秋3号,汉阳3号,南白塔9号,龙华2号,南白塔17号,大因20号,大千秋4号,小千秋1号【纯农排变】,大千秋6号,龙华22号,大千秋12号,南白塔6号【纯农排变】,小千秋2号,龙华21号,大因供电所5号,汉阳1号,大千秋10号,小千秋3号,小千秋8号,龙华8号,小千秋12号【纯农排变】,","scope":"【影响街道/乡镇】大因镇 【高危重要客户】无 【影响客户】大千秋、大因、汉阳、龙华、南白塔、小千秋","startTime":"2019-08-20 02:30:00","stopDate":"2019-08-20 23:59:00","orgNo":"1340605","typeCode":"临时停电","poweroffArea":"【全线路停电】停大千秋10号,大千秋4号,大千秋12号,大千秋3号,大千秋6号,大千秋8号,大因20号,大因供电所5号,汉阳3号,汉阳4号,汉阳1号,龙华21号,龙华17号,龙华22号,龙华2号,龙华29号,龙华4号,龙华8号,南白塔17号,南白塔9号,南白塔29号【纯农排变】,南白塔6号【纯农排变】,小千秋10号,小千秋11号,小千秋12号【纯农排变】,小千秋6号,小千秋1号【纯农排变】,小千秋3号,小千秋5号,小千秋2号,小千秋7号,小千秋8号,小千秋9号【纯农排变】","poweroffReason":"【停电原因】由于线路检修导致１１０ＫＶ沙口变电站１０ＫＶ大因５７４线路全线停电 【变更送电】因工作未完成原因，送电时间由２２:３０变更为２３:５９ 【发布渠道】通过９５５９８发布","powerTime":"2019-08-20 23:02:37","powerComm":"已送电","subsNo":"","lineNo":"","tgNo":"","tgName":null,"infoStatus":"1","orgName":"国网徐水县供电公司","typeName":null,"infoStatusName":null,"dateDay":null,"orgNos":null,"nowTime":null,"countyName":null,"streetName":null,"villageName":null,"roadName":null,"communityName":null,"tranName":null,"sdLineName":null,"cityCode":"1340605","cityName":"国网徐水县供电公司","provinceCode":null,"stopTime":"2019-08-20 23:59:00","powerType":"全部","powerOffArea":"【全线路停电】停大千秋10号,大千秋4号,大千秋12号,大千秋3号,大千秋6号,大千秋8号,大因20号,大因供电所5号,汉阳3号,汉阳4号,汉阳1号,龙华21号,龙华17号,龙华22号,龙华2号,龙华29号,龙华4号,龙华8号,南白塔17号,南白塔9号,南白塔29号【纯农排变】,南白塔6号【纯农排变】,小千秋10号,小千秋11号,小千秋12号【纯农排变】,小千秋6号,小千秋1号【纯农排变】,小千秋3号,小千秋5号,小千秋2号,小千秋7号,小千秋8号,小千秋9号【纯农排变】","powerOffReason":"【停电原因】由于线路检修导致１１０ＫＶ沙口变电站１０ＫＶ大因５７４线路全线停电 【变更送电】因工作未完成原因，送电时间由２２:３０变更为２３:５９ 【发布渠道】通过９５５９８发布","powerOffId":"2019081613000612"},{"poweroffId":2019081613000602,"sgpoweroffId":null,"subsName":"","lineName":"迪城线577","pubTranName":"任庄16号【纯农排变】,于迪城9号【纯农排变】,崔迪城9号【纯农排变】,李迪城15号【纯农排变】,崔迪城14号【纯农排变】,崔迪城7号【纯农排变】,于迪城4号【纯农排变】,保定蒙域王子羊绒纺织有限公司,李迪城18号,崔迪城15号【纯农排变】,肖迪城3号【纯农排变】,李迪城（农开2）【纯农排变】,大千秋13号,李迪城8号【纯农排变】,大因7号【纯农排变】,汉阳2号【纯农排变】,李迪城9号【纯农排变】,大千秋9号【纯农排变】,保定市徐水区大因镇李迪城小学,任庄18号,李迪城5号【纯农排变】,大因10号,李迪城13号,李迪城4号【纯农排变】,蒙域王子羊绒,任庄13号【纯农排变】,大因25号【纯农排变】,肖迪城6号【纯农排变】,李迪城12号【纯农排变】,汉阳5号,大因32号【纯农排变】,大因16号【纯农排变】,肖迪城4号【纯农排变】,保定市徐水区大因镇于迪城幼儿园,任庄4号,崔迪城3号【纯农排变】,崔迪城18号,于迪城8号【纯农排变】,肖迪城5号【纯农排变】,李迪城2号【纯农排变】,崔迪城4号【纯农排变】,任庄19号,变压器,于迪城17号,大因28号【纯农排变】,于迪城7号【纯农排变】,李迪城（农开1）【纯农排变】,李迪城16号【纯农排变】,于迪城6号【纯农排变】,肖迪城8号,大千秋2号【纯农排变】,崔迪城10号【纯农排变】,于迪城10号【纯农排变】,李迪城11号【纯农排变】,任庄11号【纯农排变】,李迪城1号【纯农排变】,大千秋11号【纯农排变】,于迪城3号【纯农排变】,小因20号,任庄8号【纯农排变】,崔迪城16号【纯农排变】,崔迪城5号,任庄17号,于迪城11号,崔迪城2号【纯农排变】,大因3号【纯农排变】,于迪城14号【纯农排变】,于迪城12号【纯农排变】,0654423789-蒙域王子羊绒纺织股份有限公司-专变-183723479-蒙域王子羊绒纺织有限公司变压器,任庄7号变压器【纯农排变】,李迪城10号【纯农排变】,大因31号,大因9号【纯农排变】,徐水县宝坤建筑材料销售有限公司,肖迪城5号李迪城分箱【纯农排变】,大因27号【纯农排变】,大因26号【纯农排变】,大因扬水机站2号,大因扬水机站1号,任庄1号【纯农排变】,于迪城16号【纯农排变】,迪城扬水机站1号,大因扬水机站3号,于迪城20号,迪城扬水机站2号,大因供电所4号,肖迪城1号【纯农排变】,崔迪城8号【纯农排变】,大千秋1号,崔迪城1号【纯农排变】,李迪城6号【纯农排变】,大千秋14号【纯农排变】,大因29号【纯农排变】,任庄5号【纯农排变】,大千秋5号,于迪城15号【纯农排变】,大因30号【纯农排变】,崔迪城17号【纯农排变】,李迪城7号【纯农排变】,肖迪城2号【纯农排变】,崔迪城11号【纯农排变】,大因12号【纯农排变】,于迪城18号【纯农排变】,小千秋4号,0654783494-蒙域王子羊绒纺织股份有限公司-专变-183741219-蒙域王子羊绒纺织股份有限公司,李迪城20号,任庄15号【纯农排变】,任庄12号【纯农排变】,保定市徐水区大因镇任庄小学,大因11号【纯农排变】,任庄3号【纯农排变】,李迪城17号【纯农排变】,于迪城19号,崔迪城6号【纯农","scope":"【影响街道/乡镇】大因镇 【高危重要客户】无 【影响客户】任庄、于迪城、崔迪城、李迪城、大因、肖迪城、小千秋、大千秋、汉阳","startTime":"2019-08-20 02:30:00","stopDate":"2019-08-20 23:59:00","orgNo":"1340605","typeCode":"临时停电","poweroffArea":"【全线路停电】停任庄16号【纯农排变】,于迪城9号【纯农排变】,崔迪城9号【纯农排变】,李迪城15号【纯农排变】,崔迪城14号【纯农排变】,崔迪城7号【纯农排变】,于迪城4号【纯农排变】,保定蒙域王子羊绒纺织有限公司,李迪城18号,崔迪城15号【纯农排变】,肖迪城3号【纯农排变】,李迪城（农开2）【纯农排变】,大千秋13号,李迪城8号【纯农排变】,李迪城2号【纯农排变】,崔迪城4号【纯农排变】,任庄19号,变压器,于迪城17号,大因28号【纯农排变】,于迪城7号【纯农排变】,李迪城（农开1）【纯农排变】,李迪城16号【纯农排变】,于迪城6号【纯农排变】,肖迪城8号,大千秋2号【纯农排变】,崔迪城10号【纯农排变】,于迪城10号【纯农排变】,李迪城11号【纯农排变】,任庄11号【纯农排变】,大因9号【纯农排变】,徐水县宝坤建筑材料销售有限公司,肖迪城5号李迪城分箱【纯农排变】,大因27号【纯农排变】,大因7号【纯农排变】,汉阳2号【纯农排变】,李迪城9号【纯农排变】,大千秋9号【纯农排变】,保定市徐水区大因镇李迪城小学,任庄18号,李迪城5号【纯农排变】,大因10号,李迪城13号,李迪城4号【纯农排变】,蒙域王子羊绒,任庄13号【纯农排变】,大因25号【纯农排变】,肖迪城6号【纯农排变】,李迪城12号【纯农排变】,汉阳5号,大因32号【纯农排变】,大因16号【纯农排变】,肖迪城4号【纯农排变】,保定市徐水区大因镇于迪城幼儿园,任庄4号,崔迪城3号【纯农排变】,崔迪城18号,于迪城8号【纯农排变】,肖迪城5号【纯农排变】,大因26号【纯农排变】,大因扬水机站2号,大因扬水机站1号,任庄1号【纯农排变】,于迪城16号【纯农排变】,迪城扬水机站1号,大因扬水机站3号,于迪城20号,迪城扬水机站2号,大因供电所4号,肖迪城1号【纯农排变】,崔迪城8号【纯农排变】,大千秋1号,崔迪城1号【纯农排变】,李迪城1号【纯农排变】,大千秋11号【纯农排变】,于迪城3号【纯农排变】,小因20号,任庄8号【纯农排变】,崔迪城16号【纯农排变】,崔迪城5号,任庄17号,于迪城11号,崔迪城2号【纯农排变】,大因3号【纯农排变】,于迪城14号【纯农排变】,于迪城12号【纯农排变】,0654423789-蒙域王子羊绒纺织股份有限公司-专变-183723479-蒙域王子羊绒纺织有限公司变压器,任庄7号变压器【纯农排变】,李迪城10号【纯农排变】,大因31号,李迪城6号【纯农排变】,大千秋14号【纯农排变】,大因29号【纯农排变】,任庄5号【纯农排变】,大千秋5号,于迪城15号【纯农排变】,大因30号【纯农排变】,崔迪城17号【纯农排变】,李迪城7号【纯农排变】,肖迪城2号【纯农排变】,崔迪城11号【纯农排变】,大因12号【纯农排变】,于迪城18号【纯农排变】,小千秋4号,0654783494-蒙域王子羊绒纺织股份有限公司-专变-183741219-蒙域王子羊绒纺织股份有限公司,李迪城20号,任庄15号【纯农排变】,任庄12号【纯农排变】,保定市徐水区大因镇任庄小学,大因11号【纯农排变】,任庄3号【纯农排变】,李迪城17号【纯农排变】,于迪城19号,崔迪城6号【纯农排变】,于迪城2号【纯农排变】,于迪城13号【纯农排变】,肖迪城7号【纯农排变】,李迪城19号,李迪城3号【纯农排变】,李迪城14号,大因34号,崔迪城12号【纯农排变】,任庄2号【纯农排变】,于迪城5号【纯农排变】,崔迪城13号【纯农排变】,于迪城1号【纯农排变】,大因18号","poweroffReason":"【停电原因】由于线路检修导致１１０ＫＶ沙口变电站迪城５７７线路全线停电 【变更送电】因工作未完成原因，送电时间由２２:３０变更为２３:５９ 【发布渠道】通过９５５９８发布","powerTime":"2019-08-20 23:02:52","powerComm":"已送电","subsNo":"","lineNo":"","tgNo":"","tgName":null,"infoStatus":"1","orgName":"国网徐水县供电公司","typeName":null,"infoStatusName":null,"dateDay":null,"orgNos":null,"nowTime":null,"countyName":null,"streetName":null,"villageName":null,"roadName":null,"communityName":null,"tranName":null,"sdLineName":null,"cityCode":"1340605","cityName":"国网徐水县供电公司","provinceCode":null,"stopTime":"2019-08-20 23:59:00","powerType":"全部","powerOffArea":"【全线路停电】停任庄16号【纯农排变】,于迪城9号【纯农排变】,崔迪城9号【纯农排变】,李迪城15号【纯农排变】,崔迪城14号【纯农排变】,崔迪城7号【纯农排变】,于迪城4号【纯农排变】,保定蒙域王子羊绒纺织有限公司,李迪城18号,崔迪城15号【纯农排变】,肖迪城3号【纯农排变】,李迪城（农开2）【纯农排变】,大千秋13号,李迪城8号【纯农排变】,李迪城2号【纯农排变】,崔迪城4号【纯农排变】,任庄19号,变压器,于迪城17号,大因28号【纯农排变】,于迪城7号【纯农排变】,李迪城（农开1）【纯农排变】,李迪城16号【纯农排变】,于迪城6号【纯农排变】,肖迪城8号,大千秋2号【纯农排变】,崔迪城10号【纯农排变】,于迪城10号【纯农排变】,李迪城11号【纯农排变】,任庄11号【纯农排变】,大因9号【纯农排变】,徐水县宝坤建筑材料销售有限公司,肖迪城5号李迪城分箱【纯农排变】,大因27号【纯农排变】,大因7号【纯农排变】,汉阳2号【纯农排变】,李迪城9号【纯农排变】,大千秋9号【纯农排变】,保定市徐水区大因镇李迪城小学,任庄18号,李迪城5号【纯农排变】,大因10号,李迪城13号,李迪城4号【纯农排变】,蒙域王子羊绒,任庄13号【纯农排变】,大因25号【纯农排变】,肖迪城6号【纯农排变】,李迪城12号【纯农排变】,汉阳5号,大因32号【纯农排变】,大因16号【纯农排变】,肖迪城4号【纯农排变】,保定市徐水区大因镇于迪城幼儿园,任庄4号,崔迪城3号【纯农排变】,崔迪城18号,于迪城8号【纯农排变】,肖迪城5号【纯农排变】,大因26号【纯农排变】,大因扬水机站2号,大因扬水机站1号,任庄1号【纯农排变】,于迪城16号【纯农排变】,迪城扬水机站1号,大因扬水机站3号,于迪城20号,迪城扬水机站2号,大因供电所4号,肖迪城1号【纯农排变】,崔迪城8号【纯农排变】,大千秋1号,崔迪城1号【纯农排变】,李迪城1号【纯农排变】,大千秋11号【纯农排变】,于迪城3号【纯农排变】,小因20号,任庄8号【纯农排变】,崔迪城16号【纯农排变】,崔迪城5号,任庄17号,于迪城11号,崔迪城2号【纯农排变】,大因3号【纯农排变】,于迪城14号【纯农排变】,于迪城12号【纯农排变】,0654423789-蒙域王子羊绒纺织股份有限公司-专变-183723479-蒙域王子羊绒纺织有限公司变压器,任庄7号变压器【纯农排变】,李迪城10号【纯农排变】,大因31号,李迪城6号【纯农排变】,大千秋14号【纯农排变】,大因29号【纯农排变】,任庄5号【纯农排变】,大千秋5号,于迪城15号【纯农排变】,大因30号【纯农排变】,崔迪城17号【纯农排变】,李迪城7号【纯农排变】,肖迪城2号【纯农排变】,崔迪城11号【纯农排变】,大因12号【纯农排变】,于迪城18号【纯农排变】,小千秋4号,0654783494-蒙域王子羊绒纺织股份有限公司-专变-183741219-蒙域王子羊绒纺织股份有限公司,李迪城20号,任庄15号【纯农排变】,任庄12号【纯农排变】,保定市徐水区大因镇任庄小学,大因11号【纯农排变】,任庄3号【纯农排变】,李迪城17号【纯农排变】,于迪城19号,崔迪城6号【纯农排变】,于迪城2号【纯农排变】,于迪城13号【纯农排变】,肖迪城7号【纯农排变】,李迪城19号,李迪城3号【纯农排变】,李迪城14号,大因34号,崔迪城12号【纯农排变】,任庄2号【纯农排变】,于迪城5号【纯农排变】,崔迪城13号【纯农排变】,于迪城1号【纯农排变】,大因18号","powerOffReason":"【停电原因】由于线路检修导致１１０ＫＶ沙口变电站迪城５７７线路全线停电 【变更送电】因工作未完成原因，送电时间由２２:３０变更为２３:５９ 【发布渠道】通过９５５９８发布","powerOffId":"2019081613000602"}],"pageModel":{"pageNow":645,"totalCount":10973,"totalPage":1098,"tableRows":0,"pageCount":10,"beginCount":6440},"isExperi":"1"}