{"message":"","today":"2020-06-15","seleList":[{"poweroffId":2019081613000486,"sgpoweroffId":null,"subsName":"","lineName":"营房线566","pubTranName":"0604029171-保定愈泰医院-专变-187339617-河北成宝酒店有限公司,0656968756-徐水县天祥物业服务有限公司-专变-187339353-徐水县天祥物业有限公司,东方茗苑小区高压间隔配电变压器2号,0656968756-徐水县天祥物业服务有限公司-专变-187337970-徐水县天祥物业服务有限公司,盛源94号（禧悦城4号北箱变）,0656968756-徐水县天祥物业服务有限公司-专变-187338005-徐水县天祥物业有限公司,0604029171-保定愈泰医院-专变-127057872-河北成宝酒店有限公司,徐水县天城房地产开发有限公司,永兴58号箱变(新能源2号),0630932779-保定市徐水区住房和城乡建设局刘伶公园-专变-141699167-徐水县住房和城乡建设局刘伶公园,0631430649-保定市徐水区住房和城乡建设局路灯-专变-144628995-徐水县住房和城乡建设局路灯变压器,盛源93号（禧悦城3号南箱变）,盛源92号（禧悦城2号地下箱变）,0604029171-保定愈泰医院-专变-187338212-河北成宝酒店有限公司,中国人民解放军66463部队,0619126421-徐水县天祥物业服务有限公司-专变-128890784-徐水县天祥房地产开发有限公司,河北芳盛地产开发有限公司,东方茗苑小区高压间隔配电变压器1号,永兴57号箱变(新能源1号),0604029171-保定愈泰医院-专变-187338214-河北成宝酒店有限公司,0631442750-保定市徐水区住房和城乡建设局路灯-专变-144631966-徐水县住房和城乡建设局路灯变压器,盛源91号（禧悦城1号地下箱变）,0469074491-66463部队一营-专变-46716294-66463部队一营,0631442835-保定市徐水区住房和城乡建设局路灯-专变-144626139-徐水县住房和城乡建设局路灯变压器,0656968756-徐水县天祥物业服务有限公司-专变-187338001-徐水县天祥物业服务有限公司,","scope":"【影响街道/乡镇】安肃镇 【高危重要客户】无 【影响客户】禧悦城小区、东方茗苑小区、新能源小区","startTime":"2019-08-20 02:30:00","stopDate":"2019-08-20 23:59:00","orgNo":"1340605","typeCode":"临时停电","poweroffArea":"【全线路停电】停盛源94号（禧悦城4号北箱变）,0619126421-徐水县天祥物业服务有限公司-专变-128890784-徐水县天祥房地产开发有限公司,0469074491-66463部队一营-专变-46716294-66463部队一营,0604029171-保定愈泰医院-专变-187338212-河北成宝酒店有限公司,东方茗苑小区高压间隔配电变压器1号,盛源92号（禧悦城2号地下箱变）,0604029171-保定愈泰医院-专变-187338214-河北成宝酒店有限公司,徐水县天城房地产开发有限公司,河北芳盛地产开发有限公司,0604029171-保定愈泰医院-专变-187339617-河北成宝酒店有限公司,0656968756-徐水县天祥物业服务有限公司-专变-187338005-徐水县天祥物业有限公司,0656968756-徐水县天祥物业服务有限公司-专变-187338001-徐水县天祥物业服务有限公司,0631442835-保定市徐水区住房和城乡建设局路灯-专变-144626139-徐水县住房和城乡建设局路灯变压器,0631442750-保定市徐水区住房和城乡建设局路灯-专变-144631966-徐水县住房和城乡建设局路灯变压器,0656968756-徐水县天祥物业服务有限公司-专变-187337970-徐水县天祥物业服务有限公司,0656968756-徐水县天祥物业服务有限公司-专变-187339353-徐水县天祥物业有限公司,中国人民解放军66463部队,盛源91号（禧悦城1号地下箱变）,永兴58号箱变(新能源2号),0604029171-保定愈泰医院-专变-127057872-河北成宝酒店有限公司,永兴57号箱变(新能源1号),0631430649-保定市徐水区住房和城乡建设局路灯-专变-144628995-徐水县住房和城乡建设局路灯变压器,盛源93号（禧悦城3号南箱变）,东方茗苑小区高压间隔配电变压器2号,0630932779-保定市徐水区住房和城乡建设局刘伶公园-专变-141699167-徐水县住房和城乡建设局刘伶公园","poweroffReason":"【停电原因】由于线路检修导致１１０ＫＶ何家店变电站营房５６６线路全线停电 【变更送电】因工作未完成原因，送电时间由２２:３０变更为２３:５９ 【发布渠道】通过９５５９８发布","powerTime":"2019-08-20 23:06:09","powerComm":"已送电","subsNo":"","lineNo":"","tgNo":"","tgName":null,"infoStatus":"1","orgName":"国网徐水县供电公司","typeName":null,"infoStatusName":null,"dateDay":null,"orgNos":null,"nowTime":null,"countyName":null,"streetName":null,"villageName":null,"roadName":null,"communityName":null,"tranName":null,"sdLineName":null,"cityCode":"1340605","cityName":"国网徐水县供电公司","provinceCode":null,"stopTime":"2019-08-20 23:59:00","powerType":"全部","powerOffArea":"【全线路停电】停盛源94号（禧悦城4号北箱变）,0619126421-徐水县天祥物业服务有限公司-专变-128890784-徐水县天祥房地产开发有限公司,0469074491-66463部队一营-专变-46716294-66463部队一营,0604029171-保定愈泰医院-专变-187338212-河北成宝酒店有限公司,东方茗苑小区高压间隔配电变压器1号,盛源92号（禧悦城2号地下箱变）,0604029171-保定愈泰医院-专变-187338214-河北成宝酒店有限公司,徐水县天城房地产开发有限公司,河北芳盛地产开发有限公司,0604029171-保定愈泰医院-专变-187339617-河北成宝酒店有限公司,0656968756-徐水县天祥物业服务有限公司-专变-187338005-徐水县天祥物业有限公司,0656968756-徐水县天祥物业服务有限公司-专变-187338001-徐水县天祥物业服务有限公司,0631442835-保定市徐水区住房和城乡建设局路灯-专变-144626139-徐水县住房和城乡建设局路灯变压器,0631442750-保定市徐水区住房和城乡建设局路灯-专变-144631966-徐水县住房和城乡建设局路灯变压器,0656968756-徐水县天祥物业服务有限公司-专变-187337970-徐水县天祥物业服务有限公司,0656968756-徐水县天祥物业服务有限公司-专变-187339353-徐水县天祥物业有限公司,中国人民解放军66463部队,盛源91号（禧悦城1号地下箱变）,永兴58号箱变(新能源2号),0604029171-保定愈泰医院-专变-127057872-河北成宝酒店有限公司,永兴57号箱变(新能源1号),0631430649-保定市徐水区住房和城乡建设局路灯-专变-144628995-徐水县住房和城乡建设局路灯变压器,盛源93号（禧悦城3号南箱变）,东方茗苑小区高压间隔配电变压器2号,0630932779-保定市徐水区住房和城乡建设局刘伶公园-专变-141699167-徐水县住房和城乡建设局刘伶公园","powerOffReason":"【停电原因】由于线路检修导致１１０ＫＶ何家店变电站营房５６６线路全线停电 【变更送电】因工作未完成原因，送电时间由２２:３０变更为２３:５９ 【发布渠道】通过９５５９８发布","powerOffId":"2019081613000486"},{"poweroffId":2019081613000484,"sgpoweroffId":null,"subsName":"","lineName":"前营线567","pubTranName":"保定上拓房地产开发有限公司（何家店566线）,何家店9号,保定市徐水区住房和城乡建设局路灯,0672104134-保定巨力物业管理有限公司-专变-212372643-保定巨力物业管理有限公司,世纪家园小区4号高压间隔配电变压器,何家店7号,0572620255-保定市徐水区住房和城乡建设局-专变-119513876-徐水县住房和城乡建设局,丽华制帽厂,0662794330-保定惠家物业服务有限公司-专变-197563928-徐水县太行物业服务有限公司变压器,王井安,0469073355-河北瑞奕腾达商贸有限公司-专变-46716307-徐水县博润汽车商贸有限公司,水岸C区7号箱变高压间隔配电变压器,刘伶景区安肃电动车充电站公用配电变压器,上拓幸福汇小区3号箱变高压间隔配电变压器,水岸C区5号箱变高压间隔配电变压器,水岸C区4号箱变高压间隔配电变压器,水岸C区1号高压间隔配电变压器,上拓幸福汇小区2号箱变间隔配电变压器,水岸C区2号高压间隔配电变压器,水岸C区8号高压间隔配电变压器,保定上拓房地产开发有限公司,0630932779-保定市徐水区住房和城乡建设局刘伶公园-专变-141699167-徐水县住房和城乡建设局刘伶公园,世纪家园小区2号高压间隔配电变压器,河北智联房地产开发有限公司4#变,保定中恒创泰工贸有限公司,徐水县德龙玻璃雕刻经营部,张红艳,徐水县科瑞达第二加油站,盛源96号（空中花园2号北箱变）,盛源98号（空中花园4号南箱变）,徐水县农机监理站,何家店2号,河北智联房地产开发有限公司3#变,变压器,河北智联房地产开发公司1#变,世纪家园小区3号高压间隔配电变压器,盛源95号（空中花园1号北箱变）,南城村8号台区,徐水县海达电气焊加工厂变压器,民政局家属院,徐水养路工区,保定市徐水区诚泽物业服务有限公司,水岸C区6号箱变高压间隔配电变压器,上拓幸福汇小区高压间隔配电变压器,水岸C区3号高压间隔配电变压器,1保定邦卓物业管理有限公司,保定市华诚房地产开发有限公司,世纪家园小区1号箱变高压间隔配电变压器,徐水县冠运汽车维修有限责任公司,0550851419-河北兴威索具制造有限公司-专变-49038693-河北兴威索具制造有限公司,安肃供电所8号,世纪家园小区5号高压间隔配电变压器,安肃供电所4号,徐水县华忠房地产开发有限公司,保定卓泰吊索具制品有限公司,河北智联房地产开发有限公司5#变,何家店3号,众之友汽车修理厂 变压器,保定润达羊毛制品有限公司,徐水县钰鑫商贸有限公司,河北智联房地产有限公司2#变,南关4号变压器,河北智联房地产开发有限公司6#变,盛源97号（空中花园3号南箱变）,保定上拓房地产开发有限公司变压器,","scope":"【影响街道/乡镇】安肃镇 【高危重要客户】无 【影响客户】何家店、民政局家属院、南城村、南关村、空中花园小区、世纪家园小区、水岸C区、上拓幸福汇小区","startTime":"2019-08-20 02:30:00","stopDate":"2019-08-20 23:59:00","orgNo":"1340605","typeCode":"临时停电","poweroffArea":"【全线路停电】停何家店9号,世纪家园小区2号高压间隔配电变压器,河北智联房地产开发有限公司4#变,保定中恒创泰工贸有限公司,徐水县德龙玻璃雕刻经营部,张红艳,徐水县科瑞达第二加油站,盛源96号（空中花园2号北箱变）,盛源98号（空中花园4号南箱变）,徐水县农机监理站,何家店2号,河北智联房地产开发有限公司3#变,变压器,河北智联房地产开发公司1#变,世纪家园小区3号高压间隔配电变压器,盛源95号（空中花园1号北箱变）,南城村8号台区,南关4号变压器,世纪家园小区1号箱变高压间隔配电变压器,徐水县冠运汽车维修有限责任公司,0550851419-河北兴威索具制造有限公司-专变-49038693-河北兴威索具制造有限公司,安肃供电所8号,世纪家园小区5号高压间隔配电变压器,安肃供电所4号,徐水县华忠房地产开发有限公司,保定卓泰吊索具制品有限公司,河北智联房地产开发有限公司5#变,何家店3号,众之友汽车修理厂 变压器,保定润达羊毛制品有限公司,徐水县钰鑫商贸有限公司,河北智联房地产有限公司2#变,河北智联房地产开发有限公司6#变,盛源97号（空中花园3号南箱变）,保定上拓房地产开发有限公司变压器,徐水县海达电气焊加工厂变压器,保定市徐水区住房和城乡建设局路灯,世纪家园小区4号高压间隔配电变压器,何家店7号,0572620255-保定市徐水区住房和城乡建设局-专变-119513876-徐水县住房和城乡建设局,丽华制帽厂,0662794330-保定惠家物业服务有限公司-专变-197563928-徐水县太行物业服务有限公司变压器,王井安,0469073355-河北瑞奕腾达商贸有限公司-专变-46716307-徐水县博润汽车商贸有限公司,0672104134-保定巨力物业管理有限公司-专变-212372643-保定巨力物业管理有限公司,民政局家属院,徐水养路工区,保定市徐水区诚泽物业服务有限公司,水岸C区6号箱变高压间隔配电变压器,上拓幸福汇小区高压间隔配电变压器,水岸C区3号高压间隔配电变压器,1保定邦卓物业管理有限公司,保定市华诚房地产开发有限公司,水岸C区7号箱变高压间隔配电变压器,保定上拓房地产开发有限公司（何家店566线）,刘伶景区安肃电动车充电站公用配电变压器,上拓幸福汇小区3号箱变高压间隔配电变压器,水岸C区5号箱变高压间隔配电变压器,水岸C区4号箱变高压间隔配电变压器,水岸C区1号高压间隔配电变压器,上拓幸福汇小区2号箱变间隔配电变压器,水岸C区2号高压间隔配电变压器,水岸C区8号高压间隔配电变压器,保定上拓房地产开发有限公司,0630932779-保定市徐水区住房和城乡建设局刘伶公园-专变-141699167-徐水县住房和城乡建设局刘伶公园","poweroffReason":"【停电原因】由于线路检修导致１１０ＫＶ何家店变电站前营５６７线路全线停电 【变更送电】因工作未完成原因，送电时间由２２:３０变更为２３:５９ 【发布渠道】通过９５５９８发布","powerTime":"2019-08-20 23:06:28","powerComm":"已送电","subsNo":"","lineNo":"","tgNo":"","tgName":null,"infoStatus":"1","orgName":"国网徐水县供电公司","typeName":null,"infoStatusName":null,"dateDay":null,"orgNos":null,"nowTime":null,"countyName":null,"streetName":null,"villageName":null,"roadName":null,"communityName":null,"tranName":null,"sdLineName":null,"cityCode":"1340605","cityName":"国网徐水县供电公司","provinceCode":null,"stopTime":"2019-08-20 23:59:00","powerType":"全部","powerOffArea":"【全线路停电】停何家店9号,世纪家园小区2号高压间隔配电变压器,河北智联房地产开发有限公司4#变,保定中恒创泰工贸有限公司,徐水县德龙玻璃雕刻经营部,张红艳,徐水县科瑞达第二加油站,盛源96号（空中花园2号北箱变）,盛源98号（空中花园4号南箱变）,徐水县农机监理站,何家店2号,河北智联房地产开发有限公司3#变,变压器,河北智联房地产开发公司1#变,世纪家园小区3号高压间隔配电变压器,盛源95号（空中花园1号北箱变）,南城村8号台区,南关4号变压器,世纪家园小区1号箱变高压间隔配电变压器,徐水县冠运汽车维修有限责任公司,0550851419-河北兴威索具制造有限公司-专变-49038693-河北兴威索具制造有限公司,安肃供电所8号,世纪家园小区5号高压间隔配电变压器,安肃供电所4号,徐水县华忠房地产开发有限公司,保定卓泰吊索具制品有限公司,河北智联房地产开发有限公司5#变,何家店3号,众之友汽车修理厂 变压器,保定润达羊毛制品有限公司,徐水县钰鑫商贸有限公司,河北智联房地产有限公司2#变,河北智联房地产开发有限公司6#变,盛源97号（空中花园3号南箱变）,保定上拓房地产开发有限公司变压器,徐水县海达电气焊加工厂变压器,保定市徐水区住房和城乡建设局路灯,世纪家园小区4号高压间隔配电变压器,何家店7号,0572620255-保定市徐水区住房和城乡建设局-专变-119513876-徐水县住房和城乡建设局,丽华制帽厂,0662794330-保定惠家物业服务有限公司-专变-197563928-徐水县太行物业服务有限公司变压器,王井安,0469073355-河北瑞奕腾达商贸有限公司-专变-46716307-徐水县博润汽车商贸有限公司,0672104134-保定巨力物业管理有限公司-专变-212372643-保定巨力物业管理有限公司,民政局家属院,徐水养路工区,保定市徐水区诚泽物业服务有限公司,水岸C区6号箱变高压间隔配电变压器,上拓幸福汇小区高压间隔配电变压器,水岸C区3号高压间隔配电变压器,1保定邦卓物业管理有限公司,保定市华诚房地产开发有限公司,水岸C区7号箱变高压间隔配电变压器,保定上拓房地产开发有限公司（何家店566线）,刘伶景区安肃电动车充电站公用配电变压器,上拓幸福汇小区3号箱变高压间隔配电变压器,水岸C区5号箱变高压间隔配电变压器,水岸C区4号箱变高压间隔配电变压器,水岸C区1号高压间隔配电变压器,上拓幸福汇小区2号箱变间隔配电变压器,水岸C区2号高压间隔配电变压器,水岸C区8号高压间隔配电变压器,保定上拓房地产开发有限公司,0630932779-保定市徐水区住房和城乡建设局刘伶公园-专变-141699167-徐水县住房和城乡建设局刘伶公园","powerOffReason":"【停电原因】由于线路检修导致１１０ＫＶ何家店变电站前营５６７线路全线停电 【变更送电】因工作未完成原因，送电时间由２２:３０变更为２３:５９ 【发布渠道】通过９５５９８发布","powerOffId":"2019081613000484"},{"poweroffId":2019081613000479,"sgpoweroffId":null,"subsName":"","lineName":"10kV备用580","pubTranName":"南关村（供2）,西于庄4号,徐水县融源物业管理有限公司1号,南关8号,变压器,南关1,保定巨力物业管理有限公司,保定市徐水区方一圆物业管理有限公司,徐水县华阳热收缩膜包装材料厂,南城村7号台区,盛源32号（化肥厂）,南城2号变压器,南城6号【纯农排变】,盛源34号（焦化厂）,鑫泰园小区1号配电变压器,徐水二中,南关6号,盛源73号（同兴家园箱变）,永兴77号箱变（鑫源美景三期6号楼）,0606432263-徐水县星玥房地产开发有限公司-专变-127282718-徐水县星玥房地产开发有限公司,徐水县融源物业管理有限公司4号,徐水县巨能机械加工有限公司,永兴78号箱变（鑫源美景三期7号楼）,南关7号,永兴饮料厂,","scope":"【影响街道/乡镇】安肃镇 【高危重要客户】无 【影响客户】南关村、西于庄、南城村、鑫泰园小区、同兴家园、鑫源美景三期、徐水二中","startTime":"2019-08-20 02:30:00","stopDate":"2019-08-20 23:59:00","orgNo":"1340605","typeCode":"临时停电","poweroffArea":"【全线路停电】停南关村（供2）,西于庄4号,徐水县融源物业管理有限公司1号,南关8号,变压器,南关1,保定巨力物业管理有限公司,保定市徐水区方一圆物业管理有限公司,徐水县华阳热收缩膜包装材料厂,盛源32号（化肥厂）,南城2号变压器,南城6号【纯农排变】,盛源34号（焦化厂）,鑫泰园小区1号配电变压器,徐水二中,南关6号,盛源73号（同兴家园箱变）,永兴77号箱变（鑫源美景三期6号楼）,0606432263-徐水县星玥房地产开发有限公司-专变-127282718-徐水县星玥房地产开发有限公司,徐水县融源物业管理有限公司4号,徐水县巨能机械加工有限公司,永兴78号箱变（鑫源美景三期7号楼）,南关7号,永兴饮料厂,南城村7号台区","poweroffReason":"【停电原因】由于线路检修导致１１０ＫＶ何家店变电站备用５８０线路全线停电 【变更送电】因工作未完成原因，送电时间由２２:３０变更为２３:５９ 【发布渠道】通过９５５９８发布","powerTime":"2019-08-20 23:00:49","powerComm":"已送电","subsNo":"","lineNo":"","tgNo":"","tgName":null,"infoStatus":"1","orgName":"国网徐水县供电公司","typeName":null,"infoStatusName":null,"dateDay":null,"orgNos":null,"nowTime":null,"countyName":null,"streetName":null,"villageName":null,"roadName":null,"communityName":null,"tranName":null,"sdLineName":null,"cityCode":"1340605","cityName":"国网徐水县供电公司","provinceCode":null,"stopTime":"2019-08-20 23:59:00","powerType":"全部","powerOffArea":"【全线路停电】停南关村（供2）,西于庄4号,徐水县融源物业管理有限公司1号,南关8号,变压器,南关1,保定巨力物业管理有限公司,保定市徐水区方一圆物业管理有限公司,徐水县华阳热收缩膜包装材料厂,盛源32号（化肥厂）,南城2号变压器,南城6号【纯农排变】,盛源34号（焦化厂）,鑫泰园小区1号配电变压器,徐水二中,南关6号,盛源73号（同兴家园箱变）,永兴77号箱变（鑫源美景三期6号楼）,0606432263-徐水县星玥房地产开发有限公司-专变-127282718-徐水县星玥房地产开发有限公司,徐水县融源物业管理有限公司4号,徐水县巨能机械加工有限公司,永兴78号箱变（鑫源美景三期7号楼）,南关7号,永兴饮料厂,南城村7号台区","powerOffReason":"【停电原因】由于线路检修导致１１０ＫＶ何家店变电站备用５８０线路全线停电 【变更送电】因工作未完成原因，送电时间由２２:３０变更为２３:５９ 【发布渠道】通过９５５９８发布","powerOffId":"2019081613000479"},{"poweroffId":2019081613000467,"sgpoweroffId":null,"subsName":"","lineName":"菜园537","pubTranName":"五一面粉厂(50),港里村卢忠凯变压器,易县扶贫福利配件厂(赵海山),长峪6队井变压器【纯农排变】,河北青山种禽有限公司高压器,菜园杨树岭,黄虎石板厂,黄忠石材加工厂(50KVA),北娄山村7#村中,易县西山北乡人民政府变压器,黄忠石材加工厂(80KVA),菜园村杨宁变压器,西步乐村8#新井【纯农排变】,易县邮政局山北邮政支局,团山村1#,于家庄村2#,于家庄村巩宝田西岗变压器,敬玉河石板厂2#,于家庄南石材厂,菜园村4#【纯农排变】,西山北村郭成群变压器,于家庄村1#,五一面粉厂(南井),南娄山村7#【纯农排变】,0677996301-南娄山村牛宝同-专变-219383403-南娄山村牛宝同50KVA,程宏石材长(李春喜),北娄山村8#村北【纯农排变】,南娄山村3#【纯农排变】,南娄山村8#村西,西山北村5#,0681103885-易县讴文农业开发有限责任公司-专变-219717662-易县讴文农业开发有限责任公司100KVA,长峪村10#,龙树石材厂,西山北村10#【纯农排变】,河北建设集团有限公司-长峪630KVA,菜园村新井7#【纯农排变】,易县通亿石材厂(郭连成),长峪村1#,鹏程石板厂(隰连国),中国移动通信集团河北有限公司易县分公司安装变压器,长峪村4#,西山北乡人民政府变压器,沙岭村2#【纯农排变】,于家庄村巩宝田北岗变压器,于家庄村6#村北,沙岭村3#,西山北兄弟石板厂,西山北村2#,南娄山村10#【纯农排变】,信诚石材厂(隰富山),西步乐村9#【纯农排变】,合利石板厂(李连合),西山北村6#,易县西山北春山石材加工厂变压器,敬玉河石板厂3#,北娄山林场,顺达造纸厂,保定泽疆旅游开发有限公司变压器,易县青山种禽有限公司变压器,长峪村6#|8队,菜园村8#三队西,菜园村3#,磊鑫石材厂2#变,敬玉河石板厂(丰磊),西步乐10#村南,西山北村1#,易县永兴石材加工厂315KVA,易县永幸石材厂,长峪村9#南井,北娄山村5#,南娄山村1#,长峪村8#【纯农排变】,沙岭村4#村中,丰磊石板厂100(敬玉河),西山北中心小学变压器,长峪8队西变,于家庄村3#村北,0674599321-西山北村敬洪利-专变-215869052-西山北村敬洪利250KVA,西山北村3#,长峪村7#【纯农排变】,于家庄村4#【纯农排变】,郭伟忠石板厂,西山北宇达石材厂(王福详),长峪村5#,西山北石板厂(郭士彪),菜园1队北井【纯农排变】,长峪村3#,易县宏发钙粉厂(许建民),学峰养鸡厂,长峪8队北井【纯农排变】,","scope":"【影响街道/乡镇】西山北乡 【高危重要客户】无 【影响客户】西山北村、西步乐村、东步乐村、团山村、于家庄村、南娄山村、长峪村、菜园村、沙岭村、北娄山村、西娄山村","startTime":"2019-08-16 09:48:39","stopDate":"2019-08-16 13:10:00","orgNo":"1340625","typeCode":"电网故障停限电","poweroffArea":"【全线路停电】停西山北村2#,长峪村6#|8队,南娄山村10#【纯农排变】,河北青山种禽有限公司高压器,长峪8队西变,易县宏发钙粉厂(许建民),长峪8队北井【纯农排变】,易县通亿石材厂(郭连成),长峪村7#【纯农排变】,易县邮政局山北邮政支局,学峰养鸡厂,长峪村5#,易县永兴石材加工厂315KVA,西山北村6#,沙岭村3#,于家庄村1#,菜园村新井7#【纯农排变】,西山北乡人民政府变压器,于家庄村3#村北,长峪村1#,菜园村3#,于家庄村巩宝田西岗变压器,北娄山村7#村中,菜园村4#【纯农排变】,长峪6队井变压器【纯农排变】,于家庄村4#【纯农排变】,长峪村3#,磊鑫石材厂2#变,西步乐10#村南,长峪村10#,河北建设集团有限公司-长峪630KVA,北娄山林场,鹏程石板厂(隰连国),沙岭村4#村中,菜园村杨宁变压器,龙树石材厂,西步乐村8#新井【纯农排变】,菜园杨树岭,西山北村3#,易县西山北春山石材加工厂变压器,长峪村4#,西山北中心小学变压器,于家庄村6#村北,港里村卢忠凯变压器,0674599321-西山北村敬洪利-专变-215869052-西山北村敬洪利250KVA,敬玉河石板厂(丰磊),团山村1#,长峪村8#【纯农排变】,敬玉河石板厂2#,信诚石材厂(隰富山),0681103885-易县讴文农业开发有限责任公司-专变-219717662-易县讴文农业开发有限责任公司100KVA,菜园1队北井【纯农排变】,易县永幸石材厂,黄忠石材加工厂(80KVA),长峪村9#南井,西山北兄弟石板厂,合利石板厂(李连合),中国移动通信集团河北有限公司易县分公司安装变压器,顺达造纸厂,西山北宇达石材厂(王福详),五一面粉厂(南井),易县青山种禽有限公司变压器,北娄山村8#村北【纯农排变】,西步乐村9#【纯农排变】,敬玉河石板厂3#,西山北村10#【纯农排变】,五一面粉厂(50),西山北村郭成群变压器,易县西山北乡人民政府变压器,0677996301-南娄山村牛宝同-专变-219383403-南娄山村牛宝同50KVA,于家庄村2#,西山北石板厂(郭士彪),于家庄南石材厂,易县扶贫福利配件厂(赵海山),程宏石材长(李春喜),南娄山村1#,丰磊石板厂100(敬玉河),郭伟忠石板厂,于家庄村巩宝田北岗变压器,北娄山村5#,菜园村8#三队西,黄忠石材加工厂(50KVA),黄虎石板厂,南娄山村8#村西,保定泽疆旅游开发有限公司变压器,西山北村5#,西山北村1#,沙岭村2#【纯农排变】,南娄山村3#【纯农排变】,南娄山村7#【纯农排变】","poweroffReason":"【停电原因】由于线路接地导致３５ＫＶ步乐变电站菜园５３７线路全线停电【变更送电】因抢修进度加快原因，送电时间由１８：００变更为１３：１０【发布渠道】通过９５５９８发布","powerTime":"2019-08-16 12:53:19","powerComm":"已送电","subsNo":"","lineNo":"","tgNo":"","tgName":null,"infoStatus":"1","orgName":"国网易县供电公司","typeName":null,"infoStatusName":null,"dateDay":null,"orgNos":null,"nowTime":null,"countyName":null,"streetName":null,"villageName":null,"roadName":null,"communityName":null,"tranName":null,"sdLineName":null,"cityCode":"1340625","cityName":"国网易县供电公司","provinceCode":null,"stopTime":"2019-08-16 13:10:00","powerType":"全部","powerOffArea":"【全线路停电】停西山北村2#,长峪村6#|8队,南娄山村10#【纯农排变】,河北青山种禽有限公司高压器,长峪8队西变,易县宏发钙粉厂(许建民),长峪8队北井【纯农排变】,易县通亿石材厂(郭连成),长峪村7#【纯农排变】,易县邮政局山北邮政支局,学峰养鸡厂,长峪村5#,易县永兴石材加工厂315KVA,西山北村6#,沙岭村3#,于家庄村1#,菜园村新井7#【纯农排变】,西山北乡人民政府变压器,于家庄村3#村北,长峪村1#,菜园村3#,于家庄村巩宝田西岗变压器,北娄山村7#村中,菜园村4#【纯农排变】,长峪6队井变压器【纯农排变】,于家庄村4#【纯农排变】,长峪村3#,磊鑫石材厂2#变,西步乐10#村南,长峪村10#,河北建设集团有限公司-长峪630KVA,北娄山林场,鹏程石板厂(隰连国),沙岭村4#村中,菜园村杨宁变压器,龙树石材厂,西步乐村8#新井【纯农排变】,菜园杨树岭,西山北村3#,易县西山北春山石材加工厂变压器,长峪村4#,西山北中心小学变压器,于家庄村6#村北,港里村卢忠凯变压器,0674599321-西山北村敬洪利-专变-215869052-西山北村敬洪利250KVA,敬玉河石板厂(丰磊),团山村1#,长峪村8#【纯农排变】,敬玉河石板厂2#,信诚石材厂(隰富山),0681103885-易县讴文农业开发有限责任公司-专变-219717662-易县讴文农业开发有限责任公司100KVA,菜园1队北井【纯农排变】,易县永幸石材厂,黄忠石材加工厂(80KVA),长峪村9#南井,西山北兄弟石板厂,合利石板厂(李连合),中国移动通信集团河北有限公司易县分公司安装变压器,顺达造纸厂,西山北宇达石材厂(王福详),五一面粉厂(南井),易县青山种禽有限公司变压器,北娄山村8#村北【纯农排变】,西步乐村9#【纯农排变】,敬玉河石板厂3#,西山北村10#【纯农排变】,五一面粉厂(50),西山北村郭成群变压器,易县西山北乡人民政府变压器,0677996301-南娄山村牛宝同-专变-219383403-南娄山村牛宝同50KVA,于家庄村2#,西山北石板厂(郭士彪),于家庄南石材厂,易县扶贫福利配件厂(赵海山),程宏石材长(李春喜),南娄山村1#,丰磊石板厂100(敬玉河),郭伟忠石板厂,于家庄村巩宝田北岗变压器,北娄山村5#,菜园村8#三队西,黄忠石材加工厂(50KVA),黄虎石板厂,南娄山村8#村西,保定泽疆旅游开发有限公司变压器,西山北村5#,西山北村1#,沙岭村2#【纯农排变】,南娄山村3#【纯农排变】,南娄山村7#【纯农排变】","powerOffReason":"【停电原因】由于线路接地导致３５ＫＶ步乐变电站菜园５３７线路全线停电【变更送电】因抢修进度加快原因，送电时间由１８：００变更为１３：１０【发布渠道】通过９５５９８发布","powerOffId":"2019081613000467"},{"poweroffId":2019081613000459,"sgpoweroffId":null,"subsName":"","lineName":"灌城线511","pubTranName":"东庄湾1122变压器,丰山庄1140变压器,十八渡1108变压器【纯农排变】,南屯村2296变压器,坡上村1098变压器【纯农排变】,坡下4812变压器,坡上3252变压器,南屯村2964变压器【纯农排变】,唐县兴华水泥砖厂3313,十八渡2046变压器【纯农排变】,坡上4810变压器,东庄湾4828变压器,唐县杰顺荒山开发有限公司5001,东庄湾2851变压器,北屯村0681变压器,十八渡4850变压器,坡上水利2241变压器【纯农排变】,坡上养殖1123,坡下北1100变压器,坡下4557变压器,灌城内1103变压器,0387521206-唐县安顺石料厂-专变-45338842-唐县安顺石料厂3365,东庄湾1105变压器,灌城村1120变压器,东庄湾西南水3103变压器【纯农排变】,岭底村1898变压器,十八渡1117变压器,十八渡1107变压器,坡下1118变压器,北屯村1102变压器,南屯村荒山2612变压器【纯农排变】,丰山庄1109变压器,北屯村5046变压器,东庄湾西4025变压器,坡上4983变压器,坡上村1099变压器【纯农排变】,北屯浇地水利1101变压器【纯农排变】,灌城村1971变压器【纯农排变】,南屯村0673变压器,十八渡1982变压器,邸玉龙水2387变压器【纯农排变】,十八渡2857变压器,风山庄4809变压器,十八渡4984变压器,南屯村1113变压器【纯农排变】,坡上村1114变压器,岭底村1110变压器,东庄湾水利2663变压器【纯农排变】,坡上村0676变压器,东庄湾荒山开发有限公司3386变压器,灌城村北4026变压器,南屯6039变压器,灌城4813变压器,南屯村1096变压器,灌城村1116变压器【纯农排变】,坡下1972变压器【纯农排变】,","scope":"【影响街道/乡镇】罗庄乡【高危重要客户】无【影响客户】坡上、东庄湾、北屯、南屯、灌城、坡下、风山庄、十八渡","startTime":"2019-08-16 09:42:16","stopDate":"2019-08-16 16:10:00","orgNo":"1340622","typeCode":"电网故障停限电","poweroffArea":"【全线路停电】停东庄湾2851变压器,岭底村1110变压器,十八渡1108变压器【纯农排变】,南屯村2296变压器,十八渡1117变压器,坡上村0676变压器,0387521206-唐县安顺石料厂-专变-45338842-唐县安顺石料厂3365,十八渡1107变压器,北屯村1102变压器,丰山庄1109变压器,坡下1972变压器【纯农排变】,南屯6039变压器,东庄湾1122变压器,坡上水利2241变压器【纯农排变】,风山庄4809变压器,东庄湾水利2663变压器【纯农排变】,北屯村0681变压器,坡下1118变压器,坡下北1100变压器,坡下4812变压器,丰山庄1140变压器,东庄湾1105变压器,十八渡4984变压器,十八渡1982变压器,唐县兴华水泥砖厂3313,南屯村1113变压器【纯农排变】,南屯村荒山2612变压器【纯农排变】,东庄湾西南水3103变压器【纯农排变】,唐县杰顺荒山开发有限公司5001,坡上4810变压器,坡下4557变压器,南屯村0673变压器,坡上村1098变压器【纯农排变】,灌城内1103变压器,坡上村1114变压器,东庄湾4828变压器,灌城村北4026变压器,东庄湾西4025变压器,北屯村5046变压器,十八渡4850变压器,坡上4983变压器,灌城4813变压器,坡上养殖1123,南屯村2964变压器【纯农排变】,岭底村1898变压器,十八渡2857变压器,灌城村1971变压器【纯农排变】,坡上村1099变压器【纯农排变】,坡上3252变压器,南屯村1096变压器,东庄湾荒山开发有限公司3386变压器,邸玉龙水2387变压器【纯农排变】,灌城村1120变压器,北屯浇地水利1101变压器【纯农排变】,灌城村1116变压器【纯农排变】,十八渡2046变压器【纯农排变】","poweroffReason":"【停电原因】由于线路接地导致３５ＫＶ西大洋变电站灌城线５１１线路全线停电【变更送电】因抢修进度加快原因，送电时间由２１：００变更为１６：１０【发布渠道】通过９５５９８发布","powerTime":"2019-08-16 15:53:05","powerComm":"已送电","subsNo":"","lineNo":"","tgNo":"","tgName":null,"infoStatus":"1","orgName":"国网唐县供电公司","typeName":null,"infoStatusName":null,"dateDay":null,"orgNos":null,"nowTime":null,"countyName":null,"streetName":null,"villageName":null,"roadName":null,"communityName":null,"tranName":null,"sdLineName":null,"cityCode":"1340622","cityName":"国网唐县供电公司","provinceCode":null,"stopTime":"2019-08-16 16:10:00","powerType":"全部","powerOffArea":"【全线路停电】停东庄湾2851变压器,岭底村1110变压器,十八渡1108变压器【纯农排变】,南屯村2296变压器,十八渡1117变压器,坡上村0676变压器,0387521206-唐县安顺石料厂-专变-45338842-唐县安顺石料厂3365,十八渡1107变压器,北屯村1102变压器,丰山庄1109变压器,坡下1972变压器【纯农排变】,南屯6039变压器,东庄湾1122变压器,坡上水利2241变压器【纯农排变】,风山庄4809变压器,东庄湾水利2663变压器【纯农排变】,北屯村0681变压器,坡下1118变压器,坡下北1100变压器,坡下4812变压器,丰山庄1140变压器,东庄湾1105变压器,十八渡4984变压器,十八渡1982变压器,唐县兴华水泥砖厂3313,南屯村1113变压器【纯农排变】,南屯村荒山2612变压器【纯农排变】,东庄湾西南水3103变压器【纯农排变】,唐县杰顺荒山开发有限公司5001,坡上4810变压器,坡下4557变压器,南屯村0673变压器,坡上村1098变压器【纯农排变】,灌城内1103变压器,坡上村1114变压器,东庄湾4828变压器,灌城村北4026变压器,东庄湾西4025变压器,北屯村5046变压器,十八渡4850变压器,坡上4983变压器,灌城4813变压器,坡上养殖1123,南屯村2964变压器【纯农排变】,岭底村1898变压器,十八渡2857变压器,灌城村1971变压器【纯农排变】,坡上村1099变压器【纯农排变】,坡上3252变压器,南屯村1096变压器,东庄湾荒山开发有限公司3386变压器,邸玉龙水2387变压器【纯农排变】,灌城村1120变压器,北屯浇地水利1101变压器【纯农排变】,灌城村1116变压器【纯农排变】,十八渡2046变压器【纯农排变】","powerOffReason":"【停电原因】由于线路接地导致３５ＫＶ西大洋变电站灌城线５１１线路全线停电【变更送电】因抢修进度加快原因，送电时间由２１：００变更为１６：１０【发布渠道】通过９５５９８发布","powerOffId":"2019081613000459"},{"poweroffId":2019081613000449,"sgpoweroffId":null,"subsName":"","lineName":"鸽子岭线515","pubTranName":"515钢厂医院配变,涞源县杨家庄镇中心小学中心幼儿园变压器,涞源县杨家庄镇中心小学,515钢厂单身家属楼配变,涞源县涞钢涞铜社区管理委员会变压器,杨家庄镇政府,515钢厂车队家属楼配变,涞源县公安局杨家庄公安分局变压器,0557036981-涞源县通达矿产品经销处-专变-107350673-变压器,515木吉村北配变,515铜矿厂区台区配变,515木吉村南配变,浮图峪通信服务部,涞源县庆阳装卸队变压器,0558180445-涞钢涞铜社区2-专变-114319443-变压器,515钢厂家属楼北配变,515设备库台区配变,杨家庄地税所变压器,515铜矿北山家属楼东配变,515分局配变,涞源县杨家庄镇浮图峪居民委员会变压器,变压器,涞源县杨家庄镇杨家庄村村民委员会（居民吃水）变压器,515钢厂家属楼配变,515浮图峪村配变,涞源县钢铁厂职工医院社区卫生服务中心变压器,515钢厂家属楼中配变,515铜矿北山家属楼西配变,515东湾家属房配变,515浮图峪村东配变,涞源县杨家庄镇中心小学杨家庄学校变压器,515钢厂家属楼南配变,","scope":"【影响街道/乡镇】杨家庄镇【高危重要客户】无【影响客户】钢厂家属楼、钢厂医院、铜矿厂区、铜矿北山家属楼、浮图峪、木吉村、木吉村小学","startTime":"2019-08-23 07:00:00","stopDate":"2019-08-23 09:00:00","orgNo":"1340615","typeCode":"临时停电","poweroffArea":"【全线路停电】停杨家庄镇政府,浮图峪通信服务部,涞源县庆阳装卸队变压器,0558180445-涞钢涞铜社区2-专变-114319443-变压器,515钢厂家属楼北配变,515设备库台区配变,杨家庄地税所变压器,515铜矿北山家属楼东配变,515分局配变,涞源县杨家庄镇浮图峪居民委员会变压器,变压器,515钢厂车队家属楼配变,涞源县公安局杨家庄公安分局变压器,0557036981-涞源县通达矿产品经销处-专变-107350673-变压器,515木吉村北配变,515铜矿厂区台区配变,515木吉村南配变,515钢厂家属楼配变,涞源县杨家庄镇杨家庄村村民委员会（居民吃水）变压器,515浮图峪村配变,涞源县钢铁厂职工医院社区卫生服务中心变压器,515钢厂家属楼中配变,515铜矿北山家属楼西配变,515东湾家属房配变,515浮图峪村东配变,涞源县杨家庄镇中心小学杨家庄学校变压器,515钢厂家属楼南配变,515钢厂医院配变,涞源县杨家庄镇中心小学中心幼儿园变压器,涞源县杨家庄镇中心小学,515钢厂单身家属楼配变,涞源县涞钢涞铜社区管理委员会变压器","poweroffReason":"【停电原因】由于配合站内消缺导致３５ＫＶ杨家庄变电站１０ＫＶ鸽子岭线５１５线路全线停电【变更送电】无【发布渠道】通过９５５９８发布","powerTime":"2019-08-23 08:11:24","powerComm":"已送电","subsNo":"","lineNo":"","tgNo":"","tgName":null,"infoStatus":"1","orgName":"国网涞源县供电公司","typeName":null,"infoStatusName":null,"dateDay":null,"orgNos":null,"nowTime":null,"countyName":null,"streetName":null,"villageName":null,"roadName":null,"communityName":null,"tranName":null,"sdLineName":null,"cityCode":"1340615","cityName":"国网涞源县供电公司","provinceCode":null,"stopTime":"2019-08-23 09:00:00","powerType":"全部","powerOffArea":"【全线路停电】停杨家庄镇政府,浮图峪通信服务部,涞源县庆阳装卸队变压器,0558180445-涞钢涞铜社区2-专变-114319443-变压器,515钢厂家属楼北配变,515设备库台区配变,杨家庄地税所变压器,515铜矿北山家属楼东配变,515分局配变,涞源县杨家庄镇浮图峪居民委员会变压器,变压器,515钢厂车队家属楼配变,涞源县公安局杨家庄公安分局变压器,0557036981-涞源县通达矿产品经销处-专变-107350673-变压器,515木吉村北配变,515铜矿厂区台区配变,515木吉村南配变,515钢厂家属楼配变,涞源县杨家庄镇杨家庄村村民委员会（居民吃水）变压器,515浮图峪村配变,涞源县钢铁厂职工医院社区卫生服务中心变压器,515钢厂家属楼中配变,515铜矿北山家属楼西配变,515东湾家属房配变,515浮图峪村东配变,涞源县杨家庄镇中心小学杨家庄学校变压器,515钢厂家属楼南配变,515钢厂医院配变,涞源县杨家庄镇中心小学中心幼儿园变压器,涞源县杨家庄镇中心小学,515钢厂单身家属楼配变,涞源县涞钢涞铜社区管理委员会变压器","powerOffReason":"【停电原因】由于配合站内消缺导致３５ＫＶ杨家庄变电站１０ＫＶ鸽子岭线５１５线路全线停电【变更送电】无【发布渠道】通过９５５９８发布","powerOffId":"2019081613000449"},{"poweroffId":2019081613000434,"sgpoweroffId":null,"subsName":"","lineName":"冯家庄线513","pubTranName":"513冯家庄配变,涞源县宏伟工贸有限公司,涞源县杨家庄镇中心小学育成学校变压器,513董家庄配变,","scope":"【影响街道/乡镇】杨家庄镇【高危重要客户】无【影响客户】冯家庄、董家庄","startTime":"2019-08-23 07:00:00","stopDate":"2019-08-23 09:00:00","orgNo":"1340615","typeCode":"临时停电","poweroffArea":"【全线路停电】停513冯家庄配变,涞源县宏伟工贸有限公司,涞源县杨家庄镇中心小学育成学校变压器,513董家庄配变","poweroffReason":"【停电原因】由于配合站内消缺导致３５ＫＶ杨家庄变电站１０ＫＶ冯家庄线５１３线路全线停电【变更送电】无【发布渠道】通过９５５９８发布","powerTime":"2019-08-23 08:11:50","powerComm":"已送电","subsNo":"","lineNo":"","tgNo":"","tgName":null,"infoStatus":"1","orgName":"国网涞源县供电公司","typeName":null,"infoStatusName":null,"dateDay":null,"orgNos":null,"nowTime":null,"countyName":null,"streetName":null,"villageName":null,"roadName":null,"communityName":null,"tranName":null,"sdLineName":null,"cityCode":"1340615","cityName":"国网涞源县供电公司","provinceCode":null,"stopTime":"2019-08-23 09:00:00","powerType":"全部","powerOffArea":"【全线路停电】停513冯家庄配变,涞源县宏伟工贸有限公司,涞源县杨家庄镇中心小学育成学校变压器,513董家庄配变","powerOffReason":"【停电原因】由于配合站内消缺导致３５ＫＶ杨家庄变电站１０ＫＶ冯家庄线５１３线路全线停电【变更送电】无【发布渠道】通过９５５９８发布","powerOffId":"2019081613000434"},{"poweroffId":2019081613000428,"sgpoweroffId":null,"subsName":"","lineName":"北归还线522","pubTranName":"张连城73综合,北归还10#台区110#农业【纯农排变】,中国石油天然气股份有限公司华北油田分公司变压器,南归还22#农业【纯农排变】,刘连城101综合,南归还19#农业【纯农排变】,宏大电力金具厂,西团丁38号农业【纯农排变】,东团丁119#农业【纯农排变】,严连成43#农业【纯农排变】,西团丁103号农业【纯农排变】,西团丁40综合,邱佐渡锌厂,邱佐62综合,南归还西北综合,南归还18#农业【纯农排变】,北归还12#台区111#农业【纯农排变】,东团丁33#农业【纯农排变】,西归还96#农业【纯农排变】,南归还123#农业【纯农排变】,张连城63综合,张连城3号农业,刘连城村东北新增综合,西团丁39号农排【纯农排变】,北归还面粉厂,河北永安线路器材有限公司,西团丁二面厂,东团丁新增综合,0668400088-中国石油天然气股份有限公司华北油田分公司-专变-208443181-中国石油天然气股份有限公司华北油田分公司变压器,北团丁30号农业【纯农排变】,西归还95#农业【纯农排变】,高阳县宏建金属制品表面处理有限公司变压器,北团丁89综合,东团丁69综合,南归还村东综合,严连城116#农业【纯农排变】,北归还村南新增综合,任丘华北石油科信采油技术研究开发有限公司,南归还23#农业【纯农排变】,高全乐,西团丁59号农业【纯农排变】,西团丁六合油坊,大兴庄村东综合,刘连城村东新增综合,严连城42#农业【纯农排变】,东团丁120#农业【纯农排变】,南归还综合（20）,严连城44#农业【纯农排变】,西团丁104号农业【纯农排变】,西归还26#农业【纯农排变】,北团丁83#农业【纯农排变】,保定永红绝缘制品有限公司变压器,北归还11#台区112#农业【纯农排变】,河北博胜电器设备有限公司变压器,西团丁71综合,张连城,西团丁砖厂,大兴庄综合（29),东团丁72#农业【纯农排变】,严连城68综合,西归还新增综合,西归还村70综合,邱佐村委会,西归还村南新增综合,大兴庄60号农业【纯农排变】,西团丁新增农业2号【纯农排变】,南归还村南综合（24）,南归还17#农业【纯农排变】,东团丁81#农业【纯农排变】,西归还小学综合,东团丁118#农业【纯农排变】,张连城48综合,东团丁117#农业【纯农排变】,邱佐56#农业【纯农排变】,西团丁西南新增综合,南归还21#农业【纯农排变】,东团丁82#农业【纯农排变】,西团丁新增综合,河北同兴电气有限公司变压器,南归还东南综合,高阳县宏大电力金具厂变压器,西团丁105号农业【纯农排变】,张连城2号农业,南归还村西新增综合,大兴庄28号农业【纯农排变】,张连城村东综合,西团丁84号农业【纯农排变】,西团丁41号农业【纯农排变】,西团丁村东南综合变压器,刘连城94#农业【纯农排变】,严连城村北新增综合,刘连城75#农业【纯农排变】,东团丁32#农业【纯农排变】,东团丁村里综合,西归还27#农业【纯农排变】,北归还93综合,北团丁扎花厂,东团丁综合（34）,张连城1号农业,南归还122#农业【纯农排变】,西团丁农业新增1号【纯农排变】,高阳县恒信电器绝缘材料厂变压器,南归还村南新增综合,刘连城49#","scope":"【影响街道/乡镇】庞佐乡 【高危重要客户】无 【影响客户】北归还、邱佐（邱家佐）、张连城（张家连城）、东团丁、西团丁（大团丁）、辛丰庄、南归还、严连成、刘连成（刘家连城）、西归还、北团丁、大兴庄","startTime":"2019-08-16 09:10:01","stopDate":"2019-08-16 10:50:00","orgNo":"1340613","typeCode":"电网故障停限电","poweroffArea":"【全线路停电】停张连城村东综合,高全乐,西团丁59号农业【纯农排变】,西团丁六合油坊,大兴庄村东综合,刘连城村东新增综合,西团丁41号农业【纯农排变】,南归还西北综合,南归还18#农业【纯农排变】,北归还12#台区111#农业【纯农排变】,北归还93综合,北团丁扎花厂,东团丁综合（34）,东团丁33#农业【纯农排变】,严连城44#农业【纯农排变】,西归还26#农业【纯农排变】,东团丁119#农业【纯农排变】,北团丁农业新增【纯农排变】,大兴庄新增综合,南归还21#农业【纯农排变】,东团丁82#农业【纯农排变】,西团丁新增综合,南归还121#农业【纯农排变】,西团丁农业新增3号【纯农排变】,张连城4号农业,河北同兴电气有限公司变压器,北归还村南新增综合,河北博胜电器设备有限公司变压器,西团丁71综合,严连成43#农业【纯农排变】,东团丁120#农业【纯农排变】,南归还综合（20）,东团丁81#农业【纯农排变】,东团丁117#农业【纯农排变】,张连城,西团丁砖厂,大兴庄综合（29),南归还村南新增综合,刘连城49#农业【纯农排变】,邱佐56#农业【纯农排变】,北团丁83#农业【纯农排变】,严连城68综合,西团丁村东南综合变压器,刘连城94#农业【纯农排变】,北归还10#台区110#农业【纯农排变】,中国石油天然气股份有限公司华北油田分公司变压器,南归还22#农业【纯农排变】,西团丁84号农业【纯农排变】,西团丁农业新增1号【纯农排变】,西团丁二面厂,严连城村北新增综合,邱佐62综合,刘连城101综合,西团丁103号农业【纯农排变】,西归还小学综合,东团丁118#农业【纯农排变】,西归还新增综合,张连城48综合,张连城63综合,南归还17#农业【纯农排变】,北团丁89综合,东团丁69综合,西团丁40综合,邱佐渡锌厂,严连城42#农业【纯农排变】,连城电器设备公司,河北永安线路器材有限公司变压器,宏大电力金具厂,西归还96#农业【纯农排变】,南归还123#农业【纯农排变】,北归还11#台区112#农业【纯农排变】,南归还122#农业【纯农排变】,张连城2号农业,西团丁西南新增综合,东团丁新增综合,0668400088-中国石油天然气股份有限公司华北油田分公司-专变-208443181-中国石油天然气股份有限公司华北油田分公司变压器,北团丁30号农业【纯农排变】,西归还95#农业【纯农排变】,高阳县宏建金属制品表面处理有限公司变压器,严连城116#农业【纯农排变】,刘连城50综合,东团丁村北综合,北归还100合用综合,西归还25#农业【纯农排变】,刘连城61#农业【纯农排变】,保定永红电器设备有限公司设备,南归还东南综合,西归还村70综合,北团丁31综合,南归还19#农业【纯农排变】,西团丁38号农业【纯农排变】,南归还村东综合,高阳县宏大电力金具厂变压器,西团丁105号农业【纯农排变】,南归还村南综合（24）,张连城3号农业,刘连城村东北新增综合,西团丁39号农排【纯农排变】,张连城73综合,南归还23#农业【纯农排变】,西归还村南新增综合,大兴庄60号农业【纯农排变】,任丘华北石油科信采油技术研究开发有限公司,保定永红绝缘制品有限公司变压器,北归还面粉厂,河北永安线路器材有限公司,张连城1号农业,西团丁新增农业2号【纯农排变】,东团丁72#农业【纯农排变】,刘连城75#农业【纯农排变】,邱佐村委会,东团丁32#农业【纯农排变】,东团丁村里综合,西归还27#农业【纯农排变】,高阳县恒信电器绝缘材料厂变压器,西团丁104号农业【纯农排变】,南归还村西新增综合,大兴庄28号农业【纯农排变】","poweroffReason":"【停电原因】由于汽车撞杆导致１１０ＫＶ西演变电站北归还５２２线路全线停电【变更送电】因抢修进度加快原因，送电时间由１４：００变更为１０：５０【发布渠道】通过９５５９８发布","powerTime":"2019-08-16 10:32:08","powerComm":"已送电","subsNo":"","lineNo":"","tgNo":"","tgName":null,"infoStatus":"1","orgName":"国网高阳县供电公司","typeName":null,"infoStatusName":null,"dateDay":null,"orgNos":null,"nowTime":null,"countyName":null,"streetName":null,"villageName":null,"roadName":null,"communityName":null,"tranName":null,"sdLineName":null,"cityCode":"1340613","cityName":"国网高阳县供电公司","provinceCode":null,"stopTime":"2019-08-16 10:50:00","powerType":"全部","powerOffArea":"【全线路停电】停张连城村东综合,高全乐,西团丁59号农业【纯农排变】,西团丁六合油坊,大兴庄村东综合,刘连城村东新增综合,西团丁41号农业【纯农排变】,南归还西北综合,南归还18#农业【纯农排变】,北归还12#台区111#农业【纯农排变】,北归还93综合,北团丁扎花厂,东团丁综合（34）,东团丁33#农业【纯农排变】,严连城44#农业【纯农排变】,西归还26#农业【纯农排变】,东团丁119#农业【纯农排变】,北团丁农业新增【纯农排变】,大兴庄新增综合,南归还21#农业【纯农排变】,东团丁82#农业【纯农排变】,西团丁新增综合,南归还121#农业【纯农排变】,西团丁农业新增3号【纯农排变】,张连城4号农业,河北同兴电气有限公司变压器,北归还村南新增综合,河北博胜电器设备有限公司变压器,西团丁71综合,严连成43#农业【纯农排变】,东团丁120#农业【纯农排变】,南归还综合（20）,东团丁81#农业【纯农排变】,东团丁117#农业【纯农排变】,张连城,西团丁砖厂,大兴庄综合（29),南归还村南新增综合,刘连城49#农业【纯农排变】,邱佐56#农业【纯农排变】,北团丁83#农业【纯农排变】,严连城68综合,西团丁村东南综合变压器,刘连城94#农业【纯农排变】,北归还10#台区110#农业【纯农排变】,中国石油天然气股份有限公司华北油田分公司变压器,南归还22#农业【纯农排变】,西团丁84号农业【纯农排变】,西团丁农业新增1号【纯农排变】,西团丁二面厂,严连城村北新增综合,邱佐62综合,刘连城101综合,西团丁103号农业【纯农排变】,西归还小学综合,东团丁118#农业【纯农排变】,西归还新增综合,张连城48综合,张连城63综合,南归还17#农业【纯农排变】,北团丁89综合,东团丁69综合,西团丁40综合,邱佐渡锌厂,严连城42#农业【纯农排变】,连城电器设备公司,河北永安线路器材有限公司变压器,宏大电力金具厂,西归还96#农业【纯农排变】,南归还123#农业【纯农排变】,北归还11#台区112#农业【纯农排变】,南归还122#农业【纯农排变】,张连城2号农业,西团丁西南新增综合,东团丁新增综合,0668400088-中国石油天然气股份有限公司华北油田分公司-专变-208443181-中国石油天然气股份有限公司华北油田分公司变压器,北团丁30号农业【纯农排变】,西归还95#农业【纯农排变】,高阳县宏建金属制品表面处理有限公司变压器,严连城116#农业【纯农排变】,刘连城50综合,东团丁村北综合,北归还100合用综合,西归还25#农业【纯农排变】,刘连城61#农业【纯农排变】,保定永红电器设备有限公司设备,南归还东南综合,西归还村70综合,北团丁31综合,南归还19#农业【纯农排变】,西团丁38号农业【纯农排变】,南归还村东综合,高阳县宏大电力金具厂变压器,西团丁105号农业【纯农排变】,南归还村南综合（24）,张连城3号农业,刘连城村东北新增综合,西团丁39号农排【纯农排变】,张连城73综合,南归还23#农业【纯农排变】,西归还村南新增综合,大兴庄60号农业【纯农排变】,任丘华北石油科信采油技术研究开发有限公司,保定永红绝缘制品有限公司变压器,北归还面粉厂,河北永安线路器材有限公司,张连城1号农业,西团丁新增农业2号【纯农排变】,东团丁72#农业【纯农排变】,刘连城75#农业【纯农排变】,邱佐村委会,东团丁32#农业【纯农排变】,东团丁村里综合,西归还27#农业【纯农排变】,高阳县恒信电器绝缘材料厂变压器,西团丁104号农业【纯农排变】,南归还村西新增综合,大兴庄28号农业【纯农排变】","powerOffReason":"【停电原因】由于汽车撞杆导致１１０ＫＶ西演变电站北归还５２２线路全线停电【变更送电】因抢修进度加快原因，送电时间由１４：００变更为１０：５０【发布渠道】通过９５５９８发布","powerOffId":"2019081613000428"},{"poweroffId":2019081613000406,"sgpoweroffId":null,"subsName":"","lineName":"支家庄线511","pubTranName":"涞源县永达矿业有限公司变压器,富涞矿山 变压器,支家庄公用配变,王大伟矿山变压器,南台公用配变,支家社北台区公用配变,变压器,0557031973-涞源县富凯矿业有限公司-专变-107350661-变压器,涞源县富涞铁矿变压器,","scope":"【影响街道/乡镇】杨家庄镇【高危重要客户】无【影响客户】支家庄村、南台村","startTime":"2019-08-23 07:00:00","stopDate":"2019-08-23 09:00:00","orgNo":"1340615","typeCode":"临时停电","poweroffArea":"【全线路停电】停南台公用配变,支家庄公用配变,涞源县永达矿业有限公司变压器,富涞矿山 变压器,王大伟矿山变压器,变压器,支家社北台区公用配变,0557031973-涞源县富凯矿业有限公司-专变-107350661-变压器,涞源县富涞铁矿变压器","poweroffReason":"【停电原因】由于配合站内消缺导致３５ＫＶ杨家庄变电站支家庄线５１１线路全线停电【变更送电】无【发布渠道】通过９５５９８发布","powerTime":"2019-08-23 08:12:15","powerComm":"已送电","subsNo":"","lineNo":"","tgNo":"","tgName":null,"infoStatus":"1","orgName":"国网涞源县供电公司","typeName":null,"infoStatusName":null,"dateDay":null,"orgNos":null,"nowTime":null,"countyName":null,"streetName":null,"villageName":null,"roadName":null,"communityName":null,"tranName":null,"sdLineName":null,"cityCode":"1340615","cityName":"国网涞源县供电公司","provinceCode":null,"stopTime":"2019-08-23 09:00:00","powerType":"全部","powerOffArea":"【全线路停电】停南台公用配变,支家庄公用配变,涞源县永达矿业有限公司变压器,富涞矿山 变压器,王大伟矿山变压器,变压器,支家社北台区公用配变,0557031973-涞源县富凯矿业有限公司-专变-107350661-变压器,涞源县富涞铁矿变压器","powerOffReason":"【停电原因】由于配合站内消缺导致３５ＫＶ杨家庄变电站支家庄线５１１线路全线停电【变更送电】无【发布渠道】通过９５５９８发布","powerOffId":"2019081613000406"},{"poweroffId":2019081613000394,"sgpoweroffId":null,"subsName":"","lineName":"10kV白团线515","pubTranName":"1北位村内1,","scope":"【影响街道/乡镇】白团乡 【高危重要客户】无 【影响客户】北位村","startTime":"2019-08-16 09:10:14","stopDate":"2019-08-16 12:00:00","orgNo":"1340618","typeCode":"电网故障停限电","poweroffArea":"【单台区停电】停1北位村内1","poweroffReason":"【停电原因】由于树倒砸线导致３５ＫＶ白团变电站１０ＫＶ白团线５１５线路１北位村内１号公变台区停电 【变更送电】无 【发布渠道】通过９５５９８发布","powerTime":"2019-08-16 11:10:21","powerComm":"宋洁琼通知已送电","subsNo":"","lineNo":"","tgNo":"","tgName":null,"infoStatus":"1","orgName":"国网清苑县供电公司","typeName":null,"infoStatusName":null,"dateDay":null,"orgNos":null,"nowTime":null,"countyName":null,"streetName":null,"villageName":null,"roadName":null,"communityName":null,"tranName":null,"sdLineName":null,"cityCode":"1340618","cityName":"国网清苑县供电公司","provinceCode":null,"stopTime":"2019-08-16 12:00:00","powerType":"全部","powerOffArea":"【单台区停电】停1北位村内1","powerOffReason":"【停电原因】由于树倒砸线导致３５ＫＶ白团变电站１０ＫＶ白团线５１５线路１北位村内１号公变台区停电 【变更送电】无 【发布渠道】通过９５５９８发布","powerOffId":"2019081613000394"}],"pageModel":{"pageNow":647,"totalCount":10973,"totalPage":1098,"tableRows":0,"pageCount":10,"beginCount":6460},"isExperi":"1"}