{"message":"","today":"2020-06-15","seleList":[{"poweroffId":2020052513000233,"sgpoweroffId":null,"subsName":"","lineName":"芦草湾线533","pubTranName":"533刘家庄村香沟配变,533杏树沟村申家铺配变,二十亩地78队【三批中心村】,533北铺水洞沟配变,533北铺上路栏台区配变,二十亩地上华台2#【三批中心村】,老崖根变压器,533二十亩地上华台配变,533刘家庄村中2号变,533二十亩地村中配变,533银山口迁建区东【三批中心村】,533移民新村变配变,533银山口村孙家庄配变,533冷铺村南配变,533杏树沟2#变配变,533王家庄村名铺沟配变,533杏树沟大沟配变,533杏树沟村中配变,533银山口村中2号,533芦草湾村中配变,533银山口村下华台配变,533刘家庄村中配变,533冷铺麻湾配变,冷铺村中【三批中心村】,533银山口村中配变,533香沟门村中配变,533刘家庄村龙须台2#配变,533银山口村庙子沟配变,533王家庄城家沟门配变,533北铺村东配变,533王家庄村名铺沟2#变配变,533银山口孙家庄2号,533冷铺沟门配变,533北铺铁炉配变,533王家庄村十亩地配变,533芦草湾村谭家沟配变,533刘家庄村龙须台配变,533南赵庄村中配变,533王家庄村中配变,533刘家庄水地沟配变,533银山口迁建区西【三批中心村】,533北铺村石门配变,","scope":"【影响街道/乡镇】王安镇乡【高危重要客户】无【影响客户】二十亩地、银山口、芦草湾、王家庄、杏树沟、冷铺、南赵庄、北铺","startTime":"2020-06-14 07:00:00","stopDate":"2020-06-14 08:30:00","orgNo":"1340615","typeCode":"计划停电","poweroffArea":"【全线路停电】停１１０ＫＶ王安镇变电站１０ＫＶ芦草湾线５３３线路全线,冷铺村中【三批中心村】,涞源县王安镇王家庄村村民委员会变压器,533香沟门村中配变,533刘家庄村龙须台2#配变,涞源县王安镇东刘家庄村村民委员会变压器,533银山口村庙子沟配变,533王家庄城家沟门配变,533北铺村东配变,533王家庄村名铺沟2#变配变,533银山口孙家庄2号,533王家庄村十亩地配变,533芦草湾村谭家沟配变,533刘家庄村龙须台配变,533南赵庄村中配变,533王家庄村中配变,533杏树沟村中配变,533冷铺村南配变,涞源县王安镇东刘家庄村村民委员会,533杏树沟大沟配变,533银山口村中2号,533银山口村下华台配变,533冷铺麻湾配变,533北铺铁炉配变,533银山口迁建区西【三批中心村】,533北铺村石门配变,533刘家庄村香沟配变,533杏树沟村申家铺配变,二十亩地78队【三批中心村】,涞源县王安镇中心小学银山口小学变压器,533北铺水洞沟配变,533北铺上路栏台区配变,二十亩地上华台2#【三批中心村】,老崖根变压器,533二十亩地上华台配变,533刘家庄村中2号变,533二十亩地村中配变,533银山口迁建区东【三批中心村】,533移民新村变配变,533银山口村孙家庄配变,533杏树沟2#变配变,涞源县王安镇芦草湾村村民委员会变压器,533王家庄村名铺沟配变,533芦草湾村中配变,533刘家庄村中配变,533银山口村中配变,533冷铺沟门配变,533刘家庄水地沟配变,涞源县王安镇南赵家庄村村民委员会变压器","poweroffReason":"【停电原因】由于更换断路器、刀闸导致１１０ＫＶ王安镇变电站１０ＫＶ芦草湾线５３３线路全线停电【变更送电】因工作进度加快原因，送电时间由 １７：００变更为０８：３０送电【发布渠道】涞源电视台（５月２５日至６月１３日８时至２３时之间）屏幕上方滚动","powerTime":"2020-06-14 08:01:49","powerComm":"已送电","subsNo":"","lineNo":"","tgNo":"","tgName":null,"infoStatus":"1","orgName":"国网涞源县供电公司","typeName":null,"infoStatusName":null,"dateDay":null,"orgNos":null,"nowTime":null,"countyName":null,"streetName":null,"villageName":null,"roadName":null,"communityName":null,"tranName":null,"sdLineName":null,"cityCode":"1340615","cityName":"国网涞源县供电公司","provinceCode":null,"stopTime":"2020-06-14 08:30:00","powerType":"全部","powerOffArea":"【全线路停电】停１１０ＫＶ王安镇变电站１０ＫＶ芦草湾线５３３线路全线,冷铺村中【三批中心村】,涞源县王安镇王家庄村村民委员会变压器,533香沟门村中配变,533刘家庄村龙须台2#配变,涞源县王安镇东刘家庄村村民委员会变压器,533银山口村庙子沟配变,533王家庄城家沟门配变,533北铺村东配变,533王家庄村名铺沟2#变配变,533银山口孙家庄2号,533王家庄村十亩地配变,533芦草湾村谭家沟配变,533刘家庄村龙须台配变,533南赵庄村中配变,533王家庄村中配变,533杏树沟村中配变,533冷铺村南配变,涞源县王安镇东刘家庄村村民委员会,533杏树沟大沟配变,533银山口村中2号,533银山口村下华台配变,533冷铺麻湾配变,533北铺铁炉配变,533银山口迁建区西【三批中心村】,533北铺村石门配变,533刘家庄村香沟配变,533杏树沟村申家铺配变,二十亩地78队【三批中心村】,涞源县王安镇中心小学银山口小学变压器,533北铺水洞沟配变,533北铺上路栏台区配变,二十亩地上华台2#【三批中心村】,老崖根变压器,533二十亩地上华台配变,533刘家庄村中2号变,533二十亩地村中配变,533银山口迁建区东【三批中心村】,533移民新村变配变,533银山口村孙家庄配变,533杏树沟2#变配变,涞源县王安镇芦草湾村村民委员会变压器,533王家庄村名铺沟配变,533芦草湾村中配变,533刘家庄村中配变,533银山口村中配变,533冷铺沟门配变,533刘家庄水地沟配变,涞源县王安镇南赵家庄村村民委员会变压器","powerOffReason":"【停电原因】由于更换断路器、刀闸导致１１０ＫＶ王安镇变电站１０ＫＶ芦草湾线５３３线路全线停电【变更送电】因工作进度加快原因，送电时间由 １７：００变更为０８：３０送电【发布渠道】涞源电视台（５月２５日至６月１３日８时至２３时之间）屏幕上方滚动","powerOffId":"2020052513000233"},{"poweroffId":2020052513000215,"sgpoweroffId":null,"subsName":"","lineName":"10KV太平村513","pubTranName":"镇厂大街3台区,北庄西河滩台区,","scope":"【影响街道/乡镇】九龙镇 【高危重要客户】无 【影响客户】北庄村、镇厂村、张涿高速","startTime":"2020-05-25 14:45:04","stopDate":"2020-05-25 16:50:00","orgNo":"1340614","typeCode":"电网故障停限电","poweroffArea":"【全线路停电】停３５ＫＶ镇厂变电站１０ＫＶ太平村５１３线路全线，镇厂大街3台区,北庄西河滩台区","poweroffReason":"【停电原因】由于速断跳闸导致３５ＫＶ镇厂变电站１０ＫＶ太平村５１３线路全线停电 【变更送电】因抢修进度加快原因，送电时间由１８：００变更为１６：５０ 【发布渠道】通过９５５９８发布","powerTime":"2020-05-25 16:16:41","powerComm":"已送电","subsNo":"","lineNo":"","tgNo":"","tgName":null,"infoStatus":"1","orgName":"国网涞水县供电公司","typeName":null,"infoStatusName":null,"dateDay":null,"orgNos":null,"nowTime":null,"countyName":null,"streetName":null,"villageName":null,"roadName":null,"communityName":null,"tranName":null,"sdLineName":null,"cityCode":"1340614","cityName":"国网涞水县供电公司","provinceCode":null,"stopTime":"2020-05-25 16:50:00","powerType":"全部","powerOffArea":"【全线路停电】停３５ＫＶ镇厂变电站１０ＫＶ太平村５１３线路全线，镇厂大街3台区,北庄西河滩台区","powerOffReason":"【停电原因】由于速断跳闸导致３５ＫＶ镇厂变电站１０ＫＶ太平村５１３线路全线停电 【变更送电】因抢修进度加快原因，送电时间由１８：００变更为１６：５０ 【发布渠道】通过９５５９８发布","powerOffId":"2020052513000215"},{"poweroffId":2020052513000211,"sgpoweroffId":null,"subsName":"","lineName":"坟庄线515","pubTranName":"全山庄村3#,马头村18#,建新村2#,马头村20#【纯农排变】,南流井村10#,东白马10#,南流井村1#,北白马村5#,建新村6#,建新村9#间隔配电变压器,马头村2#,建新村5#,西流井村2#,全山庄1#,南流井11#,马头村10#,西流井4#,主良6号,马头22号变,建新村小区01间隔配电变压器,建新村3#,马头6#,南流井村4#,马头村5#,建新村4#,主良村2#,主良5号,马头村15#,主良村3#,全山庄村2#,流井小学,马头村19#,全山庄村1#,东白马机井5#,西流井村3#,南流井村8#,北六井五台,北流井村3#,建新村7#变压器间隔配电变压器,南流井村6#,马头村9#,东白羊7#变压器,马头26#变压器,西流井村1#,东白马村6#【纯农排变】,南流井村9#,东白羊村4#,南流井村3#,马头村8#,北白马7号,马头村11#,马头村12#,主良村4#,主良1号,流井乡政府配变,马头村1#,马头村23号,马头村13#,南流井6#【纯农排变】,马头村14#,马头25#变压器,马头21号变,北白马6号,东流井村3#,马头村7#,马头24#柱上变压器,全山庄村4#,主良7号,马头村4#,南流井村7#,马头村3#,南流井村2#,主良8号,马头村17#,建新村1#,全山庄村5#,马头村16#,建新村10#变压器间隔配电变压器,南流井村5#【纯农排变】,","scope":"【影响街道/乡镇】流井乡、白马乡、梁格庄镇【高危重要客户】无【影响客户】建新村、全山庄村、主良村、马头村、东流井村、北流井村、西流井村、南流井村、东白羊村、北白马村、东白马村","startTime":"2020-05-25 14:20:44","stopDate":"2020-05-25 17:00:00","orgNo":"1340625","typeCode":"电网故障停限电","poweroffArea":"【全线路停电】停马头村23号,马头村1#,易县农旺苗木种植农民专业合作社变压器,马头村13#,南流井6#【纯农排变】,建新村马平变压器,河北省洪崖山国有林场管理局变压器,马头村14#,马头25#变压器,马头21号变,北白马6号,东流井村3#,马头村7#,马头24#柱上变压器,全山庄村4#,全山庄村3#,马头村18#,建新村2#,易县中易板材有限公司变压器,马头村20#【纯农排变】,南流井村10#,东白马10#,南流井村1#,北白马村5#,建新村6#,建新村9#间隔配电变压器,马头村2#,主良村张树贵变压器,建新村5#,启明水利全山庄6号,西流井村2#,全山庄1#,南流井11#,众信石材有限公司,瞬时1号,马头村10#,西流井4#,主良6号,舜石1号,马头22号变,启明水利-全山庄4号,易县流井乡卫生院100KVA,建新村小区01间隔配电变压器,建新村3#,马头6#,南流井村4#,马头水库,马头村5#,建新村4#,全山庄村委会100,主良村2#,主良5号,马头村15#,主良村委会B200,主良村3#,全山庄村2#,主良村委会A200,启明水利-全山庄2号,李家坟村6#【纯农排变】,流井小学,河北省洪崖山国有林场管理局100KVA,马头村19#,全山庄村1#,东白马机井5#,西流井村3#,南流井村8#,启明水利水电-全山庄1号,移动基站流井村50,北六井五台,北流井村3#,建新村7#变压器间隔配电变压器,南流井村6#,洪崖山索道有限公司,马头村9#,东白羊7#变压器,易县中能太阳能有限公司250KVA,主良村(砖厂),马头26#变压器,西流井村1#,流井中心小学500KVA,东白马村6#【纯农排变】,易县乾鼎商品混凝土有限公司变压器,主良7号,马头村4#,南流井村7#,马头村3#,南流井村2#,主良8号,马头村17#,建新村1#,东白羊村张正业200,全山庄村5#,马头村16#,建新村10#变压器间隔配电变压器,0635310273-易县农旺苗木种植农民专业合作社-专变-225175957-易县农旺苗木种植农民专业合作社-增容250KVA,南流井村5#【纯农排变】,南流井村9#,东白羊村4#,南流井村3#,启明水利全山庄5号,马头村8#,西流井村委会200,北白马7号,马头村11#,马头村12#,主良村4#,主良1号,启明水利-全山庄3号,易县王金山养鸡场80,流井乡政府配变","poweroffReason":"【停电原因】由于建新村分支０２０－０２１号杆Ｃ相断线导致３５ＫＶ李家坟变电站坟庄线５１５线路全线停电【变更送电】因抢修进度加快原因，送电时间由２２：００变更为１７：００【发布渠道】通过９５５９８发布","powerTime":"2020-05-25 16:43:07","powerComm":"已送电","subsNo":"","lineNo":"","tgNo":"","tgName":null,"infoStatus":"1","orgName":"国网易县供电公司","typeName":null,"infoStatusName":null,"dateDay":null,"orgNos":null,"nowTime":null,"countyName":null,"streetName":null,"villageName":null,"roadName":null,"communityName":null,"tranName":null,"sdLineName":null,"cityCode":"1340625","cityName":"国网易县供电公司","provinceCode":null,"stopTime":"2020-05-25 17:00:00","powerType":"全部","powerOffArea":"【全线路停电】停马头村23号,马头村1#,易县农旺苗木种植农民专业合作社变压器,马头村13#,南流井6#【纯农排变】,建新村马平变压器,河北省洪崖山国有林场管理局变压器,马头村14#,马头25#变压器,马头21号变,北白马6号,东流井村3#,马头村7#,马头24#柱上变压器,全山庄村4#,全山庄村3#,马头村18#,建新村2#,易县中易板材有限公司变压器,马头村20#【纯农排变】,南流井村10#,东白马10#,南流井村1#,北白马村5#,建新村6#,建新村9#间隔配电变压器,马头村2#,主良村张树贵变压器,建新村5#,启明水利全山庄6号,西流井村2#,全山庄1#,南流井11#,众信石材有限公司,瞬时1号,马头村10#,西流井4#,主良6号,舜石1号,马头22号变,启明水利-全山庄4号,易县流井乡卫生院100KVA,建新村小区01间隔配电变压器,建新村3#,马头6#,南流井村4#,马头水库,马头村5#,建新村4#,全山庄村委会100,主良村2#,主良5号,马头村15#,主良村委会B200,主良村3#,全山庄村2#,主良村委会A200,启明水利-全山庄2号,李家坟村6#【纯农排变】,流井小学,河北省洪崖山国有林场管理局100KVA,马头村19#,全山庄村1#,东白马机井5#,西流井村3#,南流井村8#,启明水利水电-全山庄1号,移动基站流井村50,北六井五台,北流井村3#,建新村7#变压器间隔配电变压器,南流井村6#,洪崖山索道有限公司,马头村9#,东白羊7#变压器,易县中能太阳能有限公司250KVA,主良村(砖厂),马头26#变压器,西流井村1#,流井中心小学500KVA,东白马村6#【纯农排变】,易县乾鼎商品混凝土有限公司变压器,主良7号,马头村4#,南流井村7#,马头村3#,南流井村2#,主良8号,马头村17#,建新村1#,东白羊村张正业200,全山庄村5#,马头村16#,建新村10#变压器间隔配电变压器,0635310273-易县农旺苗木种植农民专业合作社-专变-225175957-易县农旺苗木种植农民专业合作社-增容250KVA,南流井村5#【纯农排变】,南流井村9#,东白羊村4#,南流井村3#,启明水利全山庄5号,马头村8#,西流井村委会200,北白马7号,马头村11#,马头村12#,主良村4#,主良1号,启明水利-全山庄3号,易县王金山养鸡场80,流井乡政府配变","powerOffReason":"【停电原因】由于建新村分支０２０－０２１号杆Ｃ相断线导致３５ＫＶ李家坟变电站坟庄线５１５线路全线停电【变更送电】因抢修进度加快原因，送电时间由２２：００变更为１７：００【发布渠道】通过９５５９８发布","powerOffId":"2020052513000211"},{"poweroffId":2020052513000203,"sgpoweroffId":null,"subsName":"","lineName":"葛村线576","pubTranName":"刘祥店2号,十里铺4号,十里铺村11号变台区,刘祥店12号,史各庄16号,刘祥店4号,刘祥店17号,刘祥店8号,刘祥店16号,刘祥店23号,刘祥店3号,刘祥店15号,刘祥店13号,十里铺8号,十里铺村14号变台区,刘祥店14号,刘祥店18号,刘祥店24号,北贺寿营8号,刘祥店21号,青苗营14号,刘祥店19号,半壁店3号,刘祥店7号,刘祥店10号【纯农排变】,刘祥店5号【纯农排变】,刘祥店20号,刘祥店11号,十里铺村16号变台区,青苗营12号,刘祥店6号,刘祥店22号,刘祥店1号,刘祥店25号,北贺寿营9号,十里铺村15号变台区,","scope":"【影响街道/乡镇】安肃镇 【高危重要客户】无 【影响客户】刘祥店、十里铺、青庙营、北贺寿营村","startTime":"2020-05-25 13:55:03","stopDate":"2020-05-25 16:00:00","orgNo":"1340605","typeCode":"电网故障停限电","poweroffArea":"【全线路停电】停刘祥店21号,刘祥店22号,刘祥店23号,刘祥店24号,十里铺村11号变台区,刘祥店25号,刘祥店17号,十里铺村14号变台区,十里铺村16号变台区,刘祥店15号,刘祥店16号,刘祥店20号,十里铺村15号变台区,刘祥店18号,刘祥店19号,青庙营7号,史各庄16号,刘祥店9号,刘祥店14号,十里铺1号,刘祥店12号,刘祥店5号【纯农排变】,刘祥店1号,刘祥店10号【纯农排变】,北贺寿营4号,北贺寿营7号【纯农排变】,刘祥店7号,青庙营15号,刘祥店2号,北贺寿营8号,北贺寿营5号【纯农排变】,北贺寿营6号,青庙营8号,青庙营2号,十里铺4号,刘祥店6号,刘祥店11号,青苗营14号,青苗营16号,刘祥店13号,青庙营4号,十里铺8号,安肃镇供电所5号,北贺寿营1号,十里铺9号,刘祥店8号,半壁店3号,青苗营12号,青庙营1号,刘祥店4号,北贺寿营9号,青庙营13,十里铺3号,北贺寿营3号,刘祥店3号,青庙营11号,北贺寿营2号,十里铺10号,青庙营3号,青庙营5号,青庙营6号,青庙营10号,十里铺2号","poweroffReason":"【停电原因】由于Ｂ相接地导致１１０ＫＶ何家店变电站葛村线５７６线路全线停电 【变更送电】因抢修进度加快原因，送电时间由１８:００变更为１６:００ 【发布渠道】通过９５５９８发布","powerTime":"2020-05-25 15:11:20","powerComm":"已送电","subsNo":"","lineNo":"","tgNo":"","tgName":null,"infoStatus":"1","orgName":"国网徐水县供电公司","typeName":null,"infoStatusName":null,"dateDay":null,"orgNos":null,"nowTime":null,"countyName":null,"streetName":null,"villageName":null,"roadName":null,"communityName":null,"tranName":null,"sdLineName":null,"cityCode":"1340605","cityName":"国网徐水县供电公司","provinceCode":null,"stopTime":"2020-05-25 16:00:00","powerType":"全部","powerOffArea":"【全线路停电】停刘祥店21号,刘祥店22号,刘祥店23号,刘祥店24号,十里铺村11号变台区,刘祥店25号,刘祥店17号,十里铺村14号变台区,十里铺村16号变台区,刘祥店15号,刘祥店16号,刘祥店20号,十里铺村15号变台区,刘祥店18号,刘祥店19号,青庙营7号,史各庄16号,刘祥店9号,刘祥店14号,十里铺1号,刘祥店12号,刘祥店5号【纯农排变】,刘祥店1号,刘祥店10号【纯农排变】,北贺寿营4号,北贺寿营7号【纯农排变】,刘祥店7号,青庙营15号,刘祥店2号,北贺寿营8号,北贺寿营5号【纯农排变】,北贺寿营6号,青庙营8号,青庙营2号,十里铺4号,刘祥店6号,刘祥店11号,青苗营14号,青苗营16号,刘祥店13号,青庙营4号,十里铺8号,安肃镇供电所5号,北贺寿营1号,十里铺9号,刘祥店8号,半壁店3号,青苗营12号,青庙营1号,刘祥店4号,北贺寿营9号,青庙营13,十里铺3号,北贺寿营3号,刘祥店3号,青庙营11号,北贺寿营2号,十里铺10号,青庙营3号,青庙营5号,青庙营6号,青庙营10号,十里铺2号","powerOffReason":"【停电原因】由于Ｂ相接地导致１１０ＫＶ何家店变电站葛村线５７６线路全线停电 【变更送电】因抢修进度加快原因，送电时间由１８:００变更为１６:００ 【发布渠道】通过９５５９８发布","powerOffId":"2020052513000203"},{"poweroffId":2020052513000190,"sgpoweroffId":null,"subsName":"","lineName":"10KV城西农业519","pubTranName":"大马村西BQ台区,小马村重建变压器,大马村东BQ台区,东沙沟村南新变压器【纯农排变】,东沙沟村南商业街【纯农排变】,杨庄新增1号台区,杨庄新增4台区,南庄新增D,南庄新增E,太平庄2,太平庄3,太平庄4,太平庄5,西坛新增10号台区,西坛新增1号台区,西坛新增2号台区,西坛新增3号台区,西坛新增4号台区,西坛新增6号台区,西坛新增7号台区,西坛新增8号台区,西坛新增9号台区,东沙沟南2323,太平庄2295增,西坛村南BQ变压器,大马村北Z变压器【混】,大马村重建变压器,大马村东南新井通柱上变压器【纯农排变】,大马村村西新井通【纯农排变】,大马村小学A柱上变压器,大马村小学B柱上变压器,大马村西【纯农排变】,大马村西5291,东沙沟村西南新变压器【纯农排变】,东沙沟重建变压器,东沙沟村北,东沙沟西2895,东沙沟村北新,小马村商业街,东沙沟内2400,东沙沟2894,太平庄西北增,太平庄村内5375 增,太平庄1,南庄新增C,南庄新增B,南庄大队A,西坛村西变压器,西坛村北3753,西坛村西新1444,大马村1号【纯农排变】,南庄村东,大马村2348【纯农排变】,大马村2360,西坛村北新变压器增,大马村3号【纯农排变】,西坛2299增,西坛村西北4607,大马村5号【纯农排变】,大马村6号变【纯农排变】,东城坊供电所大马村东【纯农排变】,西坛村西南4606【纯农排变】,东城坊供电所大马村东南,大马村4号【纯农排变】,大马村4615,西坛村南5200【纯农排变】,西坛南新【纯农排变】,西坛西2370增,西坛村内东增,西坛西二变压器增,小马村2308,小马村东北2428,小马村北新,小马村5349,小马村2417,小马村2376,杨庄村西南增,杨庄村西2296增,","scope":"【影响街道/乡镇】东城坊镇 【影响客户】西坛村、小马村、南庄、大马村、东沙沟、杨庄、太平庄、涿州市交通运输局","startTime":"2020-06-04 08:00:00","stopDate":"2020-06-04 18:00:00","orgNo":"1340626","typeCode":"计划停电","poweroffArea":"【全线路停电】停１１０ＫＶ涿县变电站１０ＫＶ城西农业５１９线路全线，西坛村南BQ变压器,大马村西BQ台区,小马村重建变压器,大马村东BQ台区,东沙沟村南新变压器【纯农排变】,东沙沟村南商业街【纯农排变】,杨庄新增1号台区,杨庄新增4台区,南庄新增D,南庄新增E,太平庄2,太平庄3,太平庄4,太平庄5,西坛新增10号台区,西坛新增1号台区,西坛新增2号台区,西坛新增3号台区,西坛新增4号台区,西坛新增6号台区,西坛新增7号台区,西坛新增8号台区,西坛新增9号台区,东沙沟南2323,太平庄2295增,大马村北Z变压器【混】,大马村重建变压器,大马村东南新井通柱上变压器【纯农排变】,大马村村西新井通【纯农排变】,大马村小学A柱上变压器,大马村小学B柱上变压器,东沙沟村西南新变压器【纯农排变】,东沙沟重建变压器,小马村商业街,南庄新增C,南庄新增B,南庄大队A,西坛村西新1444,大马村1号【纯农排变】,南庄村东,大马村2348【纯农排变】,大马村2360,大马村3号【纯农排变】,大马村5号【纯农排变】,大马村6号变【纯农排变】,东城坊供电所大马村东【纯农排变】,东城坊供电所大马村东南,大马村4615,大马村西【纯农排变】,大马村西5291,东沙沟村北,东沙沟西2895,东沙沟村北新,东沙沟内2400,东沙沟2894,太平庄西北增,太平庄村内5375 增,太平庄1,西坛村西变压器,西坛村北3753,西坛村北新变压器增,西坛2299增,西坛村西北4607,西坛村西南4606【纯农排变】,大马村4号【纯农排变】,西坛村南5200【纯农排变】,西坛南新【纯农排变】,西坛西2370增,西坛村内东增,西坛西二变压器增,小马村2308,小马村东北2428,小马村北新,小马村5349,小马村2417,小马村2376,杨庄村西南增,杨庄村西2296增","poweroffReason":"【停电原因】由于线路切改工程导致１１０ＫＶ涿县变电站１０ＫＶ城西农业５１９线路全线停电 【变更送电】无 【发布渠道】涿州市涿州电视台（０５月２５日至０６月０３日２１：００播放２次）屏幕上方滚动","powerTime":"2020-06-04 17:47:56","powerComm":"恢复送电","subsNo":"","lineNo":"","tgNo":"","tgName":null,"infoStatus":"1","orgName":"国网涿州市供电公司","typeName":null,"infoStatusName":null,"dateDay":null,"orgNos":null,"nowTime":null,"countyName":null,"streetName":null,"villageName":null,"roadName":null,"communityName":null,"tranName":null,"sdLineName":null,"cityCode":"1340626","cityName":"国网涿州市供电公司","provinceCode":null,"stopTime":"2020-06-04 18:00:00","powerType":"全部","powerOffArea":"【全线路停电】停１１０ＫＶ涿县变电站１０ＫＶ城西农业５１９线路全线，西坛村南BQ变压器,大马村西BQ台区,小马村重建变压器,大马村东BQ台区,东沙沟村南新变压器【纯农排变】,东沙沟村南商业街【纯农排变】,杨庄新增1号台区,杨庄新增4台区,南庄新增D,南庄新增E,太平庄2,太平庄3,太平庄4,太平庄5,西坛新增10号台区,西坛新增1号台区,西坛新增2号台区,西坛新增3号台区,西坛新增4号台区,西坛新增6号台区,西坛新增7号台区,西坛新增8号台区,西坛新增9号台区,东沙沟南2323,太平庄2295增,大马村北Z变压器【混】,大马村重建变压器,大马村东南新井通柱上变压器【纯农排变】,大马村村西新井通【纯农排变】,大马村小学A柱上变压器,大马村小学B柱上变压器,东沙沟村西南新变压器【纯农排变】,东沙沟重建变压器,小马村商业街,南庄新增C,南庄新增B,南庄大队A,西坛村西新1444,大马村1号【纯农排变】,南庄村东,大马村2348【纯农排变】,大马村2360,大马村3号【纯农排变】,大马村5号【纯农排变】,大马村6号变【纯农排变】,东城坊供电所大马村东【纯农排变】,东城坊供电所大马村东南,大马村4615,大马村西【纯农排变】,大马村西5291,东沙沟村北,东沙沟西2895,东沙沟村北新,东沙沟内2400,东沙沟2894,太平庄西北增,太平庄村内5375 增,太平庄1,西坛村西变压器,西坛村北3753,西坛村北新变压器增,西坛2299增,西坛村西北4607,西坛村西南4606【纯农排变】,大马村4号【纯农排变】,西坛村南5200【纯农排变】,西坛南新【纯农排变】,西坛西2370增,西坛村内东增,西坛西二变压器增,小马村2308,小马村东北2428,小马村北新,小马村5349,小马村2417,小马村2376,杨庄村西南增,杨庄村西2296增","powerOffReason":"【停电原因】由于线路切改工程导致１１０ＫＶ涿县变电站１０ＫＶ城西农业５１９线路全线停电 【变更送电】无 【发布渠道】涿州市涿州电视台（０５月２５日至０６月０３日２１：００播放２次）屏幕上方滚动","powerOffId":"2020052513000190"},{"poweroffId":2020052513000183,"sgpoweroffId":null,"subsName":"","lineName":"10KV东仙坡522","pubTranName":"东仙坡2662,","scope":"【影响街道/乡镇】东仙坡镇 【影响客户】东仙坡","startTime":"2020-05-25 12:29:48","stopDate":"2020-05-25 17:00:00","orgNo":"1340626","typeCode":"电网故障停限电","poweroffArea":"【单台区停电】停１１０ＫＶ下胡良变电站１０ＫＶ东仙坡５２２线路东仙坡２６６２公变台区，东仙坡2662","poweroffReason":"【停电原因】由于低压线路断线导致１１０ＫＶ下胡良变电站１０ＫＶ东仙坡５２２线路东仙坡２６６２公变台区停电 【变更送电】因抢修进度加快原因，送电时间由１８：００变更为１７：００ 【发布渠道】通过９５５９８发布","powerTime":"2020-05-25 16:38:17","powerComm":"恢复送电","subsNo":"","lineNo":"","tgNo":"","tgName":null,"infoStatus":"1","orgName":"国网涿州市供电公司","typeName":null,"infoStatusName":null,"dateDay":null,"orgNos":null,"nowTime":null,"countyName":null,"streetName":null,"villageName":null,"roadName":null,"communityName":null,"tranName":null,"sdLineName":null,"cityCode":"1340626","cityName":"国网涿州市供电公司","provinceCode":null,"stopTime":"2020-05-25 17:00:00","powerType":"全部","powerOffArea":"【单台区停电】停１１０ＫＶ下胡良变电站１０ＫＶ东仙坡５２２线路东仙坡２６６２公变台区，东仙坡2662","powerOffReason":"【停电原因】由于低压线路断线导致１１０ＫＶ下胡良变电站１０ＫＶ东仙坡５２２线路东仙坡２６６２公变台区停电 【变更送电】因抢修进度加快原因，送电时间由１８：００变更为１７：００ 【发布渠道】通过９５５９８发布","powerOffId":"2020052513000183"},{"poweroffId":2020052513000179,"sgpoweroffId":null,"subsName":"","lineName":"10kv北港542","pubTranName":"洋泗庄村东,","scope":"【影响街道/乡镇】向阳乡 【影响客户】洋泗庄","startTime":"2020-05-25 12:24:21","stopDate":"2020-05-25 15:40:00","orgNo":"1340626","typeCode":"电网故障停限电","poweroffArea":"【单台区停电】停２２０ＫＶ党庄变电站１０ＫＶ北港５４２线路洋泗庄村东公变台区，洋泗庄村东","poweroffReason":"【停电原因】由于低压空开烧毁导致２２０ＫＶ党庄变电站１０ＫＶ北港５４２线路洋泗庄村东公变台区停电 【变更送电】因抢修进度加快原因，送电时间由２１：３０变更为１５：４０ 【发布渠道】通过９５５９８发布","powerTime":"2020-05-25 15:15:25","powerComm":"恢复送电","subsNo":"","lineNo":"","tgNo":"","tgName":null,"infoStatus":"1","orgName":"国网涿州市供电公司","typeName":null,"infoStatusName":null,"dateDay":null,"orgNos":null,"nowTime":null,"countyName":null,"streetName":null,"villageName":null,"roadName":null,"communityName":null,"tranName":null,"sdLineName":null,"cityCode":"1340626","cityName":"国网涿州市供电公司","provinceCode":null,"stopTime":"2020-05-25 15:40:00","powerType":"全部","powerOffArea":"【单台区停电】停２２０ＫＶ党庄变电站１０ＫＶ北港５４２线路洋泗庄村东公变台区，洋泗庄村东","powerOffReason":"【停电原因】由于低压空开烧毁导致２２０ＫＶ党庄变电站１０ＫＶ北港５４２线路洋泗庄村东公变台区停电 【变更送电】因抢修进度加快原因，送电时间由２１：３０变更为１５：４０ 【发布渠道】通过９５５９８发布","powerOffId":"2020052513000179"},{"poweroffId":2020052513000149,"sgpoweroffId":null,"subsName":"","lineName":"10kV华梓营574线","pubTranName":"于庄5号,于庄西,兴建强,于庄南配变,许场浇地西,0692496147-保定白沟新城杜香伟皮革商行-专变-235641338-变压器,于庄村（东地）【纯农排变】,东芦北2,新兴皮件厂,保定白沟吉忠热力有限公司变压器,许场西,永兴皮件厂,于庄村（东南地）【纯农排变】,许场浇地东,姜振清,黄宝兴,许场中2,于庄村（东北地）【纯农排变】,姜会军,保定白沟吉忠热力有限责任公司变压器02,东芦北,于庄7号,许场南,许场东2,于庄6号,于庄8号变压器,保定白沟吉忠热力有限责任公司变压器01,于庄北,于庄东,黄克良,许场中,","scope":"【影响街道/乡镇】白沟镇、东一环 【高危重要客户】无 【影响客户】东芦村、于庄村（于家庄村）、许场村（许家场村）、保定白沟吉忠热力公司、保定白沟新城中通加油站、保定白沟新城杜香伟皮革商行、黄克良、兴建强、新兴皮件厂、黄宝兴、姜会军、李风水、永兴皮件厂、姜振清、于庄砖厂（鼎奎）","startTime":"2020-06-02 06:00:00","stopDate":"2020-06-02 18:00:00","orgNo":"1340612","typeCode":"临时停电","poweroffArea":"【分支停电】停保定白沟吉忠热力有限公司变压器,于庄5号,于庄西,兴建强,于庄南配变,许场浇地西,0692496147-保定白沟新城杜香伟皮革商行-专变-235641338-变压器,于庄村（东地）【纯农排变】,东芦北2,新兴皮件厂,许场西,永兴皮件厂,于庄村（东南地）【纯农排变】,姜会军,许场浇地东,姜振清,黄宝兴,许场中2,于庄村（东北地）【纯农排变】,保定白沟吉忠热力有限责任公司变压器02,东芦北,于庄7号,许场南,许场东2,于庄6号,于庄8号变压器,保定白沟吉忠热力有限责任公司变压器01,于庄北,于庄东,黄克良,许场中","poweroffReason":"【停电原因】由于换杆、换线、负荷切改导致１１０ＫＶ南留变电站１０ＫＶ华梓营５７４线路０２号断路器以下停电 【变更送电】无 【发布渠道】高碑店市高碑店电视台（０５月２６日０８时至０６月０１日１８时之间）屏幕上方滚动","powerTime":"2020-06-02 17:50:45","powerComm":"已送电","subsNo":"","lineNo":"","tgNo":"","tgName":null,"infoStatus":"1","orgName":"国网高碑店市供电公司","typeName":null,"infoStatusName":null,"dateDay":null,"orgNos":null,"nowTime":null,"countyName":null,"streetName":null,"villageName":null,"roadName":null,"communityName":null,"tranName":null,"sdLineName":null,"cityCode":"1340612","cityName":"国网高碑店市供电公司","provinceCode":null,"stopTime":"2020-06-02 18:00:00","powerType":"全部","powerOffArea":"【分支停电】停保定白沟吉忠热力有限公司变压器,于庄5号,于庄西,兴建强,于庄南配变,许场浇地西,0692496147-保定白沟新城杜香伟皮革商行-专变-235641338-变压器,于庄村（东地）【纯农排变】,东芦北2,新兴皮件厂,许场西,永兴皮件厂,于庄村（东南地）【纯农排变】,姜会军,许场浇地东,姜振清,黄宝兴,许场中2,于庄村（东北地）【纯农排变】,保定白沟吉忠热力有限责任公司变压器02,东芦北,于庄7号,许场南,许场东2,于庄6号,于庄8号变压器,保定白沟吉忠热力有限责任公司变压器01,于庄北,于庄东,黄克良,许场中","powerOffReason":"【停电原因】由于换杆、换线、负荷切改导致１１０ＫＶ南留变电站１０ＫＶ华梓营５７４线路０２号断路器以下停电 【变更送电】无 【发布渠道】高碑店市高碑店电视台（０５月２６日０８时至０６月０１日１８时之间）屏幕上方滚动","powerOffId":"2020052513000149"},{"poweroffId":2020052513000138,"sgpoweroffId":null,"subsName":"","lineName":"10kV北大冉线588","pubTranName":"北大冉内11,3阳光锦绣城公用1,2中冉外26【纯农排变】,北大冉内18,中冉外30,北大冉内24,北大冉内25,2中冉外25【纯农排变】,1北大冉内23,2中冉外21【纯农排变】,2中冉外28【纯农排变】,北大冉内12,中冉外27,1北大冉内20,北大冉内15,北大冉内10,北大冉内17,北大冉内1,北大冉内4,北大冉内19,北大冉内7,中冉外31,北大冉内16,北大冉内9,2中冉外20【纯农排变】,1北大冉内22,北大冉内14,北大冉内2,3阳光锦绣城公用2,1北大冉内21,北大冉内8,中冉外22,北大冉内5,北大冉内13,","scope":"【影响街道/乡镇】清苑镇 【高危重要客户】无 【影响客户】北大冉、阳光锦绣城、科恒药业、阳光国际","startTime":"2020-06-03 01:30:00","stopDate":"2020-06-03 18:00:00","orgNo":"1340618","typeCode":"计划停电","poweroffArea":"【全线路停电】停110kV赵庄变电站10kV北大冉线588线路全线，北大冉内11,北大冉内24,保定交建公路养护有限公司,保定碧清房地产开发有限公司18,保定碧清房地产开发有限公司03,北大冉内25,2中冉外25【纯农排变】,保定碧清房地产开发有限公司16,0649756535-北京帝苑房地产开发有限公司-专变-174504882-北京帝苑房地产开发有限公司,保定碧清房地产开发有限公司01,2中冉外21【纯农排变】,保定碧清房地产开发有限公司19,中冉外27,北大冉安置楼,保定铁路清苑货场转运服务公司01,北大冉内10,0548835560-保定鑫日电线电缆有限公司-专变-118518489-保定鑫日电线电缆有限公司,0649756535-北京帝苑房地产开发有限公司-专变-174505522-北京帝苑房地产开发有限公司,北大冉内17,北大冉内1,北大冉内19,保定市尚悦酒店管理有限公司,0649756779-清苑县北大冉高层安置楼-专变-174504978-清苑县北大冉高层安置楼,北大冉内7,保定碧清房地产开发有限公司02,中冉外31,清苑县北大冉高层安置楼,北大冉内16,保定碧清房地产开发有限公司07,北大冉内9,河北正迪旅游开发有限公司02,中汽零睿博置业保定有限公司,河北正迪旅游开发有限公司,北大冉外9【纯农排变】,0649756535-北京帝苑房地产开发有限公司-专变-174504868-北京帝苑房地产开发有限公司,2中冉外20【纯农排变】,1北大冉内22,河北正迪旅游开发有限公司01,1北大冉内23,0649756535-北京帝苑房地产开发有限公司-专变-174504858-北京帝苑房地产开发有限公司,河北交建工程有限公司,2中冉外28【纯农排变】,北大冉内12,1北大冉内20,北大冉内15,0649756535-北京帝苑房地产开发有限公司-专变-174504846-北京帝苑房地产开发有限公司,0548835560-保定鑫日电线电缆有限公司-专变-148280017-保定鑫日电线电缆有限公司,北京帝苑房地产开发有限公司04,北大冉外8【纯农排变】,保定锋华铸造有限公司,北大冉内4,保定市南水北调工程建设委员会办公室,保定碧清房地产开发有限公司05,保定铁路清苑货场转运服务公司,0649756535-北京帝苑房地产开发有限公司-专变-174505667-北京帝苑房地产开发有限公司,北大冉内14,保定碧清房地产开发有限公司12,北大冉内2,0555323757-河北隆悦鑫工贸有限公司-专变-89054057-河北隆悦鑫工贸有限公司,北京帝苑房地产开发有限公司03,保定碧清房地产开发有限公司11,北京帝苑房地产开发有限公司02,0387484400-清苑县住房和城乡建设局-专变-45311822-北外环路灯,河北耀龙房地产开发有限公司,3阳光锦绣城公用2,河北省清苑县伟业机械制造有限公司,中冉穆斯林纸厂,0649756535-北京帝苑房地产开发有限公司-专变-174505671-北京帝苑房地产开发有限公司,1北大冉内21,北大冉内8,北京帝苑房地产开发有限公司01,保定碧清房地产开发有限公司14,0593112438-北大冉村委会-专变-125816242-北大冉村委会,保定碧清房地产开发有限公司13,朝阳路灯2,保定市捷运交通运输有限责任公司 主用,0387484657-清苑县住房和城乡建设局-专变-45311862-朝阳路灯1,保定碧清房地产开发有限公司06,保定兆丰缘食品有限公司,0649756535-北京帝苑房地产开发有限公司-专变-174505682-北京帝苑房地产开发有限公司,中冉外22,河北中凯建设工程有限公司,北大冉内5,保定碧清房地产开发有限公司09,0574976190-清苑县福捞火锅店-专变-123918022-清苑县福捞火锅店,北大冉内13,3阳光锦绣城公用1,保定碧清房地产开发有限公司08,2中冉外26【纯农排变】,清苑县财政局路灯,0548458178-保定交建公路养护有限公司-专变-48119596-河北交建工程有限公司,0547541077-大唐清苑热电有限公司-专变-48019334-大唐发电,保定碧清","poweroffReason":"【停电原因】由于线路切改导致１１０ＫＶ赵庄变电站１０ＫＶ北大冉线５８８线路全线停电 【变更送电】无 【发布渠道】保定市清苑区电视台（２０２０年０５月２６日１９时至２０２０年０６月０２日２０时之间）屏幕上方滚动","powerTime":"2020-06-03 17:51:25","powerComm":"王素通知已送电","subsNo":"","lineNo":"","tgNo":"","tgName":null,"infoStatus":"1","orgName":"国网清苑县供电公司","typeName":null,"infoStatusName":null,"dateDay":null,"orgNos":null,"nowTime":null,"countyName":null,"streetName":null,"villageName":null,"roadName":null,"communityName":null,"tranName":null,"sdLineName":null,"cityCode":"1340618","cityName":"国网清苑县供电公司","provinceCode":null,"stopTime":"2020-06-03 18:00:00","powerType":"全部","powerOffArea":"【全线路停电】停110kV赵庄变电站10kV北大冉线588线路全线，北大冉内11,北大冉内24,保定交建公路养护有限公司,保定碧清房地产开发有限公司18,保定碧清房地产开发有限公司03,北大冉内25,2中冉外25【纯农排变】,保定碧清房地产开发有限公司16,0649756535-北京帝苑房地产开发有限公司-专变-174504882-北京帝苑房地产开发有限公司,保定碧清房地产开发有限公司01,2中冉外21【纯农排变】,保定碧清房地产开发有限公司19,中冉外27,北大冉安置楼,保定铁路清苑货场转运服务公司01,北大冉内10,0548835560-保定鑫日电线电缆有限公司-专变-118518489-保定鑫日电线电缆有限公司,0649756535-北京帝苑房地产开发有限公司-专变-174505522-北京帝苑房地产开发有限公司,北大冉内17,北大冉内1,北大冉内19,保定市尚悦酒店管理有限公司,0649756779-清苑县北大冉高层安置楼-专变-174504978-清苑县北大冉高层安置楼,北大冉内7,保定碧清房地产开发有限公司02,中冉外31,清苑县北大冉高层安置楼,北大冉内16,保定碧清房地产开发有限公司07,北大冉内9,河北正迪旅游开发有限公司02,中汽零睿博置业保定有限公司,河北正迪旅游开发有限公司,北大冉外9【纯农排变】,0649756535-北京帝苑房地产开发有限公司-专变-174504868-北京帝苑房地产开发有限公司,2中冉外20【纯农排变】,1北大冉内22,河北正迪旅游开发有限公司01,1北大冉内23,0649756535-北京帝苑房地产开发有限公司-专变-174504858-北京帝苑房地产开发有限公司,河北交建工程有限公司,2中冉外28【纯农排变】,北大冉内12,1北大冉内20,北大冉内15,0649756535-北京帝苑房地产开发有限公司-专变-174504846-北京帝苑房地产开发有限公司,0548835560-保定鑫日电线电缆有限公司-专变-148280017-保定鑫日电线电缆有限公司,北京帝苑房地产开发有限公司04,北大冉外8【纯农排变】,保定锋华铸造有限公司,北大冉内4,保定市南水北调工程建设委员会办公室,保定碧清房地产开发有限公司05,保定铁路清苑货场转运服务公司,0649756535-北京帝苑房地产开发有限公司-专变-174505667-北京帝苑房地产开发有限公司,北大冉内14,保定碧清房地产开发有限公司12,北大冉内2,0555323757-河北隆悦鑫工贸有限公司-专变-89054057-河北隆悦鑫工贸有限公司,北京帝苑房地产开发有限公司03,保定碧清房地产开发有限公司11,北京帝苑房地产开发有限公司02,0387484400-清苑县住房和城乡建设局-专变-45311822-北外环路灯,河北耀龙房地产开发有限公司,3阳光锦绣城公用2,河北省清苑县伟业机械制造有限公司,中冉穆斯林纸厂,0649756535-北京帝苑房地产开发有限公司-专变-174505671-北京帝苑房地产开发有限公司,1北大冉内21,北大冉内8,北京帝苑房地产开发有限公司01,保定碧清房地产开发有限公司14,0593112438-北大冉村委会-专变-125816242-北大冉村委会,保定碧清房地产开发有限公司13,朝阳路灯2,保定市捷运交通运输有限责任公司 主用,0387484657-清苑县住房和城乡建设局-专变-45311862-朝阳路灯1,保定碧清房地产开发有限公司06,保定兆丰缘食品有限公司,0649756535-北京帝苑房地产开发有限公司-专变-174505682-北京帝苑房地产开发有限公司,中冉外22,河北中凯建设工程有限公司,北大冉内5,保定碧清房地产开发有限公司09,0574976190-清苑县福捞火锅店-专变-123918022-清苑县福捞火锅店,北大冉内13,3阳光锦绣城公用1,保定碧清房地产开发有限公司08,2中冉外26【纯农排变】,清苑县财政局路灯,0548458178-保定交建公路养护有限公司-专变-48119596-河北交建工程有限公司,0547541077-大唐清苑热电有限公司-专变-48019334-大唐发电,保定碧清","powerOffReason":"【停电原因】由于线路切改导致１１０ＫＶ赵庄变电站１０ＫＶ北大冉线５８８线路全线停电 【变更送电】无 【发布渠道】保定市清苑区电视台（２０２０年０５月２６日１９时至２０２０年０６月０２日２０时之间）屏幕上方滚动","powerOffId":"2020052513000138"},{"poweroffId":2020052513000136,"sgpoweroffId":null,"subsName":"","lineName":"10kV车屯线515","pubTranName":"老王庄北变压器,温家佐排灌3变压器【纯农排变】,辛村西南柱上变压器,车屯东南变压器,","scope":"【影响街道/乡镇】肖官营镇、方官镇 【高危重要客户】无 【影响客户】车屯村、东未屯村、老王庄村、温家佐村、辛村、中国人民解放军９３４９８部队７８分队、高碑店市肖官营隆丰清洁用品商贸经营部、 高碑店市仁达养殖有限责任公司、高碑店市双合盛养殖有限责任公司","startTime":"2020-06-03 05:00:00","stopDate":"2020-06-03 20:00:00","orgNo":"1340612","typeCode":"计划停电","poweroffArea":"【分支停电】停中国人民解放军93498部队78分队-,老王庄北变压器,车屯南变压器,车屯排灌3变压器【纯农排变】,高碑店市肖官营隆丰清洁用品商贸经营部变压器,仁达养殖公司,高碑店市双合盛养殖有限责任公司变压器,温家佐排灌3变压器【纯农排变】,辛村北台变压器,温家佐排灌1变压器【纯农排变】,温家佐西变压器,老王庄东变压器,辛村西南柱上变压器,双合盛养殖有限责任公司,车屯北变压器,仁达养殖公司500KVA变压器,车屯排灌1变压器【纯农排变】,车屯南2变压器,老王庄变压器,东未屯砖厂,辛村排灌1变压器【纯农排变】,辛村排灌2变压器【纯农排变】,车屯东南变压器,温家佐东变压器,温家佐混用变压器,老王庄南变压器,辛村南变压器","poweroffReason":"【停电原因】由于变台接引导致３５ＫＶ方官变电站１０ＫＶ车屯５１５线路０６号断路器以下停电 【变更送电】因工作量大原因，送电时间由１８：００变更为２０：００ 【发布渠道】高碑店市高碑店电视台（０５月２６日０８时至０６月０２日１８时之间）屏幕上方滚动","powerTime":"2020-06-03 19:55:11","powerComm":"已送电","subsNo":"","lineNo":"","tgNo":"","tgName":null,"infoStatus":"1","orgName":"国网高碑店市供电公司","typeName":null,"infoStatusName":null,"dateDay":null,"orgNos":null,"nowTime":null,"countyName":null,"streetName":null,"villageName":null,"roadName":null,"communityName":null,"tranName":null,"sdLineName":null,"cityCode":"1340612","cityName":"国网高碑店市供电公司","provinceCode":null,"stopTime":"2020-06-03 20:00:00","powerType":"全部","powerOffArea":"【分支停电】停中国人民解放军93498部队78分队-,老王庄北变压器,车屯南变压器,车屯排灌3变压器【纯农排变】,高碑店市肖官营隆丰清洁用品商贸经营部变压器,仁达养殖公司,高碑店市双合盛养殖有限责任公司变压器,温家佐排灌3变压器【纯农排变】,辛村北台变压器,温家佐排灌1变压器【纯农排变】,温家佐西变压器,老王庄东变压器,辛村西南柱上变压器,双合盛养殖有限责任公司,车屯北变压器,仁达养殖公司500KVA变压器,车屯排灌1变压器【纯农排变】,车屯南2变压器,老王庄变压器,东未屯砖厂,辛村排灌1变压器【纯农排变】,辛村排灌2变压器【纯农排变】,车屯东南变压器,温家佐东变压器,温家佐混用变压器,老王庄南变压器,辛村南变压器","powerOffReason":"【停电原因】由于变台接引导致３５ＫＶ方官变电站１０ＫＶ车屯５１５线路０６号断路器以下停电 【变更送电】因工作量大原因，送电时间由１８：００变更为２０：００ 【发布渠道】高碑店市高碑店电视台（０５月２６日０８时至０６月０２日１８时之间）屏幕上方滚动","powerOffId":"2020052513000136"}],"pageModel":{"pageNow":48,"totalCount":10973,"totalPage":1098,"tableRows":0,"pageCount":10,"beginCount":470},"isExperi":"1"}