{"message":"","today":"2020-06-15","seleList":[{"poweroffId":2019081513000341,"sgpoweroffId":null,"subsName":"","lineName":"迪城线577","pubTranName":"崔迪城8号【纯农排变】,","scope":"【影响街道/乡镇】大因镇 【高危重要客户】无 【影响客户】崔迪城村","startTime":"2019-08-17 08:00:00","stopDate":"2019-08-17 18:00:00","orgNo":"1340605","typeCode":"临时停电","poweroffArea":"【单台区停电】停崔迪城8号【纯农排变】","poweroffReason":"【停电原因】由于线路检修导致１１０ＫＶ沙口变电站迪城线５７７线路崔迪城８号公变台区停电 【变更送电】无 【发布渠道】通过９５５９８发布","powerTime":"2019-08-17 17:38:07","powerComm":"已送电","subsNo":"","lineNo":"","tgNo":"","tgName":null,"infoStatus":"1","orgName":"国网徐水县供电公司","typeName":null,"infoStatusName":null,"dateDay":null,"orgNos":null,"nowTime":null,"countyName":null,"streetName":null,"villageName":null,"roadName":null,"communityName":null,"tranName":null,"sdLineName":null,"cityCode":"1340605","cityName":"国网徐水县供电公司","provinceCode":null,"stopTime":"2019-08-17 18:00:00","powerType":"全部","powerOffArea":"【单台区停电】停崔迪城8号【纯农排变】","powerOffReason":"【停电原因】由于线路检修导致１１０ＫＶ沙口变电站迪城线５７７线路崔迪城８号公变台区停电 【变更送电】无 【发布渠道】通过９５５９８发布","powerOffId":"2019081513000341"},{"poweroffId":2019081513000340,"sgpoweroffId":null,"subsName":"","lineName":"大龙华线517","pubTranName":"赵家沟村3#|村中,","scope":"【影响街道/乡镇】安格庄乡【高危重要客户】无【影响客户】赵家沟村","startTime":"2019-08-15 19:56:06","stopDate":"2019-08-15 22:30:00","orgNo":"1340625","typeCode":"电网故障停限电","poweroffArea":"【单台区停电】停赵家沟村５#|村中","poweroffReason":"【停电原因】由于雷雨大风天气造成速断跳闸导致１１０ＫＶ西陵变电站大龙华５１７线路赵家沟村５＃公变台区停电【变更送电】因抢修进度加快原因，送电时间由１６日０６：００变更为１５日２２：３０【发布渠道】通过９５５９８发布","powerTime":"2019-08-15 22:11:21","powerComm":"已送电","subsNo":"","lineNo":"","tgNo":"","tgName":null,"infoStatus":"1","orgName":"国网易县供电公司","typeName":null,"infoStatusName":null,"dateDay":null,"orgNos":null,"nowTime":null,"countyName":null,"streetName":null,"villageName":null,"roadName":null,"communityName":null,"tranName":null,"sdLineName":null,"cityCode":"1340625","cityName":"国网易县供电公司","provinceCode":null,"stopTime":"2019-08-15 22:30:00","powerType":"全部","powerOffArea":"【单台区停电】停赵家沟村５#|村中","powerOffReason":"【停电原因】由于雷雨大风天气造成速断跳闸导致１１０ＫＶ西陵变电站大龙华５１７线路赵家沟村５＃公变台区停电【变更送电】因抢修进度加快原因，送电时间由１６日０６：００变更为１５日２２：３０【发布渠道】通过９５５９８发布","powerOffId":"2019081513000340"},{"poweroffId":2019081513000331,"sgpoweroffId":null,"subsName":"","lineName":"毛屯536","pubTranName":"茂林庄村东井0146,","scope":"【影响街道/乡镇】百尺竿乡 【高危重要客户】无 【影响客户】茂林庄","startTime":"2019-08-15 19:33:02","stopDate":"2019-08-15 21:20:00","orgNo":"1340626","typeCode":"电网故障停限电","poweroffArea":"【单台区停电】停茂林庄村东井0146","poweroffReason":"【停电原因】由于低压弓子线烧毁导致１１０ＫＶ宋营变电站毛屯５３６线路茂林庄村东井０１４６公变台区停电 【变更送电】因抢修进度加快原因，送电时间由２２：３０变更为２１：２０ 【发布渠道】通过９５５９８发布","powerTime":"2019-08-15 20:57:16","powerComm":"已送电","subsNo":"","lineNo":"","tgNo":"","tgName":null,"infoStatus":"1","orgName":"国网涿州市供电公司","typeName":null,"infoStatusName":null,"dateDay":null,"orgNos":null,"nowTime":null,"countyName":null,"streetName":null,"villageName":null,"roadName":null,"communityName":null,"tranName":null,"sdLineName":null,"cityCode":"1340626","cityName":"国网涿州市供电公司","provinceCode":null,"stopTime":"2019-08-15 21:20:00","powerType":"全部","powerOffArea":"【单台区停电】停茂林庄村东井0146","powerOffReason":"【停电原因】由于低压弓子线烧毁导致１１０ＫＶ宋营变电站毛屯５３６线路茂林庄村东井０１４６公变台区停电 【变更送电】因抢修进度加快原因，送电时间由２２：３０变更为２１：２０ 【发布渠道】通过９５５９８发布","powerOffId":"2019081513000331"},{"poweroffId":2019081513000324,"sgpoweroffId":null,"subsName":"","lineName":"湘连口线511","pubTranName":"都曹口新增综合,河北保沧高速公路公司,北柳庄村西49#农业【纯农排变】,田佐53#农业【纯农排变】,田佐村东新增农业【纯农排变】,边家务利达养殖厂,高阳县宝发纺织机械制造有限公司变压器,都曹口121#农业【纯农排变】,保定京阳线缆有限公司,南辛庄综合（116）,京阳电揽厂,贾务村东北农业【纯农排变】,保定京阳立津线缆制造有限公司变压器,南辛庄77#农业【纯农排变】,京阳电缆厂,南辛庄53综合,都曹口34#农业【纯农排变】,庞佐村西北新增综合,北柳庄综合3,边家务51#农业【纯农排变】,北辛庄54综合,冀中电缆厂,史文清变压器,北辛庄综合36,边家务村西新增综合　,任佐新增农业【纯农排变】,贾务村东农业【纯农排变】,南梁庄7#农业【纯农排变】,都曹口32#农业【纯农排变】,北柳庄村东北综合,边家务52#农业【纯农排变】,田佐2#农业【纯农排变】,都曹口电镀厂,都曹口33综合,都曹口31#农业【纯农排变】,贾务东,都曹口62#农业【纯农排变】,南梁庄村东新增综合,祥丰毛巾厂,庞佐96#农业【纯农排变】,北柳庄综合55,中国石油天然气股份有限公司华北油田分公司变压器,田佐1#农业【纯农排变】,贾务村东新增综合,北辛庄1号综合,北辛庄东南农业（124）【纯农排变】,河北华恩纺织品制造有限公司变压器,北柳庄村北新增农业【纯农排变】,都曹口村里新增综合,边家务新增106#农业【纯农排变】,田佐新增综合,北辛庄皮制品厂,高阳县贾务面粉厂变压器,","scope":"【影响街道/乡镇】西演镇、庞佐乡 【高危重要客户】无 【影响客户】田佐、北辛庄、南辛庄、边家务、贾务、庞佐、都曹口、南梁庄","startTime":"2019-08-15 19:10:20","stopDate":"2019-08-15 21:00:00","orgNo":"1340613","typeCode":"电网故障停限电","poweroffArea":"【全线路停电】停边家务利达养殖厂,田佐2#农业【纯农排变】,南梁庄村东新增综合,边家务新增106#农业【纯农排变】,田佐新增综合,贾务村东农业【纯农排变】,都曹口33综合,贾务村东新增综合,南辛庄77#农业【纯农排变】,南辛庄综合（116）,北柳庄村西49#农业【纯农排变】,保定京阳立津线缆制造有限公司变压器,都曹口电镀厂,田佐1#农业【纯农排变】,边家务村西新增综合　,河北华恩纺织品制造有限公司变压器,京阳电揽厂,北辛庄1号综合,史文清变压器,高阳县宝发纺织机械制造有限公司变压器,都曹口新增综合,北辛庄皮制品厂,都曹口121#农业【纯农排变】,中国石油天然气股份有限公司华北油田分公司变压器,北辛庄54综合,庞佐村西北新增综合,北柳庄村东北综合,北柳庄综合55,都曹口村里新增综合,田佐村东新增农业【纯农排变】,都曹口62#农业【纯农排变】,保定京阳线缆有限公司,贾务村东北农业【纯农排变】,河北保沧高速公路公司,边家务52#农业【纯农排变】,冀中电缆厂,北柳庄综合3,贾务东,北辛庄东南农业（124）【纯农排变】,高阳县贾务面粉厂变压器,都曹口32#农业【纯农排变】,南辛庄53综合,都曹口31#农业【纯农排变】,南梁庄7#农业【纯农排变】,京阳电缆厂,北柳庄村北新增农业【纯农排变】,边家务51#农业【纯农排变】,祥丰毛巾厂,庞佐96#农业【纯农排变】,都曹口34#农业【纯农排变】,北辛庄综合36,任佐新增农业【纯农排变】,田佐53#农业【纯农排变】","poweroffReason":"【停电原因】由于汽车撞杆导致１１０ＫＶ西演变电站湘连口５１１线路全线停电【变更送电】因抢修进度加快原因，送电时间由２３：００变更为２１：００【发布渠道】通过９５５９８发布","powerTime":"2019-08-15 20:35:52","powerComm":"已送电","subsNo":"","lineNo":"","tgNo":"","tgName":null,"infoStatus":"1","orgName":"国网高阳县供电公司","typeName":null,"infoStatusName":null,"dateDay":null,"orgNos":null,"nowTime":null,"countyName":null,"streetName":null,"villageName":null,"roadName":null,"communityName":null,"tranName":null,"sdLineName":null,"cityCode":"1340613","cityName":"国网高阳县供电公司","provinceCode":null,"stopTime":"2019-08-15 21:00:00","powerType":"全部","powerOffArea":"【全线路停电】停边家务利达养殖厂,田佐2#农业【纯农排变】,南梁庄村东新增综合,边家务新增106#农业【纯农排变】,田佐新增综合,贾务村东农业【纯农排变】,都曹口33综合,贾务村东新增综合,南辛庄77#农业【纯农排变】,南辛庄综合（116）,北柳庄村西49#农业【纯农排变】,保定京阳立津线缆制造有限公司变压器,都曹口电镀厂,田佐1#农业【纯农排变】,边家务村西新增综合　,河北华恩纺织品制造有限公司变压器,京阳电揽厂,北辛庄1号综合,史文清变压器,高阳县宝发纺织机械制造有限公司变压器,都曹口新增综合,北辛庄皮制品厂,都曹口121#农业【纯农排变】,中国石油天然气股份有限公司华北油田分公司变压器,北辛庄54综合,庞佐村西北新增综合,北柳庄村东北综合,北柳庄综合55,都曹口村里新增综合,田佐村东新增农业【纯农排变】,都曹口62#农业【纯农排变】,保定京阳线缆有限公司,贾务村东北农业【纯农排变】,河北保沧高速公路公司,边家务52#农业【纯农排变】,冀中电缆厂,北柳庄综合3,贾务东,北辛庄东南农业（124）【纯农排变】,高阳县贾务面粉厂变压器,都曹口32#农业【纯农排变】,南辛庄53综合,都曹口31#农业【纯农排变】,南梁庄7#农业【纯农排变】,京阳电缆厂,北柳庄村北新增农业【纯农排变】,边家务51#农业【纯农排变】,祥丰毛巾厂,庞佐96#农业【纯农排变】,都曹口34#农业【纯农排变】,北辛庄综合36,任佐新增农业【纯农排变】,田佐53#农业【纯农排变】","powerOffReason":"【停电原因】由于汽车撞杆导致１１０ＫＶ西演变电站湘连口５１１线路全线停电【变更送电】因抢修进度加快原因，送电时间由２３：００变更为２１：００【发布渠道】通过９５５９８发布","powerOffId":"2019081513000324"},{"poweroffId":2019081513000323,"sgpoweroffId":null,"subsName":"","lineName":"菜园537","pubTranName":"中国移动通信集团河北有限公司易县分公司安装变压器,西山北乡人民政府变压器,沙岭村2#【纯农排变】,于家庄村巩宝田北岗变压器,于家庄村6#村北,沙岭村3#,西山北兄弟石板厂,西山北村2#,南娄山村10#【纯农排变】,信诚石材厂(隰富山),西步乐村9#【纯农排变】,合利石板厂(李连合),西山北村6#,易县西山北春山石材加工厂变压器,敬玉河石板厂3#,北娄山林场,顺达造纸厂,保定泽疆旅游开发有限公司变压器,易县青山种禽有限公司变压器,长峪村6#|8队,菜园村8#三队西,菜园村3#,磊鑫石材厂2#变,敬玉河石板厂(丰磊),西步乐10#村南,西山北村1#,易县永兴石材加工厂315KVA,易县永幸石材厂,长峪村9#南井,北娄山村5#,南娄山村1#,长峪村8#【纯农排变】,沙岭村4#村中,丰磊石板厂100(敬玉河),西山北中心小学变压器,长峪8队西变,于家庄村3#村北,0674599321-西山北村敬洪利-专变-215869052-西山北村敬洪利250KVA,西山北村3#,长峪村3#,易县宏发钙粉厂(许建民),学峰养鸡厂,长峪8队北井【纯农排变】,五一面粉厂(50),长峪村4#,港里村卢忠凯变压器,易县扶贫福利配件厂(赵海山),长峪6队井变压器【纯农排变】,河北青山种禽有限公司高压器,菜园杨树岭,黄虎石板厂,黄忠石材加工厂(50KVA),北娄山村7#村中,易县西山北乡人民政府变压器,黄忠石材加工厂(80KVA),菜园村杨宁变压器,西步乐村8#新井【纯农排变】,易县邮政局山北邮政支局,团山村1#,于家庄村2#,于家庄村巩宝田西岗变压器,敬玉河石板厂2#,于家庄南石材厂,菜园村4#【纯农排变】,西山北村郭成群变压器,于家庄村1#,五一面粉厂(南井),南娄山村7#【纯农排变】,0677996301-南娄山村牛宝同-专变-219383403-南娄山村牛宝同50KVA,程宏石材长(李春喜),北娄山村8#村北【纯农排变】,南娄山村3#【纯农排变】,南娄山村8#村西,西山北村5#,0681103885-易县讴文农业开发有限责任公司-专变-219717662-易县讴文农业开发有限责任公司100KVA,长峪村10#,龙树石材厂,西山北村10#【纯农排变】,河北建设集团有限公司-长峪630KVA,菜园村新井7#【纯农排变】,易县通亿石材厂(郭连成),长峪村1#,鹏程石板厂(隰连国),长峪村7#【纯农排变】,于家庄村4#【纯农排变】,郭伟忠石板厂,西山北宇达石材厂(王福详),长峪村5#,西山北石板厂(郭士彪),菜园1队北井【纯农排变】,","scope":"【影响街道/乡镇】西山北乡 【高危重要客户】无 【影响客户】西山北村、西步乐村、东步乐村、团山村、于家庄村、南娄山村、长峪村、菜园村、沙岭村、北娄山村、西娄山村","startTime":"2019-08-15 19:20:08","stopDate":"2019-08-15 21:00:00","orgNo":"1340625","typeCode":"电网故障停限电","poweroffArea":"【全线路停电】停西山北村2#,长峪村6#|8队,南娄山村10#【纯农排变】,河北青山种禽有限公司高压器,长峪8队西变,易县宏发钙粉厂(许建民),长峪8队北井【纯农排变】,易县通亿石材厂(郭连成),长峪村7#【纯农排变】,易县邮政局山北邮政支局,学峰养鸡厂,长峪村5#,易县永兴石材加工厂315KVA,西山北村6#,沙岭村3#,于家庄村1#,菜园村新井7#【纯农排变】,西山北乡人民政府变压器,于家庄村3#村北,长峪村1#,菜园村3#,于家庄村巩宝田西岗变压器,北娄山村7#村中,菜园村4#【纯农排变】,长峪6队井变压器【纯农排变】,于家庄村4#【纯农排变】,长峪村3#,磊鑫石材厂2#变,西步乐10#村南,长峪村10#,河北建设集团有限公司-长峪630KVA,北娄山林场,鹏程石板厂(隰连国),沙岭村4#村中,菜园村杨宁变压器,龙树石材厂,西步乐村8#新井【纯农排变】,菜园杨树岭,西山北村3#,易县西山北春山石材加工厂变压器,长峪村4#,西山北中心小学变压器,于家庄村6#村北,港里村卢忠凯变压器,0674599321-西山北村敬洪利-专变-215869052-西山北村敬洪利250KVA,敬玉河石板厂(丰磊),团山村1#,长峪村8#【纯农排变】,敬玉河石板厂2#,信诚石材厂(隰富山),0681103885-易县讴文农业开发有限责任公司-专变-219717662-易县讴文农业开发有限责任公司100KVA,菜园1队北井【纯农排变】,易县永幸石材厂,黄忠石材加工厂(80KVA),长峪村9#南井,西山北兄弟石板厂,合利石板厂(李连合),中国移动通信集团河北有限公司易县分公司安装变压器,顺达造纸厂,西山北宇达石材厂(王福详),五一面粉厂(南井),易县青山种禽有限公司变压器,北娄山村8#村北【纯农排变】,西步乐村9#【纯农排变】,敬玉河石板厂3#,西山北村10#【纯农排变】,五一面粉厂(50),西山北村郭成群变压器,易县西山北乡人民政府变压器,0677996301-南娄山村牛宝同-专变-219383403-南娄山村牛宝同50KVA,于家庄村2#,西山北石板厂(郭士彪),于家庄南石材厂,易县扶贫福利配件厂(赵海山),程宏石材长(李春喜),南娄山村1#,丰磊石板厂100(敬玉河),郭伟忠石板厂,于家庄村巩宝田北岗变压器,北娄山村5#,菜园村8#三队西,黄忠石材加工厂(50KVA),黄虎石板厂,南娄山村8#村西,保定泽疆旅游开发有限公司变压器,西山北村5#,西山北村1#,沙岭村2#【纯农排变】,南娄山村3#【纯农排变】,南娄山村7#【纯农排变】","poweroffReason":"【停电原因】由于雷雨大风天气造成线路接地导致３５ＫＶ步乐变电站菜园５３７线路全线停电【变更送电】因抢修进度加快原因，送电时间由２２：５０变更为２１：００【发布渠道】通过９５５９８发布","powerTime":"2019-08-15 20:32:43","powerComm":"已送电","subsNo":"","lineNo":"","tgNo":"","tgName":null,"infoStatus":"1","orgName":"国网易县供电公司","typeName":null,"infoStatusName":null,"dateDay":null,"orgNos":null,"nowTime":null,"countyName":null,"streetName":null,"villageName":null,"roadName":null,"communityName":null,"tranName":null,"sdLineName":null,"cityCode":"1340625","cityName":"国网易县供电公司","provinceCode":null,"stopTime":"2019-08-15 21:00:00","powerType":"全部","powerOffArea":"【全线路停电】停西山北村2#,长峪村6#|8队,南娄山村10#【纯农排变】,河北青山种禽有限公司高压器,长峪8队西变,易县宏发钙粉厂(许建民),长峪8队北井【纯农排变】,易县通亿石材厂(郭连成),长峪村7#【纯农排变】,易县邮政局山北邮政支局,学峰养鸡厂,长峪村5#,易县永兴石材加工厂315KVA,西山北村6#,沙岭村3#,于家庄村1#,菜园村新井7#【纯农排变】,西山北乡人民政府变压器,于家庄村3#村北,长峪村1#,菜园村3#,于家庄村巩宝田西岗变压器,北娄山村7#村中,菜园村4#【纯农排变】,长峪6队井变压器【纯农排变】,于家庄村4#【纯农排变】,长峪村3#,磊鑫石材厂2#变,西步乐10#村南,长峪村10#,河北建设集团有限公司-长峪630KVA,北娄山林场,鹏程石板厂(隰连国),沙岭村4#村中,菜园村杨宁变压器,龙树石材厂,西步乐村8#新井【纯农排变】,菜园杨树岭,西山北村3#,易县西山北春山石材加工厂变压器,长峪村4#,西山北中心小学变压器,于家庄村6#村北,港里村卢忠凯变压器,0674599321-西山北村敬洪利-专变-215869052-西山北村敬洪利250KVA,敬玉河石板厂(丰磊),团山村1#,长峪村8#【纯农排变】,敬玉河石板厂2#,信诚石材厂(隰富山),0681103885-易县讴文农业开发有限责任公司-专变-219717662-易县讴文农业开发有限责任公司100KVA,菜园1队北井【纯农排变】,易县永幸石材厂,黄忠石材加工厂(80KVA),长峪村9#南井,西山北兄弟石板厂,合利石板厂(李连合),中国移动通信集团河北有限公司易县分公司安装变压器,顺达造纸厂,西山北宇达石材厂(王福详),五一面粉厂(南井),易县青山种禽有限公司变压器,北娄山村8#村北【纯农排变】,西步乐村9#【纯农排变】,敬玉河石板厂3#,西山北村10#【纯农排变】,五一面粉厂(50),西山北村郭成群变压器,易县西山北乡人民政府变压器,0677996301-南娄山村牛宝同-专变-219383403-南娄山村牛宝同50KVA,于家庄村2#,西山北石板厂(郭士彪),于家庄南石材厂,易县扶贫福利配件厂(赵海山),程宏石材长(李春喜),南娄山村1#,丰磊石板厂100(敬玉河),郭伟忠石板厂,于家庄村巩宝田北岗变压器,北娄山村5#,菜园村8#三队西,黄忠石材加工厂(50KVA),黄虎石板厂,南娄山村8#村西,保定泽疆旅游开发有限公司变压器,西山北村5#,西山北村1#,沙岭村2#【纯农排变】,南娄山村3#【纯农排变】,南娄山村7#【纯农排变】","powerOffReason":"【停电原因】由于雷雨大风天气造成线路接地导致３５ＫＶ步乐变电站菜园５３７线路全线停电【变更送电】因抢修进度加快原因，送电时间由２２：５０变更为２１：００【发布渠道】通过９５５９８发布","powerOffId":"2019081513000323"},{"poweroffId":2019081513000316,"sgpoweroffId":null,"subsName":"","lineName":"徐果庄线512","pubTranName":"07200|阮庄村南综合3716,07153|徐果庄农业村东北路东农排4871【纯农排变】,07063|雷庄村西综合3732,徐果庄村南新增2号综合,北晋庄西街口综合,高阳县禹恒棉织厂变压器,07223|佐庄村东北农排5496【纯农排变】,徐果庄大队新增综合,北晋庄3号农排【纯农排变】,北晋庄村西北新增综合,耿庄村西南1#农排【纯农排变】,徐果庄村南新增综合,北晋庄村北新增综合,万兴毛巾厂,07197|徐果庄村教堂综合5236,高阳县新源巾被厂,07205|徐果庄村东综合5231,070021|徐果庄村西大坑综合5240,徐果庄板厂新增综合,徐果庄西南新增2号综合,高阳县美辰纺纱厂变压器,07152|徐果庄农业村西2#农排4873【纯农排变】,北晋庄6号农排【纯农排变】,雷庄农排1号【纯农排变】,07222|佐庄村东北农排5494【纯农排变】,高阳县万通棉织厂电压器,永丰织物厂,高阳县晋庄镇佐家庄村一变压器,高阳县富国毛巾厂变压器,高阳县晋庄镇佐家庄村二变压器,高阳县好丽纺织有限公司,北晋庄9号农排【纯农排变】,徐果庄毛纺厂,高阳县晋阳针织厂减容250,高阳县晋庄镇北晋庄村三变压器,070020|徐果庄中南综合5238,北晋庄村东中综合,河北三益锌制品有限公司变压器,南尖农排1台区【纯农排变】,07156|徐果庄农业村东6#农排4932【纯农排变】,雷庄村里东综合台区,耿庄村东北农排【纯农排变】,高阳县晋庄镇雷家庄村村委会二变压器,北晋庄村北农排1#【纯农排变】,07084|佐庄大队综合3684,康新良,双峰针织厂,07017|徐果庄村南综合5234,07225|佐庄村东边农排5492【纯农排变】,阮庄村东新增综合,高阳县晋庄镇北晋庄村五变压器,佐庄村东南综合,07092|北晋庄村东2#综合3730,高阳县平安汽车服务有限公司变压器,徐果庄西南新增综合,07221|佐庄村东农排5497【纯农排变】,07080|北晋庄东北方综合3572,高阳县平安机动车驾驶培训学校变压器,高阳县晋庄镇阮庄村村民委员会二变压器,阮庄村西2号新增综合,耿庄村西北2#农排【纯农排变】,07168|徐果庄农业村西南8#农排5081【纯农排变】,07155|徐果庄农业村东北路东农排4869【纯农排变】,北晋庄宋桥道综合,高阳县晋庄镇徐果庄村民委员会二号变压器,高阳县兴荣纺织品制造有限公司变压器,07167|徐果庄村南农业7#农排4931【纯农排变】,阮庄村西北新增综合,佐庄村西北新增综合,晋庄商店织布厂,徐果庄村北新增农业【纯农排变】,高阳县兴光棉织厂变压器,三益氧化锌厂,北晋庄4号农排【纯农排变】,李明发,高阳县康庄棉织厂变压器,07224|佐庄村北农排5493【纯农排变】,雷庄村西北新增综合,佐庄村北新增综合,07081|北晋庄综合3578,徐果庄村东新增综合,高阳县平安机动车驾驶员培训学校变压器,高阳县晋庄乡杨家佐村民委员会二号变压器,07234|阮庄东南新增综合5546,北晋庄8号农排【纯农排变】,07201|阮庄村东综合3715,高阳县晋庄镇徐果庄村民委员会一号变压器,高阳县晋庄镇阮庄村村民委员会一变压器,07088|佐庄村东北综合37","scope":"【影响街道/乡镇】晋庄乡 【高危重要客户】无 【影响客户】耿庄、阮庄、佐庄（佐家庄）、雷庄（雷家庄）、徐果庄、北晋庄村北","startTime":"2019-08-15 19:10:20","stopDate":"2019-08-15 23:00:00","orgNo":"1340613","typeCode":"电网故障停限电","poweroffArea":"【全线路停电】停北晋庄3号农排【纯农排变】,07154|徐果庄农业村东北路西农排4870【纯农排变】,高阳县晋庄镇徐果庄村民委员会二号变压器,高阳县兴荣纺织品制造有限公司变压器,07167|徐果庄村南农业7#农排4931【纯农排变】,北晋庄7号农排【纯农排变】,高阳县晋庄镇耿庄村村委会变压器,雷庄农排1号【纯农排变】,07222|佐庄村东北农排5494【纯农排变】,高阳县万通棉织厂电压器,永丰织物厂,阮庄3号农排台区【纯农排变】,刘新民变压器,07202|阮庄村西综合3595,徐果庄西南新增综合,07221|佐庄村东农排5497【纯农排变】,雷庄农排2号【纯农排变】,07198|徐果庄村里综合5237,佐庄村东南综合,高阳县晋庄镇徐果庄村民委员会三号台区,新建毛纺厂,阮庄村西南新增综合,07028|徐果庄西南综合5233,07155|徐果庄农业村东北路东农排4869【纯农排变】,07203|阮庄村村北综合3614,阮庄村西北4#农排【纯农排变】,成都华川公路建设集团有限公司变压器,阮庄村西2号新增综合,耿庄村西北2#农排【纯农排变】,07168|徐果庄农业村西南8#农排5081【纯农排变】,北晋庄宋桥道综合,阮庄村西北新增综合,佐庄村西北新增综合,晋庄商店织布厂,徐果庄大队新增综合,07080|北晋庄东北方综合3572,阮庄1号台区农排【纯农排变】,高阳县晋庄镇阮庄村村民委员会二变压器,高阳县美辰纺纱厂变压器,北晋庄6号农排【纯农排变】,高阳县平安汽车服务有限公司变压器,徐果庄村南新增2号综合,高阳县平安机动车驾驶培训学校变压器,北晋庄村西北新增综合,北晋庄西街口综合,高阳县禹恒棉织厂变压器,07223|佐庄村东北农排5496【纯农排变】,07084|佐庄大队综合3684,07092|北晋庄村东2#综合3730,徐果庄村南新增综合,北晋庄9号农排【纯农排变】,双峰针织厂,高阳县晋庄镇佐家庄村一变压器,高阳县富国毛巾厂变压器,高阳县晋庄镇佐家庄村二变压器,高阳县好丽纺织有限公司,徐果庄村北新增农业【纯农排变】,高阳县兴光棉织厂变压器,三益氧化锌厂,北晋庄4号农排【纯农排变】,李明发,高阳县康庄棉织厂变压器,高阳县晋庄镇北晋庄村三变压器,07197|徐果庄村教堂综合5236,07152|徐果庄农业村西2#农排4873【纯农排变】,07224|佐庄村北农排5493【纯农排变】,雷庄村西北新增综合,佐庄村北新增综合,07081|北晋庄综合3578,徐果庄村东新增综合,高阳县平安机动车驾驶员培训学校变压器,高阳县晋庄乡杨家佐村民委员会二号变压器,070020|徐果庄中南综合5238,振国毛巾厂,北晋庄村东中综合,河北三益锌制品有限公司变压器,07156|徐果庄农业村东6#农排4932【纯农排变】,高阳县新源巾被厂,07205|徐果庄村东综合5231,070021|徐果庄村西大坑综合5240,徐果庄板厂新增综合,徐果庄西南新增2号综合,南尖农排1台区【纯农排变】,雷庄村里东综合台区,耿庄村西南1#农排【纯农排变】,北晋庄村北新增综合,万兴毛巾厂,耿庄村东北农排【纯农排变】,高阳县晋庄镇雷家庄村村委会二变压器,高阳县舒雅特巾被有限公司变压器,阮庄村西南2#农排【纯农排变】,雷庄村里新增综合,康雄伟,北晋庄村北农排2#【纯农排变】,07032|雷庄综合3758,徐果庄大坑2号新增综合,高阳县晋庄乡中心卫生院变压器,07200|阮庄村南综合3716,07153|徐果庄农业村东北路东农排4871【纯农排变】,07063|雷庄村西综合3732,07225|佐庄村东边农排5492【纯农排变】,阮庄村北新增综合,吉利毛巾厂,07169|耿庄村北综合3686,康新良,07151|徐果庄村西北农业1#农排4872【纯农排变】,阮庄村东新增综合,北晋庄村北农排1#【纯农排变】,徐果庄毛纺厂,高阳县晋阳针织厂减容250,07017|徐果庄","poweroffReason":"【停电原因】由于汽车撞杆导致３５ＫＶ杨佐变电站徐果庄５１２线路全线停电【变更送电】无【发布渠道】通过９５５９８发布","powerTime":"2019-08-15 22:51:32","powerComm":"已送电","subsNo":"","lineNo":"","tgNo":"","tgName":null,"infoStatus":"1","orgName":"国网高阳县供电公司","typeName":null,"infoStatusName":null,"dateDay":null,"orgNos":null,"nowTime":null,"countyName":null,"streetName":null,"villageName":null,"roadName":null,"communityName":null,"tranName":null,"sdLineName":null,"cityCode":"1340613","cityName":"国网高阳县供电公司","provinceCode":null,"stopTime":"2019-08-15 23:00:00","powerType":"全部","powerOffArea":"【全线路停电】停北晋庄3号农排【纯农排变】,07154|徐果庄农业村东北路西农排4870【纯农排变】,高阳县晋庄镇徐果庄村民委员会二号变压器,高阳县兴荣纺织品制造有限公司变压器,07167|徐果庄村南农业7#农排4931【纯农排变】,北晋庄7号农排【纯农排变】,高阳县晋庄镇耿庄村村委会变压器,雷庄农排1号【纯农排变】,07222|佐庄村东北农排5494【纯农排变】,高阳县万通棉织厂电压器,永丰织物厂,阮庄3号农排台区【纯农排变】,刘新民变压器,07202|阮庄村西综合3595,徐果庄西南新增综合,07221|佐庄村东农排5497【纯农排变】,雷庄农排2号【纯农排变】,07198|徐果庄村里综合5237,佐庄村东南综合,高阳县晋庄镇徐果庄村民委员会三号台区,新建毛纺厂,阮庄村西南新增综合,07028|徐果庄西南综合5233,07155|徐果庄农业村东北路东农排4869【纯农排变】,07203|阮庄村村北综合3614,阮庄村西北4#农排【纯农排变】,成都华川公路建设集团有限公司变压器,阮庄村西2号新增综合,耿庄村西北2#农排【纯农排变】,07168|徐果庄农业村西南8#农排5081【纯农排变】,北晋庄宋桥道综合,阮庄村西北新增综合,佐庄村西北新增综合,晋庄商店织布厂,徐果庄大队新增综合,07080|北晋庄东北方综合3572,阮庄1号台区农排【纯农排变】,高阳县晋庄镇阮庄村村民委员会二变压器,高阳县美辰纺纱厂变压器,北晋庄6号农排【纯农排变】,高阳县平安汽车服务有限公司变压器,徐果庄村南新增2号综合,高阳县平安机动车驾驶培训学校变压器,北晋庄村西北新增综合,北晋庄西街口综合,高阳县禹恒棉织厂变压器,07223|佐庄村东北农排5496【纯农排变】,07084|佐庄大队综合3684,07092|北晋庄村东2#综合3730,徐果庄村南新增综合,北晋庄9号农排【纯农排变】,双峰针织厂,高阳县晋庄镇佐家庄村一变压器,高阳县富国毛巾厂变压器,高阳县晋庄镇佐家庄村二变压器,高阳县好丽纺织有限公司,徐果庄村北新增农业【纯农排变】,高阳县兴光棉织厂变压器,三益氧化锌厂,北晋庄4号农排【纯农排变】,李明发,高阳县康庄棉织厂变压器,高阳县晋庄镇北晋庄村三变压器,07197|徐果庄村教堂综合5236,07152|徐果庄农业村西2#农排4873【纯农排变】,07224|佐庄村北农排5493【纯农排变】,雷庄村西北新增综合,佐庄村北新增综合,07081|北晋庄综合3578,徐果庄村东新增综合,高阳县平安机动车驾驶员培训学校变压器,高阳县晋庄乡杨家佐村民委员会二号变压器,070020|徐果庄中南综合5238,振国毛巾厂,北晋庄村东中综合,河北三益锌制品有限公司变压器,07156|徐果庄农业村东6#农排4932【纯农排变】,高阳县新源巾被厂,07205|徐果庄村东综合5231,070021|徐果庄村西大坑综合5240,徐果庄板厂新增综合,徐果庄西南新增2号综合,南尖农排1台区【纯农排变】,雷庄村里东综合台区,耿庄村西南1#农排【纯农排变】,北晋庄村北新增综合,万兴毛巾厂,耿庄村东北农排【纯农排变】,高阳县晋庄镇雷家庄村村委会二变压器,高阳县舒雅特巾被有限公司变压器,阮庄村西南2#农排【纯农排变】,雷庄村里新增综合,康雄伟,北晋庄村北农排2#【纯农排变】,07032|雷庄综合3758,徐果庄大坑2号新增综合,高阳县晋庄乡中心卫生院变压器,07200|阮庄村南综合3716,07153|徐果庄农业村东北路东农排4871【纯农排变】,07063|雷庄村西综合3732,07225|佐庄村东边农排5492【纯农排变】,阮庄村北新增综合,吉利毛巾厂,07169|耿庄村北综合3686,康新良,07151|徐果庄村西北农业1#农排4872【纯农排变】,阮庄村东新增综合,北晋庄村北农排1#【纯农排变】,徐果庄毛纺厂,高阳县晋阳针织厂减容250,07017|徐果庄","powerOffReason":"【停电原因】由于汽车撞杆导致３５ＫＶ杨佐变电站徐果庄５１２线路全线停电【变更送电】无【发布渠道】通过９５５９８发布","powerOffId":"2019081513000316"},{"poweroffId":2019081513000304,"sgpoweroffId":null,"subsName":"","lineName":"西王庄线521","pubTranName":"高阳县东兴机械厂变压器,河北省大广高速公路京衡段筹建处变压器,安庄59#农业【纯农排变】,高阳县雄鹰扣板厂变压器,西演村东东南综合,安庄村东北新增综合,安庄学校村北综合,高阳县众德蔬菜农民专业合作社变压器,西演村东47综合,西王庄西大方11#农业【纯农排变】,王爱民,西王庄村南综合,安庄6#农业【纯农排变】,安庄村东综合73,连庄28#农业【纯农排变】,王立明变压器,西演南3综合,连庄57#农业【纯农排变】,安庄60#农业【纯农排变】,王保亮,西演村南46综合,高阳县宏柱冲压件厂变压器,高阳县汇通机械厂变压器,中国移动通信集团河北有限公司高阳分公司,西王庄孙永跃,西王庄眼镜厂,高阳县中燃能源发展有限公司变压器,安庄8#农业【纯农排变】,74#西演农业1#【纯农排变】,高阳县亚飞农用汽车销售有限公司台区,安庄村东南新增综合,连庄大队综合,西演供电所250KVA,高阳县庞口镇西王庄村变压器,高阳县桥东粮油加工厂变压器,安庄村北新增综合,西演村南(牛世民),西演供电所,王振农场,西演官坑综合,安庄农业生态开发,安庄村西(李石香),刘伟4号,75#西演农业2#【纯农排变】,西王庄毛纺厂,西演村东北新增综合,连庄农排新增1号【纯农排变】,西王庄村西新增综合台区,北柳庄,西演东北4综合,刘志海,西王庄西南农业【纯农排变】,王庄钢厂(子),高阳县兴达液压件厂变压器,高阳县虓志燃气销售有限公司变压器,尤五面厂,安庄9#农业【纯农排变】,西演高压2#农业71【纯农排变】,孙永跃50,边渡口包地,西王庄村南综合65,连庄村北综合80,西王庄农业76#【纯农排变】,连庄农排新增2号【纯农排变】,西演新79综合,西王庄村东综合23,安庄10综合,安庄村西新增综合,食用菌种殖厂,连庄32#农业【纯农排变】,连庄村西综合81,连庄村北新增1号综合,西王庄村西综合24,高阳县华谊内燃机配件经销处变压器,西王庄村北34#农业【纯农排变】,西王庄农业77#【纯农排变】,王仙,王震浇地,西王庄村西12#农业【纯农排变】,姜齐庄42#农业【纯农排变】,连庄村西北新增综合,西王庄孙永和,西王庄村东22#农业【纯农排变】,西演村东新增综合,西王庄东南21#农业【纯农排变】,78#西演农业3#【纯农排变】,连庄村北新增综合82,西演高压1#农业85【纯农排变】,连庄冲床,连庄村南综合,姜齐庄村北新增综合,西王庄北大方农排【纯农排变】,连庄书记综合,西王庄村东新增综合台区,连庄58#农业【纯农排变】,石文利,广汇纺织印染公司,西王庄村北综合72,高阳县广汇纺织印染有限公司变压器,","scope":"【影响街道/乡镇】西演镇、庞口镇 【高危重要客户】无 【影响客户】西演、安庄（安家庄）、连庄（连家庄）、西王庄、姜齐庄","startTime":"2019-08-15 19:00:53","stopDate":"2019-08-15 23:00:00","orgNo":"1340613","typeCode":"电网故障停限电","poweroffArea":"【全线路停电】停西演东北4综合,高阳县东兴机械厂变压器,河北省大广高速公路京衡段筹建处变压器,安庄59#农业【纯农排变】,高阳县雄鹰扣板厂变压器,西演村东东南综合,安庄村东北新增综合,安庄学校村北综合,高阳县众德蔬菜农民专业合作社变压器,安庄9#农业【纯农排变】,西演高压2#农业71【纯农排变】,孙永跃50,西演村东47综合,西王庄西大方11#农业【纯农排变】,王爱民,西王庄村南综合,安庄60#农业【纯农排变】,王保亮,西演村南46综合,高阳县宏柱冲压件厂变压器,高阳县汇通机械厂变压器,中国移动通信集团河北有限公司高阳分公司,西王庄孙永跃,西王庄眼镜厂,高阳县中燃能源发展有限公司变压器,连庄村南综合,姜齐庄村北新增综合,王振农场,西演官坑综合,安庄农业生态开发,安庄村西(李石香),刘伟4号,75#西演农业2#【纯农排变】,西王庄毛纺厂,西演村东北新增综合,连庄农排新增1号【纯农排变】,西王庄村西新增综合台区,北柳庄,刘志海,西王庄西南农业【纯农排变】,王庄钢厂(子),高阳县兴达液压件厂变压器,高阳县虓志燃气销售有限公司变压器,尤五面厂,边渡口包地,西王庄村南综合65,连庄村北综合80,安庄6#农业【纯农排变】,安庄村东综合73,连庄28#农业【纯农排变】,王立明变压器,西演南3综合,连庄57#农业【纯农排变】,王仙,王震浇地,西王庄村西12#农业【纯农排变】,姜齐庄42#农业【纯农排变】,安庄8#农业【纯农排变】,74#西演农业1#【纯农排变】,高阳县亚飞农用汽车销售有限公司台区,安庄村东南新增综合,连庄大队综合,西演供电所250KVA,高阳县庞口镇西王庄村变压器,高阳县桥东粮油加工厂变压器,安庄村北新增综合,西演村南(牛世民),西演供电所,78#西演农业3#【纯农排变】,连庄村北新增综合82,西演高压1#农业85【纯农排变】,连庄冲床,连庄32#农业【纯农排变】,连庄村北新增1号综合,高阳县华谊内燃机配件经销处变压器,西王庄村北34#农业【纯农排变】,西王庄农业77#【纯农排变】,连庄村西北新增综合,西王庄孙永和,西王庄村东22#农业【纯农排变】,西演村东新增综合,西王庄东南21#农业【纯农排变】,西王庄北大方农排【纯农排变】,连庄书记综合,西王庄村东新增综合台区,连庄58#农业【纯农排变】,石文利,广汇纺织印染公司,西王庄村北综合72,高阳县广汇纺织印染有限公司变压器,连庄村西综合81,西王庄村西综合24,西王庄农业76#【纯农排变】,连庄农排新增2号【纯农排变】,西演新79综合,西王庄村东综合23,安庄10综合,安庄村西新增综合,食用菌种殖厂","poweroffReason":"【停电原因】由于汽车撞杆导致１１０ＫＶ西演变电站西王庄５２１线路全线停电【变更送电】无【发布渠道】通过９５５９８发布","powerTime":"2019-08-15 22:38:16","powerComm":"已送电","subsNo":"","lineNo":"","tgNo":"","tgName":null,"infoStatus":"1","orgName":"国网高阳县供电公司","typeName":null,"infoStatusName":null,"dateDay":null,"orgNos":null,"nowTime":null,"countyName":null,"streetName":null,"villageName":null,"roadName":null,"communityName":null,"tranName":null,"sdLineName":null,"cityCode":"1340613","cityName":"国网高阳县供电公司","provinceCode":null,"stopTime":"2019-08-15 23:00:00","powerType":"全部","powerOffArea":"【全线路停电】停西演东北4综合,高阳县东兴机械厂变压器,河北省大广高速公路京衡段筹建处变压器,安庄59#农业【纯农排变】,高阳县雄鹰扣板厂变压器,西演村东东南综合,安庄村东北新增综合,安庄学校村北综合,高阳县众德蔬菜农民专业合作社变压器,安庄9#农业【纯农排变】,西演高压2#农业71【纯农排变】,孙永跃50,西演村东47综合,西王庄西大方11#农业【纯农排变】,王爱民,西王庄村南综合,安庄60#农业【纯农排变】,王保亮,西演村南46综合,高阳县宏柱冲压件厂变压器,高阳县汇通机械厂变压器,中国移动通信集团河北有限公司高阳分公司,西王庄孙永跃,西王庄眼镜厂,高阳县中燃能源发展有限公司变压器,连庄村南综合,姜齐庄村北新增综合,王振农场,西演官坑综合,安庄农业生态开发,安庄村西(李石香),刘伟4号,75#西演农业2#【纯农排变】,西王庄毛纺厂,西演村东北新增综合,连庄农排新增1号【纯农排变】,西王庄村西新增综合台区,北柳庄,刘志海,西王庄西南农业【纯农排变】,王庄钢厂(子),高阳县兴达液压件厂变压器,高阳县虓志燃气销售有限公司变压器,尤五面厂,边渡口包地,西王庄村南综合65,连庄村北综合80,安庄6#农业【纯农排变】,安庄村东综合73,连庄28#农业【纯农排变】,王立明变压器,西演南3综合,连庄57#农业【纯农排变】,王仙,王震浇地,西王庄村西12#农业【纯农排变】,姜齐庄42#农业【纯农排变】,安庄8#农业【纯农排变】,74#西演农业1#【纯农排变】,高阳县亚飞农用汽车销售有限公司台区,安庄村东南新增综合,连庄大队综合,西演供电所250KVA,高阳县庞口镇西王庄村变压器,高阳县桥东粮油加工厂变压器,安庄村北新增综合,西演村南(牛世民),西演供电所,78#西演农业3#【纯农排变】,连庄村北新增综合82,西演高压1#农业85【纯农排变】,连庄冲床,连庄32#农业【纯农排变】,连庄村北新增1号综合,高阳县华谊内燃机配件经销处变压器,西王庄村北34#农业【纯农排变】,西王庄农业77#【纯农排变】,连庄村西北新增综合,西王庄孙永和,西王庄村东22#农业【纯农排变】,西演村东新增综合,西王庄东南21#农业【纯农排变】,西王庄北大方农排【纯农排变】,连庄书记综合,西王庄村东新增综合台区,连庄58#农业【纯农排变】,石文利,广汇纺织印染公司,西王庄村北综合72,高阳县广汇纺织印染有限公司变压器,连庄村西综合81,西王庄村西综合24,西王庄农业76#【纯农排变】,连庄农排新增2号【纯农排变】,西演新79综合,西王庄村东综合23,安庄10综合,安庄村西新增综合,食用菌种殖厂","powerOffReason":"【停电原因】由于汽车撞杆导致１１０ＫＶ西演变电站西王庄５２１线路全线停电【变更送电】无【发布渠道】通过９５５９８发布","powerOffId":"2019081513000304"},{"poweroffId":2019081513000302,"sgpoweroffId":null,"subsName":"","lineName":"10kV516东西营线","pubTranName":"东营综合4台区,东营综合6台区,西营农排4台区【纯农排变】,东营综合12台区,林堡六,东营综合10台区【冬季供暖设施】,东营浇地1号,西营农排7台区【纯农排变】,东营综合8台区,西营农排5台区【纯农排变】,西营综合1台区,客户投资_西营综合5台区,大朋,东营综合1台区,西营农排3台区【纯农排变】,西营综合7台区,西营综合6台区,西营综合4台区,东营村浇地5号东,东营浇地10号,东营浇地7号西,0469455377-东营村浇地五号-专变-46813156-东营村浇地5号,东营浇地8号,东营浇地7号,东营浇地6号东,东营浇地2号,东营浇地6号,西营农排6台区【纯农排变】,东营浇地4号,东营浇地3号东,东营浇地10号东,东营综合7台区,渔池,东营综合9台区,东营浇地9号,蠡县磊鑫砂石料场,东营综合5台区,东营砖厂2,东营砖厂1,西营综合2台区,西营综合8台区,西营农排9台区【纯农排变】,西营综合3台区,客户投资_东营综合3台区,保定德鑫纺织品制造有限公司变压器,东营浇地3号,东营温馨家园,林堡5号,客户投资_东营综合2台区,西营农排1台区变压器,东营村委会,东营综合11台区,东营村东北,","scope":"【影响街道/乡镇】林堡乡【高危重要客户】无【影响客户】西营村、东营村","startTime":"2019-08-15 19:02:34","stopDate":"2019-08-16 00:30:00","orgNo":"1340616","typeCode":"电网故障停限电","poweroffArea":"【全线路停电】停东营综合4台区,西营农排1台区变压器,西营农排4台区【纯农排变】,东营综合12台区,东营综合8台区,东营综合6台区,西营农排9台区【纯农排变】,西营综合3台区,客户投资_西营综合5台区,大朋,东营温馨家园,林堡5号,东营村委会,东营浇地1号,西营综合6台区,西营农排6台区【纯农排变】,西营农排5台区【纯农排变】,西营综合1台区,东营综合5台区,客户投资_东营综合2台区,东营综合1台区,西营农排3台区【纯农排变】,西营综合7台区,东营综合11台区,林堡六,东营综合10台区【冬季供暖设施】,西营综合8台区,西营农排7台区【纯农排变】,西营综合4台区,东营村浇地5号东,东营浇地10号,东营浇地7号西,0469455377-东营村浇地五号-专变-46813156-东营村浇地5号,东营浇地8号,东营浇地7号,东营浇地6号东,东营浇地3号,东营浇地2号,东营村东北,东营浇地6号,东营浇地4号,东营浇地3号东,东营浇地10号东,东营综合7台区,渔池,东营综合9台区,东营浇地9号,蠡县磊鑫砂石料场,东营砖厂2,东营砖厂1,西营综合2台区,客户投资_东营综合3台区,保定德鑫纺织品制造有限公司变压器","poweroffReason":"【停电原因】由于受大风恶劣天气影响线路接地导致３５ＫＶ林堡变电站１０ＫＶ东西营５１６线路全线停电【变更送电】因抢修进度加快原因，送电时间由１６日０８：００变更为１６日００：３０【发布渠道】通过９５５９８发布","powerTime":"2019-08-15 23:57:06","powerComm":"已送电","subsNo":"","lineNo":"","tgNo":"","tgName":null,"infoStatus":"1","orgName":"国网蠡县供电公司","typeName":null,"infoStatusName":null,"dateDay":null,"orgNos":null,"nowTime":null,"countyName":null,"streetName":null,"villageName":null,"roadName":null,"communityName":null,"tranName":null,"sdLineName":null,"cityCode":"1340616","cityName":"国网蠡县供电公司","provinceCode":null,"stopTime":"2019-08-16 00:30:00","powerType":"全部","powerOffArea":"【全线路停电】停东营综合4台区,西营农排1台区变压器,西营农排4台区【纯农排变】,东营综合12台区,东营综合8台区,东营综合6台区,西营农排9台区【纯农排变】,西营综合3台区,客户投资_西营综合5台区,大朋,东营温馨家园,林堡5号,东营村委会,东营浇地1号,西营综合6台区,西营农排6台区【纯农排变】,西营农排5台区【纯农排变】,西营综合1台区,东营综合5台区,客户投资_东营综合2台区,东营综合1台区,西营农排3台区【纯农排变】,西营综合7台区,东营综合11台区,林堡六,东营综合10台区【冬季供暖设施】,西营综合8台区,西营农排7台区【纯农排变】,西营综合4台区,东营村浇地5号东,东营浇地10号,东营浇地7号西,0469455377-东营村浇地五号-专变-46813156-东营村浇地5号,东营浇地8号,东营浇地7号,东营浇地6号东,东营浇地3号,东营浇地2号,东营村东北,东营浇地6号,东营浇地4号,东营浇地3号东,东营浇地10号东,东营综合7台区,渔池,东营综合9台区,东营浇地9号,蠡县磊鑫砂石料场,东营砖厂2,东营砖厂1,西营综合2台区,客户投资_东营综合3台区,保定德鑫纺织品制造有限公司变压器","powerOffReason":"【停电原因】由于受大风恶劣天气影响线路接地导致３５ＫＶ林堡变电站１０ＫＶ东西营５１６线路全线停电【变更送电】因抢修进度加快原因，送电时间由１６日０８：００变更为１６日００：３０【发布渠道】通过９５５９８发布","powerOffId":"2019081513000302"},{"poweroffId":2019081513000299,"sgpoweroffId":null,"subsName":"","lineName":"10kV位村线513","pubTranName":"魏村东街幼儿园变压器,2魏北街外2【纯农排变】,1魏村东街内4,2魏村南街外1【纯农排变】,2王罗候外6【纯农排变】,2魏西街外6【纯农排变】,2王罗候外2【纯农排变】,0387504304-中国联合网络通信有限公司清苑县分公司-专变-45324100-中国联合网络通信有限公司清苑县分公司,1魏村东街内3,2魏村北街外6【纯农排变】,1魏村北街内5,魏村中学变压器3,1魏村西街内6,|清苑县古城工艺制香厂,2魏北街外7【纯农排变】,保定市清苑区腾达生猪屠宰场,2魏村西街外3【纯农排变】,河北杰能电气设备有限公司,1王罗候内5,2王罗候外1【纯农排变】,清苑县顺兴塑料制品有限公司,2魏村南街外9【纯农排变】,1位村南街内10,保定益鑫精密件有限公司,1魏村东街内7,1魏村北街内1,1魏村东街内5,2魏村东街外4【纯农排变】,1魏村北街内6,1魏村西街内2,清苑县电力局位村供电所,位村北街养殖厂,魏村中学变压器2,魏村小学变压器1,2王罗候外3【纯农排变】,2魏村南街外5【纯农排变】,保定市四合砼业有限公司,王罗候小学变压器,1王罗候内1,1魏村北街内3,1魏村西街内1,2王罗候外5【纯农排变】,2魏东街外3【纯农排变】,1魏村南街内8,2魏西街外4【纯农排变】,清苑县龙庆工艺品有限公司,1王罗侯内2,1魏村南街内1,2魏东街外1【纯农排变】,2魏村北街外9【纯农排变】,清苑县大位酒店,保定新日冶金轧辊有限公司,2魏村北街外8【纯农排变】,1王罗候内3,0609711215-保定益鑫精密件有限公司-专变-185570348-保定益鑫精密件有限公司,1魏村北街内2,2王罗候外4【纯农排变】,保定市嘉坤农业发展有限公司魏村分公司,2魏北街外4【纯农排变】,1魏村东街内6,0387504085-保定新星冶金轧辊有限公司-专变-127907873-保定新星冶金轧辊有限公司,2魏东街外5【纯农排变】,2魏北街外1【纯农排变】,1魏村南街内3,1王罗候内6,魏南街新日轧辊厂,清苑县魏村镇魏村小学,1魏村西街内7,王罗侯彦良塑料厂,魏村西街塑料厂,1魏村西街内3,2魏东街外2【纯农排变】,2魏村南街外4【纯农排变】,1魏村西街内4,2魏村北街外5【纯农排变】,0387504085-保定新星冶金轧辊有限公司-专变-45323908-保定新星冶金轧辊有限公司2,0387503981-保定新星冶金轧辊有限公司-专变-45323903-保定新星冶金轧辊有限公司4,保定市雪马纺织实业有限公司,1魏村北街内4,2魏西街外5【纯农排变】,河北阔达农业科技有限公司,2魏村南街外2【纯农排变】,位村西街小北村,保定自然元牧业,1魏村东街内2,魏村小学变压器2,魏村西街幼儿园变压器,1魏村北街内7,0387504186-保定益鑫精密件有限公司-专变-45323927-保定益鑫精密件有限公司,魏村中学变压器1,清苑县双龙养殖厂,2魏西街外1【纯农排变】,1魏村东街内1,2王罗候外7【纯农排变】,保定新星冶金轧辊有限公司1,2魏村南街外6【纯农排变】,魏村街杨老黑面粉厂,西街面粉厂,2魏村南街外3【纯农排变】,客户投资_1魏村乡政府,保定清苑古城制香有限公司2","scope":"【影响街道/乡镇】魏村镇 【高危重要客户】无 【影响客户】魏村东街村、魏村西街村、魏村南街村、魏村北街村、王罗侯、魏村乡政府","startTime":"2019-08-15 19:00:00","stopDate":"2019-08-16 01:40:00","orgNo":"1340618","typeCode":"电网故障停限电","poweroffArea":"【全线路停电】停魏村东街幼儿园变压器,2魏北街外2【纯农排变】,1魏村东街内4,2魏村南街外1【纯农排变】,2王罗候外6【纯农排变】,2魏西街外6【纯农排变】,2王罗候外2【纯农排变】,0387504304-中国联合网络通信有限公司清苑县分公司-专变-45324100-中国联合网络通信有限公司清苑县分公司,1魏村东街内3,2魏村北街外6【纯农排变】,1魏村北街内5,魏村中学变压器3,1魏村西街内6,|清苑县古城工艺制香厂,2魏北街外7【纯农排变】,保定市清苑区腾达生猪屠宰场,2魏村西街外3【纯农排变】,河北杰能电气设备有限公司,1王罗候内5,2王罗候外1【纯农排变】,清苑县顺兴塑料制品有限公司,2魏村南街外9【纯农排变】,1位村南街内10,保定益鑫精密件有限公司,1魏村东街内7,1魏村北街内1,1魏村东街内5,2魏村东街外4【纯农排变】,1魏村北街内6,1魏村西街内2,清苑县电力局位村供电所,位村北街养殖厂,魏村中学变压器2,魏村小学变压器1,2王罗候外3【纯农排变】,2魏村北街外9【纯农排变】,清苑县大位酒店,保定新日冶金轧辊有限公司,2魏村北街外8【纯农排变】,1王罗候内3,0609711215-保定益鑫精密件有限公司-专变-185570348-保定益鑫精密件有限公司,1魏村北街内2,2王罗候外4【纯农排变】,保定市嘉坤农业发展有限公司魏村分公司,2魏北街外4【纯农排变】,1魏村东街内6,0387504085-保定新星冶金轧辊有限公司-专变-127907873-保定新星冶金轧辊有限公司,2魏东街外5【纯农排变】,2魏北街外1【纯农排变】,1魏村南街内3,1王罗候内6,魏南街新日轧辊厂,清苑县魏村镇魏村小学,1魏村西街内7,王罗侯彦良塑料厂,魏村西街塑料厂,1魏村西街内3,2魏东街外2【纯农排变】,2魏村南街外4【纯农排变】,1魏村西街内4,2魏村北街外5【纯农排变】,0387504085-保定新星冶金轧辊有限公司-专变-45323908-保定新星冶金轧辊有限公司2,0387503981-保定新星冶金轧辊有限公司-专变-45323903-保定新星冶金轧辊有限公司4,保定市雪马纺织实业有限公司,1魏村北街内4,2魏西街外5【纯农排变】,河北阔达农业科技有限公司,2魏村南街外5【纯农排变】,保定市四合砼业有限公司,王罗候小学变压器,1王罗候内1,1魏村北街内3,1魏村西街内1,2王罗候外5【纯农排变】,2魏东街外3【纯农排变】,1魏村南街内8,2魏西街外4【纯农排变】,清苑县龙庆工艺品有限公司,1王罗侯内2,1魏村南街内1,2魏东街外1【纯农排变】,2魏村南街外2【纯农排变】,位村西街小北村,保定自然元牧业,1魏村东街内2,魏村小学变压器2,魏村西街幼儿园变压器,1魏村北街内7,0387504186-保定益鑫精密件有限公司-专变-45323927-保定益鑫精密件有限公司,魏村中学变压器1,清苑县双龙养殖厂,2魏西街外1【纯农排变】,1魏村东街内1,2王罗候外7【纯农排变】,保定新星冶金轧辊有限公司1,2魏村南街外6【纯农排变】,魏村街杨老黑面粉厂,西街面粉厂,2魏村南街外3【纯农排变】,客户投资_1魏村乡政府,保定清苑古城制香有限公司2,2魏北街外3【纯农排变】,1王罗候内4,西街砖厂小","poweroffReason":"【停电原因】由于主干８１号杆Ｔ２５号杆树砸线导致３５ＫＶ白团变电站１０ＫＶ位村线５１３线路全线停电 【变更送电】因抢修进度加快原因，送电时间由０６：００变更为０１：４０ 【发布渠道】通过９５５９８发布","powerTime":"2019-08-16 01:18:40","powerComm":"贺永健通知已送电","subsNo":"","lineNo":"","tgNo":"","tgName":null,"infoStatus":"1","orgName":"国网清苑县供电公司","typeName":null,"infoStatusName":null,"dateDay":null,"orgNos":null,"nowTime":null,"countyName":null,"streetName":null,"villageName":null,"roadName":null,"communityName":null,"tranName":null,"sdLineName":null,"cityCode":"1340618","cityName":"国网清苑县供电公司","provinceCode":null,"stopTime":"2019-08-16 01:40:00","powerType":"全部","powerOffArea":"【全线路停电】停魏村东街幼儿园变压器,2魏北街外2【纯农排变】,1魏村东街内4,2魏村南街外1【纯农排变】,2王罗候外6【纯农排变】,2魏西街外6【纯农排变】,2王罗候外2【纯农排变】,0387504304-中国联合网络通信有限公司清苑县分公司-专变-45324100-中国联合网络通信有限公司清苑县分公司,1魏村东街内3,2魏村北街外6【纯农排变】,1魏村北街内5,魏村中学变压器3,1魏村西街内6,|清苑县古城工艺制香厂,2魏北街外7【纯农排变】,保定市清苑区腾达生猪屠宰场,2魏村西街外3【纯农排变】,河北杰能电气设备有限公司,1王罗候内5,2王罗候外1【纯农排变】,清苑县顺兴塑料制品有限公司,2魏村南街外9【纯农排变】,1位村南街内10,保定益鑫精密件有限公司,1魏村东街内7,1魏村北街内1,1魏村东街内5,2魏村东街外4【纯农排变】,1魏村北街内6,1魏村西街内2,清苑县电力局位村供电所,位村北街养殖厂,魏村中学变压器2,魏村小学变压器1,2王罗候外3【纯农排变】,2魏村北街外9【纯农排变】,清苑县大位酒店,保定新日冶金轧辊有限公司,2魏村北街外8【纯农排变】,1王罗候内3,0609711215-保定益鑫精密件有限公司-专变-185570348-保定益鑫精密件有限公司,1魏村北街内2,2王罗候外4【纯农排变】,保定市嘉坤农业发展有限公司魏村分公司,2魏北街外4【纯农排变】,1魏村东街内6,0387504085-保定新星冶金轧辊有限公司-专变-127907873-保定新星冶金轧辊有限公司,2魏东街外5【纯农排变】,2魏北街外1【纯农排变】,1魏村南街内3,1王罗候内6,魏南街新日轧辊厂,清苑县魏村镇魏村小学,1魏村西街内7,王罗侯彦良塑料厂,魏村西街塑料厂,1魏村西街内3,2魏东街外2【纯农排变】,2魏村南街外4【纯农排变】,1魏村西街内4,2魏村北街外5【纯农排变】,0387504085-保定新星冶金轧辊有限公司-专变-45323908-保定新星冶金轧辊有限公司2,0387503981-保定新星冶金轧辊有限公司-专变-45323903-保定新星冶金轧辊有限公司4,保定市雪马纺织实业有限公司,1魏村北街内4,2魏西街外5【纯农排变】,河北阔达农业科技有限公司,2魏村南街外5【纯农排变】,保定市四合砼业有限公司,王罗候小学变压器,1王罗候内1,1魏村北街内3,1魏村西街内1,2王罗候外5【纯农排变】,2魏东街外3【纯农排变】,1魏村南街内8,2魏西街外4【纯农排变】,清苑县龙庆工艺品有限公司,1王罗侯内2,1魏村南街内1,2魏东街外1【纯农排变】,2魏村南街外2【纯农排变】,位村西街小北村,保定自然元牧业,1魏村东街内2,魏村小学变压器2,魏村西街幼儿园变压器,1魏村北街内7,0387504186-保定益鑫精密件有限公司-专变-45323927-保定益鑫精密件有限公司,魏村中学变压器1,清苑县双龙养殖厂,2魏西街外1【纯农排变】,1魏村东街内1,2王罗候外7【纯农排变】,保定新星冶金轧辊有限公司1,2魏村南街外6【纯农排变】,魏村街杨老黑面粉厂,西街面粉厂,2魏村南街外3【纯农排变】,客户投资_1魏村乡政府,保定清苑古城制香有限公司2,2魏北街外3【纯农排变】,1王罗候内4,西街砖厂小","powerOffReason":"【停电原因】由于主干８１号杆Ｔ２５号杆树砸线导致３５ＫＶ白团变电站１０ＫＶ位村线５１３线路全线停电 【变更送电】因抢修进度加快原因，送电时间由０６：００变更为０１：４０ 【发布渠道】通过９５５９８发布","powerOffId":"2019081513000299"},{"poweroffId":2019081513000294,"sgpoweroffId":null,"subsName":"","lineName":"10kV516台鱼线","pubTranName":"西柏山1750|24001750,东峪2340|24002340,宅子村西综合8336,台鱼西综合7838,龙堂西综合8345,宅子红领综合7834,龙堂北综合,宅子南综合2800,东峪1440|24001440,宅子村北综合8332,东峪南综合,龙堂1520|24001520,南台鱼西1350|24001350,南台鱼东1570|24001570,宅子市场综合8337,宅子村内1370|24001370,宅子南1号,东峪2630|24002630,南台鱼2510|24002510,","scope":"【影响街道/乡镇】台鱼乡【高危重要客户】无【影响客户】南台鱼、宅子、东峪、龙堂、西柏山","startTime":"2019-08-15 18:39:44","stopDate":"2019-08-15 20:00:00","orgNo":"1340621","typeCode":"电网故障停限电","poweroffArea":"【全线路停电】停宅子市场综合8337,宅子村内1370|24001370,宅子南1号,东峪2630|24002630,南台鱼2510|24002510,西柏山1750|24001750,东峪2340|24002340,宅子村西综合8336,台鱼西综合7838,龙堂西综合8345,宅子红领综合7834,龙堂北综合,宅子南综合2800,东峪1440|24001440,宅子村北综合8332,东峪南综合,龙堂1520|24001520,南台鱼西1350|24001350,南台鱼东1570|24001570","poweroffReason":"【停电原因】由于风雨天气造成０号杆Ｂ相线尖烧断导致３５ＫＶ安阳变电站１０ＫＶ５１６台鱼线路全线停电【变更送电】因抢修进度加快原因，送电时间由１６日１０：００变更为１５日２０：００【发布渠道】通过９５５９８发布","powerTime":"2019-08-15 19:23:43","powerComm":"已送电","subsNo":"","lineNo":"","tgNo":"","tgName":null,"infoStatus":"1","orgName":"国网顺平县电力局","typeName":null,"infoStatusName":null,"dateDay":null,"orgNos":null,"nowTime":null,"countyName":null,"streetName":null,"villageName":null,"roadName":null,"communityName":null,"tranName":null,"sdLineName":null,"cityCode":"1340621","cityName":"国网顺平县电力局","provinceCode":null,"stopTime":"2019-08-15 20:00:00","powerType":"全部","powerOffArea":"【全线路停电】停宅子市场综合8337,宅子村内1370|24001370,宅子南1号,东峪2630|24002630,南台鱼2510|24002510,西柏山1750|24001750,东峪2340|24002340,宅子村西综合8336,台鱼西综合7838,龙堂西综合8345,宅子红领综合7834,龙堂北综合,宅子南综合2800,东峪1440|24001440,宅子村北综合8332,东峪南综合,龙堂1520|24001520,南台鱼西1350|24001350,南台鱼东1570|24001570","powerOffReason":"【停电原因】由于风雨天气造成０号杆Ｂ相线尖烧断导致３５ＫＶ安阳变电站１０ＫＶ５１６台鱼线路全线停电【变更送电】因抢修进度加快原因，送电时间由１６日１０：００变更为１５日２０：００【发布渠道】通过９５５９８发布","powerOffId":"2019081513000294"}],"pageModel":{"pageNow":653,"totalCount":10973,"totalPage":1098,"tableRows":0,"pageCount":10,"beginCount":6520},"isExperi":"1"}