{"message":"","today":"2020-06-15","seleList":[{"poweroffId":2020052513000131,"sgpoweroffId":null,"subsName":"","lineName":"10kV东开区线589","pubTranName":"南沟头内3,南辛庄内3,北辛庄内4,北辛庄内1,南沟头内5台区,南辛庄内2,北辛庄内3,南沟头内2,北辛庄内5,南辛庄内4,南沟头内4台区,恋日名城小区1,南沟头内6,南辛庄内6,1南辛庄内5,北辛庄内2,北辛庄外1,北辛庄内6,南沟头内1,南辛庄内1,恋日名城小区2,北辛庄内7,","scope":"【影响街道/乡镇】五尧乡 【高危重要客户】无 【影响客户】北辛庄、南沟头、安庄、南辛庄、正大纺织、保沧高速、恋日名城小区","startTime":"2020-06-03 01:30:00","stopDate":"2020-06-03 18:00:00","orgNo":"1340618","typeCode":"计划停电","poweroffArea":"【全线路停电】停110kV赵庄变电站10kV东开区线589线路全线，南沟头外12【纯农排变】,保沧高速公路有限公司,安庄外7,北辛庄外1,斑连义煤厂,保定市南市区相约网吧,南沟头外6,南沟头外2【纯农排变】,北辛庄内6,南沟头内1,中建路桥集团有限公司,南沟头外3【纯农排变】,保定市公路管理局,南辛庄内1,恋日名城小区2,保定市广跃达轻钢彩板制造有限公司,安庄外6【纯农排变】,南沟头外11,保定市冀兴机电五交化采购供应处,中建路桥集团有限公司01,保定市莲池区先锋幼儿园,南沟头外8【纯农排变】,北辛庄内7,南沟头班耀宗,建筑机械厂,安庄外8,北沟头村委会,南辛庄内4,南沟头内4台区,恋日名城小区1,南辛庄2,南辛庄1,南沟头内6,0387482257-安庄欧庆新-专变-45310784-安庄斑耀宗,南辛庄内6,北辛庄内5,0593466085-大唐清苑热电有限公司-专变-125860295-大唐清苑热电有限公司,保定市南市区清真军威食品厂,南沟头内3,冠华汽车配件厂,安庄外5【纯农排变】,南沟头杨卫军,保定市清苑正大纺织有限公司,消防特警大队,保定市南市区五尧乡安庄永兴奶农专业合作社,南沟头外5【纯农排变】,南辛庄内3,南辛庄泡沫厂,南沟头外7台区,北辛庄内4,北辛庄内1,北辛庄内2,南沟头内5台区,南沟头外4【纯农排变】,南辛庄内2,北辛庄内3,南新庄面粉厂,南沟头内2,0607969508-保定市卓思恒畅电器有限公司-专变-127487524-保定市卓思恒畅电器有限公司,1南辛庄内5,0575120963-保定市广跃达轻钢彩板制造有限公司-专变-123923423-保定市广跃达轻钢彩板制造有限公司,南沟头外9【纯农排变】","poweroffReason":"【停电原因】由于线路切改导致１１０ＫＶ赵庄变电站１０ＫＶ东开区线５８９线路全线停电 【变更送电】无 【发布渠道】保定市清苑区电视台（２０２０年０５月２６日１９时至２０２０年０６月０２日２０时之间）屏幕上方滚动","powerTime":"2020-06-03 17:52:04","powerComm":"王素通知已送电","subsNo":"","lineNo":"","tgNo":"","tgName":null,"infoStatus":"1","orgName":"国网清苑县供电公司","typeName":null,"infoStatusName":null,"dateDay":null,"orgNos":null,"nowTime":null,"countyName":null,"streetName":null,"villageName":null,"roadName":null,"communityName":null,"tranName":null,"sdLineName":null,"cityCode":"1340618","cityName":"国网清苑县供电公司","provinceCode":null,"stopTime":"2020-06-03 18:00:00","powerType":"全部","powerOffArea":"【全线路停电】停110kV赵庄变电站10kV东开区线589线路全线，南沟头外12【纯农排变】,保沧高速公路有限公司,安庄外7,北辛庄外1,斑连义煤厂,保定市南市区相约网吧,南沟头外6,南沟头外2【纯农排变】,北辛庄内6,南沟头内1,中建路桥集团有限公司,南沟头外3【纯农排变】,保定市公路管理局,南辛庄内1,恋日名城小区2,保定市广跃达轻钢彩板制造有限公司,安庄外6【纯农排变】,南沟头外11,保定市冀兴机电五交化采购供应处,中建路桥集团有限公司01,保定市莲池区先锋幼儿园,南沟头外8【纯农排变】,北辛庄内7,南沟头班耀宗,建筑机械厂,安庄外8,北沟头村委会,南辛庄内4,南沟头内4台区,恋日名城小区1,南辛庄2,南辛庄1,南沟头内6,0387482257-安庄欧庆新-专变-45310784-安庄斑耀宗,南辛庄内6,北辛庄内5,0593466085-大唐清苑热电有限公司-专变-125860295-大唐清苑热电有限公司,保定市南市区清真军威食品厂,南沟头内3,冠华汽车配件厂,安庄外5【纯农排变】,南沟头杨卫军,保定市清苑正大纺织有限公司,消防特警大队,保定市南市区五尧乡安庄永兴奶农专业合作社,南沟头外5【纯农排变】,南辛庄内3,南辛庄泡沫厂,南沟头外7台区,北辛庄内4,北辛庄内1,北辛庄内2,南沟头内5台区,南沟头外4【纯农排变】,南辛庄内2,北辛庄内3,南新庄面粉厂,南沟头内2,0607969508-保定市卓思恒畅电器有限公司-专变-127487524-保定市卓思恒畅电器有限公司,1南辛庄内5,0575120963-保定市广跃达轻钢彩板制造有限公司-专变-123923423-保定市广跃达轻钢彩板制造有限公司,南沟头外9【纯农排变】","powerOffReason":"【停电原因】由于线路切改导致１１０ＫＶ赵庄变电站１０ＫＶ东开区线５８９线路全线停电 【变更送电】无 【发布渠道】保定市清苑区电视台（２０２０年０５月２６日１９时至２０２０年０６月０２日２０时之间）屏幕上方滚动","powerOffId":"2020052513000131"},{"poweroffId":2020052513000124,"sgpoweroffId":null,"subsName":"","lineName":"兴胜579","pubTranName":"许庄东2,","scope":"【影响街道/乡镇】白沟镇、兴盛大街、滨水路 【高危重要客户】无 【影响客户】许庄村、许庄安置区、金孔雀小区、秀水鼎居小区、丽都公寓小区、河道国际电商产业园、消防中队、培京小学、金利达、富尊工业园、魅力金座、鑫天鹏、肖铁扣、贸正劳保用品有限公司、天德检测站、马德群、圣大蒂诺、许宝军、赵建辉、付玉、李玉亮","startTime":"2020-06-02 06:00:00","stopDate":"2020-06-02 18:00:00","orgNo":"1340612","typeCode":"临时停电","poweroffArea":"【全线路停电】停变压器,变压器8,工业园区路灯2-1,变压器6,变压器3,保定弘图白沟垃圾综合处理厂,保定白沟新城规划建设局(团结路路灯)变压器,金利达革塑有限公司变压器,许庄变电站,白沟新城味蜀吾火锅店变压器,鹏鼎变压器,天鹏4,变压器7,0675891037-保定白沟新城培京小学-专变-216214618-变压器,保定白沟新城鑫傲峰箱包厂,顾翠平,圣大蒂诺皮具厂变台,李玉亮,高碑店市鸿鹏箱包有限公司变压器,丽都变压器,白沟新城规划建设局五一路3号路灯,保定博成箱包制造有限公司变压器,天鹏5,保定白沟新城隆盈星肉食加工厂,赵建辉2变压器,变压器5,鑫亿顺达箱包变压器,保定互赢物业服务有限责任公司,保定白沟长盛客运有限责任公司,变压器2,贸正变压器,张建明（白沟自来水厂）,许庄东2,变压器4,丽都公寓,保定白沟太强五金压铸有限公司,变压器1,马德群","poweroffReason":"【停电原因】由于换杆、换线、负荷切改导致１１０ＫＶ南留变电站１０ＫＶ兴胜５７９线路全线停电 【变更送电】无 【发布渠道】高碑店市高碑店电视台（０５月２６日０８时至０６月０１日１８时之间）屏幕上方滚动","powerTime":"2020-06-02 17:54:46","powerComm":"已送电","subsNo":"","lineNo":"","tgNo":"","tgName":null,"infoStatus":"1","orgName":"国网高碑店市供电公司","typeName":null,"infoStatusName":null,"dateDay":null,"orgNos":null,"nowTime":null,"countyName":null,"streetName":null,"villageName":null,"roadName":null,"communityName":null,"tranName":null,"sdLineName":null,"cityCode":"1340612","cityName":"国网高碑店市供电公司","provinceCode":null,"stopTime":"2020-06-02 18:00:00","powerType":"全部","powerOffArea":"【全线路停电】停变压器,变压器8,工业园区路灯2-1,变压器6,变压器3,保定弘图白沟垃圾综合处理厂,保定白沟新城规划建设局(团结路路灯)变压器,金利达革塑有限公司变压器,许庄变电站,白沟新城味蜀吾火锅店变压器,鹏鼎变压器,天鹏4,变压器7,0675891037-保定白沟新城培京小学-专变-216214618-变压器,保定白沟新城鑫傲峰箱包厂,顾翠平,圣大蒂诺皮具厂变台,李玉亮,高碑店市鸿鹏箱包有限公司变压器,丽都变压器,白沟新城规划建设局五一路3号路灯,保定博成箱包制造有限公司变压器,天鹏5,保定白沟新城隆盈星肉食加工厂,赵建辉2变压器,变压器5,鑫亿顺达箱包变压器,保定互赢物业服务有限责任公司,保定白沟长盛客运有限责任公司,变压器2,贸正变压器,张建明（白沟自来水厂）,许庄东2,变压器4,丽都公寓,保定白沟太强五金压铸有限公司,变压器1,马德群","powerOffReason":"【停电原因】由于换杆、换线、负荷切改导致１１０ＫＶ南留变电站１０ＫＶ兴胜５７９线路全线停电 【变更送电】无 【发布渠道】高碑店市高碑店电视台（０５月２６日０８时至０６月０１日１８时之间）屏幕上方滚动","powerOffId":"2020052513000124"},{"poweroffId":2020052513000119,"sgpoweroffId":null,"subsName":"","lineName":"备用571","pubTranName":"许庄西2,许庄东,许庄北2,许庄西,许庄中,许庄北,","scope":"【影响街道/乡镇】白沟镇、兴盛大街、团结东路 【高危重要客户】名典苑小区 【影响客户】工业园区、互赢物业、中国建设银行保定分行、白沟成正物业、陈建坤、张建坡、保定森腾皮具制造有限公司、李永旺、魏双喜、王秋生、张洪良、张慧、力皇胶带厂","startTime":"2020-06-02 06:00:00","stopDate":"2020-06-02 18:00:00","orgNo":"1340612","typeCode":"临时停电","poweroffArea":"【全线路停电】停鹏润名典苑2,许庄安置区3-2变压器,规划建设局（兴胜街路灯）变压器,张建坡变压器,0628815404-保定润和房地产开发有限公司中天鞋城-专变-141336151-变压器,许庄北,许庄东,鹏润名典苑1,许庄北2,许庄西,工业园区路灯3-3,许庄安置区3-1变压器,许庄安置区2变压器,0552299974-高碑店市白沟镇许庄村(许庄安置小区)-专变-50703846-高碑店市白沟镇许庄村（许庄安置小区）变压器,河北鹏润房地产开发有限公司（美墅家）变压器,变压器-040,保定富地城房地产开发有限公司,变压器500,许庄中,保定白沟新城博炎箱包配件加工厂,天棚500,变压器-041,变压器400,许庄安置区4变压器,张洪良,保定白沟联兴塑料批发行变压器,许庄西2,保定白沟新城中茂箱包配件加工厂变压器","poweroffReason":"【停电原因】由于换杆、换线、负荷切改导致１１０ＫＶ南留变电站１０ＫＶ备用５７１线路全线停电 【变更送电】无 【发布渠道】高碑店市高碑店电视台（０５月２６日０８时至０６月０１日１８时之间）屏幕上方滚动","powerTime":"2020-06-02 17:55:26","powerComm":"已送电","subsNo":"","lineNo":"","tgNo":"","tgName":null,"infoStatus":"1","orgName":"国网高碑店市供电公司","typeName":null,"infoStatusName":null,"dateDay":null,"orgNos":null,"nowTime":null,"countyName":null,"streetName":null,"villageName":null,"roadName":null,"communityName":null,"tranName":null,"sdLineName":null,"cityCode":"1340612","cityName":"国网高碑店市供电公司","provinceCode":null,"stopTime":"2020-06-02 18:00:00","powerType":"全部","powerOffArea":"【全线路停电】停鹏润名典苑2,许庄安置区3-2变压器,规划建设局（兴胜街路灯）变压器,张建坡变压器,0628815404-保定润和房地产开发有限公司中天鞋城-专变-141336151-变压器,许庄北,许庄东,鹏润名典苑1,许庄北2,许庄西,工业园区路灯3-3,许庄安置区3-1变压器,许庄安置区2变压器,0552299974-高碑店市白沟镇许庄村(许庄安置小区)-专变-50703846-高碑店市白沟镇许庄村（许庄安置小区）变压器,河北鹏润房地产开发有限公司（美墅家）变压器,变压器-040,保定富地城房地产开发有限公司,变压器500,许庄中,保定白沟新城博炎箱包配件加工厂,天棚500,变压器-041,变压器400,许庄安置区4变压器,张洪良,保定白沟联兴塑料批发行变压器,许庄西2,保定白沟新城中茂箱包配件加工厂变压器","powerOffReason":"【停电原因】由于换杆、换线、负荷切改导致１１０ＫＶ南留变电站１０ＫＶ备用５７１线路全线停电 【变更送电】无 【发布渠道】高碑店市高碑店电视台（０５月２６日０８时至０６月０１日１８时之间）屏幕上方滚动","powerOffId":"2020052513000119"},{"poweroffId":2020052513000108,"sgpoweroffId":null,"subsName":"","lineName":"10kV518大洋厂线","pubTranName":"西丹农排3台区【纯农排变】,南丹农排4台区【纯农排变】,南丹农排1台区【纯农排变】,南丹农排2台区【纯农排变】,南丹农排5台区【纯农排变】,南丹农排3台区【纯农排变】,西丹农排4台区【纯农排变】,","scope":"【影响街道/乡镇】北郭丹镇【高危重要客户】无【影响客户】南丹农排、大洋食品有限公司","startTime":"2020-06-03 06:00:00","stopDate":"2020-06-03 20:00:00","orgNo":"1340616","typeCode":"计划停电","poweroffArea":"【全线路停电】停３５ＫＶ郭丹变电站１０ＫＶ大洋厂５１８线路全线，南丹农排2台区【纯农排变】,南丹农排5台区【纯农排变】,大洋食品有限公司,西丹农排3台区【纯农排变】,南丹农排3台区【纯农排变】,蠡县和禄汽车检测有限公司,西丹农排4台区【纯农排变】,永胜开花,南丹农排4台区【纯农排变】,西丹浇地,南丹农排1台区【纯农排变】,蠡县精准机械制造厂变压器,紫微山造药厂,蠡县武营农机服务专业合作社,西丹浇地2,永腾洗毛厂","poweroffReason":"【停电原因】由于３５ＫＶ刘郭线３１３线路检修导致３５ＫＶ郭丹变电站１０ＫＶ大洋厂５１８线路全线停电【变更送电】无【发布渠道】河北省保定市蠡县电视台（２０２０年０５月２５日至２０２０年０６月０２日２０：００至２２：００之间）屏幕上方滚动","powerTime":"2020-06-03 15:07:20","powerComm":"已送电","subsNo":"","lineNo":"","tgNo":"","tgName":null,"infoStatus":"1","orgName":"国网蠡县供电公司","typeName":null,"infoStatusName":null,"dateDay":null,"orgNos":null,"nowTime":null,"countyName":null,"streetName":null,"villageName":null,"roadName":null,"communityName":null,"tranName":null,"sdLineName":null,"cityCode":"1340616","cityName":"国网蠡县供电公司","provinceCode":null,"stopTime":"2020-06-03 20:00:00","powerType":"全部","powerOffArea":"【全线路停电】停３５ＫＶ郭丹变电站１０ＫＶ大洋厂５１８线路全线，南丹农排2台区【纯农排变】,南丹农排5台区【纯农排变】,大洋食品有限公司,西丹农排3台区【纯农排变】,南丹农排3台区【纯农排变】,蠡县和禄汽车检测有限公司,西丹农排4台区【纯农排变】,永胜开花,南丹农排4台区【纯农排变】,西丹浇地,南丹农排1台区【纯农排变】,蠡县精准机械制造厂变压器,紫微山造药厂,蠡县武营农机服务专业合作社,西丹浇地2,永腾洗毛厂","powerOffReason":"【停电原因】由于３５ＫＶ刘郭线３１３线路检修导致３５ＫＶ郭丹变电站１０ＫＶ大洋厂５１８线路全线停电【变更送电】无【发布渠道】河北省保定市蠡县电视台（２０２０年０５月２５日至２０２０年０６月０２日２０：００至２２：００之间）屏幕上方滚动","powerOffId":"2020052513000108"},{"poweroffId":2020052513000107,"sgpoweroffId":null,"subsName":"","lineName":"10kV516南郭丹线","pubTranName":"西丹农排1台区【纯农排变】,西丹综合1台区,西丹综合4台区,南丹综合6台区,西丹综合3台区,南丹综合5台区,南丹综合7台区,东丹综合5台区,西丹综合5台区,东丹农排2台区【纯农排变】,东丹综合6台区,东丹综合2台区,南丹农排6台区【纯农排变】,南丹综合4台区,西丹综合6台区,大洋农排8台区【纯农排变】,南丹综合1台区,南丹综合2台区,东丹综合8台区,南丹综合3台区,西丹综合2台区,东丹综合4台区,东丹综合7台区,东丹综合9台区,东丹综合3台区,西丹农排5台区【纯农排变】,东丹综合1台区,","scope":"【影响街道/乡镇】北郭丹镇【高危重要客户】无【影响客户】东郭丹村、南郭丹村、西郭丹村","startTime":"2020-06-03 06:00:00","stopDate":"2020-06-03 16:00:00","orgNo":"1340616","typeCode":"计划停电","poweroffArea":"【全线路停电】停３５ＫＶ郭丹变电站１０ＫＶ南郭丹５１６线路全线，建秋厂,蠡县东丹第二毛纺厂,东丹综合8台区,东丹综合4台区,南丹综合1台区,东丹综合9台区,蠡县杰欣毛纺厂,西丹农排1台区【纯农排变】,东丹第二毛纺织厂200变压器,西丹综合1台区,东丹综合5台区,南丹综合5台区,蠡县朝庆纤维加工厂,中国移动通信集团河北有限公司蠡县分公司,南丹综合4台区,蠡县东丹第二纺织厂变压器,大洋农排8台区【纯农排变】,东丹综合3台区,西丹综合4台区,南丹综合2台区,东丹农排1台区【纯农排变】,东丹综合1台区,南丹综合6台区,南丹综合3台区,西丹综合2台区,西丹综合5台区,蠡县绿源科技养殖有限公司,东丹农排2台区【纯农排变】,西丹浇地,东丹第二毛纺厂,东丹第一毛纺厂,东丹综合6台区,东丹浇地2,东丹综合2台区,保定金若兰皮具有限公司,西丹综合3台区,西丹农排5台区【纯农排变】,东丹综合7台区,东丹史大通,？县旭日毛呢纺织厂,西丹综合6台区,南丹综合7台区,南丹农排6台区【纯农排变】,西丹浇地2","poweroffReason":"【停电原因】由于３５ＫＶ刘郭线３１３线路检修导致３５ＫＶ郭丹变电站１０ＫＶ南郭丹５１６线路全线停电【变更送电】因工作进度加快原因，送电时间由２０：００变更为１６：００【发布渠道】蠡县电视台（０５月２５日至０６月０２日２０：００至２２：００之间）","powerTime":"2020-06-03 15:52:06","powerComm":"已送电","subsNo":"","lineNo":"","tgNo":"","tgName":null,"infoStatus":"1","orgName":"国网蠡县供电公司","typeName":null,"infoStatusName":null,"dateDay":null,"orgNos":null,"nowTime":null,"countyName":null,"streetName":null,"villageName":null,"roadName":null,"communityName":null,"tranName":null,"sdLineName":null,"cityCode":"1340616","cityName":"国网蠡县供电公司","provinceCode":null,"stopTime":"2020-06-03 16:00:00","powerType":"全部","powerOffArea":"【全线路停电】停３５ＫＶ郭丹变电站１０ＫＶ南郭丹５１６线路全线，建秋厂,蠡县东丹第二毛纺厂,东丹综合8台区,东丹综合4台区,南丹综合1台区,东丹综合9台区,蠡县杰欣毛纺厂,西丹农排1台区【纯农排变】,东丹第二毛纺织厂200变压器,西丹综合1台区,东丹综合5台区,南丹综合5台区,蠡县朝庆纤维加工厂,中国移动通信集团河北有限公司蠡县分公司,南丹综合4台区,蠡县东丹第二纺织厂变压器,大洋农排8台区【纯农排变】,东丹综合3台区,西丹综合4台区,南丹综合2台区,东丹农排1台区【纯农排变】,东丹综合1台区,南丹综合6台区,南丹综合3台区,西丹综合2台区,西丹综合5台区,蠡县绿源科技养殖有限公司,东丹农排2台区【纯农排变】,西丹浇地,东丹第二毛纺厂,东丹第一毛纺厂,东丹综合6台区,东丹浇地2,东丹综合2台区,保定金若兰皮具有限公司,西丹综合3台区,西丹农排5台区【纯农排变】,东丹综合7台区,东丹史大通,？县旭日毛呢纺织厂,西丹综合6台区,南丹综合7台区,南丹农排6台区【纯农排变】,西丹浇地2","powerOffReason":"【停电原因】由于３５ＫＶ刘郭线３１３线路检修导致３５ＫＶ郭丹变电站１０ＫＶ南郭丹５１６线路全线停电【变更送电】因工作进度加快原因，送电时间由２０：００变更为１６：００【发布渠道】蠡县电视台（０５月２５日至０６月０２日２０：００至２２：００之间）","powerOffId":"2020052513000107"},{"poweroffId":2020052513000104,"sgpoweroffId":null,"subsName":"","lineName":"10kV515美林线","pubTranName":"0469440209-保定海欣长毛绒有限公司-专变-78660830-保定海欣长毛绒有限公司100-2,","scope":"【影响街道/乡镇】北郭丹镇【高危重要客户】无【影响客户】保定海欣长毛绒有限公司","startTime":"2020-06-03 06:00:00","stopDate":"2020-06-03 16:00:00","orgNo":"1340616","typeCode":"计划停电","poweroffArea":"【全线路停电】停３５ＫＶ郭丹变电站１０ＫＶ美林５１５线路全线，0469440209-保定海欣长毛绒有限公司-专变-78660830-保定海欣长毛绒有限公司100-2,0469440209-保定海欣长毛绒有限公司-专变-78630965-保定海欣长毛绒有限公司变压器,0469440209-保定海欣长毛绒有限公司-专变-47629011-保定海欣长毛绒有限公司200,0469440209-保定海欣长毛绒有限公司-专变-46810936-保定海欣长毛绒有限公司400,0469440209-保定海欣长毛绒有限公司-专变-78630890-保定海欣长毛绒有限公司100,0469440209-保定海欣长毛绒有限公司-专变-132649651-保定海欣长毛绒有限公司800","poweroffReason":"【停电原因】由于３５ＫＶ刘郭线３１３线路检修导致３５ＫＶ郭丹变电站１０ＫＶ美林５１５线路全线停电【变更送电】因抢修进度加快原因，送电时间由２０：００变更为１６：００【发布渠道】蠡县电视台（０５月２５日至０６月０２日２０：００至２２：００之间）","powerTime":"2020-06-03 15:21:47","powerComm":"已送电","subsNo":"","lineNo":"","tgNo":"","tgName":null,"infoStatus":"1","orgName":"国网蠡县供电公司","typeName":null,"infoStatusName":null,"dateDay":null,"orgNos":null,"nowTime":null,"countyName":null,"streetName":null,"villageName":null,"roadName":null,"communityName":null,"tranName":null,"sdLineName":null,"cityCode":"1340616","cityName":"国网蠡县供电公司","provinceCode":null,"stopTime":"2020-06-03 16:00:00","powerType":"全部","powerOffArea":"【全线路停电】停３５ＫＶ郭丹变电站１０ＫＶ美林５１５线路全线，0469440209-保定海欣长毛绒有限公司-专变-78660830-保定海欣长毛绒有限公司100-2,0469440209-保定海欣长毛绒有限公司-专变-78630965-保定海欣长毛绒有限公司变压器,0469440209-保定海欣长毛绒有限公司-专变-47629011-保定海欣长毛绒有限公司200,0469440209-保定海欣长毛绒有限公司-专变-46810936-保定海欣长毛绒有限公司400,0469440209-保定海欣长毛绒有限公司-专变-78630890-保定海欣长毛绒有限公司100,0469440209-保定海欣长毛绒有限公司-专变-132649651-保定海欣长毛绒有限公司800","powerOffReason":"【停电原因】由于３５ＫＶ刘郭线３１３线路检修导致３５ＫＶ郭丹变电站１０ＫＶ美林５１５线路全线停电【变更送电】因抢修进度加快原因，送电时间由２０：００变更为１６：００【发布渠道】蠡县电视台（０５月２５日至０６月０２日２０：００至２２：００之间）","powerOffId":"2020052513000104"},{"poweroffId":2020052513000100,"sgpoweroffId":null,"subsName":"","lineName":"10kV514北郭丹线","pubTranName":"北丹综合20台区,北丹农排5台区【纯农排变】,北丹综合21台区,北丹综合1台区,祁口农排2台区,北丹综合28台区,北丹综合18台区,大洋农排1台区【纯农排变】,北丹综合30台区,北丹综合29台区,北丹综合19台区,大洋农排15台区【纯农排变】,大洋农排20台区【纯农排变】,北丹农排6台区【纯农排变】,大洋农排9台区【纯农排变】,大洋农排7台区【纯农排变】,北丹农排4台区【纯农排变】,大洋农排18台区【纯农排变】,北丹综合17台区,大洋农排4台区【纯农排变】,北丹综合11台区,大洋农排27台区【纯农排变】,北丹综合25台区,北丹综合10台区,北丹综合32台区,大洋农排5台区【纯农排变】,北丹综合23台区,大洋农排23台区【纯农排变】,北丹综合6台区,北丹综合4台区,北丹综合15台区,北丹综合7台区,北丹综合27台区,北丹综合13台区,大洋农排10台区【纯农排变】,北丹综合22台区,北丹综合2台区,北丹农排2台区【纯农排变】,北丹综合33台区,北丹综合12台区,北丹农排3台区【纯农排变】,北丹综合16台区,大洋农排13台区【纯农排变】,大洋农排26台区【纯农排变】,大洋农排6台区【纯农排变】,北丹综合9台区,大洋农排19台区【纯农排变】,北丹综合26台区,北丹综合31台区,北丹综合5台区,大洋农排17台区【纯农排变】,北丹综合24台区,北丹农排8台区【纯农排变】,北丹综合14台区,北丹综合3台区,高蠡公路1号路灯,大洋农排21台区【纯农排变】,大洋农排12台区【纯农排变】,北丹综合8台区,","scope":"【影响街道/乡镇】北郭丹【高危重要客户】无【影响客户】北郭丹村、大洋","startTime":"2020-06-03 06:00:00","stopDate":"2020-06-03 16:00:00","orgNo":"1340616","typeCode":"计划停电","poweroffArea":"【全线路停电】停３５ＫＶ郭丹变电站１０ＫＶ北郭丹５１４线路全线，农田示范基地变压器,北丹综合4台区,大洋农排2台区【纯农排变】,大洋农排10台区【纯农排变】,北丹综合22台区,小辉浇地,北丹综合2台区,北丹农排2台区【纯农排变】,大洋农排27台区【纯农排变】,大洋农排22台区【纯农排变】,北丹综合25台区,北丹综合10台区,河北鸿飞纺织有限公司,大洋农排23台区【纯农排变】,北丹综合6台区,大洋农排12台区【纯农排变】,维佳纺织股份有限公司,蠡县宇祥纺织品制造有限公司变压器,北丹综合8台区,北丹综合20台区,油田北井,北丹北二砖厂,北丹农排5台区【纯农排变】,北丹综合1台区,北丹综合14台区,海龙纺织有限公司,养牛场2,河北永诚食用菌科技有限公司变压器,蠡县祁口世佳面粉厂,北丹综合12台区,北丹农排3台区【纯农排变】,小年开花厂,北丹农排1台区【纯农排变】,北丹综合16台区,北丹村里水井,大洋农排26台区【纯农排变】,大洋农排25台区【纯农排变】,养牛场,大洋农排6台区【纯农排变】,北丹综合9台区,大洋农排19台区【纯农排变】,北丹综合26台区,北丹综合31台区,高蠡獒园,0693489654-蠡县朝庆纤维加工厂-专变-237548034-蠡县朝庆纤维加工厂变压器,北丹综合5台区,大洋农排17台区【纯农排变】,北丹综合24台区,北丹农排8台区【纯农排变】,北丹综合29台区,北丹综合3台区,高蠡公路1号路灯,永贤毛绒厂,满红棉织厂变压器,大洋农排11台区【纯农排变】,大洋农排21台区【纯农排变】,大洋农排15台区【纯农排变】,大洋农排20台区【纯农排变】,大洋农排3台区【纯农排变】,北丹新世纪,立永浇地,北丹综合32台区,大洋农排5台区【纯农排变】,邮电局,北丹综合23台区,林业综合养殖场,大洋农排13台区【纯农排变】,北丹综合19台区,养牛场3,北丹综合21台区,北丹综合15台区,北丹综合7台区,北丹综合27台区,北丹综合13台区,辰刚梳绒厂,北丹农排6台区【纯农排变】,大洋农排9台区【纯农排变】,蠡县信德纺织厂变压器,大洋农排7台区【纯农排变】,北丹农排4台区【纯农排变】,北丹林业养殖场,大洋农排18台区【纯农排变】,北丹综合17台区,大洋农排24台区【纯农排变】,大洋农排16台区【纯农排变】,大洋农排14台区【纯农排变】,大洋农排4台区【纯农排变】,中国石油天然气股份有限公司华北油田分公司,北丹综合11台区,北丹综合30台区,北丹综合18台区,三源厂,宝生养殖场,蠡县天成包装材料制造有限公司变压器,蠡县鑫玲纺织有限公司,蠡县惠丰家园小,0578712972-河北永诚食用菌科技有限公司-专变-124356024-河北永诚食用菌科技有限公司变压器,大洋农排1台区【纯农排变】,满红棉织厂变压器200,中国石油天然气股份有限公司华北油田分公司变压器,北丹综合33台区,祁口农排2台区,北丹综合28台区","poweroffReason":"【停电原因】由于３５ＫＶ刘郭线３１３线路检修导致３５ＫＶ郭丹变电站１０ＫＶ北郭丹５１４线路全线停电【变更送电】因抢修进度加快原因，送电时间由２０：００变更为１６：００【发布渠道】蠡县电视台（０５月２５日至０６月０２日２０：００至２２：００之间）","powerTime":"2020-06-03 15:22:04","powerComm":"已送电","subsNo":"","lineNo":"","tgNo":"","tgName":null,"infoStatus":"1","orgName":"国网蠡县供电公司","typeName":null,"infoStatusName":null,"dateDay":null,"orgNos":null,"nowTime":null,"countyName":null,"streetName":null,"villageName":null,"roadName":null,"communityName":null,"tranName":null,"sdLineName":null,"cityCode":"1340616","cityName":"国网蠡县供电公司","provinceCode":null,"stopTime":"2020-06-03 16:00:00","powerType":"全部","powerOffArea":"【全线路停电】停３５ＫＶ郭丹变电站１０ＫＶ北郭丹５１４线路全线，农田示范基地变压器,北丹综合4台区,大洋农排2台区【纯农排变】,大洋农排10台区【纯农排变】,北丹综合22台区,小辉浇地,北丹综合2台区,北丹农排2台区【纯农排变】,大洋农排27台区【纯农排变】,大洋农排22台区【纯农排变】,北丹综合25台区,北丹综合10台区,河北鸿飞纺织有限公司,大洋农排23台区【纯农排变】,北丹综合6台区,大洋农排12台区【纯农排变】,维佳纺织股份有限公司,蠡县宇祥纺织品制造有限公司变压器,北丹综合8台区,北丹综合20台区,油田北井,北丹北二砖厂,北丹农排5台区【纯农排变】,北丹综合1台区,北丹综合14台区,海龙纺织有限公司,养牛场2,河北永诚食用菌科技有限公司变压器,蠡县祁口世佳面粉厂,北丹综合12台区,北丹农排3台区【纯农排变】,小年开花厂,北丹农排1台区【纯农排变】,北丹综合16台区,北丹村里水井,大洋农排26台区【纯农排变】,大洋农排25台区【纯农排变】,养牛场,大洋农排6台区【纯农排变】,北丹综合9台区,大洋农排19台区【纯农排变】,北丹综合26台区,北丹综合31台区,高蠡獒园,0693489654-蠡县朝庆纤维加工厂-专变-237548034-蠡县朝庆纤维加工厂变压器,北丹综合5台区,大洋农排17台区【纯农排变】,北丹综合24台区,北丹农排8台区【纯农排变】,北丹综合29台区,北丹综合3台区,高蠡公路1号路灯,永贤毛绒厂,满红棉织厂变压器,大洋农排11台区【纯农排变】,大洋农排21台区【纯农排变】,大洋农排15台区【纯农排变】,大洋农排20台区【纯农排变】,大洋农排3台区【纯农排变】,北丹新世纪,立永浇地,北丹综合32台区,大洋农排5台区【纯农排变】,邮电局,北丹综合23台区,林业综合养殖场,大洋农排13台区【纯农排变】,北丹综合19台区,养牛场3,北丹综合21台区,北丹综合15台区,北丹综合7台区,北丹综合27台区,北丹综合13台区,辰刚梳绒厂,北丹农排6台区【纯农排变】,大洋农排9台区【纯农排变】,蠡县信德纺织厂变压器,大洋农排7台区【纯农排变】,北丹农排4台区【纯农排变】,北丹林业养殖场,大洋农排18台区【纯农排变】,北丹综合17台区,大洋农排24台区【纯农排变】,大洋农排16台区【纯农排变】,大洋农排14台区【纯农排变】,大洋农排4台区【纯农排变】,中国石油天然气股份有限公司华北油田分公司,北丹综合11台区,北丹综合30台区,北丹综合18台区,三源厂,宝生养殖场,蠡县天成包装材料制造有限公司变压器,蠡县鑫玲纺织有限公司,蠡县惠丰家园小,0578712972-河北永诚食用菌科技有限公司-专变-124356024-河北永诚食用菌科技有限公司变压器,大洋农排1台区【纯农排变】,满红棉织厂变压器200,中国石油天然气股份有限公司华北油田分公司变压器,北丹综合33台区,祁口农排2台区,北丹综合28台区","powerOffReason":"【停电原因】由于３５ＫＶ刘郭线３１３线路检修导致３５ＫＶ郭丹变电站１０ＫＶ北郭丹５１４线路全线停电【变更送电】因抢修进度加快原因，送电时间由２０：００变更为１６：００【发布渠道】蠡县电视台（０５月２５日至０６月０２日２０：００至２２：００之间）","powerOffId":"2020052513000100"},{"poweroffId":2020052513000097,"sgpoweroffId":null,"subsName":"","lineName":"10kV513武营线","pubTranName":"武营综合6台区,武营综合2台区,武营综合10台区,武营综合20台区,武营综合18台区,武营综合11台区,武营综合1台区,武营综合8台区,武营综合9台区,武营综合5台区,武营综合12台区,武营综合4台区,武营农排4台区【纯农排变】,武营综合13台区,武营综合14台区,武营综合15台区,武营综合3台区,武营农排2台区【纯农排变】,武营综合17台区,武营综合7台区,武营综合19台区,武营综合16台区,","scope":"【影响街道/乡镇】北郭丹镇【高危重要客户】无【影响客户】武营村（武家营）、毛纺织厂、天晴花园小区","startTime":"2020-06-03 06:00:00","stopDate":"2020-06-03 16:00:00","orgNo":"1340616","typeCode":"计划停电","poweroffArea":"【全线路停电】停３５ＫＶ郭丹变电站１０ＫＶ武营５１３线路全线，八达毛昵,顺达毛昵,蠡县武营毛纺针织厂,天晴花园小区,轻纺公司,武营综合2台区,远东（北）,站变,武营综合18台区,德鹏公司,武营综合8台区,武营综合5台区,河北大洋实业集团公司变压器,武营综合17台区,武营综合10台区,武营综合11台区,武营农排5台区【纯农排变】,武营综合12台区,武营北,东新厂,武营综合4台区,武营农排4台区【纯农排变】,武营综合13台区,中秋厂,武营综合14台区,东新分厂,大洋染厂,武营农排3台区【纯农排变】,武营综合15台区,武营综合3台区,武营农排2台区【纯农排变】,武营综合7台区,蠡县亿鑫绒毛制造有限公司,中国石油天然气股份有限公司华北油田分公司,赵大路,远东（南）,武营农排1台区【纯农排变】,春光毛昵,武营综合19台区,0584069556-蠡县山水纺织厂-专变-214299917-蠡县山水纺织厂变压器,0469439087-蠡县亿鑫绒毛制造有限公司-专变-46810955-恒源绒毛有限公司,恒源绒毛有限公司,胜东毛昵,武营综合16台区,赵泽西厂,隆达,新奥毛昵,武营综合6台区,武营昌利毛纺厂变压器,武营综合20台区,武营综合1台区,恒源绒毛,武营综合9台区","poweroffReason":"【停电原因】由于３５ＫＶ刘郭线３１３线路检修导致３５ＫＶ郭丹变电站１０ＫＶ武营５１３线路全线停电【变更送电】因工作进度加快原因，送电时间由２０：００变更为１６：００【发布渠道】蠡县电视台（０５月２５日至０６月０２日２０：００至２２：００之间）","powerTime":"2020-06-03 15:25:46","powerComm":"已送电","subsNo":"","lineNo":"","tgNo":"","tgName":null,"infoStatus":"1","orgName":"国网蠡县供电公司","typeName":null,"infoStatusName":null,"dateDay":null,"orgNos":null,"nowTime":null,"countyName":null,"streetName":null,"villageName":null,"roadName":null,"communityName":null,"tranName":null,"sdLineName":null,"cityCode":"1340616","cityName":"国网蠡县供电公司","provinceCode":null,"stopTime":"2020-06-03 16:00:00","powerType":"全部","powerOffArea":"【全线路停电】停３５ＫＶ郭丹变电站１０ＫＶ武营５１３线路全线，八达毛昵,顺达毛昵,蠡县武营毛纺针织厂,天晴花园小区,轻纺公司,武营综合2台区,远东（北）,站变,武营综合18台区,德鹏公司,武营综合8台区,武营综合5台区,河北大洋实业集团公司变压器,武营综合17台区,武营综合10台区,武营综合11台区,武营农排5台区【纯农排变】,武营综合12台区,武营北,东新厂,武营综合4台区,武营农排4台区【纯农排变】,武营综合13台区,中秋厂,武营综合14台区,东新分厂,大洋染厂,武营农排3台区【纯农排变】,武营综合15台区,武营综合3台区,武营农排2台区【纯农排变】,武营综合7台区,蠡县亿鑫绒毛制造有限公司,中国石油天然气股份有限公司华北油田分公司,赵大路,远东（南）,武营农排1台区【纯农排变】,春光毛昵,武营综合19台区,0584069556-蠡县山水纺织厂-专变-214299917-蠡县山水纺织厂变压器,0469439087-蠡县亿鑫绒毛制造有限公司-专变-46810955-恒源绒毛有限公司,恒源绒毛有限公司,胜东毛昵,武营综合16台区,赵泽西厂,隆达,新奥毛昵,武营综合6台区,武营昌利毛纺厂变压器,武营综合20台区,武营综合1台区,恒源绒毛,武营综合9台区","powerOffReason":"【停电原因】由于３５ＫＶ刘郭线３１３线路检修导致３５ＫＶ郭丹变电站１０ＫＶ武营５１３线路全线停电【变更送电】因工作进度加快原因，送电时间由２０：００变更为１６：００【发布渠道】蠡县电视台（０５月２５日至０６月０２日２０：００至２２：００之间）","powerOffId":"2020052513000097"},{"poweroffId":2020052513000092,"sgpoweroffId":null,"subsName":"","lineName":"10kV512祁口线","pubTranName":"志西综合5台区,祁口综合8台区,辇庄综合2台区,辇庄综合1台区,祁口综合3台区,辇庄综合7台区,辇庄大洋农排2台区【纯农排变】,志东综合2台区,祁口综合6台区,辇庄大洋农排3台区【纯农排变】,祁口综合5台区,祁口综合1台区,辇庄大洋农排1台区【纯农排变】,祁口综合9台区,辇庄综合10台区,辇庄综合4台区,辇庄综合5台区,辇庄综合8台区,祁口综合4台区,祁口综合7台区,北丹农排7台区【纯农排变】,辇庄综合6台区,辇庄综合9台区,祁口综合2台区,志西综合3台区,辇庄综合3台区,","scope":"【影响街道/乡镇】北郭丹镇【高危重要客户】无【影响客户】辇庄村、北郭丹村、东志愿村、志东村、西志愿村、志西村、南辛庄村、季家佐村、祁家口村、祁口村","startTime":"2020-06-03 06:00:00","stopDate":"2020-06-03 16:00:00","orgNo":"1340616","typeCode":"计划停电","poweroffArea":"【全线路停电】停３５ＫＶ郭丹变电站１０ＫＶ祁口５１２线路全线，华中西厂,天信绒毛厂,蠡县恒通纺织有限公司变压器400KVA,祁口综合8台区,志西综合5台区,辇庄综合5台区,辇庄综合4台区,祁口五欣染整厂,和平纺织变压器,华茂东厂,蠡县恒通纺织有限公司变压器630KVA1号,祁口综合5台区,辇庄综合7台区,立永养殖场,祁口阳光毛纺厂,蠡县恒通纺织有限公司630KVA2号,辇庄综合6台区,东房,吴金马开花厂,原料加工厂,祁口农排1台区【纯农排变】,辇庄友谊地毯纱厂,辇庄综合9台区,志东综合2台区,地毯纱纺织厂,蠡县恒通纺织有限公司,祁口综合9台区,辇庄综合2台区,辇庄综合1台区,辇庄大洋农排2台区【纯农排变】,0469440919-蠡县鸿途纺织有限公司-专变-227146956-鸿途变压器,辇庄综合3台区,蠡县辇庄殿召针刺厂,志西综合3台区,蠡县辇庄占熬开花厂,辇庄大洋农排3台区【纯农排变】,东申,祁口综合6台区,北辛庄板厂,蠡县恒通纺织有限公司变压器200KVA2号,会胜面粉厂,德华洗毛,德华地毯沙厂,创业有限公司,辇庄综合8台区,祁口综合3台区,吴殿壮,纺织厂,刘顺昌,河山,平安厂,祁口综合4台区,蠡县辇庄殿军开花厂变压器,祁口综合1台区,祁口综合7台区,辇庄大洋农排1台区【纯农排变】,辇庄皮毛厂,北丹农排7台区【纯农排变】,吴建芬,吴振军,振东开花厂,辇庄面粉厂,志东北地纱,辇庄地毯沙,蠡县恒通纺织有限公司变压器200KVA1号,和平皮毛厂,辇庄同雷开花厂,辇庄村北板厂,和平西厂,和平东厂,蠡县新建纺织厂,0469438996-蠡县辇庄发达针刺厂-专变-46810907-和平纺织厂,祁口综合2台区,吴士杰,0469440629-会胜-专变-46810896-会胜,刘兰僧,辇庄综合10台区,立新,辇庄万达开花厂变压器,蠡县辇庄地毯纺织厂变压器","poweroffReason":"【停电原因】由于３５ＫＶ刘郭线３１３线路检修导致３５ＫＶ郭丹变电站１０ＫＶ祁口５１２线路全线停电【变更送电】因工作进度加快原因，送电时间由２０：００变更为１６：００【发布渠道】蠡县电视台（０５月２５日至０６月０２日２０：００至２２：００之间）","powerTime":"2020-06-03 15:25:10","powerComm":"已送电","subsNo":"","lineNo":"","tgNo":"","tgName":null,"infoStatus":"1","orgName":"国网蠡县供电公司","typeName":null,"infoStatusName":null,"dateDay":null,"orgNos":null,"nowTime":null,"countyName":null,"streetName":null,"villageName":null,"roadName":null,"communityName":null,"tranName":null,"sdLineName":null,"cityCode":"1340616","cityName":"国网蠡县供电公司","provinceCode":null,"stopTime":"2020-06-03 16:00:00","powerType":"全部","powerOffArea":"【全线路停电】停３５ＫＶ郭丹变电站１０ＫＶ祁口５１２线路全线，华中西厂,天信绒毛厂,蠡县恒通纺织有限公司变压器400KVA,祁口综合8台区,志西综合5台区,辇庄综合5台区,辇庄综合4台区,祁口五欣染整厂,和平纺织变压器,华茂东厂,蠡县恒通纺织有限公司变压器630KVA1号,祁口综合5台区,辇庄综合7台区,立永养殖场,祁口阳光毛纺厂,蠡县恒通纺织有限公司630KVA2号,辇庄综合6台区,东房,吴金马开花厂,原料加工厂,祁口农排1台区【纯农排变】,辇庄友谊地毯纱厂,辇庄综合9台区,志东综合2台区,地毯纱纺织厂,蠡县恒通纺织有限公司,祁口综合9台区,辇庄综合2台区,辇庄综合1台区,辇庄大洋农排2台区【纯农排变】,0469440919-蠡县鸿途纺织有限公司-专变-227146956-鸿途变压器,辇庄综合3台区,蠡县辇庄殿召针刺厂,志西综合3台区,蠡县辇庄占熬开花厂,辇庄大洋农排3台区【纯农排变】,东申,祁口综合6台区,北辛庄板厂,蠡县恒通纺织有限公司变压器200KVA2号,会胜面粉厂,德华洗毛,德华地毯沙厂,创业有限公司,辇庄综合8台区,祁口综合3台区,吴殿壮,纺织厂,刘顺昌,河山,平安厂,祁口综合4台区,蠡县辇庄殿军开花厂变压器,祁口综合1台区,祁口综合7台区,辇庄大洋农排1台区【纯农排变】,辇庄皮毛厂,北丹农排7台区【纯农排变】,吴建芬,吴振军,振东开花厂,辇庄面粉厂,志东北地纱,辇庄地毯沙,蠡县恒通纺织有限公司变压器200KVA1号,和平皮毛厂,辇庄同雷开花厂,辇庄村北板厂,和平西厂,和平东厂,蠡县新建纺织厂,0469438996-蠡县辇庄发达针刺厂-专变-46810907-和平纺织厂,祁口综合2台区,吴士杰,0469440629-会胜-专变-46810896-会胜,刘兰僧,辇庄综合10台区,立新,辇庄万达开花厂变压器,蠡县辇庄地毯纺织厂变压器","powerOffReason":"【停电原因】由于３５ＫＶ刘郭线３１３线路检修导致３５ＫＶ郭丹变电站１０ＫＶ祁口５１２线路全线停电【变更送电】因工作进度加快原因，送电时间由２０：００变更为１６：００【发布渠道】蠡县电视台（０５月２５日至０６月０２日２０：００至２２：００之间）","powerOffId":"2020052513000092"},{"poweroffId":2020052513000067,"sgpoweroffId":null,"subsName":"","lineName":"10KV计算机站522","pubTranName":"双塔公用8路,西坛村东南,华阳东变,西坛新增11号台区,边各庄分院柱上变压器,西坛小学公用（煤）箱式变电站配电变压器,10kV地质局北院小区X1箱变2#配电变压器,就业局小区台区,双塔公用5168,10kV地质局南院小区X1箱变2#配电变压器,西坛新增13号台区,双塔小区2,西坛新增12号台区,左下坡公用,双塔公用12路（新）,杨庄村东南增,10kV地质局南院小区X2箱变1#配电变压器,双塔所华阳路,双塔公用2路（新）,华阳变柱上变压器,西坛新增5号台区,三义小学总校公用2,三义变新增配变,双塔公用15路（新）,10kV地质局北院小区X1箱变1#配电变压器,三义小学总校公用1,双塔小区（新）【纯农排变】,双塔公用13路,杨庄新增3号台区,双塔公用3路（新）,西坛村东4434【纯农排变】,双塔北寺口公用（新）,防疫站小区(新)柱变,建安一公司小区（新）,边各庄小学公用柱上变压器,10kV地质局南院小区X1箱变1#配电变压器,观音堂变,双塔卫生院,10kV地质局南院小区X2箱变2#配电变压器,","scope":"【影响街道/乡镇】双塔城区 【影响客户】西坛村、边各庄分院、边各庄小学、西后村、西坛小学、杨庄村、涿州市创新专用机床有限责任公司、涿州市鼎盛鑫铁塔制造有限公司、涿州市万隆装饰材料经销部、涿州市新华阳铝箔复合材料厂、涿州拓进金刚石辅料有限公司、涿州市新永鑫建材有限公司、涿州市桃园办事处杨家庄村村民委员会、饲料厂、太平庄面粉厂、涿州市永新喷漆厂、涿州市昊友饲料厂、木材厂、兴盛水泥制品厂、利达陶粒厂、涿州市西坛奎章苗圃厂、民用电器厂、涿州市鑫宏铝业有限公司、涿州市胜宇商品混凝土有限公司、涿州佳晟工贸有限公司、北京华艾鑫节能设备有限公司、涿州市桃园百华机械厂、涿州市桃园制氧厂、涿州市鑫石非金属矿物制品有限公司、涿州市建筑安装工程公司混凝土搅拌站、涿州市天时装饰装璜有限公司、涿州市翔达塑胶有限公司、涿州中煤华谊物业服务有限公司、涿州金泰纺织品有限公司、涿州市海盛机械加工厂、涿州市宇鑫水泥构件厂、涿州市义林水泥构件厂、涿州市宏固水泥制品有限公司、中国人民解放军６６３８２部队、涿州市隽诚化工有限公司、涿州市长宏机械加工厂、北京中煤大田耐磨材料有限公司、涿州市辉腾金属结构有限公司、涿州市志富生猪专业合作社、涿州市宏固水泥制品有限公司、涿州市平安内外墙保温建材厂、涿州市中洲水业有限公司、河北普华门窗制作有限公司、涿州新卓立航空精密科技有限公司、涿州宇航飞跃电气设备有限公司、涿州市金地房地产开发有限公司、涿州市永利汇酒店有限公司","startTime":"2020-06-04 06:00:00","stopDate":"2020-06-04 18:00:00","orgNo":"1340626","typeCode":"计划停电","poweroffArea":"【全线路停电】停１１０ＫＶ涿县变电站１０ＫＶ计算机站５２２线路全线，电镀厂,杨家庄村南地,民用电器厂,涿州市光明高尔夫机械设备经销处,0619311216-涿州立明眼科医院-专变-128947760-涿州立明眼科医院,西后村西,涿州市桃园办事处杨家庄村东,涿州恒吉昌玻璃制品有限公司,涿州市永新喷漆厂,三义小学总校公用2,0667582260-涿州市城市投资发展有限公司-专变-208428686-涿州市城市投资发展有限公司,三义变新增配变,涿州市新华阳铝箔复合材料厂,刘世举,双塔公用15路（新）,0688101743-涿州市轩驰客运有限公司-专变-228728944-涿州市轩驰客运有限公司,10kV地质局北院小区X1箱变1#配电变压器,0730770798--涿州市金地房地产开发有限公司1,0387561314-涿州中煤华谊物业服务有限公司-专变-45357689-涿州中煤华谊物业服务有限公司1,涿州市翔达塑胶有限公司,谢微,饲料厂,涿州市鑫宏铝业有限公司,河北中建新建筑体系有限公司,太平庄面粉厂,0387559900-利达陶粒厂-专变-45357598-利达陶粒厂,10kV地质局南院小区X1箱变1#配电变压器,涿州市万盛工贸有限公司5673变台,广播局路边,涿州新卓立航空精密科技有限公司,中国人民解放军66382部队-变压器2,观音堂变,双塔卫生院,10kV地质局南院小区X2箱变2#配电变压器,涿州市创新专用机床有限责任公司,0728242313-涿州市长实房地产开发有限公司3,涿州通力达商贸有限公司,涿州市建兴建材有限公司,0728242313-涿州市长实房地产开发有限公司2,涿州市永利汇酒店有限公司,涿州市平安内外墙保温建材厂,涿州市义林水泥构件厂,三义小学总校公用1,涿州市精英铝合金材料有限责任公司,涿州市新永鑫建材有限公司,双塔小区（新）【纯农排变】,木材厂,桃园制氧厂,涿州市泰吉模具厂,涿州市鼎盛鑫铁塔制造有限公司,中国人民解放军66382部队-变压器1,双塔公用13路,三露厂,涿州宇航飞跃电气设备有限公司,涿州圣亚玻璃制品有限公司2,杨庄新增3号台区, 边各庄小学公用柱上变压器,西后村委会-变压器2,双塔公用3路（新）,西坛村东4434【纯农排变】,双塔北寺口公用（新）,涿州市桃园百华机械厂,涿州市隽诚化工有限公司200,涿州市昊友饲料厂,涿州市昊友饲料厂-变压器2,涿州市鸿舟生物液体燃料有限公司,西后村委会-变压器1,涿州佳晟工贸有限公司,兴盛水泥制品厂,涿州市六维通加工厂,防疫站小区(新)柱变,涿州圣亚玻璃制品有限公司1,华普超市有限公司涿州分公司,涿州市裕隆模具制造有限公司,建安一公司小区（新）,0661204986-涿州市金地房地产开发有限公司-专变-197597889-涿州市金地房地产开发有限公司,西坛新增5号台区,涿州市大田金属结构加工厂,杨庄村东南增,涿州市胜宇商品混凝土有限公司1,0730770798--涿州市金地房地产开发有限公司2,河北普华门窗制作有限公司,涿州市天马建工集团,10kV地质局南院小区X2箱变1#配电变压器,0387559186-涿州市市政设施管理站-专变-45357653-涿州市市政设施管理处,双塔所华阳路,双塔公用2路（新）,涿州市三环纺织器材有限公司1,0387560425-涿州市恒通水泥制品厂-专变-206410656-涿州市恒通水泥制品厂,华阳变柱上变压器,涿州市天时装饰装璜有限公司,双塔公用8路,涿州市路通安达客运有限公司,西坛村东南,华阳东变,涿州市志富生猪专业合作社,西坛新增11号台区,边各庄分院柱上变压器,涿州市京热热力有限责任公司,西坛小学公用（煤）箱式变电站配电变压器,0387561314-涿州中煤华谊物业服务有限公司-专变-125214074-涿州中煤华谊物业服务有限公司2,10kV地质局北院小区X1箱变2#配电变压器,涿州市长宏机械加","poweroffReason":"【停电原因】由于线路切改工程导致１１０ＫＶ涿县变电站１０ＫＶ计算机站５２２线路全线停电 【变更送电】无 【发布渠道】涿州市涿州电视台（０５月２５日至０６月０３日２１：００播放２次）屏幕上方滚动","powerTime":"2020-06-04 17:48:34","powerComm":"恢复送电","subsNo":"","lineNo":"","tgNo":"","tgName":null,"infoStatus":"1","orgName":"国网涿州市供电公司","typeName":null,"infoStatusName":null,"dateDay":null,"orgNos":null,"nowTime":null,"countyName":null,"streetName":null,"villageName":null,"roadName":null,"communityName":null,"tranName":null,"sdLineName":null,"cityCode":"1340626","cityName":"国网涿州市供电公司","provinceCode":null,"stopTime":"2020-06-04 18:00:00","powerType":"全部","powerOffArea":"【全线路停电】停１１０ＫＶ涿县变电站１０ＫＶ计算机站５２２线路全线，电镀厂,杨家庄村南地,民用电器厂,涿州市光明高尔夫机械设备经销处,0619311216-涿州立明眼科医院-专变-128947760-涿州立明眼科医院,西后村西,涿州市桃园办事处杨家庄村东,涿州恒吉昌玻璃制品有限公司,涿州市永新喷漆厂,三义小学总校公用2,0667582260-涿州市城市投资发展有限公司-专变-208428686-涿州市城市投资发展有限公司,三义变新增配变,涿州市新华阳铝箔复合材料厂,刘世举,双塔公用15路（新）,0688101743-涿州市轩驰客运有限公司-专变-228728944-涿州市轩驰客运有限公司,10kV地质局北院小区X1箱变1#配电变压器,0730770798--涿州市金地房地产开发有限公司1,0387561314-涿州中煤华谊物业服务有限公司-专变-45357689-涿州中煤华谊物业服务有限公司1,涿州市翔达塑胶有限公司,谢微,饲料厂,涿州市鑫宏铝业有限公司,河北中建新建筑体系有限公司,太平庄面粉厂,0387559900-利达陶粒厂-专变-45357598-利达陶粒厂,10kV地质局南院小区X1箱变1#配电变压器,涿州市万盛工贸有限公司5673变台,广播局路边,涿州新卓立航空精密科技有限公司,中国人民解放军66382部队-变压器2,观音堂变,双塔卫生院,10kV地质局南院小区X2箱变2#配电变压器,涿州市创新专用机床有限责任公司,0728242313-涿州市长实房地产开发有限公司3,涿州通力达商贸有限公司,涿州市建兴建材有限公司,0728242313-涿州市长实房地产开发有限公司2,涿州市永利汇酒店有限公司,涿州市平安内外墙保温建材厂,涿州市义林水泥构件厂,三义小学总校公用1,涿州市精英铝合金材料有限责任公司,涿州市新永鑫建材有限公司,双塔小区（新）【纯农排变】,木材厂,桃园制氧厂,涿州市泰吉模具厂,涿州市鼎盛鑫铁塔制造有限公司,中国人民解放军66382部队-变压器1,双塔公用13路,三露厂,涿州宇航飞跃电气设备有限公司,涿州圣亚玻璃制品有限公司2,杨庄新增3号台区, 边各庄小学公用柱上变压器,西后村委会-变压器2,双塔公用3路（新）,西坛村东4434【纯农排变】,双塔北寺口公用（新）,涿州市桃园百华机械厂,涿州市隽诚化工有限公司200,涿州市昊友饲料厂,涿州市昊友饲料厂-变压器2,涿州市鸿舟生物液体燃料有限公司,西后村委会-变压器1,涿州佳晟工贸有限公司,兴盛水泥制品厂,涿州市六维通加工厂,防疫站小区(新)柱变,涿州圣亚玻璃制品有限公司1,华普超市有限公司涿州分公司,涿州市裕隆模具制造有限公司,建安一公司小区（新）,0661204986-涿州市金地房地产开发有限公司-专变-197597889-涿州市金地房地产开发有限公司,西坛新增5号台区,涿州市大田金属结构加工厂,杨庄村东南增,涿州市胜宇商品混凝土有限公司1,0730770798--涿州市金地房地产开发有限公司2,河北普华门窗制作有限公司,涿州市天马建工集团,10kV地质局南院小区X2箱变1#配电变压器,0387559186-涿州市市政设施管理站-专变-45357653-涿州市市政设施管理处,双塔所华阳路,双塔公用2路（新）,涿州市三环纺织器材有限公司1,0387560425-涿州市恒通水泥制品厂-专变-206410656-涿州市恒通水泥制品厂,华阳变柱上变压器,涿州市天时装饰装璜有限公司,双塔公用8路,涿州市路通安达客运有限公司,西坛村东南,华阳东变,涿州市志富生猪专业合作社,西坛新增11号台区,边各庄分院柱上变压器,涿州市京热热力有限责任公司,西坛小学公用（煤）箱式变电站配电变压器,0387561314-涿州中煤华谊物业服务有限公司-专变-125214074-涿州中煤华谊物业服务有限公司2,10kV地质局北院小区X1箱变2#配电变压器,涿州市长宏机械加","powerOffReason":"【停电原因】由于线路切改工程导致１１０ＫＶ涿县变电站１０ＫＶ计算机站５２２线路全线停电 【变更送电】无 【发布渠道】涿州市涿州电视台（０５月２５日至０６月０３日２１：００播放２次）屏幕上方滚动","powerOffId":"2020052513000067"}],"pageModel":{"pageNow":49,"totalCount":10973,"totalPage":1098,"tableRows":0,"pageCount":10,"beginCount":480},"isExperi":"1"}