{"message":"","today":"2020-06-15","seleList":[{"poweroffId":2019081213000536,"sgpoweroffId":null,"subsName":"","lineName":"10kV利民路站572线路","pubTranName":"C583柱上变压器,","scope":"【影响街道/乡镇】南大园乡 【高危重要客户】无 【影响客户】南金庄村","startTime":"2019-08-12 17:30:00","stopDate":"2019-08-12 19:00:00","orgNo":"13406","typeCode":"电网故障停限电","poweroffArea":"【单台区停电】停C583柱上变压器","poweroffReason":"【停电原因】由于接户线断导致１０ＫＶ利民路变电站５７２线路Ｃ５８３公变台区停电【变更送电】无【发布渠道】通过９５５９８发布","powerTime":"2019-08-12 18:49:16","powerComm":"已送电","subsNo":"","lineNo":"","tgNo":"","tgName":null,"infoStatus":"1","orgName":"保定供电公司","typeName":null,"infoStatusName":null,"dateDay":null,"orgNos":null,"nowTime":null,"countyName":null,"streetName":null,"villageName":null,"roadName":null,"communityName":null,"tranName":null,"sdLineName":null,"cityCode":"13406","cityName":"保定供电公司","provinceCode":null,"stopTime":"2019-08-12 19:00:00","powerType":"全部","powerOffArea":"【单台区停电】停C583柱上变压器","powerOffReason":"【停电原因】由于接户线断导致１０ＫＶ利民路变电站５７２线路Ｃ５８３公变台区停电【变更送电】无【发布渠道】通过９５５９８发布","powerOffId":"2019081213000536"},{"poweroffId":2019081213000512,"sgpoweroffId":null,"subsName":"","lineName":"10kV东安线536","pubTranName":"保定东安长发铝业有限公司,东安面粉厂,0387505495-中国移动通信集团河北有限公司保定分公司-专变-45324914-中国移动通信集团河北有限公司清苑分公司,1东安内12,保定东安中医医院,1东安内14柱上变压器,0387505525-清苑县华通金属炉料有限公司-专变-127465900-清苑县华泽金属有限公司,河北尚权金属制品有限公司,保定市御府房地产开发有限公司,东安内5号,1东安内8,望亭乡政府1,保定中亿电气材料制造有限公司,河北春赏金属合金制造有限公司,0469652547-清苑县立丰金属材料有限公司-专变-46900869-清苑县立丰金属材料有限公司,1东安内10,清苑县晨泽金属制造加工有限公司,0387506791-有色金属加工厂-专变-45324890-有色金属加工厂,0387505714-保定华岳汽车零部件制造有限公司-专变-128438679-保定华岳汽车零部件制造有限公司,0387506531-中国联合网络通信有限公司清苑县分公司-专变-45324892-中国联合网络通信有限公司清苑县分公司,清苑县天硕有色金属有限公司,0387505990-清苑县永泰铝业有限公司-专变-45324925-清苑县永泰铝业有限公司,安新县乾方铝业有限公司,0387506267-保定恒生液力偶合器制造有限公司-专变-45325069-保定恒生液力偶合器制造有限公司,东安2号,0469652635-清苑县恒信汽车维修养护中心-专变-46901643-清苑县恒信汽车维修养护中心,保定市竞泽新型材料制造有限公司,清苑县中久有色金属合金制造有限公司,0387505714-保定华岳汽车零部件制造有限公司-专变-45324922-保定华岳汽车零部件制造有限公司,东安外2【纯农排变】,清苑县博远灯具制造有限公司,0387505206-东安钢厂-专变-58308988-东安钢厂,清苑县鑫泰和盛金属有限公司,0671868565-清苑县博远灯具制造有限公司-专变-213634015-清苑县博远灯具制造有限公司,东安1号,0548582903-保定科冠汽车配件制造有限公司-专变-192916010-保定科冠汽车配件制造有限公司,安新县三鑫铜材有限公司,1东安内16,清苑县伟豪铝业有限公司,安新县三金铜材加工厂,1东安内13柱上变压器,0387504913-清苑县伟豪铝业有限公司-专变-119298081-清苑县伟豪铝业有限公司,安新县方正铜制品有限公司,0387505815-保定市清苑区兴飞顺通机械加工厂-专变-125141218-小望亭田玉峰铆焊厂,东安内3,安新县盛成有色金属熔炼有限公司,御城内5,东安村新民居,0387504939-保定隆达铝业有限公司-专变-45325246-保定隆达铝业有限公司,0580131893-安新县金盛铝业有限公司-专变-124502746-安新县金盛铝业有限公司,保定科冠汽车配件制造有限公司,清苑县华威铝业有限公司,0387506241-大春铝业-专变-45324896-大春铝业,0387505727-河北春赏金属合金制造有限公司-专变-45324946-保定天贸金属有限公司,0387505961","scope":"【影响街道/乡镇】望亭乡 【高危重要客户】无 【影响客户】东安、望亭乡政府、御城","startTime":"2019-08-12 17:14:09","stopDate":"2019-08-12 18:30:00","orgNo":"1340618","typeCode":"电网故障停限电","poweroffArea":"【全线路停电】停保定东安长发铝业有限公司,东安面粉厂,0387505495-中国移动通信集团河北有限公司保定分公司-专变-45324914-中国移动通信集团河北有限公司清苑分公司,1东安内12,保定东安中医医院,1东安内14柱上变压器,0387505525-清苑县华通金属炉料有限公司-专变-127465900-清苑县华泽金属有限公司,河北尚权金属制品有限公司,保定市御府房地产开发有限公司,东安内5号,1东安内8,望亭乡政府1,保定中亿电气材料制造有限公司,河北春赏金属合金制造有限公司,0469652547-清苑县立丰金属材料有限公司-专变-46900869-清苑县立丰金属材料有限公司,1东安内10,清苑县晨泽金属制造加工有限公司,0387506791-有色金属加工厂-专变-45324890-有色金属加工厂,0387505714-保定华岳汽车零部件制造有限公司-专变-128438679-保定华岳汽车零部件制造有限公司,0387506531-中国联合网络通信有限公司清苑县分公司-专变-45324892-中国联合网络通信有限公司清苑县分公司,清苑县天硕有色金属有限公司,0387505990-清苑县永泰铝业有限公司-专变-45324925-清苑县永泰铝业有限公司,安新县乾方铝业有限公司,0387506267-保定恒生液力偶合器制造有限公司-专变-45325069-保定恒生液力偶合器制造有限公司,东安2号,0469652635-清苑县恒信汽车维修养护中心-专变-46901643-清苑县恒信汽车维修养护中心,保定市竞泽新型材料制造有限公司,清苑县中久有色金属合金制造有限公司,0387505714-保定华岳汽车零部件制造有限公司-专变-45324922-保定华岳汽车零部件制造有限公司,东安外2【纯农排变】,清苑县博远灯具制造有限公司,0387505206-东安钢厂-专变-58308988-东安钢厂,清苑县鑫泰和盛金属有限公司,0671868565-清苑县博远灯具制造有限公司-专变-213634015-清苑县博远灯具制造有限公司,东安1号,东安小学柱上变压器,0387504896-清苑县天硕有色金属有限公司-专变-124831995-清苑县天硕有色金属有限公司,1东安内15柱上变压器,东安外1【纯农排变】,东安冶炼厂,0387506515-东安长发治炼厂-专变-45324976-东安长发治炼厂,东安内7,0387505958-曙光电铅厂-专变-45325231-曙光电铅厂,0387505509-安新县源茂有色金属熔炼有限公司-专变-45324939-安新县源茂有色金属熔炼有限公司,0615688381-河北春赏金属合金制造有限公司-专变-128296780-河北春赏金属合金制造有限公司,1东安内9,0387505264-清苑县东安长发铝业有限公司-专变-45324935-清苑县东安长发铝业有限公司,0562475823-保定东安长发铝业有限公司-专变-213633803-保定东安长发铝业有限公司,0548582903-保定科冠汽车配件制造有限公司-专变-192916010-保定科冠汽车配件制造有限公司,安新县三鑫铜材有限公司,1东安内16,清苑县伟豪铝业有限公司,安新县三金铜材加工厂,1东安内13柱上变压器,0387504913-清苑县伟豪铝业有限公司-专变-119298081-清苑县伟豪铝业有限公司,安新县方正铜制品有限公司,0387505815-保定市清苑区兴飞顺通机械加工厂-专变-125141218-小望亭田玉峰铆焊厂,东安内3,安新县盛成有色金属熔炼有限公司,御城内5,东安村新民居,0387504939-保定隆达铝业有限公司-专变-45325246-保定隆达铝业有限公司,0580131893-安新县金盛铝业有限公司-专变-124502746-安新县金盛铝业有限公司,保定科冠汽车配件制造有限公司,清苑县华威铝业有限公司,0387506241-大春铝业-专变-45324896-大春铝业,0387505727-河北春赏金属合金制造有限公司-专变-45324946-保定天贸金属有限公司,0387505961-清苑县东烨铝业有限公司-专变-45325082-清苑县东烨铝业有限公司,0387506023-河北春赏金属合金制造有限公司-专变-45324940-保定天贸金属有限公司,0387505714-","poweroffReason":"【停电原因】由于主干９０号杆树枝搭线导致２２０ＫＶ孙村变电站１０ＫＶ东安线５３６线路全线停电 【变更送电】因抢修进度加快原因，送电时间由２２：００变更为１８：３０ 【发布渠道】通过９５５９８发布","powerTime":"2019-08-12 18:10:07","powerComm":"任宏洲通知已送电","subsNo":"","lineNo":"","tgNo":"","tgName":null,"infoStatus":"1","orgName":"国网清苑县供电公司","typeName":null,"infoStatusName":null,"dateDay":null,"orgNos":null,"nowTime":null,"countyName":null,"streetName":null,"villageName":null,"roadName":null,"communityName":null,"tranName":null,"sdLineName":null,"cityCode":"1340618","cityName":"国网清苑县供电公司","provinceCode":null,"stopTime":"2019-08-12 18:30:00","powerType":"全部","powerOffArea":"【全线路停电】停保定东安长发铝业有限公司,东安面粉厂,0387505495-中国移动通信集团河北有限公司保定分公司-专变-45324914-中国移动通信集团河北有限公司清苑分公司,1东安内12,保定东安中医医院,1东安内14柱上变压器,0387505525-清苑县华通金属炉料有限公司-专变-127465900-清苑县华泽金属有限公司,河北尚权金属制品有限公司,保定市御府房地产开发有限公司,东安内5号,1东安内8,望亭乡政府1,保定中亿电气材料制造有限公司,河北春赏金属合金制造有限公司,0469652547-清苑县立丰金属材料有限公司-专变-46900869-清苑县立丰金属材料有限公司,1东安内10,清苑县晨泽金属制造加工有限公司,0387506791-有色金属加工厂-专变-45324890-有色金属加工厂,0387505714-保定华岳汽车零部件制造有限公司-专变-128438679-保定华岳汽车零部件制造有限公司,0387506531-中国联合网络通信有限公司清苑县分公司-专变-45324892-中国联合网络通信有限公司清苑县分公司,清苑县天硕有色金属有限公司,0387505990-清苑县永泰铝业有限公司-专变-45324925-清苑县永泰铝业有限公司,安新县乾方铝业有限公司,0387506267-保定恒生液力偶合器制造有限公司-专变-45325069-保定恒生液力偶合器制造有限公司,东安2号,0469652635-清苑县恒信汽车维修养护中心-专变-46901643-清苑县恒信汽车维修养护中心,保定市竞泽新型材料制造有限公司,清苑县中久有色金属合金制造有限公司,0387505714-保定华岳汽车零部件制造有限公司-专变-45324922-保定华岳汽车零部件制造有限公司,东安外2【纯农排变】,清苑县博远灯具制造有限公司,0387505206-东安钢厂-专变-58308988-东安钢厂,清苑县鑫泰和盛金属有限公司,0671868565-清苑县博远灯具制造有限公司-专变-213634015-清苑县博远灯具制造有限公司,东安1号,东安小学柱上变压器,0387504896-清苑县天硕有色金属有限公司-专变-124831995-清苑县天硕有色金属有限公司,1东安内15柱上变压器,东安外1【纯农排变】,东安冶炼厂,0387506515-东安长发治炼厂-专变-45324976-东安长发治炼厂,东安内7,0387505958-曙光电铅厂-专变-45325231-曙光电铅厂,0387505509-安新县源茂有色金属熔炼有限公司-专变-45324939-安新县源茂有色金属熔炼有限公司,0615688381-河北春赏金属合金制造有限公司-专变-128296780-河北春赏金属合金制造有限公司,1东安内9,0387505264-清苑县东安长发铝业有限公司-专变-45324935-清苑县东安长发铝业有限公司,0562475823-保定东安长发铝业有限公司-专变-213633803-保定东安长发铝业有限公司,0548582903-保定科冠汽车配件制造有限公司-专变-192916010-保定科冠汽车配件制造有限公司,安新县三鑫铜材有限公司,1东安内16,清苑县伟豪铝业有限公司,安新县三金铜材加工厂,1东安内13柱上变压器,0387504913-清苑县伟豪铝业有限公司-专变-119298081-清苑县伟豪铝业有限公司,安新县方正铜制品有限公司,0387505815-保定市清苑区兴飞顺通机械加工厂-专变-125141218-小望亭田玉峰铆焊厂,东安内3,安新县盛成有色金属熔炼有限公司,御城内5,东安村新民居,0387504939-保定隆达铝业有限公司-专变-45325246-保定隆达铝业有限公司,0580131893-安新县金盛铝业有限公司-专变-124502746-安新县金盛铝业有限公司,保定科冠汽车配件制造有限公司,清苑县华威铝业有限公司,0387506241-大春铝业-专变-45324896-大春铝业,0387505727-河北春赏金属合金制造有限公司-专变-45324946-保定天贸金属有限公司,0387505961-清苑县东烨铝业有限公司-专变-45325082-清苑县东烨铝业有限公司,0387506023-河北春赏金属合金制造有限公司-专变-45324940-保定天贸金属有限公司,0387505714-","powerOffReason":"【停电原因】由于主干９０号杆树枝搭线导致２２０ＫＶ孙村变电站１０ＫＶ东安线５３６线路全线停电 【变更送电】因抢修进度加快原因，送电时间由２２：００变更为１８：３０ 【发布渠道】通过９５５９８发布","powerOffId":"2019081213000512"},{"poweroffId":2019081213000468,"sgpoweroffId":null,"subsName":"","lineName":"10kV东下关514线","pubTranName":"朱家营7#,0669338096-河北骆驼湾生态农业开发有限公司-专变-210342383-河北骆驼湾生态农业开发有限公司,东下关5#公用,天桥加油站,河北建设集团有限公司,印钞石5#配变,朱家营2#配变,阜平县凯悦假日酒店有限公司朱家营分公司,骆驼湾4#,阜平县泽政肉羊饲养专业合作社,江苏圣通建设集团有限公司,中国移动通信集团河北有限公司阜平分公司,平石头3#,东下关1#公用,刘建军汽车修理点,龙泉关7#【纯农排变】,东下关3#公用,骆驼湾5#,大教厂3#,江苏圣通建设集团有限公司计,中国移动通信集团河北有限公司阜平,龙泉关5#,塔沟2#,顾家台5#,大教厂2#,0468880305-阜平县万方旅游开发有限公司-专变-192635958-阜平县万方旅游开发有限公司,龙泉关配变1#,中国联合网络通信有限公司,印钞石4#,平石头2#,顾家台1#配变,黑崖沟2#,0659078157-阜平县林业局-专变-192908114-阜平县林业局,大教厂4#,沿台3#,印钞石6#公用配变【纯农排变】,塔沟1#,骆驼湾2#,沿台1#,朱家营1#,阜平县吉祥天桥人家,印钞石1#配变,李欣,顾家台4#,北刘庄3#【纯农排变】,西下关4#,阜平县成旺牲畜饲养有限公司,金珠满江阜平农业有限公司,0468880305-阜平县万方旅游开发有限公司-专变-46617970-阜平县万方旅游开发有限公司,北刘庄2#,东下关2#公用,东下关4#,龙泉关6#,印钞石3#配变,沿台2#,阜平县嘉鑫种植有限公司,骆驼湾3#配变,北刘庄1#,0468880305-阜平县万方旅游开发有限公司-专变-212364144-阜平县万方旅游开发有限公司,阜平县驼峰旅游开发有限公司,龙泉关3#,阜平县龙泉关小学,骆驼湾新增,印钞石2#配变,西下关1#公用,石家庄一建建设集团有限公司,八里庄3#【纯农排变】,朱家营4#,阜平县兴龙旅游开发有限公司,八里庄1#,阜平县凌波小筑酒店,东下关供电所新,西下关2#配变,西刘庄1#配变,黑崖沟1#,河北名舍酒店有限公司,龙泉关4#配变,西下关3#,大胡卜2#公用配变,西刘庄配变2#,黑崖沟3#,骆驼湾1#,0468880305-阜平县万方旅游开发有限公司-专变-192626860-阜平县万方旅游开发有限公司,顾家台2#公用,朱家营5#,平石头1#,西刘庄3#配变,朱家营6#,塔沟配变3#,龙泉关配变2#,青羊沟2#配变,龙泉关8#【纯农排变】,黑崖沟村公用配变【光伏】,0468880305-阜平县万方旅游开发有限公司-专变-192635403-阜平县万方旅游开发有限公司,阜平县天生桥镇西下关小学,大教厂1#,朱家营3#,黑林沟1#,长城建设集团有限公司,青羊沟1#配变,","scope":"【影响街道/乡镇】天生桥镇 【高危重要客户】无 【影响客户】塔沟村、南庄村、沿台、阳坡村、朱家营、黄石堂、朱家奄、大教厂、杨家庄、平石头、八里庄、北刘庄、青羊沟、顾家台、骆驼湾、瓦窑、木桥、辽道背、黑林沟、大胡卜、东门、林场门口、西刘庄、黑崖沟、印钞石、高石堂沟、龙宿庵、养老院、东下关供电所、东下关邮电所、天桥电车、天桥加油站、天桥生活区、富鑫矿业有限公司、中学、移动公司、二龙湾治超站、阜平县华瑞服装厂","startTime":"2019-08-17 05:00:00","stopDate":"2019-08-17 15:00:00","orgNo":"1340611","typeCode":"临时停电","poweroffArea":"【全线路停电】停黑崖沟2#,阜平县凯悦假日酒店有限公司朱家营分公司,西刘庄3#配变,印钞石2#配变,中国移动通信集团河北有限公司阜平分公司,印钞石4#,东下关2#公用,中国联合网络通信有限公司,刘建军汽车修理点,大教厂1#,阜平县兴龙旅游开发有限公司,青羊沟2#配变,河北建设集团有限公司,0468880305-阜平县万方旅游开发有限公司-专变-212364144-阜平县万方旅游开发有限公司,西下关4#,朱家营4#,大教厂3#,东下关4#,黑林沟1#,龙泉关7#【纯农排变】,青羊沟1#配变,长城建设集团有限公司,龙泉关8#【纯农排变】,塔沟2#,北刘庄1#,平石头3#,平石头2#,黑崖沟3#,0468880305-阜平县万方旅游开发有限公司-专变-192635403-阜平县万方旅游开发有限公司,阜平县驼峰旅游开发有限公司,江苏圣通建设集团有限公司计,朱家营6#,龙泉关配变2#,0659078157-阜平县林业局-专变-192908114-阜平县林业局,塔沟1#,大教厂2#,龙泉关6#,朱家营7#,骆驼湾4#,江苏圣通建设集团有限公司,阜平县嘉鑫种植有限公司,西刘庄1#配变,骆驼湾新增,朱家营3#,东下关5#公用,阜平县龙泉关小学,东下关3#公用,西刘庄配变2#,顾家台2#公用,骆驼湾2#,骆驼湾3#配变,金珠满江阜平农业有限公司,龙泉关5#,0669338096-河北骆驼湾生态农业开发有限公司-专变-210342383-河北骆驼湾生态农业开发有限公司,骆驼湾5#,印钞石3#配变,朱家营1#,印钞石5#配变,西下关2#配变,平石头1#,龙泉关配变1#,八里庄1#,顾家台4#,塔沟配变3#,顾家台1#配变,沿台1#,大胡卜2#公用配变,龙泉关4#配变,河北名舍酒店有限公司,龙泉关3#,阜平县吉祥天桥人家,阜平县泽政肉羊饲养专业合作社,阜平县成旺牲畜饲养有限公司,朱家营2#配变,阜平县天生桥镇西下关小学,沿台2#,骆驼湾1#,大教厂4#,顾家台5#,中国移动通信集团河北有限公司阜平,朱家营5#,天桥加油站,东下关供电所新,黑崖沟1#,印钞石1#配变,东下关1#公用,沿台3#,黑崖沟村公用配变【光伏】,西下关3#,西下关1#公用","poweroffReason":"【停电原因】由于引线搭接导致３５ＫＶ天生桥变电站１０ＫＶ东下关５１４线路全线停电 【变更送电】无 【发布渠道】９５５９８","powerTime":"2019-08-17 14:45:58","powerComm":"全部送电","subsNo":"","lineNo":"","tgNo":"","tgName":null,"infoStatus":"1","orgName":"国网阜平县供电公司","typeName":null,"infoStatusName":null,"dateDay":null,"orgNos":null,"nowTime":null,"countyName":null,"streetName":null,"villageName":null,"roadName":null,"communityName":null,"tranName":null,"sdLineName":null,"cityCode":"1340611","cityName":"国网阜平县供电公司","provinceCode":null,"stopTime":"2019-08-17 15:00:00","powerType":"全部","powerOffArea":"【全线路停电】停黑崖沟2#,阜平县凯悦假日酒店有限公司朱家营分公司,西刘庄3#配变,印钞石2#配变,中国移动通信集团河北有限公司阜平分公司,印钞石4#,东下关2#公用,中国联合网络通信有限公司,刘建军汽车修理点,大教厂1#,阜平县兴龙旅游开发有限公司,青羊沟2#配变,河北建设集团有限公司,0468880305-阜平县万方旅游开发有限公司-专变-212364144-阜平县万方旅游开发有限公司,西下关4#,朱家营4#,大教厂3#,东下关4#,黑林沟1#,龙泉关7#【纯农排变】,青羊沟1#配变,长城建设集团有限公司,龙泉关8#【纯农排变】,塔沟2#,北刘庄1#,平石头3#,平石头2#,黑崖沟3#,0468880305-阜平县万方旅游开发有限公司-专变-192635403-阜平县万方旅游开发有限公司,阜平县驼峰旅游开发有限公司,江苏圣通建设集团有限公司计,朱家营6#,龙泉关配变2#,0659078157-阜平县林业局-专变-192908114-阜平县林业局,塔沟1#,大教厂2#,龙泉关6#,朱家营7#,骆驼湾4#,江苏圣通建设集团有限公司,阜平县嘉鑫种植有限公司,西刘庄1#配变,骆驼湾新增,朱家营3#,东下关5#公用,阜平县龙泉关小学,东下关3#公用,西刘庄配变2#,顾家台2#公用,骆驼湾2#,骆驼湾3#配变,金珠满江阜平农业有限公司,龙泉关5#,0669338096-河北骆驼湾生态农业开发有限公司-专变-210342383-河北骆驼湾生态农业开发有限公司,骆驼湾5#,印钞石3#配变,朱家营1#,印钞石5#配变,西下关2#配变,平石头1#,龙泉关配变1#,八里庄1#,顾家台4#,塔沟配变3#,顾家台1#配变,沿台1#,大胡卜2#公用配变,龙泉关4#配变,河北名舍酒店有限公司,龙泉关3#,阜平县吉祥天桥人家,阜平县泽政肉羊饲养专业合作社,阜平县成旺牲畜饲养有限公司,朱家营2#配变,阜平县天生桥镇西下关小学,沿台2#,骆驼湾1#,大教厂4#,顾家台5#,中国移动通信集团河北有限公司阜平,朱家营5#,天桥加油站,东下关供电所新,黑崖沟1#,印钞石1#配变,东下关1#公用,沿台3#,黑崖沟村公用配变【光伏】,西下关3#,西下关1#公用","powerOffReason":"【停电原因】由于引线搭接导致３５ＫＶ天生桥变电站１０ＫＶ东下关５１４线路全线停电 【变更送电】无 【发布渠道】９５５９８","powerOffId":"2019081213000468"},{"poweroffId":2019081213000460,"sgpoweroffId":null,"subsName":"","lineName":"10kV514下河线","pubTranName":"石桥头东南变压器,","scope":"【影响街道/乡镇】下河乡【高危重要客户】无【影响客户】石桥头","startTime":"2019-08-13 07:00:00","stopDate":"2019-08-13 18:00:00","orgNo":"1340619","typeCode":"其他临时停电","poweroffArea":"【单台区停电】停石桥头东南变压器","poweroffReason":"【停电原因】由于线路２６号电杆倾斜，需停电进行紧急抢修导致３５ＫＶ刘家马变电站１０ＫＶ５１４下河线路石桥头东南公变台区停电【变更送电】无【发布渠道】通过９５５９８发布","powerTime":"2019-08-13 17:57:00","powerComm":"已送电","subsNo":"","lineNo":"","tgNo":"","tgName":null,"infoStatus":"1","orgName":"国网曲阳县供电公司","typeName":null,"infoStatusName":null,"dateDay":null,"orgNos":null,"nowTime":null,"countyName":null,"streetName":null,"villageName":null,"roadName":null,"communityName":null,"tranName":null,"sdLineName":null,"cityCode":"1340619","cityName":"国网曲阳县供电公司","provinceCode":null,"stopTime":"2019-08-13 18:00:00","powerType":"全部","powerOffArea":"【单台区停电】停石桥头东南变压器","powerOffReason":"【停电原因】由于线路２６号电杆倾斜，需停电进行紧急抢修导致３５ＫＶ刘家马变电站１０ＫＶ５１４下河线路石桥头东南公变台区停电【变更送电】无【发布渠道】通过９５５９８发布","powerOffId":"2019081213000460"},{"poweroffId":2019081213000425,"sgpoweroffId":null,"subsName":"","lineName":"10kV中冉屯线513","pubTranName":"2中冉屯外4【纯农排变】,河北泽龙投资集团有限公司,2中冉外11【纯农排变】,2中冉外7【纯农排变】,保定市捷运交通运输有限责任公司计量点主供,2南二村外4,2中冉外10【纯农排变】,2中冉屯外3【纯农排变】,中国石油天然气股份有限公司河北保定销售分公司第七十七加油站,2中冉屯外2【纯农排变】,2中冉外12【纯农排变】,","scope":"【影响街道/乡镇】清苑镇 【高危重要客户】无 【影响客户】中冉屯","startTime":"2019-08-12 16:08:06","stopDate":"2019-08-12 18:30:00","orgNo":"1340618","typeCode":"电网故障停限电","poweroffArea":"【全线路停电】停2中冉屯外4【纯农排变】,河北泽龙投资集团有限公司,2中冉外11【纯农排变】,2中冉外7【纯农排变】,保定市捷运交通运输有限责任公司计量点主供,2南二村外4,2中冉外10【纯农排变】,2中冉屯外3【纯农排变】,中国石油天然气股份有限公司河北保定销售分公司第七十七加油站,2中冉屯外2【纯农排变】,2中冉外12【纯农排变】","poweroffReason":"【停电原因】由于主干３９号杆南分支２号杆中国石油变压器避雷器击穿导致１１０ＫＶ中冉变电站１０ＫＶ中冉屯线５１３线路全线停电 【变更送电】因抢修进度加快原因，送电时间由２２：００变更为１８：３０ 【发布渠道】通过９５５９８发布","powerTime":"2019-08-12 18:09:13","powerComm":"王凯通知已送电","subsNo":"","lineNo":"","tgNo":"","tgName":null,"infoStatus":"1","orgName":"国网清苑县供电公司","typeName":null,"infoStatusName":null,"dateDay":null,"orgNos":null,"nowTime":null,"countyName":null,"streetName":null,"villageName":null,"roadName":null,"communityName":null,"tranName":null,"sdLineName":null,"cityCode":"1340618","cityName":"国网清苑县供电公司","provinceCode":null,"stopTime":"2019-08-12 18:30:00","powerType":"全部","powerOffArea":"【全线路停电】停2中冉屯外4【纯农排变】,河北泽龙投资集团有限公司,2中冉外11【纯农排变】,2中冉外7【纯农排变】,保定市捷运交通运输有限责任公司计量点主供,2南二村外4,2中冉外10【纯农排变】,2中冉屯外3【纯农排变】,中国石油天然气股份有限公司河北保定销售分公司第七十七加油站,2中冉屯外2【纯农排变】,2中冉外12【纯农排变】","powerOffReason":"【停电原因】由于主干３９号杆南分支２号杆中国石油变压器避雷器击穿导致１１０ＫＶ中冉变电站１０ＫＶ中冉屯线５１３线路全线停电 【变更送电】因抢修进度加快原因，送电时间由２２：００变更为１８：３０ 【发布渠道】通过９５５９８发布","powerOffId":"2019081213000425"},{"poweroffId":2019081213000387,"sgpoweroffId":null,"subsName":"","lineName":"部队线512","pubTranName":"王京村0441变压器【纯农排变】,王京4683变压器,王京3065变压器【纯农排变】,王京镇政府0452变压器,王京东4852变压器【纯农排变】,","scope":"【影响街道/乡镇】王京镇【高危重要客户】无【影响客户】王京村、王京镇政府、银起钢材经销处、唐县隆鑫铸造厂、8642部队、保定中达铸造有限公司","startTime":"2019-08-22 05:30:00","stopDate":"2019-08-22 18:00:00","orgNo":"1340622","typeCode":"计划停电","poweroffArea":"【全线路停电】停王京4683变压器,王京3065变压器【纯农排变】,王京东4852变压器【纯农排变】,王京村0441变压器【纯农排变】,王京镇政府0452变压器","poweroffReason":"【停电原因】由于线路检修导致３５ＫＶ王京变电站部队线５１２线路全线停电【变更送电】无【发布渠道】唐县电视台（８月１２日至８月２１日的２０：００时至２０：３０时之间）屏幕上方滚动字幕","powerTime":"2019-08-22 17:55:02","powerComm":"已送电","subsNo":"","lineNo":"","tgNo":"","tgName":null,"infoStatus":"1","orgName":"国网唐县供电公司","typeName":null,"infoStatusName":null,"dateDay":null,"orgNos":null,"nowTime":null,"countyName":null,"streetName":null,"villageName":null,"roadName":null,"communityName":null,"tranName":null,"sdLineName":null,"cityCode":"1340622","cityName":"国网唐县供电公司","provinceCode":null,"stopTime":"2019-08-22 18:00:00","powerType":"全部","powerOffArea":"【全线路停电】停王京4683变压器,王京3065变压器【纯农排变】,王京东4852变压器【纯农排变】,王京村0441变压器【纯农排变】,王京镇政府0452变压器","powerOffReason":"【停电原因】由于线路检修导致３５ＫＶ王京变电站部队线５１２线路全线停电【变更送电】无【发布渠道】唐县电视台（８月１２日至８月２１日的２０：００时至２０：３０时之间）屏幕上方滚动字幕","powerOffId":"2019081213000387"},{"poweroffId":2019081213000384,"sgpoweroffId":null,"subsName":"","lineName":"王京东线513","pubTranName":"王京村0175变压器,南陶邱6103变压器,春耕板厂0183,保定中达铸造有限公司2,王京西4853变压器,王京村北0211变压器,王京储备库0476,保定中达铸造有限公司4,中达电炉200,王京村1478变压器,保定中达铸造有限公司,忠尔铸造厂0181,王京村4009变压器,王京村4008变压器,","scope":"【影响街道/乡镇】王京镇【高危重要客户】无【影响客户】王京村、王京储备库、春耕板厂、中达电炉、保定柱力预应力机械制造有限公司、保定中达铸造有限公司","startTime":"2019-08-22 05:30:00","stopDate":"2019-08-22 18:00:00","orgNo":"1340622","typeCode":"计划停电","poweroffArea":"【全线路停电】停春耕板厂0183,忠尔铸造厂0181,南陶邱6103变压器,王京村0175变压器,王京储备库0476,王京村1478变压器,保定中达铸造有限公司,保定中达铸造有限公司4,王京村4008变压器,王京村北0211变压器,王京西4853变压器,王京村4009变压器,保定中达铸造有限公司2,中达电炉200","poweroffReason":"【停电原因】由于线路检修导致３５ＫＶ王京变电站王京东线５１３线路全线停电【变更送电】无【发布渠道】唐县电视台（８月１２日至８月２１日的２０：００时至２０：３０时之间）屏幕上方滚动字幕","powerTime":"2019-08-22 17:55:28","powerComm":"已送电","subsNo":"","lineNo":"","tgNo":"","tgName":null,"infoStatus":"1","orgName":"国网唐县供电公司","typeName":null,"infoStatusName":null,"dateDay":null,"orgNos":null,"nowTime":null,"countyName":null,"streetName":null,"villageName":null,"roadName":null,"communityName":null,"tranName":null,"sdLineName":null,"cityCode":"1340622","cityName":"国网唐县供电公司","provinceCode":null,"stopTime":"2019-08-22 18:00:00","powerType":"全部","powerOffArea":"【全线路停电】停春耕板厂0183,忠尔铸造厂0181,南陶邱6103变压器,王京村0175变压器,王京储备库0476,王京村1478变压器,保定中达铸造有限公司,保定中达铸造有限公司4,王京村4008变压器,王京村北0211变压器,王京西4853变压器,王京村4009变压器,保定中达铸造有限公司2,中达电炉200","powerOffReason":"【停电原因】由于线路检修导致３５ＫＶ王京变电站王京东线５１３线路全线停电【变更送电】无【发布渠道】唐县电视台（８月１２日至８月２１日的２０：００时至２０：３０时之间）屏幕上方滚动字幕","powerOffId":"2019081213000384"},{"poweroffId":2019081213000380,"sgpoweroffId":null,"subsName":"","lineName":"10kV514董庄线","pubTranName":"10kV514董庄线14154台区变压器,中建路桥集团有限公司,10kV514董庄线14029台区变压器,河北现代电力变压器有限公司,10kV514董庄线14133台区变压器。,10kV514董庄线41940台区变压器,南小王机站面粉厂,10kV514董庄线35425台区变压器,10kV514董庄线14042台区变压器,南小王村西新增变压器,保定恒达泵业有限公司,10kV514董庄线14033台区变压器,10kV514董庄线14119台区变压器【纯农排变】,10kV514董庄线2884台区变压器,10kV514董庄线34960台区变压器,0469414051-河北天成电工有限公司-专变-46807523-河北天成电工有限公司,10kV514董庄线51079台区变压器,10kV514董庄线14028台区变压器,10kV514董庄线14032。台区变压器,10kV514董庄线14037台区变压器,10kV514董庄线14030台区变压器,","scope":"【影响街道/乡镇】南小王乡【高危重要客户】无【影响客户】林庄、寇庄、南小王、董庄","startTime":"2019-08-12 15:16:00","stopDate":"2019-08-12 17:30:00","orgNo":"1340608","typeCode":"电网故障停限电","poweroffArea":"【全线路停电】停南小王机站面粉厂,0469413700-河北恒源泵业有限公司-专变-46807517-河北恒源泵业有限公司,河北现代电力变压器有限公司,中建路桥集团有限公司,10kV514董庄线14077台区变压器,10kV514董庄线14132台区变压器【纯农排变】,10kV514董庄线14154台区变压器,10kV514董庄线14044台区变压器【纯农排变】,10kV514董庄线14119台区变压器【纯农排变】,南小王村东新增变压器,10kV514董庄线2884台区变压器,河北省博野县光明线材,10kV514董庄线2883台区变压器,10kV514董庄线35426台区变压器,10kV514董庄线14056台区变压器,10kV514董庄线14036台区变压器,保定恒达泵业有限公司,10kV514董庄线14035台区变压器,10kV514董庄线35425台区变压器,南小王乡政府,10kV514董庄线15754台区变压器,10kV514董庄线51079台区变压器,10kV514董庄线14053台区变压器,10kV514董庄线41940台区变压器,10kV514董庄线14030台区变压器,10kV514董庄线14033台区变压器,10kV514董庄线14148台区变压器,10kV514董庄线14049台区变压器【纯农排变】,10kV514董庄线34953台区变压器【纯农排变】,10kV514董庄线14147台区变压器【纯农排变】,10kV514董庄线14037台区变压器,10kV514董庄线34961台区变压器【纯农排变】,10kV514董庄线14060台区变压器,10kV514董庄线15760台区变压器,博野县爱民物业有限公司,10kV514董庄线14137台区变压器,10kV514董庄线14032。台区变压器,10kV514董庄线14042台区变压器,10kV514董庄线41947台区变压器,10kV514董庄线34960台区变压器,10kV514董庄线14061台区变压器,10kV514董庄线14029台区变压器,10kV514董庄线14133台区变压器。,10kV514董庄线14028台区变压器,10kV514董庄线41943台区变压器,0469414051-河北天成电工有限公司-专变-46807523-河北天成电工有限公司,南小王村西新增变压器,10kV514董庄线35421台区变压器","poweroffReason":"【停电原因】由于站内开关掉闸导致３５ＫＶ南小王变电站董庄５１４线路全线停电【变更送电】因抢修进度加快原因，送电时间由２２：００变更为１７：３０【发布渠道】通过９５５９８发布","powerTime":"2019-08-12 17:12:53","powerComm":"已送电","subsNo":"","lineNo":"","tgNo":"","tgName":null,"infoStatus":"1","orgName":"国网博野县供电公司","typeName":null,"infoStatusName":null,"dateDay":null,"orgNos":null,"nowTime":null,"countyName":null,"streetName":null,"villageName":null,"roadName":null,"communityName":null,"tranName":null,"sdLineName":null,"cityCode":"1340608","cityName":"国网博野县供电公司","provinceCode":null,"stopTime":"2019-08-12 17:30:00","powerType":"全部","powerOffArea":"【全线路停电】停南小王机站面粉厂,0469413700-河北恒源泵业有限公司-专变-46807517-河北恒源泵业有限公司,河北现代电力变压器有限公司,中建路桥集团有限公司,10kV514董庄线14077台区变压器,10kV514董庄线14132台区变压器【纯农排变】,10kV514董庄线14154台区变压器,10kV514董庄线14044台区变压器【纯农排变】,10kV514董庄线14119台区变压器【纯农排变】,南小王村东新增变压器,10kV514董庄线2884台区变压器,河北省博野县光明线材,10kV514董庄线2883台区变压器,10kV514董庄线35426台区变压器,10kV514董庄线14056台区变压器,10kV514董庄线14036台区变压器,保定恒达泵业有限公司,10kV514董庄线14035台区变压器,10kV514董庄线35425台区变压器,南小王乡政府,10kV514董庄线15754台区变压器,10kV514董庄线51079台区变压器,10kV514董庄线14053台区变压器,10kV514董庄线41940台区变压器,10kV514董庄线14030台区变压器,10kV514董庄线14033台区变压器,10kV514董庄线14148台区变压器,10kV514董庄线14049台区变压器【纯农排变】,10kV514董庄线34953台区变压器【纯农排变】,10kV514董庄线14147台区变压器【纯农排变】,10kV514董庄线14037台区变压器,10kV514董庄线34961台区变压器【纯农排变】,10kV514董庄线14060台区变压器,10kV514董庄线15760台区变压器,博野县爱民物业有限公司,10kV514董庄线14137台区变压器,10kV514董庄线14032。台区变压器,10kV514董庄线14042台区变压器,10kV514董庄线41947台区变压器,10kV514董庄线34960台区变压器,10kV514董庄线14061台区变压器,10kV514董庄线14029台区变压器,10kV514董庄线14133台区变压器。,10kV514董庄线14028台区变压器,10kV514董庄线41943台区变压器,0469414051-河北天成电工有限公司-专变-46807523-河北天成电工有限公司,南小王村西新增变压器,10kV514董庄线35421台区变压器","powerOffReason":"【停电原因】由于站内开关掉闸导致３５ＫＶ南小王变电站董庄５１４线路全线停电【变更送电】因抢修进度加快原因，送电时间由２２：００变更为１７：３０【发布渠道】通过９５５９８发布","powerOffId":"2019081213000380"},{"poweroffId":2019081213000364,"sgpoweroffId":null,"subsName":"","lineName":"阳光线521","pubTranName":"五处大修厂,0562791183-保定津联物业服务有限公司-专变-118501320-天津市兴建房地产开发公司（金都3号）2#,环岛高杆灯,天奕商厦1#,高建集团建装公司,职中变压器,高碑店市人民防空办公室变压器,天津市兴建房地产开发公司（金都3号）5#,高碑店市人民法院变压器,农发行公变,河北宝姚水泵制造有限公司,高碑店市兴泰房地产开发有限公司1,付庄3变压器,河北华达公路工程咨询监理有限公司变压器,河北创世房地产开发有限公司变压器,高碑店市强林物业服务有限公司变压器,高碑店市路灯管理办公室（东环岛路灯）变压器,检察院,天津市兴建房地产开发公司（金都3号）3#变压器,福利风机厂,高碑店市兴泰房地产开发有限公司2,富民路公变变压器,检察院公变1,高碑店市德安房地产开发有限公司,付庄变压器,电力花园2号箱变间隔配电变压器,付庄面粉厂,0562791066-保定津联物业服务有限公司-专变-118501293-天津市兴建房地产开发公司（金都花园2号）变压器,高碑店市卫生和计划生育局,新世纪公变,李小北,付庄北台变压器,闫家务东1变压器,张八屯信用社,河北创世房地产开发有限公司(安洁物业),诺林湾3期,天奕商厦2号箱变,高碑店明仁眼科医院,电力花园3号箱变间隔配电变压器,闫家务南变压器,新华书店,天津市兴建房地产开发公司（金都花园2号）变压器,中国石油保定119站,天津市兴建房地产开发公司（金都3号）1#,高碑店市鑫远房地产开发有限公司变压器,高碑店市人民法院,闫家务东变压器,天津市兴建房地产开发公司（金都3号）6#,电力花园1号箱变间隔配电变压器,高碑店市路灯管理办公室变压器,建安变压器,高碑店市路灯管理办公室（富民路路灯变压器,付庄2变压器,天津市兴建房地产开发公司（金都3号）7#,高碑店市城市管理综合执法局迎宾路2号,高碑店市国家税务局,环岛公变变压器,付庄1变压器,付庄基地,邮政局,高碑店市地方税务局,徐金峰变压器,人行,闫家务南1变压器,锅炉辅机厂,老地税公变,付庄东变压器,付庄面粉厂2,天津市兴建房地产开发公司（金都3号）4#,锅炉厂公变,","scope":"【影响街道/乡镇】迎宾东路、新昌大街、光华南大街、兴文街、文苑路、富民路、民欣胡同 【高危重要客户】无 【影响客户】付庄村、闫家务村、电力花园小区、付庄小区、地税小区、新检察院小区、中国人行小区、锅炉辅机平房、建安公寓、职中门脸、农行家属楼、公园大道小区、金都小区、诺林湾三期、邮政小区、天平小区、新城国税所平房、职中家属楼、职中平房、阳光商厦、河北向鑫机电设备有限公司、家兴商贸、兴泰房地产、双硕物业、实达物业、检察院、李小北、锅炉辅机厂、中国邮政集团高碑店市分公司、付庄面粉厂、福利风机厂、五处大修厂（游乐堡）、高建集团建装公司、付庄基地（十八局四处基地）、河北鼎誉房地产、河北创世房地产(安洁物业)、徐金峰、人民防空办公室、高碑店明仁眼科医院、中国石油保定１１９站、河北高碑店农村商业银行（张八屯信用社）、新华书店、卫生和计划生育局、中国人民银行","startTime":"2019-08-12 14:00:10","stopDate":"2019-08-12 15:30:00","orgNo":"1340612","typeCode":"电网故障停限电","poweroffArea":"【全线路停电】停0562791183-保定津联物业服务有限公司-专变-118501320-天津市兴建房地产开发公司（金都3号）2#,职中变压器,高碑店市人民防空办公室变压器,天津市兴建房地产开发公司（金都3号）5#,高碑店市人民法院变压器,农发行公变,河北宝姚水泵制造有限公司,高碑店市兴泰房地产开发有限公司1,付庄3变压器,河北华达公路工程咨询监理有限公司变压器,河北创世房地产开发有限公司变压器,高碑店市强林物业服务有限公司变压器,高碑店市路灯管理办公室（东环岛路灯）变压器,闫家务东1变压器,高碑店市鑫远房地产开发有限公司变压器,高碑店市人民法院,闫家务东变压器,天津市兴建房地产开发公司（金都3号）6#,电力花园1号箱变间隔配电变压器,高碑店市路灯管理办公室变压器,建安变压器,高碑店市路灯管理办公室（富民路路灯变压器,付庄2变压器,锅炉厂公变,天津市兴建房地产开发公司（金都3号）7#,高碑店市城市管理综合执法局迎宾路2号,高碑店市国家税务局,环岛公变变压器,付庄1变压器,付庄基地,邮政局,高碑店市地方税务局,徐金峰变压器,人行,闫家务南1变压器,锅炉辅机厂,检察院,天津市兴建房地产开发公司（金都3号）3#变压器,福利风机厂,高碑店市兴泰房地产开发有限公司2,富民路公变变压器,检察院公变1,高碑店市德安房地产开发有限公司,张八屯信用社,河北创世房地产开发有限公司(安洁物业),诺林湾3期,天奕商厦2号箱变,高碑店明仁眼科医院,电力花园3号箱变间隔配电变压器,闫家务南变压器,0562791066-保定津联物业服务有限公司-专变-118501293-天津市兴建房地产开发公司（金都花园2号）变压器,环岛高杆灯,天奕商厦1#,高建集团建装公司,新华书店,天津市兴建房地产开发公司（金都花园2号）变压器,中国石油保定119站,付庄变压器,电力花园2号箱变间隔配电变压器,付庄面粉厂,高碑店市卫生和计划生育局,新世纪公变,李小北,付庄北台变压器,老地税公变,天津市兴建房地产开发公司（金都3号）1#,付庄东变压器,付庄面粉厂2,天津市兴建房地产开发公司（金都3号）4#,五处大修厂","poweroffReason":"【停电原因】由于瞬时电流速断跳闸导致１１０ＫＶ马庄变电站１０ＫＶ阳光５２１线路全线停电 【变更送电】因抢修进度加快原因，送电时间由１９：００变更为１５：３０ 【发布渠道】通过９５５９８发布","powerTime":"2019-08-12 15:07:27","powerComm":"已送电","subsNo":"","lineNo":"","tgNo":"","tgName":null,"infoStatus":"1","orgName":"国网高碑店市供电公司","typeName":null,"infoStatusName":null,"dateDay":null,"orgNos":null,"nowTime":null,"countyName":null,"streetName":null,"villageName":null,"roadName":null,"communityName":null,"tranName":null,"sdLineName":null,"cityCode":"1340612","cityName":"国网高碑店市供电公司","provinceCode":null,"stopTime":"2019-08-12 15:30:00","powerType":"全部","powerOffArea":"【全线路停电】停0562791183-保定津联物业服务有限公司-专变-118501320-天津市兴建房地产开发公司（金都3号）2#,职中变压器,高碑店市人民防空办公室变压器,天津市兴建房地产开发公司（金都3号）5#,高碑店市人民法院变压器,农发行公变,河北宝姚水泵制造有限公司,高碑店市兴泰房地产开发有限公司1,付庄3变压器,河北华达公路工程咨询监理有限公司变压器,河北创世房地产开发有限公司变压器,高碑店市强林物业服务有限公司变压器,高碑店市路灯管理办公室（东环岛路灯）变压器,闫家务东1变压器,高碑店市鑫远房地产开发有限公司变压器,高碑店市人民法院,闫家务东变压器,天津市兴建房地产开发公司（金都3号）6#,电力花园1号箱变间隔配电变压器,高碑店市路灯管理办公室变压器,建安变压器,高碑店市路灯管理办公室（富民路路灯变压器,付庄2变压器,锅炉厂公变,天津市兴建房地产开发公司（金都3号）7#,高碑店市城市管理综合执法局迎宾路2号,高碑店市国家税务局,环岛公变变压器,付庄1变压器,付庄基地,邮政局,高碑店市地方税务局,徐金峰变压器,人行,闫家务南1变压器,锅炉辅机厂,检察院,天津市兴建房地产开发公司（金都3号）3#变压器,福利风机厂,高碑店市兴泰房地产开发有限公司2,富民路公变变压器,检察院公变1,高碑店市德安房地产开发有限公司,张八屯信用社,河北创世房地产开发有限公司(安洁物业),诺林湾3期,天奕商厦2号箱变,高碑店明仁眼科医院,电力花园3号箱变间隔配电变压器,闫家务南变压器,0562791066-保定津联物业服务有限公司-专变-118501293-天津市兴建房地产开发公司（金都花园2号）变压器,环岛高杆灯,天奕商厦1#,高建集团建装公司,新华书店,天津市兴建房地产开发公司（金都花园2号）变压器,中国石油保定119站,付庄变压器,电力花园2号箱变间隔配电变压器,付庄面粉厂,高碑店市卫生和计划生育局,新世纪公变,李小北,付庄北台变压器,老地税公变,天津市兴建房地产开发公司（金都3号）1#,付庄东变压器,付庄面粉厂2,天津市兴建房地产开发公司（金都3号）4#,五处大修厂","powerOffReason":"【停电原因】由于瞬时电流速断跳闸导致１１０ＫＶ马庄变电站１０ＫＶ阳光５２１线路全线停电 【变更送电】因抢修进度加快原因，送电时间由１９：００变更为１５：３０ 【发布渠道】通过９５５９８发布","powerOffId":"2019081213000364"},{"poweroffId":2019081213000233,"sgpoweroffId":null,"subsName":"","lineName":"平景线555","pubTranName":"内渠东农变压器【纯农排变】,内渠内2变压器,安新型复合散热器高碑店有限公司,内渠内变压器,小王村东农变压器【纯农排变】,小王村西农变压器【纯农排变】,内渠南2变压器,平辛庄内变压器,平辛庄东2变压器,内渠北变压器,小王村变压器,内渠东变压器,内渠西农变压器,小王村西变压器,0666332721-刘建红-专变-204479261-刘建红变压器,内渠南变压器,内渠南农变压器【纯农排变】,内渠北农变压器【纯农排变】,","scope":"【影响街道/乡镇】辛立庄镇 【高危重要客户】富瑞克燃气有限公司 【影响客户】平辛庄村、内渠村、小王村、德康农业发展有限责任公司、刘建红、百安新型复合散热器有限公司、隆信诚塑料制品厂","startTime":"2019-08-18 06:00:00","stopDate":"2019-08-18 18:00:00","orgNo":"1340612","typeCode":"临时停电","poweroffArea":"【分支停电】停内渠东农变压器【纯农排变】,内渠内2变压器,安新型复合散热器高碑店有限公司,内渠内变压器,小王村东农变压器【纯农排变】,小王村西农变压器【纯农排变】,内渠南2变压器,平辛庄内变压器,平辛庄东2变压器,内渠北变压器,小王村变压器,内渠东变压器,内渠西农变压器,小王村西变压器,0666332721-刘建红-专变-204479261-刘建红变压器,内渠南变压器,内渠南农变压器【纯农排变】,内渠北农变压器【纯农排变】","poweroffReason":"【停电原因】由于换杆、换线导致１１０ＫＶ陈八庄变电站１０ＫＶ平景５５５线路０６号断路器以下停电 【变更送电】无 【发布渠道】高碑店市高碑店电视台（８月１３日８时至８月１７日１８时之间）屏幕上方滚动","powerTime":"2019-08-18 17:38:53","powerComm":"已送电","subsNo":"","lineNo":"","tgNo":"","tgName":null,"infoStatus":"1","orgName":"国网高碑店市供电公司","typeName":null,"infoStatusName":null,"dateDay":null,"orgNos":null,"nowTime":null,"countyName":null,"streetName":null,"villageName":null,"roadName":null,"communityName":null,"tranName":null,"sdLineName":null,"cityCode":"1340612","cityName":"国网高碑店市供电公司","provinceCode":null,"stopTime":"2019-08-18 18:00:00","powerType":"全部","powerOffArea":"【分支停电】停内渠东农变压器【纯农排变】,内渠内2变压器,安新型复合散热器高碑店有限公司,内渠内变压器,小王村东农变压器【纯农排变】,小王村西农变压器【纯农排变】,内渠南2变压器,平辛庄内变压器,平辛庄东2变压器,内渠北变压器,小王村变压器,内渠东变压器,内渠西农变压器,小王村西变压器,0666332721-刘建红-专变-204479261-刘建红变压器,内渠南变压器,内渠南农变压器【纯农排变】,内渠北农变压器【纯农排变】","powerOffReason":"【停电原因】由于换杆、换线导致１１０ＫＶ陈八庄变电站１０ＫＶ平景５５５线路０６号断路器以下停电 【变更送电】无 【发布渠道】高碑店市高碑店电视台（８月１３日８时至８月１７日１８时之间）屏幕上方滚动","powerOffId":"2019081213000233"}],"pageModel":{"pageNow":664,"totalCount":10973,"totalPage":1098,"tableRows":0,"pageCount":10,"beginCount":6630},"isExperi":"1"}