{"message":"","today":"2020-06-15","seleList":[{"poweroffId":2019081013000302,"sgpoweroffId":null,"subsName":"","lineName":"迪城线577","pubTranName":"李迪城2号【纯农排变】,","scope":"【影响街道/乡镇】大因镇 【高危重要客户】无 【影响客户】李迪成村","startTime":"2019-08-12 08:00:00","stopDate":"2019-08-12 18:00:00","orgNo":"1340605","typeCode":"临时停电","poweroffArea":"【单台区停电】停李迪城2号【纯农排变】","poweroffReason":"【停电原因】由于线路检修导致１１０ＫＶ沙口变电站迪城５７７线路李迪城２号公变台区停电 【变更送电】无 【发布渠道】通过９５５９８发布","powerTime":"2019-08-12 17:36:42","powerComm":"已送电","subsNo":"","lineNo":"","tgNo":"","tgName":null,"infoStatus":"1","orgName":"国网徐水县供电公司","typeName":null,"infoStatusName":null,"dateDay":null,"orgNos":null,"nowTime":null,"countyName":null,"streetName":null,"villageName":null,"roadName":null,"communityName":null,"tranName":null,"sdLineName":null,"cityCode":"1340605","cityName":"国网徐水县供电公司","provinceCode":null,"stopTime":"2019-08-12 18:00:00","powerType":"全部","powerOffArea":"【单台区停电】停李迪城2号【纯农排变】","powerOffReason":"【停电原因】由于线路检修导致１１０ＫＶ沙口变电站迪城５７７线路李迪城２号公变台区停电 【变更送电】无 【发布渠道】通过９５５９８发布","powerOffId":"2019081013000302"},{"poweroffId":2019081013000294,"sgpoweroffId":null,"subsName":"","lineName":"东邵514","pubTranName":"黄山贾奎礼,黄山12号变压器,大巨20号变压器,大方18号变压器,大巨村22#【纯农排变】,大方村5#【纯农排变】,黄山村7#,大巨村4#,大巨村17#,大巨村15#,大方村16#,黄山村8#,黄山村10#,黄山村5#,大巨村8#,大方村10#,黄山村9#,大方村4#【纯农排变】,大巨25号变压器铭牌,大方17号变压器,大巨村1#,大方村14#,大巨村11#,大方村3#【纯农排变】,大方村15#,大方砖厂,大巨村18#,大巨面粉厂,大方村13#【纯农排变】,大方村11#,大巨村3#,大巨村6#【纯农排变】,大巨村14#,黄山村4#,大方村6#【纯农排变】,大巨村12#,黄山村3号变压器,黄山村1#,大方村北12#,黄山张术仁砖厂,黄山蜂制品厂,大方村9#,黄山砖厂,大方村7#,大巨村23#【纯农排变】,大巨19号变压器,大巨村13#,大巨村7#【纯农排变】,大巨村10#,大方村8#,大方19号变压器,大方村2#,黄山村贾春山变压器,大巨村9#【纯农排变】,大巨21号变压器【纯农排变】,大巨村16#,大方村1#,大巨村5#【纯农排变】,黄山村2#,","scope":"【影响街道/乡镇】凌云册乡【高危重要客户】无【影响客户】大方村、大巨村、黄山村","startTime":"2019-08-10 16:10:57","stopDate":"2019-08-10 18:10:00","orgNo":"1340625","typeCode":"电网故障停限电","poweroffArea":"【分支停电】停大方村4#【纯农排变】,大巨25号变压器铭牌,大方17号变压器,大巨村1#,大方村14#,大巨村11#,大方村3#【纯农排变】,大方村15#,大方砖厂,大巨村18#,大巨面粉厂,大方村13#【纯农排变】,大方村11#,大巨村3#,大巨村6#【纯农排变】,大巨村14#,黄山村4#,大方村6#【纯农排变】,大巨村12#,黄山村3号变压器,黄山村1#,大方村北12#,黄山砖厂,大方村7#,大巨村23#【纯农排变】,大巨19号变压器,大巨村13#,大巨村7#【纯农排变】,大巨村10#,大方村8#,大方19号变压器,大方村2#,黄山村贾春山变压器,大巨村9#【纯农排变】,大巨21号变压器【纯农排变】,大巨村16#,大方村1#,大巨村5#【纯农排变】,黄山村2#,黄山张术仁砖厂,黄山蜂制品厂,大方村9#,黄山贾奎礼,黄山12号变压器,大巨20号变压器,大方18号变压器,大巨村22#【纯农排变】,大方村5#【纯农排变】,黄山村7#,大巨村4#,大巨村17#,大巨村15#,大方村16#,黄山村8#,黄山村10#,黄山村5#,大巨村8#,大方村10#,黄山村9#","poweroffReason":"【停电原因】由于线夹烧毁导致３５ＫＶ凌云册变电站东邵５１４线路００５号杆至０２５号杆之间停电【变更送电】因抢修进度加快原因，送电时间由２０：００变更为１８：１０【发布渠道】通过９５５９８发布","powerTime":"2019-08-10 17:49:08","powerComm":"已送电","subsNo":"","lineNo":"","tgNo":"","tgName":null,"infoStatus":"1","orgName":"国网易县供电公司","typeName":null,"infoStatusName":null,"dateDay":null,"orgNos":null,"nowTime":null,"countyName":null,"streetName":null,"villageName":null,"roadName":null,"communityName":null,"tranName":null,"sdLineName":null,"cityCode":"1340625","cityName":"国网易县供电公司","provinceCode":null,"stopTime":"2019-08-10 18:10:00","powerType":"全部","powerOffArea":"【分支停电】停大方村4#【纯农排变】,大巨25号变压器铭牌,大方17号变压器,大巨村1#,大方村14#,大巨村11#,大方村3#【纯农排变】,大方村15#,大方砖厂,大巨村18#,大巨面粉厂,大方村13#【纯农排变】,大方村11#,大巨村3#,大巨村6#【纯农排变】,大巨村14#,黄山村4#,大方村6#【纯农排变】,大巨村12#,黄山村3号变压器,黄山村1#,大方村北12#,黄山砖厂,大方村7#,大巨村23#【纯农排变】,大巨19号变压器,大巨村13#,大巨村7#【纯农排变】,大巨村10#,大方村8#,大方19号变压器,大方村2#,黄山村贾春山变压器,大巨村9#【纯农排变】,大巨21号变压器【纯农排变】,大巨村16#,大方村1#,大巨村5#【纯农排变】,黄山村2#,黄山张术仁砖厂,黄山蜂制品厂,大方村9#,黄山贾奎礼,黄山12号变压器,大巨20号变压器,大方18号变压器,大巨村22#【纯农排变】,大方村5#【纯农排变】,黄山村7#,大巨村4#,大巨村17#,大巨村15#,大方村16#,黄山村8#,黄山村10#,黄山村5#,大巨村8#,大方村10#,黄山村9#","powerOffReason":"【停电原因】由于线夹烧毁导致３５ＫＶ凌云册变电站东邵５１４线路００５号杆至０２５号杆之间停电【变更送电】因抢修进度加快原因，送电时间由２０：００变更为１８：１０【发布渠道】通过９５５９８发布","powerOffId":"2019081013000294"},{"poweroffId":2019081013000288,"sgpoweroffId":null,"subsName":"","lineName":"10kV514下河线","pubTranName":"0000004811田家坎变压器,","scope":"【影响街道/乡镇】下河乡【高危重要客户】无【影响客户】田家坎","startTime":"2019-08-11 07:30:00","stopDate":"2019-08-11 17:30:00","orgNo":"1340619","typeCode":"其他临时停电","poweroffArea":"【单台区停电】停0000004811田家坎变压器","poweroffReason":"【停电原因】由于线路改造导致３５ＫＶ刘家马变电站１０ＫＶ５１４下河线路田家坎公变台区停电【变更送电】无【发布渠道】通过９５５９８发布","powerTime":"2019-08-11 17:07:57","powerComm":"已送电","subsNo":"","lineNo":"","tgNo":"","tgName":null,"infoStatus":"1","orgName":"国网曲阳县供电公司","typeName":null,"infoStatusName":null,"dateDay":null,"orgNos":null,"nowTime":null,"countyName":null,"streetName":null,"villageName":null,"roadName":null,"communityName":null,"tranName":null,"sdLineName":null,"cityCode":"1340619","cityName":"国网曲阳县供电公司","provinceCode":null,"stopTime":"2019-08-11 17:30:00","powerType":"全部","powerOffArea":"【单台区停电】停0000004811田家坎变压器","powerOffReason":"【停电原因】由于线路改造导致３５ＫＶ刘家马变电站１０ＫＶ５１４下河线路田家坎公变台区停电【变更送电】无【发布渠道】通过９５５９８发布","powerOffId":"2019081013000288"},{"poweroffId":2019081013000256,"sgpoweroffId":null,"subsName":"","lineName":"10kV百中线524","pubTranName":"清苑县宏达金属有限公司,保定市福世特防腐科技有限公司,清苑县向东化工有限公司1,1石头桥内16,2石头桥外6【纯农排变】,清苑县向东化工有限公司,0657402312-清苑县宏达金属有限公司-专变-192876849-清苑县宏达金属有限公司,2石头桥外5【纯农排变】,0387496579-清苑县宏达金属有限公司-专变-45317092-石头桥宏达金属加工厂,中国石化销售有限公司河北保定石油分公司,","scope":"【影响街道/乡镇】石桥乡 【高危重要客户】无 【影响客户】石头桥","startTime":"2019-08-10 14:00:00","stopDate":"2019-08-10 18:00:00","orgNo":"1340618","typeCode":"其他临时停电","poweroffArea":"【全线路停电】停清苑县宏达金属有限公司,保定市福世特防腐科技有限公司,清苑县向东化工有限公司1,1石头桥内16,2石头桥外6【纯农排变】,清苑县向东化工有限公司,0657402312-清苑县宏达金属有限公司-专变-192876849-清苑县宏达金属有限公司,2石头桥外5【纯农排变】,0387496579-清苑县宏达金属有限公司-专变-45317092-石头桥宏达金属加工厂,中国石化销售有限公司河北保定石油分公司","poweroffReason":"【停电原因】由于计量保护消缺，需停电进行紧急抢修导致１１０ＫＶ草桥变电站１０ＫＶ百中线５２４线路全线停电 【变更送电】无 【发布渠道】通过９５５９８发布","powerTime":"2019-08-10 17:06:59","powerComm":"王艳云通知已送电","subsNo":"","lineNo":"","tgNo":"","tgName":null,"infoStatus":"1","orgName":"国网清苑县供电公司","typeName":null,"infoStatusName":null,"dateDay":null,"orgNos":null,"nowTime":null,"countyName":null,"streetName":null,"villageName":null,"roadName":null,"communityName":null,"tranName":null,"sdLineName":null,"cityCode":"1340618","cityName":"国网清苑县供电公司","provinceCode":null,"stopTime":"2019-08-10 18:00:00","powerType":"全部","powerOffArea":"【全线路停电】停清苑县宏达金属有限公司,保定市福世特防腐科技有限公司,清苑县向东化工有限公司1,1石头桥内16,2石头桥外6【纯农排变】,清苑县向东化工有限公司,0657402312-清苑县宏达金属有限公司-专变-192876849-清苑县宏达金属有限公司,2石头桥外5【纯农排变】,0387496579-清苑县宏达金属有限公司-专变-45317092-石头桥宏达金属加工厂,中国石化销售有限公司河北保定石油分公司","powerOffReason":"【停电原因】由于计量保护消缺，需停电进行紧急抢修导致１１０ＫＶ草桥变电站１０ＫＶ百中线５２４线路全线停电 【变更送电】无 【发布渠道】通过９５５９８发布","powerOffId":"2019081013000256"},{"poweroffId":2019081013000228,"sgpoweroffId":null,"subsName":"","lineName":"10KV祖各庄514","pubTranName":"下庄西井【纯农排变】,北辛庄公路边台区,祖各庄新东台区,下庄,祖各庄西北变压器,长和水泥构件,吴各庄公路边变压器,涞水县保北电气安装有限公司200KVA专变,鑫磊石粉厂,张翠台村北8号井变压器,张涿高速涞水互通收费站630KVA专变,张翠台村北台区,北辛庄五方井变压器【纯农排变】,北辛庄东台区,北辛庄三岔井变压器,0469315631-王村粮站-专变-46774540-王村粮站,南横七北井变压器,北辛庄河套井台区（西）,张翠台2号井变压器,下庄北井2变压器【纯农排变】,北辛庄北井变压器,祖各庄村内台区,新兴纸箱厂,北辛庄村西海峰,北辛庄村东北台区,张翠台村北2号台区,张翠台砖厂井变压器,0611825203-保定翔海旅游开发有限公司-专变-127816772-翔海旅游315KVA专变,祖各庄西南台区,涞水龙博建材有限公司新增250KVA专变,北辛庄村西北台区,涞水双开饲养有限公司新增变压器,涞水润鑫建材二分厂250,吴各庄村内,0646673503-涞水县航航水泥制品厂-专变-169896449-涞水县航航水泥制品厂新增变压器315KVA,北辛庄西台区,张翠台面粉厂,祖各庄砖厂,承装公司杆厂,祖各庄村配变柱上变压器,张翠台村内2,祖各庄砖厂2,张翠台东台区,祖各庄楼板厂,张翠台高速井,张翠台变压器,吴各庄北台区,吴各庄西南台区,祖各庄东南台区变压器,张翠台村内台区,吴各庄小学院内变压器,张翠台万红光机井变压器,0469315367-王村中学-专变-46774539-王村中学,张翠台所北台区,祖各庄东坑台区变压器,王村供电所,北辛庄村南台区,0679135049-涞水龙博建材有限公司-专变-218835593-涞水龙博建材有限公司800KVA专变,国网河北省电力有限公司涿州市供电分公司200KVA专变,王村中学箱变间隔配电变压器,祖各庄南台区,吴各庄村内2台区,吴各庄村西,张翠台村北3,张翠台北井变压器,涿州市供电有限责任公司,瑞兴隆建材厂,下庄西台区,","scope":"【影响街道/乡镇】王村乡 【高危重要客户】无 【影响客户】祖各庄村、吴各庄村、张翠台村、下庄村、北辛庄村","startTime":"2019-08-10 10:24:16","stopDate":"2019-08-10 13:30:00","orgNo":"1340614","typeCode":"电网故障停限电","poweroffArea":"【全线路停电】停张翠台村北2号台区,张翠台砖厂井变压器,0611825203-保定翔海旅游开发有限公司-专变-127816772-翔海旅游315KVA专变,祖各庄西南台区,涞水龙博建材有限公司新增250KVA专变,北辛庄村西北台区,涞水双开饲养有限公司新增变压器,涞水润鑫建材二分厂250,吴各庄村内,0646673503-涞水县航航水泥制品厂-专变-169896449-涞水县航航水泥制品厂新增变压器315KVA,北辛庄西台区,张翠台面粉厂,祖各庄砖厂,承装公司杆厂,祖各庄村配变柱上变压器,张翠台村内2,祖各庄砖厂2,张翠台东台区,祖各庄楼板厂,张翠台高速井,张翠台变压器,吴各庄北台区,吴各庄西南台区,下庄西井【纯农排变】,北辛庄公路边台区,祖各庄新东台区,下庄,祖各庄西北变压器,长和水泥构件,吴各庄公路边变压器,涞水县保北电气安装有限公司200KVA专变,鑫磊石粉厂,张翠台村北8号井变压器,张涿高速涞水互通收费站630KVA专变,张翠台村北台区,北辛庄五方井变压器【纯农排变】,北辛庄东台区,北辛庄三岔井变压器,0469315631-王村粮站-专变-46774540-王村粮站,南横七北井变压器,北辛庄河套井台区（西）,张翠台2号井变压器,下庄北井2变压器【纯农排变】,北辛庄北井变压器,祖各庄村内台区,新兴纸箱厂,北辛庄村西海峰,北辛庄村东北台区,瑞兴隆建材厂,下庄西台区,祖各庄东南台区变压器,张翠台村内台区,吴各庄小学院内变压器,张翠台万红光机井变压器,0469315367-王村中学-专变-46774539-王村中学,张翠台所北台区,祖各庄东坑台区变压器,王村供电所,北辛庄村南台区,0679135049-涞水龙博建材有限公司-专变-218835593-涞水龙博建材有限公司800KVA专变,国网河北省电力有限公司涿州市供电分公司200KVA专变,王村中学箱变间隔配电变压器,祖各庄南台区,吴各庄村内2台区,吴各庄村西,张翠台村北3,张翠台北井变压器,涿州市供电有限责任公司","poweroffReason":"【停电原因】由于Ａ相接地导致３５ＫＶ王村变电站１０ＫＶ祖各庄５１４线路全线停电 【变更送电】因抢修进度加快原因，送电时间由１５：００变更为１３：３０ 【发布渠道】通过９５５９８发布","powerTime":"2019-08-10 12:44:27","powerComm":"已送电","subsNo":"","lineNo":"","tgNo":"","tgName":null,"infoStatus":"1","orgName":"国网涞水县供电公司","typeName":null,"infoStatusName":null,"dateDay":null,"orgNos":null,"nowTime":null,"countyName":null,"streetName":null,"villageName":null,"roadName":null,"communityName":null,"tranName":null,"sdLineName":null,"cityCode":"1340614","cityName":"国网涞水县供电公司","provinceCode":null,"stopTime":"2019-08-10 13:30:00","powerType":"全部","powerOffArea":"【全线路停电】停张翠台村北2号台区,张翠台砖厂井变压器,0611825203-保定翔海旅游开发有限公司-专变-127816772-翔海旅游315KVA专变,祖各庄西南台区,涞水龙博建材有限公司新增250KVA专变,北辛庄村西北台区,涞水双开饲养有限公司新增变压器,涞水润鑫建材二分厂250,吴各庄村内,0646673503-涞水县航航水泥制品厂-专变-169896449-涞水县航航水泥制品厂新增变压器315KVA,北辛庄西台区,张翠台面粉厂,祖各庄砖厂,承装公司杆厂,祖各庄村配变柱上变压器,张翠台村内2,祖各庄砖厂2,张翠台东台区,祖各庄楼板厂,张翠台高速井,张翠台变压器,吴各庄北台区,吴各庄西南台区,下庄西井【纯农排变】,北辛庄公路边台区,祖各庄新东台区,下庄,祖各庄西北变压器,长和水泥构件,吴各庄公路边变压器,涞水县保北电气安装有限公司200KVA专变,鑫磊石粉厂,张翠台村北8号井变压器,张涿高速涞水互通收费站630KVA专变,张翠台村北台区,北辛庄五方井变压器【纯农排变】,北辛庄东台区,北辛庄三岔井变压器,0469315631-王村粮站-专变-46774540-王村粮站,南横七北井变压器,北辛庄河套井台区（西）,张翠台2号井变压器,下庄北井2变压器【纯农排变】,北辛庄北井变压器,祖各庄村内台区,新兴纸箱厂,北辛庄村西海峰,北辛庄村东北台区,瑞兴隆建材厂,下庄西台区,祖各庄东南台区变压器,张翠台村内台区,吴各庄小学院内变压器,张翠台万红光机井变压器,0469315367-王村中学-专变-46774539-王村中学,张翠台所北台区,祖各庄东坑台区变压器,王村供电所,北辛庄村南台区,0679135049-涞水龙博建材有限公司-专变-218835593-涞水龙博建材有限公司800KVA专变,国网河北省电力有限公司涿州市供电分公司200KVA专变,王村中学箱变间隔配电变压器,祖各庄南台区,吴各庄村内2台区,吴各庄村西,张翠台村北3,张翠台北井变压器,涿州市供电有限责任公司","powerOffReason":"【停电原因】由于Ａ相接地导致３５ＫＶ王村变电站１０ＫＶ祖各庄５１４线路全线停电 【变更送电】因抢修进度加快原因，送电时间由１５：００变更为１３：３０ 【发布渠道】通过９５５９８发布","powerOffId":"2019081013000228"},{"poweroffId":2019081013000204,"sgpoweroffId":null,"subsName":"","lineName":"10KV南三店555","pubTranName":"酱各庄村南,","scope":"【影响街道/乡镇】高官庄镇 【高危重要客户】无 【影响客户】酱各庄","startTime":"2019-08-12 04:30:00","stopDate":"2019-08-12 09:30:00","orgNo":"1340626","typeCode":"临时停电","poweroffArea":"【单台区停电】停酱各庄村南","poweroffReason":"【停电原因】由于新增配变工程导致１１０ＫＶ松林店变电站１０ＫＶ南三店５５５线路酱各庄村南公变台区停电 【变更送电】无 【发布渠道】通过９５５９８发布","powerTime":"2019-08-12 09:18:19","powerComm":"已送电","subsNo":"","lineNo":"","tgNo":"","tgName":null,"infoStatus":"1","orgName":"国网涿州市供电公司","typeName":null,"infoStatusName":null,"dateDay":null,"orgNos":null,"nowTime":null,"countyName":null,"streetName":null,"villageName":null,"roadName":null,"communityName":null,"tranName":null,"sdLineName":null,"cityCode":"1340626","cityName":"国网涿州市供电公司","provinceCode":null,"stopTime":"2019-08-12 09:30:00","powerType":"全部","powerOffArea":"【单台区停电】停酱各庄村南","powerOffReason":"【停电原因】由于新增配变工程导致１１０ＫＶ松林店变电站１０ＫＶ南三店５５５线路酱各庄村南公变台区停电 【变更送电】无 【发布渠道】通过９５５９８发布","powerOffId":"2019081013000204"},{"poweroffId":2019081013000188,"sgpoweroffId":null,"subsName":"","lineName":"10kV永济515","pubTranName":"永乐村村北,大石桥村西,涿州中学校内,61846部队,0628311016-涿州佳裕房地产开发有限公司-专变-140461671-涿州佳裕房地产开发有限公司,0575282665-涿州佳裕房地产开发有限公司-专变-123954802-涿州佳裕房地产开发有限公司,双塔所（永乐村）,永乐村南新,涿州市锻造厂,涿州市鑫铁印刷有限公司,涿州市鹏盛房地产开发有限公司2,建安阳光小区C(水榭春天),北京永济恒业房地产开发有限公司1,涿州市金泽伟业商贸有限公司,保定市金阳房地产开发有限公司2,西丁小学北校区公用（煤）,建安阳光小区A(水榭春天),上念头村内,北京永济恒业房地产开发有限公司3,上念头村西北,三义小学二分校公用（煤）,永乐村村南,下念头村西,涿州市城市管理行政执法局,涿州市五环建材厂,河北涿州中学,大石桥村北,上念头村大队变压器柱变,光荣院3864,涿州市新发地农产品市场有限公司,北京铁路局北京供电段,涿州市飞达技术学校,涿州中学南,上念头村大队东南,大石桥村东,天立实业公司,涿州市润怀锻造厂,北京永济恒业房地产开发有限公司2,下念头5411,大石桥村内,涿州市鑫峰金属制品有限公司,赛迪化工有限公司,下念头村内,涿州市鹏盛房地产开发有限公司1,0552920812-涿州市恒基隆业房地产开发有限公司-专变-59562993-涿州市恒基隆业房地产开发有限公司,双塔所上念头村东变压器柱变【纯农排变】,大石桥村,涿州市燕信加油站,涿州市灏铖新型建材厂,永乐村东南变压器柱变,永乐新增,上念头村东南【纯农排变】,涿州市伯新海龙拔丝加工厂,永乐村村西,107国道涿州收费站,永乐村北新,保定市金阳房地产开发有限公司1,","scope":"【影响街道/乡镇】双塔城区团结路 【高危重要客户】无 【影响客户】大石桥村、永乐村、上念头村、下念头村、金阳瑞景小区、水岸花城小区、水上人家小区、佳业瑞物小区、西丁小学北校区、三义小学二分校、建安阳光小区、新发地农产品市场、城市管理行政、北京永济恒业房地产、润宝捷物业、旭丰制品、十八局、光荣院、６１８４６部队、五局三产、赛迪化工、一中家属院、腾源阁、燕信加油站、鑫峰制品、伯新海龙厂、天立实业、灏铖建材厂、润怀锻造厂、涿州市鹏瑞商贸有限公司","startTime":"2019-08-20 08:30:00","stopDate":"2019-08-20 18:00:00","orgNo":"1340626","typeCode":"计划停电","poweroffArea":"【全线路停电】停永乐村东南变压器柱变,永乐新增,三义小学二分校公用（煤）,永乐村村北,永乐村村南,上念头村东南【纯农排变】,保定市金阳房地产开发有限公司2,西丁小学北校区公用（煤）,建安阳光小区A(水榭春天),上念头村内,大石桥村西,永乐村村西,107国道涿州收费站,永乐村北新,大石桥村北,保定市金阳房地产开发有限公司1,下念头村西,上念头村大队变压器柱变,涿州市城市管理行政执法局,涿州市新发地农产品市场有限公司,大石桥村东,北京铁路局北京供电段,涿州市飞达技术学校,天立实业公司,涿州中学南,北京永济恒业房地产开发有限公司2,涿州中学校内,下念头5411,61846部队,0628311016-涿州佳裕房地产开发有限公司-专变-140461671-涿州佳裕房地产开发有限公司,大石桥村内,涿州市鑫峰金属制品有限公司,赛迪化工有限公司,0575282665-涿州佳裕房地产开发有限公司-专变-123954802-涿州佳裕房地产开发有限公司,下念头村内,涿州市鹏盛房地产开发有限公司1,双塔所（永乐村）,0552920812-涿州市恒基隆业房地产开发有限公司-专变-59562993-涿州市恒基隆业房地产开发有限公司,永乐村南新,涿州市鑫铁印刷有限公司,涿州市伯新海龙拔丝加工厂,涿州市鹏盛房地产开发有限公司2,建安阳光小区C(水榭春天),涿州市五环建材厂,北京永济恒业房地产开发有限公司1,上念头村大队东南,涿州市金泽伟业商贸有限公司,河北涿州中学,双塔所上念头村东变压器柱变【纯农排变】,涿州市锻造厂,北京永济恒业房地产开发有限公司3,上念头村西北,大石桥村,涿州市燕信加油站,光荣院3864,涿州市灏铖新型建材厂,涿州市润怀锻造厂","poweroffReason":"【停电原因】由于开关遥信位置远方与实际不对应导致１１０ＫＶ下胡良变电站１０ＫＶ永济５１５线路全线停电 【变更送电】无 【发布渠道】涿州电视台（０８月１０日至０８月１９日２１：００播放２次）屏幕上方滚动","powerTime":"2019-08-20 17:15:51","powerComm":"恢复送电","subsNo":"","lineNo":"","tgNo":"","tgName":null,"infoStatus":"1","orgName":"国网涿州市供电公司","typeName":null,"infoStatusName":null,"dateDay":null,"orgNos":null,"nowTime":null,"countyName":null,"streetName":null,"villageName":null,"roadName":null,"communityName":null,"tranName":null,"sdLineName":null,"cityCode":"1340626","cityName":"国网涿州市供电公司","provinceCode":null,"stopTime":"2019-08-20 18:00:00","powerType":"全部","powerOffArea":"【全线路停电】停永乐村东南变压器柱变,永乐新增,三义小学二分校公用（煤）,永乐村村北,永乐村村南,上念头村东南【纯农排变】,保定市金阳房地产开发有限公司2,西丁小学北校区公用（煤）,建安阳光小区A(水榭春天),上念头村内,大石桥村西,永乐村村西,107国道涿州收费站,永乐村北新,大石桥村北,保定市金阳房地产开发有限公司1,下念头村西,上念头村大队变压器柱变,涿州市城市管理行政执法局,涿州市新发地农产品市场有限公司,大石桥村东,北京铁路局北京供电段,涿州市飞达技术学校,天立实业公司,涿州中学南,北京永济恒业房地产开发有限公司2,涿州中学校内,下念头5411,61846部队,0628311016-涿州佳裕房地产开发有限公司-专变-140461671-涿州佳裕房地产开发有限公司,大石桥村内,涿州市鑫峰金属制品有限公司,赛迪化工有限公司,0575282665-涿州佳裕房地产开发有限公司-专变-123954802-涿州佳裕房地产开发有限公司,下念头村内,涿州市鹏盛房地产开发有限公司1,双塔所（永乐村）,0552920812-涿州市恒基隆业房地产开发有限公司-专变-59562993-涿州市恒基隆业房地产开发有限公司,永乐村南新,涿州市鑫铁印刷有限公司,涿州市伯新海龙拔丝加工厂,涿州市鹏盛房地产开发有限公司2,建安阳光小区C(水榭春天),涿州市五环建材厂,北京永济恒业房地产开发有限公司1,上念头村大队东南,涿州市金泽伟业商贸有限公司,河北涿州中学,双塔所上念头村东变压器柱变【纯农排变】,涿州市锻造厂,北京永济恒业房地产开发有限公司3,上念头村西北,大石桥村,涿州市燕信加油站,光荣院3864,涿州市灏铖新型建材厂,涿州市润怀锻造厂","powerOffReason":"【停电原因】由于开关遥信位置远方与实际不对应导致１１０ＫＶ下胡良变电站１０ＫＶ永济５１５线路全线停电 【变更送电】无 【发布渠道】涿州电视台（０８月１０日至０８月１９日２１：００播放２次）屏幕上方滚动","powerOffId":"2019081013000188"},{"poweroffId":2019081013000170,"sgpoweroffId":null,"subsName":"","lineName":"10kV南段庄线512","pubTranName":"大柳树内1,清苑县大柳树兴华织布厂,清苑县中汇纺织有限公司,保定市盛寻纺织品制造有限公司,和庄外4【纯农排变】,和庄外10【纯农排变】,大柳树外6【纯农排变】,南和庄外14【纯农排变】,大柳树外11【纯农排变】,蔡营内1,南和庄面粉厂,2南和庄外5【纯农排变】,1大柳树内5,大兴庄内2,南和庄建国面粉厂,南和庄内2,2南和庄外8【纯农排变】,南和庄外15【纯农排变】,大柳树小学配变,大树村外10【纯农排变】,1大柳树内10,清苑县蔡家营恒达绒线加工厂,南和庄拔丝厂,大柳树幼儿园配变,南邓村外1【纯农排变】,1南和庄内10,清苑县鑫丰轧花有限公司,和庄外2【纯农排变】,和庄外13【纯农排变】,大柳树织布厂,1南和庄内9,1南和庄内6,清苑县大柳树永兴织布厂,1南和庄内5,南和庄小学配变,大树外5【纯农排变】,1大柳树内9,蔡营内3,保定柳丰轧花有限公司,腾达毛纺厂,1大柳树内8,1大柳树内4,2南和庄外6【纯农排变】,清苑县宏强砼业有限公司,蔡营外2区【纯农排变】,2南和庄外7【纯农排变】,蔡营内2区,南和庄内4,大柳树内3,南和庄李广兴板厂,南和庄李建兴织布厂,1南和庄内3,1大柳树内7,和庄外12【纯农排变】,2大兴庄外2【纯农排变】,南和庄外11【纯农排变】,蔡营外1区【纯农排变】,2大兴庄外4【纯农排变】,蠡县宋庄金鑫纺织厂,蔡营季兴纺纱厂,清苑县南和庄泰林车床加工门市部,清苑县蔡营国强棉纺织厂,宋庄砖厂,和庄外9【纯农排变】,大柳树外7【纯农排变】,2大兴庄外3【纯农排变】,1南和庄内7,南和庄外17【纯农排变】,南和庄内1,和庄外3【纯农排变】,保定市清苑区辉煌纺织厂,大柳树外13【纯农排变】,大柳树外12【纯农排变】,清苑县宏宇纺织有限公司,大树村外8【纯农排变】,大树外4【纯农排变】,大柳树2号,大柳树兴华织布厂,南和庄外1【纯农排变】,1南和庄内8,大柳树外9【纯农排变】,1大兴庄内1,清苑县锦绣纺织有限公司,1大柳树内6,南和庄外16【纯农排变】,大柳树面粉厂,保定市弘织纺织厂,蠡县华泽针棉织厂,","scope":"【影响街道/乡镇】温仁乡 【高危重要客户】无 【影响客户】大柳树村、蔡营、大兴庄、南和庄","startTime":"2019-08-10 08:45:17","stopDate":"2019-08-10 12:00:00","orgNo":"1340618","typeCode":"电网故障停限电","poweroffArea":"【全线路停电】停蠡县华泽针棉织厂,蠡县宋庄金鑫纺织厂,蔡营季兴纺纱厂,清苑县南和庄泰林车床加工门市部,清苑县蔡营国强棉纺织厂,宋庄砖厂,和庄外9【纯农排变】,大柳树外7【纯农排变】,2大兴庄外3【纯农排变】,1南和庄内7,南和庄外17【纯农排变】,南和庄内1,和庄外3【纯农排变】,保定市清苑区辉煌纺织厂,大柳树外13【纯农排变】,大柳树外12【纯农排变】,清苑县宏宇纺织有限公司,大树村外8【纯农排变】,大树外4【纯农排变】,大柳树2号,大柳树兴华织布厂,南和庄外1【纯农排变】,1南和庄内8,大柳树外9【纯农排变】,1大兴庄内1,清苑县锦绣纺织有限公司,1大柳树内6,南和庄外16【纯农排变】,大柳树面粉厂,保定市弘织纺织厂,和庄外10【纯农排变】,大柳树外6【纯农排变】,南和庄外14【纯农排变】,大柳树外11【纯农排变】,蔡营内1,南和庄面粉厂,2南和庄外5【纯农排变】,大树村外10【纯农排变】,1大柳树内10,清苑县蔡家营恒达绒线加工厂,南和庄拔丝厂,大柳树幼儿园配变,南邓村外1【纯农排变】,1南和庄内10,清苑县鑫丰轧花有限公司,和庄外2【纯农排变】,和庄外13【纯农排变】,大柳树织布厂,1南和庄内9,1南和庄内6,清苑县大柳树永兴织布厂,蔡营内2区,南和庄内4,大柳树内3,1大柳树内5,大兴庄内2,南和庄建国面粉厂,大柳树内1,清苑县大柳树兴华织布厂,清苑县中汇纺织有限公司,保定市盛寻纺织品制造有限公司,和庄外4【纯农排变】,1南和庄内5,南和庄小学配变,大树外5【纯农排变】,1大柳树内9,蔡营内3,保定柳丰轧花有限公司,腾达毛纺厂,1大柳树内8,1大柳树内4,2南和庄外6【纯农排变】,清苑县宏强砼业有限公司,蔡营外2区【纯农排变】,2南和庄外7【纯农排变】,南和庄内2,2南和庄外8【纯农排变】,南和庄外15【纯农排变】,大柳树小学配变,南和庄李广兴板厂,南和庄李建兴织布厂,1南和庄内3,1大柳树内7,和庄外12【纯农排变】,2大兴庄外2【纯农排变】,南和庄外11【纯农排变】,蔡营外1区【纯农排变】,2大兴庄外4【纯农排变】","poweroffReason":"【停电原因】由于主干８４号杆电容烧毁导致３５ＫＶ王盘变电站１０ＫＶ南段庄线５１２线路全线停电 【变更送电】因抢修进度加快原因，送电时间由１５：００变更为１２：００ 【发布渠道】通过９５５９８发布","powerTime":"2019-08-10 11:26:29","powerComm":"冯斌通知已送电","subsNo":"","lineNo":"","tgNo":"","tgName":null,"infoStatus":"1","orgName":"国网清苑县供电公司","typeName":null,"infoStatusName":null,"dateDay":null,"orgNos":null,"nowTime":null,"countyName":null,"streetName":null,"villageName":null,"roadName":null,"communityName":null,"tranName":null,"sdLineName":null,"cityCode":"1340618","cityName":"国网清苑县供电公司","provinceCode":null,"stopTime":"2019-08-10 12:00:00","powerType":"全部","powerOffArea":"【全线路停电】停蠡县华泽针棉织厂,蠡县宋庄金鑫纺织厂,蔡营季兴纺纱厂,清苑县南和庄泰林车床加工门市部,清苑县蔡营国强棉纺织厂,宋庄砖厂,和庄外9【纯农排变】,大柳树外7【纯农排变】,2大兴庄外3【纯农排变】,1南和庄内7,南和庄外17【纯农排变】,南和庄内1,和庄外3【纯农排变】,保定市清苑区辉煌纺织厂,大柳树外13【纯农排变】,大柳树外12【纯农排变】,清苑县宏宇纺织有限公司,大树村外8【纯农排变】,大树外4【纯农排变】,大柳树2号,大柳树兴华织布厂,南和庄外1【纯农排变】,1南和庄内8,大柳树外9【纯农排变】,1大兴庄内1,清苑县锦绣纺织有限公司,1大柳树内6,南和庄外16【纯农排变】,大柳树面粉厂,保定市弘织纺织厂,和庄外10【纯农排变】,大柳树外6【纯农排变】,南和庄外14【纯农排变】,大柳树外11【纯农排变】,蔡营内1,南和庄面粉厂,2南和庄外5【纯农排变】,大树村外10【纯农排变】,1大柳树内10,清苑县蔡家营恒达绒线加工厂,南和庄拔丝厂,大柳树幼儿园配变,南邓村外1【纯农排变】,1南和庄内10,清苑县鑫丰轧花有限公司,和庄外2【纯农排变】,和庄外13【纯农排变】,大柳树织布厂,1南和庄内9,1南和庄内6,清苑县大柳树永兴织布厂,蔡营内2区,南和庄内4,大柳树内3,1大柳树内5,大兴庄内2,南和庄建国面粉厂,大柳树内1,清苑县大柳树兴华织布厂,清苑县中汇纺织有限公司,保定市盛寻纺织品制造有限公司,和庄外4【纯农排变】,1南和庄内5,南和庄小学配变,大树外5【纯农排变】,1大柳树内9,蔡营内3,保定柳丰轧花有限公司,腾达毛纺厂,1大柳树内8,1大柳树内4,2南和庄外6【纯农排变】,清苑县宏强砼业有限公司,蔡营外2区【纯农排变】,2南和庄外7【纯农排变】,南和庄内2,2南和庄外8【纯农排变】,南和庄外15【纯农排变】,大柳树小学配变,南和庄李广兴板厂,南和庄李建兴织布厂,1南和庄内3,1大柳树内7,和庄外12【纯农排变】,2大兴庄外2【纯农排变】,南和庄外11【纯农排变】,蔡营外1区【纯农排变】,2大兴庄外4【纯农排变】","powerOffReason":"【停电原因】由于主干８４号杆电容烧毁导致３５ＫＶ王盘变电站１０ＫＶ南段庄线５１２线路全线停电 【变更送电】因抢修进度加快原因，送电时间由１５：００变更为１２：００ 【发布渠道】通过９５５９８发布","powerOffId":"2019081013000170"},{"poweroffId":2019081013000138,"sgpoweroffId":null,"subsName":"","lineName":"10KV篷头线531","pubTranName":"平峪4台区,平峪电站,计鹿二台区,赵各庄南台区,涞水荣盛伟业房地产开发有限公司专变,小丰口村西台区,福山口一间房变压器,福山口一间房机井2台区,福山口村变压器,涞水荣发体育文化发展有限公司1000KVA专变,涞水荣盛伟业房地产开发有限公司KVA,荣盛伟业房地产开发有限公司1000KVA专变,计鹿村变压器（箱式变电站）间隔配电变压器,河东5台区,福山口2号井台区变压器,福山口许文永变压器,白涧邮政分局,涞水荣盛康旅投资有限公司新增变压器630KVA一台,计鹿砖厂,龙八港五台区变压器,白涧机井变压器,小丰口1号井台区变压器,赵各庄幼儿园台区,计鹿机井变压器【纯农排变】,福山口2,福山口机井,小丰口村,赵各庄苗圃场变压器,福山口3台区,荣盛伟业房地产1600KVA专变,赵各庄大街2台区,小丰口2号井台区变压器,计鹿四台区,福山口奔山变压器,董秀文,赵各庄派出所,计鹿村三台区,平峪村变压器,平峪（三台区）,0671532666-涞水荣盛伟业房地产开发有限公司-专变-212323038-涞水荣盛康旅投资有限公司630KVA,河东村开发区,北京铁路局北京供电段250KVA,赵各庄村变压器,河东4台区,龙八港二台区【纯农排变】,北砣生态园,赵各庄7台区,赵各庄砖厂,福山口3号井变压器,赵各庄（二台区）,赵各庄村大队后沟井【纯农排变】,白涧四台区,涞水县林建石材厂315KVA专变,龙八港中铺变压器,白涧十台区,河东村变压器【冬季供暖设施】,福山口芥葱港台区,【混全】小丰口村东,计鹿5台区,平峪5台区,平峪二台区变压器,小丰口村东3台区变压器,河东小巷口台区,福山口一间房机井1台区,涞水县云凯水泥制品有限公司400KVA,小丰口村东2台区,小丰口山神庙变压器,福山口小学台区【冬季供暖设施】,小丰口沙窝东变压器,赵各庄3,吕建良50KVA专变,河东3台区,涞水荣盛伟业房地产开发有限公司315KVA专变,小丰口扬水站变压器,小丰口上庄,涞水县林键石材厂315KVA专变,河北鼎拓房地产开发有限公司250KVA专变,中国移动通信集团河北有限公司保定分公司50KVA专变,涞水县国营赵各庄林场,赵各庄6台区,涞水县城乡建设投资有限公司新增变压器,赵各庄村大队1号井,福山口小北台区,涞水县恒瑞建筑工程有限公司315KVA专变,涞水荣发体育文化发展有限公司,涞水荣盛伟业房地产开发有限公司1250KVA专变,小丰口上庄2台区,城建公司100KV专变,赵各庄大街变压器,赵各庄大棚台区,河东2台区,福山口1号井台区变压器,","scope":"【影响街道/乡镇】赵各庄镇 【高危重要客户】无 【影响客户】福山口村、赵各庄村、河东村、计鹿村、平峪村、小丰口村、荣盛集团（计鹿）","startTime":"2019-08-10 09:30:00","stopDate":"2019-08-10 11:30:00","orgNo":"1340614","typeCode":"其他临时停电","poweroffArea":"【全线路停电】停平峪4台区,平峪电站,计鹿二台区,赵各庄南台区,涞水荣盛伟业房地产开发有限公司专变,小丰口村西台区,福山口一间房变压器,福山口一间房机井2台区,福山口村变压器,涞水荣发体育文化发展有限公司1000KVA专变,涞水荣盛伟业房地产开发有限公司KVA,荣盛伟业房地产开发有限公司1000KVA专变,计鹿村变压器（箱式变电站）间隔配电变压器,河东5台区,福山口2号井台区变压器,福山口许文永变压器,白涧邮政分局,涞水荣盛康旅投资有限公司新增变压器630KVA一台,计鹿砖厂,龙八港五台区变压器,白涧机井变压器,小丰口1号井台区变压器,赵各庄幼儿园台区,计鹿机井变压器【纯农排变】,福山口2,福山口机井,小丰口村,赵各庄苗圃场变压器,福山口3台区,荣盛伟业房地产1600KVA专变,赵各庄大街2台区,小丰口2号井台区变压器,计鹿四台区,福山口奔山变压器,董秀文,赵各庄派出所,计鹿村三台区,平峪村变压器,平峪（三台区）,0671532666-涞水荣盛伟业房地产开发有限公司-专变-212323038-涞水荣盛康旅投资有限公司630KVA,河东村开发区,北京铁路局北京供电段250KVA,赵各庄村变压器,河东4台区,龙八港二台区【纯农排变】,北砣生态园,赵各庄7台区,赵各庄砖厂,小丰口村东2台区,福山口3号井变压器,赵各庄（二台区）,赵各庄村大队后沟井【纯农排变】,白涧四台区,涞水县林建石材厂315KVA专变,龙八港中铺变压器,白涧十台区,河东村变压器【冬季供暖设施】,福山口芥葱港台区,【混全】小丰口村东,计鹿5台区,平峪5台区,平峪二台区变压器,小丰口村东3台区变压器,河东小巷口台区,福山口一间房机井1台区,涞水县云凯水泥制品有限公司400KVA,小丰口山神庙变压器,福山口1号井台区变压器,福山口小学台区【冬季供暖设施】,小丰口沙窝东变压器,赵各庄3,吕建良50KVA专变,河东3台区,涞水荣盛伟业房地产开发有限公司315KVA专变,小丰口扬水站变压器,小丰口上庄,涞水县林键石材厂315KVA专变,河北鼎拓房地产开发有限公司250KVA专变,中国移动通信集团河北有限公司保定分公司50KVA专变,涞水县国营赵各庄林场,赵各庄6台区,涞水县城乡建设投资有限公司新增变压器,赵各庄村大队1号井,福山口小北台区,涞水县恒瑞建筑工程有限公司315KVA专变,涞水荣发体育文化发展有限公司,涞水荣盛伟业房地产开发有限公司1250KVA专变,小丰口上庄2台区,城建公司100KV专变,赵各庄大街变压器,赵各庄大棚台区,河东2台区","poweroffReason":"【停电原因】由于电线打火，需停电进行紧急消缺导致１１０ＫＶ六顺变电站１０ＫＶ蓬头线５３１线路全线停电 【变更送电】无 【发布渠道】通过９５５９８发布","powerTime":"2019-08-10 11:21:45","powerComm":"已送电","subsNo":"","lineNo":"","tgNo":"","tgName":null,"infoStatus":"1","orgName":"国网涞水县供电公司","typeName":null,"infoStatusName":null,"dateDay":null,"orgNos":null,"nowTime":null,"countyName":null,"streetName":null,"villageName":null,"roadName":null,"communityName":null,"tranName":null,"sdLineName":null,"cityCode":"1340614","cityName":"国网涞水县供电公司","provinceCode":null,"stopTime":"2019-08-10 11:30:00","powerType":"全部","powerOffArea":"【全线路停电】停平峪4台区,平峪电站,计鹿二台区,赵各庄南台区,涞水荣盛伟业房地产开发有限公司专变,小丰口村西台区,福山口一间房变压器,福山口一间房机井2台区,福山口村变压器,涞水荣发体育文化发展有限公司1000KVA专变,涞水荣盛伟业房地产开发有限公司KVA,荣盛伟业房地产开发有限公司1000KVA专变,计鹿村变压器（箱式变电站）间隔配电变压器,河东5台区,福山口2号井台区变压器,福山口许文永变压器,白涧邮政分局,涞水荣盛康旅投资有限公司新增变压器630KVA一台,计鹿砖厂,龙八港五台区变压器,白涧机井变压器,小丰口1号井台区变压器,赵各庄幼儿园台区,计鹿机井变压器【纯农排变】,福山口2,福山口机井,小丰口村,赵各庄苗圃场变压器,福山口3台区,荣盛伟业房地产1600KVA专变,赵各庄大街2台区,小丰口2号井台区变压器,计鹿四台区,福山口奔山变压器,董秀文,赵各庄派出所,计鹿村三台区,平峪村变压器,平峪（三台区）,0671532666-涞水荣盛伟业房地产开发有限公司-专变-212323038-涞水荣盛康旅投资有限公司630KVA,河东村开发区,北京铁路局北京供电段250KVA,赵各庄村变压器,河东4台区,龙八港二台区【纯农排变】,北砣生态园,赵各庄7台区,赵各庄砖厂,小丰口村东2台区,福山口3号井变压器,赵各庄（二台区）,赵各庄村大队后沟井【纯农排变】,白涧四台区,涞水县林建石材厂315KVA专变,龙八港中铺变压器,白涧十台区,河东村变压器【冬季供暖设施】,福山口芥葱港台区,【混全】小丰口村东,计鹿5台区,平峪5台区,平峪二台区变压器,小丰口村东3台区变压器,河东小巷口台区,福山口一间房机井1台区,涞水县云凯水泥制品有限公司400KVA,小丰口山神庙变压器,福山口1号井台区变压器,福山口小学台区【冬季供暖设施】,小丰口沙窝东变压器,赵各庄3,吕建良50KVA专变,河东3台区,涞水荣盛伟业房地产开发有限公司315KVA专变,小丰口扬水站变压器,小丰口上庄,涞水县林键石材厂315KVA专变,河北鼎拓房地产开发有限公司250KVA专变,中国移动通信集团河北有限公司保定分公司50KVA专变,涞水县国营赵各庄林场,赵各庄6台区,涞水县城乡建设投资有限公司新增变压器,赵各庄村大队1号井,福山口小北台区,涞水县恒瑞建筑工程有限公司315KVA专变,涞水荣发体育文化发展有限公司,涞水荣盛伟业房地产开发有限公司1250KVA专变,小丰口上庄2台区,城建公司100KV专变,赵各庄大街变压器,赵各庄大棚台区,河东2台区","powerOffReason":"【停电原因】由于电线打火，需停电进行紧急消缺导致１１０ＫＶ六顺变电站１０ＫＶ蓬头线５３１线路全线停电 【变更送电】无 【发布渠道】通过９５５９８发布","powerOffId":"2019081013000138"},{"poweroffId":2019081013000129,"sgpoweroffId":null,"subsName":"","lineName":"10kV北环线514","pubTranName":"东租村内|0012,","scope":"【影响街道/乡镇】涞水镇 【高危重要客户】无 【影响客户】东租村","startTime":"2019-08-10 07:47:52","stopDate":"2019-08-10 09:00:00","orgNo":"1340614","typeCode":"电网故障停限电","poweroffArea":"【单台区停电】停东租村内|0012","poweroffReason":"【停电原因】由于弓子线烧毁导致１１０ＫＶ涞水变电站１０ＫＶ北环线５１４线路东租村内|００１２公变台区停电 【变更送电】无 【发布渠道】通过９５５９８发布","powerTime":"2019-08-10 08:52:34","powerComm":"已送电","subsNo":"","lineNo":"","tgNo":"","tgName":null,"infoStatus":"1","orgName":"国网涞水县供电公司","typeName":null,"infoStatusName":null,"dateDay":null,"orgNos":null,"nowTime":null,"countyName":null,"streetName":null,"villageName":null,"roadName":null,"communityName":null,"tranName":null,"sdLineName":null,"cityCode":"1340614","cityName":"国网涞水县供电公司","provinceCode":null,"stopTime":"2019-08-10 09:00:00","powerType":"全部","powerOffArea":"【单台区停电】停东租村内|0012","powerOffReason":"【停电原因】由于弓子线烧毁导致１１０ＫＶ涞水变电站１０ＫＶ北环线５１４线路东租村内|００１２公变台区停电 【变更送电】无 【发布渠道】通过９５５９８发布","powerOffId":"2019081013000129"}],"pageModel":{"pageNow":669,"totalCount":10973,"totalPage":1098,"tableRows":0,"pageCount":10,"beginCount":6680},"isExperi":"1"}