{"message":"","today":"2020-06-15","seleList":[{"poweroffId":2019080913000142,"sgpoweroffId":null,"subsName":"","lineName":"10kV祝泽站519线路","pubTranName":"C485柱上变压器,B1313柱上变压器,C273柱上变压器,B1178柱上变压器,","scope":"【影响街道/乡镇】乐凯南大街、建设南路、富昌乡 【高危重要客户】无 【影响客户】金属公司宿舍、列电东院、九中宿舍、前屯、保定市电力修造厂宿舍","startTime":"2019-08-09 10:00:00","stopDate":"2019-08-09 11:30:00","orgNo":"13406","typeCode":"电网故障停限电","poweroffArea":"【分支停电】停C485柱上变压器,B1313柱上变压器,C273柱上变压器,B1178柱上变压器","poweroffReason":"【停电原因】由于分支开关短路导致１０ＫＶ祝泽变电站５１９线路ＨＫ-０４环网柜３号间隔以下停电【变更送电】无【发布渠道】通过９５５９８发布","powerTime":"2019-08-09 11:19:54","powerComm":"已送电","subsNo":"","lineNo":"","tgNo":"","tgName":null,"infoStatus":"1","orgName":"保定供电公司","typeName":null,"infoStatusName":null,"dateDay":null,"orgNos":null,"nowTime":null,"countyName":null,"streetName":null,"villageName":null,"roadName":null,"communityName":null,"tranName":null,"sdLineName":null,"cityCode":"13406","cityName":"保定供电公司","provinceCode":null,"stopTime":"2019-08-09 11:30:00","powerType":"全部","powerOffArea":"【分支停电】停C485柱上变压器,B1313柱上变压器,C273柱上变压器,B1178柱上变压器","powerOffReason":"【停电原因】由于分支开关短路导致１０ＫＶ祝泽变电站５１９线路ＨＫ-０４环网柜３号间隔以下停电【变更送电】无【发布渠道】通过９５５９８发布","powerOffId":"2019080913000142"},{"poweroffId":2019080913000130,"sgpoweroffId":null,"subsName":"","lineName":"10kV521城南线","pubTranName":"东北寺家俱厂,东北寺面粉厂,天天面业,蠡县石油分公司,0682423366-河北长瑞房地产开发有限公司-专变-221693506-河北长瑞房地产开发有限公司,小朱皮毛厂4590,0546031618-蠡县嘉合纺织有限公司-专变-47811109-蠡县信远新型建筑材料制品厂变压器,南大留加油站,0469340857-铝合金加工厂-专变-46778891-铝合金加工厂,亚峰皮厂,北关霸王锅炉厂,0469339462-建民织布厂-专变-46778890-建民织布厂,中国移动通信集团河北有限公司蠡县分公司,王清源洗浴,王红建,河北长瑞房地产开发有限公司变压器,春生面粉厂3535,0653789097-河北华萃房地产开发有限公司经济适用房-专变-183720926-河北华萃房地产开发有限公司经济适用房,新华油毡厂,亚军织布厂,0657268512-蠡县君鹏房地产开发有限公司-专变-191116389-蠡县君鹏房地产开发有限公司变压器,东方明珠,蠡县育才初级中学变压器,溢源棉织厂3232,0678851847-蠡县鑫诚房地产开发有限公司-专变-219697092-蠡县鑫诚房地产开发有限公司变压器,河北双丰饮品有限公司变压器,商城东北门脸综合二台区出线间隔配电变压器,蠡县兴达货运有限公司变压器,0678851847-蠡县鑫诚房地产开发有限公司-专变-219697086-蠡县鑫诚房地产开发有限公司变压器,商城西南门脸综合三台区箱变出线间隔配电变压器,第七十六加油站,蠡县盛世鑫源人造皮毛厂,蠡县天佳人造皮毛厂变压器,兴达货运变压器,蠡县北关进学织布厂,里县佰丽纺织有限公司5955,0469339622-蠡县嘉合纺织有限公司-专变-46778955-蠡县佳利纺织有限公司,0648953720-蠡县安顺汽车商贸有限公司-专变-174065963-蠡县安顺汽车商贸有限公司变压器,蠡县晨希纺纱厂,东北寺立忠无纺织物厂变压器,东北寺综合11台区变压器,蠡县天慈团绒厂,邢台市龙翔钻探有限公司变压器,永林面粉厂,0678851847-蠡县鑫诚房地产开发有限公司-专变-219697094-蠡县鑫诚房地产开发有限公司变压器,蠡县公安局变压器,陈占广织布,兴达铁芯厂,东北寺综合八台区变压器,蠡县东北寺永发建筑材料经销部变压器,蠡县富美达手套厂变压器,0678851847-蠡县鑫诚房地产开发有限公司-专变-219697088-蠡县鑫诚房地产开发有限公司变压器,商城西北门脸综合四台区出线间隔配电变压器,金都丽景综合一台区出线间隔配电变压器,崔小卓,长瑞小区北环综合6台区出线间隔配电变压器,蠡县东北寺正亮卫生纸分装厂变压器,保定泰华房地产开发有限公司变压器,蠡县阳光纺纱厂,蠡县城北康源织布厂变压器,0678851847-蠡县鑫诚房地产开发有限公司-专变-219697090-蠡县鑫诚房地产开发有限公司变压器,0682423366-河北长瑞房地产开发有限公司-专变-221691236-河北长瑞房地产开发有限公司,保蠡皮毛厂,进学织布厂,","scope":"【影响街道/乡镇】蠡吾镇、北环大街【高危重要客户】无【影响客户】蠡州商城、鑫鑫小区、君鹏尚品小区、长瑞锦城三、四期、辛兴小区、金都丽景、东北寺村、蠡县第三实验小学、蠡县公安局（新楼）、蠡县阳光纺纱厂、蠡县育才初级中学、光明家具城、佰丽纺织有限公司、进学织布厂、兴达铁芯厂、康源织布厂、亚军织布厂、保蠡皮毛厂、保定永汇建筑工程有限公司、佳利纺织公司、蠡县盛世鑫源人造皮毛厂、小陈农村信用合作社、南大留加油站、蠡县电影院","startTime":"2019-08-09 11:20:00","stopDate":"2019-08-09 14:00:00","orgNo":"1340616","typeCode":"其他临时停电","poweroffArea":"【全线路停电】停蠡县东北寺正亮卫生纸分装厂变压器,春生面粉厂3535,北关霸王锅炉厂,东方明珠,蠡县城北康源织布厂变压器,蠡县阳光纺纱厂,亚军织布厂,0653789097-河北华萃房地产开发有限公司经济适用房-专变-183720926-河北华萃房地产开发有限公司经济适用房,蠡县晨希纺纱厂,兴达铁芯厂,0657268512-蠡县君鹏房地产开发有限公司-专变-191116389-蠡县君鹏房地产开发有限公司变压器,河北长瑞房地产开发有限公司变压器,王红建,新华油毡厂,蠡县育才初级中学变压器,保定泰华房地产开发有限公司变压器,0678851847-蠡县鑫诚房地产开发有限公司-专变-219697094-蠡县鑫诚房地产开发有限公司变压器,东北寺面粉厂,蠡县公安局变压器,0678851847-蠡县鑫诚房地产开发有限公司-专变-219697090-蠡县鑫诚房地产开发有限公司变压器,蠡县天慈团绒厂,王清源洗浴,蠡县盛世鑫源人造皮毛厂,东北寺综合八台区变压器,0546031618-蠡县嘉合纺织有限公司-专变-47811109-蠡县信远新型建筑材料制品厂变压器,保蠡皮毛厂,南大留加油站,陈占广织布,商城西北门脸综合四台区出线间隔配电变压器,商城西南门脸综合三台区箱变出线间隔配电变压器,小朱皮毛厂4590,永林面粉厂,蠡县北关进学织布厂,蠡县天佳人造皮毛厂变压器,长瑞小区北环综合6台区出线间隔配电变压器,天天面业,0678851847-蠡县鑫诚房地产开发有限公司-专变-219697086-蠡县鑫诚房地产开发有限公司变压器,溢源棉织厂3232,东北寺立忠无纺织物厂变压器,蠡县兴达货运有限公司变压器,兴达货运变压器,蠡县石油分公司,进学织布厂,0469340857-铝合金加工厂-专变-46778891-铝合金加工厂,金都丽景综合一台区出线间隔配电变压器,东北寺家俱厂,0678851847-蠡县鑫诚房地产开发有限公司-专变-219697092-蠡县鑫诚房地产开发有限公司变压器,蠡县东北寺永发建筑材料经销部变压器,蠡县富美达手套厂变压器,中国移动通信集团河北有限公司蠡县分公司,第七十六加油站,东北寺综合11台区变压器,商城东北门脸综合二台区出线间隔配电变压器,0648953720-蠡县安顺汽车商贸有限公司-专变-174065963-蠡县安顺汽车商贸有限公司变压器,0678851847-蠡县鑫诚房地产开发有限公司-专变-219697088-蠡县鑫诚房地产开发有限公司变压器,0682423366-河北长瑞房地产开发有限公司-专变-221691236-河北长瑞房地产开发有限公司,亚峰皮厂,0469339622-蠡县嘉合纺织有限公司-专变-46778955-蠡县佳利纺织有限公司,0469339462-建民织布厂-专变-46778890-建民织布厂,邢台市龙翔钻探有限公司变压器,河北双丰饮品有限公司变压器,里县佰丽纺织有限公司5955,0682423366-河北长瑞房地产开发有限公司-专变-221693506-河北长瑞房地产开发有限公司,崔小卓","poweroffReason":"【停电原因】由于线路严重缺陷，需停电进行紧急消缺导致２２０ＫＶ蠡县变电站１０ＫＶ城南５２１线路全线停电【变更送电】无【发布渠道】通过９５５９８发布","powerTime":"2019-08-09 13:01:13","powerComm":"已送电","subsNo":"","lineNo":"","tgNo":"","tgName":null,"infoStatus":"1","orgName":"国网蠡县供电公司","typeName":null,"infoStatusName":null,"dateDay":null,"orgNos":null,"nowTime":null,"countyName":null,"streetName":null,"villageName":null,"roadName":null,"communityName":null,"tranName":null,"sdLineName":null,"cityCode":"1340616","cityName":"国网蠡县供电公司","provinceCode":null,"stopTime":"2019-08-09 14:00:00","powerType":"全部","powerOffArea":"【全线路停电】停蠡县东北寺正亮卫生纸分装厂变压器,春生面粉厂3535,北关霸王锅炉厂,东方明珠,蠡县城北康源织布厂变压器,蠡县阳光纺纱厂,亚军织布厂,0653789097-河北华萃房地产开发有限公司经济适用房-专变-183720926-河北华萃房地产开发有限公司经济适用房,蠡县晨希纺纱厂,兴达铁芯厂,0657268512-蠡县君鹏房地产开发有限公司-专变-191116389-蠡县君鹏房地产开发有限公司变压器,河北长瑞房地产开发有限公司变压器,王红建,新华油毡厂,蠡县育才初级中学变压器,保定泰华房地产开发有限公司变压器,0678851847-蠡县鑫诚房地产开发有限公司-专变-219697094-蠡县鑫诚房地产开发有限公司变压器,东北寺面粉厂,蠡县公安局变压器,0678851847-蠡县鑫诚房地产开发有限公司-专变-219697090-蠡县鑫诚房地产开发有限公司变压器,蠡县天慈团绒厂,王清源洗浴,蠡县盛世鑫源人造皮毛厂,东北寺综合八台区变压器,0546031618-蠡县嘉合纺织有限公司-专变-47811109-蠡县信远新型建筑材料制品厂变压器,保蠡皮毛厂,南大留加油站,陈占广织布,商城西北门脸综合四台区出线间隔配电变压器,商城西南门脸综合三台区箱变出线间隔配电变压器,小朱皮毛厂4590,永林面粉厂,蠡县北关进学织布厂,蠡县天佳人造皮毛厂变压器,长瑞小区北环综合6台区出线间隔配电变压器,天天面业,0678851847-蠡县鑫诚房地产开发有限公司-专变-219697086-蠡县鑫诚房地产开发有限公司变压器,溢源棉织厂3232,东北寺立忠无纺织物厂变压器,蠡县兴达货运有限公司变压器,兴达货运变压器,蠡县石油分公司,进学织布厂,0469340857-铝合金加工厂-专变-46778891-铝合金加工厂,金都丽景综合一台区出线间隔配电变压器,东北寺家俱厂,0678851847-蠡县鑫诚房地产开发有限公司-专变-219697092-蠡县鑫诚房地产开发有限公司变压器,蠡县东北寺永发建筑材料经销部变压器,蠡县富美达手套厂变压器,中国移动通信集团河北有限公司蠡县分公司,第七十六加油站,东北寺综合11台区变压器,商城东北门脸综合二台区出线间隔配电变压器,0648953720-蠡县安顺汽车商贸有限公司-专变-174065963-蠡县安顺汽车商贸有限公司变压器,0678851847-蠡县鑫诚房地产开发有限公司-专变-219697088-蠡县鑫诚房地产开发有限公司变压器,0682423366-河北长瑞房地产开发有限公司-专变-221691236-河北长瑞房地产开发有限公司,亚峰皮厂,0469339622-蠡县嘉合纺织有限公司-专变-46778955-蠡县佳利纺织有限公司,0469339462-建民织布厂-专变-46778890-建民织布厂,邢台市龙翔钻探有限公司变压器,河北双丰饮品有限公司变压器,里县佰丽纺织有限公司5955,0682423366-河北长瑞房地产开发有限公司-专变-221693506-河北长瑞房地产开发有限公司,崔小卓","powerOffReason":"【停电原因】由于线路严重缺陷，需停电进行紧急消缺导致２２０ＫＶ蠡县变电站１０ＫＶ城南５２１线路全线停电【变更送电】无【发布渠道】通过９５５９８发布","powerOffId":"2019080913000130"},{"poweroffId":2019080913000126,"sgpoweroffId":null,"subsName":"","lineName":"10KV东管头551","pubTranName":"北良村西4429,","scope":"【影响街道/乡镇】林屯乡 【高危重要客户】无 【影响客户】北良沟村","startTime":"2019-08-09 09:56:13","stopDate":"2019-08-09 11:30:00","orgNo":"1340626","typeCode":"电网故障停限电","poweroffArea":"【单台区停电】停北良村西4429","poweroffReason":"【停电原因】由于低压保险烧毁导致１１０ＫＶ松林店变电站１０ＫＶ东管头５５１线路北良村西４４２９公变台区停电 【变更送电】因抢修进度加快原因，送电时间由１９：００变更为１１：３０ 【发布渠道】通过９５５９８发布","powerTime":"2019-08-09 10:56:35","powerComm":"恢复送电","subsNo":"","lineNo":"","tgNo":"","tgName":null,"infoStatus":"1","orgName":"国网涿州市供电公司","typeName":null,"infoStatusName":null,"dateDay":null,"orgNos":null,"nowTime":null,"countyName":null,"streetName":null,"villageName":null,"roadName":null,"communityName":null,"tranName":null,"sdLineName":null,"cityCode":"1340626","cityName":"国网涿州市供电公司","provinceCode":null,"stopTime":"2019-08-09 11:30:00","powerType":"全部","powerOffArea":"【单台区停电】停北良村西4429","powerOffReason":"【停电原因】由于低压保险烧毁导致１１０ＫＶ松林店变电站１０ＫＶ东管头５５１线路北良村西４４２９公变台区停电 【变更送电】因抢修进度加快原因，送电时间由１９：００变更为１１：３０ 【发布渠道】通过９５５９８发布","powerOffId":"2019080913000126"},{"poweroffId":2019080913000114,"sgpoweroffId":null,"subsName":"","lineName":"悦百汇522","pubTranName":"东盛麻家营5变压器,高碑店市佰特商贸有限公司3#变压器,东盛国土资源局变压器,东盛2号公变变压器,高碑店市佰特商贸有限公司变压器,河北隆泰物业服务有限责任公司变压器,高碑店市麻家营勤劳外婆快餐店,东盛麻家营南变压器,高碑店市城市管理综合执法局世纪大道1号,高碑店市铁岩钢板桩有限公司,东盛麻家营北变压器,高碑店市佰特商贸有限公司5#变压器,高碑店市佰特商贸有限公司2#变压器,东盛麻家营3变压器,东盛麻家营新变压器,高碑店市佰特商贸有限公司1#变压器,高碑店市佰特商贸有限公司6#变压器,河北隆泰物业服务有限公司变压器,高碑店市佰特商贸有限公司4#变压器,天阔第一城,高碑店市明盛达建筑有限公司,","scope":"【影响街道/乡镇】东盛办事处、世纪大街、五一路 【高危重要客户】无 【影响客户】麻家营村、国土资源局、国土资源局小区、紫金园小区、保定银行、隆基泰和置业、麻家营勤劳外婆快餐店、悦百汇","startTime":"2019-08-09 09:31:48","stopDate":"2019-08-09 20:30:00","orgNo":"1340612","typeCode":"电网故障停限电","poweroffArea":"【全线路停电】停东盛麻家营新变压器,高碑店市佰特商贸有限公司1#变压器,高碑店市佰特商贸有限公司6#变压器,河北隆泰物业服务有限公司变压器,高碑店市佰特商贸有限公司4#变压器,天阔第一城,东盛麻家营5变压器,高碑店市明盛达建筑有限公司,高碑店市佰特商贸有限公司3#变压器,东盛国土资源局变压器,东盛2号公变变压器,高碑店市佰特商贸有限公司变压器,河北隆泰物业服务有限责任公司变压器,高碑店市麻家营勤劳外婆快餐店,东盛麻家营南变压器,高碑店市城市管理综合执法局世纪大道1号,高碑店市铁岩钢板桩有限公司,东盛麻家营北变压器,高碑店市佰特商贸有限公司5#变压器,高碑店市佰特商贸有限公司2#变压器,东盛麻家营3变压器","poweroffReason":"【停电原因】由于主干环网柜烧毁导致１１０ＫＶ马庄变电站１０ＫＶ悦百汇５２２线路全线停电 【变更送电】因抢修进度加快原因，送电时间由１０日０９：００变更为９日２０：３０ 【发布渠道】通过９５５９８发布","powerTime":"2019-08-09 19:57:15","powerComm":"已送电","subsNo":"","lineNo":"","tgNo":"","tgName":null,"infoStatus":"1","orgName":"国网高碑店市供电公司","typeName":null,"infoStatusName":null,"dateDay":null,"orgNos":null,"nowTime":null,"countyName":null,"streetName":null,"villageName":null,"roadName":null,"communityName":null,"tranName":null,"sdLineName":null,"cityCode":"1340612","cityName":"国网高碑店市供电公司","provinceCode":null,"stopTime":"2019-08-09 20:30:00","powerType":"全部","powerOffArea":"【全线路停电】停东盛麻家营新变压器,高碑店市佰特商贸有限公司1#变压器,高碑店市佰特商贸有限公司6#变压器,河北隆泰物业服务有限公司变压器,高碑店市佰特商贸有限公司4#变压器,天阔第一城,东盛麻家营5变压器,高碑店市明盛达建筑有限公司,高碑店市佰特商贸有限公司3#变压器,东盛国土资源局变压器,东盛2号公变变压器,高碑店市佰特商贸有限公司变压器,河北隆泰物业服务有限责任公司变压器,高碑店市麻家营勤劳外婆快餐店,东盛麻家营南变压器,高碑店市城市管理综合执法局世纪大道1号,高碑店市铁岩钢板桩有限公司,东盛麻家营北变压器,高碑店市佰特商贸有限公司5#变压器,高碑店市佰特商贸有限公司2#变压器,东盛麻家营3变压器","powerOffReason":"【停电原因】由于主干环网柜烧毁导致１１０ＫＶ马庄变电站１０ＫＶ悦百汇５２２线路全线停电 【变更送电】因抢修进度加快原因，送电时间由１０日０９：００变更为９日２０：３０ 【发布渠道】通过９５５９８发布","powerOffId":"2019080913000114"},{"poweroffId":2019080913000109,"sgpoweroffId":null,"subsName":"","lineName":"工业线517","pubTranName":"自来水公司—100,贯鸿地产315-2,繁星街南延1号箱变配电变压器,0469288621-定兴金祥德制帽有限公司-专变-183744134-金祥德-200,1000,定兴县巴兴火锅店-250,0681719547-定兴县教育局-专变-220701795-第四小学-630,贯鸿地产315-1,小店光6,大沟村光3,定兴县通利达汽车贸易有限公司,四街桥头公用2,0692104840-定兴县北控环境服务有限公司-专变-235672589-北控环境-100,盛德机械部件有限公司,繁星街南延2号箱变配电变压器,康源洗衣-200,0011676761定兴县金鹏帽业有限公司,海龙冷冻食品,嘉会庄光2,金凯利包装厂-400,建行-200,京通客运-500,京通客运—500,0546834640-河北金鹏帽业有限公司-专变-47916142-金鹏帽业2,华艺制帽-250,小店路东光3,0636254730-*河北马大姐食品有限公司-专变-148240755-马大姐-1000,河北马大姐食品有限公司200,0552335810-*定兴县朗坤水处理技术服务有限公司-专变-50553881-污水处理800-2,0011676704*定兴自来水公司,合盛制帽厂250变压器,水榭康都-315,韩庄光2,0469093197-定兴县沛林综合商店-专变-46718544-*定兴县华新建筑材料厂,四街桥头公用【2018年重过载】,看守所公用,马大姐2号变—1000,河北森富达木包装制品厂,京通客运100变压器,汇丰公用2【2018年节能变】,韩庄光4,","scope":"【影响街道/乡镇】定兴镇、繁兴街、南引路 【高危重要客户】无 【影响客户】自来水公司、建设银行、四街村桥头、华新建材城、贯鸿房地产、华兴、金地、福利厂、海龙冷冻食品、恒河机械、鑫超盛建筑公司、北京世代小区、金凯利包装厂、盛德机械部件有限公司、河北森富达木包装制品厂、华艺制帽、京通客运有限公司、金祥德制帽有限公司、马大姐食品、定兴县教育局、定兴县鑫明华印刷厂、北控环境服务有限公司、朗坤水处理技术服务有限公司、海龙冷冻食品、水榭康都小区、星宇物业、合盛制帽、第四实验小学、通利达汽车贸易有限公司、韩庄、大沟、小店村、东风南方汽车销售服务有限公司、康源洗衣服务有限公司、金鹏帽业有限公司、看守所、武警中队","startTime":"2019-08-09 09:25:15","stopDate":"2019-08-09 10:30:00","orgNo":"1340609","typeCode":"电网故障停限电","poweroffArea":"【全线路停电】停繁星街南延2号箱变配电变压器,康源洗衣-200,0011676761定兴县金鹏帽业有限公司,海龙冷冻食品,嘉会庄光2,金凯利包装厂-400,建行-200,京通客运-500,京通客运—500,0546834640-河北金鹏帽业有限公司-专变-47916142-金鹏帽业2,华艺制帽-250,小店路东光3,0636254730-*河北马大姐食品有限公司-专变-148240755-马大姐-1000,河北马大姐食品有限公司200,盛德机械部件有限公司,0552335810-*定兴县朗坤水处理技术服务有限公司-专变-50553881-污水处理800-2,0011676704*定兴自来水公司,合盛制帽厂250变压器,水榭康都-315,韩庄光2,0469093197-定兴县c-专变-46718544-*定兴县华新建筑材料厂,四街桥头公用【2018年重过载】,看守所公用,马大姐2号变—1000,河北森富达木包装制品厂,京通客运100变压器,汇丰公用2【2018年节能变】,韩庄光4,自来水公司—100,贯鸿地产315-2,0469288621-定兴金祥德制帽有限公司-专变-183744134-金祥德-200,繁星街南延1号箱变配电变压器,1000,定兴县巴兴火锅店-250,0681719547-定兴县教育局-专变-220701795-第四小学-630,贯鸿地产315-1,小店光6,大沟村光3,定兴县通利达汽车贸易有限公司,四街桥头公用2,0692104840-定兴县北控环境服务有限公司-专变-235672589-北控环境-100","poweroffReason":"【停电原因】由于看守所分支电缆遭外力破坏导致３５ＫＶ城关变电站工业线５１７线路全线停电 【变更送电】因抢修进度加快原因，送电时间由１６：００变更为１０：３０ 【发布渠道】通过９５５９８发布","powerTime":"2019-08-09 10:13:52","powerComm":"已送电","subsNo":"","lineNo":"","tgNo":"","tgName":null,"infoStatus":"1","orgName":"国网定兴县供电公司","typeName":null,"infoStatusName":null,"dateDay":null,"orgNos":null,"nowTime":null,"countyName":null,"streetName":null,"villageName":null,"roadName":null,"communityName":null,"tranName":null,"sdLineName":null,"cityCode":"1340609","cityName":"国网定兴县供电公司","provinceCode":null,"stopTime":"2019-08-09 10:30:00","powerType":"全部","powerOffArea":"【全线路停电】停繁星街南延2号箱变配电变压器,康源洗衣-200,0011676761定兴县金鹏帽业有限公司,海龙冷冻食品,嘉会庄光2,金凯利包装厂-400,建行-200,京通客运-500,京通客运—500,0546834640-河北金鹏帽业有限公司-专变-47916142-金鹏帽业2,华艺制帽-250,小店路东光3,0636254730-*河北马大姐食品有限公司-专变-148240755-马大姐-1000,河北马大姐食品有限公司200,盛德机械部件有限公司,0552335810-*定兴县朗坤水处理技术服务有限公司-专变-50553881-污水处理800-2,0011676704*定兴自来水公司,合盛制帽厂250变压器,水榭康都-315,韩庄光2,0469093197-定兴县c-专变-46718544-*定兴县华新建筑材料厂,四街桥头公用【2018年重过载】,看守所公用,马大姐2号变—1000,河北森富达木包装制品厂,京通客运100变压器,汇丰公用2【2018年节能变】,韩庄光4,自来水公司—100,贯鸿地产315-2,0469288621-定兴金祥德制帽有限公司-专变-183744134-金祥德-200,繁星街南延1号箱变配电变压器,1000,定兴县巴兴火锅店-250,0681719547-定兴县教育局-专变-220701795-第四小学-630,贯鸿地产315-1,小店光6,大沟村光3,定兴县通利达汽车贸易有限公司,四街桥头公用2,0692104840-定兴县北控环境服务有限公司-专变-235672589-北控环境-100","powerOffReason":"【停电原因】由于看守所分支电缆遭外力破坏导致３５ＫＶ城关变电站工业线５１７线路全线停电 【变更送电】因抢修进度加快原因，送电时间由１６：００变更为１０：３０ 【发布渠道】通过９５５９８发布","powerOffId":"2019080913000109"},{"poweroffId":2019080913000093,"sgpoweroffId":null,"subsName":"","lineName":"防陵线515","pubTranName":"防陵5号,大东张22号【纯农排变】,保定中茂能源有限公司,防陵22号【纯农排变】,防陵14号【纯农排变】,防陵10号,大东张21号【纯农排变】,王村3号【纯农排变】,小因5号【纯农排变】,大东张4号,大东张9号【纯农排变】,防陵16号【纯农排变】,防陵31号,小因15号,防陵4号,小因11号,防陵15号【纯农排变】,防陵12号【纯农排变】,小因4号,防陵8号【纯农排变】,客户投资_防陵25号,保定市徐水区大因镇小因幼儿园,小因2号【纯农排变】,小因7号,防陵18号【纯农排变】,河北新大畜牧有限公司,客户投资_防陵2号,防陵17号【纯农排变】,小因18号,小因10号,小因9号【纯农排变】,防陵7号【纯农排变】,小因6号【纯农排变】,防陵19号【纯农排变】,防陵1号,防陵30号,防陵6号【纯农排变】,小因8号,小因16号,小因1号【纯农排变】,大东张18号,防陵20号【纯农排变】,大东张15号,徐水县天辅煜管件制造有限公司,任庄6号【纯农排变】,保定市徐水区大因镇防陵小学,任庄9号【纯农排变】,防陵28号,大因供电所1号【纯农排变】,任庄14号【纯农排变】,小因3号【纯农排变】,大东张10号【纯农排变】,小因14号,小因17号【纯农排变】,防陵13号【纯农排变】,防陵23号【纯农排变】,防陵29号,防陵26号【纯农排变】,小因13号,大东张2号,防陵3号,保定市徐水区大因镇大东张小学,防陵21号,防陵24号,王村5号【纯农排变】,防陵27号,小因12号,防陵11号【纯农排变】,防陵9号【纯农排变】,","scope":"【影响街道/乡镇】大因镇 【高危重要客户】无 【影响客户】防凌、大东张、王村、小因、任庄","startTime":"2019-08-09 08:45:53","stopDate":"2019-08-09 18:00:00","orgNo":"1340605","typeCode":"超电网供电能力停限电","poweroffArea":"【全线路停电】停防陵5号,大东张22号【纯农排变】,保定中茂能源有限公司,防陵22号【纯农排变】,防陵14号【纯农排变】,防陵10号,大东张21号【纯农排变】,王村3号【纯农排变】,小因5号【纯农排变】,大东张4号,大东张9号【纯农排变】,防陵16号【纯农排变】,防陵31号,小因15号,防陵4号,小因11号,防陵15号【纯农排变】,防陵12号【纯农排变】,小因4号,防陵8号【纯农排变】,客户投资_防陵25号,保定市徐水区大因镇小因幼儿园,小因2号【纯农排变】,小因7号,防陵18号【纯农排变】,河北新大畜牧有限公司,客户投资_防陵2号,防陵17号【纯农排变】,小因18号,小因10号,小因9号【纯农排变】,防陵7号【纯农排变】,小因6号【纯农排变】,防陵19号【纯农排变】,防陵1号,防陵30号,防陵6号【纯农排变】,小因8号,小因16号,小因1号【纯农排变】,大东张18号,防陵20号【纯农排变】,大东张15号,徐水县天辅煜管件制造有限公司,任庄6号【纯农排变】,保定市徐水区大因镇防陵小学,任庄9号【纯农排变】,防陵28号,大因供电所1号【纯农排变】,任庄14号【纯农排变】,小因3号【纯农排变】,大东张10号【纯农排变】,小因14号,小因17号【纯农排变】,防陵13号【纯农排变】,防陵23号【纯农排变】,防陵29号,防陵26号【纯农排变】,小因13号,大东张2号,防陵3号,保定市徐水区大因镇大东张小学,防陵21号,防陵24号,王村5号【纯农排变】,防陵27号,小因12号,防陵11号【纯农排变】,防陵9号【纯农排变】","poweroffReason":"【停电原因】由于主变过负荷导致３５ＫＶ大因变电站１０ＫＶ防凌５１５线路全线停电 【变更送电】无 【发布渠道】通过９５５９８发布","powerTime":"2019-08-09 17:08:07","powerComm":"已送电","subsNo":"","lineNo":"","tgNo":"","tgName":null,"infoStatus":"1","orgName":"国网徐水县供电公司","typeName":null,"infoStatusName":null,"dateDay":null,"orgNos":null,"nowTime":null,"countyName":null,"streetName":null,"villageName":null,"roadName":null,"communityName":null,"tranName":null,"sdLineName":null,"cityCode":"1340605","cityName":"国网徐水县供电公司","provinceCode":null,"stopTime":"2019-08-09 18:00:00","powerType":"全部","powerOffArea":"【全线路停电】停防陵5号,大东张22号【纯农排变】,保定中茂能源有限公司,防陵22号【纯农排变】,防陵14号【纯农排变】,防陵10号,大东张21号【纯农排变】,王村3号【纯农排变】,小因5号【纯农排变】,大东张4号,大东张9号【纯农排变】,防陵16号【纯农排变】,防陵31号,小因15号,防陵4号,小因11号,防陵15号【纯农排变】,防陵12号【纯农排变】,小因4号,防陵8号【纯农排变】,客户投资_防陵25号,保定市徐水区大因镇小因幼儿园,小因2号【纯农排变】,小因7号,防陵18号【纯农排变】,河北新大畜牧有限公司,客户投资_防陵2号,防陵17号【纯农排变】,小因18号,小因10号,小因9号【纯农排变】,防陵7号【纯农排变】,小因6号【纯农排变】,防陵19号【纯农排变】,防陵1号,防陵30号,防陵6号【纯农排变】,小因8号,小因16号,小因1号【纯农排变】,大东张18号,防陵20号【纯农排变】,大东张15号,徐水县天辅煜管件制造有限公司,任庄6号【纯农排变】,保定市徐水区大因镇防陵小学,任庄9号【纯农排变】,防陵28号,大因供电所1号【纯农排变】,任庄14号【纯农排变】,小因3号【纯农排变】,大东张10号【纯农排变】,小因14号,小因17号【纯农排变】,防陵13号【纯农排变】,防陵23号【纯农排变】,防陵29号,防陵26号【纯农排变】,小因13号,大东张2号,防陵3号,保定市徐水区大因镇大东张小学,防陵21号,防陵24号,王村5号【纯农排变】,防陵27号,小因12号,防陵11号【纯农排变】,防陵9号【纯农排变】","powerOffReason":"【停电原因】由于主变过负荷导致３５ＫＶ大因变电站１０ＫＶ防凌５１５线路全线停电 【变更送电】无 【发布渠道】通过９５５９８发布","powerOffId":"2019080913000093"},{"poweroffId":2019080913000091,"sgpoweroffId":null,"subsName":"","lineName":"10kV525城内线","pubTranName":"0686041319-保定华正物业管理有限公司-专变-226994088-保定华正物业管理有限公司,中医院对过,北关农排综合二台区变压器【纯农排变】,电力局北楼,安监局,北关综合一台区变压器,农林局东路灯,库房,鲁军良,蠡县兰柱机动车检测有限公司变压器,工区,蠡吾北大街综合六台区变压器,农林局西路灯,北关小区供暖变压器,北关综合三台区变压器,蠡县辉弘人造皮毛厂变压器,蠡吾南大街综合八台区变压器,交警队家属院,北关家属院,交通局,保险公司小区综合一台区变压器,蠡县塑料,紫薇东路一台区箱变出线间隔配电变压器,新兴厂高计,亚华纺纱厂,国旺新区综合一台区变压器,人保公司,北关西,北关毛纺厂,蠡吾北大街综合三台区变压器,东北街综合二台区变压器,东电小区泵房,蠡吾北大街综合二台区变压器,北关综合二台区变压器,北关综合四台区变压器,蠡吾南大街综合六台区变压器,华鑫生物饲料厂变压器,蠡吾北大街综合一台区变压器,国立新区,国旺新区综合二台区变压器,北关农排综合一台区变压器【纯农排变】,蠡吾北大街综合四台区变压器,0671339384-蠡县天河物业管理有限公司-专变-214300505-蠡县天河物业管理有限公司变压器,河北开原纺织有限公司,北关村北,自来水市场,蠡吾北大街综合五台区变压器,","scope":"【影响街道/乡镇】蠡吾镇、蠡吾北大街【高危重要客户】无【影响客户】安监局、安监局小区、人保公司、农林局、养路工区、检测站、老交通局、开原纺织、 中医院对过、国旺新区、交警队家属院、保险公司小区、北关村、国立新区、工行门口、西广场以北老电力局以南、怡园小区、东电小区、农机公司门口、水泵厂小区","startTime":"2019-08-09 08:49:15","stopDate":"2019-08-09 11:00:00","orgNo":"1340616","typeCode":"电网故障停限电","poweroffArea":"【全线路停电】停国旺新区综合一台区变压器,北关综合二台区变压器,国立新区,蠡吾南大街综合八台区变压器,蠡吾北大街综合六台区变压器,蠡吾北大街综合四台区变压器,北关村北,亚华纺纱厂,蠡县塑料,0686041319-保定华正物业管理有限公司-专变-226994088-保定华正物业管理有限公司,工区,中医院对过,北关小区供暖变压器,新兴厂高计,安监局,交通局,北关毛纺厂,北关综合一台区变压器,东北街综合二台区变压器,北关综合四台区变压器,华鑫生物饲料厂变压器,电力局北楼,蠡吾南大街综合六台区变压器,北关家属院,北关综合三台区变压器,蠡吾北大街综合二台区变压器,鲁军良,自来水市场,蠡吾北大街综合五台区变压器,蠡吾北大街综合三台区变压器,东电小区泵房,国旺新区综合二台区变压器,蠡县辉弘人造皮毛厂变压器,0671339384-蠡县天河物业管理有限公司-专变-214300505-蠡县天河物业管理有限公司变压器,保险公司小区综合一台区变压器,库房,交警队家属院,人保公司,河北开原纺织有限公司,北关农排综合一台区变压器【纯农排变】,蠡县兰柱机动车检测有限公司变压器,农林局西路灯,农林局东路灯,紫薇东路一台区箱变出线间隔配电变压器,北关农排综合二台区变压器【纯农排变】,蠡吾北大街综合一台区变压器,北关西","poweroffReason":"【停电原因】由于站内开关掉闸导致２２０ＫＶ蠡县变电站１０ＫＶ城内５２５线路全线停电【变更送电】因抢修进度加快原因，送电时间由１４：００变更为１１：００【发布渠道】通过９５５９８发布","powerTime":"2019-08-09 10:37:23","powerComm":"已送电","subsNo":"","lineNo":"","tgNo":"","tgName":null,"infoStatus":"1","orgName":"国网蠡县供电公司","typeName":null,"infoStatusName":null,"dateDay":null,"orgNos":null,"nowTime":null,"countyName":null,"streetName":null,"villageName":null,"roadName":null,"communityName":null,"tranName":null,"sdLineName":null,"cityCode":"1340616","cityName":"国网蠡县供电公司","provinceCode":null,"stopTime":"2019-08-09 11:00:00","powerType":"全部","powerOffArea":"【全线路停电】停国旺新区综合一台区变压器,北关综合二台区变压器,国立新区,蠡吾南大街综合八台区变压器,蠡吾北大街综合六台区变压器,蠡吾北大街综合四台区变压器,北关村北,亚华纺纱厂,蠡县塑料,0686041319-保定华正物业管理有限公司-专变-226994088-保定华正物业管理有限公司,工区,中医院对过,北关小区供暖变压器,新兴厂高计,安监局,交通局,北关毛纺厂,北关综合一台区变压器,东北街综合二台区变压器,北关综合四台区变压器,华鑫生物饲料厂变压器,电力局北楼,蠡吾南大街综合六台区变压器,北关家属院,北关综合三台区变压器,蠡吾北大街综合二台区变压器,鲁军良,自来水市场,蠡吾北大街综合五台区变压器,蠡吾北大街综合三台区变压器,东电小区泵房,国旺新区综合二台区变压器,蠡县辉弘人造皮毛厂变压器,0671339384-蠡县天河物业管理有限公司-专变-214300505-蠡县天河物业管理有限公司变压器,保险公司小区综合一台区变压器,库房,交警队家属院,人保公司,河北开原纺织有限公司,北关农排综合一台区变压器【纯农排变】,蠡县兰柱机动车检测有限公司变压器,农林局西路灯,农林局东路灯,紫薇东路一台区箱变出线间隔配电变压器,北关农排综合二台区变压器【纯农排变】,蠡吾北大街综合一台区变压器,北关西","powerOffReason":"【停电原因】由于站内开关掉闸导致２２０ＫＶ蠡县变电站１０ＫＶ城内５２５线路全线停电【变更送电】因抢修进度加快原因，送电时间由１４：００变更为１１：００【发布渠道】通过９５５９８发布","powerOffId":"2019080913000091"},{"poweroffId":2019080913000087,"sgpoweroffId":null,"subsName":"","lineName":"仪村线511","pubTranName":"仪村10号,仪村2号,南亭17号,大西张二队5号【纯农排变】,保定美仑有色金属有限公司,大西张二队9号,顺通冷拔异型钢管有限公司,中交一公司第六工程有限公司京石扩建工程JS6项目部,长虹杂铅厂,南亭小学,保定美伦有色金属有限公司2号,仪村4号,徐水县金地电解铅厂,大西张二队13号【纯农排变】,大西张二队2号,敬上18号【纯农排变】,仪村6号【纯农排变】,保定双帆蓄电池有限公司1号,中交一公局第六工程有限公司京石扩建工程JS6项目部,大西张二队10号【纯农排变】,仪村8号,仪村1号【纯农排变】,客户投资_大西张二队1号,仪村5号【纯农排变】,大西张一队14号,大西张二队8号【纯农排变】,大西张二队11号【纯农排变】,仪村7号,大西张一队19号【纯农排变】,保定美伦有色金属有限公司1号,变压器,大西张二队4号,客户投资_大西张二队6号,仪村3号,仪村9号,客户投资_大西张二队7号,","scope":"【影响街道/乡镇】大因镇 【高危重要客户】无 【影响客户】仪村、大西张、南亭、敬上","startTime":"2019-08-09 08:38:07","stopDate":"2019-08-09 18:00:00","orgNo":"1340605","typeCode":"超电网供电能力停限电","poweroffArea":"【全线路停电】停仪村8号,仪村1号【纯农排变】,客户投资_大西张二队1号,仪村5号【纯农排变】,大西张一队14号,大西张二队8号【纯农排变】,大西张二队11号【纯农排变】,仪村7号,大西张一队19号【纯农排变】,保定美伦有色金属有限公司1号,变压器,大西张二队4号,客户投资_大西张二队6号,仪村3号,仪村9号,客户投资_大西张二队7号,仪村10号,仪村2号,南亭17号,大西张二队5号【纯农排变】,保定美仑有色金属有限公司,大西张二队9号,顺通冷拔异型钢管有限公司,中交一公司第六工程有限公司京石扩建工程JS6项目部,长虹杂铅厂,南亭小学,保定美伦有色金属有限公司2号,仪村4号,徐水县金地电解铅厂,大西张二队13号【纯农排变】,大西张二队2号,敬上18号【纯农排变】,仪村6号【纯农排变】,保定双帆蓄电池有限公司1号,中交一公局第六工程有限公司京石扩建工程JS6项目部,大西张二队10号【纯农排变】","poweroffReason":"【停电原因】由于大因变电站主变过负荷导致３５ＫＶ大因变电站１０ＫＶ仪村５１１线路全线停电 【变更送电】无 【发布渠道】通过９５５９８发布","powerTime":"2019-08-09 17:10:28","powerComm":"已送电","subsNo":"","lineNo":"","tgNo":"","tgName":null,"infoStatus":"1","orgName":"国网徐水县供电公司","typeName":null,"infoStatusName":null,"dateDay":null,"orgNos":null,"nowTime":null,"countyName":null,"streetName":null,"villageName":null,"roadName":null,"communityName":null,"tranName":null,"sdLineName":null,"cityCode":"1340605","cityName":"国网徐水县供电公司","provinceCode":null,"stopTime":"2019-08-09 18:00:00","powerType":"全部","powerOffArea":"【全线路停电】停仪村8号,仪村1号【纯农排变】,客户投资_大西张二队1号,仪村5号【纯农排变】,大西张一队14号,大西张二队8号【纯农排变】,大西张二队11号【纯农排变】,仪村7号,大西张一队19号【纯农排变】,保定美伦有色金属有限公司1号,变压器,大西张二队4号,客户投资_大西张二队6号,仪村3号,仪村9号,客户投资_大西张二队7号,仪村10号,仪村2号,南亭17号,大西张二队5号【纯农排变】,保定美仑有色金属有限公司,大西张二队9号,顺通冷拔异型钢管有限公司,中交一公司第六工程有限公司京石扩建工程JS6项目部,长虹杂铅厂,南亭小学,保定美伦有色金属有限公司2号,仪村4号,徐水县金地电解铅厂,大西张二队13号【纯农排变】,大西张二队2号,敬上18号【纯农排变】,仪村6号【纯农排变】,保定双帆蓄电池有限公司1号,中交一公局第六工程有限公司京石扩建工程JS6项目部,大西张二队10号【纯农排变】","powerOffReason":"【停电原因】由于大因变电站主变过负荷导致３５ＫＶ大因变电站１０ＫＶ仪村５１１线路全线停电 【变更送电】无 【发布渠道】通过９５５９８发布","powerOffId":"2019080913000087"},{"poweroffId":2019080913000086,"sgpoweroffId":null,"subsName":"","lineName":"申庄线513","pubTranName":"10Kv513申庄线马庄5号,10Kv513申庄线郎五庄7号,10Kv513申庄线申庄1号,10Kv513申庄线冯庄4号【纯农排变】,10Kv513申庄线申庄17号,10Kv513申庄线冯庄2号,10Kv513申庄线高林村10号变压器,10Kv513申庄线申庄8号,10Kv513申庄线申庄21号【纯农排变】,10Kv513申庄线申庄16号,10Kv513申庄线申庄2号,10Kv513申庄线马庄1号,10Kv513申庄线申庄13号,10Kv513申庄线高林村15号变压器,10Kv513申庄线申庄9号【纯农排变】,10Kv513申庄线申庄4号,10Kv513申庄线高林村14号,10Kv513申庄线侯家窑3号【纯农排变】,10Kv513申庄线申庄10号,10Kv513申庄线冯庄3号,10Kv513申庄线马庄7号,10Kv513申庄线翟庄11号【纯农排变】,10Kv513申庄线郎五庄12号【纯农排变】,10Kv513申庄线申庄15号,10Kv513申庄线马庄9号,10Kv513申庄线申庄12号,10Kv513申庄线高林村13号,10Kv513申庄线侯家窑2号,10Kv513申庄线马庄10号【纯农排变】,10Kv513申庄线高林村17号【纯农排变】,10Kv513申庄线侯家窑1号,10Kv513申庄线申庄20号,徐水县四通散热器制造有限公司,10Kv513申庄线翟庄10号,10Kv513申庄线申庄14号,10Kv513申庄线马庄2号,10Kv513申庄线马庄8号,10Kv513申庄线申庄5号,高顺录养猪厂,高林村砖厂,10Kv513申庄线马庄6号,10Kv513申庄线冯庄1号,10Kv513申庄线翟庄18号,10Kv513申庄线马庄4号,10Kv513申庄线高林村12号,10Kv513申庄线翟庄13号【纯农排变】,高林村镇申庄小学,10Kv513申庄线申庄11号,10Kv513申庄线申庄6号【纯农排变】,10Kv513申庄线申庄7号,10Kv513申庄线马庄3号,10Kv513申庄线高林村16号,10Kv513申庄线翟庄9号【纯农排变】,10Kv513申庄线申庄18号【纯农排变】,10Kv513申庄线申庄3号,10Kv513申庄线申庄19号,10Kv513申庄线翟庄17号【纯农排变】,","scope":"【影响街道/乡镇】史端乡 【高危重要客户】无 【影响客户】冯庄、马庄、翟庄、高林村、侯家窑、申庄","startTime":"2019-08-09 08:30:00","stopDate":"2019-08-09 10:00:00","orgNo":"1340605","typeCode":"电网故障停限电","poweroffArea":"【全线路停电】停10Kv513申庄线冯庄3号, 10Kv513申庄线冯庄2号, 10Kv513申庄线马庄7号, 10Kv513申庄线翟庄11号【纯农排变】,10Kv513申庄线高林村10号变压器, 10Kv513申庄线申庄8号, 10Kv513申庄线马庄2号,10Kv513申庄线高林村12号, 10Kv513申庄线侯家窑2号, 10Kv513申庄线翟庄13号【纯农排变】, 10Kv513申庄线马庄10号【纯农排变】, 10Kv513申庄线马庄4号,10Kv513申庄线高林村17号【纯农排变】,高林村镇申庄小学, 10Kv513申庄线侯家窑1号, 10Kv513申庄线申庄11号, 10Kv513申庄线申庄21号【纯农排变】, 10Kv513申庄线申庄16号, 10Kv513申庄线高林村16号, 10Kv513申庄线马庄1号,10Kv513申庄线翟庄9号【纯农排变】, 10Kv513申庄线申庄13号, 10Kv513申庄线申庄18号【纯农排变】, 10Kv513申庄线高林村15号变压器, 10Kv513申庄线申庄3号, 10Kv513申庄线申庄9号【纯农排变】, 10Kv513申庄线申庄4号, 10Kv513申庄线郎五庄12号【纯农排变】, 10Kv513申庄线高林村14号, 10Kv513申庄线侯家窑3号【纯农排变】, 10Kv513申庄线申庄15号, 10Kv513申庄线申庄10号, 10Kv513申庄线马庄9号, 10Kv513申庄线申庄20号, 10Kv513申庄线申庄12号,10Kv513申庄线高林村13号,徐水县四通散热器制造有限公司, 10Kv513申庄线马庄8号, 10Kv513申庄线翟庄10号, 10Kv513申庄线申庄5号, 10Kv513申庄线申庄14号,高顺录养猪厂, 10Kv513申庄线申庄2号,高林村砖厂, 10Kv513申庄线马庄5号, 10Kv513申庄线马庄6号, 10Kv513申庄线申庄19号, 10Kv513申庄线翟庄17号【纯农排变】, 10Kv513申庄线冯庄1号, 10Kv513申庄线翟庄18号, 10Kv513申庄线郎五庄7号, 10Kv513申庄线申庄6号【纯农排变】, 10Kv513申庄线申庄1号, 10Kv513申庄线申庄7号, 10Kv513申庄线冯庄4号【纯农排变】, 10Kv513申庄线马庄3号, 10Kv513申庄线申庄17号","poweroffReason":"【停电原因】由于Ｂ相接地导致３５ＫＶ郎五庄变电站申庄５１３线路全线停电 【变更送电】无 【发布渠道】通过９５５９８发布","powerTime":"2019-08-09 09:42:39","powerComm":"已送电","subsNo":"","lineNo":"","tgNo":"","tgName":null,"infoStatus":"1","orgName":"国网徐水县供电公司","typeName":null,"infoStatusName":null,"dateDay":null,"orgNos":null,"nowTime":null,"countyName":null,"streetName":null,"villageName":null,"roadName":null,"communityName":null,"tranName":null,"sdLineName":null,"cityCode":"1340605","cityName":"国网徐水县供电公司","provinceCode":null,"stopTime":"2019-08-09 10:00:00","powerType":"全部","powerOffArea":"【全线路停电】停10Kv513申庄线冯庄3号, 10Kv513申庄线冯庄2号, 10Kv513申庄线马庄7号, 10Kv513申庄线翟庄11号【纯农排变】,10Kv513申庄线高林村10号变压器, 10Kv513申庄线申庄8号, 10Kv513申庄线马庄2号,10Kv513申庄线高林村12号, 10Kv513申庄线侯家窑2号, 10Kv513申庄线翟庄13号【纯农排变】, 10Kv513申庄线马庄10号【纯农排变】, 10Kv513申庄线马庄4号,10Kv513申庄线高林村17号【纯农排变】,高林村镇申庄小学, 10Kv513申庄线侯家窑1号, 10Kv513申庄线申庄11号, 10Kv513申庄线申庄21号【纯农排变】, 10Kv513申庄线申庄16号, 10Kv513申庄线高林村16号, 10Kv513申庄线马庄1号,10Kv513申庄线翟庄9号【纯农排变】, 10Kv513申庄线申庄13号, 10Kv513申庄线申庄18号【纯农排变】, 10Kv513申庄线高林村15号变压器, 10Kv513申庄线申庄3号, 10Kv513申庄线申庄9号【纯农排变】, 10Kv513申庄线申庄4号, 10Kv513申庄线郎五庄12号【纯农排变】, 10Kv513申庄线高林村14号, 10Kv513申庄线侯家窑3号【纯农排变】, 10Kv513申庄线申庄15号, 10Kv513申庄线申庄10号, 10Kv513申庄线马庄9号, 10Kv513申庄线申庄20号, 10Kv513申庄线申庄12号,10Kv513申庄线高林村13号,徐水县四通散热器制造有限公司, 10Kv513申庄线马庄8号, 10Kv513申庄线翟庄10号, 10Kv513申庄线申庄5号, 10Kv513申庄线申庄14号,高顺录养猪厂, 10Kv513申庄线申庄2号,高林村砖厂, 10Kv513申庄线马庄5号, 10Kv513申庄线马庄6号, 10Kv513申庄线申庄19号, 10Kv513申庄线翟庄17号【纯农排变】, 10Kv513申庄线冯庄1号, 10Kv513申庄线翟庄18号, 10Kv513申庄线郎五庄7号, 10Kv513申庄线申庄6号【纯农排变】, 10Kv513申庄线申庄1号, 10Kv513申庄线申庄7号, 10Kv513申庄线冯庄4号【纯农排变】, 10Kv513申庄线马庄3号, 10Kv513申庄线申庄17号","powerOffReason":"【停电原因】由于Ｂ相接地导致３５ＫＶ郎五庄变电站申庄５１３线路全线停电 【变更送电】无 【发布渠道】通过９５５９８发布","powerOffId":"2019080913000086"},{"poweroffId":2019080913000084,"sgpoweroffId":null,"subsName":"","lineName":"袁辛线518","pubTranName":"10Kv518袁辛线白塔铺8号【纯农排变】,10Kv518袁辛线小庄3号【纯农排变】,徐水县平易路石油天然气配件有限公司3号,10Kv518袁辛线白塔铺12号,10Kv518袁辛线小辛安3号,徐水县平易路石油天然气配件有限公司1号,南孤庄营7号,10Kv518袁辛线大庄10号,变压器,10Kv518袁辛线小庄8号【纯农排变】,河北科华防静电地板制造有限公司,10Kv518袁辛线大庄11号,河北徐水新洋丰肥业有限公司,10Kv518袁辛线大庄12号,10Kv518袁辛线小庄7号【纯农排变】,10Kv518袁辛线白塔铺7号,10Kv518袁辛线大庄2号,10Kv518袁辛线小庄5号,10Kv518袁辛线袁家坟3号,北孤庄营1号【纯农排变】,10Kv518袁辛线白塔铺6号,10Kv518袁辛线小庄1号,10Kv518袁辛线小辛安4号【纯农排变】,北孤营3号【纯农排变】,10Kv518袁辛线小庄4号【纯农排变】,南孤庄营6号,河北德力食品有限公司,10Kv518袁辛线大庄7号,10Kv518袁辛线大庄13号【纯农排变】,保定市徐水区住房和城乡建设局,徐水县来宾水泥制品变压器,10Kv518袁辛线小庄6号,南孤庄营11号【纯农排变】,中孤庄营3号,10Kv518袁辛线大庄4号【纯农排变】,10Kv518袁辛线大庄8号,10Kv518袁辛线大庄14号【纯农排变】,10Kv518袁辛线大庄6号,10Kv518袁辛线白塔铺17号,10Kv518袁辛线白塔铺13号,10Kv518袁辛线大庄5号,10Kv518袁辛线小庄9号,10Kv518袁辛线大庄1号,10Kv518袁辛线大庄3号,北孤庄营4号【纯农排变】,徐水县交通运输局,10Kv518袁辛线大庄9号,10Kv518袁辛线小庄2号,10Kv518袁辛线袁家坟2号,徐水县平易路石油天然气配件有限公司2号,徐水县荣泰新型建材有限公司,10Kv518袁辛线袁家坟1号,徐水县平易路石油天然气配件有限公司,","scope":"【影响街道/乡镇】高林村镇、安肃镇 【高危重要客户】无 【影响客户】大庄村、小庄村、北孤庄营村、南孤庄营村、白塔铺村、小辛安村","startTime":"2019-08-09 08:30:00","stopDate":"2019-08-09 10:00:00","orgNo":"1340605","typeCode":"电网故障停限电","poweroffArea":"【全线路停电】停保定市徐水区住房和城乡建设局,北孤庄营4号【纯农排变】,河北科华防静电地板制造有限公司,徐水县平易路石油天然气配件有限公司3号,徐水县来宾水泥制品变压器,徐水县交通运输局,10Kv518袁辛线大庄11号,10Kv518袁辛线白塔铺12号,10Kv518袁辛线小庄6号,10Kv518袁辛线大庄9号,河北徐水新洋丰肥业有限公司,徐水县平易路石油天然气配件有限公司1号,南孤庄营11号【纯农排变】,10Kv518袁辛线大庄1号,10Kv518袁辛线大庄12号,10Kv518袁辛线大庄6号,中孤庄营3号,10Kv518袁辛线大庄3号,10Kv518袁辛线小庄7号【纯农排变】,10Kv518袁辛线小庄3号【纯农排变】,10Kv518袁辛线大庄4号【纯农排变】, 10Kv518袁辛线小辛安3号,10Kv518袁辛线小庄2号,10Kv518袁辛线大庄14号【纯农排变】,10Kv518袁辛线袁家坟2号,10Kv518袁辛线袁家坟3号,南孤庄营7号,北孤庄营1号【纯农排变】,徐水县平易路石油天然气配件有限公司2号, 10Kv518袁辛线白塔铺8号【纯农排变】,北孤营3号【纯农排变】,10Kv518袁辛线白塔铺7号,徐水县荣泰新型建材有限公司,10Kv518袁辛线大庄8号,10Kv518袁辛线小庄4号【纯农排变】,10Kv518袁辛线大庄2号,10Kv518袁辛线袁家坟1号,10Kv518袁辛线白塔铺17号,南孤庄营6号,10Kv518袁辛线小庄5号,徐水县平易路石油天然气配件有限公司,10Kv518袁辛线白塔铺13号,河北德力食品有限公司,10Kv518袁辛线白塔铺6号,10Kv518袁辛线大庄10号,10Kv518袁辛线大庄5号,10Kv518袁辛线大庄7号,10Kv518袁辛线小庄1号,变压器,10Kv518袁辛线小庄9号,10Kv518袁辛线大庄13号【纯农排变】, 10Kv518袁辛线小辛安4号【纯农排变】,10Kv518袁辛线小庄8号【纯农排变】","poweroffReason":"【停电原因】由于Ｂ相接地导致３５ＫＶ郎五庄变电站袁辛线５１８线路全线停电 【变更送电】无 【发布渠道】通过９５５９８发布","powerTime":"2019-08-09 09:43:02","powerComm":"已送电","subsNo":"","lineNo":"","tgNo":"","tgName":null,"infoStatus":"1","orgName":"国网徐水县供电公司","typeName":null,"infoStatusName":null,"dateDay":null,"orgNos":null,"nowTime":null,"countyName":null,"streetName":null,"villageName":null,"roadName":null,"communityName":null,"tranName":null,"sdLineName":null,"cityCode":"1340605","cityName":"国网徐水县供电公司","provinceCode":null,"stopTime":"2019-08-09 10:00:00","powerType":"全部","powerOffArea":"【全线路停电】停保定市徐水区住房和城乡建设局,北孤庄营4号【纯农排变】,河北科华防静电地板制造有限公司,徐水县平易路石油天然气配件有限公司3号,徐水县来宾水泥制品变压器,徐水县交通运输局,10Kv518袁辛线大庄11号,10Kv518袁辛线白塔铺12号,10Kv518袁辛线小庄6号,10Kv518袁辛线大庄9号,河北徐水新洋丰肥业有限公司,徐水县平易路石油天然气配件有限公司1号,南孤庄营11号【纯农排变】,10Kv518袁辛线大庄1号,10Kv518袁辛线大庄12号,10Kv518袁辛线大庄6号,中孤庄营3号,10Kv518袁辛线大庄3号,10Kv518袁辛线小庄7号【纯农排变】,10Kv518袁辛线小庄3号【纯农排变】,10Kv518袁辛线大庄4号【纯农排变】, 10Kv518袁辛线小辛安3号,10Kv518袁辛线小庄2号,10Kv518袁辛线大庄14号【纯农排变】,10Kv518袁辛线袁家坟2号,10Kv518袁辛线袁家坟3号,南孤庄营7号,北孤庄营1号【纯农排变】,徐水县平易路石油天然气配件有限公司2号, 10Kv518袁辛线白塔铺8号【纯农排变】,北孤营3号【纯农排变】,10Kv518袁辛线白塔铺7号,徐水县荣泰新型建材有限公司,10Kv518袁辛线大庄8号,10Kv518袁辛线小庄4号【纯农排变】,10Kv518袁辛线大庄2号,10Kv518袁辛线袁家坟1号,10Kv518袁辛线白塔铺17号,南孤庄营6号,10Kv518袁辛线小庄5号,徐水县平易路石油天然气配件有限公司,10Kv518袁辛线白塔铺13号,河北德力食品有限公司,10Kv518袁辛线白塔铺6号,10Kv518袁辛线大庄10号,10Kv518袁辛线大庄5号,10Kv518袁辛线大庄7号,10Kv518袁辛线小庄1号,变压器,10Kv518袁辛线小庄9号,10Kv518袁辛线大庄13号【纯农排变】, 10Kv518袁辛线小辛安4号【纯农排变】,10Kv518袁辛线小庄8号【纯农排变】","powerOffReason":"【停电原因】由于Ｂ相接地导致３５ＫＶ郎五庄变电站袁辛线５１８线路全线停电 【变更送电】无 【发布渠道】通过９５５９８发布","powerOffId":"2019080913000084"}],"pageModel":{"pageNow":675,"totalCount":10973,"totalPage":1098,"tableRows":0,"pageCount":10,"beginCount":6740},"isExperi":"1"}