{"message":"","today":"2020-06-15","seleList":[{"poweroffId":2019080913000082,"sgpoweroffId":null,"subsName":"","lineName":"丁申线514","pubTranName":"大午集团饲料公司15号,河北大午农牧集团有限公司,10Kv514丁申线丁庄15号,10Kv514丁申线丁庄14号【纯农排变】,10Kv514丁申线翟庄20号,10Kv514丁申线翟庄5号,大午农牧集团公司葡萄基地4号,10Kv514丁申线翟庄12号,10Kv514丁申线丁庄10号【纯农排变】,10Kv514丁申线丁庄2号,10Kv514丁申线丁庄4号,10Kv514丁申线丁庄9号【纯农排变】,农场一分场3号,变压器,保定农场二分场,10Kv514丁申线翟庄4号,10Kv514丁申线翟庄14号【纯农排变】,10Kv514丁申线丁庄6号,10Kv514丁申线丁庄16号,农场一分场4号,农场二队5号,农场二队1号,10Kv514丁申线翟庄19号,10Kv514丁申线丁庄11号,农场一对7号,河北省南水北调工程建设管理中心,10kV514丁申线郎伍庄16号,10Kv514丁申线翟庄7号,农场一队2号,农场一分场5号,河北大午农牧集团公司12号,农场一队1号,河北大午农牧集团种禽有限公司,河北大午农牧集团公司6号,10Kv514丁申线丁庄13号【纯农排变】,10Kv514丁申线丁庄3号,10Kv514丁申线丁庄12号,农场二队,10Kv514丁申线翟庄15号,10Kv514丁申线翟庄6号【纯农排变】,10Kv514丁申线翟庄1号,10Kv514丁申线丁庄8号【纯农排变】,10Kv514丁申线翟庄16号,0548854370-河北大午农牧集团有限公司-专变-48191429-河北大午农牧集团有限公司14号,10Kv514丁申线丁庄7号,10Kv514丁申线翟庄3号,10Kv514丁申线丁庄5号,河北大午农牧集团种禽有限公司变压器,大午葡萄基地9号,10Kv514丁申线丁庄1号,10Kv514丁申线翟庄8号,10Kv514丁申线翟庄2号【纯农排变】,","scope":"【影响街道/乡镇】高林村镇 【高危重要客户】无 【影响客户】翟庄、郎伍庄、丁庄","startTime":"2019-08-09 08:30:00","stopDate":"2019-08-09 10:00:00","orgNo":"1340605","typeCode":"电网故障停限电","poweroffArea":"【全线路停电】停变压器,河北大午农牧集团种禽有限公司变压器, 10Kv514丁申线翟庄4号, 10Kv514丁申线翟庄20号,10kV514丁申线郎伍庄16号, 10Kv514丁申线翟庄8号, 10Kv514丁申线翟庄7号, 10Kv514丁申线翟庄12号, 10Kv514丁申线丁庄12号, 10Kv514丁申线丁庄14号【纯农排变】, 10Kv514丁申线丁庄1号, 10Kv514丁申线丁庄6号, 10Kv514丁申线丁庄8号【纯农排变】, 10Kv514丁申线翟庄6号【纯农排变】, 10Kv514丁申线翟庄3号,农场二队1号,大午农牧集团公司葡萄基地4号, 10Kv514丁申线翟庄1号,农场一分场5号,农场一队1号,农场一分场4号,农场二队5号,10Kv514丁申线翟庄14号【纯农排变】, 10Kv514丁申线丁庄3号,0548854370-河北大午农牧集团有限公司-专变-48191429-河北大午农牧集团有限公司14号,农场一队2号, 10Kv514丁申线丁庄4号, 10Kv514丁申线丁庄16号,大午集团饲料公司15号, 10Kv514丁申线丁庄2号, 10Kv514丁申线翟庄5号, 10Kv514丁申线丁庄5号,保定农场二分场,河北大午农牧集团公司6号,大午葡萄基地9号,河北大午农牧集团公司12号, 10Kv514丁申线丁庄11号, 10Kv514丁申线翟庄15号,农场二队,10Kv514丁申线翟庄2号【纯农排变】, 10Kv514丁申线丁庄7号,农场一分场3号,河北省南水北调工程建设管理中心,河北大午农牧集团有限公司, 10Kv514丁申线丁庄15号, 10Kv514丁申线丁庄9号【纯农排变】, 10Kv514丁申线翟庄19号, 10Kv514丁申线翟庄16号, 10Kv514丁申线丁庄10号【纯农排变】, 10Kv514丁申线丁庄13号【纯农排变】,河北大午农牧集团种禽有限公司,农场一对7号","poweroffReason":"【停电原因】由于Ｂ相接地导致３５ＫＶ郎五庄变电站丁申５１４线路全线停电 【变更送电】无 【发布渠道】通过９５５９８发布","powerTime":"2019-08-09 09:43:24","powerComm":"已送电","subsNo":"","lineNo":"","tgNo":"","tgName":null,"infoStatus":"1","orgName":"国网徐水县供电公司","typeName":null,"infoStatusName":null,"dateDay":null,"orgNos":null,"nowTime":null,"countyName":null,"streetName":null,"villageName":null,"roadName":null,"communityName":null,"tranName":null,"sdLineName":null,"cityCode":"1340605","cityName":"国网徐水县供电公司","provinceCode":null,"stopTime":"2019-08-09 10:00:00","powerType":"全部","powerOffArea":"【全线路停电】停变压器,河北大午农牧集团种禽有限公司变压器, 10Kv514丁申线翟庄4号, 10Kv514丁申线翟庄20号,10kV514丁申线郎伍庄16号, 10Kv514丁申线翟庄8号, 10Kv514丁申线翟庄7号, 10Kv514丁申线翟庄12号, 10Kv514丁申线丁庄12号, 10Kv514丁申线丁庄14号【纯农排变】, 10Kv514丁申线丁庄1号, 10Kv514丁申线丁庄6号, 10Kv514丁申线丁庄8号【纯农排变】, 10Kv514丁申线翟庄6号【纯农排变】, 10Kv514丁申线翟庄3号,农场二队1号,大午农牧集团公司葡萄基地4号, 10Kv514丁申线翟庄1号,农场一分场5号,农场一队1号,农场一分场4号,农场二队5号,10Kv514丁申线翟庄14号【纯农排变】, 10Kv514丁申线丁庄3号,0548854370-河北大午农牧集团有限公司-专变-48191429-河北大午农牧集团有限公司14号,农场一队2号, 10Kv514丁申线丁庄4号, 10Kv514丁申线丁庄16号,大午集团饲料公司15号, 10Kv514丁申线丁庄2号, 10Kv514丁申线翟庄5号, 10Kv514丁申线丁庄5号,保定农场二分场,河北大午农牧集团公司6号,大午葡萄基地9号,河北大午农牧集团公司12号, 10Kv514丁申线丁庄11号, 10Kv514丁申线翟庄15号,农场二队,10Kv514丁申线翟庄2号【纯农排变】, 10Kv514丁申线丁庄7号,农场一分场3号,河北省南水北调工程建设管理中心,河北大午农牧集团有限公司, 10Kv514丁申线丁庄15号, 10Kv514丁申线丁庄9号【纯农排变】, 10Kv514丁申线翟庄19号, 10Kv514丁申线翟庄16号, 10Kv514丁申线丁庄10号【纯农排变】, 10Kv514丁申线丁庄13号【纯农排变】,河北大午农牧集团种禽有限公司,农场一对7号","powerOffReason":"【停电原因】由于Ｂ相接地导致３５ＫＶ郎五庄变电站丁申５１４线路全线停电 【变更送电】无 【发布渠道】通过９５５９８发布","powerOffId":"2019080913000082"},{"poweroffId":2019080913000080,"sgpoweroffId":null,"subsName":"","lineName":"郎伍庄线516","pubTranName":"10Kv516郎伍庄线郎五庄15号,10Kv516郎伍庄线郎五庄13号,保定市徐水区大午水厂,10Kv516郎伍庄线郎五庄9号,10Kv516郎伍庄线郎五庄17号,10Kv516郎伍庄线郎五庄11号【纯农排变】,10Kv516郎伍庄线郎五庄2号,10Kv516郎伍庄线郎五庄19号,徐水县大午温泉酒店,徐水大午中学,大午集团公司8号（温泉）,河北大午农牧集团公司1号,10Kv516郎伍庄线郎五庄18号,10Kv516郎伍庄线郎五庄3号,10Kv516郎伍庄线郎五庄10号【纯农排变】,10Kv516郎伍庄线郎五庄5号,10Kv516郎伍庄线郎五庄6号【纯农排变】,10Kv516郎伍庄线郎五庄14号,河北大午农牧集团种禽有限公司,保定市徐水区大午温泉酒店有限公司,徐水大午中学3号,郎伍庄新居民进线间隔配电变压器,大午集团公司7号,10Kv516郎伍庄线郎五庄1号,河北大午集团公司5号,10Kv516郎伍庄线郎五庄8号,徐水县大午温泉度假村有限公司,10Kv516郎伍庄线郎五庄20号【纯农排变】,10Kv516郎伍庄线郎五庄4号,","scope":"【影响街道/乡镇】高林村镇 【高危重要客户】无 【影响客户】郎五庄村","startTime":"2019-08-09 08:30:00","stopDate":"2019-08-09 10:00:00","orgNo":"1340605","typeCode":"电网故障停限电","poweroffArea":"【全线路停电】停河北大午农牧集团公司1号,10Kv516郎伍庄线郎五庄9号,保定市徐水区大午水厂,保定市徐水区大午温泉酒店有限公司,徐水县大午温泉度假村有限公司,10Kv516郎伍庄线郎五庄4号, 10Kv516郎伍庄线郎五庄20号【纯农排变】, 10Kv516郎伍庄线郎五庄6号【纯农排变】,徐水大午中学,大午集团公司7号,河北大午农牧集团种禽有限公司,10Kv516郎伍庄线郎五庄8号, 10Kv516郎伍庄线郎五庄19号,10Kv516郎伍庄线郎五庄11号【纯农排变】,大午集团公司8号（温泉）,徐水大午中学3号,10Kv516郎伍庄线郎五庄17号,河北大午集团公司5号,郎伍庄新居民进线间隔配电变压器,10Kv516郎伍庄线郎五庄18号,10Kv516郎伍庄线郎五庄10号【纯农排变】,10Kv516郎伍庄线郎五庄5号,10Kv516郎伍庄线郎五庄14号,10Kv516郎伍庄线郎五庄13号,10Kv516郎伍庄线郎五庄1号,10Kv516郎伍庄线郎五庄3号,10Kv516郎伍庄线郎五庄2号,徐水县大午温泉酒店,10Kv516郎伍庄线郎五庄15号","poweroffReason":"【停电原因】由于Ｂ相接地导致３５ＫＶ郎五庄变电站郎伍庄线５１６线路全线停电 【变更送电】无 【发布渠道】通过９５５９８发布","powerTime":"2019-08-09 09:44:26","powerComm":"已送电","subsNo":"","lineNo":"","tgNo":"","tgName":null,"infoStatus":"1","orgName":"国网徐水县供电公司","typeName":null,"infoStatusName":null,"dateDay":null,"orgNos":null,"nowTime":null,"countyName":null,"streetName":null,"villageName":null,"roadName":null,"communityName":null,"tranName":null,"sdLineName":null,"cityCode":"1340605","cityName":"国网徐水县供电公司","provinceCode":null,"stopTime":"2019-08-09 10:00:00","powerType":"全部","powerOffArea":"【全线路停电】停河北大午农牧集团公司1号,10Kv516郎伍庄线郎五庄9号,保定市徐水区大午水厂,保定市徐水区大午温泉酒店有限公司,徐水县大午温泉度假村有限公司,10Kv516郎伍庄线郎五庄4号, 10Kv516郎伍庄线郎五庄20号【纯农排变】, 10Kv516郎伍庄线郎五庄6号【纯农排变】,徐水大午中学,大午集团公司7号,河北大午农牧集团种禽有限公司,10Kv516郎伍庄线郎五庄8号, 10Kv516郎伍庄线郎五庄19号,10Kv516郎伍庄线郎五庄11号【纯农排变】,大午集团公司8号（温泉）,徐水大午中学3号,10Kv516郎伍庄线郎五庄17号,河北大午集团公司5号,郎伍庄新居民进线间隔配电变压器,10Kv516郎伍庄线郎五庄18号,10Kv516郎伍庄线郎五庄10号【纯农排变】,10Kv516郎伍庄线郎五庄5号,10Kv516郎伍庄线郎五庄14号,10Kv516郎伍庄线郎五庄13号,10Kv516郎伍庄线郎五庄1号,10Kv516郎伍庄线郎五庄3号,10Kv516郎伍庄线郎五庄2号,徐水县大午温泉酒店,10Kv516郎伍庄线郎五庄15号","powerOffReason":"【停电原因】由于Ｂ相接地导致３５ＫＶ郎五庄变电站郎伍庄线５１６线路全线停电 【变更送电】无 【发布渠道】通过９５５９８发布","powerOffId":"2019080913000080"},{"poweroffId":2019080913000078,"sgpoweroffId":null,"subsName":"","lineName":"10KV百尺竿530","pubTranName":"百尺竿卫生院柱上变压器,百尺竿东2749,小邢村0248增,大邢村北5007【纯农排变】,百尺竿中2751,百尺竿村邵村路变台,大邢4,百尺竿供电所北关农灌工程,大邢2730增,大刑小学及幼儿园A柱上变压器,大邢南2731增,两河南地5019【纯农排变】,小邢村东变,百尺竿村西沟南【纯农排变】,百尺竿南5025【纯农排变】,两河北地5017【纯农排变】,大刑小学及幼儿园B柱上变压器,大邢村增,大邢6,大邢南5009增,两河东北地5018【纯农排变】,大邢2,两河2南地5016【纯农排变】,百尺竿村南内【纯农排变】,百尺竿村新增东变台,大邢3,两河1南地5015【纯农排变】,百尺竿村新增中学路南变台,小邢北地5006【纯农排变】,百尺竿村【纯农排变】,小邢南2732,两河村西南新增,两河南2740,百尺竿村委会变台,大邢1,大邢村南地5010【纯农排变】,两河西2738,大刑小学及幼儿园C柱上变压器,小邢村内变,小邢南地5005【纯农排变】,两河5490,","scope":"【影响街道/乡镇】百尺竿乡 【高危重要客户】无 【影响客户】小刑各庄、百尺竿、大刑各庄、两河","startTime":"2019-08-11 01:00:00","stopDate":"2019-08-11 05:00:00","orgNo":"1340626","typeCode":"临时停电","poweroffArea":"【分支停电】停百尺竿卫生院柱上变压器,百尺竿东2749,小邢村0248增,大邢村北5007【纯农排变】,百尺竿中2751,百尺竿村邵村路变台,大邢4,百尺竿供电所北关农灌工程,大邢2730增,大刑小学及幼儿园A柱上变压器,大邢南2731增,两河南地5019【纯农排变】,小邢村东变,百尺竿村西沟南【纯农排变】,百尺竿南5025【纯农排变】,两河北地5017【纯农排变】,大刑小学及幼儿园B柱上变压器,大邢村增,大邢6,大邢南5009增,两河东北地5018【纯农排变】,大邢2,两河2南地5016【纯农排变】,两河1南地5015【纯农排变】,百尺竿村新增中学路南变台,小邢北地5006【纯农排变】,百尺竿村【纯农排变】,小邢南2732,两河村西南新增,两河南2740,百尺竿村委会变台,大邢1,大邢村南地5010【纯农排变】,两河西2738,大刑小学及幼儿园C柱上变压器,小邢村内变,小邢南地5005【纯农排变】,两河5490,百尺竿村南内【纯农排变】,百尺竿村新增东变台,大邢3","poweroffReason":"【停电原因】由于新增配变工程导致１１０ＫＶ下胡良变电站１０ＫＶ百尺竿５３０线路１３０号杆以下线路停电 【变更送电】无 【发布渠道】通过９５５９８发布","powerTime":"2019-08-11 04:40:19","powerComm":"恢复送电","subsNo":"","lineNo":"","tgNo":"","tgName":null,"infoStatus":"1","orgName":"国网涿州市供电公司","typeName":null,"infoStatusName":null,"dateDay":null,"orgNos":null,"nowTime":null,"countyName":null,"streetName":null,"villageName":null,"roadName":null,"communityName":null,"tranName":null,"sdLineName":null,"cityCode":"1340626","cityName":"国网涿州市供电公司","provinceCode":null,"stopTime":"2019-08-11 05:00:00","powerType":"全部","powerOffArea":"【分支停电】停百尺竿卫生院柱上变压器,百尺竿东2749,小邢村0248增,大邢村北5007【纯农排变】,百尺竿中2751,百尺竿村邵村路变台,大邢4,百尺竿供电所北关农灌工程,大邢2730增,大刑小学及幼儿园A柱上变压器,大邢南2731增,两河南地5019【纯农排变】,小邢村东变,百尺竿村西沟南【纯农排变】,百尺竿南5025【纯农排变】,两河北地5017【纯农排变】,大刑小学及幼儿园B柱上变压器,大邢村增,大邢6,大邢南5009增,两河东北地5018【纯农排变】,大邢2,两河2南地5016【纯农排变】,两河1南地5015【纯农排变】,百尺竿村新增中学路南变台,小邢北地5006【纯农排变】,百尺竿村【纯农排变】,小邢南2732,两河村西南新增,两河南2740,百尺竿村委会变台,大邢1,大邢村南地5010【纯农排变】,两河西2738,大刑小学及幼儿园C柱上变压器,小邢村内变,小邢南地5005【纯农排变】,两河5490,百尺竿村南内【纯农排变】,百尺竿村新增东变台,大邢3","powerOffReason":"【停电原因】由于新增配变工程导致１１０ＫＶ下胡良变电站１０ＫＶ百尺竿５３０线路１３０号杆以下线路停电 【变更送电】无 【发布渠道】通过９５５９８发布","powerOffId":"2019080913000078"},{"poweroffId":2019080913000072,"sgpoweroffId":null,"subsName":"","lineName":"10kV水源站517线路","pubTranName":"C381柱上变压器,C037柱上变压器,","scope":"【影响街道/乡镇】南韩村镇 【高危重要客户】无 【影响客户】大贾村","startTime":"2019-08-09 07:00:00","stopDate":"2019-08-09 09:30:00","orgNo":"13406","typeCode":"电网故障停限电","poweroffArea":"【分支停电】停C381柱上变压器,C037柱上变压器","poweroffReason":"【停电原因】由于分支开关短路导致１０ＫＶ水源变电站５１７线路９６号杆北分支２号开关２９号杆以下停电【变更送电】无【发布渠道】通过９５５９８发布","powerTime":"2019-08-09 09:14:13","powerComm":"已送电","subsNo":"","lineNo":"","tgNo":"","tgName":null,"infoStatus":"1","orgName":"保定供电公司","typeName":null,"infoStatusName":null,"dateDay":null,"orgNos":null,"nowTime":null,"countyName":null,"streetName":null,"villageName":null,"roadName":null,"communityName":null,"tranName":null,"sdLineName":null,"cityCode":"13406","cityName":"保定供电公司","provinceCode":null,"stopTime":"2019-08-09 09:30:00","powerType":"全部","powerOffArea":"【分支停电】停C381柱上变压器,C037柱上变压器","powerOffReason":"【停电原因】由于分支开关短路导致１０ＫＶ水源变电站５１７线路９６号杆北分支２号开关２９号杆以下停电【变更送电】无【发布渠道】通过９５５９８发布","powerOffId":"2019080913000072"},{"poweroffId":2019080913000058,"sgpoweroffId":null,"subsName":"","lineName":"潘各庄线539","pubTranName":"新4384泗平庄【纯农排变】,","scope":"【影响街道/乡镇】刁窝乡 【高危重要客户】无 【影响客户】泗平庄","startTime":"2019-08-09 06:32:01","stopDate":"2019-08-09 08:30:00","orgNo":"1340626","typeCode":"电网故障停限电","poweroffArea":"【单台区停电】停新4384泗平庄【纯农排变】","poweroffReason":"【停电原因】由于低压空开烧毁导致１１０ＫＶ刁窝变电站潘各庄５３９线路新４３８４泗平庄公变台区停电 【变更送电】因抢修进度加快原因，送电时间由１５：００变更为０８：３０ 【发布渠道】通过９５５９８发布","powerTime":"2019-08-09 08:16:00","powerComm":"恢复送电","subsNo":"","lineNo":"","tgNo":"","tgName":null,"infoStatus":"1","orgName":"国网涿州市供电公司","typeName":null,"infoStatusName":null,"dateDay":null,"orgNos":null,"nowTime":null,"countyName":null,"streetName":null,"villageName":null,"roadName":null,"communityName":null,"tranName":null,"sdLineName":null,"cityCode":"1340626","cityName":"国网涿州市供电公司","provinceCode":null,"stopTime":"2019-08-09 08:30:00","powerType":"全部","powerOffArea":"【单台区停电】停新4384泗平庄【纯农排变】","powerOffReason":"【停电原因】由于低压空开烧毁导致１１０ＫＶ刁窝变电站潘各庄５３９线路新４３８４泗平庄公变台区停电 【变更送电】因抢修进度加快原因，送电时间由１５：００变更为０８：３０ 【发布渠道】通过９５５９８发布","powerOffId":"2019080913000058"},{"poweroffId":2019080913000056,"sgpoweroffId":null,"subsName":"","lineName":"10kV水源站517线路","pubTranName":"C295柱上变压器,","scope":"【影响街道/乡镇】环城东路 【高危重要客户】无 【影响客户】东佃庄","startTime":"2019-08-09 06:00:00","stopDate":"2019-08-09 08:00:00","orgNo":"13406","typeCode":"电网故障停限电","poweroffArea":"【单台区停电】停C295柱上变压器","poweroffReason":"【停电原因】由于低压保险片烧导致１０ＫＶ水源变电站５１７线路Ｃ２９５公变台区停电【变更送电】无【发布渠道】通过９５５９８发布","powerTime":"2019-08-09 07:13:30","powerComm":"已送电","subsNo":"","lineNo":"","tgNo":"","tgName":null,"infoStatus":"1","orgName":"保定供电公司","typeName":null,"infoStatusName":null,"dateDay":null,"orgNos":null,"nowTime":null,"countyName":null,"streetName":null,"villageName":null,"roadName":null,"communityName":null,"tranName":null,"sdLineName":null,"cityCode":"13406","cityName":"保定供电公司","provinceCode":null,"stopTime":"2019-08-09 08:00:00","powerType":"全部","powerOffArea":"【单台区停电】停C295柱上变压器","powerOffReason":"【停电原因】由于低压保险片烧导致１０ＫＶ水源变电站５１７线路Ｃ２９５公变台区停电【变更送电】无【发布渠道】通过９５５９８发布","powerOffId":"2019080913000056"},{"poweroffId":2019080913000052,"sgpoweroffId":null,"subsName":"","lineName":"10kV东文山517","pubTranName":"东文山东台,","scope":"【影响街道/乡镇】东文山乡 【高危重要客户】无 【影响客户】东文山村","startTime":"2019-08-09 04:51:41","stopDate":"2019-08-09 08:00:00","orgNo":"1340614","typeCode":"电网故障停限电","poweroffArea":"【单台区停电】停东文山东台","poweroffReason":"【停电原因】由于空开烧毁导致１１０ＫＶ涞阳变电站１０ＫＶ东文山５１７线路东文山东台公变台区停电 【变更送电】无 【发布渠道】通过９５５９８发布","powerTime":"2019-08-09 07:30:10","powerComm":"已送电","subsNo":"","lineNo":"","tgNo":"","tgName":null,"infoStatus":"1","orgName":"国网涞水县供电公司","typeName":null,"infoStatusName":null,"dateDay":null,"orgNos":null,"nowTime":null,"countyName":null,"streetName":null,"villageName":null,"roadName":null,"communityName":null,"tranName":null,"sdLineName":null,"cityCode":"1340614","cityName":"国网涞水县供电公司","provinceCode":null,"stopTime":"2019-08-09 08:00:00","powerType":"全部","powerOffArea":"【单台区停电】停东文山东台","powerOffReason":"【停电原因】由于空开烧毁导致１１０ＫＶ涞阳变电站１０ＫＶ东文山５１７线路东文山东台公变台区停电 【变更送电】无 【发布渠道】通过９５５９８发布","powerOffId":"2019080913000052"},{"poweroffId":2019080913000050,"sgpoweroffId":null,"subsName":"","lineName":"10kV东文山517","pubTranName":"北兵上村内台区变压器,","scope":"【影响街道/乡镇】东文山乡 【高危重要客户】无 【影响客户】北兵上村","startTime":"2019-08-09 04:45:52","stopDate":"2019-08-09 08:00:00","orgNo":"1340614","typeCode":"电网故障停限电","poweroffArea":"【单台区停电】停北兵上村内台区变压器","poweroffReason":"【停电原因】由于空开烧毁导致１１０ＫＶ涞水变电站１０ＫＶ东文山５１７线路北兵上村内公变台区停电 【变更送电】无 【发布渠道】通过９５５９８发布","powerTime":"2019-08-09 07:30:32","powerComm":"已送电","subsNo":"","lineNo":"","tgNo":"","tgName":null,"infoStatus":"1","orgName":"国网涞水县供电公司","typeName":null,"infoStatusName":null,"dateDay":null,"orgNos":null,"nowTime":null,"countyName":null,"streetName":null,"villageName":null,"roadName":null,"communityName":null,"tranName":null,"sdLineName":null,"cityCode":"1340614","cityName":"国网涞水县供电公司","provinceCode":null,"stopTime":"2019-08-09 08:00:00","powerType":"全部","powerOffArea":"【单台区停电】停北兵上村内台区变压器","powerOffReason":"【停电原因】由于空开烧毁导致１１０ＫＶ涞水变电站１０ＫＶ东文山５１７线路北兵上村内公变台区停电 【变更送电】无 【发布渠道】通过９５５９８发布","powerOffId":"2019080913000050"},{"poweroffId":2019080913000038,"sgpoweroffId":null,"subsName":"","lineName":"北北里线513","pubTranName":"10kV513北北里线北北里供64号,10kV513北北里线北北里供34号【纯农排变】,10kV513北北里线南北里1号【纯农排变】,10kV513北北里线北北里10号,10kV513北北里线南北里4号【纯农排变】,10kV513北北里线郑庄1号【纯农排变】,10kV513北北里线北北里6号【纯农排变】,河北海意机械制造有限公司,徐水县金路精密构件制造有限公司,10kV513北北里线北北里供80号【纯农排变】,徐水县联创塑粉制造有限公司,10kV513北北里线北北里3号【纯农排变】,徐水县科峰机械制造厂2号,北胡渠西砖厂2号,北胡渠西砖厂1号,10kV513北北里线南北里供44号【纯农排变】,10kV513北北里线南北里2号【纯农排变】,10kV513北北里线南北里供47号【纯农排变】,徐水县和顺建材有限公司,10kV513北北里线北北里2号【纯农排变】,10kV513北北里线北北里8号【纯农排变】,10kV513北北里线北胡11号【纯农排变】,10kV513北北里线南北里10号【纯农排变】,10kV513北北里线南胡8号【纯农排变】,徐水县科峰机械制造厂3号,10kV513北北里线南北里3号【纯农排变】,10kV513北北里线北北里1号,10kV513北北里线北胡供74【纯农排变】,10kV513北北里线北北里9号【纯农排变】,10kV513北北里线南北里6号【纯农排变】,10kV513北北里线南北里供25号,10kV513北北里线南胡13号【纯农排变】,10kV513北北里线南北里供87号,10kV513北北里线北北里4号【纯农排变】,10kV513北北里线北北里供54号,10kV513北北里线南北里供81号【纯农排变】,10kV513北北里线北胡1号,10kV513北北里线北北里5号【纯农排变】,10kV513北北里线北北里7号,10kV513北北里线南北里8号,10kV513北北里线北北里11号,10kV513北北里线北北里供45号,","scope":"【影响街道/乡镇】史端乡 【高危重要客户】无 【影响客户】北北里村、郑庄村、南北里村、北胡村、南胡村","startTime":"2019-08-09 02:57:00","stopDate":"2019-08-09 04:30:00","orgNo":"1340605","typeCode":"电网故障停限电","poweroffArea":"【全线路停电】停10kV513北北里线郑庄1号【纯农排变】,10kV513北北里线北北里6号【纯农排变】,河北海意机械制造有限公司,徐水县金路精密构件制造有限公司,10kV513北北里线北北里供80号【纯农排变】,徐水县联创塑粉制造有限公司,10kV513北北里线北北里3号【纯农排变】,徐水县科峰机械制造厂2号,北胡渠西砖厂2号,北胡渠西砖厂1号,10kV513北北里线南北里供44号【纯农排变】,10kV513北北里线南北里2号【纯农排变】,10kV513北北里线南北里供47号【纯农排变】,徐水县和顺建材有限公司,10kV513北北里线北北里9号【纯农排变】,10kV513北北里线南北里6号【纯农排变】,10kV513北北里线南北里供25号,10kV513北北里线南胡13号【纯农排变】,10kV513北北里线南北里供87号,10kV513北北里线北北里4号【纯农排变】,10kV513北北里线北北里7号,10kV513北北里线南北里8号,10kV513北北里线北北里11号,10kV513北北里线北北里供45号,10kV513北北里线北北里2号【纯农排变】,10kV513北北里线北北里8号【纯农排变】,10kV513北北里线北胡11号【纯农排变】,10kV513北北里线南北里10号【纯农排变】,10kV513北北里线南胡8号【纯农排变】,徐水县科峰机械制造厂3号,10kV513北北里线南北里3号【纯农排变】,10kV513北北里线北北里1号,10kV513北北里线北胡供74【纯农排变】,10kV513北北里线北北里供54号,10kV513北北里线北北里供64号,10kV513北北里线北北里供34号【纯农排变】,10kV513北北里线南北里1号【纯农排变】,10kV513北北里线北北里10号,10kV513北北里线南北里4号【纯农排变】,10kV513北北里线南北里供81号【纯农排变】,10kV513北北里线北胡1号,10kV513北北里线北北里5号【纯农排变】","poweroffReason":"【停电原因】由于Ｂ相接地导致３５ＫＶ史端变电站北北里线５１３线路全线停电 【变更送电】因抢修进度加快原因，送电时间由０８:００变更为０４:３０ 【发布渠道】通过９５５９８发布","powerTime":"2019-08-09 03:54:13","powerComm":"已送电","subsNo":"","lineNo":"","tgNo":"","tgName":null,"infoStatus":"1","orgName":"国网徐水县供电公司","typeName":null,"infoStatusName":null,"dateDay":null,"orgNos":null,"nowTime":null,"countyName":null,"streetName":null,"villageName":null,"roadName":null,"communityName":null,"tranName":null,"sdLineName":null,"cityCode":"1340605","cityName":"国网徐水县供电公司","provinceCode":null,"stopTime":"2019-08-09 04:30:00","powerType":"全部","powerOffArea":"【全线路停电】停10kV513北北里线郑庄1号【纯农排变】,10kV513北北里线北北里6号【纯农排变】,河北海意机械制造有限公司,徐水县金路精密构件制造有限公司,10kV513北北里线北北里供80号【纯农排变】,徐水县联创塑粉制造有限公司,10kV513北北里线北北里3号【纯农排变】,徐水县科峰机械制造厂2号,北胡渠西砖厂2号,北胡渠西砖厂1号,10kV513北北里线南北里供44号【纯农排变】,10kV513北北里线南北里2号【纯农排变】,10kV513北北里线南北里供47号【纯农排变】,徐水县和顺建材有限公司,10kV513北北里线北北里9号【纯农排变】,10kV513北北里线南北里6号【纯农排变】,10kV513北北里线南北里供25号,10kV513北北里线南胡13号【纯农排变】,10kV513北北里线南北里供87号,10kV513北北里线北北里4号【纯农排变】,10kV513北北里线北北里7号,10kV513北北里线南北里8号,10kV513北北里线北北里11号,10kV513北北里线北北里供45号,10kV513北北里线北北里2号【纯农排变】,10kV513北北里线北北里8号【纯农排变】,10kV513北北里线北胡11号【纯农排变】,10kV513北北里线南北里10号【纯农排变】,10kV513北北里线南胡8号【纯农排变】,徐水县科峰机械制造厂3号,10kV513北北里线南北里3号【纯农排变】,10kV513北北里线北北里1号,10kV513北北里线北胡供74【纯农排变】,10kV513北北里线北北里供54号,10kV513北北里线北北里供64号,10kV513北北里线北北里供34号【纯农排变】,10kV513北北里线南北里1号【纯农排变】,10kV513北北里线北北里10号,10kV513北北里线南北里4号【纯农排变】,10kV513北北里线南北里供81号【纯农排变】,10kV513北北里线北胡1号,10kV513北北里线北北里5号【纯农排变】","powerOffReason":"【停电原因】由于Ｂ相接地导致３５ＫＶ史端变电站北北里线５１３线路全线停电 【变更送电】因抢修进度加快原因，送电时间由０８:００变更为０４:３０ 【发布渠道】通过９５５９８发布","powerOffId":"2019080913000038"},{"poweroffId":2019080913000034,"sgpoweroffId":null,"subsName":"","lineName":"北胡线511","pubTranName":"北胡供电所92号配变,北胡16号,北胡10号【纯农排变】,北胡供电所79号,北胡7号【纯农排变】,南胡10号【纯农排变】,北胡9号【纯农排变】,北胡4号【纯农排变】,北胡供电所73号【纯农排变】,北胡3号配变【纯农排变】,北胡6号配变,供电所20号,北胡渠村14号,南胡9号【纯农排变】,南胡2号,南胡供电所65号,史端供电所42号【纯农排变】,北胡13号,史端供电所13号配变【纯农排变】,北胡21号【纯农排变】,南胡15号,史端供电所5号【纯农排变】,供电所72号【纯农排变】,供电所41号,北胡15号配变,北胡2号,保定秦汉新型建材有限公司,北胡12号配变,史端供电所10号,北胡17号,北胡5号,北胡8号,北胡供电所55号配变,南胡供14号,北胡18号【纯农排变】,北胡19号配变【纯农排变】,","scope":"【影响街道/乡镇】史端乡 【高危重要客户】无 【影响客户】北胡渠、南胡渠","startTime":"2019-08-09 02:52:46","stopDate":"2019-08-09 04:30:00","orgNo":"1340605","typeCode":"电网故障停限电","poweroffArea":"【全线路停电】停北胡17号,北胡供电所79号,供电所72号【纯农排变】,史端供电所42号【纯农排变】,北胡13号,北胡19号配变【纯农排变】,保定秦汉新型建材有限公司,北胡15号配变,北胡8号,史端供电所10号,史端供电所5号【纯农排变】,北胡18号【纯农排变】,北胡3号配变【纯农排变】,北胡7号【纯农排变】,北胡供电所73号【纯农排变】,南胡2号,北胡供电所55号配变,北胡2号,史端供电所13号配变【纯农排变】,南胡10号【纯农排变】,供电所20号,北胡10号【纯农排变】,供电所41号,北胡21号【纯农排变】,北胡12号配变,北胡供电所92号配变,南胡9号【纯农排变】,南胡供电所65号,北胡4号【纯农排变】,北胡渠村14号,北胡6号配变,北胡9号【纯农排变】,北胡16号,北胡5号,南胡供14号,南胡15号","poweroffReason":"【停电原因】由于Ｂ相接地导致３５ＫＶ史端变电站北胡线５１１线路全线停电 【变更送电】因抢修进度加快原因，送电时间由０８:００变更为０４:３０ 【发布渠道】通过９５５９８发布","powerTime":"2019-08-09 04:02:04","powerComm":"已送电","subsNo":"","lineNo":"","tgNo":"","tgName":null,"infoStatus":"1","orgName":"国网徐水县供电公司","typeName":null,"infoStatusName":null,"dateDay":null,"orgNos":null,"nowTime":null,"countyName":null,"streetName":null,"villageName":null,"roadName":null,"communityName":null,"tranName":null,"sdLineName":null,"cityCode":"1340605","cityName":"国网徐水县供电公司","provinceCode":null,"stopTime":"2019-08-09 04:30:00","powerType":"全部","powerOffArea":"【全线路停电】停北胡17号,北胡供电所79号,供电所72号【纯农排变】,史端供电所42号【纯农排变】,北胡13号,北胡19号配变【纯农排变】,保定秦汉新型建材有限公司,北胡15号配变,北胡8号,史端供电所10号,史端供电所5号【纯农排变】,北胡18号【纯农排变】,北胡3号配变【纯农排变】,北胡7号【纯农排变】,北胡供电所73号【纯农排变】,南胡2号,北胡供电所55号配变,北胡2号,史端供电所13号配变【纯农排变】,南胡10号【纯农排变】,供电所20号,北胡10号【纯农排变】,供电所41号,北胡21号【纯农排变】,北胡12号配变,北胡供电所92号配变,南胡9号【纯农排变】,南胡供电所65号,北胡4号【纯农排变】,北胡渠村14号,北胡6号配变,北胡9号【纯农排变】,北胡16号,北胡5号,南胡供14号,南胡15号","powerOffReason":"【停电原因】由于Ｂ相接地导致３５ＫＶ史端变电站北胡线５１１线路全线停电 【变更送电】因抢修进度加快原因，送电时间由０８:００变更为０４:３０ 【发布渠道】通过９５５９８发布","powerOffId":"2019080913000034"}],"pageModel":{"pageNow":676,"totalCount":10973,"totalPage":1098,"tableRows":0,"pageCount":10,"beginCount":6750},"isExperi":"1"}