{"message":"","today":"2020-06-15","seleList":[{"poweroffId":2019080813000036,"sgpoweroffId":null,"subsName":"","lineName":"10KV高渠511","pubTranName":"古庄头1189,","scope":"【影响街道/乡镇】高官庄镇 【高危重要客户】无 【影响客户】古庄头","startTime":"2019-08-10 04:30:00","stopDate":"2019-08-10 10:30:00","orgNo":"1340626","typeCode":"临时停电","poweroffArea":"【单台区停电】停古庄头1189","poweroffReason":"【停电原因】由于低压线路切改导致３５ＫＶ高官庄变电站高渠５１１线路古庄头１１８９公变台区停电 【变更送电】无 【发布渠道】通过９５５９８发布","powerTime":"2019-08-10 10:15:48","powerComm":"恢复送电","subsNo":"","lineNo":"","tgNo":"","tgName":null,"infoStatus":"1","orgName":"国网涿州市供电公司","typeName":null,"infoStatusName":null,"dateDay":null,"orgNos":null,"nowTime":null,"countyName":null,"streetName":null,"villageName":null,"roadName":null,"communityName":null,"tranName":null,"sdLineName":null,"cityCode":"1340626","cityName":"国网涿州市供电公司","provinceCode":null,"stopTime":"2019-08-10 10:30:00","powerType":"全部","powerOffArea":"【单台区停电】停古庄头1189","powerOffReason":"【停电原因】由于低压线路切改导致３５ＫＶ高官庄变电站高渠５１１线路古庄头１１８９公变台区停电 【变更送电】无 【发布渠道】通过９５５９８发布","powerOffId":"2019080813000036"},{"poweroffId":2019080813000034,"sgpoweroffId":null,"subsName":"","lineName":"10KV高官庄512","pubTranName":"智军庄牌楼北,","scope":"【影响街道/乡镇】高官庄镇 【高危重要客户】无 【影响客户】智军庄","startTime":"2019-08-10 07:00:00","stopDate":"2019-08-10 10:00:00","orgNo":"1340626","typeCode":"临时停电","poweroffArea":"【单台区停电】停智军庄牌楼北","poweroffReason":"【停电原因】由于低压线路切改导致３５ＫＶ高官庄变电站１０ＫＶ高官庄５１２线路智军庄牌楼北公变台区停电 【变更送电】无 【发布渠道】通过９５５９８发布","powerTime":"2019-08-10 09:45:34","powerComm":"恢复送电","subsNo":"","lineNo":"","tgNo":"","tgName":null,"infoStatus":"1","orgName":"国网涿州市供电公司","typeName":null,"infoStatusName":null,"dateDay":null,"orgNos":null,"nowTime":null,"countyName":null,"streetName":null,"villageName":null,"roadName":null,"communityName":null,"tranName":null,"sdLineName":null,"cityCode":"1340626","cityName":"国网涿州市供电公司","provinceCode":null,"stopTime":"2019-08-10 10:00:00","powerType":"全部","powerOffArea":"【单台区停电】停智军庄牌楼北","powerOffReason":"【停电原因】由于低压线路切改导致３５ＫＶ高官庄变电站１０ＫＶ高官庄５１２线路智军庄牌楼北公变台区停电 【变更送电】无 【发布渠道】通过９５５９８发布","powerOffId":"2019080813000034"},{"poweroffId":2019080813000031,"sgpoweroffId":null,"subsName":"","lineName":"10KV明义514","pubTranName":"丁家洼村南变压器,丁家洼村南二变压器【纯农排变】,丁家洼村内变压器,丁家洼村西变压器,丁家洼村北2变压器,丁家洼村西北变压器,丁家洼村北1变压器,丁家洼村内2变压器,","scope":"【影响街道/乡镇】明义镇 【高危重要客户】无 【影响客户】丁家洼村","startTime":"2019-08-08 08:35:04","stopDate":"2019-08-08 13:00:00","orgNo":"1340614","typeCode":"电网故障停限电","poweroffArea":"【分支停电】停丁家洼村南变压器,丁家洼村南二变压器【纯农排变】,丁家洼村内变压器,丁家洼村西变压器,丁家洼村北2变压器,丁家洼村西北变压器,丁家洼村北1变压器,丁家洼村内2变压器","poweroffReason":"【停电原因】由于电缆烧毁导致３５ＫＶ明义变电站１０ＫＶ明义５１４线路７０号杆至８４号杆停电 【变更送电】无 【发布渠道】通过９５５９８发布","powerTime":"2019-08-08 12:39:17","powerComm":"已送电","subsNo":"","lineNo":"","tgNo":"","tgName":null,"infoStatus":"1","orgName":"国网涞水县供电公司","typeName":null,"infoStatusName":null,"dateDay":null,"orgNos":null,"nowTime":null,"countyName":null,"streetName":null,"villageName":null,"roadName":null,"communityName":null,"tranName":null,"sdLineName":null,"cityCode":"1340614","cityName":"国网涞水县供电公司","provinceCode":null,"stopTime":"2019-08-08 13:00:00","powerType":"全部","powerOffArea":"【分支停电】停丁家洼村南变压器,丁家洼村南二变压器【纯农排变】,丁家洼村内变压器,丁家洼村西变压器,丁家洼村北2变压器,丁家洼村西北变压器,丁家洼村北1变压器,丁家洼村内2变压器","powerOffReason":"【停电原因】由于电缆烧毁导致３５ＫＶ明义变电站１０ＫＶ明义５１４线路７０号杆至８４号杆停电 【变更送电】无 【发布渠道】通过９５５９８发布","powerOffId":"2019080813000031"},{"poweroffId":2019080813000027,"sgpoweroffId":null,"subsName":"","lineName":"10KV檀山512","pubTranName":"北秋兰市场变压器,北秋兰村东2#,北秋兰村东变压器,北秋兰市场2台区,","scope":"【影响街道/乡镇】永阳镇 【高危重要客户】无 【影响客户】北秋兰村","startTime":"2019-08-08 08:15:13","stopDate":"2019-08-08 10:30:00","orgNo":"1340614","typeCode":"电网故障停限电","poweroffArea":"【分支停电】停北秋兰市场变压器,北秋兰村东2#,北秋兰村东变压器,北秋兰市场2台区","poweroffReason":"【停电原因】由于断路器跳闸导致３５ＫＶ明义变电站１０ＫＶ檀山５１２线路北秋兰大分支１７号杆至３０号杆停电 【变更送电】无 【发布渠道】通过９５５９８发布","powerTime":"2019-08-08 10:10:00","powerComm":"已送电","subsNo":"","lineNo":"","tgNo":"","tgName":null,"infoStatus":"1","orgName":"国网涞水县供电公司","typeName":null,"infoStatusName":null,"dateDay":null,"orgNos":null,"nowTime":null,"countyName":null,"streetName":null,"villageName":null,"roadName":null,"communityName":null,"tranName":null,"sdLineName":null,"cityCode":"1340614","cityName":"国网涞水县供电公司","provinceCode":null,"stopTime":"2019-08-08 10:30:00","powerType":"全部","powerOffArea":"【分支停电】停北秋兰市场变压器,北秋兰村东2#,北秋兰村东变压器,北秋兰市场2台区","powerOffReason":"【停电原因】由于断路器跳闸导致３５ＫＶ明义变电站１０ＫＶ檀山５１２线路北秋兰大分支１７号杆至３０号杆停电 【变更送电】无 【发布渠道】通过９５５９８发布","powerOffId":"2019080813000027"},{"poweroffId":2019080813000019,"sgpoweroffId":null,"subsName":"","lineName":"10kV七一路站537线路","pubTranName":"10kVB698箱式变电站B698配电变压器,","scope":"【影响街道/乡镇】五一九路、城苑路 【高危重要客户】无 【影响客户】西苑小区","startTime":"2019-08-08 06:30:00","stopDate":"2019-08-08 11:00:00","orgNo":"13406","typeCode":"电网故障停限电","poweroffArea":"【单台区停电】停10kVB698箱式变电站B698配电变压器","poweroffReason":"【停电原因】由于低压刀闸烧导致１０ＫＶ七一路变电站５３７线路Ｂ６９８公变台区停电【变更送电】无【发布渠道】通过９５５９８发布","powerTime":"2019-08-08 10:49:54","powerComm":"已送电","subsNo":"","lineNo":"","tgNo":"","tgName":null,"infoStatus":"1","orgName":"保定供电公司","typeName":null,"infoStatusName":null,"dateDay":null,"orgNos":null,"nowTime":null,"countyName":null,"streetName":null,"villageName":null,"roadName":null,"communityName":null,"tranName":null,"sdLineName":null,"cityCode":"13406","cityName":"保定供电公司","provinceCode":null,"stopTime":"2019-08-08 11:00:00","powerType":"全部","powerOffArea":"【单台区停电】停10kVB698箱式变电站B698配电变压器","powerOffReason":"【停电原因】由于低压刀闸烧导致１０ＫＶ七一路变电站５３７线路Ｂ６９８公变台区停电【变更送电】无【发布渠道】通过９５５９８发布","powerOffId":"2019080813000019"},{"poweroffId":2019080813000017,"sgpoweroffId":null,"subsName":"","lineName":"10KV明义514","pubTranName":"西明义村西水100变压器,南北庄村东1变压器,樊家台村南水变压器【纯农排变】,台头苗圃厂变压器【纯农排变】,南桥头村南变压器,丁家洼村南变压器,西明义村北变压器,南桥头村西2变压器,三沟子村南变压器,变压器,津同加油站,台头苗圃厂3台区,西明义村北水变压器,西明义村南变压器,三沟子村内变压器,南桥头村内2变压器,南北庄村北水变压器【纯农排变】,西明义村北2变压器,南北庄村内二变压器,西明义村西北井变压器,兴牧矿物饲料100,东顺英合水泥砖制造有限公司250KVA专变,台头村南1变压器,台头村西北专变压器【纯农排变】,福泰石灰制造有限公司315KVA专变,任辉石粉厂,西明义村内变压器,涞水枢纽互通,朝运红盛250KVA专变,抬头村西南2台区变压器,西明义村南2台区,二十里铺村南变压器,南北庄村东2变压器,通达矿物加工,南桥头村西北变压器,南桥头村东2变压器,西明义村内3台区变压器,晓良钙粉一二厂新,南北庄村南变压器,南桥头村内变压器,南桥头村西变压器,西明义村内2台区变压器,涞水县福泰石灰制造有限公司新增变压器250KVA,台头村东南专变压器,丁家洼村南二变压器【纯农排变】,三沟子村东变压器,南桥头村西3台区变压器,台头村南2变压器,南北庄村内变压器,南北庄村北变压器,涞水县福泰石灰制造有限公司新增变压器400KVA,南桥头村西180变压器,台头村北专变压器,长顺钙粉200KVA专变,台头村东变压器,台头村东2变压器,南北庄村南水变压器【纯农排变】,南桥头村西水变压器,樊家台村南变压器,台头村西南专变压器【纯农排变】,南桥头村东变压器,精神病医院配电变压器,兴牧矿物饲料200,樊家台村西水变压器【纯农排变】,台头苗圃厂2变压器,南桥头村东3台区变压器,台头村北变压器,丁家洼村内变压器,南桥头村南2变压器,丁家洼村西变压器,建良印刷有限公司315KVA专变,朝运红盛石灰厂400KVA专变,台头村东南专2变压器,丁家洼村北2变压器,南北庄村东三台区,涞水精神病医,南桥头村内3变压器,丁家洼村西北变压器,西明义村西水变压器,三沟子村北变压器,西官庄村西专变压器【纯农排变】,朝运红盛315KVA变压器,樊家台村内2变压器,南桥头村南三台区,冉冉幼儿园变压器,丁家洼村北1变压器,西明义村西变压器,宏潮钙粉厂,丁家洼村内2变压器,三沟子村西北变压器,樊家台村西混用变压器,兴牧矿物饲料,","scope":"【影响街道/乡镇】明义镇、永阳镇 【高危重要客户】无 【影响客户】西明义村、西官庄村、南北庄村、丁家洼村、三沟子村、南桥头村、樊家台村、台头村、二十里铺村","startTime":"2019-08-08 06:20:46","stopDate":"2019-08-08 09:00:00","orgNo":"1340614","typeCode":"电网故障停限电","poweroffArea":"【全线路停电】停涞水县福泰石灰制造有限公司新增变压器250KVA,台头村东南专变压器,西明义村西水100变压器,南北庄村东1变压器,樊家台村南水变压器【纯农排变】,台头苗圃厂变压器【纯农排变】,南桥头村南变压器,丁家洼村南变压器,西明义村北变压器,南桥头村西2变压器,三沟子村南变压器,变压器,津同加油站,台头苗圃厂3台区,西明义村北水变压器,西明义村南变压器,三沟子村内变压器,南桥头村内2变压器,南北庄村北水变压器【纯农排变】,西明义村北2变压器,南北庄村内二变压器,西明义村西北井变压器,兴牧矿物饲料100,东顺英合水泥砖制造有限公司250KVA专变,台头村南1变压器,台头村西北专变压器【纯农排变】,福泰石灰制造有限公司315KVA专变,任辉石粉厂,西明义村内变压器,涞水枢纽互通,朝运红盛250KVA专变,抬头村西南2台区变压器,西明义村南2台区,二十里铺村南变压器,南北庄村东2变压器,通达矿物加工,南桥头村西北变压器,南桥头村东2变压器,西明义村内3台区变压器,晓良钙粉一二厂新,南北庄村南变压器,南桥头村内变压器,南桥头村西变压器,西明义村内2台区变压器,丁家洼村南二变压器【纯农排变】,三沟子村东变压器,南桥头村西3台区变压器,南桥头村东3台区变压器,台头村北变压器,丁家洼村内变压器,南桥头村南2变压器,丁家洼村西变压器,建良印刷有限公司315KVA专变,朝运红盛石灰厂400KVA专变,台头村东南专2变压器,丁家洼村北2变压器,南北庄村东三台区,涞水精神病医,南桥头村内3变压器,丁家洼村西北变压器,西明义村西水变压器,三沟子村北变压器,西官庄村西专变压器【纯农排变】,朝运红盛315KVA变压器,樊家台村内2变压器,南桥头村南三台区,冉冉幼儿园变压器,丁家洼村北1变压器,西明义村西变压器,宏潮钙粉厂,丁家洼村内2变压器,三沟子村西北变压器,樊家台村西混用变压器,兴牧矿物饲料,台头村南2变压器,南北庄村内变压器,南北庄村北变压器,涞水县福泰石灰制造有限公司新增变压器400KVA,南桥头村西180变压器,台头村北专变压器,长顺钙粉200KVA专变,台头村东变压器,台头村东2变压器,南北庄村南水变压器【纯农排变】,南桥头村西水变压器,樊家台村南变压器,台头村西南专变压器【纯农排变】,南桥头村东变压器,精神病医院配电变压器,兴牧矿物饲料200,樊家台村西水变压器【纯农排变】,台头苗圃厂2变压器","poweroffReason":"【停电原因】由于过流跳闸导致３５ＫＶ明义变电站１０ＫＶ明义５１４线路全线停电 【变更送电】因抢修进度加快原因，送电时间由１０：３０变更为０９：００ 【发布渠道】通过９５５９８发布","powerTime":"2019-08-08 08:38:50","powerComm":"已送电","subsNo":"","lineNo":"","tgNo":"","tgName":null,"infoStatus":"1","orgName":"国网涞水县供电公司","typeName":null,"infoStatusName":null,"dateDay":null,"orgNos":null,"nowTime":null,"countyName":null,"streetName":null,"villageName":null,"roadName":null,"communityName":null,"tranName":null,"sdLineName":null,"cityCode":"1340614","cityName":"国网涞水县供电公司","provinceCode":null,"stopTime":"2019-08-08 09:00:00","powerType":"全部","powerOffArea":"【全线路停电】停涞水县福泰石灰制造有限公司新增变压器250KVA,台头村东南专变压器,西明义村西水100变压器,南北庄村东1变压器,樊家台村南水变压器【纯农排变】,台头苗圃厂变压器【纯农排变】,南桥头村南变压器,丁家洼村南变压器,西明义村北变压器,南桥头村西2变压器,三沟子村南变压器,变压器,津同加油站,台头苗圃厂3台区,西明义村北水变压器,西明义村南变压器,三沟子村内变压器,南桥头村内2变压器,南北庄村北水变压器【纯农排变】,西明义村北2变压器,南北庄村内二变压器,西明义村西北井变压器,兴牧矿物饲料100,东顺英合水泥砖制造有限公司250KVA专变,台头村南1变压器,台头村西北专变压器【纯农排变】,福泰石灰制造有限公司315KVA专变,任辉石粉厂,西明义村内变压器,涞水枢纽互通,朝运红盛250KVA专变,抬头村西南2台区变压器,西明义村南2台区,二十里铺村南变压器,南北庄村东2变压器,通达矿物加工,南桥头村西北变压器,南桥头村东2变压器,西明义村内3台区变压器,晓良钙粉一二厂新,南北庄村南变压器,南桥头村内变压器,南桥头村西变压器,西明义村内2台区变压器,丁家洼村南二变压器【纯农排变】,三沟子村东变压器,南桥头村西3台区变压器,南桥头村东3台区变压器,台头村北变压器,丁家洼村内变压器,南桥头村南2变压器,丁家洼村西变压器,建良印刷有限公司315KVA专变,朝运红盛石灰厂400KVA专变,台头村东南专2变压器,丁家洼村北2变压器,南北庄村东三台区,涞水精神病医,南桥头村内3变压器,丁家洼村西北变压器,西明义村西水变压器,三沟子村北变压器,西官庄村西专变压器【纯农排变】,朝运红盛315KVA变压器,樊家台村内2变压器,南桥头村南三台区,冉冉幼儿园变压器,丁家洼村北1变压器,西明义村西变压器,宏潮钙粉厂,丁家洼村内2变压器,三沟子村西北变压器,樊家台村西混用变压器,兴牧矿物饲料,台头村南2变压器,南北庄村内变压器,南北庄村北变压器,涞水县福泰石灰制造有限公司新增变压器400KVA,南桥头村西180变压器,台头村北专变压器,长顺钙粉200KVA专变,台头村东变压器,台头村东2变压器,南北庄村南水变压器【纯农排变】,南桥头村西水变压器,樊家台村南变压器,台头村西南专变压器【纯农排变】,南桥头村东变压器,精神病医院配电变压器,兴牧矿物饲料200,樊家台村西水变压器【纯农排变】,台头苗圃厂2变压器","powerOffReason":"【停电原因】由于过流跳闸导致３５ＫＶ明义变电站１０ＫＶ明义５１４线路全线停电 【变更送电】因抢修进度加快原因，送电时间由１０：３０变更为０９：００ 【发布渠道】通过９５５９８发布","powerOffId":"2019080813000017"},{"poweroffId":2019080813000015,"sgpoweroffId":null,"subsName":"","lineName":"10KV城区553","pubTranName":"下车亭西台,","scope":"【影响街道/乡镇】东文山乡 【高危重要客户】无 【影响客户】下车亭村","startTime":"2019-08-08 06:03:58","stopDate":"2019-08-08 12:00:00","orgNo":"1340614","typeCode":"电网故障停限电","poweroffArea":"【单台区停电】停下车亭西台","poweroffReason":"【停电原因】由于电缆烧毁导致２２０ＫＶ涞阳变电站１０ＫＶ城区５５３线路下车亭西台公变台区停电 【变更送电】无 【发布渠道】通过９５５９８发布","powerTime":"2019-08-08 11:34:10","powerComm":"已送电","subsNo":"","lineNo":"","tgNo":"","tgName":null,"infoStatus":"1","orgName":"国网涞水县供电公司","typeName":null,"infoStatusName":null,"dateDay":null,"orgNos":null,"nowTime":null,"countyName":null,"streetName":null,"villageName":null,"roadName":null,"communityName":null,"tranName":null,"sdLineName":null,"cityCode":"1340614","cityName":"国网涞水县供电公司","provinceCode":null,"stopTime":"2019-08-08 12:00:00","powerType":"全部","powerOffArea":"【单台区停电】停下车亭西台","powerOffReason":"【停电原因】由于电缆烧毁导致２２０ＫＶ涞阳变电站１０ＫＶ城区５５３线路下车亭西台公变台区停电 【变更送电】无 【发布渠道】通过９５５９８发布","powerOffId":"2019080813000015"},{"poweroffId":2019080813000011,"sgpoweroffId":null,"subsName":"","lineName":"大兰线514","pubTranName":"刘占平铁选厂,龙家铺村1#,大兰村5#一队,易县国占铁选厂315KVA,北口子村5#分支,大兰村4#三队,国刚铁选厂,易县诚信钙粉厂,五间房村1#,易县炽达方解石矿有限公司,北口子疗养院,北口子村3号,苑岗村3#,小兰村1号,大兰村2#,变压器,南杜岗村1#,龙家铺村4#村东（综）,造全铁选厂(400KVA),桑岗村2|【纯农排变】,川角村5,河北省高速公路荣乌管理处315KVA,川角村3#,小兰村2,北口子4#,北口子村2#,南杜岗村3#,苑岗村2#,苑岗村1#,桑岗村1号,川角村2,0546380840-良岗新所-专变-47853302-良岗新所,丰发沟钨粉厂,大兰3台区,大平地,大兰村1#,龙村2#,北口子村1,川角村1#（新,桑岗村3#,龙村1#,川角村1#,北口子村6#变压器,兴达铁选厂,大平地1#,孙文报变压器,龙村水库,龙江铁选厂,大兰村6#,小平地村1#,中国冶金地质总局第一地质勘察院变压器,南杜岗村2#,川角村4#,桑岗4#变压器,小兰村2#变压器,龙家铺1号新,安全铁选厂(500KVA),龙家铺村3#,","scope":"【影响街道/乡镇】坡仓乡、良岗镇【高危重要客户】无【影响客户】苑岗村、南杜岗村、桑岗村、龙家铺村、龙村、五间房村、大平地村、小兰村、大兰村、川角村、北口子村、小平地村","startTime":"2019-08-08 03:55:43","stopDate":"2019-08-08 09:20:00","orgNo":"1340625","typeCode":"电网故障停限电","poweroffArea":"【全线路停电】停龙家铺1号新,北口子村5#分支,易县国占铁选厂315KVA,小兰村2,北口子4#,川角村4#,小平地村1#,中国冶金地质总局第一地质勘察院变压器,桑岗村1号,桑岗村2|【纯农排变】,大平地1#,龙村2#,北口子村2#,南杜岗村3#,0546380840-良岗新所-专变-47853302-良岗新所,丰发沟钨粉厂,安全铁选厂(500KVA),川角村3#,川角村1#（新,龙家铺村3#,易县炽达方解石矿有限公司,大兰村5#一队,大兰村4#三队,孙文报变压器,桑岗4#变压器,北口子村6#变压器,北口子村3号,川角村2,小兰村1号,河北省高速公路荣乌管理处315KVA,大兰村2#,小兰村2#变压器,龙家铺村1#,北口子村1,兴达铁选厂,龙江铁选厂,五间房村1#,龙村水库,北口子疗养院,大兰3台区,大平地,龙村1#,苑岗村1#,南杜岗村2#,易县诚信钙粉厂,国刚铁选厂,造全铁选厂(400KVA),大兰村1#,川角村1#,苑岗村2#,变压器,苑岗村3#,南杜岗村1#,龙家铺村4#村东（综）,刘占平铁选厂,川角村5,桑岗村3#,大兰村6#","poweroffReason":"【停电原因】由于速断跳闸导致１１０ＫＶ良岗变电站大兰线５１４线路全线停电【变更送电】因抢修进度加快原因，送电时间由１６:００变更为０９:２０【发布渠道】通过９５５９８发布","powerTime":"2019-08-08 08:48:50","powerComm":"已送电","subsNo":"","lineNo":"","tgNo":"","tgName":null,"infoStatus":"1","orgName":"国网易县供电公司","typeName":null,"infoStatusName":null,"dateDay":null,"orgNos":null,"nowTime":null,"countyName":null,"streetName":null,"villageName":null,"roadName":null,"communityName":null,"tranName":null,"sdLineName":null,"cityCode":"1340625","cityName":"国网易县供电公司","provinceCode":null,"stopTime":"2019-08-08 09:20:00","powerType":"全部","powerOffArea":"【全线路停电】停龙家铺1号新,北口子村5#分支,易县国占铁选厂315KVA,小兰村2,北口子4#,川角村4#,小平地村1#,中国冶金地质总局第一地质勘察院变压器,桑岗村1号,桑岗村2|【纯农排变】,大平地1#,龙村2#,北口子村2#,南杜岗村3#,0546380840-良岗新所-专变-47853302-良岗新所,丰发沟钨粉厂,安全铁选厂(500KVA),川角村3#,川角村1#（新,龙家铺村3#,易县炽达方解石矿有限公司,大兰村5#一队,大兰村4#三队,孙文报变压器,桑岗4#变压器,北口子村6#变压器,北口子村3号,川角村2,小兰村1号,河北省高速公路荣乌管理处315KVA,大兰村2#,小兰村2#变压器,龙家铺村1#,北口子村1,兴达铁选厂,龙江铁选厂,五间房村1#,龙村水库,北口子疗养院,大兰3台区,大平地,龙村1#,苑岗村1#,南杜岗村2#,易县诚信钙粉厂,国刚铁选厂,造全铁选厂(400KVA),大兰村1#,川角村1#,苑岗村2#,变压器,苑岗村3#,南杜岗村1#,龙家铺村4#村东（综）,刘占平铁选厂,川角村5,桑岗村3#,大兰村6#","powerOffReason":"【停电原因】由于速断跳闸导致１１０ＫＶ良岗变电站大兰线５１４线路全线停电【变更送电】因抢修进度加快原因，送电时间由１６:００变更为０９:２０【发布渠道】通过９５５９８发布","powerOffId":"2019080813000011"},{"poweroffId":2019080813000009,"sgpoweroffId":null,"subsName":"","lineName":"石岗线512","pubTranName":"石岗村3#,新双水泥制品厂变压器,方岗村1#,易县利来钙粉厂(100KVA),石岗村1#,许家村2#,金冠铁选厂2*250KVA-1,河西村4#,易县文海建材销售有限公司变压器,河西村1#,水口村1#,黄沙口村2#,良岗村2#,方岗村3#,华友钙粉厂250KVA-2号,水口村2#,易县宏安钙粉厂,聚金元铁选厂,许家村7#,黄沙口村8#,南坡村3#,0469487145-良岗中心小学-专变-150628977-良岗中心小学变压器,黄沙口村5#,赵廷刚,兴源铁选厂,河西村2#,华友钙粉厂250KVA-1号,易县银龙石材加工厂变压器,良岗钙粉厂(360KVA),良岗石板厂,黄沙口村1#,许家村5#,方岗村2#,许家村3#,南坡5#,良岗村4#,腾飞钙粉1#160KVA,许家村2#214,南坡村1#,良岗镇政府,许家村4#,金冠铁选厂2*250KVA-2,黄沙口村7#,水口村3#,黄沙口4#,许家村1#,易县金鑫石材有限公司变压器,易县源通淡水鱼养殖有限公司变压器,腾飞钙粉2#200KVA,良岗医院,四通铁选厂,金冠铁选厂,石岗村2#,良岗村1#,良岗村7#,水口村4#【纯农排变】,易县华友钙粉厂变压器,金泰铁选厂(50KVA),良岗村6#,易县利来钙粉厂(500KVA),变压器,易县金冠铁选厂变压器,方岗村4#,南坡村4#,易县水口村赵艺剪纸厂变压器,易县良岗鑫跃饭店变压器,良岗村9#,黄沙口村3#,恒丰球团厂(500KVA),黄沙口村6#,森阳铁选厂,万鑫铁选厂,福龙铁选厂,良岗村3#,良岗村8#,易县安达燃气销售有限公司变压器,黄沙口村王保同变压器,南坡村2#,良岗村5#,变压器2,变压器3,造全铁选厂(160KVA),石岗村4#,河西村3#,","scope":"【影响街道/乡镇】坡仓乡、良岗镇【高危重要客户】无【影响客户】南杜岗村、水口村、黄沙口村、许家村、河西村、石岗村、南坡村、方岗村、良岗村","startTime":"2019-08-08 03:54:18","stopDate":"2019-08-08 10:10:00","orgNo":"1340625","typeCode":"电网故障停限电","poweroffArea":"【全线路停电】停石岗村3#,良岗村1#,河西村1#,万鑫铁选厂,方岗村1#,聚金元铁选厂,良岗医院,黄沙口村7#,良岗镇政府,易县利来钙粉厂(100KVA),河西村4#,兴源铁选厂,南坡村4#,黄沙口村3#,良岗村6#,福龙铁选厂,变压器3,黄沙口村王保同变压器,易县水口村赵艺剪纸厂变压器,南坡村1#,良岗村4#,良岗村3#,许家村5#,黄沙口村6#,森阳铁选厂,腾飞钙粉1#160KVA,变压器,金冠铁选厂,易县安达燃气销售有限公司变压器,石岗村1#,易县文海建材销售有限公司变压器,南坡村3#,变压器2,易县银龙石材加工厂变压器,恒丰球团厂(500KVA),许家村1#,易县利来钙粉厂(500KVA),良岗村8#,许家村2#214,许家村7#,易县金鑫石材有限公司变压器,腾飞钙粉2#200KVA,方岗村3#,南坡村2#,0469487145-良岗中心小学-专变-150628977-良岗中心小学变压器,河西村2#,良岗村5#,华友钙粉厂250KVA-2号,易县良岗鑫跃饭店变压器,水口村3#,黄沙口村8#,良岗村7#,易县源通淡水鱼养殖有限公司变压器,良岗村2#,良岗村9#,河西村3#,水口村4#【纯农排变】,金泰铁选厂(50KVA),石岗村2#,华友钙粉厂250KVA-1号,许家村2#,许家村3#,许家村4#,易县宏安钙粉厂,黄沙口4#,黄沙口村5#,金冠铁选厂2*250KVA-2,方岗村4#,金冠铁选厂2*250KVA-1,水口村1#,造全铁选厂(160KVA),易县金冠铁选厂变压器,良岗钙粉厂(360KVA),水口村2#,易县华友钙粉厂变压器,黄沙口村2#,方岗村2#,赵廷刚,新双水泥制品厂变压器,良岗石板厂,黄沙口村1#,四通铁选厂,石岗村4#,南坡5#","poweroffReason":"【停电原因】由于速断跳闸导致１１０ＫＶ良岗变电站石岗５１２线路全线停电【变更送电】因抢修进度加快原因，送电时间由１６:００变更为１０：１０【发布渠道】通过９５５９８发布","powerTime":"2019-08-08 09:59:38","powerComm":"已送电","subsNo":"","lineNo":"","tgNo":"","tgName":null,"infoStatus":"1","orgName":"国网易县供电公司","typeName":null,"infoStatusName":null,"dateDay":null,"orgNos":null,"nowTime":null,"countyName":null,"streetName":null,"villageName":null,"roadName":null,"communityName":null,"tranName":null,"sdLineName":null,"cityCode":"1340625","cityName":"国网易县供电公司","provinceCode":null,"stopTime":"2019-08-08 10:10:00","powerType":"全部","powerOffArea":"【全线路停电】停石岗村3#,良岗村1#,河西村1#,万鑫铁选厂,方岗村1#,聚金元铁选厂,良岗医院,黄沙口村7#,良岗镇政府,易县利来钙粉厂(100KVA),河西村4#,兴源铁选厂,南坡村4#,黄沙口村3#,良岗村6#,福龙铁选厂,变压器3,黄沙口村王保同变压器,易县水口村赵艺剪纸厂变压器,南坡村1#,良岗村4#,良岗村3#,许家村5#,黄沙口村6#,森阳铁选厂,腾飞钙粉1#160KVA,变压器,金冠铁选厂,易县安达燃气销售有限公司变压器,石岗村1#,易县文海建材销售有限公司变压器,南坡村3#,变压器2,易县银龙石材加工厂变压器,恒丰球团厂(500KVA),许家村1#,易县利来钙粉厂(500KVA),良岗村8#,许家村2#214,许家村7#,易县金鑫石材有限公司变压器,腾飞钙粉2#200KVA,方岗村3#,南坡村2#,0469487145-良岗中心小学-专变-150628977-良岗中心小学变压器,河西村2#,良岗村5#,华友钙粉厂250KVA-2号,易县良岗鑫跃饭店变压器,水口村3#,黄沙口村8#,良岗村7#,易县源通淡水鱼养殖有限公司变压器,良岗村2#,良岗村9#,河西村3#,水口村4#【纯农排变】,金泰铁选厂(50KVA),石岗村2#,华友钙粉厂250KVA-1号,许家村2#,许家村3#,许家村4#,易县宏安钙粉厂,黄沙口4#,黄沙口村5#,金冠铁选厂2*250KVA-2,方岗村4#,金冠铁选厂2*250KVA-1,水口村1#,造全铁选厂(160KVA),易县金冠铁选厂变压器,良岗钙粉厂(360KVA),水口村2#,易县华友钙粉厂变压器,黄沙口村2#,方岗村2#,赵廷刚,新双水泥制品厂变压器,良岗石板厂,黄沙口村1#,四通铁选厂,石岗村4#,南坡5#","powerOffReason":"【停电原因】由于速断跳闸导致１１０ＫＶ良岗变电站石岗５１２线路全线停电【变更送电】因抢修进度加快原因，送电时间由１６:００变更为１０：１０【发布渠道】通过９５５９８发布","powerOffId":"2019080813000009"},{"poweroffId":2019080813000001,"sgpoweroffId":null,"subsName":"","lineName":"营房线513","pubTranName":"郑村光10,红树营光1,红树营光5,史庄光3,河内排2【纯农排变】,红树营光8,郑村排9【纯农排变】,郑村排2【纯农排变】,红树营排1【纯农排变】,仓巨光9,郑村光9,新郑村光4,仓巨光11,红树营光2变压器,耿家庄光5变压器,北河光14变压器,红树营光5变压器,红树营光7变压器,新郑村光2,红树光8,红树营公用,耿庄光2变压器,红树光3【2018年重过载】,仓巨光10,仓巨光13【2019年预安排】,红树营光8变压器,红树营光1变压器,北河光1变压器,耿家庄光1变压器,耿家庄光3变压器,郑村光8,红树排3【纯农排变】,仓巨排4【纯农排变】,郑村光12,仓巨排7【纯农排变】,仓巨光8,仓巨排1【纯农排变】,郑村光3,红树光1,仓巨光5,北河排5【纯农排变】,郑村排8【纯农排变】,郑村排10【纯农排变】,仓巨光2,郑村光5-2,仓巨光1,北河排8【纯农排变】,北河排4【纯农排变】,仓巨光4,仓巨排6【纯农排变】,仓巨光6,红树光6,仓巨排3【纯农排变】,红树营排7【纯农排变】,郑村排3【纯农排变】,郑村光1,仓巨光12,红树营光2,郑村排13【纯农排变】,耿庄光3,仓巨排2【纯农排变】,红树排4【纯农排变】,郑村排4【纯农排变】,郑村光11,河内排1【纯农排变】,红树排1【纯农排变】,郑村光7,史庄光1,郑村光6,郑村排11【纯农排变】,北河光1,北河排6【纯农排变】,郑村排5【纯农排变】,郑村排7【纯农排变】,北河排1【纯农排变】,红树光4,红树排2【纯农排变】,红树村光7,红树光2,耿家庄光2,史庄排1【纯农排变】,仓巨排8【纯农排变】,仓巨光7,红树营光7,史庄光2,耿家庄光1,郑村排12【纯农排变】,红树光5,郑村排6【纯农排变】,仓巨光3,郑村排1【纯农排变】,","scope":"【影响街道/乡镇】北河镇 【高危重要客户】６６１５７部队、９６６２０部队、６６３３６部队 【影响客户】红树营、红树村、史家庄、耿家庄、仓巨、郑村、北河村、郑悦糖厂、河北强力建筑集团、仓巨面粉厂、河内部分用户","startTime":"2019-08-07 23:56:47","stopDate":"2019-08-08 03:00:00","orgNo":"1340609","typeCode":"电网故障停限电","poweroffArea":"【全线路停电】停仓巨光9,郑村光9,新郑村光4,新郑村光2,仓巨光11,红树营光2变压器,耿家庄光5变压器,北河光14变压器,红树营光5变压器,红树营光7变压器,红树光8,红树营公用,耿庄光2变压器,红树光3【2018年重过载】,仓巨光10,仓巨光13【2019年预安排】 ,红树营光8变压器,红树营光1变压器,北河光1变压器,耿家庄光1变压器,耿家庄光3变压器,郑村光8,红树排3【纯农排变】,仓巨排4【纯农排变】,郑村光12,郑村光10,红树营光1,红树营光5,史庄光3,河内排2【纯农排变】,红树营光8,郑村排9【纯农排变】,郑村排2【纯农排变】,红树营排1【纯农排变】,仓巨排7【纯农排变】,仓巨光8,仓巨排1【纯农排变】,郑村光3,红树光1,仓巨光5,北河排5【纯农排变】,郑村排8【纯农排变】,郑村排10【纯农排变】,仓巨光2,郑村光5-2,仓巨光1,北河排8【纯农排变】,北河排4【纯农排变】,仓巨光4,仓巨排6【纯农排变】,仓巨光6,红树光6,仓巨排3【纯农排变】,红树营排7【纯农排变】,郑村排3【纯农排变】,郑村光1,仓巨光12,红树营光2,郑村排13【纯农排变】,耿庄光3,仓巨排2【纯农排变】,红树排4【纯农排变】,郑村排4【纯农排变】,郑村光11,河内排1【纯农排变】,红树排1【纯农排变】,郑村光7,史庄光1,郑村光6,郑村排11【纯农排变】,北河光1,北河排6【纯农排变】,郑村排5【纯农排变】,郑村排7【纯农排变】,北河排1【纯农排变】,红树光4,红树排2【纯农排变】,红树村光7,红树光2,耿家庄光2,史庄排1【纯农排变】,仓巨排8【纯农排变】,仓巨光7,红树营光7,史庄光2,耿家庄光1,郑村排12【纯农排变】,红树光5,郑村排6【纯农排变】,仓巨光3,郑村排1【纯农排变】","poweroffReason":"【停电原因】由于营房配变跌落保险烧坏导致１１０ＫＶ北河变电站营房线５１３线路全线停电 【变更送电】因抢修进度加快原因，送电时间由０６：００变更为０３：００ 【发布渠道】通过９５５９８发布","powerTime":"2019-08-08 02:13:36","powerComm":"已送电","subsNo":"","lineNo":"","tgNo":"","tgName":null,"infoStatus":"1","orgName":"国网定兴县供电公司","typeName":null,"infoStatusName":null,"dateDay":null,"orgNos":null,"nowTime":null,"countyName":null,"streetName":null,"villageName":null,"roadName":null,"communityName":null,"tranName":null,"sdLineName":null,"cityCode":"1340609","cityName":"国网定兴县供电公司","provinceCode":null,"stopTime":"2019-08-08 03:00:00","powerType":"全部","powerOffArea":"【全线路停电】停仓巨光9,郑村光9,新郑村光4,新郑村光2,仓巨光11,红树营光2变压器,耿家庄光5变压器,北河光14变压器,红树营光5变压器,红树营光7变压器,红树光8,红树营公用,耿庄光2变压器,红树光3【2018年重过载】,仓巨光10,仓巨光13【2019年预安排】 ,红树营光8变压器,红树营光1变压器,北河光1变压器,耿家庄光1变压器,耿家庄光3变压器,郑村光8,红树排3【纯农排变】,仓巨排4【纯农排变】,郑村光12,郑村光10,红树营光1,红树营光5,史庄光3,河内排2【纯农排变】,红树营光8,郑村排9【纯农排变】,郑村排2【纯农排变】,红树营排1【纯农排变】,仓巨排7【纯农排变】,仓巨光8,仓巨排1【纯农排变】,郑村光3,红树光1,仓巨光5,北河排5【纯农排变】,郑村排8【纯农排变】,郑村排10【纯农排变】,仓巨光2,郑村光5-2,仓巨光1,北河排8【纯农排变】,北河排4【纯农排变】,仓巨光4,仓巨排6【纯农排变】,仓巨光6,红树光6,仓巨排3【纯农排变】,红树营排7【纯农排变】,郑村排3【纯农排变】,郑村光1,仓巨光12,红树营光2,郑村排13【纯农排变】,耿庄光3,仓巨排2【纯农排变】,红树排4【纯农排变】,郑村排4【纯农排变】,郑村光11,河内排1【纯农排变】,红树排1【纯农排变】,郑村光7,史庄光1,郑村光6,郑村排11【纯农排变】,北河光1,北河排6【纯农排变】,郑村排5【纯农排变】,郑村排7【纯农排变】,北河排1【纯农排变】,红树光4,红树排2【纯农排变】,红树村光7,红树光2,耿家庄光2,史庄排1【纯农排变】,仓巨排8【纯农排变】,仓巨光7,红树营光7,史庄光2,耿家庄光1,郑村排12【纯农排变】,红树光5,郑村排6【纯农排变】,仓巨光3,郑村排1【纯农排变】","powerOffReason":"【停电原因】由于营房配变跌落保险烧坏导致１１０ＫＶ北河变电站营房线５１３线路全线停电 【变更送电】因抢修进度加快原因，送电时间由０６：００变更为０３：００ 【发布渠道】通过９５５９８发布","powerOffId":"2019080813000001"}],"pageModel":{"pageNow":681,"totalCount":10973,"totalPage":1098,"tableRows":0,"pageCount":10,"beginCount":6800},"isExperi":"1"}