{"message":"","today":"2020-06-15","seleList":[{"poweroffId":2019080613000180,"sgpoweroffId":null,"subsName":"","lineName":"10kV525地道桥线","pubTranName":"农机局公用照明1台区中压出线间隔配电变压器,","scope":"【影响街道/乡镇】中兴西路【高危重要客户】无【影响客户】农机局家属院","startTime":"2019-08-06 17:01:43","stopDate":"2019-08-06 20:00:00","orgNo":"1340610","typeCode":"电网故障停限电","poweroffArea":"【单台区停电】停农机局公用照明1台区中压出线间隔配电变压器","poweroffReason":"【停电原因】由于低压线断导致１１０ＫＶ定县变电站１０ＫＶ５２５地道桥线路农机局公用照明１台区停电 【变更送电】无 【发布渠道】９５５９８","powerTime":"2019-08-06 19:55:18","powerComm":"已送电","subsNo":"","lineNo":"","tgNo":"","tgName":null,"infoStatus":"1","orgName":"国网定州市供电公司","typeName":null,"infoStatusName":null,"dateDay":null,"orgNos":null,"nowTime":null,"countyName":null,"streetName":null,"villageName":null,"roadName":null,"communityName":null,"tranName":null,"sdLineName":null,"cityCode":"1340610","cityName":"国网定州市供电公司","provinceCode":null,"stopTime":"2019-08-06 20:00:00","powerType":"全部","powerOffArea":"【单台区停电】停农机局公用照明1台区中压出线间隔配电变压器","powerOffReason":"【停电原因】由于低压线断导致１１０ＫＶ定县变电站１０ＫＶ５２５地道桥线路农机局公用照明１台区停电 【变更送电】无 【发布渠道】９５５９８","powerOffId":"2019080613000180"},{"poweroffId":2019080613000149,"sgpoweroffId":null,"subsName":"","lineName":"贾南线514","pubTranName":"王文内南2号配变,王文村南【纯农排变】,小寨子村配变,王文内东2号配变,小寨子北面粉厂,王文光伏配变,王文果园北【纯农排变】,王文内南配变,王文南中【纯农排变】,王文西2【纯农排变】,小寨子东跑2号【纯农排变】,王文果园南【纯农排变】,小寨子内西北配变,小寨子西北配变,王文南1【纯农排变】,移动公司小寨子机站,王文内西配变,王文南【纯农排变】,小寨子村东【纯农排变】,小寨子内北配变,小寨子内东配变,王文内东配变,小寨子小区配变,王文西农2号【纯农排变】,王文南中2号【纯农排变】,王文南2【纯农排变】,","scope":"【影响街道/乡镇】贾村乡　　 【高危重要客户】无　　 【影响客户】王文、小寨子、小寨子面粉厂、小寨子移动","startTime":"2019-08-06 17:00:00","stopDate":"2019-08-06 19:00:00","orgNo":"1340623","typeCode":"其他临时停电","poweroffArea":"【分支停电】停小寨子西北配变,王文内南2号配变,王文村南【纯农排变】,小寨子村配变,王文内东2号配变,小寨子北面粉厂,王文光伏配变,王文果园北【纯农排变】,王文内南配变,王文南中【纯农排变】,王文西2【纯农排变】,小寨子东跑2号【纯农排变】,王文果园南【纯农排变】,小寨子内西北配变,王文南1【纯农排变】,移动公司小寨子机站,王文内西配变,王文南【纯农排变】,小寨子村东【纯农排变】,小寨子内北配变,小寨子内东配变,王文内东配变,小寨子小区配变,王文西农2号【纯农排变】,王文南中2号【纯农排变】,王文南2【纯农排变】","poweroffReason":"【停电原因】由于小寨子南跑分支刀闸Ｂ相引线发热，需停电进行紧急消缺导致３５ＫＶ贾村变电站贾南线５１４线路０１６号杆５１４４号开关以下线路停电 【变更送电】无 【发布渠道】通过９５５９８发布","powerTime":"2019-08-06 18:50:35","powerComm":"已送电","subsNo":"","lineNo":"","tgNo":"","tgName":null,"infoStatus":"1","orgName":"国网望都县供电公司","typeName":null,"infoStatusName":null,"dateDay":null,"orgNos":null,"nowTime":null,"countyName":null,"streetName":null,"villageName":null,"roadName":null,"communityName":null,"tranName":null,"sdLineName":null,"cityCode":"1340623","cityName":"国网望都县供电公司","provinceCode":null,"stopTime":"2019-08-06 19:00:00","powerType":"全部","powerOffArea":"【分支停电】停小寨子西北配变,王文内南2号配变,王文村南【纯农排变】,小寨子村配变,王文内东2号配变,小寨子北面粉厂,王文光伏配变,王文果园北【纯农排变】,王文内南配变,王文南中【纯农排变】,王文西2【纯农排变】,小寨子东跑2号【纯农排变】,王文果园南【纯农排变】,小寨子内西北配变,王文南1【纯农排变】,移动公司小寨子机站,王文内西配变,王文南【纯农排变】,小寨子村东【纯农排变】,小寨子内北配变,小寨子内东配变,王文内东配变,小寨子小区配变,王文西农2号【纯农排变】,王文南中2号【纯农排变】,王文南2【纯农排变】","powerOffReason":"【停电原因】由于小寨子南跑分支刀闸Ｂ相引线发热，需停电进行紧急消缺导致３５ＫＶ贾村变电站贾南线５１４线路０１６号杆５１４４号开关以下线路停电 【变更送电】无 【发布渠道】通过９５５９８发布","powerOffId":"2019080613000149"},{"poweroffId":2019080613000137,"sgpoweroffId":null,"subsName":"","lineName":"吴庄线516","pubTranName":"南邵庄供69号变压器,南邵庄供43号变压器,徐水县宏鑫建材商店,徐水县助力加热油管厂,商平庄供123号变压器,客户投资_商平庄6号,王铁庄供33号变压器,南邵庄12号变压器,徐水县仙登鞋材厂,南邵庄供101#高压间隔配电变压器,北邵庄供42号变压器,徐水县东方灵星机毡厂,保定市徐水区百渡鞋材加工厂,北邵庄3号变压器,崔庄镇北邵庄幼儿园,南邵庄供75号变压器,北邵庄供125号变压器,北邵庄供129号变压器,张庄供113号变压器,商平庄供2号变压器,北邵庄4号变压器,变压器,干河沟供162号变压器,北邵庄2号变压器【纯农排变】,徐水县吉星宇鞋服制造有限公司,干沟供52号变压器,南邵庄供149号高压间隔配电变压器,保定亿盛鞋业有限公司,吴庄12号变压器,商平庄供46号变压器,徐水县伟通机械加工厂,南邵庄供110号变压器,徐水县东信毛纺制品有限公司,保定市徐水区永盛橡塑厂,南邵庄供153号变压器,徐水县华晨铸造厂,保定市徐水区奥尔特鞋材厂,徐水县金龙机架厂,南邵庄供28号变压器【纯农排变】,南邵庄面粉一厂,南邵庄油毡厂,徐水县华鑫碾米加工厂,徐水县中原包装厂,徐水县峻鼎鞋材有限公司(250KVA),保定市徐水天源综合医院,徐水县宏达制鞋厂,保定市徐水区崔庄镇南邵庄小学,南邵庄3号变压器,张庄2号变压器【纯农排变】,太行毛纺集团3号,徐水县远征橡胶制品厂1号,南邵庄13号变压器,东方灵星机毡厂,徐水县东升针刺毡厂,南邵庄汽车电路器材厂,南邵庄供100#箱变 配电变压器,商平庄供83号变压器,徐水县宝来毛纺制品有限公司2号,三环橡胶厂,0675479965-徐水县昌顺木材加工有限公司-专变-216137462-徐水县昌顺木材加工有限公司,永兴拔丝厂,南邵庄供152号变压器,南邵庄10号变压器,北邵庄供103号变压器,王铁庄供160号变压器,保定市徐水区深红鞋材加工厂,徐水县思美特鞋厂变压器,南邵庄供32号变压器,南邵庄5号变压器,南邵庄11号变压器,南邵供34号变压器,0684455497-徐水县思美特鞋厂-专变-223609302-徐水县思美特鞋厂变压器,南邵庄8号变压器【纯农排变】,永胜毛纺厂,南邵庄水么石厂,商平庄鞋厂,南邵庄供91号变压器,北邵供65号变压器【纯农排变】,商平庄小康鞋厂,南邵庄供99号变压器,0680042882-保定市苏坨面粉加工有限公司-专变-219584554-保定市苏坨面粉加工有限公司变压器,张庄3号变压器,河北冀鑫鲁屹废旧金属回收有限公司,河北宏图钢结构工程有限公司,徐水县远征鞋底厂,南邵庄供102#箱变配电变压器,北邵庄1号变压器【纯农排变】,徐水县盛达电路板厂,朝阳毛纺厂,徐水县盛源工艺加工厂,南邵庄供77号变压器,徐水县顺达模具厂,徐水县远征橡胶制品厂3号,吉昌毛纺厂,徐水县吉星宇鞋服制造有限公司1号,红星造纸厂1号,徐水县邵庄增国鞋厂,南邵庄板厂,保定华艺帽业有限公司2号250,北邵庄6号变压器,徐水县超亿鞋服有限公司,保定市徐水区帮农农资经销处,南邵庄4号变压器,南邵庄9号变压器,保定市徐水区源晟鞋材经销处,保定东信毛纺制品有限公司,南邵庄供154号变压器,北邵庄供106号变压器,南邵庄","scope":"【影响街道/乡镇】崔庄镇 【高危重要客户】无 【影响客户】南邵庄、商平庄、王铁庄、北邵庄、张庄、干河沟、干沟、吴庄","startTime":"2019-08-07 04:00:00","stopDate":"2019-08-07 06:00:00","orgNo":"1340605","typeCode":"其他临时停电","poweroffArea":"【全线路停电】停南邵庄供69号变压器,南邵庄供43号变压器,徐水县宏鑫建材商店,徐水县助力加热油管厂,商平庄供123号变压器,客户投资_商平庄6号,王铁庄供33号变压器,南邵庄12号变压器,徐水县仙登鞋材厂,南邵庄供101#高压间隔配电变压器,北邵庄供42号变压器,徐水县东方灵星机毡厂,保定市徐水区百渡鞋材加工厂,北邵庄3号变压器,崔庄镇北邵庄幼儿园,南邵庄供75号变压器,北邵庄供129号变压器,张庄供113号变压器,商平庄供2号变压器,北邵庄4号变压器,变压器,干河沟供162号变压器,北邵庄2号变压器【纯农排变】,徐水县吉星宇鞋服制造有限公司,干沟供52号变压器,南邵庄供149号高压间隔配电变压器,保定亿盛鞋业有限公司,吴庄12号变压器,商平庄供46号变压器,徐水县伟通机械加工厂,南邵庄供110号变压器,徐水县东信毛纺制品有限公司,保定市徐水区永盛橡塑厂,南邵庄供153号变压器,北邵庄供125号变压器,徐水县华晨铸造厂,保定市徐水区奥尔特鞋材厂,徐水县金龙机架厂,南邵庄供28号变压器【纯农排变】,徐水县华鑫碾米加工厂,徐水县中原包装厂,徐水县峻鼎鞋材有限公司(250KVA),保定市徐水天源综合医院,徐水县宏达制鞋厂,保定市徐水区崔庄镇南邵庄小学,南邵庄3号变压器,张庄2号变压器【纯农排变】,太行毛纺集团3号,徐水县远征橡胶制品厂1号,南邵庄13号变压器,东方灵星机毡厂,徐水县东升针刺毡厂,南邵庄汽车电路器材厂,南邵庄供100#箱变 配电变压器,商平庄供83号变压器,徐水县宝来毛纺制品有限公司2号,三环橡胶厂,0675479965-徐水县昌顺木材加工有限公司-专变-216137462-徐水县昌顺木材加工有限公司,永兴拔丝厂,南邵庄供152号变压器,南邵庄10号变压器,北邵庄供103号变压器,王铁庄供160号变压器,保定市徐水区深红鞋材加工厂,徐水县思美特鞋厂变压器,南邵庄供32号变压器,南邵庄5号变压器,南邵庄11号变压器,南邵供34号变压器,0684455497-徐水县思美特鞋厂-专变-223609302-徐水县思美特鞋厂变压器,南邵庄8号变压器【纯农排变】,永胜毛纺厂,南邵庄水么石厂,商平庄鞋厂,南邵庄供91号变压器,北邵供65号变压器【纯农排变】,商平庄小康鞋厂,南邵庄供99号变压器,0680042882-保定市苏坨面粉加工有限公司-专变-219584554-保定市苏坨面粉加工有限公司变压器,张庄3号变压器,河北冀鑫鲁屹废旧金属回收有限公司,河北宏图钢结构工程有限公司,徐水县远征鞋底厂,南邵庄供102#箱变配电变压器,南邵庄面粉一厂,南邵庄油毡厂,北邵庄1号变压器【纯农排变】,徐水县盛达电路板厂,朝阳毛纺厂,徐水县盛源工艺加工厂,南邵庄供77号变压器,徐水县顺达模具厂,徐水县远征橡胶制品厂3号,吉昌毛纺厂,徐水县吉星宇鞋服制造有限公司1号,红星造纸厂1号,徐水县邵庄增国鞋厂,南邵庄板厂,保定华艺帽业有限公司2号250,北邵庄6号变压器,徐水县超亿鞋服有限公司,保定市徐水区帮农农资经销处,南邵庄4号变压器,南邵庄9号变压器,保定市徐水区源晟鞋材经销处,保定东信毛纺制品有限公司,南邵庄供154号变压器,北邵庄供106号变压器,南邵庄2号变压器,徐水天源综合医院,南邵庄供67号变压器,北邵庄供29号变压器【纯农排变】,保定华艺帽业有限公司1号,徐水县远征橡胶制品厂2号,干河沟5号变压器,南邵庄1号变压器","poweroffReason":"【停电原因】由于处理紧急缺陷导致３５ＫＶ崔庄变电站吴庄５１６线路全线停电 【变更送电】无 【发布渠道】通过９５５９８发布","powerTime":"2019-08-07 05:25:41","powerComm":"已送电","subsNo":"","lineNo":"","tgNo":"","tgName":null,"infoStatus":"1","orgName":"国网徐水县供电公司","typeName":null,"infoStatusName":null,"dateDay":null,"orgNos":null,"nowTime":null,"countyName":null,"streetName":null,"villageName":null,"roadName":null,"communityName":null,"tranName":null,"sdLineName":null,"cityCode":"1340605","cityName":"国网徐水县供电公司","provinceCode":null,"stopTime":"2019-08-07 06:00:00","powerType":"全部","powerOffArea":"【全线路停电】停南邵庄供69号变压器,南邵庄供43号变压器,徐水县宏鑫建材商店,徐水县助力加热油管厂,商平庄供123号变压器,客户投资_商平庄6号,王铁庄供33号变压器,南邵庄12号变压器,徐水县仙登鞋材厂,南邵庄供101#高压间隔配电变压器,北邵庄供42号变压器,徐水县东方灵星机毡厂,保定市徐水区百渡鞋材加工厂,北邵庄3号变压器,崔庄镇北邵庄幼儿园,南邵庄供75号变压器,北邵庄供129号变压器,张庄供113号变压器,商平庄供2号变压器,北邵庄4号变压器,变压器,干河沟供162号变压器,北邵庄2号变压器【纯农排变】,徐水县吉星宇鞋服制造有限公司,干沟供52号变压器,南邵庄供149号高压间隔配电变压器,保定亿盛鞋业有限公司,吴庄12号变压器,商平庄供46号变压器,徐水县伟通机械加工厂,南邵庄供110号变压器,徐水县东信毛纺制品有限公司,保定市徐水区永盛橡塑厂,南邵庄供153号变压器,北邵庄供125号变压器,徐水县华晨铸造厂,保定市徐水区奥尔特鞋材厂,徐水县金龙机架厂,南邵庄供28号变压器【纯农排变】,徐水县华鑫碾米加工厂,徐水县中原包装厂,徐水县峻鼎鞋材有限公司(250KVA),保定市徐水天源综合医院,徐水县宏达制鞋厂,保定市徐水区崔庄镇南邵庄小学,南邵庄3号变压器,张庄2号变压器【纯农排变】,太行毛纺集团3号,徐水县远征橡胶制品厂1号,南邵庄13号变压器,东方灵星机毡厂,徐水县东升针刺毡厂,南邵庄汽车电路器材厂,南邵庄供100#箱变 配电变压器,商平庄供83号变压器,徐水县宝来毛纺制品有限公司2号,三环橡胶厂,0675479965-徐水县昌顺木材加工有限公司-专变-216137462-徐水县昌顺木材加工有限公司,永兴拔丝厂,南邵庄供152号变压器,南邵庄10号变压器,北邵庄供103号变压器,王铁庄供160号变压器,保定市徐水区深红鞋材加工厂,徐水县思美特鞋厂变压器,南邵庄供32号变压器,南邵庄5号变压器,南邵庄11号变压器,南邵供34号变压器,0684455497-徐水县思美特鞋厂-专变-223609302-徐水县思美特鞋厂变压器,南邵庄8号变压器【纯农排变】,永胜毛纺厂,南邵庄水么石厂,商平庄鞋厂,南邵庄供91号变压器,北邵供65号变压器【纯农排变】,商平庄小康鞋厂,南邵庄供99号变压器,0680042882-保定市苏坨面粉加工有限公司-专变-219584554-保定市苏坨面粉加工有限公司变压器,张庄3号变压器,河北冀鑫鲁屹废旧金属回收有限公司,河北宏图钢结构工程有限公司,徐水县远征鞋底厂,南邵庄供102#箱变配电变压器,南邵庄面粉一厂,南邵庄油毡厂,北邵庄1号变压器【纯农排变】,徐水县盛达电路板厂,朝阳毛纺厂,徐水县盛源工艺加工厂,南邵庄供77号变压器,徐水县顺达模具厂,徐水县远征橡胶制品厂3号,吉昌毛纺厂,徐水县吉星宇鞋服制造有限公司1号,红星造纸厂1号,徐水县邵庄增国鞋厂,南邵庄板厂,保定华艺帽业有限公司2号250,北邵庄6号变压器,徐水县超亿鞋服有限公司,保定市徐水区帮农农资经销处,南邵庄4号变压器,南邵庄9号变压器,保定市徐水区源晟鞋材经销处,保定东信毛纺制品有限公司,南邵庄供154号变压器,北邵庄供106号变压器,南邵庄2号变压器,徐水天源综合医院,南邵庄供67号变压器,北邵庄供29号变压器【纯农排变】,保定华艺帽业有限公司1号,徐水县远征橡胶制品厂2号,干河沟5号变压器,南邵庄1号变压器","powerOffReason":"【停电原因】由于处理紧急缺陷导致３５ＫＶ崔庄变电站吴庄５１６线路全线停电 【变更送电】无 【发布渠道】通过９５５９８发布","powerOffId":"2019080613000137"},{"poweroffId":2019080613000118,"sgpoweroffId":null,"subsName":"","lineName":"白洋580","pubTranName":"易县福胜文化石厂（五厂）,徐家厂5台区变压器,易县富胜文化石厂(张贵福),夏庄7#,易县清源大理石厂,54001990|养路工区(3#*200KVA),易县收费站,夏庄村4#,天工石材加工厂,石门店伊永红,石门店砖厂(吴永财),易县福胜文化石,清源大理石厂(俞),夏庄村8#,易县景安广告服务有限公司变压器,电力线材厂(50KVA),夏庄村9#,夏庄13台区,易通天然石材厂,省技术开发公司大理石厂(马建军),54001280|养路工区(2#*250KVA),夏庄村10#,易县景安中医医院1000KVA,石门店村6#,纸箱厂,夏庄村3#,夏庄村12#,石门店村1#,石门店村2#村内,易县永昌石质工艺品加工厂,保定市交通运输局公路管理处易县养路工区变压器,徐家厂村1#,变压器,徐家厂2#,石门店村7#,易县交通局运管站,夏庄砖厂,夏庄村5#,夏庄村1#,西陵审计培训中心(迎宾花园),王建石材厂,夏庄村俞洪春变压器,赵振满石板厂,夏庄6,易县保江液化气站变压器,徐家厂4#,石油物探局地调五处易县加油站,电力线材厂(250KVA),易县梁格庄镇石门店村民委员会变压器,高涛大理石厂,张建杰,徐家厂村3#,石门店石料厂(杨春生),太行石材厂,夏庄村2#,夏庄村11#,下庄砖厂,易县鑫圣达天然气销售有限公司变压器,","scope":"【影响街道/乡镇】梁格庄镇 【高危重要客户】无 【影响客户】徐家厂村、夏庄村、石门店村","startTime":"2019-08-06 14:17:36","stopDate":"2019-08-06 16:00:00","orgNo":"1340625","typeCode":"电网故障停限电","poweroffArea":"【全线路停电】停54001990|养路工区(3#*200KVA),石门店村1#,夏庄村2#,电力线材厂(50KVA),石门店砖厂(吴永财),夏庄村1#,夏庄村9#,易县景安广告服务有限公司变压器,变压器,易县鑫圣达天然气销售有限公司变压器,夏庄6,徐家厂村3#,夏庄砖厂,保定市交通运输局公路管理处易县养路工区变压器,夏庄村8#,纸箱厂,省技术开发公司大理石厂(马建军),易县收费站,西陵审计培训中心(迎宾花园),石油物探局地调五处易县加油站,石门店伊永红,天工石材加工厂,夏庄村11#,徐家厂5台区变压器,清源大理石厂(俞),夏庄13台区,易县清源大理石厂,易县永昌石质工艺品加工厂,易通天然石材厂,易县福胜文化石厂（五厂）,夏庄7#,下庄砖厂,张建杰,易县梁格庄镇石门店村民委员会变压器,易县交通局运管站,石门店村6#,电力线材厂(250KVA),夏庄村俞洪春变压器,夏庄村3#,徐家厂4#,易县保江液化气站变压器,石门店村7#,夏庄村4#,王建石材厂,易县富胜文化石厂(张贵福),石门店村2#村内,夏庄村12#,夏庄村10#,54001280|养路工区(2#*250KVA),赵振满石板厂,高涛大理石厂,太行石材厂,徐家厂2#,易县景安中医医院1000KVA,易县福胜文化石,夏庄村5#,徐家厂村1#,石门店石料厂(杨春生)","poweroffReason":"【停电原因】由于养路工区变压器避雷器击穿导致１１０ＫＶ店北变电站白洋５８０线路全线停电 【变更送电】因抢修进度加快原因，送电时间由１８:００变更为１６:００ 【发布渠道】通过９５５９８发布","powerTime":"2019-08-06 15:18:01","powerComm":"已送电","subsNo":"","lineNo":"","tgNo":"","tgName":null,"infoStatus":"1","orgName":"国网易县供电公司","typeName":null,"infoStatusName":null,"dateDay":null,"orgNos":null,"nowTime":null,"countyName":null,"streetName":null,"villageName":null,"roadName":null,"communityName":null,"tranName":null,"sdLineName":null,"cityCode":"1340625","cityName":"国网易县供电公司","provinceCode":null,"stopTime":"2019-08-06 16:00:00","powerType":"全部","powerOffArea":"【全线路停电】停54001990|养路工区(3#*200KVA),石门店村1#,夏庄村2#,电力线材厂(50KVA),石门店砖厂(吴永财),夏庄村1#,夏庄村9#,易县景安广告服务有限公司变压器,变压器,易县鑫圣达天然气销售有限公司变压器,夏庄6,徐家厂村3#,夏庄砖厂,保定市交通运输局公路管理处易县养路工区变压器,夏庄村8#,纸箱厂,省技术开发公司大理石厂(马建军),易县收费站,西陵审计培训中心(迎宾花园),石油物探局地调五处易县加油站,石门店伊永红,天工石材加工厂,夏庄村11#,徐家厂5台区变压器,清源大理石厂(俞),夏庄13台区,易县清源大理石厂,易县永昌石质工艺品加工厂,易通天然石材厂,易县福胜文化石厂（五厂）,夏庄7#,下庄砖厂,张建杰,易县梁格庄镇石门店村民委员会变压器,易县交通局运管站,石门店村6#,电力线材厂(250KVA),夏庄村俞洪春变压器,夏庄村3#,徐家厂4#,易县保江液化气站变压器,石门店村7#,夏庄村4#,王建石材厂,易县富胜文化石厂(张贵福),石门店村2#村内,夏庄村12#,夏庄村10#,54001280|养路工区(2#*250KVA),赵振满石板厂,高涛大理石厂,太行石材厂,徐家厂2#,易县景安中医医院1000KVA,易县福胜文化石,夏庄村5#,徐家厂村1#,石门店石料厂(杨春生)","powerOffReason":"【停电原因】由于养路工区变压器避雷器击穿导致１１０ＫＶ店北变电站白洋５８０线路全线停电 【变更送电】因抢修进度加快原因，送电时间由１８:００变更为１６:００ 【发布渠道】通过９５５９８发布","powerOffId":"2019080613000118"},{"poweroffId":2019080613000111,"sgpoweroffId":null,"subsName":"","lineName":"10kV朝阳路站530线路","pubTranName":"10kVB903配电室B903配电变压器,","scope":"【影响街道/乡镇】百花西路 【高危重要客户】无 【影响客户】百花园小区","startTime":"2019-08-06 12:40:00","stopDate":"2019-08-06 13:40:00","orgNo":"13406","typeCode":"电网故障停限电","poweroffArea":"【单台区停电】停10kVB903配电室B903配电变压器","poweroffReason":"【停电原因】由于低压刀闸烧导致１０ＫＶ朝阳变电站５３０线路Ｂ９０３公变台区停电【变更送电】无【发布渠道】通过９５５９８发布","powerTime":"2019-08-06 13:09:23","powerComm":"已送电","subsNo":"","lineNo":"","tgNo":"","tgName":null,"infoStatus":"1","orgName":"保定供电公司","typeName":null,"infoStatusName":null,"dateDay":null,"orgNos":null,"nowTime":null,"countyName":null,"streetName":null,"villageName":null,"roadName":null,"communityName":null,"tranName":null,"sdLineName":null,"cityCode":"13406","cityName":"保定供电公司","provinceCode":null,"stopTime":"2019-08-06 13:40:00","powerType":"全部","powerOffArea":"【单台区停电】停10kVB903配电室B903配电变压器","powerOffReason":"【停电原因】由于低压刀闸烧导致１０ＫＶ朝阳变电站５３０线路Ｂ９０３公变台区停电【变更送电】无【发布渠道】通过９５５９８发布","powerOffId":"2019080613000111"},{"poweroffId":2019080613000109,"sgpoweroffId":null,"subsName":"","lineName":"周任516","pubTranName":"新庄村1#,","scope":"【影响街道/乡镇】凌云册乡【高危重要客户】无【影响客户】新庄村","startTime":"2019-08-06 12:39:04","stopDate":"2019-08-06 16:00:00","orgNo":"1340625","typeCode":"电网故障停限电","poweroffArea":"【单台区停电】停新庄村1#","poweroffReason":"【停电原因】由于跌落保险烧毁导致３５ＫＶ凌云册变电站周任５１６线路新庄村１＃公变台区停电【变更送电】无【发布渠道】通过９５５９８发布","powerTime":"2019-08-06 15:05:01","powerComm":"已送电","subsNo":"","lineNo":"","tgNo":"","tgName":null,"infoStatus":"1","orgName":"国网易县供电公司","typeName":null,"infoStatusName":null,"dateDay":null,"orgNos":null,"nowTime":null,"countyName":null,"streetName":null,"villageName":null,"roadName":null,"communityName":null,"tranName":null,"sdLineName":null,"cityCode":"1340625","cityName":"国网易县供电公司","provinceCode":null,"stopTime":"2019-08-06 16:00:00","powerType":"全部","powerOffArea":"【单台区停电】停新庄村1#","powerOffReason":"【停电原因】由于跌落保险烧毁导致３５ＫＶ凌云册变电站周任５１６线路新庄村１＃公变台区停电【变更送电】无【发布渠道】通过９５５９８发布","powerOffId":"2019080613000109"},{"poweroffId":2019080613000082,"sgpoweroffId":null,"subsName":"","lineName":"10kV512车站线","pubTranName":"10KV512车站线外贸公用变压器,张占军家属院,","scope":"【影响街道/乡镇】博野镇【高危重要客户】无【影响客户】外贸、博悦府","startTime":"2019-08-08 05:00:00","stopDate":"2019-08-08 08:00:00","orgNo":"1340608","typeCode":"临时停电","poweroffArea":"【分支停电】停10KV512车站线外贸公用变压器,张占军家属院","poweroffReason":"【停电原因】由于线路新增配变导致３５ＫＶ南白沙变电站车站５１２线路张占军分支１２号杆刀闸以下线路停电【变更送电】无【发布渠道】通过９５５９８发布","powerTime":"2019-08-08 07:54:56","powerComm":"已送电","subsNo":"","lineNo":"","tgNo":"","tgName":null,"infoStatus":"1","orgName":"国网博野县供电公司","typeName":null,"infoStatusName":null,"dateDay":null,"orgNos":null,"nowTime":null,"countyName":null,"streetName":null,"villageName":null,"roadName":null,"communityName":null,"tranName":null,"sdLineName":null,"cityCode":"1340608","cityName":"国网博野县供电公司","provinceCode":null,"stopTime":"2019-08-08 08:00:00","powerType":"全部","powerOffArea":"【分支停电】停10KV512车站线外贸公用变压器,张占军家属院","powerOffReason":"【停电原因】由于线路新增配变导致３５ＫＶ南白沙变电站车站５１２线路张占军分支１２号杆刀闸以下线路停电【变更送电】无【发布渠道】通过９５５９８发布","powerOffId":"2019080613000082"},{"poweroffId":2019080613000080,"sgpoweroffId":null,"subsName":"","lineName":"10kV513冯村线","pubTranName":"10KV513冯村线08034台区变压器,10KV513南白沙线小苑08038台区变压器,10KV513冯村线24201台区变压器,","scope":"【影响街道/乡镇】博野镇【高危重要客户】无【影响客户】小苑部分、西高庄部分","startTime":"2019-08-08 05:00:00","stopDate":"2019-08-08 08:00:00","orgNo":"1340608","typeCode":"临时停电","poweroffArea":"【分支停电】停10KV513冯村线08034台区变压器,10KV513南白沙线小苑08038台区变压器,10KV513冯村线24201台区变压器","poweroffReason":"【停电原因】由于线路新增配变导致１１０ＫＶ博野变电站冯村５１３线路２３号杆９６号开关以下线路停电【变更送电】无【发布渠道】通过９５５９８发布","powerTime":"2019-08-08 07:55:11","powerComm":"已送电","subsNo":"","lineNo":"","tgNo":"","tgName":null,"infoStatus":"1","orgName":"国网博野县供电公司","typeName":null,"infoStatusName":null,"dateDay":null,"orgNos":null,"nowTime":null,"countyName":null,"streetName":null,"villageName":null,"roadName":null,"communityName":null,"tranName":null,"sdLineName":null,"cityCode":"1340608","cityName":"国网博野县供电公司","provinceCode":null,"stopTime":"2019-08-08 08:00:00","powerType":"全部","powerOffArea":"【分支停电】停10KV513冯村线08034台区变压器,10KV513南白沙线小苑08038台区变压器,10KV513冯村线24201台区变压器","powerOffReason":"【停电原因】由于线路新增配变导致１１０ＫＶ博野变电站冯村５１３线路２３号杆９６号开关以下线路停电【变更送电】无【发布渠道】通过９５５９８发布","powerOffId":"2019080613000080"},{"poweroffId":2019080613000034,"sgpoweroffId":null,"subsName":"","lineName":"10kV利民路站524线路","pubTranName":"0356322737-河北农业大学动科院奶牛场-专变,0356246288-保定市成林精密铸件有限公司-1-配电室-变压器-2,0655043618-河北保定交通运输集团有限责任公司神州轿车修理分公司-专变-185537650-byq,C3039柱上变压器,0356239619-小汲-专变,10kVC480配电室C480配电变压器,0356240701-保定市跃进纸箱有限公司-1-配电室-变压器-2,0357957792-河北农业大学教学实验场二分场-专变,0623177875-保定市金翰林房地产开发有限公司-专变-130925249-变压器,0356246288-保定市成林精密铸件有限公司-1-配电室-变压器-5,0356239622-小汲-专变,C400柱上变压器,0623177875-保定市金翰林房地产开发有限公司-专变-130925244-变压器,C3015柱上变压器,10kVC482配电室C482配电变压器,10kVH0020.H0021配电室H0021配电变压器,C025柱上变压器,0358129718-保定市固德生态农业发展有限公司-1-配电室-变压器-1,0664968324-保定市莲池区五尧乡东五尧村民委员会-专变-201066734-变压器,变压器,C058柱上变压器,0705731201-保定市云光商贸有限公司,0597358821-河北秀兰房地产集团有限公司-1#专变,0632303526-中国石化销售有限公司河北保定石油分公司-专变-144751706-变压器,0356237697-农大二分场-专变,0356246288-保定市成林精密铸件有限公司-1-配电室-变压器-4,0702487576-博创城市建设开发有限公司-柱上变5,0546996225-保定市南市区五尧乡东五尧村委会-专变,10kVY0176.Y0177配电室Y0177配电变压器,0356246288-保定市成林精密铸件有限公司-1-配电室-变压器-3,10kVY0178.Y0179配电室Y0179配电变压器,10kVH0020.H0021配电室H0020配电变压器,H0017柱上变压器,0356171935-农大二分场-专变,0356495967-河北农业大学教学实验场二分场-专变,0590607261-大唐清苑热电有限公司-1-箱式变-变压器-2,0702487576-博创城市建设开发有限公司-柱上变4,0356337081-东五尧村委会-专变,0357466098-保定市新市区龙泉橡胶厂-专变,10kVY0176.Y0177配电室Y0176配电变压器,0356171661-保定市铸造机械配件厂-专变,H0018柱上变压器,0702740408-保定市跃进纸箱有限公司,0356246288-保定市成林精密铸件有限公司-1-配电室-变压器-7,0593777059-保定常青实业集团有限公司-专变,0356187947-保定市旺旺油罐清洗有限公司-专变,C057柱上变压器,10kVC481配电室C481配电变压器,0623177875-保定市金翰林房地产开发有限公司-专变-130925247-变压器,0356316145-保定市","scope":"【影响街道/乡镇】乐凯大街、南二环、五尧乡、建国路、富昌乡、朝阳大街 【高危重要客户】无 【影响客户】北辛庄村、安庄、秀兰城市美地、尧和宁苑、东五尧、农大二分厂、南二环北五尧、小汲工业区、跃进纸箱、龙泉橡胶厂、新世纪面粉厂、固德车业、常青实业、维多利亚盛苑、交警队、四方种植场、晶华玻璃厂、诚信法兰铸造、大唐电厂、中国石化保定分公司、万里大酒店、星光法兰厂、农大西校区、花园里小区、政府家属院、农宝农业种植基地、五尧新村","startTime":"2019-08-06 09:30:00","stopDate":"2019-08-06 11:00:00","orgNo":"13406","typeCode":"电网故障停限电","poweroffArea":"【分支停电】停C3039柱上变压器,10kVC480配电室C480配电变压器,C400柱上变压器,C3015柱上变压器,10kVB1581配电室B1581配电变压器,C056柱上变压器,C3014柱上变压器,10kVY0178.Y0179配电室Y0178配电变压器,10kVC482配电室C482配电变压器,10kVH0020.H0021配电室H0021配电变压器,C025柱上变压器,10kVH0020.H0021配电室H0020配电变压器,H0017柱上变压器,10kVY0176.Y0177配电室Y0176配电变压器,H0018柱上变压器,C057柱上变压器,10kVC481配电室C481配电变压器,C058柱上变压器,10kVY0176.Y0177配电室Y0177配电变压器,10kVY0178.Y0179配电室Y0179配电变压器","poweroffReason":"【停电原因】由于过流跳闸导致１０ＫＶ利民路变电站５２４线路１２５号杆开关以下停电【变更送电】因抢修进度加快，原定１２:００送电现计划１１:００送电【发布渠道】通过９５５９８发布","powerTime":"2019-08-06 10:46:36","powerComm":"已送电","subsNo":"","lineNo":"","tgNo":"","tgName":null,"infoStatus":"1","orgName":"保定供电公司","typeName":null,"infoStatusName":null,"dateDay":null,"orgNos":null,"nowTime":null,"countyName":null,"streetName":null,"villageName":null,"roadName":null,"communityName":null,"tranName":null,"sdLineName":null,"cityCode":"13406","cityName":"保定供电公司","provinceCode":null,"stopTime":"2019-08-06 11:00:00","powerType":"全部","powerOffArea":"【分支停电】停C3039柱上变压器,10kVC480配电室C480配电变压器,C400柱上变压器,C3015柱上变压器,10kVB1581配电室B1581配电变压器,C056柱上变压器,C3014柱上变压器,10kVY0178.Y0179配电室Y0178配电变压器,10kVC482配电室C482配电变压器,10kVH0020.H0021配电室H0021配电变压器,C025柱上变压器,10kVH0020.H0021配电室H0020配电变压器,H0017柱上变压器,10kVY0176.Y0177配电室Y0176配电变压器,H0018柱上变压器,C057柱上变压器,10kVC481配电室C481配电变压器,C058柱上变压器,10kVY0176.Y0177配电室Y0177配电变压器,10kVY0178.Y0179配电室Y0179配电变压器","powerOffReason":"【停电原因】由于过流跳闸导致１０ＫＶ利民路变电站５２４线路１２５号杆开关以下停电【变更送电】因抢修进度加快，原定１２:００送电现计划１１:００送电【发布渠道】通过９５５９８发布","powerOffId":"2019080613000034"},{"poweroffId":2019080613000025,"sgpoweroffId":null,"subsName":"","lineName":"10kV十里铺525","pubTranName":"南兵上村内变压器,","scope":"【影响街道/乡镇】东文山乡 【高危重要客户】无 【影响客户】南兵上村","startTime":"2019-08-06 09:14:09","stopDate":"2019-08-06 11:00:00","orgNo":"1340614","typeCode":"电网故障停限电","poweroffArea":"【单台区停电】停南兵上村内变压器","poweroffReason":"【停电原因】由于电缆烧毁导致１１０ＫＶ涞水变电站１０ＫＶ十里铺５２５线路南兵上村内公变台区停电 【变更送电】无 【发布渠道】通过９５５９８发布","powerTime":"2019-08-06 10:49:32","powerComm":"已送电","subsNo":"","lineNo":"","tgNo":"","tgName":null,"infoStatus":"1","orgName":"国网涞水县供电公司","typeName":null,"infoStatusName":null,"dateDay":null,"orgNos":null,"nowTime":null,"countyName":null,"streetName":null,"villageName":null,"roadName":null,"communityName":null,"tranName":null,"sdLineName":null,"cityCode":"1340614","cityName":"国网涞水县供电公司","provinceCode":null,"stopTime":"2019-08-06 11:00:00","powerType":"全部","powerOffArea":"【单台区停电】停南兵上村内变压器","powerOffReason":"【停电原因】由于电缆烧毁导致１１０ＫＶ涞水变电站１０ＫＶ十里铺５２５线路南兵上村内公变台区停电 【变更送电】无 【发布渠道】通过９５５９８发布","powerOffId":"2019080613000025"}],"pageModel":{"pageNow":686,"totalCount":10973,"totalPage":1098,"tableRows":0,"pageCount":10,"beginCount":6850},"isExperi":"1"}