{"message":"","today":"2020-06-15","seleList":[{"poweroffId":2019080613000018,"sgpoweroffId":null,"subsName":"","lineName":"市场线521","pubTranName":"0683951255-仁和庄2号变台-专变-223528883-变压器,张鹏变压器,0683944530-仁和庄1号变台-专变-223525057-变压器,老五金公变（长义小区）,0683959129-仁和庄13号变台-专变-223535170-变压器,0387443184-长义小区-专变-45278740-魏长义,0387443315-仁和辅料城西-专变-45278591-仁和辅料城西,0387441449-仁和辅料城东-专变-45278592-仁和辅料城东,规划建设局（仁和庄小学路灯）变压器,0683959392-仁和庄8号变台-专变-223535644-变压器,仁和庄开发区2,","scope":"【影响街道/乡镇】白沟镇 【高危重要客户】无 【影响客户】五金皮革城、辅料城、仁和庄、老五金（长义小区）、张鹏、大红门（丰合园）","startTime":"2019-08-21 06:00:00","stopDate":"2019-08-21 12:30:00","orgNo":"1340612","typeCode":"计划停电","poweroffArea":"【分支停电】停0683951255-仁和庄2号变台-专变-223528883-变压器,张鹏变压器,0683944530-仁和庄1号变台-专变-223525057-变压器,老五金公变（长义小区）,0683959129-仁和庄13号变台-专变-223535170-变压器,0387443184-长义小区-专变-45278740-魏长义,0387443315-仁和辅料城西-专变-45278591-仁和辅料城西,0387441449-仁和辅料城东-专变-45278592-仁和辅料城东,规划建设局（仁和庄小学路灯）变压器,0683959392-仁和庄8号变台-专变-223535644-变压器,仁和庄开发区2","poweroffReason":"【停电原因】由于换线导致１１０ＫＶ白沟变电站１０ＫＶ市场５２１线路０２号断路器以下停电 【变更送电】因抢修进度加快原因，送电时间由１６：００变更为１２：３０ 【发布渠道】高碑店市高碑店电视台（８月７日０８时至８月２０日１８时之间）屏幕上方滚动","powerTime":"2019-08-21 12:12:19","powerComm":"已送电","subsNo":"","lineNo":"","tgNo":"","tgName":null,"infoStatus":"1","orgName":"国网高碑店市供电公司","typeName":null,"infoStatusName":null,"dateDay":null,"orgNos":null,"nowTime":null,"countyName":null,"streetName":null,"villageName":null,"roadName":null,"communityName":null,"tranName":null,"sdLineName":null,"cityCode":"1340612","cityName":"国网高碑店市供电公司","provinceCode":null,"stopTime":"2019-08-21 12:30:00","powerType":"全部","powerOffArea":"【分支停电】停0683951255-仁和庄2号变台-专变-223528883-变压器,张鹏变压器,0683944530-仁和庄1号变台-专变-223525057-变压器,老五金公变（长义小区）,0683959129-仁和庄13号变台-专变-223535170-变压器,0387443184-长义小区-专变-45278740-魏长义,0387443315-仁和辅料城西-专变-45278591-仁和辅料城西,0387441449-仁和辅料城东-专变-45278592-仁和辅料城东,规划建设局（仁和庄小学路灯）变压器,0683959392-仁和庄8号变台-专变-223535644-变压器,仁和庄开发区2","powerOffReason":"【停电原因】由于换线导致１１０ＫＶ白沟变电站１０ＫＶ市场５２１线路０２号断路器以下停电 【变更送电】因抢修进度加快原因，送电时间由１６：００变更为１２：３０ 【发布渠道】高碑店市高碑店电视台（８月７日０８时至８月２０日１８时之间）屏幕上方滚动","powerOffId":"2019080613000018"},{"poweroffId":2019080613000013,"sgpoweroffId":null,"subsName":"","lineName":"10kV火炬街549","pubTranName":"中国煤炭地质总局地球物理勘探研究院1600,河北惠友商业连锁发展有限公司2,涿州郡凤凰房地产开发有限公司3,技术监督局,检察院,涿州市鹏华房地产开发有限公司,张段庄布厂,涿州郡凤凰房地产开发有限公司1,冀星公司涿州管理处(高速路家属院)1,东方建设基地,涿州市鹏润房地产开发公司,金城花园601台区,涿州开发区规划建设局物探局门口西南角,0387555647-涿州市京兴装饰工程有限公司-专变-45355657-京兴装饰工程公司,东乐药厂,涿州市鑫鑫源工贸有限公司,物探局特勘处2,涿州市永泰机械厂,公安局家属院,国税局,涿州市法院,涿州鑫罡机械制造有限公司,物探局特勘处1,0686000888-涿州市南海鱼村房地产开发有限公司-专变-226234059-涿州市南海鱼村房地产开发有限公司,电力局家属院（徐里营供电所）（2）,范阳东路公用变压器,东方生物（西）,建委家属楼4121变压器,邮政局,物探局8号院,涿州市幼儿园,铁路十八局一处,海天之恋音乐广场,0387554077-河北省高速公路公安交通警察总队一支队涿州-专变-45355831-河北省高速公路公安交通警察总队一支队涿州,涿州郡凤凰房地产开发有限公司范阳中路590号-1,电力局家属院（徐里营供电所）（3）,审计局小区0664变压器,0387553928-河北省涿州开发区管理委员会-专变-45355852-开发区管委会,涿州郡凤凰房地产开发有限公司-2,0607156256-河北省涿州开发区管理委员会-专变-127414742-河北省涿州市开发区管理委员会,高速交警涿州大队院内,涿州市郡凤凰房地产开发有限公司2,涿州开发区规划建设局冀星高速门口东侧,涿州市伯力恒房地产开发有限公司,涿州市天择机械厂(北),烟草公司,0387555751-保定宝发发品有限公司-专变-45355620-保定宝发发品有限公司,豪门庄园,0586411199-北京田家园房地产开发有限公司涿州分公司-专变-125129399-北京田家园房地产开发有限公司涿州分公司,冀星公司涿州管理处,司法局家属院0637变压器,河北省涿州市开发区管理委员会,X9号箱变六间房间隔FK01配电变压器,河北省涿州市远方名流房地产开发有限公司549,世纪嘉园小区,涿州市凡尘休闲健身服务有限公司,0387554309-唐人花园-专变-45355692-唐人花园,玫瑰北街3677【纯农排变】,电力局办公楼,涿州市交通局运输管理站,0574519146-涿州金利房地产开发有限公司-专变-123023693-涿州市金利房地产开发有限公司消防用电,河北丰华重工机电设备制造有限公司涿州分公,涿州市新兴伟业房地产开发有限公司,财达证?还？,涿州市宏远房地产开发有限公司,0649295951-涿州市伯力恒集团房地产开发有限公司-专变-174506908-涿州市伯力恒集团房地产开发有限公司1,公安局,涿州市中房钢结构有限公司,涿州市红杏生态园有限公司1,涿州市郡凤凰房地产开发有限公司1,涿州郡凤凰房地产开发有限公司4,物探局8号院1,涿州郡凤凰房地产开发有限公司2,高速交警家属院3829,电力局家属院（开发区供电所）变压器,064929","scope":"【影响街道/乡镇】徐里营城区玫瑰北街、火炬南街、自强街、平安北街、范阳东路 【高危重要客户】无 【影响客户】六间房、交警大队、高速交警家属院、金城花园、审计局小区、烟草公司、豪门庄园、检察院家属院、财达证券、公安局家属院、世纪嘉园小区、邮政局小区、唐人花园、法院家属院、电力局家属院、技术监督局、建委家属院、司法局家属院、光明小区、国税局、涿州市幼儿园、宏远裕隆小区、同善园、规划建设局、铁路十八局、伯力恒小区、红杏生态园、惠友康庭、天地新城、御景园、物探家园、玫瑰家园、国税局家属院、高速路家属院、证券小区、新府阳光小区、东方家园、怡海家园、京第银座","startTime":"2019-08-06 06:09:15","stopDate":"2019-08-06 17:00:00","orgNo":"1340626","typeCode":"电网故障停限电","poweroffArea":"【全线路停电】停电力局家属院（开发区供电所）变压器,东方建设基地,涿州市凡尘休闲健身服务有限公司,0387555751-保定宝发发品有限公司-专变-45355620-保定宝发发品有限公司,审计局小区0664变压器,涿州市鹏润房地产开发公司,涿州市交通局运输管理站,涿州市中房钢结构有限公司,0387554309-唐人花园-专变-45355692-唐人花园,金城花园601台区,豪门庄园,烟草公司,河北惠友商业连锁发展有限公司2,0586411199-北京田家园房地产开发有限公司涿州分公司-专变-125129399-北京田家园房地产开发有限公司涿州分公司,中国煤炭地质总局地球物理勘探研究院1600,涿州开发区规划建设局物探局门口西南角,0387554077-河北省高速公路公安交通警察总队一支队涿州-专变-45355831-河北省高速公路公安交通警察总队一支队涿州,东方生物（西）,玫瑰北街3677【纯农排变】,0387555647-涿州市京兴装饰工程有限公司-专变-45355657-京兴装饰工程公司,张段庄布厂,涿州市红杏生态园有限公司1,冀星公司涿州管理处,东乐药厂,涿州郡凤凰房地产开发有限公司1,0574519146-涿州金利房地产开发有限公司-专变-123023693-涿州市金利房地产开发有限公司消防用电,电力局办公楼,涿州市鑫鑫源工贸有限公司,冀星公司涿州管理处(高速路家属院)1,建委家属楼4121变压器,涿州市伯力恒房地产开发有限公司,X9号箱变六间房间隔FK01配电变压器,河北丰华重工机电设备制造有限公司涿州分公,物探局特勘处1,物探局特勘处2,财达证?还？,邮政局,0686000888-涿州市南海鱼村房地产开发有限公司-专变-226234059-涿州市南海鱼村房地产开发有限公司,涿州市天择机械厂(北),河北省涿州市远方名流房地产开发有限公司549,物探局8号院,电力局家属院（徐里营供电所）（2）,涿州市永泰机械厂,涿州市宏远房地产开发有限公司,涿州市京热热力有限责任公司,国税局,0649295951-涿州市伯力恒集团房地产开发有限公司-专变-174506908-涿州市伯力恒集团房地产开发有限公司1,0387553928-河北省涿州开发区管理委员会-专变-45355852-开发区管委会,涿州市郡凤凰房地产开发有限公司1,技术监督局,涿州市法院,涿州郡凤凰房地产开发有限公司4,公安局家属院,涿州市幼儿园,电力局家属院（徐里营供电所）（3）,物探局8号院1,检察院,涿州郡凤凰房地产开发有限公司-2,范阳东路公用变压器,公安局,铁路十八局一处,0607156256-河北省涿州开发区管理委员会-专变-127414742-河北省涿州市开发区管理委员会,涿州郡凤凰房地产开发有限公司2,涿州郡凤凰房地产开发有限公司3,涿州市鹏华房地产开发有限公司,涿州市开发区市政工程处,涿州鑫罡机械制造有限公司,海天之恋音乐广场,司法局家属院0637变压器,高速交警涿州大队院内,高速交警家属院3829,河北省涿州市开发区管理委员会,涿州市郡凤凰房地产开发有限公司2,0649295951-涿州市伯力恒集团房地产开发有限公司-专变-174509363-涿州市伯力恒集团房地产开发有限公司2,涿州市新兴伟业房地产开发有限公司,涿州郡凤凰房地产开发有限公司范阳中路590号-1,涿州开发区规划建设局冀星高速门口东侧,世纪嘉园小区","poweroffReason":"【停电原因】由于速断跳闸导致１１０ＫＶ安泰变电站１０ＫＶ火炬街５４９线路全线停电 【变更送电】因工作量大未完成原因，送电时间由１３：００变更为１７：００ 【发布渠道】通过９５５９８发布","powerTime":"2019-08-06 16:31:36","powerComm":"恢复送电","subsNo":"","lineNo":"","tgNo":"","tgName":null,"infoStatus":"1","orgName":"国网涿州市供电公司","typeName":null,"infoStatusName":null,"dateDay":null,"orgNos":null,"nowTime":null,"countyName":null,"streetName":null,"villageName":null,"roadName":null,"communityName":null,"tranName":null,"sdLineName":null,"cityCode":"1340626","cityName":"国网涿州市供电公司","provinceCode":null,"stopTime":"2019-08-06 17:00:00","powerType":"全部","powerOffArea":"【全线路停电】停电力局家属院（开发区供电所）变压器,东方建设基地,涿州市凡尘休闲健身服务有限公司,0387555751-保定宝发发品有限公司-专变-45355620-保定宝发发品有限公司,审计局小区0664变压器,涿州市鹏润房地产开发公司,涿州市交通局运输管理站,涿州市中房钢结构有限公司,0387554309-唐人花园-专变-45355692-唐人花园,金城花园601台区,豪门庄园,烟草公司,河北惠友商业连锁发展有限公司2,0586411199-北京田家园房地产开发有限公司涿州分公司-专变-125129399-北京田家园房地产开发有限公司涿州分公司,中国煤炭地质总局地球物理勘探研究院1600,涿州开发区规划建设局物探局门口西南角,0387554077-河北省高速公路公安交通警察总队一支队涿州-专变-45355831-河北省高速公路公安交通警察总队一支队涿州,东方生物（西）,玫瑰北街3677【纯农排变】,0387555647-涿州市京兴装饰工程有限公司-专变-45355657-京兴装饰工程公司,张段庄布厂,涿州市红杏生态园有限公司1,冀星公司涿州管理处,东乐药厂,涿州郡凤凰房地产开发有限公司1,0574519146-涿州金利房地产开发有限公司-专变-123023693-涿州市金利房地产开发有限公司消防用电,电力局办公楼,涿州市鑫鑫源工贸有限公司,冀星公司涿州管理处(高速路家属院)1,建委家属楼4121变压器,涿州市伯力恒房地产开发有限公司,X9号箱变六间房间隔FK01配电变压器,河北丰华重工机电设备制造有限公司涿州分公,物探局特勘处1,物探局特勘处2,财达证?还？,邮政局,0686000888-涿州市南海鱼村房地产开发有限公司-专变-226234059-涿州市南海鱼村房地产开发有限公司,涿州市天择机械厂(北),河北省涿州市远方名流房地产开发有限公司549,物探局8号院,电力局家属院（徐里营供电所）（2）,涿州市永泰机械厂,涿州市宏远房地产开发有限公司,涿州市京热热力有限责任公司,国税局,0649295951-涿州市伯力恒集团房地产开发有限公司-专变-174506908-涿州市伯力恒集团房地产开发有限公司1,0387553928-河北省涿州开发区管理委员会-专变-45355852-开发区管委会,涿州市郡凤凰房地产开发有限公司1,技术监督局,涿州市法院,涿州郡凤凰房地产开发有限公司4,公安局家属院,涿州市幼儿园,电力局家属院（徐里营供电所）（3）,物探局8号院1,检察院,涿州郡凤凰房地产开发有限公司-2,范阳东路公用变压器,公安局,铁路十八局一处,0607156256-河北省涿州开发区管理委员会-专变-127414742-河北省涿州市开发区管理委员会,涿州郡凤凰房地产开发有限公司2,涿州郡凤凰房地产开发有限公司3,涿州市鹏华房地产开发有限公司,涿州市开发区市政工程处,涿州鑫罡机械制造有限公司,海天之恋音乐广场,司法局家属院0637变压器,高速交警涿州大队院内,高速交警家属院3829,河北省涿州市开发区管理委员会,涿州市郡凤凰房地产开发有限公司2,0649295951-涿州市伯力恒集团房地产开发有限公司-专变-174509363-涿州市伯力恒集团房地产开发有限公司2,涿州市新兴伟业房地产开发有限公司,涿州郡凤凰房地产开发有限公司范阳中路590号-1,涿州开发区规划建设局冀星高速门口东侧,世纪嘉园小区","powerOffReason":"【停电原因】由于速断跳闸导致１１０ＫＶ安泰变电站１０ＫＶ火炬街５４９线路全线停电 【变更送电】因工作量大未完成原因，送电时间由１３：００变更为１７：００ 【发布渠道】通过９５５９８发布","powerOffId":"2019080613000013"},{"poweroffId":2019080513000429,"sgpoweroffId":null,"subsName":"","lineName":"10kV511淮南线","pubTranName":"10kv511淮南线白塔村13106台区变压器,10kv511淮南线43464变压器,10kv511淮南线白塔村13080台区变压器,10kv511淮南线白塔村13107台区变压器,10kv511淮南线13110变压器,10KV511淮南线55022台区,10kv511淮南线13089变压器,淮南养殖厂,10kv511淮南线白塔村13031台区变压器,10kv511淮南线41937变压器,10kv511淮南线41044变压器,博野县虹光蜡芯厂,淮南纺纱厂,10kv511淮南线42426变压器,10kv511淮南线13045变压器,淮南煤厂,10kv511淮南线13003变压器,10kv511淮南线44869变压器,10kv511淮南线41100变压器,10KV511淮南线13044台区,10kv511淮南线13048变压器,10KV511淮南线白塔13031分支44368台区,10kv511淮南线40578变压器,10kv511淮南线13063台区变压器,10KV511淮南线13029分支13034台区,10kv511淮南线41068变压器,10kv511淮南线淮南13038台区变压器,白塔盛旺调料厂,10kv511淮南线白塔村13059台区变压器【纯农排变】,0679901181-博野县凯翔金属丝网厂-专变-219719375-博野县凯翔金属丝网厂,10kv511淮南线白塔村13030台区变压器,10kv511淮南线13207变压器,10kv511淮南线13042变压器,10kv511淮南线白塔村15759台区变压器,10kv511淮南线13094变压器,10kv511淮南线13102变压器,10KV511淮南线13040分支13040台区,博野县淮南树谦织布厂,10KV511淮南线13升级分支41936台区,10kv511淮南线白塔村16264台区变压器,10kv511淮南线白塔村13108台区变压器,10KV511淮南41934台区,博野县建扑织布厂,10kv511淮南线13041变压器,博野县白塔念佛堂,10kv511淮南线44870变压器,博野县同乐织布厂,10kv511淮南线白塔村13033台区变压器,10kv511淮南线刘村2679变压器,10kv511淮南线13007变压器,10kv511淮南线白塔村13103台区变压器,淮南纺纱一厂,10kv511淮南线白塔村13104台区变压器,10kv511淮南线55019变压器,10kv511淮南线41069变压器,套里网厂,淮南养殖场(兴农）,10kv511淮南线13062变压器,10kv511淮南线白塔村13028台区变压器,10kv511淮南线13111变压器,0469416969-白塔永盛纺纱厂-专变-46807500-白塔永盛纺纱厂,淮南建辉纺纱厂,博野县白塔拔丝厂,10kv511淮南线白塔村13105台区变压器,10kv511淮南线42428变压器,白塔养殖场,10kv511淮南线白塔村13112台区变压器,淮南村养殖厂,10kv511淮南线13004变压器,10KV511淮南线套里85394分支85395台区,10kv511淮南线13051变压器,","scope":"【影响街道/乡镇】南小王乡【高危重要客户】无【影响客户】陈庄、魏庄、套里、白塔、淮南","startTime":"2019-08-05 22:25:16","stopDate":"2019-08-06 00:30:00","orgNo":"1340608","typeCode":"电网故障停限电","poweroffArea":"【全线路停电】停白塔养殖场,淮南养殖场(兴农）,10kv511淮南线白塔村13107台区变压器,10kv511淮南线13102变压器,10kv511淮南线白塔村13059台区变压器【纯农排变】,10kv511淮南线白塔村13033台区变压器,10kv511淮南线13048变压器,套里网厂,淮南养殖厂,博野县虹光蜡芯厂,淮南占普纺纱厂,白塔盛旺调料厂,0469416969-白塔永盛纺纱厂-专变-46807500-白塔永盛纺纱厂,淮南纺纱一厂,10KV511淮南线套里85394分支85395台区,10kv511淮南线13062变压器,博野县同乐织布厂,10kv511淮南线刘村2679变压器,10kv511淮南线41100变压器,10kv511淮南线44869变压器,10KV511淮南线55022台区,淮南村养殖厂,10kv511淮南线13042变压器,10kv511淮南线13063台区变压器,10KV511淮南线13029分支13034台区,博野县白塔念佛堂,10KV511淮南线13升级分支41936台区,10kv511淮南线白塔村13104台区变压器,10kv511淮南线白塔村13106台区变压器,10KV511淮南41934台区,10kv511淮南线白塔村13105台区变压器,10kv511淮南线13007变压器,10kv511淮南线40578变压器,10kv511淮南线白塔村13030台区变压器,10kv511淮南线13047变压器,10kv511淮南线41044变压器,10kv511淮南线13089变压器,10kv511淮南线13207变压器,10kv511淮南线白塔村15759台区变压器,10kv511淮南线42426变压器,10kv511淮南线13008变压器,魏英政纺纱厂,博野县白塔拔丝厂,10kv511淮南线13110变压器,博野县淮南树谦织布厂,10KV511淮南线白塔13031分支44368台区,10kv511淮南线白塔村13028台区变压器,10kv511淮南线42428变压器,10kv511淮南线13041变压器,10KV511淮南线13040分支13040台区,10kv511淮南线55019变压器,10kv511淮南线13045变压器,10kv511淮南线41068变压器,博野县建扑织布厂,淮南纺纱厂,10kv511淮南线13035变压器,10kv511淮南线13046变压器,10kv511淮南线13004变压器,10kv511淮南线淮南13038台区变压器,10kv511淮南线13006变压器,10kv511淮南线白塔村13103台区变压器,0679901181-博野县凯翔金属丝网厂-专变-219719375-博野县凯翔金属丝网厂,10kv511淮南线13051变压器,10kv511淮南线41067变压器,白塔回收棉厂,10kv511淮南线41069变压器,10KV511淮南线13044台区,淮南煤厂,博野县淮南树涛养猪场,10kv511淮南线白塔村16264台区变压器,10kv511淮南线44870变压器,淮南建辉纺纱厂,10kv511淮南线白塔村13112台区变压器,10kv511淮南线白塔村13080台区变压器,10kv511淮南线13003变压器,10kv511淮南线白塔村13031台区变压器,10kv511淮南线43464变压器,10kv511淮南线41937变压器,10kv511淮南线白塔村13108台区变压器,10kv511淮南线13043变压器,10kv511淮南线13094变压器,10kv511淮南线13111变压器","poweroffReason":"【停电原因】由于线路接地导致３５ＫＶ南小王变电站淮南５１１线路全线停电【变更送电】因抢修进度加快原因，送电时间由０６日１２：００变更为０６日００：３０【发布渠道】通过９５５９８发布","powerTime":"2019-08-06 00:10:01","powerComm":"已送电","subsNo":"","lineNo":"","tgNo":"","tgName":null,"infoStatus":"1","orgName":"国网博野县供电公司","typeName":null,"infoStatusName":null,"dateDay":null,"orgNos":null,"nowTime":null,"countyName":null,"streetName":null,"villageName":null,"roadName":null,"communityName":null,"tranName":null,"sdLineName":null,"cityCode":"1340608","cityName":"国网博野县供电公司","provinceCode":null,"stopTime":"2019-08-06 00:30:00","powerType":"全部","powerOffArea":"【全线路停电】停白塔养殖场,淮南养殖场(兴农）,10kv511淮南线白塔村13107台区变压器,10kv511淮南线13102变压器,10kv511淮南线白塔村13059台区变压器【纯农排变】,10kv511淮南线白塔村13033台区变压器,10kv511淮南线13048变压器,套里网厂,淮南养殖厂,博野县虹光蜡芯厂,淮南占普纺纱厂,白塔盛旺调料厂,0469416969-白塔永盛纺纱厂-专变-46807500-白塔永盛纺纱厂,淮南纺纱一厂,10KV511淮南线套里85394分支85395台区,10kv511淮南线13062变压器,博野县同乐织布厂,10kv511淮南线刘村2679变压器,10kv511淮南线41100变压器,10kv511淮南线44869变压器,10KV511淮南线55022台区,淮南村养殖厂,10kv511淮南线13042变压器,10kv511淮南线13063台区变压器,10KV511淮南线13029分支13034台区,博野县白塔念佛堂,10KV511淮南线13升级分支41936台区,10kv511淮南线白塔村13104台区变压器,10kv511淮南线白塔村13106台区变压器,10KV511淮南41934台区,10kv511淮南线白塔村13105台区变压器,10kv511淮南线13007变压器,10kv511淮南线40578变压器,10kv511淮南线白塔村13030台区变压器,10kv511淮南线13047变压器,10kv511淮南线41044变压器,10kv511淮南线13089变压器,10kv511淮南线13207变压器,10kv511淮南线白塔村15759台区变压器,10kv511淮南线42426变压器,10kv511淮南线13008变压器,魏英政纺纱厂,博野县白塔拔丝厂,10kv511淮南线13110变压器,博野县淮南树谦织布厂,10KV511淮南线白塔13031分支44368台区,10kv511淮南线白塔村13028台区变压器,10kv511淮南线42428变压器,10kv511淮南线13041变压器,10KV511淮南线13040分支13040台区,10kv511淮南线55019变压器,10kv511淮南线13045变压器,10kv511淮南线41068变压器,博野县建扑织布厂,淮南纺纱厂,10kv511淮南线13035变压器,10kv511淮南线13046变压器,10kv511淮南线13004变压器,10kv511淮南线淮南13038台区变压器,10kv511淮南线13006变压器,10kv511淮南线白塔村13103台区变压器,0679901181-博野县凯翔金属丝网厂-专变-219719375-博野县凯翔金属丝网厂,10kv511淮南线13051变压器,10kv511淮南线41067变压器,白塔回收棉厂,10kv511淮南线41069变压器,10KV511淮南线13044台区,淮南煤厂,博野县淮南树涛养猪场,10kv511淮南线白塔村16264台区变压器,10kv511淮南线44870变压器,淮南建辉纺纱厂,10kv511淮南线白塔村13112台区变压器,10kv511淮南线白塔村13080台区变压器,10kv511淮南线13003变压器,10kv511淮南线白塔村13031台区变压器,10kv511淮南线43464变压器,10kv511淮南线41937变压器,10kv511淮南线白塔村13108台区变压器,10kv511淮南线13043变压器,10kv511淮南线13094变压器,10kv511淮南线13111变压器","powerOffReason":"【停电原因】由于线路接地导致３５ＫＶ南小王变电站淮南５１１线路全线停电【变更送电】因抢修进度加快原因，送电时间由０６日１２：００变更为０６日００：３０【发布渠道】通过９５５９８发布","powerOffId":"2019080513000429"},{"poweroffId":2019080513000413,"sgpoweroffId":null,"subsName":"","lineName":"10kV阮庄站527线路","pubTranName":"0356234874-保定市南市区通达化工厂-专变,0555487758-保定市升源机械铸造有限公司-2-配电室,0356228107-河北省荣军医院-1#专变,B1801柱上变压器,0356228107-河北省荣军医院-4#专变,0356234861-保定市远景高新技术有限公司-1-配电室-变压器-1,0356377391-保定市沧龙不锈钢精密铸造有限公司-专变,0356174556-保定同鑫机械配件有限公司-专变,0357701966-保定市东利机械制造有限公司-1-配电室-变压器-1,B1800柱上变压器,0356228107-河北省荣军医院-5#专变,0356228107-河北省荣军医院-2#专变,0356234858-保定市金诺酒业有限公司-1-配电室-变压器-1,变压器,0356228107-河北省荣军医院-6#专变,B1803柱上变压器,0356338967-保定市立中燃料有限公司-1-配电室-变压器-1,0356230146-中国石油化工股份有限公司河北保定石油分公司-1-箱式变-变压器-1,0356233028-66131部队-专变,0356230654-河北省保定劳教所-1#专变,0651721066-保定市宝龙堂日用品有限公司-专变-177362001-变压器,0555487758-保定市升源机械铸造有限公司-3-配电室,0356337560-保定市远景高新技术有限公司-1-配电室-变压器-1,0356230654-河北省保定劳教所-2#专变,0555487758-保定市升源机械铸造有限公司-3#专变,0356228107-河北省荣军医院-3#专变,0357528312-保定市沧龙不锈钢精密铸造有限公司-专变,0356230931-66131部队-专变,0356228093-保定市基泰建筑有限公司-专变,","scope":"【影响街道/乡镇】莲池南大街、荣校路 【高危重要客户】无 【影响客户】枫林花溪、荣校、荣军医院、石油库、莲池南大街２３９６号院、劳教所、风航蓄电池、中铁家园","startTime":"2019-08-05 21:30:05","stopDate":"2019-08-06 07:30:18","orgNo":"13406","typeCode":"电网故障停限电","poweroffArea":"【全线路停电】停0555487758-保定市升源机械铸造有限公司-3-配电室,0356233028-66131部队-专变,0555487758-保定市升源机械铸造有限公司-2-配电室,0555487758-保定市升源机械铸造有限公司-3#专变,B1800柱上变压器,0356174556-保定同鑫机械配件有限公司-专变,0356228107-河北省荣军医院-6#专变,B1803柱上变压器,0356338967-保定市立中燃料有限公司-1-配电室-变压器-1,0651721066-保定市宝龙堂日用品有限公司-专变-177362001-变压器,0356228093-保定市基泰建筑有限公司-专变,B1801柱上变压器,0357528312-保定市沧龙不锈钢精密铸造有限公司-专变,0356228107-河北省荣军医院-2#专变,0357701966-保定市东利机械制造有限公司-1-配电室-变压器-1,0356234874-保定市南市区通达化工厂-专变,变压器,0356234861-保定市远景高新技术有限公司-1-配电室-变压器-1,0356228107-河北省荣军医院-1#专变,0356230931-66131部队-专变,0356228107-河北省荣军医院-4#专变,0356228107-河北省荣军医院-3#专变,0356337560-保定市远景高新技术有限公司-1-配电室-变压器-1,0356228107-河北省荣军医院-5#专变,0356230654-河北省保定劳教所-1#专变,0356230654-河北省保定劳教所-2#专变,0356234858-保定市金诺酒业有限公司-1-配电室-变压器-1,0356377391-保定市沧龙不锈钢精密铸造有限公司-专变,0356230146-中国石油化工股份有限公司河北保定石油分公司-1-箱式变-变压器-1","poweroffReason":"【停电原因】由于用户设备原因导致１０ＫＶ阮庄变电站５２７线路全线停电【变更送电】无 【发布渠道】通过９５５９８发布","powerTime":"2019-08-06 07:12:05","powerComm":"已送电","subsNo":"","lineNo":"","tgNo":"","tgName":null,"infoStatus":"1","orgName":"保定供电公司","typeName":null,"infoStatusName":null,"dateDay":null,"orgNos":null,"nowTime":null,"countyName":null,"streetName":null,"villageName":null,"roadName":null,"communityName":null,"tranName":null,"sdLineName":null,"cityCode":"13406","cityName":"保定供电公司","provinceCode":null,"stopTime":"2019-08-06 07:30:18","powerType":"全部","powerOffArea":"【全线路停电】停0555487758-保定市升源机械铸造有限公司-3-配电室,0356233028-66131部队-专变,0555487758-保定市升源机械铸造有限公司-2-配电室,0555487758-保定市升源机械铸造有限公司-3#专变,B1800柱上变压器,0356174556-保定同鑫机械配件有限公司-专变,0356228107-河北省荣军医院-6#专变,B1803柱上变压器,0356338967-保定市立中燃料有限公司-1-配电室-变压器-1,0651721066-保定市宝龙堂日用品有限公司-专变-177362001-变压器,0356228093-保定市基泰建筑有限公司-专变,B1801柱上变压器,0357528312-保定市沧龙不锈钢精密铸造有限公司-专变,0356228107-河北省荣军医院-2#专变,0357701966-保定市东利机械制造有限公司-1-配电室-变压器-1,0356234874-保定市南市区通达化工厂-专变,变压器,0356234861-保定市远景高新技术有限公司-1-配电室-变压器-1,0356228107-河北省荣军医院-1#专变,0356230931-66131部队-专变,0356228107-河北省荣军医院-4#专变,0356228107-河北省荣军医院-3#专变,0356337560-保定市远景高新技术有限公司-1-配电室-变压器-1,0356228107-河北省荣军医院-5#专变,0356230654-河北省保定劳教所-1#专变,0356230654-河北省保定劳教所-2#专变,0356234858-保定市金诺酒业有限公司-1-配电室-变压器-1,0356377391-保定市沧龙不锈钢精密铸造有限公司-专变,0356230146-中国石油化工股份有限公司河北保定石油分公司-1-箱式变-变压器-1","powerOffReason":"【停电原因】由于用户设备原因导致１０ＫＶ阮庄变电站５２７线路全线停电【变更送电】无 【发布渠道】通过９５５９８发布","powerOffId":"2019080513000413"},{"poweroffId":2019080513000389,"sgpoweroffId":null,"subsName":"","lineName":"10kV532建行线","pubTranName":"兴华北公变,","scope":"【影响街道/乡镇】益民路、兴华南路 【高危重要客户】无 【影响客户】兴华南益民两侧（平房、门脸）、企业局家属楼（平房、门脸）、房产局家属楼","startTime":"2019-08-05 19:50:34","stopDate":"2019-08-06 01:00:00","orgNo":"1340612","typeCode":"电网故障停限电","poweroffArea":"【单台区停电】停兴华北公变","poweroffReason":"【停电原因】由于电缆爆导致１１０ＫＶ马庄变电站１０ＫＶ建行５３２线路兴华北公变台区停电 【变更送电】因抢修进度加快原因，送电时间由０２：００变更为０１：００ 【发布渠道】通过９５５９８发布","powerTime":"2019-08-06 00:24:47","powerComm":"已送电","subsNo":"","lineNo":"","tgNo":"","tgName":null,"infoStatus":"1","orgName":"国网高碑店市供电公司","typeName":null,"infoStatusName":null,"dateDay":null,"orgNos":null,"nowTime":null,"countyName":null,"streetName":null,"villageName":null,"roadName":null,"communityName":null,"tranName":null,"sdLineName":null,"cityCode":"1340612","cityName":"国网高碑店市供电公司","provinceCode":null,"stopTime":"2019-08-06 01:00:00","powerType":"全部","powerOffArea":"【单台区停电】停兴华北公变","powerOffReason":"【停电原因】由于电缆爆导致１１０ＫＶ马庄变电站１０ＫＶ建行５３２线路兴华北公变台区停电 【变更送电】因抢修进度加快原因，送电时间由０２：００变更为０１：００ 【发布渠道】通过９５５９８发布","powerOffId":"2019080513000389"},{"poweroffId":2019080513000370,"sgpoweroffId":null,"subsName":"","lineName":"10kV561吴王庄线","pubTranName":"清苑县政航纺织厂,10kV561吴王庄线20062台区变压器,10kV561吴王庄线吴王庄20050台区变压器【纯农排变】,10kV561吴王庄线吴王庄20114IC卡台区变压器【纯农排变】,博野县可可纺织品商贸有限公司,博野县鸿实布业有限公司,10kV561吴王庄线99348台区变压器,10kV561吴王庄线20021台区变压器【纯农排变】,10kV561吴王庄线胡庄20069台区变压器【纯农排变】,10kV561吴王庄线魏庄20026台区变压器,10kV561吴王庄线吴王庄20090台区变压器【纯农排变】,10kV561吴王庄线吴王庄20112IC卡台区变压器【纯农排变】,10kV561吴王庄线肖庄20020台区变压器,祥宇浆纱厂,10kV561吴王庄线吴王庄20115IC卡台区变压器【纯农排变】,博野利达纺织厂,10kV561吴王庄线魏庄20025台区变压器,10kV561吴王庄线胡庄20092台区变压器【纯农排变】,10kV561吴王庄线周于庄20065台区变压器【纯农排变】,10kV561吴王庄线肖庄99347台区变压器,永丰织布厂,10kV561吴王庄线魏庄42616台区变压器,未庄未同会,博野县中天纺织有限公司,10kV561吴王庄线吴王庄20099台区变压器,10kV561吴王庄线胡庄20100台区变压器【纯农排变】,10kV561吴王庄线吴王庄20098台区变压器,10kV561吴王庄线周于庄新增97955台区变压器【纯农排变】,10kV561吴王庄线魏庄20067台区变压器,10kV561吴王庄线20113IC卡台区变压器,三祥织布厂,10kV561吴王庄线吴王庄20023台区变压器,鑫鑫印花厂,10kV561吴王庄线吴王庄22101台区变压器,10kV561吴王庄线吴王庄20022台区变压器,陈占常织布厂,10kV561吴王庄线吴王庄20066台区变压器【纯农排变】,10kV561吴王庄线魏庄20027台区变压器,","scope":"【影响街道/乡镇】小店镇【高危重要客户】无【影响客户】肖庄、未庄、吴王庄","startTime":"2019-08-06 04:30:00","stopDate":"2019-08-06 06:00:00","orgNo":"1340608","typeCode":"其他临时停电","poweroffArea":"【全线路停电】停10kV561吴王庄线20062台区变压器,10kV561吴王庄线吴王庄20050台区变压器【纯农排变】,10kV561吴王庄线吴王庄20066台区变压器【纯农排变】,10kV561吴王庄线魏庄20027台区变压器,10kV561吴王庄线吴王庄20114IC卡台区变压器【纯农排变】,博野县可可纺织品商贸有限公司,博野县鸿实布业有限公司,10kV561吴王庄线99348台区变压器,10kV561吴王庄线20021台区变压器【纯农排变】,10kV561吴王庄线胡庄20069台区变压器【纯农排变】,10kV561吴王庄线魏庄20026台区变压器,10kV561吴王庄线吴王庄20090台区变压器【纯农排变】,10kV561吴王庄线吴王庄20112IC卡台区变压器【纯农排变】,10kV561吴王庄线肖庄20020台区变压器,祥宇浆纱厂,10kV561吴王庄线吴王庄20115IC卡台区变压器【纯农排变】,博野利达纺织厂,10kV561吴王庄线魏庄20025台区变压器,10kV561吴王庄线胡庄20092台区变压器【纯农排变】,10kV561吴王庄线周于庄20065台区变压器【纯农排变】,10kV561吴王庄线吴王庄20098台区变压器,10kV561吴王庄线肖庄99347台区变压器,永丰织布厂,10kV561吴王庄线魏庄42616台区变压器,未庄未同会,博野县中天纺织有限公司,10kV561吴王庄线吴王庄20099台区变压器,10kV561吴王庄线胡庄20100台区变压器【纯农排变】,10kV561吴王庄线周于庄新增97955台区变压器【纯农排变】,10kV561吴王庄线魏庄20067台区变压器,10kV561吴王庄线20113IC卡台区变压器,三祥织布厂,10kV561吴王庄线吴王庄20023台区变压器,鑫鑫印花厂,10kV561吴王庄线吴王庄22101台区变压器,10kV561吴王庄线吴王庄20022台区变压器,陈占常织布厂,清苑县政航纺织厂","poweroffReason":"【停电原因】由于电杆倾斜，需停电进行紧急消缺导致１１０ＫＶ胡庄变电站吴王庄５６１线路全线停电【变更送电】无【发布渠道】通过９５５９８发布","powerTime":"2019-08-06 05:40:23","powerComm":"已送电","subsNo":"","lineNo":"","tgNo":"","tgName":null,"infoStatus":"1","orgName":"国网博野县供电公司","typeName":null,"infoStatusName":null,"dateDay":null,"orgNos":null,"nowTime":null,"countyName":null,"streetName":null,"villageName":null,"roadName":null,"communityName":null,"tranName":null,"sdLineName":null,"cityCode":"1340608","cityName":"国网博野县供电公司","provinceCode":null,"stopTime":"2019-08-06 06:00:00","powerType":"全部","powerOffArea":"【全线路停电】停10kV561吴王庄线20062台区变压器,10kV561吴王庄线吴王庄20050台区变压器【纯农排变】,10kV561吴王庄线吴王庄20066台区变压器【纯农排变】,10kV561吴王庄线魏庄20027台区变压器,10kV561吴王庄线吴王庄20114IC卡台区变压器【纯农排变】,博野县可可纺织品商贸有限公司,博野县鸿实布业有限公司,10kV561吴王庄线99348台区变压器,10kV561吴王庄线20021台区变压器【纯农排变】,10kV561吴王庄线胡庄20069台区变压器【纯农排变】,10kV561吴王庄线魏庄20026台区变压器,10kV561吴王庄线吴王庄20090台区变压器【纯农排变】,10kV561吴王庄线吴王庄20112IC卡台区变压器【纯农排变】,10kV561吴王庄线肖庄20020台区变压器,祥宇浆纱厂,10kV561吴王庄线吴王庄20115IC卡台区变压器【纯农排变】,博野利达纺织厂,10kV561吴王庄线魏庄20025台区变压器,10kV561吴王庄线胡庄20092台区变压器【纯农排变】,10kV561吴王庄线周于庄20065台区变压器【纯农排变】,10kV561吴王庄线吴王庄20098台区变压器,10kV561吴王庄线肖庄99347台区变压器,永丰织布厂,10kV561吴王庄线魏庄42616台区变压器,未庄未同会,博野县中天纺织有限公司,10kV561吴王庄线吴王庄20099台区变压器,10kV561吴王庄线胡庄20100台区变压器【纯农排变】,10kV561吴王庄线周于庄新增97955台区变压器【纯农排变】,10kV561吴王庄线魏庄20067台区变压器,10kV561吴王庄线20113IC卡台区变压器,三祥织布厂,10kV561吴王庄线吴王庄20023台区变压器,鑫鑫印花厂,10kV561吴王庄线吴王庄22101台区变压器,10kV561吴王庄线吴王庄20022台区变压器,陈占常织布厂,清苑县政航纺织厂","powerOffReason":"【停电原因】由于电杆倾斜，需停电进行紧急消缺导致１１０ＫＶ胡庄变电站吴王庄５６１线路全线停电【变更送电】无【发布渠道】通过９５５９８发布","powerOffId":"2019080513000370"},{"poweroffId":2019080513000365,"sgpoweroffId":null,"subsName":"","lineName":"10kV569于家佐线","pubTranName":"东忽村公用农业8台区【纯农排变】,东忽村公用农业4台区【纯农排变】,东忽村公用农业20台区【纯农排变】,东忽村公用农业12台区【纯农排变】,东忽村公用农业15台区【纯农排变】,西忽村公用农业11台区【纯农排变】,西忽村公用照明6台区,东沿里公用农业12台区【纯农排变】,东忽村公用农业1台区【纯农排变】,西忽村公用农业12台区【纯农排变】,东忽村公用农业16台区【纯农排变】,东忽村公用照明8台区,客户投资_东忽村公用照明4台区,西忽村公用照明2台区,东忽村公用农业13台区【纯农排变】,西忽村公用照明3台区,西忽村公用照明4台区,西忽村公用农业9台区【纯农排变】,东忽村公用农业3台区【纯农排变】,东忽村公用农业6台区【纯农排变】,东忽村公用照明5台区,东忽村公用农业5台区【纯农排变】,西忽村公用农业10台区【纯农排变】,西忽村公用照明1台区,东忽村公用照明1台区,东忽村公用农业2台区【纯农排变】,东忽村公用农业18台区【纯农排变】,西忽村公用农业7台区【纯农排变】,西忽村公用农业3台区【纯农排变】,东忽村公用照明3台区,东忽村公用农业19台区【纯农排变】,东忽村公用农业7台区【纯农排变】,西忽村公用农业2台区【纯农排变】,西忽村公用照明8台区,东忽村公用农业11台区【纯农排变】,东忽村公用照明7台区,西忽村公用农业5台区【纯农排变】,西忽村公用照明5台区,东忽村公用照明2台区,西忽村公用农业8台区【纯农排变】,东忽村公用农业9台区【纯农排变】,东忽村公用农业14台区【纯农排变】,西忽村公用农业13台区【纯农排变】,西忽村公用农业6台区【纯农排变】,西忽村公用照明7台区,西忽村公用农业1台区【纯农排变】,西忽村公用农业4台区【纯农排变】,东忽村公用照明6台区,东忽村公用农业10台区【纯农排变】,","scope":"【影响街道/乡镇】开元镇【高危重要客户】无【影响客户】东忽村、西忽村、东沿里","startTime":"2019-08-06 04:00:00","stopDate":"2019-08-06 07:00:00","orgNo":"1340610","typeCode":"其他临时停电","poweroffArea":"【分支停电】停东忽村公用农业3台区【纯农排变】,东忽村公用农业8台区【纯农排变】,东忽村公用农业4台区【纯农排变】,东忽村公用农业20台区【纯农排变】,东忽村公用农业12台区【纯农排变】,东忽村公用农业15台区【纯农排变】,西忽村公用农业11台区【纯农排变】,西忽村公用照明6台区,东沿里公用农业12台区【纯农排变】,东忽村公用农业1台区【纯农排变】,西忽村公用农业12台区【纯农排变】,东忽村公用农业16台区【纯农排变】,东忽村公用照明8台区,客户投资_东忽村公用照明4台区,西忽村公用照明2台区,东忽村公用农业13台区【纯农排变】,西忽村公用照明3台区,西忽村公用照明4台区,西忽村公用农业9台区【纯农排变】,东忽村公用农业6台区【纯农排变】,东忽村公用照明5台区,东忽村公用农业5台区【纯农排变】,西忽村公用农业10台区【纯农排变】,西忽村公用照明1台区,东忽村公用照明1台区,东忽村公用农业2台区【纯农排变】,东忽村公用农业18台区【纯农排变】,西忽村公用农业7台区【纯农排变】,西忽村公用农业3台区【纯农排变】,东忽村公用照明3台区,东忽村公用农业19台区【纯农排变】,东忽村公用农业7台区【纯农排变】,东忽村公用农业11台区【纯农排变】,东忽村公用照明7台区,西忽村公用农业5台区【纯农排变】,西忽村公用照明5台区,东忽村公用照明2台区,西忽村公用农业8台区【纯农排变】,东忽村公用农业9台区【纯农排变】,东忽村公用农业14台区【纯农排变】,西忽村公用农业13台区【纯农排变】,西忽村公用农业6台区【纯农排变】,西忽村公用照明7台区,西忽村公用农业1台区【纯农排变】,西忽村公用农业4台区【纯农排变】,东忽村公用照明6台区,东忽村公用农业10台区【纯农排变】,西忽村公用农业2台区【纯农排变】,西忽村公用照明8台区","poweroffReason":"【停电原因】由于弓子线打火需停电进行紧急检修导致１１０ＫＶ明月店变电站１０ＫＶ５６９于家佐线路主干９５号杆０１号断路器以下线路停电 【变更送电】无 【发布渠道】９５５９８","powerTime":"2019-08-06 06:30:44","powerComm":"已送电","subsNo":"","lineNo":"","tgNo":"","tgName":null,"infoStatus":"1","orgName":"国网定州市供电公司","typeName":null,"infoStatusName":null,"dateDay":null,"orgNos":null,"nowTime":null,"countyName":null,"streetName":null,"villageName":null,"roadName":null,"communityName":null,"tranName":null,"sdLineName":null,"cityCode":"1340610","cityName":"国网定州市供电公司","provinceCode":null,"stopTime":"2019-08-06 07:00:00","powerType":"全部","powerOffArea":"【分支停电】停东忽村公用农业3台区【纯农排变】,东忽村公用农业8台区【纯农排变】,东忽村公用农业4台区【纯农排变】,东忽村公用农业20台区【纯农排变】,东忽村公用农业12台区【纯农排变】,东忽村公用农业15台区【纯农排变】,西忽村公用农业11台区【纯农排变】,西忽村公用照明6台区,东沿里公用农业12台区【纯农排变】,东忽村公用农业1台区【纯农排变】,西忽村公用农业12台区【纯农排变】,东忽村公用农业16台区【纯农排变】,东忽村公用照明8台区,客户投资_东忽村公用照明4台区,西忽村公用照明2台区,东忽村公用农业13台区【纯农排变】,西忽村公用照明3台区,西忽村公用照明4台区,西忽村公用农业9台区【纯农排变】,东忽村公用农业6台区【纯农排变】,东忽村公用照明5台区,东忽村公用农业5台区【纯农排变】,西忽村公用农业10台区【纯农排变】,西忽村公用照明1台区,东忽村公用照明1台区,东忽村公用农业2台区【纯农排变】,东忽村公用农业18台区【纯农排变】,西忽村公用农业7台区【纯农排变】,西忽村公用农业3台区【纯农排变】,东忽村公用照明3台区,东忽村公用农业19台区【纯农排变】,东忽村公用农业7台区【纯农排变】,东忽村公用农业11台区【纯农排变】,东忽村公用照明7台区,西忽村公用农业5台区【纯农排变】,西忽村公用照明5台区,东忽村公用照明2台区,西忽村公用农业8台区【纯农排变】,东忽村公用农业9台区【纯农排变】,东忽村公用农业14台区【纯农排变】,西忽村公用农业13台区【纯农排变】,西忽村公用农业6台区【纯农排变】,西忽村公用照明7台区,西忽村公用农业1台区【纯农排变】,西忽村公用农业4台区【纯农排变】,东忽村公用照明6台区,东忽村公用农业10台区【纯农排变】,西忽村公用农业2台区【纯农排变】,西忽村公用照明8台区","powerOffReason":"【停电原因】由于弓子线打火需停电进行紧急检修导致１１０ＫＶ明月店变电站１０ＫＶ５６９于家佐线路主干９５号杆０１号断路器以下线路停电 【变更送电】无 【发布渠道】９５５９８","powerOffId":"2019080513000365"},{"poweroffId":2019080513000354,"sgpoweroffId":null,"subsName":"","lineName":"10kV东官庄557","pubTranName":"东南租东南专变压器,东南租村东混变压器,东南租村内台区,东南租村南3台区,东南租村东新,","scope":"【影响街道/乡镇】涞水镇 【高危重要客户】无 【影响客户】东南租村","startTime":"2019-08-06 04:00:00","stopDate":"2019-08-06 06:00:00","orgNo":"1340614","typeCode":"其他临时停电","poweroffArea":"【分支停电】停东南租村东新,东南租东南专变压器,东南租村东混变压器,东南租村内台区,东南租村南3台区","poweroffReason":"【停电原因】由于线夹过热，需停电进行紧急消缺导致１１０ＫＶ郭下变电站１０ＫＶ东官庄５５７线路东南租村分支０１号杆至１０号杆停电 【变更送电】无 【发布渠道】通过９５５９８发布","powerTime":"2019-08-06 05:52:14","powerComm":"已送电","subsNo":"","lineNo":"","tgNo":"","tgName":null,"infoStatus":"1","orgName":"国网涞水县供电公司","typeName":null,"infoStatusName":null,"dateDay":null,"orgNos":null,"nowTime":null,"countyName":null,"streetName":null,"villageName":null,"roadName":null,"communityName":null,"tranName":null,"sdLineName":null,"cityCode":"1340614","cityName":"国网涞水县供电公司","provinceCode":null,"stopTime":"2019-08-06 06:00:00","powerType":"全部","powerOffArea":"【分支停电】停东南租村东新,东南租东南专变压器,东南租村东混变压器,东南租村内台区,东南租村南3台区","powerOffReason":"【停电原因】由于线夹过热，需停电进行紧急消缺导致１１０ＫＶ郭下变电站１０ＫＶ东官庄５５７线路东南租村分支０１号杆至１０号杆停电 【变更送电】无 【发布渠道】通过９５５９８发布","powerOffId":"2019080513000354"},{"poweroffId":2019080513000352,"sgpoweroffId":null,"subsName":"","lineName":"10kV阮庄站518线路","pubTranName":"C460柱上变压器,","scope":"【影响街道/乡镇】五尧乡 【高危重要客户】无 【影响客户】北沟头村","startTime":"2019-08-05 17:00:00","stopDate":"2019-08-05 19:30:00","orgNo":"13406","typeCode":"电网故障停限电","poweroffArea":"【单台区停电】停C460柱上变压器","poweroffReason":"【停电原因】由于低压保险片烧导致１０ＫＶ阮庄变电站５１８线路Ｃ４６０公变台区停电【变更送电】因抢修进度加快，原定21:00送电现计划19:30送电【发布渠道】通过９５５９８发布","powerTime":"2019-08-05 18:54:58","powerComm":"已送电","subsNo":"","lineNo":"","tgNo":"","tgName":null,"infoStatus":"1","orgName":"保定供电公司","typeName":null,"infoStatusName":null,"dateDay":null,"orgNos":null,"nowTime":null,"countyName":null,"streetName":null,"villageName":null,"roadName":null,"communityName":null,"tranName":null,"sdLineName":null,"cityCode":"13406","cityName":"保定供电公司","provinceCode":null,"stopTime":"2019-08-05 19:30:00","powerType":"全部","powerOffArea":"【单台区停电】停C460柱上变压器","powerOffReason":"【停电原因】由于低压保险片烧导致１０ＫＶ阮庄变电站５１８线路Ｃ４６０公变台区停电【变更送电】因抢修进度加快，原定21:00送电现计划19:30送电【发布渠道】通过９５５９８发布","powerOffId":"2019080513000352"},{"poweroffId":2019080513000345,"sgpoweroffId":null,"subsName":"","lineName":"10kV589南庞线","pubTranName":"大刘庄7号,","scope":"【影响街道/乡镇】漕河镇 【高危重要客户】无 【影响客户】大刘庄村","startTime":"2019-08-06 06:30:00","stopDate":"2019-08-06 08:00:00","orgNo":"1340605","typeCode":"其他临时停电","poweroffArea":"【单台区停电】停大刘庄7号","poweroffReason":"【停电原因】由于处理紧急缺陷导致１１０ＫＶ田西良变电站南庞线５８９线路大刘庄７号公变台区停电 【变更送电】无 【发布渠道】通过９５５９８发布","powerTime":"2019-08-06 07:35:14","powerComm":"已送电","subsNo":"","lineNo":"","tgNo":"","tgName":null,"infoStatus":"1","orgName":"国网徐水县供电公司","typeName":null,"infoStatusName":null,"dateDay":null,"orgNos":null,"nowTime":null,"countyName":null,"streetName":null,"villageName":null,"roadName":null,"communityName":null,"tranName":null,"sdLineName":null,"cityCode":"1340605","cityName":"国网徐水县供电公司","provinceCode":null,"stopTime":"2019-08-06 08:00:00","powerType":"全部","powerOffArea":"【单台区停电】停大刘庄7号","powerOffReason":"【停电原因】由于处理紧急缺陷导致１１０ＫＶ田西良变电站南庞线５８９线路大刘庄７号公变台区停电 【变更送电】无 【发布渠道】通过９５５９８发布","powerOffId":"2019080513000345"}],"pageModel":{"pageNow":687,"totalCount":10973,"totalPage":1098,"tableRows":0,"pageCount":10,"beginCount":6860},"isExperi":"1"}