{"message":"","today":"2020-06-15","seleList":[{"poweroffId":2019080513000161,"sgpoweroffId":null,"subsName":"","lineName":"金台北584","pubTranName":"金台路9#,易县瑞通矿业有限公司200,0655322465-易县景安物业服务有限公司-专变-185462348-河北景安房地产开发有限公司800KVA-燕城516,金台路3#,金台1#,厂东关8号,易县景安供热有限公司变压器,金台路7#,0646433125-易县天泰房地产开发有限公司-专变-169847922-易县天泰房地产开发有限公司变压器,泰元北大街1#,营房村8号,店北村4#,易县第三小学分校,营房村6#,大世界冷饮厂(董绍连),第四幼儿园160KVA,营房村2#,化肥厂家属院,赵子明(明辉宾馆),景安物业增容1000KVA-516线路,店北村3#,营房村4#,0658069927-易县厂东关旭丰商贸有限公司-专变-212351314-易县厂东关旭丰商贸有限公司2号-2000kva,泰元北大街2#,0646433125-易县天泰房地产开发有限公司-专变-169847928-易县天泰房地产开发有限公司变压器,易县瑞通矿业有限公司,0658069927-易县厂东关旭丰商贸有限公司-专变-192420139-易县厂东关旭丰商贸有限公司A-2000KVA,店北村6#,八公司西院,0553957295-河北省易县医院-专变-77785637-易县医院变压器1,易县明辉宾馆变压器,交通局,营房村7,店北村9#,交通局家属楼,营房村5#,店北村5#,营房村3#,易县景安物业管理有限公司,金台路5#,","scope":"【影响街道/乡镇】城管处、金台路、泰元北大街【高危重要客户】无【影响客户】店北村、营房村、厂东关","startTime":"2019-08-05 10:38:03","stopDate":"2019-08-05 12:00:00","orgNo":"1340625","typeCode":"电网故障停限电","poweroffArea":"【全线路停电】停金台路9#,易县瑞通矿业有限公司200,0655322465-易县景安物业服务有限公司-专变-185462348-河北景安房地产开发有限公司800KVA-燕城516,金台路3#,金台1#,厂东关8号,易县景安供热有限公司变压器,金台路7#,0646433125-易县天泰房地产开发有限公司-专变-169847922-易县天泰房地产开发有限公司变压器,泰元北大街1#,营房村8号,0658069927-易县厂东关旭丰商贸有限公司-专变-212351314-易县厂东关旭丰商贸有限公司2号-2000kva,泰元北大街2#,0646433125-易县天泰房地产开发有限公司-专变-169847928-易县天泰房地产开发有限公司变压器,易县瑞通矿业有限公司,0658069927-易县厂东关旭丰商贸有限公司-专变-192420139-易县厂东关旭丰商贸有限公司A-2000KVA,店北村6#,八公司西院,0553957295-河北省易县医院-专变-77785637-易县医院变压器1,易县明辉宾馆变压器,交通局,营房村7,店北村9#,交通局家属楼,营房村5#,店北村5#,营房村3#,易县景安物业管理有限公司,金台路5#,店北村4#,易县第三小学分校,营房村6#,大世界冷饮厂(董绍连),第四幼儿园160KVA,营房村2#,化肥厂家属院,赵子明(明辉宾馆),景安物业增容1000KVA-516线路,店北村3#,营房村4#","poweroffReason":"【停电原因】由于速断跳闸导致１１０ＫＶ店北变电站金台北５８４线路全线停电【变更送电】因抢修进度加快原因，送电时间由１６:００变更为１２:００【发布渠道】通过９５５９８发布","powerTime":"2019-08-05 11:18:56","powerComm":"已送电","subsNo":"","lineNo":"","tgNo":"","tgName":null,"infoStatus":"1","orgName":"国网易县供电公司","typeName":null,"infoStatusName":null,"dateDay":null,"orgNos":null,"nowTime":null,"countyName":null,"streetName":null,"villageName":null,"roadName":null,"communityName":null,"tranName":null,"sdLineName":null,"cityCode":"1340625","cityName":"国网易县供电公司","provinceCode":null,"stopTime":"2019-08-05 12:00:00","powerType":"全部","powerOffArea":"【全线路停电】停金台路9#,易县瑞通矿业有限公司200,0655322465-易县景安物业服务有限公司-专变-185462348-河北景安房地产开发有限公司800KVA-燕城516,金台路3#,金台1#,厂东关8号,易县景安供热有限公司变压器,金台路7#,0646433125-易县天泰房地产开发有限公司-专变-169847922-易县天泰房地产开发有限公司变压器,泰元北大街1#,营房村8号,0658069927-易县厂东关旭丰商贸有限公司-专变-212351314-易县厂东关旭丰商贸有限公司2号-2000kva,泰元北大街2#,0646433125-易县天泰房地产开发有限公司-专变-169847928-易县天泰房地产开发有限公司变压器,易县瑞通矿业有限公司,0658069927-易县厂东关旭丰商贸有限公司-专变-192420139-易县厂东关旭丰商贸有限公司A-2000KVA,店北村6#,八公司西院,0553957295-河北省易县医院-专变-77785637-易县医院变压器1,易县明辉宾馆变压器,交通局,营房村7,店北村9#,交通局家属楼,营房村5#,店北村5#,营房村3#,易县景安物业管理有限公司,金台路5#,店北村4#,易县第三小学分校,营房村6#,大世界冷饮厂(董绍连),第四幼儿园160KVA,营房村2#,化肥厂家属院,赵子明(明辉宾馆),景安物业增容1000KVA-516线路,店北村3#,营房村4#","powerOffReason":"【停电原因】由于速断跳闸导致１１０ＫＶ店北变电站金台北５８４线路全线停电【变更送电】因抢修进度加快原因，送电时间由１６:００变更为１２:００【发布渠道】通过９５５９８发布","powerOffId":"2019080513000161"},{"poweroffId":2019080513000150,"sgpoweroffId":null,"subsName":"","lineName":"10kV韩村站517线路","pubTranName":"B1646柱上变压器,","scope":"【影响街道/乡镇】瑞祥大街 【高危重要客户】无 【影响客户】建材小区","startTime":"2019-08-05 10:00:00","stopDate":"2019-08-05 12:30:00","orgNo":"13406","typeCode":"电网故障停限电","poweroffArea":"【单台区停电】停B1646柱上变压器","poweroffReason":"【停电原因】由于低压保险片烧导致１０ＫＶ韩村变电站５１７线路Ｂ１６４６公变台区停电【变更送电】无【发布渠道】通过９５５９８发布","powerTime":"2019-08-05 11:34:30","powerComm":"已送电","subsNo":"","lineNo":"","tgNo":"","tgName":null,"infoStatus":"1","orgName":"保定供电公司","typeName":null,"infoStatusName":null,"dateDay":null,"orgNos":null,"nowTime":null,"countyName":null,"streetName":null,"villageName":null,"roadName":null,"communityName":null,"tranName":null,"sdLineName":null,"cityCode":"13406","cityName":"保定供电公司","provinceCode":null,"stopTime":"2019-08-05 12:30:00","powerType":"全部","powerOffArea":"【单台区停电】停B1646柱上变压器","powerOffReason":"【停电原因】由于低压保险片烧导致１０ＫＶ韩村变电站５１７线路Ｂ１６４６公变台区停电【变更送电】无【发布渠道】通过９５５９８发布","powerOffId":"2019080513000150"},{"poweroffId":2019080513000108,"sgpoweroffId":null,"subsName":"","lineName":"太保营线514","pubTranName":"太保营5号,","scope":"【影响街道/乡镇】留村乡 【高危重要客户】无 【影响客户】太保营村","startTime":"2019-08-07 07:00:00","stopDate":"2019-08-07 19:00:00","orgNo":"1340605","typeCode":"临时停电","poweroffArea":"【单台区停电】停太保营5号","poweroffReason":"【停电原因】由于线路检修导致３５ＫＶ漕河变电站太保营线５１４线路５号公变台区停电 【变更送电】因工作未完成原因，送电时间由１７:００变更为１９:００ 【发布渠道】通过９５５９８发布","powerTime":"2019-08-07 18:38:16","powerComm":"已送电","subsNo":"","lineNo":"","tgNo":"","tgName":null,"infoStatus":"1","orgName":"国网徐水县供电公司","typeName":null,"infoStatusName":null,"dateDay":null,"orgNos":null,"nowTime":null,"countyName":null,"streetName":null,"villageName":null,"roadName":null,"communityName":null,"tranName":null,"sdLineName":null,"cityCode":"1340605","cityName":"国网徐水县供电公司","provinceCode":null,"stopTime":"2019-08-07 19:00:00","powerType":"全部","powerOffArea":"【单台区停电】停太保营5号","powerOffReason":"【停电原因】由于线路检修导致３５ＫＶ漕河变电站太保营线５１４线路５号公变台区停电 【变更送电】因工作未完成原因，送电时间由１７:００变更为１９:００ 【发布渠道】通过９５５９８发布","powerOffId":"2019080513000108"},{"poweroffId":2019080513000096,"sgpoweroffId":null,"subsName":"","lineName":"10kV贾辛庄线547","pubTranName":"西于庄小学,1西于庄内3,1西于庄内7,1西于庄内6,西于庄小学分校,1西于庄内2,1西于庄内5,2西于庄外5【纯农排变】,2西于庄外9【纯农排变】,2西于庄外4【纯农排变】,2西于庄外6【纯农排变】,2西于庄外8【纯农排变】,0387487731-西于庄西南-专变-45313615-西于庄西南2号,1西于庄内4,2西于庄外7【纯农排变】,1西于庄内1,","scope":"【影响街道/乡镇】望亭乡 【高危重要客户】无 【影响客户】西于庄","startTime":"2019-08-14 06:00:00","stopDate":"2019-08-14 18:00:00","orgNo":"1340618","typeCode":"计划停电","poweroffArea":"【分支停电】停2西于庄外4【纯农排变】,2西于庄外6【纯农排变】,2西于庄外8【纯农排变】,0387487731-西于庄西南-专变-45313615-西于庄西南2号,1西于庄内4,2西于庄外7【纯农排变】,1西于庄内1,西于庄小学,1西于庄内3,1西于庄内7,1西于庄内6,西于庄小学分校,1西于庄内2,1西于庄内5,2西于庄外5【纯农排变】,2西于庄外9【纯农排变】","poweroffReason":"【停电原因】由于更换导线导致１１０ＫＶ臧村变电站１０ＫＶ贾辛庄线５４７线路主干４３号杆北分支１号杆至３４号杆停电 【变更送电】无 【发布渠道】保定市清苑区电视台（２０１９年０８月０６日１９时至２０１９年０８月１３日２０时之间）屏幕上方滚动","powerTime":"2019-08-14 17:55:10","powerComm":"蔡顺强通知已送电","subsNo":"","lineNo":"","tgNo":"","tgName":null,"infoStatus":"1","orgName":"国网清苑县供电公司","typeName":null,"infoStatusName":null,"dateDay":null,"orgNos":null,"nowTime":null,"countyName":null,"streetName":null,"villageName":null,"roadName":null,"communityName":null,"tranName":null,"sdLineName":null,"cityCode":"1340618","cityName":"国网清苑县供电公司","provinceCode":null,"stopTime":"2019-08-14 18:00:00","powerType":"全部","powerOffArea":"【分支停电】停2西于庄外4【纯农排变】,2西于庄外6【纯农排变】,2西于庄外8【纯农排变】,0387487731-西于庄西南-专变-45313615-西于庄西南2号,1西于庄内4,2西于庄外7【纯农排变】,1西于庄内1,西于庄小学,1西于庄内3,1西于庄内7,1西于庄内6,西于庄小学分校,1西于庄内2,1西于庄内5,2西于庄外5【纯农排变】,2西于庄外9【纯农排变】","powerOffReason":"【停电原因】由于更换导线导致１１０ＫＶ臧村变电站１０ＫＶ贾辛庄线５４７线路主干４３号杆北分支１号杆至３４号杆停电 【变更送电】无 【发布渠道】保定市清苑区电视台（２０１９年０８月０６日１９时至２０１９年０８月１３日２０时之间）屏幕上方滚动","powerOffId":"2019080513000096"},{"poweroffId":2019080513000092,"sgpoweroffId":null,"subsName":"","lineName":"10kV516留春线","pubTranName":"吕家庄村公用照明2台区,西留春村公用农业13台区【纯农排变】,东留春公用农业1台区【纯农排变】,邵村村西边,定州市万沣面粉厂变压器,圣佛头公用照明9台区,吕家庄公用农业17台区【纯农排变】,东留春公用农业3台区【纯农排变】,圣佛头公用农业13台区【纯农排变】,圣佛头公用照明10台区,圣佛头公用农业17台区【纯农排变】,圣佛头公用农业19台区【纯农排变】,西留春公用照明8台区,西留春村公用照明1台区,邵村公用照明3台区,东留春公用农业13台区【纯农排变】,吕家庄公用农业6台区【纯农排变】,北邵村公用农业3台区【纯农排变】,中国移动通信集团河北有限公司定州分公司变压器,西留春庄面粉厂,东留春公用农业10台区【纯农排变】,东留春公用照明9台区,吕家庄村公用照明1台区,定州市胜亚空心砖厂,吕家庄公用农业11台区【纯农排变】,东留春公用农业17台区【纯农排变】,西留春公用照明9台区,圣佛头公用照明5台区,北邵村公用农业5台区【纯农排变】,吕家庄公用照明8台区,吕家庄面粉厂,圣佛头公用农业20台区【纯农排变】,邵村堤上河西北,邵村堤上河东北,定州市东留春乡邵村村民委员会,邵村村南2,西留春村公用农业2台区【纯农排变】,圣佛头公用农业16台区【纯农排变】,圣佛头公用照明8台区,邵村村东,西留春公用照明12台区,圣佛头公用农业21台区【纯农排变】,东留春公用农业6台区【纯农排变】,邵村公路东,东留春公用农业12台区【纯农排变】,圣佛头公用农业7台区【纯农排变】,东留春村公用照明3台区,西留春公用照明6台区,西留春村公用农业12台区【纯农排变】,西留春公用照明7台区,吕家庄公用农业2台区【纯农排变】,东留春公用农业14台区【纯农排变】,东留春公用照明7台区,东留春公用照明5台区,东留春村公用照明2台区,刘良庄供电所,圣佛头公用照明6台区,邵村西南,定州市东留春乡邵村村民委员会村西,邵村村西,西留春村公用农业3台区【纯农排变】,北邵村公用农业1台区【纯农排变】,吕家庄公用照明15台区,邵村堤上河西,吕家庄公用照明14台区,东留春公用农业2台区【纯农排变】,东留春公用照明14台区,吕家庄砖场,圣佛头公用农业8台区【纯农排变】,圣佛头公用农业14台区【纯农排变】,吕家庄公用照明11台区,吕家庄公用农业10台区【纯农排变】,西留春村公用农业11台区【纯农排变】,0681852426-定州市大地纺织配件有限公司-专变-220701775-定州市大地纺织配件有限公司变压器,邵村公用照明2台区,邵村公用照明5台区,邵村公用照明9台区,邵村公路中,东留春邮局,定州市万沣面粉有限公司变压器,邵村西北,北邵村公用照明2台区,吕家庄公用农业9台区【纯农排变】,北邵村公用农业2台区【纯农排变】,圣佛头公用农业2台区【纯农排变】,吕家庄公用照明9台区,圣佛头公用农业3台区【纯农排变】,吴静农场变压器,北邵村公用农业4台区【纯农排变】,西留春公用照明3台区,定州市东留春乡北邵村村集体股份合作社变压器,西留春村公用照明4台区,圣佛头公用农业11台区【纯农排变】,邵村正西,吕家庄公用农业1台区【纯农排变】,定州市邵村王勇养猪场变压器,西留春公用照明11台区,东留春公用","scope":"【影响街道/乡镇】东留春乡、号头庄乡【高危重要客户】无【影响客户】吕家庄、东留春、西留春、邵村、北邵村、圣佛头","startTime":"2019-08-05 09:08:34","stopDate":"2019-08-05 14:00:00","orgNo":"1340610","typeCode":"电网故障停限电","poweroffArea":"【全线路停电】停邵村公用照明3台区,邵村公用照明2台区,邵村公用照明5台区,邵村公用照明9台区,邵村公用照明10台区,邵村公用照明6台区,邵村公用照明1台区,邵村公用照明4台区,吕家庄公用农业7台区【纯农排变】,西留春村公用农业9台区【纯农排变】,吕家庄公用农业4台区【纯农排变】,定州市宇能建材有限公司变压器,西留春村公用农业2台区【纯农排变】,吕家庄公用农业11台区【纯农排变】,东留春公用农业17台区【纯农排变】,西留春公用照明9台区,吕家庄公用农业14台区【纯农排变】,东留春公用照明8台区,中国移动通信集团河北有限公司定州分公司变压器,西留春庄面粉厂,东留春公用农业10台区【纯农排变】,邵村沙河东,圣佛头公用农业6台区【纯农排变】,东留春公用照明12台区,圣佛头公用农业18台区【纯农排变】,圣佛头公用照明7台区,东留春村公用照明1台区,西留春纺织配件厂,圣佛头公用农业1台区【纯农排变】,邵村方田,0677300090-定州市东留春乡北邵村社区村民委员会-专变-230658542-定州市东留春乡北邵村社区村民委员会变压器,圣佛头公用农业10台区【纯农排变】,定州市永其养殖场,圣佛头公用农业12台区【纯农排变】,吕家庄村公用照明3台区,圣佛头公用照明4台区,东留春公用照明13台区,东留春公用农业7台区【纯农排变】,吕家庄公用农业12台区【纯农排变】,东留春公用照明11台区,西留春公用照明5台区,东留春公用照明6台区,吕家庄公用照明7台区,圣佛头公用照明6台区,东留春公用农业8台区【纯农排变】,东留春公用照明10台区,吕家庄公用照明4台区,西留春村公用农业4台区【纯农排变】,东留春公用农业15台区【纯农排变】,西留春村公用照明13台区,西留春村公用农业13台区【纯农排变】,东留春公用农业1台区【纯农排变】,邵村村西边,定州市万沣面粉厂变压器,圣佛头公用照明9台区,邵村堤上河北,东留春公用农业4台区【纯农排变】,东留春内北,邵村堤上河西,邵村堤上河东,西留春村公用农业8台区【纯农排变】,邵村公路中,东留春邮局,定州市万沣面粉有限公司变压器,邵村西北,北邵村公用照明3台区,邵村堤上河西北,邵村堤上河东北,吕家庄公用农业17台区【纯农排变】,东留春公用农业3台区【纯农排变】,圣佛头公用农业13台区【纯农排变】,定州市东留春乡北邵村村集体股份合作社变压器,北邵村公用农业1台区【纯农排变】,圣佛头公用照明10台区,邵村猪场,邵村沙河,北邵村公用农业5台区【纯农排变】,吕家庄公用照明5台区,定州市东留春乡邵村村民委员会,邵村村南2,西留春公用照明6台区,西留春村公用农业12台区【纯农排变】,西留春公用照明7台区,吕家庄公用农业2台区【纯农排变】,圣佛头公用照明8台区,邵村村东,西留春公用照明12台区,圣佛头公用农业21台区【纯农排变】,东留春公用农业6台区【纯农排变】,邵村公路东,东留春公用农业12台区【纯农排变】,圣佛头公用农业7台区【纯农排变】,东留春村公用照明3台区,定州市东留春乡邵村村民委员会村西,邵村村西,西留春村公用农业3台区【纯农排变】,圣佛头公用农业8台区【纯农排变】,圣佛头公用农业14台区【纯农排变】,吕家庄公用照明11台区,吕家庄公用农业10台区【纯农排变】,西留春村公用农业11台区【纯农排变】,0681852426-定州市大地纺织配件有限公司-专变-220701775-定州市大地纺织配件有限公司变压器,圣佛头村公用照明2台区,圣佛头公用照明5台区,定州市邵村富鑫养猪场变压器,北邵村公用照明2台区,圣佛头村公用照明3台区,西留春村公用农业10台区【纯农","poweroffReason":"【停电原因】由于邵村方田配变Ｃ相跌落保险烧毁导致３５ＫＶ刘良庄变电站１０ＫＶ５１６留春线路全线停电 【变更送电】因抢修进度加快原因，送电时间由２０：００变更为１４：００ 【发布渠道】９５５９８","powerTime":"2019-08-05 13:40:21","powerComm":"已送电","subsNo":"","lineNo":"","tgNo":"","tgName":null,"infoStatus":"1","orgName":"国网定州市供电公司","typeName":null,"infoStatusName":null,"dateDay":null,"orgNos":null,"nowTime":null,"countyName":null,"streetName":null,"villageName":null,"roadName":null,"communityName":null,"tranName":null,"sdLineName":null,"cityCode":"1340610","cityName":"国网定州市供电公司","provinceCode":null,"stopTime":"2019-08-05 14:00:00","powerType":"全部","powerOffArea":"【全线路停电】停邵村公用照明3台区,邵村公用照明2台区,邵村公用照明5台区,邵村公用照明9台区,邵村公用照明10台区,邵村公用照明6台区,邵村公用照明1台区,邵村公用照明4台区,吕家庄公用农业7台区【纯农排变】,西留春村公用农业9台区【纯农排变】,吕家庄公用农业4台区【纯农排变】,定州市宇能建材有限公司变压器,西留春村公用农业2台区【纯农排变】,吕家庄公用农业11台区【纯农排变】,东留春公用农业17台区【纯农排变】,西留春公用照明9台区,吕家庄公用农业14台区【纯农排变】,东留春公用照明8台区,中国移动通信集团河北有限公司定州分公司变压器,西留春庄面粉厂,东留春公用农业10台区【纯农排变】,邵村沙河东,圣佛头公用农业6台区【纯农排变】,东留春公用照明12台区,圣佛头公用农业18台区【纯农排变】,圣佛头公用照明7台区,东留春村公用照明1台区,西留春纺织配件厂,圣佛头公用农业1台区【纯农排变】,邵村方田,0677300090-定州市东留春乡北邵村社区村民委员会-专变-230658542-定州市东留春乡北邵村社区村民委员会变压器,圣佛头公用农业10台区【纯农排变】,定州市永其养殖场,圣佛头公用农业12台区【纯农排变】,吕家庄村公用照明3台区,圣佛头公用照明4台区,东留春公用照明13台区,东留春公用农业7台区【纯农排变】,吕家庄公用农业12台区【纯农排变】,东留春公用照明11台区,西留春公用照明5台区,东留春公用照明6台区,吕家庄公用照明7台区,圣佛头公用照明6台区,东留春公用农业8台区【纯农排变】,东留春公用照明10台区,吕家庄公用照明4台区,西留春村公用农业4台区【纯农排变】,东留春公用农业15台区【纯农排变】,西留春村公用照明13台区,西留春村公用农业13台区【纯农排变】,东留春公用农业1台区【纯农排变】,邵村村西边,定州市万沣面粉厂变压器,圣佛头公用照明9台区,邵村堤上河北,东留春公用农业4台区【纯农排变】,东留春内北,邵村堤上河西,邵村堤上河东,西留春村公用农业8台区【纯农排变】,邵村公路中,东留春邮局,定州市万沣面粉有限公司变压器,邵村西北,北邵村公用照明3台区,邵村堤上河西北,邵村堤上河东北,吕家庄公用农业17台区【纯农排变】,东留春公用农业3台区【纯农排变】,圣佛头公用农业13台区【纯农排变】,定州市东留春乡北邵村村集体股份合作社变压器,北邵村公用农业1台区【纯农排变】,圣佛头公用照明10台区,邵村猪场,邵村沙河,北邵村公用农业5台区【纯农排变】,吕家庄公用照明5台区,定州市东留春乡邵村村民委员会,邵村村南2,西留春公用照明6台区,西留春村公用农业12台区【纯农排变】,西留春公用照明7台区,吕家庄公用农业2台区【纯农排变】,圣佛头公用照明8台区,邵村村东,西留春公用照明12台区,圣佛头公用农业21台区【纯农排变】,东留春公用农业6台区【纯农排变】,邵村公路东,东留春公用农业12台区【纯农排变】,圣佛头公用农业7台区【纯农排变】,东留春村公用照明3台区,定州市东留春乡邵村村民委员会村西,邵村村西,西留春村公用农业3台区【纯农排变】,圣佛头公用农业8台区【纯农排变】,圣佛头公用农业14台区【纯农排变】,吕家庄公用照明11台区,吕家庄公用农业10台区【纯农排变】,西留春村公用农业11台区【纯农排变】,0681852426-定州市大地纺织配件有限公司-专变-220701775-定州市大地纺织配件有限公司变压器,圣佛头村公用照明2台区,圣佛头公用照明5台区,定州市邵村富鑫养猪场变压器,北邵村公用照明2台区,圣佛头村公用照明3台区,西留春村公用农业10台区【纯农","powerOffReason":"【停电原因】由于邵村方田配变Ｃ相跌落保险烧毁导致３５ＫＶ刘良庄变电站１０ＫＶ５１６留春线路全线停电 【变更送电】因抢修进度加快原因，送电时间由２０：００变更为１４：００ 【发布渠道】９５５９８","powerOffId":"2019080513000092"},{"poweroffId":2019080513000079,"sgpoweroffId":null,"subsName":"","lineName":"郭村线513","pubTranName":"郭中村混5,庄里混4,郭东村混合5号,招庄农2【纯农排变】,庄里学校,庄里村东混合7号,郭西村西南3号【纯农排变】,郭东村保阜路北【纯农排变】,三堤农3配变【纯农排变】,招庄混合5号配变,长江奶牛养殖小区2号,郭西村混合1,郭东村农5【纯农排变】,郭东村农13【纯农排变】,郭东村农4【纯农排变】,郭西村农9【纯农排变】,郭中村幼儿园配变,郭西村农1号【纯农排变】,郭西村西北4号配变【纯农排变】,望都县富达谷物专业合作社,庄里农业16号【纯农排变】,庄里西北混合6号,郭东村混合3,郭西村村北农业8号配变【纯农排变】,招庄农1【纯农排变】,庄里农2【纯农排变】,庄里农业13号【纯农排变】,郭西村南中农【纯农排变】,郭西村村西混4,郭中村四方【纯农排变】,庄里村北混合11号配变,郭东村混合1,招庄混合配变,庄里村混合9号配变,郭东村内东北混4,招庄农4【纯农排变】,庄里混2,望都县淑惠塑料制品销售处,庄里农7【纯农排变】,庄里村东混合10号配变,三堤玻璃房农业13号【纯农排变】,招庄南东配变【纯农排变】,庄里农6【纯农排变】,河北省望都皮肤病防治院,郭村卫生院配变,郭东村农业14号【纯农排变】,郭中村农9【纯农排变】,庄里东南混合5号,庄里东北9号【纯农排变】,郭东村农10【纯农排变】,三堤郭村桥农17【纯农排变】,郭中村南农【纯农排变】,庄里农1【纯农排变】,庄里农业10号【纯农排变】,招庄幼儿园配变,招庄村南农13配变【纯农排变】,招庄农3配变【纯农排变】,郭西村农5号【纯农排变】,郭西村农业7号【纯农排变】,郭中村混合,三堤农1【纯农排变】,郭中村混合2,招庄混3配变,保定佳牧生物科技有限公司,庄里农业12号【纯农排变】,郭中村二方【纯农排变】,郭东村农6【纯农排变】,郭东村农1【纯农排变】,招庄农12配变【纯农排变】,郭东村农8【纯农排变】,西后营农5配变【纯农排变】,招庄农业10号【纯农排变】,郭西村混合2,三堤村西北混4,郭西村农业4号【纯农排变】,庄里农业11号【纯农排变】,庄里村内混合8号配变,郭东村农9【纯农排变】,郭中村混合3,郭东村农业7【纯农排变】,郭东村农2【纯农排变】,三堤村招庄道农12新上配变【纯农排变】,三堤农9配变【纯农排变】,招庄南中【纯农排变】,郭中村道西【纯农排变】,庄里农业14号【纯农排变】,招庄农11配变【纯农排变】,郭西村内东混3配变,西后营农6配变【纯农排变】,招庄农5配变【纯农排变】,郭中村新上【纯农排变】,郭村小学,郭村混合,庄里农5【纯农排变】,郭东村农业11号【纯农排变】,招庄北农9【纯农排变】,郭中村药田【纯农排变】,庄里农业15号【纯农排变】,三堤西北农16配变【纯农排变】,招庄村西南配变【纯农排变】,招庄混2,庄里混1,庄里农3【纯农排变】,三堤西北五叉口农18【纯农排变】,郭东村混合2,郭西村农2号【纯农排变】,郭东村农3【纯农排变】,庄里村东8号【纯农排变】,招庄南北配变【纯农排变】,庄里混3,郭中村东北【纯农排变】,三堤农6【纯农排变】,庄里农4【纯农排变】,苏家坟道21号【纯农排变】,西后营东北农【纯农排变】,郭中村混合4号,","scope":"【影响街道/乡镇】寺庄乡　 【高危重要客户】无　　 【影响客户】郭西村、郭中村、郭东村、招庄、庄里、三堤村部分农业、西后营部分农业、长江奶牛养殖小区、中源面粉厂、皮肤病院、望都县淑惠塑料制品销售处、富达谷物专业合作社、庄里学校、郭村小学、保定佳牧生物科技有限公司","startTime":"2019-08-05 09:02:23","stopDate":"2019-08-05 12:00:00","orgNo":"1340623","typeCode":"电网故障停限电","poweroffArea":"【全线路停电】停郭东村农6【纯农排变】,招庄村西南配变【纯农排变】,庄里村东混合7号,郭西村西南3号【纯农排变】,郭东村保阜路北【纯农排变】,三堤农3配变【纯农排变】,招庄混合5号配变,长江奶牛养殖小区2号,郭西村农业4号【纯农排变】,庄里农业11号【纯农排变】,庄里农业14号【纯农排变】,郭西村农2号【纯农排变】,郭中村二方【纯农排变】,郭东村农1【纯农排变】,招庄农12配变【纯农排变】,郭东村农10【纯农排变】,郭东村农8【纯农排变】,西后营农5配变【纯农排变】,招庄农业10号【纯农排变】,郭西村混合2,三堤村西北混4,庄里村内混合8号配变,郭东村农9【纯农排变】,三堤西北五叉口农18【纯农排变】,郭村混合,庄里农5【纯农排变】,郭东村农业11号【纯农排变】,招庄北农9【纯农排变】,郭中村药田【纯农排变】,庄里农业15号【纯农排变】,三堤西北农16配变【纯农排变】,招庄混2,庄里混1,庄里农7【纯农排变】,庄里村东混合10号配变,招庄南东配变【纯农排变】,庄里农6【纯农排变】,河北省望都皮肤病防治院,郭村卫生院配变,郭东村农业14号【纯农排变】,郭中村农9【纯农排变】,庄里东南混合5号,庄里东北9号【纯农排变】,三堤郭村桥农17【纯农排变】,郭中村南农【纯农排变】,庄里农1【纯农排变】,庄里农业10号【纯农排变】,招庄幼儿园配变,招庄村南农13配变【纯农排变】,招庄农3配变【纯农排变】,郭西村农5号【纯农排变】,郭西村农业7号【纯农排变】,郭中村混合,三堤农1【纯农排变】,郭中村混合2,招庄混3配变,保定佳牧生物科技有限公司,庄里农业12号【纯农排变】,郭东村农3【纯农排变】,庄里农4【纯农排变】,苏家坟道21号【纯农排变】,西后营东北农【纯农排变】,郭中村混合4号,庄里农业16号【纯农排变】,庄里西北混合6号,招庄农1【纯农排变】,郭中村混5,庄里混4,郭东村混合5号,郭东村混合2,郭中村混合3,郭东村农业7【纯农排变】,郭东村农2【纯农排变】,招庄农5配变【纯农排变】,郭中村新上【纯农排变】,郭村小学,招庄农2【纯农排变】,庄里学校,郭西村农9【纯农排变】,郭中村幼儿园配变,郭西村农1号【纯农排变】,郭西村西北4号配变【纯农排变】,望都县富达谷物专业合作社,庄里农2【纯农排变】,庄里农业13号【纯农排变】,郭西村南中农【纯农排变】,郭西村村西混4,郭中村四方【纯农排变】,庄里村北混合11号配变,郭东村混合1,三堤玻璃房农业13号【纯农排变】,招庄混合配变,庄里村混合9号配变,庄里村东8号【纯农排变】,招庄南北配变【纯农排变】,庄里混3,郭中村东北【纯农排变】,三堤农6【纯农排变】,郭东村混合3,郭西村村北农业8号配变【纯农排变】,三堤村招庄道农12新上配变【纯农排变】,三堤农9配变【纯农排变】,招庄南中【纯农排变】,郭中村道西【纯农排变】,庄里农3【纯农排变】,郭东村农4【纯农排变】,招庄农11配变【纯农排变】,郭西村内东混3配变,西后营农6配变【纯农排变】,郭西村混合1,郭东村农5【纯农排变】,郭东村农13【纯农排变】,郭东村内东北混4,招庄农4【纯农排变】,庄里混2,望都县淑惠塑料制品销售处","poweroffReason":"【停电原因】由于Ｃ相接地导致３５ＫＶ白岳变电站郭村线５１３线路全线停电 【变更送电】因抢修进度加快原因，送电时间由２２：００变更为１２：００ 【发布渠道】通过９５５９８发布","powerTime":"2019-08-05 11:19:43","powerComm":"已送电","subsNo":"","lineNo":"","tgNo":"","tgName":null,"infoStatus":"1","orgName":"国网望都县供电公司","typeName":null,"infoStatusName":null,"dateDay":null,"orgNos":null,"nowTime":null,"countyName":null,"streetName":null,"villageName":null,"roadName":null,"communityName":null,"tranName":null,"sdLineName":null,"cityCode":"1340623","cityName":"国网望都县供电公司","provinceCode":null,"stopTime":"2019-08-05 12:00:00","powerType":"全部","powerOffArea":"【全线路停电】停郭东村农6【纯农排变】,招庄村西南配变【纯农排变】,庄里村东混合7号,郭西村西南3号【纯农排变】,郭东村保阜路北【纯农排变】,三堤农3配变【纯农排变】,招庄混合5号配变,长江奶牛养殖小区2号,郭西村农业4号【纯农排变】,庄里农业11号【纯农排变】,庄里农业14号【纯农排变】,郭西村农2号【纯农排变】,郭中村二方【纯农排变】,郭东村农1【纯农排变】,招庄农12配变【纯农排变】,郭东村农10【纯农排变】,郭东村农8【纯农排变】,西后营农5配变【纯农排变】,招庄农业10号【纯农排变】,郭西村混合2,三堤村西北混4,庄里村内混合8号配变,郭东村农9【纯农排变】,三堤西北五叉口农18【纯农排变】,郭村混合,庄里农5【纯农排变】,郭东村农业11号【纯农排变】,招庄北农9【纯农排变】,郭中村药田【纯农排变】,庄里农业15号【纯农排变】,三堤西北农16配变【纯农排变】,招庄混2,庄里混1,庄里农7【纯农排变】,庄里村东混合10号配变,招庄南东配变【纯农排变】,庄里农6【纯农排变】,河北省望都皮肤病防治院,郭村卫生院配变,郭东村农业14号【纯农排变】,郭中村农9【纯农排变】,庄里东南混合5号,庄里东北9号【纯农排变】,三堤郭村桥农17【纯农排变】,郭中村南农【纯农排变】,庄里农1【纯农排变】,庄里农业10号【纯农排变】,招庄幼儿园配变,招庄村南农13配变【纯农排变】,招庄农3配变【纯农排变】,郭西村农5号【纯农排变】,郭西村农业7号【纯农排变】,郭中村混合,三堤农1【纯农排变】,郭中村混合2,招庄混3配变,保定佳牧生物科技有限公司,庄里农业12号【纯农排变】,郭东村农3【纯农排变】,庄里农4【纯农排变】,苏家坟道21号【纯农排变】,西后营东北农【纯农排变】,郭中村混合4号,庄里农业16号【纯农排变】,庄里西北混合6号,招庄农1【纯农排变】,郭中村混5,庄里混4,郭东村混合5号,郭东村混合2,郭中村混合3,郭东村农业7【纯农排变】,郭东村农2【纯农排变】,招庄农5配变【纯农排变】,郭中村新上【纯农排变】,郭村小学,招庄农2【纯农排变】,庄里学校,郭西村农9【纯农排变】,郭中村幼儿园配变,郭西村农1号【纯农排变】,郭西村西北4号配变【纯农排变】,望都县富达谷物专业合作社,庄里农2【纯农排变】,庄里农业13号【纯农排变】,郭西村南中农【纯农排变】,郭西村村西混4,郭中村四方【纯农排变】,庄里村北混合11号配变,郭东村混合1,三堤玻璃房农业13号【纯农排变】,招庄混合配变,庄里村混合9号配变,庄里村东8号【纯农排变】,招庄南北配变【纯农排变】,庄里混3,郭中村东北【纯农排变】,三堤农6【纯农排变】,郭东村混合3,郭西村村北农业8号配变【纯农排变】,三堤村招庄道农12新上配变【纯农排变】,三堤农9配变【纯农排变】,招庄南中【纯农排变】,郭中村道西【纯农排变】,庄里农3【纯农排变】,郭东村农4【纯农排变】,招庄农11配变【纯农排变】,郭西村内东混3配变,西后营农6配变【纯农排变】,郭西村混合1,郭东村农5【纯农排变】,郭东村农13【纯农排变】,郭东村内东北混4,招庄农4【纯农排变】,庄里混2,望都县淑惠塑料制品销售处","powerOffReason":"【停电原因】由于Ｃ相接地导致３５ＫＶ白岳变电站郭村线５１３线路全线停电 【变更送电】因抢修进度加快原因，送电时间由２２：００变更为１２：００ 【发布渠道】通过９５５９８发布","powerOffId":"2019080513000079"},{"poweroffId":2019080513000066,"sgpoweroffId":null,"subsName":"","lineName":"10KV南三店555","pubTranName":"三合屯1108,","scope":"【影响街道/乡镇】高官庄镇 【高危重要客户】无 【影响客户】三合屯","startTime":"2019-08-07 06:00:00","stopDate":"2019-08-07 08:00:00","orgNo":"1340626","typeCode":"临时停电","poweroffArea":"【单台区停电】停三合屯1108","poweroffReason":"【停电原因】由于线路切改导致１１０ＫＶ松林店变电站１０ＫＶ南三店５５５线路三合屯１１０８公变台区停电 【变更送电】无 【发布渠道】通过９５５９８发布","powerTime":"2019-08-07 07:50:42","powerComm":"恢复送电","subsNo":"","lineNo":"","tgNo":"","tgName":null,"infoStatus":"1","orgName":"国网涿州市供电公司","typeName":null,"infoStatusName":null,"dateDay":null,"orgNos":null,"nowTime":null,"countyName":null,"streetName":null,"villageName":null,"roadName":null,"communityName":null,"tranName":null,"sdLineName":null,"cityCode":"1340626","cityName":"国网涿州市供电公司","provinceCode":null,"stopTime":"2019-08-07 08:00:00","powerType":"全部","powerOffArea":"【单台区停电】停三合屯1108","powerOffReason":"【停电原因】由于线路切改导致１１０ＫＶ松林店变电站１０ＫＶ南三店５５５线路三合屯１１０８公变台区停电 【变更送电】无 【发布渠道】通过９５５９８发布","powerOffId":"2019080513000066"},{"poweroffId":2019080513000063,"sgpoweroffId":null,"subsName":"","lineName":"兵营线517","pubTranName":"大营房配变【纯农排变】,河北恒志房地产开发有限公司望都分公司(凯旋城3),河北恒志房地产开发有限公司望都分公司(凯旋城2),韩庄村北100【纯农排变】,小苏疃农2配变【纯农排变】,小西提村西农用【纯农排变】,望都县如家养老院,韩庄村东农6【纯农排变】,保定汉华新能源科技有限公司,变压器,韩庄农业2号【纯农排变】,严国峰鞋厂,河北恒志房地产开发有限公司望都分公司(凯旋城1),韩庄村东混合8号,韩庄混4,小苏疃村东农4配变【纯农排变】,望都县小西堤村三丰鞋厂,河北恒志房地产开发有限公司望都分公司(凯旋城4),","scope":"【影响街道/乡镇】望都镇 【高危重要客户】无 【影响客户】韩庄村、大营房、小西堤村部分农业、小苏疃部分农业、保定汉华新能源科技公司、河北恒志房地产公司(凯旋城)、兴达冷冻厂、严国峰鞋厂、永生电瓷电器、望都县奥龙装饰板厂、望都县小西堤村三丰鞋厂、望都县如家养老院","startTime":"2019-08-05 08:35:55","stopDate":"2019-08-05 12:00:00","orgNo":"1340623","typeCode":"电网故障停限电","poweroffArea":"【全线路停电】停韩庄混4,小苏疃村东农4配变【纯农排变】,望都县小西堤村三丰鞋厂,河北恒志房地产开发有限公司望都分公司(凯旋城4),大营房配变【纯农排变】,河北恒志房地产开发有限公司望都分公司(凯旋城3),河北恒志房地产开发有限公司望都分公司(凯旋城2),韩庄村北100【纯农排变】,小苏疃农2配变【纯农排变】,小西提村西农用【纯农排变】,望都县如家养老院,韩庄村东农6【纯农排变】,保定汉华新能源科技有限公司,变压器,韩庄农业2号【纯农排变】,严国峰鞋厂,河北恒志房地产开发有限公司望都分公司(凯旋城1),韩庄村东混合8号","poweroffReason":"【停电原因】由于站内开关跳闸导致３５ＫＶ白岳变电站兵营线５１７线路全线停电 【变更送电】因抢修进度加快原因，送电时间由２２：００变更为１２：００ 【发布渠道】通过９５５９８发布","powerTime":"2019-08-05 11:30:11","powerComm":"已送电","subsNo":"","lineNo":"","tgNo":"","tgName":null,"infoStatus":"1","orgName":"国网望都县供电公司","typeName":null,"infoStatusName":null,"dateDay":null,"orgNos":null,"nowTime":null,"countyName":null,"streetName":null,"villageName":null,"roadName":null,"communityName":null,"tranName":null,"sdLineName":null,"cityCode":"1340623","cityName":"国网望都县供电公司","provinceCode":null,"stopTime":"2019-08-05 12:00:00","powerType":"全部","powerOffArea":"【全线路停电】停韩庄混4,小苏疃村东农4配变【纯农排变】,望都县小西堤村三丰鞋厂,河北恒志房地产开发有限公司望都分公司(凯旋城4),大营房配变【纯农排变】,河北恒志房地产开发有限公司望都分公司(凯旋城3),河北恒志房地产开发有限公司望都分公司(凯旋城2),韩庄村北100【纯农排变】,小苏疃农2配变【纯农排变】,小西提村西农用【纯农排变】,望都县如家养老院,韩庄村东农6【纯农排变】,保定汉华新能源科技有限公司,变压器,韩庄农业2号【纯农排变】,严国峰鞋厂,河北恒志房地产开发有限公司望都分公司(凯旋城1),韩庄村东混合8号","powerOffReason":"【停电原因】由于站内开关跳闸导致３５ＫＶ白岳变电站兵营线５１７线路全线停电 【变更送电】因抢修进度加快原因，送电时间由２２：００变更为１２：００ 【发布渠道】通过９５５９８发布","powerOffId":"2019080513000063"},{"poweroffId":2019080513000060,"sgpoweroffId":null,"subsName":"","lineName":"大龙华线517","pubTranName":"鹁鸽岩村1#|村北,河北村3#村南,小寨村2#|村中,大龙华6#村北,刘家沟村8#村南,大龙华村1#|村南,尧舜口村4#村东,野里店村1#|村西,杨格庄村3#村北,刘家沟村1#|村南,酸枣沟村1#|村北,刘家沟村6#村中,大龙华5#,赵家沟村2#|村中,大南头村1#|村南,龙堂村1#|村北,赵家沟村1#|村南,河北村1#|村东,酸枣沟村3#村东,小龙华村4#,马兰台村1#|村中,马兰台村4#村中,小龙华村1#|村东,马兰台村3#村南,赵家沟村5#,刘家沟村9#,东三里铺2#,大南头村2#村东,小龙华村2#|村西,马兰台村2#村南,鹁鸽岩村4#村东,小龙华村3#,赵家沟村4#|村北,杨格庄村2#|村北,大龙华村8#,龙塘村2#村东,尧舜口村1#|村中,东三里铺3#,鹁鸽岩村2#|村中,东三里铺村1#|村中,杨格庄村1#|村中,大龙华村3#|村东,尧舜口村5#村南,酸枣沟村2#|村南,小寨村3#|村西,赵家沟村3#|村中,大龙华村4#|村东,刘家沟村7#村北,尧舜口村3#|村东,龙华乡政府,刘家沟村2#|村中,东三里铺村5#村南,小寨村4#村南,河北村2#|村西,刘家沟村5#村南,刘家沟村4#|村北,大龙华村2#|村北,华侨陵园,小南头村1#|村东,小寨村1#|村南,鹁鸽岩村3#|村南,","scope":"【影响街道/乡镇】大龙华乡【高危重要客户】无【影响客户】大龙华村、小龙华村、酸枣沟村、小寨村、野里店村、马兰台村、东三里铺村、赵家沟村、刘家沟村、大南头村、尧舜口村、河北村、杨各庄村、龙塘村、鹁鸪岩村、小南头村","startTime":"2019-08-05 08:33:28","stopDate":"2019-08-05 13:00:00","orgNo":"1340625","typeCode":"电网故障停限电","poweroffArea":"【全线路停电】停大龙华村2#|村北,大南头村2#村东,大龙华5#,大龙华6#村北,尧舜口村1#|村中,东三里铺村1#|村中,刘家沟村6#村中,马兰台村4#村中,东三里铺村5#村南,小寨村2#|村中,大龙华村4#|村东,河北村2#|村西,小龙华村2#|村西,龙堂村1#|村北,马兰台村3#村南,鹁鸽岩村2#|村中,野里店村1#|村西,刘家沟村5#村南,刘家沟村9#,小龙华村1#|村东,杨格庄村3#村北,龙华乡政府,小寨村1#|村南,小南头村1#|村东,小寨村4#村南,龙塘村2#村东,鹁鸽岩村3#|村南,大龙华村8#,杨格庄村2#|村北,马兰台村2#村南,华侨陵园,小龙华村3#,马兰台村1#|村中,刘家沟村4#|村北,河北村3#村南,刘家沟村8#村南,尧舜口村5#村南,杨格庄村1#|村中,赵家沟村3#|村中,尧舜口村4#村东,小寨村3#|村西,东三里铺3#,鹁鸽岩村1#|村北,大龙华村3#|村东,赵家沟村4#|村北,刘家沟村2#|村中,大龙华村1#|村南,酸枣沟村1#|村北,酸枣沟村3#村东,刘家沟村1#|村南,大南头村1#|村南,鹁鸽岩村4#村东,尧舜口村3#|村东,赵家沟村1#|村南,赵家沟村2#|村中,酸枣沟村2#|村南,赵家沟村5#,河北村1#|村东,东三里铺2#,小龙华村4#,刘家沟村7#村北","poweroffReason":"【停电原因】由于线路接地导致１１０ＫＶ西陵变电站大龙华５１７线路全线停电【变更送电】因抢修进度加快原因，送电时间由１４:００变更为１３:００【发布渠道】通过９５５９８发布","powerTime":"2019-08-05 12:37:53","powerComm":"已送电","subsNo":"","lineNo":"","tgNo":"","tgName":null,"infoStatus":"1","orgName":"国网易县供电公司","typeName":null,"infoStatusName":null,"dateDay":null,"orgNos":null,"nowTime":null,"countyName":null,"streetName":null,"villageName":null,"roadName":null,"communityName":null,"tranName":null,"sdLineName":null,"cityCode":"1340625","cityName":"国网易县供电公司","provinceCode":null,"stopTime":"2019-08-05 13:00:00","powerType":"全部","powerOffArea":"【全线路停电】停大龙华村2#|村北,大南头村2#村东,大龙华5#,大龙华6#村北,尧舜口村1#|村中,东三里铺村1#|村中,刘家沟村6#村中,马兰台村4#村中,东三里铺村5#村南,小寨村2#|村中,大龙华村4#|村东,河北村2#|村西,小龙华村2#|村西,龙堂村1#|村北,马兰台村3#村南,鹁鸽岩村2#|村中,野里店村1#|村西,刘家沟村5#村南,刘家沟村9#,小龙华村1#|村东,杨格庄村3#村北,龙华乡政府,小寨村1#|村南,小南头村1#|村东,小寨村4#村南,龙塘村2#村东,鹁鸽岩村3#|村南,大龙华村8#,杨格庄村2#|村北,马兰台村2#村南,华侨陵园,小龙华村3#,马兰台村1#|村中,刘家沟村4#|村北,河北村3#村南,刘家沟村8#村南,尧舜口村5#村南,杨格庄村1#|村中,赵家沟村3#|村中,尧舜口村4#村东,小寨村3#|村西,东三里铺3#,鹁鸽岩村1#|村北,大龙华村3#|村东,赵家沟村4#|村北,刘家沟村2#|村中,大龙华村1#|村南,酸枣沟村1#|村北,酸枣沟村3#村东,刘家沟村1#|村南,大南头村1#|村南,鹁鸽岩村4#村东,尧舜口村3#|村东,赵家沟村1#|村南,赵家沟村2#|村中,酸枣沟村2#|村南,赵家沟村5#,河北村1#|村东,东三里铺2#,小龙华村4#,刘家沟村7#村北","powerOffReason":"【停电原因】由于线路接地导致１１０ＫＶ西陵变电站大龙华５１７线路全线停电【变更送电】因抢修进度加快原因，送电时间由１４:００变更为１３:００【发布渠道】通过９５５９８发布","powerOffId":"2019080513000060"},{"poweroffId":2019080513000042,"sgpoweroffId":null,"subsName":"","lineName":"周庄线524","pubTranName":"小辛庄村东混合,西任疃西农【纯农排变】,南李各庄西农2【纯农排变】,大辛庄东农业【纯农排变】,大辛庄内西混合2号,西任疃西南2号农【纯农排变】,东任町村混,南李各庄西农【纯农排变】,付庄村内北混合,东任疃内东,大辛庄村南农3【纯农排变】,付庄光伏配变,小辛庄村西2号农【纯农排变】,0676426382-望都鑫源有色金属压铸件厂-专变-216211904-望都鑫源有色金属压铸件厂,大辛庄南农4号【纯农排变】,付庄村内东混合,东任町西北混,小辛庄西北3号,吉祥养殖厂,大辛庄北混,付庄西混,东任疃东农4号【纯农排变】,周庄乡直南混,西任町大队混合,大辛庄内东混,姜庄村西农【纯农排变】,东任町果园农【纯农排变】,西任疃东北混,周庄光伏配变,小辛庄村东北农业【纯农排变】,东任疃南混2号配变,东任町东农【纯农排变】,望都县华通塑料制品厂,小辛庄村西混合,玉川塑料加工厂,东任町内西混,周庄医院2号配变,亚宇鞋厂,小辛庄村北2号新上【纯农排变】,西任町村西北农【纯农排变】,红枫鞋厂,西任町窑西农业【纯农排变】,望都县众合乾福鞋厂,周庄学校配变,东任町东2号农【纯农排变】,东任町内北混,西任疃西北混配变,望都县京叶鞋厂,西任町外西混合,大辛庄村南2号农【纯农排变】,小辛庄养殖基地,西任疃西南混,东升塑料厂,东任町村东南农【纯农排变】,东任町东北农【纯农排变】,平顺建筑材料厂,姜庄村西北农【纯农排变】,大辛庄东南混配变,小辛庄内东2号,西任疃北农【纯农排变】,大辛庄村农业,大辛庄内西混,东任疃南农【纯农排变】,西任疃砖厂,小辛庄村西农【纯农排变】,小辛庄村北农业【纯农排变】,西任疃村北,西任疃塑编厂,大辛庄南混,西任疃幼儿园配变,王新国桶厂,姜庄西农2号【纯农排变】,周庄乡直北,周庄村北农【纯农排变】,东任町北农【纯农排变】,望都县德塑宝塑料制品有限公司,西任町村西混合,付庄村内东2号配变,西任町村西农业【纯农排变】,恒通橡塑料制品厂,东任疃南农2号【纯农排变】,曾涛加工厂,新兴养殖小区,大辛庄东南农【纯农排变】,小辛庄村农业【纯农排变】,付庄北农2号【纯农排变】,东任町村内混,西任町村南农业【纯农排变】,付庄村北农业【纯农排变】,小辛庄东北2【纯农排变】,周庄医院,西任町村内混合,周庄路边混,周庄村头北【纯农排变】,东任疃东农3号【纯农排变】,西任疃西南农【纯农排变】,","scope":"【影响街道/乡镇】赵庄乡、寺庄乡 【高危重要客户】无　　 【影响客户】东任町、周庄乡直南、周庄乡直北、西任町、小辛庄、付庄村、南李各庄部分农业、姜庄村部分农业、大辛庄、万涛鞋厂、华通塑料制品、玉川塑料加工、西任疃村北、京叶鞋厂、小辛庄养殖、东升塑料、曾涛加工、吉祥养殖厂、亚宇鞋厂、望都鑫源有色金属压铸件厂、红枫鞋厂（联想钢厂）、德塑宝塑料制品有限公司、新兴养殖小区（美杰洗衣店）、平顺建筑材料厂、周庄医院、周庄学校、西任疃砖厂、西任疃塑编厂、立久塑料加工厂、丰盛织布厂、王新国桶厂","startTime":"2019-08-05 07:10:39","stopDate":"2019-08-05 09:00:00","orgNo":"1340623","typeCode":"电网故障停限电","poweroffArea":"【全线路停电】停吉祥养殖厂,小辛庄西北3号,大辛庄北混,付庄西混,东任疃东农4号【纯农排变】,东任疃东农3号【纯农排变】,西任疃西南农【纯农排变】,周庄光伏配变,小辛庄村东北农业【纯农排变】,东任疃南混2号配变,东任町东农【纯农排变】,望都县华通塑料制品厂,小辛庄村西混合,玉川塑料加工厂,东任町内西混,周庄医院2号配变,亚宇鞋厂,小辛庄村北2号新上【纯农排变】,西任町村西北农【纯农排变】,红枫鞋厂,西任町窑西农业【纯农排变】,望都县众合乾福鞋厂,周庄学校配变,东任町东2号农【纯农排变】,西任疃西北混配变,小辛庄内东2号,西任疃北农【纯农排变】,大辛庄村农业,大辛庄内西混,东任疃南农【纯农排变】,西任疃砖厂,小辛庄村西农【纯农排变】,小辛庄村北农业【纯农排变】,西任疃村北,西任疃塑编厂,大辛庄南混,望都县京叶鞋厂,西任町外西混合,大辛庄村南2号农【纯农排变】,小辛庄养殖基地,西任疃西南混,东升塑料厂,东任町北农【纯农排变】,望都县德塑宝塑料制品有限公司,西任町村西混合,付庄村内东2号配变,西任町村西农业【纯农排变】,恒通橡塑料制品厂,东任疃南农2号【纯农排变】,曾涛加工厂,新兴养殖小区,东任町村东南农【纯农排变】,东任町东北农【纯农排变】,平顺建筑材料厂,姜庄村西北农【纯农排变】,大辛庄东南混配变,大辛庄东南农【纯农排变】,小辛庄村农业【纯农排变】,付庄北农2号【纯农排变】,东任町村内混,付庄村北农业【纯农排变】,小辛庄东北2【纯农排变】,西任疃西农【纯农排变】,南李各庄西农2【纯农排变】,大辛庄东农业【纯农排变】,大辛庄内西混合2号,西任疃西南2号农【纯农排变】,东任町内北混,姜庄村西农【纯农排变】,东任町果园农【纯农排变】,西任疃东北混,西任町村南农业【纯农排变】,周庄医院,西任町村内混合,周庄村头北【纯农排变】,东任町西北混,东任町村混,周庄乡直南混,西任町大队混合,大辛庄内东混,西任疃幼儿园配变,王新国桶厂,姜庄西农2号【纯农排变】,周庄乡直北,周庄村北农【纯农排变】,周庄路边混,南李各庄西农【纯农排变】,付庄村内北混合,东任疃内东,大辛庄村南农3【纯农排变】,付庄光伏配变,小辛庄村西2号农【纯农排变】,0676426382-望都鑫源有色金属压铸件厂-专变-216211904-望都鑫源有色金属压铸件厂,大辛庄南农4号【纯农排变】,付庄村内东混合,小辛庄村东混合","poweroffReason":"【停电原因】由于站内开关跳闸导致１１０ＫＶ八里庄变电站周庄线５２４线路全线停电 【变更送电】因抢修进度加快原因，送电时间由２２：００变更为０９：００ 【发布渠道】通过９５５９８发布","powerTime":"2019-08-05 08:18:29","powerComm":"已送电","subsNo":"","lineNo":"","tgNo":"","tgName":null,"infoStatus":"1","orgName":"国网望都县供电公司","typeName":null,"infoStatusName":null,"dateDay":null,"orgNos":null,"nowTime":null,"countyName":null,"streetName":null,"villageName":null,"roadName":null,"communityName":null,"tranName":null,"sdLineName":null,"cityCode":"1340623","cityName":"国网望都县供电公司","provinceCode":null,"stopTime":"2019-08-05 09:00:00","powerType":"全部","powerOffArea":"【全线路停电】停吉祥养殖厂,小辛庄西北3号,大辛庄北混,付庄西混,东任疃东农4号【纯农排变】,东任疃东农3号【纯农排变】,西任疃西南农【纯农排变】,周庄光伏配变,小辛庄村东北农业【纯农排变】,东任疃南混2号配变,东任町东农【纯农排变】,望都县华通塑料制品厂,小辛庄村西混合,玉川塑料加工厂,东任町内西混,周庄医院2号配变,亚宇鞋厂,小辛庄村北2号新上【纯农排变】,西任町村西北农【纯农排变】,红枫鞋厂,西任町窑西农业【纯农排变】,望都县众合乾福鞋厂,周庄学校配变,东任町东2号农【纯农排变】,西任疃西北混配变,小辛庄内东2号,西任疃北农【纯农排变】,大辛庄村农业,大辛庄内西混,东任疃南农【纯农排变】,西任疃砖厂,小辛庄村西农【纯农排变】,小辛庄村北农业【纯农排变】,西任疃村北,西任疃塑编厂,大辛庄南混,望都县京叶鞋厂,西任町外西混合,大辛庄村南2号农【纯农排变】,小辛庄养殖基地,西任疃西南混,东升塑料厂,东任町北农【纯农排变】,望都县德塑宝塑料制品有限公司,西任町村西混合,付庄村内东2号配变,西任町村西农业【纯农排变】,恒通橡塑料制品厂,东任疃南农2号【纯农排变】,曾涛加工厂,新兴养殖小区,东任町村东南农【纯农排变】,东任町东北农【纯农排变】,平顺建筑材料厂,姜庄村西北农【纯农排变】,大辛庄东南混配变,大辛庄东南农【纯农排变】,小辛庄村农业【纯农排变】,付庄北农2号【纯农排变】,东任町村内混,付庄村北农业【纯农排变】,小辛庄东北2【纯农排变】,西任疃西农【纯农排变】,南李各庄西农2【纯农排变】,大辛庄东农业【纯农排变】,大辛庄内西混合2号,西任疃西南2号农【纯农排变】,东任町内北混,姜庄村西农【纯农排变】,东任町果园农【纯农排变】,西任疃东北混,西任町村南农业【纯农排变】,周庄医院,西任町村内混合,周庄村头北【纯农排变】,东任町西北混,东任町村混,周庄乡直南混,西任町大队混合,大辛庄内东混,西任疃幼儿园配变,王新国桶厂,姜庄西农2号【纯农排变】,周庄乡直北,周庄村北农【纯农排变】,周庄路边混,南李各庄西农【纯农排变】,付庄村内北混合,东任疃内东,大辛庄村南农3【纯农排变】,付庄光伏配变,小辛庄村西2号农【纯农排变】,0676426382-望都鑫源有色金属压铸件厂-专变-216211904-望都鑫源有色金属压铸件厂,大辛庄南农4号【纯农排变】,付庄村内东混合,小辛庄村东混合","powerOffReason":"【停电原因】由于站内开关跳闸导致１１０ＫＶ八里庄变电站周庄线５２４线路全线停电 【变更送电】因抢修进度加快原因，送电时间由２２：００变更为０９：００ 【发布渠道】通过９５５９８发布","powerOffId":"2019080513000042"}],"pageModel":{"pageNow":690,"totalCount":10973,"totalPage":1098,"tableRows":0,"pageCount":10,"beginCount":6890},"isExperi":"1"}