{"message":"","today":"2020-06-15","seleList":[{"poweroffId":2019080513000039,"sgpoweroffId":null,"subsName":"","lineName":"西环路516","pubTranName":"西庄道村4#,易河庄村2#,西环路直供2#,易河庄村1##,西环路村5#,尚城餐饮变压器,西庄道村1#,易水河西,西环路直供3#,惠东小区(315KVA),西环路直供1#,易河庄村1#,西庄道村2#,西环路村7#,西环路村3#,易水初级中学(50KVA),西环路直供4#,易河庄村3#,金驰悦达变压器,西庄道村3#,西环路村4#,易河庄4#,河北惠东房地产开发有限公司B-2000KVA,","scope":"【影响街道/乡镇】易州镇、西环路、靖远北大街【高危重要客户】无【影响客户】易河庄村、西庄道村","startTime":"2019-08-05 07:18:00","stopDate":"2019-08-05 15:00:00","orgNo":"1340625","typeCode":"电网故障停限电","poweroffArea":"【全线路停电】停西庄道村3#,西环路村5#,西环路直供2#,易水初级中学(50KVA),金驰悦达变压器,尚城餐饮变压器,西环路村3#,西庄道村1#,易水河西,易河庄村2#,西庄道村4#,易河庄村1##,河北惠东房地产开发有限公司B-2000KVA,西环路直供1#,易河庄4#,易河庄村3#,西环路村7#,易河庄村1#,西环路直供3#,惠东小区(315KVA),西环路直供4#,西庄道村2#,西环路村4#","poweroffReason":"【停电原因】由于速断跳闸导致３５ＫＶ易水变电站西环路５１６线路全线停电【变更送电】因抢修进度加快原因，送电时间由１６:００变更为１５:００【发布渠道】通过９５５９８发布","powerTime":"2019-08-05 14:15:00","powerComm":"已送电","subsNo":"","lineNo":"","tgNo":"","tgName":null,"infoStatus":"1","orgName":"国网易县供电公司","typeName":null,"infoStatusName":null,"dateDay":null,"orgNos":null,"nowTime":null,"countyName":null,"streetName":null,"villageName":null,"roadName":null,"communityName":null,"tranName":null,"sdLineName":null,"cityCode":"1340625","cityName":"国网易县供电公司","provinceCode":null,"stopTime":"2019-08-05 15:00:00","powerType":"全部","powerOffArea":"【全线路停电】停西庄道村3#,西环路村5#,西环路直供2#,易水初级中学(50KVA),金驰悦达变压器,尚城餐饮变压器,西环路村3#,西庄道村1#,易水河西,易河庄村2#,西庄道村4#,易河庄村1##,河北惠东房地产开发有限公司B-2000KVA,西环路直供1#,易河庄4#,易河庄村3#,西环路村7#,易河庄村1#,西环路直供3#,惠东小区(315KVA),西环路直供4#,西庄道村2#,西环路村4#","powerOffReason":"【停电原因】由于速断跳闸导致３５ＫＶ易水变电站西环路５１６线路全线停电【变更送电】因抢修进度加快原因，送电时间由１６:００变更为１５:００【发布渠道】通过９５５９８发布","powerOffId":"2019080513000039"},{"poweroffId":2019080513000036,"sgpoweroffId":null,"subsName":"","lineName":"景阳驿线513","pubTranName":"五片新增1号（统管）,孟村村东统管,辛章屯村西,井阳驿5片,南固店村南,东佯公司,满城县十万亩基本农田建设第九标段西辛章新增2号100KVA配变,决堤村东北,辛章屯村内（统管）,小赛铁路北（农网）,孟村福生村内,辛章屯村东【纯农排变】,辛章屯村北新增,孟村福生新增,东新章村南,孟村新增,满城县宏泰电力金具厂,决堤村内统管,辛章屯部队西【纯农排变】,决堤东南,中国移动通信集团河北有限公司满城,汤村东统管,辛章屯村东（统管）,径阳驿鱼厂统管,辛章屯万亩农田2号,西辛章村北,汤村东统管,东辛章村北,孟村新增1号,新章屯村西,井阳驿4片,汤村东新增统管,方顺桥税务所,河北科瑞电力器材有限公司变压器,井阳驿村南,辛章屯万亩农田1号【纯农排变】,三片新增2号（统管）,决堤村东照明（统管）,井驿果酒厂西,河北科瑞电力器材有限公司变压器,五里铺万亩农田1号【纯农排变】,南固店村南,孟村南,井阳驿5片,东辛章东新增统管,东辛章万亩农田1号【纯农排变】,西辛章村西南（统管）【纯农排变】,东新章面粉厂,决堤村北,部队弹药库,0648310051-满城县十万亩基本农田建设第七标段孟村新增2号-专变-172048753-满城县十万亩基本农田建设第七标段孟村新增2号,满城县十万亩基本农田建设第九标段西辛章新增1号,汤村内统管,满城县十万亩基本农田建设第六标段陉阳驿调整1#,村东门2号统管,自强玛钢厂,辛章屯村西农网【纯农排变】,东辛章南沟【纯农排变】,满城县澜龙铁业有限公司,东辛章万亩农田2,汤村万亩农田1,职教分校,辛章屯杆厂后统管【纯农排变】,井阳驿2片,西辛章新增,井阳驿2片新增（统管）,曙光电器,孟村陶粒厂,西辛章村内,五里铺万亩农田2号【纯农排变】,西新章北新增,熤龙养殖场,井阳驿3片新增统管,辛章屯村西【纯农排变】,双寅电气有限公司,西辛章（统管）,汤村牛场,满城县十万亩基本农田建设第七标段决堤新增1号,辛章屯万亩农田2号,汤村村南统管,五里铺村2号（统管）,辛章屯村南,五里铺村北西,井阳驿学校南,0387478049-孟村福生北-专变-45305540-孟村福生北,孟村福生村内,孟村村东统管,井阳驿3片,井阳驿1片新增,新章屯东新增,姜志星玛钢厂,辛章屯西新增统管,井阳驿4片新增统管,决堤村内统管,辛章屯村西,井阳驿村西,孟村南统管,0387477857-决堤北新增-专变-45305539-决堤北新增,东欣章螺丝厂,保定市满城屹兴焊丝厂,华冠电器,新章屯东北,五里铺新增统管,村东门1号统管【纯农排变】,孟村西南,井阳驿玛钢厂西,井阳驿东,井阳驿2片新增（统管）,孟村新增,决堤新增统管,满城县十万亩基本农田建设第七标段孟村新增1号,辛章屯信用社边,井驿果酒厂,五片新增1号（统管）,东辛章村内统管,决堤新增1号,井阳驿3片新增统管,东新章拔丝厂,井阳驿政府,东新章村西（统管）,孟村西,五里铺村西统管【纯农排变】,孟村西,井杨驿2片新增（统管）,井阳驿新增1号,井阳驿3片,孟村南统管,井阳驿村北,决堤新增统管,满城县陉阳驿豪达面粉厂,西辛章小北庄,西辛章村西,决堤东统管,决堤电焊网,满城县十万亩基本农田建设第九标段西辛章新增3号,五里铺村","scope":"【影响街道/乡镇】方顺桥乡、于家庄乡 【高危重要客户】无 【影响客户】陉（景）阳驿村、孟村、决堤、辛章屯、东辛章、西辛章、汤村、五里铺","startTime":"2019-08-05 07:03:56","stopDate":"2019-08-05 12:00:00","orgNo":"1340617","typeCode":"电网故障停限电","poweroffArea":"【全线路停电】停西辛章村西,五里铺万亩农田1号【纯农排变】,满城县十万亩基本农田建设第九标段西辛章新增1号,辛章屯村西,东辛章村北,东辛章村内统管,0387477857-决堤北新增-专变-45305539-决堤北新增,孟村福生新增,孟村南统管,东新章面粉厂,汤村东门,五里铺村西统管【纯农排变】,新章屯东北,孟村新增,五里铺新增统管,0387478049-孟村福生北-专变-45305540-孟村福生北,陉阳驿村西新增（统管）,孟村福生村内,决堤村北,井阳驿新增1号,决堤东南,三片新增2号（统管）,东欣章螺丝厂,五里铺万亩农田2号【纯农排变】,太行玛钢厂,熤龙养殖场,东辛章西北,井阳驿村北,双寅电气有限公司,井阳驿学校南,孟村西,五里铺村2号（统管）,辛章屯万亩农田1号【纯农排变】,井阳驿5片,东辛章万亩农田1号【纯农排变】,井阳驿3片,孟村村东统管,井阳驿4片,井阳驿玛钢厂西,井阳驿政府,职教分校,满城县十万亩基本农田建设第九标段西辛章新增2号100KVA配变,西辛章村西南（统管）【纯农排变】,井阳驿3片新增统管,东新章村西（统管）,井阳驿2片新增（统管）,决堤东统管,辛章屯村北新增,新章屯村西,满城县澜龙铁业有限公司,西辛章村北,辛章屯西新增统管,径阳驿鱼厂统管,满城县陉阳驿豪达面粉厂,辛章屯万亩农田3号【纯农排变】,井阳驿东,满城县宏泰电力金具厂,辛章屯信用社边,小赛铁路北（农网）,井阳驿村南,井阳驿2片,汤村内统管,井阳驿4片新增统管,孟村陶粒厂,井驿果酒厂,新章屯东新增,部队弹药库,河北科瑞电力器材有限公司变压器,汤村村南新增2号（统管）,孟村新增1号,中国移动通信集团河北有限公司满城,孟村玉山,辛章屯村东【纯农排变】,东新章拔丝厂,井阳驿1片新增,方顺桥税务所,满城县十万亩基本农田建设第七标段决堤新增1号,自强玛钢厂,东新章村南,西辛章新增,井阳驿村西,保定市满城屹兴焊丝厂,曙光电器,吉祥玛钢厂,辛章屯村西【纯农排变】,辛章屯万亩农田2号,五里铺村北西,东辛章东新增统管,汤村东统管,0648310051-满城县十万亩基本农田建设第七标段孟村新增2号-专变-172048753-满城县十万亩基本农田建设第七标段孟村新增2号,井杨驿2片新增（统管）,汤村村南统管,孟村西南,汤村牛场,东佯公司,东辛章南沟【纯农排变】,满城县十万亩基本农田建设第六标段陉阳驿调整1#,辛章屯村内（统管）,辛章屯部队西【纯农排变】,西辛章村内,西辛章新增3号（统管）,汤村万亩农田1,辛章屯村西农网【纯农排变】,决堤新增1号,五片新增1号（统管）,辛章屯杆厂后统管【纯农排变】,孟村南,南固店村南,决堤村东北,决堤村内统管,井阳驿5片新增台区统管,满城县十万亩基本农田建设第七标段孟村新增1号,辛章屯村南,决堤村东照明（统管）,井阳驿草莓基地,决堤电焊网,姜志星玛钢厂,东辛章万亩农田2,村东门2号统管,井驿果酒厂西,华冠电器,决堤新增统管,满城县十万亩基本农田建设第九标段西辛章新增3号,汤村东新增统管,辛章屯村东（统管）,西辛章小北庄,村东门1号统管【纯农排变】,西新章北新增,西辛章（统管）","poweroffReason":"【停电原因】由于线路过流掉闸导致１１０ＫＶ西原变电站景阳驿线５１３线路全线停电 【变更送电】因抢修速度加快原因，送电时间由２０：００变更为１２：００ 【发布渠道】通过９５５９８发布","powerTime":"2019-08-05 11:35:18","powerComm":"已送电","subsNo":"","lineNo":"","tgNo":"","tgName":null,"infoStatus":"1","orgName":"国网满城县供电公司","typeName":null,"infoStatusName":null,"dateDay":null,"orgNos":null,"nowTime":null,"countyName":null,"streetName":null,"villageName":null,"roadName":null,"communityName":null,"tranName":null,"sdLineName":null,"cityCode":"1340617","cityName":"国网满城县供电公司","provinceCode":null,"stopTime":"2019-08-05 12:00:00","powerType":"全部","powerOffArea":"【全线路停电】停西辛章村西,五里铺万亩农田1号【纯农排变】,满城县十万亩基本农田建设第九标段西辛章新增1号,辛章屯村西,东辛章村北,东辛章村内统管,0387477857-决堤北新增-专变-45305539-决堤北新增,孟村福生新增,孟村南统管,东新章面粉厂,汤村东门,五里铺村西统管【纯农排变】,新章屯东北,孟村新增,五里铺新增统管,0387478049-孟村福生北-专变-45305540-孟村福生北,陉阳驿村西新增（统管）,孟村福生村内,决堤村北,井阳驿新增1号,决堤东南,三片新增2号（统管）,东欣章螺丝厂,五里铺万亩农田2号【纯农排变】,太行玛钢厂,熤龙养殖场,东辛章西北,井阳驿村北,双寅电气有限公司,井阳驿学校南,孟村西,五里铺村2号（统管）,辛章屯万亩农田1号【纯农排变】,井阳驿5片,东辛章万亩农田1号【纯农排变】,井阳驿3片,孟村村东统管,井阳驿4片,井阳驿玛钢厂西,井阳驿政府,职教分校,满城县十万亩基本农田建设第九标段西辛章新增2号100KVA配变,西辛章村西南（统管）【纯农排变】,井阳驿3片新增统管,东新章村西（统管）,井阳驿2片新增（统管）,决堤东统管,辛章屯村北新增,新章屯村西,满城县澜龙铁业有限公司,西辛章村北,辛章屯西新增统管,径阳驿鱼厂统管,满城县陉阳驿豪达面粉厂,辛章屯万亩农田3号【纯农排变】,井阳驿东,满城县宏泰电力金具厂,辛章屯信用社边,小赛铁路北（农网）,井阳驿村南,井阳驿2片,汤村内统管,井阳驿4片新增统管,孟村陶粒厂,井驿果酒厂,新章屯东新增,部队弹药库,河北科瑞电力器材有限公司变压器,汤村村南新增2号（统管）,孟村新增1号,中国移动通信集团河北有限公司满城,孟村玉山,辛章屯村东【纯农排变】,东新章拔丝厂,井阳驿1片新增,方顺桥税务所,满城县十万亩基本农田建设第七标段决堤新增1号,自强玛钢厂,东新章村南,西辛章新增,井阳驿村西,保定市满城屹兴焊丝厂,曙光电器,吉祥玛钢厂,辛章屯村西【纯农排变】,辛章屯万亩农田2号,五里铺村北西,东辛章东新增统管,汤村东统管,0648310051-满城县十万亩基本农田建设第七标段孟村新增2号-专变-172048753-满城县十万亩基本农田建设第七标段孟村新增2号,井杨驿2片新增（统管）,汤村村南统管,孟村西南,汤村牛场,东佯公司,东辛章南沟【纯农排变】,满城县十万亩基本农田建设第六标段陉阳驿调整1#,辛章屯村内（统管）,辛章屯部队西【纯农排变】,西辛章村内,西辛章新增3号（统管）,汤村万亩农田1,辛章屯村西农网【纯农排变】,决堤新增1号,五片新增1号（统管）,辛章屯杆厂后统管【纯农排变】,孟村南,南固店村南,决堤村东北,决堤村内统管,井阳驿5片新增台区统管,满城县十万亩基本农田建设第七标段孟村新增1号,辛章屯村南,决堤村东照明（统管）,井阳驿草莓基地,决堤电焊网,姜志星玛钢厂,东辛章万亩农田2,村东门2号统管,井驿果酒厂西,华冠电器,决堤新增统管,满城县十万亩基本农田建设第九标段西辛章新增3号,汤村东新增统管,辛章屯村东（统管）,西辛章小北庄,村东门1号统管【纯农排变】,西新章北新增,西辛章（统管）","powerOffReason":"【停电原因】由于线路过流掉闸导致１１０ＫＶ西原变电站景阳驿线５１３线路全线停电 【变更送电】因抢修速度加快原因，送电时间由２０：００变更为１２：００ 【发布渠道】通过９５５９８发布","powerOffId":"2019080513000036"},{"poweroffId":2019080513000035,"sgpoweroffId":null,"subsName":"","lineName":"10kV524元南线","pubTranName":"元东综合4台区,元东综合2台区,元南综合1台区,保定美雅纺织有限公司变压器,元营农排8台区【纯农排变】,元南农排3台区【纯农排变】,杨西农排4台区【纯农排变】,元南综合6台区,恒威变压器,蠡县森源材料有限公司变压器,元南综合5台区,蠡县贺林农资门市部,元东农排5台区【纯农排变】,杨南农排5台区【纯农排变】,元南农排4台区【纯农排变】,元东农排1台区【纯农排变】,蠡县森源材料有限公司,蠡县勤学毛纺厂,杨南农排9台区【纯农排变】,蠡县睿霖染化有限公司,雅尔公司,元南综合3台区,元南农排2台区【纯农排变】,元东农排4台区【纯农排变】,元东农排9台区【纯农排变】,元东农排6台区【纯农排变】,鹤祥种业养殖公司,元南农排1台区【纯农排变】,元南综合10台区,杨南农排7台区【纯农排变】,友谊纺织,元东综合6台区,杨东农排7台区【纯农排变】,元东综合1台区,元南综合7台区,蠡县双蚨盛,元南农排5台区【纯农排变】,元南综合9台区,元东综合8台区,元南综合11台区,元东农排10台区【纯农排变】,元东综合10台区,元南综合4台区,元东农排2台区【纯农排变】,元东农排3台区【纯农排变】,杨南农排6台区【纯农排变】,元东综合9台区,元南综合12台区,元南综合2台区,元南农排8台区【纯农排变】,双兴公司,元东综合11台区,杨西农排10台区【纯农排变】,元南农排6台区【纯农排变】,元南综合8台区,","scope":"【影响街道/乡镇】桑元镇【高危重要客户】无【影响客户】元南村、元东村","startTime":"2019-08-05 07:03:16","stopDate":"2019-08-05 12:00:00","orgNo":"1340616","typeCode":"电网故障停限电","poweroffArea":"【全线路停电】停元南综合4台区,元东农排3台区【纯农排变】,元东综合1台区,元东农排2台区【纯农排变】,蠡县森源材料有限公司,元营农排8台区【纯农排变】,杨南农排7台区【纯农排变】,元南综合12台区,元东综合11台区,元东农排1台区【纯农排变】,元东综合10台区,元东综合8台区,元南综合3台区,元南综合7台区,元东农排6台区【纯农排变】,蠡县双蚨盛,元南综合2台区,元南农排6台区【纯农排变】,保定美雅纺织有限公司变压器,元南农排4台区【纯农排变】,蠡县森源材料有限公司变压器,元南综合1台区,杨南农排6台区【纯农排变】,元东综合4台区,蠡县贺林农资门市部,元东综合9台区,恒威变压器,元东综合6台区,杨南农排9台区【纯农排变】,元南综合11台区,元南综合9台区,元南农排3台区【纯农排变】,杨西农排4台区【纯农排变】,蠡县勤学毛纺厂,友谊纺织,鹤祥种业养殖公司,杨南农排5台区【纯农排变】,元南综合10台区,元东农排4台区【纯农排变】,元东农排10台区【纯农排变】,元南农排2台区【纯农排变】,元南农排5台区【纯农排变】,蠡县睿霖染化有限公司,元南农排1台区【纯农排变】,杨东农排7台区【纯农排变】,双兴公司,元南综合6台区,元东农排9台区【纯农排变】,元东综合2台区,雅尔公司,杨西农排10台区【纯农排变】,元南综合8台区,元南综合5台区,元南农排8台区【纯农排变】,元东农排5台区【纯农排变】","poweroffReason":"【停电原因】由于电杆被大车撞断导致１１０ＫＶ刘铭庄变电站１０ＫＶ元南５２４线路全线停电【变更送电】因抢修进度加快原因，送电时间由１４：００变更为１２：００【发布渠道】通过９５５９８发布","powerTime":"2019-08-05 11:42:21","powerComm":"已送电","subsNo":"","lineNo":"","tgNo":"","tgName":null,"infoStatus":"1","orgName":"国网蠡县供电公司","typeName":null,"infoStatusName":null,"dateDay":null,"orgNos":null,"nowTime":null,"countyName":null,"streetName":null,"villageName":null,"roadName":null,"communityName":null,"tranName":null,"sdLineName":null,"cityCode":"1340616","cityName":"国网蠡县供电公司","provinceCode":null,"stopTime":"2019-08-05 12:00:00","powerType":"全部","powerOffArea":"【全线路停电】停元南综合4台区,元东农排3台区【纯农排变】,元东综合1台区,元东农排2台区【纯农排变】,蠡县森源材料有限公司,元营农排8台区【纯农排变】,杨南农排7台区【纯农排变】,元南综合12台区,元东综合11台区,元东农排1台区【纯农排变】,元东综合10台区,元东综合8台区,元南综合3台区,元南综合7台区,元东农排6台区【纯农排变】,蠡县双蚨盛,元南综合2台区,元南农排6台区【纯农排变】,保定美雅纺织有限公司变压器,元南农排4台区【纯农排变】,蠡县森源材料有限公司变压器,元南综合1台区,杨南农排6台区【纯农排变】,元东综合4台区,蠡县贺林农资门市部,元东综合9台区,恒威变压器,元东综合6台区,杨南农排9台区【纯农排变】,元南综合11台区,元南综合9台区,元南农排3台区【纯农排变】,杨西农排4台区【纯农排变】,蠡县勤学毛纺厂,友谊纺织,鹤祥种业养殖公司,杨南农排5台区【纯农排变】,元南综合10台区,元东农排4台区【纯农排变】,元东农排10台区【纯农排变】,元南农排2台区【纯农排变】,元南农排5台区【纯农排变】,蠡县睿霖染化有限公司,元南农排1台区【纯农排变】,杨东农排7台区【纯农排变】,双兴公司,元南综合6台区,元东农排9台区【纯农排变】,元东综合2台区,雅尔公司,杨西农排10台区【纯农排变】,元南综合8台区,元南综合5台区,元南农排8台区【纯农排变】,元东农排5台区【纯农排变】","powerOffReason":"【停电原因】由于电杆被大车撞断导致１１０ＫＶ刘铭庄变电站１０ＫＶ元南５２４线路全线停电【变更送电】因抢修进度加快原因，送电时间由１４：００变更为１２：００【发布渠道】通过９５５９８发布","powerOffId":"2019080513000035"},{"poweroffId":2019080513000021,"sgpoweroffId":null,"subsName":"","lineName":"市郊513","pubTranName":"南虎北变压器,三丈铺地变压器【纯农排变】,变压器,北方中东变压器,顺通水泥制品厂,高碑店市曹庄林峰养殖场变压器,五七中学（排灌）,曹庄01变压器,北方中新增200变压器,高碑店市启航建材有限公司,三辛庄东,南方中东变压器,北方中北变压器,三丈东南变压器,红旗水泥制品厂,曹庄06变压器,北虎内变压器,曹庄03变压器,三丈铺北排灌变压器【纯农排变】,南虎西变压器,北虎配变,三辛庄砖厂,鑫正牧业,北方中面粉厂,西马变压器,北方中新增东变压器,顺河庄11号变压器,河北合力众兴养殖有限公司,三丈北变压器,高碑店市水利局变压器,赵贵,高易铁路,南方中西变压器,三丈铺新增北台变压器,南方中东地变台【纯农排变】,董飞变压器,西马新变压器,三辛庄内变压器,弘景致诚,三丈铺东变压器,顺新化工厂,曹庄西变压器,魏志福变压器,曹庄南公变变压器,南虎东地变压器【纯农排变】,北方中西变压器,西马排灌变压器【纯农排变】,三辛庄北地变压器【纯农排变】,北虎地变压器【纯农排变】,南方中南变台,北方中东地2变压器【纯农排变】,三辛庄西地变压器【纯农排变】,北方中北地变压器【纯农排变】,曹庄02变压器,南方中南地变压器【纯农排变】,三丈铺西变压器,北京弘景致诚家具制造有限公司高碑店分公司2,高碑店市永旗新型建材制造有限责任公司,西马北,南虎南变台,三丈北地变压器【纯农排变】,南方中北变压器,0585511830-高碑店市路灯管理办公室-专变-125094340-高碑店市路灯管理办公室变压器,三辛庄南变压器,曹庄05变压器,顺河庄南地变压器【纯农排变】,南方中西南台变压器【纯农排变】,北方中新增西变压器,曹庄07变压器,三丈南地变压器【纯农排变】,高碑店市曹庄昊鑫养殖场变压器,三丈南变压器,高碑店市永旗新型建材制造有限责任公司变压器,高碑店市立平畜禽购销农民专业合作社变压器,西马南变压器,南虎机房,田树河,中国石油保定67站,曹庄04变压器,顺河庄04号变压器,志华养牛场,北方中东地变压器【纯农排变】,三丈辛庄新增200配变,高一小房变压器,张彦辉变压器,","scope":"【影响街道/乡镇】和平办事处 【高危重要客户】无 【影响客户】北虎村、南虎村、西马村、南方中村、北方中村、三丈铺村、三辛庄村、高一村、顺河庄村(铁路西)、三丈村、６７加油站、北方中面粉厂、东华丰宝厂 、弘景致诚厂、红旗水泥厂、南虎机房、三辛庄砖厂、顺通水泥厂、顺新化工厂、田树河、魏志福、五七中学、鑫正牧业、张彦辉、赵贵、志华养牛厂","startTime":"2019-08-05 05:38:40","stopDate":"2019-08-05 09:30:00","orgNo":"1340612","typeCode":"电网故障停限电","poweroffArea":"【全线路停电】停曹庄05变压器,高一小房变压器,张彦辉变压器,三辛庄西地变压器【纯农排变】,曹庄02变压器,南方中南地变压器【纯农排变】,三丈铺西变压器,北京弘景致诚家具制造有限公司高碑店分公司2,高碑店市永旗新型建材制造有限责任公司,西马北,南虎南变台,三丈北地变压器【纯农排变】,南方中北变压器,0585511830-高碑店市路灯管理办公室-专变-125094340-高碑店市路灯管理办公室变压器,北方中北地变压器【纯农排变】,三辛庄南变压器,顺河庄南地变压器【纯农排变】,南方中西南台变压器【纯农排变】,三辛庄内变压器,弘景致诚,三丈铺东变压器,顺新化工厂,曹庄西变压器,魏志福变压器,曹庄南公变变压器,南虎东地变压器【纯农排变】,北方中西变压器,西马排灌变压器【纯农排变】,三辛庄北地变压器【纯农排变】,北虎地变压器【纯农排变】,南方中南变台,北方中东地2变压器【纯农排变】,三丈铺地变压器【纯农排变】,变压器,北方中东变压器,顺通水泥制品厂,高碑店市曹庄林峰养殖场变压器,五七中学（排灌）,曹庄01变压器,北方中新增200变压器,高碑店市启航建材有限公司,三辛庄东,南方中东变压器,北方中北变压器,三丈东南变压器,红旗水泥制品厂,曹庄06变压器,北虎内变压器,曹庄03变压器,三丈铺北排灌变压器【纯农排变】,南虎西变压器,北虎配变,三辛庄砖厂,鑫正牧业,北方中面粉厂,西马变压器,北方中新增东变压器,顺河庄11号变压器,河北合力众兴养殖有限公司,三丈北变压器,高碑店市水利局变压器,赵贵,高易铁路,南方中西变压器,三丈铺新增北台变压器,南方中东地变台【纯农排变】,董飞变压器,西马新变压器,北方中新增西变压器,曹庄07变压器,三丈南地变压器【纯农排变】,高碑店市曹庄昊鑫养殖场变压器,三丈南变压器,高碑店市永旗新型建材制造有限责任公司变压器,高碑店市立平畜禽购销农民专业合作社变压器,西马南变压器,南虎机房,田树河,中国石油保定67站,曹庄04变压器,顺河庄04号变压器,南虎北变压器,志华养牛场,北方中东地变压器【纯农排变】,三丈辛庄新增200配变","poweroffReason":"【停电原因】由于曹庄分支有树障导致２２０ＫＶ高碑店变电站１０ＫＶ市郊５１３线路全线停电 【变更送电】因抢修进度加快原因，送电时间由１２：００变更为９：３０ 【发布渠道】通过９５５９８发布","powerTime":"2019-08-05 09:04:04","powerComm":"已送电","subsNo":"","lineNo":"","tgNo":"","tgName":null,"infoStatus":"1","orgName":"国网高碑店市供电公司","typeName":null,"infoStatusName":null,"dateDay":null,"orgNos":null,"nowTime":null,"countyName":null,"streetName":null,"villageName":null,"roadName":null,"communityName":null,"tranName":null,"sdLineName":null,"cityCode":"1340612","cityName":"国网高碑店市供电公司","provinceCode":null,"stopTime":"2019-08-05 09:30:00","powerType":"全部","powerOffArea":"【全线路停电】停曹庄05变压器,高一小房变压器,张彦辉变压器,三辛庄西地变压器【纯农排变】,曹庄02变压器,南方中南地变压器【纯农排变】,三丈铺西变压器,北京弘景致诚家具制造有限公司高碑店分公司2,高碑店市永旗新型建材制造有限责任公司,西马北,南虎南变台,三丈北地变压器【纯农排变】,南方中北变压器,0585511830-高碑店市路灯管理办公室-专变-125094340-高碑店市路灯管理办公室变压器,北方中北地变压器【纯农排变】,三辛庄南变压器,顺河庄南地变压器【纯农排变】,南方中西南台变压器【纯农排变】,三辛庄内变压器,弘景致诚,三丈铺东变压器,顺新化工厂,曹庄西变压器,魏志福变压器,曹庄南公变变压器,南虎东地变压器【纯农排变】,北方中西变压器,西马排灌变压器【纯农排变】,三辛庄北地变压器【纯农排变】,北虎地变压器【纯农排变】,南方中南变台,北方中东地2变压器【纯农排变】,三丈铺地变压器【纯农排变】,变压器,北方中东变压器,顺通水泥制品厂,高碑店市曹庄林峰养殖场变压器,五七中学（排灌）,曹庄01变压器,北方中新增200变压器,高碑店市启航建材有限公司,三辛庄东,南方中东变压器,北方中北变压器,三丈东南变压器,红旗水泥制品厂,曹庄06变压器,北虎内变压器,曹庄03变压器,三丈铺北排灌变压器【纯农排变】,南虎西变压器,北虎配变,三辛庄砖厂,鑫正牧业,北方中面粉厂,西马变压器,北方中新增东变压器,顺河庄11号变压器,河北合力众兴养殖有限公司,三丈北变压器,高碑店市水利局变压器,赵贵,高易铁路,南方中西变压器,三丈铺新增北台变压器,南方中东地变台【纯农排变】,董飞变压器,西马新变压器,北方中新增西变压器,曹庄07变压器,三丈南地变压器【纯农排变】,高碑店市曹庄昊鑫养殖场变压器,三丈南变压器,高碑店市永旗新型建材制造有限责任公司变压器,高碑店市立平畜禽购销农民专业合作社变压器,西马南变压器,南虎机房,田树河,中国石油保定67站,曹庄04变压器,顺河庄04号变压器,南虎北变压器,志华养牛场,北方中东地变压器【纯农排变】,三丈辛庄新增200配变","powerOffReason":"【停电原因】由于曹庄分支有树障导致２２０ＫＶ高碑店变电站１０ＫＶ市郊５１３线路全线停电 【变更送电】因抢修进度加快原因，送电时间由１２：００变更为９：３０ 【发布渠道】通过９５５９８发布","powerOffId":"2019080513000021"},{"poweroffId":2019080513000015,"sgpoweroffId":null,"subsName":"","lineName":"南徐城线528电力电缆","pubTranName":"永兴46号(红叶树),东于庄9号,南城5号(528),西于庄5号,西于庄4号,南城1号(528),东于庄6号,三岔口11号,南城4号(528),东王庄4号,永兴34号(南铁市),东王庄3号,西于庄6号,东王庄5号,东于庄10号,西于庄3号,东于庄7号,东于庄8号,东王庄1号,东于庄2号【纯农排变】,盛源43号（政府办）,东于庄5号,东于庄3号,盛源78号（土地局家属院）,南城3号(528),盛源104号（馨园南门）,西于庄2号,东王庄6号,东于庄4号,西于庄1号,东王庄2号,东于庄1号,","scope":"【影响街道/乡镇】安肃镇 【高危重要客户】无 【影响客户】东于庄、西于庄、南城、三岔口、土地局家属院、东王庄、铁市场、顺鑫苑小区、馨园小区、久久集团小区、公安局家属院、汇源小区、巨鼎小区、县联社、县联社家属院、天成公寓、中天物业、新丰房地产、鑫泰园小区、城堡酒店、红苹果幼儿园、创联吊索具","startTime":"2019-08-05 05:03:50","stopDate":"2019-08-05 08:00:00","orgNo":"1340605","typeCode":"电网故障停限电","poweroffArea":"【全线路停电】停东于庄10号,永兴34号(南铁市),东于庄1号,东于庄2号【纯农排变】,东于庄3号,东于庄5号,东于庄6号,东于庄8号,东于庄7号,东于庄9号,盛源78号（土地局家属院）,盛源43号（政府办）,西于庄4号,南城1号(528),南城3号(528),南城4号(528),南城5号(528),东于庄4号,三岔口11号,盛源104号（馨园南门）,东王庄1号,东王庄3号,东王庄6号,东王庄2号,东王庄4号,东王庄5号,西于庄5号,西于庄6号,西于庄1号,西于庄2号,西于庄3号,永兴46号(红叶树)","poweroffReason":"【停电原因】由于Ｂ相接地导致１１０ＫＶ徐水变电站南徐城线５２８线路全线停电 【变更送电】因抢修进度加快原因，送电时间由１１:００变更为０８:００ 【发布渠道】通过９５５９８发布","powerTime":"2019-08-05 07:22:09","powerComm":"已送电","subsNo":"","lineNo":"","tgNo":"","tgName":null,"infoStatus":"1","orgName":"国网徐水县供电公司","typeName":null,"infoStatusName":null,"dateDay":null,"orgNos":null,"nowTime":null,"countyName":null,"streetName":null,"villageName":null,"roadName":null,"communityName":null,"tranName":null,"sdLineName":null,"cityCode":"1340605","cityName":"国网徐水县供电公司","provinceCode":null,"stopTime":"2019-08-05 08:00:00","powerType":"全部","powerOffArea":"【全线路停电】停东于庄10号,永兴34号(南铁市),东于庄1号,东于庄2号【纯农排变】,东于庄3号,东于庄5号,东于庄6号,东于庄8号,东于庄7号,东于庄9号,盛源78号（土地局家属院）,盛源43号（政府办）,西于庄4号,南城1号(528),南城3号(528),南城4号(528),南城5号(528),东于庄4号,三岔口11号,盛源104号（馨园南门）,东王庄1号,东王庄3号,东王庄6号,东王庄2号,东王庄4号,东王庄5号,西于庄5号,西于庄6号,西于庄1号,西于庄2号,西于庄3号,永兴46号(红叶树)","powerOffReason":"【停电原因】由于Ｂ相接地导致１１０ＫＶ徐水变电站南徐城线５２８线路全线停电 【变更送电】因抢修进度加快原因，送电时间由１１:００变更为０８:００ 【发布渠道】通过９５５９８发布","powerOffId":"2019080513000015"},{"poweroffId":2019080513000011,"sgpoweroffId":null,"subsName":"","lineName":"10kV511朝阳工业线","pubTranName":"狼山村东新建农业2877【纯农排变】,张全雪2400农排|25002400【纯农排变】,春兰石子厂,谭金坡3380农排|25003380【纯农排变】,北陈后村东新建综合四区8399,北陈侯东坡450农排|25000450【纯农排变】,狼山村90|25000090,狼山95农排|25000095【纯农排变】,保定市南水北调工程建设委员会办公室30（1）,塔坡西3400农排|25003400【纯农排变】,北陈后2区3200|25003200,狼山村北农业3408【纯农排变】,北朝阳村北新增综合2876,西荆尖村西新增综合,北陈侯30|25000030,狼山村北新增综合5620,乡石子厂,中国移动公司,李嘉龙混用370|25000370【纯农排变】,顺平北味坊食品有限公司,塔坡260|25000260,狼山新增3号,冀小眼2340农排|25002340【纯农排变】,北陈后新3040农排|25003040【纯农排变】,东井尖新北2570农排|25002570【纯农排变】,北陈侯大队农业【纯农排变】,金顺混凝土制品厂,狼山东2470农排|25002470【纯农排变】,清石子厂,狼山占雄混用2820|25002820,朝阳面粉厂310农排|25000310【纯农排变】,西井尖230农排|25000230【纯农排变】,陈后福利砖厂,塔坡占明390农排|25000390【纯农排变】,东井尖村050|25000050【纯农排变】,狼山东北农业3410【纯农排变】,狼山大队农业6474【纯农排变】,北朝阳面粉厂,东井尖60农排|25000060【纯农排变】,南陈侯建忠2460农排|25002460【纯农排变】,东井尖350农排|25000350【纯农排变】,南陈后新3210|25003210,南陈后10|25000010,塔坡计尧110农排|25000110【纯农排变】,北陈侯40农排|25000040【纯农排变】,东井尖坡兴440农排|25000440【纯农排变】,地震台,狼山三石子厂,南陈侯东坡井【纯农排变】,南陈侯分3320农排|25003320【纯农排变】,全水2880农排|25002880【纯农排变】,西荆尖村220|25000220,北陈侯村东新增农业【纯农排变】,冀红杰2390农排|25002390【纯农排变】,狼山小霞混用410|25000410【纯农排变】,","scope":"【影响街道/乡镇】白云乡【高危重要客户】无【影响客户】南陈侯、北陈侯、东井涧、狼山、西井涧、塔坡、北朝阳","startTime":"2019-08-05 03:35:20","stopDate":"2019-08-05 08:00:00","orgNo":"1340621","typeCode":"电网故障停限电","poweroffArea":"【全线路停电】停北朝阳面粉厂,张全雪2400农排|25002400【纯农排变】,冀红杰2390农排|25002390【纯农排变】,狼山东北农业3410【纯农排变】,狼山大队农业6474【纯农排变】,地震台,东井尖坡兴440农排|25000440【纯农排变】,东井尖新北2570农排|25002570【纯农排变】,东井尖350农排|25000350【纯农排变】,西荆尖村220|25000220,全水2880农排|25002880","poweroffReason":"【停电原因】由于树枝搭线自行脱落造成跳闸导致３５ＫＶ河口变电站１０ＫＶ５１１朝阳工业线路全线停电【变更送电】因抢修进度加快原因，送电时间由１２：００变更为０８：００【发布渠道】通过９５５９８发布","powerTime":"2019-08-05 07:36:22","powerComm":"已送电","subsNo":"","lineNo":"","tgNo":"","tgName":null,"infoStatus":"1","orgName":"国网顺平县电力局","typeName":null,"infoStatusName":null,"dateDay":null,"orgNos":null,"nowTime":null,"countyName":null,"streetName":null,"villageName":null,"roadName":null,"communityName":null,"tranName":null,"sdLineName":null,"cityCode":"1340621","cityName":"国网顺平县电力局","provinceCode":null,"stopTime":"2019-08-05 08:00:00","powerType":"全部","powerOffArea":"【全线路停电】停北朝阳面粉厂,张全雪2400农排|25002400【纯农排变】,冀红杰2390农排|25002390【纯农排变】,狼山东北农业3410【纯农排变】,狼山大队农业6474【纯农排变】,地震台,东井尖坡兴440农排|25000440【纯农排变】,东井尖新北2570农排|25002570【纯农排变】,东井尖350农排|25000350【纯农排变】,西荆尖村220|25000220,全水2880农排|25002880","powerOffReason":"【停电原因】由于树枝搭线自行脱落造成跳闸导致３５ＫＶ河口变电站１０ＫＶ５１１朝阳工业线路全线停电【变更送电】因抢修进度加快原因，送电时间由１２：００变更为０８：００【发布渠道】通过９５５９８发布","powerOffId":"2019080513000011"},{"poweroffId":2019080513000007,"sgpoweroffId":null,"subsName":"","lineName":"车站线517","pubTranName":"顺平县化工总厂,张立伟,顺平县天宏水泥制品销售部250,魏文学塑料厂,顺平县亚伟塑料制品有限公司,刘铁塑料厂,春龙塑料厂,吴喜录,刘占秋,马永会80,金锋化纤,广顺化纤,车站吹塑厂,顺平县世纪星汽车维修托运部,保定市交通运输局顺平县养路工区,康文考,河北浩源食品有限责任公司,刘国中塑料厂200,顺平县博茂化纤有限公司,高于铺村北新增综合0578,高于铺新增农业15号2912【纯农排变】,永发塑料厂,腾达塑料厂,袁全永,顺平县金峰化纤有限公司,顺平县金峰化纤有限公司3,高于铺路东村南2号农业(TD)8000【纯农排变】,刘铁,河北浩源食品有限责任公司200,高于铺新增农业13号【纯农排变】,顺平县通顺加油站,永盛塑料80,刘二军塑料厂,高于铺村东新架综合1748,冶炼厂,郄进才塑料厂,茂源塑料厂,康彦明塑料厂,鑫旺塑料厂变压器,顺平县火车站宏发塑料厂（刘波涛）,高于铺路东1号农业(TD)8001【纯农排变】,综合塑料厂,英民塑料厂1号,保定市立普特焊业有限公司顺平县分,顺达塑料厂,启明塑料厂,中原塑料厂,宏发塑料厂,吴建立,英民塑料厂,张占庆,保定恒开路桥工程有限公司顺平分公司1000,马永会,广顺化纤二期,张国辉塑料厂,顺平县冀丰塑料有限公司,张占房塑料厂,郄文革塑料厂,长城增强软管厂,高于铺制鞋厂,马建设塑料厂,袁建彬塑料厂,保定市立普特焊业有限公司,永盛塑料,0469130993-张立伟-专变-46724500-张立伟,立普特,高于铺800 农排|22000800【纯农排变】,","scope":"【影响街道/乡镇】高于铺镇【高危重要客户】无【影响客户】高于铺村北、高于铺村东、顺平县金峰化纤有限公司、河北浩源食品有限责任公司、保定广顺开发利用股份有限公司、保定市立普特焊业有限公司顺平县分公司、保定市满城塑料加工厂","startTime":"2019-08-05 03:11:11","stopDate":"2019-08-05 10:30:00","orgNo":"1340621","typeCode":"电网故障停限电","poweroffArea":"【全线路停电】停保定市立普特焊业有限公司顺平县分,冶炼厂,高于铺新增农业15号2912【纯农排变】,金锋化纤,保定市交通运输局顺平县养路工区,康彦明塑料厂,顺平县金峰化纤有限公司3,张占庆,顺平县冀丰塑料有限公司,鑫旺塑料厂变压器,高于铺路东村南2号农业(TD)8000【纯农排变】,马建设塑料厂,张占房塑料厂,顺平县火车站宏发塑料厂（刘波涛）,郄文革塑料厂,袁建彬塑料厂","poweroffReason":"【停电原因】由于受暴雨天气影响，郄文革变压器瓷瓶击穿导致３５ＫＶ益兴变电站１０ＫＶ车站５１７线路全线停电【变更送电】因抢修进度加快原因，送电时间由１２：１１变更为１０：３０【发布渠道】通过９５５９８发布","powerTime":"2019-08-05 10:10:12","powerComm":"已送电","subsNo":"","lineNo":"","tgNo":"","tgName":null,"infoStatus":"1","orgName":"国网顺平县电力局","typeName":null,"infoStatusName":null,"dateDay":null,"orgNos":null,"nowTime":null,"countyName":null,"streetName":null,"villageName":null,"roadName":null,"communityName":null,"tranName":null,"sdLineName":null,"cityCode":"1340621","cityName":"国网顺平县电力局","provinceCode":null,"stopTime":"2019-08-05 10:30:00","powerType":"全部","powerOffArea":"【全线路停电】停保定市立普特焊业有限公司顺平县分,冶炼厂,高于铺新增农业15号2912【纯农排变】,金锋化纤,保定市交通运输局顺平县养路工区,康彦明塑料厂,顺平县金峰化纤有限公司3,张占庆,顺平县冀丰塑料有限公司,鑫旺塑料厂变压器,高于铺路东村南2号农业(TD)8000【纯农排变】,马建设塑料厂,张占房塑料厂,顺平县火车站宏发塑料厂（刘波涛）,郄文革塑料厂,袁建彬塑料厂","powerOffReason":"【停电原因】由于受暴雨天气影响，郄文革变压器瓷瓶击穿导致３５ＫＶ益兴变电站１０ＫＶ车站５１７线路全线停电【变更送电】因抢修进度加快原因，送电时间由１２：１１变更为１０：３０【发布渠道】通过９５５９８发布","powerOffId":"2019080513000007"},{"poweroffId":2019080413000440,"sgpoweroffId":null,"subsName":"","lineName":"10kV572工业线","pubTranName":"0608633655-定州市森康进出口贸易有限公司-专变-127492768-定州市森康进出口贸易有限公司变压器,0608633655-定州市森康进出口贸易有限公司-专变-127492784-定州市森康进出口贸易有限公司变压器,定州市森康进出口贸易有限公司变压器,河北百川达体育用品有限公司,河北百川达体育用品有限公司变压器,河北百川体育用品有限公司变压器,0608633655-定州市森康进出口贸易有限公司-专变-127492776-定州市森康进出口贸易有限公司变压器,0608633655-定州市森康进出口贸易有限公司-专变-156521079-定州市森康进出口贸易有限公司变压器,","scope":"【影响街道/乡镇】明月店镇【高危重要客户】无【影响客户】百川达体育用品有限公司、森康厂","startTime":"2019-08-04 19:23:07","stopDate":"2019-08-04 20:30:00","orgNo":"1340610","typeCode":"电网故障停限电","poweroffArea":"【全线路停电】停0608633655-定州市森康进出口贸易有限公司-专变-127492776-定州市森康进出口贸易有限公司变压器,0608633655-定州市森康进出口贸易有限公司-专变-156521079-定州市森康进出口贸易有限公司变压器,0608633655-定州市森康进出口贸易有限公司-专变-127492768-定州市森康进出口贸易有限公司变压器,0608633655-定州市森康进出口贸易有限公司-专变-127492784-定州市森康进出口贸易有限公司变压器,定州市森康进出口贸易有限公司变压器,河北百川达体育用品有限公司,河北百川达体育用品有限公司变压器,河北百川体育用品有限公司变压器","poweroffReason":"【停电原因】由于受大雨恶劣天气影响造成百川达配变烧毁导致１１０ＫＶ明月店变电站１０ＫＶ５７２工业线路全线停电 【变更送电】因抢修进度加快原因，送电时间由０５日０８：００变更为０４日２０：３０ 【发布渠道】９５５９８","powerTime":"2019-08-04 20:19:32","powerComm":"已送电","subsNo":"","lineNo":"","tgNo":"","tgName":null,"infoStatus":"1","orgName":"国网定州市供电公司","typeName":null,"infoStatusName":null,"dateDay":null,"orgNos":null,"nowTime":null,"countyName":null,"streetName":null,"villageName":null,"roadName":null,"communityName":null,"tranName":null,"sdLineName":null,"cityCode":"1340610","cityName":"国网定州市供电公司","provinceCode":null,"stopTime":"2019-08-04 20:30:00","powerType":"全部","powerOffArea":"【全线路停电】停0608633655-定州市森康进出口贸易有限公司-专变-127492776-定州市森康进出口贸易有限公司变压器,0608633655-定州市森康进出口贸易有限公司-专变-156521079-定州市森康进出口贸易有限公司变压器,0608633655-定州市森康进出口贸易有限公司-专变-127492768-定州市森康进出口贸易有限公司变压器,0608633655-定州市森康进出口贸易有限公司-专变-127492784-定州市森康进出口贸易有限公司变压器,定州市森康进出口贸易有限公司变压器,河北百川达体育用品有限公司,河北百川达体育用品有限公司变压器,河北百川体育用品有限公司变压器","powerOffReason":"【停电原因】由于受大雨恶劣天气影响造成百川达配变烧毁导致１１０ＫＶ明月店变电站１０ＫＶ５７２工业线路全线停电 【变更送电】因抢修进度加快原因，送电时间由０５日０８：００变更为０４日２０：３０ 【发布渠道】９５５９８","powerOffId":"2019080413000440"},{"poweroffId":2019080413000391,"sgpoweroffId":null,"subsName":"","lineName":"10kV526常庄线","pubTranName":"南吕东南3150农排|21003150【纯农排变】,常大村2880农排|21002880【纯农排变】,南吕中新增综合,南吕中3120|21003120,白北村光伏扶贫变压器【光伏】,白大东南新增综合,白大北3090农排|21003090【纯农排变】,南吕村内新增综合5515,常大村9910|21009910,常大村东农业9200【纯农排变】,白大东综合,白大9390|21009390,南吕渠南3180农排|21003180【纯农排变】,白大村南3080农排|21003080【纯农排变】,白西村南新增综合7343,五申8370农排|21008370【纯农排变】,南吕东3130|21003130,","scope":"【影响街道/乡镇】白云乡【高危重要客户】无【影响客户】常庄大村、常庄北庄、白云大村、白云北庄、白云西庄、南吕村、白云政府、常北庄石碴厂、顺兴物业、保定京昆高速顺平服务区、白庙基建工程、白北罐头厂、红祥石砖厂、顺平县英虎农业机械制造有限公司","startTime":"2019-08-04 17:16:14","stopDate":"2019-08-04 19:30:00","orgNo":"1340621","typeCode":"电网故障停限电","poweroffArea":"【全线路停电】停南吕东南3150农排|21003150【纯农排变】,南吕东3130|21003130,常大村9910|21009910,南吕中新增综合,南吕渠南3180农排|21003180【纯农排变】,常大村2880农排|21002880【纯农排变】,白大9390|21009390,五申8370农排|21008370【纯农排变】,白大东综合,白大村南3080农排|21003080","poweroffReason":"【停电原因】由于南吕１０６２０台区出线烧毁导致１１０ＫＶ甘城变电站１０ＫＶ５２６常庄线路全线停电【变更送电】因抢修进度加快原因，送电时间由２２：００变更为１９：３０【发布渠道】通过９５５９８发布","powerTime":"2019-08-04 18:49:51","powerComm":"已送电","subsNo":"","lineNo":"","tgNo":"","tgName":null,"infoStatus":"1","orgName":"国网顺平县电力局","typeName":null,"infoStatusName":null,"dateDay":null,"orgNos":null,"nowTime":null,"countyName":null,"streetName":null,"villageName":null,"roadName":null,"communityName":null,"tranName":null,"sdLineName":null,"cityCode":"1340621","cityName":"国网顺平县电力局","provinceCode":null,"stopTime":"2019-08-04 19:30:00","powerType":"全部","powerOffArea":"【全线路停电】停南吕东南3150农排|21003150【纯农排变】,南吕东3130|21003130,常大村9910|21009910,南吕中新增综合,南吕渠南3180农排|21003180【纯农排变】,常大村2880农排|21002880【纯农排变】,白大9390|21009390,五申8370农排|21008370【纯农排变】,白大东综合,白大村南3080农排|21003080","powerOffReason":"【停电原因】由于南吕１０６２０台区出线烧毁导致１１０ＫＶ甘城变电站１０ＫＶ５２６常庄线路全线停电【变更送电】因抢修进度加快原因，送电时间由２２：００变更为１９：３０【发布渠道】通过９５５９８发布","powerOffId":"2019080413000391"},{"poweroffId":2019080413000383,"sgpoweroffId":null,"subsName":"","lineName":"南郊线513","pubTranName":"郎村野外新增9号【纯农排变】,郎村野外新增17号【纯农排变】,郎村野外新增14号【纯农排变】,郎村野外新增21号【纯农排变】,","scope":"【影响街道/乡镇】于家庄乡 【高危重要客户】无 【影响客户】郎村、部队、二医院","startTime":"2019-08-13 06:00:00","stopDate":"2019-08-13 18:00:00","orgNo":"1340617","typeCode":"计划停电","poweroffArea":"【分支停电】停郎村野外新增21号【纯农排变】,郎村野外新增9号【纯农排变】,郎村野外新增17号【纯农排变】,郎村野外新增14号【纯农排变】","poweroffReason":"【停电原因】由于高速撤线导致２２０ＫＶ南郊变电站南郊线５１３线路砖厂分支１１号杆开关以下停电 【变更送电】无 【发布渠道】保定市满城电视台（８月４日至８月１２日１９：００－２０：００之间）屏幕上方滚动","powerTime":"2019-08-13 17:58:13","powerComm":"已送电","subsNo":"","lineNo":"","tgNo":"","tgName":null,"infoStatus":"1","orgName":"国网满城县供电公司","typeName":null,"infoStatusName":null,"dateDay":null,"orgNos":null,"nowTime":null,"countyName":null,"streetName":null,"villageName":null,"roadName":null,"communityName":null,"tranName":null,"sdLineName":null,"cityCode":"1340617","cityName":"国网满城县供电公司","provinceCode":null,"stopTime":"2019-08-13 18:00:00","powerType":"全部","powerOffArea":"【分支停电】停郎村野外新增21号【纯农排变】,郎村野外新增9号【纯农排变】,郎村野外新增17号【纯农排变】,郎村野外新增14号【纯农排变】","powerOffReason":"【停电原因】由于高速撤线导致２２０ＫＶ南郊变电站南郊线５１３线路砖厂分支１１号杆开关以下停电 【变更送电】无 【发布渠道】保定市满城电视台（８月４日至８月１２日１９：００－２０：００之间）屏幕上方滚动","powerOffId":"2019080413000383"}],"pageModel":{"pageNow":691,"totalCount":10973,"totalPage":1098,"tableRows":0,"pageCount":10,"beginCount":6900},"isExperi":"1"}