{"message":"","today":"2020-06-15","seleList":[{"poweroffId":2019080413000359,"sgpoweroffId":null,"subsName":"","lineName":"高村536","pubTranName":"中高村10村北,","scope":"【影响街道/乡镇】高村镇【高危重要客户】无【影响客户】中高村","startTime":"2019-08-04 15:47:06","stopDate":"2019-08-04 20:00:00","orgNo":"1340625","typeCode":"电网故障停限电","poweroffArea":"【单台区停电】停中高村10村北","poweroffReason":"【停电原因】由于电线断线导致３５ＫＶ燕发变电站高村５３６线路中高村１０＃公变台区停电【变更送电】无【发布渠道】通过９５５９８发布","powerTime":"2019-08-04 19:06:10","powerComm":"已送电","subsNo":"","lineNo":"","tgNo":"","tgName":null,"infoStatus":"1","orgName":"国网易县供电公司","typeName":null,"infoStatusName":null,"dateDay":null,"orgNos":null,"nowTime":null,"countyName":null,"streetName":null,"villageName":null,"roadName":null,"communityName":null,"tranName":null,"sdLineName":null,"cityCode":"1340625","cityName":"国网易县供电公司","provinceCode":null,"stopTime":"2019-08-04 20:00:00","powerType":"全部","powerOffArea":"【单台区停电】停中高村10村北","powerOffReason":"【停电原因】由于电线断线导致３５ＫＶ燕发变电站高村５３６线路中高村１０＃公变台区停电【变更送电】无【发布渠道】通过９５５９８发布","powerOffId":"2019080413000359"},{"poweroffId":2019080413000354,"sgpoweroffId":null,"subsName":"","lineName":"新柳村线523","pubTranName":"新柳20#农业【纯农排变】,新柳新增1#（64）农业【纯农排变】,西柳村17#农业【纯农排变】,新柳新增2#（65）农业【纯农排变】,西柳砖厂,边渡口村北远6#农业【纯农排变】,新柳综合39,西柳村东综合18,高阳县鑫泽巾被厂变压器,张伯超,北柳庄村东47#农业【纯农排变】,西柳村东50#农业【纯农排变】,边渡口村北新增综合,高阳县润丰粮食收购站变压器,边渡口东南33#农业【纯农排变】,西柳村东新增综合,西柳小白河23#农业【纯农排变】,边渡口村北5#农业【纯农排变】,文记果园,边渡口中学,新柳东南综合38,西柳村西北综合,西柳村51#农业【纯农排变】,西柳面厂1#,西柳村西（南）62#农业【纯农排变】,新柳东南19#农业【纯农排变】,边渡口57#农业【纯农排变】,小冯村,西柳村西综合61,恒康纺织有限公司,边渡口校边综合,西柳工业区综合,西柳村西(北）63#农业【纯农排变】,新柳东方农场21#农业【纯农排变】,边渡口,文计果园,姜齐庄综合11,西柳村里综合,新柳村南新增综合,边渡口58#农业【纯农排变】,北柳庄28#农业【纯农排变】,新柳西南37#农业【纯农排变】,新柳东方农场22#农业【纯农排变】,西柳村西北9#农业【纯农排变】,齐敬增,边渡口乡35#农业【纯农排变】,张克强水洗厂,西演化工厂,边渡口村东66综合变压器,西柳村东8#农业【纯农排变】,边渡口村北综合56,天丰农场,西演砖厂,中国移动通信集团河北有限公司高阳分公司变压器,边渡口后增60#农业【纯农排变】,北柳庄村西48#农业【纯农排变】,新型建筑材料厂,新柳小白河,新柳西40#农业【纯农排变】,姜齐庄10#农业【纯农排变】,西柳砖厂(子),边渡口东北34#农业【纯农排变】,张克强水洗厂(子),河北丰汇能源科技有限公司变压器,西柳村综合12,西柳村东远46#农业【纯农排变】,新柳村西远综合,西柳村北16#农业【纯农排变】,小冯村新增5号农业【纯农排变】,西柳面厂2#,西柳村,北柳庄,","scope":"【影响街道/乡镇】庞口镇 【高危重要客户】无 【影响客户】新柳、西柳、边渡口、姜齐庄、北柳庄、小冯村","startTime":"2019-08-04 15:32:00","stopDate":"2019-08-04 21:00:00","orgNo":"1340613","typeCode":"电网故障停限电","poweroffArea":"【分支停电】停西柳村东综合18,高阳县鑫泽巾被厂变压器,张伯超,北柳庄村东47#农业【纯农排变】,西柳村东50#农业【纯农排变】,边渡口村北新增综合,高阳县润丰粮食收购站变压器,边渡口东南33#农业【纯农排变】,西柳村东新增综合,西柳小白河23#农业【纯农排变】,边渡口村北5#农业【纯农排变】,文记果园,边渡口中学,新柳东南综合38,西柳村西北综合,西柳村51#农业【纯农排变】,西柳面厂1#,西柳村西（南）62#农业【纯农排变】,新柳东南19#农业【纯农排变】,边渡口57#农业【纯农排变】,小冯村,西柳村西综合61,恒康纺织有限公司,边渡口校边综合,西柳工业区综合,西柳村西(北）63#农业【纯农排变】,新柳东方农场21#农业【纯农排变】,边渡口,文计果园,姜齐庄综合11,西柳村里综合,新柳村南新增综合,边渡口58#农业【纯农排变】,北柳庄28#农业【纯农排变】,新柳西南37#农业【纯农排变】,新柳东方农场22#农业【纯农排变】,西柳村西北9#农业【纯农排变】,齐敬增,边渡口乡35#农业【纯农排变】,张克强水洗厂,西演化工厂,边渡口村东66综合变压器,西柳村东8#农业【纯农排变】,边渡口村北综合56,天丰农场,西演砖厂,中国移动通信集团河北有限公司高阳分公司变压器,边渡口后增60#农业【纯农排变】,北柳庄村西48#农业【纯农排变】,新型建筑材料厂,新柳小白河,新柳西40#农业【纯农排变】,姜齐庄10#农业【纯农排变】,西柳砖厂(子),边渡口东北34#农业【纯农排变】,张克强水洗厂(子),河北丰汇能源科技有限公司变压器,西柳村综合12,西柳村东远46#农业【纯农排变】,新柳村西远综合,西柳村北16#农业【纯农排变】,小冯村新增5号农业【纯农排变】,西柳面厂2#,西柳村,北柳庄,新柳20#农业【纯农排变】,新柳新增1#（64）农业【纯农排变】,西柳村17#农业【纯农排变】,新柳新增2#（65）农业【纯农排变】,西柳砖厂,边渡口村北远6#农业【纯农排变】,新柳综合39","poweroffReason":"【停电原因】由于汽车撞杆导致１１０ＫＶ西演变电站新柳村５２３线路主线１６号杆１６号开关以下停电【变更送电】因抢修进度加快原因，送电时间由２２：００变更为２１：００【发布渠道】通过９５５９８发布","powerTime":"2019-08-04 20:09:47","powerComm":"已送电","subsNo":"","lineNo":"","tgNo":"","tgName":null,"infoStatus":"1","orgName":"国网高阳县供电公司","typeName":null,"infoStatusName":null,"dateDay":null,"orgNos":null,"nowTime":null,"countyName":null,"streetName":null,"villageName":null,"roadName":null,"communityName":null,"tranName":null,"sdLineName":null,"cityCode":"1340613","cityName":"国网高阳县供电公司","provinceCode":null,"stopTime":"2019-08-04 21:00:00","powerType":"全部","powerOffArea":"【分支停电】停西柳村东综合18,高阳县鑫泽巾被厂变压器,张伯超,北柳庄村东47#农业【纯农排变】,西柳村东50#农业【纯农排变】,边渡口村北新增综合,高阳县润丰粮食收购站变压器,边渡口东南33#农业【纯农排变】,西柳村东新增综合,西柳小白河23#农业【纯农排变】,边渡口村北5#农业【纯农排变】,文记果园,边渡口中学,新柳东南综合38,西柳村西北综合,西柳村51#农业【纯农排变】,西柳面厂1#,西柳村西（南）62#农业【纯农排变】,新柳东南19#农业【纯农排变】,边渡口57#农业【纯农排变】,小冯村,西柳村西综合61,恒康纺织有限公司,边渡口校边综合,西柳工业区综合,西柳村西(北）63#农业【纯农排变】,新柳东方农场21#农业【纯农排变】,边渡口,文计果园,姜齐庄综合11,西柳村里综合,新柳村南新增综合,边渡口58#农业【纯农排变】,北柳庄28#农业【纯农排变】,新柳西南37#农业【纯农排变】,新柳东方农场22#农业【纯农排变】,西柳村西北9#农业【纯农排变】,齐敬增,边渡口乡35#农业【纯农排变】,张克强水洗厂,西演化工厂,边渡口村东66综合变压器,西柳村东8#农业【纯农排变】,边渡口村北综合56,天丰农场,西演砖厂,中国移动通信集团河北有限公司高阳分公司变压器,边渡口后增60#农业【纯农排变】,北柳庄村西48#农业【纯农排变】,新型建筑材料厂,新柳小白河,新柳西40#农业【纯农排变】,姜齐庄10#农业【纯农排变】,西柳砖厂(子),边渡口东北34#农业【纯农排变】,张克强水洗厂(子),河北丰汇能源科技有限公司变压器,西柳村综合12,西柳村东远46#农业【纯农排变】,新柳村西远综合,西柳村北16#农业【纯农排变】,小冯村新增5号农业【纯农排变】,西柳面厂2#,西柳村,北柳庄,新柳20#农业【纯农排变】,新柳新增1#（64）农业【纯农排变】,西柳村17#农业【纯农排变】,新柳新增2#（65）农业【纯农排变】,西柳砖厂,边渡口村北远6#农业【纯农排变】,新柳综合39","powerOffReason":"【停电原因】由于汽车撞杆导致１１０ＫＶ西演变电站新柳村５２３线路主线１６号杆１６号开关以下停电【变更送电】因抢修进度加快原因，送电时间由２２：００变更为２１：００【发布渠道】通过９５５９８发布","powerOffId":"2019080413000354"},{"poweroffId":2019080413000346,"sgpoweroffId":null,"subsName":"","lineName":"10KV明义514","pubTranName":"丁家洼村南二变压器【纯农排变】,丁家洼村内变压器,丁家洼村西变压器,丁家洼村北2变压器,南北庄村东三台区,丁家洼村西北变压器,西明义村西水变压器,西官庄村西专变压器【纯农排变】,丁家洼村北1变压器,西明义村西变压器,丁家洼村内2变压器,南北庄村内变压器,南北庄村北变压器,南北庄村南水变压器【纯农排变】,西明义村西水100变压器,南北庄村东1变压器,丁家洼村南变压器,西明义村北变压器,西明义村北水变压器,西明义村南变压器,西明义村北2变压器,南北庄村内二变压器,西明义村西北井变压器,西明义村内变压器,西明义村南2台区,南北庄村东2变压器,西明义村内3台区变压器,南北庄村南变压器,西明义村内2台区变压器,","scope":"【影响街道/乡镇】明义乡 【高危重要客户】无 【影响客户】西明义村、南北庄村、丁家洼村、西官庄村","startTime":"2019-08-04 15:16:32","stopDate":"2019-08-04 16:30:33","orgNo":"1340614","typeCode":"电网故障停限电","poweroffArea":"【分支停电】停西明义村西水100变压器,南北庄村东1变压器,丁家洼村南变压器,西明义村北变压器,西明义村北水变压器,西明义村南变压器,西明义村北2变压器,南北庄村内二变压器,西明义村西北井变压器,西明义村内变压器,西明义村南2台区,南北庄村东2变压器,西明义村内3台区变压器,南北庄村南变压器,西明义村内2台区变压器,丁家洼村南二变压器【纯农排变】,丁家洼村内变压器,丁家洼村西变压器,丁家洼村北2变压器,南北庄村东三台区,丁家洼村西北变压器,西明义村西水变压器,西官庄村西专变压器【纯农排变】,丁家洼村北1变压器,西明义村西变压器,丁家洼村内2变压器,南北庄村内变压器,南北庄村北变压器,南北庄村南水变压器【纯农排变】","poweroffReason":"【停电原因】由于Ａ相接地导致３５ＫＶ明义变电站１０ＫＶ明义５１４线路０１号杆至３２号杆停电 【变更送电】因抢修进度加快原因，送电时间由１９：３０变更为１６：３０ 【发布渠道】通过９５５９８发布","powerTime":"2019-08-04 16:12:50","powerComm":"已送电","subsNo":"","lineNo":"","tgNo":"","tgName":null,"infoStatus":"1","orgName":"国网涞水县供电公司","typeName":null,"infoStatusName":null,"dateDay":null,"orgNos":null,"nowTime":null,"countyName":null,"streetName":null,"villageName":null,"roadName":null,"communityName":null,"tranName":null,"sdLineName":null,"cityCode":"1340614","cityName":"国网涞水县供电公司","provinceCode":null,"stopTime":"2019-08-04 16:30:33","powerType":"全部","powerOffArea":"【分支停电】停西明义村西水100变压器,南北庄村东1变压器,丁家洼村南变压器,西明义村北变压器,西明义村北水变压器,西明义村南变压器,西明义村北2变压器,南北庄村内二变压器,西明义村西北井变压器,西明义村内变压器,西明义村南2台区,南北庄村东2变压器,西明义村内3台区变压器,南北庄村南变压器,西明义村内2台区变压器,丁家洼村南二变压器【纯农排变】,丁家洼村内变压器,丁家洼村西变压器,丁家洼村北2变压器,南北庄村东三台区,丁家洼村西北变压器,西明义村西水变压器,西官庄村西专变压器【纯农排变】,丁家洼村北1变压器,西明义村西变压器,丁家洼村内2变压器,南北庄村内变压器,南北庄村北变压器,南北庄村南水变压器【纯农排变】","powerOffReason":"【停电原因】由于Ａ相接地导致３５ＫＶ明义变电站１０ＫＶ明义５１４线路０１号杆至３２号杆停电 【变更送电】因抢修进度加快原因，送电时间由１９：３０变更为１６：３０ 【发布渠道】通过９５５９８发布","powerOffId":"2019080413000346"},{"poweroffId":2019080413000322,"sgpoweroffId":null,"subsName":"","lineName":"10kV511贾各庄线","pubTranName":"南峪0120|24000120,刘各庄0300#农排|24000300【纯农排变】,贾西庄小侯家0290|24000290,罗各庄南2020#农排|24002020【纯农排变】,司仓0240#农排|24000240【纯农排变】,新建绸子岭2060#农排|24002060【纯农排变】,新建偏郎峪0170|24000170,新建村西北井,新建绸子岭0160|24000160,贾西庄孟家0310#农排|24000310【纯农排变】,贾西庄郝家0220|24000220,中国移动,新建木兰沟混用0180|24000180,罗各庄0020#农排|24000020【纯农排变】,贾各庄村西0070|24000070,贾各庄0320#农排|24000320【纯农排变】,贾各庄格朗峪2050#农排|24002050【纯农排变】,新建涝底0150|24000150,贾西庄大候家农业8455【纯农排变】,贾各庄0090#农排|24000090【纯农排变】,司仓文凯100【纯农排变】,新建2440#农排|24002440【纯农排变】,刘各庄南坡1870#农排|24001870【纯农排变】,贾西庄刘金海农业6017【纯农排变】,贾西庄新增综合配变0125,南峪混用140|24000140,西安阳1320#农排|24001320【纯农排变】,贾各庄2480#农排|24002480【纯农排变】,贾西庄侯家0270|24000270,贾各庄格郎峪0190|24000190,南峪0250#农排|24000250【纯农排变】,新建涝底1860#农排|24001860【纯农排变】,刘各庄0050|24000050,罗各庄大队井【纯农排变】,贾各庄0080#农排|24000080【纯农排变】,南峪0110#农排|24000110【纯农排变】,贾各庄0330|24000330,南峪0100#农排|24000100【纯农排变】,贾西庄郝家农业8457【纯农排变】,贾各庄新增农业8451【纯农排变】,刘各庄0040#农排|24000040【纯农排变】,南峪0130#农排|24000130【纯农排变】,罗各庄村0030|24000030,贾各庄新增综合8447,刘各庄新增综合8449,贾西庄孟家0210|24000210,贾西庄南沟0200#农排|24000200【纯农排变】,南峪2640|24002640,新建村新增3号农业【纯农排变】,贾西庄南沟0260|24000260,","scope":"【影响街道/乡镇】安阳乡【高危重要客户】无【影响客户】罗各庄、刘各庄、贾各庄、贾西庄、南峪、新建、涝底、绸子岭、偏郎峪、木兰沟","startTime":"2019-08-04 14:38:31","stopDate":"2019-08-04 19:30:00","orgNo":"1340621","typeCode":"电网故障停限电","poweroffArea":"【全线路停电】停新建木兰沟混用0180|24000180,贾西庄小侯家0290|24000290,南峪2640|24002640,新建村西北井,南峪0250#农排|24000250【纯农排变】,贾各庄村西0070|24000070,贾西庄郝家农业8457【纯农排变】,罗各庄村0030|24000030,贾西庄郝家0220|24000220,贾西庄侯家0270|24000270,贾各庄新增综合8447,刘各庄0040#农排|24000040【纯农排变】","poweroffReason":"【停电原因】由于涝底１８６０农业变压器吊瓶击穿导致３５ＫＶ安阳变电站１０ＫＶ５１１贾各庄线路全线停电【变更送电】因抢修进度加快原因，送电时间由２２：００变更为１９：３０【发布渠道】通过９５５９８发布","powerTime":"2019-08-04 19:03:02","powerComm":"已送电","subsNo":"","lineNo":"","tgNo":"","tgName":null,"infoStatus":"1","orgName":"国网顺平县电力局","typeName":null,"infoStatusName":null,"dateDay":null,"orgNos":null,"nowTime":null,"countyName":null,"streetName":null,"villageName":null,"roadName":null,"communityName":null,"tranName":null,"sdLineName":null,"cityCode":"1340621","cityName":"国网顺平县电力局","provinceCode":null,"stopTime":"2019-08-04 19:30:00","powerType":"全部","powerOffArea":"【全线路停电】停新建木兰沟混用0180|24000180,贾西庄小侯家0290|24000290,南峪2640|24002640,新建村西北井,南峪0250#农排|24000250【纯农排变】,贾各庄村西0070|24000070,贾西庄郝家农业8457【纯农排变】,罗各庄村0030|24000030,贾西庄郝家0220|24000220,贾西庄侯家0270|24000270,贾各庄新增综合8447,刘各庄0040#农排|24000040【纯农排变】","powerOffReason":"【停电原因】由于涝底１８６０农业变压器吊瓶击穿导致３５ＫＶ安阳变电站１０ＫＶ５１１贾各庄线路全线停电【变更送电】因抢修进度加快原因，送电时间由２２：００变更为１９：３０【发布渠道】通过９５５９８发布","powerOffId":"2019080413000322"},{"poweroffId":2019080413000316,"sgpoweroffId":null,"subsName":"","lineName":"10kV515齐营线","pubTranName":"正南庄综合1台区,刘佃庄农排9台区【纯农排变】,南口农排3台区【纯农排变】,西南庄综合7台区,紫玉养殖厂,齐营综合12台区,刘佃庄综合10台区,齐营农排4台区【纯农排变】,刘佃庄综合1台区,西南庄农排2台区【纯农排变】,西南庄综合3台区,刘佃庄农排10台区【纯农排变】,正南庄综合4台区,齐营综合4台区,东口地,齐营综合6台区,正南庄综合6台区,齐营农排8台区【纯农排变】,刘佃庄农排1台区【纯农排变】,正南庄综合7台区,正南庄农排4台区【纯农排变】,东口农排2台区【纯农排变】,齐营综合1台区,南口农排4台区【纯农排变】,正南庄综合3台区,齐营综合10台区,齐营农排2台区【纯农排变】,齐营综合2台区,齐营农排12台区【纯农排变】,齐营综合7台区,中口农排3台区【纯农排变】,齐营农排9台区【纯农排变】,中国移动通信集团河北有限公司蠡县分公司刘佃庄村变压器,刘佃庄农排3台区【纯农排变】,齐营综合3台区,西南庄农排3台区【纯农排变】,齐营农排11台区【纯农排变】,齐营综合9台区,刘佃庄综合4台区,刘佃庄农排8台区【纯农排变】,东口农排4台区【纯农排变】,齐营农排6台区【纯农排变】,刘佃庄综合2台区,蠡县东口利兆特种养殖厂变压器,蠡县东口绿丹蓝养殖场变压器,蠡县东口第一养殖厂变压器,齐营农排5台区【纯农排变】,正南庄综合9台区,西南庄农排4台区【纯农排变】,冷冻厂,齐营农排13台区【纯农排变】,东口农排3台区【纯农排变】,中国石油天然气股份有限公司华北油田分公司,东口农排10台区【纯农排变】,西南庄农排1台区【纯农排变】,蠡县东口第二饲养厂变压器,正南庄综合8台区,刘佃庄农排6台区【纯农排变】,东口综合20台区,刘佃庄综合9台区,南口农排5台区【纯农排变】,刘佃庄综合8台区,正南庄综合2台区,刘佃庄农排4台区【纯农排变】,齐营综合8台区,刘佃庄农排7台区【纯农排变】,正南庄农排1台区【纯农排变】,齐营农排3台区【纯农排变】,刘佃庄农排2台区【纯农排变】,正南庄综合5台区,东口农排5台区【纯农排变】,齐营农排10台区【纯农排变】,东口农排8台区【纯农排变】,刘佃庄综合六台区,东口农排9台区【纯农排变】,东口农排6台区【纯农排变】,齐营农排7台区【纯农排变】,齐营综合11台区,刘佃庄综合5台区,齐营农排1台区【纯农排变】,刘佃庄综合7台区,南口农排2台区【纯农排变】,刘佃庄农排5台区【纯农排变】,齐营综合5台区,东口农排7台区【纯农排变】,正南庄农排2台区【纯农排变】,中口农排2台区【纯农排变】,正南庄农排3台区【纯农排变】,","scope":"【影响街道/乡镇】鲍墟乡【高危重要客户】无【影响客户】齐营村、东口村、刘佃庄村、西南庄村、正南庄村、南口村、西口村","startTime":"2019-08-04 14:31:10","stopDate":"2019-08-04 18:30:00","orgNo":"1340616","typeCode":"电网故障停限电","poweroffArea":"【全线路停电】停正南庄农排1台区【纯农排变】,齐营农排6台区【纯农排变】,刘佃庄综合六台区,正南庄农排4台区【纯农排变】,东口农排5台区【纯农排变】,刘佃庄综合4台区,东口农排8台区【纯农排变】,齐营综合12台区,刘佃庄综合5台区,正南庄农排2台区【纯农排变】,齐营综合9台区,刘佃庄农排4台区【纯农排变】,齐营综合1台区,正南庄综合2台区,刘佃庄农排1台区【纯农排变】,冷冻厂,刘佃庄农排6台区【纯农排变】,刘佃庄农排10台区【纯农排变】,紫玉养殖厂,齐营农排5台区【纯农排变】,齐营综合7台区,齐营综合10台区,齐营综合11台区,西南庄综合3台区,东口综合20台区,齐营综合8台区,西南庄农排1台区【纯农排变】,齐营农排4台区【纯农排变】,正南庄综合9台区,中口农排2台区【纯农排变】,齐营农排3台区【纯农排变】,正南庄农排3台区【纯农排变】,蠡县东口利兆特种养殖厂变压器,刘佃庄农排5台区【纯农排变】,蠡县东口绿丹蓝养殖场变压器,东口农排4台区【纯农排变】,正南庄综合6台区,齐营农排1台区【纯农排变】,正南庄综合1台区,正南庄综合4台区,东口农排10台区【纯农排变】,正南庄综合7台区,正南庄综合8台区,西南庄农排2台区【纯农排变】,正南庄综合5台区,齐营农排10台区【纯农排变】,齐营综合5台区,中国移动通信集团河北有限公司蠡县分公司刘佃庄村变压器,齐营农排2台区【纯农排变】,齐营农排11台区【纯农排变】,东口农排6台区【纯农排变】,刘佃庄综合9台区,东口农排9台区【纯农排变】,齐营农排12台区【纯农排变】,刘佃庄综合1台区,刘佃庄农排3台区【纯农排变】,东口农排7台区【纯农排变】,刘佃庄农排9台区【纯农排变】,刘佃庄农排2台区【纯农排变】,东口地,齐营农排13台区【纯农排变】,蠡县东口第二饲养厂变压器,西南庄农排4台区【纯农排变】,刘佃庄综合8台区,刘佃庄农排8台区【纯农排变】,南口农排4台区【纯农排变】,齐营综合4台区,刘佃庄综合2台区,中口农排3台区【纯农排变】,齐营综合6台区,刘佃庄农排7台区【纯农排变】,刘佃庄综合7台区,正南庄综合3台区,刘佃庄综合10台区,蠡县东口第一养殖厂变压器,南口农排5台区【纯农排变】,南口农排2台区【纯农排变】,齐营农排8台区【纯农排变】,西南庄农排3台区【纯农排变】,齐营农排9台区【纯农排变】,齐营综合2台区,齐营农排7台区【纯农排变】,中国石油天然气股份有限公司华北油田分公司,西南庄综合7台区,齐营综合3台区,东口农排2台区【纯农排变】,南口农排3台区【纯农排变】,东口农排3台区【纯农排变】","poweroffReason":"【停电原因】由于受大雨恶劣天气影响线路接地导致３５ＫＶ鲍墟变电站１０ＫＶ齐营５１５线路全线停电【变更送电】因抢修进度加快原因，送电时间由２３：００变更为１８：３０【发布渠道】通过９５５９８发布","powerTime":"2019-08-04 17:50:08","powerComm":"已送电","subsNo":"","lineNo":"","tgNo":"","tgName":null,"infoStatus":"1","orgName":"国网蠡县供电公司","typeName":null,"infoStatusName":null,"dateDay":null,"orgNos":null,"nowTime":null,"countyName":null,"streetName":null,"villageName":null,"roadName":null,"communityName":null,"tranName":null,"sdLineName":null,"cityCode":"1340616","cityName":"国网蠡县供电公司","provinceCode":null,"stopTime":"2019-08-04 18:30:00","powerType":"全部","powerOffArea":"【全线路停电】停正南庄农排1台区【纯农排变】,齐营农排6台区【纯农排变】,刘佃庄综合六台区,正南庄农排4台区【纯农排变】,东口农排5台区【纯农排变】,刘佃庄综合4台区,东口农排8台区【纯农排变】,齐营综合12台区,刘佃庄综合5台区,正南庄农排2台区【纯农排变】,齐营综合9台区,刘佃庄农排4台区【纯农排变】,齐营综合1台区,正南庄综合2台区,刘佃庄农排1台区【纯农排变】,冷冻厂,刘佃庄农排6台区【纯农排变】,刘佃庄农排10台区【纯农排变】,紫玉养殖厂,齐营农排5台区【纯农排变】,齐营综合7台区,齐营综合10台区,齐营综合11台区,西南庄综合3台区,东口综合20台区,齐营综合8台区,西南庄农排1台区【纯农排变】,齐营农排4台区【纯农排变】,正南庄综合9台区,中口农排2台区【纯农排变】,齐营农排3台区【纯农排变】,正南庄农排3台区【纯农排变】,蠡县东口利兆特种养殖厂变压器,刘佃庄农排5台区【纯农排变】,蠡县东口绿丹蓝养殖场变压器,东口农排4台区【纯农排变】,正南庄综合6台区,齐营农排1台区【纯农排变】,正南庄综合1台区,正南庄综合4台区,东口农排10台区【纯农排变】,正南庄综合7台区,正南庄综合8台区,西南庄农排2台区【纯农排变】,正南庄综合5台区,齐营农排10台区【纯农排变】,齐营综合5台区,中国移动通信集团河北有限公司蠡县分公司刘佃庄村变压器,齐营农排2台区【纯农排变】,齐营农排11台区【纯农排变】,东口农排6台区【纯农排变】,刘佃庄综合9台区,东口农排9台区【纯农排变】,齐营农排12台区【纯农排变】,刘佃庄综合1台区,刘佃庄农排3台区【纯农排变】,东口农排7台区【纯农排变】,刘佃庄农排9台区【纯农排变】,刘佃庄农排2台区【纯农排变】,东口地,齐营农排13台区【纯农排变】,蠡县东口第二饲养厂变压器,西南庄农排4台区【纯农排变】,刘佃庄综合8台区,刘佃庄农排8台区【纯农排变】,南口农排4台区【纯农排变】,齐营综合4台区,刘佃庄综合2台区,中口农排3台区【纯农排变】,齐营综合6台区,刘佃庄农排7台区【纯农排变】,刘佃庄综合7台区,正南庄综合3台区,刘佃庄综合10台区,蠡县东口第一养殖厂变压器,南口农排5台区【纯农排变】,南口农排2台区【纯农排变】,齐营农排8台区【纯农排变】,西南庄农排3台区【纯农排变】,齐营农排9台区【纯农排变】,齐营综合2台区,齐营农排7台区【纯农排变】,中国石油天然气股份有限公司华北油田分公司,西南庄综合7台区,齐营综合3台区,东口农排2台区【纯农排变】,南口农排3台区【纯农排变】,东口农排3台区【纯农排变】","powerOffReason":"【停电原因】由于受大雨恶劣天气影响线路接地导致３５ＫＶ鲍墟变电站１０ＫＶ齐营５１５线路全线停电【变更送电】因抢修进度加快原因，送电时间由２３：００变更为１８：３０【发布渠道】通过９５５９８发布","powerOffId":"2019080413000316"},{"poweroffId":2019080413000303,"sgpoweroffId":null,"subsName":"","lineName":"豹子峪线515","pubTranName":"晓新村3#,晓新村4#,豹子峪村王泰变压器,五道河村7号,豹子峪13台区变压器,豹子峪村10#,忠义村村1#,五道河村8号,豹子峪村4#,五道河村6#,晓新村2#,豹子峪村赵立堂200,晓新村1#,豹子峪12台区变压器,忠义村村3#,五道河村3#,五道河村2#,豹子峪村3#,豹子峪村2#,豹子峪村6#,豹子峪8号,豹子峪11#机井变压器,忠义村村2#,五道河村4#,豹子峪村5#,五道河村5#,豹子峪村1#,豹子峪金矿,豹子峪村7#,","scope":"【影响街道/乡镇】西陵镇【高危重要客户】无【影响客户】豹子峪村、晓新村、五道河村、忠义村","startTime":"2019-08-04 14:08:48","stopDate":"2019-08-04 17:00:00","orgNo":"1340625","typeCode":"电网故障停限电","poweroffArea":"【分支停电】停豹子峪村赵立堂200,晓新村3#,晓新村4#,豹子峪村王泰变压器,五道河村7号,豹子峪13台区变压器,晓新村1#,豹子峪12台区变压器,忠义村村3#,五道河村3#,五道河村2#,豹子峪村3#,豹子峪村2#,豹子峪村6#,豹子峪8号,晓新村2#,豹子峪11#机井变压器,忠义村村2#,五道河村4#,豹子峪村5#,五道河村5#,豹子峪村1#,豹子峪金矿,豹子峪村7#,豹子峪村10#,忠义村村1#,五道河村8号,豹子峪村4#,五道河村6#","poweroffReason":"【停电原因】由于电缆烧毁导致１１０ＫＶ西陵变电站豹子峪线５１５线路００５号杆至０３５号杆之间停电【变更送电】因抢修进度加快原因，送电时间由２２:００变更为１７:００【发布渠道】通过９５５９８发布","powerTime":"2019-08-04 16:36:44","powerComm":"已送电","subsNo":"","lineNo":"","tgNo":"","tgName":null,"infoStatus":"1","orgName":"国网易县供电公司","typeName":null,"infoStatusName":null,"dateDay":null,"orgNos":null,"nowTime":null,"countyName":null,"streetName":null,"villageName":null,"roadName":null,"communityName":null,"tranName":null,"sdLineName":null,"cityCode":"1340625","cityName":"国网易县供电公司","provinceCode":null,"stopTime":"2019-08-04 17:00:00","powerType":"全部","powerOffArea":"【分支停电】停豹子峪村赵立堂200,晓新村3#,晓新村4#,豹子峪村王泰变压器,五道河村7号,豹子峪13台区变压器,晓新村1#,豹子峪12台区变压器,忠义村村3#,五道河村3#,五道河村2#,豹子峪村3#,豹子峪村2#,豹子峪村6#,豹子峪8号,晓新村2#,豹子峪11#机井变压器,忠义村村2#,五道河村4#,豹子峪村5#,五道河村5#,豹子峪村1#,豹子峪金矿,豹子峪村7#,豹子峪村10#,忠义村村1#,五道河村8号,豹子峪村4#,五道河村6#","powerOffReason":"【停电原因】由于电缆烧毁导致１１０ＫＶ西陵变电站豹子峪线５１５线路００５号杆至０３５号杆之间停电【变更送电】因抢修进度加快原因，送电时间由２２:００变更为１７:００【发布渠道】通过９５５９８发布","powerOffId":"2019080413000303"},{"poweroffId":2019080413000286,"sgpoweroffId":null,"subsName":"","lineName":"10kV路灯线519","pubTranName":"北大冉养猪场,2北大冉外11【纯农排变】,0565045922-保定市南市区北沟头五金厂-专变-118733691-保定市南市区北沟头五金厂,保定畅隆铸造有限公司,2北大冉外14【纯农排变】,德嘉养殖场,雷达站,变压器,宋志强予制厂,0553830257-清苑县住房和城乡建设局-专变-69378842-清苑县财政局,保定市凯运公交客运有限公司,富强造纸厂,清苑县木光煤炭销售有限公司,2北沟头外8【纯农排变】,清苑县住房和城乡建设局,保定明凯物资商贸有限公司,清苑县红旗管件有限公司,2北大冉外13【纯农排变】,保定市冀庚机械制造有限公司,2北沟头外2【纯农排变】,保定市清苑区永兴仓储服务部,2北沟头外6【纯农排变】,保定市清苑县恒泰造纸厂,安康,保定市锋盛铸造有限公司,保定市利尚电气设备制造有限公司,0555739644-保定市南市区东旭养殖场-专变-94782886-保定市南市区东旭养殖场,保定市利源仓储服务有限公司,清苑县旗利砼业有限公司,保定新星铁路配件有限公司,清苑县武装部,保定市南市区兰生冲件厂,保定市南市区精艺标准件棒材加工厂,2北大冉外10【纯农排变】,保定市南市区正鑫机械加工厂,清苑县人民客运有限公司,阮庄邮电局,北沟头面粉厂,良种厂,保定市南市区佳诚食品厂,清苑县文禄机械厂,保定鑫福达工贸有限公司,0628552716-保定市清苑区排水管理所-专变-140690282-清苑县住房和城乡建设局,清苑县强力砼业有限公司,省粮食储备库,金风帆电解液厂,粮局直属库1,粮局直属库2,菅进强养殖场,东胜管件厂,北沟头柴文林,大唐清苑热电有限公司,佳美汽车,保定市鑫利源通物资有限公司,2北沟头外7【纯农排变】,0547209111-保定明星机械零部件制造有限公司-专变-213335124-保定明星机械零部件制造有限公司,0387486116-保定市升源机械铸造有限公司-专变-131186099-|保定市升源机械铸造有限公司,复合肥厂,保定市鑫昌合成树脂有限公司,0387486321-省库-专变-45312501-省库,2北沟头外4【纯农排变】,2北沟头外5【纯农排变】,保定市华光泰电气设备有限公司,0677790570-保定市莲池区风顺废旧金属回收站-专变-219462746-保定市莲池区顺废旧金属回收站,保定云悦酒店管理有限公司,0632246050-保定市昌茂恒冠中空铝条机械制造有限公司-专变-144749053-清苑县冉鑫机械加工厂,2北沟头外3【纯农排变】,清苑县源邦搬运站,0626424219-河北尊澳废品回收有限公司-专变-138805546-保定市帼琳物资有限公司,0627940185-保定市俊芝冷冻有限公司-专变-139784552-保定市俊芝冷冻有限公司,开关厂,清苑县泽盛砼业有限公司,清苑县瑞意厢体制造有限公司,保定市南市区宇通石油城第二加油站,2中冉外1【纯农排变】,2北大冉外12【纯农排变】,0387486552-保定市志诚电力实业有限责任公司-专变-45312458-志诚公司锅炉房,保定骤盛新能源科技有限公司,保定市帼琳物资有限公司,0549289007-保定市沧龙不锈钢精密铸造有限公司-专","scope":"【影响街道/乡镇】五尧乡、清苑镇 【高危重要客户】无 【影响客户】五尧乡政府、北沟头、北大冉、国家粮食储备库、志诚公司","startTime":"2019-08-04 15:30:00","stopDate":"2019-08-04 17:30:00","orgNo":"1340618","typeCode":"其他临时停电","poweroffArea":"【全线路停电】停清苑县泽盛砼业有限公司,清苑县瑞意厢体制造有限公司,保定市南市区宇通石油城第二加油站,2中冉外1【纯农排变】,2北大冉外12【纯农排变】,0387486552-保定市志诚电力实业有限责任公司-专变-45312458-志诚公司锅炉房,保定骤盛新能源科技有限公司,保定市帼琳物资有限公司,0549289007-保定市沧龙不锈钢精密铸造有限公司-专变-156446870-保定市沧龙不锈钢精密铸造有限公司,清苑县通达物流有限公司,付永会养殖厂,北大冉养猪场,2北大冉外11【纯农排变】,0565045922-保定市南市区北沟头五金厂-专变-118733691-保定市南市区北沟头五金厂,保定畅隆铸造有限公司,2北大冉外14【纯农排变】,德嘉养殖场,雷达站,变压器,宋志强予制厂,0553830257-清苑县住房和城乡建设局-专变-69378842-清苑县财政局,保定市凯运公交客运有限公司,富强造纸厂,清苑县木光煤炭销售有限公司,2北沟头外8【纯农排变】,清苑县住房和城乡建设局,保定明凯物资商贸有限公司,清苑县红旗管件有限公司,2北大冉外13【纯农排变】,保定市冀庚机械制造有限公司,2北沟头外2【纯农排变】,保定市清苑区永兴仓储服务部,2北沟头外6【纯农排变】,保定市清苑县恒泰造纸厂,安康,保定市锋盛铸造有限公司,保定市利尚电气设备制造有限公司,0555739644-保定市南市区东旭养殖场-专变-94782886-保定市南市区东旭养殖场,保定市利源仓储服务有限公司,清苑县旗利砼业有限公司,保定新星铁路配件有限公司,清苑县武装部,保定市南市区兰生冲件厂,保定市南市区精艺标准件棒材加工厂,2北大冉外10【纯农排变】,保定市南市区正鑫机械加工厂,清苑县人民客运有限公司,阮庄邮电局,北沟头面粉厂,良种厂,保定市南市区佳诚食品厂,清苑县文禄机械厂,保定鑫福达工贸有限公司,0628552716-保定市清苑区排水管理所-专变-140690282-清苑县住房和城乡建设局,清苑县强力砼业有限公司,省粮食储备库,金风帆电解液厂,粮局直属库1,粮局直属库2,菅进强养殖场,东胜管件厂,北沟头柴文林,大唐清苑热电有限公司,佳美汽车,保定市鑫利源通物资有限公司,2北沟头外7【纯农排变】,0547209111-保定明星机械零部件制造有限公司-专变-213335124-保定明星机械零部件制造有限公司,0387486116-保定市升源机械铸造有限公司-专变-131186099-|保定市升源机械铸造有限公司,保定市南市区众鑫机械厂,清苑国家粮食储备库,0628426754-清苑县长胜钢材经销处-专变-140690021-清苑县长胜钢材经销处,清苑县敬方机械厂,2北沟头外1【纯农排变】,国库三号,移动通讯清苑营业部,保定市汇丰变压器有限公司,三星废旧物资回收站,高平安,中国石油化工股份有限公司河北清苑分公司,|北沟头贾立云,河北地源利亨酒店管理有限公司,保定五味盉食品制造有限公司,保定市源智仓储有限公司,复合肥厂,保定市鑫昌合成树脂有限公司,0387486321-省库-专变-45312501-省库,2北沟头外4【纯农排变】,2北沟头外5【纯农排变】,保定市华光泰电气设备有限公司,0677790570-保定市莲池区风顺废旧金属回收站-专变-219462746-保定市莲池区顺废旧金属回收站,保定云悦酒店管理有限公司,0632246050-保定市昌茂恒冠中空铝条机械制造有限公司-专变-144749053-清苑县冉鑫机械加工厂,2北沟头外3【纯农排变】,清苑县源邦搬运站,0626424219-河北尊澳废品回收有限公司-专变-138805546-保定市帼琳物资有限公司,0627940185-保定市俊芝冷冻有限公司-专变-139784552-保定市俊芝冷冻有限公司,开关厂","poweroffReason":"【停电原因】由于保护装置板坏，需停电进行紧急抢修导致１１０ＫＶ阮庄变电站１０ＫＶ路灯线５１９线路全线停电 【变更送电】无 【发布渠道】通过９５５９８发布","powerTime":"2019-08-04 16:33:28","powerComm":"李海娟通知已送电","subsNo":"","lineNo":"","tgNo":"","tgName":null,"infoStatus":"1","orgName":"国网清苑县供电公司","typeName":null,"infoStatusName":null,"dateDay":null,"orgNos":null,"nowTime":null,"countyName":null,"streetName":null,"villageName":null,"roadName":null,"communityName":null,"tranName":null,"sdLineName":null,"cityCode":"1340618","cityName":"国网清苑县供电公司","provinceCode":null,"stopTime":"2019-08-04 17:30:00","powerType":"全部","powerOffArea":"【全线路停电】停清苑县泽盛砼业有限公司,清苑县瑞意厢体制造有限公司,保定市南市区宇通石油城第二加油站,2中冉外1【纯农排变】,2北大冉外12【纯农排变】,0387486552-保定市志诚电力实业有限责任公司-专变-45312458-志诚公司锅炉房,保定骤盛新能源科技有限公司,保定市帼琳物资有限公司,0549289007-保定市沧龙不锈钢精密铸造有限公司-专变-156446870-保定市沧龙不锈钢精密铸造有限公司,清苑县通达物流有限公司,付永会养殖厂,北大冉养猪场,2北大冉外11【纯农排变】,0565045922-保定市南市区北沟头五金厂-专变-118733691-保定市南市区北沟头五金厂,保定畅隆铸造有限公司,2北大冉外14【纯农排变】,德嘉养殖场,雷达站,变压器,宋志强予制厂,0553830257-清苑县住房和城乡建设局-专变-69378842-清苑县财政局,保定市凯运公交客运有限公司,富强造纸厂,清苑县木光煤炭销售有限公司,2北沟头外8【纯农排变】,清苑县住房和城乡建设局,保定明凯物资商贸有限公司,清苑县红旗管件有限公司,2北大冉外13【纯农排变】,保定市冀庚机械制造有限公司,2北沟头外2【纯农排变】,保定市清苑区永兴仓储服务部,2北沟头外6【纯农排变】,保定市清苑县恒泰造纸厂,安康,保定市锋盛铸造有限公司,保定市利尚电气设备制造有限公司,0555739644-保定市南市区东旭养殖场-专变-94782886-保定市南市区东旭养殖场,保定市利源仓储服务有限公司,清苑县旗利砼业有限公司,保定新星铁路配件有限公司,清苑县武装部,保定市南市区兰生冲件厂,保定市南市区精艺标准件棒材加工厂,2北大冉外10【纯农排变】,保定市南市区正鑫机械加工厂,清苑县人民客运有限公司,阮庄邮电局,北沟头面粉厂,良种厂,保定市南市区佳诚食品厂,清苑县文禄机械厂,保定鑫福达工贸有限公司,0628552716-保定市清苑区排水管理所-专变-140690282-清苑县住房和城乡建设局,清苑县强力砼业有限公司,省粮食储备库,金风帆电解液厂,粮局直属库1,粮局直属库2,菅进强养殖场,东胜管件厂,北沟头柴文林,大唐清苑热电有限公司,佳美汽车,保定市鑫利源通物资有限公司,2北沟头外7【纯农排变】,0547209111-保定明星机械零部件制造有限公司-专变-213335124-保定明星机械零部件制造有限公司,0387486116-保定市升源机械铸造有限公司-专变-131186099-|保定市升源机械铸造有限公司,保定市南市区众鑫机械厂,清苑国家粮食储备库,0628426754-清苑县长胜钢材经销处-专变-140690021-清苑县长胜钢材经销处,清苑县敬方机械厂,2北沟头外1【纯农排变】,国库三号,移动通讯清苑营业部,保定市汇丰变压器有限公司,三星废旧物资回收站,高平安,中国石油化工股份有限公司河北清苑分公司,|北沟头贾立云,河北地源利亨酒店管理有限公司,保定五味盉食品制造有限公司,保定市源智仓储有限公司,复合肥厂,保定市鑫昌合成树脂有限公司,0387486321-省库-专变-45312501-省库,2北沟头外4【纯农排变】,2北沟头外5【纯农排变】,保定市华光泰电气设备有限公司,0677790570-保定市莲池区风顺废旧金属回收站-专变-219462746-保定市莲池区顺废旧金属回收站,保定云悦酒店管理有限公司,0632246050-保定市昌茂恒冠中空铝条机械制造有限公司-专变-144749053-清苑县冉鑫机械加工厂,2北沟头外3【纯农排变】,清苑县源邦搬运站,0626424219-河北尊澳废品回收有限公司-专变-138805546-保定市帼琳物资有限公司,0627940185-保定市俊芝冷冻有限公司-专变-139784552-保定市俊芝冷冻有限公司,开关厂","powerOffReason":"【停电原因】由于保护装置板坏，需停电进行紧急抢修导致１１０ＫＶ阮庄变电站１０ＫＶ路灯线５１９线路全线停电 【变更送电】无 【发布渠道】通过９５５９８发布","powerOffId":"2019080413000286"},{"poweroffId":2019080413000283,"sgpoweroffId":null,"subsName":"","lineName":"10kV525高庄线","pubTranName":"南许农排三台区,南许面粉厂,高庄综合4台区变压器,南许综合17台区,南许综合14台区,客户投资_南许综合4台区,南许开花厂,高庄综合2台区,南许综合19台区,南许综合12台区,高庄农排1台区【纯农排变】,高庄农排3台区【纯农排变】,高庄综合1台区,南许农排2台区变压器【纯农排变】,南许综合6台区,益利毛纺厂变压器,南许综合13台区,0683759859-蠡县宏凯棉纺织厂-专变-223596485-蠡县宏凯棉纺织厂变压器,南许综合20台区,南许综合24台区变压器,南许梳绒厂,南许综合16台区,0664755083-中国石油天然气股份有限公司华北油田分公司-专变-202593684-中国石油天然气股份有限公司华北油田分公司变压器,南许农排十二台区,线头加工开花厂,客户投资_南许综合11台区,南许农排六台区,南许农排七台区,树理浇地,南许农排二台区,0681794595-蠡县南许二安化纤加工厂-专变-219745267-蠡县南许二安化纤加工厂变压器,南许综合7台区,南许综合9台区,南许综合21台区,中国移动通信集团河北有限公司蠡县分公司,客户投资_南许综合5台区,高庄综合3台区,南许农排8台区,南许农排11台区,南许农排十三台区,南许综合2台区,立源毛纺厂,蠡县正德综合养猪场变压器,恒发毛纺厂,蠡县南许小学变压器,南许烤鸭店,南许综合1台区,0617141804-蠡县南许二安化纤加工厂-专变-128570237-蠡县南许二安化纤加工厂变压器,南许村东浇地,保定利源毛纺织有限公司变压器,棉线加工厂,南许综合18台区,蠡县统力毛纺厂变压器,南许综合10台区,南许农排四台区,南许农排一台区,南许综合8台区,南许综合3台区,蠡县南许幼儿园变压器,蠡县正德养殖厂,0653453811-蠡县南许二安化纤加工厂-专变-183583595-蠡县南许二安化纤加工厂变压器,南许农排五台区,南许综合22台区变压器,南许水泥制板厂,高庄农排2台区【纯农排变】,南许综合15台区,","scope":"【影响街道/乡镇】大百尺镇【高危重要客户】无【影响客户】南许村、高庄村","startTime":"2019-08-04 13:07:47","stopDate":"2019-08-04 15:00:00","orgNo":"1340616","typeCode":"电网故障停限电","poweroffArea":"【全线路停电】停南许综合7台区,蠡县正德综合养猪场变压器,恒发毛纺厂,南许农排8台区,南许农排11台区,南许综合20台区,南许综合18台区,南许综合24台区变压器,立源毛纺厂,南许综合9台区,南许综合13台区,南许综合14台区,南许综合16台区,0664755083-中国石油天然气股份有限公司华北油田分公司-专变-202593684-中国石油天然气股份有限公司华北油田分公司变压器,南许农排十二台区,线头加工开花厂,南许农排一台区,南许综合3台区,南许面粉厂,蠡县南许幼儿园变压器,蠡县正德养殖厂,0653453811-蠡县南许二安化纤加工厂-专变-183583595-蠡县南许二安化纤加工厂变压器,南许农排五台区,南许农排2台区变压器【纯农排变】,南许农排三台区,高庄综合4台区变压器,南许综合17台区,南许农排十三台区,南许综合2台区,0683759859-蠡县宏凯棉纺织厂-专变-223596485-蠡县宏凯棉纺织厂变压器,蠡县南许小学变压器,南许综合1台区,南许农排七台区,蠡县统力毛纺厂变压器,南许综合10台区,南许农排四台区,南许村东浇地,保定利源毛纺织有限公司变压器,棉线加工厂,南许烤鸭店,南许综合22台区变压器,南许水泥制板厂,南许综合15台区,益利毛纺厂变压器,南许综合21台区,中国移动通信集团河北有限公司蠡县分公司,客户投资_南许综合11台区,高庄综合3台区,0617141804-蠡县南许二安化纤加工厂-专变-128570237-蠡县南许二安化纤加工厂变压器,南许综合8台区,0681794595-蠡县南许二安化纤加工厂-专变-219745267-蠡县南许二安化纤加工厂变压器,客户投资_南许综合5台区,南许农排六台区,树理浇地,南许农排二台区,客户投资_南许综合4台区,南许梳绒厂,南许开花厂,高庄综合2台区,高庄农排2台区【纯农排变】,南许综合19台区,南许综合12台区,高庄农排1台区【纯农排变】,高庄农排3台区【纯农排变】,高庄综合1台区,南许综合6台区","poweroffReason":"【停电原因】由于受大雨恶劣天气影响线路接地导致１１０ＫＶ刘铭庄变电站１０ＫＶ高庄５２５线路全线停电【变更送电】因抢修进度加快原因，送电时间由２３：００变更为１５：００【发布渠道】通过９５５９８发布","powerTime":"2019-08-04 14:22:11","powerComm":"已送电","subsNo":"","lineNo":"","tgNo":"","tgName":null,"infoStatus":"1","orgName":"国网蠡县供电公司","typeName":null,"infoStatusName":null,"dateDay":null,"orgNos":null,"nowTime":null,"countyName":null,"streetName":null,"villageName":null,"roadName":null,"communityName":null,"tranName":null,"sdLineName":null,"cityCode":"1340616","cityName":"国网蠡县供电公司","provinceCode":null,"stopTime":"2019-08-04 15:00:00","powerType":"全部","powerOffArea":"【全线路停电】停南许综合7台区,蠡县正德综合养猪场变压器,恒发毛纺厂,南许农排8台区,南许农排11台区,南许综合20台区,南许综合18台区,南许综合24台区变压器,立源毛纺厂,南许综合9台区,南许综合13台区,南许综合14台区,南许综合16台区,0664755083-中国石油天然气股份有限公司华北油田分公司-专变-202593684-中国石油天然气股份有限公司华北油田分公司变压器,南许农排十二台区,线头加工开花厂,南许农排一台区,南许综合3台区,南许面粉厂,蠡县南许幼儿园变压器,蠡县正德养殖厂,0653453811-蠡县南许二安化纤加工厂-专变-183583595-蠡县南许二安化纤加工厂变压器,南许农排五台区,南许农排2台区变压器【纯农排变】,南许农排三台区,高庄综合4台区变压器,南许综合17台区,南许农排十三台区,南许综合2台区,0683759859-蠡县宏凯棉纺织厂-专变-223596485-蠡县宏凯棉纺织厂变压器,蠡县南许小学变压器,南许综合1台区,南许农排七台区,蠡县统力毛纺厂变压器,南许综合10台区,南许农排四台区,南许村东浇地,保定利源毛纺织有限公司变压器,棉线加工厂,南许烤鸭店,南许综合22台区变压器,南许水泥制板厂,南许综合15台区,益利毛纺厂变压器,南许综合21台区,中国移动通信集团河北有限公司蠡县分公司,客户投资_南许综合11台区,高庄综合3台区,0617141804-蠡县南许二安化纤加工厂-专变-128570237-蠡县南许二安化纤加工厂变压器,南许综合8台区,0681794595-蠡县南许二安化纤加工厂-专变-219745267-蠡县南许二安化纤加工厂变压器,客户投资_南许综合5台区,南许农排六台区,树理浇地,南许农排二台区,客户投资_南许综合4台区,南许梳绒厂,南许开花厂,高庄综合2台区,高庄农排2台区【纯农排变】,南许综合19台区,南许综合12台区,高庄农排1台区【纯农排变】,高庄农排3台区【纯农排变】,高庄综合1台区,南许综合6台区","powerOffReason":"【停电原因】由于受大雨恶劣天气影响线路接地导致１１０ＫＶ刘铭庄变电站１０ＫＶ高庄５２５线路全线停电【变更送电】因抢修进度加快原因，送电时间由２３：００变更为１５：００【发布渠道】通过９５５９８发布","powerOffId":"2019080413000283"},{"poweroffId":2019080413000271,"sgpoweroffId":null,"subsName":"","lineName":"梁各庄线523","pubTranName":"南百泉7#生态园2,南百泉村5#,下岭村1#,南百泉村1#,南百泉村3#村内,南百泉村2#,下岭村3台区变压器,南百泉村4#,","scope":"【影响街道/乡镇】梁各庄镇【高危重要客户】无【影响客户】南百泉村、下岭村","startTime":"2019-08-04 12:25:16","stopDate":"2019-08-04 15:20:00","orgNo":"1340625","typeCode":"电网故障停限电","poweroffArea":"【分支停电】停南百泉7#生态园2,南百泉村5#,下岭村1#,南百泉村1#,南百泉村3#村内,南百泉村2#,下岭村3台区变压器,南百泉村4#","poweroffReason":"【停电原因】由于电缆烧毁导致１１０ＫＶ西陵变电站梁各庄线５２３线路０１５号杆至０３５号杆之间停电【变更送电】因抢修进度加快原因，送电时间由２０:００变更为１５:２０【发布渠道】通过９５５９８发布","powerTime":"2019-08-04 14:59:31","powerComm":"已送电","subsNo":"","lineNo":"","tgNo":"","tgName":null,"infoStatus":"1","orgName":"国网易县供电公司","typeName":null,"infoStatusName":null,"dateDay":null,"orgNos":null,"nowTime":null,"countyName":null,"streetName":null,"villageName":null,"roadName":null,"communityName":null,"tranName":null,"sdLineName":null,"cityCode":"1340625","cityName":"国网易县供电公司","provinceCode":null,"stopTime":"2019-08-04 15:20:00","powerType":"全部","powerOffArea":"【分支停电】停南百泉7#生态园2,南百泉村5#,下岭村1#,南百泉村1#,南百泉村3#村内,南百泉村2#,下岭村3台区变压器,南百泉村4#","powerOffReason":"【停电原因】由于电缆烧毁导致１１０ＫＶ西陵变电站梁各庄线５２３线路０１５号杆至０３５号杆之间停电【变更送电】因抢修进度加快原因，送电时间由２０:００变更为１５:２０【发布渠道】通过９５５９８发布","powerOffId":"2019080413000271"},{"poweroffId":2019080413000261,"sgpoweroffId":null,"subsName":"","lineName":"10KV明义514","pubTranName":"台头村东南专变压器,西明义村西水100变压器,南北庄村东1变压器,樊家台村南水变压器【纯农排变】,台头苗圃厂变压器【纯农排变】,南桥头村南变压器,丁家洼村南变压器,西明义村北变压器,南桥头村西2变压器,三沟子村南变压器,变压器,津同加油站,台头苗圃厂3台区,西明义村北水变压器,西明义村南变压器,三沟子村内变压器,涞水县福泰石灰制造有限公司新增变压器250KVA,南桥头村内2变压器,南北庄村北水变压器【纯农排变】,西明义村北2变压器,南北庄村内二变压器,西明义村西北井变压器,兴牧矿物饲料100,东顺英合水泥砖制造有限公司250KVA专变,台头村南1变压器,台头村西北专变压器【纯农排变】,福泰石灰制造有限公司315KVA专变,任辉石粉厂,西明义村内变压器,涞水枢纽互通,朝运红盛250KVA专变,抬头村西南2台区变压器,西明义村南2台区,二十里铺村南变压器,南北庄村东2变压器,通达矿物加工,南桥头村西北变压器,南桥头村东2变压器,西明义村内3台区变压器,晓良钙粉一二厂新,南北庄村南变压器,南桥头村内变压器,南桥头村西变压器,西明义村内2台区变压器,丁家洼村南二变压器【纯农排变】,三沟子村东变压器,南桥头村西3台区变压器,南桥头村东3台区变压器,台头村北变压器,丁家洼村内变压器,南桥头村南2变压器,丁家洼村西变压器,建良印刷有限公司315KVA专变,朝运红盛石灰厂400KVA专变,台头村东南专2变压器,丁家洼村北2变压器,南北庄村东三台区,涞水精神病医,南桥头村内3变压器,丁家洼村西北变压器,西明义村西水变压器,三沟子村北变压器,西官庄村西专变压器【纯农排变】,朝运红盛315KVA变压器,樊家台村内2变压器,南桥头村南三台区,冉冉幼儿园变压器,丁家洼村北1变压器,西明义村西变压器,宏潮钙粉厂,丁家洼村内2变压器,三沟子村西北变压器,樊家台村西混用变压器,兴牧矿物饲料,台头村南2变压器,南北庄村内变压器,南北庄村北变压器,涞水县福泰石灰制造有限公司新增变压器400KVA,南桥头村西180变压器,台头村北专变压器,长顺钙粉200KVA专变,台头村东变压器,台头村东2变压器,南北庄村南水变压器【纯农排变】,南桥头村西水变压器,樊家台村南变压器,台头村西南专变压器【纯农排变】,南桥头村东变压器,精神病医院配电变压器,兴牧矿物饲料200,樊家台村西水变压器【纯农排变】,台头苗圃厂2变压器,","scope":"【影响街道/乡镇】明义乡、永阳镇 【高危重要客户】无 【影响客户】西明义村、西官庄村、南北庄村、丁家洼村、三沟子村、南桥头村、樊家台村、台头村、二十里铺村","startTime":"2019-08-04 12:04:19","stopDate":"2019-08-04 14:30:21","orgNo":"1340614","typeCode":"电网故障停限电","poweroffArea":"【全线路停电】停涞水县福泰石灰制造有限公司新增变压器250KVA,台头村东南专变压器,西明义村西水100变压器,南北庄村东1变压器,樊家台村南水变压器【纯农排变】,台头苗圃厂变压器【纯农排变】,南桥头村南变压器,丁家洼村南变压器,西明义村北变压器,南桥头村西2变压器,三沟子村南变压器,变压器,津同加油站,台头苗圃厂3台区,西明义村北水变压器,西明义村南变压器,三沟子村内变压器,南桥头村内2变压器,南北庄村北水变压器【纯农排变】,西明义村北2变压器,南北庄村内二变压器,西明义村西北井变压器,兴牧矿物饲料100,东顺英合水泥砖制造有限公司250KVA专变,台头村南1变压器,台头村西北专变压器【纯农排变】,福泰石灰制造有限公司315KVA专变,任辉石粉厂,西明义村内变压器,涞水枢纽互通,朝运红盛250KVA专变,抬头村西南2台区变压器,西明义村南2台区,二十里铺村南变压器,南北庄村东2变压器,通达矿物加工,南桥头村西北变压器,南桥头村东2变压器,西明义村内3台区变压器,晓良钙粉一二厂新,南北庄村南变压器,南桥头村内变压器,南桥头村西变压器,西明义村内2台区变压器,丁家洼村南二变压器【纯农排变】,三沟子村东变压器,南桥头村西3台区变压器,南桥头村东3台区变压器,台头村北变压器,丁家洼村内变压器,南桥头村南2变压器,丁家洼村西变压器,建良印刷有限公司315KVA专变,朝运红盛石灰厂400KVA专变,台头村东南专2变压器,丁家洼村北2变压器,南北庄村东三台区,涞水精神病医,南桥头村内3变压器,丁家洼村西北变压器,西明义村西水变压器,三沟子村北变压器,西官庄村西专变压器【纯农排变】,朝运红盛315KVA变压器,樊家台村内2变压器,南桥头村南三台区,冉冉幼儿园变压器,丁家洼村北1变压器,西明义村西变压器,宏潮钙粉厂,丁家洼村内2变压器,三沟子村西北变压器,樊家台村西混用变压器,兴牧矿物饲料,台头村南2变压器,南北庄村内变压器,南北庄村北变压器,涞水县福泰石灰制造有限公司新增变压器400KVA,南桥头村西180变压器,台头村北专变压器,长顺钙粉200KVA专变,台头村东变压器,台头村东2变压器,南北庄村南水变压器【纯农排变】,南桥头村西水变压器,樊家台村南变压器,台头村西南专变压器【纯农排变】,南桥头村东变压器,精神病医院配电变压器,兴牧矿物饲料200,樊家台村西水变压器【纯农排变】,台头苗圃厂2变压器","poweroffReason":"【停电原因】由于过流跳闸导致３５ＫＶ明义变电站１０ＫＶ明义５１４线路全线停电 【变更送电】因抢修进度加快原因，送电时间由２０：００变更为１４：３０ 【发布渠道】通过９５５９８发布","powerTime":"2019-08-04 14:12:37","powerComm":"已送电","subsNo":"","lineNo":"","tgNo":"","tgName":null,"infoStatus":"1","orgName":"国网涞水县供电公司","typeName":null,"infoStatusName":null,"dateDay":null,"orgNos":null,"nowTime":null,"countyName":null,"streetName":null,"villageName":null,"roadName":null,"communityName":null,"tranName":null,"sdLineName":null,"cityCode":"1340614","cityName":"国网涞水县供电公司","provinceCode":null,"stopTime":"2019-08-04 14:30:21","powerType":"全部","powerOffArea":"【全线路停电】停涞水县福泰石灰制造有限公司新增变压器250KVA,台头村东南专变压器,西明义村西水100变压器,南北庄村东1变压器,樊家台村南水变压器【纯农排变】,台头苗圃厂变压器【纯农排变】,南桥头村南变压器,丁家洼村南变压器,西明义村北变压器,南桥头村西2变压器,三沟子村南变压器,变压器,津同加油站,台头苗圃厂3台区,西明义村北水变压器,西明义村南变压器,三沟子村内变压器,南桥头村内2变压器,南北庄村北水变压器【纯农排变】,西明义村北2变压器,南北庄村内二变压器,西明义村西北井变压器,兴牧矿物饲料100,东顺英合水泥砖制造有限公司250KVA专变,台头村南1变压器,台头村西北专变压器【纯农排变】,福泰石灰制造有限公司315KVA专变,任辉石粉厂,西明义村内变压器,涞水枢纽互通,朝运红盛250KVA专变,抬头村西南2台区变压器,西明义村南2台区,二十里铺村南变压器,南北庄村东2变压器,通达矿物加工,南桥头村西北变压器,南桥头村东2变压器,西明义村内3台区变压器,晓良钙粉一二厂新,南北庄村南变压器,南桥头村内变压器,南桥头村西变压器,西明义村内2台区变压器,丁家洼村南二变压器【纯农排变】,三沟子村东变压器,南桥头村西3台区变压器,南桥头村东3台区变压器,台头村北变压器,丁家洼村内变压器,南桥头村南2变压器,丁家洼村西变压器,建良印刷有限公司315KVA专变,朝运红盛石灰厂400KVA专变,台头村东南专2变压器,丁家洼村北2变压器,南北庄村东三台区,涞水精神病医,南桥头村内3变压器,丁家洼村西北变压器,西明义村西水变压器,三沟子村北变压器,西官庄村西专变压器【纯农排变】,朝运红盛315KVA变压器,樊家台村内2变压器,南桥头村南三台区,冉冉幼儿园变压器,丁家洼村北1变压器,西明义村西变压器,宏潮钙粉厂,丁家洼村内2变压器,三沟子村西北变压器,樊家台村西混用变压器,兴牧矿物饲料,台头村南2变压器,南北庄村内变压器,南北庄村北变压器,涞水县福泰石灰制造有限公司新增变压器400KVA,南桥头村西180变压器,台头村北专变压器,长顺钙粉200KVA专变,台头村东变压器,台头村东2变压器,南北庄村南水变压器【纯农排变】,南桥头村西水变压器,樊家台村南变压器,台头村西南专变压器【纯农排变】,南桥头村东变压器,精神病医院配电变压器,兴牧矿物饲料200,樊家台村西水变压器【纯农排变】,台头苗圃厂2变压器","powerOffReason":"【停电原因】由于过流跳闸导致３５ＫＶ明义变电站１０ＫＶ明义５１４线路全线停电 【变更送电】因抢修进度加快原因，送电时间由２０：００变更为１４：３０ 【发布渠道】通过９５５９８发布","powerOffId":"2019080413000261"}],"pageModel":{"pageNow":692,"totalCount":10973,"totalPage":1098,"tableRows":0,"pageCount":10,"beginCount":6910},"isExperi":"1"}