{"message":"","today":"2020-06-15","seleList":[{"poweroffId":2019080413000232,"sgpoweroffId":null,"subsName":"","lineName":"10kV518桑园工业线","pubTranName":"杨北农排6台区【纯农排变】,保定美雅,保定双兴包装制品有限公司,杨北针织厂,保定美雅纺织有限公司,杨北地毯纱厂,","scope":"【影响街道/乡镇】桑元镇【高危重要客户】无【影响客户】桑元工业区","startTime":"2019-08-04 11:32:02","stopDate":"2019-08-04 13:00:00","orgNo":"1340616","typeCode":"电网故障停限电","poweroffArea":"【全线路停电】停保定美雅纺织有限公司,杨北地毯纱厂,保定美雅,杨北针织厂,保定双兴包装制品有限公司,杨北农排6台区【纯农排变】","poweroffReason":"【停电原因】由于线路接地导致３５ＫＶ桑园变电站１０ＫＶ桑园工业５１８线路全线停电【变更送电】因抢修进度加快原因，送电时间由１９：３０变更为１３：００【发布渠道】通过９５５９８发布","powerTime":"2019-08-04 12:30:00","powerComm":"已送电","subsNo":"","lineNo":"","tgNo":"","tgName":null,"infoStatus":"1","orgName":"国网蠡县供电公司","typeName":null,"infoStatusName":null,"dateDay":null,"orgNos":null,"nowTime":null,"countyName":null,"streetName":null,"villageName":null,"roadName":null,"communityName":null,"tranName":null,"sdLineName":null,"cityCode":"1340616","cityName":"国网蠡县供电公司","provinceCode":null,"stopTime":"2019-08-04 13:00:00","powerType":"全部","powerOffArea":"【全线路停电】停保定美雅纺织有限公司,杨北地毯纱厂,保定美雅,杨北针织厂,保定双兴包装制品有限公司,杨北农排6台区【纯农排变】","powerOffReason":"【停电原因】由于线路接地导致３５ＫＶ桑园变电站１０ＫＶ桑园工业５１８线路全线停电【变更送电】因抢修进度加快原因，送电时间由１９：３０变更为１３：００【发布渠道】通过９５５９８发布","powerOffId":"2019080413000232"},{"poweroffId":2019080413000217,"sgpoweroffId":null,"subsName":"","lineName":"望磷线517","pubTranName":"谷家村新民居,宏源化工有限公司,谷家村村东,鑫达园小区,谷家村村北1,百货院,温泉花园 箱变配电2,0665943546-保定伍建物业管理有限责任公司-专变-221249479-保定伍建物业管理有限责任公司,东盛园,百盛家园2期,温泉花园 箱变配电变压器,樊家村村北,加油站前配变,物资院东,谷家村村北2,谷家村村西,九龙橡胶,百盛家园3号,龙河工贸有限责任公司,福升鞋厂,0665943546-保定伍建物业管理有限责任公司-专变-221249496-保定伍建物业管理有限责任公司,兴华面粉厂,望都县望都镇谷家村,温泉花园1250,鑫达园箱变配电变压器,河北尚科房地产开发有限公司(温泉花园),百盛家园配变,电瓷厂家属院,交警队家属院,","scope":"【影响街道/乡镇】望都镇　 【高危重要客户】无　　 【影响客户】鑫达园、百货院、交警队家属院、电瓷厂家属院、物资院东、百盛家园、东盛园、温泉公寓、谷家村部分农业、梁屯道口西农、樊家村村北、福升鞋厂、宏源化工、伍建房地产开发公司（第一城）、长丰电磁电器有限公司、九龙橡胶、龙河工贸有限责任公司、温泉花园、龙河食品、宏屹国际城、河北尚科房地产开发有限公司、工商管理局、交警队家属院、福升鞋厂、谷家村新民居、加油站、兴华面粉厂","startTime":"2019-08-04 11:17:31","stopDate":"2019-08-04 12:30:00","orgNo":"1340623","typeCode":"电网故障停限电","poweroffArea":"【全线路停电】停谷家村新民居,望都县望都镇谷家村,温泉花园 箱变配电2,百盛家园2期,九龙橡胶,河北尚科房地产开发有限公司(温泉花园),温泉花园 箱变配电变压器,电瓷厂家属院,谷家村村北1,百货院,百盛家园配变,谷家村村东,龙河工贸有限责任公司,加油站前配变,交警队家属院,福升鞋厂,宏源化工有限公司,樊家村村北,兴华面粉厂,0665943546-保定伍建物业管理有限责任公司-专变-221249479-保定伍建物业管理有限责任公司,鑫达园小区,0665943546-保定伍建物业管理有限责任公司-专变-221249496-保定伍建物业管理有限责任公司,温泉花园1250,谷家村村北2,谷家村村西,物资院东,鑫达园箱变配电变压器,百盛家园3号,东盛园","poweroffReason":"【停电原因】由于用户资产工商管理局配变Ｃ相引线烧导致１１０ＫＶ望都变电站望磷线５１７线路全线停电 【变更送电】因抢修进度加快原因，送电时间由２３：２０变更为１２：３０ 【发布渠道】通过９５５９８发布","powerTime":"2019-08-04 11:53:02","powerComm":"已送电","subsNo":"","lineNo":"","tgNo":"","tgName":null,"infoStatus":"1","orgName":"国网望都县供电公司","typeName":null,"infoStatusName":null,"dateDay":null,"orgNos":null,"nowTime":null,"countyName":null,"streetName":null,"villageName":null,"roadName":null,"communityName":null,"tranName":null,"sdLineName":null,"cityCode":"1340623","cityName":"国网望都县供电公司","provinceCode":null,"stopTime":"2019-08-04 12:30:00","powerType":"全部","powerOffArea":"【全线路停电】停谷家村新民居,望都县望都镇谷家村,温泉花园 箱变配电2,百盛家园2期,九龙橡胶,河北尚科房地产开发有限公司(温泉花园),温泉花园 箱变配电变压器,电瓷厂家属院,谷家村村北1,百货院,百盛家园配变,谷家村村东,龙河工贸有限责任公司,加油站前配变,交警队家属院,福升鞋厂,宏源化工有限公司,樊家村村北,兴华面粉厂,0665943546-保定伍建物业管理有限责任公司-专变-221249479-保定伍建物业管理有限责任公司,鑫达园小区,0665943546-保定伍建物业管理有限责任公司-专变-221249496-保定伍建物业管理有限责任公司,温泉花园1250,谷家村村北2,谷家村村西,物资院东,鑫达园箱变配电变压器,百盛家园3号,东盛园","powerOffReason":"【停电原因】由于用户资产工商管理局配变Ｃ相引线烧导致１１０ＫＶ望都变电站望磷线５１７线路全线停电 【变更送电】因抢修进度加快原因，送电时间由２３：２０变更为１２：３０ 【发布渠道】通过９５５９８发布","powerOffId":"2019080413000217"},{"poweroffId":2019080413000214,"sgpoweroffId":null,"subsName":"","lineName":"望梁线521","pubTranName":"变压器,北方轴承厂,0548988189-望都县高岭乡梁家屯村-专变-119988796-高岭乡梁家屯村,中国石油保定第122加油站,望都县宜武制鞋厂,宏屹房地产,梁屯村南农业配变,梁屯工业区,0548988189-望都县高岭乡梁家屯村-专变-48208987-河北宏屹房地产开发有限公司,","scope":"【影响街道/乡镇】高岭乡 【高危重要客户】无 【影响客户】梁屯村村南农业、梁屯工业区、北方轴承厂、中国石油保定第１２２加油站、宏屹国际城、梁家屯村、望都县宣武制鞋业","startTime":"2019-08-04 11:16:24","stopDate":"2019-08-04 14:00:00","orgNo":"1340623","typeCode":"电网故障停限电","poweroffArea":"【全线路停电】停梁屯村南农业配变,0548988189-望都县高岭乡梁家屯村-专变-119988796-高岭乡梁家屯村,变压器,宏屹房地产,中国石油保定第122加油站,梁屯工业区,0548988189-望都县高岭乡梁家屯村-专变-48208987-河北宏屹房地产开发有限公司,北方轴承厂,望都县宜武制鞋厂","poweroffReason":"【停电原因】由于站内开关跳闸导致１１０ＫＶ望都变电站望梁线５２１线路全线停电 【变更送电】因抢修进度加快原因，送电时间由２２：００变更为１４：００ 【发布渠道】通过９５５９８发布","powerTime":"2019-08-04 13:19:30","powerComm":"已送电","subsNo":"","lineNo":"","tgNo":"","tgName":null,"infoStatus":"1","orgName":"国网望都县供电公司","typeName":null,"infoStatusName":null,"dateDay":null,"orgNos":null,"nowTime":null,"countyName":null,"streetName":null,"villageName":null,"roadName":null,"communityName":null,"tranName":null,"sdLineName":null,"cityCode":"1340623","cityName":"国网望都县供电公司","provinceCode":null,"stopTime":"2019-08-04 14:00:00","powerType":"全部","powerOffArea":"【全线路停电】停梁屯村南农业配变,0548988189-望都县高岭乡梁家屯村-专变-119988796-高岭乡梁家屯村,变压器,宏屹房地产,中国石油保定第122加油站,梁屯工业区,0548988189-望都县高岭乡梁家屯村-专变-48208987-河北宏屹房地产开发有限公司,北方轴承厂,望都县宜武制鞋厂","powerOffReason":"【停电原因】由于站内开关跳闸导致１１０ＫＶ望都变电站望梁线５２１线路全线停电 【变更送电】因抢修进度加快原因，送电时间由２２：００变更为１４：００ 【发布渠道】通过９５５９８发布","powerOffId":"2019080413000214"},{"poweroffId":2019080413000151,"sgpoweroffId":null,"subsName":"","lineName":"留村线573","pubTranName":"留村排15【纯农排变】,留村混10,留村光2,留村排8【纯农排变】,留村光9,留村小学,龙华排13【纯农排变】,留村光12变压器,留村混12【纯农排变】,留村光1,0011677029*荣达畜禽有限公司,0572626602-中国铁塔股份有限公司保定市分公司-专变-119513670-中国移动通信集团河北有限公司定兴分公司（留村基站）,留村光3,留村光6,留村混9,留村混6,留村光10,留村排3【纯农排变】,留村混13【纯农排变】,留村排1【纯农排变】,留村光5,留村光7,留村混2,留村光综11,留村混5,留村光4,留村排16【纯农排变】,留村排11【纯农排变】,留村混4,留村排14【纯农排变】,留村混7,留村光8,","scope":"【影响街道/乡镇】张家庄乡、贤寓镇 【高危重要客户】无 【影响客户】留村、贤寓、龙华、荣达畜禽有限公司、中国移动通信集团河北有限公司定兴分公司","startTime":"2019-08-04 09:40:57","stopDate":"2019-08-04 11:30:00","orgNo":"1340609","typeCode":"电网故障停限电","poweroffArea":"【全线路停电】停留村光10,留村排3【纯农排变】,留村混13【纯农排变】,留村排1【纯农排变】,留村光5,留村光7,留村混2,留村光综11,留村混5,留村光4,留村排16【纯农排变】,留村排11【纯农排变】,留村混4,留村排14【纯农排变】,留村排15【纯农排变】,留村混10,留村光2,留村排8【纯农排变】,留村光9,留村小学,龙华排13【纯农排变】,留村光12变压器,留村混12【纯农排变】,留村光1,0011677029*荣达畜禽有限公司,0572626602-中国铁塔股份有限公司保定市分公司-专变-119513670-中国移动通信集团河北有限公司定兴分公司（留村基站）,留村光3,留村光6,留村混9,留村混6,留村混7,留村光8","poweroffReason":"【停电原因】由于移动基站配变烧毁导致１１０ＫＶ贤寓变电站留村线５７３线路全线停电 【变更送电】因抢修进度加快原因，送电时间由１４：００变更为１１：３０ 【发布渠道】通过９５５９８发布","powerTime":"2019-08-04 10:57:26","powerComm":"已送电","subsNo":"","lineNo":"","tgNo":"","tgName":null,"infoStatus":"1","orgName":"国网定兴县供电公司","typeName":null,"infoStatusName":null,"dateDay":null,"orgNos":null,"nowTime":null,"countyName":null,"streetName":null,"villageName":null,"roadName":null,"communityName":null,"tranName":null,"sdLineName":null,"cityCode":"1340609","cityName":"国网定兴县供电公司","provinceCode":null,"stopTime":"2019-08-04 11:30:00","powerType":"全部","powerOffArea":"【全线路停电】停留村光10,留村排3【纯农排变】,留村混13【纯农排变】,留村排1【纯农排变】,留村光5,留村光7,留村混2,留村光综11,留村混5,留村光4,留村排16【纯农排变】,留村排11【纯农排变】,留村混4,留村排14【纯农排变】,留村排15【纯农排变】,留村混10,留村光2,留村排8【纯农排变】,留村光9,留村小学,龙华排13【纯农排变】,留村光12变压器,留村混12【纯农排变】,留村光1,0011677029*荣达畜禽有限公司,0572626602-中国铁塔股份有限公司保定市分公司-专变-119513670-中国移动通信集团河北有限公司定兴分公司（留村基站）,留村光3,留村光6,留村混9,留村混6,留村混7,留村光8","powerOffReason":"【停电原因】由于移动基站配变烧毁导致１１０ＫＶ贤寓变电站留村线５７３线路全线停电 【变更送电】因抢修进度加快原因，送电时间由１４：００变更为１１：３０ 【发布渠道】通过９５５９８发布","powerOffId":"2019080413000151"},{"poweroffId":2019080413000136,"sgpoweroffId":null,"subsName":"","lineName":"10KV城区553","pubTranName":"杜家庄村西变压器,","scope":"【影响街道/乡镇】东文山乡 【高危重要客户】无 【影响客户】杜家庄村","startTime":"2019-08-04 09:15:08","stopDate":"2019-08-04 12:00:04","orgNo":"1340614","typeCode":"电网故障停限电","poweroffArea":"【单台区停电】停杜家庄村西变压器","poweroffReason":"【停电原因】由于空开烧毁导致２２０ＫＶ涞阳变电站１０ＫＶ城区５５３线路杜家庄村西公变台区停电 【变更送电】无 【发布渠道】通过９５５９８发布","powerTime":"2019-08-04 11:20:40","powerComm":"已送电","subsNo":"","lineNo":"","tgNo":"","tgName":null,"infoStatus":"1","orgName":"国网涞水县供电公司","typeName":null,"infoStatusName":null,"dateDay":null,"orgNos":null,"nowTime":null,"countyName":null,"streetName":null,"villageName":null,"roadName":null,"communityName":null,"tranName":null,"sdLineName":null,"cityCode":"1340614","cityName":"国网涞水县供电公司","provinceCode":null,"stopTime":"2019-08-04 12:00:04","powerType":"全部","powerOffArea":"【单台区停电】停杜家庄村西变压器","powerOffReason":"【停电原因】由于空开烧毁导致２２０ＫＶ涞阳变电站１０ＫＶ城区５５３线路杜家庄村西公变台区停电 【变更送电】无 【发布渠道】通过９５５９８发布","powerOffId":"2019080413000136"},{"poweroffId":2019080413000124,"sgpoweroffId":null,"subsName":"","lineName":"10KV城区553","pubTranName":"下车亭东台,","scope":"【影响街道/乡镇】东文山乡 【高危重要客户】无 【影响客户】下车亭村","startTime":"2019-08-04 09:12:29","stopDate":"2019-08-04 12:30:00","orgNo":"1340614","typeCode":"电网故障停限电","poweroffArea":"【单台区停电】停下车亭东台","poweroffReason":"【停电原因】由于空开烧毁导致２２０ＫＶ涞阳变电站１０ＫＶ城区５５３线路下车亭东公变台区停电 【变更送电】无 【发布渠道】通过９５５９８发布","powerTime":"2019-08-04 11:35:00","powerComm":"已送电","subsNo":"","lineNo":"","tgNo":"","tgName":null,"infoStatus":"1","orgName":"国网涞水县供电公司","typeName":null,"infoStatusName":null,"dateDay":null,"orgNos":null,"nowTime":null,"countyName":null,"streetName":null,"villageName":null,"roadName":null,"communityName":null,"tranName":null,"sdLineName":null,"cityCode":"1340614","cityName":"国网涞水县供电公司","provinceCode":null,"stopTime":"2019-08-04 12:30:00","powerType":"全部","powerOffArea":"【单台区停电】停下车亭东台","powerOffReason":"【停电原因】由于空开烧毁导致２２０ＫＶ涞阳变电站１０ＫＶ城区５５３线路下车亭东公变台区停电 【变更送电】无 【发布渠道】通过９５５９８发布","powerOffId":"2019080413000124"},{"poweroffId":2019080413000121,"sgpoweroffId":null,"subsName":"","lineName":"葛公线513","pubTranName":"大张合庄4526变压器,南洪城6019变压器,南洪城村西2188变压器,史家佐6017变压器,西胜沟4509变压器,范河1293变压器,北洪城0851变压器,唐县北洪城农业灌溉2新装配变,史家佐3120变压器,史家佐0808变压器,唐县森兴新能源开发有限公司10KV配变,北洪城0886变压器,唐县史家佐瓷土矿业有限公司10KV配变200KVA,西胜沟0863变压器,北洪城4172变压器,葛公2985变压器,葛公4289变压器,唐县史家佐瓷土矿业有限公司,南洪城村北1294变压器,唐县胜鹏林果种植服务农民专业合作社10KV配变,北洪城2205变压器,南洪城4447变压器,葛公6604台区,史家佐东1290变压器,史家佐水4206变压器,大张合庄4953变压器,史家佐3045变压器,史家佐5033变压器,南洪城0891变压器,唐县范河村农业灌溉2新装,史家佐2819变压器,葛公1292变压器,大张合庄村西1291变压器,大张合庄村东0849变压器,唐县北洪城农业灌溉1新装配变,南洪城4952变压器,史家佐6160台区,大张合庄4154变压器,史家佐3120,史家佐6018变压器,葛公水5048变压器,西胜沟风景名胜区2924,北洪城村北5037变压器,唐县范河农业灌溉1新装配变,葛公5039变压器,史家佐水泥砖厂2462,葛公0865变压器,史家佐0803变压器,南洪城4785变压器,唐县范河村农业灌溉3,峰山0846变压器,唐县鸿泰石膏板厂计量点配变,","scope":"【影响街道/乡镇】齐家佐乡【高危重要客户】无【影响客户】大张合庄村、南洪城村、史家佐村、北洪城村、范河村、西胜沟村、葛公村","startTime":"2019-08-04 09:21:00","stopDate":"2019-08-04 12:00:00","orgNo":"1340622","typeCode":"电网故障停限电","poweroffArea":"【全线路停电】停唐县范河农业灌溉1新装配变,唐县鸿泰石膏板厂计量点配变,史家佐2819变压器,葛公2985变压器,葛公水5048变压器,史家佐3120变压器,南洪城村北1294变压器,西胜沟风景名胜区2924,大张合庄村东0849变压器,南洪城0891变压器,北洪城0886变压器,史家佐6017变压器,峰山0846变压器,史家佐水泥砖厂2462,北洪城2205变压器,葛公1292变压器,唐县史家佐瓷土矿业有限公司10KV配变200KVA,南洪城4447变压器,史家佐3045变压器,唐县范河村农业灌溉3,史家佐0803变压器,西胜沟0863变压器,北洪城4172变压器,史家佐5033变压器,唐县森兴新能源开发有限公司10KV配变,史家佐3120,史家佐6018变压器,葛公0865变压器,大张合庄村西1291变压器,葛公6604台区,唐县胜鹏林果种植服务农民专业合作社10KV配变,史家佐东1290变压器,南洪城4785变压器,唐县北洪城农业灌溉2新装配变,唐县范河村农业灌溉2新装,大张合庄4526变压器,唐县北洪城农业灌溉1新装配变,北洪城村北5037变压器,南洪城6019变压器,南洪城4952变压器,葛公4289变压器,西胜沟4509变压器,北洪城0851变压器,史家佐水4206变压器,大张合庄4154变压器,大张合庄4953变压器,史家佐0808变压器,史家佐6160台区,范河1293变压器,葛公5039变压器,南洪城村西2188变压器,唐县史家佐瓷土矿业有限公司","poweroffReason":"【停电原因】由于南洪城分支００１号杆引线断导致３５ＫＶ齐家佐变电站葛公线５１３线路全线停电【变更送电】因抢修进度加快原因，送电时间由１８：００变更为１２：００【发布渠道】通过９５５９８发布","powerTime":"2019-08-04 11:21:04","powerComm":"已送电","subsNo":"","lineNo":"","tgNo":"","tgName":null,"infoStatus":"1","orgName":"国网唐县供电公司","typeName":null,"infoStatusName":null,"dateDay":null,"orgNos":null,"nowTime":null,"countyName":null,"streetName":null,"villageName":null,"roadName":null,"communityName":null,"tranName":null,"sdLineName":null,"cityCode":"1340622","cityName":"国网唐县供电公司","provinceCode":null,"stopTime":"2019-08-04 12:00:00","powerType":"全部","powerOffArea":"【全线路停电】停唐县范河农业灌溉1新装配变,唐县鸿泰石膏板厂计量点配变,史家佐2819变压器,葛公2985变压器,葛公水5048变压器,史家佐3120变压器,南洪城村北1294变压器,西胜沟风景名胜区2924,大张合庄村东0849变压器,南洪城0891变压器,北洪城0886变压器,史家佐6017变压器,峰山0846变压器,史家佐水泥砖厂2462,北洪城2205变压器,葛公1292变压器,唐县史家佐瓷土矿业有限公司10KV配变200KVA,南洪城4447变压器,史家佐3045变压器,唐县范河村农业灌溉3,史家佐0803变压器,西胜沟0863变压器,北洪城4172变压器,史家佐5033变压器,唐县森兴新能源开发有限公司10KV配变,史家佐3120,史家佐6018变压器,葛公0865变压器,大张合庄村西1291变压器,葛公6604台区,唐县胜鹏林果种植服务农民专业合作社10KV配变,史家佐东1290变压器,南洪城4785变压器,唐县北洪城农业灌溉2新装配变,唐县范河村农业灌溉2新装,大张合庄4526变压器,唐县北洪城农业灌溉1新装配变,北洪城村北5037变压器,南洪城6019变压器,南洪城4952变压器,葛公4289变压器,西胜沟4509变压器,北洪城0851变压器,史家佐水4206变压器,大张合庄4154变压器,大张合庄4953变压器,史家佐0808变压器,史家佐6160台区,范河1293变压器,葛公5039变压器,南洪城村西2188变压器,唐县史家佐瓷土矿业有限公司","powerOffReason":"【停电原因】由于南洪城分支００１号杆引线断导致３５ＫＶ齐家佐变电站葛公线５１３线路全线停电【变更送电】因抢修进度加快原因，送电时间由１８：００变更为１２：００【发布渠道】通过９５５９８发布","powerOffId":"2019080413000121"},{"poweroffId":2019080413000094,"sgpoweroffId":null,"subsName":"","lineName":"10kV韩村站519线路","pubTranName":"C612柱上变压器,","scope":"【影响街道/乡镇】韩村乡 【高危重要客户】无 【影响客户】沈庄","startTime":"2019-08-04 08:30:04","stopDate":"2019-08-04 10:30:00","orgNo":"13406","typeCode":"电网故障停限电","poweroffArea":"【单台区停电】停C612柱上变压器","poweroffReason":"【停电原因】由于低压线断线导致１０ＫＶ韩村变电站５１９线路Ｃ６１２停电【变更送电】无【发布渠道】通过９５５９８发布","powerTime":"2019-08-04 10:09:19","powerComm":"已送电","subsNo":"","lineNo":"","tgNo":"","tgName":null,"infoStatus":"1","orgName":"保定供电公司","typeName":null,"infoStatusName":null,"dateDay":null,"orgNos":null,"nowTime":null,"countyName":null,"streetName":null,"villageName":null,"roadName":null,"communityName":null,"tranName":null,"sdLineName":null,"cityCode":"13406","cityName":"保定供电公司","provinceCode":null,"stopTime":"2019-08-04 10:30:00","powerType":"全部","powerOffArea":"【单台区停电】停C612柱上变压器","powerOffReason":"【停电原因】由于低压线断线导致１０ＫＶ韩村变电站５１９线路Ｃ６１２停电【变更送电】无【发布渠道】通过９５５９８发布","powerOffId":"2019080413000094"},{"poweroffId":2019080413000007,"sgpoweroffId":null,"subsName":"","lineName":"高昌519线","pubTranName":"唐县民用爆破器材有限责任公司1379,县北水【纯农排变】,张新庄10KV配变,峪山庄山上水7639,河北汉唐牧业有限公司10KV配变4797,0387519427-唐县政华绒毛有限公司2537-2-专变-45337507-唐县政华绒毛有限公司2537-2,配变,峪山庄荒山开发6016变压器【纯农排变】,平洼顶2456变压器,唐县两山畜牧有限公司3432(200KVA),唐县第一中学北校区2071,福康医院2#4385,第三中学7489变压器,鑫伟石材,河北韩达铸造有限公司照明变压器,福康医院1#4488,河北汉唐牧业有限公司630KVA,河北汉唐牧业有限公司630,0678370649-河北诺亚建筑工程有限公司-专变-217788793-河北诺亚建筑工程有限公司10KV配变,","scope":"【影响街道/乡镇】北店头乡【高危重要客户】无【影响客户】福康养老院、韩达铸造有限公司、唐县第三中学","startTime":"2019-08-04 01:33:00","stopDate":"2019-08-04 02:00:00","orgNo":"1340622","typeCode":"电网故障停限电","poweroffArea":"【全线路停电】停河北汉唐牧业有限公司630,0678370649-河北诺亚建筑工程有限公司-专变-217788793-河北诺亚建筑工程有限公司10KV配变,0387519427-唐县政华绒毛有限公司2537-2-专变-45337507-唐县政华绒毛有限公司2537-2,配变,峪山庄荒山开发6016变压器【纯农排变】,唐县民用爆破器材有限责任公司1379,县北水【纯农排变】,张新庄10KV配变,峪山庄山上水7639,河北汉唐牧业有限公司10KV配变4797,平洼顶2456变压器,唐县两山畜牧有限公司3432(200KVA),唐县第一中学北校区2071,福康医院2#4385,第三中学7489变压器,鑫伟石材,河北韩达铸造有限公司照明变压器,福康医院1#4488,河北汉唐牧业有限公司630KVA","poweroffReason":"【停电原因】由于韩达铸造跌落烧毁导致１１０ＫＶ唐县变电站高昌线５１９线路全线停电【变更送电】因抢修进度加快原因，送电时间由１２：００变更为０２：００【发布渠道】通过９５５９８发布","powerTime":"2019-08-04 01:50:14","powerComm":"已送电","subsNo":"","lineNo":"","tgNo":"","tgName":null,"infoStatus":"1","orgName":"国网唐县供电公司","typeName":null,"infoStatusName":null,"dateDay":null,"orgNos":null,"nowTime":null,"countyName":null,"streetName":null,"villageName":null,"roadName":null,"communityName":null,"tranName":null,"sdLineName":null,"cityCode":"1340622","cityName":"国网唐县供电公司","provinceCode":null,"stopTime":"2019-08-04 02:00:00","powerType":"全部","powerOffArea":"【全线路停电】停河北汉唐牧业有限公司630,0678370649-河北诺亚建筑工程有限公司-专变-217788793-河北诺亚建筑工程有限公司10KV配变,0387519427-唐县政华绒毛有限公司2537-2-专变-45337507-唐县政华绒毛有限公司2537-2,配变,峪山庄荒山开发6016变压器【纯农排变】,唐县民用爆破器材有限责任公司1379,县北水【纯农排变】,张新庄10KV配变,峪山庄山上水7639,河北汉唐牧业有限公司10KV配变4797,平洼顶2456变压器,唐县两山畜牧有限公司3432(200KVA),唐县第一中学北校区2071,福康医院2#4385,第三中学7489变压器,鑫伟石材,河北韩达铸造有限公司照明变压器,福康医院1#4488,河北汉唐牧业有限公司630KVA","powerOffReason":"【停电原因】由于韩达铸造跌落烧毁导致１１０ＫＶ唐县变电站高昌线５１９线路全线停电【变更送电】因抢修进度加快原因，送电时间由１２：００变更为０２：００【发布渠道】通过９５５９８发布","powerOffId":"2019080413000007"},{"poweroffId":2019080313000243,"sgpoweroffId":null,"subsName":"","lineName":"10KV杨家庄516","pubTranName":"杨家庄村内2变压器,杨家庄村内变压器,","scope":"【影响街道/乡镇】明义镇 【高危重要客户】无 【影响客户】杨家庄村","startTime":"2019-08-03 23:17:19","stopDate":"2019-08-04 08:00:00","orgNo":"1340614","typeCode":"电网故障停限电","poweroffArea":"【分支停电】停杨家庄村内2变压器,杨家庄村内变压器","poweroffReason":"【停电原因】由于吊瓶击穿导致３５ＫＶ明义变电站１０ＫＶ杨家庄５１６线路０２号杆至０６号杆停电 【变更送电】因抢修进度加快原因，送电时间由１０：００变更为０８：００ 【发布渠道】通过９５５９８发布","powerTime":"2019-08-04 07:20:47","powerComm":"已送电","subsNo":"","lineNo":"","tgNo":"","tgName":null,"infoStatus":"1","orgName":"国网涞水县供电公司","typeName":null,"infoStatusName":null,"dateDay":null,"orgNos":null,"nowTime":null,"countyName":null,"streetName":null,"villageName":null,"roadName":null,"communityName":null,"tranName":null,"sdLineName":null,"cityCode":"1340614","cityName":"国网涞水县供电公司","provinceCode":null,"stopTime":"2019-08-04 08:00:00","powerType":"全部","powerOffArea":"【分支停电】停杨家庄村内2变压器,杨家庄村内变压器","powerOffReason":"【停电原因】由于吊瓶击穿导致３５ＫＶ明义变电站１０ＫＶ杨家庄５１６线路０２号杆至０６号杆停电 【变更送电】因抢修进度加快原因，送电时间由１０：００变更为０８：００ 【发布渠道】通过９５５９８发布","powerOffId":"2019080313000243"}],"pageModel":{"pageNow":693,"totalCount":10973,"totalPage":1098,"tableRows":0,"pageCount":10,"beginCount":6920},"isExperi":"1"}