{"message":"","today":"2020-06-15","seleList":[{"poweroffId":2019080313000050,"sgpoweroffId":null,"subsName":"","lineName":"10KV南三店555","pubTranName":"酱各庄1106,","scope":"【影响街道/乡镇】高官庄镇 【高危重要客户】无 【影响客户】酱各庄","startTime":"2019-08-05 05:00:00","stopDate":"2019-08-05 09:00:00","orgNo":"1340626","typeCode":"临时停电","poweroffArea":"【单台区停电】停酱各庄1106","poweroffReason":"【停电原因】由于线路切改工程导致１１０ＫＶ松林店变电站１０ＫＶ南三店５５５线路酱各庄１１０６公变台区停电 【变更送电】无 【发布渠道】通过９５５９８发布","powerTime":"2019-08-05 08:37:27","powerComm":"恢复送电","subsNo":"","lineNo":"","tgNo":"","tgName":null,"infoStatus":"1","orgName":"国网涿州市供电公司","typeName":null,"infoStatusName":null,"dateDay":null,"orgNos":null,"nowTime":null,"countyName":null,"streetName":null,"villageName":null,"roadName":null,"communityName":null,"tranName":null,"sdLineName":null,"cityCode":"1340626","cityName":"国网涿州市供电公司","provinceCode":null,"stopTime":"2019-08-05 09:00:00","powerType":"全部","powerOffArea":"【单台区停电】停酱各庄1106","powerOffReason":"【停电原因】由于线路切改工程导致１１０ＫＶ松林店变电站１０ＫＶ南三店５５５线路酱各庄１１０６公变台区停电 【变更送电】无 【发布渠道】通过９５５９８发布","powerOffId":"2019080313000050"},{"poweroffId":2019080313000029,"sgpoweroffId":null,"subsName":"","lineName":"10kV卓头511线","pubTranName":"卓头综合5台区,卓头综合3台区变压器,","scope":"【影响街道/乡镇】南娄底乡 【高危重要客户】无 【影响客户】卓头村","startTime":"2019-08-03 10:00:00","stopDate":"2019-08-03 11:30:00","orgNo":"1340606","typeCode":"其他临时停电","poweroffArea":"【全线路停电】停卓头综合3台区变压器,卓头综合5台区","poweroffReason":"【停电原因】由于站内刀闸严重缺陷需进行紧急消缺导致３５ＫＶ南娄底变电站１０ＫＶ卓头５１１线路全线停电 【变更送电】无 【发布渠道】通过９５５９８发布","powerTime":"2019-08-03 10:58:12","powerComm":"已送电","subsNo":"","lineNo":"","tgNo":"","tgName":null,"infoStatus":"1","orgName":"国网安国市供电公司","typeName":null,"infoStatusName":null,"dateDay":null,"orgNos":null,"nowTime":null,"countyName":null,"streetName":null,"villageName":null,"roadName":null,"communityName":null,"tranName":null,"sdLineName":null,"cityCode":"1340606","cityName":"国网安国市供电公司","provinceCode":null,"stopTime":"2019-08-03 11:30:00","powerType":"全部","powerOffArea":"【全线路停电】停卓头综合3台区变压器,卓头综合5台区","powerOffReason":"【停电原因】由于站内刀闸严重缺陷需进行紧急消缺导致３５ＫＶ南娄底变电站１０ＫＶ卓头５１１线路全线停电 【变更送电】无 【发布渠道】通过９５５９８发布","powerOffId":"2019080313000029"},{"poweroffId":2019080313000016,"sgpoweroffId":null,"subsName":"","lineName":"河内线512","pubTranName":"王村光2,易上中心小学-500,王村排2【纯农排变】,辛安甫光4,西韩村光4,王村光11,河内排7【纯农排变】,易上营光2,西韩村光2,易上营排6【纯农排变】,辛安甫排6【纯农排变】,河内排6【纯农排变】,西韩村光6,河内光2,易上营光1,王村光1,易上排13【纯农排变】,辛安甫光3,中国移动通信集团河北有限公司定兴分公司（辛安甫基站）,河内排4-1【纯农排变】,易上光5,易上排18【纯农排变】,易上排14【纯农排变】,易上光8,王村排7【纯农排变】,易上排12【纯农排变】,河内光3,50,西韩村排6【纯农排变】,易上营光8,辛安甫光8,*高里乡中,西韩村排7【纯农排变】,易上光4,易上营排7【纯农排变】,王村光5,易上光10,易上营排4【纯农排变】,西韩村混1,易上营排5【纯农排变】,西韩村排2【纯农排变】,易上营排16【纯农排变】,河内光5,200,易上营光7,易上光13,辛安甫光1,易上光5【2018年节能变】,王村排1【纯农排变】,西韩村光1,王村光3,王村光9,辛安甫排5【纯农排变】,易上营光4,王金明,辛安甫排2【纯农排变】,辛安甫光2,辛安甫光7,河内光1,西韩村光3,辛安甫光9,河内光7,辛安甫光6,西韩村光5,河内光6,西韩村排3【纯农排变】,王村光4,陈江涛沙场,易上营光6,辛安甫排4【纯农排变】,王村光7,易上排20【纯农排变】,王村混4,易上营光1【2018年节能变】,古桑排6【纯农排变】,西韩村排9【纯农排变】,辛安甫排3【纯农排变】,易上排19【纯农排变】,西韩村排5【纯农排变】,河内光1【2018年节能变】,王村排6【纯农排变】,西韩村排8【纯农排变】,易上营光5,易上营光3,王村排3【纯农排变】,王村光10,河内光8,河内光4,变压器,河内小学,王村光8,西韩小学-50,易上排15【纯农排变】,王村光6,河内排5【纯农排变】,王村混5,辛安甫排1【纯农排变】,河内排3【纯农排变】,辛安甫光5,西韩村排4【纯农排变】,易上排11【纯农排变】,","scope":"【影响街道/乡镇】高里乡 【高危重要客户】无 【影响客户】易上村部分用户、西韩村、辛安甫、河内、易上营、王村、古桑部分用户、高里乡中、易上中心小学、中国移动通信集团河北有限公司定兴分公司、西韩小学、河内小学、陈江涛沙场","startTime":"2019-08-03 07:07:56","stopDate":"2019-08-03 10:30:00","orgNo":"1340609","typeCode":"电网故障停限电","poweroffArea":"【全线路停电】停西韩村排3【纯农排变】,易上光4,易上营排7【纯农排变】,王村光5,西韩村排5【纯农排变】,河内光1【2018年节能变】,王村排6【纯农排变】,西韩村排8【纯农排变】,易上营光3,王村排3【纯农排变】,王村光10,河内光8,河内光4,王村混4,易上排14【纯农排变】,易上光8,王村排7【纯农排变】,易上排12【纯农排变】,河内光3,西韩村光3,50,西韩村排6【纯农排变】,易上营光8,辛安甫光8,*高里乡中,易上营光6,易上排11【纯农排变】,辛安甫排4【纯农排变】,王村光7,易上排20【纯农排变】,易上中心小学-500,王村排2【纯农排变】,辛安甫光4,西韩村光4,王村光11,河内排7【纯农排变】,易上营光2,辛安甫排1【纯农排变】,河内排3【纯农排变】,古桑排6【纯农排变】,西韩村排9【纯农排变】,辛安甫排3【纯农排变】,易上排19【纯农排变】,河内光5,200,易上营光7,易上光13,辛安甫光1,西韩村混1,易上营排5【纯农排变】,西韩村排2【纯农排变】,易上营排16【纯农排变】,易上排15【纯农排变】,王村光6,河内排5【纯农排变】,王村混5,中国移动通信集团河北有限公司定兴分公司（辛安甫基站）,易上营光1【2018年节能变】,易上营光5,西韩村排7【纯农排变】,王村光1,辛安甫光5,王村光4,陈江涛沙场,辛安甫排6【纯农排变】,河内排6【纯农排变】,西韩村光6,河内光2,易上排13【纯农排变】,辛安甫光3,河内排4-1【纯农排变】,易上光5,易上排18【纯农排变】,易上光10,易上营排4【纯农排变】,变压器,河内光6,河内小学,王村光8,西韩小学-50,王村光2,西韩村光2,易上营排6【纯农排变】,易上营光1,西韩村排4【纯农排变】,易上光5【2018年节能变】,王村排1【纯农排变】,西韩村光1,王村光3,王村光9,辛安甫排5【纯农排变】,易上营光4,王金明,辛安甫排2【纯农排变】,辛安甫光2,辛安甫光7,河内光1,辛安甫光9,河内光7,辛安甫光6,西韩村光5","poweroffReason":"【停电原因】由于王村排３分支０３号杆避雷器击穿导致３５ＫＶ景安变电站河内线５１２线路全线停电 【变更送电】因抢修进度加快原因，送电时间由１５：００变更为１０：３０ 【发布渠道】通过９５５９８发布","powerTime":"2019-08-03 10:10:51","powerComm":"已送电","subsNo":"","lineNo":"","tgNo":"","tgName":null,"infoStatus":"1","orgName":"国网定兴县供电公司","typeName":null,"infoStatusName":null,"dateDay":null,"orgNos":null,"nowTime":null,"countyName":null,"streetName":null,"villageName":null,"roadName":null,"communityName":null,"tranName":null,"sdLineName":null,"cityCode":"1340609","cityName":"国网定兴县供电公司","provinceCode":null,"stopTime":"2019-08-03 10:30:00","powerType":"全部","powerOffArea":"【全线路停电】停西韩村排3【纯农排变】,易上光4,易上营排7【纯农排变】,王村光5,西韩村排5【纯农排变】,河内光1【2018年节能变】,王村排6【纯农排变】,西韩村排8【纯农排变】,易上营光3,王村排3【纯农排变】,王村光10,河内光8,河内光4,王村混4,易上排14【纯农排变】,易上光8,王村排7【纯农排变】,易上排12【纯农排变】,河内光3,西韩村光3,50,西韩村排6【纯农排变】,易上营光8,辛安甫光8,*高里乡中,易上营光6,易上排11【纯农排变】,辛安甫排4【纯农排变】,王村光7,易上排20【纯农排变】,易上中心小学-500,王村排2【纯农排变】,辛安甫光4,西韩村光4,王村光11,河内排7【纯农排变】,易上营光2,辛安甫排1【纯农排变】,河内排3【纯农排变】,古桑排6【纯农排变】,西韩村排9【纯农排变】,辛安甫排3【纯农排变】,易上排19【纯农排变】,河内光5,200,易上营光7,易上光13,辛安甫光1,西韩村混1,易上营排5【纯农排变】,西韩村排2【纯农排变】,易上营排16【纯农排变】,易上排15【纯农排变】,王村光6,河内排5【纯农排变】,王村混5,中国移动通信集团河北有限公司定兴分公司（辛安甫基站）,易上营光1【2018年节能变】,易上营光5,西韩村排7【纯农排变】,王村光1,辛安甫光5,王村光4,陈江涛沙场,辛安甫排6【纯农排变】,河内排6【纯农排变】,西韩村光6,河内光2,易上排13【纯农排变】,辛安甫光3,河内排4-1【纯农排变】,易上光5,易上排18【纯农排变】,易上光10,易上营排4【纯农排变】,变压器,河内光6,河内小学,王村光8,西韩小学-50,王村光2,西韩村光2,易上营排6【纯农排变】,易上营光1,西韩村排4【纯农排变】,易上光5【2018年节能变】,王村排1【纯农排变】,西韩村光1,王村光3,王村光9,辛安甫排5【纯农排变】,易上营光4,王金明,辛安甫排2【纯农排变】,辛安甫光2,辛安甫光7,河内光1,辛安甫光9,河内光7,辛安甫光6,西韩村光5","powerOffReason":"【停电原因】由于王村排３分支０３号杆避雷器击穿导致３５ＫＶ景安变电站河内线５１２线路全线停电 【变更送电】因抢修进度加快原因，送电时间由１５：００变更为１０：３０ 【发布渠道】通过９５５９８发布","powerOffId":"2019080313000016"},{"poweroffId":2019080313000014,"sgpoweroffId":null,"subsName":"","lineName":"10kV贾辛庄线547","pubTranName":"1马庄内5,1马庄内2,1东于庄内3,马庄幼儿园,1马庄内4,1马庄内8,2东于庄外2【纯农排变】,保定全乐动物饲料制造有限公司,马庄电信局,2马庄外1【纯农排变】,1东于庄内2,2西于庄外4【纯农排变】,2西于庄外6【纯农排变】,2闸板口外9【纯农排变】,1马庄内1,2西于庄外8【纯农排变】,0387487731-西于庄西南-专变-45313615-西于庄西南2号,1西于庄内4,2西于庄外7【纯农排变】,1马庄内7,1西于庄内1,清苑县众旺养殖场,俊青养殖厂,西于庄小学,1西于庄内3,2马庄外2【纯农排变】,保定市清苑区良苑奶牛养殖场,1西于庄内7,1东于庄内1,1西于庄内6,2孟庄外4【纯农排变】,西于庄小学分校,闸板口砖厂(小),清苑县兴旺粮食购销有限责任公司,1西于庄内2,2马庄外3【纯农排变】,1马庄内3,2马庄外5【纯农排变】,1西于庄内5,2马庄外4【纯农排变】,马庄蛋托厂,2西于庄外5【纯农排变】,清苑县鑫兴奶牛养殖场,2东于庄外3【纯农排变】,良苑奶牛合作社养殖小区,2马庄外6【纯农排变】,2西于庄外9【纯农排变】,1马庄内6,","scope":"【影响街道/乡镇】望亭乡 【高危重要客户】无 【影响客户】马庄、东于庄、西于庄","startTime":"2019-08-03 06:59:21","stopDate":"2019-08-03 12:00:00","orgNo":"1340618","typeCode":"电网故障停限电","poweroffArea":"【全线路停电】停1马庄内2,1马庄内5,1东于庄内3,马庄幼儿园,1马庄内4,1马庄内8,2东于庄外2【纯农排变】,保定全乐动物饲料制造有限公司,马庄电信局,清苑县兴旺粮食购销有限责任公司,2马庄外1【纯农排变】,1东于庄内2,2西于庄外4【纯农排变】,1马庄内6,2西于庄外6【纯农排变】,2闸板口外9【纯农排变】,1马庄内1,2西于庄外8【纯农排变】,0387487731-西于庄西南-专变-45313615-西于庄西南2号,1西于庄内4,2西于庄外7【纯农排变】,1马庄内7,1西于庄内1,清苑县众旺养殖场,俊青养殖厂,西于庄小学,1西于庄内3,2马庄外2【纯农排变】,保定市清苑区良苑奶牛养殖场,1西于庄内7,1东于庄内1,1西于庄内6,2孟庄外4【纯农排变】,西于庄小学分校,闸板口砖厂(小),1西于庄内2,2马庄外3【纯农排变】,1马庄内3,2马庄外5【纯农排变】,1西于庄内5,2马庄外4【纯农排变】,马庄蛋托厂,2西于庄外5【纯农排变】,清苑县鑫兴奶牛养殖场,2东于庄外3【纯农排变】,良苑奶牛合作社养殖小区,2马庄外6【纯农排变】,2西于庄外9【纯农排变】","poweroffReason":"【停电原因】由于主干５３号杆北Ｔ７号杆鸟搭电线导致１１０ＫＶ臧村变电站１０ＫＶ贾辛庄线５４７线路全线停电 【变更送电】无 【发布渠道】通过９５５９８发布","powerTime":"2019-08-03 11:08:21","powerComm":"蔡顺强通知已送电","subsNo":"","lineNo":"","tgNo":"","tgName":null,"infoStatus":"1","orgName":"国网清苑县供电公司","typeName":null,"infoStatusName":null,"dateDay":null,"orgNos":null,"nowTime":null,"countyName":null,"streetName":null,"villageName":null,"roadName":null,"communityName":null,"tranName":null,"sdLineName":null,"cityCode":"1340618","cityName":"国网清苑县供电公司","provinceCode":null,"stopTime":"2019-08-03 12:00:00","powerType":"全部","powerOffArea":"【全线路停电】停1马庄内2,1马庄内5,1东于庄内3,马庄幼儿园,1马庄内4,1马庄内8,2东于庄外2【纯农排变】,保定全乐动物饲料制造有限公司,马庄电信局,清苑县兴旺粮食购销有限责任公司,2马庄外1【纯农排变】,1东于庄内2,2西于庄外4【纯农排变】,1马庄内6,2西于庄外6【纯农排变】,2闸板口外9【纯农排变】,1马庄内1,2西于庄外8【纯农排变】,0387487731-西于庄西南-专变-45313615-西于庄西南2号,1西于庄内4,2西于庄外7【纯农排变】,1马庄内7,1西于庄内1,清苑县众旺养殖场,俊青养殖厂,西于庄小学,1西于庄内3,2马庄外2【纯农排变】,保定市清苑区良苑奶牛养殖场,1西于庄内7,1东于庄内1,1西于庄内6,2孟庄外4【纯农排变】,西于庄小学分校,闸板口砖厂(小),1西于庄内2,2马庄外3【纯农排变】,1马庄内3,2马庄外5【纯农排变】,1西于庄内5,2马庄外4【纯农排变】,马庄蛋托厂,2西于庄外5【纯农排变】,清苑县鑫兴奶牛养殖场,2东于庄外3【纯农排变】,良苑奶牛合作社养殖小区,2马庄外6【纯农排变】,2西于庄外9【纯农排变】","powerOffReason":"【停电原因】由于主干５３号杆北Ｔ７号杆鸟搭电线导致１１０ＫＶ臧村变电站１０ＫＶ贾辛庄线５４７线路全线停电 【变更送电】无 【发布渠道】通过９５５９８发布","powerOffId":"2019080313000014"},{"poweroffId":2019080213000768,"sgpoweroffId":null,"subsName":"","lineName":"李家营524","pubTranName":"0665520963-高碑店顶津饮品有限公司-专变-201103003-高碑店市顶津饮品有限公司3#变压器,东盛马庄3变,高碑店市建筑集团公司变压器,高碑店市永杰汽车销售公司,温屯窗纱厂,建安公司,东盛马庄5变,高碑店市万通发展有限责任公司变压器,高碑店市龙安泰房地产开发有限公司变压器,中亚东,河北旭坤房地产开发有限公司,高碑店白象食品有限公司变压器,保定中油石油销售有限公司第二加油站,0387437765-高碑店市海轮风机制造有限责任公司-专变-45274527-海轮风机厂,吉亚无纺布厂,0609130229-河北高碑店市豆豆食品(集团)有限公司-专变-127561667-河北高碑店市豆豆食品（集团）有限公司变压器,东盛张八屯变压器,郭屯02变压器,华欣水泥2,温屯北变压器新架,高碑店市天天一泉水厂2,永安印铁变压器2,李凯风机厂西,高碑店市自来水公司变压器,交通局,高碑店市顶津饮品有限公司1#变压器,变压器,李凯风机厂,高碑店市路灯管理办公室变压器,高桂茹变压器,河北鹏达房地产开发有限公司变压器,0554901958-河北鼎泰华奥投资有限公司-专变-82386833-河北鼎泰华奥投资有限公司变压器,高碑店市诚惠家庭农场变压器,0554901958-河北鼎泰华奥投资有限公司-专变-82386835-河北鼎泰华奥投资有限公司变压器,高碑店市城市管理综合执法局112国道2号,高碑店市龙安泰房地产开发有限公司3号变压器,高碑店市龙安泰房地产开发有限公司2号变压器,东盛张八屯地变压器【纯农排变】,高碑店市电业局变压器,欣欣水泥机械厂,东盛马庄变压器,华欣水泥,河北旭坤房地产开发有限公司3#变压器,河北鹏达房地产开发有限公司,豆豆集团,高碑店市平生环保设备制造有限公司,河北京石高速公路开发有限公司,0665520963-高碑店顶津饮品有限公司-专变-201103001-高碑店市顶津饮品有限公司2#变压器,东盛马庄2变,高碑店市凯龙房地产开发有限公司5#变压器,郭屯03变压器,高碑店市凯龙房地产开发有限公司4#变压器,永安印铁变压器3,河北旭坤房地产开发有限公司2#变压器,高碑店市华创房地产开发有限公司,华铝,高碑店市凯龙房地产开发有限公司8#变压器,保定隆和房地产开发有限公司,0585511104-高碑店市路灯管理办公室-专变-125093165-高碑店市路灯管理办公室变压器,高碑店市凯龙房地产开发有限公司3#变压器,838充电站变压器,东盛张八屯南变压器,王克录,永安印铁,冀东商业公司,河北旭坤房地产开发有限公司4#变压器,东盛城南供电所变压器,碑店市凯龙房地产开发有限公司变压器,石家庄14号变压器,贾志明,东盛马庄1变,郭屯05变压器,河北高碑店市经济开发管理委员会变压器,东盛马庄4变,郭屯04变压器,河北隆泰物业变压器,东盛阎王庄南变压器,高碑店市园林局变压器,河北隆泰物业服务有限责任公司高碑店分公司1#变压器,中国石油保定第105站,东盛温屯北变压器,郭屯01变压器,高碑店市康美舒空气净化设备科技有限公司,东盛温屯北公变,石家庄2#公变变压器,高碑店市凯龙房地产开发有限公司7#变压器,高碑店市凯龙房地产开发有限公司6#","scope":"【影响街道/乡镇】东盛办事处 【高危重要客户】无 【影响客户】郭家屯村、马庄村、河北隆泰物业高碑店分公司、河北欣知语服饰有限公司、顶津饮品有限公司、河北旭坤房地产、万通发展有限责任公司、华永房地产、路灯管理办公室、河北鹏达房地产、高碑店市中房嘉业房地产、高碑店市诚惠家庭农场、天天一泉水厂、高碑店市永安印铁制罐有限责任公司、王克录、自来水公司、高碑店白象食品有限公司、高碑店市华创房地产、河北北方风机制造有限公司、交通局、明合彩钢有限公司、中国石油保定第１０５站、８３８车站、机动车驾驶员培训学校、昊青物业、高碑店市建筑集团公司、豆豆食品(集团)、河北鼎泰华奥投资有限公司、龙安泰房地产、经济开发管理委员会、高碑店市园林局、高碑店市京津风机厂、平生环保设备制造有限公司、贾志明、李中新、华欣水泥、建安公司菜园、海宏工业有限公司、华强制冷工程高碑店分公司、北京风机四厂、华彩装订有限责任公司、石家庄小区、高桂茹、亿博豪轩","startTime":"2019-08-02 23:11:26","stopDate":"2019-08-03 02:00:00","orgNo":"1340612","typeCode":"电网故障停限电","poweroffArea":"【全线路停电】停永安印铁变压器3,东盛阎王庄南变压器,高碑店市路灯管理办公室变压器,高桂茹变压器,河北鹏达房地产开发有限公司变压器,0554901958-河北鼎泰华奥投资有限公司-专变-82386833-河北鼎泰华奥投资有限公司变压器,高碑店市诚惠家庭农场变压器,0554901958-河北鼎泰华奥投资有限公司-专变-82386835-河北鼎泰华奥投资有限公司变压器,高碑店市城市管理综合执法局112国道2号,中国石化销售有限公司河北保定高碑店石油分公司,河北鹏达房地产开发有限公司,八方达客运有限公司天桥分公司变压器,高碑店市欣知语服饰有限公司变压器,河北北方风机制造有限公司,高碑店市华彩装订有限公司变压器,万通加油站,李中新,豆豆集团,贾志明,李凯风机厂西,高碑店市自来水公司变压器,交通局,高碑店市顶津饮品有限公司1#变压器,变压器,石家庄14号变压器,东盛马庄1变,郭屯05变压器,高碑店市平生环保设备制造有限公司,河北高碑店市经济开发管理委员会变压器,东盛马庄4变,郭屯04变压器,河北隆泰物业变压器,高碑店白象食品有限公司变压器,河北京石高速公路开发有限公司,0665520963-高碑店顶津饮品有限公司-专变-201103001-高碑店市顶津饮品有限公司2#变压器,0665520963-高碑店顶津饮品有限公司-专变-201103003-高碑店市顶津饮品有限公司3#变压器,东盛马庄3变,高碑店市建筑集团公司变压器,高碑店市天天一泉水厂2,保定中油石油销售有限公司第二加油站,0387437765-高碑店市海轮风机制造有限责任公司-专变-45274527-海轮风机厂,吉亚无纺布厂,0609130229-河北高碑店市豆豆食品(集团)有限公司-专变-127561667-河北高碑店市豆豆食品（集团）有限公司变压器,东盛张八屯变压器,华欣水泥2,温屯北变压器新架,永安印铁变压器2,高碑店市龙安泰房地产开发有限公司3号变压器,高碑店市龙安泰房地产开发有限公司2号变压器,东盛张八屯地变压器【纯农排变】,高碑店市电业局变压器,郭屯02变压器,欣欣水泥机械厂,李凯风机厂,保定隆和房地产开发有限公司,高碑店市永杰汽车销售公司,温屯窗纱厂,建安公司,东盛马庄5变,高碑店市万通发展有限责任公司变压器,高碑店市龙安泰房地产开发有限公司变压器,中亚东,河北旭坤房地产开发有限公司,河北旭坤房地产开发有限公司2#变压器,高碑店市华创房地产开发有限公司,华铝,高碑店市凯龙房地产开发有限公司8#变压器,838充电站变压器,0585511104-高碑店市路灯管理办公室-专变-125093165-高碑店市路灯管理办公室变压器,高碑店市凯龙房地产开发有限公司3#变压器,杨宝坤,东盛马庄变压器,华欣水泥,河北旭坤房地产开发有限公司3#变压器,东盛张八屯南变压器,王克录,永安印铁,冀东商业公司,河北旭坤房地产开发有限公司4#变压器,东盛城南供电所变压器,碑店市凯龙房地产开发有限公司变压器,高碑店市园林局变压器,河北隆泰物业服务有限责任公司高碑店分公司1#变压器,中国石油保定第105站,东盛温屯北变压器,郭屯01变压器,高碑店市康美舒空气净化设备科技有限公司,东盛温屯北公变,石家庄2#公变变压器,高碑店市凯龙房地产开发有限公司7#变压器,高碑店市凯龙房地产开发有限公司6#变压器,温屯公变,东盛马庄2变,高碑店市凯龙房地产开发有限公司5#变压器,郭屯03变压器,高碑店市凯龙房地产开发有限公司4#变压器","poweroffReason":"【停电原因】由于高压计量烧毁导致１１０ＫＶ马庄变电站１０ＫＶ李家营５２４线路全线停电 【变更送电】因抢修进度加快原因，送电时间由０４：００变更为０２：００ 【发布渠道】通过９５５９８发布","powerTime":"2019-08-03 01:20:00","powerComm":"已送电","subsNo":"","lineNo":"","tgNo":"","tgName":null,"infoStatus":"1","orgName":"国网高碑店市供电公司","typeName":null,"infoStatusName":null,"dateDay":null,"orgNos":null,"nowTime":null,"countyName":null,"streetName":null,"villageName":null,"roadName":null,"communityName":null,"tranName":null,"sdLineName":null,"cityCode":"1340612","cityName":"国网高碑店市供电公司","provinceCode":null,"stopTime":"2019-08-03 02:00:00","powerType":"全部","powerOffArea":"【全线路停电】停永安印铁变压器3,东盛阎王庄南变压器,高碑店市路灯管理办公室变压器,高桂茹变压器,河北鹏达房地产开发有限公司变压器,0554901958-河北鼎泰华奥投资有限公司-专变-82386833-河北鼎泰华奥投资有限公司变压器,高碑店市诚惠家庭农场变压器,0554901958-河北鼎泰华奥投资有限公司-专变-82386835-河北鼎泰华奥投资有限公司变压器,高碑店市城市管理综合执法局112国道2号,中国石化销售有限公司河北保定高碑店石油分公司,河北鹏达房地产开发有限公司,八方达客运有限公司天桥分公司变压器,高碑店市欣知语服饰有限公司变压器,河北北方风机制造有限公司,高碑店市华彩装订有限公司变压器,万通加油站,李中新,豆豆集团,贾志明,李凯风机厂西,高碑店市自来水公司变压器,交通局,高碑店市顶津饮品有限公司1#变压器,变压器,石家庄14号变压器,东盛马庄1变,郭屯05变压器,高碑店市平生环保设备制造有限公司,河北高碑店市经济开发管理委员会变压器,东盛马庄4变,郭屯04变压器,河北隆泰物业变压器,高碑店白象食品有限公司变压器,河北京石高速公路开发有限公司,0665520963-高碑店顶津饮品有限公司-专变-201103001-高碑店市顶津饮品有限公司2#变压器,0665520963-高碑店顶津饮品有限公司-专变-201103003-高碑店市顶津饮品有限公司3#变压器,东盛马庄3变,高碑店市建筑集团公司变压器,高碑店市天天一泉水厂2,保定中油石油销售有限公司第二加油站,0387437765-高碑店市海轮风机制造有限责任公司-专变-45274527-海轮风机厂,吉亚无纺布厂,0609130229-河北高碑店市豆豆食品(集团)有限公司-专变-127561667-河北高碑店市豆豆食品（集团）有限公司变压器,东盛张八屯变压器,华欣水泥2,温屯北变压器新架,永安印铁变压器2,高碑店市龙安泰房地产开发有限公司3号变压器,高碑店市龙安泰房地产开发有限公司2号变压器,东盛张八屯地变压器【纯农排变】,高碑店市电业局变压器,郭屯02变压器,欣欣水泥机械厂,李凯风机厂,保定隆和房地产开发有限公司,高碑店市永杰汽车销售公司,温屯窗纱厂,建安公司,东盛马庄5变,高碑店市万通发展有限责任公司变压器,高碑店市龙安泰房地产开发有限公司变压器,中亚东,河北旭坤房地产开发有限公司,河北旭坤房地产开发有限公司2#变压器,高碑店市华创房地产开发有限公司,华铝,高碑店市凯龙房地产开发有限公司8#变压器,838充电站变压器,0585511104-高碑店市路灯管理办公室-专变-125093165-高碑店市路灯管理办公室变压器,高碑店市凯龙房地产开发有限公司3#变压器,杨宝坤,东盛马庄变压器,华欣水泥,河北旭坤房地产开发有限公司3#变压器,东盛张八屯南变压器,王克录,永安印铁,冀东商业公司,河北旭坤房地产开发有限公司4#变压器,东盛城南供电所变压器,碑店市凯龙房地产开发有限公司变压器,高碑店市园林局变压器,河北隆泰物业服务有限责任公司高碑店分公司1#变压器,中国石油保定第105站,东盛温屯北变压器,郭屯01变压器,高碑店市康美舒空气净化设备科技有限公司,东盛温屯北公变,石家庄2#公变变压器,高碑店市凯龙房地产开发有限公司7#变压器,高碑店市凯龙房地产开发有限公司6#变压器,温屯公变,东盛马庄2变,高碑店市凯龙房地产开发有限公司5#变压器,郭屯03变压器,高碑店市凯龙房地产开发有限公司4#变压器","powerOffReason":"【停电原因】由于高压计量烧毁导致１１０ＫＶ马庄变电站１０ＫＶ李家营５２４线路全线停电 【变更送电】因抢修进度加快原因，送电时间由０４：００变更为０２：００ 【发布渠道】通过９５５９８发布","powerOffId":"2019080213000768"},{"poweroffId":2019080213000758,"sgpoweroffId":null,"subsName":"","lineName":"10kV518丰利线","pubTranName":"刘铭庄农排二十二台区【纯农排变】,刘铭庄综合九台区,蠡县鑫顺纺织有限公司变压器,刘铭庄农排十六台区【纯农排变】,辉腾纺织厂,0469442292-蠡县刘铭庄庆勋预制件厂-专变-46811348-蠡县刘铭庄庆勋预制件厂,河北时代毛纺厂,田杨毛纺毛织厂,蠡县腾达地毯纱厂,恒信毛绒制品有限公司,丰利毛纺厂变压器,0469443439-刘铭庄搅拌站-专变-85869837-刘铭庄搅拌站,保定昌宇有限公司,田杨毛纺厂,蠡县兴帮毛纺厂变压器,刘铭庄综合45台区,刘铭庄农排1台区【纯农排变】,刘铭庄综合八台区,蠡县刘铭庄大光合股厂变压器,刘铭庄农排二十三台区【纯农排变】,刘铭庄农排三十七台区【纯农排变】,刘铭庄综合七台区,客户投资_刘铭庄综合39台区,刘铭庄综合48台区,刘铭庄农排三十六台区【纯农排变】,蠡县刘铭庄飞腾皮毛厂,中国联通蠡县分公司,刘铭庄综合12台区,刘铭庄农排十八台区【纯农排变】,丰利毛纺厂,刘铭庄农排十一台区【纯农排变】,王军毛纺厂,刘铭庄综合六台区,刘铭庄综合47台区,变压器,国胜板厂,老百姓面粉厂,天亿毛绒织物有限公司,","scope":"【影响街道/乡镇】万安镇【高危重要客户】无【影响客户】刘铭庄村","startTime":"2019-08-02 22:15:25","stopDate":"2019-08-02 23:30:00","orgNo":"1340616","typeCode":"电网故障停限电","poweroffArea":"【全线路停电】停刘铭庄农排1台区【纯农排变】,刘铭庄综合八台区,蠡县刘铭庄大光合股厂变压器,刘铭庄农排二十三台区【纯农排变】,刘铭庄农排三十七台区【纯农排变】,刘铭庄综合七台区,客户投资_刘铭庄综合39台区,刘铭庄综合48台区,刘铭庄农排三十六台区【纯农排变】,蠡县刘铭庄飞腾皮毛厂,中国联通蠡县分公司,刘铭庄综合12台区,刘铭庄农排十八台区【纯农排变】,丰利毛纺厂,刘铭庄农排十一台区【纯农排变】,王军毛纺厂,刘铭庄综合六台区,刘铭庄综合47台区,变压器,国胜板厂,老百姓面粉厂,天亿毛绒织物有限公司,丰利毛纺厂变压器,刘铭庄综合九台区,蠡县鑫顺纺织有限公司变压器,刘铭庄农排十六台区【纯农排变】,辉腾纺织厂,0469442292-蠡县刘铭庄庆勋预制件厂-专变-46811348-蠡县刘铭庄庆勋预制件厂,河北时代毛纺厂,田杨毛纺毛织厂,蠡县腾达地毯纱厂,刘铭庄农排二十二台区【纯农排变】,恒信毛绒制品有限公司,0469443439-刘铭庄搅拌站-专变-85869837-刘铭庄搅拌站,保定昌宇有限公司,田杨毛纺厂,蠡县兴帮毛纺厂变压器,刘铭庄综合45台区","poweroffReason":"【停电原因】由于线路接地导致１１０ＫＶ刘铭庄变电站１０ＫＶ丰利５１８线路全线停电【变更送电】因抢修进度加快原因，送电时间由３日０９：００变更为２日２３：３０【发布渠道】通过９５５９８发布","powerTime":"2019-08-02 22:55:28","powerComm":"已送电","subsNo":"","lineNo":"","tgNo":"","tgName":null,"infoStatus":"1","orgName":"国网蠡县供电公司","typeName":null,"infoStatusName":null,"dateDay":null,"orgNos":null,"nowTime":null,"countyName":null,"streetName":null,"villageName":null,"roadName":null,"communityName":null,"tranName":null,"sdLineName":null,"cityCode":"1340616","cityName":"国网蠡县供电公司","provinceCode":null,"stopTime":"2019-08-02 23:30:00","powerType":"全部","powerOffArea":"【全线路停电】停刘铭庄农排1台区【纯农排变】,刘铭庄综合八台区,蠡县刘铭庄大光合股厂变压器,刘铭庄农排二十三台区【纯农排变】,刘铭庄农排三十七台区【纯农排变】,刘铭庄综合七台区,客户投资_刘铭庄综合39台区,刘铭庄综合48台区,刘铭庄农排三十六台区【纯农排变】,蠡县刘铭庄飞腾皮毛厂,中国联通蠡县分公司,刘铭庄综合12台区,刘铭庄农排十八台区【纯农排变】,丰利毛纺厂,刘铭庄农排十一台区【纯农排变】,王军毛纺厂,刘铭庄综合六台区,刘铭庄综合47台区,变压器,国胜板厂,老百姓面粉厂,天亿毛绒织物有限公司,丰利毛纺厂变压器,刘铭庄综合九台区,蠡县鑫顺纺织有限公司变压器,刘铭庄农排十六台区【纯农排变】,辉腾纺织厂,0469442292-蠡县刘铭庄庆勋预制件厂-专变-46811348-蠡县刘铭庄庆勋预制件厂,河北时代毛纺厂,田杨毛纺毛织厂,蠡县腾达地毯纱厂,刘铭庄农排二十二台区【纯农排变】,恒信毛绒制品有限公司,0469443439-刘铭庄搅拌站-专变-85869837-刘铭庄搅拌站,保定昌宇有限公司,田杨毛纺厂,蠡县兴帮毛纺厂变压器,刘铭庄综合45台区","powerOffReason":"【停电原因】由于线路接地导致１１０ＫＶ刘铭庄变电站１０ＫＶ丰利５１８线路全线停电【变更送电】因抢修进度加快原因，送电时间由３日０９：００变更为２日２３：３０【发布渠道】通过９５５９８发布","powerOffId":"2019080213000758"},{"poweroffId":2019080213000751,"sgpoweroffId":null,"subsName":"","lineName":"肖村线511","pubTranName":"十五汲排10【纯农排变】,肖村排2【纯农排变】,肖村光1,西肖村光5【2018年节能变】,十五汲排1【纯农排变】,西肖村光5,东肖村排4【纯农排变】,东肖村排灌【纯农排变】,肖村光4变压器,西肖村排3【纯农排变】,十五汲砖厂1,西肖村排1【纯农排变】,新十五汲光3,*西肖村小学,西肖村光4,十五汲排4【纯农排变】,肖村排3【纯农排变】,肖村排6【纯农排变】,东肖村排3【纯农排变】,西肖村排8【纯农排变】,西肖村光11,0696770108-定兴县十五汲村小学-专变-240815693-十五汲小学,0691848572-定兴县肖村乡北七小学-专变-235623940-北七小学-400,东肖村光5,西肖村光8,*肖村乡政府,耿庄排4【纯农排变】,北七排8【纯农排变】,西肖村光9,十五汲光7,800KVA,西肖村光6变压器,十五汲光1,东肖村排12【纯农排变】,东肖村光4,西肖村排4【纯农排变】,*西肖村面粉厂2#,0696770007-定兴县肖村中心幼儿园-专变-240818969-肖村中心幼儿园,0694611168-定兴县第二中学二分校-专变-237547887-肖村二中分校,十五汲排3【纯农排变】,北七光1【2018年重过载】,西肖村排9【纯农排变】,十五汲光6,十五汲排2【纯农排变】,东肖村排2,东肖村排1,杨术录-100,东肖村光3,十五汲砖厂100,肖村排4【纯农排变】,新北七光4,东肖村排7【纯农排变】,东肖村排13【纯农排变】,西肖村光13【灾后重建】,160,十五汲排7【纯农排变】,十五汲排9【纯农排变】,东肖村光2,西肖村光7,东肖村光6,0469296251-*定兴县盟隆高科开发有限公司-专变-46772379-*定兴县盟隆高科开发有限公司,十五汲光2,*中国网通（集团）有限公司定兴县分公司,肖村营排1-2【纯农排变】,史庄排2【纯农排变】,东肖村排2【纯农排变】,西肖村排5【纯农排变】,0691853493-定兴县肖村乡西肖村小学-专变-235621692-西肖村小学-315,西肖村光12【灾后重建】,0469297531-*温馨岛-专变-46772324-*温馨岛,西肖村光14【2018年重过载】,肖村光3,东肖村光1,东肖村排9【纯农排变】,西肖村排10【纯农排变】,北七光1,定兴县方盛金属木业200,西肖村光6,东肖村排5【纯农排变】,西肖村排2【纯农排变】,北七养殖小区,西肖村光10,新西肖村光3,*西肖村面粉厂1#,西肖村光2,西肖村排7【纯农排变】,肖村光2,十五汲排8【纯农排变】,东肖村排14【纯农排变】,东肖村排11【纯农排变】,新十五汲光5,十五汲光8,新十五汲光4,十五汲排5【纯农排变】,北七排6【纯农排变】,北七排5【纯农排变】,北七排4【纯农排变】,二中分校（肖村）——315,十五汲光9,西肖村光1,十五级排6【纯农排变】,","scope":"【影响街道/乡镇】肖村乡 【高危重要客户】无 【影响客户】肖村乡政府、肖村乡中学、西肖村小学、北七、东肖村、肖村、西肖村、十五汲、耿庄部分用户、史庄部分用户、六里铺部分用户","startTime":"2019-08-02 21:13:58","stopDate":"2019-08-03 00:00:00","orgNo":"1340609","typeCode":"电网故障停限电","poweroffArea":"【全线路停电】停西肖村光9,肖村排4【纯农排变】,新北七光4,东肖村排7【纯农排变】,西肖村光13【灾后重建】,160,东肖村光5,十五汲排1【纯农排变】,西肖村光8,*肖村乡政府,耿庄排4【纯农排变】,北七排8【纯农排变】,0469296251-*定兴县盟隆高科开发有限公司-专变-46772379-*定兴县盟隆高科开发有限公司,*中国网通（集团）有限公司定兴县分公司,肖村营排1-2【纯农排变】,史庄排2【纯农排变】,西肖村光5,东肖村排4【纯农排变】,东肖村排灌【纯农排变】,肖村光4变压器,西肖村排3【纯农排变】,十五汲砖厂1,西肖村排1【纯农排变】,新十五汲光3,*西肖村小学,西肖村光4,十五汲排4【纯农排变】,肖村排3【纯农排变】,肖村排6【纯农排变】,东肖村排3【纯农排变】,十五汲排10【纯农排变】,肖村排2【纯农排变】,肖村光1,0696770108-定兴县十五汲村小学-专变-240815693-十五汲小学,西肖村光5【2018年节能变】,十五汲光7,800KVA,西肖村光6变压器,十五汲光1,东肖村排12【纯农排变】,东肖村光4,西肖村排4【纯农排变】,十五汲排9【纯农排变】,十五汲排7【纯农排变】,东肖村光2,西肖村光7,东肖村光6,十五汲排5【纯农排变】,北七排6【纯农排变】,东肖村排1,北七排5【纯农排变】,北七排4【纯农排变】,二中分校（肖村）——315,十五汲光9,西肖村光1,十五级排6【纯农排变】,北七光1,定兴县方盛金属木业200,西肖村光6,东肖村排5【纯农排变】,西肖村排2【纯农排变】,西肖村排8【纯农排变】,西肖村光11,十五汲光2,0691848572-定兴县肖村乡北七小学-专变-235623940-北七小学-400,*西肖村面粉厂2#,0696770007-定兴县肖村中心幼儿园-专变-240818969-肖村中心幼儿园,0694611168-定兴县第二中学二分校-专变-237547887-肖村二中分校,十五汲排3【纯农排变】,北七光1【2018年重过载】,西肖村排9【纯农排变】,十五汲光6,十五汲排2【纯农排变】,东肖村排2,0691853493-定兴县肖村乡西肖村小学-专变-235621692-西肖村小学-315,西肖村光12【灾后重建】,0469297531-*温馨岛-专变-46772324-*温馨岛,西肖村光14【2018年重过载】,肖村光3,东肖村光1,东肖村排9【纯农排变】,西肖村排10【纯农排变】,西肖村光10,新西肖村光3,*西肖村面粉厂1#,西肖村光2,西肖村排7【纯农排变】,肖村光2,十五汲排8【纯农排变】,东肖村排14【纯农排变】,东肖村排11【纯农排变】,新十五汲光5,十五汲光8,新十五汲光4,东肖村排13【纯农排变】,北七养殖小区,东肖村排2【纯农排变】,西肖村排5【纯农排变】,杨术录-100,东肖村光3,十五汲砖厂100","poweroffReason":"【停电原因】由于十五汲光２分支电缆被挖断导致１１０ＫＶ北河变电站肖村线５１１线路全线停电 【变更送电】无 【发布渠道】通过９５５９８发布","powerTime":"2019-08-02 23:02:46","powerComm":"已送电","subsNo":"","lineNo":"","tgNo":"","tgName":null,"infoStatus":"1","orgName":"国网定兴县供电公司","typeName":null,"infoStatusName":null,"dateDay":null,"orgNos":null,"nowTime":null,"countyName":null,"streetName":null,"villageName":null,"roadName":null,"communityName":null,"tranName":null,"sdLineName":null,"cityCode":"1340609","cityName":"国网定兴县供电公司","provinceCode":null,"stopTime":"2019-08-03 00:00:00","powerType":"全部","powerOffArea":"【全线路停电】停西肖村光9,肖村排4【纯农排变】,新北七光4,东肖村排7【纯农排变】,西肖村光13【灾后重建】,160,东肖村光5,十五汲排1【纯农排变】,西肖村光8,*肖村乡政府,耿庄排4【纯农排变】,北七排8【纯农排变】,0469296251-*定兴县盟隆高科开发有限公司-专变-46772379-*定兴县盟隆高科开发有限公司,*中国网通（集团）有限公司定兴县分公司,肖村营排1-2【纯农排变】,史庄排2【纯农排变】,西肖村光5,东肖村排4【纯农排变】,东肖村排灌【纯农排变】,肖村光4变压器,西肖村排3【纯农排变】,十五汲砖厂1,西肖村排1【纯农排变】,新十五汲光3,*西肖村小学,西肖村光4,十五汲排4【纯农排变】,肖村排3【纯农排变】,肖村排6【纯农排变】,东肖村排3【纯农排变】,十五汲排10【纯农排变】,肖村排2【纯农排变】,肖村光1,0696770108-定兴县十五汲村小学-专变-240815693-十五汲小学,西肖村光5【2018年节能变】,十五汲光7,800KVA,西肖村光6变压器,十五汲光1,东肖村排12【纯农排变】,东肖村光4,西肖村排4【纯农排变】,十五汲排9【纯农排变】,十五汲排7【纯农排变】,东肖村光2,西肖村光7,东肖村光6,十五汲排5【纯农排变】,北七排6【纯农排变】,东肖村排1,北七排5【纯农排变】,北七排4【纯农排变】,二中分校（肖村）——315,十五汲光9,西肖村光1,十五级排6【纯农排变】,北七光1,定兴县方盛金属木业200,西肖村光6,东肖村排5【纯农排变】,西肖村排2【纯农排变】,西肖村排8【纯农排变】,西肖村光11,十五汲光2,0691848572-定兴县肖村乡北七小学-专变-235623940-北七小学-400,*西肖村面粉厂2#,0696770007-定兴县肖村中心幼儿园-专变-240818969-肖村中心幼儿园,0694611168-定兴县第二中学二分校-专变-237547887-肖村二中分校,十五汲排3【纯农排变】,北七光1【2018年重过载】,西肖村排9【纯农排变】,十五汲光6,十五汲排2【纯农排变】,东肖村排2,0691853493-定兴县肖村乡西肖村小学-专变-235621692-西肖村小学-315,西肖村光12【灾后重建】,0469297531-*温馨岛-专变-46772324-*温馨岛,西肖村光14【2018年重过载】,肖村光3,东肖村光1,东肖村排9【纯农排变】,西肖村排10【纯农排变】,西肖村光10,新西肖村光3,*西肖村面粉厂1#,西肖村光2,西肖村排7【纯农排变】,肖村光2,十五汲排8【纯农排变】,东肖村排14【纯农排变】,东肖村排11【纯农排变】,新十五汲光5,十五汲光8,新十五汲光4,东肖村排13【纯农排变】,北七养殖小区,东肖村排2【纯农排变】,西肖村排5【纯农排变】,杨术录-100,东肖村光3,十五汲砖厂100","powerOffReason":"【停电原因】由于十五汲光２分支电缆被挖断导致１１０ＫＶ北河变电站肖村线５１１线路全线停电 【变更送电】无 【发布渠道】通过９５５９８发布","powerOffId":"2019080213000751"},{"poweroffId":2019080213000748,"sgpoweroffId":null,"subsName":"","lineName":"小水泥线514","pubTranName":"赵庄板厂农业【纯农排变】,食用菌,望都县环东机械配件厂,0563240875-望都县宏峰机械加工厂-专变-208423558-望都县宏峰机械加工厂,左振永副业,望都县腾达机械配件厂,太行机械配件厂500,变压器,望都县双利钢铁铸造厂（普通合伙）,福美特肥业有限公司,","scope":"【影响街道/乡镇】望都镇　　 【高危重要客户】无　　 【影响客户】福美特肥业、食用菌、双利钢厂、左振永副业、太行机械配件、环东机械配件、宏峰机械加工、望都县东升铸造厂、赵庄板厂农业、望都县腾达机械配件厂","startTime":"2019-08-02 21:04:32","stopDate":"2019-08-02 23:00:00","orgNo":"1340623","typeCode":"电网故障停限电","poweroffArea":"【全线路停电】停赵庄板厂农业【纯农排变】,食用菌,望都县环东机械配件厂,0563240875-望都县宏峰机械加工厂-专变-208423558-望都县宏峰机械加工厂,左振永副业,望都县腾达机械配件厂,太行机械配件厂500,变压器,望都县双利钢铁铸造厂（普通合伙）,福美特肥业有限公司","poweroffReason":"【停电原因】由于站内开关跳闸导致３５ＫＶ工业变电站小水泥线５１４线路全线停电 【变更送电】因抢修进度加快原因，送电时间由０３日１０：００变更为０２日２３：００ 【发布渠道】通过９５５９８发布","powerTime":"2019-08-02 22:35:20","powerComm":"已送电","subsNo":"","lineNo":"","tgNo":"","tgName":null,"infoStatus":"1","orgName":"国网望都县供电公司","typeName":null,"infoStatusName":null,"dateDay":null,"orgNos":null,"nowTime":null,"countyName":null,"streetName":null,"villageName":null,"roadName":null,"communityName":null,"tranName":null,"sdLineName":null,"cityCode":"1340623","cityName":"国网望都县供电公司","provinceCode":null,"stopTime":"2019-08-02 23:00:00","powerType":"全部","powerOffArea":"【全线路停电】停赵庄板厂农业【纯农排变】,食用菌,望都县环东机械配件厂,0563240875-望都县宏峰机械加工厂-专变-208423558-望都县宏峰机械加工厂,左振永副业,望都县腾达机械配件厂,太行机械配件厂500,变压器,望都县双利钢铁铸造厂（普通合伙）,福美特肥业有限公司","powerOffReason":"【停电原因】由于站内开关跳闸导致３５ＫＶ工业变电站小水泥线５１４线路全线停电 【变更送电】因抢修进度加快原因，送电时间由０３日１０：００变更为０２日２３：００ 【发布渠道】通过９５５９８发布","powerOffId":"2019080213000748"},{"poweroffId":2019080213000696,"sgpoweroffId":null,"subsName":"","lineName":"石门线515","pubTranName":"涞源县宏伟置业房地产开发有限公司变压器,河北雄源服装科技有限公司变压器,涞源县康利选矿厂变压器,石门515甲村学校户,康利铁选厂,北屯南,涞源县涞源镇甲村中心小学变压器,涞源县新砼商品混凝土有限公司变压器,涞源县龙鑫矿业有限责任公司变压器,燎原公司,河北建设集团股份有限公司混凝土分公司变压器,北屯北变压器,涞源县存宝装卸服务部变压器,嘉太选厂,河北涞源经济开发区管理委员会变压器,涞源县公安局涞源镇派出所变压器,奥利新型建材公司,北屯新北,曹建国,0469108095-涞源县融达石油有限责任公司-专变-46720317-融达加油站,百特公司,森林选厂,涞源县壁正水泥制品有限公司变压器,","scope":"【影响街道/乡镇】涞源镇【高危重要客户】无【影响客户】北屯、甲村学校","startTime":"2019-08-02 19:24:33","stopDate":"2019-08-02 21:15:43","orgNo":"1340615","typeCode":"电网故障停限电","poweroffArea":"【全线路停电】停百特公司,涞源县宏伟置业房地产开发有限公司变压器,河北雄源服装科技有限公司变压器,涞源县康利选矿厂变压器,石门515甲村学校户,康利铁选厂,北屯南,涞源县涞源镇甲村中心小学变压器,涞源县新砼商品混凝土有限公司变压器,涞源县龙鑫矿业有限责任公司变压器,燎原公司,河北建设集团股份有限公司混凝土分公司变压器,北屯北变压器,涞源县存宝装卸服务部变压器,嘉太选厂,河北涞源经济开发区管理委员会变压器,涞源县壁正水泥制品有限公司变压器,涞源县公安局涞源镇派出所变压器,奥利新型建材公司,北屯新北,曹建国,0469108095-涞源县融达石油有限责任公司-专变-46720317-融达加油站,森林选厂","poweroffReason":"【停电原因】由于速断掉闸导致３５ＫＶ城关变电站１０ＫＶ石门线５１５线路全线停电【变更送电】因抢修进度加快，原定２３：４０送电现计划２１：１５送电【发布渠道】通过９５５９８发布","powerTime":"2019-08-02 20:51:03","powerComm":"已送电","subsNo":"","lineNo":"","tgNo":"","tgName":null,"infoStatus":"1","orgName":"国网涞源县供电公司","typeName":null,"infoStatusName":null,"dateDay":null,"orgNos":null,"nowTime":null,"countyName":null,"streetName":null,"villageName":null,"roadName":null,"communityName":null,"tranName":null,"sdLineName":null,"cityCode":"1340615","cityName":"国网涞源县供电公司","provinceCode":null,"stopTime":"2019-08-02 21:15:43","powerType":"全部","powerOffArea":"【全线路停电】停百特公司,涞源县宏伟置业房地产开发有限公司变压器,河北雄源服装科技有限公司变压器,涞源县康利选矿厂变压器,石门515甲村学校户,康利铁选厂,北屯南,涞源县涞源镇甲村中心小学变压器,涞源县新砼商品混凝土有限公司变压器,涞源县龙鑫矿业有限责任公司变压器,燎原公司,河北建设集团股份有限公司混凝土分公司变压器,北屯北变压器,涞源县存宝装卸服务部变压器,嘉太选厂,河北涞源经济开发区管理委员会变压器,涞源县壁正水泥制品有限公司变压器,涞源县公安局涞源镇派出所变压器,奥利新型建材公司,北屯新北,曹建国,0469108095-涞源县融达石油有限责任公司-专变-46720317-融达加油站,森林选厂","powerOffReason":"【停电原因】由于速断掉闸导致３５ＫＶ城关变电站１０ＫＶ石门线５１５线路全线停电【变更送电】因抢修进度加快，原定２３：４０送电现计划２１：１５送电【发布渠道】通过９５５９８发布","powerOffId":"2019080213000696"},{"poweroffId":2019080213000683,"sgpoweroffId":null,"subsName":"","lineName":"瀑河线517","pubTranName":"贾庄2号,西凡11号【纯农排变】,屯里13号,杨庄2号(西),西凡14号,屯里2号,屯里7号,屯里9号【纯农排变】,屯里16号,西凡13号,贾庄7号【纯农排变】,屯里11号【纯农排变】,贾庄4号【纯农排变】,屯里3号,新乡5号【纯农排变】,贾庄8号【纯农排变】,新乡8号【纯农排变】,屯里1号,贾庄10号,向阳5号,屯里5号【纯农排变】,新乡9号,杨庄1号（西）,西凡2号,屯里15号,新乡4号【纯农排变】,贾庄15号,屯里12号,贾庄9号,贾庄1号,东凡3号【纯农排变】,西凡6号,贾庄11号,向阳2号【纯农排变】,西凡3号,贾庄6号【纯农排变】,西凡4号,新乡2号,贾庄13号,贾庄3号,向阳村4号,椿木峪2号,椿木峪1号,贾庄12号,向阳1号,","scope":"【影响街道/乡镇】户木乡 【高危重要客户】无 【影响客户】东凡村，西凡村，新乡村，椿木峪村，向阳村，杨庄村，贾庄村，屯里村","startTime":"2019-08-03 05:00:00","stopDate":"2019-08-03 09:00:00","orgNo":"1340605","typeCode":"其他临时停电","poweroffArea":"【分支停电】停贾庄7号【纯农排变】,屯里16号,西凡13号,屯里11号【纯农排变】,贾庄4号【纯农排变】,屯里3号,新乡5号【纯农排变】,贾庄8号【纯农排变】,新乡8号【纯农排变】,屯里1号,贾庄10号,向阳5号,屯里5号【纯农排变】,新乡9号,杨庄1号（西）,西凡2号,屯里15号,新乡4号【纯农排变】,贾庄15号,屯里12号,贾庄9号,贾庄1号,东凡3号【纯农排变】,西凡6号,贾庄11号,向阳2号【纯农排变】,西凡3号,贾庄6号【纯农排变】,西凡4号,新乡2号,贾庄13号,贾庄3号,向阳村4号,椿木峪2号,椿木峪1号,贾庄12号,向阳1号,贾庄2号,西凡11号【纯农排变】,屯里13号,杨庄2号(西),西凡14号,屯里2号,屯里7号,屯里9号【纯农排变】","poweroffReason":"【停电原因】由于处理紧急缺陷导致３５ＫＶ户木变电站瀑河线５１７线路３３号杆分段开关以下线路停电 【变更送电】无 【发布渠道】通过９５５９８发布","powerTime":"2019-08-03 08:01:33","powerComm":"已送电","subsNo":"","lineNo":"","tgNo":"","tgName":null,"infoStatus":"1","orgName":"国网徐水县供电公司","typeName":null,"infoStatusName":null,"dateDay":null,"orgNos":null,"nowTime":null,"countyName":null,"streetName":null,"villageName":null,"roadName":null,"communityName":null,"tranName":null,"sdLineName":null,"cityCode":"1340605","cityName":"国网徐水县供电公司","provinceCode":null,"stopTime":"2019-08-03 09:00:00","powerType":"全部","powerOffArea":"【分支停电】停贾庄7号【纯农排变】,屯里16号,西凡13号,屯里11号【纯农排变】,贾庄4号【纯农排变】,屯里3号,新乡5号【纯农排变】,贾庄8号【纯农排变】,新乡8号【纯农排变】,屯里1号,贾庄10号,向阳5号,屯里5号【纯农排变】,新乡9号,杨庄1号（西）,西凡2号,屯里15号,新乡4号【纯农排变】,贾庄15号,屯里12号,贾庄9号,贾庄1号,东凡3号【纯农排变】,西凡6号,贾庄11号,向阳2号【纯农排变】,西凡3号,贾庄6号【纯农排变】,西凡4号,新乡2号,贾庄13号,贾庄3号,向阳村4号,椿木峪2号,椿木峪1号,贾庄12号,向阳1号,贾庄2号,西凡11号【纯农排变】,屯里13号,杨庄2号(西),西凡14号,屯里2号,屯里7号,屯里9号【纯农排变】","powerOffReason":"【停电原因】由于处理紧急缺陷导致３５ＫＶ户木变电站瀑河线５１７线路３３号杆分段开关以下线路停电 【变更送电】无 【发布渠道】通过９５５９８发布","powerOffId":"2019080213000683"}],"pageModel":{"pageNow":695,"totalCount":10973,"totalPage":1098,"tableRows":0,"pageCount":10,"beginCount":6940},"isExperi":"1"}