{"message":"","today":"2020-06-15","seleList":[{"poweroffId":2020052221000062,"sgpoweroffId":null,"subsName":"","lineName":"10kV百楼站530线路","pubTranName":"0748628870-河北中邦房地产开发有限公司-04,","scope":"【影响街道/乡镇】腾飞路、科苑街 【高危重要客户】无 【影响客户】民营科技园、保定学院、保定市宇航机械科技有限公司、保定市华异特电气有限公司、保定市北市区智都网吧、保定市中冀汽车贸易集团有限公司、中博科技开发有限公司、华宇风机制造有限公司、保定排水总公司、华北电力变压器厂","startTime":"2020-05-22 11:30:29","stopDate":"2020-05-22 13:00:29","orgNo":"13406","typeCode":"电网故障停限电","poweroffArea":"【全线路停电】停0357559842-保定市宇航机械科技有限公司-1-配电室-变压器-1,0357504389-保定市北市区智都网吧-专变,0684881588-保定新时代物流配送有限公司-专变-223609061-变压器,0748628870-河北中邦房地产开发有限公司-05,变压器,0748628870-河北中邦房地产开发有限公司-03,0621830084-保定市排水总公司-专变,0357461615-保定市华异特电气有限公司-1-配电室-变压器-1,0621830084-保定市排水总公司-专变-129863228-变压器,0748628870-河北中邦房地产开发有限公司-02,0356507970-保定市东方整流变压器有限公司-1-配电室-变压器-1,0356272625-保定民营科技产业园区管委会-1-配电室-变压器-2,0356556493-中国电信集团公司保定市分公司-专变-1250KVA变压器,0748628870-河北中邦房地产开发有限公司-04,0357266207-保定市宇航机械科技有限公司-1-配电室-变压器-1,0356556334-保定市路灯管理处-专变,0748628870-河北中邦房地产开发有限公司-01,0356466651-保定市华北电力变压器厂-1-配电室-变压器-1,0356519762-保定市中冀汽车贸易集团有限公司-专变-201043205-变压器,0356519762-保定市中冀汽车贸易集团有限公司-1-配电室-变压器-1,0356272625-保定民营科技产业园区管委会-1-配电室-变压器-1","poweroffReason":"【停电原因】由于分支开关短路导致１０ＫＶ百楼变电站５３０线路全线停电【变更送电】因抢修进度加快，原定16:30送电现计划13:00送电【发布渠道】通过９５５９８发布","powerTime":"2020-05-22 12:46:04","powerComm":"已送电","subsNo":"","lineNo":"","tgNo":"","tgName":null,"infoStatus":"1","orgName":"保定供电公司","typeName":null,"infoStatusName":null,"dateDay":null,"orgNos":null,"nowTime":null,"countyName":null,"streetName":null,"villageName":null,"roadName":null,"communityName":null,"tranName":null,"sdLineName":null,"cityCode":"13406","cityName":"保定供电公司","provinceCode":null,"stopTime":"2020-05-22 13:00:29","powerType":"全部","powerOffArea":"【全线路停电】停0357559842-保定市宇航机械科技有限公司-1-配电室-变压器-1,0357504389-保定市北市区智都网吧-专变,0684881588-保定新时代物流配送有限公司-专变-223609061-变压器,0748628870-河北中邦房地产开发有限公司-05,变压器,0748628870-河北中邦房地产开发有限公司-03,0621830084-保定市排水总公司-专变,0357461615-保定市华异特电气有限公司-1-配电室-变压器-1,0621830084-保定市排水总公司-专变-129863228-变压器,0748628870-河北中邦房地产开发有限公司-02,0356507970-保定市东方整流变压器有限公司-1-配电室-变压器-1,0356272625-保定民营科技产业园区管委会-1-配电室-变压器-2,0356556493-中国电信集团公司保定市分公司-专变-1250KVA变压器,0748628870-河北中邦房地产开发有限公司-04,0357266207-保定市宇航机械科技有限公司-1-配电室-变压器-1,0356556334-保定市路灯管理处-专变,0748628870-河北中邦房地产开发有限公司-01,0356466651-保定市华北电力变压器厂-1-配电室-变压器-1,0356519762-保定市中冀汽车贸易集团有限公司-专变-201043205-变压器,0356519762-保定市中冀汽车贸易集团有限公司-1-配电室-变压器-1,0356272625-保定民营科技产业园区管委会-1-配电室-变压器-1","powerOffReason":"【停电原因】由于分支开关短路导致１０ＫＶ百楼变电站５３０线路全线停电【变更送电】因抢修进度加快，原定16:30送电现计划13:00送电【发布渠道】通过９５５９８发布","powerOffId":"2020052221000062"},{"poweroffId":2020052213000303,"sgpoweroffId":null,"subsName":"","lineName":"工业线511","pubTranName":"玉保庄排2【纯农排变】,玉保庄排1【纯农排变】,","scope":"【影响街道/乡镇】李郁庄乡 【影响客户】玉保庄","startTime":"2020-06-03 01:00:00","stopDate":"2020-06-03 05:00:00","orgNo":"1340609","typeCode":"计划停电","poweroffArea":"【分支停电】停３５ＫＶ彭各庄变电站工业线５１１线路玉保庄分支０２３号杆５１１－５２号隔离开关以下线路，玉保庄排2【纯农排变】,玉保庄排1【纯农排变】","poweroffReason":"【停电原因】由于玉保庄排３分支００６号杆安装隔离开关导致３５ＫＶ彭各庄变电站工业线５１１线路玉保庄分支０２３号杆５１１－５２号隔离开关以下线路停电 【变更送电】无 【发布渠道】保定市定兴县电视台（０５月２６日０９时１０分至２３时５０分之间）屏幕上方滚动播放","powerTime":"2020-06-03 04:51:03","powerComm":"已送电","subsNo":"","lineNo":"","tgNo":"","tgName":null,"infoStatus":"1","orgName":"国网定兴县供电公司","typeName":null,"infoStatusName":null,"dateDay":null,"orgNos":null,"nowTime":null,"countyName":null,"streetName":null,"villageName":null,"roadName":null,"communityName":null,"tranName":null,"sdLineName":null,"cityCode":"1340609","cityName":"国网定兴县供电公司","provinceCode":null,"stopTime":"2020-06-03 05:00:00","powerType":"全部","powerOffArea":"【分支停电】停３５ＫＶ彭各庄变电站工业线５１１线路玉保庄分支０２３号杆５１１－５２号隔离开关以下线路，玉保庄排2【纯农排变】,玉保庄排1【纯农排变】","powerOffReason":"【停电原因】由于玉保庄排３分支００６号杆安装隔离开关导致３５ＫＶ彭各庄变电站工业线５１１线路玉保庄分支０２３号杆５１１－５２号隔离开关以下线路停电 【变更送电】无 【发布渠道】保定市定兴县电视台（０５月２６日０９时１０分至２３时５０分之间）屏幕上方滚动播放","powerOffId":"2020052213000303"},{"poweroffId":2020052213000293,"sgpoweroffId":null,"subsName":"","lineName":"10kV516中佐线","pubTranName":"0000006561中佐变压器,0012414032石门新增变压器,0013179923杜家庄西2区变压器,0000006780石门西区变压器,南庄学校变压器,0014466311南庄东区,0012788659石门东2区变压器,0012687547中佐北2区变压器,中佐南区变压器,杜家庄中区变压器,0000005390石门东区变压器,0000004698南家庄变压器,0000004697杜家庄东区变压器,中佐西南新增变压器,0012634941中佐农灌变压器,0013179924石门西2区变压器,中佐小学变压器,0000004699石门村变压器,0000006479中佐北区变压器,0000005524中佐西区变压器,0000004590中佐东区变压器,0000005670杜家庄西区变压器,0000006563南庄增容变压器,中佐东南区新增变压器,","scope":"【影响街道/乡镇】羊平镇 【影响客户】南家庄（南庄）、杜家庄、中佐、石门村","startTime":"2020-05-30 06:00:00","stopDate":"2020-05-30 20:00:00","orgNo":"1340619","typeCode":"计划停电","poweroffArea":"【全线路停电】停１１０ＫＶ羊村变电站１０ＫＶ５１６中佐线路全线,曲阳绿林雕塑有限公司,0573130975-曲阳县晓林乡石门村水井-专变-120370943-曲阳县晓林乡石门村水井变压器,中佐小学变压器,0547519645-曲阳县久圣建材厂-专变-48012352-曲阳县久圣建材厂变压器,0000006561中佐变压器,0012414032石门新增变压器,石门苏成为加工厂2,0013179923杜家庄西2区变压器,0000006780石门西区变压器,南庄学校变压器,0014466311南庄东区,0012788659石门东2区变压器,曲阳县非凡石材雕塑厂,杨占浩养猪厂,0012687547中佐北2区变压器,中佐南区变压器,杜家庄中区变压器,0000005390石门东区变压器,0000004698南家庄变压器,0000004697杜家庄东区变压器,曲阳县玉波板材加工厂变压器,中佐西南新增变压器,0012634941中佐农灌变压器,0000006563南庄增容变压器,0013179924石门西2区变压器,中佐东南区新增变压器,0000004699石门村变压器,0000006479中佐北区变压器,白塔矿产品综合厂,0000005524中佐西区变压器,0000004590中佐东区变压器,0000005670杜家庄西区变压器,曲阳县建盛石材厂","poweroffReason":"【停电原因】由于线路加装绝缘胶带导致１１０ＫＶ羊村变电站１０ＫＶ５１６中佐线路全线停电 【变更送电】因工作未完工原因，送电时间由１６：００变更为２０：００ 【发布渠道】保定市曲阳县电视台（０５月２２日至０５月２４日１８时至２０时之间）屏幕上方滚动","powerTime":"2020-05-30 19:43:35","powerComm":"已送电","subsNo":"","lineNo":"","tgNo":"","tgName":null,"infoStatus":"1","orgName":"国网曲阳县供电公司","typeName":null,"infoStatusName":null,"dateDay":null,"orgNos":null,"nowTime":null,"countyName":null,"streetName":null,"villageName":null,"roadName":null,"communityName":null,"tranName":null,"sdLineName":null,"cityCode":"1340619","cityName":"国网曲阳县供电公司","provinceCode":null,"stopTime":"2020-05-30 20:00:00","powerType":"全部","powerOffArea":"【全线路停电】停１１０ＫＶ羊村变电站１０ＫＶ５１６中佐线路全线,曲阳绿林雕塑有限公司,0573130975-曲阳县晓林乡石门村水井-专变-120370943-曲阳县晓林乡石门村水井变压器,中佐小学变压器,0547519645-曲阳县久圣建材厂-专变-48012352-曲阳县久圣建材厂变压器,0000006561中佐变压器,0012414032石门新增变压器,石门苏成为加工厂2,0013179923杜家庄西2区变压器,0000006780石门西区变压器,南庄学校变压器,0014466311南庄东区,0012788659石门东2区变压器,曲阳县非凡石材雕塑厂,杨占浩养猪厂,0012687547中佐北2区变压器,中佐南区变压器,杜家庄中区变压器,0000005390石门东区变压器,0000004698南家庄变压器,0000004697杜家庄东区变压器,曲阳县玉波板材加工厂变压器,中佐西南新增变压器,0012634941中佐农灌变压器,0000006563南庄增容变压器,0013179924石门西2区变压器,中佐东南区新增变压器,0000004699石门村变压器,0000006479中佐北区变压器,白塔矿产品综合厂,0000005524中佐西区变压器,0000004590中佐东区变压器,0000005670杜家庄西区变压器,曲阳县建盛石材厂","powerOffReason":"【停电原因】由于线路加装绝缘胶带导致１１０ＫＶ羊村变电站１０ＫＶ５１６中佐线路全线停电 【变更送电】因工作未完工原因，送电时间由１６：００变更为２０：００ 【发布渠道】保定市曲阳县电视台（０５月２２日至０５月２４日１８时至２０时之间）屏幕上方滚动","powerOffId":"2020052213000293"},{"poweroffId":2020052213000278,"sgpoweroffId":null,"subsName":"","lineName":"任疃线530","pubTranName":"周庄内东2号,周庄村内东混合,周庄内东1号,周庄内西2号,","scope":"【影响街道/乡镇】赵庄乡 【高危重要客户】无　　 【影响客户】周庄村、八里庄","startTime":"2020-06-06 07:00:00","stopDate":"2020-06-06 16:30:00","orgNo":"1340623","typeCode":"计划停电","poweroffArea":"【全线路停电】停１１０ＫＶ八里庄变电站任疃线５３０线路全线周庄内西2号,周庄内东2号,八里庄内北混,八里庄内南混,周庄村内东混合,周庄村内西混合,周庄内东1号","poweroffReason":"【停电原因】由于立杆、安装变压器导致１１０ＫＶ八里庄变电站任疃线５３０线路全线停电 【变更送电】因工作提前完工原因，送电时间由１８：００变更为１６：３０ 【发布渠道】保定市望都电视台（０５月２３日至０６月０５日１９时００分至２０时００分之间）屏幕上方滚动","powerTime":"2020-06-06 15:57:07","powerComm":"已送电","subsNo":"","lineNo":"","tgNo":"","tgName":null,"infoStatus":"1","orgName":"国网望都县供电公司","typeName":null,"infoStatusName":null,"dateDay":null,"orgNos":null,"nowTime":null,"countyName":null,"streetName":null,"villageName":null,"roadName":null,"communityName":null,"tranName":null,"sdLineName":null,"cityCode":"1340623","cityName":"国网望都县供电公司","provinceCode":null,"stopTime":"2020-06-06 16:30:00","powerType":"全部","powerOffArea":"【全线路停电】停１１０ＫＶ八里庄变电站任疃线５３０线路全线周庄内西2号,周庄内东2号,八里庄内北混,八里庄内南混,周庄村内东混合,周庄村内西混合,周庄内东1号","powerOffReason":"【停电原因】由于立杆、安装变压器导致１１０ＫＶ八里庄变电站任疃线５３０线路全线停电 【变更送电】因工作提前完工原因，送电时间由１８：００变更为１６：３０ 【发布渠道】保定市望都电视台（０５月２３日至０６月０５日１９时００分至２０时００分之间）屏幕上方滚动","powerOffId":"2020052213000278"},{"poweroffId":2020052213000270,"sgpoweroffId":null,"subsName":"","lineName":"东安里线541","pubTranName":"西白城9号配变,北岗子内中配变,西白城内西南,唐会村东,唐会内北,西白城12号配变,东安里内东,西白城15号配变,西白城内中心,唐会正北配变,西白城内西,东白城内西,西白城中学内新上,西白城内东南,东白城村内,西白城内南,北岗子内东,唐会村内东,东安里村内,西白城13号配变,北岗子村内,东白城内东北,北岗子内南,唐会村北,唐会村南,东安里内东2号配变,唐会内西北,西白城内东,唐会村内西南,","scope":"【影响街道/乡镇】黑堡乡 【高危重要客户】无　　 【影响客户】 北岗子村、西白城、东白城部分、唐会村、东安里村","startTime":"2020-06-05 06:00:00","stopDate":"2020-06-05 18:00:00","orgNo":"1340623","typeCode":"计划停电","poweroffArea":"【全线路停电】停２２０ＫＶ固店变电站东安里线５４１线路全线西白城9号配变,北岗子内中配变,西白城内西南,唐会村东,唐会内北,西白城12号配变,东安里内东,西白城15号配变,西白城内中心,唐会正北配变,西白城内西,东白城内西,西白城中学内新上,西白城内东南,东白城村内,西白城内南,北岗子内东,唐会村内东,东安里村内,西白城13号配变,北岗子村内,东白城内东北,北岗子内南,唐会村北,唐会村南,东安里内东2号配变,唐会内西北,西白城内东,唐会村内西南","poweroffReason":"【停电原因】由于导线架设、接引导致２２０ＫＶ固店变电站东安里线５４１线路全线停电 【变更送电】无 【发布渠道】保定市望都电视台（０５月２３日至０６月０４日１９时００分至２０时００分之间）屏幕上方滚动","powerTime":"2020-06-05 17:32:16","powerComm":"已送电","subsNo":"","lineNo":"","tgNo":"","tgName":null,"infoStatus":"1","orgName":"国网望都县供电公司","typeName":null,"infoStatusName":null,"dateDay":null,"orgNos":null,"nowTime":null,"countyName":null,"streetName":null,"villageName":null,"roadName":null,"communityName":null,"tranName":null,"sdLineName":null,"cityCode":"1340623","cityName":"国网望都县供电公司","provinceCode":null,"stopTime":"2020-06-05 18:00:00","powerType":"全部","powerOffArea":"【全线路停电】停２２０ＫＶ固店变电站东安里线５４１线路全线西白城9号配变,北岗子内中配变,西白城内西南,唐会村东,唐会内北,西白城12号配变,东安里内东,西白城15号配变,西白城内中心,唐会正北配变,西白城内西,东白城内西,西白城中学内新上,西白城内东南,东白城村内,西白城内南,北岗子内东,唐会村内东,东安里村内,西白城13号配变,北岗子村内,东白城内东北,北岗子内南,唐会村北,唐会村南,东安里内东2号配变,唐会内西北,西白城内东,唐会村内西南","powerOffReason":"【停电原因】由于导线架设、接引导致２２０ＫＶ固店变电站东安里线５４１线路全线停电 【变更送电】无 【发布渠道】保定市望都电视台（０５月２３日至０６月０４日１９时００分至２０时００分之间）屏幕上方滚动","powerOffId":"2020052213000270"},{"poweroffId":2020052213000262,"sgpoweroffId":null,"subsName":"","lineName":"10kV514杜家庄线","pubTranName":"曲阳县强盛石材雕刻厂变压器,","scope":"【影响街道/乡镇】羊平镇 【影响客户】石门村部分","startTime":"2020-05-30 06:00:00","stopDate":"2020-05-30 20:00:00","orgNo":"1340619","typeCode":"计划停电","poweroffArea":"【全线路停电】停１１０ＫＶ羊村变电站１０ＫＶ５１４杜家庄线路全线,石门建材厂（2）,曲阳县顺茂矿产品有限公司变压器,曲阳县光鑫石粉厂,苏锁桃石粉厂,曲阳县汇星建材有限公司变压器,曲阳县华泰石材厂1,石门建材厂（7）,曲阳县宇通建材石粉厂（5）,曲阳县华泰石材厂2,曲阳县张宾石材雕刻厂,付冯刚,瑞良石粉厂,曲阳县佳诚石粉厂,曲阳县强盛石材雕刻厂变压器,曲阳县恒顺矿产品有限公司变压器,曲阳汇元矿产品有限公司变压器,苏军城板材加工厂,曲阳县宇通建材石粉厂,曲阳县南洋重钙厂,曲阳县苏志谦石粉厂2,刘爱坡石粉厂,曲阳县兰兵石粉经销部变压器,河北省曲阳县黄山八会千佛寺变压器,特艺雕刻厂,石门苏志谦石粉厂,曲阳县瑞鑫重钙厂变压器,曲阳县浩瀚建材有限公司变压器,曲阳县国录石材雕刻销售部变压器,曲阳县人文雕刻石材厂变压器,曲阳县恒阳石粉有限公司,石门采石雕刻厂2号,曲阳县巧风石材销售处变压器,曲阳县顺玉石材雕刻厂变压器,曲阳县宇通建材石粉厂（2）,曲阳县宇通建材石粉厂（1）,黄山?袷？庸こВ？）,曲阳县华硕雕刻石材厂变压器,曲阳县顺鹏建材有限公司变压器,曲阳县金儒石材雕刻厂变压器,苏国章石粉厂,曲阳县润鑫雕塑有限公司变压器,曲阳县创业石材加工厂,苏信章石粉厂,曲阳县宇聪矿石加工厂变压器2,大理石总厂工艺建筑雕刻厂,苏跃宾80KVA,安顺理石厂,黄山?袷？庸こ？2),曲阳县鑫汇采砂厂变压器,石门建材厂,曲阳县巨力建材有限公司2,曲阳县三姑石材雕刻销售部变压器,曲阳县嘉豪石材雕刻厂变压器,曲阳县泽斌建材有限公司变压器,苏志谦石材厂,石门采石雕刻厂1号,曲阳县鑫兴重钙滑石粉厂,曲阳县磊源石材销售有限公司变压器,苏志乾石粉厂3","poweroffReason":"【停电原因】由于线路更换出线电缆导致１１０ＫＶ羊村变电站１０ＫＶ５１４杜家庄线路全线停电 【变更送电】因工作未完工原因，送电时间由１６：００变更为２０：００ 【发布渠道】保定市曲阳县电视台（０５月２２日至０５月２４日１８时至２０时之间）屏幕上方滚动","powerTime":"2020-05-30 19:43:22","powerComm":"已送电","subsNo":"","lineNo":"","tgNo":"","tgName":null,"infoStatus":"1","orgName":"国网曲阳县供电公司","typeName":null,"infoStatusName":null,"dateDay":null,"orgNos":null,"nowTime":null,"countyName":null,"streetName":null,"villageName":null,"roadName":null,"communityName":null,"tranName":null,"sdLineName":null,"cityCode":"1340619","cityName":"国网曲阳县供电公司","provinceCode":null,"stopTime":"2020-05-30 20:00:00","powerType":"全部","powerOffArea":"【全线路停电】停１１０ＫＶ羊村变电站１０ＫＶ５１４杜家庄线路全线,石门建材厂（2）,曲阳县顺茂矿产品有限公司变压器,曲阳县光鑫石粉厂,苏锁桃石粉厂,曲阳县汇星建材有限公司变压器,曲阳县华泰石材厂1,石门建材厂（7）,曲阳县宇通建材石粉厂（5）,曲阳县华泰石材厂2,曲阳县张宾石材雕刻厂,付冯刚,瑞良石粉厂,曲阳县佳诚石粉厂,曲阳县强盛石材雕刻厂变压器,曲阳县恒顺矿产品有限公司变压器,曲阳汇元矿产品有限公司变压器,苏军城板材加工厂,曲阳县宇通建材石粉厂,曲阳县南洋重钙厂,曲阳县苏志谦石粉厂2,刘爱坡石粉厂,曲阳县兰兵石粉经销部变压器,河北省曲阳县黄山八会千佛寺变压器,特艺雕刻厂,石门苏志谦石粉厂,曲阳县瑞鑫重钙厂变压器,曲阳县浩瀚建材有限公司变压器,曲阳县国录石材雕刻销售部变压器,曲阳县人文雕刻石材厂变压器,曲阳县恒阳石粉有限公司,石门采石雕刻厂2号,曲阳县巧风石材销售处变压器,曲阳县顺玉石材雕刻厂变压器,曲阳县宇通建材石粉厂（2）,曲阳县宇通建材石粉厂（1）,黄山?袷？庸こВ？）,曲阳县华硕雕刻石材厂变压器,曲阳县顺鹏建材有限公司变压器,曲阳县金儒石材雕刻厂变压器,苏国章石粉厂,曲阳县润鑫雕塑有限公司变压器,曲阳县创业石材加工厂,苏信章石粉厂,曲阳县宇聪矿石加工厂变压器2,大理石总厂工艺建筑雕刻厂,苏跃宾80KVA,安顺理石厂,黄山?袷？庸こ？2),曲阳县鑫汇采砂厂变压器,石门建材厂,曲阳县巨力建材有限公司2,曲阳县三姑石材雕刻销售部变压器,曲阳县嘉豪石材雕刻厂变压器,曲阳县泽斌建材有限公司变压器,苏志谦石材厂,石门采石雕刻厂1号,曲阳县鑫兴重钙滑石粉厂,曲阳县磊源石材销售有限公司变压器,苏志乾石粉厂3","powerOffReason":"【停电原因】由于线路更换出线电缆导致１１０ＫＶ羊村变电站１０ＫＶ５１４杜家庄线路全线停电 【变更送电】因工作未完工原因，送电时间由１６：００变更为２０：００ 【发布渠道】保定市曲阳县电视台（０５月２２日至０５月２４日１８时至２０时之间）屏幕上方滚动","powerOffId":"2020052213000262"},{"poweroffId":2020052213000259,"sgpoweroffId":null,"subsName":"","lineName":"邱庄线539","pubTranName":"邱庄内东,北合内西南,于合营村内2号,南合营村内,北合混合7号配变,北合混合3号配变,北合混合1号配变,于合营北,邱庄东南,北合混合8号配变,北合内东南2号,于合营村内,北合混合5号配变,邱庄内西,南合营内西,邱庄内中,北合内北,北合混合4号配变,北合内西北2号配变,北合混合12号配变,北合混合10号配变,邱庄内,北合内南,北合内东北,北合内东南,于合营村内3号,邱庄内南变压器,北合混合6号配变,北合混合2号配变,北合混合9号配变,北合内西北,","scope":"【影响街道/乡镇】固店镇 【高危重要客户】无　　 【影响客户】北合村、于合营村、南合营村、邱庄村","startTime":"2020-06-05 08:30:00","stopDate":"2020-06-05 12:00:00","orgNo":"1340623","typeCode":"计划停电","poweroffArea":"【全线路停电】停２２０ＫＶ固店变电站邱庄线５３９线路全线于合营北,北合混合8号配变,北合混合5号配变,南合营内西,邱庄内中,邱庄东南,北合内东南2号,于合营村内,邱庄内西,北合内北,北合混合4号配变,北合内西北2号配变,北合混合12号配变,北合混合10号配变,邱庄内,北合内南,北合内东北,北合内东南,于合营村内3号,邱庄内南变压器,北合混合6号配变,北合混合2号配变,北合混合9号配变,北合内西北,邱庄内东,北合内西南,于合营村内2号,南合营村内,北合混合7号配变,北合混合3号配变,北合混合1号配变","poweroffReason":"【停电原因】由于导线架设、接引导致２２０ＫＶ固店变电站邱庄线５３９线路全线停电 【变更送电】无 【发布渠道】保定市望都电视台（０５月２３日至０６月０４日１９时００分至２０时００分之间）屏幕上方滚动","powerTime":"2020-06-05 11:12:01","powerComm":"已送电","subsNo":"","lineNo":"","tgNo":"","tgName":null,"infoStatus":"1","orgName":"国网望都县供电公司","typeName":null,"infoStatusName":null,"dateDay":null,"orgNos":null,"nowTime":null,"countyName":null,"streetName":null,"villageName":null,"roadName":null,"communityName":null,"tranName":null,"sdLineName":null,"cityCode":"1340623","cityName":"国网望都县供电公司","provinceCode":null,"stopTime":"2020-06-05 12:00:00","powerType":"全部","powerOffArea":"【全线路停电】停２２０ＫＶ固店变电站邱庄线５３９线路全线于合营北,北合混合8号配变,北合混合5号配变,南合营内西,邱庄内中,邱庄东南,北合内东南2号,于合营村内,邱庄内西,北合内北,北合混合4号配变,北合内西北2号配变,北合混合12号配变,北合混合10号配变,邱庄内,北合内南,北合内东北,北合内东南,于合营村内3号,邱庄内南变压器,北合混合6号配变,北合混合2号配变,北合混合9号配变,北合内西北,邱庄内东,北合内西南,于合营村内2号,南合营村内,北合混合7号配变,北合混合3号配变,北合混合1号配变","powerOffReason":"【停电原因】由于导线架设、接引导致２２０ＫＶ固店变电站邱庄线５３９线路全线停电 【变更送电】无 【发布渠道】保定市望都电视台（０５月２３日至０６月０４日１９时００分至２０时００分之间）屏幕上方滚动","powerOffId":"2020052213000259"},{"poweroffId":2020052213000253,"sgpoweroffId":null,"subsName":"","lineName":"黄金台线511","pubTranName":"城建局公用,广电公用1变,文化广场公用,工商所公用,福源1,广电公用2变,福源公用3配电变压器,六建小区公用,","scope":"【影响街道/乡镇】定兴镇、广场西路、开放路、通兴东路、昌盛街、国泰南街 【影响客户】遇见概念酒店、文化广场、工商所、食其乐餐厅、福源、惠友、沃美超市、城关地税所、云峰妇产医院、国泰小区、文化广场、食其乐餐厅、兴宇橡胶、实验一小、宏峰耐火材料、城建局、执法局、六建小区、城关工商所、广电小区、惠友超市、乐润购物广场、沃美超市、天赐康饭店","startTime":"2020-06-07 01:00:00","stopDate":"2020-06-07 04:10:00","orgNo":"1340609","typeCode":"计划停电","poweroffArea":"【分支停电】停１１０ＫＶ周家庄变电站黄金台线５１１线路天赐康分支０１号杆５１１－０１号开关以下线路，文化广场公用,工商所公用,福源1,食其乐餐厅-200,广电公用2变,福源公用3配电变压器,六建小区公用,惠友250,城建局公用,广电公用1变,沃美超市200-1,惠友630","poweroffReason":"【停电原因】由于Ｔ接电缆导致１１０ＫＶ周家庄变电站黄金台线５１１线路天赐康分支０１号杆以下线路停电 【变更送电】因工作进度加快原因，送电时间由０６：００变更为０４：１０ 【发布渠道】定兴县电视台（０５月３０日０９时１０分至２３时５０分之间）屏幕上方滚动播放","powerTime":"2020-06-07 03:48:53","powerComm":"已送电","subsNo":"","lineNo":"","tgNo":"","tgName":null,"infoStatus":"1","orgName":"国网定兴县供电公司","typeName":null,"infoStatusName":null,"dateDay":null,"orgNos":null,"nowTime":null,"countyName":null,"streetName":null,"villageName":null,"roadName":null,"communityName":null,"tranName":null,"sdLineName":null,"cityCode":"1340609","cityName":"国网定兴县供电公司","provinceCode":null,"stopTime":"2020-06-07 04:10:00","powerType":"全部","powerOffArea":"【分支停电】停１１０ＫＶ周家庄变电站黄金台线５１１线路天赐康分支０１号杆５１１－０１号开关以下线路，文化广场公用,工商所公用,福源1,食其乐餐厅-200,广电公用2变,福源公用3配电变压器,六建小区公用,惠友250,城建局公用,广电公用1变,沃美超市200-1,惠友630","powerOffReason":"【停电原因】由于Ｔ接电缆导致１１０ＫＶ周家庄变电站黄金台线５１１线路天赐康分支０１号杆以下线路停电 【变更送电】因工作进度加快原因，送电时间由０６：００变更为０４：１０ 【发布渠道】定兴县电视台（０５月３０日０９时１０分至２３时５０分之间）屏幕上方滚动播放","powerOffId":"2020052213000253"},{"poweroffId":2020052213000241,"sgpoweroffId":null,"subsName":"","lineName":"寺庄线514","pubTranName":"三堤混3配变,三堤混2配变,三堤混1配变,三堤混合7号配变,三堤内东混5,寺庄内西配变,寺庄内西混合8号,","scope":"【影响街道/乡镇】寺庄乡 【高危重要客户】无　　 【影响客户】寺庄村、三堤村","startTime":"2020-06-02 08:00:00","stopDate":"2020-06-02 11:00:00","orgNo":"1340623","typeCode":"计划停电","poweroffArea":"【全线路停电】停３５ＫＶ白岳变电站寺庄线５１４线路全线三堤混3配变,三堤混2配变,三堤混1配变,三堤混合7号配变,三堤内东混5,寺庄内西配变,寺庄内西混合8号","poweroffReason":"【停电原因】由于拆除导线、导线接引导致３５ＫＶ白岳变电站寺庄线５１４线路全线停电 【变更送电】无 【发布渠道】保定市望都电视台（０５月２３日至０６月０１日１９时００分至２０时００分之间）屏幕上方滚动","powerTime":"2020-06-02 10:07:46","powerComm":"已送电","subsNo":"","lineNo":"","tgNo":"","tgName":null,"infoStatus":"1","orgName":"国网望都县供电公司","typeName":null,"infoStatusName":null,"dateDay":null,"orgNos":null,"nowTime":null,"countyName":null,"streetName":null,"villageName":null,"roadName":null,"communityName":null,"tranName":null,"sdLineName":null,"cityCode":"1340623","cityName":"国网望都县供电公司","provinceCode":null,"stopTime":"2020-06-02 11:00:00","powerType":"全部","powerOffArea":"【全线路停电】停３５ＫＶ白岳变电站寺庄线５１４线路全线三堤混3配变,三堤混2配变,三堤混1配变,三堤混合7号配变,三堤内东混5,寺庄内西配变,寺庄内西混合8号","powerOffReason":"【停电原因】由于拆除导线、导线接引导致３５ＫＶ白岳变电站寺庄线５１４线路全线停电 【变更送电】无 【发布渠道】保定市望都电视台（０５月２３日至０６月０１日１９时００分至２０时００分之间）屏幕上方滚动","powerOffId":"2020052213000241"},{"poweroffId":2020052213000233,"sgpoweroffId":null,"subsName":"","lineName":"郭村线513","pubTranName":"郭村混合,庄里村东混合7号,招庄混合5号配变,郭西村混合2,三堤村西北混4,庄里村内混合8号配变,招庄混2,庄里混1,庄里村东混合10号配变,庄里东南混合5号,郭中村混合,郭中村混合2,招庄混3配变,郭中村混合4号,庄里西北混合6号,郭中村混5,庄里混4,郭东村混合5号,郭东村混合2,郭中村混合3,郭西村村西混4,庄里村北混合11号配变,郭东村混合1,招庄混合配变,庄里村混合9号配变,庄里混3,郭东村混合3,郭西村内东混3配变,郭西村混合1,郭东村内东北混4,庄里混2,","scope":"【影响街道/乡镇】寺庄乡　 【高危重要客户】无　　 【影响客户】郭西村、郭中村、郭东村、招庄村、庄里村、三堤部分","startTime":"2020-06-02 08:00:00","stopDate":"2020-06-02 11:00:00","orgNo":"1340623","typeCode":"计划停电","poweroffArea":"【全线路停电】停３５ＫＶ白岳变电站郭村线５１３线路全线庄里村东混合7号,招庄混合5号配变,郭西村混合2,三堤村西北混4,庄里村内混合8号配变,郭村混合,招庄混2,庄里混1,庄里村东混合10号配变,庄里东南混合5号,郭中村混合,郭中村混合2,招庄混3配变,郭中村混合4号,庄里西北混合6号,郭中村混5,庄里混4,郭东村混合5号,郭东村混合2,郭中村混合3,郭西村村西混4,庄里村北混合11号配变,郭东村混合1,招庄混合配变,庄里村混合9号配变,庄里混3,郭东村混合3,郭西村内东混3配变,郭西村混合1,郭东村内东北混4,庄里混2","poweroffReason":"【停电原因】由于拆除导线、导线架设导致３５ＫＶ白岳变电站郭村线５１３线路全线停电 【变更送电】无 【发布渠道】保定市望都电视台（０５月２３日至０６月０１日１９时００分至２０时００分之间）屏幕上方滚动","powerTime":"2020-06-02 10:09:45","powerComm":"已送电","subsNo":"","lineNo":"","tgNo":"","tgName":null,"infoStatus":"1","orgName":"国网望都县供电公司","typeName":null,"infoStatusName":null,"dateDay":null,"orgNos":null,"nowTime":null,"countyName":null,"streetName":null,"villageName":null,"roadName":null,"communityName":null,"tranName":null,"sdLineName":null,"cityCode":"1340623","cityName":"国网望都县供电公司","provinceCode":null,"stopTime":"2020-06-02 11:00:00","powerType":"全部","powerOffArea":"【全线路停电】停３５ＫＶ白岳变电站郭村线５１３线路全线庄里村东混合7号,招庄混合5号配变,郭西村混合2,三堤村西北混4,庄里村内混合8号配变,郭村混合,招庄混2,庄里混1,庄里村东混合10号配变,庄里东南混合5号,郭中村混合,郭中村混合2,招庄混3配变,郭中村混合4号,庄里西北混合6号,郭中村混5,庄里混4,郭东村混合5号,郭东村混合2,郭中村混合3,郭西村村西混4,庄里村北混合11号配变,郭东村混合1,招庄混合配变,庄里村混合9号配变,庄里混3,郭东村混合3,郭西村内东混3配变,郭西村混合1,郭东村内东北混4,庄里混2","powerOffReason":"【停电原因】由于拆除导线、导线架设导致３５ＫＶ白岳变电站郭村线５１３线路全线停电 【变更送电】无 【发布渠道】保定市望都电视台（０５月２３日至０６月０１日１９时００分至２０时００分之间）屏幕上方滚动","powerOffId":"2020052213000233"}],"pageModel":{"pageNow":53,"totalCount":10973,"totalPage":1098,"tableRows":0,"pageCount":10,"beginCount":520},"isExperi":"1"}