{"message":"","today":"2020-06-15","seleList":[{"poweroffId":2019080113001056,"sgpoweroffId":null,"subsName":"","lineName":"10kV阮庄站520线路","pubTranName":"0706453142-保定市超众日化科技有限公司-80KVA变压器,0357531325-保定佰思特汽车零部件有限公司-2#专变,0357531325-保定佰思特汽车零部件有限公司-1#专变,0356376558-东小庄-专变,0356244123-东小庄-专变,0357442850-保定市南市区美味酱菜厂-专变,0357266210-保定市兴星针纺制品有限公司-专变,0357311907-保定市南市区南郊面粉厂-专变,H0034柱上变压器,0356345060-保定蓝海实业有限公司-专变,H0033柱上变压器,0554881331-保定市希悦国际商务酒店有限公司-1#专变,0563959757-河北科技学院-1-配电室-变压器-1,0619593548-保定茉莉酒店有限公司-专变-129021390-变压器,H0032柱上变压器,0356244152-东小庄-专变,0356242228-东小庄-专变,0356234092-河北农业大学科研食品厂-专变,0357743243-保定市排水总公司-1#专变,H0067柱上变压器,0357743243-保定市排水总公司-2#专变,0357989430-保定佰思特汽车零部件有限公司-专变,","scope":"【影响街道/乡镇】南二环路、利民路 【高危重要客户】无 【影响客户】南二环1588号、东小庄、排水总公司、超众日化、电动汽车充电站、春雨餐饮、美味酱菜、佰斯特汽车零部件有限公司、茉莉饭店、面粉厂、希悦酒店、大众味业、科技学院、蓝海实业、农大科研食品厂、针织厂、云宿酒店","startTime":"2019-08-01 14:30:00","stopDate":"2019-08-01 17:30:00","orgNo":"13406","typeCode":"电网故障停限电","poweroffArea":"【分支停电】停0706453142-保定市超众日化科技有限公司-80KVA变压器,0357531325-保定佰思特汽车零部件有限公司-2#专变,0357531325-保定佰思特汽车零部件有限公司-1#专变,0356376558-东小庄-专变,0356244123-东小庄-专变,0357442850-保定市南市区美味酱菜厂-专变,0357266210-保定市兴星针纺制品有限公司-专变,0357311907-保定市南市区南郊面粉厂-专变,H0034柱上变压器,0356345060-保定蓝海实业有限公司-专变,H0033柱上变压器,0554881331-保定市希悦国际商务酒店有限公司-1#专变,0563959757-河北科技学院-1-配电室-变压器-1,0619593548-保定茉莉酒店有限公司-专变-129021390-变压器,H0032柱上变压器,0356244152-东小庄-专变,0356242228-东小庄-专变,0356234092-河北农业大学科研食品厂-专变,0357743243-保定市排水总公司-1#专变,H0067柱上变压器,0357743243-保定市排水总公司-2#专变,0357989430-保定佰思特汽车零部件有限公司-专变","poweroffReason":"【停电原因】由于分支开关短路导致１０ＫＶ阮庄变电站５２０线路南二环５４号杆开关以下停电【变更送电】无【发布渠道】通过９５５９８发布","powerTime":"2019-08-01 17:24:12","powerComm":"已送电","subsNo":"","lineNo":"","tgNo":"","tgName":null,"infoStatus":"1","orgName":"保定供电公司","typeName":null,"infoStatusName":null,"dateDay":null,"orgNos":null,"nowTime":null,"countyName":null,"streetName":null,"villageName":null,"roadName":null,"communityName":null,"tranName":null,"sdLineName":null,"cityCode":"13406","cityName":"保定供电公司","provinceCode":null,"stopTime":"2019-08-01 17:30:00","powerType":"全部","powerOffArea":"【分支停电】停0706453142-保定市超众日化科技有限公司-80KVA变压器,0357531325-保定佰思特汽车零部件有限公司-2#专变,0357531325-保定佰思特汽车零部件有限公司-1#专变,0356376558-东小庄-专变,0356244123-东小庄-专变,0357442850-保定市南市区美味酱菜厂-专变,0357266210-保定市兴星针纺制品有限公司-专变,0357311907-保定市南市区南郊面粉厂-专变,H0034柱上变压器,0356345060-保定蓝海实业有限公司-专变,H0033柱上变压器,0554881331-保定市希悦国际商务酒店有限公司-1#专变,0563959757-河北科技学院-1-配电室-变压器-1,0619593548-保定茉莉酒店有限公司-专变-129021390-变压器,H0032柱上变压器,0356244152-东小庄-专变,0356242228-东小庄-专变,0356234092-河北农业大学科研食品厂-专变,0357743243-保定市排水总公司-1#专变,H0067柱上变压器,0357743243-保定市排水总公司-2#专变,0357989430-保定佰思特汽车零部件有限公司-专变","powerOffReason":"【停电原因】由于分支开关短路导致１０ＫＶ阮庄变电站５２０线路南二环５４号杆开关以下停电【变更送电】无【发布渠道】通过９５５９８发布","powerOffId":"2019080113001056"},{"poweroffId":2019080113001048,"sgpoweroffId":null,"subsName":"","lineName":"10KV511城内线","pubTranName":"0469532337-博野县汽车站-专变-46833978-博野县汽车站,10KV511城内线西街07285柱上变压器【纯农排变】,10KV511城内线北白沙07045柱上变压器,10kV城内线511财政局07371台区变压器,财政局,10kV512工专线电影院07142台区变压器,中石油保定第六十一加油站,10KV511城内线农林局家属院07029柱上变压器,10KV511城内线法院东07004IC卡变压器,10KV511城内线北白沙07012柱上变压器,金泽源饭店,10KV城内511线尚品小区变压器,裕丰家园,河北鑫睿房地产开发有限公司,10KV511城内线博雅尚品2变压器,城内511路灯,10KV511城内线保险公司07348台区变压器,10KV511城内线西街07287柱上变压器【纯农排变】,10KV511城内线博雅IC1208柱上变压器,保定市君耀房地产开发有限公司,0469530041-土地局-专变-46834020-土地局,0628867245-城内511路灯-专变-140920344-城内511路灯,博雅水井,10KV511城内线畜牧局07072柱上变压器,10KV511城内线屯庄07058柱上变压器,恒鼎商业街,10KV511城内线屯庄78359台区变压器,博野县质量技术监督局,河北光隆房地产开发有限公司,10KV511城内线西街07175柱上变压器【纯农排变】,10KV511城内线春蕾07003柱上变压器,10KV511城内线屯庄村07102台区变压器,10KV511城内线西街07282柱上变压器,10KV511城内线西街07281柱上变压器,财政局水井,10KV511城内线西街07368柱上变压器,10kV城内511线计生局IC台区变压器,10KV511城内线油库07067柱上变压器,10kV511城内线西街52908台区变压器,10kV511城内线地税公用41243台区变压器,博野县移动通信公司,10KV511城内线计生局家属院07006台区变压器,10KV511城内线博雅07558变压器,10KV511城内线温馨家园07083柱上变压器,10KV511城内线屯庄07383台区变压器,计生局,10KV511城内线北白沙07066柱上变压器,10KV城内线511屯庄公用15-003台区变压器,10KV511城内线西街07207柱上变压器【纯农排变】,10kV511城内线油棉07025台区变压器,河北鑫睿房地产开发公司,博野县人民法院,10KV511城内线四季07146柱上变压器,10KV511城内线土产07187台区变压器,0666168016-博雅小区-专变-206223119-博雅小区,10KV城内线511车队公用15-002台区变压器,10KV511城内线财险家属院台区变压器,10KV511城内线北白沙07023柱上变压器,河北恒鼎房地产开发有限公司,屯庄学校IC,","scope":"【影响街道/乡镇】博野镇【高危重要客户】无【影响客户】财险家属院、煤建家属院、农林局家属院、粮局家属院、良缘小区、尚城国际西区、尚城国际东区、土地局、油棉厂家属院、计生局、财政局家属院、党校、博雅家园、温馨家园、恒鼎商业街、屯庄村、党校家属院、博兴西路、北白沙村、名仕家苑小区、民政局、博兴中路、西街村、地税局、畜牧局、法院、四季阳光城","startTime":"2019-07-31 22:12:00","stopDate":"2019-08-01 13:30:00","orgNo":"1340608","typeCode":"电网故障停限电","poweroffArea":"【全线路停电】停10KV511城内线屯庄07383台区变压器,河北光隆房地产开发有限公司,10kV511城内线油棉07025台区变压器,10KV511城内线北白沙07066柱上变压器,0469532337-博野县汽车站-专变-46833978-博野县汽车站,0469530041-土地局-专变-46834020-土地局,10KV511城内线西街07368柱上变压器,10KV511城内线四季07146柱上变压器,10KV511城内线畜牧局07072柱上变压器,10KV511城内线北白沙07012柱上变压器,10KV511城内线温馨家园07083柱上变压器,10KV511城内线屯庄07058柱上变压器,10KV511城内线屯庄村07102台区变压器,10KV511城内线法院东07004IC卡变压器,10KV511城内线北白沙07023柱上变压器,城内511路灯,10KV511城内线博雅07558变压器,中石油保定第六十一加油站,0628867245-城内511路灯-专变-140920344-城内511路灯,博野县质量技术监督局,10kV511城内线西街52908台区变压器,0666168016-博雅小区-专变-206223119-博雅小区,10KV511城内线西街07287柱上变压器【纯农排变】,10KV511城内线西街07175柱上变压器【纯农排变】,10KV511城内线农林局家属院07029柱上变压器,10kV城内线511财政局07371台区变压器,10KV511城内线春蕾07003柱上变压器,10KV511城内线计生局家属院07006台区变压器,10KV511城内线博雅IC1208柱上变压器,10kV511城内线地税公用41243台区变压器,10KV511城内线油库07067柱上变压器,恒鼎商业街,10KV511城内线北白沙07045柱上变压器,10KV511城内线财险家属院台区变压器,计生局,10KV511城内线保险公司07348台区变压器,10KV511城内线西街07282柱上变压器,10kV城内511线计生局IC台区变压器,保定市君耀房地产开发有限公司,河北恒鼎房地产开发有限公司,河北鑫睿房地产开发公司,10KV511城内线屯庄78359台区变压器,财政局,屯庄学校IC,裕丰家园,10kV512工专线电影院07142台区变压器,10KV城内线511屯庄公用15-003台区变压器,金泽源饭店,博雅水井,10KV511城内线西街07207柱上变压器【纯农排变】,财政局水井,10KV511城内线西街07285柱上变压器【纯农排变】,10KV城内线511车队公用15-002台区变压器,10KV511城内线博雅尚品2变压器,10KV城内511线尚品小区变压器,10KV511城内线西街07281柱上变压器,10KV511城内线土产07187台区变压器,河北鑫睿房地产开发有限公司,博野县人民法院,博野县移动通信公司","poweroffReason":"【停电原因】由于站内开关跳闸导致１１０ＫＶ博野变电站城内５１１线路全线停电【变更送电】无【发布渠道】通过９５５９８发布","powerTime":"2019-08-01 13:14:51","powerComm":"已送电","subsNo":"","lineNo":"","tgNo":"","tgName":null,"infoStatus":"1","orgName":"国网博野县供电公司","typeName":null,"infoStatusName":null,"dateDay":null,"orgNos":null,"nowTime":null,"countyName":null,"streetName":null,"villageName":null,"roadName":null,"communityName":null,"tranName":null,"sdLineName":null,"cityCode":"1340608","cityName":"国网博野县供电公司","provinceCode":null,"stopTime":"2019-08-01 13:30:00","powerType":"全部","powerOffArea":"【全线路停电】停10KV511城内线屯庄07383台区变压器,河北光隆房地产开发有限公司,10kV511城内线油棉07025台区变压器,10KV511城内线北白沙07066柱上变压器,0469532337-博野县汽车站-专变-46833978-博野县汽车站,0469530041-土地局-专变-46834020-土地局,10KV511城内线西街07368柱上变压器,10KV511城内线四季07146柱上变压器,10KV511城内线畜牧局07072柱上变压器,10KV511城内线北白沙07012柱上变压器,10KV511城内线温馨家园07083柱上变压器,10KV511城内线屯庄07058柱上变压器,10KV511城内线屯庄村07102台区变压器,10KV511城内线法院东07004IC卡变压器,10KV511城内线北白沙07023柱上变压器,城内511路灯,10KV511城内线博雅07558变压器,中石油保定第六十一加油站,0628867245-城内511路灯-专变-140920344-城内511路灯,博野县质量技术监督局,10kV511城内线西街52908台区变压器,0666168016-博雅小区-专变-206223119-博雅小区,10KV511城内线西街07287柱上变压器【纯农排变】,10KV511城内线西街07175柱上变压器【纯农排变】,10KV511城内线农林局家属院07029柱上变压器,10kV城内线511财政局07371台区变压器,10KV511城内线春蕾07003柱上变压器,10KV511城内线计生局家属院07006台区变压器,10KV511城内线博雅IC1208柱上变压器,10kV511城内线地税公用41243台区变压器,10KV511城内线油库07067柱上变压器,恒鼎商业街,10KV511城内线北白沙07045柱上变压器,10KV511城内线财险家属院台区变压器,计生局,10KV511城内线保险公司07348台区变压器,10KV511城内线西街07282柱上变压器,10kV城内511线计生局IC台区变压器,保定市君耀房地产开发有限公司,河北恒鼎房地产开发有限公司,河北鑫睿房地产开发公司,10KV511城内线屯庄78359台区变压器,财政局,屯庄学校IC,裕丰家园,10kV512工专线电影院07142台区变压器,10KV城内线511屯庄公用15-003台区变压器,金泽源饭店,博雅水井,10KV511城内线西街07207柱上变压器【纯农排变】,财政局水井,10KV511城内线西街07285柱上变压器【纯农排变】,10KV城内线511车队公用15-002台区变压器,10KV511城内线博雅尚品2变压器,10KV城内511线尚品小区变压器,10KV511城内线西街07281柱上变压器,10KV511城内线土产07187台区变压器,河北鑫睿房地产开发有限公司,博野县人民法院,博野县移动通信公司","powerOffReason":"【停电原因】由于站内开关跳闸导致１１０ＫＶ博野变电站城内５１１线路全线停电【变更送电】无【发布渠道】通过９５５９８发布","powerOffId":"2019080113001048"},{"poweroffId":2019080113001043,"sgpoweroffId":null,"subsName":"","lineName":"10kV前卫站583线路","pubTranName":"0357308978-保定市北市区百楼乡头台村委会-专变,0356261184-清苑佰楼乡头台村-专变,C526柱上变压器,0356227003-头台鱼场-专变,0356283531-保定市北市区百楼乡头台村-专变,0710667210-保定市莲池区头台星月养老院-专变80kVA,0356228426-保定市北市区百楼乡头台村民委员会-专变,","scope":"【影响街道/乡镇】百楼乡、保徐路 【高危重要客户】无 【影响客户】头台村、博龙泵业、水泵站、安药、星月养老院","startTime":"2019-08-01 14:00:00","stopDate":"2019-08-01 16:00:00","orgNo":"13406","typeCode":"电网故障停限电","poweroffArea":"【分支停电】停0357308978-保定市北市区百楼乡头台村委会-专变,0356261184-清苑佰楼乡头台村-专变,C526柱上变压器,0356227003-头台鱼场-专变,0356283531-保定市北市区百楼乡头台村-专变,0710667210-保定市莲池区头台星月养老院-专变80kVA,0356228426-保定市北市区百楼乡头台村民委员会-专变","poweroffReason":"【停电原因】由于分支开关短路导致１０ＫＶ前卫变电站５８３线路长城北大街２１６号分支１号开关以下停电【变更送电】无【发布渠道】通过９５５９８发布","powerTime":"2019-08-01 15:52:15","powerComm":"已送电","subsNo":"","lineNo":"","tgNo":"","tgName":null,"infoStatus":"1","orgName":"保定供电公司","typeName":null,"infoStatusName":null,"dateDay":null,"orgNos":null,"nowTime":null,"countyName":null,"streetName":null,"villageName":null,"roadName":null,"communityName":null,"tranName":null,"sdLineName":null,"cityCode":"13406","cityName":"保定供电公司","provinceCode":null,"stopTime":"2019-08-01 16:00:00","powerType":"全部","powerOffArea":"【分支停电】停0357308978-保定市北市区百楼乡头台村委会-专变,0356261184-清苑佰楼乡头台村-专变,C526柱上变压器,0356227003-头台鱼场-专变,0356283531-保定市北市区百楼乡头台村-专变,0710667210-保定市莲池区头台星月养老院-专变80kVA,0356228426-保定市北市区百楼乡头台村民委员会-专变","powerOffReason":"【停电原因】由于分支开关短路导致１０ＫＶ前卫变电站５８３线路长城北大街２１６号分支１号开关以下停电【变更送电】无【发布渠道】通过９５５９８发布","powerOffId":"2019080113001043"},{"poweroffId":2019080113001008,"sgpoweroffId":null,"subsName":"","lineName":"城西区线513电力电缆","pubTranName":"南孤庄营16号,0469075348-保定君佳物业管理有限公司-专变-46716399-徐水县天祥房地产开发有限公司,克明塑料厂,盛源3号（五金公司）,盛源65号（康明新区箱变）,徐水县四方建材有限公司,徐水县棉麻公司1号,中孤庄营5号,0469073599-保定龙帝房地产开发有限公司-专变-46716208-河北建威铝业有限公司,盛源50号（直属库）,变压器,长福电源厂1号,南孤庄营2号【纯农排变】,北孤庄营村13号台区,保定市徐水区住房和城乡建设局变压器,北孤庄营村11号台区,盛源1号（物资局）,北下关9号,北京车务段,城建地道桥路灯,0469073283-中国邮政集团公司保定市徐水区分公司-专变-46716207-邮政局(鸿雁大酒店),河北中油销售有限公司,保定市三星物资贸易有限公司,盛源4号（新华橡胶厂）,北孤庄营6号,北孤庄营9号,中孤庄营6号,中孤庄营1号,盛源6号（鸿雁对面）,北孤庄营10号,中孤庄营2号【纯农排变】,南孤庄营14号,河北智乾房地产开发有限公司,0469074749-徐水县建设局路灯专用-专变-46716404-徐水建设局路灯专用3号,河北天行健房地产开发集团有限公司,石家庄供电段,南孤庄营10号,徐水县公共交通有限公司,徐水县建设局路灯专用2号,南孤庄营5号,南孤庄营3号【纯农排变】,北孤庄营8号,北孤庄营2号,盛源82号（白杨旅馆）,中孤庄营4号,徐水县鑫博节能设备制造有限公司,盛源2号（瀑河桥北）,中孤庄营8号,南孤庄营9号,北孤庄营村14号台区,南孤庄营12号,交通局停车场（刘连壮）,南孤庄营4号,保定曼德林制帽有限公司,中孤庄营7号,盛源51号（电子机房）,徐水县天行健物业管理有限公司,0684352684-保定市鼎居房地产开发有限公司-专变-223583819-保定市鼎居房地产开发有限公司变压器,保定市瑞东房地产开发有限公司,南孤庄营13号,北孤庄营冰山冷食厂,南孤庄营15号,北孤庄营7号,南孤庄营1号,尊御一区,北孤庄营5号,0469073573-保定中恒创泰工贸有限公司-专变-46716190-吉利仿生农药有限公司,徐水县建设局107路灯专用4号,裕华金属结构有限公司,北孤庄营村15号台区,徐水县鑫兴天地吊索具有限公司,盛源5号（双隆门口）,南孤庄营8号,北孤庄营村12号台区,","scope":"【影响街道/乡镇】安肃镇 【高危重要客户】无 【影响客户】新华橡胶厂、北孤庄营、南孤庄营、北下关、双隆附近、中孤庄营、汽车北站附近、火车站附近、尊御小区","startTime":"2019-08-01 12:07:59","stopDate":"2019-08-01 14:00:00","orgNo":"1340605","typeCode":"电网故障停限电","poweroffArea":"【全线路停电】停交通局停车场（刘连壮）,盛源4号（新华橡胶厂）,长福电源厂1号,保定曼德林制帽有限公司,徐水县棉麻公司1号,石家庄供电段,北京车务段,北孤庄营村12号台区,南孤庄营3号【纯农排变】,河北中油销售有限公司,徐水县四方建材有限公司,南孤庄营10号,0469073599-保定龙帝房地产开发有限公司-专变-46716208-河北建威铝业有限公司,北下关9号,北孤庄营6号,南孤庄营13号,保定市三星物资贸易有限公司,北孤庄营村11号台区,徐水县建设局路灯专用2号,裕华金属结构有限公司,徐水县建设局107路灯专用4号,中孤庄营7号,0469075348-保定君佳物业管理有限公司-专变-46716399-徐水县天祥房地产开发有限公司,中孤庄营5号,0469073573-保定中恒创泰工贸有限公司-专变-46716190-吉利仿生农药有限公司,城建地道桥路灯,北孤庄营村14号台区,北孤庄营7号,保定市瑞东房地产开发有限公司,徐水县鑫博节能设备制造有限公司,盛源51号（电子机房）,0469074749-徐水县建设局路灯专用-专变-46716404-徐水建设局路灯专用3号,尊御一区,中孤庄营4号,北孤庄营冰山冷食厂,0469073283-中国邮政集团公司保定市徐水区分公司-专变-46716207-邮政局(鸿雁大酒店),克明塑料厂,盛源6号（鸿雁对面）,保定市徐水区住房和城乡建设局变压器,中孤庄营6号,盛源3号（五金公司）,河北天行健房地产开发集团有限公司,中孤庄营1号,南孤庄营14号,南孤庄营2号【纯农排变】,南孤庄营16号,南孤庄营15号,中孤庄营8号,北孤庄营村13号台区,盛源1号（物资局）,北孤庄营2号,南孤庄营12号,盛源2号（瀑河桥北）,盛源82号（白杨旅馆）,徐水县天行健物业管理有限公司,北孤庄营9号,南孤庄营1号,南孤庄营4号,南孤庄营9号,盛源50号（直属库）,盛源65号（康明新区箱变）,徐水县鑫兴天地吊索具有限公司,0684352684-保定市鼎居房地产开发有限公司-专变-223583819-保定市鼎居房地产开发有限公司变压器,北孤庄营村15号台区,南孤庄营8号,徐水县公共交通有限公司,中孤庄营2号【纯农排变】,北孤庄营8号,北孤庄营5号,北孤庄营10号,河北智乾房地产开发有限公司,盛源5号（双隆门口）,南孤庄营5号","poweroffReason":"【停电原因】由于Ｂ相接地导致１１０ＫＶ徐水变电站城西区线５１３线路全线停电 【变更送电】无 【发布渠道】通过９５５９８发布","powerTime":"2019-08-01 13:02:02","powerComm":"已送电","subsNo":"","lineNo":"","tgNo":"","tgName":null,"infoStatus":"1","orgName":"国网徐水县供电公司","typeName":null,"infoStatusName":null,"dateDay":null,"orgNos":null,"nowTime":null,"countyName":null,"streetName":null,"villageName":null,"roadName":null,"communityName":null,"tranName":null,"sdLineName":null,"cityCode":"1340605","cityName":"国网徐水县供电公司","provinceCode":null,"stopTime":"2019-08-01 14:00:00","powerType":"全部","powerOffArea":"【全线路停电】停交通局停车场（刘连壮）,盛源4号（新华橡胶厂）,长福电源厂1号,保定曼德林制帽有限公司,徐水县棉麻公司1号,石家庄供电段,北京车务段,北孤庄营村12号台区,南孤庄营3号【纯农排变】,河北中油销售有限公司,徐水县四方建材有限公司,南孤庄营10号,0469073599-保定龙帝房地产开发有限公司-专变-46716208-河北建威铝业有限公司,北下关9号,北孤庄营6号,南孤庄营13号,保定市三星物资贸易有限公司,北孤庄营村11号台区,徐水县建设局路灯专用2号,裕华金属结构有限公司,徐水县建设局107路灯专用4号,中孤庄营7号,0469075348-保定君佳物业管理有限公司-专变-46716399-徐水县天祥房地产开发有限公司,中孤庄营5号,0469073573-保定中恒创泰工贸有限公司-专变-46716190-吉利仿生农药有限公司,城建地道桥路灯,北孤庄营村14号台区,北孤庄营7号,保定市瑞东房地产开发有限公司,徐水县鑫博节能设备制造有限公司,盛源51号（电子机房）,0469074749-徐水县建设局路灯专用-专变-46716404-徐水建设局路灯专用3号,尊御一区,中孤庄营4号,北孤庄营冰山冷食厂,0469073283-中国邮政集团公司保定市徐水区分公司-专变-46716207-邮政局(鸿雁大酒店),克明塑料厂,盛源6号（鸿雁对面）,保定市徐水区住房和城乡建设局变压器,中孤庄营6号,盛源3号（五金公司）,河北天行健房地产开发集团有限公司,中孤庄营1号,南孤庄营14号,南孤庄营2号【纯农排变】,南孤庄营16号,南孤庄营15号,中孤庄营8号,北孤庄营村13号台区,盛源1号（物资局）,北孤庄营2号,南孤庄营12号,盛源2号（瀑河桥北）,盛源82号（白杨旅馆）,徐水县天行健物业管理有限公司,北孤庄营9号,南孤庄营1号,南孤庄营4号,南孤庄营9号,盛源50号（直属库）,盛源65号（康明新区箱变）,徐水县鑫兴天地吊索具有限公司,0684352684-保定市鼎居房地产开发有限公司-专变-223583819-保定市鼎居房地产开发有限公司变压器,北孤庄营村15号台区,南孤庄营8号,徐水县公共交通有限公司,中孤庄营2号【纯农排变】,北孤庄营8号,北孤庄营5号,北孤庄营10号,河北智乾房地产开发有限公司,盛源5号（双隆门口）,南孤庄营5号","powerOffReason":"【停电原因】由于Ｂ相接地导致１１０ＫＶ徐水变电站城西区线５１３线路全线停电 【变更送电】无 【发布渠道】通过９５５９８发布","powerOffId":"2019080113001008"},{"poweroffId":2019080113001005,"sgpoweroffId":null,"subsName":"","lineName":"地区农厂线522电力电缆","pubTranName":"西张丰16号,西张丰9号,北下关15号,北下关16号,东张丰1号,东张丰7号,东张丰2号,西张丰20号,西张丰18号,北下关8号,西张丰14号【纯农排变】,北下关5号,北下关12号,西张丰1号,西张丰13号,北下关10号,北下关18号,西张丰4号,西张丰19号,北下关6号,北下关14号,西张丰8号,西张丰3号,北下关1号,北下关13号,西张丰6号,东张丰4号,东张丰6号,东张丰5号,西张丰7号,西张丰2号,西张丰11号,西张丰12号【纯农排变】,北下关17号,盛源供电所74号,东张丰3号,盛源供电所10号,东张丰13号,西张丰5号,西张丰17号,西张丰15号,东张丰12号,北下关7号,东张丰8号,东张丰9号,东张丰10号,西张丰10号,东张丰11号,","scope":"【影响街道/乡镇】安肃镇 【高危重要客户】无 【影响客户】北下关、东张丰、西张丰","startTime":"2019-08-01 12:04:17","stopDate":"2019-08-01 14:00:00","orgNo":"1340605","typeCode":"电网故障停限电","poweroffArea":"【全线路停电】停北下关18号,东张丰13号,北下关17号,西张丰3号,西张丰20号,西张丰16号,东张丰6号,北下关8号,西张丰4号,西张丰8号,西张丰11号,西张丰9号,西张丰7号,北下关15号,西张丰18号,北下关7号,东张丰11号,北下关14号,西张丰2号,东张丰7号,西张丰14号【纯农排变】,盛源供电所10号,东张丰2号,东张丰10号,西张丰17号,西张丰10号,西张丰13号,西张丰19号,东张丰4号,东张丰1号,东张丰5号,北下关16号,北下关1号,北下关13号,东张丰9号,西张丰1号,盛源供电所74号,西张丰6号,东张丰3号,东张丰12号,东张丰8号,西张丰5号,北下关12号,西张丰12号【纯农排变】,北下关10号,北下关6号,西张丰15号,北下关5号","poweroffReason":"【停电原因】由于Ｂ相接地导致１１０ＫＶ徐水变电站地区农厂线５２２线路全线停电 【变更送电】无 【发布渠道】通过９５５９８发布","powerTime":"2019-08-01 13:02:20","powerComm":"已送电","subsNo":"","lineNo":"","tgNo":"","tgName":null,"infoStatus":"1","orgName":"国网徐水县供电公司","typeName":null,"infoStatusName":null,"dateDay":null,"orgNos":null,"nowTime":null,"countyName":null,"streetName":null,"villageName":null,"roadName":null,"communityName":null,"tranName":null,"sdLineName":null,"cityCode":"1340605","cityName":"国网徐水县供电公司","provinceCode":null,"stopTime":"2019-08-01 14:00:00","powerType":"全部","powerOffArea":"【全线路停电】停北下关18号,东张丰13号,北下关17号,西张丰3号,西张丰20号,西张丰16号,东张丰6号,北下关8号,西张丰4号,西张丰8号,西张丰11号,西张丰9号,西张丰7号,北下关15号,西张丰18号,北下关7号,东张丰11号,北下关14号,西张丰2号,东张丰7号,西张丰14号【纯农排变】,盛源供电所10号,东张丰2号,东张丰10号,西张丰17号,西张丰10号,西张丰13号,西张丰19号,东张丰4号,东张丰1号,东张丰5号,北下关16号,北下关1号,北下关13号,东张丰9号,西张丰1号,盛源供电所74号,西张丰6号,东张丰3号,东张丰12号,东张丰8号,西张丰5号,北下关12号,西张丰12号【纯农排变】,北下关10号,北下关6号,西张丰15号,北下关5号","powerOffReason":"【停电原因】由于Ｂ相接地导致１１０ＫＶ徐水变电站地区农厂线５２２线路全线停电 【变更送电】无 【发布渠道】通过９５５９８发布","powerOffId":"2019080113001005"},{"poweroffId":2019080113000995,"sgpoweroffId":null,"subsName":"","lineName":"造纸厂线514","pubTranName":"荆庄南西【纯农排变】,荆庄大地道北,河北惠阳牧业有限公司,荆庄村东北2号【纯农排变】,荆庄南中配变【纯农排变】,荆庄屯河道,荆庄大地道北新增【纯农排变】,荆庄村东内农业【纯农排变】,荆庄柳陀道【纯农排变】,荆庄南西2号【纯农排变】,柳陀西南农【纯农排变】,荆庄小农场【纯农排变】,荆庄枣庄地【纯农排变】,荆庄内西配变,荆庄东园【纯农排变】,柳陀造纸厂南【纯农排变】,荆庄南东新增【纯农排变】,荆庄村东,荆庄村内东混2号,荆庄三等地【纯农排变】,荆庄南东【纯农排变】,荆庄村东北【纯农排变】,荆庄内南配变,荆庄东北新增,荆庄内东配变,荆庄村内混合配变,","scope":"【影响街道/乡镇】中韩庄乡　　 【高危重要客户】无　　 【影响客户】惠阳牧业有限公司、荆庄村、柳陀农业","startTime":"2019-08-14 05:00:00","stopDate":"2019-08-14 18:00:00","orgNo":"1340623","typeCode":"计划停电","poweroffArea":"【全线路停电】停荆庄枣庄地【纯农排变】,荆庄南西【纯农排变】,荆庄大地道北,河北惠阳牧业有限公司,荆庄村东北2号【纯农排变】,荆庄南中配变【纯农排变】,荆庄屯河道,荆庄大地道北新增【纯农排变】,荆庄村东内农业【纯农排变】,荆庄柳陀道【纯农排变】,荆庄南西2号【纯农排变】,柳陀西南农【纯农排变】,荆庄小农场【纯农排变】,荆庄内西配变,荆庄东园【纯农排变】,柳陀造纸厂南【纯农排变】,荆庄南东新增【纯农排变】,荆庄村东,荆庄村内东混2号,荆庄三等地【纯农排变】,荆庄南东【纯农排变】,荆庄村东北【纯农排变】,荆庄内南配变,荆庄东北新增,荆庄内东配变,荆庄村内混合配变","poweroffReason":"【停电原因】由于架线、接引、切改导致３５ＫＶ曹庄变电站造纸厂线５１４线路全线停电 【变更送电】无 【发布渠道】保定市望都有线电视台（０８月０２日至０８月１３日１９时００分至２０时００分之间）屏幕上方滚动","powerTime":"2019-08-14 17:50:32","powerComm":"已送电","subsNo":"","lineNo":"","tgNo":"","tgName":null,"infoStatus":"1","orgName":"国网望都县供电公司","typeName":null,"infoStatusName":null,"dateDay":null,"orgNos":null,"nowTime":null,"countyName":null,"streetName":null,"villageName":null,"roadName":null,"communityName":null,"tranName":null,"sdLineName":null,"cityCode":"1340623","cityName":"国网望都县供电公司","provinceCode":null,"stopTime":"2019-08-14 18:00:00","powerType":"全部","powerOffArea":"【全线路停电】停荆庄枣庄地【纯农排变】,荆庄南西【纯农排变】,荆庄大地道北,河北惠阳牧业有限公司,荆庄村东北2号【纯农排变】,荆庄南中配变【纯农排变】,荆庄屯河道,荆庄大地道北新增【纯农排变】,荆庄村东内农业【纯农排变】,荆庄柳陀道【纯农排变】,荆庄南西2号【纯农排变】,柳陀西南农【纯农排变】,荆庄小农场【纯农排变】,荆庄内西配变,荆庄东园【纯农排变】,柳陀造纸厂南【纯农排变】,荆庄南东新增【纯农排变】,荆庄村东,荆庄村内东混2号,荆庄三等地【纯农排变】,荆庄南东【纯农排变】,荆庄村东北【纯农排变】,荆庄内南配变,荆庄东北新增,荆庄内东配变,荆庄村内混合配变","powerOffReason":"【停电原因】由于架线、接引、切改导致３５ＫＶ曹庄变电站造纸厂线５１４线路全线停电 【变更送电】无 【发布渠道】保定市望都有线电视台（０８月０２日至０８月１３日１９时００分至２０时００分之间）屏幕上方滚动","powerOffId":"2019080113000995"},{"poweroffId":2019080113000985,"sgpoweroffId":null,"subsName":"","lineName":"曹工线516","pubTranName":"尧庄农场3号【纯农排变】,小西新村农业【纯农排变】,东屯河新上【纯农排变】,南曹庄村南2号【纯农排变】,黄土岗村内1号配变,小西新村村内配变,尧庄西南2号【纯农排变】,西屯河村内2号配变,北曹庄村内配变,东屯河粮食繁垦合作社,东屯河北边【纯农排变】,南曹庄村南【纯农排变】,西屯河内西配变,北曹庄果园【纯农排变】,北曹庄村内3号,尧庄小学,西屯河西北角【纯农排变】,东屯河南边【纯农排变】,尧庄内西配变,西屯河高铁2号,东屯河混合1号配变,南曹庄西南【纯农排变】,北曹庄猪厂【纯农排变】,东屯河内南配变,尧庄村东2号【纯农排变】,北曹庄果园东【纯农排变】,曹庄卫生院配变,曹庄小学,尧庄砖厂农配变,北曹庄西边内配变,黄土岗村内配变,北曹庄内北配变,东屯河砖厂160,东屯河东北【纯农排变】,尧庄村内配变,小西新村光伏配变,西屯河高铁1号【纯农排变】,尧庄村北1号【纯农排变】,东屯河村北,东屯河砖厂30,东屯河东北2号【纯农排变】,尧庄东北【纯农排变】,西屯河幼儿园配变,黄土岗村北【纯农排变】,尧庄西北配变,东屯河西北【纯农排变】,东发砖厂,东屯河西北2号,尧庄农场2号【纯农排变】,河北茂业粮食有限公司,南曹庄内南配变,西屯河村西5井【纯农排变】,尧庄西南【纯农排变】,尧庄村西【纯农排变】,西屯河塔西【纯农排变】,尧庄村南【纯农排变】,南曹庄东南【纯农排变】,西屯河混合1号配变,尧庄内东配变,南曹庄村西农业【纯农排变】,尧庄东南【纯农排变】,北曹庄村西,尧庄村北2号【纯农排变】,东屯河东南农【纯农排变】,尧庄村内2号配变,北曹庄西北【纯农排变】,尧庄村北3号【纯农排变】,北曹庄布厂合【纯农排变】,尧庄村光伏配变,曹庄信用社配变,北曹庄医院边配变,东屯河内东配变,尧庄村东【纯农排变】,尧庄正南【纯农排变】,黄土岗村南【纯农排变】,望都县屯河村东发砖厂,西屯河村西7井【纯农排变】,西屯河北跑【纯农排变】,尧庄农场1号【纯农排变】,北曹庄内东配变,","scope":"【影响街道/乡镇】中韩庄乡 【高危重要客户】无　　 【影响客户】尧庄村、东屯河、西屯河、北曹庄、小西新村、黄土岗、南曹庄村村南及部分农业、柳陀村部分农业、东屯河砖厂、胡振旗种植、茂业粮食","startTime":"2019-08-14 05:00:00","stopDate":"2019-08-14 18:00:00","orgNo":"1340623","typeCode":"计划停电","poweroffArea":"【全线路停电】停尧庄农场3号【纯农排变】,小西新村农业【纯农排变】,东屯河新上【纯农排变】,南曹庄村南2号【纯农排变】,黄土岗村内1号配变,小西新村村内配变,尧庄西南2号【纯农排变】,西屯河村内2号配变,北曹庄村内配变,东屯河粮食繁垦合作社,东屯河北边【纯农排变】,南曹庄村南【纯农排变】,西屯河内西配变,北曹庄果园【纯农排变】,北曹庄村内3号,尧庄小学,西屯河西北角【纯农排变】,东屯河南边【纯农排变】,尧庄内西配变,西屯河高铁2号,东屯河混合1号配变,南曹庄西南【纯农排变】,北曹庄猪厂【纯农排变】,东屯河内南配变,尧庄村东2号【纯农排变】,北曹庄果园东【纯农排变】,曹庄卫生院配变,曹庄小学,尧庄砖厂农配变,北曹庄西边内配变,黄土岗村内配变,北曹庄内北配变,东屯河东北【纯农排变】,尧庄村内配变,小西新村光伏配变,西屯河高铁1号【纯农排变】,尧庄村北1号【纯农排变】,东屯河村北,东屯河砖厂30,东屯河东北2号【纯农排变】,尧庄东北【纯农排变】,西屯河幼儿园配变,黄土岗村北【纯农排变】,尧庄西北配变,东屯河西北【纯农排变】,东发砖厂,东屯河西北2号,尧庄农场2号【纯农排变】,河北茂业粮食有限公司,南曹庄内南配变,西屯河村西5井【纯农排变】,尧庄西南【纯农排变】,尧庄村西【纯农排变】,西屯河塔西【纯农排变】,尧庄村南【纯农排变】,南曹庄东南【纯农排变】,西屯河混合1号配变,尧庄内东配变,南曹庄村西农业【纯农排变】,尧庄东南【纯农排变】,北曹庄村西,尧庄村北2号【纯农排变】,东屯河砖厂160,东屯河东南农【纯农排变】,尧庄村内2号配变,北曹庄西北【纯农排变】,尧庄村北3号【纯农排变】,北曹庄布厂合【纯农排变】,尧庄村光伏配变,曹庄信用社配变,北曹庄医院边配变,东屯河内东配变,尧庄村东【纯农排变】,尧庄正南【纯农排变】,黄土岗村南【纯农排变】,望都县屯河村东发砖厂,西屯河村西7井【纯农排变】,西屯河北跑【纯农排变】,尧庄农场1号【纯农排变】,北曹庄内东配变","poweroffReason":"【停电原因】由于架线、接引、切改导致３５ＫＶ曹庄变电站曹工线５１６线路全线停电 【变更送电】无 【发布渠道】保定市望都有线电视台（０８月０２日至０８月１３日１９时００分至２０时００分之间）屏幕上方滚动","powerTime":"2019-08-14 17:50:46","powerComm":"已送电","subsNo":"","lineNo":"","tgNo":"","tgName":null,"infoStatus":"1","orgName":"国网望都县供电公司","typeName":null,"infoStatusName":null,"dateDay":null,"orgNos":null,"nowTime":null,"countyName":null,"streetName":null,"villageName":null,"roadName":null,"communityName":null,"tranName":null,"sdLineName":null,"cityCode":"1340623","cityName":"国网望都县供电公司","provinceCode":null,"stopTime":"2019-08-14 18:00:00","powerType":"全部","powerOffArea":"【全线路停电】停尧庄农场3号【纯农排变】,小西新村农业【纯农排变】,东屯河新上【纯农排变】,南曹庄村南2号【纯农排变】,黄土岗村内1号配变,小西新村村内配变,尧庄西南2号【纯农排变】,西屯河村内2号配变,北曹庄村内配变,东屯河粮食繁垦合作社,东屯河北边【纯农排变】,南曹庄村南【纯农排变】,西屯河内西配变,北曹庄果园【纯农排变】,北曹庄村内3号,尧庄小学,西屯河西北角【纯农排变】,东屯河南边【纯农排变】,尧庄内西配变,西屯河高铁2号,东屯河混合1号配变,南曹庄西南【纯农排变】,北曹庄猪厂【纯农排变】,东屯河内南配变,尧庄村东2号【纯农排变】,北曹庄果园东【纯农排变】,曹庄卫生院配变,曹庄小学,尧庄砖厂农配变,北曹庄西边内配变,黄土岗村内配变,北曹庄内北配变,东屯河东北【纯农排变】,尧庄村内配变,小西新村光伏配变,西屯河高铁1号【纯农排变】,尧庄村北1号【纯农排变】,东屯河村北,东屯河砖厂30,东屯河东北2号【纯农排变】,尧庄东北【纯农排变】,西屯河幼儿园配变,黄土岗村北【纯农排变】,尧庄西北配变,东屯河西北【纯农排变】,东发砖厂,东屯河西北2号,尧庄农场2号【纯农排变】,河北茂业粮食有限公司,南曹庄内南配变,西屯河村西5井【纯农排变】,尧庄西南【纯农排变】,尧庄村西【纯农排变】,西屯河塔西【纯农排变】,尧庄村南【纯农排变】,南曹庄东南【纯农排变】,西屯河混合1号配变,尧庄内东配变,南曹庄村西农业【纯农排变】,尧庄东南【纯农排变】,北曹庄村西,尧庄村北2号【纯农排变】,东屯河砖厂160,东屯河东南农【纯农排变】,尧庄村内2号配变,北曹庄西北【纯农排变】,尧庄村北3号【纯农排变】,北曹庄布厂合【纯农排变】,尧庄村光伏配变,曹庄信用社配变,北曹庄医院边配变,东屯河内东配变,尧庄村东【纯农排变】,尧庄正南【纯农排变】,黄土岗村南【纯农排变】,望都县屯河村东发砖厂,西屯河村西7井【纯农排变】,西屯河北跑【纯农排变】,尧庄农场1号【纯农排变】,北曹庄内东配变","powerOffReason":"【停电原因】由于架线、接引、切改导致３５ＫＶ曹庄变电站曹工线５１６线路全线停电 【变更送电】无 【发布渠道】保定市望都有线电视台（０８月０２日至０８月１３日１９时００分至２０时００分之间）屏幕上方滚动","powerOffId":"2019080113000985"},{"poweroffId":2019080113000965,"sgpoweroffId":null,"subsName":"","lineName":"曹庄线513","pubTranName":"新贾村村东【纯农排变】,南曹庄内中,南曹庄太和庄道【纯农排变】,太和庄东北2号【纯农排变】,太和庄村北牛厂【纯农排变】,张町内西变压器,太和庄村西2号【纯农排变】,新贾村混合3号配变,保定艺程纺织有限公司,薛庄村北【纯农排变】,新贾村混合4号配变,大王庄桥头【纯农排变】,新贾村面粉厂【纯农排变】,南曹庄内西变压器,太和庄村西新上【纯农排变】,大王庄村北【纯农排变】,太和庄南【纯农排变】,大王庄幼儿园配变,新贾村村南2号【纯农排变】,张町变压器【纯农排变】,太和庄东北【纯农排变】,新贾村村内变压器,小王庄村内,太和庄东南新上【纯农排变】,薛庄村内西变压器,望都泽航洁净型煤有限公司,新贾村村东2号【纯农排变】,张疃内南配变,薛庄内南,太和庄西北【纯农排变】,南曹庄村东农业,太和庄村北2号【纯农排变】,新贾村混合6号配变,新贾村砖厂【纯农排变】,太和庄内东变压器,薛庄村内变压器,北曹庄村北边混变压器,大王庄东北【纯农排变】,大王庄内南变压器,大王庄村内变压器,太和庄村内变压器,薛庄村东,新贾村混合2号变压器,薛庄村内新增变压器,太和庄西南【纯农排变】,太和庄牛厂2号【纯农排变】,小王庄村西配变,新贾村混合5号配变,南曹庄果园【纯农排变】,曹庄幼儿园配变,小王庄村内2号配变,大王庄村南【纯农排变】,太和庄村东【纯农排变】,小王庄农业2号【纯农排变】,大王庄内东配变,小王庄农业【纯农排变】,交通局养护中心配变,大王庄北跑【纯农排变】,新贾村东北疃【纯农排变】,新贾村村南【纯农排变】,太和庄北【纯农排变】,太和庄小学,太和庄东南【纯农排变】,太和庄村南2号【纯农排变】,新贾村村南贾村地【纯农排变】,南曹庄村内变压器,薛庄东南农业【纯农排变】,张疃村村西【纯农排变】,大王庄村东【纯农排变】,太和庄村内西配变,新贾村村南1号【纯农排变】,大王庄内中配变,薛庄西南,保定旭跃粮食销售有限公司,大王庄内西配变,","scope":"【影响街道/乡镇】中韩庄乡 【高危重要客户】无　　 【影响客户】太和庄、北曹庄北边农业、大王庄、新贾村、张家疃、南曹庄、小王庄、薛庄村、泽航洁净型煤、旭越粮食收购、亿城纺织","startTime":"2019-08-14 05:00:00","stopDate":"2019-08-14 18:00:00","orgNo":"1340623","typeCode":"计划停电","poweroffArea":"【全线路停电】停新贾村村东【纯农排变】,南曹庄内中,南曹庄太和庄道【纯农排变】,太和庄东北2号【纯农排变】,太和庄村北牛厂【纯农排变】,张町内西变压器,太和庄村西2号【纯农排变】,新贾村混合3号配变,保定艺程纺织有限公司,薛庄村北【纯农排变】,新贾村混合4号配变,大王庄桥头【纯农排变】,新贾村面粉厂【纯农排变】,南曹庄内西变压器,太和庄村西新上【纯农排变】,大王庄村北【纯农排变】,太和庄南【纯农排变】,大王庄幼儿园配变,新贾村村南2号【纯农排变】,张町变压器【纯农排变】,太和庄东北【纯农排变】,新贾村村内变压器,小王庄村内,太和庄东南新上【纯农排变】,薛庄村内西变压器,望都泽航洁净型煤有限公司,新贾村村东2号【纯农排变】,张疃内南配变,薛庄内南,太和庄西北【纯农排变】,南曹庄村东农业,太和庄村北2号【纯农排变】,新贾村混合6号配变,新贾村砖厂【纯农排变】,太和庄内东变压器,薛庄村内变压器,北曹庄村北边混变压器,大王庄东北【纯农排变】,大王庄内南变压器,大王庄村内变压器,太和庄村内变压器,薛庄村东,新贾村混合2号变压器,薛庄村内新增变压器,太和庄西南【纯农排变】,太和庄牛厂2号【纯农排变】,小王庄村西配变,新贾村混合5号配变,南曹庄果园【纯农排变】,曹庄幼儿园配变,小王庄村内2号配变,大王庄村南【纯农排变】,太和庄村东【纯农排变】,小王庄农业2号【纯农排变】,大王庄内东配变,小王庄农业【纯农排变】,交通局养护中心配变,大王庄北跑【纯农排变】,新贾村东北疃【纯农排变】,新贾村村南【纯农排变】,太和庄北【纯农排变】,太和庄小学,太和庄东南【纯农排变】,太和庄村南2号【纯农排变】,新贾村村南贾村地【纯农排变】,南曹庄村内变压器,薛庄东南农业【纯农排变】,张疃村村西【纯农排变】,大王庄村东【纯农排变】,太和庄村内西配变,新贾村村南1号【纯农排变】,大王庄内中配变,薛庄西南,保定旭跃粮食销售有限公司,大王庄内西配变","poweroffReason":"【停电原因】由于架线、切改导致３５ＫＶ曹庄变电站曹庄线５１３线路全线停电 【变更送电】无 【发布渠道】保定市望都有线电视台（０８月０２日至０８月１３日１９时００分至２０时００分之间）屏幕上方滚动","powerTime":"2019-08-14 17:51:00","powerComm":"已送电","subsNo":"","lineNo":"","tgNo":"","tgName":null,"infoStatus":"1","orgName":"国网望都县供电公司","typeName":null,"infoStatusName":null,"dateDay":null,"orgNos":null,"nowTime":null,"countyName":null,"streetName":null,"villageName":null,"roadName":null,"communityName":null,"tranName":null,"sdLineName":null,"cityCode":"1340623","cityName":"国网望都县供电公司","provinceCode":null,"stopTime":"2019-08-14 18:00:00","powerType":"全部","powerOffArea":"【全线路停电】停新贾村村东【纯农排变】,南曹庄内中,南曹庄太和庄道【纯农排变】,太和庄东北2号【纯农排变】,太和庄村北牛厂【纯农排变】,张町内西变压器,太和庄村西2号【纯农排变】,新贾村混合3号配变,保定艺程纺织有限公司,薛庄村北【纯农排变】,新贾村混合4号配变,大王庄桥头【纯农排变】,新贾村面粉厂【纯农排变】,南曹庄内西变压器,太和庄村西新上【纯农排变】,大王庄村北【纯农排变】,太和庄南【纯农排变】,大王庄幼儿园配变,新贾村村南2号【纯农排变】,张町变压器【纯农排变】,太和庄东北【纯农排变】,新贾村村内变压器,小王庄村内,太和庄东南新上【纯农排变】,薛庄村内西变压器,望都泽航洁净型煤有限公司,新贾村村东2号【纯农排变】,张疃内南配变,薛庄内南,太和庄西北【纯农排变】,南曹庄村东农业,太和庄村北2号【纯农排变】,新贾村混合6号配变,新贾村砖厂【纯农排变】,太和庄内东变压器,薛庄村内变压器,北曹庄村北边混变压器,大王庄东北【纯农排变】,大王庄内南变压器,大王庄村内变压器,太和庄村内变压器,薛庄村东,新贾村混合2号变压器,薛庄村内新增变压器,太和庄西南【纯农排变】,太和庄牛厂2号【纯农排变】,小王庄村西配变,新贾村混合5号配变,南曹庄果园【纯农排变】,曹庄幼儿园配变,小王庄村内2号配变,大王庄村南【纯农排变】,太和庄村东【纯农排变】,小王庄农业2号【纯农排变】,大王庄内东配变,小王庄农业【纯农排变】,交通局养护中心配变,大王庄北跑【纯农排变】,新贾村东北疃【纯农排变】,新贾村村南【纯农排变】,太和庄北【纯农排变】,太和庄小学,太和庄东南【纯农排变】,太和庄村南2号【纯农排变】,新贾村村南贾村地【纯农排变】,南曹庄村内变压器,薛庄东南农业【纯农排变】,张疃村村西【纯农排变】,大王庄村东【纯农排变】,太和庄村内西配变,新贾村村南1号【纯农排变】,大王庄内中配变,薛庄西南,保定旭跃粮食销售有限公司,大王庄内西配变","powerOffReason":"【停电原因】由于架线、切改导致３５ＫＶ曹庄变电站曹庄线５１３线路全线停电 【变更送电】无 【发布渠道】保定市望都有线电视台（０８月０２日至０８月１３日１９时００分至２０时００分之间）屏幕上方滚动","powerOffId":"2019080113000965"},{"poweroffId":2019080113000959,"sgpoweroffId":null,"subsName":"","lineName":"10KV杨家庄516","pubTranName":"南秋兰村西水变压器,","scope":"【影响街道/乡镇】明义镇 【高危重要客户】无 【影响客户】南秋兰村","startTime":"2019-08-01 11:20:11","stopDate":"2019-08-01 18:00:00","orgNo":"1340614","typeCode":"电网故障停限电","poweroffArea":"【单台区停电】停南秋兰村西水变压器","poweroffReason":"【停电原因】由于配变烧毁导致３５ＫＶ明义变电站１０ＫＶ杨家庄５１６线路南秋兰村西水公变台区停电 【变更送电】无 【发布渠道】通过９５５９８发布","powerTime":"2019-08-01 17:49:21","powerComm":"已送电","subsNo":"","lineNo":"","tgNo":"","tgName":null,"infoStatus":"1","orgName":"国网涞水县供电公司","typeName":null,"infoStatusName":null,"dateDay":null,"orgNos":null,"nowTime":null,"countyName":null,"streetName":null,"villageName":null,"roadName":null,"communityName":null,"tranName":null,"sdLineName":null,"cityCode":"1340614","cityName":"国网涞水县供电公司","provinceCode":null,"stopTime":"2019-08-01 18:00:00","powerType":"全部","powerOffArea":"【单台区停电】停南秋兰村西水变压器","powerOffReason":"【停电原因】由于配变烧毁导致３５ＫＶ明义变电站１０ＫＶ杨家庄５１６线路南秋兰村西水公变台区停电 【变更送电】无 【发布渠道】通过９５５９８发布","powerOffId":"2019080113000959"},{"poweroffId":2019080113000952,"sgpoweroffId":null,"subsName":"","lineName":"10kV南章令564线","pubTranName":"南章令综合2变压器,流昌内8,","scope":"【影响街道/乡镇】伍仁桥镇 【高危重要客户】无 【影响客户】南章令、流昌、流托、中送、南郭村、大张村、乡政府附近","startTime":"2019-07-31 23:00:00","stopDate":"2019-08-01 11:30:00","orgNo":"1340606","typeCode":"电网故障停限电","poweroffArea":"【全线路停电】停流昌内8,南章令综合2变压器","poweroffReason":"【停电原因】由于站内开关跳闸导致１１０ＫＶ伍仁桥变电站１０ＫＶ南章令５６４线路全线停电 【变更送电】无 【发布渠道】９５５９８","powerTime":"2019-08-01 11:25:30","powerComm":"已送电","subsNo":"","lineNo":"","tgNo":"","tgName":null,"infoStatus":"1","orgName":"国网安国市供电公司","typeName":null,"infoStatusName":null,"dateDay":null,"orgNos":null,"nowTime":null,"countyName":null,"streetName":null,"villageName":null,"roadName":null,"communityName":null,"tranName":null,"sdLineName":null,"cityCode":"1340606","cityName":"国网安国市供电公司","provinceCode":null,"stopTime":"2019-08-01 11:30:00","powerType":"全部","powerOffArea":"【全线路停电】停流昌内8,南章令综合2变压器","powerOffReason":"【停电原因】由于站内开关跳闸导致１１０ＫＶ伍仁桥变电站１０ＫＶ南章令５６４线路全线停电 【变更送电】无 【发布渠道】９５５９８","powerOffId":"2019080113000952"}],"pageModel":{"pageNow":707,"totalCount":10973,"totalPage":1098,"tableRows":0,"pageCount":10,"beginCount":7060},"isExperi":"1"}