{"message":"","today":"2020-06-15","seleList":[{"poweroffId":2020052213000232,"sgpoweroffId":null,"subsName":"","lineName":"沽酒线564","pubTranName":"魏家庄光3【2019第一批预安排】,魏家庄光4,新魏庄光2,魏家庄光1,西陶沈光4【2018年四批补强】,西陶沈光5,西陶沈光1,西陶沈光3,西陶沈光2,","scope":"【影响街道/乡镇】张家庄乡 【影响客户】西陶沈、西魏家庄、西陶沈移动机站","startTime":"2020-06-07 07:00:00","stopDate":"2020-06-07 17:30:00","orgNo":"1340609","typeCode":"计划停电","poweroffArea":"【分支停电】停１１０ＫＶ贤寓变电站沽酒线５６４线路主干０７７号杆５６４－０４号开关以下线路，魏家庄光3【2019第一批预安排】,魏家庄光4,新魏庄光2,魏家庄光1,西陶沈光4【2018年四批补强】,西陶沈光5,西陶沈光1,西陶沈光3,西陶沈光2","poweroffReason":"【停电原因】由于主干０８０号杆至魏家庄光２组立电杆、更换金具导致１１０ＫＶ贤寓变电站沽酒线５６４线路主干０７７号杆５６４－０４号开关以下线路停电 【变更送电】无 【发布渠道】保定市定兴县电视台（０５月３０日０９时１０分至２３时５０分之间）屏幕上方滚动播放","powerTime":"2020-06-07 17:20:20","powerComm":"已送电","subsNo":"","lineNo":"","tgNo":"","tgName":null,"infoStatus":"1","orgName":"国网定兴县供电公司","typeName":null,"infoStatusName":null,"dateDay":null,"orgNos":null,"nowTime":null,"countyName":null,"streetName":null,"villageName":null,"roadName":null,"communityName":null,"tranName":null,"sdLineName":null,"cityCode":"1340609","cityName":"国网定兴县供电公司","provinceCode":null,"stopTime":"2020-06-07 17:30:00","powerType":"全部","powerOffArea":"【分支停电】停１１０ＫＶ贤寓变电站沽酒线５６４线路主干０７７号杆５６４－０４号开关以下线路，魏家庄光3【2019第一批预安排】,魏家庄光4,新魏庄光2,魏家庄光1,西陶沈光4【2018年四批补强】,西陶沈光5,西陶沈光1,西陶沈光3,西陶沈光2","powerOffReason":"【停电原因】由于主干０８０号杆至魏家庄光２组立电杆、更换金具导致１１０ＫＶ贤寓变电站沽酒线５６４线路主干０７７号杆５６４－０４号开关以下线路停电 【变更送电】无 【发布渠道】保定市定兴县电视台（０５月３０日０９时１０分至２３时５０分之间）屏幕上方滚动播放","powerOffId":"2020052213000232"},{"poweroffId":2020052213000229,"sgpoweroffId":null,"subsName":"","lineName":"10kV534东堤阳线","pubTranName":"西堤阳公用照明5台区,元光村公用照明一台区,东堤阳公用照明5台区,东堤阳村公用照明二台区,元光公用照明7台区,东堤阳公用照明3台区,西堤阳公用照明3台区,元光村公用照明二台区,元光公用照明5台区,东堤阳村公用照明一台区,元光公用照明8台区,元光村公用照明三台区,元光村公用照明四台区,东堤阳公用照明4台区,西堤阳村公用照明二台区,西堤阳村公用照明一台区,元光公用照明6台区,西堤阳公用照明4台区,元光公用农业17台区柱上变压器【纯农排变】,西堤阳村公用农业六台区【纯农排变】,东堤阳村公用农业八台区【纯农排变】,元光公用农业8台区【纯农排变】,元光公用农业1台区柱上变压器【纯农排变】,东亭水利服务站,元光公用农业11台区【纯农排变】,西堤阳村公用农业九台区【纯农排变】,元光公用农业5台区【纯农排变】,元光公用农业2台区【纯农排变】,元光公用农业12台区柱上变压器【纯农排变】,西堤阳村公用农业八台区【纯农排变】,定州市燕都药业有限公司变压器,西堤阳村公用农业四台区【纯农排变】,定州市建光车床加工厂变压器,晏阳初中学变压器2,元光公用农业4台区【纯农排变】,西堤阳村公用农业五台区【纯农排变】,西堤阳村公用农业七台区【纯农排变】,元光公用农业6台区【纯农排变】,元光公用农业10台区【纯农排变】,元光公用农业15台区柱上变压器【纯农排变】,东堤阳村公用农业一台区【纯农排变】,东堤阳村公用农业六台区【纯农排变】,东堤阳公用农业三台区【纯农排变】,元光公用农业9台区【纯农排变】,元光公用农业14台区柱上变压器【纯农排变】,西堤阳村公用农业一台区【纯农排变】,元光公用农业3台区【纯农排变】,定州市东亭镇元光村民委员会变压器,西堤阳公用农业11台区【纯农排变】,元光公用农业13台区【纯农排变】,西堤阳公用农业10台区【纯农排变】,东堤阳村公用农业七台区【纯农排变】,东堤阳村公用农业五台区【纯农排变】,东堤阳村公用农业二台区【纯农排变】,0588302578-定州市东亭镇元光村民委员会-专变-125309902-定州市东亭镇元光村民委员会变压器,西堤阳村公用农业三台区【纯农排变】,西堤阳村公用农业二台区【纯农排变】,东堤阳村公用农业四台区【纯农排变】,","scope":"【影响街道/乡镇】东亭镇【影响客户】元光、西堤阳、东堤阳","startTime":"2020-06-06 07:00:00","stopDate":"2020-06-06 18:00:00","orgNo":"1340610","typeCode":"计划停电","poweroffArea":"【分支停电】停１１０ＫＶ东亭变电站１０ＫＶ５３４东堤阳线路主干１３号杆０２号断路器以下线路，西堤阳公用照明5台区,元光村公用照明一台区,东堤阳公用照明5台区,东堤阳村公用照明二台区,元光公用照明7台区,东堤阳公用照明3台区,西堤阳公用照明3台区,元光村公用照明二台区,元光公用照明5台区,东堤阳村公用照明一台区,元光公用照明8台区,元光村公用照明三台区,元光村公用照明四台区,东堤阳公用照明4台区,西堤阳村公用照明二台区,西堤阳村公用照明一台区,元光公用照明6台区,西堤阳公用照明4台区,元光公用农业17台区柱上变压器【纯农排变】,西堤阳村公用农业六台区【纯农排变】,东堤阳村公用农业八台区【纯农排变】,元光公用农业8台区【纯农排变】,元光公用农业1台区柱上变压器【纯农排变】,东亭水利服务站,元光公用农业11台区【纯农排变】,西堤阳村公用农业九台区【纯农排变】,元光公用农业5台区【纯农排变】,元光公用农业2台区【纯农排变】,元光公用农业12台区柱上变压器【纯农排变】,西堤阳村公用农业八台区【纯农排变】,定州市燕都药业有限公司变压器,西堤阳村公用农业四台区【纯农排变】,定州市建光车床加工厂变压器,晏阳初中学变压器2,元光公用农业4台区【纯农排变】,西堤阳村公用农业五台区【纯农排变】,西堤阳村公用农业七台区【纯农排变】,元光公用农业6台区【纯农排变】,元光公用农业10台区【纯农排变】,元光公用农业15台区柱上变压器【纯农排变】,东堤阳村公用农业一台区【纯农排变】,东堤阳村公用农业六台区【纯农排变】,东堤阳公用农业三台区【纯农排变】,元光公用农业9台区【纯农排变】,元光公用农业14台区柱上变压器【纯农排变】,西堤阳村公用农业一台区【纯农排变】,元光公用农业3台区【纯农排变】,定州市东亭镇元光村民委员会变压器,西堤阳公用农业11台区【纯农排变】,元光公用农业13台区【纯农排变】,西堤阳公用农业10台区【纯农排变】,东堤阳村公用农业七台区【纯农排变】,东堤阳村公用农业五台区【纯农排变】,东堤阳村公用农业二台区【纯农排变】,0588302578-定州市东亭镇元光村民委员会-专变-125309902-定州市东亭镇元光村民委员会变压器,西堤阳村公用农业三台区【纯农排变】,西堤阳村公用农业二台区【纯农排变】,东堤阳村公用农业四台区【纯农排变】","poweroffReason":"【停电原因】由于更换导线导致１１０ＫＶ东亭变电站１０ＫＶ５３４东堤阳线路主干１３号杆０２号断路器以下线路停电 【变更送电】无 【发布渠道】河北省定州市定州日报第三版（２０２０年０５月２５日）","powerTime":"2020-06-06 17:54:14","powerComm":"已送电","subsNo":"","lineNo":"","tgNo":"","tgName":null,"infoStatus":"1","orgName":"国网定州市供电公司","typeName":null,"infoStatusName":null,"dateDay":null,"orgNos":null,"nowTime":null,"countyName":null,"streetName":null,"villageName":null,"roadName":null,"communityName":null,"tranName":null,"sdLineName":null,"cityCode":"1340610","cityName":"国网定州市供电公司","provinceCode":null,"stopTime":"2020-06-06 18:00:00","powerType":"全部","powerOffArea":"【分支停电】停１１０ＫＶ东亭变电站１０ＫＶ５３４东堤阳线路主干１３号杆０２号断路器以下线路，西堤阳公用照明5台区,元光村公用照明一台区,东堤阳公用照明5台区,东堤阳村公用照明二台区,元光公用照明7台区,东堤阳公用照明3台区,西堤阳公用照明3台区,元光村公用照明二台区,元光公用照明5台区,东堤阳村公用照明一台区,元光公用照明8台区,元光村公用照明三台区,元光村公用照明四台区,东堤阳公用照明4台区,西堤阳村公用照明二台区,西堤阳村公用照明一台区,元光公用照明6台区,西堤阳公用照明4台区,元光公用农业17台区柱上变压器【纯农排变】,西堤阳村公用农业六台区【纯农排变】,东堤阳村公用农业八台区【纯农排变】,元光公用农业8台区【纯农排变】,元光公用农业1台区柱上变压器【纯农排变】,东亭水利服务站,元光公用农业11台区【纯农排变】,西堤阳村公用农业九台区【纯农排变】,元光公用农业5台区【纯农排变】,元光公用农业2台区【纯农排变】,元光公用农业12台区柱上变压器【纯农排变】,西堤阳村公用农业八台区【纯农排变】,定州市燕都药业有限公司变压器,西堤阳村公用农业四台区【纯农排变】,定州市建光车床加工厂变压器,晏阳初中学变压器2,元光公用农业4台区【纯农排变】,西堤阳村公用农业五台区【纯农排变】,西堤阳村公用农业七台区【纯农排变】,元光公用农业6台区【纯农排变】,元光公用农业10台区【纯农排变】,元光公用农业15台区柱上变压器【纯农排变】,东堤阳村公用农业一台区【纯农排变】,东堤阳村公用农业六台区【纯农排变】,东堤阳公用农业三台区【纯农排变】,元光公用农业9台区【纯农排变】,元光公用农业14台区柱上变压器【纯农排变】,西堤阳村公用农业一台区【纯农排变】,元光公用农业3台区【纯农排变】,定州市东亭镇元光村民委员会变压器,西堤阳公用农业11台区【纯农排变】,元光公用农业13台区【纯农排变】,西堤阳公用农业10台区【纯农排变】,东堤阳村公用农业七台区【纯农排变】,东堤阳村公用农业五台区【纯农排变】,东堤阳村公用农业二台区【纯农排变】,0588302578-定州市东亭镇元光村民委员会-专变-125309902-定州市东亭镇元光村民委员会变压器,西堤阳村公用农业三台区【纯农排变】,西堤阳村公用农业二台区【纯农排变】,东堤阳村公用农业四台区【纯农排变】","powerOffReason":"【停电原因】由于更换导线导致１１０ＫＶ东亭变电站１０ＫＶ５３４东堤阳线路主干１３号杆０２号断路器以下线路停电 【变更送电】无 【发布渠道】河北省定州市定州日报第三版（２０２０年０５月２５日）","powerOffId":"2020052213000229"},{"poweroffId":2020052213000225,"sgpoweroffId":null,"subsName":"","lineName":"后营线512","pubTranName":"西后营混2,西后营混合6号配变,西后营混3,白岳混合5号配变,西后营混合7号配变,西后营内中混4,白岳内北混合6号,西后营混1,白岳混1,白岳混2,西后营村北混5配变,白岳混3,","scope":"【影响街道/乡镇】寺庄乡 【高危重要客户】无 【影响客户】白岳村、西后营","startTime":"2020-06-02 08:00:00","stopDate":"2020-06-02 11:00:00","orgNo":"1340623","typeCode":"计划停电","poweroffArea":"【全线路停电】停３５ＫＶ白岳变电站后营线５１２线路全线西后营混2,西后营混合6号配变,西后营混3,白岳混合5号配变,西后营混合7号配变,西后营内中混4,白岳内北混合6号,西后营混1,白岳混1,白岳混2,西后营村北混5配变,白岳混3","poweroffReason":"【停电原因】由于拆除导线、导线架设导致３５ＫＶ白岳变电站后营线５１２线路全线停电 【变更送电】无 【发布渠道】保定市望都电视台（０５月２３日至０６月０１日１９时００分至２０时００分之间）屏幕上方滚动","powerTime":"2020-06-02 10:10:26","powerComm":"已送电","subsNo":"","lineNo":"","tgNo":"","tgName":null,"infoStatus":"1","orgName":"国网望都县供电公司","typeName":null,"infoStatusName":null,"dateDay":null,"orgNos":null,"nowTime":null,"countyName":null,"streetName":null,"villageName":null,"roadName":null,"communityName":null,"tranName":null,"sdLineName":null,"cityCode":"1340623","cityName":"国网望都县供电公司","provinceCode":null,"stopTime":"2020-06-02 11:00:00","powerType":"全部","powerOffArea":"【全线路停电】停３５ＫＶ白岳变电站后营线５１２线路全线西后营混2,西后营混合6号配变,西后营混3,白岳混合5号配变,西后营混合7号配变,西后营内中混4,白岳内北混合6号,西后营混1,白岳混1,白岳混2,西后营村北混5配变,白岳混3","powerOffReason":"【停电原因】由于拆除导线、导线架设导致３５ＫＶ白岳变电站后营线５１２线路全线停电 【变更送电】无 【发布渠道】保定市望都电视台（０５月２３日至０６月０１日１９时００分至２０时００分之间）屏幕上方滚动","powerOffId":"2020052213000225"},{"poweroffId":2020052213000223,"sgpoweroffId":null,"subsName":"","lineName":"10kV513邢邑线","pubTranName":"七堡村公用农业7台区【纯农排变】,0654410952-定州市恒通五金制品有限公司-专变-183720930-定州市丰华金属制品有限公司变压器1,太平庄公用农业3台区【纯农排变】,七堡公用农业13台区【纯农排变】,保合庄公用农业2台区【纯农排变】,定州市旭日金属制品厂,七堡村公用农业12台区【纯农排变】,定州市丰华金属制品有限公司变压器,七堡村公用农业11台区【纯农排变】,七堡公用农业15台区【纯农排变】,七堡村公用农业9台区【纯农排变】,七堡村公用农业6台区【纯农排变】,七堡公用照明17台区,七堡村公用农业10台区【纯农排变】,七堡村公用农业8台区【纯农排变】,0654410952-定州市恒通五金制品有限公司-专变-183720933-定州市丰华金属制品有限公司变压器2,七堡公用农业16台区【纯农排变】,定州市恒通五金制品有限公司变压器,李辛庄公用农业12台区【纯农排变】,留宿公用农业8台区【纯农排变】,七堡公用农业14台区【纯农排变】,定州市丰华金属制品有限公司变压器1,","scope":"【影响街道/乡镇】高蓬镇【影响客户】七堡","startTime":"2020-06-05 07:30:00","stopDate":"2020-06-05 18:00:00","orgNo":"1340610","typeCode":"计划停电","poweroffArea":"【全线路停电】停１１０ＫＶ李亲顾变电站１０ＫＶ５１３邢邑线路全线，七堡村公用农业7台区【纯农排变】,0654410952-定州市恒通五金制品有限公司-专变-183720930-定州市丰华金属制品有限公司变压器1,太平庄公用农业3台区【纯农排变】,七堡公用农业13台区【纯农排变】,保合庄公用农业2台区【纯农排变】,定州市旭日金属制品厂,七堡村公用农业12台区【纯农排变】,定州市丰华金属制品有限公司变压器,七堡村公用农业11台区【纯农排变】,七堡公用农业15台区【纯农排变】,七堡村公用农业9台区【纯农排变】,七堡村公用农业6台区【纯农排变】,七堡公用照明17台区,七堡村公用农业10台区【纯农排变】,七堡村公用农业8台区【纯农排变】,0654410952-定州市恒通五金制品有限公司-专变-183720933-定州市丰华金属制品有限公司变压器2,七堡公用农业16台区【纯农排变】,定州市恒通五金制品有限公司变压器,李辛庄公用农业12台区【纯农排变】,留宿公用农业8台区【纯农排变】,七堡公用农业14台区【纯农排变】,定州市丰华金属制品有限公司变压器1","poweroffReason":"【停电原因】由于更换电缆导致１１０ＫＶ李亲顾变电站１０ＫＶ５１３邢邑线路全线停电 【变更送电】无 【发布渠道】河北省定州市定州日报第三版（２０２０年０５月２５日）","powerTime":"2020-06-05 17:56:05","powerComm":"已送电","subsNo":"","lineNo":"","tgNo":"","tgName":null,"infoStatus":"1","orgName":"国网定州市供电公司","typeName":null,"infoStatusName":null,"dateDay":null,"orgNos":null,"nowTime":null,"countyName":null,"streetName":null,"villageName":null,"roadName":null,"communityName":null,"tranName":null,"sdLineName":null,"cityCode":"1340610","cityName":"国网定州市供电公司","provinceCode":null,"stopTime":"2020-06-05 18:00:00","powerType":"全部","powerOffArea":"【全线路停电】停１１０ＫＶ李亲顾变电站１０ＫＶ５１３邢邑线路全线，七堡村公用农业7台区【纯农排变】,0654410952-定州市恒通五金制品有限公司-专变-183720930-定州市丰华金属制品有限公司变压器1,太平庄公用农业3台区【纯农排变】,七堡公用农业13台区【纯农排变】,保合庄公用农业2台区【纯农排变】,定州市旭日金属制品厂,七堡村公用农业12台区【纯农排变】,定州市丰华金属制品有限公司变压器,七堡村公用农业11台区【纯农排变】,七堡公用农业15台区【纯农排变】,七堡村公用农业9台区【纯农排变】,七堡村公用农业6台区【纯农排变】,七堡公用照明17台区,七堡村公用农业10台区【纯农排变】,七堡村公用农业8台区【纯农排变】,0654410952-定州市恒通五金制品有限公司-专变-183720933-定州市丰华金属制品有限公司变压器2,七堡公用农业16台区【纯农排变】,定州市恒通五金制品有限公司变压器,李辛庄公用农业12台区【纯农排变】,留宿公用农业8台区【纯农排变】,七堡公用农业14台区【纯农排变】,定州市丰华金属制品有限公司变压器1","powerOffReason":"【停电原因】由于更换电缆导致１１０ＫＶ李亲顾变电站１０ＫＶ５１３邢邑线路全线停电 【变更送电】无 【发布渠道】河北省定州市定州日报第三版（２０２０年０５月２５日）","powerOffId":"2020052213000223"},{"poweroffId":2020052213000216,"sgpoweroffId":null,"subsName":"","lineName":"东农业线512","pubTranName":"北堽上光3,北堽上光10【2018年重过载】,北堽上光9变压器【灾后重建】,北堽上光11【2018年重过载】,北堽上光13【2019年预安排】,新北罡上光2,北堽上光1【2018年节能变】,北罡上光5,北罡上混2,北罡光4,新北罡光7,北堽上光12,新北罡光8【2016年重过载】,北罡混1,车站公用11,车站公用8,车站公用3【2018年重过载】,国兴光9,国兴光 8【2019年节能变】,南堽上光5变压器,南堽上光3,新南堽上光2,南堽上光1,南堽上光4【2018年重过载】,北罡上光6,车站公用6变压器【2018年第二批应急工程】,","scope":"【影响街道/乡镇】固城镇 【影响客户】南堽上、北堽上、国兴、八街村部分用户、固达五金建材、京建盛业环保科技、北罡上板厂、北罡上小学、固城车站、诚信胶轨厂、大平原加工厂、大洋鱼饵厂、国兴纸箱厂、河北恒牌公司、恒森混凝土、方顺再生资源回收、粮库、棉裤、鑫友涂料、盈辉机械公司、富易高废旧物资回收、固城污水处理厂","startTime":"2020-06-02 06:30:00","stopDate":"2020-06-02 18:00:00","orgNo":"1340609","typeCode":"计划停电","poweroffArea":"【分支停电】停３５ＫＶ固城变电站东农业线５１２线路主干００２号杆５１２－０１号开关以下线路，新北罡光8【2016年重过载】,新北罡上光2,北堽上光1【2018年节能变】,北罡上光5,北罡上混2,北罡光4,新北罡光7,北堽上光12,北罡上光6,北罡混1,北堽上光3,北堽上光10【2018年重过载】,北堽上光9变压器【灾后重建】,北堽上光11【2018年重过载】,北堽上光13【2019年预安排】 ,车站公用11,车站公用6变压器【2018年第二批应急工程】,车站公用8,车站公用3【2018年重过载】,国兴光9,国兴光 8【2019年节能变】,南堽上光5变压器,南堽上光3,新南堽上光2,南堽上光1,南堽上光4【2018年重过载】","poweroffReason":"【停电原因】由于车站公用３分支２２号杆至２３号杆Ｔ接电缆导致３５ＫＶ固城变电站东农业线５１２线路主干００２号杆５１２－０１号开关以下线路停电 【变更送电】无 【发布渠道】保定市定兴县电视台（０５月２５日０９时１０分至２３时５０分之间）屏幕上方滚动播放","powerTime":"2020-06-02 17:52:20","powerComm":"已送电","subsNo":"","lineNo":"","tgNo":"","tgName":null,"infoStatus":"1","orgName":"国网定兴县供电公司","typeName":null,"infoStatusName":null,"dateDay":null,"orgNos":null,"nowTime":null,"countyName":null,"streetName":null,"villageName":null,"roadName":null,"communityName":null,"tranName":null,"sdLineName":null,"cityCode":"1340609","cityName":"国网定兴县供电公司","provinceCode":null,"stopTime":"2020-06-02 18:00:00","powerType":"全部","powerOffArea":"【分支停电】停３５ＫＶ固城变电站东农业线５１２线路主干００２号杆５１２－０１号开关以下线路，新北罡光8【2016年重过载】,新北罡上光2,北堽上光1【2018年节能变】,北罡上光5,北罡上混2,北罡光4,新北罡光7,北堽上光12,北罡上光6,北罡混1,北堽上光3,北堽上光10【2018年重过载】,北堽上光9变压器【灾后重建】,北堽上光11【2018年重过载】,北堽上光13【2019年预安排】 ,车站公用11,车站公用6变压器【2018年第二批应急工程】,车站公用8,车站公用3【2018年重过载】,国兴光9,国兴光 8【2019年节能变】,南堽上光5变压器,南堽上光3,新南堽上光2,南堽上光1,南堽上光4【2018年重过载】","powerOffReason":"【停电原因】由于车站公用３分支２２号杆至２３号杆Ｔ接电缆导致３５ＫＶ固城变电站东农业线５１２线路主干００２号杆５１２－０１号开关以下线路停电 【变更送电】无 【发布渠道】保定市定兴县电视台（０５月２５日０９时１０分至２３时５０分之间）屏幕上方滚动播放","powerOffId":"2020052213000216"},{"poweroffId":2020052213000198,"sgpoweroffId":null,"subsName":"","lineName":"岗南线517","pubTranName":"大册村5#,大册村6#,大册村4#,大册14号,马厂1#（统管),","scope":"【影响街道/乡镇】大册营镇 【影响客户】马厂村,大册村","startTime":"2020-05-31 06:00:00","stopDate":"2020-05-31 18:00:00","orgNo":"1340617","typeCode":"计划停电","poweroffArea":"【全线路停电】停１１０ＫＶ大册营变电站岗南线５１７线路全线,大册村5#,大册村6#,大册村4#,大册14号,马厂1#（统管)","poweroffReason":"【停电原因】由于补强工程导致１１０ＫＶ大册营变电站岗南线５１７线路全线停电 【变更送电】无 【发布渠道】保定市满城县电视台（０５月２２日１９：００－２０：００至０５月３０日１９：００－２０：００）屏幕上方滚动","powerTime":"2020-05-31 17:45:51","powerComm":"已送电","subsNo":"","lineNo":"","tgNo":"","tgName":null,"infoStatus":"1","orgName":"国网满城县供电公司","typeName":null,"infoStatusName":null,"dateDay":null,"orgNos":null,"nowTime":null,"countyName":null,"streetName":null,"villageName":null,"roadName":null,"communityName":null,"tranName":null,"sdLineName":null,"cityCode":"1340617","cityName":"国网满城县供电公司","provinceCode":null,"stopTime":"2020-05-31 18:00:00","powerType":"全部","powerOffArea":"【全线路停电】停１１０ＫＶ大册营变电站岗南线５１７线路全线,大册村5#,大册村6#,大册村4#,大册14号,马厂1#（统管)","powerOffReason":"【停电原因】由于补强工程导致１１０ＫＶ大册营变电站岗南线５１７线路全线停电 【变更送电】无 【发布渠道】保定市满城县电视台（０５月２２日１９：００－２０：００至０５月３０日１９：００－２０：００）屏幕上方滚动","powerOffId":"2020052213000198"},{"poweroffId":2020052213000189,"sgpoweroffId":null,"subsName":"","lineName":"沿村线516","pubTranName":"长安城光4【2018年重过载】,长安城光1,长安城光5,长安城光6,长安城光9,长安城光10,长安城光12,","scope":"【影响街道/乡镇】高里乡 【影响客户】长安城、长安城小学","startTime":"2020-06-06 06:30:00","stopDate":"2020-06-06 18:00:00","orgNo":"1340609","typeCode":"计划停电","poweroffArea":"【分支停电】停３５ＫＶ景安变电站沿村线５１６线路长安城光4分支０１号杆５１６－０７号开关以下线路，长安城光4【2018年重过载】,长安城光1,长安城光5,长安城光6,长安城光9,长安城光10,长安城光12","poweroffReason":"【停电原因】由于长安城光４分支更换导线导致３５ＫＶ景安变电站沿村线５１６线路长安城光４分支０１号杆５１６－０７号开关以下线路停电 【变更送电】无 【发布渠道】保定市定兴县电视台（０５月２９日０９时１０分至２３时５０分之间）屏幕上方滚动播放","powerTime":"2020-06-06 17:43:34","powerComm":"已送电","subsNo":"","lineNo":"","tgNo":"","tgName":null,"infoStatus":"1","orgName":"国网定兴县供电公司","typeName":null,"infoStatusName":null,"dateDay":null,"orgNos":null,"nowTime":null,"countyName":null,"streetName":null,"villageName":null,"roadName":null,"communityName":null,"tranName":null,"sdLineName":null,"cityCode":"1340609","cityName":"国网定兴县供电公司","provinceCode":null,"stopTime":"2020-06-06 18:00:00","powerType":"全部","powerOffArea":"【分支停电】停３５ＫＶ景安变电站沿村线５１６线路长安城光4分支０１号杆５１６－０７号开关以下线路，长安城光4【2018年重过载】,长安城光1,长安城光5,长安城光6,长安城光9,长安城光10,长安城光12","powerOffReason":"【停电原因】由于长安城光４分支更换导线导致３５ＫＶ景安变电站沿村线５１６线路长安城光４分支０１号杆５１６－０７号开关以下线路停电 【变更送电】无 【发布渠道】保定市定兴县电视台（０５月２９日０９时１０分至２３时５０分之间）屏幕上方滚动播放","powerOffId":"2020052213000189"},{"poweroffId":2020052213000151,"sgpoweroffId":null,"subsName":"","lineName":"10KV润禾街515","pubTranName":"沿鲁4441台区柱变,","scope":"【影响街道/乡镇】徐里营城区 【影响客户】沿鲁","startTime":"2020-05-22 12:10:17","stopDate":"2020-05-22 16:00:00","orgNo":"1340626","typeCode":"电网故障停限电","poweroffArea":"【单台区停电】停３５ＫＶ徐里营变电站１０ＫＶ润禾街５１５线路沿鲁４４４１公变台区，沿鲁4441台区柱变","poweroffReason":"【停电原因】由于低压电缆烧毁导致３５ＫＶ徐里营变电站１０ＫＶ润禾街５１５线路沿鲁４４４１公变台区停电 【变更送电】因抢修进度加快原因，送电时间由１９：００变更为１６：００ 【发布渠道】通过９５５９８发布","powerTime":"2020-05-22 15:26:26","powerComm":"已送电","subsNo":"","lineNo":"","tgNo":"","tgName":null,"infoStatus":"1","orgName":"国网涿州市供电公司","typeName":null,"infoStatusName":null,"dateDay":null,"orgNos":null,"nowTime":null,"countyName":null,"streetName":null,"villageName":null,"roadName":null,"communityName":null,"tranName":null,"sdLineName":null,"cityCode":"1340626","cityName":"国网涿州市供电公司","provinceCode":null,"stopTime":"2020-05-22 16:00:00","powerType":"全部","powerOffArea":"【单台区停电】停３５ＫＶ徐里营变电站１０ＫＶ润禾街５１５线路沿鲁４４４１公变台区，沿鲁4441台区柱变","powerOffReason":"【停电原因】由于低压电缆烧毁导致３５ＫＶ徐里营变电站１０ＫＶ润禾街５１５线路沿鲁４４４１公变台区停电 【变更送电】因抢修进度加快原因，送电时间由１９：００变更为１６：００ 【发布渠道】通过９５５９８发布","powerOffId":"2020052213000151"},{"poweroffId":2020052213000088,"sgpoweroffId":null,"subsName":"","lineName":"毛巾厂线524","pubTranName":"客户投资_SQ现代城二期中综合出线配电变压器,东王5#大队综合,东王4#敬老院综合,客户投资_SQ现代城小区4#中压出线配电变压器,东王3#西街口综合,客户投资_高阳县太和风景3号综合箱变配变配电变压器,客户投资_高阳县太和风景2号综合箱变配变配电变压器,客户投资_SQ现代城二期北综合出线配电变压器,客户投资_SQ现代城小区2#箱变配变配电变压器,客户投资_SQ现代城二期南综合出线配电变压器,东王1#东北综合,10106|迎宾路东王小区综合,高阳安康医院变压器,","scope":"【影响街道/乡镇】迎宾路、现代城大街、建新路、高阳镇 【高危重要客户】无 【影响客户】现代城小区部分、东王村部分（东王草庄村）、迎宾路东王小区、太和风景部分、金色家园部分、振华酒店、保定冀中动物保健品有限公司、正阳医院、河北春润建筑安装工程有限公司、超限超载检测站","startTime":"2020-05-22 10:12:09","stopDate":"2020-05-22 14:20:00","orgNo":"1340613","typeCode":"电网故障停限电","poweroffArea":"【全线路停电】停客户投资_SQ现代城二期中综合出线配电变压器,东王5#大队综合,东王4#敬老院综合,客户投资_SQ现代城小区4#中压出线配电变压器,东王3#西街口综合,客户投资_高阳县太和风景3号综合箱变配变配电变压器,客户投资_高阳县太和风景2号综合箱变配变配电变压器,客户投资_SQ现代城二期北综合出线配电变压器,客户投资_SQ现代城小区2#箱变配变配电变压器,客户投资_SQ现代城二期南综合出线配电变压器,东王1#东北综合,10106|迎宾路东王小区综合","poweroffReason":"【停电原因】由于汽车撞杆导致１１０ＫＶ沙窝变电站毛巾厂５２４线路全线停电【变更送电】因抢修进度加快原因，送电时间由１８：００变更为１４:２０【发布渠道】通过９５５９８发布","powerTime":"2020-05-22 13:39:22","powerComm":"已送电","subsNo":"","lineNo":"","tgNo":"","tgName":null,"infoStatus":"1","orgName":"国网高阳县供电公司","typeName":null,"infoStatusName":null,"dateDay":null,"orgNos":null,"nowTime":null,"countyName":null,"streetName":null,"villageName":null,"roadName":null,"communityName":null,"tranName":null,"sdLineName":null,"cityCode":"1340613","cityName":"国网高阳县供电公司","provinceCode":null,"stopTime":"2020-05-22 14:20:00","powerType":"全部","powerOffArea":"【全线路停电】停客户投资_SQ现代城二期中综合出线配电变压器,东王5#大队综合,东王4#敬老院综合,客户投资_SQ现代城小区4#中压出线配电变压器,东王3#西街口综合,客户投资_高阳县太和风景3号综合箱变配变配电变压器,客户投资_高阳县太和风景2号综合箱变配变配电变压器,客户投资_SQ现代城二期北综合出线配电变压器,客户投资_SQ现代城小区2#箱变配变配电变压器,客户投资_SQ现代城二期南综合出线配电变压器,东王1#东北综合,10106|迎宾路东王小区综合","powerOffReason":"【停电原因】由于汽车撞杆导致１１０ＫＶ沙窝变电站毛巾厂５２４线路全线停电【变更送电】因抢修进度加快原因，送电时间由１８：００变更为１４:２０【发布渠道】通过９５５９８发布","powerOffId":"2020052213000088"},{"poweroffId":2020052213000067,"sgpoweroffId":null,"subsName":"","lineName":"10kV苑桥线520","pubTranName":"1苑桥内8,2苑桥外16【纯农排变】,1史家桥内11,1苑桥内6,1史家桥内13台区,07苑桥内1,1范郭桥内3,史家桥小学1,07范郭桥内1号,07郭村内1号,1苑桥内5,1史家桥内14台区,2良庙外3【纯农排变】,1范郭桥内4,2苑桥外9【纯农排变】,范郭桥小学,1史家桥内15台区,07史家桥内8,1苑桥内4,07史桥村内3号,07史家桥内1号,2石头桥外22台区【纯农排变】,1史家桥内2,07苑桥内2,1范郭桥内2,1史家桥内9,07苑桥外4【纯农排变】,1史家桥内10,1苑桥内7台区,苑桥附属学校,","scope":"【影响街道/乡镇】何桥乡 【高危重要客户】无 【影响客户】史家桥、郭村、范郭桥、苑桥、何桥","startTime":"2020-05-31 06:00:00","stopDate":"2020-05-31 18:00:00","orgNo":"1340618","typeCode":"计划停电","poweroffArea":"【全线路停电】停110kV草桥变电站10kV苑桥线520线路全线，2何桥外12【纯农排变】,2何桥外15【纯农排变】,2郭村外5【纯农排变】,2石头桥外11【纯农排变】,2史家桥外36【纯农排变】,1范郭桥内4,2苑桥外9【纯农排变】,2苑桥外7【纯农排变】,2史家桥外27【纯农排变】,0387496090-清苑县来胜化工有限公司-专变-45317216-清苑县来胜化工有限公司,2史家桥外31【纯农排变】,2史家桥外14【纯农排变】,1史家桥内2,2史家桥外29【纯农排变】,2史家桥外21【纯农排变】,2苑桥外2【纯农排变】,07苑桥内2,2良庙外5【纯农排变】,2史家桥外35【纯农排变】,清苑县宏波合金有限公司,2史家桥外20【纯农排变】,中国石油化工股份有限公司河北清苑石油分公,2何桥外19【纯农排变】,07史家桥外3【纯农排变】,2何桥外20【纯农排变】,2史家桥外32【纯农排变】,0647062052-保定弘皓门业制造有限公司-专变-171448382-清苑县享泰轴承制造有限公司,清苑县江茗商贸有限公司,2郭村外4【纯农排变】,1范郭桥内2,2史家桥外23【纯农排变】,07史家桥外7【纯农排变】,2石头桥外13【纯农排变】,2史家桥外18【纯农排变】,2史家桥外16【纯农排变】,2苑桥外12【纯农排变】,1史家桥内9,07苑桥外4【纯农排变】,2何桥外18【纯农排变】,1史家桥内10,0591261314-清苑县金瑞祥锌业有限公司-专变-232318821-清苑县金瑞祥锌业有限公司,2石头桥外12【纯农排变】,2范郭桥外4【纯农排变】,1苑桥内8,2郭村外3【纯农排变】,07苑桥外6【纯农排变】,2李胡桥外9【纯农排变】,2范郭桥外1【纯农排变】,07苑桥外1【纯农排变】,清苑县吉发机加工厂,2史家桥外5【纯农排变】,2苑桥外16【纯农排变】,1史家桥内11,2史家桥外22【纯农排变】,2史家桥外25【纯农排变】,2苑桥外11【纯农排变】,1苑桥内6,2苑桥外10【纯农排变】,清苑县来胜化工有限公司,2史家桥外15【纯农排变】,07石头桥外1【纯农排变】,07郭村外1【纯农排变】,1史家桥内13台区,2苑桥外15【纯农排变】,0548842331-清苑县辉腾铜制品制造有限公司-专变-48223126-保定冀科金属加工有限公司,2史家桥外10【纯农排变】,2石头桥外15【纯农排变】,07苑桥内1,1范郭桥内3,07苑桥外3【纯农排变】,2史家桥外6【纯农排变】,史家桥小学1,2史家桥外12【纯农排变】,07范郭桥内1号,07郭村内1号,|清苑县金地铜材有限公司,2史家桥外19【纯农排变】,2史家桥外1【纯农排变】,2石头桥外14【纯农排变】,1苑桥内5,2史家桥外30【纯农排变】,07史家桥外4【纯农排变】,1史家桥内14台区,07百中外11【纯农排变】,07史家桥外2【纯农排变】,2良庙外3【纯农排变】,0581010085-清苑县金盛铜业有限公司-专变-124655686-清苑县金盛铜业有限公司,清苑县运祥金属有限公司,2史家桥外33【纯农排变】,2何桥外16【纯农排变】,2史家桥外11【纯农排变】,史建忠,2何桥外17【纯农排变】,葛全利,清苑县鑫鹏铜业有限公司,范郭桥小学,0387494427-清苑县盛达飞金属制造厂-专变-45317036-清苑县兴盛达铜制品制造有限公司,清苑县安吉铜业有限公司,0387494980-保定市安硕金属有限公司-专变-45317039-清苑县安硕金属有限公司,2何桥外14【纯农排变】,1史家桥内15台区,2史家桥外24【纯农排变】,2史家桥外26【纯农排变】,保定兴业化工有限公司,2苑桥外8【纯农排变】,2石头桥外9【纯农排变】,2石头桥外3【纯农排变】,07史家桥内8,07石头桥外2【纯农排变】,1苑桥内4,2史家桥外13【纯农排变】,0586375644-清苑县鸿泰金具加工有限公司-专变-125124350-清苑县鸿泰金具加工有限公司,07何桥外6【纯农排变】,07苑桥3号,2李胡桥外8【纯农排变】,2郭村","poweroffReason":"【停电原因】由于线路清扫检修导致１１０ＫＶ草桥变电站１０ＫＶ苑桥线５２０线路全线停电 【变更送电】无 【发布渠道】保定市清苑区电视台（２０２０年０５月２３日１９时至２０２０年０５月３０日２０时之间）屏幕上方滚动","powerTime":"2020-05-31 17:49:38","powerComm":"杨猛通知已送电","subsNo":"","lineNo":"","tgNo":"","tgName":null,"infoStatus":"1","orgName":"国网清苑县供电公司","typeName":null,"infoStatusName":null,"dateDay":null,"orgNos":null,"nowTime":null,"countyName":null,"streetName":null,"villageName":null,"roadName":null,"communityName":null,"tranName":null,"sdLineName":null,"cityCode":"1340618","cityName":"国网清苑县供电公司","provinceCode":null,"stopTime":"2020-05-31 18:00:00","powerType":"全部","powerOffArea":"【全线路停电】停110kV草桥变电站10kV苑桥线520线路全线，2何桥外12【纯农排变】,2何桥外15【纯农排变】,2郭村外5【纯农排变】,2石头桥外11【纯农排变】,2史家桥外36【纯农排变】,1范郭桥内4,2苑桥外9【纯农排变】,2苑桥外7【纯农排变】,2史家桥外27【纯农排变】,0387496090-清苑县来胜化工有限公司-专变-45317216-清苑县来胜化工有限公司,2史家桥外31【纯农排变】,2史家桥外14【纯农排变】,1史家桥内2,2史家桥外29【纯农排变】,2史家桥外21【纯农排变】,2苑桥外2【纯农排变】,07苑桥内2,2良庙外5【纯农排变】,2史家桥外35【纯农排变】,清苑县宏波合金有限公司,2史家桥外20【纯农排变】,中国石油化工股份有限公司河北清苑石油分公,2何桥外19【纯农排变】,07史家桥外3【纯农排变】,2何桥外20【纯农排变】,2史家桥外32【纯农排变】,0647062052-保定弘皓门业制造有限公司-专变-171448382-清苑县享泰轴承制造有限公司,清苑县江茗商贸有限公司,2郭村外4【纯农排变】,1范郭桥内2,2史家桥外23【纯农排变】,07史家桥外7【纯农排变】,2石头桥外13【纯农排变】,2史家桥外18【纯农排变】,2史家桥外16【纯农排变】,2苑桥外12【纯农排变】,1史家桥内9,07苑桥外4【纯农排变】,2何桥外18【纯农排变】,1史家桥内10,0591261314-清苑县金瑞祥锌业有限公司-专变-232318821-清苑县金瑞祥锌业有限公司,2石头桥外12【纯农排变】,2范郭桥外4【纯农排变】,1苑桥内8,2郭村外3【纯农排变】,07苑桥外6【纯农排变】,2李胡桥外9【纯农排变】,2范郭桥外1【纯农排变】,07苑桥外1【纯农排变】,清苑县吉发机加工厂,2史家桥外5【纯农排变】,2苑桥外16【纯农排变】,1史家桥内11,2史家桥外22【纯农排变】,2史家桥外25【纯农排变】,2苑桥外11【纯农排变】,1苑桥内6,2苑桥外10【纯农排变】,清苑县来胜化工有限公司,2史家桥外15【纯农排变】,07石头桥外1【纯农排变】,07郭村外1【纯农排变】,1史家桥内13台区,2苑桥外15【纯农排变】,0548842331-清苑县辉腾铜制品制造有限公司-专变-48223126-保定冀科金属加工有限公司,2史家桥外10【纯农排变】,2石头桥外15【纯农排变】,07苑桥内1,1范郭桥内3,07苑桥外3【纯农排变】,2史家桥外6【纯农排变】,史家桥小学1,2史家桥外12【纯农排变】,07范郭桥内1号,07郭村内1号,|清苑县金地铜材有限公司,2史家桥外19【纯农排变】,2史家桥外1【纯农排变】,2石头桥外14【纯农排变】,1苑桥内5,2史家桥外30【纯农排变】,07史家桥外4【纯农排变】,1史家桥内14台区,07百中外11【纯农排变】,07史家桥外2【纯农排变】,2良庙外3【纯农排变】,0581010085-清苑县金盛铜业有限公司-专变-124655686-清苑县金盛铜业有限公司,清苑县运祥金属有限公司,2史家桥外33【纯农排变】,2何桥外16【纯农排变】,2史家桥外11【纯农排变】,史建忠,2何桥外17【纯农排变】,葛全利,清苑县鑫鹏铜业有限公司,范郭桥小学,0387494427-清苑县盛达飞金属制造厂-专变-45317036-清苑县兴盛达铜制品制造有限公司,清苑县安吉铜业有限公司,0387494980-保定市安硕金属有限公司-专变-45317039-清苑县安硕金属有限公司,2何桥外14【纯农排变】,1史家桥内15台区,2史家桥外24【纯农排变】,2史家桥外26【纯农排变】,保定兴业化工有限公司,2苑桥外8【纯农排变】,2石头桥外9【纯农排变】,2石头桥外3【纯农排变】,07史家桥内8,07石头桥外2【纯农排变】,1苑桥内4,2史家桥外13【纯农排变】,0586375644-清苑县鸿泰金具加工有限公司-专变-125124350-清苑县鸿泰金具加工有限公司,07何桥外6【纯农排变】,07苑桥3号,2李胡桥外8【纯农排变】,2郭村","powerOffReason":"【停电原因】由于线路清扫检修导致１１０ＫＶ草桥变电站１０ＫＶ苑桥线５２０线路全线停电 【变更送电】无 【发布渠道】保定市清苑区电视台（２０２０年０５月２３日１９时至２０２０年０５月３０日２０时之间）屏幕上方滚动","powerOffId":"2020052213000067"}],"pageModel":{"pageNow":54,"totalCount":10973,"totalPage":1098,"tableRows":0,"pageCount":10,"beginCount":530},"isExperi":"1"}