{"message":"","today":"2020-06-15","seleList":[{"poweroffId":2019080113000568,"sgpoweroffId":null,"subsName":"","lineName":"10kV524城西线","pubTranName":"0469345979-河北德蚨容纺织服饰制造有限公司-专变-202622897-河北德蚨容纺织服饰制造有限公司变压器1000,大庄头农排7台区【纯农排变】,大宋加油站,大庄头综合3台区,蠡县士伟纺纱厂变压器,南忠卫农排9台区【纯农排变】,南忠卫农排11台区【纯农排变】,保定中道胶带有限公司变压器,集红,赵影军,大宋综合8台区,大庄头板厂,鑫源胶厂,南忠卫农排4台区【纯农排变】,顺合纺纱厂,南忠卫农排2台区【纯农排变】,大庄头面粉厂,蠡县大庄头振英车床加工部变压器,大庄头农排1台区【纯农排变】,保定大昌2,大宋吃水井变压器,任大刚,大宋春眼燕纺纱厂,河北德蚨容纺织服饰制造有限公司,杨振江,大宋素杰,保定大昌塑料有限公司,大宋综合12台区,宋继民,蠡县南忠卫彦怀纺纱厂变压器,大宋综合2台区,鑫源西,大宋综合11台区,大宋农排11台区【纯农排变】,南忠卫农排3台区【纯农排变】,变压器,赵龙申,蠡县大庄头鑫源帆布厂变压器,国林,南忠卫农排13台区【纯农排变】,商建昌南,赵广申,蠡县东虎橡胶厂变压器,大宋春树,保定中天,大宋综合14台区,南忠卫鸡厂,大庄头皮毛厂,大宋综合3台区,喜祥,大庄头农排8台区【纯农排变】,大庄头农排6台区【纯农排变】,庆生,大宋农排10台区【纯农排变】,保定大昌1,0469342055-保定富森橡胶制品有限公司-专变-141380321-富森橡胶制品有限公司,杨表卯,何国辉,大宋综合13台区,保定铭德输送设备制造有限公司变压器,保定久发橡胶机带制造有限公司变压器,宋亚民,超子,大宋农排1台区【纯农排变】,春彦北,大宋农排15台区【纯农排变】,河北恒亚输送公司,大宋江海,大庄头农排3台区【纯农排变】,大宋农排13台区【纯农排变】,国宾,大庄头农排10台区【纯农排变】,蠡县大庄头鑫广纺纱厂变压器,里县中橡胶带厂,大宋面粉厂,路银,蠡县大庄头振英面粉厂,大庄头综合5台区,张喜军,保定恒越橡胶机带制造有限公司变压器,保定三毓输送机械设备有限公司,蠡县三羊毛纺制造有限公司变压器,保定兴元纺织有限公司变压器,大宋农排14台区【纯农排变】,盠县大宋中橡胶带厂,大宋占乔,保定金鹏橡胶机带有限公司变压器,大宋综合4台区,大庄头三板厂,宋金宁,大庄头综合6台区,老转,华恒胶带,大宋农排4台区【纯农排变】,大宋综合1台区,大宋综合7台区,盠县南忠卫果园面粉厂1,商建昌,蠡县大庄头兴北纺纱厂变压器,杨海涛,盠县南忠卫果园面粉厂,大宋农排2台区【纯农排变】,大庄头综合2台区,任锦章,保定宏迈胶带有限公司,大庄头综合8台区,大庄头综合4台区,大宋登科,宋占彬,大宋综合5台区,蠡县大庄头腾达水泥砖厂变压器,大庄头农排4台区【纯农排变】,大庄头综合9台区,大宋综合10台区,大庄头农排2台区【纯农排变】,宋占杰,大宋农排8台区【纯农排变】,大宋综合9台区,保定富森橡胶制品有限公司,保定富森橡胶制品有限公司变压器,大庄头农排12台区【纯农排变】,商建昌北,大宋综合6台区,大庄头农排5台区【纯农排变】,恒亚变压器,大宋布厂,大宋兴源胶厂,保定恒瑞橡胶机带制造有限公司,大宋农排7台区【纯农排变】,大宋农排12台区【纯农排变】,鑫源东,大宋综合","scope":"【影响街道/乡镇】蠡吾镇【高危重要客户】无【影响客户】大庄头村、大宋村、南忠卫村、南忠卫鸡场、仕伟纺纱厂、彦怀纺织厂、果园面粉厂、蠡县小凯纺织厂","startTime":"2019-08-01 06:59:05","stopDate":"2019-08-02 00:30:00","orgNo":"1340616","typeCode":"电网故障停限电","poweroffArea":"【全线路停电】停大庄头板厂,商建昌北,保定恒越橡胶机带制造有限公司变压器,商建昌南,大宋兴源胶厂,大庄头综合7台区,大宋吃水井变压器,变压器,春彦北,大宋农排8台区【纯农排变】,杨振江,大宋农排14台区【纯农排变】,蠡县大庄头振英车床加工部变压器,蠡县大庄头兴北纺纱厂变压器,大宋综合14台区,大宋综合11台区,河北德蚨容纺织服饰制造有限公司,大庄头综合4台区,集红,大宋春眼燕纺纱厂,保定大昌2,保定中天,大庄头农排1台区【纯农排变】,任锦章,蠡县南忠卫彦怀纺纱厂变压器,大庄头综合2台区,国林,庆生,蠡县三羊毛纺制造有限公司变压器,大庄头农排10台区【纯农排变】,老转,大庄头综合6台区,任大刚,大庄头综合1台区,赵广申,张喜军,杨表卯,杨海涛,大庄头农排6台区【纯农排变】,大宋综合5台区,盠县南忠卫果园面粉厂,南忠卫农排9台区【纯农排变】,南忠卫农排13台区【纯农排变】,保定大昌1,大宋素杰,赵龙申,大宋综合4台区,大庄头农排3台区【纯农排变】,大庄头农排5台区【纯农排变】,大宋农排15台区【纯农排变】,大宋登科,南忠卫农排2台区【纯农排变】,大庄头农排2台区【纯农排变】,大宋综合7台区,保定铭德输送设备制造有限公司变压器,大宋春树,大宋综合13台区,鑫源东,鑫源西,大宋农排7台区【纯农排变】,宋金宁,顺合纺纱厂,宋占彬,蠡县大庄头鑫源帆布厂变压器,蠡县士伟纺纱厂变压器,河北恒亚输送公司,蠡县东虎橡胶厂变压器,国宾,大宋综合3台区,0469345979-河北德蚨容纺织服饰制造有限公司-专变-202622897-河北德蚨容纺织服饰制造有限公司变压器1000,蠡县大庄头振英面粉厂,鑫源胶厂,大庄头综合5台区,大宋江海,大宋农排4台区【纯农排变】,大庄头面粉厂,南忠卫农排11台区【纯农排变】,蠡县大庄头鑫广纺纱厂变压器,大宋农排2台区【纯农排变】,保定富森橡胶制品有限公司变压器,大宋农排13台区【纯农排变】,大宋农排10台区【纯农排变】,大宋农排12台区【纯农排变】,大庄头综合9台区,恒亚变压器,大庄头农排9台区【纯农排变】,大宋铸造厂,里县中橡胶带厂,0469342055-保定富森橡胶制品有限公司-专变-141380321-富森橡胶制品有限公司,保定久发橡胶机带制造有限公司变压器,大宋综合6台区,保定大昌塑料有限公司,大宋综合1台区,何国辉,保定中道胶带有限公司变压器,盠县南忠卫果园面粉厂1,大庄头综合3台区,大宋综合8台区,路银,南忠卫农排4台区【纯农排变】,保定恒瑞橡胶机带制造有限公司,宋亚民,大宋占乔,大宋加油站,商建昌,大宋农排1台区【纯农排变】,大庄头三板厂,宋占杰,大庄头皮毛厂,南忠卫鸡厂,大宋综合9台区,大宋综合2台区,蠡县大庄头腾达水泥砖厂变压器,保定兴元纺织有限公司变压器,大宋综合15台区,盠县大宋中橡胶带厂,保定富森橡胶制品有限公司,大宋综合10台区,大庄头农排7台区【纯农排变】,超子,大宋农排11台区【纯农排变】,大庄头农排12台区【纯农排变】,大庄头综合8台区,大庄头农排8台区【纯农排变】,保定宏迈胶带有限公司,保定金鹏橡胶机带有限公司变压器,宋继民,大庄头农排4台区【纯农排变】,南忠卫农排3台区【纯农排变】,蠡县韩乐苗木花卉种植有限公司变压器,保定三毓输送机械设备有限公司,大宋综合12台区,大宋布厂,喜祥,华恒胶带,大宋面粉厂,赵影军","poweroffReason":"【停电原因】由于站外开关掉闸导致２２０ＫＶ蠡县变电站１０ＫＶ城西５２４线路全线停电【变更送电】因抢修进度加快原因，送电时间由１１：００变更为００：３０【发布渠道】通过９５５９８发布","powerTime":"2019-08-01 23:38:12","powerComm":"已送电","subsNo":"","lineNo":"","tgNo":"","tgName":null,"infoStatus":"1","orgName":"国网蠡县供电公司","typeName":null,"infoStatusName":null,"dateDay":null,"orgNos":null,"nowTime":null,"countyName":null,"streetName":null,"villageName":null,"roadName":null,"communityName":null,"tranName":null,"sdLineName":null,"cityCode":"1340616","cityName":"国网蠡县供电公司","provinceCode":null,"stopTime":"2019-08-02 00:30:00","powerType":"全部","powerOffArea":"【全线路停电】停大庄头板厂,商建昌北,保定恒越橡胶机带制造有限公司变压器,商建昌南,大宋兴源胶厂,大庄头综合7台区,大宋吃水井变压器,变压器,春彦北,大宋农排8台区【纯农排变】,杨振江,大宋农排14台区【纯农排变】,蠡县大庄头振英车床加工部变压器,蠡县大庄头兴北纺纱厂变压器,大宋综合14台区,大宋综合11台区,河北德蚨容纺织服饰制造有限公司,大庄头综合4台区,集红,大宋春眼燕纺纱厂,保定大昌2,保定中天,大庄头农排1台区【纯农排变】,任锦章,蠡县南忠卫彦怀纺纱厂变压器,大庄头综合2台区,国林,庆生,蠡县三羊毛纺制造有限公司变压器,大庄头农排10台区【纯农排变】,老转,大庄头综合6台区,任大刚,大庄头综合1台区,赵广申,张喜军,杨表卯,杨海涛,大庄头农排6台区【纯农排变】,大宋综合5台区,盠县南忠卫果园面粉厂,南忠卫农排9台区【纯农排变】,南忠卫农排13台区【纯农排变】,保定大昌1,大宋素杰,赵龙申,大宋综合4台区,大庄头农排3台区【纯农排变】,大庄头农排5台区【纯农排变】,大宋农排15台区【纯农排变】,大宋登科,南忠卫农排2台区【纯农排变】,大庄头农排2台区【纯农排变】,大宋综合7台区,保定铭德输送设备制造有限公司变压器,大宋春树,大宋综合13台区,鑫源东,鑫源西,大宋农排7台区【纯农排变】,宋金宁,顺合纺纱厂,宋占彬,蠡县大庄头鑫源帆布厂变压器,蠡县士伟纺纱厂变压器,河北恒亚输送公司,蠡县东虎橡胶厂变压器,国宾,大宋综合3台区,0469345979-河北德蚨容纺织服饰制造有限公司-专变-202622897-河北德蚨容纺织服饰制造有限公司变压器1000,蠡县大庄头振英面粉厂,鑫源胶厂,大庄头综合5台区,大宋江海,大宋农排4台区【纯农排变】,大庄头面粉厂,南忠卫农排11台区【纯农排变】,蠡县大庄头鑫广纺纱厂变压器,大宋农排2台区【纯农排变】,保定富森橡胶制品有限公司变压器,大宋农排13台区【纯农排变】,大宋农排10台区【纯农排变】,大宋农排12台区【纯农排变】,大庄头综合9台区,恒亚变压器,大庄头农排9台区【纯农排变】,大宋铸造厂,里县中橡胶带厂,0469342055-保定富森橡胶制品有限公司-专变-141380321-富森橡胶制品有限公司,保定久发橡胶机带制造有限公司变压器,大宋综合6台区,保定大昌塑料有限公司,大宋综合1台区,何国辉,保定中道胶带有限公司变压器,盠县南忠卫果园面粉厂1,大庄头综合3台区,大宋综合8台区,路银,南忠卫农排4台区【纯农排变】,保定恒瑞橡胶机带制造有限公司,宋亚民,大宋占乔,大宋加油站,商建昌,大宋农排1台区【纯农排变】,大庄头三板厂,宋占杰,大庄头皮毛厂,南忠卫鸡厂,大宋综合9台区,大宋综合2台区,蠡县大庄头腾达水泥砖厂变压器,保定兴元纺织有限公司变压器,大宋综合15台区,盠县大宋中橡胶带厂,保定富森橡胶制品有限公司,大宋综合10台区,大庄头农排7台区【纯农排变】,超子,大宋农排11台区【纯农排变】,大庄头农排12台区【纯农排变】,大庄头综合8台区,大庄头农排8台区【纯农排变】,保定宏迈胶带有限公司,保定金鹏橡胶机带有限公司变压器,宋继民,大庄头农排4台区【纯农排变】,南忠卫农排3台区【纯农排变】,蠡县韩乐苗木花卉种植有限公司变压器,保定三毓输送机械设备有限公司,大宋综合12台区,大宋布厂,喜祥,华恒胶带,大宋面粉厂,赵影军","powerOffReason":"【停电原因】由于站外开关掉闸导致２２０ＫＶ蠡县变电站１０ＫＶ城西５２４线路全线停电【变更送电】因抢修进度加快原因，送电时间由１１：００变更为００：３０【发布渠道】通过９５５９８发布","powerOffId":"2019080113000568"},{"poweroffId":2019080113000562,"sgpoweroffId":null,"subsName":"","lineName":"10kV东桄513线","pubTranName":"营二里综合三,营二里综合四,东桄综合八,东柴农业9台区【纯农排变】,侯村农业5台区【纯农排变】,西桄农业4台区【纯农排变】,西桄综合1变压器,西里农业2台区【纯农排变】,营二里农业5台区【纯农排变】,侯村综合1变压器,营二里综合2变压器,侯村农业6变压器,侯村农业4台区【纯农排变】,侯村综合三台区,东桄综合四,营二里农业4台区【纯农排变】,","scope":"【影响街道/乡镇】郑章镇 【高危重要客户】无 【影响客户】东桄村、西桄村、东柴村、西李村、西娄底村、常庄村、东李村、营二里村、候村","startTime":"2019-08-01 06:53:10","stopDate":"2019-08-01 09:40:00","orgNo":"1340606","typeCode":"电网故障停限电","poweroffArea":"【全线路停电】停营二里农业4台区【纯农排变】,侯村农业4台区【纯农排变】,西桄农业4台区【纯农排变】,侯村农业5台区【纯农排变】,东桄综合四,西桄综合1变压器,侯村综合三台区,西里农业2台区【纯农排变】,东桄综合八,营二里综合四,营二里综合三,东柴农业9台区【纯农排变】,侯村农业6变压器,侯村综合1变压器,营二里农业5台区【纯农排变】,营二里综合2变压器","poweroffReason":"【停电原因】由于站内开关跳闸导致３５ＫＶ常庄变电站１０ＫＶ东桄５１３线路全线停电 【变更送电】因抢修进度加快原因，送电时间由１６：００变更为０９：４０ 【发布渠道】通过９５５９８发布","powerTime":"2019-08-01 09:26:20","powerComm":"已送电","subsNo":"","lineNo":"","tgNo":"","tgName":null,"infoStatus":"1","orgName":"国网安国市供电公司","typeName":null,"infoStatusName":null,"dateDay":null,"orgNos":null,"nowTime":null,"countyName":null,"streetName":null,"villageName":null,"roadName":null,"communityName":null,"tranName":null,"sdLineName":null,"cityCode":"1340606","cityName":"国网安国市供电公司","provinceCode":null,"stopTime":"2019-08-01 09:40:00","powerType":"全部","powerOffArea":"【全线路停电】停营二里农业4台区【纯农排变】,侯村农业4台区【纯农排变】,西桄农业4台区【纯农排变】,侯村农业5台区【纯农排变】,东桄综合四,西桄综合1变压器,侯村综合三台区,西里农业2台区【纯农排变】,东桄综合八,营二里综合四,营二里综合三,东柴农业9台区【纯农排变】,侯村农业6变压器,侯村综合1变压器,营二里农业5台区【纯农排变】,营二里综合2变压器","powerOffReason":"【停电原因】由于站内开关跳闸导致３５ＫＶ常庄变电站１０ＫＶ东桄５１３线路全线停电 【变更送电】因抢修进度加快原因，送电时间由１６：００变更为０９：４０ 【发布渠道】通过９５５９８发布","powerOffId":"2019080113000562"},{"poweroffId":2019080113000560,"sgpoweroffId":null,"subsName":"","lineName":"10kV常庄511线","pubTranName":"常庄综合1变压器,常庄综合五台区,常庄综合四台区,常庄综合2变压器,常庄综合3变压器,","scope":"【影响街道/乡镇】常庄乡 【高危重要客户】无 【影响客户】常庄村","startTime":"2019-08-01 06:51:51","stopDate":"2019-08-01 08:30:00","orgNo":"1340606","typeCode":"电网故障停限电","poweroffArea":"【全线路停电】停常庄综合四台区,常庄综合2变压器,常庄综合1变压器,常庄综合3变压器,常庄综合五台区","poweroffReason":"【停电原因】由于站内开关掉闸导致３５ＫＶ常庄变电站１０ＫＶ常庄５１１线路全线停电 【变更送电】因抢修进度加快原因，送电时间由１６：００变更为０８：３０ 【发布渠道】通过９５５９８发布","powerTime":"2019-08-01 08:17:00","powerComm":"已送电","subsNo":"","lineNo":"","tgNo":"","tgName":null,"infoStatus":"1","orgName":"国网安国市供电公司","typeName":null,"infoStatusName":null,"dateDay":null,"orgNos":null,"nowTime":null,"countyName":null,"streetName":null,"villageName":null,"roadName":null,"communityName":null,"tranName":null,"sdLineName":null,"cityCode":"1340606","cityName":"国网安国市供电公司","provinceCode":null,"stopTime":"2019-08-01 08:30:00","powerType":"全部","powerOffArea":"【全线路停电】停常庄综合四台区,常庄综合2变压器,常庄综合1变压器,常庄综合3变压器,常庄综合五台区","powerOffReason":"【停电原因】由于站内开关掉闸导致３５ＫＶ常庄变电站１０ＫＶ常庄５１１线路全线停电 【变更送电】因抢修进度加快原因，送电时间由１６：００变更为０８：３０ 【发布渠道】通过９５５９８发布","powerOffId":"2019080113000560"},{"poweroffId":2019080113000558,"sgpoweroffId":null,"subsName":"","lineName":"10kV东河525线","pubTranName":"伏村综合三台区,西长仕综合1号变压器,西河综合4号变压器,","scope":"【影响街道/乡镇】明官店乡 【高危重要客户】无 【影响客户】西长仕、霍庄、伏村、西河、南流、北辛庄","startTime":"2019-08-01 06:50:46","stopDate":"2019-08-01 12:55:00","orgNo":"1340606","typeCode":"电网故障停限电","poweroffArea":"【全线路停电】停西长仕综合1号变压器,伏村综合三台区,西河综合4号变压器","poweroffReason":"【停电原因】由于站内开关掉闸导致１１０ＫＶ东河变电站１０ＫＶ东河５２５线路全线停电 【变更送电】因抢修进度加快原因，送电时间由１６：００变更为１２；５５ 【发布渠道】通过９５５９８发布","powerTime":"2019-08-01 12:43:12","powerComm":"已送电","subsNo":"","lineNo":"","tgNo":"","tgName":null,"infoStatus":"1","orgName":"国网安国市供电公司","typeName":null,"infoStatusName":null,"dateDay":null,"orgNos":null,"nowTime":null,"countyName":null,"streetName":null,"villageName":null,"roadName":null,"communityName":null,"tranName":null,"sdLineName":null,"cityCode":"1340606","cityName":"国网安国市供电公司","provinceCode":null,"stopTime":"2019-08-01 12:55:00","powerType":"全部","powerOffArea":"【全线路停电】停西长仕综合1号变压器,伏村综合三台区,西河综合4号变压器","powerOffReason":"【停电原因】由于站内开关掉闸导致１１０ＫＶ东河变电站１０ＫＶ东河５２５线路全线停电 【变更送电】因抢修进度加快原因，送电时间由１６：００变更为１２；５５ 【发布渠道】通过９５５９８发布","powerOffId":"2019080113000558"},{"poweroffId":2019080113000554,"sgpoweroffId":null,"subsName":"","lineName":"10kV南呈511线","pubTranName":"郑各庄大方东农业2台区变压器,郑各庄综合7,北呈西西综合3,郑各庄大方中农业1号,郑各庄大方西农业9号,北呈综合4台区,北呈内西综合2,","scope":"【影响街道/乡镇】庞各庄乡 【高危重要客户】无 【影响客户】南呈村、北呈村、郑各庄村、东叩村、西叩村、流各庄村","startTime":"2019-08-01 06:48:53","stopDate":"2019-08-01 20:00:00","orgNo":"1340606","typeCode":"电网故障停限电","poweroffArea":"【全线路停电】停郑各庄综合7,郑各庄大方中农业1号,郑各庄大方东农业2台区变压器,北呈西西综合3,北呈内西综合2,郑各庄大方西农业9号,北呈综合4台区","poweroffReason":"【停电原因】由于站内开关掉闸导致３５ＫＶ庞各庄变电站１０ＫＶ南呈５１１线路全线停电 【变更送电】因抢修工作未完成原因，送电时间由１６：００变更为２０：００ 【发布渠道】９５５９８","powerTime":"2019-08-01 19:35:03","powerComm":"已送电","subsNo":"","lineNo":"","tgNo":"","tgName":null,"infoStatus":"1","orgName":"国网安国市供电公司","typeName":null,"infoStatusName":null,"dateDay":null,"orgNos":null,"nowTime":null,"countyName":null,"streetName":null,"villageName":null,"roadName":null,"communityName":null,"tranName":null,"sdLineName":null,"cityCode":"1340606","cityName":"国网安国市供电公司","provinceCode":null,"stopTime":"2019-08-01 20:00:00","powerType":"全部","powerOffArea":"【全线路停电】停郑各庄综合7,郑各庄大方中农业1号,郑各庄大方东农业2台区变压器,北呈西西综合3,北呈内西综合2,郑各庄大方西农业9号,北呈综合4台区","powerOffReason":"【停电原因】由于站内开关掉闸导致３５ＫＶ庞各庄变电站１０ＫＶ南呈５１１线路全线停电 【变更送电】因抢修工作未完成原因，送电时间由１６：００变更为２０：００ 【发布渠道】９５５９８","powerOffId":"2019080113000554"},{"poweroffId":2019080113000550,"sgpoweroffId":null,"subsName":"","lineName":"10kV霍庄516线","pubTranName":"北辛庄综合四台区,北辛庄农业1台区【纯农排变】,南流综合四台区,霍庄农业3台区【纯农排变】,北辛庄农业4台区【纯农排变】,北辛庄农业2台区【纯农排变】,大南流综合3号变压器,北辛庄综合三台区,南流农业3台区【纯农排变】,霍庄综合1号变压器,霍庄农业7台区【纯农排变】,霍庄农业1台区【纯农排变】,南流农业7台区【纯农排变】,","scope":"【影响街道/乡镇】明官店乡 【高危重要客户】无 【影响客户】南流村，霍庄村，北辛庄村","startTime":"2019-08-01 06:46:36","stopDate":"2019-08-01 09:30:00","orgNo":"1340606","typeCode":"电网故障停限电","poweroffArea":"【全线路停电】停霍庄农业1台区【纯农排变】,霍庄综合1号变压器,南流农业3台区【纯农排变】,大南流综合3号变压器,北辛庄农业2台区【纯农排变】,霍庄农业3台区【纯农排变】,南流综合四台区,南流农业7台区【纯农排变】,北辛庄综合三台区,北辛庄综合四台区,北辛庄农业4台区【纯农排变】,霍庄农业7台区【纯农排变】,北辛庄农业1台区【纯农排变】","poweroffReason":"【停电原因】由于站内开关掉闸导致３５ＫＶ明官店变电站１０ＫＶ霍庄５１６线路全线停电 【变更送电】因抢修进度加快原因，送电时间由１６：００变更为０９：３０ 【发布渠道】通过９５５９８发布","powerTime":"2019-08-01 09:23:30","powerComm":"已送电","subsNo":"","lineNo":"","tgNo":"","tgName":null,"infoStatus":"1","orgName":"国网安国市供电公司","typeName":null,"infoStatusName":null,"dateDay":null,"orgNos":null,"nowTime":null,"countyName":null,"streetName":null,"villageName":null,"roadName":null,"communityName":null,"tranName":null,"sdLineName":null,"cityCode":"1340606","cityName":"国网安国市供电公司","provinceCode":null,"stopTime":"2019-08-01 09:30:00","powerType":"全部","powerOffArea":"【全线路停电】停霍庄农业1台区【纯农排变】,霍庄综合1号变压器,南流农业3台区【纯农排变】,大南流综合3号变压器,北辛庄农业2台区【纯农排变】,霍庄农业3台区【纯农排变】,南流综合四台区,南流农业7台区【纯农排变】,北辛庄综合三台区,北辛庄综合四台区,北辛庄农业4台区【纯农排变】,霍庄农业7台区【纯农排变】,北辛庄农业1台区【纯农排变】","powerOffReason":"【停电原因】由于站内开关掉闸导致３５ＫＶ明官店变电站１０ＫＶ霍庄５１６线路全线停电 【变更送电】因抢修进度加快原因，送电时间由１６：００变更为０９：３０ 【发布渠道】通过９５５９８发布","powerOffId":"2019080113000550"},{"poweroffId":2019080113000525,"sgpoweroffId":null,"subsName":"","lineName":"10kV西开区线584","pubTranName":"辛庄内1,","scope":"【影响街道/乡镇】白团乡 【高危重要客户】无 【影响客户】辛庄","startTime":"2019-08-01 06:22:31","stopDate":"2019-08-01 16:00:00","orgNo":"1340618","typeCode":"电网故障停限电","poweroffArea":"【单台区停电】停辛庄内1","poweroffReason":"【停电原因】由于低压线断导致１１０ＫＶ赵庄变电站１０ＫＶ西开区线５８４线路辛庄内１号公变台区停电 【变更送电】无 【发布渠道】通过９５５９８发布","powerTime":"2019-08-01 15:04:53","powerComm":"安小红通知已送电","subsNo":"","lineNo":"","tgNo":"","tgName":null,"infoStatus":"1","orgName":"国网清苑县供电公司","typeName":null,"infoStatusName":null,"dateDay":null,"orgNos":null,"nowTime":null,"countyName":null,"streetName":null,"villageName":null,"roadName":null,"communityName":null,"tranName":null,"sdLineName":null,"cityCode":"1340618","cityName":"国网清苑县供电公司","provinceCode":null,"stopTime":"2019-08-01 16:00:00","powerType":"全部","powerOffArea":"【单台区停电】停辛庄内1","powerOffReason":"【停电原因】由于低压线断导致１１０ＫＶ赵庄变电站１０ＫＶ西开区线５８４线路辛庄内１号公变台区停电 【变更送电】无 【发布渠道】通过９５５９８发布","powerOffId":"2019080113000525"},{"poweroffId":2019080113000514,"sgpoweroffId":null,"subsName":"","lineName":"10kV江城站522线路","pubTranName":"0356313960-保定市和顺粉煤灰制品有限公司-1#专变,0701246686-保定市广惠房地产开发有限责任公司-2#专变,H0052柱上变压器,0632442386-保定市道亨商贸有限公司-专变-144751732-变压器,0563066257-保定中远自动门业有限公司-用户-箱式变-1-变压器-1,10kVB1530配电室B1530配电变压器,0701246686-保定市广惠房地产开发有限责任公司-3#专变,0701246686-保定市广惠房地产开发有限责任公司-1#专变,0356177438-保定帅达机械零部件制造有限公司-专变,0356175201-保定市秀兰混凝土搅拌有限公司-900024371022-变压器,0356175067-保定市闽隆建材加工有限公司-专变,0577617511-保定市铭泰保险代理有限公司-专变,0356325879-长城轧钢厂-专变,0356172039-保定双鹰农机有限责任公司-1#专变,0356175197-保定新奥燃气有限公司-4#专变,0356175214-保定恒泰门窗有限公司-配电室-1-变压器-1,0356175054-新建建筑工程有限责任公司第八分公司-专变,0356174123-颉庄-专变,0356177412-保定市鑫兴电焊条厂-专变,0356175038-河北冀能电力自动化设备有限公司-专变,C523柱上变压器,0356174107-郝庄(精细化工厂)-专变,0356290605-保定市东顺不锈钢有限责任公司-配电室-1-变压器-2,0356175171-保定水泥制品厂-配电室-1-变压器-2,0701246686-保定市广惠房地产开发有限责任公司-4#专变,B925柱上变压器,C106柱上变压器,0358294670-保定市和顺粉煤灰制品有限公司-专变,0544809712-保定市红光体育用品有限公司-配电室-1-变压器-1,C479柱上变压器,0356175214-保定恒泰门窗有限公司-配电室-1-变压器-2,C105柱上变压器,0356175197-保定新奥燃气有限公司-2#专变,变压器,10kVB1529配电室B1529配电变压器,0356313960-保定市和顺粉煤灰制品有限公司-2#专变,0356180018-保定市东顺不锈钢有限责任公司-2#专变,C104柱上变压器,0356290605-保定市东顺不锈钢有限责任公司-配电室-1-变压器-1,0723558941-保定市金达莱洗涤服务有限公司一分公司-250KVA变压器,0356175197-保定新奥燃气有限公司-3#专变,0356180018-保定市东顺不锈钢有限责任公司-配电室-1-变压器-1,0356430634-魏小明-1-配电室-变压器-1,0356172039-保定双鹰农机有限责任公司-2#专变,0356172026-保定双鹰农机有限责任公司-专变,B1709柱上变压器,0356174181-保定市飞硕镀锌有限公司-专变,","scope":"【影响街道/乡镇】颉庄乡、康庄路、天威西路、江城路、向阳南路 【高危重要客户】无 【影响客户】颉庄村、天威小区、铝厂宿舍、郝庄村、华强公司宿舍、电传厂宿舍、金达莱洗涤服务有限公司一分公司、永兴造纸厂、兴和保温、和顺粉煤灰制品有限公司、精细化工厂、翼翔环保、橡胶厂、广惠地产、煤气厂、镀膜厂、煤厂、电气传动、天威变压器宿舍、长城水磨石厂、长城轧钢、凯达塑料制品厂、远东、红光体育用品公司、水泥制品、电建工程处、京联气体厂、铭泰保险、中远自动门、化工九厂、绝缘变压器开关厂、颉庄热电交换站、西称变压器厂、远东纺织","startTime":"2019-08-01 06:15:00","stopDate":"2019-08-01 08:00:00","orgNo":"13406","typeCode":"电网故障停限电","poweroffArea":"【分支停电】停0356175214-保定恒泰门窗有限公司-配电室-1-变压器-2,C105柱上变压器,0356175197-保定新奥燃气有限公司-2#专变,变压器,10kVB1529配电室B1529配电变压器,0356313960-保定市和顺粉煤灰制品有限公司-2#专变,0356180018-保定市东顺不锈钢有限责任公司-2#专变,C104柱上变压器,0356290605-保定市东顺不锈钢有限责任公司-配电室-1-变压器-1,0723558941-保定市金达莱洗涤服务有限公司一分公司-250KVA变压器,0356175197-保定新奥燃气有限公司-3#专变,0356180018-保定市东顺不锈钢有限责任公司-配电室-1-变压器-1,0356430634-魏小明-1-配电室-变压器-1,0356172039-保定双鹰农机有限责任公司-2#专变,0356172026-保定双鹰农机有限责任公司-专变,B1709柱上变压器,0356174181-保定市飞硕镀锌有限公司-专变,0356313960-保定市和顺粉煤灰制品有限公司-1#专变,0701246686-保定市广惠房地产开发有限责任公司-2#专变,H0052柱上变压器,0632442386-保定市道亨商贸有限公司-专变-144751732-变压器,0563066257-保定中远自动门业有限公司-用户-箱式变-1-变压器-1,10kVB1530配电室B1530配电变压器,0701246686-保定市广惠房地产开发有限责任公司-3#专变,0701246686-保定市广惠房地产开发有限责任公司-1#专变,0356177438-保定帅达机械零部件制造有限公司-专变,0356175201-保定市秀兰混凝土搅拌有限公司-900024371022-变压器,0356175067-保定市闽隆建材加工有限公司-专变,0577617511-保定市铭泰保险代理有限公司-专变,0356325879-长城轧钢厂-专变,0356172039-保定双鹰农机有限责任公司-1#专变,0356175197-保定新奥燃气有限公司-4#专变,0356175214-保定恒泰门窗有限公司-配电室-1-变压器-1,0356175054-新建建筑工程有限责任公司第八分公司-专变,0356174123-颉庄-专变,0356177412-保定市鑫兴电焊条厂-专变,0356175038-河北冀能电力自动化设备有限公司-专变,C523柱上变压器,0356174107-郝庄(精细化工厂)-专变,0356290605-保定市东顺不锈钢有限责任公司-配电室-1-变压器-2,0356175171-保定水泥制品厂-配电室-1-变压器-2,0701246686-保定市广惠房地产开发有限责任公司-4#专变,B925柱上变压器,C106柱上变压器,0358294670-保定市和顺粉煤灰制品有限公司-专变,0544809712-保定市红光体育用品有限公司-配电室-1-变压器-1,C479柱上变压器","poweroffReason":"【停电原因】由于低压刀闸烧导致１０ＫＶ江城变电站５２２线路２０号开关以下停电【变更送电】因抢修进度加快，原定10：00送电现计划8：00送电【发布渠道】通过９５５９８发布","powerTime":"2019-08-01 07:44:46","powerComm":"已送电","subsNo":"","lineNo":"","tgNo":"","tgName":null,"infoStatus":"1","orgName":"保定供电公司","typeName":null,"infoStatusName":null,"dateDay":null,"orgNos":null,"nowTime":null,"countyName":null,"streetName":null,"villageName":null,"roadName":null,"communityName":null,"tranName":null,"sdLineName":null,"cityCode":"13406","cityName":"保定供电公司","provinceCode":null,"stopTime":"2019-08-01 08:00:00","powerType":"全部","powerOffArea":"【分支停电】停0356175214-保定恒泰门窗有限公司-配电室-1-变压器-2,C105柱上变压器,0356175197-保定新奥燃气有限公司-2#专变,变压器,10kVB1529配电室B1529配电变压器,0356313960-保定市和顺粉煤灰制品有限公司-2#专变,0356180018-保定市东顺不锈钢有限责任公司-2#专变,C104柱上变压器,0356290605-保定市东顺不锈钢有限责任公司-配电室-1-变压器-1,0723558941-保定市金达莱洗涤服务有限公司一分公司-250KVA变压器,0356175197-保定新奥燃气有限公司-3#专变,0356180018-保定市东顺不锈钢有限责任公司-配电室-1-变压器-1,0356430634-魏小明-1-配电室-变压器-1,0356172039-保定双鹰农机有限责任公司-2#专变,0356172026-保定双鹰农机有限责任公司-专变,B1709柱上变压器,0356174181-保定市飞硕镀锌有限公司-专变,0356313960-保定市和顺粉煤灰制品有限公司-1#专变,0701246686-保定市广惠房地产开发有限责任公司-2#专变,H0052柱上变压器,0632442386-保定市道亨商贸有限公司-专变-144751732-变压器,0563066257-保定中远自动门业有限公司-用户-箱式变-1-变压器-1,10kVB1530配电室B1530配电变压器,0701246686-保定市广惠房地产开发有限责任公司-3#专变,0701246686-保定市广惠房地产开发有限责任公司-1#专变,0356177438-保定帅达机械零部件制造有限公司-专变,0356175201-保定市秀兰混凝土搅拌有限公司-900024371022-变压器,0356175067-保定市闽隆建材加工有限公司-专变,0577617511-保定市铭泰保险代理有限公司-专变,0356325879-长城轧钢厂-专变,0356172039-保定双鹰农机有限责任公司-1#专变,0356175197-保定新奥燃气有限公司-4#专变,0356175214-保定恒泰门窗有限公司-配电室-1-变压器-1,0356175054-新建建筑工程有限责任公司第八分公司-专变,0356174123-颉庄-专变,0356177412-保定市鑫兴电焊条厂-专变,0356175038-河北冀能电力自动化设备有限公司-专变,C523柱上变压器,0356174107-郝庄(精细化工厂)-专变,0356290605-保定市东顺不锈钢有限责任公司-配电室-1-变压器-2,0356175171-保定水泥制品厂-配电室-1-变压器-2,0701246686-保定市广惠房地产开发有限责任公司-4#专变,B925柱上变压器,C106柱上变压器,0358294670-保定市和顺粉煤灰制品有限公司-专变,0544809712-保定市红光体育用品有限公司-配电室-1-变压器-1,C479柱上变压器","powerOffReason":"【停电原因】由于低压刀闸烧导致１０ＫＶ江城变电站５２２线路２０号开关以下停电【变更送电】因抢修进度加快，原定10：00送电现计划8：00送电【发布渠道】通过９５５９８发布","powerOffId":"2019080113000514"},{"poweroffId":2019080113000503,"sgpoweroffId":null,"subsName":"","lineName":"10kV工业园II线575","pubTranName":"1中冉屯内2,","scope":"【影响街道/乡镇】清苑镇 【高危重要客户】无 【影响客户】中冉屯","startTime":"2019-08-01 05:57:43","stopDate":"2019-08-01 16:00:00","orgNo":"1340618","typeCode":"电网故障停限电","poweroffArea":"【单台区停电】停1中冉屯内2","poweroffReason":"【停电原因】由于低压电杆断裂导致１１０ＫＶ赵庄变电站１０ＫＶ工业园ＩＩ线５７５线路１中冉屯内２号公变台区停电 【变更送电】无 【发布渠道】通过９５５９８发布","powerTime":"2019-08-01 15:01:53","powerComm":"王凯通知已送电","subsNo":"","lineNo":"","tgNo":"","tgName":null,"infoStatus":"1","orgName":"国网清苑县供电公司","typeName":null,"infoStatusName":null,"dateDay":null,"orgNos":null,"nowTime":null,"countyName":null,"streetName":null,"villageName":null,"roadName":null,"communityName":null,"tranName":null,"sdLineName":null,"cityCode":"1340618","cityName":"国网清苑县供电公司","provinceCode":null,"stopTime":"2019-08-01 16:00:00","powerType":"全部","powerOffArea":"【单台区停电】停1中冉屯内2","powerOffReason":"【停电原因】由于低压电杆断裂导致１１０ＫＶ赵庄变电站１０ＫＶ工业园ＩＩ线５７５线路１中冉屯内２号公变台区停电 【变更送电】无 【发布渠道】通过９５５９８发布","powerOffId":"2019080113000503"},{"poweroffId":2019080113000440,"sgpoweroffId":null,"subsName":"","lineName":"10kV江城站522线路","pubTranName":"C479柱上变压器,C106柱上变压器,B1709柱上变压器,H0052柱上变压器,H0053柱上变压器,C523柱上变压器,C104柱上变压器,C105柱上变压器,B925柱上变压器,","scope":"【影响街道/乡镇】天威路、康庄路、颉庄乡 【高危重要客户】无 【影响客户】颉庄、华强公司宿舍、铝厂宿舍、天威小区、大车,郝庄,郊建六队加工厂,建西包装厂,电建工程处,颉庄,保定双鹰农机有限责任公司,保定市鑫金燃料有限公司,郝庄(精细化工厂）,化工九厂,长城轧钢厂,保定水泥制品厂,保定市新市区润海工艺品厂,保定市和顺粉煤灰制品有限公司,河北冀能电力自动化设备有限公司,保定冀翔环保材料有限责任公司,保定向阳塑料镀膜厂,保定市西城变压器厂,保定市先锋电器厂,保定市飞硕镀锌有限公司,保定市福莱斯橡塑密封材料有限公,保定市新市区颉庄乡郝庄村村民委员会,保定双鹰农机有限责任公司,保定市燃气总公司,保定市鑫兴电焊条厂,保定恒泰门窗有限公司,保定中远自动门业有限公司,新市区粮管所,保定市远东不锈钢型材有限公司,保定市东顺不锈钢有限责任公司,保定市秀兰建筑材料有限公司,保定市天祥结构铸造有限公司,保定市新市区鑫达泡沫厂,保定市绝缘变压器开关厂","startTime":"2019-08-01 04:00:00","stopDate":"2019-08-01 06:30:00","orgNo":"13406","typeCode":"电网故障停限电","poweroffArea":"【全线路停电】停B925柱上变压器,C104柱上变压器,C105柱上变压器,C479柱上变压器,B1709柱上变压器,C523柱上变压器,H0052柱上变压器,H0053柱上变压器,C106柱上变压器","poweroffReason":"【停电原因】由于过流跳闸导致１０ＫＶ江城变电站５２２线路全线停电【变更送电】无【发布渠道】通过９５５９８发布","powerTime":"2019-08-01 05:53:44","powerComm":"已送电","subsNo":"","lineNo":"","tgNo":"","tgName":null,"infoStatus":"1","orgName":"保定供电公司","typeName":null,"infoStatusName":null,"dateDay":null,"orgNos":null,"nowTime":null,"countyName":null,"streetName":null,"villageName":null,"roadName":null,"communityName":null,"tranName":null,"sdLineName":null,"cityCode":"13406","cityName":"保定供电公司","provinceCode":null,"stopTime":"2019-08-01 06:30:00","powerType":"全部","powerOffArea":"【全线路停电】停B925柱上变压器,C104柱上变压器,C105柱上变压器,C479柱上变压器,B1709柱上变压器,C523柱上变压器,H0052柱上变压器,H0053柱上变压器,C106柱上变压器","powerOffReason":"【停电原因】由于过流跳闸导致１０ＫＶ江城变电站５２２线路全线停电【变更送电】无【发布渠道】通过９５５９８发布","powerOffId":"2019080113000440"}],"pageModel":{"pageNow":710,"totalCount":10973,"totalPage":1098,"tableRows":0,"pageCount":10,"beginCount":7090},"isExperi":"1"}