{"message":"","today":"2020-06-15","seleList":[{"poweroffId":2019073113001167,"sgpoweroffId":null,"subsName":"","lineName":"开放路线521","pubTranName":"定兴车站立交桥公用,玖兴农牧-1250,0469093849-*双惠宾馆-专变-46718566-*双惠宾馆,畅春如景园林-250,河北大利汽车零部件公司,朝阳路公用2,北控光伏-3000,首府花园3号变-800,河北定兴太行建筑有限公司,首府花园1号变-1000,美顺房地产800变压器,金玉华庭,定兴辰光新型建材,首府花园2号变-800,*杨金生（个人）,城关国税所公用,*定兴县恒源房地产开发公司,定兴县华兴橡塑制品有限公司,执法局盛德分支路灯-50,京华台区,河北天日实泰-250,金玉华庭800配变,新汇丰公用【2018年一批应急】,朝阳路公用1,大钟寺公用变,恒诚房地产1000配变,车站公用,巨兴饭店—200,*定兴县人武部,智庆房地产-630,韩庄光1#（村西）,云峰公用,韩庄光3,北控光伏-1600,大钟寺商贸-1250,变压器,首府花园4号变-630,*河北家兴商贸有限公司五东商厦,定兴肇兴机械有限公司,*周树财（个人）,*保定裕罗电器装配有限公司,大钟寺商贸-1000,汉印印刷,*荣达蓄禽有限公司,","scope":"【影响街道/乡镇】定兴镇、达胜路、开放路、朝阳西路、昌盛北街 【高危重要客户】云峰妇产 【影响客户】巨兴饭店、双汇宾馆、大钟寺部分用户、中国人民银行、金玉华庭小区、定兴县华兴橡塑制品有限公司、万绣城商场、大钟寺商贸、定兴车站村、定兴肇兴机械有限公司、周树财个人、定兴县恒源房地产开发公司、定兴车站立交桥、城关国税所、汇丰饭店、长安新区、荣达畜禽公司、大利汽车配件公司、顺美房地产、宇宏金属构件制造、辰光新型建材、汉印、韩庄村、加会庄部分用户、光宇水果公司、五合窖公司、裕罗电器公司、首府花园小区、检察院西星马郡都、微纳环保有限公司、锐腾公司","startTime":"2019-07-31 23:51:09","stopDate":"2019-08-01 01:40:00","orgNo":"1340609","typeCode":"电网故障停限电","poweroffArea":"【全线路停电】停变压器,*定兴县恒源房地产开发公司,大钟寺商贸-1000,*荣达蓄禽有限公司,北控光伏-1600,巨兴饭店—200,定兴车站立交桥公用,河北天日实泰-250,*杨金生（个人）,首府花园1号变-1000,*保定裕罗电器装配有限公司,畅春如景园林-250,大钟寺商贸-1250,河北大利汽车零部件公司,新汇丰公用【2018年一批应急】,韩庄光3,首府花园3号变-800,执法局盛德分支路灯-50,朝阳路公用1,京华台区,恒诚房地产1000配变,河北定兴太行建筑有限公司,美顺房地产800变压器,*周树财（个人）,大钟寺公用变,定兴县华兴橡塑制品有限公司,金玉华庭,0469093849-*双惠宾馆-专变-46718566-*双惠宾馆,车站公用,定兴辰光新型建材,韩庄光1#（村西）,玖兴农牧-1250,*定兴县人武部,首府花园4号变-630,汉印印刷,*河北家兴商贸有限公司五东商厦,北控光伏-3000,定兴肇兴机械有限公司,首府花园2号变-800,智庆房地产-630,金玉华庭800配变,朝阳路公用2,城关国税所公用,云峰公用","poweroffReason":"【停电原因】由于朝阳分支２０号杆至２１号杆树枝搭线导致１１０ＫＶ周家庄变电站开放路线５２１线路全线停电 【变更送电】因抢修进度加快原因，送电时间由０９：００变更为０１：４０ 【发布渠道】通过９５５９８发布","powerTime":"2019-08-01 01:22:52","powerComm":"已送电","subsNo":"","lineNo":"","tgNo":"","tgName":null,"infoStatus":"1","orgName":"国网定兴县供电公司","typeName":null,"infoStatusName":null,"dateDay":null,"orgNos":null,"nowTime":null,"countyName":null,"streetName":null,"villageName":null,"roadName":null,"communityName":null,"tranName":null,"sdLineName":null,"cityCode":"1340609","cityName":"国网定兴县供电公司","provinceCode":null,"stopTime":"2019-08-01 01:40:00","powerType":"全部","powerOffArea":"【全线路停电】停变压器,*定兴县恒源房地产开发公司,大钟寺商贸-1000,*荣达蓄禽有限公司,北控光伏-1600,巨兴饭店—200,定兴车站立交桥公用,河北天日实泰-250,*杨金生（个人）,首府花园1号变-1000,*保定裕罗电器装配有限公司,畅春如景园林-250,大钟寺商贸-1250,河北大利汽车零部件公司,新汇丰公用【2018年一批应急】,韩庄光3,首府花园3号变-800,执法局盛德分支路灯-50,朝阳路公用1,京华台区,恒诚房地产1000配变,河北定兴太行建筑有限公司,美顺房地产800变压器,*周树财（个人）,大钟寺公用变,定兴县华兴橡塑制品有限公司,金玉华庭,0469093849-*双惠宾馆-专变-46718566-*双惠宾馆,车站公用,定兴辰光新型建材,韩庄光1#（村西）,玖兴农牧-1250,*定兴县人武部,首府花园4号变-630,汉印印刷,*河北家兴商贸有限公司五东商厦,北控光伏-3000,定兴肇兴机械有限公司,首府花园2号变-800,智庆房地产-630,金玉华庭800配变,朝阳路公用2,城关国税所公用,云峰公用","powerOffReason":"【停电原因】由于朝阳分支２０号杆至２１号杆树枝搭线导致１１０ＫＶ周家庄变电站开放路线５２１线路全线停电 【变更送电】因抢修进度加快原因，送电时间由０９：００变更为０１：４０ 【发布渠道】通过９５５９８发布","powerOffId":"2019073113001167"},{"poweroffId":2019073113001166,"sgpoweroffId":null,"subsName":"","lineName":"10kV518南邑线","pubTranName":"10KV518南邑线邓庄村北02033台区变压器,博野县鼎鑫纺织有限公司,10KV518南邑线宏鑫家园小区91529台区变压器,10KV518南邑线南邑21390台区变压器,北邑浆纱厂,10KV518南邑线南邑村内分支02073台区变压器,10kv518南邑线南邑照明42140台区变压器,10KV518南邑线屯庄02099台区变压器,10KV518南邑线北邑02007台区变压器,南邑村40014,10KV518南邑线02091台区变压器,10KV518南邑线02098台区变压器【纯农排变】,张利平,10KV518南邑线02094台区变压器【纯农排变】,10kv518南邑线邓庄小山新增台区变压器【纯农排变】,10KV518南邑线南邑粮站内02023台区变压器,10kv518南邑线南邑村南42403台区变压器【纯农排变】,10KV518南邑线南邑村内分支02075台区变压器,10kv518南邑线北邑村南41933台区变压器,10kv518南邑线北邑彦宾新增台区变压器【纯农排变】,10KV518南邑线芦村02002台区变压器【纯农排变】,博野县博世达无纺织品公司,0469538407-鑫源化工厂-专变-46834665-鑫源化工厂,10KV518南邑线02019台区变压器【纯农排变】,博茂织布厂,10KV518南邑线邓庄村02111台区变压器【纯农排变】,10KV518南邑线02031台区变压器,10KV518南邑线北邑02010台区变压器,10kv518南邑线南邑12569台区变压器,10KV518南邑线主干02083台区变压器【纯农排变】,国税所,10kV518南邑线南邑村北02005台区变压器,10KV518南邑线屯庄02003台区变压器,10KV518南邑线邓庄村内西分支02053台区变压器,10KV518南邑线南邑18360台区变压器,10KV518南邑线屯庄分支02100台区变压器【纯农排变】,10KV518南邑线邓庄村内分支02060台区变压器,10KV518南邑线主干18358台区变压器,保定旺源食品有限公司,10KV518南邑线南邑村内83062台区变压器,10KV518南邑线02020台区变压器【纯农排变】,博茂金属制品有限公司,10KV518南邑线芦村02103变压器,10KV518南邑线02012台区变压器,10KV518南邑线卢村村东74908台区变压器,10KV518南邑线北邑村东照明分支02008台区变压器,10KV518南邑线芦村02001台区变压器【纯农排变】,10KV518南邑线线邓庄西北02015台区变压器【纯农排变】,10kv518南邑线南邑12565台区变压器【纯农排变】,冀中漆业,10kv518南邑线南邑12563台区变压器,10KV518南邑线南邑12562台区变压器【纯农排变】,10kv518南邑线芦村新增台区变压器【纯农排变】,10KV518南邑线02090台区变压器,博野县永兴衬布有限公司,0579969773-博野县民政局(养老院)-专变-124466815-博野县民政局,10kv518南邑线邓庄83879台区变压器,10KV518南邑线南邑村内分支02025台区变压器,","scope":"【影响街道/乡镇】北杨村乡【高危重要客户】无【影响客户】南邑、北邑、邓庄、芦村、初蕾油漆","startTime":"2019-07-31 23:25:00","stopDate":"2019-08-01 15:58:00","orgNo":"1340608","typeCode":"电网故障停限电","poweroffArea":"【全线路停电】停10kv518南邑线南邑村02115台区变压器,10KV518南邑线芦村02103变压器,10kv518南邑线南邑照明42140台区变压器,10KV518南邑线北邑02017台区变压器【纯农排变】,保定旺源食品有限公司,10KV518南邑线北邑02018台区变压器【纯农排变】,10KV518南邑线南邑20889台区变压器,博野县鼎鑫纺织有限公司,10KV518南邑线南邑12562台区变压器【纯农排变】,10kv518南邑线邓庄83879台区变压器,10KV518南邑线02013台区变压器【纯农排变】,10KV518南邑线12742台区变压器【纯农排变】,博野县博世达无纺织品公司,10KV518南邑线芦村02001台区变压器【纯农排变】,10KV518南邑线屯庄02003台区变压器,10KV518南邑线邓庄村北02033台区变压器,10KV518南邑线北邑02007台区变压器,10kV518南邑线南邑村北02005台区变压器,10KV518南邑线屯庄02099台区变压器,10KV518南邑线南邑村内分支02075台区变压器,10KV518南邑线宏鑫家园小区91529台区变压器,博野县文池工业水泵配件加工点,10KV518南邑线主干6558台区变压器,10KV518南邑线南邑村内分支47246台区变压器,10KV518南邑线南邑村内分支02025台区变压器,10KV518南邑线南邑18360台区变压器,0469538407-鑫源化工厂-专变-46834665-鑫源化工厂,张利平,10KV518南邑线南邑村西02006台区变压器,10KV518南邑线02090台区变压器,冀中漆业有限公司,博茂金属制品有限公司,10KV518南邑线02020台区变压器【纯农排变】,10KV518南邑线02098台区变压器【纯农排变】,10KV518南邑线邓庄村内分支02060台区变压器,10kv518南邑线邓庄小山新增台区变压器【纯农排变】,10KV518南邑线02092台区变压器,10KV518南邑线南邑村内分支02073台区变压器,0579969773-博野县民政局(养老院)-专变-124466815-博野县民政局,10kv518南邑线南邑12563台区变压器,10KV518南邑线南邑粮站内02023台区变压器,10kv518南邑线北邑村南41933台区变压器,10KV518南邑线02094台区变压器【纯农排变】,10KV518南邑线02012台区变压器,10KV518南邑线线邓庄西北02015台区变压器【纯农排变】,10KV518南邑线邓庄02112台区变压器,10kv518南邑线芦村新增台区变压器【纯农排变】,10KV518南邑线邓庄村内西分支02053台区变压器,10KV518南邑线南邑21390台区变压器,10KV518南邑线南邑02085台区变压器,国税所,10KV518南邑线南邑16585台区变压器,南邑村40014,博野县永兴衬布有限公司,10KV518南邑线北邑村东照明分支02008台区变压器,10kv518南邑线南邑12569台区变压器,10kV518南邑线芦村村东02104台区变压器,10KV518南邑线02019台区变压器【纯农排变】,10KV518南邑线邓庄84839台区变压器,10kv518南邑线南邑12565台区变压器【纯农排变】,河北盛方园制桶有限公司,北邑浆纱厂,北邑冀中油漆厂,10kv518南邑线北邑彦宾新增台区变压器【纯农排变】,10KV518南邑线邓庄村02111台区变压器【纯农排变】,10kv51南邑线新增芦村02088台区变压器【纯农排变】,10KV518南邑线屯庄分支02100台区变压器【纯农排变】,10KV518南邑线主干18358台区变压器,10KV518南邑线02031台区变压器,10KV518南邑线北邑02009台区变压器,10KV518南邑线北邑56849台区变压器,10KV518南邑线芦村02002台区变压器【纯农排变】,10kv518南邑线北邑占良新增台区变压器【纯农排变】,冀中漆业,博茂织布厂,10KV518南邑线南邑村内83062台区变压器,博野县诚信肉食加工厂,10KV518南邑线主干02083台区变压器【纯农排变】,10KV518南邑线卢村村东74908台区变压器,10KV518南邑线02091台区变压器,10KV518南邑线02016台区变压器【纯农排变】,10KV518南邑线北邑02011台区变压器,10KV518南邑线北邑02010台区变压器,10kv518南邑线南邑村南42403台区变压器【纯农排变】","poweroffReason":"【停电原因】由于站内开关掉闸导致１１０ＫＶ博野变电站南邑５１８线路全线停电【变更送电】因抢修进度加快原因，送电时间由１７：００变更为１５：５８【发布渠道】通过９５５９８发布","powerTime":"2019-08-01 15:36:44","powerComm":"已送电","subsNo":"","lineNo":"","tgNo":"","tgName":null,"infoStatus":"1","orgName":"国网博野县供电公司","typeName":null,"infoStatusName":null,"dateDay":null,"orgNos":null,"nowTime":null,"countyName":null,"streetName":null,"villageName":null,"roadName":null,"communityName":null,"tranName":null,"sdLineName":null,"cityCode":"1340608","cityName":"国网博野县供电公司","provinceCode":null,"stopTime":"2019-08-01 15:58:00","powerType":"全部","powerOffArea":"【全线路停电】停10kv518南邑线南邑村02115台区变压器,10KV518南邑线芦村02103变压器,10kv518南邑线南邑照明42140台区变压器,10KV518南邑线北邑02017台区变压器【纯农排变】,保定旺源食品有限公司,10KV518南邑线北邑02018台区变压器【纯农排变】,10KV518南邑线南邑20889台区变压器,博野县鼎鑫纺织有限公司,10KV518南邑线南邑12562台区变压器【纯农排变】,10kv518南邑线邓庄83879台区变压器,10KV518南邑线02013台区变压器【纯农排变】,10KV518南邑线12742台区变压器【纯农排变】,博野县博世达无纺织品公司,10KV518南邑线芦村02001台区变压器【纯农排变】,10KV518南邑线屯庄02003台区变压器,10KV518南邑线邓庄村北02033台区变压器,10KV518南邑线北邑02007台区变压器,10kV518南邑线南邑村北02005台区变压器,10KV518南邑线屯庄02099台区变压器,10KV518南邑线南邑村内分支02075台区变压器,10KV518南邑线宏鑫家园小区91529台区变压器,博野县文池工业水泵配件加工点,10KV518南邑线主干6558台区变压器,10KV518南邑线南邑村内分支47246台区变压器,10KV518南邑线南邑村内分支02025台区变压器,10KV518南邑线南邑18360台区变压器,0469538407-鑫源化工厂-专变-46834665-鑫源化工厂,张利平,10KV518南邑线南邑村西02006台区变压器,10KV518南邑线02090台区变压器,冀中漆业有限公司,博茂金属制品有限公司,10KV518南邑线02020台区变压器【纯农排变】,10KV518南邑线02098台区变压器【纯农排变】,10KV518南邑线邓庄村内分支02060台区变压器,10kv518南邑线邓庄小山新增台区变压器【纯农排变】,10KV518南邑线02092台区变压器,10KV518南邑线南邑村内分支02073台区变压器,0579969773-博野县民政局(养老院)-专变-124466815-博野县民政局,10kv518南邑线南邑12563台区变压器,10KV518南邑线南邑粮站内02023台区变压器,10kv518南邑线北邑村南41933台区变压器,10KV518南邑线02094台区变压器【纯农排变】,10KV518南邑线02012台区变压器,10KV518南邑线线邓庄西北02015台区变压器【纯农排变】,10KV518南邑线邓庄02112台区变压器,10kv518南邑线芦村新增台区变压器【纯农排变】,10KV518南邑线邓庄村内西分支02053台区变压器,10KV518南邑线南邑21390台区变压器,10KV518南邑线南邑02085台区变压器,国税所,10KV518南邑线南邑16585台区变压器,南邑村40014,博野县永兴衬布有限公司,10KV518南邑线北邑村东照明分支02008台区变压器,10kv518南邑线南邑12569台区变压器,10kV518南邑线芦村村东02104台区变压器,10KV518南邑线02019台区变压器【纯农排变】,10KV518南邑线邓庄84839台区变压器,10kv518南邑线南邑12565台区变压器【纯农排变】,河北盛方园制桶有限公司,北邑浆纱厂,北邑冀中油漆厂,10kv518南邑线北邑彦宾新增台区变压器【纯农排变】,10KV518南邑线邓庄村02111台区变压器【纯农排变】,10kv51南邑线新增芦村02088台区变压器【纯农排变】,10KV518南邑线屯庄分支02100台区变压器【纯农排变】,10KV518南邑线主干18358台区变压器,10KV518南邑线02031台区变压器,10KV518南邑线北邑02009台区变压器,10KV518南邑线北邑56849台区变压器,10KV518南邑线芦村02002台区变压器【纯农排变】,10kv518南邑线北邑占良新增台区变压器【纯农排变】,冀中漆业,博茂织布厂,10KV518南邑线南邑村内83062台区变压器,博野县诚信肉食加工厂,10KV518南邑线主干02083台区变压器【纯农排变】,10KV518南邑线卢村村东74908台区变压器,10KV518南邑线02091台区变压器,10KV518南邑线02016台区变压器【纯农排变】,10KV518南邑线北邑02011台区变压器,10KV518南邑线北邑02010台区变压器,10kv518南邑线南邑村南42403台区变压器【纯农排变】","powerOffReason":"【停电原因】由于站内开关掉闸导致１１０ＫＶ博野变电站南邑５１８线路全线停电【变更送电】因抢修进度加快原因，送电时间由１７：００变更为１５：５８【发布渠道】通过９５５９８发布","powerOffId":"2019073113001166"},{"poweroffId":2019073113001164,"sgpoweroffId":null,"subsName":"","lineName":"商贸561","pubTranName":"0626535131-保定白沟盛祥商业投资有限公司-专变-138773721-盛祥变压器1,新华奇皮件厂变压器,保定白沟新城华博塑胶制造有限公司变压器,白沟鸿利橡胶发泡厂变压器,变压器,变压器200,0626535131-保定白沟盛祥商业投资有限公司-专变-138773737-盛祥变压器5,0626535131-保定白沟盛祥商业投资有限公司-专变-138792432-盛祥变压器3,0626535131-保定白沟盛祥商业投资有限公司-专变-138792440-盛祥变压器4,李中福,0626535131-保定白沟盛祥商业投资有限公司-专变-138773730-盛祥变压器2,0626535131-保定白沟盛祥商业投资有限公司-专变-138773744-盛祥变压器6,博乐乳胶厂,李虎刚,辛许庄北2配电变压器,辛许庄北变压器1,黄克亮,杨洪生,华欣塑料厂,0387442442-京南制罐厂-专变-45278801-京南制罐厂,宏业6,","scope":"【影响街道/乡镇】白沟镇 【高危重要客户】无 【影响客户】商贸城","startTime":"2019-07-31 23:50:14","stopDate":"2019-08-01 02:00:00","orgNo":"1340612","typeCode":"电网故障停限电","poweroffArea":"【全线路停电】停辛许庄北2配电变压器,0626535131-保定白沟盛祥商业投资有限公司-专变-138773721-盛祥变压器1,新华奇皮件厂变压器,保定白沟新城华博塑胶制造有限公司变压器,白沟鸿利橡胶发泡厂变压器,变压器,变压器200,0626535131-保定白沟盛祥商业投资有限公司-专变-138773737-盛祥变压器5,0626535131-保定白沟盛祥商业投资有限公司-专变-138792432-盛祥变压器3,0626535131-保定白沟盛祥商业投资有限公司-专变-138792440-盛祥变压器4,李中福,0626535131-保定白沟盛祥商业投资有限公司-专变-138773730-盛祥变压器2,0626535131-保定白沟盛祥商业投资有限公司-专变-138773744-盛祥变压器6,博乐乳胶厂,李虎刚,辛许庄北变压器1,黄克亮,杨洪生,华欣塑料厂,0387442442-京南制罐厂-专变-45278801-京南制罐厂,宏业6","poweroffReason":"【停电原因】由于主干开关跳闸导致１１０ＫＶ南留变电站１０ＫＶ商贸５６１线路全线停电 【变更送电】因抢修进度加快原因，送电时间由９：００变更为２：００ 【发布渠道】通过９５５９８发布","powerTime":"2019-08-01 01:25:54","powerComm":"已送电","subsNo":"","lineNo":"","tgNo":"","tgName":null,"infoStatus":"1","orgName":"国网高碑店市供电公司","typeName":null,"infoStatusName":null,"dateDay":null,"orgNos":null,"nowTime":null,"countyName":null,"streetName":null,"villageName":null,"roadName":null,"communityName":null,"tranName":null,"sdLineName":null,"cityCode":"1340612","cityName":"国网高碑店市供电公司","provinceCode":null,"stopTime":"2019-08-01 02:00:00","powerType":"全部","powerOffArea":"【全线路停电】停辛许庄北2配电变压器,0626535131-保定白沟盛祥商业投资有限公司-专变-138773721-盛祥变压器1,新华奇皮件厂变压器,保定白沟新城华博塑胶制造有限公司变压器,白沟鸿利橡胶发泡厂变压器,变压器,变压器200,0626535131-保定白沟盛祥商业投资有限公司-专变-138773737-盛祥变压器5,0626535131-保定白沟盛祥商业投资有限公司-专变-138792432-盛祥变压器3,0626535131-保定白沟盛祥商业投资有限公司-专变-138792440-盛祥变压器4,李中福,0626535131-保定白沟盛祥商业投资有限公司-专变-138773730-盛祥变压器2,0626535131-保定白沟盛祥商业投资有限公司-专变-138773744-盛祥变压器6,博乐乳胶厂,李虎刚,辛许庄北变压器1,黄克亮,杨洪生,华欣塑料厂,0387442442-京南制罐厂-专变-45278801-京南制罐厂,宏业6","powerOffReason":"【停电原因】由于主干开关跳闸导致１１０ＫＶ南留变电站１０ＫＶ商贸５６１线路全线停电 【变更送电】因抢修进度加快原因，送电时间由９：００变更为２：００ 【发布渠道】通过９５５９８发布","powerOffId":"2019073113001164"},{"poweroffId":2019073113001151,"sgpoweroffId":null,"subsName":"","lineName":"10kV516东西营线","pubTranName":"客户投资_东营综合3台区,保定德鑫纺织品制造有限公司变压器,东营综合4台区,东营综合6台区,东营浇地3号,东营温馨家园,林堡5号,东营浇地1号,客户投资_东营综合2台区,西营农排1台区变压器,东营村委会,东营综合11台区,西营农排4台区【纯农排变】,东营综合12台区,林堡六,东营综合10台区【冬季供暖设施】,西营综合8台区,西营农排7台区【纯农排变】,东营综合8台区,西营农排5台区【纯农排变】,西营综合1台区,客户投资_西营综合5台区,大朋,东营综合1台区,西营农排3台区【纯农排变】,西营综合7台区,西营综合6台区,西营综合4台区,东营村浇地5号东,东营浇地10号,东营浇地7号西,0469455377-东营村浇地五号-专变-46813156-东营村浇地5号,东营浇地8号,东营浇地7号,东营浇地6号东,东营浇地2号,东营村东北,东营浇地6号,西营农排6台区【纯农排变】,东营浇地4号,东营浇地3号东,东营浇地10号东,东营综合7台区,渔池,东营综合9台区,东营浇地9号,蠡县磊鑫砂石料场,东营综合5台区,东营砖厂2,东营砖厂1,西营综合2台区,西营农排9台区【纯农排变】,西营综合3台区,","scope":"【影响街道/乡镇】林堡乡【高危重要客户】无【影响客户】西营村、东营村","startTime":"2019-07-31 23:48:07","stopDate":"2019-08-01 11:00:00","orgNo":"1340616","typeCode":"电网故障停限电","poweroffArea":"【全线路停电】停东营综合4台区,西营农排1台区变压器,西营农排4台区【纯农排变】,东营综合12台区,东营综合8台区,东营综合6台区,西营农排9台区【纯农排变】,西营综合3台区,客户投资_西营综合5台区,大朋,东营温馨家园,林堡5号,东营村委会,东营浇地1号,西营综合6台区,西营农排6台区【纯农排变】,西营农排5台区【纯农排变】,西营综合1台区,东营综合5台区,客户投资_东营综合2台区,东营综合1台区,西营农排3台区【纯农排变】,西营综合7台区,东营综合11台区,林堡六,东营综合10台区【冬季供暖设施】,西营综合8台区,西营农排7台区【纯农排变】,西营综合4台区,东营村浇地5号东,东营浇地10号,东营浇地7号西,0469455377-东营村浇地五号-专变-46813156-东营村浇地5号,东营浇地8号,东营浇地7号,东营浇地6号东,东营浇地3号,东营浇地2号,东营村东北,东营浇地6号,东营浇地4号,东营浇地3号东,东营浇地10号东,东营综合7台区,渔池,东营综合9台区,东营浇地9号,蠡县磊鑫砂石料场,东营砖厂2,东营砖厂1,西营综合2台区,客户投资_东营综合3台区,保定德鑫纺织品制造有限公司变压器","poweroffReason":"【停电原因】由于３５ＫＶ刘林３１４开关掉闸导致３５ＫＶ林堡变电站１０ＫＶ东西营５１６线路全线停电【变更送电】因抢修进度加快原因，送电时间由２３：００变更为１１：００【发布渠道】通过９５５９８发布","powerTime":"2019-08-01 10:29:58","powerComm":"已送电","subsNo":"","lineNo":"","tgNo":"","tgName":null,"infoStatus":"1","orgName":"国网蠡县供电公司","typeName":null,"infoStatusName":null,"dateDay":null,"orgNos":null,"nowTime":null,"countyName":null,"streetName":null,"villageName":null,"roadName":null,"communityName":null,"tranName":null,"sdLineName":null,"cityCode":"1340616","cityName":"国网蠡县供电公司","provinceCode":null,"stopTime":"2019-08-01 11:00:00","powerType":"全部","powerOffArea":"【全线路停电】停东营综合4台区,西营农排1台区变压器,西营农排4台区【纯农排变】,东营综合12台区,东营综合8台区,东营综合6台区,西营农排9台区【纯农排变】,西营综合3台区,客户投资_西营综合5台区,大朋,东营温馨家园,林堡5号,东营村委会,东营浇地1号,西营综合6台区,西营农排6台区【纯农排变】,西营农排5台区【纯农排变】,西营综合1台区,东营综合5台区,客户投资_东营综合2台区,东营综合1台区,西营农排3台区【纯农排变】,西营综合7台区,东营综合11台区,林堡六,东营综合10台区【冬季供暖设施】,西营综合8台区,西营农排7台区【纯农排变】,西营综合4台区,东营村浇地5号东,东营浇地10号,东营浇地7号西,0469455377-东营村浇地五号-专变-46813156-东营村浇地5号,东营浇地8号,东营浇地7号,东营浇地6号东,东营浇地3号,东营浇地2号,东营村东北,东营浇地6号,东营浇地4号,东营浇地3号东,东营浇地10号东,东营综合7台区,渔池,东营综合9台区,东营浇地9号,蠡县磊鑫砂石料场,东营砖厂2,东营砖厂1,西营综合2台区,客户投资_东营综合3台区,保定德鑫纺织品制造有限公司变压器","powerOffReason":"【停电原因】由于３５ＫＶ刘林３１４开关掉闸导致３５ＫＶ林堡变电站１０ＫＶ东西营５１６线路全线停电【变更送电】因抢修进度加快原因，送电时间由２３：００变更为１１：００【发布渠道】通过９５５９８发布","powerOffId":"2019073113001151"},{"poweroffId":2019073113001149,"sgpoweroffId":null,"subsName":"","lineName":"10kV512工专线","pubTranName":"10kV512工专线冠丰公寓15435台区变压器,10kV512工专线王寅乱家属院07269台区变压器,0469535264-河北利志凯房地产开发有限公司-专变-46834035-大成精密铸造有限公司,0469533545-大成(博野)机械有限责任公司-专变-119551660-大成（博野） 机械有限责任公司,河北龙冠丰房地产开发有限公司,0469533545-大成(博野)机械有限责任公司-专变-119551656-大成（博野） 机械有限责任公司,富丽华大酒店,0469533545-大成(博野)机械有限责任公司-专变-46834038-大成（博野） 机械有限责任公司,龙冠丰,","scope":"【影响街道/乡镇】博野镇【高危重要客户】无【影响客户】富丽华酒店、冠丰公寓、裕丰家园、大成公司","startTime":"2019-07-31 23:25:00","stopDate":"2019-08-01 07:50:00","orgNo":"1340608","typeCode":"电网故障停限电","poweroffArea":"【全线路停电】停富丽华大酒店,0469533545-大成(博野)机械有限责任公司-专变-46834038-大成（博野） 机械有限责任公司,10kV512工专线王寅乱家属院07269台区变压器,0469535264-河北利志凯房地产开发有限公司-专变-46834035-大成精密铸造有限公司,龙冠丰,0469533545-大成(博野)机械有限责任公司-专变-119551660-大成（博野） 机械有限责任公司,10kV512工专线冠丰公寓15435台区变压器,河北龙冠丰房地产开发有限公司,0469533545-大成(博野)机械有限责任公司-专变-119551656-大成（博野） 机械有限责任公司","poweroffReason":"【停电原因】由于站内开关跳闸导致１１０ＫＶ博野变电站工专５１２线路全线停电【变更送电】因抢修进度加快原因，送电时间由１７：００变更为０７：５０【发布渠道】通过９５５９８发布","powerTime":"2019-08-01 07:15:14","powerComm":"已送电","subsNo":"","lineNo":"","tgNo":"","tgName":null,"infoStatus":"1","orgName":"国网博野县供电公司","typeName":null,"infoStatusName":null,"dateDay":null,"orgNos":null,"nowTime":null,"countyName":null,"streetName":null,"villageName":null,"roadName":null,"communityName":null,"tranName":null,"sdLineName":null,"cityCode":"1340608","cityName":"国网博野县供电公司","provinceCode":null,"stopTime":"2019-08-01 07:50:00","powerType":"全部","powerOffArea":"【全线路停电】停富丽华大酒店,0469533545-大成(博野)机械有限责任公司-专变-46834038-大成（博野） 机械有限责任公司,10kV512工专线王寅乱家属院07269台区变压器,0469535264-河北利志凯房地产开发有限公司-专变-46834035-大成精密铸造有限公司,龙冠丰,0469533545-大成(博野)机械有限责任公司-专变-119551660-大成（博野） 机械有限责任公司,10kV512工专线冠丰公寓15435台区变压器,河北龙冠丰房地产开发有限公司,0469533545-大成(博野)机械有限责任公司-专变-119551656-大成（博野） 机械有限责任公司","powerOffReason":"【停电原因】由于站内开关跳闸导致１１０ＫＶ博野变电站工专５１２线路全线停电【变更送电】因抢修进度加快原因，送电时间由１７：００变更为０７：５０【发布渠道】通过９５５９８发布","powerOffId":"2019073113001149"},{"poweroffId":2019073113001138,"sgpoweroffId":null,"subsName":"","lineName":"10kV544河西线","pubTranName":"马官营7号【纯农排变】,马官营5号【纯农排变】,北庞6号,河西9号,客户投资_北庞1号,空城店1号【纯农排变】,北庞13号,马官营8号,北庞2号【纯农排变】,保定市徐水区漕河镇北庞村小学,空城店4号【纯农排变】,北庞14号,马官营12号【纯农排变】,马官营11号【纯农排变】,马官营3号【纯农排变】,马官营10号【纯农排变】,北庞11号【纯农排变】,河西2号,马官营9号【纯农排变】,河西1号,中所营供2号,河西10号【纯农排变】,中所营10号,马官营2号【纯农排变】,河西4号【纯农排变】,北庞10号,马官营14号,河西7号,北庞9号,东白亭13号【纯农排变】,河西3号【纯农排变】,中所营2号【纯农排变】,北庞12号,北庞3号【纯农排变】,马官营13号【纯农排变】,河西5号,马官营6号,马官营4号【纯农排变】,河西11号,河西8号,北庞7号,空城店6号【纯农排变】,马官营1号,河西6号【纯农排变】,苑氏玻璃钢有限公司,北庞4号,河北省华富源工贸有限公司2号,徐水县金鑫耐火材料有限公司1号,新泰头盔厂,史玉山胶厂,空城4号,红星塑胶厂2号,河北省华富源工贸有限公司1号,","scope":"【影响街道/乡镇】漕河镇 【高危重要客户】无 【影响客户】空城店、马官营、北庞、河西村、中所营、东白亭","startTime":"2019-07-31 23:32:20","stopDate":"2019-08-01 06:30:00","orgNo":"1340605","typeCode":"电网故障停限电","poweroffArea":"【全线路停电】停空城店1号【纯农排变】,马官营7号【纯农排变】,马官营5号【纯农排变】,北庞6号,河西9号,客户投资_北庞1号,北庞13号,马官营8号,北庞2号【纯农排变】,保定市徐水区漕河镇北庞村小学,空城店4号【纯农排变】,北庞14号,马官营12号【纯农排变】,马官营11号【纯农排变】,马官营3号【纯农排变】,马官营10号【纯农排变】,北庞11号【纯农排变】,河西2号,马官营9号【纯农排变】,河西1号,中所营供2号,河西10号【纯农排变】,中所营10号,马官营2号【纯农排变】,河西4号【纯农排变】,北庞10号,马官营14号,河西7号,北庞9号,东白亭13号【纯农排变】,河西3号【纯农排变】,中所营2号【纯农排变】,北庞12号,北庞3号【纯农排变】,马官营13号【纯农排变】,河西5号,马官营6号,马官营4号【纯农排变】,河西11号,河西8号,北庞7号,空城店6号【纯农排变】,马官营1号,河西6号【纯农排变】,苑氏玻璃钢有限公司,北庞4号,河北省华富源工贸有限公司2号,徐水县金鑫耐火材料有限公司1号,新泰头盔厂,史玉山胶厂,空城4号,红星塑胶厂2号,河北省华富源工贸有限公司1号","poweroffReason":"【停电原因】由于Ｂ相接地导致１１０ＫＶ留村变电站河西５４４线路全线停电 【变更送电】因抢修进度加快原因，送电时间由０９:００变更为０６:３０ 【发布渠道】通过９５５９８发布","powerTime":"2019-08-01 05:32:50","powerComm":"已送电","subsNo":"","lineNo":"","tgNo":"","tgName":null,"infoStatus":"1","orgName":"国网徐水县供电公司","typeName":null,"infoStatusName":null,"dateDay":null,"orgNos":null,"nowTime":null,"countyName":null,"streetName":null,"villageName":null,"roadName":null,"communityName":null,"tranName":null,"sdLineName":null,"cityCode":"1340605","cityName":"国网徐水县供电公司","provinceCode":null,"stopTime":"2019-08-01 06:30:00","powerType":"全部","powerOffArea":"【全线路停电】停空城店1号【纯农排变】,马官营7号【纯农排变】,马官营5号【纯农排变】,北庞6号,河西9号,客户投资_北庞1号,北庞13号,马官营8号,北庞2号【纯农排变】,保定市徐水区漕河镇北庞村小学,空城店4号【纯农排变】,北庞14号,马官营12号【纯农排变】,马官营11号【纯农排变】,马官营3号【纯农排变】,马官营10号【纯农排变】,北庞11号【纯农排变】,河西2号,马官营9号【纯农排变】,河西1号,中所营供2号,河西10号【纯农排变】,中所营10号,马官营2号【纯农排变】,河西4号【纯农排变】,北庞10号,马官营14号,河西7号,北庞9号,东白亭13号【纯农排变】,河西3号【纯农排变】,中所营2号【纯农排变】,北庞12号,北庞3号【纯农排变】,马官营13号【纯农排变】,河西5号,马官营6号,马官营4号【纯农排变】,河西11号,河西8号,北庞7号,空城店6号【纯农排变】,马官营1号,河西6号【纯农排变】,苑氏玻璃钢有限公司,北庞4号,河北省华富源工贸有限公司2号,徐水县金鑫耐火材料有限公司1号,新泰头盔厂,史玉山胶厂,空城4号,红星塑胶厂2号,河北省华富源工贸有限公司1号","powerOffReason":"【停电原因】由于Ｂ相接地导致１１０ＫＶ留村变电站河西５４４线路全线停电 【变更送电】因抢修进度加快原因，送电时间由０９:００变更为０６:３０ 【发布渠道】通过９５５９８发布","powerOffId":"2019073113001138"},{"poweroffId":2019073113001136,"sgpoweroffId":null,"subsName":"","lineName":"10kV515孙庄线","pubTranName":"0618194577-蠡县润仕纺织有限公司-专变-208418455-蠡县润仕纺织有限公司,蠡县林堡乡宋庄小学变压器,孙庄综合2台区,孙庄3台区,0667625530-蠡县林堡乡宋家庄村卫生室-专变-208434804-蠡县林堡乡宋家庄村卫生室,孙庄7号,宋庄综合4台区,孙庄综合3台区,杨马庄农排7台区【纯农排变】,孙庄浇地2,宋庄综合1台区,林堡综合7台区,林堡综合14台区,蠡县达盛纺织厂变压器,宋庄综合3台区,建国,孙庄综合5台区,宋庄综合2台区,林堡3号,宋庄村北变压器,建修华盛棉织,杨马庄农排4台区【纯农排变】,林堡面粉厂,孙庄综合4台区,蠡县润通纺织有限公司变压器,孙庄综合1台区,杨马庄综合10台区,孙庄4台区,宋庄综合7台区,宋庄西浇地,建成织布,兴达,蠡县瑞祥纺织厂变压器,宋庄综合6台区,孙庄6号,二军浇地,杨马庄综合11台区,杨马庄农排3台区【纯农排变】,林北二,杨马庄综合9台区,林堡4号,杨马庄综合8台区,华泽,杨马庄农排5台区【纯农排变】,蠡县瑞合纺织有限公司变压器,宋庄综合5台区,杨马庄农排6台区【纯农排变】,孙庄织布,林北一,0546610927-蠡县宏源纺织有限公司-专变-48017880-宋庄兴达棉织厂变压器,板厂,杨马庄综合2台区,中国移动通信集团河北有限公司蠡县分公司变压器,蠡县益源棉织厂变压器,杨马庄综合1台区,0469456501-蠡县泽丰纺织有限公司-专变-214329266-蠡县泽丰纺织有限公司变压器,孙庄浇地1号,","scope":"【影响街道/乡镇】林堡乡【高危重要客户】无【影响客户】孙庄村、宋庄村、杨马庄村、林堡村","startTime":"2019-07-31 23:45:24","stopDate":"2019-08-01 11:00:00","orgNo":"1340616","typeCode":"电网故障停限电","poweroffArea":"【全线路停电】停蠡县达盛纺织厂变压器,杨马庄综合10台区,宋庄西浇地,建成织布,宋庄综合6台区,建国,0546610927-蠡县宏源纺织有限公司-专变-48017880-宋庄兴达棉织厂变压器,孙庄浇地2,孙庄织布,孙庄6号,孙庄3台区,宋庄综合3台区,孙庄综合5台区,孙庄综合1台区,孙庄4台区,杨马庄农排3台区【纯农排变】,孙庄浇地1号,孙庄7号,杨马庄农排5台区【纯农排变】,建修华盛棉织,板厂,兴达,华泽,杨马庄综合9台区,孙庄综合3台区,杨马庄综合1台区,蠡县瑞祥纺织厂变压器,蠡县林堡乡宋庄小学变压器,蠡县润通纺织有限公司变压器,杨马庄综合8台区,宋庄综合4台区,孙庄综合2台区,宋庄综合7台区,0469456501-蠡县泽丰纺织有限公司-专变-214329266-蠡县泽丰纺织有限公司变压器,宋庄综合1台区,宋庄综合2台区,宋庄村北变压器,杨马庄综合2台区,林堡4号,林北一,孙庄综合4台区,杨马庄农排7台区【纯农排变】,林堡面粉厂,杨马庄综合11台区,二军浇地,林堡综合14台区,林堡3号,0618194577-蠡县润仕纺织有限公司-专变-208418455-蠡县润仕纺织有限公司,中国移动通信集团河北有限公司蠡县分公司变压器,0667625530-蠡县林堡乡宋家庄村卫生室-专变-208434804-蠡县林堡乡宋家庄村卫生室,林堡综合7台区,宋庄综合5台区,蠡县益源棉织厂变压器,蠡县瑞合纺织有限公司变压器,林北二,杨马庄农排6台区【纯农排变】,杨马庄农排4台区【纯农排变】","poweroffReason":"【停电原因】由于３５ＫＶ刘林３１４开关掉闸导致３５ＫＶ林堡变电站１０ＫＶ孙庄５１５线路全线停电【变更送电】因抢修进度加快原因，送电时间由２３：００变更为１１：００【发布渠道】通过９５５９８发布","powerTime":"2019-08-01 10:18:22","powerComm":"已送电","subsNo":"","lineNo":"","tgNo":"","tgName":null,"infoStatus":"1","orgName":"国网蠡县供电公司","typeName":null,"infoStatusName":null,"dateDay":null,"orgNos":null,"nowTime":null,"countyName":null,"streetName":null,"villageName":null,"roadName":null,"communityName":null,"tranName":null,"sdLineName":null,"cityCode":"1340616","cityName":"国网蠡县供电公司","provinceCode":null,"stopTime":"2019-08-01 11:00:00","powerType":"全部","powerOffArea":"【全线路停电】停蠡县达盛纺织厂变压器,杨马庄综合10台区,宋庄西浇地,建成织布,宋庄综合6台区,建国,0546610927-蠡县宏源纺织有限公司-专变-48017880-宋庄兴达棉织厂变压器,孙庄浇地2,孙庄织布,孙庄6号,孙庄3台区,宋庄综合3台区,孙庄综合5台区,孙庄综合1台区,孙庄4台区,杨马庄农排3台区【纯农排变】,孙庄浇地1号,孙庄7号,杨马庄农排5台区【纯农排变】,建修华盛棉织,板厂,兴达,华泽,杨马庄综合9台区,孙庄综合3台区,杨马庄综合1台区,蠡县瑞祥纺织厂变压器,蠡县林堡乡宋庄小学变压器,蠡县润通纺织有限公司变压器,杨马庄综合8台区,宋庄综合4台区,孙庄综合2台区,宋庄综合7台区,0469456501-蠡县泽丰纺织有限公司-专变-214329266-蠡县泽丰纺织有限公司变压器,宋庄综合1台区,宋庄综合2台区,宋庄村北变压器,杨马庄综合2台区,林堡4号,林北一,孙庄综合4台区,杨马庄农排7台区【纯农排变】,林堡面粉厂,杨马庄综合11台区,二军浇地,林堡综合14台区,林堡3号,0618194577-蠡县润仕纺织有限公司-专变-208418455-蠡县润仕纺织有限公司,中国移动通信集团河北有限公司蠡县分公司变压器,0667625530-蠡县林堡乡宋家庄村卫生室-专变-208434804-蠡县林堡乡宋家庄村卫生室,林堡综合7台区,宋庄综合5台区,蠡县益源棉织厂变压器,蠡县瑞合纺织有限公司变压器,林北二,杨马庄农排6台区【纯农排变】,杨马庄农排4台区【纯农排变】","powerOffReason":"【停电原因】由于３５ＫＶ刘林３１４开关掉闸导致３５ＫＶ林堡变电站１０ＫＶ孙庄５１５线路全线停电【变更送电】因抢修进度加快原因，送电时间由２３：００变更为１１：００【发布渠道】通过９５５９８发布","powerOffId":"2019073113001136"},{"poweroffId":2019073113001135,"sgpoweroffId":null,"subsName":"","lineName":"10kV519杨西线","pubTranName":"杨北综合7台区,元北综合10台区,杨西综合12台区,杨西综合13台区,幼儿园,杨北综合2台区,0469348516-蠡县华兴纺织有限公司-专变-46780275-华兴纺织公司,杨西纺织经编厂,杨西综合4台区,杨北方辰针织厂变压器,杨西综合3台区,蠡园毛纺厂,元东综合3台区,杨西综合9台区,杨北综合11台区,杨东农排8台区【纯农排变】,桑园镇政府,杨西综合11台区,杨西综合6台区,华澳石材厂,杨西综合8台区,杨西综合10台区,杨东农排2台区【纯农排变】,蠡县杨西孕泽纺织厂变压器,杨东综合11台区,杨北综合10台区,杨西针织厂,蔡团,杨北综合1台区,元东综合12台区,杨西九龙,元东综合7台区,同乐,何彦欣,春雅纺织有限公司,元北综合18台区,杨北综合5台区,张永兴,杨西农排6台区【纯农排变】,杨北综合4台区,杨北综合12台区,国庆农场,杨北综合13台区,杨北综合3台区,保定美雅纺织变压器,元东综合5台区,杨北综合9台区,杨西综合5台区,杨西综合1台区,杨北综合8台区,蠡县双建经编有限公司,杨西九龙毛纺厂,","scope":"【影响街道/乡镇】桑元镇【高危重要客户】无【影响客户】元北村、杨西村、杨北村、元东村、大杨庄村","startTime":"2019-07-31 23:45:19","stopDate":"2019-08-01 13:00:00","orgNo":"1340616","typeCode":"电网故障停限电","poweroffArea":"【全线路停电】停杨西综合3台区,同乐,幼儿园,杨西综合9台区,杨东农排2台区【纯农排变】,杨东农排8台区【纯农排变】,元东综合12台区,0469348516-蠡县华兴纺织有限公司-专变-46780275-华兴纺织公司,杨西综合13台区,杨西综合10台区,杨西综合4台区,杨西综合6台区,杨北综合2台区,杨北综合13台区,杨北综合1台区,何彦欣,桑园镇政府,保定美雅纺织变压器,元北综合18台区,杨北综合8台区,蠡县双建经编有限公司,杨北综合9台区,华澳石材厂,蠡园毛纺厂,杨北综合7台区,杨西纺织经编厂,杨北综合4台区,杨西九龙,杨北综合5台区,杨北综合3台区,杨北综合12台区,元东综合3台区,杨北综合11台区,杨北综合10台区,蔡团,国庆农场,杨西综合11台区,杨西综合1台区,张永兴,杨西九龙毛纺厂,元东综合5台区,杨西综合5台区,杨西针织厂,蠡县杨西孕泽纺织厂变压器,元东综合7台区,春雅纺织有限公司,杨西农排6台区【纯农排变】,元北综合10台区,杨西综合8台区,杨西综合12台区,杨北方辰针织厂变压器,杨东综合11台区","poweroffReason":"【停电原因】由于站内关掉闸导致３５ＫＶ桑园变电站１０ＫＶ杨西５１９线路全线停电【变更送电】因抢修进度加快原因，送电时间由２３：００变更为１３：００【发布渠道】通过９５５９８发布","powerTime":"2019-08-01 12:45:21","powerComm":"已送电","subsNo":"","lineNo":"","tgNo":"","tgName":null,"infoStatus":"1","orgName":"国网蠡县供电公司","typeName":null,"infoStatusName":null,"dateDay":null,"orgNos":null,"nowTime":null,"countyName":null,"streetName":null,"villageName":null,"roadName":null,"communityName":null,"tranName":null,"sdLineName":null,"cityCode":"1340616","cityName":"国网蠡县供电公司","provinceCode":null,"stopTime":"2019-08-01 13:00:00","powerType":"全部","powerOffArea":"【全线路停电】停杨西综合3台区,同乐,幼儿园,杨西综合9台区,杨东农排2台区【纯农排变】,杨东农排8台区【纯农排变】,元东综合12台区,0469348516-蠡县华兴纺织有限公司-专变-46780275-华兴纺织公司,杨西综合13台区,杨西综合10台区,杨西综合4台区,杨西综合6台区,杨北综合2台区,杨北综合13台区,杨北综合1台区,何彦欣,桑园镇政府,保定美雅纺织变压器,元北综合18台区,杨北综合8台区,蠡县双建经编有限公司,杨北综合9台区,华澳石材厂,蠡园毛纺厂,杨北综合7台区,杨西纺织经编厂,杨北综合4台区,杨西九龙,杨北综合5台区,杨北综合3台区,杨北综合12台区,元东综合3台区,杨北综合11台区,杨北综合10台区,蔡团,国庆农场,杨西综合11台区,杨西综合1台区,张永兴,杨西九龙毛纺厂,元东综合5台区,杨西综合5台区,杨西针织厂,蠡县杨西孕泽纺织厂变压器,元东综合7台区,春雅纺织有限公司,杨西农排6台区【纯农排变】,元北综合10台区,杨西综合8台区,杨西综合12台区,杨北方辰针织厂变压器,杨东综合11台区","powerOffReason":"【停电原因】由于站内关掉闸导致３５ＫＶ桑园变电站１０ＫＶ杨西５１９线路全线停电【变更送电】因抢修进度加快原因，送电时间由２３：００变更为１３：００【发布渠道】通过９５５９８发布","powerOffId":"2019073113001135"},{"poweroffId":2019073113001132,"sgpoweroffId":null,"subsName":"","lineName":"钻床厂线528","pubTranName":"10073|人行家属院综合,唐国东,人民银行,钻床厂家属院,上林苑小区2号变压器,上林苑7号综合箱变中压出线配电变压器,朝阳路路灯1号,建筑公司家属楼,靳伯欣,高阳县邮电小区,上林苑5号综合箱变中压出线配电变压器,10080|迎宾路西关小区综合,10090|邓联营综合,朝阳毛纺厂,10092|建筑公司综合,环保局,上林苑4号综合出线配电变压器,中国银行,SQ邮局小区2#综合,高阳县正阳现代城2号综合出线配电变压器,农业发展银行,上林苑综合中压出线配电变压器,10009|运西配变综合,高阳县正阳现代城3号综合出线配电变压器,10094|运输公司综合,上林苑10号综合出线配电变压器,高阳县正阳现代城四号变压器,上林苑9号综合箱变中压出线配电变压器,上林苑小区1号变压器,林业局,上林苑8号综合箱变中压出线配电变压器,10006|运西东配变综合,信用社变压器,10038|企业局综合,李安振,10067|邮政局生活小区综合,上林苑小区变压器,中国银行家属院,张新民,赵树奎(阳城酒店),","scope":"【影响街道/乡镇】高阳镇、迎宾路 【高危重要客户】无 【影响客户】企业局、人行家属院、、建筑公司、运输公司、邮局小区、正阳现代城、上林苑、农牧局、环保局","startTime":"2019-07-31 23:47:32","stopDate":"2019-08-01 01:20:00","orgNo":"1340613","typeCode":"电网故障停限电","poweroffArea":"【全线路停电】停10080|迎宾路西关小区综合,建筑公司家属楼,10009|运西配变综合,环保局,靳伯欣,上林苑小区2号变压器,林业局,高阳县正阳现代城2号综合出线配电变压器,10038|企业局综合,上林苑7号综合箱变中压出线配电变压器,上林苑4号综合出线配电变压器,高阳县正阳现代城四号变压器,上林苑8号综合箱变中压出线配电变压器,上林苑5号综合箱变中压出线配电变压器,SQ邮局小区2#综合,10090|邓联营综合,农业发展银行,10067|邮政局生活小区综合,上林苑综合中压出线配电变压器,10092|建筑公司综合,上林苑小区1号变压器,上林苑10号综合出线配电变压器,张新民,10073|人行家属院综合,李安振,高阳县正阳现代城3号综合出线配电变压器,上林苑9号综合箱变中压出线配电变压器,中国银行,上林苑小区变压器,赵树奎(阳城酒店),人民银行,10094|运输公司综合,高阳县邮电小区,朝阳毛纺厂,朝阳路路灯1号,中国银行家属院,信用社变压器,10006|运西东配变综合,钻床厂家属院,唐国东","poweroffReason":"【停电原因】由于汽车撞杆导致１１０ＫＶ沙窝变电站钻床厂５２８线路全线停电【变更送电】因抢修进度加快原因，送电时间由０８：００变更为０１：２０【发布渠道】通过９５５９８发布","powerTime":"2019-08-01 00:53:40","powerComm":"已送电","subsNo":"","lineNo":"","tgNo":"","tgName":null,"infoStatus":"1","orgName":"国网高阳县供电公司","typeName":null,"infoStatusName":null,"dateDay":null,"orgNos":null,"nowTime":null,"countyName":null,"streetName":null,"villageName":null,"roadName":null,"communityName":null,"tranName":null,"sdLineName":null,"cityCode":"1340613","cityName":"国网高阳县供电公司","provinceCode":null,"stopTime":"2019-08-01 01:20:00","powerType":"全部","powerOffArea":"【全线路停电】停10080|迎宾路西关小区综合,建筑公司家属楼,10009|运西配变综合,环保局,靳伯欣,上林苑小区2号变压器,林业局,高阳县正阳现代城2号综合出线配电变压器,10038|企业局综合,上林苑7号综合箱变中压出线配电变压器,上林苑4号综合出线配电变压器,高阳县正阳现代城四号变压器,上林苑8号综合箱变中压出线配电变压器,上林苑5号综合箱变中压出线配电变压器,SQ邮局小区2#综合,10090|邓联营综合,农业发展银行,10067|邮政局生活小区综合,上林苑综合中压出线配电变压器,10092|建筑公司综合,上林苑小区1号变压器,上林苑10号综合出线配电变压器,张新民,10073|人行家属院综合,李安振,高阳县正阳现代城3号综合出线配电变压器,上林苑9号综合箱变中压出线配电变压器,中国银行,上林苑小区变压器,赵树奎(阳城酒店),人民银行,10094|运输公司综合,高阳县邮电小区,朝阳毛纺厂,朝阳路路灯1号,中国银行家属院,信用社变压器,10006|运西东配变综合,钻床厂家属院,唐国东","powerOffReason":"【停电原因】由于汽车撞杆导致１１０ＫＶ沙窝变电站钻床厂５２８线路全线停电【变更送电】因抢修进度加快原因，送电时间由０８：００变更为０１：２０【发布渠道】通过９５５９８发布","powerOffId":"2019073113001132"},{"poweroffId":2019073113001129,"sgpoweroffId":null,"subsName":"","lineName":"10kV石佛511线","pubTranName":"石佛综合12台区变压器,石佛综合2台区变压器,石佛综合15号,石佛综合11台区变压器,石佛综合1台区变压器,石佛综合8台区变压器,石佛综合16号,石佛农业8台区【纯农排变】,","scope":"【影响街道/乡镇】石佛镇 【高危重要客户】无 【影响客户】石佛村","startTime":"2019-07-31 23:45:15","stopDate":"2019-08-01 02:00:00","orgNo":"1340606","typeCode":"电网故障停限电","poweroffArea":"【全线路停电】停石佛综合16号,石佛农业8台区【纯农排变】,石佛综合15号,石佛综合11台区变压器,石佛综合8台区变压器,石佛综合1台区变压器,石佛综合12台区变压器,石佛综合2台区变压器","poweroffReason":"【停电原因】由于站内开关掉闸导致石佛变电站１０ＫＶ石佛５１１线路全线停电 【变更送电】因抢修进度加快原因，送电时间由０８：００变更为０２：００ 【发布渠道】通过９５５９８发布","powerTime":"2019-08-01 01:48:39","powerComm":"已送电","subsNo":"","lineNo":"","tgNo":"","tgName":null,"infoStatus":"1","orgName":"国网安国市供电公司","typeName":null,"infoStatusName":null,"dateDay":null,"orgNos":null,"nowTime":null,"countyName":null,"streetName":null,"villageName":null,"roadName":null,"communityName":null,"tranName":null,"sdLineName":null,"cityCode":"1340606","cityName":"国网安国市供电公司","provinceCode":null,"stopTime":"2019-08-01 02:00:00","powerType":"全部","powerOffArea":"【全线路停电】停石佛综合16号,石佛农业8台区【纯农排变】,石佛综合15号,石佛综合11台区变压器,石佛综合8台区变压器,石佛综合1台区变压器,石佛综合12台区变压器,石佛综合2台区变压器","powerOffReason":"【停电原因】由于站内开关掉闸导致石佛变电站１０ＫＶ石佛５１１线路全线停电 【变更送电】因抢修进度加快原因，送电时间由０８：００变更为０２：００ 【发布渠道】通过９５５９８发布","powerOffId":"2019073113001129"}],"pageModel":{"pageNow":720,"totalCount":10973,"totalPage":1098,"tableRows":0,"pageCount":10,"beginCount":7190},"isExperi":"1"}