{"message":"","today":"2020-06-15","seleList":[{"poweroffId":2019073113001089,"sgpoweroffId":null,"subsName":"","lineName":"10kV516大北河线","pubTranName":"10kV516大北河线40600变压器,博野县泷腾帆布厂,10kV516大北河线16154变压器,10kV516大北河线李家陀西16031台区【纯农排变】,10kV516大北河线16012台区变压器,10kV516大北河线16044变压器【纯农排变】,博野县书聚输送设备厂,博野县鑫源养殖场,10kV516大北河线75335台区变压器,博野县立君橡胶制品厂,10kV516大北河线16059变压器,大北河毛纺厂,10kV516大北河线16110台区变压器,10kV516大北河线16113变压器【纯农排变】,10kV516大北河线16028变压器,大北河小区,10KV大北河516线路16527台区,10kV516大北河线李家沱42442台区变压器,10kV516大北河线东王各庄16016台区变压器,10kV516大北河线16025台区变压器【纯农排变】,10kV516大北河线16049变压器,10kV516大北河线37882台区变压器【纯农排变】,10kV516大北河线16111变压器,","scope":"【影响街道/乡镇】南小王乡【高危重要客户】无【影响客户】东王各庄、李家陀、小北河、大北河、西王各庄村","startTime":"2019-07-31 23:15:00","stopDate":"2019-08-01 17:00:00","orgNo":"1340608","typeCode":"电网故障停限电","poweroffArea":"【全线路停电】停10kV516大北河线16154变压器,大北河小区,10kV516大北河线75335台区变压器,10kV516大北河线16049变压器,10kV516大北河线李家陀西16031台区【纯农排变】,博野县鑫源养殖场,博野县泷腾帆布厂,10kV516大北河线16028变压器,博野县立君橡胶制品厂,博野县书聚输送设备厂,10kV516大北河线16044变压器【纯农排变】,10kV516大北河线37882台区变压器【纯农排变】,10kV516大北河线16111变压器,10kV516大北河线东王各庄16016台区变压器,10KV大北河516线路16527台区,10kV516大北河线16012台区变压器,大北河毛纺厂,10kV516大北河线16025台区变压器【纯农排变】,10kV516大北河线16113变压器【纯农排变】,10kV516大北河线40600变压器,10kV516大北河线李家沱42442台区变压器,10kV516大北河线16059变压器,10kV516大北河线16110台区变压器","poweroffReason":"【停电原因】由于站内开关掉闸导致３５ＫＶ南小王变电站大北河５１６线路全线路停电【变更送电】无【发布渠道】通过９５５９８发布","powerTime":"2019-08-01 16:46:38","powerComm":"已送电","subsNo":"","lineNo":"","tgNo":"","tgName":null,"infoStatus":"1","orgName":"国网博野县供电公司","typeName":null,"infoStatusName":null,"dateDay":null,"orgNos":null,"nowTime":null,"countyName":null,"streetName":null,"villageName":null,"roadName":null,"communityName":null,"tranName":null,"sdLineName":null,"cityCode":"1340608","cityName":"国网博野县供电公司","provinceCode":null,"stopTime":"2019-08-01 17:00:00","powerType":"全部","powerOffArea":"【全线路停电】停10kV516大北河线16154变压器,大北河小区,10kV516大北河线75335台区变压器,10kV516大北河线16049变压器,10kV516大北河线李家陀西16031台区【纯农排变】,博野县鑫源养殖场,博野县泷腾帆布厂,10kV516大北河线16028变压器,博野县立君橡胶制品厂,博野县书聚输送设备厂,10kV516大北河线16044变压器【纯农排变】,10kV516大北河线37882台区变压器【纯农排变】,10kV516大北河线16111变压器,10kV516大北河线东王各庄16016台区变压器,10KV大北河516线路16527台区,10kV516大北河线16012台区变压器,大北河毛纺厂,10kV516大北河线16025台区变压器【纯农排变】,10kV516大北河线16113变压器【纯农排变】,10kV516大北河线40600变压器,10kV516大北河线李家沱42442台区变压器,10kV516大北河线16059变压器,10kV516大北河线16110台区变压器","powerOffReason":"【停电原因】由于站内开关掉闸导致３５ＫＶ南小王变电站大北河５１６线路全线路停电【变更送电】无【发布渠道】通过９５５９８发布","powerOffId":"2019073113001089"},{"poweroffId":2019073113001086,"sgpoweroffId":null,"subsName":"","lineName":"10kV511潘营线","pubTranName":"朱坟,（2）6台区西营道,中国联合网络通信有限公司蠡县分公司变压器,蛮营道东,王辛庄综合6台区,林曲南1号,林曲北1号,王辛庄综合11台区,林曲北2号,客户投资_王辛庄综合3台区,蛮营道,加弹厂浇地,王辛庄综合13台区【冬季供暖设施】,王辛庄综合14台区,王辛庄综合7台区,王辛庄综合8台区,王辛庄综合12台区.,面粉厂,志敏房东,王辛庄综合2台区,板厂,渡槽西,潘西砖厂,王辛庄综合9台区,渡槽,王辛庄综合3台区,王辛庄综合1台区,林曲路南新变,王辛庄综合4台区,沟南,王辛庄综合5台区,加弹厂北,砖厂北,王辛庄村东,志敏房,王辛庄小学西,王辛庄综合10台区,林堡综合21台区,","scope":"【影响街道/乡镇】林堡乡【高危重要客户】无【影响客户】王辛庄村","startTime":"2019-07-31 23:37:11","stopDate":"2019-08-01 04:30:00","orgNo":"1340616","typeCode":"电网故障停限电","poweroffArea":"【全线路停电】停蛮营道,王辛庄综合8台区,王辛庄综合12台区.,王辛庄综合7台区,面粉厂,志敏房东,王辛庄综合2台区,板厂,渡槽西,潘西砖厂,王辛庄综合9台区,渡槽,王辛庄综合3台区,王辛庄综合1台区,林曲路南新变,（2）6台区西营道,中国联合网络通信有限公司蠡县分公司变压器,蛮营道东,王辛庄综合6台区,沟南,王辛庄综合5台区,加弹厂北,砖厂北,王辛庄村东,志敏房,王辛庄小学西,王辛庄综合10台区,王辛庄综合4台区,加弹厂浇地,林曲南1号,林曲北1号,王辛庄综合11台区,林曲北2号,朱坟,客户投资_王辛庄综合3台区,王辛庄综合13台区【冬季供暖设施】,王辛庄综合14台区,林堡综合21台区","poweroffReason":"【停电原因】由于３５ＫＶ刘林３１４开关掉闸导致３５ＫＶ林堡变电站１０ＫＶ潘营５１１线路全线停电【变更送电】因抢修进度加快原因，送电时间由２３：００变更为０４：３０【发布渠道】通过９５５９８发布","powerTime":"2019-08-01 03:45:17","powerComm":"已送电","subsNo":"","lineNo":"","tgNo":"","tgName":null,"infoStatus":"1","orgName":"国网蠡县供电公司","typeName":null,"infoStatusName":null,"dateDay":null,"orgNos":null,"nowTime":null,"countyName":null,"streetName":null,"villageName":null,"roadName":null,"communityName":null,"tranName":null,"sdLineName":null,"cityCode":"1340616","cityName":"国网蠡县供电公司","provinceCode":null,"stopTime":"2019-08-01 04:30:00","powerType":"全部","powerOffArea":"【全线路停电】停蛮营道,王辛庄综合8台区,王辛庄综合12台区.,王辛庄综合7台区,面粉厂,志敏房东,王辛庄综合2台区,板厂,渡槽西,潘西砖厂,王辛庄综合9台区,渡槽,王辛庄综合3台区,王辛庄综合1台区,林曲路南新变,（2）6台区西营道,中国联合网络通信有限公司蠡县分公司变压器,蛮营道东,王辛庄综合6台区,沟南,王辛庄综合5台区,加弹厂北,砖厂北,王辛庄村东,志敏房,王辛庄小学西,王辛庄综合10台区,王辛庄综合4台区,加弹厂浇地,林曲南1号,林曲北1号,王辛庄综合11台区,林曲北2号,朱坟,客户投资_王辛庄综合3台区,王辛庄综合13台区【冬季供暖设施】,王辛庄综合14台区,林堡综合21台区","powerOffReason":"【停电原因】由于３５ＫＶ刘林３１４开关掉闸导致３５ＫＶ林堡变电站１０ＫＶ潘营５１１线路全线停电【变更送电】因抢修进度加快原因，送电时间由２３：００变更为０４：３０【发布渠道】通过９５５９８发布","powerOffId":"2019073113001086"},{"poweroffId":2019073113001084,"sgpoweroffId":null,"subsName":"","lineName":"尚家柳线523","pubTranName":"西河屯村北,西河屯农业(50),西河10#新增综合,西河8#农排【纯农排变】,高阳县万强绵羊饲养有限公司变压器,西河4#村西综合,西河屯2#综合,政府街路灯,西河一中队(西),软化毛厂,解庄2号农业【纯农排变】,高阳县佳园纺织印染有限公司,富融染织有限公司,东河3#农排【纯农排变】,西河6#农排【纯农排变】,高阳县晋庄镇南尖窝村委会变压器,西河屯农业(100),高阳县晋庄镇解家庄村村民委员会一变压器,东河2#农排【纯农排变】,西河3#村西北综合,骆虎变压器,西河1#农排【纯农排变】,解庄2#东南综合,骆锁,保定爱尔棉纺织有限公司,吴庄砖厂,雪莲毛巾厂,中国石油第二十五加油站,公用事业局,吴庄3号农业【纯农排变】,西河屯1#综合,西河5#农排【纯农排变】,高阳县绿洲染织有限公司变压器,南尖农排9#【纯农排变】,武装部果园,中国石油化工股份有限公司河北高阳石油分公司变压器,中国石油天然气股份有限公司华北油田分公司变压器,西河屯农业,吴庄5号农业【纯农排变】,完达山乳品公司,解庄1#东北综合,吴庄砖厂变压器,西河屯3号新增综合,东王带锯厂,西河7#农排【纯农排变】,西河一中队,腾飞化工厂,高阳县晋庄镇西河屯村村民委员会变压器,梁少军,西河8#东南综合,高阳县晋庄镇西河村村民委员会变压器,西河9#农排【纯农排变】,高阳县南蒲口乡陶口店村一号变压器,高阳县天鸿纺织品有限公司,高阳县雪莲纺织品有限公司变压器,保定美森乳业有限公司变压器,高阳县晋庄镇东河村村民委员会一变压器,西河11号村大队综合,张保中(史建军),高阳县晋庄镇西河村民委员会三变压器,西河2#村北综合,李傻预制板厂,西河4#农排【纯农排变】,西河12#农排【纯农排变】,北方伞业,西河7#村南综合,东河1#农排【纯农排变】,西河11#农排【纯农排变】,西河3#农排【纯农排变】,西河2#农排【纯农排变】,解庄3号新增综合,西河10#农排【纯农排变】,赵小纺,西河9#西北角综合,高阳县晋庄镇解家庄村村民委员会二变压器,解庄1号农业【纯农排变】,高阳县晋庄镇西河屯村委会二变压器,南尖农排10#【纯农排变】,高阳县凯天巾被有限公司,西河5#村南综合,吴庄4号农业【纯农排变】,08066|西陶口农业1【纯农排变】,高阳县晋庄镇东河村村民委员会二变压器,中国石油天然气股份有限公司河北保定销售分公司第二十五加油站变压器,高阳县凌波冷库变压器,东河4#农排【纯农排变】,高阳县鑫海纺织有限责任公司,西河6#东北角综合,高阳县南蒲口乡陶口店村贰变压器,东王农业,西河1#村里综合,高阳县晋庄镇西河村民委员会二变压器,","scope":"【影响街道/乡镇】晋庄乡 【高危重要客户】无 【影响客户】解庄、西河、西河屯、东河、吴庄、西陶口","startTime":"2019-07-31 23:37:59","stopDate":"2019-08-01 04:00:00","orgNo":"1340613","typeCode":"电网故障停限电","poweroffArea":"【全线路停电】停西河屯农业(50),西河6#东北角综合,解庄2#东南综合,赵小纺,解庄2号农业【纯农排变】,高阳县万强绵羊饲养有限公司变压器,西河9#西北角综合,高阳县佳园纺织印染有限公司,西河7#农排【纯农排变】,富融染织有限公司,东河3#农排【纯农排变】,完达山乳品公司,西河1#农排【纯农排变】,西河11号村大队综合,西河6#农排【纯农排变】,西河8#东南综合,西河4#村西综合,高阳县晋庄镇西河村村民委员会变压器,高阳县晋庄镇南尖窝村委会变压器,西河屯村北,西河屯2#综合,西河9#农排【纯农排变】,东河2#农排【纯农排变】,高阳县南蒲口乡陶口店村一号变压器,西河3#村西北综合,高阳县天鸿纺织品有限公司,政府街路灯,高阳县雪莲纺织品有限公司变压器,高阳县晋庄镇东河村村民委员会一变压器,高阳县晋庄镇解家庄村村民委员会二变压器,骆虎变压器,西河8#农排【纯农排变】,西河4#农排【纯农排变】,西河12#农排【纯农排变】,南尖农排9#【纯农排变】,东王带锯厂,骆锁,保定爱尔棉纺织有限公司,西河一中队,吴庄砖厂,李傻预制板厂,西河屯农业(100),腾飞化工厂,雪莲毛巾厂,西河屯3号新增综合,南尖农排10#【纯农排变】,西河7#村南综合,北方伞业,东河1#农排【纯农排变】,中国石油第二十五加油站,公用事业局,解庄1#东北综合,吴庄3号农业【纯农排变】,吴庄砖厂变压器,高阳县晋庄镇西河屯村委会二变压器,西河屯1#综合,吴庄4号农业【纯农排变】,西河5#农排【纯农排变】,西河3#农排【纯农排变】,解庄1号农业【纯农排变】,高阳县绿洲染织有限公司变压器,西河一中队(西),软化毛厂,西河5#村南综合,高阳县晋庄镇解家庄村村民委员会一变压器,中国石油天然气股份有限公司河北保定销售分公司第二十五加油站变压器,西河2#农排【纯农排变】,保定美森乳业有限公司变压器,高阳县凌波冷库变压器,西河11#农排【纯农排变】,高阳县凯天巾被有限公司,东王农业,武装部果园,西河1#村里综合,西河10#新增综合,高阳县晋庄镇西河村民委员会二变压器,中国石油化工股份有限公司河北高阳石油分公司变压器,梁少军,张保中(史建军),高阳县晋庄镇东河村村民委员会二变压器,东河4#农排【纯农排变】,08066|西陶口农业1【纯农排变】,高阳县晋庄镇西河村民委员会三变压器,西河2#村北综合,中国石油天然气股份有限公司华北油田分公司变压器,解庄3号新增综合,高阳县晋庄镇西河屯村村民委员会变压器,高阳县鑫海纺织有限责任公司,西河屯农业,西河10#农排【纯农排变】,高阳县南蒲口乡陶口店村贰变压器,吴庄5号农业【纯农排变】","poweroffReason":"【停电原因】由于汽车撞杆导致１１０ＫＶ沙窝变电站尚家柳５２３线路全线停电【变更送电】因抢修进度加快原因，送电时间由０８：００变更为０４：００【发布渠道】通过９５５９８发布","powerTime":"2019-08-01 03:31:08","powerComm":"已送电","subsNo":"","lineNo":"","tgNo":"","tgName":null,"infoStatus":"1","orgName":"国网高阳县供电公司","typeName":null,"infoStatusName":null,"dateDay":null,"orgNos":null,"nowTime":null,"countyName":null,"streetName":null,"villageName":null,"roadName":null,"communityName":null,"tranName":null,"sdLineName":null,"cityCode":"1340613","cityName":"国网高阳县供电公司","provinceCode":null,"stopTime":"2019-08-01 04:00:00","powerType":"全部","powerOffArea":"【全线路停电】停西河屯农业(50),西河6#东北角综合,解庄2#东南综合,赵小纺,解庄2号农业【纯农排变】,高阳县万强绵羊饲养有限公司变压器,西河9#西北角综合,高阳县佳园纺织印染有限公司,西河7#农排【纯农排变】,富融染织有限公司,东河3#农排【纯农排变】,完达山乳品公司,西河1#农排【纯农排变】,西河11号村大队综合,西河6#农排【纯农排变】,西河8#东南综合,西河4#村西综合,高阳县晋庄镇西河村村民委员会变压器,高阳县晋庄镇南尖窝村委会变压器,西河屯村北,西河屯2#综合,西河9#农排【纯农排变】,东河2#农排【纯农排变】,高阳县南蒲口乡陶口店村一号变压器,西河3#村西北综合,高阳县天鸿纺织品有限公司,政府街路灯,高阳县雪莲纺织品有限公司变压器,高阳县晋庄镇东河村村民委员会一变压器,高阳县晋庄镇解家庄村村民委员会二变压器,骆虎变压器,西河8#农排【纯农排变】,西河4#农排【纯农排变】,西河12#农排【纯农排变】,南尖农排9#【纯农排变】,东王带锯厂,骆锁,保定爱尔棉纺织有限公司,西河一中队,吴庄砖厂,李傻预制板厂,西河屯农业(100),腾飞化工厂,雪莲毛巾厂,西河屯3号新增综合,南尖农排10#【纯农排变】,西河7#村南综合,北方伞业,东河1#农排【纯农排变】,中国石油第二十五加油站,公用事业局,解庄1#东北综合,吴庄3号农业【纯农排变】,吴庄砖厂变压器,高阳县晋庄镇西河屯村委会二变压器,西河屯1#综合,吴庄4号农业【纯农排变】,西河5#农排【纯农排变】,西河3#农排【纯农排变】,解庄1号农业【纯农排变】,高阳县绿洲染织有限公司变压器,西河一中队(西),软化毛厂,西河5#村南综合,高阳县晋庄镇解家庄村村民委员会一变压器,中国石油天然气股份有限公司河北保定销售分公司第二十五加油站变压器,西河2#农排【纯农排变】,保定美森乳业有限公司变压器,高阳县凌波冷库变压器,西河11#农排【纯农排变】,高阳县凯天巾被有限公司,东王农业,武装部果园,西河1#村里综合,西河10#新增综合,高阳县晋庄镇西河村民委员会二变压器,中国石油化工股份有限公司河北高阳石油分公司变压器,梁少军,张保中(史建军),高阳县晋庄镇东河村村民委员会二变压器,东河4#农排【纯农排变】,08066|西陶口农业1【纯农排变】,高阳县晋庄镇西河村民委员会三变压器,西河2#村北综合,中国石油天然气股份有限公司华北油田分公司变压器,解庄3号新增综合,高阳县晋庄镇西河屯村村民委员会变压器,高阳县鑫海纺织有限责任公司,西河屯农业,西河10#农排【纯农排变】,高阳县南蒲口乡陶口店村贰变压器,吴庄5号农业【纯农排变】","powerOffReason":"【停电原因】由于汽车撞杆导致１１０ＫＶ沙窝变电站尚家柳５２３线路全线停电【变更送电】因抢修进度加快原因，送电时间由０８：００变更为０４：００【发布渠道】通过９５５９８发布","powerOffId":"2019073113001084"},{"poweroffId":2019073113001081,"sgpoweroffId":null,"subsName":"","lineName":"10kV514董庄线","pubTranName":"10kV514董庄线34960台区变压器,0469414051-河北天成电工有限公司-专变-46807523-河北天成电工有限公司,10kV514董庄线51079台区变压器,10kV514董庄线14028台区变压器,10kV514董庄线14032。台区变压器,10kV514董庄线14037台区变压器,10kV514董庄线14030台区变压器,10kV514董庄线14154台区变压器,中建路桥集团有限公司,10kV514董庄线14029台区变压器,河北现代电力变压器有限公司,10kV514董庄线14133台区变压器。,10kV514董庄线41940台区变压器,南小王机站面粉厂,10kV514董庄线35425台区变压器,10kV514董庄线14042台区变压器,南小王村西新增变压器,保定恒达泵业有限公司,10kV514董庄线14033台区变压器,10kV514董庄线14119台区变压器【纯农排变】,10kV514董庄线2884台区变压器,","scope":"【影响街道/乡镇】南小王乡【高危重要客户】无【影响客户】林庄、寇庄、南小王、董庄","startTime":"2019-07-31 23:15:00","stopDate":"2019-08-01 17:00:00","orgNo":"1340608","typeCode":"电网故障停限电","poweroffArea":"【全线路停电】停南小王机站面粉厂,0469413700-河北恒源泵业有限公司-专变-46807517-河北恒源泵业有限公司,河北现代电力变压器有限公司,中建路桥集团有限公司,10kV514董庄线14077台区变压器,10kV514董庄线14132台区变压器【纯农排变】,10kV514董庄线14154台区变压器,10kV514董庄线14044台区变压器【纯农排变】,10kV514董庄线14119台区变压器【纯农排变】,南小王村东新增变压器,10kV514董庄线2884台区变压器,河北省博野县光明线材,10kV514董庄线2883台区变压器,10kV514董庄线35426台区变压器,10kV514董庄线14056台区变压器,10kV514董庄线14036台区变压器,保定恒达泵业有限公司,10kV514董庄线14035台区变压器,10kV514董庄线35425台区变压器,南小王乡政府,10kV514董庄线15754台区变压器,10kV514董庄线51079台区变压器,10kV514董庄线14053台区变压器,10kV514董庄线41940台区变压器,10kV514董庄线14030台区变压器,10kV514董庄线14033台区变压器,10kV514董庄线14148台区变压器,10kV514董庄线14049台区变压器【纯农排变】,10kV514董庄线34953台区变压器【纯农排变】,10kV514董庄线14147台区变压器【纯农排变】,10kV514董庄线14037台区变压器,10kV514董庄线34961台区变压器【纯农排变】,10kV514董庄线14060台区变压器,10kV514董庄线15760台区变压器,博野县爱民物业有限公司,10kV514董庄线14137台区变压器,10kV514董庄线14032。台区变压器,10kV514董庄线14042台区变压器,10kV514董庄线41947台区变压器,10kV514董庄线34960台区变压器,10kV514董庄线14061台区变压器,10kV514董庄线14029台区变压器,10kV514董庄线14133台区变压器。,10kV514董庄线14028台区变压器,10kV514董庄线41943台区变压器,0469414051-河北天成电工有限公司-专变-46807523-河北天成电工有限公司,南小王村西新增变压器,10kV514董庄线35421台区变压器","poweroffReason":"【停电原因】由于站内开关掉闸导致３５ＫＶ南小王变电站董庄５１４线路全线停电【变更送电】无【发布渠道】通过９５５９８发布","powerTime":"2019-08-01 16:39:00","powerComm":"已送电","subsNo":"","lineNo":"","tgNo":"","tgName":null,"infoStatus":"1","orgName":"国网博野县供电公司","typeName":null,"infoStatusName":null,"dateDay":null,"orgNos":null,"nowTime":null,"countyName":null,"streetName":null,"villageName":null,"roadName":null,"communityName":null,"tranName":null,"sdLineName":null,"cityCode":"1340608","cityName":"国网博野县供电公司","provinceCode":null,"stopTime":"2019-08-01 17:00:00","powerType":"全部","powerOffArea":"【全线路停电】停南小王机站面粉厂,0469413700-河北恒源泵业有限公司-专变-46807517-河北恒源泵业有限公司,河北现代电力变压器有限公司,中建路桥集团有限公司,10kV514董庄线14077台区变压器,10kV514董庄线14132台区变压器【纯农排变】,10kV514董庄线14154台区变压器,10kV514董庄线14044台区变压器【纯农排变】,10kV514董庄线14119台区变压器【纯农排变】,南小王村东新增变压器,10kV514董庄线2884台区变压器,河北省博野县光明线材,10kV514董庄线2883台区变压器,10kV514董庄线35426台区变压器,10kV514董庄线14056台区变压器,10kV514董庄线14036台区变压器,保定恒达泵业有限公司,10kV514董庄线14035台区变压器,10kV514董庄线35425台区变压器,南小王乡政府,10kV514董庄线15754台区变压器,10kV514董庄线51079台区变压器,10kV514董庄线14053台区变压器,10kV514董庄线41940台区变压器,10kV514董庄线14030台区变压器,10kV514董庄线14033台区变压器,10kV514董庄线14148台区变压器,10kV514董庄线14049台区变压器【纯农排变】,10kV514董庄线34953台区变压器【纯农排变】,10kV514董庄线14147台区变压器【纯农排变】,10kV514董庄线14037台区变压器,10kV514董庄线34961台区变压器【纯农排变】,10kV514董庄线14060台区变压器,10kV514董庄线15760台区变压器,博野县爱民物业有限公司,10kV514董庄线14137台区变压器,10kV514董庄线14032。台区变压器,10kV514董庄线14042台区变压器,10kV514董庄线41947台区变压器,10kV514董庄线34960台区变压器,10kV514董庄线14061台区变压器,10kV514董庄线14029台区变压器,10kV514董庄线14133台区变压器。,10kV514董庄线14028台区变压器,10kV514董庄线41943台区变压器,0469414051-河北天成电工有限公司-专变-46807523-河北天成电工有限公司,南小王村西新增变压器,10kV514董庄线35421台区变压器","powerOffReason":"【停电原因】由于站内开关掉闸导致３５ＫＶ南小王变电站董庄５１４线路全线停电【变更送电】无【发布渠道】通过９５５９８发布","powerOffId":"2019073113001081"},{"poweroffId":2019073113001076,"sgpoweroffId":null,"subsName":"","lineName":"10kV513三阳庄线","pubTranName":"10kV513三阳庄线25032台区变压器【纯农排变】,10kV513三阳庄线25021台区变压器【纯农排变】,10kV513三阳庄线25040台区变压器,10kV513三阳庄线25041台区变压器,10kV513三阳庄线25033台区变压器,10kV513三阳庄线25020台区变压器【纯农排变】,10kV513三阳庄线25039台区变压器,10kV513三阳庄线25034台区变压器【纯农排变】,10kV513三阳庄线17781台区变压器,10kV513三阳庄线25035台区变压器【纯农排变】,10kV513三阳庄线00483台区变压器,10kV513三阳庄线25038台区变压器,10kV513三阳庄线25024台区变压器【纯农排变】,10kV513三阳庄线25022台区变压器,10kV513三阳庄线25031台区变压器【纯农排变】,10kV513三阳庄线25036台区变压器,10kV513三阳庄线25030台区变压器【纯农排变】,10kV513三阳庄线25037台区变压器,10kV513三阳庄线25023台区变压器【纯农排变】,10kV513三阳庄线25029台区变压器【纯农排变】,","scope":"【影响街道/乡镇】大程委镇【高危重要客户】无【影响客户】北阳庄、中阳庄、南阳庄、凤凰堡、凤凰庄、耿庄","startTime":"2019-07-31 23:20:00","stopDate":"2019-08-01 01:40:00","orgNo":"1340608","typeCode":"电网故障停限电","poweroffArea":"【全线路停电】停10kV513三阳庄线00483台区变压器,10kV513三阳庄线17781台区变压器,10kV513三阳庄线25020台区变压器【纯农排变】,10kV513三阳庄线25021台区变压器【纯农排变】,10kV513三阳庄线25022台区变压器,10kV513三阳庄线25023台区变压器【纯农排变】,10kV513三阳庄线25024台区变压器【纯农排变】,10kV513三阳庄线25029台区变压器【纯农排变】,10kV513三阳庄线25030台区变压器【纯农排变】,10kV513三阳庄线25031台区变压器【纯农排变】,10kV513三阳庄线25032台区变压器【纯农排变】,10kV513三阳庄线25033台区变压器,10kV513三阳庄线25034台区变压器【纯农排变】,10kV513三阳庄线25035台区变压器【纯农排变】,10kV513三阳庄线25036台区变压器,10kV513三阳庄线25037台区变压器,10kV513三阳庄线25038台区变压器,10kV513三阳庄线25039台区变压器,10kV513三阳庄线25040台区变压器,10kV513三阳庄线25041台区变压器","poweroffReason":"【停电原因】由于站内开关跳闸导致１１０ＫＶ程委变电站三阳庄５１３线路全线停电【变更送电】因抢修进度加快原因，送电时间由１７：００变更为０１：４０【发布渠道】通过９５５９８发布","powerTime":"2019-08-01 01:13:00","powerComm":"已送电","subsNo":"","lineNo":"","tgNo":"","tgName":null,"infoStatus":"1","orgName":"国网博野县供电公司","typeName":null,"infoStatusName":null,"dateDay":null,"orgNos":null,"nowTime":null,"countyName":null,"streetName":null,"villageName":null,"roadName":null,"communityName":null,"tranName":null,"sdLineName":null,"cityCode":"1340608","cityName":"国网博野县供电公司","provinceCode":null,"stopTime":"2019-08-01 01:40:00","powerType":"全部","powerOffArea":"【全线路停电】停10kV513三阳庄线00483台区变压器,10kV513三阳庄线17781台区变压器,10kV513三阳庄线25020台区变压器【纯农排变】,10kV513三阳庄线25021台区变压器【纯农排变】,10kV513三阳庄线25022台区变压器,10kV513三阳庄线25023台区变压器【纯农排变】,10kV513三阳庄线25024台区变压器【纯农排变】,10kV513三阳庄线25029台区变压器【纯农排变】,10kV513三阳庄线25030台区变压器【纯农排变】,10kV513三阳庄线25031台区变压器【纯农排变】,10kV513三阳庄线25032台区变压器【纯农排变】,10kV513三阳庄线25033台区变压器,10kV513三阳庄线25034台区变压器【纯农排变】,10kV513三阳庄线25035台区变压器【纯农排变】,10kV513三阳庄线25036台区变压器,10kV513三阳庄线25037台区变压器,10kV513三阳庄线25038台区变压器,10kV513三阳庄线25039台区变压器,10kV513三阳庄线25040台区变压器,10kV513三阳庄线25041台区变压器","powerOffReason":"【停电原因】由于站内开关跳闸导致１１０ＫＶ程委变电站三阳庄５１３线路全线停电【变更送电】因抢修进度加快原因，送电时间由１７：００变更为０１：４０【发布渠道】通过９５５９８发布","powerOffId":"2019073113001076"},{"poweroffId":2019073113001071,"sgpoweroffId":null,"subsName":"","lineName":"大午园区552","pubTranName":"北孤营3号【纯农排变】,保定平易路石油天然气配件有限公司,徐水县交通运输局,南孤庄营村18号,农场一分场3号,河北徐水新洋丰肥业有限公司,河北大午农牧集团种禽有限公司,中孤庄营村9号,河北大午集团种禽有限公司,河北大午农牧集团种禽有限公司变压器,变压器,保定市徐水区住房和城乡建设局,徐水县平易路石油天然气配件有限公司2号,徐水县平易路石油天然气配件有限公司3号,河北柏联建筑材料有限公司,徐水县平易路石油天然气配件有限公司1号,徐水县平易路石油天然气配件有限公司,河北大午农牧集团有限公司10号,中孤庄营3号,河北科华防静电地板制造有限公司,河北大午农牧集团饲料有限公司,保定发达彩钢钢构有限公司,农场一队2号,徐水县中洲自来水供应有限公司,大午集团饲料公司15号,保定市宏昌电器有限公司,农场一对7号,南孤庄营6号【纯农排变】,","scope":"【影响街道/乡镇】安肃镇 【高危重要客户】无 【影响客户】中孤庄营、南孤庄营","startTime":"2019-07-31 23:25:31","stopDate":"2019-08-01 02:30:00","orgNo":"1340605","typeCode":"电网故障停限电","poweroffArea":"【全线路停电】停中孤庄营村9号,河北大午集团种禽有限公司,河北大午农牧集团种禽有限公司变压器,变压器,保定市徐水区住房和城乡建设局,徐水县平易路石油天然气配件有限公司2号,徐水县平易路石油天然气配件有限公司3号,河北柏联建筑材料有限公司,北孤营3号【纯农排变】,保定平易路石油天然气配件有限公司,徐水县交通运输局,南孤庄营村18号,农场一分场3号,河北徐水新洋丰肥业有限公司,河北大午农牧集团种禽有限公司,徐水县平易路石油天然气配件有限公司1号,南孤庄营6号【纯农排变】,徐水县平易路石油天然气配件有限公司,河北大午农牧集团有限公司10号,中孤庄营3号,河北科华防静电地板制造有限公司,河北大午农牧集团饲料有限公司,保定发达彩钢钢构有限公司,农场一队2号,徐水县中洲自来水供应有限公司,大午集团饲料公司15号,保定市宏昌电器有限公司,农场一对7号","poweroffReason":"【停电原因】由于Ｂ相接地导致２２０ＫＶ张丰变电站大午园区５５２线路全线停电 【变更送电】因抢修进度加快原因，送电时间由０９:００变更为０２:３０ 【发布渠道】通过９５５９８发布","powerTime":"2019-08-01 02:00:22","powerComm":"已送电","subsNo":"","lineNo":"","tgNo":"","tgName":null,"infoStatus":"1","orgName":"国网徐水县供电公司","typeName":null,"infoStatusName":null,"dateDay":null,"orgNos":null,"nowTime":null,"countyName":null,"streetName":null,"villageName":null,"roadName":null,"communityName":null,"tranName":null,"sdLineName":null,"cityCode":"1340605","cityName":"国网徐水县供电公司","provinceCode":null,"stopTime":"2019-08-01 02:30:00","powerType":"全部","powerOffArea":"【全线路停电】停中孤庄营村9号,河北大午集团种禽有限公司,河北大午农牧集团种禽有限公司变压器,变压器,保定市徐水区住房和城乡建设局,徐水县平易路石油天然气配件有限公司2号,徐水县平易路石油天然气配件有限公司3号,河北柏联建筑材料有限公司,北孤营3号【纯农排变】,保定平易路石油天然气配件有限公司,徐水县交通运输局,南孤庄营村18号,农场一分场3号,河北徐水新洋丰肥业有限公司,河北大午农牧集团种禽有限公司,徐水县平易路石油天然气配件有限公司1号,南孤庄营6号【纯农排变】,徐水县平易路石油天然气配件有限公司,河北大午农牧集团有限公司10号,中孤庄营3号,河北科华防静电地板制造有限公司,河北大午农牧集团饲料有限公司,保定发达彩钢钢构有限公司,农场一队2号,徐水县中洲自来水供应有限公司,大午集团饲料公司15号,保定市宏昌电器有限公司,农场一对7号","powerOffReason":"【停电原因】由于Ｂ相接地导致２２０ＫＶ张丰变电站大午园区５５２线路全线停电 【变更送电】因抢修进度加快原因，送电时间由０９:００变更为０２:３０ 【发布渠道】通过９５５９８发布","powerOffId":"2019073113001071"},{"poweroffId":2019073113001070,"sgpoweroffId":null,"subsName":"","lineName":"10kV宋村线513","pubTranName":"2南王庄外21【纯农排变】,2南蛮营外3【纯农排变】,1南宋村内7,2南蛮营外18【纯农排变】,南宋西外3,1南蛮营内3,南宋村外5【纯农排变】,南宋村外4【纯农排变】,南宋村外2【纯农排变】,南蛮营内4,东风常乐暖炉厂,蛮营印刷厂,2南蛮营外15【纯农排变】,南蛮营外8【纯农排变】,南蛮营外9【纯农排变】,南蛮营外7【纯农排变】,南蛮营村北面粉厂,1南蛮营内9,南蛮营二板厂,予制板厂,2南王庄外23【纯农排变】,南蛮营外13【纯农排变】,南蛮营村委会,2南蛮营外19【纯农排变】,1南蛮营内13,南蛮营村内2,保定虹光印刷有限公司,1南蛮营内8,南王庄外19【纯农排变】,南宋外9【纯农排变】,南蛮营外6【纯农排变】,南宋村外7【纯农排变】,1南宋村内10,1南蛮营内6,2南王庄外22【纯农排变】,南蛮营外12【纯农排变】,1南蛮营内12,2南宋村外18,南蛮营外5【纯农排变】,清苑县吉乾果蔬专业合作社,南蛮营外11【纯农排变】,2南蛮营外16【纯农排变】,南宋村东军瓜果市场,2南王庄外20【纯农排变】,1南蛮营内7,南蛮营霞光印刷厂,南蛮营外10【纯农排变】,清苑县建民挂车制造有限公司,2南蛮营外17【纯农排变】,南蛮营外4【纯农排变】,南王庄外18【纯农排变】,清苑县南蛮营大强冷库,南宋村外8【纯农排变】,1南蛮营新民居内10,河北省清苑县永利化工有限公司,0648419790-保定市俊达纺织有限公司-专变-174563031-清苑县金鑫棉织厂,南蛮营小学配变,1南蛮营内11,南宋外6【纯农排变】,南蛮营内5区,南蛮营内1,清苑县张雪水泥砖厂,清苑县伟力机械制造有限公司,0648419790-保定市俊达纺织有限公司-专变-174565455-清苑县金鑫棉织厂,2南蛮营外1【纯农排变】,2南蛮营外2【纯农排变】,保定虹光印刷有限公司2,2南蛮营外14【纯农排变】,1南蛮营内14,南宋村面粉厂,清苑县银河合线厂,南蛮营彦凯印刷厂,南王庄东风锅炉厂,","scope":"【影响街道/乡镇】东吕乡 【高危重要客户】无 【影响客户】南蛮营、南宋（南宋村）","startTime":"2019-07-31 23:32:37","stopDate":"2019-08-01 06:00:00","orgNo":"1340618","typeCode":"电网故障停限电","poweroffArea":"【全线路停电】停南蛮营外11【纯农排变】,南王庄外19【纯农排变】,南宋外9【纯农排变】,南蛮营外6【纯农排变】,南宋村外7【纯农排变】,1南宋村内10,1南蛮营内6,2南王庄外22【纯农排变】,南蛮营外12【纯农排变】,1南蛮营内12,2南宋村外18,南蛮营外5【纯农排变】,清苑县吉乾果蔬专业合作社,2南蛮营外16【纯农排变】,南宋村东军瓜果市场,2南蛮营外19【纯农排变】,1南蛮营内13,南蛮营村内2,保定虹光印刷有限公司,1南蛮营内8,2南王庄外20【纯农排变】,1南蛮营内7,南蛮营霞光印刷厂,南蛮营外10【纯农排变】,清苑县建民挂车制造有限公司,2南蛮营外17【纯农排变】,南蛮营外4【纯农排变】,南王庄外18【纯农排变】,清苑县南蛮营大强冷库,南宋村外8【纯农排变】,1南蛮营新民居内10,河北省清苑县永利化工有限公司,0648419790-保定市俊达纺织有限公司-专变-174563031-清苑县金鑫棉织厂,南蛮营小学配变,1南蛮营内11,南宋外6【纯农排变】,南蛮营内5区,南蛮营内1,清苑县张雪水泥砖厂,清苑县伟力机械制造有限公司,0648419790-保定市俊达纺织有限公司-专变-174565455-清苑县金鑫棉织厂,2南蛮营外1【纯农排变】,2南蛮营外2【纯农排变】,保定虹光印刷有限公司2,2南蛮营外14【纯农排变】,1南蛮营内14,南宋村面粉厂,清苑县银河合线厂,南蛮营彦凯印刷厂,南王庄东风锅炉厂,南蛮营内4,东风常乐暖炉厂,蛮营印刷厂,2南蛮营外15【纯农排变】,南蛮营外8【纯农排变】,南蛮营外9【纯农排变】,南蛮营外7【纯农排变】,南蛮营村北面粉厂,1南蛮营内9,南蛮营二板厂,予制板厂,2南王庄外23【纯农排变】,南蛮营外13【纯农排变】,南蛮营村委会,2南王庄外21【纯农排变】,2南蛮营外3【纯农排变】,1南宋村内7,2南蛮营外18【纯农排变】,南宋西外3,1南蛮营内3,南宋村外5【纯农排变】,南宋村外4【纯农排变】,南宋村外2【纯农排变】","poweroffReason":"【停电原因】由于主干８２号杆Ｔ８号杆树倒砸线导致３５ＫＶ富王庄变电站１０ＫＶ宋村线５１３线路全线停电 【变更送电】因抢修进度加快原因，送电时间由０９：００变更为０６：００ 【发布渠道】通过９５５９８发布","powerTime":"2019-08-01 05:30:10","powerComm":"冯斌通知已送电","subsNo":"","lineNo":"","tgNo":"","tgName":null,"infoStatus":"1","orgName":"国网清苑县供电公司","typeName":null,"infoStatusName":null,"dateDay":null,"orgNos":null,"nowTime":null,"countyName":null,"streetName":null,"villageName":null,"roadName":null,"communityName":null,"tranName":null,"sdLineName":null,"cityCode":"1340618","cityName":"国网清苑县供电公司","provinceCode":null,"stopTime":"2019-08-01 06:00:00","powerType":"全部","powerOffArea":"【全线路停电】停南蛮营外11【纯农排变】,南王庄外19【纯农排变】,南宋外9【纯农排变】,南蛮营外6【纯农排变】,南宋村外7【纯农排变】,1南宋村内10,1南蛮营内6,2南王庄外22【纯农排变】,南蛮营外12【纯农排变】,1南蛮营内12,2南宋村外18,南蛮营外5【纯农排变】,清苑县吉乾果蔬专业合作社,2南蛮营外16【纯农排变】,南宋村东军瓜果市场,2南蛮营外19【纯农排变】,1南蛮营内13,南蛮营村内2,保定虹光印刷有限公司,1南蛮营内8,2南王庄外20【纯农排变】,1南蛮营内7,南蛮营霞光印刷厂,南蛮营外10【纯农排变】,清苑县建民挂车制造有限公司,2南蛮营外17【纯农排变】,南蛮营外4【纯农排变】,南王庄外18【纯农排变】,清苑县南蛮营大强冷库,南宋村外8【纯农排变】,1南蛮营新民居内10,河北省清苑县永利化工有限公司,0648419790-保定市俊达纺织有限公司-专变-174563031-清苑县金鑫棉织厂,南蛮营小学配变,1南蛮营内11,南宋外6【纯农排变】,南蛮营内5区,南蛮营内1,清苑县张雪水泥砖厂,清苑县伟力机械制造有限公司,0648419790-保定市俊达纺织有限公司-专变-174565455-清苑县金鑫棉织厂,2南蛮营外1【纯农排变】,2南蛮营外2【纯农排变】,保定虹光印刷有限公司2,2南蛮营外14【纯农排变】,1南蛮营内14,南宋村面粉厂,清苑县银河合线厂,南蛮营彦凯印刷厂,南王庄东风锅炉厂,南蛮营内4,东风常乐暖炉厂,蛮营印刷厂,2南蛮营外15【纯农排变】,南蛮营外8【纯农排变】,南蛮营外9【纯农排变】,南蛮营外7【纯农排变】,南蛮营村北面粉厂,1南蛮营内9,南蛮营二板厂,予制板厂,2南王庄外23【纯农排变】,南蛮营外13【纯农排变】,南蛮营村委会,2南王庄外21【纯农排变】,2南蛮营外3【纯农排变】,1南宋村内7,2南蛮营外18【纯农排变】,南宋西外3,1南蛮营内3,南宋村外5【纯农排变】,南宋村外4【纯农排变】,南宋村外2【纯农排变】","powerOffReason":"【停电原因】由于主干８２号杆Ｔ８号杆树倒砸线导致３５ＫＶ富王庄变电站１０ＫＶ宋村线５１３线路全线停电 【变更送电】因抢修进度加快原因，送电时间由０９：００变更为０６：００ 【发布渠道】通过９５５９８发布","powerOffId":"2019073113001070"},{"poweroffId":2019073113001068,"sgpoweroffId":null,"subsName":"","lineName":"10kV512迁庄线","pubTranName":"10kV512迁庄线寇庄14001台区变压器,河北纵横橡胶有限公司,南小王供电所,保定金芳园电器线材有限公,10kV512迁庄线寇庄14002台区变压器,保定金芳园电器线材有限公司,0602763394-河北天成电工有限公司-专变-126897589-河北天成电工有限公司,","scope":"【影响街道/乡镇】南小王乡【高危重要客户】无【影响客户】河北金长城电工有限公司、纵横橡胶、金芳园","startTime":"2019-07-31 23:15:00","stopDate":"2019-08-01 01:30:00","orgNo":"1340608","typeCode":"电网故障停限电","poweroffArea":"【全线路停电】停河北纵横橡胶有限公司,10kV512迁庄线寇庄14002台区变压器,保定金芳园电器线材有限公司,南小王供电所,0602763394-河北天成电工有限公司-专变-126897589-河北天成电工有限公司,10kV512迁庄线寇庄14001台区变压器,保定金芳园电器线材有限公","poweroffReason":"【停电原因】由于站内开关掉闸导致３５ＫＶ南小王变电站迁庄５１２线路全线停电【变更送电】因抢修进度加快原因，送电时间由１７：００变更为０１：３０【发布渠道】通过９５５９８发布","powerTime":"2019-08-01 01:00:50","powerComm":"已送电","subsNo":"","lineNo":"","tgNo":"","tgName":null,"infoStatus":"1","orgName":"国网博野县供电公司","typeName":null,"infoStatusName":null,"dateDay":null,"orgNos":null,"nowTime":null,"countyName":null,"streetName":null,"villageName":null,"roadName":null,"communityName":null,"tranName":null,"sdLineName":null,"cityCode":"1340608","cityName":"国网博野县供电公司","provinceCode":null,"stopTime":"2019-08-01 01:30:00","powerType":"全部","powerOffArea":"【全线路停电】停河北纵横橡胶有限公司,10kV512迁庄线寇庄14002台区变压器,保定金芳园电器线材有限公司,南小王供电所,0602763394-河北天成电工有限公司-专变-126897589-河北天成电工有限公司,10kV512迁庄线寇庄14001台区变压器,保定金芳园电器线材有限公","powerOffReason":"【停电原因】由于站内开关掉闸导致３５ＫＶ南小王变电站迁庄５１２线路全线停电【变更送电】因抢修进度加快原因，送电时间由１７：００变更为０１：３０【发布渠道】通过９５５９８发布","powerOffId":"2019073113001068"},{"poweroffId":2019073113001066,"sgpoweroffId":null,"subsName":"","lineName":"10kV明官店512线","pubTranName":"明官店综合一变压器,明官店综合七变压器(新）,东庄综合2,前李农业六变压器,西章令综合3,明官店综合五变压器,前李综合5,前李综合4,前李外4【纯农排变】,东庄综合3,明官店综合二变压器,明官店农业三变压器,北章令农业三变压器,东庄综合一变压器,明官店综合四变压器,陈庄农业3台区【纯农排变】,北章令农业二变压器,明官店综合三变压器,北章令综合二变压器,前李农业十台区,统一综合一变压器,明官店乡面厂,西章令综合一变压器,前李综合二变压器,北章令综合三变压器,东庄油房,东庄农业二变压器,西章令外3【纯农排变】,前李综合一变压器,北章令综合一变压器,西章令综合二变压器,明官店综合8(新）,陈庄综合一变压器,前李综合六台区,明官店冬雪铁厂,明官店南张庄水厂,虎振面厂,明官店综合六号变压器,统一综合2(新）,西章令外4【纯农排变】,陈庄外2【纯农排变】,明光店药厂,北章令农业一变压器,北章令农业5台区【纯农排变】,统一农业2号【纯农排变】,","scope":"【影响街道/乡镇】明光店乡 【高危重要客户】无 【影响客户】西章令村、前李村、东庄村、明光店村、陈庄村、统一村、北章令村","startTime":"2019-07-31 23:30:25","stopDate":"2019-08-01 14:00:00","orgNo":"1340606","typeCode":"电网故障停限电","poweroffArea":"【全线路停电】停西章令综合一变压器,陈庄外２【纯农排变】,明官店农业三变压器,明官店综合七变压器(新）,东庄农业二变压器,前李综合二变压器,统一综合一变压器,明官店综合二变压器,北章令综合三变压器,明官店冬雪铁厂,明官店综合五变压器,明官店综合四变压器,明官店乡面厂,明官店综合一变压器,虎振面厂,明官店综合８(新）,东庄综合一变压器,北章令农业二变压器,北章令农业一变压器,统一综合２(新）,西章令外３【纯农排变】,明官店综合六号变压器,前李综合一变压器,明官店南张庄水厂,西章令综合二变压器,统一农业２号【纯农排变】,东庄综合２,东庄综合３,前李综合４,明官店综合三变压器,西章令外４【纯农排变】,前李外４【纯农排变】,北章令综合一变压器,东庄油房,前李综合六台区,北章令综合二变压器,北章令农业５台区【纯农排变】,前李农业十台区,陈庄综合一变压器,明光店药厂,陈庄农业３台区【纯农排变】,西章令综合３,北章令农业三变压器,前李农业六变压器,前李综合５","poweroffReason":"【停电原因】由于站内开关跳闸导致３５ＫＶ明官店变电站１０ＫＶ明官店５１２线路全线停电 【变更送电】因倒杆断线，抢修困难（工作未完成）原因，送电时间由０８:００变更为１４:００ 【发布渠道】９５５９８","powerTime":"2019-08-01 13:36:21","powerComm":"已送电","subsNo":"","lineNo":"","tgNo":"","tgName":null,"infoStatus":"1","orgName":"国网安国市供电公司","typeName":null,"infoStatusName":null,"dateDay":null,"orgNos":null,"nowTime":null,"countyName":null,"streetName":null,"villageName":null,"roadName":null,"communityName":null,"tranName":null,"sdLineName":null,"cityCode":"1340606","cityName":"国网安国市供电公司","provinceCode":null,"stopTime":"2019-08-01 14:00:00","powerType":"全部","powerOffArea":"【全线路停电】停西章令综合一变压器,陈庄外２【纯农排变】,明官店农业三变压器,明官店综合七变压器(新）,东庄农业二变压器,前李综合二变压器,统一综合一变压器,明官店综合二变压器,北章令综合三变压器,明官店冬雪铁厂,明官店综合五变压器,明官店综合四变压器,明官店乡面厂,明官店综合一变压器,虎振面厂,明官店综合８(新）,东庄综合一变压器,北章令农业二变压器,北章令农业一变压器,统一综合２(新）,西章令外３【纯农排变】,明官店综合六号变压器,前李综合一变压器,明官店南张庄水厂,西章令综合二变压器,统一农业２号【纯农排变】,东庄综合２,东庄综合３,前李综合４,明官店综合三变压器,西章令外４【纯农排变】,前李外４【纯农排变】,北章令综合一变压器,东庄油房,前李综合六台区,北章令综合二变压器,北章令农业５台区【纯农排变】,前李农业十台区,陈庄综合一变压器,明光店药厂,陈庄农业３台区【纯农排变】,西章令综合３,北章令农业三变压器,前李农业六变压器,前李综合５","powerOffReason":"【停电原因】由于站内开关跳闸导致３５ＫＶ明官店变电站１０ＫＶ明官店５１２线路全线停电 【变更送电】因倒杆断线，抢修困难（工作未完成）原因，送电时间由０８:００变更为１４:００ 【发布渠道】９５５９８","powerOffId":"2019073113001066"},{"poweroffId":2019073113001055,"sgpoweroffId":null,"subsName":"","lineName":"瀑河乡线516","pubTranName":"大马各庄10号【纯农排变】,躲水庄1号,广门23号【纯农排变】,变压器,大马各庄13号,徐水县恒鑫法兰制造有限公司,广门营2号,躲水庄5号,徐水县华岳工贸有限公司,广门4号,广门24号,广门15号,小马各庄1号,广门营1号,广门3号,广门营10号【纯农排变】,广门19号,保定聚和商品混凝土有限公司,广门6号【纯农排变】,大马各庄8号【纯农排变】,大马各庄1号,广门营冷库,躲水庄4号,保定市徐水区沃达水泥制品厂,广门22号,保定鑫恒岳管件有限公司,广门17号【纯农排变】,广门20号,广门13号【纯农排变】,广门21号,广门营18号,小马各庄3号,广门5号【纯农排变】,大马各庄4号【纯农排变】,躲水庄6号,徐水县沃达水泥制品厂,广门1号,广门12号,广门营3号,广门14号,广门营14号,客户投资_躲水庄2号,广门11号【纯农排变】,广门9号,小马各庄4号,广门营8号,广门10号,广门2号,","scope":"【影响街道/乡镇】遂城镇 【高危重要客户】无 【影响客户】广门、小马各庄、广门营、大马各庄、躲水庄","startTime":"2019-07-31 23:26:32","stopDate":"2019-08-01 02:30:00","orgNo":"1340605","typeCode":"电网故障停限电","poweroffArea":"【全线路停电】停保定鑫恒岳管件有限公司,广门17号【纯农排变】,广门20号,广门13号【纯农排变】,广门2号,小马各庄4号,广门营8号,广门10号,广门15号,小马各庄1号,广门营1号,广门3号,广门营10号【纯农排变】,广门19号,保定聚和商品混凝土有限公司,广门6号【纯农排变】,大马各庄8号【纯农排变】,大马各庄1号,广门营冷库,躲水庄4号,保定市徐水区沃达水泥制品厂,广门22号,大马各庄10号【纯农排变】,躲水庄1号,广门23号【纯农排变】,变压器,大马各庄13号,徐水县恒鑫法兰制造有限公司,广门营2号,躲水庄5号,徐水县华岳工贸有限公司,广门4号,广门24号,广门21号,广门营18号,小马各庄3号,广门5号【纯农排变】,大马各庄4号【纯农排变】,躲水庄6号,徐水县沃达水泥制品厂,广门1号,广门12号,广门营3号,广门14号,广门营14号,客户投资_躲水庄2号,广门11号【纯农排变】,广门9号","poweroffReason":"【停电原因】由于Ｂ相接地导致３５ＫＶ广门变电站瀑河乡５１６线路全线停电 【变更送电】因抢修进度加快原因，送电时间由０９:００变更为０２:３０ 【发布渠道】通过９５５９８发布","powerTime":"2019-08-01 02:00:41","powerComm":"已送电","subsNo":"","lineNo":"","tgNo":"","tgName":null,"infoStatus":"1","orgName":"国网徐水县供电公司","typeName":null,"infoStatusName":null,"dateDay":null,"orgNos":null,"nowTime":null,"countyName":null,"streetName":null,"villageName":null,"roadName":null,"communityName":null,"tranName":null,"sdLineName":null,"cityCode":"1340605","cityName":"国网徐水县供电公司","provinceCode":null,"stopTime":"2019-08-01 02:30:00","powerType":"全部","powerOffArea":"【全线路停电】停保定鑫恒岳管件有限公司,广门17号【纯农排变】,广门20号,广门13号【纯农排变】,广门2号,小马各庄4号,广门营8号,广门10号,广门15号,小马各庄1号,广门营1号,广门3号,广门营10号【纯农排变】,广门19号,保定聚和商品混凝土有限公司,广门6号【纯农排变】,大马各庄8号【纯农排变】,大马各庄1号,广门营冷库,躲水庄4号,保定市徐水区沃达水泥制品厂,广门22号,大马各庄10号【纯农排变】,躲水庄1号,广门23号【纯农排变】,变压器,大马各庄13号,徐水县恒鑫法兰制造有限公司,广门营2号,躲水庄5号,徐水县华岳工贸有限公司,广门4号,广门24号,广门21号,广门营18号,小马各庄3号,广门5号【纯农排变】,大马各庄4号【纯农排变】,躲水庄6号,徐水县沃达水泥制品厂,广门1号,广门12号,广门营3号,广门14号,广门营14号,客户投资_躲水庄2号,广门11号【纯农排变】,广门9号","powerOffReason":"【停电原因】由于Ｂ相接地导致３５ＫＶ广门变电站瀑河乡５１６线路全线停电 【变更送电】因抢修进度加快原因，送电时间由０９:００变更为０２:３０ 【发布渠道】通过９５５９８发布","powerOffId":"2019073113001055"}],"pageModel":{"pageNow":722,"totalCount":10973,"totalPage":1098,"tableRows":0,"pageCount":10,"beginCount":7210},"isExperi":"1"}