{"message":"","today":"2020-06-15","seleList":[{"poweroffId":2019073113000588,"sgpoweroffId":null,"subsName":"","lineName":"大龙华线517","pubTranName":"马兰台村3#村南,赵家沟村4#|村北,杨格庄村2#|村北,大龙华村8#,龙塘村2#村东,尧舜口村5#村南,赵家沟村5#,刘家沟村9#,东三里铺2#,大南头村2#村东,小龙华村2#|村西,马兰台村2#村南,鹁鸽岩村4#村东,酸枣沟村2#|村南,小寨村3#|村西,赵家沟村3#|村中,大龙华村4#|村东,尧舜口村1#|村中,东三里铺3#,鹁鸽岩村2#|村中,东三里铺村1#|村中,杨格庄村1#|村中,龙堂村1#|村北,赵家沟村1#|村南,河北村1#|村东,酸枣沟村3#村东,小龙华村3#,小龙华村4#,马兰台村1#|村中,马兰台村4#村中,小龙华村1#|村东,大龙华村3#|村东,刘家沟村7#村北,尧舜口村3#|村东,龙华乡政府,刘家沟村2#|村中,东三里铺村5#村南,小寨村4#村南,河北村2#|村西,刘家沟村5#村南,刘家沟村4#|村北,大龙华村2#|村北,华侨陵园,小南头村1#|村东,小寨村1#|村南,鹁鸽岩村3#|村南,鹁鸽岩村1#|村北,河北村3#村南,小寨村2#|村中,大龙华6#村北,大南头村1#|村南,刘家沟村8#村南,大龙华村1#|村南,尧舜口村4#村东,野里店村1#|村西,杨格庄村3#村北,刘家沟村1#|村南,酸枣沟村1#|村北,刘家沟村6#村中,大龙华5#,赵家沟村2#|村中,","scope":"【影响街道/乡镇】大龙华乡【高危重要客户】无【影响客户】大龙华村、小龙华村、酸枣沟村、小寨村、野里店村、马兰台村、东三里铺村、赵家沟村、刘家沟村、大南头村、尧舜口村、河北村、杨各庄村、龙塘村、鹁鸪岩村、小南头村","startTime":"2019-07-31 21:09:00","stopDate":"2019-08-01 07:40:00","orgNo":"1340625","typeCode":"电网故障停限电","poweroffArea":"【全线路停电】停大龙华村2#|村北,大南头村2#村东,大龙华5#,大龙华6#村北,尧舜口村1#|村中,东三里铺村1#|村中,刘家沟村6#村中,马兰台村4#村中,东三里铺村5#村南,小寨村2#|村中,大龙华村4#|村东,河北村2#|村西,小龙华村2#|村西,龙堂村1#|村北,马兰台村3#村南,鹁鸽岩村2#|村中,野里店村1#|村西,刘家沟村5#村南,刘家沟村9#,小龙华村1#|村东,杨格庄村3#村北,龙华乡政府,小寨村1#|村南,小南头村1#|村东,小寨村4#村南,龙塘村2#村东,鹁鸽岩村3#|村南,大龙华村8#,杨格庄村2#|村北,马兰台村2#村南,华侨陵园,小龙华村3#,马兰台村1#|村中,刘家沟村4#|村北,河北村3#村南,刘家沟村8#村南,尧舜口村5#村南,杨格庄村1#|村中,赵家沟村3#|村中,尧舜口村4#村东,小寨村3#|村西,东三里铺3#,鹁鸽岩村1#|村北,大龙华村3#|村东,赵家沟村4#|村北,刘家沟村2#|村中,大龙华村1#|村南,酸枣沟村1#|村北,酸枣沟村3#村东,刘家沟村1#|村南,大南头村1#|村南,鹁鸽岩村4#村东,尧舜口村3#|村东,赵家沟村1#|村南,赵家沟村2#|村中,酸枣沟村2#|村南,赵家沟村5#,河北村1#|村东,东三里铺2#,小龙华村4#,刘家沟村7#村北","poweroffReason":"【停电原因】由于站内开关故障导致１１０ＫＶ西陵变电站大龙华５１７线路全线停电【变更送电】因抢修进度加快原因，送电时间由１２：００变更为０７：４０【发布渠道】通过９５５９８发布","powerTime":"2019-08-01 07:24:25","powerComm":"已送电","subsNo":"","lineNo":"","tgNo":"","tgName":null,"infoStatus":"1","orgName":"国网易县供电公司","typeName":null,"infoStatusName":null,"dateDay":null,"orgNos":null,"nowTime":null,"countyName":null,"streetName":null,"villageName":null,"roadName":null,"communityName":null,"tranName":null,"sdLineName":null,"cityCode":"1340625","cityName":"国网易县供电公司","provinceCode":null,"stopTime":"2019-08-01 07:40:00","powerType":"全部","powerOffArea":"【全线路停电】停大龙华村2#|村北,大南头村2#村东,大龙华5#,大龙华6#村北,尧舜口村1#|村中,东三里铺村1#|村中,刘家沟村6#村中,马兰台村4#村中,东三里铺村5#村南,小寨村2#|村中,大龙华村4#|村东,河北村2#|村西,小龙华村2#|村西,龙堂村1#|村北,马兰台村3#村南,鹁鸽岩村2#|村中,野里店村1#|村西,刘家沟村5#村南,刘家沟村9#,小龙华村1#|村东,杨格庄村3#村北,龙华乡政府,小寨村1#|村南,小南头村1#|村东,小寨村4#村南,龙塘村2#村东,鹁鸽岩村3#|村南,大龙华村8#,杨格庄村2#|村北,马兰台村2#村南,华侨陵园,小龙华村3#,马兰台村1#|村中,刘家沟村4#|村北,河北村3#村南,刘家沟村8#村南,尧舜口村5#村南,杨格庄村1#|村中,赵家沟村3#|村中,尧舜口村4#村东,小寨村3#|村西,东三里铺3#,鹁鸽岩村1#|村北,大龙华村3#|村东,赵家沟村4#|村北,刘家沟村2#|村中,大龙华村1#|村南,酸枣沟村1#|村北,酸枣沟村3#村东,刘家沟村1#|村南,大南头村1#|村南,鹁鸽岩村4#村东,尧舜口村3#|村东,赵家沟村1#|村南,赵家沟村2#|村中,酸枣沟村2#|村南,赵家沟村5#,河北村1#|村东,东三里铺2#,小龙华村4#,刘家沟村7#村北","powerOffReason":"【停电原因】由于站内开关故障导致１１０ＫＶ西陵变电站大龙华５１７线路全线停电【变更送电】因抢修进度加快原因，送电时间由１２：００变更为０７：４０【发布渠道】通过９５５９８发布","powerOffId":"2019073113000588"},{"poweroffId":2019073113000571,"sgpoweroffId":null,"subsName":"","lineName":"10kV513邢邑线","pubTranName":"七堡公用农业14台区【纯农排变】,保合庄公用农业2台区【纯农排变】,太平庄公用农业3台区【纯农排变】,七堡公用农业13台区【纯农排变】,定州市旭日金属制品厂,定州市丰华金属制品有限公司变压器,七堡村公用农业12台区【纯农排变】,七堡村公用农业7台区【纯农排变】,0654410952-定州市恒通五金制品有限公司-专变-183720930-定州市丰华金属制品有限公司变压器1,七堡村公用农业11台区【纯农排变】,七堡公用农业15台区【纯农排变】,七堡村公用农业9台区【纯农排变】,七堡村公用农业6台区【纯农排变】,七堡公用照明17台区,七堡村公用农业10台区【纯农排变】,七堡村公用农业8台区【纯农排变】,0654410952-定州市恒通五金制品有限公司-专变-183720933-定州市丰华金属制品有限公司变压器2,七堡公用农业16台区【纯农排变】,定州市恒通五金制品有限公司变压器,李辛庄公用农业12台区【纯农排变】,留宿公用农业8台区【纯农排变】,","scope":"【影响街道/乡镇】高蓬镇【高危重要客户】无【影响客户】位村、七堡","startTime":"2019-07-31 20:59:40","stopDate":"2019-08-01 05:30:00","orgNo":"1340610","typeCode":"电网故障停限电","poweroffArea":"【全线路停电】停七堡公用照明17台区,七堡村公用农业10台区【纯农排变】,七堡村公用农业8台区【纯农排变】,0654410952-定州市恒通五金制品有限公司-专变-183720933-定州市丰华金属制品有限公司变压器2,七堡公用农业16台区【纯农排变】,定州市恒通五金制品有限公司变压器,李辛庄公用农业12台区【纯农排变】,留宿公用农业8台区【纯农排变】,七堡公用农业14台区【纯农排变】,保合庄公用农业2台区【纯农排变】,太平庄公用农业3台区【纯农排变】,七堡公用农业13台区【纯农排变】,定州市旭日金属制品厂,定州市丰华金属制品有限公司变压器,七堡村公用农业12台区【纯农排变】,七堡村公用农业7台区【纯农排变】,0654410952-定州市恒通五金制品有限公司-专变-183720930-定州市丰华金属制品有限公司变压器1,七堡村公用农业11台区【纯农排变】,七堡公用农业15台区【纯农排变】,七堡村公用农业9台区【纯农排变】,七堡村公用农业6台区【纯农排变】","poweroffReason":"【停电原因】由于恶劣天气线路开关掉闸导致１１０ＫＶ李亲顾变电站１０ＫＶ５１３邢邑线路全线停电 【变更送电】因抢修进度加快原因，送电时间由１２：００变更为０５：３０ 【发布渠道】９５５９８","powerTime":"2019-08-01 04:58:17","powerComm":"已送电","subsNo":"","lineNo":"","tgNo":"","tgName":null,"infoStatus":"1","orgName":"国网定州市供电公司","typeName":null,"infoStatusName":null,"dateDay":null,"orgNos":null,"nowTime":null,"countyName":null,"streetName":null,"villageName":null,"roadName":null,"communityName":null,"tranName":null,"sdLineName":null,"cityCode":"1340610","cityName":"国网定州市供电公司","provinceCode":null,"stopTime":"2019-08-01 05:30:00","powerType":"全部","powerOffArea":"【全线路停电】停七堡公用照明17台区,七堡村公用农业10台区【纯农排变】,七堡村公用农业8台区【纯农排变】,0654410952-定州市恒通五金制品有限公司-专变-183720933-定州市丰华金属制品有限公司变压器2,七堡公用农业16台区【纯农排变】,定州市恒通五金制品有限公司变压器,李辛庄公用农业12台区【纯农排变】,留宿公用农业8台区【纯农排变】,七堡公用农业14台区【纯农排变】,保合庄公用农业2台区【纯农排变】,太平庄公用农业3台区【纯农排变】,七堡公用农业13台区【纯农排变】,定州市旭日金属制品厂,定州市丰华金属制品有限公司变压器,七堡村公用农业12台区【纯农排变】,七堡村公用农业7台区【纯农排变】,0654410952-定州市恒通五金制品有限公司-专变-183720930-定州市丰华金属制品有限公司变压器1,七堡村公用农业11台区【纯农排变】,七堡公用农业15台区【纯农排变】,七堡村公用农业9台区【纯农排变】,七堡村公用农业6台区【纯农排变】","powerOffReason":"【停电原因】由于恶劣天气线路开关掉闸导致１１０ＫＶ李亲顾变电站１０ＫＶ５１３邢邑线路全线停电 【变更送电】因抢修进度加快原因，送电时间由１２：００变更为０５：３０ 【发布渠道】９５５９８","powerOffId":"2019073113000571"},{"poweroffId":2019073113000538,"sgpoweroffId":null,"subsName":"","lineName":"迷城556线","pubTranName":"上三村1517变压器,","scope":"【影响街道/乡镇】迷城乡【高危重要客户】无【影响客户】上三土门","startTime":"2019-07-31 20:36:42","stopDate":"2019-08-01 01:50:00","orgNo":"1340622","typeCode":"电网故障停限电","poweroffArea":"【单台区停电】停上三村1517变压器","poweroffReason":"【停电原因】由于变压器低压出线烧导致１１０ＫＶ白合变电站迷城５５６线路上三土门１５１７公变台区停电【变更送电】因抢修进度加快原因，送电时间由１２：００变更为１：５０【发布渠道】通过９５５９８发布","powerTime":"2019-08-01 01:17:21","powerComm":"已送电","subsNo":"","lineNo":"","tgNo":"","tgName":null,"infoStatus":"1","orgName":"国网唐县供电公司","typeName":null,"infoStatusName":null,"dateDay":null,"orgNos":null,"nowTime":null,"countyName":null,"streetName":null,"villageName":null,"roadName":null,"communityName":null,"tranName":null,"sdLineName":null,"cityCode":"1340622","cityName":"国网唐县供电公司","provinceCode":null,"stopTime":"2019-08-01 01:50:00","powerType":"全部","powerOffArea":"【单台区停电】停上三村1517变压器","powerOffReason":"【停电原因】由于变压器低压出线烧导致１１０ＫＶ白合变电站迷城５５６线路上三土门１５１７公变台区停电【变更送电】因抢修进度加快原因，送电时间由１２：００变更为１：５０【发布渠道】通过９５５９８发布","powerOffId":"2019073113000538"},{"poweroffId":2019073113000533,"sgpoweroffId":null,"subsName":"","lineName":"西古线512","pubTranName":"0469486269-保定市张石高速公路紫荆关收费站-专变-46819940-张石高速LJM-N12标(东沟),西古县村3#|村中,孟津岭村1#|村中,西古县村2#|村南,金坡村2#|村东,坡下村1#|村北,坡下村3#村北,鸭子沟6#,东古县村1#|村东,胜利村4#,金坡村9号变压器,金坡村1#|村中,东古县3#村南,金坡村佟士新变压器,西古县村4#|村西,易县力达铁选厂,西古山庄,孟津岭村5#,移动基站孟津岭50,西古县村6#村中,西古县村5#村西,东古县村桑建志200,孟津岭村4#,孟津岭3#【纯农排变】,上陈驿村2#村北,易县华地山庄酒店有限公司250,东古县村4#村北（综）,孟津岭2#,保定申城路桥有限责任公司张石高速公路涞源至涞水段第LJM-N13项目部变压器,胜利村5#,上陈驿村4#村南,东古县村2#|村西,易县力达铁选厂变压器,易县紫荆关中心小学上陈驿小学200KVA,鸭子沟村4#|村西,坡下村4#,鸭子沟村2#|村中,胜利村3#村中,上陈驿村3#村北,0688753885-易县三利生态旅游开发有限公司-专变-228796369-易县三利生态旅游开发有限公司2号-1250KVA,西古县村1#|村东,金坡村迎宾阁饭店,易县鑫福源晟矿业有限公司(2510),张石高速LJM-N13标(坡下),鸭子沟村3#|村东,金坡村6#|村中,西古县7#,0469486096-易县南湖山铁选厂(杜晓东)-专变-46819946-易县南湖山铁选厂(杜晓东),坡下村5#,泥瓦铺村1#|村南,金坡村郝天社变压器,易县鑫福源晟矿业有限公司,鸭子沟村1#|村南,坡下村2#|村南,易县鑫福源晟矿业有限公司(50),上陈驿石材厂,易县三利生态旅游开发有限公司200KVA,东古山庄,金坡村8号变压器,泥瓦铺村2#|村北,胜利村2#|村南,鸭子沟7号变压器,胜利村1#|村北,鸭子沟5#村南庄,","scope":"【影响街道/乡镇】紫荆关镇、安格庄乡、大龙华乡【高危重要客户】无【影响客户】胜利村、鸭子沟村、泥瓦铺村、坡下村、东古县村、西古县村、金坡村、孟津岭村","startTime":"2019-07-31 20:48:00","stopDate":"2019-08-01 01:00:00","orgNo":"1340625","typeCode":"电网故障停限电","poweroffArea":"【全线路停电】停金坡村8号变压器,泥瓦铺村2#|村北,胜利村2#|村南,鸭子沟7号变压器,胜利村1#|村北,鸭子沟5#村南庄,西古县村3#|村中,孟津岭村1#|村中,西古县村2#|村南,金坡村2#|村东,坡下村1#|村北,坡下村3#村北,鸭子沟6#,东古县村2#|村西,东古县村1#|村东,胜利村4#,金坡村9号变压器,金坡村1#|村中,东古县3#村南,金坡村6#|村中,西古县7#,鸭子沟村4#|村西,坡下村4#,鸭子沟村2#|村中,胜利村3#村中,上陈驿村3#村北,西古县村1#|村东,鸭子沟村3#|村东,金坡村迎宾阁饭店,易县鑫福源晟矿业有限公司(2510),易县鑫福源晟矿业有限公司(50),易县鑫福源晟矿业有限公司,保定申城路桥有限责任公司张石高速公路涞源至涞水段第LJM-N13项目部变压器,胜利村5#,上陈驿村4#村南,鸭子沟村1#|村南,坡下村2#|村南,西古山庄,孟津岭村5#,坡下村5#,泥瓦铺村1#|村南,金坡村郝天社变压器,0469486096-易县南湖山铁选厂(杜晓东)-专变-46819946-易县南湖山铁选厂(杜晓东),0469486269-保定市张石高速公路紫荆关收费站-专变-46819940-张石高速LJM-N12标(东沟),金坡村佟士新变压器,西古县村4#|村西,孟津岭村4#,孟津岭3#【纯农排变】,上陈驿村2#村北,易县华地山庄酒店有限公司250,东古县村4#村北（综）,孟津岭2#,张石高速LJM-N13标(坡下),上陈驿石材厂,0688753885-易县三利生态旅游开发有限公司-专变-228796369-易县三利生态旅游开发有限公司2号-1250KVA,移动基站孟津岭50,西古县村6#村中,西古县村5#村西,东古县村桑建志200,易县力达铁选厂,易县力达铁选厂变压器,易县紫荆关中心小学上陈驿小学200KVA,易县三利生态旅游开发有限公司200KVA,东古山庄","poweroffReason":"【停电原因】由于暴风雨天气导致１１０ＫＶ上陈驿变电站西古线５１２线路全线停电【变更送电】因抢修进度加快原因，送电时间由１２：００变更为０１：００【发布渠道】通过９５５９８发布","powerTime":"2019-08-01 00:49:08","powerComm":"已送电","subsNo":"","lineNo":"","tgNo":"","tgName":null,"infoStatus":"1","orgName":"国网易县供电公司","typeName":null,"infoStatusName":null,"dateDay":null,"orgNos":null,"nowTime":null,"countyName":null,"streetName":null,"villageName":null,"roadName":null,"communityName":null,"tranName":null,"sdLineName":null,"cityCode":"1340625","cityName":"国网易县供电公司","provinceCode":null,"stopTime":"2019-08-01 01:00:00","powerType":"全部","powerOffArea":"【全线路停电】停金坡村8号变压器,泥瓦铺村2#|村北,胜利村2#|村南,鸭子沟7号变压器,胜利村1#|村北,鸭子沟5#村南庄,西古县村3#|村中,孟津岭村1#|村中,西古县村2#|村南,金坡村2#|村东,坡下村1#|村北,坡下村3#村北,鸭子沟6#,东古县村2#|村西,东古县村1#|村东,胜利村4#,金坡村9号变压器,金坡村1#|村中,东古县3#村南,金坡村6#|村中,西古县7#,鸭子沟村4#|村西,坡下村4#,鸭子沟村2#|村中,胜利村3#村中,上陈驿村3#村北,西古县村1#|村东,鸭子沟村3#|村东,金坡村迎宾阁饭店,易县鑫福源晟矿业有限公司(2510),易县鑫福源晟矿业有限公司(50),易县鑫福源晟矿业有限公司,保定申城路桥有限责任公司张石高速公路涞源至涞水段第LJM-N13项目部变压器,胜利村5#,上陈驿村4#村南,鸭子沟村1#|村南,坡下村2#|村南,西古山庄,孟津岭村5#,坡下村5#,泥瓦铺村1#|村南,金坡村郝天社变压器,0469486096-易县南湖山铁选厂(杜晓东)-专变-46819946-易县南湖山铁选厂(杜晓东),0469486269-保定市张石高速公路紫荆关收费站-专变-46819940-张石高速LJM-N12标(东沟),金坡村佟士新变压器,西古县村4#|村西,孟津岭村4#,孟津岭3#【纯农排变】,上陈驿村2#村北,易县华地山庄酒店有限公司250,东古县村4#村北（综）,孟津岭2#,张石高速LJM-N13标(坡下),上陈驿石材厂,0688753885-易县三利生态旅游开发有限公司-专变-228796369-易县三利生态旅游开发有限公司2号-1250KVA,移动基站孟津岭50,西古县村6#村中,西古县村5#村西,东古县村桑建志200,易县力达铁选厂,易县力达铁选厂变压器,易县紫荆关中心小学上陈驿小学200KVA,易县三利生态旅游开发有限公司200KVA,东古山庄","powerOffReason":"【停电原因】由于暴风雨天气导致１１０ＫＶ上陈驿变电站西古线５１２线路全线停电【变更送电】因抢修进度加快原因，送电时间由１２：００变更为０１：００【发布渠道】通过９５５９８发布","powerOffId":"2019073113000533"},{"poweroffId":2019073113000520,"sgpoweroffId":null,"subsName":"","lineName":"大王店535","pubTranName":"大王店北街 2号,大王店西街 11号【纯农排变】,保定市徐水区大王店镇西街小学,大王店供电所1号,大王店西街 14号,南街7号,大王店北街 11号,大王店西街 7号,大王店北街 6号【纯农排变】,大王店镇政府,徐水县永旺管件加工厂,大王店西街 6号,大王店北街17号,大王店东街 13号,大王店北街8号【纯农排变】,大王店北街 7号【纯农排变】,大王店东街16号,保定市徐水区大王店中学,大王店南街 5号【纯农排变】,大王店西街 1号【纯农排变】,大王店北街5号【纯农排变】,大王店北街16号,战备医院,大王店西街 9号,大王店西街 8号【纯农排变】,大王店北街13号,鑫华纸箱厂,大王店西街 10号,太行容器厂,大王店初级中学,大王店北街15号【纯农排变】,北街14号,徐水县大王店洪义建材经营部,保定市徐水区福忠大酒店,大王店西街16号,大王店北街 1号【纯农排变】,大王店西街 3号【纯农排变】,新型防水材料厂,","scope":"【影响街道/乡镇】大王店镇 【高危重要客户】无 【影响客户】大王店南街村、大王店西街村、大王店北街村","startTime":"2019-07-31 20:20:58","stopDate":"2019-07-31 22:00:00","orgNo":"1340605","typeCode":"电网故障停限电","poweroffArea":"【分支停电】停大王店初级中学,太行容器厂,新型防水材料厂,大王店北街15号【纯农排变】,北街14号,徐水县大王店洪义建材经营部,保定市徐水区福忠大酒店,大王店西街16号,大王店北街 1号【纯农排变】,大王店西街 3号【纯农排变】,大王店北街 2号,大王店西街 11号【纯农排变】,保定市徐水区大王店镇西街小学,大王店供电所1号,大王店西街 14号,南街7号,大王店北街 11号,大王店西街 7号,大王店北街 6号【纯农排变】,大王店镇政府,徐水县永旺管件加工厂,大王店西街 6号,大王店北街17号,大王店东街 13号,大王店北街8号【纯农排变】,大王店北街 7号【纯农排变】,大王店东街16号,保定市徐水区大王店中学,大王店南街 5号【纯农排变】,大王店西街 1号【纯农排变】,大王店北街5号【纯农排变】,大王店北街16号,战备医院,大王店西街 9号,大王店西街 8号【纯农排变】,大王店北街13号,鑫华纸箱厂,大王店西街 10号","poweroffReason":"【停电原因】由于设备线夹烧断导致１１０ＫＶ大王店变电站大王店５３５线路５４号杆分段开关以下线路停电 【变更送电】因抢修进度加快原因，送电时间由２３:３０变更为２２:００ 【发布渠道】通过９５５９８发布","powerTime":"2019-07-31 21:11:35","powerComm":"已送电","subsNo":"","lineNo":"","tgNo":"","tgName":null,"infoStatus":"1","orgName":"国网徐水县供电公司","typeName":null,"infoStatusName":null,"dateDay":null,"orgNos":null,"nowTime":null,"countyName":null,"streetName":null,"villageName":null,"roadName":null,"communityName":null,"tranName":null,"sdLineName":null,"cityCode":"1340605","cityName":"国网徐水县供电公司","provinceCode":null,"stopTime":"2019-07-31 22:00:00","powerType":"全部","powerOffArea":"【分支停电】停大王店初级中学,太行容器厂,新型防水材料厂,大王店北街15号【纯农排变】,北街14号,徐水县大王店洪义建材经营部,保定市徐水区福忠大酒店,大王店西街16号,大王店北街 1号【纯农排变】,大王店西街 3号【纯农排变】,大王店北街 2号,大王店西街 11号【纯农排变】,保定市徐水区大王店镇西街小学,大王店供电所1号,大王店西街 14号,南街7号,大王店北街 11号,大王店西街 7号,大王店北街 6号【纯农排变】,大王店镇政府,徐水县永旺管件加工厂,大王店西街 6号,大王店北街17号,大王店东街 13号,大王店北街8号【纯农排变】,大王店北街 7号【纯农排变】,大王店东街16号,保定市徐水区大王店中学,大王店南街 5号【纯农排变】,大王店西街 1号【纯农排变】,大王店北街5号【纯农排变】,大王店北街16号,战备医院,大王店西街 9号,大王店西街 8号【纯农排变】,大王店北街13号,鑫华纸箱厂,大王店西街 10号","powerOffReason":"【停电原因】由于设备线夹烧断导致１１０ＫＶ大王店变电站大王店５３５线路５４号杆分段开关以下线路停电 【变更送电】因抢修进度加快原因，送电时间由２３:３０变更为２２:００ 【发布渠道】通过９５５９８发布","powerOffId":"2019073113000520"},{"poweroffId":2019073113000515,"sgpoweroffId":null,"subsName":"","lineName":"寨头517","pubTranName":"变压器,易县兴凯石材加工厂,大北庄子村3#大碾子沟,易县兴凯石材加工厂变压器,东硕石材50KVA办公用,杏树台村4#,杏树台村3#,寨头村1#,易县东海石材有限公司变压器,大北庄村2#,杏树台1#,河北省高速公路荣乌高速管理处A630,贵宝铁选厂,顺达铁选厂,青岛公路建设集团有限公司变压器,杏树台村5#门关庄,谢武海铁选厂,杏树台6号村北,河北省高速公路荣乌高速管理处B200,红旗金矿,金发铁选厂,杏树台村2#,0552510473-易县瑞丰铁选厂-专变-53371921-变压器,河北省高速公路荣乌高速管理处C125,寨头村5#,张彦永矿山开采(义子),寨头村3#,寨头4#,易县落鹿庄富昊牲畜养殖有限公司2号250KVA,寨头2#,大北庄村1#|大队#,","scope":"【影响街道/乡镇】桥家河乡【高危重要客户】无【影响客户】杏树台村、寨头村、大北庄村","startTime":"2019-07-31 20:38:56","stopDate":"2019-07-31 22:30:00","orgNo":"1340625","typeCode":"电网故障停限电","poweroffArea":"【全线路停电】停杏树台6号村北,变压器,易县兴凯石材加工厂,大北庄子村3#大碾子沟,易县兴凯石材加工厂变压器,东硕石材50KVA办公用,杏树台村4#,杏树台村3#,寨头村1#,易县东海石材有限公司变压器,大北庄村2#,杏树台1#,河北省高速公路荣乌高速管理处A630,贵宝铁选厂,顺达铁选厂,青岛公路建设集团有限公司变压器,杏树台村5#门关庄,谢武海铁选厂,河北省高速公路荣乌高速管理处B200,红旗金矿,金发铁选厂,杏树台村2#,0552510473-易县瑞丰铁选厂-专变-53371921-变压器,河北省高速公路荣乌高速管理处C125,寨头村5#,张彦永矿山开采(义子),寨头村3#,寨头4#,易县落鹿庄富昊牲畜养殖有限公司2号250KVA,寨头2#,大北庄村1#|大队#","poweroffReason":"【停电原因】由于暴风雨天气导致３５ＫＶ桥家河变电站寨头５１７线路全线停电【变更送电】因抢修进度加快原因，送电时间由０８月０１日１２：００变更为０７月３１日２２：３０【发布渠道】通过９５５９８发布","powerTime":"2019-07-31 21:56:44","powerComm":"已送电","subsNo":"","lineNo":"","tgNo":"","tgName":null,"infoStatus":"1","orgName":"国网易县供电公司","typeName":null,"infoStatusName":null,"dateDay":null,"orgNos":null,"nowTime":null,"countyName":null,"streetName":null,"villageName":null,"roadName":null,"communityName":null,"tranName":null,"sdLineName":null,"cityCode":"1340625","cityName":"国网易县供电公司","provinceCode":null,"stopTime":"2019-07-31 22:30:00","powerType":"全部","powerOffArea":"【全线路停电】停杏树台6号村北,变压器,易县兴凯石材加工厂,大北庄子村3#大碾子沟,易县兴凯石材加工厂变压器,东硕石材50KVA办公用,杏树台村4#,杏树台村3#,寨头村1#,易县东海石材有限公司变压器,大北庄村2#,杏树台1#,河北省高速公路荣乌高速管理处A630,贵宝铁选厂,顺达铁选厂,青岛公路建设集团有限公司变压器,杏树台村5#门关庄,谢武海铁选厂,河北省高速公路荣乌高速管理处B200,红旗金矿,金发铁选厂,杏树台村2#,0552510473-易县瑞丰铁选厂-专变-53371921-变压器,河北省高速公路荣乌高速管理处C125,寨头村5#,张彦永矿山开采(义子),寨头村3#,寨头4#,易县落鹿庄富昊牲畜养殖有限公司2号250KVA,寨头2#,大北庄村1#|大队#","powerOffReason":"【停电原因】由于暴风雨天气导致３５ＫＶ桥家河变电站寨头５１７线路全线停电【变更送电】因抢修进度加快原因，送电时间由０８月０１日１２：００变更为０７月３１日２２：３０【发布渠道】通过９５５９８发布","powerOffId":"2019073113000515"},{"poweroffId":2019073113000492,"sgpoweroffId":null,"subsName":"","lineName":"田岗514","pubTranName":"中富石材加工厂变压器,碾子台村3#,花安1#,易县中凯石材加工厂,台底1#,大峪沟1#,福岗河沙开发有限公司,东杜岗5#,黄路元2#,武文成,碾子台1#,柳树片1#,田岗村郝洪新100KVA,0688749459-易县三利生态旅游开发有限公司-专变-228795081-易县三利生态旅游开发有限公司2号-400KVA,大元2#,鑫源矿业有限公司(200),富岗供电所变压器,黄路元1#,田岗2#,三尖岭2#,田岗3#,宋晓卫变压器,易县大泽玄武岩加工有限公司变压器,易县天一石材加工厂200KVA,大峪沟村4#,上铺村6#,东杜岗1#,赵岗1#【纯农排变】,大峪沟2#,田岗村5#,河北建设集团有限公司-三尖岭630KVA,上铺3#,台底4#,华安2#,下铺2#,台底3#,0688749459-易县三利生态旅游开发有限公司-专变-228795079-易县三利生态旅游开发有限公司1号-400KVA,柳树片3#,墨韩山庄,富岗永泰石料加工厂,上铺5#,大元村3#,下铺1#,易县西陵建柱养殖场变压器,东杜岗4#,三尖岭1#,武家沟3#,武家沟5#,东杜岗3#,安格庄乡下铺村程龙2号80KVA,安格庄乡下铺村民委员会50KVA,赵岗3#,田岗1#,山水山庄,东杜岗8#,富岗中心小学变压器,安格庄乡下铺村程龙1号50KVA,上铺村4#,上铺1#,田岗4#,鑫源矿业有限公司,鑫辰铁选厂,66003100|鑫辰铁选厂(30KVA）,大元1#,大峪沟3#,武家沟1#,黄路元3#,赵岗2#,东杜岗6#,柳树片2#,下铺3#,东杜岗7#,下铺村4#,易县利国土地整理有限公司变压器,武家沟4#,上铺2#,碾子台2#,武家沟2#,台底2#,易县金鑫石材加工厂变压器,东杜岗2#,变压器,","scope":"【影响街道/乡镇】牛岗乡、富岗乡、安格庄乡【高危重要客户】无【影响客户】黄路元村、柳树片村、台底村、碾子台村、大元村、大峪沟村、武家沟村、东杜岗村、赵岗村、三尖岭村、上铺村、西古县村、田岗村、下铺村","startTime":"2019-07-31 20:32:22","stopDate":"2019-08-01 20:50:00","orgNo":"1340625","typeCode":"电网故障停限电","poweroffArea":"【全线路停电】停墨韩山庄,柳树片3#,赵岗3#,下铺3#,易县利国土地整理有限公司变压器,易县天一石材加工厂200KVA,大元2#,柳树片2#,三尖岭2#,武文成,大元1#,东杜岗4#,赵岗1#【纯农排变】,易县西陵建柱养殖场变压器,安格庄乡下铺村民委员会50KVA,下铺2#,台底3#,田岗4#,上铺5#,上铺2#,武家沟3#,东杜岗6#,上铺3#,田岗2#,中富石材加工厂变压器,华安2#,安格庄乡下铺村程龙1号50KVA,大峪沟2#,上铺村6#,田岗3#,富岗永泰石料加工厂,下铺村4#,大峪沟3#,山水山庄,黄路元3#,鑫源矿业有限公司(200),赵岗2#,武家沟4#,易县大泽玄武岩加工有限公司变压器,鑫源矿业有限公司,福岗河沙开发有限公司,东杜岗3#,鑫辰铁选厂,66003100|鑫辰铁选厂(30KVA）,台底1#,东杜岗7#,易县中凯石材加工厂,田岗1#,富岗供电所变压器,台底4#,花安1#,易县金鑫石材加工厂变压器,0688749459-易县三利生态旅游开发有限公司-专变-228795079-易县三利生态旅游开发有限公司1号-400KVA,变压器,武家沟2#,东杜岗5#,台底2#,田岗村郝洪新100KVA,安格庄乡下铺村程龙2号80KVA,上铺1#,大峪沟村4#,碾子台1#,富岗中心小学变压器,下铺1#,0688749459-易县三利生态旅游开发有限公司-专变-228795081-易县三利生态旅游开发有限公司2号-400KVA,大峪沟1#,黄路元1#,宋晓卫变压器,武家沟1#,武家沟5#,上铺村4#,东杜岗1#,碾子台村3#,河北建设集团有限公司-三尖岭630KVA,大元村3#,东杜岗2#,碾子台2#,黄路元2#,柳树片1#,东杜岗8#,三尖岭1#,田岗村5#","poweroffReason":"【停电原因】由于狂风暴雨天气导致３５ＫＶ双峰变电站田岗５１４线路全线停电【变更送电】因抢修进度加快原因，送电时间由２３：００变更为２０：５０【发布渠道】通过９５５９８发布","powerTime":"2019-08-01 20:33:20","powerComm":"已送电","subsNo":"","lineNo":"","tgNo":"","tgName":null,"infoStatus":"1","orgName":"国网易县供电公司","typeName":null,"infoStatusName":null,"dateDay":null,"orgNos":null,"nowTime":null,"countyName":null,"streetName":null,"villageName":null,"roadName":null,"communityName":null,"tranName":null,"sdLineName":null,"cityCode":"1340625","cityName":"国网易县供电公司","provinceCode":null,"stopTime":"2019-08-01 20:50:00","powerType":"全部","powerOffArea":"【全线路停电】停墨韩山庄,柳树片3#,赵岗3#,下铺3#,易县利国土地整理有限公司变压器,易县天一石材加工厂200KVA,大元2#,柳树片2#,三尖岭2#,武文成,大元1#,东杜岗4#,赵岗1#【纯农排变】,易县西陵建柱养殖场变压器,安格庄乡下铺村民委员会50KVA,下铺2#,台底3#,田岗4#,上铺5#,上铺2#,武家沟3#,东杜岗6#,上铺3#,田岗2#,中富石材加工厂变压器,华安2#,安格庄乡下铺村程龙1号50KVA,大峪沟2#,上铺村6#,田岗3#,富岗永泰石料加工厂,下铺村4#,大峪沟3#,山水山庄,黄路元3#,鑫源矿业有限公司(200),赵岗2#,武家沟4#,易县大泽玄武岩加工有限公司变压器,鑫源矿业有限公司,福岗河沙开发有限公司,东杜岗3#,鑫辰铁选厂,66003100|鑫辰铁选厂(30KVA）,台底1#,东杜岗7#,易县中凯石材加工厂,田岗1#,富岗供电所变压器,台底4#,花安1#,易县金鑫石材加工厂变压器,0688749459-易县三利生态旅游开发有限公司-专变-228795079-易县三利生态旅游开发有限公司1号-400KVA,变压器,武家沟2#,东杜岗5#,台底2#,田岗村郝洪新100KVA,安格庄乡下铺村程龙2号80KVA,上铺1#,大峪沟村4#,碾子台1#,富岗中心小学变压器,下铺1#,0688749459-易县三利生态旅游开发有限公司-专变-228795081-易县三利生态旅游开发有限公司2号-400KVA,大峪沟1#,黄路元1#,宋晓卫变压器,武家沟1#,武家沟5#,上铺村4#,东杜岗1#,碾子台村3#,河北建设集团有限公司-三尖岭630KVA,大元村3#,东杜岗2#,碾子台2#,黄路元2#,柳树片1#,东杜岗8#,三尖岭1#,田岗村5#","powerOffReason":"【停电原因】由于狂风暴雨天气导致３５ＫＶ双峰变电站田岗５１４线路全线停电【变更送电】因抢修进度加快原因，送电时间由２３：００变更为２０：５０【发布渠道】通过９５５９８发布","powerOffId":"2019073113000492"},{"poweroffId":2019073113000477,"sgpoweroffId":null,"subsName":"","lineName":"双河庄512","pubTranName":"保定兴易钙石粉厂,河槽村2#,金宝砂场,龙门沟8#,丰达石材厂,双峰2#,东杜岗9#,东卫厂4#,易县龙门沟花岗石矿,双合庄2#,易县龙山振兴石材厂,易县诚惠林果种植农民专业合作社2号250KVA,富岗村2#,河槽1#,皮岗村1#,龙门沟1#,骆驼峪1#,刘立新板厂,骆驼峪村5#,易县滕海养鹅农民专业合作社B200,河槽3#,双合庄1#,龙门沟6#,李爱明变压器,郭振兴板厂(200),富岗乡河漕村刘顺利250KVA,双合庄4#,华龙石材厂变压器,易县鑫月牲畜饲养有限公司250KVA,瑞通公司(水),宋建清选矿,双合庄3#,龙门沟4#,0651772572-易县泰林安牧业有限公司-专变-177357561-易县泰林安牧业有限公司250KVA,易县忆缘河道铁选有限公司,龙门沟村3#,皮岗村3#,龙门沟贾振春,易县从众林果种植有限公司变压器,双合庄5#,易县铁？矿产建材有限公司,龙门沟村7#,东卫厂2#,牛岗2#,双峰村3号,皮岗2#,骆驼峪2#,易县滕海养鹅农民专业合作社A200,龙门沟2#,牛岗村3#,龙门沟5#,座山台1#,惠达石材厂,东卫厂1#,骆驼峪4#【纯农排变】,易县诚惠林果种植农民专业合作社1号250KVA,双峰1#,东卫厂3#,骆驼峪3#,易县大牛牛饲养有限公司250KVA,田岗村郝海军变压器,龙门沟郭振兴板厂,座山台2#,富岗村1#,易县台裕福石材厂250KVA,牛岗1#,","scope":"【影响街道/乡镇】牛岗乡、富岗乡【高危重要客户】无【影响客户】骆驼峪村、东苇场村、皮岗村、牛岗村、座山台村、河漕村、富岗村、双峰村、双合庄村、龙门沟村","startTime":"2019-07-31 20:27:14","stopDate":"2019-08-01 12:40:00","orgNo":"1340625","typeCode":"电网故障停限电","poweroffArea":"【全线路停电】停易县忆缘河道铁选有限公司,东卫厂4#,河槽村2#,龙门沟村7#,0651772572-易县泰林安牧业有限公司-专变-177357561-易县泰林安牧业有限公司250KVA,双合庄1#,座山台2#,华龙石材厂变压器,龙门沟4#,双峰村3号,易县台裕福石材厂250KVA,皮岗村3#,双峰1#,易县铁？矿产建材有限公司,双合庄3#,富岗村2#,龙门沟5#,东卫厂1#,东杜岗9#,易县诚惠林果种植农民专业合作社1号250KVA,田岗村郝海军变压器,双合庄4#,易县大牛牛饲养有限公司250KVA,富岗乡河漕村刘顺利250KVA,龙门沟6#,易县鑫月牲畜饲养有限公司250KVA,龙门沟村3#,皮岗村1#,易县从众林果种植有限公司变压器,惠达石材厂,易县龙山振兴石材厂,易县诚惠林果种植农民专业合作社2号250KVA,保定兴易钙石粉厂,河槽3#,东卫厂3#,刘立新板厂,皮岗2#,金宝砂场,双合庄5#,龙门沟1#,李爱明变压器,双合庄2#,骆驼峪1#,瑞通公司(水),宋建清选矿,龙门沟8#,易县滕海养鹅农民专业合作社B200,双峰2#,易县滕海养鹅农民专业合作社A200,易县龙门沟花岗石矿,龙门沟郭振兴板厂,龙门沟贾振春,骆驼峪村5#,郭振兴板厂(200),骆驼峪4#【纯农排变】,丰达石材厂,牛岗村3#,牛岗1#,龙门沟2#,座山台1#,东卫厂2#,骆驼峪3#,牛岗2#,富岗村1#,骆驼峪2#,河槽1#","poweroffReason":"【停电原因】由于狂风暴雨天气造成速断跳闸导致３５ＫＶ双峰变电站双河庄５１２线路全线停电【变更送电】因抢修进度加快原因，送电时间由１５：００变更为１２：４０【发布渠道】通过９５５９８发布","powerTime":"2019-08-01 12:19:48","powerComm":"已送电","subsNo":"","lineNo":"","tgNo":"","tgName":null,"infoStatus":"1","orgName":"国网易县供电公司","typeName":null,"infoStatusName":null,"dateDay":null,"orgNos":null,"nowTime":null,"countyName":null,"streetName":null,"villageName":null,"roadName":null,"communityName":null,"tranName":null,"sdLineName":null,"cityCode":"1340625","cityName":"国网易县供电公司","provinceCode":null,"stopTime":"2019-08-01 12:40:00","powerType":"全部","powerOffArea":"【全线路停电】停易县忆缘河道铁选有限公司,东卫厂4#,河槽村2#,龙门沟村7#,0651772572-易县泰林安牧业有限公司-专变-177357561-易县泰林安牧业有限公司250KVA,双合庄1#,座山台2#,华龙石材厂变压器,龙门沟4#,双峰村3号,易县台裕福石材厂250KVA,皮岗村3#,双峰1#,易县铁？矿产建材有限公司,双合庄3#,富岗村2#,龙门沟5#,东卫厂1#,东杜岗9#,易县诚惠林果种植农民专业合作社1号250KVA,田岗村郝海军变压器,双合庄4#,易县大牛牛饲养有限公司250KVA,富岗乡河漕村刘顺利250KVA,龙门沟6#,易县鑫月牲畜饲养有限公司250KVA,龙门沟村3#,皮岗村1#,易县从众林果种植有限公司变压器,惠达石材厂,易县龙山振兴石材厂,易县诚惠林果种植农民专业合作社2号250KVA,保定兴易钙石粉厂,河槽3#,东卫厂3#,刘立新板厂,皮岗2#,金宝砂场,双合庄5#,龙门沟1#,李爱明变压器,双合庄2#,骆驼峪1#,瑞通公司(水),宋建清选矿,龙门沟8#,易县滕海养鹅农民专业合作社B200,双峰2#,易县滕海养鹅农民专业合作社A200,易县龙门沟花岗石矿,龙门沟郭振兴板厂,龙门沟贾振春,骆驼峪村5#,郭振兴板厂(200),骆驼峪4#【纯农排变】,丰达石材厂,牛岗村3#,牛岗1#,龙门沟2#,座山台1#,东卫厂2#,骆驼峪3#,牛岗2#,富岗村1#,骆驼峪2#,河槽1#","powerOffReason":"【停电原因】由于狂风暴雨天气造成速断跳闸导致３５ＫＶ双峰变电站双河庄５１２线路全线停电【变更送电】因抢修进度加快原因，送电时间由１５：００变更为１２：４０【发布渠道】通过９５５９８发布","powerOffId":"2019073113000477"},{"poweroffId":2019073113000471,"sgpoweroffId":null,"subsName":"","lineName":"大兰线514","pubTranName":"龙村1#,川角村1#,北口子村6#变压器,兴达铁选厂,大平地1#,孙文报变压器,龙村水库,龙江铁选厂,大兰村6#,小平地村1#,中国冶金地质总局第一地质勘察院变压器,川角村4#,桑岗4#变压器,小兰村2#变压器,龙家铺1号新,安全铁选厂(500KVA),龙家铺村3#,北口子村3号,苑岗村3#,小兰村1号,大兰村2#,变压器,南杜岗村1#,龙家铺村4#村东（综）,造全铁选厂(400KVA),桑岗村2|【纯农排变】,川角村5,河北省高速公路荣乌管理处315KVA,川角村3#,小兰村2,北口子4#,北口子村2#,南杜岗村2#,南杜岗村3#,苑岗村2#,苑岗村1#,桑岗村1号,川角村2,0546380840-良岗新所-专变-47853302-良岗新所,丰发沟钨粉厂,大兰3台区,大平地,大兰村1#,龙村2#,北口子村1,川角村1#（新,刘占平铁选厂,龙家铺村1#,大兰村5#一队,易县国占铁选厂315KVA,北口子村5#分支,大兰村4#三队,国刚铁选厂,易县诚信钙粉厂,五间房村1#,北口子疗养院,桑岗村3#,易县炽达方解石矿有限公司,","scope":"【影响街道/乡镇】坡仓乡、良岗镇【高危重要客户】无【影响客户】苑岗村、南杜岗村、桑岗村、龙家铺村、龙村、五间房村、大平地村、小兰村、大兰村、川角村、北口子村、小平地村","startTime":"2019-07-31 20:23:58","stopDate":"2019-08-01 10:10:00","orgNo":"1340625","typeCode":"电网故障停限电","poweroffArea":"【全线路停电】停龙家铺1号新,北口子村5#分支,易县国占铁选厂315KVA,小兰村2,北口子4#,川角村4#,小平地村1#,中国冶金地质总局第一地质勘察院变压器,桑岗村1号,桑岗村2|【纯农排变】,大平地1#,龙村2#,北口子村2#,南杜岗村3#,0546380840-良岗新所-专变-47853302-良岗新所,丰发沟钨粉厂,安全铁选厂(500KVA),川角村3#,川角村1#（新,龙家铺村3#,易县炽达方解石矿有限公司,大兰村5#一队,大兰村4#三队,孙文报变压器,桑岗4#变压器,北口子村6#变压器,北口子村3号,川角村2,小兰村1号,河北省高速公路荣乌管理处315KVA,大兰村2#,小兰村2#变压器,龙家铺村1#,北口子村1,兴达铁选厂,龙江铁选厂,五间房村1#,龙村水库,北口子疗养院,大兰3台区,大平地,龙村1#,苑岗村1#,南杜岗村2#,易县诚信钙粉厂,国刚铁选厂,造全铁选厂(400KVA),大兰村1#,川角村1#,苑岗村2#,变压器,苑岗村3#,南杜岗村1#,龙家铺村4#村东（综）,刘占平铁选厂,川角村5,桑岗村3#,大兰村6#","poweroffReason":"【停电原因】由于狂风暴雨天气导致１１０ＫＶ良岗变电站大兰线５１４线路全线停电【变更送电】因抢修进度加快原因，送电时间由１２：００变更为１０：１０【发布渠道】通过９５５９８发布","powerTime":"2019-08-01 09:48:18","powerComm":"已送电","subsNo":"","lineNo":"","tgNo":"","tgName":null,"infoStatus":"1","orgName":"国网易县供电公司","typeName":null,"infoStatusName":null,"dateDay":null,"orgNos":null,"nowTime":null,"countyName":null,"streetName":null,"villageName":null,"roadName":null,"communityName":null,"tranName":null,"sdLineName":null,"cityCode":"1340625","cityName":"国网易县供电公司","provinceCode":null,"stopTime":"2019-08-01 10:10:00","powerType":"全部","powerOffArea":"【全线路停电】停龙家铺1号新,北口子村5#分支,易县国占铁选厂315KVA,小兰村2,北口子4#,川角村4#,小平地村1#,中国冶金地质总局第一地质勘察院变压器,桑岗村1号,桑岗村2|【纯农排变】,大平地1#,龙村2#,北口子村2#,南杜岗村3#,0546380840-良岗新所-专变-47853302-良岗新所,丰发沟钨粉厂,安全铁选厂(500KVA),川角村3#,川角村1#（新,龙家铺村3#,易县炽达方解石矿有限公司,大兰村5#一队,大兰村4#三队,孙文报变压器,桑岗4#变压器,北口子村6#变压器,北口子村3号,川角村2,小兰村1号,河北省高速公路荣乌管理处315KVA,大兰村2#,小兰村2#变压器,龙家铺村1#,北口子村1,兴达铁选厂,龙江铁选厂,五间房村1#,龙村水库,北口子疗养院,大兰3台区,大平地,龙村1#,苑岗村1#,南杜岗村2#,易县诚信钙粉厂,国刚铁选厂,造全铁选厂(400KVA),大兰村1#,川角村1#,苑岗村2#,变压器,苑岗村3#,南杜岗村1#,龙家铺村4#村东（综）,刘占平铁选厂,川角村5,桑岗村3#,大兰村6#","powerOffReason":"【停电原因】由于狂风暴雨天气导致１１０ＫＶ良岗变电站大兰线５１４线路全线停电【变更送电】因抢修进度加快原因，送电时间由１２：００变更为１０：１０【发布渠道】通过９５５９８发布","powerOffId":"2019073113000471"},{"poweroffId":2019073113000426,"sgpoweroffId":null,"subsName":"","lineName":"10kV570崔蒲庄线","pubTranName":"四合庄村公用农业2台区,梅家庄公用农业6台区【纯农排变】,梅家庄公用农业3台区【纯农排变】,二郎庙公用照明4台区,0612529571-定州市宏达灶具厂-专变-127832903-定州市宏达灶具厂变压器,四合庄公用农业13台区【纯农排变】,王九栓,牛王庄北口,二郎庙公用农业7台区【纯农排变】,叮咛店镇牛王庄村北,崔蒲庄村西,四合庄公用农业1台区,定州市红亮空心砖厂,二郞庙公用照明3台区,二郎庙公用照明2台区,牛王庄农业4台区柱上变压器,四合庄公用照明5台区,张会轩塑料厂,牛王庄农业3台区柱上变压器,定州市锁柱空心砖厂,梅家庄公用照明1台区,催蒲庄公用农业9台区【纯农排变】,二郎庙公用照明1台区,何同川,二郎庙公用农业6台区【纯农排变】,梅家庄公用照明5台区,李永辉,四合庄公用农业4台区【纯农排变】,崔蒲庄东南口,催蒲庄公用照明1台区,崔蒲庄风蒲,崔蒲庄村东,定州市奥路灶具厂变压器,四合庄公用照明2台区,四合庄公用农业6台区【纯农排变】,催蒲庄公用农业8台区【纯农排变】,王九栓变压器,四合庄公用照明1台区,梅家庄公用农业8台区【纯农排变】,定州市奥达灶具厂变压器,崔建宾,四合庄公用农业11台区【纯农排变】,四合庄公用农业5台区,催蒲庄公用照明5台区,四合庄公用农业8台区【纯农排变】,梅家庄公用农业1台区,四合庄公用农业7台区,催蒲庄公用农业7台区,牛王庄公用照明1台区,定州市飞翔灶具厂,定州市飞翔灶具厂变压器,梅家庄木器加工厂,崔蒲庄村北,梅家庄公用照明3台区,四合庄公用农业12台区【纯农排变】,定州市新华生物制品厂,于三路,定州市梅家庄塑料制品厂,牛王庄公用照明2台区,二郎庙公用农业2台区【纯农排变】,王国力,牛王庄公用照明3台区,张新顺,王红星,四合庄公用农业9台区【纯农排变】,定州市宝塔塑料制品厂,定州市鑫兴铸造有限公司变压器,催蒲庄公用照明4台区,梅家庄公用农业7台区【纯农排变】,王欣乐,牛王庄西北,催蒲庄公用照明2台区,定州市辉腾建筑工具厂变压器,催蒲庄公用农业5台区,二郎庙公用农业1台区【纯农排变】,催蒲庄公用农业1台区【纯农排变】,定州市叮咛店镇崔蒲庄村委会,二郎庙公用农业5台区【纯农排变】,催蒲庄公用照明3台区配变,二郎庙公用照明5台区,梅家庄公用农业5台区【纯农排变】,梅家庄公用照明4台区,梅家庄公用照明2台区,四合庄公用照明3台区,牛王庄北大道,催蒲庄公用农业3台区【纯农排变】,梅家庄公用农业2台区【纯农排变】,四合庄公用照明4台区,王占学,梅家庄公用农业9台区【纯农排变】,四合庄公用农业3台区【纯农排变】,牛王庄农业5台区柱上变压器,梅家庄公用农业4台区,催蒲庄公用农业6台区【纯农排变】,王金杨,四合庄公用农业10台区【纯农排变】,0626733753-河北乾吉源牧业有限公司-专变-216179666-河北乾吉源牧业有限公司变压器,二郎庙公用农业4台区【纯农排变】,二郎庙公用农业3台区【纯农排变】,梅家庄公用农业10台区,催蒲庄公用农业2台区【纯农排变】,催蒲庄公用农业4台区【纯农排变】,崔莆庄塑料厂,定州市叮咛店镇人民政府水厂变压器,变压器,","scope":"【影响街道/乡镇】叮咛店镇【高危重要客户】无【影响客户】二郎庙、四合庄、梅家庄、牛王庄、崔浦庄","startTime":"2019-08-01 03:00:00","stopDate":"2019-08-01 05:00:00","orgNo":"1340610","typeCode":"其他临时停电","poweroffArea":"【全线路停电】停定州市辉腾建筑工具厂变压器,二郎庙公用农业1台区【纯农排变】,定州市宝塔塑料制品厂,四合庄公用农业3台区【纯农排变】,四合庄公用农业7台区,定州市叮咛店镇崔蒲庄村委会,牛王庄农业5台区柱上变压器,牛王庄农业3台区柱上变压器,二郎庙公用农业5台区【纯农排变】,牛王庄公用照明2台区,四合庄公用农业10台区【纯农排变】,牛王庄农业4台区柱上变压器,催蒲庄公用照明3台区配变,四合庄公用照明5台区,0626733753-河北乾吉源牧业有限公司-专变-216179666-河北乾吉源牧业有限公司变压器,四合庄公用农业12台区【纯农排变】,二郎庙公用农业4台区【纯农排变】,定州市新华生物制品厂,定州市奥路灶具厂变压器,张会轩塑料厂,四合庄村公用农业2台区,于三路,四合庄公用照明2台区,梅家庄公用照明1台区,梅家庄公用农业6台区【纯农排变】,二郎庙公用农业2台区【纯农排变】,催蒲庄公用农业8台区【纯农排变】,催蒲庄公用农业9台区【纯农排变】,梅家庄公用农业3台区【纯农排变】,催蒲庄公用农业1台区【纯农排变】,定州市梅家庄塑料制品厂,二郎庙公用照明1台区,定州市飞翔灶具厂变压器,王国力,定州市锁柱空心砖厂,何同川,二郎庙公用照明5台区,二郎庙公用农业3台区【纯农排变】,定州市奥达灶具厂变压器,二郎庙公用农业6台区【纯农排变】,梅家庄公用农业5台区【纯农排变】,梅家庄公用农业10台区,梅家庄公用照明4台区,李永辉,梅家庄公用农业8台区【纯农排变】,梅家庄公用照明5台区,梅家庄公用照明2台区,催蒲庄公用照明1台区,二郎庙公用照明4台区,王九栓变压器,四合庄公用照明3台区,崔蒲庄村西,0612529571-定州市宏达灶具厂-专变-127832903-定州市宏达灶具厂变压器,崔建宾,四合庄公用农业13台区【纯农排变】,催蒲庄公用农业2台区【纯农排变】,牛王庄北大道,四合庄公用农业11台区【纯农排变】,催蒲庄公用农业3台区【纯农排变】,催蒲庄公用农业4台区【纯农排变】,定州市鑫兴铸造有限公司变压器,四合庄公用农业5台区,梅家庄公用农业2台区【纯农排变】,定州市叮咛店镇人民政府水厂变压器,四合庄公用农业4台区【纯农排变】,四合庄公用农业8台区【纯农排变】,四合庄公用照明4台区,变压器,二郎庙公用农业7台区【纯农排变】,牛王庄公用照明3台区,梅家庄公用农业4台区,催蒲庄公用照明4台区,四合庄公用照明1台区,张新顺,催蒲庄公用农业6台区【纯农排变】,梅家庄公用农业7台区【纯农排变】,牛王庄公用照明1台区,王红星,定州市飞翔灶具厂,王欣乐,梅家庄公用农业1台区,四合庄公用农业9台区【纯农排变】,牛王庄西北,催蒲庄公用照明2台区,四合庄公用农业6台区【纯农排变】,催蒲庄公用农业7台区,叮咛店镇牛王庄村北,梅家庄木器加工厂,王九栓,催蒲庄公用照明5台区,牛王庄北口,崔蒲庄东南口,崔蒲庄风蒲,四合庄公用农业1台区,王金杨,定州市红亮空心砖厂,崔蒲庄村东,崔蒲庄村北,王占学,二郞庙公用照明3台区,崔莆庄塑料厂,二郎庙公用照明2台区,梅家庄公用农业9台区【纯农排变】,梅家庄公用照明3台区,催蒲庄公用农业5台区","poweroffReason":"【停电原因】由于主干２２号杆Ａ相弓子线打火需停电进行紧急检修导致１１０ＫＶ叮咛店变电站１０ＫＶ５７０崔蒲庄线路全线停电 【变更送电】无 【发布渠道】９５５９８","powerTime":"2019-08-01 04:36:09","powerComm":"已送电","subsNo":"","lineNo":"","tgNo":"","tgName":null,"infoStatus":"1","orgName":"国网定州市供电公司","typeName":null,"infoStatusName":null,"dateDay":null,"orgNos":null,"nowTime":null,"countyName":null,"streetName":null,"villageName":null,"roadName":null,"communityName":null,"tranName":null,"sdLineName":null,"cityCode":"1340610","cityName":"国网定州市供电公司","provinceCode":null,"stopTime":"2019-08-01 05:00:00","powerType":"全部","powerOffArea":"【全线路停电】停定州市辉腾建筑工具厂变压器,二郎庙公用农业1台区【纯农排变】,定州市宝塔塑料制品厂,四合庄公用农业3台区【纯农排变】,四合庄公用农业7台区,定州市叮咛店镇崔蒲庄村委会,牛王庄农业5台区柱上变压器,牛王庄农业3台区柱上变压器,二郎庙公用农业5台区【纯农排变】,牛王庄公用照明2台区,四合庄公用农业10台区【纯农排变】,牛王庄农业4台区柱上变压器,催蒲庄公用照明3台区配变,四合庄公用照明5台区,0626733753-河北乾吉源牧业有限公司-专变-216179666-河北乾吉源牧业有限公司变压器,四合庄公用农业12台区【纯农排变】,二郎庙公用农业4台区【纯农排变】,定州市新华生物制品厂,定州市奥路灶具厂变压器,张会轩塑料厂,四合庄村公用农业2台区,于三路,四合庄公用照明2台区,梅家庄公用照明1台区,梅家庄公用农业6台区【纯农排变】,二郎庙公用农业2台区【纯农排变】,催蒲庄公用农业8台区【纯农排变】,催蒲庄公用农业9台区【纯农排变】,梅家庄公用农业3台区【纯农排变】,催蒲庄公用农业1台区【纯农排变】,定州市梅家庄塑料制品厂,二郎庙公用照明1台区,定州市飞翔灶具厂变压器,王国力,定州市锁柱空心砖厂,何同川,二郎庙公用照明5台区,二郎庙公用农业3台区【纯农排变】,定州市奥达灶具厂变压器,二郎庙公用农业6台区【纯农排变】,梅家庄公用农业5台区【纯农排变】,梅家庄公用农业10台区,梅家庄公用照明4台区,李永辉,梅家庄公用农业8台区【纯农排变】,梅家庄公用照明5台区,梅家庄公用照明2台区,催蒲庄公用照明1台区,二郎庙公用照明4台区,王九栓变压器,四合庄公用照明3台区,崔蒲庄村西,0612529571-定州市宏达灶具厂-专变-127832903-定州市宏达灶具厂变压器,崔建宾,四合庄公用农业13台区【纯农排变】,催蒲庄公用农业2台区【纯农排变】,牛王庄北大道,四合庄公用农业11台区【纯农排变】,催蒲庄公用农业3台区【纯农排变】,催蒲庄公用农业4台区【纯农排变】,定州市鑫兴铸造有限公司变压器,四合庄公用农业5台区,梅家庄公用农业2台区【纯农排变】,定州市叮咛店镇人民政府水厂变压器,四合庄公用农业4台区【纯农排变】,四合庄公用农业8台区【纯农排变】,四合庄公用照明4台区,变压器,二郎庙公用农业7台区【纯农排变】,牛王庄公用照明3台区,梅家庄公用农业4台区,催蒲庄公用照明4台区,四合庄公用照明1台区,张新顺,催蒲庄公用农业6台区【纯农排变】,梅家庄公用农业7台区【纯农排变】,牛王庄公用照明1台区,王红星,定州市飞翔灶具厂,王欣乐,梅家庄公用农业1台区,四合庄公用农业9台区【纯农排变】,牛王庄西北,催蒲庄公用照明2台区,四合庄公用农业6台区【纯农排变】,催蒲庄公用农业7台区,叮咛店镇牛王庄村北,梅家庄木器加工厂,王九栓,催蒲庄公用照明5台区,牛王庄北口,崔蒲庄东南口,崔蒲庄风蒲,四合庄公用农业1台区,王金杨,定州市红亮空心砖厂,崔蒲庄村东,崔蒲庄村北,王占学,二郞庙公用照明3台区,崔莆庄塑料厂,二郎庙公用照明2台区,梅家庄公用农业9台区【纯农排变】,梅家庄公用照明3台区,催蒲庄公用农业5台区","powerOffReason":"【停电原因】由于主干２２号杆Ａ相弓子线打火需停电进行紧急检修导致１１０ＫＶ叮咛店变电站１０ＫＶ５７０崔蒲庄线路全线停电 【变更送电】无 【发布渠道】９５５９８","powerOffId":"2019073113000426"}],"pageModel":{"pageNow":730,"totalCount":10973,"totalPage":1098,"tableRows":0,"pageCount":10,"beginCount":7290},"isExperi":"1"}