{"message":"","today":"2020-06-15","seleList":[{"poweroffId":2019073013000674,"sgpoweroffId":null,"subsName":"","lineName":"东都亭515线","pubTranName":"葛堡4719台区,","scope":"【影响街道/乡镇】南店头乡【高危重要客户】无【影响客户】葛堡","startTime":"2019-07-30 20:43:43","stopDate":"2019-07-30 22:50:00","orgNo":"1340622","typeCode":"电网故障停限电","poweroffArea":"【单台区停电】停葛堡4719台区","poweroffReason":"【停电原因】由于变压器出线烧导致１１０ＫＶ唐县变电站东都亭５１５线路葛堡４７１９公变台区停电【变更送电】无【发布渠道】通过９５５９８发布","powerTime":"2019-07-30 22:17:27","powerComm":"已送电","subsNo":"","lineNo":"","tgNo":"","tgName":null,"infoStatus":"1","orgName":"国网唐县供电公司","typeName":null,"infoStatusName":null,"dateDay":null,"orgNos":null,"nowTime":null,"countyName":null,"streetName":null,"villageName":null,"roadName":null,"communityName":null,"tranName":null,"sdLineName":null,"cityCode":"1340622","cityName":"国网唐县供电公司","provinceCode":null,"stopTime":"2019-07-30 22:50:00","powerType":"全部","powerOffArea":"【单台区停电】停葛堡4719台区","powerOffReason":"【停电原因】由于变压器出线烧导致１１０ＫＶ唐县变电站东都亭５１５线路葛堡４７１９公变台区停电【变更送电】无【发布渠道】通过９５５９８发布","powerOffId":"2019073013000674"},{"poweroffId":2019073013000659,"sgpoweroffId":null,"subsName":"","lineName":"10KV篷头线531","pubTranName":"涞水荣发体育文化发展有限公司1000KVA专变,涞水荣盛伟业房地产开发有限公司KVA,平峪4台区,荣盛伟业房地产开发有限公司1000KVA专变,计鹿村变压器（箱式变电站）间隔配电变压器,河东5台区,福山口2号井台区变压器,福山口许文永变压器,白涧邮政分局,涞水荣盛康旅投资有限公司新增变压器630KVA一台,计鹿砖厂,龙八港五台区变压器,白涧机井变压器,小丰口1号井台区变压器,计鹿村三台区,计鹿机井变压器【纯农排变】,福山口2,福山口机井,小丰口村,赵各庄苗圃场变压器,福山口3台区,荣盛伟业房地产1600KVA专变,赵各庄大街2台区,小丰口2号井台区变压器,计鹿四台区,福山口奔山变压器,赵各庄派出所,赵各庄幼儿园台区,平峪电站,计鹿二台区,赵各庄南台区,涞水荣盛伟业房地产开发有限公司专变,小丰口村西台区,福山口一间房变压器,福山口一间房机井2台区,福山口村变压器,董秀文,平峪村变压器,平峪（三台区）,0671532666-涞水荣盛伟业房地产开发有限公司-专变-212323038-涞水荣盛康旅投资有限公司630KVA,河东村开发区,北京铁路局北京供电段250KVA,赵各庄村变压器,河东4台区,龙八港二台区【纯农排变】,北砣生态园,赵各庄7台区,赵各庄砖厂,小丰口村东2台区,福山口3号井变压器,赵各庄（二台区）,赵各庄村大队后沟井【纯农排变】,白涧四台区,涞水县林建石材厂315KVA专变,白涧十台区,龙八港中铺变压器,河东村变压器【冬季供暖设施】,福山口芥葱港台区,【混全】小丰口村东,计鹿5台区,平峪5台区,平峪二台区变压器,小丰口村东3台区变压器,河东小巷口台区,福山口一间房机井1台区,涞水县云凯水泥制品有限公司400KVA,小丰口山神庙变压器,福山口小学台区【冬季供暖设施】,小丰口沙窝东变压器,赵各庄3,吕建良50KVA专变,河东3台区,涞水荣盛伟业房地产开发有限公司315KVA专变,小丰口扬水站变压器,小丰口上庄,涞水县林键石材厂315KVA专变,河北鼎拓房地产开发有限公司250KVA专变,中国移动通信集团河北有限公司保定分公司50KVA专变,涞水县国营赵各庄林场,赵各庄6台区,涞水县城乡建设投资有限公司新增变压器,赵各庄村大队1号井,福山口小北台区,涞水县恒瑞建筑工程有限公司315KVA专变,涞水荣发体育文化发展有限公司,涞水荣盛伟业房地产开发有限公司1250KVA专变,小丰口上庄2台区,城建公司100KV专变,赵各庄大街变压器,赵各庄大棚台区,河东2台区,福山口1号井台区变压器,","scope":"【影响街道/乡镇】赵各庄镇 【高危重要客户】无 【影响客户】福山口村、赵各庄村、河东村、计鹿村、平峪村、小丰口村、荣盛集团（计鹿）","startTime":"2019-07-30 20:12:50","stopDate":"2019-07-30 23:00:00","orgNo":"1340614","typeCode":"电网故障停限电","poweroffArea":"【全线路停电】停平峪4台区,平峪电站,计鹿二台区,赵各庄南台区,涞水荣盛伟业房地产开发有限公司专变,小丰口村西台区,福山口一间房变压器,福山口一间房机井2台区,福山口村变压器,涞水荣发体育文化发展有限公司1000KVA专变,涞水荣盛伟业房地产开发有限公司KVA,荣盛伟业房地产开发有限公司1000KVA专变,计鹿村变压器（箱式变电站）间隔配电变压器,河东5台区,福山口2号井台区变压器,福山口许文永变压器,白涧邮政分局,涞水荣盛康旅投资有限公司新增变压器630KVA一台,计鹿砖厂,龙八港五台区变压器,白涧机井变压器,小丰口1号井台区变压器,赵各庄幼儿园台区,计鹿机井变压器【纯农排变】,福山口2,福山口机井,小丰口村,赵各庄苗圃场变压器,福山口3台区,荣盛伟业房地产1600KVA专变,赵各庄大街2台区,小丰口2号井台区变压器,计鹿四台区,福山口奔山变压器,董秀文,赵各庄派出所,计鹿村三台区,平峪村变压器,平峪（三台区）,0671532666-涞水荣盛伟业房地产开发有限公司-专变-212323038-涞水荣盛康旅投资有限公司630KVA,河东村开发区,北京铁路局北京供电段250KVA,赵各庄村变压器,河东4台区,龙八港二台区【纯农排变】,北砣生态园,赵各庄7台区,赵各庄砖厂,小丰口村东2台区,福山口3号井变压器,赵各庄（二台区）,赵各庄村大队后沟井【纯农排变】,白涧四台区,涞水县林建石材厂315KVA专变,龙八港中铺变压器,白涧十台区,河东村变压器【冬季供暖设施】,福山口芥葱港台区,【混全】小丰口村东,计鹿5台区,平峪5台区,平峪二台区变压器,小丰口村东3台区变压器,河东小巷口台区,福山口一间房机井1台区,涞水县云凯水泥制品有限公司400KVA,小丰口山神庙变压器,福山口1号井台区变压器,福山口小学台区【冬季供暖设施】,小丰口沙窝东变压器,赵各庄3,吕建良50KVA专变,河东3台区,涞水荣盛伟业房地产开发有限公司315KVA专变,小丰口扬水站变压器,小丰口上庄,涞水县林键石材厂315KVA专变,河北鼎拓房地产开发有限公司250KVA专变,中国移动通信集团河北有限公司保定分公司50KVA专变,涞水县国营赵各庄林场,赵各庄6台区,涞水县城乡建设投资有限公司新增变压器,赵各庄村大队1号井,福山口小北台区,涞水县恒瑞建筑工程有限公司315KVA专变,涞水荣发体育文化发展有限公司,涞水荣盛伟业房地产开发有限公司1250KVA专变,小丰口上庄2台区,城建公司100KV专变,赵各庄大街变压器,赵各庄大棚台区,河东2台区","poweroffReason":"【停电原因】由于速断跳闸导致１１０ＫＶ六顺变电站１０ＫＶ蓬头线５３１线路全线停电 【变更送电】因抢修进度加快原因，送电时间由３１日１０：３０变更为３０日２３：００ 【发布渠道】通过９５５９８发布","powerTime":"2019-07-30 22:24:03","powerComm":"已送电","subsNo":"","lineNo":"","tgNo":"","tgName":null,"infoStatus":"1","orgName":"国网涞水县供电公司","typeName":null,"infoStatusName":null,"dateDay":null,"orgNos":null,"nowTime":null,"countyName":null,"streetName":null,"villageName":null,"roadName":null,"communityName":null,"tranName":null,"sdLineName":null,"cityCode":"1340614","cityName":"国网涞水县供电公司","provinceCode":null,"stopTime":"2019-07-30 23:00:00","powerType":"全部","powerOffArea":"【全线路停电】停平峪4台区,平峪电站,计鹿二台区,赵各庄南台区,涞水荣盛伟业房地产开发有限公司专变,小丰口村西台区,福山口一间房变压器,福山口一间房机井2台区,福山口村变压器,涞水荣发体育文化发展有限公司1000KVA专变,涞水荣盛伟业房地产开发有限公司KVA,荣盛伟业房地产开发有限公司1000KVA专变,计鹿村变压器（箱式变电站）间隔配电变压器,河东5台区,福山口2号井台区变压器,福山口许文永变压器,白涧邮政分局,涞水荣盛康旅投资有限公司新增变压器630KVA一台,计鹿砖厂,龙八港五台区变压器,白涧机井变压器,小丰口1号井台区变压器,赵各庄幼儿园台区,计鹿机井变压器【纯农排变】,福山口2,福山口机井,小丰口村,赵各庄苗圃场变压器,福山口3台区,荣盛伟业房地产1600KVA专变,赵各庄大街2台区,小丰口2号井台区变压器,计鹿四台区,福山口奔山变压器,董秀文,赵各庄派出所,计鹿村三台区,平峪村变压器,平峪（三台区）,0671532666-涞水荣盛伟业房地产开发有限公司-专变-212323038-涞水荣盛康旅投资有限公司630KVA,河东村开发区,北京铁路局北京供电段250KVA,赵各庄村变压器,河东4台区,龙八港二台区【纯农排变】,北砣生态园,赵各庄7台区,赵各庄砖厂,小丰口村东2台区,福山口3号井变压器,赵各庄（二台区）,赵各庄村大队后沟井【纯农排变】,白涧四台区,涞水县林建石材厂315KVA专变,龙八港中铺变压器,白涧十台区,河东村变压器【冬季供暖设施】,福山口芥葱港台区,【混全】小丰口村东,计鹿5台区,平峪5台区,平峪二台区变压器,小丰口村东3台区变压器,河东小巷口台区,福山口一间房机井1台区,涞水县云凯水泥制品有限公司400KVA,小丰口山神庙变压器,福山口1号井台区变压器,福山口小学台区【冬季供暖设施】,小丰口沙窝东变压器,赵各庄3,吕建良50KVA专变,河东3台区,涞水荣盛伟业房地产开发有限公司315KVA专变,小丰口扬水站变压器,小丰口上庄,涞水县林键石材厂315KVA专变,河北鼎拓房地产开发有限公司250KVA专变,中国移动通信集团河北有限公司保定分公司50KVA专变,涞水县国营赵各庄林场,赵各庄6台区,涞水县城乡建设投资有限公司新增变压器,赵各庄村大队1号井,福山口小北台区,涞水县恒瑞建筑工程有限公司315KVA专变,涞水荣发体育文化发展有限公司,涞水荣盛伟业房地产开发有限公司1250KVA专变,小丰口上庄2台区,城建公司100KV专变,赵各庄大街变压器,赵各庄大棚台区,河东2台区","powerOffReason":"【停电原因】由于速断跳闸导致１１０ＫＶ六顺变电站１０ＫＶ蓬头线５３１线路全线停电 【变更送电】因抢修进度加快原因，送电时间由３１日１０：３０变更为３０日２３：００ 【发布渠道】通过９５５９８发布","powerOffId":"2019073013000659"},{"poweroffId":2019073013000657,"sgpoweroffId":null,"subsName":"","lineName":"10kV517安羊村线","pubTranName":"曲阳县华英雕刻厂,曲阳县达建石材有限公司变压器,0012788657靳羊村东区变压器,曲阳安盛建材有限公司变压器,曲阳县华森雕塑工艺品销售中心变压器,0000005674安羊村南变压器,0000005607马羊村统管变压器,曲阳县耿士亮银河雕塑厂变压器,华兴滑石粉加工厂,0000004483靳羊村变压器,0000006173企业局家属院变压器,曲阳宏州房地产开发有限公司变压器,牛玉杰,0000004484赵羊村变压器,曲阳县昌盛锯片厂,河北艺美石雕有限公司曲阳县第六分,曲阳县千仁雕刻艺术有限公司,西河流建材厂,赵羊村北变压器,曲阳县新颖雕刻厂,诗豪建材雕塑艺术有限公司,曲阳县石化恒阳加油站,职教中心学校1变压器,0000005978二粮库变压器,曲阳县双赢滑石粉厂,利达建材有限公司,0000004481安羊村变压器,0000005597西河流统管变压器,曲阳县大用雕塑厂,职教中心学校5变压器,曲阳县祥泰艺术雕刻厂,王成会石板厂,职业技术教育中心变压器,曲阳宏州石业集团有限公司,0000004482王羊村变压器,曲阳县翰海园林雕塑厂,0012788656安羊村中区变压器,安羊村小学变压器,曲阳县鑫华装修材料门市变压器,0000006357马羊村西变变压器,河北千仁雕塑工程有限公司变压器,0670989126-曲阳县瑞茂雕刻品销售部-专变-212149866-曲阳县瑞茂雕刻品销售部变压器,0469460588-河北省曲阳县雕刻学校教师公寓-专变-46814683-河北省曲阳县雕刻学校教师公寓,曲阳县祝华雕刻有限公司变压器,曲阳县蓓蕾雕刻厂2#,雕刻市场路西路灯,河北省曲阳县定瓷有限责任公司,曲阳县范氏雕塑艺术有限公司变压器,曲阳艺州园林建筑雕塑有限公司,曲阳县骏业大理石雕刻厂,曲阳县顺儒雕塑有限公司变压器,天元石业有限公司,曲阳县林艺雕刻石材厂（2）,曲阳县泰丰重钙厂变压器,牛玉静,曲阳县林艺雕刻石材厂（1）,安祥重钙厂,鑫鑫粉业有限公司,综艺雕刻厂,职教中心学校3变压器,曲阳县恒远雕刻石材有限公司,0000006360赵羊村东变压器,0000004545安羊村北变压器,曲阳第四医院变压器,河北锦阔园林工程有限公司变压器,0000006122雕刻公园变压器,曲阳县祥龙雕塑艺术中心变压器,曲阳县天河石粉厂,曲阳县现代工艺石材有限公司变压器,0000006135雕刻广场变压器,曲阳县双源供水有限公司变压器,赵羊村中区变压器,曲阳县众友自动化设备有限公司变压器,曲阳县中欧园林雕塑艺术有限公司变压器,职教中心学校2变压器,曲阳县振鹏石材变压器,大南关正阳面粉厂,河北田氏房地产开发有限公司变压器,新颖雕刻厂2#,曲阳源丰润重钙厂,曲阳县南环滨河公园项目变压器,曲阳县精艺达工艺雕刻厂,曲阳县黄炎石业有限公司变压器2,曲阳县金世纪园林雕塑工程有限公司变压器,雕刻学校变压器,0012502345职业技术教育中心变压器,曲阳龙泉定瓷有限公司变压器,宋兵献雕刻厂,曲阳县宏瑞园林工艺品有限公司变压器,曲阳县华夏石材销售处变压器,大南关雕刻市场1变压器,曲阳县九鼎工艺雕刻厂变压器,羊联办小学变压器,0014466244王羊村新增,河北艺美石雕曲阳","scope":"【影响街道/乡镇】羊平镇【高危重要客户】无【影响客户】靳羊村、马羊村、赵羊村、安羊村、王羊村、西河流、企业局家属院、雕刻公园、雕刻广场、南关雕刻市场、二粮库、水洼村、职业技术教育中心","startTime":"2019-07-30 20:21:00","stopDate":"2019-07-30 21:20:00","orgNo":"1340619","typeCode":"电网故障停限电","poweroffArea":"【全线路停电】停华兴滑石粉加工厂,0000004483靳羊村变压器,第二国有粮食购销站,苗占琴,曲阳县伟达石材雕刻厂变压器,三兴重钙厂,曲阳县鑫光石材雕刻厂,0012790847赵羊村南区变压器,曲阳县汇丰雕刻厂,马羊村北变压器,曲阳县灏德石材厂变压器,曲阳县恒阳石材雕塑有限公司变压器,曲阳县大南关正阳面粉挂面厂2变压器,曲阳县蓓蕾雕刻厂,祥丰石材雕刻厂,0000004480水洼村变压器,安羊村幼儿园变压器,0012788657靳羊村东区变压器,0000006173企业局家属院变压器,曲阳宏州房地产开发有限公司变压器,牛玉杰,0000004484赵羊村变压器,曲阳县昌盛锯片厂,河北艺美石雕有限公司曲阳县第六分,曲阳县千仁雕刻艺术有限公司,西河流建材厂,赵羊村北变压器,曲阳县新颖雕刻厂,诗豪建材雕塑艺术有限公司,曲阳县石化恒阳加油站,职教中心学校1变压器,曲阳县双赢滑石粉厂,利达建材有限公司,0000004481安羊村变压器,0000005597西河流统管变压器,曲阳县大用雕塑厂,职教中心学校5变压器,曲阳县祥泰艺术雕刻厂,王成会石板厂,职业技术教育中心变压器,曲阳宏州石业集团有限公司,0000004482王羊村变压器,曲阳县翰海园林雕塑厂,0012788656安羊村中区变压器,安羊村小学变压器,曲阳艺州园林建筑雕塑有限公司,曲阳县灏源石材雕塑品有限公司变压器,南苑新城小区配电变压器,职教中心学校4变压器,恒阳石材雕刻有限公司,曲阳县杨刚雕塑有限公司变压器,安羊村路东路灯,雕刻市场路东路灯,曲阳县鑫华装修材料门市变压器,0000006357马羊村西变变压器,河北千仁雕塑工程有限公司变压器,0670989126-曲阳县瑞茂雕刻品销售部-专变-212149866-曲阳县瑞茂雕刻品销售部变压器,0469460588-河北省曲阳县雕刻学校教师公寓-专变-46814683-河北省曲阳县雕刻学校教师公寓,曲阳县祝华雕刻有限公司变压器,曲阳县蓓蕾雕刻厂2#,雕刻市场路西路灯,河北省曲阳县定瓷有限责任公司,曲阳县范氏雕塑艺术有限公司变压器,曲阳县骏业大理石雕刻厂,0000005978二粮库变压器,曲阳县华英雕刻厂,曲阳县达建石材有限公司变压器,曲阳安盛建材有限公司变压器,曲阳县华森雕塑工艺品销售中心变压器,0000005674安羊村南变压器,0000005607马羊村统管变压器,曲阳县耿士亮银河雕塑厂变压器,曲阳县振鹏石材变压器,职教中心学校2变压器,大南关正阳面粉厂,河北田氏房地产开发有限公司变压器,新颖雕刻厂2#,曲阳源丰润重钙厂,曲阳县南环滨河公园项目变压器,曲阳县精艺达工艺雕刻厂,曲阳县黄炎石业有限公司变压器2,曲阳县金世纪园林雕塑工程有限公司变压器,雕刻学校变压器,0012502345职业技术教育中心变压器,曲阳龙泉定瓷有限公司变压器,宋兵献雕刻厂,曲阳县宏瑞园林工艺品有限公司变压器,曲阳县华夏石材销售处变压器,大南关雕刻市场1变压器,曲阳县九鼎工艺雕刻厂变压器,羊联办小学变压器,0014466244王羊村新增,河北艺美石雕曲阳第六分公司,黄炎石业有限公司2#,靳羊村南变压器,曲阳县红阳石材厂（2）,0000004485马羊村变压器,曲阳县雕刻行业管理办公室变压器,0014106044靳羊村东2区变压器,0469460588-河北省曲阳县雕刻学校教师公寓-专变-123802926-河北省曲阳县雕刻学校教师公寓,东关空心砖长变压器,曲阳县顺儒雕塑有限公司变压器,天元石业有限公司,曲阳县林艺雕刻石材厂（2）,曲阳县泰丰重钙厂变压器,牛玉静,曲阳县林艺雕刻石材厂（1）,曲阳县中欧园林雕塑艺术有限公司变压器,安祥重钙厂,鑫鑫粉业有限公司,综艺雕刻厂,职教中心学校3变压器,曲阳县恒远雕刻石材有限公司,0000006360赵羊村东变压器,0000004545安羊","poweroffReason":"【停电原因】由于线路Ｉ段过流跳闸导致１１０ＫＶ羊村变电站１０ＫＶ５１７安羊村线路全线停电【变更送电】因抢修进度加快原因，送电时间由２３：００变更为２１：２０【发布渠道】通过９５５９８发布","powerTime":"2019-07-30 21:00:40","powerComm":"已送电","subsNo":"","lineNo":"","tgNo":"","tgName":null,"infoStatus":"1","orgName":"国网曲阳县供电公司","typeName":null,"infoStatusName":null,"dateDay":null,"orgNos":null,"nowTime":null,"countyName":null,"streetName":null,"villageName":null,"roadName":null,"communityName":null,"tranName":null,"sdLineName":null,"cityCode":"1340619","cityName":"国网曲阳县供电公司","provinceCode":null,"stopTime":"2019-07-30 21:20:00","powerType":"全部","powerOffArea":"【全线路停电】停华兴滑石粉加工厂,0000004483靳羊村变压器,第二国有粮食购销站,苗占琴,曲阳县伟达石材雕刻厂变压器,三兴重钙厂,曲阳县鑫光石材雕刻厂,0012790847赵羊村南区变压器,曲阳县汇丰雕刻厂,马羊村北变压器,曲阳县灏德石材厂变压器,曲阳县恒阳石材雕塑有限公司变压器,曲阳县大南关正阳面粉挂面厂2变压器,曲阳县蓓蕾雕刻厂,祥丰石材雕刻厂,0000004480水洼村变压器,安羊村幼儿园变压器,0012788657靳羊村东区变压器,0000006173企业局家属院变压器,曲阳宏州房地产开发有限公司变压器,牛玉杰,0000004484赵羊村变压器,曲阳县昌盛锯片厂,河北艺美石雕有限公司曲阳县第六分,曲阳县千仁雕刻艺术有限公司,西河流建材厂,赵羊村北变压器,曲阳县新颖雕刻厂,诗豪建材雕塑艺术有限公司,曲阳县石化恒阳加油站,职教中心学校1变压器,曲阳县双赢滑石粉厂,利达建材有限公司,0000004481安羊村变压器,0000005597西河流统管变压器,曲阳县大用雕塑厂,职教中心学校5变压器,曲阳县祥泰艺术雕刻厂,王成会石板厂,职业技术教育中心变压器,曲阳宏州石业集团有限公司,0000004482王羊村变压器,曲阳县翰海园林雕塑厂,0012788656安羊村中区变压器,安羊村小学变压器,曲阳艺州园林建筑雕塑有限公司,曲阳县灏源石材雕塑品有限公司变压器,南苑新城小区配电变压器,职教中心学校4变压器,恒阳石材雕刻有限公司,曲阳县杨刚雕塑有限公司变压器,安羊村路东路灯,雕刻市场路东路灯,曲阳县鑫华装修材料门市变压器,0000006357马羊村西变变压器,河北千仁雕塑工程有限公司变压器,0670989126-曲阳县瑞茂雕刻品销售部-专变-212149866-曲阳县瑞茂雕刻品销售部变压器,0469460588-河北省曲阳县雕刻学校教师公寓-专变-46814683-河北省曲阳县雕刻学校教师公寓,曲阳县祝华雕刻有限公司变压器,曲阳县蓓蕾雕刻厂2#,雕刻市场路西路灯,河北省曲阳县定瓷有限责任公司,曲阳县范氏雕塑艺术有限公司变压器,曲阳县骏业大理石雕刻厂,0000005978二粮库变压器,曲阳县华英雕刻厂,曲阳县达建石材有限公司变压器,曲阳安盛建材有限公司变压器,曲阳县华森雕塑工艺品销售中心变压器,0000005674安羊村南变压器,0000005607马羊村统管变压器,曲阳县耿士亮银河雕塑厂变压器,曲阳县振鹏石材变压器,职教中心学校2变压器,大南关正阳面粉厂,河北田氏房地产开发有限公司变压器,新颖雕刻厂2#,曲阳源丰润重钙厂,曲阳县南环滨河公园项目变压器,曲阳县精艺达工艺雕刻厂,曲阳县黄炎石业有限公司变压器2,曲阳县金世纪园林雕塑工程有限公司变压器,雕刻学校变压器,0012502345职业技术教育中心变压器,曲阳龙泉定瓷有限公司变压器,宋兵献雕刻厂,曲阳县宏瑞园林工艺品有限公司变压器,曲阳县华夏石材销售处变压器,大南关雕刻市场1变压器,曲阳县九鼎工艺雕刻厂变压器,羊联办小学变压器,0014466244王羊村新增,河北艺美石雕曲阳第六分公司,黄炎石业有限公司2#,靳羊村南变压器,曲阳县红阳石材厂（2）,0000004485马羊村变压器,曲阳县雕刻行业管理办公室变压器,0014106044靳羊村东2区变压器,0469460588-河北省曲阳县雕刻学校教师公寓-专变-123802926-河北省曲阳县雕刻学校教师公寓,东关空心砖长变压器,曲阳县顺儒雕塑有限公司变压器,天元石业有限公司,曲阳县林艺雕刻石材厂（2）,曲阳县泰丰重钙厂变压器,牛玉静,曲阳县林艺雕刻石材厂（1）,曲阳县中欧园林雕塑艺术有限公司变压器,安祥重钙厂,鑫鑫粉业有限公司,综艺雕刻厂,职教中心学校3变压器,曲阳县恒远雕刻石材有限公司,0000006360赵羊村东变压器,0000004545安羊","powerOffReason":"【停电原因】由于线路Ｉ段过流跳闸导致１１０ＫＶ羊村变电站１０ＫＶ５１７安羊村线路全线停电【变更送电】因抢修进度加快原因，送电时间由２３：００变更为２１：２０【发布渠道】通过９５５９８发布","powerOffId":"2019073013000657"},{"poweroffId":2019073013000637,"sgpoweroffId":null,"subsName":"","lineName":"10KV东永阳515","pubTranName":"东福灰厂,升源公司,二十里铺大棚菜【纯农排变】,西永阳村南井【纯农排变】,永阳卫生院,西垒子村南麻核桃基地【纯农排变】,东永阳村北井4变压器【纯农排变】,永阳镇政府台区【冬季供暖设施】,南庞村南专用井|0703,居士大棚菜2,二十里铺市场,东永阳村东台区,南庞村西2#,西永阳大棚二,二十里铺2变压器,0694302594-中国邮政集团公司河北省涞水县分公司-专变-237547948-中国邮政集团公司河北省涞水县分公司100KVA专变,居士村西2,西永阳村内二台区变压器,东永阳2变压器,居士村南井【纯农排变】,二十里铺机井变压器【纯农排变】,西永阳村内,居士南园子井台区,南庞村南二,周家庄村西变压器,中亚灰厂2,居士村西南箱变间隔配电变压器,二十里铺村内1变压器,居士大棚菜,东永阳村南2台区,周家庄村南变压器,周家庄村南专用,周家庄村北2【纯农排变】,西永阳村西井【纯农排变】,东永阳村西井【纯农排变】,居士村东1【纯农排变】,永阳信用社,南庞村南变压器,居士村东井2台区,国华塑料颗粒,铺头村西变压器,铺头村内2,西永阳村东,东永阳西台区,南庞村西变压器,涞水邮政,永兴钙粉厂,居士肖树安大棚井,永阳中学台区【冬季供暖设施】,二十里铺机井构件厂变压器,二十里铺村西变压器,居士村东井,西永阳大棚菜,东永阳大街|0685,居士村东2【纯农排变】,居士村西1,东永阳村南,南庞灰厂,周家庄砖厂,周家庄村东变压器,周家庄村南2台区,信丰瑞通630KVA专变,东永阳1村北|0681,永阳中学(1),周家庄砖厂2,","scope":"【影响街道/乡镇】永阳镇 【高危重要客户】无 【影响客户】二十里铺村、铺头村、居士村、西永阳村、东永阳村、南庞村、周家庄村","startTime":"2019-07-30 19:35:06","stopDate":"2019-07-30 23:00:00","orgNo":"1340614","typeCode":"电网故障停限电","poweroffArea":"【全线路停电】停南庞村南专用井|0703,居士大棚菜2,二十里铺市场,东永阳村东台区,南庞村西2#,西永阳大棚二,二十里铺2变压器,0694302594-中国邮政集团公司河北省涞水县分公司-专变-237547948-中国邮政集团公司河北省涞水县分公司100KVA专变,居士村西2,西永阳村内二台区变压器,东永阳2变压器,居士村南井【纯农排变】,二十里铺机井变压器【纯农排变】,西永阳村内,居士南园子井台区,南庞村南二,周家庄村西变压器,中亚灰厂2,居士村西南箱变间隔配电变压器,二十里铺村内1变压器,居士大棚菜,东永阳村南2台区,周家庄村南变压器,周家庄村南专用,周家庄村北2【纯农排变】,西永阳村西井【纯农排变】,东永阳村西井【纯农排变】,居士村东1【纯农排变】,永阳信用社,南庞村南变压器,居士村东井2台区,国华塑料颗粒,铺头村西变压器,铺头村内2,西永阳村东,东永阳西台区,南庞村西变压器,涞水邮政,永兴钙粉厂,居士肖树安大棚井,永阳中学台区【冬季供暖设施】,二十里铺机井构件厂变压器,二十里铺村西变压器,居士村东井,西永阳大棚菜,东永阳大街|0685,居士村东2【纯农排变】,居士村西1,东永阳村南,南庞灰厂,周家庄砖厂,永阳镇政府台区【冬季供暖设施】,东福灰厂,升源公司,二十里铺大棚菜【纯农排变】,西永阳村南井【纯农排变】,永阳卫生院,西垒子村南麻核桃基地【纯农排变】,东永阳村北井4变压器【纯农排变】,周家庄村东变压器,周家庄村南2台区,信丰瑞通630KVA专变,东永阳1村北|0681,永阳中学(1),周家庄砖厂2","poweroffReason":"【停电原因】由于Ｂ相接地导致３５ＫＶ明义变电站１０ＫＶ东永阳５１５线路全线停电 【变更送电】因抢修进度加快原因，送电时间由３１日０８：００变更为３０日２３：００ 【发布渠道】通过９５５９８发布","powerTime":"2019-07-30 22:38:03","powerComm":"已送电","subsNo":"","lineNo":"","tgNo":"","tgName":null,"infoStatus":"1","orgName":"国网涞水县供电公司","typeName":null,"infoStatusName":null,"dateDay":null,"orgNos":null,"nowTime":null,"countyName":null,"streetName":null,"villageName":null,"roadName":null,"communityName":null,"tranName":null,"sdLineName":null,"cityCode":"1340614","cityName":"国网涞水县供电公司","provinceCode":null,"stopTime":"2019-07-30 23:00:00","powerType":"全部","powerOffArea":"【全线路停电】停南庞村南专用井|0703,居士大棚菜2,二十里铺市场,东永阳村东台区,南庞村西2#,西永阳大棚二,二十里铺2变压器,0694302594-中国邮政集团公司河北省涞水县分公司-专变-237547948-中国邮政集团公司河北省涞水县分公司100KVA专变,居士村西2,西永阳村内二台区变压器,东永阳2变压器,居士村南井【纯农排变】,二十里铺机井变压器【纯农排变】,西永阳村内,居士南园子井台区,南庞村南二,周家庄村西变压器,中亚灰厂2,居士村西南箱变间隔配电变压器,二十里铺村内1变压器,居士大棚菜,东永阳村南2台区,周家庄村南变压器,周家庄村南专用,周家庄村北2【纯农排变】,西永阳村西井【纯农排变】,东永阳村西井【纯农排变】,居士村东1【纯农排变】,永阳信用社,南庞村南变压器,居士村东井2台区,国华塑料颗粒,铺头村西变压器,铺头村内2,西永阳村东,东永阳西台区,南庞村西变压器,涞水邮政,永兴钙粉厂,居士肖树安大棚井,永阳中学台区【冬季供暖设施】,二十里铺机井构件厂变压器,二十里铺村西变压器,居士村东井,西永阳大棚菜,东永阳大街|0685,居士村东2【纯农排变】,居士村西1,东永阳村南,南庞灰厂,周家庄砖厂,永阳镇政府台区【冬季供暖设施】,东福灰厂,升源公司,二十里铺大棚菜【纯农排变】,西永阳村南井【纯农排变】,永阳卫生院,西垒子村南麻核桃基地【纯农排变】,东永阳村北井4变压器【纯农排变】,周家庄村东变压器,周家庄村南2台区,信丰瑞通630KVA专变,东永阳1村北|0681,永阳中学(1),周家庄砖厂2","powerOffReason":"【停电原因】由于Ｂ相接地导致３５ＫＶ明义变电站１０ＫＶ东永阳５１５线路全线停电 【变更送电】因抢修进度加快原因，送电时间由３１日０８：００变更为３０日２３：００ 【发布渠道】通过９５５９８发布","powerOffId":"2019073013000637"},{"poweroffId":2019073013000636,"sgpoweroffId":null,"subsName":"","lineName":"10KV杨家庄516","pubTranName":"冀家沟村北1变压器,","scope":"【影响街道/乡镇】明义镇 【高危重要客户】无 【影响客户】冀家沟村","startTime":"2019-07-31 08:00:00","stopDate":"2019-07-31 10:00:00","orgNo":"1340614","typeCode":"其他临时停电","poweroffArea":"【单台区停电】停冀家沟村北1变压器","poweroffReason":"【停电原因】由于电杆倾斜，需停电进行紧急消缺导致３５ＫＶ明义变电站１０ＫＶ杨家庄５１６线路冀家沟村北１公变台区停电 【变更送电】无 【发布渠道】通过９５５９８发布","powerTime":"2019-07-31 09:53:30","powerComm":"已送电","subsNo":"","lineNo":"","tgNo":"","tgName":null,"infoStatus":"1","orgName":"国网涞水县供电公司","typeName":null,"infoStatusName":null,"dateDay":null,"orgNos":null,"nowTime":null,"countyName":null,"streetName":null,"villageName":null,"roadName":null,"communityName":null,"tranName":null,"sdLineName":null,"cityCode":"1340614","cityName":"国网涞水县供电公司","provinceCode":null,"stopTime":"2019-07-31 10:00:00","powerType":"全部","powerOffArea":"【单台区停电】停冀家沟村北1变压器","powerOffReason":"【停电原因】由于电杆倾斜，需停电进行紧急消缺导致３５ＫＶ明义变电站１０ＫＶ杨家庄５１６线路冀家沟村北１公变台区停电 【变更送电】无 【发布渠道】通过９５５９８发布","powerOffId":"2019073013000636"},{"poweroffId":2019073013000609,"sgpoweroffId":null,"subsName":"","lineName":"市政520","pubTranName":"保定白沟新城万联市场服务有限公司变压器,白沟宾馆小区公变,保定迪悦汽车贸易有限公司变压器,小香港2号（重过载）,政府,粮局,邮局1号公变,天成嘉园一期,农行变压器,白沟分局2,保定白沟新城四季源饭店,朱立宾,变压器5,音像3,自来水,邮局2号公变,吴辉,老供电所公变,银领国际,友谊路灯东,变压器,高碑店市军隆房地产开发有限公司（富润晶典小区）变压器1,金宝皮具,靖华饭庄变压器,李兵,赵建辉,保定酉辰物业服务有限公司,变压器4,友谊路灯西,北大厅公变,高志良,马志刚(白五小区2）,中国移动通信集团河北有限公司保定分公司,政府2,燕都2号,变压器6,变压器1,白五小区,自来水小区,变压器2,变压器3,拉链厂,白沟信用社公变,拉头厂,魏国旺,印象新天地,工商局,东升织带,马志刚(白五小区1）,公园,小香港公变,马志刚(白五小区3）,老付,0552826019-高碑店市军隆房地产开发有限公司(富润晶典小区)-专变-128542937-变压器3,燕都公变,杨春喜,高碑店市军隆房地产开发有限公司（富润晶典小区）变压器2,","scope":"【影响街道/乡镇】白沟镇、音像街、政府街、友谊路、团结路、五一路 【高危重要客户】无 【影响客户】邮局、燕都、小香港、北大厅、老供电所、白沟丽伟拉链厂、白沟粮站小区、政府、自来水厂、农村商业银行、弘康医药公司、拉头厂、现代栖园小区、白沟新城国家税务局、农业银行白沟支行、领秀铭居小区、中央公馆小区、鑫园小区、天成嘉园小区、白沟市场监督管理局、印象新天地小区、白五小区、家兴超市白沟店、富润晶典小区、领袖名居小区、自来水小区、箱包城公寓、凤凰箱包城、白沟靖华饭庄、银领国际","startTime":"2019-07-31 01:00:00","stopDate":"2019-07-31 04:00:00","orgNo":"1340612","typeCode":"其他临时停电","poweroffArea":"【全线路停电】停友谊路灯西,北大厅公变,高志良,马志刚(白五小区2）,中国移动通信集团河北有限公司保定分公司,政府2,燕都2号,变压器6,白五小区,自来水小区,变压器2,高碑店市军隆房地产开发有限公司（富润晶典小区）变压器2,变压器1,保定白沟新城四季源饭店,朱立宾,变压器5,音像3,自来水,邮局2号公变,吴辉,老供电所公变,银领国际,友谊路灯东,变压器,高碑店市军隆房地产开发有限公司（富润晶典小区）变压器1,金宝皮具,靖华饭庄变压器,李兵,赵建辉,保定酉辰物业服务有限公司,变压器4,小香港公变,拉链厂,白沟信用社公变,拉头厂,魏国旺,印象新天地,工商局,马志刚(白五小区1）,公园,马志刚(白五小区3）,老付,0552826019-高碑店市军隆房地产开发有限公司(富润晶典小区)-专变-128542937-变压器3,燕都公变,杨春喜,保定白沟新城万联市场服务有限公司变压器,白沟宾馆小区公变,保定迪悦汽车贸易有限公司变压器,小香港2号（重过载）,政府,粮局,邮局1号公变,天成嘉园一期,农行变压器,白沟分局2,东升织带,变压器3","poweroffReason":"【停电原因】由于更换主干电缆导致１１０ＫＶ白沟变电站１０ＫＶ市政５２０线路全线停电 【变更送电】因抢修进度加快原因，送电时间由０５：００变更为０４：００ 【发布渠道】通过９５５９８发布","powerTime":"2019-07-31 03:34:52","powerComm":"已送电","subsNo":"","lineNo":"","tgNo":"","tgName":null,"infoStatus":"1","orgName":"国网高碑店市供电公司","typeName":null,"infoStatusName":null,"dateDay":null,"orgNos":null,"nowTime":null,"countyName":null,"streetName":null,"villageName":null,"roadName":null,"communityName":null,"tranName":null,"sdLineName":null,"cityCode":"1340612","cityName":"国网高碑店市供电公司","provinceCode":null,"stopTime":"2019-07-31 04:00:00","powerType":"全部","powerOffArea":"【全线路停电】停友谊路灯西,北大厅公变,高志良,马志刚(白五小区2）,中国移动通信集团河北有限公司保定分公司,政府2,燕都2号,变压器6,白五小区,自来水小区,变压器2,高碑店市军隆房地产开发有限公司（富润晶典小区）变压器2,变压器1,保定白沟新城四季源饭店,朱立宾,变压器5,音像3,自来水,邮局2号公变,吴辉,老供电所公变,银领国际,友谊路灯东,变压器,高碑店市军隆房地产开发有限公司（富润晶典小区）变压器1,金宝皮具,靖华饭庄变压器,李兵,赵建辉,保定酉辰物业服务有限公司,变压器4,小香港公变,拉链厂,白沟信用社公变,拉头厂,魏国旺,印象新天地,工商局,马志刚(白五小区1）,公园,马志刚(白五小区3）,老付,0552826019-高碑店市军隆房地产开发有限公司(富润晶典小区)-专变-128542937-变压器3,燕都公变,杨春喜,保定白沟新城万联市场服务有限公司变压器,白沟宾馆小区公变,保定迪悦汽车贸易有限公司变压器,小香港2号（重过载）,政府,粮局,邮局1号公变,天成嘉园一期,农行变压器,白沟分局2,东升织带,变压器3","powerOffReason":"【停电原因】由于更换主干电缆导致１１０ＫＶ白沟变电站１０ＫＶ市政５２０线路全线停电 【变更送电】因抢修进度加快原因，送电时间由０５：００变更为０４：００ 【发布渠道】通过９５５９８发布","powerOffId":"2019073013000609"},{"poweroffId":2019073013000606,"sgpoweroffId":null,"subsName":"","lineName":"北山南线518","pubTranName":"良村8#,","scope":"【影响街道/乡镇】易州镇【高危重要客户】无【影响客户】良村","startTime":"2019-07-30 19:07:33","stopDate":"2019-07-30 20:00:00","orgNo":"1340625","typeCode":"电网故障停限电","poweroffArea":"【单台区停电】停良村8#","poweroffReason":"【停电原因】由于表箱烧毁导致１１０ＫＶ易县变电站北山南５１８线路良村８＃公变台区停电【变更送电】因抢修进度加快原因，送电时间由２１:００变更为２０:００【发布渠道】通过９５５９８发布","powerTime":"2019-07-30 19:43:40","powerComm":"已送电","subsNo":"","lineNo":"","tgNo":"","tgName":null,"infoStatus":"1","orgName":"国网易县供电公司","typeName":null,"infoStatusName":null,"dateDay":null,"orgNos":null,"nowTime":null,"countyName":null,"streetName":null,"villageName":null,"roadName":null,"communityName":null,"tranName":null,"sdLineName":null,"cityCode":"1340625","cityName":"国网易县供电公司","provinceCode":null,"stopTime":"2019-07-30 20:00:00","powerType":"全部","powerOffArea":"【单台区停电】停良村8#","powerOffReason":"【停电原因】由于表箱烧毁导致１１０ＫＶ易县变电站北山南５１８线路良村８＃公变台区停电【变更送电】因抢修进度加快原因，送电时间由２１:００变更为２０:００【发布渠道】通过９５５９８发布","powerOffId":"2019073013000606"},{"poweroffId":2019073013000589,"sgpoweroffId":null,"subsName":"","lineName":"刘庄518","pubTranName":"0387443139-刘国强-专变-144761724-变压器315,白五3,规划建设局（北牌楼路灯）变压器,魏英明变台,上善花都变压器2,变压器2000,郭建忠,白四3,河北君圣房地产开发有限公司,汪庄小区,0387443331-鑫通源小区-专变-45278603-交通分局,服装厂,上善花都变压器1,君圣房地产（御龙庭）,高志良,变压器1000,王甫,辘辘把7号（重过载）,0387443054-团结苑商住区-专变-45278615-张高,鹏达地产（天成嘉园小区）变台,高小水,昊辰五金厂,变压器,0387445627-隆基泰和实业有限公司白沟分公司阳光西郡-专变-45280126-隆基泰和实业有限公司白沟分公司阳光西郡,王庄小区（安置小区）变压器,0387441638-华夏小区,白五村2,驾驶员考场,白沟第一幼儿园变压器,王玉明,白五4号,白沟北校变压器,北牌楼路灯3,王庄小区（平会杰）,0387445627-隆基泰和实业有限公司白沟分公司阳光西郡-专变-45280042-隆基泰和实业有限公司白沟分公司阳光西郡,辘轳把东,孙栓良,老中学公变,白五街,","scope":"【影响街道/乡镇】白沟镇、公园路 【高危重要客户】无 【影响客户】白五村、白四村、辘轳把村（部分）、老中学、平和家园商住区、华夏小区、驾驶员考场、公园小区、昊辰五金厂、汪庄小区、团结苑商住区、鑫通源小区、景如商住小区、白沟巴拉都皮具、阳光西郡小区(部分)、鑫圆商住区、白沟医院小区、白沟第一幼儿园、魏英明、汪庄安置小区、御龙庭小区、天成小区、上善花都小区、保定京南医院、白沟新城北校、白沟新城中心幼儿园","startTime":"2019-07-31 01:00:00","stopDate":"2019-07-31 04:00:00","orgNo":"1340612","typeCode":"其他临时停电","poweroffArea":"【全线路停电】停0387443139-刘国强-专变-144761724-变压器315,变压器,白五3,规划建设局（北牌楼路灯）变压器,魏英明变台,上善花都变压器2,变压器2000,郭建忠,白四3,河北君圣房地产开发有限公司,汪庄小区,0387443331-鑫通源小区-专变-45278603-交通分局,王庄小区（安置小区）变压器,0387441638-华夏小区,白五村2,驾驶员考场,白沟第一幼儿园变压器,王玉明,白五4号,白沟北校变压器,北牌楼路灯3,王庄小区（平会杰）,0387445627-隆基泰和实业有限公司白沟分公司阳光西郡-专变-45280042-隆基泰和实业有限公司白沟分公司阳光西郡,辘轳把东,孙栓良,老中学公变,白五街,0387445627-隆基泰和实业有限公司白沟分公司阳光西郡-专变-45280126-隆基泰和实业有限公司白沟分公司阳光西郡,服装厂,上善花都变压器1,君圣房地产（御龙庭）,高志良,变压器1000,王甫,辘辘把7号（重过载）,0387443054-团结苑商住区-专变-45278615-张高,鹏达地产（天成嘉园小区）变台,高小水,昊辰五金厂","poweroffReason":"【停电原因】由于更换主干电缆导致１１０ＫＶ白沟变电站１０ＫＶ刘庄５１８线路全线停电 【变更送电】因抢修进度加快原因，送电时间由０５：００变更为０４：００ 【发布渠道】通过９５５９８发布","powerTime":"2019-07-31 03:31:32","powerComm":"已送电","subsNo":"","lineNo":"","tgNo":"","tgName":null,"infoStatus":"1","orgName":"国网高碑店市供电公司","typeName":null,"infoStatusName":null,"dateDay":null,"orgNos":null,"nowTime":null,"countyName":null,"streetName":null,"villageName":null,"roadName":null,"communityName":null,"tranName":null,"sdLineName":null,"cityCode":"1340612","cityName":"国网高碑店市供电公司","provinceCode":null,"stopTime":"2019-07-31 04:00:00","powerType":"全部","powerOffArea":"【全线路停电】停0387443139-刘国强-专变-144761724-变压器315,变压器,白五3,规划建设局（北牌楼路灯）变压器,魏英明变台,上善花都变压器2,变压器2000,郭建忠,白四3,河北君圣房地产开发有限公司,汪庄小区,0387443331-鑫通源小区-专变-45278603-交通分局,王庄小区（安置小区）变压器,0387441638-华夏小区,白五村2,驾驶员考场,白沟第一幼儿园变压器,王玉明,白五4号,白沟北校变压器,北牌楼路灯3,王庄小区（平会杰）,0387445627-隆基泰和实业有限公司白沟分公司阳光西郡-专变-45280042-隆基泰和实业有限公司白沟分公司阳光西郡,辘轳把东,孙栓良,老中学公变,白五街,0387445627-隆基泰和实业有限公司白沟分公司阳光西郡-专变-45280126-隆基泰和实业有限公司白沟分公司阳光西郡,服装厂,上善花都变压器1,君圣房地产（御龙庭）,高志良,变压器1000,王甫,辘辘把7号（重过载）,0387443054-团结苑商住区-专变-45278615-张高,鹏达地产（天成嘉园小区）变台,高小水,昊辰五金厂","powerOffReason":"【停电原因】由于更换主干电缆导致１１０ＫＶ白沟变电站１０ＫＶ刘庄５１８线路全线停电 【变更送电】因抢修进度加快原因，送电时间由０５：００变更为０４：００ 【发布渠道】通过９５５９８发布","powerOffId":"2019073013000589"},{"poweroffId":2019073013000571,"sgpoweroffId":null,"subsName":"","lineName":"李庄线515","pubTranName":"李庄村西,李庄村南【纯农排变】,迅口打井,河北九嘉房地产开发有限公司2,晟翔采石厂,北东峪村西,满易公路,李庄新增,李庄南坡【纯农排变】,李庄岭南,乡大井,北东峪新增1号,龙门车站,北东峪村北,龙门车站新增2 号,李庄村委会,迅口机井,河北九嘉房地产开发有限公司1,李庄北井,北东峪,李庄村边1号,讯口石厂,北东峪村,北东峪水井,北东峪大又岭（农网）【纯农排变】,北东峪涝坡,东龙门东井,燕南石材三分厂,白龙供电所,北东峪打井,满城县瑞宇荒山开发有限公司,候庄打井,森林石材,讯口岭北,北东峪村西新增2号,北东峪山东,北东峪东坡【纯农排变】,讯口岭北2号,侯庄村内,0695818283-中国移动通信集团河北有限公司满城分公司-专变-240732658-中国移动通信集团河北有限公司满城分公司,保定市龙门水库管理处,","scope":"【影响街道/乡镇】白龙乡 【高危重要客户】无 【影响客户】北东峪村、李庄村、侯庄、水郡花都、龙门水库、训口","startTime":"2019-07-31 01:30:00","stopDate":"2019-07-31 03:00:00","orgNo":"1340617","typeCode":"其他临时停电","poweroffArea":"【全线路停电】停讯口石厂,森林石材,0695818283-中国移动通信集团河北有限公司满城分公司-专变-240732658-中国移动通信集团河北有限公司满城分公司,讯口岭北,龙门车站新增2 号,保定市龙门水库管理处,东龙门东井,北东峪村,燕南石材三分厂,李庄村西,龙门车站,李庄村南【纯农排变】,北东峪大又岭（农网）【纯农排变】,北东峪村西新增2号,北东峪涝坡,侯庄村内,迅口打井,李庄村委会,北东峪山东,李庄南坡【纯农排变】,河北九嘉房地产开发有限公司2,北东峪东坡【纯农排变】,讯口岭北2号,晟翔采石厂,白龙供电所,河北九嘉房地产开发有限公司1,迅口机井,北东峪村西,北东峪打井,满易公路,李庄北井,李庄岭南,满城县瑞宇荒山开发有限公司,乡大井,北东峪,李庄新增,候庄打井,北东峪水井,李庄村边1号,北东峪新增1号,北东峪村北","poweroffReason":"【停电原因】由于变电站紧急处缺导致３５ＫＶ龙门变电站李庄线５１５线路全线停电 【变更送电】因抢修速度加快原因，送电时间由０４：３０变更为０３：００ 【发布渠道】通过９５５９８发布","powerTime":"2019-07-31 02:36:25","powerComm":"已送电","subsNo":"","lineNo":"","tgNo":"","tgName":null,"infoStatus":"1","orgName":"国网满城县供电公司","typeName":null,"infoStatusName":null,"dateDay":null,"orgNos":null,"nowTime":null,"countyName":null,"streetName":null,"villageName":null,"roadName":null,"communityName":null,"tranName":null,"sdLineName":null,"cityCode":"1340617","cityName":"国网满城县供电公司","provinceCode":null,"stopTime":"2019-07-31 03:00:00","powerType":"全部","powerOffArea":"【全线路停电】停讯口石厂,森林石材,0695818283-中国移动通信集团河北有限公司满城分公司-专变-240732658-中国移动通信集团河北有限公司满城分公司,讯口岭北,龙门车站新增2 号,保定市龙门水库管理处,东龙门东井,北东峪村,燕南石材三分厂,李庄村西,龙门车站,李庄村南【纯农排变】,北东峪大又岭（农网）【纯农排变】,北东峪村西新增2号,北东峪涝坡,侯庄村内,迅口打井,李庄村委会,北东峪山东,李庄南坡【纯农排变】,河北九嘉房地产开发有限公司2,北东峪东坡【纯农排变】,讯口岭北2号,晟翔采石厂,白龙供电所,河北九嘉房地产开发有限公司1,迅口机井,北东峪村西,北东峪打井,满易公路,李庄北井,李庄岭南,满城县瑞宇荒山开发有限公司,乡大井,北东峪,李庄新增,候庄打井,北东峪水井,李庄村边1号,北东峪新增1号,北东峪村北","powerOffReason":"【停电原因】由于变电站紧急处缺导致３５ＫＶ龙门变电站李庄线５１５线路全线停电 【变更送电】因抢修速度加快原因，送电时间由０４：３０变更为０３：００ 【发布渠道】通过９５５９８发布","powerOffId":"2019073013000571"},{"poweroffId":2019073013000567,"sgpoweroffId":null,"subsName":"","lineName":"东马营512","pubTranName":"郭街变压器,马张地北变压器【纯农排变】,米张东变压器,高碑店市天龙旅游用品有限责任公司变压器,东二地变压器,东四变压器,吴街排灌变压器【纯农排变】,东四小一变压器,何张地变压器【纯农排变】,东三西变压器,李张北变压器,盖春明,米张地变压器【纯农排变】,东马营中学,高碑店市同兴畜牧有限公司（井村）变压器,丰元庄变压器,李张西变压器,东二中变压器,东四东,张国林养殖厂,东五西变压器,高碑店市东马营中学,胡街浇地1变压器【纯农排变】,郭街南排变压器【纯农排变】,李张地北变压器【纯农排变】,井村南变压器,胡街地北变压器【纯农排变】,东五南排变压器【纯农排变】,保定蓝通热力有限公司,东五地西变压器,胡街新变压器,宋立军,徐二群,乡直,东五变压器,东三地中变压器【纯农排变】,丰元庄西变压器,李张浇地变压器【纯农排变】,东三东变压器,保定营变压器,赵张地变压器【纯农排变】,东四地北变压器,保定营中变压器,卫生所,东四方地变压器【纯农排变】,孙栓良,东一西变压器,吴街地变压器【纯农排变】,高碑店市东润物业服务有限公司,东三新架变压器,高碑店市东马营镇高张村幼儿园变压器,后院地变压器【纯农排变】,天澍公司,东四浇地变压器,林场砖厂,保北育林基地,张福林,马张南变压器,张克龙,丰元庄浇地变压器【纯农排变】,东马营镇政府变压器,东二东变压器,井村变压器,马张变压器,高碑店市东马营标爵汽车卷材加工厂变压器,高碑店市东马营鑫天龙无纺布加工厂变压器,保定捷达箱包制造有限公司,倒洪吸变压器,高碑店市鹏泽房地产开发有限责任公司变压器,米张变压器,高碑店市东马营中学变压器,东三变压器,高碑店市沃土土地整平服务有限公司,吴斌,东五北排变压器【纯农排变】,中学地北变压器【纯农排变】,东一变压器,井村地西变压器【纯农排变】,吴街西变压器,东二地西变压器,胡街浇地2变压器【纯农排变】,后院排灌变压器【纯农排变】,何张南变压器,河北圣杰包装制品有限公司,胡街变压器,高碑店市东马营镇沈各庄中心校变压器,高张变压器,高张南变压器,东马营水厂,东三地西,东四南变压器,马张东变压器,东二变压器,赵张南变压器,高碑店市艳秋压铸厂变压器,郭街村东变压器,吴街变压器,东三地东变压器,客户投资_东四西变压器,张村学校变压器,何张变压器,保定营北变压器【纯农排变】,汪庄地【纯农排变】,赵张东变压器,井村西变压器,胡街地东变压器【纯农排变】,后院西变压器,赵张北变压器,高张地变压器【纯农排变】,后院变压器,东一排灌变压器【纯农排变】,马张西变压器,井村地变压器【纯农排变】,李张南变压器,保定知途箱包制造有限公司变压器,","scope":"【影响街道/乡镇】东马营镇 【高危重要客户】无 【影响客户】东一村、东二村、东三村、东四村、东五村、赵张村、马张村、米张村、李张村、高张村、何张村、井村、胡街村、吴街村、丰元庄村、保定营村、后院村、郭街村、东马营镇政府、鑫天龙无纺布、东马营镇卫生院、东马营水厂、天润小区、东马营中学、高张村小学、沈各庄小学、张村学校","startTime":"2019-07-31 01:00:00","stopDate":"2019-07-31 03:00:00","orgNo":"1340612","typeCode":"其他临时停电","poweroffArea":"【全线路停电】停胡街浇地1变压器【纯农排变】,郭街变压器,马张地北变压器【纯农排变】,米张东变压器,高碑店市天龙旅游用品有限责任公司变压器,东二地变压器,东四变压器,吴街排灌变压器【纯农排变】,东四小一变压器,何张地变压器【纯农排变】,东三西变压器,李张北变压器,盖春明,米张地变压器【纯农排变】,东马营中学,高碑店市同兴畜牧有限公司（井村）变压器,丰元庄变压器,李张西变压器,东二中变压器,东四东,张国林养殖厂,东五西变压器,高碑店市东马营中学,郭街南排变压器【纯农排变】,李张地北变压器【纯农排变】,井村南变压器,胡街地北变压器【纯农排变】,东五南排变压器【纯农排变】,保定蓝通热力有限公司,东五地西变压器,胡街新变压器,宋立军,徐二群,乡直,东五变压器,东三地中变压器【纯农排变】,丰元庄西变压器,李张浇地变压器【纯农排变】,东三东变压器,保定营变压器,赵张地变压器【纯农排变】,东四地北变压器,保定营中变压器,卫生所,东四方地变压器【纯农排变】,孙栓良,东一西变压器,吴街地变压器【纯农排变】,高碑店市东润物业服务有限公司,东三新架变压器,高碑店市东马营镇高张村幼儿园变压器,后院地变压器【纯农排变】,天澍公司,东四浇地变压器,林场砖厂,保北育林基地,张福林,马张南变压器,张克龙,丰元庄浇地变压器【纯农排变】,东马营镇政府变压器,东二东变压器,井村变压器,马张变压器,高碑店市东马营标爵汽车卷材加工厂变压器,高碑店市东马营鑫天龙无纺布加工厂变压器,保定捷达箱包制造有限公司,倒洪吸变压器,高碑店市鹏泽房地产开发有限责任公司变压器,米张变压器,高碑店市东马营中学变压器,东三变压器,高碑店市沃土土地整平服务有限公司,吴斌,东五北排变压器【纯农排变】,中学地北变压器【纯农排变】,东一变压器,井村地西变压器【纯农排变】,吴街西变压器,东二地西变压器,胡街浇地2变压器【纯农排变】,后院排灌变压器【纯农排变】,何张南变压器,河北圣杰包装制品有限公司,胡街变压器,何张变压器,保定营北变压器【纯农排变】,汪庄地【纯农排变】,赵张东变压器,井村西变压器,胡街地东变压器【纯农排变】,后院西变压器,赵张北变压器,高张地变压器【纯农排变】,后院变压器,东一排灌变压器【纯农排变】,马张西变压器,井村地变压器【纯农排变】,李张南变压器,保定知途箱包制造有限公司变压器,高碑店市东马营镇沈各庄中心校变压器,高张变压器,高张南变压器,东马营水厂,东三地西,东四南变压器,马张东变压器,东二变压器,赵张南变压器,高碑店市艳秋压铸厂变压器,郭街村东变压器,吴街变压器,东三地东变压器,客户投资_东四西变压器,张村学校变压器","poweroffReason":"【停电原因】由于高压计量打火需紧急处理导致１１０ＫＶ白沟变电站１０ＫＶ东马营５１２线路全线停电 【变更送电】无 【发布渠道】通过９５５９８发布","powerTime":"2019-07-31 02:31:35","powerComm":"已送电","subsNo":"","lineNo":"","tgNo":"","tgName":null,"infoStatus":"1","orgName":"国网高碑店市供电公司","typeName":null,"infoStatusName":null,"dateDay":null,"orgNos":null,"nowTime":null,"countyName":null,"streetName":null,"villageName":null,"roadName":null,"communityName":null,"tranName":null,"sdLineName":null,"cityCode":"1340612","cityName":"国网高碑店市供电公司","provinceCode":null,"stopTime":"2019-07-31 03:00:00","powerType":"全部","powerOffArea":"【全线路停电】停胡街浇地1变压器【纯农排变】,郭街变压器,马张地北变压器【纯农排变】,米张东变压器,高碑店市天龙旅游用品有限责任公司变压器,东二地变压器,东四变压器,吴街排灌变压器【纯农排变】,东四小一变压器,何张地变压器【纯农排变】,东三西变压器,李张北变压器,盖春明,米张地变压器【纯农排变】,东马营中学,高碑店市同兴畜牧有限公司（井村）变压器,丰元庄变压器,李张西变压器,东二中变压器,东四东,张国林养殖厂,东五西变压器,高碑店市东马营中学,郭街南排变压器【纯农排变】,李张地北变压器【纯农排变】,井村南变压器,胡街地北变压器【纯农排变】,东五南排变压器【纯农排变】,保定蓝通热力有限公司,东五地西变压器,胡街新变压器,宋立军,徐二群,乡直,东五变压器,东三地中变压器【纯农排变】,丰元庄西变压器,李张浇地变压器【纯农排变】,东三东变压器,保定营变压器,赵张地变压器【纯农排变】,东四地北变压器,保定营中变压器,卫生所,东四方地变压器【纯农排变】,孙栓良,东一西变压器,吴街地变压器【纯农排变】,高碑店市东润物业服务有限公司,东三新架变压器,高碑店市东马营镇高张村幼儿园变压器,后院地变压器【纯农排变】,天澍公司,东四浇地变压器,林场砖厂,保北育林基地,张福林,马张南变压器,张克龙,丰元庄浇地变压器【纯农排变】,东马营镇政府变压器,东二东变压器,井村变压器,马张变压器,高碑店市东马营标爵汽车卷材加工厂变压器,高碑店市东马营鑫天龙无纺布加工厂变压器,保定捷达箱包制造有限公司,倒洪吸变压器,高碑店市鹏泽房地产开发有限责任公司变压器,米张变压器,高碑店市东马营中学变压器,东三变压器,高碑店市沃土土地整平服务有限公司,吴斌,东五北排变压器【纯农排变】,中学地北变压器【纯农排变】,东一变压器,井村地西变压器【纯农排变】,吴街西变压器,东二地西变压器,胡街浇地2变压器【纯农排变】,后院排灌变压器【纯农排变】,何张南变压器,河北圣杰包装制品有限公司,胡街变压器,何张变压器,保定营北变压器【纯农排变】,汪庄地【纯农排变】,赵张东变压器,井村西变压器,胡街地东变压器【纯农排变】,后院西变压器,赵张北变压器,高张地变压器【纯农排变】,后院变压器,东一排灌变压器【纯农排变】,马张西变压器,井村地变压器【纯农排变】,李张南变压器,保定知途箱包制造有限公司变压器,高碑店市东马营镇沈各庄中心校变压器,高张变压器,高张南变压器,东马营水厂,东三地西,东四南变压器,马张东变压器,东二变压器,赵张南变压器,高碑店市艳秋压铸厂变压器,郭街村东变压器,吴街变压器,东三地东变压器,客户投资_东四西变压器,张村学校变压器","powerOffReason":"【停电原因】由于高压计量打火需紧急处理导致１１０ＫＶ白沟变电站１０ＫＶ东马营５１２线路全线停电 【变更送电】无 【发布渠道】通过９５５９８发布","powerOffId":"2019073013000567"}],"pageModel":{"pageNow":735,"totalCount":10973,"totalPage":1098,"tableRows":0,"pageCount":10,"beginCount":7340},"isExperi":"1"}