{"message":"","today":"2020-06-15","seleList":[{"poweroffId":2019073013000566,"sgpoweroffId":null,"subsName":"","lineName":"龙门线512","pubTranName":"南水峪,西龙门北井【纯农排变】,龙门山庄,西龙门南井【纯农排变】,满城县喜壮壮养殖专业合作社,天梁井1号【纯农排变】,北水峪新增,钟家店2队打井【纯农排变】,南水又北井,康远房地产开发公司,东龙门村北,迅口西坡,汇通路桥建设集团有限公司荣乌高速公路LJSG-9项目经理部,满城县白龙乡北水峪村民委员会1号50KVA,财会培训中心2号,南水峪黄蓝沟,北水峪机井【纯农排变】,青山庄北井,南水峪机井,迅口村北,北水峪浇地【纯农排变】,满城县白龙乡北水峪村民委员2号100KVA,雷溪小镇2号,北水峪,满城县雄飞建材有限公司200KVA,北水又村东,迅口村北2号,铁钎坨ZB,0387465397-卢锴-专变-45295248-卢铠,西龙门打井【纯农排变】,满城县城镇市政工程有限公司,西龙门北坡,南水峪（农网）【纯农排变】,东龙门南井,西龙门,西龙门天梁井,铁钎坨,陈玉祥1号井,南水峪新增,北水峪杨水站【纯农排变】,南水1队,雷溪小镇3号,东龙门,玉祥2号,青山庄西井【纯农排变】,满城县雄飞建材有限公司,东龙门村西井【纯农排变】,东龙门南井2号,钟家店,青山庄,西龙门南井2号,满城县白龙乡北水峪村村委会2,南水峪西沟,北水峪村西,青山庄南场,","scope":"【影响街道/乡镇】龙门乡 【高危重要客户】无 【影响客户】南水峪村、北水峪村、东龙门村、西龙门村、青山庄、钟家店、雷溪小镇、训口","startTime":"2019-07-31 01:30:00","stopDate":"2019-07-31 03:00:00","orgNo":"1340617","typeCode":"其他临时停电","poweroffArea":"【全线路停电】停满城县雄飞建材有限公司,西龙门南井2号,满城县喜壮壮养殖专业合作社,南水峪新增,铁钎坨,南水峪,钟家店2队打井【纯农排变】,汇通路桥建设集团有限公司荣乌高速公路LJSG-9项目经理部,东龙门,陈玉祥1号井,北水峪浇地【纯农排变】,南水峪西沟,0387465397-卢锴-专变-45295248-卢铠,铁钎坨ZB,龙门山庄,北水峪机井【纯农排变】,天梁井1号【纯农排变】,满城县雄飞建材有限公司200KVA,迅口村北,西龙门天梁井,玉祥2号,西龙门南井【纯农排变】,北水又村东,东龙门南井2号,财会培训中心2号,满城县白龙乡北水峪村村委会2,北水峪,青山庄,迅口村北2号,满城县城镇市政工程有限公司,康远房地产开发公司,雷溪小镇2号,南水峪黄蓝沟,南水1队,西龙门,雷溪小镇3号,西龙门北坡,东龙门村北,迅口西坡,满城县白龙乡北水峪村民委员2号100KVA,北水峪村西,西龙门打井【纯农排变】,青山庄北井,西龙门北井【纯农排变】,青山庄西井【纯农排变】,青山庄南场,满城县白龙乡北水峪村民委员会1号50KVA,南水峪机井,南水峪（农网）【纯农排变】,南水又北井,东龙门村西井【纯农排变】,钟家店,北水峪杨水站【纯农排变】,东龙门南井,北水峪新增","poweroffReason":"【停电原因】由于变电站紧急处缺导致３５ＫＶ龙门变电站龙门线５１２线路全线停电 【变更送电】因抢修速度加快原因，送电时间由０４：３０变更为０３：００ 【发布渠道】通过９５５９８发布","powerTime":"2019-07-31 02:39:35","powerComm":"已送电","subsNo":"","lineNo":"","tgNo":"","tgName":null,"infoStatus":"1","orgName":"国网满城县供电公司","typeName":null,"infoStatusName":null,"dateDay":null,"orgNos":null,"nowTime":null,"countyName":null,"streetName":null,"villageName":null,"roadName":null,"communityName":null,"tranName":null,"sdLineName":null,"cityCode":"1340617","cityName":"国网满城县供电公司","provinceCode":null,"stopTime":"2019-07-31 03:00:00","powerType":"全部","powerOffArea":"【全线路停电】停满城县雄飞建材有限公司,西龙门南井2号,满城县喜壮壮养殖专业合作社,南水峪新增,铁钎坨,南水峪,钟家店2队打井【纯农排变】,汇通路桥建设集团有限公司荣乌高速公路LJSG-9项目经理部,东龙门,陈玉祥1号井,北水峪浇地【纯农排变】,南水峪西沟,0387465397-卢锴-专变-45295248-卢铠,铁钎坨ZB,龙门山庄,北水峪机井【纯农排变】,天梁井1号【纯农排变】,满城县雄飞建材有限公司200KVA,迅口村北,西龙门天梁井,玉祥2号,西龙门南井【纯农排变】,北水又村东,东龙门南井2号,财会培训中心2号,满城县白龙乡北水峪村村委会2,北水峪,青山庄,迅口村北2号,满城县城镇市政工程有限公司,康远房地产开发公司,雷溪小镇2号,南水峪黄蓝沟,南水1队,西龙门,雷溪小镇3号,西龙门北坡,东龙门村北,迅口西坡,满城县白龙乡北水峪村民委员2号100KVA,北水峪村西,西龙门打井【纯农排变】,青山庄北井,西龙门北井【纯农排变】,青山庄西井【纯农排变】,青山庄南场,满城县白龙乡北水峪村民委员会1号50KVA,南水峪机井,南水峪（农网）【纯农排变】,南水又北井,东龙门村西井【纯农排变】,钟家店,北水峪杨水站【纯农排变】,东龙门南井,北水峪新增","powerOffReason":"【停电原因】由于变电站紧急处缺导致３５ＫＶ龙门变电站龙门线５１２线路全线停电 【变更送电】因抢修速度加快原因，送电时间由０４：３０变更为０３：００ 【发布渠道】通过９５５９８发布","powerOffId":"2019073013000566"},{"poweroffId":2019073013000565,"sgpoweroffId":null,"subsName":"","lineName":"坎下线516","pubTranName":"大坎下村西,迈瑞达建材2厂,大坎下庙坡,大坎下村西2号,大坎下村西南,保定东缘果蔬种植有限公司,华兴石材厂,崔家沟一号,汉德经贸,大坎下殷志强,一级扬水站,大坎下东北,中交四公局第一工程有限公司1000KVA,小坨,满城县汉德鞋厂,大坎下老道沟,满城县大雨水泥砖厂,大坎下村,讯口3号,坎下2级扬水站,大坎下北大碾,大坎下村南,建英养鸡场,大坎下村北,大坎下村东,中交四公局第一工程有限公司250KVA,汇通路桥建设集团有限公司荣乌高速公路LJSG-9项目经理部,远达白云山【纯农排变】,大坎下4队,","scope":"【影响街道/乡镇】白龙乡 【高危重要客户】无 【影响客户】大坎下村、白堡、小坨","startTime":"2019-07-31 01:30:00","stopDate":"2019-07-31 03:00:00","orgNo":"1340617","typeCode":"其他临时停电","poweroffArea":"【全线路停电】停中交四公局第一工程有限公司250KVA,大坎下东北,汇通路桥建设集团有限公司荣乌高速公路LJSG-9项目经理部,大坎下殷志强,保定东缘果蔬种植有限公司,大坎下4队,汉德经贸,华兴石材厂,大坎下村北,大坎下村西2号,中交四公局第一工程有限公司1000KVA,远达白云山【纯农排变】,满城县大雨水泥砖厂,大坎下庙坡,讯口3号,大坎下村西南,迈瑞达建材2厂,一级扬水站,大坎下北大碾,坎下2级扬水站,满城县汉德鞋厂,大坎下老道沟,崔家沟一号,小坨,建英养鸡场,大坎下村,大坎下村西,大坎下村东,大坎下村南","poweroffReason":"【停电原因】由于变电站紧急处缺导致３５ＫＶ龙门变电站坎下线５１６线路全线停电 【变更送电】因抢修速度加快原因，送电时间由０４：３０变更为０３：００ 【发布渠道】通过９５５９８发布","powerTime":"2019-07-31 02:42:01","powerComm":"已送电","subsNo":"","lineNo":"","tgNo":"","tgName":null,"infoStatus":"1","orgName":"国网满城县供电公司","typeName":null,"infoStatusName":null,"dateDay":null,"orgNos":null,"nowTime":null,"countyName":null,"streetName":null,"villageName":null,"roadName":null,"communityName":null,"tranName":null,"sdLineName":null,"cityCode":"1340617","cityName":"国网满城县供电公司","provinceCode":null,"stopTime":"2019-07-31 03:00:00","powerType":"全部","powerOffArea":"【全线路停电】停中交四公局第一工程有限公司250KVA,大坎下东北,汇通路桥建设集团有限公司荣乌高速公路LJSG-9项目经理部,大坎下殷志强,保定东缘果蔬种植有限公司,大坎下4队,汉德经贸,华兴石材厂,大坎下村北,大坎下村西2号,中交四公局第一工程有限公司1000KVA,远达白云山【纯农排变】,满城县大雨水泥砖厂,大坎下庙坡,讯口3号,大坎下村西南,迈瑞达建材2厂,一级扬水站,大坎下北大碾,坎下2级扬水站,满城县汉德鞋厂,大坎下老道沟,崔家沟一号,小坨,建英养鸡场,大坎下村,大坎下村西,大坎下村东,大坎下村南","powerOffReason":"【停电原因】由于变电站紧急处缺导致３５ＫＶ龙门变电站坎下线５１６线路全线停电 【变更送电】因抢修速度加快原因，送电时间由０４：３０变更为０３：００ 【发布渠道】通过９５５９８发布","powerOffId":"2019073013000565"},{"poweroffId":2019073013000563,"sgpoweroffId":null,"subsName":"","lineName":"巩庄线514","pubTranName":"白布南关堂,迅口新增,满城县华兴石材厂,中国联合网络通信有限公司满城县分,白布南大棚/毛儿碾,长江加工厂,毛儿碾,迈瑞达建材1厂,巩庄村西,白堡村西2号,巩庄机井,白布砖厂农用变压器,崔路振,九龙面粉厂,白布村西,白布南山井,东院新增,坎下村南井,中家店打井,天宇石材,讯口2号,白布乡政府,野里村西,白堡吃水井（农网）,野里村南新增,一分支小井（农网）,白布东院,远达度假村,未庄村南井,白布五分支,白布12队,野里灰厂,钟家店五队,富强灰厂,京宇石材厂内（统管）,长江石材,白布粮库2号,巩庄村西3号,乡政府新增,石斗儿,钟家店照明,神星果园,钟家店村内,河北省高速公路荣乌管理处,野里村内,迅口村东/迅口2号,0387465850-满城县大坎下张石坡石渣厂-专变-45295222-大坎下张石坡石渣厂,白布连家,白布南元,野里村南,白布岗头岭,九龙山,满城县庭院开发,野里村东,白布3和岭,白布3分支,白布李家峪,钟家店村南,白布粮库门口,白布十四，十五队,白布村南,钟家店打井（统）,野里石厂200KVA配变,也里4队,白布龙王庙,崔青波,中家店大队,三分支双井,巩庄村西2号,中旺建材厂,巩庄村南,钟家店新增,白布一分支打井,白堡村东新增,","scope":"【影响街道/乡镇】白龙乡 【高危重要客户】无 【影响客户】巩庄、钟（中）家店、也（野）里、白堡、训口","startTime":"2019-07-31 01:30:00","stopDate":"2019-07-31 03:00:00","orgNo":"1340617","typeCode":"其他临时停电","poweroffArea":"【全线路停电】停白布砖厂农用变压器,满城县庭院开发,野里灰厂,钟家店村内,富强灰厂,中家店大队,迈瑞达建材1厂,天宇石材,毛儿碾,长江加工厂,钟家店打井（统）,满城县华兴石材厂,白布李家峪,野里村东,白布南元,河北省高速公路荣乌管理处,白布岗头岭,白布南山井,中旺建材厂,野里村南,长江石材,野里村西,白堡村西2号,白布村西,迅口新增,钟家店照明,野里村内,白布连家,钟家店五队,崔路振,白布3和岭,远达度假村,白布南关堂,九龙山,白布12队,白布五分支,白堡吃水井（农网）,白布一分支打井,白布粮库门口,巩庄村南,京宇石材厂内（统管）,中家店打井,讯口2号,白布十四，十五队,石斗儿,野里村南新增,白布东院,巩庄机井,白堡村东新增,坎下村南井,未庄村南井,钟家店村南,巩庄村西2号,白布3分支,三分支双井,白布村南,0387465850-满城县大坎下张石坡石渣厂-专变-45295222-大坎下张石坡石渣厂,也里4队,神星果园,巩庄村西,巩庄村西3号,白布南大棚/毛儿碾,东院新增,钟家店新增,白布乡政府,迅口村东/迅口2号,一分支小井（农网）,白布粮库2号,乡政府新增,白布龙王庙,九龙面粉厂,中国联合网络通信有限公司满城县分,崔青波,野里石厂200KVA配变","poweroffReason":"【停电原因】由于变电站紧急处缺导致３５ＫＶ龙门变电站巩庄线５１４线路全线停电 【变更送电】因抢修速度加快原因，送电时间由０４：３０变更为０３：００ 【发布渠道】通过９５５９８发布","powerTime":"2019-07-31 02:45:02","powerComm":"已送电","subsNo":"","lineNo":"","tgNo":"","tgName":null,"infoStatus":"1","orgName":"国网满城县供电公司","typeName":null,"infoStatusName":null,"dateDay":null,"orgNos":null,"nowTime":null,"countyName":null,"streetName":null,"villageName":null,"roadName":null,"communityName":null,"tranName":null,"sdLineName":null,"cityCode":"1340617","cityName":"国网满城县供电公司","provinceCode":null,"stopTime":"2019-07-31 03:00:00","powerType":"全部","powerOffArea":"【全线路停电】停白布砖厂农用变压器,满城县庭院开发,野里灰厂,钟家店村内,富强灰厂,中家店大队,迈瑞达建材1厂,天宇石材,毛儿碾,长江加工厂,钟家店打井（统）,满城县华兴石材厂,白布李家峪,野里村东,白布南元,河北省高速公路荣乌管理处,白布岗头岭,白布南山井,中旺建材厂,野里村南,长江石材,野里村西,白堡村西2号,白布村西,迅口新增,钟家店照明,野里村内,白布连家,钟家店五队,崔路振,白布3和岭,远达度假村,白布南关堂,九龙山,白布12队,白布五分支,白堡吃水井（农网）,白布一分支打井,白布粮库门口,巩庄村南,京宇石材厂内（统管）,中家店打井,讯口2号,白布十四，十五队,石斗儿,野里村南新增,白布东院,巩庄机井,白堡村东新增,坎下村南井,未庄村南井,钟家店村南,巩庄村西2号,白布3分支,三分支双井,白布村南,0387465850-满城县大坎下张石坡石渣厂-专变-45295222-大坎下张石坡石渣厂,也里4队,神星果园,巩庄村西,巩庄村西3号,白布南大棚/毛儿碾,东院新增,钟家店新增,白布乡政府,迅口村东/迅口2号,一分支小井（农网）,白布粮库2号,乡政府新增,白布龙王庙,九龙面粉厂,中国联合网络通信有限公司满城县分,崔青波,野里石厂200KVA配变","powerOffReason":"【停电原因】由于变电站紧急处缺导致３５ＫＶ龙门变电站巩庄线５１４线路全线停电 【变更送电】因抢修速度加快原因，送电时间由０４：３０变更为０３：００ 【发布渠道】通过９５５９８发布","powerOffId":"2019073013000563"},{"poweroffId":2019073013000504,"sgpoweroffId":null,"subsName":"","lineName":"10kV利民路站561线路","pubTranName":"B284柱上变压器,","scope":"【影响街道/乡镇】环城南路、公园路 【高危重要客户】无 【影响客户】天威中路体幼路平房、公园路8号楼","startTime":"2019-07-30 17:00:00","stopDate":"2019-07-30 18:00:00","orgNo":"13406","typeCode":"电网故障停限电","poweroffArea":"【单台区停电】停B284柱上变压器","poweroffReason":"【停电原因】由于低压保险片烧导致１０ＫＶ利民路变电站５６１线路Ｂ２８４公变台区停电【变更送电】无【发布渠道】通过９５５９８发布","powerTime":"2019-07-30 17:24:55","powerComm":"已送电","subsNo":"","lineNo":"","tgNo":"","tgName":null,"infoStatus":"1","orgName":"保定供电公司","typeName":null,"infoStatusName":null,"dateDay":null,"orgNos":null,"nowTime":null,"countyName":null,"streetName":null,"villageName":null,"roadName":null,"communityName":null,"tranName":null,"sdLineName":null,"cityCode":"13406","cityName":"保定供电公司","provinceCode":null,"stopTime":"2019-07-30 18:00:00","powerType":"全部","powerOffArea":"【单台区停电】停B284柱上变压器","powerOffReason":"【停电原因】由于低压保险片烧导致１０ＫＶ利民路变电站５６１线路Ｂ２８４公变台区停电【变更送电】无【发布渠道】通过９５５９８发布","powerOffId":"2019073013000504"},{"poweroffId":2019073013000492,"sgpoweroffId":null,"subsName":"","lineName":"10kV大慈阁小区开关站10kV3#开关柜间隔","pubTranName":"10kVD061箱式变电站D061配电变压器,","scope":"【影响街道/乡镇】穿行楼北街、东大街 【高危重要客户】无 【影响客户】大慈阁小区","startTime":"2019-07-30 16:10:00","stopDate":"2019-07-30 21:00:00","orgNo":"13406","typeCode":"电网故障停限电","poweroffArea":"【单台区停电】停10kVD061箱式变电站D061配电变压器","poweroffReason":"【停电原因】由于低压电缆烧导致１０ＫＶ大慈阁小区开关站３号开关柜间隔Ｄ０６１公变台区停电【变更送电】无【发布渠道】通过９５５９８发布","powerTime":"2019-07-30 20:02:07","powerComm":"已送电","subsNo":"","lineNo":"","tgNo":"","tgName":null,"infoStatus":"1","orgName":"保定供电公司","typeName":null,"infoStatusName":null,"dateDay":null,"orgNos":null,"nowTime":null,"countyName":null,"streetName":null,"villageName":null,"roadName":null,"communityName":null,"tranName":null,"sdLineName":null,"cityCode":"13406","cityName":"保定供电公司","provinceCode":null,"stopTime":"2019-07-30 21:00:00","powerType":"全部","powerOffArea":"【单台区停电】停10kVD061箱式变电站D061配电变压器","powerOffReason":"【停电原因】由于低压电缆烧导致１０ＫＶ大慈阁小区开关站３号开关柜间隔Ｄ０６１公变台区停电【变更送电】无【发布渠道】通过９５５９８发布","powerOffId":"2019073013000492"},{"poweroffId":2019073013000475,"sgpoweroffId":null,"subsName":"","lineName":"东盛514","pubTranName":"东盛闫各庄西变压器,","scope":"【影响街道/乡镇】东盛办事处 【高危重要客户】无 【影响客户】闫各庄村","startTime":"2019-07-30 16:24:52","stopDate":"2019-07-30 19:00:00","orgNo":"1340612","typeCode":"电网故障停限电","poweroffArea":"【单台区停电】停东盛闫各庄西变压器","poweroffReason":"【停电原因】由于弓子线烧毁导致１１０ＫＶ方家务变电站１０ＫＶ东盛５１４线路闫各庄西公变台区停电 【变更送电】无 【发布渠道】通过９５５９８发布","powerTime":"2019-07-30 18:09:37","powerComm":"已送电","subsNo":"","lineNo":"","tgNo":"","tgName":null,"infoStatus":"1","orgName":"国网高碑店市供电公司","typeName":null,"infoStatusName":null,"dateDay":null,"orgNos":null,"nowTime":null,"countyName":null,"streetName":null,"villageName":null,"roadName":null,"communityName":null,"tranName":null,"sdLineName":null,"cityCode":"1340612","cityName":"国网高碑店市供电公司","provinceCode":null,"stopTime":"2019-07-30 19:00:00","powerType":"全部","powerOffArea":"【单台区停电】停东盛闫各庄西变压器","powerOffReason":"【停电原因】由于弓子线烧毁导致１１０ＫＶ方家务变电站１０ＫＶ东盛５１４线路闫各庄西公变台区停电 【变更送电】无 【发布渠道】通过９５５９８发布","powerOffId":"2019073013000475"},{"poweroffId":2019073013000462,"sgpoweroffId":null,"subsName":"","lineName":"10kV517安羊村线","pubTranName":"0469460588-河北省曲阳县雕刻学校教师公寓-专变-46814683-河北省曲阳县雕刻学校教师公寓,曲阳县祝华雕刻有限公司变压器,曲阳县蓓蕾雕刻厂2#,雕刻市场路西路灯,河北省曲阳县定瓷有限责任公司,曲阳县范氏雕塑艺术有限公司变压器,曲阳县骏业大理石雕刻厂,0000005978二粮库变压器,曲阳县华英雕刻厂,曲阳县达建石材有限公司变压器,曲阳安盛建材有限公司变压器,曲阳县华森雕塑工艺品销售中心变压器,曲阳县精艺达工艺雕刻厂,曲阳县黄炎石业有限公司变压器2,曲阳县金世纪园林雕塑工程有限公司变压器,雕刻学校变压器,0012502345职业技术教育中心变压器,曲阳龙泉定瓷有限公司变压器,宋兵献雕刻厂,曲阳县宏瑞园林工艺品有限公司变压器,曲阳县华夏石材销售处变压器,大南关雕刻市场1变压器,曲阳县九鼎工艺雕刻厂变压器,羊联办小学变压器,0014466244王羊村新增,河北艺美石雕曲阳第六分公司,黄炎石业有限公司2#,靳羊村南变压器,曲阳县红阳石材厂（2）,0000004485马羊村变压器,曲阳县雕刻行业管理办公室变压器,0014106044靳羊村东2区变压器,0000005674安羊村南变压器,0000005607马羊村统管变压器,曲阳县耿士亮银河雕塑厂变压器,曲阳县振鹏石材变压器,0469460588-河北省曲阳县雕刻学校教师公寓-专变-123802926-河北省曲阳县雕刻学校教师公寓,东关空心砖长变压器,曲阳县顺儒雕塑有限公司变压器,天元石业有限公司,曲阳县林艺雕刻石材厂（2）,曲阳县泰丰重钙厂变压器,牛玉静,曲阳县林艺雕刻石材厂（1）,曲阳县中欧园林雕塑艺术有限公司变压器,安祥重钙厂,鑫鑫粉业有限公司,综艺雕刻厂,职教中心学校3变压器,曲阳县恒远雕刻石材有限公司,0000006360赵羊村东变压器,0000004545安羊村北变压器,曲阳第四医院变压器,河北锦阔园林工程有限公司变压器,0000006122雕刻公园变压器,曲阳县祥龙雕塑艺术中心变压器,曲阳县天河石粉厂,曲阳县现代工艺石材有限公司变压器,0000006135雕刻广场变压器,曲阳县双源供水有限公司变压器,赵羊村中区变压器,曲阳县众友自动化设备有限公司变压器,0012788657靳羊村东区变压器,0000006173企业局家属院变压器,曲阳宏州房地产开发有限公司变压器,牛玉杰,0000004484赵羊村变压器,曲阳县昌盛锯片厂,马羊村西南区变压器,河北艺美石雕有限公司曲阳县第六分,曲阳县千仁雕刻艺术有限公司,西河流建材厂,赵羊村北变压器,华兴滑石粉加工厂,0000004483靳羊村变压器,第二国有粮食购销站,0000005597西河流统管变压器,曲阳县大用雕塑厂,职教中心学校5变压器,曲阳县祥泰艺术雕刻厂,王成会石板厂,职业技术教育中心变压器,曲阳宏州石业集团有限公司,苗占琴,曲阳县伟达石材雕刻厂变压器,三兴重钙厂,曲阳县鑫光石材雕刻厂,0012790847赵羊村南区变压器,曲阳县汇丰雕刻厂,马羊村北变压器,曲阳县新颖雕刻厂,诗豪建材雕塑艺术有限公司,曲阳县石化恒阳加油站,职教中心学校1变压器,曲阳县双赢滑石粉厂,利达建材有限公司,0000004481安羊村","scope":"【影响街道/乡镇】羊平镇【高危重要客户】无【影响客户】靳羊村、马羊村、赵羊村、安羊村、王羊村、西河流、企业局家属院、雕刻公园、雕刻广场、南关雕刻市场、二粮库、水洼村、职业技术教育中心","startTime":"2019-07-31 04:00:00","stopDate":"2019-07-31 13:00:00","orgNo":"1340619","typeCode":"其他临时停电","poweroffArea":"【全线路停电】停华兴滑石粉加工厂,0000004483靳羊村变压器,第二国有粮食购销站,苗占琴,曲阳县伟达石材雕刻厂变压器,三兴重钙厂,曲阳县鑫光石材雕刻厂,0012790847赵羊村南区变压器,曲阳县汇丰雕刻厂,马羊村北变压器,曲阳县灏德石材厂变压器,曲阳县恒阳石材雕塑有限公司变压器,曲阳县大南关正阳面粉挂面厂2变压器,曲阳县蓓蕾雕刻厂,祥丰石材雕刻厂,0000004480水洼村变压器,安羊村幼儿园变压器,0012788657靳羊村东区变压器,0000006173企业局家属院变压器,曲阳宏州房地产开发有限公司变压器,牛玉杰,0000004484赵羊村变压器,曲阳县昌盛锯片厂,马羊村西南区变压器,河北艺美石雕有限公司曲阳县第六分,曲阳县千仁雕刻艺术有限公司,西河流建材厂,赵羊村北变压器,曲阳县新颖雕刻厂,诗豪建材雕塑艺术有限公司,曲阳县石化恒阳加油站,职教中心学校1变压器,曲阳县双赢滑石粉厂,利达建材有限公司,0000004481安羊村变压器,0000005597西河流统管变压器,曲阳县大用雕塑厂,职教中心学校5变压器,曲阳县祥泰艺术雕刻厂,王成会石板厂,职业技术教育中心变压器,曲阳宏州石业集团有限公司,0000004482王羊村变压器,曲阳县翰海园林雕塑厂,0012788656安羊村中区变压器,安羊村小学变压器,曲阳艺州园林建筑雕塑有限公司,曲阳县灏源石材雕塑品有限公司变压器,南苑新城小区配电变压器,职教中心学校4变压器,恒阳石材雕刻有限公司,曲阳县杨刚雕塑有限公司变压器,安羊村路东路灯,雕刻市场路东路灯,曲阳县鑫华装修材料门市变压器,0000006357马羊村西变变压器,河北千仁雕塑工程有限公司变压器,0670989126-曲阳县瑞茂雕刻品销售部-专变-212149866-曲阳县瑞茂雕刻品销售部变压器,0469460588-河北省曲阳县雕刻学校教师公寓-专变-46814683-河北省曲阳县雕刻学校教师公寓,曲阳县祝华雕刻有限公司变压器,曲阳县蓓蕾雕刻厂2#,雕刻市场路西路灯,河北省曲阳县定瓷有限责任公司,曲阳县范氏雕塑艺术有限公司变压器,曲阳县骏业大理石雕刻厂,0000005978二粮库变压器,曲阳县华英雕刻厂,曲阳县达建石材有限公司变压器,曲阳安盛建材有限公司变压器,曲阳县华森雕塑工艺品销售中心变压器,0000005674安羊村南变压器,0000005607马羊村统管变压器,曲阳县耿士亮银河雕塑厂变压器,曲阳县振鹏石材变压器,职教中心学校2变压器,大南关正阳面粉厂,河北田氏房地产开发有限公司变压器,新颖雕刻厂2#,曲阳源丰润重钙厂,曲阳县南环滨河公园项目变压器,曲阳县精艺达工艺雕刻厂,曲阳县黄炎石业有限公司变压器2,曲阳县金世纪园林雕塑工程有限公司变压器,雕刻学校变压器,0012502345职业技术教育中心变压器,曲阳龙泉定瓷有限公司变压器,宋兵献雕刻厂,曲阳县宏瑞园林工艺品有限公司变压器,曲阳县华夏石材销售处变压器,大南关雕刻市场1变压器,曲阳县九鼎工艺雕刻厂变压器,羊联办小学变压器,0014466244王羊村新增,河北艺美石雕曲阳第六分公司,黄炎石业有限公司2#,靳羊村南变压器,曲阳县红阳石材厂（2）,0000004485马羊村变压器,曲阳县雕刻行业管理办公室变压器,0014106044靳羊村东2区变压器,0469460588-河北省曲阳县雕刻学校教师公寓-专变-123802926-河北省曲阳县雕刻学校教师公寓,东关空心砖长变压器,曲阳县顺儒雕塑有限公司变压器,天元石业有限公司,曲阳县林艺雕刻石材厂（2）,曲阳县泰丰重钙厂变压器,牛玉静,曲阳县林艺雕刻石材厂（1）,曲阳县中欧园林雕塑艺术有限公司变压器,安祥重钙厂,鑫鑫粉业有限公司,综艺雕刻厂,职教中心学校3变压器,曲阳县恒远雕刻石材有限公司,0000006360赵羊村","poweroffReason":"【停电原因】由于线路改造导致１１０ＫＶ羊村变电站１０ＫＶ５１７安羊村线路全线停电【变更送电】因工作未完工原因，送电时间由１０：００变更为１３：００【发布渠道】通过９５５９８发布","powerTime":"2019-07-31 10:48:43","powerComm":"已送电","subsNo":"","lineNo":"","tgNo":"","tgName":null,"infoStatus":"1","orgName":"国网曲阳县供电公司","typeName":null,"infoStatusName":null,"dateDay":null,"orgNos":null,"nowTime":null,"countyName":null,"streetName":null,"villageName":null,"roadName":null,"communityName":null,"tranName":null,"sdLineName":null,"cityCode":"1340619","cityName":"国网曲阳县供电公司","provinceCode":null,"stopTime":"2019-07-31 13:00:00","powerType":"全部","powerOffArea":"【全线路停电】停华兴滑石粉加工厂,0000004483靳羊村变压器,第二国有粮食购销站,苗占琴,曲阳县伟达石材雕刻厂变压器,三兴重钙厂,曲阳县鑫光石材雕刻厂,0012790847赵羊村南区变压器,曲阳县汇丰雕刻厂,马羊村北变压器,曲阳县灏德石材厂变压器,曲阳县恒阳石材雕塑有限公司变压器,曲阳县大南关正阳面粉挂面厂2变压器,曲阳县蓓蕾雕刻厂,祥丰石材雕刻厂,0000004480水洼村变压器,安羊村幼儿园变压器,0012788657靳羊村东区变压器,0000006173企业局家属院变压器,曲阳宏州房地产开发有限公司变压器,牛玉杰,0000004484赵羊村变压器,曲阳县昌盛锯片厂,马羊村西南区变压器,河北艺美石雕有限公司曲阳县第六分,曲阳县千仁雕刻艺术有限公司,西河流建材厂,赵羊村北变压器,曲阳县新颖雕刻厂,诗豪建材雕塑艺术有限公司,曲阳县石化恒阳加油站,职教中心学校1变压器,曲阳县双赢滑石粉厂,利达建材有限公司,0000004481安羊村变压器,0000005597西河流统管变压器,曲阳县大用雕塑厂,职教中心学校5变压器,曲阳县祥泰艺术雕刻厂,王成会石板厂,职业技术教育中心变压器,曲阳宏州石业集团有限公司,0000004482王羊村变压器,曲阳县翰海园林雕塑厂,0012788656安羊村中区变压器,安羊村小学变压器,曲阳艺州园林建筑雕塑有限公司,曲阳县灏源石材雕塑品有限公司变压器,南苑新城小区配电变压器,职教中心学校4变压器,恒阳石材雕刻有限公司,曲阳县杨刚雕塑有限公司变压器,安羊村路东路灯,雕刻市场路东路灯,曲阳县鑫华装修材料门市变压器,0000006357马羊村西变变压器,河北千仁雕塑工程有限公司变压器,0670989126-曲阳县瑞茂雕刻品销售部-专变-212149866-曲阳县瑞茂雕刻品销售部变压器,0469460588-河北省曲阳县雕刻学校教师公寓-专变-46814683-河北省曲阳县雕刻学校教师公寓,曲阳县祝华雕刻有限公司变压器,曲阳县蓓蕾雕刻厂2#,雕刻市场路西路灯,河北省曲阳县定瓷有限责任公司,曲阳县范氏雕塑艺术有限公司变压器,曲阳县骏业大理石雕刻厂,0000005978二粮库变压器,曲阳县华英雕刻厂,曲阳县达建石材有限公司变压器,曲阳安盛建材有限公司变压器,曲阳县华森雕塑工艺品销售中心变压器,0000005674安羊村南变压器,0000005607马羊村统管变压器,曲阳县耿士亮银河雕塑厂变压器,曲阳县振鹏石材变压器,职教中心学校2变压器,大南关正阳面粉厂,河北田氏房地产开发有限公司变压器,新颖雕刻厂2#,曲阳源丰润重钙厂,曲阳县南环滨河公园项目变压器,曲阳县精艺达工艺雕刻厂,曲阳县黄炎石业有限公司变压器2,曲阳县金世纪园林雕塑工程有限公司变压器,雕刻学校变压器,0012502345职业技术教育中心变压器,曲阳龙泉定瓷有限公司变压器,宋兵献雕刻厂,曲阳县宏瑞园林工艺品有限公司变压器,曲阳县华夏石材销售处变压器,大南关雕刻市场1变压器,曲阳县九鼎工艺雕刻厂变压器,羊联办小学变压器,0014466244王羊村新增,河北艺美石雕曲阳第六分公司,黄炎石业有限公司2#,靳羊村南变压器,曲阳县红阳石材厂（2）,0000004485马羊村变压器,曲阳县雕刻行业管理办公室变压器,0014106044靳羊村东2区变压器,0469460588-河北省曲阳县雕刻学校教师公寓-专变-123802926-河北省曲阳县雕刻学校教师公寓,东关空心砖长变压器,曲阳县顺儒雕塑有限公司变压器,天元石业有限公司,曲阳县林艺雕刻石材厂（2）,曲阳县泰丰重钙厂变压器,牛玉静,曲阳县林艺雕刻石材厂（1）,曲阳县中欧园林雕塑艺术有限公司变压器,安祥重钙厂,鑫鑫粉业有限公司,综艺雕刻厂,职教中心学校3变压器,曲阳县恒远雕刻石材有限公司,0000006360赵羊村","powerOffReason":"【停电原因】由于线路改造导致１１０ＫＶ羊村变电站１０ＫＶ５１７安羊村线路全线停电【变更送电】因工作未完工原因，送电时间由１０：００变更为１３：００【发布渠道】通过９５５９８发布","powerOffId":"2019073013000462"},{"poweroffId":2019073013000451,"sgpoweroffId":null,"subsName":"","lineName":"西堤线525","pubTranName":"宰庄混1,0469547287-胡风荣-专变-46836660-胡风荣,小杨青庄村内混合2号配变,小杨青庄村内混合3号配变,北康庄混1,北康庄村南50【纯农排变】,望都县春藤食品有限公司,南康庄幼儿园配变,小杨青庄村内混合1号配变,宰庄混合4号,小杨青庄村南混合4号配变,北康庄内西南混5,北康庄西北50【纯农排变】,南康庄农业6号【纯农排变】,0469547535-技术站-专变-46836659-技术站,北康庄村北160【纯农排变】,宰庄农1【纯农排变】,0672573550-望都县志荣铸造厂(2)-专变-214319265-望都县志荣铸造厂(2),北康庄内东混3,河北省望都县气象局,宰庄混2,南康庄农3【纯农排变】,变压器,河北省望都县看守所,小杨青庄村南混合3号配变,保定常春藤食品公司,望都县枫叶鞋厂,保定常春藤食品有限公司,宰庄农6【纯农排变】,望都县杰旺食品厂,小杨青庄农业4号配变,南康庄移动基站,望都县隆雨轩鞋厂,望都县京轩阁鞋厂,小杨青庄农业7号配变,南康庄农业4号【纯农排变】,小杨青庄农2【纯农排变】,南康庄村东混4号配变,河北清云铁路机车车辆配件制造有限公司,宰庄正南农业4号【纯农排变】,北康庄西跑100【纯农排变】,宰庄东南农业5号【纯农排变】,望都鑫海农副产品加工厂,南康庄农1【纯农排变】,保定市望都灌溉试验站,大杨青庄村西农业3号【纯农排变】,北康庄西南2号【纯农排变】,宰庄混合6号,南康庄村北混3号配变,小杨青庄村南混合5号配变,北康庄北农2号【纯农排变】,南康庄农业7号【纯农排变】,二方【纯农排变】,小杨青庄农5【纯农排变】,小杨青庄村北混合1号配变,南康庄西北农5【纯农排变】,望都县汇林养猪场,北康庄混2,南康庄农2【纯农排变】,小杨青庄村南混合2号配变,曲家湾一方【纯农排变】,小杨青庄农业8号【纯农排变】,宰庄农2【纯农排变】,南康庄混合,北康庄内东混4,小杨青庄村北混合2号配变,0695441977-河北清云铁路机车车辆配件制造有限公司-专变-239219094-河北清云铁路机车车辆配件制造有限公司,北康庄北农3【纯农排变】,小杨青庄农业6号配变,宰庄村北混合5号,曲家湾西农【纯农排变】,小杨青庄农1【纯农排变】,北康庄村内混6,小杨青庄村南混合1号配变,南康庄混合2号新上,小杨青庄农3【纯农排变】,宰庄混合3号,","scope":"【影响街道/乡镇】黑堡乡、望都镇　　 【高危重要客户】无　　 【影响客户】小杨青庄、大杨青庄西北农业、南康庄、宰庄村、北康庄、曲家湾部分农业、二方、枫叶鞋厂、看守所、常春藤食品公司、技术站、明泰玻璃工艺制品厂、振青塑料购销站、南康庄移动基站、隆雨轩鞋厂、灌溉试验站、杰旺食品厂、清云铁路机车车辆配件制造有限公司、胡风荣、汇林养猪厂、望都县京轩阁鞋厂、望都县志荣铸造厂、河北省望都县气象局、鑫海农产品","startTime":"2019-07-30 15:55:34","stopDate":"2019-07-30 17:00:00","orgNo":"1340623","typeCode":"电网故障停限电","poweroffArea":"【全线路停电】停小杨青庄农业7号配变,南康庄农3【纯农排变】,变压器,望都县杰旺食品厂,小杨青庄村南混合3号配变,保定常春藤食品公司,望都县枫叶鞋厂,保定常春藤食品有限公司,宰庄农6【纯农排变】,小杨青庄农业4号配变,宰庄东南农业5号【纯农排变】,望都鑫海农副产品加工厂,南康庄农1【纯农排变】,保定市望都灌溉试验站,小杨青庄农3【纯农排变】,宰庄混合3号,小杨青庄农5【纯农排变】,小杨青庄村北混合1号配变,南康庄西北农5【纯农排变】,望都县汇林养猪场,北康庄混2,南康庄农2【纯农排变】,小杨青庄村南混合2号配变,曲家湾一方【纯农排变】,小杨青庄农业8号【纯农排变】,宰庄农2【纯农排变】,河北省望都县看守所,0469547287-胡风荣-专变-46836660-胡风荣,南康庄混合,北康庄内东混4,小杨青庄村北混合2号配变,南康庄移动基站,望都县隆雨轩鞋厂,望都县春藤食品有限公司,望都县京轩阁鞋厂,南康庄农业4号【纯农排变】,0469547535-技术站-专变-46836659-技术站,北康庄村北160【纯农排变】,宰庄农1【纯农排变】,0672573550-望都县志荣铸造厂(2)-专变-214319265-望都县志荣铸造厂(2),北康庄内东混3,河北省望都县气象局,宰庄混2,0695441977-河北清云铁路机车车辆配件制造有限公司-专变-239219094-河北清云铁路机车车辆配件制造有限公司,北康庄北农3【纯农排变】,小杨青庄农业6号配变,宰庄村北混合5号,曲家湾西农【纯农排变】,小杨青庄农1【纯农排变】,北康庄村内混6,小杨青庄村南混合1号配变,南康庄混合2号新上,大杨青庄村西农业3号【纯农排变】,北康庄西南2号【纯农排变】,宰庄混合6号,南康庄村北混3号配变,小杨青庄村南混合5号配变,北康庄北农2号【纯农排变】,南康庄农业7号【纯农排变】,二方【纯农排变】,宰庄混1,北康庄村南50【纯农排变】,南康庄幼儿园配变,南康庄农业6号【纯农排变】,小杨青庄村内混合1号配变,小杨青庄农2【纯农排变】,南康庄村东混4号配变,河北清云铁路机车车辆配件制造有限公司,宰庄正南农业4号【纯农排变】,北康庄西跑100【纯农排变】,小杨青庄村内混合2号配变,小杨青庄村内混合3号配变,北康庄混1,宰庄混合4号,小杨青庄村南混合4号配变,北康庄内西南混5,北康庄西北50【纯农排变】","poweroffReason":"【停电原因】由于会青养殖厂配变Ｃ相跌落掉导致１１０ＫＶ西堤变电站西堤线５２５线路全线停电 【变更送电】因抢修进度加快原因，送电时间由２３：００变更为１７：００ 【发布渠道】通过９５５９８发布","powerTime":"2019-07-30 16:38:19","powerComm":"已送电","subsNo":"","lineNo":"","tgNo":"","tgName":null,"infoStatus":"1","orgName":"国网望都县供电公司","typeName":null,"infoStatusName":null,"dateDay":null,"orgNos":null,"nowTime":null,"countyName":null,"streetName":null,"villageName":null,"roadName":null,"communityName":null,"tranName":null,"sdLineName":null,"cityCode":"1340623","cityName":"国网望都县供电公司","provinceCode":null,"stopTime":"2019-07-30 17:00:00","powerType":"全部","powerOffArea":"【全线路停电】停小杨青庄农业7号配变,南康庄农3【纯农排变】,变压器,望都县杰旺食品厂,小杨青庄村南混合3号配变,保定常春藤食品公司,望都县枫叶鞋厂,保定常春藤食品有限公司,宰庄农6【纯农排变】,小杨青庄农业4号配变,宰庄东南农业5号【纯农排变】,望都鑫海农副产品加工厂,南康庄农1【纯农排变】,保定市望都灌溉试验站,小杨青庄农3【纯农排变】,宰庄混合3号,小杨青庄农5【纯农排变】,小杨青庄村北混合1号配变,南康庄西北农5【纯农排变】,望都县汇林养猪场,北康庄混2,南康庄农2【纯农排变】,小杨青庄村南混合2号配变,曲家湾一方【纯农排变】,小杨青庄农业8号【纯农排变】,宰庄农2【纯农排变】,河北省望都县看守所,0469547287-胡风荣-专变-46836660-胡风荣,南康庄混合,北康庄内东混4,小杨青庄村北混合2号配变,南康庄移动基站,望都县隆雨轩鞋厂,望都县春藤食品有限公司,望都县京轩阁鞋厂,南康庄农业4号【纯农排变】,0469547535-技术站-专变-46836659-技术站,北康庄村北160【纯农排变】,宰庄农1【纯农排变】,0672573550-望都县志荣铸造厂(2)-专变-214319265-望都县志荣铸造厂(2),北康庄内东混3,河北省望都县气象局,宰庄混2,0695441977-河北清云铁路机车车辆配件制造有限公司-专变-239219094-河北清云铁路机车车辆配件制造有限公司,北康庄北农3【纯农排变】,小杨青庄农业6号配变,宰庄村北混合5号,曲家湾西农【纯农排变】,小杨青庄农1【纯农排变】,北康庄村内混6,小杨青庄村南混合1号配变,南康庄混合2号新上,大杨青庄村西农业3号【纯农排变】,北康庄西南2号【纯农排变】,宰庄混合6号,南康庄村北混3号配变,小杨青庄村南混合5号配变,北康庄北农2号【纯农排变】,南康庄农业7号【纯农排变】,二方【纯农排变】,宰庄混1,北康庄村南50【纯农排变】,南康庄幼儿园配变,南康庄农业6号【纯农排变】,小杨青庄村内混合1号配变,小杨青庄农2【纯农排变】,南康庄村东混4号配变,河北清云铁路机车车辆配件制造有限公司,宰庄正南农业4号【纯农排变】,北康庄西跑100【纯农排变】,小杨青庄村内混合2号配变,小杨青庄村内混合3号配变,北康庄混1,宰庄混合4号,小杨青庄村南混合4号配变,北康庄内西南混5,北康庄西北50【纯农排变】","powerOffReason":"【停电原因】由于会青养殖厂配变Ｃ相跌落掉导致１１０ＫＶ西堤变电站西堤线５２５线路全线停电 【变更送电】因抢修进度加快原因，送电时间由２３：００变更为１７：００ 【发布渠道】通过９５５９８发布","powerOffId":"2019073013000451"},{"poweroffId":2019073013000444,"sgpoweroffId":null,"subsName":"","lineName":"10kV513玉田线","pubTranName":"北玉田综合8台区变压器,北玉田综合9台区变压器,中玉综合4台区变压器,中玉田农排5台区【纯农排变】,北玉农排11台区【纯农排变】,北玉田综合3台区变压器,北玉田农排7台区【纯农排变】,北玉田综合6台区变压器,南玉综合4台区变压器,南玉综合7台区变压器,北玉农排12台区【纯农排变】,中玉农排7台区【纯农排变】,0469432275-蠡县轩达纺织品有限公司-专变-46810356-蠡县轩达纺织品有限公司,北玉田农排5台区【纯农排变】,中玉田农排3台区【纯农排变】,中玉田农排6台区【纯农排变】,保定金若兰皮具有限公司2号,北玉田农排1台区【纯农排变】,南玉田农排7台区【纯农排变】,北玉综合11台区变压器,中玉综合1台区变压器,北玉田农排9台区【纯农排变】,保定派总皮具有限公司,保定六合皮件有限公司,中玉综合5台区变压器,中玉综合3台区变压器,南玉田农排8台区【纯农排变】,南玉综合2台区变压器,南玉田农排6台区【纯农排变】,北玉农排14台区【纯农排变】,0555883426-中国移动通信集团河北有限公司蠡县分公司-专变-95790837-中国移动通信集团河北有限公司蠡县分公司变压器,北玉田农排4台区【纯农排变】,中玉田综合6台区变压器,中玉田农排4台区【纯农排变】,北玉田综合2台区变压器,南玉农排10台区【纯农排变】,北玉田农排3台区【纯农排变】,蠡县派康皮具有限公司,北玉综合12台区变压器,北玉田综合7台区变压器,南玉综合5台区变压器,北玉农排13台区【纯农排变】,北玉田综合5台区变压器,中玉田农排2台区【纯农排变】,北玉田农排6台区【纯农排变】,中玉田农排1台区【纯农排变】,握纽庄农排9台区【纯农排变】,0664651004-保定强胜水利工程有限公司-专变-201057949-保定强胜水利工程有限公司变压器,中国移动通信集团河北有限公司蠡县分公司变压器,南玉田综合8台区变压器,北玉田综合4台区变压器,北玉田农排2台区【纯农排变】,北玉农排10台区【纯农排变】,南玉综合1台区变压器,北玉田综合13台区变压器,北玉综合10台区变压器,中玉综合2台区变压器,北玉田综合1台区变压器,0544816554-刘杰养猪场-专变-118577728-刘杰养猪场,南玉综合3台区变压器,0469432637-蠡县振华毛巾厂-专变-46810238-南玉永强面粉厂,北玉田农排8台区【纯农排变】,南玉综合6台区变压器,","scope":"【影响街道/乡镇】大百尺镇【高危重要客户】无【影响客户】北玉田村、南玉田村、中玉田村","startTime":"2019-07-30 15:43:08","stopDate":"2019-07-30 20:00:00","orgNo":"1340616","typeCode":"电网故障停限电","poweroffArea":"【全线路停电】停南玉农排10台区【纯农排变】,中玉田农排5台区【纯农排变】,握纽庄农排9台区【纯农排变】,北玉田农排9台区【纯农排变】,北玉田农排8台区【纯农排变】,北玉田农排6台区【纯农排变】,中玉综合4台区变压器,北玉农排13台区【纯农排变】,中玉田综合6台区变压器,南玉综合1台区变压器,北玉田综合3台区变压器,南玉田综合8台区变压器,北玉田综合8台区变压器,北玉农排14台区【纯农排变】,南玉综合2台区变压器,中玉综合2台区变压器,北玉田综合5台区变压器,北玉田综合13台区变压器,中玉综合1台区变压器,北玉田综合7台区变压器,蠡县派康皮具有限公司,0469432275-蠡县轩达纺织品有限公司-专变-46810356-蠡县轩达纺织品有限公司,中玉综合5台区变压器,北玉田综合9台区变压器,北玉农排12台区【纯农排变】,北玉农排10台区【纯农排变】,南玉综合5台区变压器,南玉综合7台区变压器,中国移动通信集团河北有限公司蠡县分公司变压器,南玉田农排6台区【纯农排变】,南玉综合3台区变压器,北玉田综合1台区变压器,北玉田农排2台区【纯农排变】,中玉农排7台区【纯农排变】,北玉田农排4台区【纯农排变】,北玉田综合2台区变压器,北玉田农排5台区【纯农排变】,北玉综合11台区变压器,北玉农排11台区【纯农排变】,保定六合皮件有限公司,0555883426-中国移动通信集团河北有限公司蠡县分公司-专变-95790837-中国移动通信集团河北有限公司蠡县分公司变压器,北玉田农排7台区【纯农排变】,保定金若兰皮具有限公司2号,保定派总皮具有限公司,0664651004-保定强胜水利工程有限公司-专变-201057949-保定强胜水利工程有限公司变压器,南玉综合6台区变压器,0544816554-刘杰养猪场-专变-118577728-刘杰养猪场,0469432637-蠡县振华毛巾厂-专变-46810238-南玉永强面粉厂,南玉综合4台区变压器,北玉田综合4台区变压器,北玉田农排1台区【纯农排变】,中玉田农排1台区【纯农排变】,中玉综合3台区变压器,中玉田农排4台区【纯农排变】,中玉田农排3台区【纯农排变】,南玉田农排7台区【纯农排变】,北玉综合12台区变压器,北玉田综合6台区变压器,中玉田农排2台区【纯农排变】,南玉田农排8台区【纯农排变】,北玉田农排3台区【纯农排变】,中玉田农排6台区【纯农排变】,北玉综合10台区变压器","poweroffReason":"【停电原因】由于线路接地导致３５ＫＶ握纽庄变电站１０ＫＶ玉田５１３线路全线停电【变更送电】无【发布渠道】通过９５５９８发布","powerTime":"2019-07-30 19:44:09","powerComm":"已送电","subsNo":"","lineNo":"","tgNo":"","tgName":null,"infoStatus":"1","orgName":"国网蠡县供电公司","typeName":null,"infoStatusName":null,"dateDay":null,"orgNos":null,"nowTime":null,"countyName":null,"streetName":null,"villageName":null,"roadName":null,"communityName":null,"tranName":null,"sdLineName":null,"cityCode":"1340616","cityName":"国网蠡县供电公司","provinceCode":null,"stopTime":"2019-07-30 20:00:00","powerType":"全部","powerOffArea":"【全线路停电】停南玉农排10台区【纯农排变】,中玉田农排5台区【纯农排变】,握纽庄农排9台区【纯农排变】,北玉田农排9台区【纯农排变】,北玉田农排8台区【纯农排变】,北玉田农排6台区【纯农排变】,中玉综合4台区变压器,北玉农排13台区【纯农排变】,中玉田综合6台区变压器,南玉综合1台区变压器,北玉田综合3台区变压器,南玉田综合8台区变压器,北玉田综合8台区变压器,北玉农排14台区【纯农排变】,南玉综合2台区变压器,中玉综合2台区变压器,北玉田综合5台区变压器,北玉田综合13台区变压器,中玉综合1台区变压器,北玉田综合7台区变压器,蠡县派康皮具有限公司,0469432275-蠡县轩达纺织品有限公司-专变-46810356-蠡县轩达纺织品有限公司,中玉综合5台区变压器,北玉田综合9台区变压器,北玉农排12台区【纯农排变】,北玉农排10台区【纯农排变】,南玉综合5台区变压器,南玉综合7台区变压器,中国移动通信集团河北有限公司蠡县分公司变压器,南玉田农排6台区【纯农排变】,南玉综合3台区变压器,北玉田综合1台区变压器,北玉田农排2台区【纯农排变】,中玉农排7台区【纯农排变】,北玉田农排4台区【纯农排变】,北玉田综合2台区变压器,北玉田农排5台区【纯农排变】,北玉综合11台区变压器,北玉农排11台区【纯农排变】,保定六合皮件有限公司,0555883426-中国移动通信集团河北有限公司蠡县分公司-专变-95790837-中国移动通信集团河北有限公司蠡县分公司变压器,北玉田农排7台区【纯农排变】,保定金若兰皮具有限公司2号,保定派总皮具有限公司,0664651004-保定强胜水利工程有限公司-专变-201057949-保定强胜水利工程有限公司变压器,南玉综合6台区变压器,0544816554-刘杰养猪场-专变-118577728-刘杰养猪场,0469432637-蠡县振华毛巾厂-专变-46810238-南玉永强面粉厂,南玉综合4台区变压器,北玉田综合4台区变压器,北玉田农排1台区【纯农排变】,中玉田农排1台区【纯农排变】,中玉综合3台区变压器,中玉田农排4台区【纯农排变】,中玉田农排3台区【纯农排变】,南玉田农排7台区【纯农排变】,北玉综合12台区变压器,北玉田综合6台区变压器,中玉田农排2台区【纯农排变】,南玉田农排8台区【纯农排变】,北玉田农排3台区【纯农排变】,中玉田农排6台区【纯农排变】,北玉综合10台区变压器","powerOffReason":"【停电原因】由于线路接地导致３５ＫＶ握纽庄变电站１０ＫＶ玉田５１３线路全线停电【变更送电】无【发布渠道】通过９５５９８发布","powerOffId":"2019073013000444"},{"poweroffId":2019073013000439,"sgpoweroffId":null,"subsName":"","lineName":"10kV511齐村线","pubTranName":"太合综合1台区变压器,蠡县九州纺织品有限公司,太白综合4台区变压器,陵阳农排2台区【纯农排变】,陵阳农排3台区【纯农排变】,陵阳综合6台区变压器,太恒综合11台区变压器,0469434398-蠡县旭博纺织有限公司-专变-46810218-老偏毛巾厂,0469434385-蠡县金欧纺织厂-专变-46810187-学礼毛巾厂,天伦纺织品有限公司,艳召巾被厂,太合农排4台区【纯农排变】,0469434907-太白二面-专变-46810380-太白二面,0469432666-蠡县军格奶牛厂-专变-46810281-蠡县军格奶牛厂,太恒综合2台区变压器,陵阳综合5台区变压器,太白综合3台区变压器,石展敦毛巾厂,0469434372-蠡县恒佳纺织厂-专变-46810276-蠡县三联纺织品有限公司,0469436219-蠡县博川纺织有限公司-专变-46810355-朱满仓毛巾厂,0469432246-蠡县思佳纺织厂-专变-46810231-王明毛巾厂,陵阳综合11台区变压器,0562626175-蠡县宇通纺织品有限公司-专变-118457890-蠡县陵阳征昌巾被厂变压器,陵阳工业（东南）,太恒综合9台区变压器,蠡县裕积纺织品有限公司变压器,太合综合2台区变压器,明浩纺织品,保定三江皮毛纺织品有限公司,0469436189-蠡县鑫卓纺织品有限公司-专变-46810298-盼发巾被厂2号,0469433799-二联毛巾厂-专变-46810236-二联毛巾厂,百尺二中,太恒综合1台区,太合综合5台区变压器,陵阳学斌毛巾厂变压器,太白综合2台区变压器,太恒综合3台区变压器,0469432217-盼发巾被厂一号-专变-46810379-盼发巾被厂1号,太白综合1台区变压器,志开毛巾厂,陵阳综合10台区变压器,太恒综合4台区变压器,陵阳综合12台区变压器,0469436235-蠡县格雅巾被厂-专变-46810191-东兴毛巾厂,0469432653-海滨毛巾厂-专变-46810277-海滨毛巾厂,陵阳合股厂,陵阳综合4台区变压器,中国移动通信集团河北有限公司蠡县分公司太恒村变压器,太合综合4台区变压器,太恒综合5台区变压器,陵阳农排5台区【纯农排变】,太恒综合7台区变压器,0469432679-蠡县宏强毛巾厂-专变-46810219-宏强毛巾厂,0469433890-太恒小学-专变-46810244-太恒学校,蠡县天伦纺织品有限责任公司变压器,蠡县思绮纺织品有限公司,陵阳综合3台区变压器,太恒综合10台区变压器,陵阳综合7台区变压器,0469432709-蠡县三昊纺织品厂-专变-46810217-朱顺雷毛巾厂,0469434822-蠡县腾宏纺织厂-专变-46810275-蠡县三联纺织品有限公司,蠡县彬彬纺织品有限公司,太合综合3台区变压器,蠡县锦棉纺织品有限公司,陵阳综合2台区变压器,保定三江皮毛纺织有限公司,0469436134-蠡县祥泰纺织厂-专变-127135980-蠡县鑫民纺织有限公司变压器,陵阳综合9台区变压器,陵阳综合8台区变压器,陵阳综合1台区变压器,建坡面粉厂,太恒综合8台区变压器,蠡县三联纺织品有限公司3,0469433744","scope":"【影响街道/乡镇】大百尺镇【高危重要客户】无【影响客户】陵阳村、太恒庄村、太白庄村、太合庄村","startTime":"2019-07-30 15:37:02","stopDate":"2019-07-30 17:00:00","orgNo":"1340616","typeCode":"电网故障停限电","poweroffArea":"【全线路停电】停太恒综合11台区变压器,蠡县三联纺织品有限公司3,蠡县彬彬纺织品有限公司,太恒综合5台区变压器,0469436189-蠡县鑫卓纺织品有限公司-专变-46810298-盼发巾被厂2号,保定三江皮毛纺织品有限公司,0469432246-蠡县思佳纺织厂-专变-46810231-王明毛巾厂,0469432217-盼发巾被厂一号-专变-46810379-盼发巾被厂1号,太白综合4台区变压器,保定三江皮毛纺织有限公司,陵阳综合10台区变压器,太恒综合7台区变压器,石展敦毛巾厂,陵阳农排3台区【纯农排变】,0469434822-蠡县腾宏纺织厂-专变-46810275-蠡县三联纺织品有限公司,太合综合3台区变压器,0469434372-蠡县恒佳纺织厂-专变-46810276-蠡县三联纺织品有限公司,陵阳农排5台区【纯农排变】,陵阳农排2台区【纯农排变】,蠡县思绮纺织品有限公司,太恒综合2台区变压器,太恒综合4台区变压器,太恒综合10台区变压器,陵阳学斌毛巾厂变压器,陵阳综合12台区变压器,太恒综合9台区变压器,陵阳综合4台区变压器,陵阳工业（东南）,蠡县裕积纺织品有限公司变压器,陵阳综合6台区变压器,陵阳综合1台区变压器,0469432679-蠡县宏强毛巾厂-专变-46810219-宏强毛巾厂,0469434398-蠡县旭博纺织有限公司-专变-46810218-老偏毛巾厂,太白综合2台区变压器,蠡县九州纺织品有限公司,陵阳综合2台区变压器,陵阳综合11台区变压器,太恒综合3台区变压器,天伦纺织品有限公司,艳召巾被厂,0562626175-蠡县宇通纺织品有限公司-专变-118457890-蠡县陵阳征昌巾被厂变压器,0469432666-蠡县军格奶牛厂-专变-46810281-蠡县军格奶牛厂,陵阳综合3台区变压器,0469433744-蠡县凌阳村国昌毛巾厂-专变-46810233-国昌毛巾厂,陵阳合股厂,太白综合3台区变压器,0469432653-海滨毛巾厂-专变-46810277-海滨毛巾厂,陵阳综合8台区变压器,太恒综合1台区,中国移动通信集团河北有限公司蠡县分公司太恒村变压器,太合农排4台区【纯农排变】,0469436134-蠡县祥泰纺织厂-专变-127135980-蠡县鑫民纺织有限公司变压器,0469432709-蠡县三昊纺织品厂-专变-46810217-朱顺雷毛巾厂,陵阳综合5台区变压器,0469436219-蠡县博川纺织有限公司-专变-46810355-朱满仓毛巾厂,0469434385-蠡县金欧纺织厂-专变-46810187-学礼毛巾厂,明浩纺织品,陵阳综合7台区变压器,建坡面粉厂,陵阳综合9台区变压器,太白综合1台区变压器,太恒综合8台区变压器,太合综合5台区变压器,蠡县天伦纺织品有限责任公司变压器,志开毛巾厂,太合综合2台区变压器,0469433890-太恒小学-专变-46810244-太恒学校,百尺二中,太合综合1台区变压器,0469434907-太白二面-专变-46810380-太白二面,太合综合4台区变压器,0469436235-蠡县格雅巾被厂-专变-46810191-东兴毛巾厂,0469433799-二联毛巾厂-专变-46810236-二联毛巾厂,蠡县锦棉纺织品有限公司","poweroffReason":"【停电原因】由于站内开关掉闸导致３５ＫＶ握纽庄变电站１０ＫＶ齐村５１１线路全线停电【变更送电】因抢修进度加快原因，送电时间由２０：００变更为１７：００【发布渠道】通过９５５９８发布","powerTime":"2019-07-30 16:25:14","powerComm":"已送电","subsNo":"","lineNo":"","tgNo":"","tgName":null,"infoStatus":"1","orgName":"国网蠡县供电公司","typeName":null,"infoStatusName":null,"dateDay":null,"orgNos":null,"nowTime":null,"countyName":null,"streetName":null,"villageName":null,"roadName":null,"communityName":null,"tranName":null,"sdLineName":null,"cityCode":"1340616","cityName":"国网蠡县供电公司","provinceCode":null,"stopTime":"2019-07-30 17:00:00","powerType":"全部","powerOffArea":"【全线路停电】停太恒综合11台区变压器,蠡县三联纺织品有限公司3,蠡县彬彬纺织品有限公司,太恒综合5台区变压器,0469436189-蠡县鑫卓纺织品有限公司-专变-46810298-盼发巾被厂2号,保定三江皮毛纺织品有限公司,0469432246-蠡县思佳纺织厂-专变-46810231-王明毛巾厂,0469432217-盼发巾被厂一号-专变-46810379-盼发巾被厂1号,太白综合4台区变压器,保定三江皮毛纺织有限公司,陵阳综合10台区变压器,太恒综合7台区变压器,石展敦毛巾厂,陵阳农排3台区【纯农排变】,0469434822-蠡县腾宏纺织厂-专变-46810275-蠡县三联纺织品有限公司,太合综合3台区变压器,0469434372-蠡县恒佳纺织厂-专变-46810276-蠡县三联纺织品有限公司,陵阳农排5台区【纯农排变】,陵阳农排2台区【纯农排变】,蠡县思绮纺织品有限公司,太恒综合2台区变压器,太恒综合4台区变压器,太恒综合10台区变压器,陵阳学斌毛巾厂变压器,陵阳综合12台区变压器,太恒综合9台区变压器,陵阳综合4台区变压器,陵阳工业（东南）,蠡县裕积纺织品有限公司变压器,陵阳综合6台区变压器,陵阳综合1台区变压器,0469432679-蠡县宏强毛巾厂-专变-46810219-宏强毛巾厂,0469434398-蠡县旭博纺织有限公司-专变-46810218-老偏毛巾厂,太白综合2台区变压器,蠡县九州纺织品有限公司,陵阳综合2台区变压器,陵阳综合11台区变压器,太恒综合3台区变压器,天伦纺织品有限公司,艳召巾被厂,0562626175-蠡县宇通纺织品有限公司-专变-118457890-蠡县陵阳征昌巾被厂变压器,0469432666-蠡县军格奶牛厂-专变-46810281-蠡县军格奶牛厂,陵阳综合3台区变压器,0469433744-蠡县凌阳村国昌毛巾厂-专变-46810233-国昌毛巾厂,陵阳合股厂,太白综合3台区变压器,0469432653-海滨毛巾厂-专变-46810277-海滨毛巾厂,陵阳综合8台区变压器,太恒综合1台区,中国移动通信集团河北有限公司蠡县分公司太恒村变压器,太合农排4台区【纯农排变】,0469436134-蠡县祥泰纺织厂-专变-127135980-蠡县鑫民纺织有限公司变压器,0469432709-蠡县三昊纺织品厂-专变-46810217-朱顺雷毛巾厂,陵阳综合5台区变压器,0469436219-蠡县博川纺织有限公司-专变-46810355-朱满仓毛巾厂,0469434385-蠡县金欧纺织厂-专变-46810187-学礼毛巾厂,明浩纺织品,陵阳综合7台区变压器,建坡面粉厂,陵阳综合9台区变压器,太白综合1台区变压器,太恒综合8台区变压器,太合综合5台区变压器,蠡县天伦纺织品有限责任公司变压器,志开毛巾厂,太合综合2台区变压器,0469433890-太恒小学-专变-46810244-太恒学校,百尺二中,太合综合1台区变压器,0469434907-太白二面-专变-46810380-太白二面,太合综合4台区变压器,0469436235-蠡县格雅巾被厂-专变-46810191-东兴毛巾厂,0469433799-二联毛巾厂-专变-46810236-二联毛巾厂,蠡县锦棉纺织品有限公司","powerOffReason":"【停电原因】由于站内开关掉闸导致３５ＫＶ握纽庄变电站１０ＫＶ齐村５１１线路全线停电【变更送电】因抢修进度加快原因，送电时间由２０：００变更为１７：００【发布渠道】通过９５５９８发布","powerOffId":"2019073013000439"}],"pageModel":{"pageNow":736,"totalCount":10973,"totalPage":1098,"tableRows":0,"pageCount":10,"beginCount":7350},"isExperi":"1"}