{"message":"","today":"2020-06-15","seleList":[{"poweroffId":2019073013000389,"sgpoweroffId":null,"subsName":"","lineName":"10kV514王庄农业线","pubTranName":"王庄冷库,郭庄农排2台区【纯农排变】,贾庄冰袋,王庄综合5台区【冬季采暖设施】,王庄东一,南关鸡厂,蠡县梁庄扎花厂变压器,贾庄综合4台区[纯农排变】,贾庄综合3台区514,小刚农用,保定中瑞胶带制造有限公司,蠡县万隆煤炭销售有限公司变压器,王庄综合2台区,王庄综合4台区,东南街农排3台区【纯农排变】,郭庄农排1台区【纯农排变】,蠡县王庄边立织布厂变压器,龙辉,梁庄综合3台区514,王庄村里冰袋,环形带,贾庄农排4台区【纯农排变】,南忠卫农排15台区【纯农排变】,蠡县郭庄冷雪冷食厂变压器,郭庄农排3台区【纯农排变】,王庄面粉厂,锅炉房,保定中瑞胶带制造有限公司变压器,河北沈三开电器制造有限公司变压器,贾庄农排1台区514【纯农排变】,大华纺织厂变压器,河北长瑞商品混凝土有限公司变压器,德茂装卸站,王庄浇地,王庄路灯,梁庄综合2台区514,贾庄综合1台区514,王庄农排2台区【纯农排变】新乡,盛隆纺纱厂变压器,王庄综合1台区,郭庄综合1台区,王庄开花厂变压器,蠡县远鸿纺织有限公司,蠡县正鑫煤炭购销有限公司,王庄农用,贾庄浇地,南忠卫农排10台区【纯农排变】,南忠卫农排16台区【纯农排变】,保定强胜水利工程有公司变压器,王庄农排3台区【纯农排变】新乡,王庄农排1台区【纯农排变】新乡,河北蠡县新城毛纺有限公司变压器,蠡县橡胶厂变压器,王庄板厂,郭庄综合3台区,东南街农排4台区【纯农排变】,0469338209-王庄东二台-专变-46778813-王庄东二,王庄综合3台区,贾庄综合2台区514,八里庄塑料厂,贾庄庆祥,敬老院,梁庄综合1台区514,蠡县宇大公路工程材料供应处,河北中北橡胶机带有限公司变压器,正鑫煤厂,王庄农排4台区【纯农排变】新乡,0667908594-河北太平洋危货储运销售有限公司-专变-208448641-河北太平洋危货储运销售有限公司变压器,蠡县橡胶厂,0667401862-蠡县伏羲砂石料厂-专变-208425925-蠡县伏羲砂石料厂,0660806400-河北英达物流有限公司-专变-195782521-河北英达物流有限公司,贾庄农排3台区【纯农排变】,道桥养护,保定博新橡胶机带有限公司变压器,王庄农排5台区【纯农排变】,梁庄农排1台区514【纯农排变】,贾庄农排2台区514【纯农排变】,郭庄综合2台区,","scope":"【影响街道/乡镇】蠡吾镇【高危重要客户】无【影响客户】贾庄村、王庄村、梁庄村、郭庄村","startTime":"2019-07-30 14:33:58","stopDate":"2019-07-30 16:00:00","orgNo":"1340616","typeCode":"电网故障停限电","poweroffArea":"【全线路停电】停梁庄综合2台区514,贾庄综合4台区[纯农排变】,郭庄综合2台区,南忠卫农排10台区【纯农排变】,河北蠡县新城毛纺有限公司变压器,正鑫煤厂,蠡县梁庄扎花厂变压器,0667401862-蠡县伏羲砂石料厂-专变-208425925-蠡县伏羲砂石料厂,王庄村里冰袋,王庄农排2台区【纯农排变】新乡,小刚农用,王庄冷库,王庄面粉厂,锅炉房,贾庄农排1台区514【纯农排变】,贾庄综合2台区514,梁庄农排1台区514【纯农排变】,蠡县万隆煤炭销售有限公司变压器,河北中北橡胶机带有限公司变压器,王庄综合2台区,贾庄农排2台区514【纯农排变】,南忠卫农排16台区【纯农排变】,环形带,0660806400-河北英达物流有限公司-专变-195782521-河北英达物流有限公司,蠡县远鸿纺织有限公司,河北沈三开电器制造有限公司变压器,南忠卫农排15台区【纯农排变】,王庄东一,蠡县橡胶厂变压器,王庄浇地,贾庄农排3台区【纯农排变】,0469338209-王庄东二台-专变-46778813-王庄东二,大华纺织厂变压器,蠡县郭庄冷雪冷食厂变压器,王庄板厂,郭庄综合1台区,蠡县王庄边立织布厂变压器,保定中瑞胶带制造有限公司变压器,贾庄综合1台区514,梁庄综合1台区514,德茂装卸站,八里庄塑料厂,王庄农排4台区【纯农排变】新乡,王庄农排1台区【纯农排变】新乡,王庄综合5台区【冬季采暖设施】,王庄开花厂变压器,梁庄综合3台区514,保定中瑞胶带制造有限公司,王庄农排5台区【纯农排变】,郭庄综合3台区,0667908594-河北太平洋危货储运销售有限公司-专变-208448641-河北太平洋危货储运销售有限公司变压器,郭庄农排1台区【纯农排变】,王庄路灯,王庄农排3台区【纯农排变】新乡,王庄综合4台区,贾庄冰袋,王庄农用,敬老院,贾庄综合3台区514,东南街农排3台区【纯农排变】,贾庄庆祥,蠡县正鑫煤炭购销有限公司,南关鸡厂,保定博新橡胶机带有限公司变压器,王庄综合3台区,王庄综合1台区,河北长瑞商品混凝土有限公司变压器,东南街农排4台区【纯农排变】,龙辉,郭庄农排3台区【纯农排变】,蠡县宇大公路工程材料供应处,贾庄农排4台区【纯农排变】,贾庄浇地,蠡县橡胶厂,道桥养护,盛隆纺纱厂变压器,郭庄农排2台区【纯农排变】,保定强胜水利工程有公司变压器","poweroffReason":"【停电原因】由于站外开关掉闸导致３５ＫＶ王庄变电站１０ＫＶ王庄农业５１４线路全线停电【变更送电】因抢修进度加快原因，送电时间由２０：００变更为１６：００【发布渠道】通过９５５９８发布","powerTime":"2019-07-30 15:10:11","powerComm":"已送电","subsNo":"","lineNo":"","tgNo":"","tgName":null,"infoStatus":"1","orgName":"国网蠡县供电公司","typeName":null,"infoStatusName":null,"dateDay":null,"orgNos":null,"nowTime":null,"countyName":null,"streetName":null,"villageName":null,"roadName":null,"communityName":null,"tranName":null,"sdLineName":null,"cityCode":"1340616","cityName":"国网蠡县供电公司","provinceCode":null,"stopTime":"2019-07-30 16:00:00","powerType":"全部","powerOffArea":"【全线路停电】停梁庄综合2台区514,贾庄综合4台区[纯农排变】,郭庄综合2台区,南忠卫农排10台区【纯农排变】,河北蠡县新城毛纺有限公司变压器,正鑫煤厂,蠡县梁庄扎花厂变压器,0667401862-蠡县伏羲砂石料厂-专变-208425925-蠡县伏羲砂石料厂,王庄村里冰袋,王庄农排2台区【纯农排变】新乡,小刚农用,王庄冷库,王庄面粉厂,锅炉房,贾庄农排1台区514【纯农排变】,贾庄综合2台区514,梁庄农排1台区514【纯农排变】,蠡县万隆煤炭销售有限公司变压器,河北中北橡胶机带有限公司变压器,王庄综合2台区,贾庄农排2台区514【纯农排变】,南忠卫农排16台区【纯农排变】,环形带,0660806400-河北英达物流有限公司-专变-195782521-河北英达物流有限公司,蠡县远鸿纺织有限公司,河北沈三开电器制造有限公司变压器,南忠卫农排15台区【纯农排变】,王庄东一,蠡县橡胶厂变压器,王庄浇地,贾庄农排3台区【纯农排变】,0469338209-王庄东二台-专变-46778813-王庄东二,大华纺织厂变压器,蠡县郭庄冷雪冷食厂变压器,王庄板厂,郭庄综合1台区,蠡县王庄边立织布厂变压器,保定中瑞胶带制造有限公司变压器,贾庄综合1台区514,梁庄综合1台区514,德茂装卸站,八里庄塑料厂,王庄农排4台区【纯农排变】新乡,王庄农排1台区【纯农排变】新乡,王庄综合5台区【冬季采暖设施】,王庄开花厂变压器,梁庄综合3台区514,保定中瑞胶带制造有限公司,王庄农排5台区【纯农排变】,郭庄综合3台区,0667908594-河北太平洋危货储运销售有限公司-专变-208448641-河北太平洋危货储运销售有限公司变压器,郭庄农排1台区【纯农排变】,王庄路灯,王庄农排3台区【纯农排变】新乡,王庄综合4台区,贾庄冰袋,王庄农用,敬老院,贾庄综合3台区514,东南街农排3台区【纯农排变】,贾庄庆祥,蠡县正鑫煤炭购销有限公司,南关鸡厂,保定博新橡胶机带有限公司变压器,王庄综合3台区,王庄综合1台区,河北长瑞商品混凝土有限公司变压器,东南街农排4台区【纯农排变】,龙辉,郭庄农排3台区【纯农排变】,蠡县宇大公路工程材料供应处,贾庄农排4台区【纯农排变】,贾庄浇地,蠡县橡胶厂,道桥养护,盛隆纺纱厂变压器,郭庄农排2台区【纯农排变】,保定强胜水利工程有公司变压器","powerOffReason":"【停电原因】由于站外开关掉闸导致３５ＫＶ王庄变电站１０ＫＶ王庄农业５１４线路全线停电【变更送电】因抢修进度加快原因，送电时间由２０：００变更为１６：００【发布渠道】通过９５５９８发布","powerOffId":"2019073013000389"},{"poweroffId":2019073013000363,"sgpoweroffId":null,"subsName":"","lineName":"10kV514小陈乡线","pubTranName":"小陈综合2台区,小陈综合7台区,保定华宇纺织有限公司,蠡县加华纺织有限公司变压器,颜庄浇地四,小陈综合6台区,小陈纺织厂,小陈综合15台区变压器,建民浇地四,颜庄综合6台区,小陈建河,蠡县日发纺织有限公司,？县颜庄扣板厂,蠡县颜庄盛源面粉厂变压器,小陈红卫纺织厂,颜庄浇地二,小陈综合5台区,小陈村南,小陈综合10台区,小陈综合3台区,国令浇地二,颜庄综合5台区,颜庄浇地6台区,蠡县春龙纺织厂变压器,颜庄综合4台区,恒基,颜庄综合2台区,小陈中学,颜庄浇地一,小陈综合16台区变压器,小陈综合8台区,建民浇地三,小陈综合4台区,永安浇地三,刘胖浇地,林昌织布厂,小陈皮毛厂,小陈综合1台区,小陈学校,颜庄综合7台区,华宇新增,国令三,小陈利群纺纱厂,小陈乡政府,颜庄综合1台区,建民浇地,小陈综合14台区,小陈村北1号,小陈砖厂,颜庄浇地七,颜庄综合3台区,颜庄浇地8台区,小陈综合9台区,小陈综合11台区,中国移动通信集团河北有限公司蠡县分公司变压器,小陈综合12台区,保定华宇纺织有限公司变压器,永安二浇地,小陈综合13台区,颜庄浇地三,颜庄浇地5台区,颜庄3台区,","scope":"【影响街道/乡镇】小陈乡 【高危重要客户】无 【影响客户】小陈村、颜庄村","startTime":"2019-08-01 00:00:00","stopDate":"2019-08-01 03:10:00","orgNo":"1340616","typeCode":"临时停电","poweroffArea":"【全线路停电】停颜庄综合1台区,小陈村南,颜庄浇地8台区,颜庄浇地5台区,小陈综合12台区,颜庄浇地一,颜庄浇地三,国令三,小陈综合9台区,建民浇地四,小陈综合11台区,建民浇地三,小陈乡政府,林昌织布厂,？县颜庄扣板厂,颜庄综合7台区,小陈综合14台区,蠡县日发纺织有限公司,小陈综合15台区变压器,小陈综合2台区,小陈学校,颜庄3台区,颜庄综合3台区,颜庄浇地四,建民浇地,恒基,小陈中学,小陈综合3台区,小陈纺织厂,保定华宇纺织有限公司,小陈红卫纺织厂,小陈砖厂,小陈综合8台区,小陈皮毛厂,小陈综合7台区,永安浇地三,颜庄浇地二,小陈利群纺纱厂,小陈综合1台区,小陈综合13台区,颜庄综合4台区,颜庄综合5台区,颜庄综合6台区,小陈建河,刘胖浇地,小陈综合10台区,蠡县春龙纺织厂变压器,颜庄浇地6台区,国令浇地二,华宇新增,小陈综合16台区变压器,颜庄综合2台区,中国移动通信集团河北有限公司蠡县分公司变压器,小陈综合4台区,保定华宇纺织有限公司变压器,蠡县颜庄盛源面粉厂变压器,小陈村北1号,颜庄浇地七,小陈综合5台区,小陈综合6台区,蠡县加华纺织有限公司变压器,永安二浇地","poweroffReason":"【停电原因】由于站内设备消缺导致３５ＫＶ小陈变电站１０ＫＶ小陈乡５１４线路全线停电【变更送电】因工作进度加快原因，送电时间由０５：００变更为０３：１０【发布渠道】通过９５５９８发布","powerTime":"2019-08-01 02:50:10","powerComm":"已送电","subsNo":"","lineNo":"","tgNo":"","tgName":null,"infoStatus":"1","orgName":"国网蠡县供电公司","typeName":null,"infoStatusName":null,"dateDay":null,"orgNos":null,"nowTime":null,"countyName":null,"streetName":null,"villageName":null,"roadName":null,"communityName":null,"tranName":null,"sdLineName":null,"cityCode":"1340616","cityName":"国网蠡县供电公司","provinceCode":null,"stopTime":"2019-08-01 03:10:00","powerType":"全部","powerOffArea":"【全线路停电】停颜庄综合1台区,小陈村南,颜庄浇地8台区,颜庄浇地5台区,小陈综合12台区,颜庄浇地一,颜庄浇地三,国令三,小陈综合9台区,建民浇地四,小陈综合11台区,建民浇地三,小陈乡政府,林昌织布厂,？县颜庄扣板厂,颜庄综合7台区,小陈综合14台区,蠡县日发纺织有限公司,小陈综合15台区变压器,小陈综合2台区,小陈学校,颜庄3台区,颜庄综合3台区,颜庄浇地四,建民浇地,恒基,小陈中学,小陈综合3台区,小陈纺织厂,保定华宇纺织有限公司,小陈红卫纺织厂,小陈砖厂,小陈综合8台区,小陈皮毛厂,小陈综合7台区,永安浇地三,颜庄浇地二,小陈利群纺纱厂,小陈综合1台区,小陈综合13台区,颜庄综合4台区,颜庄综合5台区,颜庄综合6台区,小陈建河,刘胖浇地,小陈综合10台区,蠡县春龙纺织厂变压器,颜庄浇地6台区,国令浇地二,华宇新增,小陈综合16台区变压器,颜庄综合2台区,中国移动通信集团河北有限公司蠡县分公司变压器,小陈综合4台区,保定华宇纺织有限公司变压器,蠡县颜庄盛源面粉厂变压器,小陈村北1号,颜庄浇地七,小陈综合5台区,小陈综合6台区,蠡县加华纺织有限公司变压器,永安二浇地","powerOffReason":"【停电原因】由于站内设备消缺导致３５ＫＶ小陈变电站１０ＫＶ小陈乡５１４线路全线停电【变更送电】因工作进度加快原因，送电时间由０５：００变更为０３：１０【发布渠道】通过９５５９８发布","powerOffId":"2019073013000363"},{"poweroffId":2019073013000358,"sgpoweroffId":null,"subsName":"","lineName":"10kV511张村营线","pubTranName":"张村营农排10台区【纯农排变】,大埝村农排5台区【纯农排变】,张村营农排1台区【纯农排变】,张村农排2台区【纯农排变】,张村营农排5台区【纯农排变】,大埝村农排2台区【纯农排变】,张村综合5台区,张村综合2台区,张村农排3台区【纯农排变】,大埝村农排1台区【纯农排变】,张村农排11台区【纯农排变】,张村综合4台区,张村营综合2台区,张村农排6台区【纯农排变】,张村营综合9台区,张村农排9台区【纯农排变】,张村营农排8台区【纯农排变】,张村农排5台区【纯农排变】,张村营农排11台区【纯农排变】,张村营农排6台区【纯农排变】,张村营综合8台区,大埝村农排4台区【纯农排变】,张村综合7台区,张村营农排4台区【纯农排变】,张村营综合4台区,张村营综合11台区,张村综合10台区,大埝村综合2台区,张村营综合7台区,张村营综合3台区,大埝村农排6台区【纯农排变】,大埝村综合1台区,张村农排8台区【纯农排变】,张村综合8台区,大埝村综合3台区,张村综合6台区,张村综合11台区,张村农排10台区【纯农排变】,大埝村综合5台区,张村营农排9台区【纯农排变】,张村综合1台区,大埝村农排3台区【纯农排变】,张村营综合5台区,张村营综合6台区,张村综合9台区,大埝村综合4台区,张村营综合10台区,张村农排7台区【纯农排变】,张村营农排7台区【纯农排变】,张村农排4台区【纯农排变】,张村农排1台区【纯农排变】,张村农排13台区【纯农排变】,张村营综合1台区,张村农排12台区【纯农排变】,张村综合3台区,张村营农排3台区【纯农排变】,张村营农排2台区【纯农排变】,","scope":"【影响街道/乡镇】小陈乡【高危重要客户】无【影响客户】张村营、张村、大埝村","startTime":"2019-08-01 00:00:00","stopDate":"2019-08-01 03:30:00","orgNo":"1340616","typeCode":"临时停电","poweroffArea":"【全线路停电】停张村农排2台区【纯农排变】,张村农排1台区【纯农排变】,张村综合6台区,张村综合11台区,大埝村农排2台区【纯农排变】,大埝村农排3台区【纯农排变】,大埝村农排4台区【纯农排变】,大埝村综合2台区,大埝村综合4台区,大埝村综合1台区,大埝村综合5台区,张村营农排1台区【纯农排变】,张村营综合1台区,张村营综合7台区,张村营综合10台区,张村营综合8台区,张村营农排3台区【纯农排变】,张村营农排2台区【纯农排变】,张村营农排6台区【纯农排变】,张村营综合5台区,张村营农排9台区【纯农排变】,大埝村综合3台区,张村营综合3台区,张村营农排7台区【纯农排变】,张村营农排5台区【纯农排变】,大埝村农排6台区【纯农排变】,张村营农排4台区【纯农排变】,张村营农排8台区【纯农排变】,大埝村农排1台区【纯农排变】,大埝村农排5台区【纯农排变】,张村营农排11台区【纯农排变】,张村营综合11台区,张村营综合2台区,张村营综合6台区,张村营综合9台区,张村营综合4台区,张村营农排10台区【纯农排变】,张村农排13台区【纯农排变】,张村综合4台区,张村综合10台区,张村农排12台区【纯农排变】,张村农排11台区【纯农排变】,张村综合3台区,张村综合9台区,张村农排9台区【纯农排变】,张村农排10台区【纯农排变】,张村农排8台区【纯农排变】,张村综合8台区,张村综合2台区,张村综合7台区,张村综合5台区,张村综合1台区,张村农排6台区【纯农排变】,张村农排4台区【纯农排变】,张村农排7台区【纯农排变】,张村农排5台区【纯农排变】,张村农排3台区【纯农排变】","poweroffReason":"【停电原因】由于站内设备消缺导致３５ＫＶ小陈变电站１０ＫＶ张村营５１１线路全线停电【变更送电】因工作进度加快原因，送电时间由０５：００变更为０３：３０【发布渠道】通过９５５９８发布","powerTime":"2019-08-01 02:55:43","powerComm":"已送电","subsNo":"","lineNo":"","tgNo":"","tgName":null,"infoStatus":"1","orgName":"国网蠡县供电公司","typeName":null,"infoStatusName":null,"dateDay":null,"orgNos":null,"nowTime":null,"countyName":null,"streetName":null,"villageName":null,"roadName":null,"communityName":null,"tranName":null,"sdLineName":null,"cityCode":"1340616","cityName":"国网蠡县供电公司","provinceCode":null,"stopTime":"2019-08-01 03:30:00","powerType":"全部","powerOffArea":"【全线路停电】停张村农排2台区【纯农排变】,张村农排1台区【纯农排变】,张村综合6台区,张村综合11台区,大埝村农排2台区【纯农排变】,大埝村农排3台区【纯农排变】,大埝村农排4台区【纯农排变】,大埝村综合2台区,大埝村综合4台区,大埝村综合1台区,大埝村综合5台区,张村营农排1台区【纯农排变】,张村营综合1台区,张村营综合7台区,张村营综合10台区,张村营综合8台区,张村营农排3台区【纯农排变】,张村营农排2台区【纯农排变】,张村营农排6台区【纯农排变】,张村营综合5台区,张村营农排9台区【纯农排变】,大埝村综合3台区,张村营综合3台区,张村营农排7台区【纯农排变】,张村营农排5台区【纯农排变】,大埝村农排6台区【纯农排变】,张村营农排4台区【纯农排变】,张村营农排8台区【纯农排变】,大埝村农排1台区【纯农排变】,大埝村农排5台区【纯农排变】,张村营农排11台区【纯农排变】,张村营综合11台区,张村营综合2台区,张村营综合6台区,张村营综合9台区,张村营综合4台区,张村营农排10台区【纯农排变】,张村农排13台区【纯农排变】,张村综合4台区,张村综合10台区,张村农排12台区【纯农排变】,张村农排11台区【纯农排变】,张村综合3台区,张村综合9台区,张村农排9台区【纯农排变】,张村农排10台区【纯农排变】,张村农排8台区【纯农排变】,张村综合8台区,张村综合2台区,张村综合7台区,张村综合5台区,张村综合1台区,张村农排6台区【纯农排变】,张村农排4台区【纯农排变】,张村农排7台区【纯农排变】,张村农排5台区【纯农排变】,张村农排3台区【纯农排变】","powerOffReason":"【停电原因】由于站内设备消缺导致３５ＫＶ小陈变电站１０ＫＶ张村营５１１线路全线停电【变更送电】因工作进度加快原因，送电时间由０５：００变更为０３：３０【发布渠道】通过９５５９８发布","powerOffId":"2019073013000358"},{"poweroffId":2019073013000350,"sgpoweroffId":null,"subsName":"","lineName":"10kV利民路站563线路","pubTranName":"C002柱上变压器,","scope":"【影响街道/乡镇】五尧乡 【高危重要客户】无 【影响客户】西小庄","startTime":"2019-07-30 13:00:00","stopDate":"2019-07-30 15:00:00","orgNo":"13406","typeCode":"电网故障停限电","poweroffArea":"【单台区停电】停C002柱上变压器","poweroffReason":"【停电原因】由于低压保险片烧导致１０ＫＶ利民路变电站５６３线路Ｃ００２公变台区停电【变更送电】无【发布渠道】通过９５５９８发布","powerTime":"2019-07-30 14:16:21","powerComm":"已送电","subsNo":"","lineNo":"","tgNo":"","tgName":null,"infoStatus":"1","orgName":"保定供电公司","typeName":null,"infoStatusName":null,"dateDay":null,"orgNos":null,"nowTime":null,"countyName":null,"streetName":null,"villageName":null,"roadName":null,"communityName":null,"tranName":null,"sdLineName":null,"cityCode":"13406","cityName":"保定供电公司","provinceCode":null,"stopTime":"2019-07-30 15:00:00","powerType":"全部","powerOffArea":"【单台区停电】停C002柱上变压器","powerOffReason":"【停电原因】由于低压保险片烧导致１０ＫＶ利民路变电站５６３线路Ｃ００２公变台区停电【变更送电】无【发布渠道】通过９５５９８发布","powerOffId":"2019073013000350"},{"poweroffId":2019073013000347,"sgpoweroffId":null,"subsName":"","lineName":"10kV512林堡线","pubTranName":"郑村农排8台区变压器【纯农排变】,俊秋印刷厂,郑村综合9台区变压器,蠡县鑫易纺织品有限公司,郑村农排13台区变压器【纯农排变】,郑村综合4台区变压器,郑村农排1台区变压器【纯农排变】,蠡县裕鑫纺织品加工厂变压器,郑村农排4台区变压器【纯农排变】,燕丰南,郑村综合7台区变压器,蠡县利强纺织有限公司,郑村农排9台区变压器【纯农排变】,燕齐织布厂,方正佳苑A区变压器,变压器,郑村综合1台区变压器,郑村综合5台区变压器,郑村农排7台区变压器【纯农排变】,？县东河泡料厂,郑村砖厂,周泽忠,郑村农排12台区变压器【纯农排变】,蠡县鑫丰浆纱厂变压器,郑村综合6台区变压器,郑村农排2台区变压器【纯农排变】,蠡县和合金碇纺织厂变压器,东方毛条（高计）,郑村学校,站变,郑村农排10台区变压器【纯农排变】,郑村农排6台区变压器【纯农排变】,郑村开达毛纺厂,0650266489-中国移动通信集团河北有限公司蠡县分公司-专变-174520153-中国移动通信集团河北有限公司蠡县分公司郑村,郑村农排11台区变压器【纯农排变】,郑村综合2台区变压器,郑村农排5台区变压器【纯农排变】,郑村农排3台区变压器【纯农排变】,燕丰北,郑村综合3台区变压器,郑村综合10台区变压器,郑村综合8台区变压器,","scope":"【影响街道/乡镇】辛兴镇【高危重要客户】无【影响客户】郑村","startTime":"2019-08-01 00:00:00","stopDate":"2019-08-01 03:30:00","orgNo":"1340616","typeCode":"临时停电","poweroffArea":"【全线路停电】停郑村砖厂,燕丰南,蠡县利强纺织有限公司,郑村综合10台区变压器,站变,郑村综合9台区变压器,郑村综合4台区变压器,郑村农排2台区变压器【纯农排变】,郑村综合5台区变压器,蠡县鑫易纺织品有限公司,郑村综合3台区变压器,郑村农排9台区变压器【纯农排变】,郑村农排3台区变压器【纯农排变】,郑村农排8台区变压器【纯农排变】,郑村农排11台区变压器【纯农排变】,周泽忠,郑村开达毛纺厂,郑村综合2台区变压器,郑村农排1台区变压器【纯农排变】,郑村农排10台区变压器【纯农排变】,郑村综合8台区变压器,变压器,郑村综合7台区变压器,郑村农排7台区变压器【纯农排变】,？县东河泡料厂,燕齐织布厂,郑村农排4台区变压器【纯农排变】,0650266489-中国移动通信集团河北有限公司蠡县分公司-专变-174520153-中国移动通信集团河北有限公司蠡县分公司郑村,方正佳苑A区变压器,蠡县和合金碇纺织厂变压器,燕丰北,郑村学校,俊秋印刷厂,蠡县鑫丰浆纱厂变压器,郑村农排12台区变压器【纯农排变】,郑村综合1台区变压器,郑村综合6台区变压器,郑村农排13台区变压器【纯农排变】,蠡县裕鑫纺织品加工厂变压器,郑村农排5台区变压器【纯农排变】,东方毛条（高计）,郑村农排6台区变压器【纯农排变】","poweroffReason":"【停电原因】由于站内设备消缺导致３５ＫＶ小陈变电站１０ＫＶ林堡５１２线路全线停电【变更送电】因工作进度加快原因，送电时间由０５：００变更为０３：３０【发布渠道】通过９５５９８发布","powerTime":"2019-08-01 03:01:09","powerComm":"已送电","subsNo":"","lineNo":"","tgNo":"","tgName":null,"infoStatus":"1","orgName":"国网蠡县供电公司","typeName":null,"infoStatusName":null,"dateDay":null,"orgNos":null,"nowTime":null,"countyName":null,"streetName":null,"villageName":null,"roadName":null,"communityName":null,"tranName":null,"sdLineName":null,"cityCode":"1340616","cityName":"国网蠡县供电公司","provinceCode":null,"stopTime":"2019-08-01 03:30:00","powerType":"全部","powerOffArea":"【全线路停电】停郑村砖厂,燕丰南,蠡县利强纺织有限公司,郑村综合10台区变压器,站变,郑村综合9台区变压器,郑村综合4台区变压器,郑村农排2台区变压器【纯农排变】,郑村综合5台区变压器,蠡县鑫易纺织品有限公司,郑村综合3台区变压器,郑村农排9台区变压器【纯农排变】,郑村农排3台区变压器【纯农排变】,郑村农排8台区变压器【纯农排变】,郑村农排11台区变压器【纯农排变】,周泽忠,郑村开达毛纺厂,郑村综合2台区变压器,郑村农排1台区变压器【纯农排变】,郑村农排10台区变压器【纯农排变】,郑村综合8台区变压器,变压器,郑村综合7台区变压器,郑村农排7台区变压器【纯农排变】,？县东河泡料厂,燕齐织布厂,郑村农排4台区变压器【纯农排变】,0650266489-中国移动通信集团河北有限公司蠡县分公司-专变-174520153-中国移动通信集团河北有限公司蠡县分公司郑村,方正佳苑A区变压器,蠡县和合金碇纺织厂变压器,燕丰北,郑村学校,俊秋印刷厂,蠡县鑫丰浆纱厂变压器,郑村农排12台区变压器【纯农排变】,郑村综合1台区变压器,郑村综合6台区变压器,郑村农排13台区变压器【纯农排变】,蠡县裕鑫纺织品加工厂变压器,郑村农排5台区变压器【纯农排变】,东方毛条（高计）,郑村农排6台区变压器【纯农排变】","powerOffReason":"【停电原因】由于站内设备消缺导致３５ＫＶ小陈变电站１０ＫＶ林堡５１２线路全线停电【变更送电】因工作进度加快原因，送电时间由０５：００变更为０３：３０【发布渠道】通过９５５９８发布","powerOffId":"2019073013000347"},{"poweroffId":2019073013000339,"sgpoweroffId":null,"subsName":"","lineName":"韩家庄577","pubTranName":"石炕村4#,","scope":"【影响街道/乡镇】桥头乡【高危重要客户】无【影响客户】石炕村","startTime":"2019-07-30 15:00:00","stopDate":"2019-07-30 20:00:00","orgNo":"1340625","typeCode":"其他临时停电","poweroffArea":"【单台区停电】停石炕村4#","poweroffReason":"【停电原因】由于紧急消缺导致１１０ＫＶ店北变电站韩家庄５７７线路石炕村４＃公变台区停电【变更送电】无【发布渠道】通过９５５９８发布","powerTime":"2019-07-30 19:09:00","powerComm":"已送电","subsNo":"","lineNo":"","tgNo":"","tgName":null,"infoStatus":"1","orgName":"国网易县供电公司","typeName":null,"infoStatusName":null,"dateDay":null,"orgNos":null,"nowTime":null,"countyName":null,"streetName":null,"villageName":null,"roadName":null,"communityName":null,"tranName":null,"sdLineName":null,"cityCode":"1340625","cityName":"国网易县供电公司","provinceCode":null,"stopTime":"2019-07-30 20:00:00","powerType":"全部","powerOffArea":"【单台区停电】停石炕村4#","powerOffReason":"【停电原因】由于紧急消缺导致１１０ＫＶ店北变电站韩家庄５７７线路石炕村４＃公变台区停电【变更送电】无【发布渠道】通过９５５９８发布","powerOffId":"2019073013000339"},{"poweroffId":2019073013000326,"sgpoweroffId":null,"subsName":"","lineName":"10kV514导务线","pubTranName":"柴各庄2170#农排|24002170,柴各庄十亩湾2120#农排|24002120,小掌,北康关东北综合8456,北康关东庄0860|24000860,南康关2460|24002460,小掌农业8333,东白司城综合7836,保定太行肠衣有限公司,燕子水农业7927,柴各庄南2160|24002160,南康关东庄0830|24000830,台鱼乡政府,导务西0910|24000910,燕子水2080#农排|24002080,北康关2580|24002580,北康关村西0990|24000990,康关北庄0810#农排|24000810,导务0780#农排|24000780,北康关0970#农排|24000970,贾合适1770#农排|24001770,导务村南2610|24002610,柴各庄北2150|24002150,0684640732-佛光寺-专变-225174026-佛光寺200,南康关0820|24000820,南康关东综合8368,东安阳综合8335,南康关村西1000|24001000,导务0790#农排|24000790,燕子水0800|24000800,柴各庄西燕坡2110#农排|24002110,小掌东综合,南康关东1840#农排|24001840,麦旺0740#农排|24000740,麦旺730|24000730,燕子水2560#农排|24002560,康北庄西综合8373,康北庄0950|24000950,东安阳西北2240#农排|24002240,康北庄东综合7869,导务2740,柴各庄石牛2130#农排|24002130,柴各庄东沟2100#农排|24002100,柴各庄综合6015,麦旺0760#农排|24000760,0469472093-中国铁塔股份有限公司保定市分公司-专变-46816867-中国移动,南康关0840#农排|24000840,东安阳0720#农排|24000720,北康关0880#农排|24000880,柴各庄村内农业2844,麦旺750|24000750,导务东0770|24000770,柴各庄村北农业2622,柴各庄综合8340,北康关村0870|24000870,北康关0920#农排|24000920,南康关南1890#农排|24001890,小掌西0940#农排|24000940,南康关东1900#农排|24001900,南康关南综合7861,东安阳0960#农排|24000960,康关北综合2127,","scope":"【影响街道/乡镇】台鱼乡【高危重要客户】无【影响客户】麦旺、导务、燕子水、南康关、南康关、北康关东庄、北康关、小掌村、康关北庄、柴各庄、东白司城、东安阳、东柏山、西柏山、秀兰庄园、台鱼乡政府","startTime":"2019-07-30 12:58:56","stopDate":"2019-07-30 14:30:00","orgNo":"1340621","typeCode":"电网故障停限电","poweroffArea":"【全线路停电】停东安阳0960#农排|24000960,柴各庄石牛2130#农排|24002130,柴各庄综合8340,麦旺0760#农排|24000760,柴各庄西燕坡2110#农排|24002110,小掌东综合,康关北综合2127,小掌,导务西0910|24000910,0469472093-中国铁塔股份有限公司保定市分公司-专变-46816867-中国移动,南康关村西1000|24001000,东白司城综合7836,北康关0970#农排|24000970,南康关东1840#农排|24001840,燕子水2560#农排|24002560,燕子水0800|24000800,康北庄0950|24000950,康关北庄0810#农排|24000810,康北庄西综合8373,小掌农业8333,燕子水2080#农排|24002080,南康关0840#农排|24000840,台鱼乡政府,柴各庄村内农业2844,北康关0880#农排|24000880,导务0780#农排|24000780,南康关南综合7861,北康关东庄0860|24000860,南康关南1890#农排|24001890,东安阳综合8335,导务村南2610|24002610,柴各庄北2150|24002150,北康关东北综合8456,东安阳西北2240#农排|24002240,0684640732-佛光寺-专变-225174026-佛光寺200,贾合适1770#农排|24001770,北康关村西0990|24000990,南康关0820|24000820,导务东0770|24000770,东安阳0720#农排|24000720,柴各庄十亩湾2120#农排|24002120,柴各庄2170#农排|24002170,麦旺730|24000730,麦旺750|24000750,南康关东综合8368,柴各庄村北农业2622,康北庄东综合7869,","poweroffReason":"【停电原因】由于飞鸟触线造成Ｃ相接地导致３５ＫＶ安阳变电站１０ＫＶ５１４导务线路全线停电【变更送电】因抢修进度加快原因，送电时间由２０：００变更为１４：３０【发布渠道】通过９５５９８发布","powerTime":"2019-07-30 14:04:37","powerComm":"已送电","subsNo":"","lineNo":"","tgNo":"","tgName":null,"infoStatus":"1","orgName":"国网顺平县电力局","typeName":null,"infoStatusName":null,"dateDay":null,"orgNos":null,"nowTime":null,"countyName":null,"streetName":null,"villageName":null,"roadName":null,"communityName":null,"tranName":null,"sdLineName":null,"cityCode":"1340621","cityName":"国网顺平县电力局","provinceCode":null,"stopTime":"2019-07-30 14:30:00","powerType":"全部","powerOffArea":"【全线路停电】停东安阳0960#农排|24000960,柴各庄石牛2130#农排|24002130,柴各庄综合8340,麦旺0760#农排|24000760,柴各庄西燕坡2110#农排|24002110,小掌东综合,康关北综合2127,小掌,导务西0910|24000910,0469472093-中国铁塔股份有限公司保定市分公司-专变-46816867-中国移动,南康关村西1000|24001000,东白司城综合7836,北康关0970#农排|24000970,南康关东1840#农排|24001840,燕子水2560#农排|24002560,燕子水0800|24000800,康北庄0950|24000950,康关北庄0810#农排|24000810,康北庄西综合8373,小掌农业8333,燕子水2080#农排|24002080,南康关0840#农排|24000840,台鱼乡政府,柴各庄村内农业2844,北康关0880#农排|24000880,导务0780#农排|24000780,南康关南综合7861,北康关东庄0860|24000860,南康关南1890#农排|24001890,东安阳综合8335,导务村南2610|24002610,柴各庄北2150|24002150,北康关东北综合8456,东安阳西北2240#农排|24002240,0684640732-佛光寺-专变-225174026-佛光寺200,贾合适1770#农排|24001770,北康关村西0990|24000990,南康关0820|24000820,导务东0770|24000770,东安阳0720#农排|24000720,柴各庄十亩湾2120#农排|24002120,柴各庄2170#农排|24002170,麦旺730|24000730,麦旺750|24000750,南康关东综合8368,柴各庄村北农业2622,康北庄东综合7869,","powerOffReason":"【停电原因】由于飞鸟触线造成Ｃ相接地导致３５ＫＶ安阳变电站１０ＫＶ５１４导务线路全线停电【变更送电】因抢修进度加快原因，送电时间由２０：００变更为１４：３０【发布渠道】通过９５５９８发布","powerOffId":"2019073013000326"},{"poweroffId":2019073013000319,"sgpoweroffId":null,"subsName":"","lineName":"10kV511贾各庄线","pubTranName":"贾西庄小侯家0290|24000290,罗各庄南2020#农排|24002020【纯农排变】,司仓0240#农排|24000240【纯农排变】,新建绸子岭2060#农排|24002060【纯农排变】,新建偏郎峪0170|24000170,新建村西北井,新建绸子岭0160|24000160,贾西庄孟家0310#农排|24000310【纯农排变】,贾西庄郝家0220|24000220,中国移动,新建木兰沟混用0180|24000180,罗各庄0020#农排|24000020【纯农排变】,贾各庄村西0070|24000070,贾各庄0320#农排|24000320【纯农排变】,贾各庄格朗峪2050#农排|24002050【纯农排变】,新建涝底0150|24000150,贾西庄大候家农业8455【纯农排变】,贾各庄0090#农排|24000090【纯农排变】,司仓文凯100【纯农排变】,新建2440#农排|24002440【纯农排变】,刘各庄南坡1870#农排|24001870【纯农排变】,贾西庄刘金海农业6017【纯农排变】,贾西庄新增综合配变0125,南峪混用140|24000140,西安阳1320#农排|24001320【纯农排变】,贾各庄2480#农排|24002480【纯农排变】,贾西庄侯家0270|24000270,贾各庄格郎峪0190|24000190,南峪0250#农排|24000250【纯农排变】,新建涝底1860#农排|24001860【纯农排变】,刘各庄0050|24000050,罗各庄大队井【纯农排变】,贾各庄0080#农排|24000080【纯农排变】,南峪0110#农排|24000110【纯农排变】,贾各庄0330|24000330,南峪0100#农排|24000100【纯农排变】,贾西庄郝家农业8457【纯农排变】,贾各庄新增农业8451【纯农排变】,刘各庄0040#农排|24000040【纯农排变】,南峪0130#农排|24000130【纯农排变】,罗各庄村0030|24000030,贾各庄新增综合8447,刘各庄新增综合8449,贾西庄孟家0210|24000210,南峪0120|24000120,刘各庄0300#农排|24000300【纯农排变】,贾西庄南沟0200#农排|24000200【纯农排变】,南峪2640|24002640,新建村新增3号农业【纯农排变】,贾西庄南沟0260|24000260,","scope":"【影响街道/乡镇】安阳乡【高危重要客户】无【影响客户】罗各庄、刘各庄、贾各庄、贾西庄、南峪、新建、涝底、绸子岭、偏郎峪、木兰沟","startTime":"2019-07-30 12:20:43","stopDate":"2019-07-30 16:30:00","orgNo":"1340621","typeCode":"电网故障停限电","poweroffArea":"【全线路停电】停新建木兰沟混用0180|24000180,贾西庄小侯家0290|24000290,南峪2640|24002640,新建村西北井,南峪0250#农排|24000250【纯农排变】,贾各庄村西0070|24000070,贾西庄郝家农业8457【纯农排变】,罗各庄村0030|24000030,贾西庄郝家0220|24000220,贾西庄侯家0270|24000270,贾各庄新增综合8447,刘各庄0040#农排|24000040【纯农排变】","poweroffReason":"【停电原因】由于贾各庄７９号分支树枝搭线导致３５ＫＶ安阳变电站１０ＫＶ５１１贾各庄线路全线停电【变更送电】因抢修进度加快原因，送电时间由２０：００变更为１６：３０【发布渠道】通过９５５９８发布","powerTime":"2019-07-30 15:47:41","powerComm":"已送电","subsNo":"","lineNo":"","tgNo":"","tgName":null,"infoStatus":"1","orgName":"国网顺平县电力局","typeName":null,"infoStatusName":null,"dateDay":null,"orgNos":null,"nowTime":null,"countyName":null,"streetName":null,"villageName":null,"roadName":null,"communityName":null,"tranName":null,"sdLineName":null,"cityCode":"1340621","cityName":"国网顺平县电力局","provinceCode":null,"stopTime":"2019-07-30 16:30:00","powerType":"全部","powerOffArea":"【全线路停电】停新建木兰沟混用0180|24000180,贾西庄小侯家0290|24000290,南峪2640|24002640,新建村西北井,南峪0250#农排|24000250【纯农排变】,贾各庄村西0070|24000070,贾西庄郝家农业8457【纯农排变】,罗各庄村0030|24000030,贾西庄郝家0220|24000220,贾西庄侯家0270|24000270,贾各庄新增综合8447,刘各庄0040#农排|24000040【纯农排变】","powerOffReason":"【停电原因】由于贾各庄７９号分支树枝搭线导致３５ＫＶ安阳变电站１０ＫＶ５１１贾各庄线路全线停电【变更送电】因抢修进度加快原因，送电时间由２０：００变更为１６：３０【发布渠道】通过９５５９８发布","powerOffId":"2019073013000319"},{"poweroffId":2019073013000308,"sgpoweroffId":null,"subsName":"","lineName":"北山南线518","pubTranName":"五里河6号变压器,","scope":"【影响街道/乡镇】桥头乡【高危重要客户】无【影响客户】五里河村","startTime":"2019-07-30 12:32:06","stopDate":"2019-07-30 15:30:00","orgNo":"1340625","typeCode":"电网故障停限电","poweroffArea":"【单台区停电】停五里河6＃","poweroffReason":"【停电原因】由于电缆烧毁导致１１０ＫＶ易县变电站北山南５１８线路五里河村６＃公变台区停电【变更送电】因抢修进度加快原因，送电时间由１７:００变更为１５:３０【发布渠道】通过９５５９８发布","powerTime":"2019-07-30 15:05:04","powerComm":"已送电","subsNo":"","lineNo":"","tgNo":"","tgName":null,"infoStatus":"1","orgName":"国网易县供电公司","typeName":null,"infoStatusName":null,"dateDay":null,"orgNos":null,"nowTime":null,"countyName":null,"streetName":null,"villageName":null,"roadName":null,"communityName":null,"tranName":null,"sdLineName":null,"cityCode":"1340625","cityName":"国网易县供电公司","provinceCode":null,"stopTime":"2019-07-30 15:30:00","powerType":"全部","powerOffArea":"【单台区停电】停五里河6＃","powerOffReason":"【停电原因】由于电缆烧毁导致１１０ＫＶ易县变电站北山南５１８线路五里河村６＃公变台区停电【变更送电】因抢修进度加快原因，送电时间由１７:００变更为１５:３０【发布渠道】通过９５５９８发布","powerOffId":"2019073013000308"},{"poweroffId":2019073013000297,"sgpoweroffId":null,"subsName":"","lineName":"10kV516北大留线","pubTranName":"蠡县北大留立业养殖场,北大留综合3台区,浇地1台区,北大留学校,蠡县运达货物运输有限公司变压器,浇地9台区,浇地16台区,仁立毛纺厂,浇地8台区,北大留农排2台区【纯农排变】,北大留综合4台区,北大留综合2台区,浇地14台区,北大留综合6台区,北大留综合7台区,浇地5台区,北大留综合13台区变压器,0654305966-保定泓瑞农业发展有限公司-专变-183721617-保定泓瑞农业发展有限公司,北大留综合16台区,北大留综合15台区,北大留综合9台区,鑫泰棉业购销公司,北大留综合5台区,北大留综合10台区,浇地7台区,0688878814-蠡县恒丰中药材农民专业合作社-专变-230398598-蠡县恒丰中药材农民专业合作社,北大留织布厂,北大留综合14台区,北大留农排1台区【纯农排变】,浇地6台区,鑫泰棉业有限公司,蠡县永固水泥制品制造有限公司变压器,蠡县中立纺织制造有限公司变压器,浇地10台区,蠡县育丰园饲养有限公司变压器,浇地2台区,河北仁立毛纺厂,北大留农排3台区【纯农排变】,北大留综合12台区,北大留综合1台区,北大留综合8台区,北大留综合11台区变压器,浇地15台区,","scope":"【影响街道/乡镇】小陈乡【高危重要客户】无【影响客户】北大留村","startTime":"2019-08-01 00:00:00","stopDate":"2019-08-01 03:30:00","orgNo":"1340616","typeCode":"临时停电","poweroffArea":"【全线路停电】停鑫泰棉业购销公司,北大留综合15台区,北大留综合9台区,浇地9台区,北大留综合3台区,浇地15台区,0688878814-蠡县恒丰中药材农民专业合作社-专变-230398598-蠡县恒丰中药材农民专业合作社,0654305966-保定泓瑞农业发展有限公司-专变-183721617-保定泓瑞农业发展有限公司,北大留农排1台区【纯农排变】,北大留综合8台区,北大留农排2台区【纯农排变】,北大留综合2台区,北大留综合11台区变压器,浇地1台区,蠡县永固水泥制品制造有限公司变压器,蠡县中立纺织制造有限公司变压器,仁立毛纺厂,浇地6台区,蠡县育丰园饲养有限公司变压器,鑫泰棉业有限公司,蠡县运达货物运输有限公司变压器,北大留农排3台区【纯农排变】,北大留综合5台区,北大留综合1台区,河北仁立毛纺厂,蠡县北大留立业养殖场,浇地5台区,浇地8台区,浇地2台区,浇地14台区,北大留综合13台区变压器,浇地7台区,北大留综合10台区,北大留综合14台区,北大留织布厂,浇地16台区,北大留综合7台区,北大留学校,北大留综合12台区,北大留综合6台区,浇地10台区,北大留综合4台区,北大留综合16台区","poweroffReason":"【停电原因】由于站内设备消缺导致３５ＫＶ小陈变电站１０ＫＶ北大留５１６线路全线停电【变更送电】因工作进度加快原因，送电时间由０５：００变更为０３：３０【发布渠道】通过９５５９８发布","powerTime":"2019-08-01 02:58:49","powerComm":"已送电","subsNo":"","lineNo":"","tgNo":"","tgName":null,"infoStatus":"1","orgName":"国网蠡县供电公司","typeName":null,"infoStatusName":null,"dateDay":null,"orgNos":null,"nowTime":null,"countyName":null,"streetName":null,"villageName":null,"roadName":null,"communityName":null,"tranName":null,"sdLineName":null,"cityCode":"1340616","cityName":"国网蠡县供电公司","provinceCode":null,"stopTime":"2019-08-01 03:30:00","powerType":"全部","powerOffArea":"【全线路停电】停鑫泰棉业购销公司,北大留综合15台区,北大留综合9台区,浇地9台区,北大留综合3台区,浇地15台区,0688878814-蠡县恒丰中药材农民专业合作社-专变-230398598-蠡县恒丰中药材农民专业合作社,0654305966-保定泓瑞农业发展有限公司-专变-183721617-保定泓瑞农业发展有限公司,北大留农排1台区【纯农排变】,北大留综合8台区,北大留农排2台区【纯农排变】,北大留综合2台区,北大留综合11台区变压器,浇地1台区,蠡县永固水泥制品制造有限公司变压器,蠡县中立纺织制造有限公司变压器,仁立毛纺厂,浇地6台区,蠡县育丰园饲养有限公司变压器,鑫泰棉业有限公司,蠡县运达货物运输有限公司变压器,北大留农排3台区【纯农排变】,北大留综合5台区,北大留综合1台区,河北仁立毛纺厂,蠡县北大留立业养殖场,浇地5台区,浇地8台区,浇地2台区,浇地14台区,北大留综合13台区变压器,浇地7台区,北大留综合10台区,北大留综合14台区,北大留织布厂,浇地16台区,北大留综合7台区,北大留学校,北大留综合12台区,北大留综合6台区,浇地10台区,北大留综合4台区,北大留综合16台区","powerOffReason":"【停电原因】由于站内设备消缺导致３５ＫＶ小陈变电站１０ＫＶ北大留５１６线路全线停电【变更送电】因工作进度加快原因，送电时间由０５：００变更为０３：３０【发布渠道】通过９５５９８发布","powerOffId":"2019073013000297"}],"pageModel":{"pageNow":737,"totalCount":10973,"totalPage":1098,"tableRows":0,"pageCount":10,"beginCount":7360},"isExperi":"1"}