{"message":"","today":"2020-06-15","seleList":[{"poweroffId":2019072913000899,"sgpoweroffId":null,"subsName":"","lineName":"10kV516后兴线","pubTranName":"北巷北村内新增综合5002,西后兴2140农排|23002140【纯农排变】,田家台2810农排|23002810【纯农排变】,田家台-23003640|23003640,西后兴2110农排|23002110【纯农排变】,东后兴2370农排|23002370【纯农排变】,田家台2390农排|23002390【纯农排变】,西后兴2750农排|23002750【纯农排变】,张立军综合2470,西后兴2160农排|23002160【纯农排变】,东后兴2340农排|23002340【纯农排变】,","scope":"【影响街道/乡镇】腰山镇【高危重要客户】无【影响客户】西后兴、东后兴、南巷北、北巷北、田家台","startTime":"2019-07-29 13:25:10","stopDate":"2019-07-29 19:00:00","orgNo":"1340621","typeCode":"电网故障停限电","poweroffArea":"【全线路停电】停田家台-23003640|23003640,西后兴2750农排|23002750【纯农排变】,张立军综合2470,田家台2810农排|23002810【纯农排变】,西后兴2110农排|23002110【纯农排变】,北巷北村内新增综合5002,西后兴2160农排|23002160【纯农排变】,东后兴2370农排|23002370【纯农排变】","poweroffReason":"【停电原因】由于甘腰３１６主干２４号杆避雷器烧毁导致３５ＫＶ腰山变电站１０ＫＶ５１６后兴线路全线停电【变更送电】因抢修进度加快原因，送电时间由２０：００变更为１９：００【发布渠道】通过９５５９８发布","powerTime":"2019-07-29 18:12:39","powerComm":"已送电","subsNo":"","lineNo":"","tgNo":"","tgName":null,"infoStatus":"1","orgName":"国网顺平县电力局","typeName":null,"infoStatusName":null,"dateDay":null,"orgNos":null,"nowTime":null,"countyName":null,"streetName":null,"villageName":null,"roadName":null,"communityName":null,"tranName":null,"sdLineName":null,"cityCode":"1340621","cityName":"国网顺平县电力局","provinceCode":null,"stopTime":"2019-07-29 19:00:00","powerType":"全部","powerOffArea":"【全线路停电】停田家台-23003640|23003640,西后兴2750农排|23002750【纯农排变】,张立军综合2470,田家台2810农排|23002810【纯农排变】,西后兴2110农排|23002110【纯农排变】,北巷北村内新增综合5002,西后兴2160农排|23002160【纯农排变】,东后兴2370农排|23002370【纯农排变】","powerOffReason":"【停电原因】由于甘腰３１６主干２４号杆避雷器烧毁导致３５ＫＶ腰山变电站１０ＫＶ５１６后兴线路全线停电【变更送电】因抢修进度加快原因，送电时间由２０：００变更为１９：００【发布渠道】通过９５５９８发布","powerOffId":"2019072913000899"},{"poweroffId":2019072913000898,"sgpoweroffId":null,"subsName":"","lineName":"10kV527李家庄线","pubTranName":"0012263582西相如新增变压器,","scope":"【影响街道/乡镇】产德乡【高危重要客户】无【影响客户】西相如","startTime":"2019-07-29 13:50:00","stopDate":"2019-07-29 15:40:00","orgNo":"1340619","typeCode":"电网故障停限电","poweroffArea":"【单台区停电】停0012263582西相如新增变压器","poweroffReason":"【停电原因】由于孟术安家中漏电导致１１０ＫＶ产德变电站１０ＫＶ５２７李家庄线路西乡如新增公变台区停电【变更送电】因抢修进度加快原因，送电时间由２０:００变更为１５:４０【发布渠道】通过９５５９８发布","powerTime":"2019-07-29 15:24:28","powerComm":"已送电","subsNo":"","lineNo":"","tgNo":"","tgName":null,"infoStatus":"1","orgName":"国网曲阳县供电公司","typeName":null,"infoStatusName":null,"dateDay":null,"orgNos":null,"nowTime":null,"countyName":null,"streetName":null,"villageName":null,"roadName":null,"communityName":null,"tranName":null,"sdLineName":null,"cityCode":"1340619","cityName":"国网曲阳县供电公司","provinceCode":null,"stopTime":"2019-07-29 15:40:00","powerType":"全部","powerOffArea":"【单台区停电】停0012263582西相如新增变压器","powerOffReason":"【停电原因】由于孟术安家中漏电导致１１０ＫＶ产德变电站１０ＫＶ５２７李家庄线路西乡如新增公变台区停电【变更送电】因抢修进度加快原因，送电时间由２０:００变更为１５:４０【发布渠道】通过９５５９８发布","powerOffId":"2019072913000898"},{"poweroffId":2019072913000889,"sgpoweroffId":null,"subsName":"","lineName":"10kV515造纸厂线","pubTranName":"0684144322-顺平县亚江车床加工厂-专变-223573031-顺平县亚江车床加工厂315,南伍侯内-23001950|23001950,南伍侯1840农排|23001840【纯农排变】,南伍侯1230农排|23001230【纯农排变】,0469469657-何忠-专变-46816658-何忠,保定和璧通讯器材有限公司,保定市八木化纤有限公司,保定市恒远机械制件有限公司,保定杰达电力设备有限公司,唐行店1870农排|23001870【纯农排变】,唐行店1410农排|23001410【纯农排变】,东禾塑业增容500,邵家庄1500农排|23001500【纯农排变】,唐行店1360农排|23001360【纯农排变】,80KVA配变,变压器,南伍候村北新增综合3453,南伍侯东-23001170|23001170,保定开源热镀锌有限公司,0656374454-顺平县天润制香有限公司-专变-187314168-顺平县天润制香有限公司315,两分庄1550农排|23001550【纯农排变】,南伍侯1180农排|23001180【纯农排变】,邵家庄北综合3855,两分庄2020农排|23002020【纯农排变】,南伍侯1200农排|23001200【纯农排变】,邵家庄-23001940|23001940,顺平县兴宏水泥制品有限责任公司,两分庄1560农排|23001560【纯农排变】,保定恒远机械制件有限公司,银全合用,南伍侯1210农业|23001210【纯农排变】,保定长江聚氨酯有限公司,南伍侯-23003930|23003930,南伍侯1240农排|23001240【纯农排变】,保定东禾塑业有限公司,唐行店1390农排|23001390【纯农排变】,两分庄-23001540|23001540,南伍侯1220农业|23001220【纯农排变】,海家庄村南农排2【纯农排变】,保定吉华环保设备有限公司,邵家庄1510农排|23001510【纯农排变】,邵家庄1490农排|23001490【纯农排变】,0469470039-中国铁塔股份有限公司保定市分公司-专变-46816716-中国移动,顺平县盛润桥煤炭经销有限公司315,唐行店1380农排|23001380【纯农排变】,海家庄村东新增综合7980,两分庄新增综合2417,唐行店1340农排|23001340【纯农排变】,顺平县联昌塑业有限公司500KVA,唐行店1370农排|23001370【纯农排变】,南伍候村东新增综合2946,唐行店1400农排|23001400【纯农排变】,邵家庄新增农业7608【纯农排变】,长河塑料200,保定东禾新型材料科技有限公司,保定长河塑料机械制造有限公司500,保定市东禾新型材料科技有限公司,","scope":"【影响街道/乡镇】腰山镇【高危重要客户】无【影响客户】海家庄、两分庄、南伍侯、奥宇公司、邵家庄、保定东禾塑业有限公司、保定八木化纤有限公司、保定恒远机械制件有限公司、保定杰达电力设备有限公司、保定开源热镀锌有限公司","startTime":"2019-07-29 13:20:00","stopDate":"2019-07-29 19:00:00","orgNo":"1340621","typeCode":"电网故障停限电","poweroffArea":"【全线路停电】停0684144322-顺平县亚江车床加工厂-专变-223573031-顺平县亚江车床加工厂315,南伍侯内-23001950|23001950,南伍侯1840农排|23001840【纯农排变】,南伍侯1230农排|23001230【纯农排变】,0469469657-何忠-专变-46816658-何忠,保定和璧通讯器材有限公司,保定市八木化纤有限公司,保定市恒远机械制件有限公司","poweroffReason":"【停电原因】由于甘腰３１６主干２４号杆避雷器烧毁导致３５ＫＶ腰山变电站１０ＫＶ５１５造纸厂线路全线停电【变更送电】因抢修进度加快原因，送电时间由２０：００变更为１９：００【发布渠道】通过９５５９８发布","powerTime":"2019-07-29 18:13:20","powerComm":"已送电","subsNo":"","lineNo":"","tgNo":"","tgName":null,"infoStatus":"1","orgName":"国网顺平县电力局","typeName":null,"infoStatusName":null,"dateDay":null,"orgNos":null,"nowTime":null,"countyName":null,"streetName":null,"villageName":null,"roadName":null,"communityName":null,"tranName":null,"sdLineName":null,"cityCode":"1340621","cityName":"国网顺平县电力局","provinceCode":null,"stopTime":"2019-07-29 19:00:00","powerType":"全部","powerOffArea":"【全线路停电】停0684144322-顺平县亚江车床加工厂-专变-223573031-顺平县亚江车床加工厂315,南伍侯内-23001950|23001950,南伍侯1840农排|23001840【纯农排变】,南伍侯1230农排|23001230【纯农排变】,0469469657-何忠-专变-46816658-何忠,保定和璧通讯器材有限公司,保定市八木化纤有限公司,保定市恒远机械制件有限公司","powerOffReason":"【停电原因】由于甘腰３１６主干２４号杆避雷器烧毁导致３５ＫＶ腰山变电站１０ＫＶ５１５造纸厂线路全线停电【变更送电】因抢修进度加快原因，送电时间由２０：００变更为１９：００【发布渠道】通过９５５９８发布","powerOffId":"2019072913000889"},{"poweroffId":2019072913000888,"sgpoweroffId":null,"subsName":"","lineName":"10kV513伍侯线","pubTranName":"成尔修配厂,北巷北1860农排|23001860【纯农排变】,北伍侯1430农排|23001430【纯农排变】,李玉仙1810农排|23001810【纯农排变】,玉山店-23003760|23003760,玉山店加油站,正童村东-23001100|23001100,玉山店村东新增农业7974【纯农排变】,唐行店村新增综合2号5882,正童1080农排|23001080【纯农排变】,北伍侯1440农排|23001440【纯农排变】,玉山店灰粉厂,魏建虎牛场3440农业|23003440【纯农排变】,正童-23003920|23003920,海家庄-23001970|23001970,田乐子1880农排|23001880【纯农排变】,玉山店1740农排|23001740【纯农排变】,吴九井1960农排|23001960【纯农排变】,北伍侯1450农排|23001450【纯农排变】,北巷北1830农排|23001830【纯农排变】,唐行店3080农排|23003080【纯农排变】,玉山店三面粉厂,玉山店1680农排|23001680【纯农排变】,唐行店面粉厂,正童1150农排|23001150【纯农排变】,玉山店新增综合1号2211,北伍侯-23003460|23003460,北伍侯1480农排|23001480【纯农排变】,第三加油站,北伍候新架5874,唐行店村西新增综合5867,正童1820农排|23001820【纯农排变】,唐行店-23003910|23003910,正童1130农排|23001130【纯农排变】,保定电信试验组,唐行店东-23001990|23001990,新增庄1690农排|23001690【纯农排变】,唐行店村东综合,正童村西新增综合3369,正童村东南新增综合5884,唐行店3210农排|23003210【纯农排变】,正童1090农排|23001090【纯农排变】,唐行店西-23001330|23001330,正童1910农排|23001910【纯农排变】,正童1140农排|23001140【纯农排变】,北巷北1850农排|23001850【纯农排变】,工业园区联通公司,正童村村东南新增综合0943,正童村西-23001060|23001060,海家庄1520农排|23001520【纯农排变】,海家庄1580农排|23001580【纯农排变】,新增庄村东新增综合6380,北伍侯新建农业4367【纯农排变】,唐行店1310农排|23001310【纯农排变】,0469471566-中国移动通信集团河北有限公司顺平分公司-专变-46816685-中国移动,正童1110农排|23001110【纯农排变】,海家庄综合新建4936,正童村西北新增综合2399,龙飞奶牛,玉山店南-23001640|23001640,正童新型节能材料厂,正童3290农业|23003290【纯农排变】,正童1160农排|23001160【纯农排变】,唐行店村南综合,变压器,正童1660农排|23001660【纯农排变】,唐行店村新增综合2394,海家庄村南农排【纯农排变】,正童1120农排|23001120【纯农排变】,玉山店","scope":"【影响街道/乡镇】腰山镇【高危重要客户】无【影响客户】玉山店、正童、南伍侯、新增庄、唐行店、海家庄、北伍侯、保定誉华电力器材有限公司","startTime":"2019-07-29 13:20:28","stopDate":"2019-07-29 19:00:00","orgNo":"1340621","typeCode":"电网故障停限电","poweroffArea":"【全线路停电】停北伍侯1480农排|23001480【纯农排变】,玉山店南-23001640|23001640,玉山店村东新增农业7974【纯农排变】,保定电信试验组,正童村西-23001060|23001060,正童3290农业|23003290【纯农排变】,唐行店3210农排|23003210【纯农排变】,唐行店村西新增综合5867,玉山店加油站,新增庄1290农排|23001290【纯农排变】","poweroffReason":"【停电原因】由于甘腰３１６主干２４号杆避雷器烧毁导致３５ＫＶ腰山变电站１０ＫＶ５１３伍侯线路全线停电【变更送电】因抢修进度加快原因，送电时间由２０：００变更为１９：００【发布渠道】通过９５５９８发布","powerTime":"2019-07-29 18:14:04","powerComm":"已送电","subsNo":"","lineNo":"","tgNo":"","tgName":null,"infoStatus":"1","orgName":"国网顺平县电力局","typeName":null,"infoStatusName":null,"dateDay":null,"orgNos":null,"nowTime":null,"countyName":null,"streetName":null,"villageName":null,"roadName":null,"communityName":null,"tranName":null,"sdLineName":null,"cityCode":"1340621","cityName":"国网顺平县电力局","provinceCode":null,"stopTime":"2019-07-29 19:00:00","powerType":"全部","powerOffArea":"【全线路停电】停北伍侯1480农排|23001480【纯农排变】,玉山店南-23001640|23001640,玉山店村东新增农业7974【纯农排变】,保定电信试验组,正童村西-23001060|23001060,正童3290农业|23003290【纯农排变】,唐行店3210农排|23003210【纯农排变】,唐行店村西新增综合5867,玉山店加油站,新增庄1290农排|23001290【纯农排变】","powerOffReason":"【停电原因】由于甘腰３１６主干２４号杆避雷器烧毁导致３５ＫＶ腰山变电站１０ＫＶ５１３伍侯线路全线停电【变更送电】因抢修进度加快原因，送电时间由２０：００变更为１９：００【发布渠道】通过９５５９８发布","powerOffId":"2019072913000888"},{"poweroffId":2019072913000875,"sgpoweroffId":null,"subsName":"","lineName":"10kV512桑园线","pubTranName":"桑园新增综合4号2386,双福工业,桑园土地整改新增农业1号（TD）4381【纯农排变】,东于庄3600农业|23003600【纯农排变】,何家营综合4号2423,何家营30农业|23000030【纯农排变】,马家台-23003940|23003940,北吴村内-23000930|23000930,桑园570农业|23000570【纯农排变】,桑园-23000170|23000170,桑园200农业|23000200【纯农排变】,石家庄南-23003390|23003390,桑园-23003960|23003960,石家庄-23000780|23000780,南腰山2310农业|23002310【纯农排变】,辛庄村东-23000620|23000620,马家台综合3号2915,北腰山综合5号8994,北吴村综合5号9973,6205厂3630农业|23003630【纯农排变】,西腰山3190农业|23003190【纯农排变】,马家台山后北井|23004030【纯农排变】,北腰山TD8号2613农排【纯农排变】,保定市高速公路路政支队,北腰山TD5号2503农排【纯农排变】,石家庄综合5号2916,何家营3480农业|23003480【纯农排变】,桑园3720农业|23003720【纯农排变】,桑园190农业|23000190【纯农排变】,何家营北山农排【纯农排变】,西腰山TD3号2411农排【纯农排变】,何家营3490农业|23003490【纯农排变】,马家台山后南井|23004040【纯农排变】,何家营540农业|23000540【纯农排变】,桑园180农业|23000180【纯农排变】,辛庄新增综合11号2392,何家营3500农业|23003500【纯农排变】,南吴村北-23000910|23000910,辛庄村新增综合13号,辛庄综合6号0411,北吴村东-23000110|23000110,马家台760农业|23000760【纯农排变】,北腰山新增综合4号2831,桑园综合3号7866,北吴村-23003950|23003950,北吴村3160农业|23003160【纯农排变】,石家庄综合4号2424,北吴村新增综合8号2384,变压器,马家台-23000660|23000660,北吴村3540农业|23003540【纯农排变】,北腰山TD3号2606农排【纯农排变】,西腰山-23000500|23000500,桑园3510农业|23003510【纯农排变】,北吴村550农业|23000550【纯农排变】,北腰山-23003970|23003970,西腰山3150农业|23003150【纯农排变】,北腰山-23000510|23000510,何家营综合0005,何家营880农业|23000880【纯农排变】,北腰山TD7号2616农排【纯农排变】,石家庄3450农业|23003450【纯农排变】,石家庄东-23000010|23000010,西腰山TD4号2429农排【纯农排变】,何家营-23003740|23003740,北腰山新增综合3号2389,北腰山990农业|23000990【纯农排变】,北吴村新增","scope":"【影响街道/乡镇】腰山镇、蒲上乡【高危重要客户】无【影响客户】何家营、石家庄、北吴村、桑园、辛庄、马家台、南吴村北、西腰山、北腰山","startTime":"2019-07-29 13:20:00","stopDate":"2019-07-29 19:00:00","orgNo":"1340621","typeCode":"电网故障停限电","poweroffArea":"【全线路停电】停石家庄南-23003390|23003390,西腰山3150农业|23003150【纯农排变】,马家台山后北井|23004030【纯农排变】,北吴村内-23000930|23000930,北腰山-23003970|23003970,桑园新增综合4号2386,保定市高速公路路政支队,北吴村新增综合7号0326,桑园200农业|23000200【纯农排变】,马家台山后南井|23004040【纯农排变】,双福工业,东于庄3600农业|23003600【纯农排变】,何家营北山农排【纯农排变】,北腰山TD7号2616农排【纯农排变】,桑园-23003960|23003960,桑园570农业|23000570【纯农排变】","poweroffReason":"【停电原因】由于甘腰３１６主干２４号杆避雷器烧毁导致３５ＫＶ腰山变电站１０ＫＶ５１２桑园线路全线停电【变更送电】因抢修进度加快原因，送电时间由２０：００变更为１９：００【发布渠道】通过９５５９８发布","powerTime":"2019-07-29 18:14:38","powerComm":"已送电","subsNo":"","lineNo":"","tgNo":"","tgName":null,"infoStatus":"1","orgName":"国网顺平县电力局","typeName":null,"infoStatusName":null,"dateDay":null,"orgNos":null,"nowTime":null,"countyName":null,"streetName":null,"villageName":null,"roadName":null,"communityName":null,"tranName":null,"sdLineName":null,"cityCode":"1340621","cityName":"国网顺平县电力局","provinceCode":null,"stopTime":"2019-07-29 19:00:00","powerType":"全部","powerOffArea":"【全线路停电】停石家庄南-23003390|23003390,西腰山3150农业|23003150【纯农排变】,马家台山后北井|23004030【纯农排变】,北吴村内-23000930|23000930,北腰山-23003970|23003970,桑园新增综合4号2386,保定市高速公路路政支队,北吴村新增综合7号0326,桑园200农业|23000200【纯农排变】,马家台山后南井|23004040【纯农排变】,双福工业,东于庄3600农业|23003600【纯农排变】,何家营北山农排【纯农排变】,北腰山TD7号2616农排【纯农排变】,桑园-23003960|23003960,桑园570农业|23000570【纯农排变】","powerOffReason":"【停电原因】由于甘腰３１６主干２４号杆避雷器烧毁导致３５ＫＶ腰山变电站１０ＫＶ５１２桑园线路全线停电【变更送电】因抢修进度加快原因，送电时间由２０：００变更为１９：００【发布渠道】通过９５５９８发布","powerOffId":"2019072913000875"},{"poweroffId":2019072913000874,"sgpoweroffId":null,"subsName":"","lineName":"10kV511辛庄线","pubTranName":"王江-23003710|23003710,辛庄新增农业8号6843【纯农排变】,辛庄80农业|23000080【纯农排变】,辛庄学校-23003730|23003730,王益友,河北保沧大型石材有限责任公司三315,东于庄-23000920|23000920,辛庄村西农业6905【纯农排变】,南吴村土地整改新增农业1号（TD）4382【纯农排变】,南安全新增综合5号1903,河北保沧大型石材有限责任公司二100,何家营南厂,山东头综合2号,南腰山西-23002650|23002650,南腰山内-23002660|23002660,马家庄610农业|23000610【纯农排变】,北吴村土地整改新增农业1号（TD）2434【纯农排变】,河北保沧大型石材有限责任公司,南腰山综合7号6001,顺平县河清肠衣有限公司,0675177696-中驰酒店物业管理(北京)有限公司-专变-216156542-中驰酒店物业管理(北京)有限公司1000,辛庄580农业|23000580【纯农排变】,辛庄新增农业4号7338【纯农排变】,西于庄3590农业|23003590【纯农排变】,北安全950农业|23000950【纯农排变】,南腰山综合6号0415,山东头TD3号2427农排【纯农排变】,北安全土地整改新增农业2号（TD）2438【纯农排变】,腰山中国移动通信集团河北有限公司顺平分公司50KVA,河北保沧大型石材有限责任公司一400,东于庄综合3号2429,南安全综合3号2431,山东头新增综合4号2407,辛庄新增综合10号2852,西于庄490农业|23000490【纯农排变】,顺平网通分公司,南安全940农业|23000940【纯农排变】,东于家庄综合4号8516,北安全土地整改新增农业1号（TD）2437【纯农排变】,南腰山综合8号,南安全-23000210|23000210,南安全630农业|23000630【纯农排变】,王氏庄园,七所八站-23003820|23003820,顺平县外婆家川菜馆,辛庄70农业|23000070【纯农排变】,公路处施工队顺平料厂,南安全土地整改新增农业1号（TD）4383【纯农排变】,辛庄新增农业3号6834【纯农排变】,马家庄-23000230|23000230,辛庄60农业|23000060【纯农排变】,南安全-23003980|23003980,北安全综合2号9888,张立,辛庄新增农业2号7332【纯农排变】,0469469439-李喜增-专变-46816662-南吴村肠衣厂,西于庄-23000130,南腰山综合5号2426,南吴村综合3号0831,西于家庄综合3号2425,南吴村综合4号2921,南腰山土地整改新增农业1号（TD）2440【纯农排变】,北吴村西-23000100|23000100,何家营综合3号0413,山东头-23000140|23000140,北吴村综合6号7867,腰山一中,华瑞采石厂,辛庄3790农业|23003790【纯农排变】,辛庄新增综合12号1909,河北保沧大型石材有限责任公司三100,华瑞采石场500,北吴村TD4号2302农排【纯农排变】,南安全2","scope":"【影响街道/乡镇】蒲上乡、腰山镇【高危重要客户】无【影响客户】何家营、辛庄、北吴村、西于家庄、南吴村、南安全、马家庄、东于家庄、北安全、山东头、南腰山、顺平县华瑞采石厂、河北保沧大型石材有限责任公司","startTime":"2019-07-29 13:00:00","stopDate":"2019-07-29 19:00:00","orgNo":"1340621","typeCode":"电网故障停限电","poweroffArea":"【全线路停电】停南吴村综合4号2921,河北保沧大型石材有限责任公司三100,辛庄村东南农业6408【纯农排变】,顺平县河清肠衣有限公司,腰山中国移动,华瑞采石厂,河北保沧大型石材有限责任公司二400,南腰山3100农业|23003100【纯农排变】,西于庄-23000130,西于庄3590农业|23003590【纯农排变】,何家营南厂,马家庄综合2号,辛庄新增综合10号2852,南腰山西-23002650|23002650","poweroffReason":"【停电原因】由于甘腰３１６主干２４号杆避雷器烧毁导致３５ＫＶ腰山变电站１０ＫＶ５１１辛庄线路全线停电【变更送电】因抢修进度加快原因，送电时间由２０：００变更为１９：００【发布渠道】通过９５５９８发布","powerTime":"2019-07-29 18:15:27","powerComm":"已送电","subsNo":"","lineNo":"","tgNo":"","tgName":null,"infoStatus":"1","orgName":"国网顺平县电力局","typeName":null,"infoStatusName":null,"dateDay":null,"orgNos":null,"nowTime":null,"countyName":null,"streetName":null,"villageName":null,"roadName":null,"communityName":null,"tranName":null,"sdLineName":null,"cityCode":"1340621","cityName":"国网顺平县电力局","provinceCode":null,"stopTime":"2019-07-29 19:00:00","powerType":"全部","powerOffArea":"【全线路停电】停南吴村综合4号2921,河北保沧大型石材有限责任公司三100,辛庄村东南农业6408【纯农排变】,顺平县河清肠衣有限公司,腰山中国移动,华瑞采石厂,河北保沧大型石材有限责任公司二400,南腰山3100农业|23003100【纯农排变】,西于庄-23000130,西于庄3590农业|23003590【纯农排变】,何家营南厂,马家庄综合2号,辛庄新增综合10号2852,南腰山西-23002650|23002650","powerOffReason":"【停电原因】由于甘腰３１６主干２４号杆避雷器烧毁导致３５ＫＶ腰山变电站１０ＫＶ５１１辛庄线路全线停电【变更送电】因抢修进度加快原因，送电时间由２０：００变更为１９：００【发布渠道】通过９５５９８发布","powerOffId":"2019072913000874"},{"poweroffId":2019072913000810,"sgpoweroffId":null,"subsName":"","lineName":"庆都山线512","pubTranName":"冯振彪水泥砖厂2445,南放水3165变压器,梦会面粉厂1849,东高昌水859变压器【纯农排变】,高昌初级中学7566变压器,高昌庄水857变压器,马兴庄教学点7580变压器,马兴庄4645变压器,东高昌水利10KV配变工程1新建工程,庄头村486变压器,北高昌混841变压器,龙山开发园1855变压器【纯农排变】,东高昌混825变压器,高昌店水5026变压器,北高昌838变压器,庄头水6125变压器【纯农排变】,高昌店西6695变压器,东高昌水4458变压器,马兴庄848变压器【纯农排变】,庆都山水840变压器【纯农排变】,高昌庄水5025变压器【纯农排变】,南放水混用869变压器,永红砖厂0559,高昌屯3016变压器,庄头水4674变压器【纯农排变】,高昌屯0832变压器,高昌店4035变压器,供电所专用6030变压器,北放水水利4863变压器【纯农排变】,北高昌水5241变压器【纯农排变】,东高昌水利10KV配变,唐县通源粮油购销有限公司新装6623,东高昌小学7593变压器,10kV512庆都山线北高昌6090台区,南高昌3430变压器,庄头水6128变压器【纯农排变】,高昌庄6149台区变压器,高昌店混5084变压器,贾庄水4516变压器【纯农排变】,北高昌混4970变压器,高昌屯833变压器,0673793126-唐县高昌镇北高昌村西水-专变-214342989-唐县高昌镇北高昌村西水高压新装6146,高昌水库0875,马兴庄827变压器,东高昌水4836变压器,东高昌水860变压器,庄头村823变压器,北高昌公墓6170台区变压器,马兴庄水4702变压器【纯农排变】,东高昌混1979变压器,高昌中心卫生院7597变压器,淑吕7683【纯农排变】,北放水855变压器【纯农排变】,南高昌水5024变压器【纯农排变】,庄头水4581变压器【纯农排变】,庆运水883变压器【纯农排变】,东高昌混4405变压器,南高昌836变压器,贾庄水4226变压器【纯农排变】,南高昌水882变压器【纯农排变】,马兴庄4749变压器【纯农排变】,高昌屯4640变压器【纯农排变】,庄头村东水7042变压器【纯农排变】,东高昌3345变压器【纯农排变】,峪山庄东坡6696变压器,高昌庄混用557变压器,南放水868变压器,高昌店混用826变压器,河北景奥旅游开发有限公司新装7155,南放水水854变压器【纯农排变】,老于砖厂0561,东高昌7946变压器,建民水845变压器【纯农排变】,庄头混7048变压器,南高昌5023变压器【纯农排变】,高昌店西水0876变压器,0387519326-保定市西大洋供水有限公司-专变-219675452-保定市西大洋供水有限公司10KV配电增容工程,高昌屯水5028变压器【纯农排变】,贾庄4703变压器【纯农排变】,高昌屯5027变压器【纯农排变】,北高昌中心小学7591变压器,庄头水1673变压器【纯农排变】,东高昌水6143变压器【纯农排变】,庆都山水4840变压器【纯农排变】,东高昌立功水1842变压器,东高昌7418变压器,贾庄4597变压器,北高昌混839变压器,东高昌南水0858变压器","scope":"【影响街道/乡镇】高昌镇【高危重要客户】无【影响客户】高昌店、东高昌、高昌庄、北放水、北高昌、庆都山上、峪山庄、山阳庄、南放水、庄头、贾庄、马兴庄、南高昌、高昌屯、高昌镇政府、高昌卫生院、高昌派出所、高昌镇中学、东高昌小学、北高昌小学","startTime":"2019-07-29 13:18:48","stopDate":"2019-07-29 23:00:00","orgNo":"1340622","typeCode":"电网故障停限电","poweroffArea":"【全线路停电】停冯振彪水泥砖厂2445,南放水3165变压器,梦会面粉厂1849,东高昌水859变压器【纯农排变】,高昌初级中学7566变压器,高昌庄水857变压器,马兴庄教学点7580变压器,马兴庄4645变压器,东高昌水利10KV配变工程1新建工程,庄头村486变压器,北高昌混841变压器,龙山开发园1855变压器【纯农排变】,东高昌混825变压器,高昌店水5026变压器,北高昌838变压器,庄头水6125变压器【纯农排变】,高昌店西6695变压器,高昌屯0832变压器,东高昌水4458变压器,马兴庄848变压器【纯农排变】,庆都山水840变压器【纯农排变】,高昌庄水5025变压器【纯农排变】,南放水混用869变压器,永红砖厂0559,高昌屯3016变压器,庄头水4674变压器【纯农排变】,南放水868变压器,高昌店混用826变压器,河北景奥旅游开发有限公司新装7155,南放水水854变压器【纯农排变】,高昌店4035变压器,供电所专用6030变压器,北放水水利4863变压器【纯农排变】,北高昌水5241变压器【纯农排变】,东高昌水利10KV配变,唐县通源粮油购销有限公司新装6623,东高昌小学7593变压器,10kV512庆都山线北高昌6090台区,南高昌3430变压器,庄头水6128变压器【纯农排变】,高昌庄6149台区变压器,高昌店混5084变压器,贾庄水4516变压器【纯农排变】,北高昌混4970变压器,高昌屯833变压器,0673793126-唐县高昌镇北高昌村西水-专变-214342989-唐县高昌镇北高昌村西水高压新装6146,高昌水库0875,马兴庄827变压器,东高昌水4836变压器,东高昌水860变压器,庄头村823变压器,北高昌公墓6170台区变压器,马兴庄水4702变压器【纯农排变】,东高昌混1979变压器,高昌中心卫生院7597变压器 ,淑吕7683【纯农排变】,北放水855变压器【纯农排变】,南高昌水5024变压器【纯农排变】,庄头水4581变压器【纯农排变】,庆运水883变压器【纯农排变】,东高昌混4405变压器,南高昌836变压器,贾庄水4226变压器【纯农排变】,南高昌水882变压器【纯农排变】,马兴庄4749变压器【纯农排变】,高昌屯4640变压器【纯农排变】,庄头村东水7042变压器【纯农排变】,东高昌3345变压器【纯农排变】,峪山庄东坡6696变压器,高昌庄混用557变压器,老于砖厂0561,东高昌7946变压器,建民水845变压器【纯农排变】,庄头混7048变压器,南高昌5023变压器【纯农排变】,高昌店西水0876变压器,0387519326-保定市西大洋供水有限公司-专变-219675452-保定市西大洋供水有限公司10KV配电增容工程,高昌屯水5028变压器【纯农排变】,贾庄4703变压器【纯农排变】,高昌屯5027变压器【纯农排变】,北高昌中心小学7591变压器,庄头水1673变压器【纯农排变】,东高昌水6143变压器【纯农排变】,庆都山水4840变压器【纯农排变】,东高昌立功水1842变压器,东高昌7418变压器,贾庄4597变压器,北高昌混839变压器,东高昌南水0858变压器【纯农排变】,高昌镇政府6674变压器,贾庄487变压器,高昌屯2812变压器【纯农排变】,东高昌水7047变压器【纯农排变】,贾庄水4601变压器【纯农排变】,庄头村4045变压器,10kV512庆都山线南放水6087台区,峪山庄东水4530变压器,马兴庄4729变压器【纯农排变】,贾庄水4707变压器【纯农排变】,马兴庄4629台区变压器,山东水利工程局南水北调27标项目部2472,贾庄水2232变压器【纯农排变】,10kV512庆都山线峪山庄6101台区,南放水水4542变压器,经销公司0842,高昌初级中学7568变压器,唐县高昌水泥制品厂配变,高昌镇南放水村配变,东高昌混864变压器,保定市南水北调工程建设委员会办公室10KV配变,马兴庄847变压器【纯农排变】,峪山庄教学点7582变压器,东高昌水6159台区变压器【纯农排变】,高昌屯4073变压器,庄头水8227【纯农排变","poweroffReason":"【停电原因】由于线路接地导致３５ＫＶ山阳变电站庆都山线５１２线路全线停电【变更送电】无【发布渠道】通过９５５９８发布","powerTime":"2019-07-29 19:41:33","powerComm":"已送电","subsNo":"","lineNo":"","tgNo":"","tgName":null,"infoStatus":"1","orgName":"国网唐县供电公司","typeName":null,"infoStatusName":null,"dateDay":null,"orgNos":null,"nowTime":null,"countyName":null,"streetName":null,"villageName":null,"roadName":null,"communityName":null,"tranName":null,"sdLineName":null,"cityCode":"1340622","cityName":"国网唐县供电公司","provinceCode":null,"stopTime":"2019-07-29 23:00:00","powerType":"全部","powerOffArea":"【全线路停电】停冯振彪水泥砖厂2445,南放水3165变压器,梦会面粉厂1849,东高昌水859变压器【纯农排变】,高昌初级中学7566变压器,高昌庄水857变压器,马兴庄教学点7580变压器,马兴庄4645变压器,东高昌水利10KV配变工程1新建工程,庄头村486变压器,北高昌混841变压器,龙山开发园1855变压器【纯农排变】,东高昌混825变压器,高昌店水5026变压器,北高昌838变压器,庄头水6125变压器【纯农排变】,高昌店西6695变压器,高昌屯0832变压器,东高昌水4458变压器,马兴庄848变压器【纯农排变】,庆都山水840变压器【纯农排变】,高昌庄水5025变压器【纯农排变】,南放水混用869变压器,永红砖厂0559,高昌屯3016变压器,庄头水4674变压器【纯农排变】,南放水868变压器,高昌店混用826变压器,河北景奥旅游开发有限公司新装7155,南放水水854变压器【纯农排变】,高昌店4035变压器,供电所专用6030变压器,北放水水利4863变压器【纯农排变】,北高昌水5241变压器【纯农排变】,东高昌水利10KV配变,唐县通源粮油购销有限公司新装6623,东高昌小学7593变压器,10kV512庆都山线北高昌6090台区,南高昌3430变压器,庄头水6128变压器【纯农排变】,高昌庄6149台区变压器,高昌店混5084变压器,贾庄水4516变压器【纯农排变】,北高昌混4970变压器,高昌屯833变压器,0673793126-唐县高昌镇北高昌村西水-专变-214342989-唐县高昌镇北高昌村西水高压新装6146,高昌水库0875,马兴庄827变压器,东高昌水4836变压器,东高昌水860变压器,庄头村823变压器,北高昌公墓6170台区变压器,马兴庄水4702变压器【纯农排变】,东高昌混1979变压器,高昌中心卫生院7597变压器 ,淑吕7683【纯农排变】,北放水855变压器【纯农排变】,南高昌水5024变压器【纯农排变】,庄头水4581变压器【纯农排变】,庆运水883变压器【纯农排变】,东高昌混4405变压器,南高昌836变压器,贾庄水4226变压器【纯农排变】,南高昌水882变压器【纯农排变】,马兴庄4749变压器【纯农排变】,高昌屯4640变压器【纯农排变】,庄头村东水7042变压器【纯农排变】,东高昌3345变压器【纯农排变】,峪山庄东坡6696变压器,高昌庄混用557变压器,老于砖厂0561,东高昌7946变压器,建民水845变压器【纯农排变】,庄头混7048变压器,南高昌5023变压器【纯农排变】,高昌店西水0876变压器,0387519326-保定市西大洋供水有限公司-专变-219675452-保定市西大洋供水有限公司10KV配电增容工程,高昌屯水5028变压器【纯农排变】,贾庄4703变压器【纯农排变】,高昌屯5027变压器【纯农排变】,北高昌中心小学7591变压器,庄头水1673变压器【纯农排变】,东高昌水6143变压器【纯农排变】,庆都山水4840变压器【纯农排变】,东高昌立功水1842变压器,东高昌7418变压器,贾庄4597变压器,北高昌混839变压器,东高昌南水0858变压器【纯农排变】,高昌镇政府6674变压器,贾庄487变压器,高昌屯2812变压器【纯农排变】,东高昌水7047变压器【纯农排变】,贾庄水4601变压器【纯农排变】,庄头村4045变压器,10kV512庆都山线南放水6087台区,峪山庄东水4530变压器,马兴庄4729变压器【纯农排变】,贾庄水4707变压器【纯农排变】,马兴庄4629台区变压器,山东水利工程局南水北调27标项目部2472,贾庄水2232变压器【纯农排变】,10kV512庆都山线峪山庄6101台区,南放水水4542变压器,经销公司0842,高昌初级中学7568变压器,唐县高昌水泥制品厂配变,高昌镇南放水村配变,东高昌混864变压器,保定市南水北调工程建设委员会办公室10KV配变,马兴庄847变压器【纯农排变】,峪山庄教学点7582变压器,东高昌水6159台区变压器【纯农排变】,高昌屯4073变压器,庄头水8227【纯农排变","powerOffReason":"【停电原因】由于线路接地导致３５ＫＶ山阳变电站庆都山线５１２线路全线停电【变更送电】无【发布渠道】通过９５５９８发布","powerOffId":"2019072913000810"},{"poweroffId":2019072913000799,"sgpoweroffId":null,"subsName":"","lineName":"固城线513","pubTranName":"北放水957变压器【纯农排变】,南固城969变压器【纯农排变】,唐县隆发畜禽饲养有限公司7396,南固城3390变压器【纯农排变】,东山阳493变压器,东山阳小学7579变压器,东山阳1422变压器,无纺布厂0985,信用社0987,河北中硕建筑工程有限公司一分公司配变,高昌镇南古城（4550）10KV新建,南固城小学7581变压器,山阳庄变压器,北放水7895变压器,东山阳903变压器【纯农排变】,东山阳1978变压器【纯农排变】,北放水6698变压器,北放水962变压器【纯农排变】,南固城968变压器【纯农排变】,北放水6697变压器,高昌镇中山阳村配变,南固城972变压器【纯农排变】,南固城964变压器【纯农排变】,高昌镇政府（4693）10KV新建,东山阳3169变压器,北放水514变压器,高昌镇南固城村(4763)10KV新建,众合石子厂3276,东山阳4979变压器,高昌镇南固城村（4765）10KV新建,10kV513固城线北放水6089台区,北放水4706变压器【纯农排变】,南固城513变压器【纯农排变】,10kV513固城线南固城6086台区,高昌镇政府（4764）10KV新建,南固城3167变压器,北放水5007变压器,东山阳949变压器【纯农排变】,北放水2693变台,北固城4635变压器,南固城3168变压器,北放水4971变压器,唐县高昌镇中山阳村配变,北放水4704变压器【纯农排变】,南固城2688变压器【纯农排变】,南固城6699变压器,南固城2686变压器,南固城977变压器,山阳庄1301变压器,东山阳7737变压器,北放水518变压器【纯农排变】,南固城974变压器,北放水1746变压器,北固城978变压器,南固城7896变压器,北放水2577变压器【纯农排变】,南固城512变压器【纯农排变】,北放水小学7590变压器,北放水1744变压器,东山阳494变压器,龙虎庄0963变压器,东山阳0492变压器【纯农排变】,南固城4978变压器,北放水2689变压器【纯农排变】,唐县会旺农作物种植服务专业合作社,","scope":"【影响街道/乡镇】北店头乡、高昌镇【高危重要客户】无【影响客户】北店头、北固城、南固城、东山阳、北放水、山阳庄","startTime":"2019-07-29 13:12:02","stopDate":"2019-07-29 18:30:00","orgNo":"1340622","typeCode":"电网故障停限电","poweroffArea":"【全线路停电】停南固城969变压器【纯农排变】,唐县隆发畜禽饲养有限公司7396,南固城3390变压器【纯农排变】,东山阳493变压器,东山阳小学7579变压器,东山阳1422变压器,无纺布厂0985,信用社0987,河北中硕建筑工程有限公司一分公司配变,高昌镇南古城（4550）10KV新建,南固城小学7581变压器,山阳庄变压器,北放水7895变压器,东山阳903变压器【纯农排变】,东山阳1978变压器【纯农排变】,北放水6698变压器,北放水962变压器【纯农排变】,南固城968变压器【纯农排变】,北放水6697变压器,高昌镇中山阳村配变,南固城972变压器【纯农排变】,南固城964变压器【纯农排变】,高昌镇政府（4693）10KV新建,东山阳3169变压器,北放水514变压器,高昌镇南固城村(4763)10KV新建,众合石子厂3276,东山阳4979变压器,高昌镇南固城村（4765）10KV新建,10kV513固城线北放水6089台区,北放水4706变压器【纯农排变】,北放水957变压器【纯农排变】,北放水2693变台,北固城4635变压器,南固城3168变压器,北放水4971变压器,唐县高昌镇中山阳村配变,北放水4704变压器【纯农排变】,南固城2688变压器【纯农排变】,南固城6699变压器,南固城2686变压器,南固城977变压器,南固城513变压器【纯农排变】,10kV513固城线南固城6086台区,高昌镇政府（4764）10KV新建,南固城3167变压器,北放水5007变压器,东山阳949变压器【纯农排变】,山阳庄1301变压器,北放水518变压器【纯农排变】,南固城974变压器,北放水1746变压器,北固城978变压器,南固城7896变压器,北放水2577变压器【纯农排变】,南固城512变压器【纯农排变】,北放水小学7590变压器,北放水1744变压器,东山阳7737变压器,东山阳494变压器,龙虎庄0963变压器,东山阳0492变压器【纯农排变】,南固城4978变压器,北放水2689变压器【纯农排变】,唐县会旺农作物种植服务专业合作社","poweroffReason":"【停电原因】由于山阳信用社避雷器击穿导致３５ＫＶ山阳变电站固城线５１３线路全线停电【变更送电】因抢修进度加快原因，送电时间由２３：００变更为１８：３０【发布渠道】通过９５５９８发布","powerTime":"2019-07-29 17:55:32","powerComm":"已送电","subsNo":"","lineNo":"","tgNo":"","tgName":null,"infoStatus":"1","orgName":"国网唐县供电公司","typeName":null,"infoStatusName":null,"dateDay":null,"orgNos":null,"nowTime":null,"countyName":null,"streetName":null,"villageName":null,"roadName":null,"communityName":null,"tranName":null,"sdLineName":null,"cityCode":"1340622","cityName":"国网唐县供电公司","provinceCode":null,"stopTime":"2019-07-29 18:30:00","powerType":"全部","powerOffArea":"【全线路停电】停南固城969变压器【纯农排变】,唐县隆发畜禽饲养有限公司7396,南固城3390变压器【纯农排变】,东山阳493变压器,东山阳小学7579变压器,东山阳1422变压器,无纺布厂0985,信用社0987,河北中硕建筑工程有限公司一分公司配变,高昌镇南古城（4550）10KV新建,南固城小学7581变压器,山阳庄变压器,北放水7895变压器,东山阳903变压器【纯农排变】,东山阳1978变压器【纯农排变】,北放水6698变压器,北放水962变压器【纯农排变】,南固城968变压器【纯农排变】,北放水6697变压器,高昌镇中山阳村配变,南固城972变压器【纯农排变】,南固城964变压器【纯农排变】,高昌镇政府（4693）10KV新建,东山阳3169变压器,北放水514变压器,高昌镇南固城村(4763)10KV新建,众合石子厂3276,东山阳4979变压器,高昌镇南固城村（4765）10KV新建,10kV513固城线北放水6089台区,北放水4706变压器【纯农排变】,北放水957变压器【纯农排变】,北放水2693变台,北固城4635变压器,南固城3168变压器,北放水4971变压器,唐县高昌镇中山阳村配变,北放水4704变压器【纯农排变】,南固城2688变压器【纯农排变】,南固城6699变压器,南固城2686变压器,南固城977变压器,南固城513变压器【纯农排变】,10kV513固城线南固城6086台区,高昌镇政府（4764）10KV新建,南固城3167变压器,北放水5007变压器,东山阳949变压器【纯农排变】,山阳庄1301变压器,北放水518变压器【纯农排变】,南固城974变压器,北放水1746变压器,北固城978变压器,南固城7896变压器,北放水2577变压器【纯农排变】,南固城512变压器【纯农排变】,北放水小学7590变压器,北放水1744变压器,东山阳7737变压器,东山阳494变压器,龙虎庄0963变压器,东山阳0492变压器【纯农排变】,南固城4978变压器,北放水2689变压器【纯农排变】,唐县会旺农作物种植服务专业合作社","powerOffReason":"【停电原因】由于山阳信用社避雷器击穿导致３５ＫＶ山阳变电站固城线５１３线路全线停电【变更送电】因抢修进度加快原因，送电时间由２３：００变更为１８：３０【发布渠道】通过９５５９８发布","powerOffId":"2019072913000799"},{"poweroffId":2019072913000789,"sgpoweroffId":null,"subsName":"","lineName":"10kV七里铺540线","pubTranName":"七里铺东北农业4号【纯农排变】,7铺西南【纯农排变】,新星粉丝厂,春藤食品有限公司,七里铺东北农业5号【纯农排变】,崔庄【纯农排变】,七里铺内东2配变,七里铺内中1,七里铺粉丝厂,七里铺东北农业3号【纯农排变】,七里铺内西4配变,7里铺东北【纯农排变】,宏达养殖厂,0557001156-望都县宏圣电瓷电器有限公司-专变-105129942-变压器,7里铺西南2【纯农排变】,七里铺最西2农业【纯农排变】,7里铺107国道边【纯农排变】,十五里铺路边农业2号【纯农排变】,崔庄107路南【纯农排变】,十五里铺西北【纯农排变】,7里铺最西,0547018360-望都县志钢铸造有限公司-专变-226230881-望都县志钢铸造有限公司,七里铺村内西,七里铺东北农业2号【纯农排变】,七里铺正南农业2号【纯农排变】,享通饲料厂,7里铺最东【纯农排变】,七里铺最东4号【纯农排变】,七里铺内西3配变,七里铺最西农业3号【纯农排变】,7里铺南【纯农排变】,鸿翔塑料制品,7里铺东【纯农排变】,七里铺西北农业2号【纯农排变】,七里铺内西2号,七里铺内东1,七里铺村内1,所林板厂,望都县北冶轴承制造有限公司,七里铺内中2配变,七里铺新107配变【纯农排变】,七里铺村内2配变,鑫华粉丝厂,七里铺西北农业【纯农排变】,崔庄107国道2号农【纯农排变】,","scope":"【影响街道/乡镇】固店镇、黑堡乡 【高危重要客户】无　　 【影响客户】七里铺、崔庄、十五里铺、泰合食品、长丰电瓷电器、腾源混凝土、新星粉丝厂、享通饲料厂、所林板厂、宏达养殖厂、志刚铸造、长丰电瓷电器、七里铺粉丝厂、红新面粉厂","startTime":"2019-07-29 13:12:11","stopDate":"2019-07-29 19:20:00","orgNo":"1340623","typeCode":"电网故障停限电","poweroffArea":"【全线路停电】停七里铺东北农业3号【纯农排变】,七里铺内西3配变,7里铺东【纯农排变】,七里铺内中2配变,鑫华粉丝厂,七里铺最西农业3号【纯农排变】,七里铺内西4配变,七里铺新107配变【纯农排变】,七里铺西北农业2号【纯农排变】,7里铺东北【纯农排变】,7里铺南【纯农排变】,七里铺内西2号,七里铺村内2配变,七里铺村内1,七里铺粉丝厂,鸿翔塑料制品,0547018360-望都县志钢铸造有限公司-专变-226230881-望都县志钢铸造有限公司,所林板厂,宏达养殖厂,七里铺西北农业【纯农排变】,0557001156-望都县宏圣电瓷电器有限公司-专变-105129942-变压器,7里铺107国道边【纯农排变】,崔庄107国道2号农【纯农排变】,7里铺最西,十五里铺路边农业2号【纯农排变】,七里铺正南农业2号【纯农排变】,崔庄107路南【纯农排变】,十五里铺西北【纯农排变】,七里铺内东1,望都县北冶轴承制造有限公司,七里铺最东4号【纯农排变】,七里铺村内西,崔庄【纯农排变】,七里铺东北农业2号【纯农排变】,享通饲料厂,七里铺内东2配变,7里铺西南2【纯农排变】,七里铺内中1,7里铺最东【纯农排变】,七里铺东北农业4号【纯农排变】,七里铺最西2农业【纯农排变】,春藤食品有限公司,7铺西南【纯农排变】,七里铺东北农业5号【纯农排变】,新星粉丝厂","poweroffReason":"【停电原因】由于用户配变避雷器击穿线搭在横担上导致２２０ＫＶ固店变电站１０ＫＶ七里铺５４０线路全线停电 【变更送电】因抢修进度加快原因，送电时间由２３：５０变更为１９：２０ 【发布渠道】通过９５５９８发布","powerTime":"2019-07-29 18:36:09","powerComm":"已送电","subsNo":"","lineNo":"","tgNo":"","tgName":null,"infoStatus":"1","orgName":"国网望都县供电公司","typeName":null,"infoStatusName":null,"dateDay":null,"orgNos":null,"nowTime":null,"countyName":null,"streetName":null,"villageName":null,"roadName":null,"communityName":null,"tranName":null,"sdLineName":null,"cityCode":"1340623","cityName":"国网望都县供电公司","provinceCode":null,"stopTime":"2019-07-29 19:20:00","powerType":"全部","powerOffArea":"【全线路停电】停七里铺东北农业3号【纯农排变】,七里铺内西3配变,7里铺东【纯农排变】,七里铺内中2配变,鑫华粉丝厂,七里铺最西农业3号【纯农排变】,七里铺内西4配变,七里铺新107配变【纯农排变】,七里铺西北农业2号【纯农排变】,7里铺东北【纯农排变】,7里铺南【纯农排变】,七里铺内西2号,七里铺村内2配变,七里铺村内1,七里铺粉丝厂,鸿翔塑料制品,0547018360-望都县志钢铸造有限公司-专变-226230881-望都县志钢铸造有限公司,所林板厂,宏达养殖厂,七里铺西北农业【纯农排变】,0557001156-望都县宏圣电瓷电器有限公司-专变-105129942-变压器,7里铺107国道边【纯农排变】,崔庄107国道2号农【纯农排变】,7里铺最西,十五里铺路边农业2号【纯农排变】,七里铺正南农业2号【纯农排变】,崔庄107路南【纯农排变】,十五里铺西北【纯农排变】,七里铺内东1,望都县北冶轴承制造有限公司,七里铺最东4号【纯农排变】,七里铺村内西,崔庄【纯农排变】,七里铺东北农业2号【纯农排变】,享通饲料厂,七里铺内东2配变,7里铺西南2【纯农排变】,七里铺内中1,7里铺最东【纯农排变】,七里铺东北农业4号【纯农排变】,七里铺最西2农业【纯农排变】,春藤食品有限公司,7铺西南【纯农排变】,七里铺东北农业5号【纯农排变】,新星粉丝厂","powerOffReason":"【停电原因】由于用户配变避雷器击穿线搭在横担上导致２２０ＫＶ固店变电站１０ＫＶ七里铺５４０线路全线停电 【变更送电】因抢修进度加快原因，送电时间由２３：５０变更为１９：２０ 【发布渠道】通过９５５９８发布","powerOffId":"2019072913000789"},{"poweroffId":2019072913000786,"sgpoweroffId":null,"subsName":"","lineName":"10kV朝阳路站537线路","pubTranName":"B334柱上变压器,","scope":"【影响街道/乡镇】朝阳路 【高危重要客户】无 【影响客户】工人新村、中大针织厂宿舍、环保局宿舍","startTime":"2019-07-29 13:08:30","stopDate":"2019-07-29 15:00:00","orgNo":"13406","typeCode":"电网故障停限电","poweroffArea":"【单台区停电】停B334柱上变压器","poweroffReason":"【停电原因】由于低压线断线导致１０ＫＶ朝阳变电站５３７线路Ｂ３３４公变台区停电【变更送电】无【发布渠道】通过９５５９８发布","powerTime":"2019-07-29 14:21:26","powerComm":"已送电","subsNo":"","lineNo":"","tgNo":"","tgName":null,"infoStatus":"1","orgName":"保定供电公司","typeName":null,"infoStatusName":null,"dateDay":null,"orgNos":null,"nowTime":null,"countyName":null,"streetName":null,"villageName":null,"roadName":null,"communityName":null,"tranName":null,"sdLineName":null,"cityCode":"13406","cityName":"保定供电公司","provinceCode":null,"stopTime":"2019-07-29 15:00:00","powerType":"全部","powerOffArea":"【单台区停电】停B334柱上变压器","powerOffReason":"【停电原因】由于低压线断线导致１０ＫＶ朝阳变电站５３７线路Ｂ３３４公变台区停电【变更送电】无【发布渠道】通过９５５９８发布","powerOffId":"2019072913000786"}],"pageModel":{"pageNow":744,"totalCount":10973,"totalPage":1098,"tableRows":0,"pageCount":10,"beginCount":7430},"isExperi":"1"}