{"message":"","today":"2020-06-15","seleList":[{"poweroffId":2019072913000500,"sgpoweroffId":null,"subsName":"","lineName":"10kV521良村线","pubTranName":"油味公用农业5台区【纯农排变】,油味公用照明12台区,油味村公用照明11台区,油味公用照明13台区,油味公用农业3台区【纯农排变】,油味公用照明16台区,油味村公用照明14台区,油味村公用照明2台区,油味公用照明23台区,油味村公用照明3台区,定州市瑞恒家庭农场变压器,油味公用照明15台区,油味村公用照明4台区,油味村公用照明5台区,油味公用照明20台区,油味村公用照明8台区,油味公用农业6台区【纯农排变】,定州市明阳机械厂,油味村公用照明1台区,油味公用农业1台区【纯农排变】,油味公用照明17台区,油味公用农业4台区【纯农排变】,油味公用照明24台区,定州市李亲顾镇人民政府（水厂）变压器,油味村公用照明9台区,太平庄公用农业4台区【纯农排变】,李亲顾猪场,定州市克瑞特木业有限公司,李辛庄公用农业13台区【纯农排变】,油味村公用照明10台区,油味村公用照明7台区,油味公用照明21台区,油味村公用照明6台区,油味公用照明18台区,油味公用照明22台区,油味公用农业2台区【纯农排变】,油味公用照明19台区,油味公用农业7台区【纯农排变】,李亲顾菜场变压器,","scope":"【影响街道/乡镇】李亲顾镇【高危重要客户】无【影响客户】油味","startTime":"2019-07-29 09:53:25","stopDate":"2019-07-29 11:00:00","orgNo":"1340610","typeCode":"电网故障停限电","poweroffArea":"【全线路停电】停定州市克瑞特木业有限公司,油味公用照明20台区,油味村公用照明8台区,油味公用农业6台区【纯农排变】,定州市明阳机械厂,油味村公用照明1台区,油味公用农业1台区【纯农排变】,油味公用照明17台区,油味公用农业4台区【纯农排变】,油味公用农业5台区【纯农排变】,油味公用照明24台区,油味公用照明15台区,油味村公用照明4台区,油味村公用照明5台区,定州市李亲顾镇人民政府（水厂）变压器,油味村公用照明9台区,太平庄公用农业4台区【纯农排变】,李亲顾猪场,李辛庄公用农业13台区【纯农排变】,油味村公用照明10台区,油味村公用照明7台区,油味公用照明21台区,油味村公用照明6台区,油味公用照明18台区,油味公用照明22台区,油味公用农业2台区【纯农排变】,油味公用照明19台区,油味公用农业7台区【纯农排变】,李亲顾菜场变压器,油味公用照明12台区,油味村公用照明11台区,油味公用照明13台区,油味公用农业3台区【纯农排变】,油味公用照明16台区,油味村公用照明14台区,油味村公用照明2台区,油味公用照明23台区,油味村公用照明3台区,定州市瑞恒家庭农场变压器","poweroffReason":"【停电原因】由于李亲顾水泥厂分支０１号杆弓子线断线导致１１０ＫＶ李亲顾变电站１０ＫＶ５２１良村线路全线停电 【变更送电】因抢修进度加快原因，送电时间由２０：００变更为：１１：００ 【发布渠道】９５５９８","powerTime":"2019-07-29 10:34:56","powerComm":"已送电","subsNo":"","lineNo":"","tgNo":"","tgName":null,"infoStatus":"1","orgName":"国网定州市供电公司","typeName":null,"infoStatusName":null,"dateDay":null,"orgNos":null,"nowTime":null,"countyName":null,"streetName":null,"villageName":null,"roadName":null,"communityName":null,"tranName":null,"sdLineName":null,"cityCode":"1340610","cityName":"国网定州市供电公司","provinceCode":null,"stopTime":"2019-07-29 11:00:00","powerType":"全部","powerOffArea":"【全线路停电】停定州市克瑞特木业有限公司,油味公用照明20台区,油味村公用照明8台区,油味公用农业6台区【纯农排变】,定州市明阳机械厂,油味村公用照明1台区,油味公用农业1台区【纯农排变】,油味公用照明17台区,油味公用农业4台区【纯农排变】,油味公用农业5台区【纯农排变】,油味公用照明24台区,油味公用照明15台区,油味村公用照明4台区,油味村公用照明5台区,定州市李亲顾镇人民政府（水厂）变压器,油味村公用照明9台区,太平庄公用农业4台区【纯农排变】,李亲顾猪场,李辛庄公用农业13台区【纯农排变】,油味村公用照明10台区,油味村公用照明7台区,油味公用照明21台区,油味村公用照明6台区,油味公用照明18台区,油味公用照明22台区,油味公用农业2台区【纯农排变】,油味公用照明19台区,油味公用农业7台区【纯农排变】,李亲顾菜场变压器,油味公用照明12台区,油味村公用照明11台区,油味公用照明13台区,油味公用农业3台区【纯农排变】,油味公用照明16台区,油味村公用照明14台区,油味村公用照明2台区,油味公用照明23台区,油味村公用照明3台区,定州市瑞恒家庭农场变压器","powerOffReason":"【停电原因】由于李亲顾水泥厂分支０１号杆弓子线断线导致１１０ＫＶ李亲顾变电站１０ＫＶ５２１良村线路全线停电 【变更送电】因抢修进度加快原因，送电时间由２０：００变更为：１１：００ 【发布渠道】９５５９８","powerOffId":"2019072913000500"},{"poweroffId":2019072913000498,"sgpoweroffId":null,"subsName":"","lineName":"10kV鲁岗站516线路","pubTranName":"0356231471-保定市新市区颉庄乡小车村-专变,0356227029-保定市华融纸厂-1-配电室-变压器-2,0357331172-保定市路等管理处-1-箱式变-变压器-1,C134柱上变压器,0690444795-保定市公共交通总公司-变压器-2,0356231468-小车村-专变,00210071,0639528656-保定向阳航空精密机械有限公司-专变-148801202-变压器,0639528656-保定向阳航空精密机械有限公司-专变-148801183-变压器,0639528656-保定向阳航空精密机械有限公司-专变-148802904-变压器,0639528656-保定向阳航空精密机械有限公司-专变-148801225-变压器,C376柱上变压器,C135柱上变压器,0639528656-保定向阳航空精密机械有限公司-专变-148801229-变压器,0356231484-小车-专变,0690444795-保定市公共交通总公司-变压器-1,0356227029-保定市华融纸厂-1#专变,变压器,0357829994-河北胜达智通新型建材有限公司-1-配电室-变压器-1,0654365438-保定市淑九商贸有限责任公司-专变-183738077-变压器,0672942615-保定市新市区国民家具沙发厂-专变-215879308-变压器,C540柱上变压器,0356224075-中国联合网络通信有限公司保定市分公司-专变,0641028063-保定市顺和机械制造有限公司-专变-153299510-变压器,0639528656-保定向阳航空精密机械有限公司-专变-148802911-变压器,0357331185-保定市路等管理处-1-箱式变-变压器-1,C3022柱上变压器,0357331169-保定市路等管理处-1-箱式变-变压器-1,0676741984-保定市新市区热诚机械加工厂-专变-217729907-变压器,C133柱上变压器,0356231455-公共交通四公司-专变,0356227016-崔闸-专变,","scope":"【影响街道/乡镇】颉庄乡 【高危重要客户】无 【影响客户】小车村","startTime":"2019-07-29 09:50:34","stopDate":"2019-07-29 18:00:00","orgNo":"13406","typeCode":"电网故障停限电","poweroffArea":"【全线路停电】停0357331185-保定市路等管理处-1-箱式变-变压器-1,0357331172-保定市路等管理处-1-箱式变-变压器-1,0357331169-保定市路等管理处-1-箱式变-变压器-1,变压器,C3022柱上变压器,0676741984-保定市新市区热诚机械加工厂-专变-217729907-变压器,0639528656-保定向阳航空精密机械有限公司-专变-148801183-变压器,0690444795-保定市公共交通总公司-变压器-1,C135柱上变压器,C134柱上变压器,0357829994-河北胜达智通新型建材有限公司-1-配电室-变压器-1,C376柱上变压器,0356227029-保定市华融纸厂-1#专变,0639528656-保定向阳航空精密机械有限公司-专变-148802911-变压器,C133柱上变压器,0639528656-保定向阳航空精密机械有限公司-专变-148801225-变压器,0356231471-保定市新市区颉庄乡小车村-专变,0639528656-保定向阳航空精密机械有限公司-专变-148801202-变压器,0639528656-保定向阳航空精密机械有限公司-专变-148801229-变压器,00210071,0654365438-保定市淑九商贸有限责任公司-专变-183738077-变压器,0641028063-保定市顺和机械制造有限公司-专变-153299510-变压器,0356231455-公共交通四公司-专变,C540柱上变压器,0356227029-保定市华融纸厂-1-配电室-变压器-2,0356231468-小车村-专变,0356231484-小车-专变,0690444795-保定市公共交通总公司-变压器-2,0672942615-保定市新市区国民家具沙发厂-专变-215879308-变压器,0639528656-保定向阳航空精密机械有限公司-专变-148802904-变压器,0356227016-崔闸-专变,0356224075-中国联合网络通信有限公司保定市分公司-专变","poweroffReason":"【停电原因】由于过流跳闸导致１０ＫＶ鲁岗变电站５１６线路全线停电【变更送电】因工作正在处理中，送电时间由１４:００变更为１８:００【发布渠道】通过９５５９８发布","powerTime":"2019-07-29 17:29:23","powerComm":"已送电","subsNo":"","lineNo":"","tgNo":"","tgName":null,"infoStatus":"1","orgName":"保定供电公司","typeName":null,"infoStatusName":null,"dateDay":null,"orgNos":null,"nowTime":null,"countyName":null,"streetName":null,"villageName":null,"roadName":null,"communityName":null,"tranName":null,"sdLineName":null,"cityCode":"13406","cityName":"保定供电公司","provinceCode":null,"stopTime":"2019-07-29 18:00:00","powerType":"全部","powerOffArea":"【全线路停电】停0357331185-保定市路等管理处-1-箱式变-变压器-1,0357331172-保定市路等管理处-1-箱式变-变压器-1,0357331169-保定市路等管理处-1-箱式变-变压器-1,变压器,C3022柱上变压器,0676741984-保定市新市区热诚机械加工厂-专变-217729907-变压器,0639528656-保定向阳航空精密机械有限公司-专变-148801183-变压器,0690444795-保定市公共交通总公司-变压器-1,C135柱上变压器,C134柱上变压器,0357829994-河北胜达智通新型建材有限公司-1-配电室-变压器-1,C376柱上变压器,0356227029-保定市华融纸厂-1#专变,0639528656-保定向阳航空精密机械有限公司-专变-148802911-变压器,C133柱上变压器,0639528656-保定向阳航空精密机械有限公司-专变-148801225-变压器,0356231471-保定市新市区颉庄乡小车村-专变,0639528656-保定向阳航空精密机械有限公司-专变-148801202-变压器,0639528656-保定向阳航空精密机械有限公司-专变-148801229-变压器,00210071,0654365438-保定市淑九商贸有限责任公司-专变-183738077-变压器,0641028063-保定市顺和机械制造有限公司-专变-153299510-变压器,0356231455-公共交通四公司-专变,C540柱上变压器,0356227029-保定市华融纸厂-1-配电室-变压器-2,0356231468-小车村-专变,0356231484-小车-专变,0690444795-保定市公共交通总公司-变压器-2,0672942615-保定市新市区国民家具沙发厂-专变-215879308-变压器,0639528656-保定向阳航空精密机械有限公司-专变-148802904-变压器,0356227016-崔闸-专变,0356224075-中国联合网络通信有限公司保定市分公司-专变","powerOffReason":"【停电原因】由于过流跳闸导致１０ＫＶ鲁岗变电站５１６线路全线停电【变更送电】因工作正在处理中，送电时间由１４:００变更为１８:００【发布渠道】通过９５５９８发布","powerOffId":"2019072913000498"},{"poweroffId":2019072913000495,"sgpoweroffId":null,"subsName":"","lineName":"10kV百楼站530线路","pubTranName":"0357559842-保定市宇航机械科技有限公司-1-配电室-变压器-1,0684881588-保定新时代物流配送有限公司-专变-223609061-变压器,0357266207-保定市宇航机械科技有限公司-1-配电室-变压器-1,","scope":"【影响街道/乡镇】科苑街 【高危重要客户】无 【影响客户】宇航机械科技有限公司、新时代物流配送有限公司、铭德房地产、光达房地产、交警支队、泵站","startTime":"2019-08-09 07:00:00","stopDate":"2019-08-09 14:00:00","orgNo":"13406","typeCode":"计划停电","poweroffArea":"【分支停电】停0357559842-保定市宇航机械科技有限公司-1-配电室-变压器-1,0684881588-保定新时代物流配送有限公司-专变-223609061-变压器,0357266207-保定市宇航机械科技有限公司-1-配电室-变压器-1","poweroffReason":"【停电原因】由于供电设施临时检修导致１０ＫＶ百楼变电站５３０线路科苑街４２号杆开关以下停电【变更送电】无【发布渠道】保定市保定有线电视台（７月３１日２０时１５分至２１时４５分之间）屏幕上滚动","powerTime":"2019-08-09 13:49:21","powerComm":"已送电","subsNo":"","lineNo":"","tgNo":"","tgName":null,"infoStatus":"1","orgName":"保定供电公司","typeName":null,"infoStatusName":null,"dateDay":null,"orgNos":null,"nowTime":null,"countyName":null,"streetName":null,"villageName":null,"roadName":null,"communityName":null,"tranName":null,"sdLineName":null,"cityCode":"13406","cityName":"保定供电公司","provinceCode":null,"stopTime":"2019-08-09 14:00:00","powerType":"全部","powerOffArea":"【分支停电】停0357559842-保定市宇航机械科技有限公司-1-配电室-变压器-1,0684881588-保定新时代物流配送有限公司-专变-223609061-变压器,0357266207-保定市宇航机械科技有限公司-1-配电室-变压器-1","powerOffReason":"【停电原因】由于供电设施临时检修导致１０ＫＶ百楼变电站５３０线路科苑街４２号杆开关以下停电【变更送电】无【发布渠道】保定市保定有线电视台（７月３１日２０时１５分至２１时４５分之间）屏幕上滚动","powerOffId":"2019072913000495"},{"poweroffId":2019072913000481,"sgpoweroffId":null,"subsName":"","lineName":"10kV百楼站522线路","pubTranName":"0650182545-保定华澳装饰工程有限公司-专变-175489252-变压器,0357570300-河北通达泵阀集团有限公司-1-配电室-变压器-1,0356582700-保定市北方特种气体有限公司-1-配电室-变压器-1,0357570300-河北通达泵阀集团有限公司-1-配电室-变压器-2,","scope":"【影响街道/乡镇】科苑街、腾飞路 【高危重要客户】无 【影响客户】北方特种气体有限公司、通达泵阀集团有限公司、华澳装饰工程有限公司、绿洁环保","startTime":"2019-08-09 07:00:00","stopDate":"2019-08-09 14:00:00","orgNo":"13406","typeCode":"计划停电","poweroffArea":"【分支停电】停0650182545-保定华澳装饰工程有限公司-专变-175489252-变压器,0357570300-河北通达泵阀集团有限公司-1-配电室-变压器-1,0356582700-保定市北方特种气体有限公司-1-配电室-变压器-1,0357570300-河北通达泵阀集团有限公司-1-配电室-变压器-2","poweroffReason":"【停电原因】由于供电设施临时检修导致１０ＫＶ百楼变电站５２２线路科苑街４２号杆开关以下停电【变更送电】无【发布渠道】保定市保定有线电视台（７月３１日２０时１５分至２１时４５分之间）屏幕上滚动","powerTime":"2019-08-09 13:49:40","powerComm":"已送电","subsNo":"","lineNo":"","tgNo":"","tgName":null,"infoStatus":"1","orgName":"保定供电公司","typeName":null,"infoStatusName":null,"dateDay":null,"orgNos":null,"nowTime":null,"countyName":null,"streetName":null,"villageName":null,"roadName":null,"communityName":null,"tranName":null,"sdLineName":null,"cityCode":"13406","cityName":"保定供电公司","provinceCode":null,"stopTime":"2019-08-09 14:00:00","powerType":"全部","powerOffArea":"【分支停电】停0650182545-保定华澳装饰工程有限公司-专变-175489252-变压器,0357570300-河北通达泵阀集团有限公司-1-配电室-变压器-1,0356582700-保定市北方特种气体有限公司-1-配电室-变压器-1,0357570300-河北通达泵阀集团有限公司-1-配电室-变压器-2","powerOffReason":"【停电原因】由于供电设施临时检修导致１０ＫＶ百楼变电站５２２线路科苑街４２号杆开关以下停电【变更送电】无【发布渠道】保定市保定有线电视台（７月３１日２０时１５分至２１时４５分之间）屏幕上滚动","powerOffId":"2019072913000481"},{"poweroffId":2019072913000473,"sgpoweroffId":null,"subsName":"","lineName":"于坊线514","pubTranName":"于坊13号,","scope":"【影响街道/乡镇】正村乡 【高危重要客户】无 【影响客户】于坊村","startTime":"2019-07-29 09:17:39","stopDate":"2019-07-29 11:00:00","orgNo":"1340605","typeCode":"电网故障停限电","poweroffArea":"【单台区停电】停于坊13号","poweroffReason":"【停电原因】由于变压器低压保险片烧毁导致３５ＫＶ王庄变电站于坊５１４线路于坊１３号公变台区停电 【变更送电】因抢修进度加快原因，送电时间由１２:００变更为１１:００ 【发布渠道】通过９５５９８发布","powerTime":"2019-07-29 10:10:52","powerComm":"已送电","subsNo":"","lineNo":"","tgNo":"","tgName":null,"infoStatus":"1","orgName":"国网徐水县供电公司","typeName":null,"infoStatusName":null,"dateDay":null,"orgNos":null,"nowTime":null,"countyName":null,"streetName":null,"villageName":null,"roadName":null,"communityName":null,"tranName":null,"sdLineName":null,"cityCode":"1340605","cityName":"国网徐水县供电公司","provinceCode":null,"stopTime":"2019-07-29 11:00:00","powerType":"全部","powerOffArea":"【单台区停电】停于坊13号","powerOffReason":"【停电原因】由于变压器低压保险片烧毁导致３５ＫＶ王庄变电站于坊５１４线路于坊１３号公变台区停电 【变更送电】因抢修进度加快原因，送电时间由１２:００变更为１１:００ 【发布渠道】通过９５５９８发布","powerOffId":"2019072913000473"},{"poweroffId":2019072913000450,"sgpoweroffId":null,"subsName":"","lineName":"商贸561","pubTranName":"新华奇皮件厂变压器,保定白沟新城华博塑胶制造有限公司变压器,白沟鸿利橡胶发泡厂变压器,变压器,变压器200,0626535131-保定白沟盛祥商业投资有限公司-专变-138773737-盛祥变压器5,0626535131-保定白沟盛祥商业投资有限公司-专变-138792432-盛祥变压器3,0626535131-保定白沟盛祥商业投资有限公司-专变-138792440-盛祥变压器4,李中福,0626535131-保定白沟盛祥商业投资有限公司-专变-138773730-盛祥变压器2,0626535131-保定白沟盛祥商业投资有限公司-专变-138773744-盛祥变压器6,博乐乳胶厂,李虎刚,辛许庄北变压器1,黄克亮,杨洪生,0387442442-京南制罐厂-专变-45278801-京南制罐厂,宏业6,华欣塑料厂,辛许庄北2配电变压器,0626535131-保定白沟盛祥商业投资有限公司-专变-138773721-盛祥变压器1,","scope":"【影响街道/乡镇】白沟镇 【高危重要客户】无 【影响客户】商贸城","startTime":"2019-07-29 08:56:42","stopDate":"2019-07-29 11:30:00","orgNo":"1340612","typeCode":"电网故障停限电","poweroffArea":"【全线路停电】停辛许庄北2配电变压器,0626535131-保定白沟盛祥商业投资有限公司-专变-138773721-盛祥变压器1,新华奇皮件厂变压器,保定白沟新城华博塑胶制造有限公司变压器,白沟鸿利橡胶发泡厂变压器,变压器,变压器200,0626535131-保定白沟盛祥商业投资有限公司-专变-138773737-盛祥变压器5,0626535131-保定白沟盛祥商业投资有限公司-专变-138792432-盛祥变压器3,0626535131-保定白沟盛祥商业投资有限公司-专变-138792440-盛祥变压器4,李中福,0626535131-保定白沟盛祥商业投资有限公司-专变-138773730-盛祥变压器2,0626535131-保定白沟盛祥商业投资有限公司-专变-138773744-盛祥变压器6,博乐乳胶厂,李虎刚,辛许庄北变压器1,黄克亮,杨洪生,华欣塑料厂,0387442442-京南制罐厂-专变-45278801-京南制罐厂,宏业6","poweroffReason":"【停电原因】由于宏业隆分支０７号杆电容器熔断管坏导致１１０ＫＶ南留变电站１０ＫＶ商贸５６１线路全线停电 【变更送电】因抢修进度加快原因，送电时间由１２：００变更为１１：３０ 【发布渠道】通过９５５９８发布","powerTime":"2019-07-29 10:44:24","powerComm":"已送电","subsNo":"","lineNo":"","tgNo":"","tgName":null,"infoStatus":"1","orgName":"国网高碑店市供电公司","typeName":null,"infoStatusName":null,"dateDay":null,"orgNos":null,"nowTime":null,"countyName":null,"streetName":null,"villageName":null,"roadName":null,"communityName":null,"tranName":null,"sdLineName":null,"cityCode":"1340612","cityName":"国网高碑店市供电公司","provinceCode":null,"stopTime":"2019-07-29 11:30:00","powerType":"全部","powerOffArea":"【全线路停电】停辛许庄北2配电变压器,0626535131-保定白沟盛祥商业投资有限公司-专变-138773721-盛祥变压器1,新华奇皮件厂变压器,保定白沟新城华博塑胶制造有限公司变压器,白沟鸿利橡胶发泡厂变压器,变压器,变压器200,0626535131-保定白沟盛祥商业投资有限公司-专变-138773737-盛祥变压器5,0626535131-保定白沟盛祥商业投资有限公司-专变-138792432-盛祥变压器3,0626535131-保定白沟盛祥商业投资有限公司-专变-138792440-盛祥变压器4,李中福,0626535131-保定白沟盛祥商业投资有限公司-专变-138773730-盛祥变压器2,0626535131-保定白沟盛祥商业投资有限公司-专变-138773744-盛祥变压器6,博乐乳胶厂,李虎刚,辛许庄北变压器1,黄克亮,杨洪生,华欣塑料厂,0387442442-京南制罐厂-专变-45278801-京南制罐厂,宏业6","powerOffReason":"【停电原因】由于宏业隆分支０７号杆电容器熔断管坏导致１１０ＫＶ南留变电站１０ＫＶ商贸５６１线路全线停电 【变更送电】因抢修进度加快原因，送电时间由１２：００变更为１１：３０ 【发布渠道】通过９５５９８发布","powerOffId":"2019072913000450"},{"poweroffId":2019072913000446,"sgpoweroffId":null,"subsName":"","lineName":"10kV前卫站573线路","pubTranName":"10kVC498.C499配电室C499配电变压器,","scope":"【影响街道/乡镇】韩庄乡 【高危重要客户】无 【影响客户】韩庄新区","startTime":"2019-07-29 08:49:37","stopDate":"2019-07-29 10:50:52","orgNo":"13406","typeCode":"电网故障停限电","poweroffArea":"【单台区停电】停10kVC498.C499配电室C499配电变压器","poweroffReason":"【停电原因】由于低压保险片烧导致１０ＫＶ前卫变电站５７３线路Ｃ４９９公变台区停电【变更送电】无【发布渠道】通过９５５９８发布","powerTime":"2019-07-29 10:31:44","powerComm":"已送电","subsNo":"","lineNo":"","tgNo":"","tgName":null,"infoStatus":"1","orgName":"保定供电公司","typeName":null,"infoStatusName":null,"dateDay":null,"orgNos":null,"nowTime":null,"countyName":null,"streetName":null,"villageName":null,"roadName":null,"communityName":null,"tranName":null,"sdLineName":null,"cityCode":"13406","cityName":"保定供电公司","provinceCode":null,"stopTime":"2019-07-29 10:50:52","powerType":"全部","powerOffArea":"【单台区停电】停10kVC498.C499配电室C499配电变压器","powerOffReason":"【停电原因】由于低压保险片烧导致１０ＫＶ前卫变电站５７３线路Ｃ４９９公变台区停电【变更送电】无【发布渠道】通过９５５９８发布","powerOffId":"2019072913000446"},{"poweroffId":2019072913000443,"sgpoweroffId":null,"subsName":"","lineName":"解村线515","pubTranName":"解村8号,","scope":"【影响街道/乡镇】户木乡 【高危重要客户】无 【影响客户】解村","startTime":"2019-07-29 10:00:00","stopDate":"2019-07-29 13:00:00","orgNo":"1340605","typeCode":"其他临时停电","poweroffArea":"【单台区停电】停解村8号","poweroffReason":"【停电原因】由于处理紧急缺陷导致３５ＫＶ户木变电站解村５１５线路解村８号公变台区停电 【变更送电】无 【发布渠道】通过９５５９８发布","powerTime":"2019-07-29 12:05:57","powerComm":"已送电","subsNo":"","lineNo":"","tgNo":"","tgName":null,"infoStatus":"1","orgName":"国网徐水县供电公司","typeName":null,"infoStatusName":null,"dateDay":null,"orgNos":null,"nowTime":null,"countyName":null,"streetName":null,"villageName":null,"roadName":null,"communityName":null,"tranName":null,"sdLineName":null,"cityCode":"1340605","cityName":"国网徐水县供电公司","provinceCode":null,"stopTime":"2019-07-29 13:00:00","powerType":"全部","powerOffArea":"【单台区停电】停解村8号","powerOffReason":"【停电原因】由于处理紧急缺陷导致３５ＫＶ户木变电站解村５１５线路解村８号公变台区停电 【变更送电】无 【发布渠道】通过９５５９８发布","powerOffId":"2019072913000443"},{"poweroffId":2019072913000424,"sgpoweroffId":null,"subsName":"","lineName":"10kV526北俱佑线","pubTranName":"油味公用农业29台区,北俱佑公用照明7台区,油味公用农业19台区【纯农排变】,小召公用照明3台区,油味公用农业28台区,小召村公用照明1台区,油味公用农业13台区【纯农排变】,东大召公用照明1台区,大召庄公用照明2台区,东大召公用农业2台区,北俱佑村公用照明2台区,油味公用农业9台区【纯农排变】,赵家庄公用照明5台区,油味公用农业21台区【纯农排变】,油味公用农业16台区【纯农排变】,油味公用农业12台区【纯农排变】,油味公用农业18台区【纯农排变】,北俱佑公用农业6台区【纯农排变】,北俱佑公用照明5台区,北俱佑公用农业13台区,油味公用农业11台区【纯农排变】,东大召公用照明2台区,北俱佑公用农业14台区【纯农排变】,油味公用农业10台区【纯农排变】,油味公用农业24台区【纯农排变】,东大召公用照明3台区,北俱佑公用照明6台区,北俱佑公用照明4台区,小召村公用照明2台区,油味公用农业14台区,油味公用农业17台区,北俱佑村公用照明1台区,油味公用农业8台区【纯农排变】,油味公用农业27台区【纯农排变】,大召庄公用照明1台区,油味公用农业20台区【纯农排变】,东大召公用农业1台区【纯农排变】,北俱佑公用农业15台区【纯农排变】,北俱佑村公用照明3台区,油味公用农业15台区【纯农排变】,小召公用照明4台区,","scope":"【影响街道/乡镇】李亲顾镇【高危重要客户】无【影响客户】北俱佑、大召庄、东大召、小召、油味","startTime":"2019-07-29 08:36:02","stopDate":"2019-07-29 15:30:00","orgNo":"1340610","typeCode":"电网故障停限电","poweroffArea":"【全线路停电】停油味公用农业21台区【纯农排变】,油味公用农业27台区【纯农排变】,油味公用农业20台区【纯农排变】,北俱佑公用农业14台区【纯农排变】,北俱佑公用照明7台区,北俱佑公用农业13台区,北俱佑村公用照明3台区,北俱佑村公用照明2台区,北俱佑公用照明4台区,北俱佑公用照明6台区,北俱佑村公用照明1台区,北俱佑公用照明5台区,北俱佑公用农业15台区【纯农排变】,北俱佑公用农业6台区【纯农排变】,大召庄公用照明2台区,大召庄公用照明1台区,东大召公用农业1台区【纯农排变】,东大召公用照明2台区,东大召公用农业2台区,东大召公用照明1台区,","poweroffReason":"【停电原因】由于恶劣天气北俱佑１分支０７号杆雷击断线导致１１０ＫＶ李亲顾变电站１０ＫＶ５２６北俱佑线路全线停电 【变更送电】因抢修进度量大原因，送电时间由２２：００变更１５：３０ 【发布渠道】９５５９８","powerTime":"2019-07-29 15:24:00","powerComm":"已送电","subsNo":"","lineNo":"","tgNo":"","tgName":null,"infoStatus":"1","orgName":"国网定州市供电公司","typeName":null,"infoStatusName":null,"dateDay":null,"orgNos":null,"nowTime":null,"countyName":null,"streetName":null,"villageName":null,"roadName":null,"communityName":null,"tranName":null,"sdLineName":null,"cityCode":"1340610","cityName":"国网定州市供电公司","provinceCode":null,"stopTime":"2019-07-29 15:30:00","powerType":"全部","powerOffArea":"【全线路停电】停油味公用农业21台区【纯农排变】,油味公用农业27台区【纯农排变】,油味公用农业20台区【纯农排变】,北俱佑公用农业14台区【纯农排变】,北俱佑公用照明7台区,北俱佑公用农业13台区,北俱佑村公用照明3台区,北俱佑村公用照明2台区,北俱佑公用照明4台区,北俱佑公用照明6台区,北俱佑村公用照明1台区,北俱佑公用照明5台区,北俱佑公用农业15台区【纯农排变】,北俱佑公用农业6台区【纯农排变】,大召庄公用照明2台区,大召庄公用照明1台区,东大召公用农业1台区【纯农排变】,东大召公用照明2台区,东大召公用农业2台区,东大召公用照明1台区,","powerOffReason":"【停电原因】由于恶劣天气北俱佑１分支０７号杆雷击断线导致１１０ＫＶ李亲顾变电站１０ＫＶ５２６北俱佑线路全线停电 【变更送电】因抢修进度量大原因，送电时间由２２：００变更１５：３０ 【发布渠道】９５５９８","powerOffId":"2019072913000424"},{"poweroffId":2019072913000420,"sgpoweroffId":null,"subsName":"","lineName":"10kV515留宿东线","pubTranName":"留宿公用照明10台区,留宿村公用照明6台区,留宿村公用照明7台区,定州市飞红金属网有限公司,留宿村公用照明3台区,定州市东方五金制品有限公司变压器,留宿公用农业14台区【纯农排变】,0649702222-定州市万盛金属制品有限公司-专变-174457268-定州市电力金属丝网有限公司变压器,定州市瑞昌金属制品厂变压器,定州市怡康金属制品有限公司变压器,客户投资_留宿村公用照明5台区,定州市鑫炎铸造厂变压器,定州市飞红金属网有限公司变压器,留宿公用照明11台区,留宿公用农业12台区【纯农排变】,留宿村公用照明4台区,留宿公用农业1台区【纯农排变】,0619627139-定州市汇通金属制品有限公司-专变-169310765-定州市宝弘金属制品有限公司变压器,留宿公用照明12台区,成海军,留宿公用照明13台区,定州市恒瑞网栏有限公司变压器,定州市鑫东城金属制品有限公司变压器,良培京,成军良,定州市旭丰网业有限公司变压器,留宿公用农业6台区【纯农排变】,留宿北河二,定州市鑫丰金属制品有限公司变压器,定州市联鑫金属制品有限公司变压器,定州市伟利金属制品有限公司变压器,定州市星亚金属制品有限公司,留宿村公用照明8台区,0619627139-定州市汇通金属制品有限公司-专变-128987131-定州市宝弘金属制品有限公司变压器,定州市弘利金属制品厂变压器,留宿公用农业13台区【纯农排变】,","scope":"【影响街道/乡镇】李亲顾镇【高危重要客户】无【影响客户】留宿","startTime":"2019-07-29 08:33:43","stopDate":"2019-07-29 12:30:00","orgNo":"1340610","typeCode":"电网故障停限电","poweroffArea":"【全线路停电】停定州市怡康金属制品有限公司变压器,留宿公用农业12台区【纯农排变】,留宿村公用照明4台区,定州市鑫东城金属制品有限公司变压器,良培京,成军良,定州市旭丰网业有限公司变压器,留宿公用农业6台区【纯农排变】,留宿北河二,定州市瑞昌金属制品厂变压器,0619627139-定州市汇通金属制品有限公司-专变-169310765-定州市宝弘金属制品有限公司变压器,定州市鑫丰金属制品有限公司变压器,定州市联鑫金属制品有限公司变压器,定州市伟利金属制品有限公司变压器,定州市星亚金属制品有限公司,0619627139-定州市汇通金属制品有限公司-专变-128987131-定州市宝弘金属制品有限公司变压器,定州市弘利金属制品厂变压器,留宿公用农业13台区【纯农排变】,留宿公用照明12台区,成海军,留宿公用照明13台区,定州市恒瑞网栏有限公司变压器,留宿公用照明10台区,留宿村公用照明6台区,留宿村公用照明7台区,定州市飞红金属网有限公司,留宿村公用照明8台区,留宿村公用照明3台区,定州市东方五金制品有限公司变压器,留宿公用农业14台区【纯农排变】,0649702222-定州市万盛金属制品有限公司-专变-174457268-定州市电力金属丝网有限公司变压器,客户投资_留宿村公用照明5台区,留宿公用农业1台区【纯农排变】,定州市鑫炎铸造厂变压器,定州市飞红金属网有限公司变压器,留宿公用照明11台区","poweroffReason":"【停电原因】由于主干３６号杆弓子线烧毁导致１１０ＫＶ李亲顾变电站１０ＫＶ５１５留宿东线路全线停电 【变更送电】因抢修进度加快原因，送电时间由２０：００变更为１２：３０ 【发布渠道】９５５９８","powerTime":"2019-07-29 12:00:47","powerComm":"已送电","subsNo":"","lineNo":"","tgNo":"","tgName":null,"infoStatus":"1","orgName":"国网定州市供电公司","typeName":null,"infoStatusName":null,"dateDay":null,"orgNos":null,"nowTime":null,"countyName":null,"streetName":null,"villageName":null,"roadName":null,"communityName":null,"tranName":null,"sdLineName":null,"cityCode":"1340610","cityName":"国网定州市供电公司","provinceCode":null,"stopTime":"2019-07-29 12:30:00","powerType":"全部","powerOffArea":"【全线路停电】停定州市怡康金属制品有限公司变压器,留宿公用农业12台区【纯农排变】,留宿村公用照明4台区,定州市鑫东城金属制品有限公司变压器,良培京,成军良,定州市旭丰网业有限公司变压器,留宿公用农业6台区【纯农排变】,留宿北河二,定州市瑞昌金属制品厂变压器,0619627139-定州市汇通金属制品有限公司-专变-169310765-定州市宝弘金属制品有限公司变压器,定州市鑫丰金属制品有限公司变压器,定州市联鑫金属制品有限公司变压器,定州市伟利金属制品有限公司变压器,定州市星亚金属制品有限公司,0619627139-定州市汇通金属制品有限公司-专变-128987131-定州市宝弘金属制品有限公司变压器,定州市弘利金属制品厂变压器,留宿公用农业13台区【纯农排变】,留宿公用照明12台区,成海军,留宿公用照明13台区,定州市恒瑞网栏有限公司变压器,留宿公用照明10台区,留宿村公用照明6台区,留宿村公用照明7台区,定州市飞红金属网有限公司,留宿村公用照明8台区,留宿村公用照明3台区,定州市东方五金制品有限公司变压器,留宿公用农业14台区【纯农排变】,0649702222-定州市万盛金属制品有限公司-专变-174457268-定州市电力金属丝网有限公司变压器,客户投资_留宿村公用照明5台区,留宿公用农业1台区【纯农排变】,定州市鑫炎铸造厂变压器,定州市飞红金属网有限公司变压器,留宿公用照明11台区","powerOffReason":"【停电原因】由于主干３６号杆弓子线烧毁导致１１０ＫＶ李亲顾变电站１０ＫＶ５１５留宿东线路全线停电 【变更送电】因抢修进度加快原因，送电时间由２０：００变更为１２：３０ 【发布渠道】９５５９８","powerOffId":"2019072913000420"}],"pageModel":{"pageNow":747,"totalCount":10973,"totalPage":1098,"tableRows":0,"pageCount":10,"beginCount":7460},"isExperi":"1"}