{"message":"","today":"2020-06-15","seleList":[{"poweroffId":2019072913000146,"sgpoweroffId":null,"subsName":"","lineName":"10kV阮庄站527线路","pubTranName":"0555487758-保定市升源机械铸造有限公司-2-配电室,0356234874-保定市南市区通达化工厂-专变,0356228107-河北省荣军医院-1#专变,B1801柱上变压器,0356228107-河北省荣军医院-4#专变,0356234861-保定市远景高新技术有限公司-1-配电室-变压器-1,0356377391-保定市沧龙不锈钢精密铸造有限公司-专变,0356174556-保定同鑫机械配件有限公司-专变,0357701966-保定市东利机械制造有限公司-1-配电室-变压器-1,B1800柱上变压器,0356228107-河北省荣军医院-5#专变,0356228107-河北省荣军医院-2#专变,0356234858-保定市金诺酒业有限公司-1-配电室-变压器-1,变压器,0356228107-河北省荣军医院-6#专变,B1803柱上变压器,0356338967-保定市立中燃料有限公司-1-配电室-变压器-1,0356230146-中国石油化工股份有限公司河北保定石油分公司-1-箱式变-变压器-1,0356233028-66131部队-专变,0356230654-河北省保定劳教所-1#专变,0651721066-保定市宝龙堂日用品有限公司-专变-177362001-变压器,0555487758-保定市升源机械铸造有限公司-3-配电室,0356337560-保定市远景高新技术有限公司-1-配电室-变压器-1,0356230654-河北省保定劳教所-2#专变,0555487758-保定市升源机械铸造有限公司-3#专变,0356228107-河北省荣军医院-3#专变,0357528312-保定市沧龙不锈钢精密铸造有限公司-专变,0356230931-66131部队-专变,0356228093-保定市基泰建筑有限公司-专变,","scope":"【影响街道/乡镇】莲池南大街、荣校路 【高危重要客户】无 【影响客户】枫林花溪、荣校、荣军医院、石油库、莲池南大街２３９６号院、劳教所、风航蓄电池、中铁家园","startTime":"2019-07-29 02:28:13","stopDate":"2019-07-29 05:00:00","orgNo":"13406","typeCode":"电网故障停限电","poweroffArea":"【全线路停电】停0555487758-保定市升源机械铸造有限公司-3-配电室,0356233028-66131部队-专变,0555487758-保定市升源机械铸造有限公司-2-配电室,0555487758-保定市升源机械铸造有限公司-3#专变,B1800柱上变压器,0356174556-保定同鑫机械配件有限公司-专变,0356228107-河北省荣军医院-6#专变,B1803柱上变压器,0356338967-保定市立中燃料有限公司-1-配电室-变压器-1,0651721066-保定市宝龙堂日用品有限公司-专变-177362001-变压器,0356228093-保定市基泰建筑有限公司-专变,B1801柱上变压器,0357528312-保定市沧龙不锈钢精密铸造有限公司-专变,0356228107-河北省荣军医院-2#专变,0357701966-保定市东利机械制造有限公司-1-配电室-变压器-1,0356234874-保定市南市区通达化工厂-专变,变压器,0356234861-保定市远景高新技术有限公司-1-配电室-变压器-1,0356228107-河北省荣军医院-1#专变,0356230931-66131部队-专变,0356228107-河北省荣军医院-4#专变,0356228107-河北省荣军医院-3#专变,0356337560-保定市远景高新技术有限公司-1-配电室-变压器-1,0356228107-河北省荣军医院-5#专变,0356230654-河北省保定劳教所-1#专变,0356230654-河北省保定劳教所-2#专变,0356234858-保定市金诺酒业有限公司-1-配电室-变压器-1,0356377391-保定市沧龙不锈钢精密铸造有限公司-专变,0356230146-中国石油化工股份有限公司河北保定石油分公司-1-箱式变-变压器-1","poweroffReason":"【停电原因】由于过流跳闸导致１０ＫＶ阮庄变电站５２７线路全线停电【变更送电】因抢修进度加快，原定07:00送电现计划05:00送电【发布渠道】通过９５５９８发布","powerTime":"2019-07-29 04:42:45","powerComm":"已送电","subsNo":"","lineNo":"","tgNo":"","tgName":null,"infoStatus":"1","orgName":"保定供电公司","typeName":null,"infoStatusName":null,"dateDay":null,"orgNos":null,"nowTime":null,"countyName":null,"streetName":null,"villageName":null,"roadName":null,"communityName":null,"tranName":null,"sdLineName":null,"cityCode":"13406","cityName":"保定供电公司","provinceCode":null,"stopTime":"2019-07-29 05:00:00","powerType":"全部","powerOffArea":"【全线路停电】停0555487758-保定市升源机械铸造有限公司-3-配电室,0356233028-66131部队-专变,0555487758-保定市升源机械铸造有限公司-2-配电室,0555487758-保定市升源机械铸造有限公司-3#专变,B1800柱上变压器,0356174556-保定同鑫机械配件有限公司-专变,0356228107-河北省荣军医院-6#专变,B1803柱上变压器,0356338967-保定市立中燃料有限公司-1-配电室-变压器-1,0651721066-保定市宝龙堂日用品有限公司-专变-177362001-变压器,0356228093-保定市基泰建筑有限公司-专变,B1801柱上变压器,0357528312-保定市沧龙不锈钢精密铸造有限公司-专变,0356228107-河北省荣军医院-2#专变,0357701966-保定市东利机械制造有限公司-1-配电室-变压器-1,0356234874-保定市南市区通达化工厂-专变,变压器,0356234861-保定市远景高新技术有限公司-1-配电室-变压器-1,0356228107-河北省荣军医院-1#专变,0356230931-66131部队-专变,0356228107-河北省荣军医院-4#专变,0356228107-河北省荣军医院-3#专变,0356337560-保定市远景高新技术有限公司-1-配电室-变压器-1,0356228107-河北省荣军医院-5#专变,0356230654-河北省保定劳教所-1#专变,0356230654-河北省保定劳教所-2#专变,0356234858-保定市金诺酒业有限公司-1-配电室-变压器-1,0356377391-保定市沧龙不锈钢精密铸造有限公司-专变,0356230146-中国石油化工股份有限公司河北保定石油分公司-1-箱式变-变压器-1","powerOffReason":"【停电原因】由于过流跳闸导致１０ＫＶ阮庄变电站５２７线路全线停电【变更送电】因抢修进度加快，原定07:00送电现计划05:00送电【发布渠道】通过９５５９８发布","powerOffId":"2019072913000146"},{"poweroffId":2019072913000144,"sgpoweroffId":null,"subsName":"","lineName":"10kV阮庄站513线路","pubTranName":"0356233855-保定新味康食品配料有限公司-专变-169908320-变压器,0356235936-保定市南苑娱乐城-专变,0357927379-保定市力远管件加工有限公司-1-配电室-变压器-1,0572542869-保定市运输总公司八公司-专变,0357665206-保定市沃尔精制阀门有限公司-1-配电室-变压器-1,0652928093-保定市俊芝冷冻有限公司,0356344256-保定市伟达电业安装有限公司-专变,0356335346-保定市远坤精密铸造有限公司-1-配电室-变压器-1,0357730474-保定市南市区卫东机械加工厂-1-配电室-变压器-1,0356295437-保定市南市区好滋味肉食加工厂-1-配电室-变压器-1,0356230625-保定市华远变压器油制造有限公司,","scope":"【影响街道/乡镇】阮庄路 【高危重要客户】无 【影响客户】卫东机械加工厂、好滋味肉食加工厂、沃尔精制阀门有限公司、远坤精密铸造有限公司、运输总公司八公司、南苑娱乐城、力远管件加工有限公司、硕丰管件制造有限公司、新味康食品配料有限公司、康信、北方铜业、东红挂车、宏伟铝加工厂、鹏城保鲜、俊芝冷冻有限公司、华远、朱庄村","startTime":"2019-07-29 02:18:42","stopDate":"2019-07-29 05:00:00","orgNo":"13406","typeCode":"电网故障停限电","poweroffArea":"【全线路停电】停0357665206-保定市沃尔精制阀门有限公司-1-配电室-变压器-1,0356335346-保定市远坤精密铸造有限公司-1-配电室-变压器-1,0572542869-保定市运输总公司八公司-专变,0356235936-保定市南苑娱乐城-专变,0357927379-保定市力远管件加工有限公司-1-配电室-变压器-1,0652928093-保定市俊芝冷冻有限公司,0356344256-保定市伟达电业安装有限公司-专变,0357730474-保定市南市区卫东机械加工厂-1-配电室-变压器-1,0356233855-保定新味康食品配料有限公司-专变-169908320-变压器,0356230625-保定市华远变压器油制造有限公司,0356295437-保定市南市区好滋味肉食加工厂-1-配电室-变压器-1","poweroffReason":"【停电原因】由于用户设备原因导致１０ＫＶ阮庄变电站５１３线路全线停电【变更送电】因抢修进度加快，原定07:00送电现计划05:00送电【发布渠道】通过９５５９８发布","powerTime":"2019-07-29 04:43:11","powerComm":"已送电","subsNo":"","lineNo":"","tgNo":"","tgName":null,"infoStatus":"1","orgName":"保定供电公司","typeName":null,"infoStatusName":null,"dateDay":null,"orgNos":null,"nowTime":null,"countyName":null,"streetName":null,"villageName":null,"roadName":null,"communityName":null,"tranName":null,"sdLineName":null,"cityCode":"13406","cityName":"保定供电公司","provinceCode":null,"stopTime":"2019-07-29 05:00:00","powerType":"全部","powerOffArea":"【全线路停电】停0357665206-保定市沃尔精制阀门有限公司-1-配电室-变压器-1,0356335346-保定市远坤精密铸造有限公司-1-配电室-变压器-1,0572542869-保定市运输总公司八公司-专变,0356235936-保定市南苑娱乐城-专变,0357927379-保定市力远管件加工有限公司-1-配电室-变压器-1,0652928093-保定市俊芝冷冻有限公司,0356344256-保定市伟达电业安装有限公司-专变,0357730474-保定市南市区卫东机械加工厂-1-配电室-变压器-1,0356233855-保定新味康食品配料有限公司-专变-169908320-变压器,0356230625-保定市华远变压器油制造有限公司,0356295437-保定市南市区好滋味肉食加工厂-1-配电室-变压器-1","powerOffReason":"【停电原因】由于用户设备原因导致１０ＫＶ阮庄变电站５１３线路全线停电【变更送电】因抢修进度加快，原定07:00送电现计划05:00送电【发布渠道】通过９５５９８发布","powerOffId":"2019072913000144"},{"poweroffId":2019072913000130,"sgpoweroffId":null,"subsName":"","lineName":"10KV十八局524","pubTranName":"下胡良村北,","scope":"【影响街道/乡镇】东仙坡镇 【高危重要客户】无 【影响客户】下胡良村","startTime":"2019-07-29 02:07:32","stopDate":"2019-07-29 04:10:00","orgNo":"1340626","typeCode":"电网故障停限电","poweroffArea":"【单台区停电】停下胡良村北","poweroffReason":"【停电原因】由于低压空开烧毁导致１１０ＫＶ下胡良变电站１０ＫＶ十八局５２４线路下胡良村北公变台区停电 【变更送电】因抢修进度加快原因，送电时间由２３：００变更为０４：１０ 【发布渠道】通过９５５９８发布","powerTime":"2019-07-29 03:40:49","powerComm":"恢复送电","subsNo":"","lineNo":"","tgNo":"","tgName":null,"infoStatus":"1","orgName":"国网涿州市供电公司","typeName":null,"infoStatusName":null,"dateDay":null,"orgNos":null,"nowTime":null,"countyName":null,"streetName":null,"villageName":null,"roadName":null,"communityName":null,"tranName":null,"sdLineName":null,"cityCode":"1340626","cityName":"国网涿州市供电公司","provinceCode":null,"stopTime":"2019-07-29 04:10:00","powerType":"全部","powerOffArea":"【单台区停电】停下胡良村北","powerOffReason":"【停电原因】由于低压空开烧毁导致１１０ＫＶ下胡良变电站１０ＫＶ十八局５２４线路下胡良村北公变台区停电 【变更送电】因抢修进度加快原因，送电时间由２３：００变更为０４：１０ 【发布渠道】通过９５５９８发布","powerOffId":"2019072913000130"},{"poweroffId":2019072913000127,"sgpoweroffId":null,"subsName":"","lineName":"10KV北坛516","pubTranName":"东大街北口,","scope":"【影响街道/乡镇】双塔城区东大街 【高危重要客户】无 【影响客户】东大街两侧商铺","startTime":"2019-07-29 02:06:18","stopDate":"2019-07-29 05:10:00","orgNo":"1340626","typeCode":"电网故障停限电","poweroffArea":"【单台区停电】停东大街北口","poweroffReason":"【停电原因】由于低压空开烧毁导致１１０ＫＶ下胡良变电站１０ＫＶ北坛５１６线路东大街北口公变台区停电 【变更送电】因抢修进度加快原因，送电时间由２３：００变更为０５：１０ 【发布渠道】通过９５５９８发布","powerTime":"2019-07-29 04:44:01","powerComm":"恢复送电","subsNo":"","lineNo":"","tgNo":"","tgName":null,"infoStatus":"1","orgName":"国网涿州市供电公司","typeName":null,"infoStatusName":null,"dateDay":null,"orgNos":null,"nowTime":null,"countyName":null,"streetName":null,"villageName":null,"roadName":null,"communityName":null,"tranName":null,"sdLineName":null,"cityCode":"1340626","cityName":"国网涿州市供电公司","provinceCode":null,"stopTime":"2019-07-29 05:10:00","powerType":"全部","powerOffArea":"【单台区停电】停东大街北口","powerOffReason":"【停电原因】由于低压空开烧毁导致１１０ＫＶ下胡良变电站１０ＫＶ北坛５１６线路东大街北口公变台区停电 【变更送电】因抢修进度加快原因，送电时间由２３：００变更为０５：１０ 【发布渠道】通过９５５９８发布","powerOffId":"2019072913000127"},{"poweroffId":2019072913000124,"sgpoweroffId":null,"subsName":"","lineName":"10KV计算机站522","pubTranName":"西坛村东4434【纯农排变】,","scope":"【影响街道/乡镇】双塔城区 【高危重要客户】无 【影响客户】西坛村","startTime":"2019-07-29 02:04:09","stopDate":"2019-07-29 10:00:00","orgNo":"1340626","typeCode":"电网故障停限电","poweroffArea":"【单台区停电】停西坛村东4434【纯农排变】","poweroffReason":"【停电原因】由于低压电缆烧毁导致１１０ＫＶ涿县变电站１０ＫＶ计算机站５２２线路西坛村东４４３４公变台区停电 【变更送电】因抢修进度加快原因，送电时间由２３：００变更为１０：００ 【发布渠道】通过９５５９８发布","powerTime":"2019-07-29 09:39:15","powerComm":"恢复送电","subsNo":"","lineNo":"","tgNo":"","tgName":null,"infoStatus":"1","orgName":"国网涿州市供电公司","typeName":null,"infoStatusName":null,"dateDay":null,"orgNos":null,"nowTime":null,"countyName":null,"streetName":null,"villageName":null,"roadName":null,"communityName":null,"tranName":null,"sdLineName":null,"cityCode":"1340626","cityName":"国网涿州市供电公司","provinceCode":null,"stopTime":"2019-07-29 10:00:00","powerType":"全部","powerOffArea":"【单台区停电】停西坛村东4434【纯农排变】","powerOffReason":"【停电原因】由于低压电缆烧毁导致１１０ＫＶ涿县变电站１０ＫＶ计算机站５２２线路西坛村东４４３４公变台区停电 【变更送电】因抢修进度加快原因，送电时间由２３：００变更为１０：００ 【发布渠道】通过９５５９８发布","powerOffId":"2019072913000124"},{"poweroffId":2019072913000120,"sgpoweroffId":null,"subsName":"","lineName":"10kV流各庄513线","pubTranName":"马村内东综合3,固显综合8变压器,甄庄综合1台区变压器,马庄农业3台区变压器【纯农排变】,保定飞龙连轴器厂,米庄农业3台区变压器【纯农排变】,流各庄村西农业变压器【纯农排变】,固显内中综合7台区配变,马村农业1台区变压器【纯农排变】,固显保定冶化,固显农业3台区变压器,流各庄东东农业8台区变压器【纯农排变】,甄庄综合2台区变压器,固显内西北综合4,河北飞鸿泵业有限公司,石庄农业2台区变压器【纯农排变】,马庄村北农业4,马庄综合2台区变压器,固显村北农业8台区,流各庄农业3台区变压器【纯农排变】,甄庄村东农业1台区,甄庄内北南综合7,固显内西南综合5,马庄内东北综合3,马村综合1台区变压器,米庄综合1台区变压器,固显内东南综合1台区变压器,甄庄综合3台区变压器,甄庄村北农业7台区,马村南南农业2台区变压器【纯农排变】,甄庄综合8柱上变压器,马村综合2台区变压器,固显综合2台区变压器,流各庄综合5台区变压器,马村农业3台区变压器【纯农排变】,米庄综合4台区变压器,马庄综合4台区变压器,固显农业2台区变压器,流各庄综合1台区变压器,米庄综合2台区变压器,甄庄东南农业4台区,流各庄东80台区变压器【纯农排变】,流各庄内东综合4,马庄农业1台区变压器【纯农排变】,马村西南农业4台区【纯农排变】,固显北80台区变压器,甄庄农业2台区变压器,甄庄农业3台区变压器,甄庄综合4台区变压器,甄庄农业6台区变压器,固显农业4台区变压器,流各庄农业1台区变压器【纯农排变】,石庄农业1台区变压器【纯农排变】,甄庄内中西综合6,固显内西综合台区变压器,流各庄农业7台区变压器【纯农排变】,流各庄内西北综合3,甄庄内东综合5,固显农业7台区变压器,流各庄综合2台区变压器,马庄西南农业2台区变压器【纯农排变】,石庄综合1,固显农业1台区变压器,米庄综合3,米庄东西综合3台区变压器,保定飞龙联轴器有限公司,固显内东农业5台区变压器,马庄综合1台区变压器,","scope":"【影响街道/乡镇】西安国城乡 【高危重要客户】无 【影响客户】米庄村、固显村、甄庄村、马庄村、石庄村、东街村","startTime":"2019-07-29 02:00:00","stopDate":"2019-07-29 08:00:00","orgNo":"1340606","typeCode":"电网故障停限电","poweroffArea":"【全线路停电】停固显内西北综合4,流各庄农业3台区变压器【纯农排变】,流各庄内西北综合3,甄庄东南农业4台区,马庄农业1台区变压器【纯农排变】,石庄农业1台区变压器【纯农排变】,米庄农业3台区变压器【纯农排变】,马村西南农业4台区【纯农排变】,石庄农业2台区变压器【纯农排变】,马庄综合1台区变压器,甄庄综合2台区变压器,马庄农业3台区变压器【纯农排变】,甄庄内北南综合7,流各庄内东综合4,米庄综合3,固显内中综合7台区配变,甄庄综合4台区变压器,保定飞龙连轴器厂,流各庄农业1台区变压器【纯农排变】,保定飞龙联轴器有限公司,固显北80台区变压器,流各庄东东农业8台区变压器【纯农排变】,石庄综合1,固显综合2台区变压器,流各庄村西农业变压器【纯农排变】,马庄内东北综合3,固显保定冶化,固显综合8变压器,固显农业4台区变压器,流各庄综合5台区变压器,马村农业3台区变压器【纯农排变】,流各庄综合2台区变压器,流各庄农业7台区变压器【纯农排变】,甄庄农业3台区变压器,米庄综合1台区变压器,米庄综合2台区变压器,固显农业3台区变压器,固显内东南综合1台区变压器,米庄综合4台区变压器,流各庄东80台区变压器【纯农排变】,甄庄农业2台区变压器,甄庄农业6台区变压器,甄庄村东农业1台区,马村综合2台区变压器,马庄综合4台区变压器,流各庄综合1台区变压器,甄庄综合3台区变压器,固显内东农业5台区变压器,马村农业1台区变压器【纯农排变】,马村内东综合3,甄庄综合8柱上变压器,甄庄内中西综合6,固显农业7台区变压器,马庄综合2台区变压器,固显村北农业8台区,固显农业1台区变压器,固显农业2台区变压器,固显内西综合台区变压器,甄庄综合1台区变压器,马村综合1台区变压器,马庄村北农业4,马村南南农业2台区变压器【纯农排变】,米庄东西综合3台区变压器,固显内西南综合5,甄庄村北农业7台区,甄庄内东综合5,马庄西南农业2台区变压器【纯农排变】,河北飞鸿泵业有限公司","poweroffReason":"【停电原因】由于站内开关掉闸导致３５ＫＶ庞各庄变电站１０ＫＶ流各庄５１３线路全线停电 【变更送电】因抢修进度加快原因，送电时间由９：００变更为８：００ 【发布渠道】通过９５５９８发布","powerTime":"2019-07-29 07:22:51","powerComm":"已送电","subsNo":"","lineNo":"","tgNo":"","tgName":null,"infoStatus":"1","orgName":"国网安国市供电公司","typeName":null,"infoStatusName":null,"dateDay":null,"orgNos":null,"nowTime":null,"countyName":null,"streetName":null,"villageName":null,"roadName":null,"communityName":null,"tranName":null,"sdLineName":null,"cityCode":"1340606","cityName":"国网安国市供电公司","provinceCode":null,"stopTime":"2019-07-29 08:00:00","powerType":"全部","powerOffArea":"【全线路停电】停固显内西北综合4,流各庄农业3台区变压器【纯农排变】,流各庄内西北综合3,甄庄东南农业4台区,马庄农业1台区变压器【纯农排变】,石庄农业1台区变压器【纯农排变】,米庄农业3台区变压器【纯农排变】,马村西南农业4台区【纯农排变】,石庄农业2台区变压器【纯农排变】,马庄综合1台区变压器,甄庄综合2台区变压器,马庄农业3台区变压器【纯农排变】,甄庄内北南综合7,流各庄内东综合4,米庄综合3,固显内中综合7台区配变,甄庄综合4台区变压器,保定飞龙连轴器厂,流各庄农业1台区变压器【纯农排变】,保定飞龙联轴器有限公司,固显北80台区变压器,流各庄东东农业8台区变压器【纯农排变】,石庄综合1,固显综合2台区变压器,流各庄村西农业变压器【纯农排变】,马庄内东北综合3,固显保定冶化,固显综合8变压器,固显农业4台区变压器,流各庄综合5台区变压器,马村农业3台区变压器【纯农排变】,流各庄综合2台区变压器,流各庄农业7台区变压器【纯农排变】,甄庄农业3台区变压器,米庄综合1台区变压器,米庄综合2台区变压器,固显农业3台区变压器,固显内东南综合1台区变压器,米庄综合4台区变压器,流各庄东80台区变压器【纯农排变】,甄庄农业2台区变压器,甄庄农业6台区变压器,甄庄村东农业1台区,马村综合2台区变压器,马庄综合4台区变压器,流各庄综合1台区变压器,甄庄综合3台区变压器,固显内东农业5台区变压器,马村农业1台区变压器【纯农排变】,马村内东综合3,甄庄综合8柱上变压器,甄庄内中西综合6,固显农业7台区变压器,马庄综合2台区变压器,固显村北农业8台区,固显农业1台区变压器,固显农业2台区变压器,固显内西综合台区变压器,甄庄综合1台区变压器,马村综合1台区变压器,马庄村北农业4,马村南南农业2台区变压器【纯农排变】,米庄东西综合3台区变压器,固显内西南综合5,甄庄村北农业7台区,甄庄内东综合5,马庄西南农业2台区变压器【纯农排变】,河北飞鸿泵业有限公司","powerOffReason":"【停电原因】由于站内开关掉闸导致３５ＫＶ庞各庄变电站１０ＫＶ流各庄５１３线路全线停电 【变更送电】因抢修进度加快原因，送电时间由９：００变更为８：００ 【发布渠道】通过９５５９８发布","powerOffId":"2019072913000120"},{"poweroffId":2019072913000119,"sgpoweroffId":null,"subsName":"","lineName":"10KV刁窝538","pubTranName":"刁一村西增,","scope":"【影响街道/乡镇】刁窝乡 【高危重要客户】无 【影响客户】刁一","startTime":"2019-07-29 02:02:42","stopDate":"2019-07-29 10:00:00","orgNo":"1340626","typeCode":"电网故障停限电","poweroffArea":"【单台区停电】停刁一村西增","poweroffReason":"【停电原因】由于低压空开烧毁导致１１０ＫＶ刁窝变电站１０ＫＶ刁窝５３８线路刁一村西增公变台区停电 【变更送电】因抢修进度加快原因，送电时间由２３：００变更为１０：００ 【发布渠道】通过９５５９８发布","powerTime":"2019-07-29 09:33:01","powerComm":"恢复送电","subsNo":"","lineNo":"","tgNo":"","tgName":null,"infoStatus":"1","orgName":"国网涿州市供电公司","typeName":null,"infoStatusName":null,"dateDay":null,"orgNos":null,"nowTime":null,"countyName":null,"streetName":null,"villageName":null,"roadName":null,"communityName":null,"tranName":null,"sdLineName":null,"cityCode":"1340626","cityName":"国网涿州市供电公司","provinceCode":null,"stopTime":"2019-07-29 10:00:00","powerType":"全部","powerOffArea":"【单台区停电】停刁一村西增","powerOffReason":"【停电原因】由于低压空开烧毁导致１１０ＫＶ刁窝变电站１０ＫＶ刁窝５３８线路刁一村西增公变台区停电 【变更送电】因抢修进度加快原因，送电时间由２３：００变更为１０：００ 【发布渠道】通过９５５９８发布","powerOffId":"2019072913000119"},{"poweroffId":2019072913000111,"sgpoweroffId":null,"subsName":"","lineName":"10KV石佛533","pubTranName":"东里池村南2316,","scope":"【影响街道/乡镇】东城坊镇 【高危重要客户】无 【影响客户】东里池","startTime":"2019-07-29 02:00:03","stopDate":"2019-07-29 11:00:00","orgNo":"1340626","typeCode":"电网故障停限电","poweroffArea":"【单台区停电】停东里池村南2316","poweroffReason":"【停电原因】由于低压空开烧毁导致１１０ＫＶ宋营变电站１０ＫＶ石佛５３３线路东里池村南２３１６公变台区停电 【变更送电】因抢修进度加快原因，送电时间由２３：００变更为１１：００ 【发布渠道】通过９５５９８发布","powerTime":"2019-07-29 10:30:24","powerComm":"恢复送电","subsNo":"","lineNo":"","tgNo":"","tgName":null,"infoStatus":"1","orgName":"国网涿州市供电公司","typeName":null,"infoStatusName":null,"dateDay":null,"orgNos":null,"nowTime":null,"countyName":null,"streetName":null,"villageName":null,"roadName":null,"communityName":null,"tranName":null,"sdLineName":null,"cityCode":"1340626","cityName":"国网涿州市供电公司","provinceCode":null,"stopTime":"2019-07-29 11:00:00","powerType":"全部","powerOffArea":"【单台区停电】停东里池村南2316","powerOffReason":"【停电原因】由于低压空开烧毁导致１１０ＫＶ宋营变电站１０ＫＶ石佛５３３线路东里池村南２３１６公变台区停电 【变更送电】因抢修进度加快原因，送电时间由２３：００变更为１１：００ 【发布渠道】通过９５５９８发布","powerOffId":"2019072913000111"},{"poweroffId":2019072913000107,"sgpoweroffId":null,"subsName":"","lineName":"万里516线路","pubTranName":"西沟1208变压器,万里小学7105变压器,北大洋小学7114变压器,大长峪小学7110变压器,0671194725-于学良-专变-212150932-于学良,大长峪4653变压器,唐县保毅矿业有限公司3436,大长峪5237变压器【纯农排变】,唐县峡谷游乐场10KV配变,蔡庄村浇地变压器1270【纯农排变】,大长峪村北1211变压器,万里6076变压器,西岳口3321变压器,东岳口2008,吕家庄河南1205变压器,西岳口1203变压器,吕家庄4058变压器,大长峪4679变压器,唐县誉华酒店有限公司7792,万里水4734变压器【纯农排变】,蔡庄4197变压器,北大洋4965变压器,北岗北村南1220变压器,东岳口4880变压器,郑家庄6077变压器,唐县大洋乡郑家庄村村民委员会,东岳口小学7109变压器,大长峪5236变压器,郑家庄3264变压器,北大洋村西变压器0687,北大洋村内变压器1261,西岳口浇地变压器0752【纯农排变】,陈计山石料厂5090,北岗北4961变压器,万里村西1221变压器,郑家庄1206变压器,北大洋村东2011变压器,大长峪学校7111变压器,西岳口6072变压器,大长峪南1258变压器,吕家庄3393,十三队变压器1219,东岳口4085变压器,蔡庄村北6073,万里0707变压器,唐县华峪选矿旅游开发有限责任公司,唐县恒旺畜禽养殖服务农民专业合作社6612,唐县泰鑫矿产品加工有限公司,东岳口1264变压器,大长峪种植变压器2009【纯农排变】,蔡庄1183变压器,北大洋村南水利变压器1215【纯农排变】,北岗北扶贫排灌变压器0863【纯农排变】,0387520085-唐县泰鑫矿产品加工有限公司-专变-219684703-唐县泰鑫矿产品加工有限公司计量点6169,大长峪2010变压器【纯农排变】,菜庄村安京余2579,吕家庄小学7103变压器,万里4623变压器,蔡庄村西0768变压器,","scope":"【影响街道/乡镇】大洋乡、雹水乡【高危重要客户】无【影响客户】吕家庄、北岗北、西岳口、蔡庄、万里村、郑家庄、东岳口、大长峪、十三队、北大洋","startTime":"2019-07-29 01:56:57","stopDate":"2019-07-29 13:00:00","orgNo":"1340622","typeCode":"电网故障停限电","poweroffArea":"【全线路停电】停唐县保毅矿业有限公司3436,西沟1208变压器,万里小学7105变压器,唐县誉华酒店有限公司7792,万里水4734变压器【纯农排变】,蔡庄4197变压器,北大洋4965变压器,北岗北村南1220变压器,东岳口4880变压器,郑家庄6077变压器,唐县大洋乡郑家庄村村民委员会,东岳口小学7109变压器,大长峪5236变压器,郑家庄3264变压器,北大洋村西变压器0687,北大洋村内变压器1261,西岳口浇地变压器0752【纯农排变】,陈计山石料厂5090,北岗北4961变压器,万里村西1221变压器,郑家庄1206变压器,北大洋村东2011变压器,大长峪学校7111变压器,西岳口6072变压器,大长峪南1258变压器,吕家庄3393,十三队变压器1219,东岳口4085变压器,蔡庄村北6073,万里0707变压器,唐县华峪选矿旅游开发有限责任公司,唐县恒旺畜禽养殖服务农民专业合作社6612,北岗北扶贫排灌变压器0863【纯农排变】,0387520085-唐县泰鑫矿产品加工有限公司-专变-219684703-唐县泰鑫矿产品加工有限公司计量点6169,大长峪2010变压器【纯农排变】,菜庄村安京余2579,吕家庄小学7103变压器,万里4623变压器,蔡庄村西0768变压器,唐县泰鑫矿产品加工有限公司,东岳口1264变压器,北大洋小学7114变压器,大长峪小学7110变压器,0671194725-于学良-专变-212150932-于学良,大长峪4653变压器,大长峪5237变压器【纯农排变】,唐县峡谷游乐场10KV配变,蔡庄村浇地变压器1270【纯农排变】,大长峪村北1211变压器,万里6076变压器,西岳口3321变压器,东岳口2008,吕家庄河南1205变压器,西岳口1203变压器,吕家庄4058变压器,大长峪4679变压器,大长峪种植变压器2009【纯农排变】,蔡庄1183变压器,北大洋村南水利变压器1215【纯农排变】","poweroffReason":"【停电原因】由于泰鑫矿产品加工厂支瓶破裂导致３５ＫＶ西大洋变电站万里５１６线路全线停电【变更送电】因抢修进度加快原因，送电时间由１８：００变更为１３：００ 【发布渠道】通过９５５９８发布","powerTime":"2019-07-29 12:36:44","powerComm":"已送电","subsNo":"","lineNo":"","tgNo":"","tgName":null,"infoStatus":"1","orgName":"国网唐县供电公司","typeName":null,"infoStatusName":null,"dateDay":null,"orgNos":null,"nowTime":null,"countyName":null,"streetName":null,"villageName":null,"roadName":null,"communityName":null,"tranName":null,"sdLineName":null,"cityCode":"1340622","cityName":"国网唐县供电公司","provinceCode":null,"stopTime":"2019-07-29 13:00:00","powerType":"全部","powerOffArea":"【全线路停电】停唐县保毅矿业有限公司3436,西沟1208变压器,万里小学7105变压器,唐县誉华酒店有限公司7792,万里水4734变压器【纯农排变】,蔡庄4197变压器,北大洋4965变压器,北岗北村南1220变压器,东岳口4880变压器,郑家庄6077变压器,唐县大洋乡郑家庄村村民委员会,东岳口小学7109变压器,大长峪5236变压器,郑家庄3264变压器,北大洋村西变压器0687,北大洋村内变压器1261,西岳口浇地变压器0752【纯农排变】,陈计山石料厂5090,北岗北4961变压器,万里村西1221变压器,郑家庄1206变压器,北大洋村东2011变压器,大长峪学校7111变压器,西岳口6072变压器,大长峪南1258变压器,吕家庄3393,十三队变压器1219,东岳口4085变压器,蔡庄村北6073,万里0707变压器,唐县华峪选矿旅游开发有限责任公司,唐县恒旺畜禽养殖服务农民专业合作社6612,北岗北扶贫排灌变压器0863【纯农排变】,0387520085-唐县泰鑫矿产品加工有限公司-专变-219684703-唐县泰鑫矿产品加工有限公司计量点6169,大长峪2010变压器【纯农排变】,菜庄村安京余2579,吕家庄小学7103变压器,万里4623变压器,蔡庄村西0768变压器,唐县泰鑫矿产品加工有限公司,东岳口1264变压器,北大洋小学7114变压器,大长峪小学7110变压器,0671194725-于学良-专变-212150932-于学良,大长峪4653变压器,大长峪5237变压器【纯农排变】,唐县峡谷游乐场10KV配变,蔡庄村浇地变压器1270【纯农排变】,大长峪村北1211变压器,万里6076变压器,西岳口3321变压器,东岳口2008,吕家庄河南1205变压器,西岳口1203变压器,吕家庄4058变压器,大长峪4679变压器,大长峪种植变压器2009【纯农排变】,蔡庄1183变压器,北大洋村南水利变压器1215【纯农排变】","powerOffReason":"【停电原因】由于泰鑫矿产品加工厂支瓶破裂导致３５ＫＶ西大洋变电站万里５１６线路全线停电【变更送电】因抢修进度加快原因，送电时间由１８：００变更为１３：００ 【发布渠道】通过９５５９８发布","powerOffId":"2019072913000107"},{"poweroffId":2019072913000101,"sgpoweroffId":null,"subsName":"","lineName":"大洋线513","pubTranName":"郑家庄6077变压器,唐县华峪选矿旅游开发有限责任公司,西大洋村西南2337变压器,大长峪2010变压器,唐县蔡庄陈记山石料厂10KV新装配变,中长店吃水变压器1223,大洋庄村西0705变压器,北岗北4961变压器,杨吾别墅1234,西大洋村南1263变压器,万里6076变压器,大长峪4653变压器,大长峪5237变压器,唐县蔡庄陈记山石料厂10KV配变,东岳口4085变压器,大洋庄5073变压器,刘宏军养殖1243,大长峪南1258变压器,西大洋4358分支,乡政府1245变压器,大洋庄4960变压器,西沟1208变压器,西岳口1203变压器,石南坡4152变压器,山南庄村西1213变压器,郑家庄1206变压器,中长店内0778变压器,陈计山石料厂5090,唐县恒旺畜禽养殖服务农民专业合作社6612,东岳口4880变压器,唐县王各庄石料厂3221,大长峪4679变压器,蔡庄1183变压器,北大洋4965变压器,山南庄4962变压器,北大洋村南水利变压器1215,南大洋0739变压器,山南庄6572变压器,蔡庄陈记石料厂1232,石南坡1236变压器,中长店4041变压器,唐县保毅矿业有限公司3436,中长店西1222变压器,东岳口2008,东大洋4969变压器,西大洋3326变压器,西岳口6072变压器,吕家庄河北1204变压器,万里村西1221变压器,西岳口3321变压器,十三队变压器1219,吕家庄3393,万里水4734变压器,万里4623变压器,郑家庄3264变压器,北大洋村内变压器1261,蔡庄4197变压器,东大洋1229变压器,大洋供电所,大长峪种植变压器2009,石南坡1235变压器,万里0707变压器,山南庄水4889变压器,0387520085-唐县泰鑫矿产品加工有限公司-专变-219684703-唐县泰鑫矿产品加工有限公司计量点6169,大长峪村北1211变压器,东岳口1264变压器,大洋庄东1241变压器,中长店4205变压器,山南庄村东1218变压器,东长店4365变压器,蔡庄村西0768变压器,东长店水4731变压器,南大洋0736变压器,菜庄村安京余2579,东大洋4381变压器,西岳口浇地变压器0752,南大洋水2721变压器,蔡庄陈计山石料厂5191,中长店水5086变压器,北大洋村西变压器0687,吕家庄河南1205变压器,北岗北村南1220变压器,大长峪5236变压器,西大洋北0754变压器,蔡庄村北6073,0671194725-于学良-专变-212150932-于学良,石南坡1259变压器,吕家庄4058变压器,东长店0777变压器,石南坡6568变压器,中长店5083变压器,东大洋东1226变压器,北岗北扶贫排灌变压器0863,南大洋3044变压器,北大洋村东2011变压器,山南庄3314变压器,蔡庄村浇地变压器1270,","scope":"【影响街道/乡镇】大洋乡、雹水乡、北店头乡【高危重要客户】无【影响客户】吕家庄、北大洋、北岗北、西岳口、蔡庄、万里村、郑家庄、大洋庄、东大洋、东岳口、西大洋、大长峪、中长店、山南庄、东长店、南大洋、石南坡、黄金峪、北店头村北","startTime":"2019-07-29 01:52:14","stopDate":"2019-07-29 13:00:00","orgNo":"1340622","typeCode":"电网故障停限电","poweroffArea":"【全线路停电】停唐县保毅矿业有限公司3436,中长店4041变压器,石南坡1259变压器,北大洋4965变压器,大洋庄4960变压器,北岗北村南1220变压器,大洋庄村西0705变压器,东长店4365变压器,山南庄水4889变压器,西大洋3326变压器,大长峪5236变压器,西岳口浇地变压器0752,山南庄6572变压器,陈计山石料厂5090,北岗北4961变压器,万里村西1221变压器,郑家庄1206变压器,北大洋村东2011变压器,石南坡1236变压器,西岳口6072变压器,大长峪南1258变压器,乡政府1245变压器,中长店4205变压器,山南庄村东1218变压器,西大洋村南1263变压器,北岗北扶贫排灌变压器0863,0387520085-唐县泰鑫矿产品加工有限公司-专变-219684703-唐县泰鑫矿产品加工有限公司计量点6169,西大洋北0754变压器,大长峪2010变压器,中长店水5086变压器,吕家庄河南1205变压器,万里4623变压器,中长店吃水变压器1223,南大洋0736变压器,东岳口1264变压器,石南坡1235变压器,吕家庄河北1204变压器,大长峪5237变压器,大长峪村北1211变压器,南大洋3044变压器,大洋庄东1241变压器,大洋供电所,西岳口3321变压器,西岳口1203变压器,山南庄4962变压器,西大洋4358分支,大长峪4653变压器,东大洋1229变压器,北大洋村南水利变压器1215,蔡庄村北6073,石南坡4152变压器,万里水4734变压器,刘宏军养殖1243,西沟1208变压器,蔡庄4197变压器,东岳口4880变压器,中长店内0778变压器,石南坡6568变压器,郑家庄3264变压器,北大洋村西变压器0687,北大洋村内变压器1261,东大洋东1226变压器,西大洋村西南2337变压器,南大洋水2721变压器,东长店水4731变压器,杨吾别墅1234,吕家庄3393,蔡庄陈记石料厂1232,东岳口4085变压器,大洋庄5073变压器,万里0707变压器,唐县华峪选矿旅游开发有限责任公司,唐县恒旺畜禽养殖服务农民专业合作社6612,东大洋4969变压器,山南庄村西1213变压器,菜庄村安京余2579,十三队变压器1219,东长店0777变压器,蔡庄村西0768变压器,蔡庄陈计山石料厂5191,郑家庄6077变压器,唐县蔡庄陈记山石料厂10KV配变,0671194725-于学良-专变-212150932-于学良,蔡庄村浇地变压器1270,万里6076变压器,南大洋0739变压器,唐县蔡庄陈记山石料厂10KV新装配变,东岳口2008,蔡庄1183变压器,唐县王各庄石料厂3221,吕家庄4058变压器,大长峪4679变压器,中长店西1222变压器,大长峪种植变压器2009,东大洋4381变压器,中长店5083变压器,山南庄3314变压器","poweroffReason":"【停电原因】由于树枝搭在大洋庄分支０３６号杆线上导致３５ＫＶ西大洋变电站大洋线５１３线路全线停电【变更送电】因抢修进度加快原因，送电时间由１８：００变更为１３：００【发布渠道】通过９５５９８发布","powerTime":"2019-07-29 12:30:12","powerComm":"已送电","subsNo":"","lineNo":"","tgNo":"","tgName":null,"infoStatus":"1","orgName":"国网唐县供电公司","typeName":null,"infoStatusName":null,"dateDay":null,"orgNos":null,"nowTime":null,"countyName":null,"streetName":null,"villageName":null,"roadName":null,"communityName":null,"tranName":null,"sdLineName":null,"cityCode":"1340622","cityName":"国网唐县供电公司","provinceCode":null,"stopTime":"2019-07-29 13:00:00","powerType":"全部","powerOffArea":"【全线路停电】停唐县保毅矿业有限公司3436,中长店4041变压器,石南坡1259变压器,北大洋4965变压器,大洋庄4960变压器,北岗北村南1220变压器,大洋庄村西0705变压器,东长店4365变压器,山南庄水4889变压器,西大洋3326变压器,大长峪5236变压器,西岳口浇地变压器0752,山南庄6572变压器,陈计山石料厂5090,北岗北4961变压器,万里村西1221变压器,郑家庄1206变压器,北大洋村东2011变压器,石南坡1236变压器,西岳口6072变压器,大长峪南1258变压器,乡政府1245变压器,中长店4205变压器,山南庄村东1218变压器,西大洋村南1263变压器,北岗北扶贫排灌变压器0863,0387520085-唐县泰鑫矿产品加工有限公司-专变-219684703-唐县泰鑫矿产品加工有限公司计量点6169,西大洋北0754变压器,大长峪2010变压器,中长店水5086变压器,吕家庄河南1205变压器,万里4623变压器,中长店吃水变压器1223,南大洋0736变压器,东岳口1264变压器,石南坡1235变压器,吕家庄河北1204变压器,大长峪5237变压器,大长峪村北1211变压器,南大洋3044变压器,大洋庄东1241变压器,大洋供电所,西岳口3321变压器,西岳口1203变压器,山南庄4962变压器,西大洋4358分支,大长峪4653变压器,东大洋1229变压器,北大洋村南水利变压器1215,蔡庄村北6073,石南坡4152变压器,万里水4734变压器,刘宏军养殖1243,西沟1208变压器,蔡庄4197变压器,东岳口4880变压器,中长店内0778变压器,石南坡6568变压器,郑家庄3264变压器,北大洋村西变压器0687,北大洋村内变压器1261,东大洋东1226变压器,西大洋村西南2337变压器,南大洋水2721变压器,东长店水4731变压器,杨吾别墅1234,吕家庄3393,蔡庄陈记石料厂1232,东岳口4085变压器,大洋庄5073变压器,万里0707变压器,唐县华峪选矿旅游开发有限责任公司,唐县恒旺畜禽养殖服务农民专业合作社6612,东大洋4969变压器,山南庄村西1213变压器,菜庄村安京余2579,十三队变压器1219,东长店0777变压器,蔡庄村西0768变压器,蔡庄陈计山石料厂5191,郑家庄6077变压器,唐县蔡庄陈记山石料厂10KV配变,0671194725-于学良-专变-212150932-于学良,蔡庄村浇地变压器1270,万里6076变压器,南大洋0739变压器,唐县蔡庄陈记山石料厂10KV新装配变,东岳口2008,蔡庄1183变压器,唐县王各庄石料厂3221,吕家庄4058变压器,大长峪4679变压器,中长店西1222变压器,大长峪种植变压器2009,东大洋4381变压器,中长店5083变压器,山南庄3314变压器","powerOffReason":"【停电原因】由于树枝搭在大洋庄分支０３６号杆线上导致３５ＫＶ西大洋变电站大洋线５１３线路全线停电【变更送电】因抢修进度加快原因，送电时间由１８：００变更为１３：００【发布渠道】通过９５５９８发布","powerOffId":"2019072913000101"}],"pageModel":{"pageNow":752,"totalCount":10973,"totalPage":1098,"tableRows":0,"pageCount":10,"beginCount":7510},"isExperi":"1"}