{"message":"","today":"2020-06-15","seleList":[{"poweroffId":2019072913000095,"sgpoweroffId":null,"subsName":"","lineName":"10kV518大定线","pubTranName":"东湖公用农业3台区【纯农排变】,客户投资_西赵庄公用照明1台区,胡阜才村公用农业1台区【纯农排变】,西赵庄公用照明3台区,西赵庄公用照明6台区,大定公用农业3台区【纯农排变】,东湖公用照明7台区,西赵庄公用农业5台区【纯农排变】,东赵庄公用农业12台区【纯农排变】,南大定村公用照明3台区,东湖村公用农业1台区【纯农排变】,东湖公用照明6台区,东赵庄公用农业16台区【纯农排变】,南大定公用照明1台区,东湖公用农业13台区【纯农排变】,东湖公用照明10台区,东湖公用农业6台区【纯农排变】,东赵庄公用照明7台区,东赵庄村东赵庄庄儿公用照明5台区,一家庄公用农业1台区【纯农排变】,东赵庄公用农业10台区【纯农排变】,东湖公用农业23台区【纯农排变】,南大定村公用农业2台区【纯农排变】,东赵庄公用照明8台区,东赵庄公用农业15台区【纯农排变】,西赵庄公用农业4台区【纯农排变】,西赵庄公用照明4台区,西新庄公用农业1台区【纯农排变】,东赵庄公用农业4台区【纯农排变】,东湖公用农业15台区【纯农排变】,西赵庄公用农业7台区【纯农排变】,西赵庄公用农业1台区【纯农排变】,东湖公用农业7台区【纯农排变】,东湖公用农业17台区【纯农排变】,东湖公用农业12台区【纯农排变】,东赵庄公用农业7台区【纯农排变】,东赵庄村东赵庄庄儿公用农业5台区【纯农排变】,东赵庄公用照明5台区,东湖公用农业2台区【纯农排变】,胡阜才公用农业5台区【纯农排变】,西新庄公用农业4台区【纯农排变】,西新庄公用农业3台区【纯农排变】,东湖村公用照明4台区,胡阜才公用农业8台区【纯农排变】,胡阜才公用农业7台区【纯农排变】,东湖公用照明9台区,东赵庄公用农业11台区【纯农排变】,东赵庄公用农业3台区【纯农排变】,胡阜才公用农业2台区【纯农排变】,西赵庄公用照明7台区,西赵庄公用农业11台区【纯农排变】,南大定村公用照明2台区,东赵庄公用照明12台区,东湖公用农业4台区【纯农排变】,大定公用照明6台区,胡阜才公用农业13台区【纯农排变】,东湖公用农业9台区【纯农排变】,西赵庄公用农业3台区【纯农排变】,东湖公用照明11台区,西新庄公用农业2台区【纯农排变】,西赵庄公用农业2台区【纯农排变】,胡阜才公用农业3台区【纯农排变】,西赵庄公用农业13台区【纯农排变】,西赵庄公用农业10台区【纯农排变】,胡阜才公用农业6台区【纯农排变】,东赵庄公用农业13台区【纯农排变】,东湖公用农业5台区【纯农排变】,东湖村公用照明2台区,大定公用照明4台区,东湖村公用照明1台区,西新庄公用照明1台区,东赵庄公用照明6台区,东湖公用农业8台区【纯农排变】,西赵庄公用农业6台区【纯农排变】,西新庄公用照明2台区,东湖公用农业18台区【纯农排变】,东赵庄公用照明4台区,东湖公用照明8台区,胡阜才公用农业9台区【纯农排变】,东湖公用农业22台区【纯农排变】,西赵庄公用农业9台区【纯农排变】,西赵庄公用农业8台区【纯农排变】,西赵庄公用照明9台区,大定公用农业4台区【纯农排变】,大定公用照明5台区,大定公用照明7台区,东赵庄公用农业2台区【纯农排变】,客户投资_胡阜才村公用照明1台区,胡阜才公用农业4台","scope":"【影响街道/乡镇】西城乡【高危重要客户】无【影响客户】大定、东赵庄、西赵庄、东湖、胡阜才、西辛庄、一家庄","startTime":"2019-07-29 01:40:00","stopDate":"2019-07-29 14:00:00","orgNo":"1340610","typeCode":"电网故障停限电","poweroffArea":"【全线路停电】停东湖公用农业18台区【纯农排变】,东湖公用农业16台区【纯农排变】,东湖公用农业4台区【纯农排变】,东湖公用农业7台区【纯农排变】,东湖公用农业13台区【纯农排变】,东湖公用农业6台区【纯农排变】,东湖公用农业8台区【纯农排变】,东湖公用农业12台区【纯农排变】,东湖公用农业17台区【纯农排变】,大定公用农业3台区【纯农排变】,大定公用农业4台区【纯农排变】,南大定村公用农业2台区【纯农排变】,东赵庄公用照明6台区,东湖公用农业11台区【纯农排变】,东湖公用农业23台区【纯农排变】,东湖公用农业5台区【纯农排变】,东湖公用农业19台区【纯农排变】,东湖公用照明10台区,东湖公用照明8台区,东湖公用农业3台区【纯农排变】,东湖公用农业2台区【纯农排变】,东湖公用照明9台区,东湖村公用照明2台区,东湖村公用照明3台区,东湖村公用照明5台区,东湖村公用照明1台区,东湖村公用农业1台区【纯农排变】,东湖公用照明11台区,东湖村公用照明4台区,东湖公用农业22台区【纯农排变】,东湖公用农业14台区【纯农排变】,东湖公用农业9台区【纯农排变】,东湖公用农业10台区【纯农排变】,东湖公用农业15台区【纯农排变】,东湖公用照明6台区,东湖公用照明7台区,东赵庄公用农业13台区【纯农排变】,东赵庄公用农业10台区【纯农排变】,东赵庄公用农业12台区【纯农排变】,东赵庄公用农业9台区【纯农排变】,东赵庄公用农业16台区【纯农排变】,东赵庄公用照明12台区,东赵庄公用照明2台区,东赵庄公用照明8台区,东赵庄公用照明7台区,东赵庄公用农业7台区【纯农排变】,东赵庄公用农业2台区【纯农排变】,东赵庄公用农业4台区【纯农排变】,东赵庄公用照明4台区,东赵庄公用照明10台区,东赵庄公用照明13台区,东赵庄公用农业3台区【纯农排变】,东赵庄公用照明5台区,东赵庄村东赵庄庄儿公用照明5台区,东赵庄村东赵庄庄儿公用农业5台区【纯农排变】,东赵庄公用农业11台区【纯农排变】,东赵庄公用农业15台区【纯农排变】,东赵庄村东赵庄庄儿公用农业6台区【纯农排变】,东赵庄公用农业8台区【纯农排变】,东赵庄公用照明11台区,东赵庄公用照明1台区,东赵庄公用照明9台区,胡阜才公用农业11台区【纯农排变】,胡阜才公用农业10台区【纯农排变】,胡阜才公用农业2台区【纯农排变】,胡阜才公用农业3台区【纯农排变】,胡阜才公用农业12台区【纯农排变】,西赵庄公用农业9台区【纯农排变】,西赵庄公用农业10台区【纯农排变】,西赵庄公用农业1台区【纯农排变】,西赵庄公用农业2台区【纯农排变】,胡阜才村公用农业1台区【纯农排变】,大定公用照明4台区,大定公用照明5台区,南大定村公用照明2台区,大定公用照明6台区,南大定村公用照明3台区,大定公用照明8台区,大定公用照明7台区,胡阜才公用农业13台区【纯农排变】,客户投资_胡阜才村公用照明1台区,胡阜才公用照明2台区,胡阜才公用农业9台区【纯农排变】,胡阜才公用农业7台区【纯农排变】,胡阜才公用农业6台区【纯农排变】,胡阜才公用农业5台区【纯农排变】,胡阜才公用农业4台区【纯农排变】,胡阜才公用农业8台区【纯农排变】,南大定公用照明1台区,西新庄公用农业4台区【纯农排变】,西新庄公用农业2台区【纯农排变】,西新庄公用农业1台区【纯农排变】,西新庄公用照明2台区,西新庄公用照明1台区,西赵庄公用农业4台区【纯农排变】,西赵庄公用农业12台区【纯农排变】,西赵庄公用农业13台区【纯农排变】,西赵庄公用农业7台区【纯农排变】,西","poweroffReason":"【停电原因】由于东赵庄农业８台区变压器树枝搭高压套管导致１１０ＫＶ李亲顾变电站１０ＫＶ５１８大定线路全线停电 【变更送电】因抢修进度加快原因，送电时间由２０：００变更为１４：００ 【发布渠道】９５５９８","powerTime":"2019-07-29 13:19:27","powerComm":"已送电","subsNo":"","lineNo":"","tgNo":"","tgName":null,"infoStatus":"1","orgName":"国网定州市供电公司","typeName":null,"infoStatusName":null,"dateDay":null,"orgNos":null,"nowTime":null,"countyName":null,"streetName":null,"villageName":null,"roadName":null,"communityName":null,"tranName":null,"sdLineName":null,"cityCode":"1340610","cityName":"国网定州市供电公司","provinceCode":null,"stopTime":"2019-07-29 14:00:00","powerType":"全部","powerOffArea":"【全线路停电】停东湖公用农业18台区【纯农排变】,东湖公用农业16台区【纯农排变】,东湖公用农业4台区【纯农排变】,东湖公用农业7台区【纯农排变】,东湖公用农业13台区【纯农排变】,东湖公用农业6台区【纯农排变】,东湖公用农业8台区【纯农排变】,东湖公用农业12台区【纯农排变】,东湖公用农业17台区【纯农排变】,大定公用农业3台区【纯农排变】,大定公用农业4台区【纯农排变】,南大定村公用农业2台区【纯农排变】,东赵庄公用照明6台区,东湖公用农业11台区【纯农排变】,东湖公用农业23台区【纯农排变】,东湖公用农业5台区【纯农排变】,东湖公用农业19台区【纯农排变】,东湖公用照明10台区,东湖公用照明8台区,东湖公用农业3台区【纯农排变】,东湖公用农业2台区【纯农排变】,东湖公用照明9台区,东湖村公用照明2台区,东湖村公用照明3台区,东湖村公用照明5台区,东湖村公用照明1台区,东湖村公用农业1台区【纯农排变】,东湖公用照明11台区,东湖村公用照明4台区,东湖公用农业22台区【纯农排变】,东湖公用农业14台区【纯农排变】,东湖公用农业9台区【纯农排变】,东湖公用农业10台区【纯农排变】,东湖公用农业15台区【纯农排变】,东湖公用照明6台区,东湖公用照明7台区,东赵庄公用农业13台区【纯农排变】,东赵庄公用农业10台区【纯农排变】,东赵庄公用农业12台区【纯农排变】,东赵庄公用农业9台区【纯农排变】,东赵庄公用农业16台区【纯农排变】,东赵庄公用照明12台区,东赵庄公用照明2台区,东赵庄公用照明8台区,东赵庄公用照明7台区,东赵庄公用农业7台区【纯农排变】,东赵庄公用农业2台区【纯农排变】,东赵庄公用农业4台区【纯农排变】,东赵庄公用照明4台区,东赵庄公用照明10台区,东赵庄公用照明13台区,东赵庄公用农业3台区【纯农排变】,东赵庄公用照明5台区,东赵庄村东赵庄庄儿公用照明5台区,东赵庄村东赵庄庄儿公用农业5台区【纯农排变】,东赵庄公用农业11台区【纯农排变】,东赵庄公用农业15台区【纯农排变】,东赵庄村东赵庄庄儿公用农业6台区【纯农排变】,东赵庄公用农业8台区【纯农排变】,东赵庄公用照明11台区,东赵庄公用照明1台区,东赵庄公用照明9台区,胡阜才公用农业11台区【纯农排变】,胡阜才公用农业10台区【纯农排变】,胡阜才公用农业2台区【纯农排变】,胡阜才公用农业3台区【纯农排变】,胡阜才公用农业12台区【纯农排变】,西赵庄公用农业9台区【纯农排变】,西赵庄公用农业10台区【纯农排变】,西赵庄公用农业1台区【纯农排变】,西赵庄公用农业2台区【纯农排变】,胡阜才村公用农业1台区【纯农排变】,大定公用照明4台区,大定公用照明5台区,南大定村公用照明2台区,大定公用照明6台区,南大定村公用照明3台区,大定公用照明8台区,大定公用照明7台区,胡阜才公用农业13台区【纯农排变】,客户投资_胡阜才村公用照明1台区,胡阜才公用照明2台区,胡阜才公用农业9台区【纯农排变】,胡阜才公用农业7台区【纯农排变】,胡阜才公用农业6台区【纯农排变】,胡阜才公用农业5台区【纯农排变】,胡阜才公用农业4台区【纯农排变】,胡阜才公用农业8台区【纯农排变】,南大定公用照明1台区,西新庄公用农业4台区【纯农排变】,西新庄公用农业2台区【纯农排变】,西新庄公用农业1台区【纯农排变】,西新庄公用照明2台区,西新庄公用照明1台区,西赵庄公用农业4台区【纯农排变】,西赵庄公用农业12台区【纯农排变】,西赵庄公用农业13台区【纯农排变】,西赵庄公用农业7台区【纯农排变】,西","powerOffReason":"【停电原因】由于东赵庄农业８台区变压器树枝搭高压套管导致１１０ＫＶ李亲顾变电站１０ＫＶ５１８大定线路全线停电 【变更送电】因抢修进度加快原因，送电时间由２０：００变更为１４：００ 【发布渠道】９５５９８","powerOffId":"2019072913000095"},{"poweroffId":2019072913000091,"sgpoweroffId":null,"subsName":"","lineName":"10kV512周村线","pubTranName":"定州市洪宇塑业有限公司变压器2,0627473993-定州市周村镇北紫京村民委员会-专变-139282592-定州市周村镇北紫京村村民委员会变压器,周村公用照明7台区,周村公用农业20台区变压器【纯农排变】,周村公用农业10台区变压器【纯农排变】,周村公用农业1台区变压器【纯农排变】,周村第八面粉厂,定州市立辉鞋面加工厂,周村公用照明4台区,周村公用农业22台区变压器【纯农排变】,定州市洪宇塑业有限公司变压器,周村公用照明8台区,定州市周村第五面粉厂变压器,周村公用农业4台区变压器【纯农排变】,周村公用照明1台区,北子京公用农业22台区变压器【纯农排变】,定州市永旺塑料布厂变压器,周村公用农业16台区变压器【纯农排变】,河北网通定州分公司周村营业厅,定州市洪宇塑业有限公司变压器3,南子京公用农业12台区,齐红岩,周村公用照明11台区,定州市通达机床加工厂变压器,北子京公用农业20台区变压器【纯农排变】,周村公用农业18台区变压器【纯农排变】,阜头庄公用农业11台区【纯农排变】,定州市冀隆鞋业有限公司变压器,定州市凯立达服装厂变压器,周村公用农业23台区变压器【纯农排变】,杨增力,北子京公用农业21台区变压器【纯农排变】,定州市宏伟塑料制品厂变压器,北子京东北,北子京公用农业18台区变压器【纯农排变】,定州市洪宇装饰材料厂,定州市周村乡周村村委会,周村公用照明14台区,定州市舒适佳鞋厂变压器,定州市成社废旧塑料加工厂（一厂）,定州市晨鸽制锁厂,朱军来,张雷,李会,定州市世辉车床加工厂变压器,定州市增甫塑钢门窗配件厂变压器,周村公用农业17台区变压器【纯农排变】,花张蒙公用农业4台区【纯农排变】,周村公用照明13台区,阜头庄公用农业10台区【纯农排变】,陈立强,定州市周村镇卫生院变压器,客户投资_周村公用照明9台区,定州市鑫海塑料制品有限公司变压器,周村公用照明5台区,北车寄公用农业6台区变压器【纯农排变】,刘栓住面粉厂,定州市王康木器加工厂,客户投资_周村公用照明6台区,周村公用照明12台区,杨健康,周村北口,变压器,北子京公用照明8台区,周村公用照明2台区,北子京村西北,北子京公用农业19台区变压器【纯农排变】,周村公用农业19台区变压器【纯农排变】,周村公用农业5台区变压器【纯农排变】,周村乡政府公用照明台区,周村公用照明10台区,定州市隆腾农业开发有限公司变压器,周村公用农业21台区变压器【纯农排变】,周村果园,定州市成社废旧塑料加工厂（二厂）,定州市泰和内装门加工厂,定州市柱峰面粉厂,定州市红光饲料厂,周村公用照明3台区,","scope":"【影响街道/乡镇】周村乡【高危重要客户】无【影响客户】周村、北子京、朱家庄","startTime":"2019-07-29 01:51:19","stopDate":"2019-07-29 13:00:00","orgNo":"1340610","typeCode":"电网故障停限电","poweroffArea":"【全线路停电】停0627473993-定州市周村镇北紫京村民委员会-专变-139282592-定州市周村镇北紫京村村民委员会变压器,周村公用照明7台区,周村公用农业20台区变压器【纯农排变】,周村公用农业10台区变压器【纯农排变】,周村公用农业1台区变压器【纯农排变】,周村第八面粉厂,定州市立辉鞋面加工厂,周村公用照明4台区,周村公用农业22台区变压器【纯农排变】,定州市洪宇塑业有限公司变压器,周村公用照明8台区,定州市周村第五面粉厂变压器,周村公用农业4台区变压器【纯农排变】,周村公用照明1台区,北子京公用农业22台区变压器【纯农排变】,定州市永旺塑料布厂变压器,周村公用农业16台区变压器【纯农排变】,河北网通定州分公司周村营业厅,定州市洪宇塑业有限公司变压器3,南子京公用农业12台区,齐红岩,周村公用照明11台区,定州市通达机床加工厂变压器,北子京公用农业20台区变压器【纯农排变】,周村公用照明13台区,阜头庄公用农业10台区【纯农排变】,陈立强,定州市周村镇卫生院变压器,客户投资_周村公用照明9台区,定州市鑫海塑料制品有限公司变压器,周村公用照明5台区,北车寄公用农业6台区变压器【纯农排变】,刘栓住面粉厂,定州市王康木器加工厂,客户投资_周村公用照明6台区,周村公用照明12台区,杨健康,周村北口,变压器,北子京公用照明8台区,周村公用照明2台区,北子京村西北,周村公用农业18台区变压器【纯农排变】,定州市洪宇塑业有限公司变压器2,周村公用农业21台区变压器【纯农排变】,周村果园,定州市成社废旧塑料加工厂（二厂）,定州市泰和内装门加工厂,定州市柱峰面粉厂,定州市红光饲料厂,周村公用照明14台区,定州市舒适佳鞋厂变压器,阜头庄公用农业11台区【纯农排变】,定州市冀隆鞋业有限公司变压器,定州市凯立达服装厂变压器,周村公用农业23台区变压器【纯农排变】,杨增力,定州市成社废旧塑料加工厂（一厂）,定州市晨鸽制锁厂,朱军来,张雷,李会,定州市世辉车床加工厂变压器,定州市增甫塑钢门窗配件厂变压器,周村公用农业17台区变压器【纯农排变】,花张蒙公用农业4台区【纯农排变】,北子京公用农业19台区变压器【纯农排变】,周村公用农业19台区变压器【纯农排变】,周村公用农业5台区变压器【纯农排变】,周村乡政府公用照明台区,周村公用照明10台区,定州市隆腾农业开发有限公司变压器,周村公用照明3台区,北子京公用农业21台区变压器【纯农排变】,定州市宏伟塑料制品厂变压器,北子京东北,北子京公用农业18台区变压器【纯农排变】,定州市洪宇装饰材料厂,定州市周村乡周村村委会","poweroffReason":"【停电原因】由于恶劣天气齐龙农业高压计量烧毁导致３５ＫＶ车寄变电站１０ＫＶ５１２周村线路全线停电 【变更送电】因抢修进度加快原因，送电时间由２０：００变更为１３：００ 【发布渠道】９５５９８　　","powerTime":"2019-07-29 12:54:36","powerComm":"已送电","subsNo":"","lineNo":"","tgNo":"","tgName":null,"infoStatus":"1","orgName":"国网定州市供电公司","typeName":null,"infoStatusName":null,"dateDay":null,"orgNos":null,"nowTime":null,"countyName":null,"streetName":null,"villageName":null,"roadName":null,"communityName":null,"tranName":null,"sdLineName":null,"cityCode":"1340610","cityName":"国网定州市供电公司","provinceCode":null,"stopTime":"2019-07-29 13:00:00","powerType":"全部","powerOffArea":"【全线路停电】停0627473993-定州市周村镇北紫京村民委员会-专变-139282592-定州市周村镇北紫京村村民委员会变压器,周村公用照明7台区,周村公用农业20台区变压器【纯农排变】,周村公用农业10台区变压器【纯农排变】,周村公用农业1台区变压器【纯农排变】,周村第八面粉厂,定州市立辉鞋面加工厂,周村公用照明4台区,周村公用农业22台区变压器【纯农排变】,定州市洪宇塑业有限公司变压器,周村公用照明8台区,定州市周村第五面粉厂变压器,周村公用农业4台区变压器【纯农排变】,周村公用照明1台区,北子京公用农业22台区变压器【纯农排变】,定州市永旺塑料布厂变压器,周村公用农业16台区变压器【纯农排变】,河北网通定州分公司周村营业厅,定州市洪宇塑业有限公司变压器3,南子京公用农业12台区,齐红岩,周村公用照明11台区,定州市通达机床加工厂变压器,北子京公用农业20台区变压器【纯农排变】,周村公用照明13台区,阜头庄公用农业10台区【纯农排变】,陈立强,定州市周村镇卫生院变压器,客户投资_周村公用照明9台区,定州市鑫海塑料制品有限公司变压器,周村公用照明5台区,北车寄公用农业6台区变压器【纯农排变】,刘栓住面粉厂,定州市王康木器加工厂,客户投资_周村公用照明6台区,周村公用照明12台区,杨健康,周村北口,变压器,北子京公用照明8台区,周村公用照明2台区,北子京村西北,周村公用农业18台区变压器【纯农排变】,定州市洪宇塑业有限公司变压器2,周村公用农业21台区变压器【纯农排变】,周村果园,定州市成社废旧塑料加工厂（二厂）,定州市泰和内装门加工厂,定州市柱峰面粉厂,定州市红光饲料厂,周村公用照明14台区,定州市舒适佳鞋厂变压器,阜头庄公用农业11台区【纯农排变】,定州市冀隆鞋业有限公司变压器,定州市凯立达服装厂变压器,周村公用农业23台区变压器【纯农排变】,杨增力,定州市成社废旧塑料加工厂（一厂）,定州市晨鸽制锁厂,朱军来,张雷,李会,定州市世辉车床加工厂变压器,定州市增甫塑钢门窗配件厂变压器,周村公用农业17台区变压器【纯农排变】,花张蒙公用农业4台区【纯农排变】,北子京公用农业19台区变压器【纯农排变】,周村公用农业19台区变压器【纯农排变】,周村公用农业5台区变压器【纯农排变】,周村乡政府公用照明台区,周村公用照明10台区,定州市隆腾农业开发有限公司变压器,周村公用照明3台区,北子京公用农业21台区变压器【纯农排变】,定州市宏伟塑料制品厂变压器,北子京东北,北子京公用农业18台区变压器【纯农排变】,定州市洪宇装饰材料厂,定州市周村乡周村村委会","powerOffReason":"【停电原因】由于恶劣天气齐龙农业高压计量烧毁导致３５ＫＶ车寄变电站１０ＫＶ５１２周村线路全线停电 【变更送电】因抢修进度加快原因，送电时间由２０：００变更为１３：００ 【发布渠道】９５５９８　　","powerOffId":"2019072913000091"},{"poweroffId":2019072913000090,"sgpoweroffId":null,"subsName":"","lineName":"10KV建设路557","pubTranName":"九州(新),","scope":"【影响街道/乡镇】清凉寺城区 【高危重要客户】无 【影响客户】九州小区","startTime":"2019-07-29 01:48:49","stopDate":"2019-07-29 07:40:00","orgNo":"1340626","typeCode":"电网故障停限电","poweroffArea":"【单台区停电】停九州(新)","poweroffReason":"【停电原因】由于低压线断线导致１１０ＫＶ安泰变电站１０ＫＶ建设路５５７线路九州公变台区停电 【变更送电】因抢修进度加快原因，送电时间由１８：００变更为０７：４０ 【发布渠道】通过９５５９８发布","powerTime":"2019-07-29 07:01:55","powerComm":"恢复送电","subsNo":"","lineNo":"","tgNo":"","tgName":null,"infoStatus":"1","orgName":"国网涿州市供电公司","typeName":null,"infoStatusName":null,"dateDay":null,"orgNos":null,"nowTime":null,"countyName":null,"streetName":null,"villageName":null,"roadName":null,"communityName":null,"tranName":null,"sdLineName":null,"cityCode":"1340626","cityName":"国网涿州市供电公司","provinceCode":null,"stopTime":"2019-07-29 07:40:00","powerType":"全部","powerOffArea":"【单台区停电】停九州(新)","powerOffReason":"【停电原因】由于低压线断线导致１１０ＫＶ安泰变电站１０ＫＶ建设路５５７线路九州公变台区停电 【变更送电】因抢修进度加快原因，送电时间由１８：００变更为０７：４０ 【发布渠道】通过９５５９８发布","powerOffId":"2019072913000090"},{"poweroffId":2019072913000088,"sgpoweroffId":null,"subsName":"","lineName":"10KV东兴南街546","pubTranName":"商业局家属院(新),","scope":"【影响街道/乡镇】清凉寺城区 【高危重要客户】无 【影响客户】商业局","startTime":"2019-07-29 01:47:40","stopDate":"2019-07-29 07:20:00","orgNo":"1340626","typeCode":"电网故障停限电","poweroffArea":"【单台区停电】停商业局家属院(新)","poweroffReason":"【停电原因】由于低压空开烧毁导致１１０ＫＶ安泰变电站１０ＫＶ东兴南街５４６线路商业局家属院公变台区停电 【变更送电】因抢修进度加快原因，送电时间由１８：００变更为０７：２０ 【发布渠道】通过９５５９８发布","powerTime":"2019-07-29 06:46:05","powerComm":"恢复送电","subsNo":"","lineNo":"","tgNo":"","tgName":null,"infoStatus":"1","orgName":"国网涿州市供电公司","typeName":null,"infoStatusName":null,"dateDay":null,"orgNos":null,"nowTime":null,"countyName":null,"streetName":null,"villageName":null,"roadName":null,"communityName":null,"tranName":null,"sdLineName":null,"cityCode":"1340626","cityName":"国网涿州市供电公司","provinceCode":null,"stopTime":"2019-07-29 07:20:00","powerType":"全部","powerOffArea":"【单台区停电】停商业局家属院(新)","powerOffReason":"【停电原因】由于低压空开烧毁导致１１０ＫＶ安泰变电站１０ＫＶ东兴南街５４６线路商业局家属院公变台区停电 【变更送电】因抢修进度加快原因，送电时间由１８：００变更为０７：２０ 【发布渠道】通过９５５９８发布","powerOffId":"2019072913000088"},{"poweroffId":2019072913000086,"sgpoweroffId":null,"subsName":"","lineName":"10KV翟庄567","pubTranName":"后塘东南4738,","scope":"【影响街道/乡镇】豆庄乡 【高危重要客户】无 【影响客户】后塘村","startTime":"2019-07-29 01:46:16","stopDate":"2019-07-29 11:30:00","orgNo":"1340626","typeCode":"电网故障停限电","poweroffArea":"【单台区停电】停后塘东南4738","poweroffReason":"【停电原因】由于低压电缆烧毁导致２２０ＫＶ豆庄变电站１０ＫＶ翟庄５６７线路后塘东南４７３８公变台区停电 【变更送电】因抢修进度加快原因，送电时间由１８：００变更为１１：３０ 【发布渠道】通过９５５９８发布","powerTime":"2019-07-29 11:06:20","powerComm":"恢复送电","subsNo":"","lineNo":"","tgNo":"","tgName":null,"infoStatus":"1","orgName":"国网涿州市供电公司","typeName":null,"infoStatusName":null,"dateDay":null,"orgNos":null,"nowTime":null,"countyName":null,"streetName":null,"villageName":null,"roadName":null,"communityName":null,"tranName":null,"sdLineName":null,"cityCode":"1340626","cityName":"国网涿州市供电公司","provinceCode":null,"stopTime":"2019-07-29 11:30:00","powerType":"全部","powerOffArea":"【单台区停电】停后塘东南4738","powerOffReason":"【停电原因】由于低压电缆烧毁导致２２０ＫＶ豆庄变电站１０ＫＶ翟庄５６７线路后塘东南４７３８公变台区停电 【变更送电】因抢修进度加快原因，送电时间由１８：００变更为１１：３０ 【发布渠道】通过９５５９８发布","powerOffId":"2019072913000086"},{"poweroffId":2019072913000081,"sgpoweroffId":null,"subsName":"","lineName":"10KV石屯574","pubTranName":"南石务村西,","scope":"【影响街道/乡镇】豆庄乡 【高危重要客户】无 【影响客户】南石务","startTime":"2019-07-29 01:43:05","stopDate":"2019-07-29 11:30:00","orgNo":"1340626","typeCode":"电网故障停限电","poweroffArea":"【单台区停电】停南石务村西","poweroffReason":"【停电原因】由于低压弓子线烧毁导致２２０ＫＶ豆庄变电站１０ＫＶ石屯５７４线路南石务村西公变台区停电 【变更送电】因抢修进度加快原因，送电时间由１８：００变更为１１：３０ 【发布渠道】通过９５５９８发布","powerTime":"2019-07-29 11:16:08","powerComm":"恢复送电","subsNo":"","lineNo":"","tgNo":"","tgName":null,"infoStatus":"1","orgName":"国网涿州市供电公司","typeName":null,"infoStatusName":null,"dateDay":null,"orgNos":null,"nowTime":null,"countyName":null,"streetName":null,"villageName":null,"roadName":null,"communityName":null,"tranName":null,"sdLineName":null,"cityCode":"1340626","cityName":"国网涿州市供电公司","provinceCode":null,"stopTime":"2019-07-29 11:30:00","powerType":"全部","powerOffArea":"【单台区停电】停南石务村西","powerOffReason":"【停电原因】由于低压弓子线烧毁导致２２０ＫＶ豆庄变电站１０ＫＶ石屯５７４线路南石务村西公变台区停电 【变更送电】因抢修进度加快原因，送电时间由１８：００变更为１１：３０ 【发布渠道】通过９５５９８发布","powerOffId":"2019072913000081"},{"poweroffId":2019072913000073,"sgpoweroffId":null,"subsName":"","lineName":"曹工线516","pubTranName":"东屯河西北2号【纯农排变】,尧庄农场2号【纯农排变】,河北茂业粮食有限公司,南曹庄内南配变,西屯河村西5井【纯农排变】,尧庄西南【纯农排变】,尧庄村西【纯农排变】,北曹庄村内配变,北曹庄猪厂【纯农排变】,北曹庄内北配变,东屯河东北【纯农排变】,尧庄村内配变,小西新村光伏配变,西屯河高铁1号【纯农排变】,尧庄村北1号【纯农排变】,东屯河村北【纯农排变】,东屯河砖厂30,尧庄东北【纯农排变】,西屯河幼儿园配变,东屯河粮食繁垦合作社,东屯河北边【纯农排变】,南曹庄村南【纯农排变】,西屯河内西配变,北曹庄果园【纯农排变】,北曹庄村内3号,尧庄小学,尧庄农场3号【纯农排变】,西屯河西北角【纯农排变】,东屯河南边【纯农排变】,尧庄内西配变,西屯河高铁2号【纯农排变】,东屯河混合1号配变,南曹庄西南【纯农排变】,北曹庄布厂合【纯农排变】,东屯河内南配变,尧庄村东2号【纯农排变】,黄土岗村北【纯农排变】,尧庄西北【纯农排变】,东屯河西北【纯农排变】,东发砖厂,小西新村农业【纯农排变】,东屯河新上【纯农排变】,南曹庄村南2号【纯农排变】,尧庄村南【纯农排变】,小西新村村内配变,尧庄西南2号【纯农排变】,西屯河村内2号配变,北曹庄果园东【纯农排变】,尧庄砖厂农【纯农排变】,尧庄内东配变,尧庄东南【纯农排变】,南曹庄村西农业【纯农排变】,北曹庄村西,尧庄村光伏配变,曹庄信用社配变,东屯河东北2号【纯农排变】,北曹庄医院边配变,北曹庄西边内配变,西屯河村西7井【纯农排变】,西屯河北跑【纯农排变】,尧庄农场1号【纯农排变】,北曹庄内东配变,尧庄村北2号【纯农排变】,东屯河砖厂160,东屯河东南农【纯农排变】,尧庄村内2号配变,北曹庄西北【纯农排变】,曹庄卫生院配变,西屯河塔西【纯农排变】,南曹庄东南【纯农排变】,西屯河混合1号配变,东屯河内东配变,曹庄小学,黄土岗村内配变,尧庄村东【纯农排变】,尧庄正南【纯农排变】,黄土岗村南【纯农排变】,望都县屯河村东发砖厂,尧庄村北3号【纯农排变】,","scope":"【影响街道/乡镇】中韩庄乡 【高危重要客户】无　　 【影响客户】尧庄村、东屯河、西屯河、北桥庄、小西新村、黄土岗、南曹庄村村南及部分农业、柳陀村部分农业、东屯河砖厂、胡振旗种植、茂业粮食","startTime":"2019-07-29 01:36:11","stopDate":"2019-07-29 12:20:00","orgNo":"1340623","typeCode":"电网故障停限电","poweroffArea":"【全线路停电】停尧庄农场3号【纯农排变】,小西新村农业【纯农排变】,东屯河新上【纯农排变】,南曹庄村南2号【纯农排变】,小西新村村内配变,尧庄西南2号【纯农排变】,西屯河村内2号配变,北曹庄村内配变,东屯河粮食繁垦合作社,东屯河北边【纯农排变】,南曹庄村南【纯农排变】,西屯河内西配变,北曹庄果园【纯农排变】,北曹庄村内3号,尧庄小学,西屯河西北角【纯农排变】,东屯河南边【纯农排变】,尧庄内西配变,西屯河高铁2号【纯农排变】,东屯河混合1号配变,南曹庄西南【纯农排变】,北曹庄猪厂【纯农排变】,东屯河内南配变,尧庄村东2号【纯农排变】,北曹庄果园东【纯农排变】,曹庄卫生院配变,曹庄小学,尧庄砖厂农【纯农排变】,北曹庄西边内配变,北曹庄内北配变,东屯河东北【纯农排变】,尧庄村内配变,小西新村光伏配变,西屯河高铁1号【纯农排变】,尧庄村北1号【纯农排变】,东屯河村北【纯农排变】,东屯河砖厂30,东屯河东北2号【纯农排变】,尧庄东北【纯农排变】,西屯河幼儿园配变,黄土岗村北【纯农排变】,尧庄西北【纯农排变】,东屯河西北【纯农排变】,东发砖厂,东屯河西北2号【纯农排变】,尧庄农场2号【纯农排变】,河北茂业粮食有限公司,南曹庄内南配变,西屯河村西5井【纯农排变】,尧庄西南【纯农排变】,尧庄村西【纯农排变】,西屯河塔西【纯农排变】,尧庄村南【纯农排变】,南曹庄东南【纯农排变】,西屯河混合1号配变,尧庄内东配变,南曹庄村西农业【纯农排变】,尧庄东南【纯农排变】,北曹庄村西,尧庄村北2号【纯农排变】,东屯河砖厂160,东屯河东南农【纯农排变】,尧庄村内2号配变,北曹庄西北【纯农排变】,尧庄村北3号【纯农排变】,北曹庄布厂合【纯农排变】,尧庄村光伏配变,曹庄信用社配变,北曹庄医院边配变,东屯河内东配变,黄土岗村内配变,尧庄村东【纯农排变】,尧庄正南【纯农排变】,黄土岗村南【纯农排变】,望都县屯河村东发砖厂,西屯河村西7井【纯农排变】,西屯河北跑【纯农排变】,尧庄农场1号【纯农排变】,北曹庄内东配变","poweroffReason":"【停电原因】由于站内开关跳闸导致３５ＫＶ曹庄变电站曹工线５１６线路全线停电 【变更送电】因抢修进度加快原因，送电时间由２２：００变更为１２：２０ 【发布渠道】通过９５５９８发布","powerTime":"2019-07-29 11:50:39","powerComm":"已送电","subsNo":"","lineNo":"","tgNo":"","tgName":null,"infoStatus":"1","orgName":"国网望都县供电公司","typeName":null,"infoStatusName":null,"dateDay":null,"orgNos":null,"nowTime":null,"countyName":null,"streetName":null,"villageName":null,"roadName":null,"communityName":null,"tranName":null,"sdLineName":null,"cityCode":"1340623","cityName":"国网望都县供电公司","provinceCode":null,"stopTime":"2019-07-29 12:20:00","powerType":"全部","powerOffArea":"【全线路停电】停尧庄农场3号【纯农排变】,小西新村农业【纯农排变】,东屯河新上【纯农排变】,南曹庄村南2号【纯农排变】,小西新村村内配变,尧庄西南2号【纯农排变】,西屯河村内2号配变,北曹庄村内配变,东屯河粮食繁垦合作社,东屯河北边【纯农排变】,南曹庄村南【纯农排变】,西屯河内西配变,北曹庄果园【纯农排变】,北曹庄村内3号,尧庄小学,西屯河西北角【纯农排变】,东屯河南边【纯农排变】,尧庄内西配变,西屯河高铁2号【纯农排变】,东屯河混合1号配变,南曹庄西南【纯农排变】,北曹庄猪厂【纯农排变】,东屯河内南配变,尧庄村东2号【纯农排变】,北曹庄果园东【纯农排变】,曹庄卫生院配变,曹庄小学,尧庄砖厂农【纯农排变】,北曹庄西边内配变,北曹庄内北配变,东屯河东北【纯农排变】,尧庄村内配变,小西新村光伏配变,西屯河高铁1号【纯农排变】,尧庄村北1号【纯农排变】,东屯河村北【纯农排变】,东屯河砖厂30,东屯河东北2号【纯农排变】,尧庄东北【纯农排变】,西屯河幼儿园配变,黄土岗村北【纯农排变】,尧庄西北【纯农排变】,东屯河西北【纯农排变】,东发砖厂,东屯河西北2号【纯农排变】,尧庄农场2号【纯农排变】,河北茂业粮食有限公司,南曹庄内南配变,西屯河村西5井【纯农排变】,尧庄西南【纯农排变】,尧庄村西【纯农排变】,西屯河塔西【纯农排变】,尧庄村南【纯农排变】,南曹庄东南【纯农排变】,西屯河混合1号配变,尧庄内东配变,南曹庄村西农业【纯农排变】,尧庄东南【纯农排变】,北曹庄村西,尧庄村北2号【纯农排变】,东屯河砖厂160,东屯河东南农【纯农排变】,尧庄村内2号配变,北曹庄西北【纯农排变】,尧庄村北3号【纯农排变】,北曹庄布厂合【纯农排变】,尧庄村光伏配变,曹庄信用社配变,北曹庄医院边配变,东屯河内东配变,黄土岗村内配变,尧庄村东【纯农排变】,尧庄正南【纯农排变】,黄土岗村南【纯农排变】,望都县屯河村东发砖厂,西屯河村西7井【纯农排变】,西屯河北跑【纯农排变】,尧庄农场1号【纯农排变】,北曹庄内东配变","powerOffReason":"【停电原因】由于站内开关跳闸导致３５ＫＶ曹庄变电站曹工线５１６线路全线停电 【变更送电】因抢修进度加快原因，送电时间由２２：００变更为１２：２０ 【发布渠道】通过９５５９８发布","powerOffId":"2019072913000073"},{"poweroffId":2019072913000071,"sgpoweroffId":null,"subsName":"","lineName":"10kV528城工线","pubTranName":"城建小区7960|20007960【纯农排变】,东庄鸡厂7810#农业|20007810【纯农排变】,委家关8980|20008980,武装部西9350,东街南1420|20001420,变压器800,浓业局宿舍1950|20001950,北街薛家岸1750|20001750,尧乡宿舍1220|20001220,工商行宿舍7830|20007830,药监局路灯,李兰锁528,周家关宿舍1490|20001490,西显阳西北新增综合1395【纯农排变】,交通局1250|20001250,东关1270#农排|20001270【纯农排变】,蔡家关1570|20001570,植物园路灯,蔡家关1590|20001590,移动东庄站,变压器630,1600箱变,药监局宿舍9578,北城2（1830）|20001830,西显阳10100|20010100,东关4700#农排|20004700【纯农排变】,公安村2120|20002120,学府花园,委家关1600|20001600,东街新台区9340|20009340,运管站,局办公楼混用箱变配电变压器,蔡家关4480#农排|20004480【纯农排变】,工商行,电力4760|20004760,劳动就业局,东关南1500|20001500,西显阳大队边综合2996,显阳地1630#农业|20001630【纯农排变】,工行2,王家关10110|20010110,北街东新增综合1403,木易春路灯,周家关1580|20001580,西显阳村南新增综合2997,教育局,子第小学,东关路灯（南）,东关1520#农排|20001520【纯农排变】,东关路灯（北）,国税局2130|20002130,中医院,南城1（3930）|20003930,东街北1410|20001410,公安北4790|20004790,西显阳北1620|20001620,中心社1080|20001080,武装部宿舍1870|20001870,东关村北新增综合8951,蔡家关10250|20010250,东街4490#农排|20004490【纯农排变】,水利局宿舍1970|20001970,王家关1470#农排|20001470【纯农排变】,木兰饭店,工商行路灯,靳海涛,徐水县安远房地产开发有限公司,东庄1550|20001550,东庄羊厂9520#农业|20009520【纯农排变】,东街煤厂1690#农排|20001690【纯农排变】,东庄1560#农排|20001560【纯农排变】,河北省烟草公司保定市公司,东关1530#农排|20001530【纯农排变】,商委小区1320|20001320,天地好人商场,完中2（1910）|20001910,东街4500#农排|20004500【纯农排变】,李春建,北城1（0980）|20000980,东庄村东综合8946,税务局,劳动就业局0950|20000950,顺平县罗曼皮革制品有限公司,东街1430|20001430,变压器,保定市天辰地产开发有限公司,顺平县欣荣物业管理有限公司800,鸿阳饭店,东关4690#农排|20004690【纯农排变】,东庄综合,东关新综合885","scope":"【影响街道/乡镇】木兰东街、蒲阳镇【高危重要客户】无【影响客户】东关、东街村、东庄、周家关、蔡家关、委家关、王家关、西显阳、北街村、南城、县幼儿园、旧中医院、顺平新村、北城墙、武装部宿舍、完中宿舍、农业局宿舍、水利局宿舍、看守所宿舍、公安局宿舍、天赐龙都、领世郡小区、城建小区、学府花园、玫瑰园、恒诚悦园小区、公安局、县委县政府、工商银行、工商银行宿舍、木易春酒店、烟草公司、烟草宿舍楼、教育局、植物园、就业局家属楼、尧乡宿舍、武装部宿舍、木兰饭店、工商行、疾控中心、商委小区、公安村、实验小学、保定市天辰地产开发有限公司、顺平县人民政府、顺平县罗曼皮革制品有限公司、顺平县欣荣物业管理有限公司","startTime":"2019-07-29 01:33:20","stopDate":"2019-07-29 11:00:00","orgNo":"1340621","typeCode":"电网故障停限电","poweroffArea":"【全线路停电】停尧乡宿舍1220|20001220,工商行宿舍7830|20007830,中心社1080|20001080,东关4700#农排|20004700【纯农排变】,保定市天辰地产开发有限公司,东庄鸡厂7810#农业|20007810【纯农排变】,南城2（1810）|20001810,国税局2130|20002130,西显阳北1620|20001620,南城1（3930）|20003930,蔡家关4480#农排|20004480【纯农排变】,移动东庄站,药监局宿舍9578,委家关1600|20001600,变压器800,1600箱变,东庄村东综合8946,东关南1500|20001500,变压器,工商行路灯,鸿阳饭店,药监局路灯,北街东新增综合1403,局办公楼混用箱变配电变压器,烟草宿舍2190|20002190,东关路灯（北）,东关1520#农排|20001520【纯农排变】,公安北4790|20004790,木易春路灯,北街薛家岸1750|20001750,商委小区1320|20001320,北城1（0980）|20000980,东庄1550|20001550,周家关宿舍1490|20001490,东关路灯（南）,水塔,劳动就业局0950|20000950,显阳地1630#农业|20001630【纯农排变】,委家关新增综合2998,西显阳村南新增综合2997,顺平县欣荣物业管理有限公司800,西显阳西北新增综合1395【纯农排变】,东街北1410|20001410,武装部宿舍1870|20001870,东街南1420|20001420,交通局1250|20001250,北城2（1830）|20001830,东关1540#农排|20001540【纯农排变】,中医院宿舍0940|20000940,顺平县人民政府,王家关10110|20010110,西显阳大队边综合2996,木易春,委家关8980|20008980,浓业局宿舍1950|20001950,顺平县罗曼皮革制品有限公司,西显阳10100|20010100,东关4690#农排|20004690【纯农排变】,李兰锁528,东关1270#农排|20001270【纯农排变】,教育局,王家关1480|20001480","poweroffReason":"【停电原因】由于主干０３号杆高压计量击穿导致１１０ＫＶ顺平变电站１０ＫＶ５２８城工线路全线停电【变更送电】因抢修进度加快原因，送电时间由１２：００变更为１１：００【发布渠道】通过９５５９８发布","powerTime":"2019-07-29 10:28:49","powerComm":"已送电","subsNo":"","lineNo":"","tgNo":"","tgName":null,"infoStatus":"1","orgName":"国网顺平县电力局","typeName":null,"infoStatusName":null,"dateDay":null,"orgNos":null,"nowTime":null,"countyName":null,"streetName":null,"villageName":null,"roadName":null,"communityName":null,"tranName":null,"sdLineName":null,"cityCode":"1340621","cityName":"国网顺平县电力局","provinceCode":null,"stopTime":"2019-07-29 11:00:00","powerType":"全部","powerOffArea":"【全线路停电】停尧乡宿舍1220|20001220,工商行宿舍7830|20007830,中心社1080|20001080,东关4700#农排|20004700【纯农排变】,保定市天辰地产开发有限公司,东庄鸡厂7810#农业|20007810【纯农排变】,南城2（1810）|20001810,国税局2130|20002130,西显阳北1620|20001620,南城1（3930）|20003930,蔡家关4480#农排|20004480【纯农排变】,移动东庄站,药监局宿舍9578,委家关1600|20001600,变压器800,1600箱变,东庄村东综合8946,东关南1500|20001500,变压器,工商行路灯,鸿阳饭店,药监局路灯,北街东新增综合1403,局办公楼混用箱变配电变压器,烟草宿舍2190|20002190,东关路灯（北）,东关1520#农排|20001520【纯农排变】,公安北4790|20004790,木易春路灯,北街薛家岸1750|20001750,商委小区1320|20001320,北城1（0980）|20000980,东庄1550|20001550,周家关宿舍1490|20001490,东关路灯（南）,水塔,劳动就业局0950|20000950,显阳地1630#农业|20001630【纯农排变】,委家关新增综合2998,西显阳村南新增综合2997,顺平县欣荣物业管理有限公司800,西显阳西北新增综合1395【纯农排变】,东街北1410|20001410,武装部宿舍1870|20001870,东街南1420|20001420,交通局1250|20001250,北城2（1830）|20001830,东关1540#农排|20001540【纯农排变】,中医院宿舍0940|20000940,顺平县人民政府,王家关10110|20010110,西显阳大队边综合2996,木易春,委家关8980|20008980,浓业局宿舍1950|20001950,顺平县罗曼皮革制品有限公司,西显阳10100|20010100,东关4690#农排|20004690【纯农排变】,李兰锁528,东关1270#农排|20001270【纯农排变】,教育局,王家关1480|20001480","powerOffReason":"【停电原因】由于主干０３号杆高压计量击穿导致１１０ＫＶ顺平变电站１０ＫＶ５２８城工线路全线停电【变更送电】因抢修进度加快原因，送电时间由１２：００变更为１１：００【发布渠道】通过９５５９８发布","powerOffId":"2019072913000071"},{"poweroffId":2019072913000059,"sgpoweroffId":null,"subsName":"","lineName":"大庄线512","pubTranName":"北赵家庄03台区,涞源县德林铅锌选矿厂变压器,周月军矿山,冀豫铅锌矿,0469333392-杨占玉-专变-46777800-杨占玉,魏志强铁选,乌龙沟铅锌选厂水,乌龙沟矿山,涞源县金豪矿业有限公司 变压器,涞源中凯矿业公司(4),邓庄01台区【三批中心村】,马台村3台区,乾鑫选厂,乌龙沟铅锌选厂,津源铅锌矿,涞源中凯矿业5,北赵家庄01台区,涞源县乌龙沟乡小庄村村民委员会变压器,大庄05台区,小庄村04台区,昶达公司,乌龙沟512大庄01,邓庄03台区,马台村04台区,小庄村01台区,金泰铅锌选矿厂,小庄村02台区,龙利达铅锌选厂,小庄迁建区1【三批中心村】,涞源县乌龙沟乡邓家庄村村民委员会变压器,大庄02台区,涞源县恒牛矿业有限公司变压器,中凯矿业有限公司(1),邓庄02台区【三批中心村】,北赵家庄04台区,涞源县乌龙沟乡大庄村村民委员会变压器,涞源县杨六养殖场变压器,大庄06台区,冯富矿山,小庄村03台区,黄安养猪厂,马台村2台区,0636586291-涞源县大庄刘福增铅锌矿-专变-148260402-涞源县大庄刘福增铅锌矿变压器,大庄04台区变压器,北赵庄铜选厂,邓庄04台区【三批中心村】,大庄村07台区,马台村05台区,0469332445-涞源县兰光铅锌矿-专变-46777759-涞源县兰光铅锌矿3,中凯矿业变压器,大庄刘福增铅锌矿1,马台01台区,北赵家庄02台区,北赵家庄05台区,大庄刘福增铅锌矿,大庄03台区,0469332924-涞源县中凯矿业有限责任公司第四分公司-专变-47896321-中凯矿业有限公司（7）,冯付,【光伏】马台村光伏变压器,魏志强,0469332924-涞源县中凯矿业有限责任公司第四分公司-专变-46777846-中凯矿业有限公司(7),大庄台区08台区,0469333204-魏志强铁选-专变-46777788-魏志强铁选,","scope":"【影响街道/乡镇】乌龙沟乡【高危重要客户】无【影响客户】马台村、马台村学校、赵庄村、邓庄村、小庄村、小庄村学校、大庄村、大庄村学校","startTime":"2019-07-29 01:25:07","stopDate":"2019-07-29 03:30:00","orgNo":"1340615","typeCode":"电网故障停限电","poweroffArea":"【全线路停电】停涞源中凯矿业公司(4),邓庄01台区【三批中心村】,马台村3台区,乾鑫选厂,乌龙沟铅锌选厂,津源铅锌矿,涞源中凯矿业5,北赵家庄01台区,涞源县乌龙沟乡小庄村村民委员会变压器,大庄05台区,小庄村04台区,昶达公司,乌龙沟512大庄01,邓庄03台区,小庄村01台区,金泰铅锌选矿厂,小庄村02台区,龙利达铅锌选厂,小庄迁建区1【三批中心村】,涞源县乌龙沟乡邓家庄村村民委员会变压器,大庄02台区,涞源县恒牛矿业有限公司变压器,中凯矿业有限公司(1),邓庄02台区【三批中心村】,北赵家庄04台区,涞源县乌龙沟乡大庄村村民委员会变压器,涞源县杨六养殖场变压器,大庄06台区,冯富矿山,小庄村03台区,黄安养猪厂,马台村2台区,0636586291-涞源县大庄刘福增铅锌矿-专变-148260402-涞源县大庄刘福增铅锌矿变压器,大庄04台区变压器,北赵庄铜选厂,邓庄04台区【三批中心村】,大庄村07台区,马台村05台区,0469332445-涞源县兰光铅锌矿-专变-46777759-涞源县兰光铅锌矿3,马台村04台区,北赵家庄03台区,涞源县德林铅锌选矿厂变压器,周月军矿山,冀豫铅锌矿,0469333392-杨占玉-专变-46777800-杨占玉,魏志强铁选,乌龙沟铅锌选厂水,乌龙沟矿山,涞源县金豪矿业有限公司 变压器,中凯矿业变压器,大庄刘福增铅锌矿1,马台01台区,北赵家庄02台区,北赵家庄05台区,大庄刘福增铅锌矿,大庄03台区,0469332924-涞源县中凯矿业有限责任公司第四分公司-专变-47896321-中凯矿业有限公司（7）,冯付,【光伏】马台村光伏变压器,魏志强,0469332924-涞源县中凯矿业有限责任公司第四分公司-专变-46777846-中凯矿业有限公司(7),大庄台区08台区,0469333204-魏志强铁选-专变-46777788-魏志强铁选","poweroffReason":"【停电原因】由于速断掉闸导致３５ＫＶ乌龙沟变电站１０ＫＶ大庄线５１２线路全线停电【变更送电】因抢修进度加快，原定０８：３０送电现计划３：３０送电【发布渠道】通过９５５９８发布","powerTime":"2019-07-29 02:57:23","powerComm":"已送电","subsNo":"","lineNo":"","tgNo":"","tgName":null,"infoStatus":"1","orgName":"国网涞源县供电公司","typeName":null,"infoStatusName":null,"dateDay":null,"orgNos":null,"nowTime":null,"countyName":null,"streetName":null,"villageName":null,"roadName":null,"communityName":null,"tranName":null,"sdLineName":null,"cityCode":"1340615","cityName":"国网涞源县供电公司","provinceCode":null,"stopTime":"2019-07-29 03:30:00","powerType":"全部","powerOffArea":"【全线路停电】停涞源中凯矿业公司(4),邓庄01台区【三批中心村】,马台村3台区,乾鑫选厂,乌龙沟铅锌选厂,津源铅锌矿,涞源中凯矿业5,北赵家庄01台区,涞源县乌龙沟乡小庄村村民委员会变压器,大庄05台区,小庄村04台区,昶达公司,乌龙沟512大庄01,邓庄03台区,小庄村01台区,金泰铅锌选矿厂,小庄村02台区,龙利达铅锌选厂,小庄迁建区1【三批中心村】,涞源县乌龙沟乡邓家庄村村民委员会变压器,大庄02台区,涞源县恒牛矿业有限公司变压器,中凯矿业有限公司(1),邓庄02台区【三批中心村】,北赵家庄04台区,涞源县乌龙沟乡大庄村村民委员会变压器,涞源县杨六养殖场变压器,大庄06台区,冯富矿山,小庄村03台区,黄安养猪厂,马台村2台区,0636586291-涞源县大庄刘福增铅锌矿-专变-148260402-涞源县大庄刘福增铅锌矿变压器,大庄04台区变压器,北赵庄铜选厂,邓庄04台区【三批中心村】,大庄村07台区,马台村05台区,0469332445-涞源县兰光铅锌矿-专变-46777759-涞源县兰光铅锌矿3,马台村04台区,北赵家庄03台区,涞源县德林铅锌选矿厂变压器,周月军矿山,冀豫铅锌矿,0469333392-杨占玉-专变-46777800-杨占玉,魏志强铁选,乌龙沟铅锌选厂水,乌龙沟矿山,涞源县金豪矿业有限公司 变压器,中凯矿业变压器,大庄刘福增铅锌矿1,马台01台区,北赵家庄02台区,北赵家庄05台区,大庄刘福增铅锌矿,大庄03台区,0469332924-涞源县中凯矿业有限责任公司第四分公司-专变-47896321-中凯矿业有限公司（7）,冯付,【光伏】马台村光伏变压器,魏志强,0469332924-涞源县中凯矿业有限责任公司第四分公司-专变-46777846-中凯矿业有限公司(7),大庄台区08台区,0469333204-魏志强铁选-专变-46777788-魏志强铁选","powerOffReason":"【停电原因】由于速断掉闸导致３５ＫＶ乌龙沟变电站１０ＫＶ大庄线５１２线路全线停电【变更送电】因抢修进度加快，原定０８：３０送电现计划３：３０送电【发布渠道】通过９５５９８发布","powerOffId":"2019072913000059"},{"poweroffId":2019072913000058,"sgpoweroffId":null,"subsName":"","lineName":"迷城556线","pubTranName":"天马耐火加工厂2198,西迷城水1522变压器,唐县迷城乡向阳耐火材料厂,上三水变压器【纯农排变】,联合耐火厂1506,唐县中尧钙业有限公司3364,唐县王各庄石料厂3289,唐县锋鑫建材厂配变,中迷城2575变压器,0387522153-唐县纵横机械设备制造有限公司-专变-45340098-利民灰粉厂1551,唐县西迷城腾达耐火材料分厂3437,唐县首钢石灰石矿有限公司3350,西迷城4774变压器,上三村1518变压器【纯农排变】,永兴灰粉2517,西迷城国华耐火震砖厂2326,下三土门4663变压器,古洞村2982变压器,0615542243-唐县建民矿业有限公司-专变-128270263-唐县建民矿业有限公司配变,赵家峪3339变压器,唐县宏源钙业有限公司2778,唐县立强矿业有限公司315KVA,向阳耐火厂1514,中迷城0877变压器,永宏水泥砖厂3363,下庄1541变压器,唐县通瑞石灰石加工厂10KV配变,唐县泰鑫建材厂,社章耐火厂1528,唐县家和矿产品加工厂0844,唐县永顺材有限公司2379,忠勇2006变压器,上三村1517变压器,西迷城1523变压器,吉祥庄建华石料厂2320,0387522124-西迷城国华耐火砖厂-专变-45340164-西迷城国华耐火砖厂2715,荣起石英粉厂1670,海丰矿业有限公司250KVA,吉祥庄6147变压器,迷城开发石料厂2118,0387522397-吉祥水泥厂-专变-45339978-吉祥水泥厂1510,唐县隆遂矿业有限公司,开发耐火厂2312,秦达灰粉厂1536,忠勇1538变压器,东迷城3150变压器,唐县父子三石料厂,唐县迷城旭日耐火材料厂2720,东迷城0807变压器,赵家峪水4893变压器,西迷城2817变压器,唐县国华耐火砖厂3253,西迷城1524变压器,中迷城0892变压器,古洞水1540变压器【纯农排变】,西迷城2496变压器,鑫鑫石英粉厂2321,0549772390-河北交通投资集团保阜高速公路有限公司-专变-48901370-保定市保阜高速公路唐县收费站3202,0555895377-唐县兴泰矿产品制造有限公司-专变-95896122-唐县兴泰矿产品制造有限公司200KVA,父子三1532变压器,柏江村4795变压器,吉祥庄1557变压器,唐县父子三村永固水泥砖厂,古洞石英粉厂1542,唐县宏源钙业有限公司1533,配变,唐县泰鑫建材厂3354,唐县重远建材有限公司,唐县方晟石灰厂4658,0669157015-唐县德顺畜禽养殖服务农民专业合作社-专变-210335739-唐县德顺畜禽养殖服务农民专业合作社,唐县永顺建材有限公司P5265,白合镇赵家峪5005,柏江水利4892变压器,父子三6022变压器,下三土门1724变压器,火炉重钙厂1553,唐县鑫烨石灰加工厂2847,西迷城6024变压器,唐县通瑞石灰石加工厂新装10KV配变5198,东迷城水1529变压器,唐县永顺建材有限公司,安达石英粉厂1715,忠勇4097变压器,柏江水利2816变压器【纯农排变】,赵家峪村1546变压器,上三村4582变压器,柏江村1547变压器,","scope":"【影响街道/乡镇】迷城乡、白合镇【高危重要客户】无【影响客户】柏江、赵家峪、父子三、吉祥庄、上三土门、忠勇村、中迷城、西迷城、下三土门、古洞村、下庄村、东迷城、马沟村","startTime":"2019-07-29 01:21:15","stopDate":"2019-07-29 08:00:00","orgNo":"1340622","typeCode":"电网故障停限电","poweroffArea":"【全线路停电】停唐县父子三村永固水泥砖厂,宏达石英粉厂1139（安达二厂）,高乐石料厂1508,下庄4275变压器,海丰矿业有限公司250KVA,0595208805-唐县宏强建材有限公司-专变-126111779-唐县宏强建材有限公司配变,鑫鑫石英粉厂2321,0387523257-唐县鑫烨建材有限公司-专变-45340175-唐县鑫烨石灰加工厂2847,柏江水利2816变压器【纯农排变】,唐县家和矿产品加工厂0844,唐县白合镇建华石料厂5133","poweroffReason":"【停电原因】由于０８７７变压器有一树枝导致１１０ＫＶ白合变电站迷城５５６线路全线停电【变更送电】因抢修进度加快原因，送电时间由１２：００变更为０８：００【发布渠道】通过９５５９８发布","powerTime":"2019-07-29 07:26:30","powerComm":"已送电","subsNo":"","lineNo":"","tgNo":"","tgName":null,"infoStatus":"1","orgName":"国网唐县供电公司","typeName":null,"infoStatusName":null,"dateDay":null,"orgNos":null,"nowTime":null,"countyName":null,"streetName":null,"villageName":null,"roadName":null,"communityName":null,"tranName":null,"sdLineName":null,"cityCode":"1340622","cityName":"国网唐县供电公司","provinceCode":null,"stopTime":"2019-07-29 08:00:00","powerType":"全部","powerOffArea":"【全线路停电】停唐县父子三村永固水泥砖厂,宏达石英粉厂1139（安达二厂）,高乐石料厂1508,下庄4275变压器,海丰矿业有限公司250KVA,0595208805-唐县宏强建材有限公司-专变-126111779-唐县宏强建材有限公司配变,鑫鑫石英粉厂2321,0387523257-唐县鑫烨建材有限公司-专变-45340175-唐县鑫烨石灰加工厂2847,柏江水利2816变压器【纯农排变】,唐县家和矿产品加工厂0844,唐县白合镇建华石料厂5133","powerOffReason":"【停电原因】由于０８７７变压器有一树枝导致１１０ＫＶ白合变电站迷城５５６线路全线停电【变更送电】因抢修进度加快原因，送电时间由１２：００变更为０８：００【发布渠道】通过９５５９８发布","powerOffId":"2019072913000058"}],"pageModel":{"pageNow":753,"totalCount":10973,"totalPage":1098,"tableRows":0,"pageCount":10,"beginCount":7520},"isExperi":"1"}