{"message":"","today":"2020-06-15","seleList":[{"poweroffId":2019072813000473,"sgpoweroffId":null,"subsName":"","lineName":"10kV泰安路567","pubTranName":"区测队,","scope":"【影响街道/乡镇】涞水镇 【高危重要客户】无 【影响客户】区测队家属院","startTime":"2019-07-28 22:16:41","stopDate":"2019-07-29 01:00:00","orgNo":"1340614","typeCode":"电网故障停限电","poweroffArea":"【单台区停电】停区测队","poweroffReason":"【停电原因】由于电缆烧毁导致１１０ＫＶ郭下变电站１０ＫＶ泰安路５６７线路区测队公变台区停电 【变更送电】因抢修进度加快原因，送电时间由０２：３０变更为０１：００ 【发布渠道】通过９５５９８发布","powerTime":"2019-07-29 00:25:00","powerComm":"已送电","subsNo":"","lineNo":"","tgNo":"","tgName":null,"infoStatus":"1","orgName":"国网涞水县供电公司","typeName":null,"infoStatusName":null,"dateDay":null,"orgNos":null,"nowTime":null,"countyName":null,"streetName":null,"villageName":null,"roadName":null,"communityName":null,"tranName":null,"sdLineName":null,"cityCode":"1340614","cityName":"国网涞水县供电公司","provinceCode":null,"stopTime":"2019-07-29 01:00:00","powerType":"全部","powerOffArea":"【单台区停电】停区测队","powerOffReason":"【停电原因】由于电缆烧毁导致１１０ＫＶ郭下变电站１０ＫＶ泰安路５６７线路区测队公变台区停电 【变更送电】因抢修进度加快原因，送电时间由０２：３０变更为０１：００ 【发布渠道】通过９５５９８发布","powerOffId":"2019072813000473"},{"poweroffId":2019072813000461,"sgpoweroffId":null,"subsName":"","lineName":"10kV县城511","pubTranName":"工会广场公用箱变配电变压器,","scope":"【影响街道/乡镇】涞水镇 【高危重要客户】无 【影响客户】西关村","startTime":"2019-07-28 21:54:40","stopDate":"2019-07-28 23:50:00","orgNo":"1340614","typeCode":"电网故障停限电","poweroffArea":"【单台区停电】停工会广场公用箱变配电变压器","poweroffReason":"【停电原因】由于电缆烧毁导致１１０ＫＶ涞水变电站１０ＫＶ县城５１１线路工会广场公用箱变配电公变台区停电 【变更送电】无 【发布渠道】通过９５５９８发布","powerTime":"2019-07-28 23:22:28","powerComm":"已送电","subsNo":"","lineNo":"","tgNo":"","tgName":null,"infoStatus":"1","orgName":"国网涞水县供电公司","typeName":null,"infoStatusName":null,"dateDay":null,"orgNos":null,"nowTime":null,"countyName":null,"streetName":null,"villageName":null,"roadName":null,"communityName":null,"tranName":null,"sdLineName":null,"cityCode":"1340614","cityName":"国网涞水县供电公司","provinceCode":null,"stopTime":"2019-07-28 23:50:00","powerType":"全部","powerOffArea":"【单台区停电】停工会广场公用箱变配电变压器","powerOffReason":"【停电原因】由于电缆烧毁导致１１０ＫＶ涞水变电站１０ＫＶ县城５１１线路工会广场公用箱变配电公变台区停电 【变更送电】无 【发布渠道】通过９５５９８发布","powerOffId":"2019072813000461"},{"poweroffId":2019072813000455,"sgpoweroffId":null,"subsName":"","lineName":"10kV东北郊站538线路","pubTranName":"0356282974-保定市第一中心医院-1#专变,byq,0356345220-保定市路灯管理处-专变,B179柱上变压器,B177柱上变压器,10kVB172箱式变电站B172配电变压器,0356229256-中国石油化工股份有限公司河北保定石油分公司-专变,0356330194-保定市路灯管理处-专变,B622柱上变压器,0356236069-保定市财政局-专变,B175柱上变压器,0356269319-工行前卫路办事处-专变,C576柱上变压器,B070柱上变压器,B462柱上变压器,0623550555-保定市华中物业服务有限公司-专变-131891528-变压器,B1520柱上变压器,0356269885-中国移动通信集团河北有限公司保定分公司-2#专变,B508柱上变压器,0356345246-保定市路灯管理处-1-箱式变-变压器-1,C546柱上变压器,0356282974-保定市第一中心医院-3#专变,0356229269-保定双胜建安热力工程有限责任公司-专变,10kVD051箱式变电站变压器间隔配电变压器,B174柱上变压器,B425柱上变压器,B256柱上变压器,0356282974-保定市第一中心医院-2#专变,0356269885-中国移动通信集团河北有限公司保定分公司-1#专变,B180柱上变压器,B679柱上变压器,B782柱上变压器,0629038691-河北泽汇房地产开发有限公司(直隶尚都)-专变-141371028-变压器,B178柱上变压器,0356283818-保定市建设委员会-专变,10kVB072箱式变电站B072配电变压器,B176柱上变压器,","scope":"【影响街道/乡镇】五四东路、双胜街、杨庄乡、前卫路、七一中路、新北街、前卫路 【高危重要客户】无 【影响客户】合作路小区、小营房、双胜街小区、商校宿舍、教委宿舍、七一路人行、市一中心医院、大富源、建设集团、邮局51分局、移动、自来水一厂、军部、财政局考务","startTime":"2019-07-28 21:50:00","stopDate":"2019-07-29 00:00:00","orgNo":"13406","typeCode":"电网故障停限电","poweroffArea":"【全线路停电】停0356236069-保定市财政局-专变,B508柱上变压器,B180柱上变压器,C546柱上变压器,B622柱上变压器,10kVD051箱式变电站变压器间隔配电变压器,0356282974-保定市第一中心医院-1#专变,C576柱上变压器,B174柱上变压器,0356283818-保定市建设委员会-专变,B177柱上变压器,0356269319-工行前卫路办事处-专变,B462柱上变压器,0356269885-中国移动通信集团河北有限公司保定分公司-1#专变,0356269885-中国移动通信集团河北有限公司保定分公司-2#专变,0356229256-中国石油化工股份有限公司河北保定石油分公司-专变,0356345246-保定市路灯管理处-1-箱式变-变压器-1,B179柱上变压器,0356282974-保定市第一中心医院-3#专变,B679柱上变压器,0356282974-保定市第一中心医院-2#专变,B1520柱上变压器,byq,B176柱上变压器,10kVB172箱式变电站B172配电变压器,10kVB072箱式变电站B072配电变压器,0356330194-保定市路灯管理处-专变,B178柱上变压器,0629038691-河北泽汇房地产开发有限公司(直隶尚都)-专变-141371028-变压器,0356345220-保定市路灯管理处-专变,B070柱上变压器,B256柱上变压器,B782柱上变压器,0623550555-保定市华中物业服务有限公司-专变-131891528-变压器,B425柱上变压器,0356229269-保定双胜建安热力工程有限责任公司-专变,B175柱上变压器","poweroffReason":"【停电原因】由于过流跳闸导致１０ＫＶ东北郊变电站５３８线路全线停电【变更送电】因抢修进度加快，原定29日07:00送电现计划00:00送电【发布渠道】通过９５５９８发布","powerTime":"2019-07-28 23:12:05","powerComm":"已送电","subsNo":"","lineNo":"","tgNo":"","tgName":null,"infoStatus":"1","orgName":"保定供电公司","typeName":null,"infoStatusName":null,"dateDay":null,"orgNos":null,"nowTime":null,"countyName":null,"streetName":null,"villageName":null,"roadName":null,"communityName":null,"tranName":null,"sdLineName":null,"cityCode":"13406","cityName":"保定供电公司","provinceCode":null,"stopTime":"2019-07-29 00:00:00","powerType":"全部","powerOffArea":"【全线路停电】停0356236069-保定市财政局-专变,B508柱上变压器,B180柱上变压器,C546柱上变压器,B622柱上变压器,10kVD051箱式变电站变压器间隔配电变压器,0356282974-保定市第一中心医院-1#专变,C576柱上变压器,B174柱上变压器,0356283818-保定市建设委员会-专变,B177柱上变压器,0356269319-工行前卫路办事处-专变,B462柱上变压器,0356269885-中国移动通信集团河北有限公司保定分公司-1#专变,0356269885-中国移动通信集团河北有限公司保定分公司-2#专变,0356229256-中国石油化工股份有限公司河北保定石油分公司-专变,0356345246-保定市路灯管理处-1-箱式变-变压器-1,B179柱上变压器,0356282974-保定市第一中心医院-3#专变,B679柱上变压器,0356282974-保定市第一中心医院-2#专变,B1520柱上变压器,byq,B176柱上变压器,10kVB172箱式变电站B172配电变压器,10kVB072箱式变电站B072配电变压器,0356330194-保定市路灯管理处-专变,B178柱上变压器,0629038691-河北泽汇房地产开发有限公司(直隶尚都)-专变-141371028-变压器,0356345220-保定市路灯管理处-专变,B070柱上变压器,B256柱上变压器,B782柱上变压器,0623550555-保定市华中物业服务有限公司-专变-131891528-变压器,B425柱上变压器,0356229269-保定双胜建安热力工程有限责任公司-专变,B175柱上变压器","powerOffReason":"【停电原因】由于过流跳闸导致１０ＫＶ东北郊变电站５３８线路全线停电【变更送电】因抢修进度加快，原定29日07:00送电现计划00:00送电【发布渠道】通过９５５９８发布","powerOffId":"2019072813000455"},{"poweroffId":2019072813000443,"sgpoweroffId":null,"subsName":"","lineName":"淑吕线516","pubTranName":"贾庄487变压器,","scope":"【影响街道/乡镇】高昌镇【高危重要客户】无【影响客户】贾庄村","startTime":"2019-07-28 21:36:48","stopDate":"2019-07-29 18:00:00","orgNo":"1340622","typeCode":"电网故障停限电","poweroffArea":"【单台区停电】停贾庄487变压器","poweroffReason":"【停电原因】由于ＪＰ柜烧导致３５ＫＶ城关变电站淑吕线５１６线路贾庄４８７公变台区停电【变更送电】因故障未彻底排除，送电时间由１２：００变更为１８：００ 【发布渠道】通过９５５９８发布","powerTime":"2019-07-29 17:03:05","powerComm":"已送电","subsNo":"","lineNo":"","tgNo":"","tgName":null,"infoStatus":"1","orgName":"国网唐县供电公司","typeName":null,"infoStatusName":null,"dateDay":null,"orgNos":null,"nowTime":null,"countyName":null,"streetName":null,"villageName":null,"roadName":null,"communityName":null,"tranName":null,"sdLineName":null,"cityCode":"1340622","cityName":"国网唐县供电公司","provinceCode":null,"stopTime":"2019-07-29 18:00:00","powerType":"全部","powerOffArea":"【单台区停电】停贾庄487变压器","powerOffReason":"【停电原因】由于ＪＰ柜烧导致３５ＫＶ城关变电站淑吕线５１６线路贾庄４８７公变台区停电【变更送电】因故障未彻底排除，送电时间由１２：００变更为１８：００ 【发布渠道】通过９５５９８发布","powerOffId":"2019072813000443"},{"poweroffId":2019072813000429,"sgpoweroffId":null,"subsName":"","lineName":"营房516","pubTranName":"撞河村内变压器,","scope":"【影响街道/乡镇】军城办事处 【高危重要客户】无 【影响客户】撞河村","startTime":"2019-07-28 21:13:39","stopDate":"2019-07-28 23:00:00","orgNo":"1340612","typeCode":"电网故障停限电","poweroffArea":"【单台区停电】停撞河村内变压器","poweroffReason":"【停电原因】由于跌落烧毁导致２２０ＫＶ高碑店变电站１０ＫＶ营房５１６线路撞河村内公变台区停电 【变更送电】无 【发布渠道】通过９５５９８发布","powerTime":"2019-07-28 22:25:21","powerComm":"已送电","subsNo":"","lineNo":"","tgNo":"","tgName":null,"infoStatus":"1","orgName":"国网高碑店市供电公司","typeName":null,"infoStatusName":null,"dateDay":null,"orgNos":null,"nowTime":null,"countyName":null,"streetName":null,"villageName":null,"roadName":null,"communityName":null,"tranName":null,"sdLineName":null,"cityCode":"1340612","cityName":"国网高碑店市供电公司","provinceCode":null,"stopTime":"2019-07-28 23:00:00","powerType":"全部","powerOffArea":"【单台区停电】停撞河村内变压器","powerOffReason":"【停电原因】由于跌落烧毁导致２２０ＫＶ高碑店变电站１０ＫＶ营房５１６线路撞河村内公变台区停电 【变更送电】无 【发布渠道】通过９５５９８发布","powerOffId":"2019072813000429"},{"poweroffId":2019072813000426,"sgpoweroffId":null,"subsName":"","lineName":"釜山线517","pubTranName":"西釜山7号【纯农排变】,西釜山8号,釜山北街3号,徐水区柏山矿业有限公司,0691767363-中国移动通信集团河北有限公司徐水分公司-专变-234151295-中国移动通信集团河北有限公司徐水分公司计量点,釜山乡政府,徐水县利民钙粉厂,南釜山4号,徐水县柏山矿业有限公司,徐水县宏星生态园,西釜山3号,北釜山11号,小西庄5号,西釜山2号【纯农排变】,西釜山6号【纯农排变】,北釜山3号,南陈庄1号,南釜山1号,西釜山10号,北釜山13号【纯农排变】,西釜山4号,徐水县百通石料厂,北釜山17号（幼儿园）,北釜山4号,西釜山5号,南陈庄6号,北釜山12号【纯农排变】,南陈庄9号,北釜山9号,小西庄7号【纯农排变】,南陈庄12号（小学）,南陈庄5号,小西庄6号,北釜山18号,同利灰厂,西釜山砖厂,北釜山6号,南陈庄10号,北釜山1号,小西庄4号【纯农排变】,南釜山2号,南陈庄8号,南釜山6号,南釜山7号,小西庄2号【纯农排变】,釜山供电所（所用电）,釜山面粉厂,南釜山5号,南陈庄7号【纯农排变】,北釜山15号,小西庄3号,东黑山7号,西釜山1号,北釜山2号【纯农排变】,保定明盛板石有限公司,南陈庄3号,兴釜面粉厂,小西庄1号,南陈庄11号,南陈庄4号,南陈庄13号,南釜山3号【纯农排变】,南陈庄2号,北釜山7号,小黑山5号,东黑山9号【纯农排变】,小西庄8号,西釜山9号,","scope":"【影响街道/乡镇】大王店镇 【高危重要客户】无 【影响客户】南陈庄、小西庄、南釜山、西釜山、北釜山","startTime":"2019-07-28 21:35:00","stopDate":"2019-07-29 00:20:00","orgNo":"1340605","typeCode":"超电网供电能力停限电","poweroffArea":"【分支停电】停西釜山8号,西釜山7号【纯农排变】,釜山北街3号,徐水区柏山矿业有限公司,0691767363-中国移动通信集团河北有限公司徐水分公司-专变-234151295-中国移动通信集团河北有限公司徐水分公司计量点,釜山乡政府,徐水县利民钙粉厂,徐水县百通石料厂,南釜山4号,徐水县柏山矿业有限公司,徐水县宏星生态园,西釜山3号,北釜山11号,小西庄5号,西釜山2号【纯农排变】,西釜山6号【纯农排变】,北釜山3号,南陈庄1号,南釜山1号,西釜山10号,北釜山13号【纯农排变】,西釜山4号,北釜山17号（幼儿园）,北釜山4号,西釜山5号,南陈庄6号,北釜山12号【纯农排变】,南陈庄9号,北釜山9号,小西庄7号【纯农排变】,南陈庄12号（小学）,南陈庄5号,小西庄6号,北釜山18号,同利灰厂,西釜山砖厂,北釜山6号,南陈庄10号,北釜山1号,小西庄4号【纯农排变】,南釜山2号,南陈庄8号,南釜山6号,南釜山7号,小西庄2号【纯农排变】,釜山供电所（所用电）,西釜山1号,北釜山2号【纯农排变】,保定明盛板石有限公司,南陈庄3号,兴釜面粉厂,小西庄1号,南陈庄11号,南陈庄4号,南陈庄13号,南釜山3号【纯农排变】,南陈庄2号,北釜山7号,小黑山5号,东黑山9号【纯农排变】,小西庄8号,西釜山9号,釜山面粉厂,南釜山5号,北釜山15号,南陈庄7号【纯农排变】,小西庄3号,东黑山7号","poweroffReason":"【停电原因】因黑山变电站主变过负荷导致３５ＫＶ黑山变电站１０ＫＶ釜山５１７线路南陈庄分支以下线路停电 【变更送电】因抢修进度加快原因，送电时间由２９日０７:００变更为００:２０ 【发布渠道】通过９５５９８发布","powerTime":"2019-07-28 23:30:36","powerComm":"已送电","subsNo":"","lineNo":"","tgNo":"","tgName":null,"infoStatus":"1","orgName":"国网徐水县供电公司","typeName":null,"infoStatusName":null,"dateDay":null,"orgNos":null,"nowTime":null,"countyName":null,"streetName":null,"villageName":null,"roadName":null,"communityName":null,"tranName":null,"sdLineName":null,"cityCode":"1340605","cityName":"国网徐水县供电公司","provinceCode":null,"stopTime":"2019-07-29 00:20:00","powerType":"全部","powerOffArea":"【分支停电】停西釜山8号,西釜山7号【纯农排变】,釜山北街3号,徐水区柏山矿业有限公司,0691767363-中国移动通信集团河北有限公司徐水分公司-专变-234151295-中国移动通信集团河北有限公司徐水分公司计量点,釜山乡政府,徐水县利民钙粉厂,徐水县百通石料厂,南釜山4号,徐水县柏山矿业有限公司,徐水县宏星生态园,西釜山3号,北釜山11号,小西庄5号,西釜山2号【纯农排变】,西釜山6号【纯农排变】,北釜山3号,南陈庄1号,南釜山1号,西釜山10号,北釜山13号【纯农排变】,西釜山4号,北釜山17号（幼儿园）,北釜山4号,西釜山5号,南陈庄6号,北釜山12号【纯农排变】,南陈庄9号,北釜山9号,小西庄7号【纯农排变】,南陈庄12号（小学）,南陈庄5号,小西庄6号,北釜山18号,同利灰厂,西釜山砖厂,北釜山6号,南陈庄10号,北釜山1号,小西庄4号【纯农排变】,南釜山2号,南陈庄8号,南釜山6号,南釜山7号,小西庄2号【纯农排变】,釜山供电所（所用电）,西釜山1号,北釜山2号【纯农排变】,保定明盛板石有限公司,南陈庄3号,兴釜面粉厂,小西庄1号,南陈庄11号,南陈庄4号,南陈庄13号,南釜山3号【纯农排变】,南陈庄2号,北釜山7号,小黑山5号,东黑山9号【纯农排变】,小西庄8号,西釜山9号,釜山面粉厂,南釜山5号,北釜山15号,南陈庄7号【纯农排变】,小西庄3号,东黑山7号","powerOffReason":"【停电原因】因黑山变电站主变过负荷导致３５ＫＶ黑山变电站１０ＫＶ釜山５１７线路南陈庄分支以下线路停电 【变更送电】因抢修进度加快原因，送电时间由２９日０７:００变更为００:２０ 【发布渠道】通过９５５９８发布","powerOffId":"2019072813000426"},{"poweroffId":2019072813000415,"sgpoweroffId":null,"subsName":"","lineName":"10kV东文山517","pubTranName":"北兵上村东变压器,","scope":"【影响街道】东文山乡 【高危重要客户】无 【影响客户】北兵上村","startTime":"2019-07-29 05:00:00","stopDate":"2019-07-29 11:00:00","orgNo":"1340614","typeCode":"其他临时停电","poweroffArea":"【单台区停电】停北兵上村东变压器","poweroffReason":"【停电原因】由于电缆老化，需停电进行紧急消缺导致１１０ＫＶ涞水变电站１０ＫＶ东文山５１７线路北兵上村东公变台区停电 【变更送电】无 【发布渠道】通过９５５９８发布","powerTime":"2019-07-29 10:54:58","powerComm":"已送电","subsNo":"","lineNo":"","tgNo":"","tgName":null,"infoStatus":"1","orgName":"国网涞水县供电公司","typeName":null,"infoStatusName":null,"dateDay":null,"orgNos":null,"nowTime":null,"countyName":null,"streetName":null,"villageName":null,"roadName":null,"communityName":null,"tranName":null,"sdLineName":null,"cityCode":"1340614","cityName":"国网涞水县供电公司","provinceCode":null,"stopTime":"2019-07-29 11:00:00","powerType":"全部","powerOffArea":"【单台区停电】停北兵上村东变压器","powerOffReason":"【停电原因】由于电缆老化，需停电进行紧急消缺导致１１０ＫＶ涞水变电站１０ＫＶ东文山５１７线路北兵上村东公变台区停电 【变更送电】无 【发布渠道】通过９５５９８发布","powerOffId":"2019072813000415"},{"poweroffId":2019072813000392,"sgpoweroffId":null,"subsName":"","lineName":"10kV532建行线","pubTranName":"益民东公变,","scope":"【影响街道/乡镇】益民路 【高危重要客户】无 【影响客户】兴华南益民两侧（平房、门脸）、企业局家属楼（平房、门脸）、房产局家属楼","startTime":"2019-07-28 20:42:03","stopDate":"2019-07-29 10:30:00","orgNo":"1340612","typeCode":"电网故障停限电","poweroffArea":"【单台区停电】停益民东公变","poweroffReason":"【停电原因】由于ＪＰ柜烧导致１１０ＫＶ马庄变电站１０ＫＶ建行５３２线路益民东公变台区停电 【变更送电】因抢修进度加快原因，送电时间由１２：００变更为１０：３０ 【发布渠道】通过９５５９８发布","powerTime":"2019-07-29 09:56:37","powerComm":"已送电","subsNo":"","lineNo":"","tgNo":"","tgName":null,"infoStatus":"1","orgName":"国网高碑店市供电公司","typeName":null,"infoStatusName":null,"dateDay":null,"orgNos":null,"nowTime":null,"countyName":null,"streetName":null,"villageName":null,"roadName":null,"communityName":null,"tranName":null,"sdLineName":null,"cityCode":"1340612","cityName":"国网高碑店市供电公司","provinceCode":null,"stopTime":"2019-07-29 10:30:00","powerType":"全部","powerOffArea":"【单台区停电】停益民东公变","powerOffReason":"【停电原因】由于ＪＰ柜烧导致１１０ＫＶ马庄变电站１０ＫＶ建行５３２线路益民东公变台区停电 【变更送电】因抢修进度加快原因，送电时间由１２：００变更为１０：３０ 【发布渠道】通过９５５９８发布","powerOffId":"2019072813000392"},{"poweroffId":2019072813000387,"sgpoweroffId":null,"subsName":"","lineName":"水泥厂线512","pubTranName":"白岭4号,西峪10号,北釜山5号,岭南庄2号,白岭11号,白岭5号,岭南庄3号,北京市宏野冶炼公司徐水公司,西峪13号（小学）,北釜山16号【纯农排变】,保定市徐水区成浩石材加工,北陈庄2号,西峪2号,西峪9号,北釜山14号【纯农排变】,西峪5号,白岭玉柱石板厂,白岭3号,西峪建材石板厂,保定市徐水区春隆苗圃场,岭南庄6号,岭南庄5号,东黑山磨石厂,岭南庄8号,徐水县亚美石材加工厂,西峪4号,北陈庄4号,白岭7号,西峪6号,徐水县万里石材加工厂,西峪1号,徐水县中汇石材加工厂,白岭8号,白岭2号,岭南庄1号,北合庄1号【纯农排变】,0683982730-保定市徐水区旺民石材加工厂-专变-223583815-保定市徐水区旺民石材加工厂变压器,北釜山10号,徐水釜兴石板厂,北陈庄3号【纯农排变】,徐水县海珍石材加工厂,钙品化工有限公司,西峪7号,西峪8号,徐水县磊鑫石材厂,西峪11号,北釜山8号,岭南庄7号,白岭6号,北合庄2号,白岭石化磨粉厂,白岭12号（幼儿园）,白岭9号【纯农排变】,白岭1号,北合庄3号【纯农排变】,白岭10号,西峪3号,岭南庄4号,北陈庄5号,","scope":"【影响街道/乡镇】大王店镇 【高危重要客户】无 【影响客户】岭南庄、白岭、西峪、东黑山、北陈庄、北釜山、北河庄","startTime":"2019-07-28 21:00:00","stopDate":"2019-07-29 00:20:00","orgNo":"1340605","typeCode":"超电网供电能力停限电","poweroffArea":"【分支停电】停岭南庄5号,白岭玉柱石板厂,白岭3号,西峪建材石板厂,保定市徐水区春隆苗圃场,岭南庄6号,东黑山磨石厂,岭南庄8号,徐水县亚美石材加工厂,西峪4号,北陈庄4号,白岭7号,北釜山14号【纯农排变】,白岭4号,西峪10号,北釜山5号,岭南庄2号,白岭11号,白岭5号,岭南庄3号,北京市宏野冶炼公司徐水公司,西峪13号（小学）,北釜山16号【纯农排变】,保定市徐水区成浩石材加工,北陈庄2号,西峪2号,西峪9号,西峪5号,西峪6号,徐水县万里石材加工厂,西峪1号,徐水县中汇石材加工厂,白岭8号,白岭2号,岭南庄1号,北合庄1号【纯农排变】,0683982730-保定市徐水区旺民石材加工厂-专变-223583815-保定市徐水区旺民石材加工厂变压器,北釜山10号,徐水釜兴石板厂,北陈庄3号【纯农排变】,徐水县海珍石材加工厂,钙品化工有限公司,西峪7号,西峪8号,徐水县磊鑫石材厂,西峪11号,北釜山8号,岭南庄7号,白岭6号,北合庄3号【纯农排变】,北合庄2号,白岭石化磨粉厂,白岭12号（幼儿园）,白岭9号【纯农排变】,白岭1号,白岭10号,西峪3号,岭南庄4号,北陈庄5号","poweroffReason":"【停电原因】因黑山变电站主变过负荷导致３５ＫＶ黑山变电站１０ＫＶ水泥厂５１２线路北河庄分支以下线路停电 【变更送电】因抢修进度加快原因，送电时间由２９日０７:００变更为００:２０ 【发布渠道】通过９５５９８发布","powerTime":"2019-07-28 23:32:19","powerComm":"已送电","subsNo":"","lineNo":"","tgNo":"","tgName":null,"infoStatus":"1","orgName":"国网徐水县供电公司","typeName":null,"infoStatusName":null,"dateDay":null,"orgNos":null,"nowTime":null,"countyName":null,"streetName":null,"villageName":null,"roadName":null,"communityName":null,"tranName":null,"sdLineName":null,"cityCode":"1340605","cityName":"国网徐水县供电公司","provinceCode":null,"stopTime":"2019-07-29 00:20:00","powerType":"全部","powerOffArea":"【分支停电】停岭南庄5号,白岭玉柱石板厂,白岭3号,西峪建材石板厂,保定市徐水区春隆苗圃场,岭南庄6号,东黑山磨石厂,岭南庄8号,徐水县亚美石材加工厂,西峪4号,北陈庄4号,白岭7号,北釜山14号【纯农排变】,白岭4号,西峪10号,北釜山5号,岭南庄2号,白岭11号,白岭5号,岭南庄3号,北京市宏野冶炼公司徐水公司,西峪13号（小学）,北釜山16号【纯农排变】,保定市徐水区成浩石材加工,北陈庄2号,西峪2号,西峪9号,西峪5号,西峪6号,徐水县万里石材加工厂,西峪1号,徐水县中汇石材加工厂,白岭8号,白岭2号,岭南庄1号,北合庄1号【纯农排变】,0683982730-保定市徐水区旺民石材加工厂-专变-223583815-保定市徐水区旺民石材加工厂变压器,北釜山10号,徐水釜兴石板厂,北陈庄3号【纯农排变】,徐水县海珍石材加工厂,钙品化工有限公司,西峪7号,西峪8号,徐水县磊鑫石材厂,西峪11号,北釜山8号,岭南庄7号,白岭6号,北合庄3号【纯农排变】,北合庄2号,白岭石化磨粉厂,白岭12号（幼儿园）,白岭9号【纯农排变】,白岭1号,白岭10号,西峪3号,岭南庄4号,北陈庄5号","powerOffReason":"【停电原因】因黑山变电站主变过负荷导致３５ＫＶ黑山变电站１０ＫＶ水泥厂５１２线路北河庄分支以下线路停电 【变更送电】因抢修进度加快原因，送电时间由２９日０７:００变更为００:２０ 【发布渠道】通过９５５９８发布","powerOffId":"2019072813000387"},{"poweroffId":2019072813000372,"sgpoweroffId":null,"subsName":"","lineName":"10KV八里庄线565","pubTranName":"八里庄5、6队台区,","scope":"【影响街道】石亭镇 【高危重要客户】无 【影响客户】八里庄村","startTime":"2019-07-28 20:15:17","stopDate":"2019-07-28 22:30:00","orgNo":"1340614","typeCode":"电网故障停限电","poweroffArea":"【单台区停电】停八里庄5、6队台区","poweroffReason":"【停电原因】由于空开跳闸导致１１０ＫＶ石亭变电站１０ＫＶ八里庄５６５线路八里庄５、６队台区公变台区停电 【变更送电】因抢修进度加快原因，送电时间由２３：３０变更为２２：３０ 【发布渠道】通过９５５９８发布","powerTime":"2019-07-28 21:56:49","powerComm":"已送电","subsNo":"","lineNo":"","tgNo":"","tgName":null,"infoStatus":"1","orgName":"国网涞水县供电公司","typeName":null,"infoStatusName":null,"dateDay":null,"orgNos":null,"nowTime":null,"countyName":null,"streetName":null,"villageName":null,"roadName":null,"communityName":null,"tranName":null,"sdLineName":null,"cityCode":"1340614","cityName":"国网涞水县供电公司","provinceCode":null,"stopTime":"2019-07-28 22:30:00","powerType":"全部","powerOffArea":"【单台区停电】停八里庄5、6队台区","powerOffReason":"【停电原因】由于空开跳闸导致１１０ＫＶ石亭变电站１０ＫＶ八里庄５６５线路八里庄５、６队台区公变台区停电 【变更送电】因抢修进度加快原因，送电时间由２３：３０变更为２２：３０ 【发布渠道】通过９５５９８发布","powerOffId":"2019072813000372"}],"pageModel":{"pageNow":755,"totalCount":10973,"totalPage":1098,"tableRows":0,"pageCount":10,"beginCount":7540},"isExperi":"1"}