{"message":"","today":"2020-06-15","seleList":[{"poweroffId":2019072813000119,"sgpoweroffId":null,"subsName":"","lineName":"显口线511","pubTranName":"东显口4975变压器,","scope":"【影响街道/乡镇】北店头乡【高危重要客户】无【影响客户】东显口","startTime":"2019-07-28 10:36:31","stopDate":"2019-07-28 18:00:00","orgNo":"1340622","typeCode":"电网故障停限电","poweroffArea":"【单台区停电】停东显口4975变压器","poweroffReason":"【停电原因】由于变压器出线烧导致３５ＫＶ山阳变电站显口５１１线路东显口４９７５公变台区停电【变更送电】无【发布渠道】通过９５５９８发布","powerTime":"2019-07-28 17:02:33","powerComm":"已送电","subsNo":"","lineNo":"","tgNo":"","tgName":null,"infoStatus":"1","orgName":"国网唐县供电公司","typeName":null,"infoStatusName":null,"dateDay":null,"orgNos":null,"nowTime":null,"countyName":null,"streetName":null,"villageName":null,"roadName":null,"communityName":null,"tranName":null,"sdLineName":null,"cityCode":"1340622","cityName":"国网唐县供电公司","provinceCode":null,"stopTime":"2019-07-28 18:00:00","powerType":"全部","powerOffArea":"【单台区停电】停东显口4975变压器","powerOffReason":"【停电原因】由于变压器出线烧导致３５ＫＶ山阳变电站显口５１１线路东显口４９７５公变台区停电【变更送电】无【发布渠道】通过９５５９８发布","powerOffId":"2019072813000119"},{"poweroffId":2019072813000096,"sgpoweroffId":null,"subsName":"","lineName":"10KV城区553","pubTranName":"下车亭东台,","scope":"【影响街道/乡镇】东文山乡 【高危重要客户】无 【影响客户】下车亭村","startTime":"2019-07-28 10:15:00","stopDate":"2019-07-28 13:00:00","orgNo":"1340614","typeCode":"其他临时停电","poweroffArea":"【单台区停电】停下车亭东台","poweroffReason":"【停电原因】由于电缆老化，需停电进行紧急消缺导致２２０ＫＶ涞阳变电站１０ＫＶ城区５５３线路下车亭村东公变台区停电 【变更送电】无 【发布渠道】通过９５５９８发布","powerTime":"2019-07-28 12:19:20","powerComm":"已送电","subsNo":"","lineNo":"","tgNo":"","tgName":null,"infoStatus":"1","orgName":"国网涞水县供电公司","typeName":null,"infoStatusName":null,"dateDay":null,"orgNos":null,"nowTime":null,"countyName":null,"streetName":null,"villageName":null,"roadName":null,"communityName":null,"tranName":null,"sdLineName":null,"cityCode":"1340614","cityName":"国网涞水县供电公司","provinceCode":null,"stopTime":"2019-07-28 13:00:00","powerType":"全部","powerOffArea":"【单台区停电】停下车亭东台","powerOffReason":"【停电原因】由于电缆老化，需停电进行紧急消缺导致２２０ＫＶ涞阳变电站１０ＫＶ城区５５３线路下车亭村东公变台区停电 【变更送电】无 【发布渠道】通过９５５９８发布","powerOffId":"2019072813000096"},{"poweroffId":2019072813000081,"sgpoweroffId":null,"subsName":"","lineName":"10kV516刘枣线","pubTranName":"枣林综合14台区,枣林综合11台区,枣林综合15台区,枣林综合12台区,枣林综合8台区,枣林农排4台区【纯农排变】,枣林综合10台区,枣林农排6台区【纯农排变】,枣林农排1台区【纯农排变】,枣林综合5台区,枣林综合1台区,枣林农排2台区【纯农排变】,枣林综合6台区,枣林综合3台区,枣林综合4台区,枣林综合17台区,客户投资_枣林综合2台区,枣林综合13台区,枣林综合7台区,枣林综合16台区,","scope":"【影响街道/乡镇】北郭丹镇【高危重要客户】无【影响客户】枣林村、志西村（西志愿村）、志东村（东志愿村）","startTime":"2019-07-28 08:24:37","stopDate":"2019-07-28 11:00:00","orgNo":"1340616","typeCode":"电网故障停限电","poweroffArea":"【全线路停电】停枣林综合14台区,枣林综合4台区,枣林农排4台区【纯农排变】,枣林综合17台区,枣林农排6台区【纯农排变】,枣林综合6台区,客户投资_枣林综合2台区,枣林农排1台区【纯农排变】,枣林农排2台区【纯农排变】,枣林综合10台区,枣林综合11台区,枣林综合12台区,枣林综合13台区,枣林综合15台区,枣林综合16台区,枣林综合1台区,枣林综合3台区,枣林综合5台区,枣林综合7台区,枣林综合8台区","poweroffReason":"【停电原因】由于站内开关掉闸导致１１０ＫＶ刘铭庄变电站１０ＫＶ刘枣５１６线路全线停电【变更送电】因抢修进度加快原因，送电时间由２０：００变更为１１：００【发布渠道】通过９５５９８发布","powerTime":"2019-07-28 10:40:45","powerComm":"已送电","subsNo":"","lineNo":"","tgNo":"","tgName":null,"infoStatus":"1","orgName":"国网蠡县供电公司","typeName":null,"infoStatusName":null,"dateDay":null,"orgNos":null,"nowTime":null,"countyName":null,"streetName":null,"villageName":null,"roadName":null,"communityName":null,"tranName":null,"sdLineName":null,"cityCode":"1340616","cityName":"国网蠡县供电公司","provinceCode":null,"stopTime":"2019-07-28 11:00:00","powerType":"全部","powerOffArea":"【全线路停电】停枣林综合14台区,枣林综合4台区,枣林农排4台区【纯农排变】,枣林综合17台区,枣林农排6台区【纯农排变】,枣林综合6台区,客户投资_枣林综合2台区,枣林农排1台区【纯农排变】,枣林农排2台区【纯农排变】,枣林综合10台区,枣林综合11台区,枣林综合12台区,枣林综合13台区,枣林综合15台区,枣林综合16台区,枣林综合1台区,枣林综合3台区,枣林综合5台区,枣林综合7台区,枣林综合8台区","powerOffReason":"【停电原因】由于站内开关掉闸导致１１０ＫＶ刘铭庄变电站１０ＫＶ刘枣５１６线路全线停电【变更送电】因抢修进度加快原因，送电时间由２０：００变更为１１：００【发布渠道】通过９５５９８发布","powerOffId":"2019072813000081"},{"poweroffId":2019072813000072,"sgpoweroffId":null,"subsName":"","lineName":"边家务线525","pubTranName":"河西村西北综合,庞佐村西新增2号综合,庞佐综合（117）,河西村村里综合,湘连口东洼5,银河棉花有限公司,大东毛纺厂(子),北归还村东北新增综合变压器,河北同兴电气有限公司变压器,田佐综合,南梁庄30综合,庞佐西42综合,双龙巾被厂,0668423177-中国石油天然气股份有限公司华北油田分公司-专变-208440443-中国石油天然气股份有限公司华北油田分公司变压器,华兴电器厂,湘连口向阳街新增综合,河西村大道农业,贾务电缆厂,庞佐西面厂,湘连口村东北新增综合,庞佐村南新增综合,河西村收购点南农业,庞佐94#农业【纯农排变】,贾务南(西）综合,河西村南综合,河西村板厂农业,庞佐粮站,阳光电力设备公司,河北诚拓电力器材有限公司,双强电器设备公司,湘连口北20综合,河西村大庙东农业,庞佐联小,高阳县庞家佐中学变压器,河西村,0688118527-保定京阳立津线缆制造有限公司-专变-228713040-保定京阳立津线缆制造有限公司变压器,都曹口大队综合,庞佐村北新增综合,南梁庄28#农业【纯农排变】,河西村东综合,东方染厂,北辛庄村西北新增综合,贾务西,高阳县宏泰线路金具厂变压器,河西村变压器农业,河西村(西盘)变压器,庄头村新增综合(123),庞佐卫生院,湘连口村东南新增综合,北归还6#台区13#农业【纯农排变】,贾务村北综合,庞佐村西新增综合,保定永红电器设备有限公司,湘连口村东南道14号农业【纯农排变】,河西村信家地农业,通力电器设备公司,河西村果园农业,东信电力金具厂,河西村郭坟农业,湘连口村南新增综合,北归还7#台区10#农业【纯农排变】,湘连口,利口100#农业【纯农排变】,高阳县京硕毛巾厂变压器,庄头综合,湘连口村东中道9号农业【纯农排变】,高阳县宏达绝缘材料厂变压器,北归还村东南新增综合,湘莲口村东农业,辛丰庄58综合,贾务大队（东）综合,东华电力器材公司,北归还大队74综合,湘连口西,湘连口大队,庄头村新增综合,北归还新增综合,湘连口村西新增综合,北归还72综合,河北永安线路器材有限公司变压器,田佐村村西综合,任长六,湘连口东22综合,张亚辉,中国石油天然气股份有限公司华北油田分公司变压器,庞佐59#农业【纯农排变】,都曹口村西综合,南辛庄村南新增综合,保定安凯电器设备制造有限公司变压器,保定京阳立津线缆制造有限公司变压器,湘连口村东北道3号农业【纯农排变】,湘连口村西北新增综合,庞佐村南126综合,保定双强电器设备有限公司,庞佐乡政府小区,河西村东方农业,0681020579-中国石油天然气股份有限公司华北油田分公司-专变-219720605-中国石油天然气股份有限公司华北油田分公司变压器,庄头村西新增,庞佐2#农业【纯农排变】,北归还大槐树新增综合,湘连口村北新增综合,保定双强电器设备有限公司变压器,辛丰庄113#农业【纯农排变】,曙光电器厂,贾务村北农业【纯农排变】,南辛庄农业【纯农排变】,庞佐村南新增农业【纯农排变】,庄头农业93号【纯农排变】,湘连口永发热镀厂,河北同兴电气有限公司,利口98#农业【纯农排变】,庞佐东5综合,天路公司牛场,湘连口红旗厂,河西村村,湘连口70综合,李满常,贾务村南新","scope":"【影响街道/乡镇】西演镇、庞口镇、庞佐乡 【高危重要客户】无 【影响客户】田佐、庞佐、都曹口、南梁庄、河西村、庄头、辛丰庄、北归还、湘涟口","startTime":"2019-07-28 08:00:51","stopDate":"2019-07-28 10:00:00","orgNo":"1340613","typeCode":"电网故障停限电","poweroffArea":"【全线路停电】停湘连口村北新增综合,保定双强电器设备有限公司变压器,天路公司牛场,湘连口红旗厂,河西村村,湘连口70综合,湘连口向阳街新增综合,河西村大道农业,贾务电缆厂,庞佐西面厂,湘连口村东北新增综合,庞佐村南新增综合,贾务南(西）综合,河西村南综合,河西村板厂农业,庞佐粮站,阳光电力设备公司,河北诚拓电力器材有限公司,双强电器设备公司,湘连口北20综合,河西村大庙东农业,庞佐联小,高阳县庞家佐中学变压器,河西村,河西村收购点农业,河西村北新增综合,河北京阳电气有限公司50,华北油田1号,湘连口小康街中综合,辛丰庄村北新增综合,北归还5#台区14#农业【纯农排变】,贾务村北综合,庞佐村西新增综合,保定永红电器设备有限公司,庞佐卫生院,湘连口村东南新增综合,北归还6#台区13#农业【纯农排变】,湘连口东2,续国建,0668400020-中国石油天然气股份有限公司华北油田分公司-专变-208440457-中国石油天然气股份有限公司华北油田分公司变压器,保定东华电力器材有限公司,辛丰庄村东北综合,永红电器设备公司,湘连口东洼,湘连口东洼2,李满常,贾务村南新增综合,河西村托坯坑农业,辛丰庄村西,南辛庄线厂,西演振兴电缆厂,湘连口新增综合,河北佳创电力器材制造有限公司变压器,保定阳光电力设备有限公司,河西村综合,河西村赵坟农业,都曹口36综合,华北油田第三采油厂,庞佐村委会,河北京阳电气有限公司,湘连口村西北新增综合,河西村西北综合,庞佐村西新增2号综合,庞佐综合（117）,河西村村里综合,湘连口东洼5,银河棉花有限公司,大东毛纺厂(子),北归还村东北新增综合变压器,河北同兴电气有限公司变压器,田佐综合,南梁庄30综合,庞佐西42综合,双龙巾被厂,0668423177-中国石油天然气股份有限公司华北油田分公司-专变-208440443-中国石油天然气股份有限公司华北油田分公司变压器,华兴电器厂,湘连口村东南道14号农业【纯农排变】,河西村信家地农业,通力电器设备公司,河西村果园农业,东信电力金具厂,河西村郭坟农业,庄头村新增综合(123),北归还大队74综合,湘连口村南新增综合,北归还7#台区10#农业【纯农排变】,湘连口村东中道9号农业【纯农排变】,高阳县宏达绝缘材料厂变压器,北归还村东南新增综合,湘莲口村东农业,辛丰庄58综合,贾务大队（东）综合,东华电力器材公司,湘连口西,湘连口大队,庄头村新增综合,北归还新增综合,北归还72综合,湘连口西16综合,湘连口村西新增综合,河北永安线路器材有限公司变压器,田佐村村西综合,南辛庄村南新增综合,保定安凯电器设备制造有限公司变压器,保定京阳立津线缆制造有限公司变压器,湘连口村东北道3号农业【纯农排变】,任长六,湘连口东22综合,张亚辉,中国石油天然气股份有限公司华北油田分公司变压器,庞佐59#农业【纯农排变】,都曹口村西综合,辛丰庄113#农业【纯农排变】,曙光电器厂,贾务村北农业【纯农排变】,南辛庄农业【纯农排变】,庞佐村南新增农业【纯农排变】,庄头农业93号【纯农排变】,湘连口永发热镀厂,河北同兴电气有限公司,利口98#农业【纯农排变】,庞佐东5综合,河西村收购点南农业,庞佐94#农业【纯农排变】,庞佐村南126综合,保定双强电器设备有限公司,庞佐乡政府小区,河西村东方农业,0681020579-中国石油天然气股份有限公司华北油田分公司-专变-219720605-中国石油天然气股份有限公司华北油田分公司变压器,庄头村西新增,庞佐2#农业【纯农排变】,北归还大槐树新增综合,湘连口,利口100#农业【纯农排变】,高阳县京硕毛巾厂变压器,庄头综合,0688118527-","poweroffReason":"【停电原因】由于汽车撞杆导致１１０ＫＶ西演变电站边家务５２５线路全线停电【变更送电】因抢修进度加快原因，送电时间由１１：００变更为１０：００【发布渠道】通过９５５９８发布","powerTime":"2019-07-28 10:09:54","powerComm":"已送电","subsNo":"","lineNo":"","tgNo":"","tgName":null,"infoStatus":"1","orgName":"国网高阳县供电公司","typeName":null,"infoStatusName":null,"dateDay":null,"orgNos":null,"nowTime":null,"countyName":null,"streetName":null,"villageName":null,"roadName":null,"communityName":null,"tranName":null,"sdLineName":null,"cityCode":"1340613","cityName":"国网高阳县供电公司","provinceCode":null,"stopTime":"2019-07-28 10:00:00","powerType":"全部","powerOffArea":"【全线路停电】停湘连口村北新增综合,保定双强电器设备有限公司变压器,天路公司牛场,湘连口红旗厂,河西村村,湘连口70综合,湘连口向阳街新增综合,河西村大道农业,贾务电缆厂,庞佐西面厂,湘连口村东北新增综合,庞佐村南新增综合,贾务南(西）综合,河西村南综合,河西村板厂农业,庞佐粮站,阳光电力设备公司,河北诚拓电力器材有限公司,双强电器设备公司,湘连口北20综合,河西村大庙东农业,庞佐联小,高阳县庞家佐中学变压器,河西村,河西村收购点农业,河西村北新增综合,河北京阳电气有限公司50,华北油田1号,湘连口小康街中综合,辛丰庄村北新增综合,北归还5#台区14#农业【纯农排变】,贾务村北综合,庞佐村西新增综合,保定永红电器设备有限公司,庞佐卫生院,湘连口村东南新增综合,北归还6#台区13#农业【纯农排变】,湘连口东2,续国建,0668400020-中国石油天然气股份有限公司华北油田分公司-专变-208440457-中国石油天然气股份有限公司华北油田分公司变压器,保定东华电力器材有限公司,辛丰庄村东北综合,永红电器设备公司,湘连口东洼,湘连口东洼2,李满常,贾务村南新增综合,河西村托坯坑农业,辛丰庄村西,南辛庄线厂,西演振兴电缆厂,湘连口新增综合,河北佳创电力器材制造有限公司变压器,保定阳光电力设备有限公司,河西村综合,河西村赵坟农业,都曹口36综合,华北油田第三采油厂,庞佐村委会,河北京阳电气有限公司,湘连口村西北新增综合,河西村西北综合,庞佐村西新增2号综合,庞佐综合（117）,河西村村里综合,湘连口东洼5,银河棉花有限公司,大东毛纺厂(子),北归还村东北新增综合变压器,河北同兴电气有限公司变压器,田佐综合,南梁庄30综合,庞佐西42综合,双龙巾被厂,0668423177-中国石油天然气股份有限公司华北油田分公司-专变-208440443-中国石油天然气股份有限公司华北油田分公司变压器,华兴电器厂,湘连口村东南道14号农业【纯农排变】,河西村信家地农业,通力电器设备公司,河西村果园农业,东信电力金具厂,河西村郭坟农业,庄头村新增综合(123),北归还大队74综合,湘连口村南新增综合,北归还7#台区10#农业【纯农排变】,湘连口村东中道9号农业【纯农排变】,高阳县宏达绝缘材料厂变压器,北归还村东南新增综合,湘莲口村东农业,辛丰庄58综合,贾务大队（东）综合,东华电力器材公司,湘连口西,湘连口大队,庄头村新增综合,北归还新增综合,北归还72综合,湘连口西16综合,湘连口村西新增综合,河北永安线路器材有限公司变压器,田佐村村西综合,南辛庄村南新增综合,保定安凯电器设备制造有限公司变压器,保定京阳立津线缆制造有限公司变压器,湘连口村东北道3号农业【纯农排变】,任长六,湘连口东22综合,张亚辉,中国石油天然气股份有限公司华北油田分公司变压器,庞佐59#农业【纯农排变】,都曹口村西综合,辛丰庄113#农业【纯农排变】,曙光电器厂,贾务村北农业【纯农排变】,南辛庄农业【纯农排变】,庞佐村南新增农业【纯农排变】,庄头农业93号【纯农排变】,湘连口永发热镀厂,河北同兴电气有限公司,利口98#农业【纯农排变】,庞佐东5综合,河西村收购点南农业,庞佐94#农业【纯农排变】,庞佐村南126综合,保定双强电器设备有限公司,庞佐乡政府小区,河西村东方农业,0681020579-中国石油天然气股份有限公司华北油田分公司-专变-219720605-中国石油天然气股份有限公司华北油田分公司变压器,庄头村西新增,庞佐2#农业【纯农排变】,北归还大槐树新增综合,湘连口,利口100#农业【纯农排变】,高阳县京硕毛巾厂变压器,庄头综合,0688118527-","powerOffReason":"【停电原因】由于汽车撞杆导致１１０ＫＶ西演变电站边家务５２５线路全线停电【变更送电】因抢修进度加快原因，送电时间由１１：００变更为１０：００【发布渠道】通过９５５９８发布","powerOffId":"2019072813000072"},{"poweroffId":2019072813000071,"sgpoweroffId":null,"subsName":"","lineName":"10kV513七器线","pubTranName":"七器村北,七器农排9台区【纯农排变】,七器农排2台区【纯农排变】,七器综合7台区,七器东一,七器农排8台区【纯农排变】,七器综合3台区,七器村南,七器农排11台区【纯农排变】,七器南二,七器农排3台区【纯农排变】,七器综合8台区,七器第一面粉厂,七器综合6台区,七器综合5台区,七器农排6台区【纯农排变】,七器农排10台区【纯农排变】,七器综合2台区,七器农排7台区【纯农排变】,七器综合4台区,七器农排4台区【纯农排变】,七器南一,七器综合1台区,五坊农排8台区513【纯农排变】,七器村北路边,七器农排5台区【纯农排变】,七器农排1台区【纯农排变】,","scope":"【影响街道/乡镇】南庄镇【高危重要客户】无【影响客户】七器村","startTime":"2019-07-28 08:03:29","stopDate":"2019-07-28 11:20:00","orgNo":"1340616","typeCode":"电网故障停限电","poweroffArea":"【全线路停电】停七器综合7台区,七器综合1台区,七器南一,七器村北,七器南二,七器农排4台区【纯农排变】,七器村北路边,七器农排1台区【纯农排变】,七器农排3台区【纯农排变】,七器综合6台区,七器第一面粉厂,七器综合8台区,七器农排9台区【纯农排变】,七器村南,七器综合3台区,七器东一,七器农排2台区【纯农排变】,七器综合5台区,七器农排11台区【纯农排变】,七器综合2台区,七器农排5台区【纯农排变】,七器农排10台区【纯农排变】,七器综合4台区,七器农排7台区【纯农排变】,五坊农排8台区513【纯农排变】,七器农排6台区【纯农排变】,七器农排8台区【纯农排变】","poweroffReason":"【停电原因】由于站外开关掉闸导致３５ＫＶ洪善堡变电站１０ＫＶ七器５１３线路全线停电【变更送电】因抢修进度加快原因，送电时间由１５：００变更为１１：２０【发布渠道】通过９５５９８发布","powerTime":"2019-07-28 10:52:53","powerComm":"已送电","subsNo":"","lineNo":"","tgNo":"","tgName":null,"infoStatus":"1","orgName":"国网蠡县供电公司","typeName":null,"infoStatusName":null,"dateDay":null,"orgNos":null,"nowTime":null,"countyName":null,"streetName":null,"villageName":null,"roadName":null,"communityName":null,"tranName":null,"sdLineName":null,"cityCode":"1340616","cityName":"国网蠡县供电公司","provinceCode":null,"stopTime":"2019-07-28 11:20:00","powerType":"全部","powerOffArea":"【全线路停电】停七器综合7台区,七器综合1台区,七器南一,七器村北,七器南二,七器农排4台区【纯农排变】,七器村北路边,七器农排1台区【纯农排变】,七器农排3台区【纯农排变】,七器综合6台区,七器第一面粉厂,七器综合8台区,七器农排9台区【纯农排变】,七器村南,七器综合3台区,七器东一,七器农排2台区【纯农排变】,七器综合5台区,七器农排11台区【纯农排变】,七器综合2台区,七器农排5台区【纯农排变】,七器农排10台区【纯农排变】,七器综合4台区,七器农排7台区【纯农排变】,五坊农排8台区513【纯农排变】,七器农排6台区【纯农排变】,七器农排8台区【纯农排变】","powerOffReason":"【停电原因】由于站外开关掉闸导致３５ＫＶ洪善堡变电站１０ＫＶ七器５１３线路全线停电【变更送电】因抢修进度加快原因，送电时间由１５：００变更为１１：２０【发布渠道】通过９５５９８发布","powerOffId":"2019072813000071"},{"poweroffId":2019072813000065,"sgpoweroffId":null,"subsName":"","lineName":"10kV513赵庄线","pubTranName":"赵庄综合2台区变压器,","scope":"【影响街道/乡镇】留史镇【高危重要客户】无【影响客户】赵庄乡、赵庄村","startTime":"2019-07-27 16:10:00","stopDate":"2019-07-28 09:00:00","orgNo":"1340616","typeCode":"电网故障停限电","poweroffArea":"【单台区停电】停赵庄综合2台区变压器","poweroffReason":"【停电原因】由于变压器烧毁导致１１０ＫＶ留史变电站１０ＫＶ赵庄５１３线路赵庄综合２公变台区停电【变更送电】无【发布渠道】通过９５５９８发布","powerTime":"2019-07-28 08:16:29","powerComm":"已送电","subsNo":"","lineNo":"","tgNo":"","tgName":null,"infoStatus":"1","orgName":"国网蠡县供电公司","typeName":null,"infoStatusName":null,"dateDay":null,"orgNos":null,"nowTime":null,"countyName":null,"streetName":null,"villageName":null,"roadName":null,"communityName":null,"tranName":null,"sdLineName":null,"cityCode":"1340616","cityName":"国网蠡县供电公司","provinceCode":null,"stopTime":"2019-07-28 09:00:00","powerType":"全部","powerOffArea":"【单台区停电】停赵庄综合2台区变压器","powerOffReason":"【停电原因】由于变压器烧毁导致１１０ＫＶ留史变电站１０ＫＶ赵庄５１３线路赵庄综合２公变台区停电【变更送电】无【发布渠道】通过９５５９８发布","powerOffId":"2019072813000065"},{"poweroffId":2019072813000058,"sgpoweroffId":null,"subsName":"","lineName":"庆都山线512","pubTranName":"庄头村486变压器,","scope":"【影响街道/乡镇】高昌镇【高危重要客户】无【影响客户】庄头","startTime":"2019-07-28 07:20:19","stopDate":"2019-07-28 18:00:00","orgNo":"1340622","typeCode":"电网故障停限电","poweroffArea":"【单台区停电】停庄头村486变压器","poweroffReason":"【停电原因】由于变压器烧导致３５ＫＶ山阳变电站庆都山５１２线路庄头０４８６公变台区停电【变更送电】无【发布渠道】通过９５５９８发布","powerTime":"2019-07-28 17:12:08","powerComm":"已送电","subsNo":"","lineNo":"","tgNo":"","tgName":null,"infoStatus":"1","orgName":"国网唐县供电公司","typeName":null,"infoStatusName":null,"dateDay":null,"orgNos":null,"nowTime":null,"countyName":null,"streetName":null,"villageName":null,"roadName":null,"communityName":null,"tranName":null,"sdLineName":null,"cityCode":"1340622","cityName":"国网唐县供电公司","provinceCode":null,"stopTime":"2019-07-28 18:00:00","powerType":"全部","powerOffArea":"【单台区停电】停庄头村486变压器","powerOffReason":"【停电原因】由于变压器烧导致３５ＫＶ山阳变电站庆都山５１２线路庄头０４８６公变台区停电【变更送电】无【发布渠道】通过９５５９８发布","powerOffId":"2019072813000058"},{"poweroffId":2019072813000055,"sgpoweroffId":null,"subsName":"","lineName":"10kV520城东线","pubTranName":"南忠卫综合17台区,南忠卫开花厂变压器,自来水,南忠卫综合8台区,张树根,张志民,西南街农排1台区【纯农排变】,南忠卫综合14台区,蠡县鑫泰纺织制造有限公司变压器,占强纺纱厂变压器,南忠卫综合5台区,元憎,变压器,南忠卫综合7台区,南忠卫综合11台区,南忠卫小良纺织厂变压器,南忠卫华兴橡胶厂,北忠卫农排4台区【纯农排变】,强胜养殖,南忠卫综合12台区,树峰纺织厂变压器,南忠卫综合6台区,百川橡胶,南忠卫综合16台区,南忠卫纺纱厂变压器,小谷纺纱厂变压器,东北街农排1台区【纯农排变】,法宗毛纺厂,东北街农排2台区【纯农排变】,北忠卫综合4台区,盠县南忠卫中心纺纱厂,南中卫汽水厂,蠡县群力纺织有限公司,南忠卫加弹厂,南忠卫农排8台区【纯农排变】,蠡县南忠卫丽芳纺织厂（2）,南忠卫农排6台区【纯农排变】,蠡县卫辉纺纱厂,南忠卫综合3台区,张军养殖厂,蠡县南中卫谷小良纺纱厂变压器,南忠卫综合1台区,北忠卫农排1台区【纯农排变】,北忠卫农排5台区【纯农排变】,南忠卫气水厂东,北忠卫综合6台区,南忠卫综合4台区,保定卫生品厂（木器西）,顺来纺纱厂变压器,北忠卫综合8台区,南忠卫综合10台区,蠡县南中卫双月纺织厂变压器,金诺斯纺织品制造有限公司,南忠卫综合13台区,北忠卫综合3台区,保定东立胶带制造有限公司变压器,南忠卫农排14台区【纯农排变】,旭日,西北街农排1台区【纯农排变】,盠县南忠卫丽芳纺织厂,南忠卫综合15台区,保定卫生品厂(木器厂东）,傅新,蠡县南忠卫法宗纺纱厂变压器,盠县南忠卫建国纺纱厂,蠡县南忠卫建国纺纱厂变压器,南忠卫农排5台区【纯农排变】,李路营,北忠卫综合7台区,南忠卫聚源纺沙厂,永泰纺纱厂变压器,北中卫老四,北忠卫综合1台区,西北街农排2台区【纯农排变】,小彬纺纱,河北省里县圣鑫纺纱厂,蠡县鑫宇纺织厂变压器,盠县振锋织布厂,0556973823-蠡县鸿运输送机械厂-专变-227030242-蠡县鸿运变压器,北忠卫综合2台区,恒泰纺织变压器,南忠卫综合9台区,东南街农排1台区【纯农排变】,百川北,北忠卫综合5台区,南忠卫农排1台区【纯农排变】,蠡县双燕皮毛厂,南忠卫综合2台区,","scope":"【影响街道/乡镇】蠡吾镇、西北街、东南街、西南街、东北街【高危重要客户】无【影响客户】南忠卫村、北忠卫村、蠡县自来水公司、保定卫生用品厂","startTime":"2019-07-28 07:13:56","stopDate":"2019-07-28 09:00:00","orgNo":"1340616","typeCode":"电网故障停限电","poweroffArea":"【全线路停电】停南忠卫综合6台区,南忠卫综合2台区,旭日,南忠卫综合1台区,百川橡胶,蠡县南忠卫丽芳纺织厂（2）,北忠卫综合5台区,张志民,蠡县群力纺织有限公司,南忠卫农排6台区【纯农排变】,南忠卫农排14台区【纯农排变】,盠县南忠卫建国纺纱厂,小彬纺纱,北忠卫综合3台区,南忠卫综合12台区,西北街农排1台区【纯农排变】,北忠卫综合6台区,南忠卫综合15台区,自来水,盠县南忠卫中心纺纱厂,蠡县南中卫谷小良纺纱厂变压器,河北省里县圣鑫纺纱厂,元憎,蠡县鑫泰纺织制造有限公司变压器,南忠卫气水厂东,傅新,小谷纺纱厂变压器,保定东立胶带制造有限公司变压器,南忠卫综合4台区,蠡县南忠卫建国纺纱厂变压器,南忠卫小良纺织厂变压器,南忠卫开花厂变压器,南忠卫综合10台区,占强纺纱厂变压器,张树根,南忠卫综合3台区,0556973823-蠡县鸿运输送机械厂-专变-227030242-蠡县鸿运变压器,百川北","poweroffReason":"【停电原因】由于站外开关掉闸导致２２０ＫＶ蠡县变电站１０ＫＶ城东５２０线路全线停电【变更送电】因抢修进度加快原因，送电时间由１６：００变更为０９：００【发布渠道】通过９５５９８发布","powerTime":"2019-07-28 08:08:57","powerComm":"已送电","subsNo":"","lineNo":"","tgNo":"","tgName":null,"infoStatus":"1","orgName":"国网蠡县供电公司","typeName":null,"infoStatusName":null,"dateDay":null,"orgNos":null,"nowTime":null,"countyName":null,"streetName":null,"villageName":null,"roadName":null,"communityName":null,"tranName":null,"sdLineName":null,"cityCode":"1340616","cityName":"国网蠡县供电公司","provinceCode":null,"stopTime":"2019-07-28 09:00:00","powerType":"全部","powerOffArea":"【全线路停电】停南忠卫综合6台区,南忠卫综合2台区,旭日,南忠卫综合1台区,百川橡胶,蠡县南忠卫丽芳纺织厂（2）,北忠卫综合5台区,张志民,蠡县群力纺织有限公司,南忠卫农排6台区【纯农排变】,南忠卫农排14台区【纯农排变】,盠县南忠卫建国纺纱厂,小彬纺纱,北忠卫综合3台区,南忠卫综合12台区,西北街农排1台区【纯农排变】,北忠卫综合6台区,南忠卫综合15台区,自来水,盠县南忠卫中心纺纱厂,蠡县南中卫谷小良纺纱厂变压器,河北省里县圣鑫纺纱厂,元憎,蠡县鑫泰纺织制造有限公司变压器,南忠卫气水厂东,傅新,小谷纺纱厂变压器,保定东立胶带制造有限公司变压器,南忠卫综合4台区,蠡县南忠卫建国纺纱厂变压器,南忠卫小良纺织厂变压器,南忠卫开花厂变压器,南忠卫综合10台区,占强纺纱厂变压器,张树根,南忠卫综合3台区,0556973823-蠡县鸿运输送机械厂-专变-227030242-蠡县鸿运变压器,百川北","powerOffReason":"【停电原因】由于站外开关掉闸导致２２０ＫＶ蠡县变电站１０ＫＶ城东５２０线路全线停电【变更送电】因抢修进度加快原因，送电时间由１６：００变更为０９：００【发布渠道】通过９５５９８发布","powerOffId":"2019072813000055"},{"poweroffId":2019072813000052,"sgpoweroffId":null,"subsName":"","lineName":"10kV525显阳线","pubTranName":"亭北庄8850|20008850,李千户南3200|20003200,小亭西庄3500|22003500,亭西庄村西10000|20010000,亭西庄村西农排【纯农排变】,亭西庄8880#农排|20008880【纯农排变】,李千户村中综合8167,李千户学校综合7841,大亭西庄3800|22003800,显阳二村3090|20003090,亭乡北庄9280#农业|20009280【纯农排变】,亭乡西庄村北综合,亭北庄二区3390|22003390,显阳二村2（3010）|20003010,李千户8120#农业|20008120【纯农排变】,亭北庄东10020|20010020,亭乡北庄村北综合1636,亭西庄村东农业0871【纯农排变】,亭西庄8910#农排|20008910【纯农排变】,李千户3280#农业|20003280【纯农排变】,西亭乡4940#农排|22004940【纯农排变】,显阳一村10060|20010060,李未9930#农排|20009930【纯农排变】,孟红建,亭北庄3400|22003400,亭乡北庄8730#农业|20008730【纯农排变】,东显阳一村混用3150|20003150,亭北庄村西综合2382,亭西庄8890#农排|20008890【纯农排变】,李千户北2960|20002960,显阳二村2940#农业|20002940【纯农排变】,显阳二村8860#农业|20008860【纯农排变】,亭西庄村北农排【纯农排变】,显阳一村2910#农排|20002910【纯农排变】,亭乡北庄9260#农业|20009260【纯农排变】,亭北庄村东综合0116,李千户8110#农业|20008110【纯农排变】,显阳一村4530#农排|20004530【纯农排变】,顺平县德盛乡村建设有限公司,525亭北庄村东北新增综合4337,东亭乡8750#农业|20008750【纯农排变】,西亭乡土地整改新增农业9号（TD）2876【纯农排变】,李千户8130#农业|20008130【纯农排变】,显阳二村4060#农业|20004060【纯农排变】,东显阳一村北8580|20008580,显阳二村1（2930）|20002930,显阳二村中10040|20010040,亭西庄3510#农排|22003510【纯农排变】,亭北庄村北综合1392,亭西庄村南农排【纯农排变】,东显阳一村沈家坟农业【纯农排变】,0469125304-顺平县顺利腌制品厂-专变-46723492-顺利腌制厂,亭乡北庄3870#农业|22003870【纯农排变】,东显阳一村学校北农业【纯农排变】,亭乡北庄3430#农业|22003430【纯农排变】,东显阳一村庄儿道农业【纯农排变】,大龙养殖厂3020#农排|20003020【纯农排变】,西亭乡养鸡厂,东显阳一村村南综合7840,东显阳二村村东农业0869【纯农排变】,显阳二村南10030|20010030,东显阳一村村北综合,亭西庄村东10010|20010010,亭西庄7980#农排|20007980【纯农排变】,俊峰塑料厂,亭北庄村北,亭乡北庄9270#农业|20009270【","scope":"【影响街道/乡镇】高于铺镇【高危重要客户】无【影响客户】东显阳一村、东显阳二村、李千户、东亭乡北、亭北庄、亭西庄、顺平县纳百川塑料有限公司、顺平县鸿远塑料制品有限公司","startTime":"2019-07-28 07:04:19","stopDate":"2019-07-28 09:30:00","orgNo":"1340621","typeCode":"电网故障停限电","poweroffArea":"【全线路停电】停东显阳一村北8580|20008580,河北华宇肠衣有限公司,东显阳一村庄儿道农业【纯农排变】,显阳二村南10030|20010030,显阳二村8860#农业|20008860【纯农排变】,显阳二村北10050|20010050,李千户8130#农业|20008130【纯农排变】,显阳二村3090|20003090,亭西庄8880#农排|20008880【纯农排变】","poweroffReason":"【停电原因】由于飞鸟触线造成相间短路导致１１０ＫＶ顺平变电站１０ＫＶ５２５显阳线路全线停电【变更送电】因抢修进度加快原因，送电时间由１４：００变更为０９：３０【发布渠道】通过９５５９８发布","powerTime":"2019-07-28 08:49:32","powerComm":"已送电","subsNo":"","lineNo":"","tgNo":"","tgName":null,"infoStatus":"1","orgName":"国网顺平县电力局","typeName":null,"infoStatusName":null,"dateDay":null,"orgNos":null,"nowTime":null,"countyName":null,"streetName":null,"villageName":null,"roadName":null,"communityName":null,"tranName":null,"sdLineName":null,"cityCode":"1340621","cityName":"国网顺平县电力局","provinceCode":null,"stopTime":"2019-07-28 09:30:00","powerType":"全部","powerOffArea":"【全线路停电】停东显阳一村北8580|20008580,河北华宇肠衣有限公司,东显阳一村庄儿道农业【纯农排变】,显阳二村南10030|20010030,显阳二村8860#农业|20008860【纯农排变】,显阳二村北10050|20010050,李千户8130#农业|20008130【纯农排变】,显阳二村3090|20003090,亭西庄8880#农排|20008880【纯农排变】","powerOffReason":"【停电原因】由于飞鸟触线造成相间短路导致１１０ＫＶ顺平变电站１０ＫＶ５２５显阳线路全线停电【变更送电】因抢修进度加快原因，送电时间由１４：００变更为０９：３０【发布渠道】通过９５５９８发布","powerOffId":"2019072813000052"},{"poweroffId":2019072813000015,"sgpoweroffId":null,"subsName":"","lineName":"10kV七一路站516线路","pubTranName":"B207柱上变压器,","scope":"【影响街道/乡镇】五四中路 【高危重要客户】无 【影响客户】五四中路1660号、微生物研究所","startTime":"2019-07-28 01:00:00","stopDate":"2019-07-28 02:30:00","orgNo":"13406","typeCode":"电网故障停限电","poweroffArea":"【单台区停电】停B207柱上变压器","poweroffReason":"【停电原因】由于杆上线断导致１０ＫＶ七一路变电站５１６线路Ｂ２０７公变台区停电【变更送电】因抢修进度加快，原定０４：３０送电现计划０２：３０送电【发布渠道】通过９５５９８发布","powerTime":"2019-07-28 02:13:01","powerComm":"已送电","subsNo":"","lineNo":"","tgNo":"","tgName":null,"infoStatus":"1","orgName":"保定供电公司","typeName":null,"infoStatusName":null,"dateDay":null,"orgNos":null,"nowTime":null,"countyName":null,"streetName":null,"villageName":null,"roadName":null,"communityName":null,"tranName":null,"sdLineName":null,"cityCode":"13406","cityName":"保定供电公司","provinceCode":null,"stopTime":"2019-07-28 02:30:00","powerType":"全部","powerOffArea":"【单台区停电】停B207柱上变压器","powerOffReason":"【停电原因】由于杆上线断导致１０ＫＶ七一路变电站５１６线路Ｂ２０７公变台区停电【变更送电】因抢修进度加快，原定０４：３０送电现计划０２：３０送电【发布渠道】通过９５５９８发布","powerOffId":"2019072813000015"}],"pageModel":{"pageNow":759,"totalCount":10973,"totalPage":1098,"tableRows":0,"pageCount":10,"beginCount":7580},"isExperi":"1"}