{"message":"","today":"2020-06-15","seleList":[{"poweroffId":2019072713000785,"sgpoweroffId":null,"subsName":"","lineName":"10kV521百里峡线","pubTranName":"苟各庄西峪1,","scope":"【影响街道/乡镇】三坡镇 【高危重要客户】无 【影响客户】苟各庄村","startTime":"2019-07-27 23:42:37","stopDate":"2019-07-28 10:30:00","orgNo":"1340614","typeCode":"电网故障停限电","poweroffArea":"【单台区停电】停苟各庄西峪1","poweroffReason":"【停电原因】由于主电缆烧毁导致１１０ＫＶ三坡变电站１０ＫＶ百里峡５２１线路苟各庄西峪１公变台区停电 【变更送电】无 【发布渠道】通过９５５９８发布","powerTime":"2019-07-28 10:23:12","powerComm":"已送电","subsNo":"","lineNo":"","tgNo":"","tgName":null,"infoStatus":"1","orgName":"国网涞水县供电公司","typeName":null,"infoStatusName":null,"dateDay":null,"orgNos":null,"nowTime":null,"countyName":null,"streetName":null,"villageName":null,"roadName":null,"communityName":null,"tranName":null,"sdLineName":null,"cityCode":"1340614","cityName":"国网涞水县供电公司","provinceCode":null,"stopTime":"2019-07-28 10:30:00","powerType":"全部","powerOffArea":"【单台区停电】停苟各庄西峪1","powerOffReason":"【停电原因】由于主电缆烧毁导致１１０ＫＶ三坡变电站１０ＫＶ百里峡５２１线路苟各庄西峪１公变台区停电 【变更送电】无 【发布渠道】通过９５５９８发布","powerOffId":"2019072713000785"},{"poweroffId":2019072713000777,"sgpoweroffId":null,"subsName":"","lineName":"10kV521晓林线","pubTranName":"0000005635店头西区变压器,","scope":"【影响街道/乡镇】晓林乡【高危重要客户】无【影响客户】店头","startTime":"2019-07-27 23:14:42","stopDate":"2019-07-28 02:00:00","orgNo":"1340619","typeCode":"电网故障停限电","poweroffArea":"【单台区停电】停0000005635店头西区变压器","poweroffReason":"【停电原因】由于出线电缆烧坏导致１１０ＫＶ羊村变电站１０ＫＶ５２１晓林线路店头西公变台区停电【变更送电】无【发布渠道】通过９５５９８发布","powerTime":"2019-07-28 01:06:03","powerComm":"已送电","subsNo":"","lineNo":"","tgNo":"","tgName":null,"infoStatus":"1","orgName":"国网曲阳县供电公司","typeName":null,"infoStatusName":null,"dateDay":null,"orgNos":null,"nowTime":null,"countyName":null,"streetName":null,"villageName":null,"roadName":null,"communityName":null,"tranName":null,"sdLineName":null,"cityCode":"1340619","cityName":"国网曲阳县供电公司","provinceCode":null,"stopTime":"2019-07-28 02:00:00","powerType":"全部","powerOffArea":"【单台区停电】停0000005635店头西区变压器","powerOffReason":"【停电原因】由于出线电缆烧坏导致１１０ＫＶ羊村变电站１０ＫＶ５２１晓林线路店头西公变台区停电【变更送电】无【发布渠道】通过９５５９８发布","powerOffId":"2019072713000777"},{"poweroffId":2019072713000769,"sgpoweroffId":null,"subsName":"","lineName":"10KV城区553","pubTranName":"下车亭东台,","scope":"【影响街道/乡镇】东文山乡 【高危重要客户】无 【影响客户】下车亭村","startTime":"2019-07-27 23:00:02","stopDate":"2019-07-28 09:00:00","orgNo":"1340614","typeCode":"电网故障停限电","poweroffArea":"【单台区停电】停下车亭东台","poweroffReason":"【停电原因】由于ＪＰ柜烧毁导致２２０ＫＶ涞阳变电站１０ＫＶ城区５５３线路下车亭东台公变台区停电 【变更送电】无 【发布渠道】通过９５５９８发布","powerTime":"2019-07-28 08:12:26","powerComm":"已送电","subsNo":"","lineNo":"","tgNo":"","tgName":null,"infoStatus":"1","orgName":"国网涞水县供电公司","typeName":null,"infoStatusName":null,"dateDay":null,"orgNos":null,"nowTime":null,"countyName":null,"streetName":null,"villageName":null,"roadName":null,"communityName":null,"tranName":null,"sdLineName":null,"cityCode":"1340614","cityName":"国网涞水县供电公司","provinceCode":null,"stopTime":"2019-07-28 09:00:00","powerType":"全部","powerOffArea":"【单台区停电】停下车亭东台","powerOffReason":"【停电原因】由于ＪＰ柜烧毁导致２２０ＫＶ涞阳变电站１０ＫＶ城区５５３线路下车亭东台公变台区停电 【变更送电】无 【发布渠道】通过９５５９８发布","powerOffId":"2019072713000769"},{"poweroffId":2019072713000762,"sgpoweroffId":null,"subsName":"","lineName":"10kV521百里峡线","pubTranName":"苟各庄四队北台区,","scope":"【影响街道/乡镇】三坡镇 【高危重要客户】无 【影响客户】苟各庄村","startTime":"2019-07-27 22:35:15","stopDate":"2019-07-28 09:30:00","orgNo":"1340614","typeCode":"电网故障停限电","poweroffArea":"【单台区停电】停苟各庄四队北台区","poweroffReason":"【停电原因】由于变压器烧毁导致１１０ＫＶ三坡变电站１０ＫＶ百里峡５２１线路苟各庄四队北公变台区停电 【变更送电】无 【发布渠道】通过９５５９８发布","powerTime":"2019-07-28 08:59:51","powerComm":"已送电","subsNo":"","lineNo":"","tgNo":"","tgName":null,"infoStatus":"1","orgName":"国网涞水县供电公司","typeName":null,"infoStatusName":null,"dateDay":null,"orgNos":null,"nowTime":null,"countyName":null,"streetName":null,"villageName":null,"roadName":null,"communityName":null,"tranName":null,"sdLineName":null,"cityCode":"1340614","cityName":"国网涞水县供电公司","provinceCode":null,"stopTime":"2019-07-28 09:30:00","powerType":"全部","powerOffArea":"【单台区停电】停苟各庄四队北台区","powerOffReason":"【停电原因】由于变压器烧毁导致１１０ＫＶ三坡变电站１０ＫＶ百里峡５２１线路苟各庄四队北公变台区停电 【变更送电】无 【发布渠道】通过９５５９８发布","powerOffId":"2019072713000762"},{"poweroffId":2019072713000758,"sgpoweroffId":null,"subsName":"","lineName":"10KV苟各庄513","pubTranName":"刘家河小队1,","scope":"【影响街道/乡镇】三坡镇 【高危重要客户】无 【影响客户】刘家河村","startTime":"2019-07-27 22:30:31","stopDate":"2019-07-28 09:30:00","orgNo":"1340614","typeCode":"电网故障停限电","poweroffArea":"【单台区停电】停刘家河小队1","poweroffReason":"【停电原因】由于ＪＰ柜烧毁导致３５ＫＶ三坡变电站１０ＫＶ苟各庄５１３线路刘家河小队１公变台区停电 【变更送电】无 【发布渠道】通过９５５９８发布","powerTime":"2019-07-28 09:00:31","powerComm":"已送电","subsNo":"","lineNo":"","tgNo":"","tgName":null,"infoStatus":"1","orgName":"国网涞水县供电公司","typeName":null,"infoStatusName":null,"dateDay":null,"orgNos":null,"nowTime":null,"countyName":null,"streetName":null,"villageName":null,"roadName":null,"communityName":null,"tranName":null,"sdLineName":null,"cityCode":"1340614","cityName":"国网涞水县供电公司","provinceCode":null,"stopTime":"2019-07-28 09:30:00","powerType":"全部","powerOffArea":"【单台区停电】停刘家河小队1","powerOffReason":"【停电原因】由于ＪＰ柜烧毁导致３５ＫＶ三坡变电站１０ＫＶ苟各庄５１３线路刘家河小队１公变台区停电 【变更送电】无 【发布渠道】通过９５５９８发布","powerOffId":"2019072713000758"},{"poweroffId":2019072713000748,"sgpoweroffId":null,"subsName":"","lineName":"迪城线577","pubTranName":"崔迪城13号【纯农排变】,任庄11号【纯农排变】,大因扬水机站2号,于迪城1号【纯农排变】,0654783494-蒙域王子羊绒纺织股份有限公司-专变-183741219-蒙域王子羊绒纺织股份有限公司,崔迪城10号【纯农排变】,大因25号【纯农排变】,李迪城17号【纯农排变】,大千秋5号,徐水县宝坤建筑材料销售有限公司,李迪城16号【纯农排变】,于迪城7号【纯农排变】,保定市徐水区大因镇于迪城幼儿园,肖迪城6号【纯农排变】,大因扬水机站3号,于迪城13号【纯农排变】,大因9号【纯农排变】,于迪城4号【纯农排变】,任庄8号【纯农排变】,大因27号【纯农排变】,于迪城10号【纯农排变】,大因34号,任庄15号【纯农排变】,蒙域王子羊绒,肖迪城3号【纯农排变】,崔迪城14号【纯农排变】,于迪城2号【纯农排变】,小千秋4号,崔迪城9号【纯农排变】,任庄16号【纯农排变】,崔迪城8号【纯农排变】,大千秋1号,于迪城19号,于迪城6号【纯农排变】,大因16号【纯农排变】,李迪城（农开2）【纯农排变】,李迪城13号【纯农排变】,肖迪城5号【纯农排变】,于迪城17号【纯农排变】,任庄4号,大因12号【纯农排变】,大千秋2号【纯农排变】,李迪城6号【纯农排变】,汉阳5号,李迪城15号【纯农排变】,李迪城11号【纯农排变】,崔迪城15号【纯农排变】,任庄12号【纯农排变】,李迪城（农开1）【纯农排变】,大因供电所4号【纯农排变】,崔迪城6号【纯农排变】,于迪城5号【纯农排变】,李迪城4号【纯农排变】,于迪城8号【纯农排变】,迪城扬水机站1号,任庄17号,任庄7号【纯农排变】,大千秋9号【纯农排变】,任庄1号【纯农排变】,保定蒙域王子羊绒纺织有限公司,于迪城12号【纯农排变】,大因26号【纯农排变】,大因10号,大因18号,崔迪城12号【纯农排变】,大因扬水机站1号,于迪城15号【纯农排变】,保定市徐水区大因镇任庄小学,崔迪城3号【纯农排变】,大因29号【纯农排变】,大因30号【纯农排变】,李迪城8号【纯农排变】,崔迪城5号【纯农排变】,崔迪城1号【纯农排变】,肖迪城4号【纯农排变】,大千秋14号【纯农排变】,肖迪城5号李迪城分箱【纯农排变】,肖迪城1号【纯农排变】,崔迪城17号【纯农排变】,肖迪城7号【纯农排变】,汉阳2号【纯农排变】,任庄3号【纯农排变】,大因3号【纯农排变】,大千秋11号【纯农排变】,李迪城9号【纯农排变】,大因7号【纯农排变】,任庄13号【纯农排变】,迪城扬水机站2号,0654423789-蒙域王子羊绒纺织股份有限公司-专变-183723479-蒙域王子羊绒纺织有限公司变压器,李迪城10号【纯农排变】,于迪城11号,崔迪城2号【纯农排变】,李迪城14号,崔迪城11号【纯农排变】,李迪城5号【纯农排变】,任庄5号【纯农排变】,保定市徐水区大因镇李迪城小学,于迪城14号【纯农排变】,任庄2号【纯农排变】,大因28号【纯农排变】,崔迪城4号【纯农排变】,于迪城18号【纯农排变】,李迪城1号【纯农排变】,于迪城9号【纯农排变】,于迪城3号【纯农排变】,大因11号【纯农排变】,肖迪城2号【纯农排变】,大因31号,于迪城16号【纯","scope":"【影响街道/乡镇】大因镇 【高危重要客户】无 【影响客户】任庄、于迪城、崔迪城、李迪城、大因、肖迪城、大千秋","startTime":"2019-07-27 22:20:34","stopDate":"2019-07-28 03:00:00","orgNo":"1340605","typeCode":"电网故障停限电","poweroffArea":"【全线路停电】停任庄16号【纯农排变】,于迪城9号【纯农排变】,崔迪城9号【纯农排变】,李迪城15号【纯农排变】,崔迪城14号【纯农排变】,大因31号,于迪城4号【纯农排变】,保定蒙域王子羊绒纺织有限公司,崔迪城15号【纯农排变】,肖迪城3号【纯农排变】,李迪城（农开2）【纯农排变】,大千秋13号,李迪城8号【纯农排变】,李迪城2号【纯农排变】,崔迪城4号【纯农排变】,于迪城13号【纯农排变】,大因28号【纯农排变】,大因供电所4号【纯农排变】,于迪城7号【纯农排变】,李迪城（农开1）【纯农排变】,李迪城16号【纯农排变】,于迪城6号【纯农排变】,于迪城17号【纯农排变】,崔迪城10号【纯农排变】,大千秋2号【纯农排变】,于迪城10号【纯农排变】,李迪城11号【纯农排变】,任庄11号【纯农排变】,大因9号【纯农排变】,徐水县宝坤建筑材料销售有限公司,崔迪城13号【纯农排变】,崔迪城8号【纯农排变】,肖迪城5号李迪城分箱【纯农排变】,大因27号【纯农排变】,大因7号【纯农排变】,汉阳2号【纯农排变】,李迪城9号【纯农排变】,李迪城13号【纯农排变】,大千秋9号【纯农排变】,保定市徐水区大因镇李迪城小学,李迪城5号【纯农排变】,大因10号,李迪城4号【纯农排变】,任庄7号【纯农排变】,蒙域王子羊绒,任庄13号【纯农排变】,大因25号【纯农排变】,肖迪城6号【纯农排变】,李迪城12号【纯农排变】,汉阳5号,大因32号【纯农排变】,大因16号【纯农排变】,肖迪城4号【纯农排变】,保定市徐水区大因镇于迪城幼儿园,任庄4号,崔迪城3号【纯农排变】,于迪城8号【纯农排变】,肖迪城5号【纯农排变】,大因26号【纯农排变】,大因扬水机站2号,大因扬水机站1号,任庄1号【纯农排变】,于迪城16号【纯农排变】,迪城扬水机站1号,大因扬水机站3号,崔迪城7号【纯农排变】,迪城扬水机站2号,肖迪城1号【纯农排变】,大千秋1号,崔迪城1号【纯农排变】,李迪城1号【纯农排变】,大千秋11号【纯农排变】,于迪城3号【纯农排变】,任庄8号【纯农排变】,崔迪城16号【纯农排变】,任庄17号,于迪城11号,崔迪城2号【纯农排变】,大因3号【纯农排变】,于迪城14号【纯农排变】,于迪城12号【纯农排变】,0654423789-蒙域王子羊绒纺织股份有限公司-专变-183723479-蒙域王子羊绒纺织有限公司变压器,任庄7号变压器【纯农排变】,李迪城10号【纯农排变】,李迪城6号【纯农排变】,大千秋14号【纯农排变】,大因29号【纯农排变】,任庄5号【纯农排变】,大千秋5号,于迪城15号【纯农排变】,大因30号【纯农排变】,崔迪城17号【纯农排变】,李迪城7号【纯农排变】,肖迪城2号【纯农排变】,大因12号【纯农排变】,于迪城18号【纯农排变】,小千秋4号,0654783494-蒙域王子羊绒纺织股份有限公司-专变-183741219-蒙域王子羊绒纺织股份有限公司,任庄15号【纯农排变】,任庄12号【纯农排变】,保定市徐水区大因镇任庄小学,大因11号【纯农排变】,任庄3号【纯农排变】,李迪城17号【纯农排变】,于迪城19号,崔迪城6号【纯农排变】,于迪城2号【纯农排变】,肖迪城7号【纯农排变】,李迪城3号【纯农排变】,李迪城14号,大因34号,崔迪城12号【纯农排变】,任庄2号【纯农排变】,崔迪城11号【纯农排变】,于迪城5号【纯农排变】,崔迪城5号【纯农排变】,于迪城1号【纯农排变】,大因18号","poweroffReason":"【停电原因】由于Ｂ相接地导致１１０ＫＶ沙口变电站迪城线５７７线路全线停电 【变更送电】因抢修进度加快原因，送电时间由０９:００变更为０３:００ 【发布渠道】通过９５５９８发布","powerTime":"2019-07-28 02:34:22","powerComm":"已送电","subsNo":"","lineNo":"","tgNo":"","tgName":null,"infoStatus":"1","orgName":"国网徐水县供电公司","typeName":null,"infoStatusName":null,"dateDay":null,"orgNos":null,"nowTime":null,"countyName":null,"streetName":null,"villageName":null,"roadName":null,"communityName":null,"tranName":null,"sdLineName":null,"cityCode":"1340605","cityName":"国网徐水县供电公司","provinceCode":null,"stopTime":"2019-07-28 03:00:00","powerType":"全部","powerOffArea":"【全线路停电】停任庄16号【纯农排变】,于迪城9号【纯农排变】,崔迪城9号【纯农排变】,李迪城15号【纯农排变】,崔迪城14号【纯农排变】,大因31号,于迪城4号【纯农排变】,保定蒙域王子羊绒纺织有限公司,崔迪城15号【纯农排变】,肖迪城3号【纯农排变】,李迪城（农开2）【纯农排变】,大千秋13号,李迪城8号【纯农排变】,李迪城2号【纯农排变】,崔迪城4号【纯农排变】,于迪城13号【纯农排变】,大因28号【纯农排变】,大因供电所4号【纯农排变】,于迪城7号【纯农排变】,李迪城（农开1）【纯农排变】,李迪城16号【纯农排变】,于迪城6号【纯农排变】,于迪城17号【纯农排变】,崔迪城10号【纯农排变】,大千秋2号【纯农排变】,于迪城10号【纯农排变】,李迪城11号【纯农排变】,任庄11号【纯农排变】,大因9号【纯农排变】,徐水县宝坤建筑材料销售有限公司,崔迪城13号【纯农排变】,崔迪城8号【纯农排变】,肖迪城5号李迪城分箱【纯农排变】,大因27号【纯农排变】,大因7号【纯农排变】,汉阳2号【纯农排变】,李迪城9号【纯农排变】,李迪城13号【纯农排变】,大千秋9号【纯农排变】,保定市徐水区大因镇李迪城小学,李迪城5号【纯农排变】,大因10号,李迪城4号【纯农排变】,任庄7号【纯农排变】,蒙域王子羊绒,任庄13号【纯农排变】,大因25号【纯农排变】,肖迪城6号【纯农排变】,李迪城12号【纯农排变】,汉阳5号,大因32号【纯农排变】,大因16号【纯农排变】,肖迪城4号【纯农排变】,保定市徐水区大因镇于迪城幼儿园,任庄4号,崔迪城3号【纯农排变】,于迪城8号【纯农排变】,肖迪城5号【纯农排变】,大因26号【纯农排变】,大因扬水机站2号,大因扬水机站1号,任庄1号【纯农排变】,于迪城16号【纯农排变】,迪城扬水机站1号,大因扬水机站3号,崔迪城7号【纯农排变】,迪城扬水机站2号,肖迪城1号【纯农排变】,大千秋1号,崔迪城1号【纯农排变】,李迪城1号【纯农排变】,大千秋11号【纯农排变】,于迪城3号【纯农排变】,任庄8号【纯农排变】,崔迪城16号【纯农排变】,任庄17号,于迪城11号,崔迪城2号【纯农排变】,大因3号【纯农排变】,于迪城14号【纯农排变】,于迪城12号【纯农排变】,0654423789-蒙域王子羊绒纺织股份有限公司-专变-183723479-蒙域王子羊绒纺织有限公司变压器,任庄7号变压器【纯农排变】,李迪城10号【纯农排变】,李迪城6号【纯农排变】,大千秋14号【纯农排变】,大因29号【纯农排变】,任庄5号【纯农排变】,大千秋5号,于迪城15号【纯农排变】,大因30号【纯农排变】,崔迪城17号【纯农排变】,李迪城7号【纯农排变】,肖迪城2号【纯农排变】,大因12号【纯农排变】,于迪城18号【纯农排变】,小千秋4号,0654783494-蒙域王子羊绒纺织股份有限公司-专变-183741219-蒙域王子羊绒纺织股份有限公司,任庄15号【纯农排变】,任庄12号【纯农排变】,保定市徐水区大因镇任庄小学,大因11号【纯农排变】,任庄3号【纯农排变】,李迪城17号【纯农排变】,于迪城19号,崔迪城6号【纯农排变】,于迪城2号【纯农排变】,肖迪城7号【纯农排变】,李迪城3号【纯农排变】,李迪城14号,大因34号,崔迪城12号【纯农排变】,任庄2号【纯农排变】,崔迪城11号【纯农排变】,于迪城5号【纯农排变】,崔迪城5号【纯农排变】,于迪城1号【纯农排变】,大因18号","powerOffReason":"【停电原因】由于Ｂ相接地导致１１０ＫＶ沙口变电站迪城线５７７线路全线停电 【变更送电】因抢修进度加快原因，送电时间由０９:００变更为０３:００ 【发布渠道】通过９５５９８发布","powerOffId":"2019072713000748"},{"poweroffId":2019072713000738,"sgpoweroffId":null,"subsName":"","lineName":"10kV528西关工业线","pubTranName":"南环1＃公用照明1台区,","scope":"【影响街道/乡镇】南环路【高危重要客户】无【影响客户】中山公园以南","startTime":"2019-07-27 21:44:38","stopDate":"2019-07-28 08:00:00","orgNo":"1340610","typeCode":"电网故障停限电","poweroffArea":"【单台区停电】停南环1＃公用照明1台区","poweroffReason":"【停电原因】由于低压电缆烧毁导致１１０ＫＶ定县变电站１０ＫＶ５２８西关工业线路南环１号公用照明１台区停电 【变更送电】因抢修进度加快原因，送电时间由２０：００变更为０８：００ 【发布渠道】９５５９８","powerTime":"2019-07-28 07:36:41","powerComm":"已送电","subsNo":"","lineNo":"","tgNo":"","tgName":null,"infoStatus":"1","orgName":"国网定州市供电公司","typeName":null,"infoStatusName":null,"dateDay":null,"orgNos":null,"nowTime":null,"countyName":null,"streetName":null,"villageName":null,"roadName":null,"communityName":null,"tranName":null,"sdLineName":null,"cityCode":"1340610","cityName":"国网定州市供电公司","provinceCode":null,"stopTime":"2019-07-28 08:00:00","powerType":"全部","powerOffArea":"【单台区停电】停南环1＃公用照明1台区","powerOffReason":"【停电原因】由于低压电缆烧毁导致１１０ＫＶ定县变电站１０ＫＶ５２８西关工业线路南环１号公用照明１台区停电 【变更送电】因抢修进度加快原因，送电时间由２０：００变更为０８：００ 【发布渠道】９５５９８","powerOffId":"2019072713000738"},{"poweroffId":2019072713000720,"sgpoweroffId":null,"subsName":"","lineName":"10kV524杨庄子线","pubTranName":"开元公用照明4台区,","scope":"【影响街道/乡镇】西城区【高危重要客户】无【影响客户】开元家属院","startTime":"2019-07-27 21:03:33","stopDate":"2019-07-27 21:50:00","orgNo":"1340610","typeCode":"电网故障停限电","poweroffArea":"【单台区停电】停开元公用照明4台区","poweroffReason":"【停电原因】由于低压线断导致１１０ＫＶ定县变电站１０ＫＶ５２４杨庄子线路开元公用照明４台区停电 【变更送电】无 【发布渠道】９５５９８","powerTime":"2019-07-27 21:43:29","powerComm":"已送电","subsNo":"","lineNo":"","tgNo":"","tgName":null,"infoStatus":"1","orgName":"国网定州市供电公司","typeName":null,"infoStatusName":null,"dateDay":null,"orgNos":null,"nowTime":null,"countyName":null,"streetName":null,"villageName":null,"roadName":null,"communityName":null,"tranName":null,"sdLineName":null,"cityCode":"1340610","cityName":"国网定州市供电公司","provinceCode":null,"stopTime":"2019-07-27 21:50:00","powerType":"全部","powerOffArea":"【单台区停电】停开元公用照明4台区","powerOffReason":"【停电原因】由于低压线断导致１１０ＫＶ定县变电站１０ＫＶ５２４杨庄子线路开元公用照明４台区停电 【变更送电】无 【发布渠道】９５５９８","powerOffId":"2019072713000720"},{"poweroffId":2019072713000705,"sgpoweroffId":null,"subsName":"","lineName":"东斗516","pubTranName":"北东村2#,","scope":"【影响街道/乡镇】高陌乡【高危重要客户】无【影响客户】北东村","startTime":"2019-07-27 20:49:09","stopDate":"2019-07-28 01:00:00","orgNo":"1340625","typeCode":"电网故障停限电","poweroffArea":"【单台区停电】停北东村2#","poweroffReason":"【停电原因】由于变压器烧毁导致３５ＫＶ高陌变电站东斗５１６线路北东村２＃公变台区停电【变更送电】由于抢修进度加快原因，送电时间由０６：００变更为０１：００【发布渠道】通过９５５９８发布","powerTime":"2019-07-28 00:49:10","powerComm":"已送电","subsNo":"","lineNo":"","tgNo":"","tgName":null,"infoStatus":"1","orgName":"国网易县供电公司","typeName":null,"infoStatusName":null,"dateDay":null,"orgNos":null,"nowTime":null,"countyName":null,"streetName":null,"villageName":null,"roadName":null,"communityName":null,"tranName":null,"sdLineName":null,"cityCode":"1340625","cityName":"国网易县供电公司","provinceCode":null,"stopTime":"2019-07-28 01:00:00","powerType":"全部","powerOffArea":"【单台区停电】停北东村2#","powerOffReason":"【停电原因】由于变压器烧毁导致３５ＫＶ高陌变电站东斗５１６线路北东村２＃公变台区停电【变更送电】由于抢修进度加快原因，送电时间由０６：００变更为０１：００【发布渠道】通过９５５９８发布","powerOffId":"2019072713000705"},{"poweroffId":2019072713000677,"sgpoweroffId":null,"subsName":"","lineName":"10KV檀山512","pubTranName":"汇源灰粉厂,丛西村西台区【纯农排变】,涞富灰粉厂,福海灰粉厂,联合灰粉厂,铺头村北2台区,玉成灰粉厂,华林实业公司,北秋兰村西,北秋兰面粉厂,宏达水泥厂,王俊力灰粉厂,南庞村东变压器,永阳供电所变压器,建辉灰粉厂,张增军灰粉厂,同顺钙粉厂,顺发灰粉厂,高科电力,北秋兰村南养殖场变压器,北秋兰村内西台区变压器,涞水县凤福灰粉厂新增变压器,坛山村内变压器,北秋兰市场变压器,刘福灰粉厂,铺头士江塑料,涞水金招水泥砖制造有限公司,涞水县德强加工250KVA专变,涞水县宝幢水泥砖厂新增变压器,二十里铺村东北,涞水县泰和灰粉厂315KVA专变,北秋兰西南台区,丛西村中台区,海开办,铺头村南,中亚灰粉厂,玉明灰粉厂,高旭灰粉厂,周磊杰灰粉厂,丛西村南专用变压器,变压器,福鑫灰厂,铺头村内|0706,北秋兰村东2#,南庞村东专用井|0702,金星石业250KVA专变,铺头村东变压器,坛山村西北变压器,北秋兰桥东【纯农排变】,十里铺西井,坛山村西台区变压器,丛西村南（西）变压器,行宫村西专用|0739【纯农排变】,行宫北（内）台区变压器,亚平灰厂,北秋兰桥西变压器【纯农排变】,张凤福灰粉厂,涞水县明新水泥砖厂200KVA专变,北秋兰西南井【纯农排变】,北秋兰村东变压器,坛山工艺美术,海龙修配厂,高峰灰粉厂250KVA专变,铺头村北井|0704,北秋兰村西井【纯农排变】,凤福灰粉厂200KVA专变,行宫1村南|0737,北秋兰市场2台区,二十里铺村东二,联富灰粉厂2,坛山赵志英,涞水县宗元钙粉厂200KVA专变,胜达永强公司1,古艺坊家俱厂,洪建修配厂,0469321799-涞水县泰和灰粉厂-专变-46775202-泰岳灰粉厂,永阳供电所2,铺头村东二,","scope":"【影响街道/乡镇】明义乡、永阳镇 【高危重要客户】无 【影响客户】北秋兰村、丛西村、坛山村、南庞村、铺头村、行宫村、二十里铺村","startTime":"2019-07-28 04:00:00","stopDate":"2019-07-28 05:30:00","orgNo":"1340614","typeCode":"其他临时停电","poweroffArea":"【全线路停电】停汇源灰粉厂,丛西村西台区【纯农排变】,涞富灰粉厂,福海灰粉厂,联合灰粉厂,铺头村北2台区,玉成灰粉厂,华林实业公司,北秋兰村西,北秋兰面粉厂,宏达水泥厂,王俊力灰粉厂,南庞村东变压器,永阳供电所变压器,建辉灰粉厂,张增军灰粉厂,同顺钙粉厂,顺发灰粉厂,高科电力,北秋兰村南养殖场变压器,北秋兰村内西台区变压器,涞水县凤福灰粉厂新增变压器,古艺坊家俱厂,坛山村内变压器,北秋兰市场变压器,刘福灰粉厂,铺头士江塑料,涞水金招水泥砖制造有限公司,涞水县德强加工250KVA专变,涞水县宝幢水泥砖厂新增变压器,二十里铺村东北,涞水县泰和灰粉厂315KVA专变,北秋兰西南台区,丛西村中台区,海开办,铺头村南,中亚灰粉厂,玉明灰粉厂,高旭灰粉厂,涞水县宗元钙粉厂200KVA专变,胜达永强公司1,洪建修配厂,0469321799-涞水县泰和灰粉厂-专变-46775202-泰岳灰粉厂,永阳供电所2,北秋兰桥西变压器【纯农排变】,坛山赵志英,铺头村东二,周磊杰灰粉厂,丛西村南专用变压器,变压器,福鑫灰厂,铺头村内|0706,北秋兰村东2#,南庞村东专用井|0702,金星石业250KVA专变,铺头村东变压器,坛山村西北变压器,北秋兰桥东【纯农排变】,十里铺西井,坛山村西台区变压器,丛西村南（西）变压器,行宫村西专用|0739【纯农排变】,行宫北（内）台区变压器,亚平灰厂,张凤福灰粉厂,涞水县明新水泥砖厂200KVA专变,北秋兰西南井【纯农排变】,北秋兰村东变压器,坛山工艺美术,海龙修配厂,高峰灰粉厂250KVA专变,铺头村北井|0704,北秋兰村西井【纯农排变】,凤福灰粉厂200KVA专变,行宫1村南|0737,北秋兰市场2台区,二十里铺村东二,联富灰粉厂2","poweroffReason":"【停电原因】由于倒运行方式导致３５ＫＶ明义变电站１０ＫＶ檀山５１２线路全线停电 【变更送电】因抢修进度加快原因，送电时间由０６：００变更为０５：３０ 【发布渠道】通过９５５９８发布","powerTime":"2019-07-28 04:58:21","powerComm":"已送电","subsNo":"","lineNo":"","tgNo":"","tgName":null,"infoStatus":"1","orgName":"国网涞水县供电公司","typeName":null,"infoStatusName":null,"dateDay":null,"orgNos":null,"nowTime":null,"countyName":null,"streetName":null,"villageName":null,"roadName":null,"communityName":null,"tranName":null,"sdLineName":null,"cityCode":"1340614","cityName":"国网涞水县供电公司","provinceCode":null,"stopTime":"2019-07-28 05:30:00","powerType":"全部","powerOffArea":"【全线路停电】停汇源灰粉厂,丛西村西台区【纯农排变】,涞富灰粉厂,福海灰粉厂,联合灰粉厂,铺头村北2台区,玉成灰粉厂,华林实业公司,北秋兰村西,北秋兰面粉厂,宏达水泥厂,王俊力灰粉厂,南庞村东变压器,永阳供电所变压器,建辉灰粉厂,张增军灰粉厂,同顺钙粉厂,顺发灰粉厂,高科电力,北秋兰村南养殖场变压器,北秋兰村内西台区变压器,涞水县凤福灰粉厂新增变压器,古艺坊家俱厂,坛山村内变压器,北秋兰市场变压器,刘福灰粉厂,铺头士江塑料,涞水金招水泥砖制造有限公司,涞水县德强加工250KVA专变,涞水县宝幢水泥砖厂新增变压器,二十里铺村东北,涞水县泰和灰粉厂315KVA专变,北秋兰西南台区,丛西村中台区,海开办,铺头村南,中亚灰粉厂,玉明灰粉厂,高旭灰粉厂,涞水县宗元钙粉厂200KVA专变,胜达永强公司1,洪建修配厂,0469321799-涞水县泰和灰粉厂-专变-46775202-泰岳灰粉厂,永阳供电所2,北秋兰桥西变压器【纯农排变】,坛山赵志英,铺头村东二,周磊杰灰粉厂,丛西村南专用变压器,变压器,福鑫灰厂,铺头村内|0706,北秋兰村东2#,南庞村东专用井|0702,金星石业250KVA专变,铺头村东变压器,坛山村西北变压器,北秋兰桥东【纯农排变】,十里铺西井,坛山村西台区变压器,丛西村南（西）变压器,行宫村西专用|0739【纯农排变】,行宫北（内）台区变压器,亚平灰厂,张凤福灰粉厂,涞水县明新水泥砖厂200KVA专变,北秋兰西南井【纯农排变】,北秋兰村东变压器,坛山工艺美术,海龙修配厂,高峰灰粉厂250KVA专变,铺头村北井|0704,北秋兰村西井【纯农排变】,凤福灰粉厂200KVA专变,行宫1村南|0737,北秋兰市场2台区,二十里铺村东二,联富灰粉厂2","powerOffReason":"【停电原因】由于倒运行方式导致３５ＫＶ明义变电站１０ＫＶ檀山５１２线路全线停电 【变更送电】因抢修进度加快原因，送电时间由０６：００变更为０５：３０ 【发布渠道】通过９５５９８发布","powerOffId":"2019072713000677"}],"pageModel":{"pageNow":760,"totalCount":10973,"totalPage":1098,"tableRows":0,"pageCount":10,"beginCount":7590},"isExperi":"1"}