{"message":"","today":"2020-06-15","seleList":[{"poweroffId":2019072713000454,"sgpoweroffId":null,"subsName":"","lineName":"10KV丛西线514","pubTranName":"坛山村南1|0717,同合灰厂,涞水宏旭商品混凝土有限公司新增变压器,海龙灰粉厂2,坛山村东2井变压器,坛山面粉厂,0469321614-赵清山水泥厂-专变-46775287-赵清山水泥厂,丛西村北变压器,坛山村东变压器,坛山七队水包台区新建,坛山村西南变压器,海源灰粉厂100KVA专变,涞水移动公司A525|100,坛山七队深井【纯农排变】,涞水县檀山海源灰粉厂新增变压器,坛山村东专用井变压器,丛西村北【冬季供暖设施】,涞水县太岳灰粉厂250KVA,海龙灰粉厂,丛西村东变压器,宏源灰粉厂,海河灰粉厂,坛山村南井,海源灰粉厂,东福综合灰厂1,顺达水泥厂,天成灰粉厂,坛山村西专用变压器,春蕾灰粉厂,坛山村李家坟台区,配变,坛山六队深井【纯农排变】,东旭水泥厂2,张凤浩灰粉厂,高峰灰粉厂,亨源灰粉厂2,涞水鹏烨凯水泥制品有限公司,海利灰厂,周家庄村北变压器,","scope":"【影响街道/乡镇】永阳镇 【高危重要客户】无 【影响客户】丛西村、坛山村、周家庄村","startTime":"2019-07-27 15:57:01","stopDate":"2019-07-27 18:30:00","orgNo":"1340614","typeCode":"电网故障停限电","poweroffArea":"【全线路停电】停海龙灰粉厂,丛西村东变压器,宏源灰粉厂,海河灰粉厂,坛山村南井,海源灰粉厂,东福综合灰厂1,顺达水泥厂,天成灰粉厂,坛山村西专用变压器,春蕾灰粉厂,坛山村李家坟台区,配变,坛山六队深井【纯农排变】,东旭水泥厂2,张凤浩灰粉厂,高峰灰粉厂,亨源灰粉厂2,涞水鹏烨凯水泥制品有限公司,海利灰厂,周家庄村北变压器,坛山村南1|0717,同合灰厂,涞水宏旭商品混凝土有限公司新增变压器,海龙灰粉厂2,坛山村东2井变压器,坛山面粉厂,0469321614-赵清山水泥厂-专变-46775287-赵清山水泥厂,丛西村北变压器,坛山村东变压器,坛山七队水包台区新建,坛山村西南变压器,海源灰粉厂100KVA专变,涞水移动公司A525|100,坛山七队深井【纯农排变】,涞水县檀山海源灰粉厂新增变压器,坛山村东专用井变压器,丛西村北【冬季供暖设施】,涞水县太岳灰粉厂250KVA","poweroffReason":"【停电原因】由于弓子线烧断导致３５ＫＶ永阳变电站１０ＫＶ丛西５１４线路全线停电 【变更送电】因工作量大原因，送电时间由１７：００变更为１８：３０ 【发布渠道】通过９５５９８发布","powerTime":"2019-07-27 17:58:22","powerComm":"已送电","subsNo":"","lineNo":"","tgNo":"","tgName":null,"infoStatus":"1","orgName":"国网涞水县供电公司","typeName":null,"infoStatusName":null,"dateDay":null,"orgNos":null,"nowTime":null,"countyName":null,"streetName":null,"villageName":null,"roadName":null,"communityName":null,"tranName":null,"sdLineName":null,"cityCode":"1340614","cityName":"国网涞水县供电公司","provinceCode":null,"stopTime":"2019-07-27 18:30:00","powerType":"全部","powerOffArea":"【全线路停电】停海龙灰粉厂,丛西村东变压器,宏源灰粉厂,海河灰粉厂,坛山村南井,海源灰粉厂,东福综合灰厂1,顺达水泥厂,天成灰粉厂,坛山村西专用变压器,春蕾灰粉厂,坛山村李家坟台区,配变,坛山六队深井【纯农排变】,东旭水泥厂2,张凤浩灰粉厂,高峰灰粉厂,亨源灰粉厂2,涞水鹏烨凯水泥制品有限公司,海利灰厂,周家庄村北变压器,坛山村南1|0717,同合灰厂,涞水宏旭商品混凝土有限公司新增变压器,海龙灰粉厂2,坛山村东2井变压器,坛山面粉厂,0469321614-赵清山水泥厂-专变-46775287-赵清山水泥厂,丛西村北变压器,坛山村东变压器,坛山七队水包台区新建,坛山村西南变压器,海源灰粉厂100KVA专变,涞水移动公司A525|100,坛山七队深井【纯农排变】,涞水县檀山海源灰粉厂新增变压器,坛山村东专用井变压器,丛西村北【冬季供暖设施】,涞水县太岳灰粉厂250KVA","powerOffReason":"【停电原因】由于弓子线烧断导致３５ＫＶ永阳变电站１０ＫＶ丛西５１４线路全线停电 【变更送电】因工作量大原因，送电时间由１７：００变更为１８：３０ 【发布渠道】通过９５５９８发布","powerOffId":"2019072713000454"},{"poweroffId":2019072713000444,"sgpoweroffId":null,"subsName":"","lineName":"10KV洛平513","pubTranName":"南洛平村北台区,孙家坟村内2台区,北洛平北宫2号井,西垒子村西2,西洛平村南井变压器,东洛平村西台区,东洛平光伏三号,北洛平村南变压器,北洛平花生涧井,东洛平村内2|0677,西洛平大寨田,南洛平村南井,东洛平村东2,涞水县垒子水库管理处30KVA配变,南洛平村北变压器,北洛平大坡1号,东洛平怪草沟|0678,东洛平光伏4号,北洛平村北井变压器【纯农排变】,西垒子果园2,北洛平七号井变压器,幸福庄村北台区,东洛平金家坟井,西洛平狐山坡变压器,永辉石料厂2,涞水县中凯鹏达水泥制品制造有限公司新增250KVA,西洛平南庄,东洛平村南台区,北洛平南井,东垒子新台区北庄变压器,山神庙变压器,孙家坟村北2井|0710【纯农排变】,北洛平风郭岭井变压器【纯农排变】,北洛平灵山井,孙家坟村内变压器,北洛平村北2台区,西洛平村北变压器,西洛平村西2台区,李占亭|0695【纯农排变】,东洛平鬼市坡井,西垒子北河变压器,西洛平村中2台区,东洛平光伏5号,客户投资_北洛平灵芝山井,0469322457-东垒子扬水站-专变-46775171-东垒子扬水站,北宫井【纯农排变】,北洛平簸箕长井,幸福庄变压器,西洛平村西台区,幸福庄村北19号井变压器【纯农排变】,关志宇农庄,西洛平村西南井,炎煜石粉厂,南山矿业3,配变,东洛平村北,涞水县垒子水库管理处50KVA配变,北洛平北宫变压器,南洛平幼儿园,西垒子村北2【纯农排变】,西洛平村东（内）变压器,东洛平光伏1号变,涞水县坤鹏建材有限公司100KVA专变,东洛平南坡井变压器,北洛平下岭台区【纯农排变】,东洛平村北井,西垒子村北618B变压器,北洛平西大地井,客户投资_孙家坟佛祖山变压器,北洛平村北变压器,怪草沟变压器,西洛平村北2【纯农排变】,涞水县广播电视台,幸福庄村北20号井变压器,南山二公司2,南洛平南坡1号井,北洛平村南2,北洛平山神庙,北洛平小湖儿机井【纯农排变】,小湖儿,涞水县佳俊商贸有限公司250KVA专变,南洛平南双山变压器,西洛平村北扶贫井,南山矿业公司,北洛平西庄（庆华寺.乡直）变压器,永辉石料厂1,坤鹏建材有限公司315KVA专变,天真观,南洛平东庄变压器,西洛平村北井（西)变压器,东洛平1.2号变压器,东垒子果园,南洛平东坡井变压器,东垒子照明用,南洛平村南变压器,南洛平村西2,西洛平村南变压器,西垒子村北专用井【纯农排变】,易州橡胶厂,西洛平六队井,东洛平光伏2号,孙家坟村北井变压器,北洛平灵山1#,徐家磨|0743,西垒子果园,源通拓达矿业400KVA专变,西洛平村南2新建,郭家坟【纯农排变】,西垒子北河村西井,","scope":"【影响街道/乡镇】永阳镇 【高危重要客户】无 【影响客户】北洛平村、乡直村内、西洛平村、幸福庄村、南洛平村、东洛平村、孙家坟村、西垒子村、东垒子村","startTime":"2019-07-27 15:52:34","stopDate":"2019-07-27 18:30:00","orgNo":"1340614","typeCode":"电网故障停限电","poweroffArea":"【全线路停电】停幸福庄村北20号井变压器,南山二公司2,南洛平南坡1号井,北洛平村南2,北洛平山神庙,北洛平小湖儿机井【纯农排变】,小湖儿,涞水县佳俊商贸有限公司250KVA专变,南洛平南双山变压器,西洛平村北扶贫井,南山矿业公司,北洛平西庄（庆华寺.乡直）变压器,永辉石料厂1,坤鹏建材有限公司315KVA专变,天真观,南洛平东庄变压器,西洛平村北井（西)变压器,东洛平1.2号变压器,东垒子果园,南洛平东坡井变压器,东垒子照明用,南洛平村南变压器,南洛平村西2,西洛平村南变压器,西垒子村北专用井【纯农排变】,易州橡胶厂,西洛平六队井,东洛平光伏2号,孙家坟村北井变压器,北洛平灵山1#,徐家磨|0743,西垒子果园,源通拓达矿业400KVA专变,西洛平村南2新建,郭家坟【纯农排变】,西垒子北河村西井,东洛平光伏1号变,涞水县坤鹏建材有限公司100KVA专变,东洛平南坡井变压器,北洛平下岭台区【纯农排变】,东洛平村北井,西垒子村北618B变压器,北洛平西大地井,客户投资_孙家坟佛祖山变压器,北洛平村北变压器,怪草沟变压器,西洛平村北2【纯农排变】,涞水县广播电视台,南洛平村北台区,孙家坟村内2台区,北洛平北宫2号井,西垒子村西2,西洛平村南井变压器,东洛平村西台区,东洛平光伏三号,北洛平村南变压器,北洛平花生涧井,东洛平村内2|0677,西洛平大寨田,南洛平村南井,东洛平村东2,涞水县垒子水库管理处30KVA配变,南洛平村北变压器,北洛平大坡1号,东洛平怪草沟|0678,幸福庄村北台区,东洛平金家坟井,西洛平狐山坡变压器,永辉石料厂2,涞水县中凯鹏达水泥制品制造有限公司新增250KVA,西洛平南庄,东洛平村南台区,北洛平南井,东垒子新台区北庄变压器,山神庙变压器,孙家坟村北2井|0710【纯农排变】,北洛平风郭岭井变压器【纯农排变】,北洛平灵山井,孙家坟村内变压器,北洛平村北2台区,西洛平村北变压器,西洛平村西2台区,李占亭|0695【纯农排变】,东洛平鬼市坡井,西垒子北河变压器,西洛平村中2台区,东洛平光伏5号,东洛平光伏4号,北洛平村北井变压器【纯农排变】,西垒子果园2,北洛平七号井变压器,客户投资_北洛平灵芝山井,0469322457-东垒子扬水站-专变-46775171-东垒子扬水站,北宫井【纯农排变】,北洛平簸箕长井,幸福庄变压器,西洛平村西台区,幸福庄村北19号井变压器【纯农排变】,关志宇农庄,西洛平村西南井,炎煜石粉厂,南山矿业3,配变,东洛平村北,涞水县垒子水库管理处50KVA配变,北洛平北宫变压器,南洛平幼儿园,西垒子村北2【纯农排变】,西洛平村东（内）变压器","poweroffReason":"【停电原因】由于弓子线烧断导致３５ＫＶ永阳变电站１０ＫＶ洛平５１３线路全线停电 【变更送电】因工作量大原因，送电时间由１７：００变更为１８：３０ 【发布渠道】通过９５５９８发布","powerTime":"2019-07-27 17:58:40","powerComm":"已送电","subsNo":"","lineNo":"","tgNo":"","tgName":null,"infoStatus":"1","orgName":"国网涞水县供电公司","typeName":null,"infoStatusName":null,"dateDay":null,"orgNos":null,"nowTime":null,"countyName":null,"streetName":null,"villageName":null,"roadName":null,"communityName":null,"tranName":null,"sdLineName":null,"cityCode":"1340614","cityName":"国网涞水县供电公司","provinceCode":null,"stopTime":"2019-07-27 18:30:00","powerType":"全部","powerOffArea":"【全线路停电】停幸福庄村北20号井变压器,南山二公司2,南洛平南坡1号井,北洛平村南2,北洛平山神庙,北洛平小湖儿机井【纯农排变】,小湖儿,涞水县佳俊商贸有限公司250KVA专变,南洛平南双山变压器,西洛平村北扶贫井,南山矿业公司,北洛平西庄（庆华寺.乡直）变压器,永辉石料厂1,坤鹏建材有限公司315KVA专变,天真观,南洛平东庄变压器,西洛平村北井（西)变压器,东洛平1.2号变压器,东垒子果园,南洛平东坡井变压器,东垒子照明用,南洛平村南变压器,南洛平村西2,西洛平村南变压器,西垒子村北专用井【纯农排变】,易州橡胶厂,西洛平六队井,东洛平光伏2号,孙家坟村北井变压器,北洛平灵山1#,徐家磨|0743,西垒子果园,源通拓达矿业400KVA专变,西洛平村南2新建,郭家坟【纯农排变】,西垒子北河村西井,东洛平光伏1号变,涞水县坤鹏建材有限公司100KVA专变,东洛平南坡井变压器,北洛平下岭台区【纯农排变】,东洛平村北井,西垒子村北618B变压器,北洛平西大地井,客户投资_孙家坟佛祖山变压器,北洛平村北变压器,怪草沟变压器,西洛平村北2【纯农排变】,涞水县广播电视台,南洛平村北台区,孙家坟村内2台区,北洛平北宫2号井,西垒子村西2,西洛平村南井变压器,东洛平村西台区,东洛平光伏三号,北洛平村南变压器,北洛平花生涧井,东洛平村内2|0677,西洛平大寨田,南洛平村南井,东洛平村东2,涞水县垒子水库管理处30KVA配变,南洛平村北变压器,北洛平大坡1号,东洛平怪草沟|0678,幸福庄村北台区,东洛平金家坟井,西洛平狐山坡变压器,永辉石料厂2,涞水县中凯鹏达水泥制品制造有限公司新增250KVA,西洛平南庄,东洛平村南台区,北洛平南井,东垒子新台区北庄变压器,山神庙变压器,孙家坟村北2井|0710【纯农排变】,北洛平风郭岭井变压器【纯农排变】,北洛平灵山井,孙家坟村内变压器,北洛平村北2台区,西洛平村北变压器,西洛平村西2台区,李占亭|0695【纯农排变】,东洛平鬼市坡井,西垒子北河变压器,西洛平村中2台区,东洛平光伏5号,东洛平光伏4号,北洛平村北井变压器【纯农排变】,西垒子果园2,北洛平七号井变压器,客户投资_北洛平灵芝山井,0469322457-东垒子扬水站-专变-46775171-东垒子扬水站,北宫井【纯农排变】,北洛平簸箕长井,幸福庄变压器,西洛平村西台区,幸福庄村北19号井变压器【纯农排变】,关志宇农庄,西洛平村西南井,炎煜石粉厂,南山矿业3,配变,东洛平村北,涞水县垒子水库管理处50KVA配变,北洛平北宫变压器,南洛平幼儿园,西垒子村北2【纯农排变】,西洛平村东（内）变压器","powerOffReason":"【停电原因】由于弓子线烧断导致３５ＫＶ永阳变电站１０ＫＶ洛平５１３线路全线停电 【变更送电】因工作量大原因，送电时间由１７：００变更为１８：３０ 【发布渠道】通过９５５９８发布","powerOffId":"2019072713000444"},{"poweroffId":2019072713000443,"sgpoweroffId":null,"subsName":"","lineName":"安庄线519","pubTranName":"大苏疃混5,固现农业6号【纯农排变】,东阳邱混2,西阳邱混6,麻辛庄村北农业6号【纯农排变】,望都县水利局（麻辛庄水厂）,常早村东混合4号,变压器,韩庄望唐路混5,安庄村北农2号【纯农排变】,常早村北2号【纯农排变】,望都县建设水泥构件厂,东阳邱混合5号,宰庄村西北农7【纯农排变】,安庄大沟边农4【纯农排变】,麻辛庄农2【纯农排变】,白岳信用社北【纯农排变】,固现酒厂,望都县金阳绒毛厂,固现农业7号【纯农排变】,望都众城食品有限公司,麻辛庄纸袋清洗厂,望都县老旺甲鱼养殖专业合作社,韩庄村东南【纯农排变】,安庄村西农业2号【纯农排变】,东阳邱混合7号,东阳邱混8,常早东农2号【纯农排变】,望都县兴建水泥砖厂,固现农5【纯农排变】,小西堤方田路【纯农排变】,常早东北2号【纯农排变】,韩庄西南50【纯农排变】,固现内东混合5号,常早村南4号【纯农排变】,大苏疃马路边【纯农排变】,麻辛庄农业3号【纯农排变】,安庄西南【纯农排变】,常早村北1号【纯农排变】,常早村北农3【纯农排变】,固现混1,麻辛庄混1,麻辛庄农业4号【纯农排变】,保定市味丰食品有限公司,常早村东北2号【纯农排变】,常早村西北3号【纯农排变】,固现混2,望唐路混合6号,望都县鑫欣绒毛加工厂,宰庄农3【纯农排变】,安庄混1,麻辛庄路南混合5号配变,固现混合8号,东阳邱石膏制品厂,大苏疃宰庄道2号【纯农排变】,常早村西北农业19号【纯农排变】,常早西南7号【纯农排变】,常早西北林厂3号【纯农排变】,固现混合3号,常早村北混5,常早混3,麻新庄混2,常早南2号【纯农排变】,常早桥西【纯农排变】,强盛建材厂,安庄农1【纯农排变】,固现农3【纯农排变】,韩庄西南西【纯农排变】,西阳邱混1,洪顺食品有限公司,安庄新民居,大苏疃混6,望都县正润燃气有限公司,固现混合9号,麻辛庄村东农业5号【纯农排变】,固现农业10号【纯农排变】,常早西农2号【纯农排变】,固现农4【纯农排变】,麻辛庄内西混4,固现混合4号,固现农业8号【纯农排变】,固现混合10号,常早西北6号【纯农排变】,望都县锦绣苑鞋厂,望都县精益辣业食品有限公司,安庄东北2号【纯农排变】,大疃白岳道农【纯农排变】,安庄混3,西阳邱农2【纯农排变】,大苏疃宰庄道【纯农排变】,西阳邱混3,常早村西混6,安庄混2,常早东北农业20号【纯农排变】,常早东南【纯农排变】,常早混1,东阳邱混3,大苏疃混3,东阳邱混1,大苏疃西南农【纯农排变】,常早窑东【纯农排变】,固现混7,麻辛庄村南【纯农排变】,麻辛庄混3,固现农2【纯农排变】,望都县牧丰谷物加工有限公司,固现混合12号,固现混合11号,常早西农5号【纯农排变】,固现村东农9【纯农排变】,常早桥东【纯农排变】,固现农1【纯农排变】,东阳邱混4【纯农排变】,常早混2,安庄村东农3【纯农排变】,韩庄村东50【纯农排变】,固现内西混6,","scope":"【影响街道/乡镇】寺庄乡、黑堡乡、望都镇、望唐路　 【高危重要客户】无　　 【影响客户】常早村、大苏疃村、麻辛庄、固现村、安庄村、东阳邱、西阳邱、宰庄部分农业、星达绒毛、鑫欣绒毛加工厂、洪顺食品有限公司、金阳绒毛厂、强盛建材厂、兴建水泥砖厂、东阳邱石膏制品厂、众城食品有限公司、精益辣业食品有限公司、鼎力水泥、步源鞋厂、明旺农业、保定奇力佳日化用品有限公司、鑫豪碾米厂、味峰食品有限公司、老旺甲鱼、锦绣苑鞋厂、望都县正润燃气有限公司、安庄新民居、白岳信用社北、望都县牧丰谷物加工有限公司、望都县建设水泥构件厂、望都县水利局（麻辛庄水厂）、嘉禾面粉","startTime":"2019-08-06 07:00:00","stopDate":"2019-08-06 17:20:00","orgNo":"1340623","typeCode":"计划停电","poweroffArea":"【分支停电】停小西堤方田路【纯农排变】,东阳邱混合7号,常早村东混合4号,变压器,韩庄望唐路混5,安庄村北农2号【纯农排变】,常早村北2号【纯农排变】,望都县建设水泥构件厂,东阳邱混合5号,宰庄村西北农7【纯农排变】,安庄大沟边农4【纯农排变】,麻辛庄农2【纯农排变】,白岳信用社北【纯农排变】,固现酒厂,望都县金阳绒毛厂,固现农业7号【纯农排变】,望都众城食品有限公司,麻辛庄纸袋清洗厂,望都县老旺甲鱼养殖专业合作社,韩庄村东南【纯农排变】,安庄村西农业2号【纯农排变】,东阳邱混8,常早东农2号【纯农排变】,望都县兴建水泥砖厂,固现农5【纯农排变】,常早东北2号【纯农排变】,韩庄西南50【纯农排变】,固现内东混合5号,常早村南4号【纯农排变】,大苏疃马路边【纯农排变】,麻辛庄农业3号【纯农排变】,安庄西南【纯农排变】,常早村北1号【纯农排变】,常早村北农3【纯农排变】,固现混1,麻辛庄混1,麻辛庄农业4号【纯农排变】,保定市味丰食品有限公司,常早村东北2号【纯农排变】,常早村西北3号【纯农排变】,固现混2,望唐路混合6号,望都县鑫欣绒毛加工厂,宰庄农3【纯农排变】,安庄混1,麻辛庄路南混合5号配变,固现混合8号,东阳邱石膏制品厂,大苏疃宰庄道2号【纯农排变】,常早村西北农业19号【纯农排变】,常早西南7号【纯农排变】,常早南2号【纯农排变】,固现内西混6,常早村西混6,安庄混2,常早东北农业20号【纯农排变】,常早东南【纯农排变】,常早混1,东阳邱混3,大苏疃混3,东阳邱混1,大苏疃西南农【纯农排变】,常早窑东【纯农排变】,固现混7,麻辛庄村南【纯农排变】,麻辛庄混3,固现农2【纯农排变】,望都县牧丰谷物加工有限公司,固现混合12号,固现混合11号,常早西农5号【纯农排变】,固现村东农9【纯农排变】,常早桥东【纯农排变】,固现农1【纯农排变】,东阳邱混4【纯农排变】,常早混2,安庄村东农3【纯农排变】,韩庄村东50【纯农排变】,常早西北林厂3号【纯农排变】,固现混合3号,常早村北混5,常早混3,麻新庄混2,常早桥西【纯农排变】,强盛建材厂,安庄农1【纯农排变】,固现农3【纯农排变】,韩庄西南西【纯农排变】,西阳邱混1,洪顺食品有限公司,安庄新民居,大苏疃混6,望都县正润燃气有限公司,固现混合9号,麻辛庄村东农业5号【纯农排变】,固现农业10号【纯农排变】,常早西农2号【纯农排变】,固现农4【纯农排变】,麻辛庄内西混4,固现混合4号,固现农业8号【纯农排变】,固现混合10号,常早西北6号【纯农排变】,望都县锦绣苑鞋厂,望都县精益辣业食品有限公司,安庄东北2号【纯农排变】,大疃白岳道农【纯农排变】,安庄混3,西阳邱农2【纯农排变】,大苏疃宰庄道【纯农排变】,西阳邱混3,大苏疃混5,固现农业6号【纯农排变】,东阳邱混2,西阳邱混6,麻辛庄村北农业6号【纯农排变】,望都县水利局（麻辛庄水厂）","poweroffReason":"【停电原因】由于导线接引导致１１０ＫＶ西堤变电站安庄线５１９线路５１９２号开关以下线路停电 【变更送电】因工作提前完工原因，送电时间由１８：００变更为１７：２０ 【发布渠道】保定市望都有线电视台（07月28日至08月05日19时00分至20时00分之间）屏幕上方滚动","powerTime":"2019-08-06 16:46:26","powerComm":"已送电","subsNo":"","lineNo":"","tgNo":"","tgName":null,"infoStatus":"1","orgName":"国网望都县供电公司","typeName":null,"infoStatusName":null,"dateDay":null,"orgNos":null,"nowTime":null,"countyName":null,"streetName":null,"villageName":null,"roadName":null,"communityName":null,"tranName":null,"sdLineName":null,"cityCode":"1340623","cityName":"国网望都县供电公司","provinceCode":null,"stopTime":"2019-08-06 17:20:00","powerType":"全部","powerOffArea":"【分支停电】停小西堤方田路【纯农排变】,东阳邱混合7号,常早村东混合4号,变压器,韩庄望唐路混5,安庄村北农2号【纯农排变】,常早村北2号【纯农排变】,望都县建设水泥构件厂,东阳邱混合5号,宰庄村西北农7【纯农排变】,安庄大沟边农4【纯农排变】,麻辛庄农2【纯农排变】,白岳信用社北【纯农排变】,固现酒厂,望都县金阳绒毛厂,固现农业7号【纯农排变】,望都众城食品有限公司,麻辛庄纸袋清洗厂,望都县老旺甲鱼养殖专业合作社,韩庄村东南【纯农排变】,安庄村西农业2号【纯农排变】,东阳邱混8,常早东农2号【纯农排变】,望都县兴建水泥砖厂,固现农5【纯农排变】,常早东北2号【纯农排变】,韩庄西南50【纯农排变】,固现内东混合5号,常早村南4号【纯农排变】,大苏疃马路边【纯农排变】,麻辛庄农业3号【纯农排变】,安庄西南【纯农排变】,常早村北1号【纯农排变】,常早村北农3【纯农排变】,固现混1,麻辛庄混1,麻辛庄农业4号【纯农排变】,保定市味丰食品有限公司,常早村东北2号【纯农排变】,常早村西北3号【纯农排变】,固现混2,望唐路混合6号,望都县鑫欣绒毛加工厂,宰庄农3【纯农排变】,安庄混1,麻辛庄路南混合5号配变,固现混合8号,东阳邱石膏制品厂,大苏疃宰庄道2号【纯农排变】,常早村西北农业19号【纯农排变】,常早西南7号【纯农排变】,常早南2号【纯农排变】,固现内西混6,常早村西混6,安庄混2,常早东北农业20号【纯农排变】,常早东南【纯农排变】,常早混1,东阳邱混3,大苏疃混3,东阳邱混1,大苏疃西南农【纯农排变】,常早窑东【纯农排变】,固现混7,麻辛庄村南【纯农排变】,麻辛庄混3,固现农2【纯农排变】,望都县牧丰谷物加工有限公司,固现混合12号,固现混合11号,常早西农5号【纯农排变】,固现村东农9【纯农排变】,常早桥东【纯农排变】,固现农1【纯农排变】,东阳邱混4【纯农排变】,常早混2,安庄村东农3【纯农排变】,韩庄村东50【纯农排变】,常早西北林厂3号【纯农排变】,固现混合3号,常早村北混5,常早混3,麻新庄混2,常早桥西【纯农排变】,强盛建材厂,安庄农1【纯农排变】,固现农3【纯农排变】,韩庄西南西【纯农排变】,西阳邱混1,洪顺食品有限公司,安庄新民居,大苏疃混6,望都县正润燃气有限公司,固现混合9号,麻辛庄村东农业5号【纯农排变】,固现农业10号【纯农排变】,常早西农2号【纯农排变】,固现农4【纯农排变】,麻辛庄内西混4,固现混合4号,固现农业8号【纯农排变】,固现混合10号,常早西北6号【纯农排变】,望都县锦绣苑鞋厂,望都县精益辣业食品有限公司,安庄东北2号【纯农排变】,大疃白岳道农【纯农排变】,安庄混3,西阳邱农2【纯农排变】,大苏疃宰庄道【纯农排变】,西阳邱混3,大苏疃混5,固现农业6号【纯农排变】,东阳邱混2,西阳邱混6,麻辛庄村北农业6号【纯农排变】,望都县水利局（麻辛庄水厂）","powerOffReason":"【停电原因】由于导线接引导致１１０ＫＶ西堤变电站安庄线５１９线路５１９２号开关以下线路停电 【变更送电】因工作提前完工原因，送电时间由１８：００变更为１７：２０ 【发布渠道】保定市望都有线电视台（07月28日至08月05日19时00分至20时00分之间）屏幕上方滚动","powerOffId":"2019072713000443"},{"poweroffId":2019072713000439,"sgpoweroffId":null,"subsName":"","lineName":"10KV西垒子511","pubTranName":"涞水煤矿生活二区,冀文生灰粉厂,西垒子村南2,东垒子1村北0671,西垒子村南1变压器,西垒子村东变压器,10kV永阳511金源水泥厂,坛山西二台区,三友灰粉厂,财贸灰粉厂,东垒子南台区变压器,永兴灰厂,坛山村西北道边变压器,联合2号,煤矿生活区,天源灰厂,","scope":"【影响街道/乡镇】永阳镇 【高危重要客户】无 【影响客户】西垒子村、东垒子村、坛山村西北","startTime":"2019-07-27 15:44:59","stopDate":"2019-07-27 18:30:00","orgNo":"1340614","typeCode":"电网故障停限电","poweroffArea":"【全线路停电】停10kV永阳511金源水泥厂,坛山西二台区,三友灰粉厂,财贸灰粉厂,东垒子南台区变压器,永兴灰厂,坛山村西北道边变压器,联合2号,煤矿生活区,天源灰厂,涞水煤矿生活二区,冀文生灰粉厂,西垒子村南2,东垒子1村北0671,西垒子村南1变压器,西垒子村东变压器","poweroffReason":"【停电原因】由于弓子线烧断导致３５ＫＶ永阳变电站１０ＫＶ西垒子５１１线路全线停电 【变更送电】因工作量大原因，送电时间由１７：００变更为１８：３０ 【发布渠道】通过９５５９８发布","powerTime":"2019-07-27 17:58:56","powerComm":"已送电","subsNo":"","lineNo":"","tgNo":"","tgName":null,"infoStatus":"1","orgName":"国网涞水县供电公司","typeName":null,"infoStatusName":null,"dateDay":null,"orgNos":null,"nowTime":null,"countyName":null,"streetName":null,"villageName":null,"roadName":null,"communityName":null,"tranName":null,"sdLineName":null,"cityCode":"1340614","cityName":"国网涞水县供电公司","provinceCode":null,"stopTime":"2019-07-27 18:30:00","powerType":"全部","powerOffArea":"【全线路停电】停10kV永阳511金源水泥厂,坛山西二台区,三友灰粉厂,财贸灰粉厂,东垒子南台区变压器,永兴灰厂,坛山村西北道边变压器,联合2号,煤矿生活区,天源灰厂,涞水煤矿生活二区,冀文生灰粉厂,西垒子村南2,东垒子1村北0671,西垒子村南1变压器,西垒子村东变压器","powerOffReason":"【停电原因】由于弓子线烧断导致３５ＫＶ永阳变电站１０ＫＶ西垒子５１１线路全线停电 【变更送电】因工作量大原因，送电时间由１７：００变更为１８：３０ 【发布渠道】通过９５５９８发布","powerOffId":"2019072713000439"},{"poweroffId":2019072713000413,"sgpoweroffId":null,"subsName":"","lineName":"军农场线511","pubTranName":"北王疃村内北,","scope":"【影响街道/乡镇】中韩庄乡　　 【高危重要客户】无　　 【影响客户】北王疃","startTime":"2019-07-27 15:23:30","stopDate":"2019-07-27 17:30:00","orgNo":"1340623","typeCode":"电网故障停限电","poweroffArea":"【单台区停电】停北王疃村内北","poweroffReason":"【停电原因】由于低压刀闸烧导致３５ＫＶ曹庄变电站军农场线５１１线路北王疃村内北公变台区停电 【变更送电】因抢修进度加快原因，送电时间由１８：３０变更为１７：３０ 【发布渠道】通过９５５９８发布","powerTime":"2019-07-27 16:59:23","powerComm":"已送电","subsNo":"","lineNo":"","tgNo":"","tgName":null,"infoStatus":"1","orgName":"国网望都县供电公司","typeName":null,"infoStatusName":null,"dateDay":null,"orgNos":null,"nowTime":null,"countyName":null,"streetName":null,"villageName":null,"roadName":null,"communityName":null,"tranName":null,"sdLineName":null,"cityCode":"1340623","cityName":"国网望都县供电公司","provinceCode":null,"stopTime":"2019-07-27 17:30:00","powerType":"全部","powerOffArea":"【单台区停电】停北王疃村内北","powerOffReason":"【停电原因】由于低压刀闸烧导致３５ＫＶ曹庄变电站军农场线５１１线路北王疃村内北公变台区停电 【变更送电】因抢修进度加快原因，送电时间由１８：３０变更为１７：３０ 【发布渠道】通过９５５９８发布","powerOffId":"2019072713000413"},{"poweroffId":2019072713000409,"sgpoweroffId":null,"subsName":"","lineName":"李庄线515","pubTranName":"讯口岭北2号,李庄村委会,迅口机井,河北九嘉房地产开发有限公司1,李庄北井,北东峪,李庄村边1号,讯口石厂,北东峪村,北东峪水井,东龙门东井,燕南石材三分厂,白龙供电所,北东峪打井,满城县瑞宇荒山开发有限公司,候庄打井,森林石材,讯口岭北,北东峪村西新增2号,北东峪大又岭（农网）【纯农排变】,北东峪涝坡,北东峪山东,北东峪东坡【纯农排变】,侯庄村内,0695818283-中国移动通信集团河北有限公司满城分公司-专变-240732658-中国移动通信集团河北有限公司满城分公司,保定市龙门水库管理处,李庄村西,李庄村南【纯农排变】,迅口打井,河北九嘉房地产开发有限公司2,晟翔采石厂,北东峪村西,满易公路,李庄新增,李庄南坡【纯农排变】,李庄岭南,乡大井,北东峪新增1号,龙门车站,北东峪村北,龙门车站新增2 号,","scope":"【影响街道/乡镇】白龙乡 【高危重要客户】无 【影响客户】北东峪村、李庄村、东龙门村、侯庄、训口村","startTime":"2019-07-27 15:18:27","stopDate":"2019-07-27 19:00:00","orgNo":"1340617","typeCode":"电网故障停限电","poweroffArea":"【全线路停电】停讯口石厂,森林石材,0695818283-中国移动通信集团河北有限公司满城分公司-专变-240732658-中国移动通信集团河北有限公司满城分公司,讯口岭北,龙门车站新增2 号,保定市龙门水库管理处,东龙门东井,北东峪村,燕南石材三分厂,李庄村西,龙门车站,李庄村南【纯农排变】,北东峪大又岭（农网）【纯农排变】,北东峪村西新增2号,北东峪涝坡,侯庄村内,迅口打井,李庄村委会,北东峪山东,李庄南坡【纯农排变】,河北九嘉房地产开发有限公司2,北东峪东坡【纯农排变】,讯口岭北2号,晟翔采石厂,白龙供电所,河北九嘉房地产开发有限公司1,迅口机井,北东峪村西,北东峪打井,满易公路,李庄北井,李庄岭南,满城县瑞宇荒山开发有限公司,乡大井,北东峪,李庄新增,候庄打井,北东峪水井,李庄村边1号,北东峪新增1号,北东峪村北","poweroffReason":"【停电原因】由于变电站故障导致３５ＫＶ龙门变电站李庄线５１５线路全线停电 【变更送电】因抢修进度加快原因，送电时间由２３：００变更为１９：００ 【发布渠道】通过９５５９８发布","powerTime":"2019-07-27 18:42:46","powerComm":"已送电","subsNo":"","lineNo":"","tgNo":"","tgName":null,"infoStatus":"1","orgName":"国网满城县供电公司","typeName":null,"infoStatusName":null,"dateDay":null,"orgNos":null,"nowTime":null,"countyName":null,"streetName":null,"villageName":null,"roadName":null,"communityName":null,"tranName":null,"sdLineName":null,"cityCode":"1340617","cityName":"国网满城县供电公司","provinceCode":null,"stopTime":"2019-07-27 19:00:00","powerType":"全部","powerOffArea":"【全线路停电】停讯口石厂,森林石材,0695818283-中国移动通信集团河北有限公司满城分公司-专变-240732658-中国移动通信集团河北有限公司满城分公司,讯口岭北,龙门车站新增2 号,保定市龙门水库管理处,东龙门东井,北东峪村,燕南石材三分厂,李庄村西,龙门车站,李庄村南【纯农排变】,北东峪大又岭（农网）【纯农排变】,北东峪村西新增2号,北东峪涝坡,侯庄村内,迅口打井,李庄村委会,北东峪山东,李庄南坡【纯农排变】,河北九嘉房地产开发有限公司2,北东峪东坡【纯农排变】,讯口岭北2号,晟翔采石厂,白龙供电所,河北九嘉房地产开发有限公司1,迅口机井,北东峪村西,北东峪打井,满易公路,李庄北井,李庄岭南,满城县瑞宇荒山开发有限公司,乡大井,北东峪,李庄新增,候庄打井,北东峪水井,李庄村边1号,北东峪新增1号,北东峪村北","powerOffReason":"【停电原因】由于变电站故障导致３５ＫＶ龙门变电站李庄线５１５线路全线停电 【变更送电】因抢修进度加快原因，送电时间由２３：００变更为１９：００ 【发布渠道】通过９５５９８发布","powerOffId":"2019072713000409"},{"poweroffId":2019072713000401,"sgpoweroffId":null,"subsName":"","lineName":"巩庄线514","pubTranName":"钟家店村南,白布粮库门口,白布十四，十五队,白布村南,钟家店打井（统）,野里石厂200KVA配变,也里4队,白布龙王庙,崔青波,白布南关堂,迅口新增,满城县华兴石材厂,中国联合网络通信有限公司满城县分,白布南大棚/毛儿碾,长江加工厂,毛儿碾,迈瑞达建材1厂,巩庄村西,白堡村西2号,长江石材,白布粮库2号,巩庄村西3号,乡政府新增,白布李家峪,钟家店五队,石斗儿,钟家店照明,神星果园,钟家店村内,河北省高速公路荣乌管理处,白堡村东新增,三分支双井,巩庄村西2号,中旺建材厂,巩庄村南,钟家店新增,白布一分支打井,巩庄机井,白布砖厂农用变压器,崔路振,九龙面粉厂,白布村西,白布南山井,东院新增,中家店大队,坎下村南井,中家店打井,天宇石材,讯口2号,白布乡政府,野里村西,白堡吃水井（农网）,野里村南新增,一分支小井（农网）,白布东院,远达度假村,未庄村南井,白布五分支,白布12队,野里灰厂,富强灰厂,京宇石材厂内（统管）,野里村内,迅口村东/迅口2号,0387465850-满城县大坎下张石坡石渣厂-专变-45295222-大坎下张石坡石渣厂,白布连家,白布南元,野里村南,白布岗头岭,九龙山,满城县庭院开发,野里村东,白布3和岭,白布3分支,","scope":"【影响街道/乡镇】白龙乡 【高危重要客户】无 【影响客户】巩庄、钟（中）家店、也（野）里、白堡、训口","startTime":"2019-07-27 15:15:23","stopDate":"2019-07-27 19:00:00","orgNo":"1340617","typeCode":"电网故障停限电","poweroffArea":"【全线路停电】停白布砖厂农用变压器,满城县庭院开发,野里灰厂,钟家店村内,富强灰厂,中家店大队,迈瑞达建材1厂,天宇石材,毛儿碾,长江加工厂,钟家店打井（统）,满城县华兴石材厂,白布李家峪,野里村东,白布南元,河北省高速公路荣乌管理处,白布岗头岭,白布南山井,中旺建材厂,野里村南,长江石材,野里村西,白堡村西2号,白布村西,迅口新增,钟家店照明,野里村内,白布连家,钟家店五队,崔路振,白布3和岭,远达度假村,白布南关堂,九龙山,白布12队,白布五分支,白堡吃水井（农网）,白布一分支打井,白布粮库门口,巩庄村南,京宇石材厂内（统管）,中家店打井,讯口2号,白布十四，十五队,石斗儿,野里村南新增,白布东院,巩庄机井,白堡村东新增,坎下村南井,未庄村南井,钟家店村南,巩庄村西2号,白布3分支,三分支双井,白布村南,0387465850-满城县大坎下张石坡石渣厂-专变-45295222-大坎下张石坡石渣厂,也里4队,神星果园,巩庄村西,巩庄村西3号,白布南大棚/毛儿碾,东院新增,钟家店新增,白布乡政府,迅口村东/迅口2号,一分支小井（农网）,白布粮库2号,乡政府新增,白布龙王庙,九龙面粉厂,中国联合网络通信有限公司满城县分,崔青波,野里石厂200KVA配变","poweroffReason":"【停电原因】由于变电站故障导致３５ＫＶ龙门变电站巩庄线５１４线路全线停电 【变更送电】因抢修进度加快原因，送电时间由２３：００变更为１９：００ 【发布渠道】通过９５５９８发布","powerTime":"2019-07-27 18:40:35","powerComm":"已送电","subsNo":"","lineNo":"","tgNo":"","tgName":null,"infoStatus":"1","orgName":"国网满城县供电公司","typeName":null,"infoStatusName":null,"dateDay":null,"orgNos":null,"nowTime":null,"countyName":null,"streetName":null,"villageName":null,"roadName":null,"communityName":null,"tranName":null,"sdLineName":null,"cityCode":"1340617","cityName":"国网满城县供电公司","provinceCode":null,"stopTime":"2019-07-27 19:00:00","powerType":"全部","powerOffArea":"【全线路停电】停白布砖厂农用变压器,满城县庭院开发,野里灰厂,钟家店村内,富强灰厂,中家店大队,迈瑞达建材1厂,天宇石材,毛儿碾,长江加工厂,钟家店打井（统）,满城县华兴石材厂,白布李家峪,野里村东,白布南元,河北省高速公路荣乌管理处,白布岗头岭,白布南山井,中旺建材厂,野里村南,长江石材,野里村西,白堡村西2号,白布村西,迅口新增,钟家店照明,野里村内,白布连家,钟家店五队,崔路振,白布3和岭,远达度假村,白布南关堂,九龙山,白布12队,白布五分支,白堡吃水井（农网）,白布一分支打井,白布粮库门口,巩庄村南,京宇石材厂内（统管）,中家店打井,讯口2号,白布十四，十五队,石斗儿,野里村南新增,白布东院,巩庄机井,白堡村东新增,坎下村南井,未庄村南井,钟家店村南,巩庄村西2号,白布3分支,三分支双井,白布村南,0387465850-满城县大坎下张石坡石渣厂-专变-45295222-大坎下张石坡石渣厂,也里4队,神星果园,巩庄村西,巩庄村西3号,白布南大棚/毛儿碾,东院新增,钟家店新增,白布乡政府,迅口村东/迅口2号,一分支小井（农网）,白布粮库2号,乡政府新增,白布龙王庙,九龙面粉厂,中国联合网络通信有限公司满城县分,崔青波,野里石厂200KVA配变","powerOffReason":"【停电原因】由于变电站故障导致３５ＫＶ龙门变电站巩庄线５１４线路全线停电 【变更送电】因抢修进度加快原因，送电时间由２３：００变更为１９：００ 【发布渠道】通过９５５９８发布","powerOffId":"2019072713000401"},{"poweroffId":2019072713000398,"sgpoweroffId":null,"subsName":"","lineName":"坎下线516","pubTranName":"中交四公局第一工程有限公司250KVA,华兴石材厂,崔家沟一号,汉德经贸,大坎下殷志强,一级扬水站,大坎下东北,中交四公局第一工程有限公司1000KVA,小坨,满城县汉德鞋厂,大坎下老道沟,满城县大雨水泥砖厂,大坎下村,讯口3号,坎下2级扬水站,大坎下北大碾,大坎下村南,建英养鸡场,大坎下村北,大坎下村东,汇通路桥建设集团有限公司荣乌高速公路LJSG-9项目经理部,远达白云山【纯农排变】,大坎下村西,迈瑞达建材2厂,大坎下庙坡,大坎下村西2号,大坎下村西南,大坎下4队,保定东缘果蔬种植有限公司,","scope":"【影响街道/乡镇】白龙乡 【高危重要客户】无 【影响客户】大坎下村、白堡、小坨","startTime":"2019-07-27 15:14:12","stopDate":"2019-07-27 19:00:00","orgNo":"1340617","typeCode":"电网故障停限电","poweroffArea":"【全线路停电】停中交四公局第一工程有限公司250KVA,大坎下东北,汇通路桥建设集团有限公司荣乌高速公路LJSG-9项目经理部,大坎下殷志强,保定东缘果蔬种植有限公司,大坎下4队,汉德经贸,华兴石材厂,大坎下村北,大坎下村西2号,中交四公局第一工程有限公司1000KVA,远达白云山【纯农排变】,满城县大雨水泥砖厂,大坎下庙坡,讯口3号,大坎下村西南,迈瑞达建材2厂,一级扬水站,大坎下北大碾,坎下2级扬水站,满城县汉德鞋厂,大坎下老道沟,崔家沟一号,小坨,建英养鸡场,大坎下村,大坎下村西,大坎下村东,大坎下村南","poweroffReason":"【停电原因】由于变电站故障导致３５ＫＶ龙门变电站坎下线５１６线路全线停电 【变更送电】因抢修进度加快原因，送电时间由２３：００变更为１９：００ 【发布渠道】通过９５５９８发布","powerTime":"2019-07-27 18:43:00","powerComm":"已送电","subsNo":"","lineNo":"","tgNo":"","tgName":null,"infoStatus":"1","orgName":"国网满城县供电公司","typeName":null,"infoStatusName":null,"dateDay":null,"orgNos":null,"nowTime":null,"countyName":null,"streetName":null,"villageName":null,"roadName":null,"communityName":null,"tranName":null,"sdLineName":null,"cityCode":"1340617","cityName":"国网满城县供电公司","provinceCode":null,"stopTime":"2019-07-27 19:00:00","powerType":"全部","powerOffArea":"【全线路停电】停中交四公局第一工程有限公司250KVA,大坎下东北,汇通路桥建设集团有限公司荣乌高速公路LJSG-9项目经理部,大坎下殷志强,保定东缘果蔬种植有限公司,大坎下4队,汉德经贸,华兴石材厂,大坎下村北,大坎下村西2号,中交四公局第一工程有限公司1000KVA,远达白云山【纯农排变】,满城县大雨水泥砖厂,大坎下庙坡,讯口3号,大坎下村西南,迈瑞达建材2厂,一级扬水站,大坎下北大碾,坎下2级扬水站,满城县汉德鞋厂,大坎下老道沟,崔家沟一号,小坨,建英养鸡场,大坎下村,大坎下村西,大坎下村东,大坎下村南","powerOffReason":"【停电原因】由于变电站故障导致３５ＫＶ龙门变电站坎下线５１６线路全线停电 【变更送电】因抢修进度加快原因，送电时间由２３：００变更为１９：００ 【发布渠道】通过９５５９８发布","powerOffId":"2019072713000398"},{"poweroffId":2019072713000396,"sgpoweroffId":null,"subsName":"","lineName":"庞口线514","pubTranName":"张国欣,停车场(二),闫喜泉,腾飞机件厂,高阳县顺成农业机械配件制造有限公司变压器,高阳县庞口镇北庞口村村民委员会变压器,西庞口市场(车场),庞口索建国,杨国强,程树杰,庞口市管会,高阳县泰宏内燃机配件厂变压器,南庞口李贝变压器,南庞口制件厂,镇政府,南庞口村东,高阳县庞口镇北庞口村变压器,西庞口铸件厂,西庞口弓子板厂,恒光农机配件厂,03068|南庞口村西南综合,李顺北厂(子),张保生农机厂,西庞口集英学校2,高阳县三鑫农用车配件厂变压器,03066|南庞口村里综合,西庞口大队学校小区,西庞口轴瓦厂变压器,03071|西庞口农业南,叶志桂,亚辉厂,张森林,李申,候建康,庞口津阳电机厂,高阳县地税局庞口分局,西庞口电镀厂,兴江机械有限公司,庞口工商所,李亚辉,李运昌农机厂,成艳军面粉厂,西庞口村北新增,高阳县强力配件厂变压器,李占江 2,庞口市场管理委员会,西庞口菜园,03062|西庞口村南综合,上海桑沙机械进出口有限公司变压器,中国移动通信集团河北有限公司高阳分公司,03060|西庞口村东综合,南庞口复合肥厂,市管会新增,03070|西庞口农业中,南庞口西南,03069|西庞口农业北,北庞口公路西,庞口营业所,物资站,成艳轮面粉厂,庞口市场,市管会,西庞口轴瓦厂,西庞口拔丝厂,索连伟,李臣煤厂,王朝辉减震器厂,西庞口李马,东留果庄果园,庞口市管会(200),张颜民轮胎厂,03067|新南庞口村东南综合,李义,侯喜震,东风空气滤清器厂,高阳县恩发物业管理有限公司变压器,张金山,李志红,03061|西庞口村西综合,南庞口村西综合,江辉减震器厂,李占江,西庞口村西,保定光达物业管理公司,中国联通高阳县分公司,徐二迷减振器厂,贺二强,高阳县鹏翔养殖场,高阳县双马减震器制造有限公司变压器,南庞口村东综合,五洲宾馆,","scope":"【影响街道/乡镇】庞口镇 【高危重要客户】无 【影响客户】南庞口村、西庞口村、庞口市场全部","startTime":"2019-07-28 05:00:00","stopDate":"2019-07-28 12:00:00","orgNo":"1340613","typeCode":"其他临时停电","poweroffArea":"【分支停电】停03066|南庞口村里综合,高阳县强力配件厂变压器,程树杰,高阳县双马减震器制造有限公司变压器,高阳县顺成农业机械配件制造有限公司变压器,庞口营业所,高阳县庞口镇北庞口村村民委员会变压器,李占江 2,中国移动通信集团河北有限公司高阳分公司,张保生农机厂,庞口市场管理委员会,西庞口市场(车场),高阳县恩发物业管理有限公司变压器,西庞口集英学校2,西庞口菜园,庞口索建国,张金山,高阳县三鑫农用车配件厂变压器,03062|西庞口村南综合,杨国强,李志红,西庞口大队学校小区,上海桑沙机械进出口有限公司变压器,庞口市管会,03061|西庞口村西综合,西庞口轴瓦厂变压器,市管会,高阳县泰宏内燃机配件厂变压器,南庞口村西综合,03071|西庞口农业南,西庞口轴瓦厂,南庞口李贝变压器,江辉减震器厂,叶志桂,西庞口拔丝厂,南庞口制件厂,李占江,镇政府,索连伟,张森林,西庞口村西,南庞口村东,李臣煤厂,李申,保定光达物业管理公司,高阳县庞口镇北庞口村变压器,庞口市管会(200),候建康,中国联通高阳县分公司,西庞口铸件厂,张颜民轮胎厂,庞口津阳电机厂,徐二迷减振器厂,西庞口弓子板厂,物资站,高阳县地税局庞口分局,兴江机械有限公司,西庞口电镀厂,腾飞机件厂,李亚辉,庞口工商所,贺二强,03060|西庞口村东综合,恒光农机配件厂,王朝辉减震器厂,03068|南庞口村西南综合,南庞口复合肥厂,成艳轮面粉厂,西庞口李马,庞口市场,市管会新增,李顺北厂(子),东留果庄果园,张国欣,03070|西庞口农业中,停车场(二),03067|新南庞口村东南综合,南庞口村东综合,闫喜泉,南庞口西南,高阳县鹏翔养殖场,03069|西庞口农业北,李运昌农机厂,李义,成艳军面粉厂,北庞口公路西,五洲宾馆,侯喜震,西庞口村北新增,东风空气滤清器厂,亚辉厂","poweroffReason":"【停电原因】由于电杆移位导致３５ＫＶ庞口变电站庞口５１４线路主线５号杆５号开关以下停电【变更送电】无【发布渠道】通过９５５９８发布","powerTime":"2019-07-28 11:53:21","powerComm":"已送电","subsNo":"","lineNo":"","tgNo":"","tgName":null,"infoStatus":"1","orgName":"国网高阳县供电公司","typeName":null,"infoStatusName":null,"dateDay":null,"orgNos":null,"nowTime":null,"countyName":null,"streetName":null,"villageName":null,"roadName":null,"communityName":null,"tranName":null,"sdLineName":null,"cityCode":"1340613","cityName":"国网高阳县供电公司","provinceCode":null,"stopTime":"2019-07-28 12:00:00","powerType":"全部","powerOffArea":"【分支停电】停03066|南庞口村里综合,高阳县强力配件厂变压器,程树杰,高阳县双马减震器制造有限公司变压器,高阳县顺成农业机械配件制造有限公司变压器,庞口营业所,高阳县庞口镇北庞口村村民委员会变压器,李占江 2,中国移动通信集团河北有限公司高阳分公司,张保生农机厂,庞口市场管理委员会,西庞口市场(车场),高阳县恩发物业管理有限公司变压器,西庞口集英学校2,西庞口菜园,庞口索建国,张金山,高阳县三鑫农用车配件厂变压器,03062|西庞口村南综合,杨国强,李志红,西庞口大队学校小区,上海桑沙机械进出口有限公司变压器,庞口市管会,03061|西庞口村西综合,西庞口轴瓦厂变压器,市管会,高阳县泰宏内燃机配件厂变压器,南庞口村西综合,03071|西庞口农业南,西庞口轴瓦厂,南庞口李贝变压器,江辉减震器厂,叶志桂,西庞口拔丝厂,南庞口制件厂,李占江,镇政府,索连伟,张森林,西庞口村西,南庞口村东,李臣煤厂,李申,保定光达物业管理公司,高阳县庞口镇北庞口村变压器,庞口市管会(200),候建康,中国联通高阳县分公司,西庞口铸件厂,张颜民轮胎厂,庞口津阳电机厂,徐二迷减振器厂,西庞口弓子板厂,物资站,高阳县地税局庞口分局,兴江机械有限公司,西庞口电镀厂,腾飞机件厂,李亚辉,庞口工商所,贺二强,03060|西庞口村东综合,恒光农机配件厂,王朝辉减震器厂,03068|南庞口村西南综合,南庞口复合肥厂,成艳轮面粉厂,西庞口李马,庞口市场,市管会新增,李顺北厂(子),东留果庄果园,张国欣,03070|西庞口农业中,停车场(二),03067|新南庞口村东南综合,南庞口村东综合,闫喜泉,南庞口西南,高阳县鹏翔养殖场,03069|西庞口农业北,李运昌农机厂,李义,成艳军面粉厂,北庞口公路西,五洲宾馆,侯喜震,西庞口村北新增,东风空气滤清器厂,亚辉厂","powerOffReason":"【停电原因】由于电杆移位导致３５ＫＶ庞口变电站庞口５１４线路主线５号杆５号开关以下停电【变更送电】无【发布渠道】通过９５５９８发布","powerOffId":"2019072713000396"},{"poweroffId":2019072713000385,"sgpoweroffId":null,"subsName":"","lineName":"龙门线512","pubTranName":"南水峪新增,北水峪杨水站【纯农排变】,南水1队,雷溪小镇3号,东龙门,玉祥2号,青山庄西井【纯农排变】,满城县雄飞建材有限公司,东龙门村西井【纯农排变】,东龙门南井2号,西龙门北坡,北水峪浇地【纯农排变】,满城县白龙乡北水峪村民委员2号100KVA,雷溪小镇2号,北水峪,满城县雄飞建材有限公司200KVA,北水又村东,迅口村北2号,铁钎坨ZB,0387465397-卢锴-专变-45295248-卢铠,西龙门打井【纯农排变】,满城县城镇市政工程有限公司,南水峪（农网）【纯农排变】,东龙门南井,西龙门,北水峪机井【纯农排变】,青山庄北井,南水峪机井,迅口村北,满城县白龙乡北水峪村民委员会1号50KVA,南水峪,北水峪新增,钟家店2队打井【纯农排变】,南水又北井,康远房地产开发公司,东龙门村北,迅口西坡,汇通路桥建设集团有限公司荣乌高速公路LJSG-9项目经理部,西龙门天梁井,钟家店,青山庄,西龙门南井2号,满城县白龙乡北水峪村村委会2,南水峪西沟,北水峪村西,青山庄南场,铁钎坨,陈玉祥1号井,西龙门北井【纯农排变】,龙门山庄,西龙门南井【纯农排变】,满城县喜壮壮养殖专业合作社,财会培训中心2号,南水峪黄蓝沟,天梁井1号【纯农排变】,","scope":"【影响街道/乡镇】龙门乡 【高危重要客户】无 【影响客户】南水峪村、北水峪村、东龙门村、西龙门村、青山庄、铁锨、雷溪小镇","startTime":"2019-07-27 15:10:04","stopDate":"2019-07-27 19:00:00","orgNo":"1340617","typeCode":"电网故障停限电","poweroffArea":"【全线路停电】停满城县雄飞建材有限公司,西龙门南井2号,满城县喜壮壮养殖专业合作社,南水峪新增,铁钎坨,南水峪,钟家店2队打井【纯农排变】,汇通路桥建设集团有限公司荣乌高速公路LJSG-9项目经理部,东龙门,陈玉祥1号井,北水峪浇地【纯农排变】,南水峪西沟,0387465397-卢锴-专变-45295248-卢铠,铁钎坨ZB,龙门山庄,北水峪机井【纯农排变】,天梁井1号【纯农排变】,满城县雄飞建材有限公司200KVA,迅口村北,西龙门天梁井,玉祥2号,西龙门南井【纯农排变】,北水又村东,东龙门南井2号,财会培训中心2号,满城县白龙乡北水峪村村委会2,北水峪,青山庄,迅口村北2号,满城县城镇市政工程有限公司,康远房地产开发公司,雷溪小镇2号,南水峪黄蓝沟,南水1队,西龙门,雷溪小镇3号,西龙门北坡,东龙门村北,迅口西坡,满城县白龙乡北水峪村民委员2号100KVA,北水峪村西,西龙门打井【纯农排变】,青山庄北井,西龙门北井【纯农排变】,青山庄西井【纯农排变】,青山庄南场,满城县白龙乡北水峪村民委员会1号50KVA,南水峪机井,南水峪（农网）【纯农排变】,南水又北井,东龙门村西井【纯农排变】,钟家店,北水峪杨水站【纯农排变】,东龙门南井,北水峪新增","poweroffReason":"【停电原因】由于变电站故障导致３５ＫＶ龙门变电站龙门线５１２线路全线停电 【变更送电】因抢修进度加快原因，送电时间由２３：００变更为１９：００ 【发布渠道】通过９５５９８发布","powerTime":"2019-07-27 18:44:37","powerComm":"已送电","subsNo":"","lineNo":"","tgNo":"","tgName":null,"infoStatus":"1","orgName":"国网满城县供电公司","typeName":null,"infoStatusName":null,"dateDay":null,"orgNos":null,"nowTime":null,"countyName":null,"streetName":null,"villageName":null,"roadName":null,"communityName":null,"tranName":null,"sdLineName":null,"cityCode":"1340617","cityName":"国网满城县供电公司","provinceCode":null,"stopTime":"2019-07-27 19:00:00","powerType":"全部","powerOffArea":"【全线路停电】停满城县雄飞建材有限公司,西龙门南井2号,满城县喜壮壮养殖专业合作社,南水峪新增,铁钎坨,南水峪,钟家店2队打井【纯农排变】,汇通路桥建设集团有限公司荣乌高速公路LJSG-9项目经理部,东龙门,陈玉祥1号井,北水峪浇地【纯农排变】,南水峪西沟,0387465397-卢锴-专变-45295248-卢铠,铁钎坨ZB,龙门山庄,北水峪机井【纯农排变】,天梁井1号【纯农排变】,满城县雄飞建材有限公司200KVA,迅口村北,西龙门天梁井,玉祥2号,西龙门南井【纯农排变】,北水又村东,东龙门南井2号,财会培训中心2号,满城县白龙乡北水峪村村委会2,北水峪,青山庄,迅口村北2号,满城县城镇市政工程有限公司,康远房地产开发公司,雷溪小镇2号,南水峪黄蓝沟,南水1队,西龙门,雷溪小镇3号,西龙门北坡,东龙门村北,迅口西坡,满城县白龙乡北水峪村民委员2号100KVA,北水峪村西,西龙门打井【纯农排变】,青山庄北井,西龙门北井【纯农排变】,青山庄西井【纯农排变】,青山庄南场,满城县白龙乡北水峪村民委员会1号50KVA,南水峪机井,南水峪（农网）【纯农排变】,南水又北井,东龙门村西井【纯农排变】,钟家店,北水峪杨水站【纯农排变】,东龙门南井,北水峪新增","powerOffReason":"【停电原因】由于变电站故障导致３５ＫＶ龙门变电站龙门线５１２线路全线停电 【变更送电】因抢修进度加快原因，送电时间由２３：００变更为１９：００ 【发布渠道】通过９５５９８发布","powerOffId":"2019072713000385"}],"pageModel":{"pageNow":764,"totalCount":10973,"totalPage":1098,"tableRows":0,"pageCount":10,"beginCount":7630},"isExperi":"1"}