{"message":"","today":"2020-06-15","seleList":[{"poweroffId":2019072713000164,"sgpoweroffId":null,"subsName":"","lineName":"金家井线511","pubTranName":"金家井线511黄土岭二台,金家井线511东沟村,金家井线511黄土岭村,金家井线511牛栏村,金家井线511牛栏二台区,金家井线511十八盘,金家井线511十八盘二台配变,牛栏1#【三批中心村】,牛栏2#【三批中心村】,牛栏3#【三批中心村】,牛栏村光伏变压器【光伏】,十八盘3号变压器,十八盘4号变压器,斜山1号,斜山2号,斜山3号,斜山4号,斜山5号,斜山村光伏变压器【光伏】,黄土岭1#【三批中心村】,黄土岭2#【三批中心村】,黄土岭光伏1号变压器,黄土岭光伏2号变压器,金家井线511斜山村,","scope":"【影响街道/乡镇】金家井乡、涞源镇【高危重要客户】无【影响客户】十八盘、牛栏、黄土岭、东沟村、斜山","startTime":"2019-08-06 07:00:00","stopDate":"2019-08-06 11:00:00","orgNo":"1340615","typeCode":"计划停电","poweroffArea":"【分支停电】停金家井线511黄土岭村,金家井线511黄土岭二台,金家井线511东沟村,金家井线511牛栏村,金家井线511牛栏二台区,金家井线511十八盘,金家井线511十八盘二台配变,牛栏1#【三批中心村】,牛栏2#【三批中心村】,牛栏3#【三批中心村】,牛栏村光伏变压器【光伏】,十八盘3号变压器,十八盘4号变压器,斜山1号,斜山2号,斜山3号,斜山4号,斜山5号,斜山村光伏变压器【光伏】,黄土岭1#【三批中心村】,黄土岭2#【三批中心村】,黄土岭光伏1号变压器,黄土岭光伏2号变压器,金家井线511斜山村","poweroffReason":"【停电原因】由于导线架设并接引导致３５ＫＶ城北变电站１０ＫＶ金家井线５１１线路黄土岭分支１２４号杆隔离开关以下线路停电【变更送电】无【发布渠道】涞源电视台（２０１９年０７月２７日至２０１９年０８月０５日）屏幕上方滚动","powerTime":"2019-08-06 10:40:07","powerComm":"已送电","subsNo":"","lineNo":"","tgNo":"","tgName":null,"infoStatus":"1","orgName":"国网涞源县供电公司","typeName":null,"infoStatusName":null,"dateDay":null,"orgNos":null,"nowTime":null,"countyName":null,"streetName":null,"villageName":null,"roadName":null,"communityName":null,"tranName":null,"sdLineName":null,"cityCode":"1340615","cityName":"国网涞源县供电公司","provinceCode":null,"stopTime":"2019-08-06 11:00:00","powerType":"全部","powerOffArea":"【分支停电】停金家井线511黄土岭村,金家井线511黄土岭二台,金家井线511东沟村,金家井线511牛栏村,金家井线511牛栏二台区,金家井线511十八盘,金家井线511十八盘二台配变,牛栏1#【三批中心村】,牛栏2#【三批中心村】,牛栏3#【三批中心村】,牛栏村光伏变压器【光伏】,十八盘3号变压器,十八盘4号变压器,斜山1号,斜山2号,斜山3号,斜山4号,斜山5号,斜山村光伏变压器【光伏】,黄土岭1#【三批中心村】,黄土岭2#【三批中心村】,黄土岭光伏1号变压器,黄土岭光伏2号变压器,金家井线511斜山村","powerOffReason":"【停电原因】由于导线架设并接引导致３５ＫＶ城北变电站１０ＫＶ金家井线５１１线路黄土岭分支１２４号杆隔离开关以下线路停电【变更送电】无【发布渠道】涞源电视台（２０１９年０７月２７日至２０１９年０８月０５日）屏幕上方滚动","powerOffId":"2019072713000164"},{"poweroffId":2019072713000155,"sgpoweroffId":null,"subsName":"","lineName":"10KV城区553","pubTranName":"下车亭西台,","scope":"【影响街道/乡镇】东文山乡 【高危重要客户】无 【影响客户】下车亭村","startTime":"2019-07-27 09:46:10","stopDate":"2019-07-27 13:00:00","orgNo":"1340614","typeCode":"电网故障停限电","poweroffArea":"【单台区停电】停下车亭西台","poweroffReason":"【停电原因】由于出线电缆烧毁导致２２０ＫＶ涞阳变电站１０ＫＶ城区５５３线路下车亭西台公变台区停电 【变更送电】无 【发布渠道】通过９５５９８发布","powerTime":"2019-07-27 12:11:52","powerComm":"已送电","subsNo":"","lineNo":"","tgNo":"","tgName":null,"infoStatus":"1","orgName":"国网涞水县供电公司","typeName":null,"infoStatusName":null,"dateDay":null,"orgNos":null,"nowTime":null,"countyName":null,"streetName":null,"villageName":null,"roadName":null,"communityName":null,"tranName":null,"sdLineName":null,"cityCode":"1340614","cityName":"国网涞水县供电公司","provinceCode":null,"stopTime":"2019-07-27 13:00:00","powerType":"全部","powerOffArea":"【单台区停电】停下车亭西台","powerOffReason":"【停电原因】由于出线电缆烧毁导致２２０ＫＶ涞阳变电站１０ＫＶ城区５５３线路下车亭西台公变台区停电 【变更送电】无 【发布渠道】通过９５５９８发布","powerOffId":"2019072713000155"},{"poweroffId":2019072713000151,"sgpoweroffId":null,"subsName":"","lineName":"10kV520韩家洼线","pubTranName":"孟良桥公用农业4台区【纯农排变】,韩家洼公用照明2台区,韩家洼公用照明4台区,蔡庄子公用农业2台区【纯农排变】,八角朗公用农业三台区【纯农排变】,南会同公用照明一台区,崔沿士公用农业3台区【纯农排变】,沟里公用农业5台区【纯农排变】,沟里公用农业8台区【纯农排变】,崔沿士公用农业4台区【纯农排变】,韩家洼公用农业6台区【纯农排变】,八角朗公用农业一台区【纯农排变】,定州市恒达健身器材有限公司2,蔡庄子公用照明5台区,孟良桥公用照明3台区,力涛体育用品厂,沟里公用农业4台区【纯农排变】,孟良桥公用照明二台区,韩家洼公用照明3台区,南会同公用照明二台区,八角朗公用农业二台区【纯农排变】,八角郎公用照明3台区,沟里公用农业11台区【纯农排变】,定州市崔文中塑料机械加工厂,崔沿士村北公用农业1台区【纯农排变】,韩家洼公用照明5台区,孟良桥公用农业2台区【纯农排变】,蔡庄子公用农业6台区【纯农排变】,沟里公用农业9台区【纯农排变】,河北汇众变压器,定州市孟良桥张建宗面粉厂,河北经天伟业房地产开发有限公司 景秀江山二期居民西北变压器3,沟里公用农业6台区【纯农排变】,孟良桥公用照明4台区,沟里公用照明7台区,沟里公用农业10台区【纯农排变】,定州市宏源小米厂,0387422512-定州市万通汽车配件有限公司-专变-45267280-定州市北方汽车零部件有限公司,张坤杰,八角郎公用照明4台区,沟里公用照明3台区,安会同公用农业4台区【纯农排变】,沟里村公用照明2台区,定州市灌渠沟里水闸面粉厂,沟里公用照明6台区,韩家洼公用农业3台区1820【纯农排变】,杨庄子照明4台区2队（1）,韩家洼公用照明1台区,韩家洼公用农业1台区【纯农排变】,定州市住房和城乡建设局变压器,八角郎公用照明2台区,小立电镀厂,定州市秋声铁厂,定州市晨光机械厂,河北经天伟业房地产开发有限公司 景秀江山二期居民西北变压器2,河北经天伟业房地产开发有限公司 景秀江山二期物业西北变压器,河北经天伟业房地产开发有限公司 景秀江山二期物业东北变压器,八角郎公用照明一台区,定州市明杰健身器材厂,河北网通定州分公司韩家洼营业厅,孟良桥公用农业3台区【纯农排变】,张二力,定州市恒达健身器材有限责任公司,沟里（农业）,河北经天伟业房地产开发有限公司 景秀江山二期居民东北变压器2,0387422714-定州市利民塑料厂-专变-45267158-定州市利民塑料厂,客户投资_南会同公用照明3台区,安会同公用农业二台区【纯农排变】,定州市沟里面粉厂,定州市环宇体育用品有限公司变压器,韩家洼公用农业8台区【纯农排变】,河北经天伟业房地产开发有限公司 景秀江山二期居民东北变压器1,定州市灌渠沟里水闸面粉厂变压器,河北经天伟业房地产开发有限公司 景秀江山二期居民西北变压器4,沟里村公用照明1台区,定州市华诚体育用品有限公司变压器,孟良桥公用农业一台区【纯农排变】,定州市明月店镇天和园社区变压器,定州市西城区韩家洼铁厂2,沟里公用农业12台区【纯农排变】,沟里公用照明8台区,定州市德龙环境工程有限公司变压器,孟良桥公用照明一台区(2),0387422150-定州市万通汽车部件有限公司-专变-45","scope":"【影响街道/乡镇】西城区、明月店镇【高危重要客户】无【影响客户】杨庄子、南会同、韩家洼、孟良桥、安会同、蔡庄子、八角郎、沟里、崔沿士、景秀江山","startTime":"2019-07-27 09:40:31","stopDate":"2019-07-27 16:30:00","orgNo":"1340610","typeCode":"电网故障停限电","poweroffArea":"【全线路停电】停客户投资_南会同公用照明3台区,河北网通定州分公司韩家洼营业厅,孟良桥公用农业3台区【纯农排变】,张二力,定州市恒达健身器材有限责任公司,沟里（农业）,河北经天伟业房地产开发有限公司 景秀江山二期居民东北变压器2,孟良桥公用照明二台区,韩家洼公用照明3台区,南会同公用照明二台区,河北经天伟业房地产开发有限公司 景秀江山二期物业西北变压器,河北经天伟业房地产开发有限公司 景秀江山二期物业东北变压器,八角郎公用照明一台区,定州市明杰健身器材厂,0387422714-定州市利民塑料厂-专变-45267158-定州市利民塑料厂,定州市中兴胶粉厂,安会同公用农业二台区【纯农排变】,定州市沟里面粉厂,定州市环宇体育用品有限公司变压器,韩家洼公用农业8台区【纯农排变】,河北经天伟业房地产开发有限公司 景秀江山二期居民东北变压器1,定州市灌渠沟里水闸面粉厂变压器,河北经天伟业房地产开发有限公司 景秀江山二期居民西北变压器4,孟良桥公用照明一台区(2),0387422150-定州市万通汽车部件有限公司-专变-45266928-定州市北方汽车部件有限公司,韩家洼公用照明6台区,定州市明月店镇天和园社区村民委员会居民1变压器,双语小学变压器,河北经天伟业房地产开发有限公司中变压器,蔡庄子公用农业3台区【纯农排变】,沟里公用农业7台区【纯农排变】,沟里公用农业3台区【纯农排变】,南会同公用农业一台区【纯农排变】,0387422512-定州市万通汽车配件有限公司-专变-48087529-定州市北方汽车零部件有限公司,定州市明月店镇天和园社区村民委员会居民2变压器2,河北经天伟业房地产开发有限公司 景秀江山二期供暖变压器,定州市惠仁医院变压器,定州市南会同副业组,河北经天伟业房地产开发有限公司北变压器,沟里村北,韩家洼公用照明7台区,沟里公用照明4台区,河北经天伟业房地产开发有限公司变压器,安会同公用农业3台区【纯农排变】,河北经天伟业房地产开发有限公司 景秀江山二期居民西北变压器1,河北佳航有限公司变压器,沟里公用照明5台区,定州市明月店镇天和园社区村民委员会居民2变压器1,定州市明月店镇天和园社区村民委员会,定州市宏源小米厂,定州市陈庄子水泥制品厂变压器,定州市红十字会惠仁医院,南会同公用照明4台区,韩家洼公用照明8台区,沟里村公用照明1台区,定州市华诚体育用品有限公司变压器,孟良桥公用农业一台区【纯农排变】,定州市明月店镇天和园社区变压器,定州市西城区韩家洼铁厂2,沟里公用农业12台区【纯农排变】,沟里公用照明8台区,定州市德龙环境工程有限公司变压器,沟里公用农业4台区【纯农排变】,孟良桥公用农业4台区【纯农排变】,韩家洼公用照明2台区,韩家洼公用照明4台区,蔡庄子公用农业2台区【纯农排变】,八角朗公用农业三台区【纯农排变】,南会同公用照明一台区,崔沿士公用农业3台区【纯农排变】,沟里公用农业5台区【纯农排变】,沟里公用农业8台区【纯农排变】,崔沿士公用农业4台区【纯农排变】,八角郎公用照明3台区,韩家洼公用农业6台区【纯农排变】,八角朗公用农业一台区【纯农排变】,定州市恒达健身器材有限公司2,蔡庄子公用照明5台区,孟良桥公用照明3台区,力涛体育用品厂,八角朗公用农业二台区【纯农排变】,沟里公用农业11台区【纯农排变】,定州市崔文中塑料机械加工厂,崔沿士村北公用农业1台区【纯农排变】,韩家洼公用照明5台区,孟良桥公用农业2台区【纯农排变】,蔡庄子公用农业6台区【纯农排变】,沟里公用农业9台区【纯农排变】,","poweroffReason":"【停电原因】由于主干１９号杆至１０７国道分支０１号杆电缆烧毁导致１１０ＫＶ定县变电站１０ＫＶ５２０韩家洼线路全线停电 【变更送电】因抢修进度加快原因，送电时间由１８：００变更为１６：３０ 【发布渠道】９５５９８　","powerTime":"2019-07-27 15:59:47","powerComm":"已送电","subsNo":"","lineNo":"","tgNo":"","tgName":null,"infoStatus":"1","orgName":"国网定州市供电公司","typeName":null,"infoStatusName":null,"dateDay":null,"orgNos":null,"nowTime":null,"countyName":null,"streetName":null,"villageName":null,"roadName":null,"communityName":null,"tranName":null,"sdLineName":null,"cityCode":"1340610","cityName":"国网定州市供电公司","provinceCode":null,"stopTime":"2019-07-27 16:30:00","powerType":"全部","powerOffArea":"【全线路停电】停客户投资_南会同公用照明3台区,河北网通定州分公司韩家洼营业厅,孟良桥公用农业3台区【纯农排变】,张二力,定州市恒达健身器材有限责任公司,沟里（农业）,河北经天伟业房地产开发有限公司 景秀江山二期居民东北变压器2,孟良桥公用照明二台区,韩家洼公用照明3台区,南会同公用照明二台区,河北经天伟业房地产开发有限公司 景秀江山二期物业西北变压器,河北经天伟业房地产开发有限公司 景秀江山二期物业东北变压器,八角郎公用照明一台区,定州市明杰健身器材厂,0387422714-定州市利民塑料厂-专变-45267158-定州市利民塑料厂,定州市中兴胶粉厂,安会同公用农业二台区【纯农排变】,定州市沟里面粉厂,定州市环宇体育用品有限公司变压器,韩家洼公用农业8台区【纯农排变】,河北经天伟业房地产开发有限公司 景秀江山二期居民东北变压器1,定州市灌渠沟里水闸面粉厂变压器,河北经天伟业房地产开发有限公司 景秀江山二期居民西北变压器4,孟良桥公用照明一台区(2),0387422150-定州市万通汽车部件有限公司-专变-45266928-定州市北方汽车部件有限公司,韩家洼公用照明6台区,定州市明月店镇天和园社区村民委员会居民1变压器,双语小学变压器,河北经天伟业房地产开发有限公司中变压器,蔡庄子公用农业3台区【纯农排变】,沟里公用农业7台区【纯农排变】,沟里公用农业3台区【纯农排变】,南会同公用农业一台区【纯农排变】,0387422512-定州市万通汽车配件有限公司-专变-48087529-定州市北方汽车零部件有限公司,定州市明月店镇天和园社区村民委员会居民2变压器2,河北经天伟业房地产开发有限公司 景秀江山二期供暖变压器,定州市惠仁医院变压器,定州市南会同副业组,河北经天伟业房地产开发有限公司北变压器,沟里村北,韩家洼公用照明7台区,沟里公用照明4台区,河北经天伟业房地产开发有限公司变压器,安会同公用农业3台区【纯农排变】,河北经天伟业房地产开发有限公司 景秀江山二期居民西北变压器1,河北佳航有限公司变压器,沟里公用照明5台区,定州市明月店镇天和园社区村民委员会居民2变压器1,定州市明月店镇天和园社区村民委员会,定州市宏源小米厂,定州市陈庄子水泥制品厂变压器,定州市红十字会惠仁医院,南会同公用照明4台区,韩家洼公用照明8台区,沟里村公用照明1台区,定州市华诚体育用品有限公司变压器,孟良桥公用农业一台区【纯农排变】,定州市明月店镇天和园社区变压器,定州市西城区韩家洼铁厂2,沟里公用农业12台区【纯农排变】,沟里公用照明8台区,定州市德龙环境工程有限公司变压器,沟里公用农业4台区【纯农排变】,孟良桥公用农业4台区【纯农排变】,韩家洼公用照明2台区,韩家洼公用照明4台区,蔡庄子公用农业2台区【纯农排变】,八角朗公用农业三台区【纯农排变】,南会同公用照明一台区,崔沿士公用农业3台区【纯农排变】,沟里公用农业5台区【纯农排变】,沟里公用农业8台区【纯农排变】,崔沿士公用农业4台区【纯农排变】,八角郎公用照明3台区,韩家洼公用农业6台区【纯农排变】,八角朗公用农业一台区【纯农排变】,定州市恒达健身器材有限公司2,蔡庄子公用照明5台区,孟良桥公用照明3台区,力涛体育用品厂,八角朗公用农业二台区【纯农排变】,沟里公用农业11台区【纯农排变】,定州市崔文中塑料机械加工厂,崔沿士村北公用农业1台区【纯农排变】,韩家洼公用照明5台区,孟良桥公用农业2台区【纯农排变】,蔡庄子公用农业6台区【纯农排变】,沟里公用农业9台区【纯农排变】,","powerOffReason":"【停电原因】由于主干１９号杆至１０７国道分支０１号杆电缆烧毁导致１１０ＫＶ定县变电站１０ＫＶ５２０韩家洼线路全线停电 【变更送电】因抢修进度加快原因，送电时间由１８：００变更为１６：３０ 【发布渠道】９５５９８　","powerOffId":"2019072713000151"},{"poweroffId":2019072713000140,"sgpoweroffId":null,"subsName":"","lineName":"酒厂线524电力电缆","pubTranName":"盛源54号（网通家属院）,","scope":"【影响街道/乡镇】安肃镇 【高危重要客户】无 【影响客户】移动公司附近","startTime":"2019-07-27 09:24:40","stopDate":"2019-07-27 16:00:00","orgNo":"1340605","typeCode":"电网故障停限电","poweroffArea":"【单台区停电】停盛源54号（网通家属院）","poweroffReason":"【停电原因】由于变压器低压保险片烧毁导致１１０ＫＶ徐水变电站酒厂线５２４线路盛源５４号公变台区停电 【变更送电】因抢修进度加快原因，送电时间由２０:００变更为１６:００ 【发布渠道】通过９５５９８发布","powerTime":"2019-07-27 15:32:36","powerComm":"已送电","subsNo":"","lineNo":"","tgNo":"","tgName":null,"infoStatus":"1","orgName":"国网徐水县供电公司","typeName":null,"infoStatusName":null,"dateDay":null,"orgNos":null,"nowTime":null,"countyName":null,"streetName":null,"villageName":null,"roadName":null,"communityName":null,"tranName":null,"sdLineName":null,"cityCode":"1340605","cityName":"国网徐水县供电公司","provinceCode":null,"stopTime":"2019-07-27 16:00:00","powerType":"全部","powerOffArea":"【单台区停电】停盛源54号（网通家属院）","powerOffReason":"【停电原因】由于变压器低压保险片烧毁导致１１０ＫＶ徐水变电站酒厂线５２４线路盛源５４号公变台区停电 【变更送电】因抢修进度加快原因，送电时间由２０:００变更为１６:００ 【发布渠道】通过９５５９８发布","powerOffId":"2019072713000140"},{"poweroffId":2019072713000137,"sgpoweroffId":null,"subsName":"","lineName":"10kV宋高和514","pubTranName":"宗高和143变压器,宗高和4264变压器,宗高和4999台区,宗高和7974变压器,","scope":"【影响街道/乡镇】都亭乡【高危重要客户】无【影响客户】宗高和","startTime":"2019-08-07 06:30:00","stopDate":"2019-08-07 18:00:00","orgNo":"1340622","typeCode":"计划停电","poweroffArea":"【分支停电】停宗高和143变压器,宗高和4264变压器,宗高和4999台区,宗高和7974变压器","poweroffReason":"【停电原因】由于更换变压器导致１１０ＫＶ唐县变电站１０ＫＶ宋高和５１４线路１０２号杆以下线路停电【变更送电】无【发布渠道】保定市唐县电视台（０７月２７日至０８月０６日的２０：００时至２０：３０时之间）屏幕上方滚动字幕","powerTime":"2019-08-07 17:55:43","powerComm":"已送电","subsNo":"","lineNo":"","tgNo":"","tgName":null,"infoStatus":"1","orgName":"国网唐县供电公司","typeName":null,"infoStatusName":null,"dateDay":null,"orgNos":null,"nowTime":null,"countyName":null,"streetName":null,"villageName":null,"roadName":null,"communityName":null,"tranName":null,"sdLineName":null,"cityCode":"1340622","cityName":"国网唐县供电公司","provinceCode":null,"stopTime":"2019-08-07 18:00:00","powerType":"全部","powerOffArea":"【分支停电】停宗高和143变压器,宗高和4264变压器,宗高和4999台区,宗高和7974变压器","powerOffReason":"【停电原因】由于更换变压器导致１１０ＫＶ唐县变电站１０ＫＶ宋高和５１４线路１０２号杆以下线路停电【变更送电】无【发布渠道】保定市唐县电视台（０７月２７日至０８月０６日的２０：００时至２０：３０时之间）屏幕上方滚动字幕","powerOffId":"2019072713000137"},{"poweroffId":2019072713000133,"sgpoweroffId":null,"subsName":"","lineName":"10kV514王庄农业线","pubTranName":"王庄冷库,贾庄冰袋,王庄综合5台区【冬季采暖设施】,王庄东一,南关鸡厂,蠡县梁庄扎花厂变压器,贾庄综合4台区[纯农排变】,贾庄综合3台区514,小刚农用,保定中瑞胶带制造有限公司,蠡县万隆煤炭销售有限公司变压器,王庄综合2台区,王庄综合4台区,东南街农排3台区【纯农排变】,郭庄农排1台区【纯农排变】,蠡县王庄边立织布厂变压器,龙辉,梁庄综合3台区514,王庄村里冰袋,环形带,贾庄农排4台区【纯农排变】,南忠卫农排15台区【纯农排变】,蠡县郭庄冷雪冷食厂变压器,郭庄农排3台区【纯农排变】,王庄面粉厂,锅炉房,保定中瑞胶带制造有限公司变压器,河北沈三开电器制造有限公司变压器,贾庄农排1台区514【纯农排变】,大华纺织厂变压器,河北长瑞商品混凝土有限公司变压器,德茂装卸站,王庄浇地,郭庄农排2台区【纯农排变】,王庄路灯,0667401862-蠡县伏羲砂石料厂-专变-208425925-蠡县伏羲砂石料厂,0660806400-河北英达物流有限公司-专变-195782521-河北英达物流有限公司,贾庄农排3台区【纯农排变】,道桥养护,保定博新橡胶机带有限公司变压器,王庄农排5台区【纯农排变】,梁庄农排1台区514【纯农排变】,贾庄农排2台区514【纯农排变】,郭庄综合2台区,梁庄综合2台区514,贾庄综合1台区514,王庄综合1台区,郭庄综合1台区,王庄开花厂变压器,蠡县远鸿纺织有限公司,蠡县正鑫煤炭购销有限公司,王庄农用,贾庄浇地,南忠卫农排10台区【纯农排变】,南忠卫农排16台区【纯农排变】,保定强胜水利工程有公司变压器,王庄农排3台区【纯农排变】新乡,王庄农排1台区【纯农排变】新乡,河北蠡县新城毛纺有限公司变压器,蠡县橡胶厂变压器,王庄板厂,郭庄综合3台区,东南街农排4台区【纯农排变】,0469338209-王庄东二台-专变-46778813-王庄东二,王庄综合3台区,贾庄综合2台区514,八里庄塑料厂,贾庄庆祥,敬老院,梁庄综合1台区514,蠡县宇大公路工程材料供应处,河北中北橡胶机带有限公司变压器,正鑫煤厂,王庄农排4台区【纯农排变】新乡,0667908594-河北太平洋危货储运销售有限公司-专变-208448641-河北太平洋危货储运销售有限公司变压器,蠡县橡胶厂,王庄农排2台区【纯农排变】新乡,盛隆纺纱厂变压器,","scope":"【影响街道/乡镇】蠡吾镇【高危重要客户】无【影响客户】贾庄村、王庄村、梁庄村、郭庄村","startTime":"2019-07-27 09:03:29","stopDate":"2019-07-27 10:00:00","orgNo":"1340616","typeCode":"电网故障停限电","poweroffArea":"【全线路停电】停梁庄综合2台区514,贾庄综合4台区[纯农排变】,郭庄综合2台区,南忠卫农排10台区【纯农排变】,河北蠡县新城毛纺有限公司变压器,正鑫煤厂,蠡县梁庄扎花厂变压器,0667401862-蠡县伏羲砂石料厂-专变-208425925-蠡县伏羲砂石料厂,王庄村里冰袋,王庄农排2台区【纯农排变】新乡,小刚农用,王庄冷库,王庄面粉厂,锅炉房,贾庄农排1台区514【纯农排变】,贾庄综合2台区514,梁庄农排1台区514【纯农排变】,蠡县万隆煤炭销售有限公司变压器,河北中北橡胶机带有限公司变压器,王庄综合2台区,贾庄农排2台区514【纯农排变】,南忠卫农排16台区【纯农排变】,环形带,0660806400-河北英达物流有限公司-专变-195782521-河北英达物流有限公司,蠡县远鸿纺织有限公司,河北沈三开电器制造有限公司变压器,南忠卫农排15台区【纯农排变】,王庄东一,蠡县橡胶厂变压器,王庄浇地,贾庄农排3台区【纯农排变】,0469338209-王庄东二台-专变-46778813-王庄东二,大华纺织厂变压器,蠡县郭庄冷雪冷食厂变压器,王庄板厂,郭庄综合1台区,蠡县王庄边立织布厂变压器,保定中瑞胶带制造有限公司变压器,贾庄综合1台区514,梁庄综合1台区514,德茂装卸站,八里庄塑料厂,王庄农排4台区【纯农排变】新乡,王庄农排1台区【纯农排变】新乡,王庄综合5台区【冬季采暖设施】,王庄开花厂变压器,梁庄综合3台区514,保定中瑞胶带制造有限公司,王庄农排5台区【纯农排变】,郭庄综合3台区,0667908594-河北太平洋危货储运销售有限公司-专变-208448641-河北太平洋危货储运销售有限公司变压器,郭庄农排1台区【纯农排变】,王庄路灯,王庄农排3台区【纯农排变】新乡,王庄综合4台区,贾庄冰袋,王庄农用,敬老院,贾庄综合3台区514,东南街农排3台区【纯农排变】,贾庄庆祥,蠡县正鑫煤炭购销有限公司,南关鸡厂,保定博新橡胶机带有限公司变压器,王庄综合3台区,王庄综合1台区,河北长瑞商品混凝土有限公司变压器,东南街农排4台区【纯农排变】,龙辉,郭庄农排3台区【纯农排变】,蠡县宇大公路工程材料供应处,贾庄农排4台区【纯农排变】,贾庄浇地,蠡县橡胶厂,道桥养护,盛隆纺纱厂变压器,郭庄农排2台区【纯农排变】,保定强胜水利工程有公司变压器","poweroffReason":"【停电原因】由于站外开关掉闸导致３５ＫＶ王庄变电站１０ＫＶ王庄农业５１４线路全线停电【变更送电】因抢修进度加快原因，送电时间由１８：００变更为１０：００【发布渠道】通过９５５９８发布","powerTime":"2019-07-27 09:52:01","powerComm":"已送电","subsNo":"","lineNo":"","tgNo":"","tgName":null,"infoStatus":"1","orgName":"国网蠡县供电公司","typeName":null,"infoStatusName":null,"dateDay":null,"orgNos":null,"nowTime":null,"countyName":null,"streetName":null,"villageName":null,"roadName":null,"communityName":null,"tranName":null,"sdLineName":null,"cityCode":"1340616","cityName":"国网蠡县供电公司","provinceCode":null,"stopTime":"2019-07-27 10:00:00","powerType":"全部","powerOffArea":"【全线路停电】停梁庄综合2台区514,贾庄综合4台区[纯农排变】,郭庄综合2台区,南忠卫农排10台区【纯农排变】,河北蠡县新城毛纺有限公司变压器,正鑫煤厂,蠡县梁庄扎花厂变压器,0667401862-蠡县伏羲砂石料厂-专变-208425925-蠡县伏羲砂石料厂,王庄村里冰袋,王庄农排2台区【纯农排变】新乡,小刚农用,王庄冷库,王庄面粉厂,锅炉房,贾庄农排1台区514【纯农排变】,贾庄综合2台区514,梁庄农排1台区514【纯农排变】,蠡县万隆煤炭销售有限公司变压器,河北中北橡胶机带有限公司变压器,王庄综合2台区,贾庄农排2台区514【纯农排变】,南忠卫农排16台区【纯农排变】,环形带,0660806400-河北英达物流有限公司-专变-195782521-河北英达物流有限公司,蠡县远鸿纺织有限公司,河北沈三开电器制造有限公司变压器,南忠卫农排15台区【纯农排变】,王庄东一,蠡县橡胶厂变压器,王庄浇地,贾庄农排3台区【纯农排变】,0469338209-王庄东二台-专变-46778813-王庄东二,大华纺织厂变压器,蠡县郭庄冷雪冷食厂变压器,王庄板厂,郭庄综合1台区,蠡县王庄边立织布厂变压器,保定中瑞胶带制造有限公司变压器,贾庄综合1台区514,梁庄综合1台区514,德茂装卸站,八里庄塑料厂,王庄农排4台区【纯农排变】新乡,王庄农排1台区【纯农排变】新乡,王庄综合5台区【冬季采暖设施】,王庄开花厂变压器,梁庄综合3台区514,保定中瑞胶带制造有限公司,王庄农排5台区【纯农排变】,郭庄综合3台区,0667908594-河北太平洋危货储运销售有限公司-专变-208448641-河北太平洋危货储运销售有限公司变压器,郭庄农排1台区【纯农排变】,王庄路灯,王庄农排3台区【纯农排变】新乡,王庄综合4台区,贾庄冰袋,王庄农用,敬老院,贾庄综合3台区514,东南街农排3台区【纯农排变】,贾庄庆祥,蠡县正鑫煤炭购销有限公司,南关鸡厂,保定博新橡胶机带有限公司变压器,王庄综合3台区,王庄综合1台区,河北长瑞商品混凝土有限公司变压器,东南街农排4台区【纯农排变】,龙辉,郭庄农排3台区【纯农排变】,蠡县宇大公路工程材料供应处,贾庄农排4台区【纯农排变】,贾庄浇地,蠡县橡胶厂,道桥养护,盛隆纺纱厂变压器,郭庄农排2台区【纯农排变】,保定强胜水利工程有公司变压器","powerOffReason":"【停电原因】由于站外开关掉闸导致３５ＫＶ王庄变电站１０ＫＶ王庄农业５１４线路全线停电【变更送电】因抢修进度加快原因，送电时间由１８：００变更为１０：００【发布渠道】通过９５５９８发布","powerOffId":"2019072713000133"},{"poweroffId":2019072713000127,"sgpoweroffId":null,"subsName":"","lineName":"市场线521","pubTranName":"0683951255-仁和庄2号变台-专变-223528883-变压器,张鹏变压器,0683944530-仁和庄1号变台-专变-223525057-变压器,老五金公变（长义小区）,0683959129-仁和庄13号变台-专变-223535170-变压器,0387443184-长义小区-专变-45278740-魏长义,0387443315-仁和辅料城西-专变-45278591-仁和辅料城西,0387441449-仁和辅料城东-专变-45278592-仁和辅料城东,","scope":"【影响街道/乡镇】白沟镇 【高危重要客户】仁和辅料城西、仁和辅料城东、五金皮革城 【影响客户】老五金（长义小区）、张鹏（俊达皮具）、仁合庄村（部分）","startTime":"2019-08-05 06:00:00","stopDate":"2019-08-05 09:30:00","orgNo":"1340612","typeCode":"计划停电","poweroffArea":"【分支停电】停0683951255-仁和庄2号变台-专变-223528883-变压器,张鹏变压器,0683944530-仁和庄1号变台-专变-223525057-变压器,老五金公变（长义小区）,0683959129-仁和庄13号变台-专变-223535170-变压器,0387443184-长义小区-专变-45278740-魏长义,0387443315-仁和辅料城西-专变-45278591-仁和辅料城西,0387441449-仁和辅料城东-专变-45278592-仁和辅料城东","poweroffReason":"【停电原因】由于换线导致１１０ＫＶ白沟变电站１０ＫＶ市场５２１线路０２号断路器以下停电 【变更送电】因抢修进度加快原因，送电时间由１６：００变更为９：３０ 【发布渠道】高碑店市高碑店电视台（７月２８日０８时至８月０５日１８时之间）屏幕上方滚动","powerTime":"2019-08-05 09:11:01","powerComm":"已送电","subsNo":"","lineNo":"","tgNo":"","tgName":null,"infoStatus":"1","orgName":"国网高碑店市供电公司","typeName":null,"infoStatusName":null,"dateDay":null,"orgNos":null,"nowTime":null,"countyName":null,"streetName":null,"villageName":null,"roadName":null,"communityName":null,"tranName":null,"sdLineName":null,"cityCode":"1340612","cityName":"国网高碑店市供电公司","provinceCode":null,"stopTime":"2019-08-05 09:30:00","powerType":"全部","powerOffArea":"【分支停电】停0683951255-仁和庄2号变台-专变-223528883-变压器,张鹏变压器,0683944530-仁和庄1号变台-专变-223525057-变压器,老五金公变（长义小区）,0683959129-仁和庄13号变台-专变-223535170-变压器,0387443184-长义小区-专变-45278740-魏长义,0387443315-仁和辅料城西-专变-45278591-仁和辅料城西,0387441449-仁和辅料城东-专变-45278592-仁和辅料城东","powerOffReason":"【停电原因】由于换线导致１１０ＫＶ白沟变电站１０ＫＶ市场５２１线路０２号断路器以下停电 【变更送电】因抢修进度加快原因，送电时间由１６：００变更为９：３０ 【发布渠道】高碑店市高碑店电视台（７月２８日０８时至８月０５日１８时之间）屏幕上方滚动","powerOffId":"2019072713000127"},{"poweroffId":2019072713000121,"sgpoweroffId":null,"subsName":"","lineName":"河北线536","pubTranName":"野沃村4#【纯农排变】,南界安村2#,泰和土地整理服务有限公司-夏家庄2-50KVA,北界安李旭东面粉厂,南界安村6#【纯农排变】,北界安村7#,小柳泉村2#,南柳泉村5#,北界安8#变压器,东固城村1#,宋家庄村8#,北淇村4#【纯农排变】,北淇村2#,南柳泉村6#,易县泰和土地整理服务有限公司-野沃50KVA,南柳泉村1#,西固城养鸡场(王术申),易县安林商贸有限公司变压器,野沃村3#【纯农排变】,洪城村3#,洪城村7#,北淇村5#【纯农排变】,义和庄村5#变压器,邢家庄村2#,洪城村高文杰,南界安村3#,郎明亮,东固城村6#,武庄村7号,南界安村1#,北界安村3#,夏家庄村2#【纯农排变】,北淇村6#【纯农排变】,郭海堂变压器,武庄村3#,武庄太行钙粉厂(刘洪生),洪城村4#|【纯农排变】,武庄振兴石材厂,洪城村1#,夏家庄村4#,夏家庄村1#,武庄村5#,北淇村三有采石场315KVA,0587921008-易县玉全建材有限公司-专变-125269949-易县玉全建材有限公司变压器,南界安村7#变压器,邢家庄村3#【纯农排变】,野沃村2#,武庄村6#,北淇村7#变压器,易县天旺新型建材有限公司,南柳泉村3#【纯农排变】,南柳泉村郎平军变压器,西固城村4#,南柳泉砖厂(朗明亮),义合庄村4#【纯农排变】,邢家庄村邢占武变压器,河北易县北淇村三有采石厂变压器,东固城村3#,北界安村6#,小柳泉村1#,北界安村5#【纯农排变】,东固城村5#【纯农排变】,北淇村8#变压器,义合庄村1#,武庄村2#【纯农排变】,南安马俊岭石板厂,义合庄村3#【纯农排变】,野沃村1#,郭志田养猪场,邢家庄村1#,武庄村1#,南柳泉村4#【纯农排变】,夏家庄村5#【纯农排变】,小柳泉村3#,北淇村2#村东,野沃村5#,洪城村5#【纯农排变】,夏家庄村6#,洪城村8#【纯农排变】,易县天和泰建材有限公司变压器,南柳泉牛连和石板厂,南界安4#,南柳泉村7号变压器【纯农排变】,中国移动通信集团河北有限公司易县分公司变压器,南界安5#,北淇村3#,红岩石粉加工厂(韩艳卓),洪城村2#,洪城村9#变压器,北界安村4#【纯农排变】,北淇村1#,东固城村4【纯农排变】,西固城村3#,北界安村2#,武庄村4#【纯农排变】,东固城村2#,西固城面粉厂(王金星),泰和土地整理服务有限公司-夏家庄50KVA,西固城村2#,南柳泉村2#,西固城村1#,北界安村1#,夏家庄村7#,夏家庄村3#变压器【纯农排变】,吴洪宾紫叶岩加工厂(武庄),义合庄村2#|,","scope":"【影响街道/乡镇】塘湖镇【高危重要客户】无【影响客户】东固城村、西固城村、小柳泉村、武庄村、南界安村、北淇村、北界安村、野沃村、洪城村、南柳泉村、邢家庄村、夏家庄村、义合庄村、南中庄村","startTime":"2019-07-27 08:29:16","stopDate":"2019-07-27 10:30:00","orgNo":"1340625","typeCode":"电网故障停限电","poweroffArea":"【全线路停电】停义合庄村2#|,洪城村3#,野沃村2#,易县天和泰建材有限公司变压器,北界安村1#,南界安村2#,北界安村6#,邢家庄村2#,洪城村4#|【纯农排变】,东固城村4【纯农排变】,邢家庄村邢占武变压器,武庄村7号,南界安5#,武庄村6#,泰和土地整理服务有限公司-夏家庄2-50KVA,泰和土地整理服务有限公司-夏家庄50KVA,南界安村7#变压器,野沃村5#,东固城村5#【纯农排变】,夏家庄村6#,洪城村9#变压器,北淇村3#,吴洪宾紫叶岩加工厂(武庄),武庄太行钙粉厂(刘洪生),北淇村2#村东,东固城村2#,武庄村4#【纯农排变】,洪城村5#【纯农排变】,郭志田养猪场,红岩石粉加工厂(韩艳卓),南安马俊岭石板厂,郎明亮,北淇村5#【纯农排变】,义合庄村4#【纯农排变】,洪城村2#,西固城面粉厂(王金星),易县泰和土地整理服务有限公司-野沃50KVA,武庄振兴石材厂,洪城村高文杰,东固城村3#,西固城养鸡场(王术申),北界安李旭东面粉厂,南柳泉村3#【纯农排变】,夏家庄村7#,武庄村3#,野沃村4#【纯农排变】,邢家庄村1#,北界安村5#【纯农排变】,小柳泉村2#,南柳泉砖厂(朗明亮),北界安村7#,夏家庄村2#【纯农排变】,洪城村1#,北淇村2#,夏家庄村4#,北淇村1#,夏家庄村1#,邢家庄村3#【纯农排变】,易县天旺新型建材有限公司,南柳泉牛连和石板厂,野沃村1#,夏家庄村3#变压器【纯农排变】,义合庄村3#【纯农排变】,小柳泉村1#,东固城村6#,北淇村4#【纯农排变】,北界安村2#,武庄村1#,北淇村7#变压器,南界安村3#,0587921008-易县玉全建材有限公司-专变-125269949-易县玉全建材有限公司变压器,北界安村4#【纯农排变】,南柳泉村4#【纯农排变】,武庄村5#,易县安林商贸有限公司变压器,南柳泉村6#,河北易县北淇村三有采石厂变压器,南柳泉村5#,野沃村3#【纯农排变】,西固城村4#,夏家庄村5#【纯农排变】,南界安村1#,南柳泉村2#,小柳泉村3#,郭海堂变压器,中国移动通信集团河北有限公司易县分公司变压器,东固城村1#,南柳泉村7号变压器【纯农排变】,南界安村6#【纯农排变】,西固城村1#,北淇村8#变压器,洪城村8#【纯农排变】,西固城村3#,宋家庄村8#,北淇村6#【纯农排变】,西固城村2#,洪城村7#,北界安8#变压器,武庄村2#【纯农排变】,南界安4#,义和庄村5#变压器,南柳泉村1#,北淇村三有采石场315KVA,义合庄村1#,南柳泉村郎平军变压器,北界安村3#","poweroffReason":"【停电原因】由于速断跳闸导致１１０ＫＶ塘湖变电站河北线５３６线路全线停电【变更送电】由于抢修进度加快原因，送电时间由１８：００变更为１０：３０【发布渠道】通过９５５９８发布","powerTime":"2019-07-27 10:03:08","powerComm":"已送电","subsNo":"","lineNo":"","tgNo":"","tgName":null,"infoStatus":"1","orgName":"国网易县供电公司","typeName":null,"infoStatusName":null,"dateDay":null,"orgNos":null,"nowTime":null,"countyName":null,"streetName":null,"villageName":null,"roadName":null,"communityName":null,"tranName":null,"sdLineName":null,"cityCode":"1340625","cityName":"国网易县供电公司","provinceCode":null,"stopTime":"2019-07-27 10:30:00","powerType":"全部","powerOffArea":"【全线路停电】停义合庄村2#|,洪城村3#,野沃村2#,易县天和泰建材有限公司变压器,北界安村1#,南界安村2#,北界安村6#,邢家庄村2#,洪城村4#|【纯农排变】,东固城村4【纯农排变】,邢家庄村邢占武变压器,武庄村7号,南界安5#,武庄村6#,泰和土地整理服务有限公司-夏家庄2-50KVA,泰和土地整理服务有限公司-夏家庄50KVA,南界安村7#变压器,野沃村5#,东固城村5#【纯农排变】,夏家庄村6#,洪城村9#变压器,北淇村3#,吴洪宾紫叶岩加工厂(武庄),武庄太行钙粉厂(刘洪生),北淇村2#村东,东固城村2#,武庄村4#【纯农排变】,洪城村5#【纯农排变】,郭志田养猪场,红岩石粉加工厂(韩艳卓),南安马俊岭石板厂,郎明亮,北淇村5#【纯农排变】,义合庄村4#【纯农排变】,洪城村2#,西固城面粉厂(王金星),易县泰和土地整理服务有限公司-野沃50KVA,武庄振兴石材厂,洪城村高文杰,东固城村3#,西固城养鸡场(王术申),北界安李旭东面粉厂,南柳泉村3#【纯农排变】,夏家庄村7#,武庄村3#,野沃村4#【纯农排变】,邢家庄村1#,北界安村5#【纯农排变】,小柳泉村2#,南柳泉砖厂(朗明亮),北界安村7#,夏家庄村2#【纯农排变】,洪城村1#,北淇村2#,夏家庄村4#,北淇村1#,夏家庄村1#,邢家庄村3#【纯农排变】,易县天旺新型建材有限公司,南柳泉牛连和石板厂,野沃村1#,夏家庄村3#变压器【纯农排变】,义合庄村3#【纯农排变】,小柳泉村1#,东固城村6#,北淇村4#【纯农排变】,北界安村2#,武庄村1#,北淇村7#变压器,南界安村3#,0587921008-易县玉全建材有限公司-专变-125269949-易县玉全建材有限公司变压器,北界安村4#【纯农排变】,南柳泉村4#【纯农排变】,武庄村5#,易县安林商贸有限公司变压器,南柳泉村6#,河北易县北淇村三有采石厂变压器,南柳泉村5#,野沃村3#【纯农排变】,西固城村4#,夏家庄村5#【纯农排变】,南界安村1#,南柳泉村2#,小柳泉村3#,郭海堂变压器,中国移动通信集团河北有限公司易县分公司变压器,东固城村1#,南柳泉村7号变压器【纯农排变】,南界安村6#【纯农排变】,西固城村1#,北淇村8#变压器,洪城村8#【纯农排变】,西固城村3#,宋家庄村8#,北淇村6#【纯农排变】,西固城村2#,洪城村7#,北界安8#变压器,武庄村2#【纯农排变】,南界安4#,义和庄村5#变压器,南柳泉村1#,北淇村三有采石场315KVA,义合庄村1#,南柳泉村郎平军变压器,北界安村3#","powerOffReason":"【停电原因】由于速断跳闸导致１１０ＫＶ塘湖变电站河北线５３６线路全线停电【变更送电】由于抢修进度加快原因，送电时间由１８：００变更为１０：３０【发布渠道】通过９５５９８发布","powerOffId":"2019072713000121"},{"poweroffId":2019072713000116,"sgpoweroffId":null,"subsName":"","lineName":"10kv513城东线","pubTranName":"10KV513城东线寺上39989分支6号杆寺上村西39989台区变压器,10KV513城东线主干139号杆寺上村北10060台区变压器,","scope":"【影响街道/乡镇】城东乡【高危重要客户】无【影响客户】寺上","startTime":"2019-07-27 08:19:01","stopDate":"2019-07-27 10:00:00","orgNo":"1340608","typeCode":"电网故障停限电","poweroffArea":"【分支停电】停10KV513城东线寺上39989分支6号杆寺上村西39989台区变压器,10KV513城东线主干139号杆寺上村北10060台区变压器","poweroffReason":"【停电原因】由于刀闸击穿导致３５ＫＶ城东变电站城东５１３线路１２１号杆刀闸以下线路停电【变更送电】无【发布渠道】通过９５５９８发布","powerTime":"2019-07-27 09:15:43","powerComm":"已送电","subsNo":"","lineNo":"","tgNo":"","tgName":null,"infoStatus":"1","orgName":"国网博野县供电公司","typeName":null,"infoStatusName":null,"dateDay":null,"orgNos":null,"nowTime":null,"countyName":null,"streetName":null,"villageName":null,"roadName":null,"communityName":null,"tranName":null,"sdLineName":null,"cityCode":"1340608","cityName":"国网博野县供电公司","provinceCode":null,"stopTime":"2019-07-27 10:00:00","powerType":"全部","powerOffArea":"【分支停电】停10KV513城东线寺上39989分支6号杆寺上村西39989台区变压器,10KV513城东线主干139号杆寺上村北10060台区变压器","powerOffReason":"【停电原因】由于刀闸击穿导致３５ＫＶ城东变电站城东５１３线路１２１号杆刀闸以下线路停电【变更送电】无【发布渠道】通过９５５９８发布","powerOffId":"2019072713000116"},{"poweroffId":2019072713000114,"sgpoweroffId":null,"subsName":"","lineName":"10KV东永阳515","pubTranName":"南庞村南变压器,","scope":"【影响街道/乡镇】永阳镇 【高危重要客户】无 【影响客户】南庞村","startTime":"2019-07-27 08:12:14","stopDate":"2019-07-27 10:30:00","orgNo":"1340614","typeCode":"电网故障停限电","poweroffArea":"【单台区停电】停南庞村南变压器","poweroffReason":"【停电原因】由于弓子线烧毁导致３５ＫＶ明义变电站１０ＫＶ东永阳５１５线路南庞村南公变台区停电 【变更送电】无 【发布渠道】通过９５５９８发布","powerTime":"2019-07-27 10:24:17","powerComm":"已送电","subsNo":"","lineNo":"","tgNo":"","tgName":null,"infoStatus":"1","orgName":"国网涞水县供电公司","typeName":null,"infoStatusName":null,"dateDay":null,"orgNos":null,"nowTime":null,"countyName":null,"streetName":null,"villageName":null,"roadName":null,"communityName":null,"tranName":null,"sdLineName":null,"cityCode":"1340614","cityName":"国网涞水县供电公司","provinceCode":null,"stopTime":"2019-07-27 10:30:00","powerType":"全部","powerOffArea":"【单台区停电】停南庞村南变压器","powerOffReason":"【停电原因】由于弓子线烧毁导致３５ＫＶ明义变电站１０ＫＶ东永阳５１５线路南庞村南公变台区停电 【变更送电】无 【发布渠道】通过９５５９８发布","powerOffId":"2019072713000114"}],"pageModel":{"pageNow":767,"totalCount":10973,"totalPage":1098,"tableRows":0,"pageCount":10,"beginCount":7660},"isExperi":"1"}