{"message":"","today":"2020-06-15","seleList":[{"poweroffId":2019072713000112,"sgpoweroffId":null,"subsName":"","lineName":"大沟线564","pubTranName":"西靳排8【纯农排变】,0011676765*定兴污水处理厂,西靳排4【纯农排变】,西靳光9,大沟新光6,定兴县瑞驰川豪建筑材料经销处,西靳排13【纯农排变】,两合庄新光4,0695735889-保定裕康食品科技有限公司-专变-240151795-1-1600,西靳光5,大沟混2,两合庄光5,西章光1,0693545879-定兴县看守所-专变-239116232-看守所-400,河北马大姐食品有限公司-200,两合庄光6【2018年四批补强】,西靳光4,西章排2【纯农排变】,西靳排6《【纯农排变】,西靳光11,西靳光10,新西章光3,0011676758移动公司小店机站,西靳光12,华韵兴宏纸制品制造-250,西靳光3(村西),垃圾处理站,0636254730-河北马大姐食品有限公司-专变-234160989-马大姐3-1000,西章排1【纯农排变】,西靳光19,0682841058-定兴县鑫明华印刷厂-专变-223348556-鑫明华印刷厂-200,紫光新锐-250,西章排4【纯农排变】,大沟光1,执法局高速引线东-100,西靳排16【纯农排变】,德崇生物科技-400,0011676769*西靳小学,0011676786联兴饲料厂,0011676781*两合庄村委会,西靳柴文排2,0671776655-保定中博华泰汽车贸易公司-专变-212352292-中博华泰-200,西靳排20【纯农排变】,100,西靳排9【纯农排变】,新两合庄光1,西靳光综14,0695735889-保定裕康食品科技有限公司-专变-240159107-2-1600,大沟光7【灾后重建】,大沟光4,西靳排7【纯农排变】,西靳排10【纯农排变】,西靳村光18,佳丽彩印厂,西靳光6【2018年技改】,西靳光20,执法局高速引线西路灯-100,西靳光2,西靳光6,西靳村光17,西靳排15【纯农排变】,0694615955-定兴县西靳小学-专变-237548026-北田乡西靳小学,0670029686-河北智德锅炉制造有限公司-专变-212363514-智德锅炉-100,西章高速收费站-400,西靳光22,西靳光15,西靳光16,西靳排14【纯农排变】,大沟光5,西靳光7,大沟光2【2018年重过载】,两合庄村委会2,西靳光综13,0643256462-河北浩天非织造布有限公司-专变-161934759-河北浩天非织造布有限公司-500,西靳光1,西章新光2,西章光4,西章光5,0636254730-河北马大姐食品有限公司-专变-234163050-马大姐4-1000,西靳排19【纯农排变】,西靳排5【纯农排变】,两合庄光2,变压器,0011676783西靳水利排,西靳排12【纯农排变】,大沟光8,西章排3【纯农排变】,西靳排11【纯农排变】,程锦扬包装制品-200,西靳光8,匠工新型建筑材料-1250,西靳光21,0011676787段振秀面粉厂,两合庄光3,保定兴建商品混凝土有限公司,西靳光23,","scope":"【影响街道/乡镇】定兴镇、北田乡 【高危重要客户】无 【影响客户】西章、西靳、大沟、两合庄、污水处理厂、看守所、联兴饲料、瑞驰川豪、两合庄村委会、浩天飞织、马大姐食品、保定裕康食品、保定兴建商品混凝土公司、西靳水利局、小店移动机站、京港澳高速收费站、匠工新型建筑材料、程锦扬包装制品、段振秀面粉厂、佳丽彩印厂、西靳小学、河北智德锅炉制造有限公司、保定中博华泰汽车贸易公司、河北浩天非织造布有限公司、定兴县鑫明华印刷厂、紫光新锐、德崇生物科技","startTime":"2019-07-27 08:16:19","stopDate":"2019-07-27 12:00:00","orgNo":"1340609","typeCode":"电网故障停限电","poweroffArea":"【全线路停电】停匠工新型建筑材料-1250,西靳光8,两合庄光2,变压器,0636254730-河北马大姐食品有限公司-专变-234160989-马大姐3-1000,西靳排12【纯农排变】,大沟光8,西章排3【纯农排变】,西靳排11【纯农排变】,程锦扬包装制品-200,西靳光21,0011676787段振秀面粉厂,西靳排20【纯农排变】,100,西靳排9【纯农排变】,新两合庄光1,西靳光综14,0695735889-保定裕康食品科技有限公司-专变-240159107-2-1600,大沟光7【灾后重建】,大沟光4,西靳排7【纯农排变】,西靳排10【纯农排变】,西靳村光18,西靳柴文排2,佳丽彩印厂,西靳光6【2018年技改】,西靳光20,执法局高速引线西路灯-100,西靳光2,西靳光6,西靳村光17,西靳排15【纯农排变】,0694615955-定兴县西靳小学-专变-237548026-北田乡西靳小学,0670029686-河北智德锅炉制造有限公司-专变-212363514-智德锅炉-100,西章高速收费站-400,西靳光22,河北马大姐食品有限公司-200,两合庄光6【2018年四批补强】,西靳光15,西靳光16,大沟光5,两合庄光3,保定兴建商品混凝土有限公司,西靳光23,西靳排8【纯农排变】,0011676765*定兴污水处理厂,西靳排4【纯农排变】,西靳光9,大沟新光6,定兴县瑞驰川豪建筑材料经销处,西靳排13【纯农排变】,西章新光2,0671776655-保定中博华泰汽车贸易公司-专变-212352292-中博华泰-200,西靳光7,大沟光2【2018年重过载】,两合庄村委会2,西靳光4,西章排2【纯农排变】,西靳排6《【纯农排变】,西靳光11,0643256462-河北浩天非织造布有限公司-专变-161934759-河北浩天非织造布有限公司-500,西靳排19【纯农排变】,西靳光1,0693545879-定兴县看守所-专变-239116232-看守所-400,0695735889-保定裕康食品科技有限公司-专变-240151795-1-1600,西靳光5,大沟混2,两合庄光5,西靳光10,新西章光3,0011676758移动公司小店机站,西靳光12,华韵兴宏纸制品制造-250,西靳光3(村西),垃圾处理站,西章排1【纯农排变】,西靳光19,西靳排14【纯农排变】,0682841058-定兴县鑫明华印刷厂-专变-223348556-鑫明华印刷厂-200,紫光新锐-250,西章排4【纯农排变】,大沟光1,执法局高速引线东-100,西靳排16【纯农排变】,德崇生物科技-400,0011676769*西靳小学,0011676786联兴饲料厂,0011676781*两合庄村委会,0011676783西靳水利排,两合庄新光4,西章光4,西章光5,0636254730-河北马大姐食品有限公司-专变-234163050-马大姐4-1000,西靳排5【纯农排变】,西章光1,西靳光综13","poweroffReason":"【停电原因】由于污水处理厂分支电缆遭外力破坏导致２２０ＫＶ柳卓开关站大沟线５６４线路全线停电 【变更送电】因抢修进度加快原因，送电时间由１５：００变更为１２：００ 【发布渠道】通过９５５９８发布","powerTime":"2019-07-27 11:43:58","powerComm":"已送电","subsNo":"","lineNo":"","tgNo":"","tgName":null,"infoStatus":"1","orgName":"国网定兴县供电公司","typeName":null,"infoStatusName":null,"dateDay":null,"orgNos":null,"nowTime":null,"countyName":null,"streetName":null,"villageName":null,"roadName":null,"communityName":null,"tranName":null,"sdLineName":null,"cityCode":"1340609","cityName":"国网定兴县供电公司","provinceCode":null,"stopTime":"2019-07-27 12:00:00","powerType":"全部","powerOffArea":"【全线路停电】停匠工新型建筑材料-1250,西靳光8,两合庄光2,变压器,0636254730-河北马大姐食品有限公司-专变-234160989-马大姐3-1000,西靳排12【纯农排变】,大沟光8,西章排3【纯农排变】,西靳排11【纯农排变】,程锦扬包装制品-200,西靳光21,0011676787段振秀面粉厂,西靳排20【纯农排变】,100,西靳排9【纯农排变】,新两合庄光1,西靳光综14,0695735889-保定裕康食品科技有限公司-专变-240159107-2-1600,大沟光7【灾后重建】,大沟光4,西靳排7【纯农排变】,西靳排10【纯农排变】,西靳村光18,西靳柴文排2,佳丽彩印厂,西靳光6【2018年技改】,西靳光20,执法局高速引线西路灯-100,西靳光2,西靳光6,西靳村光17,西靳排15【纯农排变】,0694615955-定兴县西靳小学-专变-237548026-北田乡西靳小学,0670029686-河北智德锅炉制造有限公司-专变-212363514-智德锅炉-100,西章高速收费站-400,西靳光22,河北马大姐食品有限公司-200,两合庄光6【2018年四批补强】,西靳光15,西靳光16,大沟光5,两合庄光3,保定兴建商品混凝土有限公司,西靳光23,西靳排8【纯农排变】,0011676765*定兴污水处理厂,西靳排4【纯农排变】,西靳光9,大沟新光6,定兴县瑞驰川豪建筑材料经销处,西靳排13【纯农排变】,西章新光2,0671776655-保定中博华泰汽车贸易公司-专变-212352292-中博华泰-200,西靳光7,大沟光2【2018年重过载】,两合庄村委会2,西靳光4,西章排2【纯农排变】,西靳排6《【纯农排变】,西靳光11,0643256462-河北浩天非织造布有限公司-专变-161934759-河北浩天非织造布有限公司-500,西靳排19【纯农排变】,西靳光1,0693545879-定兴县看守所-专变-239116232-看守所-400,0695735889-保定裕康食品科技有限公司-专变-240151795-1-1600,西靳光5,大沟混2,两合庄光5,西靳光10,新西章光3,0011676758移动公司小店机站,西靳光12,华韵兴宏纸制品制造-250,西靳光3(村西),垃圾处理站,西章排1【纯农排变】,西靳光19,西靳排14【纯农排变】,0682841058-定兴县鑫明华印刷厂-专变-223348556-鑫明华印刷厂-200,紫光新锐-250,西章排4【纯农排变】,大沟光1,执法局高速引线东-100,西靳排16【纯农排变】,德崇生物科技-400,0011676769*西靳小学,0011676786联兴饲料厂,0011676781*两合庄村委会,0011676783西靳水利排,两合庄新光4,西章光4,西章光5,0636254730-河北马大姐食品有限公司-专变-234163050-马大姐4-1000,西靳排5【纯农排变】,西章光1,西靳光综13","powerOffReason":"【停电原因】由于污水处理厂分支电缆遭外力破坏导致２２０ＫＶ柳卓开关站大沟线５６４线路全线停电 【变更送电】因抢修进度加快原因，送电时间由１５：００变更为１２：００ 【发布渠道】通过９５５９８发布","powerOffId":"2019072713000112"},{"poweroffId":2019072713000103,"sgpoweroffId":null,"subsName":"","lineName":"北山南线518","pubTranName":"麻屋庄村3#,","scope":"【影响街道/乡镇】易州镇【高危重要客户】无【影响客户】麻屋庄村","startTime":"2019-07-27 07:59:56","stopDate":"2019-07-27 09:00:00","orgNo":"1340625","typeCode":"电网故障停限电","poweroffArea":"［单台区停电】停麻屋庄村3#","poweroffReason":"【停电原因】由于开关烧毁导致１１０易县变电站北山南５１８线路麻屋庄３＃公变台区停电【变更送电】无【发布渠道】通过９５５９８发布","powerTime":"2019-07-27 08:34:37","powerComm":"已送电","subsNo":"","lineNo":"","tgNo":"","tgName":null,"infoStatus":"1","orgName":"国网易县供电公司","typeName":null,"infoStatusName":null,"dateDay":null,"orgNos":null,"nowTime":null,"countyName":null,"streetName":null,"villageName":null,"roadName":null,"communityName":null,"tranName":null,"sdLineName":null,"cityCode":"1340625","cityName":"国网易县供电公司","provinceCode":null,"stopTime":"2019-07-27 09:00:00","powerType":"全部","powerOffArea":"［单台区停电】停麻屋庄村3#","powerOffReason":"【停电原因】由于开关烧毁导致１１０易县变电站北山南５１８线路麻屋庄３＃公变台区停电【变更送电】无【发布渠道】通过９５５９８发布","powerOffId":"2019072713000103"},{"poweroffId":2019072713000085,"sgpoweroffId":null,"subsName":"","lineName":"尹固线519","pubTranName":"尹固（保银）（统管）,","scope":"【影响街道/乡镇】南韩村镇 【高危重要客户】无 【影响客户】尹固村","startTime":"2019-07-27 07:40:35","stopDate":"2019-07-27 09:30:00","orgNo":"1340617","typeCode":"电网故障停限电","poweroffArea":"【单台区停电】停尹固（保银）（统管）","poweroffReason":"【停电原因】由于低压断线导致１１０ＫＶ西原变电站尹固线５１９线路尹固（保银）（统管）公变台区停电 【变更送电】因抢修进度加快原因，送电时间由１２：００变更为９：３０ 【发布渠道】通过９５５９８发布","powerTime":"2019-07-27 08:59:50","powerComm":"已送电","subsNo":"","lineNo":"","tgNo":"","tgName":null,"infoStatus":"1","orgName":"国网满城县供电公司","typeName":null,"infoStatusName":null,"dateDay":null,"orgNos":null,"nowTime":null,"countyName":null,"streetName":null,"villageName":null,"roadName":null,"communityName":null,"tranName":null,"sdLineName":null,"cityCode":"1340617","cityName":"国网满城县供电公司","provinceCode":null,"stopTime":"2019-07-27 09:30:00","powerType":"全部","powerOffArea":"【单台区停电】停尹固（保银）（统管）","powerOffReason":"【停电原因】由于低压断线导致１１０ＫＶ西原变电站尹固线５１９线路尹固（保银）（统管）公变台区停电 【变更送电】因抢修进度加快原因，送电时间由１２：００变更为９：３０ 【发布渠道】通过９５５９８发布","powerOffId":"2019072713000085"},{"poweroffId":2019072713000072,"sgpoweroffId":null,"subsName":"","lineName":"10kV515东侯佐线","pubTranName":"亚亨皮革,东侯综合9台区变压器,北江机械制造厂,天德皮草变压器,东侯农排8台区【纯农排变】,蠡县正忠制革污水处理有限公司3,东侯综合1台区变压器,东侯农排3台区变压器【纯农排变】,中艺皮草有限公司,海青皮毛,榆林村农排1台区变压器【纯农排变】,东侯综合7台区变压器,榆林村综合2台区变压器,榆林村农排2台区变压器【纯农排变】,东侯农排2台区变压器【纯农排变】,东侯农排1台区变压器【纯农排变】,蠡县正忠皮草有限公司,东侯综合10台区变压器,正忠四号,榆林村综合1台区变压器,东侯农排6台区变压器【纯农排变】,蠡县正忠制革污水处理有限公司2,东侯农排5台区变压器【纯农排变】,东候面粉厂,东侯综合8台区变压器,东侯综合3台区变压器,天德皮草,东侯综合2台区变压器,东侯农排4台区变压器【纯农排变】,东侯综合5台区变压器,中艺,榆林村农排3台区变压器【纯农排变】,蠡县正忠制革污水处理有限公司,","scope":"【影响街道/乡镇】鲍墟乡、留史镇【高危重要客户】无【影响客户】榆林村、东侯佐村、蠡县正忠制革污水处理有限公司","startTime":"2019-07-27 07:01:00","stopDate":"2019-07-27 09:00:00","orgNo":"1340616","typeCode":"电网故障停限电","poweroffArea":"【全线路停电】停中艺,蠡县正忠皮草有限公司,东侯农排8台区【纯农排变】,天德皮草变压器,东侯农排6台区变压器【纯农排变】,东侯综合8台区变压器,北江机械制造厂,天德皮草,蠡县正忠制革污水处理有限公司,东侯综合7台区变压器,东侯综合2台区变压器,东侯农排4台区变压器【纯农排变】,东侯综合10台区变压器,正忠四号,亚亨皮革,榆林村农排3台区变压器【纯农排变】,榆林村综合2台区变压器,蠡县正忠制革污水处理有限公司3,东侯农排1台区变压器【纯农排变】,榆林村农排1台区变压器【纯农排变】,东候面粉厂,榆林村农排2台区变压器【纯农排变】,蠡县正忠制革污水处理有限公司2,东侯农排2台区变压器【纯农排变】,东侯综合1台区变压器,东侯农排3台区变压器【纯农排变】,东侯综合3台区变压器,东侯综合9台区变压器,东侯农排5台区变压器【纯农排变】,海青皮毛,榆林村综合1台区变压器,东侯综合5台区变压器,中艺皮草有限公司","poweroffReason":"【停电原因】由于站外开关掉闸导致１１０ＫＶ留史变电站１０ＫＶ东侯佐５１５线路全线停电【变更送电】因抢修进度加快原因，送电时间由１０：００变更为０９：００【发布渠道】通过９５５９８发布","powerTime":"2019-07-27 08:14:45","powerComm":"已送电","subsNo":"","lineNo":"","tgNo":"","tgName":null,"infoStatus":"1","orgName":"国网蠡县供电公司","typeName":null,"infoStatusName":null,"dateDay":null,"orgNos":null,"nowTime":null,"countyName":null,"streetName":null,"villageName":null,"roadName":null,"communityName":null,"tranName":null,"sdLineName":null,"cityCode":"1340616","cityName":"国网蠡县供电公司","provinceCode":null,"stopTime":"2019-07-27 09:00:00","powerType":"全部","powerOffArea":"【全线路停电】停中艺,蠡县正忠皮草有限公司,东侯农排8台区【纯农排变】,天德皮草变压器,东侯农排6台区变压器【纯农排变】,东侯综合8台区变压器,北江机械制造厂,天德皮草,蠡县正忠制革污水处理有限公司,东侯综合7台区变压器,东侯综合2台区变压器,东侯农排4台区变压器【纯农排变】,东侯综合10台区变压器,正忠四号,亚亨皮革,榆林村农排3台区变压器【纯农排变】,榆林村综合2台区变压器,蠡县正忠制革污水处理有限公司3,东侯农排1台区变压器【纯农排变】,榆林村农排1台区变压器【纯农排变】,东候面粉厂,榆林村农排2台区变压器【纯农排变】,蠡县正忠制革污水处理有限公司2,东侯农排2台区变压器【纯农排变】,东侯综合1台区变压器,东侯农排3台区变压器【纯农排变】,东侯综合3台区变压器,东侯综合9台区变压器,东侯农排5台区变压器【纯农排变】,海青皮毛,榆林村综合1台区变压器,东侯综合5台区变压器,中艺皮草有限公司","powerOffReason":"【停电原因】由于站外开关掉闸导致１１０ＫＶ留史变电站１０ＫＶ东侯佐５１５线路全线停电【变更送电】因抢修进度加快原因，送电时间由１０：００变更为０９：００【发布渠道】通过９５５９８发布","powerOffId":"2019072713000072"},{"poweroffId":2019072713000040,"sgpoweroffId":null,"subsName":"","lineName":"10kv513城东线","pubTranName":"10Kv513城东线寺上村正北87778台区变压器【纯农排变】,10KV513城东线于堤10015分支3号杆于堤村西北10015台区变压器,10KV513城东线于堤10017分支7号杆于堤10017排灌台区变压器,10KV513城东线里村10068分支4号杆变压器【纯农排变】,里村中学10066,10KV513城东线里村5235分支4号杆于堤5235排灌变压器【纯农排变】,10KV513城东线城东10072分支1号杆城东10072台区变压器,10KV513城东线于堤村10023分支17号杆于堤村东口10023台区变压器,10KV513城东线10071IC卡变压器【纯农排变】,10KV513城东线城东10002分支2号杆城东村西10002台区变压器,10Kv513城东线里村博望路北变压器,10KV513城东线里村10007分支1号杆里村10007排灌变压器,10KV513城东线于堤05240分支7号杆于堤会宁北5240台区变压器,祥和食品厂,10Kv513城东线南旺鸡场北87774台区变压器【纯农排变】,10KV513城东线于堤10061分支3号杆于堤10061台区变压器,10KV513城东线里村10003分支9号杆里村中学分表箱台区变压器,10KV513城东线5239分支10号杆南旺小学照明5239台区变压器,寺上面粉厂,10KV513城东线于堤10016分支3号杆于堤村西57901台区变压器,10KV513城东线南旺公用5238分支30号杆南旺村北10025台区变压器,10Kv513城东线寺上幼儿园北寺上87775台区变压器【纯农排变】,10KV513于堤线48266分支1号杆寺上村东48266台区变压器,10KV513城东线58404分支18号杆于堤村内58404台区变压器,10KV513城东线寺上10059分支1号杆寺上村南10032台区变压器,10KV城东513线城东10001台区柱上变压器,电网_10KV513城东线里村5237分支17号杆里村大队照明5237台区变压器,10KV513城东线寺上82916分支2号杆寺上东南82916台区变压器,10KV513城东线于堤10014分支2号杆于堤村东南10014台区变压器,城东路灯,10Kv513城东线里村付家坟变84406台区压器【纯农排变】,10KV513城东线寺上10031分支2号杆寺上10031排灌台区变压器【纯农排变】,10KV513城东线南旺公用5238分支36号杆南旺北照明5238台区变压器,10KV513城东线里村5237分支17号杆里村大队照明5237台区变压器,于堤学校,10KV513城东线里村浇地39263分支1号杆里村西南39263IC卡变压器,进恒面粉厂,10KV513城东线主干91号杆于堤村市场10052台区变压器,10KV513城东线于堤村10018分支3号杆于堤10018排灌变压器【纯农排变】,10Kv513城东线寺上村西南寺上IC卡84408变压器【纯农排变】,10KV513城东线城东10071分支3号杆城东村西南96915台区变压器,10KV513城东线里村5237分支10号杆里村村内10004台区变压器,10KV513城东线于","scope":"【影响街道/乡镇】城东乡【高危重要客户】无【影响客户】城东、南旺、里村、寺上、于堤","startTime":"2019-07-27 04:53:07","stopDate":"2019-07-27 08:10:00","orgNo":"1340608","typeCode":"电网故障停限电","poweroffArea":"【全线路停电】停10KV513城东线南旺10054分支9号杆南旺村南10054变压器,10KV513城东线里村5326分支4号杆里村村西内照明5236台区变压器,10KV513城东线寺上10029分支19号杆寺上村内10029台区变压器,10KV513城东线寺上39989分支6号杆寺上村西39989台区变压器,10KV513城东线寺上公用33134分支1号杆寺上村南33134台区变压器,10KV513城东线于堤10016分支10号杆于堤村内10016台区变压器,10KV513城东线于堤10019分支15号杆于堤10019排灌变压器【纯农排变】,10KV513于堤线寺上100291号杆寺上村东10030台区变压器,10KV513于堤线寺上83417分支5号杆寺上村北83417台区变压器,10KV513于堤线寺上5241分支15号杆寺上村北照明5241台区变压器,10KV513城东线寺上10059分支10号杆寺上10059台区变压器,10KV513城东线于堤10014分支2号杆于堤村东南10014台区变压器,城东路灯,10Kv513城东线里村付家坟变84406台区压器【纯农排变】,10KV513城东线寺上10031分支2号杆寺上10031排灌台区变压器【纯农排变】,10KV513城东线南旺公用5238分支36号杆南旺北照明5238台区变压器,于堤学校,10KV513城东线里村浇地39263分支1号杆里村西南39263IC卡变压器,进恒面粉厂,10KV513城东线主干91号杆于堤村市场10052台区变压器,10KV513城东线于堤村10018分支3号杆于堤10018排灌变压器【纯农排变】,10Kv513城东线寺上村西南寺上IC卡84408变压器【纯农排变】,10KV513城东线城东10071分支3号杆城东村西南96915台区变压器,10Kv513城东线寺上村正北87778台区变压器【纯农排变】,10KV513城东线于堤10015分支3号杆于堤村西北10015台区变压器,10KV513城东线于堤10017分支7号杆于堤10017排灌台区变压器,10KV513城东线里村10068分支4号杆变压器【纯农排变】,10KV513城东线里村5237分支17号杆里村大队照明5237台区变压器,10KV513城东线寺上82916分支2号杆寺上东南82916台区变压器,10KV513城东线里村5237分支10号杆里村村内10004台区变压器,10KV513城东线于堤村10053分支6号杆于堤村东北10053台区变压器,10KV513城东线于堤10019分支4号杆于堤村东浇地96536台区变压器【纯农排变】,10KV513城东线主干139号杆寺上村北10060台区变压器,10KV513城东线里村10003分支13号杆里村学校内10003台区变压器,10KV513城东线南旺834136号杆南旺东南83413台区变压器,10KV513城东线里村10007分支1号杆里村10007排灌变压器,10KV513城东线于堤05240分支7号杆于堤会宁北5240台区变压器,祥和食品厂,10Kv513城东线南旺鸡场北87774台区变压器【纯农排变】,10KV513城东线于堤10061分支3号杆于堤10061台区变压器,10KV513城东线里村10003分支9号杆里村中学分表箱台区变压器,里村中学10066,10KV513城东线里村5235分支4号杆于堤5235排灌变压器【纯农排变】,10KV513城东线城东10072分支1号杆城东10072台区变压器,10KV513城东线于堤村10023分支17号杆于堤村东口10023台区变压器,10KV513城东线10071IC卡变压器【纯农排变】,10KV513城东线城东10002分支2号杆城东村西10002台区变压器,10Kv513城东线里村博望路北变压器,10KV513城东线5239分支10号杆南旺小学照明5239台区变压器,寺上面粉厂,10KV513城东线于堤10016分支3号杆于堤村西57901台区变压器,10KV513城东线南旺公用5238分支30号杆南旺村北10025台区变压器,10Kv513城东线寺上幼儿园北寺上87775台区变压器【纯农排变】,10KV513于堤线48266分支1号杆寺上村东48266台区变压器,10KV513城东线58404分支18号杆于堤村内58404台区变压器,10KV513城东线寺上10059分支1号杆寺上村南10032台区变压器,10KV城东513线城东10001台区柱上变压器,电网_10KV513城东线里村5237分支17号杆里村大队照明5237台区变压器","poweroffReason":"【停电原因】由于线路接地导致３５ＫＶ城东变电站城东５１３线路全线停电【变更送电】因抢修进度加快原因，送电时间由１１：００变更为０８：１０【发布渠道】通过９５５９８发布","powerTime":"2019-07-27 07:50:07","powerComm":"已送电","subsNo":"","lineNo":"","tgNo":"","tgName":null,"infoStatus":"1","orgName":"国网博野县供电公司","typeName":null,"infoStatusName":null,"dateDay":null,"orgNos":null,"nowTime":null,"countyName":null,"streetName":null,"villageName":null,"roadName":null,"communityName":null,"tranName":null,"sdLineName":null,"cityCode":"1340608","cityName":"国网博野县供电公司","provinceCode":null,"stopTime":"2019-07-27 08:10:00","powerType":"全部","powerOffArea":"【全线路停电】停10KV513城东线南旺10054分支9号杆南旺村南10054变压器,10KV513城东线里村5326分支4号杆里村村西内照明5236台区变压器,10KV513城东线寺上10029分支19号杆寺上村内10029台区变压器,10KV513城东线寺上39989分支6号杆寺上村西39989台区变压器,10KV513城东线寺上公用33134分支1号杆寺上村南33134台区变压器,10KV513城东线于堤10016分支10号杆于堤村内10016台区变压器,10KV513城东线于堤10019分支15号杆于堤10019排灌变压器【纯农排变】,10KV513于堤线寺上100291号杆寺上村东10030台区变压器,10KV513于堤线寺上83417分支5号杆寺上村北83417台区变压器,10KV513于堤线寺上5241分支15号杆寺上村北照明5241台区变压器,10KV513城东线寺上10059分支10号杆寺上10059台区变压器,10KV513城东线于堤10014分支2号杆于堤村东南10014台区变压器,城东路灯,10Kv513城东线里村付家坟变84406台区压器【纯农排变】,10KV513城东线寺上10031分支2号杆寺上10031排灌台区变压器【纯农排变】,10KV513城东线南旺公用5238分支36号杆南旺北照明5238台区变压器,于堤学校,10KV513城东线里村浇地39263分支1号杆里村西南39263IC卡变压器,进恒面粉厂,10KV513城东线主干91号杆于堤村市场10052台区变压器,10KV513城东线于堤村10018分支3号杆于堤10018排灌变压器【纯农排变】,10Kv513城东线寺上村西南寺上IC卡84408变压器【纯农排变】,10KV513城东线城东10071分支3号杆城东村西南96915台区变压器,10Kv513城东线寺上村正北87778台区变压器【纯农排变】,10KV513城东线于堤10015分支3号杆于堤村西北10015台区变压器,10KV513城东线于堤10017分支7号杆于堤10017排灌台区变压器,10KV513城东线里村10068分支4号杆变压器【纯农排变】,10KV513城东线里村5237分支17号杆里村大队照明5237台区变压器,10KV513城东线寺上82916分支2号杆寺上东南82916台区变压器,10KV513城东线里村5237分支10号杆里村村内10004台区变压器,10KV513城东线于堤村10053分支6号杆于堤村东北10053台区变压器,10KV513城东线于堤10019分支4号杆于堤村东浇地96536台区变压器【纯农排变】,10KV513城东线主干139号杆寺上村北10060台区变压器,10KV513城东线里村10003分支13号杆里村学校内10003台区变压器,10KV513城东线南旺834136号杆南旺东南83413台区变压器,10KV513城东线里村10007分支1号杆里村10007排灌变压器,10KV513城东线于堤05240分支7号杆于堤会宁北5240台区变压器,祥和食品厂,10Kv513城东线南旺鸡场北87774台区变压器【纯农排变】,10KV513城东线于堤10061分支3号杆于堤10061台区变压器,10KV513城东线里村10003分支9号杆里村中学分表箱台区变压器,里村中学10066,10KV513城东线里村5235分支4号杆于堤5235排灌变压器【纯农排变】,10KV513城东线城东10072分支1号杆城东10072台区变压器,10KV513城东线于堤村10023分支17号杆于堤村东口10023台区变压器,10KV513城东线10071IC卡变压器【纯农排变】,10KV513城东线城东10002分支2号杆城东村西10002台区变压器,10Kv513城东线里村博望路北变压器,10KV513城东线5239分支10号杆南旺小学照明5239台区变压器,寺上面粉厂,10KV513城东线于堤10016分支3号杆于堤村西57901台区变压器,10KV513城东线南旺公用5238分支30号杆南旺村北10025台区变压器,10Kv513城东线寺上幼儿园北寺上87775台区变压器【纯农排变】,10KV513于堤线48266分支1号杆寺上村东48266台区变压器,10KV513城东线58404分支18号杆于堤村内58404台区变压器,10KV513城东线寺上10059分支1号杆寺上村南10032台区变压器,10KV城东513线城东10001台区柱上变压器,电网_10KV513城东线里村5237分支17号杆里村大队照明5237台区变压器","powerOffReason":"【停电原因】由于线路接地导致３５ＫＶ城东变电站城东５１３线路全线停电【变更送电】因抢修进度加快原因，送电时间由１１：００变更为０８：１０【发布渠道】通过９５５９８发布","powerOffId":"2019072713000040"},{"poweroffId":2019072713000036,"sgpoweroffId":null,"subsName":"","lineName":"10KV祖各庄514","pubTranName":"0679135049-涞水龙博建材有限公司-专变-218835593-涞水龙博建材有限公司800KVA专变,国网河北省电力有限公司涿州市供电分公司200KVA专变,王村中学箱变间隔配电变压器,祖各庄南台区,吴各庄村内2台区,吴各庄村西,张翠台村北3,张翠台北井变压器,涿州市供电有限责任公司,张翠台砖厂井变压器,0611825203-保定翔海旅游开发有限公司-专变-127816772-翔海旅游315KVA专变,祖各庄西南台区,涞水龙博建材有限公司新增250KVA专变,北辛庄村西北台区,涞水双开饲养有限公司新增变压器,涞水润鑫建材二分厂250,吴各庄村内,0646673503-涞水县航航水泥制品厂-专变-169896449-涞水县航航水泥制品厂新增变压器315KVA,张翠台村北2号台区,北辛庄西台区,张翠台面粉厂,祖各庄砖厂,承装公司杆厂,祖各庄村配变柱上变压器,张翠台村内2,祖各庄砖厂2,张翠台东台区,祖各庄楼板厂,张翠台高速井,张翠台变压器,吴各庄北台区,吴各庄西南台区,下庄西井【纯农排变】,北辛庄公路边台区,祖各庄新东台区,下庄,祖各庄西北变压器,长和水泥构件,吴各庄公路边变压器,涞水县保北电气安装有限公司200KVA专变,鑫磊石粉厂,张翠台村北8号井变压器,张涿高速涞水互通收费站630KVA专变,张翠台村北台区,北辛庄村南台区,北辛庄五方井变压器【纯农排变】,北辛庄东台区,北辛庄三岔井变压器,0469315631-王村粮站-专变-46774540-王村粮站,南横七北井变压器,北辛庄河套井台区（西）,张翠台2号井变压器,下庄北井2变压器【纯农排变】,北辛庄北井变压器,祖各庄村内台区,新兴纸箱厂,北辛庄村西海峰,北辛庄村东北台区,瑞兴隆建材厂,下庄西台区,张翠台村内台区,吴各庄小学院内变压器,张翠台万红光机井变压器,0469315367-王村中学-专变-46774539-王村中学,张翠台所北台区,祖各庄东坑台区变压器,王村供电所,祖各庄东南台区变压器,","scope":"【影响街道/乡镇】王村乡 【高危重要客户】无 【影响客户】祖各庄村、吴各庄村、张翠台村、下庄村、北辛庄村","startTime":"2019-07-27 04:47:10","stopDate":"2019-07-27 07:00:00","orgNo":"1340614","typeCode":"电网故障停限电","poweroffArea":"【全线路停电】停张翠台村北2号台区,张翠台砖厂井变压器,0611825203-保定翔海旅游开发有限公司-专变-127816772-翔海旅游315KVA专变,祖各庄西南台区,涞水龙博建材有限公司新增250KVA专变,北辛庄村西北台区,涞水双开饲养有限公司新增变压器,涞水润鑫建材二分厂250,吴各庄村内,0646673503-涞水县航航水泥制品厂-专变-169896449-涞水县航航水泥制品厂新增变压器315KVA,北辛庄西台区,张翠台面粉厂,祖各庄砖厂,承装公司杆厂,祖各庄村配变柱上变压器,张翠台村内2,祖各庄砖厂2,张翠台东台区,祖各庄楼板厂,张翠台高速井,张翠台变压器,吴各庄北台区,吴各庄西南台区,下庄西井【纯农排变】,北辛庄公路边台区,祖各庄新东台区,下庄,祖各庄西北变压器,长和水泥构件,吴各庄公路边变压器,涞水县保北电气安装有限公司200KVA专变,鑫磊石粉厂,张翠台村北8号井变压器,张涿高速涞水互通收费站630KVA专变,张翠台村北台区,北辛庄五方井变压器【纯农排变】,北辛庄东台区,北辛庄三岔井变压器,0469315631-王村粮站-专变-46774540-王村粮站,南横七北井变压器,北辛庄河套井台区（西）,张翠台2号井变压器,下庄北井2变压器【纯农排变】,北辛庄北井变压器,祖各庄村内台区,新兴纸箱厂,北辛庄村西海峰,北辛庄村东北台区,瑞兴隆建材厂,下庄西台区,祖各庄东南台区变压器,张翠台村内台区,吴各庄小学院内变压器,张翠台万红光机井变压器,0469315367-王村中学-专变-46774539-王村中学,张翠台所北台区,祖各庄东坑台区变压器,王村供电所,北辛庄村南台区,0679135049-涞水龙博建材有限公司-专变-218835593-涞水龙博建材有限公司800KVA专变,国网河北省电力有限公司涿州市供电分公司200KVA专变,王村中学箱变间隔配电变压器,祖各庄南台区,吴各庄村内2台区,吴各庄村西,张翠台村北3,张翠台北井变压器,涿州市供电有限责任公司","poweroffReason":"【停电原因】由于设备线夹烧毁导致３５ＫＶ王村变电站１０ＫＶ祖各庄５１４线路全线停电 【变更送电】因抢修进度加快原因，送电时间由０９：００变更为０７：００ 【发布渠道】通过９５５９８发布","powerTime":"2019-07-27 06:34:27","powerComm":"已送电","subsNo":"","lineNo":"","tgNo":"","tgName":null,"infoStatus":"1","orgName":"国网涞水县供电公司","typeName":null,"infoStatusName":null,"dateDay":null,"orgNos":null,"nowTime":null,"countyName":null,"streetName":null,"villageName":null,"roadName":null,"communityName":null,"tranName":null,"sdLineName":null,"cityCode":"1340614","cityName":"国网涞水县供电公司","provinceCode":null,"stopTime":"2019-07-27 07:00:00","powerType":"全部","powerOffArea":"【全线路停电】停张翠台村北2号台区,张翠台砖厂井变压器,0611825203-保定翔海旅游开发有限公司-专变-127816772-翔海旅游315KVA专变,祖各庄西南台区,涞水龙博建材有限公司新增250KVA专变,北辛庄村西北台区,涞水双开饲养有限公司新增变压器,涞水润鑫建材二分厂250,吴各庄村内,0646673503-涞水县航航水泥制品厂-专变-169896449-涞水县航航水泥制品厂新增变压器315KVA,北辛庄西台区,张翠台面粉厂,祖各庄砖厂,承装公司杆厂,祖各庄村配变柱上变压器,张翠台村内2,祖各庄砖厂2,张翠台东台区,祖各庄楼板厂,张翠台高速井,张翠台变压器,吴各庄北台区,吴各庄西南台区,下庄西井【纯农排变】,北辛庄公路边台区,祖各庄新东台区,下庄,祖各庄西北变压器,长和水泥构件,吴各庄公路边变压器,涞水县保北电气安装有限公司200KVA专变,鑫磊石粉厂,张翠台村北8号井变压器,张涿高速涞水互通收费站630KVA专变,张翠台村北台区,北辛庄五方井变压器【纯农排变】,北辛庄东台区,北辛庄三岔井变压器,0469315631-王村粮站-专变-46774540-王村粮站,南横七北井变压器,北辛庄河套井台区（西）,张翠台2号井变压器,下庄北井2变压器【纯农排变】,北辛庄北井变压器,祖各庄村内台区,新兴纸箱厂,北辛庄村西海峰,北辛庄村东北台区,瑞兴隆建材厂,下庄西台区,祖各庄东南台区变压器,张翠台村内台区,吴各庄小学院内变压器,张翠台万红光机井变压器,0469315367-王村中学-专变-46774539-王村中学,张翠台所北台区,祖各庄东坑台区变压器,王村供电所,北辛庄村南台区,0679135049-涞水龙博建材有限公司-专变-218835593-涞水龙博建材有限公司800KVA专变,国网河北省电力有限公司涿州市供电分公司200KVA专变,王村中学箱变间隔配电变压器,祖各庄南台区,吴各庄村内2台区,吴各庄村西,张翠台村北3,张翠台北井变压器,涿州市供电有限责任公司","powerOffReason":"【停电原因】由于设备线夹烧毁导致３５ＫＶ王村变电站１０ＫＶ祖各庄５１４线路全线停电 【变更送电】因抢修进度加快原因，送电时间由０９：００变更为０７：００ 【发布渠道】通过９５５９８发布","powerOffId":"2019072713000036"},{"poweroffId":2019072613000788,"sgpoweroffId":null,"subsName":"","lineName":"北淇村536","pubTranName":"客户投资_林泉村1#|村中,","scope":"【影响街道/乡镇】西山北乡【高危重要客户】无【影响客户】林泉村","startTime":"2019-07-27 05:30:00","stopDate":"2019-07-27 08:00:00","orgNo":"1340625","typeCode":"其他临时停电","poweroffArea":"【单台区停电】停林泉村1#","poweroffReason":"【停电原因】由于临时消缺导致３５ＫＶ步乐变电站北淇村５３６线路林泉村１＃公变台区停电【变更送电】无【发布渠道】通过９５５９８发布","powerTime":"2019-07-27 07:09:05","powerComm":"已送电","subsNo":"","lineNo":"","tgNo":"","tgName":null,"infoStatus":"1","orgName":"国网易县供电公司","typeName":null,"infoStatusName":null,"dateDay":null,"orgNos":null,"nowTime":null,"countyName":null,"streetName":null,"villageName":null,"roadName":null,"communityName":null,"tranName":null,"sdLineName":null,"cityCode":"1340625","cityName":"国网易县供电公司","provinceCode":null,"stopTime":"2019-07-27 08:00:00","powerType":"全部","powerOffArea":"【单台区停电】停林泉村1#","powerOffReason":"【停电原因】由于临时消缺导致３５ＫＶ步乐变电站北淇村５３６线路林泉村１＃公变台区停电【变更送电】无【发布渠道】通过９５５９８发布","powerOffId":"2019072613000788"},{"poweroffId":2019072613000768,"sgpoweroffId":null,"subsName":"","lineName":"10kV韩村站537线路","pubTranName":"C520柱上变压器,","scope":"【影响街道/乡镇】韩庄乡、阳光大街、复兴路 【高危重要客户】无 【影响客户】韩村","startTime":"2019-07-26 23:00:00","stopDate":"2019-07-27 00:00:00","orgNo":"13406","typeCode":"电网故障停限电","poweroffArea":"【单台区停电】停C520柱上变压器","poweroffReason":"【停电原因】由于低压刀闸烧导致１０ＫＶ韩村变电站５３７线路Ｃ５２０公变台区停电【变更送电】因抢修进度加快，原定０１:００送电现计划００:００送电【发布渠道】通过９５５９８发布","powerTime":"2019-07-26 23:48:55","powerComm":"已送电","subsNo":"","lineNo":"","tgNo":"","tgName":null,"infoStatus":"1","orgName":"保定供电公司","typeName":null,"infoStatusName":null,"dateDay":null,"orgNos":null,"nowTime":null,"countyName":null,"streetName":null,"villageName":null,"roadName":null,"communityName":null,"tranName":null,"sdLineName":null,"cityCode":"13406","cityName":"保定供电公司","provinceCode":null,"stopTime":"2019-07-27 00:00:00","powerType":"全部","powerOffArea":"【单台区停电】停C520柱上变压器","powerOffReason":"【停电原因】由于低压刀闸烧导致１０ＫＶ韩村变电站５３７线路Ｃ５２０公变台区停电【变更送电】因抢修进度加快，原定０１:００送电现计划００:００送电【发布渠道】通过９５５９８发布","powerOffId":"2019072613000768"},{"poweroffId":2019072613000759,"sgpoweroffId":null,"subsName":"","lineName":"10kV南郊站514线路","pubTranName":"C285柱上变压器,","scope":"【影响街道/乡镇】于家庄乡 【高危重要客户】无 【影响客户】郭村","startTime":"2019-07-26 22:30:00","stopDate":"2019-07-26 23:45:00","orgNo":"13406","typeCode":"电网故障停限电","poweroffArea":"【单台区停电】停C285柱上变压器","poweroffReason":"【停电原因】由于低压保险片烧导致１０ＫＶ南郊变电站５１４线路Ｃ２８５公变台区停电【变更送电】因抢修进度加快，原定０１:００送电现计划２３:４５送电。【发布渠道】通过９５５９８发布","powerTime":"2019-07-26 23:20:09","powerComm":"已送电","subsNo":"","lineNo":"","tgNo":"","tgName":null,"infoStatus":"1","orgName":"保定供电公司","typeName":null,"infoStatusName":null,"dateDay":null,"orgNos":null,"nowTime":null,"countyName":null,"streetName":null,"villageName":null,"roadName":null,"communityName":null,"tranName":null,"sdLineName":null,"cityCode":"13406","cityName":"保定供电公司","provinceCode":null,"stopTime":"2019-07-26 23:45:00","powerType":"全部","powerOffArea":"【单台区停电】停C285柱上变压器","powerOffReason":"【停电原因】由于低压保险片烧导致１０ＫＶ南郊变电站５１４线路Ｃ２８５公变台区停电【变更送电】因抢修进度加快，原定０１:００送电现计划２３:４５送电。【发布渠道】通过９５５９８发布","powerOffId":"2019072613000759"},{"poweroffId":2019072613000743,"sgpoweroffId":null,"subsName":"","lineName":"神星线512","pubTranName":"神星村东,","scope":"【影响街道/乡镇】神星镇 【高危重要客户】无 【影响客户】神星村","startTime":"2019-07-26 22:36:25","stopDate":"2019-07-27 01:00:00","orgNo":"1340617","typeCode":"电网故障停限电","poweroffArea":"【单台区停电】停神星村东","poweroffReason":"【停电原因】由于低压断线导致３５ＫＶ神星变电站神星线５１２线路神星村东公变台区停电 【变更送电】无 【发布渠道】通过９５５９８发布","powerTime":"2019-07-27 00:50:56","powerComm":"已送电","subsNo":"","lineNo":"","tgNo":"","tgName":null,"infoStatus":"1","orgName":"国网满城县供电公司","typeName":null,"infoStatusName":null,"dateDay":null,"orgNos":null,"nowTime":null,"countyName":null,"streetName":null,"villageName":null,"roadName":null,"communityName":null,"tranName":null,"sdLineName":null,"cityCode":"1340617","cityName":"国网满城县供电公司","provinceCode":null,"stopTime":"2019-07-27 01:00:00","powerType":"全部","powerOffArea":"【单台区停电】停神星村东","powerOffReason":"【停电原因】由于低压断线导致３５ＫＶ神星变电站神星线５１２线路神星村东公变台区停电 【变更送电】无 【发布渠道】通过９５５９８发布","powerOffId":"2019072613000743"}],"pageModel":{"pageNow":768,"totalCount":10973,"totalPage":1098,"tableRows":0,"pageCount":10,"beginCount":7670},"isExperi":"1"}