{"message":"","today":"2020-06-15","seleList":[{"poweroffId":2019072613000575,"sgpoweroffId":null,"subsName":"","lineName":"屯庄线518","pubTranName":"屯庄22号,","scope":"【影响街道/乡镇】户木乡 【高危重要客户】无 【影响客户】屯庄村","startTime":"2019-07-27 08:00:00","stopDate":"2019-07-27 18:00:00","orgNo":"1340605","typeCode":"其他临时停电","poweroffArea":"【单台区停电】停屯庄22号","poweroffReason":"【停电原因】由于处理紧急缺陷导致３５ＫＶ广门变电站屯庄５１８线路屯庄２２号公变台区停电 【变更送电】无 【发布渠道】通过９５５９８发布","powerTime":"2019-07-27 17:39:02","powerComm":"已送电","subsNo":"","lineNo":"","tgNo":"","tgName":null,"infoStatus":"1","orgName":"国网徐水县供电公司","typeName":null,"infoStatusName":null,"dateDay":null,"orgNos":null,"nowTime":null,"countyName":null,"streetName":null,"villageName":null,"roadName":null,"communityName":null,"tranName":null,"sdLineName":null,"cityCode":"1340605","cityName":"国网徐水县供电公司","provinceCode":null,"stopTime":"2019-07-27 18:00:00","powerType":"全部","powerOffArea":"【单台区停电】停屯庄22号","powerOffReason":"【停电原因】由于处理紧急缺陷导致３５ＫＶ广门变电站屯庄５１８线路屯庄２２号公变台区停电 【变更送电】无 【发布渠道】通过９５５９８发布","powerOffId":"2019072613000575"},{"poweroffId":2019072613000569,"sgpoweroffId":null,"subsName":"","lineName":"屯庄线518","pubTranName":"屯庄4号,","scope":"【影响街道/乡镇】户木乡 【高危重要客户】无 【影响客户】屯庄村","startTime":"2019-07-27 08:00:00","stopDate":"2019-07-27 18:00:00","orgNo":"1340605","typeCode":"其他临时停电","poweroffArea":"【单台区停电】停屯庄4号","poweroffReason":"【停电原因】由于处理紧急缺陷导致３５ＫＶ广门站变电站屯庄线５１８线路屯庄４号公变台区停电 【变更送电】无 【发布渠道】通过９５５９８发布","powerTime":"2019-07-27 17:38:43","powerComm":"已送电","subsNo":"","lineNo":"","tgNo":"","tgName":null,"infoStatus":"1","orgName":"国网徐水县供电公司","typeName":null,"infoStatusName":null,"dateDay":null,"orgNos":null,"nowTime":null,"countyName":null,"streetName":null,"villageName":null,"roadName":null,"communityName":null,"tranName":null,"sdLineName":null,"cityCode":"1340605","cityName":"国网徐水县供电公司","provinceCode":null,"stopTime":"2019-07-27 18:00:00","powerType":"全部","powerOffArea":"【单台区停电】停屯庄4号","powerOffReason":"【停电原因】由于处理紧急缺陷导致３５ＫＶ广门站变电站屯庄线５１８线路屯庄４号公变台区停电 【变更送电】无 【发布渠道】通过９５５９８发布","powerOffId":"2019072613000569"},{"poweroffId":2019072613000549,"sgpoweroffId":null,"subsName":"","lineName":"10kV589南庞线","pubTranName":"大刘庄11号,","scope":"【影响街道/乡镇】漕河镇 【高危重要客户】无 【影响客户】大刘庄村","startTime":"2019-07-27 06:00:00","stopDate":"2019-07-27 08:00:00","orgNo":"1340605","typeCode":"其他临时停电","poweroffArea":"【单台区停电】停大刘庄11号","poweroffReason":"【停电原因】由于处理紧急缺陷导致１１０ＫＶ田西良变电站南庞５８９线路大刘庄１１号公变台区停电 【变更送电】无 【发布渠道】通过９５５９８发布","powerTime":"2019-07-27 07:29:21","powerComm":"已送电","subsNo":"","lineNo":"","tgNo":"","tgName":null,"infoStatus":"1","orgName":"国网徐水县供电公司","typeName":null,"infoStatusName":null,"dateDay":null,"orgNos":null,"nowTime":null,"countyName":null,"streetName":null,"villageName":null,"roadName":null,"communityName":null,"tranName":null,"sdLineName":null,"cityCode":"1340605","cityName":"国网徐水县供电公司","provinceCode":null,"stopTime":"2019-07-27 08:00:00","powerType":"全部","powerOffArea":"【单台区停电】停大刘庄11号","powerOffReason":"【停电原因】由于处理紧急缺陷导致１１０ＫＶ田西良变电站南庞５８９线路大刘庄１１号公变台区停电 【变更送电】无 【发布渠道】通过９５５９８发布","powerOffId":"2019072613000549"},{"poweroffId":2019072613000541,"sgpoweroffId":null,"subsName":"","lineName":"迪城线577","pubTranName":"崔迪城17号【纯农排变】,","scope":"【影响街道/乡镇】大因镇 【高危重要客户】无 【影响客户】崔迪城村","startTime":"2019-07-27 08:00:00","stopDate":"2019-07-27 18:00:00","orgNo":"1340605","typeCode":"其他临时停电","poweroffArea":"【单台区停电】停崔迪城17号【纯农排变】","poweroffReason":"【停电原因】由于处理紧急缺陷导致１１０ＫＶ沙口变电站迪城线５７７线路崔迪城１７号公变台区停电 【变更送电】无 【发布渠道】通过９５５９８发布","powerTime":"2019-07-27 17:33:16","powerComm":"已送电","subsNo":"","lineNo":"","tgNo":"","tgName":null,"infoStatus":"1","orgName":"国网徐水县供电公司","typeName":null,"infoStatusName":null,"dateDay":null,"orgNos":null,"nowTime":null,"countyName":null,"streetName":null,"villageName":null,"roadName":null,"communityName":null,"tranName":null,"sdLineName":null,"cityCode":"1340605","cityName":"国网徐水县供电公司","provinceCode":null,"stopTime":"2019-07-27 18:00:00","powerType":"全部","powerOffArea":"【单台区停电】停崔迪城17号【纯农排变】","powerOffReason":"【停电原因】由于处理紧急缺陷导致１１０ＫＶ沙口变电站迪城线５７７线路崔迪城１７号公变台区停电 【变更送电】无 【发布渠道】通过９５５９８发布","powerOffId":"2019072613000541"},{"poweroffId":2019072613000533,"sgpoweroffId":null,"subsName":"","lineName":"迪城线577","pubTranName":"肖迪城5号【纯农排变】,","scope":"【影响街道/乡镇】大因镇 【高危重要客户】无 【影响客户】肖迪城村","startTime":"2019-07-27 06:00:00","stopDate":"2019-07-27 17:00:00","orgNo":"1340605","typeCode":"其他临时停电","poweroffArea":"【单台区停电】停肖迪城5号【纯农排变】","poweroffReason":"【停电原因】由于处理紧急缺陷导致１１０ＫＶ沙口变电站迪城线５７７线路５号公变台区停电 【变更送电】无 【发布渠道】通过９５５９８发布","powerTime":"2019-07-27 16:21:19","powerComm":"已送电","subsNo":"","lineNo":"","tgNo":"","tgName":null,"infoStatus":"1","orgName":"国网徐水县供电公司","typeName":null,"infoStatusName":null,"dateDay":null,"orgNos":null,"nowTime":null,"countyName":null,"streetName":null,"villageName":null,"roadName":null,"communityName":null,"tranName":null,"sdLineName":null,"cityCode":"1340605","cityName":"国网徐水县供电公司","provinceCode":null,"stopTime":"2019-07-27 17:00:00","powerType":"全部","powerOffArea":"【单台区停电】停肖迪城5号【纯农排变】","powerOffReason":"【停电原因】由于处理紧急缺陷导致１１０ＫＶ沙口变电站迪城线５７７线路５号公变台区停电 【变更送电】无 【发布渠道】通过９５５９８发布","powerOffId":"2019072613000533"},{"poweroffId":2019072613000532,"sgpoweroffId":null,"subsName":"","lineName":"10kV568楮岗线","pubTranName":"李东综合6台区,蠡县蠡南道桥工程队,李西农排5台区【纯农排变】,褚岗综合2台区,李西综合13台区变压器,李东农排1台区【纯农排变】,李东综合8台区,李东农排6台区【纯农排变】,李西农排8台区【纯农排变】,李东农排2台区【纯农排变】,李东老开,李西综合12台区,李东农排16台区【纯农排变】,李东综合9台区,褚岗综合8台区,李东农排15台区【纯农排变】,褚岗综合1台区,李东农排14台区【纯农排变】,李西农排6台区【纯农排变】,褚岗农排2台区【纯农排变】,李东综合1台区,(李岗）李西农排7台区【纯农排变】,李西建军,花厂小,李东农排12台区【纯农排变】,李东农排3台区【纯农排变】,蠡县李岗纺织厂,蠡县华奥工艺制香厂,褚岗综合7台区,褚岗农排12台区【纯农排变】,李东建昌,李西综合7台区,李西综合2台区,李南红秋,李东综合3台区,褚岗织带厂,褚岗农排9台区【纯农排变】,蠡县冰晴面粉厂变压器安装,李西综合4台区,蠡县李岗义恒汽车装饰用品厂变压器,李东综合4台区,李西综合10台区,李西农排9台区【纯农排变】,李西综合9台区,褚岗农排11台区【纯农排变】,李东农排11台区【纯农排变】,褚岗综合6台区,李东农排13台区【纯农排变】,李东综合5台区,0469451304-蠡县强力织业有限公司-专变-226973810-强力纺织,蠡县丹麦种貂养殖有限公司变压器,天鹅面粉厂,李西农排10台区【纯农排变】,李东农排9台区【纯农排变】,李东农排5台区【纯农排变】,李西综合3台区,棉油厂,褚岗农排7台区【纯农排变】,褚岗综合3台区,李东综合7台区,李西综合1台区,李东综合2台区,褚岗农排3台区【纯农排变】,李东二强,李东农排7台区【纯农排变】,蠡县亚强苗木农民专业合作社,蠡县凯驰汽车用品制造有限公司变压器,褚岗农排4台区【纯农排变】,褚岗综合5台区,李东农排4台区【纯农排变】,李西综合5台区,李岗强带厂,褚岗综合4台区,李西农排4台区【纯农排变】,李西农排11台区【纯农排变】,褚岗农排8台区【纯农排变】,李西综合6台区【纯农排变】,李西农排12台区【纯农排变】,褚岗农排6台区【纯农排变】,褚岗农排10台区【纯农排变】,加油站,料厂变压器,李西农排2台区【纯农排变】,褚岗农排5台区【纯农排变】,李东小群,李西综合11台区,李东农排10台区【纯农排变】,花厂大,李西综合8台区,粮站,褚岗农排1台区【纯农排变】,","scope":"【影响街道/乡镇】南庄镇【高危重要客户】无【影响客户】褚岗村、李岗西村（李西）、李岗东村（李东）、李岗南村（李南）","startTime":"2019-07-26 17:58:16","stopDate":"2019-07-26 19:00:00","orgNo":"1340616","typeCode":"电网故障停限电","poweroffArea":"【全线路停电】停褚岗综合5台区,李西农排8台区【纯农排变】,李东综合6台区,褚岗农排8台区【纯农排变】,李西农排12台区【纯农排变】,褚岗综合4台区,李西农排6台区【纯农排变】,李东综合8台区,李西农排9台区【纯农排变】,李东老开,李西综合5台区,蠡县华奥工艺制香厂,李东农排4台区【纯农排变】,褚岗综合1台区,褚岗农排3台区【纯农排变】,李东二强,棉油厂,褚岗综合8台区,加油站,李东农排10台区【纯农排变】,李西农排10台区【纯农排变】,李西综合12台区合8台区,","poweroffReason":"【停电原因】由于站外开关掉闸导致１１０ＫＶ南庄变电站１０ＫＶ楮岗５６８线路全线停电【变更送电】因抢修进度加快原因，送电时间由２１:００变更为１９:００【发布渠道】通过９５５９８发布","powerTime":"2019-07-26 18:43:44","powerComm":"已送电","subsNo":"","lineNo":"","tgNo":"","tgName":null,"infoStatus":"1","orgName":"国网蠡县供电公司","typeName":null,"infoStatusName":null,"dateDay":null,"orgNos":null,"nowTime":null,"countyName":null,"streetName":null,"villageName":null,"roadName":null,"communityName":null,"tranName":null,"sdLineName":null,"cityCode":"1340616","cityName":"国网蠡县供电公司","provinceCode":null,"stopTime":"2019-07-26 19:00:00","powerType":"全部","powerOffArea":"【全线路停电】停褚岗综合5台区,李西农排8台区【纯农排变】,李东综合6台区,褚岗农排8台区【纯农排变】,李西农排12台区【纯农排变】,褚岗综合4台区,李西农排6台区【纯农排变】,李东综合8台区,李西农排9台区【纯农排变】,李东老开,李西综合5台区,蠡县华奥工艺制香厂,李东农排4台区【纯农排变】,褚岗综合1台区,褚岗农排3台区【纯农排变】,李东二强,棉油厂,褚岗综合8台区,加油站,李东农排10台区【纯农排变】,李西农排10台区【纯农排变】,李西综合12台区合8台区,","powerOffReason":"【停电原因】由于站外开关掉闸导致１１０ＫＶ南庄变电站１０ＫＶ楮岗５６８线路全线停电【变更送电】因抢修进度加快原因，送电时间由２１:００变更为１９:００【发布渠道】通过９５５９８发布","powerOffId":"2019072613000532"},{"poweroffId":2019072613000531,"sgpoweroffId":null,"subsName":"","lineName":"10kV512台头线","pubTranName":"定州市砖路镇潘村村民委员会 绿色家园公用变压器,北古山公用照明4台区,台头村公用照明6台区,台头村公用农业8台区【纯农排变】,台头村公用农业2台区【纯农排变】,北古山公用照明3台区,潘村公用农业6台区【纯农排变】,北渠河公用农业10台区【纯农排变】,潘村公用照明11台区,0657741442-定州市砖路镇台头村村民委员会 盛世佳苑-专变-190906605-定州市砖路镇台头村村民委员会 盛世佳苑照明变压器2,台头村公用照明2台区,南古山公用照明4台区,南古山公用农业2台区【纯农排变】,岸下公用农业5台区【纯农排变】,潘村公用照明13台区,潘村公用农业7台区【纯农排变】,毛巾厂院内,台头公用照明18台区,定州市保军水泥砖厂变压器,潘村公用农业5台区【纯农排变】,北古山村公用照明2台区,台头公用照明10台区,清辛庄公用农业9台区【纯农排变】,台头公用照明14台区,定州市砖路镇人民政府变压器,北古山公用农业2台区【纯农排变】,南古山公用照明2台区,潘村公用照明14台区,台头村公用照明3台区,定州市砖路镇悟村村民委员会（悟村5号）,台头公用农业14台区【纯农排变】,潘村公用照明12台区,定州市砖路镇台头村村民委员会变压器,南古山公用农业3台区【纯农排变】,定州市永兴棉织厂变压器,潘村电信局,定州市中良肉业有限公司变压器,潘村公用照明9台区,潘村面粉厂,台头公用照明15台区,南古山公用照明3台区,台头村公用农业4台区【纯农排变】,台头村公用农业3台区【纯农排变】,潘村公用照明10台区,定州市德康祥肉业有限公司变压器,定州市台头小学,北京织绒,潘村公用农业9台区【纯农排变】,台头村公用农业1台区【纯农排变】,潘村冷库,台头村公用照明1台区,潘村公用照明7台区,客户投资_台头公用照明8台区,变压器,北古山公用农业4台区【纯农排变】,潘村公用照明5台区,潘村公用农业4台区【纯农排变】,潘村公用照明8台区,岸下公用农业2台区【纯农排变】,台头村公用照明4台区,台头村公用照明5台区,北古山村公用照明1台区,清辛庄公用农业8台区【纯农排变】,台头公用照明12台区,台头公用照明11台区,河北通达养殖有限公司变压器,河北金宏清真肉类有限公司变压器,定州市绿野养殖有限公司变压器,台头公用照明16台区,岸下公用农业3台区【纯农排变】,台头村公用农业5台区【纯农排变】,河北亿华食品有限公司变压器,北古山公用农业1台区【纯农排变】,北沿公用农业2台区【纯农排变】,丰华冷库,定州市砖路镇潘村村民委员会 绿色家园照明变压器2,台头村公用农业9台区【纯农排变】,潘村公用照明6台区,台头公用照明13台区,岸下公用农业4台区【纯农排变】,定州市砖路镇悟村村民委员会（悟村北外三号）,0657741442-定州市砖路镇台头村村民委员会 盛世佳苑-专变-190906602-定州市砖路镇台头村村民委员会 盛世佳苑照明变压器1,台头村公用农业13台区【纯农排变】,潘村公用照明1台区,南古山公用农业1台区【纯农排变】,定州市潘村京康肉食品厂变压器,南渠河公用农业2台区【纯农排变】,南渠河公用农业3台区【纯农排变】,台头村公用照明7台区,南古山村公用照明1台区,台头村公用农业","scope":"【影响街道/乡镇】砖路镇【高危重要客户】无【影响客户】台头村、潘村、南古山村、北古山村、岸下村","startTime":"2019-07-26 17:54:45","stopDate":"2019-07-26 20:30:00","orgNo":"1340610","typeCode":"电网故障停限电","poweroffArea":"【全线路停电】停南渠河公用农业6台区【纯农排变】,南渠河公用农业1台区【纯农排变】,潘村公用照明4台区,岸下公用农业1台区【纯农排变】,北古山公用农业3台区【纯农排变】,定州市砖路镇台头村村民委员会 盛世佳苑公用变压器,台头冷库,台头公用照明17台区,定州市砖路镇潘村村民委员会 绿色家园公用变压器,台头村公用照明6台区,台头村公用农业8台区【纯农排变】,台头村公用农业2台区【纯农排变】,北古山公用照明3台区,潘村公用农业6台区【纯农排变】,北渠河公用农业10台区【纯农排变】,潘村公用照明11台区,0657741442-定州市砖路镇台头村村民委员会 盛世佳苑-专变-190906605-定州市砖路镇台头村村民委员会 盛世佳苑照明变压器2,台头村公用照明2台区,南古山公用照明4台区,南古山公用农业2台区【纯农排变】,岸下公用农业5台区【纯农排变】,潘村公用照明13台区,潘村公用农业7台区【纯农排变】,毛巾厂院内,台头公用照明18台区,定州市保军水泥砖厂变压器,潘村公用农业5台区【纯农排变】,北古山村公用照明2台区,台头公用照明10台区,清辛庄公用农业9台区【纯农排变】,台头公用照明14台区,定州市砖路镇人民政府变压器,北古山公用农业2台区【纯农排变】,南古山公用照明2台区,潘村公用照明14台区,台头村公用照明3台区,定州市砖路镇悟村村民委员会（悟村5号）,台头公用农业14台区【纯农排变】,潘村公用照明12台区,定州市砖路镇台头村村民委员会变压器,南古山公用农业3台区【纯农排变】,定州市永兴棉织厂变压器,潘村电信局,定州市中良肉业有限公司变压器,潘村公用照明9台区,潘村面粉厂,台头公用照明15台区,南古山公用照明3台区,台头村公用农业4台区【纯农排变】,台头村公用农业3台区【纯农排变】,潘村公用照明10台区,定州市德康祥肉业有限公司变压器,北古山公用照明4台区,潘村公用农业9台区【纯农排变】,台头村公用农业1台区【纯农排变】,潘村冷库,台头村公用照明1台区,潘村公用照明7台区,客户投资_台头公用照明8台区,变压器,北古山公用农业4台区【纯农排变】,潘村公用照明5台区,台头公用照明11台区,潘村公用农业4台区【纯农排变】,潘村公用照明8台区,岸下公用农业2台区【纯农排变】,台头村公用照明4台区,台头村公用照明5台区,北古山村公用照明1台区,清辛庄公用农业8台区【纯农排变】,台头公用照明12台区,河北通达养殖有限公司变压器,河北金宏清真肉类有限公司变压器,定州市绿野养殖有限公司变压器,丰华冷库,台头公用照明16台区,南古山村公用照明1台区,岸下公用农业3台区【纯农排变】,台头村公用农业5台区【纯农排变】,河北亿华食品有限公司变压器,北古山公用农业1台区【纯农排变】,北沿公用农业2台区【纯农排变】,定州市砖路镇潘村村民委员会 绿色家园照明变压器2,台头村公用农业9台区【纯农排变】,潘村公用照明6台区,台头公用照明13台区,岸下公用农业4台区【纯农排变】,定州市台头小学,北京织绒,清辛庄公用农业10台区【纯农排变】,台头村公用农业7台区【纯农排变】,台头公用照明9台区,南古山公用农业4台区【纯农排变】,潘村公用照明2台区,潘村公用照明3台区,定州市砖路镇悟村村民委员会（悟村村东）,定州市砖路镇悟村村民委员会（悟村四号）,潘村公用农业1台区【纯农排变】,台头村公用农业6台区【纯农排变】,台头村公用农业12台区【纯农排变】,定州市砖路镇潘村村民委员会 绿色家园照明变压器1,定州市砖路镇屠宰场,定州市砖路镇悟村村民委员会（悟村北外三号）,065","poweroffReason":"【停电原因】由于主干５３号杆Ｂ相弓子线烧断导致３５ＫＶ吴家庄变电站１０ＫＶ５１２台头线路全线停电 【变更送电】因抢修进度加快原因，送电时间由２３：５９变更为２０：３０ 【发布渠道】９５５９８","powerTime":"2019-07-26 19:59:54","powerComm":"已送电","subsNo":"","lineNo":"","tgNo":"","tgName":null,"infoStatus":"1","orgName":"国网定州市供电公司","typeName":null,"infoStatusName":null,"dateDay":null,"orgNos":null,"nowTime":null,"countyName":null,"streetName":null,"villageName":null,"roadName":null,"communityName":null,"tranName":null,"sdLineName":null,"cityCode":"1340610","cityName":"国网定州市供电公司","provinceCode":null,"stopTime":"2019-07-26 20:30:00","powerType":"全部","powerOffArea":"【全线路停电】停南渠河公用农业6台区【纯农排变】,南渠河公用农业1台区【纯农排变】,潘村公用照明4台区,岸下公用农业1台区【纯农排变】,北古山公用农业3台区【纯农排变】,定州市砖路镇台头村村民委员会 盛世佳苑公用变压器,台头冷库,台头公用照明17台区,定州市砖路镇潘村村民委员会 绿色家园公用变压器,台头村公用照明6台区,台头村公用农业8台区【纯农排变】,台头村公用农业2台区【纯农排变】,北古山公用照明3台区,潘村公用农业6台区【纯农排变】,北渠河公用农业10台区【纯农排变】,潘村公用照明11台区,0657741442-定州市砖路镇台头村村民委员会 盛世佳苑-专变-190906605-定州市砖路镇台头村村民委员会 盛世佳苑照明变压器2,台头村公用照明2台区,南古山公用照明4台区,南古山公用农业2台区【纯农排变】,岸下公用农业5台区【纯农排变】,潘村公用照明13台区,潘村公用农业7台区【纯农排变】,毛巾厂院内,台头公用照明18台区,定州市保军水泥砖厂变压器,潘村公用农业5台区【纯农排变】,北古山村公用照明2台区,台头公用照明10台区,清辛庄公用农业9台区【纯农排变】,台头公用照明14台区,定州市砖路镇人民政府变压器,北古山公用农业2台区【纯农排变】,南古山公用照明2台区,潘村公用照明14台区,台头村公用照明3台区,定州市砖路镇悟村村民委员会（悟村5号）,台头公用农业14台区【纯农排变】,潘村公用照明12台区,定州市砖路镇台头村村民委员会变压器,南古山公用农业3台区【纯农排变】,定州市永兴棉织厂变压器,潘村电信局,定州市中良肉业有限公司变压器,潘村公用照明9台区,潘村面粉厂,台头公用照明15台区,南古山公用照明3台区,台头村公用农业4台区【纯农排变】,台头村公用农业3台区【纯农排变】,潘村公用照明10台区,定州市德康祥肉业有限公司变压器,北古山公用照明4台区,潘村公用农业9台区【纯农排变】,台头村公用农业1台区【纯农排变】,潘村冷库,台头村公用照明1台区,潘村公用照明7台区,客户投资_台头公用照明8台区,变压器,北古山公用农业4台区【纯农排变】,潘村公用照明5台区,台头公用照明11台区,潘村公用农业4台区【纯农排变】,潘村公用照明8台区,岸下公用农业2台区【纯农排变】,台头村公用照明4台区,台头村公用照明5台区,北古山村公用照明1台区,清辛庄公用农业8台区【纯农排变】,台头公用照明12台区,河北通达养殖有限公司变压器,河北金宏清真肉类有限公司变压器,定州市绿野养殖有限公司变压器,丰华冷库,台头公用照明16台区,南古山村公用照明1台区,岸下公用农业3台区【纯农排变】,台头村公用农业5台区【纯农排变】,河北亿华食品有限公司变压器,北古山公用农业1台区【纯农排变】,北沿公用农业2台区【纯农排变】,定州市砖路镇潘村村民委员会 绿色家园照明变压器2,台头村公用农业9台区【纯农排变】,潘村公用照明6台区,台头公用照明13台区,岸下公用农业4台区【纯农排变】,定州市台头小学,北京织绒,清辛庄公用农业10台区【纯农排变】,台头村公用农业7台区【纯农排变】,台头公用照明9台区,南古山公用农业4台区【纯农排变】,潘村公用照明2台区,潘村公用照明3台区,定州市砖路镇悟村村民委员会（悟村村东）,定州市砖路镇悟村村民委员会（悟村四号）,潘村公用农业1台区【纯农排变】,台头村公用农业6台区【纯农排变】,台头村公用农业12台区【纯农排变】,定州市砖路镇潘村村民委员会 绿色家园照明变压器1,定州市砖路镇屠宰场,定州市砖路镇悟村村民委员会（悟村北外三号）,065","powerOffReason":"【停电原因】由于主干５３号杆Ｂ相弓子线烧断导致３５ＫＶ吴家庄变电站１０ＫＶ５１２台头线路全线停电 【变更送电】因抢修进度加快原因，送电时间由２３：５９变更为２０：３０ 【发布渠道】９５５９８","powerOffId":"2019072613000531"},{"poweroffId":2019072613000518,"sgpoweroffId":null,"subsName":"","lineName":"下北头线519","pubTranName":"519下北头线菜村岗1,斗军湾村1号【2018光伏扶贫电站】,奥强铁选厂,菜村岗村光伏变压器【光伏】,涞源县白石山镇石窝村村民委员会变压器,涞源县白石山镇菜村岗村村民委员会变压器,涞源华中假日酒店有限公司变压器,石窝3台区,519下北头线菜村岗2,石窝2台区,民爆公司,斗军湾村5台区变压器,菜村岗4台区,金猪旺养殖公司,龙腾草炭厂2,涞源县长信房地产开发有限公司变压器,宝泽峰矿业公司,天美旅游开发有限公司变压器,519下北头线斗军湾1,519下北头线下北头北,519下北头线灵吉2,519下北头线庄伙4,涞源华中房地产开发有限公司变压器,白石山镇政府,冀北养殖园变压器,通达铸造厂,斗军湾村2号【2018光伏扶贫电站】,涞源县金猪旺畜禽养殖有限公司变压器,中国人民解放军61469部队32分队变压器,涞源县住房和城乡建设局变压器,涞源县白石山镇卫生院变压器,斗军湾村4号【2018光伏扶贫电站】,519下北头线斗军湾4,变压器,涞源县白石山镇中心小学灵吉小学变压器,河北中凯建设工程有限公司变压器,519下北头线斗军湾2,中国移动通信集团河北有限公司涞源分公司变压器,华中云栖白桦温泉健身变压器,519下北头线下北头5台区,斗军湾草碳厂,61469营部,菜村岗中学,519下北头线庄伙1,519下北头线斗军湾3,涞源县谷润农副食品加工厂有限公司变压器,石窝台区,519下北头线庄伙2,519下北头线灵吉1,涞源县太行建筑有限公司变压器,斗军湾村3号【2018光伏扶贫电站】,涞源县森木养殖场变压器,下北头村光伏变压器【光伏】,519下北头线庄伙6,519下北头线庄伙3,519下北头线灵吉3,0687945250-涞源华中假日酒店有限公司-专变-228705676-涞源华中假日酒店有限公司变压器6,519下北头线下北头南,519下北头线庄伙5,涞源县明德小学变压器,","scope":"【影响街道/乡镇】白石山镇【高危重要客户】无【影响客户】下北头村、庄伙、菜村岗、斗军湾、灵吉、石窝","startTime":"2019-08-07 05:00:00","stopDate":"2019-08-07 10:00:00","orgNo":"1340615","typeCode":"计划停电","poweroffArea":"【全线路停电】停涞源华中房地产开发有限公司变压器,519下北头线菜村岗1,斗军湾村1号【2018光伏扶贫电站】,奥强铁选厂,菜村岗村光伏变压器【光伏】,涞源县白石山镇石窝村村民委员会变压器,涞源县白石山镇菜村岗村村民委员会变压器,涞源华中假日酒店有限公司变压器,石窝3台区,519下北头线菜村岗2,石窝2台区,民爆公司,斗军湾村5台区变压器,菜村岗4台区,金猪旺养殖公司,龙腾草炭厂2,涞源县长信房地产开发有限公司变压器,宝泽峰矿业公司,天美旅游开发有限公司变压器,519下北头线斗军湾1,519下北头线下北头北,519下北头线灵吉2,519下北头线庄伙4,涞源县白石山镇卫生院变压器,斗军湾村4号【2018光伏扶贫电站】,519下北头线斗军湾4,涞源县森木养殖场变压器,白石山镇政府,冀北养殖园变压器,通达铸造厂,斗军湾村2号【2018光伏扶贫电站】,涞源县金猪旺畜禽养殖有限公司变压器,中国人民解放军61469部队32分队变压器,涞源县住房和城乡建设局变压器,变压器,涞源县白石山镇中心小学灵吉小学变压器,河北中凯建设工程有限公司变压器,519下北头线斗军湾2,中国移动通信集团河北有限公司涞源分公司变压器,华中云栖白桦温泉健身变压器,519下北头线下北头5台区,斗军湾草碳厂,61469营部,菜村岗中学,519下北头线庄伙1,519下北头线斗军湾3,涞源县谷润农副食品加工厂有限公司变压器,石窝台区,519下北头线庄伙2,519下北头线灵吉1,涞源县太行建筑有限公司变压器,斗军湾村3号【2018光伏扶贫电站】,下北头村光伏变压器【光伏】,519下北头线庄伙6,519下北头线庄伙3,519下北头线灵吉3,0687945250-涞源华中假日酒店有限公司-专变-228705676-涞源华中假日酒店有限公司变压器6,519下北头线下北头南,519下北头线庄伙5,涞源县明德小学变压器","poweroffReason":"【停电原因】由于更换导线、安装断路器导致１１０ＫＶ涞源变电站１０ＫＶ下北头线５１９线路全线停电【变更送电】无【发布渠道】涞源电视台（２０１９年７月２６日至２０１９年８月６日）屏幕上方滚动","powerTime":"2019-08-07 09:56:06","powerComm":"已送电","subsNo":"","lineNo":"","tgNo":"","tgName":null,"infoStatus":"1","orgName":"国网涞源县供电公司","typeName":null,"infoStatusName":null,"dateDay":null,"orgNos":null,"nowTime":null,"countyName":null,"streetName":null,"villageName":null,"roadName":null,"communityName":null,"tranName":null,"sdLineName":null,"cityCode":"1340615","cityName":"国网涞源县供电公司","provinceCode":null,"stopTime":"2019-08-07 10:00:00","powerType":"全部","powerOffArea":"【全线路停电】停涞源华中房地产开发有限公司变压器,519下北头线菜村岗1,斗军湾村1号【2018光伏扶贫电站】,奥强铁选厂,菜村岗村光伏变压器【光伏】,涞源县白石山镇石窝村村民委员会变压器,涞源县白石山镇菜村岗村村民委员会变压器,涞源华中假日酒店有限公司变压器,石窝3台区,519下北头线菜村岗2,石窝2台区,民爆公司,斗军湾村5台区变压器,菜村岗4台区,金猪旺养殖公司,龙腾草炭厂2,涞源县长信房地产开发有限公司变压器,宝泽峰矿业公司,天美旅游开发有限公司变压器,519下北头线斗军湾1,519下北头线下北头北,519下北头线灵吉2,519下北头线庄伙4,涞源县白石山镇卫生院变压器,斗军湾村4号【2018光伏扶贫电站】,519下北头线斗军湾4,涞源县森木养殖场变压器,白石山镇政府,冀北养殖园变压器,通达铸造厂,斗军湾村2号【2018光伏扶贫电站】,涞源县金猪旺畜禽养殖有限公司变压器,中国人民解放军61469部队32分队变压器,涞源县住房和城乡建设局变压器,变压器,涞源县白石山镇中心小学灵吉小学变压器,河北中凯建设工程有限公司变压器,519下北头线斗军湾2,中国移动通信集团河北有限公司涞源分公司变压器,华中云栖白桦温泉健身变压器,519下北头线下北头5台区,斗军湾草碳厂,61469营部,菜村岗中学,519下北头线庄伙1,519下北头线斗军湾3,涞源县谷润农副食品加工厂有限公司变压器,石窝台区,519下北头线庄伙2,519下北头线灵吉1,涞源县太行建筑有限公司变压器,斗军湾村3号【2018光伏扶贫电站】,下北头村光伏变压器【光伏】,519下北头线庄伙6,519下北头线庄伙3,519下北头线灵吉3,0687945250-涞源华中假日酒店有限公司-专变-228705676-涞源华中假日酒店有限公司变压器6,519下北头线下北头南,519下北头线庄伙5,涞源县明德小学变压器","powerOffReason":"【停电原因】由于更换导线、安装断路器导致１１０ＫＶ涞源变电站１０ＫＶ下北头线５１９线路全线停电【变更送电】无【发布渠道】涞源电视台（２０１９年７月２６日至２０１９年８月６日）屏幕上方滚动","powerOffId":"2019072613000518"},{"poweroffId":2019072613000505,"sgpoweroffId":null,"subsName":"","lineName":"10KV金运513","pubTranName":"涞水永盛石灰制造有限公司315KVA专变,涞水县永盛石灰制造有限公司315KVA专变,国维建材厂315,永盛石灰制造有限公司315KVA专变,国维建材厂,","scope":"【影响街道/乡镇】明义镇 【高危重要客户】无 【影响客户】国维建材厂、永盛石灰制造有限公司","startTime":"2019-07-27 05:00:00","stopDate":"2019-07-27 06:30:00","orgNo":"1340614","typeCode":"其他临时停电","poweroffArea":"【全线路停电】停国维建材厂,涞水永盛石灰制造有限公司315KVA专变,涞水县永盛石灰制造有限公司315KVA专变,国维建材厂315,永盛石灰制造有限公司315KVA专变","poweroffReason":"【停电原因】由于倒运行方式导致３５ＫＶ明义变电站１０ＫＶ金运５１３线路全线停电 【变更送电】无 【发布渠道】通过９５５９８发布","powerTime":"2019-07-27 06:07:37","powerComm":"已送电","subsNo":"","lineNo":"","tgNo":"","tgName":null,"infoStatus":"1","orgName":"国网涞水县供电公司","typeName":null,"infoStatusName":null,"dateDay":null,"orgNos":null,"nowTime":null,"countyName":null,"streetName":null,"villageName":null,"roadName":null,"communityName":null,"tranName":null,"sdLineName":null,"cityCode":"1340614","cityName":"国网涞水县供电公司","provinceCode":null,"stopTime":"2019-07-27 06:30:00","powerType":"全部","powerOffArea":"【全线路停电】停国维建材厂,涞水永盛石灰制造有限公司315KVA专变,涞水县永盛石灰制造有限公司315KVA专变,国维建材厂315,永盛石灰制造有限公司315KVA专变","powerOffReason":"【停电原因】由于倒运行方式导致３５ＫＶ明义变电站１０ＫＶ金运５１３线路全线停电 【变更送电】无 【发布渠道】通过９５５９８发布","powerOffId":"2019072613000505"},{"poweroffId":2019072613000504,"sgpoweroffId":null,"subsName":"","lineName":"百泉线518","pubTranName":"四通煤厂,黄金山,大顺达煤站,518百泉线新街新村2号台区,南关关里西(市场),南关小学箱变出线间隔配电变压器,农业局家属楼,西关摩擦厂,518百泉线南关关里西,518百泉线刘栋公用配变,西关老虎头2台区,西关老虎头,南关瓦窑箱变出线间隔配电变压器,518百泉线新街新村,邮政局,涞源县银诺建筑防水工程有限公司变压器,518百泉线新街后地,518百泉线南关瓦窑2#,518百泉线南关华荣公司,西关箱变5#出线间隔配电变压器,518百泉线新街上关,涞源站518杏花湾接待中心,涞源县鸿丰达水泥制品有限公司变压器,涞源县第一小学城关校区变压器,西关大队西环,518百泉线南山假日台区,南关大桥路灯,西关木龙坝,蓬天阁酒家,518百泉线南关学校变压器,涞源县鼎宇物业服务有限公司变压器,旧车站变压器,518百泉线新街河滩新上,双祥箱变7#出线间隔配电变压器,267路灯变压器,石油公司加油站,派出所,保定通源公司,辛虎,涞源站518鼎宇物业台区,电力宾馆,518百泉线硕丰园台区公用配变,西关石桥2,518百泉线西关石桥,移动箱变8#出线间隔配电变压器,涞源县祥通公交客运有限公司变压器,西关老龙堂2,新街箱变4#出线间隔配电变压器,西美小区出线间隔配电变压器,南山路箱变6#出线间隔配电变压器,涞源县诚达商贸有限公司,南关小学,西关箱变2#出线间隔配电变压器,涞源县华荣酒店有限公司变压器,西关老虎头3号变压器,中国移动通信集团有限公司涞源分公司变压器,518百泉线西关二0九,518百泉线西关独山城新区,龙凤庄园,西关新村配变,变压器,西关箱变1#出线间隔配电变压器,瑞旺煤站,新街盐业公司变压器,518百泉线太平关新南,源峰煤站,518百泉线太平关油站新,涞源县三利钢球厂变压器,西关箱变3#出线间隔配电变压器,木楦厂,天顺矿选机械修造厂,0469542686-潘英鹤-专变-46835550-潘英鹤,","scope":"【影响街道/乡镇】１０８国道、城区办【高危重要客户】无【影响客户】太平关村、南关村、西关村、新街村、旗山市场、文化馆家属楼、教育局家属楼、自来水公司家属楼、盐业公司家属楼、农业局家属楼、城关派出所、双祥小区、南山高层、上关、南关小学、涞源县第三幼儿园","startTime":"2019-08-06 01:00:00","stopDate":"2019-08-06 05:00:00","orgNo":"1340615","typeCode":"计划停电","poweroffArea":"【全线路停电】停涞源县鼎宇物业服务有限公司变压器,旧车站变压器,518百泉线新街河滩新上,双祥箱变7#出线间隔配电变压器,267路灯变压器,石油公司加油站,派出所,保定通源公司,辛虎,涞源站518鼎宇物业台区,电力宾馆,518百泉线硕丰园台区公用配变,西关石桥2,518百泉线西关石桥,移动箱变8#出线间隔配电变压器,涞源县祥通公交客运有限公司变压器,西关老龙堂2,新街箱变4#出线间隔配电变压器,西美小区出线间隔配电变压器,南山路箱变6#出线间隔配电变压器,涞源县诚达商贸有限公司,南关小学,西关箱变2#出线间隔配电变压器,涞源县华荣酒店有限公司变压器,西关老虎头3号变压器,中国移动通信集团有限公司涞源分公司变压器,518百泉线西关二0九,518百泉线西关独山城新区,龙凤庄园,西关新村配变,变压器,西关箱变1#出线间隔配电变压器,瑞旺煤站,新街盐业公司变压器,518百泉线太平关新南,源峰煤站,518百泉线太平关油站新,涞源县三利钢球厂变压器,西关箱变3#出线间隔配电变压器,木楦厂,天顺矿选机械修造厂,0469542686-潘英鹤-专变-46835550-潘英鹤,518百泉线南关学校变压器,518百泉线南山假日台区,南关大桥路灯,西关木龙坝,蓬天阁酒家,四通煤厂,黄金山,大顺达煤站,518百泉线新街新村2号台区,南关关里西(市场),南关小学箱变出线间隔配电变压器,农业局家属楼,西关摩擦厂,518百泉线南关关里西,518百泉线刘栋公用配变,西关老虎头2台区,西关老虎头,南关瓦窑箱变出线间隔配电变压器,518百泉线新街新村,邮政局,涞源县银诺建筑防水工程有限公司变压器,518百泉线新街后地,518百泉线南关瓦窑2#,518百泉线南关华荣公司,西关箱变5#出线间隔配电变压器,518百泉线新街上关,涞源站518杏花湾接待中心,涞源县鸿丰达水泥制品有限公司变压器,涞源县第一小学城关校区变压器,西关大队西环","poweroffReason":"【停电原因】由于配变分支接引导致１１０ＫＶ涞源变电站１０ＫＶ百泉线５１８线路全线停电【变更送电】无【发布渠道】涞源电视台（２０１９年７月２６日至２０１９年８月５日）屏幕上方滚动","powerTime":"2019-08-06 04:49:56","powerComm":"已送电","subsNo":"","lineNo":"","tgNo":"","tgName":null,"infoStatus":"1","orgName":"国网涞源县供电公司","typeName":null,"infoStatusName":null,"dateDay":null,"orgNos":null,"nowTime":null,"countyName":null,"streetName":null,"villageName":null,"roadName":null,"communityName":null,"tranName":null,"sdLineName":null,"cityCode":"1340615","cityName":"国网涞源县供电公司","provinceCode":null,"stopTime":"2019-08-06 05:00:00","powerType":"全部","powerOffArea":"【全线路停电】停涞源县鼎宇物业服务有限公司变压器,旧车站变压器,518百泉线新街河滩新上,双祥箱变7#出线间隔配电变压器,267路灯变压器,石油公司加油站,派出所,保定通源公司,辛虎,涞源站518鼎宇物业台区,电力宾馆,518百泉线硕丰园台区公用配变,西关石桥2,518百泉线西关石桥,移动箱变8#出线间隔配电变压器,涞源县祥通公交客运有限公司变压器,西关老龙堂2,新街箱变4#出线间隔配电变压器,西美小区出线间隔配电变压器,南山路箱变6#出线间隔配电变压器,涞源县诚达商贸有限公司,南关小学,西关箱变2#出线间隔配电变压器,涞源县华荣酒店有限公司变压器,西关老虎头3号变压器,中国移动通信集团有限公司涞源分公司变压器,518百泉线西关二0九,518百泉线西关独山城新区,龙凤庄园,西关新村配变,变压器,西关箱变1#出线间隔配电变压器,瑞旺煤站,新街盐业公司变压器,518百泉线太平关新南,源峰煤站,518百泉线太平关油站新,涞源县三利钢球厂变压器,西关箱变3#出线间隔配电变压器,木楦厂,天顺矿选机械修造厂,0469542686-潘英鹤-专变-46835550-潘英鹤,518百泉线南关学校变压器,518百泉线南山假日台区,南关大桥路灯,西关木龙坝,蓬天阁酒家,四通煤厂,黄金山,大顺达煤站,518百泉线新街新村2号台区,南关关里西(市场),南关小学箱变出线间隔配电变压器,农业局家属楼,西关摩擦厂,518百泉线南关关里西,518百泉线刘栋公用配变,西关老虎头2台区,西关老虎头,南关瓦窑箱变出线间隔配电变压器,518百泉线新街新村,邮政局,涞源县银诺建筑防水工程有限公司变压器,518百泉线新街后地,518百泉线南关瓦窑2#,518百泉线南关华荣公司,西关箱变5#出线间隔配电变压器,518百泉线新街上关,涞源站518杏花湾接待中心,涞源县鸿丰达水泥制品有限公司变压器,涞源县第一小学城关校区变压器,西关大队西环","powerOffReason":"【停电原因】由于配变分支接引导致１１０ＫＶ涞源变电站１０ＫＶ百泉线５１８线路全线停电【变更送电】无【发布渠道】涞源电视台（２０１９年７月２６日至２０１９年８月５日）屏幕上方滚动","powerOffId":"2019072613000504"}],"pageModel":{"pageNow":771,"totalCount":10973,"totalPage":1098,"tableRows":0,"pageCount":10,"beginCount":7700},"isExperi":"1"}