{"message":"","today":"2020-06-15","seleList":[{"poweroffId":2019072613000250,"sgpoweroffId":null,"subsName":"","lineName":"城区线519","pubTranName":"永兴28号(城内水井),","scope":"【影响街道/乡镇】安肃镇 【高危重要客户】无 【影响客户】城内中大街、工商银行家属院、尚书胡同","startTime":"2019-07-26 13:15:00","stopDate":"2019-07-26 20:00:00","orgNo":"1340605","typeCode":"其他临时停电","poweroffArea":"【单台区停电】停永兴28号(城内水井)","poweroffReason":"【停电原因】由于处理紧急缺陷导致１１０ＫＶ徐水变电站城区５１９线路永兴２８号公变台区停电 【变更送电】因工作未完成原因，送电时间由１５:３０变更为２０:００ 【发布渠道】通过９５５９８发布","powerTime":"2019-07-26 19:12:34","powerComm":"已送电","subsNo":"","lineNo":"","tgNo":"","tgName":null,"infoStatus":"1","orgName":"国网徐水县供电公司","typeName":null,"infoStatusName":null,"dateDay":null,"orgNos":null,"nowTime":null,"countyName":null,"streetName":null,"villageName":null,"roadName":null,"communityName":null,"tranName":null,"sdLineName":null,"cityCode":"1340605","cityName":"国网徐水县供电公司","provinceCode":null,"stopTime":"2019-07-26 20:00:00","powerType":"全部","powerOffArea":"【单台区停电】停永兴28号(城内水井)","powerOffReason":"【停电原因】由于处理紧急缺陷导致１１０ＫＶ徐水变电站城区５１９线路永兴２８号公变台区停电 【变更送电】因工作未完成原因，送电时间由１５:３０变更为２０:００ 【发布渠道】通过９５５９８发布","powerOffId":"2019072613000250"},{"poweroffId":2019072613000247,"sgpoweroffId":null,"subsName":"","lineName":"10kV545米家营线","pubTranName":"米家营1号,米家营5号【纯农排变】,米家营9号【纯农排变】,","scope":"【影响街道/乡镇】漕河乡 【高危重要客户】无 【影响客户】米家营村","startTime":"2019-07-26 13:10:00","stopDate":"2019-07-26 16:30:00","orgNo":"1340605","typeCode":"其他临时停电","poweroffArea":"【分支停电】停米家营1号,米家营5号【纯农排变】,米家营9号【纯农排变】","poweroffReason":"【停电原因】由于处理紧急缺陷导致１１０ＫＶ留村变电站米家营５４５线路米家营１号杆分段开关以下线路停电 【变更送电】因抢修进度加快原因，送电时间由１８:００变更为１６:３０ 【发布渠道】通过９５５９８发布","powerTime":"2019-07-26 15:50:24","powerComm":"已送电","subsNo":"","lineNo":"","tgNo":"","tgName":null,"infoStatus":"1","orgName":"国网徐水县供电公司","typeName":null,"infoStatusName":null,"dateDay":null,"orgNos":null,"nowTime":null,"countyName":null,"streetName":null,"villageName":null,"roadName":null,"communityName":null,"tranName":null,"sdLineName":null,"cityCode":"1340605","cityName":"国网徐水县供电公司","provinceCode":null,"stopTime":"2019-07-26 16:30:00","powerType":"全部","powerOffArea":"【分支停电】停米家营1号,米家营5号【纯农排变】,米家营9号【纯农排变】","powerOffReason":"【停电原因】由于处理紧急缺陷导致１１０ＫＶ留村变电站米家营５４５线路米家营１号杆分段开关以下线路停电 【变更送电】因抢修进度加快原因，送电时间由１８:００变更为１６:３０ 【发布渠道】通过９５５９８发布","powerOffId":"2019072613000247"},{"poweroffId":2019072613000229,"sgpoweroffId":null,"subsName":"","lineName":"10kV518南邑线","pubTranName":"10KV518南邑线芦村02001台区变压器【纯农排变】,保定旺源食品有限公司,10KV518南邑线南邑村内83062台区变压器,10KV518南邑线02020台区变压器【纯农排变】,博茂金属制品有限公司,10KV518南邑线芦村02103变压器,10KV518南邑线02012台区变压器,10KV518南邑线卢村村东74908台区变压器,10KV518南邑线北邑村东照明分支02008台区变压器,10KV518南邑线线邓庄西北02015台区变压器【纯农排变】,10kv518南邑线南邑12565台区变压器【纯农排变】,冀中漆业,10kv518南邑线南邑12563台区变压器,10KV518南邑线南邑12562台区变压器【纯农排变】,10kv518南邑线芦村新增台区变压器【纯农排变】,10KV518南邑线02090台区变压器,博野县永兴衬布有限公司,0579969773-博野县民政局(养老院)-专变-124466815-博野县民政局,10kv518南邑线邓庄83879台区变压器,10KV518南邑线南邑村内分支02025台区变压器,北邑冀中油漆厂,博野县诚信肉食加工厂,10KV518南邑线主干6558台区变压器,10kv518南邑线北邑占良新增台区变压器【纯农排变】,10KV518南邑线邓庄84839台区变压器,10KV518南邑线02092台区变压器,10KV518南邑线02016台区变压器【纯农排变】,10KV518南邑线12742台区变压器【纯农排变】,博野县文池工业水泵配件加工点,10KV518南邑线邓庄02112台区变压器,10KV518南邑线北邑02017台区变压器【纯农排变】,10KV518南邑线南邑16585台区变压器,10KV518南邑线北邑02018台区变压器【纯农排变】,10KV518南邑线南邑02085台区变压器,10KV518南邑线北邑02011台区变压器,冀中漆业有限公司,10KV518南邑线南邑村内分支47246台区变压器,10kv51南邑线新增芦村02088台区变压器【纯农排变】,10kv518南邑线南邑村02115台区变压器,河北盛方园制桶有限公司,10KV518南邑线南邑20889台区变压器,10KV518南邑线02013台区变压器【纯农排变】,10KV518南邑线北邑56849台区变压器,10KV518南邑线南邑村西02006台区变压器,10KV518南邑线北邑02009台区变压器,10kV518南邑线芦村村东02104台区变压器,10KV518南邑线邓庄村北02033台区变压器,博野县鼎鑫纺织有限公司,10KV518南邑线宏鑫家园小区91529台区变压器,10KV518南邑线南邑21390台区变压器,北邑浆纱厂,10KV518南邑线南邑村内分支02073台区变压器,10kv518南邑线南邑照明42140台区变压器,10KV518南邑线屯庄02099台区变压器,10KV518南邑线北邑02007台区变压器,南邑村40014,10KV518南邑线02091台区变压器,10KV518南邑线02098台区变压器【纯农排变】,张利平,10KV518南邑线02094台区变压器【纯农排变】,10kv5","scope":"【影响街道/乡镇】北杨村乡【高危重要客户】无【影响客户】南邑、北邑、邓庄、芦村、初蕾油漆","startTime":"2019-07-26 11:18:15","stopDate":"2019-07-26 14:00:00","orgNo":"1340608","typeCode":"电网故障停限电","poweroffArea":"【全线路停电】停10kv518南邑线南邑村02115台区变压器,10KV518南邑线芦村02103变压器,10kv518南邑线南邑照明42140台区变压器,10KV518南邑线北邑02017台区变压器【纯农排变】,保定旺源食品有限公司,10KV518南邑线北邑02018台区变压器【纯农排变】,10KV518南邑线南邑20889台区变压器,博野县鼎鑫纺织有限公司,10KV518南邑线南邑12562台区变压器【纯农排变】,10kv518南邑线邓庄83879台区变压器,10KV518南邑线02013台区变压器【纯农排变】,10KV518南邑线12742台区变压器【纯农排变】,博野县博世达无纺织品公司,10KV518南邑线芦村02001台区变压器【纯农排变】,10KV518南邑线屯庄02003台区变压器,10KV518南邑线邓庄村北02033台区变压器,10KV518南邑线北邑02007台区变压器,10kV518南邑线南邑村北02005台区变压器,10KV518南邑线屯庄02099台区变压器,10KV518南邑线南邑村内分支02075台区变压器,10KV518南邑线宏鑫家园小区91529台区变压器,博野县文池工业水泵配件加工点,10KV518南邑线主干6558台区变压器,10KV518南邑线南邑村内分支47246台区变压器,10KV518南邑线南邑村内分支02025台区变压器,10KV518南邑线南邑18360台区变压器,0469538407-鑫源化工厂-专变-46834665-鑫源化工厂,张利平,10KV518南邑线南邑村西02006台区变压器,10KV518南邑线02090台区变压器,冀中漆业有限公司,博茂金属制品有限公司,10KV518南邑线02020台区变压器【纯农排变】,10KV518南邑线02098台区变压器【纯农排变】,10KV518南邑线邓庄村内分支02060台区变压器,10kv518南邑线邓庄小山新增台区变压器【纯农排变】,10KV518南邑线02092台区变压器,10KV518南邑线南邑村内分支02073台区变压器,0579969773-博野县民政局(养老院)-专变-124466815-博野县民政局,10kv518南邑线南邑12563台区变压器,10KV518南邑线南邑粮站内02023台区变压器,10kv518南邑线北邑村南41933台区变压器,10KV518南邑线02094台区变压器【纯农排变】,10KV518南邑线02012台区变压器,10KV518南邑线线邓庄西北02015台区变压器【纯农排变】,10KV518南邑线邓庄02112台区变压器,10kv518南邑线芦村新增台区变压器【纯农排变】,10KV518南邑线邓庄村内西分支02053台区变压器,10KV518南邑线南邑21390台区变压器,10KV518南邑线南邑02085台区变压器,国税所,10KV518南邑线南邑16585台区变压器,南邑村40014,博野县永兴衬布有限公司,10KV518南邑线北邑村东照明分支02008台区变压器,10kv518南邑线南邑12569台区变压器,10kV518南邑线芦村村东02104台区变压器,10KV518南邑线02019台区变压器【纯农排变】,10KV518南邑线邓庄84839台区变压器,10kv518南邑线南邑12565台区变压器【纯农排变】,河北盛方园制桶有限公司,北邑浆纱厂,北邑冀中油漆厂,10kv518南邑线北邑彦宾新增台区变压器【纯农排变】,10KV518南邑线邓庄村02111台区变压器【纯农排变】,10kv51南邑线新增芦村02088台区变压器【纯农排变】,10KV518南邑线屯庄分支02100台区变压器【纯农排变】,10KV518南邑线主干18358台区变压器,10KV518南邑线02031台区变压器,10KV518南邑线北邑02009台区变压器,10KV518南邑线北邑56849台区变压器,10KV518南邑线芦村02002台区变压器【纯农排变】,10kv518南邑线北邑占良新增台区变压器【纯农排变】,冀中漆业,博茂织布厂,10KV518南邑线南邑村内83062台区变压器,博野县诚信肉食加工厂,10KV518南邑线主干02083台区变压器【纯农排变】,10KV518南邑线卢村村东74908台区变压器,10KV518南邑线02091台区变压器,10KV518南邑线02016台区变压器【纯农排变】,10KV518南邑线北邑02011台区变压器,10KV518南邑线北邑02010台区变压器,10kv518南邑线南邑村南42403台区变压器【纯农排变】","poweroffReason":"【停电原因】由于低压线断导致１１０ＫＶ博野变电站南邑５１８线路全线停电【变更送电】因抢修进度加快原因，送电时间由１８：００变更为１４：００【发布渠道】通过９５５９８发布","powerTime":"2019-07-26 13:10:48","powerComm":"已送电","subsNo":"","lineNo":"","tgNo":"","tgName":null,"infoStatus":"1","orgName":"国网博野县供电公司","typeName":null,"infoStatusName":null,"dateDay":null,"orgNos":null,"nowTime":null,"countyName":null,"streetName":null,"villageName":null,"roadName":null,"communityName":null,"tranName":null,"sdLineName":null,"cityCode":"1340608","cityName":"国网博野县供电公司","provinceCode":null,"stopTime":"2019-07-26 14:00:00","powerType":"全部","powerOffArea":"【全线路停电】停10kv518南邑线南邑村02115台区变压器,10KV518南邑线芦村02103变压器,10kv518南邑线南邑照明42140台区变压器,10KV518南邑线北邑02017台区变压器【纯农排变】,保定旺源食品有限公司,10KV518南邑线北邑02018台区变压器【纯农排变】,10KV518南邑线南邑20889台区变压器,博野县鼎鑫纺织有限公司,10KV518南邑线南邑12562台区变压器【纯农排变】,10kv518南邑线邓庄83879台区变压器,10KV518南邑线02013台区变压器【纯农排变】,10KV518南邑线12742台区变压器【纯农排变】,博野县博世达无纺织品公司,10KV518南邑线芦村02001台区变压器【纯农排变】,10KV518南邑线屯庄02003台区变压器,10KV518南邑线邓庄村北02033台区变压器,10KV518南邑线北邑02007台区变压器,10kV518南邑线南邑村北02005台区变压器,10KV518南邑线屯庄02099台区变压器,10KV518南邑线南邑村内分支02075台区变压器,10KV518南邑线宏鑫家园小区91529台区变压器,博野县文池工业水泵配件加工点,10KV518南邑线主干6558台区变压器,10KV518南邑线南邑村内分支47246台区变压器,10KV518南邑线南邑村内分支02025台区变压器,10KV518南邑线南邑18360台区变压器,0469538407-鑫源化工厂-专变-46834665-鑫源化工厂,张利平,10KV518南邑线南邑村西02006台区变压器,10KV518南邑线02090台区变压器,冀中漆业有限公司,博茂金属制品有限公司,10KV518南邑线02020台区变压器【纯农排变】,10KV518南邑线02098台区变压器【纯农排变】,10KV518南邑线邓庄村内分支02060台区变压器,10kv518南邑线邓庄小山新增台区变压器【纯农排变】,10KV518南邑线02092台区变压器,10KV518南邑线南邑村内分支02073台区变压器,0579969773-博野县民政局(养老院)-专变-124466815-博野县民政局,10kv518南邑线南邑12563台区变压器,10KV518南邑线南邑粮站内02023台区变压器,10kv518南邑线北邑村南41933台区变压器,10KV518南邑线02094台区变压器【纯农排变】,10KV518南邑线02012台区变压器,10KV518南邑线线邓庄西北02015台区变压器【纯农排变】,10KV518南邑线邓庄02112台区变压器,10kv518南邑线芦村新增台区变压器【纯农排变】,10KV518南邑线邓庄村内西分支02053台区变压器,10KV518南邑线南邑21390台区变压器,10KV518南邑线南邑02085台区变压器,国税所,10KV518南邑线南邑16585台区变压器,南邑村40014,博野县永兴衬布有限公司,10KV518南邑线北邑村东照明分支02008台区变压器,10kv518南邑线南邑12569台区变压器,10kV518南邑线芦村村东02104台区变压器,10KV518南邑线02019台区变压器【纯农排变】,10KV518南邑线邓庄84839台区变压器,10kv518南邑线南邑12565台区变压器【纯农排变】,河北盛方园制桶有限公司,北邑浆纱厂,北邑冀中油漆厂,10kv518南邑线北邑彦宾新增台区变压器【纯农排变】,10KV518南邑线邓庄村02111台区变压器【纯农排变】,10kv51南邑线新增芦村02088台区变压器【纯农排变】,10KV518南邑线屯庄分支02100台区变压器【纯农排变】,10KV518南邑线主干18358台区变压器,10KV518南邑线02031台区变压器,10KV518南邑线北邑02009台区变压器,10KV518南邑线北邑56849台区变压器,10KV518南邑线芦村02002台区变压器【纯农排变】,10kv518南邑线北邑占良新增台区变压器【纯农排变】,冀中漆业,博茂织布厂,10KV518南邑线南邑村内83062台区变压器,博野县诚信肉食加工厂,10KV518南邑线主干02083台区变压器【纯农排变】,10KV518南邑线卢村村东74908台区变压器,10KV518南邑线02091台区变压器,10KV518南邑线02016台区变压器【纯农排变】,10KV518南邑线北邑02011台区变压器,10KV518南邑线北邑02010台区变压器,10kv518南邑线南邑村南42403台区变压器【纯农排变】","powerOffReason":"【停电原因】由于低压线断导致１１０ＫＶ博野变电站南邑５１８线路全线停电【变更送电】因抢修进度加快原因，送电时间由１８：００变更为１４：００【发布渠道】通过９５５９８发布","powerOffId":"2019072613000229"},{"poweroffId":2019072613000224,"sgpoweroffId":null,"subsName":"","lineName":"10kV北郭下线565","pubTranName":"林家庄村南2台区,林家庄村东混,林家庄变压器,林家庄村西混,林家庄村东2台区,","scope":"【影响街道/乡镇】胡家庄乡 【高危重要客户】无 【影响客户】林家庄村","startTime":"2019-07-27 04:00:00","stopDate":"2019-07-27 08:00:00","orgNo":"1340614","typeCode":"其他临时停电","poweroffArea":"【分支停电】停林家庄村南2台区,林家庄村东混,林家庄变压器,林家庄村西混,林家庄村东2台区","poweroffReason":"【停电原因】由于设备线夹打火需停电进行紧急消缺导致１１０ＫＶ郭下变电站１０ＫＶ北郭下线５６５线路０１号杆至３０号杆停电 【变更送电】无 【发布渠道】通过９５５９８发布","powerTime":"2019-07-27 07:51:00","powerComm":"已送电","subsNo":"","lineNo":"","tgNo":"","tgName":null,"infoStatus":"1","orgName":"国网涞水县供电公司","typeName":null,"infoStatusName":null,"dateDay":null,"orgNos":null,"nowTime":null,"countyName":null,"streetName":null,"villageName":null,"roadName":null,"communityName":null,"tranName":null,"sdLineName":null,"cityCode":"1340614","cityName":"国网涞水县供电公司","provinceCode":null,"stopTime":"2019-07-27 08:00:00","powerType":"全部","powerOffArea":"【分支停电】停林家庄村南2台区,林家庄村东混,林家庄变压器,林家庄村西混,林家庄村东2台区","powerOffReason":"【停电原因】由于设备线夹打火需停电进行紧急消缺导致１１０ＫＶ郭下变电站１０ＫＶ北郭下线５６５线路０１号杆至３０号杆停电 【变更送电】无 【发布渠道】通过９５５９８发布","powerOffId":"2019072613000224"},{"poweroffId":2019072613000215,"sgpoweroffId":null,"subsName":"","lineName":"狮后街线552","pubTranName":"高碑店市路灯管理办公室,八堵墙南台变压器,高碑店市星光玻璃幕墙工程有限公司变压器,高碑店市路灯管理办公室变压器,光为绿色新能源股份有限公司变压器,高碑店市硕恒门窗制造有限责任公司变压器,高碑店市坤达房地产开发有限公司3,高碑店市坤达房地产开发有限公司,河北高碑店市经济开发管理委员会100变压器,亢龙房地产集团有限公司2#变压器,高碑店市坤达房地产开发有限公司2,狮后街排灌变压器【纯农排变】,高碑店市气象局,高碑店市星光玻璃幕墙工程有限公司2,河北巨能锅炉集团有限公司,河北鼎泰华奥投资有限公司变压器,高碑店市坤达房地产开发有限公司备用3,高碑店市铁岩钢板桩有限公司1,高碑店市坤达房地产开发有限公司备用2,高碑店市方隆电气设备有限公司变压器,高碑店市铁岩钢板桩有限公司变压器,高碑店市铁岩钢板桩有限公司2,河北群翔采暖设备有限公司2#变压器,河北奥润顺达窗业有限公司变压器,河北群翔采暖设备有限公司3#变压器,河北达奥达建材科技股份有限公司,河北如峰机电设备科技有限公司变压器,保定光为绿色能源科技有限公司,高碑店市和通工业园区开发有限公司变压器,高碑店市隆跃工业园区开发有限公司,河北鼎泰华奥投资有限公司630变压器,河北合创建筑节能科技有限责任公司,高碑店市迎君玻璃有限公司,高碑店市铁岩钢板桩有限公司3,河北天启通宇航空器材科技发展有限公司变压器,高碑店市邦运物流有限公司,高碑店市坤达房地产开发有限公司备用4,高碑店市星光玻璃幕墙工程有限公司1,石家庄面,河北隆新德澳集成房屋科技有限公司,龚永旗八堵墙砖厂,华电高科（高碑店）环保技术有限公司变压器,河北高碑店市经济开发管理委员会变压器,高碑店市昆仲伟业机械制造有限公司变压器,河北博克力佳电器有限公司变压器,高碑店市源满商贸有限公司,八堵墙新变压器,高碑店市高碑店鑫达模具加工部变压器,亢龙房地产集团有限公司1#变压器,新凯汽车集团有限公司,高碑店市坤达房地产开发有限公司4,高碑店市隆兴商品混凝土有限公司,河北群翔采暖设备有限公司1#变压器,高碑店市坤达房地产开发有限公司备用1,","scope":"【影响街道/乡镇】方官镇 【高危重要客户】气象局、隆兴搅拌站 【影响客户】八堵墙村、河北博克力佳电器有限公司、河北鼎泰华奥投资有限公司、胜利化工设备有限公司、方隆电气设备有限公司、经济开发管理委员会、河北奥润顺达窗业有限公司、河北群翔采暖设备有限公司、石家庄面粉厂、高碑店市隆跃工业园区开发有限公司、和通工业园区开发有限公司、光为绿色新能源股份有限公司、新凯汽车集团有限公司、铁岩钢板桩有限公司、华电高科（高碑店）环保技术有限公司、河北优品科技有限公司、高碑店鑫达模具加工部、昆仲伟业机械制造有限公司、河北巨能锅炉集团、星光玻璃幕墙、高碑店市硕恒门窗制造有限责任公司、河北天启通宇航空器材科技发展有限公司、河北合创建筑节能科技有限责任公司、坤达房地产","startTime":"2019-07-26 10:57:00","stopDate":"2019-07-26 12:00:00","orgNo":"1340612","typeCode":"电网故障停限电","poweroffArea":"【全线路停电】停河北高碑店市经济开发管理委员会100变压器,高碑店市路灯管理办公室,八堵墙南台变压器,高碑店市星光玻璃幕墙工程有限公司变压器,高碑店市路灯管理办公室变压器,光为绿色新能源股份有限公司变压器,高碑店市硕恒门窗制造有限责任公司变压器,高碑店市坤达房地产开发有限公司3,高碑店市坤达房地产开发有限公司,亢龙房地产集团有限公司2#变压器,高碑店市坤达房地产开发有限公司2,狮后街排灌变压器【纯农排变】,高碑店市气象局,高碑店市星光玻璃幕墙工程有限公司2,河北巨能锅炉集团有限公司,河北鼎泰华奥投资有限公司变压器,高碑店市坤达房地产开发有限公司备用3,高碑店市铁岩钢板桩有限公司1,高碑店市坤达房地产开发有限公司备用2,河北群翔采暖设备有限公司1#变压器,高碑店市坤达房地产开发有限公司备用1,河北博克力佳电器有限公司变压器,高碑店市源满商贸有限公司,八堵墙新变压器,高碑店市高碑店鑫达模具加工部变压器,亢龙房地产集团有限公司1#变压器,新凯汽车集团有限公司,高碑店市方隆电气设备有限公司变压器,高碑店市铁岩钢板桩有限公司变压器,高碑店市铁岩钢板桩有限公司2,河北群翔采暖设备有限公司2#变压器,河北奥润顺达窗业有限公司变压器,河北群翔采暖设备有限公司3#变压器,河北达奥达建材科技股份有限公司,河北如峰机电设备科技有限公司变压器,保定光为绿色能源科技有限公司,高碑店市和通工业园区开发有限公司变压器,高碑店市隆跃工业园区开发有限公司,河北鼎泰华奥投资有限公司630变压器,河北合创建筑节能科技有限责任公司,高碑店市迎君玻璃有限公司,高碑店市铁岩钢板桩有限公司3,河北天启通宇航空器材科技发展有限公司变压器,高碑店市邦运物流有限公司,高碑店市坤达房地产开发有限公司备用4,高碑店市星光玻璃幕墙工程有限公司1,石家庄面,河北隆新德澳集成房屋科技有限公司,龚永旗八堵墙砖厂,华电高科（高碑店）环保技术有限公司变压器,河北高碑店市经济开发管理委员会变压器,高碑店市昆仲伟业机械制造有限公司变压器,高碑店市坤达房地产开发有限公司4,高碑店市隆兴商品混凝土有限公司","poweroffReason":"【停电原因】由于主干３８号杆北分支电缆被挖断导致１１０ＫＶ方官变电站１０ＫＶ狮后街５５２线路全线停电 【变更送电】因抢修进度加快原因，送电时间由１８：００变更为１２：００ 【发布渠道】通过９５５９８发布","powerTime":"2019-07-26 11:34:04","powerComm":"已送电","subsNo":"","lineNo":"","tgNo":"","tgName":null,"infoStatus":"1","orgName":"国网高碑店市供电公司","typeName":null,"infoStatusName":null,"dateDay":null,"orgNos":null,"nowTime":null,"countyName":null,"streetName":null,"villageName":null,"roadName":null,"communityName":null,"tranName":null,"sdLineName":null,"cityCode":"1340612","cityName":"国网高碑店市供电公司","provinceCode":null,"stopTime":"2019-07-26 12:00:00","powerType":"全部","powerOffArea":"【全线路停电】停河北高碑店市经济开发管理委员会100变压器,高碑店市路灯管理办公室,八堵墙南台变压器,高碑店市星光玻璃幕墙工程有限公司变压器,高碑店市路灯管理办公室变压器,光为绿色新能源股份有限公司变压器,高碑店市硕恒门窗制造有限责任公司变压器,高碑店市坤达房地产开发有限公司3,高碑店市坤达房地产开发有限公司,亢龙房地产集团有限公司2#变压器,高碑店市坤达房地产开发有限公司2,狮后街排灌变压器【纯农排变】,高碑店市气象局,高碑店市星光玻璃幕墙工程有限公司2,河北巨能锅炉集团有限公司,河北鼎泰华奥投资有限公司变压器,高碑店市坤达房地产开发有限公司备用3,高碑店市铁岩钢板桩有限公司1,高碑店市坤达房地产开发有限公司备用2,河北群翔采暖设备有限公司1#变压器,高碑店市坤达房地产开发有限公司备用1,河北博克力佳电器有限公司变压器,高碑店市源满商贸有限公司,八堵墙新变压器,高碑店市高碑店鑫达模具加工部变压器,亢龙房地产集团有限公司1#变压器,新凯汽车集团有限公司,高碑店市方隆电气设备有限公司变压器,高碑店市铁岩钢板桩有限公司变压器,高碑店市铁岩钢板桩有限公司2,河北群翔采暖设备有限公司2#变压器,河北奥润顺达窗业有限公司变压器,河北群翔采暖设备有限公司3#变压器,河北达奥达建材科技股份有限公司,河北如峰机电设备科技有限公司变压器,保定光为绿色能源科技有限公司,高碑店市和通工业园区开发有限公司变压器,高碑店市隆跃工业园区开发有限公司,河北鼎泰华奥投资有限公司630变压器,河北合创建筑节能科技有限责任公司,高碑店市迎君玻璃有限公司,高碑店市铁岩钢板桩有限公司3,河北天启通宇航空器材科技发展有限公司变压器,高碑店市邦运物流有限公司,高碑店市坤达房地产开发有限公司备用4,高碑店市星光玻璃幕墙工程有限公司1,石家庄面,河北隆新德澳集成房屋科技有限公司,龚永旗八堵墙砖厂,华电高科（高碑店）环保技术有限公司变压器,河北高碑店市经济开发管理委员会变压器,高碑店市昆仲伟业机械制造有限公司变压器,高碑店市坤达房地产开发有限公司4,高碑店市隆兴商品混凝土有限公司","powerOffReason":"【停电原因】由于主干３８号杆北分支电缆被挖断导致１１０ＫＶ方官变电站１０ＫＶ狮后街５５２线路全线停电 【变更送电】因抢修进度加快原因，送电时间由１８：００变更为１２：００ 【发布渠道】通过９５５９８发布","powerOffId":"2019072613000215"},{"poweroffId":2019072613000202,"sgpoweroffId":null,"subsName":"","lineName":"大龙华线517","pubTranName":"大龙华村4#|村东,尧舜口村1#|村中,东三里铺3#,鹁鸽岩村2#|村中,东三里铺村1#|村中,杨格庄村1#|村中,龙堂村1#|村北,赵家沟村1#|村南,河北村1#|村东,酸枣沟村3#村东,马兰台村3#村南,赵家沟村4#|村北,杨格庄村2#|村北,大龙华村8#,龙塘村2#村东,尧舜口村5#村南,赵家沟村5#,刘家沟村9#,东三里铺2#,大南头村2#村东,小龙华村2#|村西,马兰台村2#村南,鹁鸽岩村4#村东,酸枣沟村2#|村南,小寨村3#|村西,赵家沟村3#|村中,大龙华村1#|村南,尧舜口村4#村东,野里店村1#|村西,杨格庄村3#村北,刘家沟村1#|村南,酸枣沟村1#|村北,刘家沟村6#村中,大龙华5#,赵家沟村2#|村中,小龙华村3#,小龙华村4#,马兰台村1#|村中,马兰台村4#村中,小龙华村1#|村东,大龙华村3#|村东,刘家沟村7#村北,尧舜口村3#|村东,龙华乡政府,刘家沟村2#|村中,东三里铺村5#村南,小寨村4#村南,河北村2#|村西,刘家沟村5#村南,刘家沟村4#|村北,大龙华村2#|村北,华侨陵园,小南头村1#|村东,小寨村1#|村南,鹁鸽岩村3#|村南,鹁鸽岩村1#|村北,河北村3#村南,小寨村2#|村中,大龙华6#村北,大南头村1#|村南,刘家沟村8#村南,","scope":"【影响街道/乡镇】大龙华乡【高危重要客户】无【影响客户】大龙华村、小龙华村、酸枣沟村、小寨村、野里店村、马兰台村、东三里铺村、赵家沟村、刘家沟村、大南头村、尧舜口村、河北村、杨各庄村、龙塘村、鹁鸪岩村、小南头村","startTime":"2019-07-26 10:36:15","stopDate":"2019-07-26 17:00:00","orgNo":"1340625","typeCode":"电网故障停限电","poweroffArea":"【全线路停电】停大龙华村2#|村北,大南头村2#村东,大龙华5#,大龙华6#村北,尧舜口村1#|村中,东三里铺村1#|村中,刘家沟村6#村中,马兰台村4#村中,东三里铺村5#村南,小寨村2#|村中,大龙华村4#|村东,河北村2#|村西,小龙华村2#|村西,龙堂村1#|村北,马兰台村3#村南,鹁鸽岩村2#|村中,野里店村1#|村西,刘家沟村5#村南,刘家沟村9#,小龙华村1#|村东,杨格庄村3#村北,龙华乡政府,小寨村1#|村南,小南头村1#|村东,小寨村4#村南,龙塘村2#村东,鹁鸽岩村3#|村南,大龙华村8#,杨格庄村2#|村北,马兰台村2#村南,华侨陵园,小龙华村3#,马兰台村1#|村中,刘家沟村4#|村北,河北村3#村南,刘家沟村8#村南,尧舜口村5#村南,杨格庄村1#|村中,赵家沟村3#|村中,尧舜口村4#村东,小寨村3#|村西,东三里铺3#,鹁鸽岩村1#|村北,大龙华村3#|村东,赵家沟村4#|村北,刘家沟村2#|村中,大龙华村1#|村南,酸枣沟村1#|村北,酸枣沟村3#村东,刘家沟村1#|村南,大南头村1#|村南,鹁鸽岩村4#村东,尧舜口村3#|村东,赵家沟村1#|村南,赵家沟村2#|村中,酸枣沟村2#|村南,赵家沟村5#,河北村1#|村东,东三里铺2#,小龙华村4#,刘家沟村7#村北","poweroffReason":"【停电原因】由于站内开关烧毁导致１１０ＫＶ西陵变电站大龙华５１７线路全线停电【变更送电】无【发布渠道】通过９５５９８发布","powerTime":"2019-07-26 16:14:18","powerComm":"已送电","subsNo":"","lineNo":"","tgNo":"","tgName":null,"infoStatus":"1","orgName":"国网易县供电公司","typeName":null,"infoStatusName":null,"dateDay":null,"orgNos":null,"nowTime":null,"countyName":null,"streetName":null,"villageName":null,"roadName":null,"communityName":null,"tranName":null,"sdLineName":null,"cityCode":"1340625","cityName":"国网易县供电公司","provinceCode":null,"stopTime":"2019-07-26 17:00:00","powerType":"全部","powerOffArea":"【全线路停电】停大龙华村2#|村北,大南头村2#村东,大龙华5#,大龙华6#村北,尧舜口村1#|村中,东三里铺村1#|村中,刘家沟村6#村中,马兰台村4#村中,东三里铺村5#村南,小寨村2#|村中,大龙华村4#|村东,河北村2#|村西,小龙华村2#|村西,龙堂村1#|村北,马兰台村3#村南,鹁鸽岩村2#|村中,野里店村1#|村西,刘家沟村5#村南,刘家沟村9#,小龙华村1#|村东,杨格庄村3#村北,龙华乡政府,小寨村1#|村南,小南头村1#|村东,小寨村4#村南,龙塘村2#村东,鹁鸽岩村3#|村南,大龙华村8#,杨格庄村2#|村北,马兰台村2#村南,华侨陵园,小龙华村3#,马兰台村1#|村中,刘家沟村4#|村北,河北村3#村南,刘家沟村8#村南,尧舜口村5#村南,杨格庄村1#|村中,赵家沟村3#|村中,尧舜口村4#村东,小寨村3#|村西,东三里铺3#,鹁鸽岩村1#|村北,大龙华村3#|村东,赵家沟村4#|村北,刘家沟村2#|村中,大龙华村1#|村南,酸枣沟村1#|村北,酸枣沟村3#村东,刘家沟村1#|村南,大南头村1#|村南,鹁鸽岩村4#村东,尧舜口村3#|村东,赵家沟村1#|村南,赵家沟村2#|村中,酸枣沟村2#|村南,赵家沟村5#,河北村1#|村东,东三里铺2#,小龙华村4#,刘家沟村7#村北","powerOffReason":"【停电原因】由于站内开关烧毁导致１１０ＫＶ西陵变电站大龙华５１７线路全线停电【变更送电】无【发布渠道】通过９５５９８发布","powerOffId":"2019072613000202"},{"poweroffId":2019072613000191,"sgpoweroffId":null,"subsName":"","lineName":"10KV长空路518","pubTranName":"华欣小区（新）,西辛庄村西南,9715家属院（新）,北京供电段,涿州市京热热力有限责任公司,涿州市时代汇元物业服务有限公司,三合庄南地变压器,涿州市宏远房地产开发有限公司1,西河建筑队,涿州金利房地产开发有限公司8,涿州市广远物业服务有限公司,建材公司,龙马铝业集团有限公司变压器,涿州市物资燃料股份合作公司,应化研究所,企业局,涿州市宏远房地产开发有限公司2,中国石油化工股份有限公司河北涿州石油分公,燃料公司(燃料小区),涿州市宏远房地产开发有限公司3,土地局,涿州市市政设施管理处,西辛庄0440,涿州金利房地产开发有限公司6,涿州市宏远房地产开发有限公司,涿州金利房地产开发有限公司7,长空路南段公变(新),生产公司,市政设施管理处,涿州市和谐房地产开发有限公司,0589046635-涿州市名流物业服务有限公司-专变-125417909-河北省汲涿州远方名流房地产开发有限公司,0387557106-涿州市宏远小区-专变-45356484-涿州市宏远小区,粮食局东库小区（新）【纯农排变】,市政公司(宏远小区),涿州市鑫昊汇元集团房地产开发有限公司2,涿州市恒运房地产开发有限公司,联合小区4号院,东关新村小区,邱庄250(4),宏远房地产,东关新村温馨小区,涿州市双塔街道办事处东关社区居民委员会,涿州市飞腾房地产开发有限公司1,涿州市梓通清洗有限公司,长空路北段公用（新）,涿州金利房地产开发有限公司1,中国农业银行股份有限公司涿州市支行,清凉寺卫生院,涿州市飞腾房地产开发有限公司2,涿州金利房地产开发有限公司5,涿州市鑫昊汇元集团房地产开发有限公司1,涿州金利房地产开发有限公司2,涿州金利房地产开发有限公司4,农畜局家属院（新）【纯农排变】,物资局小区（新）,涿州金利房地产开发有限公司3,涿州市博豪物业服务有限公司,","scope":"【影响街道/乡镇】清凉寺城区范阳路、长空路、教军场街、范阳路立交桥东街、强空路、安康街 【高危重要客户】无 【影响客户】物资局小区、９４家属院（新兴化工厂家属院）、华欣小区、西辛庄、农畜局家属院、建材公司、西河建筑队、东关新村小区、粮局东库小区、联合小区４号院、东关社区居民委员会、燃料公司小区、温馨小区、市政设施管理处、土地局、邱庄村、企业局、设计院、和谐家园、交警家园、农业银行、时代汇元(四季橙小区)、宏远小区、碧罗湾、广远物业（保险公司家属院）、生产公司、石油公司、博豪物业、航空路金属结构厂、七建、长天小区、北京供电段、金利物业（金品时代小区）、飞腾房地产开发有限公司、邱庄小区、教军场设计院、旺红发百货批发、建厂局设计院、宏远２号院、龙马人才家园、北关村、善水永丽小区、西道元村、桃园中学家属院、东方丽景小区、农业小区、检察院家属院、农业局、东林家园","startTime":"2019-07-25 22:00:00","stopDate":"2019-07-26 11:30:00","orgNo":"1340626","typeCode":"电网故障停限电","poweroffArea":"【分支停电】停涿州市广远物业服务有限公司,农畜局家属院（新）【纯农排变】,物资局小区（新）,东关新村小区,华欣小区（新）,西辛庄村西南,9715家属院（新）,北京供电段,涿州市京热热力有限责任公司,涿州市时代汇元物业服务有限公司,三合庄南地变压器,涿州市宏远房地产开发有限公司1,西河建筑队,涿州金利房地产开发有限公司8,建材公司,龙马铝业集团有限公司变压器,涿州市物资燃料股份合作公司,应化研究所,企业局,涿州市宏远房地产开发有限公司2,中国石油化工股份有限公司河北涿州石油分公,燃料公司(燃料小区),涿州市宏远房地产开发有限公司3,土地局,涿州市市政设施管理处,西辛庄0440,涿州金利房地产开发有限公司6,涿州市宏远房地产开发有限公司,涿州金利房地产开发有限公司7,长空路南段公变(新),生产公司,市政设施管理处,涿州市和谐房地产开发有限公司,0589046635-涿州市名流物业服务有限公司-专变-125417909-河北省汲涿州远方名流房地产开发有限公司,涿州金利房地产开发有限公司1,中国农业银行股份有限公司涿州市支行,清凉寺卫生院,涿州金利房地产开发有限公司2,0387557106-涿州市宏远小区-专变-45356484-涿州市宏远小区,粮食局东库小区（新）【纯农排变】,市政公司(宏远小区),涿州市鑫昊汇元集团房地产开发有限公司2,涿州市恒运房地产开发有限公司,联合小区4号院,邱庄250(4),宏远房地产,东关新村温馨小区,涿州市双塔街道办事处东关社区居民委员会,涿州市飞腾房地产开发有限公司1,涿州市梓通清洗有限公司,涿州金利房地产开发有限公司3,长空路北段公用（新）,涿州市飞腾房地产开发有限公司2,涿州金利房地产开发有限公司5,涿州市鑫昊汇元集团房地产开发有限公司1,涿州市博豪物业服务有限公司,涿州金利房地产开发有限公司4","poweroffReason":"【停电原因】由于过流跳闸导致３５ＫＶ南河变电站１０ＫＶ长空路５１８线路１４号杆以下线路停电 【变更送电】无 【发布渠道】通过９５５９８发布","powerTime":"2019-07-26 11:12:27","powerComm":"恢复送电","subsNo":"","lineNo":"","tgNo":"","tgName":null,"infoStatus":"1","orgName":"国网涿州市供电公司","typeName":null,"infoStatusName":null,"dateDay":null,"orgNos":null,"nowTime":null,"countyName":null,"streetName":null,"villageName":null,"roadName":null,"communityName":null,"tranName":null,"sdLineName":null,"cityCode":"1340626","cityName":"国网涿州市供电公司","provinceCode":null,"stopTime":"2019-07-26 11:30:00","powerType":"全部","powerOffArea":"【分支停电】停涿州市广远物业服务有限公司,农畜局家属院（新）【纯农排变】,物资局小区（新）,东关新村小区,华欣小区（新）,西辛庄村西南,9715家属院（新）,北京供电段,涿州市京热热力有限责任公司,涿州市时代汇元物业服务有限公司,三合庄南地变压器,涿州市宏远房地产开发有限公司1,西河建筑队,涿州金利房地产开发有限公司8,建材公司,龙马铝业集团有限公司变压器,涿州市物资燃料股份合作公司,应化研究所,企业局,涿州市宏远房地产开发有限公司2,中国石油化工股份有限公司河北涿州石油分公,燃料公司(燃料小区),涿州市宏远房地产开发有限公司3,土地局,涿州市市政设施管理处,西辛庄0440,涿州金利房地产开发有限公司6,涿州市宏远房地产开发有限公司,涿州金利房地产开发有限公司7,长空路南段公变(新),生产公司,市政设施管理处,涿州市和谐房地产开发有限公司,0589046635-涿州市名流物业服务有限公司-专变-125417909-河北省汲涿州远方名流房地产开发有限公司,涿州金利房地产开发有限公司1,中国农业银行股份有限公司涿州市支行,清凉寺卫生院,涿州金利房地产开发有限公司2,0387557106-涿州市宏远小区-专变-45356484-涿州市宏远小区,粮食局东库小区（新）【纯农排变】,市政公司(宏远小区),涿州市鑫昊汇元集团房地产开发有限公司2,涿州市恒运房地产开发有限公司,联合小区4号院,邱庄250(4),宏远房地产,东关新村温馨小区,涿州市双塔街道办事处东关社区居民委员会,涿州市飞腾房地产开发有限公司1,涿州市梓通清洗有限公司,涿州金利房地产开发有限公司3,长空路北段公用（新）,涿州市飞腾房地产开发有限公司2,涿州金利房地产开发有限公司5,涿州市鑫昊汇元集团房地产开发有限公司1,涿州市博豪物业服务有限公司,涿州金利房地产开发有限公司4","powerOffReason":"【停电原因】由于过流跳闸导致３５ＫＶ南河变电站１０ＫＶ长空路５１８线路１４号杆以下线路停电 【变更送电】无 【发布渠道】通过９５５９８发布","powerOffId":"2019072613000191"},{"poweroffId":2019072613000168,"sgpoweroffId":null,"subsName":"","lineName":"南店头线513","pubTranName":"南店头5047,南店头乡政府1792变压器,","scope":"【影响街道/乡镇】南店头乡【高危重要客户】无【影响客户】南店头村乡政府院内、南店头村","startTime":"2019-08-06 06:00:00","stopDate":"2019-08-06 18:00:00","orgNo":"1340622","typeCode":"计划停电","poweroffArea":"【分支停电】停南店头5047,南店头乡政府1792变压器","poweroffReason":"【停电原因】由于更换变压器导致３５ＫＶ北罗变电站南店头线５１３线路南店头５０４７分支００１号杆断路器以下线路停电【变更送电】无【发布渠道】唐县电视台（７月２６日至８月５日的２０：００时至２０：３０时之间）屏幕上方滚动字幕","powerTime":"2019-08-06 17:50:43","powerComm":"已送电","subsNo":"","lineNo":"","tgNo":"","tgName":null,"infoStatus":"1","orgName":"国网唐县供电公司","typeName":null,"infoStatusName":null,"dateDay":null,"orgNos":null,"nowTime":null,"countyName":null,"streetName":null,"villageName":null,"roadName":null,"communityName":null,"tranName":null,"sdLineName":null,"cityCode":"1340622","cityName":"国网唐县供电公司","provinceCode":null,"stopTime":"2019-08-06 18:00:00","powerType":"全部","powerOffArea":"【分支停电】停南店头5047,南店头乡政府1792变压器","powerOffReason":"【停电原因】由于更换变压器导致３５ＫＶ北罗变电站南店头线５１３线路南店头５０４７分支００１号杆断路器以下线路停电【变更送电】无【发布渠道】唐县电视台（７月２６日至８月５日的２０：００时至２０：３０时之间）屏幕上方滚动字幕","powerOffId":"2019072613000168"},{"poweroffId":2019072613000156,"sgpoweroffId":null,"subsName":"","lineName":"白沙线514","pubTranName":"白沙卫生院变压器7920,白沙新增7902,","scope":"【影响街道/乡镇】长古城乡【高危重要客户】无【影响客户】白沙村","startTime":"2019-08-06 06:00:00","stopDate":"2019-08-06 18:00:00","orgNo":"1340622","typeCode":"计划停电","poweroffArea":"【分支停电】停白沙卫生院变压器7920,白沙新增7902","poweroffReason":"【停电原因】由于线路检修导致３５ＫＶ北罗变电站白沙线５１４线路白沙７９０２分支００１号杆以下线路停电【变更送电】无【发布渠道】保定市唐县电视台（０７月２６日至０８月０５日的２０：００时至２０：３０时之间）","powerTime":"2019-08-06 17:51:07","powerComm":"已送电","subsNo":"","lineNo":"","tgNo":"","tgName":null,"infoStatus":"1","orgName":"国网唐县供电公司","typeName":null,"infoStatusName":null,"dateDay":null,"orgNos":null,"nowTime":null,"countyName":null,"streetName":null,"villageName":null,"roadName":null,"communityName":null,"tranName":null,"sdLineName":null,"cityCode":"1340622","cityName":"国网唐县供电公司","provinceCode":null,"stopTime":"2019-08-06 18:00:00","powerType":"全部","powerOffArea":"【分支停电】停白沙卫生院变压器7920,白沙新增7902","powerOffReason":"【停电原因】由于线路检修导致３５ＫＶ北罗变电站白沙线５１４线路白沙７９０２分支００１号杆以下线路停电【变更送电】无【发布渠道】保定市唐县电视台（０７月２６日至０８月０５日的２０：００时至２０：３０时之间）","powerOffId":"2019072613000156"},{"poweroffId":2019072613000151,"sgpoweroffId":null,"subsName":"","lineName":"瀑河线517","pubTranName":"西凡14号,","scope":"【影响街道/乡镇】户木乡 【高危重要客户】无 【影响客户】西凡村","startTime":"2019-07-26 10:40:00","stopDate":"2019-07-26 12:00:00","orgNo":"1340605","typeCode":"其他临时停电","poweroffArea":"【单台区停电】停西凡14号","poweroffReason":"【停电原因】由于处理紧急缺陷导致３５ＫＶ户木变电站瀑河５１７线路西凡１４号公变台区停电 【变更送电】无 【发布渠道】通过９５５９８发布","powerTime":"2019-07-26 11:52:18","powerComm":"已送电","subsNo":"","lineNo":"","tgNo":"","tgName":null,"infoStatus":"1","orgName":"国网徐水县供电公司","typeName":null,"infoStatusName":null,"dateDay":null,"orgNos":null,"nowTime":null,"countyName":null,"streetName":null,"villageName":null,"roadName":null,"communityName":null,"tranName":null,"sdLineName":null,"cityCode":"1340605","cityName":"国网徐水县供电公司","provinceCode":null,"stopTime":"2019-07-26 12:00:00","powerType":"全部","powerOffArea":"【单台区停电】停西凡14号","powerOffReason":"【停电原因】由于处理紧急缺陷导致３５ＫＶ户木变电站瀑河５１７线路西凡１４号公变台区停电 【变更送电】无 【发布渠道】通过９５５９８发布","powerOffId":"2019072613000151"}],"pageModel":{"pageNow":775,"totalCount":10973,"totalPage":1098,"tableRows":0,"pageCount":10,"beginCount":7740},"isExperi":"1"}