{"message":"","today":"2020-06-15","seleList":[{"poweroffId":2019072613000149,"sgpoweroffId":null,"subsName":"","lineName":"瀑河线517","pubTranName":"西凡4号,","scope":"【影响街道/乡镇】户木乡 【高危重要客户】无 【影响客户】西凡村","startTime":"2019-07-26 10:30:00","stopDate":"2019-07-26 12:00:00","orgNo":"1340605","typeCode":"其他临时停电","poweroffArea":"【单台区停电】停西凡4号","poweroffReason":"【停电原因】由于处理紧急缺陷导致３５ＫＶ户木变电站瀑河５１７线路西凡４号公变台区停电 【变更送电】无 【发布渠道】通过９５５９８发布","powerTime":"2019-07-26 11:52:49","powerComm":"已送电","subsNo":"","lineNo":"","tgNo":"","tgName":null,"infoStatus":"1","orgName":"国网徐水县供电公司","typeName":null,"infoStatusName":null,"dateDay":null,"orgNos":null,"nowTime":null,"countyName":null,"streetName":null,"villageName":null,"roadName":null,"communityName":null,"tranName":null,"sdLineName":null,"cityCode":"1340605","cityName":"国网徐水县供电公司","provinceCode":null,"stopTime":"2019-07-26 12:00:00","powerType":"全部","powerOffArea":"【单台区停电】停西凡4号","powerOffReason":"【停电原因】由于处理紧急缺陷导致３５ＫＶ户木变电站瀑河５１７线路西凡４号公变台区停电 【变更送电】无 【发布渠道】通过９５５９８发布","powerOffId":"2019072613000149"},{"poweroffId":2019072613000148,"sgpoweroffId":null,"subsName":"","lineName":"10kV515占里线","pubTranName":"10kV514下河线下河支线陈家篡北区台区,曲阳县下河乡下河村南农灌变压器,0000006520袁村南区变压器,袁村机井,袁村小学2号变压器,陈家篡小学变压器【煤改电】,下河派出所变压器【煤改电】,0000004814米家岗变压器,袁村西农,何家马北2变压器,0673469265-曲阳下河鑫丰苗圃-专变-214343080-曲阳下河鑫丰苗圃变压器,曲阳县逸达苗木有限公司变压器,袁村西变压器,0000004817何家马村北变压器,驿头北区变压器,0012359244河北东区变压器,袁村新村变压器,0000004816何家马南变压器,曲阳县下河乡下河中学,0000004797下河南变压器,陈家篡中区变压器,占里幼儿圆变压器【煤改电】,袁村小学变压器【煤改电】,保定脑血管病医院曲阳分院,占里村农用,0000004916占里村变压器,驿头北2区变压器,0000007153驿头村东变变压器,曲阳县下河乡袁村村北变压器,0000005360袁村变压器,0012850552陈家篡南区变压器,0013555375占里东区变压器,河北村农灌,何家马南2变压器,曲阳县农发投美丽乡村建设有限公司变压器,下河中学2号变压器【煤改电】,占里村2号变压器,下河中学2号变压器,占里村9号变压器,下河西南2变压器,下河中学1号变压器,占里村8号变压器,占里村3号变压器,占里村7号变压器,下河中学3号变压器,0000005420下河东变压器,下河南2变压器,下河乡政府2变压器,0000004793陈家篡变压器,下河卫生院变压器【煤改电】,0000004794河北村变压器,曲阳县下河乡袁村村西农灌变压器,占里村4号变压器,0012359240下河西南区变压器,下河中学1号变压器【煤改电】,曲阳县双春石材厂,米家岗水井变压器,0000005839下河乡政府变压器,0000004806驿头变压器,占里村5号变压器,下河中学3号变压器【煤改电】,曲阳县伟华雕刻厂变压器,占里村1号变压器,曲阳县金牛压砖厂变压器,","scope":"【影响街道/乡镇】下河乡【高危重要客户】无【影响客户】何家马村、米家岗村、陈家篡村、下河村、河北村、驿头村、袁村、占里","startTime":"2019-08-10 03:00:00","stopDate":"2019-08-10 11:30:00","orgNo":"1340619","typeCode":"计划停电","poweroffArea":"【分支停电】停曲阳县下河乡下河中学,陈家篡小学变压器【煤改电】,下河派出所变压器【煤改电】,0000004814米家岗变压器,袁村西农,何家马北2变压器,0673469265-曲阳下河鑫丰苗圃-专变-214343080-曲阳下河鑫丰苗圃变压器,曲阳县逸达苗木有限公司变压器,袁村西变压器,0000004817何家马村北变压器,驿头北区变压器,0012359244河北东区变压器,袁村新村变压器,0000004816何家马南变压器,0000004797下河南变压器,陈家篡中区变压器,占里幼儿圆变压器【煤改电】,袁村小学变压器【煤改电】,保定脑血管病医院曲阳分院,占里村农用,0000004916占里村变压器,驿头北2区变压器,0000007153驿头村东变变压器,曲阳县下河乡袁村村北变压器,0000005360袁村变压器,0012850552陈家篡南区变压器,0013555375占里东区变压器,下河西南2变压器,下河中学1号变压器,占里村8号变压器,占里村3号变压器,占里村7号变压器,下河中学3号变压器,0000005420下河东变压器,10kV514下河线下河支线陈家篡北区台区,曲阳县下河乡下河村南农灌变压器,0000006520袁村南区变压器,袁村机井,袁村小学2号变压器,河北村农灌,何家马南2变压器,曲阳县农发投美丽乡村建设有限公司变压器,下河中学2号变压器【煤改电】,占里村2号变压器,下河中学2号变压器,占里村9号变压器,下河南2变压器,下河乡政府2变压器,0000004793陈家篡变压器,下河卫生院变压器【煤改电】,0000004794河北村变压器,曲阳县下河乡袁村村西农灌变压器,占里村4号变压器,0012359240下河西南区变压器,下河中学1号变压器【煤改电】,曲阳县双春石材厂,米家岗水井变压器,0000005839下河乡政府变压器,0000004806驿头变压器,占里村5号变压器,下河中学3号变压器【煤改电】,曲阳县伟华雕刻厂变压器,占里村1号变压器,曲阳县金牛压砖厂变压器","poweroffReason":"【停电原因】由于线路改造导致３５ＫＶ刘家马变电站１０ＫＶ５１５占里线路主干１４号杆以下停电【变更送电】因工作未完工原因，送电时间由０７：３０变更为１１：３０【发布渠道】保定市曲阳县电视台（０７月２７日至０７月２９日１８时至２０时之间）屏幕上方滚动","powerTime":"2019-08-10 11:14:23","powerComm":"已送电","subsNo":"","lineNo":"","tgNo":"","tgName":null,"infoStatus":"1","orgName":"国网曲阳县供电公司","typeName":null,"infoStatusName":null,"dateDay":null,"orgNos":null,"nowTime":null,"countyName":null,"streetName":null,"villageName":null,"roadName":null,"communityName":null,"tranName":null,"sdLineName":null,"cityCode":"1340619","cityName":"国网曲阳县供电公司","provinceCode":null,"stopTime":"2019-08-10 11:30:00","powerType":"全部","powerOffArea":"【分支停电】停曲阳县下河乡下河中学,陈家篡小学变压器【煤改电】,下河派出所变压器【煤改电】,0000004814米家岗变压器,袁村西农,何家马北2变压器,0673469265-曲阳下河鑫丰苗圃-专变-214343080-曲阳下河鑫丰苗圃变压器,曲阳县逸达苗木有限公司变压器,袁村西变压器,0000004817何家马村北变压器,驿头北区变压器,0012359244河北东区变压器,袁村新村变压器,0000004816何家马南变压器,0000004797下河南变压器,陈家篡中区变压器,占里幼儿圆变压器【煤改电】,袁村小学变压器【煤改电】,保定脑血管病医院曲阳分院,占里村农用,0000004916占里村变压器,驿头北2区变压器,0000007153驿头村东变变压器,曲阳县下河乡袁村村北变压器,0000005360袁村变压器,0012850552陈家篡南区变压器,0013555375占里东区变压器,下河西南2变压器,下河中学1号变压器,占里村8号变压器,占里村3号变压器,占里村7号变压器,下河中学3号变压器,0000005420下河东变压器,10kV514下河线下河支线陈家篡北区台区,曲阳县下河乡下河村南农灌变压器,0000006520袁村南区变压器,袁村机井,袁村小学2号变压器,河北村农灌,何家马南2变压器,曲阳县农发投美丽乡村建设有限公司变压器,下河中学2号变压器【煤改电】,占里村2号变压器,下河中学2号变压器,占里村9号变压器,下河南2变压器,下河乡政府2变压器,0000004793陈家篡变压器,下河卫生院变压器【煤改电】,0000004794河北村变压器,曲阳县下河乡袁村村西农灌变压器,占里村4号变压器,0012359240下河西南区变压器,下河中学1号变压器【煤改电】,曲阳县双春石材厂,米家岗水井变压器,0000005839下河乡政府变压器,0000004806驿头变压器,占里村5号变压器,下河中学3号变压器【煤改电】,曲阳县伟华雕刻厂变压器,占里村1号变压器,曲阳县金牛压砖厂变压器","powerOffReason":"【停电原因】由于线路改造导致３５ＫＶ刘家马变电站１０ＫＶ５１５占里线路主干１４号杆以下停电【变更送电】因工作未完工原因，送电时间由０７：３０变更为１１：３０【发布渠道】保定市曲阳县电视台（０７月２７日至０７月２９日１８时至２０时之间）屏幕上方滚动","powerOffId":"2019072613000148"},{"poweroffId":2019072613000144,"sgpoweroffId":null,"subsName":"","lineName":"平乐线514","pubTranName":"0000004935强留庄内变压器,南平乐小学2变压器,0012771883南平乐西区变压器,南平乐东区变压器,南平乐小学变压器,0000004926南平罗村内变压器,0000004940南平罗中区变压器,强留庄小学变压器,南平乐中2区变压器,强留庄农6变压器【纯农排变】,0000005729南平乐统管南农4号变压器【纯农排变】,0000005727强留庄统管南农2号变压器【纯农排变】,0000004933强留庄统管南农1号变压器,0013145883强留庄西区变压器,强留庄东区变压器,强留庄农4变压器【纯农排变】,0000004934强留庄统管北农3号变压器,","scope":"【影响街道/乡镇】燕赵镇【高危重要客户】无【影响客户】南平乐、强留庄","startTime":"2019-08-06 06:00:00","stopDate":"2019-08-06 17:00:00","orgNo":"1340619","typeCode":"计划停电","poweroffArea":"【分支停电】停南平乐小学变压器,0000004926南平罗村内变压器,0000004940南平罗中区变压器,强留庄小学变压器,南平乐中2区变压器,强留庄农6变压器【纯农排变】,0000005729南平乐统管南农4号变压器【纯农排变】,0000005727强留庄统管南农2号变压器【纯农排变】,0000004933强留庄统管南农1号变压器,0013145883强留庄西区变压器,强留庄东区变压器,强留庄农4变压器【纯农排变】,0000004934强留庄统管北农3号变压器,0000004935强留庄内变压器,南平乐小学2变压器,0012771883南平乐西区变压器,南平乐东区变压器","poweroffReason":"【停电原因】由于线路改造导致３５ＫＶ邸村变电站１０ＫＶ平乐５１４线路主干７４号杆以下停电【变更送电】无【发布渠道】保定市曲阳县电视台（０７月２７日至０７月２９日１８时至２０时之间）屏幕上方滚动","powerTime":"2019-08-06 16:51:21","powerComm":"已送电","subsNo":"","lineNo":"","tgNo":"","tgName":null,"infoStatus":"1","orgName":"国网曲阳县供电公司","typeName":null,"infoStatusName":null,"dateDay":null,"orgNos":null,"nowTime":null,"countyName":null,"streetName":null,"villageName":null,"roadName":null,"communityName":null,"tranName":null,"sdLineName":null,"cityCode":"1340619","cityName":"国网曲阳县供电公司","provinceCode":null,"stopTime":"2019-08-06 17:00:00","powerType":"全部","powerOffArea":"【分支停电】停南平乐小学变压器,0000004926南平罗村内变压器,0000004940南平罗中区变压器,强留庄小学变压器,南平乐中2区变压器,强留庄农6变压器【纯农排变】,0000005729南平乐统管南农4号变压器【纯农排变】,0000005727强留庄统管南农2号变压器【纯农排变】,0000004933强留庄统管南农1号变压器,0013145883强留庄西区变压器,强留庄东区变压器,强留庄农4变压器【纯农排变】,0000004934强留庄统管北农3号变压器,0000004935强留庄内变压器,南平乐小学2变压器,0012771883南平乐西区变压器,南平乐东区变压器","powerOffReason":"【停电原因】由于线路改造导致３５ＫＶ邸村变电站１０ＫＶ平乐５１４线路主干７４号杆以下停电【变更送电】无【发布渠道】保定市曲阳县电视台（０７月２７日至０７月２９日１８时至２０时之间）屏幕上方滚动","powerOffId":"2019072613000144"},{"poweroffId":2019072613000141,"sgpoweroffId":null,"subsName":"","lineName":"户木线511","pubTranName":"户木2号,","scope":"【影响街道/乡镇】户木乡 【高危重要客户】无 【影响客户】户木村","startTime":"2019-07-26 10:10:00","stopDate":"2019-07-26 11:00:00","orgNo":"1340605","typeCode":"其他临时停电","poweroffArea":"【单台区停电】停户木2号","poweroffReason":"【停电原因】由于处理紧急缺陷导致３５ＫＶ户木变电站户木５１１线路户木２号公变台区停电 【变更送电】无 【发布渠道】通过９５５９８发布","powerTime":"2019-07-26 10:54:22","powerComm":"已送电","subsNo":"","lineNo":"","tgNo":"","tgName":null,"infoStatus":"1","orgName":"国网徐水县供电公司","typeName":null,"infoStatusName":null,"dateDay":null,"orgNos":null,"nowTime":null,"countyName":null,"streetName":null,"villageName":null,"roadName":null,"communityName":null,"tranName":null,"sdLineName":null,"cityCode":"1340605","cityName":"国网徐水县供电公司","provinceCode":null,"stopTime":"2019-07-26 11:00:00","powerType":"全部","powerOffArea":"【单台区停电】停户木2号","powerOffReason":"【停电原因】由于处理紧急缺陷导致３５ＫＶ户木变电站户木５１１线路户木２号公变台区停电 【变更送电】无 【发布渠道】通过９５５９８发布","powerOffId":"2019072613000141"},{"poweroffId":2019072613000131,"sgpoweroffId":null,"subsName":"","lineName":"10KV沿鲁532","pubTranName":"1332张村,","scope":"【影响街道/乡镇】刁窝乡 【高危重要客户】无 【影响客户】东张村","startTime":"2019-07-26 08:58:10","stopDate":"2019-07-26 11:00:00","orgNo":"1340626","typeCode":"电网故障停限电","poweroffArea":"【单台区停电】停1332张村","poweroffReason":"【停电原因】由于低压空开烧毁导致１１０ＫＶ刁窝变电站１０ＫＶ沿鲁５３２线路１３３２张村公变台区停电 【变更送电】因抢修进度加快原因，送电时间由１９：００变更为１１：００ 【发布渠道】通过９５５９８发布","powerTime":"2019-07-26 10:30:39","powerComm":"恢复送电","subsNo":"","lineNo":"","tgNo":"","tgName":null,"infoStatus":"1","orgName":"国网涿州市供电公司","typeName":null,"infoStatusName":null,"dateDay":null,"orgNos":null,"nowTime":null,"countyName":null,"streetName":null,"villageName":null,"roadName":null,"communityName":null,"tranName":null,"sdLineName":null,"cityCode":"1340626","cityName":"国网涿州市供电公司","provinceCode":null,"stopTime":"2019-07-26 11:00:00","powerType":"全部","powerOffArea":"【单台区停电】停1332张村","powerOffReason":"【停电原因】由于低压空开烧毁导致１１０ＫＶ刁窝变电站１０ＫＶ沿鲁５３２线路１３３２张村公变台区停电 【变更送电】因抢修进度加快原因，送电时间由１９：００变更为１１：００ 【发布渠道】通过９５５９８发布","powerOffId":"2019072613000131"},{"poweroffId":2019072613000122,"sgpoweroffId":null,"subsName":"","lineName":"工业线515","pubTranName":"陈万顺1612,中国电信岭北,0387525716-唐县黄石口矿业有限公司-专变-45341895-黄石口矿业有限公司2210,对子门1622变压器,上庄村1619变压器,黄石口4777变压器,黄石口矿业有限公司2322,黄石口矿业公司2666,中交路桥北方工程有限公司计量点P6722,唐县黄石口矿业有限公司3367,石腰村1655变压器,中交路桥北方工程有限公司计量点,岭北沙场2827,黄石口东4067变压器,中交路桥北方工程有限公司新装6735,黄石口4945变压器,峪鑫选矿厂,保定东部矿业有限公司2045,望尔峪6736变压器光伏,秦王砖厂10KV配变,下庄新增6824变压器,黄石口矿业公司2295,保定东部矿业有限公司,黄石口矿业公司2293,岭北3043变压器,唐县黄石口矿业有限公司,运通选矿厂,沙里安7167变压器【光伏】,邸铁晨水3449,黄石口矿业公司2875,鸿发选厂水泵2755,唐县福泰选矿厂,黄石口石粉2257,志合选厂2777,黄石口矿业公司2828,唐县川里虹祥选矿厂3376,志合选矿厂2865,黄石口矿业公司2810,中交路桥北方工程有限公司XZ6710,古道口村北6823变压器,黄石口北1613变压器,黄石口矿业有限公司3085,芦苇村北cl3389变压器,石北村1656变压器,昌盛选矿厂,岭北村1614变压器,唐县东兴选矿厂有限公司,唐县华建选厂2054,唐县黄石口矿业有限公司3191,陈大栓铁厂,石腰7052变压器,望尔峪北沟5165变压器,沙里安1621变压器,黄石口矿山2480,大寺上1623变压器,鸿发选矿厂2756,上庄子5160变压器,芦苇村0866变压器,兴华分厂1228,虹祥选矿厂2042,赵金禄鹏翔选厂2471,建峰养猪厂,古道口5168变压器,黄石口村2735变压器,唐县黄石口矿业有限公司3152,黄石口乡1626,中交路桥北方工程有限公司新装6801,志合选矿厂1841,黄石口南1627变压器,望尔峪1620变压器,秦王砖厂1636,鑫盛选矿厂2476,药草村1596变压器,古道口3280变压器,石北水2930,","scope":"【影响街道/乡镇】川里镇、黄石口乡【高危重要客户】无【影响客户】石腰村、石北村、古道口村、沙里安村、上庄村药草、望尔峪村、大寺上、对子门、黄石口、岭北村、乡政府、芦苇村","startTime":"2019-07-26 08:46:31","stopDate":"2019-07-26 11:00:00","orgNo":"1340622","typeCode":"电网故障停限电","poweroffArea":"【全线路停电】停鑫盛选矿厂2476,黄石口矿业公司2828,唐县华建选厂2054,黄石口矿业公司2810,志合选厂2777,唐县东兴选矿厂有限公司,志合选矿厂1841,黄石口北1613变压器,昌盛选矿厂,望尔峪北沟5165变压器,志合选矿厂2865,邸铁晨水3449,唐县川里虹祥选矿厂3376,岭北沙场2827,唐县黄石口矿业有限公司,石北水2930,石腰村1655变压器,石北村1656变压器,唐县黄石口矿业有限公司3367,鸿发选矿厂2756,黄石口东4067变压器,石腰7052变压器,赵金禄鹏翔选厂2471,黄石口矿业公司2295,黄石口村2735变压器,中交路桥北方工程有限公司XZ6710,望尔峪1620变压器,保定东部矿业有限公司2045,虹祥选矿厂2042,黄石口矿业有限公司3085,唐县黄石口矿业有限公司3152,0387525716-唐县黄石口矿业有限公司-专变-45341895-黄石口矿业有限公司2210,黄石口4945变压器,大寺上1623变压器,中交路桥北方工程有限公司新装6735,黄石口石粉2257,唐县福泰选矿厂,中交路桥北方工程有限公司新装6801,兴华分厂1228,药草村1596变压器,唐县黄石口矿业有限公司3191,沙里安7167变压器【光伏】,对子门1622变压器,古道口3280变压器,陈大栓铁厂,保定东部矿业有限公司,建峰养猪厂,下庄新增6824变压器,黄石口矿业有限公司2322,黄石口矿业公司2666,黄石口矿业公司2293,黄石口南1627变压器,芦苇村北cl3389变压器,中交路桥北方工程有限公司计量点P6722,秦王砖厂10KV配变,陈万顺1612,芦苇村0866变压器,上庄村1619变压器,鸿发选厂水泵2755,中交路桥北方工程有限公司计量点,望尔峪6736变压器光伏,运通选矿厂,岭北3043变压器,黄石口乡1626,古道口5168变压器,中国电信岭北,峪鑫选矿厂,上庄子5160变压器,黄石口4777变压器,古道口村北6823变压器,黄石口矿山2480,黄石口矿业公司2875,秦王砖厂1636,沙里安1621变压器,岭北村1614变压器","poweroffReason":"【停电原因】由于对子沟门１６２８台区变压器烧导致３５ＫＶ川里变电站工业线５１５线路全线停电【变更送电】因工作进度加快原因，送电时间由１８：００变更为１１：００【发布渠道】通过９５５９８发布","powerTime":"2019-07-26 10:16:16","powerComm":"已送电","subsNo":"","lineNo":"","tgNo":"","tgName":null,"infoStatus":"1","orgName":"国网唐县供电公司","typeName":null,"infoStatusName":null,"dateDay":null,"orgNos":null,"nowTime":null,"countyName":null,"streetName":null,"villageName":null,"roadName":null,"communityName":null,"tranName":null,"sdLineName":null,"cityCode":"1340622","cityName":"国网唐县供电公司","provinceCode":null,"stopTime":"2019-07-26 11:00:00","powerType":"全部","powerOffArea":"【全线路停电】停鑫盛选矿厂2476,黄石口矿业公司2828,唐县华建选厂2054,黄石口矿业公司2810,志合选厂2777,唐县东兴选矿厂有限公司,志合选矿厂1841,黄石口北1613变压器,昌盛选矿厂,望尔峪北沟5165变压器,志合选矿厂2865,邸铁晨水3449,唐县川里虹祥选矿厂3376,岭北沙场2827,唐县黄石口矿业有限公司,石北水2930,石腰村1655变压器,石北村1656变压器,唐县黄石口矿业有限公司3367,鸿发选矿厂2756,黄石口东4067变压器,石腰7052变压器,赵金禄鹏翔选厂2471,黄石口矿业公司2295,黄石口村2735变压器,中交路桥北方工程有限公司XZ6710,望尔峪1620变压器,保定东部矿业有限公司2045,虹祥选矿厂2042,黄石口矿业有限公司3085,唐县黄石口矿业有限公司3152,0387525716-唐县黄石口矿业有限公司-专变-45341895-黄石口矿业有限公司2210,黄石口4945变压器,大寺上1623变压器,中交路桥北方工程有限公司新装6735,黄石口石粉2257,唐县福泰选矿厂,中交路桥北方工程有限公司新装6801,兴华分厂1228,药草村1596变压器,唐县黄石口矿业有限公司3191,沙里安7167变压器【光伏】,对子门1622变压器,古道口3280变压器,陈大栓铁厂,保定东部矿业有限公司,建峰养猪厂,下庄新增6824变压器,黄石口矿业有限公司2322,黄石口矿业公司2666,黄石口矿业公司2293,黄石口南1627变压器,芦苇村北cl3389变压器,中交路桥北方工程有限公司计量点P6722,秦王砖厂10KV配变,陈万顺1612,芦苇村0866变压器,上庄村1619变压器,鸿发选厂水泵2755,中交路桥北方工程有限公司计量点,望尔峪6736变压器光伏,运通选矿厂,岭北3043变压器,黄石口乡1626,古道口5168变压器,中国电信岭北,峪鑫选矿厂,上庄子5160变压器,黄石口4777变压器,古道口村北6823变压器,黄石口矿山2480,黄石口矿业公司2875,秦王砖厂1636,沙里安1621变压器,岭北村1614变压器","powerOffReason":"【停电原因】由于对子沟门１６２８台区变压器烧导致３５ＫＶ川里变电站工业线５１５线路全线停电【变更送电】因工作进度加快原因，送电时间由１８：００变更为１１：００【发布渠道】通过９５５９８发布","powerOffId":"2019072613000122"},{"poweroffId":2019072613000110,"sgpoweroffId":null,"subsName":"","lineName":"10kV火炬街549","pubTranName":"玫瑰北街2#变压器,","scope":"【影响街道/乡镇】徐里营城区玫瑰北街 【高危重要客户】无 【影响客户】张段庄村","startTime":"2019-07-29 04:30:00","stopDate":"2019-07-29 13:00:00","orgNo":"1340626","typeCode":"临时停电","poweroffArea":"【单台区停电】停玫瑰北街2#变压器","poweroffReason":"【停电原因】由于架设导线导致１１０ＫＶ安泰变电站１０ＫＶ火炬街５４９线路玫瑰北街２＃公变台区停电 【变更送电】无 【发布渠道】通过９５５９８发布","powerTime":"2019-07-29 12:30:14","powerComm":"恢复送电","subsNo":"","lineNo":"","tgNo":"","tgName":null,"infoStatus":"1","orgName":"国网涿州市供电公司","typeName":null,"infoStatusName":null,"dateDay":null,"orgNos":null,"nowTime":null,"countyName":null,"streetName":null,"villageName":null,"roadName":null,"communityName":null,"tranName":null,"sdLineName":null,"cityCode":"1340626","cityName":"国网涿州市供电公司","provinceCode":null,"stopTime":"2019-07-29 13:00:00","powerType":"全部","powerOffArea":"【单台区停电】停玫瑰北街2#变压器","powerOffReason":"【停电原因】由于架设导线导致１１０ＫＶ安泰变电站１０ＫＶ火炬街５４９线路玫瑰北街２＃公变台区停电 【变更送电】无 【发布渠道】通过９５５９８发布","powerOffId":"2019072613000110"},{"poweroffId":2019072613000109,"sgpoweroffId":null,"subsName":"","lineName":"奇峰庄517","pubTranName":"五里庄6#,","scope":"【影响街道/乡镇】梁各庄镇【高危重要客户】无【影响客户】五里庄村","startTime":"2019-07-26 08:22:29","stopDate":"2019-07-26 12:00:00","orgNo":"1340625","typeCode":"电网故障停限电","poweroffArea":"【单台区停电】停五里庄6#","poweroffReason":"【停电原因】由于电缆烧毁导致３５ＫＶ龙湖变电站奇峰庄５１７线路五里庄村６＃公变台区停电【变更送电】无【发布渠道】通过９５５９８发布","powerTime":"2019-07-26 11:22:35","powerComm":"已送电","subsNo":"","lineNo":"","tgNo":"","tgName":null,"infoStatus":"1","orgName":"国网易县供电公司","typeName":null,"infoStatusName":null,"dateDay":null,"orgNos":null,"nowTime":null,"countyName":null,"streetName":null,"villageName":null,"roadName":null,"communityName":null,"tranName":null,"sdLineName":null,"cityCode":"1340625","cityName":"国网易县供电公司","provinceCode":null,"stopTime":"2019-07-26 12:00:00","powerType":"全部","powerOffArea":"【单台区停电】停五里庄6#","powerOffReason":"【停电原因】由于电缆烧毁导致３５ＫＶ龙湖变电站奇峰庄５１７线路五里庄村６＃公变台区停电【变更送电】无【发布渠道】通过９５５９８发布","powerOffId":"2019072613000109"},{"poweroffId":2019072613000100,"sgpoweroffId":null,"subsName":"","lineName":"10KV高官庄512","pubTranName":"智军庄牌楼北,","scope":"【影响街道/乡镇】高官庄镇 【高危重要客户】无 【影响客户】智军庄","startTime":"2019-07-28 06:00:00","stopDate":"2019-07-28 13:00:00","orgNo":"1340626","typeCode":"临时停电","poweroffArea":"【单台区停电】停智军庄牌楼北","poweroffReason":"【停电原因】由于新增配变工程导致３５ＫＶ高官庄变电站１０ＫＶ高官庄５１２线路智军庄牌楼北公变台区停电 【变更送电】无 【发布渠道】通过９５５９８发布","powerTime":"2019-07-28 12:33:18","powerComm":"恢复送电","subsNo":"","lineNo":"","tgNo":"","tgName":null,"infoStatus":"1","orgName":"国网涿州市供电公司","typeName":null,"infoStatusName":null,"dateDay":null,"orgNos":null,"nowTime":null,"countyName":null,"streetName":null,"villageName":null,"roadName":null,"communityName":null,"tranName":null,"sdLineName":null,"cityCode":"1340626","cityName":"国网涿州市供电公司","provinceCode":null,"stopTime":"2019-07-28 13:00:00","powerType":"全部","powerOffArea":"【单台区停电】停智军庄牌楼北","powerOffReason":"【停电原因】由于新增配变工程导致３５ＫＶ高官庄变电站１０ＫＶ高官庄５１２线路智军庄牌楼北公变台区停电 【变更送电】无 【发布渠道】通过９５５９８发布","powerOffId":"2019072613000100"},{"poweroffId":2019072613000099,"sgpoweroffId":null,"subsName":"","lineName":"10kV517东坂线","pubTranName":"庞村公用照明5台区,","scope":"【影响街道/乡镇】庞村镇【高危重要客户】无【影响客户】庞村","startTime":"2019-07-26 08:00:24","stopDate":"2019-07-26 14:00:00","orgNo":"1340610","typeCode":"电网故障停限电","poweroffArea":"【单台区停电】停庞村公用照明5台区","poweroffReason":"【停电原因】由于配变烧毁导致３５ＫＶ北庞村变电站１０ＫＶ５１７东坂线路庞村公用照明５台区停电 【变更送电】无 【发布渠道】９５５９８","powerTime":"2019-07-26 13:06:20","powerComm":"已送电","subsNo":"","lineNo":"","tgNo":"","tgName":null,"infoStatus":"1","orgName":"国网定州市供电公司","typeName":null,"infoStatusName":null,"dateDay":null,"orgNos":null,"nowTime":null,"countyName":null,"streetName":null,"villageName":null,"roadName":null,"communityName":null,"tranName":null,"sdLineName":null,"cityCode":"1340610","cityName":"国网定州市供电公司","provinceCode":null,"stopTime":"2019-07-26 14:00:00","powerType":"全部","powerOffArea":"【单台区停电】停庞村公用照明5台区","powerOffReason":"【停电原因】由于配变烧毁导致３５ＫＶ北庞村变电站１０ＫＶ５１７东坂线路庞村公用照明５台区停电 【变更送电】无 【发布渠道】９５５９８","powerOffId":"2019072613000099"}],"pageModel":{"pageNow":776,"totalCount":10973,"totalPage":1098,"tableRows":0,"pageCount":10,"beginCount":7750},"isExperi":"1"}