{"message":"","today":"2020-06-15","seleList":[{"poweroffId":2019072613000088,"sgpoweroffId":null,"subsName":"","lineName":"何其营线552","pubTranName":"东娘庄东2号公变变压器,","scope":"【影响街道/乡镇】辛桥乡 【高危重要客户】无 【影响客户】东娘庄村","startTime":"2019-07-26 14:00:00","stopDate":"2019-07-26 17:00:00","orgNo":"1340612","typeCode":"其他临时停电","poweroffArea":"【单台区停电】停东娘庄东2号公变变压器","poweroffReason":"【停电原因】由于新架线导致１１０ＫＶ陈八庄变电站１０ＫＶ何其营５５２线路东娘庄２号公变台区停电 【变更送电】无 【发布渠道】通过９５５９８发布","powerTime":"2019-07-26 16:50:08","powerComm":"已送电","subsNo":"","lineNo":"","tgNo":"","tgName":null,"infoStatus":"1","orgName":"国网高碑店市供电公司","typeName":null,"infoStatusName":null,"dateDay":null,"orgNos":null,"nowTime":null,"countyName":null,"streetName":null,"villageName":null,"roadName":null,"communityName":null,"tranName":null,"sdLineName":null,"cityCode":"1340612","cityName":"国网高碑店市供电公司","provinceCode":null,"stopTime":"2019-07-26 17:00:00","powerType":"全部","powerOffArea":"【单台区停电】停东娘庄东2号公变变压器","powerOffReason":"【停电原因】由于新架线导致１１０ＫＶ陈八庄变电站１０ＫＶ何其营５５２线路东娘庄２号公变台区停电 【变更送电】无 【发布渠道】通过９５５９８发布","powerOffId":"2019072613000088"},{"poweroffId":2019072613000085,"sgpoweroffId":null,"subsName":"","lineName":"坛下线511","pubTranName":"许王东4588变压器,","scope":"【影响街道/乡镇】仁厚镇【高危重要客户】无【影响客户】许王庄","startTime":"2019-07-26 07:40:01","stopDate":"2019-07-26 12:00:00","orgNo":"1340622","typeCode":"电网故障停限电","poweroffArea":"【单台区停电】停许王东4588变压器","poweroffReason":"【停电原因】由于树砸断电线导致３５ＫＶ城南变电站坛下５１１线路许王东４５８８公变台区停电【变更送电】无【发布渠道】通过９５５９８发布","powerTime":"2019-07-26 11:29:13","powerComm":"已送电","subsNo":"","lineNo":"","tgNo":"","tgName":null,"infoStatus":"1","orgName":"国网唐县供电公司","typeName":null,"infoStatusName":null,"dateDay":null,"orgNos":null,"nowTime":null,"countyName":null,"streetName":null,"villageName":null,"roadName":null,"communityName":null,"tranName":null,"sdLineName":null,"cityCode":"1340622","cityName":"国网唐县供电公司","provinceCode":null,"stopTime":"2019-07-26 12:00:00","powerType":"全部","powerOffArea":"【单台区停电】停许王东4588变压器","powerOffReason":"【停电原因】由于树砸断电线导致３５ＫＶ城南变电站坛下５１１线路许王东４５８８公变台区停电【变更送电】无【发布渠道】通过９５５９８发布","powerOffId":"2019072613000085"},{"poweroffId":2019072613000076,"sgpoweroffId":null,"subsName":"","lineName":"10kV517安羊村线","pubTranName":"曲阳县灏源石材雕塑品有限公司变压器,南苑新城小区配电变压器,职教中心学校4变压器,恒阳石材雕刻有限公司,曲阳县杨刚雕塑有限公司变压器,安羊村路东路灯,雕刻市场路东路灯,第二国有粮食购销站,苗占琴,曲阳县伟达石材雕刻厂变压器,三兴重钙厂,曲阳县鑫光石材雕刻厂,0012790847赵羊村南区变压器,曲阳县汇丰雕刻厂,马羊村北变压器,曲阳县灏德石材厂变压器,曲阳县恒阳石材雕塑有限公司变压器,曲阳县大南关正阳面粉挂面厂2变压器,曲阳县蓓蕾雕刻厂,祥丰石材雕刻厂,0000004480水洼村变压器,安羊村幼儿园变压器,华兴滑石粉加工厂,0000004483靳羊村变压器,0000006173企业局家属院变压器,曲阳宏州房地产开发有限公司变压器,牛玉杰,0000004484赵羊村变压器,曲阳县昌盛锯片厂,河北艺美石雕有限公司曲阳县第六分,曲阳县千仁雕刻艺术有限公司,西河流建材厂,赵羊村北变压器,曲阳县新颖雕刻厂,诗豪建材雕塑艺术有限公司,曲阳县石化恒阳加油站,职教中心学校1变压器,曲阳县双赢滑石粉厂,利达建材有限公司,0000004481安羊村变压器,0000005597西河流统管变压器,曲阳县大用雕塑厂,职教中心学校5变压器,曲阳县祥泰艺术雕刻厂,王成会石板厂,职业技术教育中心变压器,曲阳宏州石业集团有限公司,0000004482王羊村变压器,曲阳县翰海园林雕塑厂,0012788656安羊村中区变压器,安羊村小学变压器,曲阳艺州园林建筑雕塑有限公司,曲阳县鑫华装修材料门市变压器,0000006357马羊村西变变压器,河北千仁雕塑工程有限公司变压器,0670989126-曲阳县瑞茂雕刻品销售部-专变-212149866-曲阳县瑞茂雕刻品销售部变压器,0469460588-河北省曲阳县雕刻学校教师公寓-专变-46814683-河北省曲阳县雕刻学校教师公寓,曲阳县祝华雕刻有限公司变压器,曲阳县蓓蕾雕刻厂2#,雕刻市场路西路灯,河北省曲阳县定瓷有限责任公司,曲阳县范氏雕塑艺术有限公司变压器,曲阳县骏业大理石雕刻厂,0000005978二粮库变压器,曲阳县华英雕刻厂,曲阳县达建石材有限公司变压器,0012788657靳羊村东区变压器,曲阳安盛建材有限公司变压器,曲阳县华森雕塑工艺品销售中心变压器,0000005674安羊村南变压器,0000005607马羊村统管变压器,曲阳县耿士亮银河雕塑厂变压器,曲阳县顺儒雕塑有限公司变压器,天元石业有限公司,曲阳县林艺雕刻石材厂（2）,曲阳县泰丰重钙厂变压器,牛玉静,曲阳县林艺雕刻石材厂（1）,安祥重钙厂,鑫鑫粉业有限公司,综艺雕刻厂,职教中心学校3变压器,曲阳县恒远雕刻石材有限公司,0000006360赵羊村东变压器,0000004545安羊村北变压器,曲阳第四医院变压器,河北锦阔园林工程有限公司变压器,0000006122雕刻公园变压器,曲阳县祥龙雕塑艺术中心变压器,曲阳县天河石粉厂,曲阳县现代工艺石材有限公司变压器,0000006135雕刻广场变压器,曲阳县双源供水有限公司变压器,赵羊村中区变压器,曲阳县众友自动化设备有限公司变压器,曲阳县中欧园林雕塑艺术有限公司变压器,职教中心学校2变压器,曲阳县","scope":"【影响街道/乡镇】羊平镇【高危重要客户】无【影响客户】靳羊村、马羊村、赵羊村、安羊村、王羊村、西河流、企业局家属院、雕刻公园、雕刻广场、南关雕刻市场、二粮库、水洼村、职业技术教育中心","startTime":"2019-07-26 07:19:00","stopDate":"2019-07-26 09:00:00","orgNo":"1340619","typeCode":"电网故障停限电","poweroffArea":"【全线路停电】停华兴滑石粉加工厂,0000004483靳羊村变压器,第二国有粮食购销站,苗占琴,曲阳县伟达石材雕刻厂变压器,三兴重钙厂,曲阳县鑫光石材雕刻厂,0012790847赵羊村南区变压器,曲阳县汇丰雕刻厂,马羊村北变压器,曲阳县灏德石材厂变压器,曲阳县恒阳石材雕塑有限公司变压器,曲阳县大南关正阳面粉挂面厂2变压器,曲阳县蓓蕾雕刻厂,祥丰石材雕刻厂,0000004480水洼村变压器,安羊村幼儿园变压器,0012788657靳羊村东区变压器,0000006173企业局家属院变压器,曲阳宏州房地产开发有限公司变压器,牛玉杰,0000004484赵羊村变压器,曲阳县昌盛锯片厂,河北艺美石雕有限公司曲阳县第六分,曲阳县千仁雕刻艺术有限公司,西河流建材厂,赵羊村北变压器,曲阳县新颖雕刻厂,诗豪建材雕塑艺术有限公司,曲阳县石化恒阳加油站,职教中心学校1变压器,曲阳县双赢滑石粉厂,利达建材有限公司,0000004481安羊村变压器,0000005597西河流统管变压器,曲阳县大用雕塑厂,职教中心学校5变压器,曲阳县祥泰艺术雕刻厂,王成会石板厂,职业技术教育中心变压器,曲阳宏州石业集团有限公司,0000004482王羊村变压器,曲阳县翰海园林雕塑厂,0012788656安羊村中区变压器,安羊村小学变压器,曲阳艺州园林建筑雕塑有限公司,曲阳县灏源石材雕塑品有限公司变压器,南苑新城小区配电变压器,职教中心学校4变压器,恒阳石材雕刻有限公司,曲阳县杨刚雕塑有限公司变压器,安羊村路东路灯,雕刻市场路东路灯,曲阳县鑫华装修材料门市变压器,0000006357马羊村西变变压器,河北千仁雕塑工程有限公司变压器,0670989126-曲阳县瑞茂雕刻品销售部-专变-212149866-曲阳县瑞茂雕刻品销售部变压器,0469460588-河北省曲阳县雕刻学校教师公寓-专变-46814683-河北省曲阳县雕刻学校教师公寓,曲阳县祝华雕刻有限公司变压器,曲阳县蓓蕾雕刻厂2#,雕刻市场路西路灯,河北省曲阳县定瓷有限责任公司,曲阳县范氏雕塑艺术有限公司变压器,曲阳县骏业大理石雕刻厂,0000005978二粮库变压器,曲阳县华英雕刻厂,曲阳县达建石材有限公司变压器,曲阳安盛建材有限公司变压器,曲阳县华森雕塑工艺品销售中心变压器,0000005674安羊村南变压器,0000005607马羊村统管变压器,曲阳县耿士亮银河雕塑厂变压器,曲阳县振鹏石材变压器,职教中心学校2变压器,大南关正阳面粉厂,河北田氏房地产开发有限公司变压器,新颖雕刻厂2#,曲阳源丰润重钙厂,曲阳县南环滨河公园项目变压器,曲阳县精艺达工艺雕刻厂,曲阳县黄炎石业有限公司变压器2,曲阳县金世纪园林雕塑工程有限公司变压器,雕刻学校变压器,0012502345职业技术教育中心变压器,曲阳龙泉定瓷有限公司变压器,宋兵献雕刻厂,曲阳县宏瑞园林工艺品有限公司变压器,曲阳县华夏石材销售处变压器,大南关雕刻市场1变压器,曲阳县九鼎工艺雕刻厂变压器,羊联办小学变压器,0014466244王羊村新增,河北艺美石雕曲阳第六分公司,黄炎石业有限公司2#,靳羊村南变压器,曲阳县红阳石材厂（2）,0000004485马羊村变压器,曲阳县雕刻行业管理办公室变压器,0014106044靳羊村东2区变压器,0469460588-河北省曲阳县雕刻学校教师公寓-专变-123802926-河北省曲阳县雕刻学校教师公寓,东关空心砖长变压器,曲阳县顺儒雕塑有限公司变压器,天元石业有限公司,曲阳县林艺雕刻石材厂（2）,曲阳县泰丰重钙厂变压器,牛玉静,曲阳县林艺雕刻石材厂（1）,曲阳县中欧园林雕塑艺术有限公司变压器,安祥重钙厂,鑫鑫粉业有限公司,综艺雕刻厂,职教中心学校3变压器,曲阳县恒远雕刻石材有限公司,0000006360赵羊村东变压器,0000004545安羊","poweroffReason":"【停电原因】由于线路Ｉ段过流跳闸导致１１０ＫＶ羊村变电站１０ＫＶ５１７安羊村线路全线停电【变更送电】因抢修进度加快原因，送电时间由１６：００变更为０９：００【发布渠道】通过９５５９８发布","powerTime":"2019-07-26 08:45:42","powerComm":"已送电","subsNo":"","lineNo":"","tgNo":"","tgName":null,"infoStatus":"1","orgName":"国网曲阳县供电公司","typeName":null,"infoStatusName":null,"dateDay":null,"orgNos":null,"nowTime":null,"countyName":null,"streetName":null,"villageName":null,"roadName":null,"communityName":null,"tranName":null,"sdLineName":null,"cityCode":"1340619","cityName":"国网曲阳县供电公司","provinceCode":null,"stopTime":"2019-07-26 09:00:00","powerType":"全部","powerOffArea":"【全线路停电】停华兴滑石粉加工厂,0000004483靳羊村变压器,第二国有粮食购销站,苗占琴,曲阳县伟达石材雕刻厂变压器,三兴重钙厂,曲阳县鑫光石材雕刻厂,0012790847赵羊村南区变压器,曲阳县汇丰雕刻厂,马羊村北变压器,曲阳县灏德石材厂变压器,曲阳县恒阳石材雕塑有限公司变压器,曲阳县大南关正阳面粉挂面厂2变压器,曲阳县蓓蕾雕刻厂,祥丰石材雕刻厂,0000004480水洼村变压器,安羊村幼儿园变压器,0012788657靳羊村东区变压器,0000006173企业局家属院变压器,曲阳宏州房地产开发有限公司变压器,牛玉杰,0000004484赵羊村变压器,曲阳县昌盛锯片厂,河北艺美石雕有限公司曲阳县第六分,曲阳县千仁雕刻艺术有限公司,西河流建材厂,赵羊村北变压器,曲阳县新颖雕刻厂,诗豪建材雕塑艺术有限公司,曲阳县石化恒阳加油站,职教中心学校1变压器,曲阳县双赢滑石粉厂,利达建材有限公司,0000004481安羊村变压器,0000005597西河流统管变压器,曲阳县大用雕塑厂,职教中心学校5变压器,曲阳县祥泰艺术雕刻厂,王成会石板厂,职业技术教育中心变压器,曲阳宏州石业集团有限公司,0000004482王羊村变压器,曲阳县翰海园林雕塑厂,0012788656安羊村中区变压器,安羊村小学变压器,曲阳艺州园林建筑雕塑有限公司,曲阳县灏源石材雕塑品有限公司变压器,南苑新城小区配电变压器,职教中心学校4变压器,恒阳石材雕刻有限公司,曲阳县杨刚雕塑有限公司变压器,安羊村路东路灯,雕刻市场路东路灯,曲阳县鑫华装修材料门市变压器,0000006357马羊村西变变压器,河北千仁雕塑工程有限公司变压器,0670989126-曲阳县瑞茂雕刻品销售部-专变-212149866-曲阳县瑞茂雕刻品销售部变压器,0469460588-河北省曲阳县雕刻学校教师公寓-专变-46814683-河北省曲阳县雕刻学校教师公寓,曲阳县祝华雕刻有限公司变压器,曲阳县蓓蕾雕刻厂2#,雕刻市场路西路灯,河北省曲阳县定瓷有限责任公司,曲阳县范氏雕塑艺术有限公司变压器,曲阳县骏业大理石雕刻厂,0000005978二粮库变压器,曲阳县华英雕刻厂,曲阳县达建石材有限公司变压器,曲阳安盛建材有限公司变压器,曲阳县华森雕塑工艺品销售中心变压器,0000005674安羊村南变压器,0000005607马羊村统管变压器,曲阳县耿士亮银河雕塑厂变压器,曲阳县振鹏石材变压器,职教中心学校2变压器,大南关正阳面粉厂,河北田氏房地产开发有限公司变压器,新颖雕刻厂2#,曲阳源丰润重钙厂,曲阳县南环滨河公园项目变压器,曲阳县精艺达工艺雕刻厂,曲阳县黄炎石业有限公司变压器2,曲阳县金世纪园林雕塑工程有限公司变压器,雕刻学校变压器,0012502345职业技术教育中心变压器,曲阳龙泉定瓷有限公司变压器,宋兵献雕刻厂,曲阳县宏瑞园林工艺品有限公司变压器,曲阳县华夏石材销售处变压器,大南关雕刻市场1变压器,曲阳县九鼎工艺雕刻厂变压器,羊联办小学变压器,0014466244王羊村新增,河北艺美石雕曲阳第六分公司,黄炎石业有限公司2#,靳羊村南变压器,曲阳县红阳石材厂（2）,0000004485马羊村变压器,曲阳县雕刻行业管理办公室变压器,0014106044靳羊村东2区变压器,0469460588-河北省曲阳县雕刻学校教师公寓-专变-123802926-河北省曲阳县雕刻学校教师公寓,东关空心砖长变压器,曲阳县顺儒雕塑有限公司变压器,天元石业有限公司,曲阳县林艺雕刻石材厂（2）,曲阳县泰丰重钙厂变压器,牛玉静,曲阳县林艺雕刻石材厂（1）,曲阳县中欧园林雕塑艺术有限公司变压器,安祥重钙厂,鑫鑫粉业有限公司,综艺雕刻厂,职教中心学校3变压器,曲阳县恒远雕刻石材有限公司,0000006360赵羊村东变压器,0000004545安羊","powerOffReason":"【停电原因】由于线路Ｉ段过流跳闸导致１１０ＫＶ羊村变电站１０ＫＶ５１７安羊村线路全线停电【变更送电】因抢修进度加快原因，送电时间由１６：００变更为０９：００【发布渠道】通过９５５９８发布","powerOffId":"2019072613000076"},{"poweroffId":2019072613000075,"sgpoweroffId":null,"subsName":"","lineName":"奇峰庄517","pubTranName":"阳谷庄村1#,","scope":"【影响街道/乡镇】梁各庄镇【高危重要客户】无【影响客户】阳谷庄村","startTime":"2019-07-26 07:13:53","stopDate":"2019-07-26 08:30:00","orgNo":"1340625","typeCode":"电网故障停限电","poweroffArea":"【单台区停电】停阳谷庄村1#","poweroffReason":"【停电原因】由于电线打火导致３５ＫＶ龙湖变电站奇峰庄５１７线路阳谷庄村１＃公变台区停电【变更送电】因抢修进度加快原因，送电时间由１１：００变更为０８：３０【发布渠道】通过９５５９８发布","powerTime":"2019-07-26 07:46:58","powerComm":"已送电","subsNo":"","lineNo":"","tgNo":"","tgName":null,"infoStatus":"1","orgName":"国网易县供电公司","typeName":null,"infoStatusName":null,"dateDay":null,"orgNos":null,"nowTime":null,"countyName":null,"streetName":null,"villageName":null,"roadName":null,"communityName":null,"tranName":null,"sdLineName":null,"cityCode":"1340625","cityName":"国网易县供电公司","provinceCode":null,"stopTime":"2019-07-26 08:30:00","powerType":"全部","powerOffArea":"【单台区停电】停阳谷庄村1#","powerOffReason":"【停电原因】由于电线打火导致３５ＫＶ龙湖变电站奇峰庄５１７线路阳谷庄村１＃公变台区停电【变更送电】因抢修进度加快原因，送电时间由１１：００变更为０８：３０【发布渠道】通过９５５９８发布","powerOffId":"2019072613000075"},{"poweroffId":2019072613000072,"sgpoweroffId":null,"subsName":"","lineName":"于坊线514","pubTranName":"北楼2号,","scope":"【影响街道/乡镇】漕河镇 【高危重要客户】无 【影响客户】北楼村","startTime":"2019-07-26 08:00:00","stopDate":"2019-07-26 19:00:00","orgNo":"1340605","typeCode":"其他临时停电","poweroffArea":"【单台区停电】停北楼2号","poweroffReason":"【停电原因】由于处理紧急缺陷导致３５ＫＶ王庄变电站于坊５１４线路北楼２号公变台区停电 【变更送电】无 【发布渠道】通过９５５９８发布","powerTime":"2019-07-26 18:07:02","powerComm":"已送电","subsNo":"","lineNo":"","tgNo":"","tgName":null,"infoStatus":"1","orgName":"国网徐水县供电公司","typeName":null,"infoStatusName":null,"dateDay":null,"orgNos":null,"nowTime":null,"countyName":null,"streetName":null,"villageName":null,"roadName":null,"communityName":null,"tranName":null,"sdLineName":null,"cityCode":"1340605","cityName":"国网徐水县供电公司","provinceCode":null,"stopTime":"2019-07-26 19:00:00","powerType":"全部","powerOffArea":"【单台区停电】停北楼2号","powerOffReason":"【停电原因】由于处理紧急缺陷导致３５ＫＶ王庄变电站于坊５１４线路北楼２号公变台区停电 【变更送电】无 【发布渠道】通过９５５９８发布","powerOffId":"2019072613000072"},{"poweroffId":2019072613000047,"sgpoweroffId":null,"subsName":"","lineName":"广场线521","pubTranName":"友谊路4#,","scope":"【影响街道/乡镇】友谊路、乙街【高危重要客户】无【影响客户】中医院家属楼","startTime":"2019-07-25 22:30:00","stopDate":"2019-07-26 05:00:00","orgNo":"1340625","typeCode":"电网故障停限电","poweroffArea":"【单台区停电】停友谊路4#","poweroffReason":"【停电原因】由于电缆烧毁导致１１０ＫＶ易县变电站广场线５２１线路友谊路４＃公变台区停电【变更送电】无【发布渠道】通过９５５９８发布","powerTime":"2019-07-26 04:08:21","powerComm":"已送电","subsNo":"","lineNo":"","tgNo":"","tgName":null,"infoStatus":"1","orgName":"国网易县供电公司","typeName":null,"infoStatusName":null,"dateDay":null,"orgNos":null,"nowTime":null,"countyName":null,"streetName":null,"villageName":null,"roadName":null,"communityName":null,"tranName":null,"sdLineName":null,"cityCode":"1340625","cityName":"国网易县供电公司","provinceCode":null,"stopTime":"2019-07-26 05:00:00","powerType":"全部","powerOffArea":"【单台区停电】停友谊路4#","powerOffReason":"【停电原因】由于电缆烧毁导致１１０ＫＶ易县变电站广场线５２１线路友谊路４＃公变台区停电【变更送电】无【发布渠道】通过９５５９８发布","powerOffId":"2019072613000047"},{"poweroffId":2019072613000016,"sgpoweroffId":null,"subsName":"","lineName":"10kV514河口线","pubTranName":"东河口北3180农业|25003180【纯农排变】,东河口1540农业|25001540【纯农排变】,西河口新增综合3456,马各庄2270农业|25002270【纯农排变】,石门庄村东3240|25003240,顺平县元敏佳水果冷藏,北李各庄文杰2110农业|25002110【纯农排变】,西河口庙沟1620农业|25001620【纯农排变】,北李各庄2210农业|25002210【纯农排变】,康各庄北3360农业|25003360【纯农排变】,西河口村西长青农业3941【纯农排变】,六九水1930农业|25001930【纯农排变】,东河口村南3230|25003230,康各庄2区2370|25002370,西河口北庄1580|25001580,东河口东2330农业|25002330【纯农排变】,西河口西山3430,康各庄1690|25001690,西河口北庄西新增农业3604（TD）【纯农排变】,东河口1550农业|25001550【纯农排变】,六九水2160|25002160,西河口老山右1640农业|25001640【纯农排变】,康各庄村南综合7903,顺平县农村信用联社股份有限公司河口信用社100,北李各庄2260农业|25002260【纯农排变】,东河口2090农业|25002090【纯农排变】,东河口1530|25001530,北李各庄老婆2号农业3418【纯农排变】,西河口红山坡2290农业|25002290【纯农排变】,北李各庄2050农业|25002050【纯农排变】,西河口大口1600农业|25001600【纯农排变】,北李各庄1670|25001670,六九水村北农业（TD）6380【纯农排变】,石门庄村东农业（TD）0384【纯农排变】,石门庄新架农业【纯农排变】,石门庄村1700|25001700,河口乡政府1940|25001940,康各庄2000农业|25002000【纯农排变】,东河口村西2310农业|25002310【纯农排变】,六九水村南农业（TD）5409【纯农排变】,西河口正方右1650农业|25001650【纯农排变】,马各庄村东1660|25001660,马各庄路边农业（TD）5410【纯农排变】,西河口西岗2280农业|25002280【纯农排变】,石门庄北2040农业|25002040【纯农排变】,东河口牌楼综合5981,东河口村北牌楼农业（TD）0381【纯农排变】,石门庄1960农业|25001960【纯农排变】,西河口村北综合5861,东河口大队3060农业|25003060【纯农排变】,北李各庄1680农业|25001680【纯农排变】,西河口2360农业|25002360【纯农排变】,西河口西岗1630农业|25001630【纯农排变】,石门庄2030农业|25002030【纯农排变】,西河口村西北山坡农业（TD）0386【纯农排变】,东河口金祥3000|25003000【纯农排变】,东河口东2430农业|25002430【纯农排变】,东河口1560农业|25001560【纯农排变】,石门庄1710农业|25001710【纯农排变】,西河口村1570|25001","scope":"【影响街道/乡镇】河口乡【高危重要客户】无【影响客户】东河口、西河口、马各庄、北李各庄、康各庄、石门庄、六九水","startTime":"2019-07-26 00:17:25","stopDate":"2019-07-26 07:30:00","orgNo":"1340621","typeCode":"电网故障停限电","poweroffArea":"【全线路停电】停北李各庄西坡农业5980【纯农排变】,康各庄1920农业|25001920【纯农排变】,西河口北庄东新增农业4428（TD）【纯农排变】,北李各庄羊角地农业（TD）5408【纯农排变】,马各庄1900农业|25001900【纯农排变】,西河口村西北山坡农业（TD）0386【纯农排变】,西河口大山右1610农业|25001610【纯农排变】,马各庄村北农业（TD）5401【纯农排变】,东河口2350农","poweroffReason":"【停电原因】由于庙沟农业分支C相刀闸烧毁导致３５ＫＶ河口变电站１０ＫＶ５１４河口线路全线停电【变更送电】因抢修进度加快原因，送电时间由１３：００变更为０７：３０【发布渠道】通过９５５９８发布","powerTime":"2019-07-26 07:01:43","powerComm":"已送电","subsNo":"","lineNo":"","tgNo":"","tgName":null,"infoStatus":"1","orgName":"国网顺平县电力局","typeName":null,"infoStatusName":null,"dateDay":null,"orgNos":null,"nowTime":null,"countyName":null,"streetName":null,"villageName":null,"roadName":null,"communityName":null,"tranName":null,"sdLineName":null,"cityCode":"1340621","cityName":"国网顺平县电力局","provinceCode":null,"stopTime":"2019-07-26 07:30:00","powerType":"全部","powerOffArea":"【全线路停电】停北李各庄西坡农业5980【纯农排变】,康各庄1920农业|25001920【纯农排变】,西河口北庄东新增农业4428（TD）【纯农排变】,北李各庄羊角地农业（TD）5408【纯农排变】,马各庄1900农业|25001900【纯农排变】,西河口村西北山坡农业（TD）0386【纯农排变】,西河口大山右1610农业|25001610【纯农排变】,马各庄村北农业（TD）5401【纯农排变】,东河口2350农","powerOffReason":"【停电原因】由于庙沟农业分支C相刀闸烧毁导致３５ＫＶ河口变电站１０ＫＶ５１４河口线路全线停电【变更送电】因抢修进度加快原因，送电时间由１３：００变更为０７：３０【发布渠道】通过９５５９８发布","powerOffId":"2019072613000016"},{"poweroffId":2019072613000002,"sgpoweroffId":null,"subsName":"","lineName":"10kV泰安路567","pubTranName":"泰安路公安局公用变压器,","scope":"【影响街道/乡镇】涞水镇 【高危重要客户】无 【影响客户】公安局家属院、公安局、县医院附近","startTime":"2019-07-25 23:53:46","stopDate":"2019-07-26 02:30:00","orgNo":"1340614","typeCode":"电网故障停限电","poweroffArea":"【单台区停电】停泰安路公安局公用变压器","poweroffReason":"【停电原因】由于电缆烧毁导致１１０ＫＶ郭下变电站１０ＫＶ泰安路５６７线路泰安路公安局公变台区停电 【变更送电】无 【发布渠道】通过９５５９８发布","powerTime":"2019-07-26 02:00:40","powerComm":"已送电","subsNo":"","lineNo":"","tgNo":"","tgName":null,"infoStatus":"1","orgName":"国网涞水县供电公司","typeName":null,"infoStatusName":null,"dateDay":null,"orgNos":null,"nowTime":null,"countyName":null,"streetName":null,"villageName":null,"roadName":null,"communityName":null,"tranName":null,"sdLineName":null,"cityCode":"1340614","cityName":"国网涞水县供电公司","provinceCode":null,"stopTime":"2019-07-26 02:30:00","powerType":"全部","powerOffArea":"【单台区停电】停泰安路公安局公用变压器","powerOffReason":"【停电原因】由于电缆烧毁导致１１０ＫＶ郭下变电站１０ＫＶ泰安路５６７线路泰安路公安局公变台区停电 【变更送电】无 【发布渠道】通过９５５９８发布","powerOffId":"2019072613000002"},{"poweroffId":2019072513000659,"sgpoweroffId":null,"subsName":"","lineName":"10KV城胡515","pubTranName":"北关村内北,","scope":"【影响街道/乡镇】双塔城区 【高危重要客户】无 【影响客户】北关村","startTime":"2019-07-25 23:36:10","stopDate":"2019-07-26 01:20:00","orgNo":"1340626","typeCode":"电网故障停限电","poweroffArea":"【单台区停电】停北关村内北","poweroffReason":"【停电原因】由于低压电缆烧毁导致３５ＫＶ城北变电站１０ＫＶ城胡５１５线路北关村内北公变台区停电 【变更送电】因抢修进度加快原因，送电时间由０８：００变更为０１：２０ 【发布渠道】通过９５５９８发布","powerTime":"2019-07-26 00:44:34","powerComm":"恢复送电","subsNo":"","lineNo":"","tgNo":"","tgName":null,"infoStatus":"1","orgName":"国网涿州市供电公司","typeName":null,"infoStatusName":null,"dateDay":null,"orgNos":null,"nowTime":null,"countyName":null,"streetName":null,"villageName":null,"roadName":null,"communityName":null,"tranName":null,"sdLineName":null,"cityCode":"1340626","cityName":"国网涿州市供电公司","provinceCode":null,"stopTime":"2019-07-26 01:20:00","powerType":"全部","powerOffArea":"【单台区停电】停北关村内北","powerOffReason":"【停电原因】由于低压电缆烧毁导致３５ＫＶ城北变电站１０ＫＶ城胡５１５线路北关村内北公变台区停电 【变更送电】因抢修进度加快原因，送电时间由０８：００变更为０１：２０ 【发布渠道】通过９５５９８发布","powerOffId":"2019072513000659"},{"poweroffId":2019072513000640,"sgpoweroffId":null,"subsName":"","lineName":"10kV516台鱼线","pubTranName":"宅子桥东1620|24001620,","scope":"【影响街道/乡镇】台鱼乡【高危重要客户】无【影响客户】宅子","startTime":"2019-07-25 22:16:52","stopDate":"2019-07-26 11:30:00","orgNo":"1340621","typeCode":"电网故障停限电","poweroffArea":"【单台区停电】停宅子桥东1620|24001620","poweroffReason":"【停电原因】由于低压出线烧毁导致３５ＫＶ安阳变电站１０ＫＶ５１６台鱼线路宅子桥东１６２０公变台区停电【变更送电】因抢修进度加快原因，送电时间由１３：００变更为１１：３０【发布渠道】通过９５５９８发布","powerTime":"2019-07-26 10:48:20","powerComm":"已送电","subsNo":"","lineNo":"","tgNo":"","tgName":null,"infoStatus":"1","orgName":"国网顺平县电力局","typeName":null,"infoStatusName":null,"dateDay":null,"orgNos":null,"nowTime":null,"countyName":null,"streetName":null,"villageName":null,"roadName":null,"communityName":null,"tranName":null,"sdLineName":null,"cityCode":"1340621","cityName":"国网顺平县电力局","provinceCode":null,"stopTime":"2019-07-26 11:30:00","powerType":"全部","powerOffArea":"【单台区停电】停宅子桥东1620|24001620","powerOffReason":"【停电原因】由于低压出线烧毁导致３５ＫＶ安阳变电站１０ＫＶ５１６台鱼线路宅子桥东１６２０公变台区停电【变更送电】因抢修进度加快原因，送电时间由１３：００变更为１１：３０【发布渠道】通过９５５９８发布","powerOffId":"2019072513000640"}],"pageModel":{"pageNow":777,"totalCount":10973,"totalPage":1098,"tableRows":0,"pageCount":10,"beginCount":7760},"isExperi":"1"}