{"message":"","today":"2020-06-15","seleList":[{"poweroffId":2019072513000632,"sgpoweroffId":null,"subsName":"","lineName":"10KV长空路518","pubTranName":"龙马铝业集团有限公司变压器,涿州市物资燃料股份合作公司,应化研究所,企业局,涿州市宏远房地产开发有限公司2,中国石油化工股份有限公司河北涿州石油分公,燃料公司(燃料小区),涿州市宏远房地产开发有限公司3,土地局,涿州市市政设施管理处,西辛庄0440,涿州金利房地产开发有限公司6,涿州市宏远房地产开发有限公司,涿州金利房地产开发有限公司7,长空路南段公变(新),生产公司,市政设施管理处,涿州市和谐房地产开发有限公司,0589046635-涿州市名流物业服务有限公司-专变-125417909-河北省汲涿州远方名流房地产开发有限公司,涿州金利房地产开发有限公司1,中国农业银行股份有限公司涿州市支行,清凉寺卫生院,涿州金利房地产开发有限公司2,0387557106-涿州市宏远小区-专变-45356484-涿州市宏远小区,粮食局东库小区（新）【纯农排变】,市政公司(宏远小区),涿州市鑫昊汇元集团房地产开发有限公司2,涿州市恒运房地产开发有限公司,联合小区4号院,邱庄250(4),宏远房地产,东关新村温馨小区,涿州市双塔街道办事处东关社区居民委员会,涿州市飞腾房地产开发有限公司1,涿州市梓通清洗有限公司,涿州金利房地产开发有限公司3,长空路北段公用（新）,涿州市飞腾房地产开发有限公司2,涿州金利房地产开发有限公司5,涿州市鑫昊汇元集团房地产开发有限公司1,涿州市博豪物业服务有限公司,涿州金利房地产开发有限公司4,农畜局家属院（新）【纯农排变】,物资局小区（新）,东关新村小区,华欣小区（新）,西辛庄村西南,9715家属院（新）,北京供电段,涿州市京热热力有限责任公司,涿州市时代汇元物业服务有限公司,三合庄南地变压器,涿州市宏远房地产开发有限公司1,西河建筑队,涿州金利房地产开发有限公司8,涿州市广远物业服务有限公司,建材公司,","scope":"【影响街道/乡镇】清凉寺城区范阳路、长空路、教军场街 【高危重要客户】无 【影响客户】物资局小区、９４家属院、华欣小区、西辛庄、农畜局家属院、建材公司、西河建筑队、东关新村小区、粮局东库小区、联合小区４号院、东关社区居民委员会、燃料公司小区、温馨小区、市政设施管理处、土地局、邱庄、企业局、设计院、和谐家园、交警家园、农业银行、时代汇元(四季橙小区)、宏远小区、碧罗湾、广远物业（保险公司家属院）、生产公司、石油公司、博豪物业、航空路金属结构厂、七建、长天小区、北京供电段、金利物业（金品时代小区）、飞腾房地产开发有限公司","startTime":"2019-07-25 22:18:49","stopDate":"2019-07-26 01:40:00","orgNo":"1340626","typeCode":"电网故障停限电","poweroffArea":"【分支停电】停涿州市广远物业服务有限公司,农畜局家属院（新）【纯农排变】,物资局小区（新）,东关新村小区,华欣小区（新）,西辛庄村西南,9715家属院（新）,北京供电段,涿州市京热热力有限责任公司,涿州市时代汇元物业服务有限公司,三合庄南地变压器,涿州市宏远房地产开发有限公司1,西河建筑队,涿州金利房地产开发有限公司8,建材公司,龙马铝业集团有限公司变压器,涿州市物资燃料股份合作公司,应化研究所,企业局,涿州市宏远房地产开发有限公司2,中国石油化工股份有限公司河北涿州石油分公,燃料公司(燃料小区),涿州市宏远房地产开发有限公司3,土地局,涿州市市政设施管理处,西辛庄0440,涿州金利房地产开发有限公司6,涿州市宏远房地产开发有限公司,涿州金利房地产开发有限公司7,长空路南段公变(新),生产公司,市政设施管理处,涿州市和谐房地产开发有限公司,0589046635-涿州市名流物业服务有限公司-专变-125417909-河北省汲涿州远方名流房地产开发有限公司,涿州金利房地产开发有限公司1,中国农业银行股份有限公司涿州市支行,清凉寺卫生院,涿州金利房地产开发有限公司2,0387557106-涿州市宏远小区-专变-45356484-涿州市宏远小区,粮食局东库小区（新）【纯农排变】,市政公司(宏远小区),涿州市鑫昊汇元集团房地产开发有限公司2,涿州市恒运房地产开发有限公司,联合小区4号院,邱庄250(4),宏远房地产,东关新村温馨小区,涿州市双塔街道办事处东关社区居民委员会,涿州市飞腾房地产开发有限公司1,涿州市梓通清洗有限公司,涿州金利房地产开发有限公司3,长空路北段公用（新）,涿州市飞腾房地产开发有限公司2,涿州金利房地产开发有限公司5,涿州市鑫昊汇元集团房地产开发有限公司1,涿州市博豪物业服务有限公司,涿州金利房地产开发有限公司4","poweroffReason":"【停电原因】由于过流跳闸导致３５ＫＶ南河变电站１０ＫＶ长空路５１８线路１４号杆以下线路停电 【变更送电】因抢修进度加快原因，送电时间由０８：００变更为０１：４０ 【发布渠道】通过９５５９８发布","powerTime":"2019-07-26 01:17:07","powerComm":"恢复送电","subsNo":"","lineNo":"","tgNo":"","tgName":null,"infoStatus":"1","orgName":"国网涿州市供电公司","typeName":null,"infoStatusName":null,"dateDay":null,"orgNos":null,"nowTime":null,"countyName":null,"streetName":null,"villageName":null,"roadName":null,"communityName":null,"tranName":null,"sdLineName":null,"cityCode":"1340626","cityName":"国网涿州市供电公司","provinceCode":null,"stopTime":"2019-07-26 01:40:00","powerType":"全部","powerOffArea":"【分支停电】停涿州市广远物业服务有限公司,农畜局家属院（新）【纯农排变】,物资局小区（新）,东关新村小区,华欣小区（新）,西辛庄村西南,9715家属院（新）,北京供电段,涿州市京热热力有限责任公司,涿州市时代汇元物业服务有限公司,三合庄南地变压器,涿州市宏远房地产开发有限公司1,西河建筑队,涿州金利房地产开发有限公司8,建材公司,龙马铝业集团有限公司变压器,涿州市物资燃料股份合作公司,应化研究所,企业局,涿州市宏远房地产开发有限公司2,中国石油化工股份有限公司河北涿州石油分公,燃料公司(燃料小区),涿州市宏远房地产开发有限公司3,土地局,涿州市市政设施管理处,西辛庄0440,涿州金利房地产开发有限公司6,涿州市宏远房地产开发有限公司,涿州金利房地产开发有限公司7,长空路南段公变(新),生产公司,市政设施管理处,涿州市和谐房地产开发有限公司,0589046635-涿州市名流物业服务有限公司-专变-125417909-河北省汲涿州远方名流房地产开发有限公司,涿州金利房地产开发有限公司1,中国农业银行股份有限公司涿州市支行,清凉寺卫生院,涿州金利房地产开发有限公司2,0387557106-涿州市宏远小区-专变-45356484-涿州市宏远小区,粮食局东库小区（新）【纯农排变】,市政公司(宏远小区),涿州市鑫昊汇元集团房地产开发有限公司2,涿州市恒运房地产开发有限公司,联合小区4号院,邱庄250(4),宏远房地产,东关新村温馨小区,涿州市双塔街道办事处东关社区居民委员会,涿州市飞腾房地产开发有限公司1,涿州市梓通清洗有限公司,涿州金利房地产开发有限公司3,长空路北段公用（新）,涿州市飞腾房地产开发有限公司2,涿州金利房地产开发有限公司5,涿州市鑫昊汇元集团房地产开发有限公司1,涿州市博豪物业服务有限公司,涿州金利房地产开发有限公司4","powerOffReason":"【停电原因】由于过流跳闸导致３５ＫＶ南河变电站１０ＫＶ长空路５１８线路１４号杆以下线路停电 【变更送电】因抢修进度加快原因，送电时间由０８：００变更为０１：４０ 【发布渠道】通过９５５９８发布","powerOffId":"2019072513000632"},{"poweroffId":2019072513000631,"sgpoweroffId":null,"subsName":"","lineName":"10KV塑料厂516","pubTranName":"西道元0376【纯农排变】,东道元0379,0387557672-涿州市仙颐园物业服务有限公司-专变-45356824-涿州市仙仙颐园物业管理有限公司,西河0399,半壁店0380,东道元村北(清凉寺供电所),润泽物业,鑫立金属加工厂,游园管理处（煤）,涿州市仙颐园物业服务有限公司,南河村（村南）,涿州市飞腾房地产开发有限公司,交通局公路站,市政工程小区【纯农排变】,0681367241-涿州市利贞永兴煤制品加工厂-专变-219728383-涿州市益民商贸有限公司1,搬运公司,涿州明城恒盛集团驾驶员培训有限公司,涿州市金东林房地产开发有限公司（51601）,西河0393【纯农排变】,列电平房家属院,0387558776-涿州市养路工区-专变-45356495-涿州市养路工区,0667726291-涿州市益民商贸有限公司-专变-208440081-涿州市益民商贸有限公司2,李金勇涂料厂,东东府房地产开发有限公司东方丽景A,涿州市鑫立金属加工厂,永固水泥制品厂,涿州市隆泰润达机械安装有限公司,西河5037,涿州市城市投资发展有限公司,涿州市金东林房地产开发有限公司1,东道元村内,涿州市金东林房地产开发有限公司（51602）,西河0384,涿州市金东林房地产开发有限公司,半壁店4545,列电家属公用,涿州市鼎润商贸有限公司,西道元4953,涿州美莱化工能源有限公司,东道元村南,西道园村,涿州市金东林房地产开发有限公司E变压器,谭学志,南河0315,涿州市北方液压设备有限公司,涿州市紫桐木门厂,龙马铝业集团有限公司A变压器,涿州市东府房地产开发有限公司,半壁店0381,龙马铝业集团有限公司D变压器,涿州市清凉寺供电所西河村东【纯农排变】,西道元4546,0548930122-保定市联众物业服务有限公司-专变-126761261-保定市民生房地产开发限公司,东道元0378,涿州市西道元学校煤柱上变压器,西道元3181,西道元0372,涿州市市政设施管理处,半壁店村南,涿州市明城驾校,","scope":"【影响街道/乡镇】清凉寺城区冠云路 【高危重要客户】无 【影响客户】列电厂、半壁店、西道元、东道元、西河村、东河村、南河村、桃园中学、列电平房、列电厂家属院、市政工程小区、东林家园、明城驾校、龙马铝业、润泽物业、郦道元、仙颐园、东方丽景、涿州市城市投资发展有限公司、飞腾房地产开发有限公司、涿州市益民商贸有限公司、东府房地产开发有限公司、涿州市利贞永兴煤制品加工厂、涿州市鼎润商贸有限公司、游园管理处、涿州市发达机械制造有限公司、涿州市紫桐木门厂、李金勇涂料厂、涿州市蓝宇特灯有限公司、涿州市鑫利兴发机械制造有限公司、涿州市实验中学、涿州市鸿昌粮油机械厂、河北永固水泥制品有限公司、涿州市天银圣博工贸有限公司、搬运公司、保定市交通运输局涿州市养路工区、涿州市发达机械制造有限公司、涿州市制鞋模具有限公司、涿州市鹏翔机械有限公司、涿州市坤祥机械厂、松源华兴涿州干燥设备有限公司、涿州市东联机械设备有限公司、涿州精微机电设备有限公司、保定市联众物业服务有限公司涿州分公司、河北银天幕墙工程有限公司","startTime":"2019-07-25 22:20:23","stopDate":"2019-07-26 05:40:00","orgNo":"1340626","typeCode":"电网故障停限电","poweroffArea":"【分支停电】停涿州市市政设施管理处,涿州美莱化工能源有限公司,东东府房地产开发有限公司东方丽景A,涿州市紫桐木门厂,西河0384,涿州市西道元学校煤柱上变压器,0681367241-涿州市利贞永兴煤制品加工厂-专变-219728383-涿州市益民商贸有限公司1,涿州市明城驾校,游园管理处（煤）,鑫立金属加工厂,涿州市金东林房地产开发有限公司E变压器,东道元0379,龙马铝业集团有限公司D变压器,龙马铝业集团有限公司A变压器,搬运公司,0387557672-涿州市仙颐园物业服务有限公司-专变-45356824-涿州市仙仙颐园物业管理有限公司,永固水泥制品厂,市政工程小区【纯农排变】,西道元4546,列电家属公用,谭学志,润泽物业,涿州明城恒盛集团驾驶员培训有限公司,东道元0378,涿州市鼎润商贸有限公司,西道元0376【纯农排变】,东道元村内,李金勇涂料厂,涿州市金东林房地产开发有限公司1,西道元4953,涿州市金东林房地产开发有限公司,涿州市金东林房地产开发有限公司（51602）,西河0399,涿州市仙颐园物业服务有限公司,列电平房家属院,涿州市金东林房地产开发有限公司（51601）,西河5037,南河村（村南）,南河0315,西道元3181,半壁店0380,半壁店4545,涿州市北方液压设备有限公司,0548930122-保定市联众物业服务有限公司-专变-126761261-保定市民生房地产开发限公司,0667726291-涿州市益民商贸有限公司-专变-208440081-涿州市益民商贸有限公司2,涿州市飞腾房地产开发有限公司,涿州市城市投资发展有限公司,西道元0372,西河0393【纯农排变】,涿州市东府房地产开发有限公司,涿州市隆泰润达机械安装有限公司,半壁店0381,西道园村,半壁店村南,东道元村南,涿州市清凉寺供电所西河村东【纯农排变】,交通局公路站,0387558776-涿州市养路工区-专变-45356495-涿州市养路工区,涿州市鑫立金属加工厂,东道元村北(清凉寺供电所)","poweroffReason":"【停电原因】由于Ｃ相接地导致３５ＫＶ南河变电站１０ＫＶ塑料厂５１６线路０１号杆以下线路停电 【变更送电】因抢修进度加快原因，送电时间由０８：００变更为０５：４０ 【发布渠道】通过９５５９８发布","powerTime":"2019-07-26 05:21:47","powerComm":"恢复送电","subsNo":"","lineNo":"","tgNo":"","tgName":null,"infoStatus":"1","orgName":"国网涿州市供电公司","typeName":null,"infoStatusName":null,"dateDay":null,"orgNos":null,"nowTime":null,"countyName":null,"streetName":null,"villageName":null,"roadName":null,"communityName":null,"tranName":null,"sdLineName":null,"cityCode":"1340626","cityName":"国网涿州市供电公司","provinceCode":null,"stopTime":"2019-07-26 05:40:00","powerType":"全部","powerOffArea":"【分支停电】停涿州市市政设施管理处,涿州美莱化工能源有限公司,东东府房地产开发有限公司东方丽景A,涿州市紫桐木门厂,西河0384,涿州市西道元学校煤柱上变压器,0681367241-涿州市利贞永兴煤制品加工厂-专变-219728383-涿州市益民商贸有限公司1,涿州市明城驾校,游园管理处（煤）,鑫立金属加工厂,涿州市金东林房地产开发有限公司E变压器,东道元0379,龙马铝业集团有限公司D变压器,龙马铝业集团有限公司A变压器,搬运公司,0387557672-涿州市仙颐园物业服务有限公司-专变-45356824-涿州市仙仙颐园物业管理有限公司,永固水泥制品厂,市政工程小区【纯农排变】,西道元4546,列电家属公用,谭学志,润泽物业,涿州明城恒盛集团驾驶员培训有限公司,东道元0378,涿州市鼎润商贸有限公司,西道元0376【纯农排变】,东道元村内,李金勇涂料厂,涿州市金东林房地产开发有限公司1,西道元4953,涿州市金东林房地产开发有限公司,涿州市金东林房地产开发有限公司（51602）,西河0399,涿州市仙颐园物业服务有限公司,列电平房家属院,涿州市金东林房地产开发有限公司（51601）,西河5037,南河村（村南）,南河0315,西道元3181,半壁店0380,半壁店4545,涿州市北方液压设备有限公司,0548930122-保定市联众物业服务有限公司-专变-126761261-保定市民生房地产开发限公司,0667726291-涿州市益民商贸有限公司-专变-208440081-涿州市益民商贸有限公司2,涿州市飞腾房地产开发有限公司,涿州市城市投资发展有限公司,西道元0372,西河0393【纯农排变】,涿州市东府房地产开发有限公司,涿州市隆泰润达机械安装有限公司,半壁店0381,西道园村,半壁店村南,东道元村南,涿州市清凉寺供电所西河村东【纯农排变】,交通局公路站,0387558776-涿州市养路工区-专变-45356495-涿州市养路工区,涿州市鑫立金属加工厂,东道元村北(清凉寺供电所)","powerOffReason":"【停电原因】由于Ｃ相接地导致３５ＫＶ南河变电站１０ＫＶ塑料厂５１６线路０１号杆以下线路停电 【变更送电】因抢修进度加快原因，送电时间由０８：００变更为０５：４０ 【发布渠道】通过９５５９８发布","powerOffId":"2019072513000631"},{"poweroffId":2019072513000628,"sgpoweroffId":null,"subsName":"","lineName":"城西区线513电力电缆","pubTranName":"盛源5号（双隆门口）,","scope":"【影响街道/乡镇】安肃镇 【高危重要客户】无 【影响客户】双龙商厦附近、前营旅馆、玻璃厂家属院、电子机房小区、养路工区家属院","startTime":"2019-07-26 05:30:00","stopDate":"2019-07-26 08:00:00","orgNo":"1340605","typeCode":"其他临时停电","poweroffArea":"【单台区停电】停盛源5号（双隆门口）","poweroffReason":"【停电原因】由于处理紧急缺陷导致１１０ＫＶ徐水变电站城西区５１３线路盛源５号公变台区停电 【变更送电】无 【发布渠道】通过９５５９８发布","powerTime":"2019-07-26 07:13:45","powerComm":"已送电","subsNo":"","lineNo":"","tgNo":"","tgName":null,"infoStatus":"1","orgName":"国网徐水县供电公司","typeName":null,"infoStatusName":null,"dateDay":null,"orgNos":null,"nowTime":null,"countyName":null,"streetName":null,"villageName":null,"roadName":null,"communityName":null,"tranName":null,"sdLineName":null,"cityCode":"1340605","cityName":"国网徐水县供电公司","provinceCode":null,"stopTime":"2019-07-26 08:00:00","powerType":"全部","powerOffArea":"【单台区停电】停盛源5号（双隆门口）","powerOffReason":"【停电原因】由于处理紧急缺陷导致１１０ＫＶ徐水变电站城西区５１３线路盛源５号公变台区停电 【变更送电】无 【发布渠道】通过９５５９８发布","powerOffId":"2019072513000628"},{"poweroffId":2019072513000620,"sgpoweroffId":null,"subsName":"","lineName":"10kV557西疃线","pubTranName":"内化村公用农业2台区【纯农排变】,大杨庄公用农业2台区【纯农排变】,大杨庄公用照明3台区,东疃公用照明9台区【煤改电】,东町公用照明4台区【煤改电】,大杨庄公用农业1台区【纯农排变】,内化公用照明11台区,内化公用照明12台区,内化公用照明1台区,西王庄公用农业1台区【纯农排变】,定州市福洲源建材有限公司,内化公用农业村东12台区【纯农排变】,定州市兴源建材有限公司变压器,西念自町面粉厂,东疃公用照明13台区【煤改电】,内化蔬菜基地,开元镇腾达废旧利用铸造厂变压器,内化公用照明7台区,东疃公用照明10台区【煤改电】,定州市瑞元体育用品厂变压器,东杨庄公用农业2台区【纯农排变】,定州市龙乾废品收购站变压器,东念自疃公用农业9台区【纯农排变】,定州市星宝汽车配件有限公司,内化公用照明13台区,内化村公用农业村南14台区【纯农排变】,内化公用照明2台区,东念自疃公用农业1台区【纯农排变】,内化公用照明8台区,东杨庄公用农业1台区【纯农排变】,内化公用照明4台区,定州市文山编织袋厂变压器,0657755924-定州市开元镇杨庄屯村村民委员会-专变-190537147-定州市开元镇杨家庄屯村民委员会变压器,定州市开元镇人民政府,大杨庄公用农业5台区【纯农排变】,定州市胜利铁渣加工站变压器,内化公用照明5台区,定州市开元无纺布厂,定州市腾云汽车配件铸造厂变压器,东町公用照明1台区【煤改电】,大杨庄公用照明1台区,0685368121-定州市建学车床加工厂-专变-225182484-定州市建学车床加工厂变压器,杨庄屯公用照明2台区,大杨庄公用农业6台区【纯农排变】,内化村公用农业1台区【纯农排变】,定州市永生铸造厂,杨庄屯公用照明3台区,定州市雪立机械配件加工厂,大杨庄公用农业4台区【纯农排变】,定州市定西机械加工厂变压器,杨庄屯村南,杨庄屯公用照明1台区,内化公用照明3台区,王世勋,大杨庄公用照明2台区,扬庄屯村东,大杨庄公用照明4台区,内化公用农业15台区【纯农排变】,大杨庄公用农业3台区【纯农排变】,西念自疃公用农业2台区【纯农排变】,王军,内化村东变压器,东念自疃公用农业2台区【纯农排变】,贾进辉炼铁厂,内化公用照明6台区,中国联合网络通信有限公司定州市分公司,定州市亚奥体育器材厂,贾军平,东疃公用照明12台区【煤改电】,内化公用照明10台区,内化公用照明9台区,内化村南,","scope":"【影响街道/乡镇】开元镇【高危重要客户】无【影响客户】东杨庄、大杨庄、杨庄屯、内化、西念自疃、东念自疃、文山编织袋厂、永生铸造厂、定西机械配件厂、腾云机械配件厂","startTime":"2019-07-25 21:58:17","stopDate":"2019-07-26 04:00:00","orgNo":"1340610","typeCode":"电网故障停限电","poweroffArea":"【全线路停电】停东疃公用照明13台区【煤改电】,东疃公用照明9台区【煤改电】,东町公用照明4台区【煤改电】,大杨庄公用农业1台区【纯农排变】,内化公用照明11台区,内化公用照明12台区,内化公用照明1台区,西王庄公用农业1台区【纯农排变】,内化村公用农业2台区【纯农排变】,定州市福洲源建材有限公司,内化公用农业村东12台区【纯农排变】,定州市兴源建材有限公司变压器,西念自町面粉厂,内化公用照明2台区,东念自疃公用农业1台区【纯农排变】,内化公用照明8台区,东杨庄公用农业1台区【纯农排变】,内化公用照明4台区,定州市文山编织袋厂变压器,0657755924-定州市开元镇杨庄屯村村民委员会-专变-190537147-定州市开元镇杨家庄屯村民委员会变压器,定州市开元镇人民政府,大杨庄公用农业5台区【纯农排变】,大杨庄公用农业2台区【纯农排变】,杨庄屯公用照明3台区,定州市雪立机械配件加工厂,大杨庄公用农业4台区【纯农排变】,定州市定西机械加工厂变压器,王世勋,大杨庄公用照明2台区,内化蔬菜基地,内化公用照明6台区,中国联合网络通信有限公司定州市分公司,定州市亚奥体育器材厂,贾军平,东疃公用照明12台区【煤改电】,内化公用照明10台区,内化公用照明9台区,内化村南,杨庄屯村南,杨庄屯公用照明1台区,内化公用照明3台区,扬庄屯村东,内化公用照明13台区,内化村公用农业村南14台区【纯农排变】,定州市胜利铁渣加工站变压器,内化公用照明5台区,定州市开元无纺布厂,定州市腾云汽车配件铸造厂变压器,东町公用照明1台区【煤改电】,大杨庄公用照明3台区,大杨庄公用照明1台区,0685368121-定州市建学车床加工厂-专变-225182484-定州市建学车床加工厂变压器,杨庄屯公用照明2台区,大杨庄公用农业6台区【纯农排变】,内化村公用农业1台区【纯农排变】,定州市永生铸造厂,内化公用农业15台区【纯农排变】,大杨庄公用照明4台区,大杨庄公用农业3台区【纯农排变】,西念自疃公用农业2台区【纯农排变】,王军,内化村东变压器,东念自疃公用农业2台区【纯农排变】,贾进辉炼铁厂,开元镇腾达废旧利用铸造厂变压器,内化公用照明7台区,东疃公用照明10台区【煤改电】,定州市瑞元体育用品厂变压器,东杨庄公用农业2台区【纯农排变】,定州市龙乾废品收购站变压器,东念自疃公用农业9台区【纯农排变】,定州市星宝汽车配件有限公司","poweroffReason":"【停电原因】由于瑞源体育用品公司配变Ａ相避雷器烧毁导致１１０ＫＶ新民变电站１０ＫＶ５５７西疃线路全线停电 【变更送电】因抢修进度加快原因，送电时间由１２：００变更为０４：００ 【发布渠道】９５５９８","powerTime":"2019-07-26 03:35:22","powerComm":"已送电","subsNo":"","lineNo":"","tgNo":"","tgName":null,"infoStatus":"1","orgName":"国网定州市供电公司","typeName":null,"infoStatusName":null,"dateDay":null,"orgNos":null,"nowTime":null,"countyName":null,"streetName":null,"villageName":null,"roadName":null,"communityName":null,"tranName":null,"sdLineName":null,"cityCode":"1340610","cityName":"国网定州市供电公司","provinceCode":null,"stopTime":"2019-07-26 04:00:00","powerType":"全部","powerOffArea":"【全线路停电】停东疃公用照明13台区【煤改电】,东疃公用照明9台区【煤改电】,东町公用照明4台区【煤改电】,大杨庄公用农业1台区【纯农排变】,内化公用照明11台区,内化公用照明12台区,内化公用照明1台区,西王庄公用农业1台区【纯农排变】,内化村公用农业2台区【纯农排变】,定州市福洲源建材有限公司,内化公用农业村东12台区【纯农排变】,定州市兴源建材有限公司变压器,西念自町面粉厂,内化公用照明2台区,东念自疃公用农业1台区【纯农排变】,内化公用照明8台区,东杨庄公用农业1台区【纯农排变】,内化公用照明4台区,定州市文山编织袋厂变压器,0657755924-定州市开元镇杨庄屯村村民委员会-专变-190537147-定州市开元镇杨家庄屯村民委员会变压器,定州市开元镇人民政府,大杨庄公用农业5台区【纯农排变】,大杨庄公用农业2台区【纯农排变】,杨庄屯公用照明3台区,定州市雪立机械配件加工厂,大杨庄公用农业4台区【纯农排变】,定州市定西机械加工厂变压器,王世勋,大杨庄公用照明2台区,内化蔬菜基地,内化公用照明6台区,中国联合网络通信有限公司定州市分公司,定州市亚奥体育器材厂,贾军平,东疃公用照明12台区【煤改电】,内化公用照明10台区,内化公用照明9台区,内化村南,杨庄屯村南,杨庄屯公用照明1台区,内化公用照明3台区,扬庄屯村东,内化公用照明13台区,内化村公用农业村南14台区【纯农排变】,定州市胜利铁渣加工站变压器,内化公用照明5台区,定州市开元无纺布厂,定州市腾云汽车配件铸造厂变压器,东町公用照明1台区【煤改电】,大杨庄公用照明3台区,大杨庄公用照明1台区,0685368121-定州市建学车床加工厂-专变-225182484-定州市建学车床加工厂变压器,杨庄屯公用照明2台区,大杨庄公用农业6台区【纯农排变】,内化村公用农业1台区【纯农排变】,定州市永生铸造厂,内化公用农业15台区【纯农排变】,大杨庄公用照明4台区,大杨庄公用农业3台区【纯农排变】,西念自疃公用农业2台区【纯农排变】,王军,内化村东变压器,东念自疃公用农业2台区【纯农排变】,贾进辉炼铁厂,开元镇腾达废旧利用铸造厂变压器,内化公用照明7台区,东疃公用照明10台区【煤改电】,定州市瑞元体育用品厂变压器,东杨庄公用农业2台区【纯农排变】,定州市龙乾废品收购站变压器,东念自疃公用农业9台区【纯农排变】,定州市星宝汽车配件有限公司","powerOffReason":"【停电原因】由于瑞源体育用品公司配变Ａ相避雷器烧毁导致１１０ＫＶ新民变电站１０ＫＶ５５７西疃线路全线停电 【变更送电】因抢修进度加快原因，送电时间由１２：００变更为０４：００ 【发布渠道】９５５９８","powerOffId":"2019072513000620"},{"poweroffId":2019072513000614,"sgpoweroffId":null,"subsName":"","lineName":"望磷线517","pubTranName":"加油站前配变,谷家村新民居,宏源化工有限公司,谷家村村东,鑫达园小区,谷家村村北1,百货院,温泉花园 箱变配电2,0665943546-保定伍建物业管理有限责任公司-专变-221249479-保定伍建物业管理有限责任公司,东盛园,物资院东,谷家村村北2,谷家村村西,九龙橡胶,百盛家园3号,龙河工贸有限责任公司,福升鞋厂,0665943546-保定伍建物业管理有限责任公司-专变-221249496-保定伍建物业管理有限责任公司,兴华面粉厂,望都县望都镇谷家村,温泉花园1250,鑫达园箱变配电变压器,河北尚科房地产开发有限公司(温泉花园),百盛家园配变,电瓷厂家属院,交警队家属院,百盛家园2期,温泉花园 箱变配电变压器,樊家村村北,","scope":"【影响街道/乡镇】望都镇　 【高危重要客户】无　　 【影响客户】鑫达园、百货院、交警队家属院、电瓷厂家属院、物资院东、百盛家园、东盛园、温泉公寓、谷家村部分农业、梁屯道口西农、樊家村村北、福升鞋厂、宏源化工、伍建房地产开发公司（第一城）、长丰电磁电器有限公司、九龙橡胶、龙河工贸有限责任公司、温泉花园、龙河食品、宏屹国际城、河北尚科房地产开发有限公司、工商管理局、交警队家属院、福升鞋厂、谷家村新民居、加油站、兴华面粉厂","startTime":"2019-07-25 21:43:12","stopDate":"2019-07-25 23:30:00","orgNo":"1340623","typeCode":"电网故障停限电","poweroffArea":"【全线路停电】停谷家村新民居,望都县望都镇谷家村,温泉花园 箱变配电2,百盛家园2期,九龙橡胶,河北尚科房地产开发有限公司(温泉花园),温泉花园 箱变配电变压器,电瓷厂家属院,谷家村村北1,百货院,百盛家园配变,谷家村村东,龙河工贸有限责任公司,加油站前配变,交警队家属院,福升鞋厂,宏源化工有限公司,樊家村村北,兴华面粉厂,0665943546-保定伍建物业管理有限责任公司-专变-221249479-保定伍建物业管理有限责任公司,鑫达园小区,0665943546-保定伍建物业管理有限责任公司-专变-221249496-保定伍建物业管理有限责任公司,温泉花园1250,谷家村村北2,谷家村村西,物资院东,鑫达园箱变配电变压器,百盛家园3号,东盛园","poweroffReason":"【停电原因】由于站内开关跳闸导致１１０ＫＶ望都变电站望磷线５１７线路全线停电 【变更送电】因抢修进度加快原因，送电时间由２６日１０：００变更为２５日２３：３０ 【发布渠道】通过９５５９８发布","powerTime":"2019-07-25 22:58:29","powerComm":"已送电","subsNo":"","lineNo":"","tgNo":"","tgName":null,"infoStatus":"1","orgName":"国网望都县供电公司","typeName":null,"infoStatusName":null,"dateDay":null,"orgNos":null,"nowTime":null,"countyName":null,"streetName":null,"villageName":null,"roadName":null,"communityName":null,"tranName":null,"sdLineName":null,"cityCode":"1340623","cityName":"国网望都县供电公司","provinceCode":null,"stopTime":"2019-07-25 23:30:00","powerType":"全部","powerOffArea":"【全线路停电】停谷家村新民居,望都县望都镇谷家村,温泉花园 箱变配电2,百盛家园2期,九龙橡胶,河北尚科房地产开发有限公司(温泉花园),温泉花园 箱变配电变压器,电瓷厂家属院,谷家村村北1,百货院,百盛家园配变,谷家村村东,龙河工贸有限责任公司,加油站前配变,交警队家属院,福升鞋厂,宏源化工有限公司,樊家村村北,兴华面粉厂,0665943546-保定伍建物业管理有限责任公司-专变-221249479-保定伍建物业管理有限责任公司,鑫达园小区,0665943546-保定伍建物业管理有限责任公司-专变-221249496-保定伍建物业管理有限责任公司,温泉花园1250,谷家村村北2,谷家村村西,物资院东,鑫达园箱变配电变压器,百盛家园3号,东盛园","powerOffReason":"【停电原因】由于站内开关跳闸导致１１０ＫＶ望都变电站望磷线５１７线路全线停电 【变更送电】因抢修进度加快原因，送电时间由２６日１０：００变更为２５日２３：３０ 【发布渠道】通过９５５９８发布","powerOffId":"2019072513000614"},{"poweroffId":2019072513000606,"sgpoweroffId":null,"subsName":"","lineName":"周任516","pubTranName":"解村17号柱上变压器,解村5#,解村14#,","scope":"【影响街道/乡镇】凌云册乡【高危重要客户】无【影响客户】解村","startTime":"2019-07-25 21:26:56","stopDate":"2019-07-25 23:00:00","orgNo":"1340625","typeCode":"电网故障停限电","poweroffArea":"【分支停电】停解村14#,解村17号柱上变压器,解村5#","poweroffReason":"【停电原因】由于弓子线烧毁导致３５ＫＶ凌云册变电站周任５１６线路００５号杆至０１０号杆之间停电【变更送电】因抢修进度加快原因，送电时间由２３：５９变更为２３:００【发布渠道】通过９５５９８发布","powerTime":"2019-07-25 22:24:44","powerComm":"已送电","subsNo":"","lineNo":"","tgNo":"","tgName":null,"infoStatus":"1","orgName":"国网易县供电公司","typeName":null,"infoStatusName":null,"dateDay":null,"orgNos":null,"nowTime":null,"countyName":null,"streetName":null,"villageName":null,"roadName":null,"communityName":null,"tranName":null,"sdLineName":null,"cityCode":"1340625","cityName":"国网易县供电公司","provinceCode":null,"stopTime":"2019-07-25 23:00:00","powerType":"全部","powerOffArea":"【分支停电】停解村14#,解村17号柱上变压器,解村5#","powerOffReason":"【停电原因】由于弓子线烧毁导致３５ＫＶ凌云册变电站周任５１６线路００５号杆至０１０号杆之间停电【变更送电】因抢修进度加快原因，送电时间由２３：５９变更为２３:００【发布渠道】通过９５５９８发布","powerOffId":"2019072513000606"},{"poweroffId":2019072513000599,"sgpoweroffId":null,"subsName":"","lineName":"市郊513","pubTranName":"北方中北变压器,","scope":"【影响街道/乡镇】和平办事处 【高危重要客户】无 【影响客户】北方中村（部分）","startTime":"2019-07-25 21:07:06","stopDate":"2019-07-25 23:59:00","orgNo":"1340612","typeCode":"电网故障停限电","poweroffArea":"【单台区停电】停北方中北变压器","poweroffReason":"【停电原因】由于电缆烧毁导致１１０ＫＶ高碑店变电站１０ＫＶ市郊５１３线路北方中北公变台区停电 【变更送电】无 【发布渠道】通过９５５９８发布","powerTime":"2019-07-25 23:20:05","powerComm":"已送电","subsNo":"","lineNo":"","tgNo":"","tgName":null,"infoStatus":"1","orgName":"国网高碑店市供电公司","typeName":null,"infoStatusName":null,"dateDay":null,"orgNos":null,"nowTime":null,"countyName":null,"streetName":null,"villageName":null,"roadName":null,"communityName":null,"tranName":null,"sdLineName":null,"cityCode":"1340612","cityName":"国网高碑店市供电公司","provinceCode":null,"stopTime":"2019-07-25 23:59:00","powerType":"全部","powerOffArea":"【单台区停电】停北方中北变压器","powerOffReason":"【停电原因】由于电缆烧毁导致１１０ＫＶ高碑店变电站１０ＫＶ市郊５１３线路北方中北公变台区停电 【变更送电】无 【发布渠道】通过９５５９８发布","powerOffId":"2019072513000599"},{"poweroffId":2019072513000597,"sgpoweroffId":null,"subsName":"","lineName":"10kV七一路站533线路","pubTranName":"B202柱上变压器,","scope":"【影响街道/乡镇】阳光北大街、韩村北路、秀园路 【高危重要客户】无 【影响客户】染厂宿舍、房管","startTime":"2019-07-25 19:00:00","stopDate":"2019-07-25 22:30:00","orgNo":"13406","typeCode":"电网故障停限电","poweroffArea":"【单台区停电】停B202柱上变压器","poweroffReason":"【停电原因】由于低压刀闸烧导致１０ＫＶ七一路变电站５３３线路Ｂ２０２公变台区停电【变更送电】无【发布渠道】通过９５５９８发布","powerTime":"2019-07-25 21:36:50","powerComm":"已送电","subsNo":"","lineNo":"","tgNo":"","tgName":null,"infoStatus":"1","orgName":"保定供电公司","typeName":null,"infoStatusName":null,"dateDay":null,"orgNos":null,"nowTime":null,"countyName":null,"streetName":null,"villageName":null,"roadName":null,"communityName":null,"tranName":null,"sdLineName":null,"cityCode":"13406","cityName":"保定供电公司","provinceCode":null,"stopTime":"2019-07-25 22:30:00","powerType":"全部","powerOffArea":"【单台区停电】停B202柱上变压器","powerOffReason":"【停电原因】由于低压刀闸烧导致１０ＫＶ七一路变电站５３３线路Ｂ２０２公变台区停电【变更送电】无【发布渠道】通过９５５９８发布","powerOffId":"2019072513000597"},{"poweroffId":2019072513000557,"sgpoweroffId":null,"subsName":"","lineName":"东盛514","pubTranName":"高碑店市万美商贸有限公司变压器,0671906667-保定隆和房地产开发有限公司-专变-212389225-保定隆和房地产开发有限公司1#变压器,高碑店市公安消防大队,高碑店市单单幕墙有限责任公司变压器,高碑店市兴泰房地产开发有限公司1#变压器,圣方机械有限公司,东盛闫各庄东变压器,隆基泰和置业有限公司2,东盛张八屯西变压器,高碑店市兴泰房地产开发有限公司2#变压器,112线南公变变压器,东盛办事处变压器,海绵厂,福达公司,高碑店市路灯管理办公室（112线环岛路灯）变压器,东盛闫各庄排灌变压器【纯农排变】,联通公司1,高碑店市永杰汽车销售有限公司变压器,河北雷华伟业房地产开发有限公司,方家务小学,杨丙山,李怀友变压器,保定轩宇陆威汽车销售服务有限公司变压器,东盛冯漫撒西变压器【纯农排变】,隆基泰和置业有限公司1,东盛闫各庄西变压器,河北雷华物业房地产开发有限公司2变压器,保定隆和房地产开发有限公司3#变压器,保定隆和房地产开发有限公司2#变压器,张八屯水洗厂,保定隆和房地产开发有限公司4#变压器,立信塑业,高碑店市世纪毅佳饲料有限责任公司变压器,梁洪,河北合创建筑节能科技有限责任公司变压器,高碑店市恒安房地产开发有限公司,高碑店市路灯管理办公室变压器,高碑店市山农生物有限公司变压器,高碑店市单单幕墙有限责任公司,高碑店市金宇电磁线有限公司变压器,保定景盛房地产开发有限公司高碑店分公司,高碑店市丰原汽车配件厂变压器,0671906667-保定隆和房地产开发有限公司-专变-212380302-保定隆和房地产开发有限公司2#变压器,码王叉车配件,赵成武,河北雷华物业房地产开发有限公司1变压器,东盛闫王庄北变压器,高碑店市广跃城市建设有限公司,高碑店市大和环保锅炉有限公司变压器,张八屯水洗,保定隆和房地产开发有限公司1#变压器,东盛冯漫撒西北变压器,0671179803-高碑店市广跃城市建设有限公司-专变-212318236-高碑店市广跃城市建设有限公司变压器,张八屯铁厂,保定景盛房地产开发有限公司高碑店分公司2,东盛闫王庄变压器,龙腾旅游制品,光明铝合金,闫玉山,保定市隆和房地产开发有限公司,高碑店市路灯管理办公室（新华大街闫各庄西路灯）,变压器,高碑店市大医美奥医院,0387438029-高碑店市鑫光明玻璃有限公司-专变-217785144-高碑店市鑫光明玻璃有限公司变压器,高碑店市利通设备租赁有限公司变压器,高碑店市建设局,异型刀具,立信塑业变压器,高碑店市路灯管理办公室（光华北大街路灯）变压器,东盛冯漫撒北变压器,","scope":"【影响街道/乡镇】东盛办事处、１１２线南 【高危重要客户】无 【影响客户】闫各庄村、李怀友、鑫光明玻璃有限公司、世纪毅佳饲料有限责任公司、大和环保锅炉、金宇电磁线、万美房地产、保定隆和房地产、起悦汽车贸易、广跃城市建设有限公司、中国人寿保险高碑店分公司、龙腾旅游制品有限责任公司、恒安房地产、单单幕墙、方家务小学、保定轩宇陆威汽车销售、河北航帆箱包制造有限公司、立信神农、丰原汽车配件厂、山农生物有限公司、运恒土地整理有限公司、河北隆泰物业高碑店分公司、宏德机加工综合厂、张八屯水洗厂、高碑店市建设局、路灯管理办公室、河北赢石建筑工程有限公司、雷华物业房地产","startTime":"2019-07-25 19:07:17","stopDate":"2019-07-25 21:00:00","orgNo":"1340612","typeCode":"电网故障停限电","poweroffArea":"【全线路停电】停高碑店市万美商贸有限公司变压器,高碑店市世纪毅佳饲料有限责任公司变压器,梁洪,河北合创建筑节能科技有限责任公司变压器,高碑店市恒安房地产开发有限公司,高碑店市路灯管理办公室变压器,高碑店市山农生物有限公司变压器,高碑店市单单幕墙有限责任公司,东盛闫各庄排灌变压器【纯农排变】,隆基泰和置业有限公司2,东盛张八屯西变压器,高碑店市兴泰房地产开发有限公司2#变压器,112线南公变变压器,东盛办事处变压器,海绵厂,福达公司,高碑店市路灯管理办公室（112线环岛路灯）变压器,联通公司1,高碑店市永杰汽车销售有限公司变压器,河北雷华伟业房地产开发有限公司,东盛闫王庄北变压器,高碑店市广跃城市建设有限公司,高碑店市大和环保锅炉有限公司变压器,张八屯水洗,保定隆和房地产开发有限公司1#变压器,东盛冯漫撒西北变压器,0671179803-高碑店市广跃城市建设有限公司-专变-212318236-高碑店市广跃城市建设有限公司变压器,张八屯铁厂,保定景盛房地产开发有限公司高碑店分公司2,东盛闫王庄变压器,0671906667-保定隆和房地产开发有限公司-专变-212389225-保定隆和房地产开发有限公司1#变压器,高碑店市公安消防大队,高碑店市单单幕墙有限责任公司变压器,高碑店市兴泰房地产开发有限公司1#变压器,圣方机械有限公司,东盛闫各庄东变压器,方家务小学,杨丙山,李怀友变压器,保定轩宇陆威汽车销售服务有限公司变压器,东盛冯漫撒西变压器【纯农排变】,隆基泰和置业有限公司1,东盛闫各庄西变压器,河北雷华物业房地产开发有限公司2变压器,保定隆和房地产开发有限公司3#变压器,保定隆和房地产开发有限公司2#变压器,张八屯水洗厂,保定隆和房地产开发有限公司4#变压器,立信塑业,龙腾旅游制品,光明铝合金,闫玉山,保定市隆和房地产开发有限公司,高碑店市路灯管理办公室（新华大街闫各庄西路灯）,变压器,高碑店市大医美奥医院,0387438029-高碑店市鑫光明玻璃有限公司-专变-217785144-高碑店市鑫光明玻璃有限公司变压器,高碑店市利通设备租赁有限公司变压器,高碑店市建设局,异型刀具,立信塑业变压器,高碑店市路灯管理办公室（光华北大街路灯）变压器,东盛冯漫撒北变压器,高碑店市金宇电磁线有限公司变压器,保定景盛房地产开发有限公司高碑店分公司,高碑店市丰原汽车配件厂变压器,0671906667-保定隆和房地产开发有限公司-专变-212380302-保定隆和房地产开发有限公司2#变压器,码王叉车配件,赵成武,河北雷华物业房地产开发有限公司1变压器","poweroffReason":"【停电原因】由于闫各庄分支电缆被挖断导致１１０ＫＶ方家务变电站１０ＫＶ东盛５１４线路全线停电 【变更送电】因抢修进度加快原因，送电时间由２３：５９变更为２１：００ 【发布渠道】通过９５５９８发布","powerTime":"2019-07-25 20:21:19","powerComm":"已送电","subsNo":"","lineNo":"","tgNo":"","tgName":null,"infoStatus":"1","orgName":"国网高碑店市供电公司","typeName":null,"infoStatusName":null,"dateDay":null,"orgNos":null,"nowTime":null,"countyName":null,"streetName":null,"villageName":null,"roadName":null,"communityName":null,"tranName":null,"sdLineName":null,"cityCode":"1340612","cityName":"国网高碑店市供电公司","provinceCode":null,"stopTime":"2019-07-25 21:00:00","powerType":"全部","powerOffArea":"【全线路停电】停高碑店市万美商贸有限公司变压器,高碑店市世纪毅佳饲料有限责任公司变压器,梁洪,河北合创建筑节能科技有限责任公司变压器,高碑店市恒安房地产开发有限公司,高碑店市路灯管理办公室变压器,高碑店市山农生物有限公司变压器,高碑店市单单幕墙有限责任公司,东盛闫各庄排灌变压器【纯农排变】,隆基泰和置业有限公司2,东盛张八屯西变压器,高碑店市兴泰房地产开发有限公司2#变压器,112线南公变变压器,东盛办事处变压器,海绵厂,福达公司,高碑店市路灯管理办公室（112线环岛路灯）变压器,联通公司1,高碑店市永杰汽车销售有限公司变压器,河北雷华伟业房地产开发有限公司,东盛闫王庄北变压器,高碑店市广跃城市建设有限公司,高碑店市大和环保锅炉有限公司变压器,张八屯水洗,保定隆和房地产开发有限公司1#变压器,东盛冯漫撒西北变压器,0671179803-高碑店市广跃城市建设有限公司-专变-212318236-高碑店市广跃城市建设有限公司变压器,张八屯铁厂,保定景盛房地产开发有限公司高碑店分公司2,东盛闫王庄变压器,0671906667-保定隆和房地产开发有限公司-专变-212389225-保定隆和房地产开发有限公司1#变压器,高碑店市公安消防大队,高碑店市单单幕墙有限责任公司变压器,高碑店市兴泰房地产开发有限公司1#变压器,圣方机械有限公司,东盛闫各庄东变压器,方家务小学,杨丙山,李怀友变压器,保定轩宇陆威汽车销售服务有限公司变压器,东盛冯漫撒西变压器【纯农排变】,隆基泰和置业有限公司1,东盛闫各庄西变压器,河北雷华物业房地产开发有限公司2变压器,保定隆和房地产开发有限公司3#变压器,保定隆和房地产开发有限公司2#变压器,张八屯水洗厂,保定隆和房地产开发有限公司4#变压器,立信塑业,龙腾旅游制品,光明铝合金,闫玉山,保定市隆和房地产开发有限公司,高碑店市路灯管理办公室（新华大街闫各庄西路灯）,变压器,高碑店市大医美奥医院,0387438029-高碑店市鑫光明玻璃有限公司-专变-217785144-高碑店市鑫光明玻璃有限公司变压器,高碑店市利通设备租赁有限公司变压器,高碑店市建设局,异型刀具,立信塑业变压器,高碑店市路灯管理办公室（光华北大街路灯）变压器,东盛冯漫撒北变压器,高碑店市金宇电磁线有限公司变压器,保定景盛房地产开发有限公司高碑店分公司,高碑店市丰原汽车配件厂变压器,0671906667-保定隆和房地产开发有限公司-专变-212380302-保定隆和房地产开发有限公司2#变压器,码王叉车配件,赵成武,河北雷华物业房地产开发有限公司1变压器","powerOffReason":"【停电原因】由于闫各庄分支电缆被挖断导致１１０ＫＶ方家务变电站１０ＫＶ东盛５１４线路全线停电 【变更送电】因抢修进度加快原因，送电时间由２３：５９变更为２１：００ 【发布渠道】通过９５５９８发布","powerOffId":"2019072513000557"},{"poweroffId":2019072513000539,"sgpoweroffId":null,"subsName":"","lineName":"10kV鲁岗站532线路","pubTranName":"0358129750-保定轩宇鑫悦汽车有限公司-1-配电室-变压器-1,","scope":"【影响街道/乡镇】朝阳北大街 【高危重要客户】无 【影响客户】轩宇鑫悦汽车有限公司","startTime":"2019-08-01 09:00:00","stopDate":"2019-08-01 17:00:00","orgNo":"13406","typeCode":"临时停电","poweroffArea":"【分支停电】停0358129750-保定轩宇鑫悦汽车有限公司-1-配电室-变压器-1","poweroffReason":"【停电原因】由于供电设备临时检修导致１０ＫＶ鲁岗变电站５３２线路鲁岗路４７号杆分支以下停电【变更送电】无【发布渠道】保定市保定有线电视台（０７月３０日２０时１５分至２１时４５分之间）屏幕上滚动","powerTime":"2019-08-01 16:47:09","powerComm":"已送电","subsNo":"","lineNo":"","tgNo":"","tgName":null,"infoStatus":"1","orgName":"保定供电公司","typeName":null,"infoStatusName":null,"dateDay":null,"orgNos":null,"nowTime":null,"countyName":null,"streetName":null,"villageName":null,"roadName":null,"communityName":null,"tranName":null,"sdLineName":null,"cityCode":"13406","cityName":"保定供电公司","provinceCode":null,"stopTime":"2019-08-01 17:00:00","powerType":"全部","powerOffArea":"【分支停电】停0358129750-保定轩宇鑫悦汽车有限公司-1-配电室-变压器-1","powerOffReason":"【停电原因】由于供电设备临时检修导致１０ＫＶ鲁岗变电站５３２线路鲁岗路４７号杆分支以下停电【变更送电】无【发布渠道】保定市保定有线电视台（０７月３０日２０时１５分至２１时４５分之间）屏幕上滚动","powerOffId":"2019072513000539"}],"pageModel":{"pageNow":778,"totalCount":10973,"totalPage":1098,"tableRows":0,"pageCount":10,"beginCount":7770},"isExperi":"1"}