{"message":"","today":"2020-06-15","seleList":[{"poweroffId":2019072513000529,"sgpoweroffId":null,"subsName":"","lineName":"10kV516朱家峪线","pubTranName":"0000005945朱家峪道西变压器,0000005196朱家峪道北变压器,灵山供电所统管变压器,0014334946朱家峪大道北2区变压器,大桥厂,","scope":"【影响街道/乡镇】灵山镇【高危重要客户】无【影响客户】朱家峪村","startTime":"2019-07-25 18:25:00","stopDate":"2019-07-25 19:50:00","orgNo":"1340619","typeCode":"电网故障停限电","poweroffArea":"【全线路停电】停大桥厂,0000005945朱家峪道西变压器,0000005196朱家峪道北变压器,灵山供电所统管变压器,0014334946朱家峪大道北2区变压器","poweroffReason":"【停电原因】由于线路清理树障导致３５ＫＶ灵山变电站１０ＫＶ５１６朱家峪线路全线停电【变更送电】因抢修进度加快原因，送电时间由２３：００变更为１９：５０【发布渠道】通过９５５９８发布","powerTime":"2019-07-25 19:32:22","powerComm":"已送电","subsNo":"","lineNo":"","tgNo":"","tgName":null,"infoStatus":"1","orgName":"国网曲阳县供电公司","typeName":null,"infoStatusName":null,"dateDay":null,"orgNos":null,"nowTime":null,"countyName":null,"streetName":null,"villageName":null,"roadName":null,"communityName":null,"tranName":null,"sdLineName":null,"cityCode":"1340619","cityName":"国网曲阳县供电公司","provinceCode":null,"stopTime":"2019-07-25 19:50:00","powerType":"全部","powerOffArea":"【全线路停电】停大桥厂,0000005945朱家峪道西变压器,0000005196朱家峪道北变压器,灵山供电所统管变压器,0014334946朱家峪大道北2区变压器","powerOffReason":"【停电原因】由于线路清理树障导致３５ＫＶ灵山变电站１０ＫＶ５１６朱家峪线路全线停电【变更送电】因抢修进度加快原因，送电时间由２３：００变更为１９：５０【发布渠道】通过９５５９８发布","powerOffId":"2019072513000529"},{"poweroffId":2019072513000523,"sgpoweroffId":null,"subsName":"","lineName":"10kV520辉岭线","pubTranName":"灵山中心卫生院郭家庄分院变压器,灵山28区变压器,0000006330朱家峪西2变压器,朱家峪东6区变压器,0012891907辉岭中区,曲阳县国华工贸有限公司1变压器,灵山中学变压器2,0000005206朱家峪南区变压器,0000006106灵山10区变压器,曲阳县国华工贸有限公司变压器,0000005549灵山8区变压器,朱家峪南坡水井,中国联合网络通信有限公司曲阳县分,郭家庄砖厂,朱家峪东8变压器,朱家峪南煤井,大砖厂,灵山小学变压器2,曲阳县鸿瑞建材有限公司变压器2,郭家庄东北1变压器,灵山医院变压器,辉岭村委会水井,灵山中心幼儿园变压器,曲阳县鸿瑞建材有限公司变压器1,0012892411辉岭南2区变压器,下岸杨顺月,朱家峪小学变压器,唐县民用爆破器材有限责任公司曲阳分公司变压器,0000007193朱家峪东3区变压器,0000005203辉岭村南变压器,0012457053灵山14区变压器,0000005836郭家庄南区(2#)变压器,0012891905郭家庄南5区变压器,0000005202郭家庄村北变压器,曲阳县郭家庄白玉沟建材厂变压器2,0000005557灵山4区变压器,0000005201郭家庄水井变压器,0012457072郭家庄南4变压器,0000005208朱家峪道南变压器,朱家峪南3变压器,曲阳县利丰建材有限公司变压器,下岸3变压器【光伏】,灵山法庭变压器,0000007194朱家峪西3区变压器,郭家庄小学变压器,辉岭北3变压器,0012891914郭家庄西3区变压器,0000006138下岸统管副业变压器,灵山24区变压器,0000006499辉岭北2区变压器,曲阳县元祥建材有限公司变压器,0000007207灵山9区变压器,0000005204辉岭村西变压器,郭家庄小学变压器2,0012457070郭家庄南3变压器,朱家峪东7变压器,朱家峪东9变压器,0011946487朱家峪北区变压器,灵山23区变压器,0012742945辉岭村东变变压器,0000005550灵山1区变压器,曲阳县灵山镇朱家裕中学变压器,0012457064郭家庄中2变压器,0000005552灵山7区变压器,中交建冀交高速公路投资发展有限公司变压器,0000007208下岸村2,0000006294朱家峪东2变压器,朱家峪西5变压器,0000005556灵山6区变压器,0012457431郭家庄西2变压器,曲阳县灵山镇辉岭村水井变压器,辉岭西1变压器,曲阳县林建混凝土有限公司变压器,0000005325郭家庄村南变压器,0000005205朱家峪东区变压器,0000005199辉岭村变压器,0000005198灵山12区变压器,曲阳县鸿泉建材有限公司变压器,灵山中学变压器1,辉岭南3变压器,红星砖厂,曲阳县郭家庄白玉沟建材厂变压器,朱家峪幼儿园变压器,灵山中学变压器3,0012457425朱家峪西4变压器,灵山邮政支局变压器,0012470873郭家庄东北变压器,0000005200郭家庄村中变压器,0000006778朱家峪南2区变压器,曲阳县福瑞建材有限公司变压器,辉岭小学变压器,0012359268灵山","scope":"【影响街道/乡镇】灵山镇【高危重要客户】无【影响客户】辉岭、朱家峪、郭家庄、灵山、下岸","startTime":"2019-07-25 18:22:00","stopDate":"2019-07-26 16:00:00","orgNo":"1340619","typeCode":"电网故障停限电","poweroffArea":"【全线路停电】停灵山23区变压器,0012742945辉岭村东变变压器,0000005550灵山1区变压器,曲阳县灵山镇朱家裕中学变压器,0000006330朱家峪西2变压器,0012457064郭家庄中2变压器,0000005552灵山7区变压器,中交建冀交高速公路投资发展有限公司变压器,0000007208下岸村2,0000006294朱家峪东2变压器,朱家峪西5变压器,0000005556灵山6区变压器,0012457431郭家庄西2变压器,曲阳县灵山镇辉岭村水井变压器,辉岭西1变压器,曲阳县林建混凝土有限公司变压器,0000005325郭家庄村南变压器,0000005867下岸村变压器,0000005551灵山2区变压器,0000006278朱家峪道南2变压器,灵山小学变压器2,0000006138下岸统管副业变压器,灵山24区变压器,0000006499辉岭北2区变压器,曲阳县元祥建材有限公司变压器,0000007207灵山9区变压器,中国移动通信集团河北有限公司曲阳分公司变压器,灵山小学变压器1,0000005207朱家峪中西变压器,0000005204辉岭村西变压器,郭家庄小学变压器2,0012457070郭家庄南3变压器,朱家峪东7变压器,朱家峪东9变压器,0011946487朱家峪北区变压器,曲阳县华石山采石厂变压器,0012457051朱家峪东4变压器,灵山地税变压器,郭家庄东北1变压器,灵山28区变压器,朱家峪东6区变压器,0012891907辉岭中区,曲阳县国华工贸有限公司1变压器,灵山中学变压器2,0000005206朱家峪南区变压器,曲阳县鸿瑞建材有限公司变压器2,灵山医院变压器,辉岭村委会水井,灵山中心幼儿园变压器,曲阳县鸿瑞建材有限公司变压器1,0012892411辉岭南2区变压器,下岸杨顺月,朱家峪小学变压器,唐县民用爆破器材有限责任公司曲阳分公司变压器,0000007193朱家峪东3区变压器,0000005203辉岭村南变压器,0012457053灵山14区变压器,0000005836郭家庄南区(2#)变压器,0012891905郭家庄南5区变压器,0000005202郭家庄村北变压器,曲阳县郭家庄白玉沟建材厂变压器2,曲阳县鸿泉建材有限公司变压器,0000005557灵山4区变压器,0000005201郭家庄水井变压器,0012457072郭家庄南4变压器,0000005208朱家峪道南变压器,朱家峪南3变压器,曲阳县利丰建材有限公司变压器,下岸3变压器【光伏】,灵山法庭变压器,0000007194朱家峪西3区变压器,郭家庄小学变压器,辉岭北3变压器,0012891914郭家庄西3区变压器,灵山中心卫生院郭家庄分院变压器,0000005205朱家峪东区变压器,0000005199辉岭村变压器,0000005198灵山12区变压器,灵山中学变压器1,辉岭南3变压器,0000006106灵山10区变压器,曲阳县国华工贸有限公司变压器,0000005549灵山8区变压器,朱家峪南坡水井,中国联合网络通信有限公司曲阳县分,郭家庄砖厂,朱家峪东8变压器,朱家峪南煤井,大砖厂,红星砖厂,曲阳县郭家庄白玉沟建材厂变压器,朱家峪幼儿园变压器,灵山中学变压器3,0012457425朱家峪西4变压器,灵山邮政支局变压器,0012470873郭家庄东北变压器,0000005200郭家庄村中变压器,0000006778朱家峪南2区变压器,曲阳县福瑞建材有限公司变压器,辉岭小学变压器,0012359268灵山15区变压器","poweroffReason":"【停电原因】由于大风冰雹恶劣天气原因造成多处电杆断杆、断线，导致３５ＫＶ灵山变电站１０ＫＶ５２０辉岭线路全线停电【变更送电】因故障抢修进度加快原因，送电时间由２６日２１：００变更为２６日１６：００【发布渠道】通过９５５９８发布","powerTime":"2019-07-26 15:22:12","powerComm":"已全部恢复送电","subsNo":"","lineNo":"","tgNo":"","tgName":null,"infoStatus":"1","orgName":"国网曲阳县供电公司","typeName":null,"infoStatusName":null,"dateDay":null,"orgNos":null,"nowTime":null,"countyName":null,"streetName":null,"villageName":null,"roadName":null,"communityName":null,"tranName":null,"sdLineName":null,"cityCode":"1340619","cityName":"国网曲阳县供电公司","provinceCode":null,"stopTime":"2019-07-26 16:00:00","powerType":"全部","powerOffArea":"【全线路停电】停灵山23区变压器,0012742945辉岭村东变变压器,0000005550灵山1区变压器,曲阳县灵山镇朱家裕中学变压器,0000006330朱家峪西2变压器,0012457064郭家庄中2变压器,0000005552灵山7区变压器,中交建冀交高速公路投资发展有限公司变压器,0000007208下岸村2,0000006294朱家峪东2变压器,朱家峪西5变压器,0000005556灵山6区变压器,0012457431郭家庄西2变压器,曲阳县灵山镇辉岭村水井变压器,辉岭西1变压器,曲阳县林建混凝土有限公司变压器,0000005325郭家庄村南变压器,0000005867下岸村变压器,0000005551灵山2区变压器,0000006278朱家峪道南2变压器,灵山小学变压器2,0000006138下岸统管副业变压器,灵山24区变压器,0000006499辉岭北2区变压器,曲阳县元祥建材有限公司变压器,0000007207灵山9区变压器,中国移动通信集团河北有限公司曲阳分公司变压器,灵山小学变压器1,0000005207朱家峪中西变压器,0000005204辉岭村西变压器,郭家庄小学变压器2,0012457070郭家庄南3变压器,朱家峪东7变压器,朱家峪东9变压器,0011946487朱家峪北区变压器,曲阳县华石山采石厂变压器,0012457051朱家峪东4变压器,灵山地税变压器,郭家庄东北1变压器,灵山28区变压器,朱家峪东6区变压器,0012891907辉岭中区,曲阳县国华工贸有限公司1变压器,灵山中学变压器2,0000005206朱家峪南区变压器,曲阳县鸿瑞建材有限公司变压器2,灵山医院变压器,辉岭村委会水井,灵山中心幼儿园变压器,曲阳县鸿瑞建材有限公司变压器1,0012892411辉岭南2区变压器,下岸杨顺月,朱家峪小学变压器,唐县民用爆破器材有限责任公司曲阳分公司变压器,0000007193朱家峪东3区变压器,0000005203辉岭村南变压器,0012457053灵山14区变压器,0000005836郭家庄南区(2#)变压器,0012891905郭家庄南5区变压器,0000005202郭家庄村北变压器,曲阳县郭家庄白玉沟建材厂变压器2,曲阳县鸿泉建材有限公司变压器,0000005557灵山4区变压器,0000005201郭家庄水井变压器,0012457072郭家庄南4变压器,0000005208朱家峪道南变压器,朱家峪南3变压器,曲阳县利丰建材有限公司变压器,下岸3变压器【光伏】,灵山法庭变压器,0000007194朱家峪西3区变压器,郭家庄小学变压器,辉岭北3变压器,0012891914郭家庄西3区变压器,灵山中心卫生院郭家庄分院变压器,0000005205朱家峪东区变压器,0000005199辉岭村变压器,0000005198灵山12区变压器,灵山中学变压器1,辉岭南3变压器,0000006106灵山10区变压器,曲阳县国华工贸有限公司变压器,0000005549灵山8区变压器,朱家峪南坡水井,中国联合网络通信有限公司曲阳县分,郭家庄砖厂,朱家峪东8变压器,朱家峪南煤井,大砖厂,红星砖厂,曲阳县郭家庄白玉沟建材厂变压器,朱家峪幼儿园变压器,灵山中学变压器3,0012457425朱家峪西4变压器,灵山邮政支局变压器,0012470873郭家庄东北变压器,0000005200郭家庄村中变压器,0000006778朱家峪南2区变压器,曲阳县福瑞建材有限公司变压器,辉岭小学变压器,0012359268灵山15区变压器","powerOffReason":"【停电原因】由于大风冰雹恶劣天气原因造成多处电杆断杆、断线，导致３５ＫＶ灵山变电站１０ＫＶ５２０辉岭线路全线停电【变更送电】因故障抢修进度加快原因，送电时间由２６日２１：００变更为２６日１６：００【发布渠道】通过９５５９８发布","powerOffId":"2019072513000523"},{"poweroffId":2019072513000520,"sgpoweroffId":null,"subsName":"","lineName":"军农场线511","pubTranName":"南陈庄内东,","scope":"【影响街道/乡镇】中韩庄乡　 【高危重要客户】无　　 【影响客户】南陈庄","startTime":"2019-07-25 18:16:48","stopDate":"2019-07-25 20:30:00","orgNo":"1340623","typeCode":"电网故障停限电","poweroffArea":"【单台区停电】停南陈庄内东","poweroffReason":"【停电原因】由于低压刀闸烧导致３５ＫＶ曹庄变电站军农场线５１１线路南陈庄内东公变台区停电 【变更送电】无 【发布渠道】通过９５５９８发布","powerTime":"2019-07-25 19:40:48","powerComm":"已送电","subsNo":"","lineNo":"","tgNo":"","tgName":null,"infoStatus":"1","orgName":"国网望都县供电公司","typeName":null,"infoStatusName":null,"dateDay":null,"orgNos":null,"nowTime":null,"countyName":null,"streetName":null,"villageName":null,"roadName":null,"communityName":null,"tranName":null,"sdLineName":null,"cityCode":"1340623","cityName":"国网望都县供电公司","provinceCode":null,"stopTime":"2019-07-25 20:30:00","powerType":"全部","powerOffArea":"【单台区停电】停南陈庄内东","powerOffReason":"【停电原因】由于低压刀闸烧导致３５ＫＶ曹庄变电站军农场线５１１线路南陈庄内东公变台区停电 【变更送电】无 【发布渠道】通过９５５９８发布","powerOffId":"2019072513000520"},{"poweroffId":2019072513000519,"sgpoweroffId":null,"subsName":"","lineName":"10kV517燕川线","pubTranName":"0012358756西燕川北区变压器,0014453434东燕川东2区,东燕川小学变压器,西燕川西2变压器,灵山村庞永好,0012735402悦景家园小区变压器,0000006696南家庄北统管副业变压器,0014442596西燕川中区变压器,0000005498东燕川村变压器,西燕川小学变压器2,西燕川水井（2）,0012366280西燕川南区变压器,东燕川水井,0000006698东燕川西变压器,灵山国土所变压器,0000005400西燕川西变变压器,南家庄第二砖厂,西燕川水井（1）,西燕川小学变压器,0000006196东燕川东区变压器,0000005399西燕川东区变压器,0012892439西燕川西北区变压器,0012366770西燕川统管副业变压器,盛达煤厂,西燕川幼儿园变压器,","scope":"【影响街道/乡镇】灵山镇【高危重要客户】无【影响客户】西燕川、南家庄北一带、东燕川","startTime":"2019-07-25 18:20:00","stopDate":"2019-07-25 19:50:00","orgNo":"1340619","typeCode":"电网故障停限电","poweroffArea":"【全线路停电】停0012358756西燕川北区变压器,0014453434东燕川东2区,东燕川小学变压器,西燕川西2变压器,灵山村庞永好,0012735402悦景家园小区变压器,0000006696南家庄北统管副业变压器,0014442596西燕川中区变压器,0000005498东燕川村变压器,西燕川小学变压器2,西燕川水井（2）,0012366280西燕川南区变压器,东燕川水井,0000006698东燕川西变压器,灵山国土所变压器,0000005400西燕川西变变压器,南家庄第二砖厂,西燕川水井（1）,西燕川小学变压器,0000006196东燕川东区变压器,西燕川幼儿园变压器,0000005399西燕川东区变压器,0012892439西燕川西北区变压器,0012366770西燕川统管副业变压器,盛达煤厂","poweroffReason":"【停电原因】由于线路清理树障导致３５ＫＶ灵山变电站１０ＫＶ５１７燕川线路全线停电【变更送电】因抢修进度加快原因，送电时间由２３：００变更为１９：５０【发布渠道】通过９５５９８发布","powerTime":"2019-07-25 19:32:44","powerComm":"已送电","subsNo":"","lineNo":"","tgNo":"","tgName":null,"infoStatus":"1","orgName":"国网曲阳县供电公司","typeName":null,"infoStatusName":null,"dateDay":null,"orgNos":null,"nowTime":null,"countyName":null,"streetName":null,"villageName":null,"roadName":null,"communityName":null,"tranName":null,"sdLineName":null,"cityCode":"1340619","cityName":"国网曲阳县供电公司","provinceCode":null,"stopTime":"2019-07-25 19:50:00","powerType":"全部","powerOffArea":"【全线路停电】停0012358756西燕川北区变压器,0014453434东燕川东2区,东燕川小学变压器,西燕川西2变压器,灵山村庞永好,0012735402悦景家园小区变压器,0000006696南家庄北统管副业变压器,0014442596西燕川中区变压器,0000005498东燕川村变压器,西燕川小学变压器2,西燕川水井（2）,0012366280西燕川南区变压器,东燕川水井,0000006698东燕川西变压器,灵山国土所变压器,0000005400西燕川西变变压器,南家庄第二砖厂,西燕川水井（1）,西燕川小学变压器,0000006196东燕川东区变压器,西燕川幼儿园变压器,0000005399西燕川东区变压器,0012892439西燕川西北区变压器,0012366770西燕川统管副业变压器,盛达煤厂","powerOffReason":"【停电原因】由于线路清理树障导致３５ＫＶ灵山变电站１０ＫＶ５１７燕川线路全线停电【变更送电】因抢修进度加快原因，送电时间由２３：００变更为１９：５０【发布渠道】通过９５５９８发布","powerOffId":"2019072513000519"},{"poweroffId":2019072513000512,"sgpoweroffId":null,"subsName":"","lineName":"10kV519罗家峪线","pubTranName":"0000005181南家庄东南区变压器,0012494369南家庄东南2变压器,曲阳县华运挂车有限公司,曲阳县金莹建材有限公司,南家庄面粉厂,杨兵合,灵山修配制造厂,曲阳县惠腾贸易有限公司变压器,0000005182南家庄东北区变压器,南家庄东南3变压器,0012358750南家庄西南1变压器,0014454179南家庄东北2区,曲阳县金莹建材有限公司2#,0012358757南家庄西北1区变压器,0000005180南家庄西南区变压器,南家庄阳光幼儿园变压器,南家庄村委会南岗砖厂,0012411781南家庄西南2区变压器,南家庄小学变压器,","scope":"【影响街道/乡镇】灵山镇【高危重要客户】无【影响客户】南沟村、南家庄、土岭、韩家峪、罗家峪、院子沟","startTime":"2019-07-25 18:17:00","stopDate":"2019-07-25 19:50:00","orgNo":"1340619","typeCode":"电网故障停限电","poweroffArea":"【全线路停电】停0014454179南家庄东北2区,曲阳县金莹建材有限公司2#,0012358757南家庄西北1区变压器,0000005180南家庄西南区变压器,南家庄阳光幼儿园变压器,南家庄村委会南岗砖厂,南家庄小学变压器,0012411781南家庄西南2区变压器,0000005181南家庄东南区变压器,0012494369南家庄东南2变压器,曲阳县华运挂车有限公司,曲阳县金莹建材有限公司,南家庄面粉厂,杨兵合,灵山修配制造厂,曲阳县惠腾贸易有限公司变压器,0000005182南家庄东北区变压器,南家庄东南3变压器,0012358750南家庄西南1变压器","poweroffReason":"【停电原因】由于线路清理树障导致３５ＫＶ灵山变电站１０ＫＶ５１９罗家峪线路全线停电【变更送电】因抢修进度加快原因，送电时间由２３：００变更为１９：５０【发布渠道】通过９５５９８发布","powerTime":"2019-07-25 19:33:10","powerComm":"已送电","subsNo":"","lineNo":"","tgNo":"","tgName":null,"infoStatus":"1","orgName":"国网曲阳县供电公司","typeName":null,"infoStatusName":null,"dateDay":null,"orgNos":null,"nowTime":null,"countyName":null,"streetName":null,"villageName":null,"roadName":null,"communityName":null,"tranName":null,"sdLineName":null,"cityCode":"1340619","cityName":"国网曲阳县供电公司","provinceCode":null,"stopTime":"2019-07-25 19:50:00","powerType":"全部","powerOffArea":"【全线路停电】停0014454179南家庄东北2区,曲阳县金莹建材有限公司2#,0012358757南家庄西北1区变压器,0000005180南家庄西南区变压器,南家庄阳光幼儿园变压器,南家庄村委会南岗砖厂,南家庄小学变压器,0012411781南家庄西南2区变压器,0000005181南家庄东南区变压器,0012494369南家庄东南2变压器,曲阳县华运挂车有限公司,曲阳县金莹建材有限公司,南家庄面粉厂,杨兵合,灵山修配制造厂,曲阳县惠腾贸易有限公司变压器,0000005182南家庄东北区变压器,南家庄东南3变压器,0012358750南家庄西南1变压器","powerOffReason":"【停电原因】由于线路清理树障导致３５ＫＶ灵山变电站１０ＫＶ５１９罗家峪线路全线停电【变更送电】因抢修进度加快原因，送电时间由２３：００变更为１９：５０【发布渠道】通过９５５９８发布","powerOffId":"2019072513000512"},{"poweroffId":2019072513000507,"sgpoweroffId":null,"subsName":"","lineName":"10kV515横河口线","pubTranName":"0000005559灵山3区变压器,0012433959韩家村8区变压器,韩家村小学变压器,韩家村14区变压器,0012421899韩家村9区变压器,0000006928韩家村6区变压器,灵山25区变压器,韩家村中学变压器1,0000005932韩家村5区变压器,0000005930韩家村3区变压器,0000005562西庞家洼南区变压器,0000007156韩家村7区变压器,韩登朝瓷厂,0012914404朱家峪东5变压器,0014453438韩家村农灌,0014094452灵山22区变压器,韩家村13区变压器,0000005616东庞家洼西区变压器,东庞家洼西2变压器,曲阳县冀科电瓷有限公司,0000005929韩家村2区变压器,西庞家洼南2区变压器,0014469278韩家村12区,中建路桥集团有限公司变压器,永固瓷业分公司,曲阳县泰达石粉加工厂变压器,0000005928韩家村1区变压器,0000005931韩家村4区变压器,岗北东南2区变压器,岗北东北2区变压器,0000005924岗北村东南区变压器,0000005925岗北东北区变压器,0012891903韩家村10区变压器,韩家村中学变压器2,","scope":"【影响街道/乡镇】灵山镇【高危重要客户】无【影响客户】灵山、西庞家洼、东庞家洼、韩家村、岗北","startTime":"2019-07-25 18:14:00","stopDate":"2019-07-25 19:50:00","orgNo":"1340619","typeCode":"电网故障停限电","poweroffArea":"【全线路停电】停中建路桥集团有限公司变压器,东庞家洼西2变压器,0000005559灵山3区变压器,韩家村小学变压器,韩家村14区变压器,0012421899韩家村9区变压器,0000006928韩家村6区变压器,灵山25区变压器,韩家村中学变压器1,0000005932韩家村5区变压器,0000005930韩家村3区变压器,0000005562西庞家洼南区变压器,0000007156韩家村7区变压器,韩登朝瓷厂,0012914404朱家峪东5变压器,0014453438韩家村农灌,0014094452灵山22区变压器,韩家村13区变压器,0000005616东庞家洼西区变压器,曲阳县冀科电瓷有限公司,0000005929韩家村2区变压器,西庞家洼南2区变压器,0014469278韩家村12区,永固瓷业分公司,曲阳县泰达石粉加工厂变压器,0000005928韩家村1区变压器,0012433959韩家村8区变压器,0000005931韩家村4区变压器,岗北东南2区变压器,岗北东北2区变压器,0000005924岗北村东南区变压器,0000005925岗北东北区变压器,0012891903韩家村10区变压器,韩家村中学变压器2","poweroffReason":"【停电原因】由于线路清理树障导致３５ＫＶ灵山变电站１０ＫＶ５１５横河口线路全线停电【变更送电】因抢修进度加快原因，送电时间由２３：００变更为１９：５０【发布渠道】通过９５５９８发布","powerTime":"2019-07-25 19:33:35","powerComm":"已送电","subsNo":"","lineNo":"","tgNo":"","tgName":null,"infoStatus":"1","orgName":"国网曲阳县供电公司","typeName":null,"infoStatusName":null,"dateDay":null,"orgNos":null,"nowTime":null,"countyName":null,"streetName":null,"villageName":null,"roadName":null,"communityName":null,"tranName":null,"sdLineName":null,"cityCode":"1340619","cityName":"国网曲阳县供电公司","provinceCode":null,"stopTime":"2019-07-25 19:50:00","powerType":"全部","powerOffArea":"【全线路停电】停中建路桥集团有限公司变压器,东庞家洼西2变压器,0000005559灵山3区变压器,韩家村小学变压器,韩家村14区变压器,0012421899韩家村9区变压器,0000006928韩家村6区变压器,灵山25区变压器,韩家村中学变压器1,0000005932韩家村5区变压器,0000005930韩家村3区变压器,0000005562西庞家洼南区变压器,0000007156韩家村7区变压器,韩登朝瓷厂,0012914404朱家峪东5变压器,0014453438韩家村农灌,0014094452灵山22区变压器,韩家村13区变压器,0000005616东庞家洼西区变压器,曲阳县冀科电瓷有限公司,0000005929韩家村2区变压器,西庞家洼南2区变压器,0014469278韩家村12区,永固瓷业分公司,曲阳县泰达石粉加工厂变压器,0000005928韩家村1区变压器,0012433959韩家村8区变压器,0000005931韩家村4区变压器,岗北东南2区变压器,岗北东北2区变压器,0000005924岗北村东南区变压器,0000005925岗北东北区变压器,0012891903韩家村10区变压器,韩家村中学变压器2","powerOffReason":"【停电原因】由于线路清理树障导致３５ＫＶ灵山变电站１０ＫＶ５１５横河口线路全线停电【变更送电】因抢修进度加快原因，送电时间由２３：００变更为１９：５０【发布渠道】通过９５５９８发布","powerOffId":"2019072513000507"},{"poweroffId":2019072513000503,"sgpoweroffId":null,"subsName":"","lineName":"10kV514齐古庄线","pubTranName":"0014094445洼子西南区,0013170422崔古庄村西变压器,曲阳县崔古庄石料厂（2）,曲阳县崔古庄民航石料厂4,曲阳县崔古庄石料厂（1）,曲阳县第二石渣厂,崔古庄村2变压器,0012914905朱家峪大道南3变压器,曲阳县洼子养殖技术专业合作社变压器,0012196668小赤涧村南变压器,崔古庄小学变压器,小赤涧水井,0014094447大赤涧村2变压器,0012330752郭家庄村西变压器,0000006280崔古庄大道3变压器,洼子小学变压器,0014094448崔古庄西北区变压器,0000005165小赤涧村变压器,0012332339魏古庄南区变压器,0012329837洼子3变压器,0012332338大赤涧南区,0000005154洼子1,0000005155西坡村变压器,魏古庄小学变压器,0014308729魏古庄西区变压器,小赤涧村4区变压器,曲阳县亿泰商砼有限公司变压器,洼子幼儿园变压器,0013222380西坡东区变压器,小赤涧村3变压器,0012301581西坡南变压器,大赤涧水井,河北月明山建材集团有限公司变压器,0012646782洼子农灌变压器,0000006578崔古庄农灌变压器,小赤涧小学变压器,曲阳县崔古庄民航石子厂变压器,洼子4区变压器,曲阳县瑞华建材经销处变压器,0000005158大赤涧村变压器,小赤涧村北变压器,0014094451崔古庄东南区变压器,0012330753小赤涧村2区变压器,0012892436小赤涧西2区变压器,0012447234崔古庄村北变压器,0000006785大赤涧东区变压器,0000005156魏古庄变压器,0012876927小赤涧村南2变压器,0012330754崔古庄村南变压器,崔古庄石料厂（3）,曲阳县崔会杰石子厂变压器,0000005837崔古庄大道2变压器,0012446341小赤涧统管副业2变压器,0012446339崔古庄大道4变压器,曲阳县崔古庄石料厂(4),0000005161崔古庄大道1变压器,0000006266小赤涧西区变压器,0014094443朱家峪大道南4变压器,0000007228大赤涧西区变压器,曲阳县崔古庄民航石子厂第一分厂变压器,0000006695小赤涧村统管副业变压器,洼子村2区,曲阳县开拓石籽厂,曲阳县开拓石籽厂2#,小赤涧东变压器,民航石子厂（3）,曲阳县瑞玉建材销售部变压器,民航石子厂（2）,曲阳县三联石渣厂,0012114553洼子北变压器,0012114553南家庄统管副业2变压器,0000005160崔古庄村变压器,0012892438大赤涧中区变压器,崔古庄民航石子厂,","scope":"【影响街道/乡镇】灵山镇【高危重要客户】无【影响客户】小赤涧村、大赤涧村、委古庄村、西坡村、洼子村、崔古庄、南家庄、西坡、郭家庄、朱家裕、灵山","startTime":"2019-07-25 18:10:00","stopDate":"2019-07-25 19:20:00","orgNo":"1340619","typeCode":"电网故障停限电","poweroffArea":"【全线路停电】停0000006280崔古庄大道3变压器,0012330752郭家庄村西变压器,洼子小学变压器,0000005165小赤涧村变压器,0012332339魏古庄南区变压器,0012329837洼子3变压器,0012332338大赤涧南区,0000005154洼子1,0000005155西坡村变压器,魏古庄小学变压器,0014308729魏古庄西区变压器,小赤涧村4区变压器,曲阳县亿泰商砼有限公司变压器,0014094445洼子西南区,0013170422崔古庄村西变压器,曲阳县崔古庄石料厂（2）,曲阳县崔古庄民航石料厂4,0014094448崔古庄西北区变压器,曲阳县瑞玉建材销售部变压器,民航石子厂（2）,曲阳县三联石渣厂,0012114553洼子北变压器,0012114553南家庄统管副业2变压器,0000005160崔古庄村变压器,0012892438大赤涧中区变压器,崔古庄民航石子厂,洼子幼儿园变压器,0013222380西坡东区变压器,小赤涧村3变压器,曲阳县崔古庄石料厂（1）,曲阳县第二石渣厂,崔古庄村2变压器,0012914905朱家峪大道南3变压器,曲阳县洼子养殖技术专业合作社变压器,0012196668小赤涧村南变压器,崔古庄小学变压器,小赤涧水井,0014094447大赤涧村2变压器,大赤涧水井,河北月明山建材集团有限公司变压器,0012646782洼子农灌变压器,0000006578崔古庄农灌变压器,小赤涧小学变压器,曲阳县崔古庄民航石子厂变压器,洼子4区变压器,曲阳县瑞华建材经销处变压器,0000005158大赤涧村变压器,小赤涧村北变压器,崔古庄石料厂（3）,曲阳县崔会杰石子厂变压器,0000005837崔古庄大道2变压器,0012446341小赤涧统管副业2变压器,0012446339崔古庄大道4变压器,民航石子厂（3）,曲阳县崔古庄石料厂(4),0000005161崔古庄大道1变压器,0000006266小赤涧西区变压器,0014094443朱家峪大道南4变压器,0000007228大赤涧西区变压器,曲阳县崔古庄民航石子厂第一分厂变压器,0000006695小赤涧村统管副业变压器,洼子村2区,曲阳县开拓石籽厂,曲阳县开拓石籽厂2#,小赤涧东变压器,0012301581西坡南变压器,0014094451崔古庄东南区变压器,0012330753小赤涧村2区变压器,0012892436小赤涧西2区变压器,0012447234崔古庄村北变压器,0000006785大赤涧东区变压器,0000005156魏古庄变压器,0012876927小赤涧村南2变压器,0012330754崔古庄村南变压器","poweroffReason":"【停电原因】由于线路清理树障导致３５ＫＶ灵山变电站１０ＫＶ５１４齐古庄线路全线停电【变更送电】因抢修进度加快原因，送电时间由２３：００变更为１９：２０【发布渠道】通过９５５９８发布","powerTime":"2019-07-25 18:56:39","powerComm":"已送电","subsNo":"","lineNo":"","tgNo":"","tgName":null,"infoStatus":"1","orgName":"国网曲阳县供电公司","typeName":null,"infoStatusName":null,"dateDay":null,"orgNos":null,"nowTime":null,"countyName":null,"streetName":null,"villageName":null,"roadName":null,"communityName":null,"tranName":null,"sdLineName":null,"cityCode":"1340619","cityName":"国网曲阳县供电公司","provinceCode":null,"stopTime":"2019-07-25 19:20:00","powerType":"全部","powerOffArea":"【全线路停电】停0000006280崔古庄大道3变压器,0012330752郭家庄村西变压器,洼子小学变压器,0000005165小赤涧村变压器,0012332339魏古庄南区变压器,0012329837洼子3变压器,0012332338大赤涧南区,0000005154洼子1,0000005155西坡村变压器,魏古庄小学变压器,0014308729魏古庄西区变压器,小赤涧村4区变压器,曲阳县亿泰商砼有限公司变压器,0014094445洼子西南区,0013170422崔古庄村西变压器,曲阳县崔古庄石料厂（2）,曲阳县崔古庄民航石料厂4,0014094448崔古庄西北区变压器,曲阳县瑞玉建材销售部变压器,民航石子厂（2）,曲阳县三联石渣厂,0012114553洼子北变压器,0012114553南家庄统管副业2变压器,0000005160崔古庄村变压器,0012892438大赤涧中区变压器,崔古庄民航石子厂,洼子幼儿园变压器,0013222380西坡东区变压器,小赤涧村3变压器,曲阳县崔古庄石料厂（1）,曲阳县第二石渣厂,崔古庄村2变压器,0012914905朱家峪大道南3变压器,曲阳县洼子养殖技术专业合作社变压器,0012196668小赤涧村南变压器,崔古庄小学变压器,小赤涧水井,0014094447大赤涧村2变压器,大赤涧水井,河北月明山建材集团有限公司变压器,0012646782洼子农灌变压器,0000006578崔古庄农灌变压器,小赤涧小学变压器,曲阳县崔古庄民航石子厂变压器,洼子4区变压器,曲阳县瑞华建材经销处变压器,0000005158大赤涧村变压器,小赤涧村北变压器,崔古庄石料厂（3）,曲阳县崔会杰石子厂变压器,0000005837崔古庄大道2变压器,0012446341小赤涧统管副业2变压器,0012446339崔古庄大道4变压器,民航石子厂（3）,曲阳县崔古庄石料厂(4),0000005161崔古庄大道1变压器,0000006266小赤涧西区变压器,0014094443朱家峪大道南4变压器,0000007228大赤涧西区变压器,曲阳县崔古庄民航石子厂第一分厂变压器,0000006695小赤涧村统管副业变压器,洼子村2区,曲阳县开拓石籽厂,曲阳县开拓石籽厂2#,小赤涧东变压器,0012301581西坡南变压器,0014094451崔古庄东南区变压器,0012330753小赤涧村2区变压器,0012892436小赤涧西2区变压器,0012447234崔古庄村北变压器,0000006785大赤涧东区变压器,0000005156魏古庄变压器,0012876927小赤涧村南2变压器,0012330754崔古庄村南变压器","powerOffReason":"【停电原因】由于线路清理树障导致３５ＫＶ灵山变电站１０ＫＶ５１４齐古庄线路全线停电【变更送电】因抢修进度加快原因，送电时间由２３：００变更为１９：２０【发布渠道】通过９５５９８发布","powerOffId":"2019072513000503"},{"poweroffId":2019072513000473,"sgpoweroffId":null,"subsName":"","lineName":"迪城线577","pubTranName":"任庄13号【纯农排变】,","scope":"【影响街道/乡镇】大因镇 【高危重要客户】无 【影响客户】任庄","startTime":"2019-07-26 08:00:00","stopDate":"2019-07-26 18:00:00","orgNo":"1340605","typeCode":"其他临时停电","poweroffArea":"【单台区停电】停任庄13号【纯农排变】","poweroffReason":"【停电原因】由于处理紧急缺陷导致１１０ＫＶ沙口变电站迪城５７７线路任庄１３号公变台区停电 【变更送电】无 【发布渠道】通过９５５９８发布","powerTime":"2019-07-26 17:27:17","powerComm":"已送电","subsNo":"","lineNo":"","tgNo":"","tgName":null,"infoStatus":"1","orgName":"国网徐水县供电公司","typeName":null,"infoStatusName":null,"dateDay":null,"orgNos":null,"nowTime":null,"countyName":null,"streetName":null,"villageName":null,"roadName":null,"communityName":null,"tranName":null,"sdLineName":null,"cityCode":"1340605","cityName":"国网徐水县供电公司","provinceCode":null,"stopTime":"2019-07-26 18:00:00","powerType":"全部","powerOffArea":"【单台区停电】停任庄13号【纯农排变】","powerOffReason":"【停电原因】由于处理紧急缺陷导致１１０ＫＶ沙口变电站迪城５７７线路任庄１３号公变台区停电 【变更送电】无 【发布渠道】通过９５５９８发布","powerOffId":"2019072513000473"},{"poweroffId":2019072513000467,"sgpoweroffId":null,"subsName":"","lineName":"迪城线577","pubTranName":"任庄7号变压器【纯农排变】,","scope":"【影响街道/乡镇】大因镇 【高危重要客户】无 【影响客户】任庄","startTime":"2019-07-26 08:00:00","stopDate":"2019-07-26 18:00:00","orgNo":"1340605","typeCode":"其他临时停电","poweroffArea":"【单台区停电】停任庄7号变压器【纯农排变】","poweroffReason":"【停电原因】由于处理紧急缺陷导致１１０ＫＶ沙口变电站迪城５７７线路任庄７号公变台区停电 【变更送电】无 【发布渠道】通过９５５９８发布","powerTime":"2019-07-26 17:27:36","powerComm":"已送电","subsNo":"","lineNo":"","tgNo":"","tgName":null,"infoStatus":"1","orgName":"国网徐水县供电公司","typeName":null,"infoStatusName":null,"dateDay":null,"orgNos":null,"nowTime":null,"countyName":null,"streetName":null,"villageName":null,"roadName":null,"communityName":null,"tranName":null,"sdLineName":null,"cityCode":"1340605","cityName":"国网徐水县供电公司","provinceCode":null,"stopTime":"2019-07-26 18:00:00","powerType":"全部","powerOffArea":"【单台区停电】停任庄7号变压器【纯农排变】","powerOffReason":"【停电原因】由于处理紧急缺陷导致１１０ＫＶ沙口变电站迪城５７７线路任庄７号公变台区停电 【变更送电】无 【发布渠道】通过９５５９８发布","powerOffId":"2019072513000467"},{"poweroffId":2019072513000435,"sgpoweroffId":null,"subsName":"","lineName":"10kV伏落572线","pubTranName":"东伏落综合5变压器,东伏落农业7变压器,西伏落综合4变压器,西伏落农业9变压器【纯农排变】,东伏落综合3变压器,东伏落综合7台区,东伏落综合（四）【纯农排变】,东伏落农业4变压器【纯农排变】,东伏落综合6变压器,西伏落综合3变压器,东伏落综合(八),0663987638-安国市现代中药工业园区发展服务有限公司路灯园区纬二路西-专变-199175876-路灯园区纬二路西,东伏落内南综合,中伏落综合4台区,中伏落综合（二）,东伏落农业8变压器【纯农排变】,东伏落农业3变压器【纯农排变】,中伏落农业6变压器【纯农排变】,东伏落综合10台区,西伏落粮站,中伏落农业5变压器【纯农排变】,西伏落综合6变压器,中伏落农业3变压器【纯农排变】,东伏落农业5变压器【纯农排变】,东伏落农业11变压器【纯农排变】,西伯章农业12变压器【纯农排变】,中伏落综合1变压器,西伏落综合8台区,西伏落乡电信局,中伏落农业4变压器【纯农排变】,东伏落农业13变压器【纯农排变】,东伏落农业15变压器,东伏落农业1变压器【纯农排变】,中伏落综合3变压器,东伏落农业2变压器【纯农排变】,东伏落综合2变压器,东伏落综合9台区,东伏落农业12变压器【纯农排变】,","scope":"【影响街道/乡镇】西伏落乡 【高危重要客户】无 【影响客户】东伏落、西伏落、中伏落、安国现代中药工业园区发展服务有限公司园区路灯、中国联合网络通信有限公司安国分公司","startTime":"2019-07-26 03:00:00","stopDate":"2019-07-26 08:00:00","orgNo":"1340606","typeCode":"其他临时停电","poweroffArea":"【全线路停电】停中伏落综合（二）,东伏落综合2变压器,中伏落综合4台区,东伏落农业7变压器,东伏落农业15变压器,中伏落综合1变压器,中伏落农业3变压器【纯农排变】,西伏落粮站,东伏落综合5变压器,东伏落农业1变压器【纯农排变】,西伏落综合3变压器,东伏落农业13变压器【纯农排变】,0663987638-安国市现代中药工业园区发展服务有限公司路灯园区纬二路西-专变-199175876-路灯园区纬二路西,西伏落综合8台区,中伏落综合3变压器,东伏落综合3变压器,东伏落综合6变压器,西伯章农业12变压器【纯农排变】,东伏落综合9台区,东伏落农业5变压器【纯农排变】,东伏落农业4变压器【纯农排变】,东伏落农业2变压器【纯农排变】,东伏落综合7台区,东伏落综合(八),东伏落综合（四）【纯农排变】,中伏落农业6变压器【纯农排变】,西伏落综合4变压器,东伏落农业3变压器【纯农排变】,中伏落农业5变压器【纯农排变】,西伏落乡电信局,西伏落农业9变压器【纯农排变】,东伏落农业11变压器【纯农排变】,东伏落综合10台区,西伏落综合6变压器,东伏落农业12变压器【纯农排变】,东伏落农业8变压器【纯农排变】,中伏落农业4变压器【纯农排变】,东伏落内南综合","poweroffReason":"【停电原因】由于站内刀闸严重缺陷需进行紧急消缺导致１１０ＫＶ孝义变电站１０ＫＶ伏落５７２线路全线停电 【变更送电】因工作进度加快原因，送电时间由０９：００变更为０８：００ 【发布渠道】通过９５５９８发布","powerTime":"2019-07-26 07:40:48","powerComm":"已送电","subsNo":"","lineNo":"","tgNo":"","tgName":null,"infoStatus":"1","orgName":"国网安国市供电公司","typeName":null,"infoStatusName":null,"dateDay":null,"orgNos":null,"nowTime":null,"countyName":null,"streetName":null,"villageName":null,"roadName":null,"communityName":null,"tranName":null,"sdLineName":null,"cityCode":"1340606","cityName":"国网安国市供电公司","provinceCode":null,"stopTime":"2019-07-26 08:00:00","powerType":"全部","powerOffArea":"【全线路停电】停中伏落综合（二）,东伏落综合2变压器,中伏落综合4台区,东伏落农业7变压器,东伏落农业15变压器,中伏落综合1变压器,中伏落农业3变压器【纯农排变】,西伏落粮站,东伏落综合5变压器,东伏落农业1变压器【纯农排变】,西伏落综合3变压器,东伏落农业13变压器【纯农排变】,0663987638-安国市现代中药工业园区发展服务有限公司路灯园区纬二路西-专变-199175876-路灯园区纬二路西,西伏落综合8台区,中伏落综合3变压器,东伏落综合3变压器,东伏落综合6变压器,西伯章农业12变压器【纯农排变】,东伏落综合9台区,东伏落农业5变压器【纯农排变】,东伏落农业4变压器【纯农排变】,东伏落农业2变压器【纯农排变】,东伏落综合7台区,东伏落综合(八),东伏落综合（四）【纯农排变】,中伏落农业6变压器【纯农排变】,西伏落综合4变压器,东伏落农业3变压器【纯农排变】,中伏落农业5变压器【纯农排变】,西伏落乡电信局,西伏落农业9变压器【纯农排变】,东伏落农业11变压器【纯农排变】,东伏落综合10台区,西伏落综合6变压器,东伏落农业12变压器【纯农排变】,东伏落农业8变压器【纯农排变】,中伏落农业4变压器【纯农排变】,东伏落内南综合","powerOffReason":"【停电原因】由于站内刀闸严重缺陷需进行紧急消缺导致１１０ＫＶ孝义变电站１０ＫＶ伏落５７２线路全线停电 【变更送电】因工作进度加快原因，送电时间由０９：００变更为０８：００ 【发布渠道】通过９５５９８发布","powerOffId":"2019072513000435"}],"pageModel":{"pageNow":779,"totalCount":10973,"totalPage":1098,"tableRows":0,"pageCount":10,"beginCount":7780},"isExperi":"1"}