{"message":"","today":"2020-06-15","seleList":[{"poweroffId":2020051913000082,"sgpoweroffId":null,"subsName":"","lineName":"三甲村线511","pubTranName":"三甲村新北变压器,王家湾2号变压器,三甲村南变压器,三甲村中,三甲村511北台,三甲村西变压器,北台3台区,三甲村东变,甲村南变压器,王家湾变压器,三甲村北变压器,三甲村511三甲村学校,甲村乡变压器,甲村北台区新,北台2台区【三批中心村】,甲村北变压器,甲村西变压器,","scope":"【影响街道/乡镇】涞源镇【高危重要客户】无【影响客户】甲村、甲村学校、北台、三甲村、王家湾、三甲村小学","startTime":"2020-05-31 08:00:00","stopDate":"2020-05-31 18:00:00","orgNo":"1340615","typeCode":"计划停电","poweroffArea":"【全线路停电】停３５ＫＶ城关变电站１０ＫＶ三甲村线５１１线路全线,三甲村新北变压器,三甲村511北台,涞源县涞源镇北台村村民委员会变压器,北台3台区,甲村南变压器,三甲村北变压器,三甲村511三甲村学校,北台,甲村乡变压器,三甲村水力变压器,甲村北台区新,涞源县涞源镇三甲村中心小学希望小学变压器,北台2台区【三批中心村】,甲村北变压器,甲村西变压器,王家湾2号变压器,三甲村南变压器,01,三甲村中,三甲村西变压器,三甲村东变,王家湾变压器,三甲村1号水电站变压器,王家湾水利","poweroffReason":"【停电原因】由于导线架设导致３５ＫＶ城关变电站１０ＫＶ三甲村线５１１线路全线停电【变更送电】无【发布渠道】涞源电视台（５月２０日至５月３０日８时至２３时之间）屏幕上方滚动","powerTime":"2020-05-31 17:44:11","powerComm":"已送电","subsNo":"","lineNo":"","tgNo":"","tgName":null,"infoStatus":"1","orgName":"国网涞源县供电公司","typeName":null,"infoStatusName":null,"dateDay":null,"orgNos":null,"nowTime":null,"countyName":null,"streetName":null,"villageName":null,"roadName":null,"communityName":null,"tranName":null,"sdLineName":null,"cityCode":"1340615","cityName":"国网涞源县供电公司","provinceCode":null,"stopTime":"2020-05-31 18:00:00","powerType":"全部","powerOffArea":"【全线路停电】停３５ＫＶ城关变电站１０ＫＶ三甲村线５１１线路全线,三甲村新北变压器,三甲村511北台,涞源县涞源镇北台村村民委员会变压器,北台3台区,甲村南变压器,三甲村北变压器,三甲村511三甲村学校,北台,甲村乡变压器,三甲村水力变压器,甲村北台区新,涞源县涞源镇三甲村中心小学希望小学变压器,北台2台区【三批中心村】,甲村北变压器,甲村西变压器,王家湾2号变压器,三甲村南变压器,01,三甲村中,三甲村西变压器,三甲村东变,王家湾变压器,三甲村1号水电站变压器,王家湾水利","powerOffReason":"【停电原因】由于导线架设导致３５ＫＶ城关变电站１０ＫＶ三甲村线５１１线路全线停电【变更送电】无【发布渠道】涞源电视台（５月２０日至５月３０日８时至２３时之间）屏幕上方滚动","powerOffId":"2020051913000082"},{"poweroffId":2020051913000072,"sgpoweroffId":null,"subsName":"","lineName":"城南线514","pubTranName":"南关大队2,","scope":"【影响街道/乡镇】城区办【高危重要客户】无【影响客户】南关村","startTime":"2020-05-30 08:00:00","stopDate":"2020-05-30 17:00:00","orgNo":"1340615","typeCode":"计划停电","poweroffArea":"【全线路停电】停３５ＫＶ城南变电站１０ＫＶ城南线５１４线路全线,南关大队2,变压器,麻园水利","poweroffReason":"【停电原因】由于线路消缺导致３５ＫＶ城南变电站１０ＫＶ城南线５１４线路全线停电【变更送电】无【发布渠道】涞源电视台（５月２０日至５月２９日８时至２３时之间）屏幕上方滚动","powerTime":"2020-05-30 16:38:08","powerComm":"已送电","subsNo":"","lineNo":"","tgNo":"","tgName":null,"infoStatus":"1","orgName":"国网涞源县供电公司","typeName":null,"infoStatusName":null,"dateDay":null,"orgNos":null,"nowTime":null,"countyName":null,"streetName":null,"villageName":null,"roadName":null,"communityName":null,"tranName":null,"sdLineName":null,"cityCode":"1340615","cityName":"国网涞源县供电公司","provinceCode":null,"stopTime":"2020-05-30 17:00:00","powerType":"全部","powerOffArea":"【全线路停电】停３５ＫＶ城南变电站１０ＫＶ城南线５１４线路全线,南关大队2,变压器,麻园水利","powerOffReason":"【停电原因】由于线路消缺导致３５ＫＶ城南变电站１０ＫＶ城南线５１４线路全线停电【变更送电】无【发布渠道】涞源电视台（５月２０日至５月２９日８时至２３时之间）屏幕上方滚动","powerOffId":"2020051913000072"},{"poweroffId":2020051913000028,"sgpoweroffId":null,"subsName":"","lineName":"城南线513","pubTranName":"齐庄村内混合3号配变,沈庄东,齐庄村内,沈庄新上1,沈庄中,","scope":"【影响街道/乡镇】望都镇　 【高危重要客户】无　　 【影响客户】沈庄村、齐庄村","startTime":"2020-05-30 06:00:00","stopDate":"2020-05-30 23:50:00","orgNo":"1340623","typeCode":"计划停电","poweroffArea":"【全线路停电】停１１０ＫＶ西堤变电站城南５１３线路全线沈庄中,新上齐庄村内东,沈庄西,齐庄村内混合3号配变,沈庄东,沈庄新上,齐庄村内,沈庄新上1","poweroffReason":"【停电原因】由于电缆接引、拆除导线导致１１０ＫＶ西堤变电站城南５１３线路全线停电 【变更送电】因工作正在处理中，送电时间由２３：００变更为２３：５０ 【发布渠道】保定市望都电视台（０５月２０日至０５月２９日１９时００分至２０时００分之间）屏幕上方滚动","powerTime":"2020-05-30 23:40:59","powerComm":"已送电","subsNo":"","lineNo":"","tgNo":"","tgName":null,"infoStatus":"1","orgName":"国网望都县供电公司","typeName":null,"infoStatusName":null,"dateDay":null,"orgNos":null,"nowTime":null,"countyName":null,"streetName":null,"villageName":null,"roadName":null,"communityName":null,"tranName":null,"sdLineName":null,"cityCode":"1340623","cityName":"国网望都县供电公司","provinceCode":null,"stopTime":"2020-05-30 23:50:00","powerType":"全部","powerOffArea":"【全线路停电】停１１０ＫＶ西堤变电站城南５１３线路全线沈庄中,新上齐庄村内东,沈庄西,齐庄村内混合3号配变,沈庄东,沈庄新上,齐庄村内,沈庄新上1","powerOffReason":"【停电原因】由于电缆接引、拆除导线导致１１０ＫＶ西堤变电站城南５１３线路全线停电 【变更送电】因工作正在处理中，送电时间由２３：００变更为２３：５０ 【发布渠道】保定市望都电视台（０５月２０日至０５月２９日１９时００分至２０时００分之间）屏幕上方滚动","powerOffId":"2020051913000028"},{"poweroffId":2020051821000135,"sgpoweroffId":null,"subsName":"","lineName":"10kV花庄站525线路","pubTranName":"0747393090-保定特来电新能源科技有限公司-02,","scope":"【影响街道/乡镇】竞秀区、锦绣街 【高危重要客户】无 【影响客户】市政府接待中心、英利源盛房地产、中央时区、特来电、华科房地产、力宏汽车","startTime":"2020-06-06 05:00:00","stopDate":"2020-06-06 18:00:00","orgNo":"13406","typeCode":"计划停电","poweroffArea":"【分支停电】停0747393090-保定特来电新能源科技有限公司-01,0356331937-保定市人民政府接待中心筹建处-专变,0747393090-保定特来电新能源科技有限公司-02","poweroffReason":"【停电原因】由于供电设备临时检修导致１０ＫＶ花庄变电站５２５线路锦绣街ＨＫ－０１环网柜２号间隔开关以下停电【变更送电】无【发布渠道】保定市保定有线电视台（０５月３０日２０时１５分至２１时４５分之间）屏幕上滚动","powerTime":"2020-06-06 17:35:11","powerComm":"已送电","subsNo":"","lineNo":"","tgNo":"","tgName":null,"infoStatus":"1","orgName":"保定供电公司","typeName":null,"infoStatusName":null,"dateDay":null,"orgNos":null,"nowTime":null,"countyName":null,"streetName":null,"villageName":null,"roadName":null,"communityName":null,"tranName":null,"sdLineName":null,"cityCode":"13406","cityName":"保定供电公司","provinceCode":null,"stopTime":"2020-06-06 18:00:00","powerType":"全部","powerOffArea":"【分支停电】停0747393090-保定特来电新能源科技有限公司-01,0356331937-保定市人民政府接待中心筹建处-专变,0747393090-保定特来电新能源科技有限公司-02","powerOffReason":"【停电原因】由于供电设备临时检修导致１０ＫＶ花庄变电站５２５线路锦绣街ＨＫ－０１环网柜２号间隔开关以下停电【变更送电】无【发布渠道】保定市保定有线电视台（０５月３０日２０时１５分至２１时４５分之间）屏幕上滚动","powerOffId":"2020051821000135"},{"poweroffId":2020051821000119,"sgpoweroffId":null,"subsName":"","lineName":"10kV薛留营站537线路","pubTranName":"B244柱上变压器,B226柱上变压器,B083柱上变压器,B791柱上变压器,B082柱上变压器,B608柱上变压器,10kVB1338配电室B1338配电变压器,10kVB1443配电室B1443配电变压器,","scope":"【影响街道/乡镇】莲池区　永华北大街　五四路 青年路 【高危重要客户】无 【影响客户】建工集团宿舍、文华大厦、新华村、信访局、地委、保定三中、书香门第、华燕房地产、青东巷、邮电宿舍","startTime":"2020-05-31 06:30:00","stopDate":"2020-05-31 07:00:00","orgNo":"13406","typeCode":"计划停电","poweroffArea":"【全线路停电】停10kVB1338配电室B1338配电变压器,10kVB1443配电室B1443配电变压器,B244柱上变压器,B226柱上变压器,B083柱上变压器,B791柱上变压器,B082柱上变压器,B608柱上变压器,变压器,0701627894-保定福堡房地产开发有限公司变压器01,0732560113-孟向阳 转供变压器,0356322724-华北电力大学-2#专变,0649769737-保定市景泰房地产开发有限公司-专变-174510357-变压器,0357982716-保定市华文物业管理有限公司-1#专变,0356322724-华北电力大学-1#专变,0356322724-华北电力大学-5#专变,0356322724-华北电力大学-专变-135604268-变压器,0701627894-保定福堡房地产开发有限公司变压器02,0356322724-华北电力大学-4#专变,0357341320-保定市人民政府机关事务管理局-1-配电室－变压器,0357759402--保定市惠友万家福超级市场有限公司-3#专变","poweroffReason":"【停电原因】由于供电设备临时检修导致１０ＫＶ薛留营变电站５３７线路停电【变更送电】无【发布渠道】保定市保定有线电视台（０５月２３日２０时１５分至２１时４５分之间）屏幕上滚动","powerTime":"2020-05-31 06:52:14","powerComm":"已送电","subsNo":"","lineNo":"","tgNo":"","tgName":null,"infoStatus":"1","orgName":"保定供电公司","typeName":null,"infoStatusName":null,"dateDay":null,"orgNos":null,"nowTime":null,"countyName":null,"streetName":null,"villageName":null,"roadName":null,"communityName":null,"tranName":null,"sdLineName":null,"cityCode":"13406","cityName":"保定供电公司","provinceCode":null,"stopTime":"2020-05-31 07:00:00","powerType":"全部","powerOffArea":"【全线路停电】停10kVB1338配电室B1338配电变压器,10kVB1443配电室B1443配电变压器,B244柱上变压器,B226柱上变压器,B083柱上变压器,B791柱上变压器,B082柱上变压器,B608柱上变压器,变压器,0701627894-保定福堡房地产开发有限公司变压器01,0732560113-孟向阳 转供变压器,0356322724-华北电力大学-2#专变,0649769737-保定市景泰房地产开发有限公司-专变-174510357-变压器,0357982716-保定市华文物业管理有限公司-1#专变,0356322724-华北电力大学-1#专变,0356322724-华北电力大学-5#专变,0356322724-华北电力大学-专变-135604268-变压器,0701627894-保定福堡房地产开发有限公司变压器02,0356322724-华北电力大学-4#专变,0357341320-保定市人民政府机关事务管理局-1-配电室－变压器,0357759402--保定市惠友万家福超级市场有限公司-3#专变","powerOffReason":"【停电原因】由于供电设备临时检修导致１０ＫＶ薛留营变电站５３７线路停电【变更送电】无【发布渠道】保定市保定有线电视台（０５月２３日２０时１５分至２１时４５分之间）屏幕上滚动","powerOffId":"2020051821000119"},{"poweroffId":2020051821000104,"sgpoweroffId":null,"subsName":"","lineName":"10kV薛留营站530线路","pubTranName":"B257柱上变压器,B418柱上变压器,B773柱上变压器,10kV D052配电室配电变压器,10kVB665箱式变电站B665配电变压器,10kVB667箱式变电站B667配电变压器,10kVB664箱式变电站B664配电变压器,10kVB662箱式变电站B662配电变压器,10kVB666箱式变电站B666配电变压器,10kVB661箱式变电站B661配电变压器,B1852柱上变压器,B1920柱上变压器,B417柱上变压器,10kVB663箱式变电站B663配电变压器,","scope":"【影响街道/乡镇】莲池区、帅府胡同、西大街、双彩街 【高危重要客户】无 【影响客户】华中商务楼、双井小区、帅府小区、自动化研究所、证交所、雅马哈","startTime":"2020-05-31 06:00:00","stopDate":"2020-05-31 06:30:00","orgNo":"13406","typeCode":"计划停电","poweroffArea":"【全线路停电】停B257柱上变压器,B418柱上变压器,B773柱上变压器,10kV D052配电室配电变压器,10kVB665箱式变电站B665配电变压器,10kVB667箱式变电站B667配电变压器,10kVB664箱式变电站B664配电变压器,10kVB662箱式变电站B662配电变压器,10kVB666箱式变电站B666配电变压器,10kVB661箱式变电站B661配电变压器,B1852柱上变压器,B1920柱上变压器,B417柱上变压器,0620293569-河北华中房地产开发有限公司-专变-129151934-变压器,0356268912-保定市朗都商贸有限公司-专变,0356282961-河北证券保定环城西路营业部-专变,10kVB663箱式变电站B663配电变压器","poweroffReason":"【停电原因】由于供电设备临时检修导致１０ＫＶ薛留营变电站５３０线路全线停电【变更送电】无【发布渠道】保定市保定有线电视台（５月２３日２０时１５分至２１时４５分之间）屏幕上滚动","powerTime":"2020-05-31 06:08:55","powerComm":"已送电","subsNo":"","lineNo":"","tgNo":"","tgName":null,"infoStatus":"1","orgName":"保定供电公司","typeName":null,"infoStatusName":null,"dateDay":null,"orgNos":null,"nowTime":null,"countyName":null,"streetName":null,"villageName":null,"roadName":null,"communityName":null,"tranName":null,"sdLineName":null,"cityCode":"13406","cityName":"保定供电公司","provinceCode":null,"stopTime":"2020-05-31 06:30:00","powerType":"全部","powerOffArea":"【全线路停电】停B257柱上变压器,B418柱上变压器,B773柱上变压器,10kV D052配电室配电变压器,10kVB665箱式变电站B665配电变压器,10kVB667箱式变电站B667配电变压器,10kVB664箱式变电站B664配电变压器,10kVB662箱式变电站B662配电变压器,10kVB666箱式变电站B666配电变压器,10kVB661箱式变电站B661配电变压器,B1852柱上变压器,B1920柱上变压器,B417柱上变压器,0620293569-河北华中房地产开发有限公司-专变-129151934-变压器,0356268912-保定市朗都商贸有限公司-专变,0356282961-河北证券保定环城西路营业部-专变,10kVB663箱式变电站B663配电变压器","powerOffReason":"【停电原因】由于供电设备临时检修导致１０ＫＶ薛留营变电站５３０线路全线停电【变更送电】无【发布渠道】保定市保定有线电视台（５月２３日２０时１５分至２１时４５分之间）屏幕上滚动","powerOffId":"2020051821000104"},{"poweroffId":2020051821000101,"sgpoweroffId":null,"subsName":"","lineName":"10kV薛留营站527线路","pubTranName":"B493柱上变压器,B097柱上变压器,B094柱上变压器,10kVB014.B461箱式变电站B014配电变压器,B496柱上变压器,B1310柱上变压器,10kVB230配电室B230配电变压器,B422柱上变压器,B420柱上变压器,B494柱上变压器,B421柱上变压器,B491柱上变压器,10kVB014.B461箱式变电站B461配电变压器,C055柱上变压器,B018柱上变压器,B492柱上变压器,B1283柱上变压器,B495柱上变压器,B497柱上变压器,B490柱上变压器,B096柱上变压器,B1788柱上变压器,B084柱上变压器,B489柱上变压器,","scope":"【影响街道/乡镇】北市区、光华路、西关大街、环城西路、金台驿街、恒祥大街、莲池北大街、新华路、南一胡同、西河沿、茂跃胡同 【高危重要客户】无 【影响客户】朱家园、花椒园、邮电宿舍、汽改宿舍、糖酒宿舍、邮电局单身楼、银行宿舍、汽装厂宿舍","startTime":"2020-05-31 07:30:00","stopDate":"2020-05-31 08:30:00","orgNo":"13406","typeCode":"计划停电","poweroffArea":"【全线路停电】停B492柱上变压器,B495柱上变压器,B497柱上变压器,B490柱上变压器,B096柱上变压器,B1788柱上变压器,B084柱上变压器,B491柱上变压器,B1283柱上变压器,B496柱上变压器,B1310柱上变压器,10kVB230配电室B230配电变压器,B422柱上变压器,B420柱上变压器,B494柱上变压器,B421柱上变压器,B493柱上变压器,B097柱上变压器,B094柱上变压器,B489柱上变压器,0356237365-河北省保定第一糖烟酒公司-1-配电室变压器,10kVB014.B461箱式变电站B461配电变压器,0567230852-保定市鑫龙嘉投资有限公司-1-配电室变压器,C055柱上变压器,0356385556-市政维护处路灯-1-箱式变-变压器,0356233190-河北保定食品大厦-专变,0552484264-保定大唐房地产开发有限公司-2#专变,0356385543-市政维护处路灯-专变,0696323807-保定市发投热力有限公司-专变-2,B018柱上变压器,0356327383-保定市邮政局-2#专变,0356235965-保定金台酒店有限公司-1-配电室变压器,0356228774-保定市金台物业服务有限公司-专变,0356319375-北京华联综合超市股份有限公司保定分公司-2#专变,0356303288-中国建设银行股份有限公司保定恒祥南大街支行-专变,10kVB014.B461箱式变电站B014配电变压器,0356305981-保定市第二职业中学(五中)-专变,0696323807-保定市发投热力有限公司-专变-1,0550015628-保定市市区集中供热管理办公室-1-箱式变-变压器,0356336411-市政维护处路灯-专变,0356233204-保定申成路桥有限责任公司-专变","poweroffReason":"【停电原因】由于供电设备临时检修导致１０ＫＶ薛留营变电站５２７线路全线停电【变更送电】因工作正在处理中，送电时间由８:００变更为８:３０【发布渠道】保定市保定有线电视台（０５月２３日２０时１５分至２１时４５分之间）屏幕上滚动","powerTime":"2020-05-31 08:28:17","powerComm":"已送电","subsNo":"","lineNo":"","tgNo":"","tgName":null,"infoStatus":"1","orgName":"保定供电公司","typeName":null,"infoStatusName":null,"dateDay":null,"orgNos":null,"nowTime":null,"countyName":null,"streetName":null,"villageName":null,"roadName":null,"communityName":null,"tranName":null,"sdLineName":null,"cityCode":"13406","cityName":"保定供电公司","provinceCode":null,"stopTime":"2020-05-31 08:30:00","powerType":"全部","powerOffArea":"【全线路停电】停B492柱上变压器,B495柱上变压器,B497柱上变压器,B490柱上变压器,B096柱上变压器,B1788柱上变压器,B084柱上变压器,B491柱上变压器,B1283柱上变压器,B496柱上变压器,B1310柱上变压器,10kVB230配电室B230配电变压器,B422柱上变压器,B420柱上变压器,B494柱上变压器,B421柱上变压器,B493柱上变压器,B097柱上变压器,B094柱上变压器,B489柱上变压器,0356237365-河北省保定第一糖烟酒公司-1-配电室变压器,10kVB014.B461箱式变电站B461配电变压器,0567230852-保定市鑫龙嘉投资有限公司-1-配电室变压器,C055柱上变压器,0356385556-市政维护处路灯-1-箱式变-变压器,0356233190-河北保定食品大厦-专变,0552484264-保定大唐房地产开发有限公司-2#专变,0356385543-市政维护处路灯-专变,0696323807-保定市发投热力有限公司-专变-2,B018柱上变压器,0356327383-保定市邮政局-2#专变,0356235965-保定金台酒店有限公司-1-配电室变压器,0356228774-保定市金台物业服务有限公司-专变,0356319375-北京华联综合超市股份有限公司保定分公司-2#专变,0356303288-中国建设银行股份有限公司保定恒祥南大街支行-专变,10kVB014.B461箱式变电站B014配电变压器,0356305981-保定市第二职业中学(五中)-专变,0696323807-保定市发投热力有限公司-专变-1,0550015628-保定市市区集中供热管理办公室-1-箱式变-变压器,0356336411-市政维护处路灯-专变,0356233204-保定申成路桥有限责任公司-专变","powerOffReason":"【停电原因】由于供电设备临时检修导致１０ＫＶ薛留营变电站５２７线路全线停电【变更送电】因工作正在处理中，送电时间由８:００变更为８:３０【发布渠道】保定市保定有线电视台（０５月２３日２０时１５分至２１时４５分之间）屏幕上滚动","powerOffId":"2020051821000101"},{"poweroffId":2020051821000100,"sgpoweroffId":null,"subsName":"","lineName":"10kV薛留营站530线路","pubTranName":"10kVB666箱式变电站B666配电变压器,10kVB661箱式变电站B661配电变压器,B1852柱上变压器,B1920柱上变压器,10kVB663箱式变电站B663配电变压器,B417柱上变压器,B257柱上变压器,B418柱上变压器,B773柱上变压器,10kV D052配电室配电变压器,10kVB665箱式变电站B665配电变压器,10kVB667箱式变电站B667配电变压器,10kVB664箱式变电站B664配电变压器,10kVB662箱式变电站B662配电变压器,","scope":"【影响街道/乡镇】莲池区、帅府胡同、西大街、双彩街 【高危重要客户】无 【影响客户】华中商务楼、双井小区、帅府小区、自动化研究所、证交所、雅马哈","startTime":"2020-05-29 06:00:00","stopDate":"2020-05-29 06:30:00","orgNo":"13406","typeCode":"临时停电","poweroffArea":"【全线路停电】停B417柱上变压器,B257柱上变压器,B418柱上变压器,B773柱上变压器,10kV D052配电室配电变压器,10kVB665箱式变电站B665配电变压器,10kVB667箱式变电站B667配电变压器,10kVB664箱式变电站B664配电变压器,10kVB662箱式变电站B662配电变压器,10kVB666箱式变电站B666配电变压器,10kVB661箱式变电站B661配电变压器,B1852柱上变压器,B1920柱上变压器,0620293569-河北华中房地产开发有限公司-专变-129151934-变压器,0356268912-保定市朗都商贸有限公司-专变,0356282961-河北证券保定环城西路营业部-专变,10kVB663箱式变电站B663配电变压器","poweroffReason":"【停电原因】由于供电设备临时检修导致１０ＫＶ薛留营变电站５３０线路全线停电【变更送电】无【发布渠道】保定市保定有线电视台（５月２１日２０时１５分至２１时４５分之间）屏幕上滚动","powerTime":"2020-05-29 06:23:25","powerComm":"已送电","subsNo":"","lineNo":"","tgNo":"","tgName":null,"infoStatus":"1","orgName":"保定供电公司","typeName":null,"infoStatusName":null,"dateDay":null,"orgNos":null,"nowTime":null,"countyName":null,"streetName":null,"villageName":null,"roadName":null,"communityName":null,"tranName":null,"sdLineName":null,"cityCode":"13406","cityName":"保定供电公司","provinceCode":null,"stopTime":"2020-05-29 06:30:00","powerType":"全部","powerOffArea":"【全线路停电】停B417柱上变压器,B257柱上变压器,B418柱上变压器,B773柱上变压器,10kV D052配电室配电变压器,10kVB665箱式变电站B665配电变压器,10kVB667箱式变电站B667配电变压器,10kVB664箱式变电站B664配电变压器,10kVB662箱式变电站B662配电变压器,10kVB666箱式变电站B666配电变压器,10kVB661箱式变电站B661配电变压器,B1852柱上变压器,B1920柱上变压器,0620293569-河北华中房地产开发有限公司-专变-129151934-变压器,0356268912-保定市朗都商贸有限公司-专变,0356282961-河北证券保定环城西路营业部-专变,10kVB663箱式变电站B663配电变压器","powerOffReason":"【停电原因】由于供电设备临时检修导致１０ＫＶ薛留营变电站５３０线路全线停电【变更送电】无【发布渠道】保定市保定有线电视台（５月２１日２０时１５分至２１时４５分之间）屏幕上滚动","powerOffId":"2020051821000100"},{"poweroffId":2020051821000094,"sgpoweroffId":null,"subsName":"","lineName":"10kV薛留营站532线路","pubTranName":"10kVB3024箱式变电站B3024配电变压器,B1617柱上变压器,B389柱上变压器,B381柱上变压器,B087柱上变压器,B380柱上变压器,10kVB1252配电室B1252配电变压器,","scope":"【影响街道/乡镇】莲池区、建华大街、建华北路、东风中路、东风东路、薛留营西街、道桥胡同 【高危重要客户】无 【影响客户】保运集团宿舍、交通运输宿舍、铁路七房舍、人寿保险公司宿舍、物资局宿舍、磊园，垃圾台站、立交桥、三兴市场、三兴酒店、金昌大厦，建业集团、司法局，国美电器、中国移动通信、８号院","startTime":"2020-05-29 07:00:00","stopDate":"2020-05-29 07:30:00","orgNo":"13406","typeCode":"临时停电","poweroffArea":"【全线路停电】停0356235431-薛刘营村民委员会-专变,变压器,0356295150-保定市鑫荣资产运营有限公司-2#专变,10kVB1252配电室B1252配电变压器,10kVB3024箱式变电站B3024配电变压器,0356182245-保定市公共交通总公司-专变,0356226361-保定市公安局-2#专变,B1617柱上变压器,B389柱上变压器,0356182258-河北保定交通运输集团有限公司-专变,B381柱上变压器,B087柱上变压器,B380柱上变压器","poweroffReason":"【停电原因】由于供电设备临时检修导致１０ＫＶ薛留营变电站５３２线路全线停电【变更送电】无【发布渠道】保定市保定有线电视台（０５月２１日２０时１５分至２１时４５分之间）屏幕上滚动","powerTime":"2020-05-29 07:21:31","powerComm":"已送电","subsNo":"","lineNo":"","tgNo":"","tgName":null,"infoStatus":"1","orgName":"保定供电公司","typeName":null,"infoStatusName":null,"dateDay":null,"orgNos":null,"nowTime":null,"countyName":null,"streetName":null,"villageName":null,"roadName":null,"communityName":null,"tranName":null,"sdLineName":null,"cityCode":"13406","cityName":"保定供电公司","provinceCode":null,"stopTime":"2020-05-29 07:30:00","powerType":"全部","powerOffArea":"【全线路停电】停0356235431-薛刘营村民委员会-专变,变压器,0356295150-保定市鑫荣资产运营有限公司-2#专变,10kVB1252配电室B1252配电变压器,10kVB3024箱式变电站B3024配电变压器,0356182245-保定市公共交通总公司-专变,0356226361-保定市公安局-2#专变,B1617柱上变压器,B389柱上变压器,0356182258-河北保定交通运输集团有限公司-专变,B381柱上变压器,B087柱上变压器,B380柱上变压器","powerOffReason":"【停电原因】由于供电设备临时检修导致１０ＫＶ薛留营变电站５３２线路全线停电【变更送电】无【发布渠道】保定市保定有线电视台（０５月２１日２０时１５分至２１时４５分之间）屏幕上滚动","powerOffId":"2020051821000094"},{"poweroffId":2020051821000093,"sgpoweroffId":null,"subsName":"","lineName":"10kV薛留营站527线路","pubTranName":"B018柱上变压器,B097柱上变压器,B489柱上变压器,B492柱上变压器,B495柱上变压器,B497柱上变压器,B490柱上变压器,B096柱上变压器,B1788柱上变压器,B084柱上变压器,B491柱上变压器,B1283柱上变压器,B496柱上变压器,B1310柱上变压器,10kVB230配电室B230配电变压器,B422柱上变压器,B420柱上变压器,B494柱上变压器,B421柱上变压器,B493柱上变压器,10kVB014.B461箱式变电站B014配电变压器,B094柱上变压器,10kVB014.B461箱式变电站B461配电变压器,C055柱上变压器,","scope":"【影响街道/乡镇】北市区、光华路、西关大街、环城西路、金台驿街、恒祥大街、莲池北大街、新华路、南一胡同、西河沿、茂跃胡同 【高危重要客户】无 【影响客户】朱家园、花椒园、邮电宿舍、汽改宿舍、糖酒宿舍、邮电局单身楼、银行宿舍、汽装厂宿舍","startTime":"2020-05-29 07:30:00","stopDate":"2020-05-29 08:00:00","orgNo":"13406","typeCode":"临时停电","poweroffArea":"【全线路停电】停B489柱上变压器,B492柱上变压器,B495柱上变压器,B497柱上变压器,B490柱上变压器,B096柱上变压器,B1788柱上变压器,B084柱上变压器,B491柱上变压器,B1283柱上变压器,B496柱上变压器,B1310柱上变压器,10kVB230配电室B230配电变压器,B422柱上变压器,B420柱上变压器,B494柱上变压器,B421柱上变压器,B493柱上变压器,B097柱上变压器,B094柱上变压器,0356237365-河北省保定第一糖烟酒公司-1-配电室变压器,10kVB014.B461箱式变电站B461配电变压器,0567230852-保定市鑫龙嘉投资有限公司-1-配电室变压器,C055柱上变压器,0356385556-市政维护处路灯-1-箱式变-变压器,0356233190-河北保定食品大厦-专变,0552484264-保定大唐房地产开发有限公司-2#专变,0356385543-市政维护处路灯-专变,0696323807-保定市发投热力有限公司-专变-2,B018柱上变压器,0356327383-保定市邮政局-2#专变,0356235965-保定金台酒店有限公司-1-配电室变压器,0356228774-保定市金台物业服务有限公司-专变,0356319375-北京华联综合超市股份有限公司保定分公司-2#专变,0356303288-中国建设银行股份有限公司保定恒祥南大街支行-专变,10kVB014.B461箱式变电站B014配电变压器,0356305981-保定市第二职业中学(五中)-专变,0696323807-保定市发投热力有限公司-专变-1,0550015628-保定市市区集中供热管理办公室-1-箱式变-变压器,0356336411-市政维护处路灯-专变,0356233204-保定申成路桥有限责任公司-专变","poweroffReason":"【停电原因】由于供电设备临时检修导致１０ＫＶ薛留营变电站５２７线路全线停电【变更送电】无【发布渠道】保定市保定有线电视台（０５月２１日２０时１５分至２１时４５分之间）屏幕上滚动","powerTime":"2020-05-29 07:43:07","powerComm":"已送电","subsNo":"","lineNo":"","tgNo":"","tgName":null,"infoStatus":"1","orgName":"保定供电公司","typeName":null,"infoStatusName":null,"dateDay":null,"orgNos":null,"nowTime":null,"countyName":null,"streetName":null,"villageName":null,"roadName":null,"communityName":null,"tranName":null,"sdLineName":null,"cityCode":"13406","cityName":"保定供电公司","provinceCode":null,"stopTime":"2020-05-29 08:00:00","powerType":"全部","powerOffArea":"【全线路停电】停B489柱上变压器,B492柱上变压器,B495柱上变压器,B497柱上变压器,B490柱上变压器,B096柱上变压器,B1788柱上变压器,B084柱上变压器,B491柱上变压器,B1283柱上变压器,B496柱上变压器,B1310柱上变压器,10kVB230配电室B230配电变压器,B422柱上变压器,B420柱上变压器,B494柱上变压器,B421柱上变压器,B493柱上变压器,B097柱上变压器,B094柱上变压器,0356237365-河北省保定第一糖烟酒公司-1-配电室变压器,10kVB014.B461箱式变电站B461配电变压器,0567230852-保定市鑫龙嘉投资有限公司-1-配电室变压器,C055柱上变压器,0356385556-市政维护处路灯-1-箱式变-变压器,0356233190-河北保定食品大厦-专变,0552484264-保定大唐房地产开发有限公司-2#专变,0356385543-市政维护处路灯-专变,0696323807-保定市发投热力有限公司-专变-2,B018柱上变压器,0356327383-保定市邮政局-2#专变,0356235965-保定金台酒店有限公司-1-配电室变压器,0356228774-保定市金台物业服务有限公司-专变,0356319375-北京华联综合超市股份有限公司保定分公司-2#专变,0356303288-中国建设银行股份有限公司保定恒祥南大街支行-专变,10kVB014.B461箱式变电站B014配电变压器,0356305981-保定市第二职业中学(五中)-专变,0696323807-保定市发投热力有限公司-专变-1,0550015628-保定市市区集中供热管理办公室-1-箱式变-变压器,0356336411-市政维护处路灯-专变,0356233204-保定申成路桥有限责任公司-专变","powerOffReason":"【停电原因】由于供电设备临时检修导致１０ＫＶ薛留营变电站５２７线路全线停电【变更送电】无【发布渠道】保定市保定有线电视台（０５月２１日２０时１５分至２１时４５分之间）屏幕上滚动","powerOffId":"2020051821000093"}],"pageModel":{"pageNow":61,"totalCount":10973,"totalPage":1098,"tableRows":0,"pageCount":10,"beginCount":600},"isExperi":"1"}