{"message":"","today":"2020-06-15","seleList":[{"poweroffId":2019072513000239,"sgpoweroffId":null,"subsName":"","lineName":"10kV南章512线","pubTranName":"石佛综合17台区,王街农业2台区变压器,东巷农业4台区变压器,","scope":"【影响街道/乡镇】石佛镇 【高危重要客户】无 【影响客户】南章村、石佛村、高街村、东巷村、王街村、李街村","startTime":"2019-07-25 12:10:00","stopDate":"2019-07-25 15:30:00","orgNo":"1340606","typeCode":"电网故障停限电","poweroffArea":"【全线路停电】停王街农业２台区变压器,东巷农业４台区变压器,石佛综合１７台区","poweroffReason":"【停电原因】由于站内开关掉闸导致３５ＫＶ石佛变电站１０ＫＶ南章５１２线路全线停电 【变更送电】因抢修进度加快原因，送电时间由１７：３０变更为１５：３０ 【发布渠道】通过９５５９８发布","powerTime":"2019-07-25 14:49:52","powerComm":"已送电","subsNo":"","lineNo":"","tgNo":"","tgName":null,"infoStatus":"1","orgName":"国网安国市供电公司","typeName":null,"infoStatusName":null,"dateDay":null,"orgNos":null,"nowTime":null,"countyName":null,"streetName":null,"villageName":null,"roadName":null,"communityName":null,"tranName":null,"sdLineName":null,"cityCode":"1340606","cityName":"国网安国市供电公司","provinceCode":null,"stopTime":"2019-07-25 15:30:00","powerType":"全部","powerOffArea":"【全线路停电】停王街农业２台区变压器,东巷农业４台区变压器,石佛综合１７台区","powerOffReason":"【停电原因】由于站内开关掉闸导致３５ＫＶ石佛变电站１０ＫＶ南章５１２线路全线停电 【变更送电】因抢修进度加快原因，送电时间由１７：３０变更为１５：３０ 【发布渠道】通过９５５９８发布","powerOffId":"2019072513000239"},{"poweroffId":2019072513000236,"sgpoweroffId":null,"subsName":"","lineName":"10kV511赵庄线","pubTranName":"河北启发纺织集团公司,14511001|河北启发纺织集团公司,","scope":"【影响街道/乡镇】辛兴镇【高危重要客户】无【影响客户】河北启发纺织集团公司","startTime":"2019-07-25 12:03:25","stopDate":"2019-07-25 13:00:00","orgNo":"1340616","typeCode":"电网故障停限电","poweroffArea":"【全线路停电】停河北启发纺织集团公司,14511001|河北启发纺织集团公司","poweroffReason":"【停电原因】由于站外开关掉闸导致１１０ＫＶ辛兴变电站１０ＫＶ赵庄５１１线路全线停电【变更送电】因抢修进度加快原因，送电时间由２３：００变更为１３：００【发布渠道】通过９５５９８发布","powerTime":"2019-07-25 12:31:21","powerComm":"已送电","subsNo":"","lineNo":"","tgNo":"","tgName":null,"infoStatus":"1","orgName":"国网蠡县供电公司","typeName":null,"infoStatusName":null,"dateDay":null,"orgNos":null,"nowTime":null,"countyName":null,"streetName":null,"villageName":null,"roadName":null,"communityName":null,"tranName":null,"sdLineName":null,"cityCode":"1340616","cityName":"国网蠡县供电公司","provinceCode":null,"stopTime":"2019-07-25 13:00:00","powerType":"全部","powerOffArea":"【全线路停电】停河北启发纺织集团公司,14511001|河北启发纺织集团公司","powerOffReason":"【停电原因】由于站外开关掉闸导致１１０ＫＶ辛兴变电站１０ＫＶ赵庄５１１线路全线停电【变更送电】因抢修进度加快原因，送电时间由２３：００变更为１３：００【发布渠道】通过９５５９８发布","powerOffId":"2019072513000236"},{"poweroffId":2019072513000231,"sgpoweroffId":null,"subsName":"","lineName":"10kV联盟路站513线路","pubTranName":"B1650柱上变压器,","scope":"【影响街道/乡镇】三丰中路 【高危重要客户】无 【影响客户】纸业市场","startTime":"2019-07-25 12:00:00","stopDate":"2019-07-25 14:00:00","orgNo":"13406","typeCode":"电网故障停限电","poweroffArea":"【单台区停电】停B1650柱上变压器","poweroffReason":"【停电原因】由于低压电缆断导致１０ＫＶ联盟变电站５１３线路Ｂ１６５０公变台区停电【变更送电】无【发布渠道】通过９５５９８发布","powerTime":"2019-07-25 13:36:22","powerComm":"已送电","subsNo":"","lineNo":"","tgNo":"","tgName":null,"infoStatus":"1","orgName":"保定供电公司","typeName":null,"infoStatusName":null,"dateDay":null,"orgNos":null,"nowTime":null,"countyName":null,"streetName":null,"villageName":null,"roadName":null,"communityName":null,"tranName":null,"sdLineName":null,"cityCode":"13406","cityName":"保定供电公司","provinceCode":null,"stopTime":"2019-07-25 14:00:00","powerType":"全部","powerOffArea":"【单台区停电】停B1650柱上变压器","powerOffReason":"【停电原因】由于低压电缆断导致１０ＫＶ联盟变电站５１３线路Ｂ１６５０公变台区停电【变更送电】无【发布渠道】通过９５５９８发布","powerOffId":"2019072513000231"},{"poweroffId":2019072513000230,"sgpoweroffId":null,"subsName":"","lineName":"10kV517郑村线","pubTranName":"0657745763-广东长青(集团)蠡县热电有限公司-专变-192886363-广东长青蠡县热电有限公司变压器,刘庄综合5台区,东河丽华皮毛厂,瑞丰建材,蠡县东河悦毅毛绒厂变压器,蠡县喜相逢饮品制造有限公司变压器,刘庄综合4台区,东河综合5台区,蠡县东河亚赛纸箱包装,蠡县天宇毛纺厂,蠡县一诺纺织有限公司变压器,赵佃庄综合1台区,东河南面粉厂,东河赵新乐毛纺厂,天宇毛纺厂,赵佃庄综合16台区,赵佃庄综合15台区,蠡县鑫达纺沙厂,辛兴所路灯3#变压器,蠡县振义水泥管道厂变压器,东河恒通皮毛厂,刘庄综合6台区,0552858526-蠡县东河刘程纺织厂-专变-171511201-晓辉变压器,变压器,晓辉变压器,烤鸭店,腾飞地毯沙厂,保定天龙制衣有限公司,蠡县东河渤润冷库,蠡县永盛毛绒有限公司,赵佃庄综合2台区,赵佃庄综合7台区,赵佃庄综合12台区,东河综合12台区,东河综合11台区,赵佃庄面粉厂,刘庄综合3台区,东河占军毛条厂,幸福家园,兴旺人造皮毛厂变压器,东河综合6台区,蠡县森雅绒毛制品有限公司变压器,赵佃庄正学毛纺厂,赵佃庄爱军,恒力皮毛厂,东河综合4台区,刘庄综合1台区,赵佃庄砖厂,赵佃庄综合10台区,东河和顺佳苑小区变压器,河北隆达绒毛有限公司,赵佃庄老闷皮毛厂,赵佃庄综合3台区,东河世纪毛纺厂,东河村委会,东河综合10台区,辛兴所路灯4#变压器,刘庄综合2台区,东河综合8台区,14517075|天宇毛纺厂,兴河皮毛厂变压器,福隆纺纱厂,赵佃庄综合5台区,河北隆达绒毛有限公司变压器,张亚东皮毛厂,东河板厂,蠡县东河亚赛纸箱包装厂,保定永盛毛绒有限公司变压器,蠡县东河祥龙绒线厂变压器,赵佃庄综合9台区,蠡县恒通人造皮毛厂,蠡县辛兴镇卫生院,东河李建河,蠡县恒利人造皮毛厂变压器,蠡县成化助剂有限公司,东河恒通皮毛2厂,东河综合7台区,占国沙口,0663809082-蠡县森雅绒毛制品有限公司-专变-200850634-蠡县森雅绒毛制品有限公司,河北润凯纺织有限公司变压器,赵佃庄综合11台区,东河医院,东河综合1台区,赵佃庄疏绒厂,赵佃庄综合14台区,蠡县李盛人造皮毛厂,东河东升皮毛厂,0663809082-蠡县森雅绒毛制品有限公司-专变-199222445-蠡县森雅绒毛制品有限公司变压器,东河综合13台区,赵佃庄丝织厂,老四,江海毛纺厂,东河综合3台区,蠡县第一毛绒有限公司,赵佃庄综合8台区,蠡县四龙纺织有限公司变压器,东河综合2台区,赵佃庄综合13台区,0667977279-蠡县辛兴兴农种子门市部-专变-209986603-蠡县辛兴兴农种子门市部变压器,","scope":"【影响街道/乡镇】辛兴镇【高危重要客户】无【影响客户】赵锻庄村、东河村、刘庄村、梁庄村","startTime":"2019-07-25 12:02:19","stopDate":"2019-07-25 14:00:00","orgNo":"1340616","typeCode":"电网故障停限电","poweroffArea":"【全线路停电】停蠡县鑫达纺沙厂,河北隆达绒毛有限公司,东河东升皮毛厂,赵佃庄面粉厂,赵佃庄丝织厂,赵佃庄综合2台区,东河综合1台区,赵佃庄综合15台区,张亚东皮毛厂,赵佃庄综合3台区,蠡县振义水泥管道厂变压器,蠡县第一毛绒有限公司,赵佃庄综合5台区,蠡县东河悦毅毛绒厂变压器,蠡县恒利人造皮毛厂变压器,蠡县成化助剂有限公司,刘庄综合6台区,东河赵新乐毛纺厂,东河李建河,赵佃庄综合11台区,蠡县喜相逢饮品制造有限公司变压器,河北隆达绒毛有限公司变压器,蠡县李盛人造皮毛厂,东河综合10台区,刘庄综合1台区,兴旺人造皮毛厂变压器,占国沙口,东河和顺佳苑小区变压器,0552858526-蠡县东河刘程纺织厂-专变-171511201-晓辉变压器,刘庄综合3台区,东河综合12台区,0663809082-蠡县森雅绒毛制品有限公司-专变-199222445-蠡县森雅绒毛制品有限公司变压器,14517075|天宇毛纺厂,刘庄综合4台区,变压器,0667977279-蠡县辛兴兴农种子门市部-专变-209986603-蠡县辛兴兴农种子门市部变压器,东河世纪毛纺厂,赵佃庄综合14台区,赵佃庄综合9台区,老四,辛兴所路灯4#变压器,赵佃庄综合1台区,赵佃庄综合12台区,东河综合4台区,0663809082-蠡县森雅绒毛制品有限公司-专变-200850634-蠡县森雅绒毛制品有限公司,幸福家园,赵佃庄砖厂,0657745763-广东长青(集团)蠡县热电有限公司-专变-192886363-广东长青蠡县热电有限公司变压器,赵佃庄正学毛纺厂,东河板厂,蠡县辛兴镇卫生院,赵佃庄综合8台区,蠡县天宇毛纺厂,赵佃庄综合13台区,保定永盛毛绒有限公司变压器,东河占军毛条厂,东河综合3台区,蠡县森雅绒毛制品有限公司变压器,保定天龙制衣有限公司,东河恒通皮毛厂,东河医院,东河综合6台区,赵佃庄老闷皮毛厂,晓辉变压器,赵佃庄综合10台区,蠡县东河亚赛纸箱包装厂,赵佃庄综合16台区,刘庄综合2台区,兴河皮毛厂变压器,东河综合5台区,江海毛纺厂,烤鸭店,蠡县四龙纺织有限公司变压器,东河综合2台区,蠡县东河祥龙绒线厂变压器,东河综合7台区,蠡县东河亚赛纸箱包装,东河丽华皮毛厂,东河恒通皮毛2厂,瑞丰建材,东河村委会,恒力皮毛厂,东河南面粉厂,东河综合8台区,福隆纺纱厂,腾飞地毯沙厂,赵佃庄疏绒厂,赵佃庄爱军,蠡县东河渤润冷库,东河综合13台区,辛兴所路灯3#变压器,河北润凯纺织有限公司变压器,赵佃庄综合7台区,蠡县一诺纺织有限公司变压器,蠡县永盛毛绒有限公司,刘庄综合5台区,天宇毛纺厂,蠡县恒通人造皮毛厂,东河综合11台区","poweroffReason":"【停电原因】由于站外开关掉闸导致１１０ＫＶ辛兴变电站１０ＫＶ郑村５１７线路全线停电【变更送电】因抢修进度加快原因，送电时间由２３：００变更为１４：００【发布渠道】通过９５５９８发布","powerTime":"2019-07-25 13:20:29","powerComm":"已送电","subsNo":"","lineNo":"","tgNo":"","tgName":null,"infoStatus":"1","orgName":"国网蠡县供电公司","typeName":null,"infoStatusName":null,"dateDay":null,"orgNos":null,"nowTime":null,"countyName":null,"streetName":null,"villageName":null,"roadName":null,"communityName":null,"tranName":null,"sdLineName":null,"cityCode":"1340616","cityName":"国网蠡县供电公司","provinceCode":null,"stopTime":"2019-07-25 14:00:00","powerType":"全部","powerOffArea":"【全线路停电】停蠡县鑫达纺沙厂,河北隆达绒毛有限公司,东河东升皮毛厂,赵佃庄面粉厂,赵佃庄丝织厂,赵佃庄综合2台区,东河综合1台区,赵佃庄综合15台区,张亚东皮毛厂,赵佃庄综合3台区,蠡县振义水泥管道厂变压器,蠡县第一毛绒有限公司,赵佃庄综合5台区,蠡县东河悦毅毛绒厂变压器,蠡县恒利人造皮毛厂变压器,蠡县成化助剂有限公司,刘庄综合6台区,东河赵新乐毛纺厂,东河李建河,赵佃庄综合11台区,蠡县喜相逢饮品制造有限公司变压器,河北隆达绒毛有限公司变压器,蠡县李盛人造皮毛厂,东河综合10台区,刘庄综合1台区,兴旺人造皮毛厂变压器,占国沙口,东河和顺佳苑小区变压器,0552858526-蠡县东河刘程纺织厂-专变-171511201-晓辉变压器,刘庄综合3台区,东河综合12台区,0663809082-蠡县森雅绒毛制品有限公司-专变-199222445-蠡县森雅绒毛制品有限公司变压器,14517075|天宇毛纺厂,刘庄综合4台区,变压器,0667977279-蠡县辛兴兴农种子门市部-专变-209986603-蠡县辛兴兴农种子门市部变压器,东河世纪毛纺厂,赵佃庄综合14台区,赵佃庄综合9台区,老四,辛兴所路灯4#变压器,赵佃庄综合1台区,赵佃庄综合12台区,东河综合4台区,0663809082-蠡县森雅绒毛制品有限公司-专变-200850634-蠡县森雅绒毛制品有限公司,幸福家园,赵佃庄砖厂,0657745763-广东长青(集团)蠡县热电有限公司-专变-192886363-广东长青蠡县热电有限公司变压器,赵佃庄正学毛纺厂,东河板厂,蠡县辛兴镇卫生院,赵佃庄综合8台区,蠡县天宇毛纺厂,赵佃庄综合13台区,保定永盛毛绒有限公司变压器,东河占军毛条厂,东河综合3台区,蠡县森雅绒毛制品有限公司变压器,保定天龙制衣有限公司,东河恒通皮毛厂,东河医院,东河综合6台区,赵佃庄老闷皮毛厂,晓辉变压器,赵佃庄综合10台区,蠡县东河亚赛纸箱包装厂,赵佃庄综合16台区,刘庄综合2台区,兴河皮毛厂变压器,东河综合5台区,江海毛纺厂,烤鸭店,蠡县四龙纺织有限公司变压器,东河综合2台区,蠡县东河祥龙绒线厂变压器,东河综合7台区,蠡县东河亚赛纸箱包装,东河丽华皮毛厂,东河恒通皮毛2厂,瑞丰建材,东河村委会,恒力皮毛厂,东河南面粉厂,东河综合8台区,福隆纺纱厂,腾飞地毯沙厂,赵佃庄疏绒厂,赵佃庄爱军,蠡县东河渤润冷库,东河综合13台区,辛兴所路灯3#变压器,河北润凯纺织有限公司变压器,赵佃庄综合7台区,蠡县一诺纺织有限公司变压器,蠡县永盛毛绒有限公司,刘庄综合5台区,天宇毛纺厂,蠡县恒通人造皮毛厂,东河综合11台区","powerOffReason":"【停电原因】由于站外开关掉闸导致１１０ＫＶ辛兴变电站１０ＫＶ郑村５１７线路全线停电【变更送电】因抢修进度加快原因，送电时间由２３：００变更为１４：００【发布渠道】通过９５５９８发布","powerOffId":"2019072513000230"},{"poweroffId":2019072513000228,"sgpoweroffId":null,"subsName":"","lineName":"10kV513沙口线","pubTranName":"北沙口农排7台区【纯农排变】,梁庄综合8台区,北沙口农排17台区【纯农排变】,北沙口砖厂,北沙口综合1台区,北沙口农排1台区【纯农排变】,梁庄综合7台区,梁庄综合2台区,北沙口农排2台区【纯农排变】,北沙口农排3台区【纯农排变】,梁庄综合3台区,北沙口综合10台区,北沙口农排9台区【纯农排变】,北沙口综合11台区,北沙口综合9台区,蠡县利邦化纤有限公司1600,0678410688-蠡县梁庄村委会-专变-219701366-蠡县梁庄村委会,北沙口综合2台区,北沙口综合4台区,梁庄综合4台区,兆鑫毛纺厂,梁庄综合9台区,北沙口农排10台区【纯农排变】,顺达毛纺有限公司,北沙口农排13台区【纯农排变】,北沙口新村小区,北沙口综合3台区,北沙口综合5台区,梁庄综合5台区,梁庄综合10台区,北沙口农排11台区【纯农排变】,北沙口综合14台区,梁庄综合15台区,北沙口农排12台区【纯农排变】,北沙口农排8台区【纯农排变】,北沙口综合12台区,北沙口农排6台区【纯农排变】,梁庄综合1台区,梁庄农排1台区【纯农排变】,河北顺达毛纺有限公司变压器,梁庄综合14台区,北沙口农排4台区【纯农排变】,建茂面粉厂,北沙口综合6台区,北沙口农排5台区【纯农排变】,北沙口农排16台区【纯农排变】,0469118562-蠡县景乐汽车货运有限公司-专变-46722548-景乐货站,0552553971-蠡县利邦化纤有限公司-专变-177406762-蠡县利邦化纤有限公司变压器,北沙口综合13台区,梁庄农排3台区【纯农排变】,梁庄农排2台区【纯农排变】,梁庄综合11台区,北沙口农排15台区【纯农排变】,北沙口综合7台区,北沙口综合8台区,梁庄综合6台区,梁庄综合12台区,变压器,北沙口农排14台区【纯农排变】,","scope":"【影响街道/乡镇】辛兴镇【高危重要客户】无【影响客户】梁庄村、北沙口村","startTime":"2019-07-25 11:56:57","stopDate":"2019-07-25 14:00:00","orgNo":"1340616","typeCode":"电网故障停限电","poweroffArea":"【全线路停电】停北沙口综合10台区,河北顺达毛纺有限公司变压器,梁庄综合3台区,北沙口农排4台区【纯农排变】,北沙口农排5台区【纯农排变】,0678410688-蠡县梁庄村委会-专变-219701366-蠡县梁庄村委会,北沙口农排8台区【纯农排变】,梁庄综合1台区,0552553971-蠡县利邦化纤有限公司-专变-177406762-蠡县利邦化纤有限公司变压器,梁庄农排2台区【纯农排变】,北沙口综合4台区,北沙口综合11台区,梁庄农排3台区【纯农排变】,北沙口农排15台区【纯农排变】,北沙口农排12台区【纯农排变】,梁庄综合7台区,梁庄综合11台区,梁庄综合14台区,北沙口综合14台区,北沙口砖厂,变压器,北沙口综合7台区,蠡县利邦化纤有限公司1600,北沙口综合3台区,北沙口农排14台区【纯农排变】,梁庄农排1台区【纯农排变】,北沙口综合2台区,北沙口农排17台区【纯农排变】,北沙口综合13台区,梁庄综合10台区,北沙口农排7台区【纯农排变】,梁庄综合12台区,北沙口农排16台区【纯农排变】,北沙口综合5台区,北沙口综合8台区,北沙口新村小区,兆鑫毛纺厂,北沙口农排9台区【纯农排变】,梁庄综合8台区,建茂面粉厂,顺达毛纺有限公司,北沙口农排1台区【纯农排变】,梁庄综合5台区,梁庄综合6台区,北沙口农排13台区【纯农排变】,北沙口农排6台区【纯农排变】,北沙口农排3台区【纯农排变】,梁庄综合9台区,北沙口综合1台区,北沙口综合6台区,北沙口综合12台区,0469118562-蠡县景乐汽车货运有限公司-专变-46722548-景乐货站,北沙口农排2台区【纯农排变】,北沙口综合9台区,梁庄综合4台区,北沙口农排10台区【纯农排变】,北沙口农排11台区【纯农排变】,梁庄综合15台区,梁庄综合2台区","poweroffReason":"【停电原因】由于站外开关掉闸导致１１０ＫＶ辛兴变电站１０ＫＶ沙口５１３线路全线停电【变更送电】因抢修进度加快原因，送电时间由２３：００变更为１４：００【发布渠道】通过９５５９８发布","powerTime":"2019-07-25 13:06:49","powerComm":"已送电","subsNo":"","lineNo":"","tgNo":"","tgName":null,"infoStatus":"1","orgName":"国网蠡县供电公司","typeName":null,"infoStatusName":null,"dateDay":null,"orgNos":null,"nowTime":null,"countyName":null,"streetName":null,"villageName":null,"roadName":null,"communityName":null,"tranName":null,"sdLineName":null,"cityCode":"1340616","cityName":"国网蠡县供电公司","provinceCode":null,"stopTime":"2019-07-25 14:00:00","powerType":"全部","powerOffArea":"【全线路停电】停北沙口综合10台区,河北顺达毛纺有限公司变压器,梁庄综合3台区,北沙口农排4台区【纯农排变】,北沙口农排5台区【纯农排变】,0678410688-蠡县梁庄村委会-专变-219701366-蠡县梁庄村委会,北沙口农排8台区【纯农排变】,梁庄综合1台区,0552553971-蠡县利邦化纤有限公司-专变-177406762-蠡县利邦化纤有限公司变压器,梁庄农排2台区【纯农排变】,北沙口综合4台区,北沙口综合11台区,梁庄农排3台区【纯农排变】,北沙口农排15台区【纯农排变】,北沙口农排12台区【纯农排变】,梁庄综合7台区,梁庄综合11台区,梁庄综合14台区,北沙口综合14台区,北沙口砖厂,变压器,北沙口综合7台区,蠡县利邦化纤有限公司1600,北沙口综合3台区,北沙口农排14台区【纯农排变】,梁庄农排1台区【纯农排变】,北沙口综合2台区,北沙口农排17台区【纯农排变】,北沙口综合13台区,梁庄综合10台区,北沙口农排7台区【纯农排变】,梁庄综合12台区,北沙口农排16台区【纯农排变】,北沙口综合5台区,北沙口综合8台区,北沙口新村小区,兆鑫毛纺厂,北沙口农排9台区【纯农排变】,梁庄综合8台区,建茂面粉厂,顺达毛纺有限公司,北沙口农排1台区【纯农排变】,梁庄综合5台区,梁庄综合6台区,北沙口农排13台区【纯农排变】,北沙口农排6台区【纯农排变】,北沙口农排3台区【纯农排变】,梁庄综合9台区,北沙口综合1台区,北沙口综合6台区,北沙口综合12台区,0469118562-蠡县景乐汽车货运有限公司-专变-46722548-景乐货站,北沙口农排2台区【纯农排变】,北沙口综合9台区,梁庄综合4台区,北沙口农排10台区【纯农排变】,北沙口农排11台区【纯农排变】,梁庄综合15台区,梁庄综合2台区","powerOffReason":"【停电原因】由于站外开关掉闸导致１１０ＫＶ辛兴变电站１０ＫＶ沙口５１３线路全线停电【变更送电】因抢修进度加快原因，送电时间由２３：００变更为１４：００【发布渠道】通过９５５９８发布","powerOffId":"2019072513000228"},{"poweroffId":2019072513000224,"sgpoweroffId":null,"subsName":"","lineName":"10kV吴家辛线519","pubTranName":"1东顾庄内6,","scope":"【影响街道/乡镇】清苑镇 【高危重要客户】无 【影响客户】东顾庄","startTime":"2019-07-25 11:50:47","stopDate":"2019-07-25 13:00:00","orgNo":"1340618","typeCode":"电网故障停限电","poweroffArea":"【单台区停电】停1东顾庄内6","poweroffReason":"【停电原因】由于低压线断导致１１０ＫＶ中冉变电站１０ＫＶ吴家辛线５１９线路１东顾庄内６号公变台区停电 【变更送电】无 【发布渠道】通过９５５９８发布","powerTime":"2019-07-25 12:33:17","powerComm":"王凯通知已送电","subsNo":"","lineNo":"","tgNo":"","tgName":null,"infoStatus":"1","orgName":"国网清苑县供电公司","typeName":null,"infoStatusName":null,"dateDay":null,"orgNos":null,"nowTime":null,"countyName":null,"streetName":null,"villageName":null,"roadName":null,"communityName":null,"tranName":null,"sdLineName":null,"cityCode":"1340618","cityName":"国网清苑县供电公司","provinceCode":null,"stopTime":"2019-07-25 13:00:00","powerType":"全部","powerOffArea":"【单台区停电】停1东顾庄内6","powerOffReason":"【停电原因】由于低压线断导致１１０ＫＶ中冉变电站１０ＫＶ吴家辛线５１９线路１东顾庄内６号公变台区停电 【变更送电】无 【发布渠道】通过９５５９８发布","powerOffId":"2019072513000224"},{"poweroffId":2019072513000221,"sgpoweroffId":null,"subsName":"","lineName":"黄金台线511","pubTranName":"福源2,福源1,","scope":"【影响街道/乡镇】定兴镇、国泰街、开放路 【高危重要客户】无 【影响客户】国泰小区、天赐康周边门脸","startTime":"2019-07-25 11:40:23","stopDate":"2019-07-25 15:00:00","orgNo":"1340609","typeCode":"电网故障停限电","poweroffArea":"【分支停电】停福源2,福源1","poweroffReason":"【停电原因】由于福源１变压器烧毁导致１１０ＫＶ周家庄变电站黄金台线５１１线路天赐康分支１４号杆以下线路停电 【变更送电】因抢修进度加快原因，送电时间由１７：００变更为１５：００ 【发布渠道】通过９５５９８发布","powerTime":"2019-07-25 14:38:07","powerComm":"已送电","subsNo":"","lineNo":"","tgNo":"","tgName":null,"infoStatus":"1","orgName":"国网定兴县供电公司","typeName":null,"infoStatusName":null,"dateDay":null,"orgNos":null,"nowTime":null,"countyName":null,"streetName":null,"villageName":null,"roadName":null,"communityName":null,"tranName":null,"sdLineName":null,"cityCode":"1340609","cityName":"国网定兴县供电公司","provinceCode":null,"stopTime":"2019-07-25 15:00:00","powerType":"全部","powerOffArea":"【分支停电】停福源2,福源1","powerOffReason":"【停电原因】由于福源１变压器烧毁导致１１０ＫＶ周家庄变电站黄金台线５１１线路天赐康分支１４号杆以下线路停电 【变更送电】因抢修进度加快原因，送电时间由１７：００变更为１５：００ 【发布渠道】通过９５５９８发布","powerOffId":"2019072513000221"},{"poweroffId":2019072513000220,"sgpoweroffId":null,"subsName":"","lineName":"北山南线518","pubTranName":"良村3#,良村2#,良村8#,良村4#,良村6#,良村5#【纯农排变】,良村7#,良村村北,良村1#,","scope":"【影响街道/乡镇】易州镇【高危重要客户】无【影响客户】良村","startTime":"2019-07-26 05:00:00","stopDate":"2019-07-26 10:00:00","orgNo":"1340625","typeCode":"其他临时停电","poweroffArea":"【分支停电】停良村6#,良村5#【纯农排变】,良村7#,良村1#,良村4#,良村村北,良村3#,良村2#,良村8#","poweroffReason":"【停电原因】由于线路消缺导致１１０ＫＶ易县变电站北山南线５１８线路００５号杆至０１０号杆之间停电【变更送电】无【发布渠道】通过９５５９８发布","powerTime":"2019-07-26 09:17:16","powerComm":"已送电","subsNo":"","lineNo":"","tgNo":"","tgName":null,"infoStatus":"1","orgName":"国网易县供电公司","typeName":null,"infoStatusName":null,"dateDay":null,"orgNos":null,"nowTime":null,"countyName":null,"streetName":null,"villageName":null,"roadName":null,"communityName":null,"tranName":null,"sdLineName":null,"cityCode":"1340625","cityName":"国网易县供电公司","provinceCode":null,"stopTime":"2019-07-26 10:00:00","powerType":"全部","powerOffArea":"【分支停电】停良村6#,良村5#【纯农排变】,良村7#,良村1#,良村4#,良村村北,良村3#,良村2#,良村8#","powerOffReason":"【停电原因】由于线路消缺导致１１０ＫＶ易县变电站北山南线５１８线路００５号杆至０１０号杆之间停电【变更送电】无【发布渠道】通过９５５９８发布","powerOffId":"2019072513000220"},{"poweroffId":2019072513000210,"sgpoweroffId":null,"subsName":"","lineName":"10V高洛线511","pubTranName":"庄疃公用1变压器,涞水县天硕建筑材料有限公司800KVA专变,庄疃7号台区,庄疃511机井,涞水县天硕建筑材料制造有限公司800KVA专变,0657526452-涞水金泰商品混凝土有限公司-专变-190448652-涞水金泰商品混凝土有限公司500KVA专变,庄疃7-1台区配变,涞水县天硕建筑材料制造有限公司1000KVA专变,庄疃7-2台区配变,西义安铁道井变压器【纯农排变】,顺心冷冻厂250KVA专变,西义安砖厂2,","scope":"【影响街道/乡镇】义安镇 【高危重要客户】无 【影响客户】庄疃村、天硕建材","startTime":"2019-07-26 05:00:00","stopDate":"2019-07-26 06:00:00","orgNo":"1340614","typeCode":"其他临时停电","poweroffArea":"【全线路停电】停涞水县天硕建筑材料制造有限公司1000KVA专变,涞水县天硕建筑材料制造有限公司800KVA专变,庄疃公用1变压器,涞水县天硕建筑材料有限公司800KVA专变,庄疃7号台区,庄疃511机井,0657526452-涞水金泰商品混凝土有限公司-专变-190448652-涞水金泰商品混凝土有限公司500KVA专变,庄疃7-1台区配变,庄疃7-2台区配变,西义安铁道井变压器【纯农排变】,顺心冷冻厂250KVA专变,西义安砖厂2","poweroffReason":"【停电原因】由于倒运行方式导致３５ＫＶ城东变电站１０ＫＶ高洛线５１１线路全线停电 【变更送电】无 【发布渠道】通过９５５９８发布","powerTime":"2019-07-26 05:43:40","powerComm":"已送电","subsNo":"","lineNo":"","tgNo":"","tgName":null,"infoStatus":"1","orgName":"国网涞水县供电公司","typeName":null,"infoStatusName":null,"dateDay":null,"orgNos":null,"nowTime":null,"countyName":null,"streetName":null,"villageName":null,"roadName":null,"communityName":null,"tranName":null,"sdLineName":null,"cityCode":"1340614","cityName":"国网涞水县供电公司","provinceCode":null,"stopTime":"2019-07-26 06:00:00","powerType":"全部","powerOffArea":"【全线路停电】停涞水县天硕建筑材料制造有限公司1000KVA专变,涞水县天硕建筑材料制造有限公司800KVA专变,庄疃公用1变压器,涞水县天硕建筑材料有限公司800KVA专变,庄疃7号台区,庄疃511机井,0657526452-涞水金泰商品混凝土有限公司-专变-190448652-涞水金泰商品混凝土有限公司500KVA专变,庄疃7-1台区配变,庄疃7-2台区配变,西义安铁道井变压器【纯农排变】,顺心冷冻厂250KVA专变,西义安砖厂2","powerOffReason":"【停电原因】由于倒运行方式导致３５ＫＶ城东变电站１０ＫＶ高洛线５１１线路全线停电 【变更送电】无 【发布渠道】通过９５５９８发布","powerOffId":"2019072513000210"},{"poweroffId":2019072513000209,"sgpoweroffId":null,"subsName":"","lineName":"10kV514木佃线","pubTranName":"木佃公用农业7台区【纯农排变】,定州市木佃村益民养殖场,木佃公用照明15台区,定州市泰鼎保温材料厂变压器,木佃公用农业13台区【纯农排变】,木佃公用农业4台区【纯农排变】,木佃公用农业20台区【纯农排变】,木佃公用照明11台区,木佃公用照明10台区,七级公用农业5台区【纯农排变】,木佃公用农业25台区【纯农排变】,木佃公用农业14台区【纯农排变】,木佃公用照明5台区,木佃公用农业11台区【纯农排变】,七级公用农业6台区【纯农排变】,定州市木佃有才面粉厂,寺底公用农业3台区【纯农排变】,寺底公用农业18台区【纯农排变】,木佃公用农业23台区【纯农排变】,木佃公用农业6台区,木佃公用农业19台区【纯农排变】,木佃公用农业9台区【纯农排变】,木佃公用农业1台区【纯农排变】,木佃公用照明13台区,寺底公用农业16台区【纯农排变】,七级公用农业9台区【纯农排变】,木佃公用照明3台区,木佃公用农业26台区【纯农排变】,东丁庄公用照明2台区,木佃公用照明8台区,木佃公用农业8台区【纯农排变】,七级公用农业3台区【纯农排变】,木佃公用照明18台区,木佃公用照明6台区,定州市金润商砼站变压器,木佃公用农业10台区【纯农排变】,木佃公用农业18台区【纯农排变】,七级公用农业2台区【纯农排变】,木佃公用农业5台区【纯农排变】2,寺底公用农业2台区【纯农排变】,木佃公用农业27台区【纯农排变】,寺底公用农业17台区【纯农排变】,木佃公用农业21台区【纯农排变】,寺底公用农业14台区【纯农排变】,木佃公用照明9台区,木佃公用农业28台区【纯农排变】,木佃公用照明16台区,木佃公用照明4台区,木佃公用农业3台区【纯农排变】,七级公用农业1台区【纯农排变】,东丁庄公用农业1台区【纯农排变】,木佃公用照明2台区,七级公用农业10台区【纯农排变】,七级公用农业8台区【纯农排变】,木佃公用农业24台区【纯农排变】,木佃公用照明12台区,东丁庄公用照明1台区,寺底公用农业1台区【纯农排变】,木佃公用照明17台区,木佃公用农业12台区【纯农排变】,七级公用农业7台区【纯农排变】,东丁庄村公用农业2台区【纯农排变】,木佃公用照明14台区,客户投资_木佃公用照明1台区,木佃公用照明7台区,定州市贞海金属网厂变压器,木佃公用农业29台区【纯农排变】,木佃公用农业16台区【纯农排变】,木佃公用农业2台区,七级公用农业4台区【纯农排变】,木佃公用农业22台区【纯农排变】,木佃公用农业15台区【纯农排变】,","scope":"【影响街道/乡镇】子位镇【高危重要客户】无【影响客户】木佃、东丁庄、寺底、七级","startTime":"2019-08-02 11:00:00","stopDate":"2019-08-02 14:00:00","orgNo":"1340610","typeCode":"临时停电","poweroffArea":"【全线路停电】停木佃公用农业7台区【纯农排变】,定州市木佃村益民养殖场,木佃公用照明15台区,定州市泰鼎保温材料厂变压器,木佃公用农业13台区【纯农排变】,木佃公用农业4台区【纯农排变】,木佃公用农业20台区【纯农排变】,木佃公用照明11台区,木佃公用照明10台区,七级公用农业5台区【纯农排变】,木佃公用农业25台区【纯农排变】,木佃公用农业14台区【纯农排变】,木佃公用照明5台区,木佃公用农业11台区【纯农排变】,七级公用农业6台区【纯农排变】,定州市木佃有才面粉厂,寺底公用农业3台区【纯农排变】,寺底公用农业18台区【纯农排变】,木佃公用农业23台区【纯农排变】,木佃公用农业6台区,木佃公用农业19台区【纯农排变】,木佃公用农业9台区【纯农排变】,木佃公用农业1台区【纯农排变】,木佃公用照明13台区,寺底公用农业16台区【纯农排变】,七级公用农业9台区【纯农排变】,木佃公用照明3台区,木佃公用农业26台区【纯农排变】,东丁庄公用照明2台区,木佃公用照明8台区,木佃公用农业8台区【纯农排变】,七级公用农业3台区【纯农排变】,木佃公用照明18台区,木佃公用照明6台区,定州市金润商砼站变压器,木佃公用农业10台区【纯农排变】,木佃公用农业18台区【纯农排变】,七级公用农业2台区【纯农排变】,木佃公用农业5台区【纯农排变】2,寺底公用农业2台区【纯农排变】,木佃公用农业27台区【纯农排变】,寺底公用农业17台区【纯农排变】,木佃公用农业21台区【纯农排变】,寺底公用农业14台区【纯农排变】,木佃公用照明9台区,木佃公用农业28台区【纯农排变】,木佃公用照明16台区,木佃公用照明4台区,木佃公用农业3台区【纯农排变】,七级公用农业8台区【纯农排变】,木佃公用农业24台区【纯农排变】,木佃公用照明12台区,东丁庄公用照明1台区,寺底公用农业1台区【纯农排变】,木佃公用照明17台区,木佃公用农业12台区【纯农排变】,七级公用农业7台区【纯农排变】,东丁庄村公用农业2台区【纯农排变】,木佃公用照明14台区,客户投资_木佃公用照明1台区,木佃公用照明7台区,定州市贞海金属网厂变压器,木佃公用农业29台区【纯农排变】,木佃公用农业16台区【纯农排变】,木佃公用农业2台区,七级公用农业4台区【纯农排变】,木佃公用农业22台区【纯农排变】,木佃公用农业15台区【纯农排变】,七级公用农业1台区【纯农排变】,东丁庄公用农业1台区【纯农排变】,木佃公用照明2台区,七级公用农业10台区【纯农排变】","poweroffReason":"【停电原因】由于更换ＣＴ下接头导致３５ＫＶ丁村变电站１０ＫＶ５１４木佃线路全线停电 【变更送电】无 【发布渠道】河北省定州市定州日报第三版（２０１９年０７月２６日）","powerTime":"2019-08-02 13:48:10","powerComm":"已送电","subsNo":"","lineNo":"","tgNo":"","tgName":null,"infoStatus":"1","orgName":"国网定州市供电公司","typeName":null,"infoStatusName":null,"dateDay":null,"orgNos":null,"nowTime":null,"countyName":null,"streetName":null,"villageName":null,"roadName":null,"communityName":null,"tranName":null,"sdLineName":null,"cityCode":"1340610","cityName":"国网定州市供电公司","provinceCode":null,"stopTime":"2019-08-02 14:00:00","powerType":"全部","powerOffArea":"【全线路停电】停木佃公用农业7台区【纯农排变】,定州市木佃村益民养殖场,木佃公用照明15台区,定州市泰鼎保温材料厂变压器,木佃公用农业13台区【纯农排变】,木佃公用农业4台区【纯农排变】,木佃公用农业20台区【纯农排变】,木佃公用照明11台区,木佃公用照明10台区,七级公用农业5台区【纯农排变】,木佃公用农业25台区【纯农排变】,木佃公用农业14台区【纯农排变】,木佃公用照明5台区,木佃公用农业11台区【纯农排变】,七级公用农业6台区【纯农排变】,定州市木佃有才面粉厂,寺底公用农业3台区【纯农排变】,寺底公用农业18台区【纯农排变】,木佃公用农业23台区【纯农排变】,木佃公用农业6台区,木佃公用农业19台区【纯农排变】,木佃公用农业9台区【纯农排变】,木佃公用农业1台区【纯农排变】,木佃公用照明13台区,寺底公用农业16台区【纯农排变】,七级公用农业9台区【纯农排变】,木佃公用照明3台区,木佃公用农业26台区【纯农排变】,东丁庄公用照明2台区,木佃公用照明8台区,木佃公用农业8台区【纯农排变】,七级公用农业3台区【纯农排变】,木佃公用照明18台区,木佃公用照明6台区,定州市金润商砼站变压器,木佃公用农业10台区【纯农排变】,木佃公用农业18台区【纯农排变】,七级公用农业2台区【纯农排变】,木佃公用农业5台区【纯农排变】2,寺底公用农业2台区【纯农排变】,木佃公用农业27台区【纯农排变】,寺底公用农业17台区【纯农排变】,木佃公用农业21台区【纯农排变】,寺底公用农业14台区【纯农排变】,木佃公用照明9台区,木佃公用农业28台区【纯农排变】,木佃公用照明16台区,木佃公用照明4台区,木佃公用农业3台区【纯农排变】,七级公用农业8台区【纯农排变】,木佃公用农业24台区【纯农排变】,木佃公用照明12台区,东丁庄公用照明1台区,寺底公用农业1台区【纯农排变】,木佃公用照明17台区,木佃公用农业12台区【纯农排变】,七级公用农业7台区【纯农排变】,东丁庄村公用农业2台区【纯农排变】,木佃公用照明14台区,客户投资_木佃公用照明1台区,木佃公用照明7台区,定州市贞海金属网厂变压器,木佃公用农业29台区【纯农排变】,木佃公用农业16台区【纯农排变】,木佃公用农业2台区,七级公用农业4台区【纯农排变】,木佃公用农业22台区【纯农排变】,木佃公用农业15台区【纯农排变】,七级公用农业1台区【纯农排变】,东丁庄公用农业1台区【纯农排变】,木佃公用照明2台区,七级公用农业10台区【纯农排变】","powerOffReason":"【停电原因】由于更换ＣＴ下接头导致３５ＫＶ丁村变电站１０ＫＶ５１４木佃线路全线停电 【变更送电】无 【发布渠道】河北省定州市定州日报第三版（２０１９年０７月２６日）","powerOffId":"2019072513000209"}],"pageModel":{"pageNow":782,"totalCount":10973,"totalPage":1098,"tableRows":0,"pageCount":10,"beginCount":7810},"isExperi":"1"}