{"message":"","today":"2020-06-15","seleList":[{"poweroffId":2019072413000158,"sgpoweroffId":null,"subsName":"","lineName":"10KV满金峪线573","pubTranName":"石亭南台区2,","scope":"【影响街道/乡镇】石亭镇 【高危重要客户】无 【影响客户】石亭村","startTime":"2019-07-24 10:55:44","stopDate":"2019-07-24 12:30:00","orgNo":"1340614","typeCode":"电网故障停限电","poweroffArea":"【单台区停电】停石亭南台区2","poweroffReason":"【停电原因】由于电缆烧毁导致１１０ＫＶ石亭变电站１０ＫＶ满金峪５７３线路石亭南２公变台区停电 【变更送电】因抢修进度加快原因，送电时间由１３：３０变更为１２：３０ 【发布渠道】通过９５５９８发布","powerTime":"2019-07-24 11:57:56","powerComm":"已送电","subsNo":"","lineNo":"","tgNo":"","tgName":null,"infoStatus":"1","orgName":"国网涞水县供电公司","typeName":null,"infoStatusName":null,"dateDay":null,"orgNos":null,"nowTime":null,"countyName":null,"streetName":null,"villageName":null,"roadName":null,"communityName":null,"tranName":null,"sdLineName":null,"cityCode":"1340614","cityName":"国网涞水县供电公司","provinceCode":null,"stopTime":"2019-07-24 12:30:00","powerType":"全部","powerOffArea":"【单台区停电】停石亭南台区2","powerOffReason":"【停电原因】由于电缆烧毁导致１１０ＫＶ石亭变电站１０ＫＶ满金峪５７３线路石亭南２公变台区停电 【变更送电】因抢修进度加快原因，送电时间由１３：３０变更为１２：３０ 【发布渠道】通过９５５９８发布","powerOffId":"2019072413000158"},{"poweroffId":2019072413000145,"sgpoweroffId":null,"subsName":"","lineName":"李各庄线527","pubTranName":"南无东南配变【纯农排变】,十里铺东农2号配变【纯农排变】,南李各庄北混合配变,北李各庄西农3号【纯农排变】,南无村东农业配变【纯农排变】,十里铺西农2号【纯农排变】,十五计幼儿园配变,北李各庄西北混配变,北李各庄北跑配变【纯农排变】,南无村西农业配变【纯农排变】,南李各庄南混,大十五计东农变压器【纯农排变】,南李各庄南农配变【纯农排变】,南李各庄新民居2号,大十五计西农2号【纯农排变】,十里铺混合配变,太平庄东南农业配变【纯农排变】,南无村北农配变【纯农排变】,北李各庄内东2号配变,八里庄东北农配变【纯农排变】,大十五计西北农配变【纯农排变】,十里铺北农配变【纯农排变】,大十五计桥头农配变【纯农排变】,南李各庄内混合配变,北李各庄西混配变,太平庄村内混合配变,南李各庄混合配变,大十五计西北农3号【纯农排变】,大十五计新区配变,姜庄村东南混配变,北李各庄北混,南李各庄东农2号配变【纯农排变】,姜庄西农新增,大十五计东农2号西配变【纯农排变】,北李各庄内东3号,大十五计西农配变【纯农排变】,姜庄村内西混配变,十里铺村东农配变【纯农排变】,太平庄村南农业配变【纯农排变】,李各庄外西3混配变,移动公司太平庄分公司,大十五计新民居2号配变,北李各庄加工厂,十里铺东混配变,望都县华星塑料制品厂,北李各庄西北农2号配变【纯农排变】,南李各庄东农配变【纯农排变】,王会东加工厂,北李各庄外西2号混配变,南李各庄村西混合配变,姜庄村南农配变【纯农排变】,姜庄南混,南李各庄西南混配变,北李各庄东北农配变【纯农排变】,大十五计新民居3号配变,太平庄南2号农配变【纯农排变】,南无村东混合配变,十里铺东农3号配变【纯农排变】,十里铺新民居配变,十里铺村南农业配变【纯农排变】,大十五计东混配变,大十五计大队混配变,八里庄村北农配变【纯农排变】,南无南混,望都县亚宇鞋厂（李各庄分厂）,北李各庄村北配变【纯农排变】,南李各庄光伏配变,大十五计东南混配变,大十五计外西混2号配变,南无村西混合配变,南李各庄幼儿园配变,北李各庄村外西混配变,大十五计西北2号农配变【纯农排变】,北李各庄北混2号,大十五计南混2号配变,大十五计北四叉口农配变【纯农排变】,十里铺南农2号配变【纯农排变】,八里庄新民居2号配变,北李各庄西农配变【纯农排变】,大十五计南混配变,大十五计外西混配变,大十五计内西混配变,大十五计北农新增配变【纯农排变】,变压器,姜庄村内东混配变,十里铺西农配变【纯农排变】,南无光伏配变,北李各庄北农2号配变【纯农排变】,北李各庄西北农配变【纯农排变】,姜庄面粉厂,大十五计琉璃瓦厂混配变,南李各庄新混配变,八里庄新区配变,太平庄新混配变,八里庄西混,北李各庄东混配变,南无东混2号,北李各庄西2号农配变【纯农排变】,","scope":"【影响街道/乡镇】赵庄乡、望都镇 【高危重要客户】无　　 【影响客户】南无村、大十五计、太平庄、南李各庄、北李各庄、姜庄村、十里铺、八里庄村部分农业、八里庄新区、姜庄面粉厂、北李各庄面粉厂、王会东加工厂、移动公司太平庄分公司、亚宇鞋厂李各庄分厂、望都县东方塑料加工厂、凯乐牲畜养殖、望都县华星塑料制品厂、北李各庄加工厂","startTime":"2019-07-24 11:01:00","stopDate":"2019-07-24 13:00:00","orgNo":"1340623","typeCode":"电网故障停限电","poweroffArea":"【全线路停电】停南无东混2号,北李各庄西2号农配变【纯农排变】,大十五计西农配变【纯农排变】,姜庄村内西混配变,十里铺村东农配变【纯农排变】,大十五计西北2号农配变【纯农排变】,北李各庄北混2号,大十五计南混2号配变,大十五计北四叉口农配变【纯农排变】,十里铺南农2号配变【纯农排变】,八里庄新民居2号配变,北李各庄西农配变【纯农排变】,大十五计南混配变,大十五计外西混配变,大十五计内西混配变,大十五计北农新增配变【纯农排变】,变压器,大十五计西农2号【纯农排变】,十里铺混合配变,太平庄东南农业配变【纯农排变】,南无村北农配变【纯农排变】,北李各庄内东2号配变,八里庄东北农配变【纯农排变】,大十五计西北农配变【纯农排变】,南无东南配变【纯农排变】,十里铺东农2号配变【纯农排变】,南李各庄北混合配变,南李各庄南农配变【纯农排变】,南李各庄新民居2号,十里铺北农配变【纯农排变】,大十五计桥头农配变【纯农排变】,南李各庄内混合配变,北李各庄西混配变,太平庄村内混合配变,南李各庄混合配变,大十五计西北农3号【纯农排变】,大十五计新区配变,姜庄村东南混配变,北李各庄西农3号【纯农排变】,南无村东农业配变【纯农排变】,十里铺西农2号【纯农排变】,十五计幼儿园配变,北李各庄西北混配变,姜庄南混,南李各庄西南混配变,北李各庄东北农配变【纯农排变】,大十五计新民居3号配变,太平庄南2号农配变【纯农排变】,南无村东混合配变,十里铺东农3号配变【纯农排变】,十里铺新民居配变,十里铺村南农业配变【纯农排变】,大十五计东混配变,大十五计大队混配变,八里庄村北农配变【纯农排变】,南无南混,望都县亚宇鞋厂（李各庄分厂）,北李各庄北跑配变【纯农排变】,南无村西农业配变【纯农排变】,南李各庄南混,大十五计东农变压器【纯农排变】,北李各庄北混,南李各庄东农2号配变【纯农排变】,姜庄西农新增,大十五计东农2号西配变【纯农排变】,北李各庄内东3号,太平庄村南农业配变【纯农排变】,李各庄外西3混配变,移动公司太平庄分公司,大十五计新民居2号配变,北李各庄加工厂,十里铺东混配变,望都县华星塑料制品厂,北李各庄西北农2号配变【纯农排变】,南李各庄东农配变【纯农排变】,王会东加工厂,北李各庄外西2号混配变,北李各庄东混配变,姜庄村内东混配变,十里铺西农配变【纯农排变】,南无光伏配变,北李各庄北农2号配变【纯农排变】,北李各庄西北农配变【纯农排变】,姜庄面粉厂,大十五计琉璃瓦厂混配变,南李各庄新混配变,南李各庄村西混合配变,姜庄村南农配变【纯农排变】,北李各庄村北配变【纯农排变】,南李各庄光伏配变,大十五计东南混配变,大十五计外西混2号配变,南无村西混合配变,南李各庄幼儿园配变,北李各庄村外西混配变,八里庄新区配变,太平庄新混配变,八里庄西混","poweroffReason":"【停电原因】由于主干５１号杆Ｂ相导线脱落导致１１０ＫＶ八里庄变电站李各庄线５２７线路全线停电 【变更送电】因抢修进度加快原因，送电时间由２２：００变更为１３：００ 【发布渠道】通过９５５９８发布","powerTime":"2019-07-24 12:34:47","powerComm":"已送电","subsNo":"","lineNo":"","tgNo":"","tgName":null,"infoStatus":"1","orgName":"国网望都县供电公司","typeName":null,"infoStatusName":null,"dateDay":null,"orgNos":null,"nowTime":null,"countyName":null,"streetName":null,"villageName":null,"roadName":null,"communityName":null,"tranName":null,"sdLineName":null,"cityCode":"1340623","cityName":"国网望都县供电公司","provinceCode":null,"stopTime":"2019-07-24 13:00:00","powerType":"全部","powerOffArea":"【全线路停电】停南无东混2号,北李各庄西2号农配变【纯农排变】,大十五计西农配变【纯农排变】,姜庄村内西混配变,十里铺村东农配变【纯农排变】,大十五计西北2号农配变【纯农排变】,北李各庄北混2号,大十五计南混2号配变,大十五计北四叉口农配变【纯农排变】,十里铺南农2号配变【纯农排变】,八里庄新民居2号配变,北李各庄西农配变【纯农排变】,大十五计南混配变,大十五计外西混配变,大十五计内西混配变,大十五计北农新增配变【纯农排变】,变压器,大十五计西农2号【纯农排变】,十里铺混合配变,太平庄东南农业配变【纯农排变】,南无村北农配变【纯农排变】,北李各庄内东2号配变,八里庄东北农配变【纯农排变】,大十五计西北农配变【纯农排变】,南无东南配变【纯农排变】,十里铺东农2号配变【纯农排变】,南李各庄北混合配变,南李各庄南农配变【纯农排变】,南李各庄新民居2号,十里铺北农配变【纯农排变】,大十五计桥头农配变【纯农排变】,南李各庄内混合配变,北李各庄西混配变,太平庄村内混合配变,南李各庄混合配变,大十五计西北农3号【纯农排变】,大十五计新区配变,姜庄村东南混配变,北李各庄西农3号【纯农排变】,南无村东农业配变【纯农排变】,十里铺西农2号【纯农排变】,十五计幼儿园配变,北李各庄西北混配变,姜庄南混,南李各庄西南混配变,北李各庄东北农配变【纯农排变】,大十五计新民居3号配变,太平庄南2号农配变【纯农排变】,南无村东混合配变,十里铺东农3号配变【纯农排变】,十里铺新民居配变,十里铺村南农业配变【纯农排变】,大十五计东混配变,大十五计大队混配变,八里庄村北农配变【纯农排变】,南无南混,望都县亚宇鞋厂（李各庄分厂）,北李各庄北跑配变【纯农排变】,南无村西农业配变【纯农排变】,南李各庄南混,大十五计东农变压器【纯农排变】,北李各庄北混,南李各庄东农2号配变【纯农排变】,姜庄西农新增,大十五计东农2号西配变【纯农排变】,北李各庄内东3号,太平庄村南农业配变【纯农排变】,李各庄外西3混配变,移动公司太平庄分公司,大十五计新民居2号配变,北李各庄加工厂,十里铺东混配变,望都县华星塑料制品厂,北李各庄西北农2号配变【纯农排变】,南李各庄东农配变【纯农排变】,王会东加工厂,北李各庄外西2号混配变,北李各庄东混配变,姜庄村内东混配变,十里铺西农配变【纯农排变】,南无光伏配变,北李各庄北农2号配变【纯农排变】,北李各庄西北农配变【纯农排变】,姜庄面粉厂,大十五计琉璃瓦厂混配变,南李各庄新混配变,南李各庄村西混合配变,姜庄村南农配变【纯农排变】,北李各庄村北配变【纯农排变】,南李各庄光伏配变,大十五计东南混配变,大十五计外西混2号配变,南无村西混合配变,南李各庄幼儿园配变,北李各庄村外西混配变,八里庄新区配变,太平庄新混配变,八里庄西混","powerOffReason":"【停电原因】由于主干５１号杆Ｂ相导线脱落导致１１０ＫＶ八里庄变电站李各庄线５２７线路全线停电 【变更送电】因抢修进度加快原因，送电时间由２２：００变更为１３：００ 【发布渠道】通过９５５９８发布","powerOffId":"2019072413000145"},{"poweroffId":2019072413000128,"sgpoweroffId":null,"subsName":"","lineName":"10kV517曲堤线","pubTranName":"大曲堤综合19台区变压器,大曲堤综合20台区变压器,东庞农排2台区【纯农排变】,西庞农排8台区【纯农排变】,大曲堤综合22台区变压器,北绪口综合7台区,大曲堤综合29台区变压器,西庞农排5台区【纯农排变】,大曲堤综合7台区变压器,0469432510-中国联合网络通信有限公司蠡县分公司-专变-46810254-网通公司,蠡县大曲堤乡中学,大曲堤综合18台区变压器,0628582416-蠡县立纯麻山药农民专业合作社-专变-140233673-蠡县曲堤建辉麻山药经销站变压器,大曲堤综合25台区变压器,大曲堤综合21台区变压器,0604192268-蠡县曲堤德旺包装制品厂-专变-127052052-蠡县曲堤德旺包装制品厂,陈营综合2台区变压器,大曲堤综合23台区变压器,西庞综合3台区变压器,大曲堤综合9台区变压器,西庞综合1台区变压器,北绪口综合1台区,0625934386-蠡县曲堤顺杰麻山药经销站-专变-138660027-蠡县曲堤顺杰麻山药经销站,陈营综合3台区变压器,西庞综合8台区变压器,0565990945-中国移动通信集团河北有限公司蠡县分公司-专变-118727920-中国移动通信集团河北有限公司蠡县分公司北绪口村变压器,北绪口农排3台区【纯农排变】,大曲堤综合14台区变压器,大曲堤综合5台区,西庞农排7台区【纯农排变】,大曲堤综合17台区变压器,大曲堤综合27台区变压器,大曲堤综合28台区变压器,0469434183-曲堤乡政府-专变-46810209-纳地,大曲堤综合3台区,西庞农排2台区【纯农排变】,北绪口综合4台区,大曲堤农排8台区【纯农排变】,西庞综合4台区变压器,大曲堤综合11台区变压器,西庞综合5台区变压器,大曲堤综合4台区,蠡县凤举麻山药农民专业合作社,大曲堤综合12台区变压器,大曲堤农排12台区【纯农排变】,大曲堤农排9台区【纯农排变】,西庞农排4台区【纯农排变】,大曲堤农排7台区【纯农排变】,西庞农排1台区【纯农排变】,0629312658-蠡县端阳麻山药农民专业合作社-专变-141630370-蠡县端阳麻山药农民合作社变压器,大曲堤综合13台区变压器,大曲堤综合8台区变压器,北绪口农排4台区【纯农排变】,北绪口综合2台区,陈营综合1台区变压器,大曲堤综合1台区,大曲堤综合15台区变压器,北绪口综合8台区,北绪口综合6台区,东庞农排1台区【纯农排变】,0619986492-蠡县鑫鑫麻山药农民专业合作社-专变-223625090-蠡县鑫鑫麻山药农民专业合作社变压器,大曲堤综合16台区变压器,北绪口综合3台区,东庞综合1台区变压器,0618936991-蠡县卓亚纺织有限公司-专变-128914691-蠡县雅琪纺织厂变压器,陈营综合4台区变压器,蠡县鼎源麻山药农民专业合作,北绪口综合5台区,东庞综合2台区变压器,大曲堤综合26台区变压器,大曲堤农排3台区【纯农排变】,0626348757-蠡县利农麻山药农民专业合作社-专变-139242228-蠡县利农麻山药农民专业合作社变压器,大曲堤综合2台区,大曲堤综合10台区变压器,大曲堤综合6台区变压器,东庞综合3台区变压器,大曲堤农排10台区【纯农排变】,","scope":"【影响街道/乡镇】大曲堤乡【高危重要客户】无【影响客户】北绪口村、东庞果村、陈阎营村、西绪口村、大曲堤村、西庞果村、高佐村","startTime":"2019-07-24 10:08:53","stopDate":"2019-07-24 14:00:00","orgNo":"1340616","typeCode":"电网故障停限电","poweroffArea":"【全线路停电】停大曲堤综合10台区变压器,蠡县鼎源麻山药农民专业合作,大曲堤综合25台区变压器,北绪口综合2台区,北绪口农排3台区【纯农排变】,西庞综合3台区变压器,大曲堤综合18台区变压器,西庞综合4台区变压器,0604192268-蠡县曲堤德旺包装制品厂-专变-127052052-蠡县曲堤德旺包装制品厂,0469434196-粮站面粉厂-专变-46810394-粮站面粉厂,0469432510-中国联合网络通信有限公司蠡县分公司-专变-46810254-网通公司,陈营综合1台区变压器,大曲堤综合23台区变压器,大曲堤农排12台区【纯农排变】,0629312658-蠡县端阳麻山药农民专业合作社-专变-141630370-蠡县端阳麻山药农民合作社变压器,大曲堤综合19台区变压器,大曲堤综合9台区变压器,大曲堤综合15台区变压器,陈营综合3台区变压器,西庞农排6台区【纯农排变】,蠡县大曲堤乡中学,北绪口农排4台区【纯农排变】,陈营综合2台区变压器,大曲堤农排9台区【纯农排变】,蠡县凤举麻山药农民专业合作社,北绪口综合8台区,西庞综合10台区变压器,大曲堤综合12台区变压器,大曲堤综合8台区变压器,西庞综合6台区变压器,西庞农排4台区【纯农排变】,大曲堤综合3台区,大曲堤综合13台区变压器,大曲堤综合1台区,西庞综合8台区变压器,东庞综合3台区变压器,0628582416-蠡县立纯麻山药农民专业合作社-专变-140233673-蠡县曲堤建辉麻山药经销站变压器,西庞农排2台区【纯农排变】,西庞农排5台区【纯农排变】,北绪口综合3台区,西庞综合7台区变压器,大曲堤农排10台区【纯农排变】,大曲堤农排8台区【纯农排变】,西庞综合1台区变压器,大曲堤综合7台区变压器,西庞综合5台区变压器,大曲堤综合24台区变压器,东庞农排1台区【纯农排变】,北绪口综合1台区,东庞农排2台区【纯农排变】,大曲堤综合21台区变压器,大曲堤综合16台区变压器,大曲堤农排7台区【纯农排变】,西庞农排8台区【纯农排变】,大曲堤综合20台区变压器,大曲堤综合2台区,大曲堤综合22台区变压器,0619986492-蠡县鑫鑫麻山药农民专业合作社-专变-223625090-蠡县鑫鑫麻山药农民专业合作社变压器,北绪口农排2台区【纯农排变】,大曲堤综合6台区变压器,北绪口综合5台区,陈营综合4台区变压器,0565990945-中国移动通信集团河北有限公司蠡县分公司-专变-118727920-中国移动通信集团河北有限公司蠡县分公司北绪口村变压器,东庞综合2台区变压器,0469434183-曲堤乡政府-专变-46810209-纳地,大曲堤综合5台区,大曲堤农排14台区【纯农排变】,西庞综合2台区变压器,0625934386-蠡县曲堤顺杰麻山药经销站-专变-138660027-蠡县曲堤顺杰麻山药经销站,北绪口综合6台区,西庞农排7台区【纯农排变】,大曲堤综合11台区变压器,北绪口综合7台区,大曲堤综合26台区变压器,大曲堤综合17台区变压器,北绪口综合4台区,0626348757-蠡县利农麻山药农民专业合作社-专变-139242228-蠡县利农麻山药农民专业合作社变压器,大曲堤综合27台区变压器,大曲堤综合4台区,大曲堤综合29台区变压器,大曲堤综合28台区变压器,东庞综合1台区变压器,大曲堤农排3台区【纯农排变】,0618936991-蠡县卓亚纺织有限公司-专变-128914691-蠡县雅琪纺织厂变压器,西庞农排1台区【纯农排变】,大曲堤综合14台区变压器","poweroffReason":"【停电原因】由于线路接地导致３５ＫＶ握纽庄变电站１０ＫＶ曲堤５１７线路全线停电【变更送电】因抢修进度加快原因，送电时间由１５：００变更为１４：００【发布渠道】通过９５５９８发布","powerTime":"2019-07-24 13:20:25","powerComm":"已送电","subsNo":"","lineNo":"","tgNo":"","tgName":null,"infoStatus":"1","orgName":"国网蠡县供电公司","typeName":null,"infoStatusName":null,"dateDay":null,"orgNos":null,"nowTime":null,"countyName":null,"streetName":null,"villageName":null,"roadName":null,"communityName":null,"tranName":null,"sdLineName":null,"cityCode":"1340616","cityName":"国网蠡县供电公司","provinceCode":null,"stopTime":"2019-07-24 14:00:00","powerType":"全部","powerOffArea":"【全线路停电】停大曲堤综合10台区变压器,蠡县鼎源麻山药农民专业合作,大曲堤综合25台区变压器,北绪口综合2台区,北绪口农排3台区【纯农排变】,西庞综合3台区变压器,大曲堤综合18台区变压器,西庞综合4台区变压器,0604192268-蠡县曲堤德旺包装制品厂-专变-127052052-蠡县曲堤德旺包装制品厂,0469434196-粮站面粉厂-专变-46810394-粮站面粉厂,0469432510-中国联合网络通信有限公司蠡县分公司-专变-46810254-网通公司,陈营综合1台区变压器,大曲堤综合23台区变压器,大曲堤农排12台区【纯农排变】,0629312658-蠡县端阳麻山药农民专业合作社-专变-141630370-蠡县端阳麻山药农民合作社变压器,大曲堤综合19台区变压器,大曲堤综合9台区变压器,大曲堤综合15台区变压器,陈营综合3台区变压器,西庞农排6台区【纯农排变】,蠡县大曲堤乡中学,北绪口农排4台区【纯农排变】,陈营综合2台区变压器,大曲堤农排9台区【纯农排变】,蠡县凤举麻山药农民专业合作社,北绪口综合8台区,西庞综合10台区变压器,大曲堤综合12台区变压器,大曲堤综合8台区变压器,西庞综合6台区变压器,西庞农排4台区【纯农排变】,大曲堤综合3台区,大曲堤综合13台区变压器,大曲堤综合1台区,西庞综合8台区变压器,东庞综合3台区变压器,0628582416-蠡县立纯麻山药农民专业合作社-专变-140233673-蠡县曲堤建辉麻山药经销站变压器,西庞农排2台区【纯农排变】,西庞农排5台区【纯农排变】,北绪口综合3台区,西庞综合7台区变压器,大曲堤农排10台区【纯农排变】,大曲堤农排8台区【纯农排变】,西庞综合1台区变压器,大曲堤综合7台区变压器,西庞综合5台区变压器,大曲堤综合24台区变压器,东庞农排1台区【纯农排变】,北绪口综合1台区,东庞农排2台区【纯农排变】,大曲堤综合21台区变压器,大曲堤综合16台区变压器,大曲堤农排7台区【纯农排变】,西庞农排8台区【纯农排变】,大曲堤综合20台区变压器,大曲堤综合2台区,大曲堤综合22台区变压器,0619986492-蠡县鑫鑫麻山药农民专业合作社-专变-223625090-蠡县鑫鑫麻山药农民专业合作社变压器,北绪口农排2台区【纯农排变】,大曲堤综合6台区变压器,北绪口综合5台区,陈营综合4台区变压器,0565990945-中国移动通信集团河北有限公司蠡县分公司-专变-118727920-中国移动通信集团河北有限公司蠡县分公司北绪口村变压器,东庞综合2台区变压器,0469434183-曲堤乡政府-专变-46810209-纳地,大曲堤综合5台区,大曲堤农排14台区【纯农排变】,西庞综合2台区变压器,0625934386-蠡县曲堤顺杰麻山药经销站-专变-138660027-蠡县曲堤顺杰麻山药经销站,北绪口综合6台区,西庞农排7台区【纯农排变】,大曲堤综合11台区变压器,北绪口综合7台区,大曲堤综合26台区变压器,大曲堤综合17台区变压器,北绪口综合4台区,0626348757-蠡县利农麻山药农民专业合作社-专变-139242228-蠡县利农麻山药农民专业合作社变压器,大曲堤综合27台区变压器,大曲堤综合4台区,大曲堤综合29台区变压器,大曲堤综合28台区变压器,东庞综合1台区变压器,大曲堤农排3台区【纯农排变】,0618936991-蠡县卓亚纺织有限公司-专变-128914691-蠡县雅琪纺织厂变压器,西庞农排1台区【纯农排变】,大曲堤综合14台区变压器","powerOffReason":"【停电原因】由于线路接地导致３５ＫＶ握纽庄变电站１０ＫＶ曲堤５１７线路全线停电【变更送电】因抢修进度加快原因，送电时间由１５：００变更为１４：００【发布渠道】通过９５５９８发布","powerOffId":"2019072413000128"},{"poweroffId":2019072413000087,"sgpoweroffId":null,"subsName":"","lineName":"10kV王庄线544","pubTranName":"清苑县张登镇北邓村砖厂1,1西王庄内8,1西王庄内6,清凉城小学1,2河北王庄外4【纯农排变】,清苑县西王庄友谊砖厂2,2北邓村外2【纯农排变】,全昆村北北,清凉城外14【纯农排变】,2北邓村外3【纯农排变】,客户投资_1清凉城内2,北邓村内6号,1清凉城内13,1河北王庄内4,2西王庄外4【纯农排变】,清苑县西王庄工艺香厂,西王庄小学,清苑县西王庄友谊砖厂1,1西王庄内9,1清凉城内8,2西王庄外1【纯农排变】,西王庄内3,保定鼎力砼业有限公司,河北王庄内1,西王庄内2,河北王庄内2,2清凉城外13【纯农排变】,0387481179-清苑县利民经编厂-专变-45309618-河北省清苑县利民经编厂,清苑县东兴纺织品有限公司,2西王庄外6【纯农排变】,0387481515-全昆村北-专变-230656047-全昆村北,2河北王庄外5【纯农排变】,1清凉城内1,0670192281-清苑县悦达铸造有限公司-专变-212091534-清苑县悦达铸造有限公司,1西王庄内12,清苑县侨蒂精品铸造有限责任公司,1清凉城内6,清凉城外4【纯农排变】,清凉城新外4,保定市清苑区立战粮食收购站,全昆小学1,保定市清苑区海根粮食收购站,2清城新外7【纯农排变】,清城外12【纯农排变】,1全昆内9,1河北李庄内3,2西王庄外7【纯农排变】,2清凉城外7【纯农排变】,0387481209-清城王友田果脯厂-专变-45309441-清城王友田果脯厂,1全昆内10,2西王庄外5【纯农排变】,2西王庄外9【纯农排变】,清凉城小学2,清苑县清凉城铁活加工厂,保定华北电力铝线厂,1河北王庄内5,1西王庄内11,清凉城外8【纯农排变】,1西王庄内4,全昆内1,全昆雪岭冷食部,全昆小学2,清凉城外9【纯农排变】,1清凉城内9,2河北王庄外8【纯农排变】,河北王庄外3【纯农排变】,全昆内5,2河北王庄外9【纯农排变】,2河北李庄外1【纯农排变】,北邓村水厂,2清凉城外15【纯农排变】,2河北李庄外2【纯农排变】,清苑县屹立起重机械厂,1西王庄内7,1河北李庄内4,1河北王庄内6,1全昆内8,2清凉城外16【纯农排变】,1清凉城内12,1清凉城内11,1西王庄内1,2河北李庄外3【纯农排变】,2清凉城外5【纯农排变】,2清凉城外11【纯农排变】,2西王庄外3【纯农排变】,2西王庄外10【纯农排变】,1西王庄内10,1西王庄内5,2西王庄外8【纯农排变】,1清凉城内7,1河北李庄内1,2清凉城外19【纯农排变】,清凉城内4,2清凉城外6【纯农排变】,0670183674-清苑县悦达铸造有限公司-专变-212086884-清苑县悦达铸造有限公司,2北邓村外1【纯农排变】,2北邓村外16【纯农排变】,0646571432-北邓村水厂-专变-169936024-北邓村水厂,清苑县开元养殖场,1河北李庄内2,2西王庄外2【纯农排变】,2清城内3,1河北李庄内5,2清凉城外10【纯农排变】,2北邓村外15【纯农排变】,客户投资_1清凉城内5,1清凉城内10,1河北王庄内3,","scope":"【影响街道/乡镇】张登乡 【高危重要客户】无 【影响客户】西王庄、河北王庄、河北李庄、清凉城","startTime":"2019-08-02 06:30:00","stopDate":"2019-08-02 07:30:00","orgNo":"1340618","typeCode":"计划停电","poweroffArea":"【分支停电】停清凉城外14【纯农排变】,清苑县张登镇北邓村砖厂1,1西王庄内8,1西王庄内6,清凉城小学1,2河北王庄外4【纯农排变】,清苑县西王庄友谊砖厂2,2北邓村外2【纯农排变】,全昆村北北,清苑县西王庄友谊砖厂1,2北邓村外3【纯农排变】,客户投资_1清凉城内2,北邓村内6号,1清凉城内13,1河北王庄内4,2西王庄外4【纯农排变】,清苑县西王庄工艺香厂,西王庄小学,全昆内1,1西王庄内9,1清凉城内8,2西王庄外1【纯农排变】,西王庄内3,保定鼎力砼业有限公司,河北王庄内1,西王庄内2,河北王庄内2,2清凉城外13【纯农排变】,0387481179-清苑县利民经编厂-专变-45309618-河北省清苑县利民经编厂,清苑县东兴纺织品有限公司,2西王庄外6【纯农排变】,0387481515-全昆村北-专变-230656047-全昆村北,2河北王庄外5【纯农排变】,1清凉城内1,0670192281-清苑县悦达铸造有限公司-专变-212091534-清苑县悦达铸造有限公司,1西王庄内12,清苑县侨蒂精品铸造有限责任公司,1清凉城内6,清凉城外4【纯农排变】,清凉城新外4,保定市清苑区立战粮食收购站,全昆小学1,保定市清苑区海根粮食收购站,2清城新外7【纯农排变】,清城外12【纯农排变】,1全昆内9,1河北李庄内3,2西王庄外7【纯农排变】,2清凉城外7【纯农排变】,0387481209-清城王友田果脯厂-专变-45309441-清城王友田果脯厂,1全昆内10,2西王庄外5【纯农排变】,2西王庄外9【纯农排变】,清凉城小学2,清苑县清凉城铁活加工厂,保定华北电力铝线厂,1河北王庄内5,1西王庄内11,清凉城外8【纯农排变】,1西王庄内4,2清凉城外10【纯农排变】,2北邓村外15【纯农排变】,全昆雪岭冷食部,全昆小学2,清凉城外9【纯农排变】,1清凉城内9,2清凉城外19【纯农排变】,清凉城内4,2清凉城外6【纯农排变】,0670183674-清苑县悦达铸造有限公司-专变-212086884-清苑县悦达铸造有限公司,2北邓村外1【纯农排变】,2北邓村外16【纯农排变】,0646571432-北邓村水厂-专变-169936024-北邓村水厂,2河北王庄外8【纯农排变】,河北王庄外3【纯农排变】,全昆内5,2河北王庄外9【纯农排变】,2河北李庄外1【纯农排变】,北邓村水厂,2清凉城外15【纯农排变】,2河北李庄外2【纯农排变】,清苑县屹立起重机械厂,1西王庄内7,1河北李庄内4,1河北王庄内6,1全昆内8,2清凉城外16【纯农排变】,1清凉城内12,1清凉城内11,1西王庄内1,2河北李庄外3【纯农排变】,2清凉城外5【纯农排变】,2清凉城外11【纯农排变】,2西王庄外3【纯农排变】,2西王庄外10【纯农排变】,1西王庄内10,1西王庄内5,2西王庄外8【纯农排变】,1清凉城内7,1河北李庄内1,清苑县开元养殖场,1河北李庄内2,2西王庄外2【纯农排变】,2清城内3,1河北李庄内5,客户投资_1清凉城内5,1清凉城内10,1河北王庄内3","poweroffReason":"【停电原因】由于电杆移位导致２２０ＫＶ邓村变电站１０ＫＶ王庄线５４４线路主干６６号杆分支１号杆至５５号杆停电 【变更送电】因工作进度加快，送电时间由１８：００变更为０７：３０ 【发布渠道】清苑电视台（０７月２５日１９时至０８月０１日２０时之间）屏幕上滚动","powerTime":"2019-08-02 07:17:38","powerComm":"王朝晖通知已送电","subsNo":"","lineNo":"","tgNo":"","tgName":null,"infoStatus":"1","orgName":"国网清苑县供电公司","typeName":null,"infoStatusName":null,"dateDay":null,"orgNos":null,"nowTime":null,"countyName":null,"streetName":null,"villageName":null,"roadName":null,"communityName":null,"tranName":null,"sdLineName":null,"cityCode":"1340618","cityName":"国网清苑县供电公司","provinceCode":null,"stopTime":"2019-08-02 07:30:00","powerType":"全部","powerOffArea":"【分支停电】停清凉城外14【纯农排变】,清苑县张登镇北邓村砖厂1,1西王庄内8,1西王庄内6,清凉城小学1,2河北王庄外4【纯农排变】,清苑县西王庄友谊砖厂2,2北邓村外2【纯农排变】,全昆村北北,清苑县西王庄友谊砖厂1,2北邓村外3【纯农排变】,客户投资_1清凉城内2,北邓村内6号,1清凉城内13,1河北王庄内4,2西王庄外4【纯农排变】,清苑县西王庄工艺香厂,西王庄小学,全昆内1,1西王庄内9,1清凉城内8,2西王庄外1【纯农排变】,西王庄内3,保定鼎力砼业有限公司,河北王庄内1,西王庄内2,河北王庄内2,2清凉城外13【纯农排变】,0387481179-清苑县利民经编厂-专变-45309618-河北省清苑县利民经编厂,清苑县东兴纺织品有限公司,2西王庄外6【纯农排变】,0387481515-全昆村北-专变-230656047-全昆村北,2河北王庄外5【纯农排变】,1清凉城内1,0670192281-清苑县悦达铸造有限公司-专变-212091534-清苑县悦达铸造有限公司,1西王庄内12,清苑县侨蒂精品铸造有限责任公司,1清凉城内6,清凉城外4【纯农排变】,清凉城新外4,保定市清苑区立战粮食收购站,全昆小学1,保定市清苑区海根粮食收购站,2清城新外7【纯农排变】,清城外12【纯农排变】,1全昆内9,1河北李庄内3,2西王庄外7【纯农排变】,2清凉城外7【纯农排变】,0387481209-清城王友田果脯厂-专变-45309441-清城王友田果脯厂,1全昆内10,2西王庄外5【纯农排变】,2西王庄外9【纯农排变】,清凉城小学2,清苑县清凉城铁活加工厂,保定华北电力铝线厂,1河北王庄内5,1西王庄内11,清凉城外8【纯农排变】,1西王庄内4,2清凉城外10【纯农排变】,2北邓村外15【纯农排变】,全昆雪岭冷食部,全昆小学2,清凉城外9【纯农排变】,1清凉城内9,2清凉城外19【纯农排变】,清凉城内4,2清凉城外6【纯农排变】,0670183674-清苑县悦达铸造有限公司-专变-212086884-清苑县悦达铸造有限公司,2北邓村外1【纯农排变】,2北邓村外16【纯农排变】,0646571432-北邓村水厂-专变-169936024-北邓村水厂,2河北王庄外8【纯农排变】,河北王庄外3【纯农排变】,全昆内5,2河北王庄外9【纯农排变】,2河北李庄外1【纯农排变】,北邓村水厂,2清凉城外15【纯农排变】,2河北李庄外2【纯农排变】,清苑县屹立起重机械厂,1西王庄内7,1河北李庄内4,1河北王庄内6,1全昆内8,2清凉城外16【纯农排变】,1清凉城内12,1清凉城内11,1西王庄内1,2河北李庄外3【纯农排变】,2清凉城外5【纯农排变】,2清凉城外11【纯农排变】,2西王庄外3【纯农排变】,2西王庄外10【纯农排变】,1西王庄内10,1西王庄内5,2西王庄外8【纯农排变】,1清凉城内7,1河北李庄内1,清苑县开元养殖场,1河北李庄内2,2西王庄外2【纯农排变】,2清城内3,1河北李庄内5,客户投资_1清凉城内5,1清凉城内10,1河北王庄内3","powerOffReason":"【停电原因】由于电杆移位导致２２０ＫＶ邓村变电站１０ＫＶ王庄线５４４线路主干６６号杆分支１号杆至５５号杆停电 【变更送电】因工作进度加快，送电时间由１８：００变更为０７：３０ 【发布渠道】清苑电视台（０７月２５日１９时至０８月０１日２０时之间）屏幕上滚动","powerOffId":"2019072413000087"},{"poweroffId":2019072413000074,"sgpoweroffId":null,"subsName":"","lineName":"10kV516台鱼线","pubTranName":"台鱼北综合100【纯农排变】,0469471856-中国铁塔股份有限公司保定市分公司-专变-46816843-中国移动,宅子大坑农业3号3788【纯农排变】,东峪2630|24002630,南台鱼2510|24002510,西柏山1750|24001750,西柏山土地整理新增农业1号（TD）2476【纯农排变】,东峪村内农业2131【纯农排变】,中国移动,张发启1590#农排|24001590【纯农排变】,宅子市场综合8337,宅子村内1370|24001370,宅子村内1390#农排|24001390【纯农排变】,宅子南1号,宅子村2010农排|24002010【纯农排变】,台鱼界河北农业2630【纯农排变】,东白司城1130#农排|24001130【纯农排变】,东白司城1150#农排|24001150【纯农排变】,宅子大坑农业2号4048【纯农排变】,宅子桥东1620|24001620,台鱼大队井9461【纯农排变】,东峪7号农业6030【纯农排变】,宅子村北1780#农排|24001780【纯农排变】,东峪2340|24002340,东欲农业12号100【纯农排变】,宅子村西综合8336,台鱼西综合7838,东峪6号农业6024【纯农排变】,宅子刘宝新1420农排|24001420【纯农排变】,东欲农业11号100【纯农排变】,龙堂西综合8345,台鱼宋志勇【纯农排变】,东柏山土地整理新增农业1号（TD）2473【纯农排变】,宅子金台1580#农排|24001580【纯农排变】,西柏山1710#农排|24001710【纯农排变】,宅子张国忠1430#农排|24001430【纯农排变】,安阳【纯农排变】,宅子南农1400#农排|24001400【纯农排变】,东峪界河1560#农排|24001560【纯农排变】,侯六尔1670#农排|24001670【纯农排变】,南台鱼1960#农排|24001960【纯农排变】,宅子红领综合7834,宅子村1980#农排|24001980【纯农排变】,宅子苑红普农业2625【纯农排变】,龙堂北综合,宅子南综合2800,宅子村1990#农排|24001990【纯农排变】,东峪1440|24001440,宅子村南1380#农排|24001380【纯农排变】,苑锁柱1640#农排|24001640【纯农排变】,东峪苑红海1690#农排|24001690【纯农排变】,宅子村北综合8332,宅子河套农业4050【纯农排变】,龙堂南农业8347【纯农排变】,东峪8号农业100【纯农排变】,台鱼农业7840【纯农排变】,东峪南综合,龙堂1520|24001520,东峪9号农业100【纯农排变】,宅子大坑农业1号3787【纯农排变】,东峪10号农业100【纯农排变】,东峪1460#农排|24001460【纯农排变】,东峪5号农业6020【纯农排变】,南台鱼西1350|24001350,南台鱼东1570|24001570,宅子2000#农排|24002000【纯农排变】,台鱼村东农业8338【纯农排变】,","scope":"【影响街道/乡镇】台鱼乡【高危重要客户】无【影响客户】南台鱼、宅子、东峪、龙堂、西柏山","startTime":"2019-07-23 19:20:20","stopDate":"2019-07-24 12:00:00","orgNo":"1340621","typeCode":"电网故障停限电","poweroffArea":"【全线路停电】停宅子南1号,东欲农业11号100【纯农排变】,宅子大坑农业3号3788【纯农排变】,东峪2630|24002630,南台鱼东1570|24001570,台鱼宋志勇【纯农排变】,龙堂北综合,东峪1440|24001440,宅子村内1390#农排|24001390【纯农排变】,东峪苑红海1690#农排|24001690【纯农排变】,龙堂1520|24001520,宅子张国忠1430#农排|24001430【纯农排变】,宅子村1990#农排|24001990【纯农排变】,龙堂南农业8347【纯农排变】","poweroffReason":"【停电原因】由于树枝搭线导致３５ＫＶ安阳变电站１０ＫＶ５１６台鱼线路全线停电【变更送电】无【发布渠道】通过９５５９８发布","powerTime":"2019-07-24 11:03:11","powerComm":"已送电","subsNo":"","lineNo":"","tgNo":"","tgName":null,"infoStatus":"1","orgName":"国网顺平县电力局","typeName":null,"infoStatusName":null,"dateDay":null,"orgNos":null,"nowTime":null,"countyName":null,"streetName":null,"villageName":null,"roadName":null,"communityName":null,"tranName":null,"sdLineName":null,"cityCode":"1340621","cityName":"国网顺平县电力局","provinceCode":null,"stopTime":"2019-07-24 12:00:00","powerType":"全部","powerOffArea":"【全线路停电】停宅子南1号,东欲农业11号100【纯农排变】,宅子大坑农业3号3788【纯农排变】,东峪2630|24002630,南台鱼东1570|24001570,台鱼宋志勇【纯农排变】,龙堂北综合,东峪1440|24001440,宅子村内1390#农排|24001390【纯农排变】,东峪苑红海1690#农排|24001690【纯农排变】,龙堂1520|24001520,宅子张国忠1430#农排|24001430【纯农排变】,宅子村1990#农排|24001990【纯农排变】,龙堂南农业8347【纯农排变】","powerOffReason":"【停电原因】由于树枝搭线导致３５ＫＶ安阳变电站１０ＫＶ５１６台鱼线路全线停电【变更送电】无【发布渠道】通过９５５９８发布","powerOffId":"2019072413000074"},{"poweroffId":2019072413000059,"sgpoweroffId":null,"subsName":"","lineName":"10kV516台鱼线","pubTranName":"西柏山1750|24001750,","scope":"【影响街道/乡镇】台鱼乡【高危重要客户】无【影响客户】西柏山","startTime":"2019-07-23 22:00:09","stopDate":"2019-07-24 09:30:00","orgNo":"1340621","typeCode":"电网故障停限电","poweroffArea":"【单台区停电】停西柏山1750|24001750","poweroffReason":"【停电原因】由于树枝搭线导致３５ＫＶ安阳变电站１０ＫＶ５１６台鱼线路西柏山１７５０公变台区停电【变更送电】因抢修进度加快原因，送电时间由１０：００变更为０９：３０【发布渠道】通过９５５９８发布","powerTime":"2019-07-24 09:06:43","powerComm":"已送电","subsNo":"","lineNo":"","tgNo":"","tgName":null,"infoStatus":"1","orgName":"国网顺平县电力局","typeName":null,"infoStatusName":null,"dateDay":null,"orgNos":null,"nowTime":null,"countyName":null,"streetName":null,"villageName":null,"roadName":null,"communityName":null,"tranName":null,"sdLineName":null,"cityCode":"1340621","cityName":"国网顺平县电力局","provinceCode":null,"stopTime":"2019-07-24 09:30:00","powerType":"全部","powerOffArea":"【单台区停电】停西柏山1750|24001750","powerOffReason":"【停电原因】由于树枝搭线导致３５ＫＶ安阳变电站１０ＫＶ５１６台鱼线路西柏山１７５０公变台区停电【变更送电】因抢修进度加快原因，送电时间由１０：００变更为０９：３０【发布渠道】通过９５５９８发布","powerOffId":"2019072413000059"},{"poweroffId":2019072413000058,"sgpoweroffId":null,"subsName":"","lineName":"10kV孔家佐583线路","pubTranName":"岳烟7154变压器,长古城0627变压器【纯农排变】,小庄2013变压器,西南京0591变压器,10kV岳烟线东南京6548变压器,东南京0619变压器,长古城0341变压器,东南京村西6002变压器【纯农排变】,长古城中学变压器1【煤改电】,西南京0329变压器,西南京2161变压器,长古城4547变压器,东南京1455变压器,西南京2160变压器【纯农排变】,东南京0353变压器,长古城0344变压器,长古城0626水变压器【纯农排变】,长古城2170变压器【纯农排变】,西南京1457变压器,西南京2656变压器,长古城村村委会2新装10KV配变,长古城2110变压器,岳烟0623变压器【纯农排变】,长古城0340变压器,东南京3235变压器,东南京2184变压器,西南京0320变压器,长古城0338变压器【纯农排变】,大庄子0616变压器,长古城2012变压器【纯农排变】,长古城新民居4087变压器,岳烟0662变压器,东南京西南6003变压器,长古城村村委会5新装10KV配变,","scope":"【影响街道/乡镇】长古城乡【高危重要客户】无【影响客户】长古城村、岳烟村、东南京村、西南京村、小庄儿","startTime":"2019-08-03 05:30:00","stopDate":"2019-08-03 18:00:00","orgNo":"1340622","typeCode":"计划停电","poweroffArea":"【分支停电】停岳烟7154变压器,长古城0627变压器【纯农排变】,小庄2013变压器,西南京0591变压器,10kV岳烟线东南京6548变压器,东南京0619变压器,长古城0341变压器,东南京村西6002变压器【纯农排变】,长古城中学变压器1【煤改电】,西南京0329变压器,西南京2161变压器,长古城4547变压器,东南京1455变压器,西南京2160变压器【纯农排变】,东南京0353变压器,长古城0344变压器,长古城0626水变压器【纯农排变】,长古城2170变压器【纯农排变】,西南京1457变压器,西南京2656变压器,长古城村村委会2新装10KV配变,长古城2110变压器,岳烟0623变压器【纯农排变】,长古城0340变压器,东南京3235变压器,东南京2184变压器,西南京0320变压器,长古城0338变压器【纯农排变】,大庄子0616变压器,长古城2012变压器【纯农排变】,长古城新民居4087变压器,岳烟0662变压器,东南京西南6003变压器,长古城村村委会5新装10KV配变","poweroffReason":"【停电原因】由于更换变压器导致１１０ＫＶ城南变电站孔家佐５８３线路岳烟分支００２号杆断路器以下线路停电【变更送电】无【发布渠道】保定市唐县电视台（０７月２４日至０８月０２日的２０：００时至２０：３０时之间）屏幕上方滚动字幕","powerTime":"2019-08-03 17:24:36","powerComm":"已送电","subsNo":"","lineNo":"","tgNo":"","tgName":null,"infoStatus":"1","orgName":"国网唐县供电公司","typeName":null,"infoStatusName":null,"dateDay":null,"orgNos":null,"nowTime":null,"countyName":null,"streetName":null,"villageName":null,"roadName":null,"communityName":null,"tranName":null,"sdLineName":null,"cityCode":"1340622","cityName":"国网唐县供电公司","provinceCode":null,"stopTime":"2019-08-03 18:00:00","powerType":"全部","powerOffArea":"【分支停电】停岳烟7154变压器,长古城0627变压器【纯农排变】,小庄2013变压器,西南京0591变压器,10kV岳烟线东南京6548变压器,东南京0619变压器,长古城0341变压器,东南京村西6002变压器【纯农排变】,长古城中学变压器1【煤改电】,西南京0329变压器,西南京2161变压器,长古城4547变压器,东南京1455变压器,西南京2160变压器【纯农排变】,东南京0353变压器,长古城0344变压器,长古城0626水变压器【纯农排变】,长古城2170变压器【纯农排变】,西南京1457变压器,西南京2656变压器,长古城村村委会2新装10KV配变,长古城2110变压器,岳烟0623变压器【纯农排变】,长古城0340变压器,东南京3235变压器,东南京2184变压器,西南京0320变压器,长古城0338变压器【纯农排变】,大庄子0616变压器,长古城2012变压器【纯农排变】,长古城新民居4087变压器,岳烟0662变压器,东南京西南6003变压器,长古城村村委会5新装10KV配变","powerOffReason":"【停电原因】由于更换变压器导致１１０ＫＶ城南变电站孔家佐５８３线路岳烟分支００２号杆断路器以下线路停电【变更送电】无【发布渠道】保定市唐县电视台（０７月２４日至０８月０２日的２０：００时至２０：３０时之间）屏幕上方滚动字幕","powerOffId":"2019072413000058"},{"poweroffId":2019072413000047,"sgpoweroffId":null,"subsName":"","lineName":"尹固线519","pubTranName":"尹固南新增统管,","scope":"【影响街道/乡镇】南韩村镇 【高危重要客户】无 【影响客户】尹固村","startTime":"2019-07-24 08:08:35","stopDate":"2019-07-24 12:00:00","orgNo":"1340617","typeCode":"电网故障停限电","poweroffArea":"【单台区停电】停尹固南新增统管","poweroffReason":"【停电原因】由于低压断线导致１１０ＫＶ西原变电站尹固线５１９线路尹固南新增统管公变台区停电 【变更送电】无 【发布渠道】通过９５５９８发布","powerTime":"2019-07-24 11:31:32","powerComm":"已送电","subsNo":"","lineNo":"","tgNo":"","tgName":null,"infoStatus":"1","orgName":"国网满城县供电公司","typeName":null,"infoStatusName":null,"dateDay":null,"orgNos":null,"nowTime":null,"countyName":null,"streetName":null,"villageName":null,"roadName":null,"communityName":null,"tranName":null,"sdLineName":null,"cityCode":"1340617","cityName":"国网满城县供电公司","provinceCode":null,"stopTime":"2019-07-24 12:00:00","powerType":"全部","powerOffArea":"【单台区停电】停尹固南新增统管","powerOffReason":"【停电原因】由于低压断线导致１１０ＫＶ西原变电站尹固线５１９线路尹固南新增统管公变台区停电 【变更送电】无 【发布渠道】通过９５５９８发布","powerOffId":"2019072413000047"},{"poweroffId":2019072413000042,"sgpoweroffId":null,"subsName":"","lineName":"北淇村536","pubTranName":"综|18002,农|18041【纯农排变】,远台村7#|村北2,刘家庄村2#|村南,南河北村4#村东（综）,综|18031,林泉村4#,东步乐村1#|村中,综|18044,港里村5#|村西,港里村1#|村中,农|18047【纯农排变】,港里村8#村南（综）,林泉村6#|村东2,综,东步乐村2#|村北,刘家庄村3#|村北,东步乐村6#村中（综）,农|18022【纯农排变】,港里村3#|村东二,东步乐村7#村南（农）【纯农排变】,南河北村2#|村南,综|18036,综|18001,综|18030,农|18086【纯农排变】,林泉村8#村南（综）,南淇村1#|村中,南河北村3#|村中,农|18087【纯农排变】,港里村7#村北（综）,林泉村东变压器,港里村2#|村东,农|18023【纯农排变】,综,胡庄村1#|村中,林泉村1#|村中,农|18042【纯农排变】,东步乐村3#|村东北2号,综|18035,农|18040【纯农排变】,东渭庄村2#|村东,南河北村1#|村北,东步乐村4#村东（综）,林泉村北井变压器【纯农排变】,综|18037,综|18043,远台村8#|大峪北,农|18045【纯农排变】,综|18082,综|18026,北河北村2#|村西,北河北村1#|村中,刘家庄村1#|村中,远台村3#|大峪,林泉村5#|村东1,综|18021,东渭庄村3#村南（综,北河北村西变压器,林泉村9#村西（综）,东渭庄村东变压器,林泉村7#|村西2,刘家庄村5#村东（农）【纯农排变】,林泉村3#|村西1,农|18034【纯农排变】,港里村6#|村北,远台村9#|大峪东,北河北村3#|村东,综|18029,农|18038【纯农排变】,林泉村2#|村南,农|18088【纯农排变】,农|18033【纯农排变】,综|18048,东渭庄村1#|村中,港里村4#|村西,刘家庄4#村东（综）【纯农排变】,综,农|18046【纯农排变】,","scope":"【影响街道/乡镇】塘湖镇、西山北乡【高危重要客户】无【影响客户】北河北村、东渭庄村、西渭庄村、北淇村、南淇村、刘家庄村、西山北村、塔峪村、沙江村、港里村、远台村、西步乐村、林泉村、南河北村、胡庄村、山西村、东步乐村","startTime":"2019-07-24 06:50:36","stopDate":"2019-07-24 09:30:00","orgNo":"1340625","typeCode":"电网故障停限电","poweroffArea":"【全线路停电】停北河北村1#|村中,综|18001,北河北村西变压器,远台村3#|大峪,综|18082,远台村9#|大峪东,农|18088【纯农排变】,东步乐村3#|村东北2号,农|18023【纯农排变】,港里村5#|村西,胡庄村1#|村中,综|18035,林泉村7#|村西2,林泉村1#|村中,综|18036,远台村7#|村北2,林泉村9#村西（综）,南河北村4#村东（综）,南淇村1#|村中,南淇村2#|村西沙江村1#|村中,综|18051,沙江村2#村东（综）,沙江村3#|村西,农|18053,山西村2#村南（农）【纯农排变】,山西村3#|村西,塔峪村2#|村北西山北村8#|村南2,塔峪村1#|村中,西渭庄村3#|村南,农|18078【纯农排变】,远台村1#|村南","poweroffReason":"【停电原因】由于线路接地导致３５ＫＶ步乐变电站北淇村５３６线路全线停电【变更送电】因抢修进度加快原因，送电时间由１２:００变更为０９:３０【发布渠道】通过９５５９８发布","powerTime":"2019-07-24 09:09:42","powerComm":"已送电","subsNo":"","lineNo":"","tgNo":"","tgName":null,"infoStatus":"1","orgName":"国网易县供电公司","typeName":null,"infoStatusName":null,"dateDay":null,"orgNos":null,"nowTime":null,"countyName":null,"streetName":null,"villageName":null,"roadName":null,"communityName":null,"tranName":null,"sdLineName":null,"cityCode":"1340625","cityName":"国网易县供电公司","provinceCode":null,"stopTime":"2019-07-24 09:30:00","powerType":"全部","powerOffArea":"【全线路停电】停北河北村1#|村中,综|18001,北河北村西变压器,远台村3#|大峪,综|18082,远台村9#|大峪东,农|18088【纯农排变】,东步乐村3#|村东北2号,农|18023【纯农排变】,港里村5#|村西,胡庄村1#|村中,综|18035,林泉村7#|村西2,林泉村1#|村中,综|18036,远台村7#|村北2,林泉村9#村西（综）,南河北村4#村东（综）,南淇村1#|村中,南淇村2#|村西沙江村1#|村中,综|18051,沙江村2#村东（综）,沙江村3#|村西,农|18053,山西村2#村南（农）【纯农排变】,山西村3#|村西,塔峪村2#|村北西山北村8#|村南2,塔峪村1#|村中,西渭庄村3#|村南,农|18078【纯农排变】,远台村1#|村南","powerOffReason":"【停电原因】由于线路接地导致３５ＫＶ步乐变电站北淇村５３６线路全线停电【变更送电】因抢修进度加快原因，送电时间由１２:００变更为０９:３０【发布渠道】通过９５５９８发布","powerOffId":"2019072413000042"},{"poweroffId":2019072413000037,"sgpoweroffId":null,"subsName":"","lineName":"10kV东北郊站530线路","pubTranName":"C223柱上变压器,","scope":"【影响街道/乡镇】东金庄乡 【高危重要客户】无 【影响客户】梁庄","startTime":"2019-07-24 06:30:00","stopDate":"2019-07-24 08:30:00","orgNo":"13406","typeCode":"电网故障停限电","poweroffArea":"【单台区停电】停C223柱上变压器","poweroffReason":"【停电原因】由于低压保险片烧导致１０ＫＶ东北郊变电站５３０线路Ｃ２２３公变台区停电【变更送电】无【发布渠道】通过９５５９８发布","powerTime":"2019-07-24 07:44:51","powerComm":"已送电","subsNo":"","lineNo":"","tgNo":"","tgName":null,"infoStatus":"1","orgName":"保定供电公司","typeName":null,"infoStatusName":null,"dateDay":null,"orgNos":null,"nowTime":null,"countyName":null,"streetName":null,"villageName":null,"roadName":null,"communityName":null,"tranName":null,"sdLineName":null,"cityCode":"13406","cityName":"保定供电公司","provinceCode":null,"stopTime":"2019-07-24 08:30:00","powerType":"全部","powerOffArea":"【单台区停电】停C223柱上变压器","powerOffReason":"【停电原因】由于低压保险片烧导致１０ＫＶ东北郊变电站５３０线路Ｃ２２３公变台区停电【变更送电】无【发布渠道】通过９５５９８发布","powerOffId":"2019072413000037"}],"pageModel":{"pageNow":788,"totalCount":10973,"totalPage":1098,"tableRows":0,"pageCount":10,"beginCount":7870},"isExperi":"1"}