{"message":"","today":"2020-06-15","seleList":[{"poweroffId":2019072213000278,"sgpoweroffId":null,"subsName":"","lineName":"10kV551董家庄线","pubTranName":"北下叔120#农排|20000120【纯农排变】,东下叔10370农排|20010370【纯农排变】,东下叔村西新增综合5388,东下叔10360农排|20010360【纯农排变】,东下叔村北9310|20009310,董家庄430,董家庄1号农排【纯农排变】,长江砖厂,东下叔10290农排|20010290【纯农排变】,北下叔新增农业1号5877【纯农排变】,东下叔村东综合8437,东下叔50#农排|20000050【纯农排变】,东下叔新增农业3875【纯农排变】,东下叔中0600|20000600,小宝鸡厂8630#农排|20008630【纯农排变】,东下叔东20|20000020,东下叔70#农排|20000070【纯农排变】,北下叔西北140|20000140,董家庄9970|20009970,东下叔60#农排|20000060【纯农排变】,董家庄新增综合0118,董家庄新增农业2号【纯农排变】,北下叔村北1号农业台区7482【纯农排变】,东下叔新增1号综合83598359,东下叔学校8930|20008930,东下叔南30|20000030,北下叔新综合3号,东下叔40#农排|20000040【纯农排变】,东下叔南1号（农排）【纯农排变】,北下叔0130|20000130,北下叔农厂610#农排|20000610【纯农排变】,北下叔新1号,北下叔160#农排|20000160【纯农排变】,东下叔3660#农排|20003660【纯农排变】,董家庄450#农排|20000450【纯农排变】,东下叔90#农排|20000090【纯农排变】,东下叔10280农排|20010280【纯农排变】,东下叔南2号（农排）【纯农排变】,董家庄新增1号8356,东下叔村南综合7919,东下叔新增综合0117,吴家庄综合7614,东下叔新增1号综合2797,董家庄460#农排|20000460【纯农排变】,北下叔8590#农排|20008590【纯农排变】,董家庄0430|20000430,董家庄新增农业1号【纯农排变】,北下叔170#农排|20000170【纯农排变】,北下叔村内8444,东下叔100#农排|20000100【纯农排变】,东下叔80#农排|20000080【纯农排变】,董家庄2号农排【纯农排变】,董家庄440#农排|20000440【纯农排变】,东下叔南9330|20009330,北下叔新增农业2号5880【纯农排变】,","scope":"【影响街道/乡镇】蒲阳镇【高危重要客户】无【影响客户】东下叔、北下叔、董家庄、东下叔学校、吴家庄、小宝鸡场","startTime":"2019-07-22 14:33:47","stopDate":"2019-07-22 17:30:00","orgNo":"1340621","typeCode":"电网故障停限电","poweroffArea":"【全线路停电】停东下叔村南综合7919,东下叔3660#农排|20003660【纯农排变】,北下叔农厂610#农排|20000610【纯农排变】,东下叔新增农业3875【纯农排变】,东下叔新增1号综合2797,北下叔新增农业1号5877【纯农排变】,东下叔东20|20000020,北下叔8590#农排|20008590【纯农排变】,东下叔10370农排|20010370【纯农排变】,东下叔60#农排|20000060【纯农排变】,董家庄0430|20000430,北下叔120#农排|20000120【纯农排变】,北下叔村内8444,东下叔70#农排|20000070【纯农排变】,北下叔西北140|20000140","poweroffReason":"【停电原因】由于北下叔和平农场跌落击穿导致２２０ＫＶ吴家庄变电站１０ＫＶ５５１董家庄线路全线停电【变更送电】因抢修进度加快原因，送电时间由２０：００变更为１７：３０【发布渠道】通过９５５９８发布","powerTime":"2019-07-22 16:57:02","powerComm":"已送电","subsNo":"","lineNo":"","tgNo":"","tgName":null,"infoStatus":"1","orgName":"国网顺平县电力局","typeName":null,"infoStatusName":null,"dateDay":null,"orgNos":null,"nowTime":null,"countyName":null,"streetName":null,"villageName":null,"roadName":null,"communityName":null,"tranName":null,"sdLineName":null,"cityCode":"1340621","cityName":"国网顺平县电力局","provinceCode":null,"stopTime":"2019-07-22 17:30:00","powerType":"全部","powerOffArea":"【全线路停电】停东下叔村南综合7919,东下叔3660#农排|20003660【纯农排变】,北下叔农厂610#农排|20000610【纯农排变】,东下叔新增农业3875【纯农排变】,东下叔新增1号综合2797,北下叔新增农业1号5877【纯农排变】,东下叔东20|20000020,北下叔8590#农排|20008590【纯农排变】,东下叔10370农排|20010370【纯农排变】,东下叔60#农排|20000060【纯农排变】,董家庄0430|20000430,北下叔120#农排|20000120【纯农排变】,北下叔村内8444,东下叔70#农排|20000070【纯农排变】,北下叔西北140|20000140","powerOffReason":"【停电原因】由于北下叔和平农场跌落击穿导致２２０ＫＶ吴家庄变电站１０ＫＶ５５１董家庄线路全线停电【变更送电】因抢修进度加快原因，送电时间由２０：００变更为１７：３０【发布渠道】通过９５５９８发布","powerOffId":"2019072213000278"},{"poweroffId":2019072213000250,"sgpoweroffId":null,"subsName":"","lineName":"10kV511高蓬线","pubTranName":"马村公用照明5台区,王家庄公用照明2台区,王家庄沙河内二号变压器,马村沙内一号变压器,定州市高蓬镇小章村村委会变压器,马村沙内二号变压器,0665906352-定州市高蓬镇南王家庄村村民委员会-专变-202688333-定州市高蓬镇南王家庄村村民委员会变压器,留宿村南一号变压器,李家庄公用农业3台区,小章公用照明9台区,马村公用照明1台区,李家庄公用农业4台区,王家庄公用照明7台区,王家庄村公用照明1台区,留宿村南二号变压器,李家庄公用照明1台区,小章村南公路边,李家庄公用农业7台区,小章村公用照明2台区,小章公用照明6台区,李辛庄公用农业8台区,李家庄公用照明3台区,马村公用照明6台区,小章村面粉厂,李家庄公用农业1台区,马村公用照明8台区,马村南二号台,小章村公用照明1台区,王家庄公用照明9台区,李家庄公用农业2台区,定州市东盛金属制品有限公司变压器,李家庄公用照明4台区,0664225056-定州市高蓬镇位村村民委员会-专变-199252399-定州市高蓬镇村民委员会变压器,李家庄公用农业5台区,小章村南二号,0664247911-定州市高蓬镇马村村民委员会-专变-199238412-定州市高蓬镇马村村民委员会变压器,0664223249-定州市高蓬镇马村村民委员会-专变-199237797-定州市高蓬镇六家庄村村民委员会变压器,李家庄公用照明2台区1,马村南三号台,定州市晟坤金属制品有限公司变压器,孙家庄公用农业1台区,小章村南3号变压器,小章公用照明7台区,王家庄公用照明8台区,王家庄公用照明3台区,定州市高蓬镇南王家庄村民委员会变压器,王家庄公用照明5台区,孙家庄公用照明2台区,小章村沙河北东,马村南四号台,0664225984-定州市高蓬镇马村村民委员会-专变-199242517-定州市高蓬镇马村村民委员会变压器,李辛庄公用农业6台区,0664246309-定州市高蓬镇马村村民委员会-专变-199237686-定州市高蓬镇马村村民委员会变压器,小章公用照明5台区,孙家庄公用农业6台区,砖厂,孙家庄公用照明3台区,孙家庄公用农业3台区,孙家庄公用照明1台区,小章村沙河北西,马村公用照明2台区,李家庄公用农业6台区,马村公用照明7台区,龙泉奶牛养殖有限公司,王家庄公用照明4台区,马村公用照明3台区,0664214661-定州市高蓬镇小章村民委员会-专变-199238281-定州市高蓬镇小章村村民委员会变压器,","scope":"【影响街道/乡镇】高蓬镇【高危重要客户】无【影响客户】马村、孙家庄、李家庄、小章、王家庄","startTime":"2019-07-22 13:02:42","stopDate":"2019-07-22 15:30:00","orgNo":"1340610","typeCode":"电网故障停限电","poweroffArea":"【全线路停电】停马村南四号台,孙家庄公用农业1台区,李辛庄公用农业6台区,李家庄公用照明1台区,定州市高蓬镇南王家庄村民委员会变压器,王家庄公用照明9台区,王家庄公用照明5台区,马村沙内二号变压器,李家庄公用农业3台区,李家庄公用农业7台区,小章村沙河北西,小章村南二号,李家庄公用农业5台区,留宿村南一号变压器,马村南二号台,马村公用照明3台区,马村公用照明1台区,小章村面粉厂,0664246309-定州市高蓬镇马村村民委员会-专变-199237686-定州市高蓬镇马村村民委员会变压器,李家庄公用农业6台区,0664223249-定州市高蓬镇马村村民委员会-专变-199237797-定州市高蓬镇六家庄村村民委员会变压器,马村公用照明8台区,定州市东盛金属制品有限公司变压器,小章村沙河北东,李家庄公用农业4台区,王家庄公用照明8台区,孙家庄公用农业3台区,马村公用照明6台区,0664247911-定州市高蓬镇马村村民委员会-专变-199238412-定州市高蓬镇马村村民委员会变压器,定州市高蓬镇小章村村委会变压器,孙家庄公用照明3台区,王家庄公用照明2台区,小章村南公路边,王家庄沙河内二号变压器,李辛庄公用农业8台区,马村南三号台,李家庄公用农业2台区,0664214661-定州市高蓬镇小章村民委员会-专变-199238281-定州市高蓬镇小章村村民委员会变压器,王家庄公用照明7台区,0665906352-定州市高蓬镇南王家庄村村民委员会-专变-202688333-定州市高蓬镇南王家庄村村民委员会变压器,马村沙内一号变压器,留宿村南二号变压器,小章村南3号变压器,小章公用照明6台区,小章公用照明9台区,马村公用照明2台区,马村公用照明7台区,王家庄公用照明3台区,李家庄公用照明2台区1,小章公用照明5台区,李家庄公用照明3台区,0664225984-定州市高蓬镇马村村民委员会-专变-199242517-定州市高蓬镇马村村民委员会变压器,小章村公用照明2台区,马村公用照明5台区,王家庄公用照明4台区,孙家庄公用照明1台区,王家庄村公用照明1台区,孙家庄公用农业6台区,小章村公用照明1台区,李家庄公用照明4台区,孙家庄公用照明2台区,小章公用照明7台区,0664225056-定州市高蓬镇位村村民委员会-专变-199252399-定州市高蓬镇村民委员会变压器,李家庄公用农业1台区,龙泉奶牛养殖有限公司,砖厂,定州市晟坤金属制品有限公司变压器","poweroffReason":"【停电原因】由于汇亚花泥变压器高压计量烧毁导致１１０ＫＶ李亲顾变电站１０ＫＶ５１１高蓬线路全线停电 【变更送电】因抢修进度加快原因，送电时间由２３：００变更为１５：３０ 【发布渠道】９５５９８","powerTime":"2019-07-22 15:00:23","powerComm":"已送电","subsNo":"","lineNo":"","tgNo":"","tgName":null,"infoStatus":"1","orgName":"国网定州市供电公司","typeName":null,"infoStatusName":null,"dateDay":null,"orgNos":null,"nowTime":null,"countyName":null,"streetName":null,"villageName":null,"roadName":null,"communityName":null,"tranName":null,"sdLineName":null,"cityCode":"1340610","cityName":"国网定州市供电公司","provinceCode":null,"stopTime":"2019-07-22 15:30:00","powerType":"全部","powerOffArea":"【全线路停电】停马村南四号台,孙家庄公用农业1台区,李辛庄公用农业6台区,李家庄公用照明1台区,定州市高蓬镇南王家庄村民委员会变压器,王家庄公用照明9台区,王家庄公用照明5台区,马村沙内二号变压器,李家庄公用农业3台区,李家庄公用农业7台区,小章村沙河北西,小章村南二号,李家庄公用农业5台区,留宿村南一号变压器,马村南二号台,马村公用照明3台区,马村公用照明1台区,小章村面粉厂,0664246309-定州市高蓬镇马村村民委员会-专变-199237686-定州市高蓬镇马村村民委员会变压器,李家庄公用农业6台区,0664223249-定州市高蓬镇马村村民委员会-专变-199237797-定州市高蓬镇六家庄村村民委员会变压器,马村公用照明8台区,定州市东盛金属制品有限公司变压器,小章村沙河北东,李家庄公用农业4台区,王家庄公用照明8台区,孙家庄公用农业3台区,马村公用照明6台区,0664247911-定州市高蓬镇马村村民委员会-专变-199238412-定州市高蓬镇马村村民委员会变压器,定州市高蓬镇小章村村委会变压器,孙家庄公用照明3台区,王家庄公用照明2台区,小章村南公路边,王家庄沙河内二号变压器,李辛庄公用农业8台区,马村南三号台,李家庄公用农业2台区,0664214661-定州市高蓬镇小章村民委员会-专变-199238281-定州市高蓬镇小章村村民委员会变压器,王家庄公用照明7台区,0665906352-定州市高蓬镇南王家庄村村民委员会-专变-202688333-定州市高蓬镇南王家庄村村民委员会变压器,马村沙内一号变压器,留宿村南二号变压器,小章村南3号变压器,小章公用照明6台区,小章公用照明9台区,马村公用照明2台区,马村公用照明7台区,王家庄公用照明3台区,李家庄公用照明2台区1,小章公用照明5台区,李家庄公用照明3台区,0664225984-定州市高蓬镇马村村民委员会-专变-199242517-定州市高蓬镇马村村民委员会变压器,小章村公用照明2台区,马村公用照明5台区,王家庄公用照明4台区,孙家庄公用照明1台区,王家庄村公用照明1台区,孙家庄公用农业6台区,小章村公用照明1台区,李家庄公用照明4台区,孙家庄公用照明2台区,小章公用照明7台区,0664225056-定州市高蓬镇位村村民委员会-专变-199252399-定州市高蓬镇村民委员会变压器,李家庄公用农业1台区,龙泉奶牛养殖有限公司,砖厂,定州市晟坤金属制品有限公司变压器","powerOffReason":"【停电原因】由于汇亚花泥变压器高压计量烧毁导致１１０ＫＶ李亲顾变电站１０ＫＶ５１１高蓬线路全线停电 【变更送电】因抢修进度加快原因，送电时间由２３：００变更为１５：３０ 【发布渠道】９５５９８","powerOffId":"2019072213000250"},{"poweroffId":2019072213000240,"sgpoweroffId":null,"subsName":"","lineName":"王各庄线516","pubTranName":"管家佐小学6939变压器,北庄子2186变压器,保定雄盛建材加工有限公司ZR7650,唐县博鑫加油站10KV配电工程4844,侯合庄4577变压器,葛庄小学6937变压器,卧佛寺水库,唐县齐家佐乡马家峪村农业排灌计量点P7056,齐家佐中学6925变压器,唐县盛玉石料厂3324,保定雄盛建材加工有限公司计量点7994,唐县白合镇白合碎石场,北长峪3160变压器,唐县鑫冀建材加工有限公司新装6682,北长峪0816变压器,南齐家佐3162变压器,唐县葛庄兴民建材有限公司2921,王各庄4930变压器,卧佛寺灰粉厂2604,豆铺村4717变压器,闫庄子4931变压器,王合庄石料厂1871,唐县白合镇柏江村村民委员会10KV配变,李建国1754,王各庄1312变压器【纯农排变】,唐县国泰建材销售有限公司唐县雅天分公司新装6558,葛庄1317台区变压器,唐县和泰高钙石粉加工厂10KV配变,管家佐1419变压器,保能唐县光伏电力开发有限公司5300,唐县齐家佐乡管家佐村村民委员会10KV配变,闫庄子2627变压器,北庄子0806变压器,唐县白合镇白合碎石厂增容6672,南齐家佐1843变压器,河南村7003变压器【光伏】,唐县齐家佐乡豆铺村,唐县齐家佐乡王合庄村村民委员,侯合庄1315变压器,葛庄6129变压器,唐县王各庄石料厂3256,老姑4781变压器,齐家佐中学6924变压器,唐县齐家佐乡闫家庄村民委员会新装7769,盛玉石料厂1329,保定雄盛建材加工有限公司XZ7343,保定雄盛建材加工有限公司XZ7342,葛庄7157变压器【纯农排变】,豆铺村7616变压器【光伏】,北长峪7006变压器【纯农排变】,唐县国泰建材销售有限公司5180,葛庄7156变压器【纯农排变】,管家佐4668变压器,唐县齐家佐乡北长峪村,葛庄1318变压器,唐县祥宇水泥砖厂变压器,管家佐4630变压器,豆铺村7617变压器【光伏】,王各庄1314变压器,河北唐盛畜禽饲养有限公司计量点,管家佐0829变压器,豆铺水利6660变压器【纯农排变】,王各庄1313变压器,豆铺2893变压器【纯农排变】,唐县白合镇歇马村村民委员会7843,北长峪7039变压器【光伏】,河北交建工程有限公司计量点3171,唐县益民石材有限公司2792,管家佐张小月1761,唐县齐家佐乡闫家庄村民委员会XZ7782,中国移动通信集团河北有限公司唐县分公司新装6975,王合庄小学7282变压器,三道岗小学7281变压器,老姑4758变压器,北长峪村西水利变压器,齐家佐三道岗村委会7057,豆铺1319变压器,北长峪小学6922变压器,王合庄6942变压器,豆铺5038变压器,全胜庄7034变压器【光伏】,唐县豆明矿产品加工厂,三道岗7057变压器,葛庄2123变压器,侯合庄1316变压器,唐县齐家佐乡王合庄村民委员会10KV配变,葛庄7432变压器,候合庄小学6938变压器,闫庄子1322变压器【纯农排变】,唐县益民石材有限公司,闫庄子小学7283变压器,柏山0784变压器,中开胜达加工厂10KV配变,北长峪4792变压器,恒山庄园,红星木工厂0831,胜利砖厂0828,利民","scope":"【影响街道/乡镇】白合镇【高危重要客户】无【影响客户】柏山村、各庄村、北长峪村、南齐家佐村、后各庄村、老姑村、北庄子村、阎庄子村、管家佐村、王各庄村、豆铺村","startTime":"2019-07-22 12:47:57","stopDate":"2019-07-22 17:00:00","orgNo":"1340622","typeCode":"电网故障停限电","poweroffArea":"【全线路停电】停管家佐小学6939变压器,北庄子2186变压器,保定雄盛建材加工有限公司ZR7650,唐县博鑫加油站10KV配电工程4844,侯合庄4577变压器,葛庄小学6937变压器,卧佛寺水库,唐县齐家佐乡马家峪村农业排灌计量点P7056,齐家佐中学6925变压器,唐县盛玉石料厂3324,保定雄盛建材加工有限公司计量点7994,唐县齐家佐乡王合庄村村民委员,侯合庄1315变压器,葛庄6129变压器,唐县王各庄石料厂3256,老姑4781变压器,齐家佐中学6924变压器,唐县国泰建材销售有限公司5180,唐县白合镇白合碎石场,北长峪3160变压器,唐县鑫冀建材加工有限公司新装6682,北长峪0816变压器,南齐家佐3162变压器,唐县葛庄兴民建材有限公司2921,王各庄4930变压器,卧佛寺灰粉厂2604,豆铺村4717变压器,闫庄子4931变压器,王合庄石料厂1871,唐县白合镇柏江村村民委员会10KV配变,李建国1754,王各庄1312变压器【纯农排变】,唐县国泰建材销售有限公司唐县雅天分公司新装6558,葛庄1317台区变压器,唐县和泰高钙石粉加工厂10KV配变,管家佐1419变压器,保能唐县光伏电力开发有限公司5300,唐县齐家佐乡管家佐村村民委员会10KV配变,闫庄子2627变压器,北庄子0806变压器,唐县白合镇白合碎石厂增容6672,南齐家佐1843变压器,河南村7003变压器【光伏】,唐县齐家佐乡豆铺村,唐县齐家佐乡闫家庄村民委员会新装7769,盛玉石料厂1329,保定雄盛建材加工有限公司XZ7343,保定雄盛建材加工有限公司XZ7342,葛庄7157变压器【纯农排变】,豆铺村7616变压器【光伏】,北长峪7006变压器【纯农排变】,葛庄7156变压器【纯农排变】,管家佐4668变压器,唐县齐家佐乡北长峪村,葛庄1318变压器,唐县祥宇水泥砖厂变压器,管家佐4630变压器,豆铺村7617变压器【光伏】,王各庄1314变压器,河北唐盛畜禽饲养有限公司计量点,管家佐0829变压器,豆铺水利6660变压器【纯农排变】,王各庄1313变压器,豆铺2893变压器【纯农排变】,唐县白合镇歇马村村民委员会7843,北长峪7039变压器【光伏】,河北交建工程有限公司计量点3171,唐县益民石材有限公司2792,管家佐张小月1761,唐县齐家佐乡闫家庄村民委员会XZ7782,中国移动通信集团河北有限公司唐县分公司新装6975,北长峪小学6922变压器,王合庄6942变压器,豆铺5038变压器,全胜庄7034变压器【光伏】,唐县豆明矿产品加工厂,三道岗7057变压器,葛庄2123变压器,侯合庄1316变压器,唐县齐家佐乡王合庄村民委员会10KV配变,葛庄7432变压器,老姑0810变压器,葛庄5233变压器,闫庄子1321变压器,王合庄6941变压器,豆铺小学6936变压器,北长峪7033变压器【光伏】,唐县京远矿产品销售有限公司10KV配变,老姑小学6940变压器,王合庄小学7282变压器,三道岗小学7281变压器,候合庄小学6938变压器,闫庄子1322变压器【纯农排变】,唐县益民石材有限公司,闫庄子小学7283变压器,柏山0784变压器,中开胜达加工厂10KV配变,北长峪4792变压器,恒山庄园,红星木工厂0831,胜利砖厂0828,利民面粉厂0918,柏山6943变压器,老姑4758变压器,北长峪村西水利变压器,齐家佐三道岗村委会7057,豆铺1319变压器","poweroffReason":"【停电原因】由于移动公司变压器漏油导致３５ＫＶ齐家佐变电站王各庄线５１６线路全线停电【变更送电】因抢修进度加快原因，送电时间由１８：００变更为１７：００【发布渠道】通过９５５９８发布","powerTime":"2019-07-22 16:11:17","powerComm":"已送电","subsNo":"","lineNo":"","tgNo":"","tgName":null,"infoStatus":"1","orgName":"国网唐县供电公司","typeName":null,"infoStatusName":null,"dateDay":null,"orgNos":null,"nowTime":null,"countyName":null,"streetName":null,"villageName":null,"roadName":null,"communityName":null,"tranName":null,"sdLineName":null,"cityCode":"1340622","cityName":"国网唐县供电公司","provinceCode":null,"stopTime":"2019-07-22 17:00:00","powerType":"全部","powerOffArea":"【全线路停电】停管家佐小学6939变压器,北庄子2186变压器,保定雄盛建材加工有限公司ZR7650,唐县博鑫加油站10KV配电工程4844,侯合庄4577变压器,葛庄小学6937变压器,卧佛寺水库,唐县齐家佐乡马家峪村农业排灌计量点P7056,齐家佐中学6925变压器,唐县盛玉石料厂3324,保定雄盛建材加工有限公司计量点7994,唐县齐家佐乡王合庄村村民委员,侯合庄1315变压器,葛庄6129变压器,唐县王各庄石料厂3256,老姑4781变压器,齐家佐中学6924变压器,唐县国泰建材销售有限公司5180,唐县白合镇白合碎石场,北长峪3160变压器,唐县鑫冀建材加工有限公司新装6682,北长峪0816变压器,南齐家佐3162变压器,唐县葛庄兴民建材有限公司2921,王各庄4930变压器,卧佛寺灰粉厂2604,豆铺村4717变压器,闫庄子4931变压器,王合庄石料厂1871,唐县白合镇柏江村村民委员会10KV配变,李建国1754,王各庄1312变压器【纯农排变】,唐县国泰建材销售有限公司唐县雅天分公司新装6558,葛庄1317台区变压器,唐县和泰高钙石粉加工厂10KV配变,管家佐1419变压器,保能唐县光伏电力开发有限公司5300,唐县齐家佐乡管家佐村村民委员会10KV配变,闫庄子2627变压器,北庄子0806变压器,唐县白合镇白合碎石厂增容6672,南齐家佐1843变压器,河南村7003变压器【光伏】,唐县齐家佐乡豆铺村,唐县齐家佐乡闫家庄村民委员会新装7769,盛玉石料厂1329,保定雄盛建材加工有限公司XZ7343,保定雄盛建材加工有限公司XZ7342,葛庄7157变压器【纯农排变】,豆铺村7616变压器【光伏】,北长峪7006变压器【纯农排变】,葛庄7156变压器【纯农排变】,管家佐4668变压器,唐县齐家佐乡北长峪村,葛庄1318变压器,唐县祥宇水泥砖厂变压器,管家佐4630变压器,豆铺村7617变压器【光伏】,王各庄1314变压器,河北唐盛畜禽饲养有限公司计量点,管家佐0829变压器,豆铺水利6660变压器【纯农排变】,王各庄1313变压器,豆铺2893变压器【纯农排变】,唐县白合镇歇马村村民委员会7843,北长峪7039变压器【光伏】,河北交建工程有限公司计量点3171,唐县益民石材有限公司2792,管家佐张小月1761,唐县齐家佐乡闫家庄村民委员会XZ7782,中国移动通信集团河北有限公司唐县分公司新装6975,北长峪小学6922变压器,王合庄6942变压器,豆铺5038变压器,全胜庄7034变压器【光伏】,唐县豆明矿产品加工厂,三道岗7057变压器,葛庄2123变压器,侯合庄1316变压器,唐县齐家佐乡王合庄村民委员会10KV配变,葛庄7432变压器,老姑0810变压器,葛庄5233变压器,闫庄子1321变压器,王合庄6941变压器,豆铺小学6936变压器,北长峪7033变压器【光伏】,唐县京远矿产品销售有限公司10KV配变,老姑小学6940变压器,王合庄小学7282变压器,三道岗小学7281变压器,候合庄小学6938变压器,闫庄子1322变压器【纯农排变】,唐县益民石材有限公司,闫庄子小学7283变压器,柏山0784变压器,中开胜达加工厂10KV配变,北长峪4792变压器,恒山庄园,红星木工厂0831,胜利砖厂0828,利民面粉厂0918,柏山6943变压器,老姑4758变压器,北长峪村西水利变压器,齐家佐三道岗村委会7057,豆铺1319变压器","powerOffReason":"【停电原因】由于移动公司变压器漏油导致３５ＫＶ齐家佐变电站王各庄线５１６线路全线停电【变更送电】因抢修进度加快原因，送电时间由１８：００变更为１７：００【发布渠道】通过９５５９８发布","powerOffId":"2019072213000240"},{"poweroffId":2019072213000227,"sgpoweroffId":null,"subsName":"","lineName":"10kV512野陈佐线","pubTranName":"东鲍墟综合6台区,东保去农排3台区【纯农排变】,野陈佐农排7台区【纯农排变】,养牛厂,东保去农排6台区【纯农排变】,野陈佐综合2台区,西保去农排1台区【纯农排变】,东保去农排5台区【纯农排变】,北保去农排2台区【纯农排变】,东保去综合3台区,东鲍墟综合7台区,蠡县春梅芦笋农民专业合作社,南鲍墟综合6台区,西保去综合1台区,西保去综合4台区,北保去农排7台区【纯农排变】,南鲍墟综合4台区,南保去农排1台区【纯农排变】,西保去农排4台区【纯农排变】,西鲍墟综合7台区,南保红亮,野陈佐农排4台区【纯农排变】,进托,野陈佐综合7台区,保去社办厂,北保去农排10台区【纯农排变】,野陈佐农排1台区【纯农排变】,东保去农排1台区【纯农排变】,文瑞,北保去农排4台区【纯农排变】,野陈佐综合4台区,小杰,北保去农排1台区【纯农排变】,东保去综合1台区,野陈佐农排6台区【纯农排变】,野陈佐综合10台区,瑞兴宏景变压器500,西保去农排7台区【纯农排变】,西保去综合5台区,东保去农排2台区【纯农排变】,中学农场大变压器,野陈佐农排9台区【纯农排变】,北鲍墟综合9台区,东保去综合4台区,北保去农排8台区【纯农排变】,野陈佐综合8台区,蠡县亿帮洁日化有限公司,北保去农排6台区【纯农排变】,南鲍墟综合9台区,西鲍墟综合8台区,野陈佐综合1台区,瑞兴宏景变压器315,西保去农排2台区【纯农排变】,野陈佐综合6台区,蠡县淑亮狐饲料农民专业合作社,南保去农排6台区【纯农排变】,西保去综合3台区,野陈佐综合3台区,北保去综合3台区,东鲍墟综合5台区,西保去综合2台区,北保去农排5台区【纯农排变】,南保去综合2台区,北鲍墟综合6台区,野陈佐农排11台区【纯农排变】,野陈佐综合5台区,东保去农排4台区【纯农排变】,南保去农排7台区【纯农排变】,野陈佐农排2台区【纯农排变】,北保去综合1台区,南鲍墟综合7台区,野陈佐农排10台区【纯农排变】,南鲍墟综合8台区,北保去农排9台区【纯农排变】,保去中学变压器,北鲍墟综合8台区,野陈佐农排5台区【纯农排变】,西保农排6台区【纯农排变】,西保去农排3台区【纯农排变】,南鲍墟综合5台区,西保去农排5台区【纯农排变】,北保去综合2台区,野陈佐农排3台区【纯农排变】,南保去农排4台区【纯农排变】,南保去农排2台区【纯农排变】,南保去综合1台区,野陈佐农排8台区【纯农排变】,北保去农排3台区【纯农排变】,南保去综合3台区,西鲍墟综合6台区,北鲍墟综合5台区,北鲍墟综合7台区,中学农场,北鲍墟综合4台区,野陈佐综合9台区,南保去农排3台区【纯农排变】,南保去农排5台区【纯农排变】,东保去综合2台区,","scope":"【影响街道/乡镇】鲍墟乡【高危重要客户】无【影响客户】野陈佐村、东鲍墟村、北鲍墟村、西鲍墟村、南鲍墟村","startTime":"2019-07-22 12:29:36","stopDate":"2019-07-22 14:30:00","orgNo":"1340616","typeCode":"电网故障停限电","poweroffArea":"【全线路停电】停文瑞,南鲍墟综合4台区,野陈佐农排6台区【纯农排变】,南保去农排5台区【纯农排变】,北保去综合3台区,北保去农排5台区【纯农排变】,西保去综合4台区,野陈佐综合3台区,西鲍墟综合7台区,西保去农排1台区【纯农排变】,北保去农排7台区【纯农排变】,北鲍墟综合8台区,南保去综合1台区,野陈佐农排8台区【纯农排变】,西鲍墟综合6台区,西鲍墟综合8台区,东保去农排4台区【纯农排变】,野陈佐农排11台区【纯农排变】,中学农场,进托,南保去农排6台区【纯农排变】,南鲍墟综合7台区,野陈佐农排9台区【纯农排变】,野陈佐综合1台区,西保去综合1台区,瑞兴宏景变压器500,北保去农排9台区【纯农排变】,南保去综合2台区,西保去综合2台区,养牛厂,西保去综合5台区,小杰,保去社办厂,中学农场大变压器,北鲍墟综合7台区,南保去农排7台区【纯农排变】,南保去综合3台区,保去中学变压器,野陈佐农排4台区【纯农排变】,野陈佐农排1台区【纯农排变】,野陈佐综合2台区,南鲍墟综合6台区,北鲍墟综合4台区,北保去农排6台区【纯农排变】,北鲍墟综合6台区,北保去农排8台区【纯农排变】,东保去农排1台区【纯农排变】,野陈佐综合5台区,南保去农排2台区【纯农排变】,东保去农排6台区【纯农排变】,野陈佐农排2台区【纯农排变】,西保去农排4台区【纯农排变】,北鲍墟综合5台区,西保去农排3台区【纯农排变】,北保去综合2台区,北保去农排1台区【纯农排变】,蠡县春梅芦笋农民专业合作社,野陈佐综合9台区,蠡县淑亮狐饲料农民专业合作社,北保去综合1台区,西保去综合3台区,野陈佐综合10台区,野陈佐农排10台区【纯农排变】,东保去综合4台区,南保去农排1台区【纯农排变】,东鲍墟综合7台区,南保去农排4台区【纯农排变】,北鲍墟综合9台区,东保去综合3台区,野陈佐农排3台区【纯农排变】,野陈佐综合7台区,北保去农排2台区【纯农排变】,西保去农排7台区【纯农排变】,北保去农排10台区【纯农排变】,南鲍墟综合9台区,东保去农排5台区【纯农排变】,东保去综合1台区,南保红亮,瑞兴宏景变压器315,野陈佐综合4台区,北保去农排4台区【纯农排变】,东鲍墟综合6台区,北保去农排3台区【纯农排变】,西保去农排2台区【纯农排变】,东保去农排2台区【纯农排变】,西保去农排5台区【纯农排变】,野陈佐农排7台区【纯农排变】,南保去农排3台区【纯农排变】,野陈佐农排5台区【纯农排变】,野陈佐综合8台区,西保农排6台区【纯农排变】,蠡县亿帮洁日化有限公司,南鲍墟综合5台区,东保去农排3台区【纯农排变】,野陈佐综合6台区,南鲍墟综合8台区,东鲍墟综合5台区,东保去综合2台区","poweroffReason":"【停电原因】由于线路接地导致３５ＫＶ鲍墟变电站１０ＫＶ野陈佐５１２线路全线停电【变更送电】因抢修进度加快原因，送电时间由１８：３０变更为１４：３０【发布渠道】通过９５５９８发布","powerTime":"2019-07-22 14:05:57","powerComm":"已送电","subsNo":"","lineNo":"","tgNo":"","tgName":null,"infoStatus":"1","orgName":"国网蠡县供电公司","typeName":null,"infoStatusName":null,"dateDay":null,"orgNos":null,"nowTime":null,"countyName":null,"streetName":null,"villageName":null,"roadName":null,"communityName":null,"tranName":null,"sdLineName":null,"cityCode":"1340616","cityName":"国网蠡县供电公司","provinceCode":null,"stopTime":"2019-07-22 14:30:00","powerType":"全部","powerOffArea":"【全线路停电】停文瑞,南鲍墟综合4台区,野陈佐农排6台区【纯农排变】,南保去农排5台区【纯农排变】,北保去综合3台区,北保去农排5台区【纯农排变】,西保去综合4台区,野陈佐综合3台区,西鲍墟综合7台区,西保去农排1台区【纯农排变】,北保去农排7台区【纯农排变】,北鲍墟综合8台区,南保去综合1台区,野陈佐农排8台区【纯农排变】,西鲍墟综合6台区,西鲍墟综合8台区,东保去农排4台区【纯农排变】,野陈佐农排11台区【纯农排变】,中学农场,进托,南保去农排6台区【纯农排变】,南鲍墟综合7台区,野陈佐农排9台区【纯农排变】,野陈佐综合1台区,西保去综合1台区,瑞兴宏景变压器500,北保去农排9台区【纯农排变】,南保去综合2台区,西保去综合2台区,养牛厂,西保去综合5台区,小杰,保去社办厂,中学农场大变压器,北鲍墟综合7台区,南保去农排7台区【纯农排变】,南保去综合3台区,保去中学变压器,野陈佐农排4台区【纯农排变】,野陈佐农排1台区【纯农排变】,野陈佐综合2台区,南鲍墟综合6台区,北鲍墟综合4台区,北保去农排6台区【纯农排变】,北鲍墟综合6台区,北保去农排8台区【纯农排变】,东保去农排1台区【纯农排变】,野陈佐综合5台区,南保去农排2台区【纯农排变】,东保去农排6台区【纯农排变】,野陈佐农排2台区【纯农排变】,西保去农排4台区【纯农排变】,北鲍墟综合5台区,西保去农排3台区【纯农排变】,北保去综合2台区,北保去农排1台区【纯农排变】,蠡县春梅芦笋农民专业合作社,野陈佐综合9台区,蠡县淑亮狐饲料农民专业合作社,北保去综合1台区,西保去综合3台区,野陈佐综合10台区,野陈佐农排10台区【纯农排变】,东保去综合4台区,南保去农排1台区【纯农排变】,东鲍墟综合7台区,南保去农排4台区【纯农排变】,北鲍墟综合9台区,东保去综合3台区,野陈佐农排3台区【纯农排变】,野陈佐综合7台区,北保去农排2台区【纯农排变】,西保去农排7台区【纯农排变】,北保去农排10台区【纯农排变】,南鲍墟综合9台区,东保去农排5台区【纯农排变】,东保去综合1台区,南保红亮,瑞兴宏景变压器315,野陈佐综合4台区,北保去农排4台区【纯农排变】,东鲍墟综合6台区,北保去农排3台区【纯农排变】,西保去农排2台区【纯农排变】,东保去农排2台区【纯农排变】,西保去农排5台区【纯农排变】,野陈佐农排7台区【纯农排变】,南保去农排3台区【纯农排变】,野陈佐农排5台区【纯农排变】,野陈佐综合8台区,西保农排6台区【纯农排变】,蠡县亿帮洁日化有限公司,南鲍墟综合5台区,东保去农排3台区【纯农排变】,野陈佐综合6台区,南鲍墟综合8台区,东鲍墟综合5台区,东保去综合2台区","powerOffReason":"【停电原因】由于线路接地导致３５ＫＶ鲍墟变电站１０ＫＶ野陈佐５１２线路全线停电【变更送电】因抢修进度加快原因，送电时间由１８：３０变更为１４：３０【发布渠道】通过９５５９８发布","powerOffId":"2019072213000227"},{"poweroffId":2019072213000223,"sgpoweroffId":null,"subsName":"","lineName":"10kV固上线543","pubTranName":"臧村中学2,藏村北鸡厂,1臧村内1,国网河北清苑县供电公司臧村供电所,1藏村内6,臧村水厂,保定市清苑区刘家雅苑酒店,0387488880-清苑县藏村中心卫生院-专变-118525797-清苑县臧村中心卫生院,1臧村内13台区,藏村面厂鸡,1崔庄内2,0654929809-清苑县润发屠宰场-专变-185509232-清苑县润发屠宰场,客户投资_1臧村内9,臧村中学7,2藏村外6【纯农排变】,2藏村外7【纯农排变】,臧村小学,1臧村内5,臧村鸡厂,清苑县红升通风管道加工厂,2藏村外1【纯农排变】,2中村外10【纯农排变】,保定市清苑区汇恒模具机械加工厂,清苑县藏村镇拔丝制钉厂,臧村中学6,臧村刘永岐园艺,保定市清苑区臧村镇中心卫生院,藏村村委会,清苑县永岐工贸有限公司,1臧村内4,中村三农公司,保定辉煌电气设备制造有限公司,臧村中学5,永岐工贸公司2,中心幼儿园,1臧村内3,1臧村内2,保定市清苑区聚磊养殖场,1藏村内10,2臧村外2【纯农排变】,2臧村外9【纯农排变】,2臧村外5【纯农排变】,臧村供电所,0562648841-藏村村委会-专变-118514114-藏村村委会,保定市清苑区臧村中学,臧村中学4,0387487281-中国联合网络通信有限公司清苑县分公司-专变-45313528-中国联合网络通信有限公司清苑县分公司,臧村中学1,2臧村外3【纯农排变】,清苑县西臧村慧丰生态养殖基地,1藏村内7,保定市鑫豪鹏粮油加工有限公司,崔庄村南,1臧村内12,2臧村外4【纯农排变】,1臧村内11,2中村外9【纯农排变】,中国移动通信集团河北有限公司清苑分公司,2藏村外8【纯农排变】,保定市清苑区宏达塑料包装厂,清苑县臧村占军蛋鸡养殖场,臧村中学3,臧村铁木社,臧村中学8,臧村中学,保定市清苑区贾家驴肉铺,","scope":"【影响街道/乡镇】臧村乡 【高危重要客户】无 【影响客户】西臧（臧村）、崔庄、中村","startTime":"2019-07-22 12:14:00","stopDate":"2019-07-22 13:30:00","orgNo":"1340618","typeCode":"电网故障停限电","poweroffArea":"【全线路停电】停臧村中学2,藏村北鸡厂,1臧村内1,国网河北清苑县供电公司臧村供电所,1藏村内6,臧村水厂,保定市清苑区刘家雅苑酒店,0387488880-清苑县藏村中心卫生院-专变-118525797-清苑县臧村中心卫生院,1臧村内13台区,藏村面厂鸡,1崔庄内2,2藏村外7【纯农排变】,0654929809-清苑县润发屠宰场-专变-185509232-清苑县润发屠宰场,客户投资_1臧村内9,臧村中学7,2藏村外6【纯农排变】,臧村小学,1臧村内5,臧村鸡厂,清苑县红升通风管道加工厂,2藏村外1【纯农排变】,2中村外10【纯农排变】,保定市清苑区汇恒模具机械加工厂,清苑县藏村镇拔丝制钉厂,臧村中学6,臧村刘永岐园艺,保定市清苑区臧村镇中心卫生院,藏村村委会,清苑县永岐工贸有限公司,1臧村内4,中村三农公司,保定辉煌电气设备制造有限公司,臧村中学5,永岐工贸公司2,中心幼儿园,1臧村内3,1臧村内2,保定市清苑区聚磊养殖场,1藏村内10,2臧村外2【纯农排变】,2臧村外9【纯农排变】,2臧村外5【纯农排变】,臧村供电所,0562648841-藏村村委会-专变-118514114-藏村村委会,保定市清苑区臧村中学,臧村中学4,0387487281-中国联合网络通信有限公司清苑县分公司-专变-45313528-中国联合网络通信有限公司清苑县分公司,臧村中学1,2臧村外3【纯农排变】,清苑县西臧村慧丰生态养殖基地,1藏村内7,保定市鑫豪鹏粮油加工有限公司,崔庄村南,1臧村内12,2臧村外4【纯农排变】,1臧村内11,2中村外9【纯农排变】,中国移动通信集团河北有限公司清苑分公司,2藏村外8【纯农排变】,保定市清苑区宏达塑料包装厂,清苑县臧村占军蛋鸡养殖场,臧村中学3,臧村铁木社,臧村中学8,臧村中学,保定市清苑区贾家驴肉铺","poweroffReason":"【停电原因】由于主干１号杆开关掉闸导致１１０ＫＶ臧村变电站１０ＫＶ固上线５４３线路全线停电 【变更送电】因抢修进度加快原因，送电时间由１８：００变更为１３：３０ 【发布渠道】通过９５５９８发布","powerTime":"2019-07-22 13:09:19","powerComm":"孙红伟通知已送电","subsNo":"","lineNo":"","tgNo":"","tgName":null,"infoStatus":"1","orgName":"国网清苑县供电公司","typeName":null,"infoStatusName":null,"dateDay":null,"orgNos":null,"nowTime":null,"countyName":null,"streetName":null,"villageName":null,"roadName":null,"communityName":null,"tranName":null,"sdLineName":null,"cityCode":"1340618","cityName":"国网清苑县供电公司","provinceCode":null,"stopTime":"2019-07-22 13:30:00","powerType":"全部","powerOffArea":"【全线路停电】停臧村中学2,藏村北鸡厂,1臧村内1,国网河北清苑县供电公司臧村供电所,1藏村内6,臧村水厂,保定市清苑区刘家雅苑酒店,0387488880-清苑县藏村中心卫生院-专变-118525797-清苑县臧村中心卫生院,1臧村内13台区,藏村面厂鸡,1崔庄内2,2藏村外7【纯农排变】,0654929809-清苑县润发屠宰场-专变-185509232-清苑县润发屠宰场,客户投资_1臧村内9,臧村中学7,2藏村外6【纯农排变】,臧村小学,1臧村内5,臧村鸡厂,清苑县红升通风管道加工厂,2藏村外1【纯农排变】,2中村外10【纯农排变】,保定市清苑区汇恒模具机械加工厂,清苑县藏村镇拔丝制钉厂,臧村中学6,臧村刘永岐园艺,保定市清苑区臧村镇中心卫生院,藏村村委会,清苑县永岐工贸有限公司,1臧村内4,中村三农公司,保定辉煌电气设备制造有限公司,臧村中学5,永岐工贸公司2,中心幼儿园,1臧村内3,1臧村内2,保定市清苑区聚磊养殖场,1藏村内10,2臧村外2【纯农排变】,2臧村外9【纯农排变】,2臧村外5【纯农排变】,臧村供电所,0562648841-藏村村委会-专变-118514114-藏村村委会,保定市清苑区臧村中学,臧村中学4,0387487281-中国联合网络通信有限公司清苑县分公司-专变-45313528-中国联合网络通信有限公司清苑县分公司,臧村中学1,2臧村外3【纯农排变】,清苑县西臧村慧丰生态养殖基地,1藏村内7,保定市鑫豪鹏粮油加工有限公司,崔庄村南,1臧村内12,2臧村外4【纯农排变】,1臧村内11,2中村外9【纯农排变】,中国移动通信集团河北有限公司清苑分公司,2藏村外8【纯农排变】,保定市清苑区宏达塑料包装厂,清苑县臧村占军蛋鸡养殖场,臧村中学3,臧村铁木社,臧村中学8,臧村中学,保定市清苑区贾家驴肉铺","powerOffReason":"【停电原因】由于主干１号杆开关掉闸导致１１０ＫＶ臧村变电站１０ＫＶ固上线５４３线路全线停电 【变更送电】因抢修进度加快原因，送电时间由１８：００变更为１３：３０ 【发布渠道】通过９５５９８发布","powerOffId":"2019072213000223"},{"poweroffId":2019072213000206,"sgpoweroffId":null,"subsName":"","lineName":"鼓楼线536","pubTranName":"涞源县供水服务中心变压器,石油公司公用变,阁院路公用变,花园西区公用变进线间隔配电变压器,涞源县城区办事处拒马源社区居民委员会 富瑞家园变压器,纪检委,涞源县职教中心桃源宾馆变压器,二中2号公用变箱变出线间隔配电变压器,公用电费,云泉佳园小区变压器,城东站513小北关关井1,武装部公用变,涞源县城区办事处拒马源社区居民委员会 粮食局南院变压器,涞源县金盛鸿房地产开发有限公司变压器,【两会】大北关新村1,涞源一中,开源信用社,财政局1号变,李大印,公安局,河北省涞源县第一中学变压器,县医院,二中家属楼变压器,地税局双电源,国网河北省电力公司涞源县供电分公司变压器1,涞源县涞百购物广场有限公司变压器,安监局,源县城区办事处拒马源社区居民委员会 粮局家属楼变压器,城建局公用,于杨,工行公用变,涞百购物,桃园公用变箱变出线间隔配电变压器,水云乡新村变压器,广播局,变压器,城区办小区变压器,财政局2号变,财政局公用变,城东站513东方家园二期,城东站513联合关计量瓦窑6,新环小区公用变,国网河北省电力公司涞源县供电分公司变压器,城区办事处联合关村村民委员会变压器,国网河北省电力公司涞源县供电分公司变压器2,兴文小区公用配电变压器,涞源县城区办事处观音堂社区居民委员会变压器,涞源县田硕土地整理有限公司变压器,活动中心公用变,涞源县新昌热电有限责任公司变压器,0469106073-河北省涞源县医院-专变-124316128-涞源县医院变压器,涞源一中2井变(锅炉),东内环公用变,物资局公用变,涞源县城区办事处兴文街社区居民委员会 平安里小区老变压器,涞源县源容源商务酒店有限公司变压器,","scope":"【影响街道/乡镇】阁院路、城里大街、城区办【高危重要客户】无【影响客户】新环小区、畜牧局、云泉家园、水云乡新村、山水名都、花园西区、联合关瓦窑沟、兴闻小区、二中家属楼、县医院家属楼、向阳小区、小北关关井、观音堂小区、新粮食局家属楼、粮食局家属楼、自来水公司、一中","startTime":"2019-08-02 08:30:00","stopDate":"2019-08-02 18:00:00","orgNo":"1340615","typeCode":"计划停电","poweroffArea":"【全线路停电】停于杨,工行公用变,涞百购物,桃园公用变箱变出线间隔配电变压器,水云乡新村变压器,广播局,变压器,城区办小区变压器,财政局2号变,财政局公用变,城东站513东方家园二期,城东站513联合关计量瓦窑6,新环小区公用变,国网河北省电力公司涞源县供电分公司变压器,城区办事处联合关村村民委员会变压器,国网河北省电力公司涞源县供电分公司变压器2,兴文小区公用配电变压器,涞源县城区办事处观音堂社区居民委员会变压器,涞源县田硕土地整理有限公司变压器,活动中心公用变,涞源县新昌热电有限责任公司变压器,0469106073-河北省涞源县医院-专变-124316128-涞源县医院变压器,涞源一中2井变(锅炉),东内环公用变,物资局公用变,涞源县城区办事处兴文街社区居民委员会 平安里小区老变压器,涞源县源容源商务酒店有限公司变压器,石油公司公用变,阁院路公用变,花园西区公用变进线间隔配电变压器,涞源县城区办事处拒马源社区居民委员会 富瑞家园变压器,纪检委,涞源县职教中心桃源宾馆变压器,二中2号公用变箱变出线间隔配电变压器,公用电费,云泉佳园小区变压器,城东站513小北关关井1,武装部公用变,涞源县城区办事处拒马源社区居民委员会 粮食局南院变压器,涞源县金盛鸿房地产开发有限公司变压器,【两会】大北关新村1,涞源一中,开源信用社,财政局1号变,李大印,公安局,河北省涞源县第一中学变压器,县医院,二中家属楼变压器,地税局双电源,国网河北省电力公司涞源县供电分公司变压器1,涞源县供水服务中心变压器,城建局公用,涞源县涞百购物广场有限公司变压器,安监局,源县城区办事处拒马源社区居民委员会 粮局家属楼变压器","poweroffReason":"【停电原因】由于电缆头接引导致１１０ＫＶ滨湖变电站１０ＫＶ鼓楼线５３６线路全线停电【变更送电】无【发布渠道】涞源电视台（２０１９年７月２２日至２０１９年８月１日）屏幕上方滚动","powerTime":"2019-08-02 17:49:08","powerComm":"已送电","subsNo":"","lineNo":"","tgNo":"","tgName":null,"infoStatus":"1","orgName":"国网涞源县供电公司","typeName":null,"infoStatusName":null,"dateDay":null,"orgNos":null,"nowTime":null,"countyName":null,"streetName":null,"villageName":null,"roadName":null,"communityName":null,"tranName":null,"sdLineName":null,"cityCode":"1340615","cityName":"国网涞源县供电公司","provinceCode":null,"stopTime":"2019-08-02 18:00:00","powerType":"全部","powerOffArea":"【全线路停电】停于杨,工行公用变,涞百购物,桃园公用变箱变出线间隔配电变压器,水云乡新村变压器,广播局,变压器,城区办小区变压器,财政局2号变,财政局公用变,城东站513东方家园二期,城东站513联合关计量瓦窑6,新环小区公用变,国网河北省电力公司涞源县供电分公司变压器,城区办事处联合关村村民委员会变压器,国网河北省电力公司涞源县供电分公司变压器2,兴文小区公用配电变压器,涞源县城区办事处观音堂社区居民委员会变压器,涞源县田硕土地整理有限公司变压器,活动中心公用变,涞源县新昌热电有限责任公司变压器,0469106073-河北省涞源县医院-专变-124316128-涞源县医院变压器,涞源一中2井变(锅炉),东内环公用变,物资局公用变,涞源县城区办事处兴文街社区居民委员会 平安里小区老变压器,涞源县源容源商务酒店有限公司变压器,石油公司公用变,阁院路公用变,花园西区公用变进线间隔配电变压器,涞源县城区办事处拒马源社区居民委员会 富瑞家园变压器,纪检委,涞源县职教中心桃源宾馆变压器,二中2号公用变箱变出线间隔配电变压器,公用电费,云泉佳园小区变压器,城东站513小北关关井1,武装部公用变,涞源县城区办事处拒马源社区居民委员会 粮食局南院变压器,涞源县金盛鸿房地产开发有限公司变压器,【两会】大北关新村1,涞源一中,开源信用社,财政局1号变,李大印,公安局,河北省涞源县第一中学变压器,县医院,二中家属楼变压器,地税局双电源,国网河北省电力公司涞源县供电分公司变压器1,涞源县供水服务中心变压器,城建局公用,涞源县涞百购物广场有限公司变压器,安监局,源县城区办事处拒马源社区居民委员会 粮局家属楼变压器","powerOffReason":"【停电原因】由于电缆头接引导致１１０ＫＶ滨湖变电站１０ＫＶ鼓楼线５３６线路全线停电【变更送电】无【发布渠道】涞源电视台（２０１９年７月２２日至２０１９年８月１日）屏幕上方滚动","powerOffId":"2019072213000206"},{"poweroffId":2019072213000186,"sgpoweroffId":null,"subsName":"","lineName":"毛屯536","pubTranName":"茂林庄村东井0146,","scope":"【影响街道/乡镇】百尺竿乡 【高危重要客户】无 【影响客户】茂林庄","startTime":"2019-07-22 11:03:48","stopDate":"2019-07-22 12:30:00","orgNo":"1340626","typeCode":"电网故障停限电","poweroffArea":"【单台区停电】停茂林庄村东井0146","poweroffReason":"【停电原因】由于低压空开烧毁导致１１０ＫＶ宋营变电站毛屯５３６线路茂林庄村东井０１４６公变台区停电 【变更送电】因抢修进度加快原因，送电时间由２３：００变更为１２：３０ 【发布渠道】通过９５５９８发布","powerTime":"2019-07-22 12:00:22","powerComm":"恢复送电","subsNo":"","lineNo":"","tgNo":"","tgName":null,"infoStatus":"1","orgName":"国网涿州市供电公司","typeName":null,"infoStatusName":null,"dateDay":null,"orgNos":null,"nowTime":null,"countyName":null,"streetName":null,"villageName":null,"roadName":null,"communityName":null,"tranName":null,"sdLineName":null,"cityCode":"1340626","cityName":"国网涿州市供电公司","provinceCode":null,"stopTime":"2019-07-22 12:30:00","powerType":"全部","powerOffArea":"【单台区停电】停茂林庄村东井0146","powerOffReason":"【停电原因】由于低压空开烧毁导致１１０ＫＶ宋营变电站毛屯５３６线路茂林庄村东井０１４６公变台区停电 【变更送电】因抢修进度加快原因，送电时间由２３：００变更为１２：３０ 【发布渠道】通过９５５９８发布","powerOffId":"2019072213000186"},{"poweroffId":2019072213000175,"sgpoweroffId":null,"subsName":"","lineName":"10kV韩村站528线路","pubTranName":"10kVY0365.Y0366.Y0367.Y0368配电室Y0367配电变压器,","scope":"【影响街道/乡镇】利家街 【高危重要客户】无 【影响客户】公园时代","startTime":"2019-07-30 05:00:00","stopDate":"2019-07-30 12:00:00","orgNo":"13406","typeCode":"临时停电","poweroffArea":"【单台区停电】停10kVY0365.Y0366.Y0367.Y0368配电室Y0367配电变压器","poweroffReason":"【停电原因】由于供电设备临时检修导致１０ＫＶ韩村变电站５２８线路Ｙ０３６７公变台区停电【变更送电】无【发布渠道】保定市保定有线电视台（０７月２８日２０时１５分至２１时４５分之间）屏幕上滚动","powerTime":"2019-07-30 11:20:16","powerComm":"已送电","subsNo":"","lineNo":"","tgNo":"","tgName":null,"infoStatus":"1","orgName":"保定供电公司","typeName":null,"infoStatusName":null,"dateDay":null,"orgNos":null,"nowTime":null,"countyName":null,"streetName":null,"villageName":null,"roadName":null,"communityName":null,"tranName":null,"sdLineName":null,"cityCode":"13406","cityName":"保定供电公司","provinceCode":null,"stopTime":"2019-07-30 12:00:00","powerType":"全部","powerOffArea":"【单台区停电】停10kVY0365.Y0366.Y0367.Y0368配电室Y0367配电变压器","powerOffReason":"【停电原因】由于供电设备临时检修导致１０ＫＶ韩村变电站５２８线路Ｙ０３６７公变台区停电【变更送电】无【发布渠道】保定市保定有线电视台（０７月２８日２０时１５分至２１时４５分之间）屏幕上滚动","powerOffId":"2019072213000175"},{"poweroffId":2019072213000174,"sgpoweroffId":null,"subsName":"","lineName":"10kV韩村站543线路.","pubTranName":"10kVY0365.Y0366.Y0367.Y0368配电室Y0365配电变压器,","scope":"【影响街道/乡镇】阳光北大街 【高危重要客户】无 【影响客户】公园时代","startTime":"2019-07-30 05:00:00","stopDate":"2019-07-30 12:00:00","orgNo":"13406","typeCode":"临时停电","poweroffArea":"【单台区停电】停10kVY0365.Y0366.Y0367.Y0368配电室Y0365配电变压器","poweroffReason":"【停电原因】由于供电设备临时检修导致１０ＫＶ韩村变电站５４３线路Ｙ０３６５公变台区停电【变更送电】无【发布渠道】保定市保定有线电视台（０７月２８日２０时１５分至２１时４５分之间）屏幕上滚动","powerTime":"2019-07-30 11:19:51","powerComm":"已送电","subsNo":"","lineNo":"","tgNo":"","tgName":null,"infoStatus":"1","orgName":"保定供电公司","typeName":null,"infoStatusName":null,"dateDay":null,"orgNos":null,"nowTime":null,"countyName":null,"streetName":null,"villageName":null,"roadName":null,"communityName":null,"tranName":null,"sdLineName":null,"cityCode":"13406","cityName":"保定供电公司","provinceCode":null,"stopTime":"2019-07-30 12:00:00","powerType":"全部","powerOffArea":"【单台区停电】停10kVY0365.Y0366.Y0367.Y0368配电室Y0365配电变压器","powerOffReason":"【停电原因】由于供电设备临时检修导致１０ＫＶ韩村变电站５４３线路Ｙ０３６５公变台区停电【变更送电】无【发布渠道】保定市保定有线电视台（０７月２８日２０时１５分至２１时４５分之间）屏幕上滚动","powerOffId":"2019072213000174"},{"poweroffId":2019072213000173,"sgpoweroffId":null,"subsName":"","lineName":"10kV崔闸站565线路","pubTranName":"10kVB1925箱式变电站B1925配电变压器,","scope":"【影响街道/乡镇】七一路 【高危重要客户】无 【影响客户】郝庄新区、郝庄村","startTime":"2019-07-31 05:00:00","stopDate":"2019-07-31 12:00:00","orgNo":"13406","typeCode":"计划停电","poweroffArea":"【单台区停电】停10kVB1925箱式变电站B1925配电变压器","poweroffReason":"【停电原因】由于供电设备临时检修导致１０ＫＶ崔闸变电站５６５线路Ｂ１９２５公变台区停电【变更送电】无【发布渠道】保定市保定有线电视台（７月２３日２０时１５分至２１时４５分之间）屏幕上滚动","powerTime":"2019-07-31 11:28:31","powerComm":"已送电","subsNo":"","lineNo":"","tgNo":"","tgName":null,"infoStatus":"1","orgName":"保定供电公司","typeName":null,"infoStatusName":null,"dateDay":null,"orgNos":null,"nowTime":null,"countyName":null,"streetName":null,"villageName":null,"roadName":null,"communityName":null,"tranName":null,"sdLineName":null,"cityCode":"13406","cityName":"保定供电公司","provinceCode":null,"stopTime":"2019-07-31 12:00:00","powerType":"全部","powerOffArea":"【单台区停电】停10kVB1925箱式变电站B1925配电变压器","powerOffReason":"【停电原因】由于供电设备临时检修导致１０ＫＶ崔闸变电站５６５线路Ｂ１９２５公变台区停电【变更送电】无【发布渠道】保定市保定有线电视台（７月２３日２０时１５分至２１时４５分之间）屏幕上滚动","powerOffId":"2019072213000173"}],"pageModel":{"pageNow":798,"totalCount":10973,"totalPage":1098,"tableRows":0,"pageCount":10,"beginCount":7970},"isExperi":"1"}