{"message":"","today":"2020-06-15","seleList":[{"poweroffId":2019072113000062,"sgpoweroffId":null,"subsName":"","lineName":"东关I线531","pubTranName":"机械厂北,望都县鼎晶铸造材料有限公司,通用轴瓦,保定鑫达铸造有限公司1,保定鑫达铸造有限公司2,东关利民构件厂,通用机械厂,电力局北农业【纯农排变】,保定鑫达铸造有限公司3,保定鑫达铸造有限公司,鑫源混凝土（2）,电力局东【纯农排变】,东关鞋厂,机械厂北1号,0556925521-河北省望都县通用工程机械轴瓦有限公司-专变-104104497-变压器,0469477724-华北泰兴护栏有限公司-专变-49912022-华北泰兴护栏有限公司,河北巨象机械零部件制造有限公司,","scope":"【影响街道/乡镇】望都镇　　 【高危重要客户】无　　 【影响客户】机械厂北、电力局北农业、电力局东、东关鞋厂、东关利民构件厂、通用轴瓦、望都县鼎晶铸造材料有限公司、左同乐、河北省望都县通用工程机械轴瓦有限公司、河北巨象机械零部件制造有限公司、鑫达铸造、鑫源混凝土、华北泰兴护栏有限公司","startTime":"2019-07-21 01:00:00","stopDate":"2019-07-21 05:20:00","orgNo":"1340623","typeCode":"其他临时停电","poweroffArea":"【全线路停电】停望都县鼎晶铸造材料有限公司,机械厂北,通用轴瓦,保定鑫达铸造有限公司1,保定鑫达铸造有限公司2,东关利民构件厂,通用机械厂,电力局北农业【纯农排变】,保定鑫达铸造有限公司3,保定鑫达铸造有限公司,鑫源混凝土（2）,电力局东【纯农排变】,东关鞋厂,机械厂北1号,0556925521-河北省望都县通用工程机械轴瓦有限公司-专变-104104497-变压器,0469477724-华北泰兴护栏有限公司-专变-49912022-华北泰兴护栏有限公司,河北巨象机械零部件制造有限公司","poweroffReason":"【停电原因】由于东关I线５３１线路开关的操作机构严重缺陷，需停电进行紧急消缺导致１１０ＫＶ八里庄变电站东关Ｉ线５３１线路全线停电 【变更送电】因临时抢修进度加快原因，送电时间由０６：００变更为０５：２０ 【发布渠道】通过９５５９８发布","powerTime":"2019-07-21 04:50:00","powerComm":"已送电","subsNo":"","lineNo":"","tgNo":"","tgName":null,"infoStatus":"1","orgName":"国网望都县供电公司","typeName":null,"infoStatusName":null,"dateDay":null,"orgNos":null,"nowTime":null,"countyName":null,"streetName":null,"villageName":null,"roadName":null,"communityName":null,"tranName":null,"sdLineName":null,"cityCode":"1340623","cityName":"国网望都县供电公司","provinceCode":null,"stopTime":"2019-07-21 05:20:00","powerType":"全部","powerOffArea":"【全线路停电】停望都县鼎晶铸造材料有限公司,机械厂北,通用轴瓦,保定鑫达铸造有限公司1,保定鑫达铸造有限公司2,东关利民构件厂,通用机械厂,电力局北农业【纯农排变】,保定鑫达铸造有限公司3,保定鑫达铸造有限公司,鑫源混凝土（2）,电力局东【纯农排变】,东关鞋厂,机械厂北1号,0556925521-河北省望都县通用工程机械轴瓦有限公司-专变-104104497-变压器,0469477724-华北泰兴护栏有限公司-专变-49912022-华北泰兴护栏有限公司,河北巨象机械零部件制造有限公司","powerOffReason":"【停电原因】由于东关I线５３１线路开关的操作机构严重缺陷，需停电进行紧急消缺导致１１０ＫＶ八里庄变电站东关Ｉ线５３１线路全线停电 【变更送电】因临时抢修进度加快原因，送电时间由０６：００变更为０５：２０ 【发布渠道】通过９５５９８发布","powerOffId":"2019072113000062"},{"poweroffId":2019072113000057,"sgpoweroffId":null,"subsName":"","lineName":"微波站517线","pubTranName":"李城涧4079,都亭卫生院 7467变压器,兴和大酒店1970,李家庄2323,木器厂家属0122,唐县恒兴饲料厂2790,冰冰冷冻1828,东都亭村北6063,东都亭2615,唐县永耀混凝土搅拌有限公司,都亭乡初级中心学校 7469变压器,保定市南水北调工程建设委员会办公室计量点6575,李家庄2725【纯农排变】,李家庄4064,保定兴华建筑有限公司,大寺城涧2694,0387521772-河北帝尧鸿酒业有限公司-专变-210340460-河北帝尧鸿酒业有限公司,李家庄6059,河北香江房地产2#箱变,唐县乐昌二手车交易市场服务有限公司,惠琳公司0321,李家庄3159变压器,西环加油站1827,都亭乡第四幼儿园 7471变压器,唐县强茂有机肥生产有限公司,东都亭3189变压器,大寺城涧3158,唐县永耀混凝土搅拌有限公司配变,唐县南环医院4659,东都亭128变压器,李家庄2727【纯农排变】,李城涧4714,河北香江房地产1#箱变,杨城涧0325,东都亭4636变压器,大寺城涧2687,都亭乡初级中心学校7468变压器,利群食品有限公司0317,河北焕歌物流有限公司10KV配变,唐县永耀农业开发有限公司7193,李家庄0316,河北香江房地产3#箱变,东都亭6669变压器,东都亭130变压器,东都亭6520变压器,电视台0120,大寺城涧0324,南环医院1812,供电所2078,李家庄1417,微波站,东都亭村东6064,都亭乡中心学校 7470变压器,唐县恒天气体有限责任公司,大寺城涧1740变压器,李城涧0133,","scope":"【影响街道/乡镇】仁厚镇、都亭乡【高危重要客户】无【影响客户】唐县中央公馆、大寺城涧、李家庄、杨城涧、李城涧、东都亭、唐县恒天气体有限责任公司、唐县利群冷饮食品厂、西环加油站、唐县恒兴饲料厂、大寺城涧木器厂、南环医院、保定兴华建筑有限公司、保定惠琳肉食品有限公司、唐县兴和大酒店餐饮有限公司、河北焕歌物流有限公司、唐县红彤罐头厂、唐县永耀汽车贸易有限公司、河北香江房地产开发有限公司、河北供水有限责任公司、唐县永耀农业开发有限公司、唐县乐昌二手车交易市场服务有限公司","startTime":"2019-07-21 07:48:41","stopDate":"2019-07-21 17:00:00","orgNo":"1340622","typeCode":"电网故障停限电","poweroffArea":"【分支停电】停都亭乡初级中心学校7468变压器,利群食品有限公司0317,河北焕歌物流有限公司10KV配变,唐县永耀农业开发有限公司7193,李家庄0316,河北香江房地产3#箱变,东都亭6669变压器,东都亭130变压器,东都亭6520变压器,电视台0120,大寺城涧0324,南环医院1812,供电所2078,李家庄1417,微波站,李城涧4079,东都亭村东6064, 都亭乡中心学校 7470变压器,唐县恒天气体有限责任公司,大寺城涧1740变压器,李城涧0133,李家庄3159变压器,西环加油站1827,唐县强茂有机肥生产有限公司, 都亭卫生院 7467变压器,兴和大酒店1970,李家庄2323,木器厂家属0122,唐县恒兴饲料厂2790,冰冰冷冻1828,东都亭村北6063,东都亭2615,唐县永耀混凝土搅拌有限公司, 都亭乡初级中心学校 7469变压器,保定市南水北调工程建设委员会办公室计量点6575,李家庄2725【纯农排变】,李家庄4064,保定兴华建筑有限公司,大寺城涧2694,0387521772-河北帝尧鸿酒业有限公司-专变-210340460-河北帝尧鸿酒业有限公司,李家庄6059,河北香江房地产2#箱变,唐县乐昌二手车交易市场服务有限公司,惠琳公司0321, 都亭乡第四幼儿园 7471变压器,东都亭3189变压器,大寺城涧3158,唐县永耀混凝土搅拌有限公司配变,唐县南环医院4659,东都亭128变压器,李家庄2727【纯农排变】,李城涧4714,河北香江房地产1#箱变,杨城涧0325,东都亭4636变压器,大寺城涧2687","poweroffReason":"【停电原因】由于电杆被撞导致１１０ＫＶ唐县变电站微波站５１７线路０６号杆以下线路停电【变更送电】因抢修进度加快原因，送电时间由１８：００变更为１７：００【发布渠道】通过９５５９８发布","powerTime":"2019-07-21 16:26:07","powerComm":"已送电","subsNo":"","lineNo":"","tgNo":"","tgName":null,"infoStatus":"1","orgName":"国网唐县供电公司","typeName":null,"infoStatusName":null,"dateDay":null,"orgNos":null,"nowTime":null,"countyName":null,"streetName":null,"villageName":null,"roadName":null,"communityName":null,"tranName":null,"sdLineName":null,"cityCode":"1340622","cityName":"国网唐县供电公司","provinceCode":null,"stopTime":"2019-07-21 17:00:00","powerType":"全部","powerOffArea":"【分支停电】停都亭乡初级中心学校7468变压器,利群食品有限公司0317,河北焕歌物流有限公司10KV配变,唐县永耀农业开发有限公司7193,李家庄0316,河北香江房地产3#箱变,东都亭6669变压器,东都亭130变压器,东都亭6520变压器,电视台0120,大寺城涧0324,南环医院1812,供电所2078,李家庄1417,微波站,李城涧4079,东都亭村东6064, 都亭乡中心学校 7470变压器,唐县恒天气体有限责任公司,大寺城涧1740变压器,李城涧0133,李家庄3159变压器,西环加油站1827,唐县强茂有机肥生产有限公司, 都亭卫生院 7467变压器,兴和大酒店1970,李家庄2323,木器厂家属0122,唐县恒兴饲料厂2790,冰冰冷冻1828,东都亭村北6063,东都亭2615,唐县永耀混凝土搅拌有限公司, 都亭乡初级中心学校 7469变压器,保定市南水北调工程建设委员会办公室计量点6575,李家庄2725【纯农排变】,李家庄4064,保定兴华建筑有限公司,大寺城涧2694,0387521772-河北帝尧鸿酒业有限公司-专变-210340460-河北帝尧鸿酒业有限公司,李家庄6059,河北香江房地产2#箱变,唐县乐昌二手车交易市场服务有限公司,惠琳公司0321, 都亭乡第四幼儿园 7471变压器,东都亭3189变压器,大寺城涧3158,唐县永耀混凝土搅拌有限公司配变,唐县南环医院4659,东都亭128变压器,李家庄2727【纯农排变】,李城涧4714,河北香江房地产1#箱变,杨城涧0325,东都亭4636变压器,大寺城涧2687","powerOffReason":"【停电原因】由于电杆被撞导致１１０ＫＶ唐县变电站微波站５１７线路０６号杆以下线路停电【变更送电】因抢修进度加快原因，送电时间由１８：００变更为１７：００【发布渠道】通过９５５９８发布","powerOffId":"2019072113000057"},{"poweroffId":2019072113000045,"sgpoweroffId":null,"subsName":"","lineName":"10kV563土地局线","pubTranName":"垒德农排一台区【纯农排变】,方圆小区综合3台区,0683189261-蠡县兴和巴士有限公司-专变-223584100-蠡县兴和巴士有限公司,东环综合3台区,垒德农排二台区【纯农排变】,新户技术监督局,金地综合二台区箱变出线间隔配电变压器,东环综合11台区,里中东路灯,0469339707-中国石油河北保定销售分公司第三十四加油站-专变-46778993-中国石油,土地局,土地局家属楼东,检察院,土地局家属楼西,聚宝隆,蠡县春和物业管理有限公司（泵房）,中国联合网络通信有限公司蠡县分公司变压器,果园东4447,东北街农排1台【纯农排变】,客户投资_垒德综合1台区,东环综合1台区,蠡县宇大房地产开发有限公司,东环综合8台区,东南街农排2台区【纯农排变】,民政局,客户投资_农发行家属楼综合1台区,蠡县人民政府防空办公室人防多媒体警报终端,水利局家属楼综合1台区,医院门脸一|03119,东环综合13台区,国税局,残联综合1台区,蠡县伽佰利服装制造有限公司,中国移动通信集团河北有限公司蠡县分公司,垒德农排三台区【纯农排变】,垒德综合2台区,义信综合一台区,职教东路灯4244,地税局家属院,李文会颗粒,地税局,圣杰喜农养殖厂有限公司,金地家园3,东环综合9台区,东环综合6台区,法院,人行小区,曹庄综合二台区,方园小区家属楼综合1台区,垒德农排8台区【纯农排变】,方圆小区,蠡县正骨门诊部变压器,建行家属院综合1台区,东城附小,北关砖厂(高计）,刘虎军,蠡县太行房地产开发有限公司,蠡县医院5052,曹庄综合三台区,垒德农排四台区【纯农排变】,方圆小区综合2台区,0683965216-保定百利达酒业有限公司-专变-223647148-保定百利达酒业有限公司,东环综合4台区,东环综合7台区,垒德农排五台区【纯农排变】,城关土地所综合1台区,垒德农排七台区【纯农排变】,东南街北农排1台区【纯农排变】,德茂,冯广信家属院综合1台区,东环综合10台区,李素棉变压器,德茂二厂,垒德板厂东浇地,财政局,垒德农排六台区【纯农排变】,0675943291-垒德吃水井-专变-216229940-垒德吃水井,东环综合12台区,东环综合5台区,医院门脸二|03127,0469338717-蠡县人民检察院-专变-216165451-蠡县人民检察院400,东环综合二台区出线间隔配电变压器,蠡县蓝天物业服务中心,卫生局,0684218164-蠡县欣都物业服务有限公司-专变-224607752-蠡县欣都物业服务有限公司,35131010|北关砖厂(小）,","scope":"【影响街道/乡镇】蠡吾镇【高危重要客户】无【影响客户】法院、地税局、国税局、技术监督局、中国联通、土地局、卫生局、医院门脸、中国移动通信、职教东路灯、中国石油加油站、蠡县春和物业公司、国税家属院、技术监督局家属院、蠡县医院、法院文体家属院、联通家属院、医院家属院、卫生局家属院、金地家园、土地局家属院、地税局家属院、方圆小区北、蓝天小区、农发行小区、人行小区、残联、财政局、民政局、方圆小区、义信小区、水利局小区、建行小区、检察院、第二实验小学、城关土地所小区、垒德村、冯广信家属院、北关砖厂","startTime":"2019-07-21 07:04:40","stopDate":"2019-07-21 09:00:00","orgNo":"1340616","typeCode":"电网故障停限电","poweroffArea":"【全线路停电】停35131010|北关砖厂(小）,建行家属院综合1台区,东城附小,北关砖厂(高计）,刘虎军,蠡县太行房地产开发有限公司,蠡县医院5052,曹庄综合三台区,垒德农排四台区【纯农排变】,金地家园3,方圆小区综合2台区,蠡县正骨门诊部变压器,0683965216-保定百利达酒业有限公司-专变-223647148-保定百利达酒业有限公司,东环综合4台区,东环综合7台区,垒德农排五台区【纯农排变】,城关土地所综合1台区,垒德农排七台区【纯农排变】,东南街北农排1台区【纯农排变】,德茂,冯广信家属院综合1台区,东环综合10台区,李素棉变压器,德茂二厂,垒德板厂东浇地,财政局,垒德农排六台区【纯农排变】,0675943291-垒德吃水井-专变-216229940-垒德吃水井,东环综合12台区,东环综合5台区,医院门脸二|03127,0469338717-蠡县人民检察院-专变-216165451-蠡县人民检察院400,东环综合二台区出线间隔配电变压器,卫生局,东北街农排1台【纯农排变】,客户投资_垒德综合1台区,东环综合1台区,蠡县宇大房地产开发有限公司,东环综合8台区,东南街农排2台区【纯农排变】,垒德综合2台区,义信综合一台区,中国联合网络通信有限公司蠡县分公司变压器,果园东4447,职教东路灯4244,东环综合9台区,东环综合6台区,东环综合11台区,垒德农排一台区【纯农排变】,方圆小区综合3台区,0683189261-蠡县兴和巴士有限公司-专变-223584100-蠡县兴和巴士有限公司,东环综合3台区,垒德农排二台区【纯农排变】,新户技术监督局,金地综合二台区箱变出线间隔配电变压器,里中东路灯,法院,0469339707-中国石油河北保定销售分公司第三十四加油站-专变-46778993-中国石油,土地局,土地局家属楼东,检察院,土地局家属楼西,方圆小区,聚宝隆,蠡县春和物业管理有限公司（泵房）,地税局家属院,李文会颗粒,地税局,圣杰喜农养殖厂有限公司,蠡县人民政府防空办公室人防多媒体警报终端,蠡县蓝天物业服务中心,人行小区,曹庄综合二台区,方园小区家属楼综合1台区,民政局,客户投资_农发行家属楼综合1台区,水利局家属楼综合1台区,医院门脸一|03119,东环综合13台区,国税局,垒德农排8台区【纯农排变】,残联综合1台区,蠡县伽佰利服装制造有限公司,中国移动通信集团河北有限公司蠡县分公司,0684218164-蠡县欣都物业服务有限公司-专变-224607752-蠡县欣都物业服务有限公司,垒德农排三台区【纯农排变】","poweroffReason":"【停电原因】由于站外开关掉闸导致１１０ＫＶ中滑变电站１０ＫＶ土地局５６３线路全线停电【变更送电】因抢修进度加快原因，送电时间由１２：００变更为０９：００【发布渠道】通过９５５９８发布","powerTime":"2019-07-21 08:23:13","powerComm":"已送电","subsNo":"","lineNo":"","tgNo":"","tgName":null,"infoStatus":"1","orgName":"国网蠡县供电公司","typeName":null,"infoStatusName":null,"dateDay":null,"orgNos":null,"nowTime":null,"countyName":null,"streetName":null,"villageName":null,"roadName":null,"communityName":null,"tranName":null,"sdLineName":null,"cityCode":"1340616","cityName":"国网蠡县供电公司","provinceCode":null,"stopTime":"2019-07-21 09:00:00","powerType":"全部","powerOffArea":"【全线路停电】停35131010|北关砖厂(小）,建行家属院综合1台区,东城附小,北关砖厂(高计）,刘虎军,蠡县太行房地产开发有限公司,蠡县医院5052,曹庄综合三台区,垒德农排四台区【纯农排变】,金地家园3,方圆小区综合2台区,蠡县正骨门诊部变压器,0683965216-保定百利达酒业有限公司-专变-223647148-保定百利达酒业有限公司,东环综合4台区,东环综合7台区,垒德农排五台区【纯农排变】,城关土地所综合1台区,垒德农排七台区【纯农排变】,东南街北农排1台区【纯农排变】,德茂,冯广信家属院综合1台区,东环综合10台区,李素棉变压器,德茂二厂,垒德板厂东浇地,财政局,垒德农排六台区【纯农排变】,0675943291-垒德吃水井-专变-216229940-垒德吃水井,东环综合12台区,东环综合5台区,医院门脸二|03127,0469338717-蠡县人民检察院-专变-216165451-蠡县人民检察院400,东环综合二台区出线间隔配电变压器,卫生局,东北街农排1台【纯农排变】,客户投资_垒德综合1台区,东环综合1台区,蠡县宇大房地产开发有限公司,东环综合8台区,东南街农排2台区【纯农排变】,垒德综合2台区,义信综合一台区,中国联合网络通信有限公司蠡县分公司变压器,果园东4447,职教东路灯4244,东环综合9台区,东环综合6台区,东环综合11台区,垒德农排一台区【纯农排变】,方圆小区综合3台区,0683189261-蠡县兴和巴士有限公司-专变-223584100-蠡县兴和巴士有限公司,东环综合3台区,垒德农排二台区【纯农排变】,新户技术监督局,金地综合二台区箱变出线间隔配电变压器,里中东路灯,法院,0469339707-中国石油河北保定销售分公司第三十四加油站-专变-46778993-中国石油,土地局,土地局家属楼东,检察院,土地局家属楼西,方圆小区,聚宝隆,蠡县春和物业管理有限公司（泵房）,地税局家属院,李文会颗粒,地税局,圣杰喜农养殖厂有限公司,蠡县人民政府防空办公室人防多媒体警报终端,蠡县蓝天物业服务中心,人行小区,曹庄综合二台区,方园小区家属楼综合1台区,民政局,客户投资_农发行家属楼综合1台区,水利局家属楼综合1台区,医院门脸一|03119,东环综合13台区,国税局,垒德农排8台区【纯农排变】,残联综合1台区,蠡县伽佰利服装制造有限公司,中国移动通信集团河北有限公司蠡县分公司,0684218164-蠡县欣都物业服务有限公司-专变-224607752-蠡县欣都物业服务有限公司,垒德农排三台区【纯农排变】","powerOffReason":"【停电原因】由于站外开关掉闸导致１１０ＫＶ中滑变电站１０ＫＶ土地局５６３线路全线停电【变更送电】因抢修进度加快原因，送电时间由１２：００变更为０９：００【发布渠道】通过９５５９８发布","powerOffId":"2019072113000045"},{"poweroffId":2019072113000039,"sgpoweroffId":null,"subsName":"","lineName":"西环512线","pubTranName":"大唐0064,唐县建宝房地产开发有限公司,客户投资_麻黄头村内1376变压器,麻黄头水利5216,麻黄头村南0016配变,西沿公用1出线间隔配电变压器,丽景花园二出线间隔配电变压器,春秋家属2405,丽景花园一出线间隔配电变压器,北京滕航房地产开发有限公司,云马塑钢厂0004,南坛北水0023配变【纯农排变】,北京腾航房地产开发有限公司10KV配变,麻黄头北0007配变,南坛村东0062,泗城涧西北配变,麻黄头北4534配变,唐县蔷薇林果种植服务农民专业合作社8230,北京腾航房地产开发有限公司新装7146,南坛南水0024配变【纯农排变】,北京腾航房地产开发有限公司新装7145,西沿公用2出线间隔配电变压器,引水工程1474,建行家属0075,麻黄头村西4959配变,金三角变压器,唐县伟峰公交客运有限公司,丽景南区6598高压出线间隔配电变压器,北京腾航房地产开发有限公司计量点p7546,丽景花园7145箱变出线间隔配电变压器,南坛西南3201配变,唐县泓盛商贸有限公司,南坛村西0021,唐县中宝新能源开发有限公司10KV配变,丽景花园四出线间隔配电变压器,北京腾航房地产开发有限公司计量点p7545,北京腾航房地产开发有限公司计量点p7544,南坛新区4815,唐县卓艺工艺品制造有限公司10KV配变,唐县腾威机动车检测服务有限公司新装7166,丽景花园出线间隔配电变压器,南关西水4602配变,唐县建宝房地产开发有限公司5136,南坛村北4773配变,丽景花园7146出线间隔配电变压器,南关西新增变压器,唐县兴华工艺玻璃店分店XZ7721,唐县鑫宇水泥制砖厂,","scope":"【影响街道/乡镇】仁厚镇、南环路、国防路【高危重要客户】无【影响客户】南坛、南关、麻黄头、丽景花园、金三角周围、唐县鑫宇水泥制砖厂、北京滕航房地产开发有限公司、河北唐龙纺织集团有限公司、唐县恒天气体有限责任公司、云马塑钢厂、保定市西大洋供水有限公司","startTime":"2019-07-21 05:43:54","stopDate":"2019-07-21 17:00:00","orgNo":"1340622","typeCode":"电网故障停限电","poweroffArea":"【全线路停电】停大唐0064,唐县建宝房地产开发有限公司,客户投资_麻黄头村内1376变压器,麻黄头水利5216,丽景花园一出线间隔配电变压器,北京滕航房地产开发有限公司,云马塑钢厂0004,南坛北水0023配变【纯农排变】,北京腾航房地产开发有限公司10KV配变,麻黄头北0007配变,唐县中宝新能源开发有限公司10KV配变,丽景花园四出线间隔配电变压器,北京腾航房地产开发有限公司计量点p7545,北京腾航房地产开发有限公司计量点p7544,南坛新区4815,唐县卓艺工艺品制造有限公司10KV配变,唐县腾威机动车检测服务有限公司新装7166,丽景花园出线间隔配电变压器,南关西水4602配变,唐县建宝房地产开发有限公司5136,南坛村东0062,泗城涧西北配变,麻黄头北4534配变,唐县蔷薇林果种植服务农民专业合作社8230,北京腾航房地产开发有限公司新装7146,南坛南水0024配变【纯农排变】,北京腾航房地产开发有限公司新装7145,西沿公用2出线间隔配电变压器,引水工程1474,建行家属0075,麻黄头村西4959配变,金三角变压器,唐县伟峰公交客运有限公司,丽景南区6598高压出线间隔配电变压器,北京腾航房地产开发有限公司计量点p7546,丽景花园7145箱变出线间隔配电变压器,南坛西南3201配变,唐县泓盛商贸有限公司,麻黄头村南0016配变,西沿公用1出线间隔配电变压器,丽景花园二出线间隔配电变压器,春秋家属2405,南坛村西0021,南坛村北4773配变,丽景花园7146出线间隔配电变压器,南关西新增变压器,唐县兴华工艺玻璃店分店XZ7721,唐县鑫宇水泥制砖厂","poweroffReason":"【停电原因】由于线路接地导致１１０ＫＶ唐县变电站西环５１２线路全线停电【变更送电】因抢修进度加快原因，送电时间由１８：００变更为１７：００【发布渠道】通过９５５９８发布","powerTime":"2019-07-21 16:23:06","powerComm":"已送电","subsNo":"","lineNo":"","tgNo":"","tgName":null,"infoStatus":"1","orgName":"国网唐县供电公司","typeName":null,"infoStatusName":null,"dateDay":null,"orgNos":null,"nowTime":null,"countyName":null,"streetName":null,"villageName":null,"roadName":null,"communityName":null,"tranName":null,"sdLineName":null,"cityCode":"1340622","cityName":"国网唐县供电公司","provinceCode":null,"stopTime":"2019-07-21 17:00:00","powerType":"全部","powerOffArea":"【全线路停电】停大唐0064,唐县建宝房地产开发有限公司,客户投资_麻黄头村内1376变压器,麻黄头水利5216,丽景花园一出线间隔配电变压器,北京滕航房地产开发有限公司,云马塑钢厂0004,南坛北水0023配变【纯农排变】,北京腾航房地产开发有限公司10KV配变,麻黄头北0007配变,唐县中宝新能源开发有限公司10KV配变,丽景花园四出线间隔配电变压器,北京腾航房地产开发有限公司计量点p7545,北京腾航房地产开发有限公司计量点p7544,南坛新区4815,唐县卓艺工艺品制造有限公司10KV配变,唐县腾威机动车检测服务有限公司新装7166,丽景花园出线间隔配电变压器,南关西水4602配变,唐县建宝房地产开发有限公司5136,南坛村东0062,泗城涧西北配变,麻黄头北4534配变,唐县蔷薇林果种植服务农民专业合作社8230,北京腾航房地产开发有限公司新装7146,南坛南水0024配变【纯农排变】,北京腾航房地产开发有限公司新装7145,西沿公用2出线间隔配电变压器,引水工程1474,建行家属0075,麻黄头村西4959配变,金三角变压器,唐县伟峰公交客运有限公司,丽景南区6598高压出线间隔配电变压器,北京腾航房地产开发有限公司计量点p7546,丽景花园7145箱变出线间隔配电变压器,南坛西南3201配变,唐县泓盛商贸有限公司,麻黄头村南0016配变,西沿公用1出线间隔配电变压器,丽景花园二出线间隔配电变压器,春秋家属2405,南坛村西0021,南坛村北4773配变,丽景花园7146出线间隔配电变压器,南关西新增变压器,唐县兴华工艺玻璃店分店XZ7721,唐县鑫宇水泥制砖厂","powerOffReason":"【停电原因】由于线路接地导致１１０ＫＶ唐县变电站西环５１２线路全线停电【变更送电】因抢修进度加快原因，送电时间由１８：００变更为１７：００【发布渠道】通过９５５９８发布","powerOffId":"2019072113000039"},{"poweroffId":2019072113000037,"sgpoweroffId":null,"subsName":"","lineName":"岳佐线514","pubTranName":"高阳县高阳镇北圈头村村民委员会变压器2号【纯农排变】,中国石油华北油田采油一厂,宋志刚,土产建材公司,河北华北石油天成实业集团有限公司变压器,岳佐10#村北综合,10108|书店小区综合,岳佐学校13号综合,岳佐5#大队院东北综合,北圈头1#村西南123农排【纯农排变】,岳佐17号新增综合变压器,河北鼎韵电子有限公司变压器,雷雨纺织品有限公司,岳佐9#学校西综合,任丘华北石油科信采油技术研究开发有限公司,岳佐4#大队院东南综合,骆屯2#综合,高阳县益康染织有限责任公司变压器,北圈头2#村北124农排【纯农排变】,岳佐8#学校东综合,岳佐1#村西综合,岳佐村南14号综合,万达印染有限公司,岳佐12＃综合台区,高阳县万达印染有限公司变压器,岳佐石豹,北圈头张广玉,中国石油天然气股份有限公司华北油田分公司变压器,岳佐16号新增综合变压器,刘玉斋,北圈头6#东北角综合,高阳县星韬钢材经销部变压器,高阳县高阳镇北圈头村村民委员会变压器1号【纯农排变】,岳佐2#村南107农排【纯农排变】,高阳县颂和毛巾厂,亚强纺织品公司,玉麒麟纺织有限公司变压器,北圈头村东14号综合,岳佐毛巾一厂,高阳县益康染织有限责任公司,宏兴染厂,骆屯1#综合,岳佐3#大队院西综合,高阳县光华毛巾厂,岳佐15号村北综合,万达染厂(子),岳佐2#村西综合,北圈头3#村东南125农排【纯农排变】,恒润纺织有限公司,高阳县利生纺织有限公司变压器,岳佐11#村北综合,玉麒麟纺织有限公司,海涛纺织品公司,","scope":"【影响街道/乡镇】城关镇 【高危重要客户】无 【影响客户】北圈头村村南、东南、村东北部分、岳佐村村南、村西、村里、村北部分、骆屯村全村","startTime":"2019-07-21 05:40:46","stopDate":"2019-07-21 07:00:00","orgNo":"1340613","typeCode":"电网故障停限电","poweroffArea":"【全线路停电】停万达染厂(子),任丘华北石油科信采油技术研究开发有限公司,骆屯2#综合,北圈头张广玉,海涛纺织品公司,土产建材公司,骆屯1#综合,岳佐10#村北综合,10108|书店小区综合,亚强纺织品公司,万达印染有限公司,岳佐3#大队院西综合,岳佐村南14号综合,高阳县星韬钢材经销部变压器,玉麒麟纺织有限公司,高阳县益康染织有限责任公司变压器,北圈头6#东北角综合,岳佐8#学校东综合,玉麒麟纺织有限公司变压器,岳佐4#大队院东南综合,宏兴染厂,岳佐毛巾一厂,北圈头2#村北124农排【纯农排变】,河北华北石油天成实业集团有限公司变压器,高阳县益康染织有限责任公司,高阳县颂和毛巾厂,高阳县万达印染有限公司变压器,岳佐12＃综合台区,高阳县利生纺织有限公司变压器,宋志刚,岳佐学校13号综合,北圈头村东14号综合,刘玉斋,高阳县高阳镇北圈头村村民委员会变压器2号【纯农排变】,岳佐2#村西综合,中国石油天然气股份有限公司华北油田分公司变压器,河北鼎韵电子有限公司变压器,高阳县高阳镇北圈头村村民委员会变压器1号【纯农排变】,北圈头3#村东南125农排【纯农排变】,雷雨纺织品有限公司,北圈头1#村西南123农排【纯农排变】,岳佐16号新增综合变压器,岳佐15号村北综合,岳佐5#大队院东北综合,恒润纺织有限公司,中国石油华北油田采油一厂,岳佐石豹,岳佐1#村西综合,高阳县光华毛巾厂,岳佐9#学校西综合,岳佐11#村北综合,岳佐17号新增综合变压器,岳佐2#村南107农排【纯农排变】","poweroffReason":"【停电原因】由于第三方施工挖断电缆导致３５ＫＶ城南变电站岳佐５１４线路全线停电【变更送电】因抢修进度加快原因，送电时间由０９：００变更为０７：００【发布渠道】通过９５５９８发布","powerTime":"2019-07-21 06:34:33","powerComm":"已送电","subsNo":"","lineNo":"","tgNo":"","tgName":null,"infoStatus":"1","orgName":"国网高阳县供电公司","typeName":null,"infoStatusName":null,"dateDay":null,"orgNos":null,"nowTime":null,"countyName":null,"streetName":null,"villageName":null,"roadName":null,"communityName":null,"tranName":null,"sdLineName":null,"cityCode":"1340613","cityName":"国网高阳县供电公司","provinceCode":null,"stopTime":"2019-07-21 07:00:00","powerType":"全部","powerOffArea":"【全线路停电】停万达染厂(子),任丘华北石油科信采油技术研究开发有限公司,骆屯2#综合,北圈头张广玉,海涛纺织品公司,土产建材公司,骆屯1#综合,岳佐10#村北综合,10108|书店小区综合,亚强纺织品公司,万达印染有限公司,岳佐3#大队院西综合,岳佐村南14号综合,高阳县星韬钢材经销部变压器,玉麒麟纺织有限公司,高阳县益康染织有限责任公司变压器,北圈头6#东北角综合,岳佐8#学校东综合,玉麒麟纺织有限公司变压器,岳佐4#大队院东南综合,宏兴染厂,岳佐毛巾一厂,北圈头2#村北124农排【纯农排变】,河北华北石油天成实业集团有限公司变压器,高阳县益康染织有限责任公司,高阳县颂和毛巾厂,高阳县万达印染有限公司变压器,岳佐12＃综合台区,高阳县利生纺织有限公司变压器,宋志刚,岳佐学校13号综合,北圈头村东14号综合,刘玉斋,高阳县高阳镇北圈头村村民委员会变压器2号【纯农排变】,岳佐2#村西综合,中国石油天然气股份有限公司华北油田分公司变压器,河北鼎韵电子有限公司变压器,高阳县高阳镇北圈头村村民委员会变压器1号【纯农排变】,北圈头3#村东南125农排【纯农排变】,雷雨纺织品有限公司,北圈头1#村西南123农排【纯农排变】,岳佐16号新增综合变压器,岳佐15号村北综合,岳佐5#大队院东北综合,恒润纺织有限公司,中国石油华北油田采油一厂,岳佐石豹,岳佐1#村西综合,高阳县光华毛巾厂,岳佐9#学校西综合,岳佐11#村北综合,岳佐17号新增综合变压器,岳佐2#村南107农排【纯农排变】","powerOffReason":"【停电原因】由于第三方施工挖断电缆导致３５ＫＶ城南变电站岳佐５１４线路全线停电【变更送电】因抢修进度加快原因，送电时间由０９：００变更为０７：００【发布渠道】通过９５５９８发布","powerOffId":"2019072113000037"},{"poweroffId":2019072113000034,"sgpoweroffId":null,"subsName":"","lineName":"电力局线512","pubTranName":"高阳县纺织商贸城管理委员会变压器,高阳县纺织商贸城管理委员会,高阳县医院变压器,张彦明,10086|商贸城小区2号综合,电力局旧2#,黄卫民,职工医院,10040|五金小区综合,县医院,高阳县医院,黄新民,五金公司,高阳县供销合作社联合社变压器,县医院X光,10049|保险局家属院综合,高阳县水利局,10089|东环路配变综合,李占峰,高阳县纺织商贸管理委员会2#,10023|东街2号综合,南关社区,新南环路灯,10079|防疫站综合,新毛巾市场(3#),10026|县社生活小区综合,10029|东街大楼综合,水务局,商贸城锅炉2#,工商局,河北宏润新型面料有限公司,","scope":"【影响街道/乡镇】高阳镇、城关镇、商业街、东街、东环路 【高危重要客户】县医院、职工医院 【影响客户】保险局家属院、县社生活小区、五金小区、东街大楼、商贸城小区、防疫站、巨马宾馆","startTime":"2019-07-21 05:39:43","stopDate":"2019-07-21 07:20:00","orgNo":"1340613","typeCode":"电网故障停限电","poweroffArea":"【全线路停电】停高阳县水利局,10089|东环路配变综合,李占峰,高阳县纺织商贸管理委员会2#,10023|东街2号综合,南关社区,新南环路灯,10079|防疫站综合,新毛巾市场(3#),10026|县社生活小区综合,10029|东街大楼综合,水务局,商贸城锅炉2#,工商局,河北宏润新型面料有限公司,高阳县纺织商贸城管理委员会变压器,高阳县纺织商贸城管理委员会,高阳县医院变压器,张彦明,10086|商贸城小区2号综合,电力局旧2#,黄卫民,职工医院,10040|五金小区综合,县医院,高阳县医院,黄新民,五金公司,高阳县供销合作社联合社变压器,县医院X光,10049|保险局家属院综合","poweroffReason":"【停电原因】由于汽车撞杆导致３５ＫＶ城南变电站电力局５１２线路全线停电【变更送电】因抢修进度加快原因，送电时间由０９：００变更为０７：２０【发布渠道】通过９５５９８发布","powerTime":"2019-07-21 06:57:00","powerComm":"已送电","subsNo":"","lineNo":"","tgNo":"","tgName":null,"infoStatus":"1","orgName":"国网高阳县供电公司","typeName":null,"infoStatusName":null,"dateDay":null,"orgNos":null,"nowTime":null,"countyName":null,"streetName":null,"villageName":null,"roadName":null,"communityName":null,"tranName":null,"sdLineName":null,"cityCode":"1340613","cityName":"国网高阳县供电公司","provinceCode":null,"stopTime":"2019-07-21 07:20:00","powerType":"全部","powerOffArea":"【全线路停电】停高阳县水利局,10089|东环路配变综合,李占峰,高阳县纺织商贸管理委员会2#,10023|东街2号综合,南关社区,新南环路灯,10079|防疫站综合,新毛巾市场(3#),10026|县社生活小区综合,10029|东街大楼综合,水务局,商贸城锅炉2#,工商局,河北宏润新型面料有限公司,高阳县纺织商贸城管理委员会变压器,高阳县纺织商贸城管理委员会,高阳县医院变压器,张彦明,10086|商贸城小区2号综合,电力局旧2#,黄卫民,职工医院,10040|五金小区综合,县医院,高阳县医院,黄新民,五金公司,高阳县供销合作社联合社变压器,县医院X光,10049|保险局家属院综合","powerOffReason":"【停电原因】由于汽车撞杆导致３５ＫＶ城南变电站电力局５１２线路全线停电【变更送电】因抢修进度加快原因，送电时间由０９：００变更为０７：２０【发布渠道】通过９５５９８发布","powerOffId":"2019072113000034"},{"poweroffId":2019072113000024,"sgpoweroffId":null,"subsName":"","lineName":"邢果庄线516","pubTranName":"赵口村正南综合,邢果庄村西南综合,高阳县南蒲口乡赵口村七号变压器,赵口村西北综合,高阳县南蒲口乡赵口村三号变压器,北陶口北1#36综合,高阳县南蒲口乡邢果庄村委会三变压器,友谊毛纺有限公司,北陶口南2#25综合,高阳县南蒲口乡邢果庄村委会四变压器,邢果庄村南综合,北陶口安新地农业变压器,高阳县南蒲口乡邢果庄村委会二变压器,赵口农业,北陶口村南2号综合,高阳县南蒲口乡赵口村一号变压器,北陶口村北农业变压器,邢果庄村北变综合,赵口二中队,成都华川公路建设集团有限公司变压器,赵口砖厂,赵口农厂,高阳县南蒲口乡邢果庄村委会一变压器,赵口村南综合,赵口村北综合,高阳县南蒲口乡北陶口村变压器,陶口店村里2号综合,邢果庄西变综合,高阳县南蒲口乡赵口村九号变压器,北陶口西北综合,高阳县南蒲口乡赵口村十号变压器,北陶口农业,高阳县南蒲口乡邢果庄村委会五变压器,邢果庄东北综合,高阳县南蒲口乡赵口村五号台区,赵口村东综合,高阳县南蒲口乡赵口村六号变压器,赵口村东北综合,杨全轧花厂,高阳县南蒲口乡赵口村八号变压器,赵口村西综合,邢果庄农业,赵口村东南综合,赵口村西南综合,","scope":"【影响街道/乡镇】蒲口乡 【高危重要客户】无 【影响客户】邢果庄村、赵口村北、北陶口村部分","startTime":"2019-07-21 03:26:14","stopDate":"2019-07-21 04:20:00","orgNo":"1340613","typeCode":"电网故障停限电","poweroffArea":"【全线路停电】停赵口村南综合,陶口店村里2号综合,友谊毛纺有限公司,赵口村西综合,邢果庄村北变综合,高阳县南蒲口乡赵口村八号变压器,赵口二中队,赵口砖厂,北陶口村南2号综合,赵口村西北综合,邢果庄西变综合,杨全轧花厂,高阳县南蒲口乡邢果庄村委会一变压器,赵口农厂,高阳县南蒲口乡邢果庄村委会五变压器,高阳县南蒲口乡赵口村六号变压器,北陶口村北农业变压器,赵口农业,赵口村正南综合,北陶口农业,北陶口西北综合,高阳县南蒲口乡邢果庄村委会二变压器,高阳县南蒲口乡赵口村十号变压器,高阳县南蒲口乡赵口村九号变压器,邢果庄东北综合,成都华川公路建设集团有限公司变压器,赵口村东南综合,赵口村东综合,高阳县南蒲口乡邢果庄村委会三变压器,邢果庄农业,高阳县南蒲口乡赵口村七号变压器,赵口村北综合,赵口村东北综合,高阳县南蒲口乡邢果庄村委会四变压器,北陶口南2#25综合,北陶口安新地农业变压器,高阳县南蒲口乡北陶口村变压器,邢果庄村西南综合,赵口村西南综合,高阳县南蒲口乡赵口村三号变压器,高阳县南蒲口乡赵口村五号台区,高阳县南蒲口乡赵口村一号变压器,北陶口北1#36综合,邢果庄村南综合","poweroffReason":"【停电原因】由于汽车撞杆导致３５ＫＶ赵口变电站邢果庄５１６线路全线停电【变更送电】因抢修进度加快原因，送电时间由０９：００变更为０４：２０【发布渠道】通过９５５９８发布","powerTime":"2019-07-21 04:04:25","powerComm":"已送电","subsNo":"","lineNo":"","tgNo":"","tgName":null,"infoStatus":"1","orgName":"国网高阳县供电公司","typeName":null,"infoStatusName":null,"dateDay":null,"orgNos":null,"nowTime":null,"countyName":null,"streetName":null,"villageName":null,"roadName":null,"communityName":null,"tranName":null,"sdLineName":null,"cityCode":"1340613","cityName":"国网高阳县供电公司","provinceCode":null,"stopTime":"2019-07-21 04:20:00","powerType":"全部","powerOffArea":"【全线路停电】停赵口村南综合,陶口店村里2号综合,友谊毛纺有限公司,赵口村西综合,邢果庄村北变综合,高阳县南蒲口乡赵口村八号变压器,赵口二中队,赵口砖厂,北陶口村南2号综合,赵口村西北综合,邢果庄西变综合,杨全轧花厂,高阳县南蒲口乡邢果庄村委会一变压器,赵口农厂,高阳县南蒲口乡邢果庄村委会五变压器,高阳县南蒲口乡赵口村六号变压器,北陶口村北农业变压器,赵口农业,赵口村正南综合,北陶口农业,北陶口西北综合,高阳县南蒲口乡邢果庄村委会二变压器,高阳县南蒲口乡赵口村十号变压器,高阳县南蒲口乡赵口村九号变压器,邢果庄东北综合,成都华川公路建设集团有限公司变压器,赵口村东南综合,赵口村东综合,高阳县南蒲口乡邢果庄村委会三变压器,邢果庄农业,高阳县南蒲口乡赵口村七号变压器,赵口村北综合,赵口村东北综合,高阳县南蒲口乡邢果庄村委会四变压器,北陶口南2#25综合,北陶口安新地农业变压器,高阳县南蒲口乡北陶口村变压器,邢果庄村西南综合,赵口村西南综合,高阳县南蒲口乡赵口村三号变压器,高阳县南蒲口乡赵口村五号台区,高阳县南蒲口乡赵口村一号变压器,北陶口北1#36综合,邢果庄村南综合","powerOffReason":"【停电原因】由于汽车撞杆导致３５ＫＶ赵口变电站邢果庄５１６线路全线停电【变更送电】因抢修进度加快原因，送电时间由０９：００变更为０４：２０【发布渠道】通过９５５９８发布","powerOffId":"2019072113000024"},{"poweroffId":2019072013000297,"sgpoweroffId":null,"subsName":"","lineName":"下北头线519","pubTranName":"宝泽峰矿业公司,天美旅游开发有限公司变压器,519下北头线斗军湾1,519下北头线下北头北,519下北头线灵吉2,519下北头线庄伙4,涞源县白石山镇卫生院变压器,斗军湾村4号【2018光伏扶贫电站】,519下北头线斗军湾4,涞源县森木养殖场变压器,白石山镇政府,冀北养殖园变压器,通达铸造厂,斗军湾村2号【2018光伏扶贫电站】,涞源县金猪旺畜禽养殖有限公司变压器,中国人民解放军61469部队32分队变压器,涞源县住房和城乡建设局变压器,变压器,涞源县白石山镇中心小学灵吉小学变压器,河北中凯建设工程有限公司变压器,519下北头线斗军湾2,中国移动通信集团河北有限公司涞源分公司变压器,华中云栖白桦温泉健身变压器,519下北头线下北头5台区,斗军湾草碳厂,61469营部,菜村岗中学,519下北头线庄伙1,519下北头线斗军湾3,涞源县谷润农副食品加工厂有限公司变压器,石窝台区,519下北头线庄伙2,下北头村光伏变压器【光伏】,519下北头线灵吉1,涞源县太行建筑有限公司变压器,斗军湾村3号【2018光伏扶贫电站】,519下北头线庄伙6,519下北头线庄伙3,519下北头线灵吉3,0687945250-涞源华中假日酒店有限公司-专变-228705676-涞源华中假日酒店有限公司变压器6,519下北头线下北头南,519下北头线庄伙5,涞源县明德小学变压器,涞源华中房地产开发有限公司变压器,519下北头线菜村岗1,斗军湾村1号【2018光伏扶贫电站】,奥强铁选厂,菜村岗村光伏变压器【光伏】,涞源县白石山镇石窝村村民委员会变压器,涞源县白石山镇菜村岗村村民委员会变压器,涞源华中假日酒店有限公司变压器,石窝3台区,519下北头线菜村岗2,石窝2台区,民爆公司,斗军湾村5台区变压器,菜村岗4台区,金猪旺养殖公司,龙腾草炭厂2,涞源县长信房地产开发有限公司变压器,","scope":"【影响街道/乡镇】白石山镇【高危重要客户】无【影响客户】下北头村、庄伙、菜村岗、斗军湾、灵吉、石窝、灵溪村、莲花峰度假小镇","startTime":"2019-07-20 18:10:00","stopDate":"2019-07-20 23:50:00","orgNo":"1340615","typeCode":"电网故障停限电","poweroffArea":"【全线路停电】停涞源华中房地产开发有限公司变压器,519下北头线菜村岗1,斗军湾村1号【2018光伏扶贫电站】,奥强铁选厂,菜村岗村光伏变压器【光伏】,涞源县白石山镇石窝村村民委员会变压器,涞源县白石山镇菜村岗村村民委员会变压器,涞源华中假日酒店有限公司变压器,石窝3台区,519下北头线菜村岗2,石窝2台区,民爆公司,斗军湾村5台区变压器,菜村岗4台区,金猪旺养殖公司,龙腾草炭厂2,涞源县长信房地产开发有限公司变压器,宝泽峰矿业公司,天美旅游开发有限公司变压器,519下北头线斗军湾1,519下北头线下北头北,519下北头线灵吉2,519下北头线庄伙4,涞源县白石山镇卫生院变压器,斗军湾村4号【2018光伏扶贫电站】,519下北头线斗军湾4,涞源县森木养殖场变压器,白石山镇政府,冀北养殖园变压器,通达铸造厂,斗军湾村2号【2018光伏扶贫电站】,涞源县金猪旺畜禽养殖有限公司变压器,中国人民解放军61469部队32分队变压器,涞源县住房和城乡建设局变压器,变压器,涞源县白石山镇中心小学灵吉小学变压器,河北中凯建设工程有限公司变压器,519下北头线斗军湾2,中国移动通信集团河北有限公司涞源分公司变压器,华中云栖白桦温泉健身变压器,519下北头线下北头5台区,斗军湾草碳厂,61469营部,菜村岗中学,519下北头线庄伙1,519下北头线斗军湾3,涞源县谷润农副食品加工厂有限公司变压器,石窝台区,519下北头线庄伙2,519下北头线灵吉1,涞源县太行建筑有限公司变压器,斗军湾村3号【2018光伏扶贫电站】,下北头村光伏变压器【光伏】,519下北头线庄伙6,519下北头线庄伙3,519下北头线灵吉3,0687945250-涞源华中假日酒店有限公司-专变-228705676-涞源华中假日酒店有限公司变压器6,519下北头线下北头南,519下北头线庄伙5,涞源县明德小学变压器","poweroffReason":"【停电原因】由于线路开关掉闸导致１１０ＫＶ涞源变电站１０ＫＶ下北头线５１９线路全线停电【变更送电】无【发布渠道】通过９５５９８发布","powerTime":"2019-07-20 23:24:15","powerComm":"已送电","subsNo":"","lineNo":"","tgNo":"","tgName":null,"infoStatus":"1","orgName":"国网涞源县供电公司","typeName":null,"infoStatusName":null,"dateDay":null,"orgNos":null,"nowTime":null,"countyName":null,"streetName":null,"villageName":null,"roadName":null,"communityName":null,"tranName":null,"sdLineName":null,"cityCode":"1340615","cityName":"国网涞源县供电公司","provinceCode":null,"stopTime":"2019-07-20 23:50:00","powerType":"全部","powerOffArea":"【全线路停电】停涞源华中房地产开发有限公司变压器,519下北头线菜村岗1,斗军湾村1号【2018光伏扶贫电站】,奥强铁选厂,菜村岗村光伏变压器【光伏】,涞源县白石山镇石窝村村民委员会变压器,涞源县白石山镇菜村岗村村民委员会变压器,涞源华中假日酒店有限公司变压器,石窝3台区,519下北头线菜村岗2,石窝2台区,民爆公司,斗军湾村5台区变压器,菜村岗4台区,金猪旺养殖公司,龙腾草炭厂2,涞源县长信房地产开发有限公司变压器,宝泽峰矿业公司,天美旅游开发有限公司变压器,519下北头线斗军湾1,519下北头线下北头北,519下北头线灵吉2,519下北头线庄伙4,涞源县白石山镇卫生院变压器,斗军湾村4号【2018光伏扶贫电站】,519下北头线斗军湾4,涞源县森木养殖场变压器,白石山镇政府,冀北养殖园变压器,通达铸造厂,斗军湾村2号【2018光伏扶贫电站】,涞源县金猪旺畜禽养殖有限公司变压器,中国人民解放军61469部队32分队变压器,涞源县住房和城乡建设局变压器,变压器,涞源县白石山镇中心小学灵吉小学变压器,河北中凯建设工程有限公司变压器,519下北头线斗军湾2,中国移动通信集团河北有限公司涞源分公司变压器,华中云栖白桦温泉健身变压器,519下北头线下北头5台区,斗军湾草碳厂,61469营部,菜村岗中学,519下北头线庄伙1,519下北头线斗军湾3,涞源县谷润农副食品加工厂有限公司变压器,石窝台区,519下北头线庄伙2,519下北头线灵吉1,涞源县太行建筑有限公司变压器,斗军湾村3号【2018光伏扶贫电站】,下北头村光伏变压器【光伏】,519下北头线庄伙6,519下北头线庄伙3,519下北头线灵吉3,0687945250-涞源华中假日酒店有限公司-专变-228705676-涞源华中假日酒店有限公司变压器6,519下北头线下北头南,519下北头线庄伙5,涞源县明德小学变压器","powerOffReason":"【停电原因】由于线路开关掉闸导致１１０ＫＶ涞源变电站１０ＫＶ下北头线５１９线路全线停电【变更送电】无【发布渠道】通过９５５９８发布","powerOffId":"2019072013000297"},{"poweroffId":2019072013000291,"sgpoweroffId":null,"subsName":"","lineName":"谢房营523电缆","pubTranName":"谢坊营1号【纯农排变】,谢坊营8号【纯农排变】,谢坊营21号,付村14号,谢坊17号【纯农排变】,谢坊营16号【纯农排变】,谢坊营17号【纯农排变】,谢坊20号【纯农排变】,付村6号【纯农排变】,付村9号【纯农排变】,谢坊营7号【纯农排变】,付村10号,付村8号【纯农排变】,谢坊营18号【纯农排变】,谢坊营4号,谢坊5号,谢坊2号,谢坊14号,谢坊8号,谢坊营29号,谢坊营27号,谢坊27号,付村16台区【纯农排变】,谢坊营28号,谢坊营14号【纯农排变】,谢坊营20号,谢坊24号【纯农排变】,谢坊营9号,谢坊营10号,谢坊营13号,谢坊7号,谢坊营26号,谢坊营5号,谢坊营25号,付村4号【纯农排变】,谢坊营2号,谢坊营3号,付村2号,谢坊26号,谢坊营19号,谢坊营23号【纯农排变】,谢坊23号,谢坊4号【纯农排变】,谢坊营12号【纯农排变】,谢坊营15号【纯农排变】,谢坊16号,谢坊10号,谢坊营24号【纯农排变】,","scope":"【影响街道/乡镇】遂城镇 【高危重要客户】无 【影响客户】付村、谢坊营村、谢坊村","startTime":"2019-07-20 22:45:59","stopDate":"2019-07-21 00:00:00","orgNo":"1340605","typeCode":"电网故障停限电","poweroffArea":"【全线路停电】停付村10号,谢坊20号【纯农排变】,谢坊16号,谢坊27号,谢坊26号,谢坊营29号,谢坊营27号,谢坊营7号【纯农排变】,谢坊营21号,谢坊营19号,谢坊营4号,谢坊营5号,谢坊营28号,谢坊营3号,谢坊5号,谢坊营24号【纯农排变】,谢坊营17号【纯农排变】,谢坊10号,付村2号,付村4号【纯农排变】,谢坊24号【纯农排变】,付村14号,谢坊23号,谢坊营9号,谢坊2号,付村6号【纯农排变】,谢坊17号【纯农排变】,付村8号【纯农排变】,付村9号【纯农排变】,谢坊14号,谢坊营16号【纯农排变】,谢坊营12号【纯农排变】,谢坊7号,谢坊营1号【纯农排变】,谢坊营18号【纯农排变】,谢坊营8号【纯农排变】,谢坊营23号【纯农排变】,谢坊4号【纯农排变】,付村16台区【纯农排变】,谢坊营10号,谢坊营13号,谢坊营20号,谢坊营15号【纯农排变】,谢坊营14号【纯农排变】,谢坊营25号,谢坊8号,谢坊营26号,谢坊营2号","poweroffReason":"【停电原因】由于Ｂ相接地导致１１０ＫＶ遂城变电站谢坊营５２３线路全线停电 【变更送电】因抢修进度加快原因，送电时间由２１日０１:００变更为００:００ 【发布渠道】通过９５５９８发布","powerTime":"2019-07-20 23:35:32","powerComm":"已送电","subsNo":"","lineNo":"","tgNo":"","tgName":null,"infoStatus":"1","orgName":"国网徐水县供电公司","typeName":null,"infoStatusName":null,"dateDay":null,"orgNos":null,"nowTime":null,"countyName":null,"streetName":null,"villageName":null,"roadName":null,"communityName":null,"tranName":null,"sdLineName":null,"cityCode":"1340605","cityName":"国网徐水县供电公司","provinceCode":null,"stopTime":"2019-07-21 00:00:00","powerType":"全部","powerOffArea":"【全线路停电】停付村10号,谢坊20号【纯农排变】,谢坊16号,谢坊27号,谢坊26号,谢坊营29号,谢坊营27号,谢坊营7号【纯农排变】,谢坊营21号,谢坊营19号,谢坊营4号,谢坊营5号,谢坊营28号,谢坊营3号,谢坊5号,谢坊营24号【纯农排变】,谢坊营17号【纯农排变】,谢坊10号,付村2号,付村4号【纯农排变】,谢坊24号【纯农排变】,付村14号,谢坊23号,谢坊营9号,谢坊2号,付村6号【纯农排变】,谢坊17号【纯农排变】,付村8号【纯农排变】,付村9号【纯农排变】,谢坊14号,谢坊营16号【纯农排变】,谢坊营12号【纯农排变】,谢坊7号,谢坊营1号【纯农排变】,谢坊营18号【纯农排变】,谢坊营8号【纯农排变】,谢坊营23号【纯农排变】,谢坊4号【纯农排变】,付村16台区【纯农排变】,谢坊营10号,谢坊营13号,谢坊营20号,谢坊营15号【纯农排变】,谢坊营14号【纯农排变】,谢坊营25号,谢坊8号,谢坊营26号,谢坊营2号","powerOffReason":"【停电原因】由于Ｂ相接地导致１１０ＫＶ遂城变电站谢坊营５２３线路全线停电 【变更送电】因抢修进度加快原因，送电时间由２１日０１:００变更为００:００ 【发布渠道】通过９５５９８发布","powerOffId":"2019072013000291"},{"poweroffId":2019072013000269,"sgpoweroffId":null,"subsName":"","lineName":"10kV崔闸站562线路","pubTranName":"C493柱上变压器,C491柱上变压器,C287柱上变压器,C288柱上变压器,","scope":"【影响街道/乡镇】南奇乡 【高危重要客户】无 【影响客户】贾庄村、谢庄村","startTime":"2019-07-21 04:00:00","stopDate":"2019-07-21 08:00:00","orgNo":"13406","typeCode":"其他临时停电","poweroffArea":"【分支停电】停C493柱上变压器,C491柱上变压器,C287柱上变压器,C288柱上变压器","poweroffReason":"【停电原因】由于电杆倾斜需停电进行紧急抢修导致１０ＫＶ崔闸变电站５６２线路１３４号西分支开关以下停电【变更送电】无【发布渠道】通过９５５９８发布","powerTime":"2019-07-21 07:32:27","powerComm":"已送电","subsNo":"","lineNo":"","tgNo":"","tgName":null,"infoStatus":"1","orgName":"保定供电公司","typeName":null,"infoStatusName":null,"dateDay":null,"orgNos":null,"nowTime":null,"countyName":null,"streetName":null,"villageName":null,"roadName":null,"communityName":null,"tranName":null,"sdLineName":null,"cityCode":"13406","cityName":"保定供电公司","provinceCode":null,"stopTime":"2019-07-21 08:00:00","powerType":"全部","powerOffArea":"【分支停电】停C493柱上变压器,C491柱上变压器,C287柱上变压器,C288柱上变压器","powerOffReason":"【停电原因】由于电杆倾斜需停电进行紧急抢修导致１０ＫＶ崔闸变电站５６２线路１３４号西分支开关以下停电【变更送电】无【发布渠道】通过９５５９８发布","powerOffId":"2019072013000269"}],"pageModel":{"pageNow":801,"totalCount":10973,"totalPage":1098,"tableRows":0,"pageCount":10,"beginCount":8000},"isExperi":"1"}