{"message":"","today":"2020-06-15","seleList":[{"poweroffId":2019071813000372,"sgpoweroffId":null,"subsName":"","lineName":"防陵线515","pubTranName":"防陵28号,","scope":"【影响街道/乡镇】大因镇 【高危重要客户】无 【影响客户】防陵村","startTime":"2019-07-19 08:00:00","stopDate":"2019-07-19 18:00:00","orgNo":"1340605","typeCode":"其他临时停电","poweroffArea":"【单台区停电】停防陵28号","poweroffReason":"【停电原因】由于处理紧急缺陷导致３５ＫＶ大因变电站防陵线５１５线路防陵２８号公变台区停电 【变更送电】无 【发布渠道】通过９５５９８发布","powerTime":"2019-07-19 17:50:38","powerComm":"已送电","subsNo":"","lineNo":"","tgNo":"","tgName":null,"infoStatus":"1","orgName":"国网徐水县供电公司","typeName":null,"infoStatusName":null,"dateDay":null,"orgNos":null,"nowTime":null,"countyName":null,"streetName":null,"villageName":null,"roadName":null,"communityName":null,"tranName":null,"sdLineName":null,"cityCode":"1340605","cityName":"国网徐水县供电公司","provinceCode":null,"stopTime":"2019-07-19 18:00:00","powerType":"全部","powerOffArea":"【单台区停电】停防陵28号","powerOffReason":"【停电原因】由于处理紧急缺陷导致３５ＫＶ大因变电站防陵线５１５线路防陵２８号公变台区停电 【变更送电】无 【发布渠道】通过９５５９８发布","powerOffId":"2019071813000372"},{"poweroffId":2019071813000368,"sgpoweroffId":null,"subsName":"","lineName":"迪城线577","pubTranName":"李迪城15号【纯农排变】,","scope":"【影响街道/乡镇】大因镇 【高危重要客户】无 【影响客户】李迪城村","startTime":"2019-07-19 08:00:00","stopDate":"2019-07-19 18:00:00","orgNo":"1340605","typeCode":"其他临时停电","poweroffArea":"【单台区停电】停李迪城15号【纯农排变】","poweroffReason":"【停电原因】由于处理紧急缺陷导致１１０ＫＶ沙口变电站迪城线５７７线路李迪城１５号公变台区停电 【变更送电】无 【发布渠道】通过９５５９８发布","powerTime":"2019-07-19 17:50:24","powerComm":"已送电","subsNo":"","lineNo":"","tgNo":"","tgName":null,"infoStatus":"1","orgName":"国网徐水县供电公司","typeName":null,"infoStatusName":null,"dateDay":null,"orgNos":null,"nowTime":null,"countyName":null,"streetName":null,"villageName":null,"roadName":null,"communityName":null,"tranName":null,"sdLineName":null,"cityCode":"1340605","cityName":"国网徐水县供电公司","provinceCode":null,"stopTime":"2019-07-19 18:00:00","powerType":"全部","powerOffArea":"【单台区停电】停李迪城15号【纯农排变】","powerOffReason":"【停电原因】由于处理紧急缺陷导致１１０ＫＶ沙口变电站迪城线５７７线路李迪城１５号公变台区停电 【变更送电】无 【发布渠道】通过９５５９８发布","powerOffId":"2019071813000368"},{"poweroffId":2019071813000362,"sgpoweroffId":null,"subsName":"","lineName":"10kV苑桥线520","pubTranName":"2史家桥外5【纯农排变】,2苑桥外16【纯农排变】,2史家桥外20【纯农排变】,清苑县宏波合金有限公司,2何桥外19【纯农排变】,07史家桥外3【纯农排变】,2何桥外20【纯农排变】,2史家桥外32【纯农排变】,2郭村外4【纯农排变】,1范郭桥内2,1范郭桥内3,07苑桥外3【纯农排变】,2史家桥外6【纯农排变】,史家桥小学1,清苑县安硕金属有限公司,2史家桥外12【纯农排变】,07郭村内1号,2史家桥外23【纯农排变】,保定市安硕金属有限公司,07史家桥外7【纯农排变】,2石头桥外13【纯农排变】,保定市清苑县通盛铜阀门有限公司,2史家桥外18【纯农排变】,2史家桥外16【纯农排变】,2苑桥外12【纯农排变】,1史家桥内9,07苑桥外4【纯农排变】,2何桥外18【纯农排变】,1史家桥内10,2石头桥外12【纯农排变】,2范郭桥外4【纯农排变】,1苑桥内8,2郭村外3【纯农排变】,07苑桥外6【纯农排变】,2李胡桥外9【纯农排变】,2范郭桥外1【纯农排变】,07苑桥外1【纯农排变】,2史家桥外15【纯农排变】,07石头桥外1【纯农排变】,07郭村外1【纯农排变】,1史家桥内13台区,2苑桥外15【纯农排变】,0548842331-清苑县辉腾铜制品制造有限公司-专变-48223126-保定冀科金属加工有限公司,2史家桥外10【纯农排变】,2石头桥外15【纯农排变】,07苑桥内1,07范郭桥内1号,|清苑县金地铜材有限公司,2史家桥外1【纯农排变】,2史家桥外19【纯农排变】,2石头桥外14【纯农排变】,1苑桥内5,2史家桥外30【纯农排变】,07史家桥外4【纯农排变】,1史家桥内14台区,07百中外11【纯农排变】,07史家桥外2【纯农排变】,清苑县石头桥同乐煤厂,清苑县宇通铜业有限公司,2良庙外3【纯农排变】,清苑县恒通铜材厂,0581010085-清苑县金盛铜业有限公司-专变-124655686-清苑县金盛铜业有限公司,清苑县运祥金属有限公司,2史家桥外33【纯农排变】,2何桥外16【纯农排变】,2史家桥外11【纯农排变】,史建忠,2何桥外17【纯农排变】,清苑县晨光铜业有限公司,清苑县安泰锌业有限公司,保定诚汇化工科技有限公司,葛全利,1史家桥内11,2史家桥外22【纯农排变】,2史家桥外25【纯农排变】,2苑桥外11【纯农排变】,1苑桥内6,2苑桥外10【纯农排变】,清苑县鑫鹏铜业有限公司,范郭桥小学,0387494427-清苑县盛达飞金属制造厂-专变-45317036-清苑县兴盛达铜制品制造有限公司,清苑县安吉铜业有限公司,0387494980-保定市安硕金属有限公司-专变-45317039-清苑县安硕金属有限公司,2何桥外14【纯农排变】,1史家桥内15台区,保定市桐瑶金属合金有限公司,2史家桥外24【纯农排变】,2史家桥外26【纯农排变】,保定兴业化工有限公司,2苑桥外8【纯农排变】,2石头桥外9【纯农排变】,2石头桥外3【纯农排变】,07史家桥内8,07石头桥外2【纯农排变】,1苑桥内4,2史家桥外13【纯农排变】,0586375644-清苑县鸿泰金具加工有限公司-专变-125124350-清苑县鸿泰金具","scope":"【影响街道/乡镇】何桥乡 【高危重要客户】无 【影响客户】史家桥、郭村、范郭桥、苑桥、何桥","startTime":"2019-07-18 18:22:10","stopDate":"2019-07-18 19:40:00","orgNo":"1340618","typeCode":"电网故障停限电","poweroffArea":"【全线路停电】停2何桥外12【纯农排变】,2何桥外15【纯农排变】,2郭村外5【纯农排变】,2石头桥外11【纯农排变】,2史家桥外36【纯农排变】,1范郭桥内4,2苑桥外9【纯农排变】,2苑桥外7【纯农排变】,2史家桥外27【纯农排变】,2史家桥外31【纯农排变】,2史家桥外14【纯农排变】,1史家桥内2,2史家桥外29【纯农排变】,2史家桥外21【纯农排变】,2苑桥外2【纯农排变】,07苑桥内2,2良庙外5【纯农排变】,2史家桥外35【纯农排变】,清苑县享泰轴承制造有限公司,2史家桥外20【纯农排变】,清苑县宏波合金有限公司,2何桥外19【纯农排变】,07史家桥外3【纯农排变】,2何桥外20【纯农排变】,2史家桥外32【纯农排变】,2郭村外4【纯农排变】,1范郭桥内2,2史家桥外23【纯农排变】,保定市安硕金属有限公司,07史家桥外7【纯农排变】,2石头桥外13【纯农排变】,保定市清苑县通盛铜阀门有限公司,2史家桥外18【纯农排变】,2史家桥外16【纯农排变】,2苑桥外12【纯农排变】,1史家桥内9,07苑桥外4【纯农排变】,2何桥外18【纯农排变】,1史家桥内10,2石头桥外12【纯农排变】,2范郭桥外4【纯农排变】,1苑桥内8,2郭村外3【纯农排变】,07苑桥外6【纯农排变】,2李胡桥外9【纯农排变】,2范郭桥外1【纯农排变】,07苑桥外1【纯农排变】,2史家桥外5【纯农排变】,2苑桥外16【纯农排变】,1史家桥内11,2史家桥外22【纯农排变】,2史家桥外25【纯农排变】,2苑桥外11【纯农排变】,1苑桥内6,2苑桥外10【纯农排变】,2史家桥外15【纯农排变】,07石头桥外1【纯农排变】,07郭村外1【纯农排变】,1史家桥内13台区,2苑桥外15【纯农排变】,0548842331-清苑县辉腾铜制品制造有限公司-专变-48223126-保定冀科金属加工有限公司,2史家桥外10【纯农排变】,2石头桥外15【纯农排变】,07苑桥内1,1范郭桥内3,07苑桥外3【纯农排变】,2史家桥外6【纯农排变】,史家桥小学1,清苑县安硕金属有限公司,2史家桥外12【纯农排变】,07郭村内1号,07范郭桥内1号,|清苑县金地铜材有限公司,2史家桥外1【纯农排变】,2史家桥外19【纯农排变】,2石头桥外14【纯农排变】,1苑桥内5,2史家桥外30【纯农排变】,07史家桥外4【纯农排变】,1史家桥内14台区,07百中外11【纯农排变】,07史家桥外2【纯农排变】,清苑县石头桥同乐煤厂,清苑县宇通铜业有限公司,2良庙外3【纯农排变】,清苑县恒通铜材厂,0581010085-清苑县金盛铜业有限公司-专变-124655686-清苑县金盛铜业有限公司,清苑县运祥金属有限公司,2史家桥外33【纯农排变】,2何桥外16【纯农排变】,2史家桥外11【纯农排变】,史建忠,2何桥外17【纯农排变】,清苑县晨光铜业有限公司,清苑县安泰锌业有限公司,保定诚汇化工科技有限公司,葛全利,清苑县鑫鹏铜业有限公司,范郭桥小学,0387494427-清苑县盛达飞金属制造厂-专变-45317036-清苑县兴盛达铜制品制造有限公司,清苑县安吉铜业有限公司,0387494980-保定市安硕金属有限公司-专变-45317039-清苑县安硕金属有限公司,2何桥外14【纯农排变】,1史家桥内15台区,保定市桐瑶金属合金有限公司,2史家桥外24【纯农排变】,2史家桥外26【纯农排变】,保定兴业化工有限公司,2苑桥外8【纯农排变】,2石头桥外9【纯农排变】,2石头桥外3【纯农排变】,07史家桥内8,07石头桥外2【纯农排变】,1苑桥内4,2史家桥外13【纯农排变】,0586375644-清苑县鸿泰金具加工有限公司-专变-125124350-清苑县鸿泰金具加工有限公司,07何桥外6【纯农排变】,清苑县腾飞氧化锌厂,07苑桥3号,2李胡桥外8【纯农排变】,2郭村外2【纯农排变】,华宇氧化锌有限公司,07史桥村内3号,保定市鑫盛华商商","poweroffReason":"【停电原因】由于主干１３６号杆分支１号杆华顺铜业高压计量装置烧毁导致１１０ＫＶ草桥变电站１０ＫＶ苑桥线５２０线路全线停电 【变更送电】因抢修进度加快原因，送电时间由２３：５９变更为１９：４０ 【发布渠道】通过９５５９８发布","powerTime":"2019-07-18 19:25:31","powerComm":"薛春旭通知已送电","subsNo":"","lineNo":"","tgNo":"","tgName":null,"infoStatus":"1","orgName":"国网清苑县供电公司","typeName":null,"infoStatusName":null,"dateDay":null,"orgNos":null,"nowTime":null,"countyName":null,"streetName":null,"villageName":null,"roadName":null,"communityName":null,"tranName":null,"sdLineName":null,"cityCode":"1340618","cityName":"国网清苑县供电公司","provinceCode":null,"stopTime":"2019-07-18 19:40:00","powerType":"全部","powerOffArea":"【全线路停电】停2何桥外12【纯农排变】,2何桥外15【纯农排变】,2郭村外5【纯农排变】,2石头桥外11【纯农排变】,2史家桥外36【纯农排变】,1范郭桥内4,2苑桥外9【纯农排变】,2苑桥外7【纯农排变】,2史家桥外27【纯农排变】,2史家桥外31【纯农排变】,2史家桥外14【纯农排变】,1史家桥内2,2史家桥外29【纯农排变】,2史家桥外21【纯农排变】,2苑桥外2【纯农排变】,07苑桥内2,2良庙外5【纯农排变】,2史家桥外35【纯农排变】,清苑县享泰轴承制造有限公司,2史家桥外20【纯农排变】,清苑县宏波合金有限公司,2何桥外19【纯农排变】,07史家桥外3【纯农排变】,2何桥外20【纯农排变】,2史家桥外32【纯农排变】,2郭村外4【纯农排变】,1范郭桥内2,2史家桥外23【纯农排变】,保定市安硕金属有限公司,07史家桥外7【纯农排变】,2石头桥外13【纯农排变】,保定市清苑县通盛铜阀门有限公司,2史家桥外18【纯农排变】,2史家桥外16【纯农排变】,2苑桥外12【纯农排变】,1史家桥内9,07苑桥外4【纯农排变】,2何桥外18【纯农排变】,1史家桥内10,2石头桥外12【纯农排变】,2范郭桥外4【纯农排变】,1苑桥内8,2郭村外3【纯农排变】,07苑桥外6【纯农排变】,2李胡桥外9【纯农排变】,2范郭桥外1【纯农排变】,07苑桥外1【纯农排变】,2史家桥外5【纯农排变】,2苑桥外16【纯农排变】,1史家桥内11,2史家桥外22【纯农排变】,2史家桥外25【纯农排变】,2苑桥外11【纯农排变】,1苑桥内6,2苑桥外10【纯农排变】,2史家桥外15【纯农排变】,07石头桥外1【纯农排变】,07郭村外1【纯农排变】,1史家桥内13台区,2苑桥外15【纯农排变】,0548842331-清苑县辉腾铜制品制造有限公司-专变-48223126-保定冀科金属加工有限公司,2史家桥外10【纯农排变】,2石头桥外15【纯农排变】,07苑桥内1,1范郭桥内3,07苑桥外3【纯农排变】,2史家桥外6【纯农排变】,史家桥小学1,清苑县安硕金属有限公司,2史家桥外12【纯农排变】,07郭村内1号,07范郭桥内1号,|清苑县金地铜材有限公司,2史家桥外1【纯农排变】,2史家桥外19【纯农排变】,2石头桥外14【纯农排变】,1苑桥内5,2史家桥外30【纯农排变】,07史家桥外4【纯农排变】,1史家桥内14台区,07百中外11【纯农排变】,07史家桥外2【纯农排变】,清苑县石头桥同乐煤厂,清苑县宇通铜业有限公司,2良庙外3【纯农排变】,清苑县恒通铜材厂,0581010085-清苑县金盛铜业有限公司-专变-124655686-清苑县金盛铜业有限公司,清苑县运祥金属有限公司,2史家桥外33【纯农排变】,2何桥外16【纯农排变】,2史家桥外11【纯农排变】,史建忠,2何桥外17【纯农排变】,清苑县晨光铜业有限公司,清苑县安泰锌业有限公司,保定诚汇化工科技有限公司,葛全利,清苑县鑫鹏铜业有限公司,范郭桥小学,0387494427-清苑县盛达飞金属制造厂-专变-45317036-清苑县兴盛达铜制品制造有限公司,清苑县安吉铜业有限公司,0387494980-保定市安硕金属有限公司-专变-45317039-清苑县安硕金属有限公司,2何桥外14【纯农排变】,1史家桥内15台区,保定市桐瑶金属合金有限公司,2史家桥外24【纯农排变】,2史家桥外26【纯农排变】,保定兴业化工有限公司,2苑桥外8【纯农排变】,2石头桥外9【纯农排变】,2石头桥外3【纯农排变】,07史家桥内8,07石头桥外2【纯农排变】,1苑桥内4,2史家桥外13【纯农排变】,0586375644-清苑县鸿泰金具加工有限公司-专变-125124350-清苑县鸿泰金具加工有限公司,07何桥外6【纯农排变】,清苑县腾飞氧化锌厂,07苑桥3号,2李胡桥外8【纯农排变】,2郭村外2【纯农排变】,华宇氧化锌有限公司,07史桥村内3号,保定市鑫盛华商商","powerOffReason":"【停电原因】由于主干１３６号杆分支１号杆华顺铜业高压计量装置烧毁导致１１０ＫＶ草桥变电站１０ＫＶ苑桥线５２０线路全线停电 【变更送电】因抢修进度加快原因，送电时间由２３：５９变更为１９：４０ 【发布渠道】通过９５５９８发布","powerOffId":"2019071813000362"},{"poweroffId":2019071813000354,"sgpoweroffId":null,"subsName":"","lineName":"上苇517线","pubTranName":"会敏选矿厂0380,北山村1395变压器,唐县羊角乡花盆村村民委员会XZ7995,羊角村7017变压器【光伏】,唐县顺茂饲养场10KV配变7868,牛眼沟2704变压器,羊角村2974变压器,尖稍村1276变压器,上苇4017变压器,石金选矿厂3093,良家沟村7810变压器,建民选矿厂2959,南山村7016变压器【光伏】,百花村1393变压器,老母山选矿厂2740,牛眼沟小学7276变压器,牛眼沟1398变压器,花盆小学7063变压器,羊角幼儿园7261变压器,羊角村5054变压器,满心光伏7091变压器【光伏】,上苇0966变压器,木兰村2795变压器,2196|北山选矿厂2196,唐县军城镇牛眼沟村村民委员,花盆村6510变压器,中交路桥南方工程有限公司6717,花盆1392变压器,羊角村0946变压器,中生选矿厂3433,2529|石金选矿厂-400,满心村1394变压器,南山4964变压器,北下苇水4885变压器【纯农排变】,史家沟村7014变压器【光伏】,饮马池1124变压器,花盆3144变压器,羊角卫生院7064变压器,南山村1026变压器,南下苇砖厂2979配变,2202|鑫峰选矿厂-160,中交路桥南方工程有限公司XZ7750,唐县实金选矿厂3435,中交路桥南方工程有限公司XZ7749,羊角中心小学7262变压器,史家沟5113变压器,木兰村1041变压器,尖稍5123变压器,北下苇1025变压器,马沟口东升石粉厂1427,良家沟2772变压器,良家沟1024变压器,上苇小学7277变压器,牛眼沟水利6919变压器【纯农排变】,富强面粉厂2117,饮马池村6918变压器,南山村3183变压器,鑫峰选矿厂2202,石金选矿厂2529,羊角乡政府7102变压器,老母山选矿厂20KVA,尖稍6914变压器【光伏】,白花村6511变压器,","scope":"【影响街道/乡镇】羊角乡、军城镇【高危重要客户】无【影响客户】北山、满心、上苇、木栏、饮马池、羊角、花盆、白花、尖梢、北下苇、南山、牛眼沟、良家沟","startTime":"2019-07-28 06:30:00","stopDate":"2019-07-28 08:00:00","orgNo":"1340622","typeCode":"计划停电","poweroffArea":"【全线路停电】停会敏选矿厂0380,北山村1395变压器,唐县羊角乡花盆村村民委员会XZ7995,羊角村7017变压器【光伏】,唐县顺茂饲养场10KV配变7868,牛眼沟2704变压器,羊角村2974变压器,尖稍村1276变压器,上苇4017变压器,石金选矿厂3093,良家沟村7810变压器,建民选矿厂2959,南山村7016变压器【光伏】,百花村1393变压器,老母山选矿厂2740,牛眼沟小学7276变压器,牛眼沟1398变压器,花盆小学7063变压器,羊角幼儿园7261变压器,羊角村5054变压器,满心光伏7091变压器【光伏】,上苇0966变压器,木兰村2795变压器,2196|北山选矿厂2196,唐县军城镇牛眼沟村村民委员,花盆村6510变压器,中交路桥南方工程有限公司6717,花盆1392变压器,羊角村0946变压器,中生选矿厂3433,2529|石金选矿厂-400,满心村1394变压器,南山4964变压器,北下苇水4885变压器【纯农排变】,史家沟村7014变压器【光伏】,饮马池1124变压器,花盆3144变压器,羊角卫生院7064变压器,南山村1026变压器,南下苇砖厂2979配变,2202|鑫峰选矿厂-160,中交路桥南方工程有限公司XZ7750,唐县实金选矿厂3435,中交路桥南方工程有限公司XZ7749,北下苇1025变压器,马沟口东升石粉厂1427,良家沟2772变压器,良家沟1024变压器,上苇小学7277变压器,牛眼沟水利6919变压器【纯农排变】,富强面粉厂2117,饮马池村6918变压器,南山村3183变压器,鑫峰选矿厂2202,石金选矿厂2529,羊角乡政府7102变压器,老母山选矿厂20KVA,尖稍6914变压器【光伏】,白花村6511变压器,羊角中心小学7262变压器,史家沟5113变压器,木兰村1041变压器,尖稍5123变压器","poweroffReason":"【停电原因】由于线路改造导致３５ＫＶ军城变电站上苇５１７线路全线停电【变更送电】因工作进度加快原因，送电时间由１８：００变更为８：００【发布渠道】保定市唐县电视台（０７月１８日至０７月２７日的２０：００时至２０：３０时之间）屏幕上方滚动字幕","powerTime":"2019-07-28 07:32:04","powerComm":"已送电","subsNo":"","lineNo":"","tgNo":"","tgName":null,"infoStatus":"1","orgName":"国网唐县供电公司","typeName":null,"infoStatusName":null,"dateDay":null,"orgNos":null,"nowTime":null,"countyName":null,"streetName":null,"villageName":null,"roadName":null,"communityName":null,"tranName":null,"sdLineName":null,"cityCode":"1340622","cityName":"国网唐县供电公司","provinceCode":null,"stopTime":"2019-07-28 08:00:00","powerType":"全部","powerOffArea":"【全线路停电】停会敏选矿厂0380,北山村1395变压器,唐县羊角乡花盆村村民委员会XZ7995,羊角村7017变压器【光伏】,唐县顺茂饲养场10KV配变7868,牛眼沟2704变压器,羊角村2974变压器,尖稍村1276变压器,上苇4017变压器,石金选矿厂3093,良家沟村7810变压器,建民选矿厂2959,南山村7016变压器【光伏】,百花村1393变压器,老母山选矿厂2740,牛眼沟小学7276变压器,牛眼沟1398变压器,花盆小学7063变压器,羊角幼儿园7261变压器,羊角村5054变压器,满心光伏7091变压器【光伏】,上苇0966变压器,木兰村2795变压器,2196|北山选矿厂2196,唐县军城镇牛眼沟村村民委员,花盆村6510变压器,中交路桥南方工程有限公司6717,花盆1392变压器,羊角村0946变压器,中生选矿厂3433,2529|石金选矿厂-400,满心村1394变压器,南山4964变压器,北下苇水4885变压器【纯农排变】,史家沟村7014变压器【光伏】,饮马池1124变压器,花盆3144变压器,羊角卫生院7064变压器,南山村1026变压器,南下苇砖厂2979配变,2202|鑫峰选矿厂-160,中交路桥南方工程有限公司XZ7750,唐县实金选矿厂3435,中交路桥南方工程有限公司XZ7749,北下苇1025变压器,马沟口东升石粉厂1427,良家沟2772变压器,良家沟1024变压器,上苇小学7277变压器,牛眼沟水利6919变压器【纯农排变】,富强面粉厂2117,饮马池村6918变压器,南山村3183变压器,鑫峰选矿厂2202,石金选矿厂2529,羊角乡政府7102变压器,老母山选矿厂20KVA,尖稍6914变压器【光伏】,白花村6511变压器,羊角中心小学7262变压器,史家沟5113变压器,木兰村1041变压器,尖稍5123变压器","powerOffReason":"【停电原因】由于线路改造导致３５ＫＶ军城变电站上苇５１７线路全线停电【变更送电】因工作进度加快原因，送电时间由１８：００变更为８：００【发布渠道】保定市唐县电视台（０７月１８日至０７月２７日的２０：００时至２０：３０时之间）屏幕上方滚动字幕","powerOffId":"2019071813000354"},{"poweroffId":2019071813000322,"sgpoweroffId":null,"subsName":"","lineName":"10kV580大奇连线","pubTranName":"支白土公用农业4台区【纯农排变】,大奇连沙场,小奇连公用农业2台区【纯农排变】,定州市威尔特体育用品有限公司变压器,定州市西城区大奇连村村民委员会 小区照明变压器2,河北万通金牛药业有限公司变压器2,大奇连猪场,大奇连林场变压器,定州市西城区小奇连村村民委员会变压器,小奇连公用照明1台区,毛白杨,大奇连体品小区,大奇连公用照明6台区,河北万通金牛药业有限公司变压器,辛庄子公用农业1台区【纯农排变】,河北中天房地产开发集团有限公司（中天新郡水源热泵）变压器,定州市西城区大奇连村村民委员会 小区照明变压器1,0596981282-定州市四新工业有限公司-专变-126283789-定州市四新工业有限公司变压器,大奇连东南,小奇连公用农业4台区【纯农排变】,定州市丰元生产肉食有限公司变压器,河北宏利节能技术开发有限公司变压器,定州市西城区大奇连村村民委员会（新民居二期公用设施）变压器,定州市天泽建筑劳务分包有限公司变压器,定州市金属标枪厂变压器,定州市大鹏仓储服务部变压器,小奇连公用照明2台区,支白土公用照明2台区,定州市科环固废处理有限公司变压器,河北中天房地产开发集团有限公司中天新郡照明变压器1,定州市西城区大奇连村村民委员会,定州市丽静肉制品有限公司变压器,大奇连东口,定州市瑞泉固废处理有限公司1变压器,大奇连公用照明5台区,大奇连新民居公用照明1台区,大奇连南庄,支白土公用农业2台区【纯农排变】,河北中天房地产开发集团有限公司中天新郡照明变压器2,河北百捷机械科技有限公司变压器,河北华洋体育用品有限公司变压器,定州市恒泰运业有限公司,河北中天房地产开发集团有限公司（中天新郡公用设施）变压器,大奇连公用照明4台区,小奇连公用农业1台区【纯农排变】,奇林艺园,定州市西城区小奇连村民委员会（小奇连果园）,小奇连公用农业3台区【纯农排变】,定州市石静琴苗木种植园变压器,定州市三和新能源科技有限公司变压器,郝白土村北,定州市瑞泉固废处理有限公司,定州市盛元不锈钢制品有限公司计量点,大奇连西口,大奇连院内（猪厂院）,河北康博药业有限公司变压器,定州市四方诚信畜牧科技有限公司变压器,河北中天房地产开发集团有限公司中天新郡照明变压器3,小奇连砖厂,郝白土河滩,0659877855-定州市宋兴辉货物仓储服务部-专变-197309293-定州市兴辉货物仓储服务部变压器,杨亚涛,定州市荣鼎水环境生化技术有限公司变压器,小屯公用农业2台区【纯农排变】,河北定州国家粮食储备有限公司变压器,定州市金景固废处理有限公司,河北众乐星体育用品有限公司变压器,大奇连正东,小奇连公用农业5台区【纯农排变】,北京四方畜牧有限公司,定州市四新工业有限公司变压器,0691671389-河北睿达药业有限公司-专变-234134043-河北睿达药业有限公司变压器,定州市西城区大奇连村村民委员会（新民居二期水源热泵）变压器,辛庄子公用农业4台区【纯农排变】,小屯公用农业4台区【纯农排变】,定州市西城区郝白土村村民委员会变压器,定州四方诚信畜牧科技有限公司变压器,定州市宇阳电子科技有限公司变压器,定州市瑞泉固废处理有限公司变压器,河北金牛原大药业科技有限公司,支白土公用","scope":"【影响街道/乡镇】西城区【高危重要客户】无【影响客户】大奇连、小奇连、大奇连新民居、小奇连果园、科环固废处理厂、定州四方诚信畜牧科技厂、三和新能源科技厂、冀环危险废物治理厂、宏利节能技术开发厂、瑞泉固废处理厂、四新工业厂、荣鼎水环境生化技术厂、恒泰运业、丰源肉食、威尔特体育、华洋体育用品","startTime":"2019-07-18 17:20:51","stopDate":"2019-07-18 18:30:00","orgNo":"1340610","typeCode":"电网故障停限电","poweroffArea":"【全线路停电】停大奇连正东,定州市石静琴苗木种植园变压器,定州市科环固废处理有限公司变压器,大奇连公用照明6台区,定州市西城区小奇连村民委员会（小奇连果园）,小奇连公用农业3台区【纯农排变】,定州市三和新能源科技有限公司变压器,郝白土村北,定州市瑞泉固废处理有限公司,定州市盛元不锈钢制品有限公司计量点,大奇连西口,支白土公用农业2台区【纯农排变】,小奇连公用照明1台区,小奇连公用农业5台区【纯农排变】,北京四方畜牧有限公司,定州市西城区大奇连村村民委员会（新民居二期水源热泵）变压器,辛庄子公用农业4台区【纯农排变】,小屯公用农业4台区【纯农排变】,定州市西城区郝白土村村民委员会变压器,定州四方诚信畜牧科技有限公司变压器,辛庄子公用农业1台区【纯农排变】,河北中天房地产开发集团有限公司（中天新郡水源热泵）变压器,定州市西城区大奇连村村民委员会 小区照明变压器1,0596981282-定州市四新工业有限公司-专变-126283789-定州市四新工业有限公司变压器,大奇连东南,大奇连公用照明5台区,小奇连公用农业4台区【纯农排变】,定州市丰元生产肉食有限公司变压器,定州市荣鼎水环境生化技术有限公司变压器,小屯公用农业2台区【纯农排变】,河北宏利节能技术开发有限公司变压器,定州市西城区大奇连村村民委员会（新民居二期公用设施）变压器,定州市天泽建筑劳务分包有限公司变压器,定州市金属标枪厂变压器,定州市大鹏仓储服务部变压器,小奇连公用照明2台区,支白土公用照明2台区,河北万通金牛药业有限公司变压器,大奇连院内（猪厂院）,河北康博药业有限公司变压器,大奇连沙场,小奇连公用农业1台区【纯农排变】,河北华洋体育用品有限公司变压器,定州市恒泰运业有限公司,大奇连公用照明4台区,河北百捷机械科技有限公司变压器,河北中天房地产开发集团有限公司（中天新郡公用设施）变压器,小奇连公用农业2台区【纯农排变】,支白土公用农业5台区【纯农排变】,支白土公用农业3台区【纯农排变】,河北万通金牛药业有限公司变压器2,大奇连猪场,大奇连林场变压器,定州市西城区小奇连村村民委员会变压器,定州市西城区大奇连村村民委员会,定州市丽静肉制品有限公司变压器,大奇连东口,定州市瑞泉固废处理有限公司1变压器,大奇连新民居公用照明1台区,大奇连南庄,河北中天房地产开发集团有限公司中天新郡照明变压器2,大奇连公用照明2台区,支白土公用农业4台区【纯农排变】,定州市威尔特体育用品有限公司变压器,定州市西城区大奇连村村民委员会 小区照明变压器2,支白土公用照明1台区,定州市冀环危险废物治理有限公司变压器,支白土公用农业1台区【纯农排变】,河北中天房地产开发集团有限公司中天新郡照明变压器1,定州市晟吉包装容器有限公司变压器,定州市消防队变压器,定州市顺和仓储服务部变压器,定州市四新工业有限公司变压器,0691671389-河北睿达药业有限公司-专变-234134043-河北睿达药业有限公司变压器,定州市四方诚信畜牧科技有限公司变压器,河北中天房地产开发集团有限公司中天新郡照明变压器3,小奇连砖厂,郝白土河滩,0659877855-定州市宋兴辉货物仓储服务部-专变-197309293-定州市兴辉货物仓储服务部变压器,杨亚涛,奇林艺园,毛白杨,大奇连体品小区,河北定州国家粮食储备有限公司变压器,定州市金景固废处理有限公司,河北众乐星体育用品有限公司变压器,定州市宇阳电子科技有限公司变压器,定州市瑞泉固废处理有限公司变压器,河北金牛原","poweroffReason":"【停电原因】由于丽静肉食高压计量烧毁导致１１０ＫＶ焦化厂变电站１０ＫＶ５８０大奇连线路全线停电 【变更送电】因抢修进度加快原因，送电时间由２３：００变更为１８：３０ 【发布渠道】９５５９８","powerTime":"2019-07-18 18:14:41","powerComm":"已送电","subsNo":"","lineNo":"","tgNo":"","tgName":null,"infoStatus":"1","orgName":"国网定州市供电公司","typeName":null,"infoStatusName":null,"dateDay":null,"orgNos":null,"nowTime":null,"countyName":null,"streetName":null,"villageName":null,"roadName":null,"communityName":null,"tranName":null,"sdLineName":null,"cityCode":"1340610","cityName":"国网定州市供电公司","provinceCode":null,"stopTime":"2019-07-18 18:30:00","powerType":"全部","powerOffArea":"【全线路停电】停大奇连正东,定州市石静琴苗木种植园变压器,定州市科环固废处理有限公司变压器,大奇连公用照明6台区,定州市西城区小奇连村民委员会（小奇连果园）,小奇连公用农业3台区【纯农排变】,定州市三和新能源科技有限公司变压器,郝白土村北,定州市瑞泉固废处理有限公司,定州市盛元不锈钢制品有限公司计量点,大奇连西口,支白土公用农业2台区【纯农排变】,小奇连公用照明1台区,小奇连公用农业5台区【纯农排变】,北京四方畜牧有限公司,定州市西城区大奇连村村民委员会（新民居二期水源热泵）变压器,辛庄子公用农业4台区【纯农排变】,小屯公用农业4台区【纯农排变】,定州市西城区郝白土村村民委员会变压器,定州四方诚信畜牧科技有限公司变压器,辛庄子公用农业1台区【纯农排变】,河北中天房地产开发集团有限公司（中天新郡水源热泵）变压器,定州市西城区大奇连村村民委员会 小区照明变压器1,0596981282-定州市四新工业有限公司-专变-126283789-定州市四新工业有限公司变压器,大奇连东南,大奇连公用照明5台区,小奇连公用农业4台区【纯农排变】,定州市丰元生产肉食有限公司变压器,定州市荣鼎水环境生化技术有限公司变压器,小屯公用农业2台区【纯农排变】,河北宏利节能技术开发有限公司变压器,定州市西城区大奇连村村民委员会（新民居二期公用设施）变压器,定州市天泽建筑劳务分包有限公司变压器,定州市金属标枪厂变压器,定州市大鹏仓储服务部变压器,小奇连公用照明2台区,支白土公用照明2台区,河北万通金牛药业有限公司变压器,大奇连院内（猪厂院）,河北康博药业有限公司变压器,大奇连沙场,小奇连公用农业1台区【纯农排变】,河北华洋体育用品有限公司变压器,定州市恒泰运业有限公司,大奇连公用照明4台区,河北百捷机械科技有限公司变压器,河北中天房地产开发集团有限公司（中天新郡公用设施）变压器,小奇连公用农业2台区【纯农排变】,支白土公用农业5台区【纯农排变】,支白土公用农业3台区【纯农排变】,河北万通金牛药业有限公司变压器2,大奇连猪场,大奇连林场变压器,定州市西城区小奇连村村民委员会变压器,定州市西城区大奇连村村民委员会,定州市丽静肉制品有限公司变压器,大奇连东口,定州市瑞泉固废处理有限公司1变压器,大奇连新民居公用照明1台区,大奇连南庄,河北中天房地产开发集团有限公司中天新郡照明变压器2,大奇连公用照明2台区,支白土公用农业4台区【纯农排变】,定州市威尔特体育用品有限公司变压器,定州市西城区大奇连村村民委员会 小区照明变压器2,支白土公用照明1台区,定州市冀环危险废物治理有限公司变压器,支白土公用农业1台区【纯农排变】,河北中天房地产开发集团有限公司中天新郡照明变压器1,定州市晟吉包装容器有限公司变压器,定州市消防队变压器,定州市顺和仓储服务部变压器,定州市四新工业有限公司变压器,0691671389-河北睿达药业有限公司-专变-234134043-河北睿达药业有限公司变压器,定州市四方诚信畜牧科技有限公司变压器,河北中天房地产开发集团有限公司中天新郡照明变压器3,小奇连砖厂,郝白土河滩,0659877855-定州市宋兴辉货物仓储服务部-专变-197309293-定州市兴辉货物仓储服务部变压器,杨亚涛,奇林艺园,毛白杨,大奇连体品小区,河北定州国家粮食储备有限公司变压器,定州市金景固废处理有限公司,河北众乐星体育用品有限公司变压器,定州市宇阳电子科技有限公司变压器,定州市瑞泉固废处理有限公司变压器,河北金牛原","powerOffReason":"【停电原因】由于丽静肉食高压计量烧毁导致１１０ＫＶ焦化厂变电站１０ＫＶ５８０大奇连线路全线停电 【变更送电】因抢修进度加快原因，送电时间由２３：００变更为１８：３０ 【发布渠道】９５５９８","powerOffId":"2019071813000322"},{"poweroffId":2019071813000293,"sgpoweroffId":null,"subsName":"","lineName":"10kV512野陈佐线","pubTranName":"蠡县亿帮洁日化有限公司,北保去农排6台区【纯农排变】,南鲍墟综合9台区,西鲍墟综合8台区,东鲍墟综合6台区,东保去农排3台区【纯农排变】,养牛厂,北保去农排10台区【纯农排变】,野陈佐农排1台区【纯农排变】,东保去农排1台区【纯农排变】,文瑞,北保去农排4台区【纯农排变】,野陈佐综合4台区,小杰,野陈佐农排7台区【纯农排变】,北保去农排1台区【纯农排变】,东保去综合1台区,野陈佐农排6台区【纯农排变】,野陈佐综合1台区,东保去综合2台区,瑞兴宏景变压器315,西保去农排2台区【纯农排变】,北鲍墟综合7台区,野陈佐综合6台区,蠡县淑亮狐饲料农民专业合作社,南保去农排6台区【纯农排变】,西保去综合3台区,野陈佐综合3台区,北保去综合3台区,东鲍墟综合5台区,西保去综合2台区,北保去农排5台区【纯农排变】,南保去综合2台区,北鲍墟综合6台区,野陈佐农排11台区【纯农排变】,野陈佐综合5台区,东保去农排4台区【纯农排变】,南保去农排7台区【纯农排变】,野陈佐农排2台区【纯农排变】,北保去综合1台区,南鲍墟综合7台区,西保去农排7台区【纯农排变】,西保去综合5台区,东保去农排2台区【纯农排变】,中学农场大变压器,野陈佐农排10台区【纯农排变】,南鲍墟综合8台区,北保去农排9台区【纯农排变】,保去中学变压器,北鲍墟综合8台区,野陈佐农排5台区【纯农排变】,西保农排6台区【纯农排变】,西保去农排3台区【纯农排变】,南鲍墟综合5台区,西保去农排5台区【纯农排变】,北保去综合2台区,野陈佐农排3台区【纯农排变】,南保去农排4台区【纯农排变】,南保去农排2台区【纯农排变】,南保去综合1台区,野陈佐农排8台区【纯农排变】,北保去农排3台区【纯农排变】,南保去综合3台区,西鲍墟综合6台区,北鲍墟综合5台区,中学农场,北鲍墟综合4台区,野陈佐综合9台区,南保去农排3台区【纯农排变】,南保去农排5台区【纯农排变】,东保去农排6台区【纯农排变】,野陈佐综合2台区,西保去农排1台区【纯农排变】,东保去农排5台区【纯农排变】,北保去农排2台区【纯农排变】,东保去综合3台区,东鲍墟综合7台区,蠡县春梅芦笋农民专业合作社,南鲍墟综合6台区,西保去综合1台区,西保去综合4台区,北保去农排7台区【纯农排变】,南鲍墟综合4台区,南保去农排1台区【纯农排变】,西保去农排4台区【纯农排变】,西鲍墟综合7台区,南保红亮,野陈佐农排4台区【纯农排变】,进托,野陈佐综合7台区,保去社办厂,野陈佐综合10台区,瑞兴宏景变压器500,野陈佐农排9台区【纯农排变】,北鲍墟综合9台区,东保去综合4台区,北保去农排8台区【纯农排变】,野陈佐综合8台区,","scope":"【影响街道/乡镇】鲍墟乡【高危重要客户】无【影响客户】野陈佐村、东鲍墟村、北鲍墟村、西鲍墟村、南鲍墟村","startTime":"2019-07-18 16:28:23","stopDate":"2019-07-18 18:00:00","orgNo":"1340616","typeCode":"电网故障停限电","poweroffArea":"【全线路停电】停文瑞,南鲍墟综合4台区,野陈佐农排6台区【纯农排变】,南保去农排5台区【纯农排变】,北保去综合3台区,北保去农排5台区【纯农排变】,西保去综合4台区,野陈佐综合3台区,西鲍墟综合7台区,西保去农排1台区【纯农排变】,北保去农排7台区【纯农排变】,北鲍墟综合8台区,南保去综合1台区,野陈佐农排8台区【纯农排变】,西鲍墟综合6台区,西鲍墟综合8台区,东保去农排4台区【纯农排变】,野陈佐农排11台区【纯农排变】,中学农场,进托,南保去农排6台区【纯农排变】,南鲍墟综合7台区,野陈佐农排9台区【纯农排变】,野陈佐综合1台区,西保去综合1台区,瑞兴宏景变压器500,北保去农排9台区【纯农排变】,南保去综合2台区,西保去综合2台区,养牛厂,西保去综合5台区,小杰,保去社办厂,中学农场大变压器,北鲍墟综合7台区,南保去农排7台区【纯农排变】,南保去综合3台区,保去中学变压器,野陈佐农排4台区【纯农排变】,野陈佐农排1台区【纯农排变】,野陈佐综合2台区,南鲍墟综合6台区,北鲍墟综合4台区,北保去农排6台区【纯农排变】,北鲍墟综合6台区,北保去农排8台区【纯农排变】,东保去农排1台区【纯农排变】,野陈佐综合5台区,南保去农排2台区【纯农排变】,东保去农排6台区【纯农排变】,野陈佐农排2台区【纯农排变】,西保去农排4台区【纯农排变】,北鲍墟综合5台区,西保去农排3台区【纯农排变】,北保去综合2台区,北保去农排1台区【纯农排变】,蠡县春梅芦笋农民专业合作社,野陈佐综合9台区,蠡县淑亮狐饲料农民专业合作社,北保去综合1台区,西保去综合3台区,野陈佐综合10台区,野陈佐农排10台区【纯农排变】,东保去综合4台区,南保去农排1台区【纯农排变】,东鲍墟综合7台区,南保去农排4台区【纯农排变】,北鲍墟综合9台区,东保去综合3台区,野陈佐农排3台区【纯农排变】,野陈佐综合7台区,北保去农排2台区【纯农排变】,西保去农排7台区【纯农排变】,北保去农排10台区【纯农排变】,南鲍墟综合9台区,东保去农排5台区【纯农排变】,东保去综合1台区,南保红亮,瑞兴宏景变压器315,野陈佐综合4台区,北保去农排4台区【纯农排变】,东鲍墟综合6台区,北保去农排3台区【纯农排变】,西保去农排2台区【纯农排变】,东保去农排2台区【纯农排变】,西保去农排5台区【纯农排变】,野陈佐农排7台区【纯农排变】,南保去农排3台区【纯农排变】,野陈佐农排5台区【纯农排变】,野陈佐综合8台区,西保农排6台区【纯农排变】,蠡县亿帮洁日化有限公司,南鲍墟综合5台区,东保去农排3台区【纯农排变】,野陈佐综合6台区,南鲍墟综合8台区,东鲍墟综合5台区,东保去综合2台区","poweroffReason":"【停电原因】由于线路接地导致３５ＫＶ鲍墟变电站１０ＫＶ野陈佐５１２线路全线停电【变更送电】因抢修进度加快原因，送电时间由２３：００变更为１８：００【发布渠道】通过９５５９８发布","powerTime":"2019-07-18 17:28:18","powerComm":"已送电","subsNo":"","lineNo":"","tgNo":"","tgName":null,"infoStatus":"1","orgName":"国网蠡县供电公司","typeName":null,"infoStatusName":null,"dateDay":null,"orgNos":null,"nowTime":null,"countyName":null,"streetName":null,"villageName":null,"roadName":null,"communityName":null,"tranName":null,"sdLineName":null,"cityCode":"1340616","cityName":"国网蠡县供电公司","provinceCode":null,"stopTime":"2019-07-18 18:00:00","powerType":"全部","powerOffArea":"【全线路停电】停文瑞,南鲍墟综合4台区,野陈佐农排6台区【纯农排变】,南保去农排5台区【纯农排变】,北保去综合3台区,北保去农排5台区【纯农排变】,西保去综合4台区,野陈佐综合3台区,西鲍墟综合7台区,西保去农排1台区【纯农排变】,北保去农排7台区【纯农排变】,北鲍墟综合8台区,南保去综合1台区,野陈佐农排8台区【纯农排变】,西鲍墟综合6台区,西鲍墟综合8台区,东保去农排4台区【纯农排变】,野陈佐农排11台区【纯农排变】,中学农场,进托,南保去农排6台区【纯农排变】,南鲍墟综合7台区,野陈佐农排9台区【纯农排变】,野陈佐综合1台区,西保去综合1台区,瑞兴宏景变压器500,北保去农排9台区【纯农排变】,南保去综合2台区,西保去综合2台区,养牛厂,西保去综合5台区,小杰,保去社办厂,中学农场大变压器,北鲍墟综合7台区,南保去农排7台区【纯农排变】,南保去综合3台区,保去中学变压器,野陈佐农排4台区【纯农排变】,野陈佐农排1台区【纯农排变】,野陈佐综合2台区,南鲍墟综合6台区,北鲍墟综合4台区,北保去农排6台区【纯农排变】,北鲍墟综合6台区,北保去农排8台区【纯农排变】,东保去农排1台区【纯农排变】,野陈佐综合5台区,南保去农排2台区【纯农排变】,东保去农排6台区【纯农排变】,野陈佐农排2台区【纯农排变】,西保去农排4台区【纯农排变】,北鲍墟综合5台区,西保去农排3台区【纯农排变】,北保去综合2台区,北保去农排1台区【纯农排变】,蠡县春梅芦笋农民专业合作社,野陈佐综合9台区,蠡县淑亮狐饲料农民专业合作社,北保去综合1台区,西保去综合3台区,野陈佐综合10台区,野陈佐农排10台区【纯农排变】,东保去综合4台区,南保去农排1台区【纯农排变】,东鲍墟综合7台区,南保去农排4台区【纯农排变】,北鲍墟综合9台区,东保去综合3台区,野陈佐农排3台区【纯农排变】,野陈佐综合7台区,北保去农排2台区【纯农排变】,西保去农排7台区【纯农排变】,北保去农排10台区【纯农排变】,南鲍墟综合9台区,东保去农排5台区【纯农排变】,东保去综合1台区,南保红亮,瑞兴宏景变压器315,野陈佐综合4台区,北保去农排4台区【纯农排变】,东鲍墟综合6台区,北保去农排3台区【纯农排变】,西保去农排2台区【纯农排变】,东保去农排2台区【纯农排变】,西保去农排5台区【纯农排变】,野陈佐农排7台区【纯农排变】,南保去农排3台区【纯农排变】,野陈佐农排5台区【纯农排变】,野陈佐综合8台区,西保农排6台区【纯农排变】,蠡县亿帮洁日化有限公司,南鲍墟综合5台区,东保去农排3台区【纯农排变】,野陈佐综合6台区,南鲍墟综合8台区,东鲍墟综合5台区,东保去综合2台区","powerOffReason":"【停电原因】由于线路接地导致３５ＫＶ鲍墟变电站１０ＫＶ野陈佐５１２线路全线停电【变更送电】因抢修进度加快原因，送电时间由２３：００变更为１８：００【发布渠道】通过９５５９８发布","powerOffId":"2019071813000293"},{"poweroffId":2019071813000290,"sgpoweroffId":null,"subsName":"","lineName":"10kV清苑线512","pubTranName":"2玉皇庄外2【纯农排变】,2马罗侯外2【纯农排变】,2谢上外5【纯农排变】,2谢上外6【纯农排变】,谢上小学分校(西洪义),谢上小学,1谢上内4,2谢上外1【纯农排变】,2玉皇庄外4【纯农排变】,1玉皇庄内3,1谢上内7,1谢上内2,1谢上内10,1谢上内9,1玉皇庄内2,2谢上外3【纯农排变】,1玉皇庄内5,1玉皇庄内7,1玉皇庄内6,1谢上内3,玉皇庄赵铁生养猪场,1谢上内1,1谢上内8,2谢上外4【纯农排变】,2玉皇庄外3【纯农排变】,1马罗侯内3,1马罗侯内2,2玉皇庄外1【纯农排变】,1谢上内5,2谢上外7【纯农排变】,2马罗侯外1【纯农排变】,玉皇庄幼儿园,2谢上外2【纯农排变】,1玉皇庄内1,玉皇庄养殖场,2马罗侯外3【纯农排变】,1玉皇庄内4,2玉皇庄外5,1谢上内6,1马罗侯内1,","scope":"【影响街道/乡镇】魏村镇 【高危重要客户】无 【影响客户】玉皇庄、马罗侯、谢上","startTime":"2019-07-20 01:00:00","stopDate":"2019-07-20 03:00:00","orgNo":"1340618","typeCode":"临时停电","poweroffArea":"【分支停电】停1玉皇庄内4,2玉皇庄外5,1谢上内6,2谢上外2【纯农排变】,1玉皇庄内1,玉皇庄养殖场,2马罗侯外3【纯农排变】,1马罗侯内1,1谢上内4,2谢上外1【纯农排变】,2玉皇庄外4【纯农排变】,1玉皇庄内3,1谢上内7,1谢上内2,1谢上内10,1谢上内9,1玉皇庄内2,2谢上外3【纯农排变】,1玉皇庄内5,1玉皇庄内7,2玉皇庄外2【纯农排变】,2马罗侯外2【纯农排变】,2谢上外5【纯农排变】,2谢上外6【纯农排变】,谢上小学分校(西洪义),谢上小学,1玉皇庄内6,1谢上内3,玉皇庄赵铁生养猪场,1谢上内1,1谢上内8,2谢上外4【纯农排变】,2玉皇庄外3【纯农排变】,1马罗侯内3,1马罗侯内2,2玉皇庄外1【纯农排变】,1谢上内5,2谢上外7【纯农排变】,2马罗侯外1【纯农排变】,玉皇庄幼儿园","poweroffReason":"【停电原因】由于更换引线导致２２０ＫＶ南郊变电站１０ＫＶ清苑线５１２线路主干６４号杆至１１４号杆停电 【变更送电】无 【发布渠道】通过９５５９８发布","powerTime":"2019-07-20 02:44:15","powerComm":"郭建新通知已送电","subsNo":"","lineNo":"","tgNo":"","tgName":null,"infoStatus":"1","orgName":"国网清苑县供电公司","typeName":null,"infoStatusName":null,"dateDay":null,"orgNos":null,"nowTime":null,"countyName":null,"streetName":null,"villageName":null,"roadName":null,"communityName":null,"tranName":null,"sdLineName":null,"cityCode":"1340618","cityName":"国网清苑县供电公司","provinceCode":null,"stopTime":"2019-07-20 03:00:00","powerType":"全部","powerOffArea":"【分支停电】停1玉皇庄内4,2玉皇庄外5,1谢上内6,2谢上外2【纯农排变】,1玉皇庄内1,玉皇庄养殖场,2马罗侯外3【纯农排变】,1马罗侯内1,1谢上内4,2谢上外1【纯农排变】,2玉皇庄外4【纯农排变】,1玉皇庄内3,1谢上内7,1谢上内2,1谢上内10,1谢上内9,1玉皇庄内2,2谢上外3【纯农排变】,1玉皇庄内5,1玉皇庄内7,2玉皇庄外2【纯农排变】,2马罗侯外2【纯农排变】,2谢上外5【纯农排变】,2谢上外6【纯农排变】,谢上小学分校(西洪义),谢上小学,1玉皇庄内6,1谢上内3,玉皇庄赵铁生养猪场,1谢上内1,1谢上内8,2谢上外4【纯农排变】,2玉皇庄外3【纯农排变】,1马罗侯内3,1马罗侯内2,2玉皇庄外1【纯农排变】,1谢上内5,2谢上外7【纯农排变】,2马罗侯外1【纯农排变】,玉皇庄幼儿园","powerOffReason":"【停电原因】由于更换引线导致２２０ＫＶ南郊变电站１０ＫＶ清苑线５１２线路主干６４号杆至１１４号杆停电 【变更送电】无 【发布渠道】通过９５５９８发布","powerOffId":"2019071813000290"},{"poweroffId":2019071813000266,"sgpoweroffId":null,"subsName":"","lineName":"龙湾头537","pubTranName":"西牛村5#,龙湾头10#,凌云册村11#,龙湾头5#,龙湾头8#,龙湾头9#,西牛村8#,西牛村9#,龙湾头7#,西牛村3#,龙湾头村1#,西牛村2#,西牛村10#,龙湾头6#,西牛村1#,西牛面粉厂,","scope":"【影响街道/乡镇】裴山镇、凌云册乡【高危重要客户】无【影响客户】凌云册村、龙湾头村、西牛村","startTime":"2019-07-18 16:09:14","stopDate":"2019-07-18 17:30:00","orgNo":"1340625","typeCode":"电网故障停限电","poweroffArea":"【分支停电】停西牛村5#,龙湾头10#,凌云册村11#,龙湾头5#,龙湾头8#,龙湾头9#,西牛村8#,西牛村9#,龙湾头7#,西牛村3#,龙湾头村1#,西牛村2#,西牛村10#,龙湾头6#,西牛村1#,西牛面粉厂","poweroffReason":"【停电原因】由于线路断线导致３５ＫＶ燕发变电站龙湾头５３７线路１５号杆至３７号杆线路停电【变更送电】由于抢修进度加快原因，送电时间由１９：００变更为１７：３０【发布渠道】通过９５５９８发布","powerTime":"2019-07-18 17:12:51","powerComm":"已送电","subsNo":"","lineNo":"","tgNo":"","tgName":null,"infoStatus":"1","orgName":"国网易县供电公司","typeName":null,"infoStatusName":null,"dateDay":null,"orgNos":null,"nowTime":null,"countyName":null,"streetName":null,"villageName":null,"roadName":null,"communityName":null,"tranName":null,"sdLineName":null,"cityCode":"1340625","cityName":"国网易县供电公司","provinceCode":null,"stopTime":"2019-07-18 17:30:00","powerType":"全部","powerOffArea":"【分支停电】停西牛村5#,龙湾头10#,凌云册村11#,龙湾头5#,龙湾头8#,龙湾头9#,西牛村8#,西牛村9#,龙湾头7#,西牛村3#,龙湾头村1#,西牛村2#,西牛村10#,龙湾头6#,西牛村1#,西牛面粉厂","powerOffReason":"【停电原因】由于线路断线导致３５ＫＶ燕发变电站龙湾头５３７线路１５号杆至３７号杆线路停电【变更送电】由于抢修进度加快原因，送电时间由１９：００变更为１７：３０【发布渠道】通过９５５９８发布","powerOffId":"2019071813000266"},{"poweroffId":2019071813000245,"sgpoweroffId":null,"subsName":"","lineName":"10kV鲁岗站531线路","pubTranName":"C210柱上变压器,","scope":"【影响街道/乡镇】大马坊乡 【高危重要客户】无 【影响客户】道口村","startTime":"2019-07-25 08:00:00","stopDate":"2019-07-25 10:00:00","orgNo":"13406","typeCode":"临时停电","poweroffArea":"【单台区停电】停C210柱上变压器","poweroffReason":"【停电原因】由于供电设备临时检修导致１０ＫＶ鲁岗站变电站５３１线路Ｃ２１０公变台区停电【变更送电】无【发布渠道】通过９５５９８发布","powerTime":"2019-07-25 09:49:32","powerComm":"已送电","subsNo":"","lineNo":"","tgNo":"","tgName":null,"infoStatus":"1","orgName":"保定供电公司","typeName":null,"infoStatusName":null,"dateDay":null,"orgNos":null,"nowTime":null,"countyName":null,"streetName":null,"villageName":null,"roadName":null,"communityName":null,"tranName":null,"sdLineName":null,"cityCode":"13406","cityName":"保定供电公司","provinceCode":null,"stopTime":"2019-07-25 10:00:00","powerType":"全部","powerOffArea":"【单台区停电】停C210柱上变压器","powerOffReason":"【停电原因】由于供电设备临时检修导致１０ＫＶ鲁岗站变电站５３１线路Ｃ２１０公变台区停电【变更送电】无【发布渠道】通过９５５９８发布","powerOffId":"2019071813000245"},{"poweroffId":2019071813000237,"sgpoweroffId":null,"subsName":"","lineName":"10kV薛留营站512线路","pubTranName":"C614柱上变压器,C454柱上变压器,","scope":"【影响街道/乡镇】韩庄乡 【高危重要客户】无 【影响客户】王庄村","startTime":"2019-07-24 06:00:00","stopDate":"2019-07-24 16:00:00","orgNo":"13406","typeCode":"临时停电","poweroffArea":"【分支停电】停C614柱上变压器,C454柱上变压器","poweroffReason":"【停电原因】由于供电设备临时检修导致１０ＫＶ薛留营变电站５１２线路七一路ＨＫ-３４环网柜３号出线３５号北分支以下停电【变更送电】无【发布渠道】通过９５５９８发布","powerTime":"2019-07-24 15:46:26","powerComm":"已送电","subsNo":"","lineNo":"","tgNo":"","tgName":null,"infoStatus":"1","orgName":"保定供电公司","typeName":null,"infoStatusName":null,"dateDay":null,"orgNos":null,"nowTime":null,"countyName":null,"streetName":null,"villageName":null,"roadName":null,"communityName":null,"tranName":null,"sdLineName":null,"cityCode":"13406","cityName":"保定供电公司","provinceCode":null,"stopTime":"2019-07-24 16:00:00","powerType":"全部","powerOffArea":"【分支停电】停C614柱上变压器,C454柱上变压器","powerOffReason":"【停电原因】由于供电设备临时检修导致１０ＫＶ薛留营变电站５１２线路七一路ＨＫ-３４环网柜３号出线３５号北分支以下停电【变更送电】无【发布渠道】通过９５５９８发布","powerOffId":"2019071813000237"}],"pageModel":{"pageNow":809,"totalCount":10973,"totalPage":1098,"tableRows":0,"pageCount":10,"beginCount":8080},"isExperi":"1"}