{"message":"","today":"2020-06-15","seleList":[{"poweroffId":2019071813000231,"sgpoweroffId":null,"subsName":"","lineName":"10kV朝阳路站533线路","pubTranName":"10kVB1418配电室B1418配电变压器,","scope":"【影响街道/乡镇】德惠路 【高危重要客户】无 【影响客户】省建六公司","startTime":"2019-07-24 07:00:00","stopDate":"2019-07-24 15:00:00","orgNo":"13406","typeCode":"临时停电","poweroffArea":"【单台区停电】停10kVB1418配电室B1418配电变压器","poweroffReason":"【停电原因】由于供电设备临时检修导致１０ＫＶ朝阳路变电站５３３线路Ｂ１４１８公变台区停电【变更送电】无【发布渠道】通过９５５９８发布","powerTime":"2019-07-24 14:44:23","powerComm":"已送电","subsNo":"","lineNo":"","tgNo":"","tgName":null,"infoStatus":"1","orgName":"保定供电公司","typeName":null,"infoStatusName":null,"dateDay":null,"orgNos":null,"nowTime":null,"countyName":null,"streetName":null,"villageName":null,"roadName":null,"communityName":null,"tranName":null,"sdLineName":null,"cityCode":"13406","cityName":"保定供电公司","provinceCode":null,"stopTime":"2019-07-24 15:00:00","powerType":"全部","powerOffArea":"【单台区停电】停10kVB1418配电室B1418配电变压器","powerOffReason":"【停电原因】由于供电设备临时检修导致１０ＫＶ朝阳路变电站５３３线路Ｂ１４１８公变台区停电【变更送电】无【发布渠道】通过９５５９８发布","powerOffId":"2019071813000231"},{"poweroffId":2019071813000221,"sgpoweroffId":null,"subsName":"","lineName":"10kV联盟路站518线路","pubTranName":"10kVB828配电室B828配电变压器,","scope":"【影响街道/乡镇】支农路 【高危重要客户】无 【影响客户】万欣家园","startTime":"2019-07-23 07:00:00","stopDate":"2019-07-23 12:00:00","orgNo":"13406","typeCode":"临时停电","poweroffArea":"【单台区停电】停10kVB828配电室B828配电变压器","poweroffReason":"【停电原因】由于更换配电室高压负荷开关导致１０ＫＶ联盟路变电站５１８线路Ｂ８２８公变台区停电【变更送电】因抢修进度加快，原定15:00送电现计划12:00送电【发布渠道】通过９５５９８发布","powerTime":"2019-07-23 11:23:15","powerComm":"已送电","subsNo":"","lineNo":"","tgNo":"","tgName":null,"infoStatus":"1","orgName":"保定供电公司","typeName":null,"infoStatusName":null,"dateDay":null,"orgNos":null,"nowTime":null,"countyName":null,"streetName":null,"villageName":null,"roadName":null,"communityName":null,"tranName":null,"sdLineName":null,"cityCode":"13406","cityName":"保定供电公司","provinceCode":null,"stopTime":"2019-07-23 12:00:00","powerType":"全部","powerOffArea":"【单台区停电】停10kVB828配电室B828配电变压器","powerOffReason":"【停电原因】由于更换配电室高压负荷开关导致１０ＫＶ联盟路变电站５１８线路Ｂ８２８公变台区停电【变更送电】因抢修进度加快，原定15:00送电现计划12:00送电【发布渠道】通过９５５９８发布","powerOffId":"2019071813000221"},{"poweroffId":2019071813000217,"sgpoweroffId":null,"subsName":"","lineName":"10kV574营房线","pubTranName":"定州市清风店镇吴村村民委员会（新民居公用设施）变压器,王庄公用照明5台区,西街公用照明6台区,吴村公用农业4台区【纯农排变】,王庄村公用农业1台区【纯农排变】,吴村村公用照明1台区,王庄公用照明3台区,王庄村公用农业2台区【纯农排变】,王庄公用照明6台区,王庄公用照明4台区,吴村公用农业2台区【纯农排变】,吴村公用照明7台区,吴村面粉厂,吴村公用照明4台区,定州市清风店镇吴村村民委员会（照明）变压器,吴村公用农业5台区【纯农排变】,王庄村公用照明2台区,吴村公用农业1台区【纯农排变】,王庄村公用照明1台区,","scope":"【影响街道/乡镇】清风店镇【高危重要客户】无【影响客户】王庄村、吴村、西街","startTime":"2019-08-03 07:00:00","stopDate":"2019-08-03 10:00:00","orgNo":"1340610","typeCode":"计划停电","poweroffArea":"【分支停电】停定州市清风店镇吴村村民委员会（照明）变压器,定州市清风店镇吴村村民委员会（新民居公用设施）变压器,王庄公用照明5台区,西街公用照明6台区,吴村公用农业4台区【纯农排变】,王庄村公用农业1台区【纯农排变】,吴村村公用照明1台区,王庄公用照明3台区,王庄村公用农业2台区【纯农排变】,王庄公用照明6台区,王庄公用照明4台区,吴村公用农业2台区【纯农排变】,吴村公用照明7台区,吴村面粉厂,吴村公用照明4台区,吴村公用农业5台区【纯农排变】,王庄村公用照明2台区,吴村公用农业1台区【纯农排变】,王庄村公用照明1台区","poweroffReason":"【停电原因】由于更换变压器导致１１０ＫＶ清风店变电站１０ＫＶ５７４营房线路吴村大分支０１号杆０２号断路器以下线路停电 【变更送电】无 【发布渠道】河北省定州市定州日报第三版（２０１９年０７月１９日）","powerTime":"2019-08-03 09:58:34","powerComm":"已送电","subsNo":"","lineNo":"","tgNo":"","tgName":null,"infoStatus":"1","orgName":"国网定州市供电公司","typeName":null,"infoStatusName":null,"dateDay":null,"orgNos":null,"nowTime":null,"countyName":null,"streetName":null,"villageName":null,"roadName":null,"communityName":null,"tranName":null,"sdLineName":null,"cityCode":"1340610","cityName":"国网定州市供电公司","provinceCode":null,"stopTime":"2019-08-03 10:00:00","powerType":"全部","powerOffArea":"【分支停电】停定州市清风店镇吴村村民委员会（照明）变压器,定州市清风店镇吴村村民委员会（新民居公用设施）变压器,王庄公用照明5台区,西街公用照明6台区,吴村公用农业4台区【纯农排变】,王庄村公用农业1台区【纯农排变】,吴村村公用照明1台区,王庄公用照明3台区,王庄村公用农业2台区【纯农排变】,王庄公用照明6台区,王庄公用照明4台区,吴村公用农业2台区【纯农排变】,吴村公用照明7台区,吴村面粉厂,吴村公用照明4台区,吴村公用农业5台区【纯农排变】,王庄村公用照明2台区,吴村公用农业1台区【纯农排变】,王庄村公用照明1台区","powerOffReason":"【停电原因】由于更换变压器导致１１０ＫＶ清风店变电站１０ＫＶ５７４营房线路吴村大分支０１号杆０２号断路器以下线路停电 【变更送电】无 【发布渠道】河北省定州市定州日报第三版（２０１９年０７月１９日）","powerOffId":"2019071813000217"},{"poweroffId":2019071813000202,"sgpoweroffId":null,"subsName":"","lineName":"10KV541张村线","pubTranName":"史村公用农业10台区,张村公用农业5台区【纯农排变】,史村公用农业8台区【纯农排变】,史村公用照明2台区,定州市德龙环境工程有限公司变压器,史村公用农业20台区,东旺公用照明7台区,史村公用农业24台区,张村公用农业9台区【纯农排变】,史村公用农业23台区,史村公用农业15台区,张村公用农业4台区【纯农排变】,张村公用农业10台区【纯农排变】,定州市东旺镇卫生院,史村公用农业9台区【纯农排变】,张村公用农业11台区【纯农排变】,史村公用照明3台区,东旺公用照明10台区,史村公用农业2台区【纯农排变】,变压器,东旺公用照明6台区,史村公用照明5台区,张村公用农业8台区【纯农排变】,史村公用农业18台区【纯农排变】,史村公用农业14台区【纯农排变】,张村公用照明3台区,史村公用照明7台区,史村公用农业6台区【纯农排变】,定州市立平木材加工厂变压器,东旺镇五七厂,史村公用农业21台区【纯农排变】,史村公用农业4台区【纯农排变】,史村公用照明1台区,史村公用农业3台区【纯农排变】,东旺史村道,东旺王村道,史村公用农业12台区【纯农排变】,史村公用农业1台区【纯农排变】,史村公用农业26台区【纯农排变】,史村公用照明8台区,史村公用农业13台区,史村公用农业7台区【纯农排变】,史村公用农业19台区【纯农排变】,定州市东旺镇东旺村村民委员会（东旺张村道）变压器,张村公用农业2台区【纯农排变】,史村公用照明4台区,张村公用照明1台区,史村公用农业22台区【纯农排变】,东旺公用照明3台区,史村公用照明6台区,张村公用农业7台区【纯农排变】,张村公用照明2台区,史村公用农业25台区【纯农排变】,东旺小学公用照明台区,史村公用农业5台区,东旺公用照明1台区,定州市东旺镇东旺村村民委员会（东旺北口）变压器,东旺公用照明2台区,史村公用农业11台区【纯农排变】,史村公用农业16台区【纯农排变】,张村公用农业1台区【纯农排变】,客户投资_东旺公用照明4台区,张村公用农业3台区【纯农排变】,东旺公用照明5台区,张村公用农业6台区【纯农排变】,东旺公用照明9台区,定州市东旺镇东旺村委会,东旺公用照明8台区,史村公用农业17台区【纯农排变】,","scope":"【影响街道/乡镇】东旺镇【高危重要客户】无【影响客户】史村、张村、东旺","startTime":"2019-07-31 05:00:00","stopDate":"2019-07-31 17:00:00","orgNo":"1340610","typeCode":"计划停电","poweroffArea":"【全线路停电】停史村公用农业10台区,张村公用农业5台区【纯农排变】,史村公用农业8台区【纯农排变】,史村公用照明2台区,定州市德龙环境工程有限公司变压器,史村公用农业20台区,东旺公用照明7台区,史村公用农业24台区,张村公用农业9台区【纯农排变】,史村公用农业23台区,史村公用农业15台区,张村公用农业4台区【纯农排变】,张村公用农业10台区【纯农排变】,定州市东旺镇卫生院,史村公用农业9台区【纯农排变】,张村公用农业11台区【纯农排变】,史村公用照明3台区,东旺公用照明10台区,史村公用农业2台区【纯农排变】,变压器,东旺公用照明6台区,史村公用照明5台区,张村公用农业8台区【纯农排变】,史村公用农业18台区【纯农排变】,史村公用农业14台区【纯农排变】,张村公用照明3台区,史村公用照明7台区,史村公用农业6台区【纯农排变】,定州市立平木材加工厂变压器,东旺镇五七厂,史村公用农业21台区【纯农排变】,史村公用农业4台区【纯农排变】,史村公用照明1台区,史村公用农业3台区【纯农排变】,东旺史村道,东旺王村道,史村公用农业12台区【纯农排变】,史村公用农业1台区【纯农排变】,史村公用农业26台区【纯农排变】,史村公用照明8台区,史村公用农业13台区,史村公用农业7台区【纯农排变】,史村公用农业19台区【纯农排变】,定州市东旺镇东旺村村民委员会（东旺张村道）变压器,张村公用农业2台区【纯农排变】,史村公用照明4台区,张村公用照明1台区,史村公用农业22台区【纯农排变】,东旺公用照明3台区,史村公用照明6台区,张村公用农业7台区【纯农排变】,张村公用照明2台区,史村公用农业25台区【纯农排变】,东旺小学公用照明台区,史村公用农业5台区,东旺公用照明1台区,定州市东旺镇东旺村村民委员会（东旺北口）变压器,东旺公用照明2台区,史村公用农业11台区【纯农排变】,史村公用农业16台区【纯农排变】,张村公用农业1台区【纯农排变】,客户投资_东旺公用照明4台区,张村公用农业3台区【纯农排变】,东旺公用照明5台区,张村公用农业6台区【纯农排变】,东旺公用照明9台区,定州市东旺镇东旺村委会,东旺公用照明8台区,史村公用农业17台区【纯农排变】","poweroffReason":"【停电原因】由于更换导线导致１１０ＫＶ东亭变电站１０ＫＶ５４１张村线路全线停电 【变更送电】无 【发布渠道】河北省定州市定州日报第三版（２０１９年０７月１９日）","powerTime":"2019-07-31 16:31:38","powerComm":"已送电","subsNo":"","lineNo":"","tgNo":"","tgName":null,"infoStatus":"1","orgName":"国网定州市供电公司","typeName":null,"infoStatusName":null,"dateDay":null,"orgNos":null,"nowTime":null,"countyName":null,"streetName":null,"villageName":null,"roadName":null,"communityName":null,"tranName":null,"sdLineName":null,"cityCode":"1340610","cityName":"国网定州市供电公司","provinceCode":null,"stopTime":"2019-07-31 17:00:00","powerType":"全部","powerOffArea":"【全线路停电】停史村公用农业10台区,张村公用农业5台区【纯农排变】,史村公用农业8台区【纯农排变】,史村公用照明2台区,定州市德龙环境工程有限公司变压器,史村公用农业20台区,东旺公用照明7台区,史村公用农业24台区,张村公用农业9台区【纯农排变】,史村公用农业23台区,史村公用农业15台区,张村公用农业4台区【纯农排变】,张村公用农业10台区【纯农排变】,定州市东旺镇卫生院,史村公用农业9台区【纯农排变】,张村公用农业11台区【纯农排变】,史村公用照明3台区,东旺公用照明10台区,史村公用农业2台区【纯农排变】,变压器,东旺公用照明6台区,史村公用照明5台区,张村公用农业8台区【纯农排变】,史村公用农业18台区【纯农排变】,史村公用农业14台区【纯农排变】,张村公用照明3台区,史村公用照明7台区,史村公用农业6台区【纯农排变】,定州市立平木材加工厂变压器,东旺镇五七厂,史村公用农业21台区【纯农排变】,史村公用农业4台区【纯农排变】,史村公用照明1台区,史村公用农业3台区【纯农排变】,东旺史村道,东旺王村道,史村公用农业12台区【纯农排变】,史村公用农业1台区【纯农排变】,史村公用农业26台区【纯农排变】,史村公用照明8台区,史村公用农业13台区,史村公用农业7台区【纯农排变】,史村公用农业19台区【纯农排变】,定州市东旺镇东旺村村民委员会（东旺张村道）变压器,张村公用农业2台区【纯农排变】,史村公用照明4台区,张村公用照明1台区,史村公用农业22台区【纯农排变】,东旺公用照明3台区,史村公用照明6台区,张村公用农业7台区【纯农排变】,张村公用照明2台区,史村公用农业25台区【纯农排变】,东旺小学公用照明台区,史村公用农业5台区,东旺公用照明1台区,定州市东旺镇东旺村村民委员会（东旺北口）变压器,东旺公用照明2台区,史村公用农业11台区【纯农排变】,史村公用农业16台区【纯农排变】,张村公用农业1台区【纯农排变】,客户投资_东旺公用照明4台区,张村公用农业3台区【纯农排变】,东旺公用照明5台区,张村公用农业6台区【纯农排变】,东旺公用照明9台区,定州市东旺镇东旺村委会,东旺公用照明8台区,史村公用农业17台区【纯农排变】","powerOffReason":"【停电原因】由于更换导线导致１１０ＫＶ东亭变电站１０ＫＶ５４１张村线路全线停电 【变更送电】无 【发布渠道】河北省定州市定州日报第三版（２０１９年０７月１９日）","powerOffId":"2019071813000202"},{"poweroffId":2019071813000199,"sgpoweroffId":null,"subsName":"","lineName":"10kV570达子庄线","pubTranName":"庄头村公用农业10台区【纯农排变】,庄头公用农业5台区【纯农排变】,庄头公用农业8台区【纯农排变】,庄头公用农业6台区【纯农排变】,定州市庄头木材加工厂,庄头村公用农业7台区【纯农排变】,庄头公用农业12台区【纯农排变】,庄头村公用照明2台区,庄头村公用农业1台区【纯农排变】,庄头公用农业15台区【纯农排变】,庄头公用照明3台区,庄头公用农业4台区【纯农排变】,庄头村公用农业3台区【纯农排变】,庄头公用农业9台区【纯农排变】,庄头村公用农业14台区【纯农排变】,庄头公用农业13台区【纯农排变】,庄头公用照明1台区,庄头公用农业2台区【纯农排变】,庄头村公用农业11台区【纯农排变】,","scope":"【影响街道/乡镇】赵村乡【高危重要客户】无【影响客户】庄头","startTime":"2019-07-29 06:00:00","stopDate":"2019-07-29 17:00:00","orgNo":"1340610","typeCode":"计划停电","poweroffArea":"【分支停电】停庄头村公用农业10台区【纯农排变】,庄头公用农业5台区【纯农排变】,庄头公用农业8台区【纯农排变】,庄头公用农业6台区【纯农排变】,定州市庄头木材加工厂,庄头村公用农业7台区【纯农排变】,庄头公用农业12台区【纯农排变】,庄头村公用照明2台区,庄头村公用农业1台区【纯农排变】,庄头公用农业15台区【纯农排变】,庄头公用照明3台区,庄头公用农业4台区【纯农排变】,庄头村公用农业3台区【纯农排变】,庄头公用农业9台区【纯农排变】,庄头村公用农业14台区【纯农排变】,庄头公用农业13台区【纯农排变】,庄头公用照明1台区,庄头公用农业2台区【纯农排变】,庄头村公用农业11台区【纯农排变】","poweroffReason":"【停电原因】由于新架导线导致１１０ＫＶ焦化厂变电站１０ＫＶ５７０达子庄线路庄头村大分支１６号杆２６号隔离开关以下线路停电 【变更送电】无 【发布渠道】河北省定州市定州日报第三版（２０１９年０７月１９日）","powerTime":"2019-07-29 16:41:50","powerComm":"已送电","subsNo":"","lineNo":"","tgNo":"","tgName":null,"infoStatus":"1","orgName":"国网定州市供电公司","typeName":null,"infoStatusName":null,"dateDay":null,"orgNos":null,"nowTime":null,"countyName":null,"streetName":null,"villageName":null,"roadName":null,"communityName":null,"tranName":null,"sdLineName":null,"cityCode":"1340610","cityName":"国网定州市供电公司","provinceCode":null,"stopTime":"2019-07-29 17:00:00","powerType":"全部","powerOffArea":"【分支停电】停庄头村公用农业10台区【纯农排变】,庄头公用农业5台区【纯农排变】,庄头公用农业8台区【纯农排变】,庄头公用农业6台区【纯农排变】,定州市庄头木材加工厂,庄头村公用农业7台区【纯农排变】,庄头公用农业12台区【纯农排变】,庄头村公用照明2台区,庄头村公用农业1台区【纯农排变】,庄头公用农业15台区【纯农排变】,庄头公用照明3台区,庄头公用农业4台区【纯农排变】,庄头村公用农业3台区【纯农排变】,庄头公用农业9台区【纯农排变】,庄头村公用农业14台区【纯农排变】,庄头公用农业13台区【纯农排变】,庄头公用照明1台区,庄头公用农业2台区【纯农排变】,庄头村公用农业11台区【纯农排变】","powerOffReason":"【停电原因】由于新架导线导致１１０ＫＶ焦化厂变电站１０ＫＶ５７０达子庄线路庄头村大分支１６号杆２６号隔离开关以下线路停电 【变更送电】无 【发布渠道】河北省定州市定州日报第三版（２０１９年０７月１９日）","powerOffId":"2019071813000199"},{"poweroffId":2019071813000197,"sgpoweroffId":null,"subsName":"","lineName":"10kV545钮店线","pubTranName":"钮店公用农业8台区(24)【纯农排变】,东王郝村公用农业4台区(9)【纯农排变】,变压器,钮店公用照明1台区(7),钮店公用农业11台区(22)【纯农排变】,东王郝村公用农业7台区(10)【纯农排变】,钮店公用照明2台区(6),钮店公用照明3台区(5),钮店公用照明10台区,定州市钮店蒸汽构件厂,钮店公用照明9台区,白五拾变压器,东牛村公用农业10台区(5)【纯农排变】,定州市通达田园农业科技有限公司变压器,定州市交通局（沙河桥收费站),钮店公用农业10台区(8)【纯农排变】,钮店公用农业29台区【纯农排变】,定州市天元建筑装饰工程有限公司,东王郝村公用农业8台区(11)【纯农排变】,钮店公用农业28台区【纯农排变】,钮店公用农业13台区(9)【纯农排变】,纽店木材收购加工厂,西牛村河西,西牛村河东,定州市国香养殖有限公司,钮店公用农业14台区(10)【纯农排变】,定州市宏峰水泥制品有限公司变压器,定州市顺利农产品专业合作社变压器,四方格林兰定州清洁能源科技有限公司变压器,0671899284-四方格林兰定州清洁能源科技有限公司-专变-212361180-四方格林兰定州清洁能源科技有限公司变压器,钮店公用照明12台区,钮店公用照明6台区(1),0681353466-定州市永固彩钢瓦厂-专变-221243035-定州市永固彩钢瓦厂变压器,钮店公用照明13台区,钮店公用照明14台区,东王郝村公用农业5台区(5)【纯农排变】,钮店公用照明4台区(5),0665243718-定州市亿隆建材有限公司-专变-201088830-定州市亿隆建材有限公司变压器,西牛村沙滩,西牛村（农业）,定州市高蓬镇西牛村村民委员会(村北东边)变压器,钮店公用照明11台区,钮店公用农业12台区(23)【纯农排变】,钮店公用农业15台区(33)【纯农排变】,钮店公用农业9台区(27)【纯农排变】,河北首农现代农业科技有限公司变压器,钮店公用照明8台区,西牛村村北东,定州市纽店木器厂,0627168868-定州市顺利农产品专业合作社-专变-139256600-定州市顺利农产品专业合作社变压器,钮店公用照明7台区(2),0665363915-定州市凯祥农产品农民专业合作社-专变-201098697-定州市凯祥农产品专业合作社变压器,钮店公用照明5台区(3),","scope":"【影响街道/乡镇】高蓬镇【高危重要客户】无【影响客户】钮店、东王郝村东北、牛村庄","startTime":"2019-07-18 14:33:04","stopDate":"2019-07-18 17:30:00","orgNo":"1340610","typeCode":"电网故障停限电","poweroffArea":"【全线路停电】停东王郝村公用农业7台区(10)【纯农排变】,钮店公用照明2台区(6),钮店公用照明3台区(5),钮店公用照明10台区,定州市钮店蒸汽构件厂,钮店公用照明9台区,白五拾变压器,东牛村公用农业10台区(5)【纯农排变】,定州市通达田园农业科技有限公司变压器,定州市交通局（沙河桥收费站),钮店公用农业10台区(8)【纯农排变】,钮店公用农业29台区【纯农排变】,定州市天元建筑装饰工程有限公司,东王郝村公用农业8台区(11)【纯农排变】,钮店公用农业28台区【纯农排变】,钮店公用农业13台区(9)【纯农排变】,四方格林兰定州清洁能源科技有限公司变压器,0671899284-四方格林兰定州清洁能源科技有限公司-专变-212361180-四方格林兰定州清洁能源科技有限公司变压器,钮店公用照明12台区,钮店公用照明6台区(1),0681353466-定州市永固彩钢瓦厂-专变-221243035-定州市永固彩钢瓦厂变压器,钮店公用农业8台区(24)【纯农排变】,东王郝村公用农业4台区(9)【纯农排变】,变压器,钮店公用照明1台区(7),钮店公用农业11台区(22)【纯农排变】,纽店木材收购加工厂,西牛村河西,西牛村河东,定州市国香养殖有限公司,钮店公用农业14台区(10)【纯农排变】,定州市宏峰水泥制品有限公司变压器,定州市顺利农产品专业合作社变压器,钮店公用照明13台区,钮店公用照明14台区,东王郝村公用农业5台区(5)【纯农排变】,钮店公用照明4台区(5),0665243718-定州市亿隆建材有限公司-专变-201088830-定州市亿隆建材有限公司变压器,西牛村沙滩,西牛村（农业）,定州市高蓬镇西牛村村民委员会(村北东边)变压器,钮店公用照明11台区,钮店公用农业12台区(23)【纯农排变】,钮店公用农业15台区(33)【纯农排变】,钮店公用照明5台区(3),钮店公用农业9台区(27)【纯农排变】,河北首农现代农业科技有限公司变压器,钮店公用照明8台区,西牛村村北东,0665363915-定州市凯祥农产品农民专业合作社-专变-201098697-定州市凯祥农产品专业合作社变压器,定州市纽店木器厂,0627168868-定州市顺利农产品专业合作社-专变-139256600-定州市顺利农产品专业合作社变压器,钮店公用照明7台区(2)","poweroffReason":"【停电原因】由于主干６８至６９号杆Ｂ相断线导致１１０ＫＶ庞村变电站１０ＫＶ５４５钮店线路全线停电 【变更送电】因抢修进度加快原因，送电时间由２１：００变更为１７：３０ 【发布渠道】９５５９８","powerTime":"2019-07-18 16:54:23","powerComm":"已送电","subsNo":"","lineNo":"","tgNo":"","tgName":null,"infoStatus":"1","orgName":"国网定州市供电公司","typeName":null,"infoStatusName":null,"dateDay":null,"orgNos":null,"nowTime":null,"countyName":null,"streetName":null,"villageName":null,"roadName":null,"communityName":null,"tranName":null,"sdLineName":null,"cityCode":"1340610","cityName":"国网定州市供电公司","provinceCode":null,"stopTime":"2019-07-18 17:30:00","powerType":"全部","powerOffArea":"【全线路停电】停东王郝村公用农业7台区(10)【纯农排变】,钮店公用照明2台区(6),钮店公用照明3台区(5),钮店公用照明10台区,定州市钮店蒸汽构件厂,钮店公用照明9台区,白五拾变压器,东牛村公用农业10台区(5)【纯农排变】,定州市通达田园农业科技有限公司变压器,定州市交通局（沙河桥收费站),钮店公用农业10台区(8)【纯农排变】,钮店公用农业29台区【纯农排变】,定州市天元建筑装饰工程有限公司,东王郝村公用农业8台区(11)【纯农排变】,钮店公用农业28台区【纯农排变】,钮店公用农业13台区(9)【纯农排变】,四方格林兰定州清洁能源科技有限公司变压器,0671899284-四方格林兰定州清洁能源科技有限公司-专变-212361180-四方格林兰定州清洁能源科技有限公司变压器,钮店公用照明12台区,钮店公用照明6台区(1),0681353466-定州市永固彩钢瓦厂-专变-221243035-定州市永固彩钢瓦厂变压器,钮店公用农业8台区(24)【纯农排变】,东王郝村公用农业4台区(9)【纯农排变】,变压器,钮店公用照明1台区(7),钮店公用农业11台区(22)【纯农排变】,纽店木材收购加工厂,西牛村河西,西牛村河东,定州市国香养殖有限公司,钮店公用农业14台区(10)【纯农排变】,定州市宏峰水泥制品有限公司变压器,定州市顺利农产品专业合作社变压器,钮店公用照明13台区,钮店公用照明14台区,东王郝村公用农业5台区(5)【纯农排变】,钮店公用照明4台区(5),0665243718-定州市亿隆建材有限公司-专变-201088830-定州市亿隆建材有限公司变压器,西牛村沙滩,西牛村（农业）,定州市高蓬镇西牛村村民委员会(村北东边)变压器,钮店公用照明11台区,钮店公用农业12台区(23)【纯农排变】,钮店公用农业15台区(33)【纯农排变】,钮店公用照明5台区(3),钮店公用农业9台区(27)【纯农排变】,河北首农现代农业科技有限公司变压器,钮店公用照明8台区,西牛村村北东,0665363915-定州市凯祥农产品农民专业合作社-专变-201098697-定州市凯祥农产品专业合作社变压器,定州市纽店木器厂,0627168868-定州市顺利农产品专业合作社-专变-139256600-定州市顺利农产品专业合作社变压器,钮店公用照明7台区(2)","powerOffReason":"【停电原因】由于主干６８至６９号杆Ｂ相断线导致１１０ＫＶ庞村变电站１０ＫＶ５４５钮店线路全线停电 【变更送电】因抢修进度加快原因，送电时间由２１：００变更为１７：３０ 【发布渠道】９５５９８","powerOffId":"2019071813000197"},{"poweroffId":2019071813000194,"sgpoweroffId":null,"subsName":"","lineName":"部队线512","pubTranName":"王京3065变压器【纯农排变】,王京村0441变压器【纯农排变】,王京4683变压器,王京东4852变压器【纯农排变】,王京镇政府0452变压器,","scope":"【影响街道/乡镇】王京镇【高危重要客户】无【影响客户】王京村、王京镇政府、银起钢材经销处、唐县隆鑫铸造厂、8642部队、保定中达铸造有限公司","startTime":"2019-07-18 14:29:45","stopDate":"2019-07-18 16:30:00","orgNo":"1340622","typeCode":"电网故障停限电","poweroffArea":"【全线路停电】停王京4683变压器,王京3065变压器【纯农排变】,王京东4852变压器【纯农排变】,王京村0441变压器【纯农排变】,王京镇政府0452变压器","poweroffReason":"【停电原因】由于鸟害导致３５ＫＶ王京变电站部队线５１２线路全线停电【变更送电】因抢修进度加快原因，送电时间由２２：００变更为１６：３０【发布渠道】通过９５５９８发布","powerTime":"2019-07-18 16:00:13","powerComm":"已送电","subsNo":"","lineNo":"","tgNo":"","tgName":null,"infoStatus":"1","orgName":"国网唐县供电公司","typeName":null,"infoStatusName":null,"dateDay":null,"orgNos":null,"nowTime":null,"countyName":null,"streetName":null,"villageName":null,"roadName":null,"communityName":null,"tranName":null,"sdLineName":null,"cityCode":"1340622","cityName":"国网唐县供电公司","provinceCode":null,"stopTime":"2019-07-18 16:30:00","powerType":"全部","powerOffArea":"【全线路停电】停王京4683变压器,王京3065变压器【纯农排变】,王京东4852变压器【纯农排变】,王京村0441变压器【纯农排变】,王京镇政府0452变压器","powerOffReason":"【停电原因】由于鸟害导致３５ＫＶ王京变电站部队线５１２线路全线停电【变更送电】因抢修进度加快原因，送电时间由２２：００变更为１６：３０【发布渠道】通过９５５９８发布","powerOffId":"2019071813000194"},{"poweroffId":2019071813000153,"sgpoweroffId":null,"subsName":"","lineName":"10kV513宋庄工业线","pubTranName":"恒业纺织有限公司3,宋庄四台区,瑞天纺织,宏业纺织厂,威胜毛纺厂,蠡县宋庄益源棉织厂变压器,恒业纺织变压器1,华泰纺织有限公司,宋庄北二,|新金利纺织有限公司,大水,恒业纺织有限公司5,金鑫纺织有限公司变压器,二涛,鑫达,永发,恒业纺织有限公司变压器2,跃军,小刚织布厂,旭光毛纺厂,恒业纺织有限公司6,华泽纺织有限公司,新金利纺织有限公司,国中织布,顺成棉业,金鑫纺织有限公司,宋庄浇地,桂林,二团,宋庄北浇地,艳军,","scope":"【影响街道/乡镇】林堡乡【高危重要客户】无【影响客户】宋庄工业区","startTime":"2019-07-18 16:00:00","stopDate":"2019-07-18 17:00:00","orgNo":"1340616","typeCode":"其他临时停电","poweroffArea":"【全线路停电】停二涛,顺成棉业,艳军,华泰纺织有限公司,|新金利纺织有限公司,宋庄四台区,小刚织布厂,宋庄浇地,恒业纺织有限公司5,国中织布,二团,恒业纺织有限公司6,跃军,宏业纺织厂,威胜毛纺厂,金鑫纺织有限公司变压器,永发,大水,金鑫纺织有限公司,桂林,宋庄北浇地,新金利纺织有限公司,宋庄北二,鑫达,恒业纺织有限公司3,蠡县宋庄益源棉织厂变压器,恒业纺织有限公司变压器2,恒业纺织变压器1,瑞天纺织,华泽纺织有限公司,旭光毛纺厂","poweroffReason":"【停电原因】由于３５ＫＶ林堡站主变消缺导致３５ＫＶ林堡变电站１０ＫＶ宋庄工业５１３线路全线停电【变更送电】无【发布渠道】通过９５５９８发布","powerTime":"2019-07-18 16:18:48","powerComm":"已送电","subsNo":"","lineNo":"","tgNo":"","tgName":null,"infoStatus":"1","orgName":"国网蠡县供电公司","typeName":null,"infoStatusName":null,"dateDay":null,"orgNos":null,"nowTime":null,"countyName":null,"streetName":null,"villageName":null,"roadName":null,"communityName":null,"tranName":null,"sdLineName":null,"cityCode":"1340616","cityName":"国网蠡县供电公司","provinceCode":null,"stopTime":"2019-07-18 17:00:00","powerType":"全部","powerOffArea":"【全线路停电】停二涛,顺成棉业,艳军,华泰纺织有限公司,|新金利纺织有限公司,宋庄四台区,小刚织布厂,宋庄浇地,恒业纺织有限公司5,国中织布,二团,恒业纺织有限公司6,跃军,宏业纺织厂,威胜毛纺厂,金鑫纺织有限公司变压器,永发,大水,金鑫纺织有限公司,桂林,宋庄北浇地,新金利纺织有限公司,宋庄北二,鑫达,恒业纺织有限公司3,蠡县宋庄益源棉织厂变压器,恒业纺织有限公司变压器2,恒业纺织变压器1,瑞天纺织,华泽纺织有限公司,旭光毛纺厂","powerOffReason":"【停电原因】由于３５ＫＶ林堡站主变消缺导致３５ＫＶ林堡变电站１０ＫＶ宋庄工业５１３线路全线停电【变更送电】无【发布渠道】通过９５５９８发布","powerOffId":"2019071813000153"},{"poweroffId":2019071813000150,"sgpoweroffId":null,"subsName":"","lineName":"10kV516东西营线","pubTranName":"东营综合8台区,西营综合6台区,西营农排5台区【纯农排变】,西营综合1台区,西营农排9台区【纯农排变】,西营综合3台区,保定德鑫纺织品制造有限公司变压器,客户投资_西营综合5台区,大朋,东营综合11台区,东营温馨家园,林堡5号,东营浇地1号,客户投资_东营综合2台区,西营农排1台区变压器,东营村委会,西营农排4台区【纯农排变】,东营综合12台区,林堡六,东营综合10台区【冬季供暖设施】,西营综合8台区,东营浇地7号西,渔池,西营农排7台区【纯农排变】,西营综合4台区,东营村浇地5号东,东营浇地10号,0469455377-东营村浇地五号-专变-46813156-东营村浇地5号,东营浇地8号,东营浇地7号,东营浇地6号东,东营浇地3号,东营浇地2号,东营村东北,东营浇地6号,西营农排6台区【纯农排变】,东营浇地4号,东营浇地3号东,东营综合7台区,东营综合9台区,东营浇地9号,蠡县磊鑫砂石料场,东营综合5台区,东营砖厂2,东营砖厂1,西营综合2台区,客户投资_东营综合3台区,东营综合4台区,东营综合6台区,东营浇地10号东,东营综合1台区,西营农排3台区【纯农排变】,西营综合7台区,","scope":"【影响街道/乡镇】林堡乡【高危重要客户】无【影响客户】西营村、东营村","startTime":"2019-07-18 16:00:00","stopDate":"2019-07-18 17:00:00","orgNo":"1340616","typeCode":"其他临时停电","poweroffArea":"【全线路停电】停东营综合4台区,西营农排1台区变压器,西营农排4台区【纯农排变】,东营综合12台区,东营综合8台区,东营综合6台区,西营农排9台区【纯农排变】,西营综合3台区,客户投资_西营综合5台区,大朋,东营温馨家园,林堡5号,东营村委会,东营浇地1号,西营综合6台区,西营农排6台区【纯农排变】,西营农排5台区【纯农排变】,西营综合1台区,东营综合5台区,客户投资_东营综合2台区,东营综合1台区,西营农排3台区【纯农排变】,西营综合7台区,东营综合11台区,林堡六,东营综合10台区【冬季供暖设施】,西营综合8台区,西营农排7台区【纯农排变】,西营综合4台区,东营村浇地5号东,东营浇地10号,东营浇地7号西,0469455377-东营村浇地五号-专变-46813156-东营村浇地5号,东营浇地8号,东营浇地7号,东营浇地6号东,东营浇地3号,东营浇地2号,东营村东北,东营浇地6号,东营浇地4号,东营浇地3号东,东营浇地10号东,东营综合7台区,渔池,东营综合9台区,东营浇地9号,蠡县磊鑫砂石料场,东营砖厂2,东营砖厂1,西营综合2台区,客户投资_东营综合3台区,保定德鑫纺织品制造有限公司变压器","poweroffReason":"【停电原因】由于３５ＫＶ林堡站主变消缺导致３５ＫＶ林堡变电站１０ＫＶ东西营５１６线路全线停电【变更送电】无【发布渠道】通过９５５９８发布","powerTime":"2019-07-18 16:19:09","powerComm":"已送电","subsNo":"","lineNo":"","tgNo":"","tgName":null,"infoStatus":"1","orgName":"国网蠡县供电公司","typeName":null,"infoStatusName":null,"dateDay":null,"orgNos":null,"nowTime":null,"countyName":null,"streetName":null,"villageName":null,"roadName":null,"communityName":null,"tranName":null,"sdLineName":null,"cityCode":"1340616","cityName":"国网蠡县供电公司","provinceCode":null,"stopTime":"2019-07-18 17:00:00","powerType":"全部","powerOffArea":"【全线路停电】停东营综合4台区,西营农排1台区变压器,西营农排4台区【纯农排变】,东营综合12台区,东营综合8台区,东营综合6台区,西营农排9台区【纯农排变】,西营综合3台区,客户投资_西营综合5台区,大朋,东营温馨家园,林堡5号,东营村委会,东营浇地1号,西营综合6台区,西营农排6台区【纯农排变】,西营农排5台区【纯农排变】,西营综合1台区,东营综合5台区,客户投资_东营综合2台区,东营综合1台区,西营农排3台区【纯农排变】,西营综合7台区,东营综合11台区,林堡六,东营综合10台区【冬季供暖设施】,西营综合8台区,西营农排7台区【纯农排变】,西营综合4台区,东营村浇地5号东,东营浇地10号,东营浇地7号西,0469455377-东营村浇地五号-专变-46813156-东营村浇地5号,东营浇地8号,东营浇地7号,东营浇地6号东,东营浇地3号,东营浇地2号,东营村东北,东营浇地6号,东营浇地4号,东营浇地3号东,东营浇地10号东,东营综合7台区,渔池,东营综合9台区,东营浇地9号,蠡县磊鑫砂石料场,东营砖厂2,东营砖厂1,西营综合2台区,客户投资_东营综合3台区,保定德鑫纺织品制造有限公司变压器","powerOffReason":"【停电原因】由于３５ＫＶ林堡站主变消缺导致３５ＫＶ林堡变电站１０ＫＶ东西营５１６线路全线停电【变更送电】无【发布渠道】通过９５５９８发布","powerOffId":"2019071813000150"},{"poweroffId":2019071813000144,"sgpoweroffId":null,"subsName":"","lineName":"10kV515孙庄线","pubTranName":"宋庄综合5台区,杨马庄农排6台区【纯农排变】,孙庄织布,林北一,杨马庄农排5台区【纯农排变】,蠡县瑞合纺织有限公司变压器,林堡综合7台区,林堡综合14台区,板厂,二军浇地,0469456501-蠡县泽丰纺织有限公司-专变-214329266-蠡县泽丰纺织有限公司变压器,孙庄浇地1号,杨马庄农排7台区【纯农排变】,孙庄浇地2,孙庄综合4台区,蠡县润通纺织有限公司变压器,孙庄综合1台区,杨马庄综合10台区,孙庄4台区,宋庄综合7台区,宋庄西浇地,建成织布,兴达,蠡县瑞祥纺织厂变压器,宋庄综合6台区,孙庄6号,杨马庄综合11台区,杨马庄农排3台区【纯农排变】,林北二,杨马庄综合9台区,蠡县达盛纺织厂变压器,建国,孙庄综合5台区,宋庄综合2台区,林堡3号,宋庄村北变压器,建修华盛棉织,杨马庄农排4台区【纯农排变】,林堡面粉厂,0546610927-蠡县宏源纺织有限公司-专变-48017880-宋庄兴达棉织厂变压器,宋庄综合3台区,宋庄综合1台区,林堡4号,杨马庄综合8台区,华泽,杨马庄综合2台区,中国移动通信集团河北有限公司蠡县分公司变压器,蠡县益源棉织厂变压器,杨马庄综合1台区,0618194577-蠡县润仕纺织有限公司-专变-208418455-蠡县润仕纺织有限公司,蠡县林堡乡宋庄小学变压器,孙庄综合2台区,孙庄3台区,0667625530-蠡县林堡乡宋家庄村卫生室-专变-208434804-蠡县林堡乡宋家庄村卫生室,孙庄7号,宋庄综合4台区,孙庄综合3台区,","scope":"【影响街道/乡镇】林堡乡【高危重要客户】无【影响客户】孙庄村、宋庄村、杨马庄村、林堡村","startTime":"2019-07-18 16:00:00","stopDate":"2019-07-18 17:00:00","orgNo":"1340616","typeCode":"其他临时停电","poweroffArea":"【全线路停电】停蠡县达盛纺织厂变压器,杨马庄综合10台区,宋庄西浇地,建成织布,宋庄综合6台区,建国,0546610927-蠡县宏源纺织有限公司-专变-48017880-宋庄兴达棉织厂变压器,孙庄浇地2,孙庄织布,孙庄6号,孙庄3台区,宋庄综合3台区,孙庄综合5台区,孙庄综合1台区,孙庄4台区,杨马庄农排3台区【纯农排变】,孙庄浇地1号,孙庄7号,杨马庄农排5台区【纯农排变】,建修华盛棉织,板厂,兴达,华泽,杨马庄综合9台区,孙庄综合3台区,杨马庄综合1台区,蠡县瑞祥纺织厂变压器,蠡县林堡乡宋庄小学变压器,蠡县润通纺织有限公司变压器,杨马庄综合8台区,宋庄综合4台区,孙庄综合2台区,宋庄综合7台区,0469456501-蠡县泽丰纺织有限公司-专变-214329266-蠡县泽丰纺织有限公司变压器,宋庄综合1台区,宋庄综合2台区,宋庄村北变压器,杨马庄综合2台区,林堡4号,林北一,孙庄综合4台区,杨马庄农排7台区【纯农排变】,林堡面粉厂,杨马庄综合11台区,二军浇地,林堡综合14台区,林堡3号,0618194577-蠡县润仕纺织有限公司-专变-208418455-蠡县润仕纺织有限公司,中国移动通信集团河北有限公司蠡县分公司变压器,0667625530-蠡县林堡乡宋家庄村卫生室-专变-208434804-蠡县林堡乡宋家庄村卫生室,林堡综合7台区,宋庄综合5台区,蠡县益源棉织厂变压器,蠡县瑞合纺织有限公司变压器,林北二,杨马庄农排6台区【纯农排变】,杨马庄农排4台区【纯农排变】","poweroffReason":"【停电原因】由于３５ＫＶ林堡站主变消缺导致３５ＫＶ林堡变电站１０ＫＶ孙庄５１５线路全线停电【变更送电】无【发布渠道】通过９５５９８发布","powerTime":"2019-07-18 16:19:33","powerComm":"已送电","subsNo":"","lineNo":"","tgNo":"","tgName":null,"infoStatus":"1","orgName":"国网蠡县供电公司","typeName":null,"infoStatusName":null,"dateDay":null,"orgNos":null,"nowTime":null,"countyName":null,"streetName":null,"villageName":null,"roadName":null,"communityName":null,"tranName":null,"sdLineName":null,"cityCode":"1340616","cityName":"国网蠡县供电公司","provinceCode":null,"stopTime":"2019-07-18 17:00:00","powerType":"全部","powerOffArea":"【全线路停电】停蠡县达盛纺织厂变压器,杨马庄综合10台区,宋庄西浇地,建成织布,宋庄综合6台区,建国,0546610927-蠡县宏源纺织有限公司-专变-48017880-宋庄兴达棉织厂变压器,孙庄浇地2,孙庄织布,孙庄6号,孙庄3台区,宋庄综合3台区,孙庄综合5台区,孙庄综合1台区,孙庄4台区,杨马庄农排3台区【纯农排变】,孙庄浇地1号,孙庄7号,杨马庄农排5台区【纯农排变】,建修华盛棉织,板厂,兴达,华泽,杨马庄综合9台区,孙庄综合3台区,杨马庄综合1台区,蠡县瑞祥纺织厂变压器,蠡县林堡乡宋庄小学变压器,蠡县润通纺织有限公司变压器,杨马庄综合8台区,宋庄综合4台区,孙庄综合2台区,宋庄综合7台区,0469456501-蠡县泽丰纺织有限公司-专变-214329266-蠡县泽丰纺织有限公司变压器,宋庄综合1台区,宋庄综合2台区,宋庄村北变压器,杨马庄综合2台区,林堡4号,林北一,孙庄综合4台区,杨马庄农排7台区【纯农排变】,林堡面粉厂,杨马庄综合11台区,二军浇地,林堡综合14台区,林堡3号,0618194577-蠡县润仕纺织有限公司-专变-208418455-蠡县润仕纺织有限公司,中国移动通信集团河北有限公司蠡县分公司变压器,0667625530-蠡县林堡乡宋家庄村卫生室-专变-208434804-蠡县林堡乡宋家庄村卫生室,林堡综合7台区,宋庄综合5台区,蠡县益源棉织厂变压器,蠡县瑞合纺织有限公司变压器,林北二,杨马庄农排6台区【纯农排变】,杨马庄农排4台区【纯农排变】","powerOffReason":"【停电原因】由于３５ＫＶ林堡站主变消缺导致３５ＫＶ林堡变电站１０ＫＶ孙庄５１５线路全线停电【变更送电】无【发布渠道】通过９５５９８发布","powerOffId":"2019071813000144"}],"pageModel":{"pageNow":810,"totalCount":10973,"totalPage":1098,"tableRows":0,"pageCount":10,"beginCount":8090},"isExperi":"1"}