{"message":"","today":"2020-06-15","seleList":[{"poweroffId":2019071713000525,"sgpoweroffId":null,"subsName":"","lineName":"大兰线514","pubTranName":"小兰村1号,","scope":"【影响街道/乡镇】良岗镇【高危重要客户】无【影响客户】小兰村","startTime":"2019-07-17 22:19:35","stopDate":"2019-07-18 12:00:00","orgNo":"1340625","typeCode":"电网故障停限电","poweroffArea":"【单台区停电】停小兰村1号","poweroffReason":"【停电原因】由于线路接地导致１１０ＫＶ良岗变电站大兰线５１４线路小兰村１＃公变台区停电【变更送电】因故障未排除原因，送电时间由０９：００延迟到１２：００【发布渠道】通过９５５９８发布","powerTime":"2019-07-18 11:15:43","powerComm":"已送电","subsNo":"","lineNo":"","tgNo":"","tgName":null,"infoStatus":"1","orgName":"国网易县供电公司","typeName":null,"infoStatusName":null,"dateDay":null,"orgNos":null,"nowTime":null,"countyName":null,"streetName":null,"villageName":null,"roadName":null,"communityName":null,"tranName":null,"sdLineName":null,"cityCode":"1340625","cityName":"国网易县供电公司","provinceCode":null,"stopTime":"2019-07-18 12:00:00","powerType":"全部","powerOffArea":"【单台区停电】停小兰村1号","powerOffReason":"【停电原因】由于线路接地导致１１０ＫＶ良岗变电站大兰线５１４线路小兰村１＃公变台区停电【变更送电】因故障未排除原因，送电时间由０９：００延迟到１２：００【发布渠道】通过９５５９８发布","powerOffId":"2019071713000525"},{"poweroffId":2019071713000513,"sgpoweroffId":null,"subsName":"","lineName":"加录线521","pubTranName":"五南变压器,","scope":"【影响街道/乡镇】新城镇 【高危重要客户】无 【影响客户】五南村","startTime":"2019-07-18 06:00:00","stopDate":"2019-07-18 08:00:00","orgNo":"1340612","typeCode":"其他临时停电","poweroffArea":"【单台区停电】停五南变压器","poweroffReason":"【停电原因】由于低压线路消缺导致１１０ＫＶ太平庄变电站１０ＫＶ加录５２１线路五南公变台区停电 【变更送电】无 【发布渠道】通过９５５９８发布","powerTime":"2019-07-18 07:32:38","powerComm":"已送电","subsNo":"","lineNo":"","tgNo":"","tgName":null,"infoStatus":"1","orgName":"国网高碑店市供电公司","typeName":null,"infoStatusName":null,"dateDay":null,"orgNos":null,"nowTime":null,"countyName":null,"streetName":null,"villageName":null,"roadName":null,"communityName":null,"tranName":null,"sdLineName":null,"cityCode":"1340612","cityName":"国网高碑店市供电公司","provinceCode":null,"stopTime":"2019-07-18 08:00:00","powerType":"全部","powerOffArea":"【单台区停电】停五南变压器","powerOffReason":"【停电原因】由于低压线路消缺导致１１０ＫＶ太平庄变电站１０ＫＶ加录５２１线路五南公变台区停电 【变更送电】无 【发布渠道】通过９５５９８发布","powerOffId":"2019071713000513"},{"poweroffId":2019071713000508,"sgpoweroffId":null,"subsName":"","lineName":"车站线513","pubTranName":"云飞塑料制品厂,留村10号,留村8号【纯农排变】,徐水盛安精神病康复医院,北常保15号,保定六合食品有限公司,留村13号,裕泰管件有限公司2号,天意橡胶厂,北常保5号【纯农排变】,留村面粉厂,保定裕泰管件有限公司3号,留村12号,南高桥木器厂,保定市天意橡胶厂分厂,留村6号,北常保7号【纯农排变】,留村9号,保定天福泵阀制造有限公司,北常保2号【纯农排变】,北常保14号,0637414296-保定市徐水区住房和城乡建设局路灯-专变-148444957-徐水县住房和城乡建设局路灯,保定乾坤福商贸有限公司,留村5号,海燕电线二厂,保定天骏挂车制造有限公司,北常保8号,海燕电线厂,保定市公安头盔厂,留村4号,徐水县美好生活超市有限公司,留村1号,北常保1号,留村3号,裕泰管件有限公司1号,中国移动通信集团河北有限公司徐水分公司留,留村信用社,北常保3号,保定六合食品有限公司1号,中国邮政储蓄银行徐水县支行,漕河地税分局,留村医院,保定中盾塑胶有限公司变压器,水利局仓库,保定光阳天然气利用有限公司,北常保4号,北常保6号,海燕电线二厂2号,保定友星体育用品有限公司,留村11号,北常保10号,","scope":"【影响街道/乡镇】留村镇 【高危重要客户】无 【影响客户】北常堡村、留村","startTime":"2019-07-17 21:20:25","stopDate":"2019-07-17 23:00:00","orgNo":"1340605","typeCode":"电网故障停限电","poweroffArea":"【全线路停电】停留村12号,留村13号,徐水县美好生活超市有限公司,留村9号,海燕电线二厂,漕河地税分局,保定中盾塑胶有限公司变压器,留村1号,留村8号【纯农排变】,留村4号,北常保6号,北常保15号,留村3号,中国移动通信集团河北有限公司徐水分公司留,留村10号,留村医院,徐水盛安精神病康复医院,北常保2号【纯农排变】,保定光阳天然气利用有限公司,保定友星体育用品有限公司,北常保4号,北常保7号【纯农排变】,保定乾坤福商贸有限公司,保定天骏挂车制造有限公司,海燕电线二厂2号,中国邮政储蓄银行徐水县支行,北常保5号【纯农排变】,保定天福泵阀制造有限公司,保定市公安头盔厂,保定六合食品有限公司,保定六合食品有限公司1号,保定裕泰管件有限公司3号,裕泰管件有限公司2号,北常保14号,留村6号,北常保3号,北常保10号,0637414296-保定市徐水区住房和城乡建设局路灯-专变-148444957-徐水县住房和城乡建设局路灯,留村11号,天意橡胶厂,保定市天意橡胶厂分厂,裕泰管件有限公司1号,留村5号,云飞塑料制品厂,南高桥木器厂,水利局仓库,留村信用社,留村面粉厂,北常保1号,北常保8号,海燕电线厂","poweroffReason":"【停电原因】由于Ｂ相接地导致漕河变电站车站５１３线路全线停电 【变更送电】无 【发布渠道】通过９５５９８发布","powerTime":"2019-07-17 22:30:20","powerComm":"已送电","subsNo":"","lineNo":"","tgNo":"","tgName":null,"infoStatus":"1","orgName":"国网徐水县供电公司","typeName":null,"infoStatusName":null,"dateDay":null,"orgNos":null,"nowTime":null,"countyName":null,"streetName":null,"villageName":null,"roadName":null,"communityName":null,"tranName":null,"sdLineName":null,"cityCode":"1340605","cityName":"国网徐水县供电公司","provinceCode":null,"stopTime":"2019-07-17 23:00:00","powerType":"全部","powerOffArea":"【全线路停电】停留村12号,留村13号,徐水县美好生活超市有限公司,留村9号,海燕电线二厂,漕河地税分局,保定中盾塑胶有限公司变压器,留村1号,留村8号【纯农排变】,留村4号,北常保6号,北常保15号,留村3号,中国移动通信集团河北有限公司徐水分公司留,留村10号,留村医院,徐水盛安精神病康复医院,北常保2号【纯农排变】,保定光阳天然气利用有限公司,保定友星体育用品有限公司,北常保4号,北常保7号【纯农排变】,保定乾坤福商贸有限公司,保定天骏挂车制造有限公司,海燕电线二厂2号,中国邮政储蓄银行徐水县支行,北常保5号【纯农排变】,保定天福泵阀制造有限公司,保定市公安头盔厂,保定六合食品有限公司,保定六合食品有限公司1号,保定裕泰管件有限公司3号,裕泰管件有限公司2号,北常保14号,留村6号,北常保3号,北常保10号,0637414296-保定市徐水区住房和城乡建设局路灯-专变-148444957-徐水县住房和城乡建设局路灯,留村11号,天意橡胶厂,保定市天意橡胶厂分厂,裕泰管件有限公司1号,留村5号,云飞塑料制品厂,南高桥木器厂,水利局仓库,留村信用社,留村面粉厂,北常保1号,北常保8号,海燕电线厂","powerOffReason":"【停电原因】由于Ｂ相接地导致漕河变电站车站５１３线路全线停电 【变更送电】无 【发布渠道】通过９５５９８发布","powerOffId":"2019071713000508"},{"poweroffId":2019071713000506,"sgpoweroffId":null,"subsName":"","lineName":"10kV563土地局线","pubTranName":"方园小区家属楼综合1台区,民政局,客户投资_农发行家属楼综合1台区,蠡县人民政府防空办公室人防多媒体警报终端,水利局家属楼综合1台区,垒德农排8台区【纯农排变】,残联综合1台区,蠡县伽佰利服装制造有限公司,垒德农排三台区【纯农排变】,35131010|北关砖厂(小）,蠡县正骨门诊部变压器,建行家属院综合1台区,人行小区,东城附小,北关砖厂(高计）,刘虎军,蠡县太行房地产开发有限公司,垒德农排四台区【纯农排变】,方圆小区综合2台区,垒德农排五台区【纯农排变】,城关土地所综合1台区,垒德农排七台区【纯农排变】,东南街北农排1台区【纯农排变】,德茂,冯广信家属院综合1台区,德茂二厂,垒德板厂东浇地,财政局,垒德农排六台区【纯农排变】,0675943291-垒德吃水井-专变-216229940-垒德吃水井,0469338717-蠡县人民检察院-专变-216165451-蠡县人民检察院400,垒德农排一台区【纯农排变】,方圆小区综合3台区,0683189261-蠡县兴和巴士有限公司-专变-223584100-蠡县兴和巴士有限公司,垒德农排二台区【纯农排变】,里中东路灯,检察院,东北街农排1台【纯农排变】,客户投资_垒德综合1台区,东南街农排2台区【纯农排变】,垒德综合2台区,义信综合一台区,李文会颗粒,圣杰喜农养殖厂有限公司,","scope":"【影响街道/乡镇】蠡吾镇【高危重要客户】无【影响客户】方圆小区北、农发行小区、人行小区、残联、方圆小区、财政局、民政局、义信小区、水利局小区、建行小区、检察院、第二实验小学、城关土地所小区、垒德村、冯广信家属院、北关砖厂","startTime":"2019-07-18 02:00:00","stopDate":"2019-07-18 05:00:00","orgNo":"1340616","typeCode":"其他临时停电","poweroffArea":"【分支停电】停人行小区,方园小区家属楼综合1台区,民政局,客户投资_农发行家属楼综合1台区,蠡县人民政府防空办公室人防多媒体警报终端,水利局家属楼综合1台区,垒德农排8台区【纯农排变】,残联综合1台区,蠡县伽佰利服装制造有限公司,垒德农排三台区【纯农排变】,35131010|北关砖厂(小）,蠡县正骨门诊部变压器,建行家属院综合1台区,东城附小,北关砖厂(高计）,刘虎军,蠡县太行房地产开发有限公司,垒德农排四台区【纯农排变】,方圆小区综合2台区,垒德农排五台区【纯农排变】,城关土地所综合1台区,垒德农排七台区【纯农排变】,东南街北农排1台区【纯农排变】,德茂,冯广信家属院综合1台区,德茂二厂,垒德板厂东浇地,财政局,垒德农排六台区【纯农排变】,0675943291-垒德吃水井-专变-216229940-垒德吃水井,0469338717-蠡县人民检察院-专变-216165451-蠡县人民检察院400,垒德农排一台区【纯农排变】,方圆小区综合3台区,0683189261-蠡县兴和巴士有限公司-专变-223584100-蠡县兴和巴士有限公司,垒德农排二台区【纯农排变】,里中东路灯,检察院,东北街农排1台【纯农排变】,客户投资_垒德综合1台区,东南街农排2台区【纯农排变】,垒德综合2台区,义信综合一台区,李文会颗粒,圣杰喜农养殖厂有限公司","poweroffReason":"【停电原因】由于线路严重缺陷,需停电进行紧急消缺导致１１０ＫＶ中滑变电站１０ＫＶ土地局５６３线路０５８号杆至０５９号杆停电【变更送电】无【发布渠道】通过９５５９８发布","powerTime":"2019-07-18 04:51:20","powerComm":"已送电","subsNo":"","lineNo":"","tgNo":"","tgName":null,"infoStatus":"1","orgName":"国网蠡县供电公司","typeName":null,"infoStatusName":null,"dateDay":null,"orgNos":null,"nowTime":null,"countyName":null,"streetName":null,"villageName":null,"roadName":null,"communityName":null,"tranName":null,"sdLineName":null,"cityCode":"1340616","cityName":"国网蠡县供电公司","provinceCode":null,"stopTime":"2019-07-18 05:00:00","powerType":"全部","powerOffArea":"【分支停电】停人行小区,方园小区家属楼综合1台区,民政局,客户投资_农发行家属楼综合1台区,蠡县人民政府防空办公室人防多媒体警报终端,水利局家属楼综合1台区,垒德农排8台区【纯农排变】,残联综合1台区,蠡县伽佰利服装制造有限公司,垒德农排三台区【纯农排变】,35131010|北关砖厂(小）,蠡县正骨门诊部变压器,建行家属院综合1台区,东城附小,北关砖厂(高计）,刘虎军,蠡县太行房地产开发有限公司,垒德农排四台区【纯农排变】,方圆小区综合2台区,垒德农排五台区【纯农排变】,城关土地所综合1台区,垒德农排七台区【纯农排变】,东南街北农排1台区【纯农排变】,德茂,冯广信家属院综合1台区,德茂二厂,垒德板厂东浇地,财政局,垒德农排六台区【纯农排变】,0675943291-垒德吃水井-专变-216229940-垒德吃水井,0469338717-蠡县人民检察院-专变-216165451-蠡县人民检察院400,垒德农排一台区【纯农排变】,方圆小区综合3台区,0683189261-蠡县兴和巴士有限公司-专变-223584100-蠡县兴和巴士有限公司,垒德农排二台区【纯农排变】,里中东路灯,检察院,东北街农排1台【纯农排变】,客户投资_垒德综合1台区,东南街农排2台区【纯农排变】,垒德综合2台区,义信综合一台区,李文会颗粒,圣杰喜农养殖厂有限公司","powerOffReason":"【停电原因】由于线路严重缺陷,需停电进行紧急消缺导致１１０ＫＶ中滑变电站１０ＫＶ土地局５６３线路０５８号杆至０５９号杆停电【变更送电】无【发布渠道】通过９５５９８发布","powerOffId":"2019071713000506"},{"poweroffId":2019071713000496,"sgpoweroffId":null,"subsName":"","lineName":"奇峰庄517","pubTranName":"阳谷庄4台区变压器,上岳格庄村7#,奇峰庄村4台区变压器,五里庄村1#,上岳各庄4#,奇峰庄村6#,阳谷庄3#,营房寺村4#,营房寺村3#,五里庄村2#,营房寺村1#,五里庄村3#,奇峰庄7#变压器,奇峰庄村2#,上岳格庄村9台区变压器,阳谷庄6#,阳谷庄村2#,奇峰庄5#,上岳格庄村6#,上岳格庄村3#,五里庄村5#,上岳格庄10号变压器,奇峰庄村3#,上岳格庄村8#,五里庄4#,阳谷庄村1#,奇峰庄村1#,五里庄6#,阳谷庄村5#,营房寺5台区,阳谷庄7#,营房寺2#,阳谷庄8#,","scope":"【影响街道/乡镇】梁格庄镇【高危重要客户】无【影响客户】阳谷庄村、奇峰庄村、上岳格庄村、营房寺村、五里庄村","startTime":"2019-07-17 20:31:46","stopDate":"2019-07-17 21:30:00","orgNo":"1340625","typeCode":"电网故障停限电","poweroffArea":"【分支停电】停阳谷庄6#,阳谷庄村2#,阳谷庄8#,阳谷庄4台区变压器,上岳格庄村7#,奇峰庄5#,上岳格庄村6#,上岳格庄村3#,五里庄村5#,上岳格庄10号变压器,奇峰庄村3#,上岳格庄村8#,五里庄4#,阳谷庄村1#,奇峰庄村1#,奇峰庄村4台区变压器,五里庄村1#,上岳各庄4#,奇峰庄村6#,阳谷庄3#,营房寺村4#,营房寺村3#,五里庄村2#,营房寺村1#,五里庄6#,阳谷庄村5#,营房寺5台区,阳谷庄7#,营房寺2#,五里庄村3#,奇峰庄7#变压器,奇峰庄村2#,上岳格庄村9台区变压器","poweroffReason":"【停电原因】由于线夹烧断导致３５ＫＶ龙湖变电站奇峰庄５１７线路００１号杆至０２５号杆之间停电【变更送电】因抢修进度加快原因，送电时间由２３:５９变更为２１:３０【发布渠道】通过９５５９８发布","powerTime":"2019-07-17 21:12:58","powerComm":"已送电","subsNo":"","lineNo":"","tgNo":"","tgName":null,"infoStatus":"1","orgName":"国网易县供电公司","typeName":null,"infoStatusName":null,"dateDay":null,"orgNos":null,"nowTime":null,"countyName":null,"streetName":null,"villageName":null,"roadName":null,"communityName":null,"tranName":null,"sdLineName":null,"cityCode":"1340625","cityName":"国网易县供电公司","provinceCode":null,"stopTime":"2019-07-17 21:30:00","powerType":"全部","powerOffArea":"【分支停电】停阳谷庄6#,阳谷庄村2#,阳谷庄8#,阳谷庄4台区变压器,上岳格庄村7#,奇峰庄5#,上岳格庄村6#,上岳格庄村3#,五里庄村5#,上岳格庄10号变压器,奇峰庄村3#,上岳格庄村8#,五里庄4#,阳谷庄村1#,奇峰庄村1#,奇峰庄村4台区变压器,五里庄村1#,上岳各庄4#,奇峰庄村6#,阳谷庄3#,营房寺村4#,营房寺村3#,五里庄村2#,营房寺村1#,五里庄6#,阳谷庄村5#,营房寺5台区,阳谷庄7#,营房寺2#,五里庄村3#,奇峰庄7#变压器,奇峰庄村2#,上岳格庄村9台区变压器","powerOffReason":"【停电原因】由于线夹烧断导致３５ＫＶ龙湖变电站奇峰庄５１７线路００１号杆至０２５号杆之间停电【变更送电】因抢修进度加快原因，送电时间由２３:５９变更为２１:３０【发布渠道】通过９５５９８发布","powerOffId":"2019071713000496"},{"poweroffId":2019071713000487,"sgpoweroffId":null,"subsName":"","lineName":"城南线513","pubTranName":"城关二供电所,城东站513联合关新村(630),城东站513联合关新村(500),涞源县太行建筑有限公司（阳光小区1）,联合关村委会出线间隔配电变压器,联大小区充电桩箱变出线间隔配电变压器,东方家园锅炉变压器,东外环公用变箱变出线间隔配电变压器,0684357070-涞源县阔宇房地产开发有限公司-专变-223598947-涞源县阔宇房地产开发有限公司变压器,涞源县顶利鲜商贸有限责任公司变压器,涞源县太行建筑有限公司（阳光小区2）,联大小区3号公用变,联大变压器,","scope":"【影响街道/乡镇】广平大街、阁院路、联大步行街、联大生活创意街、城区办【高危重要客户】无【影响客户】城里村、小北关村、水云乡村、粮局大院、新粮局、旧粮局、广播局家属楼、联合关、水云乡新村、城区办家属楼、联合关新村小区、东方家园、旧县医院大桥附近、瓦窑村","startTime":"2019-07-19 00:00:00","stopDate":"2019-07-19 01:20:00","orgNo":"1340615","typeCode":"临时停电","poweroffArea":"【全线路停电】停城关二供电所,城东站513联合关新村(630),城东站513联合关新村(500),涞源县太行建筑有限公司（阳光小区1）,联合关村委会出线间隔配电变压器,联大小区充电桩箱变出线间隔配电变压器,东方家园锅炉变压器,东外环公用变箱变出线间隔配电变压器,0684357070-涞源县阔宇房地产开发有限公司-专变-223598947-涞源县阔宇房地产开发有限公司变压器,涞源县顶利鲜商贸有限责任公司变压器,涞源县太行建筑有限公司（阳光小区2）,联大小区3号公用变,联大变压器","poweroffReason":"【停电原因】由于方式调整导致３５ＫＶ城东变电站１０ＫＶ城南线５１３线路全线停电【变更送电】因工作进度加快，原定２：００送电现计划１：２０送电【发布渠道】通过９５５９８发布","powerTime":"2019-07-19 00:42:58","powerComm":"已送电","subsNo":"","lineNo":"","tgNo":"","tgName":null,"infoStatus":"1","orgName":"国网涞源县供电公司","typeName":null,"infoStatusName":null,"dateDay":null,"orgNos":null,"nowTime":null,"countyName":null,"streetName":null,"villageName":null,"roadName":null,"communityName":null,"tranName":null,"sdLineName":null,"cityCode":"1340615","cityName":"国网涞源县供电公司","provinceCode":null,"stopTime":"2019-07-19 01:20:00","powerType":"全部","powerOffArea":"【全线路停电】停城关二供电所,城东站513联合关新村(630),城东站513联合关新村(500),涞源县太行建筑有限公司（阳光小区1）,联合关村委会出线间隔配电变压器,联大小区充电桩箱变出线间隔配电变压器,东方家园锅炉变压器,东外环公用变箱变出线间隔配电变压器,0684357070-涞源县阔宇房地产开发有限公司-专变-223598947-涞源县阔宇房地产开发有限公司变压器,涞源县顶利鲜商贸有限责任公司变压器,涞源县太行建筑有限公司（阳光小区2）,联大小区3号公用变,联大变压器","powerOffReason":"【停电原因】由于方式调整导致３５ＫＶ城东变电站１０ＫＶ城南线５１３线路全线停电【变更送电】因工作进度加快，原定２：００送电现计划１：２０送电【发布渠道】通过９５５９８发布","powerOffId":"2019071713000487"},{"poweroffId":2019071713000484,"sgpoweroffId":null,"subsName":"","lineName":"城南线513","pubTranName":"城东站513联合关新村(630),城东站513联合关新村(500),涞源县太行建筑有限公司（阳光小区1）,联合关村委会出线间隔配电变压器,联大小区充电桩箱变出线间隔配电变压器,东方家园锅炉变压器,东外环公用变箱变出线间隔配电变压器,0684357070-涞源县阔宇房地产开发有限公司-专变-223598947-涞源县阔宇房地产开发有限公司变压器,涞源县顶利鲜商贸有限责任公司变压器,涞源县太行建筑有限公司（阳光小区2）,联大小区3号公用变,联大变压器,城关二供电所,","scope":"【影响街道/乡镇】广平大街、阁院路、联大步行街、联大生活创意街、城区办【高危重要客户】无【影响客户】城里村、小北关村、水云乡村、粮局大院、新粮局、旧粮局、广播局家属楼、联合关、水云乡新村、城区办家属楼、联合关新村小区、东方家园、旧县医院大桥附近、瓦窑村","startTime":"2019-07-20 00:00:00","stopDate":"2019-07-20 01:00:00","orgNo":"1340615","typeCode":"临时停电","poweroffArea":"【全线路停电】停城关二供电所,城东站513联合关新村(630),城东站513联合关新村(500),涞源县太行建筑有限公司（阳光小区1）,联合关村委会出线间隔配电变压器,联大小区充电桩箱变出线间隔配电变压器,东方家园锅炉变压器,东外环公用变箱变出线间隔配电变压器,0684357070-涞源县阔宇房地产开发有限公司-专变-223598947-涞源县阔宇房地产开发有限公司变压器,涞源县顶利鲜商贸有限责任公司变压器,涞源县太行建筑有限公司（阳光小区2）,联大小区3号公用变,联大变压器","poweroffReason":"【停电原因】由于方式调整导致３５ＫＶ城东变电站１０ＫＶ城南线５１３线路全线停电【变更送电】因工作进度加快，原定０２：００送电现计划０１：００送电【发布渠道】通过９５５９８发布","powerTime":"2019-07-20 00:29:39","powerComm":"已送电","subsNo":"","lineNo":"","tgNo":"","tgName":null,"infoStatus":"1","orgName":"国网涞源县供电公司","typeName":null,"infoStatusName":null,"dateDay":null,"orgNos":null,"nowTime":null,"countyName":null,"streetName":null,"villageName":null,"roadName":null,"communityName":null,"tranName":null,"sdLineName":null,"cityCode":"1340615","cityName":"国网涞源县供电公司","provinceCode":null,"stopTime":"2019-07-20 01:00:00","powerType":"全部","powerOffArea":"【全线路停电】停城关二供电所,城东站513联合关新村(630),城东站513联合关新村(500),涞源县太行建筑有限公司（阳光小区1）,联合关村委会出线间隔配电变压器,联大小区充电桩箱变出线间隔配电变压器,东方家园锅炉变压器,东外环公用变箱变出线间隔配电变压器,0684357070-涞源县阔宇房地产开发有限公司-专变-223598947-涞源县阔宇房地产开发有限公司变压器,涞源县顶利鲜商贸有限责任公司变压器,涞源县太行建筑有限公司（阳光小区2）,联大小区3号公用变,联大变压器","powerOffReason":"【停电原因】由于方式调整导致３５ＫＶ城东变电站１０ＫＶ城南线５１３线路全线停电【变更送电】因工作进度加快，原定０２：００送电现计划０１：００送电【发布渠道】通过９５５９８发布","powerOffId":"2019071713000484"},{"poweroffId":2019071713000482,"sgpoweroffId":null,"subsName":"","lineName":"夏庄线526","pubTranName":"南石门村7#村中,","scope":"【影响街道/乡镇】梁各庄【高危重要客户】无【影响客户】南石门村","startTime":"2019-07-18 06:00:00","stopDate":"2019-07-18 18:00:00","orgNo":"1340625","typeCode":"其他临时停电","poweroffArea":"【单台区停电】停南石门村7#村中","poweroffReason":"【停电原因】由于变压器移位导致１１０ＫＶ西陵变电站夏庄线５２６线路南石门村７＃公变台区停电【变更送电】因工作进度加快原因，送电时间由２０:００变更为１８:００【发布渠道】通过９５５９８发布","powerTime":"2019-07-18 17:33:54","powerComm":"已送电","subsNo":"","lineNo":"","tgNo":"","tgName":null,"infoStatus":"1","orgName":"国网易县供电公司","typeName":null,"infoStatusName":null,"dateDay":null,"orgNos":null,"nowTime":null,"countyName":null,"streetName":null,"villageName":null,"roadName":null,"communityName":null,"tranName":null,"sdLineName":null,"cityCode":"1340625","cityName":"国网易县供电公司","provinceCode":null,"stopTime":"2019-07-18 18:00:00","powerType":"全部","powerOffArea":"【单台区停电】停南石门村7#村中","powerOffReason":"【停电原因】由于变压器移位导致１１０ＫＶ西陵变电站夏庄线５２６线路南石门村７＃公变台区停电【变更送电】因工作进度加快原因，送电时间由２０:００变更为１８:００【发布渠道】通过９５５９８发布","powerOffId":"2019071713000482"},{"poweroffId":2019071713000480,"sgpoweroffId":null,"subsName":"","lineName":"外环线514","pubTranName":"鸿博房地产变压器,执法局变压器,恒星花园1箱变出线间隔配电变压器,都市118箱变出现间隔配电变压器,恒星花园2箱变出线间隔配电变压器,联大高层箱变【2018配套送出及新增负荷】出线间隔配电变压器,城区教委加油站,0662917513-涞源县夏都假日酒店有限公司-专变-197597439-涞源县夏都假日酒店有限公司变压器,0548594926-涞源县鑫德建材销售处-专变-121793197-鑫德建材,中国联合网络通信有限公司涞源县分公司变压器,锦绣一区箱变出线间隔配电变压器,恒星花园箱变出线间隔配电变压器,0556923639-河北保定运输集团有限责任公司六公司加油站-专变-121816923-六公司加油站,联大高层出线间隔配电变压器,执法局箱变出线间隔配电变压器,联大高层2出线间隔配电变压器,涞源县城区办事处水云乡村村民委员会变压器,涞源县宏声家电摩托城库房变压器,后泉坊北,涞源县合旺机床加工部变压器,河北鸿博房地产开发有限公司变压器,康达木器厂,变压器,金艳良,","scope":"【影响街道/乡镇】１０８国道、广平大街、东外环路、城区办【高危重要客户】无【影响客户】联合关村、后泉坊村、恒星花园小区、锦绣花园小区、联大小区高层、信誉商厦、东购商场","startTime":"2019-07-19 00:00:00","stopDate":"2019-07-19 01:20:00","orgNo":"1340615","typeCode":"临时停电","poweroffArea":"【全线路停电】停变压器,金艳良,恒星花园2箱变出线间隔配电变压器,联大高层箱变【2018配套送出及新增负荷】出线间隔配电变压器,城区教委加油站,鸿博房地产变压器,执法局变压器,恒星花园1箱变出线间隔配电变压器,都市118箱变出现间隔配电变压器,0662917513-涞源县夏都假日酒店有限公司-专变-197597439-涞源县夏都假日酒店有限公司变压器,0548594926-涞源县鑫德建材销售处-专变-121793197-鑫德建材,中国联合网络通信有限公司涞源县分公司变压器,锦绣一区箱变出线间隔配电变压器,恒星花园箱变出线间隔配电变压器,0556923639-河北保定运输集团有限责任公司六公司加油站-专变-121816923-六公司加油站,联大高层出线间隔配电变压器,执法局箱变出线间隔配电变压器,联大高层2出线间隔配电变压器,涞源县城区办事处水云乡村村民委员会变压器,涞源县宏声家电摩托城库房变压器,后泉坊北,涞源县合旺机床加工部变压器,河北鸿博房地产开发有限公司变压器,康达木器厂","poweroffReason":"【停电原因】由于方式调整导致３５ＫＶ城东变电站１０ＫＶ外环线５１４线路全线停电【变更送电】因工作进度加快，原定２：００送电现计划１：２０送电【发布渠道】通过９５５９８发布","powerTime":"2019-07-19 00:44:35","powerComm":"已送电","subsNo":"","lineNo":"","tgNo":"","tgName":null,"infoStatus":"1","orgName":"国网涞源县供电公司","typeName":null,"infoStatusName":null,"dateDay":null,"orgNos":null,"nowTime":null,"countyName":null,"streetName":null,"villageName":null,"roadName":null,"communityName":null,"tranName":null,"sdLineName":null,"cityCode":"1340615","cityName":"国网涞源县供电公司","provinceCode":null,"stopTime":"2019-07-19 01:20:00","powerType":"全部","powerOffArea":"【全线路停电】停变压器,金艳良,恒星花园2箱变出线间隔配电变压器,联大高层箱变【2018配套送出及新增负荷】出线间隔配电变压器,城区教委加油站,鸿博房地产变压器,执法局变压器,恒星花园1箱变出线间隔配电变压器,都市118箱变出现间隔配电变压器,0662917513-涞源县夏都假日酒店有限公司-专变-197597439-涞源县夏都假日酒店有限公司变压器,0548594926-涞源县鑫德建材销售处-专变-121793197-鑫德建材,中国联合网络通信有限公司涞源县分公司变压器,锦绣一区箱变出线间隔配电变压器,恒星花园箱变出线间隔配电变压器,0556923639-河北保定运输集团有限责任公司六公司加油站-专变-121816923-六公司加油站,联大高层出线间隔配电变压器,执法局箱变出线间隔配电变压器,联大高层2出线间隔配电变压器,涞源县城区办事处水云乡村村民委员会变压器,涞源县宏声家电摩托城库房变压器,后泉坊北,涞源县合旺机床加工部变压器,河北鸿博房地产开发有限公司变压器,康达木器厂","powerOffReason":"【停电原因】由于方式调整导致３５ＫＶ城东变电站１０ＫＶ外环线５１４线路全线停电【变更送电】因工作进度加快，原定２：００送电现计划１：２０送电【发布渠道】通过９５５９８发布","powerOffId":"2019071713000480"},{"poweroffId":2019071713000477,"sgpoweroffId":null,"subsName":"","lineName":"外环线514","pubTranName":"变压器,金艳良,恒星花园2箱变出线间隔配电变压器,联大高层箱变【2018配套送出及新增负荷】出线间隔配电变压器,城区教委加油站,鸿博房地产变压器,执法局变压器,恒星花园1箱变出线间隔配电变压器,都市118箱变出现间隔配电变压器,0662917513-涞源县夏都假日酒店有限公司-专变-197597439-涞源县夏都假日酒店有限公司变压器,0548594926-涞源县鑫德建材销售处-专变-121793197-鑫德建材,中国联合网络通信有限公司涞源县分公司变压器,锦绣一区箱变出线间隔配电变压器,恒星花园箱变出线间隔配电变压器,0556923639-河北保定运输集团有限责任公司六公司加油站-专变-121816923-六公司加油站,联大高层出线间隔配电变压器,执法局箱变出线间隔配电变压器,联大高层2出线间隔配电变压器,涞源县城区办事处水云乡村村民委员会变压器,涞源县宏声家电摩托城库房变压器,后泉坊北,涞源县合旺机床加工部变压器,河北鸿博房地产开发有限公司变压器,康达木器厂,","scope":"【影响街道/乡镇】１０８国道、广平大街、东外环路、城区办【高危重要客户】无【影响客户】联合关村、后泉坊村、恒星花园小区、锦绣花园小区、联大小区高层、信誉商厦、东购商场","startTime":"2019-07-20 00:00:00","stopDate":"2019-07-20 01:00:00","orgNo":"1340615","typeCode":"临时停电","poweroffArea":"【全线路停电】停变压器,金艳良,恒星花园2箱变出线间隔配电变压器,联大高层箱变【2018配套送出及新增负荷】出线间隔配电变压器,城区教委加油站,鸿博房地产变压器,执法局变压器,恒星花园1箱变出线间隔配电变压器,都市118箱变出现间隔配电变压器,0662917513-涞源县夏都假日酒店有限公司-专变-197597439-涞源县夏都假日酒店有限公司变压器,0548594926-涞源县鑫德建材销售处-专变-121793197-鑫德建材,中国联合网络通信有限公司涞源县分公司变压器,锦绣一区箱变出线间隔配电变压器,恒星花园箱变出线间隔配电变压器,0556923639-河北保定运输集团有限责任公司六公司加油站-专变-121816923-六公司加油站,联大高层出线间隔配电变压器,执法局箱变出线间隔配电变压器,联大高层2出线间隔配电变压器,涞源县城区办事处水云乡村村民委员会变压器,涞源县宏声家电摩托城库房变压器,后泉坊北,涞源县合旺机床加工部变压器,河北鸿博房地产开发有限公司变压器,康达木器厂","poweroffReason":"【停电原因】由于方式调整导致３５ＫＶ城东变电站１０ＫＶ外环线５１４线路全线停电【变更送电】因工作进度加快，原定０２：００送电现计划０１：００送电【发布渠道】通过９５５９８发布","powerTime":"2019-07-20 00:30:34","powerComm":"已送电","subsNo":"","lineNo":"","tgNo":"","tgName":null,"infoStatus":"1","orgName":"国网涞源县供电公司","typeName":null,"infoStatusName":null,"dateDay":null,"orgNos":null,"nowTime":null,"countyName":null,"streetName":null,"villageName":null,"roadName":null,"communityName":null,"tranName":null,"sdLineName":null,"cityCode":"1340615","cityName":"国网涞源县供电公司","provinceCode":null,"stopTime":"2019-07-20 01:00:00","powerType":"全部","powerOffArea":"【全线路停电】停变压器,金艳良,恒星花园2箱变出线间隔配电变压器,联大高层箱变【2018配套送出及新增负荷】出线间隔配电变压器,城区教委加油站,鸿博房地产变压器,执法局变压器,恒星花园1箱变出线间隔配电变压器,都市118箱变出现间隔配电变压器,0662917513-涞源县夏都假日酒店有限公司-专变-197597439-涞源县夏都假日酒店有限公司变压器,0548594926-涞源县鑫德建材销售处-专变-121793197-鑫德建材,中国联合网络通信有限公司涞源县分公司变压器,锦绣一区箱变出线间隔配电变压器,恒星花园箱变出线间隔配电变压器,0556923639-河北保定运输集团有限责任公司六公司加油站-专变-121816923-六公司加油站,联大高层出线间隔配电变压器,执法局箱变出线间隔配电变压器,联大高层2出线间隔配电变压器,涞源县城区办事处水云乡村村民委员会变压器,涞源县宏声家电摩托城库房变压器,后泉坊北,涞源县合旺机床加工部变压器,河北鸿博房地产开发有限公司变压器,康达木器厂","powerOffReason":"【停电原因】由于方式调整导致３５ＫＶ城东变电站１０ＫＶ外环线５１４线路全线停电【变更送电】因工作进度加快，原定０２：００送电现计划０１：００送电【发布渠道】通过９５５９８发布","powerOffId":"2019071713000477"}],"pageModel":{"pageNow":812,"totalCount":10973,"totalPage":1098,"tableRows":0,"pageCount":10,"beginCount":8110},"isExperi":"1"}