{"message":"","today":"2020-06-15","seleList":[{"poweroffId":2019071713000131,"sgpoweroffId":null,"subsName":"","lineName":"10KV车厂511","pubTranName":"海波建材有限公司新增变压器,娄村李术江,涞水县顺合建材有限公司2000KVA专变,车厂北山光伏14号变压器,车厂村南山庄,南庄西三台区变压器,刘凤春化石厂,郑民机井0544变压器【纯农排变】,涞水海波建材有限公司630KVA专变,包家坟村东新,庞秀歧机井|0512变压器,车厂村南变压器【纯农排变】,张俊金机井变压器【纯农排变】,木井绿化井变压器,包家坟南台区变压器,木井2村南3配变,车厂北山光伏8号变压器,苏金龙井变压器【纯农排变】,娄村高家巷变压器,南庄西井配变,南庄2台区配变,车厂北山光伏7号变压器,娄村西2台区变压器,车厂北山光伏3号变压器,木井西2变压器,河北信诺众帮科技有限公司160KVA专变,木井西四台区变压器,半坡井变压器,娄村兰家巷二台区变压器,点将台2台区变压器,南庄西井2台区配变【纯农排变】,车厂七队变压器,包家坟北井变压器,车厂北山光伏5号变压器,娄村李占文|0478变压器,车厂村东变压器【冬季供暖设施】,南庄村南台区配变,涞水海波建材有限公司200专变,木井村西变压器,木井桥沟台区变压器,娄村蝎子山台区变压器【纯农排变】,南庄村东配变,车厂西山庄三台区变压器,南庄村北台区配变,娄村服务区630KVA专变,张凤坡机井变压器,河北正通翔市政道路315KVA专变,娄村服务区1000KVA专变,木井西井变压器【纯农排变】,车厂村内变压器,车厂北山光伏13号变压器,包家坟村变压器,包家坟西井变压器【纯农排变】,车厂南坡根井变压器,南庄东井配变,木井玉泉寺台区变压器,车厂南2台区变压器,木井村机井【纯农排变】,果园井2#变压器,车厂捞洼井变压器,娄村果园井【纯农排变】,郑万顺2号井变压器【纯农排变】,南山庄2井变压器,娄村釜山顶变压器,车厂东井|0447变压器【纯农排变】,木井学校变压器,兰家巷三台区变压器,车厂北山光伏1号变压器,车厂西山庄1台区变压器,木井南1变压器,娄村孙家坟井台区变压器【纯农排变】,张井恒机井变压器,娄村四队井变压器【纯农排变】,包家坟北水泉井变压器,木井南2配变,车厂北山光伏4号变压器,车厂村东三台区变压器,涞水正通翔程市政道路630变压器专变,南庄村西大棚菜配变,娄村道边井台区变压器,釜山灵泉寺台区变压器,南庄西2台区配变,娄村大石槽井0473变压器,庞秀岐滑石厂,车厂北山光伏10号变压器,南庄村东2台区配变,0468883492-王国良滑石二厂-专变-46618532-王国良滑石2,车厂西大井区变压器,张涿娄村服务区西充电桩配电变压器,木井南四台区配变,木井自来水井台区,车厂北山光伏11号变压器,包家坟村西井台区 变压器【纯农排变】,木井村【纯农排变】,娄村兰家巷4台区,包家坟道边井台区变压器【纯农排变】,点将台井变压器,车厂北山光伏12号变压器,包家坟高速路边井变压器,娄村绿化井变压器,车厂西山庄一台区变压器,海波建材1260KVA专变,张涿娄村服务区东充电桩母线间隔配电变压器,包家坟村东变压器,车厂北山光伏9号变压器,海波建材200KVA专变,木井大队台区变压器,木井学校台区配变,木井西3台区变压器,车厂北山光伏6号变压器,包家坟南井变压器【纯农排变】,娄村西1台区变压器,","scope":"【影响街道/乡镇】娄村乡 【高危重要客户】无 【影响客户】包家坟村、车厂村、木井村、娄村、兰家巷、高家巷、西坡、高速服务区、高速充电桩、南庄村、海波建材、顺合建材","startTime":"2019-07-17 08:49:54","stopDate":"2019-07-17 10:30:00","orgNo":"1340614","typeCode":"电网故障停限电","poweroffArea":"【全线路停电】停车厂村南变压器【纯农排变】,张俊金机井变压器【纯农排变】,木井绿化井变压器,包家坟南台区变压器,木井2村南3配变,车厂北山光伏8号变压器,苏金龙井变压器【纯农排变】,娄村高家巷变压器,南庄西井配变,南庄2台区配变,车厂北山光伏7号变压器,娄村西2台区变压器,车厂北山光伏3号变压器,木井西2变压器,河北信诺众帮科技有限公司160KVA专变,木井西四台区变压器,半坡井变压器,娄村兰家巷二台区变压器,点将台2台区变压器,南庄西井2台区配变【纯农排变】,车厂七队变压器,包家坟北井变压器,车厂北山光伏5号变压器,娄村李占文|0478变压器,车厂村东变压器【冬季供暖设施】,南庄村南台区配变,涞水海波建材有限公司200专变,木井村西变压器,木井桥沟台区变压器,娄村蝎子山台区变压器【纯农排变】,南庄村东配变,车厂西山庄三台区变压器,南庄村北台区配变,海波建材有限公司新增变压器,娄村李术江,涞水县顺合建材有限公司2000KVA专变,车厂北山光伏14号变压器,车厂村南山庄,南庄西三台区变压器,刘凤春化石厂,郑民机井0544变压器【纯农排变】,涞水海波建材有限公司630KVA专变,包家坟村东新,庞秀歧机井|0512变压器,娄村服务区630KVA专变,张凤坡机井变压器,河北正通翔市政道路315KVA专变,娄村服务区1000KVA专变,木井西井变压器【纯农排变】,车厂村内变压器,车厂北山光伏13号变压器,包家坟村变压器,包家坟西井变压器【纯农排变】,车厂南坡根井变压器,南庄东井配变,木井玉泉寺台区变压器,车厂南2台区变压器,木井村机井【纯农排变】,果园井2#变压器,车厂捞洼井变压器,娄村果园井【纯农排变】,郑万顺2号井变压器【纯农排变】,南山庄2井变压器,娄村釜山顶变压器,车厂东井|0447变压器【纯农排变】,张井恒机井变压器,娄村四队井变压器【纯农排变】,包家坟北水泉井变压器,木井南2配变,车厂北山光伏4号变压器,车厂村东三台区变压器,涞水正通翔程市政道路630变压器专变,南庄村西大棚菜配变,娄村道边井台区变压器,釜山灵泉寺台区变压器,南庄西2台区配变,娄村大石槽井0473变压器,庞秀岐滑石厂,车厂北山光伏10号变压器,南庄村东2台区配变,0468883492-王国良滑石二厂-专变-46618532-王国良滑石2,车厂西大井区变压器,张涿娄村服务区西充电桩配电变压器,木井南四台区配变,木井自来水井台区,车厂北山光伏11号变压器,包家坟村西井台区 变压器【纯农排变】,木井村【纯农排变】,娄村兰家巷4台区,包家坟道边井台区变压器【纯农排变】,点将台井变压器,车厂北山光伏12号变压器,包家坟高速路边井变压器,娄村绿化井变压器,车厂西山庄一台区变压器,海波建材1260KVA专变,张涿娄村服务区东充电桩母线间隔配电变压器,包家坟村东变压器,车厂北山光伏9号变压器,海波建材200KVA专变,木井大队台区变压器,木井学校台区配变,木井西3台区变压器,木井学校变压器,兰家巷三台区变压器,车厂北山光伏1号变压器,车厂西山庄1台区变压器,木井南1变压器,娄村孙家坟井台区变压器【纯农排变】,车厂北山光伏6号变压器,包家坟南井变压器【纯农排变】,娄村西1台区变压器,车厂北山光伏2号变压器,娄村西坡变压器,申城路桥木井250KVA专变,兰家巷变压器,包家坟,木井西1变压器","poweroffReason":"【停电原因】由于设备线夹烧毁导致３５ＫＶ娄村变电站１０ＫＶ车厂５１１线路全线停电 【变更送电】因抢修进度加快原因，送电时间由１２：００变更为１０：３０ 【发布渠道】通过９５５９８发布","powerTime":"2019-07-17 10:00:40","powerComm":"已送电","subsNo":"","lineNo":"","tgNo":"","tgName":null,"infoStatus":"1","orgName":"国网涞水县供电公司","typeName":null,"infoStatusName":null,"dateDay":null,"orgNos":null,"nowTime":null,"countyName":null,"streetName":null,"villageName":null,"roadName":null,"communityName":null,"tranName":null,"sdLineName":null,"cityCode":"1340614","cityName":"国网涞水县供电公司","provinceCode":null,"stopTime":"2019-07-17 10:30:00","powerType":"全部","powerOffArea":"【全线路停电】停车厂村南变压器【纯农排变】,张俊金机井变压器【纯农排变】,木井绿化井变压器,包家坟南台区变压器,木井2村南3配变,车厂北山光伏8号变压器,苏金龙井变压器【纯农排变】,娄村高家巷变压器,南庄西井配变,南庄2台区配变,车厂北山光伏7号变压器,娄村西2台区变压器,车厂北山光伏3号变压器,木井西2变压器,河北信诺众帮科技有限公司160KVA专变,木井西四台区变压器,半坡井变压器,娄村兰家巷二台区变压器,点将台2台区变压器,南庄西井2台区配变【纯农排变】,车厂七队变压器,包家坟北井变压器,车厂北山光伏5号变压器,娄村李占文|0478变压器,车厂村东变压器【冬季供暖设施】,南庄村南台区配变,涞水海波建材有限公司200专变,木井村西变压器,木井桥沟台区变压器,娄村蝎子山台区变压器【纯农排变】,南庄村东配变,车厂西山庄三台区变压器,南庄村北台区配变,海波建材有限公司新增变压器,娄村李术江,涞水县顺合建材有限公司2000KVA专变,车厂北山光伏14号变压器,车厂村南山庄,南庄西三台区变压器,刘凤春化石厂,郑民机井0544变压器【纯农排变】,涞水海波建材有限公司630KVA专变,包家坟村东新,庞秀歧机井|0512变压器,娄村服务区630KVA专变,张凤坡机井变压器,河北正通翔市政道路315KVA专变,娄村服务区1000KVA专变,木井西井变压器【纯农排变】,车厂村内变压器,车厂北山光伏13号变压器,包家坟村变压器,包家坟西井变压器【纯农排变】,车厂南坡根井变压器,南庄东井配变,木井玉泉寺台区变压器,车厂南2台区变压器,木井村机井【纯农排变】,果园井2#变压器,车厂捞洼井变压器,娄村果园井【纯农排变】,郑万顺2号井变压器【纯农排变】,南山庄2井变压器,娄村釜山顶变压器,车厂东井|0447变压器【纯农排变】,张井恒机井变压器,娄村四队井变压器【纯农排变】,包家坟北水泉井变压器,木井南2配变,车厂北山光伏4号变压器,车厂村东三台区变压器,涞水正通翔程市政道路630变压器专变,南庄村西大棚菜配变,娄村道边井台区变压器,釜山灵泉寺台区变压器,南庄西2台区配变,娄村大石槽井0473变压器,庞秀岐滑石厂,车厂北山光伏10号变压器,南庄村东2台区配变,0468883492-王国良滑石二厂-专变-46618532-王国良滑石2,车厂西大井区变压器,张涿娄村服务区西充电桩配电变压器,木井南四台区配变,木井自来水井台区,车厂北山光伏11号变压器,包家坟村西井台区 变压器【纯农排变】,木井村【纯农排变】,娄村兰家巷4台区,包家坟道边井台区变压器【纯农排变】,点将台井变压器,车厂北山光伏12号变压器,包家坟高速路边井变压器,娄村绿化井变压器,车厂西山庄一台区变压器,海波建材1260KVA专变,张涿娄村服务区东充电桩母线间隔配电变压器,包家坟村东变压器,车厂北山光伏9号变压器,海波建材200KVA专变,木井大队台区变压器,木井学校台区配变,木井西3台区变压器,木井学校变压器,兰家巷三台区变压器,车厂北山光伏1号变压器,车厂西山庄1台区变压器,木井南1变压器,娄村孙家坟井台区变压器【纯农排变】,车厂北山光伏6号变压器,包家坟南井变压器【纯农排变】,娄村西1台区变压器,车厂北山光伏2号变压器,娄村西坡变压器,申城路桥木井250KVA专变,兰家巷变压器,包家坟,木井西1变压器","powerOffReason":"【停电原因】由于设备线夹烧毁导致３５ＫＶ娄村变电站１０ＫＶ车厂５１１线路全线停电 【变更送电】因抢修进度加快原因，送电时间由１２：００变更为１０：３０ 【发布渠道】通过９５５９８发布","powerOffId":"2019071713000131"},{"poweroffId":2019071713000123,"sgpoweroffId":null,"subsName":"","lineName":"10kV范阳西路528线路","pubTranName":"造纸厂农大小区（新）,","scope":"【影响街道/乡镇】双塔城区 【高危重要客户】无 【影响客户】造纸厂农大小区","startTime":"2019-07-19 08:00:00","stopDate":"2019-07-19 14:00:00","orgNo":"1340626","typeCode":"临时停电","poweroffArea":"【单台区停电】停造纸厂农大小区（新）","poweroffReason":"【停电原因】由于更换低压电缆导致１１０ＫＶ涿县变电站１０ＫＶ范阳西路５２８线路造纸厂农大小区公变台区停电 【变更送电】无 【发布渠道】通过９５５９８发布","powerTime":"2019-07-19 13:40:24","powerComm":"恢复送电","subsNo":"","lineNo":"","tgNo":"","tgName":null,"infoStatus":"1","orgName":"国网涿州市供电公司","typeName":null,"infoStatusName":null,"dateDay":null,"orgNos":null,"nowTime":null,"countyName":null,"streetName":null,"villageName":null,"roadName":null,"communityName":null,"tranName":null,"sdLineName":null,"cityCode":"1340626","cityName":"国网涿州市供电公司","provinceCode":null,"stopTime":"2019-07-19 14:00:00","powerType":"全部","powerOffArea":"【单台区停电】停造纸厂农大小区（新）","powerOffReason":"【停电原因】由于更换低压电缆导致１１０ＫＶ涿县变电站１０ＫＶ范阳西路５２８线路造纸厂农大小区公变台区停电 【变更送电】无 【发布渠道】通过９５５９８发布","powerOffId":"2019071713000123"},{"poweroffId":2019071713000113,"sgpoweroffId":null,"subsName":"","lineName":"10kv513城东线","pubTranName":"10KV513城东线于堤10014分支2号杆于堤村东南10014台区变压器,10KV513城东线主干91号杆于堤村市场10052台区变压器,10KV513城东线寺上10059分支10号杆寺上10059台区变压器,10KV513城东线寺上10059分支1号杆寺上村南10032台区变压器,10KV513城东线于堤10016分支10号杆于堤村内10016台区变压器,10KV513城东线于堤10016分支3号杆于堤村西57901台区变压器,10KV513城东线58404分支18号杆于堤村内58404台区变压器,10KV513城东线寺上39989分支6号杆寺上村西39989台区变压器,","scope":"【影响街道/乡镇】城东乡【高危重要客户】无【影响客户】南旺、寺上、于堤","startTime":"2019-07-17 08:05:10","stopDate":"2019-07-17 10:00:00","orgNo":"1340608","typeCode":"电网故障停限电","poweroffArea":"【分支停电】停10KV513城东线于堤10014分支2号杆于堤村东南10014台区变压器,10KV513城东线主干91号杆于堤村市场10052台区变压器,10KV513城东线寺上10059分支10号杆寺上10059台区变压器,10KV513城东线寺上10059分支1号杆寺上村南10032台区变压器,10KV513城东线于堤10016分支10号杆于堤村内10016台区变压器,10KV513城东线于堤10016分支3号杆于堤村西57901台区变压器,10KV513城东线58404分支18号杆于堤村内58404台区变压器,10KV513城东线寺上39989分支6号杆寺上村西39989台区变压器","poweroffReason":"【停电原因】由于低压线断导致３５ＫＶ城东变电站城东５１３线路５３号杆０２号开关以下线路停电【变更送电】无【发布渠道】通过９５５９８发布","powerTime":"2019-07-17 09:13:52","powerComm":"已送电","subsNo":"","lineNo":"","tgNo":"","tgName":null,"infoStatus":"1","orgName":"国网博野县供电公司","typeName":null,"infoStatusName":null,"dateDay":null,"orgNos":null,"nowTime":null,"countyName":null,"streetName":null,"villageName":null,"roadName":null,"communityName":null,"tranName":null,"sdLineName":null,"cityCode":"1340608","cityName":"国网博野县供电公司","provinceCode":null,"stopTime":"2019-07-17 10:00:00","powerType":"全部","powerOffArea":"【分支停电】停10KV513城东线于堤10014分支2号杆于堤村东南10014台区变压器,10KV513城东线主干91号杆于堤村市场10052台区变压器,10KV513城东线寺上10059分支10号杆寺上10059台区变压器,10KV513城东线寺上10059分支1号杆寺上村南10032台区变压器,10KV513城东线于堤10016分支10号杆于堤村内10016台区变压器,10KV513城东线于堤10016分支3号杆于堤村西57901台区变压器,10KV513城东线58404分支18号杆于堤村内58404台区变压器,10KV513城东线寺上39989分支6号杆寺上村西39989台区变压器","powerOffReason":"【停电原因】由于低压线断导致３５ＫＶ城东变电站城东５１３线路５３号杆０２号开关以下线路停电【变更送电】无【发布渠道】通过９５５９８发布","powerOffId":"2019071713000113"},{"poweroffId":2019071713000109,"sgpoweroffId":null,"subsName":"","lineName":"10kV东官庄557","pubTranName":"北封村内变压器,北南租村北2,北南租村北混变压器,北南租村北专变压器【纯农排变】,北南租村西混变压器,北汝河村北专2台区【纯农排变】,北瓦宅村北2台区,北瓦宅村北混变压器,北瓦宅村东北变压器,北瓦宅村东混变压器,北瓦宅村内混变压器,北瓦宅村西2变压器【纯农排变】,北瓦宅村西北混变压器,北瓦宅村西混变压器,东南租村东混变压器,东南租村东新,东南租村南3台区,东南租村南专【纯农排变】,东南租村内台区,东南租东南专变压器,南秋兰村东混变压器,南秋兰村南台区,南秋兰村西混变压器,南瓦宅村北2台区,南瓦宅村北混变压器,南瓦宅村东2,南瓦宅村东混变压器,南瓦宅村南混变压器,南瓦宅村内2,南瓦宅村内混变压器,南瓦宅村西2台区,南瓦宅村西北2台区,南秋兰村北混变压器,南瓦宅村西混变压器,南瓦宅村西南专【纯农排变】,南瓦宅村西专变压器【纯农排变】,南瓦宅东北专变压器,南瓦宅学校台区,司徒村北专变压器,司徒村东200【纯农排变】,司徒村东50专,司徒村东北|0827【纯农排变】,司徒村东混用台区,司徒村东南1台区【纯农排变】,司徒村南混变压器,司徒村内100,司徒村内2,司徒村内50,西南租村东混变压器,西南租村内混变压器,西南租村西台区,张家洼村北混用变压器,张家洼村东台区,张家洼村南混用变压器,","scope":"【影响街道】涞水镇、胡家庄乡、明义镇 【高危重要客户】无 【影响客户】南瓦宅村、北瓦宅村、南秋兰村、北封村、张家洼村、北南租村、东南租村、西南租村、司徒村","startTime":"2019-07-17 07:47:56","stopDate":"2019-07-17 10:30:00","orgNo":"1340614","typeCode":"电网故障停限电","poweroffArea":"【分支停电】停北封村内变压器,北南租村北2,北南租村北混变压器,北南租村北专变压器【纯农排变】,北南租村西混变压器,北汝河村北专2台区【纯农排变】,北瓦宅村北2台区,北瓦宅村北混变压器,北瓦宅村东北变压器,北瓦宅村东混变压器,北瓦宅村内混变压器,北瓦宅村西2变压器【纯农排变】,北瓦宅村西北混变压器,北瓦宅村西混变压器,东南租村东混变压器,东南租村东新,东南租村南3台区,东南租村南专【纯农排变】,东南租村内台区,东南租东南专变压器,南秋兰村东混变压器,南秋兰村南台区,南秋兰村西混变压器,南瓦宅村北2台区,南瓦宅村北混变压器,南瓦宅村东2,南瓦宅村东混变压器,南瓦宅村南混变压器,南瓦宅村内2,南瓦宅村内混变压器,南瓦宅村西2台区,南瓦宅村西北2台区,南秋兰村北混变压器,南【分支停电】停瓦宅村西混变压器,南瓦宅村西南专【纯农排变】,南瓦宅村西专变压器【纯农排变】,南瓦宅东北专变压器,南瓦宅学校台区,司徒村北专变压器,司徒村东200【纯农排变】,司徒村东50专,司徒村东北|0827【纯农排变】,司徒村东混用台区,司徒村东南1台区【纯农排变】,司徒村南混变压器,司徒村内100,司徒村内2,司徒村内50,西南租村东混变压器,西南租村内混变压器,西南租村西台区,张家洼村北混用变压器,张家洼村东台区,张家洼村南混用变压器","poweroffReason":"【停电原因】由于设备线夹烧毁导致１１０ＫＶ郭下变电站１０ＫＶ东官庄５５７线路８７号杆至１０１号杆停电 【变更送电】因抢修进度加快原因，送电时间由１１：３０变更为１０：３０ 【发布渠道】通过９５５９８发布","powerTime":"2019-07-17 10:01:00","powerComm":"已送电","subsNo":"","lineNo":"","tgNo":"","tgName":null,"infoStatus":"1","orgName":"国网涞水县供电公司","typeName":null,"infoStatusName":null,"dateDay":null,"orgNos":null,"nowTime":null,"countyName":null,"streetName":null,"villageName":null,"roadName":null,"communityName":null,"tranName":null,"sdLineName":null,"cityCode":"1340614","cityName":"国网涞水县供电公司","provinceCode":null,"stopTime":"2019-07-17 10:30:00","powerType":"全部","powerOffArea":"【分支停电】停北封村内变压器,北南租村北2,北南租村北混变压器,北南租村北专变压器【纯农排变】,北南租村西混变压器,北汝河村北专2台区【纯农排变】,北瓦宅村北2台区,北瓦宅村北混变压器,北瓦宅村东北变压器,北瓦宅村东混变压器,北瓦宅村内混变压器,北瓦宅村西2变压器【纯农排变】,北瓦宅村西北混变压器,北瓦宅村西混变压器,东南租村东混变压器,东南租村东新,东南租村南3台区,东南租村南专【纯农排变】,东南租村内台区,东南租东南专变压器,南秋兰村东混变压器,南秋兰村南台区,南秋兰村西混变压器,南瓦宅村北2台区,南瓦宅村北混变压器,南瓦宅村东2,南瓦宅村东混变压器,南瓦宅村南混变压器,南瓦宅村内2,南瓦宅村内混变压器,南瓦宅村西2台区,南瓦宅村西北2台区,南秋兰村北混变压器,南【分支停电】停瓦宅村西混变压器,南瓦宅村西南专【纯农排变】,南瓦宅村西专变压器【纯农排变】,南瓦宅东北专变压器,南瓦宅学校台区,司徒村北专变压器,司徒村东200【纯农排变】,司徒村东50专,司徒村东北|0827【纯农排变】,司徒村东混用台区,司徒村东南1台区【纯农排变】,司徒村南混变压器,司徒村内100,司徒村内2,司徒村内50,西南租村东混变压器,西南租村内混变压器,西南租村西台区,张家洼村北混用变压器,张家洼村东台区,张家洼村南混用变压器","powerOffReason":"【停电原因】由于设备线夹烧毁导致１１０ＫＶ郭下变电站１０ＫＶ东官庄５５７线路８７号杆至１０１号杆停电 【变更送电】因抢修进度加快原因，送电时间由１１：３０变更为１０：３０ 【发布渠道】通过９５５９８发布","powerOffId":"2019071713000109"},{"poweroffId":2019071713000105,"sgpoweroffId":null,"subsName":"","lineName":"10kV温仁线579","pubTranName":"2温仁二站外1【纯农排变】,1温仁内14,2温仁一站外8【纯农排变】,2温仁三站外4【纯农排变】,温仁小学1,延福桥内1号,2温仁一站外7【纯农排变】,1温仁内4,1温仁内21,0547067421-清苑县萬腾注塑厂-专变-47959877-清苑县万腾蓄电池配件厂,2温仁一站外12【纯农排变】,1温仁内23,2温仁六站外10【纯农排变】,2温仁一站外4,|清苑县新华铸造厂,2温仁二站外4,1温仁内13,温仁中学2,1温仁内22,2温仁六站外2【纯农排变】,1温仁内8,2温仁一站外1【纯农排变】,1温仁内9,国网河北清苑县供电公司王盘供电所,2孟庄外2台区【纯农排变】,2温仁二站外10【纯农排变】,2温仁一站外5【纯农排变】,延福桥外1台区【纯农排变】,0667680948-清苑县利民加油站-专变-208445891-清苑县利民加油站,温仁邮局,1温仁内27,河北省清苑县温仁砼制品加工厂,1温仁内1,2温仁一站外3【纯农排变】,2温仁二站外6【纯农排变】,温仁中学4,温仁中学3,2温仁一站外9【纯农排变】,2温仁三站外2【纯农排变】,1温仁内12,2温仁三站外9【纯农排变】,2温仁六站外14【纯农排变】,2温仁六站外4【纯农排变】,2温仁二站外3【纯农排变】,2温仁六站外1【纯农排变】,2温仁三站外7【纯农排变】,2温仁一站外10【纯农排变】,0547598738-清苑县萬腾注塑厂-专变-48030695-清苑县万腾畜电池配件厂,2孟庄外1台区【纯农排变】,温仁医院,1温仁内18,2温仁六站外9【纯农排变】,2温仁三站外8【纯农排变】,温仁小学2,2温仁六站外15【纯农排变】,0571015250-清苑县康达塑料制品厂-专变-119516202-清苑县康达塑料制品厂,2温仁一站外2【纯农排变】,1温仁内5,2温仁二站外2【纯农排变】,1温仁内16,2温仁二站外5【纯农排变】,2良寨外4【纯农排变】,温仁幼儿园2,温仁福利面粉厂,2温仁六站外3【纯农排变】,2温仁一站外6【纯农排变】,1温仁内17,清苑县电力局,1温仁内7号,温仁中学1,2温仁六站外5【纯农排变】,2温仁六站外8【纯农排变】,保定市凯运新型建材制造有限公司,保定凯利印刷有限公司,温仁幼儿园1,2温仁六站外7【纯农排变】,1温仁内2,温仁水厂,1温仁内10,1温仁内15,保定莱盛打印机配件有限公司,2温仁二站外9【纯农排变】,保定市清苑区温仁镇温仁幼儿园,2温仁二站外7【纯农排变】,1温仁内3,2温仁三站外3【纯农排变】,2温仁一站外11【纯农排变】,1温仁内6,1温仁内25,2温仁六站外12【纯农排变】,中石化河北建投天然气有限公司,1温仁内11,1温仁内26,东风面粉厂,1温仁内19,2温仁六站外13【纯农排变】,凯峰织布厂,2温仁三站外6【纯农排变】,2温仁六站外11【纯农排变】,温仁织布厂,1温仁内24,温仁6站外9,2温仁二站外8【纯农排变】,2温仁六站外6【纯农排变】,2温仁三站外5【纯农排变】,","scope":"【影响街道/乡镇】温仁乡 【高危重要客户】无 【影响客户】良寨、温仁、延福桥、南孟庄","startTime":"2019-07-17 07:27:12","stopDate":"2019-07-17 10:20:00","orgNo":"1340618","typeCode":"电网故障停限电","poweroffArea":"【全线路停电】停清苑县电力局,1温仁内7号,温仁中学1,2温仁六站外5【纯农排变】,2温仁六站外8【纯农排变】,保定市凯运新型建材制造有限公司,保定凯利印刷有限公司,温仁水厂,1温仁内10,1温仁内15,保定莱盛打印机配件有限公司,2温仁二站外9【纯农排变】,保定市清苑区温仁镇温仁幼儿园,2温仁二站外7【纯农排变】,1温仁内3,2温仁三站外3【纯农排变】,2温仁一站外11【纯农排变】,1温仁内6,1温仁内25,2温仁六站外12【纯农排变】,中石化河北建投天然气有限公司,1温仁内11,1温仁内26,东风面粉厂,1温仁内19,2温仁六站外13【纯农排变】,凯峰织布厂,2温仁三站外6【纯农排变】,2温仁三站外8【纯农排变】,温仁小学2,2温仁六站外15【纯农排变】,0571015250-清苑县康达塑料制品厂-专变-119516202-清苑县康达塑料制品厂,2温仁一站外2【纯农排变】,2温仁三站外9【纯农排变】,1温仁内5,2温仁二站外2【纯农排变】,1温仁内16,2温仁二站外5【纯农排变】,2良寨外4【纯农排变】,温仁幼儿园2,温仁福利面粉厂,2温仁六站外3【纯农排变】,2温仁一站外6【纯农排变】,1温仁内17,温仁幼儿园1,2温仁六站外7【纯农排变】,1温仁内2,2温仁三站外4【纯农排变】,温仁小学1,延福桥内1号,2温仁一站外7【纯农排变】,1温仁内4,1温仁内21,0547067421-清苑县萬腾注塑厂-专变-47959877-清苑县万腾蓄电池配件厂,2温仁一站外12【纯农排变】,1温仁内23,2温仁六站外10【纯农排变】,2温仁一站外4,|清苑县新华铸造厂,2温仁二站外4,1温仁内13,温仁中学2,1温仁内22,2温仁六站外2【纯农排变】,1温仁内8,2温仁一站外1【纯农排变】,1温仁内9,国网河北清苑县供电公司王盘供电所,2孟庄外2台区【纯农排变】,2温仁二站外10【纯农排变】,2温仁一站外5【纯农排变】,延福桥外1台区【纯农排变】,0667680948-清苑县利民加油站-专变-208445891-清苑县利民加油站,温仁邮局,1温仁内27,2温仁六站外11【纯农排变】,温仁织布厂,1温仁内24,温仁6站外9,2温仁二站外8【纯农排变】,2温仁六站外6【纯农排变】,2温仁三站外5【纯农排变】,河北省清苑县温仁砼制品加工厂,1温仁内1,2温仁一站外3【纯农排变】,2温仁二站外6【纯农排变】,温仁中学4,温仁中学3,2温仁一站外9【纯农排变】,2温仁三站外2【纯农排变】,2温仁二站外1【纯农排变】,1温仁内14,2温仁一站外8【纯农排变】,2温仁六站外1【纯农排变】,2温仁三站外7【纯农排变】,2温仁一站外10【纯农排变】,0547598738-清苑县萬腾注塑厂-专变-48030695-清苑县万腾畜电池配件厂,2孟庄外1台区【纯农排变】,温仁医院,1温仁内18,2温仁六站外9【纯农排变】,1温仁内12,2温仁六站外14【纯农排变】,2温仁六站外4【纯农排变】,2温仁二站外3【纯农排变】","poweroffReason":"【停电原因】由于主干１号杆开关掉闸导致１１０ＫＶ温仁变电站１０ＫＶ温仁线５７９线路全线停电 【变更送电】因抢修进度加快原因，送电时间由１３：００变更为１０：２０ 【发布渠道】通过９５５９８发布","powerTime":"2019-07-17 09:48:09","powerComm":"徐红星通知已送电","subsNo":"","lineNo":"","tgNo":"","tgName":null,"infoStatus":"1","orgName":"国网清苑县供电公司","typeName":null,"infoStatusName":null,"dateDay":null,"orgNos":null,"nowTime":null,"countyName":null,"streetName":null,"villageName":null,"roadName":null,"communityName":null,"tranName":null,"sdLineName":null,"cityCode":"1340618","cityName":"国网清苑县供电公司","provinceCode":null,"stopTime":"2019-07-17 10:20:00","powerType":"全部","powerOffArea":"【全线路停电】停清苑县电力局,1温仁内7号,温仁中学1,2温仁六站外5【纯农排变】,2温仁六站外8【纯农排变】,保定市凯运新型建材制造有限公司,保定凯利印刷有限公司,温仁水厂,1温仁内10,1温仁内15,保定莱盛打印机配件有限公司,2温仁二站外9【纯农排变】,保定市清苑区温仁镇温仁幼儿园,2温仁二站外7【纯农排变】,1温仁内3,2温仁三站外3【纯农排变】,2温仁一站外11【纯农排变】,1温仁内6,1温仁内25,2温仁六站外12【纯农排变】,中石化河北建投天然气有限公司,1温仁内11,1温仁内26,东风面粉厂,1温仁内19,2温仁六站外13【纯农排变】,凯峰织布厂,2温仁三站外6【纯农排变】,2温仁三站外8【纯农排变】,温仁小学2,2温仁六站外15【纯农排变】,0571015250-清苑县康达塑料制品厂-专变-119516202-清苑县康达塑料制品厂,2温仁一站外2【纯农排变】,2温仁三站外9【纯农排变】,1温仁内5,2温仁二站外2【纯农排变】,1温仁内16,2温仁二站外5【纯农排变】,2良寨外4【纯农排变】,温仁幼儿园2,温仁福利面粉厂,2温仁六站外3【纯农排变】,2温仁一站外6【纯农排变】,1温仁内17,温仁幼儿园1,2温仁六站外7【纯农排变】,1温仁内2,2温仁三站外4【纯农排变】,温仁小学1,延福桥内1号,2温仁一站外7【纯农排变】,1温仁内4,1温仁内21,0547067421-清苑县萬腾注塑厂-专变-47959877-清苑县万腾蓄电池配件厂,2温仁一站外12【纯农排变】,1温仁内23,2温仁六站外10【纯农排变】,2温仁一站外4,|清苑县新华铸造厂,2温仁二站外4,1温仁内13,温仁中学2,1温仁内22,2温仁六站外2【纯农排变】,1温仁内8,2温仁一站外1【纯农排变】,1温仁内9,国网河北清苑县供电公司王盘供电所,2孟庄外2台区【纯农排变】,2温仁二站外10【纯农排变】,2温仁一站外5【纯农排变】,延福桥外1台区【纯农排变】,0667680948-清苑县利民加油站-专变-208445891-清苑县利民加油站,温仁邮局,1温仁内27,2温仁六站外11【纯农排变】,温仁织布厂,1温仁内24,温仁6站外9,2温仁二站外8【纯农排变】,2温仁六站外6【纯农排变】,2温仁三站外5【纯农排变】,河北省清苑县温仁砼制品加工厂,1温仁内1,2温仁一站外3【纯农排变】,2温仁二站外6【纯农排变】,温仁中学4,温仁中学3,2温仁一站外9【纯农排变】,2温仁三站外2【纯农排变】,2温仁二站外1【纯农排变】,1温仁内14,2温仁一站外8【纯农排变】,2温仁六站外1【纯农排变】,2温仁三站外7【纯农排变】,2温仁一站外10【纯农排变】,0547598738-清苑县萬腾注塑厂-专变-48030695-清苑县万腾畜电池配件厂,2孟庄外1台区【纯农排变】,温仁医院,1温仁内18,2温仁六站外9【纯农排变】,1温仁内12,2温仁六站外14【纯农排变】,2温仁六站外4【纯农排变】,2温仁二站外3【纯农排变】","powerOffReason":"【停电原因】由于主干１号杆开关掉闸导致１１０ＫＶ温仁变电站１０ＫＶ温仁线５７９线路全线停电 【变更送电】因抢修进度加快原因，送电时间由１３：００变更为１０：２０ 【发布渠道】通过９５５９８发布","powerOffId":"2019071713000105"},{"poweroffId":2019071713000096,"sgpoweroffId":null,"subsName":"","lineName":"10kV东官庄557","pubTranName":"南瓦宅村东混变压器,北瓦宅村北2台区,南瓦宅村内2,南瓦宅村东2,瓦宅100KVA路灯变,西南租广场台区,北瓦宅村北混变压器,北瓦宅村东北变压器,司徒村东北|0827【纯农排变】,司徒村内100,司徒村东南1台区【纯农排变】,北瓦宅大队台区变压器,西南租村内混变压器,司徒村东混用台区,南瓦宅村西南专【纯农排变】,司徒村南混变压器,司徒村北专变压器,司徒村内50,北瓦宅村西混变压器,南瓦宅东北专变压器,南瓦宅村北混变压器,北瓦宅村西2变压器【纯农排变】,西南租村东混变压器,北瓦宅村东混变压器,北瓦宅北三台区,南瓦宅村内混变压器,司徒村内2,南瓦宅村北2台区,南瓦宅村西混变压器,南瓦宅村西2台区,南瓦宅村西北2台区,北瓦宅村内混变压器,北瓦宅面粉厂,西南租村内新建,司徒村东50专,司徒村东200【纯农排变】,南瓦宅村西专变压器【纯农排变】,南瓦宅村南混变压器,南瓦宅学校台区,南瓦宅东南专,北瓦宅村西北混变压器,","scope":"【影响街道/乡镇】涞水镇、明义镇、胡家庄乡 【高危重要客户】无 【影响客户】南瓦宅村、北瓦宅村、司徒村、西南租村","startTime":"2019-07-16 21:30:24","stopDate":"2019-07-17 07:30:00","orgNo":"1340614","typeCode":"电网故障停限电","poweroffArea":"【分支停电】停南瓦宅村东混变压器,北瓦宅村北2台区,南瓦宅村内2,南瓦宅村东2,瓦宅100KVA路灯变,西南租广场台区,北瓦宅村北混变压器,北瓦宅村东北变压器,司徒村东北|0827【纯农排变】,司徒村内100,司徒村东南1台区【纯农排变】,北瓦宅大队台区变压器,西南租村内混变压器,司徒村东混用台区,南瓦宅村西南专【纯农排变】,司徒村南混变压器,司徒村北专变压器,司徒村内50,北瓦宅村西混变压器,南瓦宅东北专变压器,南瓦宅村北混变压器,北瓦宅村西2变压器【纯农排变】,西南租村东混变压器,北瓦宅村东混变压器,北瓦宅北三台区,南瓦宅村内混变压器,司徒村内2,南瓦宅村北2台区,南瓦宅村西混变压器,南瓦宅村西2台区,南瓦宅村西北2台区,北瓦宅村内混变压器,北瓦宅面粉厂,西南租村内新建,司徒村东50专,司徒村东200【纯农排变】,南瓦宅村西专变压器【纯农排变】,南瓦宅村南混变压器,南瓦宅学校台区,南瓦宅东南专,北瓦宅村西北混变压器","poweroffReason":"【停电原因】由于断路器跳闸导致１１０ＫＶ郭下变电站１０ＫＶ东管庄５５７线路１０号杆至６２号杆停电 【变更送电】无 【发布渠道】通过９５５９８发布","powerTime":"2019-07-17 07:16:31","powerComm":"已送电","subsNo":"","lineNo":"","tgNo":"","tgName":null,"infoStatus":"1","orgName":"国网涞水县供电公司","typeName":null,"infoStatusName":null,"dateDay":null,"orgNos":null,"nowTime":null,"countyName":null,"streetName":null,"villageName":null,"roadName":null,"communityName":null,"tranName":null,"sdLineName":null,"cityCode":"1340614","cityName":"国网涞水县供电公司","provinceCode":null,"stopTime":"2019-07-17 07:30:00","powerType":"全部","powerOffArea":"【分支停电】停南瓦宅村东混变压器,北瓦宅村北2台区,南瓦宅村内2,南瓦宅村东2,瓦宅100KVA路灯变,西南租广场台区,北瓦宅村北混变压器,北瓦宅村东北变压器,司徒村东北|0827【纯农排变】,司徒村内100,司徒村东南1台区【纯农排变】,北瓦宅大队台区变压器,西南租村内混变压器,司徒村东混用台区,南瓦宅村西南专【纯农排变】,司徒村南混变压器,司徒村北专变压器,司徒村内50,北瓦宅村西混变压器,南瓦宅东北专变压器,南瓦宅村北混变压器,北瓦宅村西2变压器【纯农排变】,西南租村东混变压器,北瓦宅村东混变压器,北瓦宅北三台区,南瓦宅村内混变压器,司徒村内2,南瓦宅村北2台区,南瓦宅村西混变压器,南瓦宅村西2台区,南瓦宅村西北2台区,北瓦宅村内混变压器,北瓦宅面粉厂,西南租村内新建,司徒村东50专,司徒村东200【纯农排变】,南瓦宅村西专变压器【纯农排变】,南瓦宅村南混变压器,南瓦宅学校台区,南瓦宅东南专,北瓦宅村西北混变压器","powerOffReason":"【停电原因】由于断路器跳闸导致１１０ＫＶ郭下变电站１０ＫＶ东管庄５５７线路１０号杆至６２号杆停电 【变更送电】无 【发布渠道】通过９５５９８发布","powerOffId":"2019071713000096"},{"poweroffId":2019071713000094,"sgpoweroffId":null,"subsName":"","lineName":"工业线517","pubTranName":"繁星街南延2号箱变配电变压器,康源洗衣-200,0011676761定兴县金鹏帽业有限公司,海龙冷冻食品,嘉会庄光2,金凯利包装厂-400,建行-200,京通客运-500,京通客运—500,0546834640-河北金鹏帽业有限公司-专变-47916142-金鹏帽业2,华艺制帽-250,小店路东光3,0636254730-*河北马大姐食品有限公司-专变-148240755-马大姐-1000,河北马大姐食品有限公司200,0552335810-*定兴县朗坤水处理技术服务有限公司-专变-50553881-污水处理800-2,0011676704*定兴自来水公司,合盛制帽厂250变压器,水榭康都-315,韩庄光2,0469093197-定兴县沛林综合商店-专变-46718544-*定兴县华新建筑材料厂,四街桥头公用【2018年重过载】,看守所公用,马大姐2号变—1000,河北森富达木包装制品厂,京通客运100变压器,汇丰公用2【2018年节能变】,韩庄光4,自来水公司—100,贯鸿地产315-2,0469288621-定兴金祥德制帽有限公司-专变-183744134-金祥德-200,繁星街南延1号箱变配电变压器,1000,定兴县巴兴火锅店-250,0681719547-定兴县教育局-专变-220701795-第四小学-630,贯鸿地产315-1,小店光6,大沟村光3,定兴县通利达汽车贸易有限公司,四街桥头公用2,0692104840-定兴县北控环境服务有限公司-专变-235672589-北控环境-100,盛德机械部件有限公司,","scope":"【影响街道/乡镇】定兴镇、繁兴街、南引路 【高危重要客户】无 【影响客户】自来水公司、建设银行、四街村桥头、南关村、华新建材城、贯鸿房地产、华兴、金地、福利厂、海龙冷冻食品、恒河机械、鑫超盛建筑公司、北京世代小区、金凯利包装厂、盛德机械部件有限公司、河北森富达木包装制品厂、华艺制帽、京通客运有限公司、金祥德制帽有限公司、马大姐食品、定兴县教育局、定兴县鑫明华印刷厂、北控环境服务有限公司、朗坤水处理技术服务有限公司、海龙冷冻食品、水榭康都小区、工商行、星宇物业、合盛制帽、第三实验小学、通利达汽车贸易有限公司、北控环境服务公司、韩庄、嘉会庄、大沟、小店村、康城物业、东风南方汽车销售服务有限公司、康源洗衣服务有限公司、金鹏帽业有限公司、看守所、武警中队","startTime":"2019-07-17 06:52:46","stopDate":"2019-07-17 10:00:00","orgNo":"1340609","typeCode":"电网故障停限电","poweroffArea":"【全线路停电】停繁星街南延2号箱变配电变压器,康源洗衣-200,0011676761定兴县金鹏帽业有限公司,海龙冷冻食品,嘉会庄光2,金凯利包装厂-400,建行-200,京通客运-500,京通客运—500,0546834640-河北金鹏帽业有限公司-专变-47916142-金鹏帽业2,华艺制帽-250,小店路东光3,0636254730-*河北马大姐食品有限公司-专变-148240755-马大姐-1000,河北马大姐食品有限公司200,盛德机械部件有限公司,0552335810-*定兴县朗坤水处理技术服务有限公司-专变-50553881-污水处理800-2,0011676704*定兴自来水公司,合盛制帽厂250变压器,水榭康都-315,韩庄光2,0469093197-定兴县沛林综合商店-专变-46718544-*定兴县华新建筑材料厂,四街桥头公用【2018年重过载】,看守所公用,马大姐2号变—1000,河北森富达木包装制品厂,京通客运100变压器,汇丰公用2【2018年节能变】,韩庄光4,自来水公司—100,贯鸿地产315-2,0469288621-定兴金祥德制帽有限公司-专变-183744134-金祥德-200,繁星街南延1号箱变配电变压器,1000,定兴县巴兴火锅店-250,0681719547-定兴县教育局-专变-220701795-第四小学-630,贯鸿地产315-1,小店光6,大沟村光3,定兴县通利达汽车贸易有限公司,四街桥头公用2,0692104840-定兴县北控环境服务有限公司-专变-235672589-北控环境-100","poweroffReason":"【停电原因】由于看守所分支６号杆树枝搭线导致３５ＫＶ城关变电站工业线５１７线路全线停电 【变更送电】因抢修进度加快原因，送电时间由１２：００变更为１０：００ 【发布渠道】通过９５５９８发布","powerTime":"2019-07-17 09:08:04","powerComm":"已送电","subsNo":"","lineNo":"","tgNo":"","tgName":null,"infoStatus":"1","orgName":"国网定兴县供电公司","typeName":null,"infoStatusName":null,"dateDay":null,"orgNos":null,"nowTime":null,"countyName":null,"streetName":null,"villageName":null,"roadName":null,"communityName":null,"tranName":null,"sdLineName":null,"cityCode":"1340609","cityName":"国网定兴县供电公司","provinceCode":null,"stopTime":"2019-07-17 10:00:00","powerType":"全部","powerOffArea":"【全线路停电】停繁星街南延2号箱变配电变压器,康源洗衣-200,0011676761定兴县金鹏帽业有限公司,海龙冷冻食品,嘉会庄光2,金凯利包装厂-400,建行-200,京通客运-500,京通客运—500,0546834640-河北金鹏帽业有限公司-专变-47916142-金鹏帽业2,华艺制帽-250,小店路东光3,0636254730-*河北马大姐食品有限公司-专变-148240755-马大姐-1000,河北马大姐食品有限公司200,盛德机械部件有限公司,0552335810-*定兴县朗坤水处理技术服务有限公司-专变-50553881-污水处理800-2,0011676704*定兴自来水公司,合盛制帽厂250变压器,水榭康都-315,韩庄光2,0469093197-定兴县沛林综合商店-专变-46718544-*定兴县华新建筑材料厂,四街桥头公用【2018年重过载】,看守所公用,马大姐2号变—1000,河北森富达木包装制品厂,京通客运100变压器,汇丰公用2【2018年节能变】,韩庄光4,自来水公司—100,贯鸿地产315-2,0469288621-定兴金祥德制帽有限公司-专变-183744134-金祥德-200,繁星街南延1号箱变配电变压器,1000,定兴县巴兴火锅店-250,0681719547-定兴县教育局-专变-220701795-第四小学-630,贯鸿地产315-1,小店光6,大沟村光3,定兴县通利达汽车贸易有限公司,四街桥头公用2,0692104840-定兴县北控环境服务有限公司-专变-235672589-北控环境-100","powerOffReason":"【停电原因】由于看守所分支６号杆树枝搭线导致３５ＫＶ城关变电站工业线５１７线路全线停电 【变更送电】因抢修进度加快原因，送电时间由１２：００变更为１０：００ 【发布渠道】通过９５５９８发布","powerOffId":"2019071713000094"},{"poweroffId":2019071713000085,"sgpoweroffId":null,"subsName":"","lineName":"水泥厂线512","pubTranName":"西峪7号,北陈庄3号【纯农排变】,西峪11号,西峪5号,北釜山16号【纯农排变】,白岭3号,岭南庄4号,白岭1号,白岭7号,岭南庄1号,西峪10号,西峪9号,岭南庄5号,白岭2号,北合庄2号,小黑山2号【纯农排变】,西峪8号,岭南庄3号,西峪1号,白岭4号,岭南庄2号,北陈庄5号,西峪2号,西峪3号,岭南庄7号,小黑山7号,白岭8号,白岭5号,北釜山5号,北陈庄2号,北釜山14号【纯农排变】,白岭6号,北合庄3号,岭南庄8号,北釜山10号,北合庄1号,北釜山8号,北陈庄4号,西峪6号,西峪4号,岭南庄6号,","scope":"【影响街道/乡镇】大王店镇 【高危重要客户】无 【影响客户】西峪村、岭南庄村、北釜山村、北合庄村、北陈庄村、白岭村、小黑山村","startTime":"2019-07-17 06:21:51","stopDate":"2019-07-17 12:00:00","orgNo":"1340605","typeCode":"电网故障停限电","poweroffArea":"【全线路停电】停西峪11号,岭南庄7号,北釜山5号,西峪6号,北合庄2号,岭南庄8号,西峪1号,西峪8号,北釜山8号,西峪9号,北陈庄2号,白岭1号,西峪5号,北釜山16号【纯农排变】,白岭6号,白岭5号,白岭3号,岭南庄2号,岭南庄1号,北合庄1号,小黑山7号,西峪7号,西峪3号,西峪2号,岭南庄5号,北釜山14号【纯农排变】,北陈庄5号,北陈庄4号,北陈庄3号【纯农排变】,白岭4号,白岭2号,小黑山2号【纯农排变】,西峪4号,西峪10号,岭南庄6号,岭南庄4号,岭南庄3号,北合庄3号,北釜山10号,白岭8号,白岭7号","poweroffReason":"【停电原因】由于Ｂ相接地导致３５ＫＶ黑山变电站水泥厂５１２线路全线停电 【变更送电】无 【发布渠道】通过９５５９８发布","powerTime":"2019-07-17 11:06:03","powerComm":"已送电","subsNo":"","lineNo":"","tgNo":"","tgName":null,"infoStatus":"1","orgName":"国网徐水县供电公司","typeName":null,"infoStatusName":null,"dateDay":null,"orgNos":null,"nowTime":null,"countyName":null,"streetName":null,"villageName":null,"roadName":null,"communityName":null,"tranName":null,"sdLineName":null,"cityCode":"1340605","cityName":"国网徐水县供电公司","provinceCode":null,"stopTime":"2019-07-17 12:00:00","powerType":"全部","powerOffArea":"【全线路停电】停西峪11号,岭南庄7号,北釜山5号,西峪6号,北合庄2号,岭南庄8号,西峪1号,西峪8号,北釜山8号,西峪9号,北陈庄2号,白岭1号,西峪5号,北釜山16号【纯农排变】,白岭6号,白岭5号,白岭3号,岭南庄2号,岭南庄1号,北合庄1号,小黑山7号,西峪7号,西峪3号,西峪2号,岭南庄5号,北釜山14号【纯农排变】,北陈庄5号,北陈庄4号,北陈庄3号【纯农排变】,白岭4号,白岭2号,小黑山2号【纯农排变】,西峪4号,西峪10号,岭南庄6号,岭南庄4号,岭南庄3号,北合庄3号,北釜山10号,白岭8号,白岭7号","powerOffReason":"【停电原因】由于Ｂ相接地导致３５ＫＶ黑山变电站水泥厂５１２线路全线停电 【变更送电】无 【发布渠道】通过９５５９８发布","powerOffId":"2019071713000085"},{"poweroffId":2019071713000049,"sgpoweroffId":null,"subsName":"","lineName":"10kV白塔582线路","pubTranName":"北野羊北0215变压器,野牛正北水变压器【纯农排变】,0692118218-北京泓源投资集团有限公司-专变-235641385-北京泓源投资集团有限公司6613,0692118218-北京泓源投资集团有限公司-专变-235641426-北京泓源投资集团有限公司6617,白塔村东0207变压器,野牛村西0394变压器,唐澳皮毛0292-1,白塔西南0240变压器变压器,北野羊南0216变压器,白塔小学7559变压器【煤改电】,野牛馨港警花园3241,白塔西南水变压器【纯农排变】,唐县鸿铭混凝土搅拌有限公司,0692118218-北京泓源投资集团有限公司-专变-235641418-北京泓源投资集团有限公司6616,野牛西北7125变压器,白塔内0212变压器,白塔西北0274变压器,思源小学7558变压器【煤改电】,野牛村2#2823,北野羊村北水0214变压器【纯农排变】,野牛村南0286变压器,野牛新增5175变压器,北野羊村南水2098变压器【纯农排变】,南也羊南0424变压器,野牛村1#2800,白塔西北水0246变压器【纯农排变】,0692118218-北京泓源投资集团有限公司-专变-235641438-北京泓源投资集团有限公司6619,冷库0206,白塔村西2146变压器,南也羊正南水变压器【纯农排变】,0692118218-北京泓源投资集团有限公司-专变-235640479-北京泓源投资集团有限公司6620,野牛村南水1147变压器【纯农排变】,野牛村东4929,北野羊6058变压器,白塔南0209变压器,南野羊村东0217,野牛村内0395变压器,野牛北东水变压器【纯农排变】,长古城野牛村农业灌溉新装配变,","scope":"【影响街道/乡镇】仁厚镇、长古城乡【高危重要客户】无【影响客户】野羊村、野牛村、白塔村、北京泓源投资集团有限公司、唐县鸿铭混凝土搅拌有限公司","startTime":"2019-07-17 05:17:29","stopDate":"2019-07-17 09:20:00","orgNo":"1340622","typeCode":"电网故障停限电","poweroffArea":"【全线路停电】停0692118218-北京泓源投资集团有限公司-专变-235641418-北京泓源投资集团有限公司6616,野牛西北7125变压器,野牛村2#2823,北野羊村北水0214变压器【纯农排变】,野牛村南0286变压器,野牛新增5175变压器,北野羊村南水2098变压器【纯农排变】,南也羊南0424变压器,野牛村1#2800,白塔西北水0246变压器【纯农排变】,0692118218-北京泓源投资集团有限公司-专变-235640479-北京泓源投资集团有限公司6620,0692118218-北京泓源投资集团有限公司-专变-235641438-北京泓源投资集团有限公司6619,冷库0206,白塔村西2146变压器,南也羊正南水变压器【纯农排变】,白塔南0209变压器,南野羊村东0217,野牛村内0395变压器,野牛北东水变压器【纯农排变】,长古城野牛村农业灌溉新装配变,北野羊北0215变压器,野牛正北水变压器【纯农排变】,野牛村南水1147变压器【纯农排变】,野牛村东4929,北野羊6058变压器,白塔内0212变压器,白塔西北0274变压器,思源小学7558变压器【煤改电】,0692118218-北京泓源投资集团有限公司-专变-235641385-北京泓源投资集团有限公司6613,0692118218-北京泓源投资集团有限公司-专变-235641426-北京泓源投资集团有限公司6617,白塔村东0207变压器,野牛村西0394变压器,唐澳皮毛0292-1,白塔西南0240变压器变压器,北野羊南0216变压器,白塔小学7559变压器【煤改电】,野牛馨港警花园3241,白塔西南水变压器【纯农排变】,唐县鸿铭混凝土搅拌有限公司","poweroffReason":"【停电原因】由于用户产权野牛小区高压计量故障导致１１０ＫＶ城南变电站白塔线５８２线路全线停电【变更送电】因抢修进度加快原因，送电时间由１２：００变更为０９：２０【发布渠道】通过９５５９８发布","powerTime":"2019-07-17 08:49:55","powerComm":"已送电","subsNo":"","lineNo":"","tgNo":"","tgName":null,"infoStatus":"1","orgName":"国网唐县供电公司","typeName":null,"infoStatusName":null,"dateDay":null,"orgNos":null,"nowTime":null,"countyName":null,"streetName":null,"villageName":null,"roadName":null,"communityName":null,"tranName":null,"sdLineName":null,"cityCode":"1340622","cityName":"国网唐县供电公司","provinceCode":null,"stopTime":"2019-07-17 09:20:00","powerType":"全部","powerOffArea":"【全线路停电】停0692118218-北京泓源投资集团有限公司-专变-235641418-北京泓源投资集团有限公司6616,野牛西北7125变压器,野牛村2#2823,北野羊村北水0214变压器【纯农排变】,野牛村南0286变压器,野牛新增5175变压器,北野羊村南水2098变压器【纯农排变】,南也羊南0424变压器,野牛村1#2800,白塔西北水0246变压器【纯农排变】,0692118218-北京泓源投资集团有限公司-专变-235640479-北京泓源投资集团有限公司6620,0692118218-北京泓源投资集团有限公司-专变-235641438-北京泓源投资集团有限公司6619,冷库0206,白塔村西2146变压器,南也羊正南水变压器【纯农排变】,白塔南0209变压器,南野羊村东0217,野牛村内0395变压器,野牛北东水变压器【纯农排变】,长古城野牛村农业灌溉新装配变,北野羊北0215变压器,野牛正北水变压器【纯农排变】,野牛村南水1147变压器【纯农排变】,野牛村东4929,北野羊6058变压器,白塔内0212变压器,白塔西北0274变压器,思源小学7558变压器【煤改电】,0692118218-北京泓源投资集团有限公司-专变-235641385-北京泓源投资集团有限公司6613,0692118218-北京泓源投资集团有限公司-专变-235641426-北京泓源投资集团有限公司6617,白塔村东0207变压器,野牛村西0394变压器,唐澳皮毛0292-1,白塔西南0240变压器变压器,北野羊南0216变压器,白塔小学7559变压器【煤改电】,野牛馨港警花园3241,白塔西南水变压器【纯农排变】,唐县鸿铭混凝土搅拌有限公司","powerOffReason":"【停电原因】由于用户产权野牛小区高压计量故障导致１１０ＫＶ城南变电站白塔线５８２线路全线停电【变更送电】因抢修进度加快原因，送电时间由１２：００变更为０９：２０【发布渠道】通过９５５９８发布","powerOffId":"2019071713000049"},{"poweroffId":2019071713000046,"sgpoweroffId":null,"subsName":"","lineName":"10kV江城站525线路","pubTranName":"0594148140-保定市同创塑料制造有限公司-专变-153238013-变压器,0356186797-富昌大队-专变,0356179665-保定第五建筑公司预制厂-专变,0666744238-保定中硕安邦包装制品有限公司-专变-208418438-变压器,0364006494-保定市新市区江城乡后高庄村民委员会-专变,0594148140-保定市同创塑料制造有限公司-专变,0356186739-富昌大队-专变,0358485131-保定市佳明电磁线有限公司-专变,0547708012-保定市新市区宝业装饰建材厂-专变,0368073207-保定市新市区江城乡后高庄村民委员会-专变,0685890141-保定市新市区鑫山变电设备厂-变压器,0363829384-保定市隆泰达建材有限公司-1-配电室-变压器-1,0685146648-保定市聚本聚酯有限公司-配电室-变压器,0613185532-保定市新市区颉庄乡康庄村村民委员会-专变,0356658649-保定罗地亚化学助剂制造有限公司-专变,0554806051-保定市新市区江城乡后高庄村民委员会-专变,0356181952-保定市腾龙机动车检测有限公司-专变,0356171599-保定市大兴纸制品加工厂-1-配电室-变压器-1,0356240831-保定新市区颉庄乡康庄村-专变,0561934729-保定市新市区富昌乡富昌社区村民委员会-专变,0580207963-保定市新市区富昌乡富昌社区村民委员会-专变,0593075430-保定市圣豪建筑材料制造有限公司-1-配电室-变压器-1,0595053421-保定市新市区富昌乡富昌社区村民委员会-专变,0637690214-保定市新市区惠优洗涤店-专变-148530060-变压器,","scope":"【影响街道/乡镇】富昌乡 【高危重要客户】无 【影响客户】富昌屯,富昌砖厂,保定市新市区江城乡后高庄村民委员会,保定市新市区惠优洗涤店,保定市北斗科技开发有限公司,束鹿元村,保定新市区颉庄乡康庄村,保定市普茂商贸有限公司,保定市东方冠龙铸业有限公司,保定市大阳新型建材有限公司,保定市华北塑料助剂厂,省四建予制件厂,保定市东方冠龙铸业有限公司,富昌大队,保定第五建筑公司预制厂,保定市新市区江城乡后高庄村民委员会,保定市茂源纸箱有限公司,保定市新市区颉庄乡康庄村村民委员会","startTime":"2019-07-17 04:43:54","stopDate":"2019-07-17 13:00:00","orgNo":"13406","typeCode":"电网故障停限电","poweroffArea":"【全线路停电】停0593075430-保定市圣豪建筑材料制造有限公司-1-配电室-变压器-1,0356658649-保定罗地亚化学助剂制造有限公司-专变,0666744238-保定中硕安邦包装制品有限公司-专变-208418438-变压器,0368073207-保定市新市区江城乡后高庄村民委员会-专变,0554806051-保定市新市区江城乡后高庄村民委员会-专变,0356181952-保定市腾龙机动车检测有限公司-专变,0561934729-保定市新市区富昌乡富昌社区村民委员会-专变,0595053421-保定市新市区富昌乡富昌社区村民委员会-专变,0358485131-保定市佳明电磁线有限公司-专变,0580207963-保定市新市区富昌乡富昌社区村民委员会-专变,0685890141-保定市新市区鑫山变电设备厂-变压器,0547708012-保定市新市区宝业装饰建材厂-专变,0363829384-保定市隆泰达建材有限公司-1-配电室-变压器-1,0637690214-保定市新市区惠优洗涤店-专变-148530060-变压器,0364006494-保定市新市区江城乡后高庄村民委员会-专变,0594148140-保定市同创塑料制造有限公司-专变-153238013-变压器,0685146648-保定市聚本聚酯有限公司-配电室-变压器,0356171599-保定市大兴纸制品加工厂-1-配电室-变压器-1,0356186797-富昌大队-专变,0594148140-保定市同创塑料制造有限公司-专变,0613185532-保定市新市区颉庄乡康庄村村民委员会-专变,0356240831-保定新市区颉庄乡康庄村-专变,0356179665-保定第五建筑公司预制厂-专变,0356186739-富昌大队-专变","poweroffReason":"【停电原因】由于过流跳闸导致１０ＫＶ江城变电站５２５线路全线停电【变更送电】因工作正在处理中，送电时间由１２:００变更为１５:００，因抢修进度加快，原定１５:００送电现计划１３:００送电【发布渠道】通过９５５９８发布","powerTime":"2019-07-17 12:37:01","powerComm":"已送电","subsNo":"","lineNo":"","tgNo":"","tgName":null,"infoStatus":"1","orgName":"保定供电公司","typeName":null,"infoStatusName":null,"dateDay":null,"orgNos":null,"nowTime":null,"countyName":null,"streetName":null,"villageName":null,"roadName":null,"communityName":null,"tranName":null,"sdLineName":null,"cityCode":"13406","cityName":"保定供电公司","provinceCode":null,"stopTime":"2019-07-17 13:00:00","powerType":"全部","powerOffArea":"【全线路停电】停0593075430-保定市圣豪建筑材料制造有限公司-1-配电室-变压器-1,0356658649-保定罗地亚化学助剂制造有限公司-专变,0666744238-保定中硕安邦包装制品有限公司-专变-208418438-变压器,0368073207-保定市新市区江城乡后高庄村民委员会-专变,0554806051-保定市新市区江城乡后高庄村民委员会-专变,0356181952-保定市腾龙机动车检测有限公司-专变,0561934729-保定市新市区富昌乡富昌社区村民委员会-专变,0595053421-保定市新市区富昌乡富昌社区村民委员会-专变,0358485131-保定市佳明电磁线有限公司-专变,0580207963-保定市新市区富昌乡富昌社区村民委员会-专变,0685890141-保定市新市区鑫山变电设备厂-变压器,0547708012-保定市新市区宝业装饰建材厂-专变,0363829384-保定市隆泰达建材有限公司-1-配电室-变压器-1,0637690214-保定市新市区惠优洗涤店-专变-148530060-变压器,0364006494-保定市新市区江城乡后高庄村民委员会-专变,0594148140-保定市同创塑料制造有限公司-专变-153238013-变压器,0685146648-保定市聚本聚酯有限公司-配电室-变压器,0356171599-保定市大兴纸制品加工厂-1-配电室-变压器-1,0356186797-富昌大队-专变,0594148140-保定市同创塑料制造有限公司-专变,0613185532-保定市新市区颉庄乡康庄村村民委员会-专变,0356240831-保定新市区颉庄乡康庄村-专变,0356179665-保定第五建筑公司预制厂-专变,0356186739-富昌大队-专变","powerOffReason":"【停电原因】由于过流跳闸导致１０ＫＶ江城变电站５２５线路全线停电【变更送电】因工作正在处理中，送电时间由１２:００变更为１５:００，因抢修进度加快，原定１５:００送电现计划１３:００送电【发布渠道】通过９５５９８发布","powerOffId":"2019071713000046"}],"pageModel":{"pageNow":816,"totalCount":10973,"totalPage":1098,"tableRows":0,"pageCount":10,"beginCount":8150},"isExperi":"1"}