{"message":"","today":"2020-06-15","seleList":[{"poweroffId":2019071613000023,"sgpoweroffId":null,"subsName":"","lineName":"10kV515石子厂线","pubTranName":"北下邑爱中3150农业|25003150【纯农排变】,北下邑永科2井3010农业|25003010【纯农排变】,北下邑半坡新增农业4427（TD）【纯农排变】,北下邑村北1820|25001820,南下邑红生2320农业|25002320【纯农排变】,南下邑1720|25001720,南下邑永健2120农业|25002120【纯农排变】,东河口东山坡农业（TD）6382【纯农排变】,北下邑小英2240农业|25002240【纯农排变】,北下邑占兄2250农业|25002250【纯农排变】,中下邑1910农业|25001910【纯农排变】,北下邑村东根云农业2924【纯农排变】,北下邑尖沟1840农业|25001840【纯农排变】,北下邑永科2080农业|25002080【纯农排变】,养鸡厂3190农业|25003190【纯农排变】,中下邑玉良2220农业|25002220【纯农排变】,南下邑村东农业（TD）0383【纯农排变】,南下邑西北农业7903【纯农排变】,小英2井2580农业|25002580【纯农排变】,中下邑1760|25001760,北下邑建方3140农业|25003140【纯农排变】,中下邑2190农业|25002190【纯农排变】,北下邑新增农业2号（TD）6969【纯农排变】,北下邑村东并北农业（TD）9880【纯农排变】,北下邑西沟里新增农业3600（TD）【纯农排变】,中下邑个体1950农业|25001950【纯农排变】,南下邑东3310|25003310,北下邑道边1850农业|25001850【纯农排变】,北下邑新增东农业4881【纯农排变】,北下邑根水2170农业|25002170【纯农排变】,南下邑致富2380农业|25002380【纯农排变】,马各庄小路边农业（TD）6383【纯农排变】,中下邑1770农业|25001770【纯农排变】,北下邑石人沟1870农业|25001870【纯农排变】,南下邑永健三3340农业|25003340【纯农排变】,北下邑新增农业1号（TD）7471【纯农排变】,北下邑村东南新增农业3603（TD）【纯农排变】,南下邑1740农业|25001740【纯农排变】,中下邑新增农业1号（TD）7474【纯农排变】,南下邑永健四3350农业|25003350【纯农排变】,南下邑红生二1980农业|25001980【纯农排变】,南下邑永健2130农业|25002130【纯农排变】,南下邑金坡2010农业|25002010【纯农排变】,中下邑村西新增农业2005157【纯农排变】,中下邑村北新增综合5506,南下邑西1750农业|25001750【纯农排变】,中下邑村西农业5472【纯农排变】,北下邑村北大道边北新增农业3602（TD）【纯农排变】,马各庄北1990农业|25001990【纯农排变】,北下邑村东小秋农业3417【纯农排变】,兴旺建材厂,北下邑新增农业【纯农排变】,中下邑村东1830|25001830,石料厂,中下邑山边新增农业4425（TD）【纯农排变】,北下邑村东并南农业（TD）0379【纯农排变】,北下邑村内综合7845,南下邑村南综合7846,","scope":"【影响街道/乡镇】河口乡【高危重要客户】无【影响客户】南下邑、中下邑、北下邑","startTime":"2019-07-16 05:02:54","stopDate":"2019-07-16 06:00:00","orgNo":"1340621","typeCode":"电网故障停限电","poweroffArea":"【全线路停电】停中下邑个体1950农业|25001950【纯农排变】,中下邑村西农业5472【纯农排变】,兴旺建材厂,东河口东山坡农业（TD）6382【纯农排变】,南下邑金坡2010农业|25002010【纯农排变】,北下邑永科2井3010农业|25003010【纯农排变】,中下邑1760|25001760,中下邑文忠石厂,南下邑永健四3350农业|25003350【纯农排变】,北下邑村东并北农业（TD）9880【纯农排变】","poweroffReason":"【停电原因】由于树枝搭线自行脱落造成跳闸导致３５ＫＶ河口变电站１０ＫＶ５１５石子厂线路全线停电【变更送电】因抢修进度加快原因，送电时间由１２：００变更为０６：００【发布渠道】通过９５５９８发布","powerTime":"2019-07-16 05:45:00","powerComm":"已送电","subsNo":"","lineNo":"","tgNo":"","tgName":null,"infoStatus":"1","orgName":"国网顺平县电力局","typeName":null,"infoStatusName":null,"dateDay":null,"orgNos":null,"nowTime":null,"countyName":null,"streetName":null,"villageName":null,"roadName":null,"communityName":null,"tranName":null,"sdLineName":null,"cityCode":"1340621","cityName":"国网顺平县电力局","provinceCode":null,"stopTime":"2019-07-16 06:00:00","powerType":"全部","powerOffArea":"【全线路停电】停中下邑个体1950农业|25001950【纯农排变】,中下邑村西农业5472【纯农排变】,兴旺建材厂,东河口东山坡农业（TD）6382【纯农排变】,南下邑金坡2010农业|25002010【纯农排变】,北下邑永科2井3010农业|25003010【纯农排变】,中下邑1760|25001760,中下邑文忠石厂,南下邑永健四3350农业|25003350【纯农排变】,北下邑村东并北农业（TD）9880【纯农排变】","powerOffReason":"【停电原因】由于树枝搭线自行脱落造成跳闸导致３５ＫＶ河口变电站１０ＫＶ５１５石子厂线路全线停电【变更送电】因抢修进度加快原因，送电时间由１２：００变更为０６：００【发布渠道】通过９５５９８发布","powerOffId":"2019071613000023"},{"poweroffId":2019071513000402,"sgpoweroffId":null,"subsName":"","lineName":"中旺517","pubTranName":"立各庄西南变压器,","scope":"【影响街道/乡镇】军城办事处 【高危重要客户】无 【影响客户】立各庄村","startTime":"2019-07-16 06:00:00","stopDate":"2019-07-16 14:00:00","orgNo":"1340612","typeCode":"其他临时停电","poweroffArea":"【单台区停电】停立各庄西南变压器","poweroffReason":"【停电原因】由于变台增容导致２２０ＫＶ高碑店变电站１０ＫＶ中旺５１７线路立各庄西南公变台区停电 【变更送电】无 【发布渠道】通过９５５９８发布","powerTime":"2019-07-16 13:50:43","powerComm":"已送电","subsNo":"","lineNo":"","tgNo":"","tgName":null,"infoStatus":"1","orgName":"国网高碑店市供电公司","typeName":null,"infoStatusName":null,"dateDay":null,"orgNos":null,"nowTime":null,"countyName":null,"streetName":null,"villageName":null,"roadName":null,"communityName":null,"tranName":null,"sdLineName":null,"cityCode":"1340612","cityName":"国网高碑店市供电公司","provinceCode":null,"stopTime":"2019-07-16 14:00:00","powerType":"全部","powerOffArea":"【单台区停电】停立各庄西南变压器","powerOffReason":"【停电原因】由于变台增容导致２２０ＫＶ高碑店变电站１０ＫＶ中旺５１７线路立各庄西南公变台区停电 【变更送电】无 【发布渠道】通过９５５９８发布","powerOffId":"2019071513000402"},{"poweroffId":2019071513000400,"sgpoweroffId":null,"subsName":"","lineName":"10kV利民路站532线路","pubTranName":"C543柱上变压器,","scope":"【影响街道/乡镇】五尧乡、颉庄乡、利民街 【高危重要客户】无 【影响客户】西小庄","startTime":"2019-07-15 22:40:00","stopDate":"2019-07-16 00:30:00","orgNo":"13406","typeCode":"电网故障停限电","poweroffArea":"【单台区停电】停C543柱上变压器","poweroffReason":"【停电原因】由于低压保险片烧导致１０ＫＶ利民路站变电站５３２线路Ｃ５４３公变台区停电【变更送电】无【发布渠道】通过９５５９８发布","powerTime":"2019-07-15 23:45:56","powerComm":"已送电","subsNo":"","lineNo":"","tgNo":"","tgName":null,"infoStatus":"1","orgName":"保定供电公司","typeName":null,"infoStatusName":null,"dateDay":null,"orgNos":null,"nowTime":null,"countyName":null,"streetName":null,"villageName":null,"roadName":null,"communityName":null,"tranName":null,"sdLineName":null,"cityCode":"13406","cityName":"保定供电公司","provinceCode":null,"stopTime":"2019-07-16 00:30:00","powerType":"全部","powerOffArea":"【单台区停电】停C543柱上变压器","powerOffReason":"【停电原因】由于低压保险片烧导致１０ＫＶ利民路站变电站５３２线路Ｃ５４３公变台区停电【变更送电】无【发布渠道】通过９５５９８发布","powerOffId":"2019071513000400"},{"poweroffId":2019071513000394,"sgpoweroffId":null,"subsName":"","lineName":"10kV韩村站537线路","pubTranName":"C520柱上变压器,","scope":"【影响街道/乡镇】韩庄乡、阳光大街、复兴路 【高危重要客户】无 【影响客户】韩村","startTime":"2019-07-15 22:00:00","stopDate":"2019-07-16 00:30:00","orgNo":"13406","typeCode":"电网故障停限电","poweroffArea":"【单台区停电】停C520柱上变压器","poweroffReason":"【停电原因】由于低压保险片烧导致１０ＫＶ韩村变电站５３７线路Ｃ５２０公变台区停电【变更送电】无【发布渠道】通过９５５９８发布","powerTime":"2019-07-15 23:36:44","powerComm":"已送电","subsNo":"","lineNo":"","tgNo":"","tgName":null,"infoStatus":"1","orgName":"保定供电公司","typeName":null,"infoStatusName":null,"dateDay":null,"orgNos":null,"nowTime":null,"countyName":null,"streetName":null,"villageName":null,"roadName":null,"communityName":null,"tranName":null,"sdLineName":null,"cityCode":"13406","cityName":"保定供电公司","provinceCode":null,"stopTime":"2019-07-16 00:30:00","powerType":"全部","powerOffArea":"【单台区停电】停C520柱上变压器","powerOffReason":"【停电原因】由于低压保险片烧导致１０ＫＶ韩村变电站５３７线路Ｃ５２０公变台区停电【变更送电】无【发布渠道】通过９５５９８发布","powerOffId":"2019071513000394"},{"poweroffId":2019071513000391,"sgpoweroffId":null,"subsName":"","lineName":"10kV唐庄线515","pubTranName":"2付家营外20【纯农排变】,1唐庄内16,小营李伟光塑料厂,新尧面粉厂,客户投资_1大位庄内5,森源胶合板厂,中国移动河北有限公司清苑分公司,1大位庄内23,清苑县农村信用联社股份有限公司,2曹庄外13【纯农排变】,2小营外4【纯农排变】,2小营外7【纯农排变】,2唐庄外6【纯农排变】,大魏庄中学4,1大位庄内21,2西孙庄南街外4【纯农排变】,1小营内11,2大位庄外7【纯农排变】,1大位庄内2,2小营外3【纯农排变】,1唐庄内3,1小营内2,2小营外13【纯农排变】,大魏庄中学1,2西孙庄南街外2【纯农排变】,1大位庄内1,2付家营外32【纯农排变】,2唐庄外4【纯农排变】,2唐庄外9【纯农排变】,1唐庄内17,大魏庄小学1,2小营外9【纯农排变】,2付家营外8【纯农排变】,2付家营外29【纯农排变】,1大位庄内19,2小营外17【纯农排变】,2唐庄外8【纯农排变】,0387498201-大位庄中学-专变-45319532-大位庄中学,2大位庄外11【纯农排变】,1唐庄内1,2大位庄外8【纯农排变】,1大位庄内22,1西孙庄南街内1,唐庄小学1,2小营外10【纯农排变】,2小营外16【纯农排变】,2唐庄外7【纯农排变】,1大位庄内18,1大位庄内20,2大位庄外9【纯农排变】,2唐庄外5【纯农排变】,2唐庄外10【纯农排变】,2大位庄外6【纯农排变】,1唐庄内12,2小营外15【纯农排变】,2付家营外30【纯农排变】,大魏庄中学2,1小营内12,1小营内18,2大位庄外10【纯农排变】,2唐庄外14【纯农排变】,2小营外14【纯农排变】,1西孙庄南街内5,曹庄马新发机械厂,2西孙庄南街外3【纯农排变】,2小营外5【纯农排变】,1唐庄内2,0387497846-四合挂面厂-专变-45319511-四合挂面厂,2付家营外21【纯农排变】,2小营外8【纯农排变】,小营小学1,2小营外6【纯农排变】,1唐庄内11,1唐庄内13,大魏庄中学3,大魏庄供电所,2付家营外33【纯农排变】,2付家营外31【纯农排变】,唐庄砖厂,大魏庄粮食种植基地,2唐庄外15【纯农排变】,1小营内1,客户投资_1大位庄内3,0668443401-清苑县大魏庄乳泉奶牛养殖场-专变-210338276-清苑县大魏庄乳泉奶牛养殖场,0573972357-大魏庄水厂-专变-124359279-大魏庄水厂,1大位庄内4,2付家营外6【纯农排变】,2付家营外7【纯农排变】,2付家营外5【纯农排变】,","scope":"【影响街道/乡镇】阳城镇、李庄乡 【高危重要客户】无 【影响客户】唐庄、西孙庄、大魏庄、小营","startTime":"2019-07-15 21:44:52","stopDate":"2019-07-15 23:20:00","orgNo":"1340618","typeCode":"电网故障停限电","poweroffArea":"【全线路停电】停2小营外8【纯农排变】,小营小学1,2小营外6【纯农排变】,1唐庄内11,1唐庄内13,大魏庄中学3,大魏庄供电所,2付家营外33【纯农排变】,2付家营外31【纯农排变】,唐庄砖厂,大魏庄粮食种植基地,2唐庄外15【纯农排变】,1小营内1,客户投资_1大位庄内3,0668443401-清苑县大魏庄乳泉奶牛养殖场-专变-210338276-清苑县大魏庄乳泉奶牛养殖场,0573972357-大魏庄水厂-专变-124359279-大魏庄水厂,1大位庄内4,2付家营外6【纯农排变】,2付家营外7【纯农排变】,2付家营外5【纯农排变】,客户投资_1大位庄内5,2唐庄外10【纯农排变】,2大位庄外6【纯农排变】,1唐庄内12,2小营外15【纯农排变】,2付家营外30【纯农排变】,大魏庄中学2,1小营内12,1小营内18,2大位庄外10【纯农排变】,2唐庄外14【纯农排变】,2小营外14【纯农排变】,1西孙庄南街内5,曹庄马新发机械厂,2西孙庄南街外3【纯农排变】,2小营外5【纯农排变】,1唐庄内2,0387497846-四合挂面厂-专变-45319511-四合挂面厂,2付家营外21【纯农排变】,2付家营外20【纯农排变】,1唐庄内16,小营李伟光塑料厂,新尧面粉厂,森源胶合板厂,中国移动河北有限公司清苑分公司,1大位庄内23,清苑县农村信用联社股份有限公司,2唐庄外5【纯农排变】,2曹庄外13【纯农排变】,2小营外4【纯农排变】,2小营外7【纯农排变】,2唐庄外6【纯农排变】,大魏庄中学4,1大位庄内21,2西孙庄南街外4【纯农排变】,1小营内11,2大位庄外7【纯农排变】,1大位庄内2,2小营外3【纯农排变】,1唐庄内3,1小营内2,2小营外13【纯农排变】,大魏庄中学1,2西孙庄南街外2【纯农排变】,1大位庄内1,2付家营外32【纯农排变】,2唐庄外4【纯农排变】,2唐庄外9【纯农排变】,1唐庄内17,大魏庄小学1,2小营外9【纯农排变】,2付家营外8【纯农排变】,2付家营外29【纯农排变】,1大位庄内19,2小营外17【纯农排变】,2唐庄外8【纯农排变】,0387498201-大位庄中学-专变-45319532-大位庄中学,2大位庄外11【纯农排变】,1唐庄内1,2大位庄外8【纯农排变】,1大位庄内22,1西孙庄南街内1,唐庄小学1,2小营外10【纯农排变】,2小营外16【纯农排变】,2唐庄外7【纯农排变】,1大位庄内18,1大位庄内20,2大位庄外9【纯农排变】","poweroffReason":"【停电原因】由于主干７５号杆东Ｔ２１号杆唐庄砖厂配变Ｂ相跌落烧导致３５ＫＶ大魏庄变电站１０ＫＶ唐庄线５１５线路全线停电 【变更送电】因抢修进度加快原因，送电时间由１６日０６：００变更为１５日２３：２０ 【发布渠道】通过９５５９８发布","powerTime":"2019-07-15 22:52:58","powerComm":"许文乐通知已送电","subsNo":"","lineNo":"","tgNo":"","tgName":null,"infoStatus":"1","orgName":"国网清苑县供电公司","typeName":null,"infoStatusName":null,"dateDay":null,"orgNos":null,"nowTime":null,"countyName":null,"streetName":null,"villageName":null,"roadName":null,"communityName":null,"tranName":null,"sdLineName":null,"cityCode":"1340618","cityName":"国网清苑县供电公司","provinceCode":null,"stopTime":"2019-07-15 23:20:00","powerType":"全部","powerOffArea":"【全线路停电】停2小营外8【纯农排变】,小营小学1,2小营外6【纯农排变】,1唐庄内11,1唐庄内13,大魏庄中学3,大魏庄供电所,2付家营外33【纯农排变】,2付家营外31【纯农排变】,唐庄砖厂,大魏庄粮食种植基地,2唐庄外15【纯农排变】,1小营内1,客户投资_1大位庄内3,0668443401-清苑县大魏庄乳泉奶牛养殖场-专变-210338276-清苑县大魏庄乳泉奶牛养殖场,0573972357-大魏庄水厂-专变-124359279-大魏庄水厂,1大位庄内4,2付家营外6【纯农排变】,2付家营外7【纯农排变】,2付家营外5【纯农排变】,客户投资_1大位庄内5,2唐庄外10【纯农排变】,2大位庄外6【纯农排变】,1唐庄内12,2小营外15【纯农排变】,2付家营外30【纯农排变】,大魏庄中学2,1小营内12,1小营内18,2大位庄外10【纯农排变】,2唐庄外14【纯农排变】,2小营外14【纯农排变】,1西孙庄南街内5,曹庄马新发机械厂,2西孙庄南街外3【纯农排变】,2小营外5【纯农排变】,1唐庄内2,0387497846-四合挂面厂-专变-45319511-四合挂面厂,2付家营外21【纯农排变】,2付家营外20【纯农排变】,1唐庄内16,小营李伟光塑料厂,新尧面粉厂,森源胶合板厂,中国移动河北有限公司清苑分公司,1大位庄内23,清苑县农村信用联社股份有限公司,2唐庄外5【纯农排变】,2曹庄外13【纯农排变】,2小营外4【纯农排变】,2小营外7【纯农排变】,2唐庄外6【纯农排变】,大魏庄中学4,1大位庄内21,2西孙庄南街外4【纯农排变】,1小营内11,2大位庄外7【纯农排变】,1大位庄内2,2小营外3【纯农排变】,1唐庄内3,1小营内2,2小营外13【纯农排变】,大魏庄中学1,2西孙庄南街外2【纯农排变】,1大位庄内1,2付家营外32【纯农排变】,2唐庄外4【纯农排变】,2唐庄外9【纯农排变】,1唐庄内17,大魏庄小学1,2小营外9【纯农排变】,2付家营外8【纯农排变】,2付家营外29【纯农排变】,1大位庄内19,2小营外17【纯农排变】,2唐庄外8【纯农排变】,0387498201-大位庄中学-专变-45319532-大位庄中学,2大位庄外11【纯农排变】,1唐庄内1,2大位庄外8【纯农排变】,1大位庄内22,1西孙庄南街内1,唐庄小学1,2小营外10【纯农排变】,2小营外16【纯农排变】,2唐庄外7【纯农排变】,1大位庄内18,1大位庄内20,2大位庄外9【纯农排变】","powerOffReason":"【停电原因】由于主干７５号杆东Ｔ２１号杆唐庄砖厂配变Ｂ相跌落烧导致３５ＫＶ大魏庄变电站１０ＫＶ唐庄线５１５线路全线停电 【变更送电】因抢修进度加快原因，送电时间由１６日０６：００变更为１５日２３：２０ 【发布渠道】通过９５５９８发布","powerOffId":"2019071513000391"},{"poweroffId":2019071513000388,"sgpoweroffId":null,"subsName":"","lineName":"迪城线577","pubTranName":"崔迪城15号【纯农排变】,","scope":"【影响街道/乡镇】大因镇 【高危重要客户】无 【影响客户】崔迪城村","startTime":"2019-07-16 08:00:00","stopDate":"2019-07-16 18:00:00","orgNo":"1340605","typeCode":"其他临时停电","poweroffArea":"【单台区停电】停崔迪城15号【纯农排变】","poweroffReason":"【停电原因】由于处理紧急缺陷导致１１０ＫＶ沙口变电站迪城线５７７线路崔迪城１５号公变台区停电 【变更送电】无 【发布渠道】通过９５５９８发布","powerTime":"2019-07-16 17:44:13","powerComm":"已送电","subsNo":"","lineNo":"","tgNo":"","tgName":null,"infoStatus":"1","orgName":"国网徐水县供电公司","typeName":null,"infoStatusName":null,"dateDay":null,"orgNos":null,"nowTime":null,"countyName":null,"streetName":null,"villageName":null,"roadName":null,"communityName":null,"tranName":null,"sdLineName":null,"cityCode":"1340605","cityName":"国网徐水县供电公司","provinceCode":null,"stopTime":"2019-07-16 18:00:00","powerType":"全部","powerOffArea":"【单台区停电】停崔迪城15号【纯农排变】","powerOffReason":"【停电原因】由于处理紧急缺陷导致１１０ＫＶ沙口变电站迪城线５７７线路崔迪城１５号公变台区停电 【变更送电】无 【发布渠道】通过９５５９８发布","powerOffId":"2019071513000388"},{"poweroffId":2019071513000384,"sgpoweroffId":null,"subsName":"","lineName":"10kV段庄线514","pubTranName":"2南辛力外11【纯农排变】,2南辛力外6【纯农排变】,2寺上外7【纯农排变】,2大李各庄小村外12【纯农排变】,2北李各庄外8【纯农排变】,2张马庄外11【纯农排变】,2付家营外34【纯农排变】,2张马庄外8【纯农排变】,2南辛力外8【纯农排变】,2张马庄外7【纯农排变】,2北段庄外11【纯农排变】,2付家营外15【纯农排变】,1北段庄小学变压器,付家营小学变压器,2付家营外18【纯农排变】,2付家营外25【纯农排变】,保定市清苑区李庄乡北段庄幼儿园,1付家营内5,1北李各庄内5,1张马庄内1,2李庄外22【纯农排变】,2北段庄外18【纯农排变】,2付家营外13【纯农排变】,2张马庄外6【纯农排变】,1付家营内8,1付家营内2,2北李各庄外11【纯农排变】,北李各庄小学变压器,2付家营外27【纯农排变】,2北李各庄外15【纯农排变】,2大李各庄小村外4【纯农排变】,1北段庄内4,2北李各庄外16【纯农排变】,2南辛力外2【纯农排变】,2付家营外16【纯农排变】,2北辛力外6【纯农排变】,2张马庄外10【纯农排变】,2付家营外22【纯农排变】,1北辛力内3,1张马庄内4,1寺上内2,2北李各庄外14【纯农排变】,2北段庄外14【纯农排变】,2大李各庄小村外11【纯农排变】,2北段庄外10并台【纯农排变】,1北段庄内7,2北辛力外4【纯农排变】,2南辛力外9【纯农排变】,2大李各庄小村外5【纯农排变】,唐河3,2张马庄外12【纯农排变】,2北段庄外19【纯农排变】,2北段庄外5【纯农排变】,2北辛力外8【纯农排变】,2北段庄外2【纯农排变】,李庄第二中学变压器1,2北李各庄外7【纯农排变】,2北辛力外5【纯农排变】,2付家营外11【纯农排变】,2北李各庄外3【纯农排变】,北李各庄内8变压器,2北李各庄外17【纯农排变】,2北段庄外10【纯农排变】,2北辛力外2【纯农排变】,2北段庄外6【纯农排变】,1张马庄内2,2北李各庄外18【纯农排变】,2北段庄外7【纯农排变】,2大李各庄小村外9【纯农排变】,2北段庄外24【纯农排变】,1北辛力内1,1付家营内1,2北李各庄外2【纯农排变】,2北辛力外10【纯农排变】,1北段庄内1,2南辛力外10【纯农排变】,1付家营内6,2北段庄外21【纯农排变】,2北李各庄外10【纯农排变】,2北段庄外16【纯农排变】,旭康农副产品有限公司,2付家营外14【纯农排变】,2北辛力外7【纯农排变】,1南辛力内2,1北李各庄内1,2寺上外2【纯农排变】,李庄二中,2北李各庄外12【纯农排变】,1北李各庄内4,2付家营外9【纯农排变】,2南辛力外12【纯农排变】,北李各庄林场西,2付家营外23【纯农排变】,1付家营内3,2北李各庄外6【纯农排变】,2南辛力外7【纯农排变】,2付家营外12【纯农排变】,1北李各庄内6,2北段庄外23【纯农排变】,2北辛力外11【纯农排变】,2大李各庄小村外7【纯农排变】,1寺上内1,2北辛力外1【纯农排变】,2付家营外26【纯农排变】,0579488269-顺通奶牛养殖场-专变-124419225-顺通奶牛养殖场,2北段庄外8【纯农排变】,2南辛力外5【纯农排变】,2北段","scope":"【影响街道/乡镇】李庄乡、冉庄镇、北王力乡 【高危重要客户】无 【影响客户】北李各庄、付家营、寺上、南辛力、北辛力、北段庄、张马庄、大李各庄小村","startTime":"2019-07-15 20:56:46","stopDate":"2019-07-15 22:30:00","orgNo":"1340618","typeCode":"电网故障停限电","poweroffArea":"【全线路停电】停2付家营外17【纯农排变】,2大李各庄小村外6【纯农排变】 ,2大李各庄小村外8【纯农排变】,2付家营外10【纯农排变】,2北段庄外12【纯农排变】,2北段庄外22【纯农排变】,2付家营外19【纯农排变】,2大李各庄小村外1【纯农排变】,1北李各庄内2,李庄第二中学3变压器,张马庄小学变压器,1北段庄内9,2张马庄外2【纯农排变】,1付家营内4,1北李各庄内7,北李各庄幼儿园变压器,北辛力内4变压器,1北段庄内3,1南辛力内1,2北辛力外11【纯农排变】,2大李各庄小村外7【纯农排变】,2北段庄外1【纯农排变】,1北段庄内6,1北段庄内2,唐河4,2北李各庄外4【纯农排变】,1北辛力内2,保定市诚通农产品有限公司,育英幼儿园变压器,李庄乡红发砖厂,2北段庄外4并台【纯农排变】,1张马庄内3,1北段庄内5,2北辛力外3【纯农排变】 ,2北李各庄外5【纯农排变】,2大李各庄内4,北辛力小学变压器,华泰隆养殖基地,2北李各庄外11【纯农排变】,北李各庄小学变压器,2付家营外27【纯农排变】,2北李各庄外15【纯农排变】,2大李各庄小村外4【纯农排变】,1北段庄内4,2北李各庄外16【纯农排变】,2南辛力外2【纯农排变】,2付家营外16【纯农排变】,2北辛力外6【纯农排变】,2张马庄外10【纯农排变】,2付家营外22【纯农排变】,1北辛力内3,1张马庄内4,1寺上内2,2北李各庄外14【纯农排变】,2北段庄外14【纯农排变】,2北李各庄外7【纯农排变】,2北辛力外5【纯农排变】,2付家营外11【纯农排变】,2北李各庄外3【纯农排变】,北李各庄内8变压器,2北李各庄外17【纯农排变】,2北段庄外10【纯农排变】,2北辛力外2【纯农排变】,2北段庄外6【纯农排变】 ,1张马庄内2,2北李各庄外18【纯农排变】,2北段庄外7【纯农排变】,2大李各庄小村外9【纯农排变】,2北段庄外24【纯农排变】,1北辛力内1,1付家营内1,2北李各庄外2【纯农排变】,2北辛力外10【纯农排变】,1北段庄内1,2南辛力外10【纯农排变】,1付家营内6,2北段庄外21【纯农排变】,2北李各庄外10【纯农排变】,2北段庄外16【纯农排变】,旭康农副产品有限公司,2付家营外14【纯农排变】,2北辛力外8【纯农排变】,2北辛力外7【纯农排变】,1南辛力内2,1北李各庄内1,2寺上外2【纯农排变】,李庄二中,2大李各庄小村外11【纯农排变】,2北段庄外10并台【纯农排变】,1北段庄内7,2北辛力外4【纯农排变】,2南辛力外9【纯农排变】,2大李各庄小村外5【纯农排变】,唐河3,2张马庄外12【纯农排变】,2北段庄外19【纯农排变】,2北段庄外5【纯农排变】,2北段庄外3【纯农排变】,1付家营内7,2北段庄外9【纯农排变】,2北李各庄外12【纯农排变】,1北李各庄内4,2付家营外9【纯农排变】,2南辛力外12【纯农排变】,2北段庄外2【纯农排变】,李庄第二中学变压器1,1寺上内1,2北辛力外1【纯农排变】,2付家营外26【纯农排变】,0579488269-顺通奶牛养殖场-专变-124419225-顺通奶牛养殖场,2北段庄外8【纯农排变】,2南辛力外5【纯农排变】,2北段庄外20【纯农排变】,李庄第二中学变压器2,2大李各庄小村外10【纯农排变】,2北段庄外17【纯农排变】,2付家营外24【纯农排变】,祥和饭店,1北段庄内8,2张马庄外1【纯农排变】,1北李各庄内3,段庄面粉厂,2北李各庄外1【纯农排变】 ,2北段庄外12并台【纯农排变】,2张马庄外5【纯农排变】,唐河6,2李庄外21【纯农排变】,2南辛力外1【纯农排变】,2寺上外6【纯农排变】,2北段庄外15【纯农排变】,2大李各庄小村外3【纯农排变】,2大李各庄小村外2【纯农排变】,2北李各庄外9【纯农排变】,2张马庄外13【纯农排变】,北李各庄林场西,2付家营外23","poweroffReason":"【停电原因】由于主干１２１号杆西Ｔ１３号杆北辛力面粉厂刀闸烧导致３５ＫＶ李庄变电站１０ＫＶ段庄线５１４线路全线停电 【变更送电】因抢修进度加快原因，送电时间由１６日０６：００变更为１５日２２：３０ 【发布渠道】通过９５５９８发布","powerTime":"2019-07-15 22:05:08","powerComm":"范贺通知已送电","subsNo":"","lineNo":"","tgNo":"","tgName":null,"infoStatus":"1","orgName":"国网清苑县供电公司","typeName":null,"infoStatusName":null,"dateDay":null,"orgNos":null,"nowTime":null,"countyName":null,"streetName":null,"villageName":null,"roadName":null,"communityName":null,"tranName":null,"sdLineName":null,"cityCode":"1340618","cityName":"国网清苑县供电公司","provinceCode":null,"stopTime":"2019-07-15 22:30:00","powerType":"全部","powerOffArea":"【全线路停电】停2付家营外17【纯农排变】,2大李各庄小村外6【纯农排变】 ,2大李各庄小村外8【纯农排变】,2付家营外10【纯农排变】,2北段庄外12【纯农排变】,2北段庄外22【纯农排变】,2付家营外19【纯农排变】,2大李各庄小村外1【纯农排变】,1北李各庄内2,李庄第二中学3变压器,张马庄小学变压器,1北段庄内9,2张马庄外2【纯农排变】,1付家营内4,1北李各庄内7,北李各庄幼儿园变压器,北辛力内4变压器,1北段庄内3,1南辛力内1,2北辛力外11【纯农排变】,2大李各庄小村外7【纯农排变】,2北段庄外1【纯农排变】,1北段庄内6,1北段庄内2,唐河4,2北李各庄外4【纯农排变】,1北辛力内2,保定市诚通农产品有限公司,育英幼儿园变压器,李庄乡红发砖厂,2北段庄外4并台【纯农排变】,1张马庄内3,1北段庄内5,2北辛力外3【纯农排变】 ,2北李各庄外5【纯农排变】,2大李各庄内4,北辛力小学变压器,华泰隆养殖基地,2北李各庄外11【纯农排变】,北李各庄小学变压器,2付家营外27【纯农排变】,2北李各庄外15【纯农排变】,2大李各庄小村外4【纯农排变】,1北段庄内4,2北李各庄外16【纯农排变】,2南辛力外2【纯农排变】,2付家营外16【纯农排变】,2北辛力外6【纯农排变】,2张马庄外10【纯农排变】,2付家营外22【纯农排变】,1北辛力内3,1张马庄内4,1寺上内2,2北李各庄外14【纯农排变】,2北段庄外14【纯农排变】,2北李各庄外7【纯农排变】,2北辛力外5【纯农排变】,2付家营外11【纯农排变】,2北李各庄外3【纯农排变】,北李各庄内8变压器,2北李各庄外17【纯农排变】,2北段庄外10【纯农排变】,2北辛力外2【纯农排变】,2北段庄外6【纯农排变】 ,1张马庄内2,2北李各庄外18【纯农排变】,2北段庄外7【纯农排变】,2大李各庄小村外9【纯农排变】,2北段庄外24【纯农排变】,1北辛力内1,1付家营内1,2北李各庄外2【纯农排变】,2北辛力外10【纯农排变】,1北段庄内1,2南辛力外10【纯农排变】,1付家营内6,2北段庄外21【纯农排变】,2北李各庄外10【纯农排变】,2北段庄外16【纯农排变】,旭康农副产品有限公司,2付家营外14【纯农排变】,2北辛力外8【纯农排变】,2北辛力外7【纯农排变】,1南辛力内2,1北李各庄内1,2寺上外2【纯农排变】,李庄二中,2大李各庄小村外11【纯农排变】,2北段庄外10并台【纯农排变】,1北段庄内7,2北辛力外4【纯农排变】,2南辛力外9【纯农排变】,2大李各庄小村外5【纯农排变】,唐河3,2张马庄外12【纯农排变】,2北段庄外19【纯农排变】,2北段庄外5【纯农排变】,2北段庄外3【纯农排变】,1付家营内7,2北段庄外9【纯农排变】,2北李各庄外12【纯农排变】,1北李各庄内4,2付家营外9【纯农排变】,2南辛力外12【纯农排变】,2北段庄外2【纯农排变】,李庄第二中学变压器1,1寺上内1,2北辛力外1【纯农排变】,2付家营外26【纯农排变】,0579488269-顺通奶牛养殖场-专变-124419225-顺通奶牛养殖场,2北段庄外8【纯农排变】,2南辛力外5【纯农排变】,2北段庄外20【纯农排变】,李庄第二中学变压器2,2大李各庄小村外10【纯农排变】,2北段庄外17【纯农排变】,2付家营外24【纯农排变】,祥和饭店,1北段庄内8,2张马庄外1【纯农排变】,1北李各庄内3,段庄面粉厂,2北李各庄外1【纯农排变】 ,2北段庄外12并台【纯农排变】,2张马庄外5【纯农排变】,唐河6,2李庄外21【纯农排变】,2南辛力外1【纯农排变】,2寺上外6【纯农排变】,2北段庄外15【纯农排变】,2大李各庄小村外3【纯农排变】,2大李各庄小村外2【纯农排变】,2北李各庄外9【纯农排变】,2张马庄外13【纯农排变】,北李各庄林场西,2付家营外23","powerOffReason":"【停电原因】由于主干１２１号杆西Ｔ１３号杆北辛力面粉厂刀闸烧导致３５ＫＶ李庄变电站１０ＫＶ段庄线５１４线路全线停电 【变更送电】因抢修进度加快原因，送电时间由１６日０６：００变更为１５日２２：３０ 【发布渠道】通过９５５９８发布","powerOffId":"2019071513000384"},{"poweroffId":2019071513000383,"sgpoweroffId":null,"subsName":"","lineName":"迪城线577","pubTranName":"崔迪城7号【纯农排变】,","scope":"【影响街道/乡镇】大因镇 【高危重要客户】无 【影响客户】崔迪城村","startTime":"2019-07-16 08:00:00","stopDate":"2019-07-16 18:00:00","orgNo":"1340605","typeCode":"其他临时停电","poweroffArea":"【单台区停电】停崔迪城7号【纯农排变】","poweroffReason":"【停电原因】由于处理紧急缺陷导致１１０ＫＶ沙口变电站迪城线５７７线路崔迪城７号公变台区停电 【变更送电】无 【发布渠道】通过９５５９８发布","powerTime":"2019-07-16 17:44:33","powerComm":"已送电","subsNo":"","lineNo":"","tgNo":"","tgName":null,"infoStatus":"1","orgName":"国网徐水县供电公司","typeName":null,"infoStatusName":null,"dateDay":null,"orgNos":null,"nowTime":null,"countyName":null,"streetName":null,"villageName":null,"roadName":null,"communityName":null,"tranName":null,"sdLineName":null,"cityCode":"1340605","cityName":"国网徐水县供电公司","provinceCode":null,"stopTime":"2019-07-16 18:00:00","powerType":"全部","powerOffArea":"【单台区停电】停崔迪城7号【纯农排变】","powerOffReason":"【停电原因】由于处理紧急缺陷导致１１０ＫＶ沙口变电站迪城线５７７线路崔迪城７号公变台区停电 【变更送电】无 【发布渠道】通过９５５９８发布","powerOffId":"2019071513000383"},{"poweroffId":2019071513000349,"sgpoweroffId":null,"subsName":"","lineName":"山南线517","pubTranName":"东茹堡村7#村南,东茹堡村8#村东（综）变压器,东茹堡村2#,东茹堡村3#【纯农排变】,东茹堡村9#,东茹堡村5#【纯农排变】,东茹堡11#（光伏）,东茹堡村4#【纯农排变】,东茹堡村6#,东茹堡村1#,东茹堡10#【纯农排变】,","scope":"【影响街道/乡镇】易州镇【高危重要客户】无【影响客户】东茹堡村","startTime":"2019-07-16 05:00:00","stopDate":"2019-07-16 09:00:00","orgNo":"1340625","typeCode":"其他临时停电","poweroffArea":"【分支停电】停东茹堡村7#村南,东茹堡村8#村东（综）变压器,东茹堡村2#,东茹堡村3#【纯农排变】,东茹堡村9#,东茹堡村5#【纯农排变】,东茹堡11#（光伏）,东茹堡村4#【纯农排变】,东茹堡村6#,东茹堡村1#,东茹堡10#【纯农排变】","poweroffReason":"【停电原因】由于紧急消缺导致１１０ＫＶ易县变电站山南线５１７线路００１号杆至０２１号杆之间停电【变更送电】无【发布渠道】通过９５５９８发布","powerTime":"2019-07-16 08:42:10","powerComm":"已送电","subsNo":"","lineNo":"","tgNo":"","tgName":null,"infoStatus":"1","orgName":"国网易县供电公司","typeName":null,"infoStatusName":null,"dateDay":null,"orgNos":null,"nowTime":null,"countyName":null,"streetName":null,"villageName":null,"roadName":null,"communityName":null,"tranName":null,"sdLineName":null,"cityCode":"1340625","cityName":"国网易县供电公司","provinceCode":null,"stopTime":"2019-07-16 09:00:00","powerType":"全部","powerOffArea":"【分支停电】停东茹堡村7#村南,东茹堡村8#村东（综）变压器,东茹堡村2#,东茹堡村3#【纯农排变】,东茹堡村9#,东茹堡村5#【纯农排变】,东茹堡11#（光伏）,东茹堡村4#【纯农排变】,东茹堡村6#,东茹堡村1#,东茹堡10#【纯农排变】","powerOffReason":"【停电原因】由于紧急消缺导致１１０ＫＶ易县变电站山南线５１７线路００１号杆至０２１号杆之间停电【变更送电】无【发布渠道】通过９５５９８发布","powerOffId":"2019071513000349"},{"poweroffId":2019071513000338,"sgpoweroffId":null,"subsName":"","lineName":"10kV538土厚线","pubTranName":"翟城公用农业22台区【纯农排变】,曹村公用农业3台区【纯农排变】,定州市黄家营农产品专业合作社变压器,翟城公用照明8台区,东庞村公用农业7台区【纯农排变】,土厚公用照明9台区,土厚公用农业1台区【纯农排变】,翟城公用照明9台区,世纪玖城科技有限公司定州分公司,土厚公用农业6台区,曹村公用农业2台区【纯农排变】,土厚公用农业12台区【纯农排变】,定州市农机制修厂,土厚村公用照明二台区,东庞村公用农业4台区,翟城公用农业7台区,翟城公用农业12台区【纯农排变】,翟城公用农业8台区,翟城公用农业2台区,东庞村公用农业3台区【纯农排变】,土厚村公用照明一台区,翟城面粉厂,翟城公用农业9台区,黄家营公用农业2台区【纯农排变】,土厚公用照明11台区,翟城村公用照明一台区,0685219357-定州市东亭镇土厚村民委员会-专变-223632779-定州市东亭镇土厚村村民委员会变压器,曹村公用农业5台区【纯农排变】,翟城公用农业13台区,翟城公用农业18台区【纯农排变】,黄家营果园,翟城公用农业5台区【纯农排变】,东庞村公用农业8台区,师家庄公用农业3台区【纯农排变】,黄家营公用照明3台区,土厚公用农业2台区【纯农排变】,翟城公用农业3台区【纯农排变】,土厚公用农业7台区【纯农排变】,定州市宏鑫建材厂,土厚公用农业8台区,曹村公用农业1台区,定州市东亭翟城村民委员会变压器,土厚公用照明7台区,土厚公用照明8台区,翟城公用照明7台区,土厚公用照明15台区,保定洪宇健身器材有限公司,土厚公用农业3台区【纯农排变】,土厚公用照明5台区,翟城公用农业15台区,土厚公用照明6台区,翟城村公用照明五台区,翟城村公用照明三台区,土厚公用农业9台区,翟城公用农业6台区【纯农排变】,土厚村公用照明四台区,土厚公用农业5台区,东庞村公用照明7台区,翟城公用农业21台区,师家庄公用农业4台区【纯农排变】,庞村乡中,翟城公用农业10台区,翟城公用照明11台区,师家庄公用农业1台区【纯农排变】,东庞村公用农业2台区【纯农排变】,东庞村公用农业1台区【纯农排变】,东庞村公用农业6台区【纯农排变】,翟城村公用照明四台区,土厚公用照明10台区,翟城公用农业20台区【纯农排变】,定州市东亭镇翟城村民委员会变压器,翟城公用农业19台区【纯农排变】,翟城公用农业1台区【纯农排变】,黄家营公用照明2台区,黄家营公用照明1台区,翟城公用农业4台区【纯农排变】,土厚公用农业11台区【纯农排变】,师家庄公用照明2台区,师家庄公用农业2台区,翟城村公用照明二台区,翟城公用农业17台区【纯农排变】,土厚村面粉厂,翟城公用农业11台区【纯农排变】,曹村公用照明4台区,土厚村公用照明三台区,翟城公用农业14台区【纯农排变】,黄家营公用农业3台区【纯农排变】,翟城公用农业16台区【纯农排变】,翟城公用照明10台区,东庞村公用农业5台区【纯农排变】,曹村公用照明2台区,0685222416-定州市东亭镇土厚村民委员会-专变-223636522-定州市东亭镇土厚村村民委员会变压器,黄家营公用农业1台区,师家庄村公用照明一台区,曹村公用照明3台区,曹村公用照明一台区,土厚公用农业4台区,翟城公用","scope":"【影响街道/乡镇】东亭镇【高危重要客户】无【影响客户】东庞村、黄家营村、师家庄村、土厚村、翟城村、曹村","startTime":"2019-07-15 18:15:26","stopDate":"2019-07-15 20:30:00","orgNo":"1340610","typeCode":"电网故障停限电","poweroffArea":"【全线路停电】停东庞村公用农业2台区【纯农排变】,土厚公用农业9台区,翟城公用照明8台区,定州市宏鑫建材厂,翟城公用农业1台区【纯农排变】,土厚村公用照明四台区,东庞村公用农业7台区【纯农排变】,定州市东亭翟城村民委员会变压器,黄家营公用照明2台区,土厚公用照明7台区,土厚公用农业8台区,土厚公用照明8台区,土厚公用农业5台区,翟城公用农业13台区,东庞村公用农业1台区【纯农排变】,翟城公用照明7台区,东庞村公用照明7台区,师家庄公用照明2台区,土厚公用照明15台区,东庞村公用农业6台区【纯农排变】,翟城公用农业17台区【纯农排变】,翟城公用农业21台区,翟城公用农业10台区,翟城村公用照明四台区,土厚村面粉厂,保定洪宇健身器材有限公司,翟城公用照明11台区,曹村公用照明3台区,土厚村公用照明一台区,黄家营公用照明1台区,师家庄公用农业1台区【纯农排变】,翟城公用农业8台区,师家庄公用农业2台区,土厚公用农业4台区,翟城公用农业7台区,翟城公用农业5台区【纯农排变】,翟城村公用照明二台区,东庞村公用农业8台区,定州市东亭镇翟城村民委员会变压器,翟城公用农业20台区【纯农排变】,翟城公用农业16台区【纯农排变】,东庞村公用农业3台区【纯农排变】,翟城公用农业19台区【纯农排变】,曹村公用照明一台区,翟城公用照明10台区,土厚公用农业10台区【纯农排变】,翟城公用农业4台区【纯农排变】,翟城公用照明6台区,翟城公用农业12台区【纯农排变】,曹村公用农业4台区【纯农排变】,黄家营公用农业1台区,东庞村公用农业9台区,曹村公用照明2台区,翟城公用农业22台区【纯农排变】,土厚村公用照明三台区,黄家营公用农业2台区【纯农排变】,0685222416-定州市东亭镇土厚村民委员会-专变-223636522-定州市东亭镇土厚村村民委员会变压器,翟城公用农业14台区【纯农排变】,曹村公用农业3台区【纯农排变】,世纪玖城科技有限公司定州分公司,定州市黄家营农产品专业合作社变压器,师家庄村公用照明一台区,翟城公用照明9台区,黄家营公用农业3台区【纯农排变】,土厚公用照明11台区,土厚公用照明12台区,曹村公用农业2台区【纯农排变】,土厚公用农业6台区,东庞村公用农业5台区【纯农排变】,翟城村公用照明一台区,翟城公用农业2台区,土厚公用农业11台区【纯农排变】,0685219357-定州市东亭镇土厚村民委员会-专变-223632779-定州市东亭镇土厚村村民委员会变压器,土厚公用照明10台区,翟城面粉厂,土厚公用农业3台区【纯农排变】,曹村公用农业5台区【纯农排变】,土厚公用照明5台区,翟城公用农业9台区,黄家营公用照明3台区,翟城公用农业15台区,师家庄公用农业3台区【纯农排变】,土厚公用农业12台区【纯农排变】,曹村公用农业1台区,翟城公用农业3台区【纯农排变】,定州市农机制修厂,土厚公用农业7台区【纯农排变】,土厚公用照明9台区,土厚村公用照明二台区,土厚公用农业1台区【纯农排变】,师家庄公用农业4台区【纯农排变】,翟城公用农业11台区【纯农排变】,土厚公用照明6台区,翟城村公用照明五台区,东庞村公用农业4台区,土厚公用农业2台区【纯农排变】,庞村乡中,翟城公用农业18台区【纯农排变】,翟城村公用照明三台区,曹村公用照明4台区,黄家营果园,翟城公用农业6台区【纯农排变】","poweroffReason":"【停电原因】由于农业３台区配变烧毁导致１１０ＫＶ东亭变电站１０ＫＶ５３８土厚线路全线停电 【变更送电】因抢修进度加快原因，送电时间由２３：００变更为２０：３０ 【发布渠道】９５５９８","powerTime":"2019-07-15 20:00:44","powerComm":"已送电","subsNo":"","lineNo":"","tgNo":"","tgName":null,"infoStatus":"1","orgName":"国网定州市供电公司","typeName":null,"infoStatusName":null,"dateDay":null,"orgNos":null,"nowTime":null,"countyName":null,"streetName":null,"villageName":null,"roadName":null,"communityName":null,"tranName":null,"sdLineName":null,"cityCode":"1340610","cityName":"国网定州市供电公司","provinceCode":null,"stopTime":"2019-07-15 20:30:00","powerType":"全部","powerOffArea":"【全线路停电】停东庞村公用农业2台区【纯农排变】,土厚公用农业9台区,翟城公用照明8台区,定州市宏鑫建材厂,翟城公用农业1台区【纯农排变】,土厚村公用照明四台区,东庞村公用农业7台区【纯农排变】,定州市东亭翟城村民委员会变压器,黄家营公用照明2台区,土厚公用照明7台区,土厚公用农业8台区,土厚公用照明8台区,土厚公用农业5台区,翟城公用农业13台区,东庞村公用农业1台区【纯农排变】,翟城公用照明7台区,东庞村公用照明7台区,师家庄公用照明2台区,土厚公用照明15台区,东庞村公用农业6台区【纯农排变】,翟城公用农业17台区【纯农排变】,翟城公用农业21台区,翟城公用农业10台区,翟城村公用照明四台区,土厚村面粉厂,保定洪宇健身器材有限公司,翟城公用照明11台区,曹村公用照明3台区,土厚村公用照明一台区,黄家营公用照明1台区,师家庄公用农业1台区【纯农排变】,翟城公用农业8台区,师家庄公用农业2台区,土厚公用农业4台区,翟城公用农业7台区,翟城公用农业5台区【纯农排变】,翟城村公用照明二台区,东庞村公用农业8台区,定州市东亭镇翟城村民委员会变压器,翟城公用农业20台区【纯农排变】,翟城公用农业16台区【纯农排变】,东庞村公用农业3台区【纯农排变】,翟城公用农业19台区【纯农排变】,曹村公用照明一台区,翟城公用照明10台区,土厚公用农业10台区【纯农排变】,翟城公用农业4台区【纯农排变】,翟城公用照明6台区,翟城公用农业12台区【纯农排变】,曹村公用农业4台区【纯农排变】,黄家营公用农业1台区,东庞村公用农业9台区,曹村公用照明2台区,翟城公用农业22台区【纯农排变】,土厚村公用照明三台区,黄家营公用农业2台区【纯农排变】,0685222416-定州市东亭镇土厚村民委员会-专变-223636522-定州市东亭镇土厚村村民委员会变压器,翟城公用农业14台区【纯农排变】,曹村公用农业3台区【纯农排变】,世纪玖城科技有限公司定州分公司,定州市黄家营农产品专业合作社变压器,师家庄村公用照明一台区,翟城公用照明9台区,黄家营公用农业3台区【纯农排变】,土厚公用照明11台区,土厚公用照明12台区,曹村公用农业2台区【纯农排变】,土厚公用农业6台区,东庞村公用农业5台区【纯农排变】,翟城村公用照明一台区,翟城公用农业2台区,土厚公用农业11台区【纯农排变】,0685219357-定州市东亭镇土厚村民委员会-专变-223632779-定州市东亭镇土厚村村民委员会变压器,土厚公用照明10台区,翟城面粉厂,土厚公用农业3台区【纯农排变】,曹村公用农业5台区【纯农排变】,土厚公用照明5台区,翟城公用农业9台区,黄家营公用照明3台区,翟城公用农业15台区,师家庄公用农业3台区【纯农排变】,土厚公用农业12台区【纯农排变】,曹村公用农业1台区,翟城公用农业3台区【纯农排变】,定州市农机制修厂,土厚公用农业7台区【纯农排变】,土厚公用照明9台区,土厚村公用照明二台区,土厚公用农业1台区【纯农排变】,师家庄公用农业4台区【纯农排变】,翟城公用农业11台区【纯农排变】,土厚公用照明6台区,翟城村公用照明五台区,东庞村公用农业4台区,土厚公用农业2台区【纯农排变】,庞村乡中,翟城公用农业18台区【纯农排变】,翟城村公用照明三台区,曹村公用照明4台区,黄家营果园,翟城公用农业6台区【纯农排变】","powerOffReason":"【停电原因】由于农业３台区配变烧毁导致１１０ＫＶ东亭变电站１０ＫＶ５３８土厚线路全线停电 【变更送电】因抢修进度加快原因，送电时间由２３：００变更为２０：３０ 【发布渠道】９５５９８","powerOffId":"2019071513000338"}],"pageModel":{"pageNow":820,"totalCount":10973,"totalPage":1098,"tableRows":0,"pageCount":10,"beginCount":8190},"isExperi":"1"}