{"message":"","today":"2020-06-15","seleList":[{"poweroffId":2019071513000090,"sgpoweroffId":null,"subsName":"","lineName":"10kV南郊站514线路","pubTranName":"C284柱上变压器,B399柱上变压器,C285柱上变压器,C283柱上变压器,B397柱上变压器,C281柱上变压器,C440柱上变压器,C439柱上变压器,B400柱上变压器,C282柱上变压器,C286柱上变压器,","scope":"【影响街道/乡镇】于家庄乡 【高危重要客户】无 【影响客户】郭村","startTime":"2019-07-18 07:00:00","stopDate":"2019-07-18 12:00:00","orgNo":"13406","typeCode":"临时停电","poweroffArea":"【分支停电】停C284柱上变压器,B399柱上变压器,C285柱上变压器,C283柱上变压器,B397柱上变压器,C281柱上变压器,C440柱上变压器,C439柱上变压器,B400柱上变压器,C282柱上变压器,C286柱上变压器","poweroffReason":"【停电原因】由于供电设备临时检修导致１０ＫＶ南郊变电站５１４线路出线２号北分支３０号开关以下停电【变更送电】无【发布渠道】保定市保定有线电视台（０７月１６日２０时１５分至２１时４５分之间）屏幕上滚动","powerTime":"2019-07-18 11:49:41","powerComm":"已送电","subsNo":"","lineNo":"","tgNo":"","tgName":null,"infoStatus":"1","orgName":"保定供电公司","typeName":null,"infoStatusName":null,"dateDay":null,"orgNos":null,"nowTime":null,"countyName":null,"streetName":null,"villageName":null,"roadName":null,"communityName":null,"tranName":null,"sdLineName":null,"cityCode":"13406","cityName":"保定供电公司","provinceCode":null,"stopTime":"2019-07-18 12:00:00","powerType":"全部","powerOffArea":"【分支停电】停C284柱上变压器,B399柱上变压器,C285柱上变压器,C283柱上变压器,B397柱上变压器,C281柱上变压器,C440柱上变压器,C439柱上变压器,B400柱上变压器,C282柱上变压器,C286柱上变压器","powerOffReason":"【停电原因】由于供电设备临时检修导致１０ＫＶ南郊变电站５１４线路出线２号北分支３０号开关以下停电【变更送电】无【发布渠道】保定市保定有线电视台（０７月１６日２０时１５分至２１时４５分之间）屏幕上滚动","powerOffId":"2019071513000090"},{"poweroffId":2019071513000089,"sgpoweroffId":null,"subsName":"","lineName":"10kV邱庄539线","pubTranName":"北合内东南2号,邱庄东南2号【纯农排变】,北合二十里铺道【纯农排变】,邱庄外南2号【纯农排变】,北合外南【纯农排变】,邱庄正北2号【纯农排变】,邱庄东北【纯农排变】,北合内西北2号配变,二十里铺东【纯农排变】,邱庄西北【纯农排变】,邱庄正北【纯农排变】,于合营许庄道【纯农排变】,北合外北2号【纯农排变】,邱庄内,二十里铺东南1【纯农排变】,南合营中地【纯农排变】,北合果园南【纯农排变】,邱庄中桥北【纯农排变】,邱庄小学,北合官地2号【纯农排变】,北合于营道2号【纯农排变】,邱庄外北【纯农排变】,于合营北【纯农排变】,南合营内西,南合营外东北农业【纯农排变】,北合内东北,邱庄内中,邱庄东南【纯农排变】,邱庄内西,南合营村内,邱庄裤子地2号【纯农排变】,北合许庄道【纯农排变】,邱庄内东,北合缩家佐【纯农排变】,北合王京道2号【纯农排变】,北合道方2号【纯农排变】,于合营村内,北合红房子2号【纯农排变】,北合王京道【纯农排变】,南合营陈家坟【纯农排变】,南合营王家地【纯农排变】,北合果园2号【纯农排变】,于合营村内3号,中国移动通讯河北望都分公司南合营基站,邱庄南农业【纯农排变】,邱庄内南变压器,邱庄村东【纯农排变】,北合固店道【纯农排变】,北合红房子【纯农排变】,北合内东南,南合营村北,北合于营道【纯农排变】,邱庄旧窑2号【纯农排变】,北合小学,邱庄旧窑【纯农排变】,北合内西北,邱庄正西【纯农排变】,邱庄裤子地【纯农排变】,北合缩家佐2号【纯农排变】,北合果园【纯农排变】,邱庄西南【纯农排变】,北合内西南,邱庄村东2号农业新增【纯农排变】,北合道方【纯农排变】,邱庄外南【纯农排变】,北合外北【纯农排变】,北合许庄道2号【纯农排变】,南合营东地【纯农排变】,北合内南,北合村北配变,北合官地【纯农排变】,北合内北,于合营村内2号,","scope":"【影响街道/乡镇】固店镇 【高危重要客户】无　　 【影响客户】二十里铺农业、南合营、邱庄村、于合营、北合村、中国移动通讯河北望都分公司南合营基站、田亚强养猪场、南合营加工厂","startTime":"2019-07-15 11:00:00","stopDate":"2019-07-15 21:00:00","orgNo":"1340623","typeCode":"其他临时停电","poweroffArea":"【全线路停电】停北合官地2号【纯农排变】,北合于营道2号【纯农排变】,邱庄外北【纯农排变】,于合营北【纯农排变】,南合营内西,南合营外东北农业【纯农排变】,北合内东北,邱庄内中,邱庄东南【纯农排变】,南合营东地【纯农排变】,北合内南,北合村北配变,北合官地【纯农排变】,北合王京道2号【纯农排变】,北合道方2号【纯农排变】,于合营村内,北合红房子2号【纯农排变】,北合王京道【纯农排变】,北合道方【纯农排变】,邱庄外南【纯农排变】,北合外北【纯农排变】,北合许庄道2号【纯农排变】,邱庄内西,北合内东南2号,邱庄东南2号【纯农排变】,北合二十里铺道【纯农排变】,北合外南【纯农排变】,邱庄外南2号【纯农排变】,邱庄正北2号【纯农排变】,邱庄东北【纯农排变】,北合内西北2号配变,二十里铺东【纯农排变】,邱庄西北【纯农排变】,邱庄正北【纯农排变】,于合营许庄道【纯农排变】,北合外北2号【纯农排变】,邱庄内,二十里铺东南1【纯农排变】,南合营中地【纯农排变】,北合果园南【纯农排变】,邱庄中桥北【纯农排变】,邱庄小学,南合营陈家坟【纯农排变】,南合营王家地【纯农排变】,北合果园2号【纯农排变】,于合营村内3号,中国移动通讯河北望都分公司南合营基站,邱庄南农业【纯农排变】,邱庄内南变压器,邱庄村东【纯农排变】,北合固店道【纯农排变】,北合红房子【纯农排变】,北合内东南,南合营村北,北合于营道【纯农排变】,邱庄旧窑2号【纯农排变】,北合小学,邱庄村东2号农业新增【纯农排变】,邱庄旧窑【纯农排变】,北合内西北,邱庄正西【纯农排变】,邱庄裤子地【纯农排变】,北合缩家佐2号【纯农排变】,北合果园【纯农排变】,邱庄西南【纯农排变】,北合许庄道【纯农排变】,邱庄内东,北合内西南,北合缩家佐【纯农排变】,北合内北,于合营村内2号,南合营村内,邱庄裤子地2号【纯农排变】","poweroffReason":"【停电原因】由于邱庄５３９线路０３５号电杆倾斜，需停电进行紧急消缺导致２２０ＫＶ固店变电站１０ＫＶ邱庄５３９线路全线停电 【变更送电】无 【发布渠道】通过９５５９８发布","powerTime":"2019-07-15 20:05:00","powerComm":"已送电","subsNo":"","lineNo":"","tgNo":"","tgName":null,"infoStatus":"1","orgName":"国网望都县供电公司","typeName":null,"infoStatusName":null,"dateDay":null,"orgNos":null,"nowTime":null,"countyName":null,"streetName":null,"villageName":null,"roadName":null,"communityName":null,"tranName":null,"sdLineName":null,"cityCode":"1340623","cityName":"国网望都县供电公司","provinceCode":null,"stopTime":"2019-07-15 21:00:00","powerType":"全部","powerOffArea":"【全线路停电】停北合官地2号【纯农排变】,北合于营道2号【纯农排变】,邱庄外北【纯农排变】,于合营北【纯农排变】,南合营内西,南合营外东北农业【纯农排变】,北合内东北,邱庄内中,邱庄东南【纯农排变】,南合营东地【纯农排变】,北合内南,北合村北配变,北合官地【纯农排变】,北合王京道2号【纯农排变】,北合道方2号【纯农排变】,于合营村内,北合红房子2号【纯农排变】,北合王京道【纯农排变】,北合道方【纯农排变】,邱庄外南【纯农排变】,北合外北【纯农排变】,北合许庄道2号【纯农排变】,邱庄内西,北合内东南2号,邱庄东南2号【纯农排变】,北合二十里铺道【纯农排变】,北合外南【纯农排变】,邱庄外南2号【纯农排变】,邱庄正北2号【纯农排变】,邱庄东北【纯农排变】,北合内西北2号配变,二十里铺东【纯农排变】,邱庄西北【纯农排变】,邱庄正北【纯农排变】,于合营许庄道【纯农排变】,北合外北2号【纯农排变】,邱庄内,二十里铺东南1【纯农排变】,南合营中地【纯农排变】,北合果园南【纯农排变】,邱庄中桥北【纯农排变】,邱庄小学,南合营陈家坟【纯农排变】,南合营王家地【纯农排变】,北合果园2号【纯农排变】,于合营村内3号,中国移动通讯河北望都分公司南合营基站,邱庄南农业【纯农排变】,邱庄内南变压器,邱庄村东【纯农排变】,北合固店道【纯农排变】,北合红房子【纯农排变】,北合内东南,南合营村北,北合于营道【纯农排变】,邱庄旧窑2号【纯农排变】,北合小学,邱庄村东2号农业新增【纯农排变】,邱庄旧窑【纯农排变】,北合内西北,邱庄正西【纯农排变】,邱庄裤子地【纯农排变】,北合缩家佐2号【纯农排变】,北合果园【纯农排变】,邱庄西南【纯农排变】,北合许庄道【纯农排变】,邱庄内东,北合内西南,北合缩家佐【纯农排变】,北合内北,于合营村内2号,南合营村内,邱庄裤子地2号【纯农排变】","powerOffReason":"【停电原因】由于邱庄５３９线路０３５号电杆倾斜，需停电进行紧急消缺导致２２０ＫＶ固店变电站１０ＫＶ邱庄５３９线路全线停电 【变更送电】无 【发布渠道】通过９５５９８发布","powerOffId":"2019071513000089"},{"poweroffId":2019071413000301,"sgpoweroffId":null,"subsName":"","lineName":"10kV水厂521线","pubTranName":"镀膜厂变压器,药市街综合变压器,南河沿变压器,舍二村综合1变压器,南大公用变压器,客户投资_河沿西变压器,舍二村综合2变压器,北张胡同变压器,义和新居,盛大花园二期,安国市恒城物业服务有限公司,南关家属院箱变1号变压器配电变压器,住建局,安国市宜加园物业管理有限公司,隆盛供热,悦城湾箱式变电站间隔配电变压器,卜家街变压器,","scope":"【影响街道/乡镇】祁州镇（西周镇）、南大街、药市街、北大街 【高危重要客户】无 【影响客户】悦城湾（月城湾）、舍二村、南河沿、卜家大院、北张胡同、义和新居","startTime":"2019-07-14 23:01:25","stopDate":"2019-07-15 00:45:00","orgNo":"1340606","typeCode":"电网故障停限电","poweroffArea":"【全线路停电】停盛大花园二期,安国市恒城物业服务有限公司,南关家属院箱变1号变压器配电变压器,住建局,安国市宜加园物业管理有限公司,隆盛供热,悦城湾箱式变电站间隔配电变压器,卜家街变压器,药市街综合变压器,镀膜厂变压器,南河沿变压器,舍二村综合1变压器,南大公用变压器,客户投资_河沿西变压器,舍二村综合2变压器,北张胡同变压器,义和新居","poweroffReason":"【停电原因】由于Ａ相接地导致１１０ＫＶ东河变电站１０ＫＶ水厂５２１线路全线停电 【变更送电】因抢修进度加快原因，送电时间由０４：３０变更为００：４５ 【发布渠道】通过９５５９８发布","powerTime":"2019-07-15 00:39:22","powerComm":"已送电","subsNo":"","lineNo":"","tgNo":"","tgName":null,"infoStatus":"1","orgName":"国网安国市供电公司","typeName":null,"infoStatusName":null,"dateDay":null,"orgNos":null,"nowTime":null,"countyName":null,"streetName":null,"villageName":null,"roadName":null,"communityName":null,"tranName":null,"sdLineName":null,"cityCode":"1340606","cityName":"国网安国市供电公司","provinceCode":null,"stopTime":"2019-07-15 00:45:00","powerType":"全部","powerOffArea":"【全线路停电】停盛大花园二期,安国市恒城物业服务有限公司,南关家属院箱变1号变压器配电变压器,住建局,安国市宜加园物业管理有限公司,隆盛供热,悦城湾箱式变电站间隔配电变压器,卜家街变压器,药市街综合变压器,镀膜厂变压器,南河沿变压器,舍二村综合1变压器,南大公用变压器,客户投资_河沿西变压器,舍二村综合2变压器,北张胡同变压器,义和新居","powerOffReason":"【停电原因】由于Ａ相接地导致１１０ＫＶ东河变电站１０ＫＶ水厂５２１线路全线停电 【变更送电】因抢修进度加快原因，送电时间由０４：３０变更为００：４５ 【发布渠道】通过９５５９８发布","powerOffId":"2019071413000301"},{"poweroffId":2019071413000292,"sgpoweroffId":null,"subsName":"","lineName":"10kV前卫站581线路","pubTranName":"C569柱上变压器,","scope":"【影响街道/乡镇】韩庄乡 【高危重要客户】无 【影响客户】冯庄","startTime":"2019-07-14 22:40:00","stopDate":"2019-07-15 00:20:00","orgNo":"13406","typeCode":"电网故障停限电","poweroffArea":"【单台区停电】停C569柱上变压器","poweroffReason":"【停电原因】由于低压刀闸烧导致１０ＫＶ前卫变电站５８１线路Ｃ５６９公变台区停电【变更送电】因抢修进度加快，原定０１:４０送电现计划００:２０送电。【发布渠道】通过９５５９８发布","powerTime":"2019-07-15 00:10:58","powerComm":"已送电","subsNo":"","lineNo":"","tgNo":"","tgName":null,"infoStatus":"1","orgName":"保定供电公司","typeName":null,"infoStatusName":null,"dateDay":null,"orgNos":null,"nowTime":null,"countyName":null,"streetName":null,"villageName":null,"roadName":null,"communityName":null,"tranName":null,"sdLineName":null,"cityCode":"13406","cityName":"保定供电公司","provinceCode":null,"stopTime":"2019-07-15 00:20:00","powerType":"全部","powerOffArea":"【单台区停电】停C569柱上变压器","powerOffReason":"【停电原因】由于低压刀闸烧导致１０ＫＶ前卫变电站５８１线路Ｃ５６９公变台区停电【变更送电】因抢修进度加快，原定０１:４０送电现计划００:２０送电。【发布渠道】通过９５５９８发布","powerOffId":"2019071413000292"},{"poweroffId":2019071413000276,"sgpoweroffId":null,"subsName":"","lineName":"白洋580","pubTranName":"石门店村7#,","scope":"【影响街道/乡镇】梁各庄镇【高危重要客户】无【影响客户】石门店村","startTime":"2019-07-15 05:00:00","stopDate":"2019-07-15 12:00:00","orgNo":"1340625","typeCode":"其他临时停电","poweroffArea":"【单台区停电】停石门店村7#","poweroffReason":"【停电原因】由于台区改造导致１１０ＫＶ店北变电站白洋５８０线路石门店村７＃公变台区停电【变更送电】无【发布渠道】通过９５５９８发布","powerTime":"2019-07-15 11:20:30","powerComm":"已送电","subsNo":"","lineNo":"","tgNo":"","tgName":null,"infoStatus":"1","orgName":"国网易县供电公司","typeName":null,"infoStatusName":null,"dateDay":null,"orgNos":null,"nowTime":null,"countyName":null,"streetName":null,"villageName":null,"roadName":null,"communityName":null,"tranName":null,"sdLineName":null,"cityCode":"1340625","cityName":"国网易县供电公司","provinceCode":null,"stopTime":"2019-07-15 12:00:00","powerType":"全部","powerOffArea":"【单台区停电】停石门店村7#","powerOffReason":"【停电原因】由于台区改造导致１１０ＫＶ店北变电站白洋５８０线路石门店村７＃公变台区停电【变更送电】无【发布渠道】通过９５５９８发布","powerOffId":"2019071413000276"},{"poweroffId":2019071413000274,"sgpoweroffId":null,"subsName":"","lineName":"梁各庄线523","pubTranName":"石门店村3#|村西,","scope":"【影响街道/乡镇】梁各庄镇【高危重要客户】无【影响客户】石门店村","startTime":"2019-07-15 05:00:00","stopDate":"2019-07-15 12:00:00","orgNo":"1340625","typeCode":"其他临时停电","poweroffArea":"【单台区停电】停石门店村3#|村西","poweroffReason":"【停电原因】由于台区改造导致１１０ＫＶ西陵变电站梁各庄线５２３线路石门店村３＃村西公变台区停电【变更送电】无【发布渠道】通过９５５９８发布","powerTime":"2019-07-15 11:21:08","powerComm":"已送电","subsNo":"","lineNo":"","tgNo":"","tgName":null,"infoStatus":"1","orgName":"国网易县供电公司","typeName":null,"infoStatusName":null,"dateDay":null,"orgNos":null,"nowTime":null,"countyName":null,"streetName":null,"villageName":null,"roadName":null,"communityName":null,"tranName":null,"sdLineName":null,"cityCode":"1340625","cityName":"国网易县供电公司","provinceCode":null,"stopTime":"2019-07-15 12:00:00","powerType":"全部","powerOffArea":"【单台区停电】停石门店村3#|村西","powerOffReason":"【停电原因】由于台区改造导致１１０ＫＶ西陵变电站梁各庄线５２３线路石门店村３＃村西公变台区停电【变更送电】无【发布渠道】通过９５５９８发布","powerOffId":"2019071413000274"},{"poweroffId":2019071413000273,"sgpoweroffId":null,"subsName":"","lineName":"柴厂511","pubTranName":"娄亭村2#变压器,惠东房地产(托斯卡纳庄园),龙湖碧枫轩度假村,柴厂村6#村东,娄亭村1#,变压器,娄亭村7#小鱼沟,娄亭村5#,柴厂村1#,梁建国变压器,娄亭村6#,娄亭村4#|3队,易县董军玄武岩石料厂,红豆山庄,娄亭村3台区,柴厂村3#|村中,柴厂村2#|村下,0469484377-易县桂隆房地产开发有限公司-专变-46819469-易县桂隆房地产开发有限公司,河北誉龙圣世房地产开发有限公司,保定伍建房地产开发有限公司,娄亭扬水站,柴厂村4#,娄亭村8台区变压器,桂龙公司,0672256112-中国电建集团北京勘测设计研究院有限公司-专变-213884191-中国电建集团北京勘测设计研究院有限公司250KVA,易县天伟矿产品有限公司(郭保良),柴厂5#,娄亭10#,","scope":"【影响街道/乡镇】梁格庄镇【高危重要客户】无【影响客户】柴厂村、娄亭村","startTime":"2019-07-15 04:00:00","stopDate":"2019-07-15 12:00:00","orgNo":"1340625","typeCode":"其他临时停电","poweroffArea":"【分支停电】娄亭村2#变压器,惠东房地产(托斯卡纳庄园),龙湖碧枫轩度假村,柴厂村6#村东,娄亭村1#,变压器,娄亭村7#小鱼沟,娄亭村5#,柴厂村1#,梁建国变压器,娄亭村6#,娄亭村4#|3队,易县董军玄武岩石料厂,柴厂村2#|村下,0469484377-易县桂隆房地产开发有限公司-专变-46819469-易县桂隆房地产开发有限公司,河北誉龙圣世房地产开发有限公司,保定伍建房地产开发有限公司,娄亭扬水站,柴厂村4#,娄亭村8台区变压器,桂龙公司,0672256112-中国电建集团北京勘测设计研究院有限公司-专变-213884191-中国电建集团北京勘测设计研究院有限公司250KVA,易县天伟矿产品有限公司(郭保良),柴厂5#,娄亭10#,红豆山庄,娄亭村3台区,柴厂村3#|村中","poweroffReason":"【停电原因】由于紧急消缺导致３５ＫＶ龙湖变电站柴厂５１１线路００１号杆至０２５号杆之间停电【变更送电】无【发布渠道】通过９５５９８发布","powerTime":"2019-07-15 11:19:53","powerComm":"已送电","subsNo":"","lineNo":"","tgNo":"","tgName":null,"infoStatus":"1","orgName":"国网易县供电公司","typeName":null,"infoStatusName":null,"dateDay":null,"orgNos":null,"nowTime":null,"countyName":null,"streetName":null,"villageName":null,"roadName":null,"communityName":null,"tranName":null,"sdLineName":null,"cityCode":"1340625","cityName":"国网易县供电公司","provinceCode":null,"stopTime":"2019-07-15 12:00:00","powerType":"全部","powerOffArea":"【分支停电】娄亭村2#变压器,惠东房地产(托斯卡纳庄园),龙湖碧枫轩度假村,柴厂村6#村东,娄亭村1#,变压器,娄亭村7#小鱼沟,娄亭村5#,柴厂村1#,梁建国变压器,娄亭村6#,娄亭村4#|3队,易县董军玄武岩石料厂,柴厂村2#|村下,0469484377-易县桂隆房地产开发有限公司-专变-46819469-易县桂隆房地产开发有限公司,河北誉龙圣世房地产开发有限公司,保定伍建房地产开发有限公司,娄亭扬水站,柴厂村4#,娄亭村8台区变压器,桂龙公司,0672256112-中国电建集团北京勘测设计研究院有限公司-专变-213884191-中国电建集团北京勘测设计研究院有限公司250KVA,易县天伟矿产品有限公司(郭保良),柴厂5#,娄亭10#,红豆山庄,娄亭村3台区,柴厂村3#|村中","powerOffReason":"【停电原因】由于紧急消缺导致３５ＫＶ龙湖变电站柴厂５１１线路００１号杆至０２５号杆之间停电【变更送电】无【发布渠道】通过９５５９８发布","powerOffId":"2019071413000273"},{"poweroffId":2019071413000255,"sgpoweroffId":null,"subsName":"","lineName":"10kV苍山线511","pubTranName":"519大道3#配变,519大石坊4#配变,519小石坊1#配变,519海沿1#配变,519苍山3#配变,519苍山1#配变,519小石坊2#配变,519董家沟口2#配变,519董家沟口4#配变,519大石坊1#配变,519董家沟口5#配变,519董家沟口1#配变,519大石坊5#配变,519神台2#配变,519苍山2#配变,519南峪2#配变,519黄岸底4#配变,519南峪1#配变,519大石坊2#配变,519董家沟口3#配变,519小石坊3#配变,519神台1#配变,519大石坊3配变,","scope":"【影响街道/乡镇】阜平镇 【高危重要客户】无 【影响客户】苍山村、南峪村、董家沟口、大石坊村、槐树庄村、大道村、黄岸底村、海沿村、耑路头、槐树庄中学、小石坊村、高阜口村、神台村","startTime":"2019-07-14 19:30:10","stopDate":"2019-07-14 22:30:00","orgNo":"1340611","typeCode":"电网故障停限电","poweroffArea":"【全线路停电】停519苍山1#配变,519董家沟口2#配变,519董家沟口3#配变,519大石坊2#配变,519神台2#配变,519南峪1#配变,519大石坊5#配变,519神台1#配变,519小石坊3#配变,519大道3#配变,519海沿1#配变,519苍山3#配变,519董家沟口5#配变,519小石坊1#配变,519黄岸底4#配变,519苍山2#配变,519南峪2#配变,519董家沟口4#配变,519大石坊3配变,519董家沟口1#配变,519小石坊2#配变,519大石坊1#配变,519大石坊4#配变","poweroffReason":"【停电原因】由于线路接地导致３５ＫＶ阜平西庄变电站１０ＫＶ苍山线５１１线路全线停电 【变更送电】无 【发布渠道】９５５９８","powerTime":"2019-07-14 21:53:01","powerComm":"全部送电","subsNo":"","lineNo":"","tgNo":"","tgName":null,"infoStatus":"1","orgName":"国网阜平县供电公司","typeName":null,"infoStatusName":null,"dateDay":null,"orgNos":null,"nowTime":null,"countyName":null,"streetName":null,"villageName":null,"roadName":null,"communityName":null,"tranName":null,"sdLineName":null,"cityCode":"1340611","cityName":"国网阜平县供电公司","provinceCode":null,"stopTime":"2019-07-14 22:30:00","powerType":"全部","powerOffArea":"【全线路停电】停519苍山1#配变,519董家沟口2#配变,519董家沟口3#配变,519大石坊2#配变,519神台2#配变,519南峪1#配变,519大石坊5#配变,519神台1#配变,519小石坊3#配变,519大道3#配变,519海沿1#配变,519苍山3#配变,519董家沟口5#配变,519小石坊1#配变,519黄岸底4#配变,519苍山2#配变,519南峪2#配变,519董家沟口4#配变,519大石坊3配变,519董家沟口1#配变,519小石坊2#配变,519大石坊1#配变,519大石坊4#配变","powerOffReason":"【停电原因】由于线路接地导致３５ＫＶ阜平西庄变电站１０ＫＶ苍山线５１１线路全线停电 【变更送电】无 【发布渠道】９５５９８","powerOffId":"2019071413000255"},{"poweroffId":2019071413000252,"sgpoweroffId":null,"subsName":"","lineName":"迪城线577","pubTranName":"于迪城1号【纯农排变】,","scope":"【影响街道/乡镇】大因镇 【高危重要客户】无 【影响客户】于迪城","startTime":"2019-07-15 07:00:00","stopDate":"2019-07-15 19:00:00","orgNo":"1340605","typeCode":"其他临时停电","poweroffArea":"【单台区停电】停于迪城1号【纯农排变】","poweroffReason":"【停电原因】由于处理紧急缺陷导致１１０ＫＶ沙口变电站迪城线５７７线路于迪城１号公变台区停电 【变更送电】无 【发布渠道】通过９５５９８发布","powerTime":"2019-07-15 18:22:52","powerComm":"已送电","subsNo":"","lineNo":"","tgNo":"","tgName":null,"infoStatus":"1","orgName":"国网徐水县供电公司","typeName":null,"infoStatusName":null,"dateDay":null,"orgNos":null,"nowTime":null,"countyName":null,"streetName":null,"villageName":null,"roadName":null,"communityName":null,"tranName":null,"sdLineName":null,"cityCode":"1340605","cityName":"国网徐水县供电公司","provinceCode":null,"stopTime":"2019-07-15 19:00:00","powerType":"全部","powerOffArea":"【单台区停电】停于迪城1号【纯农排变】","powerOffReason":"【停电原因】由于处理紧急缺陷导致１１０ＫＶ沙口变电站迪城线５７７线路于迪城１号公变台区停电 【变更送电】无 【发布渠道】通过９５５９８发布","powerOffId":"2019071413000252"},{"poweroffId":2019071413000242,"sgpoweroffId":null,"subsName":"","lineName":"10kV李庄线513","pubTranName":"2李庄外10【纯农排变】,2李庄外8【纯农排变】,1李庄内10,2李庄外19【纯农排变】,2李庄外12【纯农排变】,2李庄外16【纯农排变】,2李庄外1【纯农排变】,新兴面粉厂,1李庄幼儿园变压器,李庄中学,2李庄外14【纯农排变】,1李庄内5,2李庄外18【纯农排变】,2李庄外2【纯农排变】,2李庄外17【纯农排变】,1李庄内7,李庄中学变压器1,2李庄外15【纯农排变】,1李庄内8,李庄外3【纯农排变】,1李庄内9,李庄内1,李庄中学3柱上变压器,2李庄外20【纯农排变】,2李庄外7【纯农排变】,李庄小学变压器,2李庄外11【纯农排变】,李庄中学变压器2,李庄中学4变压器,1李庄内4,李庄外4【纯农排变】,1李庄内6,李庄内2,李庄外5【纯农排变】,李庄内3,2李庄外6【纯农排变】,2李庄外9【纯农排变】,","scope":"【影响街道/乡镇】李庄乡 【高危重要客户】无 【影响客户】李庄","startTime":"2019-07-14 18:22:13","stopDate":"2019-07-14 19:30:00","orgNo":"1340618","typeCode":"电网故障停限电","poweroffArea":"【全线路停电】停2李庄外10【纯农排变】,2李庄外8【纯农排变】,1李庄内10,2李庄外19【纯农排变】,2李庄外12【纯农排变】,2李庄外16【纯农排变】,新兴面粉厂,1李庄幼儿园变压器,李庄中学,李庄外3【纯农排变】,1李庄内9,李庄内1,李庄中学3柱上变压器,2李庄外20【纯农排变】,2李庄外7【纯农排变】,李庄小学变压器,2李庄外1【纯农排变】,2李庄外11【纯农排变】,李庄中学变压器2,李庄中学4变压器,1李庄内4,李庄外4【纯农排变】,1李庄内6,李庄内2,李庄外5【纯农排变】,李庄内3,2李庄外6【纯农排变】,2李庄外9【纯农排变】,2李庄外14【纯农排变】,1李庄内5,2李庄外18【纯农排变】,2李庄外2【纯农排变】,2李庄外17【纯农排变】,1李庄内7,李庄中学变压器1,2李庄外15【纯农排变】,1李庄内8","poweroffReason":"【停电原因】由于主干７９号杆北分支３号杆李庄外９配变树枝搭线导致３５ＫＶ李庄变电站１０ＫＶ李庄线５１３线路全线停电 【变更送电】因抢修进度加快原因，送电时间由２３：００变更为１９：３０ 【发布渠道】通过９５５９８发布","powerTime":"2019-07-14 19:10:05","powerComm":"姜二龙通知已送电","subsNo":"","lineNo":"","tgNo":"","tgName":null,"infoStatus":"1","orgName":"国网清苑县供电公司","typeName":null,"infoStatusName":null,"dateDay":null,"orgNos":null,"nowTime":null,"countyName":null,"streetName":null,"villageName":null,"roadName":null,"communityName":null,"tranName":null,"sdLineName":null,"cityCode":"1340618","cityName":"国网清苑县供电公司","provinceCode":null,"stopTime":"2019-07-14 19:30:00","powerType":"全部","powerOffArea":"【全线路停电】停2李庄外10【纯农排变】,2李庄外8【纯农排变】,1李庄内10,2李庄外19【纯农排变】,2李庄外12【纯农排变】,2李庄外16【纯农排变】,新兴面粉厂,1李庄幼儿园变压器,李庄中学,李庄外3【纯农排变】,1李庄内9,李庄内1,李庄中学3柱上变压器,2李庄外20【纯农排变】,2李庄外7【纯农排变】,李庄小学变压器,2李庄外1【纯农排变】,2李庄外11【纯农排变】,李庄中学变压器2,李庄中学4变压器,1李庄内4,李庄外4【纯农排变】,1李庄内6,李庄内2,李庄外5【纯农排变】,李庄内3,2李庄外6【纯农排变】,2李庄外9【纯农排变】,2李庄外14【纯农排变】,1李庄内5,2李庄外18【纯农排变】,2李庄外2【纯农排变】,2李庄外17【纯农排变】,1李庄内7,李庄中学变压器1,2李庄外15【纯农排变】,1李庄内8","powerOffReason":"【停电原因】由于主干７９号杆北分支３号杆李庄外９配变树枝搭线导致３５ＫＶ李庄变电站１０ＫＶ李庄线５１３线路全线停电 【变更送电】因抢修进度加快原因，送电时间由２３：００变更为１９：３０ 【发布渠道】通过９５５９８发布","powerOffId":"2019071413000242"}],"pageModel":{"pageNow":824,"totalCount":10973,"totalPage":1098,"tableRows":0,"pageCount":10,"beginCount":8230},"isExperi":"1"}