{"message":"","today":"2020-06-15","seleList":[{"poweroffId":2020051713000159,"sgpoweroffId":null,"subsName":"","lineName":"南城司516","pubTranName":"尚庄村6井变压器,辛庄村4号变,南城司村2#|村西,长岭村6#村北（综）,长岭村8#变,北城司村3#村东,长岭村2#|大队,白麻村6#变,南城司村10#,南台3#村西（综）,长岭村4#村西（综）,尚庄7号变压器,曹格庄村4台区,宋格庄村3#,白麻村1#|村北,南台村2#,南城司村3#|市场,杨家沟村3#村北（综）,岭子南村1#|村内,黄土台村3#村西,尚庄村5#变,南城司村6#村南（综）,南城司村1#|村内,长岭村7#变,黄土台村4#,白麻村4#变,尚庄村4#村北（综）,营安村3#村北（综）,辛庄3号变铁路,曹格庄村3#村南,北城司村5#村北（综）,枣格庄村5#村南（综）,南城司村8#村东（综）,杨家沟村6#变压器,曹格庄村1#|村内,杨家沟村4#村东（综）,枣格庄村1#|村南,白麻村5#变,尚庄村2#村东（综）,白麻村3#|村东北,宋格庄村2#村内(综),白麻村7#变,北城司村7#村北,营安村2#|村西,南城司5#村南,营安村1#|村东,辛庄村1#|村内,白麻村2#|村南,辛庄村2#村北（综）,北城司村2#|村西,白麻村8号变压器,南城司13号变,枣格庄村3#村北（综),长岭村3#|下水壶,营安村5#变,长岭村9号变,南城司村4#|村北,营安村4#变,岭子村3#村南（综）,大兴安村6#变,长岭村5#,南城司村11#,北城司村4#村北,尚庄村1#|村内,杨家沟村1#|大队,南城司村9#村南,北城司村6#村北,南台村1#|村内,黄土台村2#|村北,杨家沟村2#|村东,尚庄村3#村西（综）,宋格庄村1#|村内,长岭村1#|村西,南城司村12#变压器,南城司村7#村北,曹格庄村2#|丁家沟,枣格庄村4#村北（综）,恩村4#村东（综）,枣格庄村2#|村北,枣各庄6号变压器,北城司村8#村北（综）,北城司村1#|村东,黄土台村1#|村南,","scope":"【影响街道/乡镇】南城司乡、紫荆关镇【高危重要客户】无【影响客户】南城司村、北城司村、曹各庄村、辛庄村、宋各庄村、岭子南村、长岭村、南台村、尚庄村、白麻村、营安村、黄土台村、杨家沟村、枣各庄村","startTime":"2020-05-17 15:08:45","stopDate":"2020-05-17 17:00:00","orgNo":"1340625","typeCode":"电网故障停限电","poweroffArea":"【全线路停电】停白麻村6#变,易县聚融砂厂变压器2,南台3#村西（综）,北城司村7#村北,营安村2#|村西,南城司5#村南,易县鼎隆石材加工厂A400,长岭村3#|下水壶,营安村5#变,易县恒升石材厂250,易县鼎隆石材加工厂变压器2,福建石语石材加工厂变压器2,长岭村9号变,营安村4#变,66209部队(200KVA),杨家沟村2#|村东,易县大丰石材加工厂315,尚庄村3#村西（综）,南城司中心小学100KVA,白麻村康金凯变压器,易县昆龙花岗岩办公专用配变80KVA,宋格庄村1#|村内,易县恒升石材厂变压器2,枣格庄村1#|村南,恩村4#村东（综）,北城司村8#村北（综）,杨家沟村3#村北（综）,岭子南村1#|村内,黄土台村3#村西,枣格庄村2#|村北,南城司村6#村南（综）,长岭村7#变,尚庄7号变压器,易县森然食用菌种植有限公司,南城司村12#变压器,曹格庄村2#|丁家沟,枣格庄村4#村北（综）,易县泰宇石材厂变压器,岭子村3#村南（综）,南城司村11#,北城司村4#村北,南城司村4#|村北,长岭村5#,尚庄村1#|村内,易县恒升石材厂变压器1,杨家沟村1#|大队,易县鼎隆石材加工厂变夺器,南城司派出所80KVA,易县新福升源石材加工厂变压器2,南城司村9#村南,移动公司北城司基站50,易县鼎隆石材加工厂b250,北城司村6#村北,0621467679-易县宾顺矿产品有限公司-专变-129453586-易县宾顺矿产品有限公司变压器,南台村1#|村内,黄土台村1#|村南,易县泰宇石材厂250,枣各庄6号变压器,大兴安村6#变,河北长城物资储运经营公司(50KV),北城司村1#|村东,河北长城物资储运经营公司(200KV),辛庄村4号变,易县丰岩石材加工厂250,66209部队(100KVA),长岭村6#村北（综）,长岭村8#变,南城司乡政府(王克友),北城司村3#村东,长岭村2#|大队,易县连军花岗岩矿变压器,尚庄村6井变压器,0621467679-易县宾顺矿产品有限公司-专变-141668865-易县宾顺矿产品有限公司变压器,福建石语石材加工厂变压器1,南城司村2#|村西,王海变压器,中国人民解放军66209部队变压器1,长岭村4#村西（综）,南城司村10#,曹格庄村3#村南,北京铁路局南城司车站250KVA,南城司中心小学400KVA,白麻村4#变,南城司村3#|市场,易县泉商石材有限公司变压器1,白麻村5#变,易县聚融砂厂变压器1,尚庄村2#村东（综）,宋格庄村2#村内(综),易县丰岩石材加工厂250KVA,黄土台村4#,易县福升源石材加工厂变压器,北城司村5#村北（综）,河北长城物资储运经营公司(80KV),枣格庄村5#村南（综）,南城司村8#村东（综）,易县鼎隆石材加工厂变压器1,易县新福升源石材加工厂变压器1,杨家沟村6#变压器,白麻村3#|村东北,易县雅韵旅游开发有限公司250KVA,易县福升源石材加工厂630,尚庄村4#村北（综）,营安村3#村北（综）,辛庄3号变铁路,曹格庄村1#|村内,南城司村1#|村内,长岭村1#|村西,南城司村7#村北,易县福升源石材加工厂315,白麻村7#变,易县泉商石材有限公司变压器2,南城司乡卫生院250KVA,杨家沟村4#村东（综）,黄土台村2#|村北,尚庄村5#变,曹格庄村4台区,营安村1#|村东,辛庄村1#|村内,白麻村2#|村南,辛庄村2#村北（综）,易县鼎隆石材250,北城司村2#|村西,中国人民解放军66209部队变压器2,白麻村8号变压器,易县丰岩石材加工厂500KVA,南城司13号变,枣格庄村3#村北（综),宋格庄村3#,白麻村1#|村北,南台村2#","poweroffReason":"【停电原因】由于上开线３１４跳闸导致３５ＫＶ大兴安变电站南城司５１６线路全线停电【变更送电】因抢修进度加快原因，送电时间由２０：００变更为１７：００【发布渠道】通过９５５９８发布","powerTime":"2020-05-17 16:48:16","powerComm":"已送电","subsNo":"","lineNo":"","tgNo":"","tgName":null,"infoStatus":"1","orgName":"国网易县供电公司","typeName":null,"infoStatusName":null,"dateDay":null,"orgNos":null,"nowTime":null,"countyName":null,"streetName":null,"villageName":null,"roadName":null,"communityName":null,"tranName":null,"sdLineName":null,"cityCode":"1340625","cityName":"国网易县供电公司","provinceCode":null,"stopTime":"2020-05-17 17:00:00","powerType":"全部","powerOffArea":"【全线路停电】停白麻村6#变,易县聚融砂厂变压器2,南台3#村西（综）,北城司村7#村北,营安村2#|村西,南城司5#村南,易县鼎隆石材加工厂A400,长岭村3#|下水壶,营安村5#变,易县恒升石材厂250,易县鼎隆石材加工厂变压器2,福建石语石材加工厂变压器2,长岭村9号变,营安村4#变,66209部队(200KVA),杨家沟村2#|村东,易县大丰石材加工厂315,尚庄村3#村西（综）,南城司中心小学100KVA,白麻村康金凯变压器,易县昆龙花岗岩办公专用配变80KVA,宋格庄村1#|村内,易县恒升石材厂变压器2,枣格庄村1#|村南,恩村4#村东（综）,北城司村8#村北（综）,杨家沟村3#村北（综）,岭子南村1#|村内,黄土台村3#村西,枣格庄村2#|村北,南城司村6#村南（综）,长岭村7#变,尚庄7号变压器,易县森然食用菌种植有限公司,南城司村12#变压器,曹格庄村2#|丁家沟,枣格庄村4#村北（综）,易县泰宇石材厂变压器,岭子村3#村南（综）,南城司村11#,北城司村4#村北,南城司村4#|村北,长岭村5#,尚庄村1#|村内,易县恒升石材厂变压器1,杨家沟村1#|大队,易县鼎隆石材加工厂变夺器,南城司派出所80KVA,易县新福升源石材加工厂变压器2,南城司村9#村南,移动公司北城司基站50,易县鼎隆石材加工厂b250,北城司村6#村北,0621467679-易县宾顺矿产品有限公司-专变-129453586-易县宾顺矿产品有限公司变压器,南台村1#|村内,黄土台村1#|村南,易县泰宇石材厂250,枣各庄6号变压器,大兴安村6#变,河北长城物资储运经营公司(50KV),北城司村1#|村东,河北长城物资储运经营公司(200KV),辛庄村4号变,易县丰岩石材加工厂250,66209部队(100KVA),长岭村6#村北（综）,长岭村8#变,南城司乡政府(王克友),北城司村3#村东,长岭村2#|大队,易县连军花岗岩矿变压器,尚庄村6井变压器,0621467679-易县宾顺矿产品有限公司-专变-141668865-易县宾顺矿产品有限公司变压器,福建石语石材加工厂变压器1,南城司村2#|村西,王海变压器,中国人民解放军66209部队变压器1,长岭村4#村西（综）,南城司村10#,曹格庄村3#村南,北京铁路局南城司车站250KVA,南城司中心小学400KVA,白麻村4#变,南城司村3#|市场,易县泉商石材有限公司变压器1,白麻村5#变,易县聚融砂厂变压器1,尚庄村2#村东（综）,宋格庄村2#村内(综),易县丰岩石材加工厂250KVA,黄土台村4#,易县福升源石材加工厂变压器,北城司村5#村北（综）,河北长城物资储运经营公司(80KV),枣格庄村5#村南（综）,南城司村8#村东（综）,易县鼎隆石材加工厂变压器1,易县新福升源石材加工厂变压器1,杨家沟村6#变压器,白麻村3#|村东北,易县雅韵旅游开发有限公司250KVA,易县福升源石材加工厂630,尚庄村4#村北（综）,营安村3#村北（综）,辛庄3号变铁路,曹格庄村1#|村内,南城司村1#|村内,长岭村1#|村西,南城司村7#村北,易县福升源石材加工厂315,白麻村7#变,易县泉商石材有限公司变压器2,南城司乡卫生院250KVA,杨家沟村4#村东（综）,黄土台村2#|村北,尚庄村5#变,曹格庄村4台区,营安村1#|村东,辛庄村1#|村内,白麻村2#|村南,辛庄村2#村北（综）,易县鼎隆石材250,北城司村2#|村西,中国人民解放军66209部队变压器2,白麻村8号变压器,易县丰岩石材加工厂500KVA,南城司13号变,枣格庄村3#村北（综),宋格庄村3#,白麻村1#|村北,南台村2#","powerOffReason":"【停电原因】由于上开线３１４跳闸导致３５ＫＶ大兴安变电站南城司５１６线路全线停电【变更送电】因抢修进度加快原因，送电时间由２０：００变更为１７：００【发布渠道】通过９５５９８发布","powerOffId":"2020051713000159"},{"poweroffId":2020051713000155,"sgpoweroffId":null,"subsName":"","lineName":"桥梁厂515","pubTranName":"殷家沟村3#,东清源村5#,西清源3#,西清源村2#,蔡家峪村2#,马圈子3#,平顶山村4#,殷家沟村2#,马圈子村9#,西清源村5#,东清源村6#,蔡家峪村7#,西清源村8#,西清源村11#,蔡家峪村3#,马圈子村6#,蔡家峪村4#,东清源村2#,蔡家峪村5#,山神庙村3#,蔡家峪村1#,东清源村3#,马圈子村10#,山神庙村2#,蔡家峪村6#,马圈子村11#,平顶山村5#,马圈子村1#,西清源村6#,山神庙村1#,殷家沟村4#,西清源9#,西清源村1#,平顶山村3#,西清源村4#,马圈子2#,山神庙7号变压器,平顶山村1#,殷家沟村1#,平顶山村2#,马圈子村5#,西清源10#,蔡家峪乡直,马圈子村8#,马圈子村4#,马圈子村7#,山神庙村5#,山神庙6#,蔡家峪村8井变压器,山神庙村4#,","scope":"【影响街道/乡镇】紫荆关镇、蔡家峪乡【高危重要客户】无【影响客户】东清源村、西清源村、蔡家峪村、山神庙村、殷家沟村、马圈子村、平顶山村","startTime":"2020-05-17 15:08:18","stopDate":"2020-05-17 17:00:00","orgNo":"1340625","typeCode":"电网故障停限电","poweroffArea":"【全线路停电】停西清源3#,0619915173-中国移动通信集团河北有限公司易县分公司-专变-129035100-中国移动通信集团河北有限公司易县分公司变压器,西清源村2#,蔡家峪村2#,0554193164-易县雷发顺天成石材加工厂-专变-75222837-易县雷发顺天成石材加工厂,平顶山村朱俊江变压器,马圈子3#,西清源10#,山神庙村2#,蔡家峪卫生院80KVA,马圈子村10#,蔡家峪村6#,马圈子村11#,平顶山村5#,金属结构厂2,马圈子村1#,西清源村6#,殷家沟村3#,东清源村5#,平顶山村4#,殷家沟村2#,马圈子村9#,西清源村5#,东清源村6#,蔡家峪村7#,西清源村8#,西清源村11#,易县蔡家峪国有林场50KVA,蔡家峪村3#,马圈子村6#,蔡家峪村4#,东清源村2#,蔡家峪村5#,山神庙村3#,蔡家峪村1#,0579388992-易县太行矿业有限公司-专变-124403513-易县太行矿业有限公司变压器,平顶山村2#,金属结构厂1,西清源村4#,马圈子2#,山神庙7号变压器,平顶山村1#,殷家沟村1#,马圈子村5#,蔡家峪乡直,马圈子村8#,马圈子村4#,平顶山村3#,马圈子村7#,山神庙村5#,山神庙6#,蔡家峪村8井变压器,山神庙村1#,东清源村3#,殷家沟村4#,西清源9#,山神庙村4#,西清源村1#","poweroffReason":"【停电原因】由于上开线３１４跳闸导致３５ＫＶ大兴安变电站桥梁厂５１５线路全线停电【变更送电】因抢修进度加快原因，送电时间由２０：００变更为１７：００【发布渠道】通过９５５９８发布","powerTime":"2020-05-17 16:47:19","powerComm":"已送电","subsNo":"","lineNo":"","tgNo":"","tgName":null,"infoStatus":"1","orgName":"国网易县供电公司","typeName":null,"infoStatusName":null,"dateDay":null,"orgNos":null,"nowTime":null,"countyName":null,"streetName":null,"villageName":null,"roadName":null,"communityName":null,"tranName":null,"sdLineName":null,"cityCode":"1340625","cityName":"国网易县供电公司","provinceCode":null,"stopTime":"2020-05-17 17:00:00","powerType":"全部","powerOffArea":"【全线路停电】停西清源3#,0619915173-中国移动通信集团河北有限公司易县分公司-专变-129035100-中国移动通信集团河北有限公司易县分公司变压器,西清源村2#,蔡家峪村2#,0554193164-易县雷发顺天成石材加工厂-专变-75222837-易县雷发顺天成石材加工厂,平顶山村朱俊江变压器,马圈子3#,西清源10#,山神庙村2#,蔡家峪卫生院80KVA,马圈子村10#,蔡家峪村6#,马圈子村11#,平顶山村5#,金属结构厂2,马圈子村1#,西清源村6#,殷家沟村3#,东清源村5#,平顶山村4#,殷家沟村2#,马圈子村9#,西清源村5#,东清源村6#,蔡家峪村7#,西清源村8#,西清源村11#,易县蔡家峪国有林场50KVA,蔡家峪村3#,马圈子村6#,蔡家峪村4#,东清源村2#,蔡家峪村5#,山神庙村3#,蔡家峪村1#,0579388992-易县太行矿业有限公司-专变-124403513-易县太行矿业有限公司变压器,平顶山村2#,金属结构厂1,西清源村4#,马圈子2#,山神庙7号变压器,平顶山村1#,殷家沟村1#,马圈子村5#,蔡家峪乡直,马圈子村8#,马圈子村4#,平顶山村3#,马圈子村7#,山神庙村5#,山神庙6#,蔡家峪村8井变压器,山神庙村1#,东清源村3#,殷家沟村4#,西清源9#,山神庙村4#,西清源村1#","powerOffReason":"【停电原因】由于上开线３１４跳闸导致３５ＫＶ大兴安变电站桥梁厂５１５线路全线停电【变更送电】因抢修进度加快原因，送电时间由２０：００变更为１７：００【发布渠道】通过９５５９８发布","powerOffId":"2020051713000155"},{"poweroffId":2020051713000132,"sgpoweroffId":null,"subsName":"","lineName":"10kV永生568线","pubTranName":"高克芳,王金强,宋永昌,肖连扣3,高碑店市信德百利革业有限公司变压器,秦丽伟,江雪丰,王学会,0712556622-许庄安置区1变压器02,埃利诺袋鼠皮具厂黄景辉变压器,变压器-071,王辉,宋明鑫幼儿园变压器,孟令山,互赢物业变压器,保定白沟新城规划建设局,赵国永,0712556622-许庄安置区1变压器01,刘宝力,变压器-072,吴斌,友谊路公变,河北密多新材料科技有限公司,保定万贸人造革制造有限公司,刘保利2变压器02,0387443618-肖连扣-专变-45279465-肖连扣,保定和信物业服务有限责任公司,王山,永生革业,保定白沟新城蓝末箱包配件销售部变压器,0387445904-李振学-专变-45280129-白沟转运站,姚建勋,保定白沟新城拓凯汽车用品加工部变压器,河北美丽居酒店管理有限公司,赵小田,宋永昌2,马青宾,刘志军,刘保利2变压器01,刘国强2,变压器1250,","scope":"【影响街道/乡镇】白沟镇、友谊路、北外环 【高危重要客户】无 【影响客户】旺百伦物业、信德百利革业有限公司、保定浙圣箱包制造有限公司、白沟佳山皮具、许庄村、许庄安置小区、柳树屯饭庄、恒昌拉链有限公司、中国铁塔股份有限公司、肖连扣、赵小田、马青宾、王学会、王金强、高碑店市永生塑胶有限公司、赵国永、亨兴帽业服饰有限责任公司、吴斌、江雪丰、豪园小区、渡景商务酒店、博文学校","startTime":"2020-05-17 13:46:48","stopDate":"2020-05-17 16:30:00","orgNo":"1340612","typeCode":"电网故障停限电","poweroffArea":"【全线路停电】停高克芳,王金强,宋永昌,肖连扣3,高碑店市信德百利革业有限公司变压器,秦丽伟,江雪丰,王学会,0712556622-许庄安置区1变压器02,埃利诺袋鼠皮具厂黄景辉变压器,变压器-071,王辉,宋明鑫幼儿园变压器,孟令山,互赢物业变压器,保定白沟新城规划建设局,赵国永,0712556622-许庄安置区1变压器01,刘宝力,变压器-072,吴斌,友谊路公变,河北密多新材料科技有限公司,保定万贸人造革制造有限公司,刘保利2变压器02,0387443618-肖连扣-专变-45279465-肖连扣,保定和信物业服务有限责任公司,王山,永生革业,保定白沟新城蓝末箱包配件销售部变压器,0387445904-李振学-专变-45280129-白沟转运站,姚建勋,保定白沟新城拓凯汽车用品加工部变压器,河北美丽居酒店管理有限公司,赵小田,宋永昌2,马青宾,刘志军,刘保利2变压器01,刘国强2,变压器1250","poweroffReason":"【停电原因】由于电缆烧毁导致１１０ＫＶ南留变电站１０ＫＶ永生５６８线路全线停电 【变更送电】因抢修进度加快原因，送电时间由１８：００变更为１６：３０ 【发布渠道】通过９５５９８发布","powerTime":"2020-05-17 15:58:12","powerComm":"已送电","subsNo":"","lineNo":"","tgNo":"","tgName":null,"infoStatus":"1","orgName":"国网高碑店市供电公司","typeName":null,"infoStatusName":null,"dateDay":null,"orgNos":null,"nowTime":null,"countyName":null,"streetName":null,"villageName":null,"roadName":null,"communityName":null,"tranName":null,"sdLineName":null,"cityCode":"1340612","cityName":"国网高碑店市供电公司","provinceCode":null,"stopTime":"2020-05-17 16:30:00","powerType":"全部","powerOffArea":"【全线路停电】停高克芳,王金强,宋永昌,肖连扣3,高碑店市信德百利革业有限公司变压器,秦丽伟,江雪丰,王学会,0712556622-许庄安置区1变压器02,埃利诺袋鼠皮具厂黄景辉变压器,变压器-071,王辉,宋明鑫幼儿园变压器,孟令山,互赢物业变压器,保定白沟新城规划建设局,赵国永,0712556622-许庄安置区1变压器01,刘宝力,变压器-072,吴斌,友谊路公变,河北密多新材料科技有限公司,保定万贸人造革制造有限公司,刘保利2变压器02,0387443618-肖连扣-专变-45279465-肖连扣,保定和信物业服务有限责任公司,王山,永生革业,保定白沟新城蓝末箱包配件销售部变压器,0387445904-李振学-专变-45280129-白沟转运站,姚建勋,保定白沟新城拓凯汽车用品加工部变压器,河北美丽居酒店管理有限公司,赵小田,宋永昌2,马青宾,刘志军,刘保利2变压器01,刘国强2,变压器1250","powerOffReason":"【停电原因】由于电缆烧毁导致１１０ＫＶ南留变电站１０ＫＶ永生５６８线路全线停电 【变更送电】因抢修进度加快原因，送电时间由１８：００变更为１６：３０ 【发布渠道】通过９５５９８发布","powerOffId":"2020051713000132"},{"poweroffId":2020051713000130,"sgpoweroffId":null,"subsName":"","lineName":"东区566","pubTranName":"京白路1号公变出线间隔配电变压器,京白路2号公变,友谊路公变,","scope":"【影响街道/乡镇】白沟镇、团结东路、京白路、友谊路 【高危重要客户】无 【影响客户】新工业园区、工业园区、名人花园小区、汽配城小区、汽配汽贸城、理想城小区、金开元小区、锦龙公司、回民公墓路灯、仁和庄（李二旺）、大平加油站、金泰豪景小区、王铁牛、郭伟、海天之恋、三只鸟、郭春英、朱光明、俊达皮具、王金龙、陈建坤、李建坤、张辉军、袁庆梅、于慧轩、博物馆、神泰兴工业有限公司、王辉、孟令山、白沟新城方正医院、安博工贸有限公司、宋明鑫幼儿园","startTime":"2020-05-17 13:42:44","stopDate":"2020-05-17 16:30:00","orgNo":"1340612","typeCode":"电网故障停限电","poweroffArea":"【全线路停电】停金开元小区变压器1,锦龙公司2,金泰豪景2,秦丽伟,埃利诺袋鼠皮具厂黄景辉变压器,张建,鑫开元小区变压器2,规划建设局(京白路1号路灯),王金龙,保定隆建房地产变压器,辉粕塑料厂台区,中石油保定120加油站,王大勇,理想城1,宋明鑫幼儿园变压器,路灯,魏国旺变压器,京白路1号公变出线间隔配电变压器,朱光明,京白路2号公变,0680615075-仁和庄11号变台-专变-221701523-变压器,于惠轩变压器,理想城3,名人小区2,李和平变压器,保定开拓精密仪器制造有限责任公司变压器,友谊路公变,保定白沟雄鑫压铸模具有限公司变压器,海天之恋,0387443618-肖连扣-专变-45279465-肖连扣,锦龙公司 1,张辉军,河北天顺平安物流有限公司变压器,孟令山,名人小区3,规划博物馆1,汽贸城3,王辉,0387444767-高碑店市白沟鹏亮压铸厂-专变-45279512-王铁牛,规划博物馆变压器,理想城4,诚意德,保定悦阔箱包配件制造有限公司变压器,保定白沟新城堃煦物业管理服务有限公司,汽贸城2,河北硕德房地产开发有限公司变压器,汽贸城4,北京畅韬房地产开发有限公司白沟新城分公司变压器,名人小区1,保定亚洪箱包配件制造有限公司变压器,保定白沟新城金苹果幼儿园变压器,变压器,李建坤,理想城2,恒念房地产变压器,付宝新,高克芳,变压器800,李会强,高碑店市三只鸟皮具有限公司,王顺来,唐帅1变台,汽贸城1,高碑店市晟懋摩托车商行变压器,河北尚豪房地产开发有限公司,保定东义德房地产开发有限公司,北京铭远房地产开发有限公司,0387443517-肖连扣2-专变-45279534-肖连扣2,保定白沟新城规划建设局,中国移动通信集团河北有限公司保护分公司","poweroffReason":"【停电原因】由于电缆烧毁导致１１０ＫＶ南留变电站１０ＫＶ东区５６６线路全线停电 【变更送电】因抢修进度加快原因，送电时间由１８：００变更为１６：３０ 【发布渠道】通过９５５９８发布","powerTime":"2020-05-17 16:00:13","powerComm":"已送电","subsNo":"","lineNo":"","tgNo":"","tgName":null,"infoStatus":"1","orgName":"国网高碑店市供电公司","typeName":null,"infoStatusName":null,"dateDay":null,"orgNos":null,"nowTime":null,"countyName":null,"streetName":null,"villageName":null,"roadName":null,"communityName":null,"tranName":null,"sdLineName":null,"cityCode":"1340612","cityName":"国网高碑店市供电公司","provinceCode":null,"stopTime":"2020-05-17 16:30:00","powerType":"全部","powerOffArea":"【全线路停电】停金开元小区变压器1,锦龙公司2,金泰豪景2,秦丽伟,埃利诺袋鼠皮具厂黄景辉变压器,张建,鑫开元小区变压器2,规划建设局(京白路1号路灯),王金龙,保定隆建房地产变压器,辉粕塑料厂台区,中石油保定120加油站,王大勇,理想城1,宋明鑫幼儿园变压器,路灯,魏国旺变压器,京白路1号公变出线间隔配电变压器,朱光明,京白路2号公变,0680615075-仁和庄11号变台-专变-221701523-变压器,于惠轩变压器,理想城3,名人小区2,李和平变压器,保定开拓精密仪器制造有限责任公司变压器,友谊路公变,保定白沟雄鑫压铸模具有限公司变压器,海天之恋,0387443618-肖连扣-专变-45279465-肖连扣,锦龙公司 1,张辉军,河北天顺平安物流有限公司变压器,孟令山,名人小区3,规划博物馆1,汽贸城3,王辉,0387444767-高碑店市白沟鹏亮压铸厂-专变-45279512-王铁牛,规划博物馆变压器,理想城4,诚意德,保定悦阔箱包配件制造有限公司变压器,保定白沟新城堃煦物业管理服务有限公司,汽贸城2,河北硕德房地产开发有限公司变压器,汽贸城4,北京畅韬房地产开发有限公司白沟新城分公司变压器,名人小区1,保定亚洪箱包配件制造有限公司变压器,保定白沟新城金苹果幼儿园变压器,变压器,李建坤,理想城2,恒念房地产变压器,付宝新,高克芳,变压器800,李会强,高碑店市三只鸟皮具有限公司,王顺来,唐帅1变台,汽贸城1,高碑店市晟懋摩托车商行变压器,河北尚豪房地产开发有限公司,保定东义德房地产开发有限公司,北京铭远房地产开发有限公司,0387443517-肖连扣2-专变-45279534-肖连扣2,保定白沟新城规划建设局,中国移动通信集团河北有限公司保护分公司","powerOffReason":"【停电原因】由于电缆烧毁导致１１０ＫＶ南留变电站１０ＫＶ东区５６６线路全线停电 【变更送电】因抢修进度加快原因，送电时间由１８：００变更为１６：３０ 【发布渠道】通过９５５９８发布","powerOffId":"2020051713000130"},{"poweroffId":2020051713000125,"sgpoweroffId":null,"subsName":"","lineName":"10KV义和庄514","pubTranName":"长安城南1439,","scope":"【影响街道/乡镇】义和庄乡 【影响客户】长安城","startTime":"2020-05-17 13:10:54","stopDate":"2020-05-17 16:30:00","orgNo":"1340626","typeCode":"电网故障停限电","poweroffArea":"【单台区停电】停３５ＫＶ码头变电站１０ＫＶ义和庄５１４线路长安城南１４３９公变台区,长安城南1439","poweroffReason":"【停电原因】由于低压空开烧毁导致３５ＫＶ码头变电站１０ＫＶ义和庄５１４线路长安城南１４３９公变台区停电 【变更送电】因抢修进度加快原因，送电时间由２０：００变更为１６：３０ 【发布渠道】通过９５５９８发布","powerTime":"2020-05-17 15:48:25","powerComm":"恢复送电","subsNo":"","lineNo":"","tgNo":"","tgName":null,"infoStatus":"1","orgName":"国网涿州市供电公司","typeName":null,"infoStatusName":null,"dateDay":null,"orgNos":null,"nowTime":null,"countyName":null,"streetName":null,"villageName":null,"roadName":null,"communityName":null,"tranName":null,"sdLineName":null,"cityCode":"1340626","cityName":"国网涿州市供电公司","provinceCode":null,"stopTime":"2020-05-17 16:30:00","powerType":"全部","powerOffArea":"【单台区停电】停３５ＫＶ码头变电站１０ＫＶ义和庄５１４线路长安城南１４３９公变台区,长安城南1439","powerOffReason":"【停电原因】由于低压空开烧毁导致３５ＫＶ码头变电站１０ＫＶ义和庄５１４线路长安城南１４３９公变台区停电 【变更送电】因抢修进度加快原因，送电时间由２０：００变更为１６：３０ 【发布渠道】通过９５５９８发布","powerOffId":"2020051713000125"},{"poweroffId":2020051713000106,"sgpoweroffId":null,"subsName":"","lineName":"仪村线511","pubTranName":"仪村8号,仪村1号【纯农排变】,客户投资_大西张二队1号,仪村5号【纯农排变】,大西张一队14号,大西张二队8号【纯农排变】,大西张二队11号【纯农排变】,仪村7号,大西张一队19号【纯农排变】,保定美伦有色金属有限公司1号,南亭17号,大西张二队5号【纯农排变】,保定美仑有色金属有限公司,大西张二队9号,顺通冷拔异型钢管有限公司,0744719745保定双帆蓄电池有限责任公司900028952346,中交一公司第六工程有限公司京石扩建工程JS6项目部,长虹杂铅厂,南亭小学,保定美伦有色金属有限公司2号,仪村4号,徐水县金地电解铅厂,大西张二队13号【纯农排变】,大西张二队2号,敬上18号【纯农排变】,仪村6号【纯农排变】,保定双帆蓄电池有限公司1号,中交一公局第六工程有限公司京石扩建工程JS6项目部,大西张二队10号【纯农排变】,变压器,大西张二队4号,客户投资_大西张二队6号,仪村3号,仪村9号,客户投资_大西张二队7号,仪村10号,仪村2号,","scope":"【影响街道/乡镇】大因镇 【高危重要客户】无 【影响客户】仪村、大西张、敬上、南亭","startTime":"2020-05-17 11:33:59","stopDate":"2020-05-17 13:00:00","orgNo":"1340605","typeCode":"电网故障停限电","poweroffArea":"【全线路停电】停仪村8号,仪村1号【纯农排变】,客户投资_大西张二队1号,仪村5号【纯农排变】,大西张一队14号,大西张二队8号【纯农排变】,大西张二队11号【纯农排变】,仪村7号,大西张一队19号【纯农排变】,保定美伦有色金属有限公司1号,变压器,大西张二队4号,客户投资_大西张二队6号,仪村3号,仪村9号,客户投资_大西张二队7号,仪村10号,仪村2号,南亭17号,大西张二队5号【纯农排变】,保定美仑有色金属有限公司,大西张二队9号,顺通冷拔异型钢管有限公司,0744719745保定双帆蓄电池有限责任公司900028952346,中交一公司第六工程有限公司京石扩建工程JS6项目部,长虹杂铅厂,南亭小学,保定美伦有色金属有限公司2号,仪村4号,徐水县金地电解铅厂,大西张二队13号【纯农排变】,大西张二队2号,敬上18号【纯农排变】,仪村6号【纯农排变】,保定双帆蓄电池有限公司1号,中交一公局第六工程有限公司京石扩建工程JS6项目部,大西张二队10号【纯农排变】","poweroffReason":"【停电原因】由于Ｂ相接地导致３５ＫＶ大因变电站仪村线５１１线路全线停电 【变更送电】因抢修进度加快原因，送电时间由１５:００变更为１３:００ 【发布渠道】通过９５５９８发布","powerTime":"2020-05-17 12:15:35","powerComm":"已送电","subsNo":"","lineNo":"","tgNo":"","tgName":null,"infoStatus":"1","orgName":"国网徐水县供电公司","typeName":null,"infoStatusName":null,"dateDay":null,"orgNos":null,"nowTime":null,"countyName":null,"streetName":null,"villageName":null,"roadName":null,"communityName":null,"tranName":null,"sdLineName":null,"cityCode":"1340605","cityName":"国网徐水县供电公司","provinceCode":null,"stopTime":"2020-05-17 13:00:00","powerType":"全部","powerOffArea":"【全线路停电】停仪村8号,仪村1号【纯农排变】,客户投资_大西张二队1号,仪村5号【纯农排变】,大西张一队14号,大西张二队8号【纯农排变】,大西张二队11号【纯农排变】,仪村7号,大西张一队19号【纯农排变】,保定美伦有色金属有限公司1号,变压器,大西张二队4号,客户投资_大西张二队6号,仪村3号,仪村9号,客户投资_大西张二队7号,仪村10号,仪村2号,南亭17号,大西张二队5号【纯农排变】,保定美仑有色金属有限公司,大西张二队9号,顺通冷拔异型钢管有限公司,0744719745保定双帆蓄电池有限责任公司900028952346,中交一公司第六工程有限公司京石扩建工程JS6项目部,长虹杂铅厂,南亭小学,保定美伦有色金属有限公司2号,仪村4号,徐水县金地电解铅厂,大西张二队13号【纯农排变】,大西张二队2号,敬上18号【纯农排变】,仪村6号【纯农排变】,保定双帆蓄电池有限公司1号,中交一公局第六工程有限公司京石扩建工程JS6项目部,大西张二队10号【纯农排变】","powerOffReason":"【停电原因】由于Ｂ相接地导致３５ＫＶ大因变电站仪村线５１１线路全线停电 【变更送电】因抢修进度加快原因，送电时间由１５:００变更为１３:００ 【发布渠道】通过９５５９８发布","powerOffId":"2020051713000106"},{"poweroffId":2020051713000105,"sgpoweroffId":null,"subsName":"","lineName":"10kV泗庄515线","pubTranName":"田庄西北2柱上变压器,田庄东变压器,六里街地变压器,泗庄田庄东南台,田庄西三变压器,田庄西2柱上变压器,田庄东北变压器,新疆交通建设集团股份有限公司,半边街西变压器,郭街东变压器,田庄西北变压器,东大街东变压器,东大街南地变压器,北留西2变压器,东大街西南地变压器【纯农排变】,泗庄市场变压器,半边街2号地变压器,南大街东南2变压器,庞场南二变压器,高庄西地变压器【纯农排变】,东大街北二,东大街西,庞场市场变压器,保定白沟新城和源加油站变压器,东大街中变压器,加油站,半边街北变压器,高碑店市双兴粮油商贸有限公司变压器,高庄地变压器【纯农排变】,农场,客户投资_庞场东台柱上变压器,庞场北变压器,东大街6号变台,高碑店市泗庄中心卫生院变压器,高碑店市瑞跃晟物业管理有限公司1,中交第二公路工程局有限公司,半边街地变压器【纯农排变】,南大街地变压器【纯农排变】,六里街变压器,泗庄市场2变压器,高碑店市泗庄镇东大街小学变压器,王义明变压器,半边街西南变压器,庞场3号地变压器【纯农排变】,北留西变压器,半边街变压器,汇通路桥建设中心03,郭街地变压器【纯农排变】,田庄东南地变压器【纯农排变】,田庄西变压器,北留西排灌变压器【纯农排变】,泗庄镇政府,高庄南变压器,高碑店市泗庄镇东大街小学,六里街南地变压器,中国移动通信集团河北有限公司高碑店分公司,保定帝翔商贸有限公司,庞场南变压器,猪场,泗庄田庄北变压器,半边街南变压器,东大街北变压器,六里街变台,半边街西北变压器,郭街西变压器,泗庄田庄西南地变压器【纯农排变】,南大街村变压器,变压器,高碑店市泗庄镇田庄小学变压器,东大街地变压器【纯农排变】,高碑店市丹诺工业有限责任公司,庞场2号地变压器【纯农排变】,汇通路桥建设中心02,汇通路桥建设中心01,北留南变压器,高碑店市同兴农林畜牧有限公司,高碑店市瑞跃晟物业管理有限公司2,高碑店市白沟机动车驾驶员培训学校,高庄村内变压器,东大街东南地变压器【纯农排变】,孙建华,河北万宇箱包配件集团有限公司,山东鲁桥建设有限公司,东大街南变压器,半边街西地变压器,高碑店市泗庄镇田庄村富强人造革厂变压器,","scope":"【影响街道/乡镇】泗庄镇、东马营镇、东大街、南大街 【高危重要客户】无 【影响客户】东大街村、半边街村、庞场村、郭街村、田庄村、六里街村、高庄村、北留村、王义明、高碑店市泗庄东大街小学、高碑店市泗庄田庄小学、汇通路桥建设集团有限公司、泗庄镇政府、高碑店市泗庄中心卫生院、泗庄邮局、纪建春、万宇箱包、中国石油第四加油站","startTime":"2020-05-26 02:00:00","stopDate":"2020-05-26 23:59:00","orgNo":"1340612","typeCode":"计划停电","poweroffArea":"【全线路停电】停郭街东变压器,田庄西北2柱上变压器,田庄东变压器,六里街地变压器,泗庄田庄东南台,田庄西三变压器,田庄西2柱上变压器,田庄东北变压器,新疆交通建设集团股份有限公司,半边街西变压器,半边街变压器,汇通路桥建设中心03,郭街地变压器【纯农排变】,田庄东南地变压器【纯农排变】,田庄西变压器,北留西排灌变压器【纯农排变】,泗庄镇政府,高庄南变压器,高碑店市泗庄镇东大街小学,六里街南地变压器,中国移动通信集团河北有限公司高碑店分公司,田庄西北变压器,东大街东变压器,东大街南地变压器,北留西2变压器,东大街西南地变压器【纯农排变】,泗庄市场变压器,半边街2号地变压器,南大街东南2变压器,庞场南二变压器,高庄西地变压器【纯农排变】,东大街北二,东大街西,庞场市场变压器,保定白沟新城和源加油站变压器,东大街中变压器,加油站,半边街北变压器,保定帝翔商贸有限公司,庞场南变压器,猪场,泗庄田庄北变压器,半边街南变压器,东大街北变压器,六里街变台,半边街西北变压器,郭街西变压器,泗庄田庄西南地变压器【纯农排变】,高碑店市泗庄镇田庄村富强人造革厂变压器,南大街村变压器,变压器,高碑店市泗庄镇田庄小学变压器,东大街地变压器【纯农排变】,高碑店市丹诺工业有限责任公司,庞场2号地变压器【纯农排变】,汇通路桥建设中心02,汇通路桥建设中心01,北留南变压器,高碑店市同兴农林畜牧有限公司,高碑店市瑞跃晟物业管理有限公司2,高碑店市白沟机动车驾驶员培训学校,高庄村内变压器,东大街东南地变压器【纯农排变】,孙建华,河北万宇箱包配件集团有限公司,山东鲁桥建设有限公司,东大街南变压器,半边街西地变压器,半边街地变压器【纯农排变】,南大街地变压器【纯农排变】,六里街变压器,泗庄市场2变压器,高碑店市泗庄镇东大街小学变压器,王义明变压器,半边街西南变压器,庞场3号地变压器【纯农排变】,北留西变压器,高碑店市双兴粮油商贸有限公司变压器,高庄地变压器【纯农排变】,农场,客户投资_庞场东台柱上变压器,庞场北变压器,东大街6号变台,高碑店市泗庄中心卫生院变压器,高碑店市瑞跃晟物业管理有限公司1,中交第二公路工程局有限公司","poweroffReason":"【停电原因】由于加杆导致３５ＫＶ泗庄变电站１０ＫＶ泗庄５１５线路全线停电 【变更送电】因工作量大原因，送电时间由２１：００变更为２３：５９ 【发布渠道】高碑店市高碑店电视台（０５月１８日０８时至０５月２５日１８时之间）屏幕上方滚动","powerTime":"2020-05-26 23:55:14","powerComm":"已送电","subsNo":"","lineNo":"","tgNo":"","tgName":null,"infoStatus":"1","orgName":"国网高碑店市供电公司","typeName":null,"infoStatusName":null,"dateDay":null,"orgNos":null,"nowTime":null,"countyName":null,"streetName":null,"villageName":null,"roadName":null,"communityName":null,"tranName":null,"sdLineName":null,"cityCode":"1340612","cityName":"国网高碑店市供电公司","provinceCode":null,"stopTime":"2020-05-26 23:59:00","powerType":"全部","powerOffArea":"【全线路停电】停郭街东变压器,田庄西北2柱上变压器,田庄东变压器,六里街地变压器,泗庄田庄东南台,田庄西三变压器,田庄西2柱上变压器,田庄东北变压器,新疆交通建设集团股份有限公司,半边街西变压器,半边街变压器,汇通路桥建设中心03,郭街地变压器【纯农排变】,田庄东南地变压器【纯农排变】,田庄西变压器,北留西排灌变压器【纯农排变】,泗庄镇政府,高庄南变压器,高碑店市泗庄镇东大街小学,六里街南地变压器,中国移动通信集团河北有限公司高碑店分公司,田庄西北变压器,东大街东变压器,东大街南地变压器,北留西2变压器,东大街西南地变压器【纯农排变】,泗庄市场变压器,半边街2号地变压器,南大街东南2变压器,庞场南二变压器,高庄西地变压器【纯农排变】,东大街北二,东大街西,庞场市场变压器,保定白沟新城和源加油站变压器,东大街中变压器,加油站,半边街北变压器,保定帝翔商贸有限公司,庞场南变压器,猪场,泗庄田庄北变压器,半边街南变压器,东大街北变压器,六里街变台,半边街西北变压器,郭街西变压器,泗庄田庄西南地变压器【纯农排变】,高碑店市泗庄镇田庄村富强人造革厂变压器,南大街村变压器,变压器,高碑店市泗庄镇田庄小学变压器,东大街地变压器【纯农排变】,高碑店市丹诺工业有限责任公司,庞场2号地变压器【纯农排变】,汇通路桥建设中心02,汇通路桥建设中心01,北留南变压器,高碑店市同兴农林畜牧有限公司,高碑店市瑞跃晟物业管理有限公司2,高碑店市白沟机动车驾驶员培训学校,高庄村内变压器,东大街东南地变压器【纯农排变】,孙建华,河北万宇箱包配件集团有限公司,山东鲁桥建设有限公司,东大街南变压器,半边街西地变压器,半边街地变压器【纯农排变】,南大街地变压器【纯农排变】,六里街变压器,泗庄市场2变压器,高碑店市泗庄镇东大街小学变压器,王义明变压器,半边街西南变压器,庞场3号地变压器【纯农排变】,北留西变压器,高碑店市双兴粮油商贸有限公司变压器,高庄地变压器【纯农排变】,农场,客户投资_庞场东台柱上变压器,庞场北变压器,东大街6号变台,高碑店市泗庄中心卫生院变压器,高碑店市瑞跃晟物业管理有限公司1,中交第二公路工程局有限公司","powerOffReason":"【停电原因】由于加杆导致３５ＫＶ泗庄变电站１０ＫＶ泗庄５１５线路全线停电 【变更送电】因工作量大原因，送电时间由２１：００变更为２３：５９ 【发布渠道】高碑店市高碑店电视台（０５月１８日０８时至０５月２５日１８时之间）屏幕上方滚动","powerOffId":"2020051713000105"},{"poweroffId":2020051713000104,"sgpoweroffId":null,"subsName":"","lineName":"10kV东黄512线","pubTranName":"丰盛庄北变压器,王场东变压器,高碑店市欣荣海绵纸厂,0716386867-高碑店市泗庄迪航硕鞋厂01,新疆交通建设集团股份有限公司,南黄东台区,保定森泽汽车销售有限公司,丰盛庄南三,新疆交通建设集团股份有限公司1,高碑店市博荣拉链有限公司,平占杰,丰盛庄西南地变压器【纯农排变】,王场西北变压器,东黄南2变压器,魏庄西地变压器,东黄地变压器【纯农排变】,魏庄村变压器,南黄南变压器,南黄村东地【纯农排变】,保定白沟新城王场学校,中交第二公路工程局有限公司,王场东南台变压器,高碑店市鑫益隆塑料有限公司变压器,王场6号变台,油厂东,0387437068-世纪大道北东台-专变-45274563-世纪大道北东台,乔古寺西南地变压器【纯农排变】,东黄村变压器,高碑店市泗庄镇东黄小学,乔古寺南台变压器,王场东南2变压器,王场东南1变压器,春晖面粉厂02,乔古寺东变压器,丰盛庄西2变压器,丰盛庄西变压器,丰盛庄南变压器,东黄西南变压器,乔古寺东北地变压器,春晖面粉厂01,王场西南地变压器【纯农排变】,泗庄供电所变压器,南黄南2变压器,王场北地变压器【纯农排变】,南黄西台变压器,高碑店市同兴畜牧有限公司（王家场）变压器,乔古寺东1变压器,客户投资_东黄南变压器,乔古寺地变压器【纯农排变】,王志丰,王场北3变压器,新疆交通建设集团股份有限公司3,于广才革厂,冯宝赤革厂,陶文祥革厂1,油厂,乔古寺东2变压器,陶文祥革厂 2,张金明革厂,0716386867-高碑店市泗庄迪航硕鞋厂02,丰盛庄东变压器,乔古寺西台变压器,南黄村变压器,未庄砖厂,河北省保定市高碑店市泗庄乡高碑店泗庄供电所,丰盛庄村变压器,魏庄地变压器,南黄西地变压器【纯农排变】,王场南变压器,王场南地变压器【纯农排变】,陶文祥革厂3,魏庄北变压器,魏庄西南地变压器【纯农排变】,王场北变压器,王场东地变压器【纯农排变】,交警中队,丰盛庄南2变压器,新华油质化工厂,","scope":"【影响街道/乡镇】泗庄镇 【高危重要客户】无 【影响客户】南黄村、东黄村（部分）、魏庄村、乔古寺村、王场村、丰盛庄村、高碑店市泗庄东黄小学、保定白沟新城王场学校、保定海山雨鞋制造有限公司、高碑店市博荣拉链有限公司、高碑店市同兴畜牧有限公司(王家场)、张爽、利达橡塑制品厂、诚信拉杆厂、东黄丰华人造革厂、京华人造革厂、天和橡塑制品厂、魏庄砖厂、高碑店市华宝塑料制品有限责任公司、高碑店市公安局交通管理大队、社办厂、高碑店市欣荣海绵纸厂、保定博德广信皮革制品有限公司、宏丰人造革厂、三福饭店、高碑店市邓庄春晖面粉厂、新华油质化工厂、张艺萌、高碑店市鑫益隆塑胶有限公司","startTime":"2020-05-26 02:00:00","stopDate":"2020-05-26 23:59:00","orgNo":"1340612","typeCode":"计划停电","poweroffArea":"【全线路停电】停丰盛庄西变压器,丰盛庄南变压器,东黄西南变压器,丰盛庄北变压器,王场东变压器,高碑店市欣荣海绵纸厂,0716386867-高碑店市泗庄迪航硕鞋厂01,新疆交通建设集团股份有限公司,南黄东台区,保定森泽汽车销售有限公司,丰盛庄南三,新疆交通建设集团股份有限公司1,高碑店市博荣拉链有限公司,平占杰,丰盛庄西南地变压器【纯农排变】,王场6号变台,油厂东,王场东南1变压器,春晖面粉厂02,乔古寺东变压器,王场西北变压器,东黄南2变压器,魏庄西地变压器,东黄地变压器【纯农排变】,魏庄村变压器,南黄南变压器,南黄村东地【纯农排变】,保定白沟新城王场学校,中交第二公路工程局有限公司,王场东南台变压器,高碑店市鑫益隆塑料有限公司变压器,丰盛庄西2变压器,高碑店市同兴畜牧有限公司（王家场）变压器,南黄西地变压器【纯农排变】,王场南变压器,王场南地变压器【纯农排变】,陶文祥革厂3,魏庄北变压器,魏庄西南地变压器【纯农排变】,王场北变压器,王场东地变压器【纯农排变】,交警中队,丰盛庄南2变压器,新华油质化工厂,乔古寺东北地变压器,春晖面粉厂01,王场西南地变压器【纯农排变】,泗庄供电所变压器,南黄南2变压器,王场北地变压器【纯农排变】,南黄西台变压器,乔古寺东1变压器,客户投资_东黄南变压器,乔古寺地变压器【纯农排变】,王志丰,王场北3变压器,新疆交通建设集团股份有限公司3,于广才革厂,冯宝赤革厂,陶文祥革厂1,油厂,乔古寺东2变压器,陶文祥革厂 2,张金明革厂,0716386867-高碑店市泗庄迪航硕鞋厂02,丰盛庄东变压器,乔古寺西台变压器,南黄村变压器,未庄砖厂,河北省保定市高碑店市泗庄乡高碑店泗庄供电所,丰盛庄村变压器,魏庄地变压器,0387437068-世纪大道北东台-专变-45274563-世纪大道北东台,乔古寺西南地变压器【纯农排变】,东黄村变压器,高碑店市泗庄镇东黄小学,乔古寺南台变压器,王场东南2变压器","poweroffReason":"【停电原因】由于配变增容导致３５ＫＶ泗庄变电站１０ＫＶ东黄５１２线路全线停电 【变更送电】因工作量大原因，送电时间由２１：００变更为２３：５９ 【发布渠道】高碑店市高碑店电视台（０５月１８日０８时至０５月２５日１８时之间）屏幕上方滚动","powerTime":"2020-05-26 23:55:36","powerComm":"已送电","subsNo":"","lineNo":"","tgNo":"","tgName":null,"infoStatus":"1","orgName":"国网高碑店市供电公司","typeName":null,"infoStatusName":null,"dateDay":null,"orgNos":null,"nowTime":null,"countyName":null,"streetName":null,"villageName":null,"roadName":null,"communityName":null,"tranName":null,"sdLineName":null,"cityCode":"1340612","cityName":"国网高碑店市供电公司","provinceCode":null,"stopTime":"2020-05-26 23:59:00","powerType":"全部","powerOffArea":"【全线路停电】停丰盛庄西变压器,丰盛庄南变压器,东黄西南变压器,丰盛庄北变压器,王场东变压器,高碑店市欣荣海绵纸厂,0716386867-高碑店市泗庄迪航硕鞋厂01,新疆交通建设集团股份有限公司,南黄东台区,保定森泽汽车销售有限公司,丰盛庄南三,新疆交通建设集团股份有限公司1,高碑店市博荣拉链有限公司,平占杰,丰盛庄西南地变压器【纯农排变】,王场6号变台,油厂东,王场东南1变压器,春晖面粉厂02,乔古寺东变压器,王场西北变压器,东黄南2变压器,魏庄西地变压器,东黄地变压器【纯农排变】,魏庄村变压器,南黄南变压器,南黄村东地【纯农排变】,保定白沟新城王场学校,中交第二公路工程局有限公司,王场东南台变压器,高碑店市鑫益隆塑料有限公司变压器,丰盛庄西2变压器,高碑店市同兴畜牧有限公司（王家场）变压器,南黄西地变压器【纯农排变】,王场南变压器,王场南地变压器【纯农排变】,陶文祥革厂3,魏庄北变压器,魏庄西南地变压器【纯农排变】,王场北变压器,王场东地变压器【纯农排变】,交警中队,丰盛庄南2变压器,新华油质化工厂,乔古寺东北地变压器,春晖面粉厂01,王场西南地变压器【纯农排变】,泗庄供电所变压器,南黄南2变压器,王场北地变压器【纯农排变】,南黄西台变压器,乔古寺东1变压器,客户投资_东黄南变压器,乔古寺地变压器【纯农排变】,王志丰,王场北3变压器,新疆交通建设集团股份有限公司3,于广才革厂,冯宝赤革厂,陶文祥革厂1,油厂,乔古寺东2变压器,陶文祥革厂 2,张金明革厂,0716386867-高碑店市泗庄迪航硕鞋厂02,丰盛庄东变压器,乔古寺西台变压器,南黄村变压器,未庄砖厂,河北省保定市高碑店市泗庄乡高碑店泗庄供电所,丰盛庄村变压器,魏庄地变压器,0387437068-世纪大道北东台-专变-45274563-世纪大道北东台,乔古寺西南地变压器【纯农排变】,东黄村变压器,高碑店市泗庄镇东黄小学,乔古寺南台变压器,王场东南2变压器","powerOffReason":"【停电原因】由于配变增容导致３５ＫＶ泗庄变电站１０ＫＶ东黄５１２线路全线停电 【变更送电】因工作量大原因，送电时间由２１：００变更为２３：５９ 【发布渠道】高碑店市高碑店电视台（０５月１８日０８时至０５月２５日１８时之间）屏幕上方滚动","powerOffId":"2020051713000104"},{"poweroffId":2020051713000094,"sgpoweroffId":null,"subsName":"","lineName":"兴胜579","pubTranName":"许庄东2,","scope":"【影响街道/乡镇】白沟镇、兴盛大街、滨水路 【高危重要客户】无 【影响客户】许庄村、许庄安置区、金孔雀小区、秀水鼎居小区、丽都公寓小区、河道国际电商产业园、消防中队、培京小学、金利达、富尊工业园、魅力金座、鑫天鹏、肖铁扣、贸正劳保用品有限公司、天德检测站、马德群、圣大蒂诺、许宝军、赵建辉、付玉、李玉亮","startTime":"2020-05-17 10:59:29","stopDate":"2020-05-17 13:00:00","orgNo":"1340612","typeCode":"电网故障停限电","poweroffArea":"【全线路停电】停变压器,变压器8,工业园区路灯2-1,变压器6,变压器3,保定弘图白沟垃圾综合处理厂,保定白沟新城规划建设局(团结路路灯)变压器,金利达革塑有限公司变压器,许庄变电站,白沟新城味蜀吾火锅店变压器,鹏鼎变压器,天鹏4,变压器7,0675891037-保定白沟新城培京小学-专变-216214618-变压器,保定白沟新城鑫傲峰箱包厂,顾翠平,圣大蒂诺皮具厂变台,李玉亮,高碑店市鸿鹏箱包有限公司变压器,丽都变压器,白沟新城规划建设局五一路3号路灯,保定博成箱包制造有限公司变压器,天鹏5,保定白沟新城隆盈星肉食加工厂,赵建辉2变压器,变压器5,鑫亿顺达箱包变压器,保定互赢物业服务有限责任公司,保定白沟长盛客运有限责任公司,变压器2,贸正变压器,张建明（白沟自来水厂）,许庄东2,变压器4,丽都公寓,保定白沟太强五金压铸有限公司,变压器1,马德群","poweroffReason":"【停电原因】由于红知木分支电缆被挖断导致１１０ＫＶ南留变电站１０ＫＶ兴胜５７９线路全线停电 【变更送电】因抢修进度加快原因，送电时间由１８：００变更为１３：００ 【发布渠道】通过９５５９８发布","powerTime":"2020-05-17 12:31:31","powerComm":"已送电","subsNo":"","lineNo":"","tgNo":"","tgName":null,"infoStatus":"1","orgName":"国网高碑店市供电公司","typeName":null,"infoStatusName":null,"dateDay":null,"orgNos":null,"nowTime":null,"countyName":null,"streetName":null,"villageName":null,"roadName":null,"communityName":null,"tranName":null,"sdLineName":null,"cityCode":"1340612","cityName":"国网高碑店市供电公司","provinceCode":null,"stopTime":"2020-05-17 13:00:00","powerType":"全部","powerOffArea":"【全线路停电】停变压器,变压器8,工业园区路灯2-1,变压器6,变压器3,保定弘图白沟垃圾综合处理厂,保定白沟新城规划建设局(团结路路灯)变压器,金利达革塑有限公司变压器,许庄变电站,白沟新城味蜀吾火锅店变压器,鹏鼎变压器,天鹏4,变压器7,0675891037-保定白沟新城培京小学-专变-216214618-变压器,保定白沟新城鑫傲峰箱包厂,顾翠平,圣大蒂诺皮具厂变台,李玉亮,高碑店市鸿鹏箱包有限公司变压器,丽都变压器,白沟新城规划建设局五一路3号路灯,保定博成箱包制造有限公司变压器,天鹏5,保定白沟新城隆盈星肉食加工厂,赵建辉2变压器,变压器5,鑫亿顺达箱包变压器,保定互赢物业服务有限责任公司,保定白沟长盛客运有限责任公司,变压器2,贸正变压器,张建明（白沟自来水厂）,许庄东2,变压器4,丽都公寓,保定白沟太强五金压铸有限公司,变压器1,马德群","powerOffReason":"【停电原因】由于红知木分支电缆被挖断导致１１０ＫＶ南留变电站１０ＫＶ兴胜５７９线路全线停电 【变更送电】因抢修进度加快原因，送电时间由１８：００变更为１３：００ 【发布渠道】通过９５５９８发布","powerOffId":"2020051713000094"},{"poweroffId":2020051713000092,"sgpoweroffId":null,"subsName":"","lineName":"鞋帽565","pubTranName":"团结路公变,兴隆大街公变,","scope":"【影响街道/乡镇】白沟镇、友谊东路、兴隆大街 【高危重要客户】无 【影响客户】乾城华府小区、保定白沟新城雅来箱包厂、达辉公司、李秋国、杨雪、苗凤树、保定白沟新城隆程皮革厂、互赢物业、杨亚民、保定迪凯箱包制造有限公司、硕德房地产、旺百伦物业、信德百利革业有限公司、保定浙圣箱包制造有限公司、白沟佳山皮具、许庄村、许庄安置小区、柳树屯饭庄、中国铁塔股份有限公司、肖连扣、赵小田、马青宾、王学会、王金强、高碑店市永生塑胶有限公司、赵国永、亨兴帽业服饰有限责任公司、吴斌、保定恒昌拉链有限公司、江雪丰、豪园小区","startTime":"2020-05-17 10:56:38","stopDate":"2020-05-17 16:30:00","orgNo":"1340612","typeCode":"电网故障停限电","poweroffArea":"【全线路停电】停变压器,宋永昌,高碑店市信德百利革业有限公司变压器,江雪丰,许庄安置区1变压器,河北昊明人造皮革有限公司变压器,赵国永,河北鹏润房地产开发有限公司变压器,变压器2,互赢250,杨亚军变压器,0387443618-肖连扣-专变-45279465-肖连扣,永生革业,王山,保定白沟新城蓝末箱包配件销售部变压器,团结路公变,姚建勋,赵小田,宋永昌2,中国移动通信集团河北有限公司保定分公司,马青宾,刘保利2,刘国强2,王金强,肖连扣3,王学会,保定雪钰商贸有限公司变压器,李秋国变台,互赢物业变压器,帛隆无纺布变压器,刘宝力,吴斌,金圆鼎小区变压器,杨雪变台,苗凤树变台,刘志军,保定迪凯箱包制造有限公司变压器,兴隆大街公变,乾城华府变压器1,变压器1250","poweroffReason":"【停电原因】由于１６号杆硕德房地产电缆烧毁导致１１０ＫＶ南留变电站１０ＫＶ鞋帽５６５线路全线停电 【变更送电】因抢修进度加快原因，送电时间由１８：００变更为１６：３０ 【发布渠道】通过９５５９８发布","powerTime":"2020-05-17 16:02:42","powerComm":"已送电","subsNo":"","lineNo":"","tgNo":"","tgName":null,"infoStatus":"1","orgName":"国网高碑店市供电公司","typeName":null,"infoStatusName":null,"dateDay":null,"orgNos":null,"nowTime":null,"countyName":null,"streetName":null,"villageName":null,"roadName":null,"communityName":null,"tranName":null,"sdLineName":null,"cityCode":"1340612","cityName":"国网高碑店市供电公司","provinceCode":null,"stopTime":"2020-05-17 16:30:00","powerType":"全部","powerOffArea":"【全线路停电】停变压器,宋永昌,高碑店市信德百利革业有限公司变压器,江雪丰,许庄安置区1变压器,河北昊明人造皮革有限公司变压器,赵国永,河北鹏润房地产开发有限公司变压器,变压器2,互赢250,杨亚军变压器,0387443618-肖连扣-专变-45279465-肖连扣,永生革业,王山,保定白沟新城蓝末箱包配件销售部变压器,团结路公变,姚建勋,赵小田,宋永昌2,中国移动通信集团河北有限公司保定分公司,马青宾,刘保利2,刘国强2,王金强,肖连扣3,王学会,保定雪钰商贸有限公司变压器,李秋国变台,互赢物业变压器,帛隆无纺布变压器,刘宝力,吴斌,金圆鼎小区变压器,杨雪变台,苗凤树变台,刘志军,保定迪凯箱包制造有限公司变压器,兴隆大街公变,乾城华府变压器1,变压器1250","powerOffReason":"【停电原因】由于１６号杆硕德房地产电缆烧毁导致１１０ＫＶ南留变电站１０ＫＶ鞋帽５６５线路全线停电 【变更送电】因抢修进度加快原因，送电时间由１８：００变更为１６：３０ 【发布渠道】通过９５５９８发布","powerOffId":"2020051713000092"}],"pageModel":{"pageNow":66,"totalCount":10973,"totalPage":1098,"tableRows":0,"pageCount":10,"beginCount":650},"isExperi":"1"}