{"message":"","today":"2020-06-15","seleList":[{"poweroffId":2019071313000171,"sgpoweroffId":null,"subsName":"","lineName":"10kV512杨村线","pubTranName":"10KV512杨村线12087分支5号杆北杨村12087IC卡台区变压器【纯农排变】,振兴染厂2,10KV杨村512线小西章村北12053台区变压器【纯农排变】,10KV512杨村线39994分支1号杆杨村村西39994台区变压器,10KV杨村512线杨村村北12055台区柱上变压器,10KV512杨村线12080分支2号杆北杨村12080IC卡台区变压器【纯农排变】,北彦养殖厂,10KV512杨村线东章村内分支11号杆东章村南39273台区变压器,乡政府,10KV512杨村线北彦12018分支1号杆北彦村西12018台区变压器,10KV杨村512线小西章村内12056台区柱上变压器,0637187815-杨村路灯3-专变-148279514-杨村路灯3,10KV512杨村线杨村12001分支2号杆北杨村西12001台区变压器,10KV512杨村线12015分支2号杆沃头村西12015台区变压器,河北省博野县永丰印染,10KV杨村512线北彦村西12050台区变压器,10KV512杨村线小西章村内分支1号杆小西章村东12012台区变压器,10KV512杨村线12092分支1号杆北杨村12007IC卡台区压器【纯农排变】,10KV512杨村线12081分支3号杆杨村12081IC卡台区变压器【纯农排变】,10KV512杨村线北彦分支24号杆北彦村南12023台区变压器,杨村路灯1,10KV512杨村线12085分支2号杆北杨村12085IC卡台区变压器【纯农排变】,10KV512杨村线北彦12038分支7号杆北彦村南12038IC卡台区变压器【纯农排变】,10KV杨村512线杨村村东12058台区柱上变压器,10KV512杨村线12086分支4号杆北杨村12086IC卡台区变压器【纯农排变】,10KV512杨村线12092分支9号杆北杨村12092IC卡台区变压器【纯农排变】,10Kv512杨村线小西章村南2号变压器【纯农排变】,10KV512杨村线小西章村北分支4号杆小西章12014排灌台区变压器【纯农排变】,10KV512杨村线12082分支3号杆北杨村12082IC卡台区变压器【纯农排变】,北彦小学,杨村路灯3,10KV512杨村线小西章村内分支6号杆小西章村内75370台区变压器【纯农排变】,10KV杨村512线杨村村北12052台区变压器,10Kv512杨村线沃头村西2号12101IC卡变压器【纯农排变】,10KV512杨村线杨村北分支25号杆北杨村12089IC卡台区变压器【纯农排变】,10KV512杨村线12095分支3号杆北杨村12095IC卡台区变压器【纯农排变】,10Kv512杨村线沃头村西1号12100IC卡变压器【纯农排变】,10KV512杨村线12096分支4号杆北堤圈IC12096IC卡台区变压器【纯农排变】,中国移动通信集团河北有限公司博野分公司,10KV512杨村线沃头村内分支22号杆沃头公路39274台区变压器,10Kv512杨村线小西章村东北变压器【纯农排变】,刘英辉分支,10Kv512杨村线南祝浇地变压器【纯农排变】,10KV512杨村线东章村北92408变压器【纯农排变】,10KV","scope":"【影响街道/乡镇】城东乡【高危重要客户】无【影响客户】东章、北杨村、北彦、沃头、东佰章、小西章","startTime":"2019-07-13 17:50:33","stopDate":"2019-07-13 19:10:00","orgNo":"1340608","typeCode":"电网故障停限电","poweroffArea":"【全线路停电】停10KV512杨村线杨村12093分支10号杆北杨村12090IC卡台区变压器【纯农排变】,北彦养殖厂,10KV512杨村线沃头39997分支5号杆沃头大队39997台区变压器,10KV512杨村线12009分支1号杆东章村大队12009台区变压器,10KV512杨村线东章村北92408变压器【纯农排变】,10KV512杨村线12082分支3号杆北杨村12082IC卡台区变压器【纯农排变】,10KV512杨村线12080分支2号杆北杨村12080IC卡台区变压器【纯农排变】,10KV杨村512线杨村村北12052台区变压器,10KV512杨村线东章16542分支4号杆东章村南IC卡16542台区变压器【纯农排变】,10KV512杨村线主干126号杆北杨村东12002台区变压器,10KV512杨村线39265分支7号杆杨村村北39265台区变压器,10Kv512杨村线沃头村南窝头IC卡84319台区变压器【纯农排变】,10KV512杨村线东章村内分支11号杆东章村南39273台区变压器,10Kv512杨村线沃头村东2号窝头IC卡83896台区变压器【纯农排变】","poweroffReason":"【停电原因】由于线路掉闸导致３５ＫＶ城东变电站杨村５１２线路全线停电【变更送电】因抢修进度加快原因，送电时间由２３：００变更为１９：１０【发布渠道】通过９５５９８发布","powerTime":"2019-07-13 19:08:06","powerComm":"已送电","subsNo":"","lineNo":"","tgNo":"","tgName":null,"infoStatus":"1","orgName":"国网博野县供电公司","typeName":null,"infoStatusName":null,"dateDay":null,"orgNos":null,"nowTime":null,"countyName":null,"streetName":null,"villageName":null,"roadName":null,"communityName":null,"tranName":null,"sdLineName":null,"cityCode":"1340608","cityName":"国网博野县供电公司","provinceCode":null,"stopTime":"2019-07-13 19:10:00","powerType":"全部","powerOffArea":"【全线路停电】停10KV512杨村线杨村12093分支10号杆北杨村12090IC卡台区变压器【纯农排变】,北彦养殖厂,10KV512杨村线沃头39997分支5号杆沃头大队39997台区变压器,10KV512杨村线12009分支1号杆东章村大队12009台区变压器,10KV512杨村线东章村北92408变压器【纯农排变】,10KV512杨村线12082分支3号杆北杨村12082IC卡台区变压器【纯农排变】,10KV512杨村线12080分支2号杆北杨村12080IC卡台区变压器【纯农排变】,10KV杨村512线杨村村北12052台区变压器,10KV512杨村线东章16542分支4号杆东章村南IC卡16542台区变压器【纯农排变】,10KV512杨村线主干126号杆北杨村东12002台区变压器,10KV512杨村线39265分支7号杆杨村村北39265台区变压器,10Kv512杨村线沃头村南窝头IC卡84319台区变压器【纯农排变】,10KV512杨村线东章村内分支11号杆东章村南39273台区变压器,10Kv512杨村线沃头村东2号窝头IC卡83896台区变压器【纯农排变】","powerOffReason":"【停电原因】由于线路掉闸导致３５ＫＶ城东变电站杨村５１２线路全线停电【变更送电】因抢修进度加快原因，送电时间由２３：００变更为１９：１０【发布渠道】通过９５５９８发布","powerOffId":"2019071313000171"},{"poweroffId":2019071313000159,"sgpoweroffId":null,"subsName":"","lineName":"北山南线518","pubTranName":"七里亭4#,","scope":"【影响街道/乡镇】易州镇【高危重要客户】无【影响客户】七里亭村","startTime":"2019-07-13 16:31:52","stopDate":"2019-07-13 20:00:00","orgNo":"1340625","typeCode":"电网故障停限电","poweroffArea":"【单台区停电】停七里亭4#","poweroffReason":"【停电原因】由于线夹烧毁导致１１０ＫＶ易县变电站北山南线５１８线路七里亭４＃公变台区停电【变更送电】因抢修进度加快原因，送电时间由２２:００变更为２０:００【发布渠道】通过９５５９８发布","powerTime":"2019-07-13 19:42:29","powerComm":"已送电","subsNo":"","lineNo":"","tgNo":"","tgName":null,"infoStatus":"1","orgName":"国网易县供电公司","typeName":null,"infoStatusName":null,"dateDay":null,"orgNos":null,"nowTime":null,"countyName":null,"streetName":null,"villageName":null,"roadName":null,"communityName":null,"tranName":null,"sdLineName":null,"cityCode":"1340625","cityName":"国网易县供电公司","provinceCode":null,"stopTime":"2019-07-13 20:00:00","powerType":"全部","powerOffArea":"【单台区停电】停七里亭4#","powerOffReason":"【停电原因】由于线夹烧毁导致１１０ＫＶ易县变电站北山南线５１８线路七里亭４＃公变台区停电【变更送电】因抢修进度加快原因，送电时间由２２:００变更为２０:００【发布渠道】通过９５５９８发布","powerOffId":"2019071313000159"},{"poweroffId":2019071313000153,"sgpoweroffId":null,"subsName":"","lineName":"10kV江城站530线路","pubTranName":"C334柱上变压器,","scope":"【影响街道/乡镇】颉庄乡 【高危重要客户】无 【影响客户】水碾头","startTime":"2019-07-13 16:10:00","stopDate":"2019-07-13 17:10:00","orgNo":"13406","typeCode":"电网故障停限电","poweroffArea":"【单台区停电】停C334柱上变压器","poweroffReason":"【停电原因】由于低压刀闸烧导致１０ＫＶ江城变电站５３０线路Ｃ３３４公变台区停电【变更送电】无【发布渠道】通过９５５９８发布","powerTime":"2019-07-13 16:56:46","powerComm":"已送电","subsNo":"","lineNo":"","tgNo":"","tgName":null,"infoStatus":"1","orgName":"保定供电公司","typeName":null,"infoStatusName":null,"dateDay":null,"orgNos":null,"nowTime":null,"countyName":null,"streetName":null,"villageName":null,"roadName":null,"communityName":null,"tranName":null,"sdLineName":null,"cityCode":"13406","cityName":"保定供电公司","provinceCode":null,"stopTime":"2019-07-13 17:10:00","powerType":"全部","powerOffArea":"【单台区停电】停C334柱上变压器","powerOffReason":"【停电原因】由于低压刀闸烧导致１０ＫＶ江城变电站５３０线路Ｃ３３４公变台区停电【变更送电】无【发布渠道】通过９５５９８发布","powerOffId":"2019071313000153"},{"poweroffId":2019071313000134,"sgpoweroffId":null,"subsName":"","lineName":"河南庄线521","pubTranName":"大庄7号,方上3号,北宋营2【纯农排变】,夜借1号分支,北宋11号,方上4号,夜借5分支1,方上7号,北宋营7台区柱上变压器,北宋14,鑫泰化工厂,唐长贺摩托维修,北宋营10号,0683522905-河北天冠新能源科技有限公司-专变-221825226-河北天冠新能源科技有限公司,小庄3号分支,夜借3号分支,北宋2号【纯农排变】,满城县旗洋彩印有限公司,夜借4号分支,北宋15,大册营国税所,北宋17号,京保纸厂,赵福民,大庄2号,保定易优卫生巾制造有限公司,满城县铭宇彩印有限公司,北宋19号,大庄5号,北宋四号,北宋营新增分支8号,南宋大队农业,张文全加工厂,保定雨森卫生用品有限公司1600,南宋1#分支,北宋新增5号,方上6号,北宋1号,年永全吹膜厂,鑫达纸厂,南宋2号,保定丰健生物工程技术有限公司,北宋营3【纯农排变】,北宋3【纯农排变】,腾飞塑料加工厂,北宋营1台区柱上变压器,方上南新增,满城县东雨卫生用品有限公司,小庄分支1号,北宋营9,南宋5号分支,沿村3号,大庄面粉厂,南宋新增分支,南宋营6号新,方上2分支,夜借8号t,北宋16台区变压器,夜借6号新增分支,大庄村东新增6号,沿村分支2号,北宋营11号变压器,保定雨森卫生用品有限公司,嘉禾卫生用品厂,北宋8分支,大庄村西新增,北宋营5号,小庄村南2号,夜借9号,满城县尚达纸质品厂,富润达肥业,北宋18号分支,北宋6,沿村大队,洪达线材有限公司,大庄1号,美华卫生用品厂,大庄3号（统管）,满城县天合纸制品有限公司,方上1号,保定雨森卫生用品有限公司1000,北宋村东【纯农排变】,夜借2面粉厂,北宋7号,夜借7号分支,夜借2分支,南宋3号,北宋营6分支,保定天冠新能源,北宋9【纯农排变】,沿村4号,小北宋分,北宋营4号,满城县艺洋卫生用品有限公司,","scope":"【影响街道/乡镇】大册营乡 【高危重要客户】无 【影响客户】方上、沿村、北宋、南宋、大庄、小庄、夜借、北宋营","startTime":"2019-07-13 15:34:05","stopDate":"2019-07-13 19:00:00","orgNo":"1340617","typeCode":"电网故障停限电","poweroffArea":"【全线路停电】停富润达肥业,夜借8号t,北宋19号,沿村分支2号,南宋5号分支,保定易优卫生巾制造有限公司,保定雨森卫生用品有限公司1000,夜借7号分支,沿村3号,大庄5号,小北宋分,方上1号,北宋营11号变压器,小庄3号分支,鑫泰化工厂,满城县尚达纸质品厂,大册营国税所,满城县东雨卫生用品有限公司,鑫达纸厂,北宋17号,夜借2分支,大庄3号（统管）,北宋营6分支,0683522905-河北天冠新能源科技有限公司-专变-221825226-河北天冠新能源科技有限公司,北宋营4号,北宋营7台区柱上变压器,方上3号,京保纸厂,保定天冠新能源,小庄分支1号,满城县艺洋卫生用品有限公司,北宋14,北宋营2【纯农排变】,满城县天合纸制品有限公司,大庄村东新增6号,赵福民,保定雨森卫生用品有限公司,北宋9【纯农排变】,北宋营3【纯农排变】,北宋16台区变压器,嘉禾卫生用品厂,南宋营6号新,北宋11号,沿村4号,北宋营9,夜借6号新增分支,北宋8分支,大庄2号,方上4号,唐长贺摩托维修,大庄村西新增,北宋村东【纯农排变】,南宋2号,北宋营10号,南宋3号,大庄面粉厂,南宋新增分支,满城县铭宇彩印有限公司,北宋营5号,方上2分支,夜借5分支1,夜借1号分支,沿村大队,南宋大队农业,方上6号,小庄村南2号,北宋3【纯农排变】,夜借4号分支,夜借3号分支,洪达线材有限公司,大庄7号,张文全加工厂,北宋15,腾飞塑料加工厂,保定丰健生物工程技术有限公司,保定雨森卫生用品有限公司1600,南宋1#分支,大庄1号,夜借9号,方上7号,北宋2号【纯农排变】,北宋四号,北宋营1台区柱上变压器,北宋新增5号,夜借2面粉厂,北宋18号分支,方上南新增,北宋1号,满城县旗洋彩印有限公司,北宋营新增分支8号,美华卫生用品厂,年永全吹膜厂,北宋7号,北宋6","poweroffReason":"【停电原因】由于Ａ相接地导致１１０ＫＶ大册营变电站河南庄线５２１线路全线停电 【变更送电】因抢修进度加快原因，送电时间由２０：００变更为１９：００ 【发布渠道】通过９５５９８发布","powerTime":"2019-07-13 18:40:05","powerComm":"已送电","subsNo":"","lineNo":"","tgNo":"","tgName":null,"infoStatus":"1","orgName":"国网满城县供电公司","typeName":null,"infoStatusName":null,"dateDay":null,"orgNos":null,"nowTime":null,"countyName":null,"streetName":null,"villageName":null,"roadName":null,"communityName":null,"tranName":null,"sdLineName":null,"cityCode":"1340617","cityName":"国网满城县供电公司","provinceCode":null,"stopTime":"2019-07-13 19:00:00","powerType":"全部","powerOffArea":"【全线路停电】停富润达肥业,夜借8号t,北宋19号,沿村分支2号,南宋5号分支,保定易优卫生巾制造有限公司,保定雨森卫生用品有限公司1000,夜借7号分支,沿村3号,大庄5号,小北宋分,方上1号,北宋营11号变压器,小庄3号分支,鑫泰化工厂,满城县尚达纸质品厂,大册营国税所,满城县东雨卫生用品有限公司,鑫达纸厂,北宋17号,夜借2分支,大庄3号（统管）,北宋营6分支,0683522905-河北天冠新能源科技有限公司-专变-221825226-河北天冠新能源科技有限公司,北宋营4号,北宋营7台区柱上变压器,方上3号,京保纸厂,保定天冠新能源,小庄分支1号,满城县艺洋卫生用品有限公司,北宋14,北宋营2【纯农排变】,满城县天合纸制品有限公司,大庄村东新增6号,赵福民,保定雨森卫生用品有限公司,北宋9【纯农排变】,北宋营3【纯农排变】,北宋16台区变压器,嘉禾卫生用品厂,南宋营6号新,北宋11号,沿村4号,北宋营9,夜借6号新增分支,北宋8分支,大庄2号,方上4号,唐长贺摩托维修,大庄村西新增,北宋村东【纯农排变】,南宋2号,北宋营10号,南宋3号,大庄面粉厂,南宋新增分支,满城县铭宇彩印有限公司,北宋营5号,方上2分支,夜借5分支1,夜借1号分支,沿村大队,南宋大队农业,方上6号,小庄村南2号,北宋3【纯农排变】,夜借4号分支,夜借3号分支,洪达线材有限公司,大庄7号,张文全加工厂,北宋15,腾飞塑料加工厂,保定丰健生物工程技术有限公司,保定雨森卫生用品有限公司1600,南宋1#分支,大庄1号,夜借9号,方上7号,北宋2号【纯农排变】,北宋四号,北宋营1台区柱上变压器,北宋新增5号,夜借2面粉厂,北宋18号分支,方上南新增,北宋1号,满城县旗洋彩印有限公司,北宋营新增分支8号,美华卫生用品厂,年永全吹膜厂,北宋7号,北宋6","powerOffReason":"【停电原因】由于Ａ相接地导致１１０ＫＶ大册营变电站河南庄线５２１线路全线停电 【变更送电】因抢修进度加快原因，送电时间由２０：００变更为１９：００ 【发布渠道】通过９５５９８发布","powerOffId":"2019071313000134"},{"poweroffId":2019071313000121,"sgpoweroffId":null,"subsName":"","lineName":"彤霞线518","pubTranName":"大西堤农业3号【纯农排变】,北韩庄农2【纯农排变】,大西堤西北【纯农排变】,北京绣喜园鞋业有限公司,望都县聚鑫鞋跟厂,大西堤西【纯农排变】,小西堤西农【纯农排变】,华通鞋厂,小西堤工业区,耿立峰鞋厂,韩庄林场2号【纯农排变】,韩庄村北50【纯农排变】,城内北环路配变,0549314444-望都县一航机械加工厂-专变-48233203-变压器,变压器,北韩庄北农4号【纯农排变】,永昌机械修配厂,彤霞西北,北京绣喜园2号,望都县慧通纸箱厂,大西堤村西混合,北关农业5号配变,彤霞混合4号,彤霞内西混5,北韩庄混合3号,北韩庄农业【纯农排变】,北韩庄北农3号【纯农排变】,北韩庄混合1,望都县永昌机械制造有限公司,保定鑫达铸造有限公司,大西堤西北农业2号【纯农排变】,望都县鑫烨机械制造有限公司,","scope":"【影响街道/乡镇】望都镇　　 【高危重要客户】无　　 【影响客户】大西堤、彤霞村、北韩庄、韩庄村部分农业、城内北环、小西堤西农、华通鞋厂、彤霞西北、永昌机械修配厂、聚鑫鞋跟厂、永昌机械制造有限公司、北环机械加工厂、望都县慧通纸箱厂、望都县鑫烨机械制造有限公司、小西堤工业区、韩庄林场、望都县一航机械加工厂、北京绣喜园鞋业有限公司、保定鑫达铸造有限公司、耿立峰鞋厂、戈弋伊鞋厂、宏源铸钢厂、鑫福祥鞋厂、三鑫源鞋厂","startTime":"2019-07-13 14:15:44","stopDate":"2019-07-13 16:40:00","orgNo":"1340623","typeCode":"电网故障停限电","poweroffArea":"【全线路停电】停彤霞混合4号,彤霞内西混5,北韩庄混合3号,北韩庄混合1,望都县永昌机械制造有限公司,保定鑫达铸造有限公司,大西堤西北农业2号【纯农排变】,望都县鑫烨机械制造有限公司,大西堤农业3号【纯农排变】,北韩庄农2【纯农排变】,大西堤西北【纯农排变】,望都县聚鑫鞋跟厂,城内北环路配变,0549314444-望都县一航机械加工厂-专变-48233203-变压器,变压器,北韩庄北农4号【纯农排变】,永昌机械修配厂,彤霞西北,北京绣喜园2号,望都县慧通纸箱厂,大西堤村西混合,北关农业5号配变,北京绣喜园鞋业有限公司,大西堤西【纯农排变】,小西堤西农【纯农排变】,华通鞋厂,小西堤工业区,耿立峰鞋厂,北韩庄农业【纯农排变】,韩庄林场2号【纯农排变】,北韩庄北农3号【纯农排变】,韩庄村北50【纯农排变】","poweroffReason":"【停电原因】由于用户配变Ａ相跌落掉导致１１０ＫＶ西堤变电站彤霞线５１８线路全线停电 【变更送电】因抢修进度加快原因，送电时间由２２：００变更为１６：４０ 【发布渠道】通过９５５９８发布","powerTime":"2019-07-13 15:59:31","powerComm":"已送电","subsNo":"","lineNo":"","tgNo":"","tgName":null,"infoStatus":"1","orgName":"国网望都县供电公司","typeName":null,"infoStatusName":null,"dateDay":null,"orgNos":null,"nowTime":null,"countyName":null,"streetName":null,"villageName":null,"roadName":null,"communityName":null,"tranName":null,"sdLineName":null,"cityCode":"1340623","cityName":"国网望都县供电公司","provinceCode":null,"stopTime":"2019-07-13 16:40:00","powerType":"全部","powerOffArea":"【全线路停电】停彤霞混合4号,彤霞内西混5,北韩庄混合3号,北韩庄混合1,望都县永昌机械制造有限公司,保定鑫达铸造有限公司,大西堤西北农业2号【纯农排变】,望都县鑫烨机械制造有限公司,大西堤农业3号【纯农排变】,北韩庄农2【纯农排变】,大西堤西北【纯农排变】,望都县聚鑫鞋跟厂,城内北环路配变,0549314444-望都县一航机械加工厂-专变-48233203-变压器,变压器,北韩庄北农4号【纯农排变】,永昌机械修配厂,彤霞西北,北京绣喜园2号,望都县慧通纸箱厂,大西堤村西混合,北关农业5号配变,北京绣喜园鞋业有限公司,大西堤西【纯农排变】,小西堤西农【纯农排变】,华通鞋厂,小西堤工业区,耿立峰鞋厂,北韩庄农业【纯农排变】,韩庄林场2号【纯农排变】,北韩庄北农3号【纯农排变】,韩庄村北50【纯农排变】","powerOffReason":"【停电原因】由于用户配变Ａ相跌落掉导致１１０ＫＶ西堤变电站彤霞线５１８线路全线停电 【变更送电】因抢修进度加快原因，送电时间由２２：００变更为１６：４０ 【发布渠道】通过９５５９８发布","powerOffId":"2019071313000121"},{"poweroffId":2019071313000109,"sgpoweroffId":null,"subsName":"","lineName":"10kV580燕家庄线","pubTranName":"燕家庄公用照明4台区,燕家庄村公用照明1台区,燕家庄公用照明3台区,燕家庄公用照明2台区,燕家庄公用照明5台区,","scope":"【影响街道/乡镇】清风店镇【高危重要客户】无【影响客户】燕家庄村","startTime":"2019-07-13 15:00:00","stopDate":"2019-07-13 17:00:00","orgNo":"1340610","typeCode":"其他临时停电","poweroffArea":"【分支停电】停燕家庄公用照明5台区,燕家庄公用照明4台区,燕家庄村公用照明1台区,燕家庄公用照明3台区,燕家庄公用照明2台区","poweroffReason":"【停电原因】由于燕家庄公用照明５台区Ａ相跌落保险上接点打火需停电进行紧急检修导致１１０ＫＶ清风店变电站１０ＫＶ５８０燕家庄线路燕家庄分支０６号杆１６号隔离开关以下线路停电 【变更送电】无 【发布渠道】９５５９８","powerTime":"2019-07-13 16:46:28","powerComm":"已送电","subsNo":"","lineNo":"","tgNo":"","tgName":null,"infoStatus":"1","orgName":"国网定州市供电公司","typeName":null,"infoStatusName":null,"dateDay":null,"orgNos":null,"nowTime":null,"countyName":null,"streetName":null,"villageName":null,"roadName":null,"communityName":null,"tranName":null,"sdLineName":null,"cityCode":"1340610","cityName":"国网定州市供电公司","provinceCode":null,"stopTime":"2019-07-13 17:00:00","powerType":"全部","powerOffArea":"【分支停电】停燕家庄公用照明5台区,燕家庄公用照明4台区,燕家庄村公用照明1台区,燕家庄公用照明3台区,燕家庄公用照明2台区","powerOffReason":"【停电原因】由于燕家庄公用照明５台区Ａ相跌落保险上接点打火需停电进行紧急检修导致１１０ＫＶ清风店变电站１０ＫＶ５８０燕家庄线路燕家庄分支０６号杆１６号隔离开关以下线路停电 【变更送电】无 【发布渠道】９５５９８","powerOffId":"2019071313000109"},{"poweroffId":2019071313000099,"sgpoweroffId":null,"subsName":"","lineName":"10kV580燕家庄线","pubTranName":"定州市德龙环境工程有限公司变压器,燕家庄公用照明2台区,东王吕公用照明5台区,燕家庄公用农业1台区【纯农排变】,燕家庄公用农业5台区【纯农排变】,清风店供电所变压器,定州市西三路农机配件厂,西三路公用照明4台区,大三路公用照明3台区,东王吕公用照明6台区,东王吕公用农业7台区（土地局）【纯农排变】,大三路公用农业3台区【纯农排变】,西王吕公用农业3台区【纯农排变】,燕家庄公用照明5台区,罗家庄公用农业3台区【纯农排变】,西王吕公用农业1台区【纯农排变】,连仲公用照明9台区,东王吕公用照明4台区,燕三路公用照明2台区,燕家庄公用照明4台区,席家庄村公用农业1台区【纯农排变】,东三路公用农业4台区【纯农排变】,席家庄村公用农业3台区【纯农排变】,李盼杰养鸡场,东三路公用农业3台区【纯农排变】,东王吕村公用农业5台区【纯农排变】,席家庄公用照明6台区,定州腾达冲压件厂,燕家庄村公用照明1台区,东三路公用农业2台区,西三路公用照明2台区,连仲公用农业5台区【纯农排变】,罗家庄公用农业6台区（土地局）【纯农排变】,大三路公用农业4台区【纯农排变】,清风店医院,罗家庄公用农业2台区【纯农排变】,燕家庄村委会,燕家庄公用农业6台区【纯农排变】,定州市中武服装加工厂变压器,燕家庄公用农业4台区【纯农排变】,燕家庄公用农业2台区【纯农排变】,定州市清风店水利服务站,燕家庄公用照明3台区,东王吕村公用照明1台区,东王吕公用照明2台区,东王吕村公用农业2台区【纯农排变】,燕家庄村北,东王吕村公用农业1台区【纯农排变】,大三路公用农业5台区【纯农排变】,大三路村公用照明1台区,东王吕村公用农业4台区【纯农排变】,燕三路公用农业3台区【纯农排变】,燕三路村公用照明1台区,罗家庄公用农业7台区,东王吕公用照明3台区,西三路村公用农业1台区【纯农排变】,燕三路村公用农业1台区【纯农排变】,燕家庄公用农业3台区【纯农排变】,西三路公用农业3台区【纯农排变】,西三路村公用农业2台区【纯农排变】,西三路村公用照明1台区,大三路公用照明2台区,燕三路村公用农业2台区【纯农排变】,","scope":"【影响街道/乡镇】清风店镇【高危重要客户】无【影响客户】西三路村、东三路村、大三路村、燕三路村、燕家庄村、席家庄、连仲","startTime":"2019-07-13 12:01:35","stopDate":"2019-07-13 13:30:00","orgNo":"1340610","typeCode":"电网故障停限电","poweroffArea":"【全线路停电】停西三路村公用农业2台区【纯农排变】,西三路村公用照明1台区,大三路公用照明2台区,燕三路村公用农业2台区【纯农排变】,罗家庄公用农业6台区（土地局）【纯农排变】,大三路公用农业4台区【纯农排变】,清风店医院,罗家庄公用农业2台区【纯农排变】,燕家庄村委会,定州市中武服装加工厂变压器,燕家庄公用农业4台区【纯农排变】,燕家庄公用农业2台区【纯农排变】,定州市清风店水利服务站,燕家庄公用照明3台区,东王吕村公用照明1台区,东王吕公用照明2台区,东王吕村公用农业2台区【纯农排变】,燕家庄村北,东王吕村公用农业1台区【纯农排变】,大三路公用农业5台区【纯农排变】,大三路村公用照明1台区,东王吕村公用农业4台区【纯农排变】,燕三路公用农业3台区【纯农排变】,燕三路村公用照明1台区,罗家庄公用农业7台区,东王吕公用照明3台区,燕三路村公用农业1台区【纯农排变】,燕家庄公用农业3台区【纯农排变】,西三路公用农业3台区【纯农排变】,西王吕公用农业1台区【纯农排变】,连仲公用照明9台区,东王吕公用照明4台区,燕三路公用照明2台区,燕家庄公用照明4台区,席家庄村公用农业1台区【纯农排变】,东三路公用农业4台区【纯农排变】,席家庄村公用农业3台区【纯农排变】,李盼杰养鸡场,东三路公用农业3台区【纯农排变】,东王吕村公用农业5台区【纯农排变】,席家庄公用照明6台区,定州腾达冲压件厂,燕家庄村公用照明1台区,西三路公用照明2台区,连仲公用农业5台区【纯农排变】,燕家庄公用照明2台区,东王吕公用照明5台区,燕家庄公用农业1台区【纯农排变】,燕家庄公用农业5台区【纯农排变】,清风店供电所变压器,定州市西三路农机配件厂,西三路公用照明4台区,大三路公用照明3台区,东王吕公用照明6台区,东王吕公用农业7台区（土地局）【纯农排变】,大三路公用农业3台区【纯农排变】,定州市德龙环境工程有限公司变压器,东三路公用农业2台区,燕家庄公用农业6台区【纯农排变】,西三路村公用农业1台区【纯农排变】,西王吕公用农业3台区【纯农排变】,燕家庄公用照明5台区,罗家庄公用农业3台区【纯农排变】","poweroffReason":"【停电原因】由于清风店水利服务站Ａ相跌落保险烧毁导致１１０ＫＶ清风店变电站１０ＫＶ５８０燕家庄线路全线停电 【变更送电】因抢修进度加快原因，送电时间由１８：００变更为１３：３０ 【发布渠道】９５５９８","powerTime":"2019-07-13 12:49:06","powerComm":"已送电","subsNo":"","lineNo":"","tgNo":"","tgName":null,"infoStatus":"1","orgName":"国网定州市供电公司","typeName":null,"infoStatusName":null,"dateDay":null,"orgNos":null,"nowTime":null,"countyName":null,"streetName":null,"villageName":null,"roadName":null,"communityName":null,"tranName":null,"sdLineName":null,"cityCode":"1340610","cityName":"国网定州市供电公司","provinceCode":null,"stopTime":"2019-07-13 13:30:00","powerType":"全部","powerOffArea":"【全线路停电】停西三路村公用农业2台区【纯农排变】,西三路村公用照明1台区,大三路公用照明2台区,燕三路村公用农业2台区【纯农排变】,罗家庄公用农业6台区（土地局）【纯农排变】,大三路公用农业4台区【纯农排变】,清风店医院,罗家庄公用农业2台区【纯农排变】,燕家庄村委会,定州市中武服装加工厂变压器,燕家庄公用农业4台区【纯农排变】,燕家庄公用农业2台区【纯农排变】,定州市清风店水利服务站,燕家庄公用照明3台区,东王吕村公用照明1台区,东王吕公用照明2台区,东王吕村公用农业2台区【纯农排变】,燕家庄村北,东王吕村公用农业1台区【纯农排变】,大三路公用农业5台区【纯农排变】,大三路村公用照明1台区,东王吕村公用农业4台区【纯农排变】,燕三路公用农业3台区【纯农排变】,燕三路村公用照明1台区,罗家庄公用农业7台区,东王吕公用照明3台区,燕三路村公用农业1台区【纯农排变】,燕家庄公用农业3台区【纯农排变】,西三路公用农业3台区【纯农排变】,西王吕公用农业1台区【纯农排变】,连仲公用照明9台区,东王吕公用照明4台区,燕三路公用照明2台区,燕家庄公用照明4台区,席家庄村公用农业1台区【纯农排变】,东三路公用农业4台区【纯农排变】,席家庄村公用农业3台区【纯农排变】,李盼杰养鸡场,东三路公用农业3台区【纯农排变】,东王吕村公用农业5台区【纯农排变】,席家庄公用照明6台区,定州腾达冲压件厂,燕家庄村公用照明1台区,西三路公用照明2台区,连仲公用农业5台区【纯农排变】,燕家庄公用照明2台区,东王吕公用照明5台区,燕家庄公用农业1台区【纯农排变】,燕家庄公用农业5台区【纯农排变】,清风店供电所变压器,定州市西三路农机配件厂,西三路公用照明4台区,大三路公用照明3台区,东王吕公用照明6台区,东王吕公用农业7台区（土地局）【纯农排变】,大三路公用农业3台区【纯农排变】,定州市德龙环境工程有限公司变压器,东三路公用农业2台区,燕家庄公用农业6台区【纯农排变】,西三路村公用农业1台区【纯农排变】,西王吕公用农业3台区【纯农排变】,燕家庄公用照明5台区,罗家庄公用农业3台区【纯农排变】","powerOffReason":"【停电原因】由于清风店水利服务站Ａ相跌落保险烧毁导致１１０ＫＶ清风店变电站１０ＫＶ５８０燕家庄线路全线停电 【变更送电】因抢修进度加快原因，送电时间由１８：００变更为１３：３０ 【发布渠道】９５５９８","powerOffId":"2019071313000099"},{"poweroffId":2019071313000089,"sgpoweroffId":null,"subsName":"","lineName":"梁各庄线523","pubTranName":"石门店村4#村东,","scope":"【影响街道/乡镇】梁各庄镇【高危重要客户】无【影响客户】石门店村","startTime":"2019-07-14 05:00:00","stopDate":"2019-07-14 10:40:00","orgNo":"1340625","typeCode":"其他临时停电","poweroffArea":"【单台区停电】停石门店村4#村东","poweroffReason":"【停电原因】由于台区改造导致１１０ＫＶ西陵变电站梁各庄线５２３线路石门店村４＃村东公变台区停电【变更送电】因工作进度加快原因，送电时间由１２:００变更为１０:４０【发布渠道】通过９５５９８发布","powerTime":"2019-07-14 10:16:03","powerComm":"已送电","subsNo":"","lineNo":"","tgNo":"","tgName":null,"infoStatus":"1","orgName":"国网易县供电公司","typeName":null,"infoStatusName":null,"dateDay":null,"orgNos":null,"nowTime":null,"countyName":null,"streetName":null,"villageName":null,"roadName":null,"communityName":null,"tranName":null,"sdLineName":null,"cityCode":"1340625","cityName":"国网易县供电公司","provinceCode":null,"stopTime":"2019-07-14 10:40:00","powerType":"全部","powerOffArea":"【单台区停电】停石门店村4#村东","powerOffReason":"【停电原因】由于台区改造导致１１０ＫＶ西陵变电站梁各庄线５２３线路石门店村４＃村东公变台区停电【变更送电】因工作进度加快原因，送电时间由１２:００变更为１０:４０【发布渠道】通过９５５９８发布","powerOffId":"2019071313000089"},{"poweroffId":2019071313000078,"sgpoweroffId":null,"subsName":"","lineName":"西农业线517","pubTranName":"二街排2【纯农排变】,肖村营光4,国兴光14变压器【灾后重建】,肖村营排6【纯农排变】,二街光1,新国兴光5,肖村营光8【2018年重过载】,肖村营光2,北庄头光14【2018年四批补强】,三里铺排1【纯农排变】,三街光4变压器（200）,0692010888-固城镇固城中心小学-专变-236731529-固城中心小学-400,固城马家庄光3,三街大棚排【纯农排变】,二街光7变压器,三街光7【2018年重过载】,0691853871-定兴县肖村乡肖村营中心小学-专变-235619783-肖村营中心小学-400,三里铺光2【2018年重过载】,固城马家庄光2,肖村营排8【纯农排变】,固城马家庄光5,二街光5,国兴光10【2018年重过载】,三街光3,四街光3变压器（100）,二街光6,肖村营光6,0694659948-定兴县固城中学-专变-237548862-固城中学2号便,三街光8【2019年预安排】,国兴光16变压器【灾后重建】,国兴光13,四街光5,0696770209-定兴县马家庄幼儿园-专变-240818926-马家庄幼儿园,四通盛世汽车配件厂,八街光8【2018年重过载】,八街光7【2018年重过载】,八街光3,四街排5【纯农排变】,四街排8【纯农排变】,固城马家庄光1,新八街光2,国兴光1变压器,四街排6【纯农排变】,八街光6,八街光5,三街光5,北庄头光4,国兴光12,160,四街板厂,三里铺光4变压器,鑫泉装饰材料-100,三街光1,四街排4【纯农排变】,0681212062-保定市交通运输局定兴县养路工区-专变-221711517-养路工区-200,国兴光17变压器【灾后重建】,国兴光18【2018年重过载】,三街排6【纯农排变】,八街光1,二街排3【纯农排变】,新国兴光11,肖村营光7,肖村营光5【2019年预安排】,四街光1,肖村营排7【纯农排变】,国兴排11【纯农排变】,三里铺光1,肖村营光9【2018年重过载】,肖村营光10【2019年预安排】,八街混1（固城中学分户）,四街光6,国兴光3,肖村营排9【纯农排变】,肖村营排4【纯农排变】,三街排4【纯农排变】,四街排1,四街排2,国兴光2,三里铺光3【2018年重过载】,三街排2【纯农排变】,马庄排1【纯农排变】,肖村营光1,国兴排12【纯农排变】,二街村排4【纯农排变】,国兴光15变压器【灾后重建】,新八街村光4,四街光2,二街光3,八街光9变压器,新四街光4,100,三街光2,三街排1【纯农排变】,国兴排13【纯农排变】,北京大风公司,国兴光7,固城中学,八街煤厂,二街排1【纯农排变】,四街排3,三街排3【纯农排变】,肖村营光3,八街煤厂-200,肖村营排3【纯农排变】,四街排7【纯农排变】,固城马家庄光4,国兴排14【纯农排变】,国兴小学-500,0694659948-定兴县固城中学-专变-237550448-固城中学1号便,三街光6,新二街光4,","scope":"【影响街道/乡镇】固城镇 【高危重要客户】无 【影响客户】固城中学、肖村、北庄头、马家庄、国兴、三街村、三里铺、四街村、八街村、二街村、北京大风公司、肖村营、马家庄幼儿园、四同盛世汽车配件厂、养路工区","startTime":"2019-07-13 10:25:24","stopDate":"2019-07-13 11:40:00","orgNo":"1340609","typeCode":"电网故障停限电","poweroffArea":"【全线路停电】停四街光3变压器（100）,二街光6,肖村营光6,0694659948-定兴县固城中学-专变-237548862-固城中学2号便,三街光8【2019年预安排】,国兴光16变压器【灾后重建】,国兴光13,四街光5,0696770209-定兴县马家庄幼儿园-专变-240818926-马家庄幼儿园,四通盛世汽车配件厂,八街光8【2018年重过载】,八街光7【2018年重过载】,八街光3,四街排5【纯农排变】,四街排8【纯农排变】,肖村营光5【2019年预安排】,四街光1,肖村营排7【纯农排变】,国兴排11【纯农排变】,三里铺光1,肖村营光9【2018年重过载】,肖村营光10【2019年预安排】,八街混1（固城中学分户）,四街光6,国兴光3,肖村营排4【纯农排变】,八街煤厂-200,肖村营排3【纯农排变】,四街排7【纯农排变】,固城马家庄光4,国兴排14【纯农排变】,国兴小学-500,0694659948-定兴县固城中学-专变-237550448-固城中学1号便,三街光6,新二街光4,肖村营排9【纯农排变】,三街排4【纯农排变】,四街排1,四街排2,国兴光2,三里铺光3【2018年重过载】,三街排2【纯农排变】,马庄排1【纯农排变】,肖村营光1,国兴排12【纯农排变】,二街村排4【纯农排变】,国兴光15变压器【灾后重建】,新八街村光4,四街光2,二街光3,八街光9变压器,新四街光4,100,三街光2,三街排1【纯农排变】,国兴排13【纯农排变】,北京大风公司,国兴光7,固城中学,八街煤厂,二街排1【纯农排变】,四街排3,三街排3【纯农排变】,肖村营光3,肖村营排8【纯农排变】,0691853871-定兴县肖村乡肖村营中心小学-专变-235619783-肖村营中心小学-400,三里铺光2【2018年重过载】,固城马家庄光2,固城马家庄光1,新八街光2,国兴光1变压器,四街排6【纯农排变】,八街光6,八街光5,三街光5,北庄头光4,鑫泉装饰材料-100,三街光1,八街光1,二街排3【纯农排变】,新国兴光11,肖村营光7,固城马家庄光5,二街光5,国兴光10【2018年重过载】,三街光3,二街排2【纯农排变】,肖村营光4,国兴光14变压器【灾后重建】,肖村营排6【纯农排变】,二街光1,新国兴光5,肖村营光8【2018年重过载】,肖村营光2,北庄头光14【2018年四批补强】,三里铺排1【纯农排变】,三街光4变压器（200）,0692010888-固城镇固城中心小学-专变-236731529-固城中心小学-400,固城马家庄光3,三街大棚排【纯农排变】,二街光7变压器,三街光7【2018年重过载】,国兴光12,160,四街板厂,三里铺光4变压器,四街排4【纯农排变】,0681212062-保定市交通运输局定兴县养路工区-专变-221711517-养路工区-200,国兴光17变压器【灾后重建】,国兴光18【2018年重过载】,三街排6【纯农排变】","poweroffReason":"【停电原因】由于站外开关跳闸导致３５ＫＶ固城变电站西农业线５１７线路全线停电 【变更送电】因抢修进度加快原因，送电时间由１３：００变更为１１：４０ 【发布渠道】通过９５５９８发布","powerTime":"2019-07-13 11:06:57","powerComm":"已送电","subsNo":"","lineNo":"","tgNo":"","tgName":null,"infoStatus":"1","orgName":"国网定兴县供电公司","typeName":null,"infoStatusName":null,"dateDay":null,"orgNos":null,"nowTime":null,"countyName":null,"streetName":null,"villageName":null,"roadName":null,"communityName":null,"tranName":null,"sdLineName":null,"cityCode":"1340609","cityName":"国网定兴县供电公司","provinceCode":null,"stopTime":"2019-07-13 11:40:00","powerType":"全部","powerOffArea":"【全线路停电】停四街光3变压器（100）,二街光6,肖村营光6,0694659948-定兴县固城中学-专变-237548862-固城中学2号便,三街光8【2019年预安排】,国兴光16变压器【灾后重建】,国兴光13,四街光5,0696770209-定兴县马家庄幼儿园-专变-240818926-马家庄幼儿园,四通盛世汽车配件厂,八街光8【2018年重过载】,八街光7【2018年重过载】,八街光3,四街排5【纯农排变】,四街排8【纯农排变】,肖村营光5【2019年预安排】,四街光1,肖村营排7【纯农排变】,国兴排11【纯农排变】,三里铺光1,肖村营光9【2018年重过载】,肖村营光10【2019年预安排】,八街混1（固城中学分户）,四街光6,国兴光3,肖村营排4【纯农排变】,八街煤厂-200,肖村营排3【纯农排变】,四街排7【纯农排变】,固城马家庄光4,国兴排14【纯农排变】,国兴小学-500,0694659948-定兴县固城中学-专变-237550448-固城中学1号便,三街光6,新二街光4,肖村营排9【纯农排变】,三街排4【纯农排变】,四街排1,四街排2,国兴光2,三里铺光3【2018年重过载】,三街排2【纯农排变】,马庄排1【纯农排变】,肖村营光1,国兴排12【纯农排变】,二街村排4【纯农排变】,国兴光15变压器【灾后重建】,新八街村光4,四街光2,二街光3,八街光9变压器,新四街光4,100,三街光2,三街排1【纯农排变】,国兴排13【纯农排变】,北京大风公司,国兴光7,固城中学,八街煤厂,二街排1【纯农排变】,四街排3,三街排3【纯农排变】,肖村营光3,肖村营排8【纯农排变】,0691853871-定兴县肖村乡肖村营中心小学-专变-235619783-肖村营中心小学-400,三里铺光2【2018年重过载】,固城马家庄光2,固城马家庄光1,新八街光2,国兴光1变压器,四街排6【纯农排变】,八街光6,八街光5,三街光5,北庄头光4,鑫泉装饰材料-100,三街光1,八街光1,二街排3【纯农排变】,新国兴光11,肖村营光7,固城马家庄光5,二街光5,国兴光10【2018年重过载】,三街光3,二街排2【纯农排变】,肖村营光4,国兴光14变压器【灾后重建】,肖村营排6【纯农排变】,二街光1,新国兴光5,肖村营光8【2018年重过载】,肖村营光2,北庄头光14【2018年四批补强】,三里铺排1【纯农排变】,三街光4变压器（200）,0692010888-固城镇固城中心小学-专变-236731529-固城中心小学-400,固城马家庄光3,三街大棚排【纯农排变】,二街光7变压器,三街光7【2018年重过载】,国兴光12,160,四街板厂,三里铺光4变压器,四街排4【纯农排变】,0681212062-保定市交通运输局定兴县养路工区-专变-221711517-养路工区-200,国兴光17变压器【灾后重建】,国兴光18【2018年重过载】,三街排6【纯农排变】","powerOffReason":"【停电原因】由于站外开关跳闸导致３５ＫＶ固城变电站西农业线５１７线路全线停电 【变更送电】因抢修进度加快原因，送电时间由１３：００变更为１１：４０ 【发布渠道】通过９５５９８发布","powerOffId":"2019071313000078"},{"poweroffId":2019071313000071,"sgpoweroffId":null,"subsName":"","lineName":"10kV东北郊站521线路","pubTranName":"B136柱上变压器,","scope":"【影响街道/乡镇】红阳路 【高危重要客户】无 【影响客户】特困楼","startTime":"2019-07-13 09:40:00","stopDate":"2019-07-13 10:40:00","orgNo":"13406","typeCode":"电网故障停限电","poweroffArea":"【单台区停电】停B136柱上变压器","poweroffReason":"【停电原因】由于低压保险片烧导致１０ＫＶ东北郊变电站５２１线路Ｂ１３６公变台区停电【变更送电】无【发布渠道】通过９５５９８发布","powerTime":"2019-07-13 10:09:00","powerComm":"已送电","subsNo":"","lineNo":"","tgNo":"","tgName":null,"infoStatus":"1","orgName":"保定供电公司","typeName":null,"infoStatusName":null,"dateDay":null,"orgNos":null,"nowTime":null,"countyName":null,"streetName":null,"villageName":null,"roadName":null,"communityName":null,"tranName":null,"sdLineName":null,"cityCode":"13406","cityName":"保定供电公司","provinceCode":null,"stopTime":"2019-07-13 10:40:00","powerType":"全部","powerOffArea":"【单台区停电】停B136柱上变压器","powerOffReason":"【停电原因】由于低压保险片烧导致１０ＫＶ东北郊变电站５２１线路Ｂ１３６公变台区停电【变更送电】无【发布渠道】通过９５５９８发布","powerOffId":"2019071313000071"}],"pageModel":{"pageNow":827,"totalCount":10973,"totalPage":1098,"tableRows":0,"pageCount":10,"beginCount":8260},"isExperi":"1"}