{"message":"","today":"2020-06-15","seleList":[{"poweroffId":2019071113000209,"sgpoweroffId":null,"subsName":"","lineName":"10kV539羊平线","pubTranName":"寺羊平公用照明2台区,大羊平公用农业1台区,大羊平村公用照明一台区,大羊平公用照明4台区,大羊平公用农业4台区【纯农排变】,大羊平村公用照明二台区,大羊平公用农业3台区【纯农排变】,小陈村公用照明4台区,寺羊平南头,寺羊平村公用照明一台区,小陈村公用农业3台区【纯农排变】,大羊平公用农业6台区,大羊平公用农业5台区【纯农排变】,大羊平公用照明3台区,大羊平公用农业2台区【纯农排变】,寺羊平村北,寺羊平南口,","scope":"【影响街道/乡镇】杨家庄乡【高危重要客户】无【影响客户】大羊平、寺羊平","startTime":"2019-07-11 13:00:00","stopDate":"2019-07-11 15:00:00","orgNo":"1340610","typeCode":"其他临时停电","poweroffArea":"【分支停电】停寺羊平公用照明2台区,大羊平公用农业1台区,大羊平村公用照明一台区,大羊平公用照明4台区,大羊平公用农业4台区【纯农排变】,大羊平村公用照明二台区,大羊平公用农业3台区【纯农排变】,小陈村公用照明4台区,寺羊平南头,寺羊平村公用照明一台区,小陈村公用农业3台区【纯农排变】,大羊平公用农业6台区,大羊平公用农业5台区【纯农排变】,大羊平公用照明3台区,大羊平公用农业2台区【纯农排变】,寺羊平村北,寺羊平南口","poweroffReason":"【停电原因】由于弓子线打火需停电进行紧急检修导致１１０ＫＶ东亭变电站１０ＫＶ５３９羊平线路主干２９号杆０２号断路器以下线路停电 【变更送电】无 【发布渠道】９５５９８","powerTime":"2019-07-11 14:02:50","powerComm":"已送电","subsNo":"","lineNo":"","tgNo":"","tgName":null,"infoStatus":"1","orgName":"国网定州市供电公司","typeName":null,"infoStatusName":null,"dateDay":null,"orgNos":null,"nowTime":null,"countyName":null,"streetName":null,"villageName":null,"roadName":null,"communityName":null,"tranName":null,"sdLineName":null,"cityCode":"1340610","cityName":"国网定州市供电公司","provinceCode":null,"stopTime":"2019-07-11 15:00:00","powerType":"全部","powerOffArea":"【分支停电】停寺羊平公用照明2台区,大羊平公用农业1台区,大羊平村公用照明一台区,大羊平公用照明4台区,大羊平公用农业4台区【纯农排变】,大羊平村公用照明二台区,大羊平公用农业3台区【纯农排变】,小陈村公用照明4台区,寺羊平南头,寺羊平村公用照明一台区,小陈村公用农业3台区【纯农排变】,大羊平公用农业6台区,大羊平公用农业5台区【纯农排变】,大羊平公用照明3台区,大羊平公用农业2台区【纯农排变】,寺羊平村北,寺羊平南口","powerOffReason":"【停电原因】由于弓子线打火需停电进行紧急检修导致１１０ＫＶ东亭变电站１０ＫＶ５３９羊平线路主干２９号杆０２号断路器以下线路停电 【变更送电】无 【发布渠道】９５５９８","powerOffId":"2019071113000209"},{"poweroffId":2019071113000206,"sgpoweroffId":null,"subsName":"","lineName":"10KV庄里511","pubTranName":"三道港混用3台区,变压器,山南村内,庄里村内2,铁角七亩地,南边桥村内,山南机井,山南盘坡口,铁角村内,太行重钙厂,高铺村东台区,柏林城村口,罗古台大泽路口台区变压器,桑元涧村西机井,九龙中心卫生院,罗古台广场台区,罗古台前台台区,盘坡村内,北峪塔榆树峪,山南马家地,桑园涧村2,桑元涧白凡台区,清泉寺村内,三道港混用2台区,北边桥路边台区【纯农排变】,罗古台村内,北峪塔水湖子,晋先房地产,南湖李生龙,北边桥村内,白草畔景区2,建武石料厂,山南大队【纯农排变】,北庄台1,高铺机井2,三道港村内,大泽村内,保定基泰旅游315,山南村北,岭南台混用,三道港狼王港台区,峨峪村东台区,镇厂供电所2,庄头村内,山南村西台区,三道港混用,峨峪村内,三道港混用1台区,庄里上西铺,盘坡黑渠,岭南台罐里台区,柏林城村内,九龙收费站630KVA专变,双龙山庄,桑元涧村东台区,顺发选厂,白草畔景区1,三道港混用4台区,0469097997-鑫鑫铁选二厂-专变-46719064-鑫鑫铁选厂2,南庄村内,巨力选厂2,峨峪三台区,桑园涧村内,罗古台柏城峪,岭南台村南,白草畔景区3,山南马家地二台区,铁角路边台区,峨峪村南台区变压器,谭爱军,庄头艾家庄,玉鑫养殖场,天鸿金矿,桑元涧机井,北边桥东山,基泰野三坡旅游公司160KVA专变,创业选厂10KVA专变,杨春齐变压器,山南刘家峪台区,庄里水库,北庄村(北井),巨力选厂,高铺村内,创业选厂400KVA专变,东升选矿厂1,庄里村内,罗古台北山背后,峨峪砖厂,北庄村（北井）,庄里村北台区,联通(九龙),农贸市场,谭爱军2,峨峪机井,庄头双岗台区,岭南台村内,南湖村内,涞水农德长毛兔养殖,山南派出所台区,联合村内,罗古台北山背后台区,山南新台区,北峪塔榆树峪井台区,飞龙谷,联合村山上2,盘坡狼安,北峪塔卧龙港2,道沟村内,南庄水泉台区,铁角下坨,三道港基地台区,","scope":"【影响街道/乡镇】九龙镇 【高危重要客户】无 【影响客户】峨峪村、联合村、盘破村、山南村、桑园涧村、罗古台村、大泽村、北峪塔村、南边桥村、南湖村、清泉寺村、铁角村、南庄村、柏林成村、庄里村、庄头村、道沟村、三道港村、高铺村、岭南台村、北边桥村、农贸市场、百草畔","startTime":"2019-07-16 14:30:00","stopDate":"2019-07-16 16:00:00","orgNo":"1340614","typeCode":"临时停电","poweroffArea":"【全线路停电】停三道港混用3台区,变压器,山南村内,庄里村内2,铁角七亩地,南边桥村内,山南机井,山南盘坡口,铁角村内,太行重钙厂,高铺村东台区,柏林城村口,罗古台大泽路口台区变压器,桑元涧村西机井,九龙中心卫生院,罗古台广场台区,罗古台前台台区,盘坡村内,北峪塔榆树峪,山南马家地,桑园涧村2,桑元涧白凡台区,清泉寺村内,三道港混用2台区,北边桥路边台区【纯农排变】,罗古台村内,北峪塔水湖子,晋先房地产,南湖李生龙,北边桥村内,白草畔景区2,建武石料厂,山南大队【纯农排变】,北庄台1,高铺机井2,镇厂供电所2,庄头村内,山南村西台区,北边桥东山,基泰野三坡旅游公司160KVA专变,三道港村内,大泽村内,保定基泰旅游315,山南村北,岭南台混用,三道港狼王港台区,峨峪村东台区,创业选厂10KVA专变,杨春齐变压器,山南刘家峪台区,庄里水库,北庄村(北井),巨力选厂,高铺村内,创业选厂400KVA专变,东升选矿厂1,庄里村内,罗古台北山背后,峨峪砖厂,北庄村（北井）,庄里村北台区,联通(九龙),农贸市场,谭爱军2,三道港混用,峨峪村内,三道港混用1台区,庄里上西铺,盘坡黑渠,岭南台罐里台区,柏林城村内,九龙收费站630KVA专变,双龙山庄,桑元涧村东台区,顺发选厂,白草畔景区1,三道港混用4台区,0469097997-鑫鑫铁选二厂-专变-46719064-鑫鑫铁选厂2,南庄村内,巨力选厂2,峨峪三台区,桑园涧村内,罗古台柏城峪,岭南台村南,白草畔景区3,山南马家地二台区,铁角路边台区,峨峪村南台区变压器,谭爱军,庄头艾家庄,玉鑫养殖场,天鸿金矿,桑元涧机井,峨峪机井,庄头双岗台区,岭南台村内,南湖村内,涞水农德长毛兔养殖,山南派出所台区,联合村内,罗古台北山背后台区,山南新台区,北峪塔榆树峪井台区,飞龙谷,联合村山上2,盘坡狼安,北峪塔卧龙港2,道沟村内,南庄水泉台区,铁角下坨,三道港基地台区","poweroffReason":"【停电原因】由于保护装置改定值导致３５ＫＶ镇厂变电站１０ＫＶ庄里５１１线路全线停电 【变更送电】无 【发布渠道】通过９５５９８发布","powerTime":"2019-07-16 15:20:27","powerComm":"已送电","subsNo":"","lineNo":"","tgNo":"","tgName":null,"infoStatus":"1","orgName":"国网涞水县供电公司","typeName":null,"infoStatusName":null,"dateDay":null,"orgNos":null,"nowTime":null,"countyName":null,"streetName":null,"villageName":null,"roadName":null,"communityName":null,"tranName":null,"sdLineName":null,"cityCode":"1340614","cityName":"国网涞水县供电公司","provinceCode":null,"stopTime":"2019-07-16 16:00:00","powerType":"全部","powerOffArea":"【全线路停电】停三道港混用3台区,变压器,山南村内,庄里村内2,铁角七亩地,南边桥村内,山南机井,山南盘坡口,铁角村内,太行重钙厂,高铺村东台区,柏林城村口,罗古台大泽路口台区变压器,桑元涧村西机井,九龙中心卫生院,罗古台广场台区,罗古台前台台区,盘坡村内,北峪塔榆树峪,山南马家地,桑园涧村2,桑元涧白凡台区,清泉寺村内,三道港混用2台区,北边桥路边台区【纯农排变】,罗古台村内,北峪塔水湖子,晋先房地产,南湖李生龙,北边桥村内,白草畔景区2,建武石料厂,山南大队【纯农排变】,北庄台1,高铺机井2,镇厂供电所2,庄头村内,山南村西台区,北边桥东山,基泰野三坡旅游公司160KVA专变,三道港村内,大泽村内,保定基泰旅游315,山南村北,岭南台混用,三道港狼王港台区,峨峪村东台区,创业选厂10KVA专变,杨春齐变压器,山南刘家峪台区,庄里水库,北庄村(北井),巨力选厂,高铺村内,创业选厂400KVA专变,东升选矿厂1,庄里村内,罗古台北山背后,峨峪砖厂,北庄村（北井）,庄里村北台区,联通(九龙),农贸市场,谭爱军2,三道港混用,峨峪村内,三道港混用1台区,庄里上西铺,盘坡黑渠,岭南台罐里台区,柏林城村内,九龙收费站630KVA专变,双龙山庄,桑元涧村东台区,顺发选厂,白草畔景区1,三道港混用4台区,0469097997-鑫鑫铁选二厂-专变-46719064-鑫鑫铁选厂2,南庄村内,巨力选厂2,峨峪三台区,桑园涧村内,罗古台柏城峪,岭南台村南,白草畔景区3,山南马家地二台区,铁角路边台区,峨峪村南台区变压器,谭爱军,庄头艾家庄,玉鑫养殖场,天鸿金矿,桑元涧机井,峨峪机井,庄头双岗台区,岭南台村内,南湖村内,涞水农德长毛兔养殖,山南派出所台区,联合村内,罗古台北山背后台区,山南新台区,北峪塔榆树峪井台区,飞龙谷,联合村山上2,盘坡狼安,北峪塔卧龙港2,道沟村内,南庄水泉台区,铁角下坨,三道港基地台区","powerOffReason":"【停电原因】由于保护装置改定值导致３５ＫＶ镇厂变电站１０ＫＶ庄里５１１线路全线停电 【变更送电】无 【发布渠道】通过９５５９８发布","powerOffId":"2019071113000206"},{"poweroffId":2019071113000171,"sgpoweroffId":null,"subsName":"","lineName":"10kV512祁口线","pubTranName":"天信绒毛厂,蠡县恒通纺织有限公司变压器400KVA,蠡县安居物业服务有限公司变压器,志西综合5台区,辇庄综合5台区,辇庄综合4台区,祁口五欣染整厂,和平纺织变压器,志西综合7台区,祁口综合5台区,蠡县恒通纺织有限公司变压器630KVA1号,辇庄综合7台区,立永养殖场,祁口阳光毛纺厂,祁口综合4台区,蠡县恒通纺织有限公司630KVA2号,辇庄综合6台区,东房,吴金马开花厂,蠡县辇庄地毯纺织厂变压器,原料加工厂,辇庄友谊地毯纱厂,辇庄综合9台区,祁口综合6台区,地毯纱纺织厂,志东综合2台区,华中西厂,祁口综合9台区,辇庄综合11台区,辇庄综合2台区,辇庄综合1台区,辇庄大洋农排2台区【纯农排变】,0469440919-蠡县鸿途纺织有限公司-专变-227146956-鸿途变压器,祁口综合11台区,刘顺昌,河山,平安厂,蠡县五鑫毛纺染厂,蠡县辇庄殿军开花厂变压器,祁口综合1台区,祁口综合7台区,祁口综合10台区,辇庄大洋农排1台区【纯农排变】,辇庄同雷开花厂,辇庄村北板厂,和平西厂,和平东厂,蠡县新建纺织厂,0469438996-蠡县辇庄发达针刺厂-专变-46810907-和平纺织厂,吴士杰,0469440629-会胜-专变-46810896-会胜,刘兰僧,辇庄综合10台区,蠡县恒通纺织有限公司,辇庄皮毛厂,北丹农排7台区【纯农排变】,吴建芬,祁口农排1台区【纯农排变】,德华地毯沙厂,创业有限公司,立新,辇庄万达开花厂变压器,会胜面粉厂,德华洗毛,吴振军,振东开花厂,辇庄面粉厂,志东北地纱,辇庄地毯沙,和平皮毛厂,祁口综合2台区,辇庄综合3台区,蠡县辇庄殿召针刺厂,辇庄综合8台区,祁口综合3台区,吴殿壮,纺织厂,志西综合3台区,辇庄大洋农排3台区【纯农排变】,东申,蠡县恒通纺织有限公司630,北辛庄板厂,蠡县辇庄占熬开花厂,","scope":"【影响街道/乡镇】北郭丹镇【高危重要客户】无【影响客户】辇庄村、北郭丹村（北丹）、东志愿村、志东村、西志愿村、志西村、南辛庄村、季家佐村、祁家口村、祁口村","startTime":"2019-07-16 04:00:00","stopDate":"2019-07-16 14:00:00","orgNo":"1340616","typeCode":"临时停电","poweroffArea":"【全线路停电】停华中西厂,天信绒毛厂,蠡县恒通纺织有限公司变压器400KVA,蠡县安居物业服务有限公司变压器,志西综合5台区,辇庄综合5台区,辇庄综合4台区,祁口五欣染整厂,和平纺织变压器,志西综合7台区,祁口综合5台区,蠡县恒通纺织有限公司变压器630KVA1号,辇庄综合7台区,立永养殖场,祁口阳光毛纺厂,蠡县恒通纺织有限公司630KVA2号,辇庄综合6台区,东房,吴金马开花厂,原料加工厂,祁口农排1台区【纯农排变】,辇庄友谊地毯纱厂,辇庄综合9台区,祁口综合6台区,地毯纱纺织厂,志东综合2台区,蠡县恒通纺织有限公司,祁口综合9台区,辇庄综合11台区,辇庄综合2台区,辇庄综合1台区,辇庄大洋农排2台区【纯农排变】,0469440919-蠡县鸿途纺织有限公司-专变-227146956-鸿途变压器,祁口综合11台区,祁口综合2台区,辇庄综合3台区,蠡县辇庄殿召针刺厂,志西综合3台区,蠡县辇庄占熬开花厂,辇庄大洋农排3台区【纯农排变】,东申,蠡县恒通纺织有限公司630,北辛庄板厂,会胜面粉厂,德华洗毛,德华地毯沙厂,创业有限公司,辇庄综合8台区,祁口综合3台区,吴殿壮,纺织厂,刘顺昌,河山,平安厂,祁口综合4台区,蠡县五鑫毛纺染厂,蠡县辇庄殿军开花厂变压器,祁口综合1台区,祁口综合7台区,祁口综合10台区,辇庄大洋农排1台区【纯农排变】,辇庄皮毛厂,北丹农排7台区【纯农排变】,吴建芬,吴振军,振东开花厂,辇庄面粉厂,志东北地纱,辇庄地毯沙,和平皮毛厂,辇庄同雷开花厂,辇庄村北板厂,和平西厂,和平东厂,蠡县新建纺织厂,0469438996-蠡县辇庄发达针刺厂-专变-46810907-和平纺织厂,吴士杰,0469440629-会胜-专变-46810896-会胜,刘兰僧,辇庄综合10台区,立新,辇庄万达开花厂变压器,蠡县辇庄地毯纺织厂变压器","poweroffReason":"【停电原因】由于１１０ＫＶ刘铭庄站３５ＫＶ母联开关引线更换、保护改定值导致３５ＫＶ郭丹变电站１０ＫＶ祁口５１２线路全线停电【变更送电】因工作量大的原因，送电时间由１２:００变更为１４:００【发布渠道】通过９５５９８发布","powerTime":"2019-07-16 13:22:16","powerComm":"已送电","subsNo":"","lineNo":"","tgNo":"","tgName":null,"infoStatus":"1","orgName":"国网蠡县供电公司","typeName":null,"infoStatusName":null,"dateDay":null,"orgNos":null,"nowTime":null,"countyName":null,"streetName":null,"villageName":null,"roadName":null,"communityName":null,"tranName":null,"sdLineName":null,"cityCode":"1340616","cityName":"国网蠡县供电公司","provinceCode":null,"stopTime":"2019-07-16 14:00:00","powerType":"全部","powerOffArea":"【全线路停电】停华中西厂,天信绒毛厂,蠡县恒通纺织有限公司变压器400KVA,蠡县安居物业服务有限公司变压器,志西综合5台区,辇庄综合5台区,辇庄综合4台区,祁口五欣染整厂,和平纺织变压器,志西综合7台区,祁口综合5台区,蠡县恒通纺织有限公司变压器630KVA1号,辇庄综合7台区,立永养殖场,祁口阳光毛纺厂,蠡县恒通纺织有限公司630KVA2号,辇庄综合6台区,东房,吴金马开花厂,原料加工厂,祁口农排1台区【纯农排变】,辇庄友谊地毯纱厂,辇庄综合9台区,祁口综合6台区,地毯纱纺织厂,志东综合2台区,蠡县恒通纺织有限公司,祁口综合9台区,辇庄综合11台区,辇庄综合2台区,辇庄综合1台区,辇庄大洋农排2台区【纯农排变】,0469440919-蠡县鸿途纺织有限公司-专变-227146956-鸿途变压器,祁口综合11台区,祁口综合2台区,辇庄综合3台区,蠡县辇庄殿召针刺厂,志西综合3台区,蠡县辇庄占熬开花厂,辇庄大洋农排3台区【纯农排变】,东申,蠡县恒通纺织有限公司630,北辛庄板厂,会胜面粉厂,德华洗毛,德华地毯沙厂,创业有限公司,辇庄综合8台区,祁口综合3台区,吴殿壮,纺织厂,刘顺昌,河山,平安厂,祁口综合4台区,蠡县五鑫毛纺染厂,蠡县辇庄殿军开花厂变压器,祁口综合1台区,祁口综合7台区,祁口综合10台区,辇庄大洋农排1台区【纯农排变】,辇庄皮毛厂,北丹农排7台区【纯农排变】,吴建芬,吴振军,振东开花厂,辇庄面粉厂,志东北地纱,辇庄地毯沙,和平皮毛厂,辇庄同雷开花厂,辇庄村北板厂,和平西厂,和平东厂,蠡县新建纺织厂,0469438996-蠡县辇庄发达针刺厂-专变-46810907-和平纺织厂,吴士杰,0469440629-会胜-专变-46810896-会胜,刘兰僧,辇庄综合10台区,立新,辇庄万达开花厂变压器,蠡县辇庄地毯纺织厂变压器","powerOffReason":"【停电原因】由于１１０ＫＶ刘铭庄站３５ＫＶ母联开关引线更换、保护改定值导致３５ＫＶ郭丹变电站１０ＫＶ祁口５１２线路全线停电【变更送电】因工作量大的原因，送电时间由１２:００变更为１４:００【发布渠道】通过９５５９８发布","powerOffId":"2019071113000171"},{"poweroffId":2019071113000164,"sgpoweroffId":null,"subsName":"","lineName":"10kV515美林线","pubTranName":"0469440209-保定海欣长毛绒有限公司-专变-78660830-保定海欣长毛绒有限公司100-2,0469440209-保定海欣长毛绒有限公司-专变-78630965-保定海欣长毛绒有限公司变压器,0469440209-保定海欣长毛绒有限公司-专变-47629011-保定海欣长毛绒有限公司200,0469440209-保定海欣长毛绒有限公司-专变-46810936-保定海欣长毛绒有限公司400,0469440209-保定海欣长毛绒有限公司-专变-78630890-保定海欣长毛绒有限公司100,0469440209-保定海欣长毛绒有限公司-专变-132649651-保定海欣长毛绒有限公司800,","scope":"【影响街道/乡镇】北郭丹镇【高危重要客户】无【影响客户】保定海欣长毛绒有限公司","startTime":"2019-07-16 04:00:00","stopDate":"2019-07-16 14:00:00","orgNo":"1340616","typeCode":"临时停电","poweroffArea":"【全线路停电】停0469440209-保定海欣长毛绒有限公司-专变-78660830-保定海欣长毛绒有限公司100-2,0469440209-保定海欣长毛绒有限公司-专变-78630965-保定海欣长毛绒有限公司变压器,0469440209-保定海欣长毛绒有限公司-专变-47629011-保定海欣长毛绒有限公司200,0469440209-保定海欣长毛绒有限公司-专变-46810936-保定海欣长毛绒有限公司400,0469440209-保定海欣长毛绒有限公司-专变-78630890-保定海欣长毛绒有限公司100,0469440209-保定海欣长毛绒有限公司-专变-132649651-保定海欣长毛绒有限公司800","poweroffReason":"【停电原因】由于１１０ＫＶ刘铭庄站３５ＫＶ母联开关引线更换、保护改定值导致３５ＫＶ郭丹变电站１０ＫＶ美林５１５线路全线停电【变更送电】因工作量大的原因，送电时间由１２:００变更为１４:００【发布渠道】通过９５５９８发布","powerTime":"2019-07-16 13:22:55","powerComm":"已送电","subsNo":"","lineNo":"","tgNo":"","tgName":null,"infoStatus":"1","orgName":"国网蠡县供电公司","typeName":null,"infoStatusName":null,"dateDay":null,"orgNos":null,"nowTime":null,"countyName":null,"streetName":null,"villageName":null,"roadName":null,"communityName":null,"tranName":null,"sdLineName":null,"cityCode":"1340616","cityName":"国网蠡县供电公司","provinceCode":null,"stopTime":"2019-07-16 14:00:00","powerType":"全部","powerOffArea":"【全线路停电】停0469440209-保定海欣长毛绒有限公司-专变-78660830-保定海欣长毛绒有限公司100-2,0469440209-保定海欣长毛绒有限公司-专变-78630965-保定海欣长毛绒有限公司变压器,0469440209-保定海欣长毛绒有限公司-专变-47629011-保定海欣长毛绒有限公司200,0469440209-保定海欣长毛绒有限公司-专变-46810936-保定海欣长毛绒有限公司400,0469440209-保定海欣长毛绒有限公司-专变-78630890-保定海欣长毛绒有限公司100,0469440209-保定海欣长毛绒有限公司-专变-132649651-保定海欣长毛绒有限公司800","powerOffReason":"【停电原因】由于１１０ＫＶ刘铭庄站３５ＫＶ母联开关引线更换、保护改定值导致３５ＫＶ郭丹变电站１０ＫＶ美林５１５线路全线停电【变更送电】因工作量大的原因，送电时间由１２:００变更为１４:００【发布渠道】通过９５５９８发布","powerOffId":"2019071113000164"},{"poweroffId":2019071113000163,"sgpoweroffId":null,"subsName":"","lineName":"10kV516南郭丹线","pubTranName":"东丹综合5台区,南丹综合2台区,东丹农排1台区【纯农排变】,南丹综合6台区,蠡县绿源科技养殖有限公司,客户投资_南丹综合10台区,东丹第二毛纺厂,客户投资_南丹综合8台区,南丹农排6台区【纯农排变】,保定金若兰皮具有限公司,客户投资_西丹综合7台区,西丹综合3台区,西丹浇地,东丹第一毛纺厂,南丹综合4台区,西丹综合4台区,西丹综合5台区,东丹史大通,东丹综合4台区,客户投资_南丹综合11台区,？县旭日毛呢纺织厂,蠡县鹤彩纺织品有限公司,东丹综合9台区,南丹综合7台区,大洋农排8台区【纯农排变】,东丹综合1台区,南丹综合1台区,东丹第二毛纺织厂200变压器,南丹综合5台区,客户投资_西丹综合6台区,西丹综合2台区,中国移动通信集团河北有限公司蠡县分公司,蠡县春晟纺纱厂变压器,东丹农排2台区【纯农排变】,东丹综合13台区,客户投资_东丹综合2台区,西丹农排1台区【纯农排变】,西丹综合1台区,西丹浇地2,东丹综合6台区,东丹综合8台区,蠡县杰欣毛纺厂,东丹浇地2,蠡县东丹第二纺织厂变压器,客户投资_东丹综合3台区,蠡县东丹第二毛纺厂,西丹农排5台区【纯农排变】,建秋厂,东丹综合11台区,南丹综合3台区,东丹综合7台区,蠡县朝庆纤维加工厂,","scope":"【影响街道/乡镇】北郭丹镇【高危重要客户】无【影响客户】东郭丹村（东丹）、南郭丹村（南丹）、西郭丹村（西丹）","startTime":"2019-07-16 04:00:00","stopDate":"2019-07-16 14:00:00","orgNo":"1340616","typeCode":"临时停电","poweroffArea":"【全线路停电】停建秋厂,蠡县东丹第二毛纺厂,西丹农排1台区【纯农排变】,客户投资_南丹综合10台区,西丹综合1台区,中国移动通信集团河北有限公司蠡县分公司,南丹综合4台区,蠡县东丹第二纺织厂变压器,大洋农排8台区【纯农排变】,客户投资_东丹综合3台区,西丹综合4台区,蠡县春晟纺纱厂变压器,东丹综合11台区,东丹综合1台区,南丹综合3台区,西丹综合5台区,客户投资_南丹综合11台区,东丹综合6台区,东丹史大通,东丹综合7台区,？县旭日毛呢纺织厂,西丹浇地2,蠡县鹤彩纺织品有限公司,东丹综合8台区,东丹综合4台区,南丹综合1台区,东丹综合9台区,蠡县杰欣毛纺厂,东丹第二毛纺织厂200变压器,东丹综合5台区,南丹综合5台区,蠡县朝庆纤维加工厂,南丹综合2台区,东丹农排1台区【纯农排变】,南丹综合6台区,客户投资_西丹综合7台区,西丹综合2台区,蠡县绿源科技养殖有限公司,东丹农排2台区【纯农排变】,西丹浇地,东丹第二毛纺厂,东丹综合13台区,客户投资_南丹综合8台区,东丹第一毛纺厂,东丹浇地2,客户投资_东丹综合2台区,保定金若兰皮具有限公司,西丹综合3台区,西丹农排5台区【纯农排变】,客户投资_西丹综合6台区,南丹农排6台区【纯农排变】,南丹综合7台区","poweroffReason":"【停电原因】由于１１０ＫＶ刘铭庄站３５ＫＶ母联开关引线更换、保护改定值导致３５ＫＶ郭丹变电站１０ＫＶ南郭丹５１６线路全线停电【变更送电】因工作量大的原因，送电时间由１２:００变更为１４:００【发布渠道】通过９５５９８发布","powerTime":"2019-07-16 13:22:36","powerComm":"已送电","subsNo":"","lineNo":"","tgNo":"","tgName":null,"infoStatus":"1","orgName":"国网蠡县供电公司","typeName":null,"infoStatusName":null,"dateDay":null,"orgNos":null,"nowTime":null,"countyName":null,"streetName":null,"villageName":null,"roadName":null,"communityName":null,"tranName":null,"sdLineName":null,"cityCode":"1340616","cityName":"国网蠡县供电公司","provinceCode":null,"stopTime":"2019-07-16 14:00:00","powerType":"全部","powerOffArea":"【全线路停电】停建秋厂,蠡县东丹第二毛纺厂,西丹农排1台区【纯农排变】,客户投资_南丹综合10台区,西丹综合1台区,中国移动通信集团河北有限公司蠡县分公司,南丹综合4台区,蠡县东丹第二纺织厂变压器,大洋农排8台区【纯农排变】,客户投资_东丹综合3台区,西丹综合4台区,蠡县春晟纺纱厂变压器,东丹综合11台区,东丹综合1台区,南丹综合3台区,西丹综合5台区,客户投资_南丹综合11台区,东丹综合6台区,东丹史大通,东丹综合7台区,？县旭日毛呢纺织厂,西丹浇地2,蠡县鹤彩纺织品有限公司,东丹综合8台区,东丹综合4台区,南丹综合1台区,东丹综合9台区,蠡县杰欣毛纺厂,东丹第二毛纺织厂200变压器,东丹综合5台区,南丹综合5台区,蠡县朝庆纤维加工厂,南丹综合2台区,东丹农排1台区【纯农排变】,南丹综合6台区,客户投资_西丹综合7台区,西丹综合2台区,蠡县绿源科技养殖有限公司,东丹农排2台区【纯农排变】,西丹浇地,东丹第二毛纺厂,东丹综合13台区,客户投资_南丹综合8台区,东丹第一毛纺厂,东丹浇地2,客户投资_东丹综合2台区,保定金若兰皮具有限公司,西丹综合3台区,西丹农排5台区【纯农排变】,客户投资_西丹综合6台区,南丹农排6台区【纯农排变】,南丹综合7台区","powerOffReason":"【停电原因】由于１１０ＫＶ刘铭庄站３５ＫＶ母联开关引线更换、保护改定值导致３５ＫＶ郭丹变电站１０ＫＶ南郭丹５１６线路全线停电【变更送电】因工作量大的原因，送电时间由１２:００变更为１４:００【发布渠道】通过９５５９８发布","powerOffId":"2019071113000163"},{"poweroffId":2019071113000156,"sgpoweroffId":null,"subsName":"","lineName":"10kV518大洋厂线","pubTranName":"紫微山造药厂,蠡县武营农机服务专业合作社,蠡县和禄汽车检测有限公司,南丹农排1台区【纯农排变】,南丹农排3台区【纯农排变】,西丹农排4台区【纯农排变】,永胜开花,永腾洗毛厂,南丹农排2台区【纯农排变】,西丹浇地2,南丹农排5台区【纯农排变】,西丹农排3台区【纯农排变】,大洋食品有限公司,南丹农排4台区【纯农排变】,蠡县精准机械制造厂变压器,西丹浇地,","scope":"【影响街道/乡镇】北郭丹镇【高危重要客户】无【影响客户】大洋食品有限公司","startTime":"2019-07-16 04:00:00","stopDate":"2019-07-16 14:00:00","orgNo":"1340616","typeCode":"临时停电","poweroffArea":"【全线路停电】停南丹农排2台区【纯农排变】,南丹农排5台区【纯农排变】,大洋食品有限公司,西丹农排3台区【纯农排变】,南丹农排3台区【纯农排变】,蠡县和禄汽车检测有限公司,西丹农排4台区【纯农排变】,永胜开花,南丹农排4台区【纯农排变】,西丹浇地,南丹农排1台区【纯农排变】,蠡县精准机械制造厂变压器,紫微山造药厂,蠡县武营农机服务专业合作社,西丹浇地2,永腾洗毛厂","poweroffReason":"【停电原因】由于１１０ＫＶ刘铭庄站３５ＫＶ母联开关引线更换、保护改定值导致３５ＫＶ郭丹变电站１０ＫＶ大洋厂５１８线路全线停电【变更送电】因工作量大的原因，送电时间由１２:００变更为１４:００【发布渠道】通过９５５９８发布","powerTime":"2019-07-16 13:23:43","powerComm":"已送电","subsNo":"","lineNo":"","tgNo":"","tgName":null,"infoStatus":"1","orgName":"国网蠡县供电公司","typeName":null,"infoStatusName":null,"dateDay":null,"orgNos":null,"nowTime":null,"countyName":null,"streetName":null,"villageName":null,"roadName":null,"communityName":null,"tranName":null,"sdLineName":null,"cityCode":"1340616","cityName":"国网蠡县供电公司","provinceCode":null,"stopTime":"2019-07-16 14:00:00","powerType":"全部","powerOffArea":"【全线路停电】停南丹农排2台区【纯农排变】,南丹农排5台区【纯农排变】,大洋食品有限公司,西丹农排3台区【纯农排变】,南丹农排3台区【纯农排变】,蠡县和禄汽车检测有限公司,西丹农排4台区【纯农排变】,永胜开花,南丹农排4台区【纯农排变】,西丹浇地,南丹农排1台区【纯农排变】,蠡县精准机械制造厂变压器,紫微山造药厂,蠡县武营农机服务专业合作社,西丹浇地2,永腾洗毛厂","powerOffReason":"【停电原因】由于１１０ＫＶ刘铭庄站３５ＫＶ母联开关引线更换、保护改定值导致３５ＫＶ郭丹变电站１０ＫＶ大洋厂５１８线路全线停电【变更送电】因工作量大的原因，送电时间由１２:００变更为１４:００【发布渠道】通过９５５９８发布","powerOffId":"2019071113000156"},{"poweroffId":2019071113000148,"sgpoweroffId":null,"subsName":"","lineName":"10kV514北郭丹线","pubTranName":"北丹综合12台区,北丹综合32台区,北丹农排5台区【纯农排变】,北丹综合24台区,北丹综合26台区,北丹综合18台区,大洋农排21台区【纯农排变】,蠡县天成包装材料制造有限公司变压器,大洋农排20台区【纯农排变】,北丹综合20台区,北丹综合4台区,大洋农排6台区【纯农排变】,大洋农排14台区【纯农排变】,北丹综合3台区,蠡县宇祥纺织品制造有限公司变压器,蠡县鑫玲纺织有限公司,北丹农排8台区【纯农排变】,大洋农排27台区【纯农排变】,北丹综合8台区,北丹综合5台区,北丹综合13台区,大洋农排23台区【纯农排变】,北丹综合1台区,北丹农排2台区【纯农排变】,大洋农排17台区【纯农排变】,北丹综合22台区,大洋农排4台区【纯农排变】,北丹林业养殖场,0693489654-蠡县朝庆纤维加工厂-专变-237548034-蠡县朝庆纤维加工厂变压器,河北永诚食用菌科技有限公司变压器,邮电局,高蠡公路1号路灯,立永浇地,大洋农排25台区【纯农排变】,大洋农排1台区【纯农排变】,北丹综合27台区,北丹农排3台区【纯农排变】,北丹综合15台区,大洋农排3台区【纯农排变】,大洋农排10台区【纯农排变】,满红棉织厂变压器,大洋农排13台区【纯农排变】,北丹农排4台区【纯农排变】,高蠡獒园,养牛场3,中国石油天然气股份有限公司华北油田分公司变压器,林业综合养殖场,大洋农排9台区【纯农排变】,客户投资_北丹综合16台区,辰刚梳绒厂,北丹综合30台区,海龙纺织有限公司,北丹综合33台区,大洋农排11台区【纯农排变】,北丹综合31台区,北丹综合11台区,大洋农排12台区【纯农排变】,大洋农排19台区【纯农排变】,河北鸿飞纺织有限公司,北丹农排1台区【纯农排变】,大洋农排24台区【纯农排变】,北丹综合6台区,北丹综合21台区,油田北井,小年开花厂,养牛场,北丹村里水井,养牛场2,永贤毛绒厂,大洋农排26台区【纯农排变】,大洋农排5台区【纯农排变】,大洋农排18台区【纯农排变】,大洋农排2台区【纯农排变】,北丹综合19台区,蠡县祁口世佳面粉厂,北丹综合14台区,北丹综合2台区,北丹综合10台区,大洋农排16台区【纯农排变】,大洋农排22台区【纯农排变】,维佳纺织股份有限公司,蠡县信德纺织厂变压器,北丹综合23台区,大洋农排7台区【纯农排变】,三源厂,北丹北二砖厂,北丹综合9台区,北丹新世纪,农田示范基地变压器,宝生养殖场,小辉浇地,中国石油天然气股份有限公司华北油田分公司,北丹综合17台区,北丹综合25台区,北丹综合7台区,北丹综合29台区,大洋农排15台区【纯农排变】,北丹综合28台区,北丹农排6台区【纯农排变】,","scope":"【影响街道/乡镇】北郭丹镇【高危重要客户】无【影响客户】北郭丹村、大洋集团","startTime":"2019-07-16 04:00:00","stopDate":"2019-07-16 14:00:00","orgNo":"1340616","typeCode":"临时停电","poweroffArea":"【全线路停电】停大洋农排21台区【纯农排变】,蠡县天成包装材料制造有限公司变压器,大洋农排20台区【纯农排变】,北丹综合20台区,北丹综合4台区,大洋农排6台区【纯农排变】,大洋农排14台区【纯农排变】,北丹综合3台区,蠡县宇祥纺织品制造有限公司变压器,蠡县鑫玲纺织有限公司,北丹农排8台区【纯农排变】,大洋农排27台区【纯农排变】,北丹综合8台区,北丹综合5台区,北丹综合13台区,大洋农排23台区【纯农排变】,北丹综合1台区,北丹农排2台区【纯农排变】,大洋农排17台区【纯农排变】,北丹综合22台区,大洋农排4台区【纯农排变】,北丹林业养殖场,0693489654-蠡县朝庆纤维加工厂-专变-237548034-蠡县朝庆纤维加工厂变压器,河北永诚食用菌科技有限公司变压器,邮电局,高蠡公路1号路灯,立永浇地,蠡县祁口世佳面粉厂,北丹综合14台区,北丹综合2台区,北丹综合10台区,大洋农排16台区【纯农排变】,大洋农排22台区【纯农排变】,维佳纺织股份有限公司,大洋农排25台区【纯农排变】,大洋农排1台区【纯农排变】,北丹综合27台区,北丹农排3台区【纯农排变】,北丹综合15台区,大洋农排3台区【纯农排变】,大洋农排10台区【纯农排变】,满红棉织厂变压器,大洋农排13台区【纯农排变】,北丹农排4台区【纯农排变】,高蠡獒园,养牛场3,中国石油天然气股份有限公司华北油田分公司变压器,林业综合养殖场,海龙纺织有限公司,北丹综合33台区,大洋农排11台区【纯农排变】,北丹综合31台区,北丹综合11台区,大洋农排12台区【纯农排变】,大洋农排19台区【纯农排变】,河北鸿飞纺织有限公司,北丹农排1台区【纯农排变】,大洋农排24台区【纯农排变】,北丹综合6台区,北丹综合21台区,油田北井,小年开花厂,养牛场,北丹村里水井,养牛场2,永贤毛绒厂,大洋农排26台区【纯农排变】,大洋农排9台区【纯农排变】,客户投资_北丹综合16台区,辰刚梳绒厂,北丹综合30台区,大洋农排5台区【纯农排变】,大洋农排18台区【纯农排变】,大洋农排2台区【纯农排变】,北丹综合19台区,蠡县信德纺织厂变压器,北丹综合23台区,三源厂,北丹北二砖厂,北丹综合9台区,北丹新世纪,农田示范基地变压器,宝生养殖场,小辉浇地,中国石油天然气股份有限公司华北油田分公司,北丹综合17台区,北丹综合25台区,北丹综合7台区,北丹综合29台区,大洋农排15台区【纯农排变】,北丹综合28台区,北丹农排6台区【纯农排变】,大洋农排7台区【纯农排变】,北丹综合12台区,北丹综合32台区,北丹农排5台区【纯农排变】,北丹综合24台区,北丹综合26台区,北丹综合18台区","poweroffReason":"【停电原因】由于１１０ＫＶ刘铭庄站３５ＫＶ母联开关引线更换、保护改定值导致３５ＫＶ郭丹变电站１０ＫＶ北郭丹５１４线路全线停电【变更送电】因工作量大的原因，送电时间由１２:００变更为１４:００【发布渠道】通过９５５９８发布","powerTime":"2019-07-16 13:24:20","powerComm":"已送电","subsNo":"","lineNo":"","tgNo":"","tgName":null,"infoStatus":"1","orgName":"国网蠡县供电公司","typeName":null,"infoStatusName":null,"dateDay":null,"orgNos":null,"nowTime":null,"countyName":null,"streetName":null,"villageName":null,"roadName":null,"communityName":null,"tranName":null,"sdLineName":null,"cityCode":"1340616","cityName":"国网蠡县供电公司","provinceCode":null,"stopTime":"2019-07-16 14:00:00","powerType":"全部","powerOffArea":"【全线路停电】停大洋农排21台区【纯农排变】,蠡县天成包装材料制造有限公司变压器,大洋农排20台区【纯农排变】,北丹综合20台区,北丹综合4台区,大洋农排6台区【纯农排变】,大洋农排14台区【纯农排变】,北丹综合3台区,蠡县宇祥纺织品制造有限公司变压器,蠡县鑫玲纺织有限公司,北丹农排8台区【纯农排变】,大洋农排27台区【纯农排变】,北丹综合8台区,北丹综合5台区,北丹综合13台区,大洋农排23台区【纯农排变】,北丹综合1台区,北丹农排2台区【纯农排变】,大洋农排17台区【纯农排变】,北丹综合22台区,大洋农排4台区【纯农排变】,北丹林业养殖场,0693489654-蠡县朝庆纤维加工厂-专变-237548034-蠡县朝庆纤维加工厂变压器,河北永诚食用菌科技有限公司变压器,邮电局,高蠡公路1号路灯,立永浇地,蠡县祁口世佳面粉厂,北丹综合14台区,北丹综合2台区,北丹综合10台区,大洋农排16台区【纯农排变】,大洋农排22台区【纯农排变】,维佳纺织股份有限公司,大洋农排25台区【纯农排变】,大洋农排1台区【纯农排变】,北丹综合27台区,北丹农排3台区【纯农排变】,北丹综合15台区,大洋农排3台区【纯农排变】,大洋农排10台区【纯农排变】,满红棉织厂变压器,大洋农排13台区【纯农排变】,北丹农排4台区【纯农排变】,高蠡獒园,养牛场3,中国石油天然气股份有限公司华北油田分公司变压器,林业综合养殖场,海龙纺织有限公司,北丹综合33台区,大洋农排11台区【纯农排变】,北丹综合31台区,北丹综合11台区,大洋农排12台区【纯农排变】,大洋农排19台区【纯农排变】,河北鸿飞纺织有限公司,北丹农排1台区【纯农排变】,大洋农排24台区【纯农排变】,北丹综合6台区,北丹综合21台区,油田北井,小年开花厂,养牛场,北丹村里水井,养牛场2,永贤毛绒厂,大洋农排26台区【纯农排变】,大洋农排9台区【纯农排变】,客户投资_北丹综合16台区,辰刚梳绒厂,北丹综合30台区,大洋农排5台区【纯农排变】,大洋农排18台区【纯农排变】,大洋农排2台区【纯农排变】,北丹综合19台区,蠡县信德纺织厂变压器,北丹综合23台区,三源厂,北丹北二砖厂,北丹综合9台区,北丹新世纪,农田示范基地变压器,宝生养殖场,小辉浇地,中国石油天然气股份有限公司华北油田分公司,北丹综合17台区,北丹综合25台区,北丹综合7台区,北丹综合29台区,大洋农排15台区【纯农排变】,北丹综合28台区,北丹农排6台区【纯农排变】,大洋农排7台区【纯农排变】,北丹综合12台区,北丹综合32台区,北丹农排5台区【纯农排变】,北丹综合24台区,北丹综合26台区,北丹综合18台区","powerOffReason":"【停电原因】由于１１０ＫＶ刘铭庄站３５ＫＶ母联开关引线更换、保护改定值导致３５ＫＶ郭丹变电站１０ＫＶ北郭丹５１４线路全线停电【变更送电】因工作量大的原因，送电时间由１２:００变更为１４:００【发布渠道】通过９５５９８发布","powerOffId":"2019071113000148"},{"poweroffId":2019071113000142,"sgpoweroffId":null,"subsName":"","lineName":"10kV516桑园所线","pubTranName":"0551246559-桑园供电所站变-专变-49162340-桑园供电所站变变压器,","scope":"【影响街道/乡镇】桑元镇【高危重要客户】无【影响客户】桑元供电所","startTime":"2019-07-16 04:00:00","stopDate":"2019-07-16 14:00:00","orgNo":"1340616","typeCode":"临时停电","poweroffArea":"【全线路停电】停0551246559-桑园供电所站变-专变-49162340-桑园供电所站变变压器","poweroffReason":"【停电原因】由于１１０ＫＶ刘铭庄站３５ＫＶ母联开关引线更换、保护改定导致３５ＫＶ桑园变电站１０ＫＶ桑园所线５１６线路全线停电【变更送电】因工作量大的原因，送电时间由１２:００变更为１４:００【发布渠道】通过９５５９８发布","powerTime":"2019-07-16 13:05:58","powerComm":"已送电","subsNo":"","lineNo":"","tgNo":"","tgName":null,"infoStatus":"1","orgName":"国网蠡县供电公司","typeName":null,"infoStatusName":null,"dateDay":null,"orgNos":null,"nowTime":null,"countyName":null,"streetName":null,"villageName":null,"roadName":null,"communityName":null,"tranName":null,"sdLineName":null,"cityCode":"1340616","cityName":"国网蠡县供电公司","provinceCode":null,"stopTime":"2019-07-16 14:00:00","powerType":"全部","powerOffArea":"【全线路停电】停0551246559-桑园供电所站变-专变-49162340-桑园供电所站变变压器","powerOffReason":"【停电原因】由于１１０ＫＶ刘铭庄站３５ＫＶ母联开关引线更换、保护改定导致３５ＫＶ桑园变电站１０ＫＶ桑园所线５１６线路全线停电【变更送电】因工作量大的原因，送电时间由１２:００变更为１４:００【发布渠道】通过９５５９８发布","powerOffId":"2019071113000142"},{"poweroffId":2019071113000139,"sgpoweroffId":null,"subsName":"","lineName":"10kV518桑园工业线","pubTranName":"杨北针织厂,保定美雅纺织有限公司,杨北地毯纱厂,杨北农排6台区【纯农排变】,保定美雅,保定双兴包装制品有限公司,","scope":"【影响街道/乡镇】桑元镇【高危重要客户】无【影响客户】桑元工业区","startTime":"2019-07-16 04:00:00","stopDate":"2019-07-16 14:00:00","orgNo":"1340616","typeCode":"临时停电","poweroffArea":"【全线路停电】停保定美雅纺织有限公司,杨北地毯纱厂,保定美雅,杨北针织厂,保定双兴包装制品有限公司,杨北农排6台区【纯农排变】","poweroffReason":"【停电原因】由于１１０ＫＶ刘铭庄站３５ＫＶ母联开关引线更换、保护改定值导致３５ＫＶ桑园变电站１０ＫＶ桑园工业５１８线路全线停电【变更送电】因工作量大的原因，送电时间由１２：００变更为１４：００【发布渠道】通过９５５９８发布","powerTime":"2019-07-16 13:06:26","powerComm":"已送电","subsNo":"","lineNo":"","tgNo":"","tgName":null,"infoStatus":"1","orgName":"国网蠡县供电公司","typeName":null,"infoStatusName":null,"dateDay":null,"orgNos":null,"nowTime":null,"countyName":null,"streetName":null,"villageName":null,"roadName":null,"communityName":null,"tranName":null,"sdLineName":null,"cityCode":"1340616","cityName":"国网蠡县供电公司","provinceCode":null,"stopTime":"2019-07-16 14:00:00","powerType":"全部","powerOffArea":"【全线路停电】停保定美雅纺织有限公司,杨北地毯纱厂,保定美雅,杨北针织厂,保定双兴包装制品有限公司,杨北农排6台区【纯农排变】","powerOffReason":"【停电原因】由于１１０ＫＶ刘铭庄站３５ＫＶ母联开关引线更换、保护改定值导致３５ＫＶ桑园变电站１０ＫＶ桑园工业５１８线路全线停电【变更送电】因工作量大的原因，送电时间由１２：００变更为１４：００【发布渠道】通过９５５９８发布","powerOffId":"2019071113000139"},{"poweroffId":2019071113000135,"sgpoweroffId":null,"subsName":"","lineName":"大马坊线556","pubTranName":"杨庄村西2号,杨庄村西50【纯农排变】,保定市民生房地产开发有限公司,尹庄村西变压器,高新区公共事业管理区路灯2号,东南韩村东（统管）,保定市诚达房地产开发有限公司630,保定市高新区小次韩村,大辛庄新增【纯农排变】,0553874820-保定供热有限责任公司-专变-119761927-保定供热有限责任公司,杨庄大队,水北庄（统管）,东南韩外环边,保定市农业局原种厂,杨庄西北（统管）,中南韩,马坊小学,东南韩新增,小营村南【纯农排变】,中南韩村村内2号,保定市诚达房地产开发有限公司315,0553874820-保定供热有限责任公司-专变-69295422-保定供热有限责任公司,保定昭华房地产开发有限公司,满城县中南韩村学校,马坊新增,中能风电设备有限公司,尹庄村南,中南韩村南,大辛庄大队内,尹庄村内2号（统管）,保定市农业局原种厂牛场,保定市博能机械设备制造有限公司,暖气片厂,大辛庄大队【纯农排变】,0387467797-河北汇明房地产开发有限公司-专变-45297299-海丰化工厂,保定国家高新技术产业开发区公共事业管理处,东南韩（统管）,建立游艺机械厂,社办厂,中南韩3号,东大化工厂,中南韩村内,中能风电设备有限公司1,花庄村委会,保定申成路桥有限责任公司,保定执行力科技开发有限公司,大辛庄村西,马坊村,龙城房地产,保定市新市区大马坊乡卫生院,中南韩村南50,西南韩新增（农网）,保定市满城县城建房地产开发有限公司,马坊新增东200,杨庄村东内,马坊村内,马坊新增4号,高开区管委会6号路灯,东南韩村内,西南韩村西（农网）,马坊新增学校200,小次韩大队,尹庄东（统管）,长虹游艺机械厂,大辛庄村东新增,水北庄村内,阳光盛景城B区,中能风电设备有限公司2,保定市满城县城建房地产开发有限责任公司,交通局外环路管理处,中南韩面粉厂,小北庄村北,保定昭华房地产开发有限责任公司,西南韩村内（统管）,保定市高新区圣达包装制品厂,小次韩村（统管）,阳光盛景城A区,小营村内,","scope":"【影响街道/乡镇】大马坊乡 【高危重要客户】无 【影响客户】东尹庄、东南韩、中南韩、西南韩、大马坊、小次韩、大辛庄、小营村、水北庄、杨庄、阳光盛景、诚达地产、朝华锦城","startTime":"2019-07-11 11:30:00","stopDate":"2019-07-11 15:00:00","orgNo":"1340617","typeCode":"其他临时停电","poweroffArea":"【全线路停电】停中能风电设备有限公司2,保定执行力科技开发有限公司,大辛庄新增【纯农排变】,中能风电设备有限公司,小次韩大队,大辛庄村西,大辛庄大队内,东南韩村内,东大化工厂,马坊村内,保定国家高新技术产业开发区公共事业管理处,暖气片厂,保定市满城县城建房地产开发有限责任公司,建立游艺机械厂,杨庄村西2号,保定市博能机械设备制造有限公司,长虹游艺机械厂,保定市满城县城建房地产开发有限公司,保定市诚达房地产开发有限公司315,保定市高新区圣达包装制品厂,中南韩3号,保定市诚达房地产开发有限公司630,中南韩村南50,小次韩村（统管）,东南韩外环边,马坊新增东200,大辛庄村东新增,保定市新市区大马坊乡卫生院,保定申成路桥有限责任公司,中南韩面粉厂,高新区公共事业管理区路灯2号,0553874820-保定供热有限责任公司-专变-119761927-保定供热有限责任公司,马坊新增4号,中南韩村村内2号,杨庄西北（统管）,尹庄村南,水北庄村内,马坊小学,花庄村委会,保定市高新区小次韩村,阳光盛景城B区,阳光盛景城A区,中南韩村内,社办厂,满城县中南韩村学校,保定市农业局原种厂,东南韩新增,保定市农业局原种厂牛场,马坊新增,西南韩村西（农网）,水北庄（统管）,尹庄村内2号（统管）,西南韩村内（统管）,小营村南【纯农排变】,马坊村,保定市民生房地产开发有限公司,龙城房地产,杨庄大队,保定昭华房地产开发有限责任公司,东南韩村东（统管）,马坊新增学校200,西南韩新增（农网）,中南韩,尹庄东（统管）,0553874820-保定供热有限责任公司-专变-69295422-保定供热有限责任公司,小营村内,0387467797-河北汇明房地产开发有限公司-专变-45297299-海丰化工厂,高开区管委会6号路灯,中南韩村南,中能风电设备有限公司1,小北庄村北,大辛庄大队【纯农排变】,杨庄村西50【纯农排变】,保定昭华房地产开发有限公司,杨庄村东内,交通局外环路管理处,东南韩（统管）,尹庄村西变压器","poweroffReason":"【停电原因】由于紧急消缺导致１１０ＫＶ东尹庄变电站大马坊线５５６线路全线停电 【变更送电】无 【发布渠道】通过９５５９８发布","powerTime":"2019-07-11 14:30:59","powerComm":"已送电","subsNo":"","lineNo":"","tgNo":"","tgName":null,"infoStatus":"1","orgName":"国网满城县供电公司","typeName":null,"infoStatusName":null,"dateDay":null,"orgNos":null,"nowTime":null,"countyName":null,"streetName":null,"villageName":null,"roadName":null,"communityName":null,"tranName":null,"sdLineName":null,"cityCode":"1340617","cityName":"国网满城县供电公司","provinceCode":null,"stopTime":"2019-07-11 15:00:00","powerType":"全部","powerOffArea":"【全线路停电】停中能风电设备有限公司2,保定执行力科技开发有限公司,大辛庄新增【纯农排变】,中能风电设备有限公司,小次韩大队,大辛庄村西,大辛庄大队内,东南韩村内,东大化工厂,马坊村内,保定国家高新技术产业开发区公共事业管理处,暖气片厂,保定市满城县城建房地产开发有限责任公司,建立游艺机械厂,杨庄村西2号,保定市博能机械设备制造有限公司,长虹游艺机械厂,保定市满城县城建房地产开发有限公司,保定市诚达房地产开发有限公司315,保定市高新区圣达包装制品厂,中南韩3号,保定市诚达房地产开发有限公司630,中南韩村南50,小次韩村（统管）,东南韩外环边,马坊新增东200,大辛庄村东新增,保定市新市区大马坊乡卫生院,保定申成路桥有限责任公司,中南韩面粉厂,高新区公共事业管理区路灯2号,0553874820-保定供热有限责任公司-专变-119761927-保定供热有限责任公司,马坊新增4号,中南韩村村内2号,杨庄西北（统管）,尹庄村南,水北庄村内,马坊小学,花庄村委会,保定市高新区小次韩村,阳光盛景城B区,阳光盛景城A区,中南韩村内,社办厂,满城县中南韩村学校,保定市农业局原种厂,东南韩新增,保定市农业局原种厂牛场,马坊新增,西南韩村西（农网）,水北庄（统管）,尹庄村内2号（统管）,西南韩村内（统管）,小营村南【纯农排变】,马坊村,保定市民生房地产开发有限公司,龙城房地产,杨庄大队,保定昭华房地产开发有限责任公司,东南韩村东（统管）,马坊新增学校200,西南韩新增（农网）,中南韩,尹庄东（统管）,0553874820-保定供热有限责任公司-专变-69295422-保定供热有限责任公司,小营村内,0387467797-河北汇明房地产开发有限公司-专变-45297299-海丰化工厂,高开区管委会6号路灯,中南韩村南,中能风电设备有限公司1,小北庄村北,大辛庄大队【纯农排变】,杨庄村西50【纯农排变】,保定昭华房地产开发有限公司,杨庄村东内,交通局外环路管理处,东南韩（统管）,尹庄村西变压器","powerOffReason":"【停电原因】由于紧急消缺导致１１０ＫＶ东尹庄变电站大马坊线５５６线路全线停电 【变更送电】无 【发布渠道】通过９５５９８发布","powerOffId":"2019071113000135"}],"pageModel":{"pageNow":833,"totalCount":10973,"totalPage":1098,"tableRows":0,"pageCount":10,"beginCount":8320},"isExperi":"1"}