{"message":"","today":"2020-06-15","seleList":[{"poweroffId":2019071113000021,"sgpoweroffId":null,"subsName":"","lineName":"开元街571","pubTranName":"邮局直供,","scope":"【影响街道/乡镇】易州镇【高危重要客户】无【影响客户】邮局家属楼","startTime":"2019-07-11 05:29:01","stopDate":"2019-07-11 07:00:00","orgNo":"1340625","typeCode":"电网故障停限电","poweroffArea":"【单台区停电】停邮局直供","poweroffReason":"【停电原因】由于电缆烧毁导致１１０ＫＶ店北变电站开元街５７１线路邮局直供公变台区停电【变更送电】因抢修进度加快原因，送电时间由１２：００变更为０７：００【发布渠道】通过９５５９８发布","powerTime":"2019-07-11 06:38:20","powerComm":"已送电","subsNo":"","lineNo":"","tgNo":"","tgName":null,"infoStatus":"1","orgName":"国网易县供电公司","typeName":null,"infoStatusName":null,"dateDay":null,"orgNos":null,"nowTime":null,"countyName":null,"streetName":null,"villageName":null,"roadName":null,"communityName":null,"tranName":null,"sdLineName":null,"cityCode":"1340625","cityName":"国网易县供电公司","provinceCode":null,"stopTime":"2019-07-11 07:00:00","powerType":"全部","powerOffArea":"【单台区停电】停邮局直供","powerOffReason":"【停电原因】由于电缆烧毁导致１１０ＫＶ店北变电站开元街５７１线路邮局直供公变台区停电【变更送电】因抢修进度加快原因，送电时间由１２：００变更为０７：００【发布渠道】通过９５５９８发布","powerOffId":"2019071113000021"},{"poweroffId":2019071113000019,"sgpoweroffId":null,"subsName":"","lineName":"10kV水源站517线路","pubTranName":"C232柱上变压器,","scope":"【影响街道/乡镇】江城乡、竞秀区 【高危重要客户】无 【影响客户】石家庄村","startTime":"2019-07-11 04:42:06","stopDate":"2019-07-11 10:00:00","orgNo":"13406","typeCode":"电网故障停限电","poweroffArea":"【单台区停电】停C232柱上变压器","poweroffReason":"【停电原因】由于低压线断线导致１０ＫＶ水源变电站５１７线路Ｃ２３２公变台区停电【变更送电】无【发布渠道】通过９５５９８发布","powerTime":"2019-07-11 09:10:53","powerComm":"已送电","subsNo":"","lineNo":"","tgNo":"","tgName":null,"infoStatus":"1","orgName":"保定供电公司","typeName":null,"infoStatusName":null,"dateDay":null,"orgNos":null,"nowTime":null,"countyName":null,"streetName":null,"villageName":null,"roadName":null,"communityName":null,"tranName":null,"sdLineName":null,"cityCode":"13406","cityName":"保定供电公司","provinceCode":null,"stopTime":"2019-07-11 10:00:00","powerType":"全部","powerOffArea":"【单台区停电】停C232柱上变压器","powerOffReason":"【停电原因】由于低压线断线导致１０ＫＶ水源变电站５１７线路Ｃ２３２公变台区停电【变更送电】无【发布渠道】通过９５５９８发布","powerOffId":"2019071113000019"},{"poweroffId":2019071013000486,"sgpoweroffId":null,"subsName":"","lineName":"10KV541张村线","pubTranName":"张村公用农业5台区【纯农排变】,史村公用农业8台区【纯农排变】,史村公用照明2台区,史村公用农业10台区,定州市德龙环境工程有限公司变压器,史村公用农业20台区,史村公用农业21台区【纯农排变】,史村公用农业4台区【纯农排变】,史村公用照明1台区,史村公用农业3台区【纯农排变】,东旺史村道,定州市东旺镇东旺村村民委员会（东旺北口）变压器,东旺公用照明2台区,史村公用农业11台区【纯农排变】,史村公用农业16台区【纯农排变】,张村公用农业1台区【纯农排变】,客户投资_东旺公用照明4台区,张村公用农业3台区【纯农排变】,东旺公用照明5台区,张村公用农业6台区【纯农排变】,东旺公用照明9台区,定州市东旺镇东旺村委会,东旺公用照明8台区,史村公用农业17台区【纯农排变】,东旺王村道,史村公用农业12台区【纯农排变】,史村公用农业1台区【纯农排变】,史村公用农业26台区【纯农排变】,史村公用照明8台区,史村公用农业13台区,史村公用农业7台区【纯农排变】,史村公用农业19台区【纯农排变】,定州市东旺镇东旺村村民委员会（东旺张村道）变压器,张村公用农业2台区【纯农排变】,史村公用照明4台区,张村公用照明1台区,史村公用农业22台区【纯农排变】,东旺公用照明3台区,史村公用照明6台区,东旺公用照明7台区,史村公用农业24台区,张村公用农业9台区【纯农排变】,史村公用农业23台区,史村公用照明5台区,张村公用农业8台区【纯农排变】,史村公用农业18台区【纯农排变】,史村公用农业14台区【纯农排变】,张村公用照明3台区,史村公用照明7台区,史村公用农业15台区,张村公用农业4台区【纯农排变】,张村公用农业10台区【纯农排变】,定州市东旺镇卫生院,史村公用农业9台区【纯农排变】,张村公用农业11台区【纯农排变】,史村公用农业6台区【纯农排变】,定州市立平木材加工厂变压器,东旺镇五七厂,张村公用农业7台区【纯农排变】,张村公用照明2台区,史村公用农业25台区【纯农排变】,东旺小学公用照明台区,史村公用农业5台区,东旺公用照明1台区,史村公用照明3台区,东旺公用照明10台区,史村公用农业2台区【纯农排变】,变压器,东旺公用照明6台区,","scope":"【影响街道/乡镇】东旺镇【高危重要客户】无【影响客户】史村、张村、东旺","startTime":"2019-07-10 23:30:16","stopDate":"2019-07-11 08:00:00","orgNo":"1340610","typeCode":"电网故障停限电","poweroffArea":"【全线路停电】停史村公用农业10台区,张村公用农业5台区【纯农排变】,史村公用农业8台区【纯农排变】,史村公用照明2台区,定州市德龙环境工程有限公司变压器,史村公用农业20台区,东旺公用照明7台区,史村公用农业24台区,张村公用农业9台区【纯农排变】,史村公用农业23台区,史村公用农业15台区,张村公用农业4台区【纯农排变】,张村公用农业10台区【纯农排变】,定州市东旺镇卫生院,史村公用农业9台区【纯农排变】,张村公用农业11台区【纯农排变】,史村公用照明3台区,东旺公用照明10台区,史村公用农业2台区【纯农排变】,变压器,东旺公用照明6台区,史村公用照明5台区,张村公用农业8台区【纯农排变】,史村公用农业18台区【纯农排变】,史村公用农业14台区【纯农排变】,张村公用照明3台区,史村公用照明7台区,史村公用农业6台区【纯农排变】,定州市立平木材加工厂变压器,东旺镇五七厂,史村公用农业21台区【纯农排变】,史村公用农业4台区【纯农排变】,史村公用照明1台区,史村公用农业3台区【纯农排变】,东旺史村道,东旺王村道,史村公用农业12台区【纯农排变】,史村公用农业1台区【纯农排变】,史村公用农业26台区【纯农排变】,史村公用照明8台区,史村公用农业13台区,史村公用农业7台区【纯农排变】,史村公用农业19台区【纯农排变】,定州市东旺镇东旺村村民委员会（东旺张村道）变压器,张村公用农业2台区【纯农排变】,史村公用照明4台区,张村公用照明1台区,史村公用农业22台区【纯农排变】,东旺公用照明3台区,史村公用照明6台区,张村公用农业7台区【纯农排变】,张村公用照明2台区,史村公用农业25台区【纯农排变】,东旺小学公用照明台区,史村公用农业5台区,东旺公用照明1台区,定州市东旺镇东旺村村民委员会（东旺北口）变压器,东旺公用照明2台区,史村公用农业11台区【纯农排变】,史村公用农业16台区【纯农排变】,张村公用农业1台区【纯农排变】,客户投资_东旺公用照明4台区,张村公用农业3台区【纯农排变】,东旺公用照明5台区,张村公用农业6台区【纯农排变】,东旺公用照明9台区,定州市东旺镇东旺村委会,东旺公用照明8台区,史村公用农业17台区【纯农排变】","poweroffReason":"【停电原因】由于王村道配变支瓶击穿导致１１０ＫＶ东亭变电站１０ＫＶ５４１张村线路全线停电 【变更送电】因抢修进度加快原因，送电时间由１８：００变更为０８：００ 【发布渠道】９５５９８","powerTime":"2019-07-11 07:45:21","powerComm":"已送电","subsNo":"","lineNo":"","tgNo":"","tgName":null,"infoStatus":"1","orgName":"国网定州市供电公司","typeName":null,"infoStatusName":null,"dateDay":null,"orgNos":null,"nowTime":null,"countyName":null,"streetName":null,"villageName":null,"roadName":null,"communityName":null,"tranName":null,"sdLineName":null,"cityCode":"1340610","cityName":"国网定州市供电公司","provinceCode":null,"stopTime":"2019-07-11 08:00:00","powerType":"全部","powerOffArea":"【全线路停电】停史村公用农业10台区,张村公用农业5台区【纯农排变】,史村公用农业8台区【纯农排变】,史村公用照明2台区,定州市德龙环境工程有限公司变压器,史村公用农业20台区,东旺公用照明7台区,史村公用农业24台区,张村公用农业9台区【纯农排变】,史村公用农业23台区,史村公用农业15台区,张村公用农业4台区【纯农排变】,张村公用农业10台区【纯农排变】,定州市东旺镇卫生院,史村公用农业9台区【纯农排变】,张村公用农业11台区【纯农排变】,史村公用照明3台区,东旺公用照明10台区,史村公用农业2台区【纯农排变】,变压器,东旺公用照明6台区,史村公用照明5台区,张村公用农业8台区【纯农排变】,史村公用农业18台区【纯农排变】,史村公用农业14台区【纯农排变】,张村公用照明3台区,史村公用照明7台区,史村公用农业6台区【纯农排变】,定州市立平木材加工厂变压器,东旺镇五七厂,史村公用农业21台区【纯农排变】,史村公用农业4台区【纯农排变】,史村公用照明1台区,史村公用农业3台区【纯农排变】,东旺史村道,东旺王村道,史村公用农业12台区【纯农排变】,史村公用农业1台区【纯农排变】,史村公用农业26台区【纯农排变】,史村公用照明8台区,史村公用农业13台区,史村公用农业7台区【纯农排变】,史村公用农业19台区【纯农排变】,定州市东旺镇东旺村村民委员会（东旺张村道）变压器,张村公用农业2台区【纯农排变】,史村公用照明4台区,张村公用照明1台区,史村公用农业22台区【纯农排变】,东旺公用照明3台区,史村公用照明6台区,张村公用农业7台区【纯农排变】,张村公用照明2台区,史村公用农业25台区【纯农排变】,东旺小学公用照明台区,史村公用农业5台区,东旺公用照明1台区,定州市东旺镇东旺村村民委员会（东旺北口）变压器,东旺公用照明2台区,史村公用农业11台区【纯农排变】,史村公用农业16台区【纯农排变】,张村公用农业1台区【纯农排变】,客户投资_东旺公用照明4台区,张村公用农业3台区【纯农排变】,东旺公用照明5台区,张村公用农业6台区【纯农排变】,东旺公用照明9台区,定州市东旺镇东旺村委会,东旺公用照明8台区,史村公用农业17台区【纯农排变】","powerOffReason":"【停电原因】由于王村道配变支瓶击穿导致１１０ＫＶ东亭变电站１０ＫＶ５４１张村线路全线停电 【变更送电】因抢修进度加快原因，送电时间由１８：００变更为０８：００ 【发布渠道】９５５９８","powerOffId":"2019071013000486"},{"poweroffId":2019071013000452,"sgpoweroffId":null,"subsName":"","lineName":"新城线517","pubTranName":"南五里南水变压器,","scope":"【影响街道/乡镇】新城镇 【高危重要客户】无 【影响客户】南五里村","startTime":"2019-07-11 12:00:00","stopDate":"2019-07-11 20:00:00","orgNo":"1340612","typeCode":"其他临时停电","poweroffArea":"【单台区停电】停南五里南水变压器","poweroffReason":"【停电原因】由于低压线路改造导致１１０ＫＶ太平庄变电站１０ＫＶ新城５１７线路南五里南水公变台区停电 【变更送电】无 【发布渠道】通过９５５９８发布","powerTime":"2019-07-11 19:10:47","powerComm":"已送电","subsNo":"","lineNo":"","tgNo":"","tgName":null,"infoStatus":"1","orgName":"国网高碑店市供电公司","typeName":null,"infoStatusName":null,"dateDay":null,"orgNos":null,"nowTime":null,"countyName":null,"streetName":null,"villageName":null,"roadName":null,"communityName":null,"tranName":null,"sdLineName":null,"cityCode":"1340612","cityName":"国网高碑店市供电公司","provinceCode":null,"stopTime":"2019-07-11 20:00:00","powerType":"全部","powerOffArea":"【单台区停电】停南五里南水变压器","powerOffReason":"【停电原因】由于低压线路改造导致１１０ＫＶ太平庄变电站１０ＫＶ新城５１７线路南五里南水公变台区停电 【变更送电】无 【发布渠道】通过９５５９８发布","powerOffId":"2019071013000452"},{"poweroffId":2019071013000451,"sgpoweroffId":null,"subsName":"","lineName":"新城线517","pubTranName":"南五里南变压器,","scope":"【影响街道/乡镇】新城镇 【高危重要客户】无 【影响客户】南五里村","startTime":"2019-07-11 08:00:00","stopDate":"2019-07-11 12:00:00","orgNo":"1340612","typeCode":"其他临时停电","poweroffArea":"【单台区停电】停南五里南变压器","poweroffReason":"【停电原因】由于低压线路改造导致１１０ＫＶ太平庄变电站１０ＫＶ新城５１７线路南五里南公变台区停电 【变更送电】无 【发布渠道】通过９５５９８发布","powerTime":"2019-07-11 11:50:43","powerComm":"已送电","subsNo":"","lineNo":"","tgNo":"","tgName":null,"infoStatus":"1","orgName":"国网高碑店市供电公司","typeName":null,"infoStatusName":null,"dateDay":null,"orgNos":null,"nowTime":null,"countyName":null,"streetName":null,"villageName":null,"roadName":null,"communityName":null,"tranName":null,"sdLineName":null,"cityCode":"1340612","cityName":"国网高碑店市供电公司","provinceCode":null,"stopTime":"2019-07-11 12:00:00","powerType":"全部","powerOffArea":"【单台区停电】停南五里南变压器","powerOffReason":"【停电原因】由于低压线路改造导致１１０ＫＶ太平庄变电站１０ＫＶ新城５１７线路南五里南公变台区停电 【变更送电】无 【发布渠道】通过９５５９８发布","powerOffId":"2019071013000451"},{"poweroffId":2019071013000412,"sgpoweroffId":null,"subsName":"","lineName":"10kV花庄站533线路","pubTranName":"0358445081-河北天威华瑞电气有限公司-2-配电室－变压器－1,0358445081-河北天威华瑞电气有限公司-2-配电室－变压器－2,0358445081-河北天威华瑞电气有限公司-1-配电室－变压器－1,0358445081-河北天威华瑞电气有限公司-1-配电室－变压器－2,","scope":"【影响街道/乡镇】旭阳路 【高危重要客户】无 【影响客户】河北天威华瑞电气有限公司","startTime":"2019-07-17 09:00:00","stopDate":"2019-07-17 17:00:00","orgNo":"13406","typeCode":"临时停电","poweroffArea":"【分支停电】停0358445081-河北天威华瑞电气有限公司-2-配电室－变压器－1,0358445081-河北天威华瑞电气有限公司-2-配电室－变压器－2,0358445081-河北天威华瑞电气有限公司-1-配电室－变压器－1,0358445081-河北天威华瑞电气有限公司-1-配电室－变压器－2","poweroffReason":"【停电原因】由于供电设备临时检修导致１０ＫＶ花庄变电站５３３线路旭阳路１０号杆分支以下停电【变更送电】无【发布渠道】保定市保定有线电视台（７月１５日２０时１５分至２１时４５分之间）屏幕上滚动","powerTime":"2019-07-17 16:32:42","powerComm":"已送电","subsNo":"","lineNo":"","tgNo":"","tgName":null,"infoStatus":"1","orgName":"保定供电公司","typeName":null,"infoStatusName":null,"dateDay":null,"orgNos":null,"nowTime":null,"countyName":null,"streetName":null,"villageName":null,"roadName":null,"communityName":null,"tranName":null,"sdLineName":null,"cityCode":"13406","cityName":"保定供电公司","provinceCode":null,"stopTime":"2019-07-17 17:00:00","powerType":"全部","powerOffArea":"【分支停电】停0358445081-河北天威华瑞电气有限公司-2-配电室－变压器－1,0358445081-河北天威华瑞电气有限公司-2-配电室－变压器－2,0358445081-河北天威华瑞电气有限公司-1-配电室－变压器－1,0358445081-河北天威华瑞电气有限公司-1-配电室－变压器－2","powerOffReason":"【停电原因】由于供电设备临时检修导致１０ＫＶ花庄变电站５３３线路旭阳路１０号杆分支以下停电【变更送电】无【发布渠道】保定市保定有线电视台（７月１５日２０时１５分至２１时４５分之间）屏幕上滚动","powerOffId":"2019071013000412"},{"poweroffId":2019071013000404,"sgpoweroffId":null,"subsName":"","lineName":"10kV511刘家马线","pubTranName":"0000004760宿家庄东区变压器,中交建冀交高速公路投资发展有限公司变压器,0000005368董家马村东变压器,董家马小学变压器,李家马农变压器【纯农排变】,宿家庄西2区变压器,河北鑫宏建筑材料有限责任公司变压器,中国建筑西南勘查设计研究院有限公司变压器,任家岸东变压器,赤岸机井,曲阳县将学五金电料门市部变压器,0000004759宿家庄中区变压器,康家庄东2区变压器,曲阳县下河乡宿家庄村变压器,乔家马小学变压器,米家岗东变压器,0012953922乔家马水井变压器【纯农排变】,0000006261刘家马统管南农变压器【纯农排变】,0000004745乔家马村变压器,0014478807康家庄北2区,中建二局基础设施建设投资有限公司变压器2,曲阳县凤翔养殖场变压器,中国铁塔股份有限公司保定市分公司变压器,绿阳绿化新增配变工程变压器,0012330759乔家马东区变压器,0000004754董家马西变压器,新赤岸水井变压器,河北康怡农业科技发展有限公司变压器,曲阳县盛康蛋鸡养殖有限公司变压器,0000004748刘家马南变压器,0012329843康家庄东区变压器,0000004845任家岸村变压器,康家庄小学变压器,0000004744康家庄北变压器,0012330769李家马北区变压器,刘竞红纸业加工厂,0000004755宿家庄西变压器,乔家马新农村变压器,0000004757康家庄南变压器,中建二局基础设施建设投资有限公司变压器,棋盘村水井变压器,0000004749棋盘变压器,乔家马西变压器,0000004746李家马变压器,康家庄西变压器,0000004747刘家岸村变压器,董家马卫生院变压器,棋盘小学变压器,河北辉杰农业科技开发有限公司曲阳县分公司变压器,0000007243棋盘西区变压器,刘家马东变压器,0000004750新赤岸变压器,宿家庄小学变压器,0013343412刘家马农灌变压器【纯农排变】,棋盘村北变压器,曲阳石林雕塑有限公司,曲阳县下河乡宿家庄农灌,","scope":"【影响街道/乡镇】庄伙乡【高危重要客户】无【影响客户】康家庄、乔家马、任家岸、刘家马、李家马、宿家庄、刘家岸、棋盘、新赤岸、董家马、米家岗东","startTime":"2019-07-23 05:00:00","stopDate":"2019-07-23 20:30:00","orgNo":"1340619","typeCode":"计划停电","poweroffArea":"【全线路停电】停宿家庄小学变压器,董家马卫生院变压器,棋盘小学变压器,河北辉杰农业科技开发有限公司曲阳县分公司变压器,0000007243棋盘西区变压器,刘家马东变压器,0000004750新赤岸变压器,康家庄小学变压器,0013343412刘家马农灌变压器【纯农排变】,曲阳县凤翔养殖场变压器,0000004760宿家庄东区变压器,0000005368董家马村东变压器,0012329843康家庄东区变压器,0000004845任家岸村变压器,董家马小学变压器,李家马农变压器【纯农排变】,宿家庄西2区变压器,0000004759宿家庄中区变压器,康家庄东2区变压器,曲阳县下河乡宿家庄村变压器,乔家马小学变压器,米家岗东变压器,0012953922乔家马水井变压器【纯农排变】,0000006261刘家马统管南农变压器【纯农排变】,0000004745乔家马村变压器,中交建冀交高速公路投资发展有限公司变压器,0014478807康家庄北2区,中建二局基础设施建设投资有限公司变压器2,中国铁塔股份有限公司保定市分公司变压器,绿阳绿化新增配变工程变压器,0012330759乔家马东区变压器,0000004754董家马西变压器,新赤岸水井变压器,河北康怡农业科技发展有限公司变压器,曲阳县盛康蛋鸡养殖有限公司变压器,0000004748刘家马南变压器,0000004744康家庄北变压器,0012330769李家马北区变压器,刘竞红纸业加工厂,0000004755宿家庄西变压器,乔家马新农村变压器,0000004757康家庄南变压器,中建二局基础设施建设投资有限公司变压器,棋盘村水井变压器,任家岸东变压器,赤岸机井,曲阳县将学五金电料门市部变压器,曲阳石林雕塑有限公司,曲阳县下河乡宿家庄农灌,乔家马西变压器,0000004746李家马变压器,康家庄西变压器,0000004747刘家岸村变压器,0000004749棋盘变压器,棋盘村北变压器,河北鑫宏建筑材料有限责任公司变压器,中国建筑西南勘查设计研究院有限公司变压器","poweroffReason":"【停电原因】由于线路大修技改导致３５ＫＶ刘家马变电站１０ＫＶ５１１刘家马线路全线停电【变更送电】因工作进度加快原因，送电时间由２２:００变更为２０:３０【发布渠道】保定市曲阳县电视台（０７月１０日至０７月１２日１８时至２０时之间）屏幕上方滚动","powerTime":"2019-07-23 20:18:02","powerComm":"已送电","subsNo":"","lineNo":"","tgNo":"","tgName":null,"infoStatus":"1","orgName":"国网曲阳县供电公司","typeName":null,"infoStatusName":null,"dateDay":null,"orgNos":null,"nowTime":null,"countyName":null,"streetName":null,"villageName":null,"roadName":null,"communityName":null,"tranName":null,"sdLineName":null,"cityCode":"1340619","cityName":"国网曲阳县供电公司","provinceCode":null,"stopTime":"2019-07-23 20:30:00","powerType":"全部","powerOffArea":"【全线路停电】停宿家庄小学变压器,董家马卫生院变压器,棋盘小学变压器,河北辉杰农业科技开发有限公司曲阳县分公司变压器,0000007243棋盘西区变压器,刘家马东变压器,0000004750新赤岸变压器,康家庄小学变压器,0013343412刘家马农灌变压器【纯农排变】,曲阳县凤翔养殖场变压器,0000004760宿家庄东区变压器,0000005368董家马村东变压器,0012329843康家庄东区变压器,0000004845任家岸村变压器,董家马小学变压器,李家马农变压器【纯农排变】,宿家庄西2区变压器,0000004759宿家庄中区变压器,康家庄东2区变压器,曲阳县下河乡宿家庄村变压器,乔家马小学变压器,米家岗东变压器,0012953922乔家马水井变压器【纯农排变】,0000006261刘家马统管南农变压器【纯农排变】,0000004745乔家马村变压器,中交建冀交高速公路投资发展有限公司变压器,0014478807康家庄北2区,中建二局基础设施建设投资有限公司变压器2,中国铁塔股份有限公司保定市分公司变压器,绿阳绿化新增配变工程变压器,0012330759乔家马东区变压器,0000004754董家马西变压器,新赤岸水井变压器,河北康怡农业科技发展有限公司变压器,曲阳县盛康蛋鸡养殖有限公司变压器,0000004748刘家马南变压器,0000004744康家庄北变压器,0012330769李家马北区变压器,刘竞红纸业加工厂,0000004755宿家庄西变压器,乔家马新农村变压器,0000004757康家庄南变压器,中建二局基础设施建设投资有限公司变压器,棋盘村水井变压器,任家岸东变压器,赤岸机井,曲阳县将学五金电料门市部变压器,曲阳石林雕塑有限公司,曲阳县下河乡宿家庄农灌,乔家马西变压器,0000004746李家马变压器,康家庄西变压器,0000004747刘家岸村变压器,0000004749棋盘变压器,棋盘村北变压器,河北鑫宏建筑材料有限责任公司变压器,中国建筑西南勘查设计研究院有限公司变压器","powerOffReason":"【停电原因】由于线路大修技改导致３５ＫＶ刘家马变电站１０ＫＶ５１１刘家马线路全线停电【变更送电】因工作进度加快原因，送电时间由２２:００变更为２０:３０【发布渠道】保定市曲阳县电视台（０７月１０日至０７月１２日１８时至２０时之间）屏幕上方滚动","powerOffId":"2019071013000404"},{"poweroffId":2019071013000388,"sgpoweroffId":null,"subsName":"","lineName":"10kV东黄线512","pubTranName":"丰盛庄南2变压器,新华油质化工厂,乔古寺东1变压器,南黄西台变压器,客户投资_东黄南变压器,乔古寺地变压器【纯农排变】,王志丰,王场北3变压器,于广才革厂,冯宝赤革厂,陶文祥革厂1,油厂,乔古寺东2变压器,陶文祥革厂 2,乔古寺东北地变压器,王场西南地变压器【纯农排变】,泗庄供电所变压器,南黄南2变压器,张金明革厂,乔古寺西台变压器,南黄村变压器,未庄砖厂,河北省保定市高碑店市泗庄乡高碑店泗庄供电所,丰盛庄村变压器,东黄地变压器【纯农排变】,南黄南变压器,魏庄村变压器,南黄村东地【纯农排变】,保定白沟新城王场学校,王场东南台变压器,丰盛庄西2变压器,高碑店市鑫益隆塑料有限公司变压器,高碑店市同兴畜牧有限公司（王家场）变压器,南黄西地变压器【纯农排变】,王场南变压器,陶文祥革厂3,王场南地变压器【纯农排变】,魏庄北变压器,魏庄西南地变压器【纯农排变】,王场北变压器,王场东地变压器【纯农排变】,交警中队,魏庄地变压器,东黄西南变压器,丰盛庄北变压器,王场东变压器,高碑店市欣荣海绵纸厂,高碑店市泗庄迪航硕鞋厂,南黄东台区,保定森泽汽车销售有限公司,丰盛庄南三,平占杰,高碑店市博荣拉链有限公司,丰盛庄西南地变压器【纯农排变】,王场6号变台,油厂东,乔古寺西南地变压器【纯农排变】,东黄村变压器,高碑店市泗庄镇东黄小学,王场东南2变压器,王场北地变压器【纯农排变】,丰盛庄西变压器,丰盛庄南变压器,0387437068-世纪大道北东台-专变-45274563-世纪大道北东台,春晖面粉厂,乔古寺东变压器,王场西北变压器,东黄南2变压器,魏庄西地变压器,王场东南1变压器,","scope":"【影响街道/乡镇】泗庄镇、白沟镇 【高危重要客户】无 【影响客户】东黄村、南黄村、乔古寺村、王场村、丰盛庄村、魏庄村、国网高碑店供电公司、泗庄供电所、东黄小学、王场小学、迪航硕鞋厂、同兴农林畜牧有限公司（王场）、张爽、利达橡塑制品有限公司、诚信拉杆厂、丰华人造革厂、京华人造革厂、天和橡塑制品厂、华宝塑料制品有限公司、公安局管理交通大队、社办厂、欣荣海绵纸厂、博德广信皮革制品有限公司、宏丰人造革厂、三福饭店、春晖面粉厂、新华油脂化工厂、中国联合网路通信有限公司高碑店分公司、鑫益隆塑胶有限公司","startTime":"2019-07-27 06:00:00","stopDate":"2019-07-27 18:00:00","orgNo":"1340612","typeCode":"计划停电","poweroffArea":"【全线路停电】停丰盛庄西变压器,丰盛庄南变压器,东黄西南变压器,丰盛庄北变压器,王场东变压器,高碑店市欣荣海绵纸厂,高碑店市泗庄迪航硕鞋厂,南黄东台区,保定森泽汽车销售有限公司,丰盛庄南三,平占杰,高碑店市博荣拉链有限公司,丰盛庄西南地变压器【纯农排变】,王场6号变台,油厂东,王场东南1变压器,春晖面粉厂,乔古寺东变压器,王场西北变压器,东黄南2变压器,魏庄西地变压器,东黄地变压器【纯农排变】,南黄南变压器,魏庄村变压器,南黄村东地【纯农排变】,保定白沟新城王场学校,王场东南台变压器,丰盛庄西2变压器,高碑店市鑫益隆塑料有限公司变压器,高碑店市同兴畜牧有限公司（王家场）变压器,南黄西地变压器【纯农排变】,王场南变压器,陶文祥革厂3,王场南地变压器【纯农排变】,魏庄北变压器,魏庄西南地变压器【纯农排变】,王场北变压器,王场东地变压器【纯农排变】,交警中队,丰盛庄南2变压器,新华油质化工厂,乔古寺东北地变压器,王场西南地变压器【纯农排变】,泗庄供电所变压器,南黄南2变压器,王场北地变压器【纯农排变】,乔古寺东1变压器,南黄西台变压器,客户投资_东黄南变压器,乔古寺地变压器【纯农排变】,王志丰,王场北3变压器,于广才革厂,冯宝赤革厂,陶文祥革厂1,油厂,乔古寺东2变压器,陶文祥革厂 2,张金明革厂,乔古寺西台变压器,南黄村变压器,未庄砖厂,河北省保定市高碑店市泗庄乡高碑店泗庄供电所,丰盛庄村变压器,魏庄地变压器,0387437068-世纪大道北东台-专变-45274563-世纪大道北东台,乔古寺西南地变压器【纯农排变】,东黄村变压器,高碑店市泗庄镇东黄小学,王场东南2变压器","poweroffReason":"【停电原因】由于更换导线导致３５ＫＶ泗庄变电站１０ＫＶ东黄５１２线路全线停电 【变更送电】无 【发布渠道】高碑店市高碑店电视台（７月１１日０８时至７月２６日１８时之间）屏幕上方滚动","powerTime":"2019-07-27 17:35:23","powerComm":"已送电","subsNo":"","lineNo":"","tgNo":"","tgName":null,"infoStatus":"1","orgName":"国网高碑店市供电公司","typeName":null,"infoStatusName":null,"dateDay":null,"orgNos":null,"nowTime":null,"countyName":null,"streetName":null,"villageName":null,"roadName":null,"communityName":null,"tranName":null,"sdLineName":null,"cityCode":"1340612","cityName":"国网高碑店市供电公司","provinceCode":null,"stopTime":"2019-07-27 18:00:00","powerType":"全部","powerOffArea":"【全线路停电】停丰盛庄西变压器,丰盛庄南变压器,东黄西南变压器,丰盛庄北变压器,王场东变压器,高碑店市欣荣海绵纸厂,高碑店市泗庄迪航硕鞋厂,南黄东台区,保定森泽汽车销售有限公司,丰盛庄南三,平占杰,高碑店市博荣拉链有限公司,丰盛庄西南地变压器【纯农排变】,王场6号变台,油厂东,王场东南1变压器,春晖面粉厂,乔古寺东变压器,王场西北变压器,东黄南2变压器,魏庄西地变压器,东黄地变压器【纯农排变】,南黄南变压器,魏庄村变压器,南黄村东地【纯农排变】,保定白沟新城王场学校,王场东南台变压器,丰盛庄西2变压器,高碑店市鑫益隆塑料有限公司变压器,高碑店市同兴畜牧有限公司（王家场）变压器,南黄西地变压器【纯农排变】,王场南变压器,陶文祥革厂3,王场南地变压器【纯农排变】,魏庄北变压器,魏庄西南地变压器【纯农排变】,王场北变压器,王场东地变压器【纯农排变】,交警中队,丰盛庄南2变压器,新华油质化工厂,乔古寺东北地变压器,王场西南地变压器【纯农排变】,泗庄供电所变压器,南黄南2变压器,王场北地变压器【纯农排变】,乔古寺东1变压器,南黄西台变压器,客户投资_东黄南变压器,乔古寺地变压器【纯农排变】,王志丰,王场北3变压器,于广才革厂,冯宝赤革厂,陶文祥革厂1,油厂,乔古寺东2变压器,陶文祥革厂 2,张金明革厂,乔古寺西台变压器,南黄村变压器,未庄砖厂,河北省保定市高碑店市泗庄乡高碑店泗庄供电所,丰盛庄村变压器,魏庄地变压器,0387437068-世纪大道北东台-专变-45274563-世纪大道北东台,乔古寺西南地变压器【纯农排变】,东黄村变压器,高碑店市泗庄镇东黄小学,王场东南2变压器","powerOffReason":"【停电原因】由于更换导线导致３５ＫＶ泗庄变电站１０ＫＶ东黄５１２线路全线停电 【变更送电】无 【发布渠道】高碑店市高碑店电视台（７月１１日０８时至７月２６日１８时之间）屏幕上方滚动","powerOffId":"2019071013000388"},{"poweroffId":2019071013000371,"sgpoweroffId":null,"subsName":"","lineName":"10kV城南线521","pubTranName":"保定东启纺织公司,清苑县海华颐康苑老年公寓,4棉纺厂公用,保定市凤杰金属有限公司,保定爱新视眼科医院,利民冷库大,0387482707-保定瑞康纺织有限公司-专变-45310951-保定瑞康纺织有限公司,4卫校公用,保定东启纺织公司2,4中冉所变,2南大冉一站外4【纯农排变】,0387483306-保定瑞康纺织有限公司-专变-45310959-保定瑞康纺织有限公司2,0387482996-杨全分箱-专变-45310956-东古庄杨全,中国移动通信集团河北有限公司清苑分公司,中国石油化工股份有限公司河北清苑石油分公,清苑县鑫锋机械厂,庞大汽贸集团股份有限公司保定第二分公司,北京大发正大有限公司保定分公司,清苑县第二印刷厂,国网河北电动汽车服务有限公司6,保定通达医药材经营有限责任公司,变压器,4拖拉机站公用,清苑县天福锻造有限公司,","scope":"【影响街道/乡镇】清苑镇 【高危重要客户】无 【影响客户】卫校家属院、棉纺厂家属院、中冉供电所、拖拉机站家属院、庞大汽车城","startTime":"2019-07-10 17:07:33","stopDate":"2019-07-10 18:30:00","orgNo":"1340618","typeCode":"电网故障停限电","poweroffArea":"【全线路停电】停中国石油化工股份有限公司河北清苑石油分公,清苑县鑫锋机械厂,庞大汽贸集团股份有限公司保定第二分公司,北京大发正大有限公司保定分公司,清苑县第二印刷厂,国网河北电动汽车服务有限公司6,保定通达医药材经营有限责任公司,变压器,4拖拉机站公用,清苑县天福锻造有限公司,保定市凤杰金属有限公司,保定爱新视眼科医院,利民冷库大,0387482707-保定瑞康纺织有限公司-专变-45310951-保定瑞康纺织有限公司,4卫校公用,保定东启纺织公司2,4中冉所变,2南大冉一站外4【纯农排变】,0387483306-保定瑞康纺织有限公司-专变-45310959-保定瑞康纺织有限公司2,0387482996-杨全分箱-专变-45310956-东古庄杨全,中国移动通信集团河北有限公司清苑分公司,保定东启纺织公司,清苑县海华颐康苑老年公寓,4棉纺厂公用","poweroffReason":"【停电原因】由于主干４９号杆西分支１号杆南分支１号杆配变及电缆烧毁导致１１０ＫＶ中冉变电站１０ＫＶ城南线５２１线路全线停电 【变更送电】因抢修进度加快原因，送电时间由２３：００变更为１８：３０ 【发布渠道】通过９５５９８发布","powerTime":"2019-07-10 18:09:53","powerComm":"张志民通知已送电","subsNo":"","lineNo":"","tgNo":"","tgName":null,"infoStatus":"1","orgName":"国网清苑县供电公司","typeName":null,"infoStatusName":null,"dateDay":null,"orgNos":null,"nowTime":null,"countyName":null,"streetName":null,"villageName":null,"roadName":null,"communityName":null,"tranName":null,"sdLineName":null,"cityCode":"1340618","cityName":"国网清苑县供电公司","provinceCode":null,"stopTime":"2019-07-10 18:30:00","powerType":"全部","powerOffArea":"【全线路停电】停中国石油化工股份有限公司河北清苑石油分公,清苑县鑫锋机械厂,庞大汽贸集团股份有限公司保定第二分公司,北京大发正大有限公司保定分公司,清苑县第二印刷厂,国网河北电动汽车服务有限公司6,保定通达医药材经营有限责任公司,变压器,4拖拉机站公用,清苑县天福锻造有限公司,保定市凤杰金属有限公司,保定爱新视眼科医院,利民冷库大,0387482707-保定瑞康纺织有限公司-专变-45310951-保定瑞康纺织有限公司,4卫校公用,保定东启纺织公司2,4中冉所变,2南大冉一站外4【纯农排变】,0387483306-保定瑞康纺织有限公司-专变-45310959-保定瑞康纺织有限公司2,0387482996-杨全分箱-专变-45310956-东古庄杨全,中国移动通信集团河北有限公司清苑分公司,保定东启纺织公司,清苑县海华颐康苑老年公寓,4棉纺厂公用","powerOffReason":"【停电原因】由于主干４９号杆西分支１号杆南分支１号杆配变及电缆烧毁导致１１０ＫＶ中冉变电站１０ＫＶ城南线５２１线路全线停电 【变更送电】因抢修进度加快原因，送电时间由２３：００变更为１８：３０ 【发布渠道】通过９５５９８发布","powerOffId":"2019071013000371"},{"poweroffId":2019071013000292,"sgpoweroffId":null,"subsName":"","lineName":"10kV药城526线","pubTranName":"酒厂家属院综合变压器,工业城综合变压器,大兴隆公用变压器,瑞安综合变压器,","scope":"【影响街道/乡镇】东大街 【高危重要客户】无 【影响客户】祁农中药加工厂、新隆制药有限公司、三九药业、祁澳饮片有限公司、天下康制药、弘发中药材饮片有限公司、美威中药材有限公司、橡塑制品有限公司、冷库、祁州酒业有限公司、祁新颗粒饮片厂、华隆农机公司、关家园养生酒有限公司、祁农中药材有限公司、中国移动公司、公安消防大队、酒厂家属院、教育辅导中心、科瑞达纺织、大兴隆、合力塑料有限公司、通达药业、电视台、党校、武装部、光明小区、隆安官邸","startTime":"2019-07-10 15:42:02","stopDate":"2019-07-10 19:00:00","orgNo":"1340606","typeCode":"电网故障停限电","poweroffArea":"【全线路停电】停大兴隆公用变压器,酒厂家属院综合变压器,瑞安综合变压器,工业城综合变压器","poweroffReason":"【停电原因】由于站内开关跳闸导致１１０ＫＶ东河变电站１０ＫＶ药城５２６线路全线停电 【变更送电】无 【发布渠道】通过９５５９８发布","powerTime":"2019-07-10 18:52:41","powerComm":"已送电","subsNo":"","lineNo":"","tgNo":"","tgName":null,"infoStatus":"1","orgName":"国网安国市供电公司","typeName":null,"infoStatusName":null,"dateDay":null,"orgNos":null,"nowTime":null,"countyName":null,"streetName":null,"villageName":null,"roadName":null,"communityName":null,"tranName":null,"sdLineName":null,"cityCode":"1340606","cityName":"国网安国市供电公司","provinceCode":null,"stopTime":"2019-07-10 19:00:00","powerType":"全部","powerOffArea":"【全线路停电】停大兴隆公用变压器,酒厂家属院综合变压器,瑞安综合变压器,工业城综合变压器","powerOffReason":"【停电原因】由于站内开关跳闸导致１１０ＫＶ东河变电站１０ＫＶ药城５２６线路全线停电 【变更送电】无 【发布渠道】通过９５５９８发布","powerOffId":"2019071013000292"}],"pageModel":{"pageNow":835,"totalCount":10973,"totalPage":1098,"tableRows":0,"pageCount":10,"beginCount":8340},"isExperi":"1"}