{"message":"","today":"2020-06-15","seleList":[{"poweroffId":2019070713000084,"sgpoweroffId":null,"subsName":"","lineName":"10kV西辛庄线556","pubTranName":"1大张庄内2,1大张庄内6,2大张庄外12【纯农排变】,1大张庄内3,1小张庄内2,2大张庄外07【纯农排变】,大张庄外9【纯农排变】,1大张庄内5,2大张庄外16【纯农排变】,2大张庄外6【纯农排变】,2大张庄外11【纯农排变】,1小张庄内3,2大张庄外4【纯农排变】,大张庄安置楼,2大张庄外15【纯农排变】,0671603861-大张庄安置楼-专变-213878021-大张庄安置楼,2大张庄外10【纯农排变】,2小张庄外2【纯农排变】,2大张庄外3【纯农排变】,3大张庄外5【纯农排变】,2小张庄外3【纯农排变】,1大张庄内7,2大张庄外8【纯农排变】,2小张庄外7【纯农排变】,2大张庄外14【纯农排变】,2小张庄外8【纯农排变】,2小张庄外4【纯农排变】,2小张庄外5【纯农排变】,大张庄小学变压器2,1大张庄内8,大张庄砖厂,2大张庄外13【纯农排变】,大张庄小学变压器1,1大张庄外2变压器,小张庄外9柱上变压器,1大张庄内4,1小张庄内1,2小张庄外1【纯农排变】,2大张庄外17【纯农排变】,1大张庄内1,2小张庄外6【纯农排变】,","scope":"【影响街道/乡镇】冉庄镇 【高危重要客户】无 【影响客户】大张庄、小张庄","startTime":"2019-07-16 05:30:00","stopDate":"2019-07-16 18:40:00","orgNo":"1340618","typeCode":"计划停电","poweroffArea":"【分支停电】停1大张庄内2,1大张庄内6,2大张庄外12【纯农排变】,1大张庄内3,1小张庄内2,2大张庄外07【纯农排变】,大张庄外9【纯农排变】,1大张庄内5,2大张庄外16【纯农排变】,2大张庄外6【纯农排变】,2大张庄外11【纯农排变】,1小张庄内3,2大张庄外4【纯农排变】,大张庄安置楼,2大张庄外15【纯农排变】,0671603861-大张庄安置楼-专变-213878021-大张庄安置楼,2大张庄外10【纯农排变】,2小张庄外2【纯农排变】,2大张庄外3【纯农排变】,3大张庄外5【纯农排变】,2小张庄外3【纯农排变】,1大张庄内7,2大张庄外8【纯农排变】,2小张庄外7【纯农排变】,2大张庄外14【纯农排变】,2小张庄外8【纯农排变】,2小张庄外4【纯农排变】,2小张庄外5【纯农排变】,大张庄小学变压器2,1大张庄内8,大张庄砖厂,2大张庄外13【纯农排变】,大张庄小学变压器1,1大张庄外2变压器,小张庄外9柱上变压器,1大张庄内4,1小张庄内1,2小张庄外1【纯农排变】,2大张庄外17【纯农排变】,1大张庄内1,2小张庄外6【纯农排变】","poweroffReason":"【停电原因】由于线路换杆导致１１０ＫＶ罗侯变电站１０ＫＶ西辛庄线５５６线路主干１５５号杆至２５４号杆停电 【变更送电】因工作加快原因，送电时间由２０：３０变更为１８：４０ 【发布渠道】清苑区电视台（０７月０８日１９时至０７月１５日２０时之间）屏幕上方滚动","powerTime":"2019-07-16 18:17:44","powerComm":"李宝坤通知已送电","subsNo":"","lineNo":"","tgNo":"","tgName":null,"infoStatus":"1","orgName":"国网清苑县供电公司","typeName":null,"infoStatusName":null,"dateDay":null,"orgNos":null,"nowTime":null,"countyName":null,"streetName":null,"villageName":null,"roadName":null,"communityName":null,"tranName":null,"sdLineName":null,"cityCode":"1340618","cityName":"国网清苑县供电公司","provinceCode":null,"stopTime":"2019-07-16 18:40:00","powerType":"全部","powerOffArea":"【分支停电】停1大张庄内2,1大张庄内6,2大张庄外12【纯农排变】,1大张庄内3,1小张庄内2,2大张庄外07【纯农排变】,大张庄外9【纯农排变】,1大张庄内5,2大张庄外16【纯农排变】,2大张庄外6【纯农排变】,2大张庄外11【纯农排变】,1小张庄内3,2大张庄外4【纯农排变】,大张庄安置楼,2大张庄外15【纯农排变】,0671603861-大张庄安置楼-专变-213878021-大张庄安置楼,2大张庄外10【纯农排变】,2小张庄外2【纯农排变】,2大张庄外3【纯农排变】,3大张庄外5【纯农排变】,2小张庄外3【纯农排变】,1大张庄内7,2大张庄外8【纯农排变】,2小张庄外7【纯农排变】,2大张庄外14【纯农排变】,2小张庄外8【纯农排变】,2小张庄外4【纯农排变】,2小张庄外5【纯农排变】,大张庄小学变压器2,1大张庄内8,大张庄砖厂,2大张庄外13【纯农排变】,大张庄小学变压器1,1大张庄外2变压器,小张庄外9柱上变压器,1大张庄内4,1小张庄内1,2小张庄外1【纯农排变】,2大张庄外17【纯农排变】,1大张庄内1,2小张庄外6【纯农排变】","powerOffReason":"【停电原因】由于线路换杆导致１１０ＫＶ罗侯变电站１０ＫＶ西辛庄线５５６线路主干１５５号杆至２５４号杆停电 【变更送电】因工作加快原因，送电时间由２０：３０变更为１８：４０ 【发布渠道】清苑区电视台（０７月０８日１９时至０７月１５日２０时之间）屏幕上方滚动","powerOffId":"2019070713000084"},{"poweroffId":2019070713000026,"sgpoweroffId":null,"subsName":"","lineName":"10kV郭村566线","pubTranName":"军诜农业13台区,南郭村内2,宋固农业3纯农排变,宋固内7,宋固内10,军诜面粉厂,566伍仁桥农业8纯农排变,大章内2,军诜综合3变压器变压器,宋固农业9纯农排变,伍仁桥综1,久久棉织厂,南郭村农业3台区,宋固内4,大章外6,沙头农业7纯农排变,伍仁桥外6台区,566伍仁桥农业7纯农排变,兴华印染厂,新军诜综合3台区,宋固外6,宋固农业2纯农排变,新军诜内2,宋固内1,沙头农业4纯农排变,郭村农业1纯农排变,军诜农业16台区,军诜综合8号,宋固内2,南郭村内1,军诜农业1变压器【纯农排变】,军诜农业9纯农排变,沙头综合6台区变压器,军诜农业12纯农排变,军诜农业10纯农排变,大章农业5纯农排变,宋固综合9台区,军诜综合4变压器变压器,南郭村外2,沙头外12新增,军诜农业7变压器,伍仁桥内12台区,新军诜农业1号新,军诜综合5变压器变压器,伍仁桥外6(566)新,军诜外5,沙头农业10纯农排变,沙头外2,伍仁桥农业11变压器,军诜外6,沙头综合3变压器变压器,沙头外11【纯农排变】,大章内3,伍仁桥外4,军诜外8,大章综合4台区变压器,沙头农业8纯农排变,宋固内6,伍仁村农业1纯农排变,宋固农业1纯农排变,郭村农业4纯农排变,伍仁村外3,宋固农业11纯农排变,宋固农业8纯农排变,郭村农业6纯农排变,军诜内二综合,沙头农业5纯农排变,军诜农业2纯农排变,宋固外12,伍仁村农业2纯农排变,伍仁桥农业12变压器,沙头农业6纯农排变,伍仁桥566线外3,伍中,军诜综合11台区变压器,南郭村内5,伍仁村农业5纯农排变,军诜外4台区变压器,郭村农业7纯农排变,沙头农业3纯农排变,宋古面粉厂,军诜内七综合,军诜农业14台区变压器,宋固农业10纯农排变,军诜综合9号,大章外4,军诜综合10号,宋固内8,宋固外7,军诜农业3纯农排变,大章外8,大章外1,伍仁村综合5台区变压器,郭村内3,伍仁村农业新增6变压器,大章外3,大章农业2纯农排变,沙头内四综合,0555317051-安国市卓正无纺布有限公司-专变-89803434-安国市卓正无纺布有限公司,伍仁村内1,新军诜新增农业20柱上变压器（新）,宋固农业4纯农排变,大章内1,伍仁桥农业10变压器,军诜内1新,军诜综合6变压器变压器,新军诜农业2台区,沙头综合7台区变压器,南郭村内4台区,沙头内2,军诜外11,宋固外5,宋固内3,新军诜内1,宋固村内5号综合,郭村农业5纯农排变,沙头内1,沙头农业9纯农排变,伍仁村内3,伍仁村农业4纯农排变,沙头农业1纯农排变,","scope":"【影响街道/乡镇】伍仁桥镇 【高危重要客户】无 【影响客户】宋固村、军诜村、沙头村、新军诜村、大章村、南郭村、伍仁桥村","startTime":"2019-07-07 04:10:00","stopDate":"2019-07-07 08:00:00","orgNo":"1340606","typeCode":"电网故障停限电","poweroffArea":"【全线路停电】停566伍仁桥农业7纯农排变,军诜农业16台区,新军诜农业2台区,军诜农业1变压器【纯农排变】,军诜外4台区变压器,大章外6,军诜外8,南郭村内4台区,大章综合4台区变压器,军诜农业7变压器,宋固内7,郭村农业7纯农排变,军诜综合3变压器变压器,军诜农业12纯农排变,沙头内1,宋固农业8纯农排变,宋固内6,军诜综合4变压器变压器,郭村农业1纯农排变,宋固内3,伍仁村农业5纯农排变,宋固外5,沙头农业10纯农排变,沙头农业3纯农排变,军诜综合6变压器变压器,宋固外6,沙头农业8纯农排变,大章内1,宋固农业3纯农排变,沙头农业5纯农排变,宋固内8,0555317051-安国市卓正无纺布有限公司-专变-89803434-安国市卓正无纺布有限公司,沙头综合6台区变压器,伍仁村内1,宋固内1,宋固内10,伍仁桥566线外3,沙头农业1纯农排变,新军诜综合3台区,沙头外12新增,郭村农业5纯农排变,伍仁村农业4纯农排变,沙头农业4纯农排变,军诜农业2纯农排变,军诜综合11台区变压器,军诜内1新,伍仁村内3,军诜综合5变压器变压器,大章农业2纯农排变,军诜外5,伍仁桥外6(566)新,伍仁桥农业11变压器,沙头内四综合,宋固村内5号综合,郭村农业4纯农排变,大章内3,大章外1,沙头外11【纯农排变】,大章外8,新军诜农业1号新,军诜内七综合,沙头内2,伍仁村综合5台区变压器,沙头农业7纯农排变,伍仁桥农业12变压器,伍仁村外3,军诜综合10号,军诜农业3纯农排变,宋固农业1纯农排变,伍仁村农业新增6变压器,新军诜内1,军诜面粉厂,伍中,大章农业5纯农排变,军诜内二综合,大章外3,宋固外12,兴华印染厂,伍仁桥内12台区,南郭村外2,南郭村内1,军诜综合9号,南郭村内2,沙头农业9纯农排变,沙头综合7台区变压器,南郭村内5,伍仁桥外4,宋固内2,新军诜内2,宋古面粉厂,军诜综合8号,军诜农业14台区变压器,军诜外11,久久棉织厂,伍仁村农业2纯农排变,新军诜新增农业20柱上变压器（新）,南郭村农业3台区,宋固农业4纯农排变,宋固农业2纯农排变,沙头综合3变压器变压器,伍仁村农业1纯农排变,大章内2,伍仁桥农业10变压器,伍仁桥综1,宋固农业10纯农排变,沙头外2,军诜农业9纯农排变,宋固农业9纯农排变,宋固内4,大章外4,伍仁桥外6台区,宋固外7,宋固综合9台区,宋固农业11纯农排变,军诜外6,沙头农业6纯农排变,郭村内3,军诜农业13台区,郭村农业6纯农排变,566伍仁桥农业8纯农排变,军诜农业10纯农排变","poweroffReason":"【停电原因】由于站内开关跳闸导致１１０ＫＶ伍仁桥变电站１０ＫＶ郭村５６６线路全线停电 【变更送电】因抢修进度加快原因，送电时间由０９：３０变更为０８：００ 【发布渠道】通过９５５９８发布","powerTime":"2019-07-07 07:13:18","powerComm":"已送电","subsNo":"","lineNo":"","tgNo":"","tgName":null,"infoStatus":"1","orgName":"国网安国市供电公司","typeName":null,"infoStatusName":null,"dateDay":null,"orgNos":null,"nowTime":null,"countyName":null,"streetName":null,"villageName":null,"roadName":null,"communityName":null,"tranName":null,"sdLineName":null,"cityCode":"1340606","cityName":"国网安国市供电公司","provinceCode":null,"stopTime":"2019-07-07 08:00:00","powerType":"全部","powerOffArea":"【全线路停电】停566伍仁桥农业7纯农排变,军诜农业16台区,新军诜农业2台区,军诜农业1变压器【纯农排变】,军诜外4台区变压器,大章外6,军诜外8,南郭村内4台区,大章综合4台区变压器,军诜农业7变压器,宋固内7,郭村农业7纯农排变,军诜综合3变压器变压器,军诜农业12纯农排变,沙头内1,宋固农业8纯农排变,宋固内6,军诜综合4变压器变压器,郭村农业1纯农排变,宋固内3,伍仁村农业5纯农排变,宋固外5,沙头农业10纯农排变,沙头农业3纯农排变,军诜综合6变压器变压器,宋固外6,沙头农业8纯农排变,大章内1,宋固农业3纯农排变,沙头农业5纯农排变,宋固内8,0555317051-安国市卓正无纺布有限公司-专变-89803434-安国市卓正无纺布有限公司,沙头综合6台区变压器,伍仁村内1,宋固内1,宋固内10,伍仁桥566线外3,沙头农业1纯农排变,新军诜综合3台区,沙头外12新增,郭村农业5纯农排变,伍仁村农业4纯农排变,沙头农业4纯农排变,军诜农业2纯农排变,军诜综合11台区变压器,军诜内1新,伍仁村内3,军诜综合5变压器变压器,大章农业2纯农排变,军诜外5,伍仁桥外6(566)新,伍仁桥农业11变压器,沙头内四综合,宋固村内5号综合,郭村农业4纯农排变,大章内3,大章外1,沙头外11【纯农排变】,大章外8,新军诜农业1号新,军诜内七综合,沙头内2,伍仁村综合5台区变压器,沙头农业7纯农排变,伍仁桥农业12变压器,伍仁村外3,军诜综合10号,军诜农业3纯农排变,宋固农业1纯农排变,伍仁村农业新增6变压器,新军诜内1,军诜面粉厂,伍中,大章农业5纯农排变,军诜内二综合,大章外3,宋固外12,兴华印染厂,伍仁桥内12台区,南郭村外2,南郭村内1,军诜综合9号,南郭村内2,沙头农业9纯农排变,沙头综合7台区变压器,南郭村内5,伍仁桥外4,宋固内2,新军诜内2,宋古面粉厂,军诜综合8号,军诜农业14台区变压器,军诜外11,久久棉织厂,伍仁村农业2纯农排变,新军诜新增农业20柱上变压器（新）,南郭村农业3台区,宋固农业4纯农排变,宋固农业2纯农排变,沙头综合3变压器变压器,伍仁村农业1纯农排变,大章内2,伍仁桥农业10变压器,伍仁桥综1,宋固农业10纯农排变,沙头外2,军诜农业9纯农排变,宋固农业9纯农排变,宋固内4,大章外4,伍仁桥外6台区,宋固外7,宋固综合9台区,宋固农业11纯农排变,军诜外6,沙头农业6纯农排变,郭村内3,军诜农业13台区,郭村农业6纯农排变,566伍仁桥农业8纯农排变,军诜农业10纯农排变","powerOffReason":"【停电原因】由于站内开关跳闸导致１１０ＫＶ伍仁桥变电站１０ＫＶ郭村５６６线路全线停电 【变更送电】因抢修进度加快原因，送电时间由０９：３０变更为０８：００ 【发布渠道】通过９５５９８发布","powerOffId":"2019070713000026"},{"poweroffId":2019070713000014,"sgpoweroffId":null,"subsName":"","lineName":"10kV温仁线579","pubTranName":"温仁小学2,2温仁六站外15【纯农排变】,0571015250-清苑县康达塑料制品厂-专变-119516202-清苑县康达塑料制品厂,2温仁一站外2【纯农排变】,2温仁三站外9【纯农排变】,1温仁内5,2温仁二站外2【纯农排变】,1温仁内16,2温仁二站外5【纯农排变】,2良寨外4【纯农排变】,温仁幼儿园2,温仁福利面粉厂,2温仁六站外3【纯农排变】,2温仁六站外5【纯农排变】,2温仁六站外8【纯农排变】,保定市凯运新型建材制造有限公司,保定凯利印刷有限公司,清苑县电力局,温仁水厂,1温仁内10,1温仁内15,保定莱盛打印机配件有限公司,2温仁二站外9【纯农排变】,保定市清苑区温仁镇温仁幼儿园,2温仁二站外7【纯农排变】,1温仁内3,2温仁三站外3【纯农排变】,温仁中学1,2孟庄外1台区【纯农排变】,温仁医院,1温仁内18,2温仁六站外9【纯农排变】,1温仁内12,2温仁六站外14【纯农排变】,2温仁六站外4【纯农排变】,2温仁二站外3【纯农排变】,1温仁内7号,2温仁一站外6【纯农排变】,1温仁内17,温仁幼儿园1,2温仁六站外7【纯农排变】,1温仁内2,2温仁三站外4【纯农排变】,温仁小学1,延福桥内1号,2温仁一站外7【纯农排变】,2温仁一站外11【纯农排变】,1温仁内6,1温仁内25,2温仁六站外12【纯农排变】,中石化河北建投天然气有限公司,1温仁内11,1温仁内26,1温仁内19,2温仁六站外13【纯农排变】,凯峰织布厂,2温仁三站外6【纯农排变】,2温仁三站外8【纯农排变】,1温仁内4,1温仁内21,0547067421-清苑县萬腾注塑厂-专变-47959877-清苑县万腾蓄电池配件厂,2温仁一站外12【纯农排变】,1温仁内23,2温仁六站外10【纯农排变】,2温仁一站外4,|清苑县新华铸造厂,2温仁二站外4,1温仁内13,温仁中学2,1温仁内22,2温仁六站外11【纯农排变】,温仁织布厂,1温仁内24,温仁6站外9,2温仁二站外8【纯农排变】,2温仁六站外6【纯农排变】,2温仁三站外5【纯农排变】,河北省清苑县温仁砼制品加工厂,1温仁内1,2温仁一站外3【纯农排变】,2温仁二站外6【纯农排变】,温仁中学4,温仁中学3,2温仁一站外9【纯农排变】,2温仁三站外2【纯农排变】,2温仁六站外2【纯农排变】,1温仁内8,2温仁一站外1【纯农排变】,1温仁内9,国网河北清苑县供电公司王盘供电所,2孟庄外2台区【纯农排变】,东风面粉厂,2温仁二站外10【纯农排变】,2温仁一站外5【纯农排变】,延福桥外1台区【纯农排变】,0667680948-清苑县利民加油站-专变-208445891-清苑县利民加油站,温仁邮局,2温仁二站外1【纯农排变】,1温仁内14,2温仁一站外8【纯农排变】,2温仁六站外1【纯农排变】,2温仁三站外7【纯农排变】,2温仁一站外10【纯农排变】,0547598738-清苑县萬腾注塑厂-专变-48030695-清苑县万腾畜电池配件厂,","scope":"【影响街道/乡镇】温仁乡 【高危重要客户】无 【影响客户】良寨、温仁、延福桥、南孟庄","startTime":"2019-07-07 03:04:47","stopDate":"2019-07-07 06:30:00","orgNo":"1340618","typeCode":"电网故障停限电","poweroffArea":"【全线路停电】停清苑县电力局,1温仁内7号,温仁中学1,2温仁六站外5【纯农排变】,2温仁六站外8【纯农排变】,保定市凯运新型建材制造有限公司,保定凯利印刷有限公司,温仁水厂,1温仁内10,1温仁内15,保定莱盛打印机配件有限公司,2温仁二站外9【纯农排变】,保定市清苑区温仁镇温仁幼儿园,2温仁二站外7【纯农排变】,1温仁内3,2温仁三站外3【纯农排变】,2温仁一站外11【纯农排变】,1温仁内6,1温仁内25,2温仁六站外12【纯农排变】,中石化河北建投天然气有限公司,1温仁内11,1温仁内26,东风面粉厂,1温仁内19,2温仁六站外13【纯农排变】,凯峰织布厂,2温仁三站外6【纯农排变】,2温仁三站外8【纯农排变】,温仁小学2,2温仁六站外15【纯农排变】,0571015250-清苑县康达塑料制品厂-专变-119516202-清苑县康达塑料制品厂,2温仁一站外2【纯农排变】,2温仁三站外9【纯农排变】,1温仁内5,2温仁二站外2【纯农排变】,1温仁内16,2温仁二站外5【纯农排变】,2良寨外4【纯农排变】,温仁幼儿园2,温仁福利面粉厂,2温仁六站外3【纯农排变】,2温仁一站外6【纯农排变】,1温仁内17,温仁幼儿园1,2温仁六站外7【纯农排变】,1温仁内2,2温仁三站外4【纯农排变】,温仁小学1,延福桥内1号,2温仁一站外7【纯农排变】,1温仁内4,1温仁内21,0547067421-清苑县萬腾注塑厂-专变-47959877-清苑县万腾蓄电池配件厂,2温仁一站外12【纯农排变】,1温仁内23,2温仁六站外10【纯农排变】,2温仁一站外4,|清苑县新华铸造厂,2温仁二站外4,1温仁内13,温仁中学2,1温仁内22,2温仁六站外2【纯农排变】,1温仁内8,2温仁一站外1【纯农排变】,1温仁内9,国网河北清苑县供电公司王盘供电所,2孟庄外2台区【纯农排变】,2温仁二站外10【纯农排变】,2温仁一站外5【纯农排变】,延福桥外1台区【纯农排变】,0667680948-清苑县利民加油站-专变-208445891-清苑县利民加油站,温仁邮局,2温仁六站外11【纯农排变】,温仁织布厂,1温仁内24,温仁6站外9,2温仁二站外8【纯农排变】,2温仁六站外6【纯农排变】,2温仁三站外5【纯农排变】,河北省清苑县温仁砼制品加工厂,1温仁内1,2温仁一站外3【纯农排变】,2温仁二站外6【纯农排变】,温仁中学4,温仁中学3,2温仁一站外9【纯农排变】,2温仁三站外2【纯农排变】,2温仁二站外1【纯农排变】,1温仁内14,2温仁一站外8【纯农排变】,2温仁六站外1【纯农排变】,2温仁三站外7【纯农排变】,2温仁一站外10【纯农排变】,0547598738-清苑县萬腾注塑厂-专变-48030695-清苑县万腾畜电池配件厂,2孟庄外1台区【纯农排变】,温仁医院,1温仁内18,2温仁六站外9【纯农排变】,1温仁内12,2温仁六站外14【纯农排变】,2温仁六站外4【纯农排变】,2温仁二站外3【纯农排变】","poweroffReason":"【停电原因】由于主干１３４号杆分支３号杆温仁中学变压器跌落烧毁导致１１０ＫＶ温仁变电站１０ＫＶ温仁线５７９线路全线停电 【变更送电】因抢修进度加快原因，送电时间由０９：００变更为０６：３０ 【发布渠道】通过９５５９８发布","powerTime":"2019-07-07 06:05:11","powerComm":"武建军通知已送电","subsNo":"","lineNo":"","tgNo":"","tgName":null,"infoStatus":"1","orgName":"国网清苑县供电公司","typeName":null,"infoStatusName":null,"dateDay":null,"orgNos":null,"nowTime":null,"countyName":null,"streetName":null,"villageName":null,"roadName":null,"communityName":null,"tranName":null,"sdLineName":null,"cityCode":"1340618","cityName":"国网清苑县供电公司","provinceCode":null,"stopTime":"2019-07-07 06:30:00","powerType":"全部","powerOffArea":"【全线路停电】停清苑县电力局,1温仁内7号,温仁中学1,2温仁六站外5【纯农排变】,2温仁六站外8【纯农排变】,保定市凯运新型建材制造有限公司,保定凯利印刷有限公司,温仁水厂,1温仁内10,1温仁内15,保定莱盛打印机配件有限公司,2温仁二站外9【纯农排变】,保定市清苑区温仁镇温仁幼儿园,2温仁二站外7【纯农排变】,1温仁内3,2温仁三站外3【纯农排变】,2温仁一站外11【纯农排变】,1温仁内6,1温仁内25,2温仁六站外12【纯农排变】,中石化河北建投天然气有限公司,1温仁内11,1温仁内26,东风面粉厂,1温仁内19,2温仁六站外13【纯农排变】,凯峰织布厂,2温仁三站外6【纯农排变】,2温仁三站外8【纯农排变】,温仁小学2,2温仁六站外15【纯农排变】,0571015250-清苑县康达塑料制品厂-专变-119516202-清苑县康达塑料制品厂,2温仁一站外2【纯农排变】,2温仁三站外9【纯农排变】,1温仁内5,2温仁二站外2【纯农排变】,1温仁内16,2温仁二站外5【纯农排变】,2良寨外4【纯农排变】,温仁幼儿园2,温仁福利面粉厂,2温仁六站外3【纯农排变】,2温仁一站外6【纯农排变】,1温仁内17,温仁幼儿园1,2温仁六站外7【纯农排变】,1温仁内2,2温仁三站外4【纯农排变】,温仁小学1,延福桥内1号,2温仁一站外7【纯农排变】,1温仁内4,1温仁内21,0547067421-清苑县萬腾注塑厂-专变-47959877-清苑县万腾蓄电池配件厂,2温仁一站外12【纯农排变】,1温仁内23,2温仁六站外10【纯农排变】,2温仁一站外4,|清苑县新华铸造厂,2温仁二站外4,1温仁内13,温仁中学2,1温仁内22,2温仁六站外2【纯农排变】,1温仁内8,2温仁一站外1【纯农排变】,1温仁内9,国网河北清苑县供电公司王盘供电所,2孟庄外2台区【纯农排变】,2温仁二站外10【纯农排变】,2温仁一站外5【纯农排变】,延福桥外1台区【纯农排变】,0667680948-清苑县利民加油站-专变-208445891-清苑县利民加油站,温仁邮局,2温仁六站外11【纯农排变】,温仁织布厂,1温仁内24,温仁6站外9,2温仁二站外8【纯农排变】,2温仁六站外6【纯农排变】,2温仁三站外5【纯农排变】,河北省清苑县温仁砼制品加工厂,1温仁内1,2温仁一站外3【纯农排变】,2温仁二站外6【纯农排变】,温仁中学4,温仁中学3,2温仁一站外9【纯农排变】,2温仁三站外2【纯农排变】,2温仁二站外1【纯农排变】,1温仁内14,2温仁一站外8【纯农排变】,2温仁六站外1【纯农排变】,2温仁三站外7【纯农排变】,2温仁一站外10【纯农排变】,0547598738-清苑县萬腾注塑厂-专变-48030695-清苑县万腾畜电池配件厂,2孟庄外1台区【纯农排变】,温仁医院,1温仁内18,2温仁六站外9【纯农排变】,1温仁内12,2温仁六站外14【纯农排变】,2温仁六站外4【纯农排变】,2温仁二站外3【纯农排变】","powerOffReason":"【停电原因】由于主干１３４号杆分支３号杆温仁中学变压器跌落烧毁导致１１０ＫＶ温仁变电站１０ＫＶ温仁线５７９线路全线停电 【变更送电】因抢修进度加快原因，送电时间由０９：００变更为０６：３０ 【发布渠道】通过９５５９８发布","powerOffId":"2019070713000014"},{"poweroffId":2019070613000651,"sgpoweroffId":null,"subsName":"","lineName":"市政II线512","pubTranName":"西堤驾校,北关5台区,小西堤幼儿园配变,研修中心内,研修中心外,园丁之家,北关1台区1,华赫园房地产开发有限公司,千里鞋厂,曲家湾东,曲家湾西,运动家园箱变配电变压器,小西堤南,幸福里小区东配电变压器,西堤315,0469478453-河北望都中学-专变-46817558-望都中学,小西堤北,城内小区2号,小西堤东,河北钢山房地产开发集团有限公司,0664749202-河北钢山房地产开发集团有限公司-专变-201073720-河北钢山房地产开发集团有限公司,小西堤北2号,北关2台区,龙泉公寓箱变配电变压器,旺府门前,小西堤西混1号,幸福里小区箱变配电变压器,农行配变,城内小区1号,天宇制鞋厂,河北钢山房地产开发集团有限公司(名都一品A区),","scope":"【影响街道/乡镇】望都镇、芙蓉商街　　 【高危重要客户】无　　 【影响客户】运动佳园、幸福里、城内、农行、小西堤、曲家湾、旺府门前、钢山房地产、名都一品、双丰面粉、望都中学、千里鞋厂、天宇鞋厂、园丁之家、龙泉公寓、北关、华都豪苑、华赫园房地产、旭景小区","startTime":"2019-07-06 21:09:03","stopDate":"2019-07-07 04:00:00","orgNo":"1340623","typeCode":"电网故障停限电","poweroffArea":"【分支停电】停千里鞋厂,曲家湾东,曲家湾西,运动家园箱变配电变压器,小西堤南,幸福里小区东配电变压器,西堤315,0469478453-河北望都中学-专变-46817558-望都中学,小西堤北,城内小区2号,小西堤东,旺府门前,小西堤西混1号,幸福里小区箱变配电变压器,农行配变,城内小区1号,天宇制鞋厂,河北钢山房地产开发集团有限公司(名都一品A区),河北钢山房地产开发集团有限公司,0664749202-河北钢山房地产开发集团有限公司-专变-201073720-河北钢山房地产开发集团有限公司,小西堤北2号,北关2台区,龙泉公寓箱变配电变压器,西堤驾校,北关5台区,小西堤幼儿园配变,研修中心内,研修中心外,园丁之家,北关1台区1,华赫园房地产开发有限公司","poweroffReason":"【停电原因】由于Ｃ相接地导致１１０ＫＶ西堤变电站市政ＩＩ线５１２线路００５号杆５１２２号开关以下线路停电 【变更送电】因抢修进度加快原因，送电时间由１２：００变更为０４：００ 【发布渠道】通过９５５９８发布","powerTime":"2019-07-07 03:17:28","powerComm":"已送电","subsNo":"","lineNo":"","tgNo":"","tgName":null,"infoStatus":"1","orgName":"国网望都县供电公司","typeName":null,"infoStatusName":null,"dateDay":null,"orgNos":null,"nowTime":null,"countyName":null,"streetName":null,"villageName":null,"roadName":null,"communityName":null,"tranName":null,"sdLineName":null,"cityCode":"1340623","cityName":"国网望都县供电公司","provinceCode":null,"stopTime":"2019-07-07 04:00:00","powerType":"全部","powerOffArea":"【分支停电】停千里鞋厂,曲家湾东,曲家湾西,运动家园箱变配电变压器,小西堤南,幸福里小区东配电变压器,西堤315,0469478453-河北望都中学-专变-46817558-望都中学,小西堤北,城内小区2号,小西堤东,旺府门前,小西堤西混1号,幸福里小区箱变配电变压器,农行配变,城内小区1号,天宇制鞋厂,河北钢山房地产开发集团有限公司(名都一品A区),河北钢山房地产开发集团有限公司,0664749202-河北钢山房地产开发集团有限公司-专变-201073720-河北钢山房地产开发集团有限公司,小西堤北2号,北关2台区,龙泉公寓箱变配电变压器,西堤驾校,北关5台区,小西堤幼儿园配变,研修中心内,研修中心外,园丁之家,北关1台区1,华赫园房地产开发有限公司","powerOffReason":"【停电原因】由于Ｃ相接地导致１１０ＫＶ西堤变电站市政ＩＩ线５１２线路００５号杆５１２２号开关以下线路停电 【变更送电】因抢修进度加快原因，送电时间由１２：００变更为０４：００ 【发布渠道】通过９５５９８发布","powerOffId":"2019070613000651"},{"poweroffId":2019070613000647,"sgpoweroffId":null,"subsName":"","lineName":"中良沟564","pubTranName":"南良沟3462增,","scope":"【影响街道/乡镇】林屯乡 【高危重要客户】无 【影响客户】南良沟村","startTime":"2019-07-06 20:13:27","stopDate":"2019-07-06 21:40:00","orgNo":"1340626","typeCode":"电网故障停限电","poweroffArea":"【单台区停电】停南良沟3462增","poweroffReason":"【停电原因】由于低压线断线导致１１０ＫＶ松林店变电站中良沟５６４线路南良沟３４６２公变台区停电 【变更送电】因抢修进度加快原因，送电时间由０７日１２：００变更为０６日２１：４０ 【发布渠道】通过９５５９８发布","powerTime":"2019-07-06 21:20:13","powerComm":"恢复送电","subsNo":"","lineNo":"","tgNo":"","tgName":null,"infoStatus":"1","orgName":"国网涿州市供电公司","typeName":null,"infoStatusName":null,"dateDay":null,"orgNos":null,"nowTime":null,"countyName":null,"streetName":null,"villageName":null,"roadName":null,"communityName":null,"tranName":null,"sdLineName":null,"cityCode":"1340626","cityName":"国网涿州市供电公司","provinceCode":null,"stopTime":"2019-07-06 21:40:00","powerType":"全部","powerOffArea":"【单台区停电】停南良沟3462增","powerOffReason":"【停电原因】由于低压线断线导致１１０ＫＶ松林店变电站中良沟５６４线路南良沟３４６２公变台区停电 【变更送电】因抢修进度加快原因，送电时间由０７日１２：００变更为０６日２１：４０ 【发布渠道】通过９５５９８发布","powerOffId":"2019070613000647"},{"poweroffId":2019070613000637,"sgpoweroffId":null,"subsName":"","lineName":"10kV鲁岗站516线路","pubTranName":"C3022柱上变压器,0690444795-保定市公共交通总公司-变压器-1,C135柱上变压器,C134柱上变压器,C376柱上变压器,C133柱上变压器,0356231455-公共交通四公司-专变,C540柱上变压器,0690444795-保定市公共交通总公司-变压器-2,","scope":"【影响街道/乡镇】颉庄乡、纸厂路 【高危重要客户】无 【影响客户】小车村、悦多商贸、汽车公司、供水公司、胜达建材、河北建新、吉达电力集团建筑公司、淑九商贸、煤气厂","startTime":"2019-07-06 19:44:08","stopDate":"2019-07-06 22:00:00","orgNo":"13406","typeCode":"电网故障停限电","poweroffArea":"【分支停电】停C3022柱上变压器,0690444795-保定市公共交通总公司-变压器-1,C135柱上变压器,C134柱上变压器,C376柱上变压器,C133柱上变压器,0356231455-公共交通四公司-专变,C540柱上变压器,0690444795-保定市公共交通总公司-变压器-2","poweroffReason":"【停电原因】由于分支开关短路导致１０ＫＶ鲁岗变电站５１６线路４３号开关以下停电【变更送电】因抢修进度加快，原定２３:００送电现计划２２:００送电【发布渠道】通过９５５９８发布","powerTime":"2019-07-06 21:41:50","powerComm":"已送电","subsNo":"","lineNo":"","tgNo":"","tgName":null,"infoStatus":"1","orgName":"保定供电公司","typeName":null,"infoStatusName":null,"dateDay":null,"orgNos":null,"nowTime":null,"countyName":null,"streetName":null,"villageName":null,"roadName":null,"communityName":null,"tranName":null,"sdLineName":null,"cityCode":"13406","cityName":"保定供电公司","provinceCode":null,"stopTime":"2019-07-06 22:00:00","powerType":"全部","powerOffArea":"【分支停电】停C3022柱上变压器,0690444795-保定市公共交通总公司-变压器-1,C135柱上变压器,C134柱上变压器,C376柱上变压器,C133柱上变压器,0356231455-公共交通四公司-专变,C540柱上变压器,0690444795-保定市公共交通总公司-变压器-2","powerOffReason":"【停电原因】由于分支开关短路导致１０ＫＶ鲁岗变电站５１６线路４３号开关以下停电【变更送电】因抢修进度加快，原定２３:００送电现计划２２:００送电【发布渠道】通过９５５９８发布","powerOffId":"2019070613000637"},{"poweroffId":2019070613000626,"sgpoweroffId":null,"subsName":"","lineName":"市政线517","pubTranName":"变压器,中华街东二,农机具检察院,城内新上2号,化肥家属院,礼堂配变,党校家属院,五金东配变,中心配变,人民配变,望都中学4号配变,工行家属楼,望都中学2号配变,旺府金街箱变配电变压器,中心 配变,西堤中学配变,商城配变,北京市红叶鞋厂望都联合加工厂,电信家属院,司法局配变,盛华丽景,火车站家属院,长城轴瓦,五金西二,惠友万家福超市,望都中学3号配变,望都县医院,双盛街配变,防疫站配变,望都县春藤有限公司,庆都配变,税务局,建安公司小区,九龙公园,望都中学1号配变,旭景华庭住宅小区,广林配变,西环配变,农行,东大公用配变,糖酒医药,城内新上,北京铁路局石家庄供电段,0587699143-石家庄泽居物业服务有限公司-专变-125246330-变压器,百盛购物中心,党校院配变,中华街东一配变,金康园小区,县委配变,河北天行建房地产开发集团有限公司望都分公司,新华书店,中国网通望都县分公司,工行,河北啵啷鼓商贸有限公司,县医院,五金西,望都中学配变2,欣康园,隆泰胜景 箱变配电变压器,","scope":"【影响街道/乡镇】望都镇、中华街、庆都街、步行街、双盛街 【高危重要客户】无　　 【影响客户】火车站家属院、陇泰盛景小区、礼堂、化肥家属院、金康园小区、建安公司小区、旭景华庭小区、人行联社院、党校家属院、城内小区、电信家属院、农机具、检察院、木器厂、机械厂南、望都商城、党校院、城内新上、防疫站、糖酒医药、五金、望都中学、广电、税务、庆都、东大、广林、人民、县委、西环、财政局、西堤中学、广播局、农行、宣武鞋厂、工行、望中、三强鞋厂、春藤公司、移动公司、惠友超市、百盛购物中心、北京铁路局石家庄供电段、联社、税务局、中医院、文体中心楼、红叶鞋厂、网通、法院、新华书店、旧县委、盛华丽景、市场建设服务局、小西堤部分混合及农业、望都县医院、保定瑞合房地产开发有限公司、拨浪鼓房地产、欣康园、光大电器、菜市场、永春饭店","startTime":"2019-07-06 19:26:00","stopDate":"2019-07-07 04:00:00","orgNo":"1340623","typeCode":"电网故障停限电","poweroffArea":"【全线路停电】停东大公用配变,望都中学配变2,欣康园,隆泰胜景 箱变配电变压器,变压器,中华街东二,农机具检察院,城内新上2号,化肥家属院,礼堂配变,党校家属院,五金东配变,中心配变,人民配变,望都中学4号配变,双盛街配变,防疫站配变,望都县春藤有限公司,庆都配变,税务局,建安公司小区,九龙公园,望都中学1号配变,工行家属楼,望都中学2号配变,旺府金街箱变配电变压器,中心 配变,西堤中学配变,商城配变,北京市红叶鞋厂望都联合加工厂,电信家属院,司法局配变,盛华丽景,火车站家属院,长城轴瓦,五金西二,惠友万家福超市,望都中学3号配变,望都县医院,旭景华庭住宅小区,广林配变,西环配变,农行,糖酒医药,城内新上,北京铁路局石家庄供电段,中华街东一配变,金康园小区,县委配变,河北天行建房地产开发集团有限公司望都分公司,新华书店,中国网通望都县分公司,工行,河北啵啷鼓商贸有限公司,县医院,五金西,0587699143-石家庄泽居物业服务有限公司-专变-125246330-变压器,百盛购物中心,党校院配变","poweroffReason":"【停电原因】由于Ｃ相接地导致１１０ＫＶ西堤变电站市政线５１７线路全线停电 【变更送电】因抢修进度加快原因，送电时间由１２：００变更为０４：００ 【发布渠道】通过９５５９８发布","powerTime":"2019-07-07 03:18:18","powerComm":"已送电","subsNo":"","lineNo":"","tgNo":"","tgName":null,"infoStatus":"1","orgName":"国网望都县供电公司","typeName":null,"infoStatusName":null,"dateDay":null,"orgNos":null,"nowTime":null,"countyName":null,"streetName":null,"villageName":null,"roadName":null,"communityName":null,"tranName":null,"sdLineName":null,"cityCode":"1340623","cityName":"国网望都县供电公司","provinceCode":null,"stopTime":"2019-07-07 04:00:00","powerType":"全部","powerOffArea":"【全线路停电】停东大公用配变,望都中学配变2,欣康园,隆泰胜景 箱变配电变压器,变压器,中华街东二,农机具检察院,城内新上2号,化肥家属院,礼堂配变,党校家属院,五金东配变,中心配变,人民配变,望都中学4号配变,双盛街配变,防疫站配变,望都县春藤有限公司,庆都配变,税务局,建安公司小区,九龙公园,望都中学1号配变,工行家属楼,望都中学2号配变,旺府金街箱变配电变压器,中心 配变,西堤中学配变,商城配变,北京市红叶鞋厂望都联合加工厂,电信家属院,司法局配变,盛华丽景,火车站家属院,长城轴瓦,五金西二,惠友万家福超市,望都中学3号配变,望都县医院,旭景华庭住宅小区,广林配变,西环配变,农行,糖酒医药,城内新上,北京铁路局石家庄供电段,中华街东一配变,金康园小区,县委配变,河北天行建房地产开发集团有限公司望都分公司,新华书店,中国网通望都县分公司,工行,河北啵啷鼓商贸有限公司,县医院,五金西,0587699143-石家庄泽居物业服务有限公司-专变-125246330-变压器,百盛购物中心,党校院配变","powerOffReason":"【停电原因】由于Ｃ相接地导致１１０ＫＶ西堤变电站市政线５１７线路全线停电 【变更送电】因抢修进度加快原因，送电时间由１２：００变更为０４：００ 【发布渠道】通过９５５９８发布","powerOffId":"2019070613000626"},{"poweroffId":2019070613000609,"sgpoweroffId":null,"subsName":"","lineName":"箱包城514","pubTranName":"变压器,0387441537-保定白沟新城悦联市场服务有限公司-专变-212349250-高碑店市丰合元商贸有限公司变压器2,刘国强2,家属楼公变,变压器1600,航天医院,变压器315,高碑店市丰合元商贸有限公司,变压器3,隆基泰和实业有限公司凯旋城,涞远村南,阳光凯旋城,涞远村,0387443328-高碑店市华达电器销售有限公司-专变-45278641-高碑店市华达电器销售有限公司,阳光888小区 630,0387442484-白沟地税局-专变-45278598-董振良,音像街1号公变,张中坡,分局公变,变压器1,白沟新城规划建设局(友谊路路灯)变压器,阳光凯旋城800,音像街2号公变,0387442266-王连生-专变-45278736-王连生,董振良,世纪洗浴,0588746260-保定白沟新城英杰学校-专变-125352422-变压器,0387441436-明珠小区-专变-45278590-李振学,阳光888小区,0387442875-花园小区-专变-45278732-贾坡,0387442888-王玉强-专变-45278733-张立,国际贸易中心1,0387442383-来远村北工地-专变-45278734-来远村北工地,胜利海绵厂,0387442064-盛大龙-专变-45278594-盛大龙,音响街3号公变,","scope":"【影响街道/乡镇】白沟镇、团结路、仁和北路、音像街 【高危重要客户】白沟新城中心医院、凯旋城小区、大都市小区 【影响客户】仁和庄村、尚水坊、瑞博幼儿园、刘国强、时帅军（董振良）、大都仕（韩立新）、盛大龙、涞远村、阳光８８８凯旋城、王玉强、魏建水、徐波、保定白沟新城英杰学校、中国银行、董振良、王连生、华达电器、胜利海绵厂、大红门（丰合园)、国贸小区、世纪洗浴","startTime":"2019-07-06 19:04:17","stopDate":"2019-07-06 21:30:00","orgNo":"1340612","typeCode":"电网故障停限电","poweroffArea":"【全线路停电】停0387442484-白沟地税局-专变-45278598-董振良,变压器,0387441537-保定白沟新城悦联市场服务有限公司-专变-212349250-高碑店市丰合元商贸有限公司变压器2,刘国强2,家属楼公变,变压器1600,航天医院,变压器315,高碑店市丰合元商贸有限公司,变压器3,隆基泰和实业有限公司凯旋城,涞远村南,音响街3号公变,阳光凯旋城,涞远村,0387443328-高碑店市华达电器销售有限公司-专变-45278641-高碑店市华达电器销售有限公司,阳光888小区 630,音像街1号公变,张中坡,分局公变,变压器1,白沟新城规划建设局(友谊路路灯)变压器,阳光凯旋城800,音像街2号公变,0387442266-王连生-专变-45278736-王连生,董振良,世纪洗浴,0588746260-保定白沟新城英杰学校-专变-125352422-变压器,0387441436-明珠小区-专变-45278590-李振学,阳光888小区,0387442875-花园小区-专变-45278732-贾坡,0387442888-王玉强-专变-45278733-张立,国际贸易中心1,0387442383-来远村北工地-专变-45278734-来远村北工地,胜利海绵厂,0387442064-盛大龙-专变-45278594-盛大龙","poweroffReason":"【停电原因】由于主干１３号杆弓子线烧毁导致１１０ＫＶ白沟变电站１０ＫＶ箱包城５１４线路全线停电 【变更送电】因抢修进度加快原因，送电时间由２３：５９变更为２１：３０ 【发布渠道】通过９５５９８发布","powerTime":"2019-07-06 20:53:06","powerComm":"已送电","subsNo":"","lineNo":"","tgNo":"","tgName":null,"infoStatus":"1","orgName":"国网高碑店市供电公司","typeName":null,"infoStatusName":null,"dateDay":null,"orgNos":null,"nowTime":null,"countyName":null,"streetName":null,"villageName":null,"roadName":null,"communityName":null,"tranName":null,"sdLineName":null,"cityCode":"1340612","cityName":"国网高碑店市供电公司","provinceCode":null,"stopTime":"2019-07-06 21:30:00","powerType":"全部","powerOffArea":"【全线路停电】停0387442484-白沟地税局-专变-45278598-董振良,变压器,0387441537-保定白沟新城悦联市场服务有限公司-专变-212349250-高碑店市丰合元商贸有限公司变压器2,刘国强2,家属楼公变,变压器1600,航天医院,变压器315,高碑店市丰合元商贸有限公司,变压器3,隆基泰和实业有限公司凯旋城,涞远村南,音响街3号公变,阳光凯旋城,涞远村,0387443328-高碑店市华达电器销售有限公司-专变-45278641-高碑店市华达电器销售有限公司,阳光888小区 630,音像街1号公变,张中坡,分局公变,变压器1,白沟新城规划建设局(友谊路路灯)变压器,阳光凯旋城800,音像街2号公变,0387442266-王连生-专变-45278736-王连生,董振良,世纪洗浴,0588746260-保定白沟新城英杰学校-专变-125352422-变压器,0387441436-明珠小区-专变-45278590-李振学,阳光888小区,0387442875-花园小区-专变-45278732-贾坡,0387442888-王玉强-专变-45278733-张立,国际贸易中心1,0387442383-来远村北工地-专变-45278734-来远村北工地,胜利海绵厂,0387442064-盛大龙-专变-45278594-盛大龙","powerOffReason":"【停电原因】由于主干１３号杆弓子线烧毁导致１１０ＫＶ白沟变电站１０ＫＶ箱包城５１４线路全线停电 【变更送电】因抢修进度加快原因，送电时间由２３：５９变更为２１：３０ 【发布渠道】通过９５５９８发布","powerOffId":"2019070613000609"},{"poweroffId":2019070613000608,"sgpoweroffId":null,"subsName":"","lineName":"10KV大团柳511","pubTranName":"宁村村西【纯农排变】,","scope":"【影响街道/乡镇】东城坊镇 【高危重要客户】无 【影响客户】宁村","startTime":"2019-07-06 19:07:20","stopDate":"2019-07-06 21:30:00","orgNo":"1340626","typeCode":"电网故障停限电","poweroffArea":"【单台区停电】停宁村村西【纯农排变】","poweroffReason":"【停电原因】由于低压空开烧毁导致３５ＫＶ劳动学院变电站１０ＫＶ大团柳５１１线路宁村村西公变台区停电 【变更送电】因抢修进度加快原因，送电时间由０７日１０：００变更为０６日２１：３０ 【发布渠道】通过９５５９８发布","powerTime":"2019-07-06 21:12:16","powerComm":"恢复送电","subsNo":"","lineNo":"","tgNo":"","tgName":null,"infoStatus":"1","orgName":"国网涿州市供电公司","typeName":null,"infoStatusName":null,"dateDay":null,"orgNos":null,"nowTime":null,"countyName":null,"streetName":null,"villageName":null,"roadName":null,"communityName":null,"tranName":null,"sdLineName":null,"cityCode":"1340626","cityName":"国网涿州市供电公司","provinceCode":null,"stopTime":"2019-07-06 21:30:00","powerType":"全部","powerOffArea":"【单台区停电】停宁村村西【纯农排变】","powerOffReason":"【停电原因】由于低压空开烧毁导致３５ＫＶ劳动学院变电站１０ＫＶ大团柳５１１线路宁村村西公变台区停电 【变更送电】因抢修进度加快原因，送电时间由０７日１０：００变更为０６日２１：３０ 【发布渠道】通过９５５９８发布","powerOffId":"2019070613000608"},{"poweroffId":2019070613000580,"sgpoweroffId":null,"subsName":"","lineName":"张祖庄线512","pubTranName":"太平庄排4【纯农排变】,南王排3|07095123011【纯农排变】,新南王光2,铺头光8,太平庄,0696769801-定兴县张祖庄小学-专变-240815746-受坊小学,太平庄排1【纯农排变】,北王排2|07095123007【纯农排变】,*张祖庄移动机站,0680522638-河北圣沃农业开发有限公司-专变-221298166-河北圣沃-250,新铺头光6【2018年一批应急】,张祖庄光2,张祖庄混4,新杨各庄光4【煤改电】,西王排1【纯农排变】,铺头光7|201006006,西王光4,太平庄光1|07095123029,张祖庄光10,北王光2|07095123047,太平庄排5|07095123044【纯农排变】,太平庄光5,太平庄排8【纯农排变】,南王光4,*金润纺织印染有限公司,太平庄排6【纯农排变】,北王排1|07095123006【纯农排变】,新张祖庄光3,张祖庄排6【纯农排变】,铺头光2|07095123035,新西王光5,新张祖庄光7,南王光3,杨各庄排1|07095123031)【纯农排变】,张祖庄光5【2018年重过载】,杨各庄排4【纯农排变】,鑫创饲养场-200,太平庄排3【纯农排变】,太平庄排7【纯农排变】,铺头光1,太平庄光4,太平庄排9【纯农排变】,铺头排5【纯农排变】,西王光2|07095123046,南王光1|07095123008,张祖庄光8,*王英俊饲料厂,铺头光10,张祖庄排9【纯农排变】,北王光1|07095123008,南王光5,张祖庄光4,西王光1|07095123001,南王排2|07095123010【纯农排变】,铺头光11,杨各庄排2【纯农排变】,新张祖庄光1,南王排1|07095123009【纯农排变】,太平庄排2【纯农排变】,北王排3【纯农排变】,铺头面粉厂,100,张祖庄排8【纯农排变】,亦兴玻璃加工厂-250,张祖庄光9,杨各庄排3|07095123032【纯农排变】,太平庄光2,铺头光3|07095123036,新张祖庄光6,西王幼儿园,西王光3,张祖庄排1-2【纯农排变】,","scope":"【影响街道/乡镇】天宫寺乡 【高危重要客户】无 【影响客户】太平庄、张祖庄、铺头、南王、北王、西王、杨各庄、王英俊饲料厂、亦兴玻璃加工厂","startTime":"2019-07-06 17:55:32","stopDate":"2019-07-06 21:30:00","orgNo":"1340609","typeCode":"电网故障停限电","poweroffArea":"【全线路停电】停太平庄排8【纯农排变】,张祖庄排1-2【纯农排变】,鑫创饲养场-200,*金润纺织印染有限公司,太平庄排6【纯农排变】,北王排1|07095123006【纯农排变】,张祖庄排6【纯农排变】,铺头光2|07095123035,杨各庄排2【纯农排变】,新张祖庄光1,南王排1|07095123009【纯农排变】,杨各庄排4【纯农排变】,太平庄排3【纯农排变】,铺头光11,太平庄排7【纯农排变】,太平庄光4,太平庄排9【纯农排变】,铺头排5【纯农排变】,西王光2|07095123046,张祖庄光8,*王英俊饲料厂,太平庄排2【纯农排变】,北王排3【纯农排变】,铺头面粉厂,100,张祖庄排8【纯农排变】,亦兴玻璃加工厂-250,张祖庄光9,杨各庄排3|07095123032【纯农排变】,太平庄光2,张祖庄排9【纯农排变】,北王光1|07095123008,南王光5,张祖庄光4,新张祖庄光6,西王幼儿园,西王光3,西王光1|07095123001,南王排2|07095123010【纯农排变】,铺头光3|07095123036,太平庄排1【纯农排变】,新张祖庄光3,张祖庄光5【2018年重过载】,北王排2|07095123007【纯农排变】,*张祖庄移动机站,0680522638-河北圣沃农业开发有限公司-专变-221298166-河北圣沃-250,新铺头光6【2018年一批应急】,张祖庄光2,新杨各庄光4【煤改电】,铺头光1,西王排1【纯农排变】,铺头光7|201006006,新西王光5,新张祖庄光7,南王光3,杨各庄排1|07095123031)【纯农排变】,南王光4,张祖庄混4,南王光1|07095123008,太平庄排4【纯农排变】,南王排3|07095123011【纯农排变】,铺头光10,新南王光2,铺头光8,太平庄,0696769801-定兴县张祖庄小学-专变-240815746-受坊小学,西王光4,太平庄光1|07095123029,张祖庄光10,北王光2|07095123047,太平庄排5|07095123044【纯农排变】,太平庄光5","poweroffReason":"【停电原因】由于张祖庄光４变压器烧毁导致３５ＫＶ辛保庄变电站张祖庄线５１２线路全线停电 【变更送电】因抢修进度加快原因，送电时间由２３：５９变更为２１：３０ 【发布渠道】通过９５５９８发布","powerTime":"2019-07-06 21:12:02","powerComm":"已送电","subsNo":"","lineNo":"","tgNo":"","tgName":null,"infoStatus":"1","orgName":"国网定兴县供电公司","typeName":null,"infoStatusName":null,"dateDay":null,"orgNos":null,"nowTime":null,"countyName":null,"streetName":null,"villageName":null,"roadName":null,"communityName":null,"tranName":null,"sdLineName":null,"cityCode":"1340609","cityName":"国网定兴县供电公司","provinceCode":null,"stopTime":"2019-07-06 21:30:00","powerType":"全部","powerOffArea":"【全线路停电】停太平庄排8【纯农排变】,张祖庄排1-2【纯农排变】,鑫创饲养场-200,*金润纺织印染有限公司,太平庄排6【纯农排变】,北王排1|07095123006【纯农排变】,张祖庄排6【纯农排变】,铺头光2|07095123035,杨各庄排2【纯农排变】,新张祖庄光1,南王排1|07095123009【纯农排变】,杨各庄排4【纯农排变】,太平庄排3【纯农排变】,铺头光11,太平庄排7【纯农排变】,太平庄光4,太平庄排9【纯农排变】,铺头排5【纯农排变】,西王光2|07095123046,张祖庄光8,*王英俊饲料厂,太平庄排2【纯农排变】,北王排3【纯农排变】,铺头面粉厂,100,张祖庄排8【纯农排变】,亦兴玻璃加工厂-250,张祖庄光9,杨各庄排3|07095123032【纯农排变】,太平庄光2,张祖庄排9【纯农排变】,北王光1|07095123008,南王光5,张祖庄光4,新张祖庄光6,西王幼儿园,西王光3,西王光1|07095123001,南王排2|07095123010【纯农排变】,铺头光3|07095123036,太平庄排1【纯农排变】,新张祖庄光3,张祖庄光5【2018年重过载】,北王排2|07095123007【纯农排变】,*张祖庄移动机站,0680522638-河北圣沃农业开发有限公司-专变-221298166-河北圣沃-250,新铺头光6【2018年一批应急】,张祖庄光2,新杨各庄光4【煤改电】,铺头光1,西王排1【纯农排变】,铺头光7|201006006,新西王光5,新张祖庄光7,南王光3,杨各庄排1|07095123031)【纯农排变】,南王光4,张祖庄混4,南王光1|07095123008,太平庄排4【纯农排变】,南王排3|07095123011【纯农排变】,铺头光10,新南王光2,铺头光8,太平庄,0696769801-定兴县张祖庄小学-专变-240815746-受坊小学,西王光4,太平庄光1|07095123029,张祖庄光10,北王光2|07095123047,太平庄排5|07095123044【纯农排变】,太平庄光5","powerOffReason":"【停电原因】由于张祖庄光４变压器烧毁导致３５ＫＶ辛保庄变电站张祖庄线５１２线路全线停电 【变更送电】因抢修进度加快原因，送电时间由２３：５９变更为２１：３０ 【发布渠道】通过９５５９８发布","powerOffId":"2019070613000580"}],"pageModel":{"pageNow":846,"totalCount":10973,"totalPage":1098,"tableRows":0,"pageCount":10,"beginCount":8450},"isExperi":"1"}