{"message":"","today":"2020-06-15","seleList":[{"poweroffId":2019070613000254,"sgpoweroffId":null,"subsName":"","lineName":"10kV521塔宣村线","pubTranName":"北方汽车部件有限公司,塔宣村公用照明4台区1,定州市汇丰面粉厂,定州市润腾房地产开发有限公司变压器,中兴路路灯1,自来水公司,定州市华新公司,定州市住房和城乡建设局变压器,定州市荣盛健身器材厂变压器,定州市恒达健身器材有限公司变压器,新华机械配件厂,中国石油保定第十二加油站,杨庄子照明6台区4队(3),0669831380-定州市市政工程管理处-专变-211338067-定州市市政工程管理处变压器,0651632618-定州市交通运输局-专变-177363339-定州市交通运输局变压器,定州市新宗食品有限公司,定州市荣盛体育用品厂,杨庄子公用照明9台区,杨庄子一队,计生委公用照明一台区(1),定州市第二医院变压器,塔宣村公用照明1台区1,定州恒宇塑胶制品厂,任占良,孔会同面粉厂,定州市华安体育用品有限公司,杨庄子公用照明8台区,定州市恒通车床加工厂变压器,王会同面粉厂,定州市国立医药材料有限公司,定州市自来水公司,李锅底,定州市鑫达体育用品厂,中国移动通信集团河北有限公司定州分公司变压器,定州市竞辉水泥制品厂变压器,定州市伊利雪糕批发部变压器,0663053955-定州市中洲水业有限公司-专变-202642599-定州市中洲水业有限公司变压器,定州市会兰面业有限公司变压器,0579077120-定州市润腾房地产开发有限公司-专变-124346418-定州市润腾房地产开发有限公司,塔宣村公用照明5台区1,保定中乾房地产开发有限公司变压器,杨庄子照明5台区2队(2),河北宏孚森美石化销售有限公司变压器,定州市福利液化气站,定州市杨岳军机械零部件厂变压器,路通水泥管厂变压器,定州市建宏钢材经销处变压器,定州市北方汽车部件三厂,定州市永红车轴厂,孔会同公用农业1台区【纯农排变】,定州市环城医院变压器,定州市盛源建材通体砖厂变压器,塔宣村公用照明3台区1,塔宣村公用照明2台区1,北方汽车部件变压器,北方汽车配件1,定州市涧河海鲜坊变压器,定州市商品混凝土有限公司,定州市鑫达体育用品厂变压器,杨庄子社区居民委员会变压器（新华社区）,环城供电所,定州市谍影飞扬文化传媒有限公司变压器,","scope":"【影响街道/乡镇】西城区、赵村镇【高危重要客户】无【影响客户】杨庄子、计生委、水厂、塔宣村、塔宣村铁路以东、新华城小区、缔景城小区","startTime":"2019-07-06 07:48:50","stopDate":"2019-07-06 11:00:00","orgNo":"1340610","typeCode":"电网故障停限电","poweroffArea":"【全线路停电】停保定中乾房地产开发有限公司变压器,杨庄子照明5台区2队(2),定州市住房和城乡建设局变压器,定州市荣盛健身器材厂变压器,定州市恒达健身器材有限公司变压器,新华机械配件厂,中国石油保定第十二加油站,杨庄子照明6台区4队(3),0669831380-定州市市政工程管理处-专变-211338067-定州市市政工程管理处变压器,0651632618-定州市交通运输局-专变-177363339-定州市交通运输局变压器,定州市新宗食品有限公司,定州市荣盛体育用品厂,杨庄子公用照明9台区,杨庄子一队,计生委公用照明一台区(1),定州市第二医院变压器,塔宣村公用照明1台区1,定州恒宇塑胶制品厂,任占良,孔会同面粉厂,定州市华安体育用品有限公司,杨庄子公用照明8台区,定州市恒通车床加工厂变压器,王会同面粉厂,定州市国立医药材料有限公司,定州市自来水公司,李锅底,定州市鑫达体育用品厂,中国移动通信集团河北有限公司定州分公司变压器,定州市竞辉水泥制品厂变压器,定州市伊利雪糕批发部变压器,0663053955-定州市中洲水业有限公司-专变-202642599-定州市中洲水业有限公司变压器,定州市会兰面业有限公司变压器,0579077120-定州市润腾房地产开发有限公司-专变-124346418-定州市润腾房地产开发有限公司,塔宣村公用照明5台区1,河北宏孚森美石化销售有限公司变压器,定州市福利液化气站,定州市杨岳军机械零部件厂变压器,路通水泥管厂变压器,定州市建宏钢材经销处变压器,定州市北方汽车部件三厂,定州市永红车轴厂,孔会同公用农业1台区【纯农排变】,定州市环城医院变压器,定州市盛源建材通体砖厂变压器,塔宣村公用照明3台区1,塔宣村公用照明2台区1,北方汽车部件变压器,北方汽车配件1,定州市涧河海鲜坊变压器,定州市商品混凝土有限公司,定州市鑫达体育用品厂变压器,杨庄子社区居民委员会变压器（新华社区）,环城供电所,定州市谍影飞扬文化传媒有限公司变压器,定州市汇丰面粉厂,定州市润腾房地产开发有限公司变压器,中兴路路灯1,自来水公司,定州市华新公司,北方汽车部件有限公司,塔宣村公用照明4台区1","poweroffReason":"【停电原因】由于砖厂分支卡荣运动专变Ｂ相避雷器爆裂导致１１０ＫＶ定县变电站１０ＫＶ５２１塔宣村线路全线停电 【变更送电】因抢修进度加快原因，送电时间由１８：００变更为１１：００ 【发布渠道】９５５９８　","powerTime":"2019-07-06 10:33:03","powerComm":"已送电","subsNo":"","lineNo":"","tgNo":"","tgName":null,"infoStatus":"1","orgName":"国网定州市供电公司","typeName":null,"infoStatusName":null,"dateDay":null,"orgNos":null,"nowTime":null,"countyName":null,"streetName":null,"villageName":null,"roadName":null,"communityName":null,"tranName":null,"sdLineName":null,"cityCode":"1340610","cityName":"国网定州市供电公司","provinceCode":null,"stopTime":"2019-07-06 11:00:00","powerType":"全部","powerOffArea":"【全线路停电】停保定中乾房地产开发有限公司变压器,杨庄子照明5台区2队(2),定州市住房和城乡建设局变压器,定州市荣盛健身器材厂变压器,定州市恒达健身器材有限公司变压器,新华机械配件厂,中国石油保定第十二加油站,杨庄子照明6台区4队(3),0669831380-定州市市政工程管理处-专变-211338067-定州市市政工程管理处变压器,0651632618-定州市交通运输局-专变-177363339-定州市交通运输局变压器,定州市新宗食品有限公司,定州市荣盛体育用品厂,杨庄子公用照明9台区,杨庄子一队,计生委公用照明一台区(1),定州市第二医院变压器,塔宣村公用照明1台区1,定州恒宇塑胶制品厂,任占良,孔会同面粉厂,定州市华安体育用品有限公司,杨庄子公用照明8台区,定州市恒通车床加工厂变压器,王会同面粉厂,定州市国立医药材料有限公司,定州市自来水公司,李锅底,定州市鑫达体育用品厂,中国移动通信集团河北有限公司定州分公司变压器,定州市竞辉水泥制品厂变压器,定州市伊利雪糕批发部变压器,0663053955-定州市中洲水业有限公司-专变-202642599-定州市中洲水业有限公司变压器,定州市会兰面业有限公司变压器,0579077120-定州市润腾房地产开发有限公司-专变-124346418-定州市润腾房地产开发有限公司,塔宣村公用照明5台区1,河北宏孚森美石化销售有限公司变压器,定州市福利液化气站,定州市杨岳军机械零部件厂变压器,路通水泥管厂变压器,定州市建宏钢材经销处变压器,定州市北方汽车部件三厂,定州市永红车轴厂,孔会同公用农业1台区【纯农排变】,定州市环城医院变压器,定州市盛源建材通体砖厂变压器,塔宣村公用照明3台区1,塔宣村公用照明2台区1,北方汽车部件变压器,北方汽车配件1,定州市涧河海鲜坊变压器,定州市商品混凝土有限公司,定州市鑫达体育用品厂变压器,杨庄子社区居民委员会变压器（新华社区）,环城供电所,定州市谍影飞扬文化传媒有限公司变压器,定州市汇丰面粉厂,定州市润腾房地产开发有限公司变压器,中兴路路灯1,自来水公司,定州市华新公司,北方汽车部件有限公司,塔宣村公用照明4台区1","powerOffReason":"【停电原因】由于砖厂分支卡荣运动专变Ｂ相避雷器爆裂导致１１０ＫＶ定县变电站１０ＫＶ５２１塔宣村线路全线停电 【变更送电】因抢修进度加快原因，送电时间由１８：００变更为１１：００ 【发布渠道】９５５９８　","powerOffId":"2019070613000254"},{"poweroffId":2019070613000229,"sgpoweroffId":null,"subsName":"","lineName":"10kV525地道桥线","pubTranName":"0387423283-张氏房地产开发公司(世纪花园小区)-专变-45266906-张氏房地产开发公司（世纪花园小区）,齿轮厂南家属院公用照明1台区,双和兴热处理厂,高压管件公用照明1台区中压出线间隔配电变压器,0387422730-定州市平安里房地产开发限公司-专变-45267026-美华利纺织有限公司,通力公司公用照明1台区,河北经天纬业房地产开发有限公司 景秀江山二期变压器1,定州市疾病预防控制中心,通力公司,加油站,中兴木器,城南家属院,定州市力源健身器材厂,定州市潜水电泵厂变压器,变压器,0626033749-定州市平安里房地产开发有限公司 中山首府-专变-135771518-定州市平安里房地产开发有限公司 中山首府2变压器,定州市恒源水磨石厂,齿轮厂南家属院公用照明3台区,定州市养路工区,西城院,定州市平安里房地产开发有限公司 中山首府1变压器2,0626033749-定州市平安里房地产开发有限公司 中山首府-专变-135771112-定州市平安里房地产开发有限公司 中山首府1变压器1,张永强,外贸小区公用照明1台区,养路工区,定州市金顺房地产开发有限公司,定州市铭智房地产开发有限公司变压器,齿轮厂南院,农机局公用照明1台区中压出线间隔配电变压器,0387421968-定州市财政局-专变-45267218-博陵街路灯,定州市亨发齿轮厂变压器,工业公司,阎庆成,高成辉,河北经天纬业房地产开发有限公司 景秀江山二期变压器2,农机局,0387421926-张建彬-专变-45267180-张建彬,0387422479-刘计亮-专变-45267032-刘计亮,汽车营,0387421203-定州市铭智房地产开发有限公司-专变-45267043-定州市铭智房地产开发有限公司,地道桥市场,李增山,立交桥,美华利纺织有限公司,齿轮厂南家属院公用照明2台区,河北银行股份有限公司保定分公司变压器,定州市烟花爆竹专营有限公司,河北农业大学中兽医学院,农机配件厂,马泽莆,农机路路灯,0387421203-定州市铭智房地产开发有限公司-专变-48189726-定州市铭智房地产开发有限公司变压器,定州新杰门窗厂,齿轮厂南家属院公用照明5台区,中兴水磨石厂,长城玻璃厂,中兴院公用照明1台区,0620289582-河北隆鸿基业房地产开发有限公司-专变-129119075-河北隆鸿基业房地产开发有限公司变压器,通力公用照明2台区,外贸局公用照明1台区,丰生丝织厂,","scope":"【影响街道/乡镇】博陵街、南环路、中兴西路【高危重要客户】无【影响客户】西城区供销公司、外贸小区、城南家属院、通力公司、高压管件厂、齿轮厂南家属院、农机局、御景名门、名智房地产、疾控中心（卫生局）、玛丽医院、通力机械厂家属院、景秀江山小区、中兴院、外贸局、怡园小区、中山首府小区、金立公寓、美华利小区、世纪花园小区","startTime":"2019-07-06 07:22:05","stopDate":"2019-07-06 13:20:00","orgNo":"1340610","typeCode":"电网故障停限电","poweroffArea":"【全线路停电】停通力公司,美华利纺织有限公司,马泽莆,外贸小区公用照明1台区,中兴木器,地道桥市场,定州市力源健身器材厂,定州市潜水电泵厂变压器,通力公司公用照明1台区,河北农业大学中兽医学院,0387421968-定州市财政局-专变-45267218-博陵街路灯,高压管件公用照明1台区中压出线间隔配电变压器,长城玻璃厂,外贸局公用照明1台区,丰生丝织厂,养路工区,0626033749-定州市平安里房地产开发有限公司 中山首府-专变-135771518-定州市平安里房地产开发有限公司 中山首府2变压器,高成辉,双和兴热处理厂,0626033749-定州市平安里房地产开发有限公司 中山首府-专变-135771112-定州市平安里房地产开发有限公司 中山首府1变压器1,西城院,农机局,0387422730-定州市平安里房地产开发限公司-专变-45267026-美华利纺织有限公司,齿轮厂南家属院公用照明2台区,中兴水磨石厂,汽车营,定州市平安里房地产开发有限公司 中山首府1变压器2,李增山,农机局公用照明1台区中压出线间隔配电变压器,定州市疾病预防控制中心,齿轮厂南家属院公用照明3台区,张永强,0387422479-刘计亮-专变-45267032-刘计亮,定州市恒源水磨石厂,齿轮厂南院,通力公用照明2台区,河北经天纬业房地产开发有限公司 景秀江山二期变压器1,立交桥,阎庆成,0387421203-定州市铭智房地产开发有限公司-专变-45267043-定州市铭智房地产开发有限公司,加油站,齿轮厂南家属院公用照明5台区,定州市亨发齿轮厂变压器,中兴院公用照明1台区,0387421926-张建彬-专变-45267180-张建彬,齿轮厂南家属院公用照明1台区,定州市烟花爆竹专营有限公司,定州市养路工区,定州新杰门窗厂,农机路路灯,定州市铭智房地产开发有限公司变压器,河北经天纬业房地产开发有限公司 景秀江山二期变压器2,变压器,0620289582-河北隆鸿基业房地产开发有限公司-专变-129119075-河北隆鸿基业房地产开发有限公司变压器,河北银行股份有限公司保定分公司变压器,工业公司,0387423283-张氏房地产开发公司(世纪花园小区)-专变-45266906-张氏房地产开发公司（世纪花园小区）,农机配件厂,定州市金顺房地产开发有限公司,0387421203-定州市铭智房地产开发有限公司-专变-48189726-定州市铭智房地产开发有限公司变压器,城南家属院","poweroffReason":"【停电原因】由于棉纺厂专线０１号杆Ｃ相断线导致１１０ＫＶ定县变电站１０ＫＶ５２５地道桥线路全线停电 【变更送电】因抢修进度加快原因，送电时间由１８：００变更为１３：２０ 【发布渠道】９５５９８","powerTime":"2019-07-06 12:47:19","powerComm":"已送电","subsNo":"","lineNo":"","tgNo":"","tgName":null,"infoStatus":"1","orgName":"国网定州市供电公司","typeName":null,"infoStatusName":null,"dateDay":null,"orgNos":null,"nowTime":null,"countyName":null,"streetName":null,"villageName":null,"roadName":null,"communityName":null,"tranName":null,"sdLineName":null,"cityCode":"1340610","cityName":"国网定州市供电公司","provinceCode":null,"stopTime":"2019-07-06 13:20:00","powerType":"全部","powerOffArea":"【全线路停电】停通力公司,美华利纺织有限公司,马泽莆,外贸小区公用照明1台区,中兴木器,地道桥市场,定州市力源健身器材厂,定州市潜水电泵厂变压器,通力公司公用照明1台区,河北农业大学中兽医学院,0387421968-定州市财政局-专变-45267218-博陵街路灯,高压管件公用照明1台区中压出线间隔配电变压器,长城玻璃厂,外贸局公用照明1台区,丰生丝织厂,养路工区,0626033749-定州市平安里房地产开发有限公司 中山首府-专变-135771518-定州市平安里房地产开发有限公司 中山首府2变压器,高成辉,双和兴热处理厂,0626033749-定州市平安里房地产开发有限公司 中山首府-专变-135771112-定州市平安里房地产开发有限公司 中山首府1变压器1,西城院,农机局,0387422730-定州市平安里房地产开发限公司-专变-45267026-美华利纺织有限公司,齿轮厂南家属院公用照明2台区,中兴水磨石厂,汽车营,定州市平安里房地产开发有限公司 中山首府1变压器2,李增山,农机局公用照明1台区中压出线间隔配电变压器,定州市疾病预防控制中心,齿轮厂南家属院公用照明3台区,张永强,0387422479-刘计亮-专变-45267032-刘计亮,定州市恒源水磨石厂,齿轮厂南院,通力公用照明2台区,河北经天纬业房地产开发有限公司 景秀江山二期变压器1,立交桥,阎庆成,0387421203-定州市铭智房地产开发有限公司-专变-45267043-定州市铭智房地产开发有限公司,加油站,齿轮厂南家属院公用照明5台区,定州市亨发齿轮厂变压器,中兴院公用照明1台区,0387421926-张建彬-专变-45267180-张建彬,齿轮厂南家属院公用照明1台区,定州市烟花爆竹专营有限公司,定州市养路工区,定州新杰门窗厂,农机路路灯,定州市铭智房地产开发有限公司变压器,河北经天纬业房地产开发有限公司 景秀江山二期变压器2,变压器,0620289582-河北隆鸿基业房地产开发有限公司-专变-129119075-河北隆鸿基业房地产开发有限公司变压器,河北银行股份有限公司保定分公司变压器,工业公司,0387423283-张氏房地产开发公司(世纪花园小区)-专变-45266906-张氏房地产开发公司（世纪花园小区）,农机配件厂,定州市金顺房地产开发有限公司,0387421203-定州市铭智房地产开发有限公司-专变-48189726-定州市铭智房地产开发有限公司变压器,城南家属院","powerOffReason":"【停电原因】由于棉纺厂专线０１号杆Ｃ相断线导致１１０ＫＶ定县变电站１０ＫＶ５２５地道桥线路全线停电 【变更送电】因抢修进度加快原因，送电时间由１８：００变更为１３：２０ 【发布渠道】９５５９８","powerOffId":"2019070613000229"},{"poweroffId":2019070613000216,"sgpoweroffId":null,"subsName":"","lineName":"10kV526曹庄子线","pubTranName":"蔡庄子公用照明2台区,河北通达天元房地产开发有限公司 紫竹园公用变压器,0646381743-保定迎泰房地产开发有限公司-专变-171470615-保定迎泰房地产开发有限公司变压器,保定迎泰房地产开发有限公司公用变压器3,保定迎泰房地产开发有限公司照明2变压器3,蔡庄子公用照明4台区,保定迎泰房地产开发有限公司变压器,保定迎泰房地产开发有限公司照明1变压器4,保定迎泰房地产开发有限公司居民变压器2,定州市国家税务局,保定迎泰房地产开发有限公司照明1变压器7,保定迎泰房地产开发有限公司南变压器2,保定迎泰房地产开发有限公司北东变压器3,保定迎泰房地产开发有限公司北东变压器2,定州市兰亭居饭店变压器,中军帐村西,八兄公用照明4台区,中军帐村南,八兄公用照明5台区,八兄村委会变压器,保定迎泰房地产开发有限公司北东变压器1,保定迎泰房地产开发有限公司居民变压器5,河北普霖房地产开发有限责任公司变压器,保定迎泰房地产开发有限公司照明1变压器5,保定迎泰房地产开发有限公司北西变压器1,保定迎泰房地产开发有限公司照明2变压器1,定州市住房和城乡建设局,定州市兴河水泥制品有限公司变压器,蔡石磊变压器,保定迎泰房地产开发有限公司照明2变压器2,八兄村西,八兄村南,保定迎泰房地产开发有限公司供热变压器,河北通达天元房地产开发有限公司变压器,中国联合网络有限公司定州分公司变压器,保定迎泰房地产开发有限公司南变压器1,东庄公用照明1台区,河北通达天元房地产开发有限公司 紫竹园居民变压器,定州市容达仓储服务有限公司变压器,定州市南城区中军帐社区居民委员会（村南）变压器,蔡庄子公用农业4台区【纯农排变】,定州市远泰仓储服务有限公司变压器,八兄公用照明3台区,定州市南城区中军帐社区居民委员会变压器,保定迎泰房地产开发有限公司北东变压器,八兄村民委员会变压器,定州市奋发汽车专项修理部变压器,保定迎泰房地产开发有限公司照明1变压器6,定州市王氏山庄餐饮有限公司变压器,蔡庄子公用农业1台区【纯农排变】,蔡庄子公用照明3台区,定州市增永生态园饭店,史占杰,蔡庄子村北街变压器,宝塔中学变压器,定州市废旧汽车拆卸公司,程振玺,南关路灯,定州市南城区八兄村民委员会,八兄公用照明7台区,保定迎泰房地产开发有限公司居民变压器1,定州市中通加气站变压器,定州锁氏民族酒店有限公司变压器2,八兄公用照明2台区,保定迎泰房地产开发有限公司公用变压器2,定州市南关水磨厂,中军帐公用照明1台区,定州万强房地产开发有限公司变压器,保定迎泰房地产开发有限公司居民变压器6,客户投资_蔡庄子公用照明1台区,保定迎泰房地产开发有限公司居民变压器4,贾增强,八兄东北,定州市南关蜂窝煤厂,保定迎泰房地产开发有限公司居民变压器3,保定迎泰房地产开发有限公司南,保定迎泰房地产开发有限公司北西变压器2,客户投资_中军帐公用照明5台区,定州市东大城外诚家具广场变压器,保定迎泰房地产开发有限公司公用变压器1,八兄公用照明8台区,八兄公用照明6台区,南关公用照明1台区,保定迎泰房地产开发有限公司照明1变压器3,定州市南城区八兄村村民委员会变压器,保定迎泰房地产开发有限公司照明1变压器1,定州市住房和城乡","scope":"【影响街道/乡镇】西城区、南城区【高危重要客户】无【影响客户】蔡庄子、纸方头、皮庄子、中军帐、曹庄子、南刘家庄、八兄、北陵头、兰家佐、迎泰新城、紫竹园、普林第一城、宝塔中学、南关","startTime":"2019-07-06 07:07:35","stopDate":"2019-07-06 10:00:00","orgNo":"1340610","typeCode":"电网故障停限电","poweroffArea":"【全线路停电】停蔡庄子村北街变压器,宝塔中学变压器,南关路灯,定州市南城区八兄村村民委员会变压器,保定迎泰房地产开发有限公司照明1变压器1,定州市住房和城乡建设局变压器,定州锁氏民族酒店有限公司变压器1,保定迎泰房地产开发有限公司照明1变压器2,征强模具变压器,八兄公用照明1台区,保定迎泰房地产开发有限公司北西变压器,蔡石磊变压器,蔡庄子公用照明2台区,河北通达天元房地产开发有限公司 紫竹园公用变压器,保定迎泰房地产开发有限公司照明2变压器3,保定迎泰房地产开发有限公司北东变压器1,蔡庄子公用照明4台区,保定迎泰房地产开发有限公司变压器,河北通达天元房地产开发有限公司 紫竹园居民变压器,定州市容达仓储服务有限公司变压器,定州市南城区中军帐社区居民委员会（村南）变压器,定州市南城区八兄村民委员会,八兄公用照明7台区,保定迎泰房地产开发有限公司居民变压器1,定州市中通加气站变压器,定州锁氏民族酒店有限公司变压器2,八兄公用照明2台区,保定迎泰房地产开发有限公司公用变压器2,定州市南关水磨厂,保定迎泰房地产开发有限公司公用变压器1,八兄公用照明8台区,八兄公用照明6台区,中军帐村南,保定迎泰房地产开发有限公司照明1变压器4,保定迎泰房地产开发有限公司居民变压器2,定州市国家税务局,保定迎泰房地产开发有限公司照明1变压器7,保定迎泰房地产开发有限公司南变压器2,保定迎泰房地产开发有限公司北东变压器3,保定迎泰房地产开发有限公司北东变压器2,定州市兰亭居饭店变压器,0646381743-保定迎泰房地产开发有限公司-专变-171470615-保定迎泰房地产开发有限公司变压器,保定迎泰房地产开发有限公司公用变压器3,中军帐村西,客户投资_蔡庄子公用照明1台区,保定迎泰房地产开发有限公司居民变压器4,贾增强,八兄东北,定州市南关蜂窝煤厂,保定迎泰房地产开发有限公司居民变压器3,定州市废旧汽车拆卸公司,程振玺,八兄公用照明4台区,保定迎泰房地产开发有限公司南变压器1,东庄公用照明1台区,八兄公用照明5台区,八兄村委会变压器,保定迎泰房地产开发有限公司居民变压器5,河北普霖房地产开发有限责任公司变压器,保定迎泰房地产开发有限公司照明1变压器5,保定迎泰房地产开发有限公司北西变压器1,保定迎泰房地产开发有限公司照明2变压器1,定州市住房和城乡建设局,定州市兴河水泥制品有限公司变压器,保定迎泰房地产开发有限公司照明2变压器2,八兄村西,八兄村南,保定迎泰房地产开发有限公司供热变压器,河北通达天元房地产开发有限公司变压器,中国联合网络有限公司定州分公司变压器,中军帐公用照明1台区,定州万强房地产开发有限公司变压器,保定迎泰房地产开发有限公司居民变压器6,保定迎泰房地产开发有限公司南,保定迎泰房地产开发有限公司北西变压器2,客户投资_中军帐公用照明5台区,定州市东大城外诚家具广场变压器,南关公用照明1台区,保定迎泰房地产开发有限公司照明1变压器3,蔡庄子公用农业4台区【纯农排变】,定州市远泰仓储服务有限公司变压器,八兄公用照明3台区,定州市南城区中军帐社区居民委员会变压器,保定迎泰房地产开发有限公司北东变压器,八兄村民委员会变压器,定州市奋发汽车专项修理部变压器,保定迎泰房地产开发有限公司照明1变压器6,定州市王氏山庄餐饮有限公司变压器,蔡庄子公用农业1台区【纯农排变】,蔡庄子公用照明3台区,定州市增永生态园饭店,史占杰","poweroffReason":"【停电原因】由于八兄照明７分支风刮异物搭线导致１１０ＫＶ定县变电站１０ＫＶ５２６曹庄子线路全线停电 【变更送电】因抢修进度加快原因，送电时间由１８：００变更为１０：００ 【发布渠道】９５５９８　","powerTime":"2019-07-06 09:29:31","powerComm":"已送电","subsNo":"","lineNo":"","tgNo":"","tgName":null,"infoStatus":"1","orgName":"国网定州市供电公司","typeName":null,"infoStatusName":null,"dateDay":null,"orgNos":null,"nowTime":null,"countyName":null,"streetName":null,"villageName":null,"roadName":null,"communityName":null,"tranName":null,"sdLineName":null,"cityCode":"1340610","cityName":"国网定州市供电公司","provinceCode":null,"stopTime":"2019-07-06 10:00:00","powerType":"全部","powerOffArea":"【全线路停电】停蔡庄子村北街变压器,宝塔中学变压器,南关路灯,定州市南城区八兄村村民委员会变压器,保定迎泰房地产开发有限公司照明1变压器1,定州市住房和城乡建设局变压器,定州锁氏民族酒店有限公司变压器1,保定迎泰房地产开发有限公司照明1变压器2,征强模具变压器,八兄公用照明1台区,保定迎泰房地产开发有限公司北西变压器,蔡石磊变压器,蔡庄子公用照明2台区,河北通达天元房地产开发有限公司 紫竹园公用变压器,保定迎泰房地产开发有限公司照明2变压器3,保定迎泰房地产开发有限公司北东变压器1,蔡庄子公用照明4台区,保定迎泰房地产开发有限公司变压器,河北通达天元房地产开发有限公司 紫竹园居民变压器,定州市容达仓储服务有限公司变压器,定州市南城区中军帐社区居民委员会（村南）变压器,定州市南城区八兄村民委员会,八兄公用照明7台区,保定迎泰房地产开发有限公司居民变压器1,定州市中通加气站变压器,定州锁氏民族酒店有限公司变压器2,八兄公用照明2台区,保定迎泰房地产开发有限公司公用变压器2,定州市南关水磨厂,保定迎泰房地产开发有限公司公用变压器1,八兄公用照明8台区,八兄公用照明6台区,中军帐村南,保定迎泰房地产开发有限公司照明1变压器4,保定迎泰房地产开发有限公司居民变压器2,定州市国家税务局,保定迎泰房地产开发有限公司照明1变压器7,保定迎泰房地产开发有限公司南变压器2,保定迎泰房地产开发有限公司北东变压器3,保定迎泰房地产开发有限公司北东变压器2,定州市兰亭居饭店变压器,0646381743-保定迎泰房地产开发有限公司-专变-171470615-保定迎泰房地产开发有限公司变压器,保定迎泰房地产开发有限公司公用变压器3,中军帐村西,客户投资_蔡庄子公用照明1台区,保定迎泰房地产开发有限公司居民变压器4,贾增强,八兄东北,定州市南关蜂窝煤厂,保定迎泰房地产开发有限公司居民变压器3,定州市废旧汽车拆卸公司,程振玺,八兄公用照明4台区,保定迎泰房地产开发有限公司南变压器1,东庄公用照明1台区,八兄公用照明5台区,八兄村委会变压器,保定迎泰房地产开发有限公司居民变压器5,河北普霖房地产开发有限责任公司变压器,保定迎泰房地产开发有限公司照明1变压器5,保定迎泰房地产开发有限公司北西变压器1,保定迎泰房地产开发有限公司照明2变压器1,定州市住房和城乡建设局,定州市兴河水泥制品有限公司变压器,保定迎泰房地产开发有限公司照明2变压器2,八兄村西,八兄村南,保定迎泰房地产开发有限公司供热变压器,河北通达天元房地产开发有限公司变压器,中国联合网络有限公司定州分公司变压器,中军帐公用照明1台区,定州万强房地产开发有限公司变压器,保定迎泰房地产开发有限公司居民变压器6,保定迎泰房地产开发有限公司南,保定迎泰房地产开发有限公司北西变压器2,客户投资_中军帐公用照明5台区,定州市东大城外诚家具广场变压器,南关公用照明1台区,保定迎泰房地产开发有限公司照明1变压器3,蔡庄子公用农业4台区【纯农排变】,定州市远泰仓储服务有限公司变压器,八兄公用照明3台区,定州市南城区中军帐社区居民委员会变压器,保定迎泰房地产开发有限公司北东变压器,八兄村民委员会变压器,定州市奋发汽车专项修理部变压器,保定迎泰房地产开发有限公司照明1变压器6,定州市王氏山庄餐饮有限公司变压器,蔡庄子公用农业1台区【纯农排变】,蔡庄子公用照明3台区,定州市增永生态园饭店,史占杰","powerOffReason":"【停电原因】由于八兄照明７分支风刮异物搭线导致１１０ＫＶ定县变电站１０ＫＶ５２６曹庄子线路全线停电 【变更送电】因抢修进度加快原因，送电时间由１８：００变更为１０：００ 【发布渠道】９５５９８　","powerOffId":"2019070613000216"},{"poweroffId":2019070613000199,"sgpoweroffId":null,"subsName":"","lineName":"10kV中送578线","pubTranName":"奉伯内4,奉伯内9,中送新增综合5台区,寺下内6,","scope":"【影响街道/乡镇】伍仁桥镇 【高危重要客户】无 【影响客户】奉伯村","startTime":"2019-07-06 07:00:00","stopDate":"2019-07-06 13:00:00","orgNo":"1340606","typeCode":"电网故障停限电","poweroffArea":"【单台区停电】停奉伯内","poweroffReason":"【停电原因】由于ＪＰ柜漏电保护器烧导致１１０ＫＶ伍仁桥变电站１０ＫＶ中送５７８线路奉伯内公变台区停电 【变更送电】无 【发布渠道】通过９５５９８发布","powerTime":"2019-07-06 12:27:45","powerComm":"已送电","subsNo":"","lineNo":"","tgNo":"","tgName":null,"infoStatus":"1","orgName":"国网安国市供电公司","typeName":null,"infoStatusName":null,"dateDay":null,"orgNos":null,"nowTime":null,"countyName":null,"streetName":null,"villageName":null,"roadName":null,"communityName":null,"tranName":null,"sdLineName":null,"cityCode":"1340606","cityName":"国网安国市供电公司","provinceCode":null,"stopTime":"2019-07-06 13:00:00","powerType":"全部","powerOffArea":"【单台区停电】停奉伯内","powerOffReason":"【停电原因】由于ＪＰ柜漏电保护器烧导致１１０ＫＶ伍仁桥变电站１０ＫＶ中送５７８线路奉伯内公变台区停电 【变更送电】无 【发布渠道】通过９５５９８发布","powerOffId":"2019070613000199"},{"poweroffId":2019070613000196,"sgpoweroffId":null,"subsName":"","lineName":"东环线513","pubTranName":"西亢村1#,","scope":"【影响街道/乡镇】易州镇【高危重要客户】无【影响客户】西亢村","startTime":"2019-07-06 06:45:44","stopDate":"2019-07-06 09:00:00","orgNo":"1340625","typeCode":"电网故障停限电","poweroffArea":"【单台区停电】停西亢村1#","poweroffReason":"【停电原因】由于电缆烧毁导致１１０ＫＶ易县变电站东环线５１３线路西亢村１＃公变台区停电【变更送电】因抢修进度加快原因，送电时间由１２:００变更为０９：００【发布渠道】通过９５５９８发布","powerTime":"2019-07-06 08:17:18","powerComm":"已送电","subsNo":"","lineNo":"","tgNo":"","tgName":null,"infoStatus":"1","orgName":"国网易县供电公司","typeName":null,"infoStatusName":null,"dateDay":null,"orgNos":null,"nowTime":null,"countyName":null,"streetName":null,"villageName":null,"roadName":null,"communityName":null,"tranName":null,"sdLineName":null,"cityCode":"1340625","cityName":"国网易县供电公司","provinceCode":null,"stopTime":"2019-07-06 09:00:00","powerType":"全部","powerOffArea":"【单台区停电】停西亢村1#","powerOffReason":"【停电原因】由于电缆烧毁导致１１０ＫＶ易县变电站东环线５１３线路西亢村１＃公变台区停电【变更送电】因抢修进度加快原因，送电时间由１２:００变更为０９：００【发布渠道】通过９５５９８发布","powerOffId":"2019070613000196"},{"poweroffId":2019070613000179,"sgpoweroffId":null,"subsName":"","lineName":"北城线521","pubTranName":"高碑店市金岭机械厂变压器,安乐庄电能替代04号变压器（煤改电）,河北凯翔风汽车销售服务有限公司,安乐庄电能替代01号变压器（煤改电）,高碑店市路灯管理办公室（安泰东路检查站南）变压器,高碑店市万通发展有限责任公司万通加油站变压器,高碑店市建设局变压器,河北方晖房地产开发有限责任公司5#变压器,高碑店市利永铸造有限公司,兴凯材料,高碑店市路灯管理办公室（安泰东路检查站南）,安乐庄电能替代05号变压器（煤改电）,农贸市场,市政修路变压器,河北方晖房地产开发有限责任公司6#变压器,河北方晖房地产开发有限责任公司3#变压器,中煤神海石油变压器,高碑店市华诺门业有限公司变压器,180000005517|高碑店市新春机动车检测有限公司,河北方晖房地产开发有限责任公司4#变压器,高碑店市中平智信汽车销售服务有限责任公司变压器,高碑店市新春机动车检测有限公司变压器,河北方晖房地产开发有限责任公司变压器,高碑店市碧海天龙装饰工程有限公司变压器,高碑店市生科采暖炉厂,李明章变压器,王克华,高碑店市自来水公司,安乐庄电能替代07号变压器（煤改电）,安乐庄电能替代03号变压器（煤改电）,新春机动车检测变压器315,河北方晖房地产开发有限责任公司1#变压器,方家务西南4,高碑店市路灯管理办公室,安喜庄电能替代01号变压器（煤改电）,河北方晖房地产开发有限责任公司变压器1,河北鹏高盛厨房设备有限公司变压器,安乐庄电能替代02号变压器（煤改电）,安乐庄电能替代06号变压器（煤改电）,保定市中茂能源有限公司变压器,河北方晖房地产开发有限责任公司2,河北方晖房地产开发有限责任公司2#变压器,高碑店市路灯管理办公室变压器,安喜庄电能替代02号变压器（煤改电）,高碑店市圣林花园酒店有限公司变压器,","scope":"【影响街道/乡镇】北城办事处、１１２线 【高危重要客户】无 【影响客户】新春驾校、庞大汽贸、安乐庄村、安喜庄村、京港国际小区、新科锅炉、凯祥丰汽贸","startTime":"2019-07-06 06:12:04","stopDate":"2019-07-06 11:30:00","orgNo":"1340612","typeCode":"电网故障停限电","poweroffArea":"【全线路停电】停高碑店市新春机动车检测有限公司变压器,中煤神海石油变压器,高碑店市自来水公司,高碑店市华诺门业有限公司变压器,高碑店市生科采暖炉厂,高碑店市圣林花园酒店有限公司变压器,保定市中茂能源有限公司变压器,河北方晖房地产开发有限责任公司1#变压器,安乐庄电能替代03号变压器（煤改电）,河北方晖房地产开发有限责任公司6#变压器,高碑店市路灯管理办公室变压器,农贸市场,安乐庄电能替代02号变压器（煤改电）,高碑店市金岭机械厂变压器,高碑店市中平智信汽车销售服务有限责任公司变压器,高碑店市碧海天龙装饰工程有限公司变压器,安喜庄电能替代02号变压器（煤改电）,李明章变压器,河北方晖房地产开发有限责任公司2,180000005517|高碑店市新春机动车检测有限公司,安乐庄电能替代06号变压器（煤改电）,方家务西南4,高碑店市建设局变压器,高碑店市利永铸造有限公司,安乐庄电能替代05号变压器（煤改电）,新春机动车检测变压器315,河北方晖房地产开发有限责任公司变压器1,高碑店市路灯管理办公室（安泰东路检查站南）变压器,高碑店市万通发展有限责任公司万通加油站变压器,王克华,市政修路变压器,兴凯材料,安乐庄电能替代01号变压器（煤改电）,河北凯翔风汽车销售服务有限公司,安喜庄电能替代01号变压器（煤改电）,安乐庄电能替代04号变压器（煤改电）,河北鹏高盛厨房设备有限公司变压器,河北方晖房地产开发有限责任公司变压器,高碑店市路灯管理办公室,安乐庄电能替代07号变压器（煤改电）,河北方晖房地产开发有限责任公司3#变压器,河北方晖房地产开发有限责任公司4#变压器,河北方晖房地产开发有限责任公司2#变压器,河北方晖房地产开发有限责任公司5#变压器,高碑店市路灯管理办公室（安泰东路检查站南）","poweroffReason":"【停电原因】由于开关跳闸导致１１０ＫＶ方家务变电站１０ＫＶ北城５２１线路全线停电 【变更送电】因抢修进度加快原因，送电时间由１７：００变更为１１：３０ 【发布渠道】通过９５５９８发布","powerTime":"2019-07-06 10:52:43","powerComm":"已送电","subsNo":"","lineNo":"","tgNo":"","tgName":null,"infoStatus":"1","orgName":"国网高碑店市供电公司","typeName":null,"infoStatusName":null,"dateDay":null,"orgNos":null,"nowTime":null,"countyName":null,"streetName":null,"villageName":null,"roadName":null,"communityName":null,"tranName":null,"sdLineName":null,"cityCode":"1340612","cityName":"国网高碑店市供电公司","provinceCode":null,"stopTime":"2019-07-06 11:30:00","powerType":"全部","powerOffArea":"【全线路停电】停高碑店市新春机动车检测有限公司变压器,中煤神海石油变压器,高碑店市自来水公司,高碑店市华诺门业有限公司变压器,高碑店市生科采暖炉厂,高碑店市圣林花园酒店有限公司变压器,保定市中茂能源有限公司变压器,河北方晖房地产开发有限责任公司1#变压器,安乐庄电能替代03号变压器（煤改电）,河北方晖房地产开发有限责任公司6#变压器,高碑店市路灯管理办公室变压器,农贸市场,安乐庄电能替代02号变压器（煤改电）,高碑店市金岭机械厂变压器,高碑店市中平智信汽车销售服务有限责任公司变压器,高碑店市碧海天龙装饰工程有限公司变压器,安喜庄电能替代02号变压器（煤改电）,李明章变压器,河北方晖房地产开发有限责任公司2,180000005517|高碑店市新春机动车检测有限公司,安乐庄电能替代06号变压器（煤改电）,方家务西南4,高碑店市建设局变压器,高碑店市利永铸造有限公司,安乐庄电能替代05号变压器（煤改电）,新春机动车检测变压器315,河北方晖房地产开发有限责任公司变压器1,高碑店市路灯管理办公室（安泰东路检查站南）变压器,高碑店市万通发展有限责任公司万通加油站变压器,王克华,市政修路变压器,兴凯材料,安乐庄电能替代01号变压器（煤改电）,河北凯翔风汽车销售服务有限公司,安喜庄电能替代01号变压器（煤改电）,安乐庄电能替代04号变压器（煤改电）,河北鹏高盛厨房设备有限公司变压器,河北方晖房地产开发有限责任公司变压器,高碑店市路灯管理办公室,安乐庄电能替代07号变压器（煤改电）,河北方晖房地产开发有限责任公司3#变压器,河北方晖房地产开发有限责任公司4#变压器,河北方晖房地产开发有限责任公司2#变压器,河北方晖房地产开发有限责任公司5#变压器,高碑店市路灯管理办公室（安泰东路检查站南）","powerOffReason":"【停电原因】由于开关跳闸导致１１０ＫＶ方家务变电站１０ＫＶ北城５２１线路全线停电 【变更送电】因抢修进度加快原因，送电时间由１７：００变更为１１：３０ 【发布渠道】通过９５５９８发布","powerOffId":"2019070613000179"},{"poweroffId":2019070613000165,"sgpoweroffId":null,"subsName":"","lineName":"车站线517","pubTranName":"顺平县火车站宏发塑料厂（刘波涛）,高于铺路东1号农业(TD)8001【纯农排变】,综合塑料厂,英民塑料厂1号,保定市立普特焊业有限公司顺平县分,顺达塑料厂,启明塑料厂,中原塑料厂,宏发塑料厂,吴建立,英民塑料厂,保定恒开路桥工程有限公司顺平分公司1000,马永会,广顺化纤二期,张国辉塑料厂,顺平县化工总厂,鑫旺塑料厂变压器,顺平县冀丰塑料有限公司,张占房塑料厂,郄文革塑料厂,长城增强软管厂,顺平县世纪星汽车维修托运部,保定市交通运输局顺平县养路工区,康文考,河北浩源食品有限责任公司,刘国中塑料厂200,袁全永,顺平县金峰化纤有限公司,顺平县金峰化纤有限公司3,高于铺路东村南2号农业(TD)8000【纯农排变】,刘铁,顺平县博茂化纤有限公司,高于铺村北新增综合0578,高于铺新增农业15号2912【纯农排变】,永发塑料厂,腾达塑料厂,高于铺制鞋厂,马建设塑料厂,袁建彬塑料厂,保定市立普特焊业有限公司,永盛塑料,0469130993-张立伟-专变-46724500-张立伟,立普特,刘铁塑料厂,高于铺800 农排|22000800【纯农排变】,张立伟,顺平县天宏水泥制品销售部250,魏文学塑料厂,顺平县亚伟塑料制品有限公司,春龙塑料厂,吴喜录,刘占秋,马永会80,金锋化纤,广顺化纤,车站吹塑厂,张占庆,河北浩源食品有限责任公司200,高于铺新增农业13号【纯农排变】,顺平县通顺加油站,永盛塑料80,刘二军塑料厂,高于铺村东新架综合1748,冶炼厂,郄进才塑料厂,茂源塑料厂,康彦明塑料厂,","scope":"【影响街道/乡镇】高于铺镇【高危重要客户】无【影响客户】高于铺村北、高于铺村东、顺平县金峰化纤有限公司、河北浩源食品有限责任公司、保定广顺开发利用股份有限公司、保定市立普特焊业有限公司顺平县分公司、保定市满城塑料加工厂","startTime":"2019-07-06 05:45:58","stopDate":"2019-07-06 09:00:00","orgNo":"1340621","typeCode":"电网故障停限电","poweroffArea":"【全线路停电】停保定市立普特焊业有限公司顺平县分,冶炼厂,高于铺新增农业15号2912【纯农排变】,金锋化纤,保定市交通运输局顺平县养路工区,康彦明塑料厂,顺平县金峰化纤有限公司3,张占庆,顺平县冀丰塑料有限公司,鑫旺塑料厂变压器,高于铺路东村南2号农业(TD)8000【纯农排变】,马建设塑料厂,张占房塑料厂,顺平县火车站宏发塑料厂（刘波涛）,郄文革塑料厂,袁建彬塑料厂","poweroffReason":"【停电原因】由于张寿刚变压器跌落掉落导致３５ＫＶ益兴变电站１０ＫＶ车站５１７线路全线停电【变更送电】因抢修进度加快原因，送电时间由１２：００变更为０９：００【发布渠道】通过９５５９８发布","powerTime":"2019-07-06 08:36:33","powerComm":"已送电","subsNo":"","lineNo":"","tgNo":"","tgName":null,"infoStatus":"1","orgName":"国网顺平县电力局","typeName":null,"infoStatusName":null,"dateDay":null,"orgNos":null,"nowTime":null,"countyName":null,"streetName":null,"villageName":null,"roadName":null,"communityName":null,"tranName":null,"sdLineName":null,"cityCode":"1340621","cityName":"国网顺平县电力局","provinceCode":null,"stopTime":"2019-07-06 09:00:00","powerType":"全部","powerOffArea":"【全线路停电】停保定市立普特焊业有限公司顺平县分,冶炼厂,高于铺新增农业15号2912【纯农排变】,金锋化纤,保定市交通运输局顺平县养路工区,康彦明塑料厂,顺平县金峰化纤有限公司3,张占庆,顺平县冀丰塑料有限公司,鑫旺塑料厂变压器,高于铺路东村南2号农业(TD)8000【纯农排变】,马建设塑料厂,张占房塑料厂,顺平县火车站宏发塑料厂（刘波涛）,郄文革塑料厂,袁建彬塑料厂","powerOffReason":"【停电原因】由于张寿刚变压器跌落掉落导致３５ＫＶ益兴变电站１０ＫＶ车站５１７线路全线停电【变更送电】因抢修进度加快原因，送电时间由１２：００变更为０９：００【发布渠道】通过９５５９８发布","powerOffId":"2019070613000165"},{"poweroffId":2019070613000103,"sgpoweroffId":null,"subsName":"","lineName":"政府线553","pubTranName":"永兴29号(德力小区),0469263611-徐水县海华大酒店-专变-226873546-徐水县海华大酒店,徐水县宏昌电器有限公司1号配变,0469263275-徐水县金浪屿国际饭店-专变-46768725-徐水县金浪屿国际饭店,安肃镇卫生院,盛源39号（印刷厂）,永兴1号(政府院内),河北正达建筑工程有限公司变压器,龙城酒楼,徐水大酒店,徐水县机关服务中心,盛源58号（劳人局）,永兴37号(武装部家属院),盛源61号（局4-5号楼）,永兴3号(武装部对面),0469263624-河北长天集团-专变-46768730-河北长天集团,保定君佳物业管理有限公司,城建局路灯（武装部分箱）,政府机关服务中心2号,永兴4号(文化局小区),电力局2号（安肃镇供电所）,盛源16号（中国银行）,政府1号,盛源103号（金源西侧）,盛源22号（人民银行）,","scope":"【影响街道/乡镇】安肃镇 【高危重要客户】无 【影响客户】城内村、德利小区、武装部小区、文化局小区、劳人局小区、中国银行小区、印刷厂小区、人民银行家属院、电力局家属院4-5号楼","startTime":"2019-07-06 02:29:00","stopDate":"2019-07-06 07:00:00","orgNo":"1340605","typeCode":"电网故障停限电","poweroffArea":"【全线路停电】停永兴29号(德力小区),盛源39号（印刷厂）,盛源61号（局4-5号楼）,盛源22号（人民银行）,0469263624-河北长天集团-专变-46768730-河北长天集团,永兴1号(政府院内),徐水县宏昌电器有限公司1号配变,电力局2号（安肃镇供电所）,盛源58号（劳人局）,城建局路灯（武装部分箱）,0469263275-徐水县金浪屿国际饭店-专变-46768725-徐水县金浪屿国际饭店,永兴37号(武装部家属院),政府1号,政府机关服务中心2号,永兴3号(武装部对面),徐水大酒店,盛源103号（金源西侧）,永兴4号(文化局小区),徐水县机关服务中心,保定君佳物业管理有限公司,河北正达建筑工程有限公司变压器,盛源16号（中国银行）,0469263611-徐水县海华大酒店-专变-226873546-徐水县海华大酒店,龙城酒楼,安肃镇卫生院","poweroffReason":"【停电原因】由于Ｂ相接地导致１０ＫＶ开关变电站政府线５５３线路全线停电 【变更送电】因抢修进度加快原因，送电时间由０９:００变更为０７:００ 【发布渠道】通过９５５９８发布","powerTime":"2019-07-06 06:36:09","powerComm":"已送电","subsNo":"","lineNo":"","tgNo":"","tgName":null,"infoStatus":"1","orgName":"国网徐水县供电公司","typeName":null,"infoStatusName":null,"dateDay":null,"orgNos":null,"nowTime":null,"countyName":null,"streetName":null,"villageName":null,"roadName":null,"communityName":null,"tranName":null,"sdLineName":null,"cityCode":"1340605","cityName":"国网徐水县供电公司","provinceCode":null,"stopTime":"2019-07-06 07:00:00","powerType":"全部","powerOffArea":"【全线路停电】停永兴29号(德力小区),盛源39号（印刷厂）,盛源61号（局4-5号楼）,盛源22号（人民银行）,0469263624-河北长天集团-专变-46768730-河北长天集团,永兴1号(政府院内),徐水县宏昌电器有限公司1号配变,电力局2号（安肃镇供电所）,盛源58号（劳人局）,城建局路灯（武装部分箱）,0469263275-徐水县金浪屿国际饭店-专变-46768725-徐水县金浪屿国际饭店,永兴37号(武装部家属院),政府1号,政府机关服务中心2号,永兴3号(武装部对面),徐水大酒店,盛源103号（金源西侧）,永兴4号(文化局小区),徐水县机关服务中心,保定君佳物业管理有限公司,河北正达建筑工程有限公司变压器,盛源16号（中国银行）,0469263611-徐水县海华大酒店-专变-226873546-徐水县海华大酒店,龙城酒楼,安肃镇卫生院","powerOffReason":"【停电原因】由于Ｂ相接地导致１０ＫＶ开关变电站政府线５５３线路全线停电 【变更送电】因抢修进度加快原因，送电时间由０９:００变更为０７:００ 【发布渠道】通过９５５９８发布","powerOffId":"2019070613000103"},{"poweroffId":2019070613000100,"sgpoweroffId":null,"subsName":"","lineName":"城区线519","pubTranName":"永兴41号(东市场2),盛源100号（商业城外环东）,北下关11号,盛源19号（盛源大街1号）,盛源11号（财产保险）,盛源41号（平安保险）,北下关2号,北下关3#,永兴13号(东市场1),永兴35号(看守所院内),盛源63号（云峰酒店）,永兴68号(上关东胡同),永兴32号(徐水会堂),永兴14号(木器厂小区),永兴26号(法院门口),盛源20号（盛源大街2号）,永兴28号(城内水井),永兴43号(幼儿园),盛源80号（商业大厅东）,永兴21号(滨河路),盛源24号（烟草公司）,永兴9号(礼堂北),永兴2号(城内大街),永兴36号(城内大队),盛源23号（晨阳公司）,永兴10号(北关大街),永兴55号（城内新村5）,永兴27号(君利商场后),盛源53号（复宁胡同）,盛源27号（计生局）,盛源52号（商业大厅西）,永兴22号(滨河小区),北下关4号,永兴39号(北下关),永兴7号（礼堂南）,永兴15号(新开路),盛源102号（复成胡同）,盛源76号（温馨家园）,盛源21号（粮局）,","scope":"【影响街道/乡镇】安肃镇、盛源大街、城内大街 【高危重要客户】无 【影响客户】北上关村、北下关村、大礼堂、法院附近、大酒店附近、粮局宾馆、木器厂小区、君利小区、商业城、复成胡同、复宁胡同、滨河小区、计生局、东市场、城内新村小区、烟草公司","startTime":"2019-07-06 02:25:21","stopDate":"2019-07-06 07:00:00","orgNo":"1340605","typeCode":"电网故障停限电","poweroffArea":"【全线路停电】停盛源63号（云峰酒店）,永兴10号(北关大街),盛源19号（盛源大街1号）,盛源20号（盛源大街2号）,盛源41号（平安保险）,北下关2号,北下关3#,永兴7号（礼堂南）,盛源21号（粮局）,永兴14号(木器厂小区),永兴27号(君利商场后),盛源100号（商业城外环东）,盛源102号（复成胡同）,盛源11号（财产保险）,盛源27号（计生局）,盛源76号（温馨家园）,盛源80号（商业大厅东）,盛源52号（商业大厅西）,永兴13号(东市场1),永兴15号(新开路),永兴22号(滨河小区),盛源53号（复宁胡同）,永兴21号(滨河路),永兴26号(法院门口),永兴28号(城内水井),永兴36号(城内大队),盛源23号（晨阳公司）,盛源24号（烟草公司）,永兴2号(城内大街),永兴35号(看守所院内),永兴39号(北下关),永兴41号(东市场2),永兴43号(幼儿园),永兴55号（城内新村5）,永兴68号(上关东胡同),永兴32号(徐水会堂),永兴9号(礼堂北),北下关11号,北下关4号","poweroffReason":"【停电原因】由于Ｂ相接地导致１１０ＫＶ徐水变电站城区５１９线路全线停电 【变更送电】因抢修进度加快原因，送电时间由０９:００变更为０７:００ 【发布渠道】通过９５５９８发布","powerTime":"2019-07-06 06:36:22","powerComm":"已送电","subsNo":"","lineNo":"","tgNo":"","tgName":null,"infoStatus":"1","orgName":"国网徐水县供电公司","typeName":null,"infoStatusName":null,"dateDay":null,"orgNos":null,"nowTime":null,"countyName":null,"streetName":null,"villageName":null,"roadName":null,"communityName":null,"tranName":null,"sdLineName":null,"cityCode":"1340605","cityName":"国网徐水县供电公司","provinceCode":null,"stopTime":"2019-07-06 07:00:00","powerType":"全部","powerOffArea":"【全线路停电】停盛源63号（云峰酒店）,永兴10号(北关大街),盛源19号（盛源大街1号）,盛源20号（盛源大街2号）,盛源41号（平安保险）,北下关2号,北下关3#,永兴7号（礼堂南）,盛源21号（粮局）,永兴14号(木器厂小区),永兴27号(君利商场后),盛源100号（商业城外环东）,盛源102号（复成胡同）,盛源11号（财产保险）,盛源27号（计生局）,盛源76号（温馨家园）,盛源80号（商业大厅东）,盛源52号（商业大厅西）,永兴13号(东市场1),永兴15号(新开路),永兴22号(滨河小区),盛源53号（复宁胡同）,永兴21号(滨河路),永兴26号(法院门口),永兴28号(城内水井),永兴36号(城内大队),盛源23号（晨阳公司）,盛源24号（烟草公司）,永兴2号(城内大街),永兴35号(看守所院内),永兴39号(北下关),永兴41号(东市场2),永兴43号(幼儿园),永兴55号（城内新村5）,永兴68号(上关东胡同),永兴32号(徐水会堂),永兴9号(礼堂北),北下关11号,北下关4号","powerOffReason":"【停电原因】由于Ｂ相接地导致１１０ＫＶ徐水变电站城区５１９线路全线停电 【变更送电】因抢修进度加快原因，送电时间由０９:００变更为０７:００ 【发布渠道】通过９５５９８发布","powerOffId":"2019070613000100"},{"poweroffId":2019070613000053,"sgpoweroffId":null,"subsName":"","lineName":"正村区线511","pubTranName":"大次良20号,大次良28号,大次良9号【纯农排变】,","scope":"【影响街道/乡镇】遂城镇 【高危重要客户】无 【影响客户】大次良村","startTime":"2019-07-06 01:16:38","stopDate":"2019-07-06 05:00:00","orgNo":"1340605","typeCode":"超电网供电能力停限电","poweroffArea":"【全线路停电】停大次良28号,大次良20号,大次良9号【纯农排变】","poweroffReason":"【停电原因】由于大王店变电站主变过负荷导致３５ＫＶ大王店变电站１０ＫＶ正村区线５１１线路全线停电 【变更送电】无 【发布渠道】通过９５５９８发布","powerTime":"2019-07-06 04:06:32","powerComm":"已送电","subsNo":"","lineNo":"","tgNo":"","tgName":null,"infoStatus":"1","orgName":"国网徐水县供电公司","typeName":null,"infoStatusName":null,"dateDay":null,"orgNos":null,"nowTime":null,"countyName":null,"streetName":null,"villageName":null,"roadName":null,"communityName":null,"tranName":null,"sdLineName":null,"cityCode":"1340605","cityName":"国网徐水县供电公司","provinceCode":null,"stopTime":"2019-07-06 05:00:00","powerType":"全部","powerOffArea":"【全线路停电】停大次良28号,大次良20号,大次良9号【纯农排变】","powerOffReason":"【停电原因】由于大王店变电站主变过负荷导致３５ＫＶ大王店变电站１０ＫＶ正村区线５１１线路全线停电 【变更送电】无 【发布渠道】通过９５５９８发布","powerOffId":"2019070613000053"}],"pageModel":{"pageNow":848,"totalCount":10973,"totalPage":1098,"tableRows":0,"pageCount":10,"beginCount":8470},"isExperi":"1"}