{"message":"","today":"2020-06-15","seleList":[{"poweroffId":2019070613000001,"sgpoweroffId":null,"subsName":"","lineName":"贾西线515","pubTranName":"南柳絮村西3号【纯农排变】,南柳絮村西【纯农排变】,南柳絮村西2号配变,南柳絮果园北【纯农排变】,南柳絮农场南2号【纯农排变】,北柳絮内西,南柳絮农场南【纯农排变】,北柳絮塘河边农【纯农排变】,南柳絮幼儿园配变,北柳絮幼儿园配变,南柳絮村东2配变,南柳絮村内1号配变,北柳絮果园【纯农排变】,北柳絮河边【纯农排变】,北柳絮北中,北柳絮东南【纯农排变】,北柳絮西北外【纯农排变】,南柳絮内2号配变,北柳絮村东【纯农排变】,北柳絮东窑【纯农排变】,北柳絮二方新增【纯农排变】,望都县朝永电锯厂,北柳絮北新【纯农排变】,北柳絮三方【纯农排变】,北柳絮五方新增【纯农排变】,北柳絮道口【纯农排变】,河北中天明生生物燃油有限公司,北柳絮村内,北柳絮沙滩,北柳絮北边【纯农排变】,北柳絮内西北,北柳絮东新【纯农排变】,北柳絮果园2【纯农排变】,北柳絮四方新增【纯农排变】,北柳絮东新2号【纯农排变】,北柳絮四方【纯农排变】,北柳絮三方新增【纯农排变】,北柳絮西南【纯农排变】,南柳絮果园【纯农排变】,","scope":"【影响街道/乡镇】贾村乡 【高危重要客户】无 【影响客户】南柳絮、北柳絮、望都县朝永电锯厂、河北中天明生生物燃油有限公司、北柳絮沙滩","startTime":"2019-07-05 23:56:33","stopDate":"2019-07-06 04:00:00","orgNo":"1340623","typeCode":"电网故障停限电","poweroffArea":"【全线路停电】停南柳絮村西3号【纯农排变】,南柳絮村西【纯农排变】,南柳絮村西2号配变,南柳絮果园北【纯农排变】,南柳絮农场南2号【纯农排变】,北柳絮内西,南柳絮农场南【纯农排变】,北柳絮塘河边农【纯农排变】,南柳絮幼儿园配变,北柳絮幼儿园配变,南柳絮村东2配变,南柳絮村内1号配变,北柳絮果园【纯农排变】,北柳絮河边【纯农排变】,北柳絮北中,北柳絮东南【纯农排变】,北柳絮西北外【纯农排变】,南柳絮内2号配变,北柳絮村东【纯农排变】,北柳絮东窑【纯农排变】,北柳絮道口【纯农排变】,北柳絮二方新增【纯农排变】,望都县朝永电锯厂,北柳絮北新【纯农排变】,北柳絮三方【纯农排变】,北柳絮五方新增【纯农排变】,河北中天明生生物燃油有限公司,南柳絮果园【纯农排变】,北柳絮村内,北柳絮沙滩,北柳絮北边【纯农排变】,北柳絮内西北,北柳絮东新【纯农排变】,北柳絮果园2【纯农排变】,北柳絮四方新增【纯农排变】,北柳絮东新2号【纯农排变】,北柳絮四方【纯农排变】,北柳絮三方新增【纯农排变】,北柳絮西南【纯农排变】","poweroffReason":"【停电原因】由于Ｃ相接地导致３５ＫＶ贾村变电站贾西线５１５线路全线停电 【变更送电】因抢修进度加快原因，送电时间由１６：００变更为０４：００ 【发布渠道】通过９５５９８发布","powerTime":"2019-07-06 03:50:14","powerComm":"已送电","subsNo":"","lineNo":"","tgNo":"","tgName":null,"infoStatus":"1","orgName":"国网望都县供电公司","typeName":null,"infoStatusName":null,"dateDay":null,"orgNos":null,"nowTime":null,"countyName":null,"streetName":null,"villageName":null,"roadName":null,"communityName":null,"tranName":null,"sdLineName":null,"cityCode":"1340623","cityName":"国网望都县供电公司","provinceCode":null,"stopTime":"2019-07-06 04:00:00","powerType":"全部","powerOffArea":"【全线路停电】停南柳絮村西3号【纯农排变】,南柳絮村西【纯农排变】,南柳絮村西2号配变,南柳絮果园北【纯农排变】,南柳絮农场南2号【纯农排变】,北柳絮内西,南柳絮农场南【纯农排变】,北柳絮塘河边农【纯农排变】,南柳絮幼儿园配变,北柳絮幼儿园配变,南柳絮村东2配变,南柳絮村内1号配变,北柳絮果园【纯农排变】,北柳絮河边【纯农排变】,北柳絮北中,北柳絮东南【纯农排变】,北柳絮西北外【纯农排变】,南柳絮内2号配变,北柳絮村东【纯农排变】,北柳絮东窑【纯农排变】,北柳絮道口【纯农排变】,北柳絮二方新增【纯农排变】,望都县朝永电锯厂,北柳絮北新【纯农排变】,北柳絮三方【纯农排变】,北柳絮五方新增【纯农排变】,河北中天明生生物燃油有限公司,南柳絮果园【纯农排变】,北柳絮村内,北柳絮沙滩,北柳絮北边【纯农排变】,北柳絮内西北,北柳絮东新【纯农排变】,北柳絮果园2【纯农排变】,北柳絮四方新增【纯农排变】,北柳絮东新2号【纯农排变】,北柳絮四方【纯农排变】,北柳絮三方新增【纯农排变】,北柳絮西南【纯农排变】","powerOffReason":"【停电原因】由于Ｃ相接地导致３５ＫＶ贾村变电站贾西线５１５线路全线停电 【变更送电】因抢修进度加快原因，送电时间由１６：００变更为０４：００ 【发布渠道】通过９５５９８发布","powerOffId":"2019070613000001"},{"poweroffId":2019070513001926,"sgpoweroffId":null,"subsName":"","lineName":"10kV518潘营线","pubTranName":"小南庄农排4台区【纯农排变】,大南庄综合3台区,潘东农排15台区【纯农排变】,潘西新民居变压器,潘西综合12台区,潘东农排6台区【纯农排变】,潘西农排5台区【纯农排变】,大南庄农排5台区【纯农排变】,小南庄综合5台区,潘东综合1台区,潘西农排5台区【纯农排变】,小南庄综合1台区,潘西综合7台区,0587126764-蠡县辛兴纺织城综合开发有限公司-专变-125203150-蠡县辛兴纺织城综合开发有限公司变压器,汽站,潘西综合4台区,潘西农排9台区【纯农排变】,潘东农排9台区【纯农排变】,潘东综合8台区,潘东综合2台区,潘东农排2台区【纯农排变】,潘东农排1台区【纯农排变】,潘西占国,潘西综合13台区,蠡县腾宇物业服务有限公司变压器,小南庄农排5台区【纯农排变】,蠡县威远商贸有限公司变压器,宏亚毛纺厂,潘西农排8台区【纯农排变】,潘西综合10台区,潘东农排4台区【纯农排变】,潘西农排13台区【纯农排变】,潘东农排10台区【纯农排变】,潘东农排13台区【纯农排变】,蠡县腾宇物业服务有限公司变压器,潘西农排10台区【纯农排变】,潘东综合4台区,潘西综合12台区,潘东农排5台区【纯农排变】,潘西农排6台区【纯农排变】,潘西农排11台区【纯农排变】,小南庄农排3台区【纯农排变】,造纸厂,变压器,生子地毯厂,潘西农排3台区【纯农排变】,大南庄综合2台区,大南庄综合4台区,潘西大军,潘东农排2台区【纯农排变】,蠡县潘东腾飞养殖场,潘东农排12台区【纯农排变】,潘西农排16台区【纯农排变】,潘东农排8台区【纯农排变】,大南庄农排1台区【纯农排变】,潘西农排6台区【纯农排变】,蠡县潘营占辉养殖场变压器,潘西农排2台区【纯农排变】,大南庄农排5台区【纯农排变】,潘东综合9台区,潘西农排9台区【纯农排变】,潘东综合10台区,小南庄综合2台区,潘西综合15台区,潘西综合1台区,小南庄农排5台区【纯农排变】,潘西占国,潘西综合9台区,潘西农排3台区【纯农排变】,大南庄农排3台区【纯农排变】,潘东农排12台区【纯农排变】,潘西农排14台区【纯农排变】,潘东农排11台区【纯农排变】,大南庄综合5台区,潘西综合4台区,潘东综合6台区,江海辉面粉厂,潘西农排1台区【纯农排变】,潘东面粉厂,潘东综合5台区,蠡县潘东腾飞养殖场,潘西综合14台区,潘西综合6台区,小南庄农排3台区【纯农排变】,造纸厂,蠡县潘营占辉养殖场变压器,大南庄农排3台区【纯农排变】,潘东农排7台区【纯农排变】,潘西综合9台区,潘西综合5台区,潘东综合8台区,大南庄农排6台区【纯农排变】,小南庄综合3台区,生子地毯厂,保定盛科物业服务有限公司,潘西综合11台区,潘西农排13台区【纯农排变】,小南庄农排7台区【纯农排变】,潘东农排11台区【纯农排变】,潘西浇地15号,大南庄综合3台区,潘东农排1台区【纯农排变】,潘西综合3台区,潘西农排16台区【纯农排变】,潘西农排14台区【纯农排变】,潘西综合1台区,小南庄农排1台区【纯农排变】,潘东综合11台区,宏亚毛纺厂,大南庄综合1台区,潘东农排6台区【纯农排变】,潘东农排5台区【纯农排变】,潘东农排14台区【纯农排变】,大南庄农排2台区【纯农排变","scope":"【影响街道/乡镇】桑元镇、辛兴镇【高危重要客户】无【影响客户】潘营村（潘东）、潘西村、大南庄村、小南庄村、南宗村","startTime":"2019-07-06 05:00:00","stopDate":"2019-07-06 08:00:00","orgNo":"1340616","typeCode":"其他临时停电","poweroffArea":"【全线路停电】停大南庄农排3台区【纯农排变】,潘西综合8台区,潘东农排9台区【纯农排变】,潘西农排8台区【纯农排变】,宏亚毛纺厂,潘西农排16台区【纯农排变】,潘东综合11台区,潘东农排12台区【纯农排变】,小南庄综合4台区,潘东综合7台区,潘西农排9台区【纯农排变】,保定盛科物业服务有限公司,大南庄农排2台区【纯农排变】,潘西农排13台区【纯农排变】,桑园潘营打井变压器,中捷运输公司,潘西综合14台区,潘东综合3台区,潘西浇地15号,潘东综合2台区,潘西新民居变压器,小南庄农排1台区【纯农排变】,变压器,潘东综合10台区,潘西综合9台区,小南庄农排3台区【纯农排变】,小南庄农排6台区【纯农排变】,蠡县潘东腾飞养殖场,潘西综合15台区,潘东农排3台区【纯农排变】,潘东综合9台区,大南庄农排1台区【纯农排变】,潘西农排12台区【纯农排变】,潘西综合5台区,小南庄综合2台区,大南庄农排4台区【纯农排变】,江海辉面粉厂,蠡县潘营占辉养殖场变压器,潘西综合12台区,小南庄综合1台区,潘东农排5台区【纯农排变】,小南庄综合5台区,大南庄综合2台区,小南庄农排7台区【纯农排变】,大南庄综合3台区,潘西农排7台区【纯农排变】,蠡县威远商贸有限公司变压器,潘东农排7台区【纯农排变】,大南庄综合5台区,大南庄综合4台区,潘东综合5台区,潘东农排13台区【纯农排变】,潘东农排8台区【纯农排变】,潘东综合4台区,小南庄农排2台区【纯农排变】,潘东综合6台区,潘西综合2台区,蠡县腾宇物业服务有限公司变压器,潘西综合11台区,潘西综合7台区,潘西综合3台区,潘西综合6台区,潘东综合1台区,潘西农排6台区【纯农排变】,潘西农排11台区【纯农排变】,小南庄农排4台区【纯农排变】,大南庄农排6台区【纯农排变】,潘东农排10台区【纯农排变】,潘东面粉厂,潘西综合4台区,潘西占国,潘东农排6台区【纯农排变】,潘西农排3台区【纯农排变】,造纸厂,潘东农排15台区【纯农排变】,潘西农排1台区【纯农排变】,潘西大军,潘西综合13台区,小南庄综合3台区,汽站,生子地毯厂,0587126764-蠡县辛兴纺织城综合开发有限公司-专变-125203150-蠡县辛兴纺织城综合开发有限公司变压器,潘东农排1台区【纯农排变】,潘东农排2台区【纯农排变】,潘东综合8台区,大南庄农排5台区【纯农排变】,潘西综合10台区,潘西农排5台区【纯农排变】,潘西综合1台区,潘西农排4台区【纯农排变】,潘西农排14台区【纯农排变】,潘东农排4台区【纯农排变】,小南庄农排5台区【纯农排变】,潘西农排2台区【纯农排变】,潘西农排10台区【纯农排变】,潘东农排14台区【纯农排变】,潘东农排11台区【纯农排变】,大南庄综合1台区","poweroffReason":"【停电原因】由于与本线路同杆架设的百尺村５１４线发生电线打火故障，需本线路停电配合抢修，导致１１０ＫＶ辛兴变电站１０ＫＶ潘营５１８线路全线停电【变更送电】无【发布渠道】通过９５５９８发布","powerTime":"2019-07-06 07:17:50","powerComm":"已送电","subsNo":"","lineNo":"","tgNo":"","tgName":null,"infoStatus":"1","orgName":"国网蠡县供电公司","typeName":null,"infoStatusName":null,"dateDay":null,"orgNos":null,"nowTime":null,"countyName":null,"streetName":null,"villageName":null,"roadName":null,"communityName":null,"tranName":null,"sdLineName":null,"cityCode":"1340616","cityName":"国网蠡县供电公司","provinceCode":null,"stopTime":"2019-07-06 08:00:00","powerType":"全部","powerOffArea":"【全线路停电】停大南庄农排3台区【纯农排变】,潘西综合8台区,潘东农排9台区【纯农排变】,潘西农排8台区【纯农排变】,宏亚毛纺厂,潘西农排16台区【纯农排变】,潘东综合11台区,潘东农排12台区【纯农排变】,小南庄综合4台区,潘东综合7台区,潘西农排9台区【纯农排变】,保定盛科物业服务有限公司,大南庄农排2台区【纯农排变】,潘西农排13台区【纯农排变】,桑园潘营打井变压器,中捷运输公司,潘西综合14台区,潘东综合3台区,潘西浇地15号,潘东综合2台区,潘西新民居变压器,小南庄农排1台区【纯农排变】,变压器,潘东综合10台区,潘西综合9台区,小南庄农排3台区【纯农排变】,小南庄农排6台区【纯农排变】,蠡县潘东腾飞养殖场,潘西综合15台区,潘东农排3台区【纯农排变】,潘东综合9台区,大南庄农排1台区【纯农排变】,潘西农排12台区【纯农排变】,潘西综合5台区,小南庄综合2台区,大南庄农排4台区【纯农排变】,江海辉面粉厂,蠡县潘营占辉养殖场变压器,潘西综合12台区,小南庄综合1台区,潘东农排5台区【纯农排变】,小南庄综合5台区,大南庄综合2台区,小南庄农排7台区【纯农排变】,大南庄综合3台区,潘西农排7台区【纯农排变】,蠡县威远商贸有限公司变压器,潘东农排7台区【纯农排变】,大南庄综合5台区,大南庄综合4台区,潘东综合5台区,潘东农排13台区【纯农排变】,潘东农排8台区【纯农排变】,潘东综合4台区,小南庄农排2台区【纯农排变】,潘东综合6台区,潘西综合2台区,蠡县腾宇物业服务有限公司变压器,潘西综合11台区,潘西综合7台区,潘西综合3台区,潘西综合6台区,潘东综合1台区,潘西农排6台区【纯农排变】,潘西农排11台区【纯农排变】,小南庄农排4台区【纯农排变】,大南庄农排6台区【纯农排变】,潘东农排10台区【纯农排变】,潘东面粉厂,潘西综合4台区,潘西占国,潘东农排6台区【纯农排变】,潘西农排3台区【纯农排变】,造纸厂,潘东农排15台区【纯农排变】,潘西农排1台区【纯农排变】,潘西大军,潘西综合13台区,小南庄综合3台区,汽站,生子地毯厂,0587126764-蠡县辛兴纺织城综合开发有限公司-专变-125203150-蠡县辛兴纺织城综合开发有限公司变压器,潘东农排1台区【纯农排变】,潘东农排2台区【纯农排变】,潘东综合8台区,大南庄农排5台区【纯农排变】,潘西综合10台区,潘西农排5台区【纯农排变】,潘西综合1台区,潘西农排4台区【纯农排变】,潘西农排14台区【纯农排变】,潘东农排4台区【纯农排变】,小南庄农排5台区【纯农排变】,潘西农排2台区【纯农排变】,潘西农排10台区【纯农排变】,潘东农排14台区【纯农排变】,潘东农排11台区【纯农排变】,大南庄综合1台区","powerOffReason":"【停电原因】由于与本线路同杆架设的百尺村５１４线发生电线打火故障，需本线路停电配合抢修，导致１１０ＫＶ辛兴变电站１０ＫＶ潘营５１８线路全线停电【变更送电】无【发布渠道】通过９５５９８发布","powerOffId":"2019070513001926"},{"poweroffId":2019070513001916,"sgpoweroffId":null,"subsName":"","lineName":"10kV514百尺村线","pubTranName":"北宗农排5台区【纯农排变】,北宗综合13台区,南宗农排1台区【纯农排变】,南宗皮棍厂,北宗综合1台区,幸福阳光小区变压器,南宗综合1台区,兴平毛纺厂,南宗综合2台区,前进染厂,南宗综合14台区,南宗综合5台区,南宗综合6台区,天宇电焊变压器,北宗农排3台区【纯农排变】,变压器,南宗农排6台区【纯农排变】,南宗农排10台区【纯农排变】,南宗农排5台区【纯农排变】,蠡县辛兴镇春晖养马场变压器,南宗新民居小区变压器,蠡县北盈麻山药农民专业合作社变压器500,蠡县北宗龙兴开花厂,南宗农排4台区【纯农排变】,河北诺曼通信设备有限公司,北宗农排6台区【纯农排变】,南宗综合8台区,北宗农排8台区【纯农排变】,南宗综合9台区,南宗农排3台区【纯农排变】,和平毛纺厂,南宗综合12台区,北宗综合7台区,天雄毛纺厂,北宗综合14台区,南宗农排13台区【纯农排变】,南宗农排8台区【纯农排变】,北宗农排9台区【纯农排变】,北宗综合6台区,南宗综合7台区,南宗综合4台区,北宗综合8台区,蠡县东帝物业服务有限公司,北宗综合2台区,南宗综合11台区,北宗农排4台区【纯农排变】,北宗农排7台区【纯农排变】,南宗农排9台区【纯农排变】,北宗综合5台区,北宗综合15台区,南宗农排11台区【纯农排变】,北宗综合9台区,北宗龙兴开花厂变压器,艳辉养殖场,北宗农排10台区【纯农排变】,北宗农排12台区【纯农排变】,南宗综合3台区,北宗农排2台区【纯农排变】,北宗综合3台区,南宗农排7台区【纯农排变】,帅威皮革制品有限公司,南宗雄飞面粉厂,北宗种植科技园,北宗综合4台区,金铎染厂,南宗综合10台区,北宗农排1台区【纯农排变】,北宗综合12台区,北宗开花厂,南宗综合13台区,北宗农排11台区【纯农排变】,北宗综合10台区,北宗综合11台区,南宗农排2台区【纯农排变】,蠡县美森家居服饰有限公司,南宗农排12台区【纯农排变】,","scope":"【影响街道/乡镇】辛兴镇【高危重要客户】无【影响客户】北宗村、南宗村","startTime":"2019-07-06 05:00:00","stopDate":"2019-07-06 08:00:00","orgNo":"1340616","typeCode":"其他临时停电","poweroffArea":"【全线路停电】停天宇电焊变压器,北宗农排3台区【纯农排变】,变压器,南宗农排6台区【纯农排变】,南宗农排10台区【纯农排变】,南宗农排5台区【纯农排变】,蠡县辛兴镇春晖养马场变压器,南宗新民居小区变压器,蠡县北盈麻山药农民专业合作社变压器500,蠡县北宗龙兴开花厂,南宗综合6台区,南宗农排4台区【纯农排变】,天雄毛纺厂,北宗综合4台区,金铎染厂,北宗农排11台区【纯农排变】,北宗综合10台区,北宗综合11台区,南宗农排2台区【纯农排变】,蠡县美森家居服饰有限公司,南宗农排12台区【纯农排变】,和平毛纺厂,南宗综合12台区,北宗综合7台区,河北诺曼通信设备有限公司,北宗农排6台区【纯农排变】,北宗综合13台区,南宗综合8台区,北宗农排8台区【纯农排变】,南宗综合9台区,艳辉养殖场,北宗农排10台区【纯农排变】,北宗农排12台区【纯农排变】,南宗综合3台区,北宗农排2台区【纯农排变】,北宗综合3台区,南宗农排7台区【纯农排变】,帅威皮革制品有限公司,南宗雄飞面粉厂,北宗种植科技园,北宗综合12台区,北宗综合14台区,南宗农排13台区【纯农排变】,南宗农排8台区【纯农排变】,北宗农排9台区【纯农排变】,北宗综合6台区,南宗综合7台区,南宗综合4台区,北宗综合8台区,南宗综合10台区,北宗农排1台区【纯农排变】,北宗开花厂,南宗综合13台区,蠡县东帝物业服务有限公司,北宗农排5台区【纯农排变】,南宗农排1台区【纯农排变】,南宗皮棍厂,北宗综合1台区,幸福阳光小区变压器,南宗综合1台区,兴平毛纺厂,南宗综合2台区,前进染厂,南宗综合14台区,南宗综合5台区,南宗农排3台区【纯农排变】,北宗综合2台区,南宗综合11台区,北宗农排4台区【纯农排变】,北宗农排7台区【纯农排变】,南宗农排9台区【纯农排变】,北宗综合5台区,北宗综合15台区,南宗农排11台区【纯农排变】,北宗综合9台区,北宗龙兴开花厂变压器","poweroffReason":"【停电原因】由于百尺村５１４线００４号杆处电线打火，需停电进行紧急消缺导致１１０ＫＶ辛兴变电站１０ＫＶ百尺村５１４线路全线停电【变更送电】无【发布渠道】通过９５５９８发布","powerTime":"2019-07-06 07:18:30","powerComm":"已送电","subsNo":"","lineNo":"","tgNo":"","tgName":null,"infoStatus":"1","orgName":"国网蠡县供电公司","typeName":null,"infoStatusName":null,"dateDay":null,"orgNos":null,"nowTime":null,"countyName":null,"streetName":null,"villageName":null,"roadName":null,"communityName":null,"tranName":null,"sdLineName":null,"cityCode":"1340616","cityName":"国网蠡县供电公司","provinceCode":null,"stopTime":"2019-07-06 08:00:00","powerType":"全部","powerOffArea":"【全线路停电】停天宇电焊变压器,北宗农排3台区【纯农排变】,变压器,南宗农排6台区【纯农排变】,南宗农排10台区【纯农排变】,南宗农排5台区【纯农排变】,蠡县辛兴镇春晖养马场变压器,南宗新民居小区变压器,蠡县北盈麻山药农民专业合作社变压器500,蠡县北宗龙兴开花厂,南宗综合6台区,南宗农排4台区【纯农排变】,天雄毛纺厂,北宗综合4台区,金铎染厂,北宗农排11台区【纯农排变】,北宗综合10台区,北宗综合11台区,南宗农排2台区【纯农排变】,蠡县美森家居服饰有限公司,南宗农排12台区【纯农排变】,和平毛纺厂,南宗综合12台区,北宗综合7台区,河北诺曼通信设备有限公司,北宗农排6台区【纯农排变】,北宗综合13台区,南宗综合8台区,北宗农排8台区【纯农排变】,南宗综合9台区,艳辉养殖场,北宗农排10台区【纯农排变】,北宗农排12台区【纯农排变】,南宗综合3台区,北宗农排2台区【纯农排变】,北宗综合3台区,南宗农排7台区【纯农排变】,帅威皮革制品有限公司,南宗雄飞面粉厂,北宗种植科技园,北宗综合12台区,北宗综合14台区,南宗农排13台区【纯农排变】,南宗农排8台区【纯农排变】,北宗农排9台区【纯农排变】,北宗综合6台区,南宗综合7台区,南宗综合4台区,北宗综合8台区,南宗综合10台区,北宗农排1台区【纯农排变】,北宗开花厂,南宗综合13台区,蠡县东帝物业服务有限公司,北宗农排5台区【纯农排变】,南宗农排1台区【纯农排变】,南宗皮棍厂,北宗综合1台区,幸福阳光小区变压器,南宗综合1台区,兴平毛纺厂,南宗综合2台区,前进染厂,南宗综合14台区,南宗综合5台区,南宗农排3台区【纯农排变】,北宗综合2台区,南宗综合11台区,北宗农排4台区【纯农排变】,北宗农排7台区【纯农排变】,南宗农排9台区【纯农排变】,北宗综合5台区,北宗综合15台区,南宗农排11台区【纯农排变】,北宗综合9台区,北宗龙兴开花厂变压器","powerOffReason":"【停电原因】由于百尺村５１４线００４号杆处电线打火，需停电进行紧急消缺导致１１０ＫＶ辛兴变电站１０ＫＶ百尺村５１４线路全线停电【变更送电】无【发布渠道】通过９５５９８发布","powerOffId":"2019070513001916"},{"poweroffId":2019070513001887,"sgpoweroffId":null,"subsName":"","lineName":"10kV515内河线","pubTranName":"0012301582舍山新民居变压器,宗周水泥砖厂,0000006318内河北变压器,温家庄南变压器,曲阳县喜金压砖厂变压器,柴军矿,0000005133南赤岸变压器,0012767389北赤岸1区变压器,大民砖厂,0012885955西五会2区变压器,0000005545内河西变压器,0000005123舍山变压器,0000005135温家庄变压器,摘星楼机井,0000005536齐村西变压器,李二军,0000005132北赤岸村变压器,0012885954桃户地2区变压器,0012889371迈岭2区变压器,0000006037齐村农变压器,0012767390内河1区变压器,0000005138东沙湾变压器,温家庄统管副业变压器,0000006713辘轳沟北变压器,0012888865内河东2变压器,0000005122莲花沟变压器,李军现,0000005981西沙湾变压器,0014308811辘轳沟南区变压器,0000005140西五会变压器,0000005139古家庄变压器,0000005137辘轳沟变压器,0554333193-曲阳县冀信绿化有限公司-专变-77082847-曲阳县冀信绿化有限公司变压器,0000005141迈岭村变压器,核桃林农灌变压器【纯农排变】,曲阳县宏达免烧砖厂,曲阳县腾飞免烧砖厂,0000005134刘家庄变压器,齐村西2变压器,永强砖厂,0000006358东沙湾水井变压器,","scope":"【影响街道/乡镇】齐村乡【高危重要客户】无【影响客户】舍山、莲花沟、桃户地、齐村、迈岭、内河、东沙湾、西沙湾、南赤岸、北赤岸、西五会、核桃林、温家庄、刘家庄、古家庄、辘轳沟","startTime":"2019-07-05 23:08:47","stopDate":"2019-07-06 04:00:00","orgNo":"1340619","typeCode":"电网故障停限电","poweroffArea":"【全线路停电】停0000005141迈岭村变压器,0012889371迈岭2区变压器,0000005545内河西变压器,0000005132北赤岸村变压器,0000006037齐村农变压器,0000005981西沙湾变压器,0000005134刘家庄变压器,0000005138东沙湾变压器,曲阳县喜金压砖厂变压器,0554333193-曲阳县冀信绿化有限公司-专变-77082847-曲阳县冀信绿化有限公司变压器,柴军矿","poweroffReason":"【停电原因】由于线路Ａ相接地导致３５ＫＶ齐村变电站１０ＫＶ５１５内河线路全线停电【变更送电】因抢修进度加快原因，送电时间由１０:００变更为０４:００【发布渠道】通过９５５９８发布","powerTime":"2019-07-06 03:29:18","powerComm":"已全部送电","subsNo":"","lineNo":"","tgNo":"","tgName":null,"infoStatus":"1","orgName":"国网曲阳县供电公司","typeName":null,"infoStatusName":null,"dateDay":null,"orgNos":null,"nowTime":null,"countyName":null,"streetName":null,"villageName":null,"roadName":null,"communityName":null,"tranName":null,"sdLineName":null,"cityCode":"1340619","cityName":"国网曲阳县供电公司","provinceCode":null,"stopTime":"2019-07-06 04:00:00","powerType":"全部","powerOffArea":"【全线路停电】停0000005141迈岭村变压器,0012889371迈岭2区变压器,0000005545内河西变压器,0000005132北赤岸村变压器,0000006037齐村农变压器,0000005981西沙湾变压器,0000005134刘家庄变压器,0000005138东沙湾变压器,曲阳县喜金压砖厂变压器,0554333193-曲阳县冀信绿化有限公司-专变-77082847-曲阳县冀信绿化有限公司变压器,柴军矿","powerOffReason":"【停电原因】由于线路Ａ相接地导致３５ＫＶ齐村变电站１０ＫＶ５１５内河线路全线停电【变更送电】因抢修进度加快原因，送电时间由１０:００变更为０４:００【发布渠道】通过９５５９８发布","powerOffId":"2019070513001887"},{"poweroffId":2019070513001830,"sgpoweroffId":null,"subsName":"","lineName":"解村线515","pubTranName":"户木供电所5号,徐水县绿茵谷物种植有限公司,解村10号,王坎庄2号【纯农排变】,解村9号【纯农排变】,瀑河供电所（所用电）,解村2号,解村砖厂,解村1号【纯农排变】,北凡4号,供电所2号,解村8号,解村3号【纯农排变】,解村12号,解村5号,","scope":"【影响街道/乡镇】户木乡 【高危重要客户】无 【影响客户】解村、北凡村、王坎庄村、徐水县绿茵谷物种植有限公司","startTime":"2019-07-05 22:20:50","stopDate":"2019-07-06 02:00:00","orgNo":"1340605","typeCode":"电网故障停限电","poweroffArea":"【全线路停电】停户木供电所5号,解村9号【纯农排变】,解村1号【纯农排变】,解村2号,解村10号,徐水县绿茵谷物种植有限公司,解村8号,解村12号,北凡4号,解村3号【纯农排变】,供电所2号,解村砖厂,解村5号,瀑河供电所（所用电）,王坎庄2号【纯农排变】","poweroffReason":"【停电原因】由于Ｂ相接地导致３５ＫＶ户木变电站解村５１５线路全线停电 【变更送电】无 【发布渠道】通过９５５９８发布","powerTime":"2019-07-06 01:12:39","powerComm":"已送电","subsNo":"","lineNo":"","tgNo":"","tgName":null,"infoStatus":"1","orgName":"国网徐水县供电公司","typeName":null,"infoStatusName":null,"dateDay":null,"orgNos":null,"nowTime":null,"countyName":null,"streetName":null,"villageName":null,"roadName":null,"communityName":null,"tranName":null,"sdLineName":null,"cityCode":"1340605","cityName":"国网徐水县供电公司","provinceCode":null,"stopTime":"2019-07-06 02:00:00","powerType":"全部","powerOffArea":"【全线路停电】停户木供电所5号,解村9号【纯农排变】,解村1号【纯农排变】,解村2号,解村10号,徐水县绿茵谷物种植有限公司,解村8号,解村12号,北凡4号,解村3号【纯农排变】,供电所2号,解村砖厂,解村5号,瀑河供电所（所用电）,王坎庄2号【纯农排变】","powerOffReason":"【停电原因】由于Ｂ相接地导致３５ＫＶ户木变电站解村５１５线路全线停电 【变更送电】无 【发布渠道】通过９５５９８发布","powerOffId":"2019070513001830"},{"poweroffId":2019070513001818,"sgpoweroffId":null,"subsName":"","lineName":"10kV517桑园营线","pubTranName":"元营农排6台区【纯农排变】,杨东梨园（大亮）,元北综合1台区,蠡县桑园博远针织厂,春光染厂,元北综合16台区,李占江,元北综合15台区,元东农排8台区【纯农排变】,元营综合4台区,元营综合10台区,元营综合8台区,二兵经编厂,元营综合2台区,元北综合5台区,元北综合8台区,元北综合11台区,杨东农排5台区【纯农排变】,元北农排3台区【纯农排变】,彦水,元营综合1台区,杨西农排8台区【纯农排变】,元北农排2台区【纯农排变】,中信公司,小学经编厂,元北综合3台区,元营农排7台区【纯农排变】,杨西农排9台区【纯农排变】,元北纬编厂,杨西农排2台区【纯农排变】,元北综合7台区,蠡县商标印刷厂,元东农排7台区【纯农排变】,范建军,元北综合9台区,老虎,元北综合2台区,元营综合9台区,元北综合17台区,占海纬编厂,元营综合6台区,杨东梨园（黄庄）,元南农排9台区【纯农排变】,杨北农排1台区【纯农排变】,元北农排5台区【纯农排变】,元南农排10台区【纯农排变】,李云平,蠡县众诚纺织公司,杨东农排3台区【纯农排变】,元北经编厂,杨北农排3台区【纯农排变】,元北综合14台区,元北综合13台区,元营综合5台区,元北综合4台区,小马经编厂,杨北农排4台区【纯农排变】,一鸣印刷厂,元营综合3台区,云国经编厂,元营农排1台区【纯农排变】,元北综合12台区,元北面粉厂,杨西农排3台区【纯农排变】,元营农排5台区【纯农排变】,元北综合6台区,杨北农排5台区【纯农排变】,杨北大队梨园,杨西农排5台区【纯农排变】,元北农排4台区【纯农排变】,元营综合7台区,蠡县桑园针织染整厂,元营农排2台区【纯农排变】,元营农排4台区【纯农排变】,杨北农排2台区【纯农排变】,杨东农排4台区【纯农排变】,刘铭庄砖厂,蠡县乐朋起绒厂变压器,元北农排1台区【纯农排变】,元北冷库,元北农排7台区【纯农排变】,元北农排6台区【纯农排变】,元营农排3台区【纯农排变】,","scope":"【影响街道/乡镇】桑元镇【高危重要客户】无【影响客户】元营村、元北村、杨东村、杨西村、元南村","startTime":"2019-07-05 22:17:35","stopDate":"2019-07-05 23:30:00","orgNo":"1340616","typeCode":"电网故障停限电","poweroffArea":"【全线路停电】停李占江,元北面粉厂,刘铭庄砖厂,中信公司,元北综合7台区,云国经编厂,杨西农排5台区【纯农排变】,春光染厂,杨东农排4台区【纯农排变】,元北纬编厂,二兵经编厂,元北综合8台区,元北农排6台区【纯农排变】,占海纬编厂,元北农排2台区【纯农排变】,元北农排4台区【纯农排变】,小马经编厂,元北综合9台区,元营综合3台区,元南农排9台区【纯农排变】,元营农排2台区【纯农排变】,元营综合2台区,元东农排7台区【纯农排变】,元北综合3台区,元北综合14台区,元东农排8台区【纯农排变】,元营综合7台区,彦水,元南农排10台区【纯农排变】,元北综合2台区,元营综合5台区,杨东农排3台区【纯农排变】,元北综合16台区,杨西农排2台区【纯农排变】,元北农排3台区【纯农排变】,元北农排7台区【纯农排变】,元北综合11台区,杨东梨园（黄庄）,杨西农排9台区【纯农排变】,元营农排6台区【纯农排变】,杨北农排2台区【纯农排变】,元北综合6台区,元北综合13台区,蠡县乐朋起绒厂变压器,杨北农排4台区【纯农排变】,蠡县商标印刷厂,杨北农排5台区【纯农排变】,杨东农排5台区【纯农排变】,元营综合9台区,一鸣印刷厂,老虎,元营综合6台区,小学经编厂,蠡县桑园针织染整厂,杨西农排3台区【纯农排变】,元营农排4台区【纯农排变】,元营农排7台区【纯农排变】,蠡县桑园博远针织厂,杨北农排1台区【纯农排变】,元北综合12台区,元营综合10台区,元北经编厂,杨西农排8台区【纯农排变】,杨东梨园（大亮）,元北农排1台区【纯农排变】,李云平,元营综合4台区,元北冷库,杨北大队梨园,元北综合15台区,元营综合8台区,范建军,元营农排1台区【纯农排变】,元营农排5台区【纯农排变】,蠡县众诚纺织公司,元营农排3台区【纯农排变】,元北农排5台区【纯农排变】,元北综合4台区,元北综合5台区,杨北农排3台区【纯农排变】,元营综合1台区,元北综合1台区,元北综合17台区","poweroffReason":"【停电原因】由于站外开关掉闸导致３５ＫＶ桑园变电站１０ＫＶ桑园营５１７线路全线停电【变更送电】因抢修进度加快原因，送电时间由６日１０：００变更为５日２３：３０【发布渠道】通过９５５９８发布","powerTime":"2019-07-05 23:09:20","powerComm":"已送电","subsNo":"","lineNo":"","tgNo":"","tgName":null,"infoStatus":"1","orgName":"国网蠡县供电公司","typeName":null,"infoStatusName":null,"dateDay":null,"orgNos":null,"nowTime":null,"countyName":null,"streetName":null,"villageName":null,"roadName":null,"communityName":null,"tranName":null,"sdLineName":null,"cityCode":"1340616","cityName":"国网蠡县供电公司","provinceCode":null,"stopTime":"2019-07-05 23:30:00","powerType":"全部","powerOffArea":"【全线路停电】停李占江,元北面粉厂,刘铭庄砖厂,中信公司,元北综合7台区,云国经编厂,杨西农排5台区【纯农排变】,春光染厂,杨东农排4台区【纯农排变】,元北纬编厂,二兵经编厂,元北综合8台区,元北农排6台区【纯农排变】,占海纬编厂,元北农排2台区【纯农排变】,元北农排4台区【纯农排变】,小马经编厂,元北综合9台区,元营综合3台区,元南农排9台区【纯农排变】,元营农排2台区【纯农排变】,元营综合2台区,元东农排7台区【纯农排变】,元北综合3台区,元北综合14台区,元东农排8台区【纯农排变】,元营综合7台区,彦水,元南农排10台区【纯农排变】,元北综合2台区,元营综合5台区,杨东农排3台区【纯农排变】,元北综合16台区,杨西农排2台区【纯农排变】,元北农排3台区【纯农排变】,元北农排7台区【纯农排变】,元北综合11台区,杨东梨园（黄庄）,杨西农排9台区【纯农排变】,元营农排6台区【纯农排变】,杨北农排2台区【纯农排变】,元北综合6台区,元北综合13台区,蠡县乐朋起绒厂变压器,杨北农排4台区【纯农排变】,蠡县商标印刷厂,杨北农排5台区【纯农排变】,杨东农排5台区【纯农排变】,元营综合9台区,一鸣印刷厂,老虎,元营综合6台区,小学经编厂,蠡县桑园针织染整厂,杨西农排3台区【纯农排变】,元营农排4台区【纯农排变】,元营农排7台区【纯农排变】,蠡县桑园博远针织厂,杨北农排1台区【纯农排变】,元北综合12台区,元营综合10台区,元北经编厂,杨西农排8台区【纯农排变】,杨东梨园（大亮）,元北农排1台区【纯农排变】,李云平,元营综合4台区,元北冷库,杨北大队梨园,元北综合15台区,元营综合8台区,范建军,元营农排1台区【纯农排变】,元营农排5台区【纯农排变】,蠡县众诚纺织公司,元营农排3台区【纯农排变】,元北农排5台区【纯农排变】,元北综合4台区,元北综合5台区,杨北农排3台区【纯农排变】,元营综合1台区,元北综合1台区,元北综合17台区","powerOffReason":"【停电原因】由于站外开关掉闸导致３５ＫＶ桑园变电站１０ＫＶ桑园营５１７线路全线停电【变更送电】因抢修进度加快原因，送电时间由６日１０：００变更为５日２３：３０【发布渠道】通过９５５９８发布","powerOffId":"2019070513001818"},{"poweroffId":2019070513001775,"sgpoweroffId":null,"subsName":"","lineName":"10kV519仉村线","pubTranName":"仉村综合1台区,","scope":"【影响街道/乡镇】蠡吾镇【高危重要客户】无【影响客户】仉村","startTime":"2019-07-05 21:37:50","stopDate":"2019-07-05 23:30:00","orgNo":"1340616","typeCode":"电网故障停限电","poweroffArea":"【单台区停电】停仉村综合1台区","poweroffReason":"【停电原因】由于ＪＰ柜漏电保护器烧毁导致３５ＫＶ王庄变电站１０ＫＶ仉村５１９线路仉村综合１公变台区停电【变更送电】因抢修进度加快原因，送电时间由６日０９：００变更为５日２３：３０【发布渠道】通过９５５９８发","powerTime":"2019-07-05 23:04:21","powerComm":"已送电","subsNo":"","lineNo":"","tgNo":"","tgName":null,"infoStatus":"1","orgName":"国网蠡县供电公司","typeName":null,"infoStatusName":null,"dateDay":null,"orgNos":null,"nowTime":null,"countyName":null,"streetName":null,"villageName":null,"roadName":null,"communityName":null,"tranName":null,"sdLineName":null,"cityCode":"1340616","cityName":"国网蠡县供电公司","provinceCode":null,"stopTime":"2019-07-05 23:30:00","powerType":"全部","powerOffArea":"【单台区停电】停仉村综合1台区","powerOffReason":"【停电原因】由于ＪＰ柜漏电保护器烧毁导致３５ＫＶ王庄变电站１０ＫＶ仉村５１９线路仉村综合１公变台区停电【变更送电】因抢修进度加快原因，送电时间由６日０９：００变更为５日２３：３０【发布渠道】通过９５５９８发","powerOffId":"2019070513001775"},{"poweroffId":2019070513001736,"sgpoweroffId":null,"subsName":"","lineName":"10kV513齐堡线","pubTranName":"王习营公用照明1台区,齐堡公用照明3台区,王习营公用农业3台区【纯农排变】,王习营公用照明3台区,齐堡村公用照明5台区,齐堡公用照明11台区,齐堡公用照明13台区,齐堡公用农业16台区【纯农排变】,齐堡公用照明4台区,齐堡公用农业2台区【纯农排变】,齐堡公用农业15台区【纯农排变】,齐堡公用农业9台区【纯农排变】,齐堡公用农业10台区【纯农排变】,齐堡公用照明2台区,齐堡公用农业11台区【纯农排变】,齐堡公用农业1台区【纯农排变】,齐堡公用照明9台区,齐堡公用农业4台区【纯农排变】,齐堡公用照明10台区,齐堡公用照明12台区,齐堡公用农业13台区【纯农排变】,齐堡公用照明6台区,齐堡公用农业5台区【纯农排变】,齐堡公用照明14台区,","scope":"【影响街道/乡镇】大辛庄镇【高危重要客户】无【影响客户】齐堡、王习营","startTime":"2019-07-05 22:50:00","stopDate":"2019-07-06 02:00:00","orgNo":"1340610","typeCode":"其他临时停电","poweroffArea":"【分支停电】停王习营公用照明1台区,齐堡公用照明3台区,王习营公用农业3台区【纯农排变】,王习营公用照明3台区,齐堡村公用照明5台区,齐堡公用照明11台区,齐堡公用照明13台区,齐堡公用农业16台区【纯农排变】,齐堡公用照明4台区,齐堡公用农业2台区【纯农排变】,齐堡公用农业15台区【纯农排变】,齐堡公用农业9台区【纯农排变】,齐堡公用农业10台区【纯农排变】,齐堡公用照明2台区,齐堡公用农业11台区【纯农排变】,齐堡公用农业1台区【纯农排变】,齐堡公用照明9台区,齐堡公用农业4台区【纯农排变】,齐堡公用照明10台区,齐堡公用照明12台区,齐堡公用农业13台区【纯农排变】,齐堡公用照明6台区,齐堡公用农业5台区【纯农排变】,齐堡公用照明14台区","poweroffReason":"【停电原因】由于弓子线打火需停电进行紧急检修导致３５ＫＶ大辛庄变电站１０ＫＶ５１３齐堡线路主干３３号杆２５号隔离开关以下线路停电 【变更送电】无 【发布渠道】９５５９８","powerTime":"2019-07-06 01:53:26","powerComm":"已送电","subsNo":"","lineNo":"","tgNo":"","tgName":null,"infoStatus":"1","orgName":"国网定州市供电公司","typeName":null,"infoStatusName":null,"dateDay":null,"orgNos":null,"nowTime":null,"countyName":null,"streetName":null,"villageName":null,"roadName":null,"communityName":null,"tranName":null,"sdLineName":null,"cityCode":"1340610","cityName":"国网定州市供电公司","provinceCode":null,"stopTime":"2019-07-06 02:00:00","powerType":"全部","powerOffArea":"【分支停电】停王习营公用照明1台区,齐堡公用照明3台区,王习营公用农业3台区【纯农排变】,王习营公用照明3台区,齐堡村公用照明5台区,齐堡公用照明11台区,齐堡公用照明13台区,齐堡公用农业16台区【纯农排变】,齐堡公用照明4台区,齐堡公用农业2台区【纯农排变】,齐堡公用农业15台区【纯农排变】,齐堡公用农业9台区【纯农排变】,齐堡公用农业10台区【纯农排变】,齐堡公用照明2台区,齐堡公用农业11台区【纯农排变】,齐堡公用农业1台区【纯农排变】,齐堡公用照明9台区,齐堡公用农业4台区【纯农排变】,齐堡公用照明10台区,齐堡公用照明12台区,齐堡公用农业13台区【纯农排变】,齐堡公用照明6台区,齐堡公用农业5台区【纯农排变】,齐堡公用照明14台区","powerOffReason":"【停电原因】由于弓子线打火需停电进行紧急检修导致３５ＫＶ大辛庄变电站１０ＫＶ５１３齐堡线路主干３３号杆２５号隔离开关以下线路停电 【变更送电】无 【发布渠道】９５５９８","powerOffId":"2019070513001736"},{"poweroffId":2019070513001701,"sgpoweroffId":null,"subsName":"","lineName":"10kV联盟路站520线路","pubTranName":"10kVB438.B805配电室B805配电变压器,10kVB438.B805配电室B438配电变压器,","scope":"【影响街道/乡镇】兴华路 【高危重要客户】无 【影响客户】振兴里小区","startTime":"2019-07-19 07:00:00","stopDate":"2019-07-19 13:00:00","orgNo":"13406","typeCode":"计划停电","poweroffArea":"【分支停电】停10kVB438.B805配电室B805配电变压器,10kVB438.B805配电室B438配电变压器","poweroffReason":"【停电原因】由于供电设备临时检修导致１０ＫＶ联盟路变电站５２０线路莲池大街１２０号杆西分支８号杆南分支３号杆跌落保险以下停电【变更送电】因抢修进度加快，原定１７:００送电现计划１３:００送电【发布渠道】通过９５５９８发布","powerTime":"2019-07-19 12:31:38","powerComm":"已送电","subsNo":"","lineNo":"","tgNo":"","tgName":null,"infoStatus":"1","orgName":"保定供电公司","typeName":null,"infoStatusName":null,"dateDay":null,"orgNos":null,"nowTime":null,"countyName":null,"streetName":null,"villageName":null,"roadName":null,"communityName":null,"tranName":null,"sdLineName":null,"cityCode":"13406","cityName":"保定供电公司","provinceCode":null,"stopTime":"2019-07-19 13:00:00","powerType":"全部","powerOffArea":"【分支停电】停10kVB438.B805配电室B805配电变压器,10kVB438.B805配电室B438配电变压器","powerOffReason":"【停电原因】由于供电设备临时检修导致１０ＫＶ联盟路变电站５２０线路莲池大街１２０号杆西分支８号杆南分支３号杆跌落保险以下停电【变更送电】因抢修进度加快，原定１７:００送电现计划１３:００送电【发布渠道】通过９５５９８发布","powerOffId":"2019070513001701"},{"poweroffId":2019070513001637,"sgpoweroffId":null,"subsName":"","lineName":"10kV朝阳路站525线路","pubTranName":"10kVB642配电室B642配电变压器,","scope":"【影响街道/乡镇】江城路、天威路 【高危重要客户】无 【影响客户】云景园小区","startTime":"2019-07-24 07:00:00","stopDate":"2019-07-24 10:30:00","orgNo":"13406","typeCode":"计划停电","poweroffArea":"【分支停电】停10kVB642配电室B642配电变压器","poweroffReason":"【停电原因】由于供电设备临时检修导致１０ＫＶ朝阳路变电站５２５线路天威路１３１号杆北分支１号杆刀闸以下停电【变更送电】因抢修进度加快，原定１５:００送电现计划１０:３０送电。【发布渠道】保定市保定有线电视台（7月16日20时15分至21时45分之间）屏幕上滚动","powerTime":"2019-07-24 10:09:21","powerComm":"已送电","subsNo":"","lineNo":"","tgNo":"","tgName":null,"infoStatus":"1","orgName":"保定供电公司","typeName":null,"infoStatusName":null,"dateDay":null,"orgNos":null,"nowTime":null,"countyName":null,"streetName":null,"villageName":null,"roadName":null,"communityName":null,"tranName":null,"sdLineName":null,"cityCode":"13406","cityName":"保定供电公司","provinceCode":null,"stopTime":"2019-07-24 10:30:00","powerType":"全部","powerOffArea":"【分支停电】停10kVB642配电室B642配电变压器","powerOffReason":"【停电原因】由于供电设备临时检修导致１０ＫＶ朝阳路变电站５２５线路天威路１３１号杆北分支１号杆刀闸以下停电【变更送电】因抢修进度加快，原定１５:００送电现计划１０:３０送电。【发布渠道】保定市保定有线电视台（7月16日20时15分至21时45分之间）屏幕上滚动","powerOffId":"2019070513001637"}],"pageModel":{"pageNow":849,"totalCount":10973,"totalPage":1098,"tableRows":0,"pageCount":10,"beginCount":8480},"isExperi":"1"}