{"message":"","today":"2020-06-15","seleList":[{"poweroffId":2020051513000259,"sgpoweroffId":null,"subsName":"","lineName":"10kV白家峪544线","pubTranName":"白家峪2井公用配变变压器【18M】,白家峪3#公用配变变压器,白家峪4#公用配变,白家峪村公用配变【光伏】,冯家6#公用配变变压器,冯家口1#公用配变变压器,冯家口1#公用配变变压器【18M】,冯家口2#公用配变变压器,冯家口3#公用配变变压器,冯家口4#公用配变变压器,冯家口5#公用配变变压器,冯家口村公用配变【光伏】,土门2#公用变电变压器,土门3#公用配变变压器,土门3#公用配变变压器【18M】,土门5#公用配变变压器,土门9井公用配变变压器,白家峪1#公用配变变压器,白家峪2井公用配变变压器,","scope":"【影响街道/乡镇】平阳镇 【影响客户】平阳村北、白家峪村、白家峪新民居、上平阳村、上平阳小东沟村、冯家口村、吉利沟村、元子沟村、于家店村、土门村、杨树洼村、水么村、牛巴村、立彦头村、罗峪村下、阜平县平阳镇北沟小区、阜平县平阳镇中心小学","startTime":"2020-05-24 04:00:00","stopDate":"2020-05-24 21:30:00","orgNo":"1340611","typeCode":"计划停电","poweroffArea":"【全线路停电】停１１０ＫＶ平阳变电站１０ＫＶ白家峪５４４线路，白家峪1#公用配变变压器,白家峪2井公用配变变压器,白家峪2井公用配变变压器【18M】,白家峪3#公用配变变压器,白家峪4#公用配变,白家峪村公用配变【光伏】,冯家6#公用配变变压器,冯家口1#公用配变变压器,冯家口1#公用配变变压器【18M】,冯家口2#公用配变变压器,冯家口3#公用配变变压器,冯家口4#公用配变变压器,冯家口5#公用配变变压器,冯家口村公用配变【光伏】,土门2#公用变电变压器,土门3#公用配变变压器,土门3#公用配变变压器【18M】,土门5#公用配变变压器,土门9井公用配变变压器","poweroffReason":"【停电原因】由于引线安装导致１１０ＫＶ平阳变电站１０ＫＶ白家峪５４４线路全线停电 【变更送电】因工作提前完成，送电时间由２３：５０变更为２１：３０ 【发布渠道】保定市阜平电视台（５月１５日１６时至５月２４日０４时之间）","powerTime":"2020-05-24 21:10:39","powerComm":"已送电","subsNo":"","lineNo":"","tgNo":"","tgName":null,"infoStatus":"1","orgName":"国网阜平县供电公司","typeName":null,"infoStatusName":null,"dateDay":null,"orgNos":null,"nowTime":null,"countyName":null,"streetName":null,"villageName":null,"roadName":null,"communityName":null,"tranName":null,"sdLineName":null,"cityCode":"1340611","cityName":"国网阜平县供电公司","provinceCode":null,"stopTime":"2020-05-24 21:30:00","powerType":"全部","powerOffArea":"【全线路停电】停１１０ＫＶ平阳变电站１０ＫＶ白家峪５４４线路，白家峪1#公用配变变压器,白家峪2井公用配变变压器,白家峪2井公用配变变压器【18M】,白家峪3#公用配变变压器,白家峪4#公用配变,白家峪村公用配变【光伏】,冯家6#公用配变变压器,冯家口1#公用配变变压器,冯家口1#公用配变变压器【18M】,冯家口2#公用配变变压器,冯家口3#公用配变变压器,冯家口4#公用配变变压器,冯家口5#公用配变变压器,冯家口村公用配变【光伏】,土门2#公用变电变压器,土门3#公用配变变压器,土门3#公用配变变压器【18M】,土门5#公用配变变压器,土门9井公用配变变压器","powerOffReason":"【停电原因】由于引线安装导致１１０ＫＶ平阳变电站１０ＫＶ白家峪５４４线路全线停电 【变更送电】因工作提前完成，送电时间由２３：５０变更为２１：３０ 【发布渠道】保定市阜平电视台（５月１５日１６时至５月２４日０４时之间）","powerOffId":"2020051513000259"},{"poweroffId":2020051513000241,"sgpoweroffId":null,"subsName":"","lineName":"10kV平阳543线","pubTranName":"北水峪4号公用配变,北水峪1#公用配变,北水峪2号公用配变,北水峪3#公用配变,北水峪6号公用配变,北水峪7#公用配变,北水峪8号公用配变,各老1号公用配变,各老2号公用配变【18M】,各老3号公用配变,各老村公用配变【光伏】,平阳10号公用配变,平阳14号公用配变,北水峪5#公用配变,平阳29号公用配变,","scope":"【影响街道/乡镇】平阳镇 【影响客户】平阳村、平阳东桥、平阳劳动沟、平阳大河窑、平阳镇政府、平阳北沟、平阳台南、平阳小区、各老村、羊角村、台南村、北水峪村、东水峪、南水峪、山咀头村、阜平县三岩寨敬老院","startTime":"2020-05-24 04:00:00","stopDate":"2020-05-24 21:30:00","orgNo":"1340611","typeCode":"计划停电","poweroffArea":"【全线路停电】停１１０ＫＶ平阳变电站１０ＫＶ平阳５４３线路，北水峪1#公用配变,北水峪2号公用配变,北水峪3#公用配变,北水峪4号公用配变,北水峪5#公用配变,北水峪6号公用配变,北水峪7#公用配变,北水峪8号公用配变,各老1号公用配变,各老2号公用配变【18M】,各老3号公用配变,各老村公用配变【光伏】,平阳10号公用配变,平阳14号公用配变,平阳29号公用配变","poweroffReason":"【停电原因】由于引线安装导致１１０ＫＶ平阳变电站１０ＫＶ平阳５４３线路全线停电 【变更送电】因工作提前完成，送电时间由２３：５０变更为２１：３０ 【发布渠道】保定市阜平电视台（５月１５日１６时至５月２４日０４时之间）","powerTime":"2020-05-24 21:12:06","powerComm":"已送电","subsNo":"","lineNo":"","tgNo":"","tgName":null,"infoStatus":"1","orgName":"国网阜平县供电公司","typeName":null,"infoStatusName":null,"dateDay":null,"orgNos":null,"nowTime":null,"countyName":null,"streetName":null,"villageName":null,"roadName":null,"communityName":null,"tranName":null,"sdLineName":null,"cityCode":"1340611","cityName":"国网阜平县供电公司","provinceCode":null,"stopTime":"2020-05-24 21:30:00","powerType":"全部","powerOffArea":"【全线路停电】停１１０ＫＶ平阳变电站１０ＫＶ平阳５４３线路，北水峪1#公用配变,北水峪2号公用配变,北水峪3#公用配变,北水峪4号公用配变,北水峪5#公用配变,北水峪6号公用配变,北水峪7#公用配变,北水峪8号公用配变,各老1号公用配变,各老2号公用配变【18M】,各老3号公用配变,各老村公用配变【光伏】,平阳10号公用配变,平阳14号公用配变,平阳29号公用配变","powerOffReason":"【停电原因】由于引线安装导致１１０ＫＶ平阳变电站１０ＫＶ平阳５４３线路全线停电 【变更送电】因工作提前完成，送电时间由２３：５０变更为２１：３０ 【发布渠道】保定市阜平电视台（５月１５日１６时至５月２４日０４时之间）","powerOffId":"2020051513000241"},{"poweroffId":2020051513000236,"sgpoweroffId":null,"subsName":"","lineName":"10kV北庄545线","pubTranName":"10kV北庄食用菌2#公用配变,10kV北庄食用菌3#公用配变,北庄1#公用配变,北庄1#公用配变【18M】,北庄2#公用配变,北庄3#公用配变,北庄4#公用配变,北庄5号公用配变,北庄5井配变变压器,北庄食用菌公用配变,长角1#公用配变,长角2#公用配变,长角3号公用配变,长角4号公用配变,","scope":"【影响街道/乡镇】平阳镇 【影响客户】北庄村、金家口村、河泽村、半岛沟门村,黄岸村、东板峪村、长角村、朱岸村、车道村、大庙村、五支村、枣岸村、石湖村、唐野村、柳河村、坡子村、大湾村、土门村、南工村、桃河村、桃河沟村","startTime":"2020-05-24 04:00:00","stopDate":"2020-05-24 21:30:00","orgNo":"1340611","typeCode":"计划停电","poweroffArea":"【全线路停电】停１１０ＫＶ平阳变电站１０ＫＶ北庄５４５线路，10kV北庄食用菌2#公用配变,10kV北庄食用菌3#公用配变,北庄1#公用配变,北庄1#公用配变【18M】,北庄2#公用配变,北庄3#公用配变,北庄4#公用配变,北庄5号公用配变,北庄5井配变变压器,北庄食用菌公用配变,长角1#公用配变,长角2#公用配变,长角3号公用配变,长角4号公用配变","poweroffReason":"【停电原因】由于引线安装导致１１０ＫＶ平阳变电站１０ＫＶ北庄５４５线路全线停电 【变更送电】因工作提前完成，送电时间由２３：５０变更为２１：３０ 【发布渠道】保定市阜平电视台（５月１５日１６时至５月２４日０４时之间）","powerTime":"2020-05-24 21:13:12","powerComm":"已送电","subsNo":"","lineNo":"","tgNo":"","tgName":null,"infoStatus":"1","orgName":"国网阜平县供电公司","typeName":null,"infoStatusName":null,"dateDay":null,"orgNos":null,"nowTime":null,"countyName":null,"streetName":null,"villageName":null,"roadName":null,"communityName":null,"tranName":null,"sdLineName":null,"cityCode":"1340611","cityName":"国网阜平县供电公司","provinceCode":null,"stopTime":"2020-05-24 21:30:00","powerType":"全部","powerOffArea":"【全线路停电】停１１０ＫＶ平阳变电站１０ＫＶ北庄５４５线路，10kV北庄食用菌2#公用配变,10kV北庄食用菌3#公用配变,北庄1#公用配变,北庄1#公用配变【18M】,北庄2#公用配变,北庄3#公用配变,北庄4#公用配变,北庄5号公用配变,北庄5井配变变压器,北庄食用菌公用配变,长角1#公用配变,长角2#公用配变,长角3号公用配变,长角4号公用配变","powerOffReason":"【停电原因】由于引线安装导致１１０ＫＶ平阳变电站１０ＫＶ北庄５４５线路全线停电 【变更送电】因工作提前完成，送电时间由２３：５０变更为２１：３０ 【发布渠道】保定市阜平电视台（５月１５日１６时至５月２４日０４时之间）","powerOffId":"2020051513000236"},{"poweroffId":2020051513000230,"sgpoweroffId":null,"subsName":"","lineName":"10kV王林口540线","pubTranName":"王快15#公用配变,王快16#公用配变,东王林口1#公用配变,东王林口2#公用配变,东王林口田野希望小学采暖1号变压器【18M】,刘家沟1#公用配变,刘家沟2#公用配变,马坊1#公用配变,马坊2#公用配变,王快5#公用配变,王快6#公用配变,王快7#公用配变,王快8#公用配变,王快9#公用配变,前岭6#公用配变,前岭7#公用配变,铁岭1#公用配变,铁岭2#公用配变,铁岭3号公用配变,铁岭4#公用配变,铁岭5#公用配变,铁岭6#公用配变,铁岭8#公用配变,王快1#公用配变,马沙沟1#公用配变,马沙沟2#公用配变,马沙沟小区3#公用配变,平阳11#公用配变,王快17#公用配变,王快2#公用配变,王快3#公用配变,王快4#公用配变,王快小区10#配变中压出线间隔配电变压器,前岭1#公用配变,前岭2#公用配变,前岭2#公用配变【18M】,前岭3#公用配变,前岭4#公用配变,王快13#公用配变,王快13#公用配变【18M】,白山1#公用配变,王快14#公用配变,","scope":"【影响街道/乡镇】平阳镇、王林口乡 【影响客户】铁岭村、铁岭西沟、王快村、后沟村、王快二十亩地村、单岗岭村、黄家坡村、王快土洞沟村、刘家峪村、核桃树沟村、王快石门沟村、王快大车峪村、刘树峪村、寨沟村、石门沟村、白山村、皂火峪村、五丈湾村、庙尔沟村、庙南村、保家庄村、鸭沟村、郄家沟村、上白岔村、下白岔村、坡河村、王快劳动沟村、前岭村、桑元村、樊家工村、杜木沟村、立北沟村、西王林口村、赵望沟村、马沙沟、马坊村、东王林口村、刘家沟村、阜平县交警大队平阳分队、阜平县教师发展中心、阜平县平阳中心卫生院、阜平县王林口乡人民政府、阜平县王林口乡卫生院、阜平县王林口乡西王林口小学、阜平县王林口镇小区","startTime":"2020-05-24 04:00:00","stopDate":"2020-05-24 21:30:00","orgNo":"1340611","typeCode":"计划停电","poweroffArea":"【全线路停电】停１１０ＫＶ平阳变电站１０ＫＶ王林口５４０线路，东王林口1#公用配变,东王林口2#公用配变,东王林口田野希望小学采暖1号变压器【18M】,刘家沟1#公用配变,刘家沟2#公用配变,马坊1#公用配变,马坊2#公用配变,马沙沟1#公用配变,马沙沟2#公用配变,马沙沟小区3#公用配变,平阳11#公用配变,白山1#公用配变,王快小区10#配变中压出线间隔配电变压器,前岭1#公用配变,前岭2#公用配变,前岭2#公用配变【18M】,前岭3#公用配变,前岭4#公用配变,王快13#公用配变,王快13#公用配变【18M】,王快14#公用配变,王快15#公用配变,王快16#公用配变,王快17#公用配变,王快2#公用配变,王快3#公用配变,王快4#公用配变,王快5#公用配变,王快6#公用配变,王快7#公用配变,王快8#公用配变,王快9#公用配变,前岭6#公用配变,前岭7#公用配变,铁岭1#公用配变,铁岭2#公用配变,铁岭3号公用配变,铁岭4#公用配变,铁岭5#公用配变,铁岭6#公用配变,铁岭8#公用配变,王快1#公用配变","poweroffReason":"【停电原因】由于引线安装导致１１０ＫＶ平阳变电站１０ＫＶ王林口５４０线路全线停电 【变更送电】因工作提前完成，送电时间由２３：５０变更为２１：３０ 【发布渠道】保定市阜平电视台（５月１５日１６时至５月２４日０４时之间）","powerTime":"2020-05-24 21:09:07","powerComm":"已送电","subsNo":"","lineNo":"","tgNo":"","tgName":null,"infoStatus":"1","orgName":"国网阜平县供电公司","typeName":null,"infoStatusName":null,"dateDay":null,"orgNos":null,"nowTime":null,"countyName":null,"streetName":null,"villageName":null,"roadName":null,"communityName":null,"tranName":null,"sdLineName":null,"cityCode":"1340611","cityName":"国网阜平县供电公司","provinceCode":null,"stopTime":"2020-05-24 21:30:00","powerType":"全部","powerOffArea":"【全线路停电】停１１０ＫＶ平阳变电站１０ＫＶ王林口５４０线路，东王林口1#公用配变,东王林口2#公用配变,东王林口田野希望小学采暖1号变压器【18M】,刘家沟1#公用配变,刘家沟2#公用配变,马坊1#公用配变,马坊2#公用配变,马沙沟1#公用配变,马沙沟2#公用配变,马沙沟小区3#公用配变,平阳11#公用配变,白山1#公用配变,王快小区10#配变中压出线间隔配电变压器,前岭1#公用配变,前岭2#公用配变,前岭2#公用配变【18M】,前岭3#公用配变,前岭4#公用配变,王快13#公用配变,王快13#公用配变【18M】,王快14#公用配变,王快15#公用配变,王快16#公用配变,王快17#公用配变,王快2#公用配变,王快3#公用配变,王快4#公用配变,王快5#公用配变,王快6#公用配变,王快7#公用配变,王快8#公用配变,王快9#公用配变,前岭6#公用配变,前岭7#公用配变,铁岭1#公用配变,铁岭2#公用配变,铁岭3号公用配变,铁岭4#公用配变,铁岭5#公用配变,铁岭6#公用配变,铁岭8#公用配变,王快1#公用配变","powerOffReason":"【停电原因】由于引线安装导致１１０ＫＶ平阳变电站１０ＫＶ王林口５４０线路全线停电 【变更送电】因工作提前完成，送电时间由２３：５０变更为２１：３０ 【发布渠道】保定市阜平电视台（５月１５日１６时至５月２４日０４时之间）","powerOffId":"2020051513000230"},{"poweroffId":2020051513000214,"sgpoweroffId":null,"subsName":"","lineName":"大沟线564","pubTranName":"河北马大姐食品有限公司-200,保定兴建商品混凝土有限公司,0011676765*定兴污水处理厂01,定兴县瑞驰川豪建筑材料经销处,佳丽彩印厂,两合庄村委会2,0011676765*定兴污水处理厂02,0011676758移动公司小店机站,垃圾处理站,0011676786联兴饲料厂,0011676781*两合庄村委会,","scope":"【影响街道/乡镇】定兴镇、北田乡 【影响客户】污水处理厂、联兴饲料、瑞驰川豪、两合庄村委会、浩天飞织、马大姐食品、保定裕康食品、保定兴建商品混凝土公司、小店移动机站、佳丽彩印厂、河北浩天非织造布有限公司、槐茂食品","startTime":"2020-05-26 06:00:00","stopDate":"2020-05-26 12:00:00","orgNo":"1340609","typeCode":"计划停电","poweroffArea":"【分支停电】停２２０ＫＶ柳卓开关站大沟线５６４线路主干７６号杆５６４-０４号断路器以下线路，佳丽彩印厂,河北马大姐食品有限公司-200,保定兴建商品混凝土有限公司,0011676765*定兴污水处理厂01,定兴县瑞驰川豪建筑材料经销处,两合庄村委会2,0011676765*定兴污水处理厂02,0011676758移动公司小店机站,垃圾处理站,0011676786联兴饲料厂,0011676781*两合庄村委会","poweroffReason":"【停电原因】由于马大姐分支更换导线导致２２０ＫＶ柳卓开关站大沟线５６４线路主干７６号杆５６４-０４号断路器以下线路停电 【变更送电】无 【发布渠道】保定市定兴县电视台（０５月１８日０９时１０分至２３时５０分之间）屏幕上方滚动播放","powerTime":"2020-05-26 11:52:59","powerComm":"已送电","subsNo":"","lineNo":"","tgNo":"","tgName":null,"infoStatus":"1","orgName":"国网定兴县供电公司","typeName":null,"infoStatusName":null,"dateDay":null,"orgNos":null,"nowTime":null,"countyName":null,"streetName":null,"villageName":null,"roadName":null,"communityName":null,"tranName":null,"sdLineName":null,"cityCode":"1340609","cityName":"国网定兴县供电公司","provinceCode":null,"stopTime":"2020-05-26 12:00:00","powerType":"全部","powerOffArea":"【分支停电】停２２０ＫＶ柳卓开关站大沟线５６４线路主干７６号杆５６４-０４号断路器以下线路，佳丽彩印厂,河北马大姐食品有限公司-200,保定兴建商品混凝土有限公司,0011676765*定兴污水处理厂01,定兴县瑞驰川豪建筑材料经销处,两合庄村委会2,0011676765*定兴污水处理厂02,0011676758移动公司小店机站,垃圾处理站,0011676786联兴饲料厂,0011676781*两合庄村委会","powerOffReason":"【停电原因】由于马大姐分支更换导线导致２２０ＫＶ柳卓开关站大沟线５６４线路主干７６号杆５６４-０４号断路器以下线路停电 【变更送电】无 【发布渠道】保定市定兴县电视台（０５月１８日０９时１０分至２３时５０分之间）屏幕上方滚动播放","powerOffId":"2020051513000214"},{"poweroffId":2020051513000210,"sgpoweroffId":null,"subsName":"","lineName":"10kV553史各庄线","pubTranName":"农垦牧业小区2号,西留营10号【纯农排变】,西留营11号【纯农排变】,西留营12号,西留营16号【纯农排变】,西留营18号,西留营3号【纯农排变】,西留营4号【纯农排变】,西留营5号【纯农排变】,西留营9号【纯农排变】,","scope":"【影响街道/乡镇】漕河镇 【高危重要客户】无 【影响客户】西留营","startTime":"2020-05-15 15:28:02","stopDate":"2020-05-15 18:00:00","orgNo":"1340605","typeCode":"电网故障停限电","poweroffArea":"【全线路停电】停农垦牧业小区2号,西留营10号【纯农排变】,西留营11号【纯农排变】,西留营12号,西留营16号【纯农排变】,西留营18号,西留营3号【纯农排变】,西留营4号【纯农排变】,西留营5号【纯农排变】,西留营9号【纯农排变】","poweroffReason":"【停电原因】由于Ｂ相接地导致１１０ＫＶ留村变电站史各庄线５５３线路全线停电 【变更送电】无 【发布渠道】通过９５５９８发布","powerTime":"2020-05-15 17:41:44","powerComm":"已送电","subsNo":"","lineNo":"","tgNo":"","tgName":null,"infoStatus":"1","orgName":"国网徐水县供电公司","typeName":null,"infoStatusName":null,"dateDay":null,"orgNos":null,"nowTime":null,"countyName":null,"streetName":null,"villageName":null,"roadName":null,"communityName":null,"tranName":null,"sdLineName":null,"cityCode":"1340605","cityName":"国网徐水县供电公司","provinceCode":null,"stopTime":"2020-05-15 18:00:00","powerType":"全部","powerOffArea":"【全线路停电】停农垦牧业小区2号,西留营10号【纯农排变】,西留营11号【纯农排变】,西留营12号,西留营16号【纯农排变】,西留营18号,西留营3号【纯农排变】,西留营4号【纯农排变】,西留营5号【纯农排变】,西留营9号【纯农排变】","powerOffReason":"【停电原因】由于Ｂ相接地导致１１０ＫＶ留村变电站史各庄线５５３线路全线停电 【变更送电】无 【发布渠道】通过９５５９８发布","powerOffId":"2020051513000210"},{"poweroffId":2020051513000201,"sgpoweroffId":null,"subsName":"","lineName":"内章线523","pubTranName":"交通局家属院公用,新养路工区公用2,养路工区公用,新三家疃光5(村西),天马1#充电桩箱变配电变压器,养路工区公用2,","scope":"【影响街道/乡镇】定兴镇 【影响客户】城市管理行政执法局、交通局家属院、定兴汽车站、光磊炉业有限公司、河北贝斯顿热能设备有限公司、华港燃气有限公司、宝华电子科技有限公司、天马汽车充电站、三家疃部分用户、郭培京绣时装公司、养路工区、朝阳驾校、保定跃飞新型吸音材料有限公司、恒天大迪、世纪利洁洗衣、京工万达厨房设备有限公司、速洁优服务有限公司、兴洁洗衣、永信兴达汽车、皓洁洗衣","startTime":"2020-05-26 06:00:00","stopDate":"2020-05-26 12:00:00","orgNo":"1340609","typeCode":"计划停电","poweroffArea":"【全线路停电】停１１０ＫＶ周家庄变电站内章线５２３线路全线，交通局家属院公用,0011676772定兴县征途卡客车服务中心,变压器003,龙源热力-500,跃飞—400,永信兴达汽车-250,西麦食品-1600,兴洁洗衣服务有限公司,定兴汽车站,新养路工区公用2,河北宝华电子科技有限公司,郭培京绣时装公司,养路工区公用,0011676763定兴县朝阳机动车驾驶员培训学校,跃飞2号变―630,恒天大迪-630,新三家疃光5(村西),0011676757*养路工区,龙源热力2号—500,天马1#充电桩箱变配电变压器,变压器004,速洁优服务有限公司-200,养路工区公用2","poweroffReason":"【停电原因】由于更换出线电缆，电缆头制作接引、试验导致１１０ＫＶ周家庄变电站内章线５２３线路全线停电 【变更送电】无 【发布渠道】保定市定兴县电视台（０５月１８日０９时１０分至２３时２０分之间）屏幕上方滚动播放","powerTime":"2020-05-26 11:52:25","powerComm":"已送电","subsNo":"","lineNo":"","tgNo":"","tgName":null,"infoStatus":"1","orgName":"国网定兴县供电公司","typeName":null,"infoStatusName":null,"dateDay":null,"orgNos":null,"nowTime":null,"countyName":null,"streetName":null,"villageName":null,"roadName":null,"communityName":null,"tranName":null,"sdLineName":null,"cityCode":"1340609","cityName":"国网定兴县供电公司","provinceCode":null,"stopTime":"2020-05-26 12:00:00","powerType":"全部","powerOffArea":"【全线路停电】停１１０ＫＶ周家庄变电站内章线５２３线路全线，交通局家属院公用,0011676772定兴县征途卡客车服务中心,变压器003,龙源热力-500,跃飞—400,永信兴达汽车-250,西麦食品-1600,兴洁洗衣服务有限公司,定兴汽车站,新养路工区公用2,河北宝华电子科技有限公司,郭培京绣时装公司,养路工区公用,0011676763定兴县朝阳机动车驾驶员培训学校,跃飞2号变―630,恒天大迪-630,新三家疃光5(村西),0011676757*养路工区,龙源热力2号—500,天马1#充电桩箱变配电变压器,变压器004,速洁优服务有限公司-200,养路工区公用2","powerOffReason":"【停电原因】由于更换出线电缆，电缆头制作接引、试验导致１１０ＫＶ周家庄变电站内章线５２３线路全线停电 【变更送电】无 【发布渠道】保定市定兴县电视台（０５月１８日０９时１０分至２３时２０分之间）屏幕上方滚动播放","powerOffId":"2020051513000201"},{"poweroffId":2020051513000176,"sgpoweroffId":null,"subsName":"","lineName":"10kV522市庄线","pubTranName":"赵家庄公用照明二台区(2),市庄公用照明16台区,市庄公用照明17台区,市庄公用照明9台区,市庄公用照明14台区,市庄公用照明8台区,赵家庄公用照明4台区,市庄公用照明20台区,市庄公用照明12台区,市庄公用照明11台区,赵家庄公用照明6台区,市庄公用照明13台区,市庄公用照明10台区,赵家庄公用照明3台区,市庄公用照明18台区,市庄公用照明15台区,市庄公用照明19台区,市庄公用照明2台区,市庄公用照明4台区,赵家庄公用照明一台区(1),市庄公用照明1台区,市庄公用照明3台区,市庄公用照明6台区,市庄公用照明7台区,市庄公用照明5台区,","scope":"【影响街道/乡镇】李亲顾镇【影响客户】市庄、赵家庄","startTime":"2020-05-31 07:00:00","stopDate":"2020-05-31 18:00:00","orgNo":"1340610","typeCode":"计划停电","poweroffArea":"【分支停电】停１１０ＫＶ李亲顾变电站１０ＫＶ５２２市庄线路主干７６号杆０２号断路器以下线路，市庄公用照明14台区,市庄公用照明4台区,赵家庄公用照明一台区(1),市庄公用照明1台区,市庄公用照明3台区,市庄公用照明7台区,市庄公用照明5台区,赵家庄公用照明二台区(2),市庄公用照明16台区,市庄公用照明17台区,市庄公用照明9台区,市庄公用照明6台区,市庄公用照明8台区,赵家庄公用照明4台区,市庄公用照明20台区,市庄公用照明12台区,市庄公用照明11台区,赵家庄公用照明6台区,市庄公用照明13台区,市庄公用照明10台区,赵家庄公用照明3台区,市庄公用照明18台区,市庄公用照明15台区,市庄公用照明19台区,市庄公用照明2台区","poweroffReason":"【停电原因】由于更换电杆导致１１０ＫＶ李亲顾变电站１０ＫＶ５２２市庄线路主干７６号杆０２号断路器以下线路停电 【变更送电】无 【发布渠道】河北省定州市定州日报第三版（２０２０年０５月２２日）","powerTime":"2020-05-31 17:50:44","powerComm":"已送电","subsNo":"","lineNo":"","tgNo":"","tgName":null,"infoStatus":"1","orgName":"国网定州市供电公司","typeName":null,"infoStatusName":null,"dateDay":null,"orgNos":null,"nowTime":null,"countyName":null,"streetName":null,"villageName":null,"roadName":null,"communityName":null,"tranName":null,"sdLineName":null,"cityCode":"1340610","cityName":"国网定州市供电公司","provinceCode":null,"stopTime":"2020-05-31 18:00:00","powerType":"全部","powerOffArea":"【分支停电】停１１０ＫＶ李亲顾变电站１０ＫＶ５２２市庄线路主干７６号杆０２号断路器以下线路，市庄公用照明14台区,市庄公用照明4台区,赵家庄公用照明一台区(1),市庄公用照明1台区,市庄公用照明3台区,市庄公用照明7台区,市庄公用照明5台区,赵家庄公用照明二台区(2),市庄公用照明16台区,市庄公用照明17台区,市庄公用照明9台区,市庄公用照明6台区,市庄公用照明8台区,赵家庄公用照明4台区,市庄公用照明20台区,市庄公用照明12台区,市庄公用照明11台区,赵家庄公用照明6台区,市庄公用照明13台区,市庄公用照明10台区,赵家庄公用照明3台区,市庄公用照明18台区,市庄公用照明15台区,市庄公用照明19台区,市庄公用照明2台区","powerOffReason":"【停电原因】由于更换电杆导致１１０ＫＶ李亲顾变电站１０ＫＶ５２２市庄线路主干７６号杆０２号断路器以下线路停电 【变更送电】无 【发布渠道】河北省定州市定州日报第三版（２０２０年０５月２２日）","powerOffId":"2020051513000176"},{"poweroffId":2020051513000090,"sgpoweroffId":null,"subsName":"","lineName":"10kV516东西营线","pubTranName":"西营综合3台区,客户投资_西营综合5台区,东营综合11台区,东营综合10台区【冬季供暖设施】,客户投资_东营综合3台区,客户投资_东营综合2台区,西营农排1台区变压器,东营综合6台区,西营综合8台区,西营农排9台区【纯农排变】,西营农排4台区【纯农排变】,西营综合4台区,东营综合7台区,林堡充电站出线间隔配电变压器,东营综合8台区,东营综合12台区,西营综合2台区,西营农排7台区【纯农排变】,东营综合1台区,东营综合9台区,东营综合5台区,西营农排3台区【纯农排变】,西营综合7台区,东营综合4台区,西营综合6台区,西营综合1台区,","scope":"【影响街道/乡镇】林堡乡【高危重要客户】无【影响客户】西营村、东营村","startTime":"2020-05-18 06:00:00","stopDate":"2020-05-18 07:00:00","orgNo":"1340616","typeCode":"临时停电","poweroffArea":"【全线路停电】停３５ＫＶ林堡变电站１０ＫＶ东西营５１６线路全线，东营综合6台区,西营综合8台区,西营农排7台区【纯农排变】,东营综合1台区,东营综合9台区,东营综合5台区,西营农排3台区【纯农排变】,西营综合7台区,东营综合4台区,西营综合6台区,西营综合1台区,东营综合8台区,西营农排9台区【纯农排变】,西营综合3台区,客户投资_西营综合5台区,东营综合11台区,东营综合10台区【冬季供暖设施】,客户投资_东营综合3台区,客户投资_东营综合2台区,西营农排1台区变压器,西营农排4台区【纯农排变】,东营综合12台区,西营综合2台区,西营综合4台区,东营综合7台区,牛瑞昌农业专变一,牛瑞昌二100,东营浇地十四台区100KVA,东营浇地十三台区变压器,大朋,东营温馨家园,林堡5号,东营村委会,东营浇地1号,西营农排6台区【纯农排变】,西营农排5台区【纯农排变】,牛瑞昌3-100,林堡六,林堡充电站出线间隔配电变压器,东营温馨家园200-1,东营村浇地5号东,东营浇地10号,东营浇地7号西,0469455377-东营村浇地五号-专变-46813156-东营村浇地5号,东营浇地8号,东营浇地7号,东营浇地6号东,东营浇地3号,东营浇地2号,东营村东北,东营浇地6号,东营浇地4号,东营浇地3号东,东营浇地10号东,渔池,东营浇地十二台区变压器,东营浇地十一台区变压器,蠡县磊鑫砂石料场,东营浇地9号,东营砖厂2,东营砖厂1,保定德鑫纺织品制造有限公司变压器","poweroffReason":"【停电原因】由于倒运行方式导致３５ＫＶ林堡变电站１０ＫＶ东西营５１６线路全线停电【变更送电】无【发布渠道】通过９５５９８发布","powerTime":"2020-05-18 06:31:46","powerComm":"已送电","subsNo":"","lineNo":"","tgNo":"","tgName":null,"infoStatus":"1","orgName":"国网蠡县供电公司","typeName":null,"infoStatusName":null,"dateDay":null,"orgNos":null,"nowTime":null,"countyName":null,"streetName":null,"villageName":null,"roadName":null,"communityName":null,"tranName":null,"sdLineName":null,"cityCode":"1340616","cityName":"国网蠡县供电公司","provinceCode":null,"stopTime":"2020-05-18 07:00:00","powerType":"全部","powerOffArea":"【全线路停电】停３５ＫＶ林堡变电站１０ＫＶ东西营５１６线路全线，东营综合6台区,西营综合8台区,西营农排7台区【纯农排变】,东营综合1台区,东营综合9台区,东营综合5台区,西营农排3台区【纯农排变】,西营综合7台区,东营综合4台区,西营综合6台区,西营综合1台区,东营综合8台区,西营农排9台区【纯农排变】,西营综合3台区,客户投资_西营综合5台区,东营综合11台区,东营综合10台区【冬季供暖设施】,客户投资_东营综合3台区,客户投资_东营综合2台区,西营农排1台区变压器,西营农排4台区【纯农排变】,东营综合12台区,西营综合2台区,西营综合4台区,东营综合7台区,牛瑞昌农业专变一,牛瑞昌二100,东营浇地十四台区100KVA,东营浇地十三台区变压器,大朋,东营温馨家园,林堡5号,东营村委会,东营浇地1号,西营农排6台区【纯农排变】,西营农排5台区【纯农排变】,牛瑞昌3-100,林堡六,林堡充电站出线间隔配电变压器,东营温馨家园200-1,东营村浇地5号东,东营浇地10号,东营浇地7号西,0469455377-东营村浇地五号-专变-46813156-东营村浇地5号,东营浇地8号,东营浇地7号,东营浇地6号东,东营浇地3号,东营浇地2号,东营村东北,东营浇地6号,东营浇地4号,东营浇地3号东,东营浇地10号东,渔池,东营浇地十二台区变压器,东营浇地十一台区变压器,蠡县磊鑫砂石料场,东营浇地9号,东营砖厂2,东营砖厂1,保定德鑫纺织品制造有限公司变压器","powerOffReason":"【停电原因】由于倒运行方式导致３５ＫＶ林堡变电站１０ＫＶ东西营５１６线路全线停电【变更送电】无【发布渠道】通过９５５９８发布","powerOffId":"2020051513000090"},{"poweroffId":2020051513000084,"sgpoweroffId":null,"subsName":"","lineName":"10kV511潘营线","pubTranName":"王辛庄综合5台区,王辛庄综合10台区,王辛庄综合13台区【冬季供暖设施】,王辛庄综合4台区,王辛庄综合3台区,王辛庄综合1台区,王辛庄综合6台区,王辛庄综合11台区,客户投资_王辛庄综合3台区,王辛庄综合14台区,林堡综合21台区,王辛庄综合7台区,王辛庄综合8台区,王辛庄综合12台区.,王辛庄综合2台区,王辛庄综合9台区,","scope":"【影响街道/乡镇】林堡乡【高危重要客户】无【影响客户】王辛庄村","startTime":"2020-05-18 06:00:00","stopDate":"2020-05-18 07:00:00","orgNo":"1340616","typeCode":"临时停电","poweroffArea":"【全线路停电】停３５ＫＶ林堡变电站１０ＫＶ潘营５１１线路全线，王辛庄综合13台区【冬季供暖设施】,王辛庄综合5台区,王辛庄综合10台区,王辛庄综合4台区,王辛庄综合6台区,王辛庄综合11台区,客户投资_王辛庄综合3台区,王辛庄综合14台区,林堡综合21台区,王辛庄综合7台区,王辛庄综合8台区,王辛庄综合12台区.,王辛庄综合2台区,王辛庄综合9台区,王辛庄综合3台区,王辛庄综合1台区,加弹厂北,加弹厂浇地,蛮营道东,蛮营道,志敏房,志敏房东,板厂,渡槽,王辛庄小学西,面粉厂,林曲南1号,渡槽西,林曲北2号,林曲路南新变,潘西砖厂,（2）6台区西营道,幸福家园,朱坟,林曲北1号,沟南,砖厂北,王辛庄村东,中国联合网络通信有限公司蠡县分公司变压器","poweroffReason":"【停电原因】由于倒运行方式导致３５ＫＶ林堡变电站１０ＫＶ潘营５１１线路全线停电【变更送电】无【发布渠道】通过９５５９８发布","powerTime":"2020-05-18 06:31:59","powerComm":"已送电","subsNo":"","lineNo":"","tgNo":"","tgName":null,"infoStatus":"1","orgName":"国网蠡县供电公司","typeName":null,"infoStatusName":null,"dateDay":null,"orgNos":null,"nowTime":null,"countyName":null,"streetName":null,"villageName":null,"roadName":null,"communityName":null,"tranName":null,"sdLineName":null,"cityCode":"1340616","cityName":"国网蠡县供电公司","provinceCode":null,"stopTime":"2020-05-18 07:00:00","powerType":"全部","powerOffArea":"【全线路停电】停３５ＫＶ林堡变电站１０ＫＶ潘营５１１线路全线，王辛庄综合13台区【冬季供暖设施】,王辛庄综合5台区,王辛庄综合10台区,王辛庄综合4台区,王辛庄综合6台区,王辛庄综合11台区,客户投资_王辛庄综合3台区,王辛庄综合14台区,林堡综合21台区,王辛庄综合7台区,王辛庄综合8台区,王辛庄综合12台区.,王辛庄综合2台区,王辛庄综合9台区,王辛庄综合3台区,王辛庄综合1台区,加弹厂北,加弹厂浇地,蛮营道东,蛮营道,志敏房,志敏房东,板厂,渡槽,王辛庄小学西,面粉厂,林曲南1号,渡槽西,林曲北2号,林曲路南新变,潘西砖厂,（2）6台区西营道,幸福家园,朱坟,林曲北1号,沟南,砖厂北,王辛庄村东,中国联合网络通信有限公司蠡县分公司变压器","powerOffReason":"【停电原因】由于倒运行方式导致３５ＫＶ林堡变电站１０ＫＶ潘营５１１线路全线停电【变更送电】无【发布渠道】通过９５５９８发布","powerOffId":"2020051513000084"}],"pageModel":{"pageNow":70,"totalCount":10973,"totalPage":1098,"tableRows":0,"pageCount":10,"beginCount":690},"isExperi":"1"}