{"message":"","today":"2020-06-15","seleList":[{"poweroffId":2019070413000670,"sgpoweroffId":null,"subsName":"","lineName":"雹水线515","pubTranName":"周雹水0731变压器,黄金峪村东0706变压器,西雹水4513变压器,西雹水果园2297变压器【纯农排变】,北雹水4790,黄金峪村内1826变压器,西雹水养殖厂0718变压器【纯农排变】,西雹水0696变压器,北雹水4755变压器,北雹水东6573变压器,西雹水4144变压器【纯农排变】,西雹水4967变压器,中大洋5070变压器,黄金峪6070变压器,北雹水西1284变压器,引水管理所1473,山庄尔5082,西雹水东0695变压器,东雹水6075,西雹水2005变压器,北雹水0728变压器,天嘉冷饮1921,东雹水0743变压器,中大洋东1873变压器,西雹水2391变压器【纯农排变】,西雹水东5235变压器,西雹水3327变压器,黄金峪颗粒厂2339变压器,西雹水3266变压器,东雹水村北水利6071【纯农排变】,西雹水2826变压器,西雹水2825变压器,周雹水5078变压器,西雹水4000变压器【纯农排变】,西雹水6516变压器,东雹水4966变压器,黄金峪西1286变压器,西雹水5087变压器,西雹水4040变压器【纯农排变】,西雹水4372变压器,北雹水2007变压器【纯农排变】,东雹水村东1274变压器【纯农排变】,中大洋4888变压器,中大洋4042变压器,东雹水3315变压器,黄金峪4120变压器【纯农排变】,东雹水1273变压器,北雹水1282变压器,东雹水3263变压器,中大洋0705变压器,唐县振兴食品有限公司10KV配变,山庄尔1717变压器,西雹水西0697变压器,黄金峪3267变压器,西雹水4001变压器【纯农排变】,南大洋4968变压器,","scope":"【影响街道/乡镇】雹水乡【高危重要客户】无 【影响客户】周雹水、中大洋、山庄儿、东雹水、西雹水、北雹水、黄金峪","startTime":"2019-07-04 21:46:17","stopDate":"2019-07-05 01:00:00","orgNo":"1340622","typeCode":"电网故障停限电","poweroffArea":"【全线路停电】停天嘉冷饮1921,东雹水1273变压器,东雹水0743变压器,周雹水5078变压器,中大洋东1873变压器,西雹水4372变压器,西雹水东5235变压器,西雹水西0697变压器,中大洋4042变压器,黄金峪村内1826变压器,西雹水养殖厂0718变压器【纯农排变】,西雹水2005变压器,东雹水6075,南大洋4968变压器,黄金峪颗粒厂2339变压器,西雹水4040变压器【纯农排变】,西雹水2391变压器【纯农排变】,中大洋5070变压器,西雹水4513变压器,唐县振兴食品有限公司10KV配变,西雹水0696变压器,黄金峪4120变压器【纯农排变】,山庄尔5082,山庄尔1717变压器,引水管理所1473,东雹水村北水利6071【纯农排变】,北雹水2007变压器【纯农排变】,西雹水果园2297变压器【纯农排变】,西雹水4000变压器【纯农排变】,北雹水4755变压器,西雹水4144变压器【纯农排变】,东雹水3263变压器,北雹水4790,西雹水4967变压器,西雹水3266变压器,黄金峪村东0706变压器,黄金峪3267变压器,西雹水2825变压器,周雹水0731变压器,北雹水0728变压器,中大洋0705变压器,西雹水3327变压器,北雹水东6573变压器,西雹水5087变压器,西雹水6516变压器,黄金峪西1286变压器,北雹水1282变压器,东雹水村东1274变压器【纯农排变】,北雹水西1284变压器,黄金峪6070变压器,西雹水2826变压器,东雹水4966变压器,西雹水东0695变压器,西雹水4001变压器【纯农排变】,中大洋4888变压器,东雹水3315变压器","poweroffReason":"【停电原因】由于线路接地导致３５ＫＶ西大洋变电站雹水线５１５线路全线停电【变更送电】因抢修进度加快原因，送电时间由０８：００变更为０１：００ 【发布渠道】通过９５５９８发布","powerTime":"2019-07-05 00:10:17","powerComm":"已送电","subsNo":"","lineNo":"","tgNo":"","tgName":null,"infoStatus":"1","orgName":"国网唐县供电公司","typeName":null,"infoStatusName":null,"dateDay":null,"orgNos":null,"nowTime":null,"countyName":null,"streetName":null,"villageName":null,"roadName":null,"communityName":null,"tranName":null,"sdLineName":null,"cityCode":"1340622","cityName":"国网唐县供电公司","provinceCode":null,"stopTime":"2019-07-05 01:00:00","powerType":"全部","powerOffArea":"【全线路停电】停天嘉冷饮1921,东雹水1273变压器,东雹水0743变压器,周雹水5078变压器,中大洋东1873变压器,西雹水4372变压器,西雹水东5235变压器,西雹水西0697变压器,中大洋4042变压器,黄金峪村内1826变压器,西雹水养殖厂0718变压器【纯农排变】,西雹水2005变压器,东雹水6075,南大洋4968变压器,黄金峪颗粒厂2339变压器,西雹水4040变压器【纯农排变】,西雹水2391变压器【纯农排变】,中大洋5070变压器,西雹水4513变压器,唐县振兴食品有限公司10KV配变,西雹水0696变压器,黄金峪4120变压器【纯农排变】,山庄尔5082,山庄尔1717变压器,引水管理所1473,东雹水村北水利6071【纯农排变】,北雹水2007变压器【纯农排变】,西雹水果园2297变压器【纯农排变】,西雹水4000变压器【纯农排变】,北雹水4755变压器,西雹水4144变压器【纯农排变】,东雹水3263变压器,北雹水4790,西雹水4967变压器,西雹水3266变压器,黄金峪村东0706变压器,黄金峪3267变压器,西雹水2825变压器,周雹水0731变压器,北雹水0728变压器,中大洋0705变压器,西雹水3327变压器,北雹水东6573变压器,西雹水5087变压器,西雹水6516变压器,黄金峪西1286变压器,北雹水1282变压器,东雹水村东1274变压器【纯农排变】,北雹水西1284变压器,黄金峪6070变压器,西雹水2826变压器,东雹水4966变压器,西雹水东0695变压器,西雹水4001变压器【纯农排变】,中大洋4888变压器,东雹水3315变压器","powerOffReason":"【停电原因】由于线路接地导致３５ＫＶ西大洋变电站雹水线５１５线路全线停电【变更送电】因抢修进度加快原因，送电时间由０８：００变更为０１：００ 【发布渠道】通过９５５９８发布","powerOffId":"2019070413000670"},{"poweroffId":2019070413000662,"sgpoweroffId":null,"subsName":"","lineName":"10kV东山513线","pubTranName":"宋庄综合1#变压器,宋庄村南柱上变压器,0387358637-河北依棉集团安国纺织有限公司-专变-45229283-棉纺家属院2号,依棉综合2柱上变压器,安国市润昌中药材有限公司,安国市昌达中药饮片有限公司,0387358842-安国市神禾中药材饮片专用-专变-45229046-神禾中药材饮片,宋庄综合2#变压器,","scope":"【影响街道/乡镇】药市办事处 【高危重要客户】无 【影响客户】以岭饮片厂、神禾中药材饮片公司、金康迪中药材有限公司、刘庄饮料厂、中豪纺织有限公司、河北瑞高药业公司、实业公司、安国创业水务有限公司、棉纺家属院、安国市前进无纺布有限公司、河北嘉诚环境工程有限公司、亚东药业、东山、祁州镇宋庄、美佳木业、多味","startTime":"2019-07-05 04:00:00","stopDate":"2019-07-05 06:30:00","orgNo":"1340606","typeCode":"其他临时停电","poweroffArea":"【全线路停电】停宋庄综合2#变压器,宋庄综合1#变压器,宋庄村南柱上变压器,0387358637-河北依棉集团安国纺织有限公司-专变-45229283-棉纺家属院2号,依棉综合2柱上变压器,安国市润昌中药材有限公司,安国市昌达中药饮片有限公司,0387358842-安国市神禾中药材饮片专用-专变-45229046-神禾中药材饮片","poweroffReason":"【停电原因】由于站内刀闸严重缺陷需进行紧急消缺导致１１０ＫＶ东河变电站１０ＫＶ东山５１３线路全线停电 【变更送电】无 【发布渠道】通过９５５９８发布","powerTime":"2019-07-05 06:14:57","powerComm":"已送电","subsNo":"","lineNo":"","tgNo":"","tgName":null,"infoStatus":"1","orgName":"国网安国市供电公司","typeName":null,"infoStatusName":null,"dateDay":null,"orgNos":null,"nowTime":null,"countyName":null,"streetName":null,"villageName":null,"roadName":null,"communityName":null,"tranName":null,"sdLineName":null,"cityCode":"1340606","cityName":"国网安国市供电公司","provinceCode":null,"stopTime":"2019-07-05 06:30:00","powerType":"全部","powerOffArea":"【全线路停电】停宋庄综合2#变压器,宋庄综合1#变压器,宋庄村南柱上变压器,0387358637-河北依棉集团安国纺织有限公司-专变-45229283-棉纺家属院2号,依棉综合2柱上变压器,安国市润昌中药材有限公司,安国市昌达中药饮片有限公司,0387358842-安国市神禾中药材饮片专用-专变-45229046-神禾中药材饮片","powerOffReason":"【停电原因】由于站内刀闸严重缺陷需进行紧急消缺导致１１０ＫＶ东河变电站１０ＫＶ东山５１３线路全线停电 【变更送电】无 【发布渠道】通过９５５９８发布","powerOffId":"2019070413000662"},{"poweroffId":2019070413000660,"sgpoweroffId":null,"subsName":"","lineName":"10kV568西念自疃线","pubTranName":"定州市秀民体育用品厂变压器,西町公用照明3台区,定州市路畅通煤碳有限公司,定州市聚兴铸造厂变压器,西町公用照明4台区,西町南建生,闫社强,定州市开元镇绿源米厂变压器,西疃公用照明5台区,定州永盛铸造厂,定州市海达体育用品厂变压器,西町公用照明1台区,西念自疃公用农业3台区【纯农排变】,定州市建国废铁加工厂变压器,西町公用照明2台区,定州市龙盛机械配件厂变压器,闫永生,西念自疃公用农业1台区【纯农排变】,定州市开元机械加工厂变压器,定州市诚盛水泥制品有限公司变压器,定州市红文米厂变压器,定州市聚兴铸造厂,定州市圣和汽车配件厂变压器,","scope":"【影响街道/乡镇】开元镇【高危重要客户】无【影响客户】西町村、西念自疃、海达体育用品、建国铁厂、龙盛机械配件加工厂、开元机械配件加工厂、秀敏机械配件加工厂","startTime":"2019-07-04 21:45:51","stopDate":"2019-07-04 23:30:00","orgNo":"1340610","typeCode":"电网故障停限电","poweroffArea":"【全线路停电】停西町公用照明3台区,定州市聚兴铸造厂,定州市圣和汽车配件厂变压器,定州市秀民体育用品厂变压器,定州市路畅通煤碳有限公司,定州市聚兴铸造厂变压器,西町公用照明4台区,西町南建生,闫社强,定州市开元镇绿源米厂变压器,西疃公用照明5台区,定州永盛铸造厂,定州市海达体育用品厂变压器,西町公用照明1台区,西念自疃公用农业3台区【纯农排变】,定州市建国废铁加工厂变压器,西町公用照明2台区,定州市龙盛机械配件厂变压器,闫永生,西念自疃公用农业1台区【纯农排变】,定州市开元机械加工厂变压器,定州市诚盛水泥制品有限公司变压器,定州市红文米厂变压器","poweroffReason":"【停电原因】由于恶劣天气雷击线路导致１１０ＫＶ明月店变电站１０ＫＶ５６８西念自疃线路全线停电 【变更送电】因抢修进度加快原因，送电时间由５日０８：００变更为４日２３：３０ 【发布渠道】９５５９８","powerTime":"2019-07-04 23:15:01","powerComm":"已送电","subsNo":"","lineNo":"","tgNo":"","tgName":null,"infoStatus":"1","orgName":"国网定州市供电公司","typeName":null,"infoStatusName":null,"dateDay":null,"orgNos":null,"nowTime":null,"countyName":null,"streetName":null,"villageName":null,"roadName":null,"communityName":null,"tranName":null,"sdLineName":null,"cityCode":"1340610","cityName":"国网定州市供电公司","provinceCode":null,"stopTime":"2019-07-04 23:30:00","powerType":"全部","powerOffArea":"【全线路停电】停西町公用照明3台区,定州市聚兴铸造厂,定州市圣和汽车配件厂变压器,定州市秀民体育用品厂变压器,定州市路畅通煤碳有限公司,定州市聚兴铸造厂变压器,西町公用照明4台区,西町南建生,闫社强,定州市开元镇绿源米厂变压器,西疃公用照明5台区,定州永盛铸造厂,定州市海达体育用品厂变压器,西町公用照明1台区,西念自疃公用农业3台区【纯农排变】,定州市建国废铁加工厂变压器,西町公用照明2台区,定州市龙盛机械配件厂变压器,闫永生,西念自疃公用农业1台区【纯农排变】,定州市开元机械加工厂变压器,定州市诚盛水泥制品有限公司变压器,定州市红文米厂变压器","powerOffReason":"【停电原因】由于恶劣天气雷击线路导致１１０ＫＶ明月店变电站１０ＫＶ５６８西念自疃线路全线停电 【变更送电】因抢修进度加快原因，送电时间由５日０８：００变更为４日２３：３０ 【发布渠道】９５５９８","powerOffId":"2019070413000660"},{"poweroffId":2019070413000652,"sgpoweroffId":null,"subsName":"","lineName":"10kV仕庄511线","pubTranName":"流双综合7台区,流霜农业1【纯农排变】,流双综合8台区,北仕庄农业2变压器,贾村农业1【纯农排变】,北仕庄综合1变压器(新）,北仕庄综合2变压器,东王奇综4（新）,东王奇综合1变压器,东王奇综合2变压器,东王奇综合3变压器,东王奇综合4变压器(新）,东王奇综合5,","scope":"【影响街道/乡镇】祁州镇 【高危重要客户】无 【影响客户】东张庄村、流双村、贾村、北仕庄村、马固村、南七公村、东王奇村、小中阳村","startTime":"2019-07-05 04:00:00","stopDate":"2019-07-05 06:30:00","orgNo":"1340606","typeCode":"其他临时停电","poweroffArea":"【全线路停电】停流双综合7台区,流霜农业1【纯农排变】,流双综合8台区,北仕庄农业2变压器,贾村农业1【纯农排变】,北仕庄综合1变压器(新）,北仕庄综合2变压器,东王奇综4（新）,东王奇综合1变压器,东王奇综合2变压器,东王奇综合3变压器,东王奇综合4变压器(新）,东王奇综合5","poweroffReason":"【停电原因】由于站内刀闸严重缺陷需进行紧急消缺导致１１０ＫＶ东河变电站１０ＫＶ仕庄５１１线路全线停电 【变更送电】无 【发布渠道】通过９５５９８发布","powerTime":"2019-07-05 06:15:54","powerComm":"已送电","subsNo":"","lineNo":"","tgNo":"","tgName":null,"infoStatus":"1","orgName":"国网安国市供电公司","typeName":null,"infoStatusName":null,"dateDay":null,"orgNos":null,"nowTime":null,"countyName":null,"streetName":null,"villageName":null,"roadName":null,"communityName":null,"tranName":null,"sdLineName":null,"cityCode":"1340606","cityName":"国网安国市供电公司","provinceCode":null,"stopTime":"2019-07-05 06:30:00","powerType":"全部","powerOffArea":"【全线路停电】停流双综合7台区,流霜农业1【纯农排变】,流双综合8台区,北仕庄农业2变压器,贾村农业1【纯农排变】,北仕庄综合1变压器(新）,北仕庄综合2变压器,东王奇综4（新）,东王奇综合1变压器,东王奇综合2变压器,东王奇综合3变压器,东王奇综合4变压器(新）,东王奇综合5","powerOffReason":"【停电原因】由于站内刀闸严重缺陷需进行紧急消缺导致１１０ＫＶ东河变电站１０ＫＶ仕庄５１１线路全线停电 【变更送电】无 【发布渠道】通过９５５９８发布","powerOffId":"2019070413000652"},{"poweroffId":2019070413000646,"sgpoweroffId":null,"subsName":"","lineName":"10kV521塔宣村线","pubTranName":"保定中乾房地产开发有限公司变压器,杨庄子照明5台区2队(2),定州市住房和城乡建设局变压器,定州市荣盛健身器材厂变压器,定州市恒达健身器材有限公司变压器,新华机械配件厂,中国石油保定第十二加油站,杨庄子照明6台区4队(3),0669831380-定州市市政工程管理处-专变-211338067-定州市市政工程管理处变压器,0651632618-定州市交通运输局-专变-177363339-定州市交通运输局变压器,定州市新宗食品有限公司,定州市荣盛体育用品厂,杨庄子公用照明9台区,杨庄子一队,计生委公用照明一台区(1),定州市第二医院变压器,塔宣村公用照明1台区1,定州恒宇塑胶制品厂,任占良,孔会同面粉厂,定州市华安体育用品有限公司,杨庄子公用照明8台区,定州市恒通车床加工厂变压器,王会同面粉厂,定州市国立医药材料有限公司,定州市自来水公司,李锅底,定州市鑫达体育用品厂,中国移动通信集团河北有限公司定州分公司变压器,定州市竞辉水泥制品厂变压器,定州市伊利雪糕批发部变压器,0663053955-定州市中洲水业有限公司-专变-202642599-定州市中洲水业有限公司变压器,定州市会兰面业有限公司变压器,0579077120-定州市润腾房地产开发有限公司-专变-124346418-定州市润腾房地产开发有限公司,塔宣村公用照明5台区1,河北宏孚森美石化销售有限公司变压器,定州市福利液化气站,定州市杨岳军机械零部件厂变压器,路通水泥管厂变压器,定州市建宏钢材经销处变压器,定州市北方汽车部件三厂,定州市永红车轴厂,孔会同公用农业1台区【纯农排变】,定州市环城医院变压器,定州市盛源建材通体砖厂变压器,塔宣村公用照明3台区1,塔宣村公用照明2台区1,北方汽车部件变压器,北方汽车配件1,定州市涧河海鲜坊变压器,定州市商品混凝土有限公司,定州市鑫达体育用品厂变压器,杨庄子社区居民委员会变压器（新华社区）,环城供电所,定州市谍影飞扬文化传媒有限公司变压器,定州市汇丰面粉厂,定州市润腾房地产开发有限公司变压器,中兴路路灯1,自来水公司,定州市华新公司,北方汽车部件有限公司,塔宣村公用照明4台区1,","scope":"【影响街道/乡镇】西城区、赵村镇【高危重要客户】无【影响客户】杨庄子、计生委、水厂、塔宣村、塔宣村铁路以东、新华城小区、缔景城小区","startTime":"2019-07-04 21:37:24","stopDate":"2019-07-05 02:30:00","orgNo":"1340610","typeCode":"电网故障停限电","poweroffArea":"【全线路停电】停保定中乾房地产开发有限公司变压器,杨庄子照明5台区2队(2),定州市住房和城乡建设局变压器,定州市荣盛健身器材厂变压器,定州市恒达健身器材有限公司变压器,新华机械配件厂,中国石油保定第十二加油站,杨庄子照明6台区4队(3),0669831380-定州市市政工程管理处-专变-211338067-定州市市政工程管理处变压器,0651632618-定州市交通运输局-专变-177363339-定州市交通运输局变压器,定州市新宗食品有限公司,定州市荣盛体育用品厂,杨庄子公用照明9台区,杨庄子一队,计生委公用照明一台区(1),定州市第二医院变压器,塔宣村公用照明1台区1,定州恒宇塑胶制品厂,任占良,孔会同面粉厂,定州市华安体育用品有限公司,杨庄子公用照明8台区,定州市恒通车床加工厂变压器,王会同面粉厂,定州市国立医药材料有限公司,定州市自来水公司,李锅底,定州市鑫达体育用品厂,中国移动通信集团河北有限公司定州分公司变压器,定州市竞辉水泥制品厂变压器,定州市伊利雪糕批发部变压器,0663053955-定州市中洲水业有限公司-专变-202642599-定州市中洲水业有限公司变压器,定州市会兰面业有限公司变压器,0579077120-定州市润腾房地产开发有限公司-专变-124346418-定州市润腾房地产开发有限公司,塔宣村公用照明5台区1,河北宏孚森美石化销售有限公司变压器,定州市福利液化气站,定州市杨岳军机械零部件厂变压器,路通水泥管厂变压器,定州市建宏钢材经销处变压器,定州市北方汽车部件三厂,定州市永红车轴厂,孔会同公用农业1台区【纯农排变】,定州市环城医院变压器,定州市盛源建材通体砖厂变压器,塔宣村公用照明3台区1,塔宣村公用照明2台区1,北方汽车部件变压器,北方汽车配件1,定州市涧河海鲜坊变压器,定州市商品混凝土有限公司,定州市鑫达体育用品厂变压器,杨庄子社区居民委员会变压器（新华社区）,环城供电所,定州市谍影飞扬文化传媒有限公司变压器,定州市汇丰面粉厂,定州市润腾房地产开发有限公司变压器,中兴路路灯1,自来水公司,定州市华新公司,北方汽车部件有限公司,塔宣村公用照明4台区1","poweroffReason":"【停电原因】由于西砖厂分支雷击断线导致１１０ＫＶ定县变电站１０ＫＶ５２１塔宣村线路全线停电 【变更送电】因抢修进度加快原因，送电时间由０８：００变更为０２：３０ 【发布渠道】９５５９８　","powerTime":"2019-07-05 02:01:58","powerComm":"已送电","subsNo":"","lineNo":"","tgNo":"","tgName":null,"infoStatus":"1","orgName":"国网定州市供电公司","typeName":null,"infoStatusName":null,"dateDay":null,"orgNos":null,"nowTime":null,"countyName":null,"streetName":null,"villageName":null,"roadName":null,"communityName":null,"tranName":null,"sdLineName":null,"cityCode":"1340610","cityName":"国网定州市供电公司","provinceCode":null,"stopTime":"2019-07-05 02:30:00","powerType":"全部","powerOffArea":"【全线路停电】停保定中乾房地产开发有限公司变压器,杨庄子照明5台区2队(2),定州市住房和城乡建设局变压器,定州市荣盛健身器材厂变压器,定州市恒达健身器材有限公司变压器,新华机械配件厂,中国石油保定第十二加油站,杨庄子照明6台区4队(3),0669831380-定州市市政工程管理处-专变-211338067-定州市市政工程管理处变压器,0651632618-定州市交通运输局-专变-177363339-定州市交通运输局变压器,定州市新宗食品有限公司,定州市荣盛体育用品厂,杨庄子公用照明9台区,杨庄子一队,计生委公用照明一台区(1),定州市第二医院变压器,塔宣村公用照明1台区1,定州恒宇塑胶制品厂,任占良,孔会同面粉厂,定州市华安体育用品有限公司,杨庄子公用照明8台区,定州市恒通车床加工厂变压器,王会同面粉厂,定州市国立医药材料有限公司,定州市自来水公司,李锅底,定州市鑫达体育用品厂,中国移动通信集团河北有限公司定州分公司变压器,定州市竞辉水泥制品厂变压器,定州市伊利雪糕批发部变压器,0663053955-定州市中洲水业有限公司-专变-202642599-定州市中洲水业有限公司变压器,定州市会兰面业有限公司变压器,0579077120-定州市润腾房地产开发有限公司-专变-124346418-定州市润腾房地产开发有限公司,塔宣村公用照明5台区1,河北宏孚森美石化销售有限公司变压器,定州市福利液化气站,定州市杨岳军机械零部件厂变压器,路通水泥管厂变压器,定州市建宏钢材经销处变压器,定州市北方汽车部件三厂,定州市永红车轴厂,孔会同公用农业1台区【纯农排变】,定州市环城医院变压器,定州市盛源建材通体砖厂变压器,塔宣村公用照明3台区1,塔宣村公用照明2台区1,北方汽车部件变压器,北方汽车配件1,定州市涧河海鲜坊变压器,定州市商品混凝土有限公司,定州市鑫达体育用品厂变压器,杨庄子社区居民委员会变压器（新华社区）,环城供电所,定州市谍影飞扬文化传媒有限公司变压器,定州市汇丰面粉厂,定州市润腾房地产开发有限公司变压器,中兴路路灯1,自来水公司,定州市华新公司,北方汽车部件有限公司,塔宣村公用照明4台区1","powerOffReason":"【停电原因】由于西砖厂分支雷击断线导致１１０ＫＶ定县变电站１０ＫＶ５２１塔宣村线路全线停电 【变更送电】因抢修进度加快原因，送电时间由０８：００变更为０２：３０ 【发布渠道】９５５９８　","powerOffId":"2019070413000646"},{"poweroffId":2019070413000644,"sgpoweroffId":null,"subsName":"","lineName":"10kV571八兄线","pubTranName":"定州市永红汽车配件厂,北陵头公用照明4台区,皮庄子公用照明2台区,纸房头公用照明6台区,曹庄子公用农业2台区【纯农排变】,北陵头公用照明6台区,兰家佐公用农业一台区【纯农排变】,纸方头公用照明9台区,曹庄子公用照明3台区,北陵头公用农业5台区大锤【纯农排变】,北陵头公用农业3台区占平【纯农排变】,纸方头公用照明1台区,刘家庄公用照明2台区1,纸房头公用农业1台区【纯农排变】,纸方头公用照明9台区1,北陵头公用照明5台区,皮庄子公用照明一台区,定州市南城区南刘家庄村民委员会青青小镇供暖变压器,刘家庄公用照明4台区1,纸坊头公用照明8台区,刘家庄公用照明5台区1,纸方头公用照明5台区,兰家佐公用农业3台区【纯农排变】,纸方头公用照明4台区,曹庄子公用照明二台区(010):,0628849308-定州市南城区刘家庄村村民委员会 菁菁小镇-专变-141337664-定州市南城区刘家庄村村民委员会 菁菁小镇1变压器2,纸方头公用农业4台区【纯农排变】,张同乐,皮庄子公用农业3台区【纯农排变】,定州市南城区刘家庄村村民委员会 菁菁小镇2变压器,曹庄子公用农业3台区【纯农排变】,纸方头公用农业5台区【纯农排变】,曹庄子公用农业4台区【纯农排变】,变压器,纸方头公用农业6台区【纯农排变】,北陵头公用照明2台区,皮庄子公用农业2台区【纯农排变】,北陵头公用照明1台区占平,曹庄子公用照明一台区(010):,定州市辉煌车床加工厂变压器,张伟,曹庄子公用照明5台区,刘庄村委会变压器,纸方头公用农业3台区【纯农排变】,纸方头公用照明2台区,北陵头公用农业4台区大锤【纯农排变】,曹庄子公用照明4台区,兰家佐公用农业二台区【纯农排变】,定州市北陵头王老三面粉厂,博源中学,北陵头公用农业1台区大锤区【纯农排变】,0628849308-定州市南城区刘家庄村村民委员会 菁菁小镇-专变-141337660-定州市南城区刘家庄村村民委员会 菁菁小镇1变压器1,曹庄子公用农业1台区【纯农排变】,北陵头公用照明3台区,刘家庄公用照明3台区1,兰家佐公用照明一台区(001),兰家佐公用照明2台区,纸坊头公用照明7台区,韩家洼公用农业7台区【纯农排变】,定州市南城区南刘家庄村民委员会青青小镇照明1变压器,曹庄子公用照明6台区,张建民变压器,韩家洼公用农业2台区【纯农排变】,定州市南城区南刘家庄村民委员会青青小镇照明2变压器,纸方头公用照明3台区,刘家庄公用照明一台区(012),皮庄子公用农业1台区【纯农排变】,","scope":"【影响街道/乡镇】南城区【高危重要客户】无【影响客户】纸坊头、北陵头、刘家庄、皮庄子、兰家佐、曹庄子","startTime":"2019-07-04 21:40:03","stopDate":"2019-07-04 23:00:00","orgNo":"1340610","typeCode":"电网故障停限电","poweroffArea":"【全线路停电】停定州市永红汽车配件厂,北陵头公用照明4台区,皮庄子公用照明2台区,纸房头公用照明6台区,曹庄子公用农业2台区【纯农排变】,北陵头公用照明6台区,兰家佐公用农业一台区【纯农排变】,纸方头公用照明9台区,曹庄子公用照明3台区,北陵头公用农业5台区大锤【纯农排变】,北陵头公用农业3台区占平【纯农排变】,纸方头公用照明1台区,刘家庄公用照明2台区1,纸房头公用农业1台区【纯农排变】,纸方头公用照明9台区1,北陵头公用照明5台区,皮庄子公用照明一台区,定州市南城区南刘家庄村民委员会青青小镇供暖变压器,刘家庄公用照明4台区1,纸坊头公用照明8台区,刘家庄公用照明5台区1,纸方头公用照明5台区,兰家佐公用农业3台区【纯农排变】,纸方头公用照明4台区,曹庄子公用照明二台区(010):,0628849308-定州市南城区刘家庄村村民委员会 菁菁小镇-专变-141337664-定州市南城区刘家庄村村民委员会 菁菁小镇1变压器2,纸方头公用农业4台区【纯农排变】,张同乐,皮庄子公用农业3台区【纯农排变】,定州市南城区刘家庄村村民委员会 菁菁小镇2变压器,曹庄子公用农业3台区【纯农排变】,纸方头公用农业5台区【纯农排变】,曹庄子公用农业4台区【纯农排变】,变压器,纸方头公用农业6台区【纯农排变】,北陵头公用照明2台区,曹庄子公用照明一台区(010):,兰家佐公用照明2台区,纸坊头公用照明7台区,韩家洼公用农业7台区【纯农排变】,纸方头公用照明3台区,刘家庄公用照明一台区(012),皮庄子公用农业1台区【纯农排变】,皮庄子公用农业2台区【纯农排变】,北陵头公用照明1台区占平,定州市辉煌车床加工厂变压器,定州市南城区南刘家庄村民委员会青青小镇照明1变压器,曹庄子公用照明6台区,张建民变压器,韩家洼公用农业2台区【纯农排变】,定州市南城区南刘家庄村民委员会青青小镇照明2变压器,张伟,曹庄子公用照明5台区,刘庄村委会变压器,纸方头公用农业3台区【纯农排变】,纸方头公用照明2台区,北陵头公用农业4台区大锤【纯农排变】,曹庄子公用照明4台区,兰家佐公用农业二台区【纯农排变】,定州市北陵头王老三面粉厂,博源中学,北陵头公用农业1台区大锤区【纯农排变】,0628849308-定州市南城区刘家庄村村民委员会 菁菁小镇-专变-141337660-定州市南城区刘家庄村村民委员会 菁菁小镇1变压器1,曹庄子公用农业1台区【纯农排变】,北陵头公用照明3台区,刘家庄公用照明3台区1,兰家佐公用照明一台区(001)","poweroffReason":"【停电原因】由于雷击线路导致１１０ＫＶ明月店变电站１０ＫＶ５７１八兄线路全线停电 【变更送电】因抢修进度加快原因，送电时间由５日０８：００变更为４日２３：００ 【发布渠道】９５５９８","powerTime":"2019-07-04 22:37:08","powerComm":"已送电","subsNo":"","lineNo":"","tgNo":"","tgName":null,"infoStatus":"1","orgName":"国网定州市供电公司","typeName":null,"infoStatusName":null,"dateDay":null,"orgNos":null,"nowTime":null,"countyName":null,"streetName":null,"villageName":null,"roadName":null,"communityName":null,"tranName":null,"sdLineName":null,"cityCode":"1340610","cityName":"国网定州市供电公司","provinceCode":null,"stopTime":"2019-07-04 23:00:00","powerType":"全部","powerOffArea":"【全线路停电】停定州市永红汽车配件厂,北陵头公用照明4台区,皮庄子公用照明2台区,纸房头公用照明6台区,曹庄子公用农业2台区【纯农排变】,北陵头公用照明6台区,兰家佐公用农业一台区【纯农排变】,纸方头公用照明9台区,曹庄子公用照明3台区,北陵头公用农业5台区大锤【纯农排变】,北陵头公用农业3台区占平【纯农排变】,纸方头公用照明1台区,刘家庄公用照明2台区1,纸房头公用农业1台区【纯农排变】,纸方头公用照明9台区1,北陵头公用照明5台区,皮庄子公用照明一台区,定州市南城区南刘家庄村民委员会青青小镇供暖变压器,刘家庄公用照明4台区1,纸坊头公用照明8台区,刘家庄公用照明5台区1,纸方头公用照明5台区,兰家佐公用农业3台区【纯农排变】,纸方头公用照明4台区,曹庄子公用照明二台区(010):,0628849308-定州市南城区刘家庄村村民委员会 菁菁小镇-专变-141337664-定州市南城区刘家庄村村民委员会 菁菁小镇1变压器2,纸方头公用农业4台区【纯农排变】,张同乐,皮庄子公用农业3台区【纯农排变】,定州市南城区刘家庄村村民委员会 菁菁小镇2变压器,曹庄子公用农业3台区【纯农排变】,纸方头公用农业5台区【纯农排变】,曹庄子公用农业4台区【纯农排变】,变压器,纸方头公用农业6台区【纯农排变】,北陵头公用照明2台区,曹庄子公用照明一台区(010):,兰家佐公用照明2台区,纸坊头公用照明7台区,韩家洼公用农业7台区【纯农排变】,纸方头公用照明3台区,刘家庄公用照明一台区(012),皮庄子公用农业1台区【纯农排变】,皮庄子公用农业2台区【纯农排变】,北陵头公用照明1台区占平,定州市辉煌车床加工厂变压器,定州市南城区南刘家庄村民委员会青青小镇照明1变压器,曹庄子公用照明6台区,张建民变压器,韩家洼公用农业2台区【纯农排变】,定州市南城区南刘家庄村民委员会青青小镇照明2变压器,张伟,曹庄子公用照明5台区,刘庄村委会变压器,纸方头公用农业3台区【纯农排变】,纸方头公用照明2台区,北陵头公用农业4台区大锤【纯农排变】,曹庄子公用照明4台区,兰家佐公用农业二台区【纯农排变】,定州市北陵头王老三面粉厂,博源中学,北陵头公用农业1台区大锤区【纯农排变】,0628849308-定州市南城区刘家庄村村民委员会 菁菁小镇-专变-141337660-定州市南城区刘家庄村村民委员会 菁菁小镇1变压器1,曹庄子公用农业1台区【纯农排变】,北陵头公用照明3台区,刘家庄公用照明3台区1,兰家佐公用照明一台区(001)","powerOffReason":"【停电原因】由于雷击线路导致１１０ＫＶ明月店变电站１０ＫＶ５７１八兄线路全线停电 【变更送电】因抢修进度加快原因，送电时间由５日０８：００变更为４日２３：００ 【发布渠道】９５５９８","powerOffId":"2019070413000644"},{"poweroffId":2019070413000642,"sgpoweroffId":null,"subsName":"","lineName":"10kV519王化线","pubTranName":"李王化东区变压器,西赵厂中2区变压器,0000004431刘家村变压器,路庄子中学变压器,崔家庄中学1变压器,东庄统管变压器,0000004430高庄村变压器,曲阳县恒阳中学家属区,曲阳县建工新型建筑材料有限公司,钟王化小学变压器,曲阳县西赵厂奶牛养殖基地,荀王华东区变压器,王庄尔幼儿园变压器,荀金凤面粉厂,李王化幼儿园变压器,高庄陈秀民面粉厂,西赵厂法宝冷库,曲阳县新亚钙粉有限公司变压器,0012376279李王化中区变压器,曲阳县镱德矿产品销售有限公司变压器,曲阳县建顺木材加工销售部变压器,0000004427李王化变压器,曲阳县庆达石材经销处变压器,0012433957高庄中区变压器,雷程庄北1区变压器,光华石粉厂,路庄子水电站,荀明军云母加工厂2#,华丰重钙有限公司,西赵厂侯士儒冷库,0000006560刘家村中变压器,育杰初级中学,曲阳县盛信石材厂变压器,曲阳县河洼农产品有限公司变压器,高庄南区变压器,曲阳县晓林乡崔家庄中学变压器,0012435732路庄子西南区变压器,曲阳县永强奶牛养殖农民专业合作社变压器,0000005688路庄子乡变变压器,0000004444王家庄大队变压器,曲阳县利兴源石材厂变压器,李王化水井变压器,0000004433钟家村变压器,王家庄西区变压器,路庄子小学变压器,0000004435齐王化变压器,羊联小学变压器,荀王化中区变压器,路庄子南1区变压器,0000006735荀王华东农变压器,0012435734孟王化南区变压器,雷程庄南区变压器,荀王化农灌变压器【纯农排变】,曲阳县富都建材有限公司变压器,河北德旭建材科技有限公司变压器,曲阳恒阳中学变压器,高庄小学变压器,曲阳县鑫兴纸制品销售部变压器,鸿翔砂场1,0000006443西赵厂东农2#变压器【纯农排变】,钟家村西农变压器【纯农排变】,刘家村东区变压器,0000005673杨家庄西变压器,0012433955雷程庄北区变压器,路庄子法庭变压器,0000006482杨庄子北区变压器,杨家庄村变压器,钟家村中区变压器,曲阳县鸿运滑石粉厂,0012414043钟家村东变压器,0012742604西赵厂村台区变压器,路庄子西北区变压器,李开渠养殖基地,钟家村南区变压器,奇利雕刻工具厂,孟王化农1变压器【纯农排变】,旬王化变压器,恒阳砖厂,0000006728孟王华东区变压器,0012435736高庄东区变压器,0000007115王家庄东台区变压器,0000006483杨庄子东2区变压器,西赵厂东2区变压器,0000005437路庄子北区变压器,0012362784西赵厂中区变压器,0000004436孟王化变压器,花岗岩大理石板厂,曲阳县宏运砂石经销处,曲阳县鑫兴纸箱厂,曲阳县顺发冷库,杨庄子小学变压器,曲阳县隆昌恒温库,曲阳县西赵厂果品冷库,曲阳县天天果蔬冷库变压器,0012435733孟王化东南区变压器,雷程庄光伏变压器【光伏】,0012362786荀王化北农变压器,河北冀蓝环保科技有限公司变压器,崔家庄中学2变压器,钟家村幼儿园变压器,0000006442西赵厂北农1#变压器【纯农排变】,0000006139西赵厂南区变","scope":"【影响街道/乡镇】晓林乡【高危重要客户】无【影响客户】王家庄（王庄尔）、路庄子、杨庄子（杨家庄）、李王化、孟王化、齐王化、刘家村、钟家村、荀王化、雷程庄、西赵厂（西庄）、高庄","startTime":"2019-07-04 21:38:00","stopDate":"2019-07-05 12:00:00","orgNo":"1340619","typeCode":"电网故障停限电","poweroffArea":"【全线路停电】停西赵厂小学变压器,0012414042刘家村西变压器,曲阳县西赵厂金宏建筑材料销售部变压器,曲阳县万畅矿产品有限公司变压器,曲阳县福旺养殖场变压器,孟王化小学变压器,曲阳县万畅矿产品有限公司变压器2,曲阳县恒茂源水泥砖厂变压器,曲阳县华丽鸭梨技术服务专业合作社变压器,0012376279李王化中区变压器,曲阳县镱德矿产品销售有限公司变压器,曲阳县建顺木材加工销售部变压器,0000004427李王化变压器,曲阳县庆达石材经销处变压器,0012433957高庄中区变压器,雷程庄北1区变压器,光华石粉厂,路庄子水电站,荀明军云母加工厂2#,华丰重钙有限公司,西赵厂侯士儒冷库,0000006560刘家村中变压器,育杰初级中学,曲阳县盛信石材厂变压器,曲阳县河洼农产品有限公司变压器,高庄南区变压器,曲阳县晓林乡崔家庄中学变压器,0012435732路庄子西南区变压器,曲阳县永强奶牛养殖农民专业合作社变压器,0000005688路庄子乡变变压器,0000004444王家庄大队变压器,曲阳县利兴源石材厂变压器,李王化水井变压器,0000004433钟家村变压器,王家庄西区变压器,路庄子小学变压器,0000004435齐王化变压器,羊联小学变压器,荀王化中区变压器,路庄子南1区变压器,0000006735荀王华东农变压器,0012435734孟王化南区变压器,雷程庄南区变压器,荀王化农灌变压器【纯农排变】,曲阳县富都建材有限公司变压器,河北德旭建材科技有限公司变压器,曲阳恒阳中学变压器,高庄小学变压器,曲阳县鑫兴纸制品销售部变压器,鸿翔砂场1,0000006443西赵厂东农2#变压器【纯农排变】,钟家村西农变压器【纯农排变】,刘家村东区变压器,0000005673杨家庄西变压器,0012433955雷程庄北区变压器,路庄子法庭变压器,0000006482杨庄子北区变压器,杨家庄村变压器,钟家村中区变压器,曲阳县鸿运滑石粉厂,0012414043钟家村东变压器,0012742604西赵厂村台区变压器,路庄子西北区变压器,李开渠养殖基地,钟家村南区变压器,奇利雕刻工具厂,孟王化农1变压器【纯农排变】,旬王化变压器,恒阳砖厂,0000006728孟王华东区变压器,0012435736高庄东区变压器,0000007115王家庄东台区变压器,0000006483杨庄子东2区变压器,西赵厂东2区变压器,0000005437路庄子北区变压器,0012362784西赵厂中区变压器,0000004436孟王化变压器,花岗岩大理石板厂,曲阳县宏运砂石经销处,曲阳县鑫兴纸箱厂,曲阳县顺发冷库,杨庄子小学变压器,曲阳县隆昌恒温库,曲阳县西赵厂果品冷库,曲阳县天天果蔬冷库变压器,0012435733孟王化东南区变压器,雷程庄光伏变压器【光伏】,0012362786荀王化北农变压器,河北冀蓝环保科技有限公司变压器,崔家庄中学2变压器,钟家村幼儿园变压器,0000006442西赵厂北农1#变压器【纯农排变】,0000006139西赵厂南区变压器,路庄子幼儿园变压器,0000006269路庄子西区变压器,钟家村北区变压器,0000004443路庄子南区变压器,曲阳县正阳服装有限公司,孟王化农2变压器【纯农排变】,0012362292荀王化统管变压器【纯农排变】,0014307952齐王化东区变压器,荀明军云母加工厂,0000006734西赵厂农7＃变压器,李王化幼儿园变压器,高庄陈秀民面粉厂,西赵厂法宝冷库,曲阳县新亚钙粉有限公司变压器,曲阳正俊能源贸易有限责任公司变压器,0000006685西赵厂西农3#变压器,雷程庄统管变压器,0000006736西赵厂农9＃农灌变压器【纯农排变】,0000004428西赵厂东变压器,0000006727西赵厂北区变压器,曲阳县亮坎木材加工厂变压器,0000004432雷程庄变压器,曲阳县庄西种植园变压器,崔家庄卫生院变压器,西赵厂统管1变压器,李王化小学变压器,0000004429西赵厂西变压器,中石油保定第30加油站","poweroffReason":"【停电原因】由于线路Ａ相接导致１１０ＫＶ羊村变电站１０ＫＶ５１９王化线路全线停电【变更送电】无【发布渠道】通过９５５９８发布","powerTime":"2019-07-04 22:28:35","powerComm":"已送电","subsNo":"","lineNo":"","tgNo":"","tgName":null,"infoStatus":"1","orgName":"国网曲阳县供电公司","typeName":null,"infoStatusName":null,"dateDay":null,"orgNos":null,"nowTime":null,"countyName":null,"streetName":null,"villageName":null,"roadName":null,"communityName":null,"tranName":null,"sdLineName":null,"cityCode":"1340619","cityName":"国网曲阳县供电公司","provinceCode":null,"stopTime":"2019-07-05 12:00:00","powerType":"全部","powerOffArea":"【全线路停电】停西赵厂小学变压器,0012414042刘家村西变压器,曲阳县西赵厂金宏建筑材料销售部变压器,曲阳县万畅矿产品有限公司变压器,曲阳县福旺养殖场变压器,孟王化小学变压器,曲阳县万畅矿产品有限公司变压器2,曲阳县恒茂源水泥砖厂变压器,曲阳县华丽鸭梨技术服务专业合作社变压器,0012376279李王化中区变压器,曲阳县镱德矿产品销售有限公司变压器,曲阳县建顺木材加工销售部变压器,0000004427李王化变压器,曲阳县庆达石材经销处变压器,0012433957高庄中区变压器,雷程庄北1区变压器,光华石粉厂,路庄子水电站,荀明军云母加工厂2#,华丰重钙有限公司,西赵厂侯士儒冷库,0000006560刘家村中变压器,育杰初级中学,曲阳县盛信石材厂变压器,曲阳县河洼农产品有限公司变压器,高庄南区变压器,曲阳县晓林乡崔家庄中学变压器,0012435732路庄子西南区变压器,曲阳县永强奶牛养殖农民专业合作社变压器,0000005688路庄子乡变变压器,0000004444王家庄大队变压器,曲阳县利兴源石材厂变压器,李王化水井变压器,0000004433钟家村变压器,王家庄西区变压器,路庄子小学变压器,0000004435齐王化变压器,羊联小学变压器,荀王化中区变压器,路庄子南1区变压器,0000006735荀王华东农变压器,0012435734孟王化南区变压器,雷程庄南区变压器,荀王化农灌变压器【纯农排变】,曲阳县富都建材有限公司变压器,河北德旭建材科技有限公司变压器,曲阳恒阳中学变压器,高庄小学变压器,曲阳县鑫兴纸制品销售部变压器,鸿翔砂场1,0000006443西赵厂东农2#变压器【纯农排变】,钟家村西农变压器【纯农排变】,刘家村东区变压器,0000005673杨家庄西变压器,0012433955雷程庄北区变压器,路庄子法庭变压器,0000006482杨庄子北区变压器,杨家庄村变压器,钟家村中区变压器,曲阳县鸿运滑石粉厂,0012414043钟家村东变压器,0012742604西赵厂村台区变压器,路庄子西北区变压器,李开渠养殖基地,钟家村南区变压器,奇利雕刻工具厂,孟王化农1变压器【纯农排变】,旬王化变压器,恒阳砖厂,0000006728孟王华东区变压器,0012435736高庄东区变压器,0000007115王家庄东台区变压器,0000006483杨庄子东2区变压器,西赵厂东2区变压器,0000005437路庄子北区变压器,0012362784西赵厂中区变压器,0000004436孟王化变压器,花岗岩大理石板厂,曲阳县宏运砂石经销处,曲阳县鑫兴纸箱厂,曲阳县顺发冷库,杨庄子小学变压器,曲阳县隆昌恒温库,曲阳县西赵厂果品冷库,曲阳县天天果蔬冷库变压器,0012435733孟王化东南区变压器,雷程庄光伏变压器【光伏】,0012362786荀王化北农变压器,河北冀蓝环保科技有限公司变压器,崔家庄中学2变压器,钟家村幼儿园变压器,0000006442西赵厂北农1#变压器【纯农排变】,0000006139西赵厂南区变压器,路庄子幼儿园变压器,0000006269路庄子西区变压器,钟家村北区变压器,0000004443路庄子南区变压器,曲阳县正阳服装有限公司,孟王化农2变压器【纯农排变】,0012362292荀王化统管变压器【纯农排变】,0014307952齐王化东区变压器,荀明军云母加工厂,0000006734西赵厂农7＃变压器,李王化幼儿园变压器,高庄陈秀民面粉厂,西赵厂法宝冷库,曲阳县新亚钙粉有限公司变压器,曲阳正俊能源贸易有限责任公司变压器,0000006685西赵厂西农3#变压器,雷程庄统管变压器,0000006736西赵厂农9＃农灌变压器【纯农排变】,0000004428西赵厂东变压器,0000006727西赵厂北区变压器,曲阳县亮坎木材加工厂变压器,0000004432雷程庄变压器,曲阳县庄西种植园变压器,崔家庄卫生院变压器,西赵厂统管1变压器,李王化小学变压器,0000004429西赵厂西变压器,中石油保定第30加油站","powerOffReason":"【停电原因】由于线路Ａ相接导致１１０ＫＶ羊村变电站１０ＫＶ５１９王化线路全线停电【变更送电】无【发布渠道】通过９５５９８发布","powerOffId":"2019070413000642"},{"poweroffId":2019070413000633,"sgpoweroffId":null,"subsName":"","lineName":"10kV520复兴街线","pubTranName":"曲阳县市政工程有限公司,曲阳县凯瑞家居装饰品有限公司变压器2,复兴苑2号配电变压器,0000004468建行家属院变压器,曲阳县通胜检测修配有限公司,化肥厂路灯,复兴苑1号配电变压器,复兴街南统管出线间隔配电变压器,曲阳县凯瑞家居装饰品有限公司变压器1,田园新村西区配电变压器,田园新村北区配电变压器,","scope":"【影响街道/乡镇】恒州镇、复兴街【高危重要客户】无【影响客户】复兴苑小区、田原新村小区、建行家属院小区","startTime":"2019-07-04 21:34:00","stopDate":"2019-07-05 00:20:00","orgNo":"1340619","typeCode":"电网故障停限电","poweroffArea":"【全线路停电】停曲阳县市政工程有限公司,曲阳县凯瑞家居装饰品有限公司变压器2,复兴苑2号配电变压器,0000004468建行家属院变压器,曲阳县通胜检测修配有限公司,化肥厂路灯,复兴苑1号配电变压器,复兴街南统管出线间隔配电变压器,曲阳县凯瑞家居装饰品有限公司变压器1,田园新村西区配电变压器,田园新村北区配电变压器","poweroffReason":"【停电原因】由于线路Ａ相接地导致１１０ＫＶ曲阳变电站１０ＫＶ５２０复兴街线路全线停电【变更送电】因抢修进度加快原因，送电时间由１１：００变更为００：２０【发布渠道】通过９５５９８发布","powerTime":"2019-07-05 00:02:51","powerComm":"已送电","subsNo":"","lineNo":"","tgNo":"","tgName":null,"infoStatus":"1","orgName":"国网曲阳县供电公司","typeName":null,"infoStatusName":null,"dateDay":null,"orgNos":null,"nowTime":null,"countyName":null,"streetName":null,"villageName":null,"roadName":null,"communityName":null,"tranName":null,"sdLineName":null,"cityCode":"1340619","cityName":"国网曲阳县供电公司","provinceCode":null,"stopTime":"2019-07-05 00:20:00","powerType":"全部","powerOffArea":"【全线路停电】停曲阳县市政工程有限公司,曲阳县凯瑞家居装饰品有限公司变压器2,复兴苑2号配电变压器,0000004468建行家属院变压器,曲阳县通胜检测修配有限公司,化肥厂路灯,复兴苑1号配电变压器,复兴街南统管出线间隔配电变压器,曲阳县凯瑞家居装饰品有限公司变压器1,田园新村西区配电变压器,田园新村北区配电变压器","powerOffReason":"【停电原因】由于线路Ａ相接地导致１１０ＫＶ曲阳变电站１０ＫＶ５２０复兴街线路全线停电【变更送电】因抢修进度加快原因，送电时间由１１：００变更为００：２０【发布渠道】通过９５５９８发布","powerOffId":"2019070413000633"},{"poweroffId":2019070413000629,"sgpoweroffId":null,"subsName":"","lineName":"10kV515东旺线","pubTranName":"中管头农1变压器【纯农排变】,北管头农6变压器,0000004953北管头变压器,0000005600北管头统管北农4号变压器,0012630044北管头西区变压器,0000006327北管头东区变压器,北管头统管西农2号变压器,北管头中2区变压器,北管头农8变压器【纯农排变】,0000005939北管头统管西农变压器,0000006408北管头统管东农5#变压器【纯农排变】,0000005601北管头统管北农3号变压器,0014331042北管头中区变压器,0000005873北管头统管东农1号变压器,北管头小学变压器,","scope":"【影响街道/乡镇】燕赵镇【高危重要客户】无【影响客户】中管头、北管头","startTime":"2019-07-04 21:32:00","stopDate":"2019-07-05 01:50:00","orgNo":"1340619","typeCode":"电网故障停限电","poweroffArea":"【全线路停电】停0000005939北管头统管西农变压器,中管头农1变压器【纯农排变】,北管头农6变压器,0000004953北管头变压器,0000005600北管头统管北农4号变压器,0012630044北管头西区变压器,0000006327北管头东区变压器,北管头统管西农2号变压器,北管头中2区变压器,北管头农8变压器【纯农排变】,北管头小学变压器,0000006408北管头统管东农5#变压器【纯农排变】,0000005601北管头统管北农3号变压器,0014331042北管头中区变压器,0000005873北管头统管东农1号变压器","poweroffReason":"【停电原因】由于线路Ｂ相接地导致３５ＫＶ管头变电站１０ＫＶ５１５东旺线路全线停电【变更送电】因抢修进度加快原因，送电时间由１２：００变更为０１：５０【发布渠道】通过９５５９８发布","powerTime":"2019-07-05 01:36:03","powerComm":"已送电","subsNo":"","lineNo":"","tgNo":"","tgName":null,"infoStatus":"1","orgName":"国网曲阳县供电公司","typeName":null,"infoStatusName":null,"dateDay":null,"orgNos":null,"nowTime":null,"countyName":null,"streetName":null,"villageName":null,"roadName":null,"communityName":null,"tranName":null,"sdLineName":null,"cityCode":"1340619","cityName":"国网曲阳县供电公司","provinceCode":null,"stopTime":"2019-07-05 01:50:00","powerType":"全部","powerOffArea":"【全线路停电】停0000005939北管头统管西农变压器,中管头农1变压器【纯农排变】,北管头农6变压器,0000004953北管头变压器,0000005600北管头统管北农4号变压器,0012630044北管头西区变压器,0000006327北管头东区变压器,北管头统管西农2号变压器,北管头中2区变压器,北管头农8变压器【纯农排变】,北管头小学变压器,0000006408北管头统管东农5#变压器【纯农排变】,0000005601北管头统管北农3号变压器,0014331042北管头中区变压器,0000005873北管头统管东农1号变压器","powerOffReason":"【停电原因】由于线路Ｂ相接地导致３５ＫＶ管头变电站１０ＫＶ５１５东旺线路全线停电【变更送电】因抢修进度加快原因，送电时间由１２：００变更为０１：５０【发布渠道】通过９５５９８发布","powerOffId":"2019070413000629"},{"poweroffId":2019070413000619,"sgpoweroffId":null,"subsName":"","lineName":"安乐585线","pubTranName":"北安乐1491变压器,东安乐0388变压器,西安乐6012变压器,安乐综合加工厂2651,东安乐0345变压器,西安乐0356变压器,东安乐0346变压器,拔茄0368变压器,拔茄村西6008台区变压器,拔茄4919变压器,唐县王京镇东安乐村水利灌溉6056新装,拔茄0370变压器,东安乐0342变压器,西安乐0347变压器,拔茄3352变压器,东安乐0385变压器,东安乐2091变压器,西安乐0306变压器,北安乐0376变压器,东安乐南水4678,北安乐0389变压器,拔茄0369变压器,西安乐0381变压器,西安乐0377变压器,东安乐3020变压器,唐县安乐铸造有限公司250kva,拔茄抄表队变压器,东安乐0372变压器,东安乐0373变压器,西安乐0330变压器,唐县安乐铸造有限公司计量点,西安乐0355变压器,东安乐5064变压器,拔茄水2370变压器,西安乐0195变压器,西安乐2854变压器,东安乐0204变压器,东安乐3132变压器,西安乐0357变压器,西安乐0198变压器,拔茄水4507变压器,东安乐3408变压器,拔茄0378变压器,西安乐0200变压器,拔茄1705变压器,拔茄村0334变压器,西安乐0379变压器,拔茄村5157变压器,拔茄4524变压器,西安乐0351变压器,北安乐0337变压器,拔茄0374变压器,西安乐0366变压器,西安乐4194变压器,北安乐3382变压器,东安乐0343变压器,东安乐0387变压器,西安乐0358变压器,西安乐0352变压器,北安乐5258变压器,第二织布厂0202,拔茄村0336变压器,西安乐铸造厂1035,","scope":"【影响街道/乡镇】王京镇【高危重要客户】无【影响客户】西安乐、北安乐、拔茄、东安乐、唐县紫恒建材制造有限公司、唐县安乐铸造有限公司、河北省唐县第二纺织机械厂、唐县安乐铸造有限公司","startTime":"2019-07-04 21:26:22","stopDate":"2019-07-05 01:00:00","orgNo":"1340622","typeCode":"电网故障停限电","poweroffArea":"【全线路停电】停拔茄4524变压器,东安乐0343变压器,西安乐6012变压器,拔茄抄表队变压器,北安乐0337变压器,拔茄村5157变压器,西安乐0381变压器,北安乐1491变压器,西安乐0352变压器,东安乐0346变压器,拔茄村0336变压器,西安乐0351变压器,东安乐0342变压器,安乐综合加工厂2651,西安乐4194变压器,东安乐2091变压器,西安乐铸造厂1035,东安乐0373变压器,北安乐0376变压器,拔茄3352变压器,东安乐5064变压器,唐县安乐铸造有限公司250kva,西安乐0379变压器,东安乐3132变压器,拔茄水4507变压器,东安乐南水4678,唐县安乐铸造有限公司计量点,东安乐0345变压器,西安乐0200变压器,东安乐0372变压器,拔茄水2370变压器,拔茄村西6008台区变压器,东安乐3408变压器,唐县王京镇东安乐村水利灌溉6056新装,拔茄0370变压器,西安乐0356变压器,第二织布厂0202,东安乐3020变压器,拔茄村0334变压器,西安乐0358变压器,西安乐0355变压器,西安乐0377变压器,西安乐0195变压器,拔茄0374变压器,西安乐0198变压器,东安乐0387变压器,西安乐0306变压器,西安乐0366变压器,西安乐0347变压器,拔茄0378变压器,西安乐2854变压器,东安乐0204变压器,东安乐0388变压器,北安乐5258变压器,西安乐0330变压器,东安乐0385变压器,拔茄1705变压器,拔茄4919变压器,北安乐0389变压器,北安乐3382变压器,拔茄0368变压器,拔茄0369变压器,西安乐0357变压器","poweroffReason":"【停电原因】由于线路接地导致１１０ＫＶ拔茄变电站安乐５８５线路全线停电【变更送电】因抢修进度加快原因，送电时间由０８：００变更为０１：００ 【发布渠道】通过９５５９８发布","powerTime":"2019-07-05 00:16:06","powerComm":"已送电","subsNo":"","lineNo":"","tgNo":"","tgName":null,"infoStatus":"1","orgName":"国网唐县供电公司","typeName":null,"infoStatusName":null,"dateDay":null,"orgNos":null,"nowTime":null,"countyName":null,"streetName":null,"villageName":null,"roadName":null,"communityName":null,"tranName":null,"sdLineName":null,"cityCode":"1340622","cityName":"国网唐县供电公司","provinceCode":null,"stopTime":"2019-07-05 01:00:00","powerType":"全部","powerOffArea":"【全线路停电】停拔茄4524变压器,东安乐0343变压器,西安乐6012变压器,拔茄抄表队变压器,北安乐0337变压器,拔茄村5157变压器,西安乐0381变压器,北安乐1491变压器,西安乐0352变压器,东安乐0346变压器,拔茄村0336变压器,西安乐0351变压器,东安乐0342变压器,安乐综合加工厂2651,西安乐4194变压器,东安乐2091变压器,西安乐铸造厂1035,东安乐0373变压器,北安乐0376变压器,拔茄3352变压器,东安乐5064变压器,唐县安乐铸造有限公司250kva,西安乐0379变压器,东安乐3132变压器,拔茄水4507变压器,东安乐南水4678,唐县安乐铸造有限公司计量点,东安乐0345变压器,西安乐0200变压器,东安乐0372变压器,拔茄水2370变压器,拔茄村西6008台区变压器,东安乐3408变压器,唐县王京镇东安乐村水利灌溉6056新装,拔茄0370变压器,西安乐0356变压器,第二织布厂0202,东安乐3020变压器,拔茄村0334变压器,西安乐0358变压器,西安乐0355变压器,西安乐0377变压器,西安乐0195变压器,拔茄0374变压器,西安乐0198变压器,东安乐0387变压器,西安乐0306变压器,西安乐0366变压器,西安乐0347变压器,拔茄0378变压器,西安乐2854变压器,东安乐0204变压器,东安乐0388变压器,北安乐5258变压器,西安乐0330变压器,东安乐0385变压器,拔茄1705变压器,拔茄4919变压器,北安乐0389变压器,北安乐3382变压器,拔茄0368变压器,拔茄0369变压器,西安乐0357变压器","powerOffReason":"【停电原因】由于线路接地导致１１０ＫＶ拔茄变电站安乐５８５线路全线停电【变更送电】因抢修进度加快原因，送电时间由０８：００变更为０１：００ 【发布渠道】通过９５５９８发布","powerOffId":"2019070413000619"}],"pageModel":{"pageNow":863,"totalCount":10973,"totalPage":1098,"tableRows":0,"pageCount":10,"beginCount":8620},"isExperi":"1"}