{"message":"","today":"2020-06-15","seleList":[{"poweroffId":2019070313000576,"sgpoweroffId":null,"subsName":"","lineName":"城北520电力电缆","pubTranName":"徐水县兴华铸造有限公司,徐水综合高中1号,徐水县兴华铸造有限公司1号,迁民庄14号,迁民庄5号,迁民庄2号【纯农排变】,迁民庄7号,徐水县康铭养殖有限公司变压器,保定东峰铸造有限公司3号,徐水县安肃镇迁民庄小学变压器,徐水县永安玛钢厂1号,迁民庄6号【纯农排变】,徐水县永安玛钢厂2号,变压器,徐水县丽华塑料包装厂2号,徐水综合高中2号,徐水县兴华铸造有限公司2号,徐水县万达铸造有限公司,0673545802-保定徐方液压机械设备有限公司-专变-214325634-保定徐方液压机械设备有限公司,0672385766-徐水县永佳超市-专变-213320572-徐水县永佳超市,迁民庄10号【纯农排变】,徐水县建工远大新型建材,徐水县兴华铸造有限公司4号,保定东峰铸造有限公司4号,徐水县综合高中3号,保定东峰铸造有限公司,迁民庄4号,保定东峰铸造有限公司5号,迁民庄1号,徐水县再实铸造有限责任公司变压器,迁民庄11号,迁民庄9号,保定市徐水区瑞面激光切割部,迁民庄3号,徐水县丽华塑料包装厂,保定东峰铸造有限公司1号,徐水县长城铸造厂,徐水县长城机床铸造有限公司,徐水县宏利机械制造有限公司,保定市宏宾机械厂,迁民庄8号,徐水县中医院,河北万瑞医疗器械有限公司,迁民庄13号,徐水县再实铸造有限公司,徐水县中医医院,","scope":"【影响街道/乡镇】安肃镇 【高危重要客户】无 【影响客户】迁民庄、综合高中","startTime":"2019-07-03 17:14:34","stopDate":"2019-07-03 18:30:00","orgNo":"1340605","typeCode":"电网故障停限电","poweroffArea":"【全线路停电】停徐水县再实铸造有限公司,徐水县建工远大新型建材,徐水县丽华塑料包装厂,徐水综合高中2号,河北万瑞医疗器械有限公司,徐水县兴华铸造有限公司4号,保定东峰铸造有限公司4号,徐水县综合高中3号,徐水县长城铸造厂,保定东峰铸造有限公司,徐水县永安玛钢厂1号,徐水县兴华铸造有限公司2号,迁民庄13号,徐水县长城机床铸造有限公司,迁民庄3号,保定市徐水区瑞面激光切割部,徐水县中医医院,徐水县兴华铸造有限公司,保定东峰铸造有限公司1号,徐水综合高中1号,迁民庄6号【纯农排变】,徐水县兴华铸造有限公司1号,徐水县万达铸造有限公司,迁民庄4号,迁民庄14号,徐水县永安玛钢厂2号,0673545802-保定徐方液压机械设备有限公司-专变-214325634-保定徐方液压机械设备有限公司,迁民庄5号,徐水县康铭养殖有限公司变压器,0672385766-徐水县永佳超市-专变-213320572-徐水县永佳超市,迁民庄2号【纯农排变】,保定东峰铸造有限公司5号,变压器,迁民庄8号,徐水县再实铸造有限责任公司变压器,迁民庄1号,保定东峰铸造有限公司3号,徐水县丽华塑料包装厂2号,迁民庄11号,迁民庄7号,徐水县中医院,徐水县安肃镇迁民庄小学变压器,迁民庄10号【纯农排变】,保定市宏宾机械厂,迁民庄9号,徐水县宏利机械制造有限公司","poweroffReason":"【停电原因】由于Ｂ相接地导致１１０ＫＶ下河西变电站城北５２０线路全线路停电 【变更送电】因抢修进度加快原因，送电时间由２３:００变更为１８:３０ 【发布渠道】通过９５５９８发布","powerTime":"2019-07-03 17:59:34","powerComm":"已送电","subsNo":"","lineNo":"","tgNo":"","tgName":null,"infoStatus":"1","orgName":"国网徐水县供电公司","typeName":null,"infoStatusName":null,"dateDay":null,"orgNos":null,"nowTime":null,"countyName":null,"streetName":null,"villageName":null,"roadName":null,"communityName":null,"tranName":null,"sdLineName":null,"cityCode":"1340605","cityName":"国网徐水县供电公司","provinceCode":null,"stopTime":"2019-07-03 18:30:00","powerType":"全部","powerOffArea":"【全线路停电】停徐水县再实铸造有限公司,徐水县建工远大新型建材,徐水县丽华塑料包装厂,徐水综合高中2号,河北万瑞医疗器械有限公司,徐水县兴华铸造有限公司4号,保定东峰铸造有限公司4号,徐水县综合高中3号,徐水县长城铸造厂,保定东峰铸造有限公司,徐水县永安玛钢厂1号,徐水县兴华铸造有限公司2号,迁民庄13号,徐水县长城机床铸造有限公司,迁民庄3号,保定市徐水区瑞面激光切割部,徐水县中医医院,徐水县兴华铸造有限公司,保定东峰铸造有限公司1号,徐水综合高中1号,迁民庄6号【纯农排变】,徐水县兴华铸造有限公司1号,徐水县万达铸造有限公司,迁民庄4号,迁民庄14号,徐水县永安玛钢厂2号,0673545802-保定徐方液压机械设备有限公司-专变-214325634-保定徐方液压机械设备有限公司,迁民庄5号,徐水县康铭养殖有限公司变压器,0672385766-徐水县永佳超市-专变-213320572-徐水县永佳超市,迁民庄2号【纯农排变】,保定东峰铸造有限公司5号,变压器,迁民庄8号,徐水县再实铸造有限责任公司变压器,迁民庄1号,保定东峰铸造有限公司3号,徐水县丽华塑料包装厂2号,迁民庄11号,迁民庄7号,徐水县中医院,徐水县安肃镇迁民庄小学变压器,迁民庄10号【纯农排变】,保定市宏宾机械厂,迁民庄9号,徐水县宏利机械制造有限公司","powerOffReason":"【停电原因】由于Ｂ相接地导致１１０ＫＶ下河西变电站城北５２０线路全线路停电 【变更送电】因抢修进度加快原因，送电时间由２３:００变更为１８:３０ 【发布渠道】通过９５５９８发布","powerOffId":"2019070313000576"},{"poweroffId":2019070313000475,"sgpoweroffId":null,"subsName":"","lineName":"10KV森林公园560","pubTranName":"利华地产630KVA专变,涞水利华房地产开发有限公司630KVA专变,利华地产500KVA专变,","scope":"【影响街道/乡镇】涞水镇、东文山乡 【高危重要客户】无 【影响客户】恒大房地产","startTime":"2019-07-03 15:35:14","stopDate":"2019-07-03 16:30:00","orgNo":"1340614","typeCode":"电网故障停限电","poweroffArea":"【全线路停电】停利华地产500KVA专变,利华地产630KVA专变,涞水利华房地产开发有限公司630KVA专变","poweroffReason":"【停电原因】由于２２０ＫＶ涞阳站２号母线Ｃ相ＰＣ保险烧毁导致２２０ＫＶ涞阳站１０ＫＶ森林公园５６０线路全线停电 【变更送电】无 【发布渠道】通过９５５９８发布","powerTime":"2019-07-03 16:25:06","powerComm":"已送电","subsNo":"","lineNo":"","tgNo":"","tgName":null,"infoStatus":"1","orgName":"国网涞水县供电公司","typeName":null,"infoStatusName":null,"dateDay":null,"orgNos":null,"nowTime":null,"countyName":null,"streetName":null,"villageName":null,"roadName":null,"communityName":null,"tranName":null,"sdLineName":null,"cityCode":"1340614","cityName":"国网涞水县供电公司","provinceCode":null,"stopTime":"2019-07-03 16:30:00","powerType":"全部","powerOffArea":"【全线路停电】停利华地产500KVA专变,利华地产630KVA专变,涞水利华房地产开发有限公司630KVA专变","powerOffReason":"【停电原因】由于２２０ＫＶ涞阳站２号母线Ｃ相ＰＣ保险烧毁导致２２０ＫＶ涞阳站１０ＫＶ森林公园５６０线路全线停电 【变更送电】无 【发布渠道】通过９５５９８发布","powerOffId":"2019070313000475"},{"poweroffId":2019070313000474,"sgpoweroffId":null,"subsName":"","lineName":"10KV松马517","pubTranName":"墩台村西3950,","scope":"【影响街道/乡镇】松林店镇 【高危重要客户】无 【影响客户】墩台村","startTime":"2019-07-06 05:00:00","stopDate":"2019-07-06 17:00:00","orgNo":"1340626","typeCode":"临时停电","poweroffArea":"【单台区停电】停墩台村西3950","poweroffReason":"【停电原因】由于线路改造工程导致３５ＫＶ松林店变电站１０ＫＶ松马５１７线路墩台村西３９５０公变台区停电 【变更送电】无 【发布渠道】通过９５５９８发布","powerTime":"2019-07-06 16:42:38","powerComm":"恢复送电","subsNo":"","lineNo":"","tgNo":"","tgName":null,"infoStatus":"1","orgName":"国网涿州市供电公司","typeName":null,"infoStatusName":null,"dateDay":null,"orgNos":null,"nowTime":null,"countyName":null,"streetName":null,"villageName":null,"roadName":null,"communityName":null,"tranName":null,"sdLineName":null,"cityCode":"1340626","cityName":"国网涿州市供电公司","provinceCode":null,"stopTime":"2019-07-06 17:00:00","powerType":"全部","powerOffArea":"【单台区停电】停墩台村西3950","powerOffReason":"【停电原因】由于线路改造工程导致３５ＫＶ松林店变电站１０ＫＶ松马５１７线路墩台村西３９５０公变台区停电 【变更送电】无 【发布渠道】通过９５５９８发布","powerOffId":"2019070313000474"},{"poweroffId":2019070313000461,"sgpoweroffId":null,"subsName":"","lineName":"东环中路线518","pubTranName":"东方秀轩3446箱变出线间隔配电变压器,电力南院2019-400,河北敏佳房地产开发有限公司,万宝利商贸有限公司,雅致丽都4403出线间隔配电变压器,河北启明房地产开发有限公司5255,棉麻家属变压器2026,隆昌分店变压器,方舟新区4170出线间隔配电变压器,东苑小区变压器2253,枣园东新变压器3237,东环公用变压器0161,心阁公寓变压器2036,财务局公用2441出线间隔配电变压器,唐县绿洲生态开发有限公司新装6912,光明路东公用南6670变压器,玻璃钢电表箱厂2217,唐柴公用2401出线间隔配电变压器,方舟佳苑4086出线间隔配电变压器,武装部公用2287出线间隔配电变压器,农机家属变压器2248,唐县国润发投热力有限公司新装6644,邮政家属变压器1162,唐县万宝利商贸有限公司,唐县隆昌包子铺中山路店新装7794,河北瑞辉房地产开发有限公司计量点7739,通城水泥制品公司0305,邮局公用0088出线间隔配电变压器,河北宁旺商贸有限公司计量点P6576,雅致丽都4766出线间隔配电变压器,保定福唐房地产开发有限公司,河北景奥房地产开发有限公司,枣园公用变压器3265,电力南院家属变压器2019,城南站锅炉2237,王振江高压新装XZ8213,电力南院锅炉,东城花园5155变压器,枣园大队变压器,唐县建设局2303,唐县建设局（临时）2302,0387515483-城建路灯-专变-45334780-城建路灯D2053,方舟公用变压器3282,枣园西6708变压器,光明路东公用出线间隔配电变压器,枣园东变压器0191,企业局家属变压器0171,兴华0196,公安局0205,仁厚镇供电所,唐尧新庄变压器2286,","scope":"【影响街道/乡镇】仁厚镇、唐尧东路、中山南大街、光明路【高危重要客户】无【影响客户】枣元村、唐尧新庄、君安小区、方舟小区南门周边用户、大马庄村、东苑小区、农机局家属院、邮政储蓄所、三丰灯饰城周边门市、枣元综合楼家属、武装部及周边门市、广播局、棉麻家属院、菜市厂部分用户、心阁公寓及楼下门市、电力局家属南院、汇泽银行及周边门市、万宝利商厦周边用户、信用联社家属院、兴华家属楼、财政局家属院、供电公司及周边门市、邮政局家属院,企业局家属院、东方秀轩小区、中国银行、新华超市、财政局、河北省唐县农村信用合作社、邮政储蓄、都市118酒店、方舟佳苑、东城花园、雅致丽都、唐县第二小学、隆昌分店、河北景奥房地产开发有限公司、唐县荣秀房地产开发有限公司、河北启明房地产开发有限公司、唐县兴华大厦商贸有限公司、公安局、信访局","startTime":"2019-07-13 06:00:00","stopDate":"2019-07-13 08:30:00","orgNo":"1340622","typeCode":"计划停电","poweroffArea":"【分支停电】停东方秀轩3446箱变出线间隔配电变压器,电力南院2019-400,河北敏佳房地产开发有限公司,万宝利商贸有限公司,雅致丽都4403出线间隔配电变压器,河北启明房地产开发有限公司5255,财务局公用2441出线间隔配电变压器,唐县绿洲生态开发有限公司新装6912,光明路东公用南6670变压器,玻璃钢电表箱厂2217,唐柴公用2401出线间隔配电变压器,方舟佳苑4086出线间隔配电变压器,武装部公用2287出线间隔配电变压器,农机家属变压器2248,唐县国润发投热力有限公司新装6644,邮政家属变压器1162,唐县万宝利商贸有限公司,唐县隆昌包子铺中山路店新装7794,河北瑞辉房地产开发有限公司计量点7739,通城水泥制品公司0305,邮局公用0088出线间隔配电变压器,河北宁旺商贸有限公司计量点P6576,雅致丽都4766出线间隔配电变压器,保定福唐房地产开发有限公司,河北景奥房地产开发有限公司,枣园公用变压器3265,电力南院家属变压器2019,城南站锅炉2237,王振江高压新装XZ8213,电力南院锅炉,东城花园5155变压器,枣园大队变压器,唐县建设局2303,唐县建设局（临时）2302,0387515483-城建路灯-专变-45334780-城建路灯D2053,方舟公用变压器3282,枣园西6708变压器,光明路东公用出线间隔配电变压器,枣园东变压器0191,企业局家属变压器0171,兴华0196,公安局0205,仁厚镇供电所,唐尧新庄变压器2286,棉麻家属变压器2026,隆昌分店变压器,方舟新区4170出线间隔配电变压器,东苑小区变压器2253,枣园东新变压器3237,东环公用变压器0161,心阁公寓变压器2036","poweroffReason":"【停电原因】由于架设导线导致３５ＫＶ城南变电站东环中路线５１８线路００８号杆断路器以下线路停电【变更送电】因工作进度加快原因，送电时间由１８：００变更为８：３０【发布渠道】唐县电视台（７月３至７月１２的２０：００至２０：３０之间）屏幕上方滚动字幕","powerTime":"2019-07-13 08:12:48","powerComm":"已送电","subsNo":"","lineNo":"","tgNo":"","tgName":null,"infoStatus":"1","orgName":"国网唐县供电公司","typeName":null,"infoStatusName":null,"dateDay":null,"orgNos":null,"nowTime":null,"countyName":null,"streetName":null,"villageName":null,"roadName":null,"communityName":null,"tranName":null,"sdLineName":null,"cityCode":"1340622","cityName":"国网唐县供电公司","provinceCode":null,"stopTime":"2019-07-13 08:30:00","powerType":"全部","powerOffArea":"【分支停电】停东方秀轩3446箱变出线间隔配电变压器,电力南院2019-400,河北敏佳房地产开发有限公司,万宝利商贸有限公司,雅致丽都4403出线间隔配电变压器,河北启明房地产开发有限公司5255,财务局公用2441出线间隔配电变压器,唐县绿洲生态开发有限公司新装6912,光明路东公用南6670变压器,玻璃钢电表箱厂2217,唐柴公用2401出线间隔配电变压器,方舟佳苑4086出线间隔配电变压器,武装部公用2287出线间隔配电变压器,农机家属变压器2248,唐县国润发投热力有限公司新装6644,邮政家属变压器1162,唐县万宝利商贸有限公司,唐县隆昌包子铺中山路店新装7794,河北瑞辉房地产开发有限公司计量点7739,通城水泥制品公司0305,邮局公用0088出线间隔配电变压器,河北宁旺商贸有限公司计量点P6576,雅致丽都4766出线间隔配电变压器,保定福唐房地产开发有限公司,河北景奥房地产开发有限公司,枣园公用变压器3265,电力南院家属变压器2019,城南站锅炉2237,王振江高压新装XZ8213,电力南院锅炉,东城花园5155变压器,枣园大队变压器,唐县建设局2303,唐县建设局（临时）2302,0387515483-城建路灯-专变-45334780-城建路灯D2053,方舟公用变压器3282,枣园西6708变压器,光明路东公用出线间隔配电变压器,枣园东变压器0191,企业局家属变压器0171,兴华0196,公安局0205,仁厚镇供电所,唐尧新庄变压器2286,棉麻家属变压器2026,隆昌分店变压器,方舟新区4170出线间隔配电变压器,东苑小区变压器2253,枣园东新变压器3237,东环公用变压器0161,心阁公寓变压器2036","powerOffReason":"【停电原因】由于架设导线导致３５ＫＶ城南变电站东环中路线５１８线路００８号杆断路器以下线路停电【变更送电】因工作进度加快原因，送电时间由１８：００变更为８：３０【发布渠道】唐县电视台（７月３至７月１２的２０：００至２０：３０之间）屏幕上方滚动字幕","powerOffId":"2019070313000461"},{"poweroffId":2019070313000448,"sgpoweroffId":null,"subsName":"","lineName":"10KV张翠台线561","pubTranName":"北辛庄河西二号井变压器,魏村保野路东变压器【纯农排变】,魏村村东新增变压器【纯农排变】,八里庄搅拌站,北辛庄河西井变压器,西水北3号井2#变压器【纯农排变】,北涧头东井变压器【纯农排变】,南涧头村东新变压器,开发公司,南涧头曹家坟井变压器,薛家庄东北井变压器【纯农排变】,魏村2号井变压器变压器【纯农排变】,王村石料厂3,仁晟汇海水泥制品400KVA专变,王村沙石厂,北涧头东北井变压器【纯农排变】,源州水泥制品厂250KVA专变,薛家庄村南变压器,西水北保野路边变压器,张翠台河西变压器,京津房地产开发有限公司(八里庄),北涧头村东南台区变压器,魏村高速东2井变压器【纯农排变】,北涧头台区变压器,墩台村北井变压器,东水北井变压器【纯农排变】,北涧头大队养殖场变压器,牧达矿物加工,北涧头村北台区变压器,李志强肥料厂,墩台村北台区变压器,李增瑞,北涧头北井变压器【纯农排变】,涞水县鹏强建材厂新增变压器,水北粮站,涞水县京津房地产开发有限公司630KVA专变,西水北砖厂台区变压器,北涧头万术申井变压器【纯农排变】,八里庄柱上变压器【纯农排变】,墩台村东变压器,北涧头村机井【纯农排变】,皓宇沥青,薛家庄井变压器,涞水国兴兆烨建筑材料制造有限公司250KVA专变,北辛庄自来水变压器,汇通路桥项目经理部250KVA专变,南涧头东井变压器,0557090341-汇通路桥京昆高速公路京冀界至涞水段第JK-LQ2项目经理部-专变-105534831-申成路桥十一号变160,王村沙石厂3,北涧头柱上变压器【纯农排变】,汇通路桥经理项目部250KVA专变,西水北锯沫厂,八里庄村内变压器,拓鹏石材250KVA专变,色树村南变压器变压器【纯农排变】,魏村高速东1井变压器【纯农排变】,墩台南台区变压器,","scope":"【影响街道/乡镇】石亭镇 、涞水镇、 王村镇 【高危重要客户】无 【影响客户】八里庄村内（1、2队）、东水北村、薛家庄村、墩台村、西水北村、魏村、北涧头村、南涧头村、张翠台村5号井、北辛庄村河西井和自来水井","startTime":"2019-07-03 15:25:00","stopDate":"2019-07-03 16:30:00","orgNo":"1340614","typeCode":"电网故障停限电","poweroffArea":"【全线路停电】停涞水国兴兆烨建筑材料制造有限公司250KVA专变,北辛庄自来水变压器,汇通路桥项目经理部250KVA专变,南涧头东井变压器,0557090341-汇通路桥京昆高速公路京冀界至涞水段第JK-LQ2项目经理部-专变-105534831-申成路桥十一号变160,王村沙石厂3,北涧头柱上变压器【纯农排变】,汇通路桥经理项目部250KVA专变,西水北锯沫厂,八里庄村内变压器,拓鹏石材250KVA专变,色树村南变压器变压器【纯农排变】,魏村高速东1井变压器【纯农排变】,墩台南台区变压器,北辛庄河西二号井变压器,魏村保野路东变压器【纯农排变】,魏村村东新增变压器【纯农排变】,八里庄搅拌站,北辛庄河西井变压器,西水北3号井2#变压器【纯农排变】,北涧头东井变压器【纯农排变】,南涧头村东新变压器,开发公司,南涧头曹家坟井变压器,仁晟汇海水泥制品400KVA专变,王村沙石厂,北涧头东北井变压器【纯农排变】,源州水泥制品厂250KVA专变,牧达矿物加工,北涧头村北台区变压器,李志强肥料厂,薛家庄东北井变压器【纯农排变】,魏村2号井变压器变压器【纯农排变】,王村石料厂3,薛家庄村南变压器,西水北保野路边变压器,张翠台河西变压器,京津房地产开发有限公司(八里庄),北涧头村东南台区变压器,魏村高速东2井变压器【纯农排变】,北涧头台区变压器,墩台村北井变压器,东水北井变压器【纯农排变】,北涧头大队养殖场变压器,水北粮站,李增瑞,墩台村北台区变压器,北涧头北井变压器【纯农排变】,涞水县鹏强建材厂新增变压器,涞水县京津房地产开发有限公司630KVA专变,西水北砖厂台区变压器,北涧头万术申井变压器【纯农排变】,八里庄柱上变压器【纯农排变】,墩台村东变压器,北涧头村机井【纯农排变】,皓宇沥青,薛家庄井变压器","poweroffReason":"【停电原因】由于２２０ＫＶ涞阳站２号母线Ｃ相ＰＣ保险烧毁导致２２０ＫＶ涞阳变电站１０ＫＶ张翠台５６１线路全线停电 【变更送电】无 【发布渠道】通过９５５９８发布","powerTime":"2019-07-03 16:25:41","powerComm":"已送电","subsNo":"","lineNo":"","tgNo":"","tgName":null,"infoStatus":"1","orgName":"国网涞水县供电公司","typeName":null,"infoStatusName":null,"dateDay":null,"orgNos":null,"nowTime":null,"countyName":null,"streetName":null,"villageName":null,"roadName":null,"communityName":null,"tranName":null,"sdLineName":null,"cityCode":"1340614","cityName":"国网涞水县供电公司","provinceCode":null,"stopTime":"2019-07-03 16:30:00","powerType":"全部","powerOffArea":"【全线路停电】停涞水国兴兆烨建筑材料制造有限公司250KVA专变,北辛庄自来水变压器,汇通路桥项目经理部250KVA专变,南涧头东井变压器,0557090341-汇通路桥京昆高速公路京冀界至涞水段第JK-LQ2项目经理部-专变-105534831-申成路桥十一号变160,王村沙石厂3,北涧头柱上变压器【纯农排变】,汇通路桥经理项目部250KVA专变,西水北锯沫厂,八里庄村内变压器,拓鹏石材250KVA专变,色树村南变压器变压器【纯农排变】,魏村高速东1井变压器【纯农排变】,墩台南台区变压器,北辛庄河西二号井变压器,魏村保野路东变压器【纯农排变】,魏村村东新增变压器【纯农排变】,八里庄搅拌站,北辛庄河西井变压器,西水北3号井2#变压器【纯农排变】,北涧头东井变压器【纯农排变】,南涧头村东新变压器,开发公司,南涧头曹家坟井变压器,仁晟汇海水泥制品400KVA专变,王村沙石厂,北涧头东北井变压器【纯农排变】,源州水泥制品厂250KVA专变,牧达矿物加工,北涧头村北台区变压器,李志强肥料厂,薛家庄东北井变压器【纯农排变】,魏村2号井变压器变压器【纯农排变】,王村石料厂3,薛家庄村南变压器,西水北保野路边变压器,张翠台河西变压器,京津房地产开发有限公司(八里庄),北涧头村东南台区变压器,魏村高速东2井变压器【纯农排变】,北涧头台区变压器,墩台村北井变压器,东水北井变压器【纯农排变】,北涧头大队养殖场变压器,水北粮站,李增瑞,墩台村北台区变压器,北涧头北井变压器【纯农排变】,涞水县鹏强建材厂新增变压器,涞水县京津房地产开发有限公司630KVA专变,西水北砖厂台区变压器,北涧头万术申井变压器【纯农排变】,八里庄柱上变压器【纯农排变】,墩台村东变压器,北涧头村机井【纯农排变】,皓宇沥青,薛家庄井变压器","powerOffReason":"【停电原因】由于２２０ＫＶ涞阳站２号母线Ｃ相ＰＣ保险烧毁导致２２０ＫＶ涞阳变电站１０ＫＶ张翠台５６１线路全线停电 【变更送电】无 【发布渠道】通过９５５９８发布","powerOffId":"2019070313000448"},{"poweroffId":2019070313000398,"sgpoweroffId":null,"subsName":"","lineName":"10kV田各庄线515","pubTranName":"李八庄内5,","scope":"【影响街道/乡镇】北店乡 【高危重要客户】无 【影响客户】李八庄","startTime":"2019-07-03 13:57:57","stopDate":"2019-07-03 19:40:00","orgNo":"1340618","typeCode":"电网故障停限电","poweroffArea":"【单台区停电】停李八庄内5","poweroffReason":"【停电原因】由于低压杆被车撞断导致１１０ＫＶ中冉变电站１０ＫＶ田各庄线５１５线路李八庄内５号公变台区停电 【变更送电】因抢修进度加快原因，送电时间由２２：００变更为１９：４０ 【发布渠道】通过９５５９８发布","powerTime":"2019-07-03 19:09:25","powerComm":"王凯通知已送电","subsNo":"","lineNo":"","tgNo":"","tgName":null,"infoStatus":"1","orgName":"国网清苑县供电公司","typeName":null,"infoStatusName":null,"dateDay":null,"orgNos":null,"nowTime":null,"countyName":null,"streetName":null,"villageName":null,"roadName":null,"communityName":null,"tranName":null,"sdLineName":null,"cityCode":"1340618","cityName":"国网清苑县供电公司","provinceCode":null,"stopTime":"2019-07-03 19:40:00","powerType":"全部","powerOffArea":"【单台区停电】停李八庄内5","powerOffReason":"【停电原因】由于低压杆被车撞断导致１１０ＫＶ中冉变电站１０ＫＶ田各庄线５１５线路李八庄内５号公变台区停电 【变更送电】因抢修进度加快原因，送电时间由２２：００变更为１９：４０ 【发布渠道】通过９５５９８发布","powerOffId":"2019070313000398"},{"poweroffId":2019070313000356,"sgpoweroffId":null,"subsName":"","lineName":"10KV张翠台线561","pubTranName":"墩台村北台区变压器,李增瑞,北涧头北井变压器【纯农排变】,涞水县鹏强建材厂新增变压器,水北粮站,涞水县京津房地产开发有限公司630KVA专变,西水北砖厂台区变压器,北涧头万术申井变压器【纯农排变】,八里庄柱上变压器【纯农排变】,墩台村东变压器,北涧头村机井【纯农排变】,皓宇沥青,薛家庄井变压器,涞水国兴兆烨建筑材料制造有限公司250KVA专变,北辛庄自来水变压器,汇通路桥项目经理部250KVA专变,南涧头东井变压器,0557090341-汇通路桥京昆高速公路京冀界至涞水段第JK-LQ2项目经理部-专变-105534831-申成路桥十一号变160,王村沙石厂3,北涧头柱上变压器【纯农排变】,汇通路桥经理项目部250KVA专变,西水北锯沫厂,八里庄村内变压器,拓鹏石材250KVA专变,色树村南变压器变压器【纯农排变】,魏村高速东1井变压器【纯农排变】,墩台南台区变压器,北辛庄河西二号井变压器,魏村保野路东变压器【纯农排变】,魏村村东新增变压器【纯农排变】,八里庄搅拌站,北辛庄河西井变压器,西水北3号井2#变压器【纯农排变】,北涧头东井变压器【纯农排变】,南涧头村东新变压器,开发公司,南涧头曹家坟井变压器,薛家庄东北井变压器【纯农排变】,魏村2号井变压器变压器【纯农排变】,王村石料厂3,仁晟汇海水泥制品400KVA专变,王村沙石厂,北涧头东北井变压器【纯农排变】,源州水泥制品厂250KVA专变,薛家庄村南变压器,西水北保野路边变压器,张翠台河西变压器,京津房地产开发有限公司(八里庄),北涧头村东南台区变压器,魏村高速东2井变压器【纯农排变】,北涧头台区变压器,墩台村北井变压器,东水北井变压器【纯农排变】,北涧头大队养殖场变压器,牧达矿物加工,北涧头村北台区变压器,李志强肥料厂,","scope":"【影响街道/乡镇】石亭镇 、涞水镇、 王村镇 【高危重要客户】无 【影响客户】八里庄村内（1、2队）、东水北村、薛家庄村、墩台村、西水北村、魏村、北涧头村、南涧头村、张翠台村5号井、北辛庄村河西井和自来水井","startTime":"2019-07-03 12:47:04","stopDate":"2019-07-03 14:00:00","orgNo":"1340614","typeCode":"电网故障停限电","poweroffArea":"【全线路停电】停涞水国兴兆烨建筑材料制造有限公司250KVA专变,北辛庄自来水变压器,汇通路桥项目经理部250KVA专变,南涧头东井变压器,0557090341-汇通路桥京昆高速公路京冀界至涞水段第JK-LQ2项目经理部-专变-105534831-申成路桥十一号变160,王村沙石厂3,北涧头柱上变压器【纯农排变】,汇通路桥经理项目部250KVA专变,西水北锯沫厂,八里庄村内变压器,拓鹏石材250KVA专变,色树村南变压器变压器【纯农排变】,魏村高速东1井变压器【纯农排变】,墩台南台区变压器,北辛庄河西二号井变压器,魏村保野路东变压器【纯农排变】,魏村村东新增变压器【纯农排变】,八里庄搅拌站,北辛庄河西井变压器,西水北3号井2#变压器【纯农排变】,北涧头东井变压器【纯农排变】,南涧头村东新变压器,开发公司,南涧头曹家坟井变压器,仁晟汇海水泥制品400KVA专变,王村沙石厂,北涧头东北井变压器【纯农排变】,源州水泥制品厂250KVA专变,牧达矿物加工,北涧头村北台区变压器,李志强肥料厂,薛家庄东北井变压器【纯农排变】,魏村2号井变压器变压器【纯农排变】,王村石料厂3,薛家庄村南变压器,西水北保野路边变压器,张翠台河西变压器,京津房地产开发有限公司(八里庄),北涧头村东南台区变压器,魏村高速东2井变压器【纯农排变】,北涧头台区变压器,墩台村北井变压器,东水北井变压器【纯农排变】,北涧头大队养殖场变压器,水北粮站,李增瑞,墩台村北台区变压器,北涧头北井变压器【纯农排变】,涞水县鹏强建材厂新增变压器,涞水县京津房地产开发有限公司630KVA专变,西水北砖厂台区变压器,北涧头万术申井变压器【纯农排变】,八里庄柱上变压器【纯农排变】,墩台村东变压器,北涧头村机井【纯农排变】,皓宇沥青,薛家庄井变压器","poweroffReason":"【停电原因】由于Ａ相接地导致２２０ＫＶ涞阳变电站１０ＫＶ张翠台５６１线路全线停电 【变更送电】因抢修进度加快原因，送电时间由１６：００变更为１４：００ 【发布渠道】通过９５５９８发布","powerTime":"2019-07-03 13:19:17","powerComm":"已送电","subsNo":"","lineNo":"","tgNo":"","tgName":null,"infoStatus":"1","orgName":"国网涞水县供电公司","typeName":null,"infoStatusName":null,"dateDay":null,"orgNos":null,"nowTime":null,"countyName":null,"streetName":null,"villageName":null,"roadName":null,"communityName":null,"tranName":null,"sdLineName":null,"cityCode":"1340614","cityName":"国网涞水县供电公司","provinceCode":null,"stopTime":"2019-07-03 14:00:00","powerType":"全部","powerOffArea":"【全线路停电】停涞水国兴兆烨建筑材料制造有限公司250KVA专变,北辛庄自来水变压器,汇通路桥项目经理部250KVA专变,南涧头东井变压器,0557090341-汇通路桥京昆高速公路京冀界至涞水段第JK-LQ2项目经理部-专变-105534831-申成路桥十一号变160,王村沙石厂3,北涧头柱上变压器【纯农排变】,汇通路桥经理项目部250KVA专变,西水北锯沫厂,八里庄村内变压器,拓鹏石材250KVA专变,色树村南变压器变压器【纯农排变】,魏村高速东1井变压器【纯农排变】,墩台南台区变压器,北辛庄河西二号井变压器,魏村保野路东变压器【纯农排变】,魏村村东新增变压器【纯农排变】,八里庄搅拌站,北辛庄河西井变压器,西水北3号井2#变压器【纯农排变】,北涧头东井变压器【纯农排变】,南涧头村东新变压器,开发公司,南涧头曹家坟井变压器,仁晟汇海水泥制品400KVA专变,王村沙石厂,北涧头东北井变压器【纯农排变】,源州水泥制品厂250KVA专变,牧达矿物加工,北涧头村北台区变压器,李志强肥料厂,薛家庄东北井变压器【纯农排变】,魏村2号井变压器变压器【纯农排变】,王村石料厂3,薛家庄村南变压器,西水北保野路边变压器,张翠台河西变压器,京津房地产开发有限公司(八里庄),北涧头村东南台区变压器,魏村高速东2井变压器【纯农排变】,北涧头台区变压器,墩台村北井变压器,东水北井变压器【纯农排变】,北涧头大队养殖场变压器,水北粮站,李增瑞,墩台村北台区变压器,北涧头北井变压器【纯农排变】,涞水县鹏强建材厂新增变压器,涞水县京津房地产开发有限公司630KVA专变,西水北砖厂台区变压器,北涧头万术申井变压器【纯农排变】,八里庄柱上变压器【纯农排变】,墩台村东变压器,北涧头村机井【纯农排变】,皓宇沥青,薛家庄井变压器","powerOffReason":"【停电原因】由于Ａ相接地导致２２０ＫＶ涞阳变电站１０ＫＶ张翠台５６１线路全线停电 【变更送电】因抢修进度加快原因，送电时间由１６：００变更为１４：００ 【发布渠道】通过９５５９８发布","powerOffId":"2019070313000356"},{"poweroffId":2019070313000354,"sgpoweroffId":null,"subsName":"","lineName":"医院线531","pubTranName":"河北烟草保定分公司,太平洋公变变压器,顺源公变,计生委公变变压器,高碑店市市医院,建筑公司平房变压器,海龙大酒店,高碑店市医院变压器,电力局营销楼,老电力局变压器,福利汽修,杨德强,农林局公变变压器,幸福路3#公变,0466996725-广场南路灯-专变-46149940-变压器,营销楼变压器,文明小区2号箱变间隔配电变压器,广场北箱变间隔配电变压器,豆豆集团1#公变,聋哑学校公变变压器,医院2变压器,文明小区3号公变间隔配电变压器,一中二,高碑店市路灯管理办公室（医院路灯）变压器,医院4#变压器,市医院新,高碑店市星光工贸公司,国网高碑店市供电公司二号锅炉变压器,文明小区1号箱变配电变压器,河北省高碑店市高碑店市一中1000kva变压器,高碑店市合享成商贸有限公司,文明小区4号箱变间隔配电变压器,0692858167-高碑店市医院-专变-236712651-高碑店市医院变压器,广场南变压器间隔配电变压器,县社木材变压器,国网高碑店市供电公司一号锅炉变压器,体委公变变压器,一中箱变间隔配电变压器,一小变压器,局西变台,妇幼公变变压器,幸福路一号变压器,财政局变压器,高碑店市二中变压器,十八局建安处北院,高碑店市特教中心变压器,医院空调预付,人行公变变压器,特教中心,隆基泰和实业有限公司,医院3#公变,二中公变变压器,医院1变压器,高碑店市海龙商业有限责任公司变压器,邮电汽修变压器,一中,管道局变压器间隔配电变压器,河北省高碑店市高碑店市一中1250kva变压器,文明小区5号箱变间隔配电变压器,建筑公司公变变压器,豆豆集团变压器,高碑店市幸福路小学变压器,一招公变变压器,市医院2,市医院预付,自来水公司（预付费）,幸福路2号变压器,华福公变,医院,河北省高碑店市高碑店市一中800kva变压器,","scope":"【影响街道/乡镇】幸福路、１１２线、二中胡同、计生委胡同 【高危重要客户】市医院、自来水公司、一中 【影响客户】高碑店市特教中心、一中家属楼、二中家属楼、一小家属楼、十八局建安处北院、杨德强、特教中心、海龙大酒店、广场、高碑店市二中、电力局家属楼西院、建筑公司楼房、太平洋家属楼、妇幼家属楼、汽车二队家属楼、豆豆集团家属楼、民政局家属楼、管道局小区、文明小区、农林局家属楼、邮电汽修家属楼","startTime":"2019-07-03 12:51:49","stopDate":"2019-07-03 14:30:00","orgNo":"1340612","typeCode":"电网故障停限电","poweroffArea":"【全线路停电】停一中箱变间隔配电变压器,一小变压器,局西变台,文明小区3号公变间隔配电变压器,邮电汽修变压器,一中,管道局变压器间隔配电变压器,河北省高碑店市高碑店市一中1250kva变压器,文明小区5号箱变间隔配电变压器,建筑公司公变变压器,豆豆集团变压器,高碑店市幸福路小学变压器,一招公变变压器,市医院2,市医院预付,自来水公司（预付费）,幸福路2号变压器,华福公变,医院,河北省高碑店市高碑店市一中800kva变压器,河北烟草保定分公司,太平洋公变变压器,0692858167-高碑店市医院-专变-236712651-高碑店市医院变压器,广场南变压器间隔配电变压器,县社木材变压器,国网高碑店市供电公司一号锅炉变压器,体委公变变压器,妇幼公变变压器,幸福路一号变压器,财政局变压器,高碑店市星光工贸公司,高碑店市二中变压器,十八局建安处北院,高碑店市特教中心变压器,医院空调预付,人行公变变压器,特教中心,隆基泰和实业有限公司,医院3#公变,顺源公变,计生委公变变压器,高碑店市市医院,建筑公司平房变压器,海龙大酒店,高碑店市医院变压器,电力局营销楼,老电力局变压器,福利汽修,杨德强,农林局公变变压器,幸福路3#公变,0466996725-广场南路灯-专变-46149940-变压器,营销楼变压器,文明小区2号箱变间隔配电变压器,广场北箱变间隔配电变压器,豆豆集团1#公变,聋哑学校公变变压器,医院2变压器,高碑店市路灯管理办公室（医院路灯）变压器,医院4#变压器,市医院新,国网高碑店市供电公司二号锅炉变压器,文明小区1号箱变配电变压器,河北省高碑店市高碑店市一中1000kva变压器,高碑店市合享成商贸有限公司,文明小区4号箱变间隔配电变压器,二中公变变压器,医院1变压器,高碑店市海龙商业有限责任公司变压器,一中二","poweroffReason":"【停电原因】由于树搭线导致１１０ＫＶ方家务变电站１０ＫＶ医院５３１线路全线停电 【变更送电】无 【发布渠道】通过９５５９８发布","powerTime":"2019-07-03 14:17:47","powerComm":"已送电","subsNo":"","lineNo":"","tgNo":"","tgName":null,"infoStatus":"1","orgName":"国网高碑店市供电公司","typeName":null,"infoStatusName":null,"dateDay":null,"orgNos":null,"nowTime":null,"countyName":null,"streetName":null,"villageName":null,"roadName":null,"communityName":null,"tranName":null,"sdLineName":null,"cityCode":"1340612","cityName":"国网高碑店市供电公司","provinceCode":null,"stopTime":"2019-07-03 14:30:00","powerType":"全部","powerOffArea":"【全线路停电】停一中箱变间隔配电变压器,一小变压器,局西变台,文明小区3号公变间隔配电变压器,邮电汽修变压器,一中,管道局变压器间隔配电变压器,河北省高碑店市高碑店市一中1250kva变压器,文明小区5号箱变间隔配电变压器,建筑公司公变变压器,豆豆集团变压器,高碑店市幸福路小学变压器,一招公变变压器,市医院2,市医院预付,自来水公司（预付费）,幸福路2号变压器,华福公变,医院,河北省高碑店市高碑店市一中800kva变压器,河北烟草保定分公司,太平洋公变变压器,0692858167-高碑店市医院-专变-236712651-高碑店市医院变压器,广场南变压器间隔配电变压器,县社木材变压器,国网高碑店市供电公司一号锅炉变压器,体委公变变压器,妇幼公变变压器,幸福路一号变压器,财政局变压器,高碑店市星光工贸公司,高碑店市二中变压器,十八局建安处北院,高碑店市特教中心变压器,医院空调预付,人行公变变压器,特教中心,隆基泰和实业有限公司,医院3#公变,顺源公变,计生委公变变压器,高碑店市市医院,建筑公司平房变压器,海龙大酒店,高碑店市医院变压器,电力局营销楼,老电力局变压器,福利汽修,杨德强,农林局公变变压器,幸福路3#公变,0466996725-广场南路灯-专变-46149940-变压器,营销楼变压器,文明小区2号箱变间隔配电变压器,广场北箱变间隔配电变压器,豆豆集团1#公变,聋哑学校公变变压器,医院2变压器,高碑店市路灯管理办公室（医院路灯）变压器,医院4#变压器,市医院新,国网高碑店市供电公司二号锅炉变压器,文明小区1号箱变配电变压器,河北省高碑店市高碑店市一中1000kva变压器,高碑店市合享成商贸有限公司,文明小区4号箱变间隔配电变压器,二中公变变压器,医院1变压器,高碑店市海龙商业有限责任公司变压器,一中二","powerOffReason":"【停电原因】由于树搭线导致１１０ＫＶ方家务变电站１０ＫＶ医院５３１线路全线停电 【变更送电】无 【发布渠道】通过９５５９８发布","powerOffId":"2019070313000354"},{"poweroffId":2019070313000352,"sgpoweroffId":null,"subsName":"","lineName":"10kV车屯线515","pubTranName":"彦士垡排灌7变压器【纯农排变】,龙湾南变压器,龙湾南2变压器,东垡头排灌变压器【纯农排变】,河头排灌3变压器【纯农排变】,西垡头变压器,龙湾排灌5变压器【纯农排变】,老王庄北变压器,老王庄变压器,西垡头排灌2变压器【纯农排变】,东魏屯排灌2变压器【纯农排变】,温家佐混用变压器,西垡头排灌5变压器【纯农排变】,辛村西南柱上变压器,中国人民解放军93498部队78分队-,温家佐西变压器,潘家营排灌1变压器【纯农排变】,老王庄东变压器,善巨庄变压器,义合庄排灌1变压器【纯农排变】,老王庄南变压器,潘家营西变压器,朱皮营排灌1变压器【纯农排变】,刘鱼池变压器,侯辛庄排灌1变压器【纯农排变】,南龙湾2变压器,红寺鱼池排灌3变压器【纯农排变】,朱皮营排灌3变压器【纯农排变】,西魏屯西北变压器,东魏屯变压器,温家佐东变压器,潘家营排灌2变压器【纯农排变】,河头排灌2变压器【纯农排变】,东垡头变压器,侯鱼池排灌2变压器【纯农排变】,西垡头排灌3变压器【纯农排变】,刘鱼池排灌变压器【纯农排变】,范鱼池排灌3变压器【纯农排变】,彦士垡北变压器,西垡头东北变压器,龙湾排灌2变压器【纯农排变】,车屯南2变压器,闫家营变压器,东双铺头排灌变压器,侯辛庄西变压器,河头南台变压器,辛村南变压器,东魏屯北变压器,龙湾排灌3变压器【纯农排变】,西垡头排灌1变压器【纯农排变】,高碑店市肖官营隆丰清洁用品商贸经营部变压器,仁达养殖公司,西魏屯变压器,双合盛养殖有限责任公司,于庄变压器,仁达养殖公司500KVA变压器,彦士垡排灌8变压器【纯农排变】,朱皮营排灌2变压器【纯农排变】,高碑店市胜德凯混凝土有限公司,车屯排灌1变压器【纯农排变】,西魏屯排灌2变压器【纯农排变】,北垡排灌2变压器【纯农排变】,龙湾排灌4变压器【纯农排变】,侯鱼池排灌3变压器【纯农排变】,河头排灌1变压器【纯农排变】,西魏屯排灌1变压器【纯农排变】,河头西变压器,龙湾北变压器,朱皮营排灌4变压器【纯农排变】,车屯排灌3变压器【纯农排变】,侯辛庄东变压器,车屯北变压器,车屯南变压器,闫家营排灌1变压器【纯农排变】,高碑店市肖官营乡东魏隆基小学变压器,侯鱼池排灌1变压器【纯农排变】,彦士垡排灌5变压器【纯农排变】,东未屯砖厂,辛村排灌1变压器【纯农排变】,辛村排灌2变压器【纯农排变】,潘家营变压器,北垡变压器,高碑店市必拓金属制品加工有限公司,北垡南变压器,善巨庄东变压器,红寺排灌2变压器【纯农排变】,东魏屯排灌1变压器【纯农排变】,义合庄东变压器,西垡头排灌4变压器【纯农排变】,潘家营南,义合庄排灌2变压器【纯农排变】,朱皮营变压器,彦士垡排灌2变压器【纯农排变】,于庄市场变压器,温家佐排灌3变压器【纯农排变】,辛村北台变压器,红寺鱼池西变压器,龙湾市场变压器,东魏屯东柱上变压器,赵晨慧变压器,侯辛庄排灌2变压器【纯农排变】,北垡排灌1变压器【纯农排变】,东魏屯排灌3变压器【纯农排变】,温家佐排灌1变压器【纯农排变】,高碑店市双合盛养殖有限责任公司变压器,义合庄西变压器,河头东北变压器,高碑店市绿雪草种销售有限公司,彦士垡排灌6变压器【纯农排变】,高碑店市盛扬益瑞商贸有限公司,","scope":"【影响街道/乡镇】肖官营镇、方官镇 【高危重要客户】无 【影响客户】北垡村、车屯村、东垡头村、西垡头村、东未屯村、西未屯村、河头村、红寺鱼池村、侯鱼池村、老王庄村、刘鱼池村、龙湾村、潘家营村、善巨庄村、温家佐村、辛村、闫家营村、彦士垡村、义和庄村、于庄村、朱皮营村、侯辛庄村（部分）、中国人民解放军９３４９８部队７８分队、高碑店市肖官营乡东魏隆基小学、高碑店市肖官营隆丰清洁用品商贸经营部、高碑店市绿雪草种销售有限公司、高碑店市必拓金属制品加工有限公司、高碑店市仁达养殖有限责任公司、高碑店市东未屯富民砖厂、赵晨慧、高碑店市双合盛养殖有限责任公司","startTime":"2019-07-03 12:47:06","stopDate":"2019-07-03 16:00:00","orgNo":"1340612","typeCode":"电网故障停限电","poweroffArea":"【全线路停电】停中国人民解放军93498部队78分队-,西垡头排灌5变压器【纯农排变】,河头排灌2变压器【纯农排变】,潘家营排灌2变压器【纯农排变】,东垡头变压器,侯鱼池排灌2变压器【纯农排变】,西垡头排灌3变压器【纯农排变】,潘家营变压器,北垡变压器,彦士垡北变压器,西垡头东北变压器,车屯南变压器,闫家营排灌1变压器【纯农排变】,高碑店市肖官营乡东魏隆基小学变压器,侯鱼池排灌1变压器【纯农排变】,车屯排灌3变压器【纯农排变】,侯辛庄东变压器,东魏屯排灌1变压器【纯农排变】,高碑店市肖官营隆丰清洁用品商贸经营部变压器,仁达养殖公司,彦士垡排灌2变压器【纯农排变】,高碑店市双合盛养殖有限责任公司变压器,义合庄西变压器,赵晨慧变压器,温家佐排灌3变压器【纯农排变】,辛村北台变压器,龙湾市场变压器,东魏屯东柱上变压器,东魏屯排灌3变压器【纯农排变】,温家佐排灌1变压器【纯农排变】,红寺排灌2变压器【纯农排变】,义合庄东变压器,西垡头排灌4变压器【纯农排变】,温家佐西变压器,潘家营排灌1变压器【纯农排变】,老王庄东变压器,侯辛庄西变压器,北垡排灌1变压器【纯农排变】,东魏屯北变压器,龙湾排灌3变压器【纯农排变】,西垡头排灌1变压器【纯农排变】,潘家营南,义合庄排灌2变压器【纯农排变】,朱皮营变压器,朱皮营排灌4变压器【纯农排变】,高碑店市绿雪草种销售有限公司,辛村西南柱上变压器,西魏屯变压器,双合盛养殖有限责任公司,车屯北变压器,仁达养殖公司500KVA变压器,彦士垡排灌8变压器【纯农排变】,朱皮营排灌2变压器【纯农排变】,高碑店市胜德凯混凝土有限公司,车屯排灌1变压器【纯农排变】,西魏屯排灌2变压器【纯农排变】,北垡排灌2变压器【纯农排变】,龙湾排灌4变压器【纯农排变】,侯鱼池排灌3变压器【纯农排变】,河头排灌1变压器【纯农排变】,彦士垡排灌6变压器【纯农排变】,高碑店市盛扬益瑞商贸有限公司,南龙湾2变压器,红寺鱼池排灌3变压器【纯农排变】,刘鱼池排灌变压器【纯农排变】,范鱼池排灌3变压器【纯农排变】,红寺鱼池西变压器,河头南台变压器,龙湾排灌2变压器【纯农排变】,车屯南2变压器,龙湾排灌5变压器【纯农排变】,老王庄北变压器,老王庄变压器,西垡头排灌2变压器【纯农排变】,东魏屯排灌2变压器【纯农排变】,于庄变压器,闫家营变压器,刘鱼池变压器,侯辛庄排灌1变压器【纯农排变】,河头东北变压器,西魏屯排灌1变压器【纯农排变】,河头西变压器,彦士垡排灌5变压器【纯农排变】,东未屯砖厂,辛村排灌1变压器【纯农排变】,辛村排灌2变压器【纯农排变】,东双铺头排灌变压器,朱皮营排灌3变压器【纯农排变】,西魏屯西北变压器,东魏屯变压器,温家佐东变压器,温家佐混用变压器,善巨庄变压器,义合庄排灌1变压器【纯农排变】,高碑店市必拓金属制品加工有限公司,北垡南变压器,善巨庄东变压器,老王庄南变压器,潘家营西变压器,朱皮营排灌1变压器【纯农排变】,辛村南变压器,彦士垡排灌7变压器【纯农排变】,龙湾南变压器,龙湾南2变压器,侯辛庄排灌2变压器【纯农排变】,龙湾北变压器,于庄市场变压器,东垡头排灌变压器【纯农排变】,河头排灌3变压器【纯农排变】,西垡头变压器","poweroffReason":"【停电原因】由于老王庄分支跳闸导致３５ＫＶ方官变电站１０ＫＶ车屯５１５线路全线停电 【变更送电】因抢修进度加快原因，送电时间由１８：００变更为１６：００ 【发布渠道】通过９５５９８发布","powerTime":"2019-07-03 15:46:32","powerComm":"已送电","subsNo":"","lineNo":"","tgNo":"","tgName":null,"infoStatus":"1","orgName":"国网高碑店市供电公司","typeName":null,"infoStatusName":null,"dateDay":null,"orgNos":null,"nowTime":null,"countyName":null,"streetName":null,"villageName":null,"roadName":null,"communityName":null,"tranName":null,"sdLineName":null,"cityCode":"1340612","cityName":"国网高碑店市供电公司","provinceCode":null,"stopTime":"2019-07-03 16:00:00","powerType":"全部","powerOffArea":"【全线路停电】停中国人民解放军93498部队78分队-,西垡头排灌5变压器【纯农排变】,河头排灌2变压器【纯农排变】,潘家营排灌2变压器【纯农排变】,东垡头变压器,侯鱼池排灌2变压器【纯农排变】,西垡头排灌3变压器【纯农排变】,潘家营变压器,北垡变压器,彦士垡北变压器,西垡头东北变压器,车屯南变压器,闫家营排灌1变压器【纯农排变】,高碑店市肖官营乡东魏隆基小学变压器,侯鱼池排灌1变压器【纯农排变】,车屯排灌3变压器【纯农排变】,侯辛庄东变压器,东魏屯排灌1变压器【纯农排变】,高碑店市肖官营隆丰清洁用品商贸经营部变压器,仁达养殖公司,彦士垡排灌2变压器【纯农排变】,高碑店市双合盛养殖有限责任公司变压器,义合庄西变压器,赵晨慧变压器,温家佐排灌3变压器【纯农排变】,辛村北台变压器,龙湾市场变压器,东魏屯东柱上变压器,东魏屯排灌3变压器【纯农排变】,温家佐排灌1变压器【纯农排变】,红寺排灌2变压器【纯农排变】,义合庄东变压器,西垡头排灌4变压器【纯农排变】,温家佐西变压器,潘家营排灌1变压器【纯农排变】,老王庄东变压器,侯辛庄西变压器,北垡排灌1变压器【纯农排变】,东魏屯北变压器,龙湾排灌3变压器【纯农排变】,西垡头排灌1变压器【纯农排变】,潘家营南,义合庄排灌2变压器【纯农排变】,朱皮营变压器,朱皮营排灌4变压器【纯农排变】,高碑店市绿雪草种销售有限公司,辛村西南柱上变压器,西魏屯变压器,双合盛养殖有限责任公司,车屯北变压器,仁达养殖公司500KVA变压器,彦士垡排灌8变压器【纯农排变】,朱皮营排灌2变压器【纯农排变】,高碑店市胜德凯混凝土有限公司,车屯排灌1变压器【纯农排变】,西魏屯排灌2变压器【纯农排变】,北垡排灌2变压器【纯农排变】,龙湾排灌4变压器【纯农排变】,侯鱼池排灌3变压器【纯农排变】,河头排灌1变压器【纯农排变】,彦士垡排灌6变压器【纯农排变】,高碑店市盛扬益瑞商贸有限公司,南龙湾2变压器,红寺鱼池排灌3变压器【纯农排变】,刘鱼池排灌变压器【纯农排变】,范鱼池排灌3变压器【纯农排变】,红寺鱼池西变压器,河头南台变压器,龙湾排灌2变压器【纯农排变】,车屯南2变压器,龙湾排灌5变压器【纯农排变】,老王庄北变压器,老王庄变压器,西垡头排灌2变压器【纯农排变】,东魏屯排灌2变压器【纯农排变】,于庄变压器,闫家营变压器,刘鱼池变压器,侯辛庄排灌1变压器【纯农排变】,河头东北变压器,西魏屯排灌1变压器【纯农排变】,河头西变压器,彦士垡排灌5变压器【纯农排变】,东未屯砖厂,辛村排灌1变压器【纯农排变】,辛村排灌2变压器【纯农排变】,东双铺头排灌变压器,朱皮营排灌3变压器【纯农排变】,西魏屯西北变压器,东魏屯变压器,温家佐东变压器,温家佐混用变压器,善巨庄变压器,义合庄排灌1变压器【纯农排变】,高碑店市必拓金属制品加工有限公司,北垡南变压器,善巨庄东变压器,老王庄南变压器,潘家营西变压器,朱皮营排灌1变压器【纯农排变】,辛村南变压器,彦士垡排灌7变压器【纯农排变】,龙湾南变压器,龙湾南2变压器,侯辛庄排灌2变压器【纯农排变】,龙湾北变压器,于庄市场变压器,东垡头排灌变压器【纯农排变】,河头排灌3变压器【纯农排变】,西垡头变压器","powerOffReason":"【停电原因】由于老王庄分支跳闸导致３５ＫＶ方官变电站１０ＫＶ车屯５１５线路全线停电 【变更送电】因抢修进度加快原因，送电时间由１８：００变更为１６：００ 【发布渠道】通过９５５９８发布","powerOffId":"2019070313000352"},{"poweroffId":2019070313000347,"sgpoweroffId":null,"subsName":"","lineName":"市政线511","pubTranName":"高碑店市文化物业有限公司2变压器,公安3号变压器,育才路变压器,网通公变变压器,鹏达世纪酒店,五处,民族路灯,局北1号变压器,中铁十八局集团高碑店医院,高碑店市盛世商业有限公司变压器,隆基泰和实业有限公司（海洋花园C区）,盛世广场,干休所2号变压器,0387434681-高碑店市农村信用合作联社北大街信用社-专变-45273165-北大街信用社(锅炉),五处2,电业局东院变压器,家兴,宜佳旺,建委公变变压器,高碑店市文化物业有限公司,保定腾盛房地产开发有限公司变压器,百货1号变压器,金隆大厦,高碑店市鹏达物业服务有限公司（一招家属楼）变压器,公安1号变压器,十八局医院,高碑店市腾盛房地产开发有限公司变压器,干休所,公安4号变压器,计量室,承装公司,联通高碑店分公司2,公安2号变压器,十八局建安处,承装公司变压器,今日家园,政府,联通高碑店分公司1,玖玖商厦变压器,高碑店市人民政府,高碑店市路灯管理办公室（现代商厦）变压器,信用社公变变压器,物业二公司变压器,建设局变压器,罗增宝,现代商厦,鹏达公变变压器,电业局,物业二公司,|鹏达世纪酒店,干休所1号变压器,","scope":"【影响街道/乡镇】迎宾路、文明路、育才路、兴华中路、玖玖胡同 【高危重要客户】政府、十八局医院、联通高碑店分公司 【影响客户】鹏达小区、网通家属楼、武装部家属楼、今日家园、民族路灯、盛世商场、干休所、腾胜家园、十八局建安处、鹏达世纪酒店、老公安局家属楼、建委家属楼","startTime":"2019-07-03 12:46:40","stopDate":"2019-07-03 14:30:00","orgNo":"1340612","typeCode":"电网故障停限电","poweroffArea":"【全线路停电】停高碑店市鹏达物业服务有限公司（一招家属楼）变压器,高碑店市腾盛房地产开发有限公司变压器,公安3号变压器,育才路变压器,干休所2号变压器,五处2,电业局东院变压器,家兴,宜佳旺,0387434681-高碑店市农村信用合作联社北大街信用社-专变-45273165-北大街信用社(锅炉),隆基泰和实业有限公司（海洋花园C区）,建委公变变压器,|鹏达世纪酒店,干休所1号变压器,高碑店市人民政府,高碑店市路灯管理办公室（现代商厦）变压器,信用社公变变压器,物业二公司变压器,建设局变压器,高碑店市文化物业有限公司2变压器,高碑店市文化物业有限公司,保定腾盛房地产开发有限公司变压器,网通公变变压器,联通高碑店分公司2,民族路灯,百货1号变压器,金隆大厦,公安1号变压器,十八局医院,干休所,公安4号变压器,计量室,承装公司变压器,今日家园,局北1号变压器,中铁十八局集团高碑店医院,高碑店市盛世商业有限公司变压器,罗增宝,现代商厦,鹏达公变变压器,电业局,物业二公司,承装公司,盛世广场,政府,联通高碑店分公司1,玖玖商厦变压器,鹏达世纪酒店,五处,公安2号变压器,十八局建安处","poweroffReason":"【停电原因】由于树搭线导致１１０ＫＶ方家务变电站１０ＫＶ市政５１１线路全线停电 【变更送电】无 【发布渠道】通过９５５９８发布","powerTime":"2019-07-03 14:18:29","powerComm":"已送电","subsNo":"","lineNo":"","tgNo":"","tgName":null,"infoStatus":"1","orgName":"国网高碑店市供电公司","typeName":null,"infoStatusName":null,"dateDay":null,"orgNos":null,"nowTime":null,"countyName":null,"streetName":null,"villageName":null,"roadName":null,"communityName":null,"tranName":null,"sdLineName":null,"cityCode":"1340612","cityName":"国网高碑店市供电公司","provinceCode":null,"stopTime":"2019-07-03 14:30:00","powerType":"全部","powerOffArea":"【全线路停电】停高碑店市鹏达物业服务有限公司（一招家属楼）变压器,高碑店市腾盛房地产开发有限公司变压器,公安3号变压器,育才路变压器,干休所2号变压器,五处2,电业局东院变压器,家兴,宜佳旺,0387434681-高碑店市农村信用合作联社北大街信用社-专变-45273165-北大街信用社(锅炉),隆基泰和实业有限公司（海洋花园C区）,建委公变变压器,|鹏达世纪酒店,干休所1号变压器,高碑店市人民政府,高碑店市路灯管理办公室（现代商厦）变压器,信用社公变变压器,物业二公司变压器,建设局变压器,高碑店市文化物业有限公司2变压器,高碑店市文化物业有限公司,保定腾盛房地产开发有限公司变压器,网通公变变压器,联通高碑店分公司2,民族路灯,百货1号变压器,金隆大厦,公安1号变压器,十八局医院,干休所,公安4号变压器,计量室,承装公司变压器,今日家园,局北1号变压器,中铁十八局集团高碑店医院,高碑店市盛世商业有限公司变压器,罗增宝,现代商厦,鹏达公变变压器,电业局,物业二公司,承装公司,盛世广场,政府,联通高碑店分公司1,玖玖商厦变压器,鹏达世纪酒店,五处,公安2号变压器,十八局建安处","powerOffReason":"【停电原因】由于树搭线导致１１０ＫＶ方家务变电站１０ＫＶ市政５１１线路全线停电 【变更送电】无 【发布渠道】通过９５５９８发布","powerOffId":"2019070313000347"}],"pageModel":{"pageNow":869,"totalCount":10973,"totalPage":1098,"tableRows":0,"pageCount":10,"beginCount":8680},"isExperi":"1"}