{"message":"","today":"2020-06-15","seleList":[{"poweroffId":2019070213000289,"sgpoweroffId":null,"subsName":"","lineName":"10kV薛留营站527线路","pubTranName":"B491柱上变压器,","scope":"【影响街道/乡镇】光华路、金台驿街 【高危重要客户】无 【影响客户】金台驿街3号楼","startTime":"2019-07-03 09:00:00","stopDate":"2019-07-03 11:00:00","orgNo":"13406","typeCode":"其他临时停电","poweroffArea":"【单台区停电】停B491柱上变压器","poweroffReason":"【停电原因】由于紧急消缺导致１０ＫＶ薛留营变电站５２７线路Ｂ４９１公变台区停电【变更送电】无【发布渠道】通过９５５９８发布","powerTime":"2019-07-03 10:05:12","powerComm":"已送电","subsNo":"","lineNo":"","tgNo":"","tgName":null,"infoStatus":"1","orgName":"保定供电公司","typeName":null,"infoStatusName":null,"dateDay":null,"orgNos":null,"nowTime":null,"countyName":null,"streetName":null,"villageName":null,"roadName":null,"communityName":null,"tranName":null,"sdLineName":null,"cityCode":"13406","cityName":"保定供电公司","provinceCode":null,"stopTime":"2019-07-03 11:00:00","powerType":"全部","powerOffArea":"【单台区停电】停B491柱上变压器","powerOffReason":"【停电原因】由于紧急消缺导致１０ＫＶ薛留营变电站５２７线路Ｂ４９１公变台区停电【变更送电】无【发布渠道】通过９５５９８发布","powerOffId":"2019070213000289"},{"poweroffId":2019070213000275,"sgpoweroffId":null,"subsName":"","lineName":"10kV515史家佐线","pubTranName":"10kV515史家佐线16052台区变压器,保定瑞元丰胶带有限公司,变压器,博野县瑞鑫橡胶制品厂,博野县宏兴纺纱厂,南刘陀刘志平,0584138885-保定雄伟橡胶机带有限公司-专变-124947759-保定征宙橡胶有限公司,保定航达橡胶机带有限公司,保定杜邦橡胶机带有限公司,树辉纺纱厂,史家佐村厂,博野县聚福楼酒店,刘陀营16127,保定胶六橡胶制品有限公司,博野县家兴帆布厂,史家佐16273养殖,10kV515史家佐线16140台区变压器,瑞源再生胶有限公司,史家佐小区,西王各庄航达橡胶厂,博野县王颜新胶带厂,博野县一正橡胶厂,博野县裕丰橡胶制品厂,保定方达橡胶制品厂,西王各庄16152,保定浩博机械设备有限公司16173,博野县九天帆布厂,0625606407-博野县晨朋制管厂-专变-135353303-博野县晨朋制管厂,保定川宇橡胶机带制造有限公司,10kV515史家佐线16150台区变压器【纯农排变】,10kV515史家佐线16103台区变压器【纯农排变】,保定三丰橡胶机带有限公司,刘陀营村南浇地41893,保定浩博机械设备有限公司,博野永胜帆布厂,保定华阳橡胶机带有限公司,杜彦军托辊厂,史家佐49832,0635016735-保定川宇橡胶机带制造有限公司-专变-148018794-保定恒晟橡胶机带制造有限公司,史家佐橡胶厂谷小六,茂源胶带厂,博野县恒达织布厂变压器,西王各庄庆国纺纱厂,保定雄伟橡胶机带有限公司,史家佐纺纱厂,博野县鑫达橡胶制品厂,茂源胶带厂2,","scope":"【影响街道/乡镇】南小王乡【高危重要客户】无【影响客户】史家佐、西王各庄","startTime":"2019-07-03 06:30:00","stopDate":"2019-07-03 18:00:00","orgNo":"1340608","typeCode":"其他临时停电","poweroffArea":"【全线路停电】停史家佐村厂,茂源胶带厂,史家佐橡胶厂谷小六,博野县九天帆布厂,10kV515史家佐线16052台区变压器,保定航达橡胶机带有限公司,西王各庄庆国纺纱厂,保定瑞元丰胶带有限公司,保定胶六橡胶制品有限公司,保定雄伟橡胶机带有限公司,刘陀营村南浇地41893,0625606407-博野县晨朋制管厂-专变-135353303-博野县晨朋制管厂,瑞源再生胶有限公司,保定华阳橡胶机带有限公司,保定川宇橡胶机带制造有限公司,茂源胶带厂2,博野县一正橡胶厂,博野永胜帆布厂,树辉纺纱厂,博野县家兴帆布厂,0584138885-保定雄伟橡胶机带有限公司-专变-124947759-保定征宙橡胶有限公司,史家佐纺纱厂,博野县宏兴纺纱厂,杜彦军托辊厂,10kV515史家佐线16140台区变压器,10kV515史家佐线16103台区变压器【纯农排变】,保定浩博机械设备有限公司,变压器,保定方达橡胶制品厂,博野县恒达织布厂变压器,刘陀营16127,保定三丰橡胶机带有限公司,保定杜邦橡胶机带有限公司,博野县裕丰橡胶制品厂,史家佐49832,博野县聚福楼酒店,史家佐小区,西王各庄航达橡胶厂,史家佐16273养殖,南刘陀刘志平,0635016735-保定川宇橡胶机带制造有限公司-专变-148018794-保定恒晟橡胶机带制造有限公司,博野县瑞鑫橡胶制品厂,西王各庄16152,博野县鑫达橡胶制品厂,保定浩博机械设备有限公司16173,博野县王颜新胶带厂","poweroffReason":"【停电原因】由于刀闸发热需紧急消缺导致３５ＫＶ南小王变电站史家佐５１５线路全线停电【变更送电】因工作提前完工原因，送电时间由２０：００变更为１８：００【发布渠道】通过９５５９８发布","powerTime":"2019-07-03 17:15:23","powerComm":"已送电","subsNo":"","lineNo":"","tgNo":"","tgName":null,"infoStatus":"1","orgName":"国网博野县供电公司","typeName":null,"infoStatusName":null,"dateDay":null,"orgNos":null,"nowTime":null,"countyName":null,"streetName":null,"villageName":null,"roadName":null,"communityName":null,"tranName":null,"sdLineName":null,"cityCode":"1340608","cityName":"国网博野县供电公司","provinceCode":null,"stopTime":"2019-07-03 18:00:00","powerType":"全部","powerOffArea":"【全线路停电】停史家佐村厂,茂源胶带厂,史家佐橡胶厂谷小六,博野县九天帆布厂,10kV515史家佐线16052台区变压器,保定航达橡胶机带有限公司,西王各庄庆国纺纱厂,保定瑞元丰胶带有限公司,保定胶六橡胶制品有限公司,保定雄伟橡胶机带有限公司,刘陀营村南浇地41893,0625606407-博野县晨朋制管厂-专变-135353303-博野县晨朋制管厂,瑞源再生胶有限公司,保定华阳橡胶机带有限公司,保定川宇橡胶机带制造有限公司,茂源胶带厂2,博野县一正橡胶厂,博野永胜帆布厂,树辉纺纱厂,博野县家兴帆布厂,0584138885-保定雄伟橡胶机带有限公司-专变-124947759-保定征宙橡胶有限公司,史家佐纺纱厂,博野县宏兴纺纱厂,杜彦军托辊厂,10kV515史家佐线16140台区变压器,10kV515史家佐线16103台区变压器【纯农排变】,保定浩博机械设备有限公司,变压器,保定方达橡胶制品厂,博野县恒达织布厂变压器,刘陀营16127,保定三丰橡胶机带有限公司,保定杜邦橡胶机带有限公司,博野县裕丰橡胶制品厂,史家佐49832,博野县聚福楼酒店,史家佐小区,西王各庄航达橡胶厂,史家佐16273养殖,南刘陀刘志平,0635016735-保定川宇橡胶机带制造有限公司-专变-148018794-保定恒晟橡胶机带制造有限公司,博野县瑞鑫橡胶制品厂,西王各庄16152,博野县鑫达橡胶制品厂,保定浩博机械设备有限公司16173,博野县王颜新胶带厂","powerOffReason":"【停电原因】由于刀闸发热需紧急消缺导致３５ＫＶ南小王变电站史家佐５１５线路全线停电【变更送电】因工作提前完工原因，送电时间由２０：００变更为１８：００【发布渠道】通过９５５９８发布","powerOffId":"2019070213000275"},{"poweroffId":2019070213000265,"sgpoweroffId":null,"subsName":"","lineName":"临时高桥584","pubTranName":"小营南2,","scope":"【影响街道/乡镇】白沟镇 【高危重要客户】无 【影响客户】小营村","startTime":"2019-07-03 07:00:00","stopDate":"2019-07-03 18:00:00","orgNo":"1340612","typeCode":"其他临时停电","poweroffArea":"【单台区停电】停小营南2","poweroffReason":"【停电原因】由于低压线路改造导致１１０ＫＶ白沟变电站１０ＫＶ临时高桥５８４线路小营南２公变台区停电 【变更送电】无 【发布渠道】通过９５５９８发布","powerTime":"2019-07-03 17:11:11","powerComm":"已送电","subsNo":"","lineNo":"","tgNo":"","tgName":null,"infoStatus":"1","orgName":"国网高碑店市供电公司","typeName":null,"infoStatusName":null,"dateDay":null,"orgNos":null,"nowTime":null,"countyName":null,"streetName":null,"villageName":null,"roadName":null,"communityName":null,"tranName":null,"sdLineName":null,"cityCode":"1340612","cityName":"国网高碑店市供电公司","provinceCode":null,"stopTime":"2019-07-03 18:00:00","powerType":"全部","powerOffArea":"【单台区停电】停小营南2","powerOffReason":"【停电原因】由于低压线路改造导致１１０ＫＶ白沟变电站１０ＫＶ临时高桥５８４线路小营南２公变台区停电 【变更送电】无 【发布渠道】通过９５５９８发布","powerOffId":"2019070213000265"},{"poweroffId":2019070213000257,"sgpoweroffId":null,"subsName":"","lineName":"10kV崔闸站563线路","pubTranName":"B271柱上变压器,","scope":"【影响街道/乡镇】七一路 【高危重要客户】无 【影响客户】铝厂宿舍、中言良小区","startTime":"2019-07-03 07:00:00","stopDate":"2019-07-03 14:00:00","orgNo":"13406","typeCode":"其他临时停电","poweroffArea":"【单台区停电】停B271柱上变压器","poweroffReason":"【停电原因】由于紧急消缺导致１０ＫＶ崔闸变电站５６３线路Ｂ２７１公变台区停电【变更送电】无【发布渠道】通过９５５９８发布","powerTime":"2019-07-03 13:11:57","powerComm":"已送电","subsNo":"","lineNo":"","tgNo":"","tgName":null,"infoStatus":"1","orgName":"保定供电公司","typeName":null,"infoStatusName":null,"dateDay":null,"orgNos":null,"nowTime":null,"countyName":null,"streetName":null,"villageName":null,"roadName":null,"communityName":null,"tranName":null,"sdLineName":null,"cityCode":"13406","cityName":"保定供电公司","provinceCode":null,"stopTime":"2019-07-03 14:00:00","powerType":"全部","powerOffArea":"【单台区停电】停B271柱上变压器","powerOffReason":"【停电原因】由于紧急消缺导致１０ＫＶ崔闸变电站５６３线路Ｂ２７１公变台区停电【变更送电】无【发布渠道】通过９５５９８发布","powerOffId":"2019070213000257"},{"poweroffId":2019070213000251,"sgpoweroffId":null,"subsName":"","lineName":"10kV七一路站533线路","pubTranName":"B189柱上变压器,","scope":"【影响街道/乡镇】五一九路 【高危重要客户】无 【影响客户】宝硕宿舍、保塑集团宿舍、工商宿舍","startTime":"2019-07-03 06:00:00","stopDate":"2019-07-03 09:30:00","orgNo":"13406","typeCode":"其他临时停电","poweroffArea":"【单台区停电】停B189柱上变压器","poweroffReason":"【停电原因】由于紧急消缺导致１０ＫＶ七一路站变电站５３３线路Ｂ１８９公变台区停电【变更送电】因抢修进度加快，原定12:00送电现计划9:30送电。【发布渠道】通过９５５９８发布","powerTime":"2019-07-03 09:28:11","powerComm":"已送电","subsNo":"","lineNo":"","tgNo":"","tgName":null,"infoStatus":"1","orgName":"保定供电公司","typeName":null,"infoStatusName":null,"dateDay":null,"orgNos":null,"nowTime":null,"countyName":null,"streetName":null,"villageName":null,"roadName":null,"communityName":null,"tranName":null,"sdLineName":null,"cityCode":"13406","cityName":"保定供电公司","provinceCode":null,"stopTime":"2019-07-03 09:30:00","powerType":"全部","powerOffArea":"【单台区停电】停B189柱上变压器","powerOffReason":"【停电原因】由于紧急消缺导致１０ＫＶ七一路站变电站５３３线路Ｂ１８９公变台区停电【变更送电】因抢修进度加快，原定12:00送电现计划9:30送电。【发布渠道】通过９５５９８发布","powerOffId":"2019070213000251"},{"poweroffId":2019070213000229,"sgpoweroffId":null,"subsName":"","lineName":"10kV515安阳线","pubTranName":"东安阳土地整改新增农业1号（TD）4393【纯农排变】,西白司城2760,东安阳1270#农排|24001270【纯农排变】,东安阳村1220|24001220,西安阳村南2550|24002550,李思庄新增农业1号（TD）0950【纯农排变】,西安阳新增农业1号（TD）0948【纯农排变】,石连喜1330#农排|24001330【纯农排变】,李思庄西南3573农排【纯农排变】,李思庄1070#农排|24001070【纯农排变】,西安阳土地整改新增农业1号（TD）4403【纯农排变】,李思庄土地整改新增农业2号（TD）4398【纯农排变】,李思庄2300#农排|24002300【纯农排变】,西安阳2650#农排|24002650【纯农排变】,西白司城2号新增农业4433（TD）【纯农排变】,西安阳土地整改新增农业2号（TD）2466【纯农排变】,东安阳新增农业1号（TD）0946【纯农排变】,东安阳土地整改新增农业3号（TD）2452【纯农排变】,三角村1110|24001110,西白司城3号新增农业4435（TD）【纯农排变】,西白司城村北1190|24001190,西白司城村北农业0213【纯农排变】,西安阳土地整改新增农业3号（TD）2470【纯农排变】,三角1120#农排|24001120【纯农排变】,东白司城1140|24001140,西安阳1340#农排|24001340【纯农排变】,西安阳村南1050|24001050,西安阳1030|24001030,","scope":"【影响街道/乡镇】安阳乡【高危重要客户】无【影响客户】西安阳、李思庄、安阳三角村、东白司城、西白司城、东安阳","startTime":"2019-07-02 14:32:51","stopDate":"2019-07-02 20:00:00","orgNo":"1340621","typeCode":"电网故障停限电","poweroffArea":"【全线路停电】停东白司城1140|24001140,西白司城村北农业0213【纯农排变】,东安阳1270#农排|24001270【纯农排变】,西安阳土地整改新增农业3号（TD）2470【纯农排变】,东安阳土地整改新增农业1号（TD）4393【纯农排变】,东安阳村1220|24001220,西安阳新增农业1号（TD）0948【纯农排变】,西安阳1340#农排|24001340【纯农排变】,西白司城3号新增农业4435（TD）【纯农排变】,西安阳1030|24001030,西安阳村南1050|24001050,西安阳土地整改新增农业1号（TD）4403【纯农排变】,西安阳2650#农排|24002650【纯农排变】,三角村1110|24001110,李思庄1070#农排|24001070【纯农排变】,李思庄2300#农排|24002300【纯农排变】,三角1120#农排|24001120【纯农排变】,西白司城2760,李思庄土地整改新增农业2号（TD）4398【纯农排变】,东安阳土地整改新增农业3号（TD）2452【纯农排变】,西白司城村北1190|24001190,石连喜1330#农排|24001330【纯农排变】,东安阳新增农业1号（TD）0946【纯农排变】,西安阳村南2550|24002550,西安阳土地整改新增农业2号（TD）2466【纯农排变】,李思庄新增农业1号（TD）0950【纯农排变】,西白司城2号新增农业4433（TD）【纯农排变】,李思庄西南3573农排【纯农排变】","poweroffReason":"【停电原因】由于树枝搭线自行脱落造成跳闸导致３５ＫＶ安阳变电站１０ＫＶ５１５安阳线路全线停电【变更送电】因抢修进度加快原因，送电时间由２１：００变更为２０：００【发布渠道】通过９５５９８发布","powerTime":"2019-07-02 19:11:29","powerComm":"已送电","subsNo":"","lineNo":"","tgNo":"","tgName":null,"infoStatus":"1","orgName":"国网顺平县电力局","typeName":null,"infoStatusName":null,"dateDay":null,"orgNos":null,"nowTime":null,"countyName":null,"streetName":null,"villageName":null,"roadName":null,"communityName":null,"tranName":null,"sdLineName":null,"cityCode":"1340621","cityName":"国网顺平县电力局","provinceCode":null,"stopTime":"2019-07-02 20:00:00","powerType":"全部","powerOffArea":"【全线路停电】停东白司城1140|24001140,西白司城村北农业0213【纯农排变】,东安阳1270#农排|24001270【纯农排变】,西安阳土地整改新增农业3号（TD）2470【纯农排变】,东安阳土地整改新增农业1号（TD）4393【纯农排变】,东安阳村1220|24001220,西安阳新增农业1号（TD）0948【纯农排变】,西安阳1340#农排|24001340【纯农排变】,西白司城3号新增农业4435（TD）【纯农排变】,西安阳1030|24001030,西安阳村南1050|24001050,西安阳土地整改新增农业1号（TD）4403【纯农排变】,西安阳2650#农排|24002650【纯农排变】,三角村1110|24001110,李思庄1070#农排|24001070【纯农排变】,李思庄2300#农排|24002300【纯农排变】,三角1120#农排|24001120【纯农排变】,西白司城2760,李思庄土地整改新增农业2号（TD）4398【纯农排变】,东安阳土地整改新增农业3号（TD）2452【纯农排变】,西白司城村北1190|24001190,石连喜1330#农排|24001330【纯农排变】,东安阳新增农业1号（TD）0946【纯农排变】,西安阳村南2550|24002550,西安阳土地整改新增农业2号（TD）2466【纯农排变】,李思庄新增农业1号（TD）0950【纯农排变】,西白司城2号新增农业4433（TD）【纯农排变】,李思庄西南3573农排【纯农排变】","powerOffReason":"【停电原因】由于树枝搭线自行脱落造成跳闸导致３５ＫＶ安阳变电站１０ＫＶ５１５安阳线路全线停电【变更送电】因抢修进度加快原因，送电时间由２１：００变更为２０：００【发布渠道】通过９５５９８发布","powerOffId":"2019070213000229"},{"poweroffId":2019070213000187,"sgpoweroffId":null,"subsName":"","lineName":"10KV杨家庄516","pubTranName":"冀家沟村北3变压器【纯农排变】,樊家台村内变压器,冀家沟村内变压器,东明义村西变压器,冀家沟牛场变压器,冀家沟村北1变压器,冀家沟村西,冀家沟村内3变压器,冀家沟村东2变压器,冀家沟砖厂水变压器【纯农排变】,冀家沟村北2变压器,冀家沟村南变压器,","scope":"【影响街道/乡镇】明义镇 【高危重要客户】无 【影响客户】冀家沟村、樊家台村内、东明义村西","startTime":"2019-07-02 13:18:22","stopDate":"2019-07-02 16:00:00","orgNo":"1340614","typeCode":"电网故障停限电","poweroffArea":"【分支停电】停冀家沟村北3变压器【纯农排变】,樊家台村内变压器,冀家沟村内变压器,东明义村西变压器,冀家沟牛场变压器,冀家沟村北1变压器,冀家沟村西,冀家沟村内3变压器,冀家沟村东2变压器,冀家沟砖厂水变压器【纯农排变】,冀家沟村南变压器,冀家沟村北2变压器","poweroffReason":"【停电原因】由于设备线夹烧毁导致３５ＫＶ明义变电站１０ＫＶ杨家庄５１６线路０１号杆至２０号杆停电 【变更送电】因抢修进度加快原因，送电时间由１７：３０变更为１６：００ 【发布渠道】通过９５５９８发布","powerTime":"2019-07-02 15:38:30","powerComm":"已送电","subsNo":"","lineNo":"","tgNo":"","tgName":null,"infoStatus":"1","orgName":"国网涞水县供电公司","typeName":null,"infoStatusName":null,"dateDay":null,"orgNos":null,"nowTime":null,"countyName":null,"streetName":null,"villageName":null,"roadName":null,"communityName":null,"tranName":null,"sdLineName":null,"cityCode":"1340614","cityName":"国网涞水县供电公司","provinceCode":null,"stopTime":"2019-07-02 16:00:00","powerType":"全部","powerOffArea":"【分支停电】停冀家沟村北3变压器【纯农排变】,樊家台村内变压器,冀家沟村内变压器,东明义村西变压器,冀家沟牛场变压器,冀家沟村北1变压器,冀家沟村西,冀家沟村内3变压器,冀家沟村东2变压器,冀家沟砖厂水变压器【纯农排变】,冀家沟村南变压器,冀家沟村北2变压器","powerOffReason":"【停电原因】由于设备线夹烧毁导致３５ＫＶ明义变电站１０ＫＶ杨家庄５１６线路０１号杆至２０号杆停电 【变更送电】因抢修进度加快原因，送电时间由１７：３０变更为１６：００ 【发布渠道】通过９５５９８发布","powerOffId":"2019070213000187"},{"poweroffId":2019070213000171,"sgpoweroffId":null,"subsName":"","lineName":"10kV位村线513","pubTranName":"1魏村南街内5,1魏村南街内6,1魏村南街内2,","scope":"【影响街道/乡镇】魏村镇 【高危重要客户】无 【影响客户】魏村南街村","startTime":"2019-07-11 06:30:00","stopDate":"2019-07-11 18:00:00","orgNo":"1340618","typeCode":"计划停电","poweroffArea":"【分支停电】停1魏村南街内6,1魏村南街内2,1魏村南街内5","poweroffReason":"【停电原因】由于魏村南街变压器低压切改导致３５ＫＶ白团变电站１０ＫＶ位村线５１３线路主干６４号杆分支１号杆至１０号杆停电 【变更送电】无 【发布渠道】保定市清苑区电视台（２０１９年０７月０３日１９时至２０１９年０７月１０日２０时之间）屏幕上方滚动","powerTime":"2019-07-11 17:06:04","powerComm":"葛春景通知已送电","subsNo":"","lineNo":"","tgNo":"","tgName":null,"infoStatus":"1","orgName":"国网清苑县供电公司","typeName":null,"infoStatusName":null,"dateDay":null,"orgNos":null,"nowTime":null,"countyName":null,"streetName":null,"villageName":null,"roadName":null,"communityName":null,"tranName":null,"sdLineName":null,"cityCode":"1340618","cityName":"国网清苑县供电公司","provinceCode":null,"stopTime":"2019-07-11 18:00:00","powerType":"全部","powerOffArea":"【分支停电】停1魏村南街内6,1魏村南街内2,1魏村南街内5","powerOffReason":"【停电原因】由于魏村南街变压器低压切改导致３５ＫＶ白团变电站１０ＫＶ位村线５１３线路主干６４号杆分支１号杆至１０号杆停电 【变更送电】无 【发布渠道】保定市清苑区电视台（２０１９年０７月０３日１９时至２０１９年０７月１０日２０时之间）屏幕上方滚动","powerOffId":"2019070213000171"},{"poweroffId":2019070213000153,"sgpoweroffId":null,"subsName":"","lineName":"徐果庄线512","pubTranName":"高阳县晋庄镇北晋庄村三变压器,070020|徐果庄中南综合5238,北晋庄村东中综合,河北三益锌制品有限公司变压器,南尖农排1台区【纯农排变】,07156|徐果庄农业村东6#农排4932【纯农排变】,雷庄村里东综合台区,耿庄村西南1#农排【纯农排变】,徐果庄村南新增综合,北晋庄村北新增综合,万兴毛巾厂,耿庄村东北农排【纯农排变】,高阳县晋庄镇雷家庄村村委会二变压器,北晋庄村北农排1#【纯农排变】,07084|佐庄大队综合3684,康新良,双峰针织厂,07197|徐果庄村教堂综合5236,高阳县新源巾被厂,07205|徐果庄村东综合5231,070021|徐果庄村西大坑综合5240,徐果庄板厂新增综合,徐果庄西南新增2号综合,高阳县美辰纺纱厂变压器,07152|徐果庄农业村西2#农排4873【纯农排变】,北晋庄6号农排【纯农排变】,雷庄农排1号【纯农排变】,07222|佐庄村东北农排5494【纯农排变】,高阳县万通棉织厂电压器,永丰织物厂,阮庄3号农排台区【纯农排变】,刘新民变压器,07202|阮庄村西综合3595,阮庄1号台区农排【纯农排变】,高阳县舒雅特巾被有限公司变压器,雷庄村里新增综合,康雄伟,振国毛巾厂,北晋庄村北农排2#【纯农排变】,07032|雷庄综合3758,徐果庄大坑2号新增综合,高阳县晋庄乡中心卫生院变压器,阮庄村西南2#农排【纯农排变】,07200|阮庄村南综合3716,07153|徐果庄农业村东北路东农排4871【纯农排变】,07063|雷庄村西综合3732,徐果庄村南新增2号综合,北晋庄村西北新增综合,北晋庄西街口综合,高阳县禹恒棉织厂变压器,07223|佐庄村东北农排5496【纯农排变】,北晋庄9号农排【纯农排变】,徐果庄毛纺厂,高阳县晋阳针织厂减容250,07017|徐果庄村南综合5234,07225|佐庄村东边农排5492【纯农排变】,阮庄村东新增综合,高阳县晋庄镇北晋庄村五变压器,佐庄村东南综合,07092|北晋庄村东2#综合3730,高阳县平安汽车服务有限公司变压器,徐果庄西南新增综合,07221|佐庄村东农排5497【纯农排变】,07080|北晋庄东北方综合3572,高阳县平安机动车驾驶培训学校变压器,高阳县晋庄镇阮庄村村民委员会二变压器,阮庄村西2号新增综合,耿庄村西北2#农排【纯农排变】,07168|徐果庄农业村西南8#农排5081【纯农排变】,07155|徐果庄农业村东北路东农排4869【纯农排变】,北晋庄宋桥道综合,高阳县晋庄镇徐果庄村民委员会二号变压器,高阳县兴荣纺织品制造有限公司变压器,07167|徐果庄村南农业7#农排4931【纯农排变】,阮庄村西北新增综合,佐庄村西北新增综合,晋庄商店织布厂,徐果庄大队新增综合,北晋庄3号农排【纯农排变】,高阳县晋庄镇佐家庄村一变压器,高阳县富国毛巾厂变压器,高阳县晋庄镇佐家庄村二变压器,高阳县好丽纺织有限公司,徐果庄村北新增农业【纯农排变】,高阳县兴光棉织厂变压器,三益氧化锌厂,北晋庄4号农排【纯农排变】,李明发,高阳县康庄棉织厂变压器,07224|佐庄村北农排5493【纯农排变】,雷庄村西北新增综合,佐庄村北新增综合,07081|","scope":"【影响街道/乡镇】晋庄乡 【高危重要客户】无 【影响客户】耿庄、阮庄、佐庄（佐家庄）、雷庄（雷家庄）、徐果庄、北晋庄村北","startTime":"2019-07-02 12:20:00","stopDate":"2019-07-02 15:00:00","orgNo":"1340613","typeCode":"电网故障停限电","poweroffArea":"【全线路停电】停北晋庄3号农排【纯农排变】,07154|徐果庄农业村东北路西农排4870【纯农排变】,高阳县晋庄镇徐果庄村民委员会二号变压器,高阳县兴荣纺织品制造有限公司变压器,07167|徐果庄村南农业7#农排4931【纯农排变】,北晋庄7号农排【纯农排变】,高阳县晋庄镇耿庄村村委会变压器,雷庄农排1号【纯农排变】,07222|佐庄村东北农排5494【纯农排变】,高阳县万通棉织厂电压器,永丰织物厂,阮庄3号农排台区【纯农排变】,刘新民变压器,07202|阮庄村西综合3595,徐果庄西南新增综合,07221|佐庄村东农排5497【纯农排变】,雷庄农排2号【纯农排变】,07198|徐果庄村里综合5237,佐庄村东南综合,高阳县晋庄镇徐果庄村民委员会三号台区,新建毛纺厂,阮庄村西南新增综合,07028|徐果庄西南综合5233,07155|徐果庄农业村东北路东农排4869【纯农排变】,07203|阮庄村村北综合3614,阮庄村西北4#农排【纯农排变】,成都华川公路建设集团有限公司变压器,阮庄村西2号新增综合,耿庄村西北2#农排【纯农排变】,07168|徐果庄农业村西南8#农排5081【纯农排变】,北晋庄宋桥道综合,阮庄村西北新增综合,佐庄村西北新增综合,晋庄商店织布厂,徐果庄大队新增综合,07080|北晋庄东北方综合3572,阮庄1号台区农排【纯农排变】,高阳县晋庄镇阮庄村村民委员会二变压器,高阳县美辰纺纱厂变压器,北晋庄6号农排【纯农排变】,高阳县平安汽车服务有限公司变压器,徐果庄村南新增2号综合,高阳县平安机动车驾驶培训学校变压器,北晋庄村西北新增综合,北晋庄西街口综合,高阳县禹恒棉织厂变压器,07223|佐庄村东北农排5496【纯农排变】,07084|佐庄大队综合3684,07092|北晋庄村东2#综合3730,徐果庄村南新增综合,北晋庄9号农排【纯农排变】,双峰针织厂,高阳县晋庄镇佐家庄村一变压器,高阳县富国毛巾厂变压器,高阳县晋庄镇佐家庄村二变压器,高阳县好丽纺织有限公司,徐果庄村北新增农业【纯农排变】,高阳县兴光棉织厂变压器,三益氧化锌厂,北晋庄4号农排【纯农排变】,李明发,高阳县康庄棉织厂变压器,高阳县晋庄镇北晋庄村三变压器,07197|徐果庄村教堂综合5236,07152|徐果庄农业村西2#农排4873【纯农排变】,07224|佐庄村北农排5493【纯农排变】,雷庄村西北新增综合,佐庄村北新增综合,07081|北晋庄综合3578,徐果庄村东新增综合,高阳县平安机动车驾驶员培训学校变压器,高阳县晋庄乡杨家佐村民委员会二号变压器,070020|徐果庄中南综合5238,振国毛巾厂,北晋庄村东中综合,河北三益锌制品有限公司变压器,07156|徐果庄农业村东6#农排4932【纯农排变】,高阳县新源巾被厂,07205|徐果庄村东综合5231,070021|徐果庄村西大坑综合5240,徐果庄板厂新增综合,徐果庄西南新增2号综合,南尖农排1台区【纯农排变】,雷庄村里东综合台区,耿庄村西南1#农排【纯农排变】,北晋庄村北新增综合,万兴毛巾厂,耿庄村东北农排【纯农排变】,高阳县晋庄镇雷家庄村村委会二变压器,高阳县舒雅特巾被有限公司变压器,阮庄村西南2#农排【纯农排变】,雷庄村里新增综合,康雄伟,北晋庄村北农排2#【纯农排变】,07032|雷庄综合3758,徐果庄大坑2号新增综合,高阳县晋庄乡中心卫生院变压器,07200|阮庄村南综合3716,07153|徐果庄农业村东北路东农排4871【纯农排变】,07063|雷庄村西综合3732,07225|佐庄村东边农排5492【纯农排变】,阮庄村北新增综合,吉利毛巾厂,07169|耿庄村北综合3686,康新良,07151|徐果庄村西北农业1#农排4872【纯农排变】,阮庄村东新增综合,北晋庄村北农排1#【纯农排变】,徐果庄毛纺厂,高阳县晋阳针织厂减容250,07017|徐果庄","poweroffReason":"【停电原因】由于汽车撞杆导致３５ＫＶ杨佐变电站徐果庄５１２线路全线停电【变更送电】因抢修进度加快原因，送电时间由１８：００变更为１５：００【发布渠道】通过９５５９８发布","powerTime":"2019-07-02 14:38:15","powerComm":"已送电","subsNo":"","lineNo":"","tgNo":"","tgName":null,"infoStatus":"1","orgName":"国网高阳县供电公司","typeName":null,"infoStatusName":null,"dateDay":null,"orgNos":null,"nowTime":null,"countyName":null,"streetName":null,"villageName":null,"roadName":null,"communityName":null,"tranName":null,"sdLineName":null,"cityCode":"1340613","cityName":"国网高阳县供电公司","provinceCode":null,"stopTime":"2019-07-02 15:00:00","powerType":"全部","powerOffArea":"【全线路停电】停北晋庄3号农排【纯农排变】,07154|徐果庄农业村东北路西农排4870【纯农排变】,高阳县晋庄镇徐果庄村民委员会二号变压器,高阳县兴荣纺织品制造有限公司变压器,07167|徐果庄村南农业7#农排4931【纯农排变】,北晋庄7号农排【纯农排变】,高阳县晋庄镇耿庄村村委会变压器,雷庄农排1号【纯农排变】,07222|佐庄村东北农排5494【纯农排变】,高阳县万通棉织厂电压器,永丰织物厂,阮庄3号农排台区【纯农排变】,刘新民变压器,07202|阮庄村西综合3595,徐果庄西南新增综合,07221|佐庄村东农排5497【纯农排变】,雷庄农排2号【纯农排变】,07198|徐果庄村里综合5237,佐庄村东南综合,高阳县晋庄镇徐果庄村民委员会三号台区,新建毛纺厂,阮庄村西南新增综合,07028|徐果庄西南综合5233,07155|徐果庄农业村东北路东农排4869【纯农排变】,07203|阮庄村村北综合3614,阮庄村西北4#农排【纯农排变】,成都华川公路建设集团有限公司变压器,阮庄村西2号新增综合,耿庄村西北2#农排【纯农排变】,07168|徐果庄农业村西南8#农排5081【纯农排变】,北晋庄宋桥道综合,阮庄村西北新增综合,佐庄村西北新增综合,晋庄商店织布厂,徐果庄大队新增综合,07080|北晋庄东北方综合3572,阮庄1号台区农排【纯农排变】,高阳县晋庄镇阮庄村村民委员会二变压器,高阳县美辰纺纱厂变压器,北晋庄6号农排【纯农排变】,高阳县平安汽车服务有限公司变压器,徐果庄村南新增2号综合,高阳县平安机动车驾驶培训学校变压器,北晋庄村西北新增综合,北晋庄西街口综合,高阳县禹恒棉织厂变压器,07223|佐庄村东北农排5496【纯农排变】,07084|佐庄大队综合3684,07092|北晋庄村东2#综合3730,徐果庄村南新增综合,北晋庄9号农排【纯农排变】,双峰针织厂,高阳县晋庄镇佐家庄村一变压器,高阳县富国毛巾厂变压器,高阳县晋庄镇佐家庄村二变压器,高阳县好丽纺织有限公司,徐果庄村北新增农业【纯农排变】,高阳县兴光棉织厂变压器,三益氧化锌厂,北晋庄4号农排【纯农排变】,李明发,高阳县康庄棉织厂变压器,高阳县晋庄镇北晋庄村三变压器,07197|徐果庄村教堂综合5236,07152|徐果庄农业村西2#农排4873【纯农排变】,07224|佐庄村北农排5493【纯农排变】,雷庄村西北新增综合,佐庄村北新增综合,07081|北晋庄综合3578,徐果庄村东新增综合,高阳县平安机动车驾驶员培训学校变压器,高阳县晋庄乡杨家佐村民委员会二号变压器,070020|徐果庄中南综合5238,振国毛巾厂,北晋庄村东中综合,河北三益锌制品有限公司变压器,07156|徐果庄农业村东6#农排4932【纯农排变】,高阳县新源巾被厂,07205|徐果庄村东综合5231,070021|徐果庄村西大坑综合5240,徐果庄板厂新增综合,徐果庄西南新增2号综合,南尖农排1台区【纯农排变】,雷庄村里东综合台区,耿庄村西南1#农排【纯农排变】,北晋庄村北新增综合,万兴毛巾厂,耿庄村东北农排【纯农排变】,高阳县晋庄镇雷家庄村村委会二变压器,高阳县舒雅特巾被有限公司变压器,阮庄村西南2#农排【纯农排变】,雷庄村里新增综合,康雄伟,北晋庄村北农排2#【纯农排变】,07032|雷庄综合3758,徐果庄大坑2号新增综合,高阳县晋庄乡中心卫生院变压器,07200|阮庄村南综合3716,07153|徐果庄农业村东北路东农排4871【纯农排变】,07063|雷庄村西综合3732,07225|佐庄村东边农排5492【纯农排变】,阮庄村北新增综合,吉利毛巾厂,07169|耿庄村北综合3686,康新良,07151|徐果庄村西北农业1#农排4872【纯农排变】,阮庄村东新增综合,北晋庄村北农排1#【纯农排变】,徐果庄毛纺厂,高阳县晋阳针织厂减容250,07017|徐果庄","powerOffReason":"【停电原因】由于汽车撞杆导致３５ＫＶ杨佐变电站徐果庄５１２线路全线停电【变更送电】因抢修进度加快原因，送电时间由１８：００变更为１５：００【发布渠道】通过９５５９８发布","powerOffId":"2019070213000153"},{"poweroffId":2019070213000146,"sgpoweroffId":null,"subsName":"","lineName":"10kV554北城北庄线","pubTranName":"北城北庄混用2900|27002900,","scope":"【影响街道/乡镇】高于铺镇【高危重要客户】无【影响客户】北城北庄","startTime":"2019-07-02 11:35:54","stopDate":"2019-07-02 15:00:00","orgNo":"1340621","typeCode":"电网故障停限电","poweroffArea":"【单台区停电】停北城北庄混用2900|27002900","poweroffReason":"【停电原因】由于跌落烧毁导致１１０ＫＶ王各庄变电站１０ＫＶ５５４北城北庄线路北城北庄混用２９００公变台区停电【变更送电】无【发布渠道】通过９５５９８发布","powerTime":"2019-07-02 14:09:06","powerComm":"已送电","subsNo":"","lineNo":"","tgNo":"","tgName":null,"infoStatus":"1","orgName":"国网顺平县电力局","typeName":null,"infoStatusName":null,"dateDay":null,"orgNos":null,"nowTime":null,"countyName":null,"streetName":null,"villageName":null,"roadName":null,"communityName":null,"tranName":null,"sdLineName":null,"cityCode":"1340621","cityName":"国网顺平县电力局","provinceCode":null,"stopTime":"2019-07-02 15:00:00","powerType":"全部","powerOffArea":"【单台区停电】停北城北庄混用2900|27002900","powerOffReason":"【停电原因】由于跌落烧毁导致１１０ＫＶ王各庄变电站１０ＫＶ５５４北城北庄线路北城北庄混用２９００公变台区停电【变更送电】无【发布渠道】通过９５５９８发布","powerOffId":"2019070213000146"}],"pageModel":{"pageNow":876,"totalCount":10973,"totalPage":1098,"tableRows":0,"pageCount":10,"beginCount":8750},"isExperi":"1"}