{"message":"","today":"2020-06-15","seleList":[{"poweroffId":2019070113000472,"sgpoweroffId":null,"subsName":"","lineName":"吉河线516","pubTranName":"涞源县庆凯沙石购销有限责任公司变压器,涞源县隆森石材变压,银坊村2配变,沙地配变,变压器,吉河东配变,刘档选厂,涞源县鸿一铁选厂变压器,涞源县莲旺矿业有限责任公司变压器,大岔配变,小岔2配变,0680956387-涞源县隆森石材有限公司-专变-219725879-涞源县隆森石材有限公司变压器,小岔配变,涞源县隆森石材有限公司变压器,吉河配变,银坊北沟变压器,涞源县银坊镇银坊村村民委员会变压器,中交建冀交高速公路投资发展有限公司变压器,小岔水利变压器,银坊中心园变压器,","scope":"【影响街道/乡镇】银坊镇【高危重要客户】无【影响客户】吉河、沙地、小岔、小岔沟门、大岔、银坊幼儿园","startTime":"2019-07-01 23:01:34","stopDate":"2019-07-02 00:30:00","orgNo":"1340615","typeCode":"电网故障停限电","poweroffArea":"【全线路停电】停小岔2配变,涞源县庆凯沙石购销有限责任公司变压器,涞源县隆森石材变压,银坊村2配变,沙地配变,变压器,吉河东配变,刘档选厂,涞源县鸿一铁选厂变压器,涞源县莲旺矿业有限责任公司变压器,大岔配变,0680956387-涞源县隆森石材有限公司-专变-219725879-涞源县隆森石材有限公司变压器,小岔配变,涞源县隆森石材有限公司变压器,吉河配变,银坊北沟变压器,涞源县银坊镇银坊村村民委员会变压器,中交建冀交高速公路投资发展有限公司变压器,小岔水利变压器,银坊中心园变压器","poweroffReason":"【停电原因】由于３５ＫＶ浮矿线３１７线路Ｃ相接地导致３５ＫＶ张家坟变电站１０ＫＶ吉河线５１６线路全线停电【变更送电】因抢修进度加快，原定７月２日１：３０送电现计划７月２日００：３０送电【发布渠道】通过９５５９８发布","powerTime":"2019-07-01 23:43:37","powerComm":"已送电","subsNo":"","lineNo":"","tgNo":"","tgName":null,"infoStatus":"1","orgName":"国网涞源县供电公司","typeName":null,"infoStatusName":null,"dateDay":null,"orgNos":null,"nowTime":null,"countyName":null,"streetName":null,"villageName":null,"roadName":null,"communityName":null,"tranName":null,"sdLineName":null,"cityCode":"1340615","cityName":"国网涞源县供电公司","provinceCode":null,"stopTime":"2019-07-02 00:30:00","powerType":"全部","powerOffArea":"【全线路停电】停小岔2配变,涞源县庆凯沙石购销有限责任公司变压器,涞源县隆森石材变压,银坊村2配变,沙地配变,变压器,吉河东配变,刘档选厂,涞源县鸿一铁选厂变压器,涞源县莲旺矿业有限责任公司变压器,大岔配变,0680956387-涞源县隆森石材有限公司-专变-219725879-涞源县隆森石材有限公司变压器,小岔配变,涞源县隆森石材有限公司变压器,吉河配变,银坊北沟变压器,涞源县银坊镇银坊村村民委员会变压器,中交建冀交高速公路投资发展有限公司变压器,小岔水利变压器,银坊中心园变压器","powerOffReason":"【停电原因】由于３５ＫＶ浮矿线３１７线路Ｃ相接地导致３５ＫＶ张家坟变电站１０ＫＶ吉河线５１６线路全线停电【变更送电】因抢修进度加快，原定７月２日１：３０送电现计划７月２日００：３０送电【发布渠道】通过９５５９８发布","powerOffId":"2019070113000472"},{"poweroffId":2019070113000470,"sgpoweroffId":null,"subsName":"","lineName":"银坊线513","pubTranName":"牛栏2配变,银坊镇2配变,岭子北配变,五亩地2配变,南道神安置区变压器,五亩地配变,南道神配变,上铺平沟配变,鑫源金矿变压器,0469326231-小岭根金矿-专变-46776088-小岭根金矿,碾盘水利,下花沟配变,孙家沟配变,碾盘配变,涞源县银坊中心卫生院变压器,碾盘小学变压器,牛栏配变,小张家坟变压器,中国邮政集团公司河北省涞源县分公司变压器,涞源县璐宽饲养厂变压器,王家庄配变,次儿沟配变,岭子北沟门配变,银坊镇中学1#,银坊中学,银坊村配变,银坊中学变压器,北坛大桥配变,银坊镇配变,南沟配变,银坊村东配变,银炉台配变,0597000722-涞源县银海矿业有限责任公司-专变-126286876-涞源县银海矿业有限责任公司变压器,银坊村3配变,上铺配变,东沟配变,银坊镇水利,玉皇庵配变,南沟安置区1台区【三批中心村】,北坛配变,碾盘东沟2台区【三批中心村】,岭子北2配变,南沟2配变,涞源县银辉钙粉厂变压器,黄土梁子配变,南沟村光伏变压器【光伏】,涞源县信用联社变压器,碾盘岭子北3台区【三批中心村】,南沟水利变压器,碾盘2台区【三批中心村】,沙岭沟配变,银坊镇中学2#,银坊镇政府,涞源县意鼎矿产品购销有限公司变压器,柳树底配变,变压器,八亩安变压器,南沟安置区2台区【三批中心村】,中鲁国能(涞源)农业开发有限公司变压器,","scope":"【影响街道/乡镇】银坊镇【高危重要客户】无【影响客户】小张家坟、北坛、次沟、银坊、南沟、南道神、八亩安、孙家沟、下花沟、沙岭沟、碾盘、东沟、岭子北、西湾、玉皇沟门、牛栏、陈家铺、银炉台、黄土梁、平沟、上铺、柳树底、五亩地、王家庄、玉皇安、康家庄、银坊卫生院、银坊中学、碾盘小学","startTime":"2019-07-01 22:57:33","stopDate":"2019-07-02 00:30:00","orgNo":"1340615","typeCode":"电网故障停限电","poweroffArea":"【全线路停电】停下花沟配变,孙家沟配变,碾盘配变,碾盘小学变压器,牛栏配变,小张家坟变压器,中国邮政集团公司河北省涞源县分公司变压器,涞源县璐宽饲养厂变压器,王家庄配变,次儿沟配变,岭子北沟门配变,银坊镇中学1#,银坊中学,银坊村配变,银坊中学变压器,北坛大桥配变,银坊镇配变,碾盘2台区【三批中心村】,沙岭沟配变,银坊镇中学2#,银坊镇政府,涞源县意鼎矿产品购销有限公司变压器,柳树底配变,变压器,八亩安变压器,南沟安置区2台区【三批中心村】,中鲁国能(涞源)农业开发有限公司变压器,银坊村3配变,上铺配变,东沟配变,银坊镇水利,玉皇庵配变,南沟安置区1台区【三批中心村】,北坛配变,碾盘东沟2台区【三批中心村】,岭子北2配变,南沟2配变,涞源县银辉钙粉厂变压器,黄土梁子配变,南沟村光伏变压器【光伏】,涞源县信用联社变压器,南沟配变,银坊村东配变,银炉台配变,0597000722-涞源县银海矿业有限责任公司-专变-126286876-涞源县银海矿业有限责任公司变压器,碾盘岭子北3台区【三批中心村】,南沟水利变压器,碾盘水利,涞源县银坊中心卫生院变压器,牛栏2配变,银坊镇2配变,岭子北配变,五亩地2配变,南道神安置区变压器,五亩地配变,南道神配变,上铺平沟配变,鑫源金矿变压器,0469326231-小岭根金矿-专变-46776088-小岭根金矿","poweroffReason":"【停电原因】由于３５ＫＶ浮矿线３１７线路Ｃ相接地导致３５ＫＶ张家坟变电站１０ＫＶ银坊线５１３线路全线停电【变更送电】因抢修进度加快，原定７月２日３：００送电现计划７月２日００：３０送电【发布渠道】通过９５５９８发布","powerTime":"2019-07-01 23:44:18","powerComm":"已送电","subsNo":"","lineNo":"","tgNo":"","tgName":null,"infoStatus":"1","orgName":"国网涞源县供电公司","typeName":null,"infoStatusName":null,"dateDay":null,"orgNos":null,"nowTime":null,"countyName":null,"streetName":null,"villageName":null,"roadName":null,"communityName":null,"tranName":null,"sdLineName":null,"cityCode":"1340615","cityName":"国网涞源县供电公司","provinceCode":null,"stopTime":"2019-07-02 00:30:00","powerType":"全部","powerOffArea":"【全线路停电】停下花沟配变,孙家沟配变,碾盘配变,碾盘小学变压器,牛栏配变,小张家坟变压器,中国邮政集团公司河北省涞源县分公司变压器,涞源县璐宽饲养厂变压器,王家庄配变,次儿沟配变,岭子北沟门配变,银坊镇中学1#,银坊中学,银坊村配变,银坊中学变压器,北坛大桥配变,银坊镇配变,碾盘2台区【三批中心村】,沙岭沟配变,银坊镇中学2#,银坊镇政府,涞源县意鼎矿产品购销有限公司变压器,柳树底配变,变压器,八亩安变压器,南沟安置区2台区【三批中心村】,中鲁国能(涞源)农业开发有限公司变压器,银坊村3配变,上铺配变,东沟配变,银坊镇水利,玉皇庵配变,南沟安置区1台区【三批中心村】,北坛配变,碾盘东沟2台区【三批中心村】,岭子北2配变,南沟2配变,涞源县银辉钙粉厂变压器,黄土梁子配变,南沟村光伏变压器【光伏】,涞源县信用联社变压器,南沟配变,银坊村东配变,银炉台配变,0597000722-涞源县银海矿业有限责任公司-专变-126286876-涞源县银海矿业有限责任公司变压器,碾盘岭子北3台区【三批中心村】,南沟水利变压器,碾盘水利,涞源县银坊中心卫生院变压器,牛栏2配变,银坊镇2配变,岭子北配变,五亩地2配变,南道神安置区变压器,五亩地配变,南道神配变,上铺平沟配变,鑫源金矿变压器,0469326231-小岭根金矿-专变-46776088-小岭根金矿","powerOffReason":"【停电原因】由于３５ＫＶ浮矿线３１７线路Ｃ相接地导致３５ＫＶ张家坟变电站１０ＫＶ银坊线５１３线路全线停电【变更送电】因抢修进度加快，原定７月２日３：００送电现计划７月２日００：３０送电【发布渠道】通过９５５９８发布","powerOffId":"2019070113000470"},{"poweroffId":2019070113000468,"sgpoweroffId":null,"subsName":"","lineName":"松树台线512","pubTranName":"松树台配变,邸玉选厂,吉河村光伏变压器【光伏】,吉河2配变,0558340681-涞唐选厂-专变-115200832-变压器,石塘庄,吉河村小学变压器,王子会2配变,王旭石粉厂,王子会新增【三批中心村】,稻子沟,松树台2台区【三批中心村】,涞源县林宏果树种植农民专业合作社变压器,王子会配变,北沟配变【三批中心村】,吉河北沟2配变,百叶,","scope":"【影响街道/乡镇】银坊镇【高危重要客户】无【影响客户】吉河村西、吉河北沟、松树台、王子会、柏叶、稻子沟、石塘庄、次林沟门","startTime":"2019-07-01 22:54:02","stopDate":"2019-07-02 00:30:00","orgNo":"1340615","typeCode":"电网故障停限电","poweroffArea":"【全线路停电】停涞源县林宏果树种植农民专业合作社变压器,松树台2台区【三批中心村】,王子会配变,北沟配变【三批中心村】,吉河北沟2配变,百叶,松树台配变,邸玉选厂,吉河村光伏变压器【光伏】,吉河2配变,0558340681-涞唐选厂-专变-115200832-变压器,石塘庄,吉河村小学变压器,王子会2配变,王旭石粉厂,王子会新增【三批中心村】,稻子沟","poweroffReason":"【停电原因】由于３５ＫＶ浮矿线３１７线路Ｃ相接地导致３５ＫＶ张家坟变电站１０ＫＶ松树台线５１２线路全线停电【变更送电】因抢修进度加快，原定７月２日３：００送电现计划７月２日００：３０送电【发布渠道】通过９５５９８发布","powerTime":"2019-07-01 23:44:56","powerComm":"已送电","subsNo":"","lineNo":"","tgNo":"","tgName":null,"infoStatus":"1","orgName":"国网涞源县供电公司","typeName":null,"infoStatusName":null,"dateDay":null,"orgNos":null,"nowTime":null,"countyName":null,"streetName":null,"villageName":null,"roadName":null,"communityName":null,"tranName":null,"sdLineName":null,"cityCode":"1340615","cityName":"国网涞源县供电公司","provinceCode":null,"stopTime":"2019-07-02 00:30:00","powerType":"全部","powerOffArea":"【全线路停电】停涞源县林宏果树种植农民专业合作社变压器,松树台2台区【三批中心村】,王子会配变,北沟配变【三批中心村】,吉河北沟2配变,百叶,松树台配变,邸玉选厂,吉河村光伏变压器【光伏】,吉河2配变,0558340681-涞唐选厂-专变-115200832-变压器,石塘庄,吉河村小学变压器,王子会2配变,王旭石粉厂,王子会新增【三批中心村】,稻子沟","powerOffReason":"【停电原因】由于３５ＫＶ浮矿线３１７线路Ｃ相接地导致３５ＫＶ张家坟变电站１０ＫＶ松树台线５１２线路全线停电【变更送电】因抢修进度加快，原定７月２日３：００送电现计划７月２日００：３０送电【发布渠道】通过９５５９８发布","powerOffId":"2019070113000468"},{"poweroffId":2019070113000457,"sgpoweroffId":null,"subsName":"","lineName":"10KV祖各庄514","pubTranName":"张翠台村北2号台区,张翠台砖厂井变压器,0611825203-保定翔海旅游开发有限公司-专变-127816772-翔海旅游315KVA专变,祖各庄西南台区,涞水龙博建材有限公司新增250KVA专变,北辛庄村西北台区,涞水双开饲养有限公司新增变压器,涞水润鑫建材二分厂250,吴各庄村内,0646673503-涞水县航航水泥制品厂-专变-169896449-涞水县航航水泥制品厂新增变压器315KVA,吴各庄村内2台区,北辛庄西台区,张翠台面粉厂,祖各庄砖厂,承装公司杆厂,祖各庄村配变柱上变压器,祖各庄砖厂2,张翠台东台区,祖各庄楼板厂,张翠台高速井,张翠台变压器,吴各庄北台区,吴各庄西南台区,下庄西井【纯农排变】,北辛庄公路边台区,祖各庄新东台区,下庄,祖各庄西北变压器,长和水泥构件,吴各庄公路边变压器,张翠台村内2,涞水县保北电气安装有限公司200KVA专变,鑫磊石粉厂,张翠台村北8号井变压器,张涿高速涞水互通收费站630KVA专变,张翠台村北台区,北辛庄五方井变压器【纯农排变】,北辛庄东台区,北辛庄三岔井变压器,0469315631-王村粮站-专变-46774540-王村粮站,南横七北井变压器,北辛庄河套井台区（西）,张翠台2号井变压器,下庄北井2变压器【纯农排变】,北辛庄北井变压器,祖各庄村内台区,新兴纸箱厂,北辛庄村东北台区,瑞兴隆建材厂,下庄西台区,祖各庄东南台区变压器,张翠台村内台区,吴各庄小学院内变压器,张翠台万红光机井变压器,0469315367-王村中学-专变-46774539-王村中学,张翠台所北台区,祖各庄东坑台区变压器,王村供电所,北辛庄村南台区,0679135049-涞水龙博建材有限公司-专变-218835593-涞水龙博建材有限公司800KVA专变,国网河北省电力有限公司涿州市供电分公司200KVA专变,王村中学箱变间隔配电变压器,祖各庄南台区,吴各庄村西,张翠台村北3,张翠台北井变压器,涿州市供电有限责任公司,北辛庄村西海峰,","scope":"【影响街道/乡镇】王村乡 【高危重要客户】无 【影响客户】祖各庄村、吴各庄村、张翠台村、下庄村、北辛庄村","startTime":"2019-07-01 22:22:28","stopDate":"2019-07-01 23:30:00","orgNo":"1340614","typeCode":"电网故障停限电","poweroffArea":"【全线路停电】停张翠台村北2号台区,张翠台砖厂井变压器,0611825203-保定翔海旅游开发有限公司-专变-127816772-翔海旅游315KVA专变,祖各庄西南台区,涞水龙博建材有限公司新增250KVA专变,北辛庄村西北台区,涞水双开饲养有限公司新增变压器,涞水润鑫建材二分厂250,吴各庄村内,0646673503-涞水县航航水泥制品厂-专变-169896449-涞水县航航水泥制品厂新增变压器315KVA,吴各庄村内2台区,北辛庄西台区,张翠台面粉厂,祖各庄砖厂,承装公司杆厂,祖各庄村配变柱上变压器,祖各庄砖厂2,张翠台东台区,祖各庄楼板厂,张翠台高速井,张翠台变压器,吴各庄北台区,吴各庄西南台区,下庄西井【纯农排变】,北辛庄公路边台区,祖各庄新东台区,下庄,祖各庄西北变压器,长和水泥构件,吴各庄公路边变压器,张翠台村内2,涞水县保北电气安装有限公司200KVA专变,鑫磊石粉厂,张翠台村北8号井变压器,张涿高速涞水互通收费站630KVA专变,张翠台村北台区,北辛庄五方井变压器【纯农排变】,北辛庄东台区,北辛庄三岔井变压器,0469315631-王村粮站-专变-46774540-王村粮站,南横七北井变压器,北辛庄河套井台区（西）,张翠台2号井变压器,下庄北井2变压器【纯农排变】,北辛庄北井变压器,祖各庄村内台区,新兴纸箱厂,北辛庄村东北台区,北辛庄村西海峰,瑞兴隆建材厂,下庄西台区,祖各庄东南台区变压器,张翠台村内台区,吴各庄小学院内变压器,张翠台万红光机井变压器,0469315367-王村中学-专变-46774539-王村中学,张翠台所北台区,祖各庄东坑台区变压器,王村供电所,北辛庄村南台区,0679135049-涞水龙博建材有限公司-专变-218835593-涞水龙博建材有限公司800KVA专变,国网河北省电力有限公司涿州市供电分公司200KVA专变,王村中学箱变间隔配电变压器,祖各庄南台区,吴各庄村西,张翠台村北3,张翠台北井变压器,涿州市供电有限责任公司","poweroffReason":"【停电原因】由于速断跳闸导致３５ＫＶ王村变电站１０ＫＶ祖各庄５１４线路全线停电 【变更送电】因抢修进度加快原因，送电时间由０７月０２日０１：００变更为０７月０１日２３：3０ 【发布渠道】通过９５５９８发布","powerTime":"2019-07-01 23:11:22","powerComm":"已送电","subsNo":"","lineNo":"","tgNo":"","tgName":null,"infoStatus":"1","orgName":"国网涞水县供电公司","typeName":null,"infoStatusName":null,"dateDay":null,"orgNos":null,"nowTime":null,"countyName":null,"streetName":null,"villageName":null,"roadName":null,"communityName":null,"tranName":null,"sdLineName":null,"cityCode":"1340614","cityName":"国网涞水县供电公司","provinceCode":null,"stopTime":"2019-07-01 23:30:00","powerType":"全部","powerOffArea":"【全线路停电】停张翠台村北2号台区,张翠台砖厂井变压器,0611825203-保定翔海旅游开发有限公司-专变-127816772-翔海旅游315KVA专变,祖各庄西南台区,涞水龙博建材有限公司新增250KVA专变,北辛庄村西北台区,涞水双开饲养有限公司新增变压器,涞水润鑫建材二分厂250,吴各庄村内,0646673503-涞水县航航水泥制品厂-专变-169896449-涞水县航航水泥制品厂新增变压器315KVA,吴各庄村内2台区,北辛庄西台区,张翠台面粉厂,祖各庄砖厂,承装公司杆厂,祖各庄村配变柱上变压器,祖各庄砖厂2,张翠台东台区,祖各庄楼板厂,张翠台高速井,张翠台变压器,吴各庄北台区,吴各庄西南台区,下庄西井【纯农排变】,北辛庄公路边台区,祖各庄新东台区,下庄,祖各庄西北变压器,长和水泥构件,吴各庄公路边变压器,张翠台村内2,涞水县保北电气安装有限公司200KVA专变,鑫磊石粉厂,张翠台村北8号井变压器,张涿高速涞水互通收费站630KVA专变,张翠台村北台区,北辛庄五方井变压器【纯农排变】,北辛庄东台区,北辛庄三岔井变压器,0469315631-王村粮站-专变-46774540-王村粮站,南横七北井变压器,北辛庄河套井台区（西）,张翠台2号井变压器,下庄北井2变压器【纯农排变】,北辛庄北井变压器,祖各庄村内台区,新兴纸箱厂,北辛庄村东北台区,北辛庄村西海峰,瑞兴隆建材厂,下庄西台区,祖各庄东南台区变压器,张翠台村内台区,吴各庄小学院内变压器,张翠台万红光机井变压器,0469315367-王村中学-专变-46774539-王村中学,张翠台所北台区,祖各庄东坑台区变压器,王村供电所,北辛庄村南台区,0679135049-涞水龙博建材有限公司-专变-218835593-涞水龙博建材有限公司800KVA专变,国网河北省电力有限公司涿州市供电分公司200KVA专变,王村中学箱变间隔配电变压器,祖各庄南台区,吴各庄村西,张翠台村北3,张翠台北井变压器,涿州市供电有限责任公司","powerOffReason":"【停电原因】由于速断跳闸导致３５ＫＶ王村变电站１０ＫＶ祖各庄５１４线路全线停电 【变更送电】因抢修进度加快原因，送电时间由０７月０２日０１：００变更为０７月０１日２３：3０ 【发布渠道】通过９５５９８发布","powerOffId":"2019070113000457"},{"poweroffId":2019070113000450,"sgpoweroffId":null,"subsName":"","lineName":"10kV东文山517","pubTranName":"南七山混用,北七山桑树坡,东文山乡政府变压器,郭宝林,坛山村东北变压器【纯农排变】,顺通钙粉厂,北七山王家大院变压器,北七山村东南变压器,老铁自来水,安家洼收费站西井【纯农排变】,淮河村西南变压器,南七山桥南台区变压器,王金秋(3),涞水曙光化工,涞水县坤诚石灰制造有限公司250KVA专变,北七山南大扇51-1|0556,永乐水泥厂2,北七山北台区变压器,涞水研磊水泥制品有限责任公司,西长堤村东北变压器,恒盛建材有限公司400KVA专变,淮河北井变压器,上车亭小东坡台区变压器,南七山西台变压器,淮河村西南井变压器【纯农排变】,涞水县恒盛建材有限公司400KVA变压器,上车亭黑山变压器【纯农排变】,南兵上村西台区变压器,牛各庄村东阻断井变压器【纯农排变】,牛各庄村内变压器,北兵上村西变变压器,西武山东台变压器,西武山村北变压器,聚成石灰400KVA变压器专变,姬文成钙粉厂,西武山小东台变压器,坛山村东井2变压器,河北九达建工集团有限公司800KVA专变,王金秋灰粉二厂,万雄建材厂,东文山大棚菜变压器,东长堤北二台区,北七山北山坡井【纯农排变】,北七山村西果园台区变压器,北七山色坡井台区变压器【纯农排变】,淮河东台变压器,牛南台区变压器,南七山村东井,东文山机井变压器,河北九达建工新增变压器400KVA,0468881571-河北开源化工有限公司-专变-119551522-开源化工厂,西武山大坡井变压器【纯农排变】,北七山村东北变压器,顺通钙粉厂400KVA专变,上车亭村西台区变压器,涞水精顺滑石粉有限公司500KVA专变,东文山供电所,东文山东台,北兵上学校变压器,北兵上村内台区变压器,北七山西井,西长堤自来水台区变压器,涞水研磊水泥制品有限责任公司250KVA,东长堤村北台区变压器,南七山村村内变压器,东长堤炮厂变压器,南兵上西南台区变压器,鑫兴建材专变315,北七山蜂窝井变压器,涞水县天顺石灰制造有限公司200KVA专变,王金秋,西武山村南变压器,鑫兴建材专变200,东长堤村西北变压器,宝山灰粉厂,东长堤村东北变压器,东长堤村西台区变压器,北兵上村北变压器【纯农排变】,中凯建设（开源化工厂）50,南七山南台区变压器,京昆涞水服务区东充电桩母线间隔配电变压器,涞水县文山供水有限公司630KVA专变,南七山机井,变压器,京昆涞水服务区西充电桩母线间隔配电变压器,北七山东坡井变压器【纯农排变】,北兵上村南台区变压器,涞水县威鹏矿物饲料厂500KVA专变,牛各庄村西变压器,北七山西台,西长堤北井变压器【纯农排变】,淮河村北台区变压器,淮河西井变压器,西武山村西台区变压器,北兵上村东变压器,河北开源化工有限公司250KVA专变,上车亭大队石头坑变压器,西武山机井变压器,北七山西南井变压器,南兵上村北台区,北七山大沟井台区变压器【纯农排变】,北七山村南变压器【冬季供暖设施】,淮河学校变压器,北七山村东台区变压器,牛各庄二大队台区变压器【纯农排变】,东长堤刘俊井变压器【纯农排变】,上车亭村南变变压器,西长堤村东台区变压器,坤诚石灰制造有限公司400KVA专变,西租村西南【纯农排变】,北七山西山坡井变压器【纯农排变】,北七山村东北井","scope":"【影响街道/乡镇】东文山乡 【高危重要客户】无 【影响客户】南兵上村、北兵上村、东文山村东、西武山村、淮河村、南七山村、北七山村、东长堤村、西长堤村、牛各庄村、上车亭村南及西南用户","startTime":"2019-07-01 22:08:47","stopDate":"2019-07-01 23:20:00","orgNo":"1340614","typeCode":"电网故障停限电","poweroffArea":"【全线路停电】停永乐水泥厂2,北七山北台区变压器,涞水研磊水泥制品有限责任公司,西长堤村东北变压器,恒盛建材有限公司400KVA专变,淮河北井变压器,上车亭小东坡台区变压器,南七山西台变压器,淮河村西南井变压器【纯农排变】,涞水县恒盛建材有限公司400KVA变压器,上车亭黑山变压器【纯农排变】,南兵上村西台区变压器,牛各庄村东阻断井变压器【纯农排变】,牛各庄村内变压器,北兵上村西变变压器,西武山东台变压器,西武山村北变压器,聚成石灰400KVA变压器专变,姬文成钙粉厂,西武山小东台变压器,坛山村东井2变压器,南七山混用,北七山桑树坡,东文山乡政府变压器,郭宝林,南七山桥南台区变压器,王金秋(3),涞水曙光化工,涞水县坤诚石灰制造有限公司250KVA专变,北七山南大扇51-1|0556,宝山灰粉厂,河北九达建工集团有限公司800KVA专变,王金秋灰粉二厂,万雄建材厂,东文山大棚菜变压器,东长堤北二台区,北七山北山坡井【纯农排变】,坛山村东北变压器【纯农排变】,顺通钙粉厂,北七山王家大院变压器,北七山村东南变压器,老铁自来水,安家洼收费站西井【纯农排变】,淮河村西南变压器,北七山村西果园台区变压器,北七山色坡井台区变压器【纯农排变】,淮河东台变压器,牛南台区变压器,南七山村东井,东文山机井变压器,河北九达建工新增变压器400KVA,0468881571-河北开源化工有限公司-专变-119551522-开源化工厂,西武山大坡井变压器【纯农排变】,北七山村东北变压器,顺通钙粉厂400KVA专变,上车亭村西台区变压器,涞水精顺滑石粉有限公司500KVA专变,东文山供电所,东文山东台,北兵上学校变压器,北兵上村内台区变压器,北七山西井,西长堤自来水台区变压器,涞水研磊水泥制品有限责任公司250KVA,东长堤村北台区变压器,南七山村村内变压器,东长堤炮厂变压器,南兵上西南台区变压器,鑫兴建材专变315,北七山蜂窝井变压器,涞水县天顺石灰制造有限公司200KVA专变,王金秋,西武山村南变压器,鑫兴建材专变200,东长堤村西北变压器,东长堤村东北变压器,东长堤村西台区变压器,北兵上村北变压器【纯农排变】,中凯建设（开源化工厂）50,南七山南台区变压器,京昆涞水服务区东充电桩母线间隔配电变压器,涞水县文山供水有限公司630KVA专变,南七山机井,变压器,京昆涞水服务区西充电桩母线间隔配电变压器,北七山东坡井变压器【纯农排变】,北兵上村南台区变压器,涞水县威鹏矿物饲料厂500KVA专变,牛各庄村西变压器,北七山西台,西长堤北井变压器【纯农排变】,淮河村北台区变压器,淮河西井变压器,西武山村西台区变压器,北兵上村东变压器,河北开源化工有限公司250KVA专变,上车亭大队石头坑变压器,西武山机井变压器,北七山西南井变压器,南兵上村北台区,北七山大沟井台区变压器【纯农排变】,北七山村南变压器【冬季供暖设施】,淮河学校变压器,北七山村东台区变压器,牛各庄二大队台区变压器【纯农排变】,东长堤刘俊井变压器【纯农排变】,上车亭村南变变压器,西长堤村东台区变压器,坤诚石灰制造有限公司400KVA专变,西租村西南【纯农排变】,北七山西山坡井变压器【纯农排变】,北七山村东北井变压器【纯农排变】,牛各庄村南变压器,0646299989-涞水县天顺石灰制造有限公司-专变-169827598-涞水县天顺石灰制造有限公司400KVA专变,涞水县残联福利纸箱厂,淮河面粉厂,北七山村北井变压器【纯农排变】,西长堤北山坡台区变压器,淮河村西台区变压器,上车亭村西南变压器,上车亭小南庄变压器【纯农排变】,东长堤村东台区变压器,涞水瑞鼎石灰制造","poweroffReason":"【停电原因】由于Ａ相接地导致１１０ＫＶ涞水变电站１０ＫＶ东文山５１７线路全线停电 【变更送电】因抢修进度加快原因，送电时间由０７月０２日０１：００变更为０７月０１日２３：２０ 【发布渠道】通过９５５９８发布","powerTime":"2019-07-01 23:01:31","powerComm":"已送电","subsNo":"","lineNo":"","tgNo":"","tgName":null,"infoStatus":"1","orgName":"国网涞水县供电公司","typeName":null,"infoStatusName":null,"dateDay":null,"orgNos":null,"nowTime":null,"countyName":null,"streetName":null,"villageName":null,"roadName":null,"communityName":null,"tranName":null,"sdLineName":null,"cityCode":"1340614","cityName":"国网涞水县供电公司","provinceCode":null,"stopTime":"2019-07-01 23:20:00","powerType":"全部","powerOffArea":"【全线路停电】停永乐水泥厂2,北七山北台区变压器,涞水研磊水泥制品有限责任公司,西长堤村东北变压器,恒盛建材有限公司400KVA专变,淮河北井变压器,上车亭小东坡台区变压器,南七山西台变压器,淮河村西南井变压器【纯农排变】,涞水县恒盛建材有限公司400KVA变压器,上车亭黑山变压器【纯农排变】,南兵上村西台区变压器,牛各庄村东阻断井变压器【纯农排变】,牛各庄村内变压器,北兵上村西变变压器,西武山东台变压器,西武山村北变压器,聚成石灰400KVA变压器专变,姬文成钙粉厂,西武山小东台变压器,坛山村东井2变压器,南七山混用,北七山桑树坡,东文山乡政府变压器,郭宝林,南七山桥南台区变压器,王金秋(3),涞水曙光化工,涞水县坤诚石灰制造有限公司250KVA专变,北七山南大扇51-1|0556,宝山灰粉厂,河北九达建工集团有限公司800KVA专变,王金秋灰粉二厂,万雄建材厂,东文山大棚菜变压器,东长堤北二台区,北七山北山坡井【纯农排变】,坛山村东北变压器【纯农排变】,顺通钙粉厂,北七山王家大院变压器,北七山村东南变压器,老铁自来水,安家洼收费站西井【纯农排变】,淮河村西南变压器,北七山村西果园台区变压器,北七山色坡井台区变压器【纯农排变】,淮河东台变压器,牛南台区变压器,南七山村东井,东文山机井变压器,河北九达建工新增变压器400KVA,0468881571-河北开源化工有限公司-专变-119551522-开源化工厂,西武山大坡井变压器【纯农排变】,北七山村东北变压器,顺通钙粉厂400KVA专变,上车亭村西台区变压器,涞水精顺滑石粉有限公司500KVA专变,东文山供电所,东文山东台,北兵上学校变压器,北兵上村内台区变压器,北七山西井,西长堤自来水台区变压器,涞水研磊水泥制品有限责任公司250KVA,东长堤村北台区变压器,南七山村村内变压器,东长堤炮厂变压器,南兵上西南台区变压器,鑫兴建材专变315,北七山蜂窝井变压器,涞水县天顺石灰制造有限公司200KVA专变,王金秋,西武山村南变压器,鑫兴建材专变200,东长堤村西北变压器,东长堤村东北变压器,东长堤村西台区变压器,北兵上村北变压器【纯农排变】,中凯建设（开源化工厂）50,南七山南台区变压器,京昆涞水服务区东充电桩母线间隔配电变压器,涞水县文山供水有限公司630KVA专变,南七山机井,变压器,京昆涞水服务区西充电桩母线间隔配电变压器,北七山东坡井变压器【纯农排变】,北兵上村南台区变压器,涞水县威鹏矿物饲料厂500KVA专变,牛各庄村西变压器,北七山西台,西长堤北井变压器【纯农排变】,淮河村北台区变压器,淮河西井变压器,西武山村西台区变压器,北兵上村东变压器,河北开源化工有限公司250KVA专变,上车亭大队石头坑变压器,西武山机井变压器,北七山西南井变压器,南兵上村北台区,北七山大沟井台区变压器【纯农排变】,北七山村南变压器【冬季供暖设施】,淮河学校变压器,北七山村东台区变压器,牛各庄二大队台区变压器【纯农排变】,东长堤刘俊井变压器【纯农排变】,上车亭村南变变压器,西长堤村东台区变压器,坤诚石灰制造有限公司400KVA专变,西租村西南【纯农排变】,北七山西山坡井变压器【纯农排变】,北七山村东北井变压器【纯农排变】,牛各庄村南变压器,0646299989-涞水县天顺石灰制造有限公司-专变-169827598-涞水县天顺石灰制造有限公司400KVA专变,涞水县残联福利纸箱厂,淮河面粉厂,北七山村北井变压器【纯农排变】,西长堤北山坡台区变压器,淮河村西台区变压器,上车亭村西南变压器,上车亭小南庄变压器【纯农排变】,东长堤村东台区变压器,涞水瑞鼎石灰制造","powerOffReason":"【停电原因】由于Ａ相接地导致１１０ＫＶ涞水变电站１０ＫＶ东文山５１７线路全线停电 【变更送电】因抢修进度加快原因，送电时间由０７月０２日０１：００变更为０７月０１日２３：２０ 【发布渠道】通过９５５９８发布","powerOffId":"2019070113000450"},{"poweroffId":2019070113000448,"sgpoweroffId":null,"subsName":"","lineName":"灌城线511","pubTranName":"十八渡4850变压器,坡上水利2241变压器【纯农排变】,坡上养殖1123,坡下北1100变压器,坡下4557变压器,灌城内1103变压器,0387521206-唐县安顺石料厂-专变-45338842-唐县安顺石料厂3365,东庄湾1105变压器,十八渡2857变压器,东庄湾西南水3103变压器【纯农排变】,岭底村1898变压器,十八渡1117变压器,十八渡1107变压器,坡下1118变压器,北屯村1102变压器,南屯村荒山2612变压器【纯农排变】,丰山庄1109变压器,北屯村5046变压器,东庄湾西4025变压器,坡上4983变压器,坡上村1099变压器【纯农排变】,北屯浇地水利1101变压器【纯农排变】,灌城村1971变压器【纯农排变】,南屯村0673变压器,十八渡1982变压器,邸玉龙水2387变压器【纯农排变】,风山庄4809变压器,十八渡4984变压器,南屯村1113变压器【纯农排变】,坡上村1114变压器,岭底村1110变压器,东庄湾水利2663变压器【纯农排变】,坡上村0676变压器,东庄湾1122变压器,丰山庄1140变压器,十八渡1108变压器【纯农排变】,南屯村2296变压器,坡上村1098变压器【纯农排变】,坡下4812变压器,坡上3252变压器,南屯村2964变压器【纯农排变】,唐县兴华水泥砖厂3313,十八渡2046变压器【纯农排变】,坡上4810变压器,东庄湾4828变压器,唐县杰顺荒山开发有限公司5001,东庄湾2851变压器,北屯村0681变压器,灌城村1120变压器,灌城村1116变压器【纯农排变】,坡下1972变压器【纯农排变】,东庄湾荒山开发有限公司3386变压器,灌城村北4026变压器,南屯6039变压器,灌城4813变压器,南屯村1096变压器,","scope":"【影响街道/乡镇】罗庄乡【高危重要客户】无【影响客户】坡上、东庄湾、北屯、南屯、灌城、坡下、风山庄、十八渡","startTime":"2019-07-01 22:03:51","stopDate":"2019-07-01 23:30:00","orgNo":"1340622","typeCode":"电网故障停限电","poweroffArea":"【全线路停电】停东庄湾2851变压器,岭底村1110变压器,十八渡1108变压器【纯农排变】,南屯村2296变压器,十八渡1117变压器,坡上村0676变压器,0387521206-唐县安顺石料厂-专变-45338842-唐县安顺石料厂3365,十八渡1107变压器,北屯村1102变压器,丰山庄1109变压器,坡下1972变压器【纯农排变】,南屯6039变压器,东庄湾1122变压器,坡上水利2241变压器【纯农排变】,风山庄4809变压器,东庄湾水利2663变压器【纯农排变】,北屯村0681变压器,坡下1118变压器,坡下北1100变压器,坡下4812变压器,丰山庄1140变压器,东庄湾1105变压器,十八渡4984变压器,十八渡1982变压器,唐县兴华水泥砖厂3313,南屯村1113变压器【纯农排变】,南屯村荒山2612变压器【纯农排变】,东庄湾西南水3103变压器【纯农排变】,唐县杰顺荒山开发有限公司5001,坡上4810变压器,坡下4557变压器,南屯村0673变压器,坡上村1098变压器【纯农排变】,灌城内1103变压器,坡上村1114变压器,东庄湾4828变压器,灌城村北4026变压器,东庄湾西4025变压器,北屯村5046变压器,十八渡4850变压器,坡上4983变压器,灌城4813变压器,坡上养殖1123,南屯村2964变压器【纯农排变】,岭底村1898变压器,十八渡2857变压器,灌城村1971变压器【纯农排变】,坡上村1099变压器【纯农排变】,坡上3252变压器,南屯村1096变压器,东庄湾荒山开发有限公司3386变压器,邸玉龙水2387变压器【纯农排变】,灌城村1120变压器,北屯浇地水利1101变压器【纯农排变】,灌城村1116变压器【纯农排变】,十八渡2046变压器【纯农排变】","poweroffReason":"【停电原因】由于线路接地导致３５ＫＶ西大洋变电站灌城线５１１线路全线停电【变更送电】因抢修进度加快原因，送电时间由２日１２：００变更为１日２３：３０【发布渠道】通过９５５９８发布","powerTime":"2019-07-01 22:46:42","powerComm":"已送电","subsNo":"","lineNo":"","tgNo":"","tgName":null,"infoStatus":"1","orgName":"国网唐县供电公司","typeName":null,"infoStatusName":null,"dateDay":null,"orgNos":null,"nowTime":null,"countyName":null,"streetName":null,"villageName":null,"roadName":null,"communityName":null,"tranName":null,"sdLineName":null,"cityCode":"1340622","cityName":"国网唐县供电公司","provinceCode":null,"stopTime":"2019-07-01 23:30:00","powerType":"全部","powerOffArea":"【全线路停电】停东庄湾2851变压器,岭底村1110变压器,十八渡1108变压器【纯农排变】,南屯村2296变压器,十八渡1117变压器,坡上村0676变压器,0387521206-唐县安顺石料厂-专变-45338842-唐县安顺石料厂3365,十八渡1107变压器,北屯村1102变压器,丰山庄1109变压器,坡下1972变压器【纯农排变】,南屯6039变压器,东庄湾1122变压器,坡上水利2241变压器【纯农排变】,风山庄4809变压器,东庄湾水利2663变压器【纯农排变】,北屯村0681变压器,坡下1118变压器,坡下北1100变压器,坡下4812变压器,丰山庄1140变压器,东庄湾1105变压器,十八渡4984变压器,十八渡1982变压器,唐县兴华水泥砖厂3313,南屯村1113变压器【纯农排变】,南屯村荒山2612变压器【纯农排变】,东庄湾西南水3103变压器【纯农排变】,唐县杰顺荒山开发有限公司5001,坡上4810变压器,坡下4557变压器,南屯村0673变压器,坡上村1098变压器【纯农排变】,灌城内1103变压器,坡上村1114变压器,东庄湾4828变压器,灌城村北4026变压器,东庄湾西4025变压器,北屯村5046变压器,十八渡4850变压器,坡上4983变压器,灌城4813变压器,坡上养殖1123,南屯村2964变压器【纯农排变】,岭底村1898变压器,十八渡2857变压器,灌城村1971变压器【纯农排变】,坡上村1099变压器【纯农排变】,坡上3252变压器,南屯村1096变压器,东庄湾荒山开发有限公司3386变压器,邸玉龙水2387变压器【纯农排变】,灌城村1120变压器,北屯浇地水利1101变压器【纯农排变】,灌城村1116变压器【纯农排变】,十八渡2046变压器【纯农排变】","powerOffReason":"【停电原因】由于线路接地导致３５ＫＶ西大洋变电站灌城线５１１线路全线停电【变更送电】因抢修进度加快原因，送电时间由２日１２：００变更为１日２３：３０【发布渠道】通过９５５９８发布","powerOffId":"2019070113000448"},{"poweroffId":2019070113000442,"sgpoweroffId":null,"subsName":"","lineName":"10kV511大西章线","pubTranName":"10KV511大西章线电焊厂09059分支5号杆许村村村内09024台区变压器,10KV511大西章线大西章南东09120分支6号杆大西章09120IC卡台区变压器【纯农排变】,10KV511大西章线8988分支03号杆大西章村西09041IC卡台区变压器【纯农排变】,10KV511大西章线许村09106分支2号杆许村09106IC卡台区变压器【纯农排变】,10KV511大西章线8988分支3号杆大西章村西北8988台区变压器,10KV511大西章线分支42号杆许村09107IC卡台区变压器【纯农排变】,10KV511大西章线许村09089分支12号杆许村村东09089台区变压器,10KV511大西章线大西章09133IC卡台区变压器【纯农排变】,10KV大西章511线09153台区变压器,10KV大西章511线09155台区变压器,10KV511大西章线大西章09116分支23号杆大西章09116IC卡变压器【纯农排变】,10KV511大西章线大西章09113分支5号杆大西章09113IC卡台区变压器【纯农排变】,10KV511大西章线东伯章09018分支3号杆东伯章村东北09018台区变压器,10KV511大西章线东伯章09009分支6号杆东伯章09009IC卡变压器【纯农排变】,10KV511大西章线09150台区变压器,10KV511大西章线大西章09114分支3号杆大西章09114IC卡台区变压器【纯农排变】,10KV511大西章线东伯章09011分支1号杆东伯章09011IC卡台区变压器【纯农排变】,0636857317-许村公用76537台区专变-专变-148278320-许村公用路灯3,10KV511大西章线东伯章5038分支13号杆东伯章村5038变压器,10KV511大西章线东伯章09003分支6号杆东伯章09004IC卡台区变压器【纯农排变】,10KV511大西章线东伯章5038分支3号杆东伯章村东09013台区变压器,10KV511大西章线大西章09112分支4号杆大西章09112IC卡变压器【纯农排变】,博野县蓬博宜佳旺购物中心有限公司,许村塑料厂,造龙面粉厂,兴达养殖厂,10KV511大西章线大西章09103分支3号杆大西章09103台区变压器,10KV511大西章线东伯章09090分支1号杆东伯章村南09090IC卡变压器【纯农排变】,10KV511大西章线大西章09040分支05号杆大西章西南09040IC卡台区变压器【纯农排变】,10KV511大西章线主干82号杆大西章09105台区变压器,10KV511大西章线大西章0912509124分支8号杆大西章09124IC卡变压器【纯农排变】,10KV511大西章线小西章09086分支6号杆大西章村北09035台区变压器,10KV511大西章线大西章南东09119分支5号杆大西章09122IC卡台区变压器【纯农排变】,10KV511大西章线许村09134台区变压器,10KV511大西章线许村09089分支6号杆许村村东09022台区变压器,10KV511大西章线敬老院分支0001号杆变压器,10KV511大西章线大西章09121分支5号杆大","scope":"【影响街道/乡镇】城东乡【高危重要客户】无【影响客户】大西章、东佰章、许村、小西章","startTime":"2019-07-01 21:54:22","stopDate":"2019-07-02 00:50:00","orgNo":"1340608","typeCode":"电网故障停限电","poweroffArea":"【全线路停电】停10KV511大西章线大西章09121分支12号杆大西章09119IC卡变压器【纯农排变】,10KV511大西章线许村09110分支13号杆许村09087台区变压器,10KV511大西章线09151台区变压器,10KV511大西章线东伯章09139IC卡台区变压器【纯农排变】,10KV511大西章线大西章南东09120分支6号杆大西章09120IC卡台区变压器【纯农排变】,10KV511大西章线大西章09152台区变压器,10KV511大西章线许村09128分支8号杆许村村内09128台区变压器,10KV511大西章线东伯章09008分支1号杆东伯章09008IC卡台区变压器【纯农排变】,10KV511大西章线09150台区变压器,兴达养殖厂,10KV511大西章线8988分支03号杆大西章村西09041IC卡台区变压器【纯农排变】,10KV511大西章线东伯章5038分支13号杆东伯章村5038变压器,10KV511大西章线大西章5039分支6号杆大西章村内5039台区变压器,10KV511大西章线55060分支12号杆许村村内55060变压器,10KV511大西章线东伯章09002分支6号杆东伯章09002IC卡台区变压器【纯农排变】,10KV511大西章线东伯章09090分支1号杆东伯章村南09090IC卡变压器【纯农排变】,10KV511大西章线许村09081分支9号杆城东村09097IC卡台区变压器【纯农排变】,10KV511大西章线东伯章09003分支06号杆东伯章东北09014台区变压器,10KV511大西章线大西章南东09119分支5号杆大西章09122IC卡台区变压器【纯农排变】,10KV511大西章线大西章09104分支10号杆大西章09104台区变压器,10KV511大西章线大西章09104分支5号杆大西章村内09037台区变压器,10KV511大西章线大西章09040分支05号杆大西章西南09040IC卡台区变压器【纯农排变】,10KV511大西章线许村09106分支2号杆许村09106IC卡台区变压器【纯农排变】,10KV511大西章线东伯章09009分支6号杆东伯章09009IC卡变压器【纯农排变】,10KV511大西章线许村09138台区变压器,10Kv511大西章许村路口09019台区变压器,10KV511大西章线东伯章09003分支018号杆东伯章村北09126IC卡台区变压器【纯农排变】,10KV511大西章线许村09001分支3号杆许村村西南09001IC卡变压器【纯农排变】,中国网络,10KV511大西章线54485分支4号杆大西章东北54485台区变压器,10KV511大西章线东伯章09007分支04号杆变压器【纯农排变】,10KV511大西章线电焊厂09059分支5号杆许村村村内09024台区变压器,10KV大西章511线09154台区变压器,10KV511大西章线55060分支3号杆许村09085台区变压器,10KV511大西章线东伯章09003分支18号杆东伯章村北09015台区变压器,10KV511大西章线许村09137台区变压器,10KV511大西章线东伯章09003分支6号杆东伯章09004IC卡台区变压器【纯农排变】,0469417715-城东供电所-专变-46807968-城东供电所,10KV511大西章线大西章09115分支5号杆大西章09115IC卡变压器【纯农排变】,许村塑料厂,博野县大西章皮毛厂,兴良塑料颗粒厂,10Kv511大西章09005台区变压器【纯农排变】,许村塑料机械厂,10KV511大西章线大西章09116分支1号杆大西章09123IC卡台区变压器【纯农排变】,大西章面粉厂,东伯章村代新田,天阔100,10KV511大西章线大西章09121分支5号杆大西章09121IC卡台区变压器【纯农排变】,10KV511大西章线许村09109分支5号杆许村09109IC卡台区变压器【纯农排变】,10KV511大西章线主干68号杆大西章西南37833台区变压器,10KV511大西章线大西章8049分支5号杆大西章村北学校后8049台区变压器,10KV511大西章线东伯章09006IC卡变压器【纯农排变】,10KV511大西章线小西章09086分支10号杆大西章09125IC卡台区变压器【纯农排变】,10KV511大西章线大西章09116分支23号杆大西章09116IC卡变压器【纯农排变】,造龙面粉厂,许村路灯2,10KV511大西章线大西章09116分支10号杆大西章村南09038IC卡变压器【纯农排变】,10KV511大","poweroffReason":"【停电原因】由于线路接地导致３５ＫＶ城东变电站１０ＫＶ大西章５１１线路全线停电【变更送电】因抢修进度加快原因，送电时间由１０：００变更为００：５０【发布渠道】通过９５５９８发布","powerTime":"2019-07-02 00:25:00","powerComm":"已送电","subsNo":"","lineNo":"","tgNo":"","tgName":null,"infoStatus":"1","orgName":"国网博野县供电公司","typeName":null,"infoStatusName":null,"dateDay":null,"orgNos":null,"nowTime":null,"countyName":null,"streetName":null,"villageName":null,"roadName":null,"communityName":null,"tranName":null,"sdLineName":null,"cityCode":"1340608","cityName":"国网博野县供电公司","provinceCode":null,"stopTime":"2019-07-02 00:50:00","powerType":"全部","powerOffArea":"【全线路停电】停10KV511大西章线大西章09121分支12号杆大西章09119IC卡变压器【纯农排变】,10KV511大西章线许村09110分支13号杆许村09087台区变压器,10KV511大西章线09151台区变压器,10KV511大西章线东伯章09139IC卡台区变压器【纯农排变】,10KV511大西章线大西章南东09120分支6号杆大西章09120IC卡台区变压器【纯农排变】,10KV511大西章线大西章09152台区变压器,10KV511大西章线许村09128分支8号杆许村村内09128台区变压器,10KV511大西章线东伯章09008分支1号杆东伯章09008IC卡台区变压器【纯农排变】,10KV511大西章线09150台区变压器,兴达养殖厂,10KV511大西章线8988分支03号杆大西章村西09041IC卡台区变压器【纯农排变】,10KV511大西章线东伯章5038分支13号杆东伯章村5038变压器,10KV511大西章线大西章5039分支6号杆大西章村内5039台区变压器,10KV511大西章线55060分支12号杆许村村内55060变压器,10KV511大西章线东伯章09002分支6号杆东伯章09002IC卡台区变压器【纯农排变】,10KV511大西章线东伯章09090分支1号杆东伯章村南09090IC卡变压器【纯农排变】,10KV511大西章线许村09081分支9号杆城东村09097IC卡台区变压器【纯农排变】,10KV511大西章线东伯章09003分支06号杆东伯章东北09014台区变压器,10KV511大西章线大西章南东09119分支5号杆大西章09122IC卡台区变压器【纯农排变】,10KV511大西章线大西章09104分支10号杆大西章09104台区变压器,10KV511大西章线大西章09104分支5号杆大西章村内09037台区变压器,10KV511大西章线大西章09040分支05号杆大西章西南09040IC卡台区变压器【纯农排变】,10KV511大西章线许村09106分支2号杆许村09106IC卡台区变压器【纯农排变】,10KV511大西章线东伯章09009分支6号杆东伯章09009IC卡变压器【纯农排变】,10KV511大西章线许村09138台区变压器,10Kv511大西章许村路口09019台区变压器,10KV511大西章线东伯章09003分支018号杆东伯章村北09126IC卡台区变压器【纯农排变】,10KV511大西章线许村09001分支3号杆许村村西南09001IC卡变压器【纯农排变】,中国网络,10KV511大西章线54485分支4号杆大西章东北54485台区变压器,10KV511大西章线东伯章09007分支04号杆变压器【纯农排变】,10KV511大西章线电焊厂09059分支5号杆许村村村内09024台区变压器,10KV大西章511线09154台区变压器,10KV511大西章线55060分支3号杆许村09085台区变压器,10KV511大西章线东伯章09003分支18号杆东伯章村北09015台区变压器,10KV511大西章线许村09137台区变压器,10KV511大西章线东伯章09003分支6号杆东伯章09004IC卡台区变压器【纯农排变】,0469417715-城东供电所-专变-46807968-城东供电所,10KV511大西章线大西章09115分支5号杆大西章09115IC卡变压器【纯农排变】,许村塑料厂,博野县大西章皮毛厂,兴良塑料颗粒厂,10Kv511大西章09005台区变压器【纯农排变】,许村塑料机械厂,10KV511大西章线大西章09116分支1号杆大西章09123IC卡台区变压器【纯农排变】,大西章面粉厂,东伯章村代新田,天阔100,10KV511大西章线大西章09121分支5号杆大西章09121IC卡台区变压器【纯农排变】,10KV511大西章线许村09109分支5号杆许村09109IC卡台区变压器【纯农排变】,10KV511大西章线主干68号杆大西章西南37833台区变压器,10KV511大西章线大西章8049分支5号杆大西章村北学校后8049台区变压器,10KV511大西章线东伯章09006IC卡变压器【纯农排变】,10KV511大西章线小西章09086分支10号杆大西章09125IC卡台区变压器【纯农排变】,10KV511大西章线大西章09116分支23号杆大西章09116IC卡变压器【纯农排变】,造龙面粉厂,许村路灯2,10KV511大西章线大西章09116分支10号杆大西章村南09038IC卡变压器【纯农排变】,10KV511大","powerOffReason":"【停电原因】由于线路接地导致３５ＫＶ城东变电站１０ＫＶ大西章５１１线路全线停电【变更送电】因抢修进度加快原因，送电时间由１０：００变更为００：５０【发布渠道】通过９５５９８发布","powerOffId":"2019070113000442"},{"poweroffId":2019070113000436,"sgpoweroffId":null,"subsName":"","lineName":"石门线512","pubTranName":"墨砚村1370台区变压器,小路村4021变压器,下湾村1372台区变压器,于家寨饮水工程3424变压器,石门1337变压器,担里村1369台区变压器,下黄岩1374变压器,小路村1375变压器,刘家沟2954台区变压器,石门村2821变压器,小路村水利4868变压器,石门村东1335变压器,石门水利1333变压器,上黄岩1373变压器,石门村2606变压器,","scope":"【影响街道/乡镇】石门乡、军城镇【高危重要客户】无【影响客户】黄岩村、下湾村、担里村、墨砚村、石门村、小路村、担里、刘家沟、于家寨","startTime":"2019-07-01 21:17:16","stopDate":"2019-07-01 22:30:00","orgNo":"1340622","typeCode":"电网故障停限电","poweroffArea":"【全线路停电】停石门村2606变压器,担里村1369台区变压器,石门村2821变压器,刘家沟2954台区变压器,石门村东1335变压器,石门1337变压器,墨砚村1370台区变压器,上黄岩1373变压器,石门水利1333变压器,下黄岩1374变压器,下湾村1372台区变压器,小路村1375变压器,小路村4021变压器,小路村水利4868变压器,于家寨饮水工程3424变压器","poweroffReason":"【停电原因】由于大路口养殖场避雷器击穿导致３５ＫＶ石门变电站石门线５１２线路全线停电【变更送电】因抢修进度加快原因，送电时间由２日１２：００变更为１日２２：３０【发布渠道】通过９５５９８发布","powerTime":"2019-07-01 22:00:35","powerComm":"已送电","subsNo":"","lineNo":"","tgNo":"","tgName":null,"infoStatus":"1","orgName":"国网唐县供电公司","typeName":null,"infoStatusName":null,"dateDay":null,"orgNos":null,"nowTime":null,"countyName":null,"streetName":null,"villageName":null,"roadName":null,"communityName":null,"tranName":null,"sdLineName":null,"cityCode":"1340622","cityName":"国网唐县供电公司","provinceCode":null,"stopTime":"2019-07-01 22:30:00","powerType":"全部","powerOffArea":"【全线路停电】停石门村2606变压器,担里村1369台区变压器,石门村2821变压器,刘家沟2954台区变压器,石门村东1335变压器,石门1337变压器,墨砚村1370台区变压器,上黄岩1373变压器,石门水利1333变压器,下黄岩1374变压器,下湾村1372台区变压器,小路村1375变压器,小路村4021变压器,小路村水利4868变压器,于家寨饮水工程3424变压器","powerOffReason":"【停电原因】由于大路口养殖场避雷器击穿导致３５ＫＶ石门变电站石门线５１２线路全线停电【变更送电】因抢修进度加快原因，送电时间由２日１２：００变更为１日２２：３０【发布渠道】通过９５５９８发布","powerOffId":"2019070113000436"},{"poweroffId":2019070113000434,"sgpoweroffId":null,"subsName":"","lineName":"蟒栏线513","pubTranName":"王支1344变压器,杨家台1350变压器,大岭口1341变压器,蟒拦5058变压器,大石沟1343变压器,刘家沟门1386变压器,虎峪村1357变压器,草庄台1340变压器,伟模沟门1278变压器,王支村西公用4020变压器,伟模村1347变压器,浦大石1346变压器,大岭口5117变压器,双岭沟1349变压器,莽栏村1354变压器,刘家沟1352变压器,上马石1356变压器,杨家台5116变压器,莽栏3310变压器,下柳树沟1383变压器,上柳树沟1348变压器,","scope":"【影响街道/乡镇】石门乡、范家庄乡【高危重要客户】无【影响客户】刘家沟、王支村、下柳树沟、大岭口、刘家沟门、草庄台、双良沟村、伟模村、铺大石、上马石、虎峪、杨家台、大石沟、伟模沟门、蟒栏、上柳树沟","startTime":"2019-07-01 21:14:52","stopDate":"2019-07-02 01:30:00","orgNo":"1340622","typeCode":"电网故障停限电","poweroffArea":"【全线路停电】停草庄台1340变压器,大岭口1341变压器,大岭口5117变压器,大石沟1343变压器,虎峪村1357变压器,刘家沟1352变压器,刘家沟门1386变压器,下柳树沟1383变压器,上柳树沟1348变压器,莽栏3310变压器,莽栏村1354变压器,蟒拦5058变压器,浦大石1346变压器,上马石1356变压器,双岭沟1349变压器,王支1344变压器,王支村西公用4020变压器,伟模村1347变压器,伟模沟门1278变压器,杨家台1350变压器,杨家台5116变压器","poweroffReason":"【停电原因】由于线路接地导致３５ＫＶ石门变电站蟒栏线５１３线路全线停电【变更送电】因抢修进度加快原因，送电时间由１２：００变更为０１：３０ 【发布渠道】通过９５５９８发布","powerTime":"2019-07-02 01:00:41","powerComm":"已送电","subsNo":"","lineNo":"","tgNo":"","tgName":null,"infoStatus":"1","orgName":"国网唐县供电公司","typeName":null,"infoStatusName":null,"dateDay":null,"orgNos":null,"nowTime":null,"countyName":null,"streetName":null,"villageName":null,"roadName":null,"communityName":null,"tranName":null,"sdLineName":null,"cityCode":"1340622","cityName":"国网唐县供电公司","provinceCode":null,"stopTime":"2019-07-02 01:30:00","powerType":"全部","powerOffArea":"【全线路停电】停草庄台1340变压器,大岭口1341变压器,大岭口5117变压器,大石沟1343变压器,虎峪村1357变压器,刘家沟1352变压器,刘家沟门1386变压器,下柳树沟1383变压器,上柳树沟1348变压器,莽栏3310变压器,莽栏村1354变压器,蟒拦5058变压器,浦大石1346变压器,上马石1356变压器,双岭沟1349变压器,王支1344变压器,王支村西公用4020变压器,伟模村1347变压器,伟模沟门1278变压器,杨家台1350变压器,杨家台5116变压器","powerOffReason":"【停电原因】由于线路接地导致３５ＫＶ石门变电站蟒栏线５１３线路全线停电【变更送电】因抢修进度加快原因，送电时间由１２：００变更为０１：３０ 【发布渠道】通过９５５９８发布","powerOffId":"2019070113000434"},{"poweroffId":2019070113000412,"sgpoweroffId":null,"subsName":"","lineName":"菜园537","pubTranName":"于家庄村2#,","scope":"【影响街道/乡镇】西山北乡【高危重要客户】无【影响客户】于家庄村","startTime":"2019-07-02 07:00:00","stopDate":"2019-07-02 13:00:00","orgNo":"1340625","typeCode":"其他临时停电","poweroffArea":"【单台区停电】停于家庄村2#","poweroffReason":"【停电原因】由于更换变压器导致３５ＫＶ步乐变电站菜园５３７线路于家庄村２＃公变台区停电【变更送电】无【发布渠道】通过９５５９８发布","powerTime":"2019-07-02 12:19:28","powerComm":"已送电","subsNo":"","lineNo":"","tgNo":"","tgName":null,"infoStatus":"1","orgName":"国网易县供电公司","typeName":null,"infoStatusName":null,"dateDay":null,"orgNos":null,"nowTime":null,"countyName":null,"streetName":null,"villageName":null,"roadName":null,"communityName":null,"tranName":null,"sdLineName":null,"cityCode":"1340625","cityName":"国网易县供电公司","provinceCode":null,"stopTime":"2019-07-02 13:00:00","powerType":"全部","powerOffArea":"【单台区停电】停于家庄村2#","powerOffReason":"【停电原因】由于更换变压器导致３５ＫＶ步乐变电站菜园５３７线路于家庄村２＃公变台区停电【变更送电】无【发布渠道】通过９５５９８发布","powerOffId":"2019070113000412"}],"pageModel":{"pageNow":878,"totalCount":10973,"totalPage":1098,"tableRows":0,"pageCount":10,"beginCount":8770},"isExperi":"1"}