{"message":"","today":"2020-06-15","seleList":[{"poweroffId":2019070113000297,"sgpoweroffId":null,"subsName":"","lineName":"10kV515电力局线","pubTranName":"曲阳县清香园餐饮服务有限公司变压器,0012468126许城东北3变压器,实验小学路灯,0000006434昌盛小区变压器,阳光小区,向阳小区,0000006750东大街5号变压器,电力局1#院变压器,0000005864许城东西2区变压器,0000005306许城东北变压器,中国联合网络通信有限公司曲阳县分,河北丰华建筑工程有限公司变压器,0012309671农发行小区,曲阳县鑫金日化店变压器,0593927643-曲阳县尚品豆捞酒店-专变-125912024-曲阳县尚品豆捞酒店变压器,0546265026-曲阳县实验学校1-专变-47840234-曲阳县实验小学1变压器,河北通畅房地产开发有限公司变压器,0000006218东大街4号变压器,0012885865东大街6区变压器,曲阳县汇海商贸有限公司变压器,0000004479工商局家属院变压器,0014468694复兴街统管,恒阳住宅小区配电变压器,0000006094建设街统管3变压器,0469352391-中国移动通信集团河北有限公司曲阳分公司-专变-213876233-中国移动通信集团河北有限公司曲阳分公司变压器,0469352160向阳小区变压器,许城东西北变压器,0000005307许城东中变压器,电力局2#院变压器,0000005308许城东东变压器,0469352131-中国移动通信集团河北有限公司曲阳分公司-专变-46781539-移动公司曲阳县分公司,工商行政管理局,许城东小学变压器,电力局4号院变压器,保定市王快水库管理处变压器,0000005660第一建筑公司变压器,0000005305许城东西变压器,曲阳恒都大酒店有限公司变压器,慧丰街北统管变压器,曲阳县实验小学变压器2,0000005311许城东南变压器,0000004475电厂家属院南变压器,河北省曲阳县第一建筑工程公司1变压器,","scope":"【影响街道/乡镇】恒州镇、东大街、惠丰街、建设街、恒山路、恒阳街【高危重要客户】无【影响客户】电力局家属院、许城东、第一建筑公司、电厂家属院、恒阳小区、联通公司、移动公司、贾城东、恒阳住宅、阳光小区、农发行小区、城建局以南","startTime":"2019-07-14 01:00:00","stopDate":"2019-07-14 15:30:00","orgNo":"1340619","typeCode":"计划停电","poweroffArea":"【全线路停电】停0469352160向阳小区变压器,许城东西北变压器,0000005307许城东中变压器,电力局2#院变压器,0000005308许城东东变压器,0469352131-中国移动通信集团河北有限公司曲阳分公司-专变-46781539-移动公司曲阳县分公司,工商行政管理局,曲阳县实验小学变压器2,许城东小学变压器,恒阳住宅小区配电变压器,0000005311许城东南变压器,0000004475电厂家属院南变压器,慧丰街北统管变压器,曲阳县清香园餐饮服务有限公司变压器,电力局4号院变压器,保定市王快水库管理处变压器,0000005660第一建筑公司变压器,0000006094建设街统管3变压器,0469352391-中国移动通信集团河北有限公司曲阳分公司-专变-213876233-中国移动通信集团河北有限公司曲阳分公司变压器,向阳小区,0000006750东大街5号变压器,电力局1#院变压器,0000005864许城东西2区变压器,0000005306许城东北变压器,中国联合网络通信有限公司曲阳县分,河北丰华建筑工程有限公司变压器,0012309671农发行小区,曲阳县鑫金日化店变压器,0593927643-曲阳县尚品豆捞酒店-专变-125912024-曲阳县尚品豆捞酒店变压器,0546265026-曲阳县实验学校1-专变-47840234-曲阳县实验小学1变压器,河北省曲阳县第一建筑工程公司1变压器,0000005305许城东西变压器,曲阳恒都大酒店有限公司变压器,0012468126许城东北3变压器,实验小学路灯,0000006434昌盛小区变压器,阳光小区,河北通畅房地产开发有限公司变压器,0000006218东大街4号变压器,0012885865东大街6区变压器,曲阳县汇海商贸有限公司变压器,0000004479工商局家属院变压器,0014468694复兴街统管","poweroffReason":"【停电原因】由于线路计划检修导致１１０ＫＶ曲阳变电站１０ＫＶ５１５电力局线路全线停电【变更送电】因工作进度加快原因，送电时间由１９:００变更为１５:３０【发布渠道】保定市曲阳县电视台（０７月０１日至０７月０３日１８时至２０时之间）屏幕上方滚动","powerTime":"2019-07-14 15:09:50","powerComm":"已送电","subsNo":"","lineNo":"","tgNo":"","tgName":null,"infoStatus":"1","orgName":"国网曲阳县供电公司","typeName":null,"infoStatusName":null,"dateDay":null,"orgNos":null,"nowTime":null,"countyName":null,"streetName":null,"villageName":null,"roadName":null,"communityName":null,"tranName":null,"sdLineName":null,"cityCode":"1340619","cityName":"国网曲阳县供电公司","provinceCode":null,"stopTime":"2019-07-14 15:30:00","powerType":"全部","powerOffArea":"【全线路停电】停0469352160向阳小区变压器,许城东西北变压器,0000005307许城东中变压器,电力局2#院变压器,0000005308许城东东变压器,0469352131-中国移动通信集团河北有限公司曲阳分公司-专变-46781539-移动公司曲阳县分公司,工商行政管理局,曲阳县实验小学变压器2,许城东小学变压器,恒阳住宅小区配电变压器,0000005311许城东南变压器,0000004475电厂家属院南变压器,慧丰街北统管变压器,曲阳县清香园餐饮服务有限公司变压器,电力局4号院变压器,保定市王快水库管理处变压器,0000005660第一建筑公司变压器,0000006094建设街统管3变压器,0469352391-中国移动通信集团河北有限公司曲阳分公司-专变-213876233-中国移动通信集团河北有限公司曲阳分公司变压器,向阳小区,0000006750东大街5号变压器,电力局1#院变压器,0000005864许城东西2区变压器,0000005306许城东北变压器,中国联合网络通信有限公司曲阳县分,河北丰华建筑工程有限公司变压器,0012309671农发行小区,曲阳县鑫金日化店变压器,0593927643-曲阳县尚品豆捞酒店-专变-125912024-曲阳县尚品豆捞酒店变压器,0546265026-曲阳县实验学校1-专变-47840234-曲阳县实验小学1变压器,河北省曲阳县第一建筑工程公司1变压器,0000005305许城东西变压器,曲阳恒都大酒店有限公司变压器,0012468126许城东北3变压器,实验小学路灯,0000006434昌盛小区变压器,阳光小区,河北通畅房地产开发有限公司变压器,0000006218东大街4号变压器,0012885865东大街6区变压器,曲阳县汇海商贸有限公司变压器,0000004479工商局家属院变压器,0014468694复兴街统管","powerOffReason":"【停电原因】由于线路计划检修导致１１０ＫＶ曲阳变电站１０ＫＶ５１５电力局线路全线停电【变更送电】因工作进度加快原因，送电时间由１９:００变更为１５:３０【发布渠道】保定市曲阳县电视台（０７月０１日至０７月０３日１８时至２０时之间）屏幕上方滚动","powerOffId":"2019070113000297"},{"poweroffId":2019070113000289,"sgpoweroffId":null,"subsName":"","lineName":"水厂514","pubTranName":"0665164518-保定旭恒房地产开发有限公司-专变-201076234-保定旭恒房地产开发有限公司-B2000KVA,0665164518-保定旭恒房地产开发有限公司-专变-201073811-保定旭恒房地产开发有限公司-A2000KVA,易县人民法院315,易县人民法院,0670953734-易县公安消防大队-专变-211945120-易县公安消防大队500KVA,河北金驰悦达房地产开发有限公司A-315KVA,河北金驰悦达房地产开发有限公司B-315KVA,","scope":"【影响街道/乡镇】易州镇【高危重要客户】无【影响客户】公安消防大队、旭恒房地产、河北金驰悦达房地产、易县人民法院","startTime":"2019-07-12 04:00:00","stopDate":"2019-07-12 21:00:00","orgNo":"1340625","typeCode":"计划停电","poweroffArea":"【全线路停电】停0665164518-保定旭恒房地产开发有限公司-专变-201073811-保定旭恒房地产开发有限公司-A2000KVA,0665164518-保定旭恒房地产开发有限公司-专变-201076234-保定旭恒房地产开发有限公司-B2000KVA,河北金驰悦达房地产开发有限公司A-315KVA,易县人民法院,0670953734-易县公安消防大队-专变-211945120-易县公安消防大队500KVA,易县人民法院315,河北金驰悦达房地产开发有限公司B-315KVA","poweroffReason":"【停电原因】由于线路更换导线导致３５ＫＶ易水变电站水厂５１４线路全线停电【变更送电】因工作量大，送电时间由１８:００变更为２１:００【发布渠道】保定市易县电视台（０７月０２日００：００时至０７月１１日２４：００时之间）屏幕下方滚动","powerTime":"2019-07-12 20:06:21","powerComm":"已送电","subsNo":"","lineNo":"","tgNo":"","tgName":null,"infoStatus":"1","orgName":"国网易县供电公司","typeName":null,"infoStatusName":null,"dateDay":null,"orgNos":null,"nowTime":null,"countyName":null,"streetName":null,"villageName":null,"roadName":null,"communityName":null,"tranName":null,"sdLineName":null,"cityCode":"1340625","cityName":"国网易县供电公司","provinceCode":null,"stopTime":"2019-07-12 21:00:00","powerType":"全部","powerOffArea":"【全线路停电】停0665164518-保定旭恒房地产开发有限公司-专变-201073811-保定旭恒房地产开发有限公司-A2000KVA,0665164518-保定旭恒房地产开发有限公司-专变-201076234-保定旭恒房地产开发有限公司-B2000KVA,河北金驰悦达房地产开发有限公司A-315KVA,易县人民法院,0670953734-易县公安消防大队-专变-211945120-易县公安消防大队500KVA,易县人民法院315,河北金驰悦达房地产开发有限公司B-315KVA","powerOffReason":"【停电原因】由于线路更换导线导致３５ＫＶ易水变电站水厂５１４线路全线停电【变更送电】因工作量大，送电时间由１８:００变更为２１:００【发布渠道】保定市易县电视台（０７月０２日００：００时至０７月１１日２４：００时之间）屏幕下方滚动","powerOffId":"2019070113000289"},{"poweroffId":2019070113000272,"sgpoweroffId":null,"subsName":"","lineName":"10kV540东沟线","pubTranName":"四家井戏子沟口,黄各庄村4号台区,野孤自来水变压器,万泉庄沟门台区,排角三台区变压器,岭东2台区,偏道子村北2,岭东村中变压器,万全庄村井台区,岭西3台区,龙门光伏扶贫2#光伏变压器【光伏】,岭西2台区,龙门光伏扶贫4#光伏变压器【光伏】,偏道子村中变压器【冬季供暖设施】,偏道子卫生院台区,黄各庄新村,野狐扶贫井,岭东河边台区,黄各庄二台区变压器,0469323489-66209部队-专变-46775661-66209部队,岭西旮旯变压器,赵家地机井变压器【冬季供暖设施】,大台永安镇沟口台区,桦树峪2台区,四家井村南（2）变压器,岭西2号井台区,野狐村北,四家井桦树峪变压器,偏道子村南台区,岭东河北坎变压器,排角村中变压器,蛟龙口村东,蛟龙口村南,岭东光伏扶贫2#光伏变压器【光伏】,店上3台区,排角5台区,龙门光伏扶贫3#光伏变压器【光伏】,偏道子村北,店上下滩台区,店上扶贫井3号,四家井村北变压器,庄户村变压器,大台永安庄台区,岭东光伏扶贫3#光伏变压器【光伏】,万全庄村台区,蛟龙口村北,岭西村中变压器,野孤七八队变压器,万全庄村中变压器,蛟龙口村中变压器,黄各庄5台区,岭东小学配变,偏道子二台区变压器,四家井养老院台区,店上2台区,岭东光伏扶贫5#光伏变压器【光伏】,岭西1号井台区,万全庄新2台区,岭西4号井台区,大台扶贫井,大台村中变压器,排角二台区变压器,四家井杏树台,四家井村东,龙门光伏扶贫1#光伏变压器【光伏】,四家井自来水井,四家井小园台区,庄户机井台区,岭东1号井,赵家地村中变压器,大台新村,黄各庄三台区变压器,黄各庄一台区变压器,赵家地3台区,岭东南山台区,庄户扶贫井1,岭西旮旯2台区,赵家地四台区,龙门光伏扶贫5#光伏变压器【光伏】,岭东河北坎二台区,黄各庄扶贫井,庄户水窖台区,野孤村中变压器,店上扶贫井2号,大台芦沟口变压器,岭东2,蛟龙口南二台区,店上扶贫井1号,排角四台区,岭东光伏扶贫1#光伏变压器【光伏】,岭西3号井台区,黄各庄4台区,黄各庄5号台区,万全庄3台区,岭东光伏扶贫4#光伏变压器【光伏】,万全庄机井变压器,店上村中变压器,四家井岭道沟变压器,","scope":"【影响街道/乡镇】龙门乡 【高危重要客户】无 【影响客户】野孤村、岭东村、店上村、黄各庄村、岭西村、庄户村、万全庄村、四家井村、偏道子村、排角村、蛟龙口村、大台村、赵家地村、","startTime":"2019-07-12 09:00:00","stopDate":"2019-07-12 18:00:00","orgNo":"1340614","typeCode":"计划停电","poweroffArea":"【全线路停电】停四家井戏子沟口,黄各庄村4号台区,野孤自来水变压器,万泉庄沟门台区,排角三台区变压器,岭东2台区,偏道子村北2,岭东村中变压器,万全庄村井台区,岭西3台区,龙门光伏扶贫2#光伏变压器【光伏】,岭西2台区,龙门光伏扶贫4#光伏变压器【光伏】,偏道子村中变压器【冬季供暖设施】,偏道子卫生院台区,黄各庄新村,野狐扶贫井,岭东河边台区,黄各庄二台区变压器,0469323489-66209部队-专变-46775661-66209部队,岭西旮旯变压器,赵家地机井变压器【冬季供暖设施】,大台永安镇沟口台区,桦树峪2台区,四家井村南（2）变压器,岭西2号井台区,野狐村北,四家井桦树峪变压器,偏道子村南台区,岭东河北坎变压器,排角村中变压器,蛟龙口村东,蛟龙口村南,岭东光伏扶贫2#光伏变压器【光伏】,店上3台区,排角5台区,龙门光伏扶贫3#光伏变压器【光伏】,偏道子村北,店上下滩台区,店上扶贫井3号,四家井村北变压器,庄户村变压器,大台永安庄台区,岭东光伏扶贫3#光伏变压器【光伏】,万全庄村台区,蛟龙口村北,岭西村中变压器,野孤七八队变压器,万全庄村中变压器,蛟龙口村中变压器,黄各庄5台区,岭东小学配变,偏道子二台区变压器,四家井养老院台区,店上2台区,岭东光伏扶贫5#光伏变压器【光伏】,岭西1号井台区,万全庄新2台区,岭西4号井台区,大台扶贫井,大台村中变压器,排角二台区变压器,四家井杏树台,四家井村东,龙门光伏扶贫1#光伏变压器【光伏】,四家井自来水井,四家井小园台区,庄户机井台区,岭东1号井,赵家地村中变压器,大台新村,黄各庄三台区变压器,黄各庄一台区变压器,赵家地3台区,岭东南山台区,庄户扶贫井1,岭西旮旯2台区,赵家地四台区,龙门光伏扶贫5#光伏变压器【光伏】,岭东河北坎二台区,黄各庄扶贫井,庄户水窖台区,野孤村中变压器,店上扶贫井2号,大台芦沟口变压器,岭东2,蛟龙口南二台区,店上扶贫井1号,排角四台区,岭东光伏扶贫1#光伏变压器【光伏】,岭西3号井台区,黄各庄4台区,黄各庄5号台区,万全庄3台区,岭东光伏扶贫4#光伏变压器【光伏】,万全庄机井变压器,店上村中变压器,四家井岭道沟变压器","poweroffReason":"【停电原因】由于配合小丰口５３９线路接引导致１１０ＫＶ六顺变电站１０ＫＶ东沟５４０线路全线停电 【变更送电】无 【发布渠道】保定市涞水电视台（０７月０２日００时至０７月１２日１８时之间）屏幕上方滚动。","powerTime":"2019-07-12 17:19:57","powerComm":"已送电","subsNo":"","lineNo":"","tgNo":"","tgName":null,"infoStatus":"1","orgName":"国网涞水县供电公司","typeName":null,"infoStatusName":null,"dateDay":null,"orgNos":null,"nowTime":null,"countyName":null,"streetName":null,"villageName":null,"roadName":null,"communityName":null,"tranName":null,"sdLineName":null,"cityCode":"1340614","cityName":"国网涞水县供电公司","provinceCode":null,"stopTime":"2019-07-12 18:00:00","powerType":"全部","powerOffArea":"【全线路停电】停四家井戏子沟口,黄各庄村4号台区,野孤自来水变压器,万泉庄沟门台区,排角三台区变压器,岭东2台区,偏道子村北2,岭东村中变压器,万全庄村井台区,岭西3台区,龙门光伏扶贫2#光伏变压器【光伏】,岭西2台区,龙门光伏扶贫4#光伏变压器【光伏】,偏道子村中变压器【冬季供暖设施】,偏道子卫生院台区,黄各庄新村,野狐扶贫井,岭东河边台区,黄各庄二台区变压器,0469323489-66209部队-专变-46775661-66209部队,岭西旮旯变压器,赵家地机井变压器【冬季供暖设施】,大台永安镇沟口台区,桦树峪2台区,四家井村南（2）变压器,岭西2号井台区,野狐村北,四家井桦树峪变压器,偏道子村南台区,岭东河北坎变压器,排角村中变压器,蛟龙口村东,蛟龙口村南,岭东光伏扶贫2#光伏变压器【光伏】,店上3台区,排角5台区,龙门光伏扶贫3#光伏变压器【光伏】,偏道子村北,店上下滩台区,店上扶贫井3号,四家井村北变压器,庄户村变压器,大台永安庄台区,岭东光伏扶贫3#光伏变压器【光伏】,万全庄村台区,蛟龙口村北,岭西村中变压器,野孤七八队变压器,万全庄村中变压器,蛟龙口村中变压器,黄各庄5台区,岭东小学配变,偏道子二台区变压器,四家井养老院台区,店上2台区,岭东光伏扶贫5#光伏变压器【光伏】,岭西1号井台区,万全庄新2台区,岭西4号井台区,大台扶贫井,大台村中变压器,排角二台区变压器,四家井杏树台,四家井村东,龙门光伏扶贫1#光伏变压器【光伏】,四家井自来水井,四家井小园台区,庄户机井台区,岭东1号井,赵家地村中变压器,大台新村,黄各庄三台区变压器,黄各庄一台区变压器,赵家地3台区,岭东南山台区,庄户扶贫井1,岭西旮旯2台区,赵家地四台区,龙门光伏扶贫5#光伏变压器【光伏】,岭东河北坎二台区,黄各庄扶贫井,庄户水窖台区,野孤村中变压器,店上扶贫井2号,大台芦沟口变压器,岭东2,蛟龙口南二台区,店上扶贫井1号,排角四台区,岭东光伏扶贫1#光伏变压器【光伏】,岭西3号井台区,黄各庄4台区,黄各庄5号台区,万全庄3台区,岭东光伏扶贫4#光伏变压器【光伏】,万全庄机井变压器,店上村中变压器,四家井岭道沟变压器","powerOffReason":"【停电原因】由于配合小丰口５３９线路接引导致１１０ＫＶ六顺变电站１０ＫＶ东沟５４０线路全线停电 【变更送电】无 【发布渠道】保定市涞水电视台（０７月０２日００时至０７月１２日１８时之间）屏幕上方滚动。","powerOffId":"2019070113000272"},{"poweroffId":2019070113000268,"sgpoweroffId":null,"subsName":"","lineName":"10kV东文山517","pubTranName":"淮河西井变压器,西武山村西台区变压器,西武山村北变压器,西武山小东台变压器,南七山混用,北七山桑树坡,东文山乡政府变压器,南七山桥南台区变压器,北七山南大扇51-1|0556,东长堤北二台区,北七山北山坡井【纯农排变】,北七山王家大院变压器,西武山机井变压器,北七山西南井变压器,南兵上村北台区,北七山大沟井台区变压器【纯农排变】,北七山村南变压器【冬季供暖设施】,淮河学校变压器,北七山村东台区变压器,牛各庄二大队台区变压器【纯农排变】,东长堤刘俊井变压器【纯农排变】,上车亭村南变变压器,西长堤村东台区变压器,北七山西山坡井变压器【纯农排变】,北七山村东北井变压器【纯农排变】,牛各庄村南变压器,淮河面粉厂,牛各庄机井变压器【纯农排变】,淮河西北台区,西长堤村西台区变压器,北七山北台区变压器,西长堤村东北变压器,淮河北井变压器,南七山西台变压器,淮河村西南井变压器【纯农排变】,南兵上村西台区变压器,牛各庄村东阻断井变压器【纯农排变】,北七山村西果园台区变压器,北七山色坡井台区变压器【纯农排变】,淮河东台变压器,牛南台区变压器,南七山村东井,东文山机井变压器,北七山村北井变压器【纯农排变】,西长堤北山坡台区变压器,淮河村西台区变压器,上车亭小南庄变压器【纯农排变】,东长堤村东台区变压器,西武山大坡井变压器【纯农排变】,北七山村东北变压器,上车亭村西台区变压器,西长堤自来水台区变压器,东长堤村北台区变压器,南七山村村内变压器,南兵上西南台区变压器,北七山蜂窝井变压器,西武山村南变压器,东长堤村西北变压器,东长堤村东北变压器,东长堤村西台区变压器,南七山南台区变压器,南七山机井,变压器,北七山东坡井变压器【纯农排变】,牛各庄村西变压器,北七山西台,淮河村北台区变压器,西长堤北井变压器【纯农排变】,牛各庄村内变压器,北兵上村西变变压器,西武山东台变压器,北七山村东南变压器,安家洼收费站西井【纯农排变】,淮河村西南变压器,","scope":"【影响街道/乡镇】东文山乡 【高危重要客户】无 【影响客户】南兵上村、北兵上村西、东文山村南、西武山村、淮河村、南七山村、北七山村、东长堤村、西长堤村、牛各庄村、上车亭村","startTime":"2019-07-10 05:00:00","stopDate":"2019-07-10 17:00:00","orgNo":"1340614","typeCode":"计划停电","poweroffArea":"【分支停电】停北七山北台区变压器,西长堤村东北变压器,淮河北井变压器,南七山西台变压器,淮河村西南井变压器【纯农排变】,南兵上村西台区变压器,牛各庄村东阻断井变压器【纯农排变】,牛各庄村内变压器,北兵上村西变变压器,西武山东台变压器,西武山村北变压器,西武山小东台变压器,南七山混用,北七山桑树坡,东文山乡政府变压器,南七山桥南台区变压器,北七山南大扇51-1|0556,东长堤北二台区,北七山北山坡井【纯农排变】,北七山王家大院变压器,北七山村东南变压器,安家洼收费站西井【纯农排变】,淮河村西南变压器,北七山村西果园台区变压器,北七山色坡井台区变压器【纯农排变】,淮河东台变压器,牛南台区变压器,南七山村东井,东文山机井变压器,西武山大坡井变压器【纯农排变】,北七山村东北变压器,上车亭村西台区变压器,西长堤自来水台区变压器,东长堤村北台区变压器,南七山村村内变压器,南兵上西南台区变压器,北七山蜂窝井变压器,西武山村南变压器,东长堤村西北变压器,东长堤村东北变压器,东长堤村西台区变压器,南七山南台区变压器,南七山机井,变压器,北七山东坡井变压器【纯农排变】,牛各庄村西变压器,北七山西台,淮河村北台区变压器,西长堤北井变压器【纯农排变】,淮河西井变压器,西武山村西台区变压器,西武山机井变压器,北七山西南井变压器,南兵上村北台区,北七山大沟井台区变压器【纯农排变】,北七山村南变压器【冬季供暖设施】,淮河学校变压器,北七山村东台区变压器,牛各庄二大队台区变压器【纯农排变】,东长堤刘俊井变压器【纯农排变】,上车亭村南变变压器,西长堤村东台区变压器,北七山西山坡井变压器【纯农排变】,北七山村东北井变压器【纯农排变】,牛各庄村南变压器,淮河面粉厂,北七山村北井变压器【纯农排变】,西长堤北山坡台区变压器,淮河村西台区变压器,上车亭小南庄变压器【纯农排变】,东长堤村东台区变压器,牛各庄机井变压器【纯农排变】,淮河西北台区,西长堤村西台区变压器","poweroffReason":"【停电原因】由于更换导线导致１１０ＫＶ涞水变电站１０ＫＶ东文山５１７线路２９号杆至７４号杆停电 【变更送电】无 【发布渠道】保定市涞水电视台（０７月０２日００时至０７月１０日１７时之间）屏幕上方滚动","powerTime":"2019-07-10 16:51:50","powerComm":"已送电","subsNo":"","lineNo":"","tgNo":"","tgName":null,"infoStatus":"1","orgName":"国网涞水县供电公司","typeName":null,"infoStatusName":null,"dateDay":null,"orgNos":null,"nowTime":null,"countyName":null,"streetName":null,"villageName":null,"roadName":null,"communityName":null,"tranName":null,"sdLineName":null,"cityCode":"1340614","cityName":"国网涞水县供电公司","provinceCode":null,"stopTime":"2019-07-10 17:00:00","powerType":"全部","powerOffArea":"【分支停电】停北七山北台区变压器,西长堤村东北变压器,淮河北井变压器,南七山西台变压器,淮河村西南井变压器【纯农排变】,南兵上村西台区变压器,牛各庄村东阻断井变压器【纯农排变】,牛各庄村内变压器,北兵上村西变变压器,西武山东台变压器,西武山村北变压器,西武山小东台变压器,南七山混用,北七山桑树坡,东文山乡政府变压器,南七山桥南台区变压器,北七山南大扇51-1|0556,东长堤北二台区,北七山北山坡井【纯农排变】,北七山王家大院变压器,北七山村东南变压器,安家洼收费站西井【纯农排变】,淮河村西南变压器,北七山村西果园台区变压器,北七山色坡井台区变压器【纯农排变】,淮河东台变压器,牛南台区变压器,南七山村东井,东文山机井变压器,西武山大坡井变压器【纯农排变】,北七山村东北变压器,上车亭村西台区变压器,西长堤自来水台区变压器,东长堤村北台区变压器,南七山村村内变压器,南兵上西南台区变压器,北七山蜂窝井变压器,西武山村南变压器,东长堤村西北变压器,东长堤村东北变压器,东长堤村西台区变压器,南七山南台区变压器,南七山机井,变压器,北七山东坡井变压器【纯农排变】,牛各庄村西变压器,北七山西台,淮河村北台区变压器,西长堤北井变压器【纯农排变】,淮河西井变压器,西武山村西台区变压器,西武山机井变压器,北七山西南井变压器,南兵上村北台区,北七山大沟井台区变压器【纯农排变】,北七山村南变压器【冬季供暖设施】,淮河学校变压器,北七山村东台区变压器,牛各庄二大队台区变压器【纯农排变】,东长堤刘俊井变压器【纯农排变】,上车亭村南变变压器,西长堤村东台区变压器,北七山西山坡井变压器【纯农排变】,北七山村东北井变压器【纯农排变】,牛各庄村南变压器,淮河面粉厂,北七山村北井变压器【纯农排变】,西长堤北山坡台区变压器,淮河村西台区变压器,上车亭小南庄变压器【纯农排变】,东长堤村东台区变压器,牛各庄机井变压器【纯农排变】,淮河西北台区,西长堤村西台区变压器","powerOffReason":"【停电原因】由于更换导线导致１１０ＫＶ涞水变电站１０ＫＶ东文山５１７线路２９号杆至７４号杆停电 【变更送电】无 【发布渠道】保定市涞水电视台（０７月０２日００时至０７月１０日１７时之间）屏幕上方滚动","powerOffId":"2019070113000268"},{"poweroffId":2019070113000259,"sgpoweroffId":null,"subsName":"","lineName":"博旭线529","pubTranName":"高碑店市振兴盛业铸造有限责任公司,闫家务西公变（100）,三小公变变压器,中海实业公司高碑店基地分公司3#变压器,中海油小区2变压器,新泰西路2号公变,阳光888南间隔配电变压器,高碑店市九香食品有限公司,闫家务西2变压器,新新装饰处,0555535385-高碑店市兴泰房地产开发有限公司-专变-118521885-高碑店市和平办事处闫家务村变压器2,中海油小区5变压器,112线公变变压器,五一路二幼公变,中海油小区1变压器,高碑店市栋梁小区2,隆基泰和实业有限公司变压器,高碑店市兴泰房地产开发有限公司,中海油小区8变压器,0387437635-国网河北高碑店市供电公司-专变-45274394-电业局,隆基泰和实业有限公司（海洋花园D区）变压器,宏光塑料制品,和平东路一号公变变压器,河北隆泰物业服务有限责任公司变压器,路灯厂,闫家务东公变（200）,计量箱,五一北变压器,中海油小区7变压器,高碑店市栋梁小区3,五一中变压器,中海油小区3变压器,0387450665-东方伟业机械设备制造厂-专变-45283287-东方伟业机械设备制造,0387451163-高碑店市北环路社区卫生服务站-专变-45283284-北环路社区卫生服务站变压器,高碑店市和平办事处闫家务村变压器1,0564891104-河北隆泰物业服务有限责任公司高碑店分公司-专变-118624993-隆基泰和实业有限公司（世界城小区）变压器,中海油小区4变压器,盛欣化工厂,阳光888北间隔配电,阳光三期,海洋花园东1号公变间隔配电变压器,高碑店市路灯管理办公室变压器,中海实业公司高碑店基地分公司2#变压器,河北隆泰物业有限责任公司受电点变压器,客户投资_闫家务西（村内400）,高碑店市路灯管理办公室（电业局东）变压器,河北鹏润房地产开发有限公司高碑店分公司,闫家务北变压器,海洋花园西2号公变间隔配电变压器,高碑店市兴泰房地产开发有限公司变压器,高碑店市栋梁小区,客户投资_五一南变压器,中海油小区6变压器,0573430990-高碑店市兴泰房地产开发有限公司-专变-120547919-隆基泰和实业有限公司变压器,看守所变压器,","scope":"【影响街道/乡镇】国道１１２线、五一路 【高危重要客户】北环路医院、东环路小学（三小）、二幼 【影响客户】电业局小区、栋梁小区、海洋花园小区、阳光８８８小区、海洋花园Ａ、Ｂ、Ｄ区、闫家务村（村西部分）、闫家务安置区、世界城小区、消防中队、 盛欣化工厂、振兴铸造","startTime":"2019-07-02 01:30:00","stopDate":"2019-07-02 06:30:00","orgNo":"1340612","typeCode":"其他临时停电","poweroffArea":"【全线路停电】停新新装饰处,0555535385-高碑店市兴泰房地产开发有限公司-专变-118521885-高碑店市和平办事处闫家务村变压器2,中海油小区5变压器,112线公变变压器,五一路二幼公变,中海油小区1变压器,高碑店市栋梁小区2,隆基泰和实业有限公司变压器,高碑店市兴泰房地产开发有限公司,中海油小区8变压器,0387437635-国网河北高碑店市供电公司-专变-45274394-电业局,隆基泰和实业有限公司（海洋花园D区）变压器,宏光塑料制品,和平东路一号公变变压器,河北隆泰物业服务有限责任公司变压器,路灯厂,高碑店市和平办事处闫家务村变压器1,闫家务东公变（200）,计量箱,五一北变压器,中海油小区7变压器,高碑店市栋梁小区3,五一中变压器,中海油小区3变压器,0387450665-东方伟业机械设备制造厂-专变-45283287-东方伟业机械设备制造,0387451163-高碑店市北环路社区卫生服务站-专变-45283284-北环路社区卫生服务站变压器,0564891104-河北隆泰物业服务有限责任公司高碑店分公司-专变-118624993-隆基泰和实业有限公司（世界城小区）变压器,中海油小区4变压器,盛欣化工厂,阳光888北间隔配电,阳光三期,海洋花园东1号公变间隔配电变压器,高碑店市路灯管理办公室变压器,中海实业公司高碑店基地分公司2#变压器,河北隆泰物业有限责任公司受电点变压器,客户投资_闫家务西（村内400）,高碑店市路灯管理办公室（电业局东）变压器,河北鹏润房地产开发有限公司高碑店分公司,闫家务北变压器,海洋花园西2号公变间隔配电变压器,高碑店市兴泰房地产开发有限公司变压器,高碑店市栋梁小区,客户投资_五一南变压器,中海油小区6变压器,0573430990-高碑店市兴泰房地产开发有限公司-专变-120547919-隆基泰和实业有限公司变压器,看守所变压器,高碑店市振兴盛业铸造有限责任公司,闫家务西公变（100）,三小公变变压器,中海实业公司高碑店基地分公司3#变压器,中海油小区2变压器,新泰西路2号公变,阳光888南间隔配电变压器,高碑店市九香食品有限公司,闫家务西2变压器","poweroffReason":"【停电原因】由于电缆头过热需紧急处理导致１１０ＫＶ方家务变电站１０ＫＶ博旭５２９线路全线停电 【变更送电】无 【发布渠道】通过９５５９８发布","powerTime":"2019-07-02 05:51:32","powerComm":"已送电","subsNo":"","lineNo":"","tgNo":"","tgName":null,"infoStatus":"1","orgName":"国网高碑店市供电公司","typeName":null,"infoStatusName":null,"dateDay":null,"orgNos":null,"nowTime":null,"countyName":null,"streetName":null,"villageName":null,"roadName":null,"communityName":null,"tranName":null,"sdLineName":null,"cityCode":"1340612","cityName":"国网高碑店市供电公司","provinceCode":null,"stopTime":"2019-07-02 06:30:00","powerType":"全部","powerOffArea":"【全线路停电】停新新装饰处,0555535385-高碑店市兴泰房地产开发有限公司-专变-118521885-高碑店市和平办事处闫家务村变压器2,中海油小区5变压器,112线公变变压器,五一路二幼公变,中海油小区1变压器,高碑店市栋梁小区2,隆基泰和实业有限公司变压器,高碑店市兴泰房地产开发有限公司,中海油小区8变压器,0387437635-国网河北高碑店市供电公司-专变-45274394-电业局,隆基泰和实业有限公司（海洋花园D区）变压器,宏光塑料制品,和平东路一号公变变压器,河北隆泰物业服务有限责任公司变压器,路灯厂,高碑店市和平办事处闫家务村变压器1,闫家务东公变（200）,计量箱,五一北变压器,中海油小区7变压器,高碑店市栋梁小区3,五一中变压器,中海油小区3变压器,0387450665-东方伟业机械设备制造厂-专变-45283287-东方伟业机械设备制造,0387451163-高碑店市北环路社区卫生服务站-专变-45283284-北环路社区卫生服务站变压器,0564891104-河北隆泰物业服务有限责任公司高碑店分公司-专变-118624993-隆基泰和实业有限公司（世界城小区）变压器,中海油小区4变压器,盛欣化工厂,阳光888北间隔配电,阳光三期,海洋花园东1号公变间隔配电变压器,高碑店市路灯管理办公室变压器,中海实业公司高碑店基地分公司2#变压器,河北隆泰物业有限责任公司受电点变压器,客户投资_闫家务西（村内400）,高碑店市路灯管理办公室（电业局东）变压器,河北鹏润房地产开发有限公司高碑店分公司,闫家务北变压器,海洋花园西2号公变间隔配电变压器,高碑店市兴泰房地产开发有限公司变压器,高碑店市栋梁小区,客户投资_五一南变压器,中海油小区6变压器,0573430990-高碑店市兴泰房地产开发有限公司-专变-120547919-隆基泰和实业有限公司变压器,看守所变压器,高碑店市振兴盛业铸造有限责任公司,闫家务西公变（100）,三小公变变压器,中海实业公司高碑店基地分公司3#变压器,中海油小区2变压器,新泰西路2号公变,阳光888南间隔配电变压器,高碑店市九香食品有限公司,闫家务西2变压器","powerOffReason":"【停电原因】由于电缆头过热需紧急处理导致１１０ＫＶ方家务变电站１０ＫＶ博旭５２９线路全线停电 【变更送电】无 【发布渠道】通过９５５９８发布","powerOffId":"2019070113000259"},{"poweroffId":2019070113000253,"sgpoweroffId":null,"subsName":"","lineName":"10kV567北祝南线","pubTranName":"10kV567北祝南线米庄43081台区变压器,10kV567北祝南线17081台区变压器【纯农排变】,10kV567北祝南线17025台区变压器,10kV567北祝南线17031台区变压器,胡庄冷库,河北美味思食品有限公司,华奥橡胶材料有限公司,米庄肉牛养殖厂,10kV567北祝南线17028台区变压器,博野县长城涂料有限公司,10kV567北祝南线17020台区变压器,博野县盛大织布厂吴新,10kV567北祝南线38278台区变压器,10kV567北祝南线17019台区变压器,建欣织布厂,10kV567北祝南线17017台区变压器,10kV567北祝南线17063台区变压器,博野县丽华印铁包装有限公司,10kV567北祝南线19338台区变压器,10kV567北祝南线7665台区变压器,10kV567北祝南线17021台区变压器,0679724098-曹庄新区-专变-219701429-曹庄新区,胡庄村17056,文学织布厂,10kV567北祝南线17032台区变压器,10kV567北祝南线17018台区变压器,博野县雄亚织布厂2,10kV567北祝南线新增09495台区变压器,0616726152-博野县三友热熔胶有限公司-专变-223636680-博野县三友热熔胶有限公司,10kV567北祝南线42626台区变压器,博野县津城油漆厂,10kV567北祝南线17050台区变压器,10kV567北祝南线43082台区变压器,10kV567北祝南线43083台区变压器,曹庄奶牛厂,小伟织布厂,10kV567北祝南线42624台区变压器,10kV567北祝南线43086台区变压器,10kV567北祝南线胡庄村新增变压器,10kV567北祝南线未投运变压器,10kV567北祝南线17033台区变压器,10kV567北祝南线17026台区变压器,10kV567北祝南线白庄蘑菇厂72884台区变压器,10kV567北祝南线51649台区变压器,曹庄浸油厂,10kV567北祝南线17024台区变压器,博野县盛大织布厂2,","scope":"【影响街道/乡镇】小店镇【高危重要客户】无【影响客户】白庄、米庄、曹庄、胡庄、油里铺、张营","startTime":"2019-07-01 16:30:00","stopDate":"2019-07-01 17:30:00","orgNo":"1340608","typeCode":"其他临时停电","poweroffArea":"【全线路停电】停0679724098-曹庄新区-专变-219701429-曹庄新区,10kV567北祝南线新增09495台区变压器,10kV567北祝南线17031台区变压器,10kV567北祝南线17033台区变压器,10kV567北祝南线17020台区变压器,米庄肉牛养殖厂,10kV567北祝南线51649台区变压器,10kV567北祝南线17017台区变压器,10kV567北祝南线17032台区变压器,华奥橡胶材料有限公司,10kV567北祝南线17081台区变压器【纯农排变】,10kV567北祝南线43086台区变压器,10kV567北祝南线38278台区变压器,10kV567北祝南线胡庄村新增变压器,10kV567北祝南线17025台区变压器,10kV567北祝南线7665台区变压器,曹庄奶牛厂,博野县雄亚织布厂2,10kV567北祝南线米庄43081台区变压器,文学织布厂,10kV567北祝南线17018台区变压器,河北美味思食品有限公司,10kV567北祝南线42626台区变压器,建欣织布厂,0616726152-博野县三友热熔胶有限公司-专变-223636680-博野县三友热熔胶有限公司,胡庄冷库,胡庄村17056,曹庄浸油厂,博野县津城油漆厂,10kV567北祝南线17024台区变压器,博野县丽华印铁包装有限公司,博野县盛大织布厂2,10kV567北祝南线19338台区变压器,10kV567北祝南线17063台区变压器,10kV567北祝南线未投运变压器,10kV567北祝南线17026台区变压器,小伟织布厂,博野县盛大织布厂吴新,10kV567北祝南线17021台区变压器,10kV567北祝南线17050台区变压器,博野县长城涂料有限公司,10kV567北祝南线白庄蘑菇厂72884台区变压器,10kV567北祝南线43083台区变压器,10kV567北祝南线17019台区变压器,10kV567北祝南线43082台区变压器,10kV567北祝南线17028台区变压器,10kV567北祝南线42624台区变压器","poweroffReason":"【停电原因】由于电杆倾斜，需停电进行紧急消缺导致１１０ＫＶ胡庄变电站北祝南５６７线路全线停电【变更送电】因工作进度加快原因，送电时间由２３：００变更为１７：３０【发布渠道】通过９５５９８发布","powerTime":"2019-07-01 17:13:22","powerComm":"已送电","subsNo":"","lineNo":"","tgNo":"","tgName":null,"infoStatus":"1","orgName":"国网博野县供电公司","typeName":null,"infoStatusName":null,"dateDay":null,"orgNos":null,"nowTime":null,"countyName":null,"streetName":null,"villageName":null,"roadName":null,"communityName":null,"tranName":null,"sdLineName":null,"cityCode":"1340608","cityName":"国网博野县供电公司","provinceCode":null,"stopTime":"2019-07-01 17:30:00","powerType":"全部","powerOffArea":"【全线路停电】停0679724098-曹庄新区-专变-219701429-曹庄新区,10kV567北祝南线新增09495台区变压器,10kV567北祝南线17031台区变压器,10kV567北祝南线17033台区变压器,10kV567北祝南线17020台区变压器,米庄肉牛养殖厂,10kV567北祝南线51649台区变压器,10kV567北祝南线17017台区变压器,10kV567北祝南线17032台区变压器,华奥橡胶材料有限公司,10kV567北祝南线17081台区变压器【纯农排变】,10kV567北祝南线43086台区变压器,10kV567北祝南线38278台区变压器,10kV567北祝南线胡庄村新增变压器,10kV567北祝南线17025台区变压器,10kV567北祝南线7665台区变压器,曹庄奶牛厂,博野县雄亚织布厂2,10kV567北祝南线米庄43081台区变压器,文学织布厂,10kV567北祝南线17018台区变压器,河北美味思食品有限公司,10kV567北祝南线42626台区变压器,建欣织布厂,0616726152-博野县三友热熔胶有限公司-专变-223636680-博野县三友热熔胶有限公司,胡庄冷库,胡庄村17056,曹庄浸油厂,博野县津城油漆厂,10kV567北祝南线17024台区变压器,博野县丽华印铁包装有限公司,博野县盛大织布厂2,10kV567北祝南线19338台区变压器,10kV567北祝南线17063台区变压器,10kV567北祝南线未投运变压器,10kV567北祝南线17026台区变压器,小伟织布厂,博野县盛大织布厂吴新,10kV567北祝南线17021台区变压器,10kV567北祝南线17050台区变压器,博野县长城涂料有限公司,10kV567北祝南线白庄蘑菇厂72884台区变压器,10kV567北祝南线43083台区变压器,10kV567北祝南线17019台区变压器,10kV567北祝南线43082台区变压器,10kV567北祝南线17028台区变压器,10kV567北祝南线42624台区变压器","powerOffReason":"【停电原因】由于电杆倾斜，需停电进行紧急消缺导致１１０ＫＶ胡庄变电站北祝南５６７线路全线停电【变更送电】因工作进度加快原因，送电时间由２３：００变更为１７：３０【发布渠道】通过９５５９８发布","powerOffId":"2019070113000253"},{"poweroffId":2019070113000249,"sgpoweroffId":null,"subsName":"","lineName":"山南线517","pubTranName":"麻屋庄6#,","scope":"【影响街道/乡镇】桥头乡【高危重要客户】无【影响客户】麻屋庄村","startTime":"2019-07-01 15:05:14","stopDate":"2019-07-01 19:00:00","orgNo":"1340625","typeCode":"电网故障停限电","poweroffArea":"【单台区停电】停麻屋庄6#","poweroffReason":"【停电原因】由于低压出线烧毁导致１１０ＫＶ易县变电站山南５１７线路麻屋庄村６＃公变台区停电【变更送电】无【发布渠道】通过９５５９８发布","powerTime":"2019-07-01 18:29:49","powerComm":"已送电","subsNo":"","lineNo":"","tgNo":"","tgName":null,"infoStatus":"1","orgName":"国网易县供电公司","typeName":null,"infoStatusName":null,"dateDay":null,"orgNos":null,"nowTime":null,"countyName":null,"streetName":null,"villageName":null,"roadName":null,"communityName":null,"tranName":null,"sdLineName":null,"cityCode":"1340625","cityName":"国网易县供电公司","provinceCode":null,"stopTime":"2019-07-01 19:00:00","powerType":"全部","powerOffArea":"【单台区停电】停麻屋庄6#","powerOffReason":"【停电原因】由于低压出线烧毁导致１１０ＫＶ易县变电站山南５１７线路麻屋庄村６＃公变台区停电【变更送电】无【发布渠道】通过９５５９８发布","powerOffId":"2019070113000249"},{"poweroffId":2019070113000180,"sgpoweroffId":null,"subsName":"","lineName":"10kV镇政府565线","pubTranName":"庄疃3-1台区配变,庄疃1号台区,南义安北台区变压器,南义安西二台区,北义安村西公用台区变压器,庄疃内2台区,0469316982-韩卫军-专变-46774750-韩卫军,庄疃1-4台区配变,北义安5台区,庄疃东北井变压器,庄疃1-3台区配变,南义安村北井,南义安北二台区,北义安3台区,义安镇镇政府,北义安村西南配变变压器,北义安6台区,派出所(庄町),北义安4台区,北义安村北2台区变压器,北义安派出所专用变压器,南义安井变压器【纯农排变】,南义安老大队台区,庄町李井石灰,配变,北义安2台区,南义安大队广场台区,北义安东南2台区变压器,北义安7台区,北义安1台区,庄疃1-1台区配变,客户投资_姜守国,庄疃1-2台区配变,北义安村北变压器,南义安北三台区变压器,北义安村内变压器,变压器,庄疃3号台区变压器,南义安北四台区变压器,南义安村中台区,义安大桥100KVA路灯变,北义安镇政府台区,庄疃4号台区,北义安村内058变压器,庄疃公用南变,","scope":"【影响街道/乡镇】义安镇 【高危重要客户】无 【影响客户】北义安村、南义安村、庄疃村、诚信工艺品厂、波峰中学","startTime":"2019-07-01 11:11:02","stopDate":"2019-07-01 14:30:00","orgNo":"1340614","typeCode":"电网故障停限电","poweroffArea":"【全线路停电】停庄疃1号台区,南义安北台区变压器,南义安西二台区,北义安村西公用台区变压器,庄疃内2台区,0469316982-韩卫军-专变-46774750-韩卫军,庄疃1-4台区配变,北义安5台区,庄疃东北井变压器,庄疃1-3台区配变,南义安村北井,南义安北二台区,北义安3台区,义安镇镇政府,庄疃3-1台区配变,北义安村西南配变变压器,北义安6台区,派出所(庄町),北义安4台区,北义安村北2台区变压器,北义安派出所专用变压器,南义安井变压器【纯农排变】,南义安老大队台区,庄町李井石灰,庄疃4号台区,配变,北义安2台区,南义安大队广场台区,北义安东南2台区变压器,北义安7台区,北义安1台区,庄疃1-1台区配变,客户投资_姜守国,庄疃1-2台区配变,北义安村北变压器,南义安北三台区变压器,北义安村内变压器,变压器,庄疃3号台区变压器,南义安北四台区变压器,南义安村中台区,义安大桥100KVA路灯变,北义安镇政府台区,庄疃公用南变,北义安村内058变压器","poweroffReason":"【停电原因】由于Ｃ相接地导致１１０ＫＶ义安变电站１０ＫＶ镇政府５６５线路全线停电 【变更送电】因抢修进度加快原因，送电时间由１７：００变更为１４：３０ 【发布渠道】通过９５５９８发布","powerTime":"2019-07-01 14:04:06","powerComm":"已送电","subsNo":"","lineNo":"","tgNo":"","tgName":null,"infoStatus":"1","orgName":"国网涞水县供电公司","typeName":null,"infoStatusName":null,"dateDay":null,"orgNos":null,"nowTime":null,"countyName":null,"streetName":null,"villageName":null,"roadName":null,"communityName":null,"tranName":null,"sdLineName":null,"cityCode":"1340614","cityName":"国网涞水县供电公司","provinceCode":null,"stopTime":"2019-07-01 14:30:00","powerType":"全部","powerOffArea":"【全线路停电】停庄疃1号台区,南义安北台区变压器,南义安西二台区,北义安村西公用台区变压器,庄疃内2台区,0469316982-韩卫军-专变-46774750-韩卫军,庄疃1-4台区配变,北义安5台区,庄疃东北井变压器,庄疃1-3台区配变,南义安村北井,南义安北二台区,北义安3台区,义安镇镇政府,庄疃3-1台区配变,北义安村西南配变变压器,北义安6台区,派出所(庄町),北义安4台区,北义安村北2台区变压器,北义安派出所专用变压器,南义安井变压器【纯农排变】,南义安老大队台区,庄町李井石灰,庄疃4号台区,配变,北义安2台区,南义安大队广场台区,北义安东南2台区变压器,北义安7台区,北义安1台区,庄疃1-1台区配变,客户投资_姜守国,庄疃1-2台区配变,北义安村北变压器,南义安北三台区变压器,北义安村内变压器,变压器,庄疃3号台区变压器,南义安北四台区变压器,南义安村中台区,义安大桥100KVA路灯变,北义安镇政府台区,庄疃公用南变,北义安村内058变压器","powerOffReason":"【停电原因】由于Ｃ相接地导致１１０ＫＶ义安变电站１０ＫＶ镇政府５６５线路全线停电 【变更送电】因抢修进度加快原因，送电时间由１７：００变更为１４：３０ 【发布渠道】通过９５５９８发布","powerOffId":"2019070113000180"},{"poweroffId":2019070113000176,"sgpoweroffId":null,"subsName":"","lineName":"营房516","pubTranName":"撞河村内变压器,南泽畔东北台区,河北万达箱包制品有限公司变压器,高碑店市龚辛庄泰兴苗圃场变压器,石家庄乾荣房地产开发有限公司2,南泽畔中,河北新发地农副产品有限公司1,高碑店市国有粮食购销储运有限公司变压器,66336东宿,0585583208-高碑店市路灯管理办公室-专变-125094112-高碑店市路灯管理办公室变压器,石家庄乾荣房地产开发有限公司,松林地二变压器【纯农排变】,南泽畔地南变压器,氧气厂,中国人民解放军66336部队变压器,平安店南变压器,高碑店市浩邦牧业有限公司变压器,撞河北变压器,高一村变压器,益友 ???,燕桥水泥厂2,南泽畔北变压器,92181部队,66336修理连,武装部靶场,南泽畔西变压器,66336医院,南泽畔东变压器,益友2,高碑店市佳兴工业有限公司变压器,方家务浇地,南泽畔地变压器【纯农排变】,龚辛庄东台区,平安店新变压器,松林地变压器【纯农排变】,平安店地南变压器,自来水北井,撞河西南变压器,燕桥水泥厂,松林南变压器,军城办变压器,乔刘凡东北变压器,平安店北变压器,高碑店市北城办事处方家务村铁路西变台,高碑店市撞河中韵橡胶制品加工部变压器,撞河南变压器,陈各庄西地1变压器【纯农排变】,松林村变压器,平三变压器,龚辛庄南变压器,平安店西北变压器【纯农排变】,碑店市同兴农林畜牧有限公司变压器,乔刘凡东北2变压器,茶棚店村内变压器,县农场,冷库,职教中心,蔬菜基地,平安店地北变压器【纯农排变】,陈各庄东地变压器【纯农排变】,华宇燃气,高碑店市润兴物业服务有限公司2变压器,高碑店市润兴物业服务有限公司1变压器,乔刘凡地变压器【纯农排变】,龚辛庄北浇变压器【纯农排变】,高一西变压器,石家庄乾荣房地产开发有限公司变压器,军城办公变变压器,高一面粉厂,撞河东浇地变压器【纯农排变】,高碑店市利兴综合加工厂变压器,高一大方变压器,石家庄乾荣房地产开发有限公司1,王永彬变压器,高一砖厂,颜国红,祁村东变压器,平安店北二变压器,龚新庄地变压器【纯农排变】,撞河村东变压器,平安店西变压器,杨振林,高三分支变压器,高碑店市救助管理站变压器,撞河西北变压器,66336锅炉房,高一王建国,河北豆想你食品有限公司,民悦模具有限公司,变压器,松林新变压器,0200002074|66336东宿,乔二砖2,龚辛庄北变压器,乔刘凡乡二砖厂,0664684790-高碑店市泰鑫溢润金属制品有限公司-专变-201043231-高碑店市泰鑫溢润金属制品有限公司,龚辛庄村变压器,胶合板,姬金华变压器,平安店东变压器,0652546169-高碑店市路灯管理办公室-专变-178898805-高碑店市路灯管理办公室100变压器,66336锅炉房（2）,撞河中变压器,高碑店市益友工业有限责任公司变压器,高碑店市军城绿科苗木种植农民专业合作社,兴达猪场,茶棚店北变压器,乔刘凡地南变压器【纯农排变】,乔刘凡地北变压器【纯农排变】,高碑店市三兴装饰材料有限公司变压器,祁村西变压器,高一铁厂,","scope":"【影响街道/乡镇】军城办事处、和平办事处、北城办事处 【高危重要客户】无 【影响客户】茶棚店村、龚辛庄村、南泽畔村、平安店村、祁村、乔刘凡村、松林村、撞河村、高三村、高一村、益友工业（北厂）、佳兴工业、包安面粉厂、中安天德机动车检测场、红成模具厂、昌信物业、乾荣地产、利兴综合加工厂、昌信物业、银庭物业、高化工业气体、民悦模具、中国人民解放军９１２９２部队、长盛商砼混凝土、联众机械制造、国有粮食购销储运、三兴装饰材料、中国人民解放军６６３３６部队、浩邦牧业、中国人民解放军６６３３６部队（医院）、高一铁厂、中国人民解放军６６３３６部队（修理连）、达烨铸造加工厂、高碑店市民政事业服务中心、精工液压密封件厂、高碑店明泉铸造厂、高碑店燕桥水泥厂、晨航橡塑制品有限公司、路灯管理办公室、王永彬、保定森泽汽车销售有限公司、自来水公司、职教中心、华宇燃气、跃然文化传媒、乔刘凡二砖二、泰鑫溢润金属、龚辛庄泰兴苗圃场、人民武装部靶场、方家务村（部分）、河北兴达原种猪有限公司、生态园餐厅、军城绿科苗木种植农民专业合作社、同兴农林畜牧有限公司、姬金华、河北万达箱包制品有限公司","startTime":"2019-07-01 11:10:56","stopDate":"2019-07-01 13:00:00","orgNo":"1340612","typeCode":"电网故障停限电","poweroffArea":"【全线路停电】停撞河中变压器,高碑店市益友工业有限责任公司变压器,高碑店市军城绿科苗木种植农民专业合作社,兴达猪场,茶棚店北变压器,乔刘凡地南变压器【纯农排变】,乔刘凡地北变压器【纯农排变】,高碑店市三兴装饰材料有限公司变压器,祁村西变压器,撞河村内变压器,高碑店市救助管理站变压器,松林村变压器,高碑店市润兴物业服务有限公司2变压器,高碑店市润兴物业服务有限公司1变压器,乔刘凡地变压器【纯农排变】,冷库,民悦模具有限公司,胶合板,姬金华变压器,平安店东变压器,龚辛庄北浇变压器【纯农排变】,高一面粉厂,撞河东浇地变压器【纯农排变】,高碑店市利兴综合加工厂变压器,南泽畔中,祁村东变压器,平安店北二变压器,高一村变压器,益友 ???,乔二砖2,龚辛庄北变压器,乔刘凡乡二砖厂,石家庄乾荣房地产开发有限公司1,燕桥水泥厂,松林新变压器,0664684790-高碑店市泰鑫溢润金属制品有限公司-专变-201043231-高碑店市泰鑫溢润金属制品有限公司,高一西变压器,石家庄乾荣房地产开发有限公司变压器,军城办公变变压器,0585583208-高碑店市路灯管理办公室-专变-125094112-高碑店市路灯管理办公室变压器,石家庄乾荣房地产开发有限公司,高一大方变压器,氧气厂,变压器,平安店西变压器,杨振林,高三分支变压器,撞河西北变压器,66336锅炉房,高一王建国,河北豆想你食品有限公司,颜国红,石家庄乾荣房地产开发有限公司2,中国人民解放军66336部队变压器,平安店南变压器,高碑店市浩邦牧业有限公司变压器,撞河北变压器,南泽畔东变压器,益友2,高碑店市佳兴工业有限公司变压器,方家务浇地,龚辛庄东台区,平安店新变压器,松林地变压器【纯农排变】,平安店地南变压器,自来水北井,高碑店市北城办事处方家务村铁路西变台,高碑店市撞河中韵橡胶制品加工部变压器,撞河南变压器,陈各庄西地1变压器【纯农排变】,平三变压器,龚辛庄南变压器,平安店西北变压器【纯农排变】,碑店市同兴农林畜牧有限公司变压器,乔刘凡东北2变压器,茶棚店村内变压器,县农场,蔬菜基地,平安店地北变压器【纯农排变】,陈各庄东地变压器【纯农排变】,华宇燃气,66336锅炉房（2）,南泽畔地变压器【纯农排变】,0652546169-高碑店市路灯管理办公室-专变-178898805-高碑店市路灯管理办公室100变压器,撞河村东变压器,南泽畔东北台区,河北万达箱包制品有限公司变压器,高碑店市龚辛庄泰兴苗圃场变压器,河北新发地农副产品有限公司1,高碑店市国有粮食购销储运有限公司变压器,66336东宿,王永彬变压器,高一砖厂,高一铁厂,燕桥水泥厂2,南泽畔北变压器,92181部队,66336修理连,武装部靶场,南泽畔西变压器,66336医院,0200002074|66336东宿,职教中心,龚辛庄村变压器,松林地二变压器【纯农排变】,南泽畔地南变压器,龚新庄地变压器【纯农排变】,撞河西南变压器,松林南变压器,军城办变压器,乔刘凡东北变压器,平安店北变压器","poweroffReason":"【停电原因】由于乔刘凡北分支０５号杆被撞坏导致２２０ＫＶ高碑店变电站１０ＫＶ营房５１６线路全线停电 【变更送电】因抢修进度加快原因，送电时间由１８：００变更为１３：００ 【发布渠道】通过９５５９８发布","powerTime":"2019-07-01 12:34:29","powerComm":"已送电","subsNo":"","lineNo":"","tgNo":"","tgName":null,"infoStatus":"1","orgName":"国网高碑店市供电公司","typeName":null,"infoStatusName":null,"dateDay":null,"orgNos":null,"nowTime":null,"countyName":null,"streetName":null,"villageName":null,"roadName":null,"communityName":null,"tranName":null,"sdLineName":null,"cityCode":"1340612","cityName":"国网高碑店市供电公司","provinceCode":null,"stopTime":"2019-07-01 13:00:00","powerType":"全部","powerOffArea":"【全线路停电】停撞河中变压器,高碑店市益友工业有限责任公司变压器,高碑店市军城绿科苗木种植农民专业合作社,兴达猪场,茶棚店北变压器,乔刘凡地南变压器【纯农排变】,乔刘凡地北变压器【纯农排变】,高碑店市三兴装饰材料有限公司变压器,祁村西变压器,撞河村内变压器,高碑店市救助管理站变压器,松林村变压器,高碑店市润兴物业服务有限公司2变压器,高碑店市润兴物业服务有限公司1变压器,乔刘凡地变压器【纯农排变】,冷库,民悦模具有限公司,胶合板,姬金华变压器,平安店东变压器,龚辛庄北浇变压器【纯农排变】,高一面粉厂,撞河东浇地变压器【纯农排变】,高碑店市利兴综合加工厂变压器,南泽畔中,祁村东变压器,平安店北二变压器,高一村变压器,益友 ???,乔二砖2,龚辛庄北变压器,乔刘凡乡二砖厂,石家庄乾荣房地产开发有限公司1,燕桥水泥厂,松林新变压器,0664684790-高碑店市泰鑫溢润金属制品有限公司-专变-201043231-高碑店市泰鑫溢润金属制品有限公司,高一西变压器,石家庄乾荣房地产开发有限公司变压器,军城办公变变压器,0585583208-高碑店市路灯管理办公室-专变-125094112-高碑店市路灯管理办公室变压器,石家庄乾荣房地产开发有限公司,高一大方变压器,氧气厂,变压器,平安店西变压器,杨振林,高三分支变压器,撞河西北变压器,66336锅炉房,高一王建国,河北豆想你食品有限公司,颜国红,石家庄乾荣房地产开发有限公司2,中国人民解放军66336部队变压器,平安店南变压器,高碑店市浩邦牧业有限公司变压器,撞河北变压器,南泽畔东变压器,益友2,高碑店市佳兴工业有限公司变压器,方家务浇地,龚辛庄东台区,平安店新变压器,松林地变压器【纯农排变】,平安店地南变压器,自来水北井,高碑店市北城办事处方家务村铁路西变台,高碑店市撞河中韵橡胶制品加工部变压器,撞河南变压器,陈各庄西地1变压器【纯农排变】,平三变压器,龚辛庄南变压器,平安店西北变压器【纯农排变】,碑店市同兴农林畜牧有限公司变压器,乔刘凡东北2变压器,茶棚店村内变压器,县农场,蔬菜基地,平安店地北变压器【纯农排变】,陈各庄东地变压器【纯农排变】,华宇燃气,66336锅炉房（2）,南泽畔地变压器【纯农排变】,0652546169-高碑店市路灯管理办公室-专变-178898805-高碑店市路灯管理办公室100变压器,撞河村东变压器,南泽畔东北台区,河北万达箱包制品有限公司变压器,高碑店市龚辛庄泰兴苗圃场变压器,河北新发地农副产品有限公司1,高碑店市国有粮食购销储运有限公司变压器,66336东宿,王永彬变压器,高一砖厂,高一铁厂,燕桥水泥厂2,南泽畔北变压器,92181部队,66336修理连,武装部靶场,南泽畔西变压器,66336医院,0200002074|66336东宿,职教中心,龚辛庄村变压器,松林地二变压器【纯农排变】,南泽畔地南变压器,龚新庄地变压器【纯农排变】,撞河西南变压器,松林南变压器,军城办变压器,乔刘凡东北变压器,平安店北变压器","powerOffReason":"【停电原因】由于乔刘凡北分支０５号杆被撞坏导致２２０ＫＶ高碑店变电站１０ＫＶ营房５１６线路全线停电 【变更送电】因抢修进度加快原因，送电时间由１８：００变更为１３：００ 【发布渠道】通过９５５９８发布","powerOffId":"2019070113000176"},{"poweroffId":2019070113000135,"sgpoweroffId":null,"subsName":"","lineName":"10kV朝阳路站516线路","pubTranName":"10kVB1308配电室B1308配电变压器,","scope":"【影响街道/乡镇】东风中路、百花中路 【高危重要客户】无 【影响客户】铁道变压器宿舍、铁道变压器托儿所","startTime":"2019-07-12 07:00:00","stopDate":"2019-07-12 15:00:00","orgNo":"13406","typeCode":"计划停电","poweroffArea":"【单台区停电】停10kVB1308配电室B1308配电变压器","poweroffReason":"【停电原因】由于供电设备临时检修导致１０ＫＶ朝阳路变电站５１６线路Ｂ１３０８公变台区停电【变更送电】无【发布渠道】保定市保定有线电视台（７月３日２０时１５分至２１时４５分之间）屏幕上滚动","powerTime":"2019-07-12 14:50:24","powerComm":"已送电","subsNo":"","lineNo":"","tgNo":"","tgName":null,"infoStatus":"1","orgName":"保定供电公司","typeName":null,"infoStatusName":null,"dateDay":null,"orgNos":null,"nowTime":null,"countyName":null,"streetName":null,"villageName":null,"roadName":null,"communityName":null,"tranName":null,"sdLineName":null,"cityCode":"13406","cityName":"保定供电公司","provinceCode":null,"stopTime":"2019-07-12 15:00:00","powerType":"全部","powerOffArea":"【单台区停电】停10kVB1308配电室B1308配电变压器","powerOffReason":"【停电原因】由于供电设备临时检修导致１０ＫＶ朝阳路变电站５１６线路Ｂ１３０８公变台区停电【变更送电】无【发布渠道】保定市保定有线电视台（７月３日２０时１５分至２１时４５分之间）屏幕上滚动","powerOffId":"2019070113000135"}],"pageModel":{"pageNow":880,"totalCount":10973,"totalPage":1098,"tableRows":0,"pageCount":10,"beginCount":8790},"isExperi":"1"}