{"message":"","today":"2020-06-15","seleList":[{"poweroffId":2019070113000075,"sgpoweroffId":null,"subsName":"","lineName":"10kV513三埝线","pubTranName":"中埝农排3台区【纯农排变】,北埝中学,南埝农排1台区【纯农排变】,北埝综合7台区,中埝综合4台区,北埝小伟,北埝综合4台区,北埝魏俊卿,中埝农排5台区【纯农排变】,北埝华松制香厂,北埝粮站,南埝农排4台区【纯农排变】,中埝农排4台区【纯农排变】,北埝综合2台区,南埝农排3台区【纯农排变】,南埝综合2台区,北埝农排2台区【纯农排变】,北埝综合10台区,北埝农排8台区【纯农排变】,北埝综合12台区,北埝综合11台区,北埝综合5台区,蠡县荣光棉花有限公司,北埝农排3台区【纯农排变】,南埝农排5台区【纯农排变】,北埝农排5台区【纯农排变】,中埝综合2台区,中埝综合3台区,北埝农排9台区【纯农排变】,北埝乡,南埝农排2台区【纯农排变】,北埝综合3台区,中埝农排1台区【纯农排变】,南埝西2,中埝农排6台区【纯农排变】,北埝农排4台区【纯农排变】,北埝综合8台区,中埝综合1台区,北埝综合6台区,南埝综合1台区,河北蠡县华龙福利化工厂,北埝综合1台区,中埝农排2台区【纯农排变】,北埝农排7台区【纯农排变】,北埝综合13台区变压器,北埝综合9台区,北埝农排6台区【纯农排变】,南埝综合4台区,蠡县农惠粮食农民专业合作社变压器,南埝综合3台区,","scope":"【影响街道/乡镇】北埝头乡【高危重要客户】无【影响客户】北埝村、南埝村、中埝村","startTime":"2019-07-10 05:00:00","stopDate":"2019-07-10 20:30:00","orgNo":"1340616","typeCode":"计划停电","poweroffArea":"【全线路停电】停北埝综合4台区,中埝综合4台区,北埝综合13台区变压器,南埝西2,北埝综合2台区,北埝综合8台区,北埝综合3台区,南埝综合3台区,南埝农排5台区【纯农排变】,中埝农排5台区【纯农排变】,中埝农排1台区【纯农排变】,南埝农排1台区【纯农排变】,中埝农排3台区【纯农排变】,中埝综合1台区,北埝综合9台区,北埝农排3台区【纯农排变】,中埝农排2台区【纯农排变】,北埝中学,北埝华松制香厂,北埝乡,南埝农排2台区【纯农排变】,北埝综合6台区,蠡县农惠粮食农民专业合作社变压器,北埝农排4台区【纯农排变】,中埝综合3台区,北埝农排9台区【纯农排变】,北埝综合12台区,北埝综合1台区,北埝综合11台区,南埝综合1台区,南埝综合4台区,北埝综合10台区,南埝农排4台区【纯农排变】,蠡县荣光棉花有限公司,北埝农排5台区【纯农排变】,北埝粮站,北埝农排2台区【纯农排变】,中埝综合2台区,北埝魏俊卿,中埝农排6台区【纯农排变】,北埝小伟,北埝综合7台区,南埝综合2台区,北埝综合5台区,北埝农排6台区【纯农排变】,北埝农排8台区【纯农排变】,中埝农排4台区【纯农排变】,河北蠡县华龙福利化工厂,北埝农排7台区【纯农排变】,南埝农排3台区【纯农排变】","poweroffReason":"【停电原因】由于更换电缆导致３５ＫＶ李岗变电站１０ＫＶ三埝５１３线路全线停电【变更送电】因工作进度加快原因，送电时间由２３：００变更为２０：３０【发布渠道】河北省保定市蠡县电视台（０７月０１日至０７月０９日２０：００至２２：００之间）屏幕上方滚动","powerTime":"2019-07-10 20:01:53","powerComm":"已送电","subsNo":"","lineNo":"","tgNo":"","tgName":null,"infoStatus":"1","orgName":"国网蠡县供电公司","typeName":null,"infoStatusName":null,"dateDay":null,"orgNos":null,"nowTime":null,"countyName":null,"streetName":null,"villageName":null,"roadName":null,"communityName":null,"tranName":null,"sdLineName":null,"cityCode":"1340616","cityName":"国网蠡县供电公司","provinceCode":null,"stopTime":"2019-07-10 20:30:00","powerType":"全部","powerOffArea":"【全线路停电】停北埝综合4台区,中埝综合4台区,北埝综合13台区变压器,南埝西2,北埝综合2台区,北埝综合8台区,北埝综合3台区,南埝综合3台区,南埝农排5台区【纯农排变】,中埝农排5台区【纯农排变】,中埝农排1台区【纯农排变】,南埝农排1台区【纯农排变】,中埝农排3台区【纯农排变】,中埝综合1台区,北埝综合9台区,北埝农排3台区【纯农排变】,中埝农排2台区【纯农排变】,北埝中学,北埝华松制香厂,北埝乡,南埝农排2台区【纯农排变】,北埝综合6台区,蠡县农惠粮食农民专业合作社变压器,北埝农排4台区【纯农排变】,中埝综合3台区,北埝农排9台区【纯农排变】,北埝综合12台区,北埝综合1台区,北埝综合11台区,南埝综合1台区,南埝综合4台区,北埝综合10台区,南埝农排4台区【纯农排变】,蠡县荣光棉花有限公司,北埝农排5台区【纯农排变】,北埝粮站,北埝农排2台区【纯农排变】,中埝综合2台区,北埝魏俊卿,中埝农排6台区【纯农排变】,北埝小伟,北埝综合7台区,南埝综合2台区,北埝综合5台区,北埝农排6台区【纯农排变】,北埝农排8台区【纯农排变】,中埝农排4台区【纯农排变】,河北蠡县华龙福利化工厂,北埝农排7台区【纯农排变】,南埝农排3台区【纯农排变】","powerOffReason":"【停电原因】由于更换电缆导致３５ＫＶ李岗变电站１０ＫＶ三埝５１３线路全线停电【变更送电】因工作进度加快原因，送电时间由２３：００变更为２０：３０【发布渠道】河北省保定市蠡县电视台（０７月０１日至０７月０９日２０：００至２２：００之间）屏幕上方滚动","powerOffId":"2019070113000075"},{"poweroffId":2019070113000072,"sgpoweroffId":null,"subsName":"","lineName":"拔茄村587","pubTranName":"留九庄3351变压器【纯农排变】,留九庄新民居4672变压器,兴达农机0507,东马宅0251变压器,永兴板厂0555,唐县震南粮油综合门市新装10KVA配变4860,拔茄0332变压器,东马寨南水0253变压器【纯农排变】,留九庄0519变压器【纯农排变】,岳岭6010变压器,东马宅0510变压器,拔茄6007变压器,留九庄1488变压器,岳岭0521变压器,留九庄3036变压器,留九庄新民居4770变压器,西马赛0254变压器,留九庄0247变压器【纯农排变】,永旺农机厂0249,兴涛工艺品厂2531,唐县天威工艺品厂10KV配变,岳岭2532变压器,留九庄0517变压器,留九庄5137变压器,西马赛村西水0255变压器【纯农排变】,红星农机厂0508,留九庄0520变压器,留九庄4857变压器,西马赛5057变压器,华龙玻璃厂0523,岳岭村4673变压器,岳岭0524变压器,西马赛0509变压器,西马寨面粉厂0852,仿古瓦厂0511,拔茄村南水2373变压器,唐县中原机械厂,配变,东马寨2769变压器,占雨工艺铸造厂1870,留九庄2380变压器,保定宁信铸造材料有限公司,拔茄2374变压器,拔茄0260变压器,东马寨1721变压器【纯农排变】,岳岭4914变压器,留九庄4915变压器,东马寨2081变压器【纯农排变】,留九庄0248变压器,东马寨4916变压器,岳岭0243变压器,唐县天威工艺品厂2384,岳岭6102变压器,岳岭材西4078变压器,东马寨2770变压器,唐县精艺工艺品厂3133,留九庄0450变压器,岳岭0525变压器,拔茄新增4007变压器,东马寨0250变压器,拔茄村东3135变压器,","scope":"【影响街道/乡镇】王京镇【高危重要客户】无【影响客户】留九庄、岳岭、东马宅、西马宅、拔茄、唐县震南粮油综合门市、唐县天威工艺品厂、唐县精艺工艺品厂、保定振杰塑料包装制造有限公司、保定宁信新型材料有限公司、兴涛工艺品厂、唐县天威工艺品厂、红星农机厂、永旺农机厂、王京镇卫生院、永兴板厂、唐县占雨工艺品厂、华龙玻璃厂、兴达农机、仿古瓦厂、西马寨面粉厂","startTime":"2019-07-10 05:00:00","stopDate":"2019-07-10 21:00:00","orgNo":"1340622","typeCode":"计划停电","poweroffArea":"【全线路停电】停留九庄3351变压器【纯农排变】,红星农机厂0508,兴达农机0507,岳岭村4673变压器,岳岭2532变压器,岳岭0524变压器,仿古瓦厂0511,东马宅0510变压器,拔茄6007变压器,东马寨1721变压器【纯农排变】,留九庄0247变压器【纯农排变】,配变,岳岭6010变压器,拔茄2374变压器,留九庄5137变压器,唐县天威工艺品厂10KV配变,东马寨2770变压器,东马寨南水0253变压器【纯农排变】,留九庄0519变压器【纯农排变】,岳岭材西4078变压器,留九庄0248变压器,永旺农机厂0249,拔茄新增4007变压器,拔茄0260变压器,西马赛5057变压器,留九庄1488变压器,留九庄3036变压器,岳岭0243变压器,东马寨4916变压器,东马寨2081变压器【纯农排变】,拔茄0332变压器,留九庄0520变压器,唐县天威工艺品厂2384,岳岭0525变压器,留九庄0450变压器,唐县震南粮油综合门市新装10KVA配变4860,东马寨0250变压器,兴涛工艺品厂2531,留九庄0517变压器,西马赛0509变压器,西马赛村西水0255变压器【纯农排变】,东马宅0251变压器,东马寨2769变压器,留九庄2380变压器,华龙玻璃厂0523,拔茄村南水2373变压器,留九庄新民居4770变压器,永兴板厂0555,留九庄4915变压器,留九庄新民居4672变压器,唐县精艺工艺品厂3133,岳岭4914变压器,唐县中原机械厂,拔茄村东3135变压器,占雨工艺铸造厂1870,岳岭6102变压器,西马寨面粉厂0852,岳岭0521变压器,西马赛0254变压器,留九庄4857变压器,保定宁信铸造材料有限公司","poweroffReason":"【停电原因】由于线路检修导致１１０ＫＶ拔茄变电站拔茄村５８７线路全线停电【变更送电】因工作进度加快原因，送电时间由１１日０１：００变更为１０日２１：００【发布渠道】唐县电视台（０７月０１日至０７月０９日的２０：００时至２０：３０时之间）屏幕上方滚动字幕","powerTime":"2019-07-10 20:31:06","powerComm":"已送电","subsNo":"","lineNo":"","tgNo":"","tgName":null,"infoStatus":"1","orgName":"国网唐县供电公司","typeName":null,"infoStatusName":null,"dateDay":null,"orgNos":null,"nowTime":null,"countyName":null,"streetName":null,"villageName":null,"roadName":null,"communityName":null,"tranName":null,"sdLineName":null,"cityCode":"1340622","cityName":"国网唐县供电公司","provinceCode":null,"stopTime":"2019-07-10 21:00:00","powerType":"全部","powerOffArea":"【全线路停电】停留九庄3351变压器【纯农排变】,红星农机厂0508,兴达农机0507,岳岭村4673变压器,岳岭2532变压器,岳岭0524变压器,仿古瓦厂0511,东马宅0510变压器,拔茄6007变压器,东马寨1721变压器【纯农排变】,留九庄0247变压器【纯农排变】,配变,岳岭6010变压器,拔茄2374变压器,留九庄5137变压器,唐县天威工艺品厂10KV配变,东马寨2770变压器,东马寨南水0253变压器【纯农排变】,留九庄0519变压器【纯农排变】,岳岭材西4078变压器,留九庄0248变压器,永旺农机厂0249,拔茄新增4007变压器,拔茄0260变压器,西马赛5057变压器,留九庄1488变压器,留九庄3036变压器,岳岭0243变压器,东马寨4916变压器,东马寨2081变压器【纯农排变】,拔茄0332变压器,留九庄0520变压器,唐县天威工艺品厂2384,岳岭0525变压器,留九庄0450变压器,唐县震南粮油综合门市新装10KVA配变4860,东马寨0250变压器,兴涛工艺品厂2531,留九庄0517变压器,西马赛0509变压器,西马赛村西水0255变压器【纯农排变】,东马宅0251变压器,东马寨2769变压器,留九庄2380变压器,华龙玻璃厂0523,拔茄村南水2373变压器,留九庄新民居4770变压器,永兴板厂0555,留九庄4915变压器,留九庄新民居4672变压器,唐县精艺工艺品厂3133,岳岭4914变压器,唐县中原机械厂,拔茄村东3135变压器,占雨工艺铸造厂1870,岳岭6102变压器,西马寨面粉厂0852,岳岭0521变压器,西马赛0254变压器,留九庄4857变压器,保定宁信铸造材料有限公司","powerOffReason":"【停电原因】由于线路检修导致１１０ＫＶ拔茄变电站拔茄村５８７线路全线停电【变更送电】因工作进度加快原因，送电时间由１１日０１：００变更为１０日２１：００【发布渠道】唐县电视台（０７月０１日至０７月０９日的２０：００时至２０：３０时之间）屏幕上方滚动字幕","powerOffId":"2019070113000072"},{"poweroffId":2019070113000070,"sgpoweroffId":null,"subsName":"","lineName":"10kV515三泊线","pubTranName":"泊东农排3台区【纯农排变】,泊东综合4台区,泊北农排8台区【纯农排变】,泊东农排4台区【纯农排变】,泊南农排2台区【纯农排变】,泊东综合3台区,农场农排2台区【纯农排变】,泊南农排8台区【纯农排变】,泊北农排6台区【纯农排变】,北埝农排11台区【纯农排变】,泊东农排8台区【纯农排变】,农场综合1台区,泊南农排3台区【纯农排变】,泊北农排2台区【纯农排变】,农场农排1台区【纯农排变】,泊东农排5台区【纯农排变】,泊北综合7台区,泊东综合2台区,泊北综合1台区,农场农排6台区【纯农排变】,北埝农排12台区【纯农排变】,泊北农排4台区【纯农排变】,泊东综合6台区,泊北农排9台区【纯农排变】,北埝果园,泊东农排6台区【纯农排变】,泊北农排7台区【纯农排变】,农场农排3台区【纯农排变】,泊南综合4台区,泊南综合5台区,泊东综合1台区,泊北综合6台区,北埝农排10台区【纯农排变】,泊南农排4台区【纯农排变】,泊南村西南,泊东农排2台区【纯农排变】,农场农排7台区【纯农排变】,泊北农排5台区【纯农排变】,泊北综合2台区,泊北综合4台区,农场农排4台区【纯农排变】,泊北综合3台区,泊南农排1台区【纯农排变】,泊南综合2台区,泊东综合5台区,泊东农排1台区【纯农排变】,泊南农排7台区【纯农排变】,泊北农排1台区【纯农排变】,泊北综合5台区,泊南综合1台区,泊南综合3台区,泊东农排7台区【纯农排变】,泊南农排5台区【纯农排变】,中建路桥集团有限公司变压器,泊北农排3台区【纯农排变】,泊南面粉厂,泊南农排6台区【纯农排变】,","scope":"【影响街道/乡镇】北埝头乡【高危重要客户】无【影响客户】泊庄北村、泊庄东村、泊庄南村、农场","startTime":"2019-07-10 05:00:00","stopDate":"2019-07-10 20:30:00","orgNo":"1340616","typeCode":"计划停电","poweroffArea":"【全线路停电】停泊南农排3台区【纯农排变】,农场农排3台区【纯农排变】,泊北农排1台区【纯农排变】,泊南农排6台区【纯农排变】,泊南综合1台区,泊南综合2台区,农场综合1台区,泊北综合2台区,泊北农排6台区【纯农排变】,泊北农排5台区【纯农排变】,泊南农排4台区【纯农排变】,泊北农排8台区【纯农排变】,农场农排7台区【纯农排变】,泊东综合5台区,泊南农排2台区【纯农排变】,农场农排4台区【纯农排变】,泊北综合7台区,泊北综合1台区,泊北综合6台区,泊南综合4台区,泊北农排7台区","poweroffReason":"【停电原因】由于更换电缆导致３５ＫＶ李岗变电站１０ＫＶ三泊５１５线路全线停电【变更送电】因工作进度加快原因，送电时间由２３：００变更为２０：３０【发布渠道】河北省保定市蠡县电视台（０７月０１日至０７月０９日２０：００至２２：００之间）屏幕上方滚动","powerTime":"2019-07-10 20:02:14","powerComm":"已送电","subsNo":"","lineNo":"","tgNo":"","tgName":null,"infoStatus":"1","orgName":"国网蠡县供电公司","typeName":null,"infoStatusName":null,"dateDay":null,"orgNos":null,"nowTime":null,"countyName":null,"streetName":null,"villageName":null,"roadName":null,"communityName":null,"tranName":null,"sdLineName":null,"cityCode":"1340616","cityName":"国网蠡县供电公司","provinceCode":null,"stopTime":"2019-07-10 20:30:00","powerType":"全部","powerOffArea":"【全线路停电】停泊南农排3台区【纯农排变】,农场农排3台区【纯农排变】,泊北农排1台区【纯农排变】,泊南农排6台区【纯农排变】,泊南综合1台区,泊南综合2台区,农场综合1台区,泊北综合2台区,泊北农排6台区【纯农排变】,泊北农排5台区【纯农排变】,泊南农排4台区【纯农排变】,泊北农排8台区【纯农排变】,农场农排7台区【纯农排变】,泊东综合5台区,泊南农排2台区【纯农排变】,农场农排4台区【纯农排变】,泊北综合7台区,泊北综合1台区,泊北综合6台区,泊南综合4台区,泊北农排7台区","powerOffReason":"【停电原因】由于更换电缆导致３５ＫＶ李岗变电站１０ＫＶ三泊５１５线路全线停电【变更送电】因工作进度加快原因，送电时间由２３：００变更为２０：３０【发布渠道】河北省保定市蠡县电视台（０７月０１日至０７月０９日２０：００至２２：００之间）屏幕上方滚动","powerOffId":"2019070113000070"},{"poweroffId":2019070113000068,"sgpoweroffId":null,"subsName":"","lineName":"10kV岳岭577线路","pubTranName":"留九庄0520变压器,岳岭村4673变压器,岳岭2532变压器,岳岭0524变压器,留九庄4857变压器,配变,留九庄0247变压器【纯农排变】,留九庄5137变压器【纯农排变】,唐县天威工艺品厂10KV配变,留九庄0519变压器【纯农排变】,留九庄新民居4770变压器,留九庄4915变压器,岳岭4914变压器,留九庄1488变压器,岳岭6102变压器,岳岭0243变压器,唐县天威工艺品厂2384,岳岭0525变压器,留九庄0450变压器【纯农排变】,唐县震南粮油综合门市新装10KVA配变4860,红星农机厂0508,留九庄3351变压器【纯农排变】,兴涛工艺品厂2531,岳岭6010变压器,留九庄2380变压器,华龙玻璃厂0523,留九庄新民居4672变压器,岳岭材西4078变压器,唐县精艺工艺品厂3133,占雨工艺铸造厂1870,岳岭0521变压器,保定飞鹰机械制造有限公司增容,留九庄3036变压器,","scope":"【影响街道/乡镇】王京镇【高危重要客户】无【影响客户】岳岭村、留九庄、唐县精艺工艺品厂、唐县天威工艺品厂、唐县博辉工艺品厂、唐县鹏伟铜制工艺品厂、唐县王京镇红星加油站、保定飞鹰机械制造有限公司、王京镇卫生院、红星农机厂、永旺农机厂、华龙玻璃厂、唐县占雨工艺品厂、唐县天威工艺品厂、兴涛工艺品厂、唐县震南粮油综合门市","startTime":"2019-07-10 05:00:00","stopDate":"2019-07-10 21:00:00","orgNo":"1340622","typeCode":"计划停电","poweroffArea":"【全线路停电】停红星农机厂0508,留九庄0520变压器,留九庄3351变压器【纯农排变】,唐县天威工艺品厂2384,岳岭村4673变压器,岳岭0525变压器,岳岭2532变压器,留九庄0450变压器【纯农排变】,岳岭0524变压器,唐县震南粮油综合门市新装10KVA配变4860,配变,兴涛工艺品厂2531,留九庄0247变压器【纯农排变】,岳岭6010变压器,留九庄5137变压器【纯农排变】,唐县天威工艺品厂10KV配变,留九庄2380变压器,留九庄0519变压器【纯农排变】,华龙玻璃厂0523,留九庄新民居4770变压器,留九庄新民居4672变压器,留九庄4915变压器,岳岭材西4078变压器,岳岭4914变压器,唐县精艺工艺品厂3133,留九庄1488变压器,占雨工艺铸造厂1870,岳岭6102变压器,岳岭0521变压器,岳岭0243变压器,保定飞鹰机械制造有限公司增容,留九庄3036变压器,留九庄4857变压器","poweroffReason":"【停电原因】由于线路检修导致１１０ＫＶ拔茄变电站岳岭５７７线路全线停电【变更送电】因工作进度加快原因，送电时间由１１日０１：００变更为１０日２１：００【发布渠道】保定市唐县电视台（０７月０１日至０７月０９日的２０：００时至２０：３０时之间）屏幕上方滚动字幕","powerTime":"2019-07-10 20:25:07","powerComm":"已送电","subsNo":"","lineNo":"","tgNo":"","tgName":null,"infoStatus":"1","orgName":"国网唐县供电公司","typeName":null,"infoStatusName":null,"dateDay":null,"orgNos":null,"nowTime":null,"countyName":null,"streetName":null,"villageName":null,"roadName":null,"communityName":null,"tranName":null,"sdLineName":null,"cityCode":"1340622","cityName":"国网唐县供电公司","provinceCode":null,"stopTime":"2019-07-10 21:00:00","powerType":"全部","powerOffArea":"【全线路停电】停红星农机厂0508,留九庄0520变压器,留九庄3351变压器【纯农排变】,唐县天威工艺品厂2384,岳岭村4673变压器,岳岭0525变压器,岳岭2532变压器,留九庄0450变压器【纯农排变】,岳岭0524变压器,唐县震南粮油综合门市新装10KVA配变4860,配变,兴涛工艺品厂2531,留九庄0247变压器【纯农排变】,岳岭6010变压器,留九庄5137变压器【纯农排变】,唐县天威工艺品厂10KV配变,留九庄2380变压器,留九庄0519变压器【纯农排变】,华龙玻璃厂0523,留九庄新民居4770变压器,留九庄新民居4672变压器,留九庄4915变压器,岳岭材西4078变压器,岳岭4914变压器,唐县精艺工艺品厂3133,留九庄1488变压器,占雨工艺铸造厂1870,岳岭6102变压器,岳岭0521变压器,岳岭0243变压器,保定飞鹰机械制造有限公司增容,留九庄3036变压器,留九庄4857变压器","powerOffReason":"【停电原因】由于线路检修导致１１０ＫＶ拔茄变电站岳岭５７７线路全线停电【变更送电】因工作进度加快原因，送电时间由１１日０１：００变更为１０日２１：００【发布渠道】保定市唐县电视台（０７月０１日至０７月０９日的２０：００时至２０：３０时之间）屏幕上方滚动字幕","powerOffId":"2019070113000068"},{"poweroffId":2019070113000066,"sgpoweroffId":null,"subsName":"","lineName":"望双线518","pubTranName":"李家村南混,葛家村新上北混,葛家村南2号农【纯农排变】,张家村西混合,望都县高岭乡卫生院,高岭卫生院配变,望都县清源污水处理有限公司2,李家村猪厂农【纯农排变】,小李家村南混1号配变,污水处理厂,张家村南混合,李家村猪厂农2号【纯农排变】,马家村内混,辣都有限公司,望都县腾龙焊件厂,张家村北混,李家村南边2号混,马家村南农【纯农排变】,葛家村新上农【纯农排变】,河北钢山房地产开发集团有限公司（名都一品C区）,马家村新区,河北宏屹房地产开发有限公司望都第二分公司,葛家村南混合,杨家村信用社配变,望都县鑫鼎机械制造有限公司,河北钢山房地产开发集团有限公司（名都一品C区),张家村幼儿园配变,李家村大枣树农【纯农排变】,","scope":"【影响街道/乡镇】高岭乡、望都镇 【高危重要客户】无 【影响客户】张家村、葛家村、李家村、马家村、辣都有限公司、望都县高岭乡卫生院、望都县腾龙焊件厂、污水处理厂、望都县鑫鼎机械制造有限公司、河北宏屹房地产开发有限公司望都第二分公司、河北钢山房地产开发集团有限公司（名都一品Ｃ区）","startTime":"2019-07-09 06:00:00","stopDate":"2019-07-09 19:30:00","orgNo":"1340623","typeCode":"临时停电","poweroffArea":"【全线路停电】停李家村南混,葛家村新上北混,葛家村南2号农【纯农排变】,张家村西混合,望都县高岭乡卫生院,高岭卫生院配变,望都县清源污水处理有限公司2,李家村猪厂农【纯农排变】,小李家村南混1号配变,污水处理厂,张家村南混合,李家村猪厂农2号【纯农排变】,马家村内混,辣都有限公司,望都县腾龙焊件厂,张家村北混,李家村南边2号混,马家村南农【纯农排变】,葛家村新上农【纯农排变】,河北钢山房地产开发集团有限公司（名都一品C区）,马家村新区,河北宏屹房地产开发有限公司望都第二分公司,葛家村南混合,杨家村信用社配变,望都县鑫鼎机械制造有限公司,河北钢山房地产开发集团有限公司（名都一品C区),张家村幼儿园配变,李家村大枣树农【纯农排变】","poweroffReason":"【停电原因】由于供电设备临时检修导致１１０ＫＶ望都变电站望双线５１８线路全线停电 【变更送电】因施工受阻原因，送电时间由１８：００变更为１９：３０　 【发布渠道】通过９５５９８发布","powerTime":"2019-07-09 18:35:44","powerComm":"已送电","subsNo":"","lineNo":"","tgNo":"","tgName":null,"infoStatus":"1","orgName":"国网望都县供电公司","typeName":null,"infoStatusName":null,"dateDay":null,"orgNos":null,"nowTime":null,"countyName":null,"streetName":null,"villageName":null,"roadName":null,"communityName":null,"tranName":null,"sdLineName":null,"cityCode":"1340623","cityName":"国网望都县供电公司","provinceCode":null,"stopTime":"2019-07-09 19:30:00","powerType":"全部","powerOffArea":"【全线路停电】停李家村南混,葛家村新上北混,葛家村南2号农【纯农排变】,张家村西混合,望都县高岭乡卫生院,高岭卫生院配变,望都县清源污水处理有限公司2,李家村猪厂农【纯农排变】,小李家村南混1号配变,污水处理厂,张家村南混合,李家村猪厂农2号【纯农排变】,马家村内混,辣都有限公司,望都县腾龙焊件厂,张家村北混,李家村南边2号混,马家村南农【纯农排变】,葛家村新上农【纯农排变】,河北钢山房地产开发集团有限公司（名都一品C区）,马家村新区,河北宏屹房地产开发有限公司望都第二分公司,葛家村南混合,杨家村信用社配变,望都县鑫鼎机械制造有限公司,河北钢山房地产开发集团有限公司（名都一品C区),张家村幼儿园配变,李家村大枣树农【纯农排变】","powerOffReason":"【停电原因】由于供电设备临时检修导致１１０ＫＶ望都变电站望双线５１８线路全线停电 【变更送电】因施工受阻原因，送电时间由１８：００变更为１９：３０　 【发布渠道】通过９５５９８发布","powerOffId":"2019070113000066"},{"poweroffId":2019070113000064,"sgpoweroffId":null,"subsName":"","lineName":"荣域567线","pubTranName":"0387442240-兴华小区-专变-45278555-回制钢,白芙蓉公变3,白二开发区,0387442787-高碑店市天奕商厦有限公司白沟新城第三公司-专变-212349139-变压器1,桥头公变,白沟新城公安分局富强路派出所,精品鞋帽城,0387441377-高碑店市华珠工业有限责任公司(出租屋)-专变-45278559-华珠海绵厂,南留小区变压器,毛绒玩具公变,白一市场东,高速引线公变,仁合庄12,白辛庄2,罗海伍（白沟幸福里小区）变压器,鞋帽城2,夜市公变2,白一市场南,停车场公变,白二小区,南留村东,0671682387-保定白沟新城鼎创皮革商行-专变-212350997-变压器,木器厂公变,0588749386-南水北调中线干线工程建设管理局天津分局-专变-125352322-变压器,市政路灯1,白沟污水处理厂,污水处理变压器,0544849396-保定白沟成正物业服务有限公司(荣域小区)-专变-47788472-变压器1,0683959099-仁和庄7号变台-专变-223535962-变压器,木器厂公变2,0387441090-排水站2-专变-45278561-排水站2,0387442787-高碑店市天奕商厦有限公司白沟新城第三公司-专变-212349141-变压器3,夜市公变,白芙蓉公变,0387442905-白一市场西小区-专变-126037058-变压器500,0686701202-保定天德供水有限公司-专变-226881863-变压器,南水北调变压器主用100,白芙蓉公变2,南水北调变压器主用,变压器,白四街1,0546495100-鞋城高层-专变-47874406-鞋城高层变压器,白辛庄,刘国强,河北保定运输集团有限责任公司白沟汽车站,白三停车场2号公变,","scope":"【影响街道/乡镇】白沟镇、津保路、富强路 【高危重要客户】污水处理厂、排水站 【影响客户】南留村、白二村、白四村、白辛庄村、白三村、金润房地产、幸福里小区、荣域小区、李大生（华珠）、宜家旺商厦、津保路肯德基、鞋帽城高层、金润物业、天德供水、刘国强、李福明（汽车站）、精品鞋帽城、建设银行、南水北调（办公室）、王立新、鼎创（张瑞华）、建设银行南物流、逸景丁香、黄秋生（南物流）、刘宝刚、吕宝刚、派出所、白二开发区、毛绒玩具市场","startTime":"2019-07-10 05:00:00","stopDate":"2019-07-10 12:00:00","orgNo":"1340612","typeCode":"计划停电","poweroffArea":"【全线路停电】停0544849396-保定白沟成正物业服务有限公司(荣域小区)-专变-47788472-变压器1,0683959099-仁和庄7号变台-专变-223535962-变压器,木器厂公变2,0387441090-排水站2-专变-45278561-排水站2,0387442787-高碑店市天奕商厦有限公司白沟新城第三公司-专变-212349141-变压器3,夜市公变,白芙蓉公变,0387442905-白一市场西小区-专变-126037058-变压器500,0686701202-保定天德供水有限公司-专变-226881863-变压器,南水北调变压器主用100,白芙蓉公变2,南水北调变压器主用,变压器,白三停车场2号公变,0387442240-兴华小区-专变-45278555-回制钢,精品鞋帽城,0387441377-高碑店市华珠工业有限责任公司(出租屋)-专变-45278559-华珠海绵厂,南留小区变压器,毛绒玩具公变,白一市场东,高速引线公变,仁合庄12,白辛庄2,罗海伍（白沟幸福里小区）变压器,鞋帽城2,夜市公变2,白一市场南,停车场公变,白二小区,南留村东,0671682387-保定白沟新城鼎创皮革商行-专变-212350997-变压器,木器厂公变,0588749386-南水北调中线干线工程建设管理局天津分局-专变-125352322-变压器,白四街1,0546495100-鞋城高层-专变-47874406-鞋城高层变压器,白辛庄,刘国强,河北保定运输集团有限责任公司白沟汽车站,白芙蓉公变3,白二开发区,0387442787-高碑店市天奕商厦有限公司白沟新城第三公司-专变-212349139-变压器1,桥头公变,白沟新城公安分局富强路派出所,市政路灯1,白沟污水处理厂,污水处理变压器","poweroffReason":"【停电原因】由于接电缆头导致１１０ＫＶ南留变电站１０ＫＶ荣域５６７线路全线停电 【变更送电】无 【发布渠道】高碑店市高碑店电视台（７月２日０８时至７月９日１８时之间）屏幕上方滚动","powerTime":"2019-07-10 11:55:16","powerComm":"已送电","subsNo":"","lineNo":"","tgNo":"","tgName":null,"infoStatus":"1","orgName":"国网高碑店市供电公司","typeName":null,"infoStatusName":null,"dateDay":null,"orgNos":null,"nowTime":null,"countyName":null,"streetName":null,"villageName":null,"roadName":null,"communityName":null,"tranName":null,"sdLineName":null,"cityCode":"1340612","cityName":"国网高碑店市供电公司","provinceCode":null,"stopTime":"2019-07-10 12:00:00","powerType":"全部","powerOffArea":"【全线路停电】停0544849396-保定白沟成正物业服务有限公司(荣域小区)-专变-47788472-变压器1,0683959099-仁和庄7号变台-专变-223535962-变压器,木器厂公变2,0387441090-排水站2-专变-45278561-排水站2,0387442787-高碑店市天奕商厦有限公司白沟新城第三公司-专变-212349141-变压器3,夜市公变,白芙蓉公变,0387442905-白一市场西小区-专变-126037058-变压器500,0686701202-保定天德供水有限公司-专变-226881863-变压器,南水北调变压器主用100,白芙蓉公变2,南水北调变压器主用,变压器,白三停车场2号公变,0387442240-兴华小区-专变-45278555-回制钢,精品鞋帽城,0387441377-高碑店市华珠工业有限责任公司(出租屋)-专变-45278559-华珠海绵厂,南留小区变压器,毛绒玩具公变,白一市场东,高速引线公变,仁合庄12,白辛庄2,罗海伍（白沟幸福里小区）变压器,鞋帽城2,夜市公变2,白一市场南,停车场公变,白二小区,南留村东,0671682387-保定白沟新城鼎创皮革商行-专变-212350997-变压器,木器厂公变,0588749386-南水北调中线干线工程建设管理局天津分局-专变-125352322-变压器,白四街1,0546495100-鞋城高层-专变-47874406-鞋城高层变压器,白辛庄,刘国强,河北保定运输集团有限责任公司白沟汽车站,白芙蓉公变3,白二开发区,0387442787-高碑店市天奕商厦有限公司白沟新城第三公司-专变-212349139-变压器1,桥头公变,白沟新城公安分局富强路派出所,市政路灯1,白沟污水处理厂,污水处理变压器","powerOffReason":"【停电原因】由于接电缆头导致１１０ＫＶ南留变电站１０ＫＶ荣域５６７线路全线停电 【变更送电】无 【发布渠道】高碑店市高碑店电视台（７月２日０８时至７月９日１８时之间）屏幕上方滚动","powerOffId":"2019070113000064"},{"poweroffId":2019070113000057,"sgpoweroffId":null,"subsName":"","lineName":"望杨线525","pubTranName":"孙家村农配变【纯农排变】,孙家村内中混配变,张家村南农1配变【纯农排变】,郭家村西混配变,孙家村内东2号配变,孙家村内西混配变,郭家村北农配变【纯农排变】,梁屯东农新上【纯农排变】,郭家村西农【纯农排变】,孙家村中心路西农配变【纯农排变】,孙家村内东混配变,郭家村内东混,张家村南农4号【纯农排变】,张家村东混,","scope":"【影响街道/乡镇】高岭乡　　 【高危重要客户】无　　 【影响客户】孙家村、郭家村、张家村","startTime":"2019-07-09 06:00:00","stopDate":"2019-07-09 19:30:00","orgNo":"1340623","typeCode":"临时停电","poweroffArea":"【全线路停电】停孙家村农配变【纯农排变】,孙家村内中混配变,张家村南农1配变【纯农排变】,郭家村西混配变,孙家村内东2号配变,孙家村内西混配变,郭家村北农配变【纯农排变】,梁屯东农新上【纯农排变】,郭家村西农【纯农排变】,孙家村中心路西农配变【纯农排变】,孙家村内东混配变,郭家村内东混,张家村南农4号【纯农排变】,张家村东混","poweroffReason":"【停电原因】由于供电设备临时检修导致１１０ＫＶ望都变电站望杨线５２５线路全线停电 【变更送电】因施工受阻原因，送电时间由１８：００变更为１９：３０　 【发布渠道】通过９５５９８发布","powerTime":"2019-07-09 18:36:04","powerComm":"已送电","subsNo":"","lineNo":"","tgNo":"","tgName":null,"infoStatus":"1","orgName":"国网望都县供电公司","typeName":null,"infoStatusName":null,"dateDay":null,"orgNos":null,"nowTime":null,"countyName":null,"streetName":null,"villageName":null,"roadName":null,"communityName":null,"tranName":null,"sdLineName":null,"cityCode":"1340623","cityName":"国网望都县供电公司","provinceCode":null,"stopTime":"2019-07-09 19:30:00","powerType":"全部","powerOffArea":"【全线路停电】停孙家村农配变【纯农排变】,孙家村内中混配变,张家村南农1配变【纯农排变】,郭家村西混配变,孙家村内东2号配变,孙家村内西混配变,郭家村北农配变【纯农排变】,梁屯东农新上【纯农排变】,郭家村西农【纯农排变】,孙家村中心路西农配变【纯农排变】,孙家村内东混配变,郭家村内东混,张家村南农4号【纯农排变】,张家村东混","powerOffReason":"【停电原因】由于供电设备临时检修导致１１０ＫＶ望都变电站望杨线５２５线路全线停电 【变更送电】因施工受阻原因，送电时间由１８：００变更为１９：３０　 【发布渠道】通过９５５９８发布","powerOffId":"2019070113000057"},{"poweroffId":2019070113000045,"sgpoweroffId":null,"subsName":"","lineName":"梁各庄线523","pubTranName":"半壁店2台区变压器,","scope":"【影响街道/乡镇】梁各庄乡【高危重要客户】无【影响客户】半壁店村","startTime":"2019-07-01 08:00:00","stopDate":"2019-07-01 13:00:00","orgNo":"1340625","typeCode":"其他临时停电","poweroffArea":"【单台区停电】停半壁店2台区变压器","poweroffReason":"【停电原因】由于紧急消缺导致１１０ＫＶ西陵变电站梁各庄线５２３线路半壁店村２＃公变台区停电【变更送电】无【发布渠道】通过９５５９８发布","powerTime":"2019-07-01 12:29:21","powerComm":"已送电","subsNo":"","lineNo":"","tgNo":"","tgName":null,"infoStatus":"1","orgName":"国网易县供电公司","typeName":null,"infoStatusName":null,"dateDay":null,"orgNos":null,"nowTime":null,"countyName":null,"streetName":null,"villageName":null,"roadName":null,"communityName":null,"tranName":null,"sdLineName":null,"cityCode":"1340625","cityName":"国网易县供电公司","provinceCode":null,"stopTime":"2019-07-01 13:00:00","powerType":"全部","powerOffArea":"【单台区停电】停半壁店2台区变压器","powerOffReason":"【停电原因】由于紧急消缺导致１１０ＫＶ西陵变电站梁各庄线５２３线路半壁店村２＃公变台区停电【变更送电】无【发布渠道】通过９５５９８发布","powerOffId":"2019070113000045"},{"poweroffId":2019063013000401,"sgpoweroffId":null,"subsName":"","lineName":"加录线521","pubTranName":"解家营变压器,","scope":"【影响街道/乡镇】新城镇 【高危重要客户】无 【影响客户】解家营村","startTime":"2019-06-30 23:44:36","stopDate":"2019-07-01 05:00:00","orgNo":"1340612","typeCode":"电网故障停限电","poweroffArea":"【单台区停电】停解家营变压器","poweroffReason":"【停电原因】由于车刮线导致１１０ＫＶ太平庄变电站１０ＫＶ加录５２１线路解家营公变台区停电 【变更送电】因抢修进度加快原因，送电时间由１２：００变更为５：００ 【发布渠道】通过９５５９８发布","powerTime":"2019-07-01 04:23:13","powerComm":"已送电","subsNo":"","lineNo":"","tgNo":"","tgName":null,"infoStatus":"1","orgName":"国网高碑店市供电公司","typeName":null,"infoStatusName":null,"dateDay":null,"orgNos":null,"nowTime":null,"countyName":null,"streetName":null,"villageName":null,"roadName":null,"communityName":null,"tranName":null,"sdLineName":null,"cityCode":"1340612","cityName":"国网高碑店市供电公司","provinceCode":null,"stopTime":"2019-07-01 05:00:00","powerType":"全部","powerOffArea":"【单台区停电】停解家营变压器","powerOffReason":"【停电原因】由于车刮线导致１１０ＫＶ太平庄变电站１０ＫＶ加录５２１线路解家营公变台区停电 【变更送电】因抢修进度加快原因，送电时间由１２：００变更为５：００ 【发布渠道】通过９５５９８发布","powerOffId":"2019063013000401"},{"poweroffId":2019063013000386,"sgpoweroffId":null,"subsName":"","lineName":"10kV519新一中线","pubTranName":"八里店(002):照明2台区,定州市金泰工业配件有限公司,0699040556--定州市德龙环境工程有限公司,小渡河(025):照明1台区,小涨村公用农业3台区【纯农排变】,小渡河公用照明6台区,大洼里(003):照明1台区,高速东台区变压器,南角羊(004):农业3台区【纯农排变】,中国移动通信集团河北有限公司定州分公司变压器,大涨村公用照明8台区,小涨村公用照明2台区,定州市丰源热处理厂,东关(001):农业3台区【纯农排变】,大洼里(003):公用照明4台区,安永其,河北通达天元房地产开发有限公司紫香园变压器,定州市杨家庄乡卫生院变压器,中铁十一局铁路客运专线（北角羊）,西里元(027):照明1台区,大涨村公用照明5台区,八里店公用照明8台区,八里店公用照明7台区,仝家庄面粉厂,北角羊公用照明3台区,大涨村(018):农业2台区【纯农排变】,冷库,八里店公用照明4台区,东门街公用照明12台区,河北文博房地产开发有限公司变压器1,东关(001):农业5台区【纯农排变】,东门街照明13台区,工艺美术厂,现奇,东关(001):农业2台区【纯农排变】,小渡河公用照明7台区,定州市车站综合管理局变压器,西里元公用农业7台区【纯农排变】,南角羊公用照明7台区,定州市新华童星双语小学,八里店公用照明6台区,农机修理厂,田增启,高科技园一期,三期分表检测,小渡河(025):农业3台区【纯农排变】,南角羊公用照明4台区,西里元公用照明6台区,总司屯公用照明12台区,高头(007):照明1台区,北角羊(024):农业2台区【纯农排变】,保定宏孚石化产品销售有限公司变压器,西里元(027):照明2台区,定州市中油昆仑石油天然气销售有限公司变压器,西里元(027)农业4台区【纯农排变】,南角羊公用农业4台区【纯农排变】,西里元照明5台区,高头(007):农业3台区【纯农排变】,新立街(008):农业2台区【纯农排变】,河北万兴混凝土有限公司变压器,定州市民政局,杨家庄立乾保鲜冷库,高头(007):农业4台区【纯农排变】,南角羊公用照明6台区,0702746132—定州市中洲环保科技有限公司—900012672038—定州市中洲环保科技有限公司变压器,仝家庄公用照明3台区,大涨村公用农业4台区【纯农排变】,尹家庄(013):照明2台区,尹家庄公用照明4台区,尹家庄公用照明3台区,大涨村(018):农业3台区【纯农排变】,北角羊公用照明2台区,定州市永旺木器加工厂变压器,田勇,塑料厂,大洼里公用照明3台区,大洼里村造纸厂,八里店公用照明5台区,东关(001):农业4台区【纯农排变】,尹家庄公用照明5台区,小涨(020):农业1台区【纯农排变】,河北文博房地产开发有限公司变压器2,小涨(020):农业2台区【纯农排变】,北角羊(024):农业1台区【纯农排变】,南角羊(004):农业2台区【纯农排变】,南角羊(004):农业1台区【纯农排变】,大涨村公用照明7台区,小渡河：照明2台区,西里元公用照明12台区,定州市市容环境卫生管理处,定州养路工区（定安公路）,新立街(008):照明3台区,小渡河公用照明5台区,小渡河公用照明4台区,八里店村北","scope":"【影响街道/乡镇】北门街、北城区、大鹿庄乡、杨家庄乡【高危重要客户】无【影响客户】东关、西里元、高头、尹家庄、仝家庄、八里店、小涨村、大涨村、南角羊、北角羊、大洼里、小渡河、杨家庄村、尹家庄污水处理厂、紫香园、国际大酒店","startTime":"2019-06-30 22:51:13","stopDate":"2019-07-01 00:30:00","orgNo":"1340610","typeCode":"电网故障停限电","poweroffArea":"【全线路停电】停南角羊公用照明6台区,小涨(020):照明1台区,大涨村(018):农业2台区【纯农排变】,北角羊(024):农业2台区【纯农排变】,仝家庄公用照明4台区,大洼里照明2台区,尹家庄公用照明5台区,定州市丰源热处理厂,定州市民政局变压器2,仝家庄公用照明3台区,三期分表检测,定州市住房和城乡建设局变压器,0623128378-定州市车站综合管理局-专变-131158650-定州市车站综合管理局变压器,大涨村(018):农业1台区【纯农排变】,田增启,田勇,西里元公用照明6台区,八里店村北,南角羊公用照明5台区,河北通达天元房地产开发有限公司紫香园变压器,定州市天德环保科技有限公司变压器,中国移动通信集团河北有限公司定州分公司变压器,南角羊(004):农业2台区【纯农排变】,小涨村公用照明3台区,0658892226-定州市广兴机械零部件有限公司-专变-192910976-定州市广兴机械零部件有限公司变压器,定州市北门农产品经纪人服务,仝家庄公用照明5台区,大涨村照明3台区,尹家庄(013):照明2台区,工艺美术厂,大涨村(018):照明2台区,东关(001):农业1台区【纯农排变】,定州市社会福利院变压器,定州养路工区（定安公路）,李会杰板厂,定州市丽静肉制品有限公司,冷库,大涨村公用农业4台区【纯农排变】,塑料厂,大洼里村造纸厂,仝家庄公用照明6台区,八里店公用照明7台区,北角羊公用照明3台区,定州市车站综合管理局变压器,大洼里公用照明3台区,小涨(020):农业2台区【纯农排变】,北角羊(024):农业1台区【纯农排变】,西里元(027):农业3台区【纯农排变】,小渡河公用照明5台区,南角羊公用照明7台区,北角羊公用照明2台区,八里店公用照明9台区,杨家庄立乾保鲜冷库,八里店公用照明8台区,东关(001)：照明5台区,北门街(009):照明2台区,客户投资_尹家庄(013):照明1台区,定州市杨家庄乡人民政府变压器,东门街照明13台区,0668579056-河北通达天元房地产开发有限公司 紫香园-专变-209986117-河北通达天元房地产开发有限公司变压器,高速东台区变压器,仝家庄公用照明2台区,保定宏孚石化产品销售有限公司变压器,仝家庄面粉厂,西里元公用照明11台区,高头(007):农业2台区【纯农排变】,小涨村公用农业3台区【纯农排变】,高头(007):农业1台区【纯农排变】,现奇,定州市新华童星双语小学,小渡河公用照明4台区,南角羊公用农业4台区【纯农排变】,贵宾楼,定州市永旺木器加工厂变压器,定州市中诚水务有限公司,变压器,西里元(027):照明3台区,定州市杨家庄乡南角羊村民委员会变压器,大涨村公用照明5台区,尹家庄(013):农业1台区【纯农排变】,定州市中油昆仑石油天然气销售有限公司变压器,西里元公用农业4台区【纯农排变】,西里元公用农业6台区【纯农排变】,北角羊公用照明4台区,南角羊(004):农业3台区【纯农排变】,南角羊照明3台区,安永其,0699040556--定州市德龙环境工程有限公司,大涨村公用照明7台区,高头(007):农业3台区【纯农排变】,小渡河(025):农业4台区【纯农排变】,小涨(020):农业1台区【纯农排变】,八里店照明3台区,尹家庄公用照明4台区,李金榜苗木种植变压器,西里元(027):照明1台区,八里店公用照明5台区,西里元公用照明12台区,小渡河(025):照明1台区,河北文博房地产开发有限公司变压器1,西里元(027):照明2台区,河北文博房地产开发有限公司变压器2,大涨村公用农业5台区【纯农排变】,八里店公用照明4台区,河北万兴混凝土有限公司变压器,西里元公用农业7台区【纯农排变】,西里元村拔丝厂,小陈村公用照明1台区,西里元照明4台区,尹家庄公用照明3台区,大洼里(003):照明1台区,大涨村(018):农","poweroffReason":"【停电原因】由于高科技园分支０４号杆绝缘耐张脱落导致１１０ＫＶ总司屯变电站１０ＫＶ５１９新一中线路全线停电 【变更送电】因抢修进度加快原因，送电时间由０８：３０变更为００：３０ 【发布渠道】９５５９８","powerTime":"2019-07-01 00:07:28","powerComm":"已送电","subsNo":"","lineNo":"","tgNo":"","tgName":null,"infoStatus":"1","orgName":"国网定州市供电公司","typeName":null,"infoStatusName":null,"dateDay":null,"orgNos":null,"nowTime":null,"countyName":null,"streetName":null,"villageName":null,"roadName":null,"communityName":null,"tranName":null,"sdLineName":null,"cityCode":"1340610","cityName":"国网定州市供电公司","provinceCode":null,"stopTime":"2019-07-01 00:30:00","powerType":"全部","powerOffArea":"【全线路停电】停南角羊公用照明6台区,小涨(020):照明1台区,大涨村(018):农业2台区【纯农排变】,北角羊(024):农业2台区【纯农排变】,仝家庄公用照明4台区,大洼里照明2台区,尹家庄公用照明5台区,定州市丰源热处理厂,定州市民政局变压器2,仝家庄公用照明3台区,三期分表检测,定州市住房和城乡建设局变压器,0623128378-定州市车站综合管理局-专变-131158650-定州市车站综合管理局变压器,大涨村(018):农业1台区【纯农排变】,田增启,田勇,西里元公用照明6台区,八里店村北,南角羊公用照明5台区,河北通达天元房地产开发有限公司紫香园变压器,定州市天德环保科技有限公司变压器,中国移动通信集团河北有限公司定州分公司变压器,南角羊(004):农业2台区【纯农排变】,小涨村公用照明3台区,0658892226-定州市广兴机械零部件有限公司-专变-192910976-定州市广兴机械零部件有限公司变压器,定州市北门农产品经纪人服务,仝家庄公用照明5台区,大涨村照明3台区,尹家庄(013):照明2台区,工艺美术厂,大涨村(018):照明2台区,东关(001):农业1台区【纯农排变】,定州市社会福利院变压器,定州养路工区（定安公路）,李会杰板厂,定州市丽静肉制品有限公司,冷库,大涨村公用农业4台区【纯农排变】,塑料厂,大洼里村造纸厂,仝家庄公用照明6台区,八里店公用照明7台区,北角羊公用照明3台区,定州市车站综合管理局变压器,大洼里公用照明3台区,小涨(020):农业2台区【纯农排变】,北角羊(024):农业1台区【纯农排变】,西里元(027):农业3台区【纯农排变】,小渡河公用照明5台区,南角羊公用照明7台区,北角羊公用照明2台区,八里店公用照明9台区,杨家庄立乾保鲜冷库,八里店公用照明8台区,东关(001)：照明5台区,北门街(009):照明2台区,客户投资_尹家庄(013):照明1台区,定州市杨家庄乡人民政府变压器,东门街照明13台区,0668579056-河北通达天元房地产开发有限公司 紫香园-专变-209986117-河北通达天元房地产开发有限公司变压器,高速东台区变压器,仝家庄公用照明2台区,保定宏孚石化产品销售有限公司变压器,仝家庄面粉厂,西里元公用照明11台区,高头(007):农业2台区【纯农排变】,小涨村公用农业3台区【纯农排变】,高头(007):农业1台区【纯农排变】,现奇,定州市新华童星双语小学,小渡河公用照明4台区,南角羊公用农业4台区【纯农排变】,贵宾楼,定州市永旺木器加工厂变压器,定州市中诚水务有限公司,变压器,西里元(027):照明3台区,定州市杨家庄乡南角羊村民委员会变压器,大涨村公用照明5台区,尹家庄(013):农业1台区【纯农排变】,定州市中油昆仑石油天然气销售有限公司变压器,西里元公用农业4台区【纯农排变】,西里元公用农业6台区【纯农排变】,北角羊公用照明4台区,南角羊(004):农业3台区【纯农排变】,南角羊照明3台区,安永其,0699040556--定州市德龙环境工程有限公司,大涨村公用照明7台区,高头(007):农业3台区【纯农排变】,小渡河(025):农业4台区【纯农排变】,小涨(020):农业1台区【纯农排变】,八里店照明3台区,尹家庄公用照明4台区,李金榜苗木种植变压器,西里元(027):照明1台区,八里店公用照明5台区,西里元公用照明12台区,小渡河(025):照明1台区,河北文博房地产开发有限公司变压器1,西里元(027):照明2台区,河北文博房地产开发有限公司变压器2,大涨村公用农业5台区【纯农排变】,八里店公用照明4台区,河北万兴混凝土有限公司变压器,西里元公用农业7台区【纯农排变】,西里元村拔丝厂,小陈村公用照明1台区,西里元照明4台区,尹家庄公用照明3台区,大洼里(003):照明1台区,大涨村(018):农","powerOffReason":"【停电原因】由于高科技园分支０４号杆绝缘耐张脱落导致１１０ＫＶ总司屯变电站１０ＫＶ５１９新一中线路全线停电 【变更送电】因抢修进度加快原因，送电时间由０８：３０变更为００：３０ 【发布渠道】９５５９８","powerOffId":"2019063013000386"}],"pageModel":{"pageNow":882,"totalCount":10973,"totalPage":1098,"tableRows":0,"pageCount":10,"beginCount":8810},"isExperi":"1"}