{"message":"","today":"2020-06-15","seleList":[{"poweroffId":2019063013000375,"sgpoweroffId":null,"subsName":"","lineName":"东环线513","pubTranName":"石庄村6#,易县森都园园林绿化工程有限公司-200KVA,李淑芳石板厂,东亢村2#,易县创意文化石有限公司1#,劳动局直供,石庄村5#,易县交通局料厂(100KVA),东亢村3#,0676633306-易县裕和房地产开发有限公司-专变-216199783-易县裕和房地产开发有限公司1600KVA,桂子渠面粉厂(郭义江),易县交通局料厂(250KVA),西亢5#,中亢村1#,石庄村2#,易县杏林医院2500,易县兴发建材有限公司,石庄村4#【纯农排变】,石庄村3#,易县金沐汤泉洗浴有限公司,西亢村3#,国有粮库一库变压器,中亢村2#,董家楼村1#,中亢村3#,民政事业服务中心,石庄【纯农排变】,东亢村1#,刘永利,石庄1#,易县民意城内公共汽车服务中心630KVA,石庄村1#,中亢村5#,易河酒厂,西亢村1#,中油保定116加油站,中亢村4#,西亢村2#,石庄村7#【纯农排变】,0469135321-易县泰丰恒石材厂-专变-46725417-易县泰丰恒石材厂,东亢村5#,0555681730-中国移动通信集团河北有限公司保定分公司-专变-94363996-中国移动通信集团河北有限公司易县分公司变压器,电南院直供,东亢村4#,路家庄村3#,西亢村4#,","scope":"【影响街道/乡镇】易州镇 【高危重要客户】无 【影响客户】东亢村、中亢村、石庄村、路家庄村、西亢村、董家楼村、易县裕和房地产开发有限公司、易县金沐汤泉洗浴有限公司、易县杏林医院、电南院","startTime":"2019-07-01 00:00:00","stopDate":"2019-07-01 05:00:00","orgNo":"1340625","typeCode":"其他临时停电","poweroffArea":"【全线路停电】停李淑芳石板厂,石庄村4#【纯农排变】,西亢村1#,石庄村7#【纯农排变】,易河酒厂,中油保定116加油站,董家楼村1#,石庄村2#,石庄村6#,中亢村1#,劳动局直供,电南院直供,东亢村4#,石庄村5#,易县创意文化石有限公司1#,0469135321-易县泰丰恒石材厂-专变-46725417-易县泰丰恒石材厂,0676633306-易县裕和房地产开发有限公司-专变-216199783-易县裕和房地产开发有限公司1600KVA,路家庄村3#,刘永利,易县森都园园林绿化工程有限公司-200KVA,国有粮库一库变压器,石庄1#,中亢村2#,石庄村3#,东亢村1#,易县金沐汤泉洗浴有限公司,西亢村2#,易县民意城内公共汽车服务中心630KVA,西亢村4#,西亢5#,中亢村4#,东亢村2#,0555681730-中国移动通信集团河北有限公司保定分公司-专变-94363996-中国移动通信集团河北有限公司易县分公司变压器,西亢村3#,易县兴发建材有限公司,民政事业服务中心,易县交通局料厂(250KVA),易县杏林医院2500,桂子渠面粉厂(郭义江),易县交通局料厂(100KVA),东亢村5#,中亢村3#,东亢村3#,石庄村1#,中亢村5#,石庄【纯农排变】","poweroffReason":"【停电原因】由于紧急消缺导致１１０ＫＶ易县变电站东环线５１３线路全线停电【变更送电】因工作进度加快原因，送电时间由０６:００变更为０５:００【发布渠道】通过９５５９８发布","powerTime":"2019-07-01 04:46:44","powerComm":"已送电","subsNo":"","lineNo":"","tgNo":"","tgName":null,"infoStatus":"1","orgName":"国网易县供电公司","typeName":null,"infoStatusName":null,"dateDay":null,"orgNos":null,"nowTime":null,"countyName":null,"streetName":null,"villageName":null,"roadName":null,"communityName":null,"tranName":null,"sdLineName":null,"cityCode":"1340625","cityName":"国网易县供电公司","provinceCode":null,"stopTime":"2019-07-01 05:00:00","powerType":"全部","powerOffArea":"【全线路停电】停李淑芳石板厂,石庄村4#【纯农排变】,西亢村1#,石庄村7#【纯农排变】,易河酒厂,中油保定116加油站,董家楼村1#,石庄村2#,石庄村6#,中亢村1#,劳动局直供,电南院直供,东亢村4#,石庄村5#,易县创意文化石有限公司1#,0469135321-易县泰丰恒石材厂-专变-46725417-易县泰丰恒石材厂,0676633306-易县裕和房地产开发有限公司-专变-216199783-易县裕和房地产开发有限公司1600KVA,路家庄村3#,刘永利,易县森都园园林绿化工程有限公司-200KVA,国有粮库一库变压器,石庄1#,中亢村2#,石庄村3#,东亢村1#,易县金沐汤泉洗浴有限公司,西亢村2#,易县民意城内公共汽车服务中心630KVA,西亢村4#,西亢5#,中亢村4#,东亢村2#,0555681730-中国移动通信集团河北有限公司保定分公司-专变-94363996-中国移动通信集团河北有限公司易县分公司变压器,西亢村3#,易县兴发建材有限公司,民政事业服务中心,易县交通局料厂(250KVA),易县杏林医院2500,桂子渠面粉厂(郭义江),易县交通局料厂(100KVA),东亢村5#,中亢村3#,东亢村3#,石庄村1#,中亢村5#,石庄【纯农排变】","powerOffReason":"【停电原因】由于紧急消缺导致１１０ＫＶ易县变电站东环线５１３线路全线停电【变更送电】因工作进度加快原因，送电时间由０６:００变更为０５:００【发布渠道】通过９５５９８发布","powerOffId":"2019063013000375"},{"poweroffId":2019063013000371,"sgpoweroffId":null,"subsName":"","lineName":"10kV车屯线515","pubTranName":"西魏屯变压器,","scope":"【影响街道/乡镇】肖官营镇 【高危重要客户】无 【影响客户】西魏屯村（部分）","startTime":"2019-07-01 08:00:00","stopDate":"2019-07-01 18:00:00","orgNo":"1340612","typeCode":"其他临时停电","poweroffArea":"【单台区停电】停西魏屯变压器","poweroffReason":"【停电原因】由于低压线路改造导致３５ＫＶ方官变电站１０ＫＶ车屯５１５线路西魏屯公变台区停电 【变更送电】无 【发布渠道】通过９５５９８发布","powerTime":"2019-07-01 17:32:52","powerComm":"已送电","subsNo":"","lineNo":"","tgNo":"","tgName":null,"infoStatus":"1","orgName":"国网高碑店市供电公司","typeName":null,"infoStatusName":null,"dateDay":null,"orgNos":null,"nowTime":null,"countyName":null,"streetName":null,"villageName":null,"roadName":null,"communityName":null,"tranName":null,"sdLineName":null,"cityCode":"1340612","cityName":"国网高碑店市供电公司","provinceCode":null,"stopTime":"2019-07-01 18:00:00","powerType":"全部","powerOffArea":"【单台区停电】停西魏屯变压器","powerOffReason":"【停电原因】由于低压线路改造导致３５ＫＶ方官变电站１０ＫＶ车屯５１５线路西魏屯公变台区停电 【变更送电】无 【发布渠道】通过９５５９８发布","powerOffId":"2019063013000371"},{"poweroffId":2019063013000361,"sgpoweroffId":null,"subsName":"","lineName":"10kV大李各庄线513","pubTranName":"1大李各庄内13,大李各庄小学1,1刘村内2,1刘村内1,2刘村外2【纯农排变】,1刘村内7,2顾家营外10【纯农排变】,1顾家营内5,1顾家营内6,1武安内6,顾家营砖厂,顾家营水厂,2大李各庄外12【纯农排变】,1大李各庄内15,1武安内1,2武安外2【纯农排变】,2大李各庄外22【纯农排变】,1武安内5,1大李各庄内2,1顾家营内3,1大李各庄内9,1大李各庄内11,2大李各庄外20【纯农排变】,2武安外6【纯农排变】,2大李各庄外9【纯农排变】,2刘村外8【纯农排变】,2武安外4【纯农排变】,1大李各庄内10,清苑县大李各庄谷玉雄养鸡厂,2大李各庄外10【纯农排变】,1大李各庄内8,县林场南台,1武安内9,2大李各庄外1【纯农排变】,2大李各庄外3【纯农排变】,2武安外1【纯农排变】,2大李各庄外21【纯农排变】,2顾家营外1【纯农排变】,1大李各庄内6,2刘村外7【纯农排变】,刘村小学,2大李各庄外14【纯农排变】,2刘村外3【纯农排变】,2大李各庄外2【纯农排变】,1大李各庄内1,清苑县民政事业第二服务中心,1大李各庄内12,2顾家营外3【纯农排变】,2大李各庄外23【纯农排变】,2顾家营外13【纯农排变】,0387500605-清苑县苗圃总场-专变-45321375-清苑县苗圃总厂,2刘村外4【纯农排变】,2大李各庄外19【纯农排变】,大李各庄面粉厂,2大李各庄外16【纯农排变】,1大李各庄内14,2大李各庄外6【纯农排变】,2武安外8【纯农排变】,1大李各庄内3,县林场东台,2刘村外6【纯农排变】,中国移动通信集团河北有限公司清苑分公司,2顾家营外12【纯农排变】,1大李各庄内7,2顾家营外4【纯农排变】,1武安内4,1武安内3,2大李各庄外5【纯农排变】,1武安内2,2大李各庄外11【纯农排变】,1顾家营内1,0564528789-河北鑫艺苑建筑材料有限公司-专变-219696356-清苑县大李各庄砖厂,1顾家营内2,0387500966-清苑县苗圃总场-专变-45321358-大李各庄林场1,0669051926-保定市清苑区大李各庄鑫源苗圃场-专变-210338503-保定市清苑区大李各庄鑫源苗圃场,1武安内8,0387500995-清苑县苗圃总场-专变-45321359-大李各庄林场2,2大李各庄外7【纯农排变】,2顾家营外2【纯农排变】,2大李各庄外18【纯农排变】,大李各庄小学2,2武安外5【纯农排变】,1刘村内4,武安小学,1刘村内5,1刘村内9,2武安外3【纯农排变】,大李各庄林场3,1顾家营内8,2刘村外5【纯农排变】,0387500940-清苑县苗圃总场-专变-125674936-清苑县苗圃总场,县苗圃,1刘村内8,2顾家营外14【纯农排变】,1武安内7,2顾家营外9【纯农排变】,2顾家营外8【纯农排变】,中国移动通信集团河北有限公司保定分公司,县林场中,2顾家营外11【纯农排变】,1大李各庄内5,0618175321-河北泽龙投资集团有限公司-专变-128759542-河北泽龙投资集团有限公司,顾家营小学,2顾家营外5【纯农排变】,2大李各庄外4【纯农排变】,2刘村外1【纯农排变】","scope":"【影响街道/乡镇】北王力乡 【高危重要客户】无 【影响客户】大李各庄、刘村、顾家营、武安村","startTime":"2019-06-30 21:32:56","stopDate":"2019-06-30 23:50:00","orgNo":"1340618","typeCode":"电网故障停限电","poweroffArea":"【全线路停电】停1大李各庄内13,大李各庄小学1,1刘村内2,1刘村内1,2刘村外2【纯农排变】,1刘村内7,2顾家营外10【纯农排变】,1顾家营内5,1顾家营内6,1武安内6,顾家营砖厂,顾家营水厂,2大李各庄外12【纯农排变】,1大李各庄内15,2武安外8【纯农排变】,1大李各庄内3,1武安内1,2武安外2【纯农排变】,2大李各庄外22【纯农排变】,1武安内5,1大李各庄内2,1顾家营内3,1大李各庄内9,1大李各庄内11,2大李各庄外20【纯农排变】,2武安外6【纯农排变】,2大李各庄外9【纯农排变】,2刘村外8【纯农排变】,2武安外4【纯农排变】,1大李各庄内10,清苑县大李各庄谷玉雄养鸡厂,2大李各庄外10【纯农排变】,1大李各庄内8,县林场南台,1武安内9,2大李各庄外1【纯农排变】,2大李各庄外3【纯农排变】,2武安外1【纯农排变】,2大李各庄外21【纯农排变】,2顾家营外1【纯农排变】,1大李各庄内6,2刘村外7【纯农排变】,刘村小学,2大李各庄外14【纯农排变】,2刘村外3【纯农排变】,2大李各庄外2【纯农排变】,1大李各庄内1,清苑县民政事业第二服务中心,1大李各庄内12,2顾家营外3【纯农排变】,2大李各庄外23【纯农排变】,2顾家营外13【纯农排变】,0387500605-清苑县苗圃总场-专变-45321375-清苑县苗圃总厂,2刘村外4【纯农排变】,2大李各庄外19【纯农排变】,大李各庄面粉厂,2大李各庄外16【纯农排变】,1大李各庄内14,2大李各庄外6【纯农排变】,县林场东台,2刘村外6【纯农排变】,中国移动通信集团河北有限公司清苑分公司,2顾家营外12【纯农排变】,1大李各庄内7,2顾家营外4【纯农排变】,1武安内4,1武安内3,2大李各庄外5【纯农排变】,1武安内2,2大李各庄外11【纯农排变】,1顾家营内1,0564528789-河北鑫艺苑建筑材料有限公司-专变-219696356-清苑县大李各庄砖厂,1顾家营内2,0387500966-清苑县苗圃总场-专变-45321358-大李各庄林场1,0669051926-保定市清苑区大李各庄鑫源苗圃场-专变-210338503-保定市清苑区大李各庄鑫源苗圃场,1武安内8,0387500995-清苑县苗圃总场-专变-45321359-大李各庄林场2,2大李各庄外7【纯农排变】,2顾家营外2【纯农排变】,2大李各庄外18【纯农排变】,大李各庄小学2,2武安外5【纯农排变】,1刘村内4,武安小学,1刘村内5,1刘村内9,2武安外3【纯农排变】,大李各庄林场3,1顾家营内8,2刘村外5【纯农排变】,0387500940-清苑县苗圃总场-专变-125674936-清苑县苗圃总场,县苗圃,1刘村内8,2顾家营外14【纯农排变】,1武安内7,2顾家营外9【纯农排变】,2顾家营外8【纯农排变】,中国移动通信集团河北有限公司保定分公司,县林场中,2顾家营外11【纯农排变】,1大李各庄内5,0618175321-河北泽龙投资集团有限公司-专变-128759542-河北泽龙投资集团有限公司,顾家营小学,2顾家营外5【纯农排变】,2大李各庄外4【纯农排变】,2刘村外1【纯农排变】,2大李各庄外8【纯农排变】,2武安外7【纯农排变】,2大李各庄外13【纯农排变】,2大李各庄外17【纯农排变】,0664802604-保定市共赢建筑材料制造有限公司-专变-202052729-保定市共赢建筑材料制造有限公司,2顾家营外6【纯农排变】,1刘村内3,河北鑫艺苑建筑材料有限公司,2大李各庄外24【纯农排变】,1刘村内6,1顾家营内4,1顾家营内7,2大李各庄外15【纯农排变】","poweroffReason":"【停电原因】由于主干１１８号杆分支４号杆清苑苗圃配变跌落烧毁导致３５ＫＶ罗家营变电站１０ＫＶ大李各庄线５１３线路全线停电 【变更送电】因抢修进度加快原因，送电时间由０７月０１日０４：００变更为０６月３０日２３：５０ 【发布渠道】通过９５５９８发布","powerTime":"2019-06-30 23:31:35","powerComm":"高伟延通知已送电","subsNo":"","lineNo":"","tgNo":"","tgName":null,"infoStatus":"1","orgName":"国网清苑县供电公司","typeName":null,"infoStatusName":null,"dateDay":null,"orgNos":null,"nowTime":null,"countyName":null,"streetName":null,"villageName":null,"roadName":null,"communityName":null,"tranName":null,"sdLineName":null,"cityCode":"1340618","cityName":"国网清苑县供电公司","provinceCode":null,"stopTime":"2019-06-30 23:50:00","powerType":"全部","powerOffArea":"【全线路停电】停1大李各庄内13,大李各庄小学1,1刘村内2,1刘村内1,2刘村外2【纯农排变】,1刘村内7,2顾家营外10【纯农排变】,1顾家营内5,1顾家营内6,1武安内6,顾家营砖厂,顾家营水厂,2大李各庄外12【纯农排变】,1大李各庄内15,2武安外8【纯农排变】,1大李各庄内3,1武安内1,2武安外2【纯农排变】,2大李各庄外22【纯农排变】,1武安内5,1大李各庄内2,1顾家营内3,1大李各庄内9,1大李各庄内11,2大李各庄外20【纯农排变】,2武安外6【纯农排变】,2大李各庄外9【纯农排变】,2刘村外8【纯农排变】,2武安外4【纯农排变】,1大李各庄内10,清苑县大李各庄谷玉雄养鸡厂,2大李各庄外10【纯农排变】,1大李各庄内8,县林场南台,1武安内9,2大李各庄外1【纯农排变】,2大李各庄外3【纯农排变】,2武安外1【纯农排变】,2大李各庄外21【纯农排变】,2顾家营外1【纯农排变】,1大李各庄内6,2刘村外7【纯农排变】,刘村小学,2大李各庄外14【纯农排变】,2刘村外3【纯农排变】,2大李各庄外2【纯农排变】,1大李各庄内1,清苑县民政事业第二服务中心,1大李各庄内12,2顾家营外3【纯农排变】,2大李各庄外23【纯农排变】,2顾家营外13【纯农排变】,0387500605-清苑县苗圃总场-专变-45321375-清苑县苗圃总厂,2刘村外4【纯农排变】,2大李各庄外19【纯农排变】,大李各庄面粉厂,2大李各庄外16【纯农排变】,1大李各庄内14,2大李各庄外6【纯农排变】,县林场东台,2刘村外6【纯农排变】,中国移动通信集团河北有限公司清苑分公司,2顾家营外12【纯农排变】,1大李各庄内7,2顾家营外4【纯农排变】,1武安内4,1武安内3,2大李各庄外5【纯农排变】,1武安内2,2大李各庄外11【纯农排变】,1顾家营内1,0564528789-河北鑫艺苑建筑材料有限公司-专变-219696356-清苑县大李各庄砖厂,1顾家营内2,0387500966-清苑县苗圃总场-专变-45321358-大李各庄林场1,0669051926-保定市清苑区大李各庄鑫源苗圃场-专变-210338503-保定市清苑区大李各庄鑫源苗圃场,1武安内8,0387500995-清苑县苗圃总场-专变-45321359-大李各庄林场2,2大李各庄外7【纯农排变】,2顾家营外2【纯农排变】,2大李各庄外18【纯农排变】,大李各庄小学2,2武安外5【纯农排变】,1刘村内4,武安小学,1刘村内5,1刘村内9,2武安外3【纯农排变】,大李各庄林场3,1顾家营内8,2刘村外5【纯农排变】,0387500940-清苑县苗圃总场-专变-125674936-清苑县苗圃总场,县苗圃,1刘村内8,2顾家营外14【纯农排变】,1武安内7,2顾家营外9【纯农排变】,2顾家营外8【纯农排变】,中国移动通信集团河北有限公司保定分公司,县林场中,2顾家营外11【纯农排变】,1大李各庄内5,0618175321-河北泽龙投资集团有限公司-专变-128759542-河北泽龙投资集团有限公司,顾家营小学,2顾家营外5【纯农排变】,2大李各庄外4【纯农排变】,2刘村外1【纯农排变】,2大李各庄外8【纯农排变】,2武安外7【纯农排变】,2大李各庄外13【纯农排变】,2大李各庄外17【纯农排变】,0664802604-保定市共赢建筑材料制造有限公司-专变-202052729-保定市共赢建筑材料制造有限公司,2顾家营外6【纯农排变】,1刘村内3,河北鑫艺苑建筑材料有限公司,2大李各庄外24【纯农排变】,1刘村内6,1顾家营内4,1顾家营内7,2大李各庄外15【纯农排变】","powerOffReason":"【停电原因】由于主干１１８号杆分支４号杆清苑苗圃配变跌落烧毁导致３５ＫＶ罗家营变电站１０ＫＶ大李各庄线５１３线路全线停电 【变更送电】因抢修进度加快原因，送电时间由０７月０１日０４：００变更为０６月３０日２３：５０ 【发布渠道】通过９５５９８发布","powerOffId":"2019063013000361"},{"poweroffId":2019063013000352,"sgpoweroffId":null,"subsName":"","lineName":"菜园537","pubTranName":"于家庄村2#,","scope":"【影响街道/乡镇】西山北乡【高危重要客户】无【影响客户】于家庄村","startTime":"2019-07-01 07:00:00","stopDate":"2019-07-01 20:00:00","orgNo":"1340625","typeCode":"其他临时停电","poweroffArea":"【单台区停电】停于家庄村2#","poweroffReason":"【停电原因】由于更换变压器导致３５ＫＶ步乐变电站菜园５３７线路于家庄村２＃公变台区停电【变更送电】无【发布渠道】通过９５５９８发布","powerTime":"2019-07-01 19:21:09","powerComm":"已送电","subsNo":"","lineNo":"","tgNo":"","tgName":null,"infoStatus":"1","orgName":"国网易县供电公司","typeName":null,"infoStatusName":null,"dateDay":null,"orgNos":null,"nowTime":null,"countyName":null,"streetName":null,"villageName":null,"roadName":null,"communityName":null,"tranName":null,"sdLineName":null,"cityCode":"1340625","cityName":"国网易县供电公司","provinceCode":null,"stopTime":"2019-07-01 20:00:00","powerType":"全部","powerOffArea":"【单台区停电】停于家庄村2#","powerOffReason":"【停电原因】由于更换变压器导致３５ＫＶ步乐变电站菜园５３７线路于家庄村２＃公变台区停电【变更送电】无【发布渠道】通过９５５９８发布","powerOffId":"2019063013000352"},{"poweroffId":2019063013000340,"sgpoweroffId":null,"subsName":"","lineName":"10KV城西农业519","pubTranName":"东沙沟南2323,","scope":"【影响街道/乡镇】东城坊镇 【高危重要客户】无 【影响客户】东沙沟","startTime":"2019-06-30 19:26:42","stopDate":"2019-07-01 02:00:00","orgNo":"1340626","typeCode":"电网故障停限电","poweroffArea":"【单台区停电】停东沙沟南2323","poweroffReason":"【停电原因】由于低压线路断线导致１１０ＫＶ涿县变电站１０ＫＶ城西农业５１９线路东沙沟南２３２３公变台区停电 【变更送电】因抢修进度加快原因，送电时间由１０：００变更为０２：００ 【发布渠道】通过９５５９８发布","powerTime":"2019-07-01 01:33:08","powerComm":"恢复送电","subsNo":"","lineNo":"","tgNo":"","tgName":null,"infoStatus":"1","orgName":"国网涿州市供电公司","typeName":null,"infoStatusName":null,"dateDay":null,"orgNos":null,"nowTime":null,"countyName":null,"streetName":null,"villageName":null,"roadName":null,"communityName":null,"tranName":null,"sdLineName":null,"cityCode":"1340626","cityName":"国网涿州市供电公司","provinceCode":null,"stopTime":"2019-07-01 02:00:00","powerType":"全部","powerOffArea":"【单台区停电】停东沙沟南2323","powerOffReason":"【停电原因】由于低压线路断线导致１１０ＫＶ涿县变电站１０ＫＶ城西农业５１９线路东沙沟南２３２３公变台区停电 【变更送电】因抢修进度加快原因，送电时间由１０：００变更为０２：００ 【发布渠道】通过９５５９８发布","powerOffId":"2019063013000340"},{"poweroffId":2019063013000328,"sgpoweroffId":null,"subsName":"","lineName":"10kV杨翟515线","pubTranName":"杨翟农业3变压器,杨翟综合3,常庄农业1变压器,候村综合四,","scope":"【影响街道/乡镇】郑章镇 【高危重要客户】无 【影响客户】杨宅村、候村、常庄村","startTime":"2019-06-30 18:31:39","stopDate":"2019-07-01 00:20:41","orgNo":"1340606","typeCode":"电网故障停限电","poweroffArea":"【全线路停电】停常庄农业1变压器,杨翟农业3变压器,候村综合四,杨翟综合3","poweroffReason":"【停电原因】由于站内开关跳闸导致３５ＫＶ常庄变电站１０ＫＶ杨翟５１５线路全线停电 【变更送电】因抢修进度加快原因，送电时间由０４：００变更为００：２０ 【发布渠道】通过９５５９８发布","powerTime":"2019-07-01 00:09:20","powerComm":"已送电","subsNo":"","lineNo":"","tgNo":"","tgName":null,"infoStatus":"1","orgName":"国网安国市供电公司","typeName":null,"infoStatusName":null,"dateDay":null,"orgNos":null,"nowTime":null,"countyName":null,"streetName":null,"villageName":null,"roadName":null,"communityName":null,"tranName":null,"sdLineName":null,"cityCode":"1340606","cityName":"国网安国市供电公司","provinceCode":null,"stopTime":"2019-07-01 00:20:41","powerType":"全部","powerOffArea":"【全线路停电】停常庄农业1变压器,杨翟农业3变压器,候村综合四,杨翟综合3","powerOffReason":"【停电原因】由于站内开关跳闸导致３５ＫＶ常庄变电站１０ＫＶ杨翟５１５线路全线停电 【变更送电】因抢修进度加快原因，送电时间由０４：００变更为００：２０ 【发布渠道】通过９５５９８发布","powerOffId":"2019063013000328"},{"poweroffId":2019063013000325,"sgpoweroffId":null,"subsName":"","lineName":"10kV东桄513线","pubTranName":"营二里综合三,营二里综合四,东桄综合八,东柴农业9台区【纯农排变】,侯村农业5台区【纯农排变】,西桄农业4台区【纯农排变】,西桄综合1变压器,西里农业2台区【纯农排变】,营二里农业5台区【纯农排变】,侯村综合1变压器,营二里综合2变压器,侯村农业6变压器,侯村农业4台区【纯农排变】,侯村综合三台区,东桄综合四,营二里农业4台区【纯农排变】,","scope":"【影响街道/乡镇】郑章镇 【高危重要客户】无 【影响客户】东桄村、西桄村、东柴村、西李村、西娄底村、常庄村、东李村、营二里村、候村","startTime":"2019-06-30 18:28:46","stopDate":"2019-07-01 00:30:00","orgNo":"1340606","typeCode":"电网故障停限电","poweroffArea":"【全线路停电】停营二里农业4台区【纯农排变】,侯村农业4台区【纯农排变】,西桄农业4台区【纯农排变】,侯村农业5台区【纯农排变】,东桄综合四,西桄综合1变压器,侯村综合三台区,西里农业2台区【纯农排变】,东桄综合八,营二里综合四,营二里综合三,东柴农业9台区【纯农排变】,侯村农业6变压器,侯村综合1变压器,营二里农业5台区【纯农排变】,营二里综合2变压器","poweroffReason":"【停电原因】由于站内开关跳闸导致３５ＫＶ常庄变电站１０ＫＶ东桄５１３线路全线停电 【变更送电】因抢修进度加快原因，送电时间由０４：００变更为００：３０ 【发布渠道】通过９５５９８发布","powerTime":"2019-07-01 00:18:29","powerComm":"已送电","subsNo":"","lineNo":"","tgNo":"","tgName":null,"infoStatus":"1","orgName":"国网安国市供电公司","typeName":null,"infoStatusName":null,"dateDay":null,"orgNos":null,"nowTime":null,"countyName":null,"streetName":null,"villageName":null,"roadName":null,"communityName":null,"tranName":null,"sdLineName":null,"cityCode":"1340606","cityName":"国网安国市供电公司","provinceCode":null,"stopTime":"2019-07-01 00:30:00","powerType":"全部","powerOffArea":"【全线路停电】停营二里农业4台区【纯农排变】,侯村农业4台区【纯农排变】,西桄农业4台区【纯农排变】,侯村农业5台区【纯农排变】,东桄综合四,西桄综合1变压器,侯村综合三台区,西里农业2台区【纯农排变】,东桄综合八,营二里综合四,营二里综合三,东柴农业9台区【纯农排变】,侯村农业6变压器,侯村综合1变压器,营二里农业5台区【纯农排变】,营二里综合2变压器","powerOffReason":"【停电原因】由于站内开关跳闸导致３５ＫＶ常庄变电站１０ＫＶ东桄５１３线路全线停电 【变更送电】因抢修进度加快原因，送电时间由０４：００变更为００：３０ 【发布渠道】通过９５５９８发布","powerOffId":"2019063013000325"},{"poweroffId":2019063013000321,"sgpoweroffId":null,"subsName":"","lineName":"10kV韩村512线","pubTranName":"辛安农业9台区【纯农排变】,路根农业4台区【纯农排变】,安国市盛泰橡胶有限公司,路根内西综合1变压器,新安综4,安国市民主街胶厂,韩村河边农业3台区【纯农排变】,韩村综合5,新安内北综合2变压器,综1柱上变压器,韩村综合4台区变压器,力元农业2台区【纯农排变】,安国市亚欧动力有限公司,韩村学校北北农业6台区【纯农排变】,辛安农业1台区【纯农排变】,辛安农业4,韩村综合7,福海面粉厂,新安内东综合1变压器,安国市鑫盛泰建材有限公司,新安新增农11变压器,韩村铁路北边农业4台区【纯农排变】,韩村内西综合2变压器,路根农业5台区【纯农排变】,新安学校变压器,辛安综合四,东方兽药,辛安农业5台区【纯农排变】,梨园村北农3变压器,常庄综合10变压器,韩村内东综合1变压器,益昌纺织厂,东方兽药厂,新安综合五台区,韩村林业北农业7台区【纯农排变】,路根内北综合3变压器,0387359933-常庄加油站-专变-45230926-常庄加油站,韩村西南农业5台区【纯农排变】,韩村北2农业3台区【纯农排变】,梨园村内综合1变压器,辛安村南农业11台区【纯农排变】,梨园村西南农1变压器,路根农业1台区【纯农排变】,新安加气站,辛安综合7,沙滩东农5变压器,辛安综合6,韩村北1农业3台区【纯农排变】,辛安农业10台区【纯农排变】,奎龙药业有限公司,路根综合4,韩村林业农业4台区【纯农排变】,辛安农业12台区【纯农排变】,新安正北农5变压器,路根内东综合2变压器,韩村综合9,辛安农业3台区【纯农排变】,路根农业2台区【纯农排变】,红凤纺织机械配件厂,新安板厂,辛安农业13,韩村内南综合3变压器,路根农业3【纯农排变】,隆盛纺织机械有限公司,辛安农业6台区【纯农排变】,韩村煤厂,辛安农业7台区【纯农排变】,韩村综合6,韩村综合8,安国市隆盛纺织机械有限公司,新安内西综合3变压器,新安公路边农2变压器,安国市盛泰橡胶2计量点,路根综合五号J,","scope":"【影响街道/乡镇】郑章镇 【高危重要客户】无 【影响客户】辛安村、路根村、韩村、梨园村、常庄村","startTime":"2019-06-30 18:25:16","stopDate":"2019-07-01 00:30:19","orgNo":"1340606","typeCode":"电网故障停限电","poweroffArea":"【全线路停电】停新安公路边农2变压器,路根农业1台区【纯农排变】,福海面粉厂,新安板厂,新安正北农5变压器,韩村综合7,路根内北综合3变压器,安国市民主街胶厂,路根内东综合2变压器,韩村综合6,辛安农业12台区【纯农排变】,新安综4,梨园村内综合1变压器,韩村内南综合3变压器,新安内东综合1变压器,韩村综合9,新安内西综合3变压器,0387359933-常庄加油站-专变-45230926-常庄加油站,益昌纺织厂,韩村煤厂,新安加气站,新安综合五台区,综1柱上变压器,辛安综合四,辛安村南农业11台区【纯农排变】,韩村西南农业5台区【纯农排变】,梨园村西南农1变压器,奎龙药业有限公司,路根综合五号J,安国市亚欧动力有限公司,韩村河边农业3台区【纯农排变】,辛安农业10台区【纯农排变】,力元农业2台区【纯农排变】,辛安农业6台区【纯农排变】,路根农业5台区【纯农排变】,辛安农业13,韩村林业农业4台区【纯农排变】,辛安农业1台区【纯农排变】,辛安农业9台区【纯农排变】,韩村内东综合1变压器,辛安农业4,新安学校变压器,路根农业4台区【纯农排变】,红凤纺织机械配件厂,新安内北综合2变压器,辛安农业3台区【纯农排变】,韩村学校北北农业6台区【纯农排变】,东方兽药,梨园村北农3变压器,路根内西综合1变压器,安国市盛泰橡胶有限公司,东方兽药厂,安国市盛泰橡胶2计量点,隆盛纺织机械有限公司,路根综合4,辛安综合6,路根农业3【纯农排变】,沙滩东农5变压器,辛安农业5台区【纯农排变】,辛安综合7,辛安农业7台区【纯农排变】,路根农业2台区【纯农排变】,韩村综合4台区变压器,常庄综合10变压器,韩村北2农业3台区【纯农排变】,韩村内西综合2变压器,安国市隆盛纺织机械有限公司,韩村铁路北边农业4台区【纯农排变】,韩村北1农业3台区【纯农排变】,韩村综合5,韩村综合8,韩村林业北农业7台区【纯农排变】,新安新增农11变压器,安国市鑫盛泰建材有限公司","poweroffReason":"【停电原因】由于站内开关跳闸导致３５ＫＶ常庄变电站１０ＫＶ韩村５１２线路全线停电 【变更送电】因抢修进度加快原因，送电时间由０４：００变更为００：３０ 【发布渠道】通过９５５９８发布","powerTime":"2019-07-01 00:16:21","powerComm":"已送电","subsNo":"","lineNo":"","tgNo":"","tgName":null,"infoStatus":"1","orgName":"国网安国市供电公司","typeName":null,"infoStatusName":null,"dateDay":null,"orgNos":null,"nowTime":null,"countyName":null,"streetName":null,"villageName":null,"roadName":null,"communityName":null,"tranName":null,"sdLineName":null,"cityCode":"1340606","cityName":"国网安国市供电公司","provinceCode":null,"stopTime":"2019-07-01 00:30:19","powerType":"全部","powerOffArea":"【全线路停电】停新安公路边农2变压器,路根农业1台区【纯农排变】,福海面粉厂,新安板厂,新安正北农5变压器,韩村综合7,路根内北综合3变压器,安国市民主街胶厂,路根内东综合2变压器,韩村综合6,辛安农业12台区【纯农排变】,新安综4,梨园村内综合1变压器,韩村内南综合3变压器,新安内东综合1变压器,韩村综合9,新安内西综合3变压器,0387359933-常庄加油站-专变-45230926-常庄加油站,益昌纺织厂,韩村煤厂,新安加气站,新安综合五台区,综1柱上变压器,辛安综合四,辛安村南农业11台区【纯农排变】,韩村西南农业5台区【纯农排变】,梨园村西南农1变压器,奎龙药业有限公司,路根综合五号J,安国市亚欧动力有限公司,韩村河边农业3台区【纯农排变】,辛安农业10台区【纯农排变】,力元农业2台区【纯农排变】,辛安农业6台区【纯农排变】,路根农业5台区【纯农排变】,辛安农业13,韩村林业农业4台区【纯农排变】,辛安农业1台区【纯农排变】,辛安农业9台区【纯农排变】,韩村内东综合1变压器,辛安农业4,新安学校变压器,路根农业4台区【纯农排变】,红凤纺织机械配件厂,新安内北综合2变压器,辛安农业3台区【纯农排变】,韩村学校北北农业6台区【纯农排变】,东方兽药,梨园村北农3变压器,路根内西综合1变压器,安国市盛泰橡胶有限公司,东方兽药厂,安国市盛泰橡胶2计量点,隆盛纺织机械有限公司,路根综合4,辛安综合6,路根农业3【纯农排变】,沙滩东农5变压器,辛安农业5台区【纯农排变】,辛安综合7,辛安农业7台区【纯农排变】,路根农业2台区【纯农排变】,韩村综合4台区变压器,常庄综合10变压器,韩村北2农业3台区【纯农排变】,韩村内西综合2变压器,安国市隆盛纺织机械有限公司,韩村铁路北边农业4台区【纯农排变】,韩村北1农业3台区【纯农排变】,韩村综合5,韩村综合8,韩村林业北农业7台区【纯农排变】,新安新增农11变压器,安国市鑫盛泰建材有限公司","powerOffReason":"【停电原因】由于站内开关跳闸导致３５ＫＶ常庄变电站１０ＫＶ韩村５１２线路全线停电 【变更送电】因抢修进度加快原因，送电时间由０４：００变更为００：３０ 【发布渠道】通过９５５９８发布","powerOffId":"2019063013000321"},{"poweroffId":2019063013000318,"sgpoweroffId":null,"subsName":"","lineName":"10kV常庄511线","pubTranName":"常庄综合五台区,常庄综合四台区,常庄综合2变压器,常庄综合3变压器,常庄综合1变压器,","scope":"【影响街道/乡镇】常庄乡 【高危重要客户】无 【影响客户】常庄村","startTime":"2019-06-30 18:24:01","stopDate":"2019-07-01 00:20:03","orgNo":"1340606","typeCode":"电网故障停限电","poweroffArea":"【全线路停电】停常庄综合四台区,常庄综合2变压器,常庄综合1变压器,常庄综合3变压器,常庄综合五台区","poweroffReason":"【停电原因】由于站内开关掉闸导致３５ＫＶ常庄变电站１０ＫＶ常庄５１１线路全线停电 【变更送电】因抢修进度加快原因，送电时间由０４：００变更为００：２０ 【发布渠道】通过９５５９８发布","powerTime":"2019-07-01 00:12:17","powerComm":"已送电","subsNo":"","lineNo":"","tgNo":"","tgName":null,"infoStatus":"1","orgName":"国网安国市供电公司","typeName":null,"infoStatusName":null,"dateDay":null,"orgNos":null,"nowTime":null,"countyName":null,"streetName":null,"villageName":null,"roadName":null,"communityName":null,"tranName":null,"sdLineName":null,"cityCode":"1340606","cityName":"国网安国市供电公司","provinceCode":null,"stopTime":"2019-07-01 00:20:03","powerType":"全部","powerOffArea":"【全线路停电】停常庄综合四台区,常庄综合2变压器,常庄综合1变压器,常庄综合3变压器,常庄综合五台区","powerOffReason":"【停电原因】由于站内开关掉闸导致３５ＫＶ常庄变电站１０ＫＶ常庄５１１线路全线停电 【变更送电】因抢修进度加快原因，送电时间由０４：００变更为００：２０ 【发布渠道】通过９５５９８发布","powerOffId":"2019063013000318"},{"poweroffId":2019063013000313,"sgpoweroffId":null,"subsName":"","lineName":"周任516","pubTranName":"周任村8#,凌云册村4#,太平庄村7#,凌云册村13#,凌云册村12#,新庄村1#,解村3#,太平庄村5#,解村4#,周任村5#,太平庄村8#,凌云册村8#,解村12#,新庄村2#,太平庄村9#,周任村6#,新庄村4#,解村5#,周任村7#,凌云册村6#,凌云册村3#,太平庄村10#,凌云册村5#,凌云册村2#,凌云册村7#,解村14#,解村8#,凌云册乡政府,","scope":"【影响街道/乡镇】凌云册乡【高危重要客户】无【影响客户】太平庄村、辛庄村、凌云册村、解村、周任村","startTime":"2019-07-01 00:00:00","stopDate":"2019-07-01 05:00:00","orgNo":"1340625","typeCode":"其他临时停电","poweroffArea":"【全线路停电】停太平庄村5#,凌云册村8#,解村4#,新庄村2#,解村5#,凌云册村4#,太平庄村9#,凌云册村3#,解村14#,周任村8#,周任村5#,凌云册村5#,新庄村4#,太平庄村7#,凌云册村13#,凌云册村2#,凌云册村6#,太平庄村8#,解村12#,太平庄村10#,凌云册村7#,新庄村1#,周任村7#,周任村6#,解村8#,凌云册村12#,凌云册乡政府,解村3#","poweroffReason":"【停电原因】由于紧急消缺导致３５ＫＶ凌云册变电站周任５１６线路全线停电【变更送电】因工作进度加快原因，送电时间由０６：００变更为０５：００【发布渠道】通过９５５９８发布","powerTime":"2019-07-01 04:49:16","powerComm":"已送电","subsNo":"","lineNo":"","tgNo":"","tgName":null,"infoStatus":"1","orgName":"国网易县供电公司","typeName":null,"infoStatusName":null,"dateDay":null,"orgNos":null,"nowTime":null,"countyName":null,"streetName":null,"villageName":null,"roadName":null,"communityName":null,"tranName":null,"sdLineName":null,"cityCode":"1340625","cityName":"国网易县供电公司","provinceCode":null,"stopTime":"2019-07-01 05:00:00","powerType":"全部","powerOffArea":"【全线路停电】停太平庄村5#,凌云册村8#,解村4#,新庄村2#,解村5#,凌云册村4#,太平庄村9#,凌云册村3#,解村14#,周任村8#,周任村5#,凌云册村5#,新庄村4#,太平庄村7#,凌云册村13#,凌云册村2#,凌云册村6#,太平庄村8#,解村12#,太平庄村10#,凌云册村7#,新庄村1#,周任村7#,周任村6#,解村8#,凌云册村12#,凌云册乡政府,解村3#","powerOffReason":"【停电原因】由于紧急消缺导致３５ＫＶ凌云册变电站周任５１６线路全线停电【变更送电】因工作进度加快原因，送电时间由０６：００变更为０５：００【发布渠道】通过９５５９８发布","powerOffId":"2019063013000313"}],"pageModel":{"pageNow":883,"totalCount":10973,"totalPage":1098,"tableRows":0,"pageCount":10,"beginCount":8820},"isExperi":"1"}