{"message":"","today":"2020-06-15","seleList":[{"poweroffId":2019063013000311,"sgpoweroffId":null,"subsName":"","lineName":"东邵514","pubTranName":"贾庄村3号,涞山村3#,东邵中村5#,东邵东村2#,东邵新村5#,东邵中村1#,东邵中村6#,大巨村13#,大巨19号变压器,东邵中村4#,新庄村7#,黄山村3号变压器,涞山村1号变压器,大巨村15#,东邵中村8#,东邵东村8#变压器,东邵中村9#,大巨村12#,大方17号变压器,贾庄村7号,东邵新村3号,涞山村8#,贾庄村4号,大方村9#,大方村10#,黄山村9#,涞山村6#,东韩村3#,大巨村1#,涞山村4#,东邵东村5#,东邵新7号,贾庄村5号,东邵新村4#,黄山村10#,大巨村3#,大方村7#,大巨村8#,大方村1#,东邵新村2#,东邵新6号,大方村16#,东韩村2#,黄山村1#,大巨村17#,东邵东村4#,黄山村8#,大方村15#,大巨村11#,黄山村5#,黄山村6#,大方村14#,大巨村10#,客户投资_大巨村2#,大方村2#,大方村11#,黄山村4#,大方村8#,大方19号变压器,大巨村16#,东邵新村1#,涞山村2#,贾庄村6号,大巨村4#,新庄村6#,东邵东村3#,大巨村14#,黄山村2#,大方18号变压器,黄山村7#,东邵东村7#变压器,大方村北12#,东韩村1#,新庄村5#,涞山12#变压器,东邵中村2#,东邵东村6#,大巨村18#,涞山村7#,东邵中村7#,","scope":"【影响街道/乡镇】凌云册乡【高危重要客户】无【影响客户】大方村、黄山村、大巨村、东邵东、东邵中、东邵新、新庄、贾庄村、东韩村、涞山村","startTime":"2019-07-01 00:00:00","stopDate":"2019-07-01 05:00:00","orgNo":"1340625","typeCode":"其他临时停电","poweroffArea":"【全线路停电】停大方村7#,大巨村8#,大方村1#,黄山村2#,大方18号变压器,黄山村7#,大方村16#,黄山村8#,大方村15#,大巨村11#,黄山村5#,黄山村6#,大方村14#,大方村11#,黄山村4#,大方村8#,大方19号变压器,大方17号变压器,黄山村10#,黄山村3号变压器,黄山村1#,大方村北12#,大方村2#,大方村9#,大方村10#,黄山村9#,涞山村6#,东韩村3#,大巨村1#,涞山村4#,东邵新村4#,大巨村3#,东邵中村8#,东邵东村8#变压器,东邵中村9#,大巨村12#,东韩村1#,大巨村10#,客户投资_大巨村2#,新庄村5#,大巨村16#,东邵新村1#,涞山村2#,东邵东村3#,东邵新村2#,东邵东村5#,东邵新7号,大巨村4#,大巨村17#,东邵东村4#,新庄村7#,涞山村8#,东邵新村3号,贾庄村4号,贾庄村7号,东韩村2#,贾庄村3号,东邵新6号,涞山12#变压器,东邵中村2#,东邵东村6#,大巨村18#,涞山村7#,贾庄村5号,大巨村14#,东邵东村7#变压器,贾庄村6号,新庄村6#,大巨村13#,大巨19号变压器,东邵中村4#,涞山村1号变压器,东邵中村7#,涞山村3#,东邵中村5#,东邵东村2#,东邵中村6#,大巨村15#,东邵中村1#,东邵新村5#","poweroffReason":"【停电原因】由于紧急消缺导致３５ＫＶ凌云册变电站东邵５１４线路全线停电【变更送电】因工作进度加快原因，送电时间由０６：００变更为０５：００【发布渠道】通过９５５９８发布","powerTime":"2019-07-01 04:46:52","powerComm":"已送电","subsNo":"","lineNo":"","tgNo":"","tgName":null,"infoStatus":"1","orgName":"国网易县供电公司","typeName":null,"infoStatusName":null,"dateDay":null,"orgNos":null,"nowTime":null,"countyName":null,"streetName":null,"villageName":null,"roadName":null,"communityName":null,"tranName":null,"sdLineName":null,"cityCode":"1340625","cityName":"国网易县供电公司","provinceCode":null,"stopTime":"2019-07-01 05:00:00","powerType":"全部","powerOffArea":"【全线路停电】停大方村7#,大巨村8#,大方村1#,黄山村2#,大方18号变压器,黄山村7#,大方村16#,黄山村8#,大方村15#,大巨村11#,黄山村5#,黄山村6#,大方村14#,大方村11#,黄山村4#,大方村8#,大方19号变压器,大方17号变压器,黄山村10#,黄山村3号变压器,黄山村1#,大方村北12#,大方村2#,大方村9#,大方村10#,黄山村9#,涞山村6#,东韩村3#,大巨村1#,涞山村4#,东邵新村4#,大巨村3#,东邵中村8#,东邵东村8#变压器,东邵中村9#,大巨村12#,东韩村1#,大巨村10#,客户投资_大巨村2#,新庄村5#,大巨村16#,东邵新村1#,涞山村2#,东邵东村3#,东邵新村2#,东邵东村5#,东邵新7号,大巨村4#,大巨村17#,东邵东村4#,新庄村7#,涞山村8#,东邵新村3号,贾庄村4号,贾庄村7号,东韩村2#,贾庄村3号,东邵新6号,涞山12#变压器,东邵中村2#,东邵东村6#,大巨村18#,涞山村7#,贾庄村5号,大巨村14#,东邵东村7#变压器,贾庄村6号,新庄村6#,大巨村13#,大巨19号变压器,东邵中村4#,涞山村1号变压器,东邵中村7#,涞山村3#,东邵中村5#,东邵东村2#,东邵中村6#,大巨村15#,东邵中村1#,东邵新村5#","powerOffReason":"【停电原因】由于紧急消缺导致３５ＫＶ凌云册变电站东邵５１４线路全线停电【变更送电】因工作进度加快原因，送电时间由０６：００变更为０５：００【发布渠道】通过９５５９８发布","powerOffId":"2019063013000311"},{"poweroffId":2019063013000310,"sgpoweroffId":null,"subsName":"","lineName":"王京东线513","pubTranName":"保定中达铸造有限公司,南陶邱6103变压器,王京村4009变压器,中达电炉200,春耕板厂0183,王京村4008变压器,保定中达铸造有限公司2,王京西4853变压器,王京储备库0476,保定中达铸造有限公司4,王京村1478变压器,王京村0175变压器,忠尔铸造厂0181,王京村北0211变压器,","scope":"【影响街道/乡镇】王京镇【高危重要客户】无【影响客户】王京村、王京储备库、春耕板厂、中达电炉、保定柱力预应力机械制造有限公司、保定中达铸造有限公司","startTime":"2019-06-30 18:13:00","stopDate":"2019-07-01 02:00:00","orgNo":"1340622","typeCode":"电网故障停限电","poweroffArea":"【全线路停电】停春耕板厂0183,忠尔铸造厂0181,南陶邱6103变压器,王京村0175变压器,王京储备库0476,王京村1478变压器,保定中达铸造有限公司,保定中达铸造有限公司4,王京村4008变压器,王京村北0211变压器,王京西4853变压器,王京村4009变压器,保定中达铸造有限公司2,中达电炉200","poweroffReason":"【停电原因】由于王京东５１３—２刀闸导电座烧毁导致３５ＫＶ王京变电站王京东线５１３线路全线停电【变更送电】因抢修进度加快原因，送电时间由１日１０：００变更为１日０２：００【发布渠道】通过９５５９８发布","powerTime":"2019-07-01 01:04:21","powerComm":"已送电","subsNo":"","lineNo":"","tgNo":"","tgName":null,"infoStatus":"1","orgName":"国网唐县供电公司","typeName":null,"infoStatusName":null,"dateDay":null,"orgNos":null,"nowTime":null,"countyName":null,"streetName":null,"villageName":null,"roadName":null,"communityName":null,"tranName":null,"sdLineName":null,"cityCode":"1340622","cityName":"国网唐县供电公司","provinceCode":null,"stopTime":"2019-07-01 02:00:00","powerType":"全部","powerOffArea":"【全线路停电】停春耕板厂0183,忠尔铸造厂0181,南陶邱6103变压器,王京村0175变压器,王京储备库0476,王京村1478变压器,保定中达铸造有限公司,保定中达铸造有限公司4,王京村4008变压器,王京村北0211变压器,王京西4853变压器,王京村4009变压器,保定中达铸造有限公司2,中达电炉200","powerOffReason":"【停电原因】由于王京东５１３—２刀闸导电座烧毁导致３５ＫＶ王京变电站王京东线５１３线路全线停电【变更送电】因抢修进度加快原因，送电时间由１日１０：００变更为１日０２：００【发布渠道】通过９５５９８发布","powerOffId":"2019063013000310"},{"poweroffId":2019063013000309,"sgpoweroffId":null,"subsName":"","lineName":"舍龙城515","pubTranName":"北韩村6#,北韩村4#【纯农排变】,南韩村5#,太平庄村1#,北韩村7#,南韩村2#,南韩村(吴顺平石子厂),凌云册村10#,北韩村2#,南韩村3#【纯农排变】,南韩村4#【纯农排变】,凌云册村1#,北韩村3#,北韩村5#,西韩村2#【纯农排变】,易县南山石场变压器,东韩村4#,东韩村5#,太平庄面粉厂,北韩村1#【纯农排变】,西韩村3#,西韩村1#【纯农排变】,易县金谷园大酒店,","scope":"【影响街道/乡镇】凌云册乡【高危重要客户】无【影响客户】太平庄村、凌云册村、北韩村、西韩村、东韩村、南韩村","startTime":"2019-07-01 00:00:00","stopDate":"2019-07-01 05:00:00","orgNo":"1340625","typeCode":"其他临时停电","poweroffArea":"【全线路停电】停北韩村3#,南韩村5#,凌云册村10#,东韩村4#,北韩村6#,东韩村5#,易县南山石场变压器,北韩村2#,南韩村3#【纯农排变】,南韩村2#,南韩村(吴顺平石子厂),北韩村4#【纯农排变】,西韩村2#【纯农排变】,凌云册村1#,北韩村7#,西韩村1#【纯农排变】,太平庄面粉厂,太平庄村1#,西韩村3#,南韩村4#【纯农排变】,北韩村1#【纯农排变】,易县金谷园大酒店,北韩村5#","poweroffReason":"【停电原因】由于紧急消缺导致３５ＫＶ凌云册变电站舍龙城５１５线路全线停电【变更送电】因工作进度加快原因，送电时间由０６:００变更为０５:００【发布渠道】通过９５５９８发布","powerTime":"2019-07-01 04:48:42","powerComm":"已送电","subsNo":"","lineNo":"","tgNo":"","tgName":null,"infoStatus":"1","orgName":"国网易县供电公司","typeName":null,"infoStatusName":null,"dateDay":null,"orgNos":null,"nowTime":null,"countyName":null,"streetName":null,"villageName":null,"roadName":null,"communityName":null,"tranName":null,"sdLineName":null,"cityCode":"1340625","cityName":"国网易县供电公司","provinceCode":null,"stopTime":"2019-07-01 05:00:00","powerType":"全部","powerOffArea":"【全线路停电】停北韩村3#,南韩村5#,凌云册村10#,东韩村4#,北韩村6#,东韩村5#,易县南山石场变压器,北韩村2#,南韩村3#【纯农排变】,南韩村2#,南韩村(吴顺平石子厂),北韩村4#【纯农排变】,西韩村2#【纯农排变】,凌云册村1#,北韩村7#,西韩村1#【纯农排变】,太平庄面粉厂,太平庄村1#,西韩村3#,南韩村4#【纯农排变】,北韩村1#【纯农排变】,易县金谷园大酒店,北韩村5#","powerOffReason":"【停电原因】由于紧急消缺导致３５ＫＶ凌云册变电站舍龙城５１５线路全线停电【变更送电】因工作进度加快原因，送电时间由０６:００变更为０５:００【发布渠道】通过９５５９８发布","powerOffId":"2019063013000309"},{"poweroffId":2019063013000299,"sgpoweroffId":null,"subsName":"","lineName":"10kV518潘营线","pubTranName":"潘西综合7台区,潘西农排12台区【纯农排变】,潘东综合3台区,小南庄综合4台区,潘西农排4台区【纯农排变】,潘东农排14台区【纯农排变】,大南庄综合3台区,小南庄农排4台区【纯农排变】,潘东农排15台区【纯农排变】,潘西综合4台区,潘西农排9台区【纯农排变】,潘东农排9台区【纯农排变】,潘东综合8台区,潘东综合2台区,潘东农排2台区【纯农排变】,潘东农排1台区【纯农排变】,潘西占国,潘西综合13台区,蠡县腾宇物业服务有限公司变压器,小南庄农排5台区【纯农排变】,蠡县威远商贸有限公司变压器,宏亚毛纺厂,潘西农排8台区【纯农排变】,潘西综合10台区,潘西农排13台区【纯农排变】,潘东农排10台区【纯农排变】,潘东农排13台区【纯农排变】,蠡县腾宇物业服务有限公司变压器,潘西农排10台区【纯农排变】,潘东综合4台区,潘西综合12台区,潘东农排5台区【纯农排变】,潘西农排6台区【纯农排变】,潘西农排11台区【纯农排变】,宏亚毛纺厂,小南庄农排3台区【纯农排变】,造纸厂,生子地毯厂,潘西新民居变压器,潘西综合12台区,潘东农排6台区【纯农排变】,大南庄综合1台区,潘东农排6台区【纯农排变】,潘东农排14台区【纯农排变】,大南庄农排2台区【纯农排变】,潘西农排7台区【纯农排变】,桑园潘营打井变压器,潘西综合6台区,潘东农排9台区【纯农排变】,中捷运输公司,保定盛科物业服务有限公司,潘东综合6台区,江海辉面粉厂,潘西农排1台区【纯农排变】,潘东面粉厂,潘东综合5台区,蠡县潘东腾飞养殖场,潘西综合14台区,潘西综合6台区,小南庄农排3台区【纯农排变】,造纸厂,蠡县潘营占辉养殖场变压器,大南庄农排3台区【纯农排变】,潘东农排7台区【纯农排变】,潘西综合9台区,潘西综合5台区,潘东综合8台区,大南庄农排6台区【纯农排变】,小南庄综合3台区,变压器,潘西农排5台区【纯农排变】,大南庄农排5台区【纯农排变】,小南庄综合5台区,潘东综合1台区,潘西农排9台区【纯农排变】,潘西农排5台区【纯农排变】,潘东农排4台区【纯农排变】,小南庄综合1台区,潘西综合7台区,0587126764-蠡县辛兴纺织城综合开发有限公司-专变-125203150-蠡县辛兴纺织城综合开发有限公司变压器,汽站,潘西农排3台区【纯农排变】,大南庄综合2台区,大南庄综合4台区,潘西大军,潘东农排2台区【纯农排变】,蠡县潘东腾飞养殖场,潘东农排12台区【纯农排变】,潘西农排16台区【纯农排变】,大南庄农排1台区【纯农排变】,潘西农排6台区【纯农排变】,蠡县潘营占辉养殖场变压器,潘西农排2台区【纯农排变】,大南庄农排5台区【纯农排变】,潘东综合9台区,大南庄综合5台区,潘西综合4台区,小南庄农排1台区【纯农排变】,生子地毯厂,保定盛科物业服务有限公司,潘西综合11台区,潘西农排13台区【纯农排变】,小南庄农排7台区【纯农排变】,潘东农排11台区【纯农排变】,潘西浇地15号,大南庄综合3台区,潘东农排5台区【纯农排变】,潘东综合10台区,小南庄综合2台区,潘西综合15台区,潘西综合1台区,小南庄农排5台区【纯农排变】,潘西占国,潘西综合9台区,潘西农排3台区【纯农排变】,大南庄农排3","scope":"【影响街道/乡镇】桑元镇、辛兴镇【高危重要客户】无【影响客户】潘营村（潘东）、潘西村、大南庄村、小南庄村、南宗村","startTime":"2019-06-30 17:54:11","stopDate":"2019-06-30 19:00:00","orgNo":"1340616","typeCode":"电网故障停限电","poweroffArea":"【全线路停电】停大南庄农排3台区【纯农排变】,潘西综合8台区,潘东农排9台区【纯农排变】,潘西农排8台区【纯农排变】,宏亚毛纺厂,潘西农排16台区【纯农排变】,潘东综合11台区,潘东农排12台区【纯农排变】,小南庄综合4台区,潘东综合7台区,潘西农排9台区【纯农排变】,保定盛科物业服务有限公司,大南庄农排2台区【纯农排变】,潘西农排13台区【纯农排变】,桑园潘营打井变压器,中捷运输公司,潘西综合14台区,潘东综合3台区,潘西浇地15号,潘东综合2台区,潘西新民居变压器,小南庄农排1台区【纯农排变】,变压器,潘东综合10台区,潘西综合9台区,小南庄农排3台区【纯农排变】,小南庄农排6台区【纯农排变】,蠡县潘东腾飞养殖场,潘西综合15台区,潘东农排3台区【纯农排变】,潘东综合9台区,大南庄农排1台区【纯农排变】,潘西农排12台区【纯农排变】,潘西综合5台区,小南庄综合2台区,大南庄农排4台区【纯农排变】,江海辉面粉厂,蠡县潘营占辉养殖场变压器,潘西综合12台区,小南庄综合1台区,潘东农排5台区【纯农排变】,小南庄综合5台区,大南庄综合2台区,小南庄农排7台区【纯农排变】,大南庄综合3台区,潘西农排7台区【纯农排变】,蠡县威远商贸有限公司变压器,潘东农排7台区【纯农排变】,大南庄综合5台区,大南庄综合4台区,潘东综合5台区,潘东农排13台区【纯农排变】,潘东农排8台区【纯农排变】,潘东综合4台区,小南庄农排2台区【纯农排变】,潘东综合6台区,潘西综合2台区,蠡县腾宇物业服务有限公司变压器,潘西综合11台区,潘西综合7台区,潘西综合3台区,潘西综合6台区,潘东综合1台区,潘西农排6台区【纯农排变】,潘西农排11台区【纯农排变】,小南庄农排4台区【纯农排变】,大南庄农排6台区【纯农排变】,潘东农排10台区【纯农排变】,潘东面粉厂,潘西综合4台区,潘西占国,潘东农排6台区【纯农排变】,潘西农排3台区【纯农排变】,造纸厂,潘东农排15台区【纯农排变】,潘西农排1台区【纯农排变】,潘西大军,潘西综合13台区,小南庄综合3台区,汽站,生子地毯厂,0587126764-蠡县辛兴纺织城综合开发有限公司-专变-125203150-蠡县辛兴纺织城综合开发有限公司变压器,潘东农排1台区【纯农排变】,潘东农排2台区【纯农排变】,潘东综合8台区,大南庄农排5台区【纯农排变】,潘西综合10台区,潘西农排5台区【纯农排变】,潘西综合1台区,潘西农排4台区【纯农排变】,潘西农排14台区【纯农排变】,潘东农排4台区【纯农排变】,小南庄农排5台区【纯农排变】,潘西农排2台区【纯农排变】,潘西农排10台区【纯农排变】,潘东农排14台区【纯农排变】,潘东农排11台区【纯农排变】,大南庄综合1台区","poweroffReason":"【停电原因】由于站内开关掉闸导致１１０ＫＶ辛兴变电站１０ＫＶ潘营５１８线路全线停电【变更送电】因抢修进度加快原因，送电时间由２３：００变更为１９：００【发布渠道】通过９５５９８发布","powerTime":"2019-06-30 18:41:49","powerComm":"已送电","subsNo":"","lineNo":"","tgNo":"","tgName":null,"infoStatus":"1","orgName":"国网蠡县供电公司","typeName":null,"infoStatusName":null,"dateDay":null,"orgNos":null,"nowTime":null,"countyName":null,"streetName":null,"villageName":null,"roadName":null,"communityName":null,"tranName":null,"sdLineName":null,"cityCode":"1340616","cityName":"国网蠡县供电公司","provinceCode":null,"stopTime":"2019-06-30 19:00:00","powerType":"全部","powerOffArea":"【全线路停电】停大南庄农排3台区【纯农排变】,潘西综合8台区,潘东农排9台区【纯农排变】,潘西农排8台区【纯农排变】,宏亚毛纺厂,潘西农排16台区【纯农排变】,潘东综合11台区,潘东农排12台区【纯农排变】,小南庄综合4台区,潘东综合7台区,潘西农排9台区【纯农排变】,保定盛科物业服务有限公司,大南庄农排2台区【纯农排变】,潘西农排13台区【纯农排变】,桑园潘营打井变压器,中捷运输公司,潘西综合14台区,潘东综合3台区,潘西浇地15号,潘东综合2台区,潘西新民居变压器,小南庄农排1台区【纯农排变】,变压器,潘东综合10台区,潘西综合9台区,小南庄农排3台区【纯农排变】,小南庄农排6台区【纯农排变】,蠡县潘东腾飞养殖场,潘西综合15台区,潘东农排3台区【纯农排变】,潘东综合9台区,大南庄农排1台区【纯农排变】,潘西农排12台区【纯农排变】,潘西综合5台区,小南庄综合2台区,大南庄农排4台区【纯农排变】,江海辉面粉厂,蠡县潘营占辉养殖场变压器,潘西综合12台区,小南庄综合1台区,潘东农排5台区【纯农排变】,小南庄综合5台区,大南庄综合2台区,小南庄农排7台区【纯农排变】,大南庄综合3台区,潘西农排7台区【纯农排变】,蠡县威远商贸有限公司变压器,潘东农排7台区【纯农排变】,大南庄综合5台区,大南庄综合4台区,潘东综合5台区,潘东农排13台区【纯农排变】,潘东农排8台区【纯农排变】,潘东综合4台区,小南庄农排2台区【纯农排变】,潘东综合6台区,潘西综合2台区,蠡县腾宇物业服务有限公司变压器,潘西综合11台区,潘西综合7台区,潘西综合3台区,潘西综合6台区,潘东综合1台区,潘西农排6台区【纯农排变】,潘西农排11台区【纯农排变】,小南庄农排4台区【纯农排变】,大南庄农排6台区【纯农排变】,潘东农排10台区【纯农排变】,潘东面粉厂,潘西综合4台区,潘西占国,潘东农排6台区【纯农排变】,潘西农排3台区【纯农排变】,造纸厂,潘东农排15台区【纯农排变】,潘西农排1台区【纯农排变】,潘西大军,潘西综合13台区,小南庄综合3台区,汽站,生子地毯厂,0587126764-蠡县辛兴纺织城综合开发有限公司-专变-125203150-蠡县辛兴纺织城综合开发有限公司变压器,潘东农排1台区【纯农排变】,潘东农排2台区【纯农排变】,潘东综合8台区,大南庄农排5台区【纯农排变】,潘西综合10台区,潘西农排5台区【纯农排变】,潘西综合1台区,潘西农排4台区【纯农排变】,潘西农排14台区【纯农排变】,潘东农排4台区【纯农排变】,小南庄农排5台区【纯农排变】,潘西农排2台区【纯农排变】,潘西农排10台区【纯农排变】,潘东农排14台区【纯农排变】,潘东农排11台区【纯农排变】,大南庄综合1台区","powerOffReason":"【停电原因】由于站内开关掉闸导致１１０ＫＶ辛兴变电站１０ＫＶ潘营５１８线路全线停电【变更送电】因抢修进度加快原因，送电时间由２３：００变更为１９：００【发布渠道】通过９５５９８发布","powerOffId":"2019063013000299"},{"poweroffId":2019063013000293,"sgpoweroffId":null,"subsName":"","lineName":"10KV茨村534","pubTranName":"塔照4935,","scope":"【影响街道/乡镇】刁窝乡 【高危重要客户】无 【影响客户】塔照村","startTime":"2019-06-30 17:50:59","stopDate":"2019-06-30 19:10:00","orgNo":"1340626","typeCode":"电网故障停限电","poweroffArea":"【单台区停电】停塔照4935","poweroffReason":"【停电原因】由于低压电缆烧毁导致１１０ＫＶ刁窝变电站１０ＫＶ茨村５３４线路塔照４９３５公变台区停电 【变更送电】因抢修进度加快原因，送电时间由２３：００变更为１９：１０ 【发布渠道】通过９５５９８发布","powerTime":"2019-06-30 18:41:17","powerComm":"恢复送电","subsNo":"","lineNo":"","tgNo":"","tgName":null,"infoStatus":"1","orgName":"国网涿州市供电公司","typeName":null,"infoStatusName":null,"dateDay":null,"orgNos":null,"nowTime":null,"countyName":null,"streetName":null,"villageName":null,"roadName":null,"communityName":null,"tranName":null,"sdLineName":null,"cityCode":"1340626","cityName":"国网涿州市供电公司","provinceCode":null,"stopTime":"2019-06-30 19:10:00","powerType":"全部","powerOffArea":"【单台区停电】停塔照4935","powerOffReason":"【停电原因】由于低压电缆烧毁导致１１０ＫＶ刁窝变电站１０ＫＶ茨村５３４线路塔照４９３５公变台区停电 【变更送电】因抢修进度加快原因，送电时间由２３：００变更为１９：１０ 【发布渠道】通过９５５９８发布","powerOffId":"2019063013000293"},{"poweroffId":2019063013000279,"sgpoweroffId":null,"subsName":"","lineName":"10kV540南定线路","pubTranName":"小岗头村西,","scope":"【影响街道/乡镇】义和庄乡 【高危重要客户】无 【影响客户】小岗头村","startTime":"2019-06-30 17:35:36","stopDate":"2019-06-30 18:50:00","orgNo":"1340626","typeCode":"电网故障停限电","poweroffArea":"【单台区停电】停小岗头村西","poweroffReason":"【停电原因】由于低压空开烧毁导致１１０ＫＶ刁窝变电站１０ＫＶ５４０南定线路小岗头村西公变台区停电 【变更送电】因抢修进度加快原因，送电时间由０７月０１日０８：３０变更为０６月３０日１８：５０ 【发布渠道】通过９５５９８发布","powerTime":"2019-06-30 18:15:15","powerComm":"恢复送电","subsNo":"","lineNo":"","tgNo":"","tgName":null,"infoStatus":"1","orgName":"国网涿州市供电公司","typeName":null,"infoStatusName":null,"dateDay":null,"orgNos":null,"nowTime":null,"countyName":null,"streetName":null,"villageName":null,"roadName":null,"communityName":null,"tranName":null,"sdLineName":null,"cityCode":"1340626","cityName":"国网涿州市供电公司","provinceCode":null,"stopTime":"2019-06-30 18:50:00","powerType":"全部","powerOffArea":"【单台区停电】停小岗头村西","powerOffReason":"【停电原因】由于低压空开烧毁导致１１０ＫＶ刁窝变电站１０ＫＶ５４０南定线路小岗头村西公变台区停电 【变更送电】因抢修进度加快原因，送电时间由０７月０１日０８：３０变更为０６月３０日１８：５０ 【发布渠道】通过９５５９８发布","powerOffId":"2019063013000279"},{"poweroffId":2019063013000267,"sgpoweroffId":null,"subsName":"","lineName":"李庄线517","pubTranName":"李家庄光7【2018年技改】,一间房混1,姚村排12【纯农排变】,李家庄光1,一间房光2变压器,姚村混13,贤寓养殖小区排【纯农排变】,0469302152-河北省高速公路禄发实业总公司定兴西服务区-专变-126191223-张石高速服务区500,国网河北电动汽车充电桩变压器4配电变压器,0011677058李家庄排4,0011677000李家庄排5,0011677012李家庄排2,0011676996李家庄排3,龙华排9【纯农排变】,国网河北电动汽车充电桩变压器配电变压器,一间房光1,1号台区,李家庄排12【纯农排变】,0011677019李家庄排6,龙华大棚排7【纯农排变】,龙华排7【纯农排变】,龙华排10【纯农排变】,0011676998李家庄排1,李家庄光4,0011677035贤寓排9,0011676995*张石高速服务区,李家庄光3,李家庄光2,李家庄排13【纯农排变】,铭赫建材-200,李家庄光5,龙华排8【纯农排变】,李家庄光6,铭赫建材-800,0011676999贤寓排4,","scope":"【影响街道/乡镇】贤寓镇 【高危重要客户】无 【影响客户】龙华部分用户、李家庄、贤寓部分用户、一间房部分用户、姚村部分用户、铭赫建材、张石高速服务区","startTime":"2019-06-30 16:28:40","stopDate":"2019-06-30 19:00:00","orgNo":"1340609","typeCode":"电网故障停限电","poweroffArea":"【全线路停电】停龙华排9【纯农排变】,国网河北电动汽车充电桩变压器配电变压器,一间房光1,1号台区,0011676995*张石高速服务区,李家庄光3,李家庄光2,李家庄排13【纯农排变】,铭赫建材-200,李家庄光5,龙华排8【纯农排变】,李家庄光6,铭赫建材-800,0011676999贤寓排4,李家庄光4,李家庄排12【纯农排变】,0011677019李家庄排6,龙华大棚排7【纯农排变】,龙华排7【纯农排变】,龙华排10【纯农排变】,0011676998李家庄排1,0011677035贤寓排9,李家庄光7【2018年技改】,一间房混1,姚村排12【纯农排变】,李家庄光1,一间房光2变压器,姚村混13,贤寓养殖小区排【纯农排变】,0469302152-河北省高速公路禄发实业总公司定兴西服务区-专变-126191223-张石高速服务区500,国网河北电动汽车充电桩变压器4配电变压器,0011677058李家庄排4,0011677000李家庄排5,0011677012李家庄排2,0011676996李家庄排3","poweroffReason":"【停电原因】由于李郁庄光１配变Ａ相高压套管飘落异物导致３５ＫＶ贤寓变电站李庄线５１７线路全线停电 【变更送电】因抢修进度加快原因，送电时间由２０：００变更为１９：００ 【发布渠道】通过９５５９８发布","powerTime":"2019-06-30 18:03:04","powerComm":"已送电","subsNo":"","lineNo":"","tgNo":"","tgName":null,"infoStatus":"1","orgName":"国网定兴县供电公司","typeName":null,"infoStatusName":null,"dateDay":null,"orgNos":null,"nowTime":null,"countyName":null,"streetName":null,"villageName":null,"roadName":null,"communityName":null,"tranName":null,"sdLineName":null,"cityCode":"1340609","cityName":"国网定兴县供电公司","provinceCode":null,"stopTime":"2019-06-30 19:00:00","powerType":"全部","powerOffArea":"【全线路停电】停龙华排9【纯农排变】,国网河北电动汽车充电桩变压器配电变压器,一间房光1,1号台区,0011676995*张石高速服务区,李家庄光3,李家庄光2,李家庄排13【纯农排变】,铭赫建材-200,李家庄光5,龙华排8【纯农排变】,李家庄光6,铭赫建材-800,0011676999贤寓排4,李家庄光4,李家庄排12【纯农排变】,0011677019李家庄排6,龙华大棚排7【纯农排变】,龙华排7【纯农排变】,龙华排10【纯农排变】,0011676998李家庄排1,0011677035贤寓排9,李家庄光7【2018年技改】,一间房混1,姚村排12【纯农排变】,李家庄光1,一间房光2变压器,姚村混13,贤寓养殖小区排【纯农排变】,0469302152-河北省高速公路禄发实业总公司定兴西服务区-专变-126191223-张石高速服务区500,国网河北电动汽车充电桩变压器4配电变压器,0011677058李家庄排4,0011677000李家庄排5,0011677012李家庄排2,0011676996李家庄排3","powerOffReason":"【停电原因】由于李郁庄光１配变Ａ相高压套管飘落异物导致３５ＫＶ贤寓变电站李庄线５１７线路全线停电 【变更送电】因抢修进度加快原因，送电时间由２０：００变更为１９：００ 【发布渠道】通过９５５９８发布","powerOffId":"2019063013000267"},{"poweroffId":2019063013000230,"sgpoweroffId":null,"subsName":"","lineName":"10kV段村513线","pubTranName":"北段村综合5号变压器,北段综合7号,","scope":"【影响街道/乡镇】段村乡 【高危重要客户】无 【影响客户】北段村、南段村、边三庄村、马庄村、翟营村","startTime":"2019-06-30 14:55:16","stopDate":"2019-06-30 18:00:19","orgNo":"1340606","typeCode":"电网故障停限电","poweroffArea":"【全线路停电】停北段村综合5号变压器,北段综合7号","poweroffReason":"【停电原因】由于站内开关跳闸导致３５ＫＶ边三庄变电站１０ＫＶ段村５１３线路全线停电 【变更送电】因抢修进度加快原因，送电时间由２０：３０变更为１８：００ 【发布渠道】通过９５５９８发布","powerTime":"2019-06-30 17:44:38","powerComm":"已送电","subsNo":"","lineNo":"","tgNo":"","tgName":null,"infoStatus":"1","orgName":"国网安国市供电公司","typeName":null,"infoStatusName":null,"dateDay":null,"orgNos":null,"nowTime":null,"countyName":null,"streetName":null,"villageName":null,"roadName":null,"communityName":null,"tranName":null,"sdLineName":null,"cityCode":"1340606","cityName":"国网安国市供电公司","provinceCode":null,"stopTime":"2019-06-30 18:00:19","powerType":"全部","powerOffArea":"【全线路停电】停北段村综合5号变压器,北段综合7号","powerOffReason":"【停电原因】由于站内开关跳闸导致３５ＫＶ边三庄变电站１０ＫＶ段村５１３线路全线停电 【变更送电】因抢修进度加快原因，送电时间由２０：３０变更为１８：００ 【发布渠道】通过９５５９８发布","powerOffId":"2019063013000230"},{"poweroffId":2019063013000229,"sgpoweroffId":null,"subsName":"","lineName":"10kV张六庄线516","pubTranName":"张六庄小高西台变压器,张六庄孙脉庄西变压器,张六庄小高北台变压器,张六庄毛公寺北台变压器,张六庄毛寺2号地变压器【纯农排变】,高碑店市张六庄乡总校,张六庄孙脉庄新架变压器,联通公司1,毛公寺面粉厂,张六庄雷子街新架北变压器,张六庄雷子街西南变压器,张六庄尚庄变压器,张六庄毛公寺南台变压器,保定金航电气制造有限公司变压器,张六庄张六庄1号地变压器【纯农排变】,张六庄自来水厂,高碑店市地园养猪场,蔺庄新西台柱上变压器,保定夺冠电子商务有限公司,高碑店市鑫宏达农业机械有限公司,张六庄孙脉庄南台变压器,高碑店市张六庄书军水泥制品厂,张六庄李云台南地2变压器【纯农排变】,张六庄李云台南地变压器【纯农排变】,张六庄尚庄东地变压器【纯农排变】,毛公寺中台2变压器,张六庄毛公寺新架西台变压器,张六庄雷子街西地2变压器【纯农排变】,张六庄雷子街南台变压器,高碑店市同兴农林畜牧有限公司变压器,张六庄张六庄北台变压器,张六庄李云台西台变压器,高碑店市孙脉庄东地变压器,高碑店市运通加油站变压器,张六庄永安庄西台变压器,高碑店市张六庄乡毛公寺中心小学,张六庄张六庄3号地变压器【纯农排变】,张六庄雷子街新架变压器,张六庄张六庄南台变压器,宏达农具厂,毛公寺南2变压器,高碑店市张六庄珍奇香饭店,张六庄蔺庄村变压器,张六庄孙麦庄新架变压器,张六庄永安庄地变压器【纯农排变】,张六庄毛寺5号地变压器【纯农排变】,张六庄雷子街东南地变压器【纯农排变】,张六庄小高南地变压器【纯农排变】,张六庄混雷子街变压器,光明金属制品厂,孙麦庄面粉厂,张六庄孙脉庄东台变压器,张六庄毛寺6号地变压器【纯农排变】,张六庄毛寺3号地变压器【纯农排变】,张六庄孙脉庄西地变压器【纯农排变】,张六庄蔺庄北地变压器【纯农排变】,张六庄毛寺7号地变压器【纯农排变】,高碑店市张六庄乡张六庄小学变压器,张六庄尚庄北台变压器,张六庄雷子街东南台变压器,张六庄小高西2变压器,毛公寺北2变压器,张六庄毛寺8号地变压器【纯农排变】,张六庄雷子街西地变压器【纯农排变】,张六庄小高新架南地2变压器【纯农排变】,高碑店市张六庄中学,张六庄张六庄西台新架变压器,张六庄毛寺4号地变压器【纯农排变】,高碑店市张六庄建华粮食收购部,张六庄小高南台变压器,张六庄毛公寺东新架变压器,高碑店市同兴农林畜牧有限公司（孙脉庄农场）变压器,毛公寺西农场变压器,张六庄孙脉庄新西地变压器【纯农排变】,张六庄张六庄2号地变压器【纯农排变】,乡政府,高碑店市张六庄乡李云台完全小学变压器,张六庄何家垡变压器,张六庄蔺庄西地变压器【纯农排变】,张六庄孙麦庄南地排灌变压器【纯农排变】,张六庄张六庄东地变压器【纯农排变】,河北天塞商贸有限公司,保定市鑫兴旺泵业有限公司变压器,张六庄毛公寺1号地变压器【纯农排变】,张六庄尚庄南地变压器【纯农排变】,李云台村南台变压器,高碑店市张六庄总校小高科庄小学变压器,张六庄尚庄新架变压器【纯农排变】,张六庄雷子街东变压器,","scope":"【影响街道/乡镇】张六庄镇 【高危重要客户】地园养殖场、孙麦庄面粉厂、保定金航电器制造有限公司 【影响客户】雷子街村、毛公寺村、小高村、蔺庄村、尚庄村、乡政府、新兴水泵厂、毛公寺面粉厂、宏大农具厂、联通公司、魏宝兴、张六庄水厂、运通加油站、李云台小学、张六庄中学、永安庄村（部分）、李云台村（部分）、张六庄村、孙麦庄村、何家垡村","startTime":"2019-06-30 14:57:14","stopDate":"2019-06-30 17:00:00","orgNo":"1340612","typeCode":"电网故障停限电","poweroffArea":"【全线路停电】停张六庄孙麦庄南地排灌变压器【纯农排变】,张六庄张六庄东地变压器【纯农排变】,河北天塞商贸有限公司,保定市鑫兴旺泵业有限公司变压器,张六庄毛公寺1号地变压器【纯农排变】,张六庄小高南地变压器【纯农排变】,张六庄混雷子街变压器,光明金属制品厂,高碑店市张六庄乡毛公寺中心小学,张六庄张六庄3号地变压器【纯农排变】,张六庄雷子街新架变压器,毛公寺北2变压器,高碑店市张六庄建华粮食收购部,张六庄小高南台变压器,张六庄毛公寺东新架变压器,张六庄毛寺5号地变压器【纯农排变】,张六庄雷子街东南地变压器【纯农排变】,乡政府,高碑店市张六庄乡李云台完全小学变压器,张六庄何家垡变压器,孙麦庄面粉厂,张六庄孙脉庄东台变压器,张六庄小高西2变压器,张六庄毛寺4号地变压器【纯农排变】,李云台村南台变压器,高碑店市张六庄总校小高科庄小学变压器,张六庄尚庄新架变压器【纯农排变】,张六庄雷子街东变压器,张六庄孙脉庄西地变压器【纯农排变】,张六庄蔺庄北地变压器【纯农排变】,张六庄毛寺7号地变压器【纯农排变】,高碑店市张六庄乡张六庄小学变压器,张六庄尚庄北台变压器,张六庄雷子街东南台变压器,张六庄蔺庄西地变压器【纯农排变】,张六庄毛公寺北台变压器,张六庄尚庄南地变压器【纯农排变】,张六庄小高西台变压器,张六庄孙脉庄西变压器,张六庄小高北台变压器,张六庄毛寺2号地变压器【纯农排变】,高碑店市张六庄乡总校,张六庄孙脉庄新架变压器,联通公司1,张六庄尚庄变压器,保定金航电气制造有限公司变压器,张六庄毛公寺南台变压器,张六庄张六庄1号地变压器【纯农排变】,张六庄自来水厂,高碑店市地园养猪场,蔺庄新西台柱上变压器,保定夺冠电子商务有限公司,张六庄小高新架南地2变压器【纯农排变】,高碑店市张六庄中学,张六庄张六庄西台新架变压器,张六庄雷子街西地2变压器【纯农排变】,高碑店市鑫宏达农业机械有限公司,张六庄孙脉庄南台变压器,高碑店市张六庄书军水泥制品厂,张六庄李云台南地2变压器【纯农排变】,张六庄李云台南地变压器【纯农排变】,张六庄尚庄东地变压器【纯农排变】,毛公寺中台2变压器,张六庄毛公寺新架西台变压器,张六庄雷子街南台变压器,高碑店市同兴农林畜牧有限公司变压器,张六庄张六庄北台变压器,张六庄李云台西台变压器,高碑店市孙脉庄东地变压器,高碑店市运通加油站变压器,张六庄永安庄西台变压器,毛公寺面粉厂,张六庄雷子街新架北变压器,张六庄雷子街西南变压器,张六庄张六庄南台变压器,宏达农具厂,毛公寺南2变压器,高碑店市张六庄珍奇香饭店,张六庄蔺庄村变压器,张六庄孙麦庄新架变压器,张六庄永安庄地变压器【纯农排变】,高碑店市同兴农林畜牧有限公司（孙脉庄农场）变压器,毛公寺西农场变压器,张六庄孙脉庄新西地变压器【纯农排变】,张六庄张六庄2号地变压器【纯农排变】,张六庄毛寺6号地变压器【纯农排变】,张六庄毛寺3号地变压器【纯农排变】,张六庄毛寺8号地变压器【纯农排变】,张六庄雷子街西地变压器【纯农排变】","poweroffReason":"【停电原因】由于主干开关跳闸导致３５ＫＶ久安变电站１０ＫＶ张六庄５１６线路全线停电 【变更送电】因抢修进度加快原因，送电时间由２０：００变更为１７：００ 【发布渠道】通过９５５９８发布","powerTime":"2019-06-30 16:30:45","powerComm":"已送电","subsNo":"","lineNo":"","tgNo":"","tgName":null,"infoStatus":"1","orgName":"国网高碑店市供电公司","typeName":null,"infoStatusName":null,"dateDay":null,"orgNos":null,"nowTime":null,"countyName":null,"streetName":null,"villageName":null,"roadName":null,"communityName":null,"tranName":null,"sdLineName":null,"cityCode":"1340612","cityName":"国网高碑店市供电公司","provinceCode":null,"stopTime":"2019-06-30 17:00:00","powerType":"全部","powerOffArea":"【全线路停电】停张六庄孙麦庄南地排灌变压器【纯农排变】,张六庄张六庄东地变压器【纯农排变】,河北天塞商贸有限公司,保定市鑫兴旺泵业有限公司变压器,张六庄毛公寺1号地变压器【纯农排变】,张六庄小高南地变压器【纯农排变】,张六庄混雷子街变压器,光明金属制品厂,高碑店市张六庄乡毛公寺中心小学,张六庄张六庄3号地变压器【纯农排变】,张六庄雷子街新架变压器,毛公寺北2变压器,高碑店市张六庄建华粮食收购部,张六庄小高南台变压器,张六庄毛公寺东新架变压器,张六庄毛寺5号地变压器【纯农排变】,张六庄雷子街东南地变压器【纯农排变】,乡政府,高碑店市张六庄乡李云台完全小学变压器,张六庄何家垡变压器,孙麦庄面粉厂,张六庄孙脉庄东台变压器,张六庄小高西2变压器,张六庄毛寺4号地变压器【纯农排变】,李云台村南台变压器,高碑店市张六庄总校小高科庄小学变压器,张六庄尚庄新架变压器【纯农排变】,张六庄雷子街东变压器,张六庄孙脉庄西地变压器【纯农排变】,张六庄蔺庄北地变压器【纯农排变】,张六庄毛寺7号地变压器【纯农排变】,高碑店市张六庄乡张六庄小学变压器,张六庄尚庄北台变压器,张六庄雷子街东南台变压器,张六庄蔺庄西地变压器【纯农排变】,张六庄毛公寺北台变压器,张六庄尚庄南地变压器【纯农排变】,张六庄小高西台变压器,张六庄孙脉庄西变压器,张六庄小高北台变压器,张六庄毛寺2号地变压器【纯农排变】,高碑店市张六庄乡总校,张六庄孙脉庄新架变压器,联通公司1,张六庄尚庄变压器,保定金航电气制造有限公司变压器,张六庄毛公寺南台变压器,张六庄张六庄1号地变压器【纯农排变】,张六庄自来水厂,高碑店市地园养猪场,蔺庄新西台柱上变压器,保定夺冠电子商务有限公司,张六庄小高新架南地2变压器【纯农排变】,高碑店市张六庄中学,张六庄张六庄西台新架变压器,张六庄雷子街西地2变压器【纯农排变】,高碑店市鑫宏达农业机械有限公司,张六庄孙脉庄南台变压器,高碑店市张六庄书军水泥制品厂,张六庄李云台南地2变压器【纯农排变】,张六庄李云台南地变压器【纯农排变】,张六庄尚庄东地变压器【纯农排变】,毛公寺中台2变压器,张六庄毛公寺新架西台变压器,张六庄雷子街南台变压器,高碑店市同兴农林畜牧有限公司变压器,张六庄张六庄北台变压器,张六庄李云台西台变压器,高碑店市孙脉庄东地变压器,高碑店市运通加油站变压器,张六庄永安庄西台变压器,毛公寺面粉厂,张六庄雷子街新架北变压器,张六庄雷子街西南变压器,张六庄张六庄南台变压器,宏达农具厂,毛公寺南2变压器,高碑店市张六庄珍奇香饭店,张六庄蔺庄村变压器,张六庄孙麦庄新架变压器,张六庄永安庄地变压器【纯农排变】,高碑店市同兴农林畜牧有限公司（孙脉庄农场）变压器,毛公寺西农场变压器,张六庄孙脉庄新西地变压器【纯农排变】,张六庄张六庄2号地变压器【纯农排变】,张六庄毛寺6号地变压器【纯农排变】,张六庄毛寺3号地变压器【纯农排变】,张六庄毛寺8号地变压器【纯农排变】,张六庄雷子街西地变压器【纯农排变】","powerOffReason":"【停电原因】由于主干开关跳闸导致３５ＫＶ久安变电站１０ＫＶ张六庄５１６线路全线停电 【变更送电】因抢修进度加快原因，送电时间由２０：００变更为１７：００ 【发布渠道】通过９５５９８发布","powerOffId":"2019063013000229"},{"poweroffId":2019063013000227,"sgpoweroffId":null,"subsName":"","lineName":"10kV瓦子里512线","pubTranName":"瓦子里农业2号变压器,瓦子里农业8号,瓦子里农业3号变压器【纯农排变】,","scope":"【影响街道/乡镇】段村乡 【高危重要客户】无 【影响客户】瓦子里村、中照村","startTime":"2019-06-30 14:53:23","stopDate":"2019-06-30 18:00:25","orgNo":"1340606","typeCode":"电网故障停限电","poweroffArea":"【全线路停电】停瓦子里农业8号,瓦子里农业2号变压器,瓦子里农业3号变压器【纯农排变】","poweroffReason":"【停电原因】由于站内开关跳闸导致３５ＫＶ边三庄变电站１０ＫＶ瓦子里５１２线路全线停电 【变更送电】因抢修进度加快原因，送电时间由２０：３０变更为１８：００ 【发布渠道】通过９５５９８发布","powerTime":"2019-06-30 17:46:27","powerComm":"已送电","subsNo":"","lineNo":"","tgNo":"","tgName":null,"infoStatus":"1","orgName":"国网安国市供电公司","typeName":null,"infoStatusName":null,"dateDay":null,"orgNos":null,"nowTime":null,"countyName":null,"streetName":null,"villageName":null,"roadName":null,"communityName":null,"tranName":null,"sdLineName":null,"cityCode":"1340606","cityName":"国网安国市供电公司","provinceCode":null,"stopTime":"2019-06-30 18:00:25","powerType":"全部","powerOffArea":"【全线路停电】停瓦子里农业8号,瓦子里农业2号变压器,瓦子里农业3号变压器【纯农排变】","powerOffReason":"【停电原因】由于站内开关跳闸导致３５ＫＶ边三庄变电站１０ＫＶ瓦子里５１２线路全线停电 【变更送电】因抢修进度加快原因，送电时间由２０：３０变更为１８：００ 【发布渠道】通过９５５９８发布","powerOffId":"2019063013000227"}],"pageModel":{"pageNow":884,"totalCount":10973,"totalPage":1098,"tableRows":0,"pageCount":10,"beginCount":8830},"isExperi":"1"}