{"message":"","today":"2020-06-15","seleList":[{"poweroffId":2019063013000091,"sgpoweroffId":null,"subsName":"","lineName":"10kV开发区线544","pubTranName":"张段庄村南（开发区所）,","scope":"【影响街道/乡镇】徐里营城区 【高危重要客户】无 【影响客户】张段庄村","startTime":"2019-07-02 04:00:00","stopDate":"2019-07-02 14:00:00","orgNo":"1340626","typeCode":"临时停电","poweroffArea":"【单台区停电】停张段庄村南（开发区所）","poweroffReason":"【停电原因】由于更换导线工程导致１１０ＫＶ新业变电站１０ＫＶ开发区线５４４线路张段庄村南（开发区所）公变台区停电 【变更送电】无 【发布渠道】通过９５５９８发布","powerTime":"2019-07-02 13:45:27","powerComm":"恢复送电","subsNo":"","lineNo":"","tgNo":"","tgName":null,"infoStatus":"1","orgName":"国网涿州市供电公司","typeName":null,"infoStatusName":null,"dateDay":null,"orgNos":null,"nowTime":null,"countyName":null,"streetName":null,"villageName":null,"roadName":null,"communityName":null,"tranName":null,"sdLineName":null,"cityCode":"1340626","cityName":"国网涿州市供电公司","provinceCode":null,"stopTime":"2019-07-02 14:00:00","powerType":"全部","powerOffArea":"【单台区停电】停张段庄村南（开发区所）","powerOffReason":"【停电原因】由于更换导线工程导致１１０ＫＶ新业变电站１０ＫＶ开发区线５４４线路张段庄村南（开发区所）公变台区停电 【变更送电】无 【发布渠道】通过９５５９８发布","powerOffId":"2019063013000091"},{"poweroffId":2019063013000082,"sgpoweroffId":null,"subsName":"","lineName":"10KV南三店555","pubTranName":"酱各庄村南,","scope":"【影响街道/乡镇】高官庄镇 【高危重要客户】无 【影响客户】酱各庄村","startTime":"2019-07-10 08:00:00","stopDate":"2019-07-10 18:00:00","orgNo":"1340626","typeCode":"计划停电","poweroffArea":"【单台区停电】停酱各庄村南","poweroffReason":"【停电原因】由于导线架设工程导致１１０ＫＶ松林店变电站１０ＫＶ南三店５５５线路酱各庄村南公变台区停电 【变更送电】无 【发布渠道】涿州电视台（０６月３０日至０７月０９日２１：００播放２次）屏幕上方滚动","powerTime":"2019-07-10 17:40:14","powerComm":"恢复送电","subsNo":"","lineNo":"","tgNo":"","tgName":null,"infoStatus":"1","orgName":"国网涿州市供电公司","typeName":null,"infoStatusName":null,"dateDay":null,"orgNos":null,"nowTime":null,"countyName":null,"streetName":null,"villageName":null,"roadName":null,"communityName":null,"tranName":null,"sdLineName":null,"cityCode":"1340626","cityName":"国网涿州市供电公司","provinceCode":null,"stopTime":"2019-07-10 18:00:00","powerType":"全部","powerOffArea":"【单台区停电】停酱各庄村南","powerOffReason":"【停电原因】由于导线架设工程导致１１０ＫＶ松林店变电站１０ＫＶ南三店５５５线路酱各庄村南公变台区停电 【变更送电】无 【发布渠道】涿州电视台（０６月３０日至０７月０９日２１：００播放２次）屏幕上方滚动","powerOffId":"2019063013000082"},{"poweroffId":2019063013000080,"sgpoweroffId":null,"subsName":"","lineName":"10kV泗庄线515","pubTranName":"0547125828-冯吉英-专变-47971088-呈祥泰塑胶厂2变压器,0387439572-王军-专变-45276331-通盛3,十三里东南变压器,郭街地变压器【纯农排变】,十里铺村变压器,郭街东南,泗庄镇政府,南大街地变压器【纯农排变】,十里铺乡直变压器,高碑店市泗庄超童箱包配件加工厂,田庄东变压器,高碑店市白沟机动车驾驶员培训学校,高庄村内变压器,南大街东南变压器,十三里西变压器,东大街南变压器,东大街东南地变压器【纯农排变】,泗庄十里铺南变压器,李伯峰,加油站,宋辛东变压器,高碑店市同兴农林畜牧有限公司,宋辛北公变变压器,泗庄十里铺东台柱上变压器,泗庄市场变压器,半边街2号地变压器,南大街东南2变压器,十三里西地变压器【纯农排变】,高碑店市顺和成化纤制品有限公司变压器,孙建华西南,十里铺南2变压器,宋辛南二变压器,高碑店市双兴粮油商贸有限公司变压器,农场,0664708104-河北恒祥塑胶有限公司-专变-201042005-河北恒祥塑胶有限公司变压器,高碑店市泗庄镇东大街小学,田庄东北变压器,庞场北变压器,高碑店市呈泰塑胶制品有限公司2#变压器,半边街北变压器,庞场南变压器,猪场,半边街西变压器,0547124795-高碑店市呈泰塑胶制品有限公司一-专变-47968751-呈祥泰塑胶厂1变压器,半边街变压器,汇通路桥建设中心,0602244635-高碑店市白沟永发五金门市部-专变-126842496-高碑店市顺和成化纤制品有限公司变压器,田庄东南地变压器【纯农排变】,田庄西变压器,郭建民,宋辛南公变2,北留西排灌变压器【纯农排变】,东大街南地变压器,宋辛西地变压器【纯农排变】,东大街北二,庞场1号地变压器,东大街煤厂,泗庄田庄北变压器,东大街北变压器,半边街南变压器,庞场市场变压器,东大街西,保定白沟新城和源加油站变压器,东大街西南地变压器【纯农排变】,张宝来变压器,宋辛西南变压器,东大街东变压器,北留南变压器,田庄西北2柱上变压器,高碑店市呈泰塑胶制品有限公司,半边街西南变压器,高碑店市呈泰塑胶制品有限公司变压器,北留西变压器,十三里东1变压器,高庄地变压器【纯农排变】,宋辛东南地变压器【纯农排变】,客户投资_庞场东台柱上变压器,庞场3号地变压器【纯农排变】,0387440475-高碑店市宋辛村恒业拉头拉链门市部-专变-125746930-恒业压铸厂变压器,庞场2号地变压器【纯农排变】,高碑店市泗庄镇东大街小学变压器,高庄西地变压器【纯农排变】,十三里西南地变压器,叶国振,0387440299-社办厂-专变-45277408-社办厂,半边街西地变压器,半边街地变压器【纯农排变】,十三里东变压器,六里街变压器,六里街地变压器,高碑店市泗庄镇织带辅料制品变压器,田庄西2柱上变压器,王义明变压器,东大街中变压器,纪建春,高庄南变压器,六里街南地变压器,郭街东变压器,北留西2变压器,田庄西北变压器,高碑店市泗庄镇织带辅料制品厂变压器,赵康萍,宋辛西变压器,王玉海,六里街变台,变压器,高碑店市泗庄镇田庄小学变压器,东大街地变压器【纯农排变】,十三里西北地变压器【纯农排变】,宋辛东南变压器,宋辛南公变变压器,田庄西三","scope":"【影响街道/乡镇】泗庄镇、东马营镇、东大街、南大街 【高危重要客户】无 【影响客户】北留村、庞场村、半边街村、郭街村、田庄村、高庄村、六里街村、宋辛村、十三里村、十里铺村、恒业拉头拉链门市部、孙建华、恒祥塑胶有限公司、双兴粮油商贸有限公司、东大街小学、田庄小学、新城河源加油站、呈泰塑胶有限公司、田庄富强人造革厂、保定中石油第四加油站、同兴农林畜牧有限公司、丹诺工业有限公司、汇通路桥、保定捷高五金制品有限公司、白沟驾校、顺和城化纤制品有限公司、冯吉英、泗庄政府、泗庄镇医院、泗庄镇邮局、泗庄镇织带辅料制品厂、网通公司、郭建民、金利达塑胶制品有限公司、博荣拉链厂、王玉海、保定酷奇贝微箱包制造有限公司、宋辛海绵纸厂、王义明、赵康萍","startTime":"2019-07-09 06:00:00","stopDate":"2019-07-09 19:00:00","orgNo":"1340612","typeCode":"计划停电","poweroffArea":"【全线路停电】停半边街西变压器,0547124795-高碑店市呈泰塑胶制品有限公司一-专变-47968751-呈祥泰塑胶厂1变压器,半边街变压器,汇通路桥建设中心,0602244635-高碑店市白沟永发五金门市部-专变-126842496-高碑店市顺和成化纤制品有限公司变压器,田庄东南地变压器【纯农排变】,田庄西变压器,郭建民,宋辛南公变2,北留西排灌变压器【纯农排变】,东大街南地变压器,宋辛西地变压器【纯农排变】,东大街北二,庞场1号地变压器,庞场市场变压器,东大街西,保定白沟新城和源加油站变压器,张宝来变压器,宋辛东南变压器,田庄西北2柱上变压器,高碑店市呈泰塑胶制品有限公司,王玉海,六里街变台,变压器,高碑店市泗庄镇田庄小学变压器,宋辛南二变压器,东大街地变压器【纯农排变】,十三里西北地变压器【纯农排变】,赵康萍,宋辛西变压器,高碑店市同兴农林畜牧有限公司,宋辛北公变变压器,泗庄十里铺东台柱上变压器,东大街东南地变压器【纯农排变】,孙建华,高碑店市泗庄超童箱包配件加工厂,宋辛南变压器,0547125828-冯吉英-专变-47971088-呈祥泰塑胶厂2变压器,南大街地变压器【纯农排变】,宋辛南公变变压器,高碑店市泗庄镇东大街小学变压器,田庄西三变压器,泗庄田庄东南台,庞场3号地变压器【纯农排变】,半边街西南变压器,高碑店市呈泰塑胶制品有限公司变压器,北留西变压器,十三里东1变压器,高庄地变压器【纯农排变】,宋辛东南地变压器【纯农排变】,客户投资_庞场东台柱上变压器,0387440475-高碑店市宋辛村恒业拉头拉链门市部-专变-125746930-恒业压铸厂变压器,0387439572-王军-专变-45276331-通盛3,十三里东南变压器,郭街地变压器【纯农排变】,十里铺村变压器,郭街东南,泗庄镇政府,高碑店市泗庄镇东大街小学,高庄南变压器,六里街南地变压器,郭街东变压器,田庄西北变压器,宋辛西南变压器,东大街东变压器,北留西2变压器,东大街西南地变压器【纯农排变】,泗庄市场变压器,半边街2号地变压器,南大街东南2变压器,十三里西地变压器【纯农排变】,高庄西地变压器【纯农排变】,十三里西南地变压器,叶国振,0387440299-社办厂-专变-45277408-社办厂,东大街中变压器,李伯峰,加油站,宋辛东变压器,高碑店市呈泰塑胶制品有限公司2#变压器,半边街北变压器,庞场南变压器,猪场,泗庄田庄北变压器,东大街北变压器,半边街南变压器,郭街西变压器,高碑店市泗庄镇田庄村富强人造革厂变压器,泗庄田庄西南地变压器【纯农排变】,南大街村变压器,纪建春,0664708104-河北恒祥塑胶有限公司-专变-201042005-河北恒祥塑胶有限公司变压器,庞场2号地变压器【纯农排变】,东大街煤厂,宋辛南排,北留南变压器,十里铺乡直变压器,田庄东变压器,高碑店市白沟机动车驾驶员培训学校,高庄村内变压器,南大街东南变压器,十三里西变压器,东大街南变压器,泗庄十里铺南变压器,半边街西地变压器,半边街地变压器【纯农排变】,十三里东变压器,六里街变压器,六里街地变压器,高碑店市泗庄镇织带辅料制品变压器,田庄西2柱上变压器,王义明变压器,高碑店市顺和成化纤制品有限公司变压器,孙建华西南,十里铺南2变压器,高碑店市双兴粮油商贸有限公司变压器,农场,田庄东北变压器,庞场北变压器,东大街6号变台,高碑店市泗庄中心卫生院变压器,高碑店市泗庄镇织带辅料制品厂变压器","poweroffReason":"【停电原因】由于计划检修导致３５ＫＶ泗庄变电站１０ＫＶ泗庄５１５线路全线停电 【变更送电】因工作量大原因，送电时间由１８：００变更为１９：００ 【发布渠道】高碑店市高碑店电视台（７月１日０８时至７月８日１８时之间）屏幕上方滚动","powerTime":"2019-07-09 18:35:20","powerComm":"已送电","subsNo":"","lineNo":"","tgNo":"","tgName":null,"infoStatus":"1","orgName":"国网高碑店市供电公司","typeName":null,"infoStatusName":null,"dateDay":null,"orgNos":null,"nowTime":null,"countyName":null,"streetName":null,"villageName":null,"roadName":null,"communityName":null,"tranName":null,"sdLineName":null,"cityCode":"1340612","cityName":"国网高碑店市供电公司","provinceCode":null,"stopTime":"2019-07-09 19:00:00","powerType":"全部","powerOffArea":"【全线路停电】停半边街西变压器,0547124795-高碑店市呈泰塑胶制品有限公司一-专变-47968751-呈祥泰塑胶厂1变压器,半边街变压器,汇通路桥建设中心,0602244635-高碑店市白沟永发五金门市部-专变-126842496-高碑店市顺和成化纤制品有限公司变压器,田庄东南地变压器【纯农排变】,田庄西变压器,郭建民,宋辛南公变2,北留西排灌变压器【纯农排变】,东大街南地变压器,宋辛西地变压器【纯农排变】,东大街北二,庞场1号地变压器,庞场市场变压器,东大街西,保定白沟新城和源加油站变压器,张宝来变压器,宋辛东南变压器,田庄西北2柱上变压器,高碑店市呈泰塑胶制品有限公司,王玉海,六里街变台,变压器,高碑店市泗庄镇田庄小学变压器,宋辛南二变压器,东大街地变压器【纯农排变】,十三里西北地变压器【纯农排变】,赵康萍,宋辛西变压器,高碑店市同兴农林畜牧有限公司,宋辛北公变变压器,泗庄十里铺东台柱上变压器,东大街东南地变压器【纯农排变】,孙建华,高碑店市泗庄超童箱包配件加工厂,宋辛南变压器,0547125828-冯吉英-专变-47971088-呈祥泰塑胶厂2变压器,南大街地变压器【纯农排变】,宋辛南公变变压器,高碑店市泗庄镇东大街小学变压器,田庄西三变压器,泗庄田庄东南台,庞场3号地变压器【纯农排变】,半边街西南变压器,高碑店市呈泰塑胶制品有限公司变压器,北留西变压器,十三里东1变压器,高庄地变压器【纯农排变】,宋辛东南地变压器【纯农排变】,客户投资_庞场东台柱上变压器,0387440475-高碑店市宋辛村恒业拉头拉链门市部-专变-125746930-恒业压铸厂变压器,0387439572-王军-专变-45276331-通盛3,十三里东南变压器,郭街地变压器【纯农排变】,十里铺村变压器,郭街东南,泗庄镇政府,高碑店市泗庄镇东大街小学,高庄南变压器,六里街南地变压器,郭街东变压器,田庄西北变压器,宋辛西南变压器,东大街东变压器,北留西2变压器,东大街西南地变压器【纯农排变】,泗庄市场变压器,半边街2号地变压器,南大街东南2变压器,十三里西地变压器【纯农排变】,高庄西地变压器【纯农排变】,十三里西南地变压器,叶国振,0387440299-社办厂-专变-45277408-社办厂,东大街中变压器,李伯峰,加油站,宋辛东变压器,高碑店市呈泰塑胶制品有限公司2#变压器,半边街北变压器,庞场南变压器,猪场,泗庄田庄北变压器,东大街北变压器,半边街南变压器,郭街西变压器,高碑店市泗庄镇田庄村富强人造革厂变压器,泗庄田庄西南地变压器【纯农排变】,南大街村变压器,纪建春,0664708104-河北恒祥塑胶有限公司-专变-201042005-河北恒祥塑胶有限公司变压器,庞场2号地变压器【纯农排变】,东大街煤厂,宋辛南排,北留南变压器,十里铺乡直变压器,田庄东变压器,高碑店市白沟机动车驾驶员培训学校,高庄村内变压器,南大街东南变压器,十三里西变压器,东大街南变压器,泗庄十里铺南变压器,半边街西地变压器,半边街地变压器【纯农排变】,十三里东变压器,六里街变压器,六里街地变压器,高碑店市泗庄镇织带辅料制品变压器,田庄西2柱上变压器,王义明变压器,高碑店市顺和成化纤制品有限公司变压器,孙建华西南,十里铺南2变压器,高碑店市双兴粮油商贸有限公司变压器,农场,田庄东北变压器,庞场北变压器,东大街6号变台,高碑店市泗庄中心卫生院变压器,高碑店市泗庄镇织带辅料制品厂变压器","powerOffReason":"【停电原因】由于计划检修导致３５ＫＶ泗庄变电站１０ＫＶ泗庄５１５线路全线停电 【变更送电】因工作量大原因，送电时间由１８：００变更为１９：００ 【发布渠道】高碑店市高碑店电视台（７月１日０８时至７月８日１８时之间）屏幕上方滚动","powerOffId":"2019063013000080"},{"poweroffId":2019063013000075,"sgpoweroffId":null,"subsName":"","lineName":"力强557","pubTranName":"高碑店市泗庄镇宋辛庄窠小学变压器,南菜村,褚官营1号地【纯农排变】,耿庄3号地【纯农排变】,孙建华中,冯家营南,泗庄小陈庄东变压器,河北金利达塑胶制品有限公司,冯家营西,宋辛3号地,冯家营西排灌【纯农排变】,力强2号地变压器,宋辛东地【纯农排变】,高碑店市碧照轩观光园有限公司变压器,220KV河北省送变电公司公变,耿庄西排灌变压器,宋辛2号地【纯农排变】,力强1号地变压器,耿庄西北,大陈庄地【纯农排变】,冯家营4号地【纯农排变】,力强3号地变压器【纯农排变】,德林庄村,褚官营地【纯农排变】,小陈庄西,0387451189-田国辉-专变-45283233-党校,冯家营西排灌1【纯农排变】,海威拉链有限责任公司,德林庄西北地【纯农排变】,宋辛中二变压器,0643978403-河北金利达塑胶制品有限公司-专变-161935481-河北金利达塑胶制品有限公司1000KVA变压器,宋辛1号地【纯农排变】,褚官营2号地【纯农排变】,冯家营北,南菜北,十里铺2号地【纯农排变】,0387440244-宋辛海绵纸厂-专变-45277368-田德春,孙建华东,泗庄大陈庄,力强西,耿庄地【纯农排变】,耿庄2号地【纯农排变】,南菜西北地【纯农排变】,十里铺1号地【纯农排变】,宋辛西北地【纯农排变】,高碑店市泗庄镇冯家营学校,南菜1号地【纯农排变】,宋辛西北,褚官营西,冯家营2号地【纯农排变】,安海林变压器,客户投资_泗庄赵庄,力强东变压器,褚官营村,德林庄北地【纯农排变】,宋辛东北地变压器【纯农排变】,冯家营东台,冯家营1号地【纯农排变】,宋辛中,德林庄1号地,十里铺西地【纯农排变】,冯家营3号地【纯农排变】,赵庄地变压器【纯农排变】,南菜东北地【纯农排变】,0643978403-河北金利达塑胶制品有限公司-专变-161950501-河北金利达塑胶制品有限公司200KVA变压器,力强南变压器,耿庄排灌【纯农排变】,德林庄北,耿庄西,小陈庄地【纯农排变】,金庄地变压器,力强北,宋辛北地【纯农排变】,宋辛北,宋辛4号地变压器【纯农排变】,中国石油天然气股份有限公司管道分公司,耿庄村,金庄,宋辛面,十里铺东地【纯农排变】,","scope":"【影响街道/乡镇】泗庄镇、东马营镇 【高危重要客户】无 【影响客户】宋辛村、十里铺村、力强村、赵庄村、金庄村、小陈庄村、大陈庄村、耿庄村、楮官营村、冯家营村、南菜村、德林庄村、碧照轩观光园有限公司、宋辛小学、冯家营小学、宋辛面粉厂、河北金利达塑胶制品有限公司、孙建华中、孙建华东、田国辉","startTime":"2019-07-09 06:00:00","stopDate":"2019-07-09 19:00:00","orgNo":"1340612","typeCode":"计划停电","poweroffArea":"【全线路停电】停南菜村,褚官营1号地【纯农排变】,耿庄3号地【纯农排变】,孙建华中,冯家营南,泗庄小陈庄东变压器,河北金利达塑胶制品有限公司,冯家营西,宋辛3号地,冯家营西排灌【纯农排变】,力强2号地变压器,宋辛中,金庄地变压器,0387440244-宋辛海绵纸厂-专变-45277368-田德春,泗庄大陈庄,力强西,耿庄地【纯农排变】,耿庄2号地【纯农排变】,南菜西北地【纯农排变】,十里铺1号地【纯农排变】,宋辛西北地【纯农排变】,高碑店市泗庄镇冯家营学校,冯家营东台,冯家营1号地【纯农排变】,德林庄1号地,力强北,十里铺西地【纯农排变】,冯家营3号地【纯农排变】,赵庄地变压器【纯农排变】,南菜东北地【纯农排变】,0643978403-河北金利达塑胶制品有限公司-专变-161950501-河北金利达塑胶制品有限公司200KVA变压器,耿庄排灌【纯农排变】,德林庄北,耿庄西,小陈庄地【纯农排变】,宋辛北地【纯农排变】,宋辛北,宋辛4号地变压器【纯农排变】,中国石油天然气股份有限公司管道分公司,耿庄村,金庄,宋辛面,十里铺东地【纯农排变】,孙建华东,海威拉链有限责任公司,德林庄西北地【纯农排变】,高碑店市泗庄镇宋辛庄窠小学变压器,耿庄西排灌变压器,宋辛2号地【纯农排变】,力强1号地变压器,耿庄西北,大陈庄地【纯农排变】,冯家营4号地【纯农排变】,力强3号地变压器【纯农排变】,德林庄村,褚官营2号地【纯农排变】,冯家营北,南菜北,宋辛中二变压器,0643978403-河北金利达塑胶制品有限公司-专变-161935481-河北金利达塑胶制品有限公司1000KVA变压器,南菜1号地【纯农排变】,宋辛西北,褚官营西,冯家营2号地【纯农排变】,安海林变压器,客户投资_泗庄赵庄,力强东变压器,力强南变压器,小陈庄西,0387451189-田国辉-专变-45283233-党校,褚官营村,德林庄北地【纯农排变】,宋辛东北地变压器【纯农排变】,宋辛1号地【纯农排变】,宋辛东地【纯农排变】,褚官营地【纯农排变】,冯家营西排灌1【纯农排变】,高碑店市碧照轩观光园有限公司变压器,220KV河北省送变电公司公变,十里铺2号地【纯农排变】","poweroffReason":"【停电原因】由于计划检修导致２２０ＫＶ力强变电站１０ＫＶ力强５５７线路全线停电 【变更送电】因工作量大原因，送电时间由１８：００变更为１９：００ 【发布渠道】高碑店市高碑店电视台（７月１日０８时至７月８日１８时之间）屏幕上方滚动","powerTime":"2019-07-09 18:36:33","powerComm":"已送电","subsNo":"","lineNo":"","tgNo":"","tgName":null,"infoStatus":"1","orgName":"国网高碑店市供电公司","typeName":null,"infoStatusName":null,"dateDay":null,"orgNos":null,"nowTime":null,"countyName":null,"streetName":null,"villageName":null,"roadName":null,"communityName":null,"tranName":null,"sdLineName":null,"cityCode":"1340612","cityName":"国网高碑店市供电公司","provinceCode":null,"stopTime":"2019-07-09 19:00:00","powerType":"全部","powerOffArea":"【全线路停电】停南菜村,褚官营1号地【纯农排变】,耿庄3号地【纯农排变】,孙建华中,冯家营南,泗庄小陈庄东变压器,河北金利达塑胶制品有限公司,冯家营西,宋辛3号地,冯家营西排灌【纯农排变】,力强2号地变压器,宋辛中,金庄地变压器,0387440244-宋辛海绵纸厂-专变-45277368-田德春,泗庄大陈庄,力强西,耿庄地【纯农排变】,耿庄2号地【纯农排变】,南菜西北地【纯农排变】,十里铺1号地【纯农排变】,宋辛西北地【纯农排变】,高碑店市泗庄镇冯家营学校,冯家营东台,冯家营1号地【纯农排变】,德林庄1号地,力强北,十里铺西地【纯农排变】,冯家营3号地【纯农排变】,赵庄地变压器【纯农排变】,南菜东北地【纯农排变】,0643978403-河北金利达塑胶制品有限公司-专变-161950501-河北金利达塑胶制品有限公司200KVA变压器,耿庄排灌【纯农排变】,德林庄北,耿庄西,小陈庄地【纯农排变】,宋辛北地【纯农排变】,宋辛北,宋辛4号地变压器【纯农排变】,中国石油天然气股份有限公司管道分公司,耿庄村,金庄,宋辛面,十里铺东地【纯农排变】,孙建华东,海威拉链有限责任公司,德林庄西北地【纯农排变】,高碑店市泗庄镇宋辛庄窠小学变压器,耿庄西排灌变压器,宋辛2号地【纯农排变】,力强1号地变压器,耿庄西北,大陈庄地【纯农排变】,冯家营4号地【纯农排变】,力强3号地变压器【纯农排变】,德林庄村,褚官营2号地【纯农排变】,冯家营北,南菜北,宋辛中二变压器,0643978403-河北金利达塑胶制品有限公司-专变-161935481-河北金利达塑胶制品有限公司1000KVA变压器,南菜1号地【纯农排变】,宋辛西北,褚官营西,冯家营2号地【纯农排变】,安海林变压器,客户投资_泗庄赵庄,力强东变压器,力强南变压器,小陈庄西,0387451189-田国辉-专变-45283233-党校,褚官营村,德林庄北地【纯农排变】,宋辛东北地变压器【纯农排变】,宋辛1号地【纯农排变】,宋辛东地【纯农排变】,褚官营地【纯农排变】,冯家营西排灌1【纯农排变】,高碑店市碧照轩观光园有限公司变压器,220KV河北省送变电公司公变,十里铺2号地【纯农排变】","powerOffReason":"【停电原因】由于计划检修导致２２０ＫＶ力强变电站１０ＫＶ力强５５７线路全线停电 【变更送电】因工作量大原因，送电时间由１８：００变更为１９：００ 【发布渠道】高碑店市高碑店电视台（７月１日０８时至７月８日１８时之间）屏幕上方滚动","powerOffId":"2019063013000075"},{"poweroffId":2019063013000058,"sgpoweroffId":null,"subsName":"","lineName":"10kV孔家佐583线路","pubTranName":"唐县鑫恒食品有限公司,岳烟2608变压器【纯农排变】,客户投资_民政养老院变压器,白塔2182水变压器【纯农排变】,唐县达八方公共公交客运有限公司计量点p6665,张盆0102变压器,岳烟0662变压器,东南京西南6003变压器,河北汉唐牧业有限公司315KVA配变,长古城村村委会5新装10KV配变,乡政府公用0589变压器,岳烟7154变压器,长古城0627变压器【纯农排变】,唐县天源水泥制造有限公司新装6078,小庄2013变压器,长古城中学变压器1【煤改电】,唐县建华水泥砖经销处,西南京0329变压器,西南京2161变压器,河北瑞天建材制造有限公司,唐县达八方公共公交客运有限公司计量点p6666,长古城0628变压器【纯农排变】,长古城村村委会4新装10KV配变,唐王水泥砖厂3081,定州市鑫雅泰装饰材料有限公司计量点,长古城4547变压器,长古城0341变压器,西南京0591变压器,10kV岳烟线东南京6548变压器,东南京0619变压器,唐县润铭建材经销处10KV配变,皮毛厂0226,西南京小学变压器【煤改电】,唐县城乡建设投资有限公司10KV配变,长古城0339变压器,长古城乡西南京城农业灌溉新装配变,唐县第五中学增容,蓝通1126,西南京1457变压器,河北汉唐牧业有限公司10KV配变,张盆3209变压器【纯农排变】,西南京2656变压器,长古城村村委会2新装10KV配变,长古城村村委会3新装10KV配变,长古城村村委会1新装10KV配变,长古城中学变压器【煤改电】,长古城2110变压器,张盆西6662变压器,白塔4928变压器【纯农排变】,长古城乡岳烟村南新装配变,河北瑞天建材制造有限公司6123,河北中正铜工艺品制造有限公司10KV配变,东南京3235变压器,东南京2184变压器,西南京0320变压器,野牛村2571变压器,皮毛厂0098,东南京东6061变压器,河北瑞天建材制造有限公司6112,保定市南水北调工程建设委员会办公室10KV配变,唐县为民水磨石砖厂,白塔2183水变压器【纯农排变】,张盆南水0203变压器【纯农排变】,猪厂0973,张铁柱（小米加工）1095,唐县志达绒毛加工厂1966,长古城面粉厂0584,刘家庄东水2635【纯农排变】,岳烟0623变压器【纯农排变】,启明增容,长古城0340变压器,唐县大马庄水泥构件厂3275,东南京1455变压器,西南京2160变压器【纯农排变】,长古城小学变压器【煤改电】,东南京0353变压器,张盆变3223压器,岳烟0624变压器【纯农排变】,长古城0344变压器,长古城0626水变压器【纯农排变】,小庄水2180变压器【纯农排变】,长古城2170变压器【纯农排变】,岳烟625变压器,企业局板厂0349,小庄4515变压器,公用1913变压器,东南京村西6002变压器【纯农排变】,保定盖德机械制造有限公司配变,唐县顺意水泥砖厂,长古城岳烟村北农业灌溉新装配变,启明学校配变,岳烟0620变压器,长古城卫生院变压器【煤改电】,东南京0354变压器【纯农排变】,长古城东北混4504变压器,唐县明辉黄粉虫养殖场10KV配变,长古城0338变压器【纯农排","scope":"【影响街道/乡镇】仁厚镇、长古城乡【高危重要客户】无【影响客户】长古城村、岳烟村、东南京村、西南京村、野牛村、白塔村、涨盆村、刘家庄","startTime":"2019-06-30 07:39:00","stopDate":"2019-06-30 09:00:00","orgNo":"1340622","typeCode":"电网故障停限电","poweroffArea":"【全线路停电】停东南京西南6003变压器,岳烟7154变压器,长古城0626水变压器【纯农排变】,河北汉唐牧业有限公司10KV配变,唐县第五中学增容,长古城0627变压器【纯农排变】,白塔2182水变压器【纯农排变】,张盆3209变压器【纯农排变】,唐县达八方公共公交客运有限公司计量点p6665,定州市鑫雅泰装饰材料有限公司计量点,长古城4547变压器,唐县天源水泥制造有限公司新装6078,张盆0102变压器,长古城0341变压器,西南京2656变压器,西南京0591变压器,小庄2013变压器,岳烟0662变压器,长古城村村委会2新装10KV配变,10kV岳烟线东南京6548变压器,唐县达八方公共公交客运有限公司计量点p6666,东南京西北水4644变压器【纯农排变】,小庄水2180变压器【纯农排变】,长古城2110变压器,长古城0340变压器,长古城新民居4087变压器,长古城2170变压器【纯农排变】,张盆西6662变压器,长古城0628变压器【纯农排变】,岳烟625变压器,唐县顺意水泥砖厂,企业局板厂0349,唐县鑫恒食品有限公司,唐县大马庄水泥构件厂3275,长古城岳烟村北农业灌溉新装配变,小庄4515变压器,岳烟2608变压器【纯农排变】,东南京1455变压器,乡政府公用0589变压器,公用1913变压器,客户投资_民政养老院变压器,长古城村村委会4新装10KV配变,启明学校配变,长古城村村委会3新装10KV配变,东南京村西6002变压器【纯农排变】,西南京0320变压器,唐王水泥砖厂3081,保定盖德机械制造有限公司配变,张盆南水0203变压器【纯农排变】,长古城0344变压器,岳烟0624变压器【纯农排变】,岳烟0623变压器【纯农排变】,猪厂0973,河北汉唐牧业有限公司315KVA配变,启明增容,蓝通1126,张铁柱（小米加工）1095,长古城村村委会5新装10KV配变,西南京2160变压器【纯农排变】,西南京1457变压器,长古城中学变压器1【煤改电】,唐县志达绒毛加工厂1966,东南京0619变压器,长古城小学变压器【煤改电】,唐县建华水泥砖经销处,长古城面粉厂0584,唐县润铭建材经销处10KV配变,东南京0353变压器,西南京0329变压器,张盆变3223压器,皮毛厂0226,刘家庄东水2635【纯农排变】,西南京2161变压器,白塔4928变压器【纯农排变】,西南京小学变压器【煤改电】,唐县明辉黄粉虫养殖场10KV配变,河北瑞天建材制造有限公司,岳烟0620变压器,唐县城乡建设投资有限公司10KV配变,长古城村村委会1新装10KV配变,长古城0339变压器,长古城卫生院变压器【煤改电】,野牛村2571变压器,长古城中学变压器【煤改电】,皮毛厂0098,东南京0354变压器【纯农排变】,东南京2184变压器,白塔2183水变压器【纯农排变】,长古城乡岳烟村南新装配变,东南京东6061变压器,大庄子0616变压器,长古城0338变压器【纯农排变】,河北瑞天建材制造有限公司6112,河北瑞天建材制造有限公司6123,长古城2012变压器【纯农排变】,河北中正铜工艺品制造有限公司10KV配变,保定市南水北调工程建设委员会办公室10KV配变,长古城东北混4504变压器,长古城乡西南京城农业灌溉新装配变,东南京3235变压器,唐县为民水磨石砖厂","poweroffReason":"【停电原因】由于用户产权长古城分支水泥砖厂跌落烧毁导致１１０ＫＶ城南变电站孔家佐５８３线路全线停电【变更送电】因抢修进度加快原因，送电时间由１７：００变更为０９：００【发布渠道】通过９５５９８发布","powerTime":"2019-06-30 08:16:50","powerComm":"已送电","subsNo":"","lineNo":"","tgNo":"","tgName":null,"infoStatus":"1","orgName":"国网唐县供电公司","typeName":null,"infoStatusName":null,"dateDay":null,"orgNos":null,"nowTime":null,"countyName":null,"streetName":null,"villageName":null,"roadName":null,"communityName":null,"tranName":null,"sdLineName":null,"cityCode":"1340622","cityName":"国网唐县供电公司","provinceCode":null,"stopTime":"2019-06-30 09:00:00","powerType":"全部","powerOffArea":"【全线路停电】停东南京西南6003变压器,岳烟7154变压器,长古城0626水变压器【纯农排变】,河北汉唐牧业有限公司10KV配变,唐县第五中学增容,长古城0627变压器【纯农排变】,白塔2182水变压器【纯农排变】,张盆3209变压器【纯农排变】,唐县达八方公共公交客运有限公司计量点p6665,定州市鑫雅泰装饰材料有限公司计量点,长古城4547变压器,唐县天源水泥制造有限公司新装6078,张盆0102变压器,长古城0341变压器,西南京2656变压器,西南京0591变压器,小庄2013变压器,岳烟0662变压器,长古城村村委会2新装10KV配变,10kV岳烟线东南京6548变压器,唐县达八方公共公交客运有限公司计量点p6666,东南京西北水4644变压器【纯农排变】,小庄水2180变压器【纯农排变】,长古城2110变压器,长古城0340变压器,长古城新民居4087变压器,长古城2170变压器【纯农排变】,张盆西6662变压器,长古城0628变压器【纯农排变】,岳烟625变压器,唐县顺意水泥砖厂,企业局板厂0349,唐县鑫恒食品有限公司,唐县大马庄水泥构件厂3275,长古城岳烟村北农业灌溉新装配变,小庄4515变压器,岳烟2608变压器【纯农排变】,东南京1455变压器,乡政府公用0589变压器,公用1913变压器,客户投资_民政养老院变压器,长古城村村委会4新装10KV配变,启明学校配变,长古城村村委会3新装10KV配变,东南京村西6002变压器【纯农排变】,西南京0320变压器,唐王水泥砖厂3081,保定盖德机械制造有限公司配变,张盆南水0203变压器【纯农排变】,长古城0344变压器,岳烟0624变压器【纯农排变】,岳烟0623变压器【纯农排变】,猪厂0973,河北汉唐牧业有限公司315KVA配变,启明增容,蓝通1126,张铁柱（小米加工）1095,长古城村村委会5新装10KV配变,西南京2160变压器【纯农排变】,西南京1457变压器,长古城中学变压器1【煤改电】,唐县志达绒毛加工厂1966,东南京0619变压器,长古城小学变压器【煤改电】,唐县建华水泥砖经销处,长古城面粉厂0584,唐县润铭建材经销处10KV配变,东南京0353变压器,西南京0329变压器,张盆变3223压器,皮毛厂0226,刘家庄东水2635【纯农排变】,西南京2161变压器,白塔4928变压器【纯农排变】,西南京小学变压器【煤改电】,唐县明辉黄粉虫养殖场10KV配变,河北瑞天建材制造有限公司,岳烟0620变压器,唐县城乡建设投资有限公司10KV配变,长古城村村委会1新装10KV配变,长古城0339变压器,长古城卫生院变压器【煤改电】,野牛村2571变压器,长古城中学变压器【煤改电】,皮毛厂0098,东南京0354变压器【纯农排变】,东南京2184变压器,白塔2183水变压器【纯农排变】,长古城乡岳烟村南新装配变,东南京东6061变压器,大庄子0616变压器,长古城0338变压器【纯农排变】,河北瑞天建材制造有限公司6112,河北瑞天建材制造有限公司6123,长古城2012变压器【纯农排变】,河北中正铜工艺品制造有限公司10KV配变,保定市南水北调工程建设委员会办公室10KV配变,长古城东北混4504变压器,长古城乡西南京城农业灌溉新装配变,东南京3235变压器,唐县为民水磨石砖厂","powerOffReason":"【停电原因】由于用户产权长古城分支水泥砖厂跌落烧毁导致１１０ＫＶ城南变电站孔家佐５８３线路全线停电【变更送电】因抢修进度加快原因，送电时间由１７：００变更为０９：００【发布渠道】通过９５５９８发布","powerOffId":"2019063013000058"},{"poweroffId":2019063013000039,"sgpoweroffId":null,"subsName":"","lineName":"10kV西开区线584","pubTranName":"东城内1号,辛庄内2,辛庄外3【纯农排变】,1西城内5,辛庄外6【纯农排变】,2东城外13【纯农排变】,2西城外5【纯农排变】,辛庄外7【纯农排变】,2中冉外14【纯农排变】,东壁阳城小学,1东城内12,客户投资_1中冉内11,2东城外18【纯农排变】,2东城外21【纯农排变】,2东城外17【纯农排变】,西城砖厂南台,2东城外16【纯农排变】,2东城外7【纯农排变】,辛庄外2【纯农排变】,东城砖厂小,2东城外9【纯农排变】,东城内3,2东城外12【纯农排变】,西城村内1号,2西城外4【纯农排变】,1西城内4,西城油化厂,西城化工厂,1东城内10,1东城内13,2东城外19【纯农排变】,2东城外10【纯农排变】,1东城内7,四通养殖场,李运良,东城内5号,东城内6,2中冉外9【纯农排变】,2东城外14【纯农排变】,2西城外6【纯农排变】,河北建设集团有限公司,东城内2,1东城内14,1东城内9,2西城外8【纯农排变】,2中冉外8【纯农排变】,辛庄内3,2西城外3【纯农排变】,辛庄内1,2东城外11【纯农排变】,西壁阳城幼儿园,2西城外7【纯农排变】,2西城外9【纯农排变】,2西城外10【纯农排变】,2中冉外32【纯农排变】,2中冉外18【纯农排变】,2东城外15【纯农排变】,西城黄满江,东城内4号,2中冉外19【纯农排变】,1东城内8,1西城内3,西城村内2号,1东城内11,2东城外8【纯农排变】,辛庄外5【纯农排变】,2东城外6【纯农排变】,2东城外20【纯农排变】,","scope":"【影响街道/乡镇】白团乡 【高危重要客户】无 【影响客户】辛庄、东城（东壁阳城）、西城（西壁阳城）、中冉","startTime":"2019-06-30 06:07:07","stopDate":"2019-06-30 08:00:00","orgNo":"1340618","typeCode":"电网故障停限电","poweroffArea":"【全线路停电】停1东城内9,东城内1号,辛庄内2,辛庄外3【纯农排变】,1西城内5,辛庄外6【纯农排变】,2东城外13【纯农排变】,2西城外5【纯农排变】,辛庄外7【纯农排变】,2中冉外14【纯农排变】,东壁阳城小学,1东城内12,客户投资_1中冉内11,2东城外18【纯农排变】,2东城外21【纯农排变】,2东城外17【纯农排变】,西城砖厂南台,2东城外16【纯农排变】,2东城外7【纯农排变】,辛庄外2【纯农排变】,东城砖厂小,2东城外9【纯农排变】,东城内3,2东城外12【纯农排变】,西城村内1号,2西城外4【纯农排变】,1西城内4,西城油化厂,西城化工厂,1东城内10,1东城内13,2东城外19【纯农排变】,2东城外10【纯农排变】,1东城内7,四通养殖场,李运良,东城内5号,东城内6,2中冉外9【纯农排变】,2东城外14【纯农排变】,2西城外6【纯农排变】,河北建设集团有限公司,东城内2,1东城内14,2西城外8【纯农排变】,2中冉外8【纯农排变】,辛庄内3,2西城外3【纯农排变】,辛庄内1,2东城外11【纯农排变】,西壁阳城幼儿园,2西城外7【纯农排变】,2西城外9【纯农排变】,2西城外10【纯农排变】,2中冉外32【纯农排变】,2中冉外18【纯农排变】,2东城外15【纯农排变】,西城黄满江,东城内4号,2中冉外19【纯农排变】,1东城内8,1西城内3,西城村内2号,1东城内11,2东城外8【纯农排变】,辛庄外5【纯农排变】,2东城外6【纯农排变】,2东城外20【纯农排变】","poweroffReason":"【停电原因】由于主干１号杆开关掉闸导致１１０ＫＶ赵庄变电站１０ＫＶ西开区线５８４线路全线停电 【变更送电】因抢修进度加快原因，送电时间由１２：００变更为０８：００ 【发布渠道】通过９５５９８发布","powerTime":"2019-06-30 07:36:19","powerComm":"张志民通知已送电","subsNo":"","lineNo":"","tgNo":"","tgName":null,"infoStatus":"1","orgName":"国网清苑县供电公司","typeName":null,"infoStatusName":null,"dateDay":null,"orgNos":null,"nowTime":null,"countyName":null,"streetName":null,"villageName":null,"roadName":null,"communityName":null,"tranName":null,"sdLineName":null,"cityCode":"1340618","cityName":"国网清苑县供电公司","provinceCode":null,"stopTime":"2019-06-30 08:00:00","powerType":"全部","powerOffArea":"【全线路停电】停1东城内9,东城内1号,辛庄内2,辛庄外3【纯农排变】,1西城内5,辛庄外6【纯农排变】,2东城外13【纯农排变】,2西城外5【纯农排变】,辛庄外7【纯农排变】,2中冉外14【纯农排变】,东壁阳城小学,1东城内12,客户投资_1中冉内11,2东城外18【纯农排变】,2东城外21【纯农排变】,2东城外17【纯农排变】,西城砖厂南台,2东城外16【纯农排变】,2东城外7【纯农排变】,辛庄外2【纯农排变】,东城砖厂小,2东城外9【纯农排变】,东城内3,2东城外12【纯农排变】,西城村内1号,2西城外4【纯农排变】,1西城内4,西城油化厂,西城化工厂,1东城内10,1东城内13,2东城外19【纯农排变】,2东城外10【纯农排变】,1东城内7,四通养殖场,李运良,东城内5号,东城内6,2中冉外9【纯农排变】,2东城外14【纯农排变】,2西城外6【纯农排变】,河北建设集团有限公司,东城内2,1东城内14,2西城外8【纯农排变】,2中冉外8【纯农排变】,辛庄内3,2西城外3【纯农排变】,辛庄内1,2东城外11【纯农排变】,西壁阳城幼儿园,2西城外7【纯农排变】,2西城外9【纯农排变】,2西城外10【纯农排变】,2中冉外32【纯农排变】,2中冉外18【纯农排变】,2东城外15【纯农排变】,西城黄满江,东城内4号,2中冉外19【纯农排变】,1东城内8,1西城内3,西城村内2号,1东城内11,2东城外8【纯农排变】,辛庄外5【纯农排变】,2东城外6【纯农排变】,2东城外20【纯农排变】","powerOffReason":"【停电原因】由于主干１号杆开关掉闸导致１１０ＫＶ赵庄变电站１０ＫＶ西开区线５８４线路全线停电 【变更送电】因抢修进度加快原因，送电时间由１２：００变更为０８：００ 【发布渠道】通过９５５９８发布","powerOffId":"2019063013000039"},{"poweroffId":2019063013000006,"sgpoweroffId":null,"subsName":"","lineName":"10kV朝阳路站512线路","pubTranName":"B378柱上变压器,","scope":"【影响街道/乡镇】建华大街 【高危重要客户】无 【影响客户】建华路批发市场、北市区市场建设服务中心","startTime":"2019-06-30 01:33:24","stopDate":"2019-06-30 03:30:16","orgNo":"13406","typeCode":"电网故障停限电","poweroffArea":"【单台区停电】停B378柱上变压器","poweroffReason":"【停电原因】由于低压刀闸烧导致１０ＫＶ朝阳路变电站５１２线路Ｂ３７８公变台区停电【变更送电】无【发布渠道】通过９５５９８发布","powerTime":"2019-06-30 02:23:44","powerComm":"已送电","subsNo":"","lineNo":"","tgNo":"","tgName":null,"infoStatus":"1","orgName":"保定供电公司","typeName":null,"infoStatusName":null,"dateDay":null,"orgNos":null,"nowTime":null,"countyName":null,"streetName":null,"villageName":null,"roadName":null,"communityName":null,"tranName":null,"sdLineName":null,"cityCode":"13406","cityName":"保定供电公司","provinceCode":null,"stopTime":"2019-06-30 03:30:16","powerType":"全部","powerOffArea":"【单台区停电】停B378柱上变压器","powerOffReason":"【停电原因】由于低压刀闸烧导致１０ＫＶ朝阳路变电站５１２线路Ｂ３７８公变台区停电【变更送电】无【发布渠道】通过９５５９８发布","powerOffId":"2019063013000006"},{"poweroffId":2019062913000297,"sgpoweroffId":null,"subsName":"","lineName":"尚家柳线523","pubTranName":"08066|西陶口农业1【纯农排变】,高阳县晋庄镇东河村村民委员会二变压器,西河屯农业(50),解庄2#东南综合,骆锁,保定爱尔棉纺织有限公司,吴庄砖厂,雪莲毛巾厂,中国石油第二十五加油站,公用事业局,吴庄3号农业【纯农排变】,西河屯1#综合,西河5#农排【纯农排变】,高阳县绿洲染织有限公司变压器,南尖农排9#【纯农排变】,武装部果园,中国石油化工股份有限公司河北高阳石油分公司变压器,中国石油天然气股份有限公司华北油田分公司变压器,西河屯农业,西河屯村北,西河10#新增综合,西河8#农排【纯农排变】,梁少军,西河8#东南综合,高阳县晋庄镇西河村村民委员会变压器,西河9#农排【纯农排变】,高阳县南蒲口乡陶口店村一号变压器,高阳县天鸿纺织品有限公司,高阳县雪莲纺织品有限公司变压器,高阳县晋庄镇东河村村民委员会一变压器,西河11号村大队综合,张保中(史建军),高阳县晋庄镇西河村民委员会三变压器,西河2#村北综合,李傻预制板厂,西河4#农排【纯农排变】,西河12#农排【纯农排变】,北方伞业,西河7#村南综合,东河1#农排【纯农排变】,西河11#农排【纯农排变】,西河3#农排【纯农排变】,西河2#农排【纯农排变】,解庄3号新增综合,西河10#农排【纯农排变】,赵小纺,西河9#西北角综合,高阳县晋庄镇解家庄村村民委员会二变压器,解庄1号农业【纯农排变】,高阳县晋庄镇西河屯村委会二变压器,南尖农排10#【纯农排变】,高阳县凯天巾被有限公司,西河5#村南综合,吴庄4号农业【纯农排变】,保定美森乳业有限公司变压器,东王农业,西河1#村里综合,高阳县晋庄镇西河村民委员会二变压器,西河一中队(西),软化毛厂,解庄2号农业【纯农排变】,高阳县佳园纺织印染有限公司,富融染织有限公司,东河3#农排【纯农排变】,西河6#农排【纯农排变】,高阳县晋庄镇南尖窝村委会变压器,西河屯农业(100),高阳县晋庄镇解家庄村村民委员会一变压器,东河2#农排【纯农排变】,西河3#村西北综合,骆虎变压器,西河1#农排【纯农排变】,中国石油天然气股份有限公司河北保定销售分公司第二十五加油站变压器,高阳县凌波冷库变压器,东河4#农排【纯农排变】,高阳县鑫海纺织有限责任公司,西河6#东北角综合,吴庄5号农业【纯农排变】,完达山乳品公司,解庄1#东北综合,吴庄砖厂变压器,西河屯3号新增综合,东王带锯厂,西河7#农排【纯农排变】,西河一中队,腾飞化工厂,高阳县晋庄镇西河屯村村民委员会变压器,高阳县南蒲口乡陶口店村贰变压器,高阳县万强绵羊饲养有限公司变压器,西河4#村西综合,西河屯2#综合,政府街路灯,","scope":"【影响街道/乡镇】晋庄乡 【高危重要客户】无 【影响客户】解庄全村、西河屯全村、西河全村","startTime":"2019-06-29 22:46:52","stopDate":"2019-06-30 01:00:00","orgNo":"1340613","typeCode":"电网故障停限电","poweroffArea":"【全线路停电】停西河屯农业(50),西河6#东北角综合,解庄2#东南综合,赵小纺,解庄2号农业【纯农排变】,高阳县万强绵羊饲养有限公司变压器,西河9#西北角综合,高阳县佳园纺织印染有限公司,西河7#农排【纯农排变】,富融染织有限公司,东河3#农排【纯农排变】,完达山乳品公司,西河1#农排【纯农排变】,西河11号村大队综合,西河6#农排【纯农排变】,西河8#东南综合,西河4#村西综合,高阳县晋庄镇西河村村民委员会变压器,高阳县晋庄镇南尖窝村委会变压器,西河屯村北,西河屯2#综合,西河9#农排【纯农排变】,东河2#农排【纯农排变】,高阳县南蒲口乡陶口店村一号变压器,西河3#村西北综合,高阳县天鸿纺织品有限公司,政府街路灯,高阳县雪莲纺织品有限公司变压器,高阳县晋庄镇东河村村民委员会一变压器,高阳县晋庄镇解家庄村村民委员会二变压器,骆虎变压器,西河8#农排【纯农排变】,西河4#农排【纯农排变】,西河12#农排【纯农排变】,南尖农排9#【纯农排变】,东王带锯厂,骆锁,保定爱尔棉纺织有限公司,西河一中队,吴庄砖厂,李傻预制板厂,西河屯农业(100),腾飞化工厂,雪莲毛巾厂,西河屯3号新增综合,南尖农排10#【纯农排变】,西河7#村南综合,北方伞业,东河1#农排【纯农排变】,中国石油第二十五加油站,公用事业局,解庄1#东北综合,吴庄3号农业【纯农排变】,吴庄砖厂变压器,高阳县晋庄镇西河屯村委会二变压器,西河屯1#综合,吴庄4号农业【纯农排变】,西河5#农排【纯农排变】,西河3#农排【纯农排变】,解庄1号农业【纯农排变】,高阳县绿洲染织有限公司变压器,西河一中队(西),软化毛厂,西河5#村南综合,高阳县晋庄镇解家庄村村民委员会一变压器,中国石油天然气股份有限公司河北保定销售分公司第二十五加油站变压器,西河2#农排【纯农排变】,保定美森乳业有限公司变压器,高阳县凌波冷库变压器,西河11#农排【纯农排变】,高阳县凯天巾被有限公司,东王农业,武装部果园,西河1#村里综合,西河10#新增综合,高阳县晋庄镇西河村民委员会二变压器,中国石油化工股份有限公司河北高阳石油分公司变压器,梁少军,张保中(史建军),高阳县晋庄镇东河村村民委员会二变压器,东河4#农排【纯农排变】,08066|西陶口农业1【纯农排变】,高阳县晋庄镇西河村民委员会三变压器,西河2#村北综合,中国石油天然气股份有限公司华北油田分公司变压器,解庄3号新增综合,高阳县晋庄镇西河屯村村民委员会变压器,高阳县鑫海纺织有限责任公司,西河屯农业,西河10#农排【纯农排变】,高阳县南蒲口乡陶口店村贰变压器,吴庄5号农业【纯农排变】","poweroffReason":"【停电原因】由于汽车撞杆导致１１０ＫＶ沙窝变电站尚家柳５２３线路全线停电【变更送电】因抢修进度加快原因，送电时间由０３：００变更为０１：００【发布渠道】通过９５５９８发布","powerTime":"2019-06-30 00:24:49","powerComm":"已送电","subsNo":"","lineNo":"","tgNo":"","tgName":null,"infoStatus":"1","orgName":"国网高阳县供电公司","typeName":null,"infoStatusName":null,"dateDay":null,"orgNos":null,"nowTime":null,"countyName":null,"streetName":null,"villageName":null,"roadName":null,"communityName":null,"tranName":null,"sdLineName":null,"cityCode":"1340613","cityName":"国网高阳县供电公司","provinceCode":null,"stopTime":"2019-06-30 01:00:00","powerType":"全部","powerOffArea":"【全线路停电】停西河屯农业(50),西河6#东北角综合,解庄2#东南综合,赵小纺,解庄2号农业【纯农排变】,高阳县万强绵羊饲养有限公司变压器,西河9#西北角综合,高阳县佳园纺织印染有限公司,西河7#农排【纯农排变】,富融染织有限公司,东河3#农排【纯农排变】,完达山乳品公司,西河1#农排【纯农排变】,西河11号村大队综合,西河6#农排【纯农排变】,西河8#东南综合,西河4#村西综合,高阳县晋庄镇西河村村民委员会变压器,高阳县晋庄镇南尖窝村委会变压器,西河屯村北,西河屯2#综合,西河9#农排【纯农排变】,东河2#农排【纯农排变】,高阳县南蒲口乡陶口店村一号变压器,西河3#村西北综合,高阳县天鸿纺织品有限公司,政府街路灯,高阳县雪莲纺织品有限公司变压器,高阳县晋庄镇东河村村民委员会一变压器,高阳县晋庄镇解家庄村村民委员会二变压器,骆虎变压器,西河8#农排【纯农排变】,西河4#农排【纯农排变】,西河12#农排【纯农排变】,南尖农排9#【纯农排变】,东王带锯厂,骆锁,保定爱尔棉纺织有限公司,西河一中队,吴庄砖厂,李傻预制板厂,西河屯农业(100),腾飞化工厂,雪莲毛巾厂,西河屯3号新增综合,南尖农排10#【纯农排变】,西河7#村南综合,北方伞业,东河1#农排【纯农排变】,中国石油第二十五加油站,公用事业局,解庄1#东北综合,吴庄3号农业【纯农排变】,吴庄砖厂变压器,高阳县晋庄镇西河屯村委会二变压器,西河屯1#综合,吴庄4号农业【纯农排变】,西河5#农排【纯农排变】,西河3#农排【纯农排变】,解庄1号农业【纯农排变】,高阳县绿洲染织有限公司变压器,西河一中队(西),软化毛厂,西河5#村南综合,高阳县晋庄镇解家庄村村民委员会一变压器,中国石油天然气股份有限公司河北保定销售分公司第二十五加油站变压器,西河2#农排【纯农排变】,保定美森乳业有限公司变压器,高阳县凌波冷库变压器,西河11#农排【纯农排变】,高阳县凯天巾被有限公司,东王农业,武装部果园,西河1#村里综合,西河10#新增综合,高阳县晋庄镇西河村民委员会二变压器,中国石油化工股份有限公司河北高阳石油分公司变压器,梁少军,张保中(史建军),高阳县晋庄镇东河村村民委员会二变压器,东河4#农排【纯农排变】,08066|西陶口农业1【纯农排变】,高阳县晋庄镇西河村民委员会三变压器,西河2#村北综合,中国石油天然气股份有限公司华北油田分公司变压器,解庄3号新增综合,高阳县晋庄镇西河屯村村民委员会变压器,高阳县鑫海纺织有限责任公司,西河屯农业,西河10#农排【纯农排变】,高阳县南蒲口乡陶口店村贰变压器,吴庄5号农业【纯农排变】","powerOffReason":"【停电原因】由于汽车撞杆导致１１０ＫＶ沙窝变电站尚家柳５２３线路全线停电【变更送电】因抢修进度加快原因，送电时间由０３：００变更为０１：００【发布渠道】通过９５５９８发布","powerOffId":"2019062913000297"},{"poweroffId":2019062913000278,"sgpoweroffId":null,"subsName":"","lineName":"曲城线513","pubTranName":"曲城6号【纯农排变】,曲城4号【纯农排变】,曲城1号,曲城7号,曲城2号【纯农排变】,曲城10号【纯农排变】,曲城13号,曲城5号,曲城9号,曲城3号【纯农排变】,曲城14号,曲城11号【纯农排变】,曲城12号,曲城8号,","scope":"【影响街道/乡镇】遂城镇 【高危重要客户】无 【影响客户】曲城村","startTime":"2019-06-29 20:46:38","stopDate":"2019-06-29 22:00:00","orgNo":"1340605","typeCode":"电网故障停限电","poweroffArea":"【全线路停电】停曲城14号,曲城13号,曲城2号【纯农排变】,曲城10号【纯农排变】,曲城3号【纯农排变】,曲城12号,曲城9号,曲城8号,曲城5号,曲城4号【纯农排变】,曲城6号【纯农排变】,曲城7号,曲城1号,曲城11号【纯农排变】","poweroffReason":"【停电原因】由于Ｂ相接地导致３５ＫＶ广门变电站曲城５１３线路全线停电 【变更送电】因抢修进度加快原因，送电时间由２３:００变更为２２:００ 【发布渠道】通过９５５９８发布","powerTime":"2019-06-29 21:46:17","powerComm":"已送电","subsNo":"","lineNo":"","tgNo":"","tgName":null,"infoStatus":"1","orgName":"国网徐水县供电公司","typeName":null,"infoStatusName":null,"dateDay":null,"orgNos":null,"nowTime":null,"countyName":null,"streetName":null,"villageName":null,"roadName":null,"communityName":null,"tranName":null,"sdLineName":null,"cityCode":"1340605","cityName":"国网徐水县供电公司","provinceCode":null,"stopTime":"2019-06-29 22:00:00","powerType":"全部","powerOffArea":"【全线路停电】停曲城14号,曲城13号,曲城2号【纯农排变】,曲城10号【纯农排变】,曲城3号【纯农排变】,曲城12号,曲城9号,曲城8号,曲城5号,曲城4号【纯农排变】,曲城6号【纯农排变】,曲城7号,曲城1号,曲城11号【纯农排变】","powerOffReason":"【停电原因】由于Ｂ相接地导致３５ＫＶ广门变电站曲城５１３线路全线停电 【变更送电】因抢修进度加快原因，送电时间由２３:００变更为２２:００ 【发布渠道】通过９５５９８发布","powerOffId":"2019062913000278"},{"poweroffId":2019062913000275,"sgpoweroffId":null,"subsName":"","lineName":"石家庄512","pubTranName":"甘河净村1#,甘河净8#,六平地村1#,七峪7#变压器,七峪村4#,旺家台村2#,石家庄村1#,甘河净乡政府,旺家台村4#,六平地村2#,下卫厂村1#,七峪村1#,武家庄村1#,宝石4队,甘河净村3#,张公铺村4#,上卫厂村1#,张公铺村5#,七峪村5#,石家庄村3#,张公铺村1#,上卫厂村2#,下卫厂村3#,上卫厂村3#,七峪村2#,王宏远矿山,甘河净5#,下卫厂2#村南,甘河净村2#,武家庄村2#,六平地村3#,宝石村5#,张公铺村3#,旺家台村1#,旺家台3#,","scope":"【影响街道/乡镇】七峪乡、坡仓乡、甘河净乡【高危重要客户】无【影响客户】七峪村、石家庄村、武家庄村、张公铺村、六平地村、上苇场村、下苇场村、宝石村、甘河净村、旺家台村","startTime":"2019-06-29 20:34:39","stopDate":"2019-06-29 23:00:00","orgNo":"1340625","typeCode":"电网故障停限电","poweroffArea":"【全线路停电】停上卫厂村2#,下卫厂2#村南,武家庄村2#,上卫厂村3#,旺家台村1#,六平地村2#,六平地村1#,旺家台村4#,甘河净5#,旺家台村2#,下卫厂村3#,宝石村5#,甘河净村1#,七峪村2#,七峪村1#,七峪7#变压器,张公铺村3#,六平地村3#,武家庄村1#,张公铺村1#,下卫厂村1#,甘河净乡政府,七峪村5#,甘河净村3#,宝石4队,甘河净8#,张公铺村4#,石家庄村1#,张公铺村5#,石家庄村3#,上卫厂村1#,王宏远矿山,旺家台3#,七峪村4#,甘河净村2#","poweroffReason":"【停电原因】由于速断跳闸导致３５ＫＶ甘河净变电站石家庄５１２线路全线停电【变更送电】因抢修进度加快原因，送电时间由３０日１０：００变更为２９日２３：００【发布渠道】通过９５５９８发布","powerTime":"2019-06-29 22:50:14","powerComm":"已送电","subsNo":"","lineNo":"","tgNo":"","tgName":null,"infoStatus":"1","orgName":"国网易县供电公司","typeName":null,"infoStatusName":null,"dateDay":null,"orgNos":null,"nowTime":null,"countyName":null,"streetName":null,"villageName":null,"roadName":null,"communityName":null,"tranName":null,"sdLineName":null,"cityCode":"1340625","cityName":"国网易县供电公司","provinceCode":null,"stopTime":"2019-06-29 23:00:00","powerType":"全部","powerOffArea":"【全线路停电】停上卫厂村2#,下卫厂2#村南,武家庄村2#,上卫厂村3#,旺家台村1#,六平地村2#,六平地村1#,旺家台村4#,甘河净5#,旺家台村2#,下卫厂村3#,宝石村5#,甘河净村1#,七峪村2#,七峪村1#,七峪7#变压器,张公铺村3#,六平地村3#,武家庄村1#,张公铺村1#,下卫厂村1#,甘河净乡政府,七峪村5#,甘河净村3#,宝石4队,甘河净8#,张公铺村4#,石家庄村1#,张公铺村5#,石家庄村3#,上卫厂村1#,王宏远矿山,旺家台3#,七峪村4#,甘河净村2#","powerOffReason":"【停电原因】由于速断跳闸导致３５ＫＶ甘河净变电站石家庄５１２线路全线停电【变更送电】因抢修进度加快原因，送电时间由３０日１０：００变更为２９日２３：００【发布渠道】通过９５５９８发布","powerOffId":"2019062913000275"}],"pageModel":{"pageNow":886,"totalCount":10973,"totalPage":1098,"tableRows":0,"pageCount":10,"beginCount":8850},"isExperi":"1"}