{"message":"","today":"2020-06-15","seleList":[{"poweroffId":2019062813000334,"sgpoweroffId":null,"subsName":"","lineName":"微波站517线","pubTranName":"都亭乡初级中心学校 7469变压器,保定市南水北调工程建设委员会办公室计量点6575,李家庄2725【纯农排变】,李家庄4064,保定兴华建筑有限公司,大寺城涧2694,0387521772-河北帝尧鸿酒业有限公司-专变-210340460-河北帝尧鸿酒业有限公司,李家庄6059,唐县乐昌二手车交易市场服务有限公司,惠琳公司0321,都亭乡第四幼儿园 7471变压器,东都亭3189变压器,大寺城涧3158,唐县永耀混凝土搅拌有限公司配变,东都亭128变压器,李家庄2727【纯农排变】,李城涧4714,杨城涧0325,都亭乡初级中心学校7468变压器,利群食品有限公司0317,河北焕歌物流有限公司10KV配变,唐县永耀农业开发有限公司7193,李家庄0316,东都亭村北6063,东都亭2615,唐县永耀混凝土搅拌有限公司,东都亭4636变压器,大寺城涧2687,东都亭6669变压器,东都亭130变压器,东都亭6520变压器,电视台0120,大寺城涧0324,供电所2078,李家庄1417,微波站,李城涧4079,东都亭村东6064,都亭乡中心学校 7470变压器,唐县恒天气体有限责任公司,大寺城涧1740变压器,李城涧0133,李家庄3159变压器,西环加油站1827,唐县强茂有机肥生产有限公司,都亭卫生院 7467变压器,兴和大酒店1970,李家庄2323,木器厂家属0122,唐县恒兴饲料厂2790,冰冰冷冻1828,","scope":"【影响街道/乡镇】仁厚镇、都亭乡【高危重要客户】无【影响客户】大寺城涧、李家庄、杨城涧、李城涧、东都亭、兴和大酒店、瑞利牧业、酒厂","startTime":"2019-06-28 14:00:00","stopDate":"2019-06-28 16:00:00","orgNo":"1340622","typeCode":"其他临时停电","poweroffArea":"【分支停电】停都亭乡初级中心学校7468变压器,利群食品有限公司0317,河北焕歌物流有限公司10KV配变,唐县永耀农业开发有限公司7193,李家庄0316,东都亭6669变压器,东都亭130变压器,东都亭6520变压器,电视台0120,大寺城涧0324,供电所2078,李家庄1417,微波站,李城涧4079,东都亭村东6064, 都亭乡中心学校 7470变压器,唐县恒天气体有限责任公司,大寺城涧1740变压器,李城涧0133,李家庄3159变压器,西环加油站1827,唐县强茂有机肥生产有限公司, 都亭卫生院 7467变压器,兴和大酒店1970,李家庄2323,木器厂家属0122,唐县恒兴饲料厂2790,冰冰冷冻1828,东都亭村北6063,东都亭2615,唐县永耀混凝土搅拌有限公司, 都亭乡初级中心学校 7469变压器,保定市南水北调工程建设委员会办公室计量点6575,李家庄2725【纯农排变】,李家庄4064,保定兴华建筑有限公司,大寺城涧2694,0387521772-河北帝尧鸿酒业有限公司-专变-210340460-河北帝尧鸿酒业有限公司,李家庄6059,唐县乐昌二手车交易市场服务有限公司,惠琳公司0321, 都亭乡第四幼儿园 7471变压器,东都亭3189变压器,大寺城涧3158,唐县永耀混凝土搅拌有限公司配变,东都亭128变压器,李家庄2727【纯农排变】,李城涧4714,杨城涧0325,东都亭4636变压器,大寺城涧2687","poweroffReason":"【停电原因】由于紧急消缺导致１１０ＫＶ唐县变电站微波站５１７线路０４号杆断路器以下线路停电【变更送电】无【发布渠道】通过９５５９８发布","powerTime":"2019-06-28 15:03:43","powerComm":"已送电","subsNo":"","lineNo":"","tgNo":"","tgName":null,"infoStatus":"1","orgName":"国网唐县供电公司","typeName":null,"infoStatusName":null,"dateDay":null,"orgNos":null,"nowTime":null,"countyName":null,"streetName":null,"villageName":null,"roadName":null,"communityName":null,"tranName":null,"sdLineName":null,"cityCode":"1340622","cityName":"国网唐县供电公司","provinceCode":null,"stopTime":"2019-06-28 16:00:00","powerType":"全部","powerOffArea":"【分支停电】停都亭乡初级中心学校7468变压器,利群食品有限公司0317,河北焕歌物流有限公司10KV配变,唐县永耀农业开发有限公司7193,李家庄0316,东都亭6669变压器,东都亭130变压器,东都亭6520变压器,电视台0120,大寺城涧0324,供电所2078,李家庄1417,微波站,李城涧4079,东都亭村东6064, 都亭乡中心学校 7470变压器,唐县恒天气体有限责任公司,大寺城涧1740变压器,李城涧0133,李家庄3159变压器,西环加油站1827,唐县强茂有机肥生产有限公司, 都亭卫生院 7467变压器,兴和大酒店1970,李家庄2323,木器厂家属0122,唐县恒兴饲料厂2790,冰冰冷冻1828,东都亭村北6063,东都亭2615,唐县永耀混凝土搅拌有限公司, 都亭乡初级中心学校 7469变压器,保定市南水北调工程建设委员会办公室计量点6575,李家庄2725【纯农排变】,李家庄4064,保定兴华建筑有限公司,大寺城涧2694,0387521772-河北帝尧鸿酒业有限公司-专变-210340460-河北帝尧鸿酒业有限公司,李家庄6059,唐县乐昌二手车交易市场服务有限公司,惠琳公司0321, 都亭乡第四幼儿园 7471变压器,东都亭3189变压器,大寺城涧3158,唐县永耀混凝土搅拌有限公司配变,东都亭128变压器,李家庄2727【纯农排变】,李城涧4714,杨城涧0325,东都亭4636变压器,大寺城涧2687","powerOffReason":"【停电原因】由于紧急消缺导致１１０ＫＶ唐县变电站微波站５１７线路０４号杆断路器以下线路停电【变更送电】无【发布渠道】通过９５５９８发布","powerOffId":"2019062813000334"},{"poweroffId":2019062813000250,"sgpoweroffId":null,"subsName":"","lineName":"10kV朝阳路站516线路","pubTranName":"B1908柱上变压器,","scope":"【影响街道/乡镇】话剧院街、韩村南路 【高危重要客户】无 【影响客户】百花小区","startTime":"2019-06-28 10:40:07","stopDate":"2019-06-28 12:00:00","orgNo":"13406","typeCode":"电网故障停限电","poweroffArea":"【单台区停电】停B1908柱上变压器","poweroffReason":"【停电原因】由于低压保险片烧导致１０ＫＶ朝阳路变电站５１６线路Ｂ１９０８公变台区停电【变更送电】无【发布渠道】通过９５５９８发布","powerTime":"2019-06-28 11:51:56","powerComm":"已送电","subsNo":"","lineNo":"","tgNo":"","tgName":null,"infoStatus":"1","orgName":"保定供电公司","typeName":null,"infoStatusName":null,"dateDay":null,"orgNos":null,"nowTime":null,"countyName":null,"streetName":null,"villageName":null,"roadName":null,"communityName":null,"tranName":null,"sdLineName":null,"cityCode":"13406","cityName":"保定供电公司","provinceCode":null,"stopTime":"2019-06-28 12:00:00","powerType":"全部","powerOffArea":"【单台区停电】停B1908柱上变压器","powerOffReason":"【停电原因】由于低压保险片烧导致１０ＫＶ朝阳路变电站５１６线路Ｂ１９０８公变台区停电【变更送电】无【发布渠道】通过９５５９８发布","powerOffId":"2019062813000250"},{"poweroffId":2019062813000200,"sgpoweroffId":null,"subsName":"","lineName":"10kV西开区线584","pubTranName":"1东城内7,四通养殖场,李运良,东城内5号,东城内6,2中冉外9【纯农排变】,2东城外14【纯农排变】,2西城外6【纯农排变】,河北建设集团有限公司,2东城外19【纯农排变】,东城内2,1东城内14,2西城外8【纯农排变】,0600412845-保定巨威电器有限公司-专变-126631957-保定巨威电器有限公司,2中冉外8【纯农排变】,中国移动通讯集团河北有限公司清苑分公司,清苑县洪海水电结构施工队,辛庄内3,2西城外3【纯农排变】,0387483045-东城张兰国-专变-45311096-变压器,0387482459-花木公司-专变-45311093-变压器,辛庄内1,2东城外11【纯农排变】,西壁阳城幼儿园,2西城外7【纯农排变】,2西城外9【纯农排变】,2西城外10【纯农排变】,2中冉外32【纯农排变】,2中冉外18【纯农排变】,2东城外15【纯农排变】,西城黄满江,东城内4号,清苑县恒利机械厂,2中冉外19【纯农排变】,1东城内8,清苑县信义电器设备厂,1西城内3,西城村内2号,1东城内11,2东城外8【纯农排变】,辛庄外5【纯农排变】,2东城外20【纯农排变】,2东城外6【纯农排变】,2东城外10【纯农排变】,1东城内9,保定鑫宇电子材料有限公司,保定惠生内饰材料制造有限公司,东城内1号,保定锐志恒远模板有限公司,辛庄外6【纯农排变】,2东城外13【纯农排变】,河北中尊园区开发有限公司,保定市清苑区住房和城乡建设局,2西城外5【纯农排变】,辛庄外7【纯农排变】,0632327894-河北京石高速公路开发有限公司-专变-144770542-河北省高速公路京石改扩建筹建处,2中冉外14【纯农排变】,辛庄内2,辛庄外3【纯农排变】,1西城内5,保定飓风蓄电池有限公司,东壁阳城小学,1东城内12,客户投资_1中冉内11,2东城外18【纯农排变】,保定市亿鑫节能建材制造有限公司,2东城外21【纯农排变】,2东城外17【纯农排变】,西城砖厂南台,2东城外16【纯农排变】,2东城外7【纯农排变】,保定阿尔法精密制造技术有限公司,辛庄外2【纯农排变】,东城砖厂小,保定市清苑区兰生门窗加工厂,2东城外9【纯农排变】,0550170097-保定长城再生资源利用有限公司-专变-97974836-保定市长城再生资源利用有限公司,东城内3,2东城外12【纯农排变】,清苑县魏村镇诚信自然园养殖场,西城村内1号,2西城外4【纯农排变】,1西城内4,西城油化厂,西城化工厂,1东城内10,保定市全利粮食贸易有限公司,1东城内13,","scope":"【影响街道/乡镇】白团乡 【高危重要客户】无 【影响客户】辛庄、东城（东壁阳城）、西城（西壁阳城）、中冉","startTime":"2019-06-28 10:16:18","stopDate":"2019-06-28 11:30:00","orgNo":"1340618","typeCode":"电网故障停限电","poweroffArea":"【全线路停电】停1东城内9,保定鑫宇电子材料有限公司,保定惠生内饰材料制造有限公司,东城内1号,辛庄内2,辛庄外3【纯农排变】,1西城内5,保定飓风蓄电池有限公司,保定锐志恒远模板有限公司,辛庄外6【纯农排变】,2东城外13【纯农排变】,河北中尊园区开发有限公司,保定市清苑区住房和城乡建设局,2西城外5【纯农排变】,辛庄外7【纯农排变】,0632327894-河北京石高速公路开发有限公司-专变-144770542-河北省高速公路京石改扩建筹建处,2中冉外14【纯农排变】,东壁阳城小学,1东城内12,客户投资_1中冉内11,2东城外18【纯农排变】,保定市亿鑫节能建材制造有限公司,2东城外21【纯农排变】,2东城外17【纯农排变】,西城砖厂南台,2东城外16【纯农排变】,2东城外7【纯农排变】,保定阿尔法精密制造技术有限公司,辛庄外2【纯农排变】,东城砖厂小,保定市清苑区兰生门窗加工厂,2东城外9【纯农排变】,0550170097-保定长城再生资源利用有限公司-专变-97974836-保定市长城再生资源利用有限公司,东城内3,2东城外12【纯农排变】,清苑县魏村镇诚信自然园养殖场,西城村内1号,2西城外4【纯农排变】,1西城内4,西城油化厂,西城化工厂,1东城内10,保定市全利粮食贸易有限公司,1东城内13,2东城外19【纯农排变】,2东城外10【纯农排变】,1东城内7,四通养殖场,李运良,东城内5号,东城内6,2中冉外9【纯农排变】,2东城外14【纯农排变】,2西城外6【纯农排变】,河北建设集团有限公司,东城内2,1东城内14,2西城外8【纯农排变】,0600412845-保定巨威电器有限公司-专变-126631957-保定巨威电器有限公司,2中冉外8【纯农排变】,中国移动通讯集团河北有限公司清苑分公司,清苑县洪海水电结构施工队,辛庄内3,2西城外3【纯农排变】,0387483045-东城张兰国-专变-45311096-变压器,0387482459-花木公司-专变-45311093-变压器,辛庄内1,2东城外11【纯农排变】,西壁阳城幼儿园,2西城外7【纯农排变】,2西城外9【纯农排变】,2西城外10【纯农排变】,2中冉外32【纯农排变】,2中冉外18【纯农排变】,2东城外15【纯农排变】,西城黄满江,东城内4号,清苑县恒利机械厂,2中冉外19【纯农排变】,1东城内8,清苑县信义电器设备厂,1西城内3,西城村内2号,1东城内11,2东城外8【纯农排变】,辛庄外5【纯农排变】,2东城外6【纯农排变】,2东城外20【纯农排变】","poweroffReason":"【停电原因】由于主干４８号杆东Ｔ１４号杆Ｔ１１号杆北Ｔ１号杆修路车碰线导致１１０ＫＶ赵庄变电站１０ＫＶ西开区线５８４线路全线停电 【变更送电】因抢修进度加快原因，送电时间由１７：００变更为１１：３０ 【发布渠道】通过９５５９８发布","powerTime":"2019-06-28 11:07:38","powerComm":"张倩通知已送电","subsNo":"","lineNo":"","tgNo":"","tgName":null,"infoStatus":"1","orgName":"国网清苑县供电公司","typeName":null,"infoStatusName":null,"dateDay":null,"orgNos":null,"nowTime":null,"countyName":null,"streetName":null,"villageName":null,"roadName":null,"communityName":null,"tranName":null,"sdLineName":null,"cityCode":"1340618","cityName":"国网清苑县供电公司","provinceCode":null,"stopTime":"2019-06-28 11:30:00","powerType":"全部","powerOffArea":"【全线路停电】停1东城内9,保定鑫宇电子材料有限公司,保定惠生内饰材料制造有限公司,东城内1号,辛庄内2,辛庄外3【纯农排变】,1西城内5,保定飓风蓄电池有限公司,保定锐志恒远模板有限公司,辛庄外6【纯农排变】,2东城外13【纯农排变】,河北中尊园区开发有限公司,保定市清苑区住房和城乡建设局,2西城外5【纯农排变】,辛庄外7【纯农排变】,0632327894-河北京石高速公路开发有限公司-专变-144770542-河北省高速公路京石改扩建筹建处,2中冉外14【纯农排变】,东壁阳城小学,1东城内12,客户投资_1中冉内11,2东城外18【纯农排变】,保定市亿鑫节能建材制造有限公司,2东城外21【纯农排变】,2东城外17【纯农排变】,西城砖厂南台,2东城外16【纯农排变】,2东城外7【纯农排变】,保定阿尔法精密制造技术有限公司,辛庄外2【纯农排变】,东城砖厂小,保定市清苑区兰生门窗加工厂,2东城外9【纯农排变】,0550170097-保定长城再生资源利用有限公司-专变-97974836-保定市长城再生资源利用有限公司,东城内3,2东城外12【纯农排变】,清苑县魏村镇诚信自然园养殖场,西城村内1号,2西城外4【纯农排变】,1西城内4,西城油化厂,西城化工厂,1东城内10,保定市全利粮食贸易有限公司,1东城内13,2东城外19【纯农排变】,2东城外10【纯农排变】,1东城内7,四通养殖场,李运良,东城内5号,东城内6,2中冉外9【纯农排变】,2东城外14【纯农排变】,2西城外6【纯农排变】,河北建设集团有限公司,东城内2,1东城内14,2西城外8【纯农排变】,0600412845-保定巨威电器有限公司-专变-126631957-保定巨威电器有限公司,2中冉外8【纯农排变】,中国移动通讯集团河北有限公司清苑分公司,清苑县洪海水电结构施工队,辛庄内3,2西城外3【纯农排变】,0387483045-东城张兰国-专变-45311096-变压器,0387482459-花木公司-专变-45311093-变压器,辛庄内1,2东城外11【纯农排变】,西壁阳城幼儿园,2西城外7【纯农排变】,2西城外9【纯农排变】,2西城外10【纯农排变】,2中冉外32【纯农排变】,2中冉外18【纯农排变】,2东城外15【纯农排变】,西城黄满江,东城内4号,清苑县恒利机械厂,2中冉外19【纯农排变】,1东城内8,清苑县信义电器设备厂,1西城内3,西城村内2号,1东城内11,2东城外8【纯农排变】,辛庄外5【纯农排变】,2东城外6【纯农排变】,2东城外20【纯农排变】","powerOffReason":"【停电原因】由于主干４８号杆东Ｔ１４号杆Ｔ１１号杆北Ｔ１号杆修路车碰线导致１１０ＫＶ赵庄变电站１０ＫＶ西开区线５８４线路全线停电 【变更送电】因抢修进度加快原因，送电时间由１７：００变更为１１：３０ 【发布渠道】通过９５５９８发布","powerOffId":"2019062813000200"},{"poweroffId":2019062813000167,"sgpoweroffId":null,"subsName":"","lineName":"10KV南三店555","pubTranName":"酱各庄村东,","scope":"【影响街道/乡镇】高官庄镇 【高危重要客户】无 【影响客户】酱各庄村","startTime":"2019-07-08 08:00:00","stopDate":"2019-07-08 18:00:00","orgNo":"1340626","typeCode":"计划停电","poweroffArea":"【单台区停电】停酱各庄村东","poweroffReason":"【停电原因】由于导线架设工程导致１１０ＫＶ松林店变电站１０ＫＶ南三店５５５线路酱各庄村东公变台区停电 【变更送电】无 【发布渠道】涿州电视台（０６月２８日至０７月０７日２１：００播放２次）屏幕上方滚动","powerTime":"2019-07-08 17:45:15","powerComm":"恢复送电","subsNo":"","lineNo":"","tgNo":"","tgName":null,"infoStatus":"1","orgName":"国网涿州市供电公司","typeName":null,"infoStatusName":null,"dateDay":null,"orgNos":null,"nowTime":null,"countyName":null,"streetName":null,"villageName":null,"roadName":null,"communityName":null,"tranName":null,"sdLineName":null,"cityCode":"1340626","cityName":"国网涿州市供电公司","provinceCode":null,"stopTime":"2019-07-08 18:00:00","powerType":"全部","powerOffArea":"【单台区停电】停酱各庄村东","powerOffReason":"【停电原因】由于导线架设工程导致１１０ＫＶ松林店变电站１０ＫＶ南三店５５５线路酱各庄村东公变台区停电 【变更送电】无 【发布渠道】涿州电视台（０６月２８日至０７月０７日２１：００播放２次）屏幕上方滚动","powerOffId":"2019062813000167"},{"poweroffId":2019062813000131,"sgpoweroffId":null,"subsName":"","lineName":"10kV邓庄线513","pubTranName":"崔庄变压器,大董庄村变压器,郭庄西变压器,郭庄东地变压器【纯农排变】,邓庄面粉厂南,郭庄面粉厂,邓庄北变压器,邓庄西北变压器,郭庄地变压器【纯农排变】,凡庄变压器1,邓庄东变压器,凡庄2号地变压器【纯农排变】,郭庄东北台变压器,邓庄地变压器,邓庄南台变压器,邓庄3号地变压器,东高庄1号地变压器【纯农排变】,东高庄东南地变压器【纯农排变】,凡庄地变压器【纯农排变】,小董庄村变压器,邓庄排灌变压器【纯农排变】,东高庄西台变压器,邓庄东北,陶阳庄变压器,凡庄1号地变压器【纯农排变】,邓庄西变压器,邓庄中变压器,陶阳庄2号地变压器【纯农排变】,小董庄地变压器【纯农排变】,邓庄2号地变压器【纯农排变】,郭庄东变压器,邓庄1号地变压器【纯农排变】,邓庄北2,大董庄地变压器【纯农排变】,东高庄东北地变压器【纯农排变】,高碑店市泗庄镇邓庄小学变压器,大董庄东地变压器【纯农排变】,郭庄1号地变压器【纯农排变】,陶阳庄1号地变压器【纯农排变】,邓庄西南变压器,","scope":"【影响街道/乡镇】泗庄镇 【高危重要客户】无 【影响客户】崔庄村、邓庄村、小董庄村、大董庄村、郭庄村、陶阳庄村、凡庄村、东高庄村、郭庄面粉厂","startTime":"2019-07-07 06:00:00","stopDate":"2019-07-07 16:00:00","orgNo":"1340612","typeCode":"计划停电","poweroffArea":"【分支停电】停东高庄东南地变压器【纯农排变】,凡庄地变压器【纯农排变】,小董庄村变压器,邓庄排灌变压器【纯农排变】,东高庄西台变压器,邓庄东北,陶阳庄变压器,凡庄1号地变压器【纯农排变】,邓庄西变压器,陶阳庄2号地变压器【纯农排变】,小董庄地变压器【纯农排变】,邓庄2号地变压器【纯农排变】,郭庄东变压器,邓庄1号地变压器【纯农排变】,邓庄北2,大董庄地变压器【纯农排变】,东高庄东北地变压器【纯农排变】,高碑店市泗庄镇邓庄小学变压器,邓庄西南变压器,大董庄东地变压器【纯农排变】,郭庄1号地变压器【纯农排变】,陶阳庄1号地变压器【纯农排变】,邓庄中变压器,崔庄变压器,大董庄村变压器,郭庄西变压器,郭庄东地变压器【纯农排变】,邓庄面粉厂南,郭庄面粉厂,邓庄北变压器,邓庄西北变压器,郭庄地变压器【纯农排变】,凡庄变压器1,邓庄东变压器,凡庄2号地变压器【纯农排变】,郭庄东北台变压器,邓庄地变压器,邓庄南台变压器,邓庄3号地变压器,东高庄1号地变压器【纯农排变】","poweroffReason":"【停电原因】由于更换导线导致３５ＫＶ泗庄变电站１０ＫＶ邓庄５１３线路全线停电 【变更送电】因抢修进度加快原因，送电时间由２０：３０变更为１６：００ 【发布渠道】高碑店市高碑店电视台（６月２９日０８时至７月０６日１８时之间）屏幕上方滚动","powerTime":"2019-07-07 15:36:55","powerComm":"已送电","subsNo":"","lineNo":"","tgNo":"","tgName":null,"infoStatus":"1","orgName":"国网高碑店市供电公司","typeName":null,"infoStatusName":null,"dateDay":null,"orgNos":null,"nowTime":null,"countyName":null,"streetName":null,"villageName":null,"roadName":null,"communityName":null,"tranName":null,"sdLineName":null,"cityCode":"1340612","cityName":"国网高碑店市供电公司","provinceCode":null,"stopTime":"2019-07-07 16:00:00","powerType":"全部","powerOffArea":"【分支停电】停东高庄东南地变压器【纯农排变】,凡庄地变压器【纯农排变】,小董庄村变压器,邓庄排灌变压器【纯农排变】,东高庄西台变压器,邓庄东北,陶阳庄变压器,凡庄1号地变压器【纯农排变】,邓庄西变压器,陶阳庄2号地变压器【纯农排变】,小董庄地变压器【纯农排变】,邓庄2号地变压器【纯农排变】,郭庄东变压器,邓庄1号地变压器【纯农排变】,邓庄北2,大董庄地变压器【纯农排变】,东高庄东北地变压器【纯农排变】,高碑店市泗庄镇邓庄小学变压器,邓庄西南变压器,大董庄东地变压器【纯农排变】,郭庄1号地变压器【纯农排变】,陶阳庄1号地变压器【纯农排变】,邓庄中变压器,崔庄变压器,大董庄村变压器,郭庄西变压器,郭庄东地变压器【纯农排变】,邓庄面粉厂南,郭庄面粉厂,邓庄北变压器,邓庄西北变压器,郭庄地变压器【纯农排变】,凡庄变压器1,邓庄东变压器,凡庄2号地变压器【纯农排变】,郭庄东北台变压器,邓庄地变压器,邓庄南台变压器,邓庄3号地变压器,东高庄1号地变压器【纯农排变】","powerOffReason":"【停电原因】由于更换导线导致３５ＫＶ泗庄变电站１０ＫＶ邓庄５１３线路全线停电 【变更送电】因抢修进度加快原因，送电时间由２０：３０变更为１６：００ 【发布渠道】高碑店市高碑店电视台（６月２９日０８时至７月０６日１８时之间）屏幕上方滚动","powerOffId":"2019062813000131"},{"poweroffId":2019062813000125,"sgpoweroffId":null,"subsName":"","lineName":"义联庄线515","pubTranName":"白莲峪6号【纯农排变】,福雨加工厂,徐水县国兴装饰材料加工厂1号,五香坡供电所2号,五香坡2号,义联庄田庄2号,张庄1号,义联庄刘庄4号,徐水县盛宇豪石料加工场2号,义联庄刘庄2号,义联庄田庄1号,刘林庄2号,五香坡4号,徐水县明珠超细矿粉厂,徐水县宏大采石厂2号,枣园3号,徐水县太行山选矿厂（马庄）,徐水县义联庄龙祥采石厂4号,徐水县新发装饰材料厂,义联庄马庄3号,义联庄刘庄1号,保定市道路开发中心,赵庄1号,义联庄供电所4号,侯庄5号,徐水县宝珠超细矿粉厂变压器,马庄4#,义联庄丁庄1号,崔庄2号,崔庄3号,白莲峪4号,义联庄崔庄5号,五香坡(供3号),枣园2号【纯农排变】,崔庄6号【纯农排变】,张庄2号【纯农排变】,徐水县京西装饰材料厂,白莲峪2号【纯农排变】,义联庄刘庄6号,西黑山4号【纯农排变】,大王店西街5号【纯农排变】,五香坡1号,景庄2号,义联庄田庄3号,义联庄崔庄1号,赵庄2号,振兴建材厂,义联庄丁庄4号,候庄3号,义联庄东庄1号,义联庄丁庄2号【纯农排变】,义王庄1号,义联庄马庄1号,白莲峪1号,景庄5号【纯农排变】,辉煌选厂,徐水县白玉化工涂料有限公司,义联庄刘庄3号【纯农排变】,候庄6号【纯农排变】,变压器,白莲峪5号【纯农排变】,西黑山养鸡厂,徐水县义联庄龙祥采石厂1号,义王庄2号,徐水县福雨建材粉剂加工,五香坡3号,候庄1号,义联庄丁庄3号,候庄3队,枣园4号,西黑山2号,马庄供电所1号,保义精选厂,候庄4号,义联庄刘庄7号,周庄1号,义联庄刘庄5号【纯农排变】,徐水县白雪腻子粉厂,徐水县旺吉超细矿粉加工厂,崔庄4号,太行建材厂,义王庄3号,辉煌石料厂,鑫磊有限公司,义联庄马庄2号,周庄2号,福利氢钙厂,徐水县义联庄龙祥采石厂2号,义联庄环美涂料厂,徐水县义联庄龙祥采石厂3号,候庄2号,义联庄丁庄5号,徐水县宏大采石厂,徐水县盛宇豪石料加工厂1号,景庄4号,义联庄丁庄6号,徐水县义联庄超细钙粉厂,义联庄综合加工厂,景庄1号,徐水县太行山矿业厂（周庄）,五香坡5号,枣园1号,白莲峪3号,景庄3号,","scope":"【影响街道/乡镇】义联庄乡 【高危重要客户】无 【影响客户】大王店西街、刘庄、枣园、义联庄、西黑山、崔庄、周庄、侯庄、白莲峪、五香破、丁庄、田庄、景庄、义王庄、张庄","startTime":"2019-06-28 08:49:31","stopDate":"2019-06-28 11:00:00","orgNo":"1340605","typeCode":"电网故障停限电","poweroffArea":"【全线路停电】停大王店西街5号【纯农排变】,义联庄刘庄4号,义联庄丁庄2号【纯农排变】,枣园3号,徐水县国兴装饰材料加工厂1号,徐水县义联庄超细钙粉厂,义联庄田庄3号,西黑山2号,徐水县太行山矿业厂（周庄）,崔庄3号,徐水县盛宇豪石料加工厂1号,五香坡2号,鑫磊有限公司,义联庄刘庄6号,候庄6号【纯农排变】,周庄2号,白莲峪5号【纯农排变】,五香坡4号,变压器,义联庄丁庄4号,义联庄田庄2号,白莲峪1号,福雨加工厂,义联庄供电所4号,辉煌石料厂,崔庄6号【纯农排变】,义联庄刘庄7号,候庄1号,义联庄丁庄6号,赵庄1号,枣园1号,候庄3号,义联庄东庄1号,景庄3号,景庄5号【纯农排变】,马庄4#,义联庄田庄1号,五香坡(供3号),徐水县太行山选矿厂（马庄）,徐水县京西装饰材料厂,义王庄1号,侯庄5号,徐水县明珠超细矿粉厂,义联庄刘庄3号【纯农排变】,徐水县福雨建材粉剂加工,马庄供电所1号,徐水县白玉化工涂料有限公司,候庄2号,义联庄崔庄5号,义王庄3号,保义精选厂,西黑山养鸡厂,徐水县白雪腻子粉厂,徐水县宏大采石厂2号,五香坡供电所2号,义联庄刘庄5号【纯农排变】,义联庄马庄3号,五香坡5号,景庄2号,赵庄2号,枣园2号【纯农排变】,义联庄丁庄1号,张庄2号【纯农排变】,白莲峪6号【纯农排变】,义联庄丁庄5号,白莲峪3号,五香坡1号,景庄1号,义联庄丁庄3号,白莲峪2号【纯农排变】,张庄1号,义联庄马庄2号,徐水县旺吉超细矿粉加工厂,景庄4号,徐水县宝珠超细矿粉厂变压器,五香坡3号,枣园4号,西黑山4号【纯农排变】,候庄3队,徐水县新发装饰材料厂,振兴建材厂,徐水县宏大采石厂,辉煌选厂,徐水县义联庄龙祥采石厂4号,徐水县义联庄龙祥采石厂3号,徐水县义联庄龙祥采石厂1号,候庄4号,白莲峪4号,徐水县义联庄龙祥采石厂2号,义联庄崔庄1号,周庄1号,义联庄刘庄1号,刘林庄2号,崔庄4号,义联庄环美涂料厂,太行建材厂,徐水县盛宇豪石料加工场2号,福利氢钙厂,保定市道路开发中心,义联庄综合加工厂,崔庄2号,义联庄刘庄2号,义王庄2号,义联庄马庄1号","poweroffReason":"【停电原因】由于Ｂ相接地导致３５ＫＶ黑山变电站义联庄线５１５线路全线停电 【变更送电】因抢修进度加快原因，送电时间由２１:００变更为１１:００ 【发布渠道】通过９５５９８发布","powerTime":"2019-06-28 10:13:12","powerComm":"已送电","subsNo":"","lineNo":"","tgNo":"","tgName":null,"infoStatus":"1","orgName":"国网徐水县供电公司","typeName":null,"infoStatusName":null,"dateDay":null,"orgNos":null,"nowTime":null,"countyName":null,"streetName":null,"villageName":null,"roadName":null,"communityName":null,"tranName":null,"sdLineName":null,"cityCode":"1340605","cityName":"国网徐水县供电公司","provinceCode":null,"stopTime":"2019-06-28 11:00:00","powerType":"全部","powerOffArea":"【全线路停电】停大王店西街5号【纯农排变】,义联庄刘庄4号,义联庄丁庄2号【纯农排变】,枣园3号,徐水县国兴装饰材料加工厂1号,徐水县义联庄超细钙粉厂,义联庄田庄3号,西黑山2号,徐水县太行山矿业厂（周庄）,崔庄3号,徐水县盛宇豪石料加工厂1号,五香坡2号,鑫磊有限公司,义联庄刘庄6号,候庄6号【纯农排变】,周庄2号,白莲峪5号【纯农排变】,五香坡4号,变压器,义联庄丁庄4号,义联庄田庄2号,白莲峪1号,福雨加工厂,义联庄供电所4号,辉煌石料厂,崔庄6号【纯农排变】,义联庄刘庄7号,候庄1号,义联庄丁庄6号,赵庄1号,枣园1号,候庄3号,义联庄东庄1号,景庄3号,景庄5号【纯农排变】,马庄4#,义联庄田庄1号,五香坡(供3号),徐水县太行山选矿厂（马庄）,徐水县京西装饰材料厂,义王庄1号,侯庄5号,徐水县明珠超细矿粉厂,义联庄刘庄3号【纯农排变】,徐水县福雨建材粉剂加工,马庄供电所1号,徐水县白玉化工涂料有限公司,候庄2号,义联庄崔庄5号,义王庄3号,保义精选厂,西黑山养鸡厂,徐水县白雪腻子粉厂,徐水县宏大采石厂2号,五香坡供电所2号,义联庄刘庄5号【纯农排变】,义联庄马庄3号,五香坡5号,景庄2号,赵庄2号,枣园2号【纯农排变】,义联庄丁庄1号,张庄2号【纯农排变】,白莲峪6号【纯农排变】,义联庄丁庄5号,白莲峪3号,五香坡1号,景庄1号,义联庄丁庄3号,白莲峪2号【纯农排变】,张庄1号,义联庄马庄2号,徐水县旺吉超细矿粉加工厂,景庄4号,徐水县宝珠超细矿粉厂变压器,五香坡3号,枣园4号,西黑山4号【纯农排变】,候庄3队,徐水县新发装饰材料厂,振兴建材厂,徐水县宏大采石厂,辉煌选厂,徐水县义联庄龙祥采石厂4号,徐水县义联庄龙祥采石厂3号,徐水县义联庄龙祥采石厂1号,候庄4号,白莲峪4号,徐水县义联庄龙祥采石厂2号,义联庄崔庄1号,周庄1号,义联庄刘庄1号,刘林庄2号,崔庄4号,义联庄环美涂料厂,太行建材厂,徐水县盛宇豪石料加工场2号,福利氢钙厂,保定市道路开发中心,义联庄综合加工厂,崔庄2号,义联庄刘庄2号,义王庄2号,义联庄马庄1号","powerOffReason":"【停电原因】由于Ｂ相接地导致３５ＫＶ黑山变电站义联庄线５１５线路全线停电 【变更送电】因抢修进度加快原因，送电时间由２１:００变更为１１:００ 【发布渠道】通过９５５９８发布","powerOffId":"2019062813000125"},{"poweroffId":2019062813000123,"sgpoweroffId":null,"subsName":"","lineName":"10KV南三店555","pubTranName":"酱各庄1106,","scope":"【影响街道/乡镇】高官庄镇 【高危重要客户】无 【影响客户】酱各庄","startTime":"2019-07-08 08:00:00","stopDate":"2019-07-08 18:00:00","orgNo":"1340626","typeCode":"计划停电","poweroffArea":"【单台区停电】停酱各庄1106","poweroffReason":"【停电原因】由于导线架设工程导致１１０ＫＶ松林店变电站１０ＫＶ南三店５５５线路酱各庄１１０６公变台区停电 【变更送电】无 【发布渠道】涿州电视台（０６月２８日至０７月０７日２１：００播放２次）屏幕上方滚动","powerTime":"2019-07-08 17:45:44","powerComm":"恢复送电","subsNo":"","lineNo":"","tgNo":"","tgName":null,"infoStatus":"1","orgName":"国网涿州市供电公司","typeName":null,"infoStatusName":null,"dateDay":null,"orgNos":null,"nowTime":null,"countyName":null,"streetName":null,"villageName":null,"roadName":null,"communityName":null,"tranName":null,"sdLineName":null,"cityCode":"1340626","cityName":"国网涿州市供电公司","provinceCode":null,"stopTime":"2019-07-08 18:00:00","powerType":"全部","powerOffArea":"【单台区停电】停酱各庄1106","powerOffReason":"【停电原因】由于导线架设工程导致１１０ＫＶ松林店变电站１０ＫＶ南三店５５５线路酱各庄１１０６公变台区停电 【变更送电】无 【发布渠道】涿州电视台（０６月２８日至０７月０７日２１：００播放２次）屏幕上方滚动","powerOffId":"2019062813000123"},{"poweroffId":2019062813000113,"sgpoweroffId":null,"subsName":"","lineName":"北河线521","pubTranName":"红树营光3变压器,北河光13变压器,三里铺光,红树营光9,北河光7变压器,北河光2变压器,北河中学-400,民政局北河福利社,北河光15变压器,北河供电所公用,石家庄工务段,光明煤厂,保定华北环保工税技术有限责任公司,*耿东艳,北河虚拟（变）,*北河中学,北河光10,禾兴养猪厂分户公用,史清军颗粒厂,*忠义仙庄小区,北河光金三角,石家庄供电段-250,红树营光6变压器,红树营光4变压器,许昆-50,*北河镇政府,北河市场光1【2018年节能变】,北河光4变压器,北河光3变压器,北河中学1,北河光8变压器,北河供电所光,北河光3-2,北河光12变压器,北河排2【纯农排变】,北河光4,北河光9变压器,66157家属院,定兴县明城恒盛机动车检测有限公司-400,冠旭物业-1600,北河中学2,佳鑫房地产-630,*河北精益食品有限公司定兴分公司,红树营光3,","scope":"【影响街道/乡镇】北河镇 【高危重要客户】无 【影响客户】红术营、北河中学、三里铺、北河镇政府、火车站、北河市场、６６１５７家属院、忠义仙庄小区、禾兴养猪厂、定兴县明城恒盛机动车检测有限公司、冠旭物业、佳鑫房地产、河北精益食品有限公司定兴分公司、民政局北河福利社、光明煤厂、史清军颗粒、保定华北环保工税技术有限责任公司","startTime":"2019-06-28 08:15:02","stopDate":"2019-06-28 09:00:00","orgNo":"1340609","typeCode":"电网故障停限电","poweroffArea":"【全线路停电】停*北河镇政府,北河市场光1【2018年节能变】,北河光4变压器,北河光3变压器,北河中学1,北河排2【纯农排变】,北河光4,北河光9变压器,66157家属院,定兴县明城恒盛机动车检测有限公司-400,冠旭物业-1600,北河中学2,佳鑫房地产-630,*河北精益食品有限公司定兴分公司,红树营光3,红树营光3变压器,北河光13变压器,三里铺光,红树营光9,北河光7变压器,北河光2变压器,北河中学-400,民政局北河福利社,北河光15变压器,北河供电所公用,石家庄工务段,光明煤厂,保定华北环保工税技术有限责任公司,*耿东艳,北河虚拟（变）,*北河中学,北河光10,禾兴养猪厂分户公用,史清军颗粒厂,*忠义仙庄小区,北河光金三角,石家庄供电段-250,红树营光6变压器,红树营光4变压器,许昆-50,北河光8变压器,北河供电所光,北河光3-2,北河光12变压器","poweroffReason":"【停电原因】由于大桥分支６号杆树枝搭线导致１１０ＫＶ北河变电站北河线５２１线路全线停电 【变更送电】因抢修进度加快原因，送电时间由１２：００变更为０９：００ 【发布渠道】通过９５５９８发布","powerTime":"2019-06-28 08:52:14","powerComm":"已送电","subsNo":"","lineNo":"","tgNo":"","tgName":null,"infoStatus":"1","orgName":"国网定兴县供电公司","typeName":null,"infoStatusName":null,"dateDay":null,"orgNos":null,"nowTime":null,"countyName":null,"streetName":null,"villageName":null,"roadName":null,"communityName":null,"tranName":null,"sdLineName":null,"cityCode":"1340609","cityName":"国网定兴县供电公司","provinceCode":null,"stopTime":"2019-06-28 09:00:00","powerType":"全部","powerOffArea":"【全线路停电】停*北河镇政府,北河市场光1【2018年节能变】,北河光4变压器,北河光3变压器,北河中学1,北河排2【纯农排变】,北河光4,北河光9变压器,66157家属院,定兴县明城恒盛机动车检测有限公司-400,冠旭物业-1600,北河中学2,佳鑫房地产-630,*河北精益食品有限公司定兴分公司,红树营光3,红树营光3变压器,北河光13变压器,三里铺光,红树营光9,北河光7变压器,北河光2变压器,北河中学-400,民政局北河福利社,北河光15变压器,北河供电所公用,石家庄工务段,光明煤厂,保定华北环保工税技术有限责任公司,*耿东艳,北河虚拟（变）,*北河中学,北河光10,禾兴养猪厂分户公用,史清军颗粒厂,*忠义仙庄小区,北河光金三角,石家庄供电段-250,红树营光6变压器,红树营光4变压器,许昆-50,北河光8变压器,北河供电所光,北河光3-2,北河光12变压器","powerOffReason":"【停电原因】由于大桥分支６号杆树枝搭线导致１１０ＫＶ北河变电站北河线５２１线路全线停电 【变更送电】因抢修进度加快原因，送电时间由１２：００变更为０９：００ 【发布渠道】通过９５５９８发布","powerOffId":"2019062813000113"},{"poweroffId":2019062813000079,"sgpoweroffId":null,"subsName":"","lineName":"梁各庄线523","pubTranName":"北百泉村4#,","scope":"【影响街道/乡镇】梁各庄乡【高危重要客户】无【影响客户】北百泉村","startTime":"2019-06-28 06:57:28","stopDate":"2019-06-28 12:00:00","orgNo":"1340625","typeCode":"电网故障停限电","poweroffArea":"【单台区停电】停北百泉村4#","poweroffReason":"【停电原因】由于树砸断电线导致１１０ＫＶ西陵变电站梁各庄线５２３线路北百泉村４＃公变台区停电【变更送电】因抢修进度加快原因，送电时间由１４：００变更为１２：００【发布渠道】通过９５５９８发布","powerTime":"2019-06-28 11:34:58","powerComm":"已送电","subsNo":"","lineNo":"","tgNo":"","tgName":null,"infoStatus":"1","orgName":"国网易县供电公司","typeName":null,"infoStatusName":null,"dateDay":null,"orgNos":null,"nowTime":null,"countyName":null,"streetName":null,"villageName":null,"roadName":null,"communityName":null,"tranName":null,"sdLineName":null,"cityCode":"1340625","cityName":"国网易县供电公司","provinceCode":null,"stopTime":"2019-06-28 12:00:00","powerType":"全部","powerOffArea":"【单台区停电】停北百泉村4#","powerOffReason":"【停电原因】由于树砸断电线导致１１０ＫＶ西陵变电站梁各庄线５２３线路北百泉村４＃公变台区停电【变更送电】因抢修进度加快原因，送电时间由１４：００变更为１２：００【发布渠道】通过９５５９８发布","powerOffId":"2019062813000079"},{"poweroffId":2019062813000006,"sgpoweroffId":null,"subsName":"","lineName":"10kV513宋庄工业线","pubTranName":"桂林,二团,宋庄北浇地,艳军,恒业纺织有限公司3,宋庄四台区,瑞天纺织,宏业纺织厂,华泰纺织有限公司,大水,跃军,蠡县宋庄益源棉织厂变压器,恒业纺织变压器1,宋庄北二,|新金利纺织有限公司,恒业纺织有限公司5,威胜毛纺厂,金鑫纺织有限公司变压器,二涛,鑫达,永发,恒业纺织有限公司变压器2,小刚织布厂,顺成棉业,旭光毛纺厂,恒业纺织有限公司6,华泽纺织有限公司,新金利纺织有限公司,国中织布,金鑫纺织有限公司,宋庄浇地,","scope":"【影响街道/乡镇】林堡乡【高危重要客户】无【影响客户】宋庄工业区","startTime":"2019-06-28 00:13:54","stopDate":"2019-06-28 01:30:00","orgNo":"1340616","typeCode":"电网故障停限电","poweroffArea":"【全线路停电】停二涛,顺成棉业,艳军,华泰纺织有限公司,|新金利纺织有限公司,宋庄四台区,小刚织布厂,宋庄浇地,恒业纺织有限公司5,国中织布,二团,恒业纺织有限公司6,跃军,宏业纺织厂,威胜毛纺厂,金鑫纺织有限公司变压器,永发,大水,金鑫纺织有限公司,桂林,宋庄北浇地,新金利纺织有限公司,宋庄北二,鑫达,恒业纺织有限公司3,蠡县宋庄益源棉织厂变压器,恒业纺织有限公司变压器2,恒业纺织变压器1,瑞天纺织,华泽纺织有限公司,旭光毛纺厂","poweroffReason":"【停电原因】由于站外开关掉闸导致３５ＫＶ林堡变电站１０ＫＶ宋庄工业５１３线路全线停电【变更送电】因抢修进度加快原因，送电时间由０７：００变更为０１：３０【发布渠道】通过９５５９８发布","powerTime":"2019-06-28 00:58:18","powerComm":"已送电","subsNo":"","lineNo":"","tgNo":"","tgName":null,"infoStatus":"1","orgName":"国网蠡县供电公司","typeName":null,"infoStatusName":null,"dateDay":null,"orgNos":null,"nowTime":null,"countyName":null,"streetName":null,"villageName":null,"roadName":null,"communityName":null,"tranName":null,"sdLineName":null,"cityCode":"1340616","cityName":"国网蠡县供电公司","provinceCode":null,"stopTime":"2019-06-28 01:30:00","powerType":"全部","powerOffArea":"【全线路停电】停二涛,顺成棉业,艳军,华泰纺织有限公司,|新金利纺织有限公司,宋庄四台区,小刚织布厂,宋庄浇地,恒业纺织有限公司5,国中织布,二团,恒业纺织有限公司6,跃军,宏业纺织厂,威胜毛纺厂,金鑫纺织有限公司变压器,永发,大水,金鑫纺织有限公司,桂林,宋庄北浇地,新金利纺织有限公司,宋庄北二,鑫达,恒业纺织有限公司3,蠡县宋庄益源棉织厂变压器,恒业纺织有限公司变压器2,恒业纺织变压器1,瑞天纺织,华泽纺织有限公司,旭光毛纺厂","powerOffReason":"【停电原因】由于站外开关掉闸导致３５ＫＶ林堡变电站１０ＫＶ宋庄工业５１３线路全线停电【变更送电】因抢修进度加快原因，送电时间由０７：００变更为０１：３０【发布渠道】通过９５５９８发布","powerOffId":"2019062813000006"}],"pageModel":{"pageNow":891,"totalCount":10973,"totalPage":1098,"tableRows":0,"pageCount":10,"beginCount":8900},"isExperi":"1"}