{"message":"","today":"2020-06-15","seleList":[{"poweroffId":2020051413000239,"sgpoweroffId":null,"subsName":"","lineName":"西沟线514","pubTranName":"马连川,李佐村委会,寺角村边,石板山2号,东又大园,石佐河西,西峪新增,中峪东坡,南峪2号,翟佐下坡,","scope":"【影响街道/乡镇】神星镇 【影响客户】南峪（又）村、寺角村、中峪（又）村、东峪（又）村、石板山、西峪（又）村、翟家佐、马连川、李家佐","startTime":"2020-05-20 03:30:00","stopDate":"2020-05-21 02:30:00","orgNo":"1340617","typeCode":"临时停电","poweroffArea":"【全线路停电】停３５ＫＶ神星变电站西沟线５１４线路全线李佐村委会,寺角村边,石板山2号,东又大园,石佐河西,翟佐下坡,西峪新增,中峪东坡,马连川,南峪2号","poweroffReason":"【停电原因】由于配合市公司变电站工作导致３５ＫＶ神星变电站西沟线５１４线路全线停电 【变更送电】因抢修进度加快原因，送电时间由０６：００变更为０２：３０ 【发布渠道】通过９５５９８发布","powerTime":"2020-05-21 01:57:16","powerComm":"已送电","subsNo":"","lineNo":"","tgNo":"","tgName":null,"infoStatus":"1","orgName":"国网满城县供电公司","typeName":null,"infoStatusName":null,"dateDay":null,"orgNos":null,"nowTime":null,"countyName":null,"streetName":null,"villageName":null,"roadName":null,"communityName":null,"tranName":null,"sdLineName":null,"cityCode":"1340617","cityName":"国网满城县供电公司","provinceCode":null,"stopTime":"2020-05-21 02:30:00","powerType":"全部","powerOffArea":"【全线路停电】停３５ＫＶ神星变电站西沟线５１４线路全线李佐村委会,寺角村边,石板山2号,东又大园,石佐河西,翟佐下坡,西峪新增,中峪东坡,马连川,南峪2号","powerOffReason":"【停电原因】由于配合市公司变电站工作导致３５ＫＶ神星变电站西沟线５１４线路全线停电 【变更送电】因抢修进度加快原因，送电时间由０６：００变更为０２：３０ 【发布渠道】通过９５５９８发布","powerOffId":"2020051413000239"},{"poweroffId":2020051413000237,"sgpoweroffId":null,"subsName":"","lineName":"10kV512台头线","pubTranName":"北古山公用照明3台区,北古山公用照明5台区,北古山公用照明4台区,北古山村公用照明1台区,北古山村公用照明2台区,","scope":"【影响街道/乡镇】砖路镇【影响客户】北古山村","startTime":"2020-05-26 06:50:00","stopDate":"2020-05-26 18:00:00","orgNo":"1340610","typeCode":"计划停电","poweroffArea":"【分支停电】停３５ＫＶ吴家庄变电站１０ＫＶ５１２台头线路主干８５号杆１０号隔离开关以下线路，北古山公用照明3台区,北古山公用照明5台区,北古山公用照明4台区,北古山村公用照明1台区,北古山村公用照明2台区","poweroffReason":"【停电原因】由于更换导线导致３５ＫＶ吴家庄变电站１０ＫＶ５１２台头线路主干８５号杆１０号隔离开关以下线路停电 【变更送电】无 【发布渠道】河北省定州市定州日报第三版（２０２０年０５月２５日）","powerTime":"2020-05-26 17:52:33","powerComm":"已送电","subsNo":"","lineNo":"","tgNo":"","tgName":null,"infoStatus":"1","orgName":"国网定州市供电公司","typeName":null,"infoStatusName":null,"dateDay":null,"orgNos":null,"nowTime":null,"countyName":null,"streetName":null,"villageName":null,"roadName":null,"communityName":null,"tranName":null,"sdLineName":null,"cityCode":"1340610","cityName":"国网定州市供电公司","provinceCode":null,"stopTime":"2020-05-26 18:00:00","powerType":"全部","powerOffArea":"【分支停电】停３５ＫＶ吴家庄变电站１０ＫＶ５１２台头线路主干８５号杆１０号隔离开关以下线路，北古山公用照明3台区,北古山公用照明5台区,北古山公用照明4台区,北古山村公用照明1台区,北古山村公用照明2台区","powerOffReason":"【停电原因】由于更换导线导致３５ＫＶ吴家庄变电站１０ＫＶ５１２台头线路主干８５号杆１０号隔离开关以下线路停电 【变更送电】无 【发布渠道】河北省定州市定州日报第三版（２０２０年０５月２５日）","powerOffId":"2020051413000237"},{"poweroffId":2020051413000235,"sgpoweroffId":null,"subsName":"","lineName":"10kV550甄村线","pubTranName":"西甄村公用照明2台区(2),邢邑公用照明14台区,邢邑公用照明35台区,邢邑公用照明32台区,西甄村公用照明7台区,邢邑公用照明31台区,邢邑公用照明22台区,邢邑公用照明41台区1,邢邑公用照明34台区,邢邑村公用照明7台区(4),邢邑村公用照明3台区(2),东甄村公用照明1台区(1),邢邑公用照明28台区,西甄村公用照明6台区,邢邑村公用照明6台区(9),邢邑公用照明13台区,邢邑村公用照明8台区(3),邢邑公用照明19台区,邢邑公用照明27台区,东甄村公用照明7台区,邢邑村公用照明1台区(11),邢邑公用照明18台区,邢邑公用照明24台区,西甄村公用照明8台区,邢邑村公用照明4台区(12),东甄村公用照明3台区,邢邑村公用照明5台区(5),邢邑村公用照明9台区(6),西甄村公用照明1台区(1),邢邑公用照明36台区,邢邑公用照明16台区,邢邑公用照明21台区,邢邑公用照明29台区,西甄村公用照明3台区,邢邑公用照明25台区,邢邑公用照明23台区,邢邑公用照明30台区,东甄村公用照明6台区,西甄村公用照明5台区,邢邑村公用照明2台区(1),邢邑村公用照明10台区(7),邢邑公用照明33台区,东甄村公用照明9台区,邢邑公用照明20台区,邢邑公用照明17台区,东甄村公用照明5台区,邢邑公用照明15台区,东甄村公用照明4台区,东甄村公用照明2台区(2),邢邑公用照明26台区,邢邑村公用照明11台区(10),东甄村公用照明8台区,邢邑村公用照明12台区(8),邢邑公用照明38台区1,","scope":"【影响街道/乡镇】邢邑镇【影响客户】邢邑、西甄村、东甄村、庞村西","startTime":"2020-05-30 05:00:00","stopDate":"2020-05-30 20:00:00","orgNo":"1340610","typeCode":"计划停电","poweroffArea":"【全线路停电】停１１０ＫＶ庞村变电站１０ＫＶ５５０甄村线路全线，邢邑村公用照明11台区(10),东甄村公用照明8台区,邢邑村公用照明12台区(8),邢邑公用照明38台区1,邢邑村公用照明8台区(3),邢邑公用照明19台区,邢邑公用照明27台区,东甄村公用照明7台区,邢邑村公用照明1台区(11),邢邑公用照明18台区,邢邑公用照明24台区,西甄村公用照明8台区,邢邑村公用照明4台区(12),东甄村公用照明3台区,邢邑村公用照明5台区(5),东甄村公用照明2台区(2),邢邑村公用照明9台区(6),西甄村公用照明1台区(1),邢邑公用照明36台区,邢邑公用照明16台区,邢邑公用照明21台区,邢邑公用照明29台区,西甄村公用照明3台区,邢邑公用照明25台区,邢邑公用照明23台区,邢邑公用照明30台区,东甄村公用照明6台区,西甄村公用照明5台区,邢邑村公用照明2台区(1),邢邑村公用照明10台区(7),邢邑公用照明33台区,东甄村公用照明9台区,邢邑公用照明20台区,邢邑公用照明17台区,东甄村公用照明5台区,邢邑公用照明15台区,东甄村公用照明4台区,西甄村公用照明2台区(2),邢邑公用照明14台区,邢邑公用照明35台区,邢邑公用照明32台区,西甄村公用照明7台区,邢邑公用照明31台区,邢邑公用照明22台区,邢邑公用照明41台区1,邢邑公用照明34台区,邢邑村公用照明7台区(4),邢邑村公用照明3台区(2),东甄村公用照明1台区(1),邢邑公用照明28台区,西甄村公用照明6台区,邢邑村公用照明6台区(9),邢邑公用照明13台区,邢邑公用照明26台区","poweroffReason":"【停电原因】由于站内设备例行试验导致１１０ＫＶ庞村变电站１０ＫＶ５５０甄村线路全线停电 【变更送电】因抢修进度加快原因，送电时间由２１：００变更为２０：００ 【发布渠道】河北省定州市定州日报第三版（２０２０年０５月１５日）","powerTime":"2020-05-30 19:51:09","powerComm":"已送电","subsNo":"","lineNo":"","tgNo":"","tgName":null,"infoStatus":"1","orgName":"国网定州市供电公司","typeName":null,"infoStatusName":null,"dateDay":null,"orgNos":null,"nowTime":null,"countyName":null,"streetName":null,"villageName":null,"roadName":null,"communityName":null,"tranName":null,"sdLineName":null,"cityCode":"1340610","cityName":"国网定州市供电公司","provinceCode":null,"stopTime":"2020-05-30 20:00:00","powerType":"全部","powerOffArea":"【全线路停电】停１１０ＫＶ庞村变电站１０ＫＶ５５０甄村线路全线，邢邑村公用照明11台区(10),东甄村公用照明8台区,邢邑村公用照明12台区(8),邢邑公用照明38台区1,邢邑村公用照明8台区(3),邢邑公用照明19台区,邢邑公用照明27台区,东甄村公用照明7台区,邢邑村公用照明1台区(11),邢邑公用照明18台区,邢邑公用照明24台区,西甄村公用照明8台区,邢邑村公用照明4台区(12),东甄村公用照明3台区,邢邑村公用照明5台区(5),东甄村公用照明2台区(2),邢邑村公用照明9台区(6),西甄村公用照明1台区(1),邢邑公用照明36台区,邢邑公用照明16台区,邢邑公用照明21台区,邢邑公用照明29台区,西甄村公用照明3台区,邢邑公用照明25台区,邢邑公用照明23台区,邢邑公用照明30台区,东甄村公用照明6台区,西甄村公用照明5台区,邢邑村公用照明2台区(1),邢邑村公用照明10台区(7),邢邑公用照明33台区,东甄村公用照明9台区,邢邑公用照明20台区,邢邑公用照明17台区,东甄村公用照明5台区,邢邑公用照明15台区,东甄村公用照明4台区,西甄村公用照明2台区(2),邢邑公用照明14台区,邢邑公用照明35台区,邢邑公用照明32台区,西甄村公用照明7台区,邢邑公用照明31台区,邢邑公用照明22台区,邢邑公用照明41台区1,邢邑公用照明34台区,邢邑村公用照明7台区(4),邢邑村公用照明3台区(2),东甄村公用照明1台区(1),邢邑公用照明28台区,西甄村公用照明6台区,邢邑村公用照明6台区(9),邢邑公用照明13台区,邢邑公用照明26台区","powerOffReason":"【停电原因】由于站内设备例行试验导致１１０ＫＶ庞村变电站１０ＫＶ５５０甄村线路全线停电 【变更送电】因抢修进度加快原因，送电时间由２１：００变更为２０：００ 【发布渠道】河北省定州市定州日报第三版（２０２０年０５月１５日）","powerOffId":"2020051413000235"},{"poweroffId":2020051413000233,"sgpoweroffId":null,"subsName":"","lineName":"广场578","pubTranName":"0606211510-保定白沟新城融创万商企业管理服务有限公司-专变-127712384-和道国际辅料城2000,","scope":"【影响街道/乡镇】白沟镇 【高危重要客户】无 【影响客户】河道国际","startTime":"2020-05-18 00:00:00","stopDate":"2020-05-18 05:00:00","orgNo":"1340612","typeCode":"临时停电","poweroffArea":"【全线路停电】停0606211510-保定白沟新城融创万商企业管理服务有限公司-专变-127709579-和道国际辅料城1600,0606211510-保定白沟新城融创万商企业管理服务有限公司-专变-127256297-变压器2,0606211510-保定白沟新城融创万商企业管理服务有限公司-专变-127256294-变压器1,0606211510-保定白沟新城融创万商企业管理服务有限公司-专变-127712384-和道国际辅料城2000,0606211510-保定白沟新城融创万商企业管理服务有限公司-专变-127256299-变压器3","poweroffReason":"【停电原因】由于电源接引导致１１０ＫＶ南留变电站１０ＫＶ广场５７８线路全线停电 【变更送电】无 【发布渠道】高碑店市高碑店电视台（５月１５日８时至５月１７日１８时之间）屏幕上方滚动","powerTime":"2020-05-18 04:07:10","powerComm":"已送电","subsNo":"","lineNo":"","tgNo":"","tgName":null,"infoStatus":"1","orgName":"国网高碑店市供电公司","typeName":null,"infoStatusName":null,"dateDay":null,"orgNos":null,"nowTime":null,"countyName":null,"streetName":null,"villageName":null,"roadName":null,"communityName":null,"tranName":null,"sdLineName":null,"cityCode":"1340612","cityName":"国网高碑店市供电公司","provinceCode":null,"stopTime":"2020-05-18 05:00:00","powerType":"全部","powerOffArea":"【全线路停电】停0606211510-保定白沟新城融创万商企业管理服务有限公司-专变-127709579-和道国际辅料城1600,0606211510-保定白沟新城融创万商企业管理服务有限公司-专变-127256297-变压器2,0606211510-保定白沟新城融创万商企业管理服务有限公司-专变-127256294-变压器1,0606211510-保定白沟新城融创万商企业管理服务有限公司-专变-127712384-和道国际辅料城2000,0606211510-保定白沟新城融创万商企业管理服务有限公司-专变-127256299-变压器3","powerOffReason":"【停电原因】由于电源接引导致１１０ＫＶ南留变电站１０ＫＶ广场５７８线路全线停电 【变更送电】无 【发布渠道】高碑店市高碑店电视台（５月１５日８时至５月１７日１８时之间）屏幕上方滚动","powerOffId":"2020051413000233"},{"poweroffId":2020051413000230,"sgpoweroffId":null,"subsName":"","lineName":"边家务线525","pubTranName":"河西村南综合,湘连口北20综合,湘连口东22综合,庄头综合,湘连口新增综合,湘连口村西新增综合,湘连口西16综合,河西村东综合,庄头村西新增,庄头村新增综合,河西村综合,河西村北新增综合,南梁庄30综合,庄头村新增综合(123),湘连口村西北新增综合,河西村村里综合,湘连口70综合,湘连口村东北新增综合,湘连口村东南新增综合,湘连口村南新增综合,","scope":"【影响街道/乡镇】庞佐乡 【高危重要客户】无 【影响客户】南梁庄村西、河西村、庄头村、湘涟口村","startTime":"2020-05-14 15:40:01","stopDate":"2020-05-14 16:30:00","orgNo":"1340613","typeCode":"电网故障停限电","poweroffArea":"【分支停电】停河西村大队,湘连口西,湘连口东2,河西村东,河西村,河西村(西盘),河西村北新增综合,湘连口村东南新增综合,庄头村新增综合(123),华兴电器厂,湘连口村西北新增综合,永红电器设备公司,湘连口70综合,湘连口村东北新增综合,河西村南综合,湘连口北20综合,庞佐卫生院,湘连口东22综合,庄头综合,湘连口永发热镀厂,保定安凯电器设备制造有限公司变压器,湘连口新增综合,保定东华电力器材有限公司,庞佐联小,保定永红电器设备有限公司,东华电力器材公司,湘连口红旗厂,河西村村,南梁庄30综合,张亚辉,河西村村南,湘连口村西新增综合,保定双强电器设备有限公司,湘连口西16综合,河西村东综合,湘连口东洼6,湘连口,河西村东洼,湘连口东洼2,庄头村西新增,湘连口东洼,湘连口东洼3,湘连口大队,湘连口东洼5,庄头村新增综合,湘连口村南新增综合,河西村村里综合,河西村综合","poweroffReason":"【停电原因】由于外力破坏导致１１０ＫＶ西演变电站边家务５２５线路主线１０２号杆１０２号开关以下线路停电【变更送电】无【发布渠道】通过９５５９８发布","powerTime":"2020-05-14 16:24:18","powerComm":"已送电","subsNo":"","lineNo":"","tgNo":"","tgName":null,"infoStatus":"1","orgName":"国网高阳县供电公司","typeName":null,"infoStatusName":null,"dateDay":null,"orgNos":null,"nowTime":null,"countyName":null,"streetName":null,"villageName":null,"roadName":null,"communityName":null,"tranName":null,"sdLineName":null,"cityCode":"1340613","cityName":"国网高阳县供电公司","provinceCode":null,"stopTime":"2020-05-14 16:30:00","powerType":"全部","powerOffArea":"【分支停电】停河西村大队,湘连口西,湘连口东2,河西村东,河西村,河西村(西盘),河西村北新增综合,湘连口村东南新增综合,庄头村新增综合(123),华兴电器厂,湘连口村西北新增综合,永红电器设备公司,湘连口70综合,湘连口村东北新增综合,河西村南综合,湘连口北20综合,庞佐卫生院,湘连口东22综合,庄头综合,湘连口永发热镀厂,保定安凯电器设备制造有限公司变压器,湘连口新增综合,保定东华电力器材有限公司,庞佐联小,保定永红电器设备有限公司,东华电力器材公司,湘连口红旗厂,河西村村,南梁庄30综合,张亚辉,河西村村南,湘连口村西新增综合,保定双强电器设备有限公司,湘连口西16综合,河西村东综合,湘连口东洼6,湘连口,河西村东洼,湘连口东洼2,庄头村西新增,湘连口东洼,湘连口东洼3,湘连口大队,湘连口东洼5,庄头村新增综合,湘连口村南新增综合,河西村村里综合,河西村综合","powerOffReason":"【停电原因】由于外力破坏导致１１０ＫＶ西演变电站边家务５２５线路主线１０２号杆１０２号开关以下线路停电【变更送电】无【发布渠道】通过９５５９８发布","powerOffId":"2020051413000230"},{"poweroffId":2020051413000227,"sgpoweroffId":null,"subsName":"","lineName":"箱包577","pubTranName":"0606219628-保定白沟新城融创万商企业管理服务有限公司-专变-127256246-变压器3,","scope":"【影响街道/乡镇】白沟镇 【高危重要客户】无 【影响客户】河道国际","startTime":"2020-05-18 00:00:00","stopDate":"2020-05-18 05:00:00","orgNo":"1340612","typeCode":"临时停电","poweroffArea":"【全线路停电】停0606219628-保定白沟新城融创万商企业管理服务有限公司-专变-127256246-变压器3,0606219628-保定白沟新城融创万商企业管理服务有限公司-专变-127256243-变压器1,0606219628-保定白沟新城融创万商企业管理服务有限公司-专变-127253172-变压器2","poweroffReason":"【停电原因】由于配变接引导致１１０ＫＶ南留变电站１０ＫＶ箱包５７７线路全线停电 【变更送电】无 【发布渠道】高碑店市高碑店电视台（５月１５日８时至５月１７日１８时之间）屏幕上方滚动","powerTime":"2020-05-18 04:05:47","powerComm":"已送电","subsNo":"","lineNo":"","tgNo":"","tgName":null,"infoStatus":"1","orgName":"国网高碑店市供电公司","typeName":null,"infoStatusName":null,"dateDay":null,"orgNos":null,"nowTime":null,"countyName":null,"streetName":null,"villageName":null,"roadName":null,"communityName":null,"tranName":null,"sdLineName":null,"cityCode":"1340612","cityName":"国网高碑店市供电公司","provinceCode":null,"stopTime":"2020-05-18 05:00:00","powerType":"全部","powerOffArea":"【全线路停电】停0606219628-保定白沟新城融创万商企业管理服务有限公司-专变-127256246-变压器3,0606219628-保定白沟新城融创万商企业管理服务有限公司-专变-127256243-变压器1,0606219628-保定白沟新城融创万商企业管理服务有限公司-专变-127253172-变压器2","powerOffReason":"【停电原因】由于配变接引导致１１０ＫＶ南留变电站１０ＫＶ箱包５７７线路全线停电 【变更送电】无 【发布渠道】高碑店市高碑店电视台（５月１５日８时至５月１７日１８时之间）屏幕上方滚动","powerOffId":"2020051413000227"},{"poweroffId":2020051413000222,"sgpoweroffId":null,"subsName":"","lineName":"10kV548六家村线","pubTranName":"六家村公用照明4台区,北高蓬村公用照明6台区,北高蓬村公用照明7台区,六家村公用照明8台区,南高蓬村公用照明1台区,曹家庄公用照明4台,北高蓬村公用照明4台区,北高蓬公用照明20台区,北高蓬村公用照明18台区,北高蓬村公用照明2台区,北高蓬公用照明9台区,富村公用照明3台区,北高蓬公用照明17台区,北高蓬公用照明15台区,北高蓬村公用照明14台区,北高蓬村公用照明16台区,曹家庄公用照明3台区,北高蓬公用照明24台区,六家村公用照明5台区,南高蓬村公用照明2台区,北高蓬村公用照明1台区,北高蓬公用照明10台区,北高蓬公用照明19台区,六家村公用照明6台区,北高蓬公用照明13台区,六家村公用照明3台区,客户投资_北高蓬公用照明3台区,富村公用照明1台区(1),北高蓬公用照明11台区,六家村公用照明9台区1,定州市高蓬镇卫生院变压器,北高蓬公用照明22台区,北高蓬村公用照明8台区,曹家庄公用照明6台区,六家村公用照明7台区,北高蓬村公用照明5台区,北高蓬公用照明12台区,北高蓬公用照明23台区1,六家村公用照明2台区,南高蓬公用照明3台区,六家村公用照明1台区,曹家庄公用照明5台区,北高蓬村公用照明21台区,曹家庄公用照明2台区(2),富村公用照明2台区,曹家庄公用照明1台区(1),","scope":"【影响街道/乡镇】高蓬镇【影响客户】富村、曹家庄、南高蓬、北高蓬、六家村、庞村村北","startTime":"2020-05-30 05:00:00","stopDate":"2020-05-30 20:00:00","orgNo":"1340610","typeCode":"计划停电","poweroffArea":"【全线路停电】停１１０ＫＶ庞村变电站１０ＫＶ５４８六家村线路全线，北高蓬公用照明23台区1,六家村公用照明2台区,南高蓬公用照明3台区,六家村公用照明1台区,曹家庄公用照明5台区,北高蓬村公用照明21台区,曹家庄公用照明2台区(2),富村公用照明2台区,曹家庄公用照明1台区(1),六家村公用照明4台区,北高蓬村公用照明6台区,北高蓬村公用照明7台区,六家村公用照明8台区,南高蓬村公用照明1台区,曹家庄公用照明4台,北高蓬村公用照明4台区,北高蓬公用照明20台区,北高蓬村公用照明18台区,北高蓬村公用照明2台区,北高蓬公用照明9台区,客户投资_北高蓬公用照明3台区,富村公用照明1台区(1),北高蓬公用照明11台区,六家村公用照明9台区1,定州市高蓬镇卫生院变压器,北高蓬公用照明22台区,北高蓬村公用照明8台区,曹家庄公用照明6台区,六家村公用照明7台区,北高蓬村公用照明5台区,北高蓬公用照明12台区,富村公用照明3台区,北高蓬公用照明17台区,北高蓬公用照明15台区,北高蓬村公用照明14台区,北高蓬村公用照明16台区,曹家庄公用照明3台区,北高蓬公用照明24台区,六家村公用照明5台区,南高蓬村公用照明2台区,北高蓬村公用照明1台区,北高蓬公用照明10台区,北高蓬公用照明19台区,六家村公用照明6台区,北高蓬公用照明13台区,六家村公用照明3台区","poweroffReason":"【停电原因】由于站内设备例行试验导致１１０ＫＶ庞村变电站１０ＫＶ５４８六家村线路全线停电 【变更送电】因抢修进度加快原因，送电时间由２１：００变更为２０：００ 【发布渠道】河北省定州市定州日报第三版（２０２０年０５月１５日）","powerTime":"2020-05-30 19:51:22","powerComm":"已送电","subsNo":"","lineNo":"","tgNo":"","tgName":null,"infoStatus":"1","orgName":"国网定州市供电公司","typeName":null,"infoStatusName":null,"dateDay":null,"orgNos":null,"nowTime":null,"countyName":null,"streetName":null,"villageName":null,"roadName":null,"communityName":null,"tranName":null,"sdLineName":null,"cityCode":"1340610","cityName":"国网定州市供电公司","provinceCode":null,"stopTime":"2020-05-30 20:00:00","powerType":"全部","powerOffArea":"【全线路停电】停１１０ＫＶ庞村变电站１０ＫＶ５４８六家村线路全线，北高蓬公用照明23台区1,六家村公用照明2台区,南高蓬公用照明3台区,六家村公用照明1台区,曹家庄公用照明5台区,北高蓬村公用照明21台区,曹家庄公用照明2台区(2),富村公用照明2台区,曹家庄公用照明1台区(1),六家村公用照明4台区,北高蓬村公用照明6台区,北高蓬村公用照明7台区,六家村公用照明8台区,南高蓬村公用照明1台区,曹家庄公用照明4台,北高蓬村公用照明4台区,北高蓬公用照明20台区,北高蓬村公用照明18台区,北高蓬村公用照明2台区,北高蓬公用照明9台区,客户投资_北高蓬公用照明3台区,富村公用照明1台区(1),北高蓬公用照明11台区,六家村公用照明9台区1,定州市高蓬镇卫生院变压器,北高蓬公用照明22台区,北高蓬村公用照明8台区,曹家庄公用照明6台区,六家村公用照明7台区,北高蓬村公用照明5台区,北高蓬公用照明12台区,富村公用照明3台区,北高蓬公用照明17台区,北高蓬公用照明15台区,北高蓬村公用照明14台区,北高蓬村公用照明16台区,曹家庄公用照明3台区,北高蓬公用照明24台区,六家村公用照明5台区,南高蓬村公用照明2台区,北高蓬村公用照明1台区,北高蓬公用照明10台区,北高蓬公用照明19台区,六家村公用照明6台区,北高蓬公用照明13台区,六家村公用照明3台区","powerOffReason":"【停电原因】由于站内设备例行试验导致１１０ＫＶ庞村变电站１０ＫＶ５４８六家村线路全线停电 【变更送电】因抢修进度加快原因，送电时间由２１：００变更为２０：００ 【发布渠道】河北省定州市定州日报第三版（２０２０年０５月１５日）","powerOffId":"2020051413000222"},{"poweroffId":2020051413000215,"sgpoweroffId":null,"subsName":"","lineName":"10kV545钮店线","pubTranName":"钮店公用照明13台区,钮店公用照明14台区,钮店公用照明11台区,钮店公用照明1台区(7),钮店公用照明8台区,钮店公用照明7台区(2),钮店公用照明3台区(5),钮店公用照明4台区(5),钮店公用照明10台区,钮店公用照明2台区(6),钮店公用照明15台区1,钮店公用照明9台区,钮店公用照明12台区,钮店公用照明6台区(1),钮店公用照明21台区,钮店公用照明5台区(3),","scope":"【影响街道/乡镇】高蓬镇【影响客户】钮店、东王郝村东北、牛村庄","startTime":"2020-05-30 05:00:00","stopDate":"2020-05-30 20:00:00","orgNo":"1340610","typeCode":"计划停电","poweroffArea":"【全线路停电】停１１０ＫＶ庞村变电站１０ＫＶ５４５钮店线路全线，钮店公用照明13台区,钮店公用照明14台区,钮店公用照明11台区,钮店公用照明1台区(7),钮店公用照明8台区,钮店公用照明7台区(2),钮店公用照明3台区(5),钮店公用照明4台区(5),钮店公用照明10台区,钮店公用照明2台区(6),钮店公用照明15台区1,钮店公用照明9台区,钮店公用照明12台区,钮店公用照明6台区(1),钮店公用照明21台区,钮店公用照明5台区(3)","poweroffReason":"【停电原因】由于站内设备例行试验导致１１０ＫＶ庞村变电站１０ＫＶ５４５钮店线路全线停电 【变更送电】因抢修进度加快原因，送电时间由２１：００变更为２０：００ 【发布渠道】河北省定州市定州日报第三版（２０２０年０５月１５日）","powerTime":"2020-05-30 19:51:35","powerComm":"已送电","subsNo":"","lineNo":"","tgNo":"","tgName":null,"infoStatus":"1","orgName":"国网定州市供电公司","typeName":null,"infoStatusName":null,"dateDay":null,"orgNos":null,"nowTime":null,"countyName":null,"streetName":null,"villageName":null,"roadName":null,"communityName":null,"tranName":null,"sdLineName":null,"cityCode":"1340610","cityName":"国网定州市供电公司","provinceCode":null,"stopTime":"2020-05-30 20:00:00","powerType":"全部","powerOffArea":"【全线路停电】停１１０ＫＶ庞村变电站１０ＫＶ５４５钮店线路全线，钮店公用照明13台区,钮店公用照明14台区,钮店公用照明11台区,钮店公用照明1台区(7),钮店公用照明8台区,钮店公用照明7台区(2),钮店公用照明3台区(5),钮店公用照明4台区(5),钮店公用照明10台区,钮店公用照明2台区(6),钮店公用照明15台区1,钮店公用照明9台区,钮店公用照明12台区,钮店公用照明6台区(1),钮店公用照明21台区,钮店公用照明5台区(3)","powerOffReason":"【停电原因】由于站内设备例行试验导致１１０ＫＶ庞村变电站１０ＫＶ５４５钮店线路全线停电 【变更送电】因抢修进度加快原因，送电时间由２１：００变更为２０：００ 【发布渠道】河北省定州市定州日报第三版（２０２０年０５月１５日）","powerOffId":"2020051413000215"},{"poweroffId":2020051413000214,"sgpoweroffId":null,"subsName":"","lineName":"方顺桥线515","pubTranName":"太平庄村内2号,方顺桥,谭头村北新增,南固店村西新增,","scope":"【影响街道/乡镇】方顺桥乡 【影响客户】南固店、方顺桥、谭头、太平庄","startTime":"2020-05-16 06:00:00","stopDate":"2020-05-16 18:00:00","orgNo":"1340617","typeCode":"临时停电","poweroffArea":"【全线路停电】停１１０ＫＶ西原变电站方顺桥线５１５线路全线南固店村西新增,太平庄村内2号,方顺桥,谭头村北新增","poweroffReason":"【停电原因】由于线路检修导致１１０ＫＶ西原变电站方顺桥线５１５线路全线停电 【变更送电】无 【发布渠道】通过９５５９８发布","powerTime":"2020-05-16 17:31:16","powerComm":"已送电","subsNo":"","lineNo":"","tgNo":"","tgName":null,"infoStatus":"1","orgName":"国网满城县供电公司","typeName":null,"infoStatusName":null,"dateDay":null,"orgNos":null,"nowTime":null,"countyName":null,"streetName":null,"villageName":null,"roadName":null,"communityName":null,"tranName":null,"sdLineName":null,"cityCode":"1340617","cityName":"国网满城县供电公司","provinceCode":null,"stopTime":"2020-05-16 18:00:00","powerType":"全部","powerOffArea":"【全线路停电】停１１０ＫＶ西原变电站方顺桥线５１５线路全线南固店村西新增,太平庄村内2号,方顺桥,谭头村北新增","powerOffReason":"【停电原因】由于线路检修导致１１０ＫＶ西原变电站方顺桥线５１５线路全线停电 【变更送电】无 【发布渠道】通过９５５９８发布","powerOffId":"2020051413000214"},{"poweroffId":2020051413000212,"sgpoweroffId":null,"subsName":"","lineName":"10kV544牛村线","pubTranName":"东王郝公用照明6台区,东王郝村公用照明4台区,东牛村公用照明6台区,西牛村公用照明4台区,西牛村公用照明2台区(1),东牛村公用照明7台区,西牛村公用照明5台区,东王郝公用照明7台区,东牛村公用照明2台区(1),西牛村公用照明1台区(2),东王郝公用照明8台区,东王郝村公用照明1台区(1),牛村庄公用照明1台区,东王郝村公用照明2台区(2),东王郝村公用照明3台区(3),东牛村公用照明4台区,东牛村公用照明3台区,西牛村公用照明7台区,东王郝公用照明5台区,西牛村公用照明8台区1,东牛村公用照明5台区,西牛村公用照明3台区(3),西牛村新民居公用照明1台区,东牛村公用照明1台区(2),西牛村公用照明6台区,","scope":"【影响街道/乡镇】息仲镇、高蓬镇【影响客户】东王郝、西牛村、东牛村、钮店村","startTime":"2020-05-30 05:00:00","stopDate":"2020-05-30 20:00:00","orgNo":"1340610","typeCode":"计划停电","poweroffArea":"【全线路停电】停１１０ＫＶ庞村变电站１０ＫＶ５４４牛村线路全线，东牛村公用照明1台区(2),西牛村公用照明8台区1,东王郝公用照明6台区,东王郝村公用照明4台区,东牛村公用照明6台区,西牛村公用照明4台区,西牛村公用照明2台区(1),东牛村公用照明7台区,西牛村公用照明5台区,东王郝公用照明7台区,东牛村公用照明2台区(1),西牛村公用照明1台区(2),东王郝公用照明8台区,东王郝村公用照明1台区(1),牛村庄公用照明1台区,东王郝村公用照明2台区(2),东王郝村公用照明3台区(3),东牛村公用照明4台区,东牛村公用照明3台区,西牛村公用照明7台区,东王郝公用照明5台区,西牛村公用照明6台区,东牛村公用照明5台区,西牛村公用照明3台区(3),西牛村新民居公用照明1台区","poweroffReason":"【停电原因】由于站内设备例行试验导致１１０ＫＶ庞村变电站１０ＫＶ５４４牛村线路全线停电 【变更送电】因抢修进度加快原因，送电时间由２１：００变更为２０：００ 【发布渠道】河北省定州市定州日报第三版（２０２０年０５月１５日）","powerTime":"2020-05-30 19:51:48","powerComm":"已送电","subsNo":"","lineNo":"","tgNo":"","tgName":null,"infoStatus":"1","orgName":"国网定州市供电公司","typeName":null,"infoStatusName":null,"dateDay":null,"orgNos":null,"nowTime":null,"countyName":null,"streetName":null,"villageName":null,"roadName":null,"communityName":null,"tranName":null,"sdLineName":null,"cityCode":"1340610","cityName":"国网定州市供电公司","provinceCode":null,"stopTime":"2020-05-30 20:00:00","powerType":"全部","powerOffArea":"【全线路停电】停１１０ＫＶ庞村变电站１０ＫＶ５４４牛村线路全线，东牛村公用照明1台区(2),西牛村公用照明8台区1,东王郝公用照明6台区,东王郝村公用照明4台区,东牛村公用照明6台区,西牛村公用照明4台区,西牛村公用照明2台区(1),东牛村公用照明7台区,西牛村公用照明5台区,东王郝公用照明7台区,东牛村公用照明2台区(1),西牛村公用照明1台区(2),东王郝公用照明8台区,东王郝村公用照明1台区(1),牛村庄公用照明1台区,东王郝村公用照明2台区(2),东王郝村公用照明3台区(3),东牛村公用照明4台区,东牛村公用照明3台区,西牛村公用照明7台区,东王郝公用照明5台区,西牛村公用照明6台区,东牛村公用照明5台区,西牛村公用照明3台区(3),西牛村新民居公用照明1台区","powerOffReason":"【停电原因】由于站内设备例行试验导致１１０ＫＶ庞村变电站１０ＫＶ５４４牛村线路全线停电 【变更送电】因抢修进度加快原因，送电时间由２１：００变更为２０：００ 【发布渠道】河北省定州市定州日报第三版（２０２０年０５月１５日）","powerOffId":"2020051413000212"}],"pageModel":{"pageNow":73,"totalCount":10973,"totalPage":1098,"tableRows":0,"pageCount":10,"beginCount":720},"isExperi":"1"}