{"message":"","today":"2020-06-15","seleList":[{"poweroffId":2019062813000001,"sgpoweroffId":null,"subsName":"","lineName":"10kV514林堡线","pubTranName":"林堡综合5台区,宋庄南1号,林堡综合11台区,东子,砖厂东南2,宋庄南2号,林堡综合20台区,大柳树农场,宋庄水泥构件厂变压器,林堡综合3台区,华泽纺织有限公司,占利,林堡综合15台区,马军板厂,新8号,宋庄综合8台区,林堡综合9台区,浇地2号,新3号,蠡县宋庄恒威棉织厂变压器,林堡6号,林堡综合6台区,林堡新1号,齐根浇地,林堡综合4台区,永旺,新四号,林堡新4号,牛厂1号,林堡5号,林堡综合10台区,浇地5号,新9号,猪厂7号,华益,林堡站用,林堡2号,林堡综合16台区,新10号,小新鸡厂,落地3号,林堡综合13台区,林堡1号,宋庄板厂,胜园,砖厂东南1,双乐团绒,宋庄毛纺厂（清飞）,林堡综合12台区,荣顺祥,林堡综合1台区,林堡综合2台区,林堡新2号,新5号,林堡综合8台区,新6号,宋庄砖厂,","scope":"【影响街道/乡镇】林堡乡【高危重要客户】无【影响客户】林堡村","startTime":"2019-06-28 00:03:07","stopDate":"2019-06-28 01:30:00","orgNo":"1340616","typeCode":"电网故障停限电","poweroffArea":"【全线路停电】停林堡6号,华益,宋庄南2号,宋庄南1号,浇地5号,林堡综合15台区,林堡综合1台区,林堡综合6台区,新四号,新3号,新5号,浇地2号,新6号,牛厂1号,猪厂7号,林堡综合12台区,林堡综合5台区,林堡新4号,林堡综合4台区,林堡综合10台区,宋庄综合8台区,林堡新1号,林堡综合11台区,林堡新2号,林堡综合20台区,蠡县宋庄恒威棉织厂变压器,林堡综合8台区,东子,砖厂东南2,双乐团绒,小新鸡厂,宋庄毛纺厂（清飞）,永旺,新10号,落地3号,宋庄水泥构件厂变压器,新9号,占利,马军板厂,齐根浇地,胜园,砖厂东南1,林堡综合3台区,新8号,林堡站用,宋庄砖厂,大柳树农场,林堡综合9台区,宋庄板厂,华泽纺织有限公司,荣顺祥,林堡2号,林堡1号,林堡5号,林堡综合2台区,林堡综合13台区,林堡综合16台区","poweroffReason":"【停电原因】由于站外开关掉闸导致３５ＫＶ林堡变电站１０ＫＶ林堡５１４线路全线停电【变更送电】因抢修进度加快原因，送电时间由０７：００变更为０１：３０【发布渠道】通过９５５９８发布","powerTime":"2019-06-28 00:58:00","powerComm":"已送电","subsNo":"","lineNo":"","tgNo":"","tgName":null,"infoStatus":"1","orgName":"国网蠡县供电公司","typeName":null,"infoStatusName":null,"dateDay":null,"orgNos":null,"nowTime":null,"countyName":null,"streetName":null,"villageName":null,"roadName":null,"communityName":null,"tranName":null,"sdLineName":null,"cityCode":"1340616","cityName":"国网蠡县供电公司","provinceCode":null,"stopTime":"2019-06-28 01:30:00","powerType":"全部","powerOffArea":"【全线路停电】停林堡6号,华益,宋庄南2号,宋庄南1号,浇地5号,林堡综合15台区,林堡综合1台区,林堡综合6台区,新四号,新3号,新5号,浇地2号,新6号,牛厂1号,猪厂7号,林堡综合12台区,林堡综合5台区,林堡新4号,林堡综合4台区,林堡综合10台区,宋庄综合8台区,林堡新1号,林堡综合11台区,林堡新2号,林堡综合20台区,蠡县宋庄恒威棉织厂变压器,林堡综合8台区,东子,砖厂东南2,双乐团绒,小新鸡厂,宋庄毛纺厂（清飞）,永旺,新10号,落地3号,宋庄水泥构件厂变压器,新9号,占利,马军板厂,齐根浇地,胜园,砖厂东南1,林堡综合3台区,新8号,林堡站用,宋庄砖厂,大柳树农场,林堡综合9台区,宋庄板厂,华泽纺织有限公司,荣顺祥,林堡2号,林堡1号,林堡5号,林堡综合2台区,林堡综合13台区,林堡综合16台区","powerOffReason":"【停电原因】由于站外开关掉闸导致３５ＫＶ林堡变电站１０ＫＶ林堡５１４线路全线停电【变更送电】因抢修进度加快原因，送电时间由０７：００变更为０１：３０【发布渠道】通过９５５９８发布","powerOffId":"2019062813000001"},{"poweroffId":2019062713000673,"sgpoweroffId":null,"subsName":"","lineName":"10kV511潘营线","pubTranName":"王辛庄综合4台区,沟南,王辛庄综合5台区,加弹厂北,砖厂北,王辛庄村东,志敏房,王辛庄小学西,王辛庄综合10台区,加弹厂浇地,林曲南1号,林曲北1号,王辛庄综合11台区,林曲北2号,朱坟,客户投资_王辛庄综合3台区,蛮营道,王辛庄综合13台区【冬季供暖设施】,王辛庄综合14台区,林堡综合21台区,王辛庄综合7台区,王辛庄综合8台区,王辛庄综合12台区.,面粉厂,志敏房东,王辛庄综合2台区,板厂,渡槽西,潘西砖厂,王辛庄综合9台区,渡槽,王辛庄综合3台区,王辛庄综合1台区,林曲路南新变,（2）6台区西营道,中国联合网络通信有限公司蠡县分公司变压器,蛮营道东,王辛庄综合6台区,","scope":"【影响街道/乡镇】林堡乡【高危重要客户】无【影响客户】王辛庄村","startTime":"2019-06-27 23:56:32","stopDate":"2019-06-28 01:30:00","orgNo":"1340616","typeCode":"电网故障停限电","poweroffArea":"【全线路停电】停蛮营道,王辛庄综合8台区,王辛庄综合12台区.,王辛庄综合7台区,面粉厂,志敏房东,王辛庄综合2台区,板厂,渡槽西,潘西砖厂,王辛庄综合9台区,渡槽,王辛庄综合3台区,王辛庄综合1台区,林曲路南新变,（2）6台区西营道,中国联合网络通信有限公司蠡县分公司变压器,蛮营道东,王辛庄综合6台区,沟南,王辛庄综合5台区,加弹厂北,砖厂北,王辛庄村东,志敏房,王辛庄小学西,王辛庄综合10台区,王辛庄综合4台区,加弹厂浇地,林曲南1号,林曲北1号,王辛庄综合11台区,林曲北2号,朱坟,客户投资_王辛庄综合3台区,王辛庄综合13台区【冬季供暖设施】,王辛庄综合14台区,林堡综合21台区","poweroffReason":"【停电原因】由于站外开关掉闸导致３５ＫＶ林堡变电站１０ＫＶ潘营５１１线路全线停电【变更送电】因抢修进度加快原因，送电时间由０７：００变更为０１：３０【发布渠道】通过９５５９８发布","powerTime":"2019-06-28 00:57:40","powerComm":"已送电","subsNo":"","lineNo":"","tgNo":"","tgName":null,"infoStatus":"1","orgName":"国网蠡县供电公司","typeName":null,"infoStatusName":null,"dateDay":null,"orgNos":null,"nowTime":null,"countyName":null,"streetName":null,"villageName":null,"roadName":null,"communityName":null,"tranName":null,"sdLineName":null,"cityCode":"1340616","cityName":"国网蠡县供电公司","provinceCode":null,"stopTime":"2019-06-28 01:30:00","powerType":"全部","powerOffArea":"【全线路停电】停蛮营道,王辛庄综合8台区,王辛庄综合12台区.,王辛庄综合7台区,面粉厂,志敏房东,王辛庄综合2台区,板厂,渡槽西,潘西砖厂,王辛庄综合9台区,渡槽,王辛庄综合3台区,王辛庄综合1台区,林曲路南新变,（2）6台区西营道,中国联合网络通信有限公司蠡县分公司变压器,蛮营道东,王辛庄综合6台区,沟南,王辛庄综合5台区,加弹厂北,砖厂北,王辛庄村东,志敏房,王辛庄小学西,王辛庄综合10台区,王辛庄综合4台区,加弹厂浇地,林曲南1号,林曲北1号,王辛庄综合11台区,林曲北2号,朱坟,客户投资_王辛庄综合3台区,王辛庄综合13台区【冬季供暖设施】,王辛庄综合14台区,林堡综合21台区","powerOffReason":"【停电原因】由于站外开关掉闸导致３５ＫＶ林堡变电站１０ＫＶ潘营５１１线路全线停电【变更送电】因抢修进度加快原因，送电时间由０７：００变更为０１：３０【发布渠道】通过９５５９８发布","powerOffId":"2019062713000673"},{"poweroffId":2019062713000671,"sgpoweroffId":null,"subsName":"","lineName":"10kV515孙庄线","pubTranName":"0618194577-蠡县润仕纺织有限公司-专变-208418455-蠡县润仕纺织有限公司,蠡县林堡乡宋庄小学变压器,孙庄综合2台区,孙庄3台区,0667625530-蠡县林堡乡宋家庄村卫生室-专变-208434804-蠡县林堡乡宋家庄村卫生室,孙庄7号,宋庄综合4台区,孙庄综合3台区,杨马庄农排7台区【纯农排变】,孙庄浇地2,林堡综合7台区,林堡综合14台区,孙庄6号,二军浇地,杨马庄综合11台区,杨马庄农排3台区【纯农排变】,林北二,杨马庄综合9台区,蠡县达盛纺织厂变压器,建国,孙庄综合5台区,宋庄综合2台区,林堡3号,宋庄村北变压器,建修华盛棉织,杨马庄农排4台区【纯农排变】,林堡面粉厂,孙庄综合4台区,蠡县润通纺织有限公司变压器,孙庄综合1台区,杨马庄综合10台区,孙庄4台区,宋庄综合7台区,宋庄西浇地,建成织布,兴达,蠡县瑞祥纺织厂变压器,宋庄综合6台区,宋庄综合5台区,杨马庄农排6台区【纯农排变】,孙庄织布,林北一,0546610927-蠡县宏源纺织有限公司-专变-48017880-宋庄兴达棉织厂变压器,宋庄综合3台区,宋庄综合1台区,林堡4号,杨马庄综合8台区,华泽,杨马庄农排5台区【纯农排变】,蠡县瑞合纺织有限公司变压器,板厂,杨马庄综合2台区,中国移动通信集团河北有限公司蠡县分公司变压器,蠡县益源棉织厂变压器,杨马庄综合1台区,0469456501-蠡县泽丰纺织有限公司-专变-214329266-蠡县泽丰纺织有限公司变压器,孙庄浇地1号,","scope":"【影响街道/乡镇】林堡乡【高危重要客户】无【影响客户】孙庄村、宋庄村、杨马庄村、林堡村","startTime":"2019-06-27 23:51:25","stopDate":"2019-06-28 01:30:00","orgNo":"1340616","typeCode":"电网故障停限电","poweroffArea":"【全线路停电】停蠡县达盛纺织厂变压器,杨马庄综合10台区,宋庄西浇地,建成织布,宋庄综合6台区,建国,0546610927-蠡县宏源纺织有限公司-专变-48017880-宋庄兴达棉织厂变压器,孙庄浇地2,孙庄织布,孙庄6号,孙庄3台区,宋庄综合3台区,孙庄综合5台区,孙庄综合1台区,孙庄4台区,杨马庄农排3台区【纯农排变】,孙庄浇地1号,孙庄7号,杨马庄农排5台区【纯农排变】,建修华盛棉织,板厂,兴达,华泽,杨马庄综合9台区,孙庄综合3台区,杨马庄综合1台区,蠡县瑞祥纺织厂变压器,蠡县林堡乡宋庄小学变压器,蠡县润通纺织有限公司变压器,杨马庄综合8台区,宋庄综合4台区,孙庄综合2台区,宋庄综合7台区,0469456501-蠡县泽丰纺织有限公司-专变-214329266-蠡县泽丰纺织有限公司变压器,宋庄综合1台区,宋庄综合2台区,宋庄村北变压器,杨马庄综合2台区,林堡4号,林北一,孙庄综合4台区,杨马庄农排7台区【纯农排变】,林堡面粉厂,杨马庄综合11台区,二军浇地,林堡综合14台区,林堡3号,0618194577-蠡县润仕纺织有限公司-专变-208418455-蠡县润仕纺织有限公司,中国移动通信集团河北有限公司蠡县分公司变压器,0667625530-蠡县林堡乡宋家庄村卫生室-专变-208434804-蠡县林堡乡宋家庄村卫生室,林堡综合7台区,宋庄综合5台区,蠡县益源棉织厂变压器,蠡县瑞合纺织有限公司变压器,林北二,杨马庄农排6台区【纯农排变】,杨马庄农排4台区【纯农排变】","poweroffReason":"【停电原因】由于站外开关掉闸导致３５ＫＶ林堡变电站１０ＫＶ孙庄５１５线路全线停电【变更送电】因抢修进度加快原因，送电时间由０７：００变更为０１：３０【发布渠道】通过９５５９８发布","powerTime":"2019-06-28 00:57:12","powerComm":"已送电","subsNo":"","lineNo":"","tgNo":"","tgName":null,"infoStatus":"1","orgName":"国网蠡县供电公司","typeName":null,"infoStatusName":null,"dateDay":null,"orgNos":null,"nowTime":null,"countyName":null,"streetName":null,"villageName":null,"roadName":null,"communityName":null,"tranName":null,"sdLineName":null,"cityCode":"1340616","cityName":"国网蠡县供电公司","provinceCode":null,"stopTime":"2019-06-28 01:30:00","powerType":"全部","powerOffArea":"【全线路停电】停蠡县达盛纺织厂变压器,杨马庄综合10台区,宋庄西浇地,建成织布,宋庄综合6台区,建国,0546610927-蠡县宏源纺织有限公司-专变-48017880-宋庄兴达棉织厂变压器,孙庄浇地2,孙庄织布,孙庄6号,孙庄3台区,宋庄综合3台区,孙庄综合5台区,孙庄综合1台区,孙庄4台区,杨马庄农排3台区【纯农排变】,孙庄浇地1号,孙庄7号,杨马庄农排5台区【纯农排变】,建修华盛棉织,板厂,兴达,华泽,杨马庄综合9台区,孙庄综合3台区,杨马庄综合1台区,蠡县瑞祥纺织厂变压器,蠡县林堡乡宋庄小学变压器,蠡县润通纺织有限公司变压器,杨马庄综合8台区,宋庄综合4台区,孙庄综合2台区,宋庄综合7台区,0469456501-蠡县泽丰纺织有限公司-专变-214329266-蠡县泽丰纺织有限公司变压器,宋庄综合1台区,宋庄综合2台区,宋庄村北变压器,杨马庄综合2台区,林堡4号,林北一,孙庄综合4台区,杨马庄农排7台区【纯农排变】,林堡面粉厂,杨马庄综合11台区,二军浇地,林堡综合14台区,林堡3号,0618194577-蠡县润仕纺织有限公司-专变-208418455-蠡县润仕纺织有限公司,中国移动通信集团河北有限公司蠡县分公司变压器,0667625530-蠡县林堡乡宋家庄村卫生室-专变-208434804-蠡县林堡乡宋家庄村卫生室,林堡综合7台区,宋庄综合5台区,蠡县益源棉织厂变压器,蠡县瑞合纺织有限公司变压器,林北二,杨马庄农排6台区【纯农排变】,杨马庄农排4台区【纯农排变】","powerOffReason":"【停电原因】由于站外开关掉闸导致３５ＫＶ林堡变电站１０ＫＶ孙庄５１５线路全线停电【变更送电】因抢修进度加快原因，送电时间由０７：００变更为０１：３０【发布渠道】通过９５５９８发布","powerOffId":"2019062713000671"},{"poweroffId":2019062713000668,"sgpoweroffId":null,"subsName":"","lineName":"10kV516东西营线","pubTranName":"东营综合8台区,东营综合1台区,西营农排3台区【纯农排变】,西营综合7台区,西营综合6台区,西营农排5台区【纯农排变】,西营综合1台区,西营农排9台区【纯农排变】,西营综合3台区,客户投资_西营综合5台区,大朋,东营温馨家园,林堡5号,东营浇地1号,客户投资_东营综合2台区,西营农排1台区变压器,东营村委会,东营综合11台区,西营农排4台区【纯农排变】,东营综合12台区,林堡六,东营综合10台区【冬季供暖设施】,西营综合8台区,西营农排7台区【纯农排变】,西营综合4台区,东营村浇地5号东,东营浇地10号,东营浇地7号西,0469455377-东营村浇地五号-专变-46813156-东营村浇地5号,东营浇地8号,东营浇地7号,东营浇地6号东,东营浇地2号,东营村东北,东营浇地6号,西营农排6台区【纯农排变】,东营浇地4号,东营浇地3号东,东营浇地10号东,东营综合7台区,渔池,东营综合9台区,东营浇地9号,蠡县磊鑫砂石料场,东营综合5台区,东营砖厂2,东营砖厂1,西营综合2台区,客户投资_东营综合3台区,保定德鑫纺织品制造有限公司变压器,东营综合4台区,东营综合6台区,东营浇地3号,","scope":"【影响街道/乡镇】林堡乡【高危重要客户】无【影响客户】西营村、东营村","startTime":"2019-06-27 23:47:56","stopDate":"2019-06-28 01:30:00","orgNo":"1340616","typeCode":"电网故障停限电","poweroffArea":"【全线路停电】停东营综合4台区,西营农排1台区变压器,西营农排4台区【纯农排变】,东营综合12台区,东营综合8台区,东营综合6台区,西营农排9台区【纯农排变】,西营综合3台区,客户投资_西营综合5台区,大朋,东营温馨家园,林堡5号,东营村委会,东营浇地1号,西营综合6台区,西营农排6台区【纯农排变】,西营农排5台区【纯农排变】,西营综合1台区,东营综合5台区,客户投资_东营综合2台区,东营综合1台区,西营农排3台区【纯农排变】,西营综合7台区,东营综合11台区,林堡六,东营综合10台区【冬季供暖设施】,西营综合8台区,西营农排7台区【纯农排变】,西营综合4台区,东营村浇地5号东,东营浇地10号,东营浇地7号西,0469455377-东营村浇地五号-专变-46813156-东营村浇地5号,东营浇地8号,东营浇地7号,东营浇地6号东,东营浇地3号,东营浇地2号,东营村东北,东营浇地6号,东营浇地4号,东营浇地3号东,东营浇地10号东,东营综合7台区,渔池,东营综合9台区,东营浇地9号,蠡县磊鑫砂石料场,东营砖厂2,东营砖厂1,西营综合2台区,客户投资_东营综合3台区,保定德鑫纺织品制造有限公司变压器","poweroffReason":"【停电原因】由于站外开关掉闸导致３５ＫＶ林堡变电站１０ＫＶ东西营５１６线路全线停电【变更送电】因抢修进度加快原因，送电时间由０７：００变更为０１：３０【发布渠道】通过９５５９８发布","powerTime":"2019-06-28 00:56:22","powerComm":"已送电","subsNo":"","lineNo":"","tgNo":"","tgName":null,"infoStatus":"1","orgName":"国网蠡县供电公司","typeName":null,"infoStatusName":null,"dateDay":null,"orgNos":null,"nowTime":null,"countyName":null,"streetName":null,"villageName":null,"roadName":null,"communityName":null,"tranName":null,"sdLineName":null,"cityCode":"1340616","cityName":"国网蠡县供电公司","provinceCode":null,"stopTime":"2019-06-28 01:30:00","powerType":"全部","powerOffArea":"【全线路停电】停东营综合4台区,西营农排1台区变压器,西营农排4台区【纯农排变】,东营综合12台区,东营综合8台区,东营综合6台区,西营农排9台区【纯农排变】,西营综合3台区,客户投资_西营综合5台区,大朋,东营温馨家园,林堡5号,东营村委会,东营浇地1号,西营综合6台区,西营农排6台区【纯农排变】,西营农排5台区【纯农排变】,西营综合1台区,东营综合5台区,客户投资_东营综合2台区,东营综合1台区,西营农排3台区【纯农排变】,西营综合7台区,东营综合11台区,林堡六,东营综合10台区【冬季供暖设施】,西营综合8台区,西营农排7台区【纯农排变】,西营综合4台区,东营村浇地5号东,东营浇地10号,东营浇地7号西,0469455377-东营村浇地五号-专变-46813156-东营村浇地5号,东营浇地8号,东营浇地7号,东营浇地6号东,东营浇地3号,东营浇地2号,东营村东北,东营浇地6号,东营浇地4号,东营浇地3号东,东营浇地10号东,东营综合7台区,渔池,东营综合9台区,东营浇地9号,蠡县磊鑫砂石料场,东营砖厂2,东营砖厂1,西营综合2台区,客户投资_东营综合3台区,保定德鑫纺织品制造有限公司变压器","powerOffReason":"【停电原因】由于站外开关掉闸导致３５ＫＶ林堡变电站１０ＫＶ东西营５１６线路全线停电【变更送电】因抢修进度加快原因，送电时间由０７：００变更为０１：３０【发布渠道】通过９５５９８发布","powerOffId":"2019062713000668"},{"poweroffId":2019062713000665,"sgpoweroffId":null,"subsName":"","lineName":"10kV江城站529线路","pubTranName":"10kVY0029.Y0030配电室Y0029配电变压器,10kVY0029.Y0030配电室Y0030配电变压器,10kVY0031.Y0032配电室Y0031配电变压器,10kVY0031.Y0032配电室Y0032配电变压器,","scope":"【影响街道/乡镇】天威西路 【高危重要客户】无 【影响客户】康泽园小区","startTime":"2019-06-27 23:00:00","stopDate":"2019-06-28 01:00:00","orgNo":"13406","typeCode":"电网故障停限电","poweroffArea":"【分支停电】停10kVY0029.Y0030配电室Y0029配电变压器,10kVY0029.Y0030配电室Y0030配电变压器,10kVY0031.Y0032配电室Y0031配电变压器,10kVY0031.Y0032配电室Y0032配电变压器","poweroffReason":"【停电原因】由于分支开关短路导致１０ＫＶ江城变电站５２９线路富江路７号杆东分支８号开关以下停电【变更送电】因抢修进度加快，原定０９:００送电现计划０１：００送电【发布渠道】通过９５５９８发布","powerTime":"2019-06-28 00:32:23","powerComm":"已送电","subsNo":"","lineNo":"","tgNo":"","tgName":null,"infoStatus":"1","orgName":"保定供电公司","typeName":null,"infoStatusName":null,"dateDay":null,"orgNos":null,"nowTime":null,"countyName":null,"streetName":null,"villageName":null,"roadName":null,"communityName":null,"tranName":null,"sdLineName":null,"cityCode":"13406","cityName":"保定供电公司","provinceCode":null,"stopTime":"2019-06-28 01:00:00","powerType":"全部","powerOffArea":"【分支停电】停10kVY0029.Y0030配电室Y0029配电变压器,10kVY0029.Y0030配电室Y0030配电变压器,10kVY0031.Y0032配电室Y0031配电变压器,10kVY0031.Y0032配电室Y0032配电变压器","powerOffReason":"【停电原因】由于分支开关短路导致１０ＫＶ江城变电站５２９线路富江路７号杆东分支８号开关以下停电【变更送电】因抢修进度加快，原定０９:００送电现计划０１：００送电【发布渠道】通过９５５９８发布","powerOffId":"2019062713000665"},{"poweroffId":2019062713000656,"sgpoweroffId":null,"subsName":"","lineName":"10kV520辉岭线","pubTranName":"郭家庄东北1变压器,灵山28区变压器,0000006330朱家峪西2变压器,朱家峪东6区变压器,0012891907辉岭中区,曲阳县国华工贸有限公司1变压器,灵山中学变压器2,0000005206朱家峪南区变压器,灵山小学变压器2,曲阳县鸿瑞建材有限公司变压器2,灵山医院变压器,辉岭村委会水井,灵山中心幼儿园变压器,曲阳县鸿瑞建材有限公司变压器1,0012892411辉岭南2区变压器,下岸杨顺月,朱家峪小学变压器,唐县民用爆破器材有限责任公司曲阳分公司变压器,0000007193朱家峪东3区变压器,0000005203辉岭村南变压器,0012457053灵山14区变压器,0000005836郭家庄南区(2#)变压器,0012891905郭家庄南5区变压器,0000005202郭家庄村北变压器,曲阳县郭家庄白玉沟建材厂变压器2,0000005557灵山4区变压器,0000005201郭家庄水井变压器,0012457072郭家庄南4变压器,0000005208朱家峪道南变压器,朱家峪南3变压器,曲阳县利丰建材有限公司变压器,下岸3变压器【光伏】,灵山法庭变压器,0000007194朱家峪西3区变压器,郭家庄小学变压器,辉岭北3变压器,0012891914郭家庄西3区变压器,灵山中心卫生院郭家庄分院变压器,0000005205朱家峪东区变压器,0000005199辉岭村变压器,0000005198灵山12区变压器,曲阳县鸿泉建材有限公司变压器,灵山中学变压器1,辉岭南3变压器,0000006106灵山10区变压器,曲阳县国华工贸有限公司变压器,0000005549灵山8区变压器,朱家峪南坡水井,中国联合网络通信有限公司曲阳县分,郭家庄砖厂,朱家峪东8变压器,朱家峪南煤井,大砖厂,红星砖厂,曲阳县郭家庄白玉沟建材厂变压器,朱家峪幼儿园变压器,灵山中学变压器3,0012457425朱家峪西4变压器,灵山邮政支局变压器,0012470873郭家庄东北变压器,0000005200郭家庄村中变压器,0000006778朱家峪南2区变压器,曲阳县福瑞建材有限公司变压器,辉岭小学变压器,0012359268灵山15区变压器,0000006138下岸统管副业变压器,灵山24区变压器,0000006499辉岭北2区变压器,曲阳县元祥建材有限公司变压器,0000007207灵山9区变压器,中国移动通信集团河北有限公司曲阳分公司变压器,灵山小学变压器1,0000005207朱家峪中西变压器,0000005204辉岭村西变压器,郭家庄小学变压器2,0012457070郭家庄南3变压器,朱家峪东7变压器,朱家峪东9变压器,0011946487朱家峪北区变压器,灵山23区变压器,0012742945辉岭村东变变压器,0000005550灵山1区变压器,曲阳县灵山镇朱家裕中学变压器,0012457064郭家庄中2变压器,0000005552灵山7区变压器,中交建冀交高速公路投资发展有限公司变压器,0000007208下岸村2,0000006294朱家峪东2变压器,朱家峪西5变压器,0000005556灵山6区变压器,0012457431郭家庄西2变压器,","scope":"【影响街道/乡镇】灵山镇【高危重要客户】无【影响客户】辉岭、朱家峪、郭家庄、灵山、下岸","startTime":"2019-06-27 22:25:00","stopDate":"2019-06-28 03:30:00","orgNo":"1340619","typeCode":"电网故障停限电","poweroffArea":"【全线路停电】停灵山23区变压器,0012742945辉岭村东变变压器,0000005550灵山1区变压器,曲阳县灵山镇朱家裕中学变压器,0000006330朱家峪西2变压器,0012457064郭家庄中2变压器,0000005552灵山7区变压器,中交建冀交高速公路投资发展有限公司变压器,0000007208下岸村2,0000006294朱家峪东2变压器,朱家峪西5变压器,0000005556灵山6区变压器,0012457431郭家庄西2变压器,曲阳县灵山镇辉岭村水井变压器,辉岭西1变压器,曲阳县林建混凝土有限公司变压器,0000005325郭家庄村南变压器,0000005867下岸村变压器,0000005551灵山2区变压器,0000006278朱家峪道南2变压器,灵山小学变压器2,0000006138下岸统管副业变压器,灵山24区变压器,0000006499辉岭北2区变压器,曲阳县元祥建材有限公司变压器,0000007207灵山9区变压器,中国移动通信集团河北有限公司曲阳分公司变压器,灵山小学变压器1,0000005207朱家峪中西变压器,0000005204辉岭村西变压器,郭家庄小学变压器2,0012457070郭家庄南3变压器,朱家峪东7变压器,朱家峪东9变压器,0011946487朱家峪北区变压器,曲阳县华石山采石厂变压器,0012457051朱家峪东4变压器,灵山地税变压器,郭家庄东北1变压器,灵山28区变压器,朱家峪东6区变压器,0012891907辉岭中区,曲阳县国华工贸有限公司1变压器,灵山中学变压器2,0000005206朱家峪南区变压器,曲阳县鸿瑞建材有限公司变压器2,灵山医院变压器,辉岭村委会水井,灵山中心幼儿园变压器,曲阳县鸿瑞建材有限公司变压器1,0012892411辉岭南2区变压器,下岸杨顺月,朱家峪小学变压器,唐县民用爆破器材有限责任公司曲阳分公司变压器,0000007193朱家峪东3区变压器,0000005203辉岭村南变压器,0012457053灵山14区变压器,0000005836郭家庄南区(2#)变压器,0012891905郭家庄南5区变压器,0000005202郭家庄村北变压器,曲阳县郭家庄白玉沟建材厂变压器2,曲阳县鸿泉建材有限公司变压器,0000005557灵山4区变压器,0000005201郭家庄水井变压器,0012457072郭家庄南4变压器,0000005208朱家峪道南变压器,朱家峪南3变压器,曲阳县利丰建材有限公司变压器,下岸3变压器【光伏】,灵山法庭变压器,0000007194朱家峪西3区变压器,郭家庄小学变压器,辉岭北3变压器,0012891914郭家庄西3区变压器,灵山中心卫生院郭家庄分院变压器,0000005205朱家峪东区变压器,0000005199辉岭村变压器,0000005198灵山12区变压器,灵山中学变压器1,辉岭南3变压器,0000006106灵山10区变压器,曲阳县国华工贸有限公司变压器,0000005549灵山8区变压器,朱家峪南坡水井,中国联合网络通信有限公司曲阳县分,郭家庄砖厂,朱家峪东8变压器,朱家峪南煤井,大砖厂,红星砖厂,曲阳县郭家庄白玉沟建材厂变压器,朱家峪幼儿园变压器,灵山中学变压器3,0012457425朱家峪西4变压器,灵山邮政支局变压器,0012470873郭家庄东北变压器,0000005200郭家庄村中变压器,0000006778朱家峪南2区变压器,曲阳县福瑞建材有限公司变压器,辉岭小学变压器,0012359268灵山15区变压器","poweroffReason":"【停电原因】由于线路Ａ相接地导致３５ＫＶ灵山变电站１０ＫＶ５２０辉岭线路全线停电【变更送电】因抢修进度加快原因，送电时间由１１：００变更为０３：３０【发布渠道】通过９５５９８发布","powerTime":"2019-06-28 03:06:52","powerComm":"已送电","subsNo":"","lineNo":"","tgNo":"","tgName":null,"infoStatus":"1","orgName":"国网曲阳县供电公司","typeName":null,"infoStatusName":null,"dateDay":null,"orgNos":null,"nowTime":null,"countyName":null,"streetName":null,"villageName":null,"roadName":null,"communityName":null,"tranName":null,"sdLineName":null,"cityCode":"1340619","cityName":"国网曲阳县供电公司","provinceCode":null,"stopTime":"2019-06-28 03:30:00","powerType":"全部","powerOffArea":"【全线路停电】停灵山23区变压器,0012742945辉岭村东变变压器,0000005550灵山1区变压器,曲阳县灵山镇朱家裕中学变压器,0000006330朱家峪西2变压器,0012457064郭家庄中2变压器,0000005552灵山7区变压器,中交建冀交高速公路投资发展有限公司变压器,0000007208下岸村2,0000006294朱家峪东2变压器,朱家峪西5变压器,0000005556灵山6区变压器,0012457431郭家庄西2变压器,曲阳县灵山镇辉岭村水井变压器,辉岭西1变压器,曲阳县林建混凝土有限公司变压器,0000005325郭家庄村南变压器,0000005867下岸村变压器,0000005551灵山2区变压器,0000006278朱家峪道南2变压器,灵山小学变压器2,0000006138下岸统管副业变压器,灵山24区变压器,0000006499辉岭北2区变压器,曲阳县元祥建材有限公司变压器,0000007207灵山9区变压器,中国移动通信集团河北有限公司曲阳分公司变压器,灵山小学变压器1,0000005207朱家峪中西变压器,0000005204辉岭村西变压器,郭家庄小学变压器2,0012457070郭家庄南3变压器,朱家峪东7变压器,朱家峪东9变压器,0011946487朱家峪北区变压器,曲阳县华石山采石厂变压器,0012457051朱家峪东4变压器,灵山地税变压器,郭家庄东北1变压器,灵山28区变压器,朱家峪东6区变压器,0012891907辉岭中区,曲阳县国华工贸有限公司1变压器,灵山中学变压器2,0000005206朱家峪南区变压器,曲阳县鸿瑞建材有限公司变压器2,灵山医院变压器,辉岭村委会水井,灵山中心幼儿园变压器,曲阳县鸿瑞建材有限公司变压器1,0012892411辉岭南2区变压器,下岸杨顺月,朱家峪小学变压器,唐县民用爆破器材有限责任公司曲阳分公司变压器,0000007193朱家峪东3区变压器,0000005203辉岭村南变压器,0012457053灵山14区变压器,0000005836郭家庄南区(2#)变压器,0012891905郭家庄南5区变压器,0000005202郭家庄村北变压器,曲阳县郭家庄白玉沟建材厂变压器2,曲阳县鸿泉建材有限公司变压器,0000005557灵山4区变压器,0000005201郭家庄水井变压器,0012457072郭家庄南4变压器,0000005208朱家峪道南变压器,朱家峪南3变压器,曲阳县利丰建材有限公司变压器,下岸3变压器【光伏】,灵山法庭变压器,0000007194朱家峪西3区变压器,郭家庄小学变压器,辉岭北3变压器,0012891914郭家庄西3区变压器,灵山中心卫生院郭家庄分院变压器,0000005205朱家峪东区变压器,0000005199辉岭村变压器,0000005198灵山12区变压器,灵山中学变压器1,辉岭南3变压器,0000006106灵山10区变压器,曲阳县国华工贸有限公司变压器,0000005549灵山8区变压器,朱家峪南坡水井,中国联合网络通信有限公司曲阳县分,郭家庄砖厂,朱家峪东8变压器,朱家峪南煤井,大砖厂,红星砖厂,曲阳县郭家庄白玉沟建材厂变压器,朱家峪幼儿园变压器,灵山中学变压器3,0012457425朱家峪西4变压器,灵山邮政支局变压器,0012470873郭家庄东北变压器,0000005200郭家庄村中变压器,0000006778朱家峪南2区变压器,曲阳县福瑞建材有限公司变压器,辉岭小学变压器,0012359268灵山15区变压器","powerOffReason":"【停电原因】由于线路Ａ相接地导致３５ＫＶ灵山变电站１０ＫＶ５２０辉岭线路全线停电【变更送电】因抢修进度加快原因，送电时间由１１：００变更为０３：３０【发布渠道】通过９５５９８发布","powerOffId":"2019062713000656"},{"poweroffId":2019062713000651,"sgpoweroffId":null,"subsName":"","lineName":"10kV519罗家峪线","pubTranName":"0000005181南家庄东南区变压器,0012494369南家庄东南2变压器,曲阳县华运挂车有限公司,曲阳县金莹建材有限公司,南家庄面粉厂,杨兵合,灵山修配制造厂,曲阳县惠腾贸易有限公司变压器,0000005182南家庄东北区变压器,南家庄东南3变压器,0012358750南家庄西南1变压器,0014454179南家庄东北2区,曲阳县金莹建材有限公司2#,0012358757南家庄西北1区变压器,0000005180南家庄西南区变压器,南家庄阳光幼儿园变压器,南家庄村委会南岗砖厂,南家庄小学变压器,0012411781南家庄西南2区变压器,","scope":"【影响街道/乡镇】灵山镇【高危重要客户】无【影响客户】南沟村、南家庄、土岭、韩家峪、罗家峪、院子沟","startTime":"2019-06-27 22:23:00","stopDate":"2019-06-28 03:30:00","orgNo":"1340619","typeCode":"电网故障停限电","poweroffArea":"【全线路停电】停0014454179南家庄东北2区,曲阳县金莹建材有限公司2#,0012358757南家庄西北1区变压器,0000005180南家庄西南区变压器,南家庄阳光幼儿园变压器,南家庄村委会南岗砖厂,南家庄小学变压器,0012411781南家庄西南2区变压器,0000005181南家庄东南区变压器,0012494369南家庄东南2变压器,曲阳县华运挂车有限公司,曲阳县金莹建材有限公司,南家庄面粉厂,杨兵合,灵山修配制造厂,曲阳县惠腾贸易有限公司变压器,0000005182南家庄东北区变压器,南家庄东南3变压器,0012358750南家庄西南1变压器","poweroffReason":"【停电原因】由于线路C相接地导致３５ＫＶ灵山变电站１０ＫＶ５１９罗家峪线路全线停电【变更送电】因抢修进度加快原因，送电时间由１１：００变更为０３：３０【发布渠道】通过９５５９８发布","powerTime":"2019-06-28 03:08:14","powerComm":"已送电","subsNo":"","lineNo":"","tgNo":"","tgName":null,"infoStatus":"1","orgName":"国网曲阳县供电公司","typeName":null,"infoStatusName":null,"dateDay":null,"orgNos":null,"nowTime":null,"countyName":null,"streetName":null,"villageName":null,"roadName":null,"communityName":null,"tranName":null,"sdLineName":null,"cityCode":"1340619","cityName":"国网曲阳县供电公司","provinceCode":null,"stopTime":"2019-06-28 03:30:00","powerType":"全部","powerOffArea":"【全线路停电】停0014454179南家庄东北2区,曲阳县金莹建材有限公司2#,0012358757南家庄西北1区变压器,0000005180南家庄西南区变压器,南家庄阳光幼儿园变压器,南家庄村委会南岗砖厂,南家庄小学变压器,0012411781南家庄西南2区变压器,0000005181南家庄东南区变压器,0012494369南家庄东南2变压器,曲阳县华运挂车有限公司,曲阳县金莹建材有限公司,南家庄面粉厂,杨兵合,灵山修配制造厂,曲阳县惠腾贸易有限公司变压器,0000005182南家庄东北区变压器,南家庄东南3变压器,0012358750南家庄西南1变压器","powerOffReason":"【停电原因】由于线路C相接地导致３５ＫＶ灵山变电站１０ＫＶ５１９罗家峪线路全线停电【变更送电】因抢修进度加快原因，送电时间由１１：００变更为０３：３０【发布渠道】通过９５５９８发布","powerOffId":"2019062713000651"},{"poweroffId":2019062713000648,"sgpoweroffId":null,"subsName":"","lineName":"10kV517燕川线","pubTranName":"0012358756西燕川北区变压器,0014453434东燕川东2区,东燕川小学变压器,西燕川西2变压器,灵山村庞永好,0012735402悦景家园小区变压器,0000006696南家庄北统管副业变压器,0014442596西燕川中区变压器,0000005498东燕川村变压器,西燕川小学变压器2,西燕川水井（2）,0012366280西燕川南区变压器,东燕川水井,0000006698东燕川西变压器,灵山国土所变压器,0000005400西燕川西变变压器,南家庄第二砖厂,西燕川水井（1）,西燕川小学变压器,0000006196东燕川东区变压器,西燕川幼儿园变压器,0000005399西燕川东区变压器,0012892439西燕川西北区变压器,0012366770西燕川统管副业变压器,盛达煤厂,","scope":"【影响街道/乡镇】灵山镇【高危重要客户】无【影响客户】西燕川、南家庄北副业、东燕川","startTime":"2019-06-27 22:20:00","stopDate":"2019-06-28 03:30:00","orgNo":"1340619","typeCode":"电网故障停限电","poweroffArea":"【全线路停电】停0012358756西燕川北区变压器,0014453434东燕川东2区,东燕川小学变压器,西燕川西2变压器,灵山村庞永好,0012735402悦景家园小区变压器,0000006696南家庄北统管副业变压器,0014442596西燕川中区变压器,0000005498东燕川村变压器,西燕川小学变压器2,西燕川水井（2）,0012366280西燕川南区变压器,东燕川水井,0000006698东燕川西变压器,灵山国土所变压器,0000005400西燕川西变变压器,南家庄第二砖厂,西燕川水井（1）,西燕川小学变压器,0000006196东燕川东区变压器,西燕川幼儿园变压器,0000005399西燕川东区变压器,0012892439西燕川西北区变压器,0012366770西燕川统管副业变压器,盛达煤厂","poweroffReason":"【停电原因】由于线路C相接地导致３５ＫＶ灵山变电站１０ＫＶ５１７燕川线路全线停电【变更送电】因抢修进度加快原因，送电时间由１１：００变更为０３：３０【发布渠道】通过９５５９８发布","powerTime":"2019-06-28 03:09:32","powerComm":"已送电","subsNo":"","lineNo":"","tgNo":"","tgName":null,"infoStatus":"1","orgName":"国网曲阳县供电公司","typeName":null,"infoStatusName":null,"dateDay":null,"orgNos":null,"nowTime":null,"countyName":null,"streetName":null,"villageName":null,"roadName":null,"communityName":null,"tranName":null,"sdLineName":null,"cityCode":"1340619","cityName":"国网曲阳县供电公司","provinceCode":null,"stopTime":"2019-06-28 03:30:00","powerType":"全部","powerOffArea":"【全线路停电】停0012358756西燕川北区变压器,0014453434东燕川东2区,东燕川小学变压器,西燕川西2变压器,灵山村庞永好,0012735402悦景家园小区变压器,0000006696南家庄北统管副业变压器,0014442596西燕川中区变压器,0000005498东燕川村变压器,西燕川小学变压器2,西燕川水井（2）,0012366280西燕川南区变压器,东燕川水井,0000006698东燕川西变压器,灵山国土所变压器,0000005400西燕川西变变压器,南家庄第二砖厂,西燕川水井（1）,西燕川小学变压器,0000006196东燕川东区变压器,西燕川幼儿园变压器,0000005399西燕川东区变压器,0012892439西燕川西北区变压器,0012366770西燕川统管副业变压器,盛达煤厂","powerOffReason":"【停电原因】由于线路C相接地导致３５ＫＶ灵山变电站１０ＫＶ５１７燕川线路全线停电【变更送电】因抢修进度加快原因，送电时间由１１：００变更为０３：３０【发布渠道】通过９５５９８发布","powerOffId":"2019062713000648"},{"poweroffId":2019062713000646,"sgpoweroffId":null,"subsName":"","lineName":"10kV516朱家峪线","pubTranName":"大桥厂,0000005945朱家峪道西变压器,0000005196朱家峪道北变压器,灵山供电所统管变压器,0014334946朱家峪大道北2区变压器,","scope":"【影响街道/乡镇】灵山镇【高危重要客户】无【影响客户】朱家峪道北、朱家峪道西","startTime":"2019-06-27 22:15:00","stopDate":"2019-06-28 03:30:00","orgNo":"1340619","typeCode":"电网故障停限电","poweroffArea":"【全线路停电】停大桥厂,0000005945朱家峪道西变压器,0000005196朱家峪道北变压器,灵山供电所统管变压器,0014334946朱家峪大道北2区变压器","poweroffReason":"【停电原因】由于线路Ａ相接地导致３５ＫＶ灵山变电站１０ＫＶ５１６朱家峪线路全线停电【变更送电】因抢修进度加快原因，送电时间由１０：００变更为０３：３０【发布渠道】通过９５５９８发布","powerTime":"2019-06-28 02:57:11","powerComm":"已送电","subsNo":"","lineNo":"","tgNo":"","tgName":null,"infoStatus":"1","orgName":"国网曲阳县供电公司","typeName":null,"infoStatusName":null,"dateDay":null,"orgNos":null,"nowTime":null,"countyName":null,"streetName":null,"villageName":null,"roadName":null,"communityName":null,"tranName":null,"sdLineName":null,"cityCode":"1340619","cityName":"国网曲阳县供电公司","provinceCode":null,"stopTime":"2019-06-28 03:30:00","powerType":"全部","powerOffArea":"【全线路停电】停大桥厂,0000005945朱家峪道西变压器,0000005196朱家峪道北变压器,灵山供电所统管变压器,0014334946朱家峪大道北2区变压器","powerOffReason":"【停电原因】由于线路Ａ相接地导致３５ＫＶ灵山变电站１０ＫＶ５１６朱家峪线路全线停电【变更送电】因抢修进度加快原因，送电时间由１０：００变更为０３：３０【发布渠道】通过９５５９８发布","powerOffId":"2019062713000646"},{"poweroffId":2019062713000642,"sgpoweroffId":null,"subsName":"","lineName":"10kV515横河口线","pubTranName":"东庞家洼西2变压器,0000005559灵山3区变压器,韩家村小学变压器,韩家村14区变压器,0012421899韩家村9区变压器,0000006928韩家村6区变压器,灵山25区变压器,韩家村中学变压器1,0000005932韩家村5区变压器,0000005930韩家村3区变压器,0000005562西庞家洼南区变压器,0000007156韩家村7区变压器,韩登朝瓷厂,0012914404朱家峪东5变压器,0014453438韩家村农灌,0014094452灵山22区变压器,韩家村13区变压器,0000005616东庞家洼西区变压器,曲阳县冀科电瓷有限公司,0000005929韩家村2区变压器,西庞家洼南2区变压器,0014469278韩家村12区,中建路桥集团有限公司变压器,永固瓷业分公司,曲阳县泰达石粉加工厂变压器,0000005928韩家村1区变压器,0012433959韩家村8区变压器,0000005931韩家村4区变压器,岗北东南2区变压器,岗北东北2区变压器,0000005924岗北村东南区变压器,0000005925岗北东北区变压器,0012891903韩家村10区变压器,韩家村中学变压器2,","scope":"【影响街道/乡镇】灵山镇【高危重要客户】无【影响客户】灵山、西庞家洼、东庞家洼、韩家村、岗北","startTime":"2019-06-27 22:10:00","stopDate":"2019-06-28 03:30:00","orgNo":"1340619","typeCode":"电网故障停限电","poweroffArea":"【全线路停电】停中建路桥集团有限公司变压器,东庞家洼西2变压器,0000005559灵山3区变压器,韩家村小学变压器,韩家村14区变压器,0012421899韩家村9区变压器,0000006928韩家村6区变压器,灵山25区变压器,韩家村中学变压器1,0000005932韩家村5区变压器,0000005930韩家村3区变压器,0000005562西庞家洼南区变压器,0000007156韩家村7区变压器,韩登朝瓷厂,0012914404朱家峪东5变压器,0014453438韩家村农灌,0014094452灵山22区变压器,韩家村13区变压器,0000005616东庞家洼西区变压器,曲阳县冀科电瓷有限公司,0000005929韩家村2区变压器,西庞家洼南2区变压器,0014469278韩家村12区,永固瓷业分公司,曲阳县泰达石粉加工厂变压器,0000005928韩家村1区变压器,0012433959韩家村8区变压器,0000005931韩家村4区变压器,岗北东南2区变压器,岗北东北2区变压器,0000005924岗北村东南区变压器,0000005925岗北东北区变压器,0012891903韩家村10区变压器,韩家村中学变压器2","poweroffReason":"【停电原因】由于线路Ａ相接地导致３５ＫＶ灵山变电站１０ＫＶ５１５横河口线路全线停电【变更送电】因抢修进度加快原因，送电时间由１０：００变更为０３：３０【发布渠道】通过９５５９８发布","powerTime":"2019-06-28 03:01:44","powerComm":"已送电","subsNo":"","lineNo":"","tgNo":"","tgName":null,"infoStatus":"1","orgName":"国网曲阳县供电公司","typeName":null,"infoStatusName":null,"dateDay":null,"orgNos":null,"nowTime":null,"countyName":null,"streetName":null,"villageName":null,"roadName":null,"communityName":null,"tranName":null,"sdLineName":null,"cityCode":"1340619","cityName":"国网曲阳县供电公司","provinceCode":null,"stopTime":"2019-06-28 03:30:00","powerType":"全部","powerOffArea":"【全线路停电】停中建路桥集团有限公司变压器,东庞家洼西2变压器,0000005559灵山3区变压器,韩家村小学变压器,韩家村14区变压器,0012421899韩家村9区变压器,0000006928韩家村6区变压器,灵山25区变压器,韩家村中学变压器1,0000005932韩家村5区变压器,0000005930韩家村3区变压器,0000005562西庞家洼南区变压器,0000007156韩家村7区变压器,韩登朝瓷厂,0012914404朱家峪东5变压器,0014453438韩家村农灌,0014094452灵山22区变压器,韩家村13区变压器,0000005616东庞家洼西区变压器,曲阳县冀科电瓷有限公司,0000005929韩家村2区变压器,西庞家洼南2区变压器,0014469278韩家村12区,永固瓷业分公司,曲阳县泰达石粉加工厂变压器,0000005928韩家村1区变压器,0012433959韩家村8区变压器,0000005931韩家村4区变压器,岗北东南2区变压器,岗北东北2区变压器,0000005924岗北村东南区变压器,0000005925岗北东北区变压器,0012891903韩家村10区变压器,韩家村中学变压器2","powerOffReason":"【停电原因】由于线路Ａ相接地导致３５ＫＶ灵山变电站１０ＫＶ５１５横河口线路全线停电【变更送电】因抢修进度加快原因，送电时间由１０：００变更为０３：３０【发布渠道】通过９５５９８发布","powerOffId":"2019062713000642"}],"pageModel":{"pageNow":892,"totalCount":10973,"totalPage":1098,"tableRows":0,"pageCount":10,"beginCount":8910},"isExperi":"1"}