{"message":"","today":"2020-06-15","seleList":[{"poweroffId":2019062713000640,"sgpoweroffId":null,"subsName":"","lineName":"10kV514齐古庄线","pubTranName":"0000006695小赤涧村统管副业变压器,洼子村2区,曲阳县开拓石籽厂,曲阳县开拓石籽厂2#,小赤涧东变压器,0012301581西坡南变压器,0000006280崔古庄大道3变压器,0012330752郭家庄村西变压器,洼子小学变压器,0012446341小赤涧统管副业2变压器,0012446339崔古庄大道4变压器,民航石子厂（3）,曲阳县崔古庄石料厂(4),0000005161崔古庄大道1变压器,0000006266小赤涧西区变压器,0014094443朱家峪大道南4变压器,0000007228大赤涧西区变压器,曲阳县崔古庄民航石子厂第一分厂变压器,0000005165小赤涧村变压器,0012332339魏古庄南区变压器,0012329837洼子3变压器,0012332338大赤涧南区,0000005154洼子1,0000005155西坡村变压器,魏古庄小学变压器,0014308729魏古庄西区变压器,小赤涧村4区变压器,曲阳县亿泰商砼有限公司变压器,0014094445洼子西南区,0013170422崔古庄村西变压器,曲阳县崔古庄石料厂（2）,曲阳县崔古庄民航石料厂4,0014094448崔古庄西北区变压器,曲阳县瑞玉建材销售部变压器,民航石子厂（2）,曲阳县三联石渣厂,0012114553洼子北变压器,0012114553南家庄统管副业2变压器,0000005160崔古庄村变压器,0012892438大赤涧中区变压器,崔古庄民航石子厂,洼子幼儿园变压器,0013222380西坡东区变压器,小赤涧村3变压器,曲阳县崔古庄石料厂（1）,曲阳县第二石渣厂,崔古庄村2变压器,0012914905朱家峪大道南3变压器,曲阳县洼子养殖技术专业合作社变压器,0014094451崔古庄东南区变压器,0012330753小赤涧村2区变压器,0012892436小赤涧西2区变压器,0012447234崔古庄村北变压器,0000006785大赤涧东区变压器,0000005156魏古庄变压器,0012876927小赤涧村南2变压器,0012330754崔古庄村南变压器,崔古庄小学变压器,小赤涧水井,0014094447大赤涧村2变压器,大赤涧水井,河北月明山建材集团有限公司变压器,0012646782洼子农灌变压器,0000006578崔古庄农灌变压器,小赤涧小学变压器,曲阳县崔古庄民航石子厂变压器,洼子4区变压器,曲阳县瑞华建材经销处变压器,0000005158大赤涧村变压器,小赤涧村北变压器,0012196668小赤涧村南变压器,崔古庄石料厂（3）,曲阳县崔会杰石子厂变压器,0000005837崔古庄大道2变压器,","scope":"【影响街道/乡镇】灵山镇【高危重要客户】无【影响客户】小赤涧村、大赤涧村、委古庄村、西坡村、洼子村、崔古庄、南家庄统管副业、西坡、郭家庄村、朱家裕、灵山","startTime":"2019-06-27 22:00:00","stopDate":"2019-06-28 03:30:00","orgNo":"1340619","typeCode":"电网故障停限电","poweroffArea":"【全线路停电】停0000006280崔古庄大道3变压器,0012330752郭家庄村西变压器,洼子小学变压器,0000005165小赤涧村变压器,0012332339魏古庄南区变压器,0012329837洼子3变压器,0012332338大赤涧南区,0000005154洼子1,0000005155西坡村变压器,魏古庄小学变压器,0014308729魏古庄西区变压器,小赤涧村4区变压器,曲阳县亿泰商砼有限公司变压器,0014094445洼子西南区,0013170422崔古庄村西变压器,曲阳县崔古庄石料厂（2）,曲阳县崔古庄民航石料厂4,0014094448崔古庄西北区变压器,曲阳县瑞玉建材销售部变压器,民航石子厂（2）,曲阳县三联石渣厂,0012114553洼子北变压器,0012114553南家庄统管副业2变压器,0000005160崔古庄村变压器,0012892438大赤涧中区变压器,崔古庄民航石子厂,洼子幼儿园变压器,0013222380西坡东区变压器,小赤涧村3变压器,曲阳县崔古庄石料厂（1）,曲阳县第二石渣厂,崔古庄村2变压器,0012914905朱家峪大道南3变压器,曲阳县洼子养殖技术专业合作社变压器,0012196668小赤涧村南变压器,崔古庄小学变压器,小赤涧水井,0014094447大赤涧村2变压器,大赤涧水井,河北月明山建材集团有限公司变压器,0012646782洼子农灌变压器,0000006578崔古庄农灌变压器,小赤涧小学变压器,曲阳县崔古庄民航石子厂变压器,洼子4区变压器,曲阳县瑞华建材经销处变压器,0000005158大赤涧村变压器,小赤涧村北变压器,崔古庄石料厂（3）,曲阳县崔会杰石子厂变压器,0000005837崔古庄大道2变压器,0012446341小赤涧统管副业2变压器,0012446339崔古庄大道4变压器,民航石子厂（3）,曲阳县崔古庄石料厂(4),0000005161崔古庄大道1变压器,0000006266小赤涧西区变压器,0014094443朱家峪大道南4变压器,0000007228大赤涧西区变压器,曲阳县崔古庄民航石子厂第一分厂变压器,0000006695小赤涧村统管副业变压器,洼子村2区,曲阳县开拓石籽厂,曲阳县开拓石籽厂2#,小赤涧东变压器,0012301581西坡南变压器,0014094451崔古庄东南区变压器,0012330753小赤涧村2区变压器,0012892436小赤涧西2区变压器,0012447234崔古庄村北变压器,0000006785大赤涧东区变压器,0000005156魏古庄变压器,0012876927小赤涧村南2变压器,0012330754崔古庄村南变压器","poweroffReason":"【停电原因】由于线路Ａ相接地导致３５ＫＶ灵山变电站１０ＫＶ５１４齐古庄线路全线停电【变更送电】因抢修进度加快原因，送电时间由１０：００变更为０３：３０【发布渠道】通过９５５９８发布","powerTime":"2019-06-28 03:04:07","powerComm":"已送电","subsNo":"","lineNo":"","tgNo":"","tgName":null,"infoStatus":"1","orgName":"国网曲阳县供电公司","typeName":null,"infoStatusName":null,"dateDay":null,"orgNos":null,"nowTime":null,"countyName":null,"streetName":null,"villageName":null,"roadName":null,"communityName":null,"tranName":null,"sdLineName":null,"cityCode":"1340619","cityName":"国网曲阳县供电公司","provinceCode":null,"stopTime":"2019-06-28 03:30:00","powerType":"全部","powerOffArea":"【全线路停电】停0000006280崔古庄大道3变压器,0012330752郭家庄村西变压器,洼子小学变压器,0000005165小赤涧村变压器,0012332339魏古庄南区变压器,0012329837洼子3变压器,0012332338大赤涧南区,0000005154洼子1,0000005155西坡村变压器,魏古庄小学变压器,0014308729魏古庄西区变压器,小赤涧村4区变压器,曲阳县亿泰商砼有限公司变压器,0014094445洼子西南区,0013170422崔古庄村西变压器,曲阳县崔古庄石料厂（2）,曲阳县崔古庄民航石料厂4,0014094448崔古庄西北区变压器,曲阳县瑞玉建材销售部变压器,民航石子厂（2）,曲阳县三联石渣厂,0012114553洼子北变压器,0012114553南家庄统管副业2变压器,0000005160崔古庄村变压器,0012892438大赤涧中区变压器,崔古庄民航石子厂,洼子幼儿园变压器,0013222380西坡东区变压器,小赤涧村3变压器,曲阳县崔古庄石料厂（1）,曲阳县第二石渣厂,崔古庄村2变压器,0012914905朱家峪大道南3变压器,曲阳县洼子养殖技术专业合作社变压器,0012196668小赤涧村南变压器,崔古庄小学变压器,小赤涧水井,0014094447大赤涧村2变压器,大赤涧水井,河北月明山建材集团有限公司变压器,0012646782洼子农灌变压器,0000006578崔古庄农灌变压器,小赤涧小学变压器,曲阳县崔古庄民航石子厂变压器,洼子4区变压器,曲阳县瑞华建材经销处变压器,0000005158大赤涧村变压器,小赤涧村北变压器,崔古庄石料厂（3）,曲阳县崔会杰石子厂变压器,0000005837崔古庄大道2变压器,0012446341小赤涧统管副业2变压器,0012446339崔古庄大道4变压器,民航石子厂（3）,曲阳县崔古庄石料厂(4),0000005161崔古庄大道1变压器,0000006266小赤涧西区变压器,0014094443朱家峪大道南4变压器,0000007228大赤涧西区变压器,曲阳县崔古庄民航石子厂第一分厂变压器,0000006695小赤涧村统管副业变压器,洼子村2区,曲阳县开拓石籽厂,曲阳县开拓石籽厂2#,小赤涧东变压器,0012301581西坡南变压器,0014094451崔古庄东南区变压器,0012330753小赤涧村2区变压器,0012892436小赤涧西2区变压器,0012447234崔古庄村北变压器,0000006785大赤涧东区变压器,0000005156魏古庄变压器,0012876927小赤涧村南2变压器,0012330754崔古庄村南变压器","powerOffReason":"【停电原因】由于线路Ａ相接地导致３５ＫＶ灵山变电站１０ＫＶ５１４齐古庄线路全线停电【变更送电】因抢修进度加快原因，送电时间由１０：００变更为０３：３０【发布渠道】通过９５５９８发布","powerOffId":"2019062713000640"},{"poweroffId":2019062713000628,"sgpoweroffId":null,"subsName":"","lineName":"城西Ⅰ回线517","pubTranName":"财政局,北陵山学校东,城内南关,北陵山村,城内李守敬台区变压器,武装部水泥厂楼,育才街公用台区变压器,粮局经委,中医院,城内大队2号,南陵山学校,北陵山新增2号柱上变压器,北陵大队村内照明,新天地,生产公司,北陵山村内新增200,广场西,武装部新增,北陵山村东新增200,北陵山村东,建委宿舍楼,","scope":"【影响街道/乡镇】满城镇、通济街 【高危重要客户】无 【影响客户】城内村、中山路两侧、南陵山、广场附近、新天地、沃美超市附近、中医院附近、南关、公安局家属楼、党校、职教中心、职教中心家属楼、阳光城小区、京顺房地产、建设局、东亚小区、卫生监督所、新宝祥房地产、中国银行附近、永欣园、工业街附近、中山路政府宿舍楼、金融小区、四季花园、步行街附近、联通家属区、白云公寓、天天洗浴、安监局","startTime":"2019-06-29 04:30:00","stopDate":"2019-06-29 07:00:00","orgNo":"1340617","typeCode":"临时停电","poweroffArea":"【全线路停电】停育才街公用台区变压器,城内南关,中医院,南陵山学校,武装部新增,武装部水泥厂楼,北陵山村内新增200,北陵山村东新增200,北陵山村东,北陵大队村内照明,北陵山村,北陵山新增2号柱上变压器,北陵山学校东,建委宿舍楼,财政局,城内大队2号,城内李守敬台区变压器,粮局经委,生产公司,新天地,广场西","poweroffReason":"【停电原因】由于配变接火导致１１０ＫＶ杨佐变电站城西Ｉ回线５１７线路全线停电 【变更送电】无 【发布渠道】通过９５５９８发布","powerTime":"2019-06-29 06:56:11","powerComm":"已送电","subsNo":"","lineNo":"","tgNo":"","tgName":null,"infoStatus":"1","orgName":"国网满城县供电公司","typeName":null,"infoStatusName":null,"dateDay":null,"orgNos":null,"nowTime":null,"countyName":null,"streetName":null,"villageName":null,"roadName":null,"communityName":null,"tranName":null,"sdLineName":null,"cityCode":"1340617","cityName":"国网满城县供电公司","provinceCode":null,"stopTime":"2019-06-29 07:00:00","powerType":"全部","powerOffArea":"【全线路停电】停育才街公用台区变压器,城内南关,中医院,南陵山学校,武装部新增,武装部水泥厂楼,北陵山村内新增200,北陵山村东新增200,北陵山村东,北陵大队村内照明,北陵山村,北陵山新增2号柱上变压器,北陵山学校东,建委宿舍楼,财政局,城内大队2号,城内李守敬台区变压器,粮局经委,生产公司,新天地,广场西","powerOffReason":"【停电原因】由于配变接火导致１１０ＫＶ杨佐变电站城西Ｉ回线５１７线路全线停电 【变更送电】无 【发布渠道】通过９５５９８发布","powerOffId":"2019062713000628"},{"poweroffId":2019062713000626,"sgpoweroffId":null,"subsName":"","lineName":"城西Ⅱ回线515","pubTranName":"保定市满城盛宝源制衣有限公司,0387455035-满城县自来水公司-专变-45285467-满城县自来水公司（邮局）,中山宾馆,保定市宏昌地产有限公司,烟草公司,环西路灯北,0387453824-西山花园1号-专变-45285493-西山花园1号,政府院内新增,西环钢厂,中国移动通信集团河北有限公司满城,邮政大楼,0387456054-西山花园2号-专变-45285342-西山花园2号,杜合全,建行家属楼3号,0387453723-西山花园3号-专变-45285741-西山花园3号,满城县广电大厦,城内5队,西山花园1公配电变压器,514路灯,0684237378-满城县图腾物业服务有限公司-专变-223632642-满城县图腾物业服务有限公司,电影院新增,0687221082-满城县图腾物业服务有限公司-专变-227113634-满城县图腾物业服务有限公司2号,电影院边,0558790141-满城县行政服务中心-专变-118423083-满城县行政服务中心,0387455123-中国联合网络通信有限公司满城县分公司-专变-45285856-中国联合网络通信有限公司满城县分,0387453550-满城镇家属楼2号(城网)-专变-45285805-满城镇家属楼2号（城网）,保定市满城区人民检察院,养老院内,田文元照明,城内五队2号,城内七队新增,检察院总,西二街一号灯,0387451987-满城县瑞达牧业有限公司-专变-45285139-满城县瑞达牧业有限公司,自来水新增,公路边,检察院总2号,城内三四队新增2号,石怀志,城内三四队,城内公路边2号新增配电变压器,城内三四队新增1号,0387455497-西山花园小区-专变-45285686-西山花园4号,","scope":"【影响街道/乡镇】满城镇 【高危重要客户】无 【影响客户】西山花园小区、西二街两侧、城内五队、烟草公司及家属楼、养老院、城内村、自来水家属院、县幼儿园附近、电影院附近、县政府、玉川西路两侧、剧场附近、广播电视局、西环钢厂、中山宾馆、行政服务大厅、老县医院、保险公司、长城购物中心附近、粮局家属楼、乡镇楼、振兴胡同、宝山集团Ｂ区、永乐街两侧、土地局、检察院、邮政局","startTime":"2019-06-29 04:30:00","stopDate":"2019-06-29 07:00:00","orgNo":"1340617","typeCode":"临时停电","poweroffArea":"【全线路停电】停邮政大楼,城内五队2号,公路边,西山花园1公配电变压器,环西路灯北,0387455123-中国联合网络通信有限公司满城县分公司-专变-45285856-中国联合网络通信有限公司满城县分,城内三四队新增1号,电影院新增,0387453824-西山花园1号-专变-45285493-西山花园1号,城内公路边2号新增配电变压器,烟草公司,养老院内,保定市宏昌地产有限公司,0558790141-满城县行政服务中心-专变-118423083-满城县行政服务中心,0687221082-满城县图腾物业服务有限公司-专变-227113634-满城县图腾物业服务有限公司2号,514路灯,西环钢厂,保定市满城盛宝源制衣有限公司,中国移动通信集团河北有限公司满城,建行家属楼3号,田文元照明,政府院内新增,检察院总,0684237378-满城县图腾物业服务有限公司-专变-223632642-满城县图腾物业服务有限公司,西二街一号灯,杜合全,0387455497-西山花园小区-专变-45285686-西山花园4号,保定市满城区人民检察院,电影院边,城内三四队,石怀志,0387453723-西山花园3号-专变-45285741-西山花园3号,城内七队新增,检察院总2号,0387455035-满城县自来水公司-专变-45285467-满城县自来水公司（邮局）,自来水新增,0387453550-满城镇家属楼2号(城网)-专变-45285805-满城镇家属楼2号（城网）,0387451987-满城县瑞达牧业有限公司-专变-45285139-满城县瑞达牧业有限公司,0387456054-西山花园2号-专变-45285342-西山花园2号,满城县广电大厦,中山宾馆,城内5队,城内三四队新增2号","poweroffReason":"【停电原因】由于配变接火导致１１０ＫＶ杨佐变电站城西ＩＩ回线５１５线路全线停电 【变更送电】无 【发布渠道】通过９５５９８发布","powerTime":"2019-06-29 06:56:19","powerComm":"已送电","subsNo":"","lineNo":"","tgNo":"","tgName":null,"infoStatus":"1","orgName":"国网满城县供电公司","typeName":null,"infoStatusName":null,"dateDay":null,"orgNos":null,"nowTime":null,"countyName":null,"streetName":null,"villageName":null,"roadName":null,"communityName":null,"tranName":null,"sdLineName":null,"cityCode":"1340617","cityName":"国网满城县供电公司","provinceCode":null,"stopTime":"2019-06-29 07:00:00","powerType":"全部","powerOffArea":"【全线路停电】停邮政大楼,城内五队2号,公路边,西山花园1公配电变压器,环西路灯北,0387455123-中国联合网络通信有限公司满城县分公司-专变-45285856-中国联合网络通信有限公司满城县分,城内三四队新增1号,电影院新增,0387453824-西山花园1号-专变-45285493-西山花园1号,城内公路边2号新增配电变压器,烟草公司,养老院内,保定市宏昌地产有限公司,0558790141-满城县行政服务中心-专变-118423083-满城县行政服务中心,0687221082-满城县图腾物业服务有限公司-专变-227113634-满城县图腾物业服务有限公司2号,514路灯,西环钢厂,保定市满城盛宝源制衣有限公司,中国移动通信集团河北有限公司满城,建行家属楼3号,田文元照明,政府院内新增,检察院总,0684237378-满城县图腾物业服务有限公司-专变-223632642-满城县图腾物业服务有限公司,西二街一号灯,杜合全,0387455497-西山花园小区-专变-45285686-西山花园4号,保定市满城区人民检察院,电影院边,城内三四队,石怀志,0387453723-西山花园3号-专变-45285741-西山花园3号,城内七队新增,检察院总2号,0387455035-满城县自来水公司-专变-45285467-满城县自来水公司（邮局）,自来水新增,0387453550-满城镇家属楼2号(城网)-专变-45285805-满城镇家属楼2号（城网）,0387451987-满城县瑞达牧业有限公司-专变-45285139-满城县瑞达牧业有限公司,0387456054-西山花园2号-专变-45285342-西山花园2号,满城县广电大厦,中山宾馆,城内5队,城内三四队新增2号","powerOffReason":"【停电原因】由于配变接火导致１１０ＫＶ杨佐变电站城西ＩＩ回线５１５线路全线停电 【变更送电】无 【发布渠道】通过９５５９８发布","powerOffId":"2019062713000626"},{"poweroffId":2019062713000618,"sgpoweroffId":null,"subsName":"","lineName":"10kV528城工线","pubTranName":"东庄1560#农排|20001560【纯农排变】,","scope":"【影响街道/乡镇】木兰东街、蒲阳镇【高危重要客户】无【影响客户】东庄","startTime":"2019-06-27 20:39:41","stopDate":"2019-06-27 22:00:00","orgNo":"1340621","typeCode":"电网故障停限电","poweroffArea":"【单台区停电】停东庄1560#农排|20001560【纯农排变】","poweroffReason":"【停电原因】由于树枝搭线自行脱落导致１１０ＫＶ顺平变电站１０ＫＶ５２８城工线路东庄１５６０公变台区停电【变更送电】无【发布渠道】通过９５５９８发布","powerTime":"2019-06-27 21:15:23","powerComm":"已送电","subsNo":"","lineNo":"","tgNo":"","tgName":null,"infoStatus":"1","orgName":"国网顺平县电力局","typeName":null,"infoStatusName":null,"dateDay":null,"orgNos":null,"nowTime":null,"countyName":null,"streetName":null,"villageName":null,"roadName":null,"communityName":null,"tranName":null,"sdLineName":null,"cityCode":"1340621","cityName":"国网顺平县电力局","provinceCode":null,"stopTime":"2019-06-27 22:00:00","powerType":"全部","powerOffArea":"【单台区停电】停东庄1560#农排|20001560【纯农排变】","powerOffReason":"【停电原因】由于树枝搭线自行脱落导致１１０ＫＶ顺平变电站１０ＫＶ５２８城工线路东庄１５６０公变台区停电【变更送电】无【发布渠道】通过９５５９８发布","powerOffId":"2019062713000618"},{"poweroffId":2019062713000597,"sgpoweroffId":null,"subsName":"","lineName":"屯庄线518","pubTranName":"屯庄17号,文村20号【纯农排变】,文村10号,屯庄20号【纯农排变】,广门营16号,徐水县坤宇水泥砖厂,文村17号,文村6号【纯农排变】,联谊装饰材料厂,文村1号,广门营13号【纯农排变】,栗园庄2号【纯农排变】,保定兰天群青制造有限公司,津联轧钢厂,屯庄9号【纯农排变】,文村8号,屯庄18号,栗园庄9号,文村4号【纯农排变】,文村9号【纯农排变】,屯庄3号,徐水县兑发无纺布厂,文村11号【纯农排变】,栗园庄4号,广门营5号,屯庄19号,屯庄15号【纯农排变】,国网河北徐水县供电责任有限公司广门供电所站变,徐水县祥瑞食品有限公司,广门营7号【纯农排变】,文村14号【纯农排变】,屯庄7号【纯农排变】,屯庄2号,广门营12号【纯农排变】,屯庄11号【纯农排变】,文村3号,栗园庄11号【纯农排变】,屯庄14号,文村13号【纯农排变】,屯庄4号,宏源毛纺厂,徐水县瑞鑫金属精密件制造有限公司变压器,文村18号,屯庄5号,屯庄21号,屯庄8号【纯农排变】,文村2号,屯庄6号【纯农排变】,徐水县山海铁道配件厂,栗园庄3号【纯农排变】,徐水县宏达管件厂,屯庄13号,屯庄22号,文村19号,屯庄10号,文村7号【纯农排变】,屯庄1号,屯庄12号,文村砖厂1号,文村16号,文村15号,广门营6号,文村5号,文村12号【纯农排变】,屯庄16号,","scope":"【影响街道/乡镇】遂城镇 【高危重要客户】无 【影响客户】栗元庄、屯庄、文村、广门营","startTime":"2019-07-03 16:00:00","stopDate":"2019-07-03 19:00:00","orgNo":"1340605","typeCode":"临时停电","poweroffArea":"【全线路停电】停栗园庄3号【纯农排变】,屯庄11号【纯农排变】,文村12号【纯农排变】,文村17号,文村5号,广门营12号【纯农排变】,屯庄19号,文村15号,屯庄8号【纯农排变】,徐水县瑞鑫金属精密件制造有限公司变压器,广门营6号,文村2号,徐水县祥瑞食品有限公司,文村3号,栗园庄9号,屯庄7号【纯农排变】,广门营7号【纯农排变】,徐水县兑发无纺布厂,联谊装饰材料厂,文村砖厂1号,津联轧钢厂,屯庄22号,广门营5号,徐水县坤宇水泥砖厂,文村7号【纯农排变】,屯庄4号,文村8号,文村1号,文村16号,栗园庄11号【纯农排变】,广门营13号【纯农排变】,屯庄18号,文村6号【纯农排变】,文村9号【纯农排变】,屯庄17号,屯庄5号,文村14号【纯农排变】,屯庄21号,文村13号【纯农排变】,文村19号,宏源毛纺厂,徐水县山海铁道配件厂,徐水县宏达管件厂,屯庄20号【纯农排变】,保定兰天群青制造有限公司,屯庄6号【纯农排变】,屯庄2号,文村20号【纯农排变】,文村10号,文村11号【纯农排变】,栗园庄4号,屯庄14号,屯庄15号【纯农排变】,屯庄9号【纯农排变】,栗园庄2号【纯农排变】,屯庄13号,屯庄3号,屯庄12号,屯庄16号,国网河北徐水县供电责任有限公司广门供电所站变,广门营16号,文村4号【纯农排变】,屯庄10号,文村18号,屯庄1号","poweroffReason":"【停电原因】由于站内倒方式导致３５ＫＶ广门变电站屯庄５１８线路全线停电 【变更送电】因倒方式提前完成原因，送电时间由２０:００变更为１９:００ 【发布渠道】通过９５５９８发布","powerTime":"2019-07-03 18:40:43","powerComm":"已送电","subsNo":"","lineNo":"","tgNo":"","tgName":null,"infoStatus":"1","orgName":"国网徐水县供电公司","typeName":null,"infoStatusName":null,"dateDay":null,"orgNos":null,"nowTime":null,"countyName":null,"streetName":null,"villageName":null,"roadName":null,"communityName":null,"tranName":null,"sdLineName":null,"cityCode":"1340605","cityName":"国网徐水县供电公司","provinceCode":null,"stopTime":"2019-07-03 19:00:00","powerType":"全部","powerOffArea":"【全线路停电】停栗园庄3号【纯农排变】,屯庄11号【纯农排变】,文村12号【纯农排变】,文村17号,文村5号,广门营12号【纯农排变】,屯庄19号,文村15号,屯庄8号【纯农排变】,徐水县瑞鑫金属精密件制造有限公司变压器,广门营6号,文村2号,徐水县祥瑞食品有限公司,文村3号,栗园庄9号,屯庄7号【纯农排变】,广门营7号【纯农排变】,徐水县兑发无纺布厂,联谊装饰材料厂,文村砖厂1号,津联轧钢厂,屯庄22号,广门营5号,徐水县坤宇水泥砖厂,文村7号【纯农排变】,屯庄4号,文村8号,文村1号,文村16号,栗园庄11号【纯农排变】,广门营13号【纯农排变】,屯庄18号,文村6号【纯农排变】,文村9号【纯农排变】,屯庄17号,屯庄5号,文村14号【纯农排变】,屯庄21号,文村13号【纯农排变】,文村19号,宏源毛纺厂,徐水县山海铁道配件厂,徐水县宏达管件厂,屯庄20号【纯农排变】,保定兰天群青制造有限公司,屯庄6号【纯农排变】,屯庄2号,文村20号【纯农排变】,文村10号,文村11号【纯农排变】,栗园庄4号,屯庄14号,屯庄15号【纯农排变】,屯庄9号【纯农排变】,栗园庄2号【纯农排变】,屯庄13号,屯庄3号,屯庄12号,屯庄16号,国网河北徐水县供电责任有限公司广门供电所站变,广门营16号,文村4号【纯农排变】,屯庄10号,文村18号,屯庄1号","powerOffReason":"【停电原因】由于站内倒方式导致３５ＫＶ广门变电站屯庄５１８线路全线停电 【变更送电】因倒方式提前完成原因，送电时间由２０:００变更为１９:００ 【发布渠道】通过９５５９８发布","powerOffId":"2019062713000597"},{"poweroffId":2019062713000595,"sgpoweroffId":null,"subsName":"","lineName":"瀑河乡线516","pubTranName":"广门14号,徐水县华岳工贸有限公司,大马各庄10号【纯农排变】,广门17号【纯农排变】,广门22号,广门营18号,小马各庄1号,广门营2号,广门15号,躲水庄2号,躲水庄4号,广门12号,小马各庄3号,躲水庄6号,大马各庄4号【纯农排变】,广门营3号,广门23号,大马各庄13号,大马各庄8号【纯农排变】,广门19号,广门5号,大马各庄1号,躲水庄1号,小马各庄4号,广门2号,广门营8号,躲水庄5号,广门营冷库,广门营10号,徐水县红亮管件制造厂,广门20号,广门营14号,广门3号,徐水县恒鑫法兰制造有限公司,广门9号,广门21号,广门营1号,广门13号,广门4号,徐水县沃达水泥制品厂,广门11号【纯农排变】,广门6号【纯农排变】,广门10号,广门1号,","scope":"【影响街道/乡镇】遂城镇 【高危重要客户】无 【影响客户】广门营、躲水庄、广门、大马各庄、小马各庄","startTime":"2019-07-03 16:00:00","stopDate":"2019-07-03 19:00:00","orgNo":"1340605","typeCode":"临时停电","poweroffArea":"【全线路停电】停广门营10号,躲水庄4号,广门22号,广门20号,广门17号【纯农排变】,大马各庄10号【纯农排变】,广门13号,广门5号,躲水庄1号,广门23号,广门2号,小马各庄4号,大马各庄13号,广门10号,广门营8号,广门15号,小马各庄1号,徐水县恒鑫法兰制造有限公司,躲水庄5号,广门3号,徐水县华岳工贸有限公司,广门4号,广门营14号,广门21号,广门营18号,小马各庄3号,广门19号,大马各庄4号【纯农排变】,躲水庄6号,徐水县红亮管件制造厂,徐水县沃达水泥制品厂,广门1号,广门6号【纯农排变】,大马各庄8号【纯农排变】,广门12号,广门营3号,广门14号,躲水庄2号,广门营2号,广门11号【纯农排变】,大马各庄1号,广门营1号,广门营冷库,广门9号","poweroffReason":"【停电原因】由于站内倒方式导致３５ＫＶ广门变电站瀑河乡５１６线路全线停电 【变更送电】因倒方式提前完成原因，送电时间由２０:００变更为１９:００ 【发布渠道】通过９５５９８发布","powerTime":"2019-07-03 18:41:06","powerComm":"已送电","subsNo":"","lineNo":"","tgNo":"","tgName":null,"infoStatus":"1","orgName":"国网徐水县供电公司","typeName":null,"infoStatusName":null,"dateDay":null,"orgNos":null,"nowTime":null,"countyName":null,"streetName":null,"villageName":null,"roadName":null,"communityName":null,"tranName":null,"sdLineName":null,"cityCode":"1340605","cityName":"国网徐水县供电公司","provinceCode":null,"stopTime":"2019-07-03 19:00:00","powerType":"全部","powerOffArea":"【全线路停电】停广门营10号,躲水庄4号,广门22号,广门20号,广门17号【纯农排变】,大马各庄10号【纯农排变】,广门13号,广门5号,躲水庄1号,广门23号,广门2号,小马各庄4号,大马各庄13号,广门10号,广门营8号,广门15号,小马各庄1号,徐水县恒鑫法兰制造有限公司,躲水庄5号,广门3号,徐水县华岳工贸有限公司,广门4号,广门营14号,广门21号,广门营18号,小马各庄3号,广门19号,大马各庄4号【纯农排变】,躲水庄6号,徐水县红亮管件制造厂,徐水县沃达水泥制品厂,广门1号,广门6号【纯农排变】,大马各庄8号【纯农排变】,广门12号,广门营3号,广门14号,躲水庄2号,广门营2号,广门11号【纯农排变】,大马各庄1号,广门营1号,广门营冷库,广门9号","powerOffReason":"【停电原因】由于站内倒方式导致３５ＫＶ广门变电站瀑河乡５１６线路全线停电 【变更送电】因倒方式提前完成原因，送电时间由２０:００变更为１９:００ 【发布渠道】通过９５５９８发布","powerOffId":"2019062713000595"},{"poweroffId":2019062713000593,"sgpoweroffId":null,"subsName":"","lineName":"户木乡线514","pubTranName":"小马各庄2号【纯农排变】,广门营17号,广门8号【纯农排变】,广门营11号,广门16号【纯农排变】,广门营9号【纯农排变】,广门7号【纯农排变】,躲水庄3号【纯农排变】,大马各庄9号【纯农排变】,广门营15号,广门营4号【纯农排变】,大马各庄17号,大马各庄14号【纯农排变】,","scope":"【影响街道/乡镇】遂城镇 【高危重要客户】无 【影响客户】广门营、大马各庄、广门、躲水庄、小马各庄","startTime":"2019-07-03 16:00:00","stopDate":"2019-07-03 19:00:00","orgNo":"1340605","typeCode":"临时停电","poweroffArea":"【全线路停电】停广门营9号【纯农排变】,大马各庄9号【纯农排变】,广门营11号,广门营4号【纯农排变】,广门8号【纯农排变】,广门7号【纯农排变】,躲水庄3号【纯农排变】,广门16号【纯农排变】,广门营17号,大马各庄14号【纯农排变】,小马各庄2号【纯农排变】,大马各庄17号,广门营15号","poweroffReason":"【停电原因】由于站内倒方式导致３５ＫＶ广门变电站户木乡线５１４线路全线停电 【变更送电】因倒方式提前完成原因，送电时间由２０:００变更为１９:００ 【发布渠道】通过９５５９８发布","powerTime":"2019-07-03 18:41:29","powerComm":"已送电","subsNo":"","lineNo":"","tgNo":"","tgName":null,"infoStatus":"1","orgName":"国网徐水县供电公司","typeName":null,"infoStatusName":null,"dateDay":null,"orgNos":null,"nowTime":null,"countyName":null,"streetName":null,"villageName":null,"roadName":null,"communityName":null,"tranName":null,"sdLineName":null,"cityCode":"1340605","cityName":"国网徐水县供电公司","provinceCode":null,"stopTime":"2019-07-03 19:00:00","powerType":"全部","powerOffArea":"【全线路停电】停广门营9号【纯农排变】,大马各庄9号【纯农排变】,广门营11号,广门营4号【纯农排变】,广门8号【纯农排变】,广门7号【纯农排变】,躲水庄3号【纯农排变】,广门16号【纯农排变】,广门营17号,大马各庄14号【纯农排变】,小马各庄2号【纯农排变】,大马各庄17号,广门营15号","powerOffReason":"【停电原因】由于站内倒方式导致３５ＫＶ广门变电站户木乡线５１４线路全线停电 【变更送电】因倒方式提前完成原因，送电时间由２０:００变更为１９:００ 【发布渠道】通过９５５９８发布","powerOffId":"2019062713000593"},{"poweroffId":2019062713000591,"sgpoweroffId":null,"subsName":"","lineName":"曲城线513","pubTranName":"曲城13号,宏达面粉厂,曲城10号【纯农排变】,曲城2号【纯农排变】,曲城7号,曲城4号【纯农排变】,曲城9号,徐水县重光餐具有限公司,曲城6号【纯农排变】,曲城11号【纯农排变】,曲城1号,曲城5号,曲城12号,曲城14号,曲城8号,徐水县亚东木器加工厂,曲城3号【纯农排变】,","scope":"【影响街道/乡镇】遂城镇 【高危重要客户】无 【影响客户】曲城","startTime":"2019-07-03 16:00:00","stopDate":"2019-07-03 19:00:00","orgNo":"1340605","typeCode":"临时停电","poweroffArea":"【全线路停电】停曲城7号,曲城12号,曲城1号,曲城10号【纯农排变】,曲城4号【纯农排变】,曲城13号,曲城5号,宏达面粉厂,曲城8号,曲城14号,曲城9号,曲城11号【纯农排变】,徐水县重光餐具有限公司,曲城2号【纯农排变】,徐水县亚东木器加工厂,曲城6号【纯农排变】,曲城3号【纯农排变】","poweroffReason":"【停电原因】由于站内倒方式导致３５ＫＶ广门变电站曲城线５１３线路全线停电 【变更送电】因倒方式提前完成原因，送电时间由２０:００变更为１９:００ 【发布渠道】通过９５５９８发布","powerTime":"2019-07-03 18:42:13","powerComm":"已送电","subsNo":"","lineNo":"","tgNo":"","tgName":null,"infoStatus":"1","orgName":"国网徐水县供电公司","typeName":null,"infoStatusName":null,"dateDay":null,"orgNos":null,"nowTime":null,"countyName":null,"streetName":null,"villageName":null,"roadName":null,"communityName":null,"tranName":null,"sdLineName":null,"cityCode":"1340605","cityName":"国网徐水县供电公司","provinceCode":null,"stopTime":"2019-07-03 19:00:00","powerType":"全部","powerOffArea":"【全线路停电】停曲城7号,曲城12号,曲城1号,曲城10号【纯农排变】,曲城4号【纯农排变】,曲城13号,曲城5号,宏达面粉厂,曲城8号,曲城14号,曲城9号,曲城11号【纯农排变】,徐水县重光餐具有限公司,曲城2号【纯农排变】,徐水县亚东木器加工厂,曲城6号【纯农排变】,曲城3号【纯农排变】","powerOffReason":"【停电原因】由于站内倒方式导致３５ＫＶ广门变电站曲城线５１３线路全线停电 【变更送电】因倒方式提前完成原因，送电时间由２０:００变更为１９:００ 【发布渠道】通过９５５９８发布","powerOffId":"2019062713000591"},{"poweroffId":2019062713000589,"sgpoweroffId":null,"subsName":"","lineName":"大庞村线512","pubTranName":"大庞村8号【纯农排变】,龙源纸业有限公司3号（315KVA）,栗园庄6号,徐水县龙源纸业有限公司,冯家町4号,小庞村1号,冯家町5号,大庞村龙帅卫生巾厂,小庞村3号,大庞村19号,冯家町3号【纯农排变】,龙源造纸有限公司2号（315KV),栗园庄5号,大庞村15号,大庞村9号,小庞村2号【纯农排变】,大庞村3号,大庞村18号,栗园庄10号,前进造纸厂2号,栗园庄8号,大庞村20号,大庞村10号,龙源造纸有限公司4号（315KVA）,大庞村14号【纯农排变】,大庞富郦城,徐水康威药品包装有限公司,大庞村16号,大庞村17号,大庞村4号【纯农排变】,大庞村21号【纯农排变】,大庞村12号,小庞村5号,大庞村23号,大庞村5号,大庞村13号,徐水县鑫丰管件1号,徐水县旭升管件制造厂2号,冯家町2号【纯农排变】,龙源造纸有限公司1号（200KVA）,冯家町1号,大庞村7号,栗园庄7号,大庞村6号,冯家町6号,大庞村2号,小庞村4号,栗园庄1号,","scope":"【影响街道/乡镇】遂城镇 【高危重要客户】无 【影响客户】大庞村、栗元庄、冯家町、小庞村","startTime":"2019-07-03 16:00:00","stopDate":"2019-07-03 19:00:00","orgNo":"1340605","typeCode":"临时停电","poweroffArea":"【全线路停电】停大庞村16号,栗园庄10号,大庞村20号,徐水县鑫丰管件1号,龙源造纸有限公司2号（315KV),大庞村19号,龙源纸业有限公司3号（315KVA）,大庞村12号,前进造纸厂2号,龙源造纸有限公司4号（315KVA）,冯家町3号【纯农排变】,大庞村21号【纯农排变】,大庞村18号,小庞村2号【纯农排变】,大庞村8号【纯农排变】,大庞村10号,大庞村17号,冯家町4号,冯家町5号,大庞村23号,栗园庄6号,大庞村7号,大庞村9号,大庞村龙帅卫生巾厂,冯家町6号,大庞村14号【纯农排变】,徐水康威药品包装有限公司,栗园庄5号,栗园庄7号,大庞村5号,小庞村4号,大庞富郦城,栗园庄8号,大庞村15号,大庞村3号,大庞村4号【纯农排变】,冯家町1号,小庞村3号,栗园庄1号,大庞村13号,大庞村6号,小庞村1号,冯家町2号【纯农排变】,小庞村5号,徐水县龙源纸业有限公司,大庞村2号,徐水县旭升管件制造厂2号,龙源造纸有限公司1号（200KVA）","poweroffReason":"【停电原因】由于站内倒方式导致３５ＫＶ广门变电站大庞村５１２线路全线停电 【变更送电】因倒方式提前完成原因，送电时间由２０:００变更为１９:００ 【发布渠道】通过９５５９８发布","powerTime":"2019-07-03 18:42:46","powerComm":"已送电","subsNo":"","lineNo":"","tgNo":"","tgName":null,"infoStatus":"1","orgName":"国网徐水县供电公司","typeName":null,"infoStatusName":null,"dateDay":null,"orgNos":null,"nowTime":null,"countyName":null,"streetName":null,"villageName":null,"roadName":null,"communityName":null,"tranName":null,"sdLineName":null,"cityCode":"1340605","cityName":"国网徐水县供电公司","provinceCode":null,"stopTime":"2019-07-03 19:00:00","powerType":"全部","powerOffArea":"【全线路停电】停大庞村16号,栗园庄10号,大庞村20号,徐水县鑫丰管件1号,龙源造纸有限公司2号（315KV),大庞村19号,龙源纸业有限公司3号（315KVA）,大庞村12号,前进造纸厂2号,龙源造纸有限公司4号（315KVA）,冯家町3号【纯农排变】,大庞村21号【纯农排变】,大庞村18号,小庞村2号【纯农排变】,大庞村8号【纯农排变】,大庞村10号,大庞村17号,冯家町4号,冯家町5号,大庞村23号,栗园庄6号,大庞村7号,大庞村9号,大庞村龙帅卫生巾厂,冯家町6号,大庞村14号【纯农排变】,徐水康威药品包装有限公司,栗园庄5号,栗园庄7号,大庞村5号,小庞村4号,大庞富郦城,栗园庄8号,大庞村15号,大庞村3号,大庞村4号【纯农排变】,冯家町1号,小庞村3号,栗园庄1号,大庞村13号,大庞村6号,小庞村1号,冯家町2号【纯农排变】,小庞村5号,徐水县龙源纸业有限公司,大庞村2号,徐水县旭升管件制造厂2号,龙源造纸有限公司1号（200KVA）","powerOffReason":"【停电原因】由于站内倒方式导致３５ＫＶ广门变电站大庞村５１２线路全线停电 【变更送电】因倒方式提前完成原因，送电时间由２０:００变更为１９:００ 【发布渠道】通过９５５９８发布","powerOffId":"2019062713000589"},{"poweroffId":2019062713000586,"sgpoweroffId":null,"subsName":"","lineName":"大次良线511","pubTranName":"河北德耐美康投资有限公司,大次良11号,小次良4号,小次良机加工厂,徐水县长青车床加工厂,大次良面粉厂1号,大次良面粉厂2号,小次良2号,徐水县新华车床加工厂,大次良27号,曲城15号,大次良16号,大次良34号,大次良19号,徐水县一帆机床加工厂,曲城塑料厂,大次良15号,小次良1号,大次良21号,大次良17号,大次良1号,大次良31号,大次良30号,大次良14号,徐水县庆隆管件加工厂,大次良5号,胜利加工厂,大次良23号,小次良3号,","scope":"【影响街道/乡镇】遂城镇 【高危重要客户】无 【影响客户】大次良、小次良","startTime":"2019-07-03 16:00:00","stopDate":"2019-07-03 19:00:00","orgNo":"1340605","typeCode":"临时停电","poweroffArea":"【全线路停电】停大次良1号,大次良15号,大次良30号,大次良34号,大次良17号,大次良16号,小次良4号,大次良31号,大次良23号,徐水县一帆机床加工厂,大次良5号,曲城15号,大次良面粉厂1号,小次良机加工厂,大次良面粉厂2号,小次良2号,徐水县长青车床加工厂,胜利加工厂,大次良11号,曲城塑料厂,大次良19号,大次良14号,小次良1号,大次良27号,小次良3号,河北德耐美康投资有限公司,徐水县新华车床加工厂,大次良21号,徐水县庆隆管件加工厂","poweroffReason":"【停电原因】由于站内倒方式导致３５ＫＶ广门变电站大次良５１１线路全线停电 【变更送电】因倒方式提前完成原因，送电时间由２０:００变更为１９:００ 【发布渠道】通过９５５９８发布","powerTime":"2019-07-03 18:44:20","powerComm":"已送电","subsNo":"","lineNo":"","tgNo":"","tgName":null,"infoStatus":"1","orgName":"国网徐水县供电公司","typeName":null,"infoStatusName":null,"dateDay":null,"orgNos":null,"nowTime":null,"countyName":null,"streetName":null,"villageName":null,"roadName":null,"communityName":null,"tranName":null,"sdLineName":null,"cityCode":"1340605","cityName":"国网徐水县供电公司","provinceCode":null,"stopTime":"2019-07-03 19:00:00","powerType":"全部","powerOffArea":"【全线路停电】停大次良1号,大次良15号,大次良30号,大次良34号,大次良17号,大次良16号,小次良4号,大次良31号,大次良23号,徐水县一帆机床加工厂,大次良5号,曲城15号,大次良面粉厂1号,小次良机加工厂,大次良面粉厂2号,小次良2号,徐水县长青车床加工厂,胜利加工厂,大次良11号,曲城塑料厂,大次良19号,大次良14号,小次良1号,大次良27号,小次良3号,河北德耐美康投资有限公司,徐水县新华车床加工厂,大次良21号,徐水县庆隆管件加工厂","powerOffReason":"【停电原因】由于站内倒方式导致３５ＫＶ广门变电站大次良５１１线路全线停电 【变更送电】因倒方式提前完成原因，送电时间由２０:００变更为１９:００ 【发布渠道】通过９５５９８发布","powerOffId":"2019062713000586"}],"pageModel":{"pageNow":893,"totalCount":10973,"totalPage":1098,"tableRows":0,"pageCount":10,"beginCount":8920},"isExperi":"1"}