{"message":"","today":"2020-06-15","seleList":[{"poweroffId":2019062713000555,"sgpoweroffId":null,"subsName":"","lineName":"屯庄线518","pubTranName":"广门营16号,徐水县坤宇水泥砖厂,文村17号,文村6号【纯农排变】,联谊装饰材料厂,文村1号,广门营13号【纯农排变】,栗园庄2号【纯农排变】,保定兰天群青制造有限公司,津联轧钢厂,屯庄9号【纯农排变】,文村8号,屯庄18号,栗园庄9号,广门营5号,屯庄19号,屯庄15号【纯农排变】,国网河北徐水县供电责任有限公司广门供电所站变,屯庄8号【纯农排变】,文村2号,屯庄6号【纯农排变】,徐水县山海铁道配件厂,栗园庄3号【纯农排变】,徐水县宏达管件厂,屯庄13号,屯庄22号,文村19号,屯庄10号,文村7号【纯农排变】,屯庄1号,屯庄12号,文村砖厂1号,文村16号,文村15号,广门营6号,文村5号,文村4号【纯农排变】,文村9号【纯农排变】,屯庄3号,徐水县兑发无纺布厂,文村11号【纯农排变】,栗园庄4号,文村12号【纯农排变】,屯庄17号,文村20号【纯农排变】,文村10号,屯庄20号【纯农排变】,徐水县祥瑞食品有限公司,广门营7号【纯农排变】,文村14号【纯农排变】,屯庄7号【纯农排变】,屯庄2号,广门营12号【纯农排变】,屯庄11号【纯农排变】,文村3号,栗园庄11号【纯农排变】,屯庄14号,文村13号【纯农排变】,屯庄4号,宏源毛纺厂,屯庄16号,徐水县瑞鑫金属精密件制造有限公司变压器,文村18号,屯庄5号,屯庄21号,","scope":"【影响街道/乡镇】遂城镇 【高危重要客户】无 【影响客户】栗元庄、屯庄、文村、广门营","startTime":"2019-07-03 06:00:00","stopDate":"2019-07-03 09:00:00","orgNo":"1340605","typeCode":"临时停电","poweroffArea":"【全线路停电】停栗园庄3号【纯农排变】,屯庄11号【纯农排变】,文村12号【纯农排变】,文村17号,文村5号,广门营12号【纯农排变】,屯庄19号,文村15号,屯庄8号【纯农排变】,徐水县瑞鑫金属精密件制造有限公司变压器,广门营6号,文村2号,徐水县祥瑞食品有限公司,文村3号,栗园庄9号,屯庄7号【纯农排变】,广门营7号【纯农排变】,徐水县兑发无纺布厂,联谊装饰材料厂,文村砖厂1号,津联轧钢厂,屯庄22号,广门营5号,徐水县坤宇水泥砖厂,文村7号【纯农排变】,屯庄4号,文村8号,文村1号,文村16号,栗园庄11号【纯农排变】,广门营13号【纯农排变】,屯庄18号,文村6号【纯农排变】,文村9号【纯农排变】,屯庄17号,屯庄5号,文村14号【纯农排变】,屯庄21号,文村13号【纯农排变】,文村19号,宏源毛纺厂,徐水县山海铁道配件厂,徐水县宏达管件厂,屯庄20号【纯农排变】,保定兰天群青制造有限公司,屯庄6号【纯农排变】,屯庄2号,文村20号【纯农排变】,文村10号,文村11号【纯农排变】,栗园庄4号,屯庄14号,屯庄15号【纯农排变】,屯庄9号【纯农排变】,栗园庄2号【纯农排变】,屯庄13号,屯庄3号,屯庄12号,屯庄16号,国网河北徐水县供电责任有限公司广门供电所站变,广门营16号,文村4号【纯农排变】,屯庄10号,文村18号,屯庄1号","poweroffReason":"【停电原因】由于站内倒方式导致３５ＫＶ广门变电站屯庄５１８线路全线停电 【变更送电】无 【发布渠道】通过９５５９８发布","powerTime":"2019-07-03 08:30:55","powerComm":"已送电","subsNo":"","lineNo":"","tgNo":"","tgName":null,"infoStatus":"1","orgName":"国网徐水县供电公司","typeName":null,"infoStatusName":null,"dateDay":null,"orgNos":null,"nowTime":null,"countyName":null,"streetName":null,"villageName":null,"roadName":null,"communityName":null,"tranName":null,"sdLineName":null,"cityCode":"1340605","cityName":"国网徐水县供电公司","provinceCode":null,"stopTime":"2019-07-03 09:00:00","powerType":"全部","powerOffArea":"【全线路停电】停栗园庄3号【纯农排变】,屯庄11号【纯农排变】,文村12号【纯农排变】,文村17号,文村5号,广门营12号【纯农排变】,屯庄19号,文村15号,屯庄8号【纯农排变】,徐水县瑞鑫金属精密件制造有限公司变压器,广门营6号,文村2号,徐水县祥瑞食品有限公司,文村3号,栗园庄9号,屯庄7号【纯农排变】,广门营7号【纯农排变】,徐水县兑发无纺布厂,联谊装饰材料厂,文村砖厂1号,津联轧钢厂,屯庄22号,广门营5号,徐水县坤宇水泥砖厂,文村7号【纯农排变】,屯庄4号,文村8号,文村1号,文村16号,栗园庄11号【纯农排变】,广门营13号【纯农排变】,屯庄18号,文村6号【纯农排变】,文村9号【纯农排变】,屯庄17号,屯庄5号,文村14号【纯农排变】,屯庄21号,文村13号【纯农排变】,文村19号,宏源毛纺厂,徐水县山海铁道配件厂,徐水县宏达管件厂,屯庄20号【纯农排变】,保定兰天群青制造有限公司,屯庄6号【纯农排变】,屯庄2号,文村20号【纯农排变】,文村10号,文村11号【纯农排变】,栗园庄4号,屯庄14号,屯庄15号【纯农排变】,屯庄9号【纯农排变】,栗园庄2号【纯农排变】,屯庄13号,屯庄3号,屯庄12号,屯庄16号,国网河北徐水县供电责任有限公司广门供电所站变,广门营16号,文村4号【纯农排变】,屯庄10号,文村18号,屯庄1号","powerOffReason":"【停电原因】由于站内倒方式导致３５ＫＶ广门变电站屯庄５１８线路全线停电 【变更送电】无 【发布渠道】通过９５５９８发布","powerOffId":"2019062713000555"},{"poweroffId":2019062713000553,"sgpoweroffId":null,"subsName":"","lineName":"瀑河乡线516","pubTranName":"广门12号,小马各庄3号,躲水庄6号,大马各庄4号【纯农排变】,广门营3号,广门23号,大马各庄13号,大马各庄8号【纯农排变】,广门19号,广门5号,大马各庄1号,躲水庄1号,小马各庄4号,广门13号,广门14号,徐水县华岳工贸有限公司,大马各庄10号【纯农排变】,广门17号【纯农排变】,广门22号,广门营18号,小马各庄1号,广门营2号,广门15号,躲水庄2号,躲水庄4号,广门2号,广门营8号,躲水庄5号,广门4号,徐水县沃达水泥制品厂,广门11号【纯农排变】,广门6号【纯农排变】,广门10号,广门1号,广门营冷库,广门营10号,徐水县红亮管件制造厂,广门20号,广门营14号,广门3号,徐水县恒鑫法兰制造有限公司,广门9号,广门21号,广门营1号,","scope":"【影响街道/乡镇】遂城镇 【高危重要客户】无 【影响客户】广门营、躲水庄、广门、大马各庄、小马各庄","startTime":"2019-07-03 06:00:00","stopDate":"2019-07-03 09:00:00","orgNo":"1340605","typeCode":"临时停电","poweroffArea":"【全线路停电】停广门营10号,躲水庄4号,广门22号,广门20号,广门17号【纯农排变】,大马各庄10号【纯农排变】,广门13号,广门5号,躲水庄1号,广门23号,广门2号,小马各庄4号,大马各庄13号,广门10号,广门营8号,广门15号,小马各庄1号,徐水县恒鑫法兰制造有限公司,躲水庄5号,广门3号,徐水县华岳工贸有限公司,广门4号,广门营14号,广门21号,广门营18号,小马各庄3号,广门19号,大马各庄4号【纯农排变】,躲水庄6号,徐水县红亮管件制造厂,徐水县沃达水泥制品厂,广门1号,广门6号【纯农排变】,大马各庄8号【纯农排变】,广门12号,广门营3号,广门14号,躲水庄2号,广门营2号,广门11号【纯农排变】,大马各庄1号,广门营1号,广门营冷库,广门9号","poweroffReason":"【停电原因】由于站内倒方式导致３５ＫＶ广门变电站瀑河乡５１６线路全线停电 【变更送电】无 【发布渠道】通过９５５９８发布","powerTime":"2019-07-03 08:31:15","powerComm":"已送电","subsNo":"","lineNo":"","tgNo":"","tgName":null,"infoStatus":"1","orgName":"国网徐水县供电公司","typeName":null,"infoStatusName":null,"dateDay":null,"orgNos":null,"nowTime":null,"countyName":null,"streetName":null,"villageName":null,"roadName":null,"communityName":null,"tranName":null,"sdLineName":null,"cityCode":"1340605","cityName":"国网徐水县供电公司","provinceCode":null,"stopTime":"2019-07-03 09:00:00","powerType":"全部","powerOffArea":"【全线路停电】停广门营10号,躲水庄4号,广门22号,广门20号,广门17号【纯农排变】,大马各庄10号【纯农排变】,广门13号,广门5号,躲水庄1号,广门23号,广门2号,小马各庄4号,大马各庄13号,广门10号,广门营8号,广门15号,小马各庄1号,徐水县恒鑫法兰制造有限公司,躲水庄5号,广门3号,徐水县华岳工贸有限公司,广门4号,广门营14号,广门21号,广门营18号,小马各庄3号,广门19号,大马各庄4号【纯农排变】,躲水庄6号,徐水县红亮管件制造厂,徐水县沃达水泥制品厂,广门1号,广门6号【纯农排变】,大马各庄8号【纯农排变】,广门12号,广门营3号,广门14号,躲水庄2号,广门营2号,广门11号【纯农排变】,大马各庄1号,广门营1号,广门营冷库,广门9号","powerOffReason":"【停电原因】由于站内倒方式导致３５ＫＶ广门变电站瀑河乡５１６线路全线停电 【变更送电】无 【发布渠道】通过９５５９８发布","powerOffId":"2019062713000553"},{"poweroffId":2019062713000550,"sgpoweroffId":null,"subsName":"","lineName":"户木乡线514","pubTranName":"小马各庄2号【纯农排变】,广门营17号,广门8号【纯农排变】,广门营11号,广门16号【纯农排变】,广门营9号【纯农排变】,广门7号【纯农排变】,躲水庄3号【纯农排变】,大马各庄9号【纯农排变】,广门营15号,广门营4号【纯农排变】,大马各庄17号,大马各庄14号【纯农排变】,","scope":"【影响街道/乡镇】遂城镇 【高危重要客户】无 【影响客户】广门营、大马各庄、广门、躲水庄、小马各庄","startTime":"2019-07-03 06:00:00","stopDate":"2019-07-03 09:00:00","orgNo":"1340605","typeCode":"临时停电","poweroffArea":"【全线路停电】停广门营9号【纯农排变】,大马各庄9号【纯农排变】,广门营11号,广门营4号【纯农排变】,广门8号【纯农排变】,广门7号【纯农排变】,躲水庄3号【纯农排变】,广门16号【纯农排变】,广门营17号,大马各庄14号【纯农排变】,小马各庄2号【纯农排变】,大马各庄17号,广门营15号","poweroffReason":"【停电原因】由于站内倒方式导致３５ＫＶ广门变电站户木乡线５１４线路全线停电 【变更送电】无 【发布渠道】通过９５５９８发布","powerTime":"2019-07-03 08:31:54","powerComm":"已送电","subsNo":"","lineNo":"","tgNo":"","tgName":null,"infoStatus":"1","orgName":"国网徐水县供电公司","typeName":null,"infoStatusName":null,"dateDay":null,"orgNos":null,"nowTime":null,"countyName":null,"streetName":null,"villageName":null,"roadName":null,"communityName":null,"tranName":null,"sdLineName":null,"cityCode":"1340605","cityName":"国网徐水县供电公司","provinceCode":null,"stopTime":"2019-07-03 09:00:00","powerType":"全部","powerOffArea":"【全线路停电】停广门营9号【纯农排变】,大马各庄9号【纯农排变】,广门营11号,广门营4号【纯农排变】,广门8号【纯农排变】,广门7号【纯农排变】,躲水庄3号【纯农排变】,广门16号【纯农排变】,广门营17号,大马各庄14号【纯农排变】,小马各庄2号【纯农排变】,大马各庄17号,广门营15号","powerOffReason":"【停电原因】由于站内倒方式导致３５ＫＶ广门变电站户木乡线５１４线路全线停电 【变更送电】无 【发布渠道】通过９５５９８发布","powerOffId":"2019062713000550"},{"poweroffId":2019062713000549,"sgpoweroffId":null,"subsName":"","lineName":"刘庄线518","pubTranName":"辘轳把东,","scope":"【影响街道/乡镇】白沟镇 【高危重要客户】无 【影响客户】辘轳把村","startTime":"2019-06-28 08:00:00","stopDate":"2019-06-28 10:30:00","orgNo":"1340612","typeCode":"其他临时停电","poweroffArea":"【单台区停电】停辘轳把东","poweroffReason":"【停电原因】由于低压线路改造导致１１０ＫＶ白沟变电站１０ＫＶ刘庄５１８线路辘轳把东公变台区停电 【变更送电】因工作进度加快原因，送电时间由１２：００变更为１０：３０ 【发布渠道】通过９５５９８发布","powerTime":"2019-06-28 10:09:16","powerComm":"已送电","subsNo":"","lineNo":"","tgNo":"","tgName":null,"infoStatus":"1","orgName":"国网高碑店市供电公司","typeName":null,"infoStatusName":null,"dateDay":null,"orgNos":null,"nowTime":null,"countyName":null,"streetName":null,"villageName":null,"roadName":null,"communityName":null,"tranName":null,"sdLineName":null,"cityCode":"1340612","cityName":"国网高碑店市供电公司","provinceCode":null,"stopTime":"2019-06-28 10:30:00","powerType":"全部","powerOffArea":"【单台区停电】停辘轳把东","powerOffReason":"【停电原因】由于低压线路改造导致１１０ＫＶ白沟变电站１０ＫＶ刘庄５１８线路辘轳把东公变台区停电 【变更送电】因工作进度加快原因，送电时间由１２：００变更为１０：３０ 【发布渠道】通过９５５９８发布","powerOffId":"2019062713000549"},{"poweroffId":2019062713000548,"sgpoweroffId":null,"subsName":"","lineName":"曲城线513","pubTranName":"曲城10号【纯农排变】,曲城2号【纯农排变】,曲城7号,曲城4号【纯农排变】,曲城9号,徐水县重光餐具有限公司,曲城6号【纯农排变】,曲城11号【纯农排变】,曲城1号,曲城5号,曲城12号,曲城3号【纯农排变】,曲城13号,宏达面粉厂,曲城14号,曲城8号,徐水县亚东木器加工厂,","scope":"【影响街道/乡镇】遂城镇 【高危重要客户】无 【影响客户】曲城","startTime":"2019-07-03 06:00:00","stopDate":"2019-07-03 09:00:00","orgNo":"1340605","typeCode":"临时停电","poweroffArea":"【全线路停电】停曲城7号,曲城12号,曲城1号,曲城10号【纯农排变】,曲城4号【纯农排变】,曲城13号,曲城5号,宏达面粉厂,曲城8号,曲城14号,曲城9号,曲城11号【纯农排变】,徐水县重光餐具有限公司,曲城2号【纯农排变】,徐水县亚东木器加工厂,曲城6号【纯农排变】,曲城3号【纯农排变】","poweroffReason":"【停电原因】由于站内倒方式导致３５ＫＶ广门变电站曲城线５１３线路全线停电 【变更送电】无 【发布渠道】通过９５５９８发布","powerTime":"2019-07-03 08:32:26","powerComm":"已送电","subsNo":"","lineNo":"","tgNo":"","tgName":null,"infoStatus":"1","orgName":"国网徐水县供电公司","typeName":null,"infoStatusName":null,"dateDay":null,"orgNos":null,"nowTime":null,"countyName":null,"streetName":null,"villageName":null,"roadName":null,"communityName":null,"tranName":null,"sdLineName":null,"cityCode":"1340605","cityName":"国网徐水县供电公司","provinceCode":null,"stopTime":"2019-07-03 09:00:00","powerType":"全部","powerOffArea":"【全线路停电】停曲城7号,曲城12号,曲城1号,曲城10号【纯农排变】,曲城4号【纯农排变】,曲城13号,曲城5号,宏达面粉厂,曲城8号,曲城14号,曲城9号,曲城11号【纯农排变】,徐水县重光餐具有限公司,曲城2号【纯农排变】,徐水县亚东木器加工厂,曲城6号【纯农排变】,曲城3号【纯农排变】","powerOffReason":"【停电原因】由于站内倒方式导致３５ＫＶ广门变电站曲城线５１３线路全线停电 【变更送电】无 【发布渠道】通过９５５９８发布","powerOffId":"2019062713000548"},{"poweroffId":2019062713000547,"sgpoweroffId":null,"subsName":"","lineName":"大庞村线512","pubTranName":"大庞村8号【纯农排变】,龙源纸业有限公司3号（315KVA）,栗园庄6号,徐水县龙源纸业有限公司,冯家町4号,小庞村1号,冯家町5号,大庞村龙帅卫生巾厂,小庞村3号,大庞村19号,龙源造纸有限公司4号（315KVA）,冯家町3号【纯农排变】,龙源造纸有限公司2号（315KV),大庞村3号,大庞村20号,大庞村10号,大庞村14号【纯农排变】,大庞富郦城,徐水康威药品包装有限公司,大庞村16号,大庞村17号,大庞村4号【纯农排变】,大庞村21号【纯农排变】,大庞村12号,小庞村5号,大庞村23号,大庞村5号,大庞村13号,徐水县鑫丰管件1号,徐水县旭升管件制造厂2号,冯家町2号【纯农排变】,龙源造纸有限公司1号（200KVA）,冯家町1号,大庞村7号,栗园庄7号,大庞村6号,冯家町6号,大庞村2号,小庞村4号,栗园庄1号,栗园庄5号,大庞村15号,大庞村9号,小庞村2号【纯农排变】,大庞村18号,栗园庄10号,前进造纸厂2号,栗园庄8号,","scope":"【影响街道/乡镇】遂城镇 【高危重要客户】无 【影响客户】大庞村、栗元庄、冯家町、小庞村","startTime":"2019-07-03 06:00:00","stopDate":"2019-07-03 09:00:00","orgNo":"1340605","typeCode":"临时停电","poweroffArea":"【全线路停电】停大庞村16号,栗园庄10号,大庞村20号,徐水县鑫丰管件1号,龙源造纸有限公司2号（315KV),大庞村19号,龙源纸业有限公司3号（315KVA）,大庞村12号,前进造纸厂2号,龙源造纸有限公司4号（315KVA）,冯家町3号【纯农排变】,大庞村21号【纯农排变】,大庞村18号,小庞村2号【纯农排变】,大庞村8号【纯农排变】,大庞村10号,大庞村17号,冯家町4号,冯家町5号,大庞村23号,栗园庄6号,大庞村7号,大庞村9号,大庞村龙帅卫生巾厂,冯家町6号,大庞村14号【纯农排变】,徐水康威药品包装有限公司,栗园庄5号,栗园庄7号,大庞村5号,小庞村4号,大庞富郦城,栗园庄8号,大庞村15号,大庞村3号,大庞村4号【纯农排变】,冯家町1号,小庞村3号,栗园庄1号,大庞村13号,大庞村6号,小庞村1号,冯家町2号【纯农排变】,小庞村5号,徐水县龙源纸业有限公司,大庞村2号,徐水县旭升管件制造厂2号,龙源造纸有限公司1号（200KVA）","poweroffReason":"【停电原因】由于站内倒方式导致３５ＫＶ广门变电站大庞村５１２线路全线停电 【变更送电】无 【发布渠道】通过９５５９８发布","powerTime":"2019-07-03 08:32:45","powerComm":"已送电","subsNo":"","lineNo":"","tgNo":"","tgName":null,"infoStatus":"1","orgName":"国网徐水县供电公司","typeName":null,"infoStatusName":null,"dateDay":null,"orgNos":null,"nowTime":null,"countyName":null,"streetName":null,"villageName":null,"roadName":null,"communityName":null,"tranName":null,"sdLineName":null,"cityCode":"1340605","cityName":"国网徐水县供电公司","provinceCode":null,"stopTime":"2019-07-03 09:00:00","powerType":"全部","powerOffArea":"【全线路停电】停大庞村16号,栗园庄10号,大庞村20号,徐水县鑫丰管件1号,龙源造纸有限公司2号（315KV),大庞村19号,龙源纸业有限公司3号（315KVA）,大庞村12号,前进造纸厂2号,龙源造纸有限公司4号（315KVA）,冯家町3号【纯农排变】,大庞村21号【纯农排变】,大庞村18号,小庞村2号【纯农排变】,大庞村8号【纯农排变】,大庞村10号,大庞村17号,冯家町4号,冯家町5号,大庞村23号,栗园庄6号,大庞村7号,大庞村9号,大庞村龙帅卫生巾厂,冯家町6号,大庞村14号【纯农排变】,徐水康威药品包装有限公司,栗园庄5号,栗园庄7号,大庞村5号,小庞村4号,大庞富郦城,栗园庄8号,大庞村15号,大庞村3号,大庞村4号【纯农排变】,冯家町1号,小庞村3号,栗园庄1号,大庞村13号,大庞村6号,小庞村1号,冯家町2号【纯农排变】,小庞村5号,徐水县龙源纸业有限公司,大庞村2号,徐水县旭升管件制造厂2号,龙源造纸有限公司1号（200KVA）","powerOffReason":"【停电原因】由于站内倒方式导致３５ＫＶ广门变电站大庞村５１２线路全线停电 【变更送电】无 【发布渠道】通过９５５９８发布","powerOffId":"2019062713000547"},{"poweroffId":2019062713000545,"sgpoweroffId":null,"subsName":"","lineName":"大次良线511","pubTranName":"小次良3号,河北德耐美康投资有限公司,大次良11号,小次良4号,小次良机加工厂,徐水县长青车床加工厂,大次良面粉厂1号,大次良面粉厂2号,小次良2号,徐水县新华车床加工厂,大次良27号,大次良16号,曲城15号,大次良34号,大次良19号,徐水县一帆机床加工厂,曲城塑料厂,大次良15号,小次良1号,大次良21号,大次良17号,大次良1号,大次良31号,大次良30号,大次良14号,徐水县庆隆管件加工厂,大次良5号,胜利加工厂,大次良23号,","scope":"【影响街道/乡镇】遂城镇 【高危重要客户】无 【影响客户】大次良、小次良","startTime":"2019-07-03 06:00:00","stopDate":"2019-07-03 09:00:00","orgNo":"1340605","typeCode":"临时停电","poweroffArea":"【全线路停电】停大次良1号,大次良15号,大次良30号,大次良34号,大次良17号,大次良16号,小次良4号,大次良31号,大次良23号,徐水县一帆机床加工厂,大次良5号,曲城15号,大次良面粉厂1号,小次良机加工厂,大次良面粉厂2号,小次良2号,徐水县长青车床加工厂,胜利加工厂,大次良11号,曲城塑料厂,大次良19号,大次良14号,小次良1号,大次良27号,小次良3号,河北德耐美康投资有限公司,徐水县新华车床加工厂,大次良21号,徐水县庆隆管件加工厂","poweroffReason":"【停电原因】由于站内倒方式导致３５ＫＶ广门变电站大次良５１１线路全线停电 【变更送电】无 【发布渠道】通过９５５９８发布","powerTime":"2019-07-03 08:32:30","powerComm":"已送电","subsNo":"","lineNo":"","tgNo":"","tgName":null,"infoStatus":"1","orgName":"国网徐水县供电公司","typeName":null,"infoStatusName":null,"dateDay":null,"orgNos":null,"nowTime":null,"countyName":null,"streetName":null,"villageName":null,"roadName":null,"communityName":null,"tranName":null,"sdLineName":null,"cityCode":"1340605","cityName":"国网徐水县供电公司","provinceCode":null,"stopTime":"2019-07-03 09:00:00","powerType":"全部","powerOffArea":"【全线路停电】停大次良1号,大次良15号,大次良30号,大次良34号,大次良17号,大次良16号,小次良4号,大次良31号,大次良23号,徐水县一帆机床加工厂,大次良5号,曲城15号,大次良面粉厂1号,小次良机加工厂,大次良面粉厂2号,小次良2号,徐水县长青车床加工厂,胜利加工厂,大次良11号,曲城塑料厂,大次良19号,大次良14号,小次良1号,大次良27号,小次良3号,河北德耐美康投资有限公司,徐水县新华车床加工厂,大次良21号,徐水县庆隆管件加工厂","powerOffReason":"【停电原因】由于站内倒方式导致３５ＫＶ广门变电站大次良５１１线路全线停电 【变更送电】无 【发布渠道】通过９５５９８发布","powerOffId":"2019062713000545"},{"poweroffId":2019062713000525,"sgpoweroffId":null,"subsName":"","lineName":"梁各庄线523","pubTranName":"北石门村1#|村东,下黄蒿13#,北石门8台区变压器,下黄蒿村6#村南,下黄蒿村9#村东北,下黄蒿11#,下黄蒿12#,北石门6台区变压器,北石门村4#|北山【纯农排变】,下黄蒿村8#村东,下黄蒿村7#村北,下黄蒿10#变压器,北石门村2#|村西,北石门村陆金海50KVA,下黄蒿村3#|村北,北石门7#,下黄蒿村4#|村北,北石门9#,下黄蒿村5#西山,","scope":"【影响街道/乡镇】梁各庄镇【高危重要客户】无【影响客户】北石门村、下黄蒿村","startTime":"2019-06-27 17:35:57","stopDate":"2019-06-27 19:30:00","orgNo":"1340625","typeCode":"电网故障停限电","poweroffArea":"【分支停电】停下黄蒿11#,下黄蒿村9#村东北,下黄蒿12#,北石门6台区变压器,北石门村4#|北山【纯农排变】,下黄蒿村8#村东,下黄蒿村7#村北,下黄蒿10#变压器,北石门村2#|村西,北石门村陆金海50KVA,下黄蒿村3#|村北,北石门7#,下黄蒿村4#|村北,北石门9#,下黄蒿村5#西山,北石门8台区变压器,下黄蒿村6#村南,北石门村1#|村东,下黄蒿13#","poweroffReason":"【停电原因】由于速断跳闸导致１１０ＫＶ西陵变电站梁各庄线５２３线路００１号杆至０１１号杆之间停电【变更送电】因抢修进度加快原因，送电时间由２３：５９变更为１９：３０【发布渠道】通过９５５９８发布","powerTime":"2019-06-27 19:08:55","powerComm":"已送电","subsNo":"","lineNo":"","tgNo":"","tgName":null,"infoStatus":"1","orgName":"国网易县供电公司","typeName":null,"infoStatusName":null,"dateDay":null,"orgNos":null,"nowTime":null,"countyName":null,"streetName":null,"villageName":null,"roadName":null,"communityName":null,"tranName":null,"sdLineName":null,"cityCode":"1340625","cityName":"国网易县供电公司","provinceCode":null,"stopTime":"2019-06-27 19:30:00","powerType":"全部","powerOffArea":"【分支停电】停下黄蒿11#,下黄蒿村9#村东北,下黄蒿12#,北石门6台区变压器,北石门村4#|北山【纯农排变】,下黄蒿村8#村东,下黄蒿村7#村北,下黄蒿10#变压器,北石门村2#|村西,北石门村陆金海50KVA,下黄蒿村3#|村北,北石门7#,下黄蒿村4#|村北,北石门9#,下黄蒿村5#西山,北石门8台区变压器,下黄蒿村6#村南,北石门村1#|村东,下黄蒿13#","powerOffReason":"【停电原因】由于速断跳闸导致１１０ＫＶ西陵变电站梁各庄线５２３线路００１号杆至０１１号杆之间停电【变更送电】因抢修进度加快原因，送电时间由２３：５９变更为１９：３０【发布渠道】通过９５５９８发布","powerOffId":"2019062713000525"},{"poweroffId":2019062713000492,"sgpoweroffId":null,"subsName":"","lineName":"机床厂515","pubTranName":"一机床2 南,瑞仁公司,自来水2,高一3变压器,街里北变压器,高碑店市路灯管理办公室变压器,高三大方变压器,一机床2,保定冠力工程机械,高三新变压器,高碑店市金桥汽车服务公司,高碑店市贤合瑞成废旧物资回收有限公司变压器,高三大队变压器,燕南机械厂,街里南变压器,特种铸造厂,北一重型机械铸造股份有限公司2,赵辛禾,春晖新吉机械制造有限公司,高碑店市高碑店龙泉浴池变压器,高三六队变压器,杨卫强变压器,高三村市场变压器,高三街西变压器,高三街东变压器,0546632231-河北人和茂盛商混砼有限责任公司-专变-47889511-变压器,北一重型机械铸造股份有限公司1,","scope":"【影响街道/乡镇】和平办事处 【高危重要客户】无 【影响客户】高三村、人和茂盛、北京第一机床锻造、赵新禾、燕南、一机床铸造、春晖新吉、自来水、特种铸造、瑞仁厂、三聚厂、北一重型、冠力厂、金桥汽车、高碑店祥和瑞成、机床厂路灯","startTime":"2019-07-05 06:00:00","stopDate":"2019-07-05 12:00:00","orgNo":"1340612","typeCode":"临时停电","poweroffArea":"【全线路停电】停高三新变压器,高碑店市金桥汽车服务公司,高碑店市贤合瑞成废旧物资回收有限公司变压器,高三大队变压器,燕南机械厂,街里南变压器,特种铸造厂,北一重型机械铸造股份有限公司2,赵辛禾,春晖新吉机械制造有限公司,高碑店市高碑店龙泉浴池变压器,高三六队变压器,杨卫强变压器,高三村市场变压器,高三街西变压器,高三街东变压器,0546632231-河北人和茂盛商混砼有限责任公司-专变-47889511-变压器,保定冠力工程机械,北一重型机械铸造股份有限公司1,一机床2,一机床2 南,瑞仁公司,自来水2,高一3变压器,街里北变压器,高碑店市路灯管理办公室变压器,高三大方变压器","poweroffReason":"【停电原因】由于电源接引导致２２０ＫＶ高碑店变电站１０ＫＶ机床厂５１５线路全线停电 【变更送电】无 【发布渠道】高碑店市高碑店电视台（０６月２８日０８时至０７月０４日１８时之间）屏幕上方滚动","powerTime":"2019-07-05 11:39:10","powerComm":"已送电","subsNo":"","lineNo":"","tgNo":"","tgName":null,"infoStatus":"1","orgName":"国网高碑店市供电公司","typeName":null,"infoStatusName":null,"dateDay":null,"orgNos":null,"nowTime":null,"countyName":null,"streetName":null,"villageName":null,"roadName":null,"communityName":null,"tranName":null,"sdLineName":null,"cityCode":"1340612","cityName":"国网高碑店市供电公司","provinceCode":null,"stopTime":"2019-07-05 12:00:00","powerType":"全部","powerOffArea":"【全线路停电】停高三新变压器,高碑店市金桥汽车服务公司,高碑店市贤合瑞成废旧物资回收有限公司变压器,高三大队变压器,燕南机械厂,街里南变压器,特种铸造厂,北一重型机械铸造股份有限公司2,赵辛禾,春晖新吉机械制造有限公司,高碑店市高碑店龙泉浴池变压器,高三六队变压器,杨卫强变压器,高三村市场变压器,高三街西变压器,高三街东变压器,0546632231-河北人和茂盛商混砼有限责任公司-专变-47889511-变压器,保定冠力工程机械,北一重型机械铸造股份有限公司1,一机床2,一机床2 南,瑞仁公司,自来水2,高一3变压器,街里北变压器,高碑店市路灯管理办公室变压器,高三大方变压器","powerOffReason":"【停电原因】由于电源接引导致２２０ＫＶ高碑店变电站１０ＫＶ机床厂５１５线路全线停电 【变更送电】无 【发布渠道】高碑店市高碑店电视台（０６月２８日０８时至０７月０４日１８时之间）屏幕上方滚动","powerOffId":"2019062713000492"},{"poweroffId":2019062713000490,"sgpoweroffId":null,"subsName":"","lineName":"10kV532建行线","pubTranName":"黄辛庄中,黄辛庄北地,汇通路桥建设集团公路工程有限公司变压器,河北嘉安物业服务有限公司,河北嘉安物业服务有限公司2#变压器,黄辛庄南(油库),高碑店市蔬菜研究中心变压器,传感器厂,河北盈隆盛洋房地产开发有限公司变压器,黄辛庄新,传感器公变,河北杉浩房地产开发有限公司变压器,南环小区,高碑店市欧华物业服务有限公司,泰和小区1,河北嘉安物业服务有限公司1#变压器,文明公寓公变,泰和小区2,蔬菜研究中心,交通运政,0387449078-隆基泰和实业有限公司(阳光逸景)-专变-47764273-变压器,建设银行,","scope":"【影响街道/乡镇】南环路、团结西路、益民路、结文胡同、结祥胡同、结利胡同、文明南路、华茂巷 【高危重要客户】中国建设银行保定分行 【影响客户】黄辛庄村、花溪墅小区、锦上兰亭小区、世纪花园小区、益民小区、文明路实验小学、光大公司、南环小区、阳光逸景、泰和小区、文明公寓二期、河北新宇传感器厂、花丝厂家属楼、黄金小区、华都家属楼、建设银行、泰和花园、传感器家属楼、河北嘉安物业服务有限公司、高碑店市润庭园物业服务有限公司、高碑店市蔬菜研究中心、高碑店市欧华物业服务有限公司、高碑店市单单幕墙有限公司、高碑店市川石箱包制造有限公司、河北盈隆盛洋房地产开发有限公司、交通运政、河北戌兴实业有限公司、汇通路桥建设集团有限公司、河北杉浩房地产开发有限公司","startTime":"2019-07-05 02:00:00","stopDate":"2019-07-05 10:00:00","orgNo":"1340612","typeCode":"临时停电","poweroffArea":"【分支停电】停汇通路桥建设集团公路工程有限公司变压器,黄辛庄中,黄辛庄北地,河北嘉安物业服务有限公司,河北嘉安物业服务有限公司2#变压器,黄辛庄南(油库),高碑店市蔬菜研究中心变压器,传感器厂,河北盈隆盛洋房地产开发有限公司变压器,黄辛庄新,传感器公变,河北杉浩房地产开发有限公司变压器,南环小区,高碑店市欧华物业服务有限公司,泰和小区1,河北嘉安物业服务有限公司1#变压器,文明公寓公变,泰和小区2,蔬菜研究中心,交通运政,0387449078-隆基泰和实业有限公司(阳光逸景)-专变-47764273-变压器,建设银行","poweroffReason":"【停电原因】由于负荷切改导致１１０ＫＶ马庄变电站１０ＫＶ建行５３２线路０２号断路器以下停电 【变更送电】无 【发布渠道】高碑店市高碑店电视台（０６月２８日０８时至０７月０４日１８时之间）屏幕上方滚动","powerTime":"2019-07-05 09:27:07","powerComm":"已送电","subsNo":"","lineNo":"","tgNo":"","tgName":null,"infoStatus":"1","orgName":"国网高碑店市供电公司","typeName":null,"infoStatusName":null,"dateDay":null,"orgNos":null,"nowTime":null,"countyName":null,"streetName":null,"villageName":null,"roadName":null,"communityName":null,"tranName":null,"sdLineName":null,"cityCode":"1340612","cityName":"国网高碑店市供电公司","provinceCode":null,"stopTime":"2019-07-05 10:00:00","powerType":"全部","powerOffArea":"【分支停电】停汇通路桥建设集团公路工程有限公司变压器,黄辛庄中,黄辛庄北地,河北嘉安物业服务有限公司,河北嘉安物业服务有限公司2#变压器,黄辛庄南(油库),高碑店市蔬菜研究中心变压器,传感器厂,河北盈隆盛洋房地产开发有限公司变压器,黄辛庄新,传感器公变,河北杉浩房地产开发有限公司变压器,南环小区,高碑店市欧华物业服务有限公司,泰和小区1,河北嘉安物业服务有限公司1#变压器,文明公寓公变,泰和小区2,蔬菜研究中心,交通运政,0387449078-隆基泰和实业有限公司(阳光逸景)-专变-47764273-变压器,建设银行","powerOffReason":"【停电原因】由于负荷切改导致１１０ＫＶ马庄变电站１０ＫＶ建行５３２线路０２号断路器以下停电 【变更送电】无 【发布渠道】高碑店市高碑店电视台（０６月２８日０８时至０７月０４日１８时之间）屏幕上方滚动","powerOffId":"2019062713000490"}],"pageModel":{"pageNow":894,"totalCount":10973,"totalPage":1098,"tableRows":0,"pageCount":10,"beginCount":8930},"isExperi":"1"}