{"message":"","today":"2020-06-15","seleList":[{"poweroffId":2019062713000089,"sgpoweroffId":null,"subsName":"","lineName":"向阳北路线512","pubTranName":"县北公用2267变压器,执法局公用6629变压器,田银虎变压器,保险公用2427变压器,中国网通唐县分公司2434,实验公用1418变压器,粮油家属0019变压器,鑫铎花园3372变压器,唐县人民医院315kVA,尧天房地产2#配变,阳光花园2252变压器,中山新村2号2276变压器,中山新村1号2275变压器,计生办公用0117变压器,0669389616-河北建设集团有限公司唐县混凝土分公司-专变-210326826-河北建设集团有限公司唐县混凝土分公司,北庄子路口2129变压器,电力局公用0621变压器,唐县城北水泥制品加工厂,唐县天宝房地产开发有限公司新装配变,镇修公用0107变压器,北庄子村东4771变压器,阳光花园3412变压器,国防路公用2277变压器,看守所0005,尧山小区4958变压器,金盛花园,旧检察院公用2436变压器,副食公用0116变压器,县北村内4463变压器,北庄子村内0121变压器,鑫铎花园2#变压器,隆泰花园3380变压器,县医院315kVA,纺纱厂0009,南庄子村西0018变压器,桥北公用变压器,第三小学6625变压器,城北河2278变压器,隆泰家园2832变压器,南庄子西2#变压器,部队0082,尧天房地产3#配变,第三幼儿园6626变压器,河北建设集团有限公司混凝土分公司3007,旧联社公用1300变压器,","scope":"【影响街道/乡镇】仁厚镇、国防路、向阳街【高危重要客户】无【影响客户】仁厚镇村、南庄子村、北庄子村、山南庄村、县北村、土产小区、新华超市、电力局西院、计生站、林业局、粮局二库、粮油家属、城管大队、福祥园小区、实验中学、隆泰佳苑、理想中学、鑫铎花园、阳光花园、高速交警、城关派出所、中山新村、北城枫景、化肥厂家属院、部队家属院、农排公司、副食家属楼、恒基花园、联通公司、旅游局、县直第一幼儿园、县直第二幼儿园、第二幼儿园、尧山小区、同泽园、河北保厦房地产开发有限公司、河北尧天房地产开发有限公司、看守所、部队、中国移动通信集团河北有限公司唐县分公司、纺纱厂、水电站、河北建设集团有限公司混凝土分公司、金盛花园、唐县天宝房地产开发有限公司","startTime":"2019-07-11 06:00:00","stopDate":"2019-07-11 14:30:00","orgNo":"1340622","typeCode":"计划停电","poweroffArea":"【分支停电】停鑫铎花园3372变压器,唐县人民医院315kVA,尧天房地产2#配变,阳光花园2252变压器,中山新村2号2276变压器,中山新村1号2275变压器,尧山小区4958变压器,金盛花园,旧检察院公用2436变压器,副食公用0116变压器,县北村内4463变压器,北庄子村内0121变压器,鑫铎花园2#变压器,隆泰花园3380变压器,南庄子村西0018变压器,县医院315kVA,纺纱厂0009,桥北公用变压器,第三小学6625变压器,城北河2278变压器,隆泰家园2832变压器,南庄子西2#变压器,部队0082,尧天房地产3#配变,第三幼儿园6626变压器,河北建设集团有限公司混凝土分公司3007,旧联社公用1300变压器,县北公用2267变压器,执法局公用6629变压器,田银虎变压器,保险公用2427变压器,中国网通唐县分公司2434,实验公用1418变压器,粮油家属0019变压器,计生办公用0117变压器,0669389616-河北建设集团有限公司唐县混凝土分公司-专变-210326826-河北建设集团有限公司唐县混凝土分公司,北庄子路口2129变压器,电力局公用0621变压器,唐县城北水泥制品加工厂,唐县天宝房地产开发有限公司新装配变,镇修公用0107变压器,北庄子村东4771变压器,阳光花园3412变压器,国防路公用2277变压器,看守所0005","poweroffReason":"【停电原因】由于Ｔ接引线导致３５ＫＶ城关变电站向阳北路线５１２线路００１号环网柜以下线路停电【变更送电】因工作进度加快原因，送电时间由１８：００变更为１４：３０【发布渠道】保定市唐县电视台（０６月２７日至０７月１０日的２０：００时至２０：３０时之间）","powerTime":"2019-07-11 13:58:23","powerComm":"已送电","subsNo":"","lineNo":"","tgNo":"","tgName":null,"infoStatus":"1","orgName":"国网唐县供电公司","typeName":null,"infoStatusName":null,"dateDay":null,"orgNos":null,"nowTime":null,"countyName":null,"streetName":null,"villageName":null,"roadName":null,"communityName":null,"tranName":null,"sdLineName":null,"cityCode":"1340622","cityName":"国网唐县供电公司","provinceCode":null,"stopTime":"2019-07-11 14:30:00","powerType":"全部","powerOffArea":"【分支停电】停鑫铎花园3372变压器,唐县人民医院315kVA,尧天房地产2#配变,阳光花园2252变压器,中山新村2号2276变压器,中山新村1号2275变压器,尧山小区4958变压器,金盛花园,旧检察院公用2436变压器,副食公用0116变压器,县北村内4463变压器,北庄子村内0121变压器,鑫铎花园2#变压器,隆泰花园3380变压器,南庄子村西0018变压器,县医院315kVA,纺纱厂0009,桥北公用变压器,第三小学6625变压器,城北河2278变压器,隆泰家园2832变压器,南庄子西2#变压器,部队0082,尧天房地产3#配变,第三幼儿园6626变压器,河北建设集团有限公司混凝土分公司3007,旧联社公用1300变压器,县北公用2267变压器,执法局公用6629变压器,田银虎变压器,保险公用2427变压器,中国网通唐县分公司2434,实验公用1418变压器,粮油家属0019变压器,计生办公用0117变压器,0669389616-河北建设集团有限公司唐县混凝土分公司-专变-210326826-河北建设集团有限公司唐县混凝土分公司,北庄子路口2129变压器,电力局公用0621变压器,唐县城北水泥制品加工厂,唐县天宝房地产开发有限公司新装配变,镇修公用0107变压器,北庄子村东4771变压器,阳光花园3412变压器,国防路公用2277变压器,看守所0005","powerOffReason":"【停电原因】由于Ｔ接引线导致３５ＫＶ城关变电站向阳北路线５１２线路００１号环网柜以下线路停电【变更送电】因工作进度加快原因，送电时间由１８：００变更为１４：３０【发布渠道】保定市唐县电视台（０６月２７日至０７月１０日的２０：００时至２０：３０时之间）","powerOffId":"2019062713000089"},{"poweroffId":2019062713000069,"sgpoweroffId":null,"subsName":"","lineName":"代庄线544","pubTranName":"10111|房地产综合开发公司综合,代庄农排【纯农排变】,石油公司,代庄2#村北综合,10015|富康小区综合,电力宾馆,佟麟阁公用出线间隔配电变压器,东关大队,王闯拔丝厂,10017|气象站小区综合,王文仁,国网河北省电力公司高阳县供电分公司变压器,高阳县龙泉花园小区三区壹号综合箱变配变配电变压器,卫生局综合,大业纺织品公司,东街大队农业,高阳县高哈托运处变压器,东风塑料厂,高阳县龙泉花园小区三区贰号综合箱变配变配电变压器,巨马公司,10016|东关后街综合,齐振山,10014|东关公用综合,泽乐巾被厂,骆增新,SQ商贸城小区综合,高阳县鑫丰印染厂变压器,文浩毛巾厂,郭胜利,10054|水利局小区综合,荧光染料厂王德成,SQ东园小区,杨屯织物厂,东关刘艳明,东外环路灯,电力局仪表,河北省保定市高阳县龙泉小区2期东台区出线配电变压器,河北蓝瑞照明科技有限公司变压器,10007|土地局家属院综合,赵通村南11号综合,文浩纺织有限公司,10055|石油公司综合,刘二子,高阳县石榴园毛巾厂变压器,10056|幸福街小区综合,龙泉花园1出线配电变压器,王耀先(1),河北长润房地产开发有限公司变压器,","scope":"【影响街道/乡镇】高阳镇 【高危重要客户】无 【影响客户】代庄村北部分用户、赵通村南部分用户、东关村、龙泉小区部分用户","startTime":"2019-07-14 06:00:00","stopDate":"2019-07-14 13:00:00","orgNo":"1340613","typeCode":"计划停电","poweroffArea":"【分支停电】停河北省保定市高阳县龙泉小区2期东台区出线配电变压器,河北蓝瑞照明科技有限公司变压器,10007|土地局家属院综合,赵通村南11号综合,王文仁,国网河北省电力公司高阳县供电分公司变压器,高阳县龙泉花园小区三区壹号综合箱变配变配电变压器,卫生局综合,佟麟阁公用出线间隔配电变压器,东关大队,王闯拔丝厂,10017|气象站小区综合,大业纺织品公司,东街大队农业,高阳县高哈托运处变压器,东风塑料厂,高阳县龙泉花园小区三区贰号综合箱变配变配电变压器,巨马公司,10016|东关后街综合,齐振山,10014|东关公用综合,泽乐巾被厂,骆增新,SQ商贸城小区综合,代庄2#村北综合,10015|富康小区综合,电力宾馆,10056|幸福街小区综合,高阳县鑫丰印染厂变压器,文浩纺织有限公司,10055|石油公司综合,刘二子,高阳县石榴园毛巾厂变压器,河北长润房地产开发有限公司变压器,10111|房地产综合开发公司综合,代庄农排【纯农排变】,石油公司,龙泉花园1出线配电变压器,王耀先(1),文浩毛巾厂,郭胜利,10054|水利局小区综合,荧光染料厂王德成,SQ东园小区,杨屯织物厂,东关刘艳明,东外环路灯,电力局仪表","poweroffReason":"【停电原因】由于电杆移位导致１１０ＫＶ城东变电站代庄５４４线路主线３６号杆３６号开关以下线路停电【变更送电】因抢修进度加快原因，送电时间由１４：００变更为１３：００【发布渠道】高阳县电视台（６月２８日１９时至２１时之间）屏幕下方滚动播出","powerTime":"2019-07-14 12:14:14","powerComm":"已送电","subsNo":"","lineNo":"","tgNo":"","tgName":null,"infoStatus":"1","orgName":"国网高阳县供电公司","typeName":null,"infoStatusName":null,"dateDay":null,"orgNos":null,"nowTime":null,"countyName":null,"streetName":null,"villageName":null,"roadName":null,"communityName":null,"tranName":null,"sdLineName":null,"cityCode":"1340613","cityName":"国网高阳县供电公司","provinceCode":null,"stopTime":"2019-07-14 13:00:00","powerType":"全部","powerOffArea":"【分支停电】停河北省保定市高阳县龙泉小区2期东台区出线配电变压器,河北蓝瑞照明科技有限公司变压器,10007|土地局家属院综合,赵通村南11号综合,王文仁,国网河北省电力公司高阳县供电分公司变压器,高阳县龙泉花园小区三区壹号综合箱变配变配电变压器,卫生局综合,佟麟阁公用出线间隔配电变压器,东关大队,王闯拔丝厂,10017|气象站小区综合,大业纺织品公司,东街大队农业,高阳县高哈托运处变压器,东风塑料厂,高阳县龙泉花园小区三区贰号综合箱变配变配电变压器,巨马公司,10016|东关后街综合,齐振山,10014|东关公用综合,泽乐巾被厂,骆增新,SQ商贸城小区综合,代庄2#村北综合,10015|富康小区综合,电力宾馆,10056|幸福街小区综合,高阳县鑫丰印染厂变压器,文浩纺织有限公司,10055|石油公司综合,刘二子,高阳县石榴园毛巾厂变压器,河北长润房地产开发有限公司变压器,10111|房地产综合开发公司综合,代庄农排【纯农排变】,石油公司,龙泉花园1出线配电变压器,王耀先(1),文浩毛巾厂,郭胜利,10054|水利局小区综合,荧光染料厂王德成,SQ东园小区,杨屯织物厂,东关刘艳明,东外环路灯,电力局仪表","powerOffReason":"【停电原因】由于电杆移位导致１１０ＫＶ城东变电站代庄５４４线路主线３６号杆３６号开关以下线路停电【变更送电】因抢修进度加快原因，送电时间由１４：００变更为１３：００【发布渠道】高阳县电视台（６月２８日１９时至２１时之间）屏幕下方滚动播出","powerOffId":"2019062713000069"},{"poweroffId":2019062713000063,"sgpoweroffId":null,"subsName":"","lineName":"杨屯线543","pubTranName":"高阳县沪阳纺织品有限公司变压器,代庄3#村东综合,高阳宾馆2(500),高阳县杨屯第一染纱厂二厂电压器,佟麟阁公用出线配电变压器,杨屯村4号综合,杨屯3#村南综合,杨洪涛,高阳县新杰棉织厂,代庄1#村南综合,高阳县宏业染织有限公司变压器,杨屯1#村西综合,杨屯2#村北综合,高阳县中硕印染厂变压器,10046|科委生活小区综合,电力局仪表,10098|电力局东北生活区综合,杨屯村,","scope":"【影响街道/乡镇】佟麟阁大街 【高危重要客户】无 【影响客户】代庄村东、代庄村南、杨屯村","startTime":"2019-07-14 06:00:00","stopDate":"2019-07-14 13:00:00","orgNo":"1340613","typeCode":"计划停电","poweroffArea":"【分支停电】停高阳宾馆2(500),高阳县杨屯第一染纱厂二厂电压器,代庄1#村南综合,高阳县宏业染织有限公司变压器,高阳县新杰棉织厂,杨屯村,高阳县中硕印染厂变压器,电力局仪表,高阳县沪阳纺织品有限公司变压器,10098|电力局东北生活区综合,代庄3#村东综合,杨屯1#村西综合,佟麟阁公用出线配电变压器,杨屯村4号综合,杨屯3#村南综合,杨屯2#村北综合,杨洪涛,10046|科委生活小区综合","poweroffReason":"【停电原因】由于电杆移位导致１１０ＫＶ城东变电站杨屯５４３线路主线３６号杆３６号开关以下线路停电【变更送电】因抢修进度加快原因，送电时间由１４：００变更为１３：００【发布渠道】高阳县电视台（６月２８日１９时至２１时之间）屏幕下方滚动播出","powerTime":"2019-07-14 12:14:32","powerComm":"已送电","subsNo":"","lineNo":"","tgNo":"","tgName":null,"infoStatus":"1","orgName":"国网高阳县供电公司","typeName":null,"infoStatusName":null,"dateDay":null,"orgNos":null,"nowTime":null,"countyName":null,"streetName":null,"villageName":null,"roadName":null,"communityName":null,"tranName":null,"sdLineName":null,"cityCode":"1340613","cityName":"国网高阳县供电公司","provinceCode":null,"stopTime":"2019-07-14 13:00:00","powerType":"全部","powerOffArea":"【分支停电】停高阳宾馆2(500),高阳县杨屯第一染纱厂二厂电压器,代庄1#村南综合,高阳县宏业染织有限公司变压器,高阳县新杰棉织厂,杨屯村,高阳县中硕印染厂变压器,电力局仪表,高阳县沪阳纺织品有限公司变压器,10098|电力局东北生活区综合,代庄3#村东综合,杨屯1#村西综合,佟麟阁公用出线配电变压器,杨屯村4号综合,杨屯3#村南综合,杨屯2#村北综合,杨洪涛,10046|科委生活小区综合","powerOffReason":"【停电原因】由于电杆移位导致１１０ＫＶ城东变电站杨屯５４３线路主线３６号杆３６号开关以下线路停电【变更送电】因抢修进度加快原因，送电时间由１４：００变更为１３：００【发布渠道】高阳县电视台（６月２８日１９时至２１时之间）屏幕下方滚动播出","powerOffId":"2019062713000063"},{"poweroffId":2019062713000056,"sgpoweroffId":null,"subsName":"","lineName":"季朗线515","pubTranName":"09002|季朗东北10#综合,高阳县中洲水业有限公司变压器,张步军,高阳县华冀织物厂,09081|季朗东北13农业【纯农排变】,09083|季朗村东北15农业,中国石油华北油田公司第三采油厂,09082|季朗远村北14农业【纯农排变】,保定恒熙塑料金属制品有限公司,09001|季朗西北9#综合,09080|季朗村北12农业【纯农排变】,季朗村东北14#综合,中国石油天然气有限公司华北油田分公司变压器,新华皮毛厂,杨军毛巾厂,","scope":"【影响街道/乡镇】邢南乡 【高危重要客户】无 【影响客户】季朗村西北","startTime":"2019-07-14 06:00:00","stopDate":"2019-07-14 11:00:00","orgNo":"1340613","typeCode":"计划停电","poweroffArea":"【分支停电】停中国石油华北油田公司第三采油厂,高阳县中洲水业有限公司变压器,张步军,高阳县华冀织物厂,09081|季朗东北13农业【纯农排变】,09083|季朗村东北15农业,09082|季朗远村北14农业【纯农排变】,保定恒熙塑料金属制品有限公司,09001|季朗西北9#综合,09080|季朗村北12农业【纯农排变】,季朗村东北14#综合,中国石油天然气有限公司华北油田分公司变压器,新华皮毛厂,杨军毛巾厂,09002|季朗东北10#综合","poweroffReason":"【停电原因】由于电杆移位导致３５ＫＶ西田变电站季朗５１５线路季朗村里分支１３号杆１３号开关以下线路停电【变更送电】因工作量大原因，送电时间由１０：００变更为１１：００【发布渠道】高阳县电视台（６月２８日１９时至２１时之间）屏幕下方滚动播出","powerTime":"2019-07-14 10:47:38","powerComm":"已送电","subsNo":"","lineNo":"","tgNo":"","tgName":null,"infoStatus":"1","orgName":"国网高阳县供电公司","typeName":null,"infoStatusName":null,"dateDay":null,"orgNos":null,"nowTime":null,"countyName":null,"streetName":null,"villageName":null,"roadName":null,"communityName":null,"tranName":null,"sdLineName":null,"cityCode":"1340613","cityName":"国网高阳县供电公司","provinceCode":null,"stopTime":"2019-07-14 11:00:00","powerType":"全部","powerOffArea":"【分支停电】停中国石油华北油田公司第三采油厂,高阳县中洲水业有限公司变压器,张步军,高阳县华冀织物厂,09081|季朗东北13农业【纯农排变】,09083|季朗村东北15农业,09082|季朗远村北14农业【纯农排变】,保定恒熙塑料金属制品有限公司,09001|季朗西北9#综合,09080|季朗村北12农业【纯农排变】,季朗村东北14#综合,中国石油天然气有限公司华北油田分公司变压器,新华皮毛厂,杨军毛巾厂,09002|季朗东北10#综合","powerOffReason":"【停电原因】由于电杆移位导致３５ＫＶ西田变电站季朗５１５线路季朗村里分支１３号杆１３号开关以下线路停电【变更送电】因工作量大原因，送电时间由１０：００变更为１１：００【发布渠道】高阳县电视台（６月２８日１９时至２１时之间）屏幕下方滚动播出","powerOffId":"2019062713000056"},{"poweroffId":2019062713000048,"sgpoweroffId":null,"subsName":"","lineName":"10kV冉河头线540","pubTranName":"李八庄内4,","scope":"【影响街道/乡镇】北店乡 【高危重要客户】无 【影响客户】李八庄","startTime":"2019-06-27 08:28:09","stopDate":"2019-06-27 11:00:00","orgNo":"1340618","typeCode":"电网故障停限电","poweroffArea":"【单台区停电】停李八庄内4","poweroffReason":"【停电原因】由于低压线被树挂断导致２２０ＫＶ邓村变电站１０ＫＶ冉河头线５４０线路李八庄内４号公变台区停电 【变更送电】无 【发布渠道】通过９５５９８发布","powerTime":"2019-06-27 10:43:50","powerComm":"张新生通知已送电","subsNo":"","lineNo":"","tgNo":"","tgName":null,"infoStatus":"1","orgName":"国网清苑县供电公司","typeName":null,"infoStatusName":null,"dateDay":null,"orgNos":null,"nowTime":null,"countyName":null,"streetName":null,"villageName":null,"roadName":null,"communityName":null,"tranName":null,"sdLineName":null,"cityCode":"1340618","cityName":"国网清苑县供电公司","provinceCode":null,"stopTime":"2019-06-27 11:00:00","powerType":"全部","powerOffArea":"【单台区停电】停李八庄内4","powerOffReason":"【停电原因】由于低压线被树挂断导致２２０ＫＶ邓村变电站１０ＫＶ冉河头线５４０线路李八庄内４号公变台区停电 【变更送电】无 【发布渠道】通过９５５９８发布","powerOffId":"2019062713000048"},{"poweroffId":2019062713000041,"sgpoweroffId":null,"subsName":"","lineName":"岗南线517","pubTranName":"大册村5#,","scope":"【影响街道/乡镇】大册营镇 【高危重要客户】无 【影响客户】大册村","startTime":"2019-06-27 07:45:35","stopDate":"2019-06-27 09:00:00","orgNo":"1340617","typeCode":"电网故障停限电","poweroffArea":"【单台区停电】停大册村5#","poweroffReason":"【停电原因】由于ＪＰ柜开关烧毁导致１１０ＫＶ大册营变电站岗南线５１７线路大册村５＃公变台区停电 【变更送电】因抢修进度加快原因，送电时间由１２：００变更为９：００ 【发布渠道】通过９５５９８发布","powerTime":"2019-06-27 08:44:51","powerComm":"已送电","subsNo":"","lineNo":"","tgNo":"","tgName":null,"infoStatus":"1","orgName":"国网满城县供电公司","typeName":null,"infoStatusName":null,"dateDay":null,"orgNos":null,"nowTime":null,"countyName":null,"streetName":null,"villageName":null,"roadName":null,"communityName":null,"tranName":null,"sdLineName":null,"cityCode":"1340617","cityName":"国网满城县供电公司","provinceCode":null,"stopTime":"2019-06-27 09:00:00","powerType":"全部","powerOffArea":"【单台区停电】停大册村5#","powerOffReason":"【停电原因】由于ＪＰ柜开关烧毁导致１１０ＫＶ大册营变电站岗南线５１７线路大册村５＃公变台区停电 【变更送电】因抢修进度加快原因，送电时间由１２：００变更为９：００ 【发布渠道】通过９５５９８发布","powerOffId":"2019062713000041"},{"poweroffId":2019062713000035,"sgpoweroffId":null,"subsName":"","lineName":"石家庄512","pubTranName":"六平地村1#,旺家台村2#,石家庄村1#,甘河净乡政府,旺家台村4#,六平地村2#,下卫厂村1#,七峪村1#,甘河净5#,下卫厂2#村南,甘河净村2#,武家庄村2#,六平地村3#,七峪村4#,武家庄村1#,宝石4队,甘河净村3#,张公铺村4#,上卫厂村1#,张公铺村5#,七峪村5#,石家庄村3#,张公铺村1#,上卫厂村2#,七峪村2#,下卫厂村3#,张公铺村3#,旺家台村1#,旺家台3#,甘河净村1#,上卫厂村3#,宝石村5#,七峪7#变压器,王宏远矿山,甘河净8#,","scope":"【影响街道/乡镇】七峪乡、坡仓乡、甘河净乡【高危重要客户】无【影响客户】七峪村、石家庄村、武家庄村、张公铺村、六平地村、上苇场村、下苇场村、宝石村、甘河净村、旺家台村","startTime":"2019-06-27 06:55:27","stopDate":"2019-06-27 12:00:00","orgNo":"1340625","typeCode":"电网故障停限电","poweroffArea":"【全线路停电】停上卫厂村2#,下卫厂2#村南,武家庄村2#,上卫厂村3#,旺家台村1#,六平地村2#,六平地村1#,旺家台村4#,甘河净5#,旺家台村2#,下卫厂村3#,宝石村5#,甘河净村1#,七峪村2#,七峪村1#,七峪7#变压器,张公铺村3#,六平地村3#,武家庄村1#,张公铺村1#,下卫厂村1#,甘河净乡政府,七峪村5#,甘河净村3#,宝石4队,甘河净8#,张公铺村4#,石家庄村1#,张公铺村5#,石家庄村3#,上卫厂村1#,王宏远矿山,旺家台3#,七峪村4#,甘河净村2#","poweroffReason":"【停电原因】由于速断跳闸导致３５ＫＶ甘河净变电站石家庄５１２线路全线停电【变更送电】因抢修进度加快原因，送电时间由１４：００变更为１２：００【发布渠道】通过９５５９８发布","powerTime":"2019-06-27 11:27:14","powerComm":"已送电","subsNo":"","lineNo":"","tgNo":"","tgName":null,"infoStatus":"1","orgName":"国网易县供电公司","typeName":null,"infoStatusName":null,"dateDay":null,"orgNos":null,"nowTime":null,"countyName":null,"streetName":null,"villageName":null,"roadName":null,"communityName":null,"tranName":null,"sdLineName":null,"cityCode":"1340625","cityName":"国网易县供电公司","provinceCode":null,"stopTime":"2019-06-27 12:00:00","powerType":"全部","powerOffArea":"【全线路停电】停上卫厂村2#,下卫厂2#村南,武家庄村2#,上卫厂村3#,旺家台村1#,六平地村2#,六平地村1#,旺家台村4#,甘河净5#,旺家台村2#,下卫厂村3#,宝石村5#,甘河净村1#,七峪村2#,七峪村1#,七峪7#变压器,张公铺村3#,六平地村3#,武家庄村1#,张公铺村1#,下卫厂村1#,甘河净乡政府,七峪村5#,甘河净村3#,宝石4队,甘河净8#,张公铺村4#,石家庄村1#,张公铺村5#,石家庄村3#,上卫厂村1#,王宏远矿山,旺家台3#,七峪村4#,甘河净村2#","powerOffReason":"【停电原因】由于速断跳闸导致３５ＫＶ甘河净变电站石家庄５１２线路全线停电【变更送电】因抢修进度加快原因，送电时间由１４：００变更为１２：００【发布渠道】通过９５５９８发布","powerOffId":"2019062713000035"},{"poweroffId":2019062713000028,"sgpoweroffId":null,"subsName":"","lineName":"10kV514西潘线","pubTranName":"客户投资_清辛庄村公用照明1台区,岸下公用照明6台区,岸下（农业）,清辛庄公用农业11台区【纯农排变】,王村公用农业3台区【纯农排变】,0387402510-南沿榨油-专变-45256267-南沿榨油,王村公用照明5台区,清辛庄公用照明5台区,岸下村公用照明1台区,清辛庄公用照明6台区,客户投资_岸下村公用照明4台区,李村公用照明3台区,客户投资_王村公用照明7台区,王村公用照明1台区,清辛庄公用照明8台区,客户投资_悟村公用照明1台区,清辛庄公用农业3台区【纯农排变】,岸下公用农业6台区【纯农排变】,王村公用照明10台区,李村公用农业3台区【纯农排变】,李村公用农业2台区【纯农排变】,台头村公用照明7台区,定州市砖路镇南沿村村民委员会公用变压器,南渠河公用农业7台区【纯农排变】,定州市砖路镇王村村民委员会（王村二支干）,李村公用农业5台区【纯农排变】,王村公用照明4台区1,悟村公用照明2台区,清辛庄公用农业6台区【纯农排变】,定州市砖路镇悟村中学变压器2,王村公用农业18台区【纯农排变】,李村公用照明1台区,岸下公用农业8台区【纯农排变】,王村公用农业16台区【纯农排变】,清辛庄公用照明4台区,定州市顺发混凝土有限公司变压器,清辛庄公用农业13台区【纯农排变】,王村公用照明8台区,定州市砖路镇悟村村民委员会（悟村二号）,潘村公用农业8台区【纯农排变】,清辛庄村公用照明2台区,吉电定州新能源科技有限公司变压器,王村公用农业2台区【纯农排变】,李村公用农业4台区【纯农排变】,岸下公用照明7台区,岸下村公用照明2台区,北沿公用农业1台区【纯农排变】,定州市砖路镇悟村村民委员会变压器,清辛庄公用农业1台区【纯农排变】,王村公用照明2台区,岸下公用农业7台区【纯农排变】,清辛庄公用农业12台区【纯农排变】,王村公用照明12台区,客户投资_清辛庄公用照明3台区,北沿村公用照明1台区,清辛庄公用农业5台区【纯农排变】,岸下村公用照明3台区,王村公用农业6台区【纯农排变】,岸下公用农业12台区【纯农排变】,王村公用农业17台区【纯农排变】,定州光杰新能源科技有限公司变压器,李村公用照明2台区,岸下公用农业10台区【纯农排变】,客户投资_悟村公用照明3台区,清辛庄公用照明7台区,清辛庄公用农业2台区【纯农排变】,王村公用农业5台区【纯农排变】,清辛庄公用照明9台区,中国联合网络通信有限公司定州市分公司,客户投资_王村公用照明6台区,清辛庄公用农业4台区【纯农排变】,悟村公用农业1台区【纯农排变】,北沿村公用照明2台区,清辛庄公用农业7台区【纯农排变】,王村公用照明11台区,定州市悟村初级中学变压器,岸下公用农业9台区【纯农排变】,定州市砖路镇南沿村村民委员会居民变压器,王村公用照明3台区1,悟村公用照明4台区,李村公用农业1台区【纯农排变】,岸下公用照明5台区,岸下公用农业11台区【纯农排变】,清辛庄公用照明10台区,王村公用照明9台区,砖路镇镇果园,王村公用农业1台区【纯农排变】,","scope":"【影响街道/乡镇】砖路镇【高危重要客户】无【影响客户】北沿村、悟村、李村、王村、清辛庄村、岸下村、台头","startTime":"2019-06-27 06:10:14","stopDate":"2019-06-27 09:00:00","orgNo":"1340610","typeCode":"电网故障停限电","poweroffArea":"【全线路停电】停中国联合网络通信有限公司定州市分公司,清辛庄公用照明8台区,客户投资_悟村公用照明1台区,清辛庄公用农业3台区【纯农排变】,清辛庄公用农业11台区【纯农排变】,王村公用农业3台区【纯农排变】,0387402510-南沿榨油-专变-45256267-南沿榨油,王村公用照明5台区,清辛庄公用照明5台区,岸下村公用照明1台区,王村公用农业16台区【纯农排变】,定州市砖路镇南沿村村民委员会居民变压器,王村公用照明3台区1,悟村公用照明4台区,李村公用农业1台区【纯农排变】,客户投资_清辛庄公用照明3台区,岸下公用农业12台区【纯农排变】,王村公用农业17台区【纯农排变】,定州光杰新能源科技有限公司变压器,李村公用照明2台区,岸下公用照明5台区,清辛庄公用照明10台区,王村公用照明9台区,砖路镇镇果园,王村公用农业1台区【纯农排变】,定州市砖路镇悟村村民委员会（悟村二号）,王村公用照明2台区,潘村公用农业8台区【纯农排变】,清辛庄村公用照明2台区,吉电定州新能源科技有限公司变压器,岸下公用农业11台区【纯农排变】,客户投资_王村公用照明6台区,岸下公用农业10台区【纯农排变】,王村公用农业2台区【纯农排变】,李村公用农业4台区【纯农排变】,岸下公用照明7台区,岸下公用农业6台区【纯农排变】,定州市砖路镇南沿村村民委员会公用变压器,南渠河公用农业7台区【纯农排变】,定州市砖路镇王村村民委员会（王村二支干）,李村公用农业5台区【纯农排变】,王村公用照明4台区1,悟村公用照明2台区,清辛庄公用农业6台区【纯农排变】,定州市砖路镇悟村中学变压器2,王村公用农业18台区【纯农排变】,李村公用照明1台区,岸下公用农业8台区【纯农排变】,客户投资_悟村公用照明3台区,清辛庄公用照明7台区,清辛庄公用农业2台区【纯农排变】,王村公用农业5台区【纯农排变】,王村公用照明11台区,定州市悟村初级中学变压器,北沿村公用照明1台区,清辛庄公用农业5台区【纯农排变】,岸下村公用照明3台区,王村公用农业6台区【纯农排变】,岸下公用农业9台区【纯农排变】,李村公用农业3台区【纯农排变】,岸下公用农业7台区【纯农排变】,清辛庄公用农业12台区【纯农排变】,王村公用照明10台区,李村公用农业2台区【纯农排变】,台头村公用照明7台区,客户投资_清辛庄村公用照明1台区,岸下公用照明6台区,岸下（农业）,岸下村公用照明2台区,北沿公用农业1台区【纯农排变】,定州市砖路镇悟村村民委员会变压器,清辛庄公用农业1台区【纯农排变】,清辛庄公用照明4台区,定州市顺发混凝土有限公司变压器,清辛庄公用农业13台区【纯农排变】,王村公用照明8台区,王村公用照明12台区,清辛庄公用照明6台区,客户投资_岸下村公用照明4台区,李村公用照明3台区,客户投资_王村公用照明7台区,王村公用照明1台区,清辛庄公用农业4台区【纯农排变】,悟村公用农业1台区【纯农排变】,北沿村公用照明2台区,清辛庄公用照明9台区,清辛庄公用农业7台区【纯农排变】","poweroffReason":"【停电原因】由于电杆被车撞断导致３５ＫＶ吴家庄变电站１０ＫＶ５１４西潘线路全线停电 【变更送电】因抢修进度加快原因，送电时间由１８：００变更为０９：００ 【发布渠道】９５５９８","powerTime":"2019-06-27 08:41:18","powerComm":"已送电","subsNo":"","lineNo":"","tgNo":"","tgName":null,"infoStatus":"1","orgName":"国网定州市供电公司","typeName":null,"infoStatusName":null,"dateDay":null,"orgNos":null,"nowTime":null,"countyName":null,"streetName":null,"villageName":null,"roadName":null,"communityName":null,"tranName":null,"sdLineName":null,"cityCode":"1340610","cityName":"国网定州市供电公司","provinceCode":null,"stopTime":"2019-06-27 09:00:00","powerType":"全部","powerOffArea":"【全线路停电】停中国联合网络通信有限公司定州市分公司,清辛庄公用照明8台区,客户投资_悟村公用照明1台区,清辛庄公用农业3台区【纯农排变】,清辛庄公用农业11台区【纯农排变】,王村公用农业3台区【纯农排变】,0387402510-南沿榨油-专变-45256267-南沿榨油,王村公用照明5台区,清辛庄公用照明5台区,岸下村公用照明1台区,王村公用农业16台区【纯农排变】,定州市砖路镇南沿村村民委员会居民变压器,王村公用照明3台区1,悟村公用照明4台区,李村公用农业1台区【纯农排变】,客户投资_清辛庄公用照明3台区,岸下公用农业12台区【纯农排变】,王村公用农业17台区【纯农排变】,定州光杰新能源科技有限公司变压器,李村公用照明2台区,岸下公用照明5台区,清辛庄公用照明10台区,王村公用照明9台区,砖路镇镇果园,王村公用农业1台区【纯农排变】,定州市砖路镇悟村村民委员会（悟村二号）,王村公用照明2台区,潘村公用农业8台区【纯农排变】,清辛庄村公用照明2台区,吉电定州新能源科技有限公司变压器,岸下公用农业11台区【纯农排变】,客户投资_王村公用照明6台区,岸下公用农业10台区【纯农排变】,王村公用农业2台区【纯农排变】,李村公用农业4台区【纯农排变】,岸下公用照明7台区,岸下公用农业6台区【纯农排变】,定州市砖路镇南沿村村民委员会公用变压器,南渠河公用农业7台区【纯农排变】,定州市砖路镇王村村民委员会（王村二支干）,李村公用农业5台区【纯农排变】,王村公用照明4台区1,悟村公用照明2台区,清辛庄公用农业6台区【纯农排变】,定州市砖路镇悟村中学变压器2,王村公用农业18台区【纯农排变】,李村公用照明1台区,岸下公用农业8台区【纯农排变】,客户投资_悟村公用照明3台区,清辛庄公用照明7台区,清辛庄公用农业2台区【纯农排变】,王村公用农业5台区【纯农排变】,王村公用照明11台区,定州市悟村初级中学变压器,北沿村公用照明1台区,清辛庄公用农业5台区【纯农排变】,岸下村公用照明3台区,王村公用农业6台区【纯农排变】,岸下公用农业9台区【纯农排变】,李村公用农业3台区【纯农排变】,岸下公用农业7台区【纯农排变】,清辛庄公用农业12台区【纯农排变】,王村公用照明10台区,李村公用农业2台区【纯农排变】,台头村公用照明7台区,客户投资_清辛庄村公用照明1台区,岸下公用照明6台区,岸下（农业）,岸下村公用照明2台区,北沿公用农业1台区【纯农排变】,定州市砖路镇悟村村民委员会变压器,清辛庄公用农业1台区【纯农排变】,清辛庄公用照明4台区,定州市顺发混凝土有限公司变压器,清辛庄公用农业13台区【纯农排变】,王村公用照明8台区,王村公用照明12台区,清辛庄公用照明6台区,客户投资_岸下村公用照明4台区,李村公用照明3台区,客户投资_王村公用照明7台区,王村公用照明1台区,清辛庄公用农业4台区【纯农排变】,悟村公用农业1台区【纯农排变】,北沿村公用照明2台区,清辛庄公用照明9台区,清辛庄公用农业7台区【纯农排变】","powerOffReason":"【停电原因】由于电杆被车撞断导致３５ＫＶ吴家庄变电站１０ＫＶ５１４西潘线路全线停电 【变更送电】因抢修进度加快原因，送电时间由１８：００变更为０９：００ 【发布渠道】９５５９８","powerOffId":"2019062713000028"},{"poweroffId":2019062613000620,"sgpoweroffId":null,"subsName":"","lineName":"10kV南阳513线","pubTranName":"南阳农业3台区【纯农排变】,冀龙泵业有限公司,路景农业10台区【纯农排变】,张小冬水泵厂,石佛村南农业5台区【纯农排变】,祁东水泵厂厂,会强水泵厂,立庄综合2台区变压器,华盛泵业,石家庄东方工业泵有限公司,冶化水泵厂,立庄纺织厂,南阳农业7台区变压器,立庄农业5台区【纯农排变】,北阳综合1台区变压器,河北高新泵业有限公司,立庄农业7台区变压器,立庄农业9台区,南阳综合6台区变压器,石佛所自用电,田建朋纺织,0550178655-安国市长盛织线厂-专变-48893116-安国市长盛织线厂,立庄农业6台区变压器,南阳综合1台区变压器,南阳农业5台区【纯农排变】,路景农业18台区变压器,路景农业26台区变压器,南阳综合3台区变压器,北阳农业3台区变压器,立庄综合5台区变压器,南阳综合5台区变压器,孟亚辉纺织厂,石佛村南农业3台区【纯农排变】,立庄综合3台区变压器,石家庄德邦联泵业公司,永发佳苑500kVA,立庄农业3台区变压器,河北石工泵业泵业有限公司,010002884|冀龙泵业有限公司,路景农业7台区【纯农排变】,路景农业1台区变压器,立庄农业2台区【纯农排变】,立庄农业4台区变压器,路景农业9号,路景农业13台区变压器,路景农业14台区【纯农排变】,路景农业6台区【纯农排变】,南阳综合2台区变压器,南阳农业4台区【纯农排变】,南阳农业2台区【纯农排变】,路景综合18台区变压器,北阳农业1台区变压器,路景农业11台区【纯农排变】,南阳农业1台区【纯农排变】,南阳永发泵业,河北诚宇泵业制造有限公司,君威花园变压器,南阳综合7台区变压器,路景农业8台区变压器,南阳综合4台区变压器,路景综合26台区变压器,路景农业2台区变压器,立庄综合4台区变压器,路景农业5台区变压器,路景农业15台区变压器,路景农业4台区变压器,李欣纺织厂,路景农业3台区变压器,北阳农业2台区【纯农排变】,路景农业16台区变压器,石伏顺达纺纱厂,路景农业25台区变压器,南阳农业6台区变压器,变压器,石佛村南农业4台区【纯农排变】,立庄综合1台区变压器,立庄农业1台区变压器,三联刘泽强变压器,河北跃强水泵有限公司,河北华盛泵业制造有限公司,路景综合27台区变压器,立庄农业8台区变压器,路景农业12台区【纯农排变】,路景综合22,路景农业17台区变压器,","scope":"【影响街道/乡镇】石佛镇 【高危重要客户】无 【影响客户】南阳村、立庄村、路景村、北阳村、石佛村","startTime":"2019-06-26 23:06:25","stopDate":"2019-06-27 00:40:00","orgNo":"1340606","typeCode":"电网故障停限电","poweroffArea":"【全线路停电】停南阳综合5台区变压器,路景农业26台区变压器,南阳综合2台区变压器,北阳农业2台区【纯农排变】,变压器,路景农业2台区变压器,北阳农业1台区变压器,路景农业4台区变压器,华盛泵业,路景农业1台区变压器,立庄农业7台区变压器,路景农业13台区变压器,孟亚辉纺织厂,田建朋纺织,石家庄德邦联泵业公司,永发佳苑500kVA,立庄纺织厂,石佛村南农业4台区【纯农排变】,路景农业25台区变压器,立庄农业9台区,路景农业11台区【纯农排变】,路景农业10台区【纯农排变】,路景农业7台区【纯农排变】,北阳综合1台区变压器,南阳综合7台区变压器,路景农业5台区变压器,立庄农业6台区变压器,路景农业12台区【纯农排变】,南阳综合1台区变压器,立庄综合1台区变压器,立庄农业4台区变压器,河北跃强水泵有限公司,路景农业15台区变压器,立庄综合5台区变压器,路景综合18台区变压器,路景农业14台区【纯农排变】,路景农业8台区变压器,北阳农业3台区变压器,河北高新泵业有限公司,路景农业3台区变压器,石家庄东方工业泵有限公司,南阳综合4台区变压器,石佛村南农业3台区【纯农排变】,路景综合22,南阳农业5台区【纯农排变】,路景综合27台区变压器,南阳农业6台区变压器,立庄农业2台区【纯农排变】,石佛所自用电,南阳综合6台区变压器,君威花园变压器,0550178655-安国市长盛织线厂-专变-48893116-安国市长盛织线厂,河北石工泵业泵业有限公司,祁东水泵厂厂,冶化水泵厂,三联刘泽强变压器,南阳综合3台区变压器,路景综合26台区变压器,南阳永发泵业,路景农业16台区变压器,立庄综合3台区变压器,南阳农业4台区【纯农排变】,南阳农业3台区【纯农排变】,河北华盛泵业制造有限公司,会强水泵厂,南阳农业1台区【纯农排变】,立庄农业8台区变压器,路景农业9号,南阳农业7台区变压器,河北诚宇泵业制造有限公司,立庄农业3台区变压器,立庄综合2台区变压器,路景农业18台区变压器,立庄综合4台区变压器,路景农业6台区【纯农排变】,石伏顺达纺纱厂,张小冬水泵厂,石佛村南农业5台区【纯农排变】,路景农业17台区变压器,立庄农业5台区【纯农排变】,010002884|冀龙泵业有限公司,李欣纺织厂,立庄农业1台区变压器,冀龙泵业有限公司,南阳农业2台区【纯农排变】","poweroffReason":"【停电原因】由于站内开关掉闸导致３５ＫＶ石佛变电站１０ＫＶ南阳５１３线路全线停电 【变更送电】因抢修进度加快原因，送电时间由０２：００变更为００：４０ 【发布渠道】通过９５５９８发布","powerTime":"2019-06-27 00:24:57","powerComm":"已送电","subsNo":"","lineNo":"","tgNo":"","tgName":null,"infoStatus":"1","orgName":"国网安国市供电公司","typeName":null,"infoStatusName":null,"dateDay":null,"orgNos":null,"nowTime":null,"countyName":null,"streetName":null,"villageName":null,"roadName":null,"communityName":null,"tranName":null,"sdLineName":null,"cityCode":"1340606","cityName":"国网安国市供电公司","provinceCode":null,"stopTime":"2019-06-27 00:40:00","powerType":"全部","powerOffArea":"【全线路停电】停南阳综合5台区变压器,路景农业26台区变压器,南阳综合2台区变压器,北阳农业2台区【纯农排变】,变压器,路景农业2台区变压器,北阳农业1台区变压器,路景农业4台区变压器,华盛泵业,路景农业1台区变压器,立庄农业7台区变压器,路景农业13台区变压器,孟亚辉纺织厂,田建朋纺织,石家庄德邦联泵业公司,永发佳苑500kVA,立庄纺织厂,石佛村南农业4台区【纯农排变】,路景农业25台区变压器,立庄农业9台区,路景农业11台区【纯农排变】,路景农业10台区【纯农排变】,路景农业7台区【纯农排变】,北阳综合1台区变压器,南阳综合7台区变压器,路景农业5台区变压器,立庄农业6台区变压器,路景农业12台区【纯农排变】,南阳综合1台区变压器,立庄综合1台区变压器,立庄农业4台区变压器,河北跃强水泵有限公司,路景农业15台区变压器,立庄综合5台区变压器,路景综合18台区变压器,路景农业14台区【纯农排变】,路景农业8台区变压器,北阳农业3台区变压器,河北高新泵业有限公司,路景农业3台区变压器,石家庄东方工业泵有限公司,南阳综合4台区变压器,石佛村南农业3台区【纯农排变】,路景综合22,南阳农业5台区【纯农排变】,路景综合27台区变压器,南阳农业6台区变压器,立庄农业2台区【纯农排变】,石佛所自用电,南阳综合6台区变压器,君威花园变压器,0550178655-安国市长盛织线厂-专变-48893116-安国市长盛织线厂,河北石工泵业泵业有限公司,祁东水泵厂厂,冶化水泵厂,三联刘泽强变压器,南阳综合3台区变压器,路景综合26台区变压器,南阳永发泵业,路景农业16台区变压器,立庄综合3台区变压器,南阳农业4台区【纯农排变】,南阳农业3台区【纯农排变】,河北华盛泵业制造有限公司,会强水泵厂,南阳农业1台区【纯农排变】,立庄农业8台区变压器,路景农业9号,南阳农业7台区变压器,河北诚宇泵业制造有限公司,立庄农业3台区变压器,立庄综合2台区变压器,路景农业18台区变压器,立庄综合4台区变压器,路景农业6台区【纯农排变】,石伏顺达纺纱厂,张小冬水泵厂,石佛村南农业5台区【纯农排变】,路景农业17台区变压器,立庄农业5台区【纯农排变】,010002884|冀龙泵业有限公司,李欣纺织厂,立庄农业1台区变压器,冀龙泵业有限公司,南阳农业2台区【纯农排变】","powerOffReason":"【停电原因】由于站内开关掉闸导致３５ＫＶ石佛变电站１０ＫＶ南阳５１３线路全线停电 【变更送电】因抢修进度加快原因，送电时间由０２：００变更为００：４０ 【发布渠道】通过９５５９８发布","powerOffId":"2019062613000620"},{"poweroffId":2019062613000590,"sgpoweroffId":null,"subsName":"","lineName":"10kV联盟路站520线路","pubTranName":"10kVB438.B805配电室B438配电变压器,","scope":"【影响街道/乡镇】兴华路 【高危重要客户】无 【影响客户】振兴里小区","startTime":"2019-06-26 20:00:21","stopDate":"2019-06-26 23:00:00","orgNo":"13406","typeCode":"电网故障停限电","poweroffArea":"【单台区停电】停10kVB438.B805配电室B438配电变压器","poweroffReason":"【停电原因】由于低压保险片烧导致１０ＫＶ联盟路变电站５２０线路Ｂ４３８公变台区停电【变更送电】无【发布渠道】通过９５５９８发布","powerTime":"2019-06-26 22:17:18","powerComm":"已送电","subsNo":"","lineNo":"","tgNo":"","tgName":null,"infoStatus":"1","orgName":"保定供电公司","typeName":null,"infoStatusName":null,"dateDay":null,"orgNos":null,"nowTime":null,"countyName":null,"streetName":null,"villageName":null,"roadName":null,"communityName":null,"tranName":null,"sdLineName":null,"cityCode":"13406","cityName":"保定供电公司","provinceCode":null,"stopTime":"2019-06-26 23:00:00","powerType":"全部","powerOffArea":"【单台区停电】停10kVB438.B805配电室B438配电变压器","powerOffReason":"【停电原因】由于低压保险片烧导致１０ＫＶ联盟路变电站５２０线路Ｂ４３８公变台区停电【变更送电】无【发布渠道】通过９５５９８发布","powerOffId":"2019062613000590"}],"pageModel":{"pageNow":898,"totalCount":10973,"totalPage":1098,"tableRows":0,"pageCount":10,"beginCount":8970},"isExperi":"1"}