{"message":"","today":"2020-06-15","seleList":[{"poweroffId":2019062613000492,"sgpoweroffId":null,"subsName":"","lineName":"东西水512","pubTranName":"岭东村3#,岭东村10#【纯农排变】,东西水村10【纯农排变】,岭东村2#|村内,岭东村9#,东西水村4#,东西水村9#【纯农排变】,岭东村4#,东西水村12#【纯农排变】,东西水村1#,东西水村2#,东西水14号变压器,岭东村8#【纯农排变】,东西水村3#,东西水村6#,岭东村1#|村内,岭东村14#【纯农排变】,岭东村7#韩家峪,东西水村5#,岭东18号变压器,东西水村8#,","scope":"【影响街道/乡镇】狼牙山镇【高危重要客户】无【影响客户】岭东村、东西水村","startTime":"2019-07-17 07:00:00","stopDate":"2019-07-17 08:30:00","orgNo":"1340625","typeCode":"计划停电","poweroffArea":"【全线路停电】停岭东村2#|村内,东西水村1#,岭东村3#,东西水14号变压器,东西水村10【纯农排变】,东西水村12#【纯农排变】,东西水村9#【纯农排变】,东西水村2#,东西水村3#,东西水村4#,东西水村5#,东西水村6#,东西水村8#,岭东18号变压器,岭东村14#【纯农排变】,岭东村1#|村内,岭东村4#,岭东村8#【纯农排变】,岭东村9#,岭东村7#韩家峪,岭东村10#【纯农排变】","poweroffReason":"【停电原因】由于保护装置改定值导致３５ＫＶ狼牙山变电站东西水５１２线路全线停电【变更送电】无【发布渠道】保定市易县电视台（０６月２７日００：００时至０７月１６日２４：００时之间）屏幕下方滚动","powerTime":"2019-07-17 08:27:39","powerComm":"已送电","subsNo":"","lineNo":"","tgNo":"","tgName":null,"infoStatus":"1","orgName":"国网易县供电公司","typeName":null,"infoStatusName":null,"dateDay":null,"orgNos":null,"nowTime":null,"countyName":null,"streetName":null,"villageName":null,"roadName":null,"communityName":null,"tranName":null,"sdLineName":null,"cityCode":"1340625","cityName":"国网易县供电公司","provinceCode":null,"stopTime":"2019-07-17 08:30:00","powerType":"全部","powerOffArea":"【全线路停电】停岭东村2#|村内,东西水村1#,岭东村3#,东西水14号变压器,东西水村10【纯农排变】,东西水村12#【纯农排变】,东西水村9#【纯农排变】,东西水村2#,东西水村3#,东西水村4#,东西水村5#,东西水村6#,东西水村8#,岭东18号变压器,岭东村14#【纯农排变】,岭东村1#|村内,岭东村4#,岭东村8#【纯农排变】,岭东村9#,岭东村7#韩家峪,岭东村10#【纯农排变】","powerOffReason":"【停电原因】由于保护装置改定值导致３５ＫＶ狼牙山变电站东西水５１２线路全线停电【变更送电】无【发布渠道】保定市易县电视台（０６月２７日００：００时至０７月１６日２４：００时之间）屏幕下方滚动","powerOffId":"2019062613000492"},{"poweroffId":2019062613000490,"sgpoweroffId":null,"subsName":"","lineName":"10kV富昌站580线路","pubTranName":"0606037846-真天地(保定)生态观光科普乐园有限公司-1-箱式变-变压器-1,","scope":"【影响街道/乡镇】西二环 【高危重要客户】无 【影响客户】真天地(保定)生态观光科普乐园有限公司","startTime":"2019-07-04 07:00:00","stopDate":"2019-07-04 14:00:00","orgNo":"13406","typeCode":"临时停电","poweroffArea":"【分支停电】停0606037846-真天地(保定)生态观光科普乐园有限公司-1-箱式变-变压器-1","poweroffReason":"【停电原因】由于供电设备临时检修导致１０ＫＶ富昌变电站５８０线路３６号杆以下停电【变更送电】无【发布渠道】通过９５５９８发布","powerTime":"2019-07-04 13:37:12","powerComm":"已送电","subsNo":"","lineNo":"","tgNo":"","tgName":null,"infoStatus":"1","orgName":"保定供电公司","typeName":null,"infoStatusName":null,"dateDay":null,"orgNos":null,"nowTime":null,"countyName":null,"streetName":null,"villageName":null,"roadName":null,"communityName":null,"tranName":null,"sdLineName":null,"cityCode":"13406","cityName":"保定供电公司","provinceCode":null,"stopTime":"2019-07-04 14:00:00","powerType":"全部","powerOffArea":"【分支停电】停0606037846-真天地(保定)生态观光科普乐园有限公司-1-箱式变-变压器-1","powerOffReason":"【停电原因】由于供电设备临时检修导致１０ＫＶ富昌变电站５８０线路３６号杆以下停电【变更送电】无【发布渠道】通过９５５９８发布","powerOffId":"2019062613000490"},{"poweroffId":2019062613000486,"sgpoweroffId":null,"subsName":"","lineName":"梁各庄线523","pubTranName":"易县下岭村春风石料厂(王熊秀),王贾庄村9#,曾永顺(村南),南百泉村6#,下黄蒿村2#|村西,易县绿泽农林果种植有限责任公司变压器,北石门村3#|村北,半壁店建国石子厂(二分厂纪建春),半壁店建国砂石厂(应建勇),下岭村陈宝富南,陈宝富石料厂(南),石门店面粉厂,梁格庄村5#,南百泉7#生态园2,龙里华村1台区变压器,半壁店建国石料厂(十二分厂李进财),半壁店建国石料厂(李建国新南),华北村2台区变压器,下黄蒿村8#村东,半壁店变压器,易县永德昌工贸有限公司,南百泉村1#,半壁店建国沙石厂(三分厂)靳彩英,易县金冈铸造有限公司(400KVA),王贾庄周玉坡石料厂,石门店村3#|村西,易县下岭春风石料厂,南百泉村4#,易县半壁店建明石料厂(李保来),半壁店宝山沙石厂,龙里华4#,华北村1台区变压器,北石门村2#|村西,赵子明,0680584092-易县绿泽农林果种植有限责任公司-专变-219697236-易县绿泽农林果种植有限责任公司-1-50KVA,王贾庄村4#|道边,石门店中学,梁格庄村11#信用社,郭锦辉(250KVA),梁格庄村7#|镇政府,半壁店村3#村东,10kV梁格庄523线王贾庄13台区,李建国,河北省地震局易县地震台变压器,梁格庄村1#,易县半壁店建国沙石厂(1#),郭建明石料厂,易县绿润农畜牧养殖有限责任公司变压器,华北村3号变压器,侯德明变压器,北石门6台区变压器,赵金城,郭建明石子厂(李文宾),龙里华村3台区变压器,易县绿泽农林果种植有限责任公司500KVA,半壁店2台区变压器,南百泉村2#,黄学明变压器,易县半壁店子明石料厂(赵云飞),半壁店建国沙石厂200KVA变压器,下黄蒿村4#|村北,北石门村4#|北山【纯农排变】,易县半壁店建国沙石厂(2#),易县金冈铸造有限公司变压器,梁格庄村13#戏台西,下黄蒿村7#村北,南百泉水井7台区,张振祥石厂,易县百泉铸造厂,建明石料厂,易县下黄河侯德明石料厂,永德工贸变压器,易县下岭陈宝富石料厂,石门店村4#村东,易县半壁店建国石料厂(赵金诚),太和庄5#,龙里华村2台区变压器,北百泉村3#,半壁店建国石料厂(李建国新北),曾永顺(村北),王贾庄11台区变压器,下黄蒿村3#|村北,侯得明变压器,易县金冈铸造有限公司(630KVA),天伟矿产品有限公司,","scope":"【影响街道/乡镇】西陵镇、梁格庄镇【高危重要客户】无【影响客户】华北村、龙里华村、太和庄村、梁格庄村、王贾庄村、下岭村、下黄蒿村、北百泉村、南百泉村、半壁店村、石门店村、北石门村","startTime":"2019-07-04 14:00:00","stopDate":"2019-07-04 17:00:00","orgNo":"1340625","typeCode":"临时停电","poweroffArea":"【全线路停电】停太和庄5#,梁格庄村5#,下黄蒿村7#村北,半壁店建国石料厂(李建国新北),半壁店2台区变压器,侯德明变压器,下黄蒿村2#|村西,半壁店建国砂石厂(应建勇),0680584092-易县绿泽农林果种植有限责任公司-专变-219697236-易县绿泽农林果种植有限责任公司-1-50KVA,龙里华4#,易县下岭村春风石料厂(王熊秀),龙里华村2台区变压器,北石门村2#|村西,张振祥石厂,赵子明,易县半壁店建国沙石厂(2#),石门店村3#|村西,梁格庄村1#,半壁店宝山沙石厂,建明石料厂,下黄蒿村3#|村北,南百泉村1#,石门店面粉厂,半壁店变压器,易县金冈铸造有限公司变压器,半壁店建国沙石厂200KVA变压器,曾永顺(村北),永德工贸变压器,易县金冈铸造有限公司(630KVA),南百泉村6#,华北村3号变压器,半壁店建国沙石厂(三分厂)靳彩英,天伟矿产品有限公司,王贾庄周玉坡石料厂,梁格庄村7#|镇政府,华北村1台区变压器,易县永德昌工贸有限公司,郭建明石子厂(李文宾),李建国,郭锦辉(250KVA),易县半壁店建国沙石厂(1#),南百泉村2#,易县半壁店建国石料厂(赵金诚),下岭村陈宝富南,南百泉村4#,河北省地震局易县地震台变压器,王贾庄村9#,北石门6台区变压器,赵金城,南百泉7#生态园2,下黄蒿村4#|村北,易县下黄河侯德明石料厂,北百泉村3#,易县绿泽农林果种植有限责任公司500KVA,易县下岭春风石料厂,王贾庄村4#|道边,易县半壁店建明石料厂(李保来),王贾庄11台区变压器,易县金冈铸造有限公司(400KVA),曾永顺(村南),石门店中学,易县绿润农畜牧养殖有限责任公司变压器,易县绿泽农林果种植有限责任公司变压器,下黄蒿村8#村东,梁格庄村13#戏台西,易县百泉铸造厂,北石门村4#|北山【纯农排变】,龙里华村1台区变压器,南百泉水井7台区,半壁店建国石子厂(二分厂纪建春),龙里华村3台区变压器,华北村2台区变压器,半壁店村3#村东,10kV梁格庄523线王贾庄13台区,半壁店建国石料厂(十二分厂李进财),易县半壁店子明石料厂(赵云飞),陈宝富石料厂(南),郭建明石料厂,梁格庄村11#信用社,石门店村4#村东,半壁店建国石料厂(李建国新南),北石门村3#|村北,侯得明变压器,易县下岭陈宝富石料厂,黄学明变压器","poweroffReason":"【停电原因】由于保护装置改定值导致１１０ＫＶ西陵变电站梁各庄线５２３线路全线停电【变更送电】无【发布渠道】通过９５５９８发布","powerTime":"2019-07-04 16:38:24","powerComm":"已送电","subsNo":"","lineNo":"","tgNo":"","tgName":null,"infoStatus":"1","orgName":"国网易县供电公司","typeName":null,"infoStatusName":null,"dateDay":null,"orgNos":null,"nowTime":null,"countyName":null,"streetName":null,"villageName":null,"roadName":null,"communityName":null,"tranName":null,"sdLineName":null,"cityCode":"1340625","cityName":"国网易县供电公司","provinceCode":null,"stopTime":"2019-07-04 17:00:00","powerType":"全部","powerOffArea":"【全线路停电】停太和庄5#,梁格庄村5#,下黄蒿村7#村北,半壁店建国石料厂(李建国新北),半壁店2台区变压器,侯德明变压器,下黄蒿村2#|村西,半壁店建国砂石厂(应建勇),0680584092-易县绿泽农林果种植有限责任公司-专变-219697236-易县绿泽农林果种植有限责任公司-1-50KVA,龙里华4#,易县下岭村春风石料厂(王熊秀),龙里华村2台区变压器,北石门村2#|村西,张振祥石厂,赵子明,易县半壁店建国沙石厂(2#),石门店村3#|村西,梁格庄村1#,半壁店宝山沙石厂,建明石料厂,下黄蒿村3#|村北,南百泉村1#,石门店面粉厂,半壁店变压器,易县金冈铸造有限公司变压器,半壁店建国沙石厂200KVA变压器,曾永顺(村北),永德工贸变压器,易县金冈铸造有限公司(630KVA),南百泉村6#,华北村3号变压器,半壁店建国沙石厂(三分厂)靳彩英,天伟矿产品有限公司,王贾庄周玉坡石料厂,梁格庄村7#|镇政府,华北村1台区变压器,易县永德昌工贸有限公司,郭建明石子厂(李文宾),李建国,郭锦辉(250KVA),易县半壁店建国沙石厂(1#),南百泉村2#,易县半壁店建国石料厂(赵金诚),下岭村陈宝富南,南百泉村4#,河北省地震局易县地震台变压器,王贾庄村9#,北石门6台区变压器,赵金城,南百泉7#生态园2,下黄蒿村4#|村北,易县下黄河侯德明石料厂,北百泉村3#,易县绿泽农林果种植有限责任公司500KVA,易县下岭春风石料厂,王贾庄村4#|道边,易县半壁店建明石料厂(李保来),王贾庄11台区变压器,易县金冈铸造有限公司(400KVA),曾永顺(村南),石门店中学,易县绿润农畜牧养殖有限责任公司变压器,易县绿泽农林果种植有限责任公司变压器,下黄蒿村8#村东,梁格庄村13#戏台西,易县百泉铸造厂,北石门村4#|北山【纯农排变】,龙里华村1台区变压器,南百泉水井7台区,半壁店建国石子厂(二分厂纪建春),龙里华村3台区变压器,华北村2台区变压器,半壁店村3#村东,10kV梁格庄523线王贾庄13台区,半壁店建国石料厂(十二分厂李进财),易县半壁店子明石料厂(赵云飞),陈宝富石料厂(南),郭建明石料厂,梁格庄村11#信用社,石门店村4#村东,半壁店建国石料厂(李建国新南),北石门村3#|村北,侯得明变压器,易县下岭陈宝富石料厂,黄学明变压器","powerOffReason":"【停电原因】由于保护装置改定值导致１１０ＫＶ西陵变电站梁各庄线５２３线路全线停电【变更送电】无【发布渠道】通过９５５９８发布","powerOffId":"2019062613000486"},{"poweroffId":2019062613000482,"sgpoweroffId":null,"subsName":"","lineName":"东于坻511","pubTranName":"武阳台村4#,北于坻村4#,郎井村7#,北于坻村3#【纯农排变】,郎井村5#,西于坻村5#【纯农排变】,西于坻村2#,郎井庄村4#,东于坻村2#,武阳台村3#,易县郎井庄村春江奶牛养殖厂,中国移动通信集团河北有限公司易县分公司变压器,东于坻村1#,西于坻村4#,武阳台村1#,武阳台9号,西于坻村1#,东于坻村6#,郎井村6#,郎井村1#,北于坻村2#【纯农排变】,东于坻村5#,武阳台8号,郎井庄村2#,郎井村2#,郎井庄村3#,东于坻村4#,武阳台村5#,北于坻村1#,西于坻村3#,武阳台村2#,武阳台村7#,变压器,郎井村3#,东于坻村3#,奥杰制衣有限公司,郎井庄村1#,","scope":"【影响街道/乡镇】高陌乡【高危重要客户】无【影响客户】西于坻村、东于坻村、北于坻村、郎井庄村、郎井村、武阳台村","startTime":"2019-07-02 04:30:00","stopDate":"2019-07-02 07:00:00","orgNo":"1340625","typeCode":"临时停电","poweroffArea":"【全线路停电】停郎井庄村3#,北于坻村4#,奥杰制衣有限公司,武阳台村3#,变压器,西于坻村4#,东于坻村5#,郎井村7#,北于坻村1#,易县郎井庄村春江奶牛养殖厂,东于坻村4#,郎井村3#,武阳台8号,武阳台村2#,西于坻村3#,东于坻村6#,武阳台9号,武阳台村1#,西于坻村1#,西于坻村2#,武阳台村5#,郎井村2#,郎井庄村1#,郎井庄村4#,北于坻村3#【纯农排变】,郎井村6#,中国移动通信集团河北有限公司易县分公司变压器,郎井村1#,东于坻村3#,武阳台村4#,郎井庄村2#,东于坻村2#,郎井村5#,武阳台村7#,东于坻村1#,北于坻村2#【纯农排变】,西于坻村5#【纯农排变】","poweroffReason":"【停电原因】由于保护装置改定值原因导致３５ＫＶ高陌变电站东于坻５１１线路全线停电【变更送电】无【发布渠道】通过９５５９８发布","powerTime":"2019-07-02 06:50:19","powerComm":"已送电","subsNo":"","lineNo":"","tgNo":"","tgName":null,"infoStatus":"1","orgName":"国网易县供电公司","typeName":null,"infoStatusName":null,"dateDay":null,"orgNos":null,"nowTime":null,"countyName":null,"streetName":null,"villageName":null,"roadName":null,"communityName":null,"tranName":null,"sdLineName":null,"cityCode":"1340625","cityName":"国网易县供电公司","provinceCode":null,"stopTime":"2019-07-02 07:00:00","powerType":"全部","powerOffArea":"【全线路停电】停郎井庄村3#,北于坻村4#,奥杰制衣有限公司,武阳台村3#,变压器,西于坻村4#,东于坻村5#,郎井村7#,北于坻村1#,易县郎井庄村春江奶牛养殖厂,东于坻村4#,郎井村3#,武阳台8号,武阳台村2#,西于坻村3#,东于坻村6#,武阳台9号,武阳台村1#,西于坻村1#,西于坻村2#,武阳台村5#,郎井村2#,郎井庄村1#,郎井庄村4#,北于坻村3#【纯农排变】,郎井村6#,中国移动通信集团河北有限公司易县分公司变压器,郎井村1#,东于坻村3#,武阳台村4#,郎井庄村2#,东于坻村2#,郎井村5#,武阳台村7#,东于坻村1#,北于坻村2#【纯农排变】,西于坻村5#【纯农排变】","powerOffReason":"【停电原因】由于保护装置改定值原因导致３５ＫＶ高陌变电站东于坻５１１线路全线停电【变更送电】无【发布渠道】通过９５５９８发布","powerOffId":"2019062613000482"},{"poweroffId":2019062613000477,"sgpoweroffId":null,"subsName":"","lineName":"石岗线512","pubTranName":"石岗村3#,新双水泥制品厂变压器,方岗村1#,易县利来钙粉厂(100KVA),石岗村1#,许家村2#,金冠铁选厂2*250KVA-1,河西村4#,易县文海建材销售有限公司变压器,河西村1#,水口村1#,黄沙口村2#,方岗村3#,华友钙粉厂250KVA-2号,水口村2#,易县宏安钙粉厂,聚金元铁选厂,许家村7#,黄沙口村8#,南坡村3#,0469487145-良岗中心小学-专变-150628977-良岗中心小学变压器,黄沙口村5#,赵廷刚,兴源铁选厂,河西村2#,华友钙粉厂250KVA-1号,易县银龙石材加工厂变压器,良岗钙粉厂(360KVA),良岗石板厂,黄沙口村1#,许家村5#,方岗村2#,许家村3#,南坡5#,良岗村4#,腾飞钙粉1#160KVA,许家村2#214,南坡村1#,良岗镇政府,许家村4#,金冠铁选厂2*250KVA-2,黄沙口村7#,水口村3#,黄沙口4#,许家村1#,易县金鑫石材有限公司变压器,易县源通淡水鱼养殖有限公司变压器,腾飞钙粉2#200KVA,良岗医院,四通铁选厂,金冠铁选厂,石岗村2#,森阳铁选厂,万鑫铁选厂,福龙铁选厂,良岗村3#,良岗村8#,易县安达燃气销售有限公司变压器,黄沙口村王保同变压器,南坡村2#,良岗村5#,变压器2,变压器3,造全铁选厂(160KVA),石岗村4#,河西村3#,良岗村1#,良岗村7#,水口村4#【纯农排变】,易县华友钙粉厂变压器,金泰铁选厂(50KVA),良岗村6#,易县利来钙粉厂(500KVA),变压器,易县金冠铁选厂变压器,方岗村4#,南坡村4#,易县水口村赵艺剪纸厂变压器,易县良岗鑫跃饭店变压器,良岗村9#,黄沙口村3#,良岗村2#,恒丰球团厂(500KVA),黄沙口村6#,","scope":"【影响街道/乡镇】坡仓乡、良岗镇【高危重要客户】无【影响客户】南杜岗村、水口村、黄沙口村、许家村、河西村、石岗村、南坡村、方岗村、良岗村","startTime":"2019-07-04 09:30:00","stopDate":"2019-07-04 11:30:00","orgNo":"1340625","typeCode":"临时停电","poweroffArea":"【全线路停电】停石岗村3#,良岗村1#,河西村1#,万鑫铁选厂,方岗村1#,聚金元铁选厂,良岗医院,黄沙口村7#,良岗镇政府,易县利来钙粉厂(100KVA),河西村4#,兴源铁选厂,南坡村4#,黄沙口村3#,良岗村6#,福龙铁选厂,变压器3,黄沙口村王保同变压器,易县水口村赵艺剪纸厂变压器,南坡村1#,良岗村4#,良岗村3#,许家村5#,黄沙口村6#,森阳铁选厂,腾飞钙粉1#160KVA,变压器,金冠铁选厂,易县安达燃气销售有限公司变压器,石岗村1#,易县文海建材销售有限公司变压器,南坡村3#,变压器2,易县银龙石材加工厂变压器,恒丰球团厂(500KVA),许家村1#,易县利来钙粉厂(500KVA),良岗村8#,许家村2#214,许家村7#,易县金鑫石材有限公司变压器,腾飞钙粉2#200KVA,方岗村3#,南坡村2#,0469487145-良岗中心小学-专变-150628977-良岗中心小学变压器,河西村2#,良岗村5#,华友钙粉厂250KVA-2号,易县良岗鑫跃饭店变压器,水口村3#,黄沙口村8#,良岗村7#,易县源通淡水鱼养殖有限公司变压器,良岗村2#,良岗村9#,河西村3#,水口村4#【纯农排变】,金泰铁选厂(50KVA),石岗村2#,华友钙粉厂250KVA-1号,许家村2#,许家村3#,许家村4#,易县宏安钙粉厂,黄沙口4#,黄沙口村5#,金冠铁选厂2*250KVA-2,方岗村4#,金冠铁选厂2*250KVA-1,水口村1#,造全铁选厂(160KVA),易县金冠铁选厂变压器,良岗钙粉厂(360KVA),水口村2#,易县华友钙粉厂变压器,黄沙口村2#,方岗村2#,赵廷刚,新双水泥制品厂变压器,良岗石板厂,黄沙口村1#,四通铁选厂,石岗村4#,南坡5#","poweroffReason":"【停电原因】由于保护装置改定值导致１１０ＫＶ良岗变电站石岗５１２线路全线停电【变更送电】无【发布渠道】通过９５５９８发布","powerTime":"2019-07-04 11:05:36","powerComm":"已送电","subsNo":"","lineNo":"","tgNo":"","tgName":null,"infoStatus":"1","orgName":"国网易县供电公司","typeName":null,"infoStatusName":null,"dateDay":null,"orgNos":null,"nowTime":null,"countyName":null,"streetName":null,"villageName":null,"roadName":null,"communityName":null,"tranName":null,"sdLineName":null,"cityCode":"1340625","cityName":"国网易县供电公司","provinceCode":null,"stopTime":"2019-07-04 11:30:00","powerType":"全部","powerOffArea":"【全线路停电】停石岗村3#,良岗村1#,河西村1#,万鑫铁选厂,方岗村1#,聚金元铁选厂,良岗医院,黄沙口村7#,良岗镇政府,易县利来钙粉厂(100KVA),河西村4#,兴源铁选厂,南坡村4#,黄沙口村3#,良岗村6#,福龙铁选厂,变压器3,黄沙口村王保同变压器,易县水口村赵艺剪纸厂变压器,南坡村1#,良岗村4#,良岗村3#,许家村5#,黄沙口村6#,森阳铁选厂,腾飞钙粉1#160KVA,变压器,金冠铁选厂,易县安达燃气销售有限公司变压器,石岗村1#,易县文海建材销售有限公司变压器,南坡村3#,变压器2,易县银龙石材加工厂变压器,恒丰球团厂(500KVA),许家村1#,易县利来钙粉厂(500KVA),良岗村8#,许家村2#214,许家村7#,易县金鑫石材有限公司变压器,腾飞钙粉2#200KVA,方岗村3#,南坡村2#,0469487145-良岗中心小学-专变-150628977-良岗中心小学变压器,河西村2#,良岗村5#,华友钙粉厂250KVA-2号,易县良岗鑫跃饭店变压器,水口村3#,黄沙口村8#,良岗村7#,易县源通淡水鱼养殖有限公司变压器,良岗村2#,良岗村9#,河西村3#,水口村4#【纯农排变】,金泰铁选厂(50KVA),石岗村2#,华友钙粉厂250KVA-1号,许家村2#,许家村3#,许家村4#,易县宏安钙粉厂,黄沙口4#,黄沙口村5#,金冠铁选厂2*250KVA-2,方岗村4#,金冠铁选厂2*250KVA-1,水口村1#,造全铁选厂(160KVA),易县金冠铁选厂变压器,良岗钙粉厂(360KVA),水口村2#,易县华友钙粉厂变压器,黄沙口村2#,方岗村2#,赵廷刚,新双水泥制品厂变压器,良岗石板厂,黄沙口村1#,四通铁选厂,石岗村4#,南坡5#","powerOffReason":"【停电原因】由于保护装置改定值导致１１０ＫＶ良岗变电站石岗５１２线路全线停电【变更送电】无【发布渠道】通过９５５９８发布","powerOffId":"2019062613000477"},{"poweroffId":2019062613000475,"sgpoweroffId":null,"subsName":"","lineName":"佰堡线512","pubTranName":"佰堡公用照明5台区,佰堡公用农业7台区【纯农排变】,佰堡公用农业2台区【纯农排变】,佰堡公用农业3台区【纯农排变】,北鹿庄村公用照明一台区,佰堡公用农业4台区【纯农排变】,北鹿庄公用照明4台区,佰堡公用照明8台区,东市邑村小市邑公用照明一台区,东市邑村小市邑公用农业1台区【纯农排变】,北鹿庄村公用农业一台区【纯农排变】,佰堡公用农业6台区【纯农排变】,北鹿庄村公用农业4台区【纯农排变】,佰堡公用农业13台区【纯农排变】,佰堡公用农业1台区【纯农排变】,佰堡村公用照明一台区,佰堡公用农业5台区【纯农排变】,北鹿庄村公用农业五台区【纯农排变】,北鹿庄村公用农业二台区【纯农排变】,佰堡公用照明6台区,佰堡公用农业8台【纯农排变】,大鹿庄公用农业10台区【纯农排变】,大鹿庄(010):农业4台区【纯农排变】,北鹿庄村公用照明二台区,北鹿庄村公用农业六台区【纯农排变】,佰堡公用照明7台区,定州市德龙环境工程有限公司变压器,定州市育红籽种繁育场,大鹿庄(010):农业7台区【纯农排变】,佰堡村公用照明二台区,佰堡公用农业10台区【纯农排变】,北鹿庄公用照明3台区,大鹿庄(010):农业6台区【纯农排变】,大鹿庄公用照明6台区,佰堡公用农业9台区【纯农排变】,佰堡公用农业11台区【纯农排变】,北鹿庄村公用农业七台区【纯农排变】,佰堡公用照明4台区,佰堡村公用照明三台区,定州市富农良种繁育场变压器,北鹿庄村公用农业3台区【纯农排变】,大鹿庄(010):农业8台区【纯农排变】,大鹿庄公用照明7台区,大鹿庄(010):农业5台区【纯农排变】,大鹿庄公用农业15台区【纯农排变】,佰堡公用农业12台区【纯农排变】,","scope":"【影响街道/乡镇】清风店镇、大鹿庄乡【高危重要客户】无【影响客户】佰堡、北鹿庄、小东市邑、大鹿庄","startTime":"2019-06-26 17:18:51","stopDate":"2019-06-26 20:00:00","orgNo":"1340610","typeCode":"电网故障停限电","poweroffArea":"【全线路停电】停佰堡村公用照明二台区,大鹿庄(010):农业6台区【纯农排变】,佰堡公用农业7台区【纯农排变】,大鹿庄(010):农业4台区【纯农排变】,东市邑村小市邑公用照明一台区,大鹿庄公用照明7台区,定州市富农良种繁育场变压器,北鹿庄村公用农业4台区【纯农排变】,佰堡公用农业11台区【纯农排变】,东市邑村小市邑公用农业1台区【纯农排变】,佰堡公用农业3台区【纯农排变】,佰堡公用农业13台区【纯农排变】,北鹿庄村公用农业一台区【纯农排变】,佰堡公用照明5台区,大鹿庄(010):农业8台区【纯农排变】,佰堡公用农业10台区【纯农排变】,北鹿庄公用照明4台区,北鹿庄村公用农业七台区【纯农排变】,佰堡公用农业12台区【纯农排变】,大鹿庄(010):农业5台区【纯农排变】,佰堡公用农业4台区【纯农排变】,大鹿庄(010):农业7台区【纯农排变】,北鹿庄村公用农业二台区【纯农排变】,佰堡村公用照明三台区,北鹿庄村公用照明二台区,佰堡公用农业9台区【纯农排变】,佰堡公用照明6台区,北鹿庄村公用农业五台区【纯农排变】,佰堡公用照明7台区,佰堡公用农业2台区【纯农排变】,北鹿庄公用照明3台区,佰堡公用农业1台区【纯农排变】,大鹿庄公用照明6台区,定州市育红籽种繁育场,北鹿庄村公用农业3台区【纯农排变】,佰堡公用农业6台区【纯农排变】,大鹿庄公用农业10台区【纯农排变】,佰堡公用照明8台区,佰堡村公用照明一台区,佰堡公用农业5台区【纯农排变】,北鹿庄村公用照明一台区,佰堡公用照明4台区,大鹿庄公用农业15台区【纯农排变】,定州市德龙环境工程有限公司变压器,佰堡公用农业8台【纯农排变】,北鹿庄村公用农业六台区【纯农排变】","poweroffReason":"【停电原因】由于站内机构故障导致３５ＫＶ移动变电站１０ＫＶ５１２佰堡线路全线停电 【变更送电】因抢修进度加快原因，送电时间由２３：５５变更为２０：００ 【发布渠道】９５５９８","powerTime":"2019-06-26 19:39:16","powerComm":"已送电","subsNo":"","lineNo":"","tgNo":"","tgName":null,"infoStatus":"1","orgName":"国网定州市供电公司","typeName":null,"infoStatusName":null,"dateDay":null,"orgNos":null,"nowTime":null,"countyName":null,"streetName":null,"villageName":null,"roadName":null,"communityName":null,"tranName":null,"sdLineName":null,"cityCode":"1340610","cityName":"国网定州市供电公司","provinceCode":null,"stopTime":"2019-06-26 20:00:00","powerType":"全部","powerOffArea":"【全线路停电】停佰堡村公用照明二台区,大鹿庄(010):农业6台区【纯农排变】,佰堡公用农业7台区【纯农排变】,大鹿庄(010):农业4台区【纯农排变】,东市邑村小市邑公用照明一台区,大鹿庄公用照明7台区,定州市富农良种繁育场变压器,北鹿庄村公用农业4台区【纯农排变】,佰堡公用农业11台区【纯农排变】,东市邑村小市邑公用农业1台区【纯农排变】,佰堡公用农业3台区【纯农排变】,佰堡公用农业13台区【纯农排变】,北鹿庄村公用农业一台区【纯农排变】,佰堡公用照明5台区,大鹿庄(010):农业8台区【纯农排变】,佰堡公用农业10台区【纯农排变】,北鹿庄公用照明4台区,北鹿庄村公用农业七台区【纯农排变】,佰堡公用农业12台区【纯农排变】,大鹿庄(010):农业5台区【纯农排变】,佰堡公用农业4台区【纯农排变】,大鹿庄(010):农业7台区【纯农排变】,北鹿庄村公用农业二台区【纯农排变】,佰堡村公用照明三台区,北鹿庄村公用照明二台区,佰堡公用农业9台区【纯农排变】,佰堡公用照明6台区,北鹿庄村公用农业五台区【纯农排变】,佰堡公用照明7台区,佰堡公用农业2台区【纯农排变】,北鹿庄公用照明3台区,佰堡公用农业1台区【纯农排变】,大鹿庄公用照明6台区,定州市育红籽种繁育场,北鹿庄村公用农业3台区【纯农排变】,佰堡公用农业6台区【纯农排变】,大鹿庄公用农业10台区【纯农排变】,佰堡公用照明8台区,佰堡村公用照明一台区,佰堡公用农业5台区【纯农排变】,北鹿庄村公用照明一台区,佰堡公用照明4台区,大鹿庄公用农业15台区【纯农排变】,定州市德龙环境工程有限公司变压器,佰堡公用农业8台【纯农排变】,北鹿庄村公用农业六台区【纯农排变】","powerOffReason":"【停电原因】由于站内机构故障导致３５ＫＶ移动变电站１０ＫＶ５１２佰堡线路全线停电 【变更送电】因抢修进度加快原因，送电时间由２３：５５变更为２０：００ 【发布渠道】９５５９８","powerOffId":"2019062613000475"},{"poweroffId":2019062613000423,"sgpoweroffId":null,"subsName":"","lineName":"阳光西郡线513","pubTranName":"辘轳把北,","scope":"【影响街道/乡镇】白沟镇 【高危重要客户】无 【影响客户】辘轳把村（部分）","startTime":"2019-06-27 07:00:00","stopDate":"2019-06-27 19:00:00","orgNo":"1340612","typeCode":"其他临时停电","poweroffArea":"【单台区停电】停辘轳把北","poweroffReason":"【停电原因】由于低压线路改造导致１１０ＫＶ白沟变电站１０ＫＶ阳光西郡５１３线路辘轳把北公变台区停电 【变更送电】无 【发布渠道】通过９５５９８发布","powerTime":"2019-06-27 18:29:04","powerComm":"已送电","subsNo":"","lineNo":"","tgNo":"","tgName":null,"infoStatus":"1","orgName":"国网高碑店市供电公司","typeName":null,"infoStatusName":null,"dateDay":null,"orgNos":null,"nowTime":null,"countyName":null,"streetName":null,"villageName":null,"roadName":null,"communityName":null,"tranName":null,"sdLineName":null,"cityCode":"1340612","cityName":"国网高碑店市供电公司","provinceCode":null,"stopTime":"2019-06-27 19:00:00","powerType":"全部","powerOffArea":"【单台区停电】停辘轳把北","powerOffReason":"【停电原因】由于低压线路改造导致１１０ＫＶ白沟变电站１０ＫＶ阳光西郡５１３线路辘轳把北公变台区停电 【变更送电】无 【发布渠道】通过９５５９８发布","powerOffId":"2019062613000423"},{"poweroffId":2019062613000352,"sgpoweroffId":null,"subsName":"","lineName":"网通线517","pubTranName":"中国农业银行股份有限公司保定分行变压器,10022|东街1号综合,地税局,工商行,10027|西关西配变综合,10010|西城门综合,西关西2号综合配变,保定正昊房地产开发有限公司变压器,高阳县航顺房地产开发有限公司变压器,10048|南街配变综合,副食加工厂,10011|西街公用综合,春之升幼儿园,高阳县公安局变压器,10012|药材公用综合,冉秋菊,10004|西关东配变,10018|木器厂生活区综合,","scope":"【影响街道/乡镇】高阳镇、三利大街、建新大街、兴阳路 【高危重要客户】无 【影响客户】西关部分用户、南街部分用户、东街村部分用户、西城门、木器厂生活小区（木器厂家属院）、药材公司、公安局、地税局","startTime":"2019-07-13 06:00:00","stopDate":"2019-07-13 10:30:00","orgNo":"1340613","typeCode":"计划停电","poweroffArea":"【分支停电】停10027|西关西配变综合,10010|西城门综合,西关西2号综合配变,保定正昊房地产开发有限公司变压器,高阳县航顺房地产开发有限公司变压器,10048|南街配变综合,副食加工厂,10011|西街公用综合,春之升幼儿园,高阳县公安局变压器,10012|药材公用综合,冉秋菊,10004|西关东配变,10018|木器厂生活区综合,中国农业银行股份有限公司保定分行变压器,10022|东街1号综合,地税局,工商行","poweroffReason":"【停电原因】由于换线导致１１０ＫＶ田果庄变电站网通５１７线路主线３５号杆３５号开关以下停电【变更送电】因抢修进度加快原因，送电时间由１６：００变更为１０：３０【发布渠道】高阳县电视台（６月２７日１９时至２１时之间）屏幕下方滚动播出","powerTime":"2019-07-13 09:55:23","powerComm":"已送电","subsNo":"","lineNo":"","tgNo":"","tgName":null,"infoStatus":"1","orgName":"国网高阳县供电公司","typeName":null,"infoStatusName":null,"dateDay":null,"orgNos":null,"nowTime":null,"countyName":null,"streetName":null,"villageName":null,"roadName":null,"communityName":null,"tranName":null,"sdLineName":null,"cityCode":"1340613","cityName":"国网高阳县供电公司","provinceCode":null,"stopTime":"2019-07-13 10:30:00","powerType":"全部","powerOffArea":"【分支停电】停10027|西关西配变综合,10010|西城门综合,西关西2号综合配变,保定正昊房地产开发有限公司变压器,高阳县航顺房地产开发有限公司变压器,10048|南街配变综合,副食加工厂,10011|西街公用综合,春之升幼儿园,高阳县公安局变压器,10012|药材公用综合,冉秋菊,10004|西关东配变,10018|木器厂生活区综合,中国农业银行股份有限公司保定分行变压器,10022|东街1号综合,地税局,工商行","powerOffReason":"【停电原因】由于换线导致１１０ＫＶ田果庄变电站网通５１７线路主线３５号杆３５号开关以下停电【变更送电】因抢修进度加快原因，送电时间由１６：００变更为１０：３０【发布渠道】高阳县电视台（６月２７日１９时至２１时之间）屏幕下方滚动播出","powerOffId":"2019062613000352"},{"poweroffId":2019062613000347,"sgpoweroffId":null,"subsName":"","lineName":"染厂线516","pubTranName":"董法会,建华吹塑厂,孙建华,韩强,保定蓝瑞房地产开发有限公司变压器,韩兴辰,西庄7号新增综合,10097|审计局综合柱上变压器,西庄8号综合,高阳县印刷厂,赵通5#综合,赵通6#综合,段洪刚,高阳县龙泉花园小区三区叁号综合箱变配变配电变压器,10034|三利综合柱上变压器,高阳县宏润物业服务有限公司（商贸城龙泉花园小区）变压器,赵通9#新增综合,西庄2#村东综合,宋占辉,王连军,佳棉纺织品公司,文浩纺织品有限公,西庄5#综合,齐国建,西庄3#村西综合,东莹生活小区,西庄大队农业,高阳县住房和城乡建设局三利大街路灯变压器,高阳县庆贺毛纺厂,韩艳红,北关3#村东综合,高阳县新杰棉织厂,北关金鑫小区,北关社区,洪克新,薛栓图,河北中??房地产开发有限公司变压器,西庄1#村南综合,10032|看守所东综合,赵万军,孙木船,高阳县龙泉花园小区三区肆号综合箱变配变配电变压器,金鑫小学,孙建强,文化城,王记拔丝厂,中石化高阳分公司变压器,河北瑞春纺织有限公司,西庄村东拔丝厂,北关2#村西综合,高阳县汇祥纺织厂变压器,西庄4#村北综合,南街综合,三丰面粉厂(1),高阳县宏润物业服务有限公司变压器,三丰面粉厂(2),河北省保定市高阳县龙泉小区2期西台区出线配电变压器,贾雷江,高阳金鑫小学变压器,于闷,三利中学400,龙泉花园2出线配电变压器,","scope":"【影响街道/乡镇】高阳镇、城关镇 【高危重要客户】无 【影响客户】赵通、西庄、北关、靶场、龙泉花园部分用户、审计局小区、金鑫小区、金鑫小学、三利中学、东营生活小区","startTime":"2019-07-13 05:00:00","stopDate":"2019-07-13 10:00:00","orgNo":"1340613","typeCode":"计划停电","poweroffArea":"【分支停电】停孙木船,西庄村东拔丝厂,10097|审计局综合柱上变压器,齐国建,孙建强,保定蓝瑞房地产开发有限公司变压器,北关2#村西综合,宋占辉,王连军,王记拔丝厂,三丰面粉厂(1),南街综合,西庄4#村北综合,韩强,河北省保定市高阳县龙泉小区2期西台区出线配电变压器,西庄2#村东综合,赵通6#综合,高阳县新杰棉织厂,韩艳红,韩兴辰,高阳金鑫小学变压器,三丰面粉厂(2),高阳县庆贺毛纺厂,文化城,金鑫小学,高阳县印刷厂,河北瑞春纺织有限公司,三利中学400,高阳县龙泉花园小区三区叁号综合箱变配变配电变压器,西庄1#村南综合,高阳县汇祥纺织厂变压器,西庄5#综合,薛栓图,高阳县住房和城乡建设局三利大街路灯变压器,文浩纺织品有限公,赵万军,西庄3#村西综合,10034|三利综合柱上变压器,中石化高阳分公司变压器,北关金鑫小区,西庄7号新增综合,北关社区,东莹生活小区,赵通5#综合,于闷,高阳县宏润物业服务有限公司（商贸城龙泉花园小区）变压器,北关3#村东综合,建华吹塑厂,10032|看守所东综合,高阳县龙泉花园小区三区肆号综合箱变配变配电变压器,孙建华,赵通9#新增综合,贾雷江,龙泉花园2出线配电变压器,高阳县宏润物业服务有限公司变压器,佳棉纺织品公司,董法会,西庄8号综合,河北中??房地产开发有限公司变压器,洪克新,段洪刚,西庄大队农业","poweroffReason":"【停电原因】由于更换直瓶、加固电缆导致１１０ＫＶ沙窝变电站染厂５１６线路主线０号杆０号开关以下线路停电【变更送电】无【发布渠道】高阳县电视台（６月２７日１９时至２１时之间）屏幕下方滚动播出","powerTime":"2019-07-13 09:17:33","powerComm":"已送电","subsNo":"","lineNo":"","tgNo":"","tgName":null,"infoStatus":"1","orgName":"国网高阳县供电公司","typeName":null,"infoStatusName":null,"dateDay":null,"orgNos":null,"nowTime":null,"countyName":null,"streetName":null,"villageName":null,"roadName":null,"communityName":null,"tranName":null,"sdLineName":null,"cityCode":"1340613","cityName":"国网高阳县供电公司","provinceCode":null,"stopTime":"2019-07-13 10:00:00","powerType":"全部","powerOffArea":"【分支停电】停孙木船,西庄村东拔丝厂,10097|审计局综合柱上变压器,齐国建,孙建强,保定蓝瑞房地产开发有限公司变压器,北关2#村西综合,宋占辉,王连军,王记拔丝厂,三丰面粉厂(1),南街综合,西庄4#村北综合,韩强,河北省保定市高阳县龙泉小区2期西台区出线配电变压器,西庄2#村东综合,赵通6#综合,高阳县新杰棉织厂,韩艳红,韩兴辰,高阳金鑫小学变压器,三丰面粉厂(2),高阳县庆贺毛纺厂,文化城,金鑫小学,高阳县印刷厂,河北瑞春纺织有限公司,三利中学400,高阳县龙泉花园小区三区叁号综合箱变配变配电变压器,西庄1#村南综合,高阳县汇祥纺织厂变压器,西庄5#综合,薛栓图,高阳县住房和城乡建设局三利大街路灯变压器,文浩纺织品有限公,赵万军,西庄3#村西综合,10034|三利综合柱上变压器,中石化高阳分公司变压器,北关金鑫小区,西庄7号新增综合,北关社区,东莹生活小区,赵通5#综合,于闷,高阳县宏润物业服务有限公司（商贸城龙泉花园小区）变压器,北关3#村东综合,建华吹塑厂,10032|看守所东综合,高阳县龙泉花园小区三区肆号综合箱变配变配电变压器,孙建华,赵通9#新增综合,贾雷江,龙泉花园2出线配电变压器,高阳县宏润物业服务有限公司变压器,佳棉纺织品公司,董法会,西庄8号综合,河北中??房地产开发有限公司变压器,洪克新,段洪刚,西庄大队农业","powerOffReason":"【停电原因】由于更换直瓶、加固电缆导致１１０ＫＶ沙窝变电站染厂５１６线路主线０号杆０号开关以下线路停电【变更送电】无【发布渠道】高阳县电视台（６月２７日１９时至２１时之间）屏幕下方滚动播出","powerOffId":"2019062613000347"},{"poweroffId":2019062613000342,"sgpoweroffId":null,"subsName":"","lineName":"电力局线520","pubTranName":"温馨家园630,温馨家园3号,劳教所,阳光家园,三利家属楼,北街,国网河北高阳供电公司变压器减容,奥林温泉小区,高阳县春江纺织品有限公司变压器,奥林大酒店,北关大队（100）,自来水6#,西庄6#村南综合,10058|靶场中段配变综合,高阳县讯闪达网吧变压器,西街大队,北关村委会,高阳县法院变压器,北街总表,0376885368-高阳县农村信用合作联社北环路信用社-专变-222789110-高阳县农村信用合作联社北环路信用社变压器,北外环公用台区,保定市享达信房地产开发有限公司,北街2#村东综合,抄表中心,肥羊王,高阳县恒丰纺织品有限公司变压器,10074|高安路保险平房综合,保定亨达信房地产开发有限公司变压器,文教局变压器,高阳县人口和计划生育局设备,技术监督局变压器,北街1#村西综合,高阳县机关事务管理局变压器,10099|99东环北关公用综合,温馨家园1000,0554501998-保定市亨达信房地产开发有限公司-专变-79518832-保定市亨达信房地产开发有限公司变压器,温馨家园4号,10030|劳教所家属楼综合,高阳县高阳镇北关村委会变压器,","scope":"【影响街道/乡镇】城关镇、正阳路 【高危重要客户】无 【影响客户】北街村北、西庄村南部分用户、温馨家园、瑞春家园、看守所家属院、靶场、劳教所家属楼、高安路保险平房、机关事务管理局、阳光家园、计生委、法院、高阳县质量技术检验所、奥林温泉小区、三利家属楼、高阳县教育局","startTime":"2019-07-13 05:00:00","stopDate":"2019-07-13 10:00:00","orgNo":"1340613","typeCode":"计划停电","poweroffArea":"【分支停电】停劳教所,高阳县讯闪达网吧变压器,高阳县恒丰纺织品有限公司变压器,肥羊王,北街2#村东综合,高阳县人口和计划生育局设备,北关村委会,北街总表,保定亨达信房地产开发有限公司变压器,高阳县机关事务管理局变压器,温馨家园3号,抄表中心,自来水6#,三利家属楼,温馨家园4号,阳光家园,10099|99东环北关公用综合,高阳县春江纺织品有限公司变压器,奥林大酒店,10030|劳教所家属楼综合,文教局变压器,高阳县高阳镇北关村委会变压器,北街1#村西综合,奥林温泉小区,西街大队,0554501998-保定市亨达信房地产开发有限公司-专变-79518832-保定市亨达信房地产开发有限公司变压器,10058|靶场中段配变综合,北关大队（100）,国网河北高阳供电公司变压器减容,0376885368-高阳县农村信用合作联社北环路信用社-专变-222789110-高阳县农村信用合作联社北环路信用社变压器,技术监督局变压器,北外环公用台区,西庄6#村南综合,高阳县法院变压器,温馨家园630,北街,保定市享达信房地产开发有限公司,温馨家园1000,10074|高安路保险平房综合","poweroffReason":"【停电原因】由于更换直瓶、加固电缆导致１１０ＫＶ沙窝变电站电力局５２０线路主线０号杆０号开关以下线路停电【变更送电】无【发布渠道】高阳县电视台（６月２７日１９时至２１时之间）屏幕下方滚动播出","powerTime":"2019-07-13 09:17:48","powerComm":"已送电","subsNo":"","lineNo":"","tgNo":"","tgName":null,"infoStatus":"1","orgName":"国网高阳县供电公司","typeName":null,"infoStatusName":null,"dateDay":null,"orgNos":null,"nowTime":null,"countyName":null,"streetName":null,"villageName":null,"roadName":null,"communityName":null,"tranName":null,"sdLineName":null,"cityCode":"1340613","cityName":"国网高阳县供电公司","provinceCode":null,"stopTime":"2019-07-13 10:00:00","powerType":"全部","powerOffArea":"【分支停电】停劳教所,高阳县讯闪达网吧变压器,高阳县恒丰纺织品有限公司变压器,肥羊王,北街2#村东综合,高阳县人口和计划生育局设备,北关村委会,北街总表,保定亨达信房地产开发有限公司变压器,高阳县机关事务管理局变压器,温馨家园3号,抄表中心,自来水6#,三利家属楼,温馨家园4号,阳光家园,10099|99东环北关公用综合,高阳县春江纺织品有限公司变压器,奥林大酒店,10030|劳教所家属楼综合,文教局变压器,高阳县高阳镇北关村委会变压器,北街1#村西综合,奥林温泉小区,西街大队,0554501998-保定市亨达信房地产开发有限公司-专变-79518832-保定市亨达信房地产开发有限公司变压器,10058|靶场中段配变综合,北关大队（100）,国网河北高阳供电公司变压器减容,0376885368-高阳县农村信用合作联社北环路信用社-专变-222789110-高阳县农村信用合作联社北环路信用社变压器,技术监督局变压器,北外环公用台区,西庄6#村南综合,高阳县法院变压器,温馨家园630,北街,保定市享达信房地产开发有限公司,温馨家园1000,10074|高安路保险平房综合","powerOffReason":"【停电原因】由于更换直瓶、加固电缆导致１１０ＫＶ沙窝变电站电力局５２０线路主线０号杆０号开关以下线路停电【变更送电】无【发布渠道】高阳县电视台（６月２７日１９时至２１时之间）屏幕下方滚动播出","powerOffId":"2019062613000342"}],"pageModel":{"pageNow":900,"totalCount":10973,"totalPage":1098,"tableRows":0,"pageCount":10,"beginCount":8990},"isExperi":"1"}