{"message":"","today":"2020-06-15","seleList":[{"poweroffId":2020051413000205,"sgpoweroffId":null,"subsName":"","lineName":"10kV543侯家店线","pubTranName":"庞村公用照明4台区(4),庞村公用照明12台区（1）,王莽公用照明6台区,侯家店公用照明6台区,王莽村公用照明2台区(2),王莽公用照明3台区,客户投资_候家店村公用照明1台区(1),庞村公用照明9台区,庞村公用照明1台区(1),侯家店公用农业11台区（1）,西王郝公用照明4台区,庞村公用照明3台区(3),西王郝村公用照明2台区(3),侯家店公用照明5台区,西王郝村公用照明1台区(1),侯家店公用照明4台区,庞村公用照明10台区,庞村公用照明2台区(2),庞村公用照明6台区配变,西王郝公用照明3台区,王莽公用照明4台区,庞村公用照明7台区,王莽公用照明5台区,王莽村公用照明1台区(1),候家店村公用照明2台区(2),庞村公用照明8台区,侯家店公用照明3台区,庞村公用照明5台区(5),","scope":"【影响街道/乡镇】息仲镇【影响客户】侯家店、王莽、西王郝、东王郝村南、庞村","startTime":"2020-05-30 05:00:00","stopDate":"2020-05-30 20:00:00","orgNo":"1340610","typeCode":"计划停电","poweroffArea":"【全线路停电】停１１０ＫＶ庞村变电站１０ＫＶ５４３侯家店线路全线，庞村公用照明12台区（1）,庞村公用照明4台区(4),侯家店公用农业11台区（1）,西王郝公用照明4台区,庞村公用照明3台区(3),西王郝村公用照明2台区(3),侯家店公用照明5台区,庞村公用照明10台区,庞村公用照明2台区(2),庞村公用照明6台区配变,西王郝公用照明3台区,王莽公用照明4台区,庞村公用照明7台区,王莽公用照明5台区,王莽村公用照明1台区(1),候家店村公用照明2台区(2),庞村公用照明8台区,侯家店公用照明3台区,庞村公用照明5台区(5),王莽公用照明6台区,侯家店公用照明6台区,王莽村公用照明2台区(2),王莽公用照明3台区,客户投资_候家店村公用照明1台区(1),庞村公用照明9台区,庞村公用照明1台区(1),西王郝村公用照明1台区(1),侯家店公用照明4台区","poweroffReason":"【停电原因】由于站内设备例行试验导致１１０ＫＶ庞村变电站１０ＫＶ５４３侯家店线路全线停电 【变更送电】因抢修进度加快原因，送电时间由２１：００变更为２０：００ 【发布渠道】河北省定州市定州日报第三版（２０２０年０５月１５日）","powerTime":"2020-05-30 19:52:01","powerComm":"已送电","subsNo":"","lineNo":"","tgNo":"","tgName":null,"infoStatus":"1","orgName":"国网定州市供电公司","typeName":null,"infoStatusName":null,"dateDay":null,"orgNos":null,"nowTime":null,"countyName":null,"streetName":null,"villageName":null,"roadName":null,"communityName":null,"tranName":null,"sdLineName":null,"cityCode":"1340610","cityName":"国网定州市供电公司","provinceCode":null,"stopTime":"2020-05-30 20:00:00","powerType":"全部","powerOffArea":"【全线路停电】停１１０ＫＶ庞村变电站１０ＫＶ５４３侯家店线路全线，庞村公用照明12台区（1）,庞村公用照明4台区(4),侯家店公用农业11台区（1）,西王郝公用照明4台区,庞村公用照明3台区(3),西王郝村公用照明2台区(3),侯家店公用照明5台区,庞村公用照明10台区,庞村公用照明2台区(2),庞村公用照明6台区配变,西王郝公用照明3台区,王莽公用照明4台区,庞村公用照明7台区,王莽公用照明5台区,王莽村公用照明1台区(1),候家店村公用照明2台区(2),庞村公用照明8台区,侯家店公用照明3台区,庞村公用照明5台区(5),王莽公用照明6台区,侯家店公用照明6台区,王莽村公用照明2台区(2),王莽公用照明3台区,客户投资_候家店村公用照明1台区(1),庞村公用照明9台区,庞村公用照明1台区(1),西王郝村公用照明1台区(1),侯家店公用照明4台区","powerOffReason":"【停电原因】由于站内设备例行试验导致１１０ＫＶ庞村变电站１０ＫＶ５４３侯家店线路全线停电 【变更送电】因抢修进度加快原因，送电时间由２１：００变更为２０：００ 【发布渠道】河北省定州市定州日报第三版（２０２０年０５月１５日）","powerOffId":"2020051413000205"},{"poweroffId":2020051413000204,"sgpoweroffId":null,"subsName":"","lineName":"10kV524李亲顾线","pubTranName":"李亲顾公用照明6台区,李亲顾公用照明16台区,李亲顾公用照明17台区,","scope":"【影响街道/乡镇】李亲顾镇【影响客户】李亲顾村","startTime":"2020-05-25 07:00:00","stopDate":"2020-05-25 18:00:00","orgNo":"1340610","typeCode":"计划停电","poweroffArea":"【分支停电】停１１０ＫＶ李亲顾变电站１０ＫＶ５２４李亲顾线路１０分支０８号杆１７号隔离开关以下线路，李亲顾公用照明17台区,李亲顾公用照明6台区,李亲顾公用照明16台区","poweroffReason":"【停电原因】由于更换低压导线导致１１０ＫＶ李亲顾变电站１０ＫＶ５２４李亲顾线路１０分支０８号杆１７号隔离开关以下线路停电 【变更送电】无 【发布渠道】河北省定州市定州日报第三版（２０２０年０５月１５日）","powerTime":"2020-05-25 17:44:41","powerComm":"已送电","subsNo":"","lineNo":"","tgNo":"","tgName":null,"infoStatus":"1","orgName":"国网定州市供电公司","typeName":null,"infoStatusName":null,"dateDay":null,"orgNos":null,"nowTime":null,"countyName":null,"streetName":null,"villageName":null,"roadName":null,"communityName":null,"tranName":null,"sdLineName":null,"cityCode":"1340610","cityName":"国网定州市供电公司","provinceCode":null,"stopTime":"2020-05-25 18:00:00","powerType":"全部","powerOffArea":"【分支停电】停１１０ＫＶ李亲顾变电站１０ＫＶ５２４李亲顾线路１０分支０８号杆１７号隔离开关以下线路，李亲顾公用照明17台区,李亲顾公用照明6台区,李亲顾公用照明16台区","powerOffReason":"【停电原因】由于更换低压导线导致１１０ＫＶ李亲顾变电站１０ＫＶ５２４李亲顾线路１０分支０８号杆１７号隔离开关以下线路停电 【变更送电】无 【发布渠道】河北省定州市定州日报第三版（２０２０年０５月１５日）","powerOffId":"2020051413000204"},{"poweroffId":2020051413000202,"sgpoweroffId":null,"subsName":"","lineName":"10kV542贾村线","pubTranName":"贾村公用照明3台区,息仲公用照明8台区(8),息仲公用照明15台区,贾村公用照明4台区,贾村公用照明5台区,息仲公用照明16台区,息仲公用照明12台区,贾村公用照明6台区,息仲村公用照明3台区(3),息仲公用照明19台区,贾村公用照明2台区(2),息仲公用照明18台区,息仲公用照明13台区,贾村公用照明1台区(1),息仲村公用照明7台区(1),客户投资_息仲公用照明11台区,息仲村公用照明4台区(6),贾村公用照明7台区,息仲村公用照明6台区(4),贾村公用照明8台区1,息仲村公用照明5台区(5),息仲公用照明17台区,定州市添旺养殖集团有限公司变压器,息仲村北（农业）,河北双月节能环保科技有限公司变压器,0556112527-定州市息冢镇息冢村村民委员会-专变-96517457-变压器,贾村公用农业2台区【纯农排变】,华洋门窗厂,息仲公用农业3台区【纯农排变】,息仲公用农业11台区【纯农排变】,息仲公用农业5台区【纯农排变】,息仲公用农业15台区【纯农排变】,息仲公用农业9台区【纯农排变】,息仲公用农业7台区【纯农排变】,息仲公用农业13台区【纯农排变】,定州市塔鑫玻璃有限公司变压器,贾村公用农业19台区【纯农排变】,贾村公用农业8台区【纯农排变】,息仲公用农业12台区【纯农排变】,贾村公用农业15台区【纯农排变】,息仲铁厂,贾村公用农业10台区【纯农排变】,贾村公用农业7台区【纯农排变】,0663021099-定州市强锋金属制品厂-专变-197632074-定州市强锋金属制品厂变压器,息仲公用农业14台区【纯农排变】,息仲公用农业18台区【纯农排变】,拔丝厂,定州市息仲粮食购销有限责任公司变压器,息仲村东北,贾村养殖厂,贾村公用农业14台区【纯农排变】,息仲公用农业8台区【纯农排变】,庞村公用农业38台区【纯农排变】,贾村公用农业18台区【纯农排变】,息仲公用农业4台区【纯农排变】,贾村公用农业3台区【纯农排变】,定州市康丽纯净水厂第一分厂变压器,息仲公用农业10台区【纯农排变】,庞村公用农业15台区【纯农排变】,息仲公用农业16台区【纯农排变】,贾村公用农业13台区【纯农排变】,贾村公用农业16台区【纯农排变】,贾村公用农业4台区【纯农排变】,息仲公用农业6台区【纯农排变】,贾村公用农业12台区【纯农排变】,息仲公用农业2台区【纯农排变】,贾村公用农业17台区【纯农排变】,息仲公用农业1台区【纯农排变】,庞村公用农业16台区【纯农排变】,息仲华龙面粉厂,贾村公用农业9台区【纯农排变】,贾村公用农业5台区【纯农排变】,息仲公用农业17台区【纯农排变】,0387406929-定州市塔鑫玻璃制品有限公司-专变-45258625-定州塔鑫玻璃有限公司,贾村公用农业11台区【纯农排变】,定州市峰源玻璃制品有限公司,定州市金兴肉制品有限公司,贾村公用农业6台区【纯农排变】,定州市息冡镇息冡村村民委员会变压器,","scope":"【影响街道/乡镇】息仲镇【影响客户】息仲、贾村、庞村","startTime":"2020-05-30 05:00:00","stopDate":"2020-05-30 20:00:00","orgNo":"1340610","typeCode":"计划停电","poweroffArea":"【全线路停电】停１１０ＫＶ庞村变电站１０ＫＶ５４２贾村线路全线，贾村公用照明3台区,息仲公用照明8台区(8),息仲公用照明15台区,贾村公用照明4台区,贾村公用照明5台区,息仲公用照明16台区,息仲公用照明12台区,贾村公用照明6台区,息仲村公用照明3台区(3),息仲公用照明19台区,贾村公用照明2台区(2),息仲公用照明18台区,息仲公用照明13台区,贾村公用照明1台区(1),息仲村公用照明7台区(1),客户投资_息仲公用照明11台区,息仲村公用照明4台区(6),贾村公用照明7台区,息仲村公用照明6台区(4),贾村公用照明8台区1,息仲村公用照明5台区(5),息仲公用照明17台区,定州市添旺养殖集团有限公司变压器,息仲村北（农业）,河北双月节能环保科技有限公司变压器,0556112527-定州市息冢镇息冢村村民委员会-专变-96517457-变压器,贾村公用农业2台区【纯农排变】,华洋门窗厂,息仲公用农业3台区【纯农排变】,息仲公用农业11台区【纯农排变】,息仲公用农业5台区【纯农排变】,定州市金兴肉制品有限公司,贾村公用农业6台区【纯农排变】,定州市息冡镇息冡村村民委员会变压器,贾村公用农业15台区【纯农排变】,息仲铁厂,贾村公用农业10台区【纯农排变】,贾村公用农业7台区【纯农排变】,息仲公用农业15台区【纯农排变】,息仲公用农业9台区【纯农排变】,息仲公用农业7台区【纯农排变】,息仲公用农业13台区【纯农排变】,定州市塔鑫玻璃有限公司变压器,贾村公用农业19台区【纯农排变】,贾村公用农业8台区【纯农排变】,息仲公用农业12台区【纯农排变】,贾村公用农业11台区【纯农排变】,定州市峰源玻璃制品有限公司,0663021099-定州市强锋金属制品厂-专变-197632074-定州市强锋金属制品厂变压器,息仲公用农业14台区【纯农排变】,息仲公用农业18台区【纯农排变】,拔丝厂,定州市息仲粮食购销有限责任公司变压器,息仲村东北,贾村养殖厂,贾村公用农业14台区【纯农排变】,息仲公用农业8台区【纯农排变】,庞村公用农业38台区【纯农排变】,贾村公用农业18台区【纯农排变】,息仲公用农业4台区【纯农排变】,贾村公用农业3台区【纯农排变】,定州市康丽纯净水厂第一分厂变压器,息仲公用农业10台区【纯农排变】,庞村公用农业15台区【纯农排变】,息仲公用农业16台区【纯农排变】,贾村公用农业13台区【纯农排变】,贾村公用农业16台区【纯农排变】,贾村公用农业4台区【纯农排变】,息仲公用农业6台区【纯农排变】,贾村公用农业12台区【纯农排变】,息仲公用农业2台区【纯农排变】,贾村公用农业17台区【纯农排变】,息仲公用农业1台区【纯农排变】,庞村公用农业16台区【纯农排变】,息仲华龙面粉厂,贾村公用农业9台区【纯农排变】,贾村公用农业5台区【纯农排变】,息仲公用农业17台区【纯农排变】,0387406929-定州市塔鑫玻璃制品有限公司-专变-45258625-定州塔鑫玻璃有限公司","poweroffReason":"【停电原因】由于站内设备例行试验导致１１０ＫＶ庞村变电站１０ＫＶ５４２贾村线路全线停电 【变更送电】因抢修进度加快原因，送电时间由２１：００变更为２０：００ 【发布渠道】河北省定州市定州日报第三版（２０２０年０５月１５日）","powerTime":"2020-05-30 19:52:15","powerComm":"已送电","subsNo":"","lineNo":"","tgNo":"","tgName":null,"infoStatus":"1","orgName":"国网定州市供电公司","typeName":null,"infoStatusName":null,"dateDay":null,"orgNos":null,"nowTime":null,"countyName":null,"streetName":null,"villageName":null,"roadName":null,"communityName":null,"tranName":null,"sdLineName":null,"cityCode":"1340610","cityName":"国网定州市供电公司","provinceCode":null,"stopTime":"2020-05-30 20:00:00","powerType":"全部","powerOffArea":"【全线路停电】停１１０ＫＶ庞村变电站１０ＫＶ５４２贾村线路全线，贾村公用照明3台区,息仲公用照明8台区(8),息仲公用照明15台区,贾村公用照明4台区,贾村公用照明5台区,息仲公用照明16台区,息仲公用照明12台区,贾村公用照明6台区,息仲村公用照明3台区(3),息仲公用照明19台区,贾村公用照明2台区(2),息仲公用照明18台区,息仲公用照明13台区,贾村公用照明1台区(1),息仲村公用照明7台区(1),客户投资_息仲公用照明11台区,息仲村公用照明4台区(6),贾村公用照明7台区,息仲村公用照明6台区(4),贾村公用照明8台区1,息仲村公用照明5台区(5),息仲公用照明17台区,定州市添旺养殖集团有限公司变压器,息仲村北（农业）,河北双月节能环保科技有限公司变压器,0556112527-定州市息冢镇息冢村村民委员会-专变-96517457-变压器,贾村公用农业2台区【纯农排变】,华洋门窗厂,息仲公用农业3台区【纯农排变】,息仲公用农业11台区【纯农排变】,息仲公用农业5台区【纯农排变】,定州市金兴肉制品有限公司,贾村公用农业6台区【纯农排变】,定州市息冡镇息冡村村民委员会变压器,贾村公用农业15台区【纯农排变】,息仲铁厂,贾村公用农业10台区【纯农排变】,贾村公用农业7台区【纯农排变】,息仲公用农业15台区【纯农排变】,息仲公用农业9台区【纯农排变】,息仲公用农业7台区【纯农排变】,息仲公用农业13台区【纯农排变】,定州市塔鑫玻璃有限公司变压器,贾村公用农业19台区【纯农排变】,贾村公用农业8台区【纯农排变】,息仲公用农业12台区【纯农排变】,贾村公用农业11台区【纯农排变】,定州市峰源玻璃制品有限公司,0663021099-定州市强锋金属制品厂-专变-197632074-定州市强锋金属制品厂变压器,息仲公用农业14台区【纯农排变】,息仲公用农业18台区【纯农排变】,拔丝厂,定州市息仲粮食购销有限责任公司变压器,息仲村东北,贾村养殖厂,贾村公用农业14台区【纯农排变】,息仲公用农业8台区【纯农排变】,庞村公用农业38台区【纯农排变】,贾村公用农业18台区【纯农排变】,息仲公用农业4台区【纯农排变】,贾村公用农业3台区【纯农排变】,定州市康丽纯净水厂第一分厂变压器,息仲公用农业10台区【纯农排变】,庞村公用农业15台区【纯农排变】,息仲公用农业16台区【纯农排变】,贾村公用农业13台区【纯农排变】,贾村公用农业16台区【纯农排变】,贾村公用农业4台区【纯农排变】,息仲公用农业6台区【纯农排变】,贾村公用农业12台区【纯农排变】,息仲公用农业2台区【纯农排变】,贾村公用农业17台区【纯农排变】,息仲公用农业1台区【纯农排变】,庞村公用农业16台区【纯农排变】,息仲华龙面粉厂,贾村公用农业9台区【纯农排变】,贾村公用农业5台区【纯农排变】,息仲公用农业17台区【纯农排变】,0387406929-定州市塔鑫玻璃制品有限公司-专变-45258625-定州塔鑫玻璃有限公司","powerOffReason":"【停电原因】由于站内设备例行试验导致１１０ＫＶ庞村变电站１０ＫＶ５４２贾村线路全线停电 【变更送电】因抢修进度加快原因，送电时间由２１：００变更为２０：００ 【发布渠道】河北省定州市定州日报第三版（２０２０年０５月１５日）","powerOffId":"2020051413000202"},{"poweroffId":2020051321000148,"sgpoweroffId":null,"subsName":"","lineName":"10kV崔闸站562线路","pubTranName":"C301柱上变压器,","scope":"【影响街道/乡镇】竞秀区南齐乡 【高危重要客户】无 【影响客户】南章村","startTime":"2020-05-13 15:30:00","stopDate":"2020-05-13 17:30:00","orgNo":"13406","typeCode":"电网故障停限电","poweroffArea":"【单台区停电】停 C301柱上变压器","poweroffReason":"【停电原因】由于低压引线烧导致１０ＫＶ崔闸变电站５６２线路Ｃ３０１公变台区停电【变更送电】无【发布渠道】通过９５５９８发布","powerTime":"2020-05-13 16:57:32","powerComm":"已送电","subsNo":"","lineNo":"","tgNo":"","tgName":null,"infoStatus":"1","orgName":"保定供电公司","typeName":null,"infoStatusName":null,"dateDay":null,"orgNos":null,"nowTime":null,"countyName":null,"streetName":null,"villageName":null,"roadName":null,"communityName":null,"tranName":null,"sdLineName":null,"cityCode":"13406","cityName":"保定供电公司","provinceCode":null,"stopTime":"2020-05-13 17:30:00","powerType":"全部","powerOffArea":"【单台区停电】停 C301柱上变压器","powerOffReason":"【停电原因】由于低压引线烧导致１０ＫＶ崔闸变电站５６２线路Ｃ３０１公变台区停电【变更送电】无【发布渠道】通过９５５９８发布","powerOffId":"2020051321000148"},{"poweroffId":2020051313000381,"sgpoweroffId":null,"subsName":"","lineName":"北台线514","pubTranName":"0000005284将子峪变压器,0000005666三会西变压器,北台东区变压器,0012815364仁景树西2区变压器,0000005296八里庄变压器,郎家庄高速充电桩南箱配电变压器,北台乡政府变压器【M】,0000005294南沟变压器,0012883899西良峪北区变压器,0014477020榆林新区,葫芦旺北变压器,仁景树西4变压器,葫芦汪幼儿园变压器【M】,0000005297葫芦汪变压器,0000006825庄尔上东区变压器,0012451731冯家庄南区变压器,三会幼儿园变压器【M】,罗家沟村光伏变压器【光伏】,0013205466南沟南区变压器,北台小学变压器,0000005285段术变压器,0012451732南沟北区变压器,冯家庄西变压器,庄尔上东2变压器,北台乡变压器,任景树村光伏变压器【光伏】,仁景树北1变压器,超树岭小学变压器【M】,峪尔里村光伏变压器【光伏】,冯家庄北变压器,0012883900董家沟北区变压器,枣台北区变压器,0012451228落地南区变压器,超树岭南区变压器,葫芦汪东变压器,曹家峪村光伏变压器【光伏】,0013155437黄岭洼南区变压器,0000007248仁景树南区变压器,葫芦汪小学变压器【M】,黄岭洼小学变压器【M】,八里庄西4变压器,0000005276董家沟变压器,0000005283土洞子变压器,立台小学变压器【M】,0000005299任景树西变压器,东会村光伏变压器【光伏】,0012451231北台西区变压器,北台乡卫生院变压器【M】,任景树小学变压器2区【M】,八里庄西5变压器,下阁尔村光伏变压器【光伏】,北台中学一区变压器【M】,0012451727超树岭西区变压器,0000005290枣台变压器,0000005304冯家庄变压器,落地中心小学煤改电变压器,三会小学变压器【M】,0014460824任景树东2区,0000006866葫芦旺东区变压器,0000005298任景树东变压器,八里庄西3变压器,0013154937岸上南区变压器,葫芦汪村光伏变压器【光伏】,落地中心小学煤改电2变压器,0012768965八里庄西区变压器,土洞子西变压器,岸上小学变压器【M】,0012451235立台西区变压器,0012768966段术南区变压器,0012451230牛分岭东区变压器,庄尔上南区变压器,0000007247三会东二区变压器,0000006028沟掌2变压器,庄尔上变压器,寨里村光伏变压器【光伏】,0000005300曹家峪变压器,落地小学变压器【M】,沟掌村光伏变压器【光伏】,0000005275黄岭洼村变压器,上阁尔村光伏变压器【光伏】,邓家店村光伏变压器【光伏】,葫芦汪农灌变压器1,0000005301沟掌1变压器,仁景树西三区变压器,南沟东区变压器,0012451729张家峪西区变压器,0000005289立台变压器,0000005278北台村变压器,0000005302三会中变压器,南沟村光伏变压器【光伏】,石门上村光伏变压器【光伏】,北台中学二区变压器【M】,0000005292三会东变压器,郎家庄高速充电桩北箱配电变压器,尖地角","scope":"【影响街道/乡镇】北台乡 【影响客户】南沟、黄岭洼、张家峪、枣台、落地、超树岭、红岗、牛分岭、段术、西良峪、立台、榆林、岸上、北台、任景树、土洞子、将子峪、董家沟、八里庄、冯家庄、 庄尔上、沟掌、曹家峪、三会","startTime":"2020-05-13 21:49:00","stopDate":"2020-05-14 02:00:00","orgNo":"1340619","typeCode":"电网故障停限电","poweroffArea":"【全线路停电】停３５ＫＶ郎家庄变电站１０ＫＶ北台线５１４线路全线,庄尔上东2变压器,0012451732南沟北区变压器,0012883900董家沟北区变压器,枣台北区变压器,0012451228落地南区变压器,0000005294南沟变压器,0000005666三会西变压器,北台东区变压器,0000005296八里庄变压器,0012451731冯家庄南区变压器,罗家沟村光伏变压器【光伏】,冯家庄西变压器,八里庄西4变压器,葫芦汪幼儿园变压器【M】,河北交通投资集团保阜高速公路有限公司变压器,0000005297葫芦汪变压器,超树岭南区变压器,葫芦汪东变压器,曲阳县农发投美丽乡村建设有限公司,曹家峪村光伏变压器【光伏】,0013155437黄岭洼南区变压器,0000007248仁景树南区变压器,葫芦汪小学变压器【M】,黄岭洼小学变压器【M】,0013154937岸上南区变压器,0000006825庄尔上东区变压器,北方加油城,0000005304冯家庄变压器,0014460824任景树东2区,0000006866葫芦旺东区变压器,0000005298任景树东变压器,曲阳县炜兴养殖场变压器,张过堂,八里庄西3变压器,葫芦汪村光伏变压器【光伏】,落地中心小学煤改电2变压器,0012768965八里庄西区变压器,0000005276董家沟变压器,0012451231北台西区变压器,北台乡卫生院变压器【M】,任景树小学变压器2区【M】,八里庄西5变压器,下阁尔村光伏变压器【光伏】,北台中学一区变压器【M】,0012451727超树岭西区变压器,0000005290枣台变压器,0012978904仁景树统管副业变压器,0013155435曹家峪南区变压器,董家沟村2,保能曲阳县光伏电力开发有限公司变压器,0000005279张家峪变压器,0012451729张家峪西区变压器,落地中心小学煤改电变压器,0000005300曹家峪变压器,土洞子西变压器,岸上小学变压器【M】,0012451235立台西区变压器,0000005280岸上变压器,曲阳县简爱石材加工厂变压器,0000005283土洞子变压器,立台小学变压器【M】,0000005299任景树西变压器,河北慧图建材有限公司变压器,东会村光伏变压器【光伏】,中交建冀交高速公路投资发展有限公司变压器,三会小学变压器【M】,0012451230牛分岭东区变压器,庄尔上南区变压器,0000007247三会东二区变压器,0000006028沟掌2变压器,庄尔上变压器,寨里村光伏变压器【光伏】,0014460823八里庄西2区,0012451733红岗南变压器,喜峪村光伏变压器【光伏】,0000005291落地村变压器,0000005287牛分岭变压器,落地小学变压器【M】,沟掌村光伏变压器【光伏】,0000005275黄岭洼村变压器,上阁尔村光伏变压器【光伏】,邓家店村光伏变压器【光伏】,葫芦汪农灌变压器1,0469457201-河北省高速公路禄发实业总公司曲阳服务区-专变-94362945-河北省高速公路禄发实业总公司曲阳服务区变压器,0000005301沟掌1变压器,仁景树西三区变压器,葫芦汪农灌变压器2,榆林变压器,庄尔上村光伏变压器【光伏】,北台乡煤炭经营园区,仁景树西一区变压器,0000006229仁景树北变压器,葫芦汪农灌变压器3,南沟村光伏变压器【光伏】,石门上村光伏变压器【光伏】,北台中学二区变压器【M】,曲阳县恒发石子加工厂变压器,0000005292三会东变压器,郎家庄高速充电桩北箱配电变压器,计都石村光伏变压器【光伏】,仁景树小学变压器【M】,0680908186-曲阳雄世石业加工厂-专变-219734777-曲阳雄世石业加工厂变压器,郎家庄高速充电桩南箱配电变压器,曲阳县恒泰煤炭物流园有限公司变压器3,北台乡政府变压器【M】,任景树村光伏变压器【光伏】,曲阳县恒泰煤炭物流园有限公司变压器2,0012815364仁景树西2区变压器,三会幼儿园变压器【M】,北台乡变压器,冯家庄北变压器,仁景树北1变压器,0012768966段术南区变压器,0680908186-曲阳雄世石业加工厂-专变-219728849-曲","poweroffReason":"【停电原因】由于线路Ｂ相接地导致３５ＫＶ郎家庄变电站１０ＫＶ北台线５１４线路全线停电 【变更送电】无 【发布渠道】通过９５５９８发布","powerTime":"2020-05-14 01:27:44","powerComm":"已送电","subsNo":"","lineNo":"","tgNo":"","tgName":null,"infoStatus":"1","orgName":"国网曲阳县供电公司","typeName":null,"infoStatusName":null,"dateDay":null,"orgNos":null,"nowTime":null,"countyName":null,"streetName":null,"villageName":null,"roadName":null,"communityName":null,"tranName":null,"sdLineName":null,"cityCode":"1340619","cityName":"国网曲阳县供电公司","provinceCode":null,"stopTime":"2020-05-14 02:00:00","powerType":"全部","powerOffArea":"【全线路停电】停３５ＫＶ郎家庄变电站１０ＫＶ北台线５１４线路全线,庄尔上东2变压器,0012451732南沟北区变压器,0012883900董家沟北区变压器,枣台北区变压器,0012451228落地南区变压器,0000005294南沟变压器,0000005666三会西变压器,北台东区变压器,0000005296八里庄变压器,0012451731冯家庄南区变压器,罗家沟村光伏变压器【光伏】,冯家庄西变压器,八里庄西4变压器,葫芦汪幼儿园变压器【M】,河北交通投资集团保阜高速公路有限公司变压器,0000005297葫芦汪变压器,超树岭南区变压器,葫芦汪东变压器,曲阳县农发投美丽乡村建设有限公司,曹家峪村光伏变压器【光伏】,0013155437黄岭洼南区变压器,0000007248仁景树南区变压器,葫芦汪小学变压器【M】,黄岭洼小学变压器【M】,0013154937岸上南区变压器,0000006825庄尔上东区变压器,北方加油城,0000005304冯家庄变压器,0014460824任景树东2区,0000006866葫芦旺东区变压器,0000005298任景树东变压器,曲阳县炜兴养殖场变压器,张过堂,八里庄西3变压器,葫芦汪村光伏变压器【光伏】,落地中心小学煤改电2变压器,0012768965八里庄西区变压器,0000005276董家沟变压器,0012451231北台西区变压器,北台乡卫生院变压器【M】,任景树小学变压器2区【M】,八里庄西5变压器,下阁尔村光伏变压器【光伏】,北台中学一区变压器【M】,0012451727超树岭西区变压器,0000005290枣台变压器,0012978904仁景树统管副业变压器,0013155435曹家峪南区变压器,董家沟村2,保能曲阳县光伏电力开发有限公司变压器,0000005279张家峪变压器,0012451729张家峪西区变压器,落地中心小学煤改电变压器,0000005300曹家峪变压器,土洞子西变压器,岸上小学变压器【M】,0012451235立台西区变压器,0000005280岸上变压器,曲阳县简爱石材加工厂变压器,0000005283土洞子变压器,立台小学变压器【M】,0000005299任景树西变压器,河北慧图建材有限公司变压器,东会村光伏变压器【光伏】,中交建冀交高速公路投资发展有限公司变压器,三会小学变压器【M】,0012451230牛分岭东区变压器,庄尔上南区变压器,0000007247三会东二区变压器,0000006028沟掌2变压器,庄尔上变压器,寨里村光伏变压器【光伏】,0014460823八里庄西2区,0012451733红岗南变压器,喜峪村光伏变压器【光伏】,0000005291落地村变压器,0000005287牛分岭变压器,落地小学变压器【M】,沟掌村光伏变压器【光伏】,0000005275黄岭洼村变压器,上阁尔村光伏变压器【光伏】,邓家店村光伏变压器【光伏】,葫芦汪农灌变压器1,0469457201-河北省高速公路禄发实业总公司曲阳服务区-专变-94362945-河北省高速公路禄发实业总公司曲阳服务区变压器,0000005301沟掌1变压器,仁景树西三区变压器,葫芦汪农灌变压器2,榆林变压器,庄尔上村光伏变压器【光伏】,北台乡煤炭经营园区,仁景树西一区变压器,0000006229仁景树北变压器,葫芦汪农灌变压器3,南沟村光伏变压器【光伏】,石门上村光伏变压器【光伏】,北台中学二区变压器【M】,曲阳县恒发石子加工厂变压器,0000005292三会东变压器,郎家庄高速充电桩北箱配电变压器,计都石村光伏变压器【光伏】,仁景树小学变压器【M】,0680908186-曲阳雄世石业加工厂-专变-219734777-曲阳雄世石业加工厂变压器,郎家庄高速充电桩南箱配电变压器,曲阳县恒泰煤炭物流园有限公司变压器3,北台乡政府变压器【M】,任景树村光伏变压器【光伏】,曲阳县恒泰煤炭物流园有限公司变压器2,0012815364仁景树西2区变压器,三会幼儿园变压器【M】,北台乡变压器,冯家庄北变压器,仁景树北1变压器,0012768966段术南区变压器,0680908186-曲阳雄世石业加工厂-专变-219728849-曲","powerOffReason":"【停电原因】由于线路Ｂ相接地导致３５ＫＶ郎家庄变电站１０ＫＶ北台线５１４线路全线停电 【变更送电】无 【发布渠道】通过９５５９８发布","powerOffId":"2020051313000381"},{"poweroffId":2020051313000336,"sgpoweroffId":null,"subsName":"","lineName":"10kV513宋庄工业线","pubTranName":"华泰纺织有限公司,宋庄北二,|新金利纺织有限公司,大水,恒业纺织有限公司5,金鑫纺织有限公司变压器,二涛,鑫达,永发,恒业纺织有限公司变压器2,跃军,华泽纺织有限公司,新金利纺织有限公司,旭光毛纺厂,国中织布,顺成棉业,金鑫纺织有限公司,宋庄浇地,桂林,二团,宋庄北浇地,艳军,宋庄四台区,瑞天纺织,小刚织布厂,恒业纺织有限公司3,恒业纺织有限公司6,宏业纺织厂,威胜毛纺厂,蠡县宋庄益源棉织厂变压器,恒业纺织变压器1,","scope":"【影响街道/乡镇】林堡乡【高危重要客户】无【影响客户】宋庄工业区","startTime":"2020-05-13 18:28:51","stopDate":"2020-05-13 20:00:00","orgNo":"1340616","typeCode":"电网故障停限电","poweroffArea":"【全线路停电】停３５ＫＶ林堡变电站１０ＫＶ宋庄工业５１３线路全线，二涛,顺成棉业,艳军,华泰纺织有限公司,|新金利纺织有限公司,宋庄四台区,小刚织布厂,宋庄浇地,恒业纺织有限公司5,国中织布,二团,恒业纺织有限公司6,跃军,宏业纺织厂,威胜毛纺厂,金鑫纺织有限公司变压器,永发,大水,金鑫纺织有限公司,桂林,宋庄北浇地,新金利纺织有限公司,宋庄北二,鑫达,恒业纺织有限公司3,蠡县宋庄益源棉织厂变压器,恒业纺织有限公司变压器2,恒业纺织变压器1,瑞天纺织,华泽纺织有限公司,旭光毛纺厂","poweroffReason":"【停电原因】由于３５ＫＶ刘林３１４线Ａ相接地到零导致３５ＫＶ林堡变电站１０ＫＶ宋庄工业５１３线路全线停电【变更送电】因抢修进度加快原因，送电时间由２３：５９变更为２０：００【发布渠道】通过９５５９８发布","powerTime":"2020-05-13 19:12:49","powerComm":"已送电","subsNo":"","lineNo":"","tgNo":"","tgName":null,"infoStatus":"1","orgName":"国网蠡县供电公司","typeName":null,"infoStatusName":null,"dateDay":null,"orgNos":null,"nowTime":null,"countyName":null,"streetName":null,"villageName":null,"roadName":null,"communityName":null,"tranName":null,"sdLineName":null,"cityCode":"1340616","cityName":"国网蠡县供电公司","provinceCode":null,"stopTime":"2020-05-13 20:00:00","powerType":"全部","powerOffArea":"【全线路停电】停３５ＫＶ林堡变电站１０ＫＶ宋庄工业５１３线路全线，二涛,顺成棉业,艳军,华泰纺织有限公司,|新金利纺织有限公司,宋庄四台区,小刚织布厂,宋庄浇地,恒业纺织有限公司5,国中织布,二团,恒业纺织有限公司6,跃军,宏业纺织厂,威胜毛纺厂,金鑫纺织有限公司变压器,永发,大水,金鑫纺织有限公司,桂林,宋庄北浇地,新金利纺织有限公司,宋庄北二,鑫达,恒业纺织有限公司3,蠡县宋庄益源棉织厂变压器,恒业纺织有限公司变压器2,恒业纺织变压器1,瑞天纺织,华泽纺织有限公司,旭光毛纺厂","powerOffReason":"【停电原因】由于３５ＫＶ刘林３１４线Ａ相接地到零导致３５ＫＶ林堡变电站１０ＫＶ宋庄工业５１３线路全线停电【变更送电】因抢修进度加快原因，送电时间由２３：５９变更为２０：００【发布渠道】通过９５５９８发布","powerOffId":"2020051313000336"},{"poweroffId":2020051313000330,"sgpoweroffId":null,"subsName":"","lineName":"10kV568食品园Ⅱ线","pubTranName":"0617956471-定州市北城区唐城村民委员会(新民居)-专变-128651889-定州市北城区唐城村民委员会（新民居）2变压器1,定州市利康养殖厂变压器,清水河(016):农业4台区【纯农排变】,定州市华都汽车配件表面处理厂,北门街公用照明8台区,清水河(016):农业1台区【纯农排变】,清水河公用照明11台区变压器,清水河公用农业9台区【纯农排变】,清水河公用照明12台区变压器,清水河(016):照明3台区,清水河(016):照明1台区,清水河公用照明7台区,清水河公用照明8台区,北门街(009):公用照明13台区,清水河(016):照明4台区,清水河公用照明11台区出线间隔2配电变压器,北门街(009):照明3台区,河北中合农产品市场管理有限公司,0616759877-定州市北城区清水河村村民委员会(新民居二期)-专变-128470671-定州市北城区清水河村村民委员会（新民居二期）变压器,0617956471-定州市北城区唐城村民委员会(新民居)-专变-128651895-定州市北城区唐城村民委员会（新民居）2变压器2,清水河公用照明6台区,定州市职业技术教育中心变压器,客户投资_清水河(016):照明2台区,河北三仁建筑装饰工程有限公司变压器,清水河：照明5台区,志远孵化场,建投能源定州热力有限责任公司_柱上变压器,保定交通局107国道定州养路工区,清水河(016):农业7台区【纯农排变】,0616759877-定州市北城区清水河村村民委员会(新民居二期)-专变-128470667-定州市北城区清水河村村民委员会（新民居二期）变压器,定州市北城区清水河社区污水处理厂变压器,河北中诚安邦房地产开发有限公司变压器2,定州市北城区清水河社区居民委员会变压器,靖成章,河北中诚安邦房地产开发有限公司变压器1,定州中标节能变压器,定州市钇轩汽车贸易有限公司变压器,0387417457-定州市职业技术教育中心-专变-45264323-定州市职业技术教育中心,0387417415-中国人民武装警察8643部队-专变-45264266-8643部队,0621494152-定州市中标节能技术服务有限公司-专变-129463653-定州市住房和城乡建设局 路灯107国道01 02 03号1变压器,河北中诚安邦房地产开发有限公司变压器,定州市云天汽车贸易有限公司变压器,0621494152-定州市中标节能技术服务有限公司-专变-129453497-定州市住房和城乡建设局 路灯107国道01 02 03号2变压器,定州市铸达不锈钢制品有限公司变压器,唐城村(019):农业1台区【纯农排变】,保定师专定州分校,定州市永发诚信畜牧养殖有限公司,清水河(016):农业2台区【纯农排变】,定州市滕海石材经销处,定州市公共交通有限公司变压器1,0617956471-定州市北城区唐城村民委员会(新民居)-专变-128649090-定州市北城区唐城村民委员会（新民居）1,松本制衣公司,0654673706-河北保定运输集团有限责任公司第三运输公司-专变-183754008-河北保定运输集团有限责任公司第三运输公司变压器,定州市公共交通有限公司变压","scope":"【影响街道/乡镇】北城区、北门街【影响客户】清水河、御墅蓝山、４２团、北城区冀中职业技术学院、武警机动部队第五支队、师范、三仁建材公司、宏利棉织、清水河养路工区、黎明散热器、衡展机械、利康养殖、长奥公司、新华书店书库、松本座椅、永发诚信","startTime":"2020-05-13 18:21:48","stopDate":"2020-05-13 20:00:00","orgNo":"1340610","typeCode":"电网故障停限电","poweroffArea":"【全线路停电】停１１０ＫＶ清风店变电站１０ＫＶ５６８食品园ＩＩ线路全线，北门街(009):公用照明13台区,清水河：照明5台区,清水河(016):照明4台区,清水河公用照明11台区出线间隔2配电变压器,北门街公用照明8台区,清水河(016):农业1台区【纯农排变】,清水河公用照明11台区变压器,清水河公用农业9台区【纯农排变】,清水河公用照明12台区变压器,清水河(016):照明3台区,清水河(016):照明1台区,清水河公用照明7台区,清水河公用照明8台区,北门街(009):照明3台区,客户投资_清水河(016):照明2台区,建投能源定州热力有限责任公司_柱上变压器 ,清水河(016):农业7台区【纯农排变】,定州市北城区清水河社区污水处理厂变压器,定州市北城区清水河社区居民委员会变压器,靖成章,河北中诚安邦房地产开发有限公司变压器1,定州中标节能变压器,定州市钇轩汽车贸易有限公司变压器,0387417457-定州市职业技术教育中心-专变-45264323-定州市职业技术教育中心,0387417415-中国人民武装警察8643部队-专变-45264266-8643部队,0621494152-定州市中标节能技术服务有限公司-专变-129463653-定州市住房和城乡建设局 路灯107国道01 02 03号1变压器,河北中诚安邦房地产开发有限公司变压器,定州市云天汽车贸易有限公司变压器,定州市铸达不锈钢制品有限公司变压器,唐城村(019):农业1台区【纯农排变】,保定师专定州分校,定州市永发诚信畜牧养殖有限公司,清水河(016):农业2台区【纯农排变】,定州市滕海石材经销处,0654673706-河北保定运输集团有限责任公司第三运输公司-专变-183754008-河北保定运输集团有限责任公司第三运输公司变压器,清水河(016):农业3台区【纯农排变】,河北保定运输集团有限责任公司第三运输公司,定州市北城区清水河村委会变压器,定州市宏利棉织厂,河北中合农产品市场管理有限公司变压器2,河北中合农产品市场管理有限公司变压器1,河北中合农产品市场管理有限公司,0616759877-定州市北城区清水河村村民委员会(新民居二期)-专变-128470671-定州市北城区清水河村村民委员会（新民居二期）变压器,0617956471-定州市北城区唐城村民委员会(新民居)-专变-128651895-定州市北城区唐城村民委员会（新民居）2变压器2,清水河公用照明6台区,定州市职业技术教育中心变压器,河北三仁建筑装饰工程有限公司变压器,志远孵化场,保定交通局107国道定州养路工区,0616759877-定州市北城区清水河村村民委员会(新民居二期)-专变-128470667-定州市北城区清水河村村民委员会（新民居二期）变压器,河北中诚安邦房地产开发有限公司变压器2,0621494152-定州市中标节能技术服务有限公司-专变-129453497-定州市住房和城乡建设局 路灯107国道01 02 03号2变压器,定州市公共交通有限公司变压器1,0617956471-定州市北城区唐城村民委员会(新民居)-专变-128649090-定州市北城区唐城村民委员会（新民居）1,松本制衣公司,定州市公共交通有限公司变压器2,定州市北城区唐城村民委员会（新民居）3,0617956471-定州市北城区唐城村民委员会(新民居)-专变-128651889-定州市北城区唐城村民委员会（新民居）2变压器1,定州市利康养殖厂变压器,清水河(016):农业4台区【纯农排变】,定州市华都汽车配件表面处理厂,河北保定运输集团有限责任公司第三公司变压器,定州市黎明散热器厂变压器,清水河(016):农业5台区【纯农排变】,定州市长奥汽车配件有限公司","poweroffReason":"【停电原因】由于１０７国道路灯电缆挖断导致１１０ＫＶ清风店变电站１０ＫＶ５６８食品园ＩＩ线路全线停电 【变更送电】因抢修进度加快原因，送电时间由２３：５９变更为２０：００ 【发布渠道】９５５９８","powerTime":"2020-05-13 19:34:21","powerComm":"已送电","subsNo":"","lineNo":"","tgNo":"","tgName":null,"infoStatus":"1","orgName":"国网定州市供电公司","typeName":null,"infoStatusName":null,"dateDay":null,"orgNos":null,"nowTime":null,"countyName":null,"streetName":null,"villageName":null,"roadName":null,"communityName":null,"tranName":null,"sdLineName":null,"cityCode":"1340610","cityName":"国网定州市供电公司","provinceCode":null,"stopTime":"2020-05-13 20:00:00","powerType":"全部","powerOffArea":"【全线路停电】停１１０ＫＶ清风店变电站１０ＫＶ５６８食品园ＩＩ线路全线，北门街(009):公用照明13台区,清水河：照明5台区,清水河(016):照明4台区,清水河公用照明11台区出线间隔2配电变压器,北门街公用照明8台区,清水河(016):农业1台区【纯农排变】,清水河公用照明11台区变压器,清水河公用农业9台区【纯农排变】,清水河公用照明12台区变压器,清水河(016):照明3台区,清水河(016):照明1台区,清水河公用照明7台区,清水河公用照明8台区,北门街(009):照明3台区,客户投资_清水河(016):照明2台区,建投能源定州热力有限责任公司_柱上变压器 ,清水河(016):农业7台区【纯农排变】,定州市北城区清水河社区污水处理厂变压器,定州市北城区清水河社区居民委员会变压器,靖成章,河北中诚安邦房地产开发有限公司变压器1,定州中标节能变压器,定州市钇轩汽车贸易有限公司变压器,0387417457-定州市职业技术教育中心-专变-45264323-定州市职业技术教育中心,0387417415-中国人民武装警察8643部队-专变-45264266-8643部队,0621494152-定州市中标节能技术服务有限公司-专变-129463653-定州市住房和城乡建设局 路灯107国道01 02 03号1变压器,河北中诚安邦房地产开发有限公司变压器,定州市云天汽车贸易有限公司变压器,定州市铸达不锈钢制品有限公司变压器,唐城村(019):农业1台区【纯农排变】,保定师专定州分校,定州市永发诚信畜牧养殖有限公司,清水河(016):农业2台区【纯农排变】,定州市滕海石材经销处,0654673706-河北保定运输集团有限责任公司第三运输公司-专变-183754008-河北保定运输集团有限责任公司第三运输公司变压器,清水河(016):农业3台区【纯农排变】,河北保定运输集团有限责任公司第三运输公司,定州市北城区清水河村委会变压器,定州市宏利棉织厂,河北中合农产品市场管理有限公司变压器2,河北中合农产品市场管理有限公司变压器1,河北中合农产品市场管理有限公司,0616759877-定州市北城区清水河村村民委员会(新民居二期)-专变-128470671-定州市北城区清水河村村民委员会（新民居二期）变压器,0617956471-定州市北城区唐城村民委员会(新民居)-专变-128651895-定州市北城区唐城村民委员会（新民居）2变压器2,清水河公用照明6台区,定州市职业技术教育中心变压器,河北三仁建筑装饰工程有限公司变压器,志远孵化场,保定交通局107国道定州养路工区,0616759877-定州市北城区清水河村村民委员会(新民居二期)-专变-128470667-定州市北城区清水河村村民委员会（新民居二期）变压器,河北中诚安邦房地产开发有限公司变压器2,0621494152-定州市中标节能技术服务有限公司-专变-129453497-定州市住房和城乡建设局 路灯107国道01 02 03号2变压器,定州市公共交通有限公司变压器1,0617956471-定州市北城区唐城村民委员会(新民居)-专变-128649090-定州市北城区唐城村民委员会（新民居）1,松本制衣公司,定州市公共交通有限公司变压器2,定州市北城区唐城村民委员会（新民居）3,0617956471-定州市北城区唐城村民委员会(新民居)-专变-128651889-定州市北城区唐城村民委员会（新民居）2变压器1,定州市利康养殖厂变压器,清水河(016):农业4台区【纯农排变】,定州市华都汽车配件表面处理厂,河北保定运输集团有限责任公司第三公司变压器,定州市黎明散热器厂变压器,清水河(016):农业5台区【纯农排变】,定州市长奥汽车配件有限公司","powerOffReason":"【停电原因】由于１０７国道路灯电缆挖断导致１１０ＫＶ清风店变电站１０ＫＶ５６８食品园ＩＩ线路全线停电 【变更送电】因抢修进度加快原因，送电时间由２３：５９变更为２０：００ 【发布渠道】９５５９８","powerOffId":"2020051313000330"},{"poweroffId":2020051313000329,"sgpoweroffId":null,"subsName":"","lineName":"10kV516东西营线","pubTranName":"西营农排3台区【纯农排变】,西营综合7台区,东营综合4台区,西营综合6台区,西营综合1台区,东营综合8台区,西营农排9台区【纯农排变】,西营综合3台区,客户投资_西营综合5台区,东营综合11台区,客户投资_东营综合2台区,西营农排1台区变压器,西营农排4台区【纯农排变】,东营综合12台区,西营综合2台区,西营综合4台区,东营综合7台区,东营综合10台区【冬季供暖设施】,东营综合6台区,西营综合8台区,西营农排7台区【纯农排变】,客户投资_东营综合3台区,东营综合1台区,东营综合9台区,东营综合5台区,","scope":"【影响街道/乡镇】林堡乡【高危重要客户】无【影响客户】西营村、东营村","startTime":"2020-05-13 18:22:24","stopDate":"2020-05-13 20:00:00","orgNo":"1340616","typeCode":"电网故障停限电","poweroffArea":"【全线路停电】停３５ＫＶ林堡变电站１０ＫＶ东西营５１６线路全线,东营综合4台区,西营农排1台区变压器,西营农排4台区【纯农排变】,东营综合12台区,东营综合8台区,东营综合6台区,西营农排9台区【纯农排变】,西营综合3台区,客户投资_西营综合5台区,大朋,东营温馨家园,林堡5号,东营村委会,东营浇地1号,西营综合6台区,西营农排6台区【纯农排变】,西营农排5台区【纯农排变】,西营综合1台区,东营综合5台区,客户投资_东营综合2台区,东营综合1台区,西营农排3台区【纯农排变】,西营综合7台区,东营综合11台区,林堡六,东营综合10台区【冬季供暖设施】,西营综合8台区,西营农排7台区【纯农排变】,西营综合4台区,东营村浇地5号东,东营浇地10号,东营浇地7号西,0469455377-东营村浇地五号-专变-46813156-东营村浇地5号,东营浇地8号,东营浇地7号,东营浇地6号东,东营浇地3号,东营浇地2号,东营村东北,东营浇地6号,东营浇地4号,东营浇地3号东,东营浇地10号东,东营综合7台区,渔池,东营综合9台区,东营浇地9号,蠡县磊鑫砂石料场,东营砖厂2,东营砖厂1,西营综合2台区,客户投资_东营综合3台区,保定德鑫纺织品制造有限公司变压器","poweroffReason":"【停电原因】由于３５ＫＶ刘林３１４线Ａ相接地到零导致３５ＫＶ林堡变电站１０ＫＶ东西营５１６线路全线停电【变更送电】因抢修进度加快原因，送电时间由２３：５９变更为２０：００【发布渠道】通过９５５９８发布","powerTime":"2020-05-13 19:13:13","powerComm":"已送电","subsNo":"","lineNo":"","tgNo":"","tgName":null,"infoStatus":"1","orgName":"国网蠡县供电公司","typeName":null,"infoStatusName":null,"dateDay":null,"orgNos":null,"nowTime":null,"countyName":null,"streetName":null,"villageName":null,"roadName":null,"communityName":null,"tranName":null,"sdLineName":null,"cityCode":"1340616","cityName":"国网蠡县供电公司","provinceCode":null,"stopTime":"2020-05-13 20:00:00","powerType":"全部","powerOffArea":"【全线路停电】停３５ＫＶ林堡变电站１０ＫＶ东西营５１６线路全线,东营综合4台区,西营农排1台区变压器,西营农排4台区【纯农排变】,东营综合12台区,东营综合8台区,东营综合6台区,西营农排9台区【纯农排变】,西营综合3台区,客户投资_西营综合5台区,大朋,东营温馨家园,林堡5号,东营村委会,东营浇地1号,西营综合6台区,西营农排6台区【纯农排变】,西营农排5台区【纯农排变】,西营综合1台区,东营综合5台区,客户投资_东营综合2台区,东营综合1台区,西营农排3台区【纯农排变】,西营综合7台区,东营综合11台区,林堡六,东营综合10台区【冬季供暖设施】,西营综合8台区,西营农排7台区【纯农排变】,西营综合4台区,东营村浇地5号东,东营浇地10号,东营浇地7号西,0469455377-东营村浇地五号-专变-46813156-东营村浇地5号,东营浇地8号,东营浇地7号,东营浇地6号东,东营浇地3号,东营浇地2号,东营村东北,东营浇地6号,东营浇地4号,东营浇地3号东,东营浇地10号东,东营综合7台区,渔池,东营综合9台区,东营浇地9号,蠡县磊鑫砂石料场,东营砖厂2,东营砖厂1,西营综合2台区,客户投资_东营综合3台区,保定德鑫纺织品制造有限公司变压器","powerOffReason":"【停电原因】由于３５ＫＶ刘林３１４线Ａ相接地到零导致３５ＫＶ林堡变电站１０ＫＶ东西营５１６线路全线停电【变更送电】因抢修进度加快原因，送电时间由２３：５９变更为２０：００【发布渠道】通过９５５９８发布","powerOffId":"2020051313000329"},{"poweroffId":2020051313000328,"sgpoweroffId":null,"subsName":"","lineName":"10kV514林堡线","pubTranName":"宋庄综合8台区,林堡综合8台区,林堡综合16台区,林堡综合5台区,林堡综合11台区,林堡综合13台区,林堡综合2台区,林堡综合18台区【冬季供暖设施】,林堡综合19台,林堡综合12台区,林堡综合6台区,林堡综合15台区,林堡综合3台区,林堡综合20台区,林堡综合1台区,林堡综合10台区,林堡综合4台区,林堡综合9台区,","scope":"【影响街道/乡镇】林堡乡【高危重要客户】无【影响客户】林堡村","startTime":"2020-05-13 18:20:45","stopDate":"2020-05-13 20:00:00","orgNo":"1340616","typeCode":"电网故障停限电","poweroffArea":"【全线路停电】停３５ＫＶ林堡变电站１０ＫＶ林堡５１４线路全线，林堡综合12台区,宋庄综合8台区,宋庄毛纺厂（清飞）,新10号,永旺,林堡站用,砖厂东南2,新四号,胜园,齐根浇地,浇地2号,占利,新5号,马军板厂,林堡综合1台区,宋庄水泥构件厂变压器,林堡综合10台区,砖厂东南1,林堡综合4台区,宋庄板厂,林堡6号,林堡综合8台区,牛厂1号,宋庄南1号,华益,林堡新1号,林堡综合16台区,宋庄南2号,落地3号,新8号,林堡2号,林堡综合5台区,新9号,林堡综合11台区,浇地5号,蠡县宋庄恒威棉织厂变压器,宋庄砖厂,猪厂7号,东子,林堡综合9台区,新3号,林堡综合13台区,林堡新4号,荣顺祥,林堡综合2台区,林堡新2号,林堡综合6台区,林堡综合20台区,小新鸡厂,新6号,林堡1号,林堡5号,大柳树农场,华泽纺织有限公司,林堡综合15台区,林堡综合3台区,双乐团绒,蠡县瑞和果蔬农民专业合作社,林堡综合18台区【冬季供暖设施】,林堡综合19台,蠡县变压器,保定弘茂纺织厂","poweroffReason":"【停电原因】由于３５ＫＶ刘林３１４线Ａ相接地到零导致３５ＫＶ林堡变电站１０ＫＶ林堡５１４线路全线停电【变更送电】因抢修进度加快原因，送电时间由２３：５９变更为２０：００【发布渠道】通过９５５９８发布","powerTime":"2020-05-13 19:13:34","powerComm":"已送电","subsNo":"","lineNo":"","tgNo":"","tgName":null,"infoStatus":"1","orgName":"国网蠡县供电公司","typeName":null,"infoStatusName":null,"dateDay":null,"orgNos":null,"nowTime":null,"countyName":null,"streetName":null,"villageName":null,"roadName":null,"communityName":null,"tranName":null,"sdLineName":null,"cityCode":"1340616","cityName":"国网蠡县供电公司","provinceCode":null,"stopTime":"2020-05-13 20:00:00","powerType":"全部","powerOffArea":"【全线路停电】停３５ＫＶ林堡变电站１０ＫＶ林堡５１４线路全线，林堡综合12台区,宋庄综合8台区,宋庄毛纺厂（清飞）,新10号,永旺,林堡站用,砖厂东南2,新四号,胜园,齐根浇地,浇地2号,占利,新5号,马军板厂,林堡综合1台区,宋庄水泥构件厂变压器,林堡综合10台区,砖厂东南1,林堡综合4台区,宋庄板厂,林堡6号,林堡综合8台区,牛厂1号,宋庄南1号,华益,林堡新1号,林堡综合16台区,宋庄南2号,落地3号,新8号,林堡2号,林堡综合5台区,新9号,林堡综合11台区,浇地5号,蠡县宋庄恒威棉织厂变压器,宋庄砖厂,猪厂7号,东子,林堡综合9台区,新3号,林堡综合13台区,林堡新4号,荣顺祥,林堡综合2台区,林堡新2号,林堡综合6台区,林堡综合20台区,小新鸡厂,新6号,林堡1号,林堡5号,大柳树农场,华泽纺织有限公司,林堡综合15台区,林堡综合3台区,双乐团绒,蠡县瑞和果蔬农民专业合作社,林堡综合18台区【冬季供暖设施】,林堡综合19台,蠡县变压器,保定弘茂纺织厂","powerOffReason":"【停电原因】由于３５ＫＶ刘林３１４线Ａ相接地到零导致３５ＫＶ林堡变电站１０ＫＶ林堡５１４线路全线停电【变更送电】因抢修进度加快原因，送电时间由２３：５９变更为２０：００【发布渠道】通过９５５９８发布","powerOffId":"2020051313000328"},{"poweroffId":2020051313000321,"sgpoweroffId":null,"subsName":"","lineName":"10kV515孙庄线","pubTranName":"孙庄综合1台区,宋庄综合5台区,杨马庄综合10台区,宋庄综合7台区,宋庄综合6台区,宋庄综合2台区,杨马庄综合2台区,杨马庄综合1台区,孙庄综合2台区,孙庄综合5台区,宋庄综合4台区,孙庄综合3台区,林堡综合7台区,林堡综合14台区,杨马庄综合9台区,杨马庄综合8台区,孙庄综合4台区,宋庄综合3台区,杨马庄综合11台区,宋庄综合1台区,","scope":"【影响街道/乡镇】林堡乡【高危重要客户】无【影响客户】孙庄村、宋庄村、杨马庄村、林堡村","startTime":"2020-05-13 18:10:57","stopDate":"2020-05-13 20:00:00","orgNo":"1340616","typeCode":"电网故障停限电","poweroffArea":"【全线路停电】停３５ＫＶ林堡变电站１０ＫＶ孙庄５１５线路全线，孙庄综合5台区,宋庄综合2台区,宋庄综合3台区,宋庄综合1台区,杨马庄综合8台区,杨马庄综合2台区,杨马庄综合1台区,孙庄综合2台区,宋庄综合4台区,孙庄综合3台区,林堡综合7台区,林堡综合14台区,宋庄综合5台区,孙庄综合4台区,孙庄综合1台区,杨马庄综合10台区,宋庄综合7台区,宋庄综合6台区,杨马庄综合11台区,杨马庄综合9台区","poweroffReason":"【停电原因】由于３５ＫＶ刘林３１４线Ａ相接地到零导致３５ＫＶ林堡变电站１０ＫＶ孙庄５１５线路全线停电【变更送电】因抢修进度加快原因，送电时间由２３：５９变更为２０：００【发布渠道】通过９５５９８发布","powerTime":"2020-05-13 19:14:03","powerComm":"已送电","subsNo":"","lineNo":"","tgNo":"","tgName":null,"infoStatus":"1","orgName":"国网蠡县供电公司","typeName":null,"infoStatusName":null,"dateDay":null,"orgNos":null,"nowTime":null,"countyName":null,"streetName":null,"villageName":null,"roadName":null,"communityName":null,"tranName":null,"sdLineName":null,"cityCode":"1340616","cityName":"国网蠡县供电公司","provinceCode":null,"stopTime":"2020-05-13 20:00:00","powerType":"全部","powerOffArea":"【全线路停电】停３５ＫＶ林堡变电站１０ＫＶ孙庄５１５线路全线，孙庄综合5台区,宋庄综合2台区,宋庄综合3台区,宋庄综合1台区,杨马庄综合8台区,杨马庄综合2台区,杨马庄综合1台区,孙庄综合2台区,宋庄综合4台区,孙庄综合3台区,林堡综合7台区,林堡综合14台区,宋庄综合5台区,孙庄综合4台区,孙庄综合1台区,杨马庄综合10台区,宋庄综合7台区,宋庄综合6台区,杨马庄综合11台区,杨马庄综合9台区","powerOffReason":"【停电原因】由于３５ＫＶ刘林３１４线Ａ相接地到零导致３５ＫＶ林堡变电站１０ＫＶ孙庄５１５线路全线停电【变更送电】因抢修进度加快原因，送电时间由２３：５９变更为２０：００【发布渠道】通过９５５９８发布","powerOffId":"2020051313000321"}],"pageModel":{"pageNow":74,"totalCount":10973,"totalPage":1098,"tableRows":0,"pageCount":10,"beginCount":730},"isExperi":"1"}