{"message":"","today":"2020-06-15","seleList":[{"poweroffId":2019062413000570,"sgpoweroffId":null,"subsName":"","lineName":"10kV闫庄线513","pubTranName":"1国公营内4,","scope":"【影响街道/乡镇】闫庄乡 【高危重要客户】无 【影响客户】国公营","startTime":"2019-06-24 21:24:33","stopDate":"2019-06-24 23:30:00","orgNo":"1340618","typeCode":"电网故障停限电","poweroffArea":"【单台区停电】停1国公营内4","poweroffReason":"【停电原因】由于低压接户线断导致３５ＫＶ沙堤营变电站１０ＫＶ闫庄线５１３线路１国公营内４号公变台区停电 【变更送电】无 【发布渠道】通过９５５９８发布","powerTime":"2019-06-24 22:34:12","powerComm":"刘子龙通知已送电","subsNo":"","lineNo":"","tgNo":"","tgName":null,"infoStatus":"1","orgName":"国网清苑县供电公司","typeName":null,"infoStatusName":null,"dateDay":null,"orgNos":null,"nowTime":null,"countyName":null,"streetName":null,"villageName":null,"roadName":null,"communityName":null,"tranName":null,"sdLineName":null,"cityCode":"1340618","cityName":"国网清苑县供电公司","provinceCode":null,"stopTime":"2019-06-24 23:30:00","powerType":"全部","powerOffArea":"【单台区停电】停1国公营内4","powerOffReason":"【停电原因】由于低压接户线断导致３５ＫＶ沙堤营变电站１０ＫＶ闫庄线５１３线路１国公营内４号公变台区停电 【变更送电】无 【发布渠道】通过９５５９８发布","powerOffId":"2019062413000570"},{"poweroffId":2019062413000518,"sgpoweroffId":null,"subsName":"","lineName":"10kV联盟路站515线路","pubTranName":"B255柱上变压器,","scope":"【影响街道/乡镇】裕华西路、永华中路 【高危重要客户】 【影响客户】金线小区、金线胡同","startTime":"2019-06-24 19:01:31","stopDate":"2019-06-24 20:00:00","orgNo":"13406","typeCode":"电网故障停限电","poweroffArea":"【单台区停电】停B255柱上变压器","poweroffReason":"【停电原因】由于低压刀闸烧导致１０ＫＶ联盟路变电站５１５线路Ｂ２５５公变台区停电【变更送电】因抢修进度加快，原定２１:００送电现计划２０:００送电【发布渠道】通过９５５９８发布","powerTime":"2019-06-24 19:36:37","powerComm":"已送电","subsNo":"","lineNo":"","tgNo":"","tgName":null,"infoStatus":"1","orgName":"保定供电公司","typeName":null,"infoStatusName":null,"dateDay":null,"orgNos":null,"nowTime":null,"countyName":null,"streetName":null,"villageName":null,"roadName":null,"communityName":null,"tranName":null,"sdLineName":null,"cityCode":"13406","cityName":"保定供电公司","provinceCode":null,"stopTime":"2019-06-24 20:00:00","powerType":"全部","powerOffArea":"【单台区停电】停B255柱上变压器","powerOffReason":"【停电原因】由于低压刀闸烧导致１０ＫＶ联盟路变电站５１５线路Ｂ２５５公变台区停电【变更送电】因抢修进度加快，原定２１:００送电现计划２０:００送电【发布渠道】通过９５５９８发布","powerOffId":"2019062413000518"},{"poweroffId":2019062413000512,"sgpoweroffId":null,"subsName":"","lineName":"10kV513伍郎线","pubTranName":"东南蒲1180农排|21001180【纯农排变】,委家庄村北新增农业4031（TD)【纯农排变】,大恩村东新增农业1926【纯农排变】,委家庄分表9810农排|21009810【纯农排变】,顺平县运生服装有限公司,大恩村700|21000700,潘士林,顺平县屹马汽车配件产业有限公司2000,小恩村村东新增农业4030（TD)【纯农排变】,伍郎村西北新增综合6924,大恩村东南综合7001,委家庄1010农排|21001010【纯农排变】,大恩村保阜路边新增农业3541（TD)【纯农排变】,大恩村村南新增综合9996,小恩村南1160农排|21001160【纯农排变】,小恩村770|21000770,赵锁明,王学武变压器,大恩村长海面粉厂,白庙100号|21000100,伍郎新增综合0852,白庙110农排|21000110【纯农排变】,小恩村村东北新增农业3546（TD)【纯农排变】,永固新型建材800,0626619482-河北四正北方新材料科技有限公司-专变-138805745-河北四正北方新材料科技有限公司630（1）,0671137962-保定泽裕新型材料有限公司-专变-212146503-保定泽裕新型材料有限公司315,伍郎180农排|21000180【纯农排变】,大恩村910农排|21000910【纯农排变】,大恩村村南900农排|21000900【纯农排变】,伍郎村北新增综合9031,大恩村最南边新增农业3543（TD)【纯农排变】,小恩村东,伍郎东南9070|21009070,小恩村10480农排|21010480【纯农排变】,顺平县永固新型建材有限公司200,伍郎农厂4060农排|21004060【纯农排变】,委家庄9800农排|21009800【纯农排变】,长城生活园区混用,小恩村志会混用8400|21008400,大恩村村东南新增农业3545（TD)【纯农排变】,0626619482-河北四正北方新材料科技有限公司-专变-138805748-河北四正北方新材料科技有限公司630（2）,伍郎150|21000150,大恩村西南新增综合5012,伍郎占国混用4380|21004380【纯农排变】,大恩村南660|21000660,小恩村790农排【纯农排变】,委家庄250|21000250,委家庄村中综合1388,伍朗村西引线边,白庙农业1号7341【纯农排变】,伍郎村南新增综合5014,伍郎海顺肠衣厂,伍郎170农业|21000170【纯农排变】,大恩村690|21000690,小恩村村北新增综合6880,大恩村南2-10840|21010840,委家庄20农排|21000020【纯农排变】,伍郎村东8890农排|21008890【纯农排变】,小恩村南9040农排|21009040【纯农排变】,0628920445-保定晶泽光电技术有限公司-专变-141299126-保定晶泽光电技术有限公司315,中国移动,大恩村于全乐1080农排|21001080【纯农排变】,伍郎140|21000140,委家庄村西综合2501,伍郎东北190|21000190,0665713781-昊成顺平能源发展有限公司-","scope":"【影响街道/乡镇】蒲上乡【高危重要客户】无【影响客户】小恩村、委家庄、伍郎、大恩村、白庙、东南蒲、四正北方防水材料、保定晶泽光电技术有限公司、顺平县运生服装有限公司、中国移动、中国石油化工保定分公司顺平经营部、伍郎海顺肠衣厂、屹马汽车、浩成热电、泽裕纸业","startTime":"2019-06-24 18:55:19","stopDate":"2019-06-24 20:30:00","orgNo":"1340621","typeCode":"电网故障停限电","poweroffArea":"【全线路停电】停大恩村910农排|21000910【纯农排变】,大恩村保阜路边新增农业3541（TD)【纯农排变】,小恩村村东新增农业4030（TD)【纯农排变】,白庙110农排|21000110【纯农排变】,大恩村南2-10840|21010840,委家庄9800农排|21009800【纯农排变】","poweroffReason":"【停电原因】由于主干１６号杆刀闸冒火导致１１０ＫＶ顺平变电站１０ＫＶ５１３伍郎线路全线停电【变更送电】因抢修进度加快原因，送电时间由２１：００变更为２０：３０【发布渠道】通过９５５９８发布","powerTime":"2019-06-24 19:55:06","powerComm":"已送电","subsNo":"","lineNo":"","tgNo":"","tgName":null,"infoStatus":"1","orgName":"国网顺平县电力局","typeName":null,"infoStatusName":null,"dateDay":null,"orgNos":null,"nowTime":null,"countyName":null,"streetName":null,"villageName":null,"roadName":null,"communityName":null,"tranName":null,"sdLineName":null,"cityCode":"1340621","cityName":"国网顺平县电力局","provinceCode":null,"stopTime":"2019-06-24 20:30:00","powerType":"全部","powerOffArea":"【全线路停电】停大恩村910农排|21000910【纯农排变】,大恩村保阜路边新增农业3541（TD)【纯农排变】,小恩村村东新增农业4030（TD)【纯农排变】,白庙110农排|21000110【纯农排变】,大恩村南2-10840|21010840,委家庄9800农排|21009800【纯农排变】","powerOffReason":"【停电原因】由于主干１６号杆刀闸冒火导致１１０ＫＶ顺平变电站１０ＫＶ５１３伍郎线路全线停电【变更送电】因抢修进度加快原因，送电时间由２１：００变更为２０：３０【发布渠道】通过９５５９８发布","powerOffId":"2019062413000512"},{"poweroffId":2019062413000452,"sgpoweroffId":null,"subsName":"","lineName":"10KV祖各庄514","pubTranName":"张翠台砖厂井变压器,0611825203-保定翔海旅游开发有限公司-专变-127816772-翔海旅游315KVA专变,祖各庄西南台区,涞水龙博建材有限公司新增250KVA专变,北辛庄村西北台区,涞水双开饲养有限公司新增变压器,涞水润鑫建材二分厂250,吴各庄村内,0646673503-涞水县航航水泥制品厂-专变-169896449-涞水县航航水泥制品厂新增变压器315KVA,吴各庄村内2台区,北辛庄西台区,张翠台面粉厂,祖各庄砖厂,承装公司杆厂,祖各庄村配变柱上变压器,祖各庄砖厂2,张翠台东台区,祖各庄楼板厂,张翠台村北2号台区,张翠台高速井,张翠台变压器,吴各庄北台区,吴各庄西南台区,下庄西井【纯农排变】,北辛庄公路边台区,祖各庄新东台区,下庄,祖各庄西北变压器,长和水泥构件,吴各庄公路边变压器,张翠台村内2,涞水县保北电气安装有限公司200KVA专变,鑫磊石粉厂,张翠台村北8号井变压器,张涿高速涞水互通收费站630KVA专变,张翠台村北台区,北辛庄五方井变压器【纯农排变】,北辛庄东台区,北辛庄三岔井变压器,0469315631-王村粮站-专变-46774540-王村粮站,南横七北井变压器,北辛庄河套井台区（西）,张翠台2号井变压器,下庄北井2变压器【纯农排变】,北辛庄北井变压器,祖各庄村内台区,新兴纸箱厂,北辛庄村东北台区,北辛庄村西海峰,瑞兴隆建材厂,下庄西台区,祖各庄东南台区变压器,张翠台村内台区,吴各庄小学院内变压器,张翠台万红光机井变压器,0469315367-王村中学-专变-46774539-王村中学,张翠台所北台区,祖各庄东坑台区变压器,王村供电所,北辛庄村南台区,0679135049-涞水龙博建材有限公司-专变-218835593-涞水龙博建材有限公司800KVA专变,国网河北省电力有限公司涿州市供电分公司200KVA专变,王村中学箱变间隔配电变压器,祖各庄南台区,吴各庄村西,张翠台村北3,张翠台北井变压器,涿州市供电有限责任公司,","scope":"【影响街道/乡镇】王村乡 【高危重要客户】无 【影响客户】祖各庄村、吴各庄村、张翠台村、下庄村、北辛庄村","startTime":"2019-06-24 17:33:08","stopDate":"2019-06-24 18:30:00","orgNo":"1340614","typeCode":"电网故障停限电","poweroffArea":"【全线路停电】停张翠台村北2号台区,张翠台砖厂井变压器,0611825203-保定翔海旅游开发有限公司-专变-127816772-翔海旅游315KVA专变,祖各庄西南台区,涞水龙博建材有限公司新增250KVA专变,北辛庄村西北台区,涞水双开饲养有限公司新增变压器,涞水润鑫建材二分厂250,吴各庄村内,0646673503-涞水县航航水泥制品厂-专变-169896449-涞水县航航水泥制品厂新增变压器315KVA,吴各庄村内2台区,北辛庄西台区,张翠台面粉厂,祖各庄砖厂,承装公司杆厂,祖各庄村配变柱上变压器,祖各庄砖厂2,张翠台东台区,祖各庄楼板厂,张翠台高速井,张翠台变压器,吴各庄北台区,吴各庄西南台区,下庄西井【纯农排变】,北辛庄公路边台区,祖各庄新东台区,下庄,祖各庄西北变压器,长和水泥构件,吴各庄公路边变压器,张翠台村内2,涞水县保北电气安装有限公司200KVA专变,鑫磊石粉厂,张翠台村北8号井变压器,张涿高速涞水互通收费站630KVA专变,张翠台村北台区,北辛庄五方井变压器【纯农排变】,北辛庄东台区,北辛庄三岔井变压器,0469315631-王村粮站-专变-46774540-王村粮站,南横七北井变压器,北辛庄河套井台区（西）,张翠台2号井变压器,下庄北井2变压器【纯农排变】,北辛庄北井变压器,祖各庄村内台区,新兴纸箱厂,北辛庄村东北台区,北辛庄村西海峰,瑞兴隆建材厂,下庄西台区,祖各庄东南台区变压器,张翠台村内台区,吴各庄小学院内变压器,张翠台万红光机井变压器,0469315367-王村中学-专变-46774539-王村中学,张翠台所北台区,祖各庄东坑台区变压器,王村供电所,北辛庄村南台区,0679135049-涞水龙博建材有限公司-专变-218835593-涞水龙博建材有限公司800KVA专变,国网河北省电力有限公司涿州市供电分公司200KVA专变,王村中学箱变间隔配电变压器,祖各庄南台区,吴各庄村西,张翠台村北3,张翠台北井变压器,涿州市供电有限责任公司","poweroffReason":"【停电原因】由于速断跳闸导致３５ＫＶ王村变电站１０ＫＶ祖各庄５１４线路全线停电 【变更送电】因抢修进度加快原因，送电时间由２２：００变更为１８：３０ 【发布渠道】通过９５５９８发布","powerTime":"2019-06-24 18:10:20","powerComm":"已送电","subsNo":"","lineNo":"","tgNo":"","tgName":null,"infoStatus":"1","orgName":"国网涞水县供电公司","typeName":null,"infoStatusName":null,"dateDay":null,"orgNos":null,"nowTime":null,"countyName":null,"streetName":null,"villageName":null,"roadName":null,"communityName":null,"tranName":null,"sdLineName":null,"cityCode":"1340614","cityName":"国网涞水县供电公司","provinceCode":null,"stopTime":"2019-06-24 18:30:00","powerType":"全部","powerOffArea":"【全线路停电】停张翠台村北2号台区,张翠台砖厂井变压器,0611825203-保定翔海旅游开发有限公司-专变-127816772-翔海旅游315KVA专变,祖各庄西南台区,涞水龙博建材有限公司新增250KVA专变,北辛庄村西北台区,涞水双开饲养有限公司新增变压器,涞水润鑫建材二分厂250,吴各庄村内,0646673503-涞水县航航水泥制品厂-专变-169896449-涞水县航航水泥制品厂新增变压器315KVA,吴各庄村内2台区,北辛庄西台区,张翠台面粉厂,祖各庄砖厂,承装公司杆厂,祖各庄村配变柱上变压器,祖各庄砖厂2,张翠台东台区,祖各庄楼板厂,张翠台高速井,张翠台变压器,吴各庄北台区,吴各庄西南台区,下庄西井【纯农排变】,北辛庄公路边台区,祖各庄新东台区,下庄,祖各庄西北变压器,长和水泥构件,吴各庄公路边变压器,张翠台村内2,涞水县保北电气安装有限公司200KVA专变,鑫磊石粉厂,张翠台村北8号井变压器,张涿高速涞水互通收费站630KVA专变,张翠台村北台区,北辛庄五方井变压器【纯农排变】,北辛庄东台区,北辛庄三岔井变压器,0469315631-王村粮站-专变-46774540-王村粮站,南横七北井变压器,北辛庄河套井台区（西）,张翠台2号井变压器,下庄北井2变压器【纯农排变】,北辛庄北井变压器,祖各庄村内台区,新兴纸箱厂,北辛庄村东北台区,北辛庄村西海峰,瑞兴隆建材厂,下庄西台区,祖各庄东南台区变压器,张翠台村内台区,吴各庄小学院内变压器,张翠台万红光机井变压器,0469315367-王村中学-专变-46774539-王村中学,张翠台所北台区,祖各庄东坑台区变压器,王村供电所,北辛庄村南台区,0679135049-涞水龙博建材有限公司-专变-218835593-涞水龙博建材有限公司800KVA专变,国网河北省电力有限公司涿州市供电分公司200KVA专变,王村中学箱变间隔配电变压器,祖各庄南台区,吴各庄村西,张翠台村北3,张翠台北井变压器,涿州市供电有限责任公司","powerOffReason":"【停电原因】由于速断跳闸导致３５ＫＶ王村变电站１０ＫＶ祖各庄５１４线路全线停电 【变更送电】因抢修进度加快原因，送电时间由２２：００变更为１８：３０ 【发布渠道】通过９５５９８发布","powerOffId":"2019062413000452"},{"poweroffId":2019062413000445,"sgpoweroffId":null,"subsName":"","lineName":"东环路516","pubTranName":"店北8#,","scope":"【影响街道/乡镇】易州镇【高危重要客户】无【影响客户】店北村","startTime":"2019-06-24 17:31:17","stopDate":"2019-06-24 19:00:00","orgNo":"1340625","typeCode":"电网故障停限电","poweroffArea":"【单台区停电】停店北8#","poweroffReason":"【停电原因】由于低压出线烧毁导致３５ＫＶ燕城变电站东环路５１６线路店北村８＃公变台区停电【变更送电】因抢修进度加快原因，送电时间由２２：００变更为１９：００【发布渠道】通过９５５９８发布","powerTime":"2019-06-24 18:30:06","powerComm":"已送电","subsNo":"","lineNo":"","tgNo":"","tgName":null,"infoStatus":"1","orgName":"国网易县供电公司","typeName":null,"infoStatusName":null,"dateDay":null,"orgNos":null,"nowTime":null,"countyName":null,"streetName":null,"villageName":null,"roadName":null,"communityName":null,"tranName":null,"sdLineName":null,"cityCode":"1340625","cityName":"国网易县供电公司","provinceCode":null,"stopTime":"2019-06-24 19:00:00","powerType":"全部","powerOffArea":"【单台区停电】停店北8#","powerOffReason":"【停电原因】由于低压出线烧毁导致３５ＫＶ燕城变电站东环路５１６线路店北村８＃公变台区停电【变更送电】因抢修进度加快原因，送电时间由２２：００变更为１９：００【发布渠道】通过９５５９８发布","powerOffId":"2019062413000445"},{"poweroffId":2019062413000439,"sgpoweroffId":null,"subsName":"","lineName":"10kV513伍侯线","pubTranName":"李玉仙1810农排|23001810【纯农排变】,玉山店-23003760|23003760,玉山店加油站,正童村东-23001100|23001100,玉山店三面粉厂,玉山店1680农排|23001680【纯农排变】,唐行店面粉厂,正童1150农排|23001150【纯农排变】,玉山店新增综合1号2211,北伍侯-23003460|23003460,北伍侯1480农排|23001480【纯农排变】,第三加油站,北伍候新架5874,唐行店村西新增综合5867,玉山店村东新增农业7974【纯农排变】,唐行店村新增综合2号5882,正童1080农排|23001080【纯农排变】,北伍侯1440农排|23001440【纯农排变】,玉山店灰粉厂,魏建虎牛场3440农业|23003440【纯农排变】,正童-23003920|23003920,海家庄-23001970|23001970,田乐子1880农排|23001880【纯农排变】,玉山店1740农排|23001740【纯农排变】,吴九井1960农排|23001960【纯农排变】,北伍侯1450农排|23001450【纯农排变】,北巷北1830农排|23001830【纯农排变】,唐行店3080农排|23003080【纯农排变】,正童1820农排|23001820【纯农排变】,唐行店-23003910|23003910,正童1130农排|23001130【纯农排变】,保定电信试验组,正童村东南新增综合5884,唐行店3210农排|23003210【纯农排变】,正童1090农排|23001090【纯农排变】,唐行店西-23001330|23001330,正童村西北新增综合2399,正童1910农排|23001910【纯农排变】,正童1140农排|23001140【纯农排变】,北巷北1850农排|23001850【纯农排变】,工业园区联通公司,正童村村东南新增综合0943,正童村西-23001060|23001060,海家庄1520农排|23001520【纯农排变】,海家庄1580农排|23001580【纯农排变】,新增庄村东新增综合6380,北伍侯新建农业4367【纯农排变】,唐行店1310农排|23001310【纯农排变】,0469471566-中国移动通信集团河北有限公司顺平分公司-专变-46816685-中国移动,正童1110农排|23001110【纯农排变】,海家庄综合新建4936,龙飞奶牛,玉山店南-23001640|23001640,正童新型节能材料厂,正童3290农业|23003290【纯农排变】,正童1160农排|23001160【纯农排变】,唐行店村南综合,变压器,正童1660农排|23001660【纯农排变】,顺兴面粉厂,唐行店村南新增综合5870,玉山店村西综合5868,王银全综合9472,北伍侯村新增综合2393,唐行店新增综合3号3489,张春亚养殖场,北伍侯-23001930|23001930,玉山店4号综合,新增庄村西新增综合7981,新增庄1290农排|23001290【纯农排变】,新增庄-23001250|23001250,北伍侯1470农排|23","scope":"【影响街道/乡镇】腰山镇【高危重要客户】无【影响客户】玉山店、正童、南伍侯、新增庄、唐行店、海家庄、北伍侯、保定誉华电力器材有限公司","startTime":"2019-06-24 17:27:50","stopDate":"2019-06-24 19:00:00","orgNo":"1340621","typeCode":"电网故障停限电","poweroffArea":"【全线路停电】停北伍侯1480农排|23001480【纯农排变】,玉山店南-23001640|23001640,玉山店村东新增农业7974【纯农排变】,保定电信试验组,正童村西-23001060|23001060,正童3290农业|23003290【纯农排变】,唐行店3210农排|23003210【纯农排变】,唐行店村西新增综合5867,玉山店加油站,新增庄1290农排|23001290【纯农排变】","poweroffReason":"【停电原因】由于北伍侯１４８０变压器烧毁导致３５ＫＶ腰山变电站１０ＫＶ５１３伍侯线路全线停电【变更送电】因抢修进度加快原因，送电时间由２２：００变更为１９：００【发布渠道】通过９５５９８发布","powerTime":"2019-06-24 18:18:50","powerComm":"已送电","subsNo":"","lineNo":"","tgNo":"","tgName":null,"infoStatus":"1","orgName":"国网顺平县电力局","typeName":null,"infoStatusName":null,"dateDay":null,"orgNos":null,"nowTime":null,"countyName":null,"streetName":null,"villageName":null,"roadName":null,"communityName":null,"tranName":null,"sdLineName":null,"cityCode":"1340621","cityName":"国网顺平县电力局","provinceCode":null,"stopTime":"2019-06-24 19:00:00","powerType":"全部","powerOffArea":"【全线路停电】停北伍侯1480农排|23001480【纯农排变】,玉山店南-23001640|23001640,玉山店村东新增农业7974【纯农排变】,保定电信试验组,正童村西-23001060|23001060,正童3290农业|23003290【纯农排变】,唐行店3210农排|23003210【纯农排变】,唐行店村西新增综合5867,玉山店加油站,新增庄1290农排|23001290【纯农排变】","powerOffReason":"【停电原因】由于北伍侯１４８０变压器烧毁导致３５ＫＶ腰山变电站１０ＫＶ５１３伍侯线路全线停电【变更送电】因抢修进度加快原因，送电时间由２２：００变更为１９：００【发布渠道】通过９５５９８发布","powerOffId":"2019062413000439"},{"poweroffId":2019062413000376,"sgpoweroffId":null,"subsName":"","lineName":"10kV联盟路站532线路","pubTranName":"B628柱上变压器,","scope":"【影响街道/乡镇】利农街、南仓路、三丰中路、南大园乡 【高危重要客户】无 【影响客户】果品公司宿舍、糖酒宿舍、五金站宿舍、南大园村、付食公司","startTime":"2019-06-26 06:00:00","stopDate":"2019-06-26 08:30:00","orgNo":"13406","typeCode":"临时停电","poweroffArea":"【单台区停电】停B628柱上变压器","poweroffReason":"【停电原因】由于供电设备临时检修导致１０ＫＶ联盟路变电站５３２线路Ｂ６２８公变台区停电【变更送电】因抢修进度加快，原定１２：００送电现计划０８：３０送电【发布渠道】通过９５５９８发布","powerTime":"2019-06-26 08:16:52","powerComm":"已送电","subsNo":"","lineNo":"","tgNo":"","tgName":null,"infoStatus":"1","orgName":"保定供电公司","typeName":null,"infoStatusName":null,"dateDay":null,"orgNos":null,"nowTime":null,"countyName":null,"streetName":null,"villageName":null,"roadName":null,"communityName":null,"tranName":null,"sdLineName":null,"cityCode":"13406","cityName":"保定供电公司","provinceCode":null,"stopTime":"2019-06-26 08:30:00","powerType":"全部","powerOffArea":"【单台区停电】停B628柱上变压器","powerOffReason":"【停电原因】由于供电设备临时检修导致１０ＫＶ联盟路变电站５３２线路Ｂ６２８公变台区停电【变更送电】因抢修进度加快，原定１２：００送电现计划０８：３０送电【发布渠道】通过９５５９８发布","powerOffId":"2019062413000376"},{"poweroffId":2019062413000322,"sgpoweroffId":null,"subsName":"","lineName":"高桥516","pubTranName":"小营8号,魏国旺,白沟盛景国际,变压器1250,刘立军,魏庄开发区,盛景观澜小区,小营西,保定白沟新城链通拉链制造有限公司变压器,小营6号,霓红灯2,四季花园,李强,军隆小区,五金灯饰城2,白芙蓉小学,保定白沟新城规划建设局北环路灯,天和复合厂,魏庄地2【纯农排变】,北环路灯,魏庄地【纯农排变】,医院1,高碑店市龙安泰房地产开发有限公司,机站（100）,魏庄北,富强路公变,李宝光,安康小区,魏庄小区,自来水公司,贾坡工地,梁雪峰,魏庄开发区2,小营北,小营13号,变压器,魏庄3,小营南2,吴金生,变压器2,小营南,小营7号,魏秋生,魏长山,魏庄开发区3号变台,变压器2000,孙景贤,保定嘉和顺意商贸有限公司变压器,医院2,庞景深,小营11号,","scope":"【影响街道/乡镇】白沟镇、五一路、安康路、政府街 【高危重要客户】无 【影响客户】魏庄村、小营村、五金灯饰城、白芙蓉小学、白沟卫生院、天和复合厂、魏秋生、魏庄小区、吴金生、四季花园小区、安康小区、魏国旺、魏长山、大明小区、白沟盛景国际、白沟威马皮具、军隆小区、自来水公司家属楼、白沟天奕商厦、财富国际公馆小区、盛景蓝天小区、盛景观澜小区、保定白沟新城链通拉链制造有限公司、保定嘉和顺意商贸有限公司","startTime":"2019-06-24 15:53:56","stopDate":"2019-06-24 17:00:00","orgNo":"1340612","typeCode":"电网故障停限电","poweroffArea":"【全线路停电】停魏国旺,白沟盛景国际,变压器1250,刘立军,魏庄开发区,盛景观澜小区,小营西,保定白沟新城链通拉链制造有限公司变压器,魏庄北,富强路公变,李宝光,安康小区,魏庄小区,自来水公司,贾坡工地,小营8号,梁雪峰,保定嘉和顺意商贸有限公司变压器,医院1,高碑店市龙安泰房地产开发有限公司,机站（100）,小营北,小营13号,变压器,魏庄3,小营南2,吴金生,变压器2,小营南,小营7号,魏秋生,魏长山,魏庄开发区3号变台,变压器2000,孙景贤,医院2,庞景深,小营11号,魏庄开发区2,小营6号,霓红灯2,四季花园,李强,军隆小区,五金灯饰城2,白芙蓉小学,保定白沟新城规划建设局北环路灯,天和复合厂,魏庄地2【纯农排变】,北环路灯,魏庄地【纯农排变】","poweroffReason":"【停电原因】由于白芙蓉小学变压器烧毁导致１１０ＫＶ白沟变电站１０ＫＶ高桥５１６线路全线停电 【变更送电】因抢修进度加快原因，送电时间由２２：００变更为１７：００ 【发布渠道】通过９５５９８发布","powerTime":"2019-06-24 16:21:02","powerComm":"已送电","subsNo":"","lineNo":"","tgNo":"","tgName":null,"infoStatus":"1","orgName":"国网高碑店市供电公司","typeName":null,"infoStatusName":null,"dateDay":null,"orgNos":null,"nowTime":null,"countyName":null,"streetName":null,"villageName":null,"roadName":null,"communityName":null,"tranName":null,"sdLineName":null,"cityCode":"1340612","cityName":"国网高碑店市供电公司","provinceCode":null,"stopTime":"2019-06-24 17:00:00","powerType":"全部","powerOffArea":"【全线路停电】停魏国旺,白沟盛景国际,变压器1250,刘立军,魏庄开发区,盛景观澜小区,小营西,保定白沟新城链通拉链制造有限公司变压器,魏庄北,富强路公变,李宝光,安康小区,魏庄小区,自来水公司,贾坡工地,小营8号,梁雪峰,保定嘉和顺意商贸有限公司变压器,医院1,高碑店市龙安泰房地产开发有限公司,机站（100）,小营北,小营13号,变压器,魏庄3,小营南2,吴金生,变压器2,小营南,小营7号,魏秋生,魏长山,魏庄开发区3号变台,变压器2000,孙景贤,医院2,庞景深,小营11号,魏庄开发区2,小营6号,霓红灯2,四季花园,李强,军隆小区,五金灯饰城2,白芙蓉小学,保定白沟新城规划建设局北环路灯,天和复合厂,魏庄地2【纯农排变】,北环路灯,魏庄地【纯农排变】","powerOffReason":"【停电原因】由于白芙蓉小学变压器烧毁导致１１０ＫＶ白沟变电站１０ＫＶ高桥５１６线路全线停电 【变更送电】因抢修进度加快原因，送电时间由２２：００变更为１７：００ 【发布渠道】通过９５５９８发布","powerOffId":"2019062413000322"},{"poweroffId":2019062413000315,"sgpoweroffId":null,"subsName":"","lineName":"固店线563","pubTranName":"固店排14【纯农排变】,南营邱排1【纯农排变】,固店排3【纯农排变】,北营邱光3,固店排10【纯农排变】,北营邱光2,固店排6【纯农排变】,固店光3,*南营邱种鸡厂,北营邱排2【纯农排变】,牛树奎养鸡厂,固店光8,固店光12,张家庄排24【纯农排变】,中国移动通信集团河北有限公司定兴分公司（北营丘基站）,固店排8【纯农排变】,固店光5,固店排15【纯农排变】,固店排17【纯农排变】,固店排1【纯农排变】,固店排4【纯农排变】,固店光2,固店光9,固店光7,南营邱光1,固店光5变,北营邱光1,固店光10,南营邱排5【纯农排变】,固店光4,北营邱排3【纯农排变】,固店光6,张家庄排22【纯农排变】,南营邱排3【纯农排变】,易县大巨志林页岩砖厂-630,南营邱排4【纯农排变】,固店排13【纯农排变】,固店排11【纯农排变】,张家庄排4【纯农排变】,固店排7【纯农排变】,北营邱排1【纯农排变】,南营邱排2【纯农排变】,固店光11,南营邱光3,张家庄排1【纯农排变】,张家庄排21【纯农排变】,张家庄排2【纯农排变】,固店光9变,张家庄排3【纯农排变】,固店小学-315,固店排12【纯农排变】,固店光1,固店排18【纯农排变】,南营邱排6【纯农排变】,南营邱光2,固店排16【纯农排变】,固店排5【纯农排变】,张家庄排28【纯农排变】,固店排2【纯农排变】,北营邱排4【纯农排变】,","scope":"【影响街道/乡镇】张家庄乡 【高危重要客户】无 【影响客户】固店、南营邱部分用户、北营邱部分用户、南营邱种鸡厂、牛树奎养鸡厂、张家庄部分用户、中国移动通信集团河北有限公司定兴分公司、易县大巨志林页岩砖厂、固店小学","startTime":"2019-06-24 15:44:50","stopDate":"2019-06-24 17:00:00","orgNo":"1340609","typeCode":"电网故障停限电","poweroffArea":"【全线路停电】停固店排14【纯农排变】,南营邱排1【纯农排变】,固店排3【纯农排变】,北营邱光3,固店排10【纯农排变】,北营邱光2,固店排6【纯农排变】,固店光3,*南营邱种鸡厂,北营邱排2【纯农排变】,牛树奎养鸡厂,固店光8,固店光12,张家庄排24【纯农排变】,中国移动通信集团河北有限公司定兴分公司（北营丘基站）,固店排8【纯农排变】,固店光5,固店排15【纯农排变】,固店排17【纯农排变】,固店排1【纯农排变】,固店排4【纯农排变】,固店光2,固店光9,固店光7,南营邱光1,固店光5变,北营邱光1,固店光10,南营邱排5【纯农排变】,固店光4,北营邱排3【纯农排变】,固店光6,张家庄排22【纯农排变】,南营邱排3【纯农排变】,易县大巨志林页岩砖厂-630,南营邱排4【纯农排变】,固店排13【纯农排变】,固店排11【纯农排变】,张家庄排4【纯农排变】,固店排7【纯农排变】,北营邱排1【纯农排变】,南营邱排2【纯农排变】,固店光11,南营邱光3,张家庄排1【纯农排变】,张家庄排21【纯农排变】,张家庄排2【纯农排变】,固店光9变,张家庄排3【纯农排变】,固店小学-315,固店排12【纯农排变】,固店光1,固店排18【纯农排变】,南营邱排6【纯农排变】,北营邱排4【纯农排变】,南营邱光2,固店排16【纯农排变】,固店排5【纯农排变】,张家庄排28【纯农排变】,固店排2【纯农排变】","poweroffReason":"【停电原因】由于固店光５分支６号杆引线脱落导致１１０ＫＶ贤寓变电站固店线５６３线路全线停电 【变更送电】因抢修进度加快原因，送电时间由２０：００变更为１７：００ 【发布渠道】通过９５５９８发布","powerTime":"2019-06-24 16:18:46","powerComm":"已送电","subsNo":"","lineNo":"","tgNo":"","tgName":null,"infoStatus":"1","orgName":"国网定兴县供电公司","typeName":null,"infoStatusName":null,"dateDay":null,"orgNos":null,"nowTime":null,"countyName":null,"streetName":null,"villageName":null,"roadName":null,"communityName":null,"tranName":null,"sdLineName":null,"cityCode":"1340609","cityName":"国网定兴县供电公司","provinceCode":null,"stopTime":"2019-06-24 17:00:00","powerType":"全部","powerOffArea":"【全线路停电】停固店排14【纯农排变】,南营邱排1【纯农排变】,固店排3【纯农排变】,北营邱光3,固店排10【纯农排变】,北营邱光2,固店排6【纯农排变】,固店光3,*南营邱种鸡厂,北营邱排2【纯农排变】,牛树奎养鸡厂,固店光8,固店光12,张家庄排24【纯农排变】,中国移动通信集团河北有限公司定兴分公司（北营丘基站）,固店排8【纯农排变】,固店光5,固店排15【纯农排变】,固店排17【纯农排变】,固店排1【纯农排变】,固店排4【纯农排变】,固店光2,固店光9,固店光7,南营邱光1,固店光5变,北营邱光1,固店光10,南营邱排5【纯农排变】,固店光4,北营邱排3【纯农排变】,固店光6,张家庄排22【纯农排变】,南营邱排3【纯农排变】,易县大巨志林页岩砖厂-630,南营邱排4【纯农排变】,固店排13【纯农排变】,固店排11【纯农排变】,张家庄排4【纯农排变】,固店排7【纯农排变】,北营邱排1【纯农排变】,南营邱排2【纯农排变】,固店光11,南营邱光3,张家庄排1【纯农排变】,张家庄排21【纯农排变】,张家庄排2【纯农排变】,固店光9变,张家庄排3【纯农排变】,固店小学-315,固店排12【纯农排变】,固店光1,固店排18【纯农排变】,南营邱排6【纯农排变】,北营邱排4【纯农排变】,南营邱光2,固店排16【纯农排变】,固店排5【纯农排变】,张家庄排28【纯农排变】,固店排2【纯农排变】","powerOffReason":"【停电原因】由于固店光５分支６号杆引线脱落导致１１０ＫＶ贤寓变电站固店线５６３线路全线停电 【变更送电】因抢修进度加快原因，送电时间由２０：００变更为１７：００ 【发布渠道】通过９５５９８发布","powerOffId":"2019062413000315"},{"poweroffId":2019062413000312,"sgpoweroffId":null,"subsName":"","lineName":"10kV北大冉线524","pubTranName":"0387507097-保定鑫淼饮料制造有限公司-专变-45326042-保定鑫淼饮料制造有限公司,0387507547-北京市绅宝针棉织品有限公司保定分公司-专变-45325950-北京市绅宝针棉织品有限公司保定分公司,毛纺厂公用,0673489993-河北瑞雅房地产开发有限公司-专变-225171324-河北瑞雅房地产开发有限公司,保定市材茂城新型建材制造有限公司,客户投资_亨信家园公用1,金盾小区公用1,保定中士达包装有限公司,保定市清苑区公安局,保定市华威汽车装饰有限公司,0469652459-清苑县昱晟光伏科技有限公司-专变-46900630-清苑县双兴汽车配件装饰服务部,刘振武加工厂,邮政局公用,河北卓天房地产开发有限公司,保定宏进铸造机械厂,天祥园公用,清苑县电力器材厂,保定市博远电气制造有限公司,清苑县立冉运输有限公司,0586436981-清苑县第三小学-专变-125145233-清苑县第三小学,地税南公用,0553831478-清苑县住房和城乡建设局-专变-69295407-清苑县财政局,露露花园公用,河北润祥纺织品有限公司,保定鑫淼饮料制造有限公司,清馨园二期公用,交警公用1,0673489993-河北瑞雅房地产开发有限公司-专变-225171555-河北瑞雅房地产开发有限公司,清苑县绅宝寝具有限公司,0387508146-清苑县第一中学-专变-45325953-清苑县青春实业有限公司,0387507244-清苑中学-专变-45326037-清苑中学,0387506980-清苑县住房和城乡建设局-专变-45325966-北外环路灯,北大冉内6,0555901829-清苑县长胜机械配件加工厂-专变-103677932-清苑县长胜机械配件加工厂,清苑县宏伟化工有限公司,0387507879-保定华威汽车部件制造有限公司-专变-219728883-保定市华威汽车装饰有限公司,幼儿园公用,通讯公司公用,地税北公用,保定市清苑区裕东养老服务中心,清苑县建设路玉龙大酒店,北大冉内3号,清苑县广播电视局1,0387506863-清苑县住房和城乡建设局-专变-45326040-开发区路灯,亨信家园公用2,河北腾飞房地产开发有限公司,2北大冉外17【纯农排变】,保定市南市区盛达精密铸造厂,保定益智源机电设备科技有限公司,金盾小区公用2,0387507071-中国移动通信集团河北有限公司保定分公司-专变-45325975-中国移动通信河北有限公司清苑分公司,0387507879-保定华威汽车部件制造有限公司-专变-45325974-保定市华威汽车装饰有限公司,清馨园公用,清苑县立博汽车美容店,中国移动通信集团河北有限公司保定分公司,河北大桥房地产开发集团有限公司,保定市至鑫机械制造有限公司,保定市清苑区住房和城乡建设局,河北省保定市清苑区第一中学,保定市清苑区新华世纪中学,东方佳苑公用,2北大冉外1,北大冉外18【纯农排变】,保定市南市区王示桥业加工厂（佰思特）,0387507390-清苑县大道印刷有限公司-专变-45325951-清苑县大道印刷有限公司,0387507723-保定市清苑区公安局交通警察大队-专变-45","scope":"【影响街道/乡镇】清苑镇 【高危重要客户】无 【影响客户】邮政局、通讯公司、东方佳苑、露露花园、交警、亨信家园、毛纺厂、教育城、天祥园、地税局楼、金盾小区、清馨园、二幼、裕东医院、北大冉","startTime":"2019-06-24 15:35:32","stopDate":"2019-06-24 17:30:00","orgNo":"1340618","typeCode":"电网故障停限电","poweroffArea":"【全线路停电】停0387507547-北京市绅宝针棉织品有限公司保定分公司-专变-45325950-北京市绅宝针棉织品有限公司保定分公司,毛纺厂公用,0673489993-河北瑞雅房地产开发有限公司-专变-225171324-河北瑞雅房地产开发有限公司,保定市材茂城新型建材制造有限公司,客户投资_亨信家园公用1,金盾小区公用1,保定中士达包装有限公司,保定市清苑区公安局,保定市华威汽车装饰有限公司,0469652459-清苑县昱晟光伏科技有限公司-专变-46900630-清苑县双兴汽车配件装饰服务部,刘振武加工厂,邮政局公用,河北卓天房地产开发有限公司,保定宏进铸造机械厂,天祥园公用,清苑县电力器材厂,保定市博远电气制造有限公司,清苑县立冉运输有限公司,0586436981-清苑县第三小学-专变-125145233-清苑县第三小学,地税南公用,0553831478-清苑县住房和城乡建设局-专变-69295407-清苑县财政局,露露花园公用,河北润祥纺织品有限公司,保定鑫淼饮料制造有限公司,清馨园二期公用,交警公用1,保定市清苑区新华世纪中学,东方佳苑公用,2北大冉外1,北大冉外18【纯农排变】,保定市南市区王示桥业加工厂（佰思特）,0387507390-清苑县大道印刷有限公司-专变-45325951-清苑县大道印刷有限公司,0673489993-河北瑞雅房地产开发有限公司-专变-225171555-河北瑞雅房地产开发有限公司,清苑县绅宝寝具有限公司,0387508146-清苑县第一中学-专变-45325953-清苑县青春实业有限公司,0387507244-清苑中学-专变-45326037-清苑中学,0387506980-清苑县住房和城乡建设局-专变-45325966-北外环路灯,北大冉内6,0555901829-清苑县长胜机械配件加工厂-专变-103677932-清苑县长胜机械配件加工厂,清苑县宏伟化工有限公司,0387507879-保定华威汽车部件制造有限公司-专变-219728883-保定市华威汽车装饰有限公司,幼儿园公用,通讯公司公用,地税北公用,保定市清苑区裕东养老服务中心,清苑县建设路玉龙大酒店,北大冉内3号,清苑县广播电视局1,0387506863-清苑县住房和城乡建设局-专变-45326040-开发区路灯,0387507097-保定鑫淼饮料制造有限公司-专变-45326042-保定鑫淼饮料制造有限公司,保定市恒庆达工贸有限公司,亨信家园公用2,河北腾飞房地产开发有限公司,2北大冉外17【纯农排变】,保定市南市区盛达精密铸造厂,保定益智源机电设备科技有限公司,金盾小区公用2,0387507071-中国移动通信集团河北有限公司保定分公司-专变-45325975-中国移动通信河北有限公司清苑分公司,0387507879-保定华威汽车部件制造有限公司-专变-45325974-保定市华威汽车装饰有限公司,清馨园公用,清苑县立博汽车美容店,中国移动通信集团河北有限公司保定分公司,河北大桥房地产开发集团有限公司,保定市至鑫机械制造有限公司,保定市清苑区住房和城乡建设局,河北省保定市清苑区第一中学,0387507723-保定市清苑区公安局交通警察大队-专变-45326051-地税红绿灯,0387506977-清苑县清苑中学-专变-45326114-清苑县清苑中学,保定鑫丰铸造机械厂,0387507231-保定市清苑区广播电视台-专变-45326053-清苑县广播电视局,交警公用2,2北冉外15【纯农排变】,保定苑绅制香有限公司,0673489993-河北瑞雅房地产开发有限公司-专变-225171576-河北瑞雅房地产开发有限公司","poweroffReason":"【停电原因】由于主干６１号杆西Ｔ４号杆避雷器垄线搭横担导致１１０ＫＶ阮庄变电站１０ＫＶ北大冉线５２４线路全线停电 【变更送电】因抢修进度加快原因，送电时间由２０：００变更为１７：３０ 【发布渠道】通过９５５９８发布","powerTime":"2019-06-24 17:05:15","powerComm":"赵小双通知已送电","subsNo":"","lineNo":"","tgNo":"","tgName":null,"infoStatus":"1","orgName":"国网清苑县供电公司","typeName":null,"infoStatusName":null,"dateDay":null,"orgNos":null,"nowTime":null,"countyName":null,"streetName":null,"villageName":null,"roadName":null,"communityName":null,"tranName":null,"sdLineName":null,"cityCode":"1340618","cityName":"国网清苑县供电公司","provinceCode":null,"stopTime":"2019-06-24 17:30:00","powerType":"全部","powerOffArea":"【全线路停电】停0387507547-北京市绅宝针棉织品有限公司保定分公司-专变-45325950-北京市绅宝针棉织品有限公司保定分公司,毛纺厂公用,0673489993-河北瑞雅房地产开发有限公司-专变-225171324-河北瑞雅房地产开发有限公司,保定市材茂城新型建材制造有限公司,客户投资_亨信家园公用1,金盾小区公用1,保定中士达包装有限公司,保定市清苑区公安局,保定市华威汽车装饰有限公司,0469652459-清苑县昱晟光伏科技有限公司-专变-46900630-清苑县双兴汽车配件装饰服务部,刘振武加工厂,邮政局公用,河北卓天房地产开发有限公司,保定宏进铸造机械厂,天祥园公用,清苑县电力器材厂,保定市博远电气制造有限公司,清苑县立冉运输有限公司,0586436981-清苑县第三小学-专变-125145233-清苑县第三小学,地税南公用,0553831478-清苑县住房和城乡建设局-专变-69295407-清苑县财政局,露露花园公用,河北润祥纺织品有限公司,保定鑫淼饮料制造有限公司,清馨园二期公用,交警公用1,保定市清苑区新华世纪中学,东方佳苑公用,2北大冉外1,北大冉外18【纯农排变】,保定市南市区王示桥业加工厂（佰思特）,0387507390-清苑县大道印刷有限公司-专变-45325951-清苑县大道印刷有限公司,0673489993-河北瑞雅房地产开发有限公司-专变-225171555-河北瑞雅房地产开发有限公司,清苑县绅宝寝具有限公司,0387508146-清苑县第一中学-专变-45325953-清苑县青春实业有限公司,0387507244-清苑中学-专变-45326037-清苑中学,0387506980-清苑县住房和城乡建设局-专变-45325966-北外环路灯,北大冉内6,0555901829-清苑县长胜机械配件加工厂-专变-103677932-清苑县长胜机械配件加工厂,清苑县宏伟化工有限公司,0387507879-保定华威汽车部件制造有限公司-专变-219728883-保定市华威汽车装饰有限公司,幼儿园公用,通讯公司公用,地税北公用,保定市清苑区裕东养老服务中心,清苑县建设路玉龙大酒店,北大冉内3号,清苑县广播电视局1,0387506863-清苑县住房和城乡建设局-专变-45326040-开发区路灯,0387507097-保定鑫淼饮料制造有限公司-专变-45326042-保定鑫淼饮料制造有限公司,保定市恒庆达工贸有限公司,亨信家园公用2,河北腾飞房地产开发有限公司,2北大冉外17【纯农排变】,保定市南市区盛达精密铸造厂,保定益智源机电设备科技有限公司,金盾小区公用2,0387507071-中国移动通信集团河北有限公司保定分公司-专变-45325975-中国移动通信河北有限公司清苑分公司,0387507879-保定华威汽车部件制造有限公司-专变-45325974-保定市华威汽车装饰有限公司,清馨园公用,清苑县立博汽车美容店,中国移动通信集团河北有限公司保定分公司,河北大桥房地产开发集团有限公司,保定市至鑫机械制造有限公司,保定市清苑区住房和城乡建设局,河北省保定市清苑区第一中学,0387507723-保定市清苑区公安局交通警察大队-专变-45326051-地税红绿灯,0387506977-清苑县清苑中学-专变-45326114-清苑县清苑中学,保定鑫丰铸造机械厂,0387507231-保定市清苑区广播电视台-专变-45326053-清苑县广播电视局,交警公用2,2北冉外15【纯农排变】,保定苑绅制香有限公司,0673489993-河北瑞雅房地产开发有限公司-专变-225171576-河北瑞雅房地产开发有限公司","powerOffReason":"【停电原因】由于主干６１号杆西Ｔ４号杆避雷器垄线搭横担导致１１０ＫＶ阮庄变电站１０ＫＶ北大冉线５２４线路全线停电 【变更送电】因抢修进度加快原因，送电时间由２０：００变更为１７：３０ 【发布渠道】通过９５５９８发布","powerOffId":"2019062413000312"}],"pageModel":{"pageNow":907,"totalCount":10973,"totalPage":1098,"tableRows":0,"pageCount":10,"beginCount":9060},"isExperi":"1"}