{"message":"","today":"2020-06-15","seleList":[{"poweroffId":2019062413000302,"sgpoweroffId":null,"subsName":"","lineName":"山南线517","pubTranName":"西茹堡村9变压器,","scope":"【影响街道/乡镇】桥头乡【高危重要客户】无【影响客户】西茹堡村","startTime":"2019-06-24 15:09:36","stopDate":"2019-06-24 17:00:00","orgNo":"1340625","typeCode":"电网故障停限电","poweroffArea":"【单台区停电】停西茹堡村9变压器","poweroffReason":"【停电原因】由于电缆烧毁导致１１０ＫＶ易县变电站山南５１７线路西茹堡村９变压器公变台区停电【变更送电】因抢修进度加快原因，送电时间由２３：００变更为１７：００【发布渠道】通过９５５９８发布","powerTime":"2019-06-24 16:28:36","powerComm":"已送电","subsNo":"","lineNo":"","tgNo":"","tgName":null,"infoStatus":"1","orgName":"国网易县供电公司","typeName":null,"infoStatusName":null,"dateDay":null,"orgNos":null,"nowTime":null,"countyName":null,"streetName":null,"villageName":null,"roadName":null,"communityName":null,"tranName":null,"sdLineName":null,"cityCode":"1340625","cityName":"国网易县供电公司","provinceCode":null,"stopTime":"2019-06-24 17:00:00","powerType":"全部","powerOffArea":"【单台区停电】停西茹堡村9变压器","powerOffReason":"【停电原因】由于电缆烧毁导致１１０ＫＶ易县变电站山南５１７线路西茹堡村９变压器公变台区停电【变更送电】因抢修进度加快原因，送电时间由２３：００变更为１７：００【发布渠道】通过９５５９８发布","powerOffId":"2019062413000302"},{"poweroffId":2019062413000290,"sgpoweroffId":null,"subsName":"","lineName":"10kV511洪善堡线","pubTranName":"齐村综合5台区,洪善堡综合3台区,后市综合9台区,后市综合2台区,0469454316-后刘市面粉厂-专变-46812910-后市面粉厂,洪善堡农排12台区【纯农排变】,后市农排3台区【纯农排变】,后市农排1台区【纯农排变】,齐村综合4台区,洪堡综合6台区,齐村综合2台区,后市综合10台区,北刘佐综合1台区,北刘佐综合5台区,洪善堡农排4台区【纯农排变】,后市农排7台区【纯农排变】,0469453384-冀宏橡胶制品厂-专变-46812912-洪堡胶厂,洪善堡农排8台区【纯农排变】,0469452349-洪堡孙彦卿农业台区-专变-46812916-花厂,前市农排1台区【纯农排变】,齐村综合3台区,蠡县欧福特汽车用品厂,齐村综合7台区,洪善堡综合9台区,洪善堡农排6台区【纯农排变】,洪善堡综合12台区,后市综合7台区,0593173310-蠡县后刘市兴光人造革废料加工厂-专变-125866393-蠡县后刘市兴光人造革废料加工厂,齐村综合1台区,北佐综合5台区,0469454303-蠡县北刘佐面粉厂-专变-46812920-蠡县北刘佐面粉厂,洪善堡综合5台区,洪善堡综合2台区,后市农排4台区【纯农排变】,洪善堡农排15台区【纯农排变】,中佐农排13台区【纯农排变】,齐村农排1台区【纯农排变】,洪善堡农排7台区【纯农排变】,前市综合3台区,后市农排9台区变压器【纯农排变】,后市农排5台区【纯农排变】,0469454808-齐村段贯纯农业二台区-专变-46812914-齐村西北,齐村综合6台区,前市综合4台区,洪善堡农排17台区【纯农排变】,洪善堡综合10台区,后市综合12台区变压器,洪善堡综合1台区,站变,后市综合6台区,北刘佐综合3台区,0469453788-齐村段贯纯农业一台区-专变-46812913-齐村东北,一队农排5台区【纯农排变】,后市综合8台区,北刘佐农排2台区【纯农排变】,前市综合1台区,0469454329-后市宋树模农业台区-专变-46812911-后市宋树模,洪善堡综合11台区,后市综合4台区,后市综合11台区变压器,洪善堡综合7台区,后市综合3台区,洪善堡综合4台区,后市综合1台区,北刘佐综合2台区,前市综合2台区,0469453010-中国联合网络通信有限公司蠡县分公司-专变-46812917-中国网通,洪善堡农排16台区【纯农排变】,洪善堡人造皮毛厂,蠡县新民养猪场变压器,北刘佐综合4台区,洪堡农排1台区【纯农排变】,北佐综合6台区,后市综合5台区,","scope":"【影响街道/乡镇】南庄镇【高危重要客户】无【影响客户】洪善堡村、后刘市村、北刘佐村、齐村、前刘市村","startTime":"2019-06-24 14:57:31","stopDate":"2019-06-24 17:00:00","orgNo":"1340616","typeCode":"电网故障停限电","poweroffArea":"【全线路停电】停后市综合8台区,洪善堡综合7台区,后市综合11台区变压器,后市综合1台区,后市综合7台区,洪善堡综合3台区,洪善堡综合4台区,北刘佐综合3台区,后市综合3台区,洪善堡综合12台区,后市综合2台区,0469452349-洪堡孙彦卿农业台区-专变-46812916-花厂,洪善堡综合1台区,0469454329-后市宋树模农业台区-专变-46812911-后市宋树模,0469453384-冀宏橡胶制品厂-专变-46812912-洪堡胶厂,后市综合9台区,洪善堡人造皮毛厂,0469453010-中国联合网络通信有限公司蠡县分公司-专变-46812917-中国网通,北佐综合6台区,齐村综合3台区,洪善堡综合10台区,洪善堡农排16台区【纯农排变】,蠡县欧福特汽车用品厂,北刘佐农排2台区【纯农排变】,洪善堡农排4台区【纯农排变】,洪善堡综合11台区,洪善堡农排6台区【纯农排变】,前市综合4台区,后市农排9台区变压器【纯农排变】,后市农排5台区【纯农排变】,蠡县新民养猪场变压器,齐村综合7台区,前市农排1台区【纯农排变】,0469454316-后刘市面粉厂-专变-46812910-后市面粉厂,洪善堡综合5台区,一队农排5台区【纯农排变】,站变,北刘佐综合5台区,洪善堡农排12台区【纯农排变】,后市综合10台区,后市农排3台区【纯农排变】,齐村综合2台区,后市综合12台区变压器,后市综合4台区,齐村综合4台区,齐村农排1台区【纯农排变】,洪善堡综合2台区,洪善堡综合9台区,北刘佐综合2台区,后市综合6台区,中佐农排13台区【纯农排变】,后市农排1台区【纯农排变】,齐村综合6台区,齐村综合1台区,0593173310-蠡县后刘市兴光人造革废料加工厂-专变-125866393-蠡县后刘市兴光人造革废料加工厂,洪善堡农排17台区【纯农排变】,北刘佐综合1台区,洪善堡农排15台区【纯农排变】,洪堡综合6台区,后市综合5台区,北刘佐综合4台区,前市综合1台区,前市综合2台区,后市农排7台区【纯农排变】,洪善堡农排8台区【纯农排变】,齐村综合5台区,北佐综合5台区,洪善堡农排7台区【纯农排变】,0469454808-齐村段贯纯农业二台区-专变-46812914-齐村西北,前市综合3台区,后市农排4台区【纯农排变】,0469453788-齐村段贯纯农业一台区-专变-46812913-齐村东北,洪堡农排1台区【纯农排变】,0469454303-蠡县北刘佐面粉厂-专变-46812920-蠡县北刘佐面粉厂","poweroffReason":"【停电原因】由于站外开关掉闸导致３５ＫＶ洪善堡变电站１０ＫＶ洪善堡５１１线路全线停电【变更送电】因抢修进度加快原因，送电时间由２０：００变更为１７：００【发布渠道】通过９５５９８发布","powerTime":"2019-06-24 16:05:01","powerComm":"已送电","subsNo":"","lineNo":"","tgNo":"","tgName":null,"infoStatus":"1","orgName":"国网蠡县供电公司","typeName":null,"infoStatusName":null,"dateDay":null,"orgNos":null,"nowTime":null,"countyName":null,"streetName":null,"villageName":null,"roadName":null,"communityName":null,"tranName":null,"sdLineName":null,"cityCode":"1340616","cityName":"国网蠡县供电公司","provinceCode":null,"stopTime":"2019-06-24 17:00:00","powerType":"全部","powerOffArea":"【全线路停电】停后市综合8台区,洪善堡综合7台区,后市综合11台区变压器,后市综合1台区,后市综合7台区,洪善堡综合3台区,洪善堡综合4台区,北刘佐综合3台区,后市综合3台区,洪善堡综合12台区,后市综合2台区,0469452349-洪堡孙彦卿农业台区-专变-46812916-花厂,洪善堡综合1台区,0469454329-后市宋树模农业台区-专变-46812911-后市宋树模,0469453384-冀宏橡胶制品厂-专变-46812912-洪堡胶厂,后市综合9台区,洪善堡人造皮毛厂,0469453010-中国联合网络通信有限公司蠡县分公司-专变-46812917-中国网通,北佐综合6台区,齐村综合3台区,洪善堡综合10台区,洪善堡农排16台区【纯农排变】,蠡县欧福特汽车用品厂,北刘佐农排2台区【纯农排变】,洪善堡农排4台区【纯农排变】,洪善堡综合11台区,洪善堡农排6台区【纯农排变】,前市综合4台区,后市农排9台区变压器【纯农排变】,后市农排5台区【纯农排变】,蠡县新民养猪场变压器,齐村综合7台区,前市农排1台区【纯农排变】,0469454316-后刘市面粉厂-专变-46812910-后市面粉厂,洪善堡综合5台区,一队农排5台区【纯农排变】,站变,北刘佐综合5台区,洪善堡农排12台区【纯农排变】,后市综合10台区,后市农排3台区【纯农排变】,齐村综合2台区,后市综合12台区变压器,后市综合4台区,齐村综合4台区,齐村农排1台区【纯农排变】,洪善堡综合2台区,洪善堡综合9台区,北刘佐综合2台区,后市综合6台区,中佐农排13台区【纯农排变】,后市农排1台区【纯农排变】,齐村综合6台区,齐村综合1台区,0593173310-蠡县后刘市兴光人造革废料加工厂-专变-125866393-蠡县后刘市兴光人造革废料加工厂,洪善堡农排17台区【纯农排变】,北刘佐综合1台区,洪善堡农排15台区【纯农排变】,洪堡综合6台区,后市综合5台区,北刘佐综合4台区,前市综合1台区,前市综合2台区,后市农排7台区【纯农排变】,洪善堡农排8台区【纯农排变】,齐村综合5台区,北佐综合5台区,洪善堡农排7台区【纯农排变】,0469454808-齐村段贯纯农业二台区-专变-46812914-齐村西北,前市综合3台区,后市农排4台区【纯农排变】,0469453788-齐村段贯纯农业一台区-专变-46812913-齐村东北,洪堡农排1台区【纯农排变】,0469454303-蠡县北刘佐面粉厂-专变-46812920-蠡县北刘佐面粉厂","powerOffReason":"【停电原因】由于站外开关掉闸导致３５ＫＶ洪善堡变电站１０ＫＶ洪善堡５１１线路全线停电【变更送电】因抢修进度加快原因，送电时间由２０：００变更为１７：００【发布渠道】通过９５５９８发布","powerOffId":"2019062413000290"},{"poweroffId":2019062413000281,"sgpoweroffId":null,"subsName":"","lineName":"10kV东北郊站514线路","pubTranName":"B676柱上变压器,","scope":"【影响街道/乡镇】玉兰大街、杨庄乡、烟厂路、 【高危重要客户】无 【影响客户】王宋庄村、西康庄村、东康二期","startTime":"2019-06-24 14:35:11","stopDate":"2019-06-24 16:30:45","orgNo":"13406","typeCode":"电网故障停限电","poweroffArea":"【单台区停电】停B676柱上变压器","poweroffReason":"【停电原因】由于低压刀闸烧导致１０ＫＶ东北郊变电站５１４线路Ｂ６７６公变台区停电【变更送电】无【发布渠道】通过９５５９８发布","powerTime":"2019-06-24 15:52:37","powerComm":"已送电","subsNo":"","lineNo":"","tgNo":"","tgName":null,"infoStatus":"1","orgName":"保定供电公司","typeName":null,"infoStatusName":null,"dateDay":null,"orgNos":null,"nowTime":null,"countyName":null,"streetName":null,"villageName":null,"roadName":null,"communityName":null,"tranName":null,"sdLineName":null,"cityCode":"13406","cityName":"保定供电公司","provinceCode":null,"stopTime":"2019-06-24 16:30:45","powerType":"全部","powerOffArea":"【单台区停电】停B676柱上变压器","powerOffReason":"【停电原因】由于低压刀闸烧导致１０ＫＶ东北郊变电站５１４线路Ｂ６７６公变台区停电【变更送电】无【发布渠道】通过９５５９８发布","powerOffId":"2019062413000281"},{"poweroffId":2019062413000261,"sgpoweroffId":null,"subsName":"","lineName":"付家营线513","pubTranName":"长果庄农业9台区变压器【纯农排变】,刘振乾养猪厂,韩球(包地),闫九包地,06092|小王果庄农业2号变压器【纯农排变】,06012|小王果庄6台区综合变压器,高阳县升起染厂变压器,06016|长果庄村西2台区综合变压器,长果庄农业5台区变压器【纯农排变】,三利乳业李果庄牧场,长果庄农业7台区变压器【纯农排变】,长果庄农业8台区变压器【纯农排变】,长果庄村综合9台区变压器,鑫金纺织品公司,博士庄综合6台区变压器,06135|长果庄村南东8台区综合变压器,06096|小王果庄农业6号变压器【纯农排变】,王文革农场,06095|小王果庄农业5号变压器【纯农排变】,小王果庄农业12台区变压器【纯农排变】,高峰面粉厂1#,06017|长果庄村西北4台区综合变压器,博士庄农业10台区【纯农排变】,06094|小王果庄农业4号变压器【纯农排变】,06018|长果庄村东南3台区综合变压器,贾建军,06097|小王果庄农业7号变压器【纯农排变】,06065|西留果庄村南3台区综合变压器,06138|博士庄村西农业4台区(1435)变压器【纯农排变】,长果庄农业3台区变压器【纯农排变】,付家营农业5台区变压器【纯农排变】,小王果庄农业11台区变压器【纯农排变】,博士庄村4台区综合变压器,博士庄村3台区综合变压器,长果庄农业12台区变压器【纯农排变】,博庄农业6台区农业变压器【纯农排变】,长果庄农业14台区【纯农排变】,胜利瓦厂(子),06133|长果庄村西北6台区综合,06005|王家河1台区综合变压器,06102|付家营农业变压器【纯农排变】,06139|博庄(南堤）农业1台区(1436)变压器【纯农排变】,小王果庄农业13台区变压器【纯农排变】,长果庄综合10台区变压器,付家营综合3台区变压器,06137|博士庄农业3台区（1434）变压器【纯农排变】,博士庄农业7台区【纯农排变】,06039|付家营村西2台区综合变压器,长果庄农业4台区变压器【纯农排变】,博士庄农业9台区【纯农排变】,长果庄农业6台区变压器【纯农排变】,闫建达拔丝厂,06134|长果庄村南西7台区综合变压器,06140|博士庄村西北农业5台区变压器（1440）【纯农排变】,博士庄水洗厂,高峰面粉厂2#,刘海织布厂,博士庄村5台区综合变压器,昊昌织布厂,博士庄村2台区综合变压器,长果庄农业2台区【纯农排变】,06010|小王果庄4台区综合变压器,06015|长果庄村东1台区综合变压器,中国石油天然气股份有限公司华北油田分公司第一采油厂变压器,06093|小王果庄农业3号变压器【纯农排变】,小王果庄综合12台区,博士庄综合7台区变压器,长果庄农业11台区变压器【纯农排变】,06040|付家营村东北1台区综合变压器,博士庄村1台区综合变压器,06112|西留果庄（小学）4台区综合变压器,长果庄农业13台区变压器【纯农排变】,长果庄农业10台区变压器【纯农排变】,长果庄农业1台区变压器【纯农排变】,06132|长果庄村东北5台区综合变压器,高庄村委会变压器,小王果庄9台区综合变压器,06141|博士庄（西南角）（1454）农业变压器【纯农排变】,双成瓦厂,高贵良拔丝厂,吴","scope":"【影响街道/乡镇】小王果庄乡 【高危重要客户】无 【影响客户】王家河村、小王果庄村南、博士庄村、付家营村、长果庄村、西留果庄村南","startTime":"2019-06-24 13:51:57","stopDate":"2019-06-24 16:30:00","orgNo":"1340613","typeCode":"电网故障停限电","poweroffArea":"【全线路停电】停长果庄村综合9台区变压器,长果庄农业14台区【纯农排变】,三利乳业李果庄牧场,王文革农场,06138|博士庄村西农业4台区(1435)变压器【纯农排变】,中国石油天然气股份有限公司华北油田分公司第一采油厂变压器,06040|付家营村东北1台区综合变压器,高阳县升起染厂变压器,06093|小王果庄农业3号变压器【纯农排变】,06102|付家营农业变压器【纯农排变】,06065|西留果庄村南3台区综合变压器,博士庄村1台区综合变压器,胜利瓦厂(子),长果庄农业4台区变压器【纯农排变】,长果庄农业3台区变压器【纯农排变】,长果庄农业9台区变压器【纯农排变】,06016|长果庄村西2台区综合变压器,06092|小王果庄农业2号变压器【纯农排变】,博士庄村4台区综合变压器,长果庄农业2台区【纯农排变】,06135|长果庄村南东8台区综合变压器,刘海织布厂,博士庄农业10台区【纯农排变】,06095|小王果庄农业5号变压器【纯农排变】,付家营农业4台区变压器【纯农排变】,长果庄农业1台区变压器【纯农排变】,博士庄村5台区综合变压器,06018|长果庄村东南3台区综合变压器,06133|长果庄村西北6台区综合,双成瓦厂,博士庄综合7台区变压器,建达拔丝厂,06132|长果庄村东北5台区综合变压器,06005|王家河1台区综合变压器,胜利瓦厂,长果庄农业11台区变压器【纯农排变】,高峰面粉厂2#,小王果庄农业12台区变压器【纯农排变】,06039|付家营村西2台区综合变压器,高庄村委会变压器,博士庄农业8台区【纯农排变】,06139|博庄(南堤）农业1台区(1436)变压器【纯农排变】,小王果庄综合10台区变压器,博士庄水洗厂,博士庄农业7台区【纯农排变】,鑫金纺织品公司,06112|西留果庄（小学）4台区综合变压器,刘振乾养猪厂,博士庄农业9台区【纯农排变】,博士庄综合6台区变压器,长果庄农业13台区变压器【纯农排变】,小王果庄农业14台区变压器【纯农排变】,韩球(包地),长果庄农业6台区变压器【纯农排变】,贾建军,昊昌织布厂,闫九包地,闫建达拔丝厂,06091|小王果庄农业1号变压器【纯农排变】,06101|付家营村西农业（北）变压器【纯农排变】,长果庄综合10台区变压器,06140|博士庄村西北农业5台区变压器（1440）【纯农排变】,长果庄农业10台区变压器【纯农排变】,长果庄农业7台区变压器【纯农排变】,06010|小王果庄4台区综合变压器,付家营农业5台区变压器【纯农排变】,小王果庄综合12台区,小王果庄农业11台区变压器【纯农排变】,高贵良拔丝厂,博士庄村2台区综合变压器,小王果庄9台区综合变压器,06134|长果庄村南西7台区综合变压器,高峰面粉厂1#,吴朋毛巾厂,付家营综合3台区变压器,博士庄村3台区综合变压器,06017|长果庄村西北4台区综合变压器,06137|博士庄农业3台区（1434）变压器【纯农排变】,06013|小王果庄7台区综合变压器,小王果庄农业13台区变压器【纯农排变】,长果庄农业12台区变压器【纯农排变】,长果庄农业8台区变压器【纯农排变】,06015|长果庄村东1台区综合变压器,博庄农业6台区农业变压器【纯农排变】,长果庄农业5台区变压器【纯农排变】,06141|博士庄（西南角）（1454）农业变压器【纯农排变】,06096|小王果庄农业6号变压器【纯农排变】,06012|小王果庄6台区综合变压器,06094|小王果庄农业4号变压器【纯农排变】,06097|小王果庄农业7号变压器【纯农排变】,06011|小王果庄5台区综合变压器","poweroffReason":"【停电原因】由于汽车撞杆导致３５ＫＶ李果庄变电站付家营５１３线路全线停电【变更送电】因抢修进度加快原因，送电时间由２０：００变更为１６：３０【发布渠道】通过９５５９８发布","powerTime":"2019-06-24 16:04:23","powerComm":"已送电","subsNo":"","lineNo":"","tgNo":"","tgName":null,"infoStatus":"1","orgName":"国网高阳县供电公司","typeName":null,"infoStatusName":null,"dateDay":null,"orgNos":null,"nowTime":null,"countyName":null,"streetName":null,"villageName":null,"roadName":null,"communityName":null,"tranName":null,"sdLineName":null,"cityCode":"1340613","cityName":"国网高阳县供电公司","provinceCode":null,"stopTime":"2019-06-24 16:30:00","powerType":"全部","powerOffArea":"【全线路停电】停长果庄村综合9台区变压器,长果庄农业14台区【纯农排变】,三利乳业李果庄牧场,王文革农场,06138|博士庄村西农业4台区(1435)变压器【纯农排变】,中国石油天然气股份有限公司华北油田分公司第一采油厂变压器,06040|付家营村东北1台区综合变压器,高阳县升起染厂变压器,06093|小王果庄农业3号变压器【纯农排变】,06102|付家营农业变压器【纯农排变】,06065|西留果庄村南3台区综合变压器,博士庄村1台区综合变压器,胜利瓦厂(子),长果庄农业4台区变压器【纯农排变】,长果庄农业3台区变压器【纯农排变】,长果庄农业9台区变压器【纯农排变】,06016|长果庄村西2台区综合变压器,06092|小王果庄农业2号变压器【纯农排变】,博士庄村4台区综合变压器,长果庄农业2台区【纯农排变】,06135|长果庄村南东8台区综合变压器,刘海织布厂,博士庄农业10台区【纯农排变】,06095|小王果庄农业5号变压器【纯农排变】,付家营农业4台区变压器【纯农排变】,长果庄农业1台区变压器【纯农排变】,博士庄村5台区综合变压器,06018|长果庄村东南3台区综合变压器,06133|长果庄村西北6台区综合,双成瓦厂,博士庄综合7台区变压器,建达拔丝厂,06132|长果庄村东北5台区综合变压器,06005|王家河1台区综合变压器,胜利瓦厂,长果庄农业11台区变压器【纯农排变】,高峰面粉厂2#,小王果庄农业12台区变压器【纯农排变】,06039|付家营村西2台区综合变压器,高庄村委会变压器,博士庄农业8台区【纯农排变】,06139|博庄(南堤）农业1台区(1436)变压器【纯农排变】,小王果庄综合10台区变压器,博士庄水洗厂,博士庄农业7台区【纯农排变】,鑫金纺织品公司,06112|西留果庄（小学）4台区综合变压器,刘振乾养猪厂,博士庄农业9台区【纯农排变】,博士庄综合6台区变压器,长果庄农业13台区变压器【纯农排变】,小王果庄农业14台区变压器【纯农排变】,韩球(包地),长果庄农业6台区变压器【纯农排变】,贾建军,昊昌织布厂,闫九包地,闫建达拔丝厂,06091|小王果庄农业1号变压器【纯农排变】,06101|付家营村西农业（北）变压器【纯农排变】,长果庄综合10台区变压器,06140|博士庄村西北农业5台区变压器（1440）【纯农排变】,长果庄农业10台区变压器【纯农排变】,长果庄农业7台区变压器【纯农排变】,06010|小王果庄4台区综合变压器,付家营农业5台区变压器【纯农排变】,小王果庄综合12台区,小王果庄农业11台区变压器【纯农排变】,高贵良拔丝厂,博士庄村2台区综合变压器,小王果庄9台区综合变压器,06134|长果庄村南西7台区综合变压器,高峰面粉厂1#,吴朋毛巾厂,付家营综合3台区变压器,博士庄村3台区综合变压器,06017|长果庄村西北4台区综合变压器,06137|博士庄农业3台区（1434）变压器【纯农排变】,06013|小王果庄7台区综合变压器,小王果庄农业13台区变压器【纯农排变】,长果庄农业12台区变压器【纯农排变】,长果庄农业8台区变压器【纯农排变】,06015|长果庄村东1台区综合变压器,博庄农业6台区农业变压器【纯农排变】,长果庄农业5台区变压器【纯农排变】,06141|博士庄（西南角）（1454）农业变压器【纯农排变】,06096|小王果庄农业6号变压器【纯农排变】,06012|小王果庄6台区综合变压器,06094|小王果庄农业4号变压器【纯农排变】,06097|小王果庄农业7号变压器【纯农排变】,06011|小王果庄5台区综合变压器","powerOffReason":"【停电原因】由于汽车撞杆导致３５ＫＶ李果庄变电站付家营５１３线路全线停电【变更送电】因抢修进度加快原因，送电时间由２０：００变更为１６：３０【发布渠道】通过９５５９８发布","powerOffId":"2019062413000261"},{"poweroffId":2019062413000249,"sgpoweroffId":null,"subsName":"","lineName":"高桥516","pubTranName":"白沟盛景国际,变压器1250,刘立军,魏庄开发区,盛景观澜小区,小营西,保定白沟新城链通拉链制造有限公司变压器,魏庄北,富强路公变,李宝光,安康小区,魏庄小区,保定嘉和顺意商贸有限公司变压器,医院1,魏国旺,高碑店市龙安泰房地产开发有限公司,机站（100）,小营北,小营13号,变压器,魏庄3,小营南2,四季花园,李强,军隆小区,五金灯饰城2,白芙蓉小学,保定白沟新城规划建设局北环路灯,天和复合厂,魏庄地2【纯农排变】,北环路灯,魏庄地【纯农排变】,吴金生,变压器2,小营7号,魏秋生,魏长山,魏庄开发区3号变台,变压器2000,孙景贤,医院2,庞景深,小营11号,魏庄开发区2,小营6号,霓红灯2,自来水公司,小营南,贾坡工地,小营8号,梁雪峰,","scope":"【影响街道/乡镇】白沟镇、五一路、安康路、政府街 【高危重要客户】无 【影响客户】魏庄村、小营村、五金灯饰城、白芙蓉小学、白沟卫生院、天和复合厂、魏秋生、魏庄小区、吴金生、四季花园小区、安康小区、魏国旺、魏长山、大明小区、白沟盛景国际、白沟威马皮具、军隆小区、自来水公司家属楼、白沟天奕商厦、财富国际公馆小区、盛景蓝天小区、盛景观澜小区、保定白沟新城链通拉链制造有限公司、保定嘉和顺意商贸有限公司","startTime":"2019-06-24 13:33:19","stopDate":"2019-06-24 15:00:00","orgNo":"1340612","typeCode":"电网故障停限电","poweroffArea":"【全线路停电】停魏国旺,白沟盛景国际,变压器1250,刘立军,魏庄开发区,盛景观澜小区,小营西,保定白沟新城链通拉链制造有限公司变压器,魏庄北,富强路公变,李宝光,安康小区,魏庄小区,自来水公司,贾坡工地,小营8号,梁雪峰,保定嘉和顺意商贸有限公司变压器,医院1,高碑店市龙安泰房地产开发有限公司,机站（100）,小营北,小营13号,变压器,魏庄3,小营南2,吴金生,变压器2,小营南,小营7号,魏秋生,魏长山,魏庄开发区3号变台,变压器2000,孙景贤,医院2,庞景深,小营11号,魏庄开发区2,小营6号,霓红灯2,四季花园,李强,军隆小区,五金灯饰城2,白芙蓉小学,保定白沟新城规划建设局北环路灯,天和复合厂,魏庄地2【纯农排变】,北环路灯,魏庄地【纯农排变】","poweroffReason":"【停电原因】由于白芙蓉小学变压器烧毁导致１１０ＫＶ白沟变电站１０ＫＶ高桥５１６线路全线停电 【变更送电】因抢修进度加快原因，送电时间由２０：００变更为１５：００ 【发布渠道】通过９５５９８发布","powerTime":"2019-06-24 14:27:16","powerComm":"已送电","subsNo":"","lineNo":"","tgNo":"","tgName":null,"infoStatus":"1","orgName":"国网高碑店市供电公司","typeName":null,"infoStatusName":null,"dateDay":null,"orgNos":null,"nowTime":null,"countyName":null,"streetName":null,"villageName":null,"roadName":null,"communityName":null,"tranName":null,"sdLineName":null,"cityCode":"1340612","cityName":"国网高碑店市供电公司","provinceCode":null,"stopTime":"2019-06-24 15:00:00","powerType":"全部","powerOffArea":"【全线路停电】停魏国旺,白沟盛景国际,变压器1250,刘立军,魏庄开发区,盛景观澜小区,小营西,保定白沟新城链通拉链制造有限公司变压器,魏庄北,富强路公变,李宝光,安康小区,魏庄小区,自来水公司,贾坡工地,小营8号,梁雪峰,保定嘉和顺意商贸有限公司变压器,医院1,高碑店市龙安泰房地产开发有限公司,机站（100）,小营北,小营13号,变压器,魏庄3,小营南2,吴金生,变压器2,小营南,小营7号,魏秋生,魏长山,魏庄开发区3号变台,变压器2000,孙景贤,医院2,庞景深,小营11号,魏庄开发区2,小营6号,霓红灯2,四季花园,李强,军隆小区,五金灯饰城2,白芙蓉小学,保定白沟新城规划建设局北环路灯,天和复合厂,魏庄地2【纯农排变】,北环路灯,魏庄地【纯农排变】","powerOffReason":"【停电原因】由于白芙蓉小学变压器烧毁导致１１０ＫＶ白沟变电站１０ＫＶ高桥５１６线路全线停电 【变更送电】因抢修进度加快原因，送电时间由２０：００变更为１５：００ 【发布渠道】通过９５５９８发布","powerOffId":"2019062413000249"},{"poweroffId":2019062413000247,"sgpoweroffId":null,"subsName":"","lineName":"泰元街线515","pubTranName":"畜牧局直供,","scope":"【影响街道/乡镇】易州镇【高危重要客户】无【影响客户】畜牧局","startTime":"2019-06-24 13:32:13","stopDate":"2019-06-24 16:00:00","orgNo":"1340625","typeCode":"电网故障停限电","poweroffArea":"【单台区停电】停畜牧局直供","poweroffReason":"【停电原因】由于速断跳闸导致１１０ＫＶ易县变电站泰元街５１５线路畜牧局直供公变台区停电【变更送电】无【发布渠道】通过９５５９８","powerTime":"2019-06-24 15:38:06","powerComm":"已送电","subsNo":"","lineNo":"","tgNo":"","tgName":null,"infoStatus":"1","orgName":"国网易县供电公司","typeName":null,"infoStatusName":null,"dateDay":null,"orgNos":null,"nowTime":null,"countyName":null,"streetName":null,"villageName":null,"roadName":null,"communityName":null,"tranName":null,"sdLineName":null,"cityCode":"1340625","cityName":"国网易县供电公司","provinceCode":null,"stopTime":"2019-06-24 16:00:00","powerType":"全部","powerOffArea":"【单台区停电】停畜牧局直供","powerOffReason":"【停电原因】由于速断跳闸导致１１０ＫＶ易县变电站泰元街５１５线路畜牧局直供公变台区停电【变更送电】无【发布渠道】通过９５５９８","powerOffId":"2019062413000247"},{"poweroffId":2019062413000224,"sgpoweroffId":null,"subsName":"","lineName":"向阳中路线514","pubTranName":"文化管公用0069,礼堂公用0051,隆福商厦3255,商贸公用2079,工商行公用0084,商业局公用2270,中国农业银行股份有限公司唐县10KV新装配变,县政府2号,教育局公用6651台区变压器,招待所0078,县政府0028,金马万象天成,铁路家属0049,广场公用0926,工行公用2#3283,唐县宾馆,天津肯德基有限公司10KV配变,县委家属西2029,书店公用6692变压器,政府公用0053出线间隔配电变压器,县委家属东2028,漫水桥东2281,电影院0054,","scope":"【影响街道/乡镇】仁厚镇、光明路、向阳街、唐尧路【高危重要客户】无【影响客户】仁厚镇村、城内村、东关村、五金公司家属院、广场小区、电影院家属院、百盛购物中心、烟草公司、幸福树家电、菜市场、金马商厦、工商所、商贸宾馆、大世界商城、春晖楼、商业局家属院、新华商场、铁路家属院、荣耀家电、教育局、富兴小区、工会、建设银行、搬运社家属院、唐县红桥商贸有限公司、唐县人民政府、政府办公楼、天津肯德基有限公司保定唐县餐厅、唐县隆福商贸有限公司、金马万象天成、唐县物价局、烟草公司、中国农业银行股份有限公司唐县支行","startTime":"2019-06-24 13:07:46","stopDate":"2019-06-24 15:00:00","orgNo":"1340622","typeCode":"电网故障停限电","poweroffArea":"【全线路停电】停文化管公用0069,政府公用0053出线间隔配电变压器,教育局公用6651台区变压器,商业局公用2270,中国农业银行股份有限公司唐县10KV新装配变,商贸公用2079,隆福商厦3255,天津肯德基有限公司10KV配变,唐县宾馆,工行公用2#3283,书店公用6692变压器,漫水桥东2281,县政府0028,县政府2号,铁路家属0049,礼堂公用0051,工商行公用0084,金马万象天成,县委家属东2028,电影院0054,广场公用0926,县委家属西2029,招待所0078","poweroffReason":"【停电原因】由于线路接地导致３５ＫＶ城关变电站向阳中路线５１４线路全线停电【变更送电】因抢修进度加快原因，送电时间由２１：００变更为１５：００【发布渠道】通过９５５９８发布","powerTime":"2019-06-24 14:24:10","powerComm":"已送电","subsNo":"","lineNo":"","tgNo":"","tgName":null,"infoStatus":"1","orgName":"国网唐县供电公司","typeName":null,"infoStatusName":null,"dateDay":null,"orgNos":null,"nowTime":null,"countyName":null,"streetName":null,"villageName":null,"roadName":null,"communityName":null,"tranName":null,"sdLineName":null,"cityCode":"1340622","cityName":"国网唐县供电公司","provinceCode":null,"stopTime":"2019-06-24 15:00:00","powerType":"全部","powerOffArea":"【全线路停电】停文化管公用0069,政府公用0053出线间隔配电变压器,教育局公用6651台区变压器,商业局公用2270,中国农业银行股份有限公司唐县10KV新装配变,商贸公用2079,隆福商厦3255,天津肯德基有限公司10KV配变,唐县宾馆,工行公用2#3283,书店公用6692变压器,漫水桥东2281,县政府0028,县政府2号,铁路家属0049,礼堂公用0051,工商行公用0084,金马万象天成,县委家属东2028,电影院0054,广场公用0926,县委家属西2029,招待所0078","powerOffReason":"【停电原因】由于线路接地导致３５ＫＶ城关变电站向阳中路线５１４线路全线停电【变更送电】因抢修进度加快原因，送电时间由２１：００变更为１５：００【发布渠道】通过９５５９８发布","powerOffId":"2019062413000224"},{"poweroffId":2019062413000222,"sgpoweroffId":null,"subsName":"","lineName":"淑吕线516","pubTranName":"东高昌水4458变压器,庄头水4674变压器,马兴庄4629台区变压器,高昌店4035变压器,0692192074-唐县中宝新能源开发有限公司-专变-234172059-唐县国润发投热力有限公司新装6639,高昌屯833变压器,淑吕878变压器,淑吕水5063变压器,马兴庄水4702变压器【纯农排变】,迎宾大街公用6186出线间隔配电变压器,河北省公安厅高速公路交通警察总队5299,庄头水6125变压器【纯农排变】,淑吕村1695变压器,贾庄2824变压器,高昌屯0832变压器,正达煤厂1852,贾庄4703变压器【纯农排变】,庄头村4045变压器,淑吕4620变压器,高昌屯4640变压器【纯农排变】,马兴庄4729变压器【纯农排变】,东高昌南水0858变压器【纯农排变】,东高昌立功水1842变压器,南高昌水882变压器,康定花园B座4113箱变出线间隔配电变压器,南高昌836变压器,南高昌3430变压器,马兴庄847变压器【纯农排变】,东城国家5276箱变出线间隔配电变压器,庆运水883变压器【纯农排变】,建民水845变压器【纯农排变】,马兴庄4749变压器【纯农排变】,东环公用4720箱变出线间隔配电变压器,贾庄水4441变压器,贾庄水4516变压器【纯农排变】,唐县顺达煤厂,东环公用4759箱变出线间隔配电变压器,庄头水1673变压器,南高昌水5024变压器【纯农排变】,南高昌5023变压器【纯农排变】,贾庄水4707变压器,贾庄4517变压器,迎宾大街公用6185出线间隔配电变压器,庄头村823变压器,东高昌3345变压器【纯农排变】,高昌屯3016变压器,东高昌水利10KV配变工程6新建,南高昌水2352变压器【纯农排变】,贾庄837变压器,贾庄水4226变压器,城建路灯,东城国际5273箱变出线间隔配电变压器,高昌屯834变压器【纯农排变】,东环公用4012变压器,东城国际5275箱变出线间隔配电变压器,淑吕873变压器,唐县高昌水泥制品厂配变,庄头水4690变压器【纯农排变】,高昌屯4073变压器,迎宾大街公用6188出线间隔配电变压器,淑吕村5089变压器,高昌屯水5028变压器,庄头5080变压器,贾庄水2232变压器【纯农排变】,庄头水4581变压器【纯农排变】,张建国配变,马兴庄4645变压器,庄头水6128变压器,唐县鑫建建筑机械设备租赁有限公司,部队843变压器,庄头村486变压器,高昌屯2812变压器,淑吕2111变压器,0387519980-河北交通投资集团张石高速公路保定段有限公司-专变-45337369-保定市张石高速公路唐县北收费站,迎宾大街公用6189出线间隔配电变压器,淑吕冰棍房0885,贾庄水4601变压器【纯农排变】,东高昌水利10KV配变,高昌屯5027变压器【纯农排变】,东城国际5272箱变出线间隔配电变压器,淑吕874变压器,东高昌村东南4832变压器【纯农排变】,唐县英刚畜禽养殖服务农民专业合作社,贾庄487变压器,马兴庄827变压器,马兴庄848变压器,东环公用4013变压器,迎宾大街公用6187出线间隔配电变压器,","scope":"【影响街道/乡镇】仁厚镇、高昌镇、国防东路【高危重要客户】无【影响客户】南庄子村、东高昌村、高昌店村、高昌屯村、贾庄村、马兴庄村、南高昌村、淑吕村、庄头村、康定花园B区、东城国际小区","startTime":"2019-06-24 13:03:11","stopDate":"2019-06-24 15:00:00","orgNo":"1340622","typeCode":"电网故障停限电","poweroffArea":"【全线路停电】停马兴庄4749变压器【纯农排变】,高昌屯4640变压器【纯农排变】,唐县顺达煤厂,东高昌3345变压器【纯农排变】,城建路灯,马兴庄4645变压器,东环公用4013变压器,庄头村486变压器,淑吕水5063变压器,迎宾大街公用6185出线间隔配电变压器,建民水845变压器【纯农排变】,南高昌5023变压器【纯农排变】,庄头水6125变压器【纯农排变】,东城国家5276箱变出线间隔配电变压器,0387519980-河北交通投资集团张石高速公路保定段有限公司-专变-45337369-保定市张石高速公路唐县北收费站,东高昌水4458变压器,高昌屯水5028变压器,贾庄4703变压器【纯农排变】,正达煤厂1852,高昌屯5027变压器【纯农排变】,马兴庄848变压器,东高昌立功水1842变压器,贾庄4517变压器,东高昌南水0858变压器【纯农排变】,高昌屯3016变压器,高昌屯2812变压器,东城国际5272箱变出线间隔配电变压器,康定花园B座4113箱变出线间隔配电变压器,淑吕村1695变压器,东城国际5275箱变出线间隔配电变压器,贾庄水4601变压器【纯农排变】,高昌屯0832变压器,高昌店4035变压器,庄头村4045变压器,庄头5080变压器,贾庄水4441变压器,唐县鑫建建筑机械设备租赁有限公司,贾庄487变压器,庄头水4690变压器【纯农排变】,河北省公安厅高速公路交通警察总队5299,庄头水1673变压器,东高昌水利10KV配变,张建国配变,迎宾大街公用6188出线间隔配电变压器,0692192074-唐县中宝新能源开发有限公司-专变-234172059-唐县国润发投热力有限公司新装6639,庄头水4674变压器,迎宾大街公用6187出线间隔配电变压器,南高昌3430变压器,贾庄水4707变压器,东城国际5273箱变出线间隔配电变压器,马兴庄4629台区变压器,淑吕874变压器,迎宾大街公用6189出线间隔配电变压器,淑吕4620变压器,庄头水6128变压器,贾庄水2232变压器【纯农排变】,淑吕村5089变压器,部队843变压器,淑吕873变压器,东环公用4759箱变出线间隔配电变压器,淑吕2111变压器,唐县高昌水泥制品厂配变,贾庄水4516变压器【纯农排变】,高昌屯833变压器,马兴庄847变压器【纯农排变】,马兴庄4729变压器【纯农排变】,东环公用4012变压器,东环公用4720箱变出线间隔配电变压器,马兴庄827变压器,高昌屯4073变压器,迎宾大街公用6186出线间隔配电变压器,淑吕冰棍房0885,淑吕878变压器,庄头村823变压器,东高昌水利10KV配变工程6新建,马兴庄水4702变压器【纯农排变】,南高昌水2352变压器【纯农排变】,贾庄837变压器,南高昌水5024变压器【纯农排变】,高昌屯834变压器【纯农排变】,庄头水4581变压器【纯农排变】,庆运水883变压器【纯农排变】,东高昌村东南4832变压器【纯农排变】,贾庄2824变压器,南高昌836变压器,唐县英刚畜禽养殖服务农民专业合作社,贾庄水4226变压器,南高昌水882变压器","poweroffReason":"【停电原因】由于线路接地导致３５ＫＶ城关变电站淑吕线５１６线路全线停电【变更送电】因抢修进度加快原因，送电时间由２３：００变更为１５：００【发布渠道】通过９５５９８发布","powerTime":"2019-06-24 14:29:06","powerComm":"已送电","subsNo":"","lineNo":"","tgNo":"","tgName":null,"infoStatus":"1","orgName":"国网唐县供电公司","typeName":null,"infoStatusName":null,"dateDay":null,"orgNos":null,"nowTime":null,"countyName":null,"streetName":null,"villageName":null,"roadName":null,"communityName":null,"tranName":null,"sdLineName":null,"cityCode":"1340622","cityName":"国网唐县供电公司","provinceCode":null,"stopTime":"2019-06-24 15:00:00","powerType":"全部","powerOffArea":"【全线路停电】停马兴庄4749变压器【纯农排变】,高昌屯4640变压器【纯农排变】,唐县顺达煤厂,东高昌3345变压器【纯农排变】,城建路灯,马兴庄4645变压器,东环公用4013变压器,庄头村486变压器,淑吕水5063变压器,迎宾大街公用6185出线间隔配电变压器,建民水845变压器【纯农排变】,南高昌5023变压器【纯农排变】,庄头水6125变压器【纯农排变】,东城国家5276箱变出线间隔配电变压器,0387519980-河北交通投资集团张石高速公路保定段有限公司-专变-45337369-保定市张石高速公路唐县北收费站,东高昌水4458变压器,高昌屯水5028变压器,贾庄4703变压器【纯农排变】,正达煤厂1852,高昌屯5027变压器【纯农排变】,马兴庄848变压器,东高昌立功水1842变压器,贾庄4517变压器,东高昌南水0858变压器【纯农排变】,高昌屯3016变压器,高昌屯2812变压器,东城国际5272箱变出线间隔配电变压器,康定花园B座4113箱变出线间隔配电变压器,淑吕村1695变压器,东城国际5275箱变出线间隔配电变压器,贾庄水4601变压器【纯农排变】,高昌屯0832变压器,高昌店4035变压器,庄头村4045变压器,庄头5080变压器,贾庄水4441变压器,唐县鑫建建筑机械设备租赁有限公司,贾庄487变压器,庄头水4690变压器【纯农排变】,河北省公安厅高速公路交通警察总队5299,庄头水1673变压器,东高昌水利10KV配变,张建国配变,迎宾大街公用6188出线间隔配电变压器,0692192074-唐县中宝新能源开发有限公司-专变-234172059-唐县国润发投热力有限公司新装6639,庄头水4674变压器,迎宾大街公用6187出线间隔配电变压器,南高昌3430变压器,贾庄水4707变压器,东城国际5273箱变出线间隔配电变压器,马兴庄4629台区变压器,淑吕874变压器,迎宾大街公用6189出线间隔配电变压器,淑吕4620变压器,庄头水6128变压器,贾庄水2232变压器【纯农排变】,淑吕村5089变压器,部队843变压器,淑吕873变压器,东环公用4759箱变出线间隔配电变压器,淑吕2111变压器,唐县高昌水泥制品厂配变,贾庄水4516变压器【纯农排变】,高昌屯833变压器,马兴庄847变压器【纯农排变】,马兴庄4729变压器【纯农排变】,东环公用4012变压器,东环公用4720箱变出线间隔配电变压器,马兴庄827变压器,高昌屯4073变压器,迎宾大街公用6186出线间隔配电变压器,淑吕冰棍房0885,淑吕878变压器,庄头村823变压器,东高昌水利10KV配变工程6新建,马兴庄水4702变压器【纯农排变】,南高昌水2352变压器【纯农排变】,贾庄837变压器,南高昌水5024变压器【纯农排变】,高昌屯834变压器【纯农排变】,庄头水4581变压器【纯农排变】,庆运水883变压器【纯农排变】,东高昌村东南4832变压器【纯农排变】,贾庄2824变压器,南高昌836变压器,唐县英刚畜禽养殖服务农民专业合作社,贾庄水4226变压器,南高昌水882变压器","powerOffReason":"【停电原因】由于线路接地导致３５ＫＶ城关变电站淑吕线５１６线路全线停电【变更送电】因抢修进度加快原因，送电时间由２３：００变更为１５：００【发布渠道】通过９５５９８发布","powerOffId":"2019062413000222"},{"poweroffId":2019062413000218,"sgpoweroffId":null,"subsName":"","lineName":"东环北路线515","pubTranName":"唐县信誉楼百货有限公司增容6627,南庄子村南4789,唐县住房和城乡建设局,康定花园3146,工商行家属院1119,计量局公用0154变压器,紫苑小区北2410,唐县国润发投热力有限公司新装6641,南庄子西2#变压器,0387516268-城建路灯-专变-45334734-城建路灯B2051,东环北段1号2285,阳光蓝座4342出线间隔配电变压器,天城风景5257出线间隔配电变压器,电力局北院0148变压器,华康医院新装7131,天润世家4498出线间隔配电变压器,南庄子箱变6114出线间隔配电变压器,中国石油加油站1833,唐县隆昌假日酒店新装4696,联社家属2206,外繁站变压器,信用社0152,唐县兴业房地产有限公司,河北创源房地产开发有限公司10KV配变,唐县亿鑫房地产开发有限公司配变,河北博康娱乐服务有限公司计量点6680,唐县国润发投热力有限公司新装6640,国税局家属2404,北庄子村东0087,东环北段2号4898,河北天戈房地产开发有限公司400KVA,康定医院0151,城建路灯C2052,阳光蓝座4517出线间隔配电变压器,唐县供电有限责任公司营销楼,紫苑小区南2406,检察院公用力2127,河北沃隆房地产开发有限公司新装6713,金盛花园,北环公用4510,唐县信誉楼百货有限公司增容7151,康定医院,国税局公用0153,康定花园3147,交通局家属0155,水库家属2403,北京鸿祥兴泰房地产开发有限公司#4876,天润世家4862出线间隔配电变压器,县职幼儿园出线间隔配电变压器,南庄子村西0018变压器,河北宝卓房地产开发有限公司5293,检察院家属院,天润世家4128出线间隔配电变压器,城建局0162,河北沃隆房地产开发有限公司新装6720,北京鸿祥兴泰房地产开发有限公司#4874,南庄子村东0134箱变出线间隔配电变压器,配变,唐县隆昌假日酒店新装4798,","scope":"【影响街道/乡镇】仁厚镇、中山北大街、国防东路、光明路【高危重要客户】无【影响客户】南庄子村、北庄子村、电力局家属北院、景祥饭店、卓越东宫酒店、国税局家属院、工商行家属院、国税局、明仁医院、质量技术监督局、交通局家属院、联社家属院、康定花园A区、365驿家、水库家属院、东方家园、天润世家、紫苑小区、县直第一幼儿园、外繁站家属院、外繁站、检察院家属院、阳光蓝座、电力局营销楼、唐县亿鑫房地产开发有限公司、唐县兴业房地产开发有限公司康定医院、唐县农村信用合作联社仁厚镇信用社、唐县住房和城乡建设局、唐县国土资源局、唐县人民检察院、尚客优快捷酒店、河北沃隆房地产开发有限公司、河北宝卓房地产开发有限公司、中国石油天然气股份有限公司、河北保定销售分公司第九十五加油站、中国人寿","startTime":"2019-06-24 13:00:54","stopDate":"2019-06-24 15:00:00","orgNo":"1340622","typeCode":"电网故障停限电","poweroffArea":"【全线路停电】停河北博康娱乐服务有限公司计量点6680,天润世家4128出线间隔配电变压器,东环北段2号4898,唐县隆昌假日酒店新装4798,县职幼儿园出线间隔配电变压器,城建局0162,河北沃隆房地产开发有限公司新装6713,唐县兴业房地产有限公司,河北沃隆房地产开发有限公司新装6720,北庄子村东0087,金盛花园,河北创源房地产开发有限公司10KV配变,联社家属2206,唐县亿鑫房地产开发有限公司配变,北环公用4510,唐县信誉楼百货有限公司增容6627,南庄子村西0018变压器,唐县国润发投热力有限公司新装6640,南庄子村南4789,河北天戈房地产开发有限公司400KVA,唐县信誉楼百货有限公司增容7151,唐县住房和城乡建设局,东环北段1号2285,康定医院0151,康定医院,阳光蓝座4342出线间隔配电变压器,国税局公用0153,康定花园3146,天城风景5257出线间隔配电变压器,天润世家4498出线间隔配电变压器,工商行家属院1119,康定花园3147,南庄子箱变6114出线间隔配电变压器,电力局北院0148变压器,交通局家属0155,紫苑小区南2406,华康医院新装7131,城建路灯C2052,水库家属2403,检察院公用力2127,中国石油加油站1833,0387516268-城建路灯-专变-45334734-城建路灯B2051,北京鸿祥兴泰房地产开发有限公司#4876,唐县供电有限责任公司营销楼,唐县隆昌假日酒店新装4696,南庄子西2#变压器,天润世家4862出线间隔配电变压器,阳光蓝座4517出线间隔配电变压器,外繁站变压器,紫苑小区北2410,北京鸿祥兴泰房地产开发有限公司#4874,河北宝卓房地产开发有限公司5293,信用社0152,唐县国润发投热力有限公司新装6641,南庄子村东0134箱变出线间隔配电变压器,检察院家属院,国税局家属2404,计量局公用0154变压器,配变","poweroffReason":"【停电原因】由于线路接地导致３５ＫＶ城关变电站东环北路线５１５线路全线停电【变更送电】因抢修进度加快原因，送电时间由２２：００变更为１５：００【发布渠道】通过９５５９８发布","powerTime":"2019-06-24 14:26:10","powerComm":"已送电","subsNo":"","lineNo":"","tgNo":"","tgName":null,"infoStatus":"1","orgName":"国网唐县供电公司","typeName":null,"infoStatusName":null,"dateDay":null,"orgNos":null,"nowTime":null,"countyName":null,"streetName":null,"villageName":null,"roadName":null,"communityName":null,"tranName":null,"sdLineName":null,"cityCode":"1340622","cityName":"国网唐县供电公司","provinceCode":null,"stopTime":"2019-06-24 15:00:00","powerType":"全部","powerOffArea":"【全线路停电】停河北博康娱乐服务有限公司计量点6680,天润世家4128出线间隔配电变压器,东环北段2号4898,唐县隆昌假日酒店新装4798,县职幼儿园出线间隔配电变压器,城建局0162,河北沃隆房地产开发有限公司新装6713,唐县兴业房地产有限公司,河北沃隆房地产开发有限公司新装6720,北庄子村东0087,金盛花园,河北创源房地产开发有限公司10KV配变,联社家属2206,唐县亿鑫房地产开发有限公司配变,北环公用4510,唐县信誉楼百货有限公司增容6627,南庄子村西0018变压器,唐县国润发投热力有限公司新装6640,南庄子村南4789,河北天戈房地产开发有限公司400KVA,唐县信誉楼百货有限公司增容7151,唐县住房和城乡建设局,东环北段1号2285,康定医院0151,康定医院,阳光蓝座4342出线间隔配电变压器,国税局公用0153,康定花园3146,天城风景5257出线间隔配电变压器,天润世家4498出线间隔配电变压器,工商行家属院1119,康定花园3147,南庄子箱变6114出线间隔配电变压器,电力局北院0148变压器,交通局家属0155,紫苑小区南2406,华康医院新装7131,城建路灯C2052,水库家属2403,检察院公用力2127,中国石油加油站1833,0387516268-城建路灯-专变-45334734-城建路灯B2051,北京鸿祥兴泰房地产开发有限公司#4876,唐县供电有限责任公司营销楼,唐县隆昌假日酒店新装4696,南庄子西2#变压器,天润世家4862出线间隔配电变压器,阳光蓝座4517出线间隔配电变压器,外繁站变压器,紫苑小区北2410,北京鸿祥兴泰房地产开发有限公司#4874,河北宝卓房地产开发有限公司5293,信用社0152,唐县国润发投热力有限公司新装6641,南庄子村东0134箱变出线间隔配电变压器,检察院家属院,国税局家属2404,计量局公用0154变压器,配变","powerOffReason":"【停电原因】由于线路接地导致３５ＫＶ城关变电站东环北路线５１５线路全线停电【变更送电】因抢修进度加快原因，送电时间由２２：００变更为１５：００【发布渠道】通过９５５９８发布","powerOffId":"2019062413000218"},{"poweroffId":2019062413000211,"sgpoweroffId":null,"subsName":"","lineName":"向阳北路线512","pubTranName":"计生办公用0117变压器,鑫铎花园3372变压器,唐县人民医院315kVA,尧天房地产2#配变,阳光花园2252变压器,中山新村2号2276变压器,孟唐花园2#变压器,中山新村1号2275变压器,隆昌0192,尧山小区4958变压器,金盛花园,旧检察院公用2436变压器,副食公用0116变压器,县北村内4463变压器,北庄子村内0121变压器,鑫铎花园2#变压器,隆泰花园3380变压器,南庄子村西0018变压器,县医院315kVA,纺纱厂0009,阳光花园3412变压器,国防路公用2277变压器,唐县仁济医院4839,看守所0005,南庄子西2#变压器,部队0082,尧天房地产3#配变,第三幼儿园6626变压器,河北建设集团有限公司混凝土分公司3007,旧联社公用1300变压器,桥北公用变压器,第三小学6625变压器,城北河2278变压器,隆泰家园2832变压器,县北公用2267变压器,执法局公用6629变压器,0669389616-河北建设集团有限公司唐县混凝土分公司-专变-210326826-河北建设集团有限公司唐县混凝土分公司,孟唐花园2020变压器,北庄子路口2129变压器,电力局公用0621变压器,唐县城北水泥制品加工厂,唐县天宝房地产开发有限公司新装配变,镇修公用0107变压器,北庄子村东4771变压器,实验公用1418变压器,粮油家属0019变压器,田银虎变压器,保险公用2427变压器,中国网通唐县分公司2434,","scope":"【影响街道/乡镇】仁厚镇、国防路、向阳街【高危重要客户】无【影响客户】仁厚镇村、南庄子村、北庄子村、山南庄村、县北村、土产小区、新华超市、电力局西院、计生站、林业局、粮局二库、粮油家属、城管大队、福祥园小区、实验中学、隆泰佳苑、孟唐花园、理想中学、鑫铎花园、阳光花园、高速交警、城关派出所、中山新村、北城枫景、化肥厂家属院、部队家属院、农排公司、副食家属楼、恒基花园、联通公司、旅游局、县直第一幼儿园、县直第二幼儿园、第二幼儿园、尧山小区、同泽园、唐县仁济医院、河北保厦房地产开发有限公司、河北尧天房地产开发有限公司、看守所、部队、中国移动通信集团河北有限公司唐县分公司、唐县隆昌大酒店有限公司、纺纱厂、水电站、河北建设集团有限公司混凝土分公司、金盛花园、唐县天宝房地产开发有限公司","startTime":"2019-06-24 12:56:38","stopDate":"2019-06-24 15:00:00","orgNo":"1340622","typeCode":"电网故障停限电","poweroffArea":"【全线路停电】停北庄子村内0121变压器,南庄子西2#变压器,县北公用2267变压器,看守所0005,计生办公用0117变压器,田银虎变压器,旧检察院公用2436变压器,第三小学6625变压器,隆泰家园2832变压器,县北村内4463变压器,唐县仁济医院4839,桥北公用变压器,隆昌0192,孟唐花园2#变压器,实验公用1418变压器,中山新村1号2275变压器,南庄子村西0018变压器,尧山小区4958变压器,隆泰花园3380变压器,中山新村2号2276变压器,执法局公用6629变压器,中国网通唐县分公司2434,旧联社公用1300变压器,唐县人民医院315kVA,鑫铎花园2#变压器,唐县天宝房地产开发有限公司新装配变,副食公用0116变压器,城北河2278变压器,鑫铎花园3372变压器,北庄子村东4771变压器,国防路公用2277变压器,河北建设集团有限公司混凝土分公司3007,第三幼儿园6626变压器,纺纱厂0009,阳光花园2252变压器,保险公用2427变压器,唐县城北水泥制品加工厂,尧天房地产2#配变,粮油家属0019变压器,电力局公用0621变压器,尧天房地产3#配变,北庄子路口2129变压器,0669389616-河北建设集团有限公司唐县混凝土分公司-专变-210326826-河北建设集团有限公司唐县混凝土分公司,阳光花园3412变压器,镇修公用0107变压器,县医院315kVA,孟唐花园2020变压器,部队0082,金盛花园","poweroffReason":"【停电原因】由于线路接地导致３５ＫＶ城关变电站向阳北路线５１２线路全线停电【变更送电】因抢修进度加快原因，送电时间由２２：００变更为１５：００【发布渠道】通过９５５９８发布","powerTime":"2019-06-24 14:59:59","powerComm":"已送电","subsNo":"","lineNo":"","tgNo":"","tgName":null,"infoStatus":"1","orgName":"国网唐县供电公司","typeName":null,"infoStatusName":null,"dateDay":null,"orgNos":null,"nowTime":null,"countyName":null,"streetName":null,"villageName":null,"roadName":null,"communityName":null,"tranName":null,"sdLineName":null,"cityCode":"1340622","cityName":"国网唐县供电公司","provinceCode":null,"stopTime":"2019-06-24 15:00:00","powerType":"全部","powerOffArea":"【全线路停电】停北庄子村内0121变压器,南庄子西2#变压器,县北公用2267变压器,看守所0005,计生办公用0117变压器,田银虎变压器,旧检察院公用2436变压器,第三小学6625变压器,隆泰家园2832变压器,县北村内4463变压器,唐县仁济医院4839,桥北公用变压器,隆昌0192,孟唐花园2#变压器,实验公用1418变压器,中山新村1号2275变压器,南庄子村西0018变压器,尧山小区4958变压器,隆泰花园3380变压器,中山新村2号2276变压器,执法局公用6629变压器,中国网通唐县分公司2434,旧联社公用1300变压器,唐县人民医院315kVA,鑫铎花园2#变压器,唐县天宝房地产开发有限公司新装配变,副食公用0116变压器,城北河2278变压器,鑫铎花园3372变压器,北庄子村东4771变压器,国防路公用2277变压器,河北建设集团有限公司混凝土分公司3007,第三幼儿园6626变压器,纺纱厂0009,阳光花园2252变压器,保险公用2427变压器,唐县城北水泥制品加工厂,尧天房地产2#配变,粮油家属0019变压器,电力局公用0621变压器,尧天房地产3#配变,北庄子路口2129变压器,0669389616-河北建设集团有限公司唐县混凝土分公司-专变-210326826-河北建设集团有限公司唐县混凝土分公司,阳光花园3412变压器,镇修公用0107变压器,县医院315kVA,孟唐花园2020变压器,部队0082,金盛花园","powerOffReason":"【停电原因】由于线路接地导致３５ＫＶ城关变电站向阳北路线５１２线路全线停电【变更送电】因抢修进度加快原因，送电时间由２２：００变更为１５：００【发布渠道】通过９５５９８发布","powerOffId":"2019062413000211"}],"pageModel":{"pageNow":908,"totalCount":10973,"totalPage":1098,"tableRows":0,"pageCount":10,"beginCount":9070},"isExperi":"1"}