{"message":"","today":"2020-06-15","seleList":[{"poweroffId":2020051313000320,"sgpoweroffId":null,"subsName":"","lineName":"10kV511潘营线","pubTranName":"王辛庄综合13台区【冬季供暖设施】,王辛庄综合4台区,王辛庄综合9台区,王辛庄综合7台区,王辛庄综合14台区,林堡综合21台区,王辛庄综合12台区.,王辛庄综合2台区,王辛庄综合5台区,王辛庄综合10台区,王辛庄综合6台区,王辛庄综合3台区,王辛庄综合11台区,客户投资_王辛庄综合3台区,王辛庄综合1台区,王辛庄综合8台区,","scope":"【影响街道/乡镇】林堡乡【高危重要客户】无【影响客户】王辛庄村","startTime":"2020-05-13 18:09:45","stopDate":"2020-05-13 20:00:00","orgNo":"1340616","typeCode":"电网故障停限电","poweroffArea":"【全线路停电】停３５ＫＶ林堡变电站１０ＫＶ潘营５１１线路全线，蛮营道,王辛庄综合8台区,王辛庄综合12台区.,王辛庄综合7台区,面粉厂,志敏房东,王辛庄综合2台区,板厂,渡槽西,潘西砖厂,王辛庄综合9台区,渡槽,王辛庄综合3台区,王辛庄综合1台区,林曲路南新变,（2）6台区西营道,中国联合网络通信有限公司蠡县分公司变压器,蛮营道东,王辛庄综合6台区,沟南,王辛庄综合5台区,加弹厂北,砖厂北,王辛庄村东,志敏房,王辛庄小学西,王辛庄综合10台区,王辛庄综合4台区,加弹厂浇地,林曲南1号,林曲北1号,王辛庄综合11台区,林曲北2号,朱坟,客户投资_王辛庄综合3台区,王辛庄综合13台区【冬季供暖设施】,王辛庄综合14台区,林堡综合21台区","poweroffReason":"【停电原因】由于３５ＫＶ刘林３１４线Ａ相接地到零导致３５ＫＶ林堡变电站１０ＫＶ潘营５１１线路全线停电【变更送电】因抢修进度加快原因，送电时间由２３：５９变更为２０：００【发布渠道】通过９５５９８发布","powerTime":"2020-05-13 19:14:27","powerComm":"已送电","subsNo":"","lineNo":"","tgNo":"","tgName":null,"infoStatus":"1","orgName":"国网蠡县供电公司","typeName":null,"infoStatusName":null,"dateDay":null,"orgNos":null,"nowTime":null,"countyName":null,"streetName":null,"villageName":null,"roadName":null,"communityName":null,"tranName":null,"sdLineName":null,"cityCode":"1340616","cityName":"国网蠡县供电公司","provinceCode":null,"stopTime":"2020-05-13 20:00:00","powerType":"全部","powerOffArea":"【全线路停电】停３５ＫＶ林堡变电站１０ＫＶ潘营５１１线路全线，蛮营道,王辛庄综合8台区,王辛庄综合12台区.,王辛庄综合7台区,面粉厂,志敏房东,王辛庄综合2台区,板厂,渡槽西,潘西砖厂,王辛庄综合9台区,渡槽,王辛庄综合3台区,王辛庄综合1台区,林曲路南新变,（2）6台区西营道,中国联合网络通信有限公司蠡县分公司变压器,蛮营道东,王辛庄综合6台区,沟南,王辛庄综合5台区,加弹厂北,砖厂北,王辛庄村东,志敏房,王辛庄小学西,王辛庄综合10台区,王辛庄综合4台区,加弹厂浇地,林曲南1号,林曲北1号,王辛庄综合11台区,林曲北2号,朱坟,客户投资_王辛庄综合3台区,王辛庄综合13台区【冬季供暖设施】,王辛庄综合14台区,林堡综合21台区","powerOffReason":"【停电原因】由于３５ＫＶ刘林３１４线Ａ相接地到零导致３５ＫＶ林堡变电站１０ＫＶ潘营５１１线路全线停电【变更送电】因抢修进度加快原因，送电时间由２３：５９变更为２０：００【发布渠道】通过９５５９８发布","powerOffId":"2020051313000320"},{"poweroffId":2020051313000299,"sgpoweroffId":null,"subsName":"","lineName":"北山南线518","pubTranName":"桥头乡政府,麻屋庄村西,易县益安新型建材制造有限公司A,章村2#,北山南2#,易县益安新型建材制造有限公司C,康隆新型建材有限公司250,北山南村1#,易县益安新型建材制造有限公司B,北山南村6#,易县龙腾运销有限公司变压器1,宋村2#【纯农排变】,易县气象局100KVA,0606269681-易县石兴钙粉厂-专变-127271039-易县石兴钙粉厂变压器,南山南村王红娟,五里河村4#,易县雪花矿岩制粉厂250,良村8#,宇奥灰粉厂,易县文义苗圃厂,易县交通加油站变压器,中山南村高顺福,良村王亮50,富石达石材厂增容80,河北金泰矿业有限公司500,良村1#,易县昌泽盛苗圃场变压器,易县龙腾运销有限公司变压器,良村4#,人民银行家属楼,良村村北,七里亭4#,易县昆仑石材厂变压器,良村3#,何晓明,杨九江石板厂（50KVA）,北山南村3#,0675751245-易县嘉德房地产开发有限公司-专变-216164639-易县嘉德房地产开发有限公司315KVA,宋村4#,易县昌德色石加工有限公司80,河北通泽混凝土有限公司,五里河村2#,易县富石达石材有限责任公司,五里河村1#,良村2#,章村3#,五里河5号,蓝天小学,麻屋庄8#【纯农排变】,易县曙光矿产建材,七里亭村5#,麻屋庄村3#,昌盛钙粉厂,易县泽远宾馆100,易县欧雅庭新型建材制造有限公司250KVA,易县顺达钙粉厂（张杰）,维峰机械厂（李维军）,北山南村4#,良村6#,中山南村西,北山南村5#,轧钢厂,南山北钙粉厂,周树恒水磨石厂,南山南村雪花钙粉厂,北山南钙粉厂（刘宝珠）,张贵球墨灰厂,麻屋庄村4#,袁芹（农机站）,河北省易县白水泥厂变压器,北山南村7#,易县蓝天小学400KVA,良村5#【纯农排变】,0555182608-易县康隆新型建材有限公司-专变-89803537-易县康隆新型建材有限公司变压器,0675751245-易县嘉德房地产开发有限公司-专变-216162117-易县嘉德房地产开发有限公司2000KVA,桥头网通,易县腾跃房地产1600,泰山顺达石板厂,石油物探局加油站,张贵下,徐利,天山石材,章村1#,木器厂,桂子渠村东,七里亭村3#,中北石材厂（王怀春）,良村7#,易县安牧钙粉加工厂250,五里河村3#,杨九江石材厂(100KVA),桂子渠村东(80KVA),易县新荣面粉厂,宋村3#,0469134012-易县双民石料购销处-专变-46725379-易县双民石料购销处(成星高),河北金泰矿业有限公司1000,变戏法,良村张永利变压器,易县聚鑫石材250,五里河6号变压器,五里河村7#,章村5#,","scope":"【影响街道/乡镇】桥头乡、易州镇、城管处、迎晖北大街【高危重要客户】无【影响客户】麻屋庄村、北山南村、宋村、五里河村、章村、七里亭村、良村 、中山南村","startTime":"2020-05-13 17:26:09","stopDate":"2020-05-13 21:00:00","orgNo":"1340625","typeCode":"电网故障停限电","poweroffArea":"【全线路停电】停麻屋庄村3#,昌盛钙粉厂,易县泽远宾馆100,易县欧雅庭新型建材制造有限公司250KVA,易县顺达钙粉厂（张杰）,维峰机械厂（李维军）,北山南村4#,良村6#,中山南村西,北山南村5#,轧钢厂,南山北钙粉厂,周树恒水磨石厂,南山南村雪花钙粉厂,北山南钙粉厂（刘宝珠）,张贵球墨灰厂,麻屋庄村4#,袁芹（农机站）,河北省易县白水泥厂变压器,北山南村7#,易县蓝天小学400KVA,良村5#【纯农排变】,0555182608-易县康隆新型建材有限公司-专变-89803537-易县康隆新型建材有限公司变压器,0675751245-易县嘉德房地产开发有限公司-专变-216162117-易县嘉德房地产开发有限公司2000KVA,桥头网通,泰山顺达石板厂,石油物探局加油站,张贵下,徐利,天山石材,章村1#,木器厂,桂子渠村东,七里亭村3#,中北石材厂（王怀春）,良村7#,易县安牧钙粉加工厂250,五里河村3#,杨九江石材厂(100KVA),桂子渠村东(80KVA),易县新荣面粉厂,宋村3#,0469134012-易县双民石料购销处-专变-46725379-易县双民石料购销处(成星高),河北金泰矿业有限公司1000,变戏法,良村张永利变压器,易县聚鑫石材250,五里河6号变压器,五里河村7#,章村5#,易县腾跃房地产1600,桥头乡政府,宇奥灰粉厂,易县文义苗圃厂,易县交通加油站变压器,中山南村高顺福,良村王亮50,富石达石材厂增容80,河北金泰矿业有限公司500,良村1#,易县龙腾运销有限公司变压器,良村4#,人民银行家属楼,良村村北,七里亭4#,易县昆仑石材厂变压器,良村3#,何晓明,杨九江石板厂（50KVA）,北山南村3#,0675751245-易县嘉德房地产开发有限公司-专变-216164639-易县嘉德房地产开发有限公司315KVA,宋村4#,麻屋庄村西,易县益安新型建材制造有限公司A,章村2#,北山南2#,易县昌德色石加工有限公司80,河北通泽混凝土有限公司,五里河村2#,易县富石达石材有限责任公司,五里河村1#,良村2#,章村3#,五里河5号,蓝天小学,麻屋庄8#【纯农排变】,易县曙光矿产建材,七里亭村5#,易县益安新型建材制造有限公司C,康隆新型建材有限公司250,北山南村1#,易县益安新型建材制造有限公司B,北山南村6#,易县龙腾运销有限公司变压器1,宋村2#【纯农排变】,易县气象局100KVA,0606269681-易县石兴钙粉厂-专变-127271039-易县石兴钙粉厂变压器,南山南村王红娟,五里河村4#,易县雪花矿岩制粉厂250,良村8#,易县昌泽盛苗圃场变压器","poweroffReason":"【停电原因】由于３５号杆Ｂ相线夹烧断导致１１０ＫＶ易县变电站北山南５１８线路全线停电【变更送电】无【发布渠道】通过９５５９８发布","powerTime":"2020-05-13 20:27:54","powerComm":"已送电","subsNo":"","lineNo":"","tgNo":"","tgName":null,"infoStatus":"1","orgName":"国网易县供电公司","typeName":null,"infoStatusName":null,"dateDay":null,"orgNos":null,"nowTime":null,"countyName":null,"streetName":null,"villageName":null,"roadName":null,"communityName":null,"tranName":null,"sdLineName":null,"cityCode":"1340625","cityName":"国网易县供电公司","provinceCode":null,"stopTime":"2020-05-13 21:00:00","powerType":"全部","powerOffArea":"【全线路停电】停麻屋庄村3#,昌盛钙粉厂,易县泽远宾馆100,易县欧雅庭新型建材制造有限公司250KVA,易县顺达钙粉厂（张杰）,维峰机械厂（李维军）,北山南村4#,良村6#,中山南村西,北山南村5#,轧钢厂,南山北钙粉厂,周树恒水磨石厂,南山南村雪花钙粉厂,北山南钙粉厂（刘宝珠）,张贵球墨灰厂,麻屋庄村4#,袁芹（农机站）,河北省易县白水泥厂变压器,北山南村7#,易县蓝天小学400KVA,良村5#【纯农排变】,0555182608-易县康隆新型建材有限公司-专变-89803537-易县康隆新型建材有限公司变压器,0675751245-易县嘉德房地产开发有限公司-专变-216162117-易县嘉德房地产开发有限公司2000KVA,桥头网通,泰山顺达石板厂,石油物探局加油站,张贵下,徐利,天山石材,章村1#,木器厂,桂子渠村东,七里亭村3#,中北石材厂（王怀春）,良村7#,易县安牧钙粉加工厂250,五里河村3#,杨九江石材厂(100KVA),桂子渠村东(80KVA),易县新荣面粉厂,宋村3#,0469134012-易县双民石料购销处-专变-46725379-易县双民石料购销处(成星高),河北金泰矿业有限公司1000,变戏法,良村张永利变压器,易县聚鑫石材250,五里河6号变压器,五里河村7#,章村5#,易县腾跃房地产1600,桥头乡政府,宇奥灰粉厂,易县文义苗圃厂,易县交通加油站变压器,中山南村高顺福,良村王亮50,富石达石材厂增容80,河北金泰矿业有限公司500,良村1#,易县龙腾运销有限公司变压器,良村4#,人民银行家属楼,良村村北,七里亭4#,易县昆仑石材厂变压器,良村3#,何晓明,杨九江石板厂（50KVA）,北山南村3#,0675751245-易县嘉德房地产开发有限公司-专变-216164639-易县嘉德房地产开发有限公司315KVA,宋村4#,麻屋庄村西,易县益安新型建材制造有限公司A,章村2#,北山南2#,易县昌德色石加工有限公司80,河北通泽混凝土有限公司,五里河村2#,易县富石达石材有限责任公司,五里河村1#,良村2#,章村3#,五里河5号,蓝天小学,麻屋庄8#【纯农排变】,易县曙光矿产建材,七里亭村5#,易县益安新型建材制造有限公司C,康隆新型建材有限公司250,北山南村1#,易县益安新型建材制造有限公司B,北山南村6#,易县龙腾运销有限公司变压器1,宋村2#【纯农排变】,易县气象局100KVA,0606269681-易县石兴钙粉厂-专变-127271039-易县石兴钙粉厂变压器,南山南村王红娟,五里河村4#,易县雪花矿岩制粉厂250,良村8#,易县昌泽盛苗圃场变压器","powerOffReason":"【停电原因】由于３５号杆Ｂ相线夹烧断导致１１０ＫＶ易县变电站北山南５１８线路全线停电【变更送电】无【发布渠道】通过９５５９８发布","powerOffId":"2020051313000299"},{"poweroffId":2020051313000276,"sgpoweroffId":null,"subsName":"","lineName":"10kV513刘良庄线","pubTranName":"唐家庄村公用照明2台区,刘良庄村公用照明2台区,唐家庄公用照明8台区,刘良庄公用照明4台区,唐家庄公用照明13台区,唐家庄公用照明3台区,刘良庄公用照明3台区,唐家庄公用照明15台区,唐家庄公用照明9台区,唐家庄公用照明11台区,唐家庄村公用照明1台区,唐家庄公用照明7台区,唐家庄公用农业18台区【纯农排变】,刘良庄村公用照明1台区,唐家庄公用照明4台区,唐家庄公用照明5台区,唐家庄公用农业5台区【纯农排变】,唐家庄公用照明6台区,唐家庄公用照明10台区,","scope":"【影响街道/乡镇】号头庄乡【影响客户】刘良庄、唐家庄","startTime":"2020-05-23 07:00:00","stopDate":"2020-05-23 18:00:00","orgNo":"1340610","typeCode":"计划停电","poweroffArea":"【全线路停电】停３５ＫＶ刘良庄变电站１０ＫＶ５１３刘良庄线路全线，唐家庄公用照明3台区,唐家庄公用照明8台区,刘良庄公用照明4台区,唐家庄公用照明13台区,定州市大唐养殖技术专业合作社,定州市刘良庄联村供水厂,唐家庄公用农业20台区【纯农排变】,唐家庄公用农业7台区【纯农排变】,定州市马保强牛厂,刘良庄公用农业5台区【纯农排变】,刘良庄公用照明3台区,定州市旺盛养殖技术专业合作社,唐家庄公用照明15台区,刘良庄公用农业9台区,唐家庄公用照明9台区,河北伊人奶牛养殖有限公司_0700773873_河北伊人奶牛养殖有限公司变压器,刘良庄公用农业12台区【纯农排变】,唐家庄公用照明14台区,刘良庄公用农业4台区【纯农排变】,唐家庄公用照明11台区,唐家庄村公用照明1台区,刘良庄公用农业3台区【纯农排变】,唐家庄公用农业9台区【纯农排变】,唐家庄公用照明7台区,唐家庄公用农业11台区【纯农排变】,唐家庄公用照明16台区,唐家庄公用农业3台区【纯农排变】,唐家庄公用农业4台区【纯农排变】,唐家庄公用农业2台区【纯农排变】,唐家庄村公用照明2台区,唐家庄公用农业18台区【纯农排变】,定州市刘良庄医院变压器,回民中学,唐家庄公用农业15台区【纯农排变】,刘良庄公用农业2台区【纯农排变】,刘良庄公用农业1台区【纯农排变】,定州市宏泰农产品专业合作社,定州市大唐养殖技术专业合作社变压器,唐家庄公用农业12台区【纯农排变】,刘良庄公用农业8台区【纯农排变】,刘良庄公用农业11台区【纯农排变】,唐家庄面粉厂,刘良庄村公用照明1台区,唐家庄公用农业17台区【纯农排变】,唐家庄公用照明4台区,唐家庄公用照明5台区,唐家庄公用照明12台区,刘良庄公用农业10台区【纯农排变】,唐家庄公用农业5台区【纯农排变】,定州市驰达养殖技术专业合作社,唐家庄公用照明6台区,唐家庄公用农业8台区【纯农排变】,唐家庄公用照明10台区,唐家庄公用农业1台区【纯农排变】,河北伊人奶牛养殖有限公司2变压器,刘良庄村公用照明2台区,定州市宏达农产品专业合作社","poweroffReason":"【停电原因】由于更换电缆头导致３５ＫＶ刘良庄变电站１０ＫＶ５１３刘良庄线路全线停电 【变更送电】无 【发布渠道】河北省定州市定州日报第三版（２０２０年０５月１５日）","powerTime":"2020-05-23 17:40:04","powerComm":"已送电","subsNo":"","lineNo":"","tgNo":"","tgName":null,"infoStatus":"1","orgName":"国网定州市供电公司","typeName":null,"infoStatusName":null,"dateDay":null,"orgNos":null,"nowTime":null,"countyName":null,"streetName":null,"villageName":null,"roadName":null,"communityName":null,"tranName":null,"sdLineName":null,"cityCode":"1340610","cityName":"国网定州市供电公司","provinceCode":null,"stopTime":"2020-05-23 18:00:00","powerType":"全部","powerOffArea":"【全线路停电】停３５ＫＶ刘良庄变电站１０ＫＶ５１３刘良庄线路全线，唐家庄公用照明3台区,唐家庄公用照明8台区,刘良庄公用照明4台区,唐家庄公用照明13台区,定州市大唐养殖技术专业合作社,定州市刘良庄联村供水厂,唐家庄公用农业20台区【纯农排变】,唐家庄公用农业7台区【纯农排变】,定州市马保强牛厂,刘良庄公用农业5台区【纯农排变】,刘良庄公用照明3台区,定州市旺盛养殖技术专业合作社,唐家庄公用照明15台区,刘良庄公用农业9台区,唐家庄公用照明9台区,河北伊人奶牛养殖有限公司_0700773873_河北伊人奶牛养殖有限公司变压器,刘良庄公用农业12台区【纯农排变】,唐家庄公用照明14台区,刘良庄公用农业4台区【纯农排变】,唐家庄公用照明11台区,唐家庄村公用照明1台区,刘良庄公用农业3台区【纯农排变】,唐家庄公用农业9台区【纯农排变】,唐家庄公用照明7台区,唐家庄公用农业11台区【纯农排变】,唐家庄公用照明16台区,唐家庄公用农业3台区【纯农排变】,唐家庄公用农业4台区【纯农排变】,唐家庄公用农业2台区【纯农排变】,唐家庄村公用照明2台区,唐家庄公用农业18台区【纯农排变】,定州市刘良庄医院变压器,回民中学,唐家庄公用农业15台区【纯农排变】,刘良庄公用农业2台区【纯农排变】,刘良庄公用农业1台区【纯农排变】,定州市宏泰农产品专业合作社,定州市大唐养殖技术专业合作社变压器,唐家庄公用农业12台区【纯农排变】,刘良庄公用农业8台区【纯农排变】,刘良庄公用农业11台区【纯农排变】,唐家庄面粉厂,刘良庄村公用照明1台区,唐家庄公用农业17台区【纯农排变】,唐家庄公用照明4台区,唐家庄公用照明5台区,唐家庄公用照明12台区,刘良庄公用农业10台区【纯农排变】,唐家庄公用农业5台区【纯农排变】,定州市驰达养殖技术专业合作社,唐家庄公用照明6台区,唐家庄公用农业8台区【纯农排变】,唐家庄公用照明10台区,唐家庄公用农业1台区【纯农排变】,河北伊人奶牛养殖有限公司2变压器,刘良庄村公用照明2台区,定州市宏达农产品专业合作社","powerOffReason":"【停电原因】由于更换电缆头导致３５ＫＶ刘良庄变电站１０ＫＶ５１３刘良庄线路全线停电 【变更送电】无 【发布渠道】河北省定州市定州日报第三版（２０２０年０５月１５日）","powerOffId":"2020051313000276"},{"poweroffId":2020051313000265,"sgpoweroffId":null,"subsName":"","lineName":"10kV515马阜才线","pubTranName":"西王耨公用照明4台区,大王耨联合面粉厂,定州泽达服装有限公司变压器,齐家庄公用照明5台区,大王耨公用照明10台区,吴家庄公用照明3台区,大王耨村公用照明3台区,马阜才公用照明7台区,吴家庄公用照明4台区,西王耨公用照明3台区,定州市金源建材有限公司,马阜才公用照明6台区,南大定碑楼,大王耨公用农业19台区【纯农排变】,南大定碑楼北,马阜才公用农业7台区【纯农排变】,齐家庄公用照明1台区,齐家庄公用农业5台区【纯农排变】,大王耨村公用照明1台区,齐家庄公用照明4台区,吴家庄小学,齐家庄村公用照明2台区,东阜才公用照明3台区,西王耨公用农业2台区【纯农排变】,齐家庄公用照明6台区,吴家庄面厂,马阜才公用照明5台区,东阜才公用农业8台区【纯农排变】,东阜才公用照明2台区,大王耨公用照明8台区,西王耨公用照明12台区,大王耨公用照明11台区,西王耨公用农业8台区【纯农排变】,马阜才公用照明4台区,西王耨公用农业31台区【纯农排变】,齐家庄公用农业1台区【纯农排变】,齐家庄公用农业8台区【纯农排变】,齐家庄公用农业2台区【纯农排变】,马阜才公用农业13台区【纯农排变】,马阜才公用农业3台区【纯农排变】,西王耨公用照明9台区,西王耨公用农业17台区【纯农排变】,西王耨公用农业6台区【纯农排变】,西王耨公用照明2台区,大王耨公用照明13台区,敬老院,北大定村公用照明1台区,吴家庄公用照明5台区,大王耨公用农业22台区【纯农排变】,大王耨公用照明9台区,吴家庄公用照明1台区,马阜才公用农业8台区【纯农排变】,西王耨公用照明10台区,西王耨公用农业1台区【纯农排变】,董家庄公用农业2台区【纯农排变】,刘家店村公用照明1台区,大王耨公用照明12台区,齐家庄公用农业11台区【纯农排变】,西王耨公用农业21台区【纯农排变】,大王耨公用农业9台区【纯农排变】,董家庄村公用照明1台区,西王耨村公用照明5台区,吴家庄村公用照明2台区,西王耨公用农业29台【纯农排变】,吴家庄公用农业11台区【纯农排变】,大王耨公用农业10台区【纯农排变】,大王耨公用农业14台区【纯农排变】,吴家庄公用农业1台区【纯农排变】,大王耨公用照明6台区,0387411707-齐家庄砖瓦厂-专变-45261532-齐家庄砖瓦厂,大王耨村公用照明2台区,西王耨公用农业32台【纯农排变】,马阜才村公用照明1台区,定州市号头庄回族乡吴家庄村集体股份合作社,马阜才公用农业5台区【纯农排变】,大王耨公用农业6台区【纯农排变】,西王耨公用照明6台区,东阜才公用农业7台区【纯农排变】,西王耨公用农业27台【纯农排变】,齐家庄公用照明3台区,大王耨公用照明7台区,马阜才村公用照明3台区,西王耨公用农业12台区【纯农排变】,大王耨公用照明4台区,定州市禾兴农机农民专业合作社变压器,定州市大王耨粮食购销有限责任公司,定州市鑫兴机械有限公司,吴家庄公用农业3台区【纯农排变】,东阜才公用农业6台区【纯农排变】,齐家庄公用农业7台区【纯农排变】,马阜才村公用照明2台区,大王耨公用照明5台区,西王耨公用农业28台区【纯农排变】,大王耨公用农业17台区【纯农排变】,西王耨公用农业18台区【纯农排变】,马阜","scope":"【影响街道/乡镇】东留春乡、号头庄乡【影响客户】马阜才、东阜才、吴家庄、大王耨、西王耨、董家庄、刘家店、北大定、齐家庄、南大定、南大定碑楼北、南大定碑楼","startTime":"2020-05-23 07:00:00","stopDate":"2020-05-23 18:00:00","orgNo":"1340610","typeCode":"计划停电","poweroffArea":"【全线路停电】停３５ＫＶ刘良庄变电站１０ＫＶ５１５马阜才线路全线，西王耨公用照明4台区,大王耨联合面粉厂,定州泽达服装有限公司变压器,齐家庄公用照明5台区,大王耨公用照明10台区,吴家庄公用照明3台区,大王耨村公用照明3台区,马阜才公用照明7台区,吴家庄公用照明4台区,西王耨公用照明3台区,定州市金源建材有限公司,马阜才公用照明6台区,南大定碑楼,大王耨公用农业19台区【纯农排变】,南大定碑楼北,马阜才公用农业7台区【纯农排变】,齐家庄公用照明1台区,齐家庄公用农业5台区【纯农排变】,大王耨村公用照明1台区,齐家庄公用照明4台区,吴家庄小学,齐家庄村公用照明2台区,东阜才公用照明3台区,西王耨公用农业2台区【纯农排变】,齐家庄公用照明6台区,吴家庄面厂,马阜才公用照明5台区,东阜才公用农业8台区【纯农排变】,东阜才公用照明2台区,大王耨公用照明8台区,西王耨公用照明12台区,大王耨公用照明11台区,西王耨公用农业8台区【纯农排变】,马阜才公用照明4台区,西王耨公用农业31台区【纯农排变】,齐家庄公用农业1台区【纯农排变】,齐家庄公用农业8台区【纯农排变】,齐家庄公用农业2台区【纯农排变】,马阜才公用农业13台区【纯农排变】,马阜才公用农业3台区【纯农排变】,西王耨公用照明9台区,西王耨公用农业17台区【纯农排变】,西王耨公用农业6台区【纯农排变】,西王耨公用照明2台区,大王耨公用照明13台区,敬老院,北大定村公用照明1台区,吴家庄公用照明5台区,大王耨村公用照明2台区,大王耨公用农业22台区【纯农排变】,大王耨公用照明9台区,吴家庄公用照明1台区,马阜才公用农业8台区【纯农排变】,西王耨公用照明10台区,西王耨公用农业1台区【纯农排变】,董家庄公用农业2台区【纯农排变】,刘家店村公用照明1台区,大王耨公用照明12台区,齐家庄公用农业11台区【纯农排变】,西王耨公用农业21台区【纯农排变】,大王耨公用农业9台区【纯农排变】,董家庄村公用照明1台区,西王耨村公用照明5台区,吴家庄村公用照明2台区,西王耨公用农业29台【纯农排变】,吴家庄公用农业11台区【纯农排变】,大王耨公用农业10台区【纯农排变】,大王耨公用农业14台区【纯农排变】,吴家庄公用农业1台区【纯农排变】,大王耨公用照明6台区,0387411707-齐家庄砖瓦厂-专变-45261532-齐家庄砖瓦厂,西王耨公用农业32台【纯农排变】,马阜才村公用照明1台区,定州市号头庄回族乡吴家庄村集体股份合作社,马阜才公用农业5台区【纯农排变】,大王耨公用农业6台区【纯农排变】,西王耨公用照明6台区,东阜才公用农业7台区【纯农排变】,齐家庄公用照明3台区,大王耨公用照明7台区,马阜才村公用照明3台区,大王耨公用照明4台区,定州市禾兴农机农民专业合作社变压器,定州市大王耨粮食购销有限责任公司,吴家庄公用农业3台区【纯农排变】,东阜才公用农业6台区【纯农排变】,齐家庄公用农业7台区【纯农排变】,马阜才村公用照明2台区,大王耨公用照明5台区,西王耨公用农业18台区【纯农排变】,东阜才公用照明5台区,北大定村东南,西王耨公用农业22台区【纯农排变】,东阜才村公用照明1台区,西王耨公用照明11台区,西王耨公用照明8台区,大王耨公用农业21台区【纯农排变】,西王耨公用农业30台区【纯农排变】,董家庄公用农业3台区【纯农排变】,吴家庄公用农业9台区【纯农排变】,西王耨村公用照明1台区,齐家庄公用农业10台区【纯农排变】,定州佳宇病死畜禽无害化处理有限公司变压器,西王耨公用照明7台区,马阜才公用农业10台","poweroffReason":"【停电原因】由于更换导线导致３５ＫＶ刘良庄变电站１０ＫＶ５１５马阜才线路全线停电 【变更送电】无 【发布渠道】河北省定州市定州日报第三版（２０２０年０５月０８日）","powerTime":"2020-05-23 17:40:28","powerComm":"已送电","subsNo":"","lineNo":"","tgNo":"","tgName":null,"infoStatus":"1","orgName":"国网定州市供电公司","typeName":null,"infoStatusName":null,"dateDay":null,"orgNos":null,"nowTime":null,"countyName":null,"streetName":null,"villageName":null,"roadName":null,"communityName":null,"tranName":null,"sdLineName":null,"cityCode":"1340610","cityName":"国网定州市供电公司","provinceCode":null,"stopTime":"2020-05-23 18:00:00","powerType":"全部","powerOffArea":"【全线路停电】停３５ＫＶ刘良庄变电站１０ＫＶ５１５马阜才线路全线，西王耨公用照明4台区,大王耨联合面粉厂,定州泽达服装有限公司变压器,齐家庄公用照明5台区,大王耨公用照明10台区,吴家庄公用照明3台区,大王耨村公用照明3台区,马阜才公用照明7台区,吴家庄公用照明4台区,西王耨公用照明3台区,定州市金源建材有限公司,马阜才公用照明6台区,南大定碑楼,大王耨公用农业19台区【纯农排变】,南大定碑楼北,马阜才公用农业7台区【纯农排变】,齐家庄公用照明1台区,齐家庄公用农业5台区【纯农排变】,大王耨村公用照明1台区,齐家庄公用照明4台区,吴家庄小学,齐家庄村公用照明2台区,东阜才公用照明3台区,西王耨公用农业2台区【纯农排变】,齐家庄公用照明6台区,吴家庄面厂,马阜才公用照明5台区,东阜才公用农业8台区【纯农排变】,东阜才公用照明2台区,大王耨公用照明8台区,西王耨公用照明12台区,大王耨公用照明11台区,西王耨公用农业8台区【纯农排变】,马阜才公用照明4台区,西王耨公用农业31台区【纯农排变】,齐家庄公用农业1台区【纯农排变】,齐家庄公用农业8台区【纯农排变】,齐家庄公用农业2台区【纯农排变】,马阜才公用农业13台区【纯农排变】,马阜才公用农业3台区【纯农排变】,西王耨公用照明9台区,西王耨公用农业17台区【纯农排变】,西王耨公用农业6台区【纯农排变】,西王耨公用照明2台区,大王耨公用照明13台区,敬老院,北大定村公用照明1台区,吴家庄公用照明5台区,大王耨村公用照明2台区,大王耨公用农业22台区【纯农排变】,大王耨公用照明9台区,吴家庄公用照明1台区,马阜才公用农业8台区【纯农排变】,西王耨公用照明10台区,西王耨公用农业1台区【纯农排变】,董家庄公用农业2台区【纯农排变】,刘家店村公用照明1台区,大王耨公用照明12台区,齐家庄公用农业11台区【纯农排变】,西王耨公用农业21台区【纯农排变】,大王耨公用农业9台区【纯农排变】,董家庄村公用照明1台区,西王耨村公用照明5台区,吴家庄村公用照明2台区,西王耨公用农业29台【纯农排变】,吴家庄公用农业11台区【纯农排变】,大王耨公用农业10台区【纯农排变】,大王耨公用农业14台区【纯农排变】,吴家庄公用农业1台区【纯农排变】,大王耨公用照明6台区,0387411707-齐家庄砖瓦厂-专变-45261532-齐家庄砖瓦厂,西王耨公用农业32台【纯农排变】,马阜才村公用照明1台区,定州市号头庄回族乡吴家庄村集体股份合作社,马阜才公用农业5台区【纯农排变】,大王耨公用农业6台区【纯农排变】,西王耨公用照明6台区,东阜才公用农业7台区【纯农排变】,齐家庄公用照明3台区,大王耨公用照明7台区,马阜才村公用照明3台区,大王耨公用照明4台区,定州市禾兴农机农民专业合作社变压器,定州市大王耨粮食购销有限责任公司,吴家庄公用农业3台区【纯农排变】,东阜才公用农业6台区【纯农排变】,齐家庄公用农业7台区【纯农排变】,马阜才村公用照明2台区,大王耨公用照明5台区,西王耨公用农业18台区【纯农排变】,东阜才公用照明5台区,北大定村东南,西王耨公用农业22台区【纯农排变】,东阜才村公用照明1台区,西王耨公用照明11台区,西王耨公用照明8台区,大王耨公用农业21台区【纯农排变】,西王耨公用农业30台区【纯农排变】,董家庄公用农业3台区【纯农排变】,吴家庄公用农业9台区【纯农排变】,西王耨村公用照明1台区,齐家庄公用农业10台区【纯农排变】,定州佳宇病死畜禽无害化处理有限公司变压器,西王耨公用照明7台区,马阜才公用农业10台","powerOffReason":"【停电原因】由于更换导线导致３５ＫＶ刘良庄变电站１０ＫＶ５１５马阜才线路全线停电 【变更送电】无 【发布渠道】河北省定州市定州日报第三版（２０２０年０５月０８日）","powerOffId":"2020051313000265"},{"poweroffId":2020051313000258,"sgpoweroffId":null,"subsName":"","lineName":"10kV516留春线","pubTranName":"吕家庄面粉厂,东留春公用农业14台区【纯农排变】,吕家庄公用照明10台区,圣佛头公用农业20台区【纯农排变】,邵村公用照明3台区,圣佛头公用农业1台区【纯农排变】,吕家庄公用农业1台区【纯农排变】,定州市邵村王勇养猪场变压器,圣佛头公用农业4台区【纯农排变】,西留春村公用农业1台区【纯农排变】,吕家庄公用照明12台区,定州市鑫平农产品专业合作社变压器,东留春公用农业13台区【纯农排变】,吕家庄公用农业6台区【纯农排变】,西留春村公用照明4台区,圣佛头公用农业5台区【纯农排变】,圣佛头公用农业9台区【纯农排变】,东留春公用农业16台区【纯农排变】,吕家庄公用照明13台区,邵村正西,圣佛头公用农业11台区【纯农排变】,吕家庄砖场,圣佛头公用农业16台区【纯农排变】,东留春村公用照明4台区,西留春村公用农业6台区【纯农排变】,西留春公用照明11台区,吕家庄公用农业9台区【纯农排变】,东留春公用照明7台区,邵村公用照明1台区,圣佛头公用农业2台区【纯农排变】,邵村公用照明10台区,东留春村公用照明2台区,刘良庄供电所,邵村西南,定州市东留春乡邵村村民委员会村北,北邵村公用农业2台区【纯农排变】,圣佛头公用农业17台区【纯农排变】,北邵村公用农业3台区【纯农排变】,东留春公用照明16台区,吕家庄公用照明6台区,西留春村公用农业11台区【纯农排变】,西留春公用照明8台区,西留春村公用照明1台区,吕家庄公用农业7台区【纯农排变】,西留春村公用农业9台区【纯农排变】,0677300090-定州市东留春乡北邵村社区村民委员会-专变-230658542-定州市东留春乡北邵村社区村民委员会变压器,圣佛头公用农业18台区【纯农排变】,吕家庄公用农业4台区【纯农排变】,定州市宇能建材有限公司变压器,吕家庄公用农业11台区【纯农排变】,定州市永其养殖场,东留春公用农业17台区【纯农排变】,圣佛头公用农业12台区【纯农排变】,西留春公用照明9台区,吕家庄公用农业14台区【纯农排变】,东留春公用照明8台区,中国移动通信集团河北有限公司定州分公司变压器,西留春庄面粉厂,东留春公用农业10台区【纯农排变】,圣佛头公用照明4台区,东留春公用照明13台区,东留春公用农业7台区【纯农排变】,圣佛头公用农业14台区【纯农排变】,邵村沙河东,圣佛头公用农业6台区【纯农排变】,吕家庄公用农业12台区【纯农排变】,东留春公用照明12台区,圣佛头公用照明7台区,东留春村公用照明1台区,西留春公用照明5台区,东留春公用照明11台区,东留春公用照明6台区,圣佛头公用农业10台区【纯农排变】,北邵村公用农业4台区【纯农排变】,吕家庄公用照明7台区,西留春纺织配件厂,圣佛头公用照明6台区,邵村方田,东留春公用农业8台区【纯农排变】,东留春公用照明10台区,吕家庄公用照明4台区,西留春村公用农业4台区【纯农排变】,东留春公用照明5台区,东留春公用农业15台区【纯农排变】,圣佛头公用农业13台区【纯农排变】,定州市东留春乡北邵村村集体股份合作社变压器,吕家庄村公用照明3台区,吕家庄公用照明9台区,邵村公用照明6台区,北邵村公用农业1台区【纯农排变】,西留春村公用农业13台区【纯农排","scope":"【影响街道/乡镇】东留春乡、号头庄乡【影响客户】吕家庄、东留春、西留春、邵村、北邵村、圣佛头","startTime":"2020-05-23 07:00:00","stopDate":"2020-05-23 18:00:00","orgNo":"1340610","typeCode":"计划停电","poweroffArea":"【全线路停电】停３５ＫＶ刘良庄变电站１０ＫＶ５１６留春线路全线，东留春公用照明8台区,中国移动通信集团河北有限公司定州分公司变压器,西留春庄面粉厂,东留春公用农业10台区【纯农排变】,邵村沙河东,圣佛头公用农业6台区【纯农排变】,东留春公用照明12台区,圣佛头公用照明7台区,东留春村公用照明1台区,西留春公用照明5台区,北邵村公用农业4台区【纯农排变】,西留春纺织配件厂,邵村方田,0677300090-定州市东留春乡北邵村社区村民委员会-专变-230658542-定州市东留春乡北邵村社区村民委员会变压器,定州市永其养殖场,圣佛头公用农业12台区【纯农排变】,圣佛头公用照明4台区,东留春公用照明13台区,东留春公用农业7台区【纯农排变】,圣佛头公用农业14台区【纯农排变】,吕家庄公用农业12台区【纯农排变】,东留春公用照明11台区,东留春公用照明6台区,圣佛头公用农业10台区【纯农排变】,吕家庄公用照明7台区,圣佛头公用照明6台区,东留春公用农业8台区【纯农排变】,东留春公用照明10台区,吕家庄公用照明4台区,西留春村公用农业4台区【纯农排变】,东留春公用照明5台区,东留春公用农业15台区【纯农排变】,吕家庄村公用照明3台区,吕家庄公用照明9台区,西留春村公用农业13台区【纯农排变】,西留春村公用照明13台区,吕家庄村公用照明1台区,东留春公用农业1台区【纯农排变】,定州市沃森养猪场,0387413468-定州市万沣面粉有限公司-专变-189905255-定州市万沣面粉厂变压器,邵村村西边,邵村公用照明4台区,邵村堤上河北,圣佛头公用照明9台区,东留春公用农业4台区【纯农排变】,东留春内北,邵村堤上河西,邵村堤上河东,邵村公路中,东留春邮局,定州市万沣面粉有限公司变压器,邵村西北,北邵村公用照明3台区,邵村堤上河西北,邵村堤上河东北,西留春村公用农业2台区【纯农排变】,吕家庄公用农业17台区【纯农排变】,西留春公用照明3台区东留春公用照明15台区,吕家庄公用照明5台区,邵村村南2,定州市东留春乡邵村村民委员会,西留春公用照明6台区,西留春村公用农业12台区【纯农排变】,西留春公用照明7台区,吕家庄公用农业2台区【纯农排变】,圣佛头公用照明8台区,圣佛头公用农业21台区【纯农排变】,邵村村东,西留春公用照明12台区,东留春公用农业6台区【纯农排变】,邵村公路东,东留春公用农业12台区【纯农排变】,圣佛头公用农业7台区【纯农排变】,东留春村公用照明3台区,定州市东留春乡邵村村民委员会村西,邵村村西,西留春村公用农业3台区【纯农排变】,圣佛头公用农业8台区【纯农排变】,西留春村公用农业8台区【纯农排变】,吕家庄公用农业10台区【纯农排变】,吕家庄公用照明11台区,0681852426-定州市大地纺织配件有限公司-专变-220701775-定州市大地纺织配件有限公司变压器,圣佛头村公用照明2台区,圣佛头公用照明5台区,定州市邵村富鑫养猪场变压器,北邵村公用照明2台区,圣佛头村公用照明3台区,西留春村公用农业10台区【纯农排变】,西留春村公用照明2台区,定州市东留春供水厂变压器,圣佛头公用农业3台区【纯农排变】,吴静农场变压器,吕家庄村公用照明2台区,吕家庄公用照明8台区,东留春公用农业9台区【纯农排变】,东留春公用农业5台区【纯农排变】,邵村西南口,东留春公用照明9台区,邵村公用照明11台区,定州市胜亚空心砖厂,邵村公用照明9台区,吕家庄公用照明15台区,吕家庄公用照明14台区,东留春公用农业2台区【纯农排变】,东留春公用照明14台区,邵村公用照明5台区,邵村村南,北邵村公用照明1台区,圣佛头","poweroffReason":"【停电原因】由于更换导线导致３５ＫＶ刘良庄变电站１０ＫＶ５１６留春线路全线停电 【变更送电】无 【发布渠道】河北省定州市定州日报第三版（２０２０年０５月０８日）","powerTime":"2020-05-23 17:41:01","powerComm":"已送电","subsNo":"","lineNo":"","tgNo":"","tgName":null,"infoStatus":"1","orgName":"国网定州市供电公司","typeName":null,"infoStatusName":null,"dateDay":null,"orgNos":null,"nowTime":null,"countyName":null,"streetName":null,"villageName":null,"roadName":null,"communityName":null,"tranName":null,"sdLineName":null,"cityCode":"1340610","cityName":"国网定州市供电公司","provinceCode":null,"stopTime":"2020-05-23 18:00:00","powerType":"全部","powerOffArea":"【全线路停电】停３５ＫＶ刘良庄变电站１０ＫＶ５１６留春线路全线，东留春公用照明8台区,中国移动通信集团河北有限公司定州分公司变压器,西留春庄面粉厂,东留春公用农业10台区【纯农排变】,邵村沙河东,圣佛头公用农业6台区【纯农排变】,东留春公用照明12台区,圣佛头公用照明7台区,东留春村公用照明1台区,西留春公用照明5台区,北邵村公用农业4台区【纯农排变】,西留春纺织配件厂,邵村方田,0677300090-定州市东留春乡北邵村社区村民委员会-专变-230658542-定州市东留春乡北邵村社区村民委员会变压器,定州市永其养殖场,圣佛头公用农业12台区【纯农排变】,圣佛头公用照明4台区,东留春公用照明13台区,东留春公用农业7台区【纯农排变】,圣佛头公用农业14台区【纯农排变】,吕家庄公用农业12台区【纯农排变】,东留春公用照明11台区,东留春公用照明6台区,圣佛头公用农业10台区【纯农排变】,吕家庄公用照明7台区,圣佛头公用照明6台区,东留春公用农业8台区【纯农排变】,东留春公用照明10台区,吕家庄公用照明4台区,西留春村公用农业4台区【纯农排变】,东留春公用照明5台区,东留春公用农业15台区【纯农排变】,吕家庄村公用照明3台区,吕家庄公用照明9台区,西留春村公用农业13台区【纯农排变】,西留春村公用照明13台区,吕家庄村公用照明1台区,东留春公用农业1台区【纯农排变】,定州市沃森养猪场,0387413468-定州市万沣面粉有限公司-专变-189905255-定州市万沣面粉厂变压器,邵村村西边,邵村公用照明4台区,邵村堤上河北,圣佛头公用照明9台区,东留春公用农业4台区【纯农排变】,东留春内北,邵村堤上河西,邵村堤上河东,邵村公路中,东留春邮局,定州市万沣面粉有限公司变压器,邵村西北,北邵村公用照明3台区,邵村堤上河西北,邵村堤上河东北,西留春村公用农业2台区【纯农排变】,吕家庄公用农业17台区【纯农排变】,西留春公用照明3台区东留春公用照明15台区,吕家庄公用照明5台区,邵村村南2,定州市东留春乡邵村村民委员会,西留春公用照明6台区,西留春村公用农业12台区【纯农排变】,西留春公用照明7台区,吕家庄公用农业2台区【纯农排变】,圣佛头公用照明8台区,圣佛头公用农业21台区【纯农排变】,邵村村东,西留春公用照明12台区,东留春公用农业6台区【纯农排变】,邵村公路东,东留春公用农业12台区【纯农排变】,圣佛头公用农业7台区【纯农排变】,东留春村公用照明3台区,定州市东留春乡邵村村民委员会村西,邵村村西,西留春村公用农业3台区【纯农排变】,圣佛头公用农业8台区【纯农排变】,西留春村公用农业8台区【纯农排变】,吕家庄公用农业10台区【纯农排变】,吕家庄公用照明11台区,0681852426-定州市大地纺织配件有限公司-专变-220701775-定州市大地纺织配件有限公司变压器,圣佛头村公用照明2台区,圣佛头公用照明5台区,定州市邵村富鑫养猪场变压器,北邵村公用照明2台区,圣佛头村公用照明3台区,西留春村公用农业10台区【纯农排变】,西留春村公用照明2台区,定州市东留春供水厂变压器,圣佛头公用农业3台区【纯农排变】,吴静农场变压器,吕家庄村公用照明2台区,吕家庄公用照明8台区,东留春公用农业9台区【纯农排变】,东留春公用农业5台区【纯农排变】,邵村西南口,东留春公用照明9台区,邵村公用照明11台区,定州市胜亚空心砖厂,邵村公用照明9台区,吕家庄公用照明15台区,吕家庄公用照明14台区,东留春公用农业2台区【纯农排变】,东留春公用照明14台区,邵村公用照明5台区,邵村村南,北邵村公用照明1台区,圣佛头","powerOffReason":"【停电原因】由于更换导线导致３５ＫＶ刘良庄变电站１０ＫＶ５１６留春线路全线停电 【变更送电】无 【发布渠道】河北省定州市定州日报第三版（２０２０年０５月０８日）","powerOffId":"2020051313000258"},{"poweroffId":2020051313000236,"sgpoweroffId":null,"subsName":"","lineName":"南城司516","pubTranName":"南城司5#村南,南城司村6#村南（综）,南城司村12#变压器,南城司乡政府(王克友),","scope":"【影响街道/乡镇】紫荆关镇【高危重要客户】无【影响客户】南城司村","startTime":"2020-05-23 03:30:00","stopDate":"2020-05-23 08:00:00","orgNo":"1340625","typeCode":"计划停电","poweroffArea":"【分支停电】停南城司5#村南,南城司村6#村南（综）,南城司村12#变压器,南城司乡政府(王克友)","poweroffReason":"【停电原因】由于线路检修导致３５ＫＶ大兴安变电站南城司５１６线路乡政府分支#000杆#01号刀闸以下线路停电【变更送电】无【发布渠道】保定市易县电视台（０５月１４日００：００时至０５月２２日２４：００时之间）屏幕上方滚动　","powerTime":"2020-05-23 07:14:57","powerComm":"已送电","subsNo":"","lineNo":"","tgNo":"","tgName":null,"infoStatus":"1","orgName":"国网易县供电公司","typeName":null,"infoStatusName":null,"dateDay":null,"orgNos":null,"nowTime":null,"countyName":null,"streetName":null,"villageName":null,"roadName":null,"communityName":null,"tranName":null,"sdLineName":null,"cityCode":"1340625","cityName":"国网易县供电公司","provinceCode":null,"stopTime":"2020-05-23 08:00:00","powerType":"全部","powerOffArea":"【分支停电】停南城司5#村南,南城司村6#村南（综）,南城司村12#变压器,南城司乡政府(王克友)","powerOffReason":"【停电原因】由于线路检修导致３５ＫＶ大兴安变电站南城司５１６线路乡政府分支#000杆#01号刀闸以下线路停电【变更送电】无【发布渠道】保定市易县电视台（０５月１４日００：００时至０５月２２日２４：００时之间）屏幕上方滚动　","powerOffId":"2020051313000236"},{"poweroffId":2020051313000213,"sgpoweroffId":null,"subsName":"","lineName":"10kV龙门525线","pubTranName":"525北辛庄2#配变,525北兴庄1#配变,525北兴庄3#配变,525丁家庄1#配变,525东漕岭1#配变,525东漕岭2#配变,525东漕岭3#配变,525东漕岭3#配变【18M】,525法华1#配变,525法华11#公用配变配变,525法华2#配变,525法华3#配变,525法华4#配变,525法华7#配变,525法华6#配变,","scope":"【影响街道/乡镇】阜平镇 【影响客户】龙门、楼房、楼房石材厂、河口村、干河沟、摸鱼台、木匠口、乔其岭、大马步、东漕岭、石漕沟、三岭会、龙门石材小区、青崖口、色岭口、花瓣山泉、法华、上桃花、秋落沟、上东漕、西半沟、葛家台、北辛庄、黄崖、水管站、河口养路工区、楼房新村、河口新村","startTime":"2020-05-13 15:30:00","stopDate":"2020-05-13 17:30:00","orgNo":"1340611","typeCode":"电网故障停限电","poweroffArea":"【全线路停电】停１１０ＫＶ阜平变电站１０ＫＶ龙门５２５线路全线，525北辛庄2#配变,525北兴庄1#配变,525北兴庄3#配变,525丁家庄1#配变,525东漕岭1#配变,525东漕岭2#配变,525东漕岭3#配变,525东漕岭3#配变【18M】,525法华1#配变,525法华11#公用配变配变,525法华2#配变,525法华3#配变,525法华4#配变,525法华7#配变,525法华6#配变","poweroffReason":"【停电原因】由于线路接地导致１１０ＫＶ阜平变电站１０ＫＶ龙门５２５线路全线停电 【变更送电】无 【发布渠道】９５５９８","powerTime":"2020-05-13 17:15:08","powerComm":"已送电","subsNo":"","lineNo":"","tgNo":"","tgName":null,"infoStatus":"1","orgName":"国网阜平县供电公司","typeName":null,"infoStatusName":null,"dateDay":null,"orgNos":null,"nowTime":null,"countyName":null,"streetName":null,"villageName":null,"roadName":null,"communityName":null,"tranName":null,"sdLineName":null,"cityCode":"1340611","cityName":"国网阜平县供电公司","provinceCode":null,"stopTime":"2020-05-13 17:30:00","powerType":"全部","powerOffArea":"【全线路停电】停１１０ＫＶ阜平变电站１０ＫＶ龙门５２５线路全线，525北辛庄2#配变,525北兴庄1#配变,525北兴庄3#配变,525丁家庄1#配变,525东漕岭1#配变,525东漕岭2#配变,525东漕岭3#配变,525东漕岭3#配变【18M】,525法华1#配变,525法华11#公用配变配变,525法华2#配变,525法华3#配变,525法华4#配变,525法华7#配变,525法华6#配变","powerOffReason":"【停电原因】由于线路接地导致１１０ＫＶ阜平变电站１０ＫＶ龙门５２５线路全线停电 【变更送电】无 【发布渠道】９５５９８","powerOffId":"2020051313000213"},{"poweroffId":2020051313000208,"sgpoweroffId":null,"subsName":"","lineName":"沈村511","pubTranName":"西邵村2#,西邵村4#,裴山镇政府1#,北邵村9号变压器,西邵村1#,尉都村6#,尉都乡政府1#,孝村5#,曲城村3#,南街村2#,南街村9#,南庄村4#,西邵村5#,孝村2#,尉都村8#,东火山村1#,东庄村11#,东庄村5#,西街村1#,东庄村8#,孝村4#,东火山村6#,曲城村4#【纯农排变】,东庄村3#【纯农排变】,南街村1#,西街村3#,东庄村9#,南街村11#变压器,裴山供电所变压器,尉都村5#,南街村3#,东庄村6#,东庄村12#,东庄村13#,裴山镇政府2号变压器,东庄村7#,曲城村5#,曲城村2#,东火山村3#,东火山村2#,北街村1#,黄金庄村1#,西邵村6#变压器,南街10#,南街村6#,西邵村3#,西街4号变压器,","scope":"【影响街道/乡镇】裴山镇、尉都乡【高危重要客户】无【影响客户】南街村、西街村、北街村、东火山村、尉都村、孝村、西邵村、曲城村、黄金庄村、东庄村","startTime":"2020-05-24 05:30:00","stopDate":"2020-05-24 18:00:00","orgNo":"1340625","typeCode":"计划停电","poweroffArea":"【全线路停电】停东庄村6#,南街村1#,东庄村13#,王志恒板厂,西街村3#,易县雷鸣土地整理服务有限公司-2号170112310818-100KVA,东庄村9#,0665049765-易县农村信用联社股份有限公司-专变-201072765-裴山信用社80KVA,南街村11#变压器,裴山供电所变压器,尉都村5#,尚晓东板厂,南街村3#,周占良,魏复兴板厂,东庄村12#,王术申养殖厂(板厂),尉都乡卫生院80KVA,东庄村2#【纯农排变】,裴山镇政府2号变压器,西邵村6#变压器,曲城村3#,马连平板厂,曲城村1#【纯农排变】,西街村1#,河北省易县曲城酒厂变压器,东庄村4#【纯农排变】,南街10#,南街村6#,西邵村3#,易县尉都腾达石材有限公司变压器001#,黄金庄村1#,东庄村8#,南庄村4#,孝村崔克林(农业),孝村2#,西邵村2#,西邵村4#,魏洪源,黄金庄村2#【纯农排变】,东霍山x英鞋垫厂(董红忠),裴山镇政府1#,北邵村9号变压器,西邵村1#,沙莲娜北变,沙莲娜南变,尉都村6#,北京地矿西邵村350KVA-A100,尉都乡政府1#,易县尉都腾达石材有限公司变压器,东火山村民委员会200,尉都中心小学变压器,东庄村10#,西邵面粉厂,曲城酒厂,修配厂,孝村5#,魏喜元板厂,灌渠,裴山粮库,北京地矿西邵村350KVA-B100,南庄面粉厂,李金强面粉厂(石板厂),易县西邵康足鞋垫厂(王世清),北京地矿西邵村350KVA-C50,东庄村1#,易县裴山镇中心小学-采暖250,东庄村5#,南街村2#,李顺吉板厂,南街村9#,西邵村5#,尉都村8#,黄学军面粉厂,曲城村5#,东火山9#,东火山张建光石板厂,尉都中心小学800KVA,金利重质碳酸钙厂变压器,易县公安局尉都派出所50KVA,北京地矿西邵村350KVA-E50,北街村1#,变压器,孝村1#【纯农排变】,东火山村1#,北京地矿西邵村350KVA-D50,孝村3#【纯农排变】,东庄村11#,尉都村1#,东庄村7#,孝村塑料颗粒厂,西街4号变压器,曲城村2#,东火山村3#,东火山村2#,孝村4#,国英远哲农作物种植合作社80,裴山小光石材厂,供销社石材加工厂(张瑞江),东火山村6#,易县尉都易兴石子厂(500),曲城村4#【纯农排变】,东庄村3#【纯农排变】","poweroffReason":"【停电原因】由于线路检修导致３５ＫＶ裴山变电站沈村５１１线路全线路停电【变更送电】无【发布渠道】保定市易县电视台（５月１５日００：００时至５月２３日２４:００时之间）屏幕上方滚动","powerTime":"2020-05-24 17:52:19","powerComm":"已送电","subsNo":"","lineNo":"","tgNo":"","tgName":null,"infoStatus":"1","orgName":"国网易县供电公司","typeName":null,"infoStatusName":null,"dateDay":null,"orgNos":null,"nowTime":null,"countyName":null,"streetName":null,"villageName":null,"roadName":null,"communityName":null,"tranName":null,"sdLineName":null,"cityCode":"1340625","cityName":"国网易县供电公司","provinceCode":null,"stopTime":"2020-05-24 18:00:00","powerType":"全部","powerOffArea":"【全线路停电】停东庄村6#,南街村1#,东庄村13#,王志恒板厂,西街村3#,易县雷鸣土地整理服务有限公司-2号170112310818-100KVA,东庄村9#,0665049765-易县农村信用联社股份有限公司-专变-201072765-裴山信用社80KVA,南街村11#变压器,裴山供电所变压器,尉都村5#,尚晓东板厂,南街村3#,周占良,魏复兴板厂,东庄村12#,王术申养殖厂(板厂),尉都乡卫生院80KVA,东庄村2#【纯农排变】,裴山镇政府2号变压器,西邵村6#变压器,曲城村3#,马连平板厂,曲城村1#【纯农排变】,西街村1#,河北省易县曲城酒厂变压器,东庄村4#【纯农排变】,南街10#,南街村6#,西邵村3#,易县尉都腾达石材有限公司变压器001#,黄金庄村1#,东庄村8#,南庄村4#,孝村崔克林(农业),孝村2#,西邵村2#,西邵村4#,魏洪源,黄金庄村2#【纯农排变】,东霍山x英鞋垫厂(董红忠),裴山镇政府1#,北邵村9号变压器,西邵村1#,沙莲娜北变,沙莲娜南变,尉都村6#,北京地矿西邵村350KVA-A100,尉都乡政府1#,易县尉都腾达石材有限公司变压器,东火山村民委员会200,尉都中心小学变压器,东庄村10#,西邵面粉厂,曲城酒厂,修配厂,孝村5#,魏喜元板厂,灌渠,裴山粮库,北京地矿西邵村350KVA-B100,南庄面粉厂,李金强面粉厂(石板厂),易县西邵康足鞋垫厂(王世清),北京地矿西邵村350KVA-C50,东庄村1#,易县裴山镇中心小学-采暖250,东庄村5#,南街村2#,李顺吉板厂,南街村9#,西邵村5#,尉都村8#,黄学军面粉厂,曲城村5#,东火山9#,东火山张建光石板厂,尉都中心小学800KVA,金利重质碳酸钙厂变压器,易县公安局尉都派出所50KVA,北京地矿西邵村350KVA-E50,北街村1#,变压器,孝村1#【纯农排变】,东火山村1#,北京地矿西邵村350KVA-D50,孝村3#【纯农排变】,东庄村11#,尉都村1#,东庄村7#,孝村塑料颗粒厂,西街4号变压器,曲城村2#,东火山村3#,东火山村2#,孝村4#,国英远哲农作物种植合作社80,裴山小光石材厂,供销社石材加工厂(张瑞江),东火山村6#,易县尉都易兴石子厂(500),曲城村4#【纯农排变】,东庄村3#【纯农排变】","powerOffReason":"【停电原因】由于线路检修导致３５ＫＶ裴山变电站沈村５１１线路全线路停电【变更送电】无【发布渠道】保定市易县电视台（５月１５日００：００时至５月２３日２４:００时之间）屏幕上方滚动","powerOffId":"2020051313000208"},{"poweroffId":2020051313000205,"sgpoweroffId":null,"subsName":"","lineName":"10kV城西521线","pubTranName":"城厢24#公用配变,城厢28#公用配变,城厢30#公用配变,城厢34#公用配变,城厢35#公用配变,城厢37#公用配变,城厢39#公用配变中压出线间隔配电变压器,城厢40#配变,城厢45#中压出线配电变压器,城厢47#公用配变,城厢5#公用配变,城厢6#公用配变,第一山10#公用配变箱式变电站出线间隔配电变压器,第一山11号变压器,第一山12号变压器,第一山13号变压器,第一山14号变压器,城厢15号配变中压出线间隔配电变压器,第一山2#公用配变,","scope":"【影响街道/乡镇】城关镇 【影响客户】城厢村、城厢岗、万博山水城、天宇名园、大北沟、赵家沟、赵家沟城隍庙、福临阁小区、龙秀家园、大派山、幸福村、第一山、移民村、幸福家园、时代家园、鑫龙豪园、西门、中兴街、北街、南街、晨祥家园、福瑞家园、胡子沟、胡子沟口、胡子沟沟掌、大操场、茗清阁、阜中家属楼、府北家属楼、府北胡同、阜平中学、教育局、城厢小学、县政府、财政局、针织厂家属楼、南菜园、电影院、线务段家属楼、旧武装部、十字街、秀水街、邮政局、邮政局家属楼、五金家属楼、县社家属楼、县社、中医院、法院、旧县幼儿园、信访局、府前街、贵宾楼、公安局、五金公司、县社、国税局、信用社、南街、新华书店、君悦国际、粮局、粮局家属楼、木器厂家属楼、建筑设家属楼、水文站、环城路、交通局家属楼、交通局高层、新口味酒店、华世沣、气象局、气象局家属楼、二轻局家属楼、车队家属楼、印刷厂旧家属楼、印刷厂新家属楼、平安家园小区、征费站家属楼、校园小区、新百货家属楼、电视台、百货家属楼、生产院家属楼","startTime":"2020-05-13 15:30:53","stopDate":"2020-05-13 17:30:00","orgNo":"1340611","typeCode":"电网故障停限电","poweroffArea":"【全线路停电】停１１０ＫＶ阜平变电站１０ＫＶ城西５２１线路全线，城厢15号配变中压出线间隔配电变压器,城厢24#公用配变,城厢28#公用配变,城厢30#公用配变,城厢34#公用配变,城厢35#公用配变,城厢37#公用配变,城厢39#公用配变中压出线间隔配电变压器,城厢40#配变,城厢45#中压出线配电变压器,城厢47#公用配变,城厢5#公用配变,城厢6#公用配变,第一山10#公用配变箱式变电站出线间隔配电变压器,第一山11号变压器,第一山12号变压器,第一山13号变压器,第一山14号变压器,第一山2#公用配变","poweroffReason":"【停电原因】由于线路接地导致１１０ＫＶ阜平变电站１０ＫＶ城西５２１线路全线停电 【变更送电】无 【发布渠道】９５５９８","powerTime":"2020-05-13 17:14:47","powerComm":"已送电","subsNo":"","lineNo":"","tgNo":"","tgName":null,"infoStatus":"1","orgName":"国网阜平县供电公司","typeName":null,"infoStatusName":null,"dateDay":null,"orgNos":null,"nowTime":null,"countyName":null,"streetName":null,"villageName":null,"roadName":null,"communityName":null,"tranName":null,"sdLineName":null,"cityCode":"1340611","cityName":"国网阜平县供电公司","provinceCode":null,"stopTime":"2020-05-13 17:30:00","powerType":"全部","powerOffArea":"【全线路停电】停１１０ＫＶ阜平变电站１０ＫＶ城西５２１线路全线，城厢15号配变中压出线间隔配电变压器,城厢24#公用配变,城厢28#公用配变,城厢30#公用配变,城厢34#公用配变,城厢35#公用配变,城厢37#公用配变,城厢39#公用配变中压出线间隔配电变压器,城厢40#配变,城厢45#中压出线配电变压器,城厢47#公用配变,城厢5#公用配变,城厢6#公用配变,第一山10#公用配变箱式变电站出线间隔配电变压器,第一山11号变压器,第一山12号变压器,第一山13号变压器,第一山14号变压器,第一山2#公用配变","powerOffReason":"【停电原因】由于线路接地导致１１０ＫＶ阜平变电站１０ＫＶ城西５２１线路全线停电 【变更送电】无 【发布渠道】９５５９８","powerOffId":"2020051313000205"},{"poweroffId":2020051313000200,"sgpoweroffId":null,"subsName":"","lineName":"岗南线517","pubTranName":"大册村14#,大册村6#,大册村4#,大册24号,马厂1#（统管),马厂2#（统管）,大册14号,大册26号,大册村5#,大册村17#,","scope":"【影响街道/乡镇】大册营镇 【影响客户】马厂、大册村","startTime":"2020-05-15 06:00:00","stopDate":"2020-05-15 18:00:00","orgNo":"1340617","typeCode":"临时停电","poweroffArea":"【全线路停电】停１１０ＫＶ大册营变电站岗南线５１７线路全线大册村5#,大册村17#,大册村14#,大册村6#,大册村4#,大册24号,马厂1#（统管),马厂2#（统管）,大册14号,大册26号","poweroffReason":"【停电原因】由于线路检修导致１１０ＫＶ大册营变电站岗南线５１７线路全线停电 【变更送电】无 【发布渠道】通过９５５９８发布","powerTime":"2020-05-15 17:12:12","powerComm":"已送电","subsNo":"","lineNo":"","tgNo":"","tgName":null,"infoStatus":"1","orgName":"国网满城县供电公司","typeName":null,"infoStatusName":null,"dateDay":null,"orgNos":null,"nowTime":null,"countyName":null,"streetName":null,"villageName":null,"roadName":null,"communityName":null,"tranName":null,"sdLineName":null,"cityCode":"1340617","cityName":"国网满城县供电公司","provinceCode":null,"stopTime":"2020-05-15 18:00:00","powerType":"全部","powerOffArea":"【全线路停电】停１１０ＫＶ大册营变电站岗南线５１７线路全线大册村5#,大册村17#,大册村14#,大册村6#,大册村4#,大册24号,马厂1#（统管),马厂2#（统管）,大册14号,大册26号","powerOffReason":"【停电原因】由于线路检修导致１１０ＫＶ大册营变电站岗南线５１７线路全线停电 【变更送电】无 【发布渠道】通过９５５９８发布","powerOffId":"2020051313000200"}],"pageModel":{"pageNow":75,"totalCount":10973,"totalPage":1098,"tableRows":0,"pageCount":10,"beginCount":740},"isExperi":"1"}