{"message":"","today":"2020-06-15","seleList":[{"poweroffId":2019062213000029,"sgpoweroffId":null,"subsName":"","lineName":"10kV516后兴线","pubTranName":"西后兴2160农排|23002160【纯农排变】,田家台2810农排|23002810【纯农排变】,田家台-23003640|23003640,西后兴2110农排|23002110【纯农排变】,东后兴2370农排|23002370【纯农排变】,田家台2390农排|23002390【纯农排变】,西后兴2750农排|23002750【纯农排变】,张立军综合2470,东后兴2340农排|23002340【纯农排变】,北巷北村内新增综合5002,西后兴2140农排|23002140【纯农排变】,","scope":"【影响街道/乡镇】腰山镇【高危重要客户】无【影响客户】西后兴、东后兴、南巷北、北巷北、田家台","startTime":"2019-06-22 03:38:23","stopDate":"2019-06-22 07:30:00","orgNo":"1340621","typeCode":"电网故障停限电","poweroffArea":"【全线路停电】停田家台-23003640|23003640,西后兴2750农排|23002750【纯农排变】,张立军综合2470,田家台2810农排|23002810【纯农排变】,西后兴2110农排|23002110【纯农排变】,北巷北村内新增综合5002,西后兴2160农排|23002160【纯农排变】,东后兴2370农排|23002370【纯农排变】","poweroffReason":"【停电原因】由于树枝搭线自行脱落造成跳闸导致３５ＫＶ腰山变电站１０ＫＶ５１６后兴线路全线停电【变更送电】因抢修进度加快原因，送电时间由１２：００变更为０７：３０【发布渠道】通过９５５９８发布","powerTime":"2019-06-22 07:04:10","powerComm":"已送电","subsNo":"","lineNo":"","tgNo":"","tgName":null,"infoStatus":"1","orgName":"国网顺平县电力局","typeName":null,"infoStatusName":null,"dateDay":null,"orgNos":null,"nowTime":null,"countyName":null,"streetName":null,"villageName":null,"roadName":null,"communityName":null,"tranName":null,"sdLineName":null,"cityCode":"1340621","cityName":"国网顺平县电力局","provinceCode":null,"stopTime":"2019-06-22 07:30:00","powerType":"全部","powerOffArea":"【全线路停电】停田家台-23003640|23003640,西后兴2750农排|23002750【纯农排变】,张立军综合2470,田家台2810农排|23002810【纯农排变】,西后兴2110农排|23002110【纯农排变】,北巷北村内新增综合5002,西后兴2160农排|23002160【纯农排变】,东后兴2370农排|23002370【纯农排变】","powerOffReason":"【停电原因】由于树枝搭线自行脱落造成跳闸导致３５ＫＶ腰山变电站１０ＫＶ５１６后兴线路全线停电【变更送电】因抢修进度加快原因，送电时间由１２：００变更为０７：３０【发布渠道】通过９５５９８发布","powerOffId":"2019062213000029"},{"poweroffId":2019062213000015,"sgpoweroffId":null,"subsName":"","lineName":"邮电线513","pubTranName":"南太平庄排4【纯农排变】,八街排3【纯农排变】,北堽上排10【纯农排变】,国兴排10【纯农排变】,气象局-160,南堽上排3【纯农排变】,煦和商贸-250,刘启祥加工厂,保定百亨气体有限公司,北太平庄排8台区【纯农排变】,肖金庄排3【纯农排变】,河北省华智抽纱制品有限公司,北太平庄排3【纯农排变】,河北诚睿金属制品有限公司-250,新育村光1【2018年重过载】,南太平庄排3【纯农排变】,塑料颗粒厂,中国气象科学研究院-315,北太平庄光8,南太平庄排2【纯农排变】,合金铸造-250,0694659717-定兴县南太平庄幼儿园-专变-239106598-太平庄幼儿园,北堽上排17【纯农排变】,北堽上排12【纯农排变】,北太平庄光3【2018年节能变】,0616914021-河北诚睿金属制品有限公司-专变-128543321-诚睿金属800箱变,北堽上排13【纯农排变】,北太平庄排9台区【纯农排变】,新南太平庄光2,*保定兴安冶金设备有限公司1,北太平庄排7【纯农排变】,新育村光2【2018年重过载】,48农场公用,北庄构件厂,北太平庄光4,0692010543-固城镇北太平庄小学-专变-237286580-北太平庄小学-250,*保定东顺文教用品有限公司,北太平庄排4台区【纯农排变】,南太平庄光1,定兴县隆第格不锈钢铸品有限公司,南太平庄排5【纯农排变】,昌明公司(混),三里铺排【纯农排变】,新育村排1【纯农排变】,*移动公司北太平庄村西北机站,东江村排8【纯农排变】,62农厂,北堽上排14【纯农排变】,北太平庄排2【纯农排变】,南太平庄光4,兴安凤电400配变,南太平庄光3【2019年预安排】,北太平庄排6台区【纯农排变】,保定晟达涂装材料有限公司,定兴县合金锛造有限公司1,北太平庄排1【纯农排变】,北太平庄光7【2018年重过载】,北太平庄光5,南堽上排4【纯农排变】,北太平庄光1,北太平庄排5【纯农排变】,北堽上排11【纯农排变】,诚睿金属2-800,北太平庄光9【2018年四批补强】,定兴县固城镇太平铸钢厂,保定东顺文教用品有限公司100-2,鸿浠陶瓷-250,北太平庄光2【2018年节能变】,保定硕源水业有限公司,进发水泥构件厂-250,北太平庄光6,南堽上排5【纯农排变】,南堽上排2【纯农排变】,新育村排2【纯农排变】,南太平庄排1【纯农排变】,","scope":"【影响街道/乡镇】固城镇 【高危重要客户】无 【影响客户】北太平庄、南太平庄、新育村、熙和商贸、刘启祥加工厂、保定百亨气体有限公司、中国农业气象试验基地、华智抽纱制品有限公司、河北诚睿金属制品有限公司、塑料颗粒厂、南太平庄幼儿园、北罡上、定兴县隆第格不锈钢铸品有限公司、保定晟达涂装材料有限公司、定兴县合金锛造有限公司、定兴县固城镇太平铸钢厂、保定东顺文教用品有限公司保定硕源水业有限公司、进发水泥构件厂、北太平庄小学、移动公司北太平庄村西北机站、北罡砖厂","startTime":"2019-06-22 00:46:19","stopDate":"2019-06-22 05:00:00","orgNo":"1340609","typeCode":"电网故障停限电","poweroffArea":"【全线路停电】停南太平庄排4【纯农排变】,八街排3【纯农排变】,北堽上排10【纯农排变】,国兴排10【纯农排变】,气象局-160,南堽上排3【纯农排变】,煦和商贸-250,刘启祥加工厂,保定百亨气体有限公司,北太平庄排8台区【纯农排变】,肖金庄排3【纯农排变】,河北省华智抽纱制品有限公司,北太平庄排3【纯农排变】,河北诚睿金属制品有限公司-250,新育村光1【2018年重过载】,南太平庄排3【纯农排变】,塑料颗粒厂,中国气象科学研究院-315,北太平庄光8,南太平庄排2【纯农排变】,合金铸造-250,0694659717-定兴县南太平庄幼儿园-专变-239106598-太平庄幼儿园,北堽上排17【纯农排变】,北堽上排12【纯农排变】,北太平庄光3【2018年节能变】,0616914021-河北诚睿金属制品有限公司-专变-128543321-诚睿金属800箱变,北堽上排13【纯农排变】,北太平庄排9台区【纯农排变】,新南太平庄光2,*保定兴安冶金设备有限公司1,北太平庄排7【纯农排变】,新育村光2【2018年重过载】,48农场公用,北庄构件厂,北太平庄排4台区【纯农排变】,南太平庄光1,定兴县隆第格不锈钢铸品有限公司,南太平庄排5【纯农排变】,昌明公司(混),三里铺排【纯农排变】,新育村排1【纯农排变】,兴安凤电400配变,南太平庄光3【2019年预安排】,北太平庄排6台区【纯农排变】,保定晟达涂装材料有限公司,定兴县合金锛造有限公司1,北太平庄排1【纯农排变】,北太平庄光7【2018年重过载】,北太平庄光5,南堽上排4【纯农排变】,北太平庄光1,北太平庄排5【纯农排变】,北堽上排11【纯农排变】,诚睿金属2-800,北太平庄光9【2018年四批补强】,定兴县固城镇太平铸钢厂,保定东顺文教用品有限公司100-2,鸿浠陶瓷-250,北太平庄光2【2018年节能变】,保定硕源水业有限公司,进发水泥构件厂-250,北太平庄光6,南堽上排5【纯农排变】,南堽上排2【纯农排变】,新育村排2【纯农排变】,南太平庄排1【纯农排变】,北太平庄光4,0692010543-固城镇北太平庄小学-专变-237286580-北太平庄小学-250,*保定东顺文教用品有限公司,*移动公司北太平庄村西北机站,东江村排8【纯农排变】,62农厂,北堽上排14【纯农排变】,北太平庄排2【纯农排变】,南太平庄光4","poweroffReason":"【停电原因】由于东农５１２线出线穿墙套管设备线夹烧毁导致３５ＫＶ固城变电站邮电线５１３线路全线停电 【变更送电】无 【发布渠道】通过９５５９８发布","powerTime":"2019-06-22 04:46:10","powerComm":"已送电","subsNo":"","lineNo":"","tgNo":"","tgName":null,"infoStatus":"1","orgName":"国网定兴县供电公司","typeName":null,"infoStatusName":null,"dateDay":null,"orgNos":null,"nowTime":null,"countyName":null,"streetName":null,"villageName":null,"roadName":null,"communityName":null,"tranName":null,"sdLineName":null,"cityCode":"1340609","cityName":"国网定兴县供电公司","provinceCode":null,"stopTime":"2019-06-22 05:00:00","powerType":"全部","powerOffArea":"【全线路停电】停南太平庄排4【纯农排变】,八街排3【纯农排变】,北堽上排10【纯农排变】,国兴排10【纯农排变】,气象局-160,南堽上排3【纯农排变】,煦和商贸-250,刘启祥加工厂,保定百亨气体有限公司,北太平庄排8台区【纯农排变】,肖金庄排3【纯农排变】,河北省华智抽纱制品有限公司,北太平庄排3【纯农排变】,河北诚睿金属制品有限公司-250,新育村光1【2018年重过载】,南太平庄排3【纯农排变】,塑料颗粒厂,中国气象科学研究院-315,北太平庄光8,南太平庄排2【纯农排变】,合金铸造-250,0694659717-定兴县南太平庄幼儿园-专变-239106598-太平庄幼儿园,北堽上排17【纯农排变】,北堽上排12【纯农排变】,北太平庄光3【2018年节能变】,0616914021-河北诚睿金属制品有限公司-专变-128543321-诚睿金属800箱变,北堽上排13【纯农排变】,北太平庄排9台区【纯农排变】,新南太平庄光2,*保定兴安冶金设备有限公司1,北太平庄排7【纯农排变】,新育村光2【2018年重过载】,48农场公用,北庄构件厂,北太平庄排4台区【纯农排变】,南太平庄光1,定兴县隆第格不锈钢铸品有限公司,南太平庄排5【纯农排变】,昌明公司(混),三里铺排【纯农排变】,新育村排1【纯农排变】,兴安凤电400配变,南太平庄光3【2019年预安排】,北太平庄排6台区【纯农排变】,保定晟达涂装材料有限公司,定兴县合金锛造有限公司1,北太平庄排1【纯农排变】,北太平庄光7【2018年重过载】,北太平庄光5,南堽上排4【纯农排变】,北太平庄光1,北太平庄排5【纯农排变】,北堽上排11【纯农排变】,诚睿金属2-800,北太平庄光9【2018年四批补强】,定兴县固城镇太平铸钢厂,保定东顺文教用品有限公司100-2,鸿浠陶瓷-250,北太平庄光2【2018年节能变】,保定硕源水业有限公司,进发水泥构件厂-250,北太平庄光6,南堽上排5【纯农排变】,南堽上排2【纯农排变】,新育村排2【纯农排变】,南太平庄排1【纯农排变】,北太平庄光4,0692010543-固城镇北太平庄小学-专变-237286580-北太平庄小学-250,*保定东顺文教用品有限公司,*移动公司北太平庄村西北机站,东江村排8【纯农排变】,62农厂,北堽上排14【纯农排变】,北太平庄排2【纯农排变】,南太平庄光4","powerOffReason":"【停电原因】由于东农５１２线出线穿墙套管设备线夹烧毁导致３５ＫＶ固城变电站邮电线５１３线路全线停电 【变更送电】无 【发布渠道】通过９５５９８发布","powerOffId":"2019062213000015"},{"poweroffId":2019062213000010,"sgpoweroffId":null,"subsName":"","lineName":"铸造厂线511","pubTranName":"固城邮政支局（网通分户）,车站公用5【2018年节能变】,固城车站综合配变,车站公用4变压器【2018年第二批应急工程】,固城移动基站-50,八街排1【纯农排变】,定兴影视武校学校,为民修配门市部-80,固城供电所公用变压器1,双鹿肉食加工厂-80,新车站公用2,车站公用1【2018年节能变】,君合实业,网通（集团）定兴县分公司,君合实业有限公司-250,河北嘉信空调设备有限公司,精诚机械模具有限公司,华艺纸箱厂-80,固城镇政府配变,0469295085-中国移动通信集团河北有限公司保定分公司-专变-46772105-固城移动分公司,定兴亚通特耐有限公司,","scope":"【影响街道/乡镇】固城镇 【高危重要客户】无 【影响客户】固城镇政府、固城车站、影视武校学校、八街村部分用户、固城移动基站、为民修配门市部、固城供电所、双鹿肉食加工厂、君合实业、河北嘉信空调设备有限公司、精诚机械模具有限公司、华艺纸箱厂、定兴亚通特耐有限公司","startTime":"2019-06-22 00:38:46","stopDate":"2019-06-22 05:00:00","orgNo":"1340609","typeCode":"电网故障停限电","poweroffArea":"【全线路停电】停固城邮政支局（网通分户）,车站公用5【2018年节能变】,固城车站综合配变,车站公用4变压器【2018年第二批应急工程】,固城移动基站-50,八街排1【纯农排变】,定兴影视武校学校,为民修配门市部-80,固城供电所公用变压器1,双鹿肉食加工厂-80,新车站公用2,车站公用1【2018年节能变】,君合实业,网通（集团）定兴县分公司,君合实业有限公司-250,河北嘉信空调设备有限公司,精诚机械模具有限公司,华艺纸箱厂-80,固城镇政府配变,0469295085-中国移动通信集团河北有限公司保定分公司-专变-46772105-固城移动分公司,定兴亚通特耐有限公司","poweroffReason":"【停电原因】由于东农５１２线出线穿墙套管设备线夹烧毁导致３５ＫＶ固城变电站铸造厂线５１１线路全线停电 【变更送电】无 【发布渠道】通过９５５９８发布","powerTime":"2019-06-22 04:46:45","powerComm":"已送电","subsNo":"","lineNo":"","tgNo":"","tgName":null,"infoStatus":"1","orgName":"国网定兴县供电公司","typeName":null,"infoStatusName":null,"dateDay":null,"orgNos":null,"nowTime":null,"countyName":null,"streetName":null,"villageName":null,"roadName":null,"communityName":null,"tranName":null,"sdLineName":null,"cityCode":"1340609","cityName":"国网定兴县供电公司","provinceCode":null,"stopTime":"2019-06-22 05:00:00","powerType":"全部","powerOffArea":"【全线路停电】停固城邮政支局（网通分户）,车站公用5【2018年节能变】,固城车站综合配变,车站公用4变压器【2018年第二批应急工程】,固城移动基站-50,八街排1【纯农排变】,定兴影视武校学校,为民修配门市部-80,固城供电所公用变压器1,双鹿肉食加工厂-80,新车站公用2,车站公用1【2018年节能变】,君合实业,网通（集团）定兴县分公司,君合实业有限公司-250,河北嘉信空调设备有限公司,精诚机械模具有限公司,华艺纸箱厂-80,固城镇政府配变,0469295085-中国移动通信集团河北有限公司保定分公司-专变-46772105-固城移动分公司,定兴亚通特耐有限公司","powerOffReason":"【停电原因】由于东农５１２线出线穿墙套管设备线夹烧毁导致３５ＫＶ固城变电站铸造厂线５１１线路全线停电 【变更送电】无 【发布渠道】通过９５５９８发布","powerOffId":"2019062213000010"},{"poweroffId":2019062213000006,"sgpoweroffId":null,"subsName":"","lineName":"东农业线512","pubTranName":"保定诚信辊业有限公司3号变,北堽上光1【2018年节能变】,北罡排1【纯农排变】,定兴棉库,*北罡板厂,北堽上排5【2018年四批补强】,北堽上光9变压器【灾后重建】,北堽上村排3【纯农排变】,车站公用3【2018年重过载】,南堽上排1【纯农排变】,河北恒森商品混凝土制品有限公司-200,国兴排6【纯农排变】,变压器,北罡上光6,新北罡上光2,北堽上光10【2018年重过载】,鸿源废旧物资,定兴县佰丰农业技术服务有限公司,新北罡光8,国兴排9【纯农排变】,北罡混1,康成废旧物资回收-500,车站公用6变压器【2018年第二批应急工程】,北罡光4,北堽上光11【2018年重过载】,北堽上排7【纯农排变】,国兴排7【2018年四批补强】,国兴排2【纯农排变】,国兴排4【纯农排变】,北罡上光5,*保定盛业冷暖设备有限公司,北罡排2【纯农排变】,南堽上光3,国兴光9,北堽上光12,车站公用8,国兴光8,北罡上排9【纯农排变】,北堽上排6【纯农排变】,南堽上光5变压器,新南堽上光2,南堽上光4【2018年重过载】,北罡上混2,固城粮库,北堽上排7【2018年四批补强】,国兴纸箱厂,保定诚信辊业有限公司250-2,保定诚信辊业有限公司250-1,北堽上光3,追月星清真肉类加工厂,北堽上排8【纯农排变】,北罡排4【纯农排变】,盈辉-250,北堽上光13【2019年预安排】,新北罡光7,定兴县大洋渔饵厂200,国兴排5【2018年四批补强】,鑫友涂料-400,北罡排16【纯农排变】,追月星清真肉类加工厂-200,南堽上光1,八街排2【纯农排变】,国兴排1【纯农排变】,国兴排8【纯农排变】,国兴排3【纯农排变】,北罡上小学-400,富易高废旧物资-500,","scope":"【影响街道/乡镇】固城镇 【高危重要客户】无 【影响客户】南堽上、北堽上、国兴部分用户、固城车站部分用户、定兴县佰丰农业技术服务有限公司、保定盛业冷暖设备有限公司、固城粮库、定兴县通用机械厂、国兴纸箱厂、追月星清真肉类加工厂、北罡上小学、保定诚信辊业有限公司、定兴棉库、北罡板厂、河北恒森商品混凝土制品有限公司、鸿源废旧物资","startTime":"2019-06-22 00:27:18","stopDate":"2019-06-22 05:00:00","orgNo":"1340609","typeCode":"电网故障停限电","poweroffArea":"【全线路停电】停定兴县佰丰农业技术服务有限公司,新北罡光8,国兴排9【纯农排变】,北罡混1,康成废旧物资回收-500,车站公用6变压器【2018年第二批应急工程】,北罡光4,北堽上光11【2018年重过载】,北堽上排7【纯农排变】,国兴排7【2018年四批补强】,国兴排2【纯农排变】,国兴排4【纯农排变】,北罡上光5,*保定盛业冷暖设备有限公司,北罡排2【纯农排变】,南堽上光3,国兴光9,北堽上光12,车站公用8,国兴光8,北罡上排9【纯农排变】,北堽上排6【纯农排变】,南堽上光5变压器,新南堽上光2,南堽上光4【2018年重过载】,北罡上混2,固城粮库,北堽上排7【2018年四批补强】,国兴纸箱厂,保定诚信辊业有限公司250-2,保定诚信辊业有限公司250-1,北堽上光3,追月星清真肉类加工厂,北堽上排8【纯农排变】,北罡排4【纯农排变】,盈辉-250,北堽上光13【2019年预安排】,新北罡光7,定兴县大洋渔饵厂200,北罡上小学-400,国兴排5【2018年四批补强】,鑫友涂料-400,北罡排16【纯农排变】,追月星清真肉类加工厂-200,南堽上光1,八街排2【纯农排变】,国兴排1【纯农排变】,国兴排8【纯农排变】,国兴排3【纯农排变】,富易高废旧物资-500,保定诚信辊业有限公司3号变,北堽上光1【2018年节能变】,北罡排1【纯农排变】,定兴棉库,*北罡板厂,北堽上排5【2018年四批补强】,北堽上光9变压器【灾后重建】,北堽上村排3【纯农排变】,车站公用3【2018年重过载】,南堽上排1【纯农排变】,河北恒森商品混凝土制品有限公司-200,国兴排6【纯农排变】,变压器,北罡上光6,新北罡上光2,北堽上光10【2018年重过载】,鸿源废旧物资","poweroffReason":"【停电原因】由于东农５１２出线穿墙套管设备线夹烧毁导致３５ＫＶ固城变电站东农业线５１２线路全线停电 【变更送电】无 【发布渠道】通过９５５９８发布","powerTime":"2019-06-22 04:47:45","powerComm":"已送电","subsNo":"","lineNo":"","tgNo":"","tgName":null,"infoStatus":"1","orgName":"国网定兴县供电公司","typeName":null,"infoStatusName":null,"dateDay":null,"orgNos":null,"nowTime":null,"countyName":null,"streetName":null,"villageName":null,"roadName":null,"communityName":null,"tranName":null,"sdLineName":null,"cityCode":"1340609","cityName":"国网定兴县供电公司","provinceCode":null,"stopTime":"2019-06-22 05:00:00","powerType":"全部","powerOffArea":"【全线路停电】停定兴县佰丰农业技术服务有限公司,新北罡光8,国兴排9【纯农排变】,北罡混1,康成废旧物资回收-500,车站公用6变压器【2018年第二批应急工程】,北罡光4,北堽上光11【2018年重过载】,北堽上排7【纯农排变】,国兴排7【2018年四批补强】,国兴排2【纯农排变】,国兴排4【纯农排变】,北罡上光5,*保定盛业冷暖设备有限公司,北罡排2【纯农排变】,南堽上光3,国兴光9,北堽上光12,车站公用8,国兴光8,北罡上排9【纯农排变】,北堽上排6【纯农排变】,南堽上光5变压器,新南堽上光2,南堽上光4【2018年重过载】,北罡上混2,固城粮库,北堽上排7【2018年四批补强】,国兴纸箱厂,保定诚信辊业有限公司250-2,保定诚信辊业有限公司250-1,北堽上光3,追月星清真肉类加工厂,北堽上排8【纯农排变】,北罡排4【纯农排变】,盈辉-250,北堽上光13【2019年预安排】,新北罡光7,定兴县大洋渔饵厂200,北罡上小学-400,国兴排5【2018年四批补强】,鑫友涂料-400,北罡排16【纯农排变】,追月星清真肉类加工厂-200,南堽上光1,八街排2【纯农排变】,国兴排1【纯农排变】,国兴排8【纯农排变】,国兴排3【纯农排变】,富易高废旧物资-500,保定诚信辊业有限公司3号变,北堽上光1【2018年节能变】,北罡排1【纯农排变】,定兴棉库,*北罡板厂,北堽上排5【2018年四批补强】,北堽上光9变压器【灾后重建】,北堽上村排3【纯农排变】,车站公用3【2018年重过载】,南堽上排1【纯农排变】,河北恒森商品混凝土制品有限公司-200,国兴排6【纯农排变】,变压器,北罡上光6,新北罡上光2,北堽上光10【2018年重过载】,鸿源废旧物资","powerOffReason":"【停电原因】由于东农５１２出线穿墙套管设备线夹烧毁导致３５ＫＶ固城变电站东农业线５１２线路全线停电 【变更送电】无 【发布渠道】通过９５５９８发布","powerOffId":"2019062213000006"},{"poweroffId":2019062113000569,"sgpoweroffId":null,"subsName":"","lineName":"10kV543侯家店线","pubTranName":"王莽公用农业4台区【纯农排变】,王莽公用农业7台区【纯农排变】,王莽村,王莽公用农业1台区【纯农排变】,西王郝公用农业3台区【纯农排变】,东王郝,王莽公用农业6台区【纯农排变】,侯家店公用照明3台区,0660809669-定州市息冢镇侯家店村村民委员会-专变-195786368-定州市息冢镇侯家店村村民委员会变压器,侯家店公用农业6台区(8)【纯农排变】,王莽公用照明6台区,侯家店公用照明6台区,王莽公用农业5台区【纯农排变】,王莽村公用照明2台区(2),侯家店公用农业9台区(11)【纯农排变】,西王郝公用农业5台区【纯农排变】,西王郝村公用照明1台区(1),东王郝联村水厂,西王郝公用农业6台区【纯农排变】,侯家店公用农业2台区(4)【纯农排变】,王莽公用农业2台区【纯农排变】,西王郝公用农业8台区【纯农排变】,王莽公用农业8台区【纯农排变】,侯家店公用农业4台区(6)【纯农排变】,河北海平建材有限公司变压器,王莽公用农业10台区【纯农排变】,王莽公用照明3台区,定州市天恩建材有限公司变压器2,西王郝公用农业2台区【纯农排变】,客户投资_候家店村公用照明1台区(1),西王郝公用农业7台区【纯农排变】,0660821524-定州市息冢镇侯家店村村民委员会-专变-195786356-定州市息冢镇侯家店村村民委员会变压器,侯家店公用照明4台区,0660821784-定州市息冢镇侯家店村村民委员会-专变-195786378-定州市息冢镇侯家店村村民委员会变压器,西王郝公用农业4台【纯农排变】,王莽公用农业13台区【纯农排变】,侯家店公用农业5台区(7)【纯农排变】,定州市锦烁苗木基地变压器,侯家店公用农业11台区（1）,侯家店公用农业7台区(9)【纯农排变】,东王郝村公用农业2台区(6)【纯农排变】,西王郝公用照明4台区,王莽公用农业12台区【纯农排变】,0660825959-定州市息冢镇侯家店村村民委员会-专变-197237038-定州市息冢镇侯家店村村民委员会变压器,侯家店公用农业8台区(10)【纯农排变】,侯家店公用照明5台区,侯家店公用农业1台区(3)【纯农排变】,西王郝公用照明3台区,王莽公用照明4台区,0666393414-定州市天恩建材有限公司-专变-204484783-定州市天恩建材有限公司变压器,定州市博达物资有限公司变压器,定州市添旺养殖有限公司变压器,王莽公用农业11台区【纯农排变】,东王郝村公用农业3台区(7)【纯农排变】,王莽公用农业9台区【纯农排变】,王莽公用照明5台区,西王郝公用农业1台区【纯农排变】,王莽村公用照明1台区(1),候家店村公用照明2台区(2),侯家店公用农业3台区(5)【纯农排变】,王莽公用农业3台区【纯农排变】,定州市冠农农产品专业合作社变压器,西王郝村公用照明2台区(3),","scope":"【影响街道/乡镇】息仲镇【高危重要客户】无【影响客户】侯家店、王莽、西王郝、东王郝村南","startTime":"2019-06-23 04:50:00","stopDate":"2019-06-23 17:00:00","orgNo":"1340610","typeCode":"临时停电","poweroffArea":"【全线路停电】停王莽公用农业4台区【纯农排变】,王莽公用农业7台区【纯农排变】,王莽村,王莽公用农业1台区【纯农排变】,西王郝公用农业3台区【纯农排变】,东王郝,王莽公用农业6台区【纯农排变】,侯家店公用照明3台区,0660809669-定州市息冢镇侯家店村村民委员会-专变-195786368-定州市息冢镇侯家店村村民委员会变压器,侯家店公用农业6台区(8)【纯农排变】,王莽公用照明6台区,侯家店公用照明6台区,王莽公用农业5台区【纯农排变】,王莽村公用照明2台区(2),侯家店公用农业9台区(11)【纯农排变】,西王郝公用农业5台区【纯农排变】,西王郝村公用照明1台区(1),东王郝联村水厂,西王郝公用农业6台区【纯农排变】,侯家店公用农业2台区(4)【纯农排变】,王莽公用农业2台区【纯农排变】,西王郝公用农业8台区【纯农排变】,王莽公用农业8台区【纯农排变】,侯家店公用农业4台区(6)【纯农排变】,河北海平建材有限公司变压器,王莽公用农业10台区【纯农排变】,王莽公用照明3台区,定州市天恩建材有限公司变压器2,西王郝公用农业2台区【纯农排变】,客户投资_候家店村公用照明1台区(1),西王郝公用农业7台区【纯农排变】,0660821524-定州市息冢镇侯家店村村民委员会-专变-195786356-定州市息冢镇侯家店村村民委员会变压器,侯家店公用照明4台区,0660821784-定州市息冢镇侯家店村村民委员会-专变-195786378-定州市息冢镇侯家店村村民委员会变压器,西王郝公用农业4台【纯农排变】,王莽公用农业13台区【纯农排变】,侯家店公用农业5台区(7)【纯农排变】,定州市锦烁苗木基地变压器,侯家店公用农业11台区（1）,侯家店公用农业7台区(9)【纯农排变】,东王郝村公用农业2台区(6)【纯农排变】,西王郝公用照明4台区,王莽公用农业12台区【纯农排变】,0660825959-定州市息冢镇侯家店村村民委员会-专变-197237038-定州市息冢镇侯家店村村民委员会变压器,侯家店公用农业8台区(10)【纯农排变】,侯家店公用照明5台区,侯家店公用农业1台区(3)【纯农排变】,西王郝公用照明3台区,王莽公用照明4台区,0666393414-定州市天恩建材有限公司-专变-204484783-定州市天恩建材有限公司变压器,定州市博达物资有限公司变压器,定州市添旺养殖有限公司变压器,王莽公用农业11台区【纯农排变】,东王郝村公用农业3台区(7)【纯农排变】,王莽公用农业9台区【纯农排变】,王莽公用照明5台区,西王郝公用农业1台区【纯农排变】,王莽村公用照明1台区(1),候家店村公用照明2台区(2),侯家店公用农业3台区(5)【纯农排变】,王莽公用农业3台区【纯农排变】,定州市冠农农产品专业合作社变压器,西王郝村公用照明2台区(3)","poweroffReason":"【停电原因】由于新架导线导致１１０ＫＶ庞村变电站１０ＫＶ５４３侯家店线路全线停电 【变更送电】无 【发布渠道】９５５９８","powerTime":"2019-06-23 16:55:44","powerComm":"已送电","subsNo":"","lineNo":"","tgNo":"","tgName":null,"infoStatus":"1","orgName":"国网定州市供电公司","typeName":null,"infoStatusName":null,"dateDay":null,"orgNos":null,"nowTime":null,"countyName":null,"streetName":null,"villageName":null,"roadName":null,"communityName":null,"tranName":null,"sdLineName":null,"cityCode":"1340610","cityName":"国网定州市供电公司","provinceCode":null,"stopTime":"2019-06-23 17:00:00","powerType":"全部","powerOffArea":"【全线路停电】停王莽公用农业4台区【纯农排变】,王莽公用农业7台区【纯农排变】,王莽村,王莽公用农业1台区【纯农排变】,西王郝公用农业3台区【纯农排变】,东王郝,王莽公用农业6台区【纯农排变】,侯家店公用照明3台区,0660809669-定州市息冢镇侯家店村村民委员会-专变-195786368-定州市息冢镇侯家店村村民委员会变压器,侯家店公用农业6台区(8)【纯农排变】,王莽公用照明6台区,侯家店公用照明6台区,王莽公用农业5台区【纯农排变】,王莽村公用照明2台区(2),侯家店公用农业9台区(11)【纯农排变】,西王郝公用农业5台区【纯农排变】,西王郝村公用照明1台区(1),东王郝联村水厂,西王郝公用农业6台区【纯农排变】,侯家店公用农业2台区(4)【纯农排变】,王莽公用农业2台区【纯农排变】,西王郝公用农业8台区【纯农排变】,王莽公用农业8台区【纯农排变】,侯家店公用农业4台区(6)【纯农排变】,河北海平建材有限公司变压器,王莽公用农业10台区【纯农排变】,王莽公用照明3台区,定州市天恩建材有限公司变压器2,西王郝公用农业2台区【纯农排变】,客户投资_候家店村公用照明1台区(1),西王郝公用农业7台区【纯农排变】,0660821524-定州市息冢镇侯家店村村民委员会-专变-195786356-定州市息冢镇侯家店村村民委员会变压器,侯家店公用照明4台区,0660821784-定州市息冢镇侯家店村村民委员会-专变-195786378-定州市息冢镇侯家店村村民委员会变压器,西王郝公用农业4台【纯农排变】,王莽公用农业13台区【纯农排变】,侯家店公用农业5台区(7)【纯农排变】,定州市锦烁苗木基地变压器,侯家店公用农业11台区（1）,侯家店公用农业7台区(9)【纯农排变】,东王郝村公用农业2台区(6)【纯农排变】,西王郝公用照明4台区,王莽公用农业12台区【纯农排变】,0660825959-定州市息冢镇侯家店村村民委员会-专变-197237038-定州市息冢镇侯家店村村民委员会变压器,侯家店公用农业8台区(10)【纯农排变】,侯家店公用照明5台区,侯家店公用农业1台区(3)【纯农排变】,西王郝公用照明3台区,王莽公用照明4台区,0666393414-定州市天恩建材有限公司-专变-204484783-定州市天恩建材有限公司变压器,定州市博达物资有限公司变压器,定州市添旺养殖有限公司变压器,王莽公用农业11台区【纯农排变】,东王郝村公用农业3台区(7)【纯农排变】,王莽公用农业9台区【纯农排变】,王莽公用照明5台区,西王郝公用农业1台区【纯农排变】,王莽村公用照明1台区(1),候家店村公用照明2台区(2),侯家店公用农业3台区(5)【纯农排变】,王莽公用农业3台区【纯农排变】,定州市冠农农产品专业合作社变压器,西王郝村公用照明2台区(3)","powerOffReason":"【停电原因】由于新架导线导致１１０ＫＶ庞村变电站１０ＫＶ５４３侯家店线路全线停电 【变更送电】无 【发布渠道】９５５９８","powerOffId":"2019062113000569"},{"poweroffId":2019062113000567,"sgpoweroffId":null,"subsName":"","lineName":"10kV552庞村线","pubTranName":"庞村公用照明2台区(2),庞村鞣剂厂,贾村公用农业21台区【纯农排变】,庞村公用照明6台区配变,贾村公用农业20台区【纯农排变】,庞村公用农业11台区【纯农排变】,庞村公用照明4台区(4),贾村公用农业22台区【纯农排变】,0387407733-定州市宏源防腐设备有限公司-专变-45258520-定州市宏源橡胶有限公司,庞村公用农业14台区【纯农排变】,庞村公用照明7台区,庞村公用农业10台区【纯农排变】,庞村公用照明5台区(5),庞村公用农业12台区【纯农排变】,庞村公用照明8台区,庞村公用照明1台区(1),庞村公用照明3台区(3),庞村公用农业37台区【纯农排变】,贾村公用农业23台区【纯农排变】,贾村公用农业24台区【纯农排变】,庞村公用照明9台区,庞村公用农业13台区【纯农排变】,庞村公用照明10台区,","scope":"【影响街道/乡镇】息仲镇【高危重要客户】无【影响客户】庞村","startTime":"2019-06-23 04:50:00","stopDate":"2019-06-23 17:00:00","orgNo":"1340610","typeCode":"临时停电","poweroffArea":"【全线路停电】停贾村公用农业24台区【纯农排变】,庞村公用照明9台区,庞村公用农业13台区【纯农排变】,庞村公用照明10台区,庞村公用照明2台区(2),庞村鞣剂厂,贾村公用农业21台区【纯农排变】,庞村公用照明6台区配变,贾村公用农业20台区【纯农排变】,庞村公用农业11台区【纯农排变】,庞村公用照明4台区(4),贾村公用农业22台区【纯农排变】,0387407733-定州市宏源防腐设备有限公司-专变-45258520-定州市宏源橡胶有限公司,庞村公用农业14台区【纯农排变】,庞村公用照明7台区,庞村公用农业10台区【纯农排变】,庞村公用照明5台区(5),庞村公用农业12台区【纯农排变】,庞村公用照明8台区,庞村公用照明1台区(1),庞村公用照明3台区(3),庞村公用农业37台区【纯农排变】,贾村公用农业23台区【纯农排变】","poweroffReason":"【停电原因】由于新架导线导致１１０ＫＶ庞村变电站１０ＫＶ５５２庞村线路全线停电 【变更送电】无 【发布渠道】９５５９８","powerTime":"2019-06-23 16:55:08","powerComm":"已送电","subsNo":"","lineNo":"","tgNo":"","tgName":null,"infoStatus":"1","orgName":"国网定州市供电公司","typeName":null,"infoStatusName":null,"dateDay":null,"orgNos":null,"nowTime":null,"countyName":null,"streetName":null,"villageName":null,"roadName":null,"communityName":null,"tranName":null,"sdLineName":null,"cityCode":"1340610","cityName":"国网定州市供电公司","provinceCode":null,"stopTime":"2019-06-23 17:00:00","powerType":"全部","powerOffArea":"【全线路停电】停贾村公用农业24台区【纯农排变】,庞村公用照明9台区,庞村公用农业13台区【纯农排变】,庞村公用照明10台区,庞村公用照明2台区(2),庞村鞣剂厂,贾村公用农业21台区【纯农排变】,庞村公用照明6台区配变,贾村公用农业20台区【纯农排变】,庞村公用农业11台区【纯农排变】,庞村公用照明4台区(4),贾村公用农业22台区【纯农排变】,0387407733-定州市宏源防腐设备有限公司-专变-45258520-定州市宏源橡胶有限公司,庞村公用农业14台区【纯农排变】,庞村公用照明7台区,庞村公用农业10台区【纯农排变】,庞村公用照明5台区(5),庞村公用农业12台区【纯农排变】,庞村公用照明8台区,庞村公用照明1台区(1),庞村公用照明3台区(3),庞村公用农业37台区【纯农排变】,贾村公用农业23台区【纯农排变】","powerOffReason":"【停电原因】由于新架导线导致１１０ＫＶ庞村变电站１０ＫＶ５５２庞村线路全线停电 【变更送电】无 【发布渠道】９５５９８","powerOffId":"2019062113000567"},{"poweroffId":2019062113000564,"sgpoweroffId":null,"subsName":"","lineName":"10kV521良村线","pubTranName":"油味村公用照明9台区,良村公用照明8台区,良村公用农业8台区【纯农排变】,保合庄公用照明1台区,良村公用农业9台区【纯农排变】,南木楼公用农业8台区【纯农排变】,南木楼公用农业10台区【纯农排变】,南木楼村公用照明3台区,油味村公用照明6台区,油味公用照明22台区,良村公用农业15台区【纯农排变】,良村庄公用照明4台区,益合庄公用农业4台区【纯农排变】,南木楼公用照明7台区,北木楼公用农业6台区【纯农排变】,良村公用农业19台区【纯农排变】,益合庄公用农业2台区【纯农排变】,河北利顺肥料有限公司变压器,南木楼公用农业9台区【纯农排变】,北木楼公用农业5台区【纯农排变】,南木楼公用农业5台区【纯农排变】,良村庄公用照明3台区,南木楼面粉厂,益合庄公用农业5台区【纯农排变】,良村公用农业12台区【纯农排变】,南木楼村公用照明4台区,良村公用农业11台区【纯农排变】,良村公用农业13台区【纯农排变】,北木楼公用照明1台区,油味公用照明20台区,定州市邢邑镇良村庄村民委员会变压器,北木楼公用农业8台区【纯农排变】,北木楼公用农业1台区【纯农排变】,良村公用照明3台区,定州市克瑞特木业有限公司,油味村公用照明8台区,保合庄公用照明2台区,南木楼公用农业11台区【纯农排变】,保合庄公用农业1台区【纯农排变】,良村公用农业22台区【纯农排变】,良村公用照明5台区,良村公用农业2台区【纯农排变】,良村公用农业21台区【纯农排变】,八家庄公用农业5台区【纯农排变】,油味村公用照明4台区,油味公用照明15台区,南木楼公用农业2台区,定州市李亲顾镇人民政府（水厂）变压器,南木楼公用农业12台区【纯农排变】,八家庄公用农业2台区【纯农排变】,良村公用农业5台区【纯农排变】,良村公用农业29台区【纯农排变】,良村公用农业25台区【纯农排变】,李辛庄公用农业13台区【纯农排变】,南木楼公用农业4台区【纯农排变】,良村公用照明2台区,良村公用农业23台区【纯农排变】,油味村公用照明10台区,良村公用照明6台区,南木楼公用农业7台区【纯农排变】,油味村公用照明7台区,南木楼公用农业3台区【纯农排变】,油味公用照明18台区,益合庄公用照明1台区,油味公用农业2台区【纯农排变】,油味公用农业7台区【纯农排变】,北木楼公用照明3台区,益合庄公用农业6台区【纯农排变】,客户投资_北木楼公用照明2台区,益合庄公用农业3台区【纯农排变】,油味公用照明23台区,益合庄公用农业1台区【纯农排变】,0387400644-八中-专变-45254387-八中,良村公用农业30台区【纯农排变】,杨木农场,良村庄公用照明5台区,苗圃厂,北木楼公用照明4台区,良村庄村东,油味公用农业6台区【纯农排变】,定州市明阳机械厂,油味村公用照明1台区,油味公用农业1台区【纯农排变】,八家庄公用照明1台区,定州市邢邑镇保合庄村村民委员会变压器,八家庄公用农业3台区【纯农排变】,良村公用照明1台区,南木楼公用照明5台区,油味公用农业4台区【纯农排变】,良村庄村中,良村公用农业24台区【纯农排变】,良村公用农业7台区【纯农排变】,良村庄村北,良村公用照明4台区,北木楼公用照明6台区,良村公用农","scope":"【影响街道/乡镇】李亲顾镇【高危重要客户】无【影响客户】八家庄、保和庄、益合庄、良村、良村庄、南木楼、北木楼、油味","startTime":"2019-06-23 04:40:00","stopDate":"2019-06-23 17:00:00","orgNo":"1340610","typeCode":"临时停电","poweroffArea":"【全线路停电】停良村公用农业11台区【纯农排变】,良村公用农业13台区【纯农排变】,北木楼公用照明1台区,油味公用照明20台区,定州市邢邑镇良村庄村民委员会变压器,北木楼公用农业8台区,,良村公用照明3台区,益合庄公用农业5台区【纯农排变】,油味村公用照明9台区,良村公用照明8台区,良村公用农业8台区【纯农排变】,保合庄公用照明1台区,良村公用农业9台区,南木楼公用农业8台区,南木楼公用农业10台区【纯农排变】,南木楼村公用照明3台区,油味村公用照明6台区,油味公用照明22台区,良村公用农业15台区【纯农排变】,良村庄公用照明4台区,益合庄公用农业4台区【纯农排变】,南木楼公用照明7台区,,良村公用农业19台区【纯农排变】,益合庄公用农业2台区【纯农排变】,河北利顺肥料有限公司变压器,南木楼公用农业9台区【纯农排变】,北木楼公用农业5台区【纯农排变】,南木楼公用农业5台区【纯农排变】,良村庄公用照明3台区,南木楼面粉厂,良村公用农业12台区【纯农排变】,南木楼村公用照明4台区,良村公用照明7台区,良村公用农业3台区【纯农排变】,良村庄公用照明1台区,良村公用农业6台区【纯农排变】,良村庄北,良村公用农业18台区【纯农排变】,油味公用照明17台区,良村公用农业26台区【纯农排变】,油味公用农业5台区【纯农排变】,油味公用照明24台区,油味村公用照明5台区,益合庄公用照明2台区,南木楼公用农业16台区【纯农排变】,良村公用农业17台区【纯农排变】,北木楼公用农业2台区【纯农排变】,南木楼果园,北木楼公用农业4台区【纯农排变】,南木楼公用农业14台区【纯农排变】,良村公用农业10台区【纯农排变】,太平庄公用农业4台区【纯农排变】,李亲顾猪场,良村公用农业28台区【纯农排变】,北木楼公用照明5台区,八家庄公用农业4台区【纯农排变】,南木楼村公用照明1台区,八家庄公用照明2台区,南木楼公用照明6台区,良村庄公用照明2台区,油味公用照明19台区,油味村公用照明11台区,油味公用照明12台区,李亲顾菜场变压器,良村公用照明10台区,南木楼公用照明8台区,南木楼公用农业13台区【纯农排变】,油味公用照明13台区,油味公用农业3台区【纯农排变】,油味村公用照明14台区,油味公用照明16台区,油味村公用照明2台区,良村公用农业16台区【纯农排变】,油味村公用照明3台区,良村庄公用照明5台区,定州市克瑞特木业有限公司,油味村公用照明8台区,保合庄公用照明2台区,南木楼公用农业11台区【纯农排变】,保合庄公用农业1台区【纯农排变】,良村公用农业22台区【纯农排变】,良村公用照明5台区,良村公用农业2台区【纯农排变】,良村公用农业21台区【纯农排变】,八家庄公用农业5台区【纯农排变】,油味村公用照明4台区,油味公用照明15台区,南木楼公用农业2台区,定州市李亲顾镇人民政府（水厂）变压器,南木楼公用农业12台区【纯农排变】,八家庄公用农业2台区【纯农排变】,良村公用农业5台区【纯农排变】,良村公用农业29台区【纯农排变】,良村公用农业25台区【纯农排变】,李辛庄公用农业13台区【纯农排变】,南木楼公用农业4台区【纯农排变】,良村公用照明2台区,良村公用农业23台区【纯农排变】,油味村公用照明10台区,良村公用照明6台区,南木楼公用农业7台区【纯农排变】,油味村公用照明7台区,南木楼公用农业3台区【纯农排变】,油味公用照明18台区,益合庄公用照明1台区,油味公用农业2台区【纯农排变】,油味公用农业7台区【纯农排变】,北木楼公用照明3台区,益合庄公用农业6台区【纯农排变】,","poweroffReason":"【停电原因】由于线路倒切导致１１０ＫＶ李亲顾变电站１０ＫＶ５２１良村线路全线停电 【变更送电】无 【发布渠道】９５５９８","powerTime":"2019-06-23 16:55:25","powerComm":"已送电","subsNo":"","lineNo":"","tgNo":"","tgName":null,"infoStatus":"1","orgName":"国网定州市供电公司","typeName":null,"infoStatusName":null,"dateDay":null,"orgNos":null,"nowTime":null,"countyName":null,"streetName":null,"villageName":null,"roadName":null,"communityName":null,"tranName":null,"sdLineName":null,"cityCode":"1340610","cityName":"国网定州市供电公司","provinceCode":null,"stopTime":"2019-06-23 17:00:00","powerType":"全部","powerOffArea":"【全线路停电】停良村公用农业11台区【纯农排变】,良村公用农业13台区【纯农排变】,北木楼公用照明1台区,油味公用照明20台区,定州市邢邑镇良村庄村民委员会变压器,北木楼公用农业8台区,,良村公用照明3台区,益合庄公用农业5台区【纯农排变】,油味村公用照明9台区,良村公用照明8台区,良村公用农业8台区【纯农排变】,保合庄公用照明1台区,良村公用农业9台区,南木楼公用农业8台区,南木楼公用农业10台区【纯农排变】,南木楼村公用照明3台区,油味村公用照明6台区,油味公用照明22台区,良村公用农业15台区【纯农排变】,良村庄公用照明4台区,益合庄公用农业4台区【纯农排变】,南木楼公用照明7台区,,良村公用农业19台区【纯农排变】,益合庄公用农业2台区【纯农排变】,河北利顺肥料有限公司变压器,南木楼公用农业9台区【纯农排变】,北木楼公用农业5台区【纯农排变】,南木楼公用农业5台区【纯农排变】,良村庄公用照明3台区,南木楼面粉厂,良村公用农业12台区【纯农排变】,南木楼村公用照明4台区,良村公用照明7台区,良村公用农业3台区【纯农排变】,良村庄公用照明1台区,良村公用农业6台区【纯农排变】,良村庄北,良村公用农业18台区【纯农排变】,油味公用照明17台区,良村公用农业26台区【纯农排变】,油味公用农业5台区【纯农排变】,油味公用照明24台区,油味村公用照明5台区,益合庄公用照明2台区,南木楼公用农业16台区【纯农排变】,良村公用农业17台区【纯农排变】,北木楼公用农业2台区【纯农排变】,南木楼果园,北木楼公用农业4台区【纯农排变】,南木楼公用农业14台区【纯农排变】,良村公用农业10台区【纯农排变】,太平庄公用农业4台区【纯农排变】,李亲顾猪场,良村公用农业28台区【纯农排变】,北木楼公用照明5台区,八家庄公用农业4台区【纯农排变】,南木楼村公用照明1台区,八家庄公用照明2台区,南木楼公用照明6台区,良村庄公用照明2台区,油味公用照明19台区,油味村公用照明11台区,油味公用照明12台区,李亲顾菜场变压器,良村公用照明10台区,南木楼公用照明8台区,南木楼公用农业13台区【纯农排变】,油味公用照明13台区,油味公用农业3台区【纯农排变】,油味村公用照明14台区,油味公用照明16台区,油味村公用照明2台区,良村公用农业16台区【纯农排变】,油味村公用照明3台区,良村庄公用照明5台区,定州市克瑞特木业有限公司,油味村公用照明8台区,保合庄公用照明2台区,南木楼公用农业11台区【纯农排变】,保合庄公用农业1台区【纯农排变】,良村公用农业22台区【纯农排变】,良村公用照明5台区,良村公用农业2台区【纯农排变】,良村公用农业21台区【纯农排变】,八家庄公用农业5台区【纯农排变】,油味村公用照明4台区,油味公用照明15台区,南木楼公用农业2台区,定州市李亲顾镇人民政府（水厂）变压器,南木楼公用农业12台区【纯农排变】,八家庄公用农业2台区【纯农排变】,良村公用农业5台区【纯农排变】,良村公用农业29台区【纯农排变】,良村公用农业25台区【纯农排变】,李辛庄公用农业13台区【纯农排变】,南木楼公用农业4台区【纯农排变】,良村公用照明2台区,良村公用农业23台区【纯农排变】,油味村公用照明10台区,良村公用照明6台区,南木楼公用农业7台区【纯农排变】,油味村公用照明7台区,南木楼公用农业3台区【纯农排变】,油味公用照明18台区,益合庄公用照明1台区,油味公用农业2台区【纯农排变】,油味公用农业7台区【纯农排变】,北木楼公用照明3台区,益合庄公用农业6台区【纯农排变】,","powerOffReason":"【停电原因】由于线路倒切导致１１０ＫＶ李亲顾变电站１０ＫＶ５２１良村线路全线停电 【变更送电】无 【发布渠道】９５５９８","powerOffId":"2019062113000564"},{"poweroffId":2019062113000519,"sgpoweroffId":null,"subsName":"","lineName":"刘庄线518","pubTranName":"辘轳把东,","scope":"【影响街道/乡镇】白沟镇 【高危重要客户】无 【影响客户】辘轳把村","startTime":"2019-06-22 07:00:00","stopDate":"2019-06-22 19:00:00","orgNo":"1340612","typeCode":"其他临时停电","poweroffArea":"【单台区停电】停辘轳把东","poweroffReason":"【停电原因】由于低压线路改造导致１１０ＫＶ白沟变电站１０ＫＶ刘庄５１８线路辘轳把东公变台区停电 【变更送电】无 【发布渠道】通过９５５９８发布","powerTime":"2019-06-22 18:52:04","powerComm":"已送电","subsNo":"","lineNo":"","tgNo":"","tgName":null,"infoStatus":"1","orgName":"国网高碑店市供电公司","typeName":null,"infoStatusName":null,"dateDay":null,"orgNos":null,"nowTime":null,"countyName":null,"streetName":null,"villageName":null,"roadName":null,"communityName":null,"tranName":null,"sdLineName":null,"cityCode":"1340612","cityName":"国网高碑店市供电公司","provinceCode":null,"stopTime":"2019-06-22 19:00:00","powerType":"全部","powerOffArea":"【单台区停电】停辘轳把东","powerOffReason":"【停电原因】由于低压线路改造导致１１０ＫＶ白沟变电站１０ＫＶ刘庄５１８线路辘轳把东公变台区停电 【变更送电】无 【发布渠道】通过９５５９８发布","powerOffId":"2019062113000519"},{"poweroffId":2019062113000515,"sgpoweroffId":null,"subsName":"","lineName":"10kV514荆邱线","pubTranName":"南玉田农排9台区【纯农排变】,荆邱综合7台区变压器,南玉田农排4台区【纯农排变】,南玉田农排1台区【纯农排变】,0469433151-南玉砖厂-专变-46810265-南玉砖厂,南玉田农排2台区【纯农排变】,南玉田农排5台区【纯农排变】,南玉田农排3台区【纯农排变】,南玉砖厂二号,","scope":"【影响街道/乡镇】大百尺镇【高危重要客户】无【影响客户】荆邱村","startTime":"2019-06-22 06:00:00","stopDate":"2019-06-22 12:30:00","orgNo":"1340616","typeCode":"其他临时停电","poweroffArea":"【全线路停电】停南玉田农排9台区【纯农排变】,荆邱综合7台区变压器,南玉田农排4台区【纯农排变】,南玉田农排1台区【纯农排变】,0469433151-南玉砖厂-专变-46810265-南玉砖厂,南玉田农排2台区【纯农排变】,南玉田农排5台区【纯农排变】,南玉田农排3台区【纯农排变】,南玉砖厂二号","poweroffReason":"【停电原因】由于线路严重缺陷，需停电进行紧急消缺导致３５ＫＶ握纽庄变电站１０ＫＶ荆邱５１４线路全线停电【变更送电】因工作进度加快原因，送电时间由１６：００变更为１２：３０【发布渠道】通过９５５９８发布","powerTime":"2019-06-22 11:48:52","powerComm":"已送电","subsNo":"","lineNo":"","tgNo":"","tgName":null,"infoStatus":"1","orgName":"国网蠡县供电公司","typeName":null,"infoStatusName":null,"dateDay":null,"orgNos":null,"nowTime":null,"countyName":null,"streetName":null,"villageName":null,"roadName":null,"communityName":null,"tranName":null,"sdLineName":null,"cityCode":"1340616","cityName":"国网蠡县供电公司","provinceCode":null,"stopTime":"2019-06-22 12:30:00","powerType":"全部","powerOffArea":"【全线路停电】停南玉田农排9台区【纯农排变】,荆邱综合7台区变压器,南玉田农排4台区【纯农排变】,南玉田农排1台区【纯农排变】,0469433151-南玉砖厂-专变-46810265-南玉砖厂,南玉田农排2台区【纯农排变】,南玉田农排5台区【纯农排变】,南玉田农排3台区【纯农排变】,南玉砖厂二号","powerOffReason":"【停电原因】由于线路严重缺陷，需停电进行紧急消缺导致３５ＫＶ握纽庄变电站１０ＫＶ荆邱５１４线路全线停电【变更送电】因工作进度加快原因，送电时间由１６：００变更为１２：３０【发布渠道】通过９５５９８发布","powerOffId":"2019062113000515"},{"poweroffId":2019062113000473,"sgpoweroffId":null,"subsName":"","lineName":"10kV上车亭526","pubTranName":"西租村内变压器,保定众邦塑料薄膜加工有限公司新增变压器,西租村西北,西租村南台区,西租村南1号井【纯农排变】,东租机井1【纯农排变】,安家洼北台区,东租大棚,东租小学,北西租021-1|0560,西租村西变压器,东租村内台区变压器,93577部队1,配变,安家洼村配变,中国人民解放军93567部队630KVA专变,93577部队,东租村东井变压器【纯农排变】,66382部队（教导队）变压器200,闫广军,北西租022-1,","scope":"【影响街道/乡镇】东文山乡 【高危重要客户】无 【影响客户】西租村西、北西租村、安家洼村、东租村砖厂","startTime":"2019-07-05 05:00:00","stopDate":"2019-07-05 18:00:00","orgNo":"1340614","typeCode":"计划停电","poweroffArea":"【全线路停电】停安家洼村配变,中国人民解放军93567部队630KVA专变,93577部队,东租村东井变压器【纯农排变】,66382部队（教导队）变压器200,闫广军,北西租022-1,西租村内变压器,保定众邦塑料薄膜加工有限公司新增变压器,西租村西北,西租村南台区,西租村南1号井【纯农排变】,东租机井1【纯农排变】,安家洼北台区,东租大棚,东租小学,北西租021-1|0560,西租村西变压器,东租村内台区变压器,93577部队1,配变","poweroffReason":"【停电原因】由于更换导线导致１１０ＫＶ涞水变电站１０ＫＶ上车亭５２６线路全线停电 【变更送电】因抢修进度加快原因，送电时间由１９：００变更为１８：００ 【发布渠道】保定市涞水电视台（０６月２２日００时至０７月０４日２３时之间）屏幕上方滚动。","powerTime":"2019-07-05 17:35:12","powerComm":"已送电","subsNo":"","lineNo":"","tgNo":"","tgName":null,"infoStatus":"1","orgName":"国网涞水县供电公司","typeName":null,"infoStatusName":null,"dateDay":null,"orgNos":null,"nowTime":null,"countyName":null,"streetName":null,"villageName":null,"roadName":null,"communityName":null,"tranName":null,"sdLineName":null,"cityCode":"1340614","cityName":"国网涞水县供电公司","provinceCode":null,"stopTime":"2019-07-05 18:00:00","powerType":"全部","powerOffArea":"【全线路停电】停安家洼村配变,中国人民解放军93567部队630KVA专变,93577部队,东租村东井变压器【纯农排变】,66382部队（教导队）变压器200,闫广军,北西租022-1,西租村内变压器,保定众邦塑料薄膜加工有限公司新增变压器,西租村西北,西租村南台区,西租村南1号井【纯农排变】,东租机井1【纯农排变】,安家洼北台区,东租大棚,东租小学,北西租021-1|0560,西租村西变压器,东租村内台区变压器,93577部队1,配变","powerOffReason":"【停电原因】由于更换导线导致１１０ＫＶ涞水变电站１０ＫＶ上车亭５２６线路全线停电 【变更送电】因抢修进度加快原因，送电时间由１９：００变更为１８：００ 【发布渠道】保定市涞水电视台（０６月２２日００时至０７月０４日２３时之间）屏幕上方滚动。","powerOffId":"2019062113000473"}],"pageModel":{"pageNow":915,"totalCount":10973,"totalPage":1098,"tableRows":0,"pageCount":10,"beginCount":9140},"isExperi":"1"}