{"message":"","today":"2020-06-15","seleList":[{"poweroffId":2019062113000202,"sgpoweroffId":null,"subsName":"","lineName":"崔庄线554","pubTranName":"东北庄变压器,刘各庄东农变压器【纯农排变】,刘各庄南变压器,刘各庄东变压器,崔庄南农变压器【纯农排变】,刘各庄西北农变压器【纯农排变】,刘各庄南农变压器【纯农排变】,刘各庄混1变压器,东北庄北变压器,辛立庄崔庄变压器,刘各庄北变压器,刘各庄南2变压器,李各庄北农变压器【纯农排变】,东北庄北农变压器【纯农排变】,东北庄西农变压器【纯农排变】,东北庄西变压器,崔庄西北变压器,李各庄南农变压器【纯农排变】,李各庄变压器,崔庄农变压器【纯农排变】,刘各庄北农变压器【纯农排变】,崔庄西变压器,崔庄西2变压器,东北庄东农变压器【纯农排变】,崔庄东农变压器【纯农排变】,李各庄混用变压器,","scope":"【影响街道/乡镇】辛立庄镇 【高危重要客户】无 【影响客户】刘各庄（部分）、崔庄村、李各庄村、东北庄村","startTime":"2019-06-21 11:42:53","stopDate":"2019-06-21 15:30:00","orgNo":"1340612","typeCode":"超电网供电能力停限电","poweroffArea":"【分支停电】停刘各庄南变压器,刘各庄东变压器,崔庄南农变压器【纯农排变】,刘各庄西北农变压器【纯农排变】,刘各庄南农变压器【纯农排变】,刘各庄混1变压器,东北庄北变压器,辛立庄崔庄变压器,刘各庄北变压器,刘各庄南2变压器,李各庄北农变压器【纯农排变】,东北庄北农变压器【纯农排变】,东北庄西农变压器【纯农排变】,东北庄西变压器,崔庄西北变压器,李各庄南农变压器【纯农排变】,李各庄变压器,崔庄农变压器【纯农排变】,刘各庄北农变压器【纯农排变】,崔庄西变压器,崔庄西2变压器,东北庄东农变压器【纯农排变】,崔庄东农变压器【纯农排变】,李各庄混用变压器,东北庄变压器,刘各庄东农变压器【纯农排变】","poweroffReason":"【停电原因】由于线路过负荷导致１１０ＫＶ陈八庄变电站１０ＫＶ崔庄５５４线路０７号断路器以下停电 【变更送电】因线路负荷恢复正常值，送电时间由２０：００变更为１５：３０ 【发布渠道】通过９５５９８发布","powerTime":"2019-06-21 15:07:38","powerComm":"已送电","subsNo":"","lineNo":"","tgNo":"","tgName":null,"infoStatus":"1","orgName":"国网高碑店市供电公司","typeName":null,"infoStatusName":null,"dateDay":null,"orgNos":null,"nowTime":null,"countyName":null,"streetName":null,"villageName":null,"roadName":null,"communityName":null,"tranName":null,"sdLineName":null,"cityCode":"1340612","cityName":"国网高碑店市供电公司","provinceCode":null,"stopTime":"2019-06-21 15:30:00","powerType":"全部","powerOffArea":"【分支停电】停刘各庄南变压器,刘各庄东变压器,崔庄南农变压器【纯农排变】,刘各庄西北农变压器【纯农排变】,刘各庄南农变压器【纯农排变】,刘各庄混1变压器,东北庄北变压器,辛立庄崔庄变压器,刘各庄北变压器,刘各庄南2变压器,李各庄北农变压器【纯农排变】,东北庄北农变压器【纯农排变】,东北庄西农变压器【纯农排变】,东北庄西变压器,崔庄西北变压器,李各庄南农变压器【纯农排变】,李各庄变压器,崔庄农变压器【纯农排变】,刘各庄北农变压器【纯农排变】,崔庄西变压器,崔庄西2变压器,东北庄东农变压器【纯农排变】,崔庄东农变压器【纯农排变】,李各庄混用变压器,东北庄变压器,刘各庄东农变压器【纯农排变】","powerOffReason":"【停电原因】由于线路过负荷导致１１０ＫＶ陈八庄变电站１０ＫＶ崔庄５５４线路０７号断路器以下停电 【变更送电】因线路负荷恢复正常值，送电时间由２０：００变更为１５：３０ 【发布渠道】通过９５５９８发布","powerOffId":"2019062113000202"},{"poweroffId":2019062113000201,"sgpoweroffId":null,"subsName":"","lineName":"南徐城线528电力电缆","pubTranName":"南城4号(528),西于庄4号,东王庄5号,南城3号(528),东于庄1号,南城1号(528),盛源104号（馨园南门）,东于庄5号,东于庄2号【纯农排变】,南城5号(528),永兴46号(红叶树),盛源78号（土地局家属院）,东于庄9号,西于庄5号,东王庄1号,三岔口11号,东王庄6号,东王庄3号,东于庄7号,东于庄3号,西于庄1号,东王庄2号,东于庄10号,盛源43号（政府办）,东王庄4号,东于庄8号,永兴34号(南铁市),西于庄2号,东于庄4号,西于庄3号,东于庄6号,西于庄6号,","scope":"【影响街道/乡镇】安肃镇 【高危重要客户】无 【影响客户】东于庄、西于庄、南城、三岔口、土地局家属院、东王庄、铁市场、顺鑫苑小区、馨园小区、久久集团小区、公安局家属院、汇源小区、巨鼎小区、县联社、县联社家属院、天成公寓、中天物业、新丰房地产、鑫泰园小区、城堡酒店、红苹果幼儿园、创联吊索具","startTime":"2019-06-24 03:30:00","stopDate":"2019-06-24 20:00:00","orgNo":"1340605","typeCode":"临时停电","poweroffArea":"【全线路停电】停东于庄10号,永兴34号(南铁市),东于庄1号,东于庄2号【纯农排变】,东于庄3号,东于庄5号,东于庄6号,东于庄8号,东于庄7号,东于庄9号,盛源78号（土地局家属院）,盛源43号（政府办）,西于庄4号,南城1号(528),南城3号(528),南城4号(528),南城5号(528),东于庄4号,三岔口11号,盛源104号（馨园南门）,东王庄1号,东王庄3号,东王庄6号,东王庄2号,东王庄4号,东王庄5号,西于庄5号,西于庄6号,西于庄1号,西于庄2号,西于庄3号,永兴46号(红叶树)","poweroffReason":"【停电原因】由于线路检修导致１１０ＫＶ徐水变电站南徐城线５２８线路全线停电 【变更送电】无 【发布渠道】通过９５５９８发布","powerTime":"2019-06-24 19:03:57","powerComm":"已送电","subsNo":"","lineNo":"","tgNo":"","tgName":null,"infoStatus":"1","orgName":"国网徐水县供电公司","typeName":null,"infoStatusName":null,"dateDay":null,"orgNos":null,"nowTime":null,"countyName":null,"streetName":null,"villageName":null,"roadName":null,"communityName":null,"tranName":null,"sdLineName":null,"cityCode":"1340605","cityName":"国网徐水县供电公司","provinceCode":null,"stopTime":"2019-06-24 20:00:00","powerType":"全部","powerOffArea":"【全线路停电】停东于庄10号,永兴34号(南铁市),东于庄1号,东于庄2号【纯农排变】,东于庄3号,东于庄5号,东于庄6号,东于庄8号,东于庄7号,东于庄9号,盛源78号（土地局家属院）,盛源43号（政府办）,西于庄4号,南城1号(528),南城3号(528),南城4号(528),南城5号(528),东于庄4号,三岔口11号,盛源104号（馨园南门）,东王庄1号,东王庄3号,东王庄6号,东王庄2号,东王庄4号,东王庄5号,西于庄5号,西于庄6号,西于庄1号,西于庄2号,西于庄3号,永兴46号(红叶树)","powerOffReason":"【停电原因】由于线路检修导致１１０ＫＶ徐水变电站南徐城线５２８线路全线停电 【变更送电】无 【发布渠道】通过９５５９８发布","powerOffId":"2019062113000201"},{"poweroffId":2019062113000196,"sgpoweroffId":null,"subsName":"","lineName":"车站线513","pubTranName":"云飞塑料制品厂,留村10号,留村8号【纯农排变】,徐水盛安精神病康复医院,北常保15号,保定六合食品有限公司,留村13号,裕泰管件有限公司2号,天意橡胶厂,北常保5号【纯农排变】,留村面粉厂,保定裕泰管件有限公司3号,留村12号,南高桥木器厂,保定市天意橡胶厂分厂,留村6号,北常保7号【纯农排变】,留村9号,保定天福泵阀制造有限公司,北常保2号【纯农排变】,北常保14号,0637414296-保定市徐水区住房和城乡建设局路灯-专变-148444957-徐水县住房和城乡建设局路灯,保定乾坤福商贸有限公司,留村5号,海燕电线二厂,保定天骏挂车制造有限公司,北常保8号,海燕电线厂,裕泰管件有限公司1号,中国移动通信集团河北有限公司徐水分公司留,留村信用社,北常保3号,保定六合食品有限公司1号,中国邮政储蓄银行徐水县支行,漕河地税分局,留村医院,保定中盾塑胶有限公司变压器,水利局仓库,保定光阳天然气利用有限公司,北常保4号,北常保6号,海燕电线二厂2号,保定友星体育用品有限公司,留村11号,北常保10号,保定市公安头盔厂,留村4号,徐水县美好生活超市有限公司,留村1号,北常保1号,留村3号,","scope":"【影响街道/乡镇】留村镇 【高危重要客户】无 【影响客户】北常堡村、留村","startTime":"2019-07-12 05:00:00","stopDate":"2019-07-13 07:00:00","orgNo":"1340605","typeCode":"计划停电","poweroffArea":"【全线路停电】停留村12号,留村13号,徐水县美好生活超市有限公司,留村9号,海燕电线二厂,漕河地税分局,保定中盾塑胶有限公司变压器,留村1号,留村8号【纯农排变】,留村4号,北常保6号,北常保15号,留村3号,中国移动通信集团河北有限公司徐水分公司留,留村10号,留村医院,徐水盛安精神病康复医院,北常保2号【纯农排变】,保定光阳天然气利用有限公司,保定友星体育用品有限公司,北常保4号,北常保7号【纯农排变】,保定乾坤福商贸有限公司,保定天骏挂车制造有限公司,海燕电线二厂2号,中国邮政储蓄银行徐水县支行,北常保5号【纯农排变】,保定天福泵阀制造有限公司,保定市公安头盔厂,保定六合食品有限公司,保定六合食品有限公司1号,保定裕泰管件有限公司3号,裕泰管件有限公司2号,北常保14号,留村6号,北常保3号,北常保10号,0637414296-保定市徐水区住房和城乡建设局路灯-专变-148444957-徐水县住房和城乡建设局路灯,留村11号,天意橡胶厂,保定市天意橡胶厂分厂,裕泰管件有限公司1号,留村5号,云飞塑料制品厂,南高桥木器厂,水利局仓库,留村信用社,留村面粉厂,北常保1号,北常保8号,海燕电线厂","poweroffReason":"【停电原因】由于计划检修导致３５ＫＶ漕河变电站车站线５１３线路全线停电 【变更送电】因工作进度加快原因，送电时间由０９:００变更为０７:００ 【发布渠道】通过徐水电视台游走滚动字幕播放（２０１９年０６月２８日０８:００至０７月１１日２０:００）","powerTime":"2019-07-13 06:13:42","powerComm":"已送电","subsNo":"","lineNo":"","tgNo":"","tgName":null,"infoStatus":"1","orgName":"国网徐水县供电公司","typeName":null,"infoStatusName":null,"dateDay":null,"orgNos":null,"nowTime":null,"countyName":null,"streetName":null,"villageName":null,"roadName":null,"communityName":null,"tranName":null,"sdLineName":null,"cityCode":"1340605","cityName":"国网徐水县供电公司","provinceCode":null,"stopTime":"2019-07-13 07:00:00","powerType":"全部","powerOffArea":"【全线路停电】停留村12号,留村13号,徐水县美好生活超市有限公司,留村9号,海燕电线二厂,漕河地税分局,保定中盾塑胶有限公司变压器,留村1号,留村8号【纯农排变】,留村4号,北常保6号,北常保15号,留村3号,中国移动通信集团河北有限公司徐水分公司留,留村10号,留村医院,徐水盛安精神病康复医院,北常保2号【纯农排变】,保定光阳天然气利用有限公司,保定友星体育用品有限公司,北常保4号,北常保7号【纯农排变】,保定乾坤福商贸有限公司,保定天骏挂车制造有限公司,海燕电线二厂2号,中国邮政储蓄银行徐水县支行,北常保5号【纯农排变】,保定天福泵阀制造有限公司,保定市公安头盔厂,保定六合食品有限公司,保定六合食品有限公司1号,保定裕泰管件有限公司3号,裕泰管件有限公司2号,北常保14号,留村6号,北常保3号,北常保10号,0637414296-保定市徐水区住房和城乡建设局路灯-专变-148444957-徐水县住房和城乡建设局路灯,留村11号,天意橡胶厂,保定市天意橡胶厂分厂,裕泰管件有限公司1号,留村5号,云飞塑料制品厂,南高桥木器厂,水利局仓库,留村信用社,留村面粉厂,北常保1号,北常保8号,海燕电线厂","powerOffReason":"【停电原因】由于计划检修导致３５ＫＶ漕河变电站车站线５１３线路全线停电 【变更送电】因工作进度加快原因，送电时间由０９:００变更为０７:００ 【发布渠道】通过徐水电视台游走滚动字幕播放（２０１９年０６月２８日０８:００至０７月１１日２０:００）","powerOffId":"2019062113000196"},{"poweroffId":2019062113000193,"sgpoweroffId":null,"subsName":"","lineName":"太保营线514","pubTranName":"北高桥6号【纯农排变】,南高桥10号,田庄2号,太保营15号,留村中学,师庄1号,南高桥11号,常乐14号,太保营8号,太保营10号,留东营1号,0682547015-河北悦康志德医药贸易有限公司-专变-221712106-河北悦康志德医药贸易有限公司,南高桥13号,太保营9号,北高桥2号【纯农排变】,保定是润丰实业有限公司,师庄13号,太保营4号,留东营6号【纯农排变】,太保营27号,东庄1号,太保营19号,南庄2号,保定市正汇包装彩印有限公司,供电所-5号,太保营17号,常乐2号,太保营20号,南高桥14【纯农排变】,太保营2号,太保营1号,南高桥5号【纯农排变】,太保营24号,常乐11号,保定市润丰实业有限公司,南庄1号,师庄9号所8号,供电所-3号,保定市徐水区北常保东奇五金建材经销处,常乐6号,保定五洲轮胎销售服务有限公司,东庄2号,太保营14号,南庄3号,东庄3号【纯农排变】,师庄12号,南高桥3号【纯农排变】,师庄3号,田庄1号,南高桥8号【纯农排变】,保定均合金属材料有限公司,太保营13号,常乐4号【纯农排变】,师庄2号,南高桥9号,南高桥4号,留东营5号【纯农排变】,留东营4号,南庄4号【纯农排变】,常乐1号,李丰收林业养殖场,留东营8号,南高桥1号,南高桥2号,南高桥6号【纯农排变】,留东营2号,太保营3号,太保营11号,徐水县新兴节能耐火材料厂,精华碳素厂,太保营6号,师庄11号,常乐9号,常乐8号【纯农排变】,师庄7号,保定凯达石油产品销售有限公司,保定市祥瑞制冷设备有限公司,太保营23号,太保营12号,师庄4号【纯农排变】,常乐7号【纯农排变】,田庄4号【纯农排变】,南高桥7号【纯农排变】,太保营26号,供电所-4号【纯农排变】,常乐13号,太保营22号,刘东营面粉二厂,太保营25号,南高桥12号,太保营21号,华威汽车装饰件厂,常乐3号,师庄6号,师庄10号,太保营18号,留东营3号【纯农排变】,太保营7号,常乐5号,徐水县祥久金属材料焊接加工厂,保定市津瑞建筑混凝土有限公司,太保营5号,南高桥15号,东庄4号,太保营16号,常乐12号,田庄3号,师庄5号,河北爱博欣农业有限公司,太保营28号,东庄5号,","scope":"【影响街道/乡镇】留村镇 【高危重要客户】无 【影响客户】北高桥村、南高桥村、留东营村、东庄村、南庄村、田庄村、师庄村、常乐村","startTime":"2019-07-12 05:00:00","stopDate":"2019-07-13 07:00:00","orgNo":"1340605","typeCode":"计划停电","poweroffArea":"【全线路停电】停供电所-5号,太保营15号,太保营17号,师庄2号,常乐2号,太保营25号,太保营20号,常乐1号,南高桥14【纯农排变】,太保营14号,南高桥9号,师庄6号,田庄1号,南庄4号【纯农排变】,东庄3号【纯农排变】,太保营18号,南高桥8号【纯农排变】,太保营28号,东庄1号,河北爱博欣农业有限公司,保定均合金属材料有限公司,保定市润丰实业有限公司,南高桥12号,太保营19号,保定市津瑞建筑混凝土有限公司,南高桥4号,刘东营面粉二厂,南高桥13号,东庄5号,留东营3号【纯农排变】,师庄7号,南高桥1号,太保营4号,师庄11号,东庄2号,留东营6号【纯农排变】,师庄10号,北高桥6号【纯农排变】,保定凯达石油产品销售有限公司,南庄2号,保定市祥瑞制冷设备有限公司,太保营7号,南高桥2号,南高桥10号,太保营24号,南高桥6号【纯农排变】,常乐11号,留东营2号,保定市正汇包装彩印有限公司,南庄1号,田庄2号,太保营3号,太保营2号,常乐5号,师庄12号,太保营1号,太保营11号,徐水县祥久金属材料焊接加工厂,师庄13号,南高桥5号【纯农排变】,0682547015-河北悦康志德医药贸易有限公司-专变-221712106-河北悦康志德医药贸易有限公司,常乐9号,南高桥15号,北高桥2号【纯农排变】,留东营5号【纯农排变】,徐水县新兴节能耐火材料厂,太保营13号,太保营23号,留东营4号,常乐4号【纯农排变】,太保营10号,常乐8号【纯农排变】,李丰收林业养殖场,留东营1号,太保营12号,留东营8号,太保营16号,师庄4号【纯农排变】,常乐7号【纯农排变】,常乐12号,太保营21号,南庄3号,田庄3号,田庄4号【纯农排变】,师庄9号所8号,留村中学,华威汽车装饰件厂,东庄4号,精华碳素厂,供电所-3号,保定是润丰实业有限公司,太保营9号,太保营6号,太保营27号,南高桥3号【纯农排变】,常乐6号,南高桥7号【纯农排变】,师庄1号,保定市徐水区北常保东奇五金建材经销处,太保营26号,南高桥11号,供电所-4号【纯农排变】,师庄3号,常乐14号,常乐13号,师庄5号,常乐3号,太保营8号,保定五洲轮胎销售服务有限公司,太保营22号,太保营5号","poweroffReason":"【停电原因】由于计划检修导致３５ＫＶ漕河变电站太保营线５１４线路全线停电 【变更送电】因工作进度加快原因，送电时间由０９:００变更为０７:００ 【发布渠道】通过徐水电视台游走滚动字幕播放（２０１９年０６月２８日０８:００至０７月１１日２０:００）","powerTime":"2019-07-13 06:13:15","powerComm":"已送电","subsNo":"","lineNo":"","tgNo":"","tgName":null,"infoStatus":"1","orgName":"国网徐水县供电公司","typeName":null,"infoStatusName":null,"dateDay":null,"orgNos":null,"nowTime":null,"countyName":null,"streetName":null,"villageName":null,"roadName":null,"communityName":null,"tranName":null,"sdLineName":null,"cityCode":"1340605","cityName":"国网徐水县供电公司","provinceCode":null,"stopTime":"2019-07-13 07:00:00","powerType":"全部","powerOffArea":"【全线路停电】停供电所-5号,太保营15号,太保营17号,师庄2号,常乐2号,太保营25号,太保营20号,常乐1号,南高桥14【纯农排变】,太保营14号,南高桥9号,师庄6号,田庄1号,南庄4号【纯农排变】,东庄3号【纯农排变】,太保营18号,南高桥8号【纯农排变】,太保营28号,东庄1号,河北爱博欣农业有限公司,保定均合金属材料有限公司,保定市润丰实业有限公司,南高桥12号,太保营19号,保定市津瑞建筑混凝土有限公司,南高桥4号,刘东营面粉二厂,南高桥13号,东庄5号,留东营3号【纯农排变】,师庄7号,南高桥1号,太保营4号,师庄11号,东庄2号,留东营6号【纯农排变】,师庄10号,北高桥6号【纯农排变】,保定凯达石油产品销售有限公司,南庄2号,保定市祥瑞制冷设备有限公司,太保营7号,南高桥2号,南高桥10号,太保营24号,南高桥6号【纯农排变】,常乐11号,留东营2号,保定市正汇包装彩印有限公司,南庄1号,田庄2号,太保营3号,太保营2号,常乐5号,师庄12号,太保营1号,太保营11号,徐水县祥久金属材料焊接加工厂,师庄13号,南高桥5号【纯农排变】,0682547015-河北悦康志德医药贸易有限公司-专变-221712106-河北悦康志德医药贸易有限公司,常乐9号,南高桥15号,北高桥2号【纯农排变】,留东营5号【纯农排变】,徐水县新兴节能耐火材料厂,太保营13号,太保营23号,留东营4号,常乐4号【纯农排变】,太保营10号,常乐8号【纯农排变】,李丰收林业养殖场,留东营1号,太保营12号,留东营8号,太保营16号,师庄4号【纯农排变】,常乐7号【纯农排变】,常乐12号,太保营21号,南庄3号,田庄3号,田庄4号【纯农排变】,师庄9号所8号,留村中学,华威汽车装饰件厂,东庄4号,精华碳素厂,供电所-3号,保定是润丰实业有限公司,太保营9号,太保营6号,太保营27号,南高桥3号【纯农排变】,常乐6号,南高桥7号【纯农排变】,师庄1号,保定市徐水区北常保东奇五金建材经销处,太保营26号,南高桥11号,供电所-4号【纯农排变】,师庄3号,常乐14号,常乐13号,师庄5号,常乐3号,太保营8号,保定五洲轮胎销售服务有限公司,太保营22号,太保营5号","powerOffReason":"【停电原因】由于计划检修导致３５ＫＶ漕河变电站太保营线５１４线路全线停电 【变更送电】因工作进度加快原因，送电时间由０９:００变更为０７:００ 【发布渠道】通过徐水电视台游走滚动字幕播放（２０１９年０６月２８日０８:００至０７月１１日２０:００）","powerOffId":"2019062113000193"},{"poweroffId":2019062113000191,"sgpoweroffId":null,"subsName":"","lineName":"南留线511","pubTranName":"北常保13号高压配电变压器1,北常堡11号箱变配电变压器新,北常堡12号箱变配电变压器,留村供电所,","scope":"【影响街道/乡镇】留村镇 【高危重要客户】无 【影响客户】北常堡村","startTime":"2019-07-12 05:00:00","stopDate":"2019-07-13 07:00:00","orgNo":"1340605","typeCode":"计划停电","poweroffArea":"【全线路停电】停留村供电所,北常堡11号箱变配电变压器新,北常保13号高压配电变压器1,北常堡12号箱变配电变压器","poweroffReason":"【停电原因】由于计划检修导致导致３５ＫＶ漕河变电站南留线５１１线路全线停电 【变更送电】因工作进度加快原因，送电时间由０９:００变更为０７:００ 【发布渠道】通过电视台游走滚动字幕播放（０６月２８日０８:００至０７月１１日２０:００）","powerTime":"2019-07-13 06:12:45","powerComm":"已送电","subsNo":"","lineNo":"","tgNo":"","tgName":null,"infoStatus":"1","orgName":"国网徐水县供电公司","typeName":null,"infoStatusName":null,"dateDay":null,"orgNos":null,"nowTime":null,"countyName":null,"streetName":null,"villageName":null,"roadName":null,"communityName":null,"tranName":null,"sdLineName":null,"cityCode":"1340605","cityName":"国网徐水县供电公司","provinceCode":null,"stopTime":"2019-07-13 07:00:00","powerType":"全部","powerOffArea":"【全线路停电】停留村供电所,北常堡11号箱变配电变压器新,北常保13号高压配电变压器1,北常堡12号箱变配电变压器","powerOffReason":"【停电原因】由于计划检修导致导致３５ＫＶ漕河变电站南留线５１１线路全线停电 【变更送电】因工作进度加快原因，送电时间由０９:００变更为０７:００ 【发布渠道】通过电视台游走滚动字幕播放（０６月２８日０８:００至０７月１１日２０:００）","powerOffId":"2019062113000191"},{"poweroffId":2019062113000187,"sgpoweroffId":null,"subsName":"","lineName":"10kV韩村站523线路","pubTranName":"C177柱上变压器,","scope":"【影响街道/乡镇】韩庄乡 【高危重要客户】无 【影响客户】韩村","startTime":"2019-07-05 07:00:00","stopDate":"2019-07-05 12:00:00","orgNo":"13406","typeCode":"计划停电","poweroffArea":"【单台区停电】停C177柱上变压器","poweroffReason":"【停电原因】由于供电设备临时检修导致１０ＫＶ韩村变电站５２３线路Ｃ１７７公变台区停电【变更送电】无【发布渠道】保定市保定有线电视台（６月２７日２０时１５分至２１时４５分之间）屏幕上滚动","powerTime":"2019-07-05 11:55:31","powerComm":"已送电","subsNo":"","lineNo":"","tgNo":"","tgName":null,"infoStatus":"1","orgName":"保定供电公司","typeName":null,"infoStatusName":null,"dateDay":null,"orgNos":null,"nowTime":null,"countyName":null,"streetName":null,"villageName":null,"roadName":null,"communityName":null,"tranName":null,"sdLineName":null,"cityCode":"13406","cityName":"保定供电公司","provinceCode":null,"stopTime":"2019-07-05 12:00:00","powerType":"全部","powerOffArea":"【单台区停电】停C177柱上变压器","powerOffReason":"【停电原因】由于供电设备临时检修导致１０ＫＶ韩村变电站５２３线路Ｃ１７７公变台区停电【变更送电】无【发布渠道】保定市保定有线电视台（６月２７日２０时１５分至２１时４５分之间）屏幕上滚动","powerOffId":"2019062113000187"},{"poweroffId":2019062113000185,"sgpoweroffId":null,"subsName":"","lineName":"10kV水源站526线路","pubTranName":"C245柱上变压器,","scope":"【影响街道/乡镇】大马坊乡 【高危重要客户】无 【影响客户】要庄村","startTime":"2019-07-04 06:00:00","stopDate":"2019-07-04 14:20:00","orgNo":"13406","typeCode":"计划停电","poweroffArea":"【单台区停电】停C245柱上变压器","poweroffReason":"【停电原因】由于供电设备临时检修导致１０ＫＶ水源变电站５２６线路Ｃ２４５公变台区停电【变更送电】因抢修进度加快，原定２０:００送电现计划１４:２０送电【发布渠道】保定市保定有线电视台（６月２５日２０时１５分至２１时４５分之间）屏幕上滚动","powerTime":"2019-07-04 13:55:21","powerComm":"已送电","subsNo":"","lineNo":"","tgNo":"","tgName":null,"infoStatus":"1","orgName":"保定供电公司","typeName":null,"infoStatusName":null,"dateDay":null,"orgNos":null,"nowTime":null,"countyName":null,"streetName":null,"villageName":null,"roadName":null,"communityName":null,"tranName":null,"sdLineName":null,"cityCode":"13406","cityName":"保定供电公司","provinceCode":null,"stopTime":"2019-07-04 14:20:00","powerType":"全部","powerOffArea":"【单台区停电】停C245柱上变压器","powerOffReason":"【停电原因】由于供电设备临时检修导致１０ＫＶ水源变电站５２６线路Ｃ２４５公变台区停电【变更送电】因抢修进度加快，原定２０:００送电现计划１４:２０送电【发布渠道】保定市保定有线电视台（６月２５日２０时１５分至２１时４５分之间）屏幕上滚动","powerOffId":"2019062113000185"},{"poweroffId":2019062113000183,"sgpoweroffId":null,"subsName":"","lineName":"10kV鲁岗站516线路","pubTranName":"C135柱上变压器,C376柱上变压器,0356227016-崔闸-专变,","scope":"【影响街道/乡镇】颉庄乡 【高危重要客户】无 【影响客户】小车村、崔闸","startTime":"2019-07-05 06:00:00","stopDate":"2019-07-05 13:00:00","orgNo":"13406","typeCode":"计划停电","poweroffArea":"【分支停电】停C135柱上变压器,C376柱上变压器,0356227016-崔闸-专变","poweroffReason":"【停电原因】由于供电设备临时检修导致１０ＫＶ鲁岗变电站５１６线路７４号杆分支开关以下停电【变更送电】无【发布渠道】保定市保定有线电视台（６月２７日２０时１５分至２１时４５分之间）屏幕上滚动","powerTime":"2019-07-05 12:55:37","powerComm":"已送电","subsNo":"","lineNo":"","tgNo":"","tgName":null,"infoStatus":"1","orgName":"保定供电公司","typeName":null,"infoStatusName":null,"dateDay":null,"orgNos":null,"nowTime":null,"countyName":null,"streetName":null,"villageName":null,"roadName":null,"communityName":null,"tranName":null,"sdLineName":null,"cityCode":"13406","cityName":"保定供电公司","provinceCode":null,"stopTime":"2019-07-05 13:00:00","powerType":"全部","powerOffArea":"【分支停电】停C135柱上变压器,C376柱上变压器,0356227016-崔闸-专变","powerOffReason":"【停电原因】由于供电设备临时检修导致１０ＫＶ鲁岗变电站５１６线路７４号杆分支开关以下停电【变更送电】无【发布渠道】保定市保定有线电视台（６月２７日２０时１５分至２１时４５分之间）屏幕上滚动","powerOffId":"2019062113000183"},{"poweroffId":2019062113000181,"sgpoweroffId":null,"subsName":"","lineName":"袁辛线518","pubTranName":"袁家坟3号变压器,徐水县来宾水泥制品变压器,大庄12号,小辛安4号【纯农排变】,小庄6号,小庄1号,大庄13号【纯农排变】,变压器,保定市徐水区住房和城乡建设局,白塔铺8号【纯农排变】,河北徐水新洋丰肥业有限公司,南孤庄营11号【纯农排变】,白塔铺17号,徐水县平易路石油天然气配件有限公司,大庄11号,大庄2号,北孤庄营1号【纯农排变】,白塔铺7号,小庄7号【纯农排变】,小庄5号,白塔铺13号,河北科华防静电地板制造有限公司,中孤庄营3号,大庄3号,徐水县平易路石油天然气配件有限公司1号,大庄4号【纯农排变】,南孤庄营7号,北孤营3号【纯农排变】,白塔铺12号,河北德力食品有限公司,小庄2号,高林营与小庄合用,小辛安3号,小庄8号【纯农排变】,大庄7号,大庄14号【纯农排变】,小庄3号【纯农排变】,大庄8号,徐水县荣泰新型建材有限公司,袁家坟1号,大庄9号,大庄10号,北孤庄营4号【纯农排变】,徐水县交通运输局,徐水县平易路石油天然气配件有限公司3号,白塔铺6号,大庄1号,徐水县平易路石油天然气配件有限公司2号,大庄5号,大庄6号,袁家坟2号,小庄4号【纯农排变】,南孤庄营6号,","scope":"【影响街道/乡镇】高林村镇 【高危重要客户】无 【影响客户】北孤庄营村、白塔铺村、小庄村、大庄村、南孤庄营村、中孤庄营村、小辛安村、袁家坟村","startTime":"2019-07-06 03:00:00","stopDate":"2019-07-06 08:30:00","orgNo":"1340605","typeCode":"计划停电","poweroffArea":"【全线路停电】停保定市徐水区住房和城乡建设局,北孤庄营4号【纯农排变】,河北科华防静电地板制造有限公司,徐水县平易路石油天然气配件有限公司3号,徐水县来宾水泥制品变压器,徐水县交通运输局,大庄11号,白塔铺12号,小庄6号,大庄9号,河北徐水新洋丰肥业有限公司,徐水县平易路石油天然气配件有限公司1号,南孤庄营11号【纯农排变】,大庄1号,大庄12号,大庄6号,中孤庄营3号,大庄3号,小庄7号【纯农排变】,小庄3号【纯农排变】,大庄4号【纯农排变】,小辛安3号,小庄2号,大庄14号【纯农排变】,袁家坟2号,袁家坟3号变压器,南孤庄营7号,北孤庄营1号【纯农排变】,徐水县平易路石油天然气配件有限公司2号,白塔铺8号【纯农排变】,北孤营3号【纯农排变】,白塔铺7号,徐水县荣泰新型建材有限公司,大庄8号,小庄4号【纯农排变】,大庄2号,袁家坟1号,白塔铺17号,南孤庄营6号,小庄5号,徐水县平易路石油天然气配件有限公司,白塔铺13号,河北德力食品有限公司,白塔铺6号,大庄10号,大庄5号,大庄7号,小庄1号,变压器,高林营与小庄合用,大庄13号【纯农排变】,小庄8号【纯农排变】,小辛安4号【纯农排变】","poweroffReason":"【停电原因】由于线路检修导致３５ＫＶ郎五庄变电站袁辛线５１８线路全线停电 【变更送电】因抢修进度加快原因，送电时间由１８:００变更为０８:３０ 【发布渠道】通过徐水电视台游走滚动字幕播放（２０１９年０６月２９日０８:００至０７月０５日２０:００）","powerTime":"2019-07-06 07:47:37","powerComm":"已送电","subsNo":"","lineNo":"","tgNo":"","tgName":null,"infoStatus":"1","orgName":"国网徐水县供电公司","typeName":null,"infoStatusName":null,"dateDay":null,"orgNos":null,"nowTime":null,"countyName":null,"streetName":null,"villageName":null,"roadName":null,"communityName":null,"tranName":null,"sdLineName":null,"cityCode":"1340605","cityName":"国网徐水县供电公司","provinceCode":null,"stopTime":"2019-07-06 08:30:00","powerType":"全部","powerOffArea":"【全线路停电】停保定市徐水区住房和城乡建设局,北孤庄营4号【纯农排变】,河北科华防静电地板制造有限公司,徐水县平易路石油天然气配件有限公司3号,徐水县来宾水泥制品变压器,徐水县交通运输局,大庄11号,白塔铺12号,小庄6号,大庄9号,河北徐水新洋丰肥业有限公司,徐水县平易路石油天然气配件有限公司1号,南孤庄营11号【纯农排变】,大庄1号,大庄12号,大庄6号,中孤庄营3号,大庄3号,小庄7号【纯农排变】,小庄3号【纯农排变】,大庄4号【纯农排变】,小辛安3号,小庄2号,大庄14号【纯农排变】,袁家坟2号,袁家坟3号变压器,南孤庄营7号,北孤庄营1号【纯农排变】,徐水县平易路石油天然气配件有限公司2号,白塔铺8号【纯农排变】,北孤营3号【纯农排变】,白塔铺7号,徐水县荣泰新型建材有限公司,大庄8号,小庄4号【纯农排变】,大庄2号,袁家坟1号,白塔铺17号,南孤庄营6号,小庄5号,徐水县平易路石油天然气配件有限公司,白塔铺13号,河北德力食品有限公司,白塔铺6号,大庄10号,大庄5号,大庄7号,小庄1号,变压器,高林营与小庄合用,大庄13号【纯农排变】,小庄8号【纯农排变】,小辛安4号【纯农排变】","powerOffReason":"【停电原因】由于线路检修导致３５ＫＶ郎五庄变电站袁辛线５１８线路全线停电 【变更送电】因抢修进度加快原因，送电时间由１８:００变更为０８:３０ 【发布渠道】通过徐水电视台游走滚动字幕播放（２０１９年０６月２９日０８:００至０７月０５日２０:００）","powerOffId":"2019062113000181"},{"poweroffId":2019062113000166,"sgpoweroffId":null,"subsName":"","lineName":"10kV七一路站533线路","pubTranName":"B189柱上变压器,","scope":"【影响街道/乡镇】519路、朝阳北路 【高危重要客户】无 【影响客户】宝硕宿舍、工商局宿舍、塑料厂宿舍","startTime":"2019-07-03 06:00:00","stopDate":"2019-07-03 12:00:00","orgNo":"13406","typeCode":"计划停电","poweroffArea":"【单台区停电】停B189柱上变压器","poweroffReason":"【停电原因】由于供电设备临时检修导致１０ＫＶ七一路变电站５３３线路Ｂ１８９公变台区停电【变更送电】无【发布渠道】保定市保定有线电视台（６月２５日２０时１５分至２１时４５分之间）屏幕上滚动","powerTime":"2019-07-03 11:29:45","powerComm":"已送电","subsNo":"","lineNo":"","tgNo":"","tgName":null,"infoStatus":"1","orgName":"保定供电公司","typeName":null,"infoStatusName":null,"dateDay":null,"orgNos":null,"nowTime":null,"countyName":null,"streetName":null,"villageName":null,"roadName":null,"communityName":null,"tranName":null,"sdLineName":null,"cityCode":"13406","cityName":"保定供电公司","provinceCode":null,"stopTime":"2019-07-03 12:00:00","powerType":"全部","powerOffArea":"【单台区停电】停B189柱上变压器","powerOffReason":"【停电原因】由于供电设备临时检修导致１０ＫＶ七一路变电站５３３线路Ｂ１８９公变台区停电【变更送电】无【发布渠道】保定市保定有线电视台（６月２５日２０时１５分至２１时４５分之间）屏幕上滚动","powerOffId":"2019062113000166"}],"pageModel":{"pageNow":918,"totalCount":10973,"totalPage":1098,"tableRows":0,"pageCount":10,"beginCount":9170},"isExperi":"1"}