{"message":"","today":"2020-06-15","seleList":[{"poweroffId":2019062113000156,"sgpoweroffId":null,"subsName":"","lineName":"10kV七一路站526线路","pubTranName":"10kVB810配电室B810配电变压器,0356222907-保定星光房地产有限公司-1-配电室-变压器-1,","scope":"【影响街道/乡镇】七一路 【高危重要客户】无 【影响客户】星光房地产有限公司","startTime":"2019-07-02 07:00:00","stopDate":"2019-07-02 15:00:00","orgNo":"13406","typeCode":"计划停电","poweroffArea":"【分支停电】停0356222907-保定星光房地产有限公司-1-配电室-变压器-1,10kVB810配电室B810配电变压器","poweroffReason":"【停电原因】由于供电设备临时检修导致１０ＫＶ七一路变电站５２６线路七一路Ｂ２８０箱变高压出线电缆北分支１号杆高压刀闸以下停电【变更送电】无【发布渠道】保定市保定有线电视台（６月２４日２０时１５分至２１时４５分之间）屏幕上滚动","powerTime":"2019-07-02 14:56:05","powerComm":"已送电","subsNo":"","lineNo":"","tgNo":"","tgName":null,"infoStatus":"1","orgName":"保定供电公司","typeName":null,"infoStatusName":null,"dateDay":null,"orgNos":null,"nowTime":null,"countyName":null,"streetName":null,"villageName":null,"roadName":null,"communityName":null,"tranName":null,"sdLineName":null,"cityCode":"13406","cityName":"保定供电公司","provinceCode":null,"stopTime":"2019-07-02 15:00:00","powerType":"全部","powerOffArea":"【分支停电】停0356222907-保定星光房地产有限公司-1-配电室-变压器-1,10kVB810配电室B810配电变压器","powerOffReason":"【停电原因】由于供电设备临时检修导致１０ＫＶ七一路变电站５２６线路七一路Ｂ２８０箱变高压出线电缆北分支１号杆高压刀闸以下停电【变更送电】无【发布渠道】保定市保定有线电视台（６月２４日２０时１５分至２１时４５分之间）屏幕上滚动","powerOffId":"2019062113000156"},{"poweroffId":2019062113000155,"sgpoweroffId":null,"subsName":"","lineName":"10kV阮庄站528线路","pubTranName":"C008柱上变压器,","scope":"【影响街道/乡镇】焦庄乡 【高危重要客户】无 【影响客户】阮庄村","startTime":"2019-07-03 06:00:00","stopDate":"2019-07-03 12:00:00","orgNo":"13406","typeCode":"计划停电","poweroffArea":"【单台区停电】停C008柱上变压器","poweroffReason":"【停电原因】由于供电设备临时检修导致１０ＫＶ阮庄变电站５２８线路Ｃ００８公变台区停电【变更送电】无【发布渠道】保定市保定有线电视台（６月２５日２０时１５分至２１时４５分之间）屏幕上滚动","powerTime":"2019-07-03 11:29:09","powerComm":"已送电","subsNo":"","lineNo":"","tgNo":"","tgName":null,"infoStatus":"1","orgName":"保定供电公司","typeName":null,"infoStatusName":null,"dateDay":null,"orgNos":null,"nowTime":null,"countyName":null,"streetName":null,"villageName":null,"roadName":null,"communityName":null,"tranName":null,"sdLineName":null,"cityCode":"13406","cityName":"保定供电公司","provinceCode":null,"stopTime":"2019-07-03 12:00:00","powerType":"全部","powerOffArea":"【单台区停电】停C008柱上变压器","powerOffReason":"【停电原因】由于供电设备临时检修导致１０ＫＶ阮庄变电站５２８线路Ｃ００８公变台区停电【变更送电】无【发布渠道】保定市保定有线电视台（６月２５日２０时１５分至２１时４５分之间）屏幕上滚动","powerOffId":"2019062113000155"},{"poweroffId":2019062113000151,"sgpoweroffId":null,"subsName":"","lineName":"10kV515东召线","pubTranName":"10KV515东召线95029变压器,10KV515东召线32021变压器【纯农排变】,10KV515东召线32064变压器【纯农排变】,10kV515东召线32057变压器【纯农排变】,10KV515东召线32006变压器0【纯农排变】,东呈召32046IC卡【纯农排变】,博野县粮棉轧花厂,10KV515东召线42910变压器【纯农排变】,10KV515东召线4868变压器,10KV515东召线32019变压器【纯农排变】,10kV515东召线程什伍照明84322变压器,杜铁孟,10KV515东召线32013变压器,10kV515东召线32062变压器0【纯农排变】,10KV515东召线32014变压器【纯农排变】,10KV515东召线32047变压器【纯农排变】,10KV515东召线42906变压器,10KV515东召线40549变压器,10KV515东召线西呈召新增变压器,10kv528解村线宋村14号小屋【纯农排变】,10KV515东召线32041变压器,张庄猪厂32001,10KV515东召线32003变压器【纯农排变】,10kV515东召线40550变压器0,10kV515东召线32007变压器,10KV515东召线41002变压器,10KV515东召线32004变压器【纯农排变】,10KV515东召线32018变压器,东呈召西北32017IC卡【纯农排变】,10kv515东召线32010变压器,10kV515东召线32060变压器0【纯农排变】,10KV515东召线32022变压器,10kV515东召线32020变压器【纯农排变】,10kV515东召线南林新增变压器,10KV515东召线32049变压器【纯农排变】,10KV515东召线32009变压器【纯农排变】,博野县军威塑料制品销售有限公司,10KV515东召线32058变压器,10KV515东召线32016变压器0【纯农排变】,10KV515东召线32059变压器【纯农排变】,10KV515东召线32061变压器【纯农排变】,10KV515东召线32012变压器,10kV515东召线32005变压器0【纯农排变】,10KV515东召线32054变压器,10kV515东召线32011变压器0【纯农排变】,10kV515东召线95027变压器,10KV515东召线40994变压器,10KV515东召线东呈召村北32015IC卡【纯农排变】,10KV515东召线32008。变压器【纯农排变】,10KV515东召线32002变压器,10KV515东召线32048变压器【纯农排变】,孟强拔丝厂,连发钛厂100KVA,","scope":"【影响街道/乡镇】大程委镇【高危重要客户】无【影响客户】张庄、西召、东召、南林、程什伍","startTime":"2019-06-21 10:30:58","stopDate":"2019-06-21 12:00:00","orgNo":"1340608","typeCode":"电网故障停限电","poweroffArea":"【全线路停电】停10KV515东召线95029变压器,10KV515东召线32021变压器【纯农排变】,10KV515东召线32064变压器【纯农排变】,10kV515东召线32057变压器【纯农排变】,10KV515东召线32006变压器0【纯农排变】,东呈召32046IC卡【纯农排变】,博野县粮棉轧花厂,10KV515东召线42910变压器【纯农排变】,10KV515东召线4868变压器,10KV515东召线32022变压器,10kV515东召线32020变压器【纯农排变】,10kV515东召线南林新增变压器,10KV515东召线32049变压器【纯农排变】,10KV515东召线32009变压器【纯农排变】,博野县军威塑料制品销售有限公司,10KV515东召线32019变压器【纯农排变】,10kV515东召线程什伍照明84322变压器,杜铁孟,10KV515东召线32013变压器,10KV515东召线32014变压器【纯农排变】,10KV515东召线32047变压器【纯农排变】,10KV515东召线42906变压器,10KV515东召线40549变压器,10KV515东召线西呈召新增变压器,10kv528解村线宋村14号小屋【纯农排变】,10KV515东召线32041变压器,10kv515东召线32010变压器,10kV515东召线32060变压器0【纯农排变】,10KV515东召线32058变压器,张庄猪厂32001,10KV515东召线32003变压器【纯农排变】,10kV515东召线40550变压器0,10kV515东召线32007变压器,10KV515东召线41002变压器,10KV515东召线32004变压器【纯农排变】,10KV515东召线32018变压器,东呈召西北32017IC卡【纯农排变】,10KV515东召线32016变压器0【纯农排变】,10KV515东召线32059变压器【纯农排变】,10KV515东召线32061变压器【纯农排变】,10KV515东召线32012变压器,10kV515东召线32005变压器0【纯农排变】,连发钛厂100KVA,10kV515东召线32062变压器0【纯农排变】,10KV515东召【全线路停电】停10kV515东召线32011变压器0【纯农排变】,10kV515东召线95027变压器,10KV515东召线40994变压器,10KV515东召线东呈召村北32015IC卡【纯农排变】,10KV515东召线32008。变压器【纯农排变】,10KV515东召线32002变压器,10KV515东召线32048变压器【纯农排变】,孟强拔丝厂","poweroffReason":"【停电原因】由于线路掉闸导致１１０ＫＶ程委变电站东召５１５线路全线停电【变更送电】因抢修进度加快原因，送电时间由２２：００变更为１２：００【发布渠道】通过９５５９８发布","powerTime":"2019-06-21 11:39:00","powerComm":"已送电","subsNo":"","lineNo":"","tgNo":"","tgName":null,"infoStatus":"1","orgName":"国网博野县供电公司","typeName":null,"infoStatusName":null,"dateDay":null,"orgNos":null,"nowTime":null,"countyName":null,"streetName":null,"villageName":null,"roadName":null,"communityName":null,"tranName":null,"sdLineName":null,"cityCode":"1340608","cityName":"国网博野县供电公司","provinceCode":null,"stopTime":"2019-06-21 12:00:00","powerType":"全部","powerOffArea":"【全线路停电】停10KV515东召线95029变压器,10KV515东召线32021变压器【纯农排变】,10KV515东召线32064变压器【纯农排变】,10kV515东召线32057变压器【纯农排变】,10KV515东召线32006变压器0【纯农排变】,东呈召32046IC卡【纯农排变】,博野县粮棉轧花厂,10KV515东召线42910变压器【纯农排变】,10KV515东召线4868变压器,10KV515东召线32022变压器,10kV515东召线32020变压器【纯农排变】,10kV515东召线南林新增变压器,10KV515东召线32049变压器【纯农排变】,10KV515东召线32009变压器【纯农排变】,博野县军威塑料制品销售有限公司,10KV515东召线32019变压器【纯农排变】,10kV515东召线程什伍照明84322变压器,杜铁孟,10KV515东召线32013变压器,10KV515东召线32014变压器【纯农排变】,10KV515东召线32047变压器【纯农排变】,10KV515东召线42906变压器,10KV515东召线40549变压器,10KV515东召线西呈召新增变压器,10kv528解村线宋村14号小屋【纯农排变】,10KV515东召线32041变压器,10kv515东召线32010变压器,10kV515东召线32060变压器0【纯农排变】,10KV515东召线32058变压器,张庄猪厂32001,10KV515东召线32003变压器【纯农排变】,10kV515东召线40550变压器0,10kV515东召线32007变压器,10KV515东召线41002变压器,10KV515东召线32004变压器【纯农排变】,10KV515东召线32018变压器,东呈召西北32017IC卡【纯农排变】,10KV515东召线32016变压器0【纯农排变】,10KV515东召线32059变压器【纯农排变】,10KV515东召线32061变压器【纯农排变】,10KV515东召线32012变压器,10kV515东召线32005变压器0【纯农排变】,连发钛厂100KVA,10kV515东召线32062变压器0【纯农排变】,10KV515东召【全线路停电】停10kV515东召线32011变压器0【纯农排变】,10kV515东召线95027变压器,10KV515东召线40994变压器,10KV515东召线东呈召村北32015IC卡【纯农排变】,10KV515东召线32008。变压器【纯农排变】,10KV515东召线32002变压器,10KV515东召线32048变压器【纯农排变】,孟强拔丝厂","powerOffReason":"【停电原因】由于线路掉闸导致１１０ＫＶ程委变电站东召５１５线路全线停电【变更送电】因抢修进度加快原因，送电时间由２２：００变更为１２：００【发布渠道】通过９５５９８发布","powerOffId":"2019062113000151"},{"poweroffId":2019062113000132,"sgpoweroffId":null,"subsName":"","lineName":"10kV富昌站580线路","pubTranName":"0669121711-保定绿视野林业发展有限公司-500KVA,10kVB1854箱式变电站B1854配电变压器,0684469663-保定市科学技术和知识产权局-专变-223598881-变压器,10kVB1853箱式变电站B1853配电变压器,","scope":"【影响街道/乡镇】西二环 【高危重要客户】无 【影响客户】农业生态园管理处、保定科学技术和知识产权局、绿视野林业发展有限公司","startTime":"2019-07-02 07:00:00","stopDate":"2019-07-02 18:00:00","orgNo":"13406","typeCode":"计划停电","poweroffArea":"【分支停电】停10kVB1853箱式变电站B1853配电变压器,0669121711-保定绿视野林业发展有限公司-500KVA,10kVB1854箱式变电站B1854配电变压器,0684469663-保定市科学技术和知识产权局-专变-223598881-变压器","poweroffReason":"【停电原因】由于供电设备临时检修导致１０ＫＶ富昌变电站５８０线路生态园Ｈ４开关站＃３间隔开关以下停电【变更送电】因工作正在处理中，送电时间由14：00变更为18:00【发布渠道】保定市保定有线电视台（６月２４日２０时１５分至２１时４５分之间）屏幕上滚动","powerTime":"2019-07-02 17:38:08","powerComm":"已送电","subsNo":"","lineNo":"","tgNo":"","tgName":null,"infoStatus":"1","orgName":"保定供电公司","typeName":null,"infoStatusName":null,"dateDay":null,"orgNos":null,"nowTime":null,"countyName":null,"streetName":null,"villageName":null,"roadName":null,"communityName":null,"tranName":null,"sdLineName":null,"cityCode":"13406","cityName":"保定供电公司","provinceCode":null,"stopTime":"2019-07-02 18:00:00","powerType":"全部","powerOffArea":"【分支停电】停10kVB1853箱式变电站B1853配电变压器,0669121711-保定绿视野林业发展有限公司-500KVA,10kVB1854箱式变电站B1854配电变压器,0684469663-保定市科学技术和知识产权局-专变-223598881-变压器","powerOffReason":"【停电原因】由于供电设备临时检修导致１０ＫＶ富昌变电站５８０线路生态园Ｈ４开关站＃３间隔开关以下停电【变更送电】因工作正在处理中，送电时间由14：00变更为18:00【发布渠道】保定市保定有线电视台（６月２４日２０时１５分至２１时４５分之间）屏幕上滚动","powerOffId":"2019062113000132"},{"poweroffId":2019062113000131,"sgpoweroffId":null,"subsName":"","lineName":"10kV崔闸站563线路","pubTranName":"B271柱上变压器,B1599柱上变压器,B708柱上变压器,","scope":"【影响街道/乡镇 】七一路、仁惠街、向阳北大街、盛兴西路 【高危重要客户】无 【影响客户】龙门水库宿舍、劳动局宿舍、农行、农机宿舍、税务局宿舍、税务局、中廉良小区、农机公司、仁惠街58号、向阳北大街555号、七一路铝厂，铝厂宿舍、廉良劳动服务公司、金鹏大厦","startTime":"2019-07-03 07:00:00","stopDate":"2019-07-03 14:00:00","orgNo":"13406","typeCode":"计划停电","poweroffArea":"【单台区停电】停B271柱上变压器","poweroffReason":"【停电原因】由于供电设备临时检修导致１０ＫＶ崔闸变电站５６３线路Ｂ２７１公变台区停电【变更送电】无【发布渠道】保定市保定有线电视台（６月２５日２０时１５分至２１时４５分之间）屏幕上滚动","powerTime":"2019-07-03 13:12:47","powerComm":"已送电","subsNo":"","lineNo":"","tgNo":"","tgName":null,"infoStatus":"1","orgName":"保定供电公司","typeName":null,"infoStatusName":null,"dateDay":null,"orgNos":null,"nowTime":null,"countyName":null,"streetName":null,"villageName":null,"roadName":null,"communityName":null,"tranName":null,"sdLineName":null,"cityCode":"13406","cityName":"保定供电公司","provinceCode":null,"stopTime":"2019-07-03 14:00:00","powerType":"全部","powerOffArea":"【单台区停电】停B271柱上变压器","powerOffReason":"【停电原因】由于供电设备临时检修导致１０ＫＶ崔闸变电站５６３线路Ｂ２７１公变台区停电【变更送电】无【发布渠道】保定市保定有线电视台（６月２５日２０时１５分至２１时４５分之间）屏幕上滚动","powerOffId":"2019062113000131"},{"poweroffId":2019062113000114,"sgpoweroffId":null,"subsName":"","lineName":"10kV514东五夫线","pubTranName":"于林村农排3台区【纯农排变】,南五夫综合7台区,于林村农排2台区【纯农排变】,石庄村综合1台区,南五夫农排4台区【纯农排变】,南五夫农排10台区【纯农排变】,于林村农排1台区【纯农排变】,吾尔头农排2台区【纯农排变】,张庄农排3台区【纯农排变】,东伍夫农排11台区【纯农排变】,马佐农排3台区【纯农排变】,东伍夫综合1台区,乡政府,马佐综合1台区,南五夫农排9台区【纯农排变】,张庄综合4台区,东伍夫综合2台区,东伍夫农排14台区【纯农排变】,吾尔头农排1台区【纯农排变】,东五夫农排16台区【纯农排变】,东伍夫综合4台区,南伍夫农排2台区【纯农排变】,马佐综合3台区,南五夫综合9台区,东伍夫农排8台区【纯农排变】,保去砖厂大,东五夫综合5台区,东伍夫农排7台区【纯农排变】,南五夫农排7台区【纯农排变】,悟儿头综合3台区,张庄农排1台区【纯农排变】,东伍夫农排3台区【纯农排变】,张庄农排2台区【纯农排变】,石庄件厂,南伍夫农排1台区【纯农排变】,东伍夫农排12台区【纯农排变】,马佐综合2台区,东五夫综合6台区,吾尔头综合1台区,捂儿头农用正北,东伍夫综合10台区,东五夫综合11台区,张庄综合5台区,东伍夫农排1台区【纯农排变】,张庄综合3台区,东伍夫农排5台区【纯农排变】,邢台市龙翔钻探有限公司变压器,南五夫农排6台区【纯农排变】,南五夫面粉厂,东五夫综合7台区,悟儿头综合2台区,南五夫农排5台区【纯农排变】,马佐农排4台区【纯农排变】,东伍夫农排2台区【纯农排变】,马佐综合4台区,南五夫农排3台区【纯农排变】,东五夫综合9台区,东伍夫农排4台区【纯农排变】,东五夫综合8台区,南伍夫综合3台区,保去砖厂小,张庄农排4台区【纯农排变】,张庄综合2台区,南伍夫综合1台区,东伍夫农排10台区【纯农排变】,张庄综合1台区,南五夫农排8台区【纯农排变】,南伍夫综合2台区,东伍夫农排9台区【纯农排变】,南五夫综合8台区,捂儿头面粉厂,鲍墟供电所变压器,马佐农排1台区【纯农排变】,东伍夫农排15台区【纯农排变】,东伍夫综合3台区,马佐农排2台区【纯农排变】,东伍夫农排6台区【纯农排变】,南五夫农排12台区【纯农排变】,东伍夫农排13台区【纯农排变】,南伍夫综合4台区,南五夫农排11台区【纯农排变】,马佐革区西,南五夫综合6台区,南伍夫综合5台区,","scope":"【影响街道/乡镇】鲍墟乡【高危重要客户】无【影响客户】南五夫村、东五夫村、张庄村、马佐村、悟儿头村、榆林村","startTime":"2019-06-30 04:00:00","stopDate":"2019-07-01 05:00:00","orgNo":"1340616","typeCode":"计划停电","poweroffArea":"【全线路停电】停南五夫综合7台区,南五夫农排9台区【纯农排变】,马佐农排1台区【纯农排变】,东伍夫农排11台区【纯农排变】,东伍夫农排15台区【纯农排变】,东五夫综合9台区,张庄综合2台区,东五夫综合11台区,东伍夫农排7台区【纯农排变】,南五夫农排3台区【纯农排变】,张庄农排2台区【纯农排变】,南五夫农排4台区【纯农排变】,东伍夫农排1台区【纯农排变】,东五夫农排16台区【纯农排变】,张庄农排1台区【纯农排变】,东伍夫综合2台区,于林村农排2台区【纯农排变】,南伍夫综合5台区,于林村农排3台区【纯农排变】,南五夫农排12台区【纯农排变】,东伍夫农排5台区【纯农排变】,悟儿头综合2台区,南五夫农排8台区【纯农排变】,南伍夫综合3台区,邢台市龙翔钻探有限公司变压器,乡政府,石庄件厂,马佐综合1台区,吾尔头农排1台区【纯农排变】,保去砖厂小,东五夫综合6台区,东伍夫农排10台区【纯农排变】,张庄农排3台区【纯农排变】,南五夫农排11台区【纯农排变】,马佐综合4台区,南伍夫综合1台区,于林村农排1台区【纯农排变】,东伍夫农排6台区【纯农排变】,东伍夫综合10台区,东伍夫农排14台区【纯农排变】,马佐革区西,捂儿头农用正北,南五夫综合8台区,南五夫综合9台区,东伍夫农排2台区【纯农排变】,南五夫面粉厂,悟儿头综合3台区,南伍夫综合4台区,鲍墟供电所变压器,石庄村综合1台区,东伍夫农排12台区【纯农排变】,马佐农排3台区【纯农排变】,东伍夫综合1台区,东伍夫农排8台区【纯农排变】,张庄综合5台区,马佐综合3台区,南五夫综合6台区,东伍夫农排9台区【纯农排变】,东伍夫农排3台区【纯农排变】,南伍夫农排2台区【纯农排变】,马佐农排4台区【纯农排变】,东伍夫农排13台区【纯农排变】,东五夫综合8台区,张庄农排4台区【纯农排变】,保去砖厂大,捂儿头面粉厂,南五夫农排6台区【纯农排变】,南五夫农排10台区【纯农排变】,东伍夫农排4台区【纯农排变】,张庄综合3台区,吾尔头农排2台区【纯农排变】,东五夫综合7台区,南五夫农排7台区【纯农排变】,吾尔头综合1台区,南伍夫农排1台区【纯农排变】,张庄综合1台区,张庄综合4台区,东伍夫综合3台区,马佐综合2台区,东五夫综合5台区,马佐农排2台区【纯农排变】,南五夫农排5台区【纯农排变】,东伍夫综合4台区,南伍夫综合2台区","poweroffReason":"【停电原因】由于保护传动试验导致３５ＫＶ鲍墟变电站１０ＫＶ东五夫５１４线路全线停电【变更送电】因工作量大的原因，送电时间由０４：００变更为０５：００【发布渠道】蠡县电视台（０６月２１日至０６月２９日２０：００至２２：００之间）","powerTime":"2019-07-01 04:01:03","powerComm":"已送电","subsNo":"","lineNo":"","tgNo":"","tgName":null,"infoStatus":"1","orgName":"国网蠡县供电公司","typeName":null,"infoStatusName":null,"dateDay":null,"orgNos":null,"nowTime":null,"countyName":null,"streetName":null,"villageName":null,"roadName":null,"communityName":null,"tranName":null,"sdLineName":null,"cityCode":"1340616","cityName":"国网蠡县供电公司","provinceCode":null,"stopTime":"2019-07-01 05:00:00","powerType":"全部","powerOffArea":"【全线路停电】停南五夫综合7台区,南五夫农排9台区【纯农排变】,马佐农排1台区【纯农排变】,东伍夫农排11台区【纯农排变】,东伍夫农排15台区【纯农排变】,东五夫综合9台区,张庄综合2台区,东五夫综合11台区,东伍夫农排7台区【纯农排变】,南五夫农排3台区【纯农排变】,张庄农排2台区【纯农排变】,南五夫农排4台区【纯农排变】,东伍夫农排1台区【纯农排变】,东五夫农排16台区【纯农排变】,张庄农排1台区【纯农排变】,东伍夫综合2台区,于林村农排2台区【纯农排变】,南伍夫综合5台区,于林村农排3台区【纯农排变】,南五夫农排12台区【纯农排变】,东伍夫农排5台区【纯农排变】,悟儿头综合2台区,南五夫农排8台区【纯农排变】,南伍夫综合3台区,邢台市龙翔钻探有限公司变压器,乡政府,石庄件厂,马佐综合1台区,吾尔头农排1台区【纯农排变】,保去砖厂小,东五夫综合6台区,东伍夫农排10台区【纯农排变】,张庄农排3台区【纯农排变】,南五夫农排11台区【纯农排变】,马佐综合4台区,南伍夫综合1台区,于林村农排1台区【纯农排变】,东伍夫农排6台区【纯农排变】,东伍夫综合10台区,东伍夫农排14台区【纯农排变】,马佐革区西,捂儿头农用正北,南五夫综合8台区,南五夫综合9台区,东伍夫农排2台区【纯农排变】,南五夫面粉厂,悟儿头综合3台区,南伍夫综合4台区,鲍墟供电所变压器,石庄村综合1台区,东伍夫农排12台区【纯农排变】,马佐农排3台区【纯农排变】,东伍夫综合1台区,东伍夫农排8台区【纯农排变】,张庄综合5台区,马佐综合3台区,南五夫综合6台区,东伍夫农排9台区【纯农排变】,东伍夫农排3台区【纯农排变】,南伍夫农排2台区【纯农排变】,马佐农排4台区【纯农排变】,东伍夫农排13台区【纯农排变】,东五夫综合8台区,张庄农排4台区【纯农排变】,保去砖厂大,捂儿头面粉厂,南五夫农排6台区【纯农排变】,南五夫农排10台区【纯农排变】,东伍夫农排4台区【纯农排变】,张庄综合3台区,吾尔头农排2台区【纯农排变】,东五夫综合7台区,南五夫农排7台区【纯农排变】,吾尔头综合1台区,南伍夫农排1台区【纯农排变】,张庄综合1台区,张庄综合4台区,东伍夫综合3台区,马佐综合2台区,东五夫综合5台区,马佐农排2台区【纯农排变】,南五夫农排5台区【纯农排变】,东伍夫综合4台区,南伍夫综合2台区","powerOffReason":"【停电原因】由于保护传动试验导致３５ＫＶ鲍墟变电站１０ＫＶ东五夫５１４线路全线停电【变更送电】因工作量大的原因，送电时间由０４：００变更为０５：００【发布渠道】蠡县电视台（０６月２１日至０６月２９日２０：００至２２：００之间）","powerOffId":"2019062113000114"},{"poweroffId":2019062113000110,"sgpoweroffId":null,"subsName":"","lineName":"10kV512野陈佐线","pubTranName":"蠡县春梅芦笋农民专业合作社,野陈佐综合4台区,北保去农排5台区【纯农排变】,北保去农排4台区【纯农排变】,野陈佐综合9台区,蠡县淑亮狐饲料农民专业合作社,野陈佐农排1台区【纯农排变】,野陈佐综合10台区,野陈佐综合2台区,野陈佐综合3台区,野陈佐农排10台区【纯农排变】,西保去农排2台区【纯农排变】,东鲍墟农排7台区,北保去农排7台区【纯农排变】,西保去农排1台区【纯农排变】,野陈佐农排7台区【纯农排变】,野陈佐农排8台区【纯农排变】,野陈佐农排11台区【纯农排变】,中学农场,野陈佐农排5台区【纯农排变】,野陈佐综合8台区,野陈佐农排9台区【纯农排变】,野陈佐综合11台区,野陈佐综合1台区,野陈佐综合5台区,野陈佐综合12台区,东保去农排3台区【纯农排变】,北保去农排9台区【纯农排变】,野陈佐农排3台区【纯农排变】,野陈佐综合6台区,野陈佐综合7台区,野陈佐农排2台区【纯农排变】,养牛厂,小杰,中学农场大变压器,西保去农排4台区【纯农排变】,西保去农排3台区【纯农排变】,野陈佐农排6台区【纯农排变】,西保去农排7台区【纯农排变】,北保去农排10台区【纯农排变】,东保去农排5台区【纯农排变】,野陈佐农排4台区【纯农排变】,","scope":"【影响街道/乡镇】鲍墟乡【高危重要客户】无【影响客户】野陈佐村、北鲍墟村、西鲍墟村","startTime":"2019-06-30 04:00:00","stopDate":"2019-07-01 05:00:00","orgNo":"1340616","typeCode":"计划停电","poweroffArea":"【全线路停电】停西保去农排3台区【纯农排变】,野陈佐农排6台区【纯农排变】,西保去农排7台区【纯农排变】,北保去农排10台区【纯农排变】,东保去农排5台区【纯农排变】,野陈佐农排4台区【纯农排变】,蠡县春梅芦笋农民专业合作社,野陈佐综合4台区,北保去农排5台区【纯农排变】,北保去农排4台区【纯农排变】,野陈佐综合9台区,蠡县淑亮狐饲料农民专业合作社,野陈佐农排1台区【纯农排变】,野陈佐综合10台区,野陈佐综合2台区,野陈佐综合3台区,野陈佐农排10台区【纯农排变】,西保去农排2台区【纯农排变】,东鲍墟农排7台区,北保去农排7台区【纯农排变】,西保去农排1台区【纯农排变】,野陈佐农排7台区【纯农排变】,野陈佐农排8台区【纯农排变】,野陈佐农排11台区【纯农排变】,中学农场,野陈佐农排5台区【纯农排变】,野陈佐综合8台区,野陈佐农排9台区【纯农排变】,野陈佐综合11台区,野陈佐综合1台区,野陈佐综合5台区,野陈佐综合12台区,东保去农排3台区【纯农排变】,北保去农排9台区【纯农排变】,野陈佐农排3台区【纯农排变】,野陈佐综合6台区,野陈佐综合7台区,野陈佐农排2台区【纯农排变】,养牛厂,小杰,中学农场大变压器,西保去农排4台区【纯农排变】","poweroffReason":"【停电原因】由于保护传动试验导致３５ＫＶ鲍墟变电站１０ＫＶ野陈佐５１２线路全线停电【变更送电】因工作量大的原因，送电时间由０４：００变更为０５：００【发布渠道】蠡县电视台（０６月２１日至０６月２９日２０：００至２２：００之间）","powerTime":"2019-07-01 04:00:24","powerComm":"已送电","subsNo":"","lineNo":"","tgNo":"","tgName":null,"infoStatus":"1","orgName":"国网蠡县供电公司","typeName":null,"infoStatusName":null,"dateDay":null,"orgNos":null,"nowTime":null,"countyName":null,"streetName":null,"villageName":null,"roadName":null,"communityName":null,"tranName":null,"sdLineName":null,"cityCode":"1340616","cityName":"国网蠡县供电公司","provinceCode":null,"stopTime":"2019-07-01 05:00:00","powerType":"全部","powerOffArea":"【全线路停电】停西保去农排3台区【纯农排变】,野陈佐农排6台区【纯农排变】,西保去农排7台区【纯农排变】,北保去农排10台区【纯农排变】,东保去农排5台区【纯农排变】,野陈佐农排4台区【纯农排变】,蠡县春梅芦笋农民专业合作社,野陈佐综合4台区,北保去农排5台区【纯农排变】,北保去农排4台区【纯农排变】,野陈佐综合9台区,蠡县淑亮狐饲料农民专业合作社,野陈佐农排1台区【纯农排变】,野陈佐综合10台区,野陈佐综合2台区,野陈佐综合3台区,野陈佐农排10台区【纯农排变】,西保去农排2台区【纯农排变】,东鲍墟农排7台区,北保去农排7台区【纯农排变】,西保去农排1台区【纯农排变】,野陈佐农排7台区【纯农排变】,野陈佐农排8台区【纯农排变】,野陈佐农排11台区【纯农排变】,中学农场,野陈佐农排5台区【纯农排变】,野陈佐综合8台区,野陈佐农排9台区【纯农排变】,野陈佐综合11台区,野陈佐综合1台区,野陈佐综合5台区,野陈佐综合12台区,东保去农排3台区【纯农排变】,北保去农排9台区【纯农排变】,野陈佐农排3台区【纯农排变】,野陈佐综合6台区,野陈佐综合7台区,野陈佐农排2台区【纯农排变】,养牛厂,小杰,中学农场大变压器,西保去农排4台区【纯农排变】","powerOffReason":"【停电原因】由于保护传动试验导致３５ＫＶ鲍墟变电站１０ＫＶ野陈佐５１２线路全线停电【变更送电】因工作量大的原因，送电时间由０４：００变更为０５：００【发布渠道】蠡县电视台（０６月２１日至０６月２９日２０：００至２２：００之间）","powerOffId":"2019062113000110"},{"poweroffId":2019062113000100,"sgpoweroffId":null,"subsName":"","lineName":"10kV515齐营线","pubTranName":"齐营综合11台区,刘佃庄综合5台区,齐营农排1台区【纯农排变】,刘佃庄综合7台区,南口农排2台区【纯农排变】,刘佃庄农排5台区【纯农排变】,东口农排7台区【纯农排变】,正南庄农排2台区【纯农排变】,中口农排2台区【纯农排变】,正南庄农排3台区【纯农排变】,西南庄农排1台区【纯农排变】,刘佃庄综合1台区,齐营综合7台区,中口农排3台区【纯农排变】,齐营农排9台区【纯农排变】,中国移动通信集团河北有限公司蠡县分公司刘佃庄村变压器,刘佃庄农排3台区【纯农排变】,齐营综合3台区,西南庄农排3台区【纯农排变】,齐营农排11台区【纯农排变】,南口农排5台区【纯农排变】,齐营综合9台区,刘佃庄综合4台区,刘佃庄农排8台区【纯农排变】,冷冻厂,齐营农排13台区【纯农排变】,东口农排3台区【纯农排变】,中国石油天然气股份有限公司华北油田分公司,东口农排10台区【纯农排变】,齐营农排3台区【纯农排变】,刘佃庄农排2台区【纯农排变】,正南庄综合5台区,东口农排5台区【纯农排变】,东口综合20台区,刘佃庄综合9台区,刘佃庄综合8台区,西南庄农排2台区【纯农排变】,西南庄综合3台区,刘佃庄农排10台区【纯农排变】,正南庄综合4台区,齐营综合4台区,东口地,齐营综合6台区,正南庄综合6台区,齐营农排8台区【纯农排变】,齐营综合1台区,正南庄综合2台区,刘佃庄农排4台区【纯农排变】,东口农排4台区【纯农排变】,齐营农排6台区【纯农排变】,刘佃庄综合2台区,蠡县东口利兆特种养殖厂变压器,刘佃庄农排7台区【纯农排变】,蠡县东口第二饲养厂变压器,正南庄农排1台区【纯农排变】,正南庄综合1台区,刘佃庄农排9台区【纯农排变】,南口农排3台区【纯农排变】,东口农排9台区【纯农排变】,齐营农排2台区【纯农排变】,齐营综合2台区,齐营农排12台区【纯农排变】,正南庄综合8台区,刘佃庄农排6台区【纯农排变】,齐营农排10台区【纯农排变】,东口农排8台区【纯农排变】,刘佃庄综合六台区,东口农排6台区【纯农排变】,齐营农排7台区【纯农排变】,齐营综合5台区,西南庄综合7台区,紫玉养殖厂,蠡县东口绿丹蓝养殖场变压器,蠡县东口第一养殖厂变压器,齐营农排5台区【纯农排变】,正南庄综合9台区,西南庄农排4台区【纯农排变】,齐营综合8台区,刘佃庄农排1台区【纯农排变】,正南庄综合7台区,齐营综合12台区,刘佃庄综合10台区,齐营农排4台区【纯农排变】,正南庄农排4台区【纯农排变】,东口农排2台区【纯农排变】,南口农排4台区【纯农排变】,正南庄综合3台区,齐营综合10台区,","scope":"【影响街道/乡镇】鲍墟乡【高危重要客户】无【影响客户】齐营村、东口村、刘佃庄村、西南庄村、正南庄村、南口村、西口村","startTime":"2019-06-30 04:00:00","stopDate":"2019-07-01 05:00:00","orgNo":"1340616","typeCode":"计划停电","poweroffArea":"【全线路停电】停正南庄农排1台区【纯农排变】,齐营农排6台区【纯农排变】,刘佃庄综合六台区,正南庄农排4台区【纯农排变】,东口农排5台区【纯农排变】,刘佃庄综合4台区,东口农排8台区【纯农排变】,齐营综合12台区,刘佃庄综合5台区,正南庄农排2台区【纯农排变】,齐营综合9台区,刘佃庄农排4台区【纯农排变】,齐营综合1台区,正南庄综合2台区,刘佃庄农排1台区【纯农排变】,冷冻厂,刘佃庄农排6台区【纯农排变】,刘佃庄农排10台区【纯农排变】,紫玉养殖厂,齐营农排5台区【纯农排变】,齐营综合7台区,齐营综合10台区,齐营综合11台区,西南庄综合3台区,东口综合20台区,齐营综合8台区,西南庄农排1台区【纯农排变】,齐营农排4台区【纯农排变】,正南庄综合9台区,中口农排2台区【纯农排变】,齐营农排3台区【纯农排变】,正南庄农排3台区【纯农排变】,蠡县东口利兆特种养殖厂变压器,刘佃庄农排5台区【纯农排变】,蠡县东口绿丹蓝养殖场变压器,东口农排4台区【纯农排变】,正南庄综合6台区,齐营农排1台区【纯农排变】,正南庄综合1台区,正南庄综合4台区,东口农排10台区【纯农排变】,正南庄综合7台区,正南庄综合8台区,西南庄农排2台区【纯农排变】,正南庄综合5台区,齐营农排10台区【纯农排变】,齐营综合5台区,中国移动通信集团河北有限公司蠡县分公司刘佃庄村变压器,齐营农排2台区【纯农排变】,齐营农排11台区【纯农排变】,东口农排6台区【纯农排变】,刘佃庄综合9台区,东口农排9台区【纯农排变】,齐营农排12台区【纯农排变】,刘佃庄综合1台区,刘佃庄农排3台区【纯农排变】,东口农排7台区【纯农排变】,刘佃庄农排9台区【纯农排变】,刘佃庄农排2台区【纯农排变】,东口地,齐营农排13台区【纯农排变】,蠡县东口第二饲养厂变压器,西南庄农排4台区【纯农排变】,刘佃庄综合8台区,刘佃庄农排8台区【纯农排变】,南口农排4台区【纯农排变】,齐营综合4台区,刘佃庄综合2台区,中口农排3台区【纯农排变】,齐营综合6台区,刘佃庄农排7台区【纯农排变】,刘佃庄综合7台区,正南庄综合3台区,刘佃庄综合10台区,蠡县东口第一养殖厂变压器,南口农排5台区【纯农排变】,南口农排2台区【纯农排变】,齐营农排8台区【纯农排变】,西南庄农排3台区【纯农排变】,齐营农排9台区【纯农排变】,齐营综合2台区,齐营农排7台区【纯农排变】,中国石油天然气股份有限公司华北油田分公司,西南庄综合7台区,齐营综合3台区,东口农排2台区【纯农排变】,南口农排3台区【纯农排变】,东口农排3台区【纯农排变】","poweroffReason":"【停电原因】由于保护传动试验导致３５ＫＶ鲍墟变电站１０ＫＶ齐营５１５线路全线停电【变更送电】因工作量大的原因，送电时间由０４：００变更为０５：００【发布渠道】蠡县电视台（０６月２１日至０６月２９日２０：００至２２：００之间）","powerTime":"2019-07-01 04:01:20","powerComm":"已送电","subsNo":"","lineNo":"","tgNo":"","tgName":null,"infoStatus":"1","orgName":"国网蠡县供电公司","typeName":null,"infoStatusName":null,"dateDay":null,"orgNos":null,"nowTime":null,"countyName":null,"streetName":null,"villageName":null,"roadName":null,"communityName":null,"tranName":null,"sdLineName":null,"cityCode":"1340616","cityName":"国网蠡县供电公司","provinceCode":null,"stopTime":"2019-07-01 05:00:00","powerType":"全部","powerOffArea":"【全线路停电】停正南庄农排1台区【纯农排变】,齐营农排6台区【纯农排变】,刘佃庄综合六台区,正南庄农排4台区【纯农排变】,东口农排5台区【纯农排变】,刘佃庄综合4台区,东口农排8台区【纯农排变】,齐营综合12台区,刘佃庄综合5台区,正南庄农排2台区【纯农排变】,齐营综合9台区,刘佃庄农排4台区【纯农排变】,齐营综合1台区,正南庄综合2台区,刘佃庄农排1台区【纯农排变】,冷冻厂,刘佃庄农排6台区【纯农排变】,刘佃庄农排10台区【纯农排变】,紫玉养殖厂,齐营农排5台区【纯农排变】,齐营综合7台区,齐营综合10台区,齐营综合11台区,西南庄综合3台区,东口综合20台区,齐营综合8台区,西南庄农排1台区【纯农排变】,齐营农排4台区【纯农排变】,正南庄综合9台区,中口农排2台区【纯农排变】,齐营农排3台区【纯农排变】,正南庄农排3台区【纯农排变】,蠡县东口利兆特种养殖厂变压器,刘佃庄农排5台区【纯农排变】,蠡县东口绿丹蓝养殖场变压器,东口农排4台区【纯农排变】,正南庄综合6台区,齐营农排1台区【纯农排变】,正南庄综合1台区,正南庄综合4台区,东口农排10台区【纯农排变】,正南庄综合7台区,正南庄综合8台区,西南庄农排2台区【纯农排变】,正南庄综合5台区,齐营农排10台区【纯农排变】,齐营综合5台区,中国移动通信集团河北有限公司蠡县分公司刘佃庄村变压器,齐营农排2台区【纯农排变】,齐营农排11台区【纯农排变】,东口农排6台区【纯农排变】,刘佃庄综合9台区,东口农排9台区【纯农排变】,齐营农排12台区【纯农排变】,刘佃庄综合1台区,刘佃庄农排3台区【纯农排变】,东口农排7台区【纯农排变】,刘佃庄农排9台区【纯农排变】,刘佃庄农排2台区【纯农排变】,东口地,齐营农排13台区【纯农排变】,蠡县东口第二饲养厂变压器,西南庄农排4台区【纯农排变】,刘佃庄综合8台区,刘佃庄农排8台区【纯农排变】,南口农排4台区【纯农排变】,齐营综合4台区,刘佃庄综合2台区,中口农排3台区【纯农排变】,齐营综合6台区,刘佃庄农排7台区【纯农排变】,刘佃庄综合7台区,正南庄综合3台区,刘佃庄综合10台区,蠡县东口第一养殖厂变压器,南口农排5台区【纯农排变】,南口农排2台区【纯农排变】,齐营农排8台区【纯农排变】,西南庄农排3台区【纯农排变】,齐营农排9台区【纯农排变】,齐营综合2台区,齐营农排7台区【纯农排变】,中国石油天然气股份有限公司华北油田分公司,西南庄综合7台区,齐营综合3台区,东口农排2台区【纯农排变】,南口农排3台区【纯农排变】,东口农排3台区【纯农排变】","powerOffReason":"【停电原因】由于保护传动试验导致３５ＫＶ鲍墟变电站１０ＫＶ齐营５１５线路全线停电【变更送电】因工作量大的原因，送电时间由０４：００变更为０５：００【发布渠道】蠡县电视台（０６月２１日至０６月２９日２０：００至２２：００之间）","powerOffId":"2019062113000100"},{"poweroffId":2019062113000084,"sgpoweroffId":null,"subsName":"","lineName":"10kV513莲子口线","pubTranName":"东口综合15台区,西南庄综合4台区,东口综合22台区,北口综合1台区,0469437267-蠡县博亚服装有限公司-专变-214337787-蠡县博亚服装有限公司变压器,西南庄综合1台区,东口综合21台区,东口综合12台区,东口综合24台区,南口综合1台区,中国移动通信集团河北有限公司蠡县分公司,西南庄综合六台区,南口综合5台区,东口综合13台区,中口综合6台区,南口综合6台区,东口综合19台区,东口综合7台区,北口农排1台区【纯农排变】,南口综合10台区,东口综合8台区,东口综合2台区,中口综合7台区,西口综合1台区,南口综合9台区,东口综合1台区,东口综合5台区,北口农排3台区【纯农排变】,西口综合2台区,中口综合5台区,中口综合1台区,东口综合4台区,西口综合4台区,东口综合16台区,西南庄综合2台区,东口综合23台区,南口综合7台区,东口综合6台区,东口综合17台区,东口综合11台区,西口农排3台区【纯农排变】,南口综合4台区,南口综合11台区,西南庄综合5台区,东口综合18台区,北口农排2台区【纯农排变】,南口综合2台区,中口综合2台区,南口农排1台区【纯农排变】,光明,东兴,东口农排1台区【纯农排变】,南口综合3台区,中口农排1台区【纯农排变】,北口综合3台区,蠡县瑞鹏物业服务有限公司变压器,东口综合10台区,中口综合3台区,南口综合8台区,西南庄综合8台区,东口综合14台区,东口综合9台区,北口综合2台区,中口综合4台区,西口综合3台区,东口综合3台区,","scope":"【影响街道/乡镇】鲍墟乡【高危重要客户】无【影响客户】南莲子口村、中莲子口村、东莲子口村、北莲子口村、西南庄村、西莲子口村","startTime":"2019-06-30 04:00:00","stopDate":"2019-07-01 05:00:00","orgNo":"1340616","typeCode":"计划停电","poweroffArea":"【全线路停电】停北口农排2台区【纯农排变】,北口农排3台区【纯农排变】,东口综合19台区,南口综合2台区,东口综合18台区,北口农排1台区【纯农排变】,东口综合10台区,南口综合8台区,北口综合3台区,西南庄综合1台区,光明,南口综合1台区,东口综合6台区,中口综合7台区,东口综合22台区,东兴,南口综合11台区,东口综合2台区,东口农排1台区【纯农排变】,东口综合16台区,西口综合2台区,东口综合11台区,西口综合3台区,东口综合15台区,东口综合9台区,西南庄综合4台区,中口农排1台区","poweroffReason":"【停电原因】由于保护传动试验导致３５ＫＶ鲍墟变电站１０ＫＶ莲子口５１３线路全线停电【变更送电】因工作量大的原因，送电时间由０４：００变更为０５：００【发布渠道】蠡县电视台（０６月２１日至０６月２９日２０：００至２２：００之间）","powerTime":"2019-07-01 04:01:35","powerComm":"已送电","subsNo":"","lineNo":"","tgNo":"","tgName":null,"infoStatus":"1","orgName":"国网蠡县供电公司","typeName":null,"infoStatusName":null,"dateDay":null,"orgNos":null,"nowTime":null,"countyName":null,"streetName":null,"villageName":null,"roadName":null,"communityName":null,"tranName":null,"sdLineName":null,"cityCode":"1340616","cityName":"国网蠡县供电公司","provinceCode":null,"stopTime":"2019-07-01 05:00:00","powerType":"全部","powerOffArea":"【全线路停电】停北口农排2台区【纯农排变】,北口农排3台区【纯农排变】,东口综合19台区,南口综合2台区,东口综合18台区,北口农排1台区【纯农排变】,东口综合10台区,南口综合8台区,北口综合3台区,西南庄综合1台区,光明,南口综合1台区,东口综合6台区,中口综合7台区,东口综合22台区,东兴,南口综合11台区,东口综合2台区,东口农排1台区【纯农排变】,东口综合16台区,西口综合2台区,东口综合11台区,西口综合3台区,东口综合15台区,东口综合9台区,西南庄综合4台区,中口农排1台区","powerOffReason":"【停电原因】由于保护传动试验导致３５ＫＶ鲍墟变电站１０ＫＶ莲子口５１３线路全线停电【变更送电】因工作量大的原因，送电时间由０４：００变更为０５：００【发布渠道】蠡县电视台（０６月２１日至０６月２９日２０：００至２２：００之间）","powerOffId":"2019062113000084"},{"poweroffId":2019062113000075,"sgpoweroffId":null,"subsName":"","lineName":"10kV516市场线","pubTranName":"阳光嘉园综合6台区,市场综合4台区,友福,市场综合2台区,市场综合3台区,阳光嘉园综合7台区,阳光嘉园综合3台区,市场综合1台区,阳光嘉园综合5台区,市场综合5出线间隔配电变压器,阳光嘉园综合4台区,友福皮毛有限公司变压器,阳光嘉园综合2台区,阳光嘉园综合1台区,","scope":"【影响街道/乡镇】鲍墟乡【高危重要客户】无【影响客户】东口市场、阳光嘉园","startTime":"2019-06-30 04:00:00","stopDate":"2019-07-01 05:00:00","orgNo":"1340616","typeCode":"计划停电","poweroffArea":"【全线路停电】停友福,市场综合5出线间隔配电变压器,阳光嘉园综合1台区,阳光嘉园综合4台区,市场综合2台区,阳光嘉园综合6台区,市场综合4台区,阳光嘉园综合5台区,市场综合3台区,阳光嘉园综合3台区,友福皮毛有限公司变压器,阳光嘉园综合2台区,阳光嘉园综合7台区,市场综合1台区","poweroffReason":"【停电原因】由于保护传动试验导致３５ＫＶ鲍墟变电站１０ＫＶ市场５１６线路全线停电【变更送电】因工作量大的原因，送电时间由０４：００变更为０５：００【发布渠道】蠡县电视台（０６月２１日至０６月２９日２０：００至２２：００之间）","powerTime":"2019-07-01 04:01:55","powerComm":"已送电","subsNo":"","lineNo":"","tgNo":"","tgName":null,"infoStatus":"1","orgName":"国网蠡县供电公司","typeName":null,"infoStatusName":null,"dateDay":null,"orgNos":null,"nowTime":null,"countyName":null,"streetName":null,"villageName":null,"roadName":null,"communityName":null,"tranName":null,"sdLineName":null,"cityCode":"1340616","cityName":"国网蠡县供电公司","provinceCode":null,"stopTime":"2019-07-01 05:00:00","powerType":"全部","powerOffArea":"【全线路停电】停友福,市场综合5出线间隔配电变压器,阳光嘉园综合1台区,阳光嘉园综合4台区,市场综合2台区,阳光嘉园综合6台区,市场综合4台区,阳光嘉园综合5台区,市场综合3台区,阳光嘉园综合3台区,友福皮毛有限公司变压器,阳光嘉园综合2台区,阳光嘉园综合7台区,市场综合1台区","powerOffReason":"【停电原因】由于保护传动试验导致３５ＫＶ鲍墟变电站１０ＫＶ市场５１６线路全线停电【变更送电】因工作量大的原因，送电时间由０４：００变更为０５：００【发布渠道】蠡县电视台（０６月２１日至０６月２９日２０：００至２２：００之间）","powerOffId":"2019062113000075"}],"pageModel":{"pageNow":919,"totalCount":10973,"totalPage":1098,"tableRows":0,"pageCount":10,"beginCount":9180},"isExperi":"1"}