{"message":"","today":"2020-06-15","seleList":[{"poweroffId":2020051313000186,"sgpoweroffId":null,"subsName":"","lineName":"东环线513","pubTranName":"董家楼村1#,石庄村2#,西亢村3#,中亢村3#,中亢村5#,石庄村8#,东亢村1#,石庄1#,西亢村2#,中亢村1#,劳动局直供,电南院直供,西亢村4#,中亢村2#,石庄村1#,中亢村4#,东亢村6#,路家庄村3#,固村家属院,西亢5#,中亢村6#,西亢村1#,","scope":"【影响街道/乡镇】易黄路、易州镇【高危重要客户】无【影响客户】东亢村、中亢村、石庄村、路家庄村、西亢村、董家楼村、易县裕和豪庭小区、易县杏林医院、电南院、固村家属院、劳动局家属院","startTime":"2020-05-24 06:30:00","stopDate":"2020-05-24 18:00:00","orgNo":"1340625","typeCode":"计划停电","poweroffArea":"【全线路停电】停李淑芳石板厂,石庄村4#,石庄村7#,西亢村2#,中油保定116加油站,中亢村1#,劳动局直供,电南院直供,东亢村4#,石庄村5#,西亢村4#,路家庄村3#,固村家属院,易县森都园园林绿化工程有限公司-200KVA,中亢村2#,石庄村1#,易县民意城内公共汽车服务中心630KVA,中亢村4#,东亢村6#,东亢村2#,易县兴发建材有限公司,中亢村6#,民政事业服务中心,易县交通局料厂(250KVA),易县杏林医院2500,桂子渠面粉厂(郭义江),易县交通局料厂(100KVA),东亢村3#,西亢村1#,污水处理厂二期500,污水处理厂二期1000KVA,董家楼村1#,石庄村2#,石庄村6#,西亢村3#,易县创意文化石有限公司1#,东亢村1#,移动公司石庄村100KVA基站,0676633306-易县裕和房地产开发有限公司-专变-216199783-易县裕和房地产开发有限公司1600KVA,刘永利,石庄1#,国有粮库一库变压器,石庄村3#,易县金沐汤泉洗浴有限公司,西亢5#,东亢村5#,中亢村3#,中亢村5#,石庄村8#","poweroffReason":"【停电原因】由于线路检修导致１１０ＫＶ易县变电站东环路５１３线路全线路停电【变更送电】无【发布渠道】保定市易县电视台（５月１５日００：００时至５月２３日２４:００时之间）屏幕上方滚动","powerTime":"2020-05-24 17:24:25","powerComm":"已送电","subsNo":"","lineNo":"","tgNo":"","tgName":null,"infoStatus":"1","orgName":"国网易县供电公司","typeName":null,"infoStatusName":null,"dateDay":null,"orgNos":null,"nowTime":null,"countyName":null,"streetName":null,"villageName":null,"roadName":null,"communityName":null,"tranName":null,"sdLineName":null,"cityCode":"1340625","cityName":"国网易县供电公司","provinceCode":null,"stopTime":"2020-05-24 18:00:00","powerType":"全部","powerOffArea":"【全线路停电】停李淑芳石板厂,石庄村4#,石庄村7#,西亢村2#,中油保定116加油站,中亢村1#,劳动局直供,电南院直供,东亢村4#,石庄村5#,西亢村4#,路家庄村3#,固村家属院,易县森都园园林绿化工程有限公司-200KVA,中亢村2#,石庄村1#,易县民意城内公共汽车服务中心630KVA,中亢村4#,东亢村6#,东亢村2#,易县兴发建材有限公司,中亢村6#,民政事业服务中心,易县交通局料厂(250KVA),易县杏林医院2500,桂子渠面粉厂(郭义江),易县交通局料厂(100KVA),东亢村3#,西亢村1#,污水处理厂二期500,污水处理厂二期1000KVA,董家楼村1#,石庄村2#,石庄村6#,西亢村3#,易县创意文化石有限公司1#,东亢村1#,移动公司石庄村100KVA基站,0676633306-易县裕和房地产开发有限公司-专变-216199783-易县裕和房地产开发有限公司1600KVA,刘永利,石庄1#,国有粮库一库变压器,石庄村3#,易县金沐汤泉洗浴有限公司,西亢5#,东亢村5#,中亢村3#,中亢村5#,石庄村8#","powerOffReason":"【停电原因】由于线路检修导致１１０ＫＶ易县变电站东环路５１３线路全线路停电【变更送电】无【发布渠道】保定市易县电视台（５月１５日００：００时至５月２３日２４:００时之间）屏幕上方滚动","powerOffId":"2020051313000186"},{"poweroffId":2020051313000156,"sgpoweroffId":null,"subsName":"","lineName":"石岗线512","pubTranName":"良岗村9#,黄沙口村1#,石岗村4#,黄沙口村3#,南坡5#,许家8#,良岗村6#,南坡村1#,良岗村1#,河西村1#,良岗村4#,黄沙口村6#,河西村4#,石岗村3#,河西村3#,许家村1#,黄沙口村2#,水口村4#【纯农排变】,方岗村2#,许家村5#,良岗村3#,良岗村10#,石岗村1#,南坡村3#,石岗村2#,许家村2#,许家村3#,许家村4#,良岗村8#,黄沙口4#,黄沙口村5#,【混全】许家村6#,许家村7#,方岗村4#,方岗村3#,黄沙口村7#,南坡村2#,南坡村4#,河西村2#,良岗村5#,水口5#,水口村3#,黄沙口村8#,良岗村7#,良岗村2#,水口村2#,方岗村1#,水口村1#,","scope":"【影响街道/乡镇】坡仓乡、良岗镇【高危重要客户】无【影响客户】水口村、黄沙口村、许家村、河西村、石岗村、南坡村、方岗村、良岗村","startTime":"2020-05-13 12:45:12","stopDate":"2020-05-13 16:00:00","orgNo":"1340625","typeCode":"电网故障停限电","poweroffArea":"【全线路停电】停石岗村3#,易县从众建材制造有限公司B250,良岗村1#,河西村1#,万鑫铁选厂,良岗村10#,聚金元铁选厂,良岗医院,黄沙口村7#,易县腾跃石材厂C250,易县利来钙粉厂(100KVA),河西村4#,兴源铁选厂,南坡村4#,易县瑞扬混凝土制造有限公司250,黄沙口村3#,许家8#,良岗村6#,福龙铁选厂,易县腾跃石材厂A250,变压器3,易县腾跃石材厂B250,黄沙口村王保同变压器,易县水口村赵艺剪纸厂变压器,易县风云景石材开采有限公司B250,南坡村1#,良岗村4#,黄沙口村6#,许家村5#,良岗村3#,森阳铁选厂,腾飞钙粉1#160KVA,变压器,石岗村1#,易县安达燃气销售有限公司变压器,南坡村3#,易县公安局良岗派出所,易县银龙石材加工厂变压器,变压器2,恒丰球团厂(500KVA),许家村1#,良岗村8#,【混全】许家村6#,许家村7#,易县金鑫石材有限公司变压器,腾飞钙粉2#200KVA,方岗村3#,南坡村2#,0469487145-良岗中心小学-专变-150628977-良岗中心小学变压器,河西村2#,良岗村5#,水口5#,易县良岗鑫跃饭店变压器,易县从众建材制造有限公司A500,良岗中心小学变压器,水口村3#,黄沙口村8#,良岗村7#,良岗村2#,良岗村9#,河西村3#,水口村4#【纯农排变】,金泰铁选厂(50KVA),易县风云景石材开采有限公司C50-水泵,石岗村2#,易县风云景石材开采有限公司D30-办公区,易县良岗中心卫生院500KVA,易县英实非金属矿产品制造有限公司250,许家村2#,许家村3#,许家村4#,易县宏安钙粉厂,黄沙口4#,黄沙口村5#,方岗村4#,水口村1#,良岗钙粉厂(360KVA),易县风云景石材开采有限公司A250,水口村2#,易县华友钙粉厂变压器,方岗村1#,黄沙口村2#,方岗村2#,赵廷刚,新双水泥制品厂变压器,良岗石板厂,黄沙口村1#,石岗村4#,南坡5#","poweroffReason":"【停电原因】由于许家１号配变Ａ相跌落烧毁导致１１０ＫＶ良岗变电站石岗线５１２线路全线路停电【变更送电】因抢修进度加快原因，送电时间由１９：００变更为１６：００【发布渠道】通过９５５９８发布","powerTime":"2020-05-13 15:34:18","powerComm":"已送电","subsNo":"","lineNo":"","tgNo":"","tgName":null,"infoStatus":"1","orgName":"国网易县供电公司","typeName":null,"infoStatusName":null,"dateDay":null,"orgNos":null,"nowTime":null,"countyName":null,"streetName":null,"villageName":null,"roadName":null,"communityName":null,"tranName":null,"sdLineName":null,"cityCode":"1340625","cityName":"国网易县供电公司","provinceCode":null,"stopTime":"2020-05-13 16:00:00","powerType":"全部","powerOffArea":"【全线路停电】停石岗村3#,易县从众建材制造有限公司B250,良岗村1#,河西村1#,万鑫铁选厂,良岗村10#,聚金元铁选厂,良岗医院,黄沙口村7#,易县腾跃石材厂C250,易县利来钙粉厂(100KVA),河西村4#,兴源铁选厂,南坡村4#,易县瑞扬混凝土制造有限公司250,黄沙口村3#,许家8#,良岗村6#,福龙铁选厂,易县腾跃石材厂A250,变压器3,易县腾跃石材厂B250,黄沙口村王保同变压器,易县水口村赵艺剪纸厂变压器,易县风云景石材开采有限公司B250,南坡村1#,良岗村4#,黄沙口村6#,许家村5#,良岗村3#,森阳铁选厂,腾飞钙粉1#160KVA,变压器,石岗村1#,易县安达燃气销售有限公司变压器,南坡村3#,易县公安局良岗派出所,易县银龙石材加工厂变压器,变压器2,恒丰球团厂(500KVA),许家村1#,良岗村8#,【混全】许家村6#,许家村7#,易县金鑫石材有限公司变压器,腾飞钙粉2#200KVA,方岗村3#,南坡村2#,0469487145-良岗中心小学-专变-150628977-良岗中心小学变压器,河西村2#,良岗村5#,水口5#,易县良岗鑫跃饭店变压器,易县从众建材制造有限公司A500,良岗中心小学变压器,水口村3#,黄沙口村8#,良岗村7#,良岗村2#,良岗村9#,河西村3#,水口村4#【纯农排变】,金泰铁选厂(50KVA),易县风云景石材开采有限公司C50-水泵,石岗村2#,易县风云景石材开采有限公司D30-办公区,易县良岗中心卫生院500KVA,易县英实非金属矿产品制造有限公司250,许家村2#,许家村3#,许家村4#,易县宏安钙粉厂,黄沙口4#,黄沙口村5#,方岗村4#,水口村1#,良岗钙粉厂(360KVA),易县风云景石材开采有限公司A250,水口村2#,易县华友钙粉厂变压器,方岗村1#,黄沙口村2#,方岗村2#,赵廷刚,新双水泥制品厂变压器,良岗石板厂,黄沙口村1#,石岗村4#,南坡5#","powerOffReason":"【停电原因】由于许家１号配变Ａ相跌落烧毁导致１１０ＫＶ良岗变电站石岗线５１２线路全线路停电【变更送电】因抢修进度加快原因，送电时间由１９：００变更为１６：００【发布渠道】通过９５５９８发布","powerOffId":"2020051313000156"},{"poweroffId":2020051313000133,"sgpoweroffId":null,"subsName":"","lineName":"庞佐线512","pubTranName":"边渡口村南新增综合,边渡口西北综合21,边渡口村南综合40,边渡口村东综合41,北柳庄村南综合,边渡口大队综合23,北柳庄综合34,","scope":"【影响街道/乡镇】庞口镇 【高危重要客户】无 【影响客户】边渡口村东南、边渡口村西北、边渡口村里、边渡口村西、北柳庄村南、北柳庄村东","startTime":"2020-05-27 06:00:00","stopDate":"2020-05-27 11:00:00","orgNo":"1340613","typeCode":"计划停电","poweroffArea":"【分支停电】停北柳庄建材厂,边渡口村南新增综合,边渡口西北综合21,北柳庄刘新城,高阳中石油昆仑燃气有限公司变压器,北柳庄村东北51#农业【纯农排变】,边渡口砖厂,边渡口村南综合40,赵秋乐,边渡口村东综合41,北柳庄村南综合,高阳县银河纺织站变压器,边渡口大队综合23,北柳庄村东50#农业【纯农排变】,边渡口村西63#农业【纯农排变】,北柳庄综合34,北柳庄刘新城(子)","poweroffReason":"【停电原因】由于新增变台接引导致１１０ＫＶ西演变电站庞佐５１２线路边渡口分支４号杆４号开关以下线路停电【变更送电】因抢修进度加快原因，送电时间由１７:３０变更为１１:００【发布渠道】高阳县电视台（５月１４日１９时至２１时之间）屏幕下方滚动播出","powerTime":"2020-05-27 10:41:57","powerComm":"已送电","subsNo":"","lineNo":"","tgNo":"","tgName":null,"infoStatus":"1","orgName":"国网高阳县供电公司","typeName":null,"infoStatusName":null,"dateDay":null,"orgNos":null,"nowTime":null,"countyName":null,"streetName":null,"villageName":null,"roadName":null,"communityName":null,"tranName":null,"sdLineName":null,"cityCode":"1340613","cityName":"国网高阳县供电公司","provinceCode":null,"stopTime":"2020-05-27 11:00:00","powerType":"全部","powerOffArea":"【分支停电】停北柳庄建材厂,边渡口村南新增综合,边渡口西北综合21,北柳庄刘新城,高阳中石油昆仑燃气有限公司变压器,北柳庄村东北51#农业【纯农排变】,边渡口砖厂,边渡口村南综合40,赵秋乐,边渡口村东综合41,北柳庄村南综合,高阳县银河纺织站变压器,边渡口大队综合23,北柳庄村东50#农业【纯农排变】,边渡口村西63#农业【纯农排变】,北柳庄综合34,北柳庄刘新城(子)","powerOffReason":"【停电原因】由于新增变台接引导致１１０ＫＶ西演变电站庞佐５１２线路边渡口分支４号杆４号开关以下线路停电【变更送电】因抢修进度加快原因，送电时间由１７:３０变更为１１:００【发布渠道】高阳县电视台（５月１４日１９时至２１时之间）屏幕下方滚动播出","powerOffId":"2020051313000133"},{"poweroffId":2020051313000090,"sgpoweroffId":null,"subsName":"","lineName":"新柳村线523","pubTranName":"边渡口校边综合,边渡口村东66综合变压器,边渡口村北综合56,边渡口村北新增综合,","scope":"【影响街道/乡镇】庞口镇 【高危重要客户】无 【影响客户】边渡口村北","startTime":"2020-05-25 06:00:00","stopDate":"2020-05-25 17:30:00","orgNo":"1340613","typeCode":"计划停电","poweroffArea":"【分支停电】停边渡口村北新增综合,高阳县润丰粮食收购站变压器01,边渡口东南33#农业【纯农排变】,边渡口村北5#农业【纯农排变】,边渡口中学,恒康纺织有限公司,边渡口校边综合,边渡口,边渡口58#农业【纯农排变】,边渡口乡35#农业【纯农排变】,边渡口村东66综合变压器,边渡口村北综合56,高阳县润丰粮食收购站变压器,边渡口东北34#农业【纯农排变】","poweroffReason":"【停电原因】由于新增变台接引导致１１０ＫＶ西演变电站新柳村５２３线路主线５９号杆５９号开关以下线路停电【变更送电】无【发布渠道】高阳县电视台（５月１４日１９时至２１时之间）屏幕下方滚动播出","powerTime":"2020-05-25 11:30:39","powerComm":"已送电","subsNo":"","lineNo":"","tgNo":"","tgName":null,"infoStatus":"1","orgName":"国网高阳县供电公司","typeName":null,"infoStatusName":null,"dateDay":null,"orgNos":null,"nowTime":null,"countyName":null,"streetName":null,"villageName":null,"roadName":null,"communityName":null,"tranName":null,"sdLineName":null,"cityCode":"1340613","cityName":"国网高阳县供电公司","provinceCode":null,"stopTime":"2020-05-25 17:30:00","powerType":"全部","powerOffArea":"【分支停电】停边渡口村北新增综合,高阳县润丰粮食收购站变压器01,边渡口东南33#农业【纯农排变】,边渡口村北5#农业【纯农排变】,边渡口中学,恒康纺织有限公司,边渡口校边综合,边渡口,边渡口58#农业【纯农排变】,边渡口乡35#农业【纯农排变】,边渡口村东66综合变压器,边渡口村北综合56,高阳县润丰粮食收购站变压器,边渡口东北34#农业【纯农排变】","powerOffReason":"【停电原因】由于新增变台接引导致１１０ＫＶ西演变电站新柳村５２３线路主线５９号杆５９号开关以下线路停电【变更送电】无【发布渠道】高阳县电视台（５月１４日１９时至２１时之间）屏幕下方滚动播出","powerOffId":"2020051313000090"},{"poweroffId":2020051313000081,"sgpoweroffId":null,"subsName":"","lineName":"衣巾店线525","pubTranName":"小史变压器,","scope":"【影响街道/乡镇】梁家营乡 【高危重要客户】无 【影响客户】小史村","startTime":"2020-05-13 09:36:16","stopDate":"2020-05-13 17:00:00","orgNo":"1340612","typeCode":"电网故障停限电","poweroffArea":"【单台区停电】停小史变压器","poweroffReason":"【停电原因】由于主干０３号开关电缆烧毁导致１１０ＫＶ太平庄变电站１０ＫＶ衣巾店５２５线路小史公变台区停电 【变更送电】因抢修进度加快原因，送电时间由１８：００变更为１７：００ 【发布渠道】通过９５５９８发布","powerTime":"2020-05-13 16:42:25","powerComm":"已送电","subsNo":"","lineNo":"","tgNo":"","tgName":null,"infoStatus":"1","orgName":"国网高碑店市供电公司","typeName":null,"infoStatusName":null,"dateDay":null,"orgNos":null,"nowTime":null,"countyName":null,"streetName":null,"villageName":null,"roadName":null,"communityName":null,"tranName":null,"sdLineName":null,"cityCode":"1340612","cityName":"国网高碑店市供电公司","provinceCode":null,"stopTime":"2020-05-13 17:00:00","powerType":"全部","powerOffArea":"【单台区停电】停小史变压器","powerOffReason":"【停电原因】由于主干０３号开关电缆烧毁导致１１０ＫＶ太平庄变电站１０ＫＶ衣巾店５２５线路小史公变台区停电 【变更送电】因抢修进度加快原因，送电时间由１８：００变更为１７：００ 【发布渠道】通过９５５９８发布","powerOffId":"2020051313000081"},{"poweroffId":2020051313000044,"sgpoweroffId":null,"subsName":"","lineName":"10kV563土地局线","pubTranName":"曹庄综合二台区,残联综合1台区,医院门脸一|03119,东环综合6台区,农发行家属楼综合1台区,垒德农排一台区【纯农排变】,东环综合3台区,东环综合13台区,方园小区家属楼综合1台区,东环综合11台区,方圆小区综合3台区,人行小区,东环综合9台区,水利局家属楼综合1台区,","scope":"【影响街道/乡镇】蠡吾镇【高危重要客户】无【影响客户】法院、地税局、国税局、技术监督局、中国联通、土地局、卫生局、医院门脸、中国移动通信、职教东路灯、中国石油加油站、蠡县春和物业公司、方圆小区、国税家属院、技术监督局家属院、蠡县医院、法院文体家属院、天平公寓、联通家属院、医院家属院、卫生局家属院、金地家园、土地局家属院、地税局家属院、方圆小区北、蓝天小区、农发行小区、人行小区、残联、财政局、民政局、义信小区、水利局小区、建行小区、检察院、第二实验小学、城关土地所小区、垒德村、冯广信家属院、北关砖厂、（垒德村里属新乡）、东环方圆小区、兴合巴士有限公司、德茂花炮二厂、德茂花炮厂、蠡中东路灯、果园东路灯、垒德吃水井、太行房地产、蠡县正骨医院、蠡县佳佰利服装制造、圣杰养植有限公司、城关土地所、李文会颗粒、板厂东浇地","startTime":"2020-05-13 08:51:03","stopDate":"2020-05-13 11:00:00","orgNo":"1340616","typeCode":"电网故障停限电","poweroffArea":"【全线路停电】停１１０ＫＶ中滑变电站１０ＫＶ土地局５６３线路全线，果园东4447,职教东路灯4244,东环综合9台区,垒德农排一台区【纯农排变】,农发行家属楼综合1台区,东环综合11台区,方圆小区综合3台区,0683189261-蠡县兴和巴士有限公司-专变-223584100-蠡县兴和巴士有限公司,东环综合3台区,东环综合6台区,里中东路灯,法院,土地局,土地局家属楼东,土地局家属楼西,方圆小区,地税局家属院,李文会颗粒,地税局,残联综合1台区,人行小区,曹庄综合二台区,方园小区家属楼综合1台区,民政局,水利局家属楼综合1台区,医院门脸一|03119,东环综合13台区,国税局","poweroffReason":"【停电原因】由于站外开关掉闸导致１１０ＫＶ中滑变电站１０ＫＶ土地局５６３线路全线停电【变更送电】因抢修进度加快原因，送电时间由１４：００变更为１１：００【发布渠道】通过９５５９８发布","powerTime":"2020-05-13 10:23:01","powerComm":"已送电","subsNo":"","lineNo":"","tgNo":"","tgName":null,"infoStatus":"1","orgName":"国网蠡县供电公司","typeName":null,"infoStatusName":null,"dateDay":null,"orgNos":null,"nowTime":null,"countyName":null,"streetName":null,"villageName":null,"roadName":null,"communityName":null,"tranName":null,"sdLineName":null,"cityCode":"1340616","cityName":"国网蠡县供电公司","provinceCode":null,"stopTime":"2020-05-13 11:00:00","powerType":"全部","powerOffArea":"【全线路停电】停１１０ＫＶ中滑变电站１０ＫＶ土地局５６３线路全线，果园东4447,职教东路灯4244,东环综合9台区,垒德农排一台区【纯农排变】,农发行家属楼综合1台区,东环综合11台区,方圆小区综合3台区,0683189261-蠡县兴和巴士有限公司-专变-223584100-蠡县兴和巴士有限公司,东环综合3台区,东环综合6台区,里中东路灯,法院,土地局,土地局家属楼东,土地局家属楼西,方圆小区,地税局家属院,李文会颗粒,地税局,残联综合1台区,人行小区,曹庄综合二台区,方园小区家属楼综合1台区,民政局,水利局家属楼综合1台区,医院门脸一|03119,东环综合13台区,国税局","powerOffReason":"【停电原因】由于站外开关掉闸导致１１０ＫＶ中滑变电站１０ＫＶ土地局５６３线路全线停电【变更送电】因抢修进度加快原因，送电时间由１４：００变更为１１：００【发布渠道】通过９５５９８发布","powerOffId":"2020051313000044"},{"poweroffId":2020051313000042,"sgpoweroffId":null,"subsName":"","lineName":"10kV于庄线512","pubTranName":"1孟庄内5台区,1北刘口内10,2北刘口外13,1孟庄内1,1北刘口内2,1贾辛庄内1,1孟庄内3,刘口中学1,1贾辛庄内3,1贾辛庄内5,1孟庄内4,1贾辛庄内2,1孟庄内2,刘口中学2,1北刘口内11,北刘口小学1,1北刘口内5,1邵庄内2,1北刘口内12,1孟庄内6台区,2孟庄外2【纯农排变】,1北刘口内9,1贾辛庄内4,北刘口小学2,1北刘口内3,2贾辛庄外7【纯农排变】,1邵庄内1,1北刘口内4,","scope":"【影响街道/乡镇】望亭乡 【高危重要客户】无 【影响客户】孟庄、邵庄、北刘口村、东臧、贾辛庄","startTime":"2020-05-13 08:47:25","stopDate":"2020-05-13 11:30:00","orgNo":"1340618","typeCode":"电网故障停限电","poweroffArea":"【全线路停电】停35kV刘口变电站10kV于庄线512线路全线，2东臧外4【纯农排变】,1孟庄内5台区,1孟庄内1,清苑县顺宏金属制品有限公司01,1贾辛庄内1,清苑县顺宏金属制品有限公司,2贾辛庄外6【纯农排变】,1孟庄内3,北刘口赵志杰颗粒厂,清苑县佳弘永顺有色金属回收有限公司,2北刘口外11【纯农排变】,2贾辛庄外2【纯农排变】,2北刘口外3【纯农排变】,0387489245-清苑县鑫兴奶牛养殖场-专变-45314027-清苑县鑫兴奶牛养殖场,2北刘口外7【纯农排变】,2北刘口外10【纯农排变】,孟庄颗粒厂,1贾辛庄内3,1贾辛庄内5,1北刘口内10,2北刘口外13,清苑县鑫丰铜材厂,0563093828-清苑县保利铜板厂-专变-118550444-清苑县保利铜板厂,1北刘口内2,刘口中学1,2孟庄外3【纯农排变】,保定市清苑区新鹏体育器材经销处,贾辛庄面粉厂,1孟庄内4,2邵庄外2【纯农排变】,2贾辛庄外1【纯农排变】,1贾辛庄内2,1孟庄内2,0549244011-清苑县东臧鑫犇奶牛养殖场-专变-48226745-清苑县东臧鑫犇奶牛养殖场,刘口中学2,0387488284-北刘口村委会养殖场-专变-124295124-北刘口村北,1北刘口内11,2贾辛庄外4【纯农排变】,2北刘口外1【纯农排变】,2北刘口外9【纯农排变】,西于庄砖厂小,北刘口小学1,1北刘口内5,0387487920-光辉农产品公司-专变-45313726-光辉农产品公司1,1邵庄内2,2北刘口外6【纯农排变】,1北刘口内12,保定市清苑区佳磊水泥制品加工厂01,0549076913-清苑县顺宏金属制品有限公司-专变-91848845-清苑县兴全有色金属有限公司,1孟庄内6台区,0387487959-刘口预制构件厂-专变-45313768-刘口预制构件厂,0387487933-光辉农产品公司-专变-45313867-光辉农产品公司2,2孟庄外2【纯农排变】,2贾辛庄外5【纯农排变】,1北刘口内9,1贾辛庄内4,北刘口小学2,1北刘口内3,2贾辛庄外7【纯农排变】,1邵庄内1,1北刘口内4,2北刘口外12【纯农排变】,东藏养牛基地,2北刘口外2【纯农排变】,清苑县孟庄兰芳饲料经销站,2北刘口外8【纯农排变】,2孟庄外1【纯农排变】,2贾辛庄外3【纯农排变】,保定市清苑区贾志通讯器材经销部,清苑县中运物流有限公司,河北华阳废旧金属回收有限公司,保定市清苑区佳磊水泥制品加工厂,西于庄砖厂","poweroffReason":"【停电原因】由于主干１号杆开关掉闸导致３５ＫＶ刘口变电站１０ＫＶ于庄线５１２线路全线停电 【变更送电】因抢修进度加快原因，送电时间由１５：００变更为１１：３０ 【发布渠道】通过９５５９８发布","powerTime":"2020-05-13 11:04:19","powerComm":"梁建颖通知已送电","subsNo":"","lineNo":"","tgNo":"","tgName":null,"infoStatus":"1","orgName":"国网清苑县供电公司","typeName":null,"infoStatusName":null,"dateDay":null,"orgNos":null,"nowTime":null,"countyName":null,"streetName":null,"villageName":null,"roadName":null,"communityName":null,"tranName":null,"sdLineName":null,"cityCode":"1340618","cityName":"国网清苑县供电公司","provinceCode":null,"stopTime":"2020-05-13 11:30:00","powerType":"全部","powerOffArea":"【全线路停电】停35kV刘口变电站10kV于庄线512线路全线，2东臧外4【纯农排变】,1孟庄内5台区,1孟庄内1,清苑县顺宏金属制品有限公司01,1贾辛庄内1,清苑县顺宏金属制品有限公司,2贾辛庄外6【纯农排变】,1孟庄内3,北刘口赵志杰颗粒厂,清苑县佳弘永顺有色金属回收有限公司,2北刘口外11【纯农排变】,2贾辛庄外2【纯农排变】,2北刘口外3【纯农排变】,0387489245-清苑县鑫兴奶牛养殖场-专变-45314027-清苑县鑫兴奶牛养殖场,2北刘口外7【纯农排变】,2北刘口外10【纯农排变】,孟庄颗粒厂,1贾辛庄内3,1贾辛庄内5,1北刘口内10,2北刘口外13,清苑县鑫丰铜材厂,0563093828-清苑县保利铜板厂-专变-118550444-清苑县保利铜板厂,1北刘口内2,刘口中学1,2孟庄外3【纯农排变】,保定市清苑区新鹏体育器材经销处,贾辛庄面粉厂,1孟庄内4,2邵庄外2【纯农排变】,2贾辛庄外1【纯农排变】,1贾辛庄内2,1孟庄内2,0549244011-清苑县东臧鑫犇奶牛养殖场-专变-48226745-清苑县东臧鑫犇奶牛养殖场,刘口中学2,0387488284-北刘口村委会养殖场-专变-124295124-北刘口村北,1北刘口内11,2贾辛庄外4【纯农排变】,2北刘口外1【纯农排变】,2北刘口外9【纯农排变】,西于庄砖厂小,北刘口小学1,1北刘口内5,0387487920-光辉农产品公司-专变-45313726-光辉农产品公司1,1邵庄内2,2北刘口外6【纯农排变】,1北刘口内12,保定市清苑区佳磊水泥制品加工厂01,0549076913-清苑县顺宏金属制品有限公司-专变-91848845-清苑县兴全有色金属有限公司,1孟庄内6台区,0387487959-刘口预制构件厂-专变-45313768-刘口预制构件厂,0387487933-光辉农产品公司-专变-45313867-光辉农产品公司2,2孟庄外2【纯农排变】,2贾辛庄外5【纯农排变】,1北刘口内9,1贾辛庄内4,北刘口小学2,1北刘口内3,2贾辛庄外7【纯农排变】,1邵庄内1,1北刘口内4,2北刘口外12【纯农排变】,东藏养牛基地,2北刘口外2【纯农排变】,清苑县孟庄兰芳饲料经销站,2北刘口外8【纯农排变】,2孟庄外1【纯农排变】,2贾辛庄外3【纯农排变】,保定市清苑区贾志通讯器材经销部,清苑县中运物流有限公司,河北华阳废旧金属回收有限公司,保定市清苑区佳磊水泥制品加工厂,西于庄砖厂","powerOffReason":"【停电原因】由于主干１号杆开关掉闸导致３５ＫＶ刘口变电站１０ＫＶ于庄线５１２线路全线停电 【变更送电】因抢修进度加快原因，送电时间由１５：００变更为１１：３０ 【发布渠道】通过９５５９８发布","powerOffId":"2020051313000042"},{"poweroffId":2020051313000004,"sgpoweroffId":null,"subsName":"","lineName":"大燕桥线513","pubTranName":"神石庄村委会1号,杨格庄村2#|村北,易县金景盛矿业有限公司变压器5,杨格庄村6#变压器,南石楼村1#|南变压器,神石庄村1#,易县东水矿业有限公司变压器2,西水冶灌渠,鹁鸽岩村2#|村中,神石庄中心小学400KVA,大南头村1#|村南,西水冶村1#变压器,北石楼3号公用,神石庄16#【纯农排变】,客户投资_神石庄10#,北福地村1#,神石庄7号变压器,神石庄村8#,龙堂村1#|村北,大南头村4#变压器,三和庄村1#,胜利北渠,大雁桥村4#村东（综）变压器,杨格庄村3#村北,大雁桥村5#村北（综）变压器,神石庄20台区变压器,南石楼村4#|陈家庄北变压器,杨格庄村5#变压器,小南头村1#|村东,南石楼6号公用,龙塘村2#村东,大南头村5#,大雁桥村2#|村东北变压器,新畔石8台区机井变压器,三合庄2#|村东北变压器,易县盛奇达建材有限公司A2500,鼎晟钙业变压器,鹁鸽岩村1#|村北,南石楼5#村西(农)变压器,北石楼村2#村东北（综）变压器,小南头村2#变压器,北石楼4台区机井变压器,易县国鑫能源有限公司250kva,中鑫矿业办公生活区80,鹁鸽岩村4#村东,神石庄村2#【纯农排变】,易县先创建材有限公司二期B1250,大雁桥7台区变压器,神石庄钙粉厂,大雁桥3#|大牌楼变压器【纯农排变】,南石楼9台区变压器,冯家庄1#,易县南石楼石灰厂变压器2,杨格庄村4#村南【纯农排变】,东旮旯村晋永海-100KVA,南石楼8台区,龙里华村【纯农排变】,西水冶村2#变压器,大南头村2#村东,西水冶3台区变压器,南石楼村2#|北变压器,神石庄信用社,易县金景盛矿业有限公司变压器4,东水冶村2台区变压器,大雁桥8台区变压器,","scope":"【影响街道/乡镇】裴山镇、西陵镇、高村乡【高危重要客户】无【影响客户】北东庄村、小南头村、大南头村、龙堂村、鹁鸽岩村、冯家庄村、杨格庄村、三合庄村、南石楼村、北福地村、西水冶村、柏木井村、北石楼村、大雁桥村、东水冶村","startTime":"2020-05-13 01:10:43","stopDate":"2020-05-13 06:20:00","orgNo":"1340625","typeCode":"电网故障停限电","poweroffArea":"【全线路停电】停北石楼村2#村东北（综）变压器,河北德正鸿业建材有限公司变压器400KVA(1),大南头村2#村东,河北德正鸿业建材有限公司变压器400KVA(2),神石庄村张洪超变压器,南石楼村2#|北变压器,西水冶3台区变压器,北石楼3号公用,易县众鑫森辉建材制造有限公司,龙塘村3#【纯农排变】,大龙华乡卫生院野里店分院80KVA,神石庄16#【纯农排变】,易县中鑫矿业有限公司800,易县先创建材有限公司二期A1250,神石庄7号变压器,神石庄村8#,易县先创建材有限公司二期C250,龙堂村1#|村北,大南头村4#变压器,易县盛奇达建材有限公司B2000,三和庄村1#,先创易成矿山开采有限公司250,南石楼庆福石料石灰,大雁桥村4#村东（综）变压器,客户投资_神石庄10#,杨格庄村3#村北,易县大正建材有限公司50,大雁桥村5#村北（综）变压器,南石楼张庆福石灰厂山下,易县东水矿业有限公司变压器1,易县东水矿业有限公司变压器3,神石庄20台区变压器,南石楼村4#|陈家庄北变压器,杨格庄村5#变压器,小南头村1#|村东,南石楼6号公用,龙塘村2#村东,裕兴木材变压器,大南头村5#,河北德正鸿业建材有限公司变压器100KVA,大雁桥村2#|村东北变压器,东旮旯村4#|村东,农|10116【纯农排变】,神石庄信用社,三和庄村3#,易县南石楼石灰厂变压器1,易县金景盛矿业有限公司变压器4,鹁鸽岩村3#|村南,东水冶村2台区变压器,小南头村2#变压器,南石楼村7#村北(综)变压器,南石楼村张俊青变压器,神石庄村委会1号,杨格庄村2#|村北,北石楼5台区【纯农排变】,易县金景盛矿业有限公司变压器5,南石楼村3#|七队分支【纯农排变】,易县金景盛矿业有限公司变压器7,神石庄村史全才变压器,桂英钙粉厂（160KVA）,易县先创易成矿山开采有限公司1250,大龙华野里店教学点160KVA,神石庄荣建木材加工厂,易县盛奇达建材有限公司A2500,东水冶2台区变压器,鼎晟钙业变压器,鹁鸽岩村5#变压器,易县大正建材有限公司160,东旮旯村晋永海-100KVA,鹁鸽岩村6#变压器,易县国鑫能源有限公司250kva,北石楼4台区机井变压器,杨格庄村1#|村中,易县东水矿业有限公司,中鑫矿业办公生活区80,东旮旯村7台区机井柱上变压器,易县金景盛矿业有限公司变压器8,陈海录变压器,胜利北渠,鹁鸽岩村1#|村北,大雁桥8台区变压器,南石楼5#村西(农)变压器,大雁桥村1#|村中变压器,北白虹张金良,西水冶灌渠,杨格庄村6#变压器,南石楼村1#|南变压器,神石庄村1#,北石楼村1#|村中变压器,神石庄村委会3号,易县众和发牲畜饲养有限公司50,易县东水矿业有限公司变压器2,鹁鸽岩村2#|村中,大南头村3#变压器,神石庄中心小学400KVA,大南头村1#|村南,西水冶村1#变压器,北福地村1#,新畔石8台区机井变压器,三合庄2#|村东北变压器,神石庄村2#【纯农排变】,鹁鸽岩村4#村东,大雁桥9台区变压器,易县先创建材有限公司二期B1250,大雁桥7台区变压器,神石庄村19#【纯农排变】,神石庄村委会2号,义民面粉厂(郭术凯),神石庄钙粉厂,大雁桥3#|大牌楼变压器【纯农排变】,南石楼9台区变压器,冯家庄1#,东水冶村1台区变压器,易县金景盛矿业有限公司变压器6,易县南石楼石灰厂变压器2,大雁桥6号变压器,杨格庄村4#村南【纯农排变】,南石楼8台区,龙里华村【纯农排变】,西水冶村2#变压器,东水冶村3#","poweroffReason":"【停电原因】由于线路接地导致１１０ＫＶ西陵变电站大燕桥５１３线路全线路停电【变更送电】因抢修进度加快原因，送电时间由０９：００变更为０６：２０【发布渠道】通过９５５９８发布","powerTime":"2020-05-13 05:56:52","powerComm":"已送电","subsNo":"","lineNo":"","tgNo":"","tgName":null,"infoStatus":"1","orgName":"国网易县供电公司","typeName":null,"infoStatusName":null,"dateDay":null,"orgNos":null,"nowTime":null,"countyName":null,"streetName":null,"villageName":null,"roadName":null,"communityName":null,"tranName":null,"sdLineName":null,"cityCode":"1340625","cityName":"国网易县供电公司","provinceCode":null,"stopTime":"2020-05-13 06:20:00","powerType":"全部","powerOffArea":"【全线路停电】停北石楼村2#村东北（综）变压器,河北德正鸿业建材有限公司变压器400KVA(1),大南头村2#村东,河北德正鸿业建材有限公司变压器400KVA(2),神石庄村张洪超变压器,南石楼村2#|北变压器,西水冶3台区变压器,北石楼3号公用,易县众鑫森辉建材制造有限公司,龙塘村3#【纯农排变】,大龙华乡卫生院野里店分院80KVA,神石庄16#【纯农排变】,易县中鑫矿业有限公司800,易县先创建材有限公司二期A1250,神石庄7号变压器,神石庄村8#,易县先创建材有限公司二期C250,龙堂村1#|村北,大南头村4#变压器,易县盛奇达建材有限公司B2000,三和庄村1#,先创易成矿山开采有限公司250,南石楼庆福石料石灰,大雁桥村4#村东（综）变压器,客户投资_神石庄10#,杨格庄村3#村北,易县大正建材有限公司50,大雁桥村5#村北（综）变压器,南石楼张庆福石灰厂山下,易县东水矿业有限公司变压器1,易县东水矿业有限公司变压器3,神石庄20台区变压器,南石楼村4#|陈家庄北变压器,杨格庄村5#变压器,小南头村1#|村东,南石楼6号公用,龙塘村2#村东,裕兴木材变压器,大南头村5#,河北德正鸿业建材有限公司变压器100KVA,大雁桥村2#|村东北变压器,东旮旯村4#|村东,农|10116【纯农排变】,神石庄信用社,三和庄村3#,易县南石楼石灰厂变压器1,易县金景盛矿业有限公司变压器4,鹁鸽岩村3#|村南,东水冶村2台区变压器,小南头村2#变压器,南石楼村7#村北(综)变压器,南石楼村张俊青变压器,神石庄村委会1号,杨格庄村2#|村北,北石楼5台区【纯农排变】,易县金景盛矿业有限公司变压器5,南石楼村3#|七队分支【纯农排变】,易县金景盛矿业有限公司变压器7,神石庄村史全才变压器,桂英钙粉厂（160KVA）,易县先创易成矿山开采有限公司1250,大龙华野里店教学点160KVA,神石庄荣建木材加工厂,易县盛奇达建材有限公司A2500,东水冶2台区变压器,鼎晟钙业变压器,鹁鸽岩村5#变压器,易县大正建材有限公司160,东旮旯村晋永海-100KVA,鹁鸽岩村6#变压器,易县国鑫能源有限公司250kva,北石楼4台区机井变压器,杨格庄村1#|村中,易县东水矿业有限公司,中鑫矿业办公生活区80,东旮旯村7台区机井柱上变压器,易县金景盛矿业有限公司变压器8,陈海录变压器,胜利北渠,鹁鸽岩村1#|村北,大雁桥8台区变压器,南石楼5#村西(农)变压器,大雁桥村1#|村中变压器,北白虹张金良,西水冶灌渠,杨格庄村6#变压器,南石楼村1#|南变压器,神石庄村1#,北石楼村1#|村中变压器,神石庄村委会3号,易县众和发牲畜饲养有限公司50,易县东水矿业有限公司变压器2,鹁鸽岩村2#|村中,大南头村3#变压器,神石庄中心小学400KVA,大南头村1#|村南,西水冶村1#变压器,北福地村1#,新畔石8台区机井变压器,三合庄2#|村东北变压器,神石庄村2#【纯农排变】,鹁鸽岩村4#村东,大雁桥9台区变压器,易县先创建材有限公司二期B1250,大雁桥7台区变压器,神石庄村19#【纯农排变】,神石庄村委会2号,义民面粉厂(郭术凯),神石庄钙粉厂,大雁桥3#|大牌楼变压器【纯农排变】,南石楼9台区变压器,冯家庄1#,东水冶村1台区变压器,易县金景盛矿业有限公司变压器6,易县南石楼石灰厂变压器2,大雁桥6号变压器,杨格庄村4#村南【纯农排变】,南石楼8台区,龙里华村【纯农排变】,西水冶村2#变压器,东水冶村3#","powerOffReason":"【停电原因】由于线路接地导致１１０ＫＶ西陵变电站大燕桥５１３线路全线路停电【变更送电】因抢修进度加快原因，送电时间由０９：００变更为０６：２０【发布渠道】通过９５５９８发布","powerOffId":"2020051313000004"},{"poweroffId":2020051221000109,"sgpoweroffId":null,"subsName":"","lineName":"10kV利民路站525线路","pubTranName":"C545柱上变压器,C142柱上变压器,C519柱上变压器,C423柱上变压器,C500柱上变压器,C535柱上变压器,","scope":"【影响街道/乡镇】南市区五尧乡 【高危重要客户】无 【影响客户】乌马庄村","startTime":"2020-05-12 22:30:26","stopDate":"2020-05-12 23:45:26","orgNo":"13406","typeCode":"电网故障停限电","poweroffArea":"【分支停电】停C500柱上变压器,C535柱上变压器,C545柱上变压器,0594185565-保定市南市区五尧乡乌马庄村民委员会-专变,0356188096-乌马庄-专变,0356234063-乌马庄村西-专变,C142柱上变压器,C519柱上变压器,0699609209-保定市莲池区五尧乡乌马庄村民委员会-柱上变,0594187907-保定市南市区五尧乡乌马庄村民委员会-专变,C423柱上变压器","poweroffReason":"【停电原因】由于低压线断线导致１０ＫＶ利民路变电站５２５线路ＨＫ-０４号环网柜２号间隔１号开关以下停电【变更送电】因抢修进度加快，原定１３日０２:３０送电现计划１２日２３:４５送电【发布渠道】通过９５５９８发布","powerTime":"2020-05-12 23:41:14","powerComm":"已送电","subsNo":"","lineNo":"","tgNo":"","tgName":null,"infoStatus":"1","orgName":"保定供电公司","typeName":null,"infoStatusName":null,"dateDay":null,"orgNos":null,"nowTime":null,"countyName":null,"streetName":null,"villageName":null,"roadName":null,"communityName":null,"tranName":null,"sdLineName":null,"cityCode":"13406","cityName":"保定供电公司","provinceCode":null,"stopTime":"2020-05-12 23:45:26","powerType":"全部","powerOffArea":"【分支停电】停C500柱上变压器,C535柱上变压器,C545柱上变压器,0594185565-保定市南市区五尧乡乌马庄村民委员会-专变,0356188096-乌马庄-专变,0356234063-乌马庄村西-专变,C142柱上变压器,C519柱上变压器,0699609209-保定市莲池区五尧乡乌马庄村民委员会-柱上变,0594187907-保定市南市区五尧乡乌马庄村民委员会-专变,C423柱上变压器","powerOffReason":"【停电原因】由于低压线断线导致１０ＫＶ利民路变电站５２５线路ＨＫ-０４号环网柜２号间隔１号开关以下停电【变更送电】因抢修进度加快，原定１３日０２:３０送电现计划１２日２３:４５送电【发布渠道】通过９５５９８发布","powerOffId":"2020051221000109"},{"poweroffId":2020051213000218,"sgpoweroffId":null,"subsName":"","lineName":"10kV子娄515线","pubTranName":"客户投资_子娄综合2变压器,子娄综1台区,子娄综合2变压器,子娄综合六,子娄农业2台区【纯农排变】,子娄农业3台区【纯农排变】,子娄农业6台区【纯农排变】,子娄农业5台区【纯农排变】,子娄综合五台区,子娄农业7,子娄综合7,子娄综3变压器,子娄农业4台区【纯农排变】,子娄农业1台区【纯农排变】,子娄综合4变压器,","scope":"【影响街道/乡镇】祁州镇 【高危重要客户】无 【影响客户】子娄村","startTime":"2020-05-14 01:00:00","stopDate":"2020-05-14 07:00:00","orgNo":"1340606","typeCode":"临时停电","poweroffArea":"【全线路停电】停１１０ＫＶ东河变电站１０ＫＶ子娄５１５线路，子娄综合二变压器,子娄综一台区,子娄综三变压器,子娄综合四变压器,子娄综合七,子娄综合六,子娄综合五台区","poweroffReason":"【停电原因】由于更换电杆导致１１０ＫＶ东河变电站１０ＫＶ子娄５１５线路全线停电 【变更送电】无 【发布渠道】保定市安国电视台（０５月１３日００时至２４时之间）屏幕上方滚动","powerTime":"2020-05-14 06:58:25","powerComm":"已送电","subsNo":"","lineNo":"","tgNo":"","tgName":null,"infoStatus":"1","orgName":"国网安国市供电公司","typeName":null,"infoStatusName":null,"dateDay":null,"orgNos":null,"nowTime":null,"countyName":null,"streetName":null,"villageName":null,"roadName":null,"communityName":null,"tranName":null,"sdLineName":null,"cityCode":"1340606","cityName":"国网安国市供电公司","provinceCode":null,"stopTime":"2020-05-14 07:00:00","powerType":"全部","powerOffArea":"【全线路停电】停１１０ＫＶ东河变电站１０ＫＶ子娄５１５线路，子娄综合二变压器,子娄综一台区,子娄综三变压器,子娄综合四变压器,子娄综合七,子娄综合六,子娄综合五台区","powerOffReason":"【停电原因】由于更换电杆导致１１０ＫＶ东河变电站１０ＫＶ子娄５１５线路全线停电 【变更送电】无 【发布渠道】保定市安国电视台（０５月１３日００时至２４时之间）屏幕上方滚动","powerOffId":"2020051213000218"}],"pageModel":{"pageNow":76,"totalCount":10973,"totalPage":1098,"tableRows":0,"pageCount":10,"beginCount":750},"isExperi":"1"}