{"message":"","today":"2020-06-15","seleList":[{"poweroffId":2019062013000053,"sgpoweroffId":null,"subsName":"","lineName":"10kV568车寄线","pubTranName":"新城村公用照明3台区,新城村公用照明1台区,","scope":"【影响街道/乡镇】叮咛店镇【高危重要客户】无【影响客户】新城村","startTime":"2019-07-03 06:00:00","stopDate":"2019-07-03 16:00:00","orgNo":"1340610","typeCode":"计划停电","poweroffArea":"【分支停电】停新城村公用照明3台区,新城村公用照明1台区","poweroffReason":"【停电原因】由于新立电杆导致１１０ＫＶ叮咛店变电站１０ＫＶ５６８车寄线路车寄村村西分支０９号杆１０号隔离以下线路停电 【变更送电】因抢修进度加快原因，送电时间由１７：００变更为１６：００ 【发布渠道】河北省定州市定州日报第三版（２０１９年０６月２１日）","powerTime":"2019-07-03 15:28:50","powerComm":"已送电","subsNo":"","lineNo":"","tgNo":"","tgName":null,"infoStatus":"1","orgName":"国网定州市供电公司","typeName":null,"infoStatusName":null,"dateDay":null,"orgNos":null,"nowTime":null,"countyName":null,"streetName":null,"villageName":null,"roadName":null,"communityName":null,"tranName":null,"sdLineName":null,"cityCode":"1340610","cityName":"国网定州市供电公司","provinceCode":null,"stopTime":"2019-07-03 16:00:00","powerType":"全部","powerOffArea":"【分支停电】停新城村公用照明3台区,新城村公用照明1台区","powerOffReason":"【停电原因】由于新立电杆导致１１０ＫＶ叮咛店变电站１０ＫＶ５６８车寄线路车寄村村西分支０９号杆１０号隔离以下线路停电 【变更送电】因抢修进度加快原因，送电时间由１７：００变更为１６：００ 【发布渠道】河北省定州市定州日报第三版（２０１９年０６月２１日）","powerOffId":"2019062013000053"},{"poweroffId":2019062013000047,"sgpoweroffId":null,"subsName":"","lineName":"孙庄线528","pubTranName":"大辛庄西北农业【纯农排变】,孙庄混合,孙庄混合2号,长城机械,彤霞村路边农5号配变【纯农排变】,望都县锦运仓储服务部,后庄子鱼塘混3,寺庄村混9配变,寺庄农5【纯农排变】,寺庄坟配变【纯农排变】,大辛庄西南农【纯农排变】,寺庄村南,寺庄东南农【纯农排变】,寺庄混合6号变压器,寺庄村西北农10【纯农排变】,寺庄新民居配变,北关西北农【纯农排变】,北韩庄混合4号,寺庄村北,后庄子村北农5【纯农排变】,大辛庄正北【纯农排变】,北韩庄混合2,寺庄大沟北农【纯农排变】,孙庄农1【纯农排变】,寺庄乡政府配变,前庄子东农3【纯农排变】,后庄子混2,寺庄农7【纯农排变】,大辛庄村北农【纯农排变】,大辛庄西农业【纯农排变】,寺庄西南配变【纯农排变】,前庄子北农2【纯农排变】,孙庄村东农3【纯农排变】,彤霞村北农3号【纯农排变】,寺庄桥头,北龙潭【纯农排变】,孙庄农2【纯农排变】,城内大队,0667223040-望都县誉鑫铸造厂-专变-208410918-望都县誉鑫铸造厂,大辛庄红星机械厂,寺庄村东农业【纯农排变】,寺庄村北混合7号,寺庄农3【纯农排变】,前庄子西农4【纯农排变】,彤霞农1【纯农排变】,望都县鑫磊新型建材,寺庄村大辛庄道农业【纯农排变】,彤霞农4【纯农排变】,前庄子混合,前庄子西农1【纯农排变】,寺庄社办南,寺庄乡卫生院配变,后庄子混合,","scope":"【影响街道/乡镇】寺庄乡、望都镇　　 【高危重要客户】无　　 【影响客户】前庄子村、孙庄村、后庄子村、寺庄村、大辛庄村、彤霞村部分农业、北关西北农业、北韩庄村、北龙潭、城内大队、望都能顺面粉厂、李立昌面粉厂、望都惠得祥鞋厂、大辛庄红星机械厂、京艺制鞋厂、长城机械、水库车床加工、 鑫磊新型建材、望都县誉鑫铸造厂、望都县和平建材销售处","startTime":"2019-06-22 06:00:00","stopDate":"2019-06-22 19:20:00","orgNo":"1340623","typeCode":"临时停电","poweroffArea":"【全线路停电】停长城机械,望都县锦运仓储服务部,后庄子鱼塘混3,寺庄村混9配变,寺庄农5【纯农排变】,寺庄坟配变【纯农排变】,大辛庄西南农【纯农排变】,前庄子东农3【纯农排变】,后庄子混2,寺庄农7【纯农排变】,大辛庄村北农【纯农排变】,大辛庄红星机械厂,寺庄村东农业【纯农排变】,寺庄村北混合7号,前庄子西农4【纯农排变】,后庄子混合,彤霞村北农3号【纯农排变】,寺庄桥头,北龙潭【纯农排变】,孙庄农2【纯农排变】,城内大队,孙庄混合2号,北关西北农【纯农排变】,北韩庄混合4号,寺庄村北,寺庄村南,寺庄东南农【纯农排变】,寺庄混合6号变压器,寺庄村西北农10【纯农排变】,寺庄新民居配变,0667223040-望都县誉鑫铸造厂-专变-208410918-望都县誉鑫铸造厂,彤霞村路边农5号配变【纯农排变】,孙庄农1【纯农排变】,寺庄乡政府配变,前庄子西农1【纯农排变】,后庄子村北农5【纯农排变】,大辛庄正北【纯农排变】,孙庄混合,北韩庄混合2,寺庄大沟北农【纯农排变】,彤霞农1【纯农排变】,望都县鑫磊新型建材,寺庄村大辛庄道农业【纯农排变】,彤霞农4【纯农排变】,前庄子混合,寺庄社办南,寺庄乡卫生院配变,大辛庄西农业【纯农排变】,寺庄西南配变【纯农排变】,前庄子北农2【纯农排变】,孙庄村东农3【纯农排变】,寺庄农3【纯农排变】,大辛庄西北农业【纯农排变】","poweroffReason":"【停电原因】由于供电设备临时检修导致１１０ＫＶ八里庄变电站孙庄线５２８线路全线停电 【变更送电】因工作提前完工原因，送电时间由２１：００变更为１９：２０ 【发布渠道】通过９５５９８发布","powerTime":"2019-06-22 18:48:16","powerComm":"已送电","subsNo":"","lineNo":"","tgNo":"","tgName":null,"infoStatus":"1","orgName":"国网望都县供电公司","typeName":null,"infoStatusName":null,"dateDay":null,"orgNos":null,"nowTime":null,"countyName":null,"streetName":null,"villageName":null,"roadName":null,"communityName":null,"tranName":null,"sdLineName":null,"cityCode":"1340623","cityName":"国网望都县供电公司","provinceCode":null,"stopTime":"2019-06-22 19:20:00","powerType":"全部","powerOffArea":"【全线路停电】停长城机械,望都县锦运仓储服务部,后庄子鱼塘混3,寺庄村混9配变,寺庄农5【纯农排变】,寺庄坟配变【纯农排变】,大辛庄西南农【纯农排变】,前庄子东农3【纯农排变】,后庄子混2,寺庄农7【纯农排变】,大辛庄村北农【纯农排变】,大辛庄红星机械厂,寺庄村东农业【纯农排变】,寺庄村北混合7号,前庄子西农4【纯农排变】,后庄子混合,彤霞村北农3号【纯农排变】,寺庄桥头,北龙潭【纯农排变】,孙庄农2【纯农排变】,城内大队,孙庄混合2号,北关西北农【纯农排变】,北韩庄混合4号,寺庄村北,寺庄村南,寺庄东南农【纯农排变】,寺庄混合6号变压器,寺庄村西北农10【纯农排变】,寺庄新民居配变,0667223040-望都县誉鑫铸造厂-专变-208410918-望都县誉鑫铸造厂,彤霞村路边农5号配变【纯农排变】,孙庄农1【纯农排变】,寺庄乡政府配变,前庄子西农1【纯农排变】,后庄子村北农5【纯农排变】,大辛庄正北【纯农排变】,孙庄混合,北韩庄混合2,寺庄大沟北农【纯农排变】,彤霞农1【纯农排变】,望都县鑫磊新型建材,寺庄村大辛庄道农业【纯农排变】,彤霞农4【纯农排变】,前庄子混合,寺庄社办南,寺庄乡卫生院配变,大辛庄西农业【纯农排变】,寺庄西南配变【纯农排变】,前庄子北农2【纯农排变】,孙庄村东农3【纯农排变】,寺庄农3【纯农排变】,大辛庄西北农业【纯农排变】","powerOffReason":"【停电原因】由于供电设备临时检修导致１１０ＫＶ八里庄变电站孙庄线５２８线路全线停电 【变更送电】因工作提前完工原因，送电时间由２１：００变更为１９：２０ 【发布渠道】通过９５５９８发布","powerOffId":"2019062013000047"},{"poweroffId":2019062013000010,"sgpoweroffId":null,"subsName":"","lineName":"10kV车屯线515","pubTranName":"辛村西南柱上变压器,中国人民解放军93498部队78分队-,温家佐西变压器,潘家营排灌1变压器【纯农排变】,老王庄东变压器,善巨庄变压器,义合庄排灌1变压器【纯农排变】,老王庄南变压器,潘家营西变压器,朱皮营排灌1变压器【纯农排变】,刘鱼池变压器,侯辛庄排灌1变压器【纯农排变】,南龙湾2变压器,红寺鱼池排灌3变压器【纯农排变】,刘鱼池排灌变压器【纯农排变】,范鱼池排灌3变压器【纯农排变】,彦士垡北变压器,西垡头东北变压器,车屯南变压器,闫家营排灌1变压器【纯农排变】,高碑店市肖官营乡东魏隆基小学变压器,侯鱼池排灌1变压器【纯农排变】,彦士垡排灌5变压器【纯农排变】,东未屯砖厂,辛村排灌1变压器【纯农排变】,辛村排灌2变压器【纯农排变】,东双铺头排灌变压器,朱皮营排灌3变压器【纯农排变】,西魏屯西北变压器,东魏屯变压器,温家佐东变压器,温家佐混用变压器,彦士垡排灌7变压器【纯农排变】,龙湾南变压器,龙湾南2变压器,东垡头排灌变压器【纯农排变】,河头排灌3变压器【纯农排变】,西垡头变压器,龙湾排灌5变压器【纯农排变】,老王庄北变压器,老王庄变压器,西垡头排灌2变压器【纯农排变】,东魏屯排灌2变压器【纯农排变】,西垡头排灌5变压器【纯农排变】,河头排灌2变压器【纯农排变】,潘家营排灌2变压器【纯农排变】,东垡头变压器,侯鱼池排灌2变压器【纯农排变】,西垡头排灌3变压器【纯农排变】,潘家营变压器,北垡变压器,龙湾排灌2变压器【纯农排变】,车屯南2变压器,闫家营变压器,河头南台变压器,辛村南变压器,东魏屯北变压器,龙湾排灌3变压器【纯农排变】,西垡头排灌1变压器【纯农排变】,高碑店市肖官营隆丰清洁用品商贸经营部变压器,仁达养殖公司,西魏屯变压器,双合盛养殖有限责任公司,于庄变压器,仁达养殖公司500KVA变压器,彦士垡排灌8变压器【纯农排变】,朱皮营排灌2变压器【纯农排变】,高碑店市胜德凯混凝土有限公司,车屯排灌1变压器【纯农排变】,西魏屯排灌2变压器【纯农排变】,北垡排灌2变压器【纯农排变】,龙湾排灌4变压器【纯农排变】,侯鱼池排灌3变压器【纯农排变】,河头排灌1变压器【纯农排变】,彦士垡排灌6变压器【纯农排变】,高碑店市盛扬益瑞商贸有限公司,车屯排灌3变压器【纯农排变】,侯辛庄东变压器,车屯北变压器,高碑店市必拓金属制品加工有限公司,北垡南变压器,善巨庄东变压器,红寺排灌2变压器【纯农排变】,东魏屯排灌1变压器【纯农排变】,义合庄东变压器,西垡头排灌4变压器【纯农排变】,潘家营南,义合庄排灌2变压器【纯农排变】,朱皮营变压器,彦士垡排灌2变压器【纯农排变】,于庄市场变压器,温家佐排灌3变压器【纯农排变】,辛村北台变压器,红寺鱼池西变压器,龙湾市场变压器,东魏屯东柱上变压器,赵晨慧变压器,侯辛庄排灌2变压器【纯农排变】,侯辛庄西变压器,北垡排灌1变压器【纯农排变】,东魏屯排灌3变压器【纯农排变】,温家佐排灌1变压器【纯农排变】,高碑店市双合盛养殖有限责任公司变压器,义合庄西变压器,河头东北变压器,西魏屯排灌1变压器【纯农排变】,河头西变压器,龙湾北变压器,朱皮营排灌4变压器【纯农排变】,高碑店市绿雪草种销售有限公司,","scope":"【影响街道/乡镇】肖官营镇、方官镇 【高危重要客户】无 【影响客户】北垡村、车屯村、东垡头村、西垡头村、东未屯村、西未屯村、河头村、红寺鱼池村、侯鱼池村、老王庄村、刘鱼池村、龙湾村、潘家营村、善巨庄村、温家佐村、辛村、闫家营村、彦士垡村、义和庄村、于庄村、朱皮营村、侯辛庄村（部分）中国人民解放军９３４９８部队７８分队、高碑店市肖官营乡东魏隆基小学、高碑店市肖官营隆丰清洁用品商贸经营部、高碑店市绿雪草种销售有限公司、高碑店市必拓金属制品加工有限公司、高碑店市仁达养殖有限责任公司、高碑店市东未屯富民砖厂、赵晨慧、高碑店市双合盛养殖有限责任公司","startTime":"2019-06-20 01:40:33","stopDate":"2019-06-20 06:00:00","orgNo":"1340612","typeCode":"电网故障停限电","poweroffArea":"【全线路停电】停中国人民解放军93498部队78分队-,西垡头排灌5变压器【纯农排变】,河头排灌2变压器【纯农排变】,潘家营排灌2变压器【纯农排变】,东垡头变压器,侯鱼池排灌2变压器【纯农排变】,西垡头排灌3变压器【纯农排变】,潘家营变压器,北垡变压器,彦士垡北变压器,西垡头东北变压器,车屯南变压器,闫家营排灌1变压器【纯农排变】,高碑店市肖官营乡东魏隆基小学变压器,侯鱼池排灌1变压器【纯农排变】,车屯排灌3变压器【纯农排变】,侯辛庄东变压器,东魏屯排灌1变压器【纯农排变】,高碑店市肖官营隆丰清洁用品商贸经营部变压器,仁达养殖公司,彦士垡排灌2变压器【纯农排变】,高碑店市双合盛养殖有限责任公司变压器,义合庄西变压器,赵晨慧变压器,温家佐排灌3变压器【纯农排变】,辛村北台变压器,龙湾市场变压器,东魏屯东柱上变压器,东魏屯排灌3变压器【纯农排变】,温家佐排灌1变压器【纯农排变】,红寺排灌2变压器【纯农排变】,义合庄东变压器,西垡头排灌4变压器【纯农排变】,温家佐西变压器,潘家营排灌1变压器【纯农排变】,老王庄东变压器,侯辛庄西变压器,北垡排灌1变压器【纯农排变】,东魏屯北变压器,龙湾排灌3变压器【纯农排变】,西垡头排灌1变压器【纯农排变】,潘家营南,义合庄排灌2变压器【纯农排变】,朱皮营变压器,朱皮营排灌4变压器【纯农排变】,高碑店市绿雪草种销售有限公司,辛村西南柱上变压器,西魏屯变压器,双合盛养殖有限责任公司,车屯北变压器,仁达养殖公司500KVA变压器,彦士垡排灌8变压器【纯农排变】,朱皮营排灌2变压器【纯农排变】,高碑店市胜德凯混凝土有限公司,车屯排灌1变压器【纯农排变】,西魏屯排灌2变压器【纯农排变】,北垡排灌2变压器【纯农排变】,龙湾排灌4变压器【纯农排变】,侯鱼池排灌3变压器【纯农排变】,河头排灌1变压器【纯农排变】,彦士垡排灌6变压器【纯农排变】,高碑店市盛扬益瑞商贸有限公司,南龙湾2变压器,红寺鱼池排灌3变压器【纯农排变】,刘鱼池排灌变压器【纯农排变】,范鱼池排灌3变压器【纯农排变】,红寺鱼池西变压器,河头南台变压器,龙湾排灌2变压器【纯农排变】,车屯南2变压器,龙湾排灌5变压器【纯农排变】,老王庄北变压器,老王庄变压器,西垡头排灌2变压器【纯农排变】,东魏屯排灌2变压器【纯农排变】,于庄变压器,闫家营变压器,刘鱼池变压器,侯辛庄排灌1变压器【纯农排变】,河头东北变压器,西魏屯排灌1变压器【纯农排变】,河头西变压器,彦士垡排灌5变压器【纯农排变】,东未屯砖厂,辛村排灌1变压器【纯农排变】,辛村排灌2变压器【纯农排变】,东双铺头排灌变压器,朱皮营排灌3变压器【纯农排变】,西魏屯西北变压器,东魏屯变压器,温家佐东变压器,温家佐混用变压器,善巨庄变压器,义合庄排灌1变压器【纯农排变】,高碑店市必拓金属制品加工有限公司,北垡南变压器,善巨庄东变压器,老王庄南变压器,潘家营西变压器,朱皮营排灌1变压器【纯农排变】,辛村南变压器,彦士垡排灌7变压器【纯农排变】,龙湾南变压器,龙湾南2变压器,侯辛庄排灌2变压器【纯农排变】,龙湾北变压器,于庄市场变压器,东垡头排灌变压器【纯农排变】,河头排灌3变压器【纯农排变】,西垡头变压器","poweroffReason":"【停电原因】由于弓子线断导致３５ＫＶ方官变电站１０ＫＶ车屯５１５线路全线停电 【变更送电】无 【发布渠道】通过９５５９８发布","powerTime":"2019-06-20 05:06:35","powerComm":"已送电","subsNo":"","lineNo":"","tgNo":"","tgName":null,"infoStatus":"1","orgName":"国网高碑店市供电公司","typeName":null,"infoStatusName":null,"dateDay":null,"orgNos":null,"nowTime":null,"countyName":null,"streetName":null,"villageName":null,"roadName":null,"communityName":null,"tranName":null,"sdLineName":null,"cityCode":"1340612","cityName":"国网高碑店市供电公司","provinceCode":null,"stopTime":"2019-06-20 06:00:00","powerType":"全部","powerOffArea":"【全线路停电】停中国人民解放军93498部队78分队-,西垡头排灌5变压器【纯农排变】,河头排灌2变压器【纯农排变】,潘家营排灌2变压器【纯农排变】,东垡头变压器,侯鱼池排灌2变压器【纯农排变】,西垡头排灌3变压器【纯农排变】,潘家营变压器,北垡变压器,彦士垡北变压器,西垡头东北变压器,车屯南变压器,闫家营排灌1变压器【纯农排变】,高碑店市肖官营乡东魏隆基小学变压器,侯鱼池排灌1变压器【纯农排变】,车屯排灌3变压器【纯农排变】,侯辛庄东变压器,东魏屯排灌1变压器【纯农排变】,高碑店市肖官营隆丰清洁用品商贸经营部变压器,仁达养殖公司,彦士垡排灌2变压器【纯农排变】,高碑店市双合盛养殖有限责任公司变压器,义合庄西变压器,赵晨慧变压器,温家佐排灌3变压器【纯农排变】,辛村北台变压器,龙湾市场变压器,东魏屯东柱上变压器,东魏屯排灌3变压器【纯农排变】,温家佐排灌1变压器【纯农排变】,红寺排灌2变压器【纯农排变】,义合庄东变压器,西垡头排灌4变压器【纯农排变】,温家佐西变压器,潘家营排灌1变压器【纯农排变】,老王庄东变压器,侯辛庄西变压器,北垡排灌1变压器【纯农排变】,东魏屯北变压器,龙湾排灌3变压器【纯农排变】,西垡头排灌1变压器【纯农排变】,潘家营南,义合庄排灌2变压器【纯农排变】,朱皮营变压器,朱皮营排灌4变压器【纯农排变】,高碑店市绿雪草种销售有限公司,辛村西南柱上变压器,西魏屯变压器,双合盛养殖有限责任公司,车屯北变压器,仁达养殖公司500KVA变压器,彦士垡排灌8变压器【纯农排变】,朱皮营排灌2变压器【纯农排变】,高碑店市胜德凯混凝土有限公司,车屯排灌1变压器【纯农排变】,西魏屯排灌2变压器【纯农排变】,北垡排灌2变压器【纯农排变】,龙湾排灌4变压器【纯农排变】,侯鱼池排灌3变压器【纯农排变】,河头排灌1变压器【纯农排变】,彦士垡排灌6变压器【纯农排变】,高碑店市盛扬益瑞商贸有限公司,南龙湾2变压器,红寺鱼池排灌3变压器【纯农排变】,刘鱼池排灌变压器【纯农排变】,范鱼池排灌3变压器【纯农排变】,红寺鱼池西变压器,河头南台变压器,龙湾排灌2变压器【纯农排变】,车屯南2变压器,龙湾排灌5变压器【纯农排变】,老王庄北变压器,老王庄变压器,西垡头排灌2变压器【纯农排变】,东魏屯排灌2变压器【纯农排变】,于庄变压器,闫家营变压器,刘鱼池变压器,侯辛庄排灌1变压器【纯农排变】,河头东北变压器,西魏屯排灌1变压器【纯农排变】,河头西变压器,彦士垡排灌5变压器【纯农排变】,东未屯砖厂,辛村排灌1变压器【纯农排变】,辛村排灌2变压器【纯农排变】,东双铺头排灌变压器,朱皮营排灌3变压器【纯农排变】,西魏屯西北变压器,东魏屯变压器,温家佐东变压器,温家佐混用变压器,善巨庄变压器,义合庄排灌1变压器【纯农排变】,高碑店市必拓金属制品加工有限公司,北垡南变压器,善巨庄东变压器,老王庄南变压器,潘家营西变压器,朱皮营排灌1变压器【纯农排变】,辛村南变压器,彦士垡排灌7变压器【纯农排变】,龙湾南变压器,龙湾南2变压器,侯辛庄排灌2变压器【纯农排变】,龙湾北变压器,于庄市场变压器,东垡头排灌变压器【纯农排变】,河头排灌3变压器【纯农排变】,西垡头变压器","powerOffReason":"【停电原因】由于弓子线断导致３５ＫＶ方官变电站１０ＫＶ车屯５１５线路全线停电 【变更送电】无 【发布渠道】通过９５５９８发布","powerOffId":"2019062013000010"},{"poweroffId":2019062013000006,"sgpoweroffId":null,"subsName":"","lineName":"10kV方官镇线513","pubTranName":"牛家垡新民居间隔配电变压器,方官王庄变压器,河北烁坤铸造有限公司1变压器,河北弘茂顺隆金属铸造有限公司,高碑店市联通铸造有限责任公司1变压器,高碑店市联通铸造有限责任公司2,南垡变压器,高碑店市联通铸造有限责任公司3,河北联通双拓铸造有限公司,侯辛庄西地变压器【纯农排变】,王庄新地变压器【纯农排变】,河北青沃谷农业科技有限公司1变压器,方官北二变压器,高碑店市联通铸造有限责任公司1,李鱼池变压器,辛建店东地（不纯磁卡）变压器【纯农排变】,刘玉林铸造,公正庄铸造,南垡南变压器,河北烁坤铸造有限公司2变压器,王庄南地变压器【纯农排变】,河西庄变压器,牛家垡北变压器,王庄新变压器,方官浇地变压器【纯农排变】,大道王庄新南台变压器,方官东台1变压器,牛家垡东地变压器【纯农排变】,李鱼池地变压器【纯农排变】,牛家垡西地变压器【纯农排变】,方官北浇地（磁卡）变压器【纯农排变】,方官北台变压器,三里铺东变压器,李鱼池东变压器,张猛,牛家垡北地变压器【纯农排变】,河北青沃谷农业科技有限公司2变压器,南垡排灌变压器【纯农排变】,大道王庄排灌变压器【纯农排变】,牛家垡地变压器【纯农排变】,明泽北地变压器,高碑店市方官镇牛家垡村变压器,公正庄北地变压器【纯农排变】,公正庄变压器,河北联通双拓铸造有限公司变压器,方官管道变压器,王庄地（磁卡）变压器【纯农排变】,高碑店市联通铸造有限责任公司变压器,明泽变压器,高碑店市方官镇牛家垡村400kva变压器,","scope":"【影响街道/乡镇】方官镇 【高危重要客户】无 【影响客户】南垡村、方官管道、方官村（部分）、大道王庄村、三里铺村（部分）、王庄村、侯辛庄（部分）、李鱼池村、明泽村、公正庄村、牛家垡村、河西庄村、辛建店村（部分）、联通铸造、河北烁坤铸造、河北弘茂顺隆金属铸造、张猛、河北联通双拓铸造有限公司、河北创经纬生猪屠宰有限公司","startTime":"2019-06-20 01:36:17","stopDate":"2019-06-20 06:00:00","orgNo":"1340612","typeCode":"电网故障停限电","poweroffArea":"【全线路停电】停辛建店东地（不纯磁卡）变压器【纯农排变】,河北弘茂顺隆金属铸造有限公司,河北联通双拓铸造有限公司,王庄地（磁卡）变压器【纯农排变】,高碑店市联通铸造有限责任公司变压器,高碑店市方官镇牛家垡村变压器,南垡变压器,刘玉林铸造,河西庄变压器,牛家垡北变压器,牛家垡北地变压器【纯农排变】,明泽变压器,牛家垡新民居间隔配电变压器,河北青沃谷农业科技有限公司2变压器,南垡排灌变压器【纯农排变】,大道王庄排灌变压器【纯农排变】,牛家垡地变压器【纯农排变】,明泽北地变压器,公正庄北地变压器【纯农排变】,公正庄变压器,河北联通双拓铸造有限公司变压器,高碑店市方官镇牛家垡村400kva变压器,河北烁坤铸造有限公司1变压器,高碑店市联通铸造有限责任公司1变压器,方官王庄变压器,侯辛庄西地变压器【纯农排变】,王庄新地变压器【纯农排变】,河北青沃谷农业科技有限公司1变压器,方官北二变压器,王庄新变压器,方官浇地变压器【纯农排变】,大道王庄新南台变压器,方官东台1变压器,牛家垡东地变压器【纯农排变】,李鱼池地变压器【纯农排变】,牛家垡西地变压器【纯农排变】,方官北浇地（磁卡）变压器【纯农排变】,李鱼池东变压器,方官管道变压器,公正庄铸造,南垡南变压器,河北烁坤铸造有限公司2变压器,高碑店市联通铸造有限责任公司3,张猛,三里铺东变压器,李鱼池变压器,王庄南地变压器【纯农排变】,高碑店市联通铸造有限责任公司1,高碑店市联通铸造有限责任公司2,方官北台变压器","poweroffReason":"【停电原因】由于弓子线断导致３５ＫＶ方官变电站１０ＫＶ方官镇５１３线路全线停电 【变更送电】无 【发布渠道】通过９５５９８发布","powerTime":"2019-06-20 05:07:15","powerComm":"已送电","subsNo":"","lineNo":"","tgNo":"","tgName":null,"infoStatus":"1","orgName":"国网高碑店市供电公司","typeName":null,"infoStatusName":null,"dateDay":null,"orgNos":null,"nowTime":null,"countyName":null,"streetName":null,"villageName":null,"roadName":null,"communityName":null,"tranName":null,"sdLineName":null,"cityCode":"1340612","cityName":"国网高碑店市供电公司","provinceCode":null,"stopTime":"2019-06-20 06:00:00","powerType":"全部","powerOffArea":"【全线路停电】停辛建店东地（不纯磁卡）变压器【纯农排变】,河北弘茂顺隆金属铸造有限公司,河北联通双拓铸造有限公司,王庄地（磁卡）变压器【纯农排变】,高碑店市联通铸造有限责任公司变压器,高碑店市方官镇牛家垡村变压器,南垡变压器,刘玉林铸造,河西庄变压器,牛家垡北变压器,牛家垡北地变压器【纯农排变】,明泽变压器,牛家垡新民居间隔配电变压器,河北青沃谷农业科技有限公司2变压器,南垡排灌变压器【纯农排变】,大道王庄排灌变压器【纯农排变】,牛家垡地变压器【纯农排变】,明泽北地变压器,公正庄北地变压器【纯农排变】,公正庄变压器,河北联通双拓铸造有限公司变压器,高碑店市方官镇牛家垡村400kva变压器,河北烁坤铸造有限公司1变压器,高碑店市联通铸造有限责任公司1变压器,方官王庄变压器,侯辛庄西地变压器【纯农排变】,王庄新地变压器【纯农排变】,河北青沃谷农业科技有限公司1变压器,方官北二变压器,王庄新变压器,方官浇地变压器【纯农排变】,大道王庄新南台变压器,方官东台1变压器,牛家垡东地变压器【纯农排变】,李鱼池地变压器【纯农排变】,牛家垡西地变压器【纯农排变】,方官北浇地（磁卡）变压器【纯农排变】,李鱼池东变压器,方官管道变压器,公正庄铸造,南垡南变压器,河北烁坤铸造有限公司2变压器,高碑店市联通铸造有限责任公司3,张猛,三里铺东变压器,李鱼池变压器,王庄南地变压器【纯农排变】,高碑店市联通铸造有限责任公司1,高碑店市联通铸造有限责任公司2,方官北台变压器","powerOffReason":"【停电原因】由于弓子线断导致３５ＫＶ方官变电站１０ＫＶ方官镇５１３线路全线停电 【变更送电】无 【发布渠道】通过９５５９８发布","powerOffId":"2019062013000006"},{"poweroffId":2019062013000005,"sgpoweroffId":null,"subsName":"","lineName":"10kV方官村线511","pubTranName":"华信锅炉3,龙虎庄变压器,方官中变压器,方官东二变压器,方官东台变压器,联通公司1,客户投资_方官东南变压器,高碑店市方官镇人民政府变压器,方官市场北变压器,龙虎庄面粉厂,河北家兴商贸集团有限公司变压器,方官市场南变压器,龙虎庄地变压器,客户投资_方官市场变压器,方官市场西变压器,龙虎庄二变压器,华信锅炉2,河北华信锅炉集团有限公司南,高碑店市和利通风环保设备厂,","scope":"【影响街道/乡镇】方官镇 【高危重要客户】方官政府 【影响客户】方官村、方官市场、和利通风、龙虎庄村、河北华信锅炉、河北家兴商贸集团有限公司、龙虎庄面粉厂、高碑店市和利通风环保设备厂","startTime":"2019-06-20 01:32:36","stopDate":"2019-06-20 06:00:00","orgNo":"1340612","typeCode":"电网故障停限电","poweroffArea":"【全线路停电】停华信锅炉3,客户投资_方官市场变压器,龙虎庄变压器,方官中变压器,方官市场南变压器,龙虎庄地变压器,方官市场西变压器,龙虎庄二变压器,华信锅炉2,河北华信锅炉集团有限公司南,高碑店市和利通风环保设备厂,龙虎庄面粉厂,方官东二变压器,方官东台变压器,联通公司1,河北家兴商贸集团有限公司变压器,客户投资_方官东南变压器,高碑店市方官镇人民政府变压器,方官市场北变压器","poweroffReason":"【停电原因】由于弓子线断导致３５ＫＶ方官变电站１０ＫＶ方官村５１１线路全线停电 【变更送电】无 【发布渠道】通过９５５９８发布","powerTime":"2019-06-20 05:08:21","powerComm":"已送电","subsNo":"","lineNo":"","tgNo":"","tgName":null,"infoStatus":"1","orgName":"国网高碑店市供电公司","typeName":null,"infoStatusName":null,"dateDay":null,"orgNos":null,"nowTime":null,"countyName":null,"streetName":null,"villageName":null,"roadName":null,"communityName":null,"tranName":null,"sdLineName":null,"cityCode":"1340612","cityName":"国网高碑店市供电公司","provinceCode":null,"stopTime":"2019-06-20 06:00:00","powerType":"全部","powerOffArea":"【全线路停电】停华信锅炉3,客户投资_方官市场变压器,龙虎庄变压器,方官中变压器,方官市场南变压器,龙虎庄地变压器,方官市场西变压器,龙虎庄二变压器,华信锅炉2,河北华信锅炉集团有限公司南,高碑店市和利通风环保设备厂,龙虎庄面粉厂,方官东二变压器,方官东台变压器,联通公司1,河北家兴商贸集团有限公司变压器,客户投资_方官东南变压器,高碑店市方官镇人民政府变压器,方官市场北变压器","powerOffReason":"【停电原因】由于弓子线断导致３５ＫＶ方官变电站１０ＫＶ方官村５１１线路全线停电 【变更送电】无 【发布渠道】通过９５５９８发布","powerOffId":"2019062013000005"},{"poweroffId":2019061913000492,"sgpoweroffId":null,"subsName":"","lineName":"新城线517","pubTranName":"新城北关1变压器,","scope":"【影响街道/乡镇】新城镇 【高危重要客户】无 【影响客户】北关村","startTime":"2019-06-20 06:00:00","stopDate":"2019-06-20 07:00:00","orgNo":"1340612","typeCode":"其他临时停电","poweroffArea":"【单台区停电】停新城北关1变压器","poweroffReason":"【停电原因】由于低压线路改造导致１１０ＫＶ太平庄变电站１０ＫＶ新城５１７线路新城北关１公变台区停电 【变更送电】无 【发布渠道】通过９５５９８发布","powerTime":"2019-06-20 06:51:34","powerComm":"已送电","subsNo":"","lineNo":"","tgNo":"","tgName":null,"infoStatus":"1","orgName":"国网高碑店市供电公司","typeName":null,"infoStatusName":null,"dateDay":null,"orgNos":null,"nowTime":null,"countyName":null,"streetName":null,"villageName":null,"roadName":null,"communityName":null,"tranName":null,"sdLineName":null,"cityCode":"1340612","cityName":"国网高碑店市供电公司","provinceCode":null,"stopTime":"2019-06-20 07:00:00","powerType":"全部","powerOffArea":"【单台区停电】停新城北关1变压器","powerOffReason":"【停电原因】由于低压线路改造导致１１０ＫＶ太平庄变电站１０ＫＶ新城５１７线路新城北关１公变台区停电 【变更送电】无 【发布渠道】通过９５５９８发布","powerOffId":"2019061913000492"},{"poweroffId":2019061913000472,"sgpoweroffId":null,"subsName":"","lineName":"10kV东安线536","pubTranName":"东安村新民居,1望亭乡政府,2大候村外21,东安内6,东安内4,1东安内12,保定东安中医医院,1东安内14柱上变压器,东安内5号,1东安内8,望亭乡政府1,1东安内10,东安2号,0387505714-保定华岳汽车零部件制造有限公司-专变-45324922-保定华岳汽车零部件制造有限公司,东安外2【纯农排变】,东安1号,东安小学柱上变压器,1东安内15柱上变压器,东安外1【纯农排变】,东安冶炼厂,东安内7,1东安内9,1东安内16,1东安内13柱上变压器,东安内3,御城内5,","scope":"【影响街道/乡镇】望亭乡 【高危重要客户】无 【影响客户】东安、望亭乡政府、御城","startTime":"2019-06-19 20:53:11","stopDate":"2019-06-19 23:30:00","orgNo":"1340618","typeCode":"电网故障停限电","poweroffArea":"【全线路停电】停1东安内12,保定东安中医医院,1东安内14柱上变压器,东安内5号,1东安内8,望亭乡政府1,1东安内10,东安2号,0387505714-保定华岳汽车零部件制造有限公司-专变-45324922-保定华岳汽车零部件制造有限公司,东安外2【纯农排变】,东安1号,东安小学柱上变压器,1东安内15柱上变压器,东安外1【纯农排变】,东安冶炼厂,东安内7,1东安内9,1东安内16,1东安内13柱上变压器,东安内3,御城内5,东安村新民居,1望亭乡政府,2大候村外21,东安内6,东安内4","poweroffReason":"【停电原因】由于主干１４３号杆Ｔ１０号杆东安外１台区变压器烧毁导致２２０ＫＶ孙村变电站１０ＫＶ东安线５３６线路全线停电 【变更送电】因抢修进度加快原因，送电时间由２０日０６：００变更为１９日２３：３０ 【发布渠道】通过９５５９８发布","powerTime":"2019-06-19 23:04:39","powerComm":"高丽杰通知已送电","subsNo":"","lineNo":"","tgNo":"","tgName":null,"infoStatus":"1","orgName":"国网清苑县供电公司","typeName":null,"infoStatusName":null,"dateDay":null,"orgNos":null,"nowTime":null,"countyName":null,"streetName":null,"villageName":null,"roadName":null,"communityName":null,"tranName":null,"sdLineName":null,"cityCode":"1340618","cityName":"国网清苑县供电公司","provinceCode":null,"stopTime":"2019-06-19 23:30:00","powerType":"全部","powerOffArea":"【全线路停电】停1东安内12,保定东安中医医院,1东安内14柱上变压器,东安内5号,1东安内8,望亭乡政府1,1东安内10,东安2号,0387505714-保定华岳汽车零部件制造有限公司-专变-45324922-保定华岳汽车零部件制造有限公司,东安外2【纯农排变】,东安1号,东安小学柱上变压器,1东安内15柱上变压器,东安外1【纯农排变】,东安冶炼厂,东安内7,1东安内9,1东安内16,1东安内13柱上变压器,东安内3,御城内5,东安村新民居,1望亭乡政府,2大候村外21,东安内6,东安内4","powerOffReason":"【停电原因】由于主干１４３号杆Ｔ１０号杆东安外１台区变压器烧毁导致２２０ＫＶ孙村变电站１０ＫＶ东安线５３６线路全线停电 【变更送电】因抢修进度加快原因，送电时间由２０日０６：００变更为１９日２３：３０ 【发布渠道】通过９５５９８发布","powerOffId":"2019061913000472"},{"poweroffId":2019061913000465,"sgpoweroffId":null,"subsName":"","lineName":"南屯线514","pubTranName":"10kV514南屯线马圈514杜村变压器,10kV514南屯线马圈站514代家庙1#变压器,10kV514南屯线马圈站514代家庙变压器,10kV514南屯线马圈站514黑山1#变压器,10kV514南屯线马圈站514黑山2号变压器,10kV514南屯线马圈站514胡家庄1号变压器,10kV514南屯线马圈站514胡家庄变压器,10kV514南屯线马圈站514湖海1#变压器,10kV514南屯线马圈站514湖海变压器,10kV514南屯线马圈站514南屯1#台区变压器,10kV514南屯线马圈站514南屯变压器,10kV514南屯线马圈站514南屯东台区200变压器,10kV514南屯线马圈站514南屯南台区100变压器,10kV514南屯线马圈站514南屯西台区变压器,10kV514南屯线马圈站514上吴家沟变压器,10kV514南屯线马圈站514下吴家沟变压器,黑山村光伏变压器[光伏],马圈站514黑山1#台区,马圈站514黑山2号台区,马圈站514黑山3号台区,马圈站514胡家庄村光伏1号,马圈站514胡家庄村光伏2号,马圈站514胡家庄村光伏3号,南屯镇政府,10kV514南屯线马圈站514宋家庄北变压器,10kV514南屯线马圈站514宋家庄变压器,10kV514南屯线马圈站514宋家庄南变压器,10kV514南屯线马圈514杜材1#变压器,10kV514南屯线马圈站514金家庄1#变压器,10kV514南屯线马圈站514金家庄3号变压器,","scope":"【影响街道/乡镇】南屯镇、涞源镇【高危重要客户】无【影响客户】上吴家沟、下吴家沟、湖海、代家庙、黑山、张家庄、杜村、金家庄、胡家庄、宋家庄、南屯","startTime":"2019-06-19 20:30:54","stopDate":"2019-06-20 00:30:00","orgNo":"1340615","typeCode":"电网故障停限电","poweroffArea":"【分支停电】停10kV514南屯线马圈514杜村变压器,10kV514南屯线马圈站514代家庙1#变压器,10kV514南屯线马圈站514代家庙变压器,10kV514南屯线马圈站514黑山1#变压器,10kV514南屯线马圈站514黑山2号变压器,10kV514南屯线马圈站514胡家庄1号变压器,10kV514南屯线马圈站514胡家庄变压器,10kV514南屯线马圈站514湖海1#变压器,10kV514南屯线马圈站514湖海变压器,10kV514南屯线马圈站514南屯1#台区变压器,10kV514南屯线马圈站514南屯变压器,10kV514南屯线马圈站514南屯东台区200变压器,10kV514南屯线马圈站514南屯南台区100变压器,10kV514南屯线马圈站514南屯西台区变压器,10kV514南屯线马圈站514上吴家沟变压器,10kV514南屯线马圈站514下吴家沟变压器,黑山村光伏变压器[光伏],马圈站514黑山1#台区,马圈站514黑山2号台区,马圈站514黑山3号台区,马圈站514胡家庄村光伏1号,马圈站514胡家庄村光伏2号,马圈站514胡家庄村光伏3号,南屯镇政府,10kV514南屯线马圈站514宋家庄北变压器,10kV514南屯线马圈站514宋家庄变压器,10kV514南屯线马圈站514宋家庄南变压器,10kV514南屯线马圈514杜材1#变压器,10kV514南屯线马圈站514金家庄1#变压器,10kV514南屯线马圈站514金家庄3号变压器","poweroffReason":"【停电原因】由于分支线路开关掉闸导致３５ＫＶ马圈变电站１０ＫＶ南屯线５１４线路４０号杆隔离开关以下线路停电【变更送电】因抢修进度加快，原定２０日０２：３０送电现计划２０日００：３０送电【发布渠道】通过９５５９８发布","powerTime":"2019-06-19 23:40:14","powerComm":"已送电","subsNo":"","lineNo":"","tgNo":"","tgName":null,"infoStatus":"1","orgName":"国网涞源县供电公司","typeName":null,"infoStatusName":null,"dateDay":null,"orgNos":null,"nowTime":null,"countyName":null,"streetName":null,"villageName":null,"roadName":null,"communityName":null,"tranName":null,"sdLineName":null,"cityCode":"1340615","cityName":"国网涞源县供电公司","provinceCode":null,"stopTime":"2019-06-20 00:30:00","powerType":"全部","powerOffArea":"【分支停电】停10kV514南屯线马圈514杜村变压器,10kV514南屯线马圈站514代家庙1#变压器,10kV514南屯线马圈站514代家庙变压器,10kV514南屯线马圈站514黑山1#变压器,10kV514南屯线马圈站514黑山2号变压器,10kV514南屯线马圈站514胡家庄1号变压器,10kV514南屯线马圈站514胡家庄变压器,10kV514南屯线马圈站514湖海1#变压器,10kV514南屯线马圈站514湖海变压器,10kV514南屯线马圈站514南屯1#台区变压器,10kV514南屯线马圈站514南屯变压器,10kV514南屯线马圈站514南屯东台区200变压器,10kV514南屯线马圈站514南屯南台区100变压器,10kV514南屯线马圈站514南屯西台区变压器,10kV514南屯线马圈站514上吴家沟变压器,10kV514南屯线马圈站514下吴家沟变压器,黑山村光伏变压器[光伏],马圈站514黑山1#台区,马圈站514黑山2号台区,马圈站514黑山3号台区,马圈站514胡家庄村光伏1号,马圈站514胡家庄村光伏2号,马圈站514胡家庄村光伏3号,南屯镇政府,10kV514南屯线马圈站514宋家庄北变压器,10kV514南屯线马圈站514宋家庄变压器,10kV514南屯线马圈站514宋家庄南变压器,10kV514南屯线马圈514杜材1#变压器,10kV514南屯线马圈站514金家庄1#变压器,10kV514南屯线马圈站514金家庄3号变压器","powerOffReason":"【停电原因】由于分支线路开关掉闸导致３５ＫＶ马圈变电站１０ＫＶ南屯线５１４线路４０号杆隔离开关以下线路停电【变更送电】因抢修进度加快，原定２０日０２：３０送电现计划２０日００：３０送电【发布渠道】通过９５５９８发布","powerOffId":"2019061913000465"},{"poweroffId":2019061913000458,"sgpoweroffId":null,"subsName":"","lineName":"10kV七一路站532线路","pubTranName":"10kVB1328.B1329箱式变电站B1328配电变压器,10kVB600配电室B600配电变压器,10kVB1490箱式变电站B1490配电变压器,10kVB1513.B1514配电室B1513配电变压器,10kVB1639配电室B1639配电变压器,10kVB1212配电室B1212配电变压器,10kVB1330.B1331箱式变电站B1331配电变压器,10kVY0464配电室Y0464配电变压器,10kVB1328.B1329箱式变电站B1329配电变压器,10kVB697配电室B697配电变压器,10kVB1326.B1327箱式变电站B1326配电变压器,10kVZ0027.Z0028配电室Z0028配电变压器,10kVB1517.B1518配电室B1518配电变压器,B191柱上变压器,0357774542-保定市国家安全局-专变-172547645-1,10kVB1214配电室B1214配电变压器,10kVB1330.B1331箱式变电站B1330配电变压器,B1628柱上变压器,10kVB1811.B1813配电室B1811配电变压器,10kVY0200箱式变电站Y0200配电变压器,10kVB1515.B1516配电室B1516配电变压器,B517柱上变压器,10kVY0086箱式变电站Y0086配电变压器,B785柱上变压器,10kVB1076配电室B1076配电变压器,10kVB1351.B1352配电室B1352配电变压器,10kVB1515.B1516配电室B1515配电变压器,B1247柱上变压器,0356213664-河北保定槐茂有限公司-1#专变,10kVB690配电室B690配电变压器,B1556柱上变压器,10kVY0342.Y0343配电室Y0343配电变压器,10kVY0044配电室Y0044配电变压器,10kVB1810.B1812配电室B1812配电变压器,10kVB1641配电室10kVB1641配电变压器,10kVB1640配电室B1640配电变压器,10kVB811.B812箱式变电站B811配电变压器,10kVB1513.B1514配电室B1514配电变压器,10kVB1517.B1518配电室B1517配电变压器,B1557柱上变压器,10kVY0417.Y0418配电室Y0417配电变压器,B200柱上变压器,10kVZ0027.Z0028配电室Z0027配电变压器,10kVB1811.B1813配电室B1813配电变压器,B1816柱上变压器,10kVB1810.B1812配电室B1810配电变压器,10kVB1351.B1352配电室B1351配电变压器,10kVY0417.Y0418配电室Y0418配电变压器,10kVY0342.Y0343配电室Y0342配电变压器,10kVZ0025.Z0026配电室Z0026配电变压器,B1246柱上变压器,H0029,B516柱上变压器,B188柱上变压器,10kVB803配电室B803配电变压器,B416柱上变压器,B808柱上变压器,10kVB1326.B1327箱式变电站B1327配电变压器,10kVB03","scope":"【影响街道/乡镇】五一九路、阳光北大街、天鹅路、翠园街 【高危重要客户】无 【影响客户】怡园小区、东廉良、水泥管厂、染厂宿舍、兴远现代城、环保局宿舍、花倾城、假日雅典城、建安三公司宿舍、酱菜厂、天瑞新居、五一九大队、华瑞科技苑、国家安全局","startTime":"2019-06-19 20:00:00","stopDate":"2019-06-19 21:50:00","orgNo":"13406","typeCode":"电网故障停限电","poweroffArea":"【全线路停电】停10kVB1214配电室B1214配电变压器,B1628柱上变压器,B1557柱上变压器,10kVB1326.B1327箱式变电站B1326配电变压器,10kVY0417.Y0418配电室Y0417配电变压器,10kVZ0027.Z0028配电室Z0028配电变压器,10kVY0342.Y0343配电室Y0343配电变压器,10kVB1811.B1813配电室B1811配电变压器,B191柱上变压器,10kVB1810.B1812配电室B1812配电变压器,10kVB1517.B1518配电室B1517配电变压器,10kVB600配电室B600配电变压器,10kVB1641配电室10kVB1641配电变压器,10kVB1517.B1518配电室B1518配电变压器,B516柱上变压器,B200柱上变压器,10kVB1640配电室B1640配电变压器,10kVZ0027.Z0028配电室Z0027配电变压器,B188柱上变压器,10kVB1490箱式变电站B1490配电变压器,10kVY0342.Y0343配电室Y0342配电变压器,10kVB1513.B1514配电室B1513配电变压器,10kVZ0025.Z0026配电室Z0026配电变压器,10kVB1811.B1813配电室B1813配电变压器,10kVB803配电室B803配电变压器,10kVB1639配电室B1639配电变压器,B416柱上变压器,B1816柱上变压器,B1246柱上变压器,10kVB1212配电室B1212配电变压器,H0029,10kVB1330.B1331箱式变电站B1331配电变压器,B808柱上变压器,10kVY0464配电室Y0464配电变压器,10kVB1326.B1327箱式变电站B1327配电变压器,10kVB690配电室B690配电变压器,10kVB811.B812箱式变电站B811配电变压器,B1556柱上变压器,10kVB035配电室B035配电变压器,10kVB1810.B1812配电室B1810配电变压器,10kVB1513.B1514配电室B1514配电变压器,10kVB1351.B1352配电室B1351配电变压器,10kVY0200箱式变电站Y0200配电变压器,0356213664-河北保定槐茂有限公司-1#专变,0357583616-保定市新市区人民检察院-1-配电室-变压器-1,10kVY0417.Y0418配电室Y0418配电变压器,B1274柱上变压器,10kVB811.B812箱式变电站B812配电变压器,10kVB1515.B1516配电室B1516配电变压器,10kVB1351.B1352配电室B1352配电变压器,10kVB1555配电室B1555配电变压器,B785柱上变压器,0357774542-保定市国家安全局-专变-172547645-1,10kVB1515.B1516配电室B1515配电变压器,B517柱上变压器,10kVB1076配电室B1076配电变压器,10kVY0086箱式变电站Y0086配电变压器,B1247柱上变压器,10kVB1328.B1329箱式变电站B1329配电变压器,10kVY0044配电室Y0044配电变压器,10kVB1328.B1329箱式变电站B1328配电变压器,10kVB1330.B1331箱式变电站B1330配电变压器,10kVB697配电室B697配电变压器","poweroffReason":"【停电原因】由于分支开关短路导致１０ＫＶ七一路变电站５３２线路全线停电【变更送电】【变更送电】因抢修进度加快，原定２３：５０送电现计划２１：５０送电。【发布渠道】通过９５５９８发布","powerTime":"2019-06-19 21:44:20","powerComm":"已送电","subsNo":"","lineNo":"","tgNo":"","tgName":null,"infoStatus":"1","orgName":"保定供电公司","typeName":null,"infoStatusName":null,"dateDay":null,"orgNos":null,"nowTime":null,"countyName":null,"streetName":null,"villageName":null,"roadName":null,"communityName":null,"tranName":null,"sdLineName":null,"cityCode":"13406","cityName":"保定供电公司","provinceCode":null,"stopTime":"2019-06-19 21:50:00","powerType":"全部","powerOffArea":"【全线路停电】停10kVB1214配电室B1214配电变压器,B1628柱上变压器,B1557柱上变压器,10kVB1326.B1327箱式变电站B1326配电变压器,10kVY0417.Y0418配电室Y0417配电变压器,10kVZ0027.Z0028配电室Z0028配电变压器,10kVY0342.Y0343配电室Y0343配电变压器,10kVB1811.B1813配电室B1811配电变压器,B191柱上变压器,10kVB1810.B1812配电室B1812配电变压器,10kVB1517.B1518配电室B1517配电变压器,10kVB600配电室B600配电变压器,10kVB1641配电室10kVB1641配电变压器,10kVB1517.B1518配电室B1518配电变压器,B516柱上变压器,B200柱上变压器,10kVB1640配电室B1640配电变压器,10kVZ0027.Z0028配电室Z0027配电变压器,B188柱上变压器,10kVB1490箱式变电站B1490配电变压器,10kVY0342.Y0343配电室Y0342配电变压器,10kVB1513.B1514配电室B1513配电变压器,10kVZ0025.Z0026配电室Z0026配电变压器,10kVB1811.B1813配电室B1813配电变压器,10kVB803配电室B803配电变压器,10kVB1639配电室B1639配电变压器,B416柱上变压器,B1816柱上变压器,B1246柱上变压器,10kVB1212配电室B1212配电变压器,H0029,10kVB1330.B1331箱式变电站B1331配电变压器,B808柱上变压器,10kVY0464配电室Y0464配电变压器,10kVB1326.B1327箱式变电站B1327配电变压器,10kVB690配电室B690配电变压器,10kVB811.B812箱式变电站B811配电变压器,B1556柱上变压器,10kVB035配电室B035配电变压器,10kVB1810.B1812配电室B1810配电变压器,10kVB1513.B1514配电室B1514配电变压器,10kVB1351.B1352配电室B1351配电变压器,10kVY0200箱式变电站Y0200配电变压器,0356213664-河北保定槐茂有限公司-1#专变,0357583616-保定市新市区人民检察院-1-配电室-变压器-1,10kVY0417.Y0418配电室Y0418配电变压器,B1274柱上变压器,10kVB811.B812箱式变电站B812配电变压器,10kVB1515.B1516配电室B1516配电变压器,10kVB1351.B1352配电室B1352配电变压器,10kVB1555配电室B1555配电变压器,B785柱上变压器,0357774542-保定市国家安全局-专变-172547645-1,10kVB1515.B1516配电室B1515配电变压器,B517柱上变压器,10kVB1076配电室B1076配电变压器,10kVY0086箱式变电站Y0086配电变压器,B1247柱上变压器,10kVB1328.B1329箱式变电站B1329配电变压器,10kVY0044配电室Y0044配电变压器,10kVB1328.B1329箱式变电站B1328配电变压器,10kVB1330.B1331箱式变电站B1330配电变压器,10kVB697配电室B697配电变压器","powerOffReason":"【停电原因】由于分支开关短路导致１０ＫＶ七一路变电站５３２线路全线停电【变更送电】【变更送电】因抢修进度加快，原定２３：５０送电现计划２１：５０送电。【发布渠道】通过９５５９８发布","powerOffId":"2019061913000458"},{"poweroffId":2019061913000443,"sgpoweroffId":null,"subsName":"","lineName":"10kV东北郊站514线路","pubTranName":"0356378075-保定市路灯管理处-专变,0356311238-河北省第六人民医院-4#专变,00211294,0356235705-南市区机关事务管理局-1#专变,C062柱上变压器,0356414041-保定市长城物业管理有限公司-1-箱式变-变压器-1,B1924柱上变压器,0357452066-保定市疾病预防控制中心-1#专变,0356321431-河北大学医学部-1-配电室-变压器-1,00212890,C356柱上变压器,0356235705-南市区机关事务管理局-2#专变,变压器,B676柱上变压器,10kVB1187.B1188配电室B1188配电变压器,B165柱上变压器,00211262,B1123柱上变压器,0363710543-保定天地仁房地产开发有限公司-1-配电室-变压器-1,C061柱上变压器,0356311238-河北省第六人民医院-专变,B1647柱上变压器,10kVB1187.B1188配电室B1187配电变压器,B1260柱上变压器,0356233086-保定市巨达家电股份合作公司-专变,B166柱上变压器,0578475095-保定市北市区锦绣老街坊美食汇餐厅-1-配电室-变压器-1,C063柱上变压器,0356559955-保定市唐人美食山-1-箱式变-变压器-1,0356233291-保定市传染病医院-专变-161875443-变压器,B1688柱上变压器,0356235718-保定市东方明珠桑拿健身有限公司-专变,10kVB1819配电室B1819配电变压器,0356233291-保定市传染病医院-专变-159818446-变压器,0356230319-河北大学医学部-1-配电室-变压器-1,","scope":"【影响街道/乡镇】玉兰大街、东金庄乡、烟厂路、东风东路 【高危重要客户】无 【影响客户】传染病医院、西康各庄、王范庄、元件厂宿舍、卫校、南市区法院宿舍、东风东路三医院宿舍、行署宿舍、南市区罐头厂","startTime":"2019-06-19 19:00:00","stopDate":"2019-06-19 22:00:00","orgNo":"13406","typeCode":"电网故障停限电","poweroffArea":"【全线路停电】停0356230319-河北大学医学部-1-配电室-变压器-1,0356378075-保定市路灯管理处-专变,0356311238-河北省第六人民医院-4#专变,00211294,0356235705-南市区机关事务管理局-1#专变,C062柱上变压器,0356414041-保定市长城物业管理有限公司-1-箱式变-变压器-1,B1924柱上变压器,0357452066-保定市疾病预防控制中心-1#专变,0356321431-河北大学医学部-1-配电室-变压器-1,00212890,C356柱上变压器,0356235705-南市区机关事务管理局-2#专变,变压器,B676柱上变压器,10kVB1187.B1188配电室B1188配电变压器,B165柱上变压器,00211262,B1123柱上变压器,0363710543-保定天地仁房地产开发有限公司-1-配电室-变压器-1,C061柱上变压器,0356311238-河北省第六人民医院-专变,B1647柱上变压器,10kVB1187.B1188配电室B1187配电变压器,B1260柱上变压器,0356233086-保定市巨达家电股份合作公司-专变,B166柱上变压器,0578475095-保定市北市区锦绣老街坊美食汇餐厅-1-配电室-变压器-1,C063柱上变压器,0356559955-保定市唐人美食山-1-箱式变-变压器-1,0356233291-保定市传染病医院-专变-161875443-变压器,B1688柱上变压器,0356235718-保定市东方明珠桑拿健身有限公司-专变,10kVB1819配电室B1819配电变压器,0356233291-保定市传染病医院-专变-159818446-变压器","poweroffReason":"【停电原因】由于分支开关短路导致１０ＫＶ东北郊变电站５１４线路全线停电【变更送电】无【发布渠道】通过９５５９８发布","powerTime":"2019-06-19 21:06:01","powerComm":"已送电","subsNo":"","lineNo":"","tgNo":"","tgName":null,"infoStatus":"1","orgName":"保定供电公司","typeName":null,"infoStatusName":null,"dateDay":null,"orgNos":null,"nowTime":null,"countyName":null,"streetName":null,"villageName":null,"roadName":null,"communityName":null,"tranName":null,"sdLineName":null,"cityCode":"13406","cityName":"保定供电公司","provinceCode":null,"stopTime":"2019-06-19 22:00:00","powerType":"全部","powerOffArea":"【全线路停电】停0356230319-河北大学医学部-1-配电室-变压器-1,0356378075-保定市路灯管理处-专变,0356311238-河北省第六人民医院-4#专变,00211294,0356235705-南市区机关事务管理局-1#专变,C062柱上变压器,0356414041-保定市长城物业管理有限公司-1-箱式变-变压器-1,B1924柱上变压器,0357452066-保定市疾病预防控制中心-1#专变,0356321431-河北大学医学部-1-配电室-变压器-1,00212890,C356柱上变压器,0356235705-南市区机关事务管理局-2#专变,变压器,B676柱上变压器,10kVB1187.B1188配电室B1188配电变压器,B165柱上变压器,00211262,B1123柱上变压器,0363710543-保定天地仁房地产开发有限公司-1-配电室-变压器-1,C061柱上变压器,0356311238-河北省第六人民医院-专变,B1647柱上变压器,10kVB1187.B1188配电室B1187配电变压器,B1260柱上变压器,0356233086-保定市巨达家电股份合作公司-专变,B166柱上变压器,0578475095-保定市北市区锦绣老街坊美食汇餐厅-1-配电室-变压器-1,C063柱上变压器,0356559955-保定市唐人美食山-1-箱式变-变压器-1,0356233291-保定市传染病医院-专变-161875443-变压器,B1688柱上变压器,0356235718-保定市东方明珠桑拿健身有限公司-专变,10kVB1819配电室B1819配电变压器,0356233291-保定市传染病医院-专变-159818446-变压器","powerOffReason":"【停电原因】由于分支开关短路导致１０ＫＶ东北郊变电站５１４线路全线停电【变更送电】无【发布渠道】通过９５５９８发布","powerOffId":"2019061913000443"}],"pageModel":{"pageNow":924,"totalCount":10973,"totalPage":1098,"tableRows":0,"pageCount":10,"beginCount":9230},"isExperi":"1"}