{"message":"","today":"2020-06-15","seleList":[{"poweroffId":2019061713000205,"sgpoweroffId":null,"subsName":"","lineName":"白虹线538","pubTranName":"南白虹村11#变压器【纯农排变】,太和庄村8#,刘晓立养牛厂,太和庄村1#t,北林村2#t,太和庄村6#,北靠村1#,北白虹村7#,仁义庄村7#,仁义庄村3#,塘湖村7#,东柳泉村2#,东柳泉村3#,仁义庄村1#,北靠村4#,西柳泉村6#,太和庄村2#t,南白虹村13#变压器,塘湖村15#,西靠村北任红泉,宋家庄村3#,太和庄村4#,南中庄村5#【纯农排变】,塘湖村18#变压器（吴小河）,南靠村1#,塘湖村16#变压器,塘湖村17号变压器,西柳泉村2#|【纯农排变】,王家庄村1#|,仁义庄村8#南井,吴小合砖厂,西柳泉7#,南靠村3#,南白虹村2#|,南白虹村1#,东柳泉村5#,西固城村5#变压器,北白虹村5#,塘湖村14#,北白虹村4#,南靠村4#,易县源德建材有限公司B-500KVA,车网地村4#,南福地村4#【纯农排变】,中电投河北易县新能源发电有限公司变压器,刘德财养鸡厂,西靠村1#,王家庄村4#,仁义庄村5#,南白虹2#,变压器,南中庄村3#,北白虹面粉厂,南中庄村1#,宋家庄村9#变压器,王家庄村2#,宋家庄6#,东柳泉村1#,塘湖镇中心小学,西柳泉村5#,南白虹村10#,北白虹村6#,南中庄村6#,南考村张华变压器,高家庄村3#,南中庄村8#,南福地焦红斌,南中庄村9#变压器,车网地村3#|,南中庄村2#【纯农排变】,南福地村1#,北白虹村1#,榆林庄村4#,南靠村2#,南福地村3#,南白虹村5#,北白虹村2#,王家庄村5#,车网地村1#,西柳泉村1#,北白虹村3#,南白虹村9#,太和庄村3#,宋家庄村1#,北白虹村8#变压器,西靠村7#变压器,高家庄村1#,高家庄村2#,南白虹村8#,张进庄村3#,任金海变压器,西靠村4#,西靠村5#,","scope":"【影响街道/乡镇】裴山镇、塘湖镇【高危重要客户】无【影响客户】南太和庄村、车网地村、小罗村、北白虹村、南福地村、南白虹村、高家庄村、塘湖村、南林村、榆林庄村、张进庄村、东柳泉村、西柳泉村、宋家庄村、仁义庄村、南考村、北考村、西考村、王家庄村、南中庄村","startTime":"2019-06-17 13:07:12","stopDate":"2019-06-17 17:30:00","orgNo":"1340625","typeCode":"电网故障停限电","poweroffArea":"【全线路停电】停西靠村7#变压器,西靠村5#,北白虹村6#,北白虹村4#,刘德财养鸡厂,塘湖村18#变压器（吴小河）,南福地村1#,易县源德建材有限公司B-500KVA,刘晓立养牛厂,北白虹村2#,王家庄村2#,南白虹村2#|,北白虹面粉厂,北白虹村5#,中电投河北易县新能源发电有限公司变压器,太和庄村3#,南白虹2#,南白虹村13#变压器,榆林庄村4#,南白虹村1#,宋家庄6#,南中庄村5#","poweroffReason":"【停电原因】由于速断跳闸导致１１０ＫＶ塘湖变电站白虹５３８线路全线停电【变更送电】因抢修进度加快原因，送电时间由２１:００变更为１７:３０【发布渠道】通过９５５９８发布","powerTime":"2019-06-17 17:09:36","powerComm":"已送电","subsNo":"","lineNo":"","tgNo":"","tgName":null,"infoStatus":"1","orgName":"国网易县供电公司","typeName":null,"infoStatusName":null,"dateDay":null,"orgNos":null,"nowTime":null,"countyName":null,"streetName":null,"villageName":null,"roadName":null,"communityName":null,"tranName":null,"sdLineName":null,"cityCode":"1340625","cityName":"国网易县供电公司","provinceCode":null,"stopTime":"2019-06-17 17:30:00","powerType":"全部","powerOffArea":"【全线路停电】停西靠村7#变压器,西靠村5#,北白虹村6#,北白虹村4#,刘德财养鸡厂,塘湖村18#变压器（吴小河）,南福地村1#,易县源德建材有限公司B-500KVA,刘晓立养牛厂,北白虹村2#,王家庄村2#,南白虹村2#|,北白虹面粉厂,北白虹村5#,中电投河北易县新能源发电有限公司变压器,太和庄村3#,南白虹2#,南白虹村13#变压器,榆林庄村4#,南白虹村1#,宋家庄6#,南中庄村5#","powerOffReason":"【停电原因】由于速断跳闸导致１１０ＫＶ塘湖变电站白虹５３８线路全线停电【变更送电】因抢修进度加快原因，送电时间由２１:００变更为１７:３０【发布渠道】通过９５５９８发布","powerOffId":"2019061713000205"},{"poweroffId":2019061713000201,"sgpoweroffId":null,"subsName":"","lineName":"尚家柳线523","pubTranName":"高阳县晋庄镇东河村村民委员会二变压器,08066|西陶口农业1【纯农排变】,西河屯农业(50),解庄2#东南综合,骆锁,保定爱尔棉纺织有限公司,吴庄砖厂,雪莲毛巾厂,中国石油第二十五加油站,公用事业局,吴庄3号农业【纯农排变】,西河屯1#综合,西河5#农排【纯农排变】,高阳县绿洲染织有限公司变压器,南尖农排9#【纯农排变】,武装部果园,中国石油化工股份有限公司河北高阳石油分公司变压器,中国石油天然气股份有限公司华北油田分公司变压器,西河屯农业,西河屯村北,西河10#新增综合,西河8#农排【纯农排变】,梁少军,西河8#东南综合,高阳县晋庄镇西河村村民委员会变压器,西河9#农排【纯农排变】,高阳县南蒲口乡陶口店村一号变压器,高阳县天鸿纺织品有限公司,高阳县雪莲纺织品有限公司变压器,高阳县晋庄镇东河村村民委员会一变压器,西河2#农排【纯农排变】,解庄3号新增综合,西河10#农排【纯农排变】,赵小纺,西河9#西北角综合,高阳县晋庄镇解家庄村村民委员会二变压器,解庄1号农业【纯农排变】,高阳县晋庄镇西河屯村委会二变压器,南尖农排10#【纯农排变】,高阳县凯天巾被有限公司,西河7#农排【纯农排变】,西河5#村南综合,吴庄4号农业【纯农排变】,保定美森乳业有限公司变压器,东王农业,西河1#村里综合,高阳县晋庄镇西河村民委员会二变压器,西河一中队(西),软化毛厂,解庄2号农业【纯农排变】,高阳县佳园纺织印染有限公司,富融染织有限公司,东河3#农排【纯农排变】,西河6#农排【纯农排变】,高阳县晋庄镇南尖窝村委会变压器,西河屯农业(100),高阳县晋庄镇解家庄村村民委员会一变压器,东河2#农排【纯农排变】,西河3#村西北综合,骆虎变压器,西河1#农排【纯农排变】,中国石油天然气股份有限公司河北保定销售分公司第二十五加油站变压器,高阳县凌波冷库变压器,东河4#农排【纯农排变】,高阳县鑫海纺织有限责任公司,西河6#东北角综合,吴庄5号农业【纯农排变】,完达山乳品公司,西河11号村大队综合,张保中(史建军),高阳县晋庄镇西河村民委员会三变压器,西河2#村北综合,李傻预制板厂,西河4#农排【纯农排变】,西河12#农排【纯农排变】,北方伞业,西河7#村南综合,东河1#农排【纯农排变】,西河11#农排【纯农排变】,西河3#农排【纯农排变】,解庄1#东北综合,吴庄砖厂变压器,西河屯3号新增综合,东王带锯厂,西河一中队,腾飞化工厂,高阳县晋庄镇西河屯村村民委员会变压器,高阳县南蒲口乡陶口店村贰变压器,高阳县万强绵羊饲养有限公司变压器,西河4#村西综合,西河屯2#综合,政府街路灯,","scope":"【影响街道/乡镇】晋庄乡 【高危重要客户】无 【影响客户】解庄全村、西河屯全村、西河全村","startTime":"2019-06-17 13:00:53","stopDate":"2019-06-17 14:30:00","orgNo":"1340613","typeCode":"电网故障停限电","poweroffArea":"【全线路停电】停西河屯农业(50),西河6#东北角综合,解庄2#东南综合,赵小纺,解庄2号农业【纯农排变】,高阳县万强绵羊饲养有限公司变压器,西河9#西北角综合,高阳县佳园纺织印染有限公司,西河7#农排【纯农排变】,富融染织有限公司,东河3#农排【纯农排变】,完达山乳品公司,西河1#农排【纯农排变】,西河11号村大队综合,西河6#农排【纯农排变】,西河8#东南综合,西河4#村西综合,高阳县晋庄镇西河村村民委员会变压器,高阳县晋庄镇南尖窝村委会变压器,西河屯村北,西河屯2#综合,西河9#农排【纯农排变】,东河2#农排【纯农排变】,高阳县南蒲口乡陶口店村一号变压器,西河3#村西北综合,高阳县天鸿纺织品有限公司,政府街路灯,高阳县雪莲纺织品有限公司变压器,高阳县晋庄镇东河村村民委员会一变压器,高阳县晋庄镇解家庄村村民委员会二变压器,骆虎变压器,西河8#农排【纯农排变】,西河4#农排【纯农排变】,西河12#农排【纯农排变】,南尖农排9#【纯农排变】,东王带锯厂,骆锁,保定爱尔棉纺织有限公司,西河一中队,吴庄砖厂,李傻预制板厂,西河屯农业(100),腾飞化工厂,雪莲毛巾厂,西河屯3号新增综合,南尖农排10#【纯农排变】,西河7#村南综合,北方伞业,东河1#农排【纯农排变】,中国石油第二十五加油站,公用事业局,解庄1#东北综合,吴庄3号农业【纯农排变】,吴庄砖厂变压器,高阳县晋庄镇西河屯村委会二变压器,西河屯1#综合,吴庄4号农业【纯农排变】,西河5#农排【纯农排变】,西河3#农排【纯农排变】,解庄1号农业【纯农排变】,高阳县绿洲染织有限公司变压器,西河一中队(西),软化毛厂,西河5#村南综合,高阳县晋庄镇解家庄村村民委员会一变压器,中国石油天然气股份有限公司河北保定销售分公司第二十五加油站变压器,西河2#农排【纯农排变】,保定美森乳业有限公司变压器,高阳县凌波冷库变压器,西河11#农排【纯农排变】,高阳县凯天巾被有限公司,东王农业,武装部果园,西河1#村里综合,西河10#新增综合,高阳县晋庄镇西河村民委员会二变压器,中国石油化工股份有限公司河北高阳石油分公司变压器,梁少军,张保中(史建军),高阳县晋庄镇东河村村民委员会二变压器,东河4#农排【纯农排变】,08066|西陶口农业1【纯农排变】,高阳县晋庄镇西河村民委员会三变压器,西河2#村北综合,中国石油天然气股份有限公司华北油田分公司变压器,解庄3号新增综合,高阳县晋庄镇西河屯村村民委员会变压器,高阳县鑫海纺织有限责任公司,西河屯农业,西河10#农排【纯农排变】,高阳县南蒲口乡陶口店村贰变压器,吴庄5号农业【纯农排变】","poweroffReason":"【停电原因】由于汽车撞杆导致１１０ＫＶ沙窝变电站尚家柳５２３线路全线停电【变更送电】因抢修进度加快原因，送电时间由１８：００变更为１４：３０【发布渠道】通过９５５９８发布","powerTime":"2019-06-17 14:17:41","powerComm":"已送电","subsNo":"","lineNo":"","tgNo":"","tgName":null,"infoStatus":"1","orgName":"国网高阳县供电公司","typeName":null,"infoStatusName":null,"dateDay":null,"orgNos":null,"nowTime":null,"countyName":null,"streetName":null,"villageName":null,"roadName":null,"communityName":null,"tranName":null,"sdLineName":null,"cityCode":"1340613","cityName":"国网高阳县供电公司","provinceCode":null,"stopTime":"2019-06-17 14:30:00","powerType":"全部","powerOffArea":"【全线路停电】停西河屯农业(50),西河6#东北角综合,解庄2#东南综合,赵小纺,解庄2号农业【纯农排变】,高阳县万强绵羊饲养有限公司变压器,西河9#西北角综合,高阳县佳园纺织印染有限公司,西河7#农排【纯农排变】,富融染织有限公司,东河3#农排【纯农排变】,完达山乳品公司,西河1#农排【纯农排变】,西河11号村大队综合,西河6#农排【纯农排变】,西河8#东南综合,西河4#村西综合,高阳县晋庄镇西河村村民委员会变压器,高阳县晋庄镇南尖窝村委会变压器,西河屯村北,西河屯2#综合,西河9#农排【纯农排变】,东河2#农排【纯农排变】,高阳县南蒲口乡陶口店村一号变压器,西河3#村西北综合,高阳县天鸿纺织品有限公司,政府街路灯,高阳县雪莲纺织品有限公司变压器,高阳县晋庄镇东河村村民委员会一变压器,高阳县晋庄镇解家庄村村民委员会二变压器,骆虎变压器,西河8#农排【纯农排变】,西河4#农排【纯农排变】,西河12#农排【纯农排变】,南尖农排9#【纯农排变】,东王带锯厂,骆锁,保定爱尔棉纺织有限公司,西河一中队,吴庄砖厂,李傻预制板厂,西河屯农业(100),腾飞化工厂,雪莲毛巾厂,西河屯3号新增综合,南尖农排10#【纯农排变】,西河7#村南综合,北方伞业,东河1#农排【纯农排变】,中国石油第二十五加油站,公用事业局,解庄1#东北综合,吴庄3号农业【纯农排变】,吴庄砖厂变压器,高阳县晋庄镇西河屯村委会二变压器,西河屯1#综合,吴庄4号农业【纯农排变】,西河5#农排【纯农排变】,西河3#农排【纯农排变】,解庄1号农业【纯农排变】,高阳县绿洲染织有限公司变压器,西河一中队(西),软化毛厂,西河5#村南综合,高阳县晋庄镇解家庄村村民委员会一变压器,中国石油天然气股份有限公司河北保定销售分公司第二十五加油站变压器,西河2#农排【纯农排变】,保定美森乳业有限公司变压器,高阳县凌波冷库变压器,西河11#农排【纯农排变】,高阳县凯天巾被有限公司,东王农业,武装部果园,西河1#村里综合,西河10#新增综合,高阳县晋庄镇西河村民委员会二变压器,中国石油化工股份有限公司河北高阳石油分公司变压器,梁少军,张保中(史建军),高阳县晋庄镇东河村村民委员会二变压器,东河4#农排【纯农排变】,08066|西陶口农业1【纯农排变】,高阳县晋庄镇西河村民委员会三变压器,西河2#村北综合,中国石油天然气股份有限公司华北油田分公司变压器,解庄3号新增综合,高阳县晋庄镇西河屯村村民委员会变压器,高阳县鑫海纺织有限责任公司,西河屯农业,西河10#农排【纯农排变】,高阳县南蒲口乡陶口店村贰变压器,吴庄5号农业【纯农排变】","powerOffReason":"【停电原因】由于汽车撞杆导致１１０ＫＶ沙窝变电站尚家柳５２３线路全线停电【变更送电】因抢修进度加快原因，送电时间由１８：００变更为１４：３０【发布渠道】通过９５５９８发布","powerOffId":"2019061713000201"},{"poweroffId":2019061713000189,"sgpoweroffId":null,"subsName":"","lineName":"10kV522兑坎庄线","pubTranName":"紫薇西路综合一台区变压器,诚信商厦,东南街综合五台区变压器,西南街综合二台区变压器,教委,政府,蠡县蠡吾大街汉丽轩烤肉变压器,维明西路综合二台区变压器,广场小区综合一台区箱变出线间隔配电变压器,蠡县实验中学变压器,西北街综合二台区变压器,蠡县天河物业管理有限公司,自来水,蠡吾南大街综合九台区变压器,蠡吾南大街综合四台区变压器,西库综合二台区变压器,西北街综合一台区变压器,西库综合四台区变压器,东北街综合四台区变压器,范蠡东路一台区变压器,永宁大街综合一台区变压器,西库综合三台区变压器,县委,蠡吾南大街综合七台区箱变出线间隔配电变压器,东南街综合一台区变压器,南关街综合一台区变压器,蠡吾南大街综合三台区变压器,西南街综合三台区变压器,南关街综合三台区变压器,东北街综合一台区变压器,政府变压器,蠡县人民政府廉租房项目变压器,百货路灯,教育局,西南街综合一台区变压器,范蠡西路综合二台区变压器,东南街综合四台区变压器,范蠡西路武装部小区综合六台区变压器,0675893365-蠡县范蠡路美地华府物业服务部-专变-216176243-蠡县范蠡路美地华府物业服务部,南关街综合二台区变压器,西北街综合三台区变压器,0670489323-蠡县气象局-专变-213334047-蠡县气象局,蠡吾南大街综合二台区变压器,南关街综合四台区变压器,东南街综合三台区变压器,范蠡西路综合一台区变压器,蠡县中学变压器,蠡吾南大街综合10台区变压器,蠡吾南大街综合一台区变压器,0469341094-新华店门口-专变-46778914-新华店门口,强胜纸业,蠡吾南大街综合五台区变压器,武装部小区范蠡西路综合5台区变压器,东南街综合六台区变压器,天成路灯,中医院,东北街综合三台区变压器,中学6157,西库综合一台区变压器,里中操场路灯,蠡县中医院变压器,看守所,","scope":"【影响街道/乡镇】步行街、蠡吾南大街、东南街、东北街、西北街、西南街、范蠡西路、紫微西路、蠡吾镇【高危重要客户】无【影响客户】自来水公司（城西）、看守所、老教育局、县委、蠡县第二中学、诚信商厦、蠡县实验中学、西库、弹药库、气象站、西广场以南、西广场以西、武装部小区、蠡县中医院、南关村","startTime":"2019-06-17 11:59:40","stopDate":"2019-06-17 18:00:00","orgNo":"1340616","typeCode":"电网故障停限电","poweroffArea":"【全线路停电】停紫薇西路综合一台区变压器,政府,东北街综合三台区变压器,蠡吾南大街综合一台区变压器,蠡吾南大街综合二台区变压器,蠡吾南大街综合四台区变压器,广场小区综合一台区箱变出线间隔配电变压器,范蠡西路武装部小区综合六台区变压器,,天成路灯,里中操场路灯,蠡县人民政府廉租房项目变压器,永宁大街综合一台区变压器,南关街综合四台区变压器,政府变压器,西库综合三台区变压器,诚信商厦,东南街综合五台区变压器,蠡吾南大街综合10台区变压器,自来水","poweroffReason":"【停电原因】由于站内开关掉闸导致２２０ＫＶ蠡县变电站１０ＫＶ兑坎庄５２２线路全线停电【变更送电】因抢修进度加快原因，送电时间由２３：００变更为１８：００【发布渠道】通过９５５９８发布","powerTime":"2019-06-17 17:38:31","powerComm":"已送电","subsNo":"","lineNo":"","tgNo":"","tgName":null,"infoStatus":"1","orgName":"国网蠡县供电公司","typeName":null,"infoStatusName":null,"dateDay":null,"orgNos":null,"nowTime":null,"countyName":null,"streetName":null,"villageName":null,"roadName":null,"communityName":null,"tranName":null,"sdLineName":null,"cityCode":"1340616","cityName":"国网蠡县供电公司","provinceCode":null,"stopTime":"2019-06-17 18:00:00","powerType":"全部","powerOffArea":"【全线路停电】停紫薇西路综合一台区变压器,政府,东北街综合三台区变压器,蠡吾南大街综合一台区变压器,蠡吾南大街综合二台区变压器,蠡吾南大街综合四台区变压器,广场小区综合一台区箱变出线间隔配电变压器,范蠡西路武装部小区综合六台区变压器,,天成路灯,里中操场路灯,蠡县人民政府廉租房项目变压器,永宁大街综合一台区变压器,南关街综合四台区变压器,政府变压器,西库综合三台区变压器,诚信商厦,东南街综合五台区变压器,蠡吾南大街综合10台区变压器,自来水","powerOffReason":"【停电原因】由于站内开关掉闸导致２２０ＫＶ蠡县变电站１０ＫＶ兑坎庄５２２线路全线停电【变更送电】因抢修进度加快原因，送电时间由２３：００变更为１８：００【发布渠道】通过９５５９８发布","powerOffId":"2019061713000189"},{"poweroffId":2019061713000183,"sgpoweroffId":null,"subsName":"","lineName":"10kV水源站517线路","pubTranName":"C3030柱上变压器,","scope":"【影响街道/乡镇】南奇乡 【高危重要客户】无 【影响客户】夏庄小学、夏庄村电采暖专用","startTime":"2019-06-29 07:00:00","stopDate":"2019-06-29 12:00:00","orgNo":"13406","typeCode":"计划停电","poweroffArea":"【单台区停电】停C3030柱上变压器","poweroffReason":"【停电原因】由于供电设备临时检修导致１０ＫＶ水源变电站５１７线路Ｃ３０３０公变台区停电【变更送电】无【发布渠道】保定市保定有限电视台（６月２１日２０时１５分至２１时４５分之间）屏幕上滚动","powerTime":"2019-06-29 11:34:52","powerComm":"已送电","subsNo":"","lineNo":"","tgNo":"","tgName":null,"infoStatus":"1","orgName":"保定供电公司","typeName":null,"infoStatusName":null,"dateDay":null,"orgNos":null,"nowTime":null,"countyName":null,"streetName":null,"villageName":null,"roadName":null,"communityName":null,"tranName":null,"sdLineName":null,"cityCode":"13406","cityName":"保定供电公司","provinceCode":null,"stopTime":"2019-06-29 12:00:00","powerType":"全部","powerOffArea":"【单台区停电】停C3030柱上变压器","powerOffReason":"【停电原因】由于供电设备临时检修导致１０ＫＶ水源变电站５１７线路Ｃ３０３０公变台区停电【变更送电】无【发布渠道】保定市保定有限电视台（６月２１日２０时１５分至２１时４５分之间）屏幕上滚动","powerOffId":"2019061713000183"},{"poweroffId":2019061713000159,"sgpoweroffId":null,"subsName":"","lineName":"10kV大阳站562线路","pubTranName":"0356333728-杨庄乡大阳东街村委会-专变,C035柱上变压器,C554,C3035柱上变压器,C034柱上变压器,C033柱上变压器,0356333702-杨庄乡大阳东街村委会-专变,","scope":"【影响街道/乡镇】杨庄乡 【高危重要客户】无 【影响客户】中阳村","startTime":"2019-06-28 07:00:00","stopDate":"2019-06-28 12:00:00","orgNo":"13406","typeCode":"计划停电","poweroffArea":"【分支停电】停0356333702-杨庄乡大阳东街村委会-专变,0356333728-杨庄乡大阳东街村委会-专变,C035柱上变压器,C554,C3035柱上变压器,C034柱上变压器,C033柱上变压器","poweroffReason":"【停电原因】由于供电设备临时检修导致１０ＫＶ大阳变电站５６２线路４３号杆分支刀闸以下停电【变更送电】无【发布渠道】保定市保定有限电视台（６月２０日２０时１５分至２１时４５分之间）屏幕上滚动","powerTime":"2019-06-28 11:51:43","powerComm":"已送电","subsNo":"","lineNo":"","tgNo":"","tgName":null,"infoStatus":"1","orgName":"保定供电公司","typeName":null,"infoStatusName":null,"dateDay":null,"orgNos":null,"nowTime":null,"countyName":null,"streetName":null,"villageName":null,"roadName":null,"communityName":null,"tranName":null,"sdLineName":null,"cityCode":"13406","cityName":"保定供电公司","provinceCode":null,"stopTime":"2019-06-28 12:00:00","powerType":"全部","powerOffArea":"【分支停电】停0356333702-杨庄乡大阳东街村委会-专变,0356333728-杨庄乡大阳东街村委会-专变,C035柱上变压器,C554,C3035柱上变压器,C034柱上变压器,C033柱上变压器","powerOffReason":"【停电原因】由于供电设备临时检修导致１０ＫＶ大阳变电站５６２线路４３号杆分支刀闸以下停电【变更送电】无【发布渠道】保定市保定有限电视台（６月２０日２０时１５分至２１时４５分之间）屏幕上滚动","powerOffId":"2019061713000159"},{"poweroffId":2019061713000134,"sgpoweroffId":null,"subsName":"","lineName":"10kV大阳站562线路","pubTranName":"C128柱上变压器,0356318734-保定京苑啤酒厂-专变,C126柱上变压器,0356336727-杨庄乡下闸村委会-专变,0356336743-杨庄乡下闸村委会-专变,C127柱上变压器,C129柱上变压器,C380柱上变压器,","scope":"【影响街道/乡镇】杨庄乡 【高危重要客户】无 【影响客户】下闸村","startTime":"2019-06-27 07:00:00","stopDate":"2019-06-27 14:00:00","orgNo":"13406","typeCode":"计划停电","poweroffArea":"【分支停电】停C380柱上变压器,C128柱上变压器,0356318734-保定京苑啤酒厂-专变,C126柱上变压器,0356336727-杨庄乡下闸村委会-专变,0356336743-杨庄乡下闸村委会-专变,C127柱上变压器,C129柱上变压器","poweroffReason":"【停电原因】由于供电设备临时检修导致１０ＫＶ大阳变电站５６２线路３８号杆南分支２号杆开关以下停电【变更送电】无【发布渠道】保定市保定有限电视台（６月１９日２０时１５分至２１时４５分之间）屏幕上滚动","powerTime":"2019-06-27 13:30:43","powerComm":"已送电","subsNo":"","lineNo":"","tgNo":"","tgName":null,"infoStatus":"1","orgName":"保定供电公司","typeName":null,"infoStatusName":null,"dateDay":null,"orgNos":null,"nowTime":null,"countyName":null,"streetName":null,"villageName":null,"roadName":null,"communityName":null,"tranName":null,"sdLineName":null,"cityCode":"13406","cityName":"保定供电公司","provinceCode":null,"stopTime":"2019-06-27 14:00:00","powerType":"全部","powerOffArea":"【分支停电】停C380柱上变压器,C128柱上变压器,0356318734-保定京苑啤酒厂-专变,C126柱上变压器,0356336727-杨庄乡下闸村委会-专变,0356336743-杨庄乡下闸村委会-专变,C127柱上变压器,C129柱上变压器","powerOffReason":"【停电原因】由于供电设备临时检修导致１０ＫＶ大阳变电站５６２线路３８号杆南分支２号杆开关以下停电【变更送电】无【发布渠道】保定市保定有限电视台（６月１９日２０时１５分至２１时４５分之间）屏幕上滚动","powerOffId":"2019061713000134"},{"poweroffId":2019061713000105,"sgpoweroffId":null,"subsName":"","lineName":"寺庄线514","pubTranName":"下叔农8配变【纯农排变】,南下叔西南50配变【纯农排变】,南下叔混1配变,南下叔村南混合4号,南下叔东南混5,南下叔东农100配变【纯农排变】,南下叔东南农业10号【纯农排变】,南下叔西南混3,南下叔南农4号配变【纯农排变】,下叔村东农业5号配变【纯农排变】,下叔农6配变【纯农排变】,南下叔西北50配变【纯农排变】,南下叔混2配变,望都县辉锦铸造厂,南下叔大队混6,下叔农7配变【纯农排变】,琉璃瓦厂,下叔农9配变【纯农排变】,","scope":"【影响街道/乡镇】寺庄乡 【高危重要客户】无　　 【影响客户】南下叔、琉璃瓦厂、辉锦铸造厂","startTime":"2019-06-29 06:00:00","stopDate":"2019-06-29 13:00:00","orgNo":"1340623","typeCode":"计划停电","poweroffArea":"【分支停电】停下叔农8配变【纯农排变】,南下叔西南50配变【纯农排变】,南下叔混1配变,南下叔村南混合4号,南下叔东南混5,南下叔东农100配变【纯农排变】,南下叔东南农业10号【纯农排变】,南下叔西南混3,南下叔南农4号配变【纯农排变】,下叔村东农业5号配变【纯农排变】,下叔农6配变【纯农排变】,南下叔西北50配变【纯农排变】,南下叔混2配变,望都县辉锦铸造厂,南下叔大队混6,下叔农7配变【纯农排变】,琉璃瓦厂,下叔农9配变【纯农排变】","poweroffReason":"【停电原因】由于拆除导线、立杆导致３５ＫＶ白岳变电站寺庄线５１４线路０２５号杆５１４５号开关以下线路停电 【变更送电】因工作提前完工原因，送电时间由２１：００变更为１３：００ 【发布渠道】望都有线电视台（１９时００分至２０时００分之间）屏幕上方滚动","powerTime":"2019-06-29 12:31:34","powerComm":"已送电","subsNo":"","lineNo":"","tgNo":"","tgName":null,"infoStatus":"1","orgName":"国网望都县供电公司","typeName":null,"infoStatusName":null,"dateDay":null,"orgNos":null,"nowTime":null,"countyName":null,"streetName":null,"villageName":null,"roadName":null,"communityName":null,"tranName":null,"sdLineName":null,"cityCode":"1340623","cityName":"国网望都县供电公司","provinceCode":null,"stopTime":"2019-06-29 13:00:00","powerType":"全部","powerOffArea":"【分支停电】停下叔农8配变【纯农排变】,南下叔西南50配变【纯农排变】,南下叔混1配变,南下叔村南混合4号,南下叔东南混5,南下叔东农100配变【纯农排变】,南下叔东南农业10号【纯农排变】,南下叔西南混3,南下叔南农4号配变【纯农排变】,下叔村东农业5号配变【纯农排变】,下叔农6配变【纯农排变】,南下叔西北50配变【纯农排变】,南下叔混2配变,望都县辉锦铸造厂,南下叔大队混6,下叔农7配变【纯农排变】,琉璃瓦厂,下叔农9配变【纯农排变】","powerOffReason":"【停电原因】由于拆除导线、立杆导致３５ＫＶ白岳变电站寺庄线５１４线路０２５号杆５１４５号开关以下线路停电 【变更送电】因工作提前完工原因，送电时间由２１：００变更为１３：００ 【发布渠道】望都有线电视台（１９时００分至２０时００分之间）屏幕上方滚动","powerOffId":"2019061713000105"},{"poweroffId":2019061713000088,"sgpoweroffId":null,"subsName":"","lineName":"孙庄线528","pubTranName":"望都县锦运仓储服务部,后庄子鱼塘混3,寺庄村混9配变,寺庄农5【纯农排变】,寺庄坟配变【纯农排变】,大辛庄西南农【纯农排变】,前庄子东农3【纯农排变】,后庄子混2,寺庄农7【纯农排变】,大辛庄村北农【纯农排变】,大辛庄红星机械厂,寺庄村东农业【纯农排变】,寺庄村北混合7号,前庄子西农4【纯农排变】,后庄子混合,彤霞村北农3号【纯农排变】,寺庄桥头,北龙潭【纯农排变】,孙庄农2【纯农排变】,城内大队,孙庄混合2号,北关西北农【纯农排变】,北韩庄混合4号,寺庄村北,寺庄村南,寺庄东南农【纯农排变】,寺庄混合6号变压器,寺庄村西北农10【纯农排变】,寺庄新民居配变,0667223040-望都县誉鑫铸造厂-专变-208410918-望都县誉鑫铸造厂,彤霞村路边农5号配变【纯农排变】,孙庄农1【纯农排变】,寺庄乡政府配变,前庄子西农1【纯农排变】,后庄子村北农5【纯农排变】,大辛庄正北【纯农排变】,孙庄混合,北韩庄混合2,寺庄大沟北农【纯农排变】,彤霞农1【纯农排变】,望都县鑫磊新型建材,寺庄村大辛庄道农业【纯农排变】,彤霞农4【纯农排变】,寺庄社办南,长城机械,寺庄乡卫生院配变,大辛庄西农业【纯农排变】,寺庄西南配变【纯农排变】,前庄子北农2【纯农排变】,孙庄村东农3【纯农排变】,寺庄农3【纯农排变】,前庄子混合,大辛庄西北农业【纯农排变】,","scope":"【影响街道/乡镇】寺庄乡、望都镇　　 【高危重要客户】无　　 【影响客户】前庄子村、孙庄村、后庄子村、寺庄村、大辛庄村、彤霞村部分农业、北关西北农业、北韩庄村、北龙潭、城内大队、望都能顺面粉厂、李立昌面粉厂、望都惠得祥鞋厂、大辛庄红星机械厂、京艺制鞋厂、长城机械、水库车床加工、 鑫磊新型建材、望都县誉鑫铸造厂、望都县和平建材销售处","startTime":"2019-06-29 06:00:00","stopDate":"2019-06-29 21:00:00","orgNo":"1340623","typeCode":"计划停电","poweroffArea":"【全线路停电】停长城机械,望都县锦运仓储服务部,后庄子鱼塘混3,寺庄村混9配变,寺庄农5【纯农排变】,寺庄坟配变【纯农排变】,大辛庄西南农【纯农排变】,前庄子东农3【纯农排变】,后庄子混2,寺庄农7【纯农排变】,大辛庄村北农【纯农排变】,大辛庄红星机械厂,寺庄村东农业【纯农排变】,寺庄村北混合7号,前庄子西农4【纯农排变】,后庄子混合,彤霞村北农3号【纯农排变】,寺庄桥头,北龙潭【纯农排变】,孙庄农2【纯农排变】,城内大队,孙庄混合2号,北关西北农【纯农排变】,北韩庄混合4号,寺庄村北,寺庄村南,寺庄东南农【纯农排变】,寺庄混合6号变压器,寺庄村西北农10【纯农排变】,寺庄新民居配变,0667223040-望都县誉鑫铸造厂-专变-208410918-望都县誉鑫铸造厂,彤霞村路边农5号配变【纯农排变】,孙庄农1【纯农排变】,寺庄乡政府配变,前庄子西农1【纯农排变】,后庄子村北农5【纯农排变】,大辛庄正北【纯农排变】,孙庄混合,北韩庄混合2,寺庄大沟北农【纯农排变】,彤霞农1【纯农排变】,望都县鑫磊新型建材,寺庄村大辛庄道农业【纯农排变】,彤霞农4【纯农排变】,寺庄社办南,寺庄乡卫生院配变,大辛庄西农业【纯农排变】,寺庄西南配变【纯农排变】,前庄子北农2【纯农排变】,孙庄村东农3【纯农排变】,寺庄农3【纯农排变】,前庄子混合,大辛庄西北农业【纯农排变】","poweroffReason":"【停电原因】由于拆除导线、立杆导致１１０ＫＶ八里庄变电站孙庄线５２８线路全线停电 【变更送电】无 【发布渠道】保定市望都有线电视台（０６月１８日至０６月２８日１９时００分至２０时００分之间）屏幕上方滚动","powerTime":"2019-06-29 20:32:59","powerComm":"已送电","subsNo":"","lineNo":"","tgNo":"","tgName":null,"infoStatus":"1","orgName":"国网望都县供电公司","typeName":null,"infoStatusName":null,"dateDay":null,"orgNos":null,"nowTime":null,"countyName":null,"streetName":null,"villageName":null,"roadName":null,"communityName":null,"tranName":null,"sdLineName":null,"cityCode":"1340623","cityName":"国网望都县供电公司","provinceCode":null,"stopTime":"2019-06-29 21:00:00","powerType":"全部","powerOffArea":"【全线路停电】停长城机械,望都县锦运仓储服务部,后庄子鱼塘混3,寺庄村混9配变,寺庄农5【纯农排变】,寺庄坟配变【纯农排变】,大辛庄西南农【纯农排变】,前庄子东农3【纯农排变】,后庄子混2,寺庄农7【纯农排变】,大辛庄村北农【纯农排变】,大辛庄红星机械厂,寺庄村东农业【纯农排变】,寺庄村北混合7号,前庄子西农4【纯农排变】,后庄子混合,彤霞村北农3号【纯农排变】,寺庄桥头,北龙潭【纯农排变】,孙庄农2【纯农排变】,城内大队,孙庄混合2号,北关西北农【纯农排变】,北韩庄混合4号,寺庄村北,寺庄村南,寺庄东南农【纯农排变】,寺庄混合6号变压器,寺庄村西北农10【纯农排变】,寺庄新民居配变,0667223040-望都县誉鑫铸造厂-专变-208410918-望都县誉鑫铸造厂,彤霞村路边农5号配变【纯农排变】,孙庄农1【纯农排变】,寺庄乡政府配变,前庄子西农1【纯农排变】,后庄子村北农5【纯农排变】,大辛庄正北【纯农排变】,孙庄混合,北韩庄混合2,寺庄大沟北农【纯农排变】,彤霞农1【纯农排变】,望都县鑫磊新型建材,寺庄村大辛庄道农业【纯农排变】,彤霞农4【纯农排变】,寺庄社办南,寺庄乡卫生院配变,大辛庄西农业【纯农排变】,寺庄西南配变【纯农排变】,前庄子北农2【纯农排变】,孙庄村东农3【纯农排变】,寺庄农3【纯农排变】,前庄子混合,大辛庄西北农业【纯农排变】","powerOffReason":"【停电原因】由于拆除导线、立杆导致１１０ＫＶ八里庄变电站孙庄线５２８线路全线停电 【变更送电】无 【发布渠道】保定市望都有线电视台（０６月１８日至０６月２８日１９时００分至２０时００分之间）屏幕上方滚动","powerOffId":"2019061713000088"},{"poweroffId":2019061713000079,"sgpoweroffId":null,"subsName":"","lineName":"10kV511南沙口线","pubTranName":"南沙口综合20台区,赵庄农排1台区【纯农排变】,隆达绒毛有限公司变压器,南沙口综合7台区,赵庄农排7台区【纯农排变】,南沙口农排5台区【纯农排变】,南沙口综合17台区,南沙口综合19台区,南沙口综合12台区,沙口砖厂,南沙口农排6台区【纯农排变】,南沙口农排9台区【纯农排变】,南沙口农排4台区【纯农排变】,南沙口农排8台区【纯农排变】,南沙口综合21台区,南沙口综合5台区,南沙口综合16台区,南沙口综合3台区,北夫综合6台区,蠡县贝恩皮革材料有限公司,南沙口综合1台区,南沙口农排10台区【纯农排变】,南沙口综合6台区,南沙口综合2台区,东侯综合6台区变压器,0668007742-蠡县中祥建材制造有限公司-专变-209986417-蠡县中祥建材制造有限公司,南沙口农排1台区【纯农排变】,南沙口综合18台区,南沙口综合4台区,南沙口农排2台区【纯农排变】,南沙口农排3台区【纯农排变】,南沙口综合14台区,蠡县留史镇忠谊液化气站,南沙口农排7台区【纯农排变】,南沙口综合15台区,南沙口综合13台区,南沙口综合10台区,永胜厂,南沙口综合11台区,南沙口综合8台区,忠谊液化气站,南沙口综合9台区,","scope":"【影响街道/乡镇】留史镇【高危重要客户】无【影响客户】南沙口村","startTime":"2019-06-17 11:00:00","stopDate":"2019-06-17 14:00:00","orgNo":"1340616","typeCode":"其他临时停电","poweroffArea":"【分支停电】停南沙口综合20台区,赵庄农排1台区【纯农排变】,隆达绒毛有限公司变压器,南沙口综合7台区,赵庄农排7台区【纯农排变】,南沙口农排5台区【纯农排变】,南沙口综合17台区,南沙口综合19台区,南沙口综合12台区,沙口砖厂,南沙口农排6台区【纯农排变】,南沙口农排9台区【纯农排变】,南沙口农排4台区【纯农排变】,南沙口农排8台区【纯农排变】,南沙口综合21台区,南沙口综合5台区,南沙口综合16台区,南沙口综合3台区,北夫综合6台区,蠡县贝恩皮革材料有限公司,南沙口综合1台区,南沙口农排10台区【纯农排变】,南沙口综合6台区,南沙口综合2台区,东侯综合6台区变压器,0668007742-蠡县中祥建材制造有限公司-专变-209986417-蠡县中祥建材制造有限公司,南沙口农排1台区【纯农排变】,南沙口综合18台区,南沙口综合4台区,南沙口农排2台区【纯农排变】,南沙口农排3台区【纯农排变】,南沙口综合14台区,蠡县留史镇忠谊液化气站,南沙口农排7台区【纯农排变】,南沙口综合15台区,南沙口综合13台区,南沙口综合10台区,永胜厂,南沙口综合11台区,南沙口综合8台区,忠谊液化气站,南沙口综合9台区","poweroffReason":"【停电原因】由于线路严重缺陷，需停电进行紧急消缺导致１１０ＫＶ留史变电站１０ＫＶ南沙口５１１线路０８４号杆０２号开关０３号刀闸以下线路停电【变更送电】无【发布渠道】通过９５５９８发布","powerTime":"2019-06-17 13:05:39","powerComm":"已送电","subsNo":"","lineNo":"","tgNo":"","tgName":null,"infoStatus":"1","orgName":"国网蠡县供电公司","typeName":null,"infoStatusName":null,"dateDay":null,"orgNos":null,"nowTime":null,"countyName":null,"streetName":null,"villageName":null,"roadName":null,"communityName":null,"tranName":null,"sdLineName":null,"cityCode":"1340616","cityName":"国网蠡县供电公司","provinceCode":null,"stopTime":"2019-06-17 14:00:00","powerType":"全部","powerOffArea":"【分支停电】停南沙口综合20台区,赵庄农排1台区【纯农排变】,隆达绒毛有限公司变压器,南沙口综合7台区,赵庄农排7台区【纯农排变】,南沙口农排5台区【纯农排变】,南沙口综合17台区,南沙口综合19台区,南沙口综合12台区,沙口砖厂,南沙口农排6台区【纯农排变】,南沙口农排9台区【纯农排变】,南沙口农排4台区【纯农排变】,南沙口农排8台区【纯农排变】,南沙口综合21台区,南沙口综合5台区,南沙口综合16台区,南沙口综合3台区,北夫综合6台区,蠡县贝恩皮革材料有限公司,南沙口综合1台区,南沙口农排10台区【纯农排变】,南沙口综合6台区,南沙口综合2台区,东侯综合6台区变压器,0668007742-蠡县中祥建材制造有限公司-专变-209986417-蠡县中祥建材制造有限公司,南沙口农排1台区【纯农排变】,南沙口综合18台区,南沙口综合4台区,南沙口农排2台区【纯农排变】,南沙口农排3台区【纯农排变】,南沙口综合14台区,蠡县留史镇忠谊液化气站,南沙口农排7台区【纯农排变】,南沙口综合15台区,南沙口综合13台区,南沙口综合10台区,永胜厂,南沙口综合11台区,南沙口综合8台区,忠谊液化气站,南沙口综合9台区","powerOffReason":"【停电原因】由于线路严重缺陷，需停电进行紧急消缺导致１１０ＫＶ留史变电站１０ＫＶ南沙口５１１线路０８４号杆０２号开关０３号刀闸以下线路停电【变更送电】无【发布渠道】通过９５５９８发布","powerOffId":"2019061713000079"},{"poweroffId":2019061713000073,"sgpoweroffId":null,"subsName":"","lineName":"10kV513沙口线","pubTranName":"北沙口农排8台区【纯农排变】,0552553971-蠡县利邦化纤有限公司-专变-177406762-蠡县利邦化纤有限公司变压器,北沙口综合11台区,北沙口农排4台区【纯农排变】,0678410688-蠡县梁庄村委会-专变-219701366-蠡县梁庄村委会,北沙口农排15台区【纯农排变】,梁庄综合7台区,梁庄综合11台区,北沙口综合14台区,北沙口综合3台区,北沙口综合2台区,北沙口综合13台区,北沙口农排7台区【纯农排变】,北沙口农排16台区【纯农排变】,北沙口综合8台区,兆鑫毛纺厂,梁庄综合8台区,北沙口农排9台区【纯农排变】,建茂面粉厂,北沙口农排1台区【纯农排变】,梁庄综合6台区,北沙口综合10台区,北沙口综合6台区,北沙口综合12台区,北沙口农排2台区【纯农排变】,梁庄综合4台区,北沙口农排11台区【纯农排变】,梁庄综合2台区,北沙口农排6台区【纯农排变】,变压器,北沙口新村小区,梁庄综合9台区,顺达毛纺有限公司,梁庄综合5台区,北沙口农排13台区【纯农排变】,北沙口农排3台区【纯农排变】,北沙口综合1台区,0469118562-蠡县景乐汽车货运有限公司-专变-46722548-景乐货站,北沙口农排14台区【纯农排变】,梁庄农排1台区【纯农排变】,河北顺达毛纺有限公司变压器,北沙口综合9台区,北沙口农排10台区【纯农排变】,梁庄综合15台区,北沙口农排17台区【纯农排变】,梁庄综合10台区,北沙口综合5台区,梁庄综合3台区,北沙口农排5台区【纯农排变】,梁庄综合12台区,梁庄综合1台区,梁庄农排2台区【纯农排变】,北沙口综合4台区,梁庄农排3台区【纯农排变】,北沙口农排12台区【纯农排变】,梁庄综合14台区,北沙口砖厂,北沙口综合7台区,蠡县利邦化纤有限公司1600,","scope":"【影响街道/乡镇】辛兴镇【高危重要客户】无【影响客户】北沙口村","startTime":"2019-06-17 11:00:00","stopDate":"2019-06-17 14:00:00","orgNo":"1340616","typeCode":"其他临时停电","poweroffArea":"【分支停电】停北沙口综合10台区,河北顺达毛纺有限公司变压器,梁庄综合3台区,北沙口农排4台区【纯农排变】,北沙口农排5台区【纯农排变】,北沙口农排8台区【纯农排变】,,北沙口综合4台区,北沙口综合11台区,梁庄农排3台区【纯农排变】,北沙口农排15台区【纯农排变】,北沙口农排12台区【纯农排变】,北沙口综合14台区,北沙口砖厂,变压器,北沙口综合7台区,,北沙口农排14台区【纯农排变】,,北沙口综合2台区,北沙口农排17台区【纯农排变】,北沙口综合13台区,,北沙口农排7台区【纯农排变】,梁庄综合12台区,北沙口农排16台区【纯农排变】,北沙口综合5台区,北沙口综合8台区,北沙口新村小区,兆鑫毛纺厂,北沙口农排9台区【纯农排变】,梁庄综合8台区,建茂面粉厂,顺达毛纺有限公司,北沙口农排1台区【纯农排变】,梁庄综合5台区,梁庄综合6台区,北沙口农排13台区【纯农排变】,北沙口农排6台区【纯农排变】,北沙口农排3台区【纯农排变】,梁庄综合9台区,北沙口综合1台区,北沙口综合6台区,北沙口综合12台区,0469118562-,北沙口综合9台区,梁庄综合4台区,北沙口农排10台区【纯农排变】,北沙口农排11台区","poweroffReason":"【停电原因】由于线路严重缺陷，需停电进行紧急消缺导致１１０ＫＶ辛兴变电站１０ＫＶ沙口５１３线路０１４号杆０２号开关０２号刀闸以下停电【变更送电】无【发布渠道】通过９５５９８发布","powerTime":"2019-06-17 13:06:14","powerComm":"已送电","subsNo":"","lineNo":"","tgNo":"","tgName":null,"infoStatus":"1","orgName":"国网蠡县供电公司","typeName":null,"infoStatusName":null,"dateDay":null,"orgNos":null,"nowTime":null,"countyName":null,"streetName":null,"villageName":null,"roadName":null,"communityName":null,"tranName":null,"sdLineName":null,"cityCode":"1340616","cityName":"国网蠡县供电公司","provinceCode":null,"stopTime":"2019-06-17 14:00:00","powerType":"全部","powerOffArea":"【分支停电】停北沙口综合10台区,河北顺达毛纺有限公司变压器,梁庄综合3台区,北沙口农排4台区【纯农排变】,北沙口农排5台区【纯农排变】,北沙口农排8台区【纯农排变】,,北沙口综合4台区,北沙口综合11台区,梁庄农排3台区【纯农排变】,北沙口农排15台区【纯农排变】,北沙口农排12台区【纯农排变】,北沙口综合14台区,北沙口砖厂,变压器,北沙口综合7台区,,北沙口农排14台区【纯农排变】,,北沙口综合2台区,北沙口农排17台区【纯农排变】,北沙口综合13台区,,北沙口农排7台区【纯农排变】,梁庄综合12台区,北沙口农排16台区【纯农排变】,北沙口综合5台区,北沙口综合8台区,北沙口新村小区,兆鑫毛纺厂,北沙口农排9台区【纯农排变】,梁庄综合8台区,建茂面粉厂,顺达毛纺有限公司,北沙口农排1台区【纯农排变】,梁庄综合5台区,梁庄综合6台区,北沙口农排13台区【纯农排变】,北沙口农排6台区【纯农排变】,北沙口农排3台区【纯农排变】,梁庄综合9台区,北沙口综合1台区,北沙口综合6台区,北沙口综合12台区,0469118562-,北沙口综合9台区,梁庄综合4台区,北沙口农排10台区【纯农排变】,北沙口农排11台区","powerOffReason":"【停电原因】由于线路严重缺陷，需停电进行紧急消缺导致１１０ＫＶ辛兴变电站１０ＫＶ沙口５１３线路０１４号杆０２号开关０２号刀闸以下停电【变更送电】无【发布渠道】通过９５５９８发布","powerOffId":"2019061713000073"}],"pageModel":{"pageNow":935,"totalCount":10973,"totalPage":1098,"tableRows":0,"pageCount":10,"beginCount":9340},"isExperi":"1"}