{"message":"","today":"2020-06-15","seleList":[{"poweroffId":2019061613000386,"sgpoweroffId":null,"subsName":"","lineName":"东环路516","pubTranName":"泰元北大街1#,","scope":"【影响街道/乡镇】易州镇【高危重要客户】无【影响客户】泰元街","startTime":"2019-06-17 02:00:00","stopDate":"2019-06-17 08:00:00","orgNo":"1340625","typeCode":"其他临时停电","poweroffArea":"【单台区停电】停泰元北大街1#","poweroffReason":"【停电原因】由于更换变压器导致３５ＫＶ燕城变电站东环路５１６线路泰元北大街１＃公变台区停电【变更送电】无【发布渠道】通过９５５９８发布","powerTime":"2019-06-17 07:12:49","powerComm":"已送电","subsNo":"","lineNo":"","tgNo":"","tgName":null,"infoStatus":"1","orgName":"国网易县供电公司","typeName":null,"infoStatusName":null,"dateDay":null,"orgNos":null,"nowTime":null,"countyName":null,"streetName":null,"villageName":null,"roadName":null,"communityName":null,"tranName":null,"sdLineName":null,"cityCode":"1340625","cityName":"国网易县供电公司","provinceCode":null,"stopTime":"2019-06-17 08:00:00","powerType":"全部","powerOffArea":"【单台区停电】停泰元北大街1#","powerOffReason":"【停电原因】由于更换变压器导致３５ＫＶ燕城变电站东环路５１６线路泰元北大街１＃公变台区停电【变更送电】无【发布渠道】通过９５５９８发布","powerOffId":"2019061613000386"},{"poweroffId":2019061613000385,"sgpoweroffId":null,"subsName":"","lineName":"10kV薛留营站521线路.","pubTranName":"0696648337-保定市发投热力有限公司-专变-2,0696648337-保定市发投热力有限公司-专变-1,","scope":"【影响街道/乡镇】阳光北大街 【高危重要客户】无 【影响客户】中通五局宿舍锅炉房","startTime":"2019-06-17 00:30:00","stopDate":"2019-06-17 01:00:00","orgNo":"13406","typeCode":"其他临时停电","poweroffArea":"【全线路停电】停0696648337-保定市发投热力有限公司-专变-1,0696648337-保定市发投热力有限公司-专变-2","poweroffReason":"【停电原因】由于紧急消缺导致１０ＫＶ薛留营变电站５２１线路全线停电【变更送电】无【发布渠道】通过９５５９８发布","powerTime":"2019-06-17 00:53:52","powerComm":"已送电","subsNo":"","lineNo":"","tgNo":"","tgName":null,"infoStatus":"1","orgName":"保定供电公司","typeName":null,"infoStatusName":null,"dateDay":null,"orgNos":null,"nowTime":null,"countyName":null,"streetName":null,"villageName":null,"roadName":null,"communityName":null,"tranName":null,"sdLineName":null,"cityCode":"13406","cityName":"保定供电公司","provinceCode":null,"stopTime":"2019-06-17 01:00:00","powerType":"全部","powerOffArea":"【全线路停电】停0696648337-保定市发投热力有限公司-专变-1,0696648337-保定市发投热力有限公司-专变-2","powerOffReason":"【停电原因】由于紧急消缺导致１０ＫＶ薛留营变电站５２１线路全线停电【变更送电】无【发布渠道】通过９５５９８发布","powerOffId":"2019061613000385"},{"poweroffId":2019061613000380,"sgpoweroffId":null,"subsName":"","lineName":"10kV薛留营站519线路","pubTranName":"10kV箱式变电站D002变压器间隔配电变压器,00210012,10kVD065箱式变电站D065配电变压器,10kVB1259配电室B1259配电变压器,B3023柱上变压器,10KV D064箱式变电站 变压器间隔配电变压器,0701869861-保定市莲池区中华路街道北关社区村民委员会-专变,B078柱上变压器,0356371104-保定北国商城有限责任公司-1#专变,0356277936-财达证券有限责任公司保定莲池北大街证券营业部-1-配电室-变压器-,0356458236-保定市滨河公园管理处-专变,0356177308-保定市第四运输公司-1-箱式变-变压器-1,10kVD063箱式变电站D063配电变压器,B074柱上变压器,B593柱上变压器,","scope":"【影响街道/乡镇】长城南大街、裕华西路、北河沿、莲池北大街、环城东路、北大街 【高危重要客户】无 【影响客户】大慈阁小区、文昌宫工商行、文昌宫工行宿舍、财达小区、北关、福兴里","startTime":"2019-06-17 00:30:00","stopDate":"2019-06-17 01:00:00","orgNo":"13406","typeCode":"其他临时停电","poweroffArea":"【全线路停电】停0701869861-保定市莲池区中华路街道北关社区村民委员会-专变,B078柱上变压器,0356371104-保定北国商城有限责任公司-1#专变,0356277936-财达证券有限责任公司保定莲池北大街证券营业部-1-配电室-变压器-,0356458236-保定市滨河公园管理处-专变,0356177308-保定市第四运输公司-1-箱式变-变压器-1,B074柱上变压器,B593柱上变压器,10kVD063箱式变电站D063配电变压器,10kV箱式变电站D002变压器间隔配电变压器,00210012,10kVD065箱式变电站D065配电变压器,10kVB1259配电室B1259配电变压器,B3023柱上变压器,10KV D064箱式变电站 变压器间隔配电变压器","poweroffReason":"【停电原因】由于紧急消缺导致１０ＫＶ薛留营变电站５１９线路全线停电【变更送电】无【发布渠道】通过９５５９８发布","powerTime":"2019-06-17 00:54:28","powerComm":"已送电","subsNo":"","lineNo":"","tgNo":"","tgName":null,"infoStatus":"1","orgName":"保定供电公司","typeName":null,"infoStatusName":null,"dateDay":null,"orgNos":null,"nowTime":null,"countyName":null,"streetName":null,"villageName":null,"roadName":null,"communityName":null,"tranName":null,"sdLineName":null,"cityCode":"13406","cityName":"保定供电公司","provinceCode":null,"stopTime":"2019-06-17 01:00:00","powerType":"全部","powerOffArea":"【全线路停电】停0701869861-保定市莲池区中华路街道北关社区村民委员会-专变,B078柱上变压器,0356371104-保定北国商城有限责任公司-1#专变,0356277936-财达证券有限责任公司保定莲池北大街证券营业部-1-配电室-变压器-,0356458236-保定市滨河公园管理处-专变,0356177308-保定市第四运输公司-1-箱式变-变压器-1,B074柱上变压器,B593柱上变压器,10kVD063箱式变电站D063配电变压器,10kV箱式变电站D002变压器间隔配电变压器,00210012,10kVD065箱式变电站D065配电变压器,10kVB1259配电室B1259配电变压器,B3023柱上变压器,10KV D064箱式变电站 变压器间隔配电变压器","powerOffReason":"【停电原因】由于紧急消缺导致１０ＫＶ薛留营变电站５１９线路全线停电【变更送电】无【发布渠道】通过９５５９８发布","powerOffId":"2019061613000380"},{"poweroffId":2019061613000369,"sgpoweroffId":null,"subsName":"","lineName":"10kV薛留营站518线路","pubTranName":"客户投资 D048住上变压器,10kVB1125配电室B1125配电变压器,0356183091-利源开发公司-1-箱式变-变压器-,0356341488-市政维护处路灯-专变,B249柱上变压器,0637895808-保定市城乡建筑设计研究院-专变-148500950-变压器,B1912柱上变压器,10kVB615配电室B615配电变压器,0356226215-保定市人民政府机关事务管理局-1-配电室-变压器-1,B3022柱上变压器,0356341475-市政维护处路灯-专变,B247柱上变压器,0356343338-保定市建筑工程管理站-专变,B748柱上变压器,B246柱上变压器,B1563柱上变压器,B453柱上变压器,0356221513-北京军区房地产管理局保定办事处-专变,0356282639-保定市四通时尚购物广场有限公司-变压器-1,0356261272-中国银行保定分行-专变,B248柱上变压器,B1489柱上变压器,变压器,B243柱上变压器,B507柱上变压器,0356309361-中国建设银行股份有限公司保定分行-专变,0356282639-保定市四通时尚购物广场有限公司-变压器-2,B245柱上变压器,","scope":"【影响街道/乡镇】青年路、薛刘营东街、五四东路、永华北大街、七一中路 【高危重要客户】无 【影响客户】新华村市政宿舍、华北五四苑、教委宿舍、机关宿舍","startTime":"2019-06-17 00:30:00","stopDate":"2019-06-17 01:00:00","orgNo":"13406","typeCode":"其他临时停电","poweroffArea":"【全线路停电】停0356341475-市政维护处路灯-专变,客户投资 D048住上变压器,B3022柱上变压器,B247柱上变压器,0356343338-保定市建筑工程管理站-专变,B748柱上变压器,B246柱上变压器,B1563柱上变压器,B453柱上变压器,0356221513-北京军区房地产管理局保定办事处-专变,0356282639-保定市四通时尚购物广场有限公司-变压器-1,0356261272-中国银行保定分行-专变,B248柱上变压器,B1489柱上变压器,变压器,B243柱上变压器,B507柱上变压器,0356309361-中国建设银行股份有限公司保定分行-专变,0356282639-保定市四通时尚购物广场有限公司-变压器-2,B245柱上变压器,10kVB1125配电室B1125配电变压器,0356183091-利源开发公司-1-箱式变-变压器-,0356341488-市政维护处路灯-专变,B249柱上变压器,0637895808-保定市城乡建筑设计研究院-专变-148500950-变压器,B1912柱上变压器,10kVB615配电室B615配电变压器,0356226215-保定市人民政府机关事务管理局-1-配电室-变压器-1","poweroffReason":"【停电原因】由于紧急消缺导致１０ＫＶ薛留营变电站５１８线路全线停电【变更送电】无【发布渠道】通过９５５９８发布","powerTime":"2019-06-17 00:50:07","powerComm":"已送电","subsNo":"","lineNo":"","tgNo":"","tgName":null,"infoStatus":"1","orgName":"保定供电公司","typeName":null,"infoStatusName":null,"dateDay":null,"orgNos":null,"nowTime":null,"countyName":null,"streetName":null,"villageName":null,"roadName":null,"communityName":null,"tranName":null,"sdLineName":null,"cityCode":"13406","cityName":"保定供电公司","provinceCode":null,"stopTime":"2019-06-17 01:00:00","powerType":"全部","powerOffArea":"【全线路停电】停0356341475-市政维护处路灯-专变,客户投资 D048住上变压器,B3022柱上变压器,B247柱上变压器,0356343338-保定市建筑工程管理站-专变,B748柱上变压器,B246柱上变压器,B1563柱上变压器,B453柱上变压器,0356221513-北京军区房地产管理局保定办事处-专变,0356282639-保定市四通时尚购物广场有限公司-变压器-1,0356261272-中国银行保定分行-专变,B248柱上变压器,B1489柱上变压器,变压器,B243柱上变压器,B507柱上变压器,0356309361-中国建设银行股份有限公司保定分行-专变,0356282639-保定市四通时尚购物广场有限公司-变压器-2,B245柱上变压器,10kVB1125配电室B1125配电变压器,0356183091-利源开发公司-1-箱式变-变压器-,0356341488-市政维护处路灯-专变,B249柱上变压器,0637895808-保定市城乡建筑设计研究院-专变-148500950-变压器,B1912柱上变压器,10kVB615配电室B615配电变压器,0356226215-保定市人民政府机关事务管理局-1-配电室-变压器-1","powerOffReason":"【停电原因】由于紧急消缺导致１０ＫＶ薛留营变电站５１８线路全线停电【变更送电】无【发布渠道】通过９５５９８发布","powerOffId":"2019061613000369"},{"poweroffId":2019061613000368,"sgpoweroffId":null,"subsName":"","lineName":"10kV薛留营站516线路","pubTranName":"10kVB1074.B1075箱式变电站B1075配电变压器,0356219981-保定市莲池区薛刘营村委会-专变-192624331-变压器,10kVB952箱式变电站B952配电变压器,0356216810-市交通局-专变,10kVB720.B721箱式变电站B720配电变压器,0356228064-警备区-专变,0356332305-市政维护处路灯-专变,10kVB719箱式变电站B719配电变压器,10kVB717.B718箱式变电站B718配电变压器,10kVB722.B723箱式变电站B723配电变压器,10kVB605配电室B605配电变压器,10kVB725.B726箱式变电站B725配电变压器,B456柱上变压器,10kVB1393箱式变电站B1393配电变压器,10kVD055和D056箱式变电站Ⅰ号变压器间隔D055配电变压器,B776柱上变压器,0356232575-军分区三休干所-站内变1-变压器-1,0356295004-金昌锅炉房-专变,10kVB727.B728箱式变电站B728配电变压器,B606柱上变压器,B1524,10kVB1079.B1085箱式变电站B1079配电变压器,10kVB720.B721箱式变电站B721配电变压器,B730柱上变压器,10kVB727.B728箱式变电站B727配电变压器,B586柱上变压器,B1645柱上变压器,10kVB722.B723箱式变电站B722配电变压器,B1523,B1168柱上变压器,0356219574-市政工程处-专变,10kVB1077.B1078箱式变电站B1078配电变压器,B211柱上变压器,B209柱上变压器,10kVB1074.B1075箱式变电站B1074配电变压器,10kVB1077.B1078箱式变电站B1077配电变压器,10kVB1079.B1085箱式变电站B1085配电变压器,0677859202-保定市学苑大众洗浴中心有限公司-专变-217785828-变压器,变压器,B515柱上变压器,10kVD055和D056箱式变电站Ⅱ号变压器间隔D056配电变压器,0356283515-军分区二休干所-站内变-1-变压器-1,10kVB725.B726箱式变电站B726配电变压器,B447柱上变压器,B827柱上变压器,10kVB717.B718箱式变电站B717配电变压器,00212220,","scope":"【影响街道/乡镇】瑞祥大街、东风中路 【高危重要客户】无 【影响客户】薛新村、薛刘营环卫楼、天鹅路建兴小区、东风路公交园小区、五四路学府花园、华电青年苑、军学中心血站小区、金昌西区、金昌东区、河北小学宿舍、文华小区、军学胡同182号、冀英小学、康居二期","startTime":"2019-06-17 00:30:00","stopDate":"2019-06-17 01:00:00","orgNo":"13406","typeCode":"其他临时停电","poweroffArea":"【全线路停电】停0677859202-保定市学苑大众洗浴中心有限公司-专变-217785828-变压器,10kVB605配电室B605配电变压器,B606柱上变压器,10kVB727.B728箱式变电站B727配电变压器,10kVB720.B721箱式变电站B720配电变压器,10kVB720.B721箱式变电站B721配电变压器,0356295004-金昌锅炉房-专变,0356228064-警备区-专变,10kVB722.B723箱式变电站B723配电变压器,10kVB727.B728箱式变电站B728配电变压器,B730柱上变压器,10kVB1074.B1075箱式变电站B1074配电变压器,10kVB725.B726箱式变电站B725配电变压器,10kVD055和D056箱式变电站Ⅰ号变压器间隔D055配电变压器,B456柱上变压器,10kVB1077.B1078箱式变电站B1077配电变压器,B776柱上变压器,10kVB1079.B1085箱式变电站B1079配电变压器,10kVB1079.B1085箱式变电站B1085配电变压器,10kVB717.B718箱式变电站B718配电变压器,0356232575-军分区三休干所-站内变1-变压器-1,10kVB1077.B1078箱式变电站B1078配电变压器,变压器,10kVB717.B718箱式变电站B717配电变压器,B586柱上变压器,B211柱上变压器,B515柱上变压器,00212220,B1645柱上变压器,B209柱上变压器,10kVD055和D056箱式变电站Ⅱ号变压器间隔D056配电变压器,10kVB719箱式变电站B719配电变压器,10kVB722.B723箱式变电站B722配电变压器,B1524,0356283515-军分区二休干所-站内变-1-变压器-1,10kVB1393箱式变电站B1393配电变压器,B1523,10kVB1074.B1075箱式变电站B1075配电变压器,10kVB725.B726箱式变电站B726配电变压器,0356219981-保定市莲池区薛刘营村委会-专变-192624331-变压器,B1168柱上变压器,0356332305-市政维护处路灯-专变,B447柱上变压器,10kVB952箱式变电站B952配电变压器,0356219574-市政工程处-专变,0356216810-市交通局-专变,B827柱上变压器","poweroffReason":"【停电原因】由于紧急消缺导致１０ＫＶ薛留营变电站５１６线路全线停电【变更送电】无【发布渠道】通过９５５９８发布","powerTime":"2019-06-17 00:51:04","powerComm":"已送电","subsNo":"","lineNo":"","tgNo":"","tgName":null,"infoStatus":"1","orgName":"保定供电公司","typeName":null,"infoStatusName":null,"dateDay":null,"orgNos":null,"nowTime":null,"countyName":null,"streetName":null,"villageName":null,"roadName":null,"communityName":null,"tranName":null,"sdLineName":null,"cityCode":"13406","cityName":"保定供电公司","provinceCode":null,"stopTime":"2019-06-17 01:00:00","powerType":"全部","powerOffArea":"【全线路停电】停0677859202-保定市学苑大众洗浴中心有限公司-专变-217785828-变压器,10kVB605配电室B605配电变压器,B606柱上变压器,10kVB727.B728箱式变电站B727配电变压器,10kVB720.B721箱式变电站B720配电变压器,10kVB720.B721箱式变电站B721配电变压器,0356295004-金昌锅炉房-专变,0356228064-警备区-专变,10kVB722.B723箱式变电站B723配电变压器,10kVB727.B728箱式变电站B728配电变压器,B730柱上变压器,10kVB1074.B1075箱式变电站B1074配电变压器,10kVB725.B726箱式变电站B725配电变压器,10kVD055和D056箱式变电站Ⅰ号变压器间隔D055配电变压器,B456柱上变压器,10kVB1077.B1078箱式变电站B1077配电变压器,B776柱上变压器,10kVB1079.B1085箱式变电站B1079配电变压器,10kVB1079.B1085箱式变电站B1085配电变压器,10kVB717.B718箱式变电站B718配电变压器,0356232575-军分区三休干所-站内变1-变压器-1,10kVB1077.B1078箱式变电站B1078配电变压器,变压器,10kVB717.B718箱式变电站B717配电变压器,B586柱上变压器,B211柱上变压器,B515柱上变压器,00212220,B1645柱上变压器,B209柱上变压器,10kVD055和D056箱式变电站Ⅱ号变压器间隔D056配电变压器,10kVB719箱式变电站B719配电变压器,10kVB722.B723箱式变电站B722配电变压器,B1524,0356283515-军分区二休干所-站内变-1-变压器-1,10kVB1393箱式变电站B1393配电变压器,B1523,10kVB1074.B1075箱式变电站B1075配电变压器,10kVB725.B726箱式变电站B726配电变压器,0356219981-保定市莲池区薛刘营村委会-专变-192624331-变压器,B1168柱上变压器,0356332305-市政维护处路灯-专变,B447柱上变压器,10kVB952箱式变电站B952配电变压器,0356219574-市政工程处-专变,0356216810-市交通局-专变,B827柱上变压器","powerOffReason":"【停电原因】由于紧急消缺导致１０ＫＶ薛留营变电站５１６线路全线停电【变更送电】无【发布渠道】通过９５５９８发布","powerOffId":"2019061613000368"},{"poweroffId":2019061613000367,"sgpoweroffId":null,"subsName":"","lineName":"10kV薛留营站513线路","pubTranName":"0356337342-66393部队干休所-1#专变,0356228035-保定市人民政府机关事务管理局-2#专变,B252柱上变压器,0657363581-大唐保定供热有限责任公司-专变-192547772-变压器,0356330400-军分区-1#专变,0356344243-河北省烟草公司保定市公司-1#专变,B079柱上变压器,B251柱上变压器,0700327344-中国共产党保定市委员会信访局-变压器-1,10kVB948配电室B948配电变压器,B410柱上变压器,B081柱上变压器,0356332334-市政维护处路灯-专变,B1273柱上变压器,B253柱上变压器,0356269348-河北中移通信技术工程有限公司-1-配电室-变压器-1,0356476434-保定市路灯管理处-1-箱式变-变压器-,B1284柱上变压器,B1845,B099柱上变压器,B080柱上变压器,0356322724-华北电力大学-5#专变,B469柱上变压器,10kVB112箱式变电站B112配电变压器,B1877柱上变压器,0356322724-华北电力大学-专变-135604268-变压器,B173柱上变压器,B1069柱上变压器,0356303305-中国联合网络通信有限公司保定市分公司-2#专变,0356243595-中国人民银行保定市中心支行-专变-144692327-变压器,","scope":"【影响街道/乡镇】新北街、五四东路、新建胡同 【高危重要客户】无 【影响客户】厚福营、东元宝、邮电器材机械厂、陈家场","startTime":"2019-06-17 00:30:00","stopDate":"2019-06-17 01:00:00","orgNo":"13406","typeCode":"其他临时停电","poweroffArea":"【全线路停电】停B1273柱上变压器,0356476434-保定市路灯管理处-1-箱式变-变压器-,B1284柱上变压器,B1845,B099柱上变压器,B080柱上变压器,0356322724-华北电力大学-5#专变,B469柱上变压器,10kVB112箱式变电站B112配电变压器,B1877柱上变压器,0356322724-华北电力大学-专变-135604268-变压器,B173柱上变压器,B1069柱上变压器,0356303305-中国联合网络通信有限公司保定市分公司-2#专变,0356243595-中国人民银行保定市中心支行-专变-144692327-变压器,B253柱上变压器,0356269348-河北中移通信技术工程有限公司-1-配电室-变压器-1,0356332334-市政维护处路灯-专变,0356337342-66393部队干休所-1#专变,0356228035-保定市人民政府机关事务管理局-2#专变,B252柱上变压器,0657363581-大唐保定供热有限责任公司-专变-192547772-变压器,0356330400-军分区-1#专变,0356344243-河北省烟草公司保定市公司-1#专变,B079柱上变压器,B251柱上变压器,0700327344-中国共产党保定市委员会信访局-变压器-1,10kVB948配电室B948配电变压器,B410柱上变压器,B081柱上变压器","poweroffReason":"【停电原因】由于紧急消缺导致１０ＫＶ薛留营变电站５１３线路全线停电【变更送电】无【发布渠道】通过９５５９８发布","powerTime":"2019-06-17 00:51:59","powerComm":"已送电","subsNo":"","lineNo":"","tgNo":"","tgName":null,"infoStatus":"1","orgName":"保定供电公司","typeName":null,"infoStatusName":null,"dateDay":null,"orgNos":null,"nowTime":null,"countyName":null,"streetName":null,"villageName":null,"roadName":null,"communityName":null,"tranName":null,"sdLineName":null,"cityCode":"13406","cityName":"保定供电公司","provinceCode":null,"stopTime":"2019-06-17 01:00:00","powerType":"全部","powerOffArea":"【全线路停电】停B1273柱上变压器,0356476434-保定市路灯管理处-1-箱式变-变压器-,B1284柱上变压器,B1845,B099柱上变压器,B080柱上变压器,0356322724-华北电力大学-5#专变,B469柱上变压器,10kVB112箱式变电站B112配电变压器,B1877柱上变压器,0356322724-华北电力大学-专变-135604268-变压器,B173柱上变压器,B1069柱上变压器,0356303305-中国联合网络通信有限公司保定市分公司-2#专变,0356243595-中国人民银行保定市中心支行-专变-144692327-变压器,B253柱上变压器,0356269348-河北中移通信技术工程有限公司-1-配电室-变压器-1,0356332334-市政维护处路灯-专变,0356337342-66393部队干休所-1#专变,0356228035-保定市人民政府机关事务管理局-2#专变,B252柱上变压器,0657363581-大唐保定供热有限责任公司-专变-192547772-变压器,0356330400-军分区-1#专变,0356344243-河北省烟草公司保定市公司-1#专变,B079柱上变压器,B251柱上变压器,0700327344-中国共产党保定市委员会信访局-变压器-1,10kVB948配电室B948配电变压器,B410柱上变压器,B081柱上变压器","powerOffReason":"【停电原因】由于紧急消缺导致１０ＫＶ薛留营变电站５１３线路全线停电【变更送电】无【发布渠道】通过９５５９８发布","powerOffId":"2019061613000367"},{"poweroffId":2019061613000363,"sgpoweroffId":null,"subsName":"","lineName":"10kV薛留营站512线路","pubTranName":"10kVB1624.B1625配电室B1624配电变压器,0552102939-保定市京源物业管理有限公司-1#专变,0552102939-保定市京源物业管理有限公司-2#专变,0356230436-中国人民解放军66393部队保定离职干部休养所-专变-139256859-变压器,10kVB1624.B1625配电室B1625配电变压器,0363689788-河北秀兰房地产集团有限公司-1-配电室变压器,C503柱上变压器,0356224857-华北电力大学(保定)-2#专变,10kVB1422.B1423配电室B1422配电变压器,0356224857-华北电力大学(保定)-1#专变,0356224857-华北电力大学(保定)-6#专变,C614柱上变压器,0695445504-保定市吉隆房地产开发有限公司-变压器,0658067615-保定市同济中学-专变-192909534-变压器,0356224857-华北电力大学(保定)-专变-161935419-变压器,C454柱上变压器,0356224857-华北电力大学(保定)-专变-161947571-变压器,00210697,10kVB1422.B1423配电室B1423配电变压器,0356224857-华北电力大学(保定)-专变-161935424-变压器,0356700904-张庄村民委员会-13402808,","scope":"【影响街道/乡镇】七一路、华电路、百楼乡 【高危重要客户】无 【影响客户】张庄、文景苑小区、王庄村、老年楼、张庄小区、文景苑小区、华电二校区、中心血站、京源柳郡张庄、干部休养所、信誉楼、保定市同济中学、保定市吉隆房地产开发有限公司","startTime":"2019-06-17 00:30:00","stopDate":"2019-06-17 01:00:00","orgNo":"13406","typeCode":"其他临时停电","poweroffArea":"【全线路停电】停10kVB1624.B1625配电室B1624配电变压器,0552102939-保定市京源物业管理有限公司-1#专变,0552102939-保定市京源物业管理有限公司-2#专变,0356230436-中国人民解放军66393部队保定离职干部休养所-专变-139256859-变压器,10kVB1624.B1625配电室B1625配电变压器,0363689788-河北秀兰房地产集团有限公司-1-配电室变压器,C503柱上变压器,0356224857-华北电力大学(保定)-2#专变,10kVB1422.B1423配电室B1422配电变压器,0356224857-华北电力大学(保定)-1#专变,0356224857-华北电力大学(保定)-专变-161935424-变压器,0356224857-华北电力大学(保定)-6#专变,0356700904-张庄村民委员会-13402808,C614柱上变压器,0695445504-保定市吉隆房地产开发有限公司-变压器,0658067615-保定市同济中学-专变-192909534-变压器,0356224857-华北电力大学(保定)-专变-161935419-变压器,C454柱上变压器,0356224857-华北电力大学(保定)-专变-161947571-变压器,00210697,10kVB1422.B1423配电室B1423配电变压器","poweroffReason":"【停电原因】由于紧急消缺导致１０ＫＶ薛留营变电站５１２线路全线停电【变更送电】无【发布渠道】通过９５５９８发布","powerTime":"2019-06-17 00:52:32","powerComm":"已送电","subsNo":"","lineNo":"","tgNo":"","tgName":null,"infoStatus":"1","orgName":"保定供电公司","typeName":null,"infoStatusName":null,"dateDay":null,"orgNos":null,"nowTime":null,"countyName":null,"streetName":null,"villageName":null,"roadName":null,"communityName":null,"tranName":null,"sdLineName":null,"cityCode":"13406","cityName":"保定供电公司","provinceCode":null,"stopTime":"2019-06-17 01:00:00","powerType":"全部","powerOffArea":"【全线路停电】停10kVB1624.B1625配电室B1624配电变压器,0552102939-保定市京源物业管理有限公司-1#专变,0552102939-保定市京源物业管理有限公司-2#专变,0356230436-中国人民解放军66393部队保定离职干部休养所-专变-139256859-变压器,10kVB1624.B1625配电室B1625配电变压器,0363689788-河北秀兰房地产集团有限公司-1-配电室变压器,C503柱上变压器,0356224857-华北电力大学(保定)-2#专变,10kVB1422.B1423配电室B1422配电变压器,0356224857-华北电力大学(保定)-1#专变,0356224857-华北电力大学(保定)-专变-161935424-变压器,0356224857-华北电力大学(保定)-6#专变,0356700904-张庄村民委员会-13402808,C614柱上变压器,0695445504-保定市吉隆房地产开发有限公司-变压器,0658067615-保定市同济中学-专变-192909534-变压器,0356224857-华北电力大学(保定)-专变-161935419-变压器,C454柱上变压器,0356224857-华北电力大学(保定)-专变-161947571-变压器,00210697,10kVB1422.B1423配电室B1423配电变压器","powerOffReason":"【停电原因】由于紧急消缺导致１０ＫＶ薛留营变电站５１２线路全线停电【变更送电】无【发布渠道】通过９５５９８发布","powerOffId":"2019061613000363"},{"poweroffId":2019061613000362,"sgpoweroffId":null,"subsName":"","lineName":"10kV薛留营站511线路","pubTranName":"0696356551-保定市发投热力有限公司-专变-1,0696356551-保定市发投热力有限公司-专变-2,","scope":"【影响街道/乡镇】市府前街 【高危重要客户】无 【影响客户】紫河套、城隍庙、保定市发投热力有限公司","startTime":"2019-06-17 00:30:00","stopDate":"2019-06-17 01:00:00","orgNo":"13406","typeCode":"其他临时停电","poweroffArea":"【全线路停电】停0696356551-保定市发投热力有限公司-专变-1,0696356551-保定市发投热力有限公司-专变-2","poweroffReason":"【停电原因】由于紧急消缺导致１０ＫＶ薛留营变电站５１１线路全线停电【变更送电】无【发布渠道】通过９５５９８发布","powerTime":"2019-06-17 00:53:22","powerComm":"已送电","subsNo":"","lineNo":"","tgNo":"","tgName":null,"infoStatus":"1","orgName":"保定供电公司","typeName":null,"infoStatusName":null,"dateDay":null,"orgNos":null,"nowTime":null,"countyName":null,"streetName":null,"villageName":null,"roadName":null,"communityName":null,"tranName":null,"sdLineName":null,"cityCode":"13406","cityName":"保定供电公司","provinceCode":null,"stopTime":"2019-06-17 01:00:00","powerType":"全部","powerOffArea":"【全线路停电】停0696356551-保定市发投热力有限公司-专变-1,0696356551-保定市发投热力有限公司-专变-2","powerOffReason":"【停电原因】由于紧急消缺导致１０ＫＶ薛留营变电站５１１线路全线停电【变更送电】无【发布渠道】通过９５５９８发布","powerOffId":"2019061613000362"},{"poweroffId":2019061613000220,"sgpoweroffId":null,"subsName":"","lineName":"造纸厂线514","pubTranName":"荆庄南西2号【纯农排变】,柳陀西南农【纯农排变】,荆庄小农场【纯农排变】,荆庄内西配变,荆庄东园【纯农排变】,柳陀造纸厂南【纯农排变】,荆庄南东新增【纯农排变】,荆庄枣庄地【纯农排变】,荆庄村东【纯农排变】,荆庄村内东混2号,荆庄三等地【纯农排变】,荆庄南东【纯农排变】,荆庄村东北【纯农排变】,荆庄内南配变,荆庄东北新增,荆庄内东配变,荆庄村内混合配变,荆庄南西【纯农排变】,荆庄大地道北【纯农排变】,河北惠阳牧业有限公司,荆庄村东北2号【纯农排变】,荆庄南中配变【纯农排变】,荆庄屯河道【纯农排变】,荆庄大地道北新增【纯农排变】,荆庄村东内农业【纯农排变】,荆庄柳陀道【纯农排变】,","scope":"【影响街道/乡镇】中韩庄乡　　 【高危重要客户】无　　 【影响客户】惠阳牧业有限公司、荆庄村、柳陀农业","startTime":"2019-06-30 05:00:00","stopDate":"2019-06-30 21:00:00","orgNo":"1340623","typeCode":"计划停电","poweroffArea":"【全线路停电】停荆庄枣庄地【纯农排变】,荆庄南西【纯农排变】,荆庄大地道北【纯农排变】,河北惠阳牧业有限公司,荆庄村东北2号【纯农排变】,荆庄南中配变【纯农排变】,荆庄屯河道【纯农排变】,荆庄大地道北新增【纯农排变】,荆庄村东内农业【纯农排变】,荆庄柳陀道【纯农排变】,荆庄南西2号【纯农排变】,柳陀西南农【纯农排变】,荆庄小农场【纯农排变】,荆庄内西配变,荆庄东园【纯农排变】,柳陀造纸厂南【纯农排变】,荆庄南东新增【纯农排变】,荆庄村东【纯农排变】,荆庄村内东混2号,荆庄三等地【纯农排变】,荆庄南东【纯农排变】,荆庄村东北【纯农排变】,荆庄内南配变,荆庄东北新增,荆庄内东配变,荆庄村内混合配变","poweroffReason":"【停电原因】由于架线、接引导致３５ＫＶ曹庄变电站造纸厂线５１４线路全线停电 【变更送电】无 【发布渠道】保定市望都有线电视台（０６月１７日至０６月２８日１９时００分至２０时００分之间）屏幕上方滚动","powerTime":"2019-06-30 20:17:39","powerComm":"已送电","subsNo":"","lineNo":"","tgNo":"","tgName":null,"infoStatus":"1","orgName":"国网望都县供电公司","typeName":null,"infoStatusName":null,"dateDay":null,"orgNos":null,"nowTime":null,"countyName":null,"streetName":null,"villageName":null,"roadName":null,"communityName":null,"tranName":null,"sdLineName":null,"cityCode":"1340623","cityName":"国网望都县供电公司","provinceCode":null,"stopTime":"2019-06-30 21:00:00","powerType":"全部","powerOffArea":"【全线路停电】停荆庄枣庄地【纯农排变】,荆庄南西【纯农排变】,荆庄大地道北【纯农排变】,河北惠阳牧业有限公司,荆庄村东北2号【纯农排变】,荆庄南中配变【纯农排变】,荆庄屯河道【纯农排变】,荆庄大地道北新增【纯农排变】,荆庄村东内农业【纯农排变】,荆庄柳陀道【纯农排变】,荆庄南西2号【纯农排变】,柳陀西南农【纯农排变】,荆庄小农场【纯农排变】,荆庄内西配变,荆庄东园【纯农排变】,柳陀造纸厂南【纯农排变】,荆庄南东新增【纯农排变】,荆庄村东【纯农排变】,荆庄村内东混2号,荆庄三等地【纯农排变】,荆庄南东【纯农排变】,荆庄村东北【纯农排变】,荆庄内南配变,荆庄东北新增,荆庄内东配变,荆庄村内混合配变","powerOffReason":"【停电原因】由于架线、接引导致３５ＫＶ曹庄变电站造纸厂线５１４线路全线停电 【变更送电】无 【发布渠道】保定市望都有线电视台（０６月１７日至０６月２８日１９时００分至２０时００分之间）屏幕上方滚动","powerOffId":"2019061613000220"},{"poweroffId":2019061613000214,"sgpoweroffId":null,"subsName":"","lineName":"留家庄线517","pubTranName":"留家庄乡政府,破水1#【三批中心村】,517留家庄线城关站517郑草沟,517留家庄线城关站517张家铺北4,涞源县留家庄乡张家铺村村民委员会变压器,涞源县??茂猪苓种植场变压器,涞源县宏伟置业房地产开发有限公司变压器,涞源县涞源镇冯村村民委员会变压器,中国电信,留家庄3号,517留家庄线城关站517小道,华夏幸福涞源扶贫发展有限公司台区,517留家庄线周村南,坡水村光伏变压器【光伏】,涞源县留家庄乡中心小学变压器,周村光伏变压器【光伏】,张水力,团圆村光伏变压器【光伏】,金家井6号,烧车村3【三批中心村】,破水2#【三批中心村】,留家庄2号,517留家庄线城东站517周村中,天宏碎石厂,团员村,城关站517团员北,涞源县金家井乡周村村民委员会 变压器,留家庄1号,烧车村光伏变压器【光伏】,517留家庄线城关站517周村北,留家庄学校,517留家庄线城关站517团圆南,烧车村1【三批中心村】,涞源县留家庄乡卫生院变压器,517留家庄线城关站517张家铺南3,517留家庄线城关站517周村东,涞源县久宏养殖场变压器,80,中国移动通信集团河北有限公司涞源分公司变压器,团员西,团圆东,517留家庄线城关站517坡水,517留家庄线城关站517陈家庄,00,烧车村2【三批中心村】,517留家庄线城关站517泉峪1,涞源县盛杰养殖场变压器,变压器,涞源县留家庄乡坡水村村民委员会变压器,517留家庄线张家铺北2,517留家庄线城关站517张家铺北,517留家庄线城关站517张家铺南4,517留家庄线城关站517马圈沟门,517留家庄线城关站517张家铺南,517留家庄线城关站517周村西,石片村【三批中心村】,伊家铺村光伏变压器【光伏】,517留家庄线城关站517黑石沟,517留家庄线城关站517泉峪计量2,517留家庄线城关站517张家铺南2,517留家庄线城关站517水石塘东,涞源县留家庄乡留家庄村村民委员会变压器,517留家庄线城关站517四角台,留家庄4号,517留家庄线城关站517张家铺北3,517留家庄线城关站517坡水二台区,涞源县金家井乡中心小学变压器,破水3#【三批中心村】,中国移动通信集团河北有限公司涞源,乡政府,517留家庄线城关站517水石塘西,伊家铺,517留家庄线周西村2,","scope":"【影响街道/乡镇】金家井乡、留家庄乡【高危重要客户】无【影响客户】黑石沟、四角台、水石塘、马圈沟门、烧车、破水、伊家铺、石片、郑草沟、团员、留家庄、留家庄小学、留家庄乡政府、留家庄卫生所、张家铺、周村、泉峪","startTime":"2019-06-26 09:00:00","stopDate":"2019-06-26 19:00:00","orgNo":"1340615","typeCode":"计划停电","poweroffArea":"【全线路停电】停变压器,留家庄乡政府,破水1#【三批中心村】,517留家庄线城关站517郑草沟,517留家庄线城关站517张家铺北4,涞源县留家庄乡张家铺村村民委员会变压器,涞源县??茂猪苓种植场变压器,涞源县宏伟置业房地产开发有限公司变压器,涞源县涞源镇冯村村民委员会变压器,中国电信,留家庄3号,517留家庄线城关站517小道,华夏幸福涞源扶贫发展有限公司台区,517留家庄线周村南,坡水村光伏变压器【光伏】,涞源县留家庄乡中心小学变压器,周村光伏变压器【光伏】,张水力,团圆村光伏变压器【光伏】,金家井6号,烧车村3【三批中心村】,破水2#【三批中心村】,留家庄2号,517留家庄线城东站517周村中,天宏碎石厂,团员村,城关站517团员北,涞源县金家井乡周村村民委员会 变压器,留家庄1号,烧车村光伏变压器【光伏】,517留家庄线城关站517周村北,留家庄学校,517留家庄线城关站517团圆南,烧车村1【三批中心村】,涞源县留家庄乡卫生院变压器,517留家庄线城关站517张家铺南3,517留家庄线城关站517周村东,涞源县久宏养殖场变压器,80,中国移动通信集团河北有限公司涞源分公司变压器,团员西,团圆东,517留家庄线城关站517坡水,517留家庄线城关站517陈家庄,00,烧车村2【三批中心村】,517留家庄线城关站517泉峪1,涞源县盛杰养殖场变压器,517留家庄线城关站517张家铺南,517留家庄线城关站517周村西,石片村【三批中心村】,伊家铺村光伏变压器【光伏】,517留家庄线城关站517黑石沟,517留家庄线城关站517泉峪计量2,517留家庄线城关站517张家铺南2,517留家庄线城关站517水石塘东,涞源县留家庄乡留家庄村村民委员会变压器,517留家庄线城关站517四角台,留家庄4号,517留家庄线城关站517张家铺北3,517留家庄线城关站517坡水二台区,涞源县金家井乡中心小学变压器,破水3#【三批中心村】,中国移动通信集团河北有限公司涞源,乡政府,517留家庄线城关站517水石塘西,伊家铺,517留家庄线周西村2,涞源县留家庄乡坡水村村民委员会变压器,517留家庄线张家铺北2,517留家庄线城关站517张家铺北,517留家庄线城关站517张家铺南4,517留家庄线城关站517马圈沟门","poweroffReason":"【停电原因】由于开关遥控消缺，开关更换导致３５ＫＶ城关变电站１０ＫＶ留家庄线５１７线路全线停电【变更送电】无【发布渠道】涞源电视台（２０１９年６月１６日至２０１９年６月２５日）屏幕上方滚动","powerTime":"2019-06-26 18:26:21","powerComm":"已送电","subsNo":"","lineNo":"","tgNo":"","tgName":null,"infoStatus":"1","orgName":"国网涞源县供电公司","typeName":null,"infoStatusName":null,"dateDay":null,"orgNos":null,"nowTime":null,"countyName":null,"streetName":null,"villageName":null,"roadName":null,"communityName":null,"tranName":null,"sdLineName":null,"cityCode":"1340615","cityName":"国网涞源县供电公司","provinceCode":null,"stopTime":"2019-06-26 19:00:00","powerType":"全部","powerOffArea":"【全线路停电】停变压器,留家庄乡政府,破水1#【三批中心村】,517留家庄线城关站517郑草沟,517留家庄线城关站517张家铺北4,涞源县留家庄乡张家铺村村民委员会变压器,涞源县??茂猪苓种植场变压器,涞源县宏伟置业房地产开发有限公司变压器,涞源县涞源镇冯村村民委员会变压器,中国电信,留家庄3号,517留家庄线城关站517小道,华夏幸福涞源扶贫发展有限公司台区,517留家庄线周村南,坡水村光伏变压器【光伏】,涞源县留家庄乡中心小学变压器,周村光伏变压器【光伏】,张水力,团圆村光伏变压器【光伏】,金家井6号,烧车村3【三批中心村】,破水2#【三批中心村】,留家庄2号,517留家庄线城东站517周村中,天宏碎石厂,团员村,城关站517团员北,涞源县金家井乡周村村民委员会 变压器,留家庄1号,烧车村光伏变压器【光伏】,517留家庄线城关站517周村北,留家庄学校,517留家庄线城关站517团圆南,烧车村1【三批中心村】,涞源县留家庄乡卫生院变压器,517留家庄线城关站517张家铺南3,517留家庄线城关站517周村东,涞源县久宏养殖场变压器,80,中国移动通信集团河北有限公司涞源分公司变压器,团员西,团圆东,517留家庄线城关站517坡水,517留家庄线城关站517陈家庄,00,烧车村2【三批中心村】,517留家庄线城关站517泉峪1,涞源县盛杰养殖场变压器,517留家庄线城关站517张家铺南,517留家庄线城关站517周村西,石片村【三批中心村】,伊家铺村光伏变压器【光伏】,517留家庄线城关站517黑石沟,517留家庄线城关站517泉峪计量2,517留家庄线城关站517张家铺南2,517留家庄线城关站517水石塘东,涞源县留家庄乡留家庄村村民委员会变压器,517留家庄线城关站517四角台,留家庄4号,517留家庄线城关站517张家铺北3,517留家庄线城关站517坡水二台区,涞源县金家井乡中心小学变压器,破水3#【三批中心村】,中国移动通信集团河北有限公司涞源,乡政府,517留家庄线城关站517水石塘西,伊家铺,517留家庄线周西村2,涞源县留家庄乡坡水村村民委员会变压器,517留家庄线张家铺北2,517留家庄线城关站517张家铺北,517留家庄线城关站517张家铺南4,517留家庄线城关站517马圈沟门","powerOffReason":"【停电原因】由于开关遥控消缺，开关更换导致３５ＫＶ城关变电站１０ＫＶ留家庄线５１７线路全线停电【变更送电】无【发布渠道】涞源电视台（２０１９年６月１６日至２０１９年６月２５日）屏幕上方滚动","powerOffId":"2019061613000214"}],"pageModel":{"pageNow":937,"totalCount":10973,"totalPage":1098,"tableRows":0,"pageCount":10,"beginCount":9360},"isExperi":"1"}