{"message":"","today":"2020-06-15","seleList":[{"poweroffId":2019061513000330,"sgpoweroffId":null,"subsName":"","lineName":"邱庄线539","pubTranName":"北合村北配变,北合道方2号【纯农排变】,北合道方【纯农排变】,北合二十里铺道【纯农排变】,北合固店道【纯农排变】,北合官地2号【纯农排变】,北合官地【纯农排变】,北合村北【纯农排变】,北合小学,北合许庄道2号【纯农排变】,北合许庄道【纯农排变】,北合于营道2号【纯农排变】,北合于营道【纯农排变】,北合果园2号【纯农排变】,北合果园【纯农排变】,北合果园南【纯农排变】,北合红房子2号【纯农排变】,北合红房子【纯农排变】,北合内北,北合内东北,北合内东南,北合内东南2号,北合内南,北合内西北,北合内西北2号配变,北合内西南,北合缩家佐2号【纯农排变】,北合缩家佐【纯农排变】,北合外北2号【纯农排变】,北合外北【纯农排变】,北合外南【纯农排变】,北合王京道2号【纯农排变】,北合王京道【纯农排变】,","scope":"【影响街道/乡镇】固店镇 【高危重要客户】无　　 【影响客户】北合村","startTime":"2019-06-26 06:00:00","stopDate":"2019-06-26 09:00:00","orgNo":"1340623","typeCode":"计划停电","poweroffArea":"【分支停电】停北合村北【纯农排变】,北合村北配变,北合道方2号【纯农排变】,北合道方【纯农排变】,北合二十里铺道【纯农排变】,北合固店道【纯农排变】,北合官地2号【纯农排变】,北合官地【纯农排变】,北合果园2号【纯农排变】,北合果园【纯农排变】,北合果园南【纯农排变】,北合红房子2号【纯农排变】,北合红房子【纯农排变】,北合内北,北合内东北,北合内东南,北合内东南2号,北合内南,北合内西北,北合内西北2号配变,北合内西南,北合缩家佐2号【纯农排变】,北合缩家佐【纯农排变】,北合外北2号【纯农排变】,北合外北【纯农排变】,北合外南【纯农排变】,北合王京道2号【纯农排变】,北合王京道【纯农排变】,北合小学,北合许庄道2号【纯农排变】,北合许庄道【纯农排变】,北合于营道2号【纯农排变】,北合于营道【纯农排变】","poweroffReason":"【停电原因】由于导线接引导致２２０ＫＶ固店变电站邱庄线５３９线路００９号杆５３９４号开关以下线路停电 【变更送电】因工作提前完工原因，送电时间由２２：００变更为０９：００ 【发布渠道】望都有线电视台（１９时００分至２０时００分之间）屏幕上方滚动","powerTime":"2019-06-26 08:18:39","powerComm":"已送电","subsNo":"","lineNo":"","tgNo":"","tgName":null,"infoStatus":"1","orgName":"国网望都县供电公司","typeName":null,"infoStatusName":null,"dateDay":null,"orgNos":null,"nowTime":null,"countyName":null,"streetName":null,"villageName":null,"roadName":null,"communityName":null,"tranName":null,"sdLineName":null,"cityCode":"1340623","cityName":"国网望都县供电公司","provinceCode":null,"stopTime":"2019-06-26 09:00:00","powerType":"全部","powerOffArea":"【分支停电】停北合村北【纯农排变】,北合村北配变,北合道方2号【纯农排变】,北合道方【纯农排变】,北合二十里铺道【纯农排变】,北合固店道【纯农排变】,北合官地2号【纯农排变】,北合官地【纯农排变】,北合果园2号【纯农排变】,北合果园【纯农排变】,北合果园南【纯农排变】,北合红房子2号【纯农排变】,北合红房子【纯农排变】,北合内北,北合内东北,北合内东南,北合内东南2号,北合内南,北合内西北,北合内西北2号配变,北合内西南,北合缩家佐2号【纯农排变】,北合缩家佐【纯农排变】,北合外北2号【纯农排变】,北合外北【纯农排变】,北合外南【纯农排变】,北合王京道2号【纯农排变】,北合王京道【纯农排变】,北合小学,北合许庄道2号【纯农排变】,北合许庄道【纯农排变】,北合于营道2号【纯农排变】,北合于营道【纯农排变】","powerOffReason":"【停电原因】由于导线接引导致２２０ＫＶ固店变电站邱庄线５３９线路００９号杆５３９４号开关以下线路停电 【变更送电】因工作提前完工原因，送电时间由２２：００变更为０９：００ 【发布渠道】望都有线电视台（１９时００分至２０时００分之间）屏幕上方滚动","powerOffId":"2019061513000330"},{"poweroffId":2019061513000321,"sgpoweroffId":null,"subsName":"","lineName":"阳村线533","pubTranName":"固店三队菜园【纯农排变】,保定天成机械制造有限公司,赤灰村东【纯农排变】,固店东南【纯农排变】,黄庄希望予制构件厂,北阳村内北,赤灰内西,固店东北【纯农排变】,望都恒泰机械制造有限公司,望都县瑞丰木业有限公司,北阳村面粉厂,0650393646-保定金物新材料科技有限公司-专变-199226391-保定金物新材料科技有限公司,南阳村新东农业【纯农排变】,南岗子内东,南阳村东【纯农排变】,南阳村内2号,固店中学2号配变,北阳村东南【纯农排变】,固店医院东【纯农排变】,固店中学,北阳村村南【纯农排变】,南岗子邱庄道边【纯农排变】,望都德厚制管有限责任公司,南岗子中队,固店外南1号【纯农排变】,顺义立庆板厂,路顺板厂,固店北合道东【纯农排变】,北阳村村内4号配变,农机油料供应站,赤灰外东【纯农排变】,望都县奥森木业有限公司,保定宏峰木业有限公司,固店村内,南岗子村内2号配变,北阳村东北新【纯农排变】,南阳村3号,固店派出所配变,北阳村天隆西【纯农排变】,固店试验田【纯农排变】,北阳村小学配变,南阳村内东,固店北【纯农排变】,固店内南1,固店村北【纯农排变】,北阳村幼儿园配变,南岗子东北【纯农排变】,保定凯瑞塑料制品制造有限公司,固店中学3号配变,固店一方南【纯农排变】,南岗子东北3号【纯农排变】,南岗子内东2号配变,固店村西【纯农排变】,赤灰内,南岗子新上,北阳村南混合,南阳村村东【纯农排变】,固店赤灰道【纯农排变】,黄庄边【纯农排变】,北阳村东【纯农排变】,南阳村西南农【纯农排变】,望都县圣通塑母粒厂,固店东【纯农排变】,北阳村东北【纯农排变】,保定市天隆服装设备有限公司,固店村西2号变压器【纯农排变】,南岗子村东2号配变【纯农排变】,古城镇北,固店内北,保定市天隆服装设备有限公司,北阳村内3号,固店北阳村道【纯农排变】,南岗子东北2号【纯农排变】,固店中学1号配变,恒泰机械,北阳村南跑2号【纯农排变】,固店南【纯农排变】,北阳村西南【纯农排变】,南阳村西北农【纯农排变】,南岗子桥上农【纯农排变】,0650394942-望都县鑫龙体育用品厂-专变-174562332-望都县鑫龙体育用品厂,南阳村内1,南阳村东1农【纯农排变】,固店小学新上,南岗子村内,望都县固店镇卫生院,固店东北2号【纯农排变】,北阳村内1,南阳村北【纯农排变】,固店内东,黄庄路东2,固店村北2号,南岗子幼儿园配变,","scope":"【影响街道/乡镇】固店镇、古城镇 【高危重要客户】无　　 【影响客户】固店村、北阳村、固店镇卫生院、固店镇派出所、南岗子村、赤灰、南阳村、黄庄部分农业、保定市天隆服装设备有限公司、望都县圣通塑母粒厂（凯瑞塑料制品）、望都县鑫龙体育用品厂、保定宏峰木业有限公司、望都县奥森木业有限公司、农机油料供应站、路顺板厂、顺义立庆板厂、南岗子中队、望都德厚制管有限责任公司（望都县昌盛铸造材料加工厂）、保定金物新材料科技有限公司、望都县瑞丰木业有限公司、北阳村面粉厂、黄庄希望予制构件厂、保定天成机械制造有限公司、恒泰机械、固店中学、固店小学、汇通木业","startTime":"2019-06-26 06:00:00","stopDate":"2019-06-26 09:00:00","orgNo":"1340623","typeCode":"计划停电","poweroffArea":"【全线路停电】停固店三队菜园【纯农排变】,保定天成机械制造有限公司,赤灰村东【纯农排变】,固店东南【纯农排变】,黄庄希望予制构件厂,北阳村内北,赤灰内西,固店东北【纯农排变】,望都恒泰机械制造有限公司,南阳村新东农业【纯农排变】,望都县瑞丰木业有限公司,北阳村面粉厂,0650393646-保定金物新材料科技有限公司-专变-199226391-保定金物新材料科技有限公司,南岗子内东,南阳村东【纯农排变】,南阳村内2号,固店中学2号配变,北阳村东南【纯农排变】,固店医院东【纯农排变】,固店中学,北阳村村南【纯农排变】,南岗子邱庄道边【纯农排变】,望都德厚制管有限责任公司,南岗子中队,固店外南1号【纯农排变】,顺义立庆板厂,路顺板厂,固店北合道东【纯农排变】,北阳村村内4号配变,农机油料供应站,赤灰外东【纯农排变】,望都县奥森木业有限公司,保定宏峰木业有限公司,固店村内,南岗子村内2号配变,北阳村东北新【纯农排变】,南阳村3号,固店派出所配变,北阳村天隆西【纯农排变】,固店试验田【纯农排变】,北阳村小学配变,南阳村内东,固店北【纯农排变】,固店内南1,0650394942-望都县鑫龙体育用品厂-专变-174562332-望都县鑫龙体育用品厂,南阳村内1,南阳村东1农【纯农排变】,固店小学新上,南岗子村内,固店村北【纯农排变】,北阳村幼儿园配变,南岗子东北【纯农排变】,保定凯瑞塑料制品制造有限公司,固店中学3号配变,固店一方南【纯农排变】,南岗子东北3号【纯农排变】,南岗子内东2号配变,固店村西【纯农排变】,赤灰内,南岗子新上,北阳村南混合,南阳村村东【纯农排变】,固店赤灰道【纯农排变】,黄庄边【纯农排变】,北阳村东【纯农排变】,南阳村西南农【纯农排变】,望都县圣通塑母粒厂,固店东【纯农排变】,北阳村东北【纯农排变】, 保定市天隆服装设备有限公司,固店村西2号变压器【纯农排变】,南岗子村东2号配变【纯农排变】,古城镇北,固店内北,保定市天隆服装设备有限公司,北阳村内3号,固店北阳村道【纯农排变】,南岗子东北2号【纯农排变】,固店中学1号配变,恒泰机械,北阳村南跑2号【纯农排变】,固店南【纯农排变】,北阳村西南【纯农排变】,南阳村西北农【纯农排变】,南岗子桥上农【纯农排变】,望都县固店镇卫生院,固店东北2号【纯农排变】,北阳村内1,南阳村北【纯农排变】,固店内东,黄庄路东2,固店村北2号,南岗子幼儿园配变","poweroffReason":"【停电原因】由于拆除导线、导线接引导致２２０ＫＶ固店变电站阳村线５３３线路全线停电 【变更送电】因工作提前完工原因，送电时间由２２：００变更为０９：００ 【发布渠道】保定市望都有线电视台（１９时００分至２０时００分之间）屏幕上方滚动","powerTime":"2019-06-26 08:19:38","powerComm":"已送电","subsNo":"","lineNo":"","tgNo":"","tgName":null,"infoStatus":"1","orgName":"国网望都县供电公司","typeName":null,"infoStatusName":null,"dateDay":null,"orgNos":null,"nowTime":null,"countyName":null,"streetName":null,"villageName":null,"roadName":null,"communityName":null,"tranName":null,"sdLineName":null,"cityCode":"1340623","cityName":"国网望都县供电公司","provinceCode":null,"stopTime":"2019-06-26 09:00:00","powerType":"全部","powerOffArea":"【全线路停电】停固店三队菜园【纯农排变】,保定天成机械制造有限公司,赤灰村东【纯农排变】,固店东南【纯农排变】,黄庄希望予制构件厂,北阳村内北,赤灰内西,固店东北【纯农排变】,望都恒泰机械制造有限公司,南阳村新东农业【纯农排变】,望都县瑞丰木业有限公司,北阳村面粉厂,0650393646-保定金物新材料科技有限公司-专变-199226391-保定金物新材料科技有限公司,南岗子内东,南阳村东【纯农排变】,南阳村内2号,固店中学2号配变,北阳村东南【纯农排变】,固店医院东【纯农排变】,固店中学,北阳村村南【纯农排变】,南岗子邱庄道边【纯农排变】,望都德厚制管有限责任公司,南岗子中队,固店外南1号【纯农排变】,顺义立庆板厂,路顺板厂,固店北合道东【纯农排变】,北阳村村内4号配变,农机油料供应站,赤灰外东【纯农排变】,望都县奥森木业有限公司,保定宏峰木业有限公司,固店村内,南岗子村内2号配变,北阳村东北新【纯农排变】,南阳村3号,固店派出所配变,北阳村天隆西【纯农排变】,固店试验田【纯农排变】,北阳村小学配变,南阳村内东,固店北【纯农排变】,固店内南1,0650394942-望都县鑫龙体育用品厂-专变-174562332-望都县鑫龙体育用品厂,南阳村内1,南阳村东1农【纯农排变】,固店小学新上,南岗子村内,固店村北【纯农排变】,北阳村幼儿园配变,南岗子东北【纯农排变】,保定凯瑞塑料制品制造有限公司,固店中学3号配变,固店一方南【纯农排变】,南岗子东北3号【纯农排变】,南岗子内东2号配变,固店村西【纯农排变】,赤灰内,南岗子新上,北阳村南混合,南阳村村东【纯农排变】,固店赤灰道【纯农排变】,黄庄边【纯农排变】,北阳村东【纯农排变】,南阳村西南农【纯农排变】,望都县圣通塑母粒厂,固店东【纯农排变】,北阳村东北【纯农排变】, 保定市天隆服装设备有限公司,固店村西2号变压器【纯农排变】,南岗子村东2号配变【纯农排变】,古城镇北,固店内北,保定市天隆服装设备有限公司,北阳村内3号,固店北阳村道【纯农排变】,南岗子东北2号【纯农排变】,固店中学1号配变,恒泰机械,北阳村南跑2号【纯农排变】,固店南【纯农排变】,北阳村西南【纯农排变】,南阳村西北农【纯农排变】,南岗子桥上农【纯农排变】,望都县固店镇卫生院,固店东北2号【纯农排变】,北阳村内1,南阳村北【纯农排变】,固店内东,黄庄路东2,固店村北2号,南岗子幼儿园配变","powerOffReason":"【停电原因】由于拆除导线、导线接引导致２２０ＫＶ固店变电站阳村线５３３线路全线停电 【变更送电】因工作提前完工原因，送电时间由２２：００变更为０９：００ 【发布渠道】保定市望都有线电视台（１９时００分至２０时００分之间）屏幕上方滚动","powerOffId":"2019061513000321"},{"poweroffId":2019061513000313,"sgpoweroffId":null,"subsName":"","lineName":"黄庄I线534","pubTranName":"东白城正南【纯农排变】,东白城内东2号,西白城小学,西白城西北1号【纯农排变】,西白城于街2号配变,唐会幼儿园配变,黄庄光伏配变,东安里内东2号配变,东白城光伏2号配变,闫庄村内,崔庄村东混,西白城中心2号【纯农排变】,闫庄北混配变,东白城光伏1号配变,东安里村内,崔庄村东【纯农排变】,西白城内东北2号,崔庄东北2号【纯农排变】,北岗子内南,东白城村内北,西白城村东农业【纯农排变】,西白城石桥路【纯农排变】,西白城内西,东白城最西【纯农排变】,西白城内北,唐会村北2号【纯农排变】,北阳村北2号【纯农排变】,西白城内中心,唐会村东北2号【纯农排变】,东白城内东,唐会内西北,东白城东南【纯农排变】,崔庄村南【纯农排变】,唐会内北,西白城连颐道2号【纯农排变】,东白城南农业【纯农排变】,崔庄道【纯农排变】,北岗子东北【纯农排变】,西白城内东南,东白城沟北2号【纯农排变】,东白城东北2号【纯农排变】,西白城马道【纯农排变】,东安里内东,东白城南农业2号【纯农排变】,唐会村南,北岗子内东,北阳村村北2号【纯农排变】,北岗子东北2号【纯农排变】,西白城于街,东白城东北农业【纯农排变】,黄庄西【纯农排变】,黄庄村内西,西白城石桥2号【纯农排变】,北岗子村内,崔庄西南农业【纯农排变】,西白城石子路【纯农排变】,崔庄东北【纯农排变】,西白城果园中【纯农排变】,西白城羊场【纯农排变】,唐会道农业【纯农排变】,西白城岗子道农业【纯农排变】,北阳村外北【纯农排变】,南岗子西北农业【纯农排变】,东安里东北1号【纯农排变】,东白城内东北,西白城中学内新上,崔庄西北【纯农排变】,东白城闫庄道【纯农排变】,唐会村内东,西白城槽子地【纯农排变】,东白城北农业【纯农排变】,西白城果园【纯农排变】,西白城小村,西白城连颐道【纯农排变】,东白城村内,唐会村北,东白城沟北1号【纯农排变】,西白城外西南【纯农排变】,唐会村内西南,闫庄村西农业【纯农排变】,西白城果园中2号【纯农排变】,西白城小村北内,西白城内东,崔庄内西北,东白城果园【纯农排变】,东白城南【纯农排变】,西白城内东北,北岗子东北3号【纯农排变】,唐会村东,西白城西北农业2号【纯农排变】,崔庄村内,崔庄内东南,东白城东边【纯农排变】,东白城村东农业【纯农排变】,东白城内西,西白城内西南,崔庄内东北,东安里东北2号【纯农排变】,西白城内南,西白城中心路【纯农排变】,崔庄内北,崔庄正北【纯农排变】,","scope":"【影响街道/乡镇】固店镇、黑堡乡 【高危重要客户】无　　 【影响客户】东白城、崔庄、东安里、唐会、北岗子、闫庄、西白城、东白城电磁厂、三正纸箱包装厂、张占田木材加工、崔庄樱桃园、五星粉丝有限公司、东白城信誉面粉厂、望都县中天养殖场、保定华明水泥制品、中天养殖、奇奇日用品、北阳村部分农业、南岗子（西北）农业","startTime":"2019-06-27 06:00:00","stopDate":"2019-06-27 22:00:00","orgNo":"1340623","typeCode":"计划停电","poweroffArea":"【分支停电】停东白城正南【纯农排变】,东白城内东2号,西白城小学,西白城西北1号【纯农排变】,西白城于街2号配变,唐会幼儿园配变,黄庄光伏配变,东安里内东2号配变,东白城光伏2号配变,闫庄村内,崔庄村东混,西白城中心2号【纯农排变】,闫庄北混配变,东白城光伏1号配变,东安里村内,崔庄村东【纯农排变】,西白城内东北2号,崔庄东北2号【纯农排变】,北岗子内南,东白城村内北,西白城村东农业【纯农排变】,西白城石桥路【纯农排变】,西白城内西,东白城最西【纯农排变】,西白城内北,唐会村北2号【纯农排变】,北阳村北2号【纯农排变】,西白城内中心,唐会村东北2号【纯农排变】,东白城内东,唐会内西北,东白城东南【纯农排变】,崔庄村南【纯农排变】,唐会内北,西白城连颐道2号【纯农排变】,东白城南农业【纯农排变】,崔庄道【纯农排变】,北岗子东北【纯农排变】,西白城内东南,东白城沟北2号【纯农排变】,东白城东北2号【纯农排变】,西白城马道【纯农排变】,东安里内东,东白城南农业2号【纯农排变】,唐会村南,北岗子内东,北阳村村北2号【纯农排变】,北岗子东北2号【纯农排变】,西白城于街,东白城东北农业【纯农排变】,黄庄西【纯农排变】,黄庄村内西,西白城石桥2号【纯农排变】,北岗子村内,崔庄西南农业【纯农排变】,西白城石子路【纯农排变】,崔庄东北【纯农排变】,西白城果园中【纯农排变】,西白城羊场【纯农排变】,唐会道农业【纯农排变】,西白城岗子道农业【纯农排变】,北阳村外北【纯农排变】,南岗子西北农业【纯农排变】,东安里东北1号【纯农排变】,东白城内东北,西白城中学内新上,崔庄西北【纯农排变】,东白城闫庄道【纯农排变】,唐会村内东,西白城槽子地【纯农排变】,东白城北农业【纯农排变】,西白城果园【纯农排变】,西白城小村,西白城连颐道【纯农排变】,东白城村内,西白城中心路【纯农排变】,唐会村北,东白城沟北1号【纯农排变】,东白城果园【纯农排变】,东白城南【纯农排变】,西白城内东北,北岗子东北3号【纯农排变】,唐会村东,西白城西北农业2号【纯农排变】,崔庄村内,崔庄内东南,东白城东边【纯农排变】,东白城村东农业【纯农排变】,东白城内西,西白城内西南,崔庄内东北,东安里东北2号【纯农排变】,西白城内南,崔庄内北,崔庄正北【纯农排变】,西白城外西南【纯农排变】,唐会村内西南,闫庄村西农业【纯农排变】,西白城果园中2号【纯农排变】,西白城小村北内,西白城内东,崔庄内西北","poweroffReason":"【停电原因】由于导线接引、拆除导线导致２２０ＫＶ固店变电站黄庄Ｉ线５３４线路００６号杆５３４３号开关以下线路停电 【变更送电】无 【发布渠道】保定市望都有线电视台（０６月１６日至０６月２６日１９时００分至２０时００分之间）屏幕上方滚动","powerTime":"2019-06-27 21:20:23","powerComm":"已送电","subsNo":"","lineNo":"","tgNo":"","tgName":null,"infoStatus":"1","orgName":"国网望都县供电公司","typeName":null,"infoStatusName":null,"dateDay":null,"orgNos":null,"nowTime":null,"countyName":null,"streetName":null,"villageName":null,"roadName":null,"communityName":null,"tranName":null,"sdLineName":null,"cityCode":"1340623","cityName":"国网望都县供电公司","provinceCode":null,"stopTime":"2019-06-27 22:00:00","powerType":"全部","powerOffArea":"【分支停电】停东白城正南【纯农排变】,东白城内东2号,西白城小学,西白城西北1号【纯农排变】,西白城于街2号配变,唐会幼儿园配变,黄庄光伏配变,东安里内东2号配变,东白城光伏2号配变,闫庄村内,崔庄村东混,西白城中心2号【纯农排变】,闫庄北混配变,东白城光伏1号配变,东安里村内,崔庄村东【纯农排变】,西白城内东北2号,崔庄东北2号【纯农排变】,北岗子内南,东白城村内北,西白城村东农业【纯农排变】,西白城石桥路【纯农排变】,西白城内西,东白城最西【纯农排变】,西白城内北,唐会村北2号【纯农排变】,北阳村北2号【纯农排变】,西白城内中心,唐会村东北2号【纯农排变】,东白城内东,唐会内西北,东白城东南【纯农排变】,崔庄村南【纯农排变】,唐会内北,西白城连颐道2号【纯农排变】,东白城南农业【纯农排变】,崔庄道【纯农排变】,北岗子东北【纯农排变】,西白城内东南,东白城沟北2号【纯农排变】,东白城东北2号【纯农排变】,西白城马道【纯农排变】,东安里内东,东白城南农业2号【纯农排变】,唐会村南,北岗子内东,北阳村村北2号【纯农排变】,北岗子东北2号【纯农排变】,西白城于街,东白城东北农业【纯农排变】,黄庄西【纯农排变】,黄庄村内西,西白城石桥2号【纯农排变】,北岗子村内,崔庄西南农业【纯农排变】,西白城石子路【纯农排变】,崔庄东北【纯农排变】,西白城果园中【纯农排变】,西白城羊场【纯农排变】,唐会道农业【纯农排变】,西白城岗子道农业【纯农排变】,北阳村外北【纯农排变】,南岗子西北农业【纯农排变】,东安里东北1号【纯农排变】,东白城内东北,西白城中学内新上,崔庄西北【纯农排变】,东白城闫庄道【纯农排变】,唐会村内东,西白城槽子地【纯农排变】,东白城北农业【纯农排变】,西白城果园【纯农排变】,西白城小村,西白城连颐道【纯农排变】,东白城村内,西白城中心路【纯农排变】,唐会村北,东白城沟北1号【纯农排变】,东白城果园【纯农排变】,东白城南【纯农排变】,西白城内东北,北岗子东北3号【纯农排变】,唐会村东,西白城西北农业2号【纯农排变】,崔庄村内,崔庄内东南,东白城东边【纯农排变】,东白城村东农业【纯农排变】,东白城内西,西白城内西南,崔庄内东北,东安里东北2号【纯农排变】,西白城内南,崔庄内北,崔庄正北【纯农排变】,西白城外西南【纯农排变】,唐会村内西南,闫庄村西农业【纯农排变】,西白城果园中2号【纯农排变】,西白城小村北内,西白城内东,崔庄内西北","powerOffReason":"【停电原因】由于导线接引、拆除导线导致２２０ＫＶ固店变电站黄庄Ｉ线５３４线路００６号杆５３４３号开关以下线路停电 【变更送电】无 【发布渠道】保定市望都有线电视台（０６月１６日至０６月２６日１９时００分至２０时００分之间）屏幕上方滚动","powerOffId":"2019061513000313"},{"poweroffId":2019061513000303,"sgpoweroffId":null,"subsName":"","lineName":"10kV王庄线544","pubTranName":"1西王庄内4,","scope":"【影响街道/乡镇】张登乡 【高危重要客户】无 【影响客户】西王庄","startTime":"2019-06-17 06:00:00","stopDate":"2019-06-17 18:30:00","orgNo":"1340618","typeCode":"临时停电","poweroffArea":"【单台区停电】停1西王庄内4","poweroffReason":"【停电原因】由于更换低压导线导致２２０ＫＶ邓村变电站１０ＫＶ王庄线５４４线路１西王庄内４号公变台区停电 【变更送电】无 【发布渠道】通过９５５９８发布","powerTime":"2019-06-17 17:50:00","powerComm":"王朝晖通知已送电","subsNo":"","lineNo":"","tgNo":"","tgName":null,"infoStatus":"1","orgName":"国网清苑县供电公司","typeName":null,"infoStatusName":null,"dateDay":null,"orgNos":null,"nowTime":null,"countyName":null,"streetName":null,"villageName":null,"roadName":null,"communityName":null,"tranName":null,"sdLineName":null,"cityCode":"1340618","cityName":"国网清苑县供电公司","provinceCode":null,"stopTime":"2019-06-17 18:30:00","powerType":"全部","powerOffArea":"【单台区停电】停1西王庄内4","powerOffReason":"【停电原因】由于更换低压导线导致２２０ＫＶ邓村变电站１０ＫＶ王庄线５４４线路１西王庄内４号公变台区停电 【变更送电】无 【发布渠道】通过９５５９８发布","powerOffId":"2019061513000303"},{"poweroffId":2019061513000299,"sgpoweroffId":null,"subsName":"","lineName":"10kV王庄线544","pubTranName":"1河北李庄内1,","scope":"【影响街道/乡镇】张登乡 【高危重要客户】无 【影响客户】河北李庄","startTime":"2019-06-17 06:00:00","stopDate":"2019-06-17 19:30:00","orgNo":"1340618","typeCode":"临时停电","poweroffArea":"【单台区停电】停1河北李庄内1","poweroffReason":"【停电原因】由于更换低压导线导致２２０ＫＶ邓村变电站１０ＫＶ王庄线５４４线路１河北李庄内１号公变台区停电 【变更送电】因工作量大，送电时间由１８：３０变更为１９：３０ 【发布渠道】通过９５５９８发布","powerTime":"2019-06-17 19:20:56","powerComm":"王朝晖通知已送电","subsNo":"","lineNo":"","tgNo":"","tgName":null,"infoStatus":"1","orgName":"国网清苑县供电公司","typeName":null,"infoStatusName":null,"dateDay":null,"orgNos":null,"nowTime":null,"countyName":null,"streetName":null,"villageName":null,"roadName":null,"communityName":null,"tranName":null,"sdLineName":null,"cityCode":"1340618","cityName":"国网清苑县供电公司","provinceCode":null,"stopTime":"2019-06-17 19:30:00","powerType":"全部","powerOffArea":"【单台区停电】停1河北李庄内1","powerOffReason":"【停电原因】由于更换低压导线导致２２０ＫＶ邓村变电站１０ＫＶ王庄线５４４线路１河北李庄内１号公变台区停电 【变更送电】因工作量大，送电时间由１８：３０变更为１９：３０ 【发布渠道】通过９５５９８发布","powerOffId":"2019061513000299"},{"poweroffId":2019061513000297,"sgpoweroffId":null,"subsName":"","lineName":"10kV王庄线544","pubTranName":"河北王庄内2,","scope":"【影响街道/乡镇】张登乡 【高危重要客户】无 【影响客户】河北王庄","startTime":"2019-06-17 06:00:00","stopDate":"2019-06-17 18:30:00","orgNo":"1340618","typeCode":"临时停电","poweroffArea":"【单台区停电】停河北王庄内2","poweroffReason":"【停电原因】由于更换低压导线导致２２０ＫＶ邓村变电站１０ＫＶ王庄线５４４线路河北王庄内２号公变台区停电 【变更送电】无 【发布渠道】通过９５５９８发布","powerTime":"2019-06-17 17:49:21","powerComm":"王朝晖通知已送电","subsNo":"","lineNo":"","tgNo":"","tgName":null,"infoStatus":"1","orgName":"国网清苑县供电公司","typeName":null,"infoStatusName":null,"dateDay":null,"orgNos":null,"nowTime":null,"countyName":null,"streetName":null,"villageName":null,"roadName":null,"communityName":null,"tranName":null,"sdLineName":null,"cityCode":"1340618","cityName":"国网清苑县供电公司","provinceCode":null,"stopTime":"2019-06-17 18:30:00","powerType":"全部","powerOffArea":"【单台区停电】停河北王庄内2","powerOffReason":"【停电原因】由于更换低压导线导致２２０ＫＶ邓村变电站１０ＫＶ王庄线５４４线路河北王庄内２号公变台区停电 【变更送电】无 【发布渠道】通过９５５９８发布","powerOffId":"2019061513000297"},{"poweroffId":2019061513000085,"sgpoweroffId":null,"subsName":"","lineName":"10kV南大冉线524","pubTranName":"保定市康达文体器材厂,清苑县小康汽车商贸有限公司,客户投资_1南二村内3,1南二村内14,清苑县韦各庄织染厂,保定冀东兴重型汽车销售有限公司,3建筑公司公用,1南二村内11,1南二村内10,2南二村外3,1南二村内9,1南二村内6,0626296199-保定驰奥汽车销售有限公司-专变-138791656-保定驰奥汽车销售有限公司,1南二村内12,建筑路灯,客户投资_1南二村内4,1南二村内5,1南二村内1,1南二村内13,南二村内8,南二村内7,养路工区公用1,保定荣畅公共交通有限公司,1南二村内15,","scope":"【影响街道/乡镇】清苑镇 【高危重要客户】无 【影响客户】南二村、建筑公司院、养路工区楼","startTime":"2019-06-17 04:00:00","stopDate":"2019-06-17 19:00:00","orgNo":"1340618","typeCode":"临时停电","poweroffArea":"【全线路停电】停南二村内8,南二村内7,养路工区公用1,保定市康达文体器材厂,清苑县小康汽车商贸有限公司,客户投资_1南二村内3,1南二村内14,清苑县韦各庄织染厂,保定冀东兴重型汽车销售有限公司,3建筑公司公用,1南二村内11,1南二村内10,2南二村外3,1南二村内9,保定荣畅公共交通有限公司,1南二村内15,1南二村内6,0626296199-保定驰奥汽车销售有限公司-专变-138791656-保定驰奥汽车销售有限公司,1南二村内12,建筑路灯,客户投资_1南二村内4,1南二村内5,1南二村内1,1南二村内13","poweroffReason":"【停电原因】由于线路新建工程导致１１０ＫＶ中冉变电站１０ＫＶ南大冉线５２４线路全线停电 【变更送电】因工作量大，送电时间由１７：００变更为１９：００ 【发布渠道】通过９５５９８发布","powerTime":"2019-06-17 18:20:48","powerComm":"段忠田通知已送电","subsNo":"","lineNo":"","tgNo":"","tgName":null,"infoStatus":"1","orgName":"国网清苑县供电公司","typeName":null,"infoStatusName":null,"dateDay":null,"orgNos":null,"nowTime":null,"countyName":null,"streetName":null,"villageName":null,"roadName":null,"communityName":null,"tranName":null,"sdLineName":null,"cityCode":"1340618","cityName":"国网清苑县供电公司","provinceCode":null,"stopTime":"2019-06-17 19:00:00","powerType":"全部","powerOffArea":"【全线路停电】停南二村内8,南二村内7,养路工区公用1,保定市康达文体器材厂,清苑县小康汽车商贸有限公司,客户投资_1南二村内3,1南二村内14,清苑县韦各庄织染厂,保定冀东兴重型汽车销售有限公司,3建筑公司公用,1南二村内11,1南二村内10,2南二村外3,1南二村内9,保定荣畅公共交通有限公司,1南二村内15,1南二村内6,0626296199-保定驰奥汽车销售有限公司-专变-138791656-保定驰奥汽车销售有限公司,1南二村内12,建筑路灯,客户投资_1南二村内4,1南二村内5,1南二村内1,1南二村内13","powerOffReason":"【停电原因】由于线路新建工程导致１１０ＫＶ中冉变电站１０ＫＶ南大冉线５２４线路全线停电 【变更送电】因工作量大，送电时间由１７：００变更为１９：００ 【发布渠道】通过９５５９８发布","powerOffId":"2019061513000085"},{"poweroffId":2019061513000072,"sgpoweroffId":null,"subsName":"","lineName":"10KV高官庄512","pubTranName":"南高官庄北4369增,","scope":"【影响街道/乡镇】高官庄镇 【高危重要客户】无 【影响客户】南高官庄","startTime":"2019-06-25 13:30:00","stopDate":"2019-06-25 17:30:00","orgNo":"1340626","typeCode":"计划停电","poweroffArea":"【单台区停电】停南高官庄北4369增","poweroffReason":"【停电原因】由于更换低压电缆导致３５ＫＶ高官庄变电站１０ＫＶ高官庄５１２线路南高官庄北４３６９公变台区停电 【变更送电】无 【发布渠道】涿州电视台（０６月１５日至０６月２４日２１：００播放２次）屏幕上方滚动","powerTime":"2019-06-25 17:10:25","powerComm":"恢复送电","subsNo":"","lineNo":"","tgNo":"","tgName":null,"infoStatus":"1","orgName":"国网涿州市供电公司","typeName":null,"infoStatusName":null,"dateDay":null,"orgNos":null,"nowTime":null,"countyName":null,"streetName":null,"villageName":null,"roadName":null,"communityName":null,"tranName":null,"sdLineName":null,"cityCode":"1340626","cityName":"国网涿州市供电公司","provinceCode":null,"stopTime":"2019-06-25 17:30:00","powerType":"全部","powerOffArea":"【单台区停电】停南高官庄北4369增","powerOffReason":"【停电原因】由于更换低压电缆导致３５ＫＶ高官庄变电站１０ＫＶ高官庄５１２线路南高官庄北４３６９公变台区停电 【变更送电】无 【发布渠道】涿州电视台（０６月１５日至０６月２４日２１：００播放２次）屏幕上方滚动","powerOffId":"2019061513000072"},{"poweroffId":2019061513000069,"sgpoweroffId":null,"subsName":"","lineName":"10KV高官庄512","pubTranName":"南高官庄北1042增,","scope":"【影响街道/乡镇】高官庄镇 【高危重要客户】无 【影响客户】南高官庄","startTime":"2019-06-25 07:00:00","stopDate":"2019-06-25 11:00:00","orgNo":"1340626","typeCode":"计划停电","poweroffArea":"【单台区停电】停南高官庄北1042增","poweroffReason":"【停电原因】由于更换低压电缆导致３５ＫＶ高官庄变电站１０ＫＶ高官庄５１２线路南高官庄北１０４２公变台区停电 【变更送电】无 【发布渠道】涿州电视台（０６月１５日至０６月２４日２１：００播放２次）屏幕上方滚动","powerTime":"2019-06-25 10:15:51","powerComm":"恢复送电","subsNo":"","lineNo":"","tgNo":"","tgName":null,"infoStatus":"1","orgName":"国网涿州市供电公司","typeName":null,"infoStatusName":null,"dateDay":null,"orgNos":null,"nowTime":null,"countyName":null,"streetName":null,"villageName":null,"roadName":null,"communityName":null,"tranName":null,"sdLineName":null,"cityCode":"1340626","cityName":"国网涿州市供电公司","provinceCode":null,"stopTime":"2019-06-25 11:00:00","powerType":"全部","powerOffArea":"【单台区停电】停南高官庄北1042增","powerOffReason":"【停电原因】由于更换低压电缆导致３５ＫＶ高官庄变电站１０ＫＶ高官庄５１２线路南高官庄北１０４２公变台区停电 【变更送电】无 【发布渠道】涿州电视台（０６月１５日至０６月２４日２１：００播放２次）屏幕上方滚动","powerOffId":"2019061513000069"},{"poweroffId":2019061413000484,"sgpoweroffId":null,"subsName":"","lineName":"南上坎561","pubTranName":"0554879350-保定陆港投资有限公司-专变-81402837-保定市星源物流有限公司,前大留村东【纯农排变】,后大留村内,前大留村南,0387467120-后大留村委会-专变-45296371-后大留2号,0387466198-后大留预制件厂-专变-45296370-后大留预制件厂,保定市满城区会来废品收购站,后大留西南【纯农排变】,车床厂,后大留2号,中贤台村内新增,保定市金创园区建设发展有限公司,后大留学校,后大留新增2,中贤台村内,0607115549-保定神荣卫生用品制造有限公司-专变-127448676-林海纸业有限公司,天望地产,后大留西南新增（农网）【纯农排变】,中贤台综合,后大留新增1,西贤台新增2号,后大留新增5号,东贤台中学,0387466983-西贤台王杰养猪场-专变-45296269-西贤台王杰养猪场,0615979379-保定春生散热器有限公司-专变-128437988-保定市信荣散热器有限公司,后大留村南【纯农排变】,前大留村西,永兴养猪厂,东黄村南,东黄村【纯农排变】,后大留1号,东贤台村北,0610598339-保定市交通运输局徐水区养路工区2号-专变-127688114-保定市交通运输局徐水县养路工区2号,经济开发区,后大留贾亚伟养殖场,0387467117-贤台乡政府-专变-45296273-贤台乡政府,东黄村新增,后大留村西（农网）【纯农排变】,后大留新增【纯农排变】,东黄村村北,后大留村新增3号,留马村东新增2号,后大留4号,满城县富强炭业有限公司,0387466677-中贤台村委会-专变-45296436-中贤台村北,中贤台北上坡,西贤台村内,保定市信荣散热器有限公司,0387466707-后大留猪厂-专变-45296211-后大留猪厂,满城县威望养殖专业合作社,东黄村村南【纯农排变】,","scope":"【影响街道/乡镇】要庄乡 【高危重要客户】无 【影响客户】前大留、后大留、东黄村、西贤台、东贤台、中贤台、路港国际物流园","startTime":"2019-06-19 07:00:00","stopDate":"2019-06-19 13:30:00","orgNo":"1340617","typeCode":"临时停电","poweroffArea":"【全线路停电】停东黄村【纯农排变】,天望地产,后大留村西（农网）【纯农排变】,后大留1号,后大留新增【纯农排变】,东黄村村北,后大留村新增3号,留马村东新增2号,后大留4号,满城县富强炭业有限公司,0387466677-中贤台村委会-专变-45296436-中贤台村北,中贤台北上坡,后大留学校,后大留新增2,中贤台村内,东黄村南,0387466707-后大留猪厂-专变-45296211-后大留猪厂,西贤台村内,后大留西南【纯农排变】,车床厂,后大留2号,保定市金创园区建设发展有限公司,0615979379-保定春生散热器有限公司-专变-128437988-保定市信荣散热器有限公司,0554879350-保定陆港投资有限公司-专变-81402837-保定市星源物流有限公司,前大留村东【纯农排变】,后大留村内,前大留村南,0387467120-后大留村委会-专变-45296371-后大留2号,0387466198-后大留预制件厂-专变-45296370-后大留预制件厂,保定市满城区会来废品收购站,经济开发区,0387466983-西贤台王杰养猪场-专变-45296269-西贤台王杰养猪场,后大留村南【纯农排变】,前大留村西,0607115549-保定神荣卫生用品制造有限公司-专变-127448676-林海纸业有限公司,后大留西南新增（农网）【纯农排变】,满城县威望养殖专业合作社,中贤台综合,后大留新增1,西贤台新增2号,后大留新增5号,东贤台中学,保定市信荣散热器有限公司,0610598339-保定市交通运输局徐水区养路工区2号-专变-127688114-保定市交通运输局徐水县养路工区2号,中贤台村内新增,永兴养猪厂,东贤台村北,后大留贾亚伟养殖场,0387467117-贤台乡政府-专变-45296273-贤台乡政府,东黄村新增,东黄村村南【纯农排变】","poweroffReason":"【停电原因】由于线路检修导致２２０ＫＶ电谷变电站南上坎５６１线路全线停电 【变更送电】因工作进度加快原因，送电时间由１８：００变更为:１３：３０ 【发布渠道】通过９５５９８发布","powerTime":"2019-06-19 13:14:12","powerComm":"已送电","subsNo":"","lineNo":"","tgNo":"","tgName":null,"infoStatus":"1","orgName":"国网满城县供电公司","typeName":null,"infoStatusName":null,"dateDay":null,"orgNos":null,"nowTime":null,"countyName":null,"streetName":null,"villageName":null,"roadName":null,"communityName":null,"tranName":null,"sdLineName":null,"cityCode":"1340617","cityName":"国网满城县供电公司","provinceCode":null,"stopTime":"2019-06-19 13:30:00","powerType":"全部","powerOffArea":"【全线路停电】停东黄村【纯农排变】,天望地产,后大留村西（农网）【纯农排变】,后大留1号,后大留新增【纯农排变】,东黄村村北,后大留村新增3号,留马村东新增2号,后大留4号,满城县富强炭业有限公司,0387466677-中贤台村委会-专变-45296436-中贤台村北,中贤台北上坡,后大留学校,后大留新增2,中贤台村内,东黄村南,0387466707-后大留猪厂-专变-45296211-后大留猪厂,西贤台村内,后大留西南【纯农排变】,车床厂,后大留2号,保定市金创园区建设发展有限公司,0615979379-保定春生散热器有限公司-专变-128437988-保定市信荣散热器有限公司,0554879350-保定陆港投资有限公司-专变-81402837-保定市星源物流有限公司,前大留村东【纯农排变】,后大留村内,前大留村南,0387467120-后大留村委会-专变-45296371-后大留2号,0387466198-后大留预制件厂-专变-45296370-后大留预制件厂,保定市满城区会来废品收购站,经济开发区,0387466983-西贤台王杰养猪场-专变-45296269-西贤台王杰养猪场,后大留村南【纯农排变】,前大留村西,0607115549-保定神荣卫生用品制造有限公司-专变-127448676-林海纸业有限公司,后大留西南新增（农网）【纯农排变】,满城县威望养殖专业合作社,中贤台综合,后大留新增1,西贤台新增2号,后大留新增5号,东贤台中学,保定市信荣散热器有限公司,0610598339-保定市交通运输局徐水区养路工区2号-专变-127688114-保定市交通运输局徐水县养路工区2号,中贤台村内新增,永兴养猪厂,东贤台村北,后大留贾亚伟养殖场,0387467117-贤台乡政府-专变-45296273-贤台乡政府,东黄村新增,东黄村村南【纯农排变】","powerOffReason":"【停电原因】由于线路检修导致２２０ＫＶ电谷变电站南上坎５６１线路全线停电 【变更送电】因工作进度加快原因，送电时间由１８：００变更为:１３：３０ 【发布渠道】通过９５５９８发布","powerOffId":"2019061413000484"}],"pageModel":{"pageNow":939,"totalCount":10973,"totalPage":1098,"tableRows":0,"pageCount":10,"beginCount":9380},"isExperi":"1"}